trails/00d9de579c68e71117ffc152f8bf8771/aes_ch1_20250506165931956.csv

Model,MSO66B
Label,
Waveform Type,ANALOG
Horizontal Units,s
Sample Interval,4.00000000e-11
Record Length,10000
Zero Index,1599.09375000
Vertical Units,A
ANALOG_Thumbnail,
yOffset,1.84500000e-01
yPosition,8.40000000e-01

Labels,
TIME,CH1
-6.39637500e-08,1.86917187e-01
-6.39237500e-08,1.86884375e-01
-6.38837500e-08,1.86915625e-01
-6.38437500e-08,1.86884375e-01
-6.38037500e-08,1.86917187e-01
-6.37637500e-08,1.86879688e-01
-6.37237500e-08,1.86925000e-01
-6.36837500e-08,1.86865625e-01
-6.36437500e-08,1.86957813e-01
-6.36037500e-08,1.86689063e-01
-6.35637500e-08,1.86448438e-01
-6.35237500e-08,1.86526562e-01
-6.34837500e-08,1.86482813e-01
-6.34437500e-08,1.86512500e-01
-6.34037500e-08,1.86490625e-01
-6.33637500e-08,1.86507813e-01
-6.33237500e-08,1.86493750e-01
-6.32837500e-08,1.86504688e-01
-6.32437500e-08,1.86496875e-01
-6.32037500e-08,1.86501562e-01
-6.31637500e-08,1.86498438e-01
-6.31237500e-08,1.86500000e-01
-6.30837500e-08,1.86500000e-01
-6.30437500e-08,1.86498438e-01
-6.30037500e-08,1.86501562e-01
-6.29637500e-08,1.86496875e-01
-6.29237500e-08,1.86504688e-01
-6.28837500e-08,1.86493750e-01
-6.28437500e-08,1.86507813e-01
-6.28037500e-08,1.86490625e-01
-6.27637500e-08,1.86512500e-01
-6.27237500e-08,1.86481250e-01
-6.26837500e-08,1.86528125e-01
-6.26437500e-08,1.86446875e-01
-6.26037500e-08,1.86707813e-01
-6.25637500e-08,1.86954687e-01
-6.25237500e-08,1.86868750e-01
-6.24837500e-08,1.86920313e-01
-6.24437500e-08,1.86884375e-01
-6.24037500e-08,1.86910938e-01
-6.23637500e-08,1.86892188e-01
-6.23237500e-08,1.86904687e-01
-6.22837500e-08,1.86900000e-01
-6.22437500e-08,1.86895313e-01
-6.22037500e-08,1.86914063e-01
-6.21637500e-08,1.86860938e-01
-6.21237500e-08,1.87092188e-01
-6.20837500e-08,1.87370312e-01
-6.20437500e-08,1.87253125e-01
-6.20037500e-08,1.87339063e-01
-6.19637500e-08,1.87264062e-01
-6.19237500e-08,1.87337500e-01
-6.18837500e-08,1.87259375e-01
-6.18437500e-08,1.87348438e-01
-6.18037500e-08,1.87228125e-01
-6.17637500e-08,1.87525000e-01
-6.17237500e-08,1.87737500e-01
-6.16837500e-08,1.87687500e-01
-6.16437500e-08,1.87701563e-01
-6.16037500e-08,1.87704687e-01
-6.15637500e-08,1.87687500e-01
-6.15237500e-08,1.87723438e-01
-6.14837500e-08,1.87651563e-01
-6.14437500e-08,1.87903125e-01
-6.14037500e-08,1.88159375e-01
-6.13637500e-08,1.88062500e-01
-6.13237500e-08,1.88128125e-01
-6.12837500e-08,1.88075000e-01
-6.12437500e-08,1.88125000e-01
-6.12037500e-08,1.88071875e-01
-6.11637500e-08,1.88134375e-01
-6.11237500e-08,1.88042188e-01
-6.10837500e-08,1.88310937e-01
-6.10437500e-08,1.88553125e-01
-6.10037500e-08,1.88470313e-01
-6.09637500e-08,1.88521875e-01
-6.09237500e-08,1.88481250e-01
-6.08837500e-08,1.88517188e-01
-6.08437500e-08,1.88484375e-01
-6.08037500e-08,1.88515625e-01
-6.07637500e-08,1.88482813e-01
-6.07237500e-08,1.88520313e-01
-6.06837500e-08,1.88475000e-01
-6.06437500e-08,1.88534375e-01
-6.06037500e-08,1.88440625e-01
-6.05637500e-08,1.88712500e-01
-6.05237500e-08,1.88950000e-01
-6.04837500e-08,1.88873438e-01
-6.04437500e-08,1.88915625e-01
-6.04037500e-08,1.88889063e-01
-6.03637500e-08,1.88906250e-01
-6.03237500e-08,1.88896875e-01
-6.02837500e-08,1.88898438e-01
-6.02437500e-08,1.88907812e-01
-6.02037500e-08,1.88882812e-01
-6.01637500e-08,1.88942187e-01
-6.01237500e-08,1.88704687e-01
-6.00837500e-08,1.88432813e-01
-6.00437500e-08,1.88543750e-01
-6.00037500e-08,1.88465625e-01
-5.99637500e-08,1.88531250e-01
-5.99237500e-08,1.88471875e-01
-5.98837500e-08,1.88528125e-01
-5.98437500e-08,1.88471875e-01
-5.98037500e-08,1.88529688e-01
-5.97637500e-08,1.88467188e-01
-5.97237500e-08,1.88537500e-01
-5.96837500e-08,1.88453125e-01
-5.96437500e-08,1.88571875e-01
-5.96037500e-08,1.88275000e-01
-5.95637500e-08,1.88064063e-01
-5.95237500e-08,1.88110938e-01
-5.94837500e-08,1.88101563e-01
-5.94437500e-08,1.88090625e-01
-5.94037500e-08,1.88117188e-01
-5.93637500e-08,1.88070313e-01
-5.93237500e-08,1.88156250e-01
-5.92837500e-08,1.87889063e-01
-5.92437500e-08,1.87650000e-01
-5.92037500e-08,1.87725000e-01
-5.91637500e-08,1.87685938e-01
-5.91237500e-08,1.87707813e-01
-5.90837500e-08,1.87698438e-01
-5.90437500e-08,1.87696875e-01
-5.90037500e-08,1.87710938e-01
-5.89637500e-08,1.87678125e-01
-5.89237500e-08,1.87746875e-01
-5.88837500e-08,1.87498438e-01
-5.88437500e-08,1.87240625e-01
-5.88037500e-08,1.87335937e-01
-5.87637500e-08,1.87275000e-01
-5.87237500e-08,1.87320313e-01
-5.86837500e-08,1.87282813e-01
-5.86437500e-08,1.87314063e-01
-5.86037500e-08,1.87287500e-01
-5.85637500e-08,1.87310937e-01
-5.85237500e-08,1.87290625e-01
-5.84837500e-08,1.87307813e-01
-5.84437500e-08,1.87292188e-01
-5.84037500e-08,1.87306250e-01
-5.83637500e-08,1.87295313e-01
-5.83237500e-08,1.87304688e-01
-5.82837500e-08,1.87296875e-01
-5.82437500e-08,1.87301563e-01
-5.82037500e-08,1.87298437e-01
-5.81637500e-08,1.87300000e-01
-5.81237500e-08,1.87301563e-01
-5.80837500e-08,1.87295313e-01
-5.80437500e-08,1.87307813e-01
-5.80037500e-08,1.87287500e-01
-5.79637500e-08,1.87321875e-01
-5.79237500e-08,1.87253125e-01
-5.78837500e-08,1.87500000e-01
-5.78437500e-08,1.87760938e-01
-5.78037500e-08,1.87662500e-01
-5.77637500e-08,1.87728125e-01
-5.77237500e-08,1.87676563e-01
-5.76837500e-08,1.87720313e-01
-5.76437500e-08,1.87682813e-01
-5.76037500e-08,1.87715625e-01
-5.75637500e-08,1.87684375e-01
-5.75237500e-08,1.87714063e-01
-5.74837500e-08,1.87685938e-01
-5.74437500e-08,1.87712500e-01
-5.74037500e-08,1.87687500e-01
-5.73637500e-08,1.87712500e-01
-5.73237500e-08,1.87687500e-01
-5.72837500e-08,1.87712500e-01
-5.72437500e-08,1.87687500e-01
-5.72037500e-08,1.87710938e-01
-5.71637500e-08,1.87689063e-01
-5.71237500e-08,1.87710938e-01
-5.70837500e-08,1.87689063e-01
-5.70437500e-08,1.87710938e-01
-5.70037500e-08,1.87689063e-01
-5.69637500e-08,1.87712500e-01
-5.69237500e-08,1.87687500e-01
-5.68837500e-08,1.87712500e-01
-5.68437500e-08,1.87687500e-01
-5.68037500e-08,1.87712500e-01
-5.67637500e-08,1.87685938e-01
-5.67237500e-08,1.87714063e-01
-5.66837500e-08,1.87685938e-01
-5.66437500e-08,1.87715625e-01
-5.66037500e-08,1.87682813e-01
-5.65637500e-08,1.87718750e-01
-5.65237500e-08,1.87679687e-01
-5.64837500e-08,1.87723438e-01
-5.64437500e-08,1.87670313e-01
-5.64037500e-08,1.87739062e-01
-5.63637500e-08,1.87635938e-01
-5.63237500e-08,1.87917187e-01
-5.62837500e-08,1.88145312e-01
-5.62437500e-08,1.88079688e-01
-5.62037500e-08,1.88110938e-01
-5.61637500e-08,1.88095313e-01
-5.61237500e-08,1.88101563e-01
-5.60837500e-08,1.88101563e-01
-5.60437500e-08,1.88095313e-01
-5.60037500e-08,1.88106250e-01
-5.59637500e-08,1.88090625e-01
-5.59237500e-08,1.88114063e-01
-5.58837500e-08,1.88081250e-01
-5.58437500e-08,1.88129688e-01
-5.58037500e-08,1.88045313e-01
-5.57637500e-08,1.88307813e-01
-5.57237500e-08,1.88553125e-01
-5.56837500e-08,1.88470313e-01
-5.56437500e-08,1.88520313e-01
-5.56037500e-08,1.88485938e-01
-5.55637500e-08,1.88510938e-01
-5.55237500e-08,1.88490625e-01
-5.54837500e-08,1.88507813e-01
-5.54437500e-08,1.88493750e-01
-5.54037500e-08,1.88504688e-01
-5.53637500e-08,1.88496875e-01
-5.53237500e-08,1.88503125e-01
-5.52837500e-08,1.88498438e-01
-5.52437500e-08,1.88501562e-01
-5.52037500e-08,1.88500000e-01
-5.51637500e-08,1.88500000e-01
-5.51237500e-08,1.88501562e-01
-5.50837500e-08,1.88498438e-01
-5.50437500e-08,1.88503125e-01
-5.50037500e-08,1.88496875e-01
-5.49637500e-08,1.88504688e-01
-5.49237500e-08,1.88493750e-01
-5.48837500e-08,1.88506250e-01
-5.48437500e-08,1.88490625e-01
-5.48037500e-08,1.88510938e-01
-5.47637500e-08,1.88485938e-01
-5.47237500e-08,1.88520313e-01
-5.46837500e-08,1.88470313e-01
-5.46437500e-08,1.88556250e-01
-5.46037500e-08,1.88290625e-01
-5.45637500e-08,1.88048437e-01
-5.45237500e-08,1.88126563e-01
-5.44837500e-08,1.88084375e-01
-5.44437500e-08,1.88107812e-01
-5.44037500e-08,1.88100000e-01
-5.43637500e-08,1.88089063e-01
-5.43237500e-08,1.88137500e-01
-5.42837500e-08,1.87909375e-01
-5.42437500e-08,1.87628125e-01
-5.42037500e-08,1.87750000e-01
-5.41637500e-08,1.87657813e-01
-5.41237500e-08,1.87742188e-01
-5.40837500e-08,1.87651563e-01
-5.40437500e-08,1.87770313e-01
-5.40037500e-08,1.87479688e-01
-5.39637500e-08,1.87256250e-01
-5.39237500e-08,1.87320313e-01
-5.38837500e-08,1.87287500e-01
-5.38437500e-08,1.87309375e-01
-5.38037500e-08,1.87290625e-01
-5.37637500e-08,1.87309375e-01
-5.37237500e-08,1.87289063e-01
-5.36837500e-08,1.87315625e-01
-5.36437500e-08,1.87275000e-01
-5.36037500e-08,1.87348438e-01
-5.35637500e-08,1.87098438e-01
-5.35237500e-08,1.86839063e-01
-5.34837500e-08,1.86937500e-01
-5.34437500e-08,1.86871875e-01
-5.34037500e-08,1.86923438e-01
-5.33637500e-08,1.86878125e-01
-5.33237500e-08,1.86918750e-01
-5.32837500e-08,1.86881250e-01
-5.32437500e-08,1.86917187e-01
-5.32037500e-08,1.86882812e-01
-5.31637500e-08,1.86917187e-01
-5.31237500e-08,1.86882812e-01
-5.30837500e-08,1.86918750e-01
-5.30437500e-08,1.86881250e-01
-5.30037500e-08,1.86920313e-01
-5.29637500e-08,1.86878125e-01
-5.29237500e-08,1.86925000e-01
-5.28837500e-08,1.86870312e-01
-5.28437500e-08,1.86939063e-01
-5.28037500e-08,1.86835937e-01
-5.27637500e-08,1.87117188e-01
-5.27237500e-08,1.87343750e-01
-5.26837500e-08,1.87279688e-01
-5.26437500e-08,1.87310937e-01
-5.26037500e-08,1.87293750e-01
-5.25637500e-08,1.87303125e-01
-5.25237500e-08,1.87300000e-01
-5.24837500e-08,1.87298437e-01
-5.24437500e-08,1.87303125e-01
-5.24037500e-08,1.87295313e-01
-5.23637500e-08,1.87306250e-01
-5.23237500e-08,1.87292188e-01
-5.22837500e-08,1.87310937e-01
-5.22437500e-08,1.87285937e-01
-5.22037500e-08,1.87318750e-01
-5.21637500e-08,1.87270313e-01
-5.21237500e-08,1.87354688e-01
-5.20837500e-08,1.87092188e-01
-5.20437500e-08,1.86845312e-01
-5.20037500e-08,1.86931250e-01
-5.19637500e-08,1.86876563e-01
-5.19237500e-08,1.86918750e-01
-5.18837500e-08,1.86882812e-01
-5.18437500e-08,1.86917187e-01
-5.18037500e-08,1.86882812e-01
-5.17637500e-08,1.86920313e-01
-5.17237500e-08,1.86870312e-01
-5.16837500e-08,1.86953125e-01
-5.16437500e-08,1.86695313e-01
-5.16037500e-08,1.86440625e-01
-5.15637500e-08,1.86537500e-01
-5.15237500e-08,1.86470313e-01
-5.14837500e-08,1.86526562e-01
-5.14437500e-08,1.86471875e-01
-5.14037500e-08,1.86531250e-01
-5.13637500e-08,1.86460938e-01
-5.13237500e-08,1.86564063e-01
-5.12837500e-08,1.86284375e-01
-5.12437500e-08,1.86053125e-01
-5.12037500e-08,1.86123438e-01
-5.11637500e-08,1.86085938e-01
-5.11237500e-08,1.86109375e-01
-5.10837500e-08,1.86093750e-01
-5.10437500e-08,1.86104688e-01
-5.10037500e-08,1.86096875e-01
-5.09637500e-08,1.86101563e-01
-5.09237500e-08,1.86100000e-01
-5.08837500e-08,1.86100000e-01
-5.08437500e-08,1.86100000e-01
-5.08037500e-08,1.86098438e-01
-5.07637500e-08,1.86101563e-01
-5.07237500e-08,1.86096875e-01
-5.06837500e-08,1.86103125e-01
-5.06437500e-08,1.86096875e-01
-5.06037500e-08,1.86104688e-01
-5.05637500e-08,1.86095312e-01
-5.05237500e-08,1.86106250e-01
-5.04837500e-08,1.86093750e-01
-5.04437500e-08,1.86107812e-01
-5.04037500e-08,1.86092188e-01
-5.03637500e-08,1.86109375e-01
-5.03237500e-08,1.86089063e-01
-5.02837500e-08,1.86112500e-01
-5.02437500e-08,1.86085938e-01
-5.02037500e-08,1.86118750e-01
-5.01637500e-08,1.86076563e-01
-5.01237500e-08,1.86132812e-01
-5.00837500e-08,1.86040625e-01
-5.00437500e-08,1.86312500e-01
-5.00037500e-08,1.86548437e-01
-4.99637500e-08,1.86475000e-01
-4.99237500e-08,1.86514062e-01
-4.98837500e-08,1.86492188e-01
-4.98437500e-08,1.86503125e-01
-4.98037500e-08,1.86503125e-01
-4.97637500e-08,1.86490625e-01
-4.97237500e-08,1.86518750e-01
-4.96837500e-08,1.86454687e-01
-4.96437500e-08,1.86698438e-01
-4.96037500e-08,1.86964063e-01
-4.95637500e-08,1.86859375e-01
-4.95237500e-08,1.86931250e-01
-4.94837500e-08,1.86873438e-01
-4.94437500e-08,1.86925000e-01
-4.94037500e-08,1.86876563e-01
-4.93637500e-08,1.86925000e-01
-4.93237500e-08,1.86871875e-01
-4.92837500e-08,1.86937500e-01
-4.92437500e-08,1.86839063e-01
-4.92037500e-08,1.87112500e-01
-4.91637500e-08,1.87350000e-01
-4.91237500e-08,1.87271875e-01
-4.90837500e-08,1.87318750e-01
-4.90437500e-08,1.87284375e-01
-4.90037500e-08,1.87312500e-01
-4.89637500e-08,1.87287500e-01
-4.89237500e-08,1.87312500e-01
-4.88837500e-08,1.87287500e-01
-4.88437500e-08,1.87314063e-01
-4.88037500e-08,1.87284375e-01
-4.87637500e-08,1.87317188e-01
-4.87237500e-08,1.87278125e-01
-4.86837500e-08,1.87332813e-01
-4.86437500e-08,1.87242188e-01
-4.86037500e-08,1.87510938e-01
-4.85637500e-08,1.87751562e-01
-4.85237500e-08,1.87671875e-01
-4.84837500e-08,1.87718750e-01
-4.84437500e-08,1.87687500e-01
-4.84037500e-08,1.87709375e-01
-4.83637500e-08,1.87692187e-01
-4.83237500e-08,1.87704687e-01
-4.82837500e-08,1.87696875e-01
-4.82437500e-08,1.87701563e-01
-4.82037500e-08,1.87701563e-01
-4.81637500e-08,1.87696875e-01
-4.81237500e-08,1.87706250e-01
-4.80837500e-08,1.87687500e-01
-4.80437500e-08,1.87721875e-01
-4.80037500e-08,1.87653125e-01
-4.79637500e-08,1.87900000e-01
-4.79237500e-08,1.88162500e-01
-4.78837500e-08,1.88060937e-01
-4.78437500e-08,1.88129688e-01
-4.78037500e-08,1.88075000e-01
-4.77637500e-08,1.88121875e-01
-4.77237500e-08,1.88079688e-01
-4.76837500e-08,1.88118750e-01
-4.76437500e-08,1.88081250e-01
-4.76037500e-08,1.88118750e-01
-4.75637500e-08,1.88081250e-01
-4.75237500e-08,1.88118750e-01
-4.74837500e-08,1.88079688e-01
-4.74437500e-08,1.88123438e-01
-4.74037500e-08,1.88071875e-01
-4.73637500e-08,1.88137500e-01
-4.73237500e-08,1.88037500e-01
-4.72837500e-08,1.88314063e-01
-4.72437500e-08,1.88548437e-01
-4.72037500e-08,1.88475000e-01
-4.71637500e-08,1.88515625e-01
-4.71237500e-08,1.88489062e-01
-4.70837500e-08,1.88507813e-01
-4.70437500e-08,1.88493750e-01
-4.70037500e-08,1.88504688e-01
-4.69637500e-08,1.88496875e-01
-4.69237500e-08,1.88503125e-01
-4.68837500e-08,1.88498438e-01
-4.68437500e-08,1.88501562e-01
-4.68037500e-08,1.88498438e-01
-4.67637500e-08,1.88500000e-01
-4.67237500e-08,1.88500000e-01
-4.66837500e-08,1.88500000e-01
-4.66437500e-08,1.88500000e-01
-4.66037500e-08,1.88500000e-01
-4.65637500e-08,1.88500000e-01
-4.65237500e-08,1.88500000e-01
-4.64837500e-08,1.88501562e-01
-4.64437500e-08,1.88498438e-01
-4.64037500e-08,1.88501562e-01
-4.63637500e-08,1.88498438e-01
-4.63237500e-08,1.88501562e-01
-4.62837500e-08,1.88498438e-01
-4.62437500e-08,1.88503125e-01
-4.62037500e-08,1.88496875e-01
-4.61637500e-08,1.88503125e-01
-4.61237500e-08,1.88495313e-01
-4.60837500e-08,1.88504688e-01
-4.60437500e-08,1.88493750e-01
-4.60037500e-08,1.88507813e-01
-4.59637500e-08,1.88489062e-01
-4.59237500e-08,1.88515625e-01
-4.58837500e-08,1.88475000e-01
-4.58437500e-08,1.88550000e-01
-4.58037500e-08,1.88296875e-01
-4.57637500e-08,1.88040625e-01
-4.57237500e-08,1.88135938e-01
-4.56837500e-08,1.88071875e-01
-4.56437500e-08,1.88123438e-01
-4.56037500e-08,1.88079688e-01
-4.55637500e-08,1.88120312e-01
-4.55237500e-08,1.88081250e-01
-4.54837500e-08,1.88118750e-01
-4.54437500e-08,1.88079688e-01
-4.54037500e-08,1.88121875e-01
-4.53637500e-08,1.88075000e-01
-4.53237500e-08,1.88129688e-01
-4.52837500e-08,1.88060937e-01
-4.52437500e-08,1.88164063e-01
-4.52037500e-08,1.87882812e-01
-4.51637500e-08,1.87654688e-01
-4.51237500e-08,1.87721875e-01
-4.50837500e-08,1.87687500e-01
-4.50437500e-08,1.87706250e-01
-4.50037500e-08,1.87696875e-01
-4.49637500e-08,1.87701563e-01
-4.49237500e-08,1.87701563e-01
-4.48837500e-08,1.87696875e-01
-4.48437500e-08,1.87704687e-01
-4.48037500e-08,1.87692187e-01
-4.47637500e-08,1.87709375e-01
-4.47237500e-08,1.87685938e-01
-4.46837500e-08,1.87718750e-01
-4.46437500e-08,1.87670313e-01
-4.46037500e-08,1.87754688e-01
-4.45637500e-08,1.87492188e-01
-4.45237500e-08,1.87245313e-01
-4.44837500e-08,1.87329688e-01
-4.44437500e-08,1.87279688e-01
-4.44037500e-08,1.87315625e-01
-4.43637500e-08,1.87289063e-01
-4.43237500e-08,1.87309375e-01
-4.42837500e-08,1.87292188e-01
-4.42437500e-08,1.87306250e-01
-4.42037500e-08,1.87295313e-01
-4.41637500e-08,1.87303125e-01
-4.41237500e-08,1.87298437e-01
-4.40837500e-08,1.87300000e-01
-4.40437500e-08,1.87300000e-01
-4.40037500e-08,1.87298437e-01
-4.39637500e-08,1.87304688e-01
-4.39237500e-08,1.87293750e-01
-4.38837500e-08,1.87309375e-01
-4.38437500e-08,1.87284375e-01
-4.38037500e-08,1.87325000e-01
-4.37637500e-08,1.87250000e-01
-4.37237500e-08,1.87503125e-01
-4.36837500e-08,1.87757813e-01
-4.36437500e-08,1.87665625e-01
-4.36037500e-08,1.87725000e-01
-4.35637500e-08,1.87679687e-01
-4.35237500e-08,1.87717187e-01
-4.34837500e-08,1.87685938e-01
-4.34437500e-08,1.87712500e-01
-4.34037500e-08,1.87687500e-01
-4.33637500e-08,1.87710938e-01
-4.33237500e-08,1.87690625e-01
-4.32837500e-08,1.87709375e-01
-4.32437500e-08,1.87690625e-01
-4.32037500e-08,1.87707813e-01
-4.31637500e-08,1.87692187e-01
-4.31237500e-08,1.87707813e-01
-4.30837500e-08,1.87693750e-01
-4.30437500e-08,1.87706250e-01
-4.30037500e-08,1.87693750e-01
-4.29637500e-08,1.87706250e-01
-4.29237500e-08,1.87693750e-01
-4.28837500e-08,1.87704687e-01
-4.28437500e-08,1.87695313e-01
-4.28037500e-08,1.87704687e-01
-4.27637500e-08,1.87695313e-01
-4.27237500e-08,1.87704687e-01
-4.26837500e-08,1.87695313e-01
-4.26437500e-08,1.87703125e-01
-4.26037500e-08,1.87696875e-01
-4.25637500e-08,1.87703125e-01
-4.25237500e-08,1.87696875e-01
-4.24837500e-08,1.87703125e-01
-4.24437500e-08,1.87698438e-01
-4.24037500e-08,1.87701563e-01
-4.23637500e-08,1.87698438e-01
-4.23237500e-08,1.87700000e-01
-4.22837500e-08,1.87700000e-01
-4.22437500e-08,1.87698438e-01
-4.22037500e-08,1.87703125e-01
-4.21637500e-08,1.87695313e-01
-4.21237500e-08,1.87706250e-01
-4.20837500e-08,1.87690625e-01
-4.20437500e-08,1.87714063e-01
-4.20037500e-08,1.87676563e-01
-4.19637500e-08,1.87748438e-01
-4.19237500e-08,1.87498438e-01
-4.18837500e-08,1.87240625e-01
-4.18437500e-08,1.87335937e-01
-4.18037500e-08,1.87273438e-01
-4.17637500e-08,1.87321875e-01
-4.17237500e-08,1.87281250e-01
-4.16837500e-08,1.87315625e-01
-4.16437500e-08,1.87285937e-01
-4.16037500e-08,1.87312500e-01
-4.15637500e-08,1.87287500e-01
-4.15237500e-08,1.87310937e-01
-4.14837500e-08,1.87290625e-01
-4.14437500e-08,1.87307813e-01
-4.14037500e-08,1.87293750e-01
-4.13637500e-08,1.87304688e-01
-4.13237500e-08,1.87300000e-01
-4.12837500e-08,1.87292188e-01
-4.12437500e-08,1.87331250e-01
-4.12037500e-08,1.87118750e-01
-4.11637500e-08,1.86814063e-01
-4.11237500e-08,1.86971875e-01
-4.10837500e-08,1.86812500e-01
-4.10437500e-08,1.87135938e-01
-4.10037500e-08,1.87329688e-01
-4.09637500e-08,1.87292188e-01
-4.09237500e-08,1.87298437e-01
-4.08837500e-08,1.87304688e-01
-4.08437500e-08,1.87292188e-01
-4.08037500e-08,1.87309375e-01
-4.07637500e-08,1.87289063e-01
-4.07237500e-08,1.87312500e-01
-4.06837500e-08,1.87287500e-01
-4.06437500e-08,1.87314063e-01
-4.06037500e-08,1.87284375e-01
-4.05637500e-08,1.87317188e-01
-4.05237500e-08,1.87279688e-01
-4.04837500e-08,1.87323437e-01
-4.04437500e-08,1.87271875e-01
-4.04037500e-08,1.87339063e-01
-4.03637500e-08,1.87235938e-01
-4.03237500e-08,1.87517188e-01
-4.02837500e-08,1.87743750e-01
-4.02437500e-08,1.87679687e-01
-4.02037500e-08,1.87709375e-01
-4.01637500e-08,1.87696875e-01
-4.01237500e-08,1.87700000e-01
-4.00837500e-08,1.87703125e-01
-4.00437500e-08,1.87692187e-01
-4.00037500e-08,1.87710938e-01
-3.99637500e-08,1.87682813e-01
-3.99237500e-08,1.87728125e-01
-3.98837500e-08,1.87646875e-01
-3.98437500e-08,1.87906250e-01
-3.98037500e-08,1.88156250e-01
-3.97637500e-08,1.88068750e-01
-3.97237500e-08,1.88121875e-01
-3.96837500e-08,1.88082813e-01
-3.96437500e-08,1.88114063e-01
-3.96037500e-08,1.88087500e-01
-3.95637500e-08,1.88110938e-01
-3.95237500e-08,1.88090625e-01
-3.94837500e-08,1.88109375e-01
-3.94437500e-08,1.88090625e-01
-3.94037500e-08,1.88109375e-01
-3.93637500e-08,1.88090625e-01
-3.93237500e-08,1.88110938e-01
-3.92837500e-08,1.88087500e-01
-3.92437500e-08,1.88114063e-01
-3.92037500e-08,1.88081250e-01
-3.91637500e-08,1.88128125e-01
-3.91237500e-08,1.88046875e-01
-3.90837500e-08,1.88306250e-01
-3.90437500e-08,1.88557813e-01
-3.90037500e-08,1.88465625e-01
-3.89637500e-08,1.88525000e-01
-3.89237500e-08,1.88479687e-01
-3.88837500e-08,1.88517188e-01
-3.88437500e-08,1.88484375e-01
-3.88037500e-08,1.88515625e-01
-3.87637500e-08,1.88485938e-01
-3.87237500e-08,1.88514062e-01
-3.86837500e-08,1.88485938e-01
-3.86437500e-08,1.88514062e-01
-3.86037500e-08,1.88485938e-01
-3.85637500e-08,1.88514062e-01
-3.85237500e-08,1.88484375e-01
