trails/00d9de579c68e71117ffc152f8bf8771/aes_ch1_20250506165718418.csv

Model,MSO66B
Label,
Waveform Type,ANALOG
Horizontal Units,s
Sample Interval,4.00000000e-11
Record Length,10000
Zero Index,1599.10546875
Vertical Units,A
ANALOG_Thumbnail,
yOffset,1.84500000e-01
yPosition,8.40000000e-01

Labels,
TIME,CH1
-6.39642188e-08,1.72109375e-01
-6.39242187e-08,1.72090625e-01
-6.38842187e-08,1.72109375e-01
-6.38442187e-08,1.72090625e-01
-6.38042187e-08,1.72110938e-01
-6.37642188e-08,1.72087500e-01
-6.37242187e-08,1.72115625e-01
-6.36842188e-08,1.72081250e-01
-6.36442187e-08,1.72128125e-01
-6.36042187e-08,1.72048438e-01
-6.35642187e-08,1.72304687e-01
-6.35242187e-08,1.72559375e-01
-6.34842188e-08,1.72464063e-01
-6.34442187e-08,1.72528125e-01
-6.34042188e-08,1.72473437e-01
-6.33642187e-08,1.72526563e-01
-6.33242187e-08,1.72470313e-01
-6.32842187e-08,1.72539063e-01
-6.32442187e-08,1.72437500e-01
-6.32042188e-08,1.72715625e-01
-6.31642187e-08,1.72945313e-01
-6.31242188e-08,1.72878125e-01
-6.30842187e-08,1.72910938e-01
-6.30442187e-08,1.72896875e-01
-6.30042187e-08,1.72895313e-01
-6.29642187e-08,1.72915625e-01
-6.29242188e-08,1.72859375e-01
-6.28842187e-08,1.73095313e-01
-6.28442187e-08,1.73367188e-01
-6.28042187e-08,1.73256250e-01
-6.27642187e-08,1.73334375e-01
-6.27242187e-08,1.73268750e-01
-6.26842187e-08,1.73329687e-01
-6.26442188e-08,1.73270312e-01
-6.26042187e-08,1.73331250e-01
-6.25642187e-08,1.73265625e-01
-6.25242187e-08,1.73343750e-01
-6.24842187e-08,1.73232812e-01
-6.24442187e-08,1.73520312e-01
-6.24042187e-08,1.73742188e-01
-6.23642188e-08,1.73681250e-01
-6.23242187e-08,1.73710937e-01
-6.22842187e-08,1.73695313e-01
-6.22442187e-08,1.73701563e-01
-6.22042187e-08,1.73700000e-01
-6.21642187e-08,1.73698437e-01
-6.21242187e-08,1.73703125e-01
-6.20842188e-08,1.73696875e-01
-6.20442187e-08,1.73704688e-01
-6.20042187e-08,1.73695313e-01
-6.19642187e-08,1.73706250e-01
-6.19242187e-08,1.73692188e-01
-6.18842187e-08,1.73709375e-01
-6.18442187e-08,1.73689063e-01
-6.18042188e-08,1.73712500e-01
-6.17642187e-08,1.73684375e-01
-6.17242187e-08,1.73721875e-01
-6.16842187e-08,1.73668750e-01
-6.16442187e-08,1.73756250e-01
-6.16042187e-08,1.73490625e-01
-6.15642187e-08,1.73246875e-01
-6.15242188e-08,1.73328125e-01
-6.14842187e-08,1.73281250e-01
-6.14442187e-08,1.73314063e-01
-6.14042187e-08,1.73289063e-01
-6.13642187e-08,1.73309375e-01
-6.13242187e-08,1.73292188e-01
-6.12842187e-08,1.73306250e-01
-6.12442188e-08,1.73295312e-01
-6.12042187e-08,1.73304687e-01
-6.11642187e-08,1.73296875e-01
-6.11242187e-08,1.73303125e-01
-6.10842187e-08,1.73298438e-01
-6.10442187e-08,1.73301563e-01
-6.10042187e-08,1.73300000e-01
-6.09642188e-08,1.73300000e-01
-6.09242187e-08,1.73301563e-01
-6.08842187e-08,1.73298438e-01
-6.08442187e-08,1.73303125e-01
-6.08042187e-08,1.73295312e-01
-6.07642188e-08,1.73307813e-01
-6.07242187e-08,1.73289063e-01
-6.06842188e-08,1.73315625e-01
-6.06442187e-08,1.73275000e-01
-6.06042187e-08,1.73350000e-01
-6.05642187e-08,1.73096875e-01
-6.05242187e-08,1.72840625e-01
-6.04842188e-08,1.72935937e-01
-6.04442187e-08,1.72873438e-01
-6.04042188e-08,1.72921875e-01
-6.03642187e-08,1.72881250e-01
-6.03242187e-08,1.72917188e-01
-6.02842187e-08,1.72884375e-01
-6.02442187e-08,1.72915625e-01
-6.02042188e-08,1.72884375e-01
-6.01642187e-08,1.72915625e-01
-6.01242188e-08,1.72882813e-01
-6.00842187e-08,1.72918750e-01
-6.00442187e-08,1.72879688e-01
-6.00042187e-08,1.72925000e-01
-5.99642187e-08,1.72865625e-01
-5.99242188e-08,1.72959375e-01
-5.98842187e-08,1.72689063e-01
-5.98442188e-08,1.72448437e-01
-5.98042187e-08,1.72528125e-01
-5.97642187e-08,1.72481250e-01
-5.97242187e-08,1.72515625e-01
-5.96842187e-08,1.72487500e-01
-5.96442188e-08,1.72512500e-01
-5.96042187e-08,1.72487500e-01
-5.95642187e-08,1.72512500e-01
-5.95242187e-08,1.72484375e-01
-5.94842187e-08,1.72518750e-01
-5.94442187e-08,1.72471875e-01
-5.94042187e-08,1.72553125e-01
-5.93642187e-08,1.72295313e-01
-5.93242187e-08,1.72042187e-01
-5.92842187e-08,1.72134375e-01
-5.92442187e-08,1.72075000e-01
-5.92042187e-08,1.72121875e-01
-5.91642187e-08,1.72081250e-01
-5.91242187e-08,1.72117188e-01
-5.90842187e-08,1.72082813e-01
-5.90442187e-08,1.72117188e-01
-5.90042187e-08,1.72081250e-01
-5.89642187e-08,1.72120313e-01
-5.89242187e-08,1.72078125e-01
-5.88842187e-08,1.72126562e-01
-5.88442187e-08,1.72064063e-01
-5.88042187e-08,1.72160937e-01
-5.87642187e-08,1.71885938e-01
-5.87242187e-08,1.71651562e-01
-5.86842187e-08,1.71725000e-01
-5.86442187e-08,1.71684375e-01
-5.86042187e-08,1.71710937e-01
-5.85642187e-08,1.71692188e-01
-5.85242187e-08,1.71704688e-01
-5.84842187e-08,1.71696875e-01
-5.84442187e-08,1.71703125e-01
-5.84042187e-08,1.71698437e-01
-5.83642187e-08,1.71701563e-01
-5.83242187e-08,1.71700000e-01
-5.82842187e-08,1.71700000e-01
-5.82442187e-08,1.71701563e-01
-5.82042187e-08,1.71698437e-01
-5.81642187e-08,1.71701563e-01
-5.81242187e-08,1.71696875e-01
-5.80842187e-08,1.71703125e-01
-5.80442187e-08,1.71695313e-01
-5.80042187e-08,1.71704688e-01
-5.79642187e-08,1.71693750e-01
-5.79242187e-08,1.71707813e-01
-5.78842187e-08,1.71690625e-01
-5.78442187e-08,1.71712500e-01
-5.78042187e-08,1.71681250e-01
-5.77642187e-08,1.71728125e-01
-5.77242187e-08,1.71646875e-01
-5.76842187e-08,1.71906250e-01
-5.76442187e-08,1.72156250e-01
-5.76042187e-08,1.72067187e-01
-5.75642187e-08,1.72123438e-01
-5.75242187e-08,1.72081250e-01
-5.74842187e-08,1.72115625e-01
-5.74442187e-08,1.72085938e-01
-5.74042187e-08,1.72114062e-01
-5.73642187e-08,1.72087500e-01
-5.73242187e-08,1.72112500e-01
-5.72842187e-08,1.72087500e-01
-5.72442187e-08,1.72112500e-01
-5.72042187e-08,1.72087500e-01
-5.71642187e-08,1.72114062e-01
-5.71242187e-08,1.72084375e-01
-5.70842187e-08,1.72118750e-01
-5.70442187e-08,1.72076563e-01
-5.70042187e-08,1.72132813e-01
-5.69642187e-08,1.72042187e-01
-5.69242187e-08,1.72310938e-01
-5.68842187e-08,1.72551563e-01
-5.68442187e-08,1.72471875e-01
-5.68042187e-08,1.72518750e-01
-5.67642187e-08,1.72485938e-01
-5.67242187e-08,1.72512500e-01
-5.66842187e-08,1.72490625e-01
-5.66442187e-08,1.72509375e-01
-5.66042187e-08,1.72492188e-01
-5.65642187e-08,1.72507812e-01
-5.65242187e-08,1.72493750e-01
-5.64842187e-08,1.72506250e-01
-5.64442187e-08,1.72493750e-01
-5.64042187e-08,1.72506250e-01
-5.63642187e-08,1.72495312e-01
-5.63242187e-08,1.72504688e-01
-5.62842187e-08,1.72495312e-01
-5.62442187e-08,1.72504688e-01
-5.62042187e-08,1.72495312e-01
-5.61642187e-08,1.72504688e-01
-5.61242187e-08,1.72495312e-01
-5.60842187e-08,1.72504688e-01
-5.60442187e-08,1.72495312e-01
-5.60042187e-08,1.72504688e-01
-5.59642187e-08,1.72495312e-01
-5.59242187e-08,1.72506250e-01
-5.58842187e-08,1.72493750e-01
-5.58442187e-08,1.72506250e-01
-5.58042187e-08,1.72493750e-01
-5.57642187e-08,1.72506250e-01
-5.57242187e-08,1.72493750e-01
-5.56842187e-08,1.72507812e-01
-5.56442187e-08,1.72492188e-01
-5.56042187e-08,1.72507812e-01
-5.55642187e-08,1.72490625e-01
-5.55242187e-08,1.72510938e-01
-5.54842187e-08,1.72487500e-01
-5.54442187e-08,1.72514063e-01
-5.54042187e-08,1.72482812e-01
-5.53642187e-08,1.72521875e-01
-5.53242187e-08,1.72468750e-01
-5.52842187e-08,1.72556250e-01
-5.52442187e-08,1.72290625e-01
-5.52042187e-08,1.72048438e-01
-5.51642187e-08,1.72128125e-01
-5.51242187e-08,1.72081250e-01
-5.50842187e-08,1.72114062e-01
-5.50442187e-08,1.72089063e-01
-5.50042187e-08,1.72109375e-01
-5.49642187e-08,1.72092187e-01
-5.49242187e-08,1.72106250e-01
-5.48842187e-08,1.72095313e-01
-5.48442187e-08,1.72104688e-01
-5.48042187e-08,1.72096875e-01
-5.47642187e-08,1.72103125e-01
-5.47242187e-08,1.72096875e-01
-5.46842187e-08,1.72101562e-01
-5.46442187e-08,1.72098438e-01
-5.46042187e-08,1.72101562e-01
-5.45642187e-08,1.72098438e-01
-5.45242187e-08,1.72101562e-01
-5.44842187e-08,1.72100000e-01
-5.44442187e-08,1.72100000e-01
-5.44042187e-08,1.72100000e-01
-5.43642187e-08,1.72100000e-01
-5.43242187e-08,1.72101562e-01
-5.42842187e-08,1.72098438e-01
-5.42442187e-08,1.72101562e-01
-5.42042187e-08,1.72098438e-01
-5.41642187e-08,1.72103125e-01
-5.41242187e-08,1.72096875e-01
-5.40842187e-08,1.72104688e-01
-5.40442187e-08,1.72093750e-01
-5.40042187e-08,1.72106250e-01
-5.39642187e-08,1.72090625e-01
-5.39242187e-08,1.72112500e-01
-5.38842187e-08,1.72082813e-01
-5.38442187e-08,1.72126562e-01
-5.38042187e-08,1.72048438e-01
-5.37642187e-08,1.72304687e-01
-5.37242187e-08,1.72557813e-01
-5.36842187e-08,1.72465625e-01
-5.36442187e-08,1.72525000e-01
-5.36042187e-08,1.72478125e-01
-5.35642187e-08,1.72518750e-01
-5.35242187e-08,1.72482812e-01
-5.34842187e-08,1.72515625e-01
-5.34442187e-08,1.72484375e-01
-5.34042187e-08,1.72517188e-01
-5.33642188e-08,1.72481250e-01
-5.33242187e-08,1.72520312e-01
-5.32842187e-08,1.72475000e-01
-5.32442187e-08,1.72534375e-01
-5.32042187e-08,1.72442188e-01
-5.31642187e-08,1.72710937e-01
-5.31242187e-08,1.72951563e-01
-5.30842187e-08,1.72871875e-01
-5.30442187e-08,1.72918750e-01
-5.30042187e-08,1.72885938e-01
-5.29642187e-08,1.72912500e-01
-5.29242187e-08,1.72890625e-01
-5.28842187e-08,1.72909375e-01
-5.28442187e-08,1.72892188e-01
-5.28042187e-08,1.72907813e-01
-5.27642187e-08,1.72892188e-01
-5.27242187e-08,1.72907813e-01
-5.26842187e-08,1.72892188e-01
-5.26442187e-08,1.72907813e-01
-5.26042187e-08,1.72892188e-01
-5.25642187e-08,1.72909375e-01
-5.25242187e-08,1.72890625e-01
-5.24842187e-08,1.72910938e-01
-5.24442187e-08,1.72885938e-01
-5.24042187e-08,1.72915625e-01
-5.23642187e-08,1.72878125e-01
-5.23242187e-08,1.72931250e-01
-5.22842187e-08,1.72843750e-01
-5.22442187e-08,1.73109375e-01
-5.22042187e-08,1.73353125e-01
-5.21642187e-08,1.73270312e-01
-5.21242187e-08,1.73320313e-01
-5.20842187e-08,1.73284375e-01
-5.20442187e-08,1.73312500e-01
-5.20042187e-08,1.73289063e-01
-5.19642187e-08,1.73309375e-01
-5.19242187e-08,1.73292188e-01
-5.18842187e-08,1.73307813e-01
-5.18442187e-08,1.73293750e-01
-5.18042187e-08,1.73306250e-01
-5.17642187e-08,1.73293750e-01
-5.17242187e-08,1.73304687e-01
-5.16842187e-08,1.73295312e-01
-5.16442187e-08,1.73304687e-01
-5.16042187e-08,1.73295312e-01
-5.15642187e-08,1.73304687e-01
-5.15242187e-08,1.73296875e-01
-5.14842187e-08,1.73303125e-01
-5.14442188e-08,1.73296875e-01
-5.14042187e-08,1.73303125e-01
-5.13642187e-08,1.73296875e-01
-5.13242187e-08,1.73303125e-01
-5.12842187e-08,1.73296875e-01
-5.12442187e-08,1.73303125e-01
-5.12042187e-08,1.73296875e-01
-5.11642188e-08,1.73303125e-01
-5.11242187e-08,1.73296875e-01
-5.10842187e-08,1.73303125e-01
-5.10442187e-08,1.73298438e-01
-5.10042187e-08,1.73301563e-01
-5.09642187e-08,1.73298438e-01
-5.09242187e-08,1.73301563e-01
-5.08842187e-08,1.73298438e-01
-5.08442187e-08,1.73301563e-01
-5.08042187e-08,1.73298438e-01
-5.07642187e-08,1.73301563e-01
-5.07242187e-08,1.73298438e-01
-5.06842187e-08,1.73301563e-01
-5.06442187e-08,1.73298438e-01
-5.06042187e-08,1.73301563e-01
-5.05642187e-08,1.73298438e-01
-5.05242187e-08,1.73300000e-01
-5.04842187e-08,1.73300000e-01
-5.04442187e-08,1.73300000e-01
-5.04042187e-08,1.73300000e-01
-5.03642187e-08,1.73300000e-01
-5.03242187e-08,1.73301563e-01
-5.02842187e-08,1.73298438e-01
-5.02442187e-08,1.73303125e-01
-5.02042187e-08,1.73295312e-01
-5.01642187e-08,1.73306250e-01
-5.01242187e-08,1.73292188e-01
-5.00842187e-08,1.73312500e-01
-5.00442187e-08,1.73278125e-01
-5.00042187e-08,1.73346875e-01
-4.99642187e-08,1.73101563e-01
-4.99242187e-08,1.72835938e-01
-4.98842187e-08,1.72942188e-01
-4.98442187e-08,1.72865625e-01
-4.98042187e-08,1.72931250e-01
-4.97642187e-08,1.72868750e-01
-4.97242187e-08,1.72935937e-01
-4.96842187e-08,1.72856250e-01
-4.96442187e-08,1.72968750e-01
-4.96042187e-08,1.72679688e-01
-4.95642187e-08,1.72459375e-01
-4.95242188e-08,1.72517188e-01
-4.94842187e-08,1.72493750e-01
-4.94442187e-08,1.72498438e-01
-4.94042187e-08,1.72509375e-01
-4.93642187e-08,1.72479688e-01
-4.93242187e-08,1.72545313e-01
-4.92842187e-08,1.72301563e-01
-4.92442188e-08,1.72035938e-01
-4.92042187e-08,1.72140625e-01
-4.91642187e-08,1.72067187e-01
-4.91242187e-08,1.72129688e-01
-4.90842187e-08,1.72070313e-01
-4.90442187e-08,1.72131250e-01
-4.90042187e-08,1.72059375e-01
-4.89642188e-08,1.72164062e-01
-4.89242187e-08,1.71884375e-01
-4.88842187e-08,1.71653125e-01
-4.88442187e-08,1.71723438e-01
-4.88042187e-08,1.71684375e-01
-4.87642187e-08,1.71710937e-01
-4.87242187e-08,1.71692188e-01
-4.86842187e-08,1.71706250e-01
-4.86442187e-08,1.71695313e-01
-4.86042187e-08,1.71704688e-01
-4.85642187e-08,1.71696875e-01
-4.85242187e-08,1.71703125e-01
-4.84842187e-08,1.71696875e-01
-4.84442187e-08,1.71703125e-01
-4.84042187e-08,1.71696875e-01
-4.83642187e-08,1.71701563e-01
-4.83242187e-08,1.71698437e-01
-4.82842187e-08,1.71701563e-01
-4.82442187e-08,1.71698437e-01
-4.82042187e-08,1.71701563e-01
-4.81642187e-08,1.71698437e-01
-4.81242187e-08,1.71701563e-01
-4.80842187e-08,1.71698437e-01
-4.80442187e-08,1.71701563e-01
-4.80042187e-08,1.71698437e-01
-4.79642187e-08,1.71701563e-01
-4.79242187e-08,1.71698437e-01
-4.78842187e-08,1.71700000e-01
-4.78442187e-08,1.71700000e-01
-4.78042187e-08,1.71700000e-01
-4.77642187e-08,1.71700000e-01
-4.77242187e-08,1.71700000e-01
-4.76842187e-08,1.71700000e-01
-4.76442187e-08,1.71700000e-01
-4.76042188e-08,1.71700000e-01
-4.75642187e-08,1.71700000e-01
-4.75242187e-08,1.71700000e-01
-4.74842187e-08,1.71700000e-01
-4.74442187e-08,1.71700000e-01
-4.74042187e-08,1.71700000e-01
-4.73642187e-08,1.71700000e-01
-4.73242188e-08,1.71700000e-01
-4.72842187e-08,1.71700000e-01
-4.72442187e-08,1.71700000e-01
-4.72042187e-08,1.71700000e-01
-4.71642187e-08,1.71698437e-01
-4.71242187e-08,1.71701563e-01
-4.70842187e-08,1.71698437e-01
-4.70442188e-08,1.71701563e-01
-4.70042187e-08,1.71698437e-01
-4.69642187e-08,1.71701563e-01
-4.69242187e-08,1.71698437e-01
-4.68842187e-08,1.71703125e-01
-4.68442187e-08,1.71696875e-01
-4.68042187e-08,1.71703125e-01
-4.67642188e-08,1.71695313e-01
-4.67242187e-08,1.71704688e-01
-4.66842187e-08,1.71693750e-01
-4.66442187e-08,1.71707813e-01
-4.66042187e-08,1.71690625e-01
-4.65642187e-08,1.71712500e-01
-4.65242187e-08,1.71681250e-01
-4.64842187e-08,1.71728125e-01
-4.64442187e-08,1.71646875e-01
-4.64042187e-08,1.71906250e-01
-4.63642187e-08,1.72156250e-01
-4.63242187e-08,1.72067187e-01
-4.62842187e-08,1.72123438e-01
-4.62442187e-08,1.72081250e-01
-4.62042187e-08,1.72115625e-01
-4.61642187e-08,1.72085938e-01
-4.61242187e-08,1.72112500e-01
-4.60842187e-08,1.72089063e-01
-4.60442187e-08,1.72109375e-01
-4.60042187e-08,1.72090625e-01
-4.59642187e-08,1.72109375e-01
-4.59242187e-08,1.72092187e-01
-4.58842187e-08,1.72107813e-01
-4.58442187e-08,1.72092187e-01
-4.58042187e-08,1.72107813e-01
-4.57642187e-08,1.72092187e-01
-4.57242187e-08,1.72107813e-01
-4.56842188e-08,1.72092187e-01
-4.56442187e-08,1.72106250e-01
-4.56042187e-08,1.72093750e-01
-4.55642187e-08,1.72106250e-01
-4.55242187e-08,1.72093750e-01
-4.54842187e-08,1.72106250e-01
-4.54442187e-08,1.72093750e-01
-4.54042188e-08,1.72106250e-01
-4.53642187e-08,1.72093750e-01
-4.53242187e-08,1.72106250e-01
-4.52842187e-08,1.72093750e-01
-4.52442187e-08,1.72106250e-01
-4.52042187e-08,1.72093750e-01
-4.51642187e-08,1.72107813e-01
-4.51242188e-08,1.72092187e-01
-4.50842187e-08,1.72107813e-01
-4.50442187e-08,1.72092187e-01
-4.50042187e-08,1.72107813e-01
-4.49642187e-08,1.72092187e-01
-4.49242187e-08,1.72107813e-01
-4.48842187e-08,1.72092187e-01
-4.48442188e-08,1.72109375e-01
-4.48042187e-08,1.72090625e-01
-4.47642187e-08,1.72109375e-01
-4.47242187e-08,1.72089063e-01
-4.46842187e-08,1.72110938e-01
-4.46442187e-08,1.72087500e-01
-4.46042187e-08,1.72114062e-01
-4.45642187e-08,1.72084375e-01
-4.45242187e-08,1.72118750e-01
-4.44842187e-08,1.72076563e-01
-4.44442187e-08,1.72132813e-01
-4.44042187e-08,1.72042187e-01
-4.43642187e-08,1.72310938e-01
-4.43242187e-08,1.72551563e-01
-4.42842187e-08,1.72471875e-01
-4.42442187e-08,1.72518750e-01
-4.42042187e-08,1.72485938e-01
-4.41642187e-08,1.72510938e-01
-4.41242187e-08,1.72490625e-01
-4.40842187e-08,1.72507812e-01
-4.40442187e-08,1.72492188e-01
-4.40042187e-08,1.72507812e-01
-4.39642187e-08,1.72490625e-01
-4.39242187e-08,1.72510938e-01
-4.38842187e-08,1.72484375e-01
-4.38442187e-08,1.72523438e-01
-4.38042187e-08,1.72453125e-01
-4.37642188e-08,1.72700000e-01
-4.37242187e-08,1.72964063e-01
-4.36842187e-08,1.72857813e-01
-4.36442187e-08,1.72934375e-01
-4.36042187e-08,1.72867188e-01
-4.35642187e-08,1.72932813e-01
-4.35242187e-08,1.72864062e-01
-4.34842188e-08,1.72945313e-01
-4.34442187e-08,1.72829687e-01
-4.34042187e-08,1.73123438e-01
-4.33642187e-08,1.73339063e-01
-4.33242187e-08,1.73284375e-01
-4.32842187e-08,1.73304687e-01
-4.32442187e-08,1.73301563e-01
-4.32042188e-08,1.73293750e-01
-4.31642187e-08,1.73312500e-01
-4.31242187e-08,1.73281250e-01
-4.30842187e-08,1.73329687e-01
-4.30442187e-08,1.73245312e-01
-4.30042187e-08,1.73509375e-01
-4.29642187e-08,1.73751563e-01
-4.29242188e-08,1.73673437e-01
-4.28842187e-08,1.73717188e-01
-4.28442187e-08,1.73689063e-01
-4.28042187e-08,1.73706250e-01
-4.27642187e-08,1.73696875e-01
-4.27242187e-08,1.73698437e-01
-4.26842187e-08,1.73704688e-01
-4.26442188e-08,1.73689063e-01
-4.26042187e-08,1.73721875e-01
-4.25642187e-08,1.73653125e-01
-4.25242187e-08,1.73901562e-01
-4.24842187e-08,1.74160938e-01
-4.24442187e-08,1.74064063e-01
-4.24042187e-08,1.74126562e-01
-4.23642187e-08,1.74078125e-01
-4.23242187e-08,1.74118750e-01
-4.22842187e-08,1.74084375e-01
-4.22442187e-08,1.74114062e-01
-4.22042187e-08,1.74087500e-01
-4.21642187e-08,1.74112500e-01
-4.21242187e-08,1.74089063e-01
-4.20842187e-08,1.74110938e-01
-4.20442187e-08,1.74090625e-01
-4.20042187e-08,1.74109375e-01
-4.19642187e-08,1.74090625e-01
-4.19242187e-08,1.74107813e-01
-4.18842187e-08,1.74092187e-01
-4.18442188e-08,1.74107813e-01
-4.18042187e-08,1.74092187e-01
-4.17642187e-08,1.74107813e-01
-4.17242187e-08,1.74092187e-01
-4.16842187e-08,1.74107813e-01
-4.16442187e-08,1.74092187e-01
-4.16042187e-08,1.74107813e-01
-4.15642188e-08,1.74092187e-01
-4.15242187e-08,1.74107813e-01
-4.14842187e-08,1.74092187e-01
-4.14442187e-08,1.74109375e-01
-4.14042187e-08,1.74090625e-01
-4.13642187e-08,1.74109375e-01
-4.13242187e-08,1.74089063e-01
-4.12842188e-08,1.74112500e-01
-4.12442187e-08,1.74084375e-01
-4.12042187e-08,1.74120313e-01
-4.11642187e-08,1.74070313e-01
-4.11242187e-08,1.74154688e-01
-4.10842187e-08,1.73893750e-01
-4.10442187e-08,1.73643750e-01
-4.10042188e-08,1.73732813e-01
-4.09642187e-08,1.73675000e-01
-4.09242187e-08,1.73720313e-01
-4.08842187e-08,1.73681250e-01
-4.08442187e-08,1.73718750e-01
-4.08042187e-08,1.73679688e-01
-4.07642187e-08,1.73725000e-01
-4.07242188e-08,1.73667188e-01
-4.06842187e-08,1.73756250e-01
-4.06442187e-08,1.73490625e-01
-4.06042187e-08,1.73245312e-01
-4.05642187e-08,1.73331250e-01
-4.05242187e-08,1.73276563e-01
-4.04842187e-08,1.73320313e-01
-4.04442188e-08,1.73279688e-01
-4.04042187e-08,1.73323438e-01
-4.03642187e-08,1.73268750e-01
-4.03242187e-08,1.73354687e-01
-4.02842187e-08,1.73093750e-01
-4.02442187e-08,1.72842187e-01
-4.02042187e-08,1.72935937e-01
-4.01642187e-08,1.72871875e-01
-4.01242187e-08,1.72926563e-01
-4.00842187e-08,1.72873438e-01
-4.00442187e-08,1.72931250e-01
-4.00042187e-08,1.72860938e-01
-3.99642187e-08,1.72964063e-01
-3.99242188e-08,1.72682813e-01
-3.98842187e-08,1.72454688e-01
-3.98442187e-08,1.72521875e-01
-3.98042187e-08,1.72489063e-01
-3.97642187e-08,1.72504688e-01
-3.97242187e-08,1.72500000e-01
-3.96842187e-08,1.72495312e-01
-3.96442188e-08,1.72510938e-01
-3.96042187e-08,1.72479688e-01
-3.95642187e-08,1.72546875e-01
-3.95242187e-08,1.72300000e-01
-3.94842187e-08,1.72037500e-01
-3.94442187e-08,1.72137500e-01
-3.94042187e-08,1.72071875e-01
-3.93642188e-08,1.72123438e-01
-3.93242187e-08,1.72078125e-01
-3.92842187e-08,1.72120313e-01
-3.92442187e-08,1.72081250e-01
-3.92042187e-08,1.72118750e-01
-3.91642187e-08,1.72081250e-01
-3.91242187e-08,1.72120313e-01
-3.90842188e-08,1.72078125e-01
-3.90442187e-08,1.72126562e-01
-3.90042187e-08,1.72064063e-01
-3.89642187e-08,1.72159375e-01
-3.89242187e-08,1.71887500e-01
-3.88842187e-08,1.71650000e-01
-3.88442187e-08,1.71726563e-01
-3.88042188e-08,1.71682813e-01
-3.87642187e-08,1.71714063e-01
-3.87242187e-08,1.71689063e-01
-3.86842187e-08,1.71709375e-01
-3.86442187e-08,1.71692188e-01
-3.86042187e-08,1.71707813e-01
-3.85642187e-08,1.71692188e-01
-3.85242188e-08,1.71707813e-01
