trails/00d9de579c68e71117ffc152f8bf8771/aes_ch1_20250506165527129.csv

Model,MSO66B
Label,
Waveform Type,ANALOG
Horizontal Units,s
Sample Interval,4.00000000e-11
Record Length,10000
Zero Index,1599.07812500
Vertical Units,A
ANALOG_Thumbnail,
yOffset,1.84500000e-01
yPosition,8.40000000e-01

Labels,
TIME,CH1
-6.39631250e-08,2.01284375e-01
-6.39231250e-08,2.01314063e-01
-6.38831250e-08,2.01287500e-01
-6.38431250e-08,2.01312500e-01
-6.38031250e-08,2.01289063e-01
-6.37631250e-08,2.01310938e-01
-6.37231250e-08,2.01290625e-01
-6.36831250e-08,2.01309375e-01
-6.36431250e-08,2.01290625e-01
-6.36031250e-08,2.01309375e-01
-6.35631250e-08,2.01290625e-01
-6.35231250e-08,2.01309375e-01
-6.34831250e-08,2.01289063e-01
-6.34431250e-08,2.01310938e-01
-6.34031250e-08,2.01289063e-01
-6.33631250e-08,2.01312500e-01
-6.33231250e-08,2.01285938e-01
-6.32831250e-08,2.01315625e-01
-6.32431250e-08,2.01281250e-01
-6.32031250e-08,2.01323438e-01
-6.31631250e-08,2.01267187e-01
-6.31231250e-08,2.01357813e-01
-6.30831250e-08,2.01089062e-01
-6.30431250e-08,2.00848438e-01
-6.30031250e-08,2.00928125e-01
-6.29631250e-08,2.00881250e-01
-6.29231250e-08,2.00914063e-01
-6.28831250e-08,2.00889062e-01
-6.28431250e-08,2.00907813e-01
-6.28031250e-08,2.00892188e-01
-6.27631250e-08,2.00906250e-01
-6.27231250e-08,2.00895313e-01
-6.26831250e-08,2.00904688e-01
-6.26431250e-08,2.00895313e-01
-6.26031250e-08,2.00903125e-01
-6.25631250e-08,2.00896875e-01
-6.25231250e-08,2.00903125e-01
-6.24831250e-08,2.00896875e-01
-6.24431250e-08,2.00903125e-01
-6.24031250e-08,2.00896875e-01
-6.23631250e-08,2.00903125e-01
-6.23231250e-08,2.00898437e-01
-6.22831250e-08,2.00901563e-01
-6.22431250e-08,2.00898437e-01
-6.22031250e-08,2.00901563e-01
-6.21631250e-08,2.00898437e-01
-6.21231250e-08,2.00901563e-01
-6.20831250e-08,2.00898437e-01
-6.20431250e-08,2.00901563e-01
-6.20031250e-08,2.00898437e-01
-6.19631250e-08,2.00901563e-01
-6.19231250e-08,2.00898437e-01
-6.18831250e-08,2.00901563e-01
-6.18431250e-08,2.00896875e-01
-6.18031250e-08,2.00903125e-01
-6.17631250e-08,2.00896875e-01
-6.17231250e-08,2.00903125e-01
-6.16831250e-08,2.00896875e-01
-6.16431250e-08,2.00903125e-01
-6.16031250e-08,2.00896875e-01
-6.15631250e-08,2.00904688e-01
-6.15231250e-08,2.00895313e-01
-6.14831250e-08,2.00904688e-01
-6.14431250e-08,2.00893750e-01
-6.14031250e-08,2.00907813e-01
-6.13631250e-08,2.00890625e-01
-6.13231250e-08,2.00910937e-01
-6.12831250e-08,2.00885938e-01
-6.12431250e-08,2.00918750e-01
-6.12031250e-08,2.00871875e-01
-6.11631250e-08,2.00953125e-01
-6.11231250e-08,2.00693750e-01
-6.10831250e-08,2.00443750e-01
-6.10431250e-08,2.00532813e-01
-6.10031250e-08,2.00476563e-01
-6.09631250e-08,2.00517187e-01
-6.09231250e-08,2.00484375e-01
-6.08831250e-08,2.00512500e-01
-6.08431250e-08,2.00489063e-01
-6.08031250e-08,2.00510938e-01
-6.07631250e-08,2.00490625e-01
-6.07231250e-08,2.00509375e-01
-6.06831250e-08,2.00492188e-01
-6.06431250e-08,2.00507812e-01
-6.06031250e-08,2.00492188e-01
-6.05631250e-08,2.00507812e-01
-6.05231250e-08,2.00492188e-01
-6.04831250e-08,2.00506250e-01
-6.04431250e-08,2.00493750e-01
-6.04031250e-08,2.00506250e-01
-6.03631250e-08,2.00493750e-01
-6.03231250e-08,2.00506250e-01
-6.02831250e-08,2.00493750e-01
-6.02431250e-08,2.00506250e-01
-6.02031250e-08,2.00493750e-01
-6.01631250e-08,2.00506250e-01
-6.01231250e-08,2.00493750e-01
-6.00831250e-08,2.00506250e-01
-6.00431250e-08,2.00493750e-01
-6.00031250e-08,2.00506250e-01
-5.99631250e-08,2.00493750e-01
-5.99231250e-08,2.00506250e-01
-5.98831250e-08,2.00493750e-01
-5.98431250e-08,2.00506250e-01
-5.98031250e-08,2.00493750e-01
-5.97631250e-08,2.00506250e-01
-5.97231250e-08,2.00493750e-01
-5.96831250e-08,2.00506250e-01
-5.96431250e-08,2.00493750e-01
-5.96031250e-08,2.00506250e-01
-5.95631250e-08,2.00493750e-01
-5.95231250e-08,2.00506250e-01
-5.94831250e-08,2.00492188e-01
-5.94431250e-08,2.00507812e-01
-5.94031250e-08,2.00492188e-01
-5.93631250e-08,2.00507812e-01
-5.93231250e-08,2.00492188e-01
-5.92831250e-08,2.00509375e-01
-5.92431250e-08,2.00490625e-01
-5.92031250e-08,2.00510938e-01
-5.91631250e-08,2.00489063e-01
-5.91231250e-08,2.00512500e-01
-5.90831250e-08,2.00485938e-01
-5.90431250e-08,2.00517187e-01
-5.90031250e-08,2.00478125e-01
-5.89631250e-08,2.00532813e-01
-5.89231250e-08,2.00443750e-01
-5.88831250e-08,2.00709375e-01
-5.88431250e-08,2.00953125e-01
-5.88031250e-08,2.00870313e-01
-5.87631250e-08,2.00920313e-01
-5.87231250e-08,2.00884375e-01
-5.86831250e-08,2.00912500e-01
-5.86431250e-08,2.00889062e-01
-5.86031250e-08,2.00910937e-01
-5.85631250e-08,2.00889062e-01
-5.85231250e-08,2.00910937e-01
-5.84831250e-08,2.00887500e-01
-5.84431250e-08,2.00914063e-01
-5.84031250e-08,2.00881250e-01
-5.83631250e-08,2.00928125e-01
-5.83231250e-08,2.00846875e-01
-5.82831250e-08,2.01104688e-01
-5.82431250e-08,2.01357813e-01
-5.82031250e-08,2.01265625e-01
-5.81631250e-08,2.01325000e-01
-5.81231250e-08,2.01279687e-01
-5.80831250e-08,2.01318750e-01
-5.80431250e-08,2.01282813e-01
-5.80031250e-08,2.01317187e-01
-5.79631250e-08,2.01284375e-01
-5.79231250e-08,2.01315625e-01
-5.78831250e-08,2.01282813e-01
-5.78431250e-08,2.01318750e-01
-5.78031250e-08,2.01279687e-01
-5.77631250e-08,2.01321875e-01
-5.77231250e-08,2.01271875e-01
-5.76831250e-08,2.01337500e-01
-5.76431250e-08,2.01239063e-01
-5.76031250e-08,2.01514063e-01
-5.75631250e-08,2.01748438e-01
-5.75231250e-08,2.01676563e-01
-5.74831250e-08,2.01714063e-01
-5.74431250e-08,2.01690625e-01
-5.74031250e-08,2.01706250e-01
-5.73631250e-08,2.01695313e-01
-5.73231250e-08,2.01703125e-01
-5.72831250e-08,2.01698437e-01
-5.72431250e-08,2.01701563e-01
-5.72031250e-08,2.01700000e-01
-5.71631250e-08,2.01700000e-01
-5.71231250e-08,2.01700000e-01
-5.70831250e-08,2.01698437e-01
-5.70431250e-08,2.01701563e-01
-5.70031250e-08,2.01698437e-01
-5.69631250e-08,2.01701563e-01
-5.69231250e-08,2.01698437e-01
-5.68831250e-08,2.01703125e-01
-5.68431250e-08,2.01696875e-01
-5.68031250e-08,2.01703125e-01
-5.67631250e-08,2.01696875e-01
-5.67231250e-08,2.01703125e-01
-5.66831250e-08,2.01695313e-01
-5.66431250e-08,2.01704688e-01
-5.66031250e-08,2.01695313e-01
-5.65631250e-08,2.01704688e-01
-5.65231250e-08,2.01695313e-01
-5.64831250e-08,2.01704688e-01
-5.64431250e-08,2.01693750e-01
-5.64031250e-08,2.01706250e-01
-5.63631250e-08,2.01693750e-01
-5.63231250e-08,2.01706250e-01
-5.62831250e-08,2.01692188e-01
-5.62431250e-08,2.01707812e-01
-5.62031250e-08,2.01692188e-01
-5.61631250e-08,2.01709375e-01
-5.61231250e-08,2.01689063e-01
-5.60831250e-08,2.01710938e-01
-5.60431250e-08,2.01687500e-01
-5.60031250e-08,2.01715625e-01
-5.59631250e-08,2.01681250e-01
-5.59231250e-08,2.01723438e-01
-5.58831250e-08,2.01667188e-01
-5.58431250e-08,2.01757813e-01
-5.58031250e-08,2.01489063e-01
-5.57631250e-08,2.01248438e-01
-5.57231250e-08,2.01326563e-01
-5.56831250e-08,2.01282813e-01
-5.56431250e-08,2.01312500e-01
-5.56031250e-08,2.01290625e-01
-5.55631250e-08,2.01307813e-01
-5.55231250e-08,2.01293750e-01
-5.54831250e-08,2.01304687e-01
-5.54431250e-08,2.01296875e-01
-5.54031250e-08,2.01303125e-01
-5.53631250e-08,2.01298438e-01
-5.53231250e-08,2.01301563e-01
-5.52831250e-08,2.01298438e-01
-5.52431250e-08,2.01300000e-01
-5.52031250e-08,2.01300000e-01
-5.51631250e-08,2.01300000e-01
-5.51231250e-08,2.01300000e-01
-5.50831250e-08,2.01300000e-01
-5.50431250e-08,2.01301563e-01
-5.50031250e-08,2.01298438e-01
-5.49631250e-08,2.01301563e-01
-5.49231250e-08,2.01298438e-01
-5.48831250e-08,2.01301563e-01
-5.48431250e-08,2.01298438e-01
-5.48031250e-08,2.01303125e-01
-5.47631250e-08,2.01296875e-01
-5.47231250e-08,2.01303125e-01
-5.46831250e-08,2.01296875e-01
-5.46431250e-08,2.01303125e-01
-5.46031250e-08,2.01296875e-01
-5.45631250e-08,2.01303125e-01
-5.45231250e-08,2.01296875e-01
-5.44831250e-08,2.01304687e-01
-5.44431250e-08,2.01295313e-01
-5.44031250e-08,2.01304687e-01
-5.43631250e-08,2.01295313e-01
-5.43231250e-08,2.01304687e-01
-5.42831250e-08,2.01295313e-01
-5.42431250e-08,2.01306250e-01
-5.42031250e-08,2.01293750e-01
-5.41631250e-08,2.01306250e-01
-5.41231250e-08,2.01293750e-01
-5.40831250e-08,2.01307813e-01
-5.40431250e-08,2.01292187e-01
-5.40031250e-08,2.01307813e-01
-5.39631250e-08,2.01290625e-01
-5.39231250e-08,2.01309375e-01
-5.38831250e-08,2.01289063e-01
-5.38431250e-08,2.01312500e-01
-5.38031250e-08,2.01285938e-01
-5.37631250e-08,2.01315625e-01
-5.37231250e-08,2.01281250e-01
-5.36831250e-08,2.01325000e-01
-5.36431250e-08,2.01265625e-01
-5.36031250e-08,2.01359375e-01
-5.35631250e-08,2.01087500e-01
-5.35231250e-08,2.00850000e-01
-5.34831250e-08,2.00926563e-01
-5.34431250e-08,2.00882813e-01
-5.34031250e-08,2.00910937e-01
-5.33631250e-08,2.00892188e-01
-5.33231250e-08,2.00906250e-01
-5.32831250e-08,2.00895313e-01
-5.32431250e-08,2.00903125e-01
-5.32031250e-08,2.00898437e-01
-5.31631250e-08,2.00901563e-01
-5.31231250e-08,2.00900000e-01
-5.30831250e-08,2.00900000e-01
-5.30431250e-08,2.00901563e-01
-5.30031250e-08,2.00898437e-01
-5.29631250e-08,2.00901563e-01
-5.29231250e-08,2.00896875e-01
-5.28831250e-08,2.00903125e-01
-5.28431250e-08,2.00896875e-01
-5.28031250e-08,2.00903125e-01
-5.27631250e-08,2.00895313e-01
-5.27231250e-08,2.00904688e-01
-5.26831250e-08,2.00895313e-01
-5.26431250e-08,2.00906250e-01
-5.26031250e-08,2.00893750e-01
-5.25631250e-08,2.00906250e-01
-5.25231250e-08,2.00892188e-01
-5.24831250e-08,2.00907813e-01
-5.24431250e-08,2.00890625e-01
-5.24031250e-08,2.00910937e-01
-5.23631250e-08,2.00887500e-01
-5.23231250e-08,2.00914063e-01
-5.22831250e-08,2.00884375e-01
-5.22431250e-08,2.00918750e-01
-5.22031250e-08,2.00875000e-01
-5.21631250e-08,2.00934375e-01
-5.21231250e-08,2.00840625e-01
-5.20831250e-08,2.01112500e-01
-5.20431250e-08,2.01348438e-01
-5.20031250e-08,2.01275000e-01
-5.19631250e-08,2.01315625e-01
-5.19231250e-08,2.01290625e-01
-5.18831250e-08,2.01306250e-01
-5.18431250e-08,2.01295313e-01
-5.18031250e-08,2.01303125e-01
-5.17631250e-08,2.01298438e-01
-5.17231250e-08,2.01300000e-01
-5.16831250e-08,2.01301563e-01
-5.16431250e-08,2.01296875e-01
-5.16031250e-08,2.01303125e-01
-5.15631250e-08,2.01295313e-01
-5.15231250e-08,2.01306250e-01
-5.14831250e-08,2.01293750e-01
-5.14431250e-08,2.01307813e-01
-5.14031250e-08,2.01290625e-01
-5.13631250e-08,2.01310938e-01
-5.13231250e-08,2.01285938e-01
-5.12831250e-08,2.01315625e-01
-5.12431250e-08,2.01281250e-01
-5.12031250e-08,2.01325000e-01
-5.11631250e-08,2.01264063e-01
-5.11231250e-08,2.01360938e-01
-5.10831250e-08,2.01085938e-01
-5.10431250e-08,2.00853125e-01
-5.10031250e-08,2.00921875e-01
-5.09631250e-08,2.00889062e-01
-5.09231250e-08,2.00904688e-01
-5.08831250e-08,2.00900000e-01
-5.08431250e-08,2.00896875e-01
-5.08031250e-08,2.00907813e-01
-5.07631250e-08,2.00887500e-01
-5.07231250e-08,2.00918750e-01
-5.06831250e-08,2.00870313e-01
-5.06431250e-08,2.00956250e-01
-5.06031250e-08,2.00690625e-01
-5.05631250e-08,2.00448438e-01
-5.05231250e-08,2.00525000e-01
-5.04831250e-08,2.00485938e-01
-5.04431250e-08,2.00507812e-01
-5.04031250e-08,2.00498438e-01
-5.03631250e-08,2.00496875e-01
-5.03231250e-08,2.00510938e-01
-5.02831250e-08,2.00478125e-01
-5.02431250e-08,2.00548438e-01
-5.02031250e-08,2.00296875e-01
-5.01631250e-08,2.00042187e-01
-5.01231250e-08,2.00131250e-01
-5.00831250e-08,2.00079688e-01
-5.00431250e-08,2.00114063e-01
-5.00031250e-08,2.00092188e-01
-4.99631250e-08,2.00103125e-01
-4.99231250e-08,2.00104688e-01
-4.98831250e-08,2.00084375e-01
-4.98431250e-08,2.00140625e-01
-4.98031250e-08,1.99904688e-01
-4.97631250e-08,1.99634375e-01
-4.97231250e-08,1.99742188e-01
-4.96831250e-08,1.99668750e-01
-4.96431250e-08,1.99726563e-01
-4.96031250e-08,1.99676563e-01
-4.95631250e-08,1.99720312e-01
-4.95231250e-08,1.99681250e-01
-4.94831250e-08,1.99717188e-01
-4.94431250e-08,1.99684375e-01
-4.94031250e-08,1.99715625e-01
-4.93631250e-08,1.99685938e-01
-4.93231250e-08,1.99714063e-01
-4.92831250e-08,1.99687500e-01
-4.92431250e-08,1.99712500e-01
-4.92031250e-08,1.99687500e-01
-4.91631250e-08,1.99712500e-01
-4.91231250e-08,1.99689063e-01
-4.90831250e-08,1.99710938e-01
-4.90431250e-08,1.99689063e-01
-4.90031250e-08,1.99710938e-01
-4.89631250e-08,1.99689063e-01
-4.89231250e-08,1.99712500e-01
-4.88831250e-08,1.99687500e-01
-4.88431250e-08,1.99714063e-01
-4.88031250e-08,1.99684375e-01
-4.87631250e-08,1.99717188e-01
-4.87231250e-08,1.99678125e-01
-4.86831250e-08,1.99731250e-01
-4.86431250e-08,1.99645313e-01
-4.86031250e-08,1.99907813e-01
-4.85631250e-08,2.00154688e-01
-4.85231250e-08,2.00067188e-01
-4.84831250e-08,2.00125000e-01
-4.84431250e-08,2.00079688e-01
-4.84031250e-08,2.00120313e-01
-4.83631250e-08,2.00079688e-01
-4.83231250e-08,2.00121875e-01
-4.82831250e-08,2.00073438e-01
-4.82431250e-08,2.00135937e-01
-4.82031250e-08,2.00039063e-01
-4.81631250e-08,2.00314063e-01
-4.81231250e-08,2.00548438e-01
-4.80831250e-08,2.00476563e-01
-4.80431250e-08,2.00514063e-01
-4.80031250e-08,2.00492188e-01
-4.79631250e-08,2.00503125e-01
-4.79231250e-08,2.00503125e-01
-4.78831250e-08,2.00490625e-01
-4.78431250e-08,2.00518750e-01
-4.78031250e-08,2.00454688e-01
-4.77631250e-08,2.00698437e-01
-4.77231250e-08,2.00964063e-01
-4.76831250e-08,2.00860938e-01
-4.76431250e-08,2.00929688e-01
-4.76031250e-08,2.00875000e-01
-4.75631250e-08,2.00921875e-01
-4.75231250e-08,2.00879688e-01
-4.74831250e-08,2.00918750e-01
-4.74431250e-08,2.00882813e-01
-4.74031250e-08,2.00917188e-01
-4.73631250e-08,2.00882813e-01
-4.73231250e-08,2.00917188e-01
-4.72831250e-08,2.00881250e-01
-4.72431250e-08,2.00921875e-01
-4.72031250e-08,2.00875000e-01
-4.71631250e-08,2.00934375e-01
-4.71231250e-08,2.00842188e-01
-4.70831250e-08,2.01110938e-01
-4.70431250e-08,2.01353125e-01
-4.70031250e-08,2.01270312e-01
-4.69631250e-08,2.01321875e-01
-4.69231250e-08,2.01281250e-01
-4.68831250e-08,2.01317187e-01
-4.68431250e-08,2.01281250e-01
-4.68031250e-08,2.01323438e-01
-4.67631250e-08,2.01268750e-01
-4.67231250e-08,2.01356250e-01
-4.66831250e-08,2.01092188e-01
-4.66431250e-08,2.00845313e-01
-4.66031250e-08,2.00931250e-01
-4.65631250e-08,2.00878125e-01
-4.65231250e-08,2.00917188e-01
-4.64831250e-08,2.00885938e-01
-4.64431250e-08,2.00912500e-01
-4.64031250e-08,2.00889062e-01
-4.63631250e-08,2.00909375e-01
-4.63231250e-08,2.00890625e-01
-4.62831250e-08,2.00907813e-01
-4.62431250e-08,2.00892188e-01
-4.62031250e-08,2.00907813e-01
-4.61631250e-08,2.00892188e-01
-4.61231250e-08,2.00906250e-01
-4.60831250e-08,2.00893750e-01
-4.60431250e-08,2.00906250e-01
-4.60031250e-08,2.00893750e-01
-4.59631250e-08,2.00906250e-01
-4.59231250e-08,2.00893750e-01
-4.58831250e-08,2.00904688e-01
-4.58431250e-08,2.00895313e-01
-4.58031250e-08,2.00904688e-01
-4.57631250e-08,2.00895313e-01
-4.57231250e-08,2.00904688e-01
-4.56831250e-08,2.00895313e-01
-4.56431250e-08,2.00904688e-01
-4.56031250e-08,2.00895313e-01
-4.55631250e-08,2.00904688e-01
-4.55231250e-08,2.00895313e-01
-4.54831250e-08,2.00904688e-01
-4.54431250e-08,2.00895313e-01
-4.54031250e-08,2.00903125e-01
-4.53631250e-08,2.00896875e-01
-4.53231250e-08,2.00903125e-01
-4.52831250e-08,2.00896875e-01
-4.52431250e-08,2.00903125e-01
-4.52031250e-08,2.00896875e-01
-4.51631250e-08,2.00903125e-01
-4.51231250e-08,2.00896875e-01
-4.50831250e-08,2.00903125e-01
-4.50431250e-08,2.00896875e-01
-4.50031250e-08,2.00903125e-01
-4.49631250e-08,2.00896875e-01
-4.49231250e-08,2.00903125e-01
-4.48831250e-08,2.00898437e-01
-4.48431250e-08,2.00901563e-01
-4.48031250e-08,2.00898437e-01
-4.47631250e-08,2.00901563e-01
-4.47231250e-08,2.00898437e-01
-4.46831250e-08,2.00901563e-01
-4.46431250e-08,2.00898437e-01
-4.46031250e-08,2.00901563e-01
-4.45631250e-08,2.00900000e-01
-4.45231250e-08,2.00900000e-01
-4.44831250e-08,2.00900000e-01
-4.44431250e-08,2.00900000e-01
-4.44031250e-08,2.00900000e-01
-4.43631250e-08,2.00898437e-01
-4.43231250e-08,2.00901563e-01
-4.42831250e-08,2.00896875e-01
-4.42431250e-08,2.00903125e-01
-4.42031250e-08,2.00895313e-01
-4.41631250e-08,2.00904688e-01
-4.41231250e-08,2.00893750e-01
-4.40831250e-08,2.00909375e-01
-4.40431250e-08,2.00887500e-01
-4.40031250e-08,2.00917188e-01
-4.39631250e-08,2.00871875e-01
-4.39231250e-08,2.00953125e-01
-4.38831250e-08,2.00693750e-01
-4.38431250e-08,2.00445313e-01
-4.38031250e-08,2.00531250e-01
-4.37631250e-08,2.00479688e-01
-4.37231250e-08,2.00514063e-01
-4.36831250e-08,2.00490625e-01
-4.36431250e-08,2.00504688e-01
-4.36031250e-08,2.00501563e-01
-4.35631250e-08,2.00487500e-01
-4.35231250e-08,2.00537500e-01
-4.34831250e-08,2.00309375e-01
-4.34431250e-08,2.00028125e-01
-4.34031250e-08,2.00148437e-01
-4.33631250e-08,2.00060938e-01
-4.33231250e-08,2.00135937e-01
-4.32831250e-08,2.00065625e-01
-4.32431250e-08,2.00132813e-01
-4.32031250e-08,2.00065625e-01
-4.31631250e-08,2.00139063e-01
-4.31231250e-08,2.00051563e-01
-4.30831250e-08,2.00171875e-01
-4.30431250e-08,1.99875000e-01
-4.30031250e-08,1.99662500e-01
-4.29631250e-08,1.99714063e-01
-4.29231250e-08,1.99695312e-01
-4.28831250e-08,1.99700000e-01
-4.28431250e-08,1.99703125e-01
-4.28031250e-08,1.99693750e-01
-4.27631250e-08,1.99707812e-01
-4.27231250e-08,1.99690625e-01
-4.26831250e-08,1.99712500e-01
-4.26431250e-08,1.99685938e-01
-4.26031250e-08,1.99717188e-01
-4.25631250e-08,1.99676563e-01
-4.25231250e-08,1.99732813e-01
-4.24831250e-08,1.99642188e-01
-4.24431250e-08,1.99910937e-01
-4.24031250e-08,2.00151563e-01
-4.23631250e-08,2.00073438e-01
-4.23231250e-08,2.00117188e-01
-4.22831250e-08,2.00087500e-01
-4.22431250e-08,2.00109375e-01
-4.22031250e-08,2.00092188e-01
-4.21631250e-08,2.00106250e-01
-4.21231250e-08,2.00095313e-01
-4.20831250e-08,2.00103125e-01
-4.20431250e-08,2.00096875e-01
-4.20031250e-08,2.00103125e-01
-4.19631250e-08,2.00098438e-01
-4.19231250e-08,2.00101562e-01
-4.18831250e-08,2.00098438e-01
-4.18431250e-08,2.00101562e-01
-4.18031250e-08,2.00098438e-01
-4.17631250e-08,2.00101562e-01
-4.17231250e-08,2.00098438e-01
-4.16831250e-08,2.00101562e-01
-4.16431250e-08,2.00098438e-01
-4.16031250e-08,2.00101562e-01
-4.15631250e-08,2.00098438e-01
-4.15231250e-08,2.00101562e-01
-4.14831250e-08,2.00098438e-01
-4.14431250e-08,2.00101562e-01
-4.14031250e-08,2.00096875e-01
-4.13631250e-08,2.00103125e-01
-4.13231250e-08,2.00095313e-01
-4.12831250e-08,2.00106250e-01
-4.12431250e-08,2.00090625e-01
-4.12031250e-08,2.00114063e-01
-4.11631250e-08,2.00076562e-01
-4.11231250e-08,2.00146875e-01
-4.10831250e-08,1.99900000e-01
-4.10431250e-08,1.99635937e-01
-4.10031250e-08,1.99740625e-01
-4.09631250e-08,1.99667188e-01
-4.09231250e-08,1.99728125e-01
-4.08831250e-08,1.99673437e-01
-4.08431250e-08,1.99728125e-01
-4.08031250e-08,1.99670313e-01
-4.07631250e-08,1.99734375e-01
-4.07231250e-08,1.99657813e-01
-4.06831250e-08,1.99767187e-01
-4.06431250e-08,1.99479688e-01
-4.06031250e-08,1.99257813e-01
-4.05631250e-08,1.99317187e-01
-4.05231250e-08,1.99292187e-01
-4.04831250e-08,1.99301563e-01
-4.04431250e-08,1.99303125e-01
-4.04031250e-08,1.99292187e-01
-4.03631250e-08,1.99314062e-01
-4.03231250e-08,1.99275000e-01
-4.02831250e-08,1.99350000e-01
-4.02431250e-08,1.99095313e-01
-4.02031250e-08,1.98842188e-01
-4.01631250e-08,1.98934375e-01
-4.01231250e-08,1.98875000e-01
-4.00831250e-08,1.98918750e-01
-4.00431250e-08,1.98882813e-01
-4.00031250e-08,1.98915625e-01
-3.99631250e-08,1.98885937e-01
-3.99231250e-08,1.98912500e-01
-3.98831250e-08,1.98887500e-01
-3.98431250e-08,1.98912500e-01
-3.98031250e-08,1.98885937e-01
-3.97631250e-08,1.98915625e-01
-3.97231250e-08,1.98881250e-01
-3.96831250e-08,1.98923438e-01
-3.96431250e-08,1.98868750e-01
-3.96031250e-08,1.98956250e-01
-3.95631250e-08,1.98690625e-01
-3.95231250e-08,1.98446875e-01
-3.94831250e-08,1.98529687e-01
-3.94431250e-08,1.98479688e-01
-3.94031250e-08,1.98515625e-01
-3.93631250e-08,1.98485938e-01
-3.93231250e-08,1.98510938e-01
-3.92831250e-08,1.98489063e-01
-3.92431250e-08,1.98509375e-01
-3.92031250e-08,1.98490625e-01
-3.91631250e-08,1.98507813e-01
-3.91231250e-08,1.98492188e-01
-3.90831250e-08,1.98507813e-01
-3.90431250e-08,1.98492188e-01
-3.90031250e-08,1.98507813e-01
-3.89631250e-08,1.98492188e-01
-3.89231250e-08,1.98507813e-01
-3.88831250e-08,1.98492188e-01
-3.88431250e-08,1.98507813e-01
-3.88031250e-08,1.98490625e-01
-3.87631250e-08,1.98509375e-01
-3.87231250e-08,1.98490625e-01
-3.86831250e-08,1.98510938e-01
-3.86431250e-08,1.98489063e-01
-3.86031250e-08,1.98512500e-01
-3.85631250e-08,1.98485938e-01
-3.85231250e-08,1.98515625e-01
