trails/00d9de579c68e71117ffc152f8bf8771/aes_ch1_20250506170426951.csv

Model,MSO66B
Label,
Waveform Type,ANALOG
Horizontal Units,s
Sample Interval,4.00000000e-11
Record Length,10000
Zero Index,1599.08984375
Vertical Units,A
ANALOG_Thumbnail,
yOffset,1.84500000e-01
yPosition,8.40000000e-01

Labels,
TIME,CH1
-6.39635937e-08,1.98900000e-01
-6.39235937e-08,1.98900000e-01
-6.38835938e-08,1.98900000e-01
-6.38435937e-08,1.98900000e-01
-6.38035938e-08,1.98898437e-01
-6.37635937e-08,1.98901563e-01
-6.37235937e-08,1.98898437e-01
-6.36835937e-08,1.98901563e-01
-6.36435937e-08,1.98898437e-01
-6.36035938e-08,1.98903125e-01
-6.35635937e-08,1.98896875e-01
-6.35235938e-08,1.98904688e-01
-6.34835937e-08,1.98893750e-01
-6.34435937e-08,1.98907813e-01
-6.34035937e-08,1.98890625e-01
-6.33635937e-08,1.98914063e-01
-6.33235938e-08,1.98876563e-01
-6.32835937e-08,1.98948438e-01
-6.32435938e-08,1.98698438e-01
-6.32035937e-08,1.98437500e-01
-6.31635937e-08,1.98539063e-01
-6.31235937e-08,1.98470312e-01
-6.30835937e-08,1.98526563e-01
-6.30435938e-08,1.98475000e-01
-6.30035937e-08,1.98525000e-01
-6.29635938e-08,1.98473438e-01
-6.29235937e-08,1.98531250e-01
-6.28835937e-08,1.98459375e-01
-6.28435937e-08,1.98565625e-01
-6.28035937e-08,1.98282813e-01
-6.27635938e-08,1.98056250e-01
-6.27235937e-08,1.98120313e-01
-6.26835938e-08,1.98089062e-01
-6.26435937e-08,1.98104688e-01
-6.26035937e-08,1.98098438e-01
-6.25635937e-08,1.98098438e-01
-6.25235937e-08,1.98104688e-01
-6.24835938e-08,1.98090625e-01
-6.24435937e-08,1.98114063e-01
-6.24035938e-08,1.98075000e-01
-6.23635937e-08,1.98150000e-01
-6.23235937e-08,1.97896875e-01
-6.22835937e-08,1.97640625e-01
-6.22435937e-08,1.97734375e-01
-6.22035938e-08,1.97675000e-01
-6.21635937e-08,1.97720312e-01
-6.21235937e-08,1.97682812e-01
-6.20835937e-08,1.97715625e-01
-6.20435937e-08,1.97685938e-01
-6.20035937e-08,1.97712500e-01
-6.19635937e-08,1.97687500e-01
-6.19235938e-08,1.97710938e-01
-6.18835937e-08,1.97689063e-01
-6.18435937e-08,1.97710938e-01
-6.18035937e-08,1.97689063e-01
-6.17635937e-08,1.97710938e-01
-6.17235937e-08,1.97689063e-01
-6.16835937e-08,1.97710938e-01
-6.16435938e-08,1.97689063e-01
-6.16035937e-08,1.97712500e-01
-6.15635937e-08,1.97687500e-01
-6.15235937e-08,1.97714063e-01
-6.14835937e-08,1.97684375e-01
-6.14435937e-08,1.97718750e-01
-6.14035937e-08,1.97676563e-01
-6.13635938e-08,1.97732813e-01
-6.13235937e-08,1.97642188e-01
-6.12835937e-08,1.97910937e-01
-6.12435937e-08,1.98151563e-01
-6.12035937e-08,1.98071875e-01
-6.11635937e-08,1.98120313e-01
-6.11235937e-08,1.98084375e-01
-6.10835938e-08,1.98112500e-01
-6.10435937e-08,1.98089062e-01
-6.10035937e-08,1.98110938e-01
-6.09635937e-08,1.98089062e-01
-6.09235937e-08,1.98110938e-01
-6.08835937e-08,1.98087500e-01
-6.08435937e-08,1.98115625e-01
-6.08035938e-08,1.98079688e-01
-6.07635937e-08,1.98128125e-01
-6.07235937e-08,1.98046875e-01
-6.06835937e-08,1.98306250e-01
-6.06435937e-08,1.98556250e-01
-6.06035937e-08,1.98467188e-01
-6.05635937e-08,1.98525000e-01
-6.05235938e-08,1.98479688e-01
-6.04835937e-08,1.98517187e-01
-6.04435937e-08,1.98484375e-01
-6.04035937e-08,1.98514063e-01
-6.03635937e-08,1.98485938e-01
-6.03235938e-08,1.98514063e-01
-6.02835937e-08,1.98487500e-01
-6.02435938e-08,1.98512500e-01
-6.02035937e-08,1.98487500e-01
-6.01635937e-08,1.98514063e-01
-6.01235937e-08,1.98485938e-01
-6.00835937e-08,1.98514063e-01
-6.00435938e-08,1.98484375e-01
-6.00035937e-08,1.98517187e-01
-5.99635938e-08,1.98481250e-01
-5.99235937e-08,1.98521875e-01
-5.98835937e-08,1.98471875e-01
-5.98435937e-08,1.98537500e-01
-5.98035937e-08,1.98437500e-01
-5.97635938e-08,1.98715625e-01
-5.97235937e-08,1.98946875e-01
-5.96835938e-08,1.98878125e-01
-5.96435937e-08,1.98912500e-01
-5.96035937e-08,1.98892188e-01
-5.95635937e-08,1.98904688e-01
-5.95235937e-08,1.98898437e-01
-5.94835937e-08,1.98900000e-01
-5.94435937e-08,1.98901563e-01
-5.94035937e-08,1.98896875e-01
-5.93635937e-08,1.98904688e-01
-5.93235937e-08,1.98893750e-01
-5.92835937e-08,1.98907813e-01
-5.92435937e-08,1.98890625e-01
-5.92035937e-08,1.98910937e-01
-5.91635937e-08,1.98885937e-01
-5.91235937e-08,1.98917188e-01
-5.90835937e-08,1.98876563e-01
-5.90435937e-08,1.98932813e-01
-5.90035937e-08,1.98840625e-01
-5.89635937e-08,1.99112500e-01
-5.89235937e-08,1.99348438e-01
-5.88835937e-08,1.99276563e-01
-5.88435937e-08,1.99312500e-01
-5.88035937e-08,1.99295313e-01
-5.87635937e-08,1.99296875e-01
-5.87235937e-08,1.99314062e-01
-5.86835937e-08,1.99259375e-01
-5.86435937e-08,1.99493750e-01
-5.86035937e-08,1.99768750e-01
-5.85635937e-08,1.99654688e-01
-5.85235937e-08,1.99739063e-01
-5.84835937e-08,1.99662500e-01
-5.84435937e-08,1.99743750e-01
-5.84035937e-08,1.99634375e-01
-5.83635937e-08,1.99915625e-01
-5.83235937e-08,2.00148437e-01
-5.82835937e-08,2.00073438e-01
-5.82435937e-08,2.00120313e-01
-5.82035937e-08,2.00082813e-01
-5.81635937e-08,2.00118750e-01
-5.81235937e-08,2.00078125e-01
-5.80835937e-08,2.00129688e-01
-5.80435937e-08,2.00045313e-01
-5.80035937e-08,2.00306250e-01
-5.79635937e-08,2.00556250e-01
-5.79235937e-08,2.00467188e-01
-5.78835937e-08,2.00523438e-01
-5.78435937e-08,2.00481250e-01
-5.78035937e-08,2.00517187e-01
-5.77635937e-08,2.00484375e-01
-5.77235937e-08,2.00514063e-01
-5.76835937e-08,2.00485938e-01
-5.76435937e-08,2.00514063e-01
-5.76035937e-08,2.00484375e-01
-5.75635937e-08,2.00517187e-01
-5.75235937e-08,2.00481250e-01
-5.74835937e-08,2.00523438e-01
-5.74435937e-08,2.00467188e-01
-5.74035937e-08,2.00557813e-01
-5.73635937e-08,2.00289063e-01
-5.73235937e-08,2.00048438e-01
-5.72835937e-08,2.00126562e-01
-5.72435937e-08,2.00082813e-01
-5.72035937e-08,2.00110938e-01
-5.71635937e-08,2.00096875e-01
-5.71235937e-08,2.00093750e-01
-5.70835937e-08,2.00129688e-01
-5.70435937e-08,1.99918750e-01
-5.70035937e-08,1.99615625e-01
-5.69635937e-08,1.99765625e-01
-5.69235937e-08,1.99632813e-01
-5.68835937e-08,1.99787500e-01
-5.68435937e-08,1.99460938e-01
-5.68035937e-08,1.99278125e-01
-5.67635937e-08,1.99295313e-01
-5.67235937e-08,1.99317187e-01
-5.66835937e-08,1.99267187e-01
-5.66435937e-08,1.99360938e-01
-5.66035937e-08,1.99082813e-01
-5.65635937e-08,1.98857813e-01
-5.65235937e-08,1.98914063e-01
-5.64835937e-08,1.98901563e-01
-5.64435937e-08,1.98882813e-01
-5.64035937e-08,1.98946875e-01
-5.63635937e-08,1.98696875e-01
-5.63235937e-08,1.98442188e-01
-5.62835937e-08,1.98529687e-01
-5.62435937e-08,1.98481250e-01
-5.62035937e-08,1.98509375e-01
-5.61635937e-08,1.98500000e-01
-5.61235937e-08,1.98487500e-01
-5.60835937e-08,1.98539063e-01
-5.60435937e-08,1.98306250e-01
-5.60035937e-08,1.98032813e-01
-5.59635937e-08,1.98142188e-01
-5.59235937e-08,1.98067188e-01
-5.58835937e-08,1.98126563e-01
-5.58435937e-08,1.98076562e-01
-5.58035937e-08,1.98120313e-01
-5.57635937e-08,1.98081250e-01
-5.57235937e-08,1.98117188e-01
-5.56835937e-08,1.98084375e-01
-5.56435937e-08,1.98114063e-01
-5.56035937e-08,1.98085938e-01
-5.55635937e-08,1.98112500e-01
-5.55235937e-08,1.98089062e-01
-5.54835937e-08,1.98110938e-01
-5.54435937e-08,1.98090625e-01
-5.54035937e-08,1.98109375e-01
-5.53635937e-08,1.98092188e-01
-5.53235937e-08,1.98106250e-01
-5.52835937e-08,1.98095313e-01
-5.52435937e-08,1.98103125e-01
-5.52035937e-08,1.98100000e-01
-5.51635937e-08,1.98093750e-01
-5.51235937e-08,1.98115625e-01
-5.50835937e-08,1.98059375e-01
-5.50435937e-08,1.98293750e-01
-5.50035937e-08,1.98570313e-01
-5.49635937e-08,1.98454688e-01
-5.49235937e-08,1.98537500e-01
-5.48835937e-08,1.98467188e-01
-5.48435937e-08,1.98529687e-01
-5.48035937e-08,1.98471875e-01
-5.47635937e-08,1.98528125e-01
-5.47235937e-08,1.98471875e-01
-5.46835937e-08,1.98529687e-01
-5.46435937e-08,1.98468750e-01
-5.46035937e-08,1.98532813e-01
-5.45635937e-08,1.98462500e-01
-5.45235937e-08,1.98548438e-01
-5.44835937e-08,1.98428125e-01
-5.44435937e-08,1.98726563e-01
-5.44035937e-08,1.98935937e-01
-5.43635937e-08,1.98887500e-01
-5.43235937e-08,1.98901563e-01
-5.42835937e-08,1.98903125e-01
-5.42435937e-08,1.98892188e-01
-5.42035937e-08,1.98910937e-01
-5.41635937e-08,1.98884375e-01
-5.41235937e-08,1.98918750e-01
-5.40835937e-08,1.98875000e-01
-5.40435937e-08,1.98935937e-01
-5.40035937e-08,1.98839062e-01
-5.39635937e-08,1.99115625e-01
-5.39235937e-08,1.99346875e-01
-5.38835937e-08,1.99278125e-01
-5.38435937e-08,1.99310938e-01
-5.38035937e-08,1.99295313e-01
-5.37635937e-08,1.99301563e-01
-5.37235937e-08,1.99303125e-01
-5.36835937e-08,1.99293750e-01
-5.36435937e-08,1.99310938e-01
-5.36035937e-08,1.99282813e-01
-5.35635937e-08,1.99326562e-01
-5.35235937e-08,1.99246875e-01
-5.34835937e-08,1.99506250e-01
-5.34435937e-08,1.99756250e-01
-5.34035937e-08,1.99668750e-01
-5.33635937e-08,1.99721875e-01
-5.33235937e-08,1.99682813e-01
-5.32835937e-08,1.99714063e-01
-5.32435937e-08,1.99689063e-01
-5.32035937e-08,1.99709375e-01
-5.31635937e-08,1.99692188e-01
-5.31235937e-08,1.99707812e-01
-5.30835937e-08,1.99693750e-01
-5.30435937e-08,1.99706250e-01
-5.30035937e-08,1.99695312e-01
-5.29635937e-08,1.99704688e-01
-5.29235938e-08,1.99695312e-01
-5.28835937e-08,1.99703125e-01
-5.28435937e-08,1.99696875e-01
-5.28035937e-08,1.99703125e-01
-5.27635937e-08,1.99696875e-01
-5.27235937e-08,1.99703125e-01
-5.26835937e-08,1.99698437e-01
-5.26435937e-08,1.99701563e-01
-5.26035937e-08,1.99698437e-01
-5.25635937e-08,1.99701563e-01
-5.25235937e-08,1.99698437e-01
-5.24835937e-08,1.99701563e-01
-5.24435937e-08,1.99698437e-01
-5.24035937e-08,1.99701563e-01
-5.23635937e-08,1.99698437e-01
-5.23235937e-08,1.99700000e-01
-5.22835937e-08,1.99700000e-01
-5.22435937e-08,1.99700000e-01
-5.22035937e-08,1.99700000e-01
-5.21635937e-08,1.99700000e-01
-5.21235937e-08,1.99700000e-01
-5.20835937e-08,1.99700000e-01
-5.20435937e-08,1.99700000e-01
-5.20035937e-08,1.99700000e-01
-5.19635937e-08,1.99700000e-01
-5.19235937e-08,1.99700000e-01
-5.18835937e-08,1.99700000e-01
-5.18435937e-08,1.99700000e-01
-5.18035937e-08,1.99700000e-01
-5.17635937e-08,1.99700000e-01
-5.17235937e-08,1.99700000e-01
-5.16835937e-08,1.99700000e-01
-5.16435937e-08,1.99701563e-01
-5.16035937e-08,1.99698437e-01
-5.15635937e-08,1.99701563e-01
-5.15235937e-08,1.99698437e-01
-5.14835937e-08,1.99701563e-01
-5.14435937e-08,1.99698437e-01
-5.14035937e-08,1.99701563e-01
-5.13635937e-08,1.99698437e-01
-5.13235937e-08,1.99701563e-01
-5.12835937e-08,1.99698437e-01
-5.12435937e-08,1.99701563e-01
-5.12035937e-08,1.99698437e-01
-5.11635937e-08,1.99701563e-01
-5.11235937e-08,1.99698437e-01
-5.10835937e-08,1.99701563e-01
-5.10435937e-08,1.99698437e-01
-5.10035938e-08,1.99701563e-01
-5.09635937e-08,1.99698437e-01
-5.09235937e-08,1.99703125e-01
-5.08835937e-08,1.99696875e-01
-5.08435937e-08,1.99703125e-01
-5.08035937e-08,1.99696875e-01
-5.07635937e-08,1.99703125e-01
-5.07235938e-08,1.99696875e-01
-5.06835937e-08,1.99703125e-01
-5.06435937e-08,1.99696875e-01
-5.06035937e-08,1.99704688e-01
-5.05635937e-08,1.99695312e-01
-5.05235937e-08,1.99704688e-01
-5.04835937e-08,1.99693750e-01
-5.04435937e-08,1.99706250e-01
-5.04035937e-08,1.99692188e-01
-5.03635937e-08,1.99709375e-01
-5.03235937e-08,1.99689063e-01
-5.02835937e-08,1.99714063e-01
-5.02435937e-08,1.99681250e-01
-5.02035937e-08,1.99728125e-01
-5.01635937e-08,1.99646875e-01
-5.01235937e-08,1.99904688e-01
-5.00835937e-08,2.00157813e-01
-5.00435937e-08,2.00065625e-01
-5.00035937e-08,2.00125000e-01
-4.99635937e-08,2.00078125e-01
-4.99235937e-08,2.00120313e-01
-4.98835937e-08,2.00081250e-01
-4.98435937e-08,2.00120313e-01
-4.98035937e-08,2.00075000e-01
-4.97635937e-08,2.00132813e-01
-4.97235937e-08,2.00043750e-01
-4.96835937e-08,2.00307813e-01
-4.96435937e-08,2.00554687e-01
-4.96035937e-08,2.00467188e-01
-4.95635937e-08,2.00525000e-01
-4.95235937e-08,2.00478125e-01
-4.94835937e-08,2.00521875e-01
-4.94435937e-08,2.00475000e-01
-4.94035937e-08,2.00532813e-01
-4.93635937e-08,2.00443750e-01
-4.93235937e-08,2.00707812e-01
-4.92835937e-08,2.00956250e-01
-4.92435937e-08,2.00867188e-01
-4.92035937e-08,2.00925000e-01
-4.91635937e-08,2.00876563e-01
-4.91235937e-08,2.00923437e-01
-4.90835938e-08,2.00873438e-01
-4.90435937e-08,2.00934375e-01
-4.90035937e-08,2.00842188e-01
-4.89635937e-08,2.01110938e-01
-4.89235937e-08,2.01353125e-01
-4.88835937e-08,2.01270312e-01
-4.88435937e-08,2.01320313e-01
-4.88035938e-08,2.01284375e-01
-4.87635937e-08,2.01314063e-01
-4.87235937e-08,2.01287500e-01
-4.86835937e-08,2.01310938e-01
-4.86435937e-08,2.01290625e-01
-4.86035937e-08,2.01309375e-01
-4.85635937e-08,2.01290625e-01
-4.85235938e-08,2.01309375e-01
-4.84835937e-08,2.01290625e-01
-4.84435937e-08,2.01309375e-01
-4.84035937e-08,2.01290625e-01
-4.83635937e-08,2.01309375e-01
-4.83235937e-08,2.01289063e-01
-4.82835937e-08,2.01310938e-01
-4.82435937e-08,2.01289063e-01
-4.82035937e-08,2.01312500e-01
-4.81635937e-08,2.01285938e-01
-4.81235937e-08,2.01314063e-01
-4.80835937e-08,2.01282813e-01
-4.80435937e-08,2.01318750e-01
-4.80035937e-08,2.01278125e-01
-4.79635937e-08,2.01328125e-01
-4.79235937e-08,2.01262500e-01
-4.78835937e-08,2.01364062e-01
-4.78435937e-08,2.01081250e-01
-4.78035937e-08,2.00856250e-01
-4.77635937e-08,2.00917188e-01
-4.77235937e-08,2.00893750e-01
-4.76835937e-08,2.00896875e-01
-4.76435937e-08,2.00910937e-01
-4.76035937e-08,2.00876563e-01
-4.75635937e-08,2.00950000e-01
-4.75235937e-08,2.00695313e-01
-4.74835937e-08,2.00443750e-01
-4.74435937e-08,2.00529687e-01
-4.74035937e-08,2.00481250e-01
-4.73635937e-08,2.00509375e-01
-4.73235937e-08,2.00498438e-01
-4.72835937e-08,2.00490625e-01
-4.72435937e-08,2.00535938e-01
-4.72035937e-08,2.00309375e-01
-4.71635938e-08,2.00028125e-01
-4.71235937e-08,2.00148437e-01
-4.70835937e-08,2.00060938e-01
-4.70435937e-08,2.00134375e-01
-4.70035937e-08,2.00067188e-01
-4.69635937e-08,2.00131250e-01
-4.69235937e-08,2.00067188e-01
-4.68835938e-08,2.00135937e-01
-4.68435937e-08,2.00054687e-01
-4.68035937e-08,2.00168750e-01
-4.67635937e-08,1.99878125e-01
-4.67235937e-08,1.99659375e-01
-4.66835937e-08,1.99718750e-01
-4.66435937e-08,1.99690625e-01
-4.66035938e-08,1.99704688e-01
-4.65635937e-08,1.99698437e-01
-4.65235937e-08,1.99700000e-01
-4.64835937e-08,1.99701563e-01
-4.64435937e-08,1.99696875e-01
-4.64035937e-08,1.99703125e-01
-4.63635937e-08,1.99695312e-01
-4.63235938e-08,1.99704688e-01
-4.62835937e-08,1.99693750e-01
-4.62435937e-08,1.99706250e-01
-4.62035937e-08,1.99692188e-01
-4.61635937e-08,1.99707812e-01
-4.61235937e-08,1.99690625e-01
-4.60835937e-08,1.99710938e-01
-4.60435937e-08,1.99685938e-01
-4.60035937e-08,1.99718750e-01
-4.59635937e-08,1.99671875e-01
-4.59235937e-08,1.99753125e-01
-4.58835937e-08,1.99493750e-01
-4.58435937e-08,1.99243750e-01
-4.58035937e-08,1.99332813e-01
-4.57635937e-08,1.99275000e-01
-4.57235937e-08,1.99320313e-01
-4.56835937e-08,1.99282813e-01
-4.56435937e-08,1.99317187e-01
-4.56035937e-08,1.99282813e-01
-4.55635937e-08,1.99318750e-01
-4.55235937e-08,1.99279687e-01
-4.54835937e-08,1.99325000e-01
-4.54435937e-08,1.99265625e-01
-4.54035937e-08,1.99359375e-01
-4.53635937e-08,1.99087500e-01
-4.53235937e-08,1.98850000e-01
-4.52835937e-08,1.98926563e-01
-4.52435938e-08,1.98884375e-01
-4.52035937e-08,1.98909375e-01
-4.51635937e-08,1.98893750e-01
-4.51235937e-08,1.98901563e-01
-4.50835937e-08,1.98904688e-01
-4.50435937e-08,1.98885937e-01
-4.50035937e-08,1.98939063e-01
-4.49635938e-08,1.98707812e-01
-4.49235937e-08,1.98429688e-01
-4.48835937e-08,1.98548438e-01
-4.48435937e-08,1.98460938e-01
-4.48035937e-08,1.98537500e-01
-4.47635937e-08,1.98462500e-01
-4.47235937e-08,1.98540625e-01
-4.46835938e-08,1.98451563e-01
-4.46435937e-08,1.98573438e-01
-4.46035937e-08,1.98273438e-01
-4.45635937e-08,1.98064062e-01
-4.45235937e-08,1.98112500e-01
-4.44835937e-08,1.98098438e-01
-4.44435937e-08,1.98096875e-01
-4.44035938e-08,1.98109375e-01
-4.43635937e-08,1.98085938e-01
-4.43235937e-08,1.98120313e-01
-4.42835937e-08,1.98068750e-01
-4.42435937e-08,1.98156250e-01
-4.42035937e-08,1.97889063e-01
-4.41635937e-08,1.97650000e-01
-4.41235938e-08,1.97725000e-01
-4.40835937e-08,1.97684375e-01
-4.40435937e-08,1.97707812e-01
-4.40035937e-08,1.97696875e-01
-4.39635937e-08,1.97698438e-01
-4.39235937e-08,1.97707812e-01
-4.38835937e-08,1.97681250e-01
-4.38435937e-08,1.97743750e-01
-4.38035937e-08,1.97503125e-01
-4.37635937e-08,1.97234375e-01
-4.37235937e-08,1.97340625e-01
-4.36835937e-08,1.97267187e-01
-4.36435937e-08,1.97328125e-01
-4.36035937e-08,1.97273438e-01
-4.35635937e-08,1.97326562e-01
-4.35235937e-08,1.97273438e-01
-4.34835937e-08,1.97331250e-01
-4.34435937e-08,1.97260938e-01
-4.34035937e-08,1.97364062e-01
-4.33635937e-08,1.97084375e-01
-4.33235938e-08,1.96853125e-01
-4.32835937e-08,1.96923438e-01
-4.32435937e-08,1.96884375e-01
-4.32035937e-08,1.96910937e-01
-4.31635937e-08,1.96892188e-01
-4.31235937e-08,1.96906250e-01
-4.30835937e-08,1.96895313e-01
-4.30435938e-08,1.96904688e-01
-4.30035937e-08,1.96896875e-01
-4.29635937e-08,1.96903125e-01
-4.29235937e-08,1.96896875e-01
-4.28835937e-08,1.96903125e-01
-4.28435937e-08,1.96896875e-01
-4.28035937e-08,1.96903125e-01
-4.27635938e-08,1.96896875e-01
-4.27235937e-08,1.96901563e-01
-4.26835937e-08,1.96896875e-01
-4.26435937e-08,1.96903125e-01
-4.26035937e-08,1.96896875e-01
-4.25635937e-08,1.96903125e-01
-4.25235937e-08,1.96896875e-01
-4.24835938e-08,1.96903125e-01
-4.24435937e-08,1.96896875e-01
-4.24035937e-08,1.96903125e-01
-4.23635937e-08,1.96896875e-01
-4.23235937e-08,1.96904688e-01
-4.22835937e-08,1.96895313e-01
-4.22435937e-08,1.96904688e-01
-4.22035938e-08,1.96893750e-01
-4.21635937e-08,1.96906250e-01
-4.21235937e-08,1.96892188e-01
-4.20835937e-08,1.96909375e-01
-4.20435937e-08,1.96889063e-01
-4.20035937e-08,1.96914063e-01
-4.19635937e-08,1.96881250e-01
-4.19235938e-08,1.96928125e-01
-4.18835937e-08,1.96846875e-01
-4.18435937e-08,1.97106250e-01
-4.18035937e-08,1.97356250e-01
-4.17635937e-08,1.97268750e-01
-4.17235937e-08,1.97321875e-01
-4.16835937e-08,1.97282813e-01
-4.16435937e-08,1.97314062e-01
-4.16035937e-08,1.97287500e-01
-4.15635937e-08,1.97310938e-01
-4.15235937e-08,1.97290625e-01
-4.14835937e-08,1.97309375e-01
-4.14435937e-08,1.97292187e-01
-4.14035938e-08,1.97307813e-01
-4.13635937e-08,1.97292187e-01
-4.13235937e-08,1.97307813e-01
-4.12835937e-08,1.97293750e-01
-4.12435937e-08,1.97306250e-01
-4.12035937e-08,1.97293750e-01
-4.11635937e-08,1.97306250e-01
-4.11235938e-08,1.97293750e-01
-4.10835937e-08,1.97306250e-01
-4.10435937e-08,1.97293750e-01
-4.10035937e-08,1.97306250e-01
-4.09635937e-08,1.97293750e-01
-4.09235937e-08,1.97306250e-01
-4.08835937e-08,1.97293750e-01
-4.08435938e-08,1.97306250e-01
-4.08035937e-08,1.97293750e-01
-4.07635937e-08,1.97306250e-01
-4.07235937e-08,1.97293750e-01
-4.06835937e-08,1.97306250e-01
-4.06435937e-08,1.97293750e-01
-4.06035937e-08,1.97306250e-01
-4.05635938e-08,1.97293750e-01
-4.05235937e-08,1.97306250e-01
-4.04835937e-08,1.97293750e-01
-4.04435937e-08,1.97306250e-01
-4.04035937e-08,1.97292187e-01
-4.03635937e-08,1.97307813e-01
-4.03235937e-08,1.97292187e-01
-4.02835938e-08,1.97307813e-01
-4.02435937e-08,1.97290625e-01
-4.02035937e-08,1.97309375e-01
-4.01635937e-08,1.97290625e-01
-4.01235937e-08,1.97310938e-01
-4.00835937e-08,1.97289063e-01
-4.00435937e-08,1.97312500e-01
-4.00035938e-08,1.97285938e-01
-3.99635937e-08,1.97315625e-01
-3.99235937e-08,1.97282813e-01
-3.98835937e-08,1.97320313e-01
-3.98435937e-08,1.97273438e-01
-3.98035937e-08,1.97335938e-01
-3.97635937e-08,1.97239063e-01
-3.97235937e-08,1.97515625e-01
-3.96835937e-08,1.97746875e-01
-3.96435937e-08,1.97678125e-01
-3.96035937e-08,1.97712500e-01
-3.95635937e-08,1.97693750e-01
-3.95235937e-08,1.97701563e-01
-3.94835938e-08,1.97701563e-01
-3.94435937e-08,1.97695312e-01
-3.94035937e-08,1.97709375e-01
-3.93635937e-08,1.97684375e-01
-3.93235937e-08,1.97726563e-01
-3.92835937e-08,1.97648437e-01
-3.92435937e-08,1.97906250e-01
-3.92035938e-08,1.98154688e-01
-3.91635937e-08,1.98070313e-01
-3.91235937e-08,1.98120313e-01
-3.90835937e-08,1.98087500e-01
-3.90435937e-08,1.98107813e-01
-3.90035937e-08,1.98096875e-01
-3.89635937e-08,1.98096875e-01
-3.89235938e-08,1.98114063e-01
-3.88835937e-08,1.98060938e-01
-3.88435937e-08,1.98292187e-01
-3.88035937e-08,1.98568750e-01
-3.87635937e-08,1.98454688e-01
-3.87235937e-08,1.98535938e-01
-3.86835937e-08,1.98467188e-01
-3.86435938e-08,1.98531250e-01
-3.86035937e-08,1.98470312e-01
-3.85635937e-08,1.98531250e-01
-3.85235937e-08,1.98464063e-01
