trails/00d9de579c68e71117ffc152f8bf8771/aes_ch1_20250506165810483.csv

Model,MSO66B
Label,
Waveform Type,ANALOG
Horizontal Units,s
Sample Interval,4.00000000e-11
Record Length,10000
Zero Index,1599.08593750
Vertical Units,A
ANALOG_Thumbnail,
yOffset,1.84500000e-01
yPosition,8.40000000e-01

Labels,
TIME,CH1
-6.39634375e-08,1.96506250e-01
-6.39234375e-08,1.96495313e-01
-6.38834375e-08,1.96503125e-01
-6.38434375e-08,1.96498438e-01
-6.38034375e-08,1.96500000e-01
-6.37634375e-08,1.96503125e-01
-6.37234375e-08,1.96492187e-01
-6.36834375e-08,1.96517187e-01
-6.36434375e-08,1.96457812e-01
-6.36034375e-08,1.96695312e-01
-6.35634375e-08,1.96967188e-01
-6.35234375e-08,1.96856250e-01
-6.34834375e-08,1.96934375e-01
-6.34434375e-08,1.96870313e-01
-6.34034375e-08,1.96926563e-01
-6.33634375e-08,1.96875000e-01
-6.33234375e-08,1.96925000e-01
-6.32834375e-08,1.96875000e-01
-6.32434375e-08,1.96925000e-01
-6.32034375e-08,1.96873437e-01
-6.31634375e-08,1.96929688e-01
-6.31234375e-08,1.96865625e-01
-6.30834375e-08,1.96943750e-01
-6.30434375e-08,1.96832813e-01
-6.30034375e-08,1.97120313e-01
-6.29634375e-08,1.97342188e-01
-6.29234375e-08,1.97281250e-01
-6.28834375e-08,1.97309375e-01
-6.28434375e-08,1.97295313e-01
-6.28034375e-08,1.97301562e-01
-6.27634375e-08,1.97300000e-01
-6.27234375e-08,1.97298438e-01
-6.26834375e-08,1.97303125e-01
-6.26434375e-08,1.97295313e-01
-6.26034375e-08,1.97304688e-01
-6.25634375e-08,1.97295313e-01
-6.25234375e-08,1.97306250e-01
-6.24834375e-08,1.97293750e-01
-6.24434375e-08,1.97306250e-01
-6.24034375e-08,1.97292187e-01
-6.23634375e-08,1.97307813e-01
-6.23234375e-08,1.97292187e-01
-6.22834375e-08,1.97307813e-01
-6.22434375e-08,1.97290625e-01
-6.22034375e-08,1.97309375e-01
-6.21634375e-08,1.97290625e-01
-6.21234375e-08,1.97310938e-01
-6.20834375e-08,1.97289063e-01
-6.20434375e-08,1.97312500e-01
-6.20034375e-08,1.97285938e-01
-6.19634375e-08,1.97315625e-01
-6.19234375e-08,1.97282813e-01
-6.18834375e-08,1.97320313e-01
-6.18434375e-08,1.97275000e-01
-6.18034375e-08,1.97335938e-01
-6.17634375e-08,1.97239063e-01
-6.17234375e-08,1.97514063e-01
-6.16834375e-08,1.97748438e-01
-6.16434375e-08,1.97675000e-01
-6.16034375e-08,1.97715625e-01
-6.15634375e-08,1.97690625e-01
-6.15234375e-08,1.97706250e-01
-6.14834375e-08,1.97695312e-01
-6.14434375e-08,1.97703125e-01
-6.14034375e-08,1.97698438e-01
-6.13634375e-08,1.97701563e-01
-6.13234375e-08,1.97700000e-01
-6.12834375e-08,1.97700000e-01
-6.12434375e-08,1.97701563e-01
-6.12034375e-08,1.97698438e-01
-6.11634375e-08,1.97703125e-01
-6.11234375e-08,1.97696875e-01
-6.10834375e-08,1.97704688e-01
-6.10434375e-08,1.97695312e-01
-6.10034375e-08,1.97706250e-01
-6.09634375e-08,1.97693750e-01
-6.09234375e-08,1.97707812e-01
-6.08834375e-08,1.97690625e-01
-6.08434375e-08,1.97710938e-01
-6.08034375e-08,1.97687500e-01
-6.07634375e-08,1.97715625e-01
-6.07234375e-08,1.97679688e-01
-6.06834375e-08,1.97731250e-01
-6.06434375e-08,1.97643750e-01
-6.06034375e-08,1.97909375e-01
-6.05634375e-08,1.98153125e-01
-6.05234375e-08,1.98070313e-01
-6.04834375e-08,1.98120313e-01
-6.04434375e-08,1.98084375e-01
-6.04034375e-08,1.98112500e-01
-6.03634375e-08,1.98090625e-01
-6.03234375e-08,1.98107813e-01
-6.02834375e-08,1.98092188e-01
-6.02434375e-08,1.98106250e-01
-6.02034375e-08,1.98093750e-01
-6.01634375e-08,1.98104688e-01
-6.01234375e-08,1.98095313e-01
-6.00834375e-08,1.98104688e-01
-6.00434375e-08,1.98096875e-01
-6.00034375e-08,1.98103125e-01
-5.99634375e-08,1.98096875e-01
-5.99234375e-08,1.98103125e-01
-5.98834375e-08,1.98096875e-01
-5.98434375e-08,1.98103125e-01
-5.98034375e-08,1.98096875e-01
-5.97634375e-08,1.98101562e-01
-5.97234375e-08,1.98098438e-01
-5.96834375e-08,1.98101562e-01
-5.96434375e-08,1.98098438e-01
-5.96034375e-08,1.98101562e-01
-5.95634375e-08,1.98098438e-01
-5.95234375e-08,1.98101562e-01
-5.94834375e-08,1.98098438e-01
-5.94434375e-08,1.98101562e-01
-5.94034375e-08,1.98098438e-01
-5.93634375e-08,1.98101562e-01
-5.93234375e-08,1.98098438e-01
-5.92834375e-08,1.98101562e-01
-5.92434375e-08,1.98098438e-01
-5.92034375e-08,1.98101562e-01
-5.91634375e-08,1.98098438e-01
-5.91234375e-08,1.98101562e-01
-5.90834375e-08,1.98098438e-01
-5.90434375e-08,1.98103125e-01
-5.90034375e-08,1.98096875e-01
-5.89634375e-08,1.98103125e-01
-5.89234375e-08,1.98096875e-01
-5.88834375e-08,1.98104688e-01
-5.88434375e-08,1.98095313e-01
-5.88034375e-08,1.98106250e-01
-5.87634375e-08,1.98093750e-01
-5.87234375e-08,1.98109375e-01
-5.86834375e-08,1.98089062e-01
-5.86434375e-08,1.98115625e-01
-5.86034375e-08,1.98075000e-01
-5.85634375e-08,1.98150000e-01
-5.85234375e-08,1.97896875e-01
-5.84834375e-08,1.97640625e-01
-5.84434375e-08,1.97737500e-01
-5.84034375e-08,1.97671875e-01
-5.83634375e-08,1.97725000e-01
-5.83234375e-08,1.97678125e-01
-5.82834375e-08,1.97721875e-01
-5.82434375e-08,1.97676563e-01
-5.82034375e-08,1.97728125e-01
-5.81634375e-08,1.97664063e-01
-5.81234375e-08,1.97759375e-01
-5.80834375e-08,1.97487500e-01
-5.80434375e-08,1.97248438e-01
-5.80034375e-08,1.97328125e-01
-5.79634375e-08,1.97279688e-01
-5.79234375e-08,1.97318750e-01
-5.78834375e-08,1.97281250e-01
-5.78434375e-08,1.97320313e-01
-5.78034375e-08,1.97271875e-01
-5.77634375e-08,1.97351563e-01
-5.77234375e-08,1.97096875e-01
-5.76834375e-08,1.96840625e-01
-5.76434375e-08,1.96937500e-01
-5.76034375e-08,1.96870313e-01
-5.75634375e-08,1.96928125e-01
-5.75234375e-08,1.96871875e-01
-5.74834375e-08,1.96931250e-01
-5.74434375e-08,1.96860937e-01
-5.74034375e-08,1.96964063e-01
-5.73634375e-08,1.96684375e-01
-5.73234375e-08,1.96453125e-01
-5.72834375e-08,1.96523438e-01
-5.72434375e-08,1.96485938e-01
-5.72034375e-08,1.96509375e-01
-5.71634375e-08,1.96493750e-01
-5.71234375e-08,1.96504687e-01
-5.70834375e-08,1.96495313e-01
-5.70434375e-08,1.96503125e-01
-5.70034375e-08,1.96498438e-01
-5.69634375e-08,1.96501563e-01
-5.69234375e-08,1.96498438e-01
-5.68834375e-08,1.96501563e-01
-5.68434375e-08,1.96498438e-01
-5.68034375e-08,1.96500000e-01
-5.67634375e-08,1.96500000e-01
-5.67234375e-08,1.96500000e-01
-5.66834375e-08,1.96500000e-01
-5.66434375e-08,1.96500000e-01
-5.66034375e-08,1.96498438e-01
-5.65634375e-08,1.96501563e-01
-5.65234375e-08,1.96498438e-01
-5.64834375e-08,1.96503125e-01
-5.64434375e-08,1.96495313e-01
-5.64034375e-08,1.96506250e-01
-5.63634375e-08,1.96489063e-01
-5.63234375e-08,1.96520313e-01
-5.62834375e-08,1.96456250e-01
-5.62434375e-08,1.96696875e-01
-5.62034375e-08,1.96967188e-01
-5.61634375e-08,1.96854688e-01
-5.61234375e-08,1.96937500e-01
-5.60834375e-08,1.96865625e-01
-5.60434375e-08,1.96935938e-01
-5.60034375e-08,1.96860937e-01
-5.59634375e-08,1.96948438e-01
-5.59234375e-08,1.96826562e-01
-5.58834375e-08,1.97126563e-01
-5.58434375e-08,1.97335938e-01
-5.58034375e-08,1.97289063e-01
-5.57634375e-08,1.97298438e-01
-5.57234375e-08,1.97309375e-01
-5.56834375e-08,1.97282813e-01
-5.56434375e-08,1.97328125e-01
-5.56034375e-08,1.97243750e-01
-5.55634375e-08,1.97510938e-01
-5.55234375e-08,1.97750000e-01
-5.54834375e-08,1.97675000e-01
-5.54434375e-08,1.97712500e-01
-5.54034375e-08,1.97695312e-01
-5.53634375e-08,1.97696875e-01
-5.53234375e-08,1.97715625e-01
-5.52834375e-08,1.97657813e-01
-5.52434375e-08,1.97895313e-01
-5.52034375e-08,1.98165625e-01
-5.51634375e-08,1.98057813e-01
-5.51234375e-08,1.98132813e-01
-5.50834375e-08,1.98071875e-01
-5.50434375e-08,1.98126563e-01
-5.50034375e-08,1.98075000e-01
-5.49634375e-08,1.98126563e-01
-5.49234375e-08,1.98070313e-01
-5.48834375e-08,1.98139063e-01
-5.48434375e-08,1.98037500e-01
-5.48034375e-08,1.98314062e-01
-5.47634375e-08,1.98548438e-01
-5.47234375e-08,1.98473438e-01
-5.46834375e-08,1.98517187e-01
-5.46434375e-08,1.98485938e-01
-5.46034375e-08,1.98510938e-01
-5.45634375e-08,1.98489063e-01
-5.45234375e-08,1.98510938e-01
-5.44834375e-08,1.98489063e-01
-5.44434375e-08,1.98512500e-01
-5.44034375e-08,1.98485938e-01
-5.43634375e-08,1.98518750e-01
-5.43234375e-08,1.98471875e-01
-5.42834375e-08,1.98553125e-01
-5.42434375e-08,1.98295313e-01
-5.42034375e-08,1.98042188e-01
-5.41634375e-08,1.98134375e-01
-5.41234375e-08,1.98073438e-01
-5.40834375e-08,1.98121875e-01
-5.40434375e-08,1.98079688e-01
-5.40034375e-08,1.98120313e-01
-5.39634375e-08,1.98078125e-01
-5.39234375e-08,1.98125000e-01
-5.38834375e-08,1.98067188e-01
-5.38434375e-08,1.98157813e-01
-5.38034375e-08,1.97890625e-01
-5.37634375e-08,1.97645313e-01
-5.37234375e-08,1.97731250e-01
-5.36834375e-08,1.97676563e-01
-5.36434375e-08,1.97720312e-01
-5.36034375e-08,1.97679688e-01
-5.35634375e-08,1.97723438e-01
-5.35234375e-08,1.97668750e-01
-5.34834375e-08,1.97754687e-01
-5.34434375e-08,1.97492187e-01
-5.34034375e-08,1.97243750e-01
-5.33634375e-08,1.97334375e-01
-5.33234375e-08,1.97273438e-01
-5.32834375e-08,1.97323438e-01
-5.32434375e-08,1.97276563e-01
-5.32034375e-08,1.97326562e-01
-5.31634375e-08,1.97264063e-01
-5.31234375e-08,1.97359375e-01
-5.30834375e-08,1.97089063e-01
-5.30434375e-08,1.96848438e-01
-5.30034375e-08,1.96928125e-01
-5.29634375e-08,1.96881250e-01
-5.29234375e-08,1.96915625e-01
-5.28834375e-08,1.96887500e-01
-5.28434375e-08,1.96910937e-01
-5.28034375e-08,1.96890625e-01
-5.27634375e-08,1.96909375e-01
-5.27234375e-08,1.96892188e-01
-5.26834375e-08,1.96907813e-01
-5.26434375e-08,1.96892188e-01
-5.26034375e-08,1.96907813e-01
-5.25634375e-08,1.96892188e-01
-5.25234375e-08,1.96907813e-01
-5.24834375e-08,1.96892188e-01
-5.24434375e-08,1.96909375e-01
-5.24034375e-08,1.96890625e-01
-5.23634375e-08,1.96909375e-01
-5.23234375e-08,1.96889063e-01
-5.22834375e-08,1.96910937e-01
-5.22434375e-08,1.96887500e-01
-5.22034375e-08,1.96914063e-01
-5.21634375e-08,1.96882813e-01
-5.21234375e-08,1.96920312e-01
-5.20834375e-08,1.96875000e-01
-5.20434375e-08,1.96934375e-01
-5.20034375e-08,1.96840625e-01
-5.19634375e-08,1.97114063e-01
-5.19234375e-08,1.97348438e-01
-5.18834375e-08,1.97276563e-01
-5.18434375e-08,1.97312500e-01
-5.18034375e-08,1.97293750e-01
-5.17634375e-08,1.97301562e-01
-5.17234375e-08,1.97303125e-01
-5.16834375e-08,1.97290625e-01
-5.16434375e-08,1.97320313e-01
-5.16034375e-08,1.97254687e-01
-5.15634375e-08,1.97498438e-01
-5.15234375e-08,1.97764063e-01
-5.14834375e-08,1.97659375e-01
-5.14434375e-08,1.97731250e-01
-5.14034375e-08,1.97673437e-01
-5.13634375e-08,1.97725000e-01
-5.13234375e-08,1.97675000e-01
-5.12834375e-08,1.97725000e-01
-5.12434375e-08,1.97670313e-01
-5.12034375e-08,1.97737500e-01
-5.11634375e-08,1.97639063e-01
-5.11234375e-08,1.97914063e-01
-5.10834375e-08,1.98150000e-01
-5.10434375e-08,1.98073438e-01
-5.10034375e-08,1.98117188e-01
-5.09634375e-08,1.98087500e-01
-5.09234375e-08,1.98110938e-01
-5.08834375e-08,1.98090625e-01
-5.08434375e-08,1.98109375e-01
-5.08034375e-08,1.98092188e-01
-5.07634375e-08,1.98107813e-01
-5.07234375e-08,1.98092188e-01
-5.06834375e-08,1.98109375e-01
-5.06434375e-08,1.98090625e-01
-5.06034375e-08,1.98110938e-01
-5.05634375e-08,1.98089062e-01
-5.05234375e-08,1.98114063e-01
-5.04834375e-08,1.98082813e-01
-5.04434375e-08,1.98121875e-01
-5.04034375e-08,1.98068750e-01
-5.03634375e-08,1.98156250e-01
-5.03234375e-08,1.97890625e-01
-5.02834375e-08,1.97646875e-01
-5.02434375e-08,1.97728125e-01
-5.02034375e-08,1.97681250e-01
-5.01634375e-08,1.97714063e-01
-5.01234375e-08,1.97689063e-01
-5.00834375e-08,1.97707812e-01
-5.00434375e-08,1.97693750e-01
-5.00034375e-08,1.97704688e-01
-4.99634375e-08,1.97696875e-01
-4.99234375e-08,1.97701563e-01
-4.98834375e-08,1.97700000e-01
-4.98434375e-08,1.97698438e-01
-4.98034375e-08,1.97704688e-01
-4.97634375e-08,1.97692188e-01
-4.97234375e-08,1.97712500e-01
-4.96834375e-08,1.97676563e-01
-4.96434375e-08,1.97748438e-01
-4.96034375e-08,1.97498438e-01
-4.95634375e-08,1.97239063e-01
-4.95234375e-08,1.97337500e-01
-4.94834375e-08,1.97271875e-01
-4.94434375e-08,1.97321875e-01
-4.94034375e-08,1.97281250e-01
-4.93634375e-08,1.97317188e-01
-4.93234375e-08,1.97284375e-01
-4.92834375e-08,1.97314062e-01
-4.92434375e-08,1.97285938e-01
-4.92034375e-08,1.97312500e-01
-4.91634375e-08,1.97287500e-01
-4.91234375e-08,1.97312500e-01
-4.90834375e-08,1.97287500e-01
-4.90434375e-08,1.97312500e-01
-4.90034375e-08,1.97287500e-01
-4.89634375e-08,1.97310938e-01
-4.89234375e-08,1.97289063e-01
-4.88834375e-08,1.97310938e-01
-4.88434375e-08,1.97287500e-01
-4.88034375e-08,1.97312500e-01
-4.87634375e-08,1.97287500e-01
-4.87234375e-08,1.97312500e-01
-4.86834375e-08,1.97287500e-01
-4.86434375e-08,1.97314062e-01
-4.86034375e-08,1.97285938e-01
-4.85634375e-08,1.97315625e-01
-4.85234375e-08,1.97284375e-01
-4.84834375e-08,1.97317188e-01
-4.84434375e-08,1.97279688e-01
-4.84034375e-08,1.97323438e-01
-4.83634375e-08,1.97271875e-01
-4.83234375e-08,1.97337500e-01
-4.82834375e-08,1.97237500e-01
-4.82434375e-08,1.97517187e-01
-4.82034375e-08,1.97745312e-01
-4.81634375e-08,1.97678125e-01
-4.81234375e-08,1.97710938e-01
-4.80834375e-08,1.97693750e-01
-4.80434375e-08,1.97701563e-01
-4.80034375e-08,1.97701563e-01
-4.79634375e-08,1.97696875e-01
-4.79234375e-08,1.97706250e-01
-4.78834375e-08,1.97690625e-01
-4.78434375e-08,1.97712500e-01
-4.78034375e-08,1.97681250e-01
-4.77634375e-08,1.97729688e-01
-4.77234375e-08,1.97645313e-01
-4.76834375e-08,1.97909375e-01
-4.76434375e-08,1.98153125e-01
-4.76034375e-08,1.98071875e-01
-4.75634375e-08,1.98117188e-01
-4.75234375e-08,1.98089062e-01
-4.74834375e-08,1.98106250e-01
-4.74434375e-08,1.98098438e-01
-4.74034375e-08,1.98095313e-01
-4.73634375e-08,1.98115625e-01
-4.73234375e-08,1.98059375e-01
-4.72834375e-08,1.98295313e-01
-4.72434375e-08,1.98567188e-01
-4.72034375e-08,1.98456250e-01
-4.71634375e-08,1.98534375e-01
-4.71234375e-08,1.98468750e-01
-4.70834375e-08,1.98529687e-01
-4.70434375e-08,1.98471875e-01
-4.70034375e-08,1.98529687e-01
-4.69634375e-08,1.98465625e-01
-4.69234375e-08,1.98542188e-01
-4.68834375e-08,1.98432812e-01
-4.68434375e-08,1.98718750e-01
-4.68034375e-08,1.98943750e-01
-4.67634375e-08,1.98879688e-01
-4.67234375e-08,1.98910937e-01
-4.66834375e-08,1.98893750e-01
-4.66434375e-08,1.98904688e-01
-4.66034375e-08,1.98898437e-01
-4.65634375e-08,1.98901563e-01
-4.65234375e-08,1.98900000e-01
-4.64834375e-08,1.98900000e-01
-4.64434375e-08,1.98901563e-01
-4.64034375e-08,1.98898437e-01
-4.63634375e-08,1.98901563e-01
-4.63234375e-08,1.98896875e-01
-4.62834375e-08,1.98903125e-01
-4.62434375e-08,1.98896875e-01
-4.62034375e-08,1.98903125e-01
-4.61634375e-08,1.98895313e-01
-4.61234375e-08,1.98904688e-01
-4.60834375e-08,1.98895313e-01
-4.60434375e-08,1.98904688e-01
-4.60034375e-08,1.98893750e-01
-4.59634375e-08,1.98906250e-01
-4.59234375e-08,1.98893750e-01
-4.58834375e-08,1.98907813e-01
-4.58434375e-08,1.98892188e-01
-4.58034375e-08,1.98909375e-01
-4.57634375e-08,1.98889063e-01
-4.57234375e-08,1.98914063e-01
-4.56834375e-08,1.98882813e-01
-4.56434375e-08,1.98921875e-01
-4.56034375e-08,1.98868750e-01
-4.55634375e-08,1.98956250e-01
-4.55234375e-08,1.98690625e-01
-4.54834375e-08,1.98446875e-01
-4.54434375e-08,1.98529687e-01
-4.54034375e-08,1.98481250e-01
-4.53634375e-08,1.98514063e-01
-4.53234375e-08,1.98489063e-01
-4.52834375e-08,1.98509375e-01
-4.52434375e-08,1.98492188e-01
-4.52034375e-08,1.98506250e-01
-4.51634375e-08,1.98493750e-01
-4.51234375e-08,1.98504687e-01
-4.50834375e-08,1.98495313e-01
-4.50434375e-08,1.98503125e-01
-4.50034375e-08,1.98496875e-01
-4.49634375e-08,1.98503125e-01
-4.49234375e-08,1.98498438e-01
-4.48834375e-08,1.98501563e-01
-4.48434375e-08,1.98498438e-01
-4.48034375e-08,1.98501563e-01
-4.47634375e-08,1.98500000e-01
-4.47234375e-08,1.98500000e-01
-4.46834375e-08,1.98500000e-01
-4.46434375e-08,1.98498438e-01
-4.46034375e-08,1.98501563e-01
-4.45634375e-08,1.98496875e-01
-4.45234375e-08,1.98503125e-01
-4.44834375e-08,1.98495313e-01
-4.44434375e-08,1.98506250e-01
-4.44034375e-08,1.98492188e-01
-4.43634375e-08,1.98510938e-01
-4.43234375e-08,1.98484375e-01
-4.42834375e-08,1.98525000e-01
-4.42434375e-08,1.98450000e-01
-4.42034375e-08,1.98703125e-01
-4.41634375e-08,1.98959375e-01
-4.41234375e-08,1.98864062e-01
-4.40834375e-08,1.98926563e-01
-4.40434375e-08,1.98878125e-01
-4.40034375e-08,1.98918750e-01
-4.39634375e-08,1.98881250e-01
-4.39234375e-08,1.98917188e-01
-4.38834375e-08,1.98882813e-01
-4.38434375e-08,1.98917188e-01
-4.38034375e-08,1.98881250e-01
-4.37634375e-08,1.98921875e-01
-4.37234375e-08,1.98873437e-01
-4.36834375e-08,1.98934375e-01
-4.36434375e-08,1.98840625e-01
-4.36034375e-08,1.99112500e-01
-4.35634375e-08,1.99350000e-01
-4.35234375e-08,1.99273438e-01
-4.34834375e-08,1.99318750e-01
-4.34434375e-08,1.99285938e-01
-4.34034375e-08,1.99310938e-01
-4.33634375e-08,1.99290625e-01
-4.33234375e-08,1.99307813e-01
-4.32834375e-08,1.99292187e-01
-4.32434375e-08,1.99306250e-01
-4.32034375e-08,1.99293750e-01
-4.31634375e-08,1.99306250e-01
-4.31234375e-08,1.99293750e-01
-4.30834375e-08,1.99307813e-01
-4.30434375e-08,1.99292187e-01
-4.30034375e-08,1.99309375e-01
-4.29634375e-08,1.99290625e-01
-4.29234375e-08,1.99312500e-01
-4.28834375e-08,1.99285938e-01
-4.28434375e-08,1.99320313e-01
-4.28034375e-08,1.99270313e-01
-4.27634375e-08,1.99353125e-01
-4.27234375e-08,1.99093750e-01
-4.26834375e-08,1.98843750e-01
-4.26434375e-08,1.98932813e-01
-4.26034375e-08,1.98876563e-01
-4.25634375e-08,1.98918750e-01
-4.25234375e-08,1.98884375e-01
-4.24834375e-08,1.98914063e-01
-4.24434375e-08,1.98887500e-01
-4.24034375e-08,1.98910937e-01
-4.23634375e-08,1.98889063e-01
-4.23234375e-08,1.98910937e-01
-4.22834375e-08,1.98889063e-01
-4.22434375e-08,1.98910937e-01
-4.22034375e-08,1.98889063e-01
-4.21634375e-08,1.98910937e-01
-4.21234375e-08,1.98887500e-01
-4.20834375e-08,1.98914063e-01
-4.20434375e-08,1.98882813e-01
-4.20034375e-08,1.98921875e-01
-4.19634375e-08,1.98868750e-01
-4.19234375e-08,1.98956250e-01
-4.18834375e-08,1.98692188e-01
-4.18434375e-08,1.98445312e-01
-4.18034375e-08,1.98531250e-01
-4.17634375e-08,1.98478125e-01
-4.17234375e-08,1.98517187e-01
-4.16834375e-08,1.98484375e-01
-4.16434375e-08,1.98514063e-01
-4.16034375e-08,1.98487500e-01
-4.15634375e-08,1.98512500e-01
-4.15234375e-08,1.98485938e-01
-4.14834375e-08,1.98515625e-01
-4.14434375e-08,1.98482812e-01
-4.14034375e-08,1.98521875e-01
-4.13634375e-08,1.98468750e-01
-4.13234375e-08,1.98556250e-01
-4.12834375e-08,1.98292187e-01
-4.12434375e-08,1.98045313e-01
-4.12034375e-08,1.98131250e-01
-4.11634375e-08,1.98076562e-01
-4.11234375e-08,1.98120313e-01
-4.10834375e-08,1.98079688e-01
-4.10434375e-08,1.98121875e-01
-4.10034375e-08,1.98070313e-01
-4.09634375e-08,1.98153125e-01
-4.09234375e-08,1.97896875e-01
-4.08834375e-08,1.97639063e-01
-4.08434375e-08,1.97740625e-01
-4.08034375e-08,1.97665625e-01
-4.07634375e-08,1.97735938e-01
-4.07234375e-08,1.97656250e-01
-4.06834375e-08,1.97767187e-01
-4.06434375e-08,1.97479688e-01
-4.06034375e-08,1.97257813e-01
-4.05634375e-08,1.97317188e-01
-4.05234375e-08,1.97293750e-01
-4.04834375e-08,1.97298438e-01
-4.04434375e-08,1.97309375e-01
-4.04034375e-08,1.97278125e-01
-4.03634375e-08,1.97348438e-01
-4.03234375e-08,1.97098438e-01
-4.02834375e-08,1.96840625e-01
-4.02434375e-08,1.96934375e-01
-4.02034375e-08,1.96876563e-01
-4.01634375e-08,1.96917188e-01
-4.01234375e-08,1.96889063e-01
-4.00834375e-08,1.96906250e-01
-4.00434375e-08,1.96900000e-01
-4.00034375e-08,1.96889063e-01
-3.99634375e-08,1.96935938e-01
-3.99234375e-08,1.96709375e-01
-3.98834375e-08,1.96428125e-01
-3.98434375e-08,1.96548438e-01
-3.98034375e-08,1.96462500e-01
-3.97634375e-08,1.96532813e-01
-3.97234375e-08,1.96468750e-01
-3.96834375e-08,1.96528125e-01
-3.96434375e-08,1.96471875e-01
-3.96034375e-08,1.96526563e-01
-3.95634375e-08,1.96473438e-01
-3.95234375e-08,1.96528125e-01
-3.94834375e-08,1.96471875e-01
-3.94434375e-08,1.96529687e-01
-3.94034375e-08,1.96468750e-01
-3.93634375e-08,1.96534375e-01
-3.93234375e-08,1.96460938e-01
-3.92834375e-08,1.96550000e-01
-3.92434375e-08,1.96425000e-01
-3.92034375e-08,1.96728125e-01
-3.91634375e-08,1.96932812e-01
-3.91234375e-08,1.96892188e-01
-3.90834375e-08,1.96896875e-01
-3.90434375e-08,1.96909375e-01
-3.90034375e-08,1.96885937e-01
-3.89634375e-08,1.96920312e-01
-3.89234375e-08,1.96873437e-01
-3.88834375e-08,1.96939063e-01
-3.88434375e-08,1.96834375e-01
-3.88034375e-08,1.97120313e-01
-3.87634375e-08,1.97340625e-01
-3.87234375e-08,1.97285938e-01
-3.86834375e-08,1.97301562e-01
-3.86434375e-08,1.97306250e-01
-3.86034375e-08,1.97284375e-01
-3.85634375e-08,1.97328125e-01
-3.85234375e-08,1.97245313e-01
