trails/00d9de579c68e71117ffc152f8bf8771/aes_ch1_20250506170042007.csv

Model,MSO66B
Label,
Waveform Type,ANALOG
Horizontal Units,s
Sample Interval,4.00000000e-11
Record Length,10000
Zero Index,1599.08984375
Vertical Units,A
ANALOG_Thumbnail,
yOffset,1.84500000e-01
yPosition,8.40000000e-01

Labels,
TIME,CH1
-6.39635937e-08,1.88098437e-01
-6.39235937e-08,1.88101563e-01
-6.38835938e-08,1.88098437e-01
-6.38435937e-08,1.88101563e-01
-6.38035938e-08,1.88098437e-01
-6.37635937e-08,1.88101563e-01
-6.37235937e-08,1.88098437e-01
-6.36835937e-08,1.88101563e-01
-6.36435937e-08,1.88098437e-01
-6.36035938e-08,1.88101563e-01
-6.35635937e-08,1.88098437e-01
-6.35235938e-08,1.88101563e-01
-6.34835937e-08,1.88098437e-01
-6.34435937e-08,1.88101563e-01
-6.34035937e-08,1.88098437e-01
-6.33635937e-08,1.88101563e-01
-6.33235938e-08,1.88098437e-01
-6.32835937e-08,1.88101563e-01
-6.32435938e-08,1.88098437e-01
-6.32035937e-08,1.88101563e-01
-6.31635937e-08,1.88098437e-01
-6.31235937e-08,1.88103125e-01
-6.30835937e-08,1.88096875e-01
-6.30435938e-08,1.88103125e-01
-6.30035937e-08,1.88096875e-01
-6.29635938e-08,1.88103125e-01
-6.29235937e-08,1.88096875e-01
-6.28835937e-08,1.88103125e-01
-6.28435937e-08,1.88096875e-01
-6.28035937e-08,1.88103125e-01
-6.27635938e-08,1.88096875e-01
-6.27235937e-08,1.88103125e-01
-6.26835938e-08,1.88096875e-01
-6.26435937e-08,1.88103125e-01
-6.26035937e-08,1.88096875e-01
-6.25635937e-08,1.88103125e-01
-6.25235937e-08,1.88096875e-01
-6.24835938e-08,1.88104688e-01
-6.24435937e-08,1.88095313e-01
-6.24035938e-08,1.88104688e-01
-6.23635937e-08,1.88095313e-01
-6.23235937e-08,1.88104688e-01
-6.22835937e-08,1.88095313e-01
-6.22435937e-08,1.88106250e-01
-6.22035938e-08,1.88093750e-01
-6.21635937e-08,1.88106250e-01
-6.21235937e-08,1.88092188e-01
-6.20835937e-08,1.88109375e-01
-6.20435937e-08,1.88089063e-01
-6.20035937e-08,1.88112500e-01
-6.19635937e-08,1.88084375e-01
-6.19235938e-08,1.88120312e-01
-6.18835937e-08,1.88070313e-01
-6.18435937e-08,1.88154688e-01
-6.18035937e-08,1.87892188e-01
-6.17635937e-08,1.87645312e-01
-6.17235937e-08,1.87731250e-01
-6.16835937e-08,1.87678125e-01
-6.16435938e-08,1.87717187e-01
-6.16035937e-08,1.87685938e-01
-6.15635937e-08,1.87712500e-01
-6.15235937e-08,1.87689063e-01
-6.14835937e-08,1.87709375e-01
-6.14435937e-08,1.87690625e-01
-6.14035937e-08,1.87707813e-01
-6.13635938e-08,1.87692187e-01
-6.13235937e-08,1.87707813e-01
-6.12835937e-08,1.87692187e-01
-6.12435937e-08,1.87707813e-01
-6.12035937e-08,1.87692187e-01
-6.11635937e-08,1.87707813e-01
-6.11235937e-08,1.87692187e-01
-6.10835938e-08,1.87709375e-01
-6.10435937e-08,1.87690625e-01
-6.10035937e-08,1.87710938e-01
-6.09635937e-08,1.87689063e-01
-6.09235937e-08,1.87714063e-01
-6.08835937e-08,1.87682813e-01
-6.08435937e-08,1.87721875e-01
-6.08035938e-08,1.87668750e-01
-6.07635937e-08,1.87756250e-01
-6.07235937e-08,1.87490625e-01
-6.06835937e-08,1.87246875e-01
-6.06435937e-08,1.87329688e-01
-6.06035937e-08,1.87279688e-01
-6.05635937e-08,1.87315625e-01
-6.05235938e-08,1.87287500e-01
-6.04835937e-08,1.87310937e-01
-6.04435937e-08,1.87290625e-01
-6.04035937e-08,1.87307813e-01
-6.03635937e-08,1.87292188e-01
-6.03235938e-08,1.87306250e-01
-6.02835937e-08,1.87293750e-01
-6.02435938e-08,1.87306250e-01
-6.02035937e-08,1.87293750e-01
-6.01635937e-08,1.87304688e-01
-6.01235937e-08,1.87295313e-01
-6.00835937e-08,1.87304688e-01
-6.00435938e-08,1.87295313e-01
-6.00035937e-08,1.87304688e-01
-5.99635938e-08,1.87295313e-01
-5.99235937e-08,1.87304688e-01
-5.98835937e-08,1.87295313e-01
-5.98435937e-08,1.87304688e-01
-5.98035937e-08,1.87295313e-01
-5.97635938e-08,1.87304688e-01
-5.97235937e-08,1.87295313e-01
-5.96835938e-08,1.87304688e-01
-5.96435937e-08,1.87295313e-01
-5.96035937e-08,1.87304688e-01
-5.95635937e-08,1.87295313e-01
-5.95235937e-08,1.87304688e-01
-5.94835937e-08,1.87295313e-01
-5.94435937e-08,1.87304688e-01
-5.94035937e-08,1.87295313e-01
-5.93635937e-08,1.87304688e-01
-5.93235937e-08,1.87295313e-01
-5.92835937e-08,1.87304688e-01
-5.92435937e-08,1.87295313e-01
-5.92035937e-08,1.87306250e-01
-5.91635937e-08,1.87293750e-01
-5.91235937e-08,1.87306250e-01
-5.90835937e-08,1.87293750e-01
-5.90435937e-08,1.87307813e-01
-5.90035937e-08,1.87292188e-01
-5.89635937e-08,1.87307813e-01
-5.89235937e-08,1.87290625e-01
-5.88835937e-08,1.87310937e-01
-5.88435937e-08,1.87289063e-01
-5.88035937e-08,1.87314063e-01
-5.87635937e-08,1.87282813e-01
-5.87235937e-08,1.87321875e-01
-5.86835937e-08,1.87268750e-01
-5.86435937e-08,1.87356250e-01
-5.86035937e-08,1.87090625e-01
-5.85635937e-08,1.86846875e-01
-5.85235937e-08,1.86929687e-01
-5.84835937e-08,1.86879688e-01
-5.84435937e-08,1.86915625e-01
-5.84035937e-08,1.86887500e-01
-5.83635937e-08,1.86909375e-01
-5.83235937e-08,1.86892188e-01
-5.82835937e-08,1.86907812e-01
-5.82435937e-08,1.86893750e-01
-5.82035937e-08,1.86906250e-01
-5.81635937e-08,1.86895313e-01
-5.81235937e-08,1.86904687e-01
-5.80835937e-08,1.86895313e-01
-5.80435937e-08,1.86904687e-01
-5.80035937e-08,1.86895313e-01
-5.79635937e-08,1.86903125e-01
-5.79235937e-08,1.86896875e-01
-5.78835937e-08,1.86903125e-01
-5.78435937e-08,1.86896875e-01
-5.78035937e-08,1.86903125e-01
-5.77635937e-08,1.86896875e-01
-5.77235937e-08,1.86903125e-01
-5.76835937e-08,1.86895313e-01
-5.76435937e-08,1.86904687e-01
-5.76035937e-08,1.86895313e-01
-5.75635937e-08,1.86904687e-01
-5.75235937e-08,1.86893750e-01
-5.74835937e-08,1.86906250e-01
-5.74435937e-08,1.86890625e-01
-5.74035937e-08,1.86910938e-01
-5.73635937e-08,1.86884375e-01
-5.73235937e-08,1.86925000e-01
-5.72835937e-08,1.86851563e-01
-5.72435937e-08,1.87101563e-01
-5.72035937e-08,1.87362500e-01
-5.71635937e-08,1.87260938e-01
-5.71235937e-08,1.87331250e-01
-5.70835937e-08,1.87270313e-01
-5.70435937e-08,1.87329688e-01
-5.70035937e-08,1.87267188e-01
-5.69635937e-08,1.87342188e-01
-5.69235937e-08,1.87234375e-01
-5.68835937e-08,1.87518750e-01
-5.68435937e-08,1.87743750e-01
-5.68035937e-08,1.87681250e-01
-5.67635937e-08,1.87707813e-01
-5.67235937e-08,1.87700000e-01
-5.66835937e-08,1.87693750e-01
-5.66435937e-08,1.87717187e-01
-5.66035937e-08,1.87656250e-01
-5.65635937e-08,1.87896875e-01
-5.65235937e-08,1.88165625e-01
-5.64835937e-08,1.88057813e-01
-5.64435937e-08,1.88134375e-01
-5.64035937e-08,1.88068750e-01
-5.63635937e-08,1.88131250e-01
-5.63235937e-08,1.88067188e-01
-5.62835937e-08,1.88142188e-01
-5.62435937e-08,1.88034375e-01
-5.62035937e-08,1.88317188e-01
-5.61635937e-08,1.88545313e-01
-5.61235937e-08,1.88478125e-01
-5.60835937e-08,1.88514062e-01
-5.60435937e-08,1.88490625e-01
-5.60035937e-08,1.88506250e-01
-5.59635937e-08,1.88495313e-01
-5.59235937e-08,1.88503125e-01
-5.58835937e-08,1.88496875e-01
-5.58435937e-08,1.88503125e-01
-5.58035937e-08,1.88498438e-01
-5.57635937e-08,1.88501562e-01
-5.57235937e-08,1.88498438e-01
-5.56835937e-08,1.88501562e-01
-5.56435937e-08,1.88498438e-01
-5.56035937e-08,1.88500000e-01
-5.55635937e-08,1.88500000e-01
-5.55235937e-08,1.88500000e-01
-5.54835937e-08,1.88500000e-01
-5.54435937e-08,1.88500000e-01
-5.54035937e-08,1.88500000e-01
-5.53635937e-08,1.88500000e-01
-5.53235937e-08,1.88500000e-01
-5.52835937e-08,1.88500000e-01
-5.52435937e-08,1.88500000e-01
-5.52035937e-08,1.88500000e-01
-5.51635937e-08,1.88500000e-01
-5.51235937e-08,1.88500000e-01
-5.50835937e-08,1.88500000e-01
-5.50435937e-08,1.88500000e-01
-5.50035937e-08,1.88500000e-01
-5.49635937e-08,1.88500000e-01
-5.49235937e-08,1.88500000e-01
-5.48835937e-08,1.88500000e-01
-5.48435937e-08,1.88500000e-01
-5.48035937e-08,1.88500000e-01
-5.47635937e-08,1.88500000e-01
-5.47235937e-08,1.88500000e-01
-5.46835937e-08,1.88500000e-01
-5.46435937e-08,1.88498438e-01
-5.46035937e-08,1.88501562e-01
-5.45635937e-08,1.88498438e-01
-5.45235937e-08,1.88501562e-01
-5.44835937e-08,1.88498438e-01
-5.44435937e-08,1.88501562e-01
-5.44035937e-08,1.88498438e-01
-5.43635937e-08,1.88501562e-01
-5.43235937e-08,1.88498438e-01
-5.42835937e-08,1.88501562e-01
-5.42435937e-08,1.88498438e-01
-5.42035937e-08,1.88501562e-01
-5.41635937e-08,1.88498438e-01
-5.41235937e-08,1.88501562e-01
-5.40835937e-08,1.88498438e-01
-5.40435937e-08,1.88503125e-01
-5.40035937e-08,1.88496875e-01
-5.39635937e-08,1.88503125e-01
-5.39235937e-08,1.88496875e-01
-5.38835937e-08,1.88503125e-01
-5.38435937e-08,1.88496875e-01
-5.38035937e-08,1.88504688e-01
-5.37635937e-08,1.88495313e-01
-5.37235937e-08,1.88506250e-01
-5.36835937e-08,1.88493750e-01
-5.36435937e-08,1.88507813e-01
-5.36035937e-08,1.88490625e-01
-5.35635937e-08,1.88510938e-01
-5.35235937e-08,1.88485938e-01
-5.34835937e-08,1.88518750e-01
-5.34435937e-08,1.88471875e-01
-5.34035937e-08,1.88553125e-01
-5.33635937e-08,1.88292188e-01
-5.33235937e-08,1.88045313e-01
-5.32835937e-08,1.88131250e-01
-5.32435937e-08,1.88078125e-01
-5.32035937e-08,1.88117188e-01
-5.31635937e-08,1.88085937e-01
-5.31235937e-08,1.88110938e-01
-5.30835937e-08,1.88090625e-01
-5.30435937e-08,1.88107812e-01
-5.30035937e-08,1.88093750e-01
-5.29635937e-08,1.88106250e-01
-5.29235938e-08,1.88095313e-01
-5.28835937e-08,1.88103125e-01
-5.28435937e-08,1.88098437e-01
-5.28035937e-08,1.88098437e-01
-5.27635937e-08,1.88106250e-01
-5.27235937e-08,1.88084375e-01
-5.26835937e-08,1.88140625e-01
-5.26435937e-08,1.87907812e-01
-5.26035937e-08,1.87628125e-01
-5.25635937e-08,1.87748438e-01
-5.25235937e-08,1.87657813e-01
-5.24835937e-08,1.87740625e-01
-5.24435937e-08,1.87657813e-01
-5.24035937e-08,1.87750000e-01
-5.23635937e-08,1.87626563e-01
-5.23235937e-08,1.87926563e-01
-5.22835937e-08,1.88135938e-01
-5.22435937e-08,1.88087500e-01
-5.22035937e-08,1.88103125e-01
-5.21635937e-08,1.88103125e-01
-5.21235937e-08,1.88093750e-01
-5.20835937e-08,1.88109375e-01
-5.20435937e-08,1.88087500e-01
-5.20035937e-08,1.88117188e-01
-5.19635937e-08,1.88076563e-01
-5.19235937e-08,1.88134375e-01
-5.18835937e-08,1.88040625e-01
-5.18435937e-08,1.88314063e-01
-5.18035937e-08,1.88546875e-01
-5.17635937e-08,1.88478125e-01
-5.17235937e-08,1.88510938e-01
-5.16835937e-08,1.88496875e-01
-5.16435937e-08,1.88495313e-01
-5.16035937e-08,1.88515625e-01
-5.15635937e-08,1.88457813e-01
-5.15235937e-08,1.88695313e-01
-5.14835937e-08,1.88967187e-01
-5.14435937e-08,1.88856250e-01
-5.14035937e-08,1.88937500e-01
-5.13635937e-08,1.88864063e-01
-5.13235937e-08,1.88942187e-01
-5.12835937e-08,1.88835937e-01
-5.12435937e-08,1.89114063e-01
-5.12035937e-08,1.89350000e-01
-5.11635937e-08,1.89271875e-01
-5.11235937e-08,1.89321875e-01
-5.10835937e-08,1.89281250e-01
-5.10435937e-08,1.89320313e-01
-5.10035938e-08,1.89276562e-01
-5.09635937e-08,1.89332813e-01
-5.09235937e-08,1.89243750e-01
-5.08835937e-08,1.89509375e-01
-5.08435937e-08,1.89753125e-01
-5.08035937e-08,1.89670312e-01
-5.07635937e-08,1.89720313e-01
-5.07235938e-08,1.89684375e-01
-5.06835937e-08,1.89714063e-01
-5.06435937e-08,1.89689063e-01
-5.06035937e-08,1.89709375e-01
-5.05635937e-08,1.89690625e-01
-5.05235937e-08,1.89707813e-01
-5.04835937e-08,1.89692187e-01
-5.04435937e-08,1.89707813e-01
-5.04035937e-08,1.89693750e-01
-5.03635937e-08,1.89706250e-01
-5.03235937e-08,1.89693750e-01
-5.02835937e-08,1.89706250e-01
-5.02435937e-08,1.89695313e-01
-5.02035937e-08,1.89704687e-01
-5.01635937e-08,1.89695313e-01
-5.01235937e-08,1.89704687e-01
-5.00835937e-08,1.89695313e-01
-5.00435937e-08,1.89704687e-01
-5.00035937e-08,1.89695313e-01
-4.99635937e-08,1.89704687e-01
-4.99235937e-08,1.89695313e-01
-4.98835937e-08,1.89704687e-01
-4.98435937e-08,1.89695313e-01
-4.98035937e-08,1.89704687e-01
-4.97635937e-08,1.89695313e-01
-4.97235937e-08,1.89704687e-01
-4.96835937e-08,1.89695313e-01
-4.96435937e-08,1.89704687e-01
-4.96035937e-08,1.89695313e-01
-4.95635937e-08,1.89704687e-01
-4.95235937e-08,1.89695313e-01
-4.94835937e-08,1.89704687e-01
-4.94435937e-08,1.89695313e-01
-4.94035937e-08,1.89704687e-01
-4.93635937e-08,1.89695313e-01
-4.93235937e-08,1.89704687e-01
-4.92835937e-08,1.89695313e-01
-4.92435937e-08,1.89704687e-01
-4.92035937e-08,1.89695313e-01
-4.91635937e-08,1.89704687e-01
-4.91235937e-08,1.89695313e-01
-4.90835938e-08,1.89704687e-01
-4.90435937e-08,1.89695313e-01
-4.90035937e-08,1.89704687e-01
-4.89635937e-08,1.89693750e-01
-4.89235937e-08,1.89706250e-01
-4.88835937e-08,1.89693750e-01
-4.88435937e-08,1.89706250e-01
-4.88035938e-08,1.89692187e-01
-4.87635937e-08,1.89707813e-01
-4.87235937e-08,1.89692187e-01
-4.86835937e-08,1.89709375e-01
-4.86435937e-08,1.89690625e-01
-4.86035937e-08,1.89710938e-01
-4.85635937e-08,1.89687500e-01
-4.85235938e-08,1.89714063e-01
-4.84835937e-08,1.89682813e-01
-4.84435937e-08,1.89723438e-01
-4.84035937e-08,1.89667188e-01
-4.83635937e-08,1.89757813e-01
-4.83235937e-08,1.89489062e-01
-4.82835937e-08,1.89248438e-01
-4.82435937e-08,1.89326563e-01
-4.82035937e-08,1.89282813e-01
-4.81635937e-08,1.89312500e-01
-4.81235937e-08,1.89292188e-01
-4.80835937e-08,1.89306250e-01
-4.80435937e-08,1.89295313e-01
-4.80035937e-08,1.89301563e-01
-4.79635937e-08,1.89300000e-01
-4.79235937e-08,1.89298437e-01
-4.78835937e-08,1.89304688e-01
-4.78435937e-08,1.89292188e-01
-4.78035937e-08,1.89312500e-01
-4.77635937e-08,1.89276562e-01
-4.77235937e-08,1.89348437e-01
-4.76835937e-08,1.89098437e-01
-4.76435937e-08,1.88839063e-01
-4.76035937e-08,1.88937500e-01
-4.75635937e-08,1.88871875e-01
-4.75235937e-08,1.88923438e-01
-4.74835937e-08,1.88879688e-01
-4.74435937e-08,1.88918750e-01
-4.74035937e-08,1.88882812e-01
-4.73635937e-08,1.88917188e-01
-4.73235937e-08,1.88882812e-01
-4.72835937e-08,1.88917188e-01
-4.72435937e-08,1.88881250e-01
-4.72035937e-08,1.88920313e-01
-4.71635938e-08,1.88878125e-01
-4.71235937e-08,1.88926563e-01
-4.70835937e-08,1.88864063e-01
-4.70435937e-08,1.88960938e-01
-4.70035937e-08,1.88685938e-01
-4.69635937e-08,1.88451563e-01
-4.69235937e-08,1.88525000e-01
-4.68835938e-08,1.88484375e-01
-4.68435937e-08,1.88510938e-01
-4.68035937e-08,1.88492188e-01
-4.67635937e-08,1.88506250e-01
-4.67235937e-08,1.88495313e-01
-4.66835937e-08,1.88504688e-01
-4.66435937e-08,1.88496875e-01
-4.66035938e-08,1.88503125e-01
-4.65635937e-08,1.88498438e-01
-4.65235937e-08,1.88501562e-01
-4.64835937e-08,1.88498438e-01
-4.64435937e-08,1.88501562e-01
-4.64035937e-08,1.88498438e-01
-4.63635937e-08,1.88501562e-01
-4.63235938e-08,1.88498438e-01
-4.62835937e-08,1.88501562e-01
-4.62435937e-08,1.88498438e-01
-4.62035937e-08,1.88501562e-01
-4.61635937e-08,1.88498438e-01
-4.61235937e-08,1.88501562e-01
-4.60835937e-08,1.88498438e-01
-4.60435937e-08,1.88501562e-01
-4.60035937e-08,1.88498438e-01
-4.59635937e-08,1.88501562e-01
-4.59235937e-08,1.88498438e-01
-4.58835937e-08,1.88501562e-01
-4.58435937e-08,1.88498438e-01
-4.58035937e-08,1.88503125e-01
-4.57635937e-08,1.88496875e-01
-4.57235937e-08,1.88504688e-01
-4.56835937e-08,1.88495313e-01
-4.56435937e-08,1.88506250e-01
-4.56035937e-08,1.88492188e-01
-4.55635937e-08,1.88510938e-01
-4.55235937e-08,1.88484375e-01
-4.54835937e-08,1.88525000e-01
-4.54435937e-08,1.88450000e-01
-4.54035937e-08,1.88703125e-01
-4.53635937e-08,1.88959375e-01
-4.53235937e-08,1.88864063e-01
-4.52835937e-08,1.88926563e-01
-4.52435938e-08,1.88878125e-01
-4.52035937e-08,1.88918750e-01
-4.51635937e-08,1.88882812e-01
-4.51235937e-08,1.88917188e-01
-4.50835937e-08,1.88884375e-01
-4.50435937e-08,1.88915625e-01
-4.50035937e-08,1.88884375e-01
-4.49635938e-08,1.88915625e-01
-4.49235937e-08,1.88884375e-01
-4.48835937e-08,1.88917188e-01
-4.48435937e-08,1.88882812e-01
-4.48035937e-08,1.88918750e-01
-4.47635937e-08,1.88879688e-01
-4.47235937e-08,1.88923438e-01
-4.46835938e-08,1.88870312e-01
-4.46435937e-08,1.88939063e-01
-4.46035937e-08,1.88835937e-01
-4.45635937e-08,1.89117188e-01
-4.45235937e-08,1.89343750e-01
-4.44835937e-08,1.89279688e-01
-4.44435937e-08,1.89310937e-01
-4.44035938e-08,1.89295313e-01
-4.43635937e-08,1.89300000e-01
-4.43235937e-08,1.89303125e-01
-4.42835937e-08,1.89295313e-01
-4.42435937e-08,1.89309375e-01
-4.42035937e-08,1.89287500e-01
-4.41635937e-08,1.89318750e-01
-4.41235938e-08,1.89271875e-01
-4.40835937e-08,1.89354688e-01
-4.40435937e-08,1.89092188e-01
-4.40035937e-08,1.88845313e-01
-4.39635937e-08,1.88929687e-01
-4.39235937e-08,1.88879688e-01
-4.38835937e-08,1.88914063e-01
-4.38435937e-08,1.88889063e-01
-4.38035937e-08,1.88907812e-01
-4.37635937e-08,1.88893750e-01
-4.37235937e-08,1.88904688e-01
-4.36835937e-08,1.88898438e-01
-4.36435937e-08,1.88900000e-01
-4.36035937e-08,1.88903125e-01
-4.35635937e-08,1.88893750e-01
-4.35235937e-08,1.88910938e-01
-4.34835937e-08,1.88878125e-01
-4.34435937e-08,1.88945313e-01
-4.34035937e-08,1.88701563e-01
-4.33635937e-08,1.88435938e-01
-4.33235938e-08,1.88540625e-01
-4.32835937e-08,1.88468750e-01
-4.32435937e-08,1.88526562e-01
-4.32035937e-08,1.88475000e-01
-4.31635937e-08,1.88525000e-01
-4.31235937e-08,1.88473438e-01
-4.30835937e-08,1.88529688e-01
-4.30435938e-08,1.88460938e-01
-4.30035937e-08,1.88562500e-01
-4.29635937e-08,1.88284375e-01
-4.29235937e-08,1.88053125e-01
-4.28835937e-08,1.88125000e-01
-4.28435937e-08,1.88084375e-01
-4.28035937e-08,1.88110938e-01
-4.27635938e-08,1.88090625e-01
-4.27235937e-08,1.88107812e-01
-4.26835937e-08,1.88093750e-01
-4.26435937e-08,1.88106250e-01
-4.26035937e-08,1.88095313e-01
-4.25635937e-08,1.88104688e-01
-4.25235937e-08,1.88093750e-01
-4.24835938e-08,1.88106250e-01
-4.24435937e-08,1.88092188e-01
-4.24035937e-08,1.88107812e-01
-4.23635937e-08,1.88089063e-01
-4.23235937e-08,1.88115625e-01
-4.22835937e-08,1.88076563e-01
-4.22435937e-08,1.88148438e-01
-4.22035938e-08,1.87900000e-01
-4.21635937e-08,1.87634375e-01
-4.21235937e-08,1.87743750e-01
-4.20835937e-08,1.87660938e-01
-4.20435937e-08,1.87743750e-01
-4.20035937e-08,1.87634375e-01
-4.19635937e-08,1.87917187e-01
-4.19235938e-08,1.88146875e-01
-4.18835937e-08,1.88076563e-01
-4.18435937e-08,1.88115625e-01
-4.18035937e-08,1.88087500e-01
-4.17635937e-08,1.88109375e-01
-4.17235937e-08,1.88092188e-01
-4.16835937e-08,1.88107812e-01
-4.16435937e-08,1.88092188e-01
-4.16035937e-08,1.88107812e-01
-4.15635937e-08,1.88092188e-01
-4.15235937e-08,1.88107812e-01
-4.14835937e-08,1.88092188e-01
-4.14435937e-08,1.88109375e-01
-4.14035938e-08,1.88089063e-01
-4.13635937e-08,1.88114063e-01
-4.13235937e-08,1.88081250e-01
-4.12835937e-08,1.88128125e-01
-4.12435937e-08,1.88046875e-01
-4.12035937e-08,1.88304688e-01
-4.11635937e-08,1.88557813e-01
-4.11235938e-08,1.88465625e-01
-4.10835937e-08,1.88525000e-01
-4.10435937e-08,1.88478125e-01
-4.10035937e-08,1.88520313e-01
-4.09635937e-08,1.88479687e-01
-4.09235937e-08,1.88521875e-01
-4.08835937e-08,1.88475000e-01
-4.08435938e-08,1.88532813e-01
-4.08035937e-08,1.88442187e-01
-4.07635937e-08,1.88709375e-01
-4.07235937e-08,1.88954687e-01
-4.06835937e-08,1.88868750e-01
-4.06435937e-08,1.88923438e-01
-4.06035937e-08,1.88879688e-01
-4.05635938e-08,1.88918750e-01
-4.05235937e-08,1.88881250e-01
-4.04835937e-08,1.88920313e-01
-4.04435937e-08,1.88875000e-01
-4.04035937e-08,1.88932813e-01
-4.03635937e-08,1.88842188e-01
-4.03235937e-08,1.89110938e-01
-4.02835938e-08,1.89351563e-01
-4.02435937e-08,1.89271875e-01
-4.02035937e-08,1.89318750e-01
-4.01635937e-08,1.89285938e-01
-4.01235937e-08,1.89312500e-01
-4.00835937e-08,1.89290625e-01
-4.00435937e-08,1.89309375e-01
-4.00035938e-08,1.89292188e-01
-3.99635937e-08,1.89306250e-01
-3.99235937e-08,1.89293750e-01
-3.98835937e-08,1.89306250e-01
-3.98435937e-08,1.89293750e-01
-3.98035937e-08,1.89304688e-01
-3.97635937e-08,1.89295313e-01
-3.97235937e-08,1.89304688e-01
-3.96835937e-08,1.89295313e-01
-3.96435937e-08,1.89304688e-01
-3.96035937e-08,1.89295313e-01
-3.95635937e-08,1.89304688e-01
-3.95235937e-08,1.89295313e-01
-3.94835938e-08,1.89303125e-01
-3.94435937e-08,1.89296875e-01
-3.94035937e-08,1.89303125e-01
-3.93635937e-08,1.89296875e-01
-3.93235937e-08,1.89303125e-01
-3.92835937e-08,1.89296875e-01
-3.92435937e-08,1.89303125e-01
-3.92035938e-08,1.89296875e-01
-3.91635937e-08,1.89303125e-01
-3.91235937e-08,1.89296875e-01
-3.90835937e-08,1.89303125e-01
-3.90435937e-08,1.89296875e-01
-3.90035937e-08,1.89303125e-01
-3.89635937e-08,1.89295313e-01
-3.89235938e-08,1.89304688e-01
-3.88835937e-08,1.89295313e-01
-3.88435937e-08,1.89304688e-01
-3.88035937e-08,1.89295313e-01
-3.87635937e-08,1.89304688e-01
-3.87235937e-08,1.89295313e-01
-3.86835937e-08,1.89306250e-01
-3.86435938e-08,1.89293750e-01
-3.86035937e-08,1.89306250e-01
-3.85635937e-08,1.89292188e-01
-3.85235937e-08,1.89307813e-01
