trails/00d9de579c68e71117ffc152f8bf8771/aes_ch1_20250506165412288.csv

Model,MSO66B
Label,
Waveform Type,ANALOG
Horizontal Units,s
Sample Interval,4.00000000e-11
Record Length,10000
Zero Index,1599.01953125
Vertical Units,A
ANALOG_Thumbnail,
yOffset,1.84500000e-01
yPosition,8.40000000e-01

Labels,
TIME,CH1
-6.39607813e-08,1.92104688e-01
-6.39207812e-08,1.92095313e-01
-6.38807813e-08,1.92103125e-01
-6.38407812e-08,1.92096875e-01
-6.38007812e-08,1.92101563e-01
-6.37607812e-08,1.92098437e-01
-6.37207812e-08,1.92100000e-01
-6.36807813e-08,1.92101563e-01
-6.36407812e-08,1.92098437e-01
-6.36007813e-08,1.92103125e-01
-6.35607812e-08,1.92095313e-01
-6.35207812e-08,1.92107813e-01
-6.34807812e-08,1.92089063e-01
-6.34407812e-08,1.92115625e-01
-6.34007813e-08,1.92075000e-01
-6.33607812e-08,1.92150000e-01
-6.33207813e-08,1.91895312e-01
-6.32807812e-08,1.91642188e-01
-6.32407812e-08,1.91734375e-01
-6.32007812e-08,1.91675000e-01
-6.31607812e-08,1.91720313e-01
-6.31207813e-08,1.91682813e-01
-6.30807812e-08,1.91714063e-01
-6.30407813e-08,1.91687500e-01
-6.30007812e-08,1.91712500e-01
-6.29607812e-08,1.91689063e-01
-6.29207812e-08,1.91710938e-01
-6.28807812e-08,1.91690625e-01
-6.28407813e-08,1.91709375e-01
-6.28007812e-08,1.91690625e-01
-6.27607813e-08,1.91707813e-01
-6.27207812e-08,1.91692187e-01
-6.26807812e-08,1.91707813e-01
-6.26407812e-08,1.91692187e-01
-6.26007812e-08,1.91707813e-01
-6.25607813e-08,1.91692187e-01
-6.25207812e-08,1.91707813e-01
-6.24807813e-08,1.91693750e-01
-6.24407812e-08,1.91706250e-01
-6.24007812e-08,1.91693750e-01
-6.23607812e-08,1.91706250e-01
-6.23207812e-08,1.91693750e-01
-6.22807813e-08,1.91706250e-01
-6.22407812e-08,1.91693750e-01
-6.22007813e-08,1.91706250e-01
-6.21607812e-08,1.91693750e-01
-6.21207812e-08,1.91706250e-01
-6.20807812e-08,1.91693750e-01
-6.20407812e-08,1.91706250e-01
-6.20007813e-08,1.91693750e-01
-6.19607812e-08,1.91707813e-01
-6.19207812e-08,1.91692187e-01
-6.18807812e-08,1.91707813e-01
-6.18407812e-08,1.91692187e-01
-6.18007812e-08,1.91707813e-01
-6.17607812e-08,1.91690625e-01
-6.17207813e-08,1.91709375e-01
-6.16807812e-08,1.91690625e-01
-6.16407812e-08,1.91710938e-01
-6.16007812e-08,1.91687500e-01
-6.15607812e-08,1.91712500e-01
-6.15207812e-08,1.91684375e-01
-6.14807812e-08,1.91718750e-01
-6.14407813e-08,1.91676563e-01
-6.14007812e-08,1.91732813e-01
-6.13607812e-08,1.91642188e-01
-6.13207812e-08,1.91910938e-01
-6.12807812e-08,1.92151563e-01
-6.12407812e-08,1.92071875e-01
-6.12007812e-08,1.92118750e-01
-6.11607813e-08,1.92087500e-01
-6.11207812e-08,1.92109375e-01
-6.10807812e-08,1.92092188e-01
-6.10407812e-08,1.92106250e-01
-6.10007812e-08,1.92095313e-01
-6.09607812e-08,1.92104688e-01
-6.09207812e-08,1.92096875e-01
-6.08807813e-08,1.92103125e-01
-6.08407812e-08,1.92096875e-01
-6.08007812e-08,1.92101563e-01
-6.07607812e-08,1.92098437e-01
-6.07207812e-08,1.92101563e-01
-6.06807812e-08,1.92098437e-01
-6.06407812e-08,1.92101563e-01
-6.06007813e-08,1.92100000e-01
-6.05607812e-08,1.92100000e-01
-6.05207812e-08,1.92100000e-01
-6.04807812e-08,1.92100000e-01
-6.04407812e-08,1.92100000e-01
-6.04007812e-08,1.92098437e-01
-6.03607812e-08,1.92101563e-01
-6.03207813e-08,1.92098437e-01
-6.02807812e-08,1.92101563e-01
-6.02407812e-08,1.92096875e-01
-6.02007812e-08,1.92103125e-01
-6.01607812e-08,1.92096875e-01
-6.01207813e-08,1.92104688e-01
-6.00807812e-08,1.92095313e-01
-6.00407813e-08,1.92106250e-01
-6.00007812e-08,1.92092188e-01
-5.99607812e-08,1.92109375e-01
-5.99207812e-08,1.92089063e-01
-5.98807812e-08,1.92114063e-01
-5.98407813e-08,1.92081250e-01
-5.98007812e-08,1.92129688e-01
-5.97607813e-08,1.92045313e-01
-5.97207812e-08,1.92307813e-01
-5.96807812e-08,1.92554688e-01
-5.96407812e-08,1.92470313e-01
-5.96007812e-08,1.92520313e-01
-5.95607812e-08,1.92485938e-01
-5.95207812e-08,1.92510938e-01
-5.94807812e-08,1.92493750e-01
-5.94407812e-08,1.92503125e-01
-5.94007812e-08,1.92500000e-01
-5.93607812e-08,1.92493750e-01
-5.93207812e-08,1.92515625e-01
-5.92807812e-08,1.92459375e-01
-5.92407812e-08,1.92693750e-01
-5.92007812e-08,1.92968750e-01
-5.91607812e-08,1.92856250e-01
-5.91207812e-08,1.92935938e-01
-5.90807812e-08,1.92868750e-01
-5.90407812e-08,1.92928125e-01
-5.90007812e-08,1.92873438e-01
-5.89607812e-08,1.92926563e-01
-5.89207812e-08,1.92873438e-01
-5.88807812e-08,1.92926563e-01
-5.88407812e-08,1.92871875e-01
-5.88007812e-08,1.92931250e-01
-5.87607812e-08,1.92864063e-01
-5.87207812e-08,1.92945313e-01
-5.86807812e-08,1.92829688e-01
-5.86407812e-08,1.93123437e-01
-5.86007812e-08,1.93337500e-01
-5.85607812e-08,1.93285938e-01
-5.85207812e-08,1.93303125e-01
-5.84807812e-08,1.93301562e-01
-5.84407812e-08,1.93293750e-01
-5.84007812e-08,1.93310938e-01
-5.83607812e-08,1.93284375e-01
-5.83207812e-08,1.93321875e-01
-5.82807812e-08,1.93268750e-01
-5.82407812e-08,1.93357813e-01
-5.82007812e-08,1.93089063e-01
-5.81607812e-08,1.92850000e-01
-5.81207812e-08,1.92926563e-01
-5.80807812e-08,1.92882813e-01
-5.80407812e-08,1.92910938e-01
-5.80007812e-08,1.92892188e-01
-5.79607812e-08,1.92904688e-01
-5.79207812e-08,1.92896875e-01
-5.78807812e-08,1.92901563e-01
-5.78407812e-08,1.92900000e-01
-5.78007812e-08,1.92900000e-01
-5.77607812e-08,1.92901563e-01
-5.77207812e-08,1.92896875e-01
-5.76807812e-08,1.92904688e-01
-5.76407812e-08,1.92895312e-01
-5.76007812e-08,1.92906250e-01
-5.75607812e-08,1.92890625e-01
-5.75207812e-08,1.92910938e-01
-5.74807812e-08,1.92885937e-01
-5.74407812e-08,1.92920312e-01
-5.74007812e-08,1.92870313e-01
-5.73607812e-08,1.92954687e-01
-5.73207812e-08,1.92692188e-01
-5.72807812e-08,1.92446875e-01
-5.72407812e-08,1.92529688e-01
-5.72007812e-08,1.92479687e-01
-5.71607812e-08,1.92515625e-01
-5.71207812e-08,1.92487500e-01
-5.70807812e-08,1.92509375e-01
-5.70407812e-08,1.92492188e-01
-5.70007812e-08,1.92506250e-01
-5.69607812e-08,1.92493750e-01
-5.69207812e-08,1.92504687e-01
-5.68807812e-08,1.92495313e-01
-5.68407812e-08,1.92503125e-01
-5.68007812e-08,1.92496875e-01
-5.67607812e-08,1.92501563e-01
-5.67207812e-08,1.92498438e-01
-5.66807812e-08,1.92501563e-01
-5.66407812e-08,1.92500000e-01
-5.66007812e-08,1.92500000e-01
-5.65607812e-08,1.92500000e-01
-5.65207812e-08,1.92500000e-01
-5.64807812e-08,1.92501563e-01
-5.64407812e-08,1.92498438e-01
-5.64007812e-08,1.92501563e-01
-5.63607812e-08,1.92496875e-01
-5.63207812e-08,1.92503125e-01
-5.62807812e-08,1.92496875e-01
-5.62407812e-08,1.92504687e-01
-5.62007812e-08,1.92495313e-01
-5.61607812e-08,1.92506250e-01
-5.61207812e-08,1.92492188e-01
-5.60807812e-08,1.92507813e-01
-5.60407812e-08,1.92489063e-01
-5.60007812e-08,1.92512500e-01
-5.59607812e-08,1.92484375e-01
-5.59207812e-08,1.92521875e-01
-5.58807812e-08,1.92468750e-01
-5.58407812e-08,1.92556250e-01
-5.58007812e-08,1.92290625e-01
-5.57607812e-08,1.92048438e-01
-5.57207812e-08,1.92128125e-01
-5.56807812e-08,1.92082813e-01
-5.56407812e-08,1.92112500e-01
-5.56007812e-08,1.92092188e-01
-5.55607812e-08,1.92106250e-01
-5.55207812e-08,1.92096875e-01
-5.54807812e-08,1.92100000e-01
-5.54407812e-08,1.92103125e-01
-5.54007812e-08,1.92093750e-01
-5.53607812e-08,1.92112500e-01
-5.53207812e-08,1.92078125e-01
-5.52807812e-08,1.92146875e-01
-5.52407812e-08,1.91898438e-01
-5.52007812e-08,1.91639063e-01
-5.51607812e-08,1.91737500e-01
-5.51207812e-08,1.91671875e-01
-5.50807812e-08,1.91721875e-01
-5.50407812e-08,1.91681250e-01
-5.50007812e-08,1.91717187e-01
-5.49607812e-08,1.91684375e-01
-5.49207812e-08,1.91714063e-01
-5.48807812e-08,1.91687500e-01
-5.48407812e-08,1.91712500e-01
-5.48007812e-08,1.91687500e-01
-5.47607812e-08,1.91710938e-01
-5.47207812e-08,1.91689063e-01
-5.46807812e-08,1.91710938e-01
-5.46407812e-08,1.91690625e-01
-5.46007812e-08,1.91709375e-01
-5.45607812e-08,1.91690625e-01
-5.45207812e-08,1.91709375e-01
-5.44807812e-08,1.91690625e-01
-5.44407812e-08,1.91709375e-01
-5.44007812e-08,1.91690625e-01
-5.43607812e-08,1.91709375e-01
-5.43207812e-08,1.91690625e-01
-5.42807812e-08,1.91709375e-01
-5.42407812e-08,1.91689063e-01
-5.42007812e-08,1.91710938e-01
-5.41607812e-08,1.91689063e-01
-5.41207812e-08,1.91712500e-01
-5.40807812e-08,1.91687500e-01
-5.40407812e-08,1.91714063e-01
-5.40007812e-08,1.91684375e-01
-5.39607812e-08,1.91718750e-01
-5.39207812e-08,1.91675000e-01
-5.38807812e-08,1.91734375e-01
-5.38407812e-08,1.91642188e-01
-5.38007812e-08,1.91910938e-01
-5.37607812e-08,1.92150000e-01
-5.37207812e-08,1.92073437e-01
-5.36807812e-08,1.92117188e-01
-5.36407812e-08,1.92087500e-01
-5.36007812e-08,1.92109375e-01
-5.35607812e-08,1.92092188e-01
-5.35207812e-08,1.92106250e-01
-5.34807812e-08,1.92095313e-01
-5.34407812e-08,1.92104688e-01
-5.34007812e-08,1.92095313e-01
-5.33607812e-08,1.92103125e-01
-5.33207812e-08,1.92096875e-01
-5.32807812e-08,1.92103125e-01
-5.32407812e-08,1.92096875e-01
-5.32007812e-08,1.92101563e-01
-5.31607812e-08,1.92098437e-01
-5.31207812e-08,1.92101563e-01
-5.30807812e-08,1.92098437e-01
-5.30407812e-08,1.92101563e-01
-5.30007812e-08,1.92098437e-01
-5.29607812e-08,1.92101563e-01
-5.29207812e-08,1.92098437e-01
-5.28807812e-08,1.92101563e-01
-5.28407812e-08,1.92098437e-01
-5.28007812e-08,1.92101563e-01
-5.27607812e-08,1.92098437e-01
-5.27207812e-08,1.92101563e-01
-5.26807812e-08,1.92098437e-01
-5.26407812e-08,1.92101563e-01
-5.26007812e-08,1.92098437e-01
-5.25607812e-08,1.92101563e-01
-5.25207812e-08,1.92098437e-01
-5.24807812e-08,1.92101563e-01
-5.24407813e-08,1.92098437e-01
-5.24007812e-08,1.92101563e-01
-5.23607812e-08,1.92098437e-01
-5.23207812e-08,1.92101563e-01
-5.22807812e-08,1.92098437e-01
-5.22407812e-08,1.92101563e-01
-5.22007812e-08,1.92098437e-01
-5.21607812e-08,1.92101563e-01
-5.21207812e-08,1.92098437e-01
-5.20807812e-08,1.92101563e-01
-5.20407812e-08,1.92098437e-01
-5.20007812e-08,1.92101563e-01
-5.19607812e-08,1.92098437e-01
-5.19207812e-08,1.92101563e-01
-5.18807812e-08,1.92098437e-01
-5.18407812e-08,1.92101563e-01
-5.18007812e-08,1.92098437e-01
-5.17607812e-08,1.92101563e-01
-5.17207812e-08,1.92098437e-01
-5.16807812e-08,1.92101563e-01
-5.16407812e-08,1.92098437e-01
-5.16007812e-08,1.92101563e-01
-5.15607812e-08,1.92098437e-01
-5.15207812e-08,1.92101563e-01
-5.14807812e-08,1.92098437e-01
-5.14407812e-08,1.92103125e-01
-5.14007812e-08,1.92096875e-01
-5.13607812e-08,1.92103125e-01
-5.13207812e-08,1.92096875e-01
-5.12807812e-08,1.92103125e-01
-5.12407812e-08,1.92096875e-01
-5.12007812e-08,1.92103125e-01
-5.11607812e-08,1.92096875e-01
-5.11207812e-08,1.92103125e-01
-5.10807812e-08,1.92096875e-01
-5.10407812e-08,1.92104688e-01
-5.10007812e-08,1.92095313e-01
-5.09607812e-08,1.92104688e-01
-5.09207812e-08,1.92095313e-01
-5.08807812e-08,1.92106250e-01
-5.08407812e-08,1.92093750e-01
-5.08007812e-08,1.92106250e-01
-5.07607812e-08,1.92092188e-01
-5.07207812e-08,1.92107813e-01
-5.06807812e-08,1.92090625e-01
-5.06407812e-08,1.92110937e-01
-5.06007812e-08,1.92087500e-01
-5.05607812e-08,1.92115625e-01
-5.05207813e-08,1.92078125e-01
-5.04807812e-08,1.92131250e-01
-5.04407812e-08,1.92043750e-01
-5.04007812e-08,1.92309375e-01
-5.03607812e-08,1.92553125e-01
-5.03207812e-08,1.92470313e-01
-5.02807812e-08,1.92520313e-01
-5.02407812e-08,1.92485938e-01
-5.02007812e-08,1.92510938e-01
-5.01607812e-08,1.92490625e-01
-5.01207812e-08,1.92507813e-01
-5.00807812e-08,1.92493750e-01
-5.00407812e-08,1.92506250e-01
-5.00007812e-08,1.92495313e-01
-4.99607812e-08,1.92504687e-01
-4.99207812e-08,1.92496875e-01
-4.98807812e-08,1.92503125e-01
-4.98407812e-08,1.92496875e-01
-4.98007812e-08,1.92503125e-01
-4.97607812e-08,1.92498438e-01
-4.97207812e-08,1.92501563e-01
-4.96807812e-08,1.92498438e-01
-4.96407812e-08,1.92501563e-01
-4.96007812e-08,1.92498438e-01
-4.95607812e-08,1.92500000e-01
-4.95207812e-08,1.92500000e-01
-4.94807812e-08,1.92500000e-01
-4.94407812e-08,1.92500000e-01
-4.94007812e-08,1.92500000e-01
-4.93607812e-08,1.92501563e-01
-4.93207812e-08,1.92498438e-01
-4.92807812e-08,1.92501563e-01
-4.92407812e-08,1.92498438e-01
-4.92007812e-08,1.92503125e-01
-4.91607812e-08,1.92496875e-01
-4.91207812e-08,1.92504687e-01
-4.90807812e-08,1.92495313e-01
-4.90407812e-08,1.92506250e-01
-4.90007812e-08,1.92493750e-01
-4.89607812e-08,1.92507813e-01
-4.89207812e-08,1.92489063e-01
-4.88807813e-08,1.92514062e-01
-4.88407812e-08,1.92481250e-01
-4.88007812e-08,1.92528125e-01
-4.87607812e-08,1.92446875e-01
-4.87207812e-08,1.92707813e-01
-4.86807812e-08,1.92954687e-01
-4.86407812e-08,1.92868750e-01
-4.86007813e-08,1.92921875e-01
-4.85607812e-08,1.92882813e-01
-4.85207812e-08,1.92914063e-01
-4.84807812e-08,1.92889063e-01
-4.84407812e-08,1.92909375e-01
-4.84007812e-08,1.92892188e-01
-4.83607812e-08,1.92907812e-01
-4.83207813e-08,1.92893750e-01
-4.82807812e-08,1.92906250e-01
-4.82407812e-08,1.92895312e-01
-4.82007812e-08,1.92904688e-01
-4.81607812e-08,1.92895312e-01
-4.81207812e-08,1.92903125e-01
-4.80807812e-08,1.92896875e-01
-4.80407812e-08,1.92903125e-01
-4.80007812e-08,1.92896875e-01
-4.79607812e-08,1.92901563e-01
-4.79207812e-08,1.92898438e-01
-4.78807812e-08,1.92900000e-01
-4.78407812e-08,1.92900000e-01
-4.78007812e-08,1.92900000e-01
-4.77607812e-08,1.92901563e-01
-4.77207812e-08,1.92898438e-01
-4.76807812e-08,1.92903125e-01
-4.76407812e-08,1.92895312e-01
-4.76007812e-08,1.92907812e-01
-4.75607812e-08,1.92889063e-01
-4.75207812e-08,1.92915625e-01
-4.74807812e-08,1.92875000e-01
-4.74407812e-08,1.92950000e-01
-4.74007812e-08,1.92696875e-01
-4.73607812e-08,1.92440625e-01
-4.73207812e-08,1.92534375e-01
-4.72807812e-08,1.92475000e-01
-4.72407812e-08,1.92520313e-01
-4.72007812e-08,1.92482813e-01
-4.71607812e-08,1.92515625e-01
-4.71207812e-08,1.92485938e-01
-4.70807812e-08,1.92512500e-01
-4.70407812e-08,1.92487500e-01
-4.70007812e-08,1.92510938e-01
-4.69607813e-08,1.92489063e-01
-4.69207812e-08,1.92509375e-01
-4.68807812e-08,1.92490625e-01
-4.68407812e-08,1.92509375e-01
-4.68007812e-08,1.92490625e-01
-4.67607812e-08,1.92509375e-01
-4.67207812e-08,1.92490625e-01
-4.66807813e-08,1.92507813e-01
-4.66407812e-08,1.92492188e-01
-4.66007812e-08,1.92507813e-01
-4.65607812e-08,1.92492188e-01
-4.65207812e-08,1.92507813e-01
-4.64807812e-08,1.92492188e-01
-4.64407812e-08,1.92507813e-01
-4.64007813e-08,1.92492188e-01
-4.63607812e-08,1.92507813e-01
-4.63207812e-08,1.92492188e-01
-4.62807812e-08,1.92507813e-01
-4.62407812e-08,1.92490625e-01
-4.62007812e-08,1.92509375e-01
-4.61607812e-08,1.92490625e-01
-4.61207813e-08,1.92510938e-01
-4.60807812e-08,1.92489063e-01
-4.60407812e-08,1.92512500e-01
-4.60007812e-08,1.92485938e-01
-4.59607812e-08,1.92517188e-01
-4.59207812e-08,1.92478125e-01
-4.58807812e-08,1.92531250e-01
-4.58407812e-08,1.92445313e-01
-4.58007812e-08,1.92707813e-01
-4.57607812e-08,1.92954687e-01
-4.57207812e-08,1.92868750e-01
-4.56807812e-08,1.92923438e-01
-4.56407812e-08,1.92879688e-01
-4.56007812e-08,1.92918750e-01
-4.55607812e-08,1.92881250e-01
-4.55207812e-08,1.92920312e-01
-4.54807812e-08,1.92876563e-01
-4.54407812e-08,1.92932812e-01
-4.54007812e-08,1.92842188e-01
-4.53607812e-08,1.93109375e-01
-4.53207812e-08,1.93353125e-01
-4.52807812e-08,1.93270313e-01
-4.52407812e-08,1.93320313e-01
-4.52007812e-08,1.93284375e-01
-4.51607812e-08,1.93312500e-01
-4.51207812e-08,1.93289062e-01
-4.50807812e-08,1.93307813e-01
-4.50407813e-08,1.93292188e-01
-4.50007812e-08,1.93306250e-01
-4.49607812e-08,1.93295313e-01
-4.49207812e-08,1.93303125e-01
-4.48807812e-08,1.93298438e-01
-4.48407812e-08,1.93300000e-01
-4.48007812e-08,1.93303125e-01
-4.47607813e-08,1.93292188e-01
-4.47207812e-08,1.93317188e-01
-4.46807812e-08,1.93259375e-01
-4.46407812e-08,1.93493750e-01
-4.46007812e-08,1.93770313e-01
-4.45607812e-08,1.93653125e-01
-4.45207812e-08,1.93740625e-01
-4.44807813e-08,1.93660938e-01
-4.44407812e-08,1.93740625e-01
-4.44007812e-08,1.93651563e-01
-4.43607812e-08,1.93771875e-01
-4.43207812e-08,1.93476563e-01
-4.42807812e-08,1.93260938e-01
-4.42407812e-08,1.93317188e-01
-4.42007813e-08,1.93292188e-01
-4.41607812e-08,1.93303125e-01
-4.41207812e-08,1.93300000e-01
-4.40807812e-08,1.93298438e-01
-4.40407812e-08,1.93303125e-01
-4.40007812e-08,1.93295313e-01
-4.39607812e-08,1.93304688e-01
-4.39207813e-08,1.93293750e-01
-4.38807812e-08,1.93306250e-01
-4.38407812e-08,1.93293750e-01
-4.38007812e-08,1.93307813e-01
-4.37607812e-08,1.93292188e-01
-4.37207812e-08,1.93309375e-01
-4.36807812e-08,1.93290625e-01
-4.36407812e-08,1.93310938e-01
-4.36007812e-08,1.93287500e-01
-4.35607812e-08,1.93314062e-01
-4.35207812e-08,1.93284375e-01
-4.34807812e-08,1.93318750e-01
-4.34407812e-08,1.93276562e-01
-4.34007812e-08,1.93332813e-01
-4.33607812e-08,1.93242187e-01
-4.33207812e-08,1.93510938e-01
-4.32807812e-08,1.93751563e-01
-4.32407812e-08,1.93671875e-01
-4.32007812e-08,1.93718750e-01
-4.31607812e-08,1.93685938e-01
-4.31207813e-08,1.93710938e-01
-4.30807812e-08,1.93690625e-01
-4.30407812e-08,1.93709375e-01
-4.30007812e-08,1.93692188e-01
-4.29607812e-08,1.93709375e-01
-4.29207812e-08,1.93690625e-01
-4.28807812e-08,1.93712500e-01
-4.28407813e-08,1.93684375e-01
-4.28007812e-08,1.93725000e-01
-4.27607812e-08,1.93651563e-01
-4.27207812e-08,1.93901563e-01
-4.26807812e-08,1.94162500e-01
-4.26407812e-08,1.94060938e-01
-4.26007812e-08,1.94131250e-01
-4.25607813e-08,1.94071875e-01
-4.25207812e-08,1.94126563e-01
-4.24807812e-08,1.94073438e-01
-4.24407812e-08,1.94128125e-01
-4.24007812e-08,1.94067188e-01
-4.23607812e-08,1.94142188e-01
-4.23207812e-08,1.94032813e-01
-4.22807813e-08,1.94320313e-01
-4.22407812e-08,1.94542188e-01
-4.22007812e-08,1.94481250e-01
-4.21607812e-08,1.94509375e-01
-4.21207812e-08,1.94495313e-01
-4.20807812e-08,1.94501563e-01
-4.20407812e-08,1.94501563e-01
-4.20007813e-08,1.94496875e-01
-4.19607812e-08,1.94504687e-01
-4.19207812e-08,1.94493750e-01
-4.18807812e-08,1.94507813e-01
-4.18407812e-08,1.94490625e-01
-4.18007812e-08,1.94510938e-01
-4.17607812e-08,1.94487500e-01
-4.17207813e-08,1.94515625e-01
-4.16807812e-08,1.94482813e-01
-4.16407812e-08,1.94521875e-01
-4.16007812e-08,1.94471875e-01
-4.15607812e-08,1.94539062e-01
-4.15207812e-08,1.94434375e-01
-4.14807812e-08,1.94720312e-01
-4.14407812e-08,1.94937500e-01
-4.14007812e-08,1.94890625e-01
-4.13607812e-08,1.94890625e-01
-4.13207812e-08,1.94940625e-01
-4.12807812e-08,1.94703125e-01
-4.12407812e-08,1.94435938e-01
-4.12007813e-08,1.94537500e-01
-4.11607812e-08,1.94471875e-01
-4.11207812e-08,1.94521875e-01
-4.10807812e-08,1.94482813e-01
-4.10407812e-08,1.94515625e-01
-4.10007812e-08,1.94487500e-01
-4.09607812e-08,1.94510938e-01
-4.09207813e-08,1.94490625e-01
-4.08807812e-08,1.94509375e-01
-4.08407812e-08,1.94492187e-01
-4.08007812e-08,1.94507813e-01
-4.07607812e-08,1.94493750e-01
-4.07207812e-08,1.94506250e-01
-4.06807812e-08,1.94495313e-01
-4.06407813e-08,1.94504687e-01
-4.06007812e-08,1.94495313e-01
-4.05607812e-08,1.94503125e-01
-4.05207812e-08,1.94496875e-01
-4.04807812e-08,1.94503125e-01
-4.04407812e-08,1.94496875e-01
-4.04007812e-08,1.94501563e-01
-4.03607813e-08,1.94498438e-01
-4.03207812e-08,1.94501563e-01
-4.02807812e-08,1.94500000e-01
-4.02407812e-08,1.94500000e-01
-4.02007812e-08,1.94500000e-01
-4.01607812e-08,1.94498438e-01
-4.01207812e-08,1.94501563e-01
-4.00807813e-08,1.94498438e-01
-4.00407812e-08,1.94503125e-01
-4.00007812e-08,1.94496875e-01
-3.99607812e-08,1.94504687e-01
-3.99207812e-08,1.94493750e-01
-3.98807812e-08,1.94507813e-01
-3.98407812e-08,1.94490625e-01
-3.98007813e-08,1.94514063e-01
-3.97607812e-08,1.94481250e-01
-3.97207812e-08,1.94528125e-01
-3.96807812e-08,1.94446875e-01
-3.96407812e-08,1.94706250e-01
-3.96007812e-08,1.94954688e-01
-3.95607812e-08,1.94868750e-01
-3.95207813e-08,1.94921875e-01
-3.94807812e-08,1.94884375e-01
-3.94407812e-08,1.94912500e-01
-3.94007812e-08,1.94890625e-01
-3.93607812e-08,1.94907812e-01
-3.93207812e-08,1.94893750e-01
-3.92807813e-08,1.94903125e-01
-3.92407812e-08,1.94898438e-01
-3.92007812e-08,1.94898438e-01
-3.91607812e-08,1.94904688e-01
-3.91207812e-08,1.94890625e-01
-3.90807812e-08,1.94920312e-01
-3.90407812e-08,1.94854688e-01
-3.90007813e-08,1.95098437e-01
-3.89607812e-08,1.95364063e-01
-3.89207812e-08,1.95259375e-01
-3.88807812e-08,1.95331250e-01
-3.88407812e-08,1.95273438e-01
-3.88007812e-08,1.95323438e-01
-3.87607812e-08,1.95278125e-01
-3.87207813e-08,1.95321875e-01
-3.86807812e-08,1.95279688e-01
-3.86407812e-08,1.95320313e-01
-3.86007812e-08,1.95278125e-01
-3.85607812e-08,1.95323438e-01
-3.85207812e-08,1.95275000e-01
