trails/00d9de579c68e71117ffc152f8bf8771/aes_ch1_20250506165634039.csv

Model,MSO66B
Label,
Waveform Type,ANALOG
Horizontal Units,s
Sample Interval,4.00000000e-11
Record Length,10000
Zero Index,1599.08593750
Vertical Units,A
ANALOG_Thumbnail,
yOffset,1.84500000e-01
yPosition,8.40000000e-01

Labels,
TIME,CH1
-6.39634375e-08,1.78492188e-01
-6.39234375e-08,1.78509375e-01
-6.38834375e-08,1.78487500e-01
-6.38434375e-08,1.78517188e-01
-6.38034375e-08,1.78473437e-01
-6.37634375e-08,1.78551563e-01
-6.37234375e-08,1.78295312e-01
-6.36834375e-08,1.78042188e-01
-6.36434375e-08,1.78134375e-01
-6.36034375e-08,1.78075000e-01
-6.35634375e-08,1.78120313e-01
-6.35234375e-08,1.78082813e-01
-6.34834375e-08,1.78115625e-01
-6.34434375e-08,1.78085938e-01
-6.34034375e-08,1.78114063e-01
-6.33634375e-08,1.78085938e-01
-6.33234375e-08,1.78114063e-01
-6.32834375e-08,1.78085938e-01
-6.32434375e-08,1.78115625e-01
-6.32034375e-08,1.78081250e-01
-6.31634375e-08,1.78123438e-01
-6.31234375e-08,1.78067188e-01
-6.30834375e-08,1.78156250e-01
-6.30434375e-08,1.77890625e-01
-6.30034375e-08,1.77646875e-01
-6.29634375e-08,1.77729688e-01
-6.29234375e-08,1.77679688e-01
-6.28834375e-08,1.77715625e-01
-6.28434375e-08,1.77685938e-01
-6.28034375e-08,1.77712500e-01
-6.27634375e-08,1.77689062e-01
-6.27234375e-08,1.77710937e-01
-6.26834375e-08,1.77689062e-01
-6.26434375e-08,1.77712500e-01
-6.26034375e-08,1.77685938e-01
-6.25634375e-08,1.77715625e-01
-6.25234375e-08,1.77679688e-01
-6.24834375e-08,1.77729688e-01
-6.24434375e-08,1.77646875e-01
-6.24034375e-08,1.77904688e-01
-6.23634375e-08,1.78157813e-01
-6.23234375e-08,1.78064063e-01
-6.22834375e-08,1.78128125e-01
-6.22434375e-08,1.78075000e-01
-6.22034375e-08,1.78125000e-01
-6.21634375e-08,1.78071875e-01
-6.21234375e-08,1.78137500e-01
-6.20834375e-08,1.78039063e-01
-6.20434375e-08,1.78314063e-01
-6.20034375e-08,1.78546875e-01
-6.19634375e-08,1.78478125e-01
-6.19234375e-08,1.78509375e-01
-6.18834375e-08,1.78503125e-01
-6.18434375e-08,1.78470313e-01
-6.18034375e-08,1.78681250e-01
-6.17634375e-08,1.78982813e-01
-6.17234375e-08,1.78835938e-01
-6.16834375e-08,1.78964063e-01
-6.16434375e-08,1.78815625e-01
-6.16034375e-08,1.79135938e-01
-6.15634375e-08,1.79326563e-01
-6.15234375e-08,1.79298438e-01
-6.14834375e-08,1.79287500e-01
-6.14434375e-08,1.79325000e-01
-6.14034375e-08,1.79246875e-01
-6.13634375e-08,1.79507813e-01
-6.13234375e-08,1.79754688e-01
-6.12834375e-08,1.79670313e-01
-6.12434375e-08,1.79718750e-01
-6.12034375e-08,1.79685938e-01
-6.11634375e-08,1.79710938e-01
-6.11234375e-08,1.79692188e-01
-6.10834375e-08,1.79706250e-01
-6.10434375e-08,1.79695313e-01
-6.10034375e-08,1.79704688e-01
-6.09634375e-08,1.79696875e-01
-6.09234375e-08,1.79703125e-01
-6.08834375e-08,1.79698438e-01
-6.08434375e-08,1.79701562e-01
-6.08034375e-08,1.79700000e-01
-6.07634375e-08,1.79700000e-01
-6.07234375e-08,1.79700000e-01
-6.06834375e-08,1.79698438e-01
-6.06434375e-08,1.79701562e-01
-6.06034375e-08,1.79696875e-01
-6.05634375e-08,1.79703125e-01
-6.05234375e-08,1.79695313e-01
-6.04834375e-08,1.79706250e-01
-6.04434375e-08,1.79692188e-01
-6.04034375e-08,1.79709375e-01
-6.03634375e-08,1.79687500e-01
-6.03234375e-08,1.79718750e-01
-6.02834375e-08,1.79671875e-01
-6.02434375e-08,1.79753125e-01
-6.02034375e-08,1.79493750e-01
-6.01634375e-08,1.79243750e-01
-6.01234375e-08,1.79332812e-01
-6.00834375e-08,1.79276563e-01
-6.00434375e-08,1.79318750e-01
-6.00034375e-08,1.79284375e-01
-5.99634375e-08,1.79312500e-01
-5.99234375e-08,1.79287500e-01
-5.98834375e-08,1.79310938e-01
-5.98434375e-08,1.79290625e-01
-5.98034375e-08,1.79309375e-01
-5.97634375e-08,1.79290625e-01
-5.97234375e-08,1.79309375e-01
-5.96834375e-08,1.79292188e-01
-5.96434375e-08,1.79307812e-01
-5.96034375e-08,1.79292188e-01
-5.95634375e-08,1.79307812e-01
-5.95234375e-08,1.79290625e-01
-5.94834375e-08,1.79309375e-01
-5.94434375e-08,1.79290625e-01
-5.94034375e-08,1.79310938e-01
-5.93634375e-08,1.79287500e-01
-5.93234375e-08,1.79315625e-01
-5.92834375e-08,1.79279688e-01
-5.92434375e-08,1.79329688e-01
-5.92034375e-08,1.79245313e-01
-5.91634375e-08,1.79506250e-01
-5.91234375e-08,1.79756250e-01
-5.90834375e-08,1.79667188e-01
-5.90434375e-08,1.79725000e-01
-5.90034375e-08,1.79679688e-01
-5.89634375e-08,1.79718750e-01
-5.89234375e-08,1.79681250e-01
-5.88834375e-08,1.79720313e-01
-5.88434375e-08,1.79675000e-01
-5.88034375e-08,1.79732813e-01
-5.87634375e-08,1.79643750e-01
-5.87234375e-08,1.79909375e-01
-5.86834375e-08,1.80154687e-01
-5.86434375e-08,1.80068750e-01
-5.86034375e-08,1.80123438e-01
-5.85634375e-08,1.80079688e-01
-5.85234375e-08,1.80120313e-01
-5.84834375e-08,1.80076563e-01
-5.84434375e-08,1.80129687e-01
-5.84034375e-08,1.80046875e-01
-5.83634375e-08,1.80304688e-01
-5.83234375e-08,1.80559375e-01
-5.82834375e-08,1.80460938e-01
-5.82434375e-08,1.80532813e-01
-5.82034375e-08,1.80465625e-01
-5.81634375e-08,1.80542188e-01
-5.81234375e-08,1.80434375e-01
-5.80834375e-08,1.80718750e-01
-5.80434375e-08,1.80943750e-01
-5.80034375e-08,1.80881250e-01
-5.79634375e-08,1.80904687e-01
-5.79234375e-08,1.80907813e-01
-5.78834375e-08,1.80865625e-01
-5.78434375e-08,1.81087500e-01
-5.78034375e-08,1.81375000e-01
-5.77634375e-08,1.81246875e-01
-5.77234375e-08,1.81346875e-01
-5.76834375e-08,1.81253125e-01
-5.76434375e-08,1.81354688e-01
-5.76034375e-08,1.81221875e-01
-5.75634375e-08,1.81531250e-01
-5.75234375e-08,1.81729688e-01
-5.74834375e-08,1.81696875e-01
-5.74434375e-08,1.81690625e-01
-5.74034375e-08,1.81725000e-01
-5.73634375e-08,1.81648438e-01
-5.73234375e-08,1.81907813e-01
-5.72834375e-08,1.82153125e-01
-5.72434375e-08,1.82073438e-01
-5.72034375e-08,1.82114063e-01
-5.71634375e-08,1.82093750e-01
-5.71234375e-08,1.82098438e-01
-5.70834375e-08,1.82114063e-01
-5.70434375e-08,1.82059375e-01
-5.70034375e-08,1.82293750e-01
-5.69634375e-08,1.82567188e-01
-5.69234375e-08,1.82456250e-01
-5.68834375e-08,1.82532813e-01
-5.68434375e-08,1.82471875e-01
-5.68034375e-08,1.82525000e-01
-5.67634375e-08,1.82478125e-01
-5.67234375e-08,1.82520313e-01
-5.66834375e-08,1.82479688e-01
-5.66434375e-08,1.82518750e-01
-5.66034375e-08,1.82481250e-01
-5.65634375e-08,1.82518750e-01
-5.65234375e-08,1.82482813e-01
-5.64834375e-08,1.82517188e-01
-5.64434375e-08,1.82482813e-01
-5.64034375e-08,1.82517188e-01
-5.63634375e-08,1.82481250e-01
-5.63234375e-08,1.82518750e-01
-5.62834375e-08,1.82481250e-01
-5.62434375e-08,1.82518750e-01
-5.62034375e-08,1.82479688e-01
-5.61634375e-08,1.82521875e-01
-5.61234375e-08,1.82478125e-01
-5.60834375e-08,1.82523437e-01
-5.60434375e-08,1.82475000e-01
-5.60034375e-08,1.82528125e-01
-5.59634375e-08,1.82468750e-01
-5.59234375e-08,1.82537500e-01
-5.58834375e-08,1.82451562e-01
-5.58434375e-08,1.82573438e-01
-5.58034375e-08,1.82271875e-01
-5.57634375e-08,1.82067188e-01
-5.57234375e-08,1.82106250e-01
-5.56834375e-08,1.82106250e-01
-5.56434375e-08,1.82084375e-01
-5.56034375e-08,1.82123438e-01
-5.55634375e-08,1.82062500e-01
-5.55234375e-08,1.82164063e-01
-5.54834375e-08,1.81879687e-01
-5.54434375e-08,1.81662500e-01
-5.54034375e-08,1.81709375e-01
-5.53634375e-08,1.81706250e-01
-5.53234375e-08,1.81676562e-01
-5.52834375e-08,1.81753125e-01
-5.52434375e-08,1.81490625e-01
-5.52034375e-08,1.81251563e-01
-5.51634375e-08,1.81320312e-01
-5.51234375e-08,1.81296875e-01
-5.50834375e-08,1.81287500e-01
-5.50434375e-08,1.81342188e-01
-5.50034375e-08,1.81100000e-01
-5.49634375e-08,1.80840625e-01
-5.49234375e-08,1.80931250e-01
-5.48834375e-08,1.80884375e-01
-5.48434375e-08,1.80900000e-01
-5.48034375e-08,1.80928125e-01
-5.47634375e-08,1.80717188e-01
-5.47234375e-08,1.80421875e-01
-5.46834375e-08,1.80553125e-01
-5.46434375e-08,1.80456250e-01
-5.46034375e-08,1.80539063e-01
-5.45634375e-08,1.80460938e-01
-5.45234375e-08,1.80540625e-01
-5.44834375e-08,1.80453125e-01
-5.44434375e-08,1.80570312e-01
-5.44034375e-08,1.80278125e-01
-5.43634375e-08,1.80057812e-01
-5.43234375e-08,1.80118750e-01
-5.42834375e-08,1.80089063e-01
-5.42434375e-08,1.80106250e-01
-5.42034375e-08,1.80095312e-01
-5.41634375e-08,1.80103125e-01
-5.41234375e-08,1.80096875e-01
-5.40834375e-08,1.80103125e-01
-5.40434375e-08,1.80096875e-01
-5.40034375e-08,1.80103125e-01
-5.39634375e-08,1.80096875e-01
-5.39234375e-08,1.80104687e-01
-5.38834375e-08,1.80095312e-01
-5.38434375e-08,1.80106250e-01
-5.38034375e-08,1.80093750e-01
-5.37634375e-08,1.80109375e-01
-5.37234375e-08,1.80089063e-01
-5.36834375e-08,1.80114063e-01
-5.36434375e-08,1.80079688e-01
-5.36034375e-08,1.80129687e-01
-5.35634375e-08,1.80045312e-01
-5.35234375e-08,1.80307812e-01
-5.34834375e-08,1.80553125e-01
-5.34434375e-08,1.80471875e-01
-5.34034375e-08,1.80518750e-01
-5.33634375e-08,1.80487500e-01
-5.33234375e-08,1.80507813e-01
-5.32834375e-08,1.80495313e-01
-5.32434375e-08,1.80501563e-01
-5.32034375e-08,1.80503125e-01
-5.31634375e-08,1.80490625e-01
-5.31234375e-08,1.80518750e-01
-5.30834375e-08,1.80454688e-01
-5.30434375e-08,1.80698438e-01
-5.30034375e-08,1.80962500e-01
-5.29634375e-08,1.80860938e-01
-5.29234375e-08,1.80929688e-01
-5.28834375e-08,1.80876563e-01
-5.28434375e-08,1.80920313e-01
-5.28034375e-08,1.80881250e-01
-5.27634375e-08,1.80917188e-01
-5.27234375e-08,1.80884375e-01
-5.26834375e-08,1.80914063e-01
-5.26434375e-08,1.80887500e-01
-5.26034375e-08,1.80912500e-01
-5.25634375e-08,1.80887500e-01
-5.25234375e-08,1.80910938e-01
-5.24834375e-08,1.80889063e-01
-5.24434375e-08,1.80910938e-01
-5.24034375e-08,1.80890625e-01
-5.23634375e-08,1.80909375e-01
-5.23234375e-08,1.80890625e-01
-5.22834375e-08,1.80909375e-01
-5.22434375e-08,1.80892187e-01
-5.22034375e-08,1.80907813e-01
-5.21634375e-08,1.80892187e-01
-5.21234375e-08,1.80907813e-01
-5.20834375e-08,1.80893750e-01
-5.20434375e-08,1.80906250e-01
-5.20034375e-08,1.80893750e-01
-5.19634375e-08,1.80904687e-01
-5.19234375e-08,1.80896875e-01
-5.18834375e-08,1.80903125e-01
-5.18434375e-08,1.80900000e-01
-5.18034375e-08,1.80898438e-01
-5.17634375e-08,1.80906250e-01
-5.17234375e-08,1.80884375e-01
-5.16834375e-08,1.80940625e-01
-5.16434375e-08,1.80707813e-01
-5.16034375e-08,1.80429688e-01
-5.15634375e-08,1.80548438e-01
-5.15234375e-08,1.80459375e-01
-5.14834375e-08,1.80537500e-01
-5.14434375e-08,1.80462500e-01
-5.14034375e-08,1.80540625e-01
-5.13634375e-08,1.80450000e-01
-5.13234375e-08,1.80573438e-01
-5.12834375e-08,1.80273437e-01
-5.12434375e-08,1.80064063e-01
-5.12034375e-08,1.80112500e-01
-5.11634375e-08,1.80098438e-01
-5.11234375e-08,1.80096875e-01
-5.10834375e-08,1.80107813e-01
-5.10434375e-08,1.80087500e-01
-5.10034375e-08,1.80118750e-01
-5.09634375e-08,1.80070312e-01
-5.09234375e-08,1.80154687e-01
-5.08834375e-08,1.79892187e-01
-5.08434375e-08,1.79645313e-01
-5.08034375e-08,1.79729688e-01
-5.07634375e-08,1.79679688e-01
-5.07234375e-08,1.79715625e-01
-5.06834375e-08,1.79685938e-01
-5.06434375e-08,1.79712500e-01
-5.06034375e-08,1.79689062e-01
-5.05634375e-08,1.79710938e-01
-5.05234375e-08,1.79689062e-01
-5.04834375e-08,1.79712500e-01
-5.04434375e-08,1.79684375e-01
-5.04034375e-08,1.79718750e-01
-5.03634375e-08,1.79671875e-01
-5.03234375e-08,1.79753125e-01
-5.02834375e-08,1.79495313e-01
-5.02434375e-08,1.79242188e-01
-5.02034375e-08,1.79334375e-01
-5.01634375e-08,1.79275000e-01
-5.01234375e-08,1.79320312e-01
-5.00834375e-08,1.79281250e-01
-5.00434375e-08,1.79317188e-01
-5.00034375e-08,1.79284375e-01
-4.99634375e-08,1.79315625e-01
-4.99234375e-08,1.79284375e-01
-4.98834375e-08,1.79315625e-01
-4.98434375e-08,1.79282812e-01
-4.98034375e-08,1.79317188e-01
-4.97634375e-08,1.79281250e-01
-4.97234375e-08,1.79321875e-01
-4.96834375e-08,1.79273437e-01
-4.96434375e-08,1.79337500e-01
-4.96034375e-08,1.79239063e-01
-4.95634375e-08,1.79514063e-01
-4.95234375e-08,1.79748437e-01
-4.94834375e-08,1.79676562e-01
-4.94434375e-08,1.79714062e-01
-4.94034375e-08,1.79690625e-01
-4.93634375e-08,1.79706250e-01
-4.93234375e-08,1.79695313e-01
-4.92834375e-08,1.79703125e-01
-4.92434375e-08,1.79698438e-01
-4.92034375e-08,1.79700000e-01
-4.91634375e-08,1.79700000e-01
-4.91234375e-08,1.79698438e-01
-4.90834375e-08,1.79701562e-01
-4.90434375e-08,1.79696875e-01
-4.90034375e-08,1.79703125e-01
-4.89634375e-08,1.79695313e-01
-4.89234375e-08,1.79706250e-01
-4.88834375e-08,1.79693750e-01
-4.88434375e-08,1.79707813e-01
-4.88034375e-08,1.79689062e-01
-4.87634375e-08,1.79714062e-01
-4.87234375e-08,1.79681250e-01
-4.86834375e-08,1.79728125e-01
-4.86434375e-08,1.79646875e-01
-4.86034375e-08,1.79906250e-01
-4.85634375e-08,1.80154687e-01
-4.85234375e-08,1.80068750e-01
-4.84834375e-08,1.80121875e-01
-4.84434375e-08,1.80082812e-01
-4.84034375e-08,1.80114063e-01
-4.83634375e-08,1.80087500e-01
-4.83234375e-08,1.80110938e-01
-4.82834375e-08,1.80090625e-01
-4.82434375e-08,1.80109375e-01
-4.82034375e-08,1.80092188e-01
-4.81634375e-08,1.80107813e-01
-4.81234375e-08,1.80092188e-01
-4.80834375e-08,1.80107813e-01
-4.80434375e-08,1.80093750e-01
-4.80034375e-08,1.80106250e-01
-4.79634375e-08,1.80093750e-01
-4.79234375e-08,1.80106250e-01
-4.78834375e-08,1.80093750e-01
-4.78434375e-08,1.80106250e-01
-4.78034375e-08,1.80092188e-01
-4.77634375e-08,1.80107813e-01
-4.77234375e-08,1.80092188e-01
-4.76834375e-08,1.80107813e-01
-4.76434375e-08,1.80092188e-01
-4.76034375e-08,1.80109375e-01
-4.75634375e-08,1.80090625e-01
-4.75234375e-08,1.80110938e-01
-4.74834375e-08,1.80089063e-01
-4.74434375e-08,1.80112500e-01
-4.74034375e-08,1.80084375e-01
-4.73634375e-08,1.80118750e-01
-4.73234375e-08,1.80076563e-01
-4.72834375e-08,1.80134375e-01
-4.72434375e-08,1.80040625e-01
-4.72034375e-08,1.80312500e-01
-4.71634375e-08,1.80550000e-01
-4.71234375e-08,1.80475000e-01
-4.70834375e-08,1.80515625e-01
-4.70434375e-08,1.80490625e-01
-4.70034375e-08,1.80506250e-01
-4.69634375e-08,1.80498437e-01
-4.69234375e-08,1.80498437e-01
-4.68834375e-08,1.80504688e-01
-4.68434375e-08,1.80489063e-01
-4.68034375e-08,1.80521875e-01
-4.67634375e-08,1.80453125e-01
-4.67234375e-08,1.80700000e-01
-4.66834375e-08,1.80962500e-01
-4.66434375e-08,1.80862500e-01
-4.66034375e-08,1.80929688e-01
-4.65634375e-08,1.80876563e-01
-4.65234375e-08,1.80921875e-01
-4.64834375e-08,1.80881250e-01
-4.64434375e-08,1.80918750e-01
-4.64034375e-08,1.80881250e-01
-4.63634375e-08,1.80918750e-01
-4.63234375e-08,1.80881250e-01
-4.62834375e-08,1.80921875e-01
-4.62434375e-08,1.80875000e-01
-4.62034375e-08,1.80934375e-01
-4.61634375e-08,1.80842188e-01
-4.61234375e-08,1.81109375e-01
-4.60834375e-08,1.81354688e-01
-4.60434375e-08,1.81268750e-01
-4.60034375e-08,1.81325000e-01
-4.59634375e-08,1.81276563e-01
-4.59234375e-08,1.81325000e-01
-4.58834375e-08,1.81267188e-01
-4.58434375e-08,1.81356250e-01
-4.58034375e-08,1.81090625e-01
-4.57634375e-08,1.80845312e-01
-4.57234375e-08,1.80931250e-01
-4.56834375e-08,1.80878125e-01
-4.56434375e-08,1.80917188e-01
-4.56034375e-08,1.80884375e-01
-4.55634375e-08,1.80912500e-01
-4.55234375e-08,1.80887500e-01
-4.54834375e-08,1.80910938e-01
-4.54434375e-08,1.80889063e-01
-4.54034375e-08,1.80909375e-01
-4.53634375e-08,1.80890625e-01
-4.53234375e-08,1.80909375e-01
-4.52834375e-08,1.80890625e-01
-4.52434375e-08,1.80909375e-01
-4.52034375e-08,1.80890625e-01
-4.51634375e-08,1.80909375e-01
-4.51234375e-08,1.80892187e-01
-4.50834375e-08,1.80907813e-01
-4.50434375e-08,1.80892187e-01
-4.50034375e-08,1.80907813e-01
-4.49634375e-08,1.80890625e-01
-4.49234375e-08,1.80909375e-01
-4.48834375e-08,1.80890625e-01
-4.48434375e-08,1.80909375e-01
-4.48034375e-08,1.80890625e-01
-4.47634375e-08,1.80909375e-01
-4.47234375e-08,1.80890625e-01
-4.46834375e-08,1.80909375e-01
-4.46434375e-08,1.80890625e-01
-4.46034375e-08,1.80909375e-01
-4.45634375e-08,1.80889063e-01
-4.45234375e-08,1.80910938e-01
-4.44834375e-08,1.80889063e-01
-4.44434375e-08,1.80912500e-01
-4.44034375e-08,1.80887500e-01
-4.43634375e-08,1.80914063e-01
-4.43234375e-08,1.80885938e-01
-4.42834375e-08,1.80915625e-01
-4.42434375e-08,1.80881250e-01
-4.42034375e-08,1.80921875e-01
-4.41634375e-08,1.80873438e-01
-4.41234375e-08,1.80935938e-01
-4.40834375e-08,1.80839063e-01
-4.40434375e-08,1.81114063e-01
-4.40034375e-08,1.81348438e-01
-4.39634375e-08,1.81276563e-01
-4.39234375e-08,1.81314063e-01
-4.38834375e-08,1.81290625e-01
-4.38434375e-08,1.81306250e-01
-4.38034375e-08,1.81296875e-01
-4.37634375e-08,1.81301563e-01
-4.37234375e-08,1.81298438e-01
-4.36834375e-08,1.81300000e-01
-4.36434375e-08,1.81301563e-01
-4.36034375e-08,1.81298438e-01
-4.35634375e-08,1.81303125e-01
-4.35234375e-08,1.81296875e-01
-4.34834375e-08,1.81304688e-01
-4.34434375e-08,1.81295312e-01
-4.34034375e-08,1.81306250e-01
-4.33634375e-08,1.81293750e-01
-4.33234375e-08,1.81307812e-01
-4.32834375e-08,1.81290625e-01
-4.32434375e-08,1.81309375e-01
-4.32034375e-08,1.81287500e-01
-4.31634375e-08,1.81314063e-01
-4.31234375e-08,1.81282813e-01
-4.30834375e-08,1.81323438e-01
-4.30434375e-08,1.81267188e-01
-4.30034375e-08,1.81357812e-01
-4.29634375e-08,1.81089063e-01
-4.29234375e-08,1.80850000e-01
-4.28834375e-08,1.80926562e-01
-4.28434375e-08,1.80884375e-01
-4.28034375e-08,1.80909375e-01
-4.27634375e-08,1.80893750e-01
-4.27234375e-08,1.80903125e-01
-4.26834375e-08,1.80901563e-01
-4.26434375e-08,1.80895313e-01
-4.26034375e-08,1.80910938e-01
-4.25634375e-08,1.80879687e-01
-4.25234375e-08,1.80945313e-01
-4.24834375e-08,1.80701562e-01
-4.24434375e-08,1.80435938e-01
-4.24034375e-08,1.80540625e-01
-4.23634375e-08,1.80468750e-01
-4.23234375e-08,1.80526563e-01
-4.22834375e-08,1.80475000e-01
-4.22434375e-08,1.80525000e-01
-4.22034375e-08,1.80473438e-01
-4.21634375e-08,1.80529688e-01
-4.21234375e-08,1.80460938e-01
-4.20834375e-08,1.80562500e-01
-4.20434375e-08,1.80284375e-01
-4.20034375e-08,1.80051563e-01
-4.19634375e-08,1.80125000e-01
-4.19234375e-08,1.80084375e-01
-4.18834375e-08,1.80110938e-01
-4.18434375e-08,1.80092188e-01
-4.18034375e-08,1.80106250e-01
-4.17634375e-08,1.80095312e-01
-4.17234375e-08,1.80104687e-01
-4.16834375e-08,1.80095312e-01
-4.16434375e-08,1.80103125e-01
-4.16034375e-08,1.80096875e-01
-4.15634375e-08,1.80103125e-01
-4.15234375e-08,1.80096875e-01
-4.14834375e-08,1.80103125e-01
-4.14434375e-08,1.80098438e-01
-4.14034375e-08,1.80101563e-01
-4.13634375e-08,1.80098438e-01
-4.13234375e-08,1.80101563e-01
-4.12834375e-08,1.80098438e-01
-4.12434375e-08,1.80101563e-01
-4.12034375e-08,1.80098438e-01
-4.11634375e-08,1.80101563e-01
-4.11234375e-08,1.80098438e-01
-4.10834375e-08,1.80101563e-01
-4.10434375e-08,1.80098438e-01
-4.10034375e-08,1.80100000e-01
-4.09634375e-08,1.80100000e-01
-4.09234375e-08,1.80100000e-01
-4.08834375e-08,1.80100000e-01
-4.08434375e-08,1.80098438e-01
-4.08034375e-08,1.80103125e-01
-4.07634375e-08,1.80095312e-01
-4.07234375e-08,1.80106250e-01
-4.06834375e-08,1.80089063e-01
-4.06434375e-08,1.80120313e-01
-4.06034375e-08,1.80056250e-01
-4.05634375e-08,1.80296875e-01
-4.05234375e-08,1.80567188e-01
-4.04834375e-08,1.80456250e-01
-4.04434375e-08,1.80535938e-01
-4.04034375e-08,1.80465625e-01
-4.03634375e-08,1.80534375e-01
-4.03234375e-08,1.80462500e-01
-4.02834375e-08,1.80546875e-01
-4.02434375e-08,1.80429688e-01
-4.02034375e-08,1.80723438e-01
-4.01634375e-08,1.80939062e-01
-4.01234375e-08,1.80885938e-01
-4.00834375e-08,1.80904687e-01
-4.00434375e-08,1.80901563e-01
-4.00034375e-08,1.80893750e-01
-3.99634375e-08,1.80912500e-01
-3.99234375e-08,1.80881250e-01
-3.98834375e-08,1.80929688e-01
-3.98434375e-08,1.80845312e-01
-3.98034375e-08,1.81109375e-01
-3.97634375e-08,1.81353125e-01
-3.97234375e-08,1.81271875e-01
-3.96834375e-08,1.81318750e-01
-3.96434375e-08,1.81287500e-01
-3.96034375e-08,1.81309375e-01
-3.95634375e-08,1.81292188e-01
-3.95234375e-08,1.81304688e-01
-3.94834375e-08,1.81296875e-01
-3.94434375e-08,1.81301563e-01
-3.94034375e-08,1.81300000e-01
-3.93634375e-08,1.81298438e-01
-3.93234375e-08,1.81304688e-01
-3.92834375e-08,1.81293750e-01
-3.92434375e-08,1.81309375e-01
-3.92034375e-08,1.81284375e-01
-3.91634375e-08,1.81325000e-01
-3.91234375e-08,1.81250000e-01
-3.90834375e-08,1.81503125e-01
-3.90434375e-08,1.81757813e-01
-3.90034375e-08,1.81665625e-01
-3.89634375e-08,1.81725000e-01
-3.89234375e-08,1.81679688e-01
-3.88834375e-08,1.81717188e-01
-3.88434375e-08,1.81685938e-01
-3.88034375e-08,1.81712500e-01
-3.87634375e-08,1.81689062e-01
-3.87234375e-08,1.81710938e-01
-3.86834375e-08,1.81690625e-01
-3.86434375e-08,1.81709375e-01
-3.86034375e-08,1.81690625e-01
-3.85634375e-08,1.81709375e-01
-3.85234375e-08,1.81692188e-01
