trails/00d9de579c68e71117ffc152f8bf8771/aes_ch1_20250506170252711.csv

Model,MSO66B
Label,
Waveform Type,ANALOG
Horizontal Units,s
Sample Interval,4.00000000e-11
Record Length,10000
Zero Index,1599.08593750
Vertical Units,A
ANALOG_Thumbnail,
yOffset,1.84500000e-01
yPosition,8.40000000e-01

Labels,
TIME,CH1
-6.39634375e-08,1.87720313e-01
-6.39234375e-08,1.87682813e-01
-6.38834375e-08,1.87715625e-01
-6.38434375e-08,1.87685938e-01
-6.38034375e-08,1.87714063e-01
-6.37634375e-08,1.87685938e-01
-6.37234375e-08,1.87714063e-01
-6.36834375e-08,1.87684375e-01
-6.36434375e-08,1.87717187e-01
-6.36034375e-08,1.87681250e-01
-6.35634375e-08,1.87723438e-01
-6.35234375e-08,1.87667187e-01
-6.34834375e-08,1.87757813e-01
-6.34434375e-08,1.87489062e-01
-6.34034375e-08,1.87248438e-01
-6.33634375e-08,1.87328125e-01
-6.33234375e-08,1.87281250e-01
-6.32834375e-08,1.87314063e-01
-6.32434375e-08,1.87287500e-01
-6.32034375e-08,1.87310937e-01
-6.31634375e-08,1.87290625e-01
-6.31234375e-08,1.87307813e-01
-6.30834375e-08,1.87292188e-01
-6.30434375e-08,1.87307813e-01
-6.30034375e-08,1.87292188e-01
-6.29634375e-08,1.87307813e-01
-6.29234375e-08,1.87290625e-01
-6.28834375e-08,1.87309375e-01
-6.28434375e-08,1.87289063e-01
-6.28034375e-08,1.87314063e-01
-6.27634375e-08,1.87281250e-01
-6.27234375e-08,1.87328125e-01
-6.26834375e-08,1.87246875e-01
-6.26434375e-08,1.87504688e-01
-6.26034375e-08,1.87757813e-01
-6.25634375e-08,1.87665625e-01
-6.25234375e-08,1.87726562e-01
-6.24834375e-08,1.87678125e-01
-6.24434375e-08,1.87720313e-01
-6.24034375e-08,1.87679687e-01
-6.23634375e-08,1.87721875e-01
-6.23234375e-08,1.87675000e-01
-6.22834375e-08,1.87734375e-01
-6.22434375e-08,1.87642188e-01
-6.22034375e-08,1.87909375e-01
-6.21634375e-08,1.88154688e-01
-6.21234375e-08,1.88067188e-01
-6.20834375e-08,1.88125000e-01
-6.20434375e-08,1.88075000e-01
-6.20034375e-08,1.88131250e-01
-6.19634375e-08,1.88046875e-01
-6.19234375e-08,1.88303125e-01
-6.18834375e-08,1.88560937e-01
-6.18434375e-08,1.88459375e-01
-6.18034375e-08,1.88534375e-01
-6.17634375e-08,1.88464063e-01
-6.17234375e-08,1.88543750e-01
-6.16834375e-08,1.88432813e-01
-6.16434375e-08,1.88720313e-01
-6.16034375e-08,1.88940625e-01
-6.15634375e-08,1.88884375e-01
-6.15234375e-08,1.88901563e-01
-6.14834375e-08,1.88912500e-01
-6.14434375e-08,1.88860938e-01
-6.14034375e-08,1.89092188e-01
-6.13634375e-08,1.89370312e-01
-6.13234375e-08,1.89253125e-01
-6.12834375e-08,1.89340625e-01
-6.12434375e-08,1.89259375e-01
-6.12034375e-08,1.89345313e-01
-6.11634375e-08,1.89231250e-01
-6.11234375e-08,1.89520313e-01
-6.10834375e-08,1.89743750e-01
-6.10434375e-08,1.89678125e-01
-6.10034375e-08,1.89712500e-01
-6.09634375e-08,1.89690625e-01
-6.09234375e-08,1.89706250e-01
-6.08834375e-08,1.89695313e-01
-6.08434375e-08,1.89704687e-01
-6.08034375e-08,1.89696875e-01
-6.07634375e-08,1.89703125e-01
-6.07234375e-08,1.89696875e-01
-6.06834375e-08,1.89703125e-01
-6.06434375e-08,1.89696875e-01
-6.06034375e-08,1.89703125e-01
-6.05634375e-08,1.89696875e-01
-6.05234375e-08,1.89703125e-01
-6.04834375e-08,1.89696875e-01
-6.04434375e-08,1.89703125e-01
-6.04034375e-08,1.89695313e-01
-6.03634375e-08,1.89704687e-01
-6.03234375e-08,1.89695313e-01
-6.02834375e-08,1.89706250e-01
-6.02434375e-08,1.89693750e-01
-6.02034375e-08,1.89707813e-01
-6.01634375e-08,1.89690625e-01
-6.01234375e-08,1.89712500e-01
-6.00834375e-08,1.89684375e-01
-6.00434375e-08,1.89720313e-01
-6.00034375e-08,1.89670312e-01
-5.99634375e-08,1.89756250e-01
-5.99234375e-08,1.89490625e-01
-5.98834375e-08,1.89248438e-01
-5.98434375e-08,1.89326563e-01
-5.98034375e-08,1.89284375e-01
-5.97634375e-08,1.89307813e-01
-5.97234375e-08,1.89300000e-01
-5.96834375e-08,1.89289062e-01
-5.96434375e-08,1.89335937e-01
-5.96034375e-08,1.89110938e-01
-5.95634375e-08,1.88826563e-01
-5.95234375e-08,1.88950000e-01
-5.94834375e-08,1.88859375e-01
-5.94434375e-08,1.88937500e-01
-5.94034375e-08,1.88862500e-01
-5.93634375e-08,1.88940625e-01
-5.93234375e-08,1.88851563e-01
-5.92834375e-08,1.88971875e-01
-5.92434375e-08,1.88675000e-01
-5.92034375e-08,1.88462500e-01
-5.91634375e-08,1.88514062e-01
-5.91234375e-08,1.88495313e-01
-5.90834375e-08,1.88500000e-01
-5.90434375e-08,1.88503125e-01
-5.90034375e-08,1.88495313e-01
-5.89634375e-08,1.88507813e-01
-5.89234375e-08,1.88490625e-01
-5.88834375e-08,1.88512500e-01
-5.88434375e-08,1.88484375e-01
-5.88034375e-08,1.88520313e-01
-5.87634375e-08,1.88470313e-01
-5.87234375e-08,1.88554688e-01
-5.86834375e-08,1.88292188e-01
-5.86434375e-08,1.88045313e-01
-5.86034375e-08,1.88129688e-01
-5.85634375e-08,1.88079688e-01
-5.85234375e-08,1.88115625e-01
-5.84834375e-08,1.88085937e-01
-5.84434375e-08,1.88112500e-01
-5.84034375e-08,1.88089063e-01
-5.83634375e-08,1.88110938e-01
-5.83234375e-08,1.88089063e-01
-5.82834375e-08,1.88112500e-01
-5.82434375e-08,1.88087500e-01
-5.82034375e-08,1.88115625e-01
-5.81634375e-08,1.88079688e-01
-5.81234375e-08,1.88129688e-01
-5.80834375e-08,1.88045313e-01
-5.80434375e-08,1.88306250e-01
-5.80034375e-08,1.88556250e-01
-5.79634375e-08,1.88467188e-01
-5.79234375e-08,1.88523438e-01
-5.78834375e-08,1.88481250e-01
-5.78434375e-08,1.88515625e-01
-5.78034375e-08,1.88485938e-01
-5.77634375e-08,1.88512500e-01
-5.77234375e-08,1.88489062e-01
-5.76834375e-08,1.88510938e-01
-5.76434375e-08,1.88489062e-01
-5.76034375e-08,1.88509375e-01
-5.75634375e-08,1.88490625e-01
-5.75234375e-08,1.88509375e-01
-5.74834375e-08,1.88490625e-01
-5.74434375e-08,1.88509375e-01
-5.74034375e-08,1.88490625e-01
-5.73634375e-08,1.88509375e-01
-5.73234375e-08,1.88490625e-01
-5.72834375e-08,1.88509375e-01
-5.72434375e-08,1.88490625e-01
-5.72034375e-08,1.88509375e-01
-5.71634375e-08,1.88490625e-01
-5.71234375e-08,1.88509375e-01
-5.70834375e-08,1.88489062e-01
-5.70434375e-08,1.88510938e-01
-5.70034375e-08,1.88489062e-01
-5.69634375e-08,1.88510938e-01
-5.69234375e-08,1.88487500e-01
-5.68834375e-08,1.88512500e-01
-5.68434375e-08,1.88487500e-01
-5.68034375e-08,1.88514062e-01
-5.67634375e-08,1.88484375e-01
-5.67234375e-08,1.88515625e-01
-5.66834375e-08,1.88482813e-01
-5.66434375e-08,1.88520313e-01
-5.66034375e-08,1.88476562e-01
-5.65634375e-08,1.88528125e-01
-5.65234375e-08,1.88460938e-01
-5.64834375e-08,1.88564063e-01
-5.64434375e-08,1.88282813e-01
-5.64034375e-08,1.88054688e-01
-5.63634375e-08,1.88120312e-01
-5.63234375e-08,1.88089063e-01
-5.62834375e-08,1.88106250e-01
-5.62434375e-08,1.88096875e-01
-5.62034375e-08,1.88100000e-01
-5.61634375e-08,1.88101563e-01
-5.61234375e-08,1.88096875e-01
-5.60834375e-08,1.88106250e-01
-5.60434375e-08,1.88092188e-01
-5.60034375e-08,1.88109375e-01
-5.59634375e-08,1.88089063e-01
-5.59234375e-08,1.88112500e-01
-5.58834375e-08,1.88084375e-01
-5.58434375e-08,1.88120312e-01
-5.58034375e-08,1.88075000e-01
-5.57634375e-08,1.88135938e-01
-5.57234375e-08,1.88037500e-01
-5.56834375e-08,1.88317188e-01
-5.56434375e-08,1.88543750e-01
-5.56034375e-08,1.88481250e-01
-5.55634375e-08,1.88504688e-01
-5.55234375e-08,1.88504688e-01
-5.54834375e-08,1.88482813e-01
-5.54434375e-08,1.88543750e-01
-5.54034375e-08,1.88301563e-01
-5.53634375e-08,1.88037500e-01
-5.53234375e-08,1.88137500e-01
-5.52834375e-08,1.88073437e-01
-5.52434375e-08,1.88121875e-01
-5.52034375e-08,1.88081250e-01
-5.51634375e-08,1.88115625e-01
-5.51234375e-08,1.88085937e-01
-5.50834375e-08,1.88114063e-01
-5.50434375e-08,1.88087500e-01
-5.50034375e-08,1.88112500e-01
-5.49634375e-08,1.88087500e-01
-5.49234375e-08,1.88114063e-01
-5.48834375e-08,1.88084375e-01
-5.48434375e-08,1.88120312e-01
-5.48034375e-08,1.88071875e-01
-5.47634375e-08,1.88153125e-01
-5.47234375e-08,1.87895312e-01
-5.46834375e-08,1.87640625e-01
-5.46434375e-08,1.87737500e-01
-5.46034375e-08,1.87670313e-01
-5.45634375e-08,1.87728125e-01
-5.45234375e-08,1.87671875e-01
-5.44834375e-08,1.87731250e-01
-5.44434375e-08,1.87659375e-01
-5.44034375e-08,1.87765625e-01
-5.43634375e-08,1.87481250e-01
-5.43234375e-08,1.87256250e-01
-5.42834375e-08,1.87320313e-01
-5.42434375e-08,1.87290625e-01
-5.42034375e-08,1.87303125e-01
-5.41634375e-08,1.87301563e-01
-5.41234375e-08,1.87293750e-01
-5.40834375e-08,1.87312500e-01
-5.40434375e-08,1.87276563e-01
-5.40034375e-08,1.87350000e-01
-5.39634375e-08,1.87096875e-01
-5.39234375e-08,1.86842188e-01
-5.38834375e-08,1.86934375e-01
-5.38434375e-08,1.86875000e-01
-5.38034375e-08,1.86918750e-01
-5.37634375e-08,1.86884375e-01
-5.37234375e-08,1.86914063e-01
-5.36834375e-08,1.86887500e-01
-5.36434375e-08,1.86910938e-01
-5.36034375e-08,1.86890625e-01
-5.35634375e-08,1.86909375e-01
-5.35234375e-08,1.86892188e-01
-5.34834375e-08,1.86907812e-01
-5.34434375e-08,1.86893750e-01
-5.34034375e-08,1.86906250e-01
-5.33634375e-08,1.86893750e-01
-5.33234375e-08,1.86904687e-01
-5.32834375e-08,1.86895313e-01
-5.32434375e-08,1.86904687e-01
-5.32034375e-08,1.86895313e-01
-5.31634375e-08,1.86904687e-01
-5.31234375e-08,1.86896875e-01
-5.30834375e-08,1.86903125e-01
-5.30434375e-08,1.86896875e-01
-5.30034375e-08,1.86903125e-01
-5.29634375e-08,1.86896875e-01
-5.29234375e-08,1.86903125e-01
-5.28834375e-08,1.86896875e-01
-5.28434375e-08,1.86901563e-01
-5.28034375e-08,1.86898438e-01
-5.27634375e-08,1.86901563e-01
-5.27234375e-08,1.86898438e-01
-5.26834375e-08,1.86901563e-01
-5.26434375e-08,1.86898438e-01
-5.26034375e-08,1.86901563e-01
-5.25634375e-08,1.86898438e-01
-5.25234375e-08,1.86900000e-01
-5.24834375e-08,1.86900000e-01
-5.24434375e-08,1.86900000e-01
-5.24034375e-08,1.86900000e-01
-5.23634375e-08,1.86900000e-01
-5.23234375e-08,1.86900000e-01
-5.22834375e-08,1.86898438e-01
-5.22434375e-08,1.86901563e-01
-5.22034375e-08,1.86898438e-01
-5.21634375e-08,1.86901563e-01
-5.21234375e-08,1.86898438e-01
-5.20834375e-08,1.86903125e-01
-5.20434375e-08,1.86896875e-01
-5.20034375e-08,1.86903125e-01
-5.19634375e-08,1.86895313e-01
-5.19234375e-08,1.86904687e-01
-5.18834375e-08,1.86893750e-01
-5.18434375e-08,1.86906250e-01
-5.18034375e-08,1.86892188e-01
-5.17634375e-08,1.86909375e-01
-5.17234375e-08,1.86887500e-01
-5.16834375e-08,1.86915625e-01
-5.16434375e-08,1.86879688e-01
-5.16034375e-08,1.86931250e-01
-5.15634375e-08,1.86843750e-01
-5.15234375e-08,1.87109375e-01
-5.14834375e-08,1.87351563e-01
-5.14434375e-08,1.87271875e-01
-5.14034375e-08,1.87317188e-01
-5.13634375e-08,1.87289063e-01
-5.13234375e-08,1.87306250e-01
-5.12834375e-08,1.87298437e-01
-5.12434375e-08,1.87295313e-01
-5.12034375e-08,1.87315625e-01
-5.11634375e-08,1.87259375e-01
-5.11234375e-08,1.87493750e-01
-5.10834375e-08,1.87767188e-01
-5.10434375e-08,1.87656250e-01
-5.10034375e-08,1.87735938e-01
-5.09634375e-08,1.87668750e-01
-5.09234375e-08,1.87729688e-01
-5.08834375e-08,1.87670313e-01
-5.08434375e-08,1.87731250e-01
-5.08034375e-08,1.87665625e-01
-5.07634375e-08,1.87742188e-01
-5.07234375e-08,1.87632812e-01
-5.06834375e-08,1.87918750e-01
-5.06434375e-08,1.88143750e-01
-5.06034375e-08,1.88079688e-01
-5.05634375e-08,1.88110938e-01
-5.05234375e-08,1.88093750e-01
-5.04834375e-08,1.88104688e-01
-5.04434375e-08,1.88098437e-01
-5.04034375e-08,1.88101563e-01
-5.03634375e-08,1.88100000e-01
-5.03234375e-08,1.88100000e-01
-5.02834375e-08,1.88101563e-01
-5.02434375e-08,1.88098437e-01
-5.02034375e-08,1.88101563e-01
-5.01634375e-08,1.88096875e-01
-5.01234375e-08,1.88103125e-01
-5.00834375e-08,1.88096875e-01
-5.00434375e-08,1.88103125e-01
-5.00034375e-08,1.88096875e-01
-4.99634375e-08,1.88104688e-01
-4.99234375e-08,1.88095313e-01
-4.98834375e-08,1.88104688e-01
-4.98434375e-08,1.88095313e-01
-4.98034375e-08,1.88106250e-01
-4.97634375e-08,1.88093750e-01
-4.97234375e-08,1.88107812e-01
-4.96834375e-08,1.88090625e-01
-4.96434375e-08,1.88110938e-01
-4.96034375e-08,1.88085937e-01
-4.95634375e-08,1.88118750e-01
-4.95234375e-08,1.88071875e-01
-4.94834375e-08,1.88153125e-01
-4.94434375e-08,1.87893750e-01
-4.94034375e-08,1.87643750e-01
-4.93634375e-08,1.87732813e-01
-4.93234375e-08,1.87676563e-01
-4.92834375e-08,1.87718750e-01
-4.92434375e-08,1.87684375e-01
-4.92034375e-08,1.87714063e-01
-4.91634375e-08,1.87685938e-01
-4.91234375e-08,1.87712500e-01
-4.90834375e-08,1.87687500e-01
-4.90434375e-08,1.87714063e-01
-4.90034375e-08,1.87685938e-01
-4.89634375e-08,1.87715625e-01
-4.89234375e-08,1.87681250e-01
-4.88834375e-08,1.87723438e-01
-4.88434375e-08,1.87667187e-01
-4.88034375e-08,1.87757813e-01
-4.87634375e-08,1.87490625e-01
-4.87234375e-08,1.87246875e-01
-4.86834375e-08,1.87329688e-01
-4.86434375e-08,1.87279688e-01
-4.86034375e-08,1.87315625e-01
-4.85634375e-08,1.87287500e-01
-4.85234375e-08,1.87310937e-01
-4.84834375e-08,1.87290625e-01
-4.84434375e-08,1.87309375e-01
-4.84034375e-08,1.87290625e-01
-4.83634375e-08,1.87309375e-01
-4.83234375e-08,1.87290625e-01
-4.82834375e-08,1.87309375e-01
-4.82434375e-08,1.87289063e-01
-4.82034375e-08,1.87312500e-01
-4.81634375e-08,1.87284375e-01
-4.81234375e-08,1.87320313e-01
-4.80834375e-08,1.87270313e-01
-4.80434375e-08,1.87354688e-01
-4.80034375e-08,1.87093750e-01
-4.79634375e-08,1.86843750e-01
-4.79234375e-08,1.86932813e-01
-4.78834375e-08,1.86876563e-01
-4.78434375e-08,1.86918750e-01
-4.78034375e-08,1.86884375e-01
-4.77634375e-08,1.86914063e-01
-4.77234375e-08,1.86887500e-01
-4.76834375e-08,1.86912500e-01
-4.76434375e-08,1.86887500e-01
-4.76034375e-08,1.86912500e-01
-4.75634375e-08,1.86887500e-01
-4.75234375e-08,1.86912500e-01
-4.74834375e-08,1.86887500e-01
-4.74434375e-08,1.86914063e-01
-4.74034375e-08,1.86884375e-01
-4.73634375e-08,1.86917187e-01
-4.73234375e-08,1.86879688e-01
-4.72834375e-08,1.86925000e-01
-4.72434375e-08,1.86865625e-01
-4.72034375e-08,1.86959375e-01
-4.71634375e-08,1.86687500e-01
-4.71234375e-08,1.86450000e-01
-4.70834375e-08,1.86526562e-01
-4.70434375e-08,1.86482813e-01
-4.70034375e-08,1.86512500e-01
-4.69634375e-08,1.86490625e-01
-4.69234375e-08,1.86506250e-01
-4.68834375e-08,1.86495313e-01
-4.68434375e-08,1.86504688e-01
-4.68034375e-08,1.86496875e-01
-4.67634375e-08,1.86501562e-01
-4.67234375e-08,1.86498438e-01
-4.66834375e-08,1.86501562e-01
-4.66434375e-08,1.86500000e-01
-4.66034375e-08,1.86500000e-01
-4.65634375e-08,1.86500000e-01
-4.65234375e-08,1.86500000e-01
-4.64834375e-08,1.86501562e-01
-4.64434375e-08,1.86498438e-01
-4.64034375e-08,1.86501562e-01
-4.63634375e-08,1.86498438e-01
-4.63234375e-08,1.86503125e-01
-4.62834375e-08,1.86496875e-01
-4.62434375e-08,1.86503125e-01
-4.62034375e-08,1.86496875e-01
-4.61634375e-08,1.86504688e-01
-4.61234375e-08,1.86495313e-01
-4.60834375e-08,1.86504688e-01
-4.60434375e-08,1.86493750e-01
-4.60034375e-08,1.86506250e-01
-4.59634375e-08,1.86492188e-01
-4.59234375e-08,1.86507813e-01
-4.58834375e-08,1.86490625e-01
-4.58434375e-08,1.86510938e-01
-4.58034375e-08,1.86485938e-01
-4.57634375e-08,1.86517188e-01
-4.57234375e-08,1.86478125e-01
-4.56834375e-08,1.86532813e-01
-4.56434375e-08,1.86442187e-01
-4.56034375e-08,1.86710938e-01
-4.55634375e-08,1.86951563e-01
-4.55234375e-08,1.86873438e-01
-4.54834375e-08,1.86917187e-01
-4.54434375e-08,1.86887500e-01
-4.54034375e-08,1.86909375e-01
-4.53634375e-08,1.86893750e-01
-4.53234375e-08,1.86904687e-01
-4.52834375e-08,1.86898438e-01
-4.52434375e-08,1.86900000e-01
-4.52034375e-08,1.86901563e-01
-4.51634375e-08,1.86896875e-01
-4.51234375e-08,1.86906250e-01
-4.50834375e-08,1.86890625e-01
-4.50434375e-08,1.86915625e-01
-4.50034375e-08,1.86875000e-01
-4.49634375e-08,1.86950000e-01
-4.49234375e-08,1.86696875e-01
-4.48834375e-08,1.86442187e-01
-4.48434375e-08,1.86534375e-01
-4.48034375e-08,1.86475000e-01
-4.47634375e-08,1.86520313e-01
-4.47234375e-08,1.86482813e-01
-4.46834375e-08,1.86514062e-01
-4.46434375e-08,1.86487500e-01
-4.46034375e-08,1.86510938e-01
-4.45634375e-08,1.86489062e-01
-4.45234375e-08,1.86509375e-01
-4.44834375e-08,1.86490625e-01
-4.44434375e-08,1.86509375e-01
-4.44034375e-08,1.86492188e-01
-4.43634375e-08,1.86507813e-01
-4.43234375e-08,1.86492188e-01
-4.42834375e-08,1.86507813e-01
-4.42434375e-08,1.86493750e-01
-4.42034375e-08,1.86506250e-01
-4.41634375e-08,1.86493750e-01
-4.41234375e-08,1.86506250e-01
-4.40834375e-08,1.86493750e-01
-4.40434375e-08,1.86506250e-01
-4.40034375e-08,1.86493750e-01
-4.39634375e-08,1.86506250e-01
-4.39234375e-08,1.86493750e-01
-4.38834375e-08,1.86506250e-01
-4.38434375e-08,1.86493750e-01
-4.38034375e-08,1.86506250e-01
-4.37634375e-08,1.86493750e-01
-4.37234375e-08,1.86506250e-01
-4.36834375e-08,1.86493750e-01
-4.36434375e-08,1.86506250e-01
-4.36034375e-08,1.86493750e-01
-4.35634375e-08,1.86507813e-01
-4.35234375e-08,1.86492188e-01
-4.34834375e-08,1.86509375e-01
-4.34434375e-08,1.86489062e-01
-4.34034375e-08,1.86514062e-01
-4.33634375e-08,1.86481250e-01
-4.33234375e-08,1.86526562e-01
-4.32834375e-08,1.86448438e-01
-4.32434375e-08,1.86703125e-01
-4.32034375e-08,1.86959375e-01
-4.31634375e-08,1.86862500e-01
-4.31234375e-08,1.86928125e-01
-4.30834375e-08,1.86873438e-01
-4.30434375e-08,1.86926563e-01
-4.30034375e-08,1.86871875e-01
-4.29634375e-08,1.86935938e-01
-4.29234375e-08,1.86840625e-01
-4.28834375e-08,1.87112500e-01
-4.28434375e-08,1.87351563e-01
-4.28034375e-08,1.87270313e-01
-4.27634375e-08,1.87323437e-01
-4.27234375e-08,1.87276563e-01
-4.26834375e-08,1.87328125e-01
-4.26434375e-08,1.87250000e-01
-4.26034375e-08,1.87500000e-01
-4.25634375e-08,1.87764062e-01
-4.25234375e-08,1.87656250e-01
-4.24834375e-08,1.87739062e-01
-4.24434375e-08,1.87659375e-01
-4.24034375e-08,1.87748438e-01
-4.23634375e-08,1.87626563e-01
-4.23234375e-08,1.87928125e-01
-4.22834375e-08,1.88132812e-01
-4.22434375e-08,1.88093750e-01
-4.22034375e-08,1.88092188e-01
-4.21634375e-08,1.88123438e-01
-4.21234375e-08,1.88046875e-01
-4.20834375e-08,1.88309375e-01
-4.20434375e-08,1.88550000e-01
-4.20034375e-08,1.88478125e-01
-4.19634375e-08,1.88506250e-01
-4.19234375e-08,1.88509375e-01
-4.18834375e-08,1.88462500e-01
-4.18434375e-08,1.88693750e-01
-4.18034375e-08,1.88967187e-01
-4.17634375e-08,1.88859375e-01
-4.17234375e-08,1.88929687e-01
-4.16834375e-08,1.88878125e-01
-4.16434375e-08,1.88917188e-01
-4.16034375e-08,1.88889063e-01
-4.15634375e-08,1.88904688e-01
-4.15234375e-08,1.88906250e-01
-4.14834375e-08,1.88867188e-01
-4.14434375e-08,1.89085937e-01
-4.14034375e-08,1.89375000e-01
-4.13634375e-08,1.89248438e-01
-4.13234375e-08,1.89342188e-01
-4.12834375e-08,1.89262500e-01
-4.12434375e-08,1.89335937e-01
-4.12034375e-08,1.89265625e-01
-4.11634375e-08,1.89334375e-01
-4.11234375e-08,1.89264062e-01
-4.10834375e-08,1.89340625e-01
-4.10434375e-08,1.89251562e-01
-4.10034375e-08,1.89371875e-01
-4.09634375e-08,1.89075000e-01
-4.09234375e-08,1.88860938e-01
-4.08834375e-08,1.88915625e-01
-4.08434375e-08,1.88892188e-01
-4.08034375e-08,1.88904688e-01
-4.07634375e-08,1.88895312e-01
-4.07234375e-08,1.88906250e-01
-4.06834375e-08,1.88885938e-01
-4.06434375e-08,1.88937500e-01
-4.06034375e-08,1.88712500e-01
-4.05634375e-08,1.88423438e-01
-4.05234375e-08,1.88556250e-01
-4.04834375e-08,1.88448438e-01
-4.04434375e-08,1.88553125e-01
-4.04034375e-08,1.88439063e-01
-4.03634375e-08,1.88585937e-01
-4.03234375e-08,1.88260938e-01
-4.02834375e-08,1.88078125e-01
-4.02434375e-08,1.88095313e-01
-4.02034375e-08,1.88120312e-01
-4.01634375e-08,1.88065625e-01
-4.01234375e-08,1.88164063e-01
-4.00834375e-08,1.87879688e-01
-4.00434375e-08,1.87660938e-01
-4.00034375e-08,1.87710938e-01
-3.99634375e-08,1.87704687e-01
-3.99234375e-08,1.87679687e-01
-3.98834375e-08,1.87750000e-01
-3.98434375e-08,1.87495313e-01
-3.98034375e-08,1.87245313e-01
-3.97634375e-08,1.87328125e-01
-3.97234375e-08,1.87282813e-01
-3.96834375e-08,1.87309375e-01
-3.96434375e-08,1.87295313e-01
-3.96034375e-08,1.87298437e-01
-3.95634375e-08,1.87309375e-01
-3.95234375e-08,1.87279688e-01
-3.94834375e-08,1.87345312e-01
-3.94434375e-08,1.87100000e-01
-3.94034375e-08,1.86839063e-01
-3.93634375e-08,1.86937500e-01
-3.93234375e-08,1.86873438e-01
-3.92834375e-08,1.86921875e-01
-3.92434375e-08,1.86882812e-01
-3.92034375e-08,1.86915625e-01
-3.91634375e-08,1.86885938e-01
-3.91234375e-08,1.86912500e-01
-3.90834375e-08,1.86889063e-01
-3.90434375e-08,1.86909375e-01
-3.90034375e-08,1.86890625e-01
-3.89634375e-08,1.86907812e-01
-3.89234375e-08,1.86892188e-01
-3.88834375e-08,1.86907812e-01
-3.88434375e-08,1.86893750e-01
-3.88034375e-08,1.86906250e-01
-3.87634375e-08,1.86893750e-01
-3.87234375e-08,1.86906250e-01
-3.86834375e-08,1.86893750e-01
-3.86434375e-08,1.86904687e-01
-3.86034375e-08,1.86895313e-01
-3.85634375e-08,1.86904687e-01
-3.85234375e-08,1.86895313e-01
