trails/00d9de579c68e71117ffc152f8bf8771/aes_ch1_20250506170447044.csv

Model,MSO66B
Label,
Waveform Type,ANALOG
Horizontal Units,s
Sample Interval,4.00000000e-11
Record Length,10000
Zero Index,1599.06250000
Vertical Units,A
ANALOG_Thumbnail,
yOffset,1.84500000e-01
yPosition,8.40000000e-01

Labels,
TIME,CH1
-6.39625000e-08,1.77292188e-01
-6.39225000e-08,1.77307812e-01
-6.38825000e-08,1.77293750e-01
-6.38425000e-08,1.77306250e-01
-6.38025000e-08,1.77293750e-01
-6.37625000e-08,1.77306250e-01
-6.37225000e-08,1.77295312e-01
-6.36825000e-08,1.77304688e-01
-6.36425000e-08,1.77295312e-01
-6.36025000e-08,1.77304688e-01
-6.35625000e-08,1.77295312e-01
-6.35225000e-08,1.77304688e-01
-6.34825000e-08,1.77295312e-01
-6.34425000e-08,1.77303125e-01
-6.34025000e-08,1.77296875e-01
-6.33625000e-08,1.77303125e-01
-6.33225000e-08,1.77296875e-01
-6.32825000e-08,1.77303125e-01
-6.32425000e-08,1.77296875e-01
-6.32025000e-08,1.77303125e-01
-6.31625000e-08,1.77296875e-01
-6.31225000e-08,1.77303125e-01
-6.30825000e-08,1.77298438e-01
-6.30425000e-08,1.77301563e-01
-6.30025000e-08,1.77298438e-01
-6.29625000e-08,1.77301563e-01
-6.29225000e-08,1.77298438e-01
-6.28825000e-08,1.77301563e-01
-6.28425000e-08,1.77298438e-01
-6.28025000e-08,1.77300000e-01
-6.27625000e-08,1.77300000e-01
-6.27225000e-08,1.77300000e-01
-6.26825000e-08,1.77301563e-01
-6.26425000e-08,1.77298438e-01
-6.26025000e-08,1.77303125e-01
-6.25625000e-08,1.77295312e-01
-6.25225000e-08,1.77306250e-01
-6.24825000e-08,1.77290625e-01
-6.24425000e-08,1.77314063e-01
-6.24025000e-08,1.77276563e-01
-6.23625000e-08,1.77348438e-01
-6.23225000e-08,1.77100000e-01
-6.22825000e-08,1.76837500e-01
-6.22425000e-08,1.76939062e-01
-6.22025000e-08,1.76870313e-01
-6.21625000e-08,1.76925000e-01
-6.21225000e-08,1.76878125e-01
-6.20825000e-08,1.76921875e-01
-6.20425000e-08,1.76879687e-01
-6.20025000e-08,1.76920313e-01
-6.19625000e-08,1.76878125e-01
-6.19225000e-08,1.76923438e-01
-6.18825000e-08,1.76875000e-01
-6.18425000e-08,1.76929688e-01
-6.18025000e-08,1.76860938e-01
-6.17625000e-08,1.76964063e-01
-6.17225000e-08,1.76682813e-01
-6.16825000e-08,1.76454688e-01
-6.16425000e-08,1.76521875e-01
-6.16025000e-08,1.76487500e-01
-6.15625000e-08,1.76507812e-01
-6.15225000e-08,1.76495313e-01
-6.14825000e-08,1.76503125e-01
-6.14425000e-08,1.76498437e-01
-6.14025000e-08,1.76500000e-01
-6.13625000e-08,1.76500000e-01
-6.13225000e-08,1.76498437e-01
-6.12825000e-08,1.76501563e-01
-6.12425000e-08,1.76498437e-01
-6.12025000e-08,1.76503125e-01
-6.11625000e-08,1.76496875e-01
-6.11225000e-08,1.76503125e-01
-6.10825000e-08,1.76496875e-01
-6.10425000e-08,1.76503125e-01
-6.10025000e-08,1.76495313e-01
-6.09625000e-08,1.76504688e-01
-6.09225000e-08,1.76495313e-01
-6.08825000e-08,1.76504688e-01
-6.08425000e-08,1.76493750e-01
-6.08025000e-08,1.76506250e-01
-6.07625000e-08,1.76493750e-01
-6.07225000e-08,1.76507812e-01
-6.06825000e-08,1.76492188e-01
-6.06425000e-08,1.76509375e-01
-6.06025000e-08,1.76490625e-01
-6.05625000e-08,1.76510938e-01
-6.05225000e-08,1.76487500e-01
-6.04825000e-08,1.76514063e-01
-6.04425000e-08,1.76482813e-01
-6.04025000e-08,1.76523438e-01
-6.03625000e-08,1.76467188e-01
-6.03225000e-08,1.76557812e-01
-6.02825000e-08,1.76289063e-01
-6.02425000e-08,1.76048438e-01
-6.02025000e-08,1.76128125e-01
-6.01625000e-08,1.76081250e-01
-6.01225000e-08,1.76112500e-01
-6.00825000e-08,1.76090625e-01
-6.00425000e-08,1.76107813e-01
-6.00025000e-08,1.76093750e-01
-5.99625000e-08,1.76104687e-01
-5.99225000e-08,1.76095313e-01
-5.98825000e-08,1.76103125e-01
-5.98425000e-08,1.76096875e-01
-5.98025000e-08,1.76101563e-01
-5.97625000e-08,1.76098438e-01
-5.97225000e-08,1.76101563e-01
-5.96825000e-08,1.76098438e-01
-5.96425000e-08,1.76100000e-01
-5.96025000e-08,1.76100000e-01
-5.95625000e-08,1.76100000e-01
-5.95225000e-08,1.76100000e-01
-5.94825000e-08,1.76100000e-01
-5.94425000e-08,1.76101563e-01
-5.94025000e-08,1.76098438e-01
-5.93625000e-08,1.76101563e-01
-5.93225000e-08,1.76098438e-01
-5.92825000e-08,1.76101563e-01
-5.92425000e-08,1.76098438e-01
-5.92025000e-08,1.76103125e-01
-5.91625000e-08,1.76096875e-01
-5.91225000e-08,1.76103125e-01
-5.90825000e-08,1.76096875e-01
-5.90425000e-08,1.76104687e-01
-5.90025000e-08,1.76095313e-01
-5.89625000e-08,1.76104687e-01
-5.89225000e-08,1.76093750e-01
-5.88825000e-08,1.76107813e-01
-5.88425000e-08,1.76092187e-01
-5.88025000e-08,1.76110938e-01
-5.87625000e-08,1.76085938e-01
-5.87225000e-08,1.76118750e-01
-5.86825000e-08,1.76071875e-01
-5.86425000e-08,1.76153125e-01
-5.86025000e-08,1.75895313e-01
-5.85625000e-08,1.75642188e-01
-5.85225000e-08,1.75734375e-01
-5.84825000e-08,1.75675000e-01
-5.84425000e-08,1.75720313e-01
-5.84025000e-08,1.75681250e-01
-5.83625000e-08,1.75718750e-01
-5.83225000e-08,1.75681250e-01
-5.82825000e-08,1.75720313e-01
-5.82425000e-08,1.75675000e-01
-5.82025000e-08,1.75734375e-01
-5.81625000e-08,1.75642188e-01
-5.81225000e-08,1.75910938e-01
-5.80825000e-08,1.76153125e-01
-5.80425000e-08,1.76070313e-01
-5.80025000e-08,1.76120313e-01
-5.79625000e-08,1.76084375e-01
-5.79225000e-08,1.76112500e-01
-5.78825000e-08,1.76089063e-01
-5.78425000e-08,1.76109375e-01
-5.78025000e-08,1.76090625e-01
-5.77625000e-08,1.76109375e-01
-5.77225000e-08,1.76092187e-01
-5.76825000e-08,1.76107813e-01
-5.76425000e-08,1.76092187e-01
-5.76025000e-08,1.76107813e-01
-5.75625000e-08,1.76092187e-01
-5.75225000e-08,1.76107813e-01
-5.74825000e-08,1.76092187e-01
-5.74425000e-08,1.76107813e-01
-5.74025000e-08,1.76092187e-01
-5.73625000e-08,1.76107813e-01
-5.73225000e-08,1.76090625e-01
-5.72825000e-08,1.76109375e-01
-5.72425000e-08,1.76090625e-01
-5.72025000e-08,1.76110938e-01
-5.71625000e-08,1.76089063e-01
-5.71225000e-08,1.76112500e-01
-5.70825000e-08,1.76085938e-01
-5.70425000e-08,1.76115625e-01
-5.70025000e-08,1.76081250e-01
-5.69625000e-08,1.76125000e-01
-5.69225000e-08,1.76065625e-01
-5.68825000e-08,1.76159375e-01
-5.68425000e-08,1.75887500e-01
-5.68025000e-08,1.75650000e-01
-5.67625000e-08,1.75726563e-01
-5.67225000e-08,1.75682813e-01
-5.66825000e-08,1.75710937e-01
-5.66425000e-08,1.75692188e-01
-5.66025000e-08,1.75706250e-01
-5.65625000e-08,1.75695313e-01
-5.65225000e-08,1.75703125e-01
-5.64825000e-08,1.75696875e-01
-5.64425000e-08,1.75701563e-01
-5.64025000e-08,1.75698437e-01
-5.63625000e-08,1.75700000e-01
-5.63225000e-08,1.75700000e-01
-5.62825000e-08,1.75698437e-01
-5.62425000e-08,1.75701563e-01
-5.62025000e-08,1.75698437e-01
-5.61625000e-08,1.75703125e-01
-5.61225000e-08,1.75696875e-01
-5.60825000e-08,1.75703125e-01
-5.60425000e-08,1.75695313e-01
-5.60025000e-08,1.75704688e-01
-5.59625000e-08,1.75695313e-01
-5.59225000e-08,1.75706250e-01
-5.58825000e-08,1.75693750e-01
-5.58425000e-08,1.75707813e-01
-5.58025000e-08,1.75690625e-01
-5.57625000e-08,1.75710937e-01
-5.57225000e-08,1.75687500e-01
-5.56825000e-08,1.75715625e-01
-5.56425000e-08,1.75678125e-01
-5.56025000e-08,1.75731250e-01
-5.55625000e-08,1.75643750e-01
-5.55225000e-08,1.75909375e-01
-5.54825000e-08,1.76153125e-01
-5.54425000e-08,1.76070313e-01
-5.54025000e-08,1.76120313e-01
-5.53625000e-08,1.76085938e-01
-5.53225000e-08,1.76110938e-01
-5.52825000e-08,1.76090625e-01
-5.52425000e-08,1.76107813e-01
-5.52025000e-08,1.76093750e-01
-5.51625000e-08,1.76106250e-01
-5.51225000e-08,1.76095313e-01
-5.50825000e-08,1.76104687e-01
-5.50425000e-08,1.76096875e-01
-5.50025000e-08,1.76103125e-01
-5.49625000e-08,1.76096875e-01
-5.49225000e-08,1.76101563e-01
-5.48825000e-08,1.76098438e-01
-5.48425000e-08,1.76101563e-01
-5.48025000e-08,1.76098438e-01
-5.47625000e-08,1.76101563e-01
-5.47225000e-08,1.76098438e-01
-5.46825000e-08,1.76100000e-01
-5.46425000e-08,1.76100000e-01
-5.46025000e-08,1.76100000e-01
-5.45625000e-08,1.76100000e-01
-5.45225000e-08,1.76100000e-01
-5.44825000e-08,1.76100000e-01
-5.44425000e-08,1.76100000e-01
-5.44025000e-08,1.76100000e-01
-5.43625000e-08,1.76098438e-01
-5.43225000e-08,1.76101563e-01
-5.42825000e-08,1.76098438e-01
-5.42425000e-08,1.76101563e-01
-5.42025000e-08,1.76098438e-01
-5.41625000e-08,1.76101563e-01
-5.41225000e-08,1.76098438e-01
-5.40825000e-08,1.76101563e-01
-5.40425000e-08,1.76098438e-01
-5.40025000e-08,1.76103125e-01
-5.39625000e-08,1.76096875e-01
-5.39225000e-08,1.76103125e-01
-5.38825000e-08,1.76096875e-01
-5.38425000e-08,1.76103125e-01
-5.38025000e-08,1.76096875e-01
-5.37625000e-08,1.76103125e-01
-5.37225000e-08,1.76096875e-01
-5.36825000e-08,1.76104687e-01
-5.36425000e-08,1.76095313e-01
-5.36025000e-08,1.76104687e-01
-5.35625000e-08,1.76095313e-01
-5.35225000e-08,1.76104687e-01
-5.34825000e-08,1.76095313e-01
-5.34425000e-08,1.76106250e-01
-5.34025000e-08,1.76093750e-01
-5.33625000e-08,1.76106250e-01
-5.33225000e-08,1.76092187e-01
-5.32825000e-08,1.76107813e-01
-5.32425000e-08,1.76092187e-01
-5.32025000e-08,1.76109375e-01
-5.31625000e-08,1.76089063e-01
-5.31225000e-08,1.76110938e-01
-5.30825000e-08,1.76087500e-01
-5.30425000e-08,1.76115625e-01
-5.30025000e-08,1.76081250e-01
-5.29625000e-08,1.76123438e-01
-5.29225000e-08,1.76067187e-01
-5.28825000e-08,1.76157813e-01
-5.28425000e-08,1.75889062e-01
-5.28025000e-08,1.75650000e-01
-5.27625000e-08,1.75726563e-01
-5.27225000e-08,1.75682813e-01
-5.26825000e-08,1.75712500e-01
-5.26425000e-08,1.75690625e-01
-5.26025000e-08,1.75706250e-01
-5.25625000e-08,1.75695313e-01
-5.25225000e-08,1.75703125e-01
-5.24825000e-08,1.75696875e-01
-5.24425000e-08,1.75701563e-01
-5.24025000e-08,1.75700000e-01
-5.23625000e-08,1.75700000e-01
-5.23225000e-08,1.75700000e-01
-5.22825000e-08,1.75698437e-01
-5.22425000e-08,1.75701563e-01
-5.22025000e-08,1.75696875e-01
-5.21625000e-08,1.75703125e-01
-5.21225000e-08,1.75695313e-01
-5.20825000e-08,1.75704688e-01
-5.20425000e-08,1.75695313e-01
-5.20025000e-08,1.75706250e-01
-5.19625000e-08,1.75692188e-01
-5.19225000e-08,1.75707813e-01
-5.18825000e-08,1.75690625e-01
-5.18425000e-08,1.75710937e-01
-5.18025000e-08,1.75685938e-01
-5.17625000e-08,1.75717188e-01
-5.17225000e-08,1.75678125e-01
-5.16825000e-08,1.75732813e-01
-5.16425000e-08,1.75642188e-01
-5.16025000e-08,1.75910938e-01
-5.15625000e-08,1.76151562e-01
-5.15225000e-08,1.76073438e-01
-5.14825000e-08,1.76117187e-01
-5.14425000e-08,1.76089063e-01
-5.14025000e-08,1.76107813e-01
-5.13625000e-08,1.76095313e-01
-5.13225000e-08,1.76103125e-01
-5.12825000e-08,1.76098438e-01
-5.12425000e-08,1.76098438e-01
-5.12025000e-08,1.76103125e-01
-5.11625000e-08,1.76093750e-01
-5.11225000e-08,1.76109375e-01
-5.10825000e-08,1.76085938e-01
-5.10425000e-08,1.76123438e-01
-5.10025000e-08,1.76050000e-01
-5.09625000e-08,1.76301563e-01
-5.09225000e-08,1.76559375e-01
-5.08825000e-08,1.76464063e-01
-5.08425000e-08,1.76528125e-01
-5.08025000e-08,1.76476563e-01
-5.07625000e-08,1.76521875e-01
-5.07225000e-08,1.76479688e-01
-5.06825000e-08,1.76521875e-01
-5.06425000e-08,1.76475000e-01
-5.06025000e-08,1.76534375e-01
-5.05625000e-08,1.76442188e-01
-5.05225000e-08,1.76709375e-01
-5.04825000e-08,1.76953125e-01
-5.04425000e-08,1.76868750e-01
-5.04025000e-08,1.76923438e-01
-5.03625000e-08,1.76881250e-01
-5.03225000e-08,1.76917188e-01
-5.02825000e-08,1.76882813e-01
-5.02425000e-08,1.76917188e-01
-5.02025000e-08,1.76881250e-01
-5.01625000e-08,1.76921875e-01
-5.01225000e-08,1.76873438e-01
-5.00825000e-08,1.76935938e-01
-5.00425000e-08,1.76839063e-01
-5.00025000e-08,1.77114063e-01
-4.99625000e-08,1.77348438e-01
-4.99225000e-08,1.77275000e-01
-4.98825000e-08,1.77314063e-01
-4.98425000e-08,1.77290625e-01
-4.98025000e-08,1.77306250e-01
-4.97625000e-08,1.77296875e-01
-4.97225000e-08,1.77301563e-01
-4.96825000e-08,1.77300000e-01
-4.96425000e-08,1.77298438e-01
-4.96025000e-08,1.77303125e-01
-4.95625000e-08,1.77295312e-01
-4.95225000e-08,1.77307812e-01
-4.94825000e-08,1.77290625e-01
-4.94425000e-08,1.77314063e-01
-4.94025000e-08,1.77281250e-01
-4.93625000e-08,1.77329687e-01
-4.93225000e-08,1.77245313e-01
-4.92825000e-08,1.77507813e-01
-4.92425000e-08,1.77754688e-01
-4.92025000e-08,1.77670313e-01
-4.91625000e-08,1.77720313e-01
-4.91225000e-08,1.77685938e-01
-4.90825000e-08,1.77710937e-01
-4.90425000e-08,1.77692188e-01
-4.90025000e-08,1.77706250e-01
-4.89625000e-08,1.77695313e-01
-4.89225000e-08,1.77703125e-01
-4.88825000e-08,1.77698438e-01
-4.88425000e-08,1.77700000e-01
-4.88025000e-08,1.77701562e-01
-4.87625000e-08,1.77695313e-01
-4.87225000e-08,1.77706250e-01
-4.86825000e-08,1.77689062e-01
-4.86425000e-08,1.77715625e-01
-4.86025000e-08,1.77673438e-01
-4.85625000e-08,1.77751563e-01
-4.85225000e-08,1.77495313e-01
-4.84825000e-08,1.77242188e-01
-4.84425000e-08,1.77332813e-01
-4.84025000e-08,1.77276563e-01
-4.83625000e-08,1.77317188e-01
-4.83225000e-08,1.77285938e-01
-4.82825000e-08,1.77310938e-01
-4.82425000e-08,1.77290625e-01
-4.82025000e-08,1.77307812e-01
-4.81625000e-08,1.77293750e-01
-4.81225000e-08,1.77304688e-01
-4.80825000e-08,1.77296875e-01
-4.80425000e-08,1.77301563e-01
-4.80025000e-08,1.77301563e-01
-4.79625000e-08,1.77295312e-01
-4.79225000e-08,1.77310938e-01
-4.78825000e-08,1.77279688e-01
-4.78425000e-08,1.77345313e-01
-4.78025000e-08,1.77101563e-01
-4.77625000e-08,1.76835938e-01
-4.77225000e-08,1.76939062e-01
-4.76825000e-08,1.76870313e-01
-4.76425000e-08,1.76925000e-01
-4.76025000e-08,1.76878125e-01
-4.75625000e-08,1.76920313e-01
-4.75225000e-08,1.76881250e-01
-4.74825000e-08,1.76918750e-01
-4.74425000e-08,1.76882813e-01
-4.74025000e-08,1.76917188e-01
-4.73625000e-08,1.76882813e-01
-4.73225000e-08,1.76918750e-01
-4.72825000e-08,1.76881250e-01
-4.72425000e-08,1.76920313e-01
-4.72025000e-08,1.76876563e-01
-4.71625000e-08,1.76928125e-01
-4.71225000e-08,1.76862500e-01
-4.70825000e-08,1.76962500e-01
-4.70425000e-08,1.76685938e-01
-4.70025000e-08,1.76451563e-01
-4.69625000e-08,1.76523438e-01
-4.69225000e-08,1.76484375e-01
-4.68825000e-08,1.76510938e-01
-4.68425000e-08,1.76492188e-01
-4.68025000e-08,1.76506250e-01
-4.67625000e-08,1.76495313e-01
-4.67225000e-08,1.76503125e-01
-4.66825000e-08,1.76496875e-01
-4.66425000e-08,1.76503125e-01
-4.66025000e-08,1.76498437e-01
-4.65625000e-08,1.76501563e-01
-4.65225000e-08,1.76498437e-01
-4.64825000e-08,1.76501563e-01
-4.64425000e-08,1.76498437e-01
-4.64025000e-08,1.76501563e-01
-4.63625000e-08,1.76498437e-01
-4.63225000e-08,1.76501563e-01
-4.62825000e-08,1.76498437e-01
-4.62425000e-08,1.76501563e-01
-4.62025000e-08,1.76498437e-01
-4.61625000e-08,1.76501563e-01
-4.61225000e-08,1.76498437e-01
-4.60825000e-08,1.76503125e-01
-4.60425000e-08,1.76496875e-01
-4.60025000e-08,1.76503125e-01
-4.59625000e-08,1.76495313e-01
-4.59225000e-08,1.76504688e-01
-4.58825000e-08,1.76493750e-01
-4.58425000e-08,1.76507812e-01
-4.58025000e-08,1.76490625e-01
-4.57625000e-08,1.76512500e-01
-4.57225000e-08,1.76482813e-01
-4.56825000e-08,1.76526563e-01
-4.56425000e-08,1.76448437e-01
-4.56025000e-08,1.76704688e-01
-4.55625000e-08,1.76957813e-01
-4.55225000e-08,1.76865625e-01
-4.54825000e-08,1.76926562e-01
-4.54425000e-08,1.76878125e-01
-4.54025000e-08,1.76918750e-01
-4.53625000e-08,1.76882813e-01
-4.53225000e-08,1.76917188e-01
-4.52825000e-08,1.76882813e-01
-4.52425000e-08,1.76917188e-01
-4.52025000e-08,1.76881250e-01
-4.51625000e-08,1.76920313e-01
-4.51225000e-08,1.76875000e-01
-4.50825000e-08,1.76934375e-01
-4.50425000e-08,1.76840625e-01
-4.50025000e-08,1.77112500e-01
-4.49625000e-08,1.77350000e-01
-4.49225000e-08,1.77273438e-01
-4.48825000e-08,1.77318750e-01
-4.48425000e-08,1.77285938e-01
-4.48025000e-08,1.77310938e-01
-4.47625000e-08,1.77290625e-01
-4.47225000e-08,1.77307812e-01
-4.46825000e-08,1.77293750e-01
-4.46425000e-08,1.77306250e-01
-4.46025000e-08,1.77293750e-01
-4.45625000e-08,1.77304688e-01
-4.45225000e-08,1.77295312e-01
-4.44825000e-08,1.77304688e-01
-4.44425000e-08,1.77295312e-01
-4.44025000e-08,1.77304688e-01
-4.43625000e-08,1.77295312e-01
-4.43225000e-08,1.77304688e-01
-4.42825000e-08,1.77295312e-01
-4.42425000e-08,1.77306250e-01
-4.42025000e-08,1.77293750e-01
-4.41625000e-08,1.77306250e-01
-4.41225000e-08,1.77293750e-01
-4.40825000e-08,1.77307812e-01
-4.40425000e-08,1.77292188e-01
-4.40025000e-08,1.77309375e-01
-4.39625000e-08,1.77289063e-01
-4.39225000e-08,1.77312500e-01
-4.38825000e-08,1.77284375e-01
-4.38425000e-08,1.77321875e-01
-4.38025000e-08,1.77268750e-01
-4.37625000e-08,1.77356250e-01
-4.37225000e-08,1.77090625e-01
-4.36825000e-08,1.76846875e-01
-4.36425000e-08,1.76929688e-01
-4.36025000e-08,1.76879687e-01
-4.35625000e-08,1.76915625e-01
-4.35225000e-08,1.76887500e-01
-4.34825000e-08,1.76909375e-01
-4.34425000e-08,1.76890625e-01
-4.34025000e-08,1.76907813e-01
-4.33625000e-08,1.76893750e-01
-4.33225000e-08,1.76906250e-01
-4.32825000e-08,1.76895313e-01
-4.32425000e-08,1.76904688e-01
-4.32025000e-08,1.76895313e-01
-4.31625000e-08,1.76904688e-01
-4.31225000e-08,1.76896875e-01
-4.30825000e-08,1.76903125e-01
-4.30425000e-08,1.76896875e-01
-4.30025000e-08,1.76903125e-01
-4.29625000e-08,1.76896875e-01
-4.29225000e-08,1.76903125e-01
-4.28825000e-08,1.76896875e-01
-4.28425000e-08,1.76901562e-01
-4.28025000e-08,1.76898438e-01
-4.27625000e-08,1.76901562e-01
-4.27225000e-08,1.76898438e-01
-4.26825000e-08,1.76901562e-01
-4.26425000e-08,1.76898438e-01
-4.26025000e-08,1.76901562e-01
-4.25625000e-08,1.76898438e-01
-4.25225000e-08,1.76901562e-01
-4.24825000e-08,1.76898438e-01
-4.24425000e-08,1.76901562e-01
-4.24025000e-08,1.76898438e-01
-4.23625000e-08,1.76900000e-01
-4.23225000e-08,1.76900000e-01
-4.22825000e-08,1.76900000e-01
-4.22425000e-08,1.76900000e-01
-4.22025000e-08,1.76900000e-01
-4.21625000e-08,1.76900000e-01
-4.21225000e-08,1.76900000e-01
-4.20825000e-08,1.76900000e-01
-4.20425000e-08,1.76900000e-01
-4.20025000e-08,1.76900000e-01
-4.19625000e-08,1.76900000e-01
-4.19225000e-08,1.76900000e-01
-4.18825000e-08,1.76900000e-01
-4.18425000e-08,1.76900000e-01
-4.18025000e-08,1.76898438e-01
-4.17625000e-08,1.76901562e-01
-4.17225000e-08,1.76898438e-01
-4.16825000e-08,1.76901562e-01
-4.16425000e-08,1.76898438e-01
-4.16025000e-08,1.76901562e-01
-4.15625000e-08,1.76898438e-01
-4.15225000e-08,1.76901562e-01
-4.14825000e-08,1.76898438e-01
-4.14425000e-08,1.76901562e-01
-4.14025000e-08,1.76896875e-01
-4.13625000e-08,1.76903125e-01
-4.13225000e-08,1.76896875e-01
-4.12825000e-08,1.76903125e-01
-4.12425000e-08,1.76896875e-01
-4.12025000e-08,1.76903125e-01
-4.11625000e-08,1.76895313e-01
-4.11225000e-08,1.76904688e-01
-4.10825000e-08,1.76895313e-01
-4.10425000e-08,1.76906250e-01
-4.10025000e-08,1.76893750e-01
-4.09625000e-08,1.76907813e-01
-4.09225000e-08,1.76892188e-01
-4.08825000e-08,1.76909375e-01
-4.08425000e-08,1.76887500e-01
-4.08025000e-08,1.76915625e-01
-4.07625000e-08,1.76879687e-01
-4.07225000e-08,1.76929688e-01
-4.06825000e-08,1.76845313e-01
-4.06425000e-08,1.77107813e-01
-4.06025000e-08,1.77354687e-01
-4.05625000e-08,1.77270312e-01
-4.05225000e-08,1.77320312e-01
-4.04825000e-08,1.77284375e-01
-4.04425000e-08,1.77312500e-01
-4.04025000e-08,1.77289063e-01
-4.03625000e-08,1.77309375e-01
-4.03225000e-08,1.77292188e-01
-4.02825000e-08,1.77306250e-01
-4.02425000e-08,1.77293750e-01
-4.02025000e-08,1.77306250e-01
-4.01625000e-08,1.77295312e-01
-4.01225000e-08,1.77304688e-01
-4.00825000e-08,1.77295312e-01
-4.00425000e-08,1.77304688e-01
-4.00025000e-08,1.77296875e-01
-3.99625000e-08,1.77303125e-01
-3.99225000e-08,1.77296875e-01
-3.98825000e-08,1.77303125e-01
-3.98425000e-08,1.77296875e-01
-3.98025000e-08,1.77303125e-01
-3.97625000e-08,1.77298438e-01
-3.97225000e-08,1.77301563e-01
-3.96825000e-08,1.77298438e-01
-3.96425000e-08,1.77301563e-01
-3.96025000e-08,1.77298438e-01
-3.95625000e-08,1.77301563e-01
-3.95225000e-08,1.77298438e-01
-3.94825000e-08,1.77301563e-01
-3.94425000e-08,1.77298438e-01
-3.94025000e-08,1.77301563e-01
-3.93625000e-08,1.77298438e-01
-3.93225000e-08,1.77300000e-01
-3.92825000e-08,1.77300000e-01
-3.92425000e-08,1.77300000e-01
-3.92025000e-08,1.77300000e-01
-3.91625000e-08,1.77300000e-01
-3.91225000e-08,1.77300000e-01
-3.90825000e-08,1.77300000e-01
-3.90425000e-08,1.77300000e-01
-3.90025000e-08,1.77300000e-01
-3.89625000e-08,1.77301563e-01
-3.89225000e-08,1.77298438e-01
-3.88825000e-08,1.77301563e-01
-3.88425000e-08,1.77298438e-01
-3.88025000e-08,1.77301563e-01
-3.87625000e-08,1.77298438e-01
-3.87225000e-08,1.77303125e-01
-3.86825000e-08,1.77296875e-01
-3.86425000e-08,1.77303125e-01
-3.86025000e-08,1.77295312e-01
-3.85625000e-08,1.77304688e-01
-3.85225000e-08,1.77293750e-01
