trails/00d9de579c68e71117ffc152f8bf8771/aes_ch1_20250506170310821.csv

Model,MSO66B
Label,
Waveform Type,ANALOG
Horizontal Units,s
Sample Interval,4.00000000e-11
Record Length,10000
Zero Index,1599.08203125
Vertical Units,A
ANALOG_Thumbnail,
yOffset,1.84500000e-01
yPosition,8.40000000e-01

Labels,
TIME,CH1
-6.39632812e-08,1.96090625e-01
-6.39232812e-08,1.96109375e-01
-6.38832812e-08,1.96092188e-01
-6.38432812e-08,1.96107813e-01
-6.38032812e-08,1.96092188e-01
-6.37632813e-08,1.96107813e-01
-6.37232812e-08,1.96092188e-01
-6.36832812e-08,1.96106250e-01
-6.36432812e-08,1.96093750e-01
-6.36032812e-08,1.96106250e-01
-6.35632812e-08,1.96093750e-01
-6.35232812e-08,1.96106250e-01
-6.34832813e-08,1.96093750e-01
-6.34432812e-08,1.96106250e-01
-6.34032812e-08,1.96095313e-01
-6.33632812e-08,1.96104688e-01
-6.33232812e-08,1.96095313e-01
-6.32832812e-08,1.96104688e-01
-6.32432812e-08,1.96095313e-01
-6.32032813e-08,1.96104688e-01
-6.31632812e-08,1.96096875e-01
-6.31232812e-08,1.96103125e-01
-6.30832812e-08,1.96096875e-01
-6.30432812e-08,1.96103125e-01
-6.30032812e-08,1.96096875e-01
-6.29632812e-08,1.96103125e-01
-6.29232813e-08,1.96098438e-01
-6.28832812e-08,1.96101562e-01
-6.28432812e-08,1.96098438e-01
-6.28032812e-08,1.96101562e-01
-6.27632812e-08,1.96100000e-01
-6.27232812e-08,1.96100000e-01
-6.26832812e-08,1.96100000e-01
-6.26432813e-08,1.96098438e-01
-6.26032812e-08,1.96101562e-01
-6.25632812e-08,1.96096875e-01
-6.25232812e-08,1.96103125e-01
-6.24832812e-08,1.96095313e-01
-6.24432812e-08,1.96106250e-01
-6.24032812e-08,1.96090625e-01
-6.23632813e-08,1.96112500e-01
-6.23232812e-08,1.96082813e-01
-6.22832812e-08,1.96126563e-01
-6.22432812e-08,1.96048438e-01
-6.22032812e-08,1.96304688e-01
-6.21632812e-08,1.96556250e-01
-6.21232812e-08,1.96467188e-01
-6.20832813e-08,1.96523438e-01
-6.20432812e-08,1.96481250e-01
-6.20032812e-08,1.96514063e-01
-6.19632812e-08,1.96487500e-01
-6.19232812e-08,1.96510938e-01
-6.18832813e-08,1.96490625e-01
-6.18432812e-08,1.96507813e-01
-6.18032813e-08,1.96492187e-01
-6.17632812e-08,1.96506250e-01
-6.17232812e-08,1.96495313e-01
-6.16832812e-08,1.96504687e-01
-6.16432812e-08,1.96496875e-01
-6.16032813e-08,1.96503125e-01
-6.15632812e-08,1.96498438e-01
-6.15232813e-08,1.96500000e-01
-6.14832812e-08,1.96501563e-01
-6.14432812e-08,1.96495313e-01
-6.14032812e-08,1.96507813e-01
-6.13632812e-08,1.96487500e-01
-6.13232813e-08,1.96521875e-01
-6.12832812e-08,1.96453125e-01
-6.12432813e-08,1.96700000e-01
-6.12032812e-08,1.96962500e-01
-6.11632812e-08,1.96862500e-01
-6.11232812e-08,1.96928125e-01
-6.10832812e-08,1.96876563e-01
-6.10432813e-08,1.96920312e-01
-6.10032812e-08,1.96881250e-01
-6.09632813e-08,1.96917188e-01
-6.09232812e-08,1.96882813e-01
-6.08832812e-08,1.96915625e-01
-6.08432812e-08,1.96884375e-01
-6.08032812e-08,1.96915625e-01
-6.07632813e-08,1.96882813e-01
-6.07232812e-08,1.96917188e-01
-6.06832813e-08,1.96881250e-01
-6.06432812e-08,1.96921875e-01
-6.06032812e-08,1.96873437e-01
-6.05632812e-08,1.96935938e-01
-6.05232812e-08,1.96840625e-01
-6.04832813e-08,1.97112500e-01
-6.04432812e-08,1.97350000e-01
-6.04032813e-08,1.97271875e-01
-6.03632812e-08,1.97318750e-01
-6.03232812e-08,1.97285938e-01
-6.02832812e-08,1.97312500e-01
-6.02432812e-08,1.97289063e-01
-6.02032813e-08,1.97310938e-01
-6.01632812e-08,1.97289063e-01
-6.01232813e-08,1.97310938e-01
-6.00832812e-08,1.97287500e-01
-6.00432812e-08,1.97315625e-01
-6.00032812e-08,1.97279688e-01
-5.99632812e-08,1.97329688e-01
-5.99232813e-08,1.97245313e-01
-5.98832812e-08,1.97507813e-01
-5.98432812e-08,1.97754687e-01
-5.98032812e-08,1.97668750e-01
-5.97632812e-08,1.97721875e-01
-5.97232812e-08,1.97682812e-01
-5.96832812e-08,1.97714063e-01
-5.96432813e-08,1.97687500e-01
-5.96032812e-08,1.97710938e-01
-5.95632812e-08,1.97690625e-01
-5.95232812e-08,1.97709375e-01
-5.94832812e-08,1.97692188e-01
-5.94432812e-08,1.97707812e-01
-5.94032812e-08,1.97693750e-01
-5.93632812e-08,1.97706250e-01
-5.93232812e-08,1.97693750e-01
-5.92832812e-08,1.97706250e-01
-5.92432812e-08,1.97695312e-01
-5.92032812e-08,1.97704688e-01
-5.91632812e-08,1.97695312e-01
-5.91232812e-08,1.97704688e-01
-5.90832812e-08,1.97695312e-01
-5.90432812e-08,1.97703125e-01
-5.90032812e-08,1.97696875e-01
-5.89632812e-08,1.97703125e-01
-5.89232812e-08,1.97696875e-01
-5.88832812e-08,1.97703125e-01
-5.88432812e-08,1.97696875e-01
-5.88032812e-08,1.97703125e-01
-5.87632812e-08,1.97698438e-01
-5.87232812e-08,1.97701563e-01
-5.86832812e-08,1.97698438e-01
-5.86432812e-08,1.97701563e-01
-5.86032812e-08,1.97698438e-01
-5.85632812e-08,1.97700000e-01
-5.85232812e-08,1.97700000e-01
-5.84832812e-08,1.97700000e-01
-5.84432812e-08,1.97701563e-01
-5.84032812e-08,1.97698438e-01
-5.83632812e-08,1.97703125e-01
-5.83232812e-08,1.97695312e-01
-5.82832812e-08,1.97706250e-01
-5.82432812e-08,1.97692188e-01
-5.82032812e-08,1.97710938e-01
-5.81632812e-08,1.97684375e-01
-5.81232812e-08,1.97725000e-01
-5.80832812e-08,1.97650000e-01
-5.80432812e-08,1.97903125e-01
-5.80032812e-08,1.98157813e-01
-5.79632812e-08,1.98065625e-01
-5.79232812e-08,1.98125000e-01
-5.78832812e-08,1.98079688e-01
-5.78432812e-08,1.98117188e-01
-5.78032812e-08,1.98084375e-01
-5.77632812e-08,1.98114063e-01
-5.77232812e-08,1.98087500e-01
-5.76832812e-08,1.98110938e-01
-5.76432812e-08,1.98089062e-01
-5.76032812e-08,1.98109375e-01
-5.75632812e-08,1.98090625e-01
-5.75232812e-08,1.98109375e-01
-5.74832812e-08,1.98090625e-01
-5.74432812e-08,1.98107813e-01
-5.74032812e-08,1.98092188e-01
-5.73632812e-08,1.98107813e-01
-5.73232812e-08,1.98092188e-01
-5.72832812e-08,1.98107813e-01
-5.72432812e-08,1.98092188e-01
-5.72032812e-08,1.98107813e-01
-5.71632812e-08,1.98092188e-01
-5.71232812e-08,1.98106250e-01
-5.70832812e-08,1.98093750e-01
-5.70432812e-08,1.98106250e-01
-5.70032812e-08,1.98093750e-01
-5.69632812e-08,1.98106250e-01
-5.69232812e-08,1.98093750e-01
-5.68832812e-08,1.98106250e-01
-5.68432812e-08,1.98093750e-01
-5.68032812e-08,1.98106250e-01
-5.67632812e-08,1.98093750e-01
-5.67232812e-08,1.98106250e-01
-5.66832812e-08,1.98093750e-01
-5.66432812e-08,1.98106250e-01
-5.66032812e-08,1.98093750e-01
-5.65632812e-08,1.98106250e-01
-5.65232812e-08,1.98093750e-01
-5.64832812e-08,1.98106250e-01
-5.64432812e-08,1.98093750e-01
-5.64032812e-08,1.98107813e-01
-5.63632812e-08,1.98092188e-01
-5.63232812e-08,1.98107813e-01
-5.62832812e-08,1.98092188e-01
-5.62432812e-08,1.98107813e-01
-5.62032812e-08,1.98092188e-01
-5.61632812e-08,1.98109375e-01
-5.61232812e-08,1.98090625e-01
-5.60832812e-08,1.98110938e-01
-5.60432812e-08,1.98087500e-01
-5.60032812e-08,1.98114063e-01
-5.59632812e-08,1.98082813e-01
-5.59232812e-08,1.98121875e-01
-5.58832812e-08,1.98068750e-01
-5.58432812e-08,1.98156250e-01
-5.58032812e-08,1.97890625e-01
-5.57632812e-08,1.97646875e-01
-5.57232812e-08,1.97729688e-01
-5.56832812e-08,1.97679688e-01
-5.56432812e-08,1.97715625e-01
-5.56032812e-08,1.97687500e-01
-5.55632812e-08,1.97710938e-01
-5.55232812e-08,1.97690625e-01
-5.54832812e-08,1.97709375e-01
-5.54432812e-08,1.97692188e-01
-5.54032812e-08,1.97707812e-01
-5.53632812e-08,1.97692188e-01
-5.53232812e-08,1.97707812e-01
-5.52832812e-08,1.97692188e-01
-5.52432812e-08,1.97707812e-01
-5.52032812e-08,1.97692188e-01
-5.51632812e-08,1.97707812e-01
-5.51232812e-08,1.97690625e-01
-5.50832812e-08,1.97710938e-01
-5.50432812e-08,1.97689063e-01
-5.50032812e-08,1.97714063e-01
-5.49632812e-08,1.97682812e-01
-5.49232812e-08,1.97721875e-01
-5.48832812e-08,1.97668750e-01
-5.48432812e-08,1.97756250e-01
-5.48032812e-08,1.97490625e-01
-5.47632812e-08,1.97246875e-01
-5.47232812e-08,1.97328125e-01
-5.46832812e-08,1.97281250e-01
-5.46432812e-08,1.97314062e-01
-5.46032812e-08,1.97289063e-01
-5.45632812e-08,1.97309375e-01
-5.45232812e-08,1.97293750e-01
-5.44832812e-08,1.97306250e-01
-5.44432812e-08,1.97295313e-01
-5.44032812e-08,1.97303125e-01
-5.43632812e-08,1.97298438e-01
-5.43232812e-08,1.97300000e-01
-5.42832812e-08,1.97301562e-01
-5.42432812e-08,1.97296875e-01
-5.42032812e-08,1.97304688e-01
-5.41632812e-08,1.97292187e-01
-5.41232812e-08,1.97314062e-01
-5.40832812e-08,1.97276563e-01
-5.40432812e-08,1.97348438e-01
-5.40032812e-08,1.97098438e-01
-5.39632812e-08,1.96839062e-01
-5.39232812e-08,1.96937500e-01
-5.38832812e-08,1.96871875e-01
-5.38432812e-08,1.96921875e-01
-5.38032812e-08,1.96881250e-01
-5.37632812e-08,1.96917188e-01
-5.37232812e-08,1.96884375e-01
-5.36832812e-08,1.96914063e-01
-5.36432812e-08,1.96885937e-01
-5.36032812e-08,1.96914063e-01
-5.35632812e-08,1.96887500e-01
-5.35232812e-08,1.96912500e-01
-5.34832812e-08,1.96887500e-01
-5.34432812e-08,1.96912500e-01
-5.34032812e-08,1.96887500e-01
-5.33632812e-08,1.96912500e-01
-5.33232812e-08,1.96889063e-01
-5.32832812e-08,1.96910937e-01
-5.32432812e-08,1.96889063e-01
-5.32032812e-08,1.96912500e-01
-5.31632812e-08,1.96887500e-01
-5.31232812e-08,1.96912500e-01
-5.30832812e-08,1.96887500e-01
-5.30432812e-08,1.96912500e-01
-5.30032812e-08,1.96887500e-01
-5.29632812e-08,1.96914063e-01
-5.29232812e-08,1.96885937e-01
-5.28832812e-08,1.96915625e-01
-5.28432812e-08,1.96882813e-01
-5.28032812e-08,1.96917188e-01
-5.27632812e-08,1.96879688e-01
-5.27232812e-08,1.96923438e-01
-5.26832812e-08,1.96871875e-01
-5.26432812e-08,1.96937500e-01
-5.26032812e-08,1.96837500e-01
-5.25632813e-08,1.97115625e-01
-5.25232812e-08,1.97345313e-01
-5.24832812e-08,1.97278125e-01
-5.24432812e-08,1.97312500e-01
-5.24032812e-08,1.97293750e-01
-5.23632812e-08,1.97303125e-01
-5.23232812e-08,1.97298438e-01
-5.22832812e-08,1.97300000e-01
-5.22432812e-08,1.97301562e-01
-5.22032812e-08,1.97296875e-01
-5.21632812e-08,1.97304688e-01
-5.21232812e-08,1.97293750e-01
-5.20832812e-08,1.97307813e-01
-5.20432812e-08,1.97290625e-01
-5.20032812e-08,1.97310938e-01
-5.19632812e-08,1.97287500e-01
-5.19232812e-08,1.97315625e-01
-5.18832812e-08,1.97281250e-01
-5.18432812e-08,1.97325000e-01
-5.18032812e-08,1.97265625e-01
-5.17632812e-08,1.97360937e-01
-5.17232812e-08,1.97085938e-01
-5.16832812e-08,1.96853125e-01
-5.16432812e-08,1.96921875e-01
-5.16032812e-08,1.96889063e-01
-5.15632812e-08,1.96904688e-01
-5.15232812e-08,1.96900000e-01
-5.14832812e-08,1.96893750e-01
-5.14432812e-08,1.96912500e-01
-5.14032812e-08,1.96876563e-01
-5.13632812e-08,1.96950000e-01
-5.13232812e-08,1.96695312e-01
-5.12832812e-08,1.96443750e-01
-5.12432812e-08,1.96529687e-01
-5.12032812e-08,1.96481250e-01
-5.11632812e-08,1.96510938e-01
-5.11232812e-08,1.96498438e-01
-5.10832812e-08,1.96490625e-01
-5.10432812e-08,1.96535938e-01
-5.10032812e-08,1.96310938e-01
-5.09632812e-08,1.96028125e-01
-5.09232812e-08,1.96148437e-01
-5.08832812e-08,1.96060938e-01
-5.08432812e-08,1.96134375e-01
-5.08032812e-08,1.96068750e-01
-5.07632812e-08,1.96129688e-01
-5.07232812e-08,1.96070313e-01
-5.06832812e-08,1.96131250e-01
-5.06432813e-08,1.96067188e-01
-5.06032812e-08,1.96137500e-01
-5.05632812e-08,1.96053125e-01
-5.05232812e-08,1.96171875e-01
-5.04832812e-08,1.95875000e-01
-5.04432812e-08,1.95662500e-01
-5.04032812e-08,1.95712500e-01
-5.03632813e-08,1.95696875e-01
-5.03232812e-08,1.95696875e-01
-5.02832812e-08,1.95709375e-01
-5.02432812e-08,1.95684375e-01
-5.02032812e-08,1.95726563e-01
-5.01632812e-08,1.95648437e-01
-5.01232812e-08,1.95906250e-01
-5.00832812e-08,1.96156250e-01
-5.00432812e-08,1.96067188e-01
-5.00032812e-08,1.96123437e-01
-4.99632812e-08,1.96082813e-01
-4.99232812e-08,1.96115625e-01
-4.98832812e-08,1.96085938e-01
-4.98432812e-08,1.96112500e-01
-4.98032812e-08,1.96087500e-01
-4.97632812e-08,1.96110937e-01
-4.97232812e-08,1.96087500e-01
-4.96832812e-08,1.96112500e-01
-4.96432812e-08,1.96085938e-01
-4.96032812e-08,1.96117188e-01
-4.95632812e-08,1.96078125e-01
-4.95232812e-08,1.96131250e-01
-4.94832812e-08,1.96045313e-01
-4.94432812e-08,1.96307813e-01
-4.94032812e-08,1.96554688e-01
-4.93632812e-08,1.96468750e-01
-4.93232812e-08,1.96521875e-01
-4.92832812e-08,1.96482812e-01
-4.92432812e-08,1.96514063e-01
-4.92032812e-08,1.96487500e-01
-4.91632812e-08,1.96510938e-01
-4.91232812e-08,1.96490625e-01
-4.90832812e-08,1.96509375e-01
-4.90432812e-08,1.96492187e-01
-4.90032812e-08,1.96507813e-01
-4.89632812e-08,1.96492187e-01
-4.89232812e-08,1.96507813e-01
-4.88832812e-08,1.96492187e-01
-4.88432812e-08,1.96507813e-01
-4.88032812e-08,1.96492187e-01
-4.87632812e-08,1.96506250e-01
-4.87232813e-08,1.96493750e-01
-4.86832812e-08,1.96506250e-01
-4.86432812e-08,1.96493750e-01
-4.86032812e-08,1.96507813e-01
-4.85632812e-08,1.96492187e-01
-4.85232812e-08,1.96507813e-01
-4.84832812e-08,1.96492187e-01
-4.84432813e-08,1.96507813e-01
-4.84032812e-08,1.96492187e-01
-4.83632812e-08,1.96507813e-01
-4.83232812e-08,1.96492187e-01
-4.82832812e-08,1.96507813e-01
-4.82432812e-08,1.96490625e-01
-4.82032812e-08,1.96509375e-01
-4.81632813e-08,1.96490625e-01
-4.81232812e-08,1.96510938e-01
-4.80832812e-08,1.96489063e-01
-4.80432812e-08,1.96512500e-01
-4.80032812e-08,1.96485938e-01
-4.79632812e-08,1.96515625e-01
-4.79232812e-08,1.96481250e-01
-4.78832812e-08,1.96525000e-01
-4.78432812e-08,1.96465625e-01
-4.78032812e-08,1.96559375e-01
-4.77632812e-08,1.96287500e-01
-4.77232812e-08,1.96050000e-01
-4.76832812e-08,1.96126563e-01
-4.76432812e-08,1.96082813e-01
-4.76032812e-08,1.96112500e-01
-4.75632812e-08,1.96090625e-01
-4.75232812e-08,1.96107813e-01
-4.74832812e-08,1.96093750e-01
-4.74432812e-08,1.96104688e-01
-4.74032812e-08,1.96096875e-01
-4.73632812e-08,1.96103125e-01
-4.73232812e-08,1.96098438e-01
-4.72832812e-08,1.96101562e-01
-4.72432812e-08,1.96098438e-01
-4.72032812e-08,1.96101562e-01
-4.71632812e-08,1.96098438e-01
-4.71232812e-08,1.96100000e-01
-4.70832812e-08,1.96100000e-01
-4.70432812e-08,1.96100000e-01
-4.70032812e-08,1.96100000e-01
-4.69632812e-08,1.96100000e-01
-4.69232812e-08,1.96100000e-01
-4.68832812e-08,1.96100000e-01
-4.68432812e-08,1.96100000e-01
-4.68032813e-08,1.96100000e-01
-4.67632812e-08,1.96100000e-01
-4.67232812e-08,1.96101562e-01
-4.66832812e-08,1.96098438e-01
-4.66432812e-08,1.96103125e-01
-4.66032812e-08,1.96095313e-01
-4.65632812e-08,1.96106250e-01
-4.65232813e-08,1.96089063e-01
-4.64832812e-08,1.96120313e-01
-4.64432812e-08,1.96056250e-01
-4.64032812e-08,1.96295313e-01
-4.63632812e-08,1.96567188e-01
-4.63232812e-08,1.96454688e-01
-4.62832812e-08,1.96537500e-01
-4.62432813e-08,1.96464063e-01
-4.62032812e-08,1.96535938e-01
-4.61632812e-08,1.96460938e-01
-4.61232812e-08,1.96548438e-01
-4.60832812e-08,1.96426563e-01
-4.60432812e-08,1.96726563e-01
-4.60032812e-08,1.96934375e-01
-4.59632813e-08,1.96890625e-01
-4.59232812e-08,1.96898438e-01
-4.58832812e-08,1.96909375e-01
-4.58432812e-08,1.96882813e-01
-4.58032812e-08,1.96929688e-01
-4.57632812e-08,1.96843750e-01
-4.57232812e-08,1.97110937e-01
-4.56832812e-08,1.97350000e-01
-4.56432812e-08,1.97275000e-01
-4.56032812e-08,1.97314062e-01
-4.55632812e-08,1.97292187e-01
-4.55232812e-08,1.97301562e-01
-4.54832812e-08,1.97303125e-01
-4.54432812e-08,1.97290625e-01
-4.54032812e-08,1.97320313e-01
-4.53632812e-08,1.97253125e-01
-4.53232812e-08,1.97501563e-01
-4.52832812e-08,1.97760938e-01
-4.52432812e-08,1.97664063e-01
-4.52032812e-08,1.97726563e-01
-4.51632812e-08,1.97678125e-01
-4.51232812e-08,1.97717188e-01
-4.50832812e-08,1.97684375e-01
-4.50432812e-08,1.97714063e-01
-4.50032812e-08,1.97687500e-01
-4.49632812e-08,1.97710938e-01
-4.49232812e-08,1.97689063e-01
-4.48832813e-08,1.97709375e-01
-4.48432812e-08,1.97690625e-01
-4.48032812e-08,1.97709375e-01
-4.47632812e-08,1.97690625e-01
-4.47232812e-08,1.97709375e-01
-4.46832812e-08,1.97690625e-01
-4.46432812e-08,1.97709375e-01
-4.46032813e-08,1.97690625e-01
-4.45632812e-08,1.97709375e-01
-4.45232812e-08,1.97690625e-01
-4.44832812e-08,1.97710938e-01
-4.44432812e-08,1.97689063e-01
-4.44032812e-08,1.97712500e-01
-4.43632812e-08,1.97684375e-01
-4.43232813e-08,1.97720312e-01
-4.42832812e-08,1.97670313e-01
-4.42432812e-08,1.97754687e-01
-4.42032812e-08,1.97492187e-01
-4.41632812e-08,1.97245313e-01
-4.41232812e-08,1.97332813e-01
-4.40832812e-08,1.97276563e-01
-4.40432813e-08,1.97318750e-01
-4.40032812e-08,1.97284375e-01
-4.39632812e-08,1.97314062e-01
-4.39232812e-08,1.97285938e-01
-4.38832812e-08,1.97314062e-01
-4.38432812e-08,1.97285938e-01
-4.38032812e-08,1.97314062e-01
-4.37632812e-08,1.97284375e-01
-4.37232812e-08,1.97317188e-01
-4.36832812e-08,1.97279688e-01
-4.36432812e-08,1.97325000e-01
-4.36032812e-08,1.97265625e-01
-4.35632812e-08,1.97359375e-01
-4.35232812e-08,1.97087500e-01
-4.34832812e-08,1.96850000e-01
-4.34432812e-08,1.96926563e-01
-4.34032812e-08,1.96882813e-01
-4.33632812e-08,1.96910937e-01
-4.33232812e-08,1.96892188e-01
-4.32832812e-08,1.96906250e-01
-4.32432812e-08,1.96895313e-01
-4.32032812e-08,1.96903125e-01
-4.31632812e-08,1.96898438e-01
-4.31232812e-08,1.96901563e-01
-4.30832812e-08,1.96900000e-01
-4.30432812e-08,1.96898438e-01
-4.30032812e-08,1.96901563e-01
-4.29632813e-08,1.96896875e-01
-4.29232812e-08,1.96904688e-01
-4.28832812e-08,1.96893750e-01
-4.28432812e-08,1.96907813e-01
-4.28032812e-08,1.96889063e-01
-4.27632812e-08,1.96917188e-01
-4.27232812e-08,1.96873437e-01
-4.26832813e-08,1.96951563e-01
-4.26432812e-08,1.96695312e-01
-4.26032812e-08,1.96442188e-01
-4.25632812e-08,1.96534375e-01
-4.25232812e-08,1.96476563e-01
-4.24832812e-08,1.96518750e-01
-4.24432812e-08,1.96484375e-01
-4.24032813e-08,1.96514063e-01
-4.23632812e-08,1.96487500e-01
-4.23232812e-08,1.96512500e-01
-4.22832812e-08,1.96489063e-01
-4.22432812e-08,1.96510938e-01
-4.22032812e-08,1.96490625e-01
-4.21632812e-08,1.96509375e-01
-4.21232813e-08,1.96490625e-01
-4.20832812e-08,1.96509375e-01
-4.20432812e-08,1.96490625e-01
-4.20032812e-08,1.96509375e-01
-4.19632812e-08,1.96490625e-01
-4.19232812e-08,1.96509375e-01
-4.18832812e-08,1.96489063e-01
-4.18432813e-08,1.96510938e-01
-4.18032812e-08,1.96487500e-01
-4.17632812e-08,1.96512500e-01
-4.17232812e-08,1.96484375e-01
-4.16832812e-08,1.96518750e-01
-4.16432812e-08,1.96476563e-01
-4.16032812e-08,1.96532813e-01
-4.15632812e-08,1.96442188e-01
-4.15232812e-08,1.96710938e-01
-4.14832812e-08,1.96951563e-01
-4.14432812e-08,1.96871875e-01
-4.14032812e-08,1.96918750e-01
-4.13632812e-08,1.96885937e-01
-4.13232812e-08,1.96910937e-01
-4.12832812e-08,1.96890625e-01
-4.12432812e-08,1.96907813e-01
-4.12032812e-08,1.96893750e-01
-4.11632812e-08,1.96906250e-01
-4.11232812e-08,1.96895313e-01
-4.10832812e-08,1.96904688e-01
-4.10432813e-08,1.96895313e-01
-4.10032812e-08,1.96904688e-01
-4.09632812e-08,1.96895313e-01
-4.09232812e-08,1.96903125e-01
-4.08832812e-08,1.96896875e-01
-4.08432812e-08,1.96903125e-01
-4.08032812e-08,1.96896875e-01
-4.07632813e-08,1.96903125e-01
-4.07232812e-08,1.96896875e-01
-4.06832812e-08,1.96903125e-01
-4.06432812e-08,1.96896875e-01
-4.06032812e-08,1.96903125e-01
-4.05632812e-08,1.96896875e-01
-4.05232812e-08,1.96903125e-01
-4.04832813e-08,1.96898438e-01
-4.04432812e-08,1.96901563e-01
-4.04032812e-08,1.96898438e-01
-4.03632812e-08,1.96901563e-01
-4.03232812e-08,1.96898438e-01
-4.02832812e-08,1.96901563e-01
-4.02432812e-08,1.96898438e-01
-4.02032813e-08,1.96901563e-01
-4.01632812e-08,1.96898438e-01
-4.01232812e-08,1.96901563e-01
-4.00832812e-08,1.96898438e-01
-4.00432812e-08,1.96900000e-01
-4.00032812e-08,1.96900000e-01
-3.99632812e-08,1.96900000e-01
-3.99232813e-08,1.96900000e-01
-3.98832812e-08,1.96898438e-01
-3.98432812e-08,1.96901563e-01
-3.98032812e-08,1.96896875e-01
-3.97632812e-08,1.96904688e-01
-3.97232812e-08,1.96893750e-01
-3.96832812e-08,1.96909375e-01
-3.96432813e-08,1.96885937e-01
-3.96032812e-08,1.96923438e-01
-3.95632812e-08,1.96851563e-01
-3.95232812e-08,1.97100000e-01
-3.94832812e-08,1.97362500e-01
-3.94432812e-08,1.97262500e-01
-3.94032813e-08,1.97329688e-01
-3.93632812e-08,1.97275000e-01
-3.93232812e-08,1.97321875e-01
-3.92832812e-08,1.97279688e-01
-3.92432812e-08,1.97318750e-01
-3.92032812e-08,1.97281250e-01
-3.91632812e-08,1.97318750e-01
-3.91232813e-08,1.97281250e-01
-3.90832812e-08,1.97318750e-01
-3.90432812e-08,1.97279688e-01
-3.90032812e-08,1.97321875e-01
-3.89632812e-08,1.97276563e-01
-3.89232812e-08,1.97326562e-01
-3.88832812e-08,1.97268750e-01
-3.88432813e-08,1.97340625e-01
-3.88032812e-08,1.97234375e-01
-3.87632812e-08,1.97518750e-01
-3.87232812e-08,1.97742187e-01
-3.86832812e-08,1.97681250e-01
-3.86432812e-08,1.97709375e-01
-3.86032812e-08,1.97696875e-01
-3.85632813e-08,1.97700000e-01
-3.85232812e-08,1.97703125e-01
