trails/00d9de579c68e71117ffc152f8bf8771/aes_ch1_20250506165911789.csv

Model,MSO66B
Label,
Waveform Type,ANALOG
Horizontal Units,s
Sample Interval,4.00000000e-11
Record Length,10000
Zero Index,1599.08984375
Vertical Units,A
ANALOG_Thumbnail,
yOffset,1.84500000e-01
yPosition,8.40000000e-01

Labels,
TIME,CH1
-6.39635937e-08,1.66498438e-01
-6.39235937e-08,1.66512500e-01
-6.38835938e-08,1.66462500e-01
-6.38435937e-08,1.66690625e-01
-6.38035938e-08,1.66971875e-01
-6.37635937e-08,1.66851562e-01
-6.37235937e-08,1.66939063e-01
-6.36835937e-08,1.66864062e-01
-6.36435937e-08,1.66934375e-01
-6.36035938e-08,1.66865625e-01
-6.35635937e-08,1.66935938e-01
-6.35235938e-08,1.66860938e-01
-6.34835937e-08,1.66948438e-01
-6.34435937e-08,1.66826562e-01
-6.34035937e-08,1.67125000e-01
-6.33635937e-08,1.67337500e-01
-6.33235938e-08,1.67287500e-01
-6.32835937e-08,1.67303125e-01
-6.32435938e-08,1.67303125e-01
-6.32035937e-08,1.67292187e-01
-6.31635937e-08,1.67312500e-01
-6.31235937e-08,1.67281250e-01
-6.30835937e-08,1.67328125e-01
-6.30435938e-08,1.67246875e-01
-6.30035937e-08,1.67506250e-01
-6.29635938e-08,1.67756250e-01
-6.29235937e-08,1.67668750e-01
-6.28835937e-08,1.67723438e-01
-6.28435937e-08,1.67681250e-01
-6.28035937e-08,1.67715625e-01
-6.27635938e-08,1.67684375e-01
-6.27235937e-08,1.67715625e-01
-6.26835938e-08,1.67684375e-01
-6.26435937e-08,1.67718750e-01
-6.26035937e-08,1.67678125e-01
-6.25635937e-08,1.67731250e-01
-6.25235937e-08,1.67643750e-01
-6.24835938e-08,1.67907813e-01
-6.24435937e-08,1.68154688e-01
-6.24035938e-08,1.68068750e-01
-6.23635937e-08,1.68121875e-01
-6.23235937e-08,1.68082813e-01
-6.22835937e-08,1.68114062e-01
-6.22435937e-08,1.68087500e-01
-6.22035938e-08,1.68110938e-01
-6.21635937e-08,1.68090625e-01
-6.21235937e-08,1.68109375e-01
-6.20835937e-08,1.68090625e-01
-6.20435937e-08,1.68107813e-01
-6.20035937e-08,1.68092188e-01
-6.19635937e-08,1.68107813e-01
-6.19235938e-08,1.68092188e-01
-6.18835937e-08,1.68107813e-01
-6.18435937e-08,1.68092188e-01
-6.18035937e-08,1.68107813e-01
-6.17635937e-08,1.68092188e-01
-6.17235937e-08,1.68107813e-01
-6.16835937e-08,1.68092188e-01
-6.16435938e-08,1.68107813e-01
-6.16035937e-08,1.68092188e-01
-6.15635937e-08,1.68107813e-01
-6.15235937e-08,1.68092188e-01
-6.14835937e-08,1.68107813e-01
-6.14435937e-08,1.68090625e-01
-6.14035937e-08,1.68109375e-01
-6.13635938e-08,1.68090625e-01
-6.13235937e-08,1.68110938e-01
-6.12835937e-08,1.68087500e-01
-6.12435937e-08,1.68114062e-01
-6.12035937e-08,1.68082813e-01
-6.11635937e-08,1.68121875e-01
-6.11235937e-08,1.68068750e-01
-6.10835938e-08,1.68156250e-01
-6.10435937e-08,1.67890625e-01
-6.10035937e-08,1.67646875e-01
-6.09635937e-08,1.67729688e-01
-6.09235937e-08,1.67678125e-01
-6.08835937e-08,1.67717188e-01
-6.08435937e-08,1.67685937e-01
-6.08035938e-08,1.67712500e-01
-6.07635937e-08,1.67687500e-01
-6.07235937e-08,1.67712500e-01
-6.06835937e-08,1.67685937e-01
-6.06435937e-08,1.67717188e-01
-6.06035937e-08,1.67679688e-01
-6.05635937e-08,1.67729688e-01
-6.05235938e-08,1.67645313e-01
-6.04835937e-08,1.67907813e-01
-6.04435937e-08,1.68156250e-01
-6.04035937e-08,1.68067187e-01
-6.03635937e-08,1.68123438e-01
-6.03235938e-08,1.68081250e-01
-6.02835937e-08,1.68115625e-01
-6.02435938e-08,1.68085938e-01
-6.02035937e-08,1.68114062e-01
-6.01635937e-08,1.68087500e-01
-6.01235937e-08,1.68112500e-01
-6.00835937e-08,1.68087500e-01
-6.00435938e-08,1.68112500e-01
-6.00035937e-08,1.68087500e-01
-5.99635938e-08,1.68114062e-01
-5.99235937e-08,1.68085938e-01
-5.98835937e-08,1.68115625e-01
-5.98435937e-08,1.68082813e-01
-5.98035937e-08,1.68118750e-01
-5.97635938e-08,1.68078125e-01
-5.97235937e-08,1.68125000e-01
-5.96835938e-08,1.68068750e-01
-5.96435937e-08,1.68142188e-01
-5.96035937e-08,1.68029687e-01
-5.95635937e-08,1.68328125e-01
-5.95235937e-08,1.68525000e-01
-5.94835937e-08,1.68523438e-01
-5.94435937e-08,1.68314063e-01
-5.94035937e-08,1.68028125e-01
-5.93635937e-08,1.68145313e-01
-5.93235937e-08,1.68065625e-01
-5.92835937e-08,1.68128125e-01
-5.92435937e-08,1.68076562e-01
-5.92035937e-08,1.68121875e-01
-5.91635937e-08,1.68079688e-01
-5.91235937e-08,1.68118750e-01
-5.90835937e-08,1.68081250e-01
-5.90435937e-08,1.68118750e-01
-5.90035937e-08,1.68079688e-01
-5.89635937e-08,1.68120313e-01
-5.89235937e-08,1.68076562e-01
-5.88835937e-08,1.68128125e-01
-5.88435937e-08,1.68062500e-01
-5.88035937e-08,1.68162500e-01
-5.87635937e-08,1.67885937e-01
-5.87235937e-08,1.67651563e-01
-5.86835937e-08,1.67723438e-01
-5.86435937e-08,1.67684375e-01
-5.86035937e-08,1.67709375e-01
-5.85635937e-08,1.67692188e-01
-5.85235937e-08,1.67704688e-01
-5.84835937e-08,1.67696875e-01
-5.84435937e-08,1.67703125e-01
-5.84035937e-08,1.67698438e-01
-5.83635937e-08,1.67701563e-01
-5.83235937e-08,1.67700000e-01
-5.82835937e-08,1.67700000e-01
-5.82435937e-08,1.67701563e-01
-5.82035937e-08,1.67698438e-01
-5.81635937e-08,1.67701563e-01
-5.81235937e-08,1.67696875e-01
-5.80835937e-08,1.67703125e-01
-5.80435937e-08,1.67695312e-01
-5.80035937e-08,1.67704688e-01
-5.79635937e-08,1.67693750e-01
-5.79235937e-08,1.67707812e-01
-5.78835937e-08,1.67689063e-01
-5.78435937e-08,1.67714063e-01
-5.78035937e-08,1.67681250e-01
-5.77635937e-08,1.67729688e-01
-5.77235937e-08,1.67645313e-01
-5.76835937e-08,1.67907813e-01
-5.76435937e-08,1.68153125e-01
-5.76035937e-08,1.68071875e-01
-5.75635937e-08,1.68117188e-01
-5.75235937e-08,1.68090625e-01
-5.74835937e-08,1.68103125e-01
-5.74435937e-08,1.68107813e-01
-5.74035937e-08,1.68067187e-01
-5.73635937e-08,1.68285938e-01
-5.73235937e-08,1.68576562e-01
-5.72835937e-08,1.68445312e-01
-5.72435937e-08,1.68548438e-01
-5.72035937e-08,1.68451563e-01
-5.71635937e-08,1.68554687e-01
-5.71235937e-08,1.68421875e-01
-5.70835937e-08,1.68731250e-01
-5.70435937e-08,1.68931250e-01
-5.70035937e-08,1.68892188e-01
-5.69635937e-08,1.68896875e-01
-5.69235937e-08,1.68910937e-01
-5.68835937e-08,1.68882813e-01
-5.68435937e-08,1.68928125e-01
-5.68035937e-08,1.68845313e-01
-5.67635937e-08,1.69109375e-01
-5.67235937e-08,1.69353125e-01
-5.66835937e-08,1.69271875e-01
-5.66435937e-08,1.69318750e-01
-5.66035937e-08,1.69285938e-01
-5.65635937e-08,1.69310938e-01
-5.65235937e-08,1.69290625e-01
-5.64835937e-08,1.69307813e-01
-5.64435937e-08,1.69293750e-01
-5.64035937e-08,1.69304687e-01
-5.63635937e-08,1.69295313e-01
-5.63235937e-08,1.69303125e-01
-5.62835937e-08,1.69296875e-01
-5.62435937e-08,1.69303125e-01
-5.62035937e-08,1.69298438e-01
-5.61635937e-08,1.69301563e-01
-5.61235937e-08,1.69298438e-01
-5.60835937e-08,1.69301563e-01
-5.60435937e-08,1.69298438e-01
-5.60035937e-08,1.69301563e-01
-5.59635937e-08,1.69298438e-01
-5.59235937e-08,1.69300000e-01
-5.58835937e-08,1.69300000e-01
-5.58435937e-08,1.69300000e-01
-5.58035937e-08,1.69300000e-01
-5.57635937e-08,1.69300000e-01
-5.57235937e-08,1.69300000e-01
-5.56835937e-08,1.69300000e-01
-5.56435937e-08,1.69300000e-01
-5.56035937e-08,1.69300000e-01
-5.55635937e-08,1.69300000e-01
-5.55235937e-08,1.69300000e-01
-5.54835937e-08,1.69300000e-01
-5.54435937e-08,1.69298438e-01
-5.54035937e-08,1.69301563e-01
-5.53635937e-08,1.69298438e-01
-5.53235937e-08,1.69301563e-01
-5.52835937e-08,1.69298438e-01
-5.52435937e-08,1.69301563e-01
-5.52035937e-08,1.69298438e-01
-5.51635937e-08,1.69301563e-01
-5.51235937e-08,1.69298438e-01
-5.50835937e-08,1.69301563e-01
-5.50435937e-08,1.69298438e-01
-5.50035937e-08,1.69301563e-01
-5.49635937e-08,1.69298438e-01
-5.49235937e-08,1.69301563e-01
-5.48835937e-08,1.69296875e-01
-5.48435937e-08,1.69303125e-01
-5.48035937e-08,1.69296875e-01
-5.47635937e-08,1.69303125e-01
-5.47235937e-08,1.69296875e-01
-5.46835937e-08,1.69303125e-01
-5.46435937e-08,1.69296875e-01
-5.46035937e-08,1.69303125e-01
-5.45635937e-08,1.69295313e-01
-5.45235937e-08,1.69304687e-01
-5.44835937e-08,1.69295313e-01
-5.44435937e-08,1.69304687e-01
-5.44035937e-08,1.69295313e-01
-5.43635937e-08,1.69306250e-01
-5.43235937e-08,1.69293750e-01
-5.42835937e-08,1.69306250e-01
-5.42435937e-08,1.69292187e-01
-5.42035937e-08,1.69307813e-01
-5.41635937e-08,1.69290625e-01
-5.41235937e-08,1.69310938e-01
-5.40835937e-08,1.69287500e-01
-5.40435937e-08,1.69314063e-01
-5.40035937e-08,1.69282813e-01
-5.39635937e-08,1.69323438e-01
-5.39235937e-08,1.69267187e-01
-5.38835937e-08,1.69357813e-01
-5.38435937e-08,1.69089062e-01
-5.38035937e-08,1.68848438e-01
-5.37635937e-08,1.68926563e-01
-5.37235937e-08,1.68882813e-01
-5.36835937e-08,1.68910937e-01
-5.36435937e-08,1.68892188e-01
-5.36035937e-08,1.68904688e-01
-5.35635937e-08,1.68896875e-01
-5.35235937e-08,1.68901563e-01
-5.34835937e-08,1.68901563e-01
-5.34435937e-08,1.68896875e-01
-5.34035937e-08,1.68906250e-01
-5.33635937e-08,1.68890625e-01
-5.33235937e-08,1.68915625e-01
-5.32835937e-08,1.68875000e-01
-5.32435937e-08,1.68950000e-01
-5.32035937e-08,1.68696875e-01
-5.31635937e-08,1.68442188e-01
-5.31235937e-08,1.68534375e-01
-5.30835937e-08,1.68476563e-01
-5.30435937e-08,1.68518750e-01
-5.30035937e-08,1.68484375e-01
-5.29635937e-08,1.68514063e-01
-5.29235938e-08,1.68489063e-01
-5.28835937e-08,1.68509375e-01
-5.28435937e-08,1.68490625e-01
-5.28035937e-08,1.68507813e-01
-5.27635937e-08,1.68493750e-01
-5.27235937e-08,1.68506250e-01
-5.26835937e-08,1.68495312e-01
-5.26435937e-08,1.68503125e-01
-5.26035937e-08,1.68498438e-01
-5.25635937e-08,1.68500000e-01
-5.25235937e-08,1.68501563e-01
-5.24835937e-08,1.68495312e-01
-5.24435937e-08,1.68510938e-01
-5.24035937e-08,1.68479688e-01
-5.23635937e-08,1.68545313e-01
-5.23235937e-08,1.68301563e-01
-5.22835937e-08,1.68035938e-01
-5.22435937e-08,1.68140625e-01
-5.22035937e-08,1.68068750e-01
-5.21635937e-08,1.68126563e-01
-5.21235937e-08,1.68076562e-01
-5.20835937e-08,1.68121875e-01
-5.20435937e-08,1.68079688e-01
-5.20035937e-08,1.68120313e-01
-5.19635937e-08,1.68079688e-01
-5.19235937e-08,1.68120313e-01
-5.18835937e-08,1.68078125e-01
-5.18435937e-08,1.68121875e-01
-5.18035937e-08,1.68075000e-01
-5.17635937e-08,1.68129688e-01
-5.17235937e-08,1.68060938e-01
-5.16835937e-08,1.68162500e-01
-5.16435937e-08,1.67884375e-01
-5.16035937e-08,1.67653125e-01
-5.15635937e-08,1.67723438e-01
-5.15235937e-08,1.67685937e-01
-5.14835937e-08,1.67710938e-01
-5.14435937e-08,1.67692188e-01
-5.14035937e-08,1.67706250e-01
-5.13635937e-08,1.67693750e-01
-5.13235937e-08,1.67706250e-01
-5.12835937e-08,1.67693750e-01
-5.12435937e-08,1.67707812e-01
-5.12035937e-08,1.67689063e-01
-5.11635937e-08,1.67714063e-01
-5.11235937e-08,1.67676563e-01
-5.10835937e-08,1.67748438e-01
-5.10435937e-08,1.67500000e-01
-5.10035938e-08,1.67237500e-01
-5.09635937e-08,1.67339062e-01
-5.09235937e-08,1.67270313e-01
-5.08835937e-08,1.67325000e-01
-5.08435937e-08,1.67276563e-01
-5.08035937e-08,1.67321875e-01
-5.07635937e-08,1.67278125e-01
-5.07235938e-08,1.67321875e-01
-5.06835937e-08,1.67276563e-01
-5.06435937e-08,1.67326562e-01
-5.06035937e-08,1.67268750e-01
-5.05635937e-08,1.67340625e-01
-5.05235937e-08,1.67235938e-01
-5.04835937e-08,1.67517187e-01
-5.04435937e-08,1.67745312e-01
-5.04035937e-08,1.67678125e-01
-5.03635937e-08,1.67712500e-01
-5.03235937e-08,1.67692188e-01
-5.02835937e-08,1.67706250e-01
-5.02435937e-08,1.67695312e-01
-5.02035937e-08,1.67703125e-01
-5.01635937e-08,1.67696875e-01
-5.01235937e-08,1.67704688e-01
-5.00835937e-08,1.67695312e-01
-5.00435937e-08,1.67707812e-01
-5.00035937e-08,1.67689063e-01
-4.99635937e-08,1.67720312e-01
-4.99235937e-08,1.67656250e-01
-4.98835937e-08,1.67896875e-01
-4.98435937e-08,1.68167188e-01
-4.98035937e-08,1.68056250e-01
-4.97635937e-08,1.68135937e-01
-4.97235937e-08,1.68067187e-01
-4.96835937e-08,1.68131250e-01
-4.96435937e-08,1.68068750e-01
-4.96035937e-08,1.68134375e-01
-4.95635937e-08,1.68060938e-01
-4.95235937e-08,1.68148437e-01
-4.94835937e-08,1.68026563e-01
-4.94435937e-08,1.68326562e-01
-4.94035937e-08,1.68535938e-01
-4.93635937e-08,1.68489063e-01
-4.93235937e-08,1.68500000e-01
-4.92835937e-08,1.68506250e-01
-4.92435937e-08,1.68489063e-01
-4.92035937e-08,1.68515625e-01
-4.91635937e-08,1.68476563e-01
-4.91235937e-08,1.68534375e-01
-4.90835938e-08,1.68440625e-01
-4.90435937e-08,1.68714063e-01
-4.90035937e-08,1.68946875e-01
-4.89635937e-08,1.68878125e-01
-4.89235937e-08,1.68912500e-01
-4.88835937e-08,1.68893750e-01
-4.88435937e-08,1.68901563e-01
-4.88035938e-08,1.68903125e-01
-4.87635937e-08,1.68893750e-01
-4.87235937e-08,1.68910937e-01
-4.86835937e-08,1.68882813e-01
-4.86435937e-08,1.68928125e-01
-4.86035937e-08,1.68846875e-01
-4.85635937e-08,1.69107813e-01
-4.85235938e-08,1.69353125e-01
-4.84835937e-08,1.69270313e-01
-4.84435937e-08,1.69318750e-01
-4.84035937e-08,1.69287500e-01
-4.83635937e-08,1.69307813e-01
-4.83235937e-08,1.69295313e-01
-4.82835937e-08,1.69301563e-01
-4.82435937e-08,1.69303125e-01
-4.82035937e-08,1.69290625e-01
-4.81635937e-08,1.69318750e-01
-4.81235937e-08,1.69256250e-01
-4.80835937e-08,1.69496875e-01
-4.80435937e-08,1.69765625e-01
-4.80035937e-08,1.69659375e-01
-4.79635937e-08,1.69732812e-01
-4.79235937e-08,1.69671875e-01
-4.78835937e-08,1.69726563e-01
-4.78435937e-08,1.69673437e-01
-4.78035937e-08,1.69728125e-01
-4.77635937e-08,1.69668750e-01
-4.77235937e-08,1.69740625e-01
-4.76835937e-08,1.69635938e-01
-4.76435937e-08,1.69917188e-01
-4.76035937e-08,1.70145313e-01
-4.75635937e-08,1.70078125e-01
-4.75235937e-08,1.70110938e-01
-4.74835937e-08,1.70093750e-01
-4.74435937e-08,1.70101562e-01
-4.74035937e-08,1.70103125e-01
-4.73635937e-08,1.70092188e-01
-4.73235937e-08,1.70118750e-01
-4.72835937e-08,1.70056250e-01
-4.72435937e-08,1.70295313e-01
-4.72035937e-08,1.70567187e-01
-4.71635938e-08,1.70456250e-01
-4.71235937e-08,1.70535938e-01
-4.70835937e-08,1.70467188e-01
-4.70435937e-08,1.70534375e-01
-4.70035937e-08,1.70462500e-01
-4.69635937e-08,1.70545313e-01
-4.69235937e-08,1.70431250e-01
-4.68835938e-08,1.70721875e-01
-4.68435937e-08,1.70940625e-01
-4.68035937e-08,1.70882813e-01
-4.67635937e-08,1.70907813e-01
-4.67235937e-08,1.70898438e-01
-4.66835937e-08,1.70898438e-01
-4.66435937e-08,1.70904688e-01
-4.66035938e-08,1.70890625e-01
-4.65635937e-08,1.70912500e-01
-4.65235937e-08,1.70881250e-01
-4.64835937e-08,1.70928125e-01
-4.64435937e-08,1.70846875e-01
-4.64035937e-08,1.71107813e-01
-4.63635937e-08,1.71354688e-01
-4.63235938e-08,1.71268750e-01
-4.62835937e-08,1.71321875e-01
-4.62435937e-08,1.71284375e-01
-4.62035937e-08,1.71312500e-01
-4.61635937e-08,1.71289063e-01
-4.61235937e-08,1.71309375e-01
-4.60835937e-08,1.71292187e-01
-4.60435937e-08,1.71307813e-01
-4.60035937e-08,1.71293750e-01
-4.59635937e-08,1.71306250e-01
-4.59235937e-08,1.71295313e-01
-4.58835937e-08,1.71304687e-01
-4.58435937e-08,1.71295313e-01
-4.58035937e-08,1.71304687e-01
-4.57635937e-08,1.71295313e-01
-4.57235937e-08,1.71304687e-01
-4.56835937e-08,1.71295313e-01
-4.56435937e-08,1.71303125e-01
-4.56035937e-08,1.71296875e-01
-4.55635937e-08,1.71304687e-01
-4.55235937e-08,1.71295313e-01
-4.54835937e-08,1.71304687e-01
-4.54435937e-08,1.71295313e-01
-4.54035937e-08,1.71304687e-01
-4.53635937e-08,1.71295313e-01
-4.53235937e-08,1.71306250e-01
-4.52835937e-08,1.71293750e-01
-4.52435938e-08,1.71307813e-01
-4.52035937e-08,1.71290625e-01
-4.51635937e-08,1.71310938e-01
-4.51235937e-08,1.71285938e-01
-4.50835937e-08,1.71318750e-01
-4.50435937e-08,1.71271875e-01
-4.50035937e-08,1.71353125e-01
-4.49635938e-08,1.71093750e-01
-4.49235937e-08,1.70843750e-01
-4.48835937e-08,1.70931250e-01
-4.48435937e-08,1.70878125e-01
-4.48035937e-08,1.70917188e-01
-4.47635937e-08,1.70885938e-01
-4.47235937e-08,1.70910937e-01
-4.46835938e-08,1.70892188e-01
-4.46435937e-08,1.70906250e-01
-4.46035937e-08,1.70896875e-01
-4.45635937e-08,1.70900000e-01
-4.45235937e-08,1.70904688e-01
-4.44835937e-08,1.70885938e-01
-4.44435937e-08,1.70939063e-01
-4.44035938e-08,1.70707813e-01
-4.43635937e-08,1.70428125e-01
-4.43235937e-08,1.70548438e-01
-4.42835937e-08,1.70460938e-01
-4.42435937e-08,1.70535938e-01
-4.42035937e-08,1.70465625e-01
-4.41635937e-08,1.70534375e-01
-4.41235938e-08,1.70464063e-01
-4.40835937e-08,1.70540625e-01
-4.40435937e-08,1.70450000e-01
-4.40035937e-08,1.70575000e-01
-4.39635937e-08,1.70271875e-01
-4.39235937e-08,1.70065625e-01
-4.38835937e-08,1.70110938e-01
-4.38435937e-08,1.70098438e-01
-4.38035937e-08,1.70095313e-01
-4.37635937e-08,1.70109375e-01
-4.37235937e-08,1.70087500e-01
-4.36835937e-08,1.70115625e-01
-4.36435937e-08,1.70079687e-01
-4.36035937e-08,1.70126562e-01
-4.35635937e-08,1.70064063e-01
-4.35235937e-08,1.70162500e-01
-4.34835937e-08,1.69884375e-01
-4.34435937e-08,1.69654688e-01
-4.34035937e-08,1.69721875e-01
-4.33635937e-08,1.69687500e-01
-4.33235938e-08,1.69706250e-01
-4.32835937e-08,1.69696875e-01
-4.32435937e-08,1.69700000e-01
-4.32035937e-08,1.69701563e-01
-4.31635937e-08,1.69696875e-01
-4.31235937e-08,1.69704688e-01
-4.30835937e-08,1.69693750e-01
-4.30435938e-08,1.69707812e-01
-4.30035937e-08,1.69690625e-01
-4.29635937e-08,1.69710937e-01
-4.29235937e-08,1.69685937e-01
-4.28835937e-08,1.69717188e-01
-4.28435937e-08,1.69679688e-01
-4.28035937e-08,1.69725000e-01
-4.27635938e-08,1.69664063e-01
-4.27235937e-08,1.69760938e-01
-4.26835937e-08,1.69484375e-01
-4.26435937e-08,1.69253125e-01
-4.26035937e-08,1.69321875e-01
-4.25635937e-08,1.69287500e-01
-4.25235937e-08,1.69306250e-01
-4.24835938e-08,1.69296875e-01
-4.24435937e-08,1.69300000e-01
-4.24035937e-08,1.69301563e-01
-4.23635937e-08,1.69295313e-01
-4.23235937e-08,1.69306250e-01
-4.22835937e-08,1.69292187e-01
-4.22435937e-08,1.69309375e-01
-4.22035938e-08,1.69287500e-01
-4.21635937e-08,1.69315625e-01
-4.21235937e-08,1.69281250e-01
-4.20835937e-08,1.69325000e-01
-4.20435937e-08,1.69264063e-01
-4.20035937e-08,1.69362500e-01
-4.19635937e-08,1.69084375e-01
-4.19235938e-08,1.68854688e-01
-4.18835937e-08,1.68920313e-01
-4.18435937e-08,1.68890625e-01
-4.18035937e-08,1.68901563e-01
-4.17635937e-08,1.68904688e-01
-4.17235937e-08,1.68890625e-01
-4.16835937e-08,1.68917188e-01
-4.16435937e-08,1.68871875e-01
-4.16035937e-08,1.68954688e-01
-4.15635937e-08,1.68690625e-01
-4.15235937e-08,1.68450000e-01
-4.14835937e-08,1.68525000e-01
-4.14435937e-08,1.68487500e-01
-4.14035938e-08,1.68503125e-01
-4.13635937e-08,1.68504687e-01
-4.13235937e-08,1.68482812e-01
-4.12835937e-08,1.68543750e-01
-4.12435937e-08,1.68301563e-01
-4.12035937e-08,1.68037500e-01
-4.11635937e-08,1.68137500e-01
-4.11235938e-08,1.68071875e-01
-4.10835937e-08,1.68121875e-01
-4.10435937e-08,1.68081250e-01
-4.10035937e-08,1.68115625e-01
-4.09635937e-08,1.68085938e-01
-4.09235937e-08,1.68112500e-01
-4.08835937e-08,1.68089062e-01
-4.08435938e-08,1.68109375e-01
-4.08035937e-08,1.68092188e-01
-4.07635937e-08,1.68107813e-01
-4.07235937e-08,1.68093750e-01
-4.06835937e-08,1.68106250e-01
-4.06435937e-08,1.68095313e-01
-4.06035937e-08,1.68104688e-01
-4.05635938e-08,1.68096875e-01
-4.05235937e-08,1.68103125e-01
-4.04835937e-08,1.68098438e-01
-4.04435937e-08,1.68101562e-01
-4.04035937e-08,1.68098438e-01
-4.03635937e-08,1.68100000e-01
-4.03235937e-08,1.68100000e-01
-4.02835938e-08,1.68098438e-01
-4.02435937e-08,1.68103125e-01
-4.02035937e-08,1.68095313e-01
-4.01635937e-08,1.68106250e-01
-4.01235937e-08,1.68092188e-01
-4.00835937e-08,1.68110938e-01
-4.00435937e-08,1.68084375e-01
-4.00035938e-08,1.68125000e-01
-3.99635937e-08,1.68050000e-01
-3.99235937e-08,1.68303125e-01
-3.98835937e-08,1.68559375e-01
-3.98435937e-08,1.68464063e-01
-3.98035937e-08,1.68528125e-01
-3.97635937e-08,1.68475000e-01
-3.97235937e-08,1.68523438e-01
-3.96835937e-08,1.68473438e-01
-3.96435937e-08,1.68532813e-01
-3.96035937e-08,1.68443750e-01
-3.95635937e-08,1.68707812e-01
-3.95235937e-08,1.68956250e-01
-3.94835938e-08,1.68865625e-01
-3.94435937e-08,1.68928125e-01
-3.94035937e-08,1.68875000e-01
-3.93635937e-08,1.68926563e-01
-3.93235937e-08,1.68870313e-01
-3.92835937e-08,1.68939063e-01
-3.92435937e-08,1.68835938e-01
-3.92035938e-08,1.69117188e-01
-3.91635937e-08,1.69345313e-01
-3.91235937e-08,1.69278125e-01
-3.90835937e-08,1.69310938e-01
-3.90435937e-08,1.69295313e-01
-3.90035937e-08,1.69301563e-01
-3.89635937e-08,1.69301563e-01
-3.89235938e-08,1.69293750e-01
-3.88835937e-08,1.69310938e-01
-3.88435937e-08,1.69282813e-01
-3.88035937e-08,1.69326562e-01
-3.87635937e-08,1.69246875e-01
-3.87235937e-08,1.69506250e-01
-3.86835937e-08,1.69754688e-01
-3.86435938e-08,1.69670313e-01
-3.86035937e-08,1.69720312e-01
-3.85635937e-08,1.69685937e-01
-3.85235937e-08,1.69710937e-01
