trails/00d9de579c68e71117ffc152f8bf8771/aes_ch1_20250506165831414.csv

Model,MSO66B
Label,
Waveform Type,ANALOG
Horizontal Units,s
Sample Interval,4.00000000e-11
Record Length,10000
Zero Index,1599.09375000
Vertical Units,A
ANALOG_Thumbnail,
yOffset,1.84500000e-01
yPosition,8.40000000e-01

Labels,
TIME,CH1
-6.39637500e-08,1.71289063e-01
-6.39237500e-08,1.71307813e-01
-6.38837500e-08,1.71295313e-01
-6.38437500e-08,1.71304687e-01
-6.38037500e-08,1.71296875e-01
-6.37637500e-08,1.71301563e-01
-6.37237500e-08,1.71298438e-01
-6.36837500e-08,1.71300000e-01
-6.36437500e-08,1.71300000e-01
-6.36037500e-08,1.71300000e-01
-6.35637500e-08,1.71301563e-01
-6.35237500e-08,1.71298438e-01
-6.34837500e-08,1.71301563e-01
-6.34437500e-08,1.71298438e-01
-6.34037500e-08,1.71301563e-01
-6.33637500e-08,1.71298438e-01
-6.33237500e-08,1.71303125e-01
-6.32837500e-08,1.71296875e-01
-6.32437500e-08,1.71303125e-01
-6.32037500e-08,1.71296875e-01
-6.31637500e-08,1.71303125e-01
-6.31237500e-08,1.71296875e-01
-6.30837500e-08,1.71303125e-01
-6.30437500e-08,1.71296875e-01
-6.30037500e-08,1.71303125e-01
-6.29637500e-08,1.71296875e-01
-6.29237500e-08,1.71304687e-01
-6.28837500e-08,1.71295313e-01
-6.28437500e-08,1.71304687e-01
-6.28037500e-08,1.71295313e-01
-6.27637500e-08,1.71304687e-01
-6.27237500e-08,1.71295313e-01
-6.26837500e-08,1.71304687e-01
-6.26437500e-08,1.71295313e-01
-6.26037500e-08,1.71304687e-01
-6.25637500e-08,1.71295313e-01
-6.25237500e-08,1.71304687e-01
-6.24837500e-08,1.71295313e-01
-6.24437500e-08,1.71306250e-01
-6.24037500e-08,1.71293750e-01
-6.23637500e-08,1.71306250e-01
-6.23237500e-08,1.71293750e-01
-6.22837500e-08,1.71306250e-01
-6.22437500e-08,1.71293750e-01
-6.22037500e-08,1.71306250e-01
-6.21637500e-08,1.71293750e-01
-6.21237500e-08,1.71306250e-01
-6.20837500e-08,1.71293750e-01
-6.20437500e-08,1.71306250e-01
-6.20037500e-08,1.71293750e-01
-6.19637500e-08,1.71307813e-01
-6.19237500e-08,1.71292187e-01
-6.18837500e-08,1.71307813e-01
-6.18437500e-08,1.71292187e-01
-6.18037500e-08,1.71307813e-01
-6.17637500e-08,1.71292187e-01
-6.17237500e-08,1.71307813e-01
-6.16837500e-08,1.71292187e-01
-6.16437500e-08,1.71307813e-01
-6.16037500e-08,1.71290625e-01
-6.15637500e-08,1.71309375e-01
-6.15237500e-08,1.71290625e-01
-6.14837500e-08,1.71309375e-01
-6.14437500e-08,1.71290625e-01
-6.14037500e-08,1.71309375e-01
-6.13637500e-08,1.71290625e-01
-6.13237500e-08,1.71310938e-01
-6.12837500e-08,1.71289063e-01
-6.12437500e-08,1.71310938e-01
-6.12037500e-08,1.71289063e-01
-6.11637500e-08,1.71310938e-01
-6.11237500e-08,1.71287500e-01
-6.10837500e-08,1.71312500e-01
-6.10437500e-08,1.71287500e-01
-6.10037500e-08,1.71314063e-01
-6.09637500e-08,1.71285938e-01
-6.09237500e-08,1.71314063e-01
-6.08837500e-08,1.71284375e-01
-6.08437500e-08,1.71317187e-01
-6.08037500e-08,1.71282812e-01
-6.07637500e-08,1.71318750e-01
-6.07237500e-08,1.71279687e-01
-6.06837500e-08,1.71323438e-01
-6.06437500e-08,1.71273438e-01
-6.06037500e-08,1.71332813e-01
-6.05637500e-08,1.71257812e-01
-6.05237500e-08,1.71367188e-01
-6.04837500e-08,1.71079687e-01
-6.04437500e-08,1.70859375e-01
-6.04037500e-08,1.70917188e-01
-6.03637500e-08,1.70893750e-01
-6.03237500e-08,1.70901562e-01
-6.02837500e-08,1.70903125e-01
-6.02437500e-08,1.70893750e-01
-6.02037500e-08,1.70907813e-01
-6.01637500e-08,1.70889062e-01
-6.01237500e-08,1.70912500e-01
-6.00837500e-08,1.70884375e-01
-6.00437500e-08,1.70918750e-01
-6.00037500e-08,1.70876562e-01
-5.99637500e-08,1.70928125e-01
-5.99237500e-08,1.70860938e-01
-5.98837500e-08,1.70965625e-01
-5.98437500e-08,1.70679688e-01
-5.98037500e-08,1.70459375e-01
-5.97637500e-08,1.70515625e-01
-5.97237500e-08,1.70495312e-01
-5.96837500e-08,1.70498438e-01
-5.96437500e-08,1.70507812e-01
-5.96037500e-08,1.70485938e-01
-5.95637500e-08,1.70520312e-01
-5.95237500e-08,1.70467188e-01
-5.94837500e-08,1.70559375e-01
-5.94437500e-08,1.70285938e-01
-5.94037500e-08,1.70053125e-01
-5.93637500e-08,1.70121875e-01
-5.93237500e-08,1.70089062e-01
-5.92837500e-08,1.70103125e-01
-5.92437500e-08,1.70103125e-01
-5.92037500e-08,1.70092188e-01
-5.91637500e-08,1.70115625e-01
-5.91237500e-08,1.70073438e-01
-5.90837500e-08,1.70153125e-01
-5.90437500e-08,1.69892188e-01
-5.90037500e-08,1.69646875e-01
-5.89637500e-08,1.69728125e-01
-5.89237500e-08,1.69682813e-01
-5.88837500e-08,1.69710937e-01
-5.88437500e-08,1.69693750e-01
-5.88037500e-08,1.69701563e-01
-5.87637500e-08,1.69703125e-01
-5.87237500e-08,1.69692188e-01
-5.86837500e-08,1.69714063e-01
-5.86437500e-08,1.69675000e-01
-5.86037500e-08,1.69750000e-01
-5.85637500e-08,1.69495312e-01
-5.85237500e-08,1.69242188e-01
-5.84837500e-08,1.69332813e-01
-5.84437500e-08,1.69278125e-01
-5.84037500e-08,1.69317187e-01
-5.83637500e-08,1.69287500e-01
-5.83237500e-08,1.69309375e-01
-5.82837500e-08,1.69292187e-01
-5.82437500e-08,1.69306250e-01
-5.82037500e-08,1.69295313e-01
-5.81637500e-08,1.69303125e-01
-5.81237500e-08,1.69298438e-01
-5.80837500e-08,1.69300000e-01
-5.80437500e-08,1.69301563e-01
-5.80037500e-08,1.69296875e-01
-5.79637500e-08,1.69306250e-01
-5.79237500e-08,1.69290625e-01
-5.78837500e-08,1.69312500e-01
-5.78437500e-08,1.69281250e-01
-5.78037500e-08,1.69328125e-01
-5.77637500e-08,1.69245312e-01
-5.77237500e-08,1.69507812e-01
-5.76837500e-08,1.69753125e-01
-5.76437500e-08,1.69671875e-01
-5.76037500e-08,1.69718750e-01
-5.75637500e-08,1.69687500e-01
-5.75237500e-08,1.69707812e-01
-5.74837500e-08,1.69695313e-01
-5.74437500e-08,1.69701563e-01
-5.74037500e-08,1.69703125e-01
-5.73637500e-08,1.69690625e-01
-5.73237500e-08,1.69720312e-01
-5.72837500e-08,1.69654688e-01
-5.72437500e-08,1.69898437e-01
-5.72037500e-08,1.70164063e-01
-5.71637500e-08,1.70059375e-01
-5.71237500e-08,1.70131250e-01
-5.70837500e-08,1.70071875e-01
-5.70437500e-08,1.70126562e-01
-5.70037500e-08,1.70071875e-01
-5.69637500e-08,1.70135938e-01
-5.69237500e-08,1.70042187e-01
-5.68837500e-08,1.70307813e-01
-5.68437500e-08,1.70556250e-01
-5.68037500e-08,1.70464063e-01
-5.67637500e-08,1.70531250e-01
-5.67237500e-08,1.70468750e-01
-5.66837500e-08,1.70539063e-01
-5.66437500e-08,1.70435937e-01
-5.66037500e-08,1.70715625e-01
-5.65637500e-08,1.70945313e-01
-5.65237500e-08,1.70878125e-01
-5.64837500e-08,1.70910937e-01
-5.64437500e-08,1.70896875e-01
-5.64037500e-08,1.70895313e-01
-5.63637500e-08,1.70915625e-01
-5.63237500e-08,1.70857813e-01
-5.62837500e-08,1.71095313e-01
-5.62437500e-08,1.71367188e-01
-5.62037500e-08,1.71254688e-01
-5.61637500e-08,1.71337500e-01
-5.61237500e-08,1.71264063e-01
-5.60837500e-08,1.71342188e-01
-5.60437500e-08,1.71235938e-01
-5.60037500e-08,1.71514063e-01
-5.59637500e-08,1.71750000e-01
-5.59237500e-08,1.71670313e-01
-5.58837500e-08,1.71721875e-01
-5.58437500e-08,1.71679688e-01
-5.58037500e-08,1.71721875e-01
-5.57637500e-08,1.71675000e-01
-5.57237500e-08,1.71734375e-01
-5.56837500e-08,1.71640625e-01
-5.56437500e-08,1.71912500e-01
-5.56037500e-08,1.72150000e-01
-5.55637500e-08,1.72075000e-01
-5.55237500e-08,1.72115625e-01
-5.54837500e-08,1.72090625e-01
-5.54437500e-08,1.72104688e-01
-5.54037500e-08,1.72098438e-01
-5.53637500e-08,1.72098438e-01
-5.53237500e-08,1.72106250e-01
-5.52837500e-08,1.72087500e-01
-5.52437500e-08,1.72123438e-01
-5.52037500e-08,1.72051563e-01
-5.51637500e-08,1.72301563e-01
-5.51237500e-08,1.72559375e-01
-5.50837500e-08,1.72465625e-01
-5.50437500e-08,1.72525000e-01
-5.50037500e-08,1.72481250e-01
-5.49637500e-08,1.72515625e-01
-5.49237500e-08,1.72487500e-01
-5.48837500e-08,1.72510938e-01
-5.48437500e-08,1.72490625e-01
-5.48037500e-08,1.72507812e-01
-5.47637500e-08,1.72493750e-01
-5.47237500e-08,1.72503125e-01
-5.46837500e-08,1.72498438e-01
-5.46437500e-08,1.72498438e-01
-5.46037500e-08,1.72504688e-01
-5.45637500e-08,1.72490625e-01
-5.45237500e-08,1.72520312e-01
-5.44837500e-08,1.72454688e-01
-5.44437500e-08,1.72698437e-01
-5.44037500e-08,1.72964063e-01
-5.43637500e-08,1.72860938e-01
-5.43237500e-08,1.72929688e-01
-5.42837500e-08,1.72875000e-01
-5.42437500e-08,1.72921875e-01
-5.42037500e-08,1.72881250e-01
-5.41637500e-08,1.72917188e-01
-5.41237500e-08,1.72884375e-01
-5.40837500e-08,1.72915625e-01
-5.40437500e-08,1.72885938e-01
-5.40037500e-08,1.72914062e-01
-5.39637500e-08,1.72885938e-01
-5.39237500e-08,1.72912500e-01
-5.38837500e-08,1.72887500e-01
-5.38437500e-08,1.72912500e-01
-5.38037500e-08,1.72887500e-01
-5.37637500e-08,1.72912500e-01
-5.37237500e-08,1.72887500e-01
-5.36837500e-08,1.72910938e-01
-5.36437500e-08,1.72889062e-01
-5.36037500e-08,1.72910938e-01
-5.35637500e-08,1.72889062e-01
-5.35237500e-08,1.72912500e-01
-5.34837500e-08,1.72887500e-01
-5.34437500e-08,1.72912500e-01
-5.34037500e-08,1.72887500e-01
-5.33637500e-08,1.72912500e-01
-5.33237500e-08,1.72885938e-01
-5.32837500e-08,1.72914062e-01
-5.32437500e-08,1.72884375e-01
-5.32037500e-08,1.72917188e-01
-5.31637500e-08,1.72879688e-01
-5.31237500e-08,1.72925000e-01
-5.30837500e-08,1.72864062e-01
-5.30437500e-08,1.72959375e-01
-5.30037500e-08,1.72687500e-01
-5.29637500e-08,1.72450000e-01
-5.29237500e-08,1.72525000e-01
-5.28837500e-08,1.72482812e-01
-5.28437500e-08,1.72510938e-01
-5.28037500e-08,1.72490625e-01
-5.27637500e-08,1.72506250e-01
-5.27237500e-08,1.72495312e-01
-5.26837500e-08,1.72504688e-01
-5.26437500e-08,1.72496875e-01
-5.26037500e-08,1.72503125e-01
-5.25637500e-08,1.72496875e-01
-5.25237500e-08,1.72503125e-01
-5.24837500e-08,1.72498438e-01
-5.24437500e-08,1.72501563e-01
-5.24037500e-08,1.72498438e-01
-5.23637500e-08,1.72501563e-01
-5.23237500e-08,1.72498438e-01
-5.22837500e-08,1.72501563e-01
-5.22437500e-08,1.72498438e-01
-5.22037500e-08,1.72501563e-01
-5.21637500e-08,1.72498438e-01
-5.21237500e-08,1.72501563e-01
-5.20837500e-08,1.72498438e-01
-5.20437500e-08,1.72501563e-01
-5.20037500e-08,1.72498438e-01
-5.19637500e-08,1.72501563e-01
-5.19237500e-08,1.72498438e-01
-5.18837500e-08,1.72501563e-01
-5.18437500e-08,1.72498438e-01
-5.18037500e-08,1.72503125e-01
-5.17637500e-08,1.72496875e-01
-5.17237500e-08,1.72503125e-01
-5.16837500e-08,1.72496875e-01
-5.16437500e-08,1.72503125e-01
-5.16037500e-08,1.72495312e-01
-5.15637500e-08,1.72504688e-01
-5.15237500e-08,1.72493750e-01
-5.14837500e-08,1.72506250e-01
-5.14437500e-08,1.72492188e-01
-5.14037500e-08,1.72509375e-01
-5.13637500e-08,1.72487500e-01
-5.13237500e-08,1.72517188e-01
-5.12837500e-08,1.72473437e-01
-5.12437500e-08,1.72551563e-01
-5.12037500e-08,1.72295313e-01
-5.11637500e-08,1.72042187e-01
-5.11237500e-08,1.72134375e-01
-5.10837500e-08,1.72075000e-01
-5.10437500e-08,1.72121875e-01
-5.10037500e-08,1.72079687e-01
-5.09637500e-08,1.72118750e-01
-5.09237500e-08,1.72079687e-01
-5.08837500e-08,1.72123438e-01
-5.08437500e-08,1.72067187e-01
-5.08037500e-08,1.72156250e-01
-5.07637500e-08,1.71892188e-01
-5.07237500e-08,1.71643750e-01
-5.06837500e-08,1.71732812e-01
-5.06437500e-08,1.71673437e-01
-5.06037500e-08,1.71723438e-01
-5.05637500e-08,1.71676563e-01
-5.05237500e-08,1.71726563e-01
-5.04837500e-08,1.71664062e-01
-5.04437500e-08,1.71759375e-01
-5.04037500e-08,1.71487500e-01
-5.03637500e-08,1.71250000e-01
-5.03237500e-08,1.71326563e-01
-5.02837500e-08,1.71281250e-01
-5.02437500e-08,1.71314063e-01
-5.02037500e-08,1.71289063e-01
-5.01637500e-08,1.71309375e-01
-5.01237500e-08,1.71292187e-01
-5.00837500e-08,1.71306250e-01
-5.00437500e-08,1.71295313e-01
-5.00037500e-08,1.71304687e-01
-4.99637500e-08,1.71295313e-01
-4.99237500e-08,1.71303125e-01
-4.98837500e-08,1.71296875e-01
-4.98437500e-08,1.71303125e-01
-4.98037500e-08,1.71296875e-01
-4.97637500e-08,1.71301563e-01
-4.97237500e-08,1.71298438e-01
-4.96837500e-08,1.71301563e-01
-4.96437500e-08,1.71298438e-01
-4.96037500e-08,1.71300000e-01
-4.95637500e-08,1.71300000e-01
-4.95237500e-08,1.71300000e-01
-4.94837500e-08,1.71300000e-01
-4.94437500e-08,1.71298438e-01
-4.94037500e-08,1.71301563e-01
-4.93637500e-08,1.71296875e-01
-4.93237500e-08,1.71303125e-01
-4.92837500e-08,1.71295313e-01
-4.92437500e-08,1.71306250e-01
-4.92037500e-08,1.71292187e-01
-4.91637500e-08,1.71310938e-01
-4.91237500e-08,1.71284375e-01
-4.90837500e-08,1.71325000e-01
-4.90437500e-08,1.71250000e-01
-4.90037500e-08,1.71503125e-01
-4.89637500e-08,1.71760938e-01
-4.89237500e-08,1.71662500e-01
-4.88837500e-08,1.71728125e-01
-4.88437500e-08,1.71676563e-01
-4.88037500e-08,1.71721875e-01
-4.87637500e-08,1.71678125e-01
-4.87237500e-08,1.71723438e-01
-4.86837500e-08,1.71673437e-01
-4.86437500e-08,1.71735938e-01
-4.86037500e-08,1.71640625e-01
-4.85637500e-08,1.71912500e-01
-4.85237500e-08,1.72151562e-01
-4.84837500e-08,1.72071875e-01
-4.84437500e-08,1.72120313e-01
-4.84037500e-08,1.72084375e-01
-4.83637500e-08,1.72114062e-01
-4.83237500e-08,1.72085938e-01
-4.82837500e-08,1.72114062e-01
-4.82437500e-08,1.72084375e-01
-4.82037500e-08,1.72117188e-01
-4.81637500e-08,1.72078125e-01
-4.81237500e-08,1.72131250e-01
-4.80837500e-08,1.72043750e-01
-4.80437500e-08,1.72307813e-01
-4.80037500e-08,1.72554687e-01
-4.79637500e-08,1.72470313e-01
-4.79237500e-08,1.72520312e-01
-4.78837500e-08,1.72484375e-01
-4.78437500e-08,1.72514063e-01
-4.78037500e-08,1.72489063e-01
-4.77637500e-08,1.72509375e-01
-4.77237500e-08,1.72490625e-01
-4.76837500e-08,1.72507812e-01
-4.76437500e-08,1.72492188e-01
-4.76037500e-08,1.72507812e-01
-4.75637500e-08,1.72493750e-01
-4.75237500e-08,1.72506250e-01
-4.74837500e-08,1.72493750e-01
-4.74437500e-08,1.72506250e-01
-4.74037500e-08,1.72493750e-01
-4.73637500e-08,1.72504688e-01
-4.73237500e-08,1.72495312e-01
-4.72837500e-08,1.72504688e-01
-4.72437500e-08,1.72495312e-01
-4.72037500e-08,1.72504688e-01
-4.71637500e-08,1.72495312e-01
-4.71237500e-08,1.72504688e-01
-4.70837500e-08,1.72495312e-01
-4.70437500e-08,1.72504688e-01
-4.70037500e-08,1.72495312e-01
-4.69637500e-08,1.72504688e-01
-4.69237500e-08,1.72495312e-01
-4.68837500e-08,1.72504688e-01
-4.68437500e-08,1.72493750e-01
-4.68037500e-08,1.72506250e-01
-4.67637500e-08,1.72493750e-01
-4.67237500e-08,1.72506250e-01
-4.66837500e-08,1.72493750e-01
-4.66437500e-08,1.72507812e-01
-4.66037500e-08,1.72492188e-01
-4.65637500e-08,1.72509375e-01
-4.65237500e-08,1.72489063e-01
-4.64837500e-08,1.72512500e-01
-4.64437500e-08,1.72484375e-01
-4.64037500e-08,1.72520312e-01
-4.63637500e-08,1.72470313e-01
-4.63237500e-08,1.72554687e-01
-4.62837500e-08,1.72292187e-01
-4.62437500e-08,1.72045313e-01
-4.62037500e-08,1.72131250e-01
-4.61637500e-08,1.72078125e-01
-4.61237500e-08,1.72117188e-01
-4.60837500e-08,1.72084375e-01
-4.60437500e-08,1.72114062e-01
-4.60037500e-08,1.72087500e-01
-4.59637500e-08,1.72112500e-01
-4.59237500e-08,1.72087500e-01
-4.58837500e-08,1.72112500e-01
-4.58437500e-08,1.72087500e-01
-4.58037500e-08,1.72114062e-01
-4.57637500e-08,1.72082813e-01
-4.57237500e-08,1.72121875e-01
-4.56837500e-08,1.72068750e-01
-4.56437500e-08,1.72154688e-01
-4.56037500e-08,1.71892188e-01
-4.55637500e-08,1.71645313e-01
-4.55237500e-08,1.71732812e-01
-4.54837500e-08,1.71676563e-01
-4.54437500e-08,1.71718750e-01
-4.54037500e-08,1.71682813e-01
-4.53637500e-08,1.71717188e-01
-4.53237500e-08,1.71682813e-01
-4.52837500e-08,1.71720312e-01
-4.52437500e-08,1.71676563e-01
-4.52037500e-08,1.71732812e-01
-4.51637500e-08,1.71643750e-01
-4.51237500e-08,1.71909375e-01
-4.50837500e-08,1.72153125e-01
-4.50437500e-08,1.72070313e-01
-4.50037500e-08,1.72120313e-01
-4.49637500e-08,1.72084375e-01
-4.49237500e-08,1.72114062e-01
-4.48837500e-08,1.72087500e-01
-4.48437500e-08,1.72110938e-01
-4.48037500e-08,1.72089063e-01
-4.47637500e-08,1.72109375e-01
-4.47237500e-08,1.72090625e-01
-4.46837500e-08,1.72109375e-01
-4.46437500e-08,1.72089063e-01
-4.46037500e-08,1.72110938e-01
-4.45637500e-08,1.72089063e-01
-4.45237500e-08,1.72112500e-01
-4.44837500e-08,1.72085938e-01
-4.44437500e-08,1.72117188e-01
-4.44037500e-08,1.72078125e-01
-4.43637500e-08,1.72131250e-01
-4.43237500e-08,1.72043750e-01
-4.42837500e-08,1.72309375e-01
-4.42437500e-08,1.72553125e-01
-4.42037500e-08,1.72470313e-01
-4.41637500e-08,1.72520312e-01
-4.41237500e-08,1.72484375e-01
-4.40837500e-08,1.72512500e-01
-4.40437500e-08,1.72489063e-01
-4.40037500e-08,1.72509375e-01
-4.39637500e-08,1.72490625e-01
-4.39237500e-08,1.72507812e-01
-4.38837500e-08,1.72492188e-01
-4.38437500e-08,1.72507812e-01
-4.38037500e-08,1.72492188e-01
-4.37637500e-08,1.72509375e-01
-4.37237500e-08,1.72490625e-01
-4.36837500e-08,1.72510938e-01
-4.36437500e-08,1.72487500e-01
-4.36037500e-08,1.72515625e-01
-4.35637500e-08,1.72479688e-01
-4.35237500e-08,1.72529688e-01
-4.34837500e-08,1.72445313e-01
-4.34437500e-08,1.72706250e-01
-4.34037500e-08,1.72956250e-01
-4.33637500e-08,1.72868750e-01
-4.33237500e-08,1.72923437e-01
-4.32837500e-08,1.72881250e-01
-4.32437500e-08,1.72915625e-01
-4.32037500e-08,1.72885938e-01
-4.31637500e-08,1.72912500e-01
-4.31237500e-08,1.72889062e-01
-4.30837500e-08,1.72910938e-01
-4.30437500e-08,1.72890625e-01
-4.30037500e-08,1.72909375e-01
-4.29637500e-08,1.72890625e-01
-4.29237500e-08,1.72909375e-01
-4.28837500e-08,1.72890625e-01
-4.28437500e-08,1.72909375e-01
-4.28037500e-08,1.72890625e-01
-4.27637500e-08,1.72909375e-01
-4.27237500e-08,1.72890625e-01
-4.26837500e-08,1.72909375e-01
-4.26437500e-08,1.72890625e-01
-4.26037500e-08,1.72910938e-01
-4.25637500e-08,1.72889062e-01
-4.25237500e-08,1.72910938e-01
-4.24837500e-08,1.72889062e-01
-4.24437500e-08,1.72912500e-01
-4.24037500e-08,1.72885938e-01
-4.23637500e-08,1.72914062e-01
-4.23237500e-08,1.72884375e-01
-4.22837500e-08,1.72918750e-01
-4.22437500e-08,1.72878125e-01
-4.22037500e-08,1.72926563e-01
-4.21637500e-08,1.72864062e-01
-4.21237500e-08,1.72960937e-01
-4.20837500e-08,1.72685937e-01
-4.20437500e-08,1.72453125e-01
-4.20037500e-08,1.72523438e-01
-4.19637500e-08,1.72485938e-01
-4.19237500e-08,1.72507812e-01
-4.18837500e-08,1.72495312e-01
-4.18437500e-08,1.72503125e-01
-4.18037500e-08,1.72498438e-01
-4.17637500e-08,1.72500000e-01
-4.17237500e-08,1.72501563e-01
-4.16837500e-08,1.72496875e-01
-4.16437500e-08,1.72504688e-01
-4.16037500e-08,1.72493750e-01
-4.15637500e-08,1.72507812e-01
-4.15237500e-08,1.72490625e-01
-4.14837500e-08,1.72512500e-01
-4.14437500e-08,1.72484375e-01
-4.14037500e-08,1.72520312e-01
-4.13637500e-08,1.72470313e-01
-4.13237500e-08,1.72556250e-01
-4.12837500e-08,1.72290625e-01
-4.12437500e-08,1.72046875e-01
-4.12037500e-08,1.72129688e-01
-4.11637500e-08,1.72081250e-01
-4.11237500e-08,1.72114062e-01
-4.10837500e-08,1.72089063e-01
-4.10437500e-08,1.72109375e-01
-4.10037500e-08,1.72092187e-01
-4.09637500e-08,1.72106250e-01
-4.09237500e-08,1.72095313e-01
-4.08837500e-08,1.72103125e-01
-4.08437500e-08,1.72096875e-01
-4.08037500e-08,1.72103125e-01
-4.07637500e-08,1.72098438e-01
-4.07237500e-08,1.72101562e-01
-4.06837500e-08,1.72098438e-01
-4.06437500e-08,1.72100000e-01
-4.06037500e-08,1.72100000e-01
-4.05637500e-08,1.72100000e-01
-4.05237500e-08,1.72101562e-01
-4.04837500e-08,1.72098438e-01
-4.04437500e-08,1.72101562e-01
-4.04037500e-08,1.72098438e-01
-4.03637500e-08,1.72103125e-01
-4.03237500e-08,1.72096875e-01
-4.02837500e-08,1.72103125e-01
-4.02437500e-08,1.72095313e-01
-4.02037500e-08,1.72104688e-01
-4.01637500e-08,1.72095313e-01
-4.01237500e-08,1.72106250e-01
-4.00837500e-08,1.72093750e-01
-4.00437500e-08,1.72107813e-01
-4.00037500e-08,1.72090625e-01
-3.99637500e-08,1.72110938e-01
-3.99237500e-08,1.72087500e-01
-3.98837500e-08,1.72114062e-01
-3.98437500e-08,1.72082813e-01
-3.98037500e-08,1.72123438e-01
-3.97637500e-08,1.72067187e-01
-3.97237500e-08,1.72157813e-01
-3.96837500e-08,1.71887500e-01
-3.96437500e-08,1.71650000e-01
-3.96037500e-08,1.71725000e-01
-3.95637500e-08,1.71684375e-01
-3.95237500e-08,1.71709375e-01
-3.94837500e-08,1.71693750e-01
-3.94437500e-08,1.71703125e-01
-3.94037500e-08,1.71700000e-01
-3.93637500e-08,1.71696875e-01
-3.93237500e-08,1.71706250e-01
-3.92837500e-08,1.71690625e-01
-3.92437500e-08,1.71715625e-01
-3.92037500e-08,1.71673437e-01
-3.91637500e-08,1.71751563e-01
-3.91237500e-08,1.71495312e-01
-3.90837500e-08,1.71243750e-01
-3.90437500e-08,1.71332813e-01
-3.90037500e-08,1.71278125e-01
-3.89637500e-08,1.71317187e-01
-3.89237500e-08,1.71287500e-01
-3.88837500e-08,1.71310938e-01
-3.88437500e-08,1.71292187e-01
-3.88037500e-08,1.71306250e-01
-3.87637500e-08,1.71295313e-01
-3.87237500e-08,1.71301563e-01
-3.86837500e-08,1.71301563e-01
-3.86437500e-08,1.71295313e-01
-3.86037500e-08,1.71309375e-01
-3.85637500e-08,1.71279687e-01
-3.85237500e-08,1.71345313e-01
