trails/00d9de579c68e71117ffc152f8bf8771/aes_ch1_20250506165811841.csv

Model,MSO66B
Label,
Waveform Type,ANALOG
Horizontal Units,s
Sample Interval,4.00000000e-11
Record Length,10000
Zero Index,1599.07421875
Vertical Units,A
ANALOG_Thumbnail,
yOffset,1.84500000e-01
yPosition,8.40000000e-01

Labels,
TIME,CH1
-6.39629687e-08,1.78895313e-01
-6.39229688e-08,1.78904688e-01
-6.38829687e-08,1.78895313e-01
-6.38429687e-08,1.78904688e-01
-6.38029687e-08,1.78895313e-01
-6.37629687e-08,1.78904688e-01
-6.37229688e-08,1.78895313e-01
-6.36829687e-08,1.78904688e-01
-6.36429688e-08,1.78895313e-01
-6.36029687e-08,1.78904688e-01
-6.35629687e-08,1.78895313e-01
-6.35229687e-08,1.78904688e-01
-6.34829687e-08,1.78895313e-01
-6.34429688e-08,1.78904688e-01
-6.34029687e-08,1.78895313e-01
-6.33629688e-08,1.78904688e-01
-6.33229687e-08,1.78895313e-01
-6.32829687e-08,1.78904688e-01
-6.32429687e-08,1.78895313e-01
-6.32029687e-08,1.78904688e-01
-6.31629688e-08,1.78893750e-01
-6.31229687e-08,1.78906250e-01
-6.30829688e-08,1.78893750e-01
-6.30429687e-08,1.78906250e-01
-6.30029687e-08,1.78893750e-01
-6.29629687e-08,1.78907813e-01
-6.29229687e-08,1.78892187e-01
-6.28829688e-08,1.78909375e-01
-6.28429687e-08,1.78889063e-01
-6.28029688e-08,1.78910938e-01
-6.27629687e-08,1.78885938e-01
-6.27229687e-08,1.78917188e-01
-6.26829687e-08,1.78878125e-01
-6.26429687e-08,1.78931250e-01
-6.26029688e-08,1.78843750e-01
-6.25629687e-08,1.79109375e-01
-6.25229688e-08,1.79353125e-01
-6.24829687e-08,1.79270313e-01
-6.24429687e-08,1.79320312e-01
-6.24029687e-08,1.79285938e-01
-6.23629687e-08,1.79310938e-01
-6.23229688e-08,1.79290625e-01
-6.22829687e-08,1.79307812e-01
-6.22429688e-08,1.79293750e-01
-6.22029687e-08,1.79306250e-01
-6.21629687e-08,1.79295312e-01
-6.21229687e-08,1.79304688e-01
-6.20829687e-08,1.79295312e-01
-6.20429688e-08,1.79304688e-01
-6.20029687e-08,1.79296875e-01
-6.19629688e-08,1.79303125e-01
-6.19229687e-08,1.79296875e-01
-6.18829687e-08,1.79303125e-01
-6.18429687e-08,1.79296875e-01
-6.18029687e-08,1.79303125e-01
-6.17629688e-08,1.79296875e-01
-6.17229687e-08,1.79301563e-01
-6.16829687e-08,1.79298438e-01
-6.16429687e-08,1.79301563e-01
-6.16029687e-08,1.79298438e-01
-6.15629687e-08,1.79301563e-01
-6.15229687e-08,1.79298438e-01
-6.14829688e-08,1.79301563e-01
-6.14429687e-08,1.79298438e-01
-6.14029687e-08,1.79301563e-01
-6.13629687e-08,1.79298438e-01
-6.13229687e-08,1.79301563e-01
-6.12829687e-08,1.79298438e-01
-6.12429687e-08,1.79301563e-01
-6.12029688e-08,1.79298438e-01
-6.11629687e-08,1.79301563e-01
-6.11229687e-08,1.79298438e-01
-6.10829687e-08,1.79301563e-01
-6.10429687e-08,1.79298438e-01
-6.10029687e-08,1.79301563e-01
-6.09629687e-08,1.79298438e-01
-6.09229688e-08,1.79301563e-01
-6.08829687e-08,1.79298438e-01
-6.08429687e-08,1.79301563e-01
-6.08029687e-08,1.79296875e-01
-6.07629687e-08,1.79303125e-01
-6.07229687e-08,1.79296875e-01
-6.06829687e-08,1.79303125e-01
-6.06429688e-08,1.79295312e-01
-6.06029687e-08,1.79304688e-01
-6.05629687e-08,1.79293750e-01
-6.05229687e-08,1.79306250e-01
-6.04829687e-08,1.79290625e-01
-6.04429687e-08,1.79310938e-01
-6.04029687e-08,1.79282812e-01
-6.03629688e-08,1.79326563e-01
-6.03229687e-08,1.79250000e-01
-6.02829687e-08,1.79503125e-01
-6.02429687e-08,1.79759375e-01
-6.02029687e-08,1.79664062e-01
-6.01629687e-08,1.79726563e-01
-6.01229687e-08,1.79678125e-01
-6.00829688e-08,1.79718750e-01
-6.00429687e-08,1.79681250e-01
-6.00029687e-08,1.79717188e-01
-5.99629687e-08,1.79682813e-01
-5.99229687e-08,1.79717188e-01
-5.98829688e-08,1.79682813e-01
-5.98429687e-08,1.79718750e-01
-5.98029688e-08,1.79679688e-01
-5.97629687e-08,1.79723437e-01
-5.97229687e-08,1.79671875e-01
-5.96829687e-08,1.79737500e-01
-5.96429687e-08,1.79637500e-01
-5.96029687e-08,1.79914062e-01
-5.95629687e-08,1.80146875e-01
-5.95229687e-08,1.80076563e-01
-5.94829687e-08,1.80114063e-01
-5.94429687e-08,1.80090625e-01
-5.94029687e-08,1.80106250e-01
-5.93629687e-08,1.80095312e-01
-5.93229687e-08,1.80103125e-01
-5.92829687e-08,1.80098438e-01
-5.92429687e-08,1.80100000e-01
-5.92029687e-08,1.80100000e-01
-5.91629687e-08,1.80100000e-01
-5.91229687e-08,1.80101563e-01
-5.90829687e-08,1.80098438e-01
-5.90429687e-08,1.80101563e-01
-5.90029687e-08,1.80096875e-01
-5.89629687e-08,1.80103125e-01
-5.89229687e-08,1.80096875e-01
-5.88829687e-08,1.80104687e-01
-5.88429687e-08,1.80095312e-01
-5.88029687e-08,1.80104687e-01
-5.87629687e-08,1.80095312e-01
-5.87229687e-08,1.80106250e-01
-5.86829687e-08,1.80093750e-01
-5.86429687e-08,1.80106250e-01
-5.86029687e-08,1.80092188e-01
-5.85629687e-08,1.80107813e-01
-5.85229687e-08,1.80090625e-01
-5.84829687e-08,1.80110938e-01
-5.84429687e-08,1.80089063e-01
-5.84029687e-08,1.80112500e-01
-5.83629687e-08,1.80085938e-01
-5.83229687e-08,1.80117187e-01
-5.82829687e-08,1.80079688e-01
-5.82429687e-08,1.80125000e-01
-5.82029687e-08,1.80064063e-01
-5.81629687e-08,1.80160938e-01
-5.81229687e-08,1.79884375e-01
-5.80829687e-08,1.79653125e-01
-5.80429687e-08,1.79721875e-01
-5.80029687e-08,1.79687500e-01
-5.79629687e-08,1.79706250e-01
-5.79229687e-08,1.79698438e-01
-5.78829687e-08,1.79696875e-01
-5.78429687e-08,1.79706250e-01
-5.78029687e-08,1.79689062e-01
-5.77629687e-08,1.79717188e-01
-5.77229687e-08,1.79671875e-01
-5.76829687e-08,1.79754688e-01
-5.76429687e-08,1.79492188e-01
-5.76029687e-08,1.79246875e-01
-5.75629687e-08,1.79328125e-01
-5.75229687e-08,1.79282812e-01
-5.74829687e-08,1.79310938e-01
-5.74429687e-08,1.79295312e-01
-5.74029687e-08,1.79300000e-01
-5.73629687e-08,1.79307812e-01
-5.73229687e-08,1.79281250e-01
-5.72829687e-08,1.79343750e-01
-5.72429687e-08,1.79101563e-01
-5.72029687e-08,1.78837500e-01
-5.71629687e-08,1.78939062e-01
-5.71229687e-08,1.78871875e-01
-5.70829687e-08,1.78923438e-01
-5.70429687e-08,1.78881250e-01
-5.70029687e-08,1.78915625e-01
-5.69629687e-08,1.78885938e-01
-5.69229687e-08,1.78912500e-01
-5.68829687e-08,1.78889063e-01
-5.68429687e-08,1.78907813e-01
-5.68029687e-08,1.78893750e-01
-5.67629687e-08,1.78903125e-01
-5.67229687e-08,1.78901562e-01
-5.66829687e-08,1.78889063e-01
-5.66429687e-08,1.78935938e-01
-5.66029687e-08,1.78712500e-01
-5.65629687e-08,1.78423438e-01
-5.65229687e-08,1.78556250e-01
-5.64829687e-08,1.78448438e-01
-5.64429687e-08,1.78556250e-01
-5.64029687e-08,1.78421875e-01
-5.63629687e-08,1.78728125e-01
-5.63229687e-08,1.78934375e-01
-5.62829687e-08,1.78887500e-01
-5.62429687e-08,1.78903125e-01
-5.62029687e-08,1.78901562e-01
-5.61629687e-08,1.78896875e-01
-5.61229687e-08,1.78904688e-01
-5.60829687e-08,1.78893750e-01
-5.60429687e-08,1.78907813e-01
-5.60029687e-08,1.78890625e-01
-5.59629687e-08,1.78910938e-01
-5.59229687e-08,1.78887500e-01
-5.58829687e-08,1.78914062e-01
-5.58429687e-08,1.78884375e-01
-5.58029687e-08,1.78918750e-01
-5.57629687e-08,1.78875000e-01
-5.57229687e-08,1.78934375e-01
-5.56829687e-08,1.78840625e-01
-5.56429687e-08,1.79112500e-01
-5.56029687e-08,1.79348438e-01
-5.55629687e-08,1.79275000e-01
-5.55229687e-08,1.79315625e-01
-5.54829687e-08,1.79290625e-01
-5.54429687e-08,1.79306250e-01
-5.54029687e-08,1.79296875e-01
-5.53629687e-08,1.79300000e-01
-5.53229687e-08,1.79304688e-01
-5.52829687e-08,1.79290625e-01
-5.52429687e-08,1.79320312e-01
-5.52029687e-08,1.79254688e-01
-5.51629687e-08,1.79498437e-01
-5.51229687e-08,1.79764063e-01
-5.50829687e-08,1.79659375e-01
-5.50429687e-08,1.79732813e-01
-5.50029687e-08,1.79671875e-01
-5.49629687e-08,1.79726563e-01
-5.49229687e-08,1.79673438e-01
-5.48829687e-08,1.79729688e-01
-5.48429687e-08,1.79667188e-01
-5.48029687e-08,1.79742188e-01
-5.47629687e-08,1.79632813e-01
-5.47229687e-08,1.79918750e-01
-5.46829687e-08,1.80143750e-01
-5.46429687e-08,1.80081250e-01
-5.46029687e-08,1.80109375e-01
-5.45629687e-08,1.80096875e-01
-5.45229687e-08,1.80100000e-01
-5.44829687e-08,1.80103125e-01
-5.44429687e-08,1.80093750e-01
-5.44029687e-08,1.80110938e-01
-5.43629687e-08,1.80084375e-01
-5.43229687e-08,1.80126563e-01
-5.42829687e-08,1.80048438e-01
-5.42429687e-08,1.80304688e-01
-5.42029687e-08,1.80557812e-01
-5.41629687e-08,1.80467188e-01
-5.41229687e-08,1.80523437e-01
-5.40829687e-08,1.80481250e-01
-5.40429687e-08,1.80515625e-01
-5.40029687e-08,1.80487500e-01
-5.39629687e-08,1.80512500e-01
-5.39229687e-08,1.80489063e-01
-5.38829687e-08,1.80509375e-01
-5.38429687e-08,1.80490625e-01
-5.38029687e-08,1.80507813e-01
-5.37629687e-08,1.80492188e-01
-5.37229687e-08,1.80507813e-01
-5.36829687e-08,1.80492188e-01
-5.36429687e-08,1.80507813e-01
-5.36029687e-08,1.80492188e-01
-5.35629687e-08,1.80507813e-01
-5.35229687e-08,1.80492188e-01
-5.34829687e-08,1.80507813e-01
-5.34429687e-08,1.80492188e-01
-5.34029687e-08,1.80507813e-01
-5.33629687e-08,1.80490625e-01
-5.33229687e-08,1.80509375e-01
-5.32829687e-08,1.80489063e-01
-5.32429687e-08,1.80512500e-01
-5.32029687e-08,1.80484375e-01
-5.31629687e-08,1.80520313e-01
-5.31229687e-08,1.80470313e-01
-5.30829687e-08,1.80553125e-01
-5.30429687e-08,1.80293750e-01
-5.30029687e-08,1.80043750e-01
-5.29629687e-08,1.80132813e-01
-5.29229687e-08,1.80075000e-01
-5.28829687e-08,1.80120313e-01
-5.28429687e-08,1.80081250e-01
-5.28029687e-08,1.80118750e-01
-5.27629687e-08,1.80079688e-01
-5.27229687e-08,1.80123438e-01
-5.26829687e-08,1.80067188e-01
-5.26429687e-08,1.80156250e-01
-5.26029687e-08,1.79890625e-01
-5.25629687e-08,1.79645313e-01
-5.25229687e-08,1.79732813e-01
-5.24829687e-08,1.79675000e-01
-5.24429687e-08,1.79721875e-01
-5.24029687e-08,1.79678125e-01
-5.23629687e-08,1.79725000e-01
-5.23229687e-08,1.79667188e-01
-5.22829687e-08,1.79756250e-01
-5.22429687e-08,1.79492188e-01
-5.22029688e-08,1.79243750e-01
-5.21629687e-08,1.79332812e-01
-5.21229687e-08,1.79275000e-01
-5.20829687e-08,1.79321875e-01
-5.20429687e-08,1.79279688e-01
-5.20029687e-08,1.79320312e-01
-5.19629687e-08,1.79278125e-01
-5.19229687e-08,1.79326563e-01
-5.18829687e-08,1.79264063e-01
-5.18429687e-08,1.79359375e-01
-5.18029687e-08,1.79087500e-01
-5.17629687e-08,1.78850000e-01
-5.17229687e-08,1.78926562e-01
-5.16829687e-08,1.78882813e-01
-5.16429687e-08,1.78912500e-01
-5.16029687e-08,1.78890625e-01
-5.15629687e-08,1.78907813e-01
-5.15229687e-08,1.78893750e-01
-5.14829687e-08,1.78904688e-01
-5.14429687e-08,1.78895313e-01
-5.14029687e-08,1.78904688e-01
-5.13629687e-08,1.78896875e-01
-5.13229687e-08,1.78903125e-01
-5.12829687e-08,1.78896875e-01
-5.12429687e-08,1.78901562e-01
-5.12029687e-08,1.78898438e-01
-5.11629687e-08,1.78901562e-01
-5.11229687e-08,1.78898438e-01
-5.10829687e-08,1.78901562e-01
-5.10429687e-08,1.78898438e-01
-5.10029687e-08,1.78901562e-01
-5.09629687e-08,1.78900000e-01
-5.09229687e-08,1.78900000e-01
-5.08829687e-08,1.78900000e-01
-5.08429687e-08,1.78900000e-01
-5.08029687e-08,1.78900000e-01
-5.07629687e-08,1.78900000e-01
-5.07229687e-08,1.78900000e-01
-5.06829687e-08,1.78900000e-01
-5.06429687e-08,1.78900000e-01
-5.06029687e-08,1.78900000e-01
-5.05629687e-08,1.78901562e-01
-5.05229687e-08,1.78898438e-01
-5.04829687e-08,1.78901562e-01
-5.04429687e-08,1.78898438e-01
-5.04029687e-08,1.78901562e-01
-5.03629687e-08,1.78898438e-01
-5.03229687e-08,1.78901562e-01
-5.02829688e-08,1.78898438e-01
-5.02429687e-08,1.78903125e-01
-5.02029687e-08,1.78896875e-01
-5.01629687e-08,1.78903125e-01
-5.01229687e-08,1.78896875e-01
-5.00829687e-08,1.78903125e-01
-5.00429687e-08,1.78895313e-01
-5.00029688e-08,1.78904688e-01
-4.99629687e-08,1.78895313e-01
-4.99229687e-08,1.78906250e-01
-4.98829687e-08,1.78893750e-01
-4.98429687e-08,1.78907813e-01
-4.98029687e-08,1.78890625e-01
-4.97629687e-08,1.78910938e-01
-4.97229687e-08,1.78887500e-01
-4.96829687e-08,1.78915625e-01
-4.96429687e-08,1.78879687e-01
-4.96029687e-08,1.78931250e-01
-4.95629687e-08,1.78843750e-01
-4.95229687e-08,1.79109375e-01
-4.94829687e-08,1.79353125e-01
-4.94429687e-08,1.79270313e-01
-4.94029687e-08,1.79320312e-01
-4.93629687e-08,1.79285938e-01
-4.93229687e-08,1.79310938e-01
-4.92829687e-08,1.79290625e-01
-4.92429687e-08,1.79307812e-01
-4.92029687e-08,1.79293750e-01
-4.91629687e-08,1.79304688e-01
-4.91229687e-08,1.79295312e-01
-4.90829687e-08,1.79303125e-01
-4.90429687e-08,1.79296875e-01
-4.90029687e-08,1.79301563e-01
-4.89629687e-08,1.79298438e-01
-4.89229687e-08,1.79300000e-01
-4.88829687e-08,1.79300000e-01
-4.88429687e-08,1.79298438e-01
-4.88029687e-08,1.79303125e-01
-4.87629687e-08,1.79296875e-01
-4.87229687e-08,1.79304688e-01
-4.86829687e-08,1.79292188e-01
-4.86429688e-08,1.79310938e-01
-4.86029687e-08,1.79284375e-01
-4.85629687e-08,1.79325000e-01
-4.85229687e-08,1.79250000e-01
-4.84829687e-08,1.79504688e-01
-4.84429687e-08,1.79757813e-01
-4.84029687e-08,1.79665625e-01
-4.83629688e-08,1.79725000e-01
-4.83229687e-08,1.79679688e-01
-4.82829687e-08,1.79717188e-01
-4.82429687e-08,1.79685938e-01
-4.82029687e-08,1.79712500e-01
-4.81629687e-08,1.79687500e-01
-4.81229687e-08,1.79710938e-01
-4.80829688e-08,1.79690625e-01
-4.80429687e-08,1.79709375e-01
-4.80029687e-08,1.79690625e-01
-4.79629687e-08,1.79709375e-01
-4.79229687e-08,1.79692188e-01
-4.78829687e-08,1.79707813e-01
-4.78429687e-08,1.79692188e-01
-4.78029687e-08,1.79707813e-01
-4.77629687e-08,1.79692188e-01
-4.77229687e-08,1.79706250e-01
-4.76829687e-08,1.79693750e-01
-4.76429687e-08,1.79706250e-01
-4.76029687e-08,1.79693750e-01
-4.75629687e-08,1.79706250e-01
-4.75229687e-08,1.79693750e-01
-4.74829687e-08,1.79706250e-01
-4.74429687e-08,1.79693750e-01
-4.74029687e-08,1.79706250e-01
-4.73629687e-08,1.79693750e-01
-4.73229687e-08,1.79706250e-01
-4.72829687e-08,1.79693750e-01
-4.72429687e-08,1.79706250e-01
-4.72029687e-08,1.79695313e-01
-4.71629687e-08,1.79704688e-01
-4.71229687e-08,1.79695313e-01
-4.70829687e-08,1.79704688e-01
-4.70429687e-08,1.79695313e-01
-4.70029687e-08,1.79704688e-01
-4.69629687e-08,1.79695313e-01
-4.69229687e-08,1.79704688e-01
-4.68829687e-08,1.79695313e-01
-4.68429687e-08,1.79704688e-01
-4.68029687e-08,1.79695313e-01
-4.67629687e-08,1.79704688e-01
-4.67229688e-08,1.79695313e-01
-4.66829687e-08,1.79704688e-01
-4.66429687e-08,1.79695313e-01
-4.66029687e-08,1.79704688e-01
-4.65629687e-08,1.79693750e-01
-4.65229687e-08,1.79706250e-01
-4.64829687e-08,1.79693750e-01
-4.64429688e-08,1.79706250e-01
-4.64029687e-08,1.79693750e-01
-4.63629687e-08,1.79706250e-01
-4.63229687e-08,1.79693750e-01
-4.62829687e-08,1.79706250e-01
-4.62429687e-08,1.79693750e-01
-4.62029687e-08,1.79706250e-01
-4.61629688e-08,1.79692188e-01
-4.61229687e-08,1.79707813e-01
-4.60829687e-08,1.79692188e-01
-4.60429687e-08,1.79709375e-01
-4.60029687e-08,1.79690625e-01
-4.59629687e-08,1.79710938e-01
-4.59229687e-08,1.79685938e-01
-4.58829688e-08,1.79715625e-01
-4.58429687e-08,1.79679688e-01
-4.58029687e-08,1.79729688e-01
-4.57629687e-08,1.79645313e-01
-4.57229687e-08,1.79907813e-01
-4.56829687e-08,1.80154687e-01
-4.56429687e-08,1.80068750e-01
-4.56029687e-08,1.80121875e-01
-4.55629687e-08,1.80081250e-01
-4.55229687e-08,1.80115625e-01
-4.54829687e-08,1.80084375e-01
-4.54429687e-08,1.80115625e-01
-4.54029687e-08,1.80084375e-01
-4.53629687e-08,1.80118750e-01
-4.53229687e-08,1.80078125e-01
-4.52829687e-08,1.80131250e-01
-4.52429687e-08,1.80043750e-01
-4.52029687e-08,1.80307812e-01
-4.51629687e-08,1.80554688e-01
-4.51229687e-08,1.80468750e-01
-4.50829687e-08,1.80521875e-01
-4.50429687e-08,1.80482813e-01
-4.50029687e-08,1.80514063e-01
-4.49629687e-08,1.80487500e-01
-4.49229687e-08,1.80510937e-01
-4.48829687e-08,1.80489063e-01
-4.48429687e-08,1.80510937e-01
-4.48029688e-08,1.80490625e-01
-4.47629687e-08,1.80509375e-01
-4.47229687e-08,1.80490625e-01
-4.46829687e-08,1.80509375e-01
-4.46429687e-08,1.80490625e-01
-4.46029687e-08,1.80509375e-01
-4.45629687e-08,1.80490625e-01
-4.45229688e-08,1.80509375e-01
-4.44829687e-08,1.80489063e-01
-4.44429687e-08,1.80510937e-01
-4.44029687e-08,1.80489063e-01
-4.43629687e-08,1.80512500e-01
-4.43229687e-08,1.80487500e-01
-4.42829687e-08,1.80514063e-01
-4.42429688e-08,1.80484375e-01
-4.42029687e-08,1.80517188e-01
-4.41629687e-08,1.80478125e-01
-4.41229687e-08,1.80526563e-01
-4.40829687e-08,1.80464062e-01
-4.40429687e-08,1.80560938e-01
-4.40029687e-08,1.80284375e-01
-4.39629688e-08,1.80053125e-01
-4.39229687e-08,1.80121875e-01
-4.38829687e-08,1.80089063e-01
-4.38429687e-08,1.80104687e-01
-4.38029687e-08,1.80100000e-01
-4.37629687e-08,1.80095312e-01
-4.37229687e-08,1.80110938e-01
-4.36829688e-08,1.80079688e-01
-4.36429687e-08,1.80146875e-01
-4.36029687e-08,1.79900000e-01
-4.35629687e-08,1.79637500e-01
-4.35229687e-08,1.79739063e-01
-4.34829687e-08,1.79668750e-01
-4.34429687e-08,1.79728125e-01
-4.34029687e-08,1.79673438e-01
-4.33629687e-08,1.79729688e-01
-4.33229687e-08,1.79662500e-01
-4.32829687e-08,1.79760937e-01
-4.32429687e-08,1.79487500e-01
-4.32029687e-08,1.79248437e-01
-4.31629687e-08,1.79329688e-01
-4.31229687e-08,1.79278125e-01
-4.30829687e-08,1.79318750e-01
-4.30429687e-08,1.79282812e-01
-4.30029687e-08,1.79317188e-01
-4.29629687e-08,1.79281250e-01
-4.29229687e-08,1.79323438e-01
-4.28829688e-08,1.79267188e-01
-4.28429687e-08,1.79357813e-01
-4.28029687e-08,1.79090625e-01
-4.27629687e-08,1.78846875e-01
-4.27229687e-08,1.78928125e-01
-4.26829687e-08,1.78879687e-01
-4.26429687e-08,1.78914062e-01
-4.26029688e-08,1.78887500e-01
-4.25629687e-08,1.78909375e-01
-4.25229687e-08,1.78892187e-01
-4.24829687e-08,1.78907813e-01
-4.24429687e-08,1.78893750e-01
-4.24029687e-08,1.78906250e-01
-4.23629687e-08,1.78895313e-01
-4.23229688e-08,1.78904688e-01
-4.22829687e-08,1.78895313e-01
-4.22429687e-08,1.78903125e-01
-4.22029687e-08,1.78896875e-01
-4.21629687e-08,1.78903125e-01
-4.21229687e-08,1.78898438e-01
-4.20829687e-08,1.78901562e-01
-4.20429688e-08,1.78900000e-01
-4.20029687e-08,1.78900000e-01
-4.19629687e-08,1.78900000e-01
-4.19229687e-08,1.78898438e-01
-4.18829687e-08,1.78903125e-01
-4.18429687e-08,1.78895313e-01
-4.18029687e-08,1.78907813e-01
-4.17629688e-08,1.78887500e-01
-4.17229687e-08,1.78921875e-01
-4.16829687e-08,1.78853125e-01
-4.16429687e-08,1.79100000e-01
-4.16029687e-08,1.79362500e-01
-4.15629687e-08,1.79260937e-01
-4.15229687e-08,1.79329688e-01
-4.14829688e-08,1.79275000e-01
-4.14429687e-08,1.79323438e-01
-4.14029687e-08,1.79278125e-01
-4.13629687e-08,1.79321875e-01
-4.13229687e-08,1.79278125e-01
-4.12829687e-08,1.79321875e-01
-4.12429687e-08,1.79276563e-01
-4.12029687e-08,1.79326563e-01
-4.11629687e-08,1.79268750e-01
-4.11229687e-08,1.79340625e-01
-4.10829687e-08,1.79234375e-01
-4.10429687e-08,1.79518750e-01
-4.10029687e-08,1.79743750e-01
-4.09629688e-08,1.79679688e-01
-4.09229687e-08,1.79710938e-01
-4.08829687e-08,1.79695313e-01
-4.08429687e-08,1.79701562e-01
-4.08029687e-08,1.79701562e-01
-4.07629687e-08,1.79696875e-01
-4.07229687e-08,1.79706250e-01
-4.06829688e-08,1.79690625e-01
-4.06429687e-08,1.79712500e-01
-4.06029687e-08,1.79681250e-01
-4.05629687e-08,1.79728125e-01
-4.05229687e-08,1.79646875e-01
-4.04829687e-08,1.79906250e-01
-4.04429687e-08,1.80156250e-01
-4.04029688e-08,1.80068750e-01
-4.03629687e-08,1.80121875e-01
-4.03229687e-08,1.80082812e-01
-4.02829687e-08,1.80114063e-01
-4.02429687e-08,1.80089063e-01
-4.02029687e-08,1.80109375e-01
-4.01629687e-08,1.80090625e-01
-4.01229688e-08,1.80107813e-01
-4.00829687e-08,1.80092188e-01
-4.00429687e-08,1.80106250e-01
-4.00029687e-08,1.80093750e-01
-3.99629687e-08,1.80106250e-01
-3.99229687e-08,1.80093750e-01
-3.98829687e-08,1.80104687e-01
-3.98429688e-08,1.80095312e-01
-3.98029687e-08,1.80104687e-01
-3.97629687e-08,1.80095312e-01
-3.97229687e-08,1.80104687e-01
-3.96829687e-08,1.80095312e-01
-3.96429687e-08,1.80104687e-01
-3.96029687e-08,1.80095312e-01
-3.95629688e-08,1.80104687e-01
-3.95229687e-08,1.80095312e-01
-3.94829687e-08,1.80104687e-01
-3.94429687e-08,1.80095312e-01
-3.94029687e-08,1.80104687e-01
-3.93629687e-08,1.80095312e-01
-3.93229687e-08,1.80104687e-01
-3.92829688e-08,1.80093750e-01
-3.92429687e-08,1.80106250e-01
-3.92029687e-08,1.80093750e-01
-3.91629687e-08,1.80107813e-01
-3.91229687e-08,1.80092188e-01
-3.90829687e-08,1.80109375e-01
-3.90429688e-08,1.80089063e-01
-3.90029687e-08,1.80112500e-01
-3.89629687e-08,1.80084375e-01
-3.89229687e-08,1.80120313e-01
-3.88829687e-08,1.80070312e-01
-3.88429687e-08,1.80154687e-01
-3.88029687e-08,1.79892187e-01
-3.87629688e-08,1.79645313e-01
-3.87229687e-08,1.79731250e-01
-3.86829687e-08,1.79678125e-01
-3.86429687e-08,1.79717188e-01
-3.86029687e-08,1.79685938e-01
-3.85629687e-08,1.79712500e-01
-3.85229687e-08,1.79689062e-01
