trails/00d9de579c68e71117ffc152f8bf8771/aes_ch1_20250506165621944.csv

Model,MSO66B
Label,
Waveform Type,ANALOG
Horizontal Units,s
Sample Interval,4.00000000e-11
Record Length,10000
Zero Index,1599.08593750
Vertical Units,A
ANALOG_Thumbnail,
yOffset,1.84500000e-01
yPosition,8.40000000e-01

Labels,
TIME,CH1
-6.39634375e-08,1.76903125e-01
-6.39234375e-08,1.76896875e-01
-6.38834375e-08,1.76903125e-01
-6.38434375e-08,1.76896875e-01
-6.38034375e-08,1.76903125e-01
-6.37634375e-08,1.76896875e-01
-6.37234375e-08,1.76903125e-01
-6.36834375e-08,1.76896875e-01
-6.36434375e-08,1.76903125e-01
-6.36034375e-08,1.76896875e-01
-6.35634375e-08,1.76903125e-01
-6.35234375e-08,1.76896875e-01
-6.34834375e-08,1.76903125e-01
-6.34434375e-08,1.76896875e-01
-6.34034375e-08,1.76903125e-01
-6.33634375e-08,1.76896875e-01
-6.33234375e-08,1.76903125e-01
-6.32834375e-08,1.76896875e-01
-6.32434375e-08,1.76903125e-01
-6.32034375e-08,1.76896875e-01
-6.31634375e-08,1.76903125e-01
-6.31234375e-08,1.76896875e-01
-6.30834375e-08,1.76903125e-01
-6.30434375e-08,1.76896875e-01
-6.30034375e-08,1.76903125e-01
-6.29634375e-08,1.76896875e-01
-6.29234375e-08,1.76903125e-01
-6.28834375e-08,1.76895313e-01
-6.28434375e-08,1.76904688e-01
-6.28034375e-08,1.76895313e-01
-6.27634375e-08,1.76904688e-01
-6.27234375e-08,1.76895313e-01
-6.26834375e-08,1.76904688e-01
-6.26434375e-08,1.76895313e-01
-6.26034375e-08,1.76904688e-01
-6.25634375e-08,1.76895313e-01
-6.25234375e-08,1.76904688e-01
-6.24834375e-08,1.76893750e-01
-6.24434375e-08,1.76906250e-01
-6.24034375e-08,1.76893750e-01
-6.23634375e-08,1.76906250e-01
-6.23234375e-08,1.76892188e-01
-6.22834375e-08,1.76907813e-01
-6.22434375e-08,1.76892188e-01
-6.22034375e-08,1.76909375e-01
-6.21634375e-08,1.76889062e-01
-6.21234375e-08,1.76912500e-01
-6.20834375e-08,1.76885938e-01
-6.20434375e-08,1.76917188e-01
-6.20034375e-08,1.76878125e-01
-6.19634375e-08,1.76931250e-01
-6.19234375e-08,1.76843750e-01
-6.18834375e-08,1.77109375e-01
-6.18434375e-08,1.77351563e-01
-6.18034375e-08,1.77271875e-01
-6.17634375e-08,1.77318750e-01
-6.17234375e-08,1.77285938e-01
-6.16834375e-08,1.77310938e-01
-6.16434375e-08,1.77290625e-01
-6.16034375e-08,1.77307812e-01
-6.15634375e-08,1.77293750e-01
-6.15234375e-08,1.77304688e-01
-6.14834375e-08,1.77295312e-01
-6.14434375e-08,1.77303125e-01
-6.14034375e-08,1.77296875e-01
-6.13634375e-08,1.77303125e-01
-6.13234375e-08,1.77298438e-01
-6.12834375e-08,1.77301563e-01
-6.12434375e-08,1.77298438e-01
-6.12034375e-08,1.77300000e-01
-6.11634375e-08,1.77300000e-01
-6.11234375e-08,1.77300000e-01
-6.10834375e-08,1.77300000e-01
-6.10434375e-08,1.77298438e-01
-6.10034375e-08,1.77301563e-01
-6.09634375e-08,1.77298438e-01
-6.09234375e-08,1.77303125e-01
-6.08834375e-08,1.77296875e-01
-6.08434375e-08,1.77304688e-01
-6.08034375e-08,1.77293750e-01
-6.07634375e-08,1.77307812e-01
-6.07234375e-08,1.77289063e-01
-6.06834375e-08,1.77317188e-01
-6.06434375e-08,1.77273438e-01
-6.06034375e-08,1.77350000e-01
-6.05634375e-08,1.77096875e-01
-6.05234375e-08,1.76840625e-01
-6.04834375e-08,1.76935938e-01
-6.04434375e-08,1.76873438e-01
-6.04034375e-08,1.76921875e-01
-6.03634375e-08,1.76879687e-01
-6.03234375e-08,1.76918750e-01
-6.02834375e-08,1.76881250e-01
-6.02434375e-08,1.76918750e-01
-6.02034375e-08,1.76878125e-01
-6.01634375e-08,1.76925000e-01
-6.01234375e-08,1.76865625e-01
-6.00834375e-08,1.76957813e-01
-6.00434375e-08,1.76689062e-01
-6.00034375e-08,1.76446875e-01
-5.99634375e-08,1.76529688e-01
-5.99234375e-08,1.76479688e-01
-5.98834375e-08,1.76517188e-01
-5.98434375e-08,1.76484375e-01
-5.98034375e-08,1.76514063e-01
-5.97634375e-08,1.76485937e-01
-5.97234375e-08,1.76515625e-01
-5.96834375e-08,1.76481250e-01
-5.96434375e-08,1.76521875e-01
-5.96034375e-08,1.76468750e-01
-5.95634375e-08,1.76556250e-01
-5.95234375e-08,1.76290625e-01
-5.94834375e-08,1.76046875e-01
-5.94434375e-08,1.76129687e-01
-5.94034375e-08,1.76079687e-01
-5.93634375e-08,1.76115625e-01
-5.93234375e-08,1.76087500e-01
-5.92834375e-08,1.76110938e-01
-5.92434375e-08,1.76090625e-01
-5.92034375e-08,1.76107813e-01
-5.91634375e-08,1.76092187e-01
-5.91234375e-08,1.76106250e-01
-5.90834375e-08,1.76093750e-01
-5.90434375e-08,1.76106250e-01
-5.90034375e-08,1.76093750e-01
-5.89634375e-08,1.76104687e-01
-5.89234375e-08,1.76095313e-01
-5.88834375e-08,1.76104687e-01
-5.88434375e-08,1.76095313e-01
-5.88034375e-08,1.76104687e-01
-5.87634375e-08,1.76096875e-01
-5.87234375e-08,1.76103125e-01
-5.86834375e-08,1.76096875e-01
-5.86434375e-08,1.76103125e-01
-5.86034375e-08,1.76096875e-01
-5.85634375e-08,1.76103125e-01
-5.85234375e-08,1.76098438e-01
-5.84834375e-08,1.76101563e-01
-5.84434375e-08,1.76098438e-01
-5.84034375e-08,1.76100000e-01
-5.83634375e-08,1.76100000e-01
-5.83234375e-08,1.76098438e-01
-5.82834375e-08,1.76103125e-01
-5.82434375e-08,1.76095313e-01
-5.82034375e-08,1.76107813e-01
-5.81634375e-08,1.76087500e-01
-5.81234375e-08,1.76121875e-01
-5.80834375e-08,1.76054688e-01
-5.80434375e-08,1.76298438e-01
-5.80034375e-08,1.76564063e-01
-5.79634375e-08,1.76459375e-01
-5.79234375e-08,1.76532812e-01
-5.78834375e-08,1.76471875e-01
-5.78434375e-08,1.76526563e-01
-5.78034375e-08,1.76475000e-01
-5.77634375e-08,1.76525000e-01
-5.77234375e-08,1.76473437e-01
-5.76834375e-08,1.76528125e-01
-5.76434375e-08,1.76467188e-01
-5.76034375e-08,1.76542188e-01
-5.75634375e-08,1.76432813e-01
-5.75234375e-08,1.76720313e-01
-5.74834375e-08,1.76942188e-01
-5.74434375e-08,1.76881250e-01
-5.74034375e-08,1.76909375e-01
-5.73634375e-08,1.76896875e-01
-5.73234375e-08,1.76900000e-01
-5.72834375e-08,1.76903125e-01
-5.72434375e-08,1.76895313e-01
-5.72034375e-08,1.76907813e-01
-5.71634375e-08,1.76889062e-01
-5.71234375e-08,1.76914062e-01
-5.70834375e-08,1.76881250e-01
-5.70434375e-08,1.76929688e-01
-5.70034375e-08,1.76845313e-01
-5.69634375e-08,1.77107813e-01
-5.69234375e-08,1.77354687e-01
-5.68834375e-08,1.77268750e-01
-5.68434375e-08,1.77321875e-01
-5.68034375e-08,1.77284375e-01
-5.67634375e-08,1.77314063e-01
-5.67234375e-08,1.77287500e-01
-5.66834375e-08,1.77310938e-01
-5.66434375e-08,1.77289063e-01
-5.66034375e-08,1.77309375e-01
-5.65634375e-08,1.77289063e-01
-5.65234375e-08,1.77312500e-01
-5.64834375e-08,1.77285938e-01
-5.64434375e-08,1.77318750e-01
-5.64034375e-08,1.77273438e-01
-5.63634375e-08,1.77351563e-01
-5.63234375e-08,1.77096875e-01
-5.62834375e-08,1.76840625e-01
-5.62434375e-08,1.76935938e-01
-5.62034375e-08,1.76871875e-01
-5.61634375e-08,1.76923438e-01
-5.61234375e-08,1.76878125e-01
-5.60834375e-08,1.76921875e-01
-5.60434375e-08,1.76878125e-01
-5.60034375e-08,1.76923438e-01
-5.59634375e-08,1.76873438e-01
-5.59234375e-08,1.76931250e-01
-5.58834375e-08,1.76859375e-01
-5.58434375e-08,1.76965625e-01
-5.58034375e-08,1.76681250e-01
-5.57634375e-08,1.76456250e-01
-5.57234375e-08,1.76518750e-01
-5.56834375e-08,1.76490625e-01
-5.56434375e-08,1.76503125e-01
-5.56034375e-08,1.76500000e-01
-5.55634375e-08,1.76495313e-01
-5.55234375e-08,1.76507812e-01
-5.54834375e-08,1.76487500e-01
-5.54434375e-08,1.76517188e-01
-5.54034375e-08,1.76471875e-01
-5.53634375e-08,1.76553125e-01
-5.53234375e-08,1.76292188e-01
-5.52834375e-08,1.76045312e-01
-5.52434375e-08,1.76129687e-01
-5.52034375e-08,1.76079687e-01
-5.51634375e-08,1.76114063e-01
-5.51234375e-08,1.76089063e-01
-5.50834375e-08,1.76107813e-01
-5.50434375e-08,1.76093750e-01
-5.50034375e-08,1.76104687e-01
-5.49634375e-08,1.76096875e-01
-5.49234375e-08,1.76101563e-01
-5.48834375e-08,1.76100000e-01
-5.48434375e-08,1.76096875e-01
-5.48034375e-08,1.76104687e-01
-5.47634375e-08,1.76090625e-01
-5.47234375e-08,1.76114063e-01
-5.46834375e-08,1.76075000e-01
-5.46434375e-08,1.76150000e-01
-5.46034375e-08,1.75896875e-01
-5.45634375e-08,1.75640625e-01
-5.45234375e-08,1.75734375e-01
-5.44834375e-08,1.75675000e-01
-5.44434375e-08,1.75720313e-01
-5.44034375e-08,1.75682813e-01
-5.43634375e-08,1.75715625e-01
-5.43234375e-08,1.75685938e-01
-5.42834375e-08,1.75712500e-01
-5.42434375e-08,1.75689062e-01
-5.42034375e-08,1.75710937e-01
-5.41634375e-08,1.75690625e-01
-5.41234375e-08,1.75709375e-01
-5.40834375e-08,1.75690625e-01
-5.40434375e-08,1.75707813e-01
-5.40034375e-08,1.75692188e-01
-5.39634375e-08,1.75707813e-01
-5.39234375e-08,1.75692188e-01
-5.38834375e-08,1.75707813e-01
-5.38434375e-08,1.75693750e-01
-5.38034375e-08,1.75706250e-01
-5.37634375e-08,1.75693750e-01
-5.37234375e-08,1.75706250e-01
-5.36834375e-08,1.75693750e-01
-5.36434375e-08,1.75706250e-01
-5.36034375e-08,1.75693750e-01
-5.35634375e-08,1.75706250e-01
-5.35234375e-08,1.75693750e-01
-5.34834375e-08,1.75706250e-01
-5.34434375e-08,1.75695313e-01
-5.34034375e-08,1.75704688e-01
-5.33634375e-08,1.75695313e-01
-5.33234375e-08,1.75704688e-01
-5.32834375e-08,1.75695313e-01
-5.32434375e-08,1.75704688e-01
-5.32034375e-08,1.75695313e-01
-5.31634375e-08,1.75704688e-01
-5.31234375e-08,1.75695313e-01
-5.30834375e-08,1.75704688e-01
-5.30434375e-08,1.75695313e-01
-5.30034375e-08,1.75704688e-01
-5.29634375e-08,1.75695313e-01
-5.29234375e-08,1.75704688e-01
-5.28834375e-08,1.75695313e-01
-5.28434375e-08,1.75704688e-01
-5.28034375e-08,1.75695313e-01
-5.27634375e-08,1.75704688e-01
-5.27234375e-08,1.75695313e-01
-5.26834375e-08,1.75704688e-01
-5.26434375e-08,1.75693750e-01
-5.26034375e-08,1.75706250e-01
-5.25634375e-08,1.75693750e-01
-5.25234375e-08,1.75706250e-01
-5.24834375e-08,1.75693750e-01
-5.24434375e-08,1.75706250e-01
-5.24034375e-08,1.75693750e-01
-5.23634375e-08,1.75706250e-01
-5.23234375e-08,1.75693750e-01
-5.22834375e-08,1.75707813e-01
-5.22434375e-08,1.75692188e-01
-5.22034375e-08,1.75707813e-01
-5.21634375e-08,1.75690625e-01
-5.21234375e-08,1.75709375e-01
-5.20834375e-08,1.75689062e-01
-5.20434375e-08,1.75710937e-01
-5.20034375e-08,1.75687500e-01
-5.19634375e-08,1.75715625e-01
-5.19234375e-08,1.75681250e-01
-5.18834375e-08,1.75723437e-01
-5.18434375e-08,1.75667188e-01
-5.18034375e-08,1.75757812e-01
-5.17634375e-08,1.75489063e-01
-5.17234375e-08,1.75248437e-01
-5.16834375e-08,1.75326563e-01
-5.16434375e-08,1.75282812e-01
-5.16034375e-08,1.75312500e-01
-5.15634375e-08,1.75290625e-01
-5.15234375e-08,1.75306250e-01
-5.14834375e-08,1.75295312e-01
-5.14434375e-08,1.75303125e-01
-5.14034375e-08,1.75298438e-01
-5.13634375e-08,1.75300000e-01
-5.13234375e-08,1.75301563e-01
-5.12834375e-08,1.75295312e-01
-5.12434375e-08,1.75307812e-01
-5.12034375e-08,1.75287500e-01
-5.11634375e-08,1.75321875e-01
-5.11234375e-08,1.75253125e-01
-5.10834375e-08,1.75500000e-01
-5.10434375e-08,1.75762500e-01
-5.10034375e-08,1.75660938e-01
-5.09634375e-08,1.75729688e-01
-5.09234375e-08,1.75673438e-01
-5.08834375e-08,1.75723437e-01
-5.08434375e-08,1.75676562e-01
-5.08034375e-08,1.75723437e-01
-5.07634375e-08,1.75675000e-01
-5.07234375e-08,1.75726563e-01
-5.06834375e-08,1.75668750e-01
-5.06434375e-08,1.75740625e-01
-5.06034375e-08,1.75634375e-01
-5.05634375e-08,1.75918750e-01
-5.05234375e-08,1.76143750e-01
-5.04834375e-08,1.76081250e-01
-5.04434375e-08,1.76109375e-01
-5.04034375e-08,1.76096875e-01
-5.03634375e-08,1.76098438e-01
-5.03234375e-08,1.76106250e-01
-5.02834375e-08,1.76087500e-01
-5.02434375e-08,1.76121875e-01
-5.02034375e-08,1.76051563e-01
-5.01634375e-08,1.76301563e-01
-5.01234375e-08,1.76560938e-01
-5.00834375e-08,1.76462500e-01
-5.00434375e-08,1.76528125e-01
-5.00034375e-08,1.76476563e-01
-4.99634375e-08,1.76521875e-01
-4.99234375e-08,1.76479688e-01
-4.98834375e-08,1.76520312e-01
-4.98434375e-08,1.76479688e-01
-4.98034375e-08,1.76523438e-01
-4.97634375e-08,1.76473437e-01
-4.97234375e-08,1.76535938e-01
-4.96834375e-08,1.76440625e-01
-4.96434375e-08,1.76712500e-01
-4.96034375e-08,1.76950000e-01
-4.95634375e-08,1.76873438e-01
-4.95234375e-08,1.76917188e-01
-4.94834375e-08,1.76887500e-01
-4.94434375e-08,1.76910938e-01
-4.94034375e-08,1.76890625e-01
-4.93634375e-08,1.76907813e-01
-4.93234375e-08,1.76893750e-01
-4.92834375e-08,1.76906250e-01
-4.92434375e-08,1.76893750e-01
-4.92034375e-08,1.76906250e-01
-4.91634375e-08,1.76893750e-01
-4.91234375e-08,1.76906250e-01
-4.90834375e-08,1.76893750e-01
-4.90434375e-08,1.76906250e-01
-4.90034375e-08,1.76893750e-01
-4.89634375e-08,1.76907813e-01
-4.89234375e-08,1.76890625e-01
-4.88834375e-08,1.76909375e-01
-4.88434375e-08,1.76887500e-01
-4.88034375e-08,1.76914062e-01
-4.87634375e-08,1.76879687e-01
-4.87234375e-08,1.76929688e-01
-4.86834375e-08,1.76845313e-01
-4.86434375e-08,1.77107813e-01
-4.86034375e-08,1.77354687e-01
-4.85634375e-08,1.77268750e-01
-4.85234375e-08,1.77321875e-01
-4.84834375e-08,1.77282812e-01
-4.84434375e-08,1.77314063e-01
-4.84034375e-08,1.77287500e-01
-4.83634375e-08,1.77310938e-01
-4.83234375e-08,1.77289063e-01
-4.82834375e-08,1.77309375e-01
-4.82434375e-08,1.77290625e-01
-4.82034375e-08,1.77307812e-01
-4.81634375e-08,1.77292188e-01
-4.81234375e-08,1.77307812e-01
-4.80834375e-08,1.77292188e-01
-4.80434375e-08,1.77307812e-01
-4.80034375e-08,1.77292188e-01
-4.79634375e-08,1.77307812e-01
-4.79234375e-08,1.77292188e-01
-4.78834375e-08,1.77307812e-01
-4.78434375e-08,1.77292188e-01
-4.78034375e-08,1.77309375e-01
-4.77634375e-08,1.77290625e-01
-4.77234375e-08,1.77309375e-01
-4.76834375e-08,1.77289063e-01
-4.76434375e-08,1.77310938e-01
-4.76034375e-08,1.77287500e-01
-4.75634375e-08,1.77315625e-01
-4.75234375e-08,1.77281250e-01
-4.74834375e-08,1.77323438e-01
-4.74434375e-08,1.77267188e-01
-4.74034375e-08,1.77357813e-01
-4.73634375e-08,1.77089063e-01
-4.73234375e-08,1.76848438e-01
-4.72834375e-08,1.76928125e-01
-4.72434375e-08,1.76881250e-01
-4.72034375e-08,1.76914062e-01
-4.71634375e-08,1.76889062e-01
-4.71234375e-08,1.76907813e-01
-4.70834375e-08,1.76893750e-01
-4.70434375e-08,1.76906250e-01
-4.70034375e-08,1.76895313e-01
-4.69634375e-08,1.76904688e-01
-4.69234375e-08,1.76896875e-01
-4.68834375e-08,1.76903125e-01
-4.68434375e-08,1.76896875e-01
-4.68034375e-08,1.76901562e-01
-4.67634375e-08,1.76898438e-01
-4.67234375e-08,1.76901562e-01
-4.66834375e-08,1.76898438e-01
-4.66434375e-08,1.76901562e-01
-4.66034375e-08,1.76900000e-01
-4.65634375e-08,1.76900000e-01
-4.65234375e-08,1.76900000e-01
-4.64834375e-08,1.76900000e-01
-4.64434375e-08,1.76900000e-01
-4.64034375e-08,1.76900000e-01
-4.63634375e-08,1.76901562e-01
-4.63234375e-08,1.76898438e-01
-4.62834375e-08,1.76901562e-01
-4.62434375e-08,1.76896875e-01
-4.62034375e-08,1.76903125e-01
-4.61634375e-08,1.76896875e-01
-4.61234375e-08,1.76904688e-01
-4.60834375e-08,1.76893750e-01
-4.60434375e-08,1.76907813e-01
-4.60034375e-08,1.76890625e-01
-4.59634375e-08,1.76912500e-01
-4.59234375e-08,1.76882813e-01
-4.58834375e-08,1.76926562e-01
-4.58434375e-08,1.76848438e-01
-4.58034375e-08,1.77104687e-01
-4.57634375e-08,1.77357813e-01
-4.57234375e-08,1.77265625e-01
-4.56834375e-08,1.77325000e-01
-4.56434375e-08,1.77281250e-01
-4.56034375e-08,1.77315625e-01
-4.55634375e-08,1.77285938e-01
-4.55234375e-08,1.77312500e-01
-4.54834375e-08,1.77287500e-01
-4.54434375e-08,1.77310938e-01
-4.54034375e-08,1.77289063e-01
-4.53634375e-08,1.77309375e-01
-4.53234375e-08,1.77290625e-01
-4.52834375e-08,1.77309375e-01
-4.52434375e-08,1.77290625e-01
-4.52034375e-08,1.77309375e-01
-4.51634375e-08,1.77290625e-01
-4.51234375e-08,1.77309375e-01
-4.50834375e-08,1.77290625e-01
-4.50434375e-08,1.77309375e-01
-4.50034375e-08,1.77290625e-01
-4.49634375e-08,1.77309375e-01
-4.49234375e-08,1.77290625e-01
-4.48834375e-08,1.77309375e-01
-4.48434375e-08,1.77290625e-01
-4.48034375e-08,1.77310938e-01
-4.47634375e-08,1.77289063e-01
-4.47234375e-08,1.77310938e-01
-4.46834375e-08,1.77287500e-01
-4.46434375e-08,1.77312500e-01
-4.46034375e-08,1.77285938e-01
-4.45634375e-08,1.77315625e-01
-4.45234375e-08,1.77282812e-01
-4.44834375e-08,1.77318750e-01
-4.44434375e-08,1.77278125e-01
-4.44034375e-08,1.77328125e-01
-4.43634375e-08,1.77262500e-01
-4.43234375e-08,1.77362500e-01
-4.42834375e-08,1.77084375e-01
-4.42434375e-08,1.76854687e-01
-4.42034375e-08,1.76920313e-01
-4.41634375e-08,1.76889062e-01
-4.41234375e-08,1.76904688e-01
-4.40834375e-08,1.76900000e-01
-4.40434375e-08,1.76896875e-01
-4.40034375e-08,1.76906250e-01
-4.39634375e-08,1.76889062e-01
-4.39234375e-08,1.76917188e-01
-4.38834375e-08,1.76871875e-01
-4.38434375e-08,1.76954688e-01
-4.38034375e-08,1.76692188e-01
-4.37634375e-08,1.76446875e-01
-4.37234375e-08,1.76528125e-01
-4.36834375e-08,1.76482813e-01
-4.36434375e-08,1.76510938e-01
-4.36034375e-08,1.76493750e-01
-4.35634375e-08,1.76501563e-01
-4.35234375e-08,1.76506250e-01
-4.34834375e-08,1.76484375e-01
-4.34434375e-08,1.76542188e-01
-4.34034375e-08,1.76304688e-01
-4.33634375e-08,1.76034375e-01
-4.33234375e-08,1.76142188e-01
-4.32834375e-08,1.76067187e-01
-4.32434375e-08,1.76128125e-01
-4.32034375e-08,1.76075000e-01
-4.31634375e-08,1.76123438e-01
-4.31234375e-08,1.76078125e-01
-4.30834375e-08,1.76121875e-01
-4.30434375e-08,1.76078125e-01
-4.30034375e-08,1.76123438e-01
-4.29634375e-08,1.76073438e-01
-4.29234375e-08,1.76131250e-01
-4.28834375e-08,1.76060938e-01
-4.28434375e-08,1.76164062e-01
-4.28034375e-08,1.75882813e-01
-4.27634375e-08,1.75654688e-01
-4.27234375e-08,1.75721875e-01
-4.26834375e-08,1.75687500e-01
-4.26434375e-08,1.75707813e-01
-4.26034375e-08,1.75693750e-01
-4.25634375e-08,1.75704688e-01
-4.25234375e-08,1.75696875e-01
-4.24834375e-08,1.75701563e-01
-4.24434375e-08,1.75698437e-01
-4.24034375e-08,1.75700000e-01
-4.23634375e-08,1.75700000e-01
-4.23234375e-08,1.75700000e-01
-4.22834375e-08,1.75700000e-01
-4.22434375e-08,1.75700000e-01
-4.22034375e-08,1.75701563e-01
-4.21634375e-08,1.75698437e-01
-4.21234375e-08,1.75701563e-01
-4.20834375e-08,1.75698437e-01
-4.20434375e-08,1.75701563e-01
-4.20034375e-08,1.75698437e-01
-4.19634375e-08,1.75701563e-01
-4.19234375e-08,1.75698437e-01
-4.18834375e-08,1.75701563e-01
-4.18434375e-08,1.75698437e-01
-4.18034375e-08,1.75701563e-01
-4.17634375e-08,1.75698437e-01
-4.17234375e-08,1.75701563e-01
-4.16834375e-08,1.75698437e-01
-4.16434375e-08,1.75703125e-01
-4.16034375e-08,1.75696875e-01
-4.15634375e-08,1.75703125e-01
-4.15234375e-08,1.75696875e-01
-4.14834375e-08,1.75703125e-01
-4.14434375e-08,1.75696875e-01
-4.14034375e-08,1.75703125e-01
-4.13634375e-08,1.75696875e-01
-4.13234375e-08,1.75703125e-01
-4.12834375e-08,1.75696875e-01
-4.12434375e-08,1.75703125e-01
-4.12034375e-08,1.75696875e-01
-4.11634375e-08,1.75704688e-01
-4.11234375e-08,1.75695313e-01
-4.10834375e-08,1.75704688e-01
-4.10434375e-08,1.75695313e-01
-4.10034375e-08,1.75704688e-01
-4.09634375e-08,1.75693750e-01
-4.09234375e-08,1.75706250e-01
-4.08834375e-08,1.75693750e-01
-4.08434375e-08,1.75707813e-01
-4.08034375e-08,1.75690625e-01
-4.07634375e-08,1.75710937e-01
-4.07234375e-08,1.75687500e-01
-4.06834375e-08,1.75715625e-01
-4.06434375e-08,1.75679688e-01
-4.06034375e-08,1.75729688e-01
-4.05634375e-08,1.75645313e-01
-4.05234375e-08,1.75907813e-01
-4.04834375e-08,1.76154688e-01
-4.04434375e-08,1.76068750e-01
-4.04034375e-08,1.76121875e-01
-4.03634375e-08,1.76082813e-01
-4.03234375e-08,1.76114063e-01
-4.02834375e-08,1.76089063e-01
-4.02434375e-08,1.76109375e-01
-4.02034375e-08,1.76090625e-01
-4.01634375e-08,1.76107813e-01
-4.01234375e-08,1.76092187e-01
-4.00834375e-08,1.76107813e-01
-4.00434375e-08,1.76092187e-01
-4.00034375e-08,1.76106250e-01
-3.99634375e-08,1.76093750e-01
-3.99234375e-08,1.76106250e-01
-3.98834375e-08,1.76093750e-01
-3.98434375e-08,1.76106250e-01
-3.98034375e-08,1.76092187e-01
-3.97634375e-08,1.76107813e-01
-3.97234375e-08,1.76092187e-01
-3.96834375e-08,1.76109375e-01
-3.96434375e-08,1.76090625e-01
-3.96034375e-08,1.76110938e-01
-3.95634375e-08,1.76087500e-01
-3.95234375e-08,1.76115625e-01
-3.94834375e-08,1.76079687e-01
-3.94434375e-08,1.76129687e-01
-3.94034375e-08,1.76045312e-01
-3.93634375e-08,1.76307812e-01
-3.93234375e-08,1.76554688e-01
-3.92834375e-08,1.76468750e-01
-3.92434375e-08,1.76521875e-01
-3.92034375e-08,1.76482813e-01
-3.91634375e-08,1.76514063e-01
-3.91234375e-08,1.76489063e-01
-3.90834375e-08,1.76510938e-01
-3.90434375e-08,1.76490625e-01
-3.90034375e-08,1.76509375e-01
-3.89634375e-08,1.76492188e-01
-3.89234375e-08,1.76507812e-01
-3.88834375e-08,1.76492188e-01
-3.88434375e-08,1.76507812e-01
-3.88034375e-08,1.76492188e-01
-3.87634375e-08,1.76506250e-01
-3.87234375e-08,1.76493750e-01
-3.86834375e-08,1.76506250e-01
-3.86434375e-08,1.76493750e-01
-3.86034375e-08,1.76506250e-01
-3.85634375e-08,1.76492188e-01
-3.85234375e-08,1.76507812e-01
