trails/00d9de579c68e71117ffc152f8bf8771/aes_ch1_20250506170428910.csv

Model,MSO66B
Label,
Waveform Type,ANALOG
Horizontal Units,s
Sample Interval,4.00000000e-11
Record Length,10000
Zero Index,1599.09375000
Vertical Units,A
ANALOG_Thumbnail,
yOffset,1.84500000e-01
yPosition,8.40000000e-01

Labels,
TIME,CH1
-6.39637500e-08,2.03293750e-01
-6.39237500e-08,2.03304687e-01
-6.38837500e-08,2.03295313e-01
-6.38437500e-08,2.03304687e-01
-6.38037500e-08,2.03295313e-01
-6.37637500e-08,2.03304687e-01
-6.37237500e-08,2.03295313e-01
-6.36837500e-08,2.03304687e-01
-6.36437500e-08,2.03295313e-01
-6.36037500e-08,2.03306250e-01
-6.35637500e-08,2.03293750e-01
-6.35237500e-08,2.03307813e-01
-6.34837500e-08,2.03290625e-01
-6.34437500e-08,2.03310938e-01
-6.34037500e-08,2.03285938e-01
-6.33637500e-08,2.03318750e-01
-6.33237500e-08,2.03271875e-01
-6.32837500e-08,2.03353125e-01
-6.32437500e-08,2.03093750e-01
-6.32037500e-08,2.02843750e-01
-6.31637500e-08,2.02932813e-01
-6.31237500e-08,2.02876562e-01
-6.30837500e-08,2.02918750e-01
-6.30437500e-08,2.02884375e-01
-6.30037500e-08,2.02914063e-01
-6.29637500e-08,2.02887500e-01
-6.29237500e-08,2.02912500e-01
-6.28837500e-08,2.02887500e-01
-6.28437500e-08,2.02910937e-01
-6.28037500e-08,2.02889062e-01
-6.27637500e-08,2.02910937e-01
-6.27237500e-08,2.02889062e-01
-6.26837500e-08,2.02910937e-01
-6.26437500e-08,2.02887500e-01
-6.26037500e-08,2.02912500e-01
-6.25637500e-08,2.02885938e-01
-6.25237500e-08,2.02914063e-01
-6.24837500e-08,2.02882813e-01
-6.24437500e-08,2.02918750e-01
-6.24037500e-08,2.02875000e-01
-6.23637500e-08,2.02934375e-01
-6.23237500e-08,2.02842187e-01
-6.22837500e-08,2.03110938e-01
-6.22437500e-08,2.03351562e-01
-6.22037500e-08,2.03273438e-01
-6.21637500e-08,2.03318750e-01
-6.21237500e-08,2.03287500e-01
-6.20837500e-08,2.03310938e-01
-6.20437500e-08,2.03292187e-01
-6.20037500e-08,2.03307813e-01
-6.19637500e-08,2.03293750e-01
-6.19237500e-08,2.03306250e-01
-6.18837500e-08,2.03293750e-01
-6.18437500e-08,2.03304687e-01
-6.18037500e-08,2.03295313e-01
-6.17637500e-08,2.03304687e-01
-6.17237500e-08,2.03293750e-01
-6.16837500e-08,2.03306250e-01
-6.16437500e-08,2.03292187e-01
-6.16037500e-08,2.03307813e-01
-6.15637500e-08,2.03289063e-01
-6.15237500e-08,2.03312500e-01
-6.14837500e-08,2.03282813e-01
-6.14437500e-08,2.03326563e-01
-6.14037500e-08,2.03248438e-01
-6.13637500e-08,2.03504688e-01
-6.13237500e-08,2.03757812e-01
-6.12837500e-08,2.03665625e-01
-6.12437500e-08,2.03725000e-01
-6.12037500e-08,2.03679688e-01
-6.11637500e-08,2.03717188e-01
-6.11237500e-08,2.03684375e-01
-6.10837500e-08,2.03714063e-01
-6.10437500e-08,2.03687500e-01
-6.10037500e-08,2.03712500e-01
-6.09637500e-08,2.03687500e-01
-6.09237500e-08,2.03710938e-01
-6.08837500e-08,2.03689063e-01
-6.08437500e-08,2.03710938e-01
-6.08037500e-08,2.03689063e-01
-6.07637500e-08,2.03710938e-01
-6.07237500e-08,2.03689063e-01
-6.06837500e-08,2.03710938e-01
-6.06437500e-08,2.03689063e-01
-6.06037500e-08,2.03710938e-01
-6.05637500e-08,2.03689063e-01
-6.05237500e-08,2.03712500e-01
-6.04837500e-08,2.03687500e-01
-6.04437500e-08,2.03712500e-01
-6.04037500e-08,2.03685937e-01
-6.03637500e-08,2.03714063e-01
-6.03237500e-08,2.03684375e-01
-6.02837500e-08,2.03715625e-01
-6.02437500e-08,2.03682813e-01
-6.02037500e-08,2.03720313e-01
-6.01637500e-08,2.03676563e-01
-6.01237500e-08,2.03728125e-01
-6.00837500e-08,2.03662500e-01
-6.00437500e-08,2.03762500e-01
-6.00037500e-08,2.03484375e-01
-5.99637500e-08,2.03254688e-01
-5.99237500e-08,2.03321875e-01
-5.98837500e-08,2.03287500e-01
-5.98437500e-08,2.03307813e-01
-5.98037500e-08,2.03295313e-01
-5.97637500e-08,2.03301563e-01
-5.97237500e-08,2.03300000e-01
-5.96837500e-08,2.03298438e-01
-5.96437500e-08,2.03303125e-01
-5.96037500e-08,2.03295313e-01
-5.95637500e-08,2.03304687e-01
-5.95237500e-08,2.03293750e-01
-5.94837500e-08,2.03307813e-01
-5.94437500e-08,2.03290625e-01
-5.94037500e-08,2.03309375e-01
-5.93637500e-08,2.03287500e-01
-5.93237500e-08,2.03314063e-01
-5.92837500e-08,2.03282813e-01
-5.92437500e-08,2.03323438e-01
-5.92037500e-08,2.03267188e-01
-5.91637500e-08,2.03357813e-01
-5.91237500e-08,2.03089063e-01
-5.90837500e-08,2.02850000e-01
-5.90437500e-08,2.02926563e-01
-5.90037500e-08,2.02882813e-01
-5.89637500e-08,2.02912500e-01
-5.89237500e-08,2.02890625e-01
-5.88837500e-08,2.02906250e-01
-5.88437500e-08,2.02895313e-01
-5.88037500e-08,2.02903125e-01
-5.87637500e-08,2.02896875e-01
-5.87237500e-08,2.02901563e-01
-5.86837500e-08,2.02900000e-01
-5.86437500e-08,2.02900000e-01
-5.86037500e-08,2.02900000e-01
-5.85637500e-08,2.02898438e-01
-5.85237500e-08,2.02901563e-01
-5.84837500e-08,2.02898438e-01
-5.84437500e-08,2.02903125e-01
-5.84037500e-08,2.02896875e-01
-5.83637500e-08,2.02903125e-01
-5.83237500e-08,2.02895313e-01
-5.82837500e-08,2.02904688e-01
-5.82437500e-08,2.02895313e-01
-5.82037500e-08,2.02906250e-01
-5.81637500e-08,2.02893750e-01
-5.81237500e-08,2.02906250e-01
-5.80837500e-08,2.02892188e-01
-5.80437500e-08,2.02907813e-01
-5.80037500e-08,2.02890625e-01
-5.79637500e-08,2.02909375e-01
-5.79237500e-08,2.02889062e-01
-5.78837500e-08,2.02912500e-01
-5.78437500e-08,2.02885938e-01
-5.78037500e-08,2.02915625e-01
-5.77637500e-08,2.02882813e-01
-5.77237500e-08,2.02921875e-01
-5.76837500e-08,2.02873438e-01
-5.76437500e-08,2.02937500e-01
-5.76037500e-08,2.02837500e-01
-5.75637500e-08,2.03115625e-01
-5.75237500e-08,2.03345313e-01
-5.74837500e-08,2.03279688e-01
-5.74437500e-08,2.03310938e-01
-5.74037500e-08,2.03295313e-01
-5.73637500e-08,2.03300000e-01
-5.73237500e-08,2.03303125e-01
-5.72837500e-08,2.03292187e-01
-5.72437500e-08,2.03310938e-01
-5.72037500e-08,2.03282813e-01
-5.71637500e-08,2.03328125e-01
-5.71237500e-08,2.03245312e-01
-5.70837500e-08,2.03507812e-01
-5.70437500e-08,2.03753125e-01
-5.70037500e-08,2.03671875e-01
-5.69637500e-08,2.03718750e-01
-5.69237500e-08,2.03687500e-01
-5.68837500e-08,2.03707813e-01
-5.68437500e-08,2.03695313e-01
-5.68037500e-08,2.03701563e-01
-5.67637500e-08,2.03700000e-01
-5.67237500e-08,2.03696875e-01
-5.66837500e-08,2.03707813e-01
-5.66437500e-08,2.03685937e-01
-5.66037500e-08,2.03723437e-01
-5.65637500e-08,2.03650000e-01
-5.65237500e-08,2.03903125e-01
-5.64837500e-08,2.04159375e-01
-5.64437500e-08,2.04065625e-01
-5.64037500e-08,2.04125000e-01
-5.63637500e-08,2.04081250e-01
-5.63237500e-08,2.04115625e-01
-5.62837500e-08,2.04085938e-01
-5.62437500e-08,2.04110938e-01
-5.62037500e-08,2.04089063e-01
-5.61637500e-08,2.04109375e-01
-5.61237500e-08,2.04092188e-01
-5.60837500e-08,2.04107813e-01
-5.60437500e-08,2.04093750e-01
-5.60037500e-08,2.04106250e-01
-5.59637500e-08,2.04095313e-01
-5.59237500e-08,2.04104687e-01
-5.58837500e-08,2.04095313e-01
-5.58437500e-08,2.04103125e-01
-5.58037500e-08,2.04096875e-01
-5.57637500e-08,2.04103125e-01
-5.57237500e-08,2.04098438e-01
-5.56837500e-08,2.04101562e-01
-5.56437500e-08,2.04098438e-01
-5.56037500e-08,2.04101562e-01
-5.55637500e-08,2.04100000e-01
-5.55237500e-08,2.04100000e-01
-5.54837500e-08,2.04101562e-01
-5.54437500e-08,2.04098438e-01
-5.54037500e-08,2.04101562e-01
-5.53637500e-08,2.04096875e-01
-5.53237500e-08,2.04103125e-01
-5.52837500e-08,2.04095313e-01
-5.52437500e-08,2.04106250e-01
-5.52037500e-08,2.04092188e-01
-5.51637500e-08,2.04109375e-01
-5.51237500e-08,2.04085938e-01
-5.50837500e-08,2.04118750e-01
-5.50437500e-08,2.04071875e-01
-5.50037500e-08,2.04153125e-01
-5.49637500e-08,2.03893750e-01
-5.49237500e-08,2.03645313e-01
-5.48837500e-08,2.03731250e-01
-5.48437500e-08,2.03678125e-01
-5.48037500e-08,2.03717188e-01
-5.47637500e-08,2.03687500e-01
-5.47237500e-08,2.03710938e-01
-5.46837500e-08,2.03690625e-01
-5.46437500e-08,2.03707813e-01
-5.46037500e-08,2.03693750e-01
-5.45637500e-08,2.03706250e-01
-5.45237500e-08,2.03695313e-01
-5.44837500e-08,2.03704688e-01
-5.44437500e-08,2.03696875e-01
-5.44037500e-08,2.03701563e-01
-5.43637500e-08,2.03698437e-01
-5.43237500e-08,2.03700000e-01
-5.42837500e-08,2.03700000e-01
-5.42437500e-08,2.03698437e-01
-5.42037500e-08,2.03703125e-01
-5.41637500e-08,2.03695313e-01
-5.41237500e-08,2.03706250e-01
-5.40837500e-08,2.03690625e-01
-5.40437500e-08,2.03715625e-01
-5.40037500e-08,2.03675000e-01
-5.39637500e-08,2.03750000e-01
-5.39237500e-08,2.03496875e-01
-5.38837500e-08,2.03240625e-01
-5.38437500e-08,2.03334375e-01
-5.38037500e-08,2.03275000e-01
-5.37637500e-08,2.03320313e-01
-5.37237500e-08,2.03282813e-01
-5.36837500e-08,2.03315625e-01
-5.36437500e-08,2.03285938e-01
-5.36037500e-08,2.03312500e-01
-5.35637500e-08,2.03289063e-01
-5.35237500e-08,2.03310938e-01
-5.34837500e-08,2.03289063e-01
-5.34437500e-08,2.03309375e-01
-5.34037500e-08,2.03290625e-01
-5.33637500e-08,2.03309375e-01
-5.33237500e-08,2.03290625e-01
-5.32837500e-08,2.03307813e-01
-5.32437500e-08,2.03292187e-01
-5.32037500e-08,2.03307813e-01
-5.31637500e-08,2.03292187e-01
-5.31237500e-08,2.03307813e-01
-5.30837500e-08,2.03292187e-01
-5.30437500e-08,2.03307813e-01
-5.30037500e-08,2.03292187e-01
-5.29637500e-08,2.03307813e-01
-5.29237500e-08,2.03292187e-01
-5.28837500e-08,2.03307813e-01
-5.28437500e-08,2.03292187e-01
-5.28037500e-08,2.03307813e-01
-5.27637500e-08,2.03290625e-01
-5.27237500e-08,2.03309375e-01
-5.26837500e-08,2.03290625e-01
-5.26437500e-08,2.03310938e-01
-5.26037500e-08,2.03287500e-01
-5.25637500e-08,2.03314063e-01
-5.25237500e-08,2.03282813e-01
-5.24837500e-08,2.03321875e-01
-5.24437500e-08,2.03268750e-01
-5.24037500e-08,2.03356250e-01
-5.23637500e-08,2.03090625e-01
-5.23237500e-08,2.02846875e-01
-5.22837500e-08,2.02929688e-01
-5.22437500e-08,2.02879688e-01
-5.22037500e-08,2.02915625e-01
-5.21637500e-08,2.02887500e-01
-5.21237500e-08,2.02910937e-01
-5.20837500e-08,2.02890625e-01
-5.20437500e-08,2.02909375e-01
-5.20037500e-08,2.02892188e-01
-5.19637500e-08,2.02907813e-01
-5.19237500e-08,2.02892188e-01
-5.18837500e-08,2.02907813e-01
-5.18437500e-08,2.02892188e-01
-5.18037500e-08,2.02907813e-01
-5.17637500e-08,2.02892188e-01
-5.17237500e-08,2.02907813e-01
-5.16837500e-08,2.02892188e-01
-5.16437500e-08,2.02907813e-01
-5.16037500e-08,2.02890625e-01
-5.15637500e-08,2.02909375e-01
-5.15237500e-08,2.02889062e-01
-5.14837500e-08,2.02912500e-01
-5.14437500e-08,2.02885938e-01
-5.14037500e-08,2.02917188e-01
-5.13637500e-08,2.02878125e-01
-5.13237500e-08,2.02932813e-01
-5.12837500e-08,2.02843750e-01
-5.12437500e-08,2.03109375e-01
-5.12037500e-08,2.03351562e-01
-5.11637500e-08,2.03271875e-01
-5.11237500e-08,2.03318750e-01
-5.10837500e-08,2.03285938e-01
-5.10437500e-08,2.03310938e-01
-5.10037500e-08,2.03292187e-01
-5.09637500e-08,2.03306250e-01
-5.09237500e-08,2.03293750e-01
-5.08837500e-08,2.03304687e-01
-5.08437500e-08,2.03296875e-01
-5.08037500e-08,2.03303125e-01
-5.07637500e-08,2.03298438e-01
-5.07237500e-08,2.03301563e-01
-5.06837500e-08,2.03300000e-01
-5.06437500e-08,2.03300000e-01
-5.06037500e-08,2.03301563e-01
-5.05637500e-08,2.03298438e-01
-5.05237500e-08,2.03303125e-01
-5.04837500e-08,2.03295313e-01
-5.04437500e-08,2.03306250e-01
-5.04037500e-08,2.03290625e-01
-5.03637500e-08,2.03315625e-01
-5.03237500e-08,2.03275000e-01
-5.02837500e-08,2.03350000e-01
-5.02437500e-08,2.03096875e-01
-5.02037500e-08,2.02840625e-01
-5.01637500e-08,2.02935937e-01
-5.01237500e-08,2.02873438e-01
-5.00837500e-08,2.02921875e-01
-5.00437500e-08,2.02879688e-01
-5.00037500e-08,2.02918750e-01
-4.99637500e-08,2.02881250e-01
-4.99237500e-08,2.02917188e-01
-4.98837500e-08,2.02881250e-01
-4.98437500e-08,2.02920313e-01
-4.98037500e-08,2.02878125e-01
-4.97637500e-08,2.02926563e-01
-4.97237500e-08,2.02864062e-01
-4.96837500e-08,2.02960937e-01
-4.96437500e-08,2.02687500e-01
-4.96037500e-08,2.02450000e-01
-4.95637500e-08,2.02526563e-01
-4.95237500e-08,2.02482812e-01
-4.94837500e-08,2.02512500e-01
-4.94437500e-08,2.02490625e-01
-4.94037500e-08,2.02507812e-01
-4.93637500e-08,2.02493750e-01
-4.93237500e-08,2.02504688e-01
-4.92837500e-08,2.02495312e-01
-4.92437500e-08,2.02504688e-01
-4.92037500e-08,2.02496875e-01
-4.91637500e-08,2.02503125e-01
-4.91237500e-08,2.02496875e-01
-4.90837500e-08,2.02503125e-01
-4.90437500e-08,2.02496875e-01
-4.90037500e-08,2.02503125e-01
-4.89637500e-08,2.02496875e-01
-4.89237500e-08,2.02503125e-01
-4.88837500e-08,2.02496875e-01
-4.88437500e-08,2.02503125e-01
-4.88037500e-08,2.02496875e-01
-4.87637500e-08,2.02503125e-01
-4.87237500e-08,2.02496875e-01
-4.86837500e-08,2.02503125e-01
-4.86437500e-08,2.02496875e-01
-4.86037500e-08,2.02503125e-01
-4.85637500e-08,2.02496875e-01
-4.85237500e-08,2.02503125e-01
-4.84837500e-08,2.02496875e-01
-4.84437500e-08,2.02503125e-01
-4.84037500e-08,2.02496875e-01
-4.83637500e-08,2.02503125e-01
-4.83237500e-08,2.02496875e-01
-4.82837500e-08,2.02503125e-01
-4.82437500e-08,2.02496875e-01
-4.82037500e-08,2.02503125e-01
-4.81637500e-08,2.02496875e-01
-4.81237500e-08,2.02503125e-01
-4.80837500e-08,2.02495312e-01
-4.80437500e-08,2.02504688e-01
-4.80037500e-08,2.02495312e-01
-4.79637500e-08,2.02504688e-01
-4.79237500e-08,2.02495312e-01
-4.78837500e-08,2.02504688e-01
-4.78437500e-08,2.02493750e-01
-4.78037500e-08,2.02506250e-01
-4.77637500e-08,2.02493750e-01
-4.77237500e-08,2.02506250e-01
-4.76837500e-08,2.02492188e-01
-4.76437500e-08,2.02507812e-01
-4.76037500e-08,2.02490625e-01
-4.75637500e-08,2.02510938e-01
-4.75237500e-08,2.02489063e-01
-4.74837500e-08,2.02514063e-01
-4.74437500e-08,2.02482812e-01
-4.74037500e-08,2.02521875e-01
-4.73637500e-08,2.02468750e-01
-4.73237500e-08,2.02556250e-01
-4.72837500e-08,2.02290625e-01
-4.72437500e-08,2.02046875e-01
-4.72037500e-08,2.02129688e-01
-4.71637500e-08,2.02079687e-01
-4.71237500e-08,2.02114062e-01
-4.70837500e-08,2.02087500e-01
-4.70437500e-08,2.02109375e-01
-4.70037500e-08,2.02090625e-01
-4.69637500e-08,2.02107813e-01
-4.69237500e-08,2.02092188e-01
-4.68837500e-08,2.02107813e-01
-4.68437500e-08,2.02092188e-01
-4.68037500e-08,2.02109375e-01
-4.67637500e-08,2.02089062e-01
-4.67237500e-08,2.02115625e-01
-4.66837500e-08,2.02076563e-01
-4.66437500e-08,2.02148438e-01
-4.66037500e-08,2.01900000e-01
-4.65637500e-08,2.01635938e-01
-4.65237500e-08,2.01742188e-01
-4.64837500e-08,2.01664063e-01
-4.64437500e-08,2.01734375e-01
-4.64037500e-08,2.01662500e-01
-4.63637500e-08,2.01745312e-01
-4.63237500e-08,2.01631250e-01
-4.62837500e-08,2.01921875e-01
-4.62437500e-08,2.02140625e-01
-4.62037500e-08,2.02082813e-01
-4.61637500e-08,2.02106250e-01
-4.61237500e-08,2.02098438e-01
-4.60837500e-08,2.02096875e-01
-4.60437500e-08,2.02106250e-01
-4.60037500e-08,2.02090625e-01
-4.59637500e-08,2.02114062e-01
-4.59237500e-08,2.02079687e-01
-4.58837500e-08,2.02131250e-01
-4.58437500e-08,2.02042187e-01
-4.58037500e-08,2.02310938e-01
-4.57637500e-08,2.02550000e-01
-4.57237500e-08,2.02476563e-01
-4.56837500e-08,2.02512500e-01
-4.56437500e-08,2.02495312e-01
-4.56037500e-08,2.02496875e-01
-4.55637500e-08,2.02514063e-01
-4.55237500e-08,2.02459375e-01
-4.54837500e-08,2.02693750e-01
-4.54437500e-08,2.02968750e-01
-4.54037500e-08,2.02854688e-01
-4.53637500e-08,2.02937500e-01
-4.53237500e-08,2.02862500e-01
-4.52837500e-08,2.02942188e-01
-4.52437500e-08,2.02835938e-01
-4.52037500e-08,2.03115625e-01
-4.51637500e-08,2.03350000e-01
-4.51237500e-08,2.03271875e-01
-4.50837500e-08,2.03321875e-01
-4.50437500e-08,2.03281250e-01
-4.50037500e-08,2.03320313e-01
-4.49637500e-08,2.03276563e-01
-4.49237500e-08,2.03332813e-01
-4.48837500e-08,2.03242188e-01
-4.48437500e-08,2.03510938e-01
-4.48037500e-08,2.03751563e-01
-4.47637500e-08,2.03671875e-01
-4.47237500e-08,2.03718750e-01
-4.46837500e-08,2.03685937e-01
-4.46437500e-08,2.03710938e-01
-4.46037500e-08,2.03692188e-01
-4.45637500e-08,2.03706250e-01
-4.45237500e-08,2.03695313e-01
-4.44837500e-08,2.03703125e-01
-4.44437500e-08,2.03696875e-01
-4.44037500e-08,2.03701563e-01
-4.43637500e-08,2.03700000e-01
-4.43237500e-08,2.03698437e-01
-4.42837500e-08,2.03703125e-01
-4.42437500e-08,2.03695313e-01
-4.42037500e-08,2.03707813e-01
-4.41637500e-08,2.03689063e-01
-4.41237500e-08,2.03717188e-01
-4.40837500e-08,2.03673437e-01
-4.40437500e-08,2.03751563e-01
-4.40037500e-08,2.03495312e-01
-4.39637500e-08,2.03243750e-01
-4.39237500e-08,2.03332813e-01
-4.38837500e-08,2.03278125e-01
-4.38437500e-08,2.03317187e-01
-4.38037500e-08,2.03287500e-01
-4.37637500e-08,2.03309375e-01
-4.37237500e-08,2.03292187e-01
-4.36837500e-08,2.03304687e-01
-4.36437500e-08,2.03298438e-01
-4.36037500e-08,2.03298438e-01
-4.35637500e-08,2.03307813e-01
-4.35237500e-08,2.03282813e-01
-4.34837500e-08,2.03343750e-01
-4.34437500e-08,2.03103125e-01
-4.34037500e-08,2.02834375e-01
-4.33637500e-08,2.02942188e-01
-4.33237500e-08,2.02867188e-01
-4.32837500e-08,2.02926563e-01
-4.32437500e-08,2.02875000e-01
-4.32037500e-08,2.02921875e-01
-4.31637500e-08,2.02878125e-01
-4.31237500e-08,2.02920313e-01
-4.30837500e-08,2.02879688e-01
-4.30437500e-08,2.02920313e-01
-4.30037500e-08,2.02878125e-01
-4.29637500e-08,2.02921875e-01
-4.29237500e-08,2.02875000e-01
-4.28837500e-08,2.02929688e-01
-4.28437500e-08,2.02860938e-01
-4.28037500e-08,2.02962500e-01
-4.27637500e-08,2.02684375e-01
-4.27237500e-08,2.02453125e-01
-4.26837500e-08,2.02523438e-01
-4.26437500e-08,2.02484375e-01
-4.26037500e-08,2.02510938e-01
-4.25637500e-08,2.02492188e-01
-4.25237500e-08,2.02507812e-01
-4.24837500e-08,2.02493750e-01
-4.24437500e-08,2.02506250e-01
-4.24037500e-08,2.02492188e-01
-4.23637500e-08,2.02509375e-01
-4.23237500e-08,2.02489063e-01
-4.22837500e-08,2.02515625e-01
-4.22437500e-08,2.02475000e-01
-4.22037500e-08,2.02548438e-01
-4.21637500e-08,2.02298438e-01
-4.21237500e-08,2.02039063e-01
-4.20837500e-08,2.02137500e-01
-4.20437500e-08,2.02070313e-01
-4.20037500e-08,2.02125000e-01
-4.19637500e-08,2.02076563e-01
-4.19237500e-08,2.02123438e-01
-4.18837500e-08,2.02075000e-01
-4.18437500e-08,2.02129688e-01
-4.18037500e-08,2.02062500e-01
-4.17637500e-08,2.02160937e-01
-4.17237500e-08,2.01887500e-01
-4.16837500e-08,2.01650000e-01
-4.16437500e-08,2.01728125e-01
-4.16037500e-08,2.01679688e-01
-4.15637500e-08,2.01717188e-01
-4.15237500e-08,2.01682813e-01
-4.14837500e-08,2.01720312e-01
-4.14437500e-08,2.01671875e-01
-4.14037500e-08,2.01751563e-01
-4.13637500e-08,2.01496875e-01
-4.13237500e-08,2.01240625e-01
-4.12837500e-08,2.01337500e-01
-4.12437500e-08,2.01271875e-01
-4.12037500e-08,2.01325000e-01
-4.11637500e-08,2.01276563e-01
-4.11237500e-08,2.01323438e-01
-4.10837500e-08,2.01273438e-01
-4.10437500e-08,2.01329688e-01
-4.10037500e-08,2.01260938e-01
-4.09637500e-08,2.01364062e-01
-4.09237500e-08,2.01084375e-01
-4.08837500e-08,2.00853125e-01
-4.08437500e-08,2.00923437e-01
-4.08037500e-08,2.00885938e-01
-4.07637500e-08,2.00909375e-01
-4.07237500e-08,2.00893750e-01
-4.06837500e-08,2.00904688e-01
-4.06437500e-08,2.00896875e-01
-4.06037500e-08,2.00903125e-01
-4.05637500e-08,2.00898437e-01
-4.05237500e-08,2.00901563e-01
-4.04837500e-08,2.00900000e-01
-4.04437500e-08,2.00900000e-01
-4.04037500e-08,2.00900000e-01
-4.03637500e-08,2.00900000e-01
-4.03237500e-08,2.00900000e-01
-4.02837500e-08,2.00900000e-01
-4.02437500e-08,2.00901563e-01
-4.02037500e-08,2.00898437e-01
-4.01637500e-08,2.00901563e-01
-4.01237500e-08,2.00898437e-01
-4.00837500e-08,2.00901563e-01
-4.00437500e-08,2.00898437e-01
-4.00037500e-08,2.00901563e-01
-3.99637500e-08,2.00898437e-01
-3.99237500e-08,2.00901563e-01
-3.98837500e-08,2.00898437e-01
-3.98437500e-08,2.00901563e-01
-3.98037500e-08,2.00898437e-01
-3.97637500e-08,2.00903125e-01
-3.97237500e-08,2.00896875e-01
-3.96837500e-08,2.00903125e-01
-3.96437500e-08,2.00896875e-01
-3.96037500e-08,2.00903125e-01
-3.95637500e-08,2.00896875e-01
-3.95237500e-08,2.00903125e-01
-3.94837500e-08,2.00895313e-01
-3.94437500e-08,2.00904688e-01
-3.94037500e-08,2.00895313e-01
-3.93637500e-08,2.00906250e-01
-3.93237500e-08,2.00892188e-01
-3.92837500e-08,2.00910937e-01
-3.92437500e-08,2.00884375e-01
-3.92037500e-08,2.00923437e-01
-3.91637500e-08,2.00851562e-01
-3.91237500e-08,2.01100000e-01
-3.90837500e-08,2.01364062e-01
-3.90437500e-08,2.01257813e-01
-3.90037500e-08,2.01337500e-01
-3.89637500e-08,2.01262500e-01
-3.89237500e-08,2.01343750e-01
-3.88837500e-08,2.01232812e-01
-3.88437500e-08,2.01520313e-01
-3.88037500e-08,2.01742188e-01
-3.87637500e-08,2.01684375e-01
-3.87237500e-08,2.01703125e-01
-3.86837500e-08,2.01709375e-01
-3.86437500e-08,2.01665625e-01
-3.86037500e-08,2.01887500e-01
-3.85637500e-08,2.02176563e-01
-3.85237500e-08,2.02042187e-01
