trails/00d9de579c68e71117ffc152f8bf8771/aes_ch1_20250506165903636.csv

Model,MSO66B
Label,
Waveform Type,ANALOG
Horizontal Units,s
Sample Interval,4.00000000e-11
Record Length,10000
Zero Index,1599.08984375
Vertical Units,A
ANALOG_Thumbnail,
yOffset,1.84500000e-01
yPosition,8.40000000e-01

Labels,
TIME,CH1
-6.39635937e-08,1.87504688e-01
-6.39235937e-08,1.87757813e-01
-6.38835938e-08,1.87665625e-01
-6.38435937e-08,1.87725000e-01
-6.38035938e-08,1.87679687e-01
-6.37635937e-08,1.87717187e-01
-6.37235937e-08,1.87685938e-01
-6.36835937e-08,1.87714063e-01
-6.36435937e-08,1.87687500e-01
-6.36035938e-08,1.87712500e-01
-6.35635937e-08,1.87689063e-01
-6.35235938e-08,1.87710938e-01
-6.34835937e-08,1.87689063e-01
-6.34435937e-08,1.87710938e-01
-6.34035937e-08,1.87689063e-01
-6.33635937e-08,1.87710938e-01
-6.33235938e-08,1.87689063e-01
-6.32835937e-08,1.87710938e-01
-6.32435938e-08,1.87687500e-01
-6.32035937e-08,1.87712500e-01
-6.31635937e-08,1.87685938e-01
-6.31235937e-08,1.87717187e-01
-6.30835937e-08,1.87681250e-01
-6.30435938e-08,1.87725000e-01
-6.30035937e-08,1.87665625e-01
-6.29635938e-08,1.87757813e-01
-6.29235937e-08,1.87489062e-01
-6.28835937e-08,1.87248438e-01
-6.28435937e-08,1.87326563e-01
-6.28035937e-08,1.87282813e-01
-6.27635938e-08,1.87312500e-01
-6.27235937e-08,1.87290625e-01
-6.26835938e-08,1.87307813e-01
-6.26435937e-08,1.87293750e-01
-6.26035937e-08,1.87306250e-01
-6.25635937e-08,1.87295313e-01
-6.25235937e-08,1.87304688e-01
-6.24835938e-08,1.87296875e-01
-6.24435937e-08,1.87303125e-01
-6.24035938e-08,1.87296875e-01
-6.23635937e-08,1.87303125e-01
-6.23235937e-08,1.87296875e-01
-6.22835937e-08,1.87301563e-01
-6.22435937e-08,1.87298437e-01
-6.22035938e-08,1.87301563e-01
-6.21635937e-08,1.87298437e-01
-6.21235937e-08,1.87301563e-01
-6.20835937e-08,1.87298437e-01
-6.20435937e-08,1.87301563e-01
-6.20035937e-08,1.87298437e-01
-6.19635937e-08,1.87301563e-01
-6.19235938e-08,1.87298437e-01
-6.18835937e-08,1.87301563e-01
-6.18435937e-08,1.87298437e-01
-6.18035937e-08,1.87301563e-01
-6.17635937e-08,1.87298437e-01
-6.17235937e-08,1.87301563e-01
-6.16835937e-08,1.87296875e-01
-6.16435938e-08,1.87303125e-01
-6.16035937e-08,1.87296875e-01
-6.15635937e-08,1.87303125e-01
-6.15235937e-08,1.87296875e-01
-6.14835937e-08,1.87304688e-01
-6.14435937e-08,1.87295313e-01
-6.14035937e-08,1.87304688e-01
-6.13635938e-08,1.87293750e-01
-6.13235937e-08,1.87307813e-01
-6.12835937e-08,1.87292188e-01
-6.12435937e-08,1.87310937e-01
-6.12035937e-08,1.87285937e-01
-6.11635937e-08,1.87318750e-01
-6.11235937e-08,1.87271875e-01
-6.10835938e-08,1.87353125e-01
-6.10435937e-08,1.87093750e-01
-6.10035937e-08,1.86843750e-01
-6.09635937e-08,1.86932813e-01
-6.09235937e-08,1.86876563e-01
-6.08835937e-08,1.86918750e-01
-6.08435937e-08,1.86884375e-01
-6.08035938e-08,1.86912500e-01
-6.07635937e-08,1.86887500e-01
-6.07235937e-08,1.86910938e-01
-6.06835937e-08,1.86890625e-01
-6.06435937e-08,1.86909375e-01
-6.06035937e-08,1.86890625e-01
-6.05635937e-08,1.86907812e-01
-6.05235938e-08,1.86892188e-01
-6.04835937e-08,1.86907812e-01
-6.04435937e-08,1.86892188e-01
-6.04035937e-08,1.86907812e-01
-6.03635937e-08,1.86892188e-01
-6.03235938e-08,1.86907812e-01
-6.02835937e-08,1.86892188e-01
-6.02435938e-08,1.86907812e-01
-6.02035937e-08,1.86892188e-01
-6.01635937e-08,1.86907812e-01
-6.01235937e-08,1.86892188e-01
-6.00835937e-08,1.86907812e-01
-6.00435938e-08,1.86892188e-01
-6.00035937e-08,1.86907812e-01
-5.99635938e-08,1.86892188e-01
-5.99235937e-08,1.86907812e-01
-5.98835937e-08,1.86892188e-01
-5.98435937e-08,1.86907812e-01
-5.98035937e-08,1.86892188e-01
-5.97635938e-08,1.86909375e-01
-5.97235937e-08,1.86890625e-01
-5.96835938e-08,1.86909375e-01
-5.96435937e-08,1.86889063e-01
-5.96035937e-08,1.86910938e-01
-5.95635937e-08,1.86887500e-01
-5.95235937e-08,1.86914063e-01
-5.94835937e-08,1.86884375e-01
-5.94435937e-08,1.86918750e-01
-5.94035937e-08,1.86876563e-01
-5.93635937e-08,1.86934375e-01
-5.93235937e-08,1.86840625e-01
-5.92835937e-08,1.87112500e-01
-5.92435937e-08,1.87350000e-01
-5.92035937e-08,1.87273438e-01
-5.91635937e-08,1.87317188e-01
-5.91235937e-08,1.87287500e-01
-5.90835937e-08,1.87309375e-01
-5.90435937e-08,1.87293750e-01
-5.90035937e-08,1.87304688e-01
-5.89635937e-08,1.87295313e-01
-5.89235937e-08,1.87303125e-01
-5.88835937e-08,1.87296875e-01
-5.88435937e-08,1.87301563e-01
-5.88035937e-08,1.87298437e-01
-5.87635937e-08,1.87301563e-01
-5.87235937e-08,1.87300000e-01
-5.86835937e-08,1.87300000e-01
-5.86435937e-08,1.87300000e-01
-5.86035937e-08,1.87300000e-01
-5.85635937e-08,1.87300000e-01
-5.85235937e-08,1.87298437e-01
-5.84835937e-08,1.87301563e-01
-5.84435937e-08,1.87298437e-01
-5.84035937e-08,1.87301563e-01
-5.83635937e-08,1.87298437e-01
-5.83235937e-08,1.87301563e-01
-5.82835937e-08,1.87298437e-01
-5.82435937e-08,1.87303125e-01
-5.82035937e-08,1.87296875e-01
-5.81635937e-08,1.87303125e-01
-5.81235937e-08,1.87296875e-01
-5.80835937e-08,1.87303125e-01
-5.80435937e-08,1.87295313e-01
-5.80035937e-08,1.87304688e-01
-5.79635937e-08,1.87295313e-01
-5.79235937e-08,1.87306250e-01
-5.78835937e-08,1.87293750e-01
-5.78435937e-08,1.87307813e-01
-5.78035937e-08,1.87292188e-01
-5.77635937e-08,1.87309375e-01
-5.77235937e-08,1.87289063e-01
-5.76835937e-08,1.87312500e-01
-5.76435937e-08,1.87284375e-01
-5.76035937e-08,1.87321875e-01
-5.75635937e-08,1.87268750e-01
-5.75235937e-08,1.87356250e-01
-5.74835937e-08,1.87090625e-01
-5.74435937e-08,1.86846875e-01
-5.74035937e-08,1.86929687e-01
-5.73635937e-08,1.86879688e-01
-5.73235937e-08,1.86914063e-01
-5.72835937e-08,1.86889063e-01
-5.72435937e-08,1.86909375e-01
-5.72035937e-08,1.86892188e-01
-5.71635937e-08,1.86906250e-01
-5.71235937e-08,1.86893750e-01
-5.70835937e-08,1.86904687e-01
-5.70435937e-08,1.86895313e-01
-5.70035937e-08,1.86903125e-01
-5.69635937e-08,1.86896875e-01
-5.69235937e-08,1.86901563e-01
-5.68835937e-08,1.86898438e-01
-5.68435937e-08,1.86901563e-01
-5.68035937e-08,1.86900000e-01
-5.67635937e-08,1.86900000e-01
-5.67235937e-08,1.86900000e-01
-5.66835937e-08,1.86898438e-01
-5.66435937e-08,1.86901563e-01
-5.66035937e-08,1.86896875e-01
-5.65635937e-08,1.86903125e-01
-5.65235937e-08,1.86895313e-01
-5.64835937e-08,1.86906250e-01
-5.64435937e-08,1.86892188e-01
-5.64035937e-08,1.86910938e-01
-5.63635937e-08,1.86882812e-01
-5.63235937e-08,1.86926563e-01
-5.62835937e-08,1.86848438e-01
-5.62435937e-08,1.87104688e-01
-5.62035937e-08,1.87357812e-01
-5.61635937e-08,1.87265625e-01
-5.61235937e-08,1.87325000e-01
-5.60835937e-08,1.87279688e-01
-5.60435937e-08,1.87317188e-01
-5.60035937e-08,1.87284375e-01
-5.59635937e-08,1.87314063e-01
-5.59235937e-08,1.87287500e-01
-5.58835937e-08,1.87310937e-01
-5.58435937e-08,1.87289063e-01
-5.58035937e-08,1.87310937e-01
-5.57635937e-08,1.87290625e-01
-5.57235937e-08,1.87309375e-01
-5.56835937e-08,1.87290625e-01
-5.56435937e-08,1.87309375e-01
-5.56035937e-08,1.87290625e-01
-5.55635937e-08,1.87309375e-01
-5.55235937e-08,1.87290625e-01
-5.54835937e-08,1.87309375e-01
-5.54435937e-08,1.87290625e-01
-5.54035937e-08,1.87309375e-01
-5.53635937e-08,1.87290625e-01
-5.53235937e-08,1.87309375e-01
-5.52835937e-08,1.87289063e-01
-5.52435937e-08,1.87310937e-01
-5.52035937e-08,1.87289063e-01
-5.51635937e-08,1.87312500e-01
-5.51235937e-08,1.87285937e-01
-5.50835937e-08,1.87315625e-01
-5.50435937e-08,1.87282813e-01
-5.50035937e-08,1.87320313e-01
-5.49635937e-08,1.87275000e-01
-5.49235937e-08,1.87334375e-01
-5.48835937e-08,1.87240625e-01
-5.48435937e-08,1.87512500e-01
-5.48035937e-08,1.87748438e-01
-5.47635937e-08,1.87675000e-01
-5.47235937e-08,1.87715625e-01
-5.46835937e-08,1.87689063e-01
-5.46435937e-08,1.87706250e-01
-5.46035937e-08,1.87695313e-01
-5.45635937e-08,1.87703125e-01
-5.45235937e-08,1.87698438e-01
-5.44835937e-08,1.87700000e-01
-5.44435937e-08,1.87701563e-01
-5.44035937e-08,1.87696875e-01
-5.43635937e-08,1.87704687e-01
-5.43235937e-08,1.87692187e-01
-5.42835937e-08,1.87710938e-01
-5.42435937e-08,1.87684375e-01
-5.42035937e-08,1.87725000e-01
-5.41635937e-08,1.87650000e-01
-5.41235937e-08,1.87903125e-01
-5.40835937e-08,1.88157813e-01
-5.40435937e-08,1.88065625e-01
-5.40035937e-08,1.88125000e-01
-5.39635937e-08,1.88079688e-01
-5.39235937e-08,1.88118750e-01
-5.38835937e-08,1.88082813e-01
-5.38435937e-08,1.88115625e-01
-5.38035937e-08,1.88084375e-01
-5.37635937e-08,1.88115625e-01
-5.37235937e-08,1.88082813e-01
-5.36835937e-08,1.88120312e-01
-5.36435937e-08,1.88075000e-01
-5.36035937e-08,1.88132812e-01
-5.35635937e-08,1.88042188e-01
-5.35235937e-08,1.88310937e-01
-5.34835937e-08,1.88553125e-01
-5.34435937e-08,1.88470313e-01
-5.34035937e-08,1.88520313e-01
-5.33635937e-08,1.88484375e-01
-5.33235937e-08,1.88514062e-01
-5.32835937e-08,1.88487500e-01
-5.32435937e-08,1.88510938e-01
-5.32035937e-08,1.88489062e-01
-5.31635937e-08,1.88510938e-01
-5.31235937e-08,1.88489062e-01
-5.30835937e-08,1.88510938e-01
-5.30435937e-08,1.88489062e-01
-5.30035937e-08,1.88512500e-01
-5.29635937e-08,1.88487500e-01
-5.29235938e-08,1.88514062e-01
-5.28835937e-08,1.88482813e-01
-5.28435937e-08,1.88520313e-01
-5.28035937e-08,1.88473438e-01
-5.27635937e-08,1.88535938e-01
-5.27235937e-08,1.88437500e-01
-5.26835937e-08,1.88715625e-01
-5.26435937e-08,1.88945313e-01
-5.26035937e-08,1.88881250e-01
-5.25635937e-08,1.88906250e-01
-5.25235937e-08,1.88903125e-01
-5.24835937e-08,1.88884375e-01
-5.24435937e-08,1.88943750e-01
-5.24035937e-08,1.88703125e-01
-5.23635937e-08,1.88435938e-01
-5.23235937e-08,1.88539063e-01
-5.22835937e-08,1.88471875e-01
-5.22435937e-08,1.88523438e-01
-5.22035937e-08,1.88481250e-01
-5.21635937e-08,1.88515625e-01
-5.21235937e-08,1.88485938e-01
-5.20835937e-08,1.88510938e-01
-5.20435937e-08,1.88492188e-01
-5.20035937e-08,1.88504688e-01
-5.19635937e-08,1.88500000e-01
-5.19235937e-08,1.88490625e-01
-5.18835937e-08,1.88532813e-01
-5.18435937e-08,1.88314063e-01
-5.18035937e-08,1.88021875e-01
-5.17635937e-08,1.88156250e-01
-5.17235937e-08,1.88050000e-01
-5.16835937e-08,1.88150000e-01
-5.16435937e-08,1.88042188e-01
-5.16035937e-08,1.88181250e-01
-5.15635937e-08,1.87865625e-01
-5.15235937e-08,1.87671875e-01
-5.14835937e-08,1.87701563e-01
-5.14435937e-08,1.87710938e-01
-5.14035937e-08,1.87675000e-01
-5.13635937e-08,1.87751562e-01
-5.13235937e-08,1.87495313e-01
-5.12835937e-08,1.87240625e-01
-5.12435937e-08,1.87339063e-01
-5.12035937e-08,1.87262500e-01
-5.11635937e-08,1.87354688e-01
-5.11235937e-08,1.87098438e-01
-5.10835937e-08,1.86834375e-01
-5.10435937e-08,1.86950000e-01
-5.10035938e-08,1.86848438e-01
-5.09635937e-08,1.86973438e-01
-5.09235937e-08,1.86675000e-01
-5.08835937e-08,1.86464062e-01
-5.08435937e-08,1.86510938e-01
-5.08035937e-08,1.86503125e-01
-5.07635937e-08,1.86482813e-01
-5.07235938e-08,1.86543750e-01
-5.06835937e-08,1.86301563e-01
-5.06435937e-08,1.86035937e-01
-5.06035937e-08,1.86140625e-01
-5.05635937e-08,1.86068750e-01
-5.05235937e-08,1.86128125e-01
-5.04835937e-08,1.86071875e-01
-5.04435937e-08,1.86129688e-01
-5.04035937e-08,1.86062500e-01
-5.03635937e-08,1.86160938e-01
-5.03235937e-08,1.85887500e-01
-5.02835937e-08,1.85650000e-01
-5.02435937e-08,1.85726562e-01
-5.02035937e-08,1.85681250e-01
-5.01635937e-08,1.85714062e-01
-5.01235937e-08,1.85687500e-01
-5.00835937e-08,1.85710938e-01
-5.00435937e-08,1.85690625e-01
-5.00035937e-08,1.85709375e-01
-4.99635937e-08,1.85690625e-01
-4.99235937e-08,1.85709375e-01
-4.98835937e-08,1.85690625e-01
-4.98435937e-08,1.85710938e-01
-4.98035937e-08,1.85689063e-01
-4.97635937e-08,1.85712500e-01
-4.97235937e-08,1.85685938e-01
-4.96835937e-08,1.85717188e-01
-4.96435937e-08,1.85678125e-01
-4.96035937e-08,1.85732813e-01
-4.95635937e-08,1.85643750e-01
-4.95235937e-08,1.85909375e-01
-4.94835937e-08,1.86151563e-01
-4.94435937e-08,1.86071875e-01
-4.94035937e-08,1.86118750e-01
-4.93635937e-08,1.86085938e-01
-4.93235937e-08,1.86110938e-01
-4.92835937e-08,1.86090625e-01
-4.92435937e-08,1.86107812e-01
-4.92035937e-08,1.86093750e-01
-4.91635937e-08,1.86106250e-01
-4.91235937e-08,1.86095312e-01
-4.90835938e-08,1.86104688e-01
-4.90435937e-08,1.86095312e-01
-4.90035937e-08,1.86104688e-01
-4.89635937e-08,1.86096875e-01
-4.89235937e-08,1.86103125e-01
-4.88835937e-08,1.86096875e-01
-4.88435937e-08,1.86103125e-01
-4.88035938e-08,1.86096875e-01
-4.87635937e-08,1.86103125e-01
-4.87235937e-08,1.86096875e-01
-4.86835937e-08,1.86103125e-01
-4.86435937e-08,1.86096875e-01
-4.86035937e-08,1.86103125e-01
-4.85635937e-08,1.86096875e-01
-4.85235938e-08,1.86103125e-01
-4.84835937e-08,1.86096875e-01
-4.84435937e-08,1.86104688e-01
-4.84035937e-08,1.86095312e-01
-4.83635937e-08,1.86104688e-01
-4.83235937e-08,1.86093750e-01
-4.82835937e-08,1.86106250e-01
-4.82435937e-08,1.86092188e-01
-4.82035937e-08,1.86109375e-01
-4.81635937e-08,1.86087500e-01
-4.81235937e-08,1.86117188e-01
-4.80835937e-08,1.86071875e-01
-4.80435937e-08,1.86151563e-01
-4.80035937e-08,1.85895313e-01
-4.79635937e-08,1.85642187e-01
-4.79235937e-08,1.85734375e-01
-4.78835937e-08,1.85675000e-01
-4.78435937e-08,1.85720313e-01
-4.78035937e-08,1.85682813e-01
-4.77635937e-08,1.85715625e-01
-4.77235937e-08,1.85685938e-01
-4.76835937e-08,1.85714062e-01
-4.76435937e-08,1.85685938e-01
-4.76035937e-08,1.85714062e-01
-4.75635937e-08,1.85685938e-01
-4.75235937e-08,1.85715625e-01
-4.74835937e-08,1.85682813e-01
-4.74435937e-08,1.85720313e-01
-4.74035937e-08,1.85675000e-01
-4.73635937e-08,1.85734375e-01
-4.73235937e-08,1.85642187e-01
-4.72835937e-08,1.85910938e-01
-4.72435937e-08,1.86151563e-01
-4.72035937e-08,1.86071875e-01
-4.71635938e-08,1.86120312e-01
-4.71235937e-08,1.86084375e-01
-4.70835937e-08,1.86112500e-01
-4.70435937e-08,1.86087500e-01
-4.70035937e-08,1.86112500e-01
-4.69635937e-08,1.86087500e-01
-4.69235937e-08,1.86115625e-01
-4.68835938e-08,1.86081250e-01
-4.68435937e-08,1.86128125e-01
-4.68035937e-08,1.86048437e-01
-4.67635937e-08,1.86303125e-01
-4.67235937e-08,1.86559375e-01
-4.66835937e-08,1.86462500e-01
-4.66435937e-08,1.86529688e-01
-4.66035938e-08,1.86473438e-01
-4.65635937e-08,1.86526562e-01
-4.65235937e-08,1.86470313e-01
-4.64835937e-08,1.86537500e-01
-4.64435937e-08,1.86439063e-01
-4.64035937e-08,1.86712500e-01
-4.63635937e-08,1.86950000e-01
-4.63235938e-08,1.86873438e-01
-4.62835937e-08,1.86918750e-01
-4.62435937e-08,1.86885938e-01
-4.62035937e-08,1.86912500e-01
-4.61635937e-08,1.86887500e-01
-4.61235937e-08,1.86912500e-01
-4.60835937e-08,1.86885938e-01
-4.60435937e-08,1.86915625e-01
-4.60035937e-08,1.86879688e-01
-4.59635937e-08,1.86929687e-01
-4.59235937e-08,1.86846875e-01
-4.58835937e-08,1.87106250e-01
-4.58435937e-08,1.87356250e-01
-4.58035937e-08,1.87267188e-01
-4.57635937e-08,1.87323437e-01
-4.57235937e-08,1.87281250e-01
-4.56835937e-08,1.87315625e-01
-4.56435937e-08,1.87285937e-01
-4.56035937e-08,1.87312500e-01
-4.55635937e-08,1.87287500e-01
-4.55235937e-08,1.87310937e-01
-4.54835937e-08,1.87289063e-01
-4.54435937e-08,1.87310937e-01
-4.54035937e-08,1.87290625e-01
-4.53635937e-08,1.87309375e-01
-4.53235937e-08,1.87290625e-01
-4.52835937e-08,1.87309375e-01
-4.52435938e-08,1.87290625e-01
-4.52035937e-08,1.87309375e-01
-4.51635937e-08,1.87290625e-01
-4.51235937e-08,1.87309375e-01
-4.50835937e-08,1.87290625e-01
-4.50435937e-08,1.87309375e-01
-4.50035937e-08,1.87290625e-01
-4.49635938e-08,1.87309375e-01
-4.49235937e-08,1.87290625e-01
-4.48835937e-08,1.87309375e-01
-4.48435937e-08,1.87289063e-01
-4.48035937e-08,1.87310937e-01
-4.47635937e-08,1.87289063e-01
-4.47235937e-08,1.87310937e-01
-4.46835938e-08,1.87289063e-01
-4.46435937e-08,1.87312500e-01
-4.46035937e-08,1.87287500e-01
-4.45635937e-08,1.87312500e-01
-4.45235937e-08,1.87285937e-01
-4.44835937e-08,1.87314063e-01
-4.44435937e-08,1.87284375e-01
-4.44035938e-08,1.87317188e-01
-4.43635937e-08,1.87279688e-01
-4.43235937e-08,1.87323437e-01
-4.42835937e-08,1.87271875e-01
-4.42435937e-08,1.87337500e-01
-4.42035937e-08,1.87237500e-01
-4.41635937e-08,1.87515625e-01
-4.41235938e-08,1.87745313e-01
-4.40835937e-08,1.87678125e-01
-4.40435937e-08,1.87712500e-01
-4.40035937e-08,1.87692187e-01
-4.39635937e-08,1.87704687e-01
-4.39235937e-08,1.87698438e-01
-4.38835937e-08,1.87700000e-01
-4.38435937e-08,1.87701563e-01
-4.38035937e-08,1.87698438e-01
-4.37635937e-08,1.87703125e-01
-4.37235937e-08,1.87696875e-01
-4.36835937e-08,1.87704687e-01
-4.36435937e-08,1.87695313e-01
-4.36035937e-08,1.87706250e-01
-4.35635937e-08,1.87693750e-01
-4.35235937e-08,1.87707813e-01
-4.34835937e-08,1.87692187e-01
-4.34435937e-08,1.87709375e-01
-4.34035937e-08,1.87690625e-01
-4.33635937e-08,1.87710938e-01
-4.33235938e-08,1.87689063e-01
-4.32835937e-08,1.87712500e-01
-4.32435937e-08,1.87685938e-01
-4.32035937e-08,1.87715625e-01
-4.31635937e-08,1.87682813e-01
-4.31235937e-08,1.87718750e-01
-4.30835937e-08,1.87676563e-01
-4.30435938e-08,1.87728125e-01
-4.30035937e-08,1.87660938e-01
-4.29635937e-08,1.87764062e-01
-4.29235937e-08,1.87481250e-01
-4.28835937e-08,1.87257813e-01
-4.28435937e-08,1.87317188e-01
-4.28035937e-08,1.87293750e-01
-4.27635938e-08,1.87298437e-01
-4.27235937e-08,1.87309375e-01
-4.26835937e-08,1.87278125e-01
-4.26435937e-08,1.87346875e-01
-4.26035937e-08,1.87098438e-01
-4.25635937e-08,1.86839063e-01
-4.25235937e-08,1.86939063e-01
-4.24835938e-08,1.86868750e-01
-4.24435937e-08,1.86929687e-01
-4.24035937e-08,1.86865625e-01
-4.23635937e-08,1.86956250e-01
-4.23235937e-08,1.86693750e-01
-4.22835937e-08,1.86440625e-01
-4.22435937e-08,1.86539063e-01
-4.22035938e-08,1.86465625e-01
-4.21635937e-08,1.86534375e-01
-4.21235937e-08,1.86457813e-01
-4.20835937e-08,1.86567188e-01
-4.20435937e-08,1.86281250e-01
-4.20035937e-08,1.86057813e-01
-4.19635937e-08,1.86118750e-01
-4.19235938e-08,1.86090625e-01
-4.18835937e-08,1.86103125e-01
-4.18435937e-08,1.86101563e-01
-4.18035937e-08,1.86095312e-01
-4.17635937e-08,1.86107812e-01
-4.17235937e-08,1.86087500e-01
-4.16835937e-08,1.86118750e-01
-4.16435937e-08,1.86070313e-01
-4.16035937e-08,1.86156250e-01
-4.15635937e-08,1.85890625e-01
-4.15235937e-08,1.85648438e-01
-4.14835937e-08,1.85726562e-01
-4.14435937e-08,1.85684375e-01
-4.14035938e-08,1.85709375e-01
-4.13635937e-08,1.85695313e-01
-4.13235937e-08,1.85700000e-01
-4.12835937e-08,1.85704688e-01
-4.12435937e-08,1.85689063e-01
-4.12035937e-08,1.85721875e-01
-4.11635937e-08,1.85653125e-01
-4.11235938e-08,1.85901563e-01
-4.10835937e-08,1.86160938e-01
-4.10435937e-08,1.86064063e-01
-4.10035937e-08,1.86126563e-01
-4.09635937e-08,1.86078125e-01
-4.09235937e-08,1.86117188e-01
-4.08835937e-08,1.86084375e-01
-4.08435938e-08,1.86114063e-01
-4.08035937e-08,1.86087500e-01
-4.07635937e-08,1.86110938e-01
-4.07235937e-08,1.86090625e-01
-4.06835937e-08,1.86109375e-01
-4.06435937e-08,1.86090625e-01
-4.06035937e-08,1.86107812e-01
-4.05635938e-08,1.86092188e-01
-4.05235937e-08,1.86107812e-01
-4.04835937e-08,1.86093750e-01
-4.04435937e-08,1.86106250e-01
-4.04035937e-08,1.86093750e-01
-4.03635937e-08,1.86106250e-01
-4.03235937e-08,1.86093750e-01
-4.02835938e-08,1.86106250e-01
-4.02435937e-08,1.86093750e-01
-4.02035937e-08,1.86106250e-01
-4.01635937e-08,1.86093750e-01
-4.01235937e-08,1.86106250e-01
-4.00835937e-08,1.86093750e-01
-4.00435937e-08,1.86106250e-01
-4.00035938e-08,1.86093750e-01
-3.99635937e-08,1.86106250e-01
-3.99235937e-08,1.86092188e-01
-3.98835937e-08,1.86107812e-01
-3.98435937e-08,1.86090625e-01
-3.98035937e-08,1.86110938e-01
-3.97635937e-08,1.86085938e-01
-3.97235937e-08,1.86118750e-01
-3.96835937e-08,1.86071875e-01
-3.96435937e-08,1.86153125e-01
-3.96035937e-08,1.85895313e-01
-3.95635937e-08,1.85642187e-01
-3.95235937e-08,1.85734375e-01
-3.94835938e-08,1.85675000e-01
-3.94435937e-08,1.85720313e-01
-3.94035937e-08,1.85682813e-01
-3.93635937e-08,1.85715625e-01
-3.93235937e-08,1.85685938e-01
-3.92835937e-08,1.85714062e-01
-3.92435937e-08,1.85685938e-01
-3.92035938e-08,1.85714062e-01
-3.91635937e-08,1.85687500e-01
-3.91235937e-08,1.85714062e-01
-3.90835937e-08,1.85685938e-01
-3.90435937e-08,1.85714062e-01
-3.90035937e-08,1.85685938e-01
-3.89635937e-08,1.85715625e-01
-3.89235938e-08,1.85684375e-01
-3.88835937e-08,1.85717188e-01
-3.88435937e-08,1.85681250e-01
-3.88035937e-08,1.85720313e-01
-3.87635937e-08,1.85678125e-01
-3.87235937e-08,1.85726562e-01
-3.86835937e-08,1.85668750e-01
-3.86435938e-08,1.85742188e-01
-3.86035937e-08,1.85632812e-01
-3.85635937e-08,1.85920313e-01
-3.85235937e-08,1.86140625e-01
