trails/00d9de579c68e71117ffc152f8bf8771/aes_ch1_20250506170122876.csv

Model,MSO66B
Label,
Waveform Type,ANALOG
Horizontal Units,s
Sample Interval,4.00000000e-11
Record Length,10000
Zero Index,1599.08984375
Vertical Units,A
ANALOG_Thumbnail,
yOffset,1.84500000e-01
yPosition,8.40000000e-01

Labels,
TIME,CH1
-6.39635937e-08,2.02893750e-01
-6.39235937e-08,2.02906250e-01
-6.38835938e-08,2.02893750e-01
-6.38435937e-08,2.02906250e-01
-6.38035938e-08,2.02893750e-01
-6.37635937e-08,2.02904688e-01
-6.37235937e-08,2.02895313e-01
-6.36835937e-08,2.02904688e-01
-6.36435937e-08,2.02895313e-01
-6.36035938e-08,2.02904688e-01
-6.35635937e-08,2.02896875e-01
-6.35235938e-08,2.02903125e-01
-6.34835937e-08,2.02896875e-01
-6.34435937e-08,2.02903125e-01
-6.34035937e-08,2.02898438e-01
-6.33635937e-08,2.02901563e-01
-6.33235938e-08,2.02900000e-01
-6.32835937e-08,2.02898438e-01
-6.32435938e-08,2.02904688e-01
-6.32035937e-08,2.02890625e-01
-6.31635937e-08,2.02918750e-01
-6.31235937e-08,2.02857813e-01
-6.30835937e-08,2.03095313e-01
-6.30435938e-08,2.03368750e-01
-6.30035937e-08,2.03253125e-01
-6.29635938e-08,2.03339063e-01
-6.29235937e-08,2.03264063e-01
-6.28835937e-08,2.03335938e-01
-6.28435937e-08,2.03259375e-01
-6.28035937e-08,2.03348438e-01
-6.27635938e-08,2.03226563e-01
-6.27235937e-08,2.03526563e-01
-6.26835938e-08,2.03735938e-01
-6.26435937e-08,2.03689063e-01
-6.26035937e-08,2.03698437e-01
-6.25635937e-08,2.03709375e-01
-6.25235937e-08,2.03682813e-01
-6.24835938e-08,2.03728125e-01
-6.24435937e-08,2.03645313e-01
-6.24035938e-08,2.03909375e-01
-6.23635937e-08,2.04150000e-01
-6.23235937e-08,2.04075000e-01
-6.22835937e-08,2.04114062e-01
-6.22435937e-08,2.04093750e-01
-6.22035938e-08,2.04096875e-01
-6.21635937e-08,2.04114062e-01
-6.21235937e-08,2.04060938e-01
-6.20835937e-08,2.04293750e-01
-6.20435937e-08,2.04568750e-01
-6.20035937e-08,2.04454688e-01
-6.19635937e-08,2.04535938e-01
-6.19235938e-08,2.04467188e-01
-6.18835937e-08,2.04532812e-01
-6.18435937e-08,2.04465625e-01
-6.18035937e-08,2.04542188e-01
-6.17635937e-08,2.04434375e-01
-6.17235937e-08,2.04717188e-01
-6.16835937e-08,2.04945313e-01
-6.16435938e-08,2.04876562e-01
-6.16035937e-08,2.04914062e-01
-6.15635937e-08,2.04889062e-01
-6.15235937e-08,2.04907813e-01
-6.14835937e-08,2.04892188e-01
-6.14435937e-08,2.04906250e-01
-6.14035937e-08,2.04892188e-01
-6.13635938e-08,2.04907813e-01
-6.13235937e-08,2.04890625e-01
-6.12835937e-08,2.04912500e-01
-6.12435937e-08,2.04882813e-01
-6.12035937e-08,2.04926563e-01
-6.11635937e-08,2.04850000e-01
-6.11235937e-08,2.05103125e-01
-6.10835938e-08,2.05359375e-01
-6.10435937e-08,2.05264063e-01
-6.10035937e-08,2.05326563e-01
-6.09635937e-08,2.05278125e-01
-6.09235937e-08,2.05320313e-01
-6.08835937e-08,2.05281250e-01
-6.08435937e-08,2.05317187e-01
-6.08035938e-08,2.05282813e-01
-6.07635937e-08,2.05317187e-01
-6.07235937e-08,2.05282813e-01
-6.06835937e-08,2.05318750e-01
-6.06435937e-08,2.05279688e-01
-6.06035937e-08,2.05323438e-01
-6.05635937e-08,2.05271875e-01
-6.05235938e-08,2.05337500e-01
-6.04835937e-08,2.05237500e-01
-6.04435937e-08,2.05515625e-01
-6.04035937e-08,2.05746875e-01
-6.03635937e-08,2.05676562e-01
-6.03235938e-08,2.05714063e-01
-6.02835937e-08,2.05690625e-01
-6.02435938e-08,2.05706250e-01
-6.02035937e-08,2.05695313e-01
-6.01635937e-08,2.05703125e-01
-6.01235937e-08,2.05698437e-01
-6.00835937e-08,2.05700000e-01
-6.00435938e-08,2.05701563e-01
-6.00035937e-08,2.05698437e-01
-5.99635938e-08,2.05703125e-01
-5.99235937e-08,2.05696875e-01
-5.98835937e-08,2.05704688e-01
-5.98435937e-08,2.05693750e-01
-5.98035937e-08,2.05707813e-01
-5.97635938e-08,2.05689063e-01
-5.97235937e-08,2.05715625e-01
-5.96835938e-08,2.05675000e-01
-5.96435937e-08,2.05750000e-01
-5.96035937e-08,2.05496875e-01
-5.95635937e-08,2.05239063e-01
-5.95235937e-08,2.05337500e-01
-5.94835937e-08,2.05270312e-01
-5.94435937e-08,2.05326563e-01
-5.94035937e-08,2.05273438e-01
-5.93635937e-08,2.05329687e-01
-5.93235937e-08,2.05260938e-01
-5.92835937e-08,2.05362500e-01
-5.92435937e-08,2.05084375e-01
-5.92035937e-08,2.04853125e-01
-5.91635937e-08,2.04921875e-01
-5.91235937e-08,2.04887500e-01
-5.90835937e-08,2.04904688e-01
-5.90435937e-08,2.04901563e-01
-5.90035937e-08,2.04887500e-01
-5.89635937e-08,2.04937500e-01
-5.89235937e-08,2.04710938e-01
-5.88835937e-08,2.04426563e-01
-5.88435937e-08,2.04551563e-01
-5.88035937e-08,2.04454688e-01
-5.87635937e-08,2.04546875e-01
-5.87235937e-08,2.04446875e-01
-5.86835937e-08,2.04576563e-01
-5.86435937e-08,2.04270312e-01
-5.86035937e-08,2.04067187e-01
-5.85635937e-08,2.04109375e-01
-5.85235937e-08,2.04101562e-01
-5.84835937e-08,2.04090625e-01
-5.84435937e-08,2.04117188e-01
-5.84035937e-08,2.04071875e-01
-5.83635937e-08,2.04154688e-01
-5.83235937e-08,2.03890625e-01
-5.82835937e-08,2.03646875e-01
-5.82435937e-08,2.03728125e-01
-5.82035937e-08,2.03682813e-01
-5.81635937e-08,2.03712500e-01
-5.81235937e-08,2.03692188e-01
-5.80835937e-08,2.03704688e-01
-5.80435937e-08,2.03696875e-01
-5.80035937e-08,2.03700000e-01
-5.79635937e-08,2.03703125e-01
-5.79235937e-08,2.03693750e-01
-5.78835937e-08,2.03712500e-01
-5.78435937e-08,2.03678125e-01
-5.78035937e-08,2.03746875e-01
-5.77635937e-08,2.03498438e-01
-5.77235937e-08,2.03239063e-01
-5.76835937e-08,2.03337500e-01
-5.76435937e-08,2.03271875e-01
-5.76035937e-08,2.03323438e-01
-5.75635937e-08,2.03279688e-01
-5.75235937e-08,2.03318750e-01
-5.74835937e-08,2.03281250e-01
-5.74435937e-08,2.03317187e-01
-5.74035937e-08,2.03282813e-01
-5.73635937e-08,2.03318750e-01
-5.73235937e-08,2.03279688e-01
-5.72835937e-08,2.03321875e-01
-5.72435937e-08,2.03273438e-01
-5.72035937e-08,2.03335938e-01
-5.71635937e-08,2.03239063e-01
-5.71235937e-08,2.03512500e-01
-5.70835937e-08,2.03750000e-01
-5.70435937e-08,2.03675000e-01
-5.70035937e-08,2.03717188e-01
-5.69635937e-08,2.03687500e-01
-5.69235937e-08,2.03709375e-01
-5.68835937e-08,2.03692188e-01
-5.68435937e-08,2.03706250e-01
-5.68035937e-08,2.03695313e-01
-5.67635937e-08,2.03704688e-01
-5.67235937e-08,2.03696875e-01
-5.66835937e-08,2.03703125e-01
-5.66435937e-08,2.03696875e-01
-5.66035937e-08,2.03703125e-01
-5.65635937e-08,2.03698437e-01
-5.65235937e-08,2.03701563e-01
-5.64835937e-08,2.03698437e-01
-5.64435937e-08,2.03701563e-01
-5.64035937e-08,2.03698437e-01
-5.63635937e-08,2.03701563e-01
-5.63235937e-08,2.03698437e-01
-5.62835937e-08,2.03701563e-01
-5.62435937e-08,2.03698437e-01
-5.62035937e-08,2.03701563e-01
-5.61635937e-08,2.03698437e-01
-5.61235937e-08,2.03701563e-01
-5.60835937e-08,2.03698437e-01
-5.60435937e-08,2.03701563e-01
-5.60035937e-08,2.03698437e-01
-5.59635937e-08,2.03701563e-01
-5.59235937e-08,2.03700000e-01
-5.58835937e-08,2.03700000e-01
-5.58435937e-08,2.03700000e-01
-5.58035937e-08,2.03700000e-01
-5.57635937e-08,2.03700000e-01
-5.57235937e-08,2.03700000e-01
-5.56835937e-08,2.03700000e-01
-5.56435937e-08,2.03700000e-01
-5.56035937e-08,2.03700000e-01
-5.55635937e-08,2.03700000e-01
-5.55235937e-08,2.03700000e-01
-5.54835937e-08,2.03698437e-01
-5.54435937e-08,2.03701563e-01
-5.54035937e-08,2.03698437e-01
-5.53635937e-08,2.03703125e-01
-5.53235937e-08,2.03696875e-01
-5.52835937e-08,2.03704688e-01
-5.52435937e-08,2.03693750e-01
-5.52035937e-08,2.03707813e-01
-5.51635937e-08,2.03689063e-01
-5.51235937e-08,2.03715625e-01
-5.50835937e-08,2.03675000e-01
-5.50435937e-08,2.03750000e-01
-5.50035937e-08,2.03496875e-01
-5.49635937e-08,2.03239063e-01
-5.49235937e-08,2.03335938e-01
-5.48835937e-08,2.03271875e-01
-5.48435937e-08,2.03323438e-01
-5.48035937e-08,2.03279688e-01
-5.47635937e-08,2.03318750e-01
-5.47235937e-08,2.03282813e-01
-5.46835937e-08,2.03317187e-01
-5.46435937e-08,2.03282813e-01
-5.46035937e-08,2.03318750e-01
-5.45635937e-08,2.03281250e-01
-5.45235937e-08,2.03320313e-01
-5.44835937e-08,2.03276563e-01
-5.44435937e-08,2.03328125e-01
-5.44035937e-08,2.03262500e-01
-5.43635937e-08,2.03362500e-01
-5.43235937e-08,2.03084375e-01
-5.42835937e-08,2.02853125e-01
-5.42435937e-08,2.02923437e-01
-5.42035937e-08,2.02885938e-01
-5.41635937e-08,2.02909375e-01
-5.41235937e-08,2.02893750e-01
-5.40835937e-08,2.02904688e-01
-5.40435937e-08,2.02896875e-01
-5.40035937e-08,2.02901563e-01
-5.39635937e-08,2.02898438e-01
-5.39235937e-08,2.02900000e-01
-5.38835937e-08,2.02900000e-01
-5.38435937e-08,2.02900000e-01
-5.38035937e-08,2.02901563e-01
-5.37635937e-08,2.02898438e-01
-5.37235937e-08,2.02901563e-01
-5.36835937e-08,2.02898438e-01
-5.36435937e-08,2.02901563e-01
-5.36035937e-08,2.02898438e-01
-5.35635937e-08,2.02901563e-01
-5.35235937e-08,2.02896875e-01
-5.34835937e-08,2.02903125e-01
-5.34435937e-08,2.02896875e-01
-5.34035937e-08,2.02903125e-01
-5.33635937e-08,2.02896875e-01
-5.33235937e-08,2.02903125e-01
-5.32835937e-08,2.02896875e-01
-5.32435937e-08,2.02903125e-01
-5.32035937e-08,2.02896875e-01
-5.31635937e-08,2.02903125e-01
-5.31235937e-08,2.02895313e-01
-5.30835937e-08,2.02904688e-01
-5.30435937e-08,2.02895313e-01
-5.30035937e-08,2.02904688e-01
-5.29635937e-08,2.02895313e-01
-5.29235938e-08,2.02904688e-01
-5.28835937e-08,2.02895313e-01
-5.28435937e-08,2.02904688e-01
-5.28035937e-08,2.02895313e-01
-5.27635937e-08,2.02904688e-01
-5.27235937e-08,2.02893750e-01
-5.26835937e-08,2.02906250e-01
-5.26435937e-08,2.02893750e-01
-5.26035937e-08,2.02906250e-01
-5.25635937e-08,2.02893750e-01
-5.25235937e-08,2.02906250e-01
-5.24835937e-08,2.02893750e-01
-5.24435937e-08,2.02906250e-01
-5.24035937e-08,2.02892188e-01
-5.23635937e-08,2.02907813e-01
-5.23235937e-08,2.02892188e-01
-5.22835937e-08,2.02907813e-01
-5.22435937e-08,2.02892188e-01
-5.22035937e-08,2.02909375e-01
-5.21635937e-08,2.02890625e-01
-5.21235937e-08,2.02909375e-01
-5.20835937e-08,2.02889062e-01
-5.20435937e-08,2.02910937e-01
-5.20035937e-08,2.02887500e-01
-5.19635937e-08,2.02912500e-01
-5.19235937e-08,2.02885938e-01
-5.18835937e-08,2.02915625e-01
-5.18435937e-08,2.02881250e-01
-5.18035937e-08,2.02921875e-01
-5.17635937e-08,2.02873438e-01
-5.17235937e-08,2.02937500e-01
-5.16835937e-08,2.02837500e-01
-5.16435937e-08,2.03115625e-01
-5.16035937e-08,2.03346875e-01
-5.15635937e-08,2.03278125e-01
-5.15235937e-08,2.03312500e-01
-5.14835937e-08,2.03293750e-01
-5.14435937e-08,2.03303125e-01
-5.14035937e-08,2.03300000e-01
-5.13635937e-08,2.03296875e-01
-5.13235937e-08,2.03306250e-01
-5.12835937e-08,2.03290625e-01
-5.12435937e-08,2.03312500e-01
-5.12035937e-08,2.03281250e-01
-5.11635937e-08,2.03328125e-01
-5.11235937e-08,2.03246875e-01
-5.10835937e-08,2.03507812e-01
-5.10435937e-08,2.03754688e-01
-5.10035938e-08,2.03670313e-01
-5.09635937e-08,2.03720313e-01
-5.09235937e-08,2.03684375e-01
-5.08835937e-08,2.03712500e-01
-5.08435937e-08,2.03690625e-01
-5.08035937e-08,2.03707813e-01
-5.07635937e-08,2.03693750e-01
-5.07235938e-08,2.03704688e-01
-5.06835937e-08,2.03695313e-01
-5.06435937e-08,2.03703125e-01
-5.06035937e-08,2.03696875e-01
-5.05635937e-08,2.03701563e-01
-5.05235937e-08,2.03698437e-01
-5.04835937e-08,2.03701563e-01
-5.04435937e-08,2.03700000e-01
-5.04035937e-08,2.03700000e-01
-5.03635937e-08,2.03700000e-01
-5.03235937e-08,2.03698437e-01
-5.02835937e-08,2.03701563e-01
-5.02435937e-08,2.03696875e-01
-5.02035937e-08,2.03703125e-01
-5.01635937e-08,2.03695313e-01
-5.01235937e-08,2.03704688e-01
-5.00835937e-08,2.03693750e-01
-5.00435937e-08,2.03709375e-01
-5.00035937e-08,2.03687500e-01
-4.99635937e-08,2.03717188e-01
-4.99235937e-08,2.03673437e-01
-4.98835937e-08,2.03751563e-01
-4.98435937e-08,2.03495312e-01
-4.98035937e-08,2.03242188e-01
-4.97635937e-08,2.03335938e-01
-4.97235937e-08,2.03273438e-01
-4.96835937e-08,2.03321875e-01
-4.96435937e-08,2.03279688e-01
-4.96035937e-08,2.03320313e-01
-4.95635937e-08,2.03278125e-01
-4.95235937e-08,2.03326563e-01
-4.94835937e-08,2.03265625e-01
-4.94435937e-08,2.03357813e-01
-4.94035937e-08,2.03089063e-01
-4.93635937e-08,2.02848438e-01
-4.93235937e-08,2.02929688e-01
-4.92835937e-08,2.02879688e-01
-4.92435937e-08,2.02915625e-01
-4.92035937e-08,2.02887500e-01
-4.91635937e-08,2.02910937e-01
-4.91235937e-08,2.02889062e-01
-4.90835938e-08,2.02909375e-01
-4.90435937e-08,2.02890625e-01
-4.90035937e-08,2.02909375e-01
-4.89635937e-08,2.02890625e-01
-4.89235937e-08,2.02909375e-01
-4.88835937e-08,2.02890625e-01
-4.88435937e-08,2.02909375e-01
-4.88035938e-08,2.02890625e-01
-4.87635937e-08,2.02909375e-01
-4.87235937e-08,2.02889062e-01
-4.86835937e-08,2.02910937e-01
-4.86435937e-08,2.02889062e-01
-4.86035937e-08,2.02912500e-01
-4.85635937e-08,2.02885938e-01
-4.85235938e-08,2.02914063e-01
-4.84835937e-08,2.02884375e-01
-4.84435937e-08,2.02917188e-01
-4.84035937e-08,2.02879688e-01
-4.83635937e-08,2.02923437e-01
-4.83235937e-08,2.02870313e-01
-4.82835937e-08,2.02939063e-01
-4.82435937e-08,2.02834375e-01
-4.82035937e-08,2.03118750e-01
-4.81635937e-08,2.03342187e-01
-4.81235937e-08,2.03282813e-01
-4.80835937e-08,2.03306250e-01
-4.80435937e-08,2.03300000e-01
-4.80035937e-08,2.03293750e-01
-4.79635937e-08,2.03310938e-01
-4.79235937e-08,2.03281250e-01
-4.78835937e-08,2.03329688e-01
-4.78435937e-08,2.03243750e-01
-4.78035937e-08,2.03510938e-01
-4.77635937e-08,2.03750000e-01
-4.77235937e-08,2.03676563e-01
-4.76835937e-08,2.03710938e-01
-4.76435937e-08,2.03696875e-01
-4.76035937e-08,2.03693750e-01
-4.75635937e-08,2.03717188e-01
-4.75235937e-08,2.03654688e-01
-4.74835937e-08,2.03900000e-01
-4.74435937e-08,2.04160938e-01
-4.74035937e-08,2.04065625e-01
-4.73635937e-08,2.04123438e-01
-4.73235937e-08,2.04084375e-01
-4.72835937e-08,2.04107813e-01
-4.72435937e-08,2.04103125e-01
-4.72035937e-08,2.04070313e-01
-4.71635938e-08,2.04282813e-01
-4.71235937e-08,2.04581250e-01
-4.70835937e-08,2.04442188e-01
-4.70435937e-08,2.04551563e-01
-4.70035937e-08,2.04448437e-01
-4.69635937e-08,2.04559375e-01
-4.69235937e-08,2.04417188e-01
-4.68835938e-08,2.04735938e-01
-4.68435937e-08,2.04926563e-01
-4.68035937e-08,2.04900000e-01
-4.67635937e-08,2.04885938e-01
-4.67235937e-08,2.04928125e-01
-4.66835937e-08,2.04843750e-01
-4.66435937e-08,2.05110938e-01
-4.66035938e-08,2.05348438e-01
-4.65635937e-08,2.05278125e-01
-4.65235937e-08,2.05307813e-01
-4.64835937e-08,2.05306250e-01
-4.64435937e-08,2.05267188e-01
-4.64035937e-08,2.05487500e-01
-4.63635937e-08,2.05775000e-01
-4.63235938e-08,2.05648438e-01
-4.62835937e-08,2.05745312e-01
-4.62435937e-08,2.05654688e-01
-4.62035937e-08,2.05751563e-01
-4.61635937e-08,2.05626562e-01
-4.61235937e-08,2.05925000e-01
-4.60835937e-08,2.06137500e-01
-4.60435937e-08,2.06085938e-01
-4.60035937e-08,2.06104687e-01
-4.59635937e-08,2.06100000e-01
-4.59235937e-08,2.06096875e-01
-4.58835937e-08,2.06106250e-01
-4.58435937e-08,2.06090625e-01
-4.58035937e-08,2.06112500e-01
-4.57635937e-08,2.06082813e-01
-4.57235937e-08,2.06126562e-01
-4.56835937e-08,2.06048438e-01
-4.56435937e-08,2.06304688e-01
-4.56035937e-08,2.06557812e-01
-4.55635937e-08,2.06464063e-01
-4.55235937e-08,2.06528125e-01
-4.54835937e-08,2.06475000e-01
-4.54435937e-08,2.06526563e-01
-4.54035937e-08,2.06465625e-01
-4.53635937e-08,2.06556250e-01
-4.53235937e-08,2.06292188e-01
-4.52835937e-08,2.06045313e-01
-4.52435938e-08,2.06132813e-01
-4.52035937e-08,2.06075000e-01
-4.51635937e-08,2.06121875e-01
-4.51235937e-08,2.06079687e-01
-4.50835937e-08,2.06118750e-01
-4.50435937e-08,2.06079687e-01
-4.50035937e-08,2.06121875e-01
-4.49635938e-08,2.06075000e-01
-4.49235937e-08,2.06129688e-01
-4.48835937e-08,2.06060938e-01
-4.48435937e-08,2.06164063e-01
-4.48035937e-08,2.05882813e-01
-4.47635937e-08,2.05656250e-01
-4.47235937e-08,2.05718750e-01
-4.46835938e-08,2.05690625e-01
-4.46435937e-08,2.05703125e-01
-4.46035937e-08,2.05703125e-01
-4.45635937e-08,2.05692188e-01
-4.45235937e-08,2.05714063e-01
-4.44835937e-08,2.05675000e-01
-4.44435937e-08,2.05751563e-01
-4.44035938e-08,2.05495312e-01
-4.43635937e-08,2.05243750e-01
-4.43235937e-08,2.05332813e-01
-4.42835937e-08,2.05276563e-01
-4.42435937e-08,2.05317187e-01
-4.42035937e-08,2.05285938e-01
-4.41635937e-08,2.05312500e-01
-4.41235938e-08,2.05290625e-01
-4.40835937e-08,2.05309375e-01
-4.40435937e-08,2.05292188e-01
-4.40035937e-08,2.05306250e-01
-4.39635937e-08,2.05293750e-01
-4.39235937e-08,2.05304687e-01
-4.38835937e-08,2.05295312e-01
-4.38435937e-08,2.05304687e-01
-4.38035937e-08,2.05296875e-01
-4.37635937e-08,2.05303125e-01
-4.37235937e-08,2.05296875e-01
-4.36835937e-08,2.05301563e-01
-4.36435937e-08,2.05298438e-01
-4.36035937e-08,2.05301563e-01
-4.35635937e-08,2.05298438e-01
-4.35235937e-08,2.05300000e-01
-4.34835937e-08,2.05300000e-01
-4.34435937e-08,2.05300000e-01
-4.34035937e-08,2.05300000e-01
-4.33635937e-08,2.05300000e-01
-4.33235938e-08,2.05300000e-01
-4.32835937e-08,2.05298438e-01
-4.32435937e-08,2.05301563e-01
-4.32035937e-08,2.05298438e-01
-4.31635937e-08,2.05301563e-01
-4.31235937e-08,2.05298438e-01
-4.30835937e-08,2.05303125e-01
-4.30435938e-08,2.05296875e-01
-4.30035937e-08,2.05303125e-01
-4.29635937e-08,2.05296875e-01
-4.29235937e-08,2.05304687e-01
-4.28835937e-08,2.05295312e-01
-4.28435937e-08,2.05304687e-01
-4.28035937e-08,2.05293750e-01
-4.27635938e-08,2.05306250e-01
-4.27235937e-08,2.05292188e-01
-4.26835937e-08,2.05307813e-01
-4.26435937e-08,2.05290625e-01
-4.26035937e-08,2.05310938e-01
-4.25635937e-08,2.05287500e-01
-4.25235937e-08,2.05314063e-01
-4.24835938e-08,2.05282813e-01
-4.24435937e-08,2.05323438e-01
-4.24035937e-08,2.05267188e-01
-4.23635937e-08,2.05357813e-01
-4.23235937e-08,2.05089063e-01
-4.22835937e-08,2.04850000e-01
-4.22435937e-08,2.04926563e-01
-4.22035938e-08,2.04882813e-01
-4.21635937e-08,2.04910938e-01
-4.21235937e-08,2.04892188e-01
-4.20835937e-08,2.04906250e-01
-4.20435937e-08,2.04896875e-01
-4.20035937e-08,2.04901563e-01
-4.19635937e-08,2.04900000e-01
-4.19235938e-08,2.04900000e-01
-4.18835937e-08,2.04901563e-01
-4.18435937e-08,2.04896875e-01
-4.18035937e-08,2.04904688e-01
-4.17635937e-08,2.04892188e-01
-4.17235937e-08,2.04909375e-01
-4.16835937e-08,2.04887500e-01
-4.16435937e-08,2.04918750e-01
-4.16035937e-08,2.04871875e-01
-4.15635937e-08,2.04953125e-01
-4.15235937e-08,2.04692188e-01
-4.14835937e-08,2.04445313e-01
-4.14435937e-08,2.04531250e-01
-4.14035938e-08,2.04479688e-01
-4.13635937e-08,2.04515625e-01
-4.13235937e-08,2.04487500e-01
-4.12835937e-08,2.04509375e-01
-4.12435937e-08,2.04492188e-01
-4.12035937e-08,2.04506250e-01
-4.11635937e-08,2.04493750e-01
-4.11235938e-08,2.04504688e-01
-4.10835937e-08,2.04496875e-01
-4.10435937e-08,2.04503125e-01
-4.10035937e-08,2.04498438e-01
-4.09635937e-08,2.04501563e-01
-4.09235937e-08,2.04500000e-01
-4.08835937e-08,2.04500000e-01
-4.08435938e-08,2.04501563e-01
-4.08035937e-08,2.04498438e-01
-4.07635937e-08,2.04503125e-01
-4.07235937e-08,2.04495312e-01
-4.06835937e-08,2.04506250e-01
-4.06435937e-08,2.04492188e-01
-4.06035937e-08,2.04509375e-01
-4.05635938e-08,2.04487500e-01
-4.05235937e-08,2.04518750e-01
-4.04835937e-08,2.04471875e-01
-4.04435937e-08,2.04553125e-01
-4.04035937e-08,2.04293750e-01
-4.03635937e-08,2.04045313e-01
-4.03235937e-08,2.04131250e-01
-4.02835938e-08,2.04078125e-01
-4.02435937e-08,2.04115625e-01
-4.02035937e-08,2.04087500e-01
-4.01635937e-08,2.04110938e-01
-4.01235937e-08,2.04092188e-01
-4.00835937e-08,2.04107813e-01
-4.00435937e-08,2.04093750e-01
-4.00035938e-08,2.04104687e-01
-3.99635937e-08,2.04096875e-01
-3.99235937e-08,2.04103125e-01
-3.98835937e-08,2.04098438e-01
-3.98435937e-08,2.04100000e-01
-3.98035937e-08,2.04100000e-01
-3.97635937e-08,2.04098438e-01
-3.97235937e-08,2.04103125e-01
-3.96835937e-08,2.04095313e-01
-3.96435937e-08,2.04107813e-01
-3.96035937e-08,2.04089063e-01
-3.95635937e-08,2.04115625e-01
-3.95235937e-08,2.04073438e-01
-3.94835938e-08,2.04151562e-01
-3.94435937e-08,2.03895313e-01
-3.94035937e-08,2.03642188e-01
-3.93635937e-08,2.03734375e-01
-3.93235937e-08,2.03676563e-01
-3.92835937e-08,2.03718750e-01
-3.92435937e-08,2.03684375e-01
-3.92035938e-08,2.03714063e-01
-3.91635937e-08,2.03687500e-01
-3.91235937e-08,2.03710938e-01
-3.90835937e-08,2.03690625e-01
-3.90435937e-08,2.03709375e-01
-3.90035937e-08,2.03692188e-01
-3.89635937e-08,2.03707813e-01
-3.89235938e-08,2.03693750e-01
-3.88835937e-08,2.03706250e-01
-3.88435937e-08,2.03693750e-01
-3.88035937e-08,2.03704688e-01
-3.87635937e-08,2.03695313e-01
-3.87235937e-08,2.03704688e-01
-3.86835937e-08,2.03695313e-01
-3.86435938e-08,2.03703125e-01
-3.86035937e-08,2.03696875e-01
-3.85635937e-08,2.03703125e-01
-3.85235937e-08,2.03696875e-01
