trails/00d9de579c68e71117ffc152f8bf8771/aes_ch1_20250506170429608.csv

Model,MSO66B
Label,
Waveform Type,ANALOG
Horizontal Units,s
Sample Interval,4.00000000e-11
Record Length,10000
Zero Index,1599.09375000
Vertical Units,A
ANALOG_Thumbnail,
yOffset,1.84500000e-01
yPosition,8.40000000e-01

Labels,
TIME,CH1
-6.39637500e-08,1.75637500e-01
-6.39237500e-08,1.75915625e-01
-6.38837500e-08,1.76145313e-01
-6.38437500e-08,1.76078125e-01
-6.38037500e-08,1.76110938e-01
-6.37637500e-08,1.76095313e-01
-6.37237500e-08,1.76100000e-01
-6.36837500e-08,1.76103125e-01
-6.36437500e-08,1.76093750e-01
-6.36037500e-08,1.76110938e-01
-6.35637500e-08,1.76082813e-01
-6.35237500e-08,1.76128125e-01
-6.34837500e-08,1.76046875e-01
-6.34437500e-08,1.76306250e-01
-6.34037500e-08,1.76554688e-01
-6.33637500e-08,1.76468750e-01
-6.33237500e-08,1.76520312e-01
-6.32837500e-08,1.76484375e-01
-6.32437500e-08,1.76512500e-01
-6.32037500e-08,1.76490625e-01
-6.31637500e-08,1.76507812e-01
-6.31237500e-08,1.76493750e-01
-6.30837500e-08,1.76506250e-01
-6.30437500e-08,1.76495313e-01
-6.30037500e-08,1.76503125e-01
-6.29637500e-08,1.76496875e-01
-6.29237500e-08,1.76503125e-01
-6.28837500e-08,1.76498437e-01
-6.28437500e-08,1.76501563e-01
-6.28037500e-08,1.76498437e-01
-6.27637500e-08,1.76500000e-01
-6.27237500e-08,1.76500000e-01
-6.26837500e-08,1.76500000e-01
-6.26437500e-08,1.76501563e-01
-6.26037500e-08,1.76498437e-01
-6.25637500e-08,1.76501563e-01
-6.25237500e-08,1.76496875e-01
-6.24837500e-08,1.76503125e-01
-6.24437500e-08,1.76496875e-01
-6.24037500e-08,1.76503125e-01
-6.23637500e-08,1.76495313e-01
-6.23237500e-08,1.76504688e-01
-6.22837500e-08,1.76493750e-01
-6.22437500e-08,1.76506250e-01
-6.22037500e-08,1.76492188e-01
-6.21637500e-08,1.76507812e-01
-6.21237500e-08,1.76490625e-01
-6.20837500e-08,1.76510938e-01
-6.20437500e-08,1.76487500e-01
-6.20037500e-08,1.76514063e-01
-6.19637500e-08,1.76481250e-01
-6.19237500e-08,1.76523438e-01
-6.18837500e-08,1.76467188e-01
-6.18437500e-08,1.76559375e-01
-6.18037500e-08,1.76287500e-01
-6.17637500e-08,1.76050000e-01
-6.17237500e-08,1.76125000e-01
-6.16837500e-08,1.76084375e-01
-6.16437500e-08,1.76109375e-01
-6.16037500e-08,1.76093750e-01
-6.15637500e-08,1.76103125e-01
-6.15237500e-08,1.76098438e-01
-6.14837500e-08,1.76098438e-01
-6.14437500e-08,1.76103125e-01
-6.14037500e-08,1.76095313e-01
-6.13637500e-08,1.76107813e-01
-6.13237500e-08,1.76087500e-01
-6.12837500e-08,1.76117187e-01
-6.12437500e-08,1.76071875e-01
-6.12037500e-08,1.76153125e-01
-6.11637500e-08,1.75893750e-01
-6.11237500e-08,1.75645313e-01
-6.10837500e-08,1.75731250e-01
-6.10437500e-08,1.75679688e-01
-6.10037500e-08,1.75715625e-01
-6.09637500e-08,1.75687500e-01
-6.09237500e-08,1.75709375e-01
-6.08837500e-08,1.75692188e-01
-6.08437500e-08,1.75706250e-01
-6.08037500e-08,1.75695313e-01
-6.07637500e-08,1.75703125e-01
-6.07237500e-08,1.75698437e-01
-6.06837500e-08,1.75700000e-01
-6.06437500e-08,1.75701563e-01
-6.06037500e-08,1.75695313e-01
-6.05637500e-08,1.75706250e-01
-6.05237500e-08,1.75689062e-01
-6.04837500e-08,1.75715625e-01
-6.04437500e-08,1.75673438e-01
-6.04037500e-08,1.75751563e-01
-6.03637500e-08,1.75495313e-01
-6.03237500e-08,1.75242188e-01
-6.02837500e-08,1.75332813e-01
-6.02437500e-08,1.75276563e-01
-6.02037500e-08,1.75317187e-01
-6.01637500e-08,1.75285938e-01
-6.01237500e-08,1.75310938e-01
-6.00837500e-08,1.75290625e-01
-6.00437500e-08,1.75307812e-01
-6.00037500e-08,1.75293750e-01
-5.99637500e-08,1.75304688e-01
-5.99237500e-08,1.75296875e-01
-5.98837500e-08,1.75301563e-01
-5.98437500e-08,1.75301563e-01
-5.98037500e-08,1.75295312e-01
-5.97637500e-08,1.75310938e-01
-5.97237500e-08,1.75279688e-01
-5.96837500e-08,1.75345313e-01
-5.96437500e-08,1.75101563e-01
-5.96037500e-08,1.74835938e-01
-5.95637500e-08,1.74939063e-01
-5.95237500e-08,1.74870313e-01
-5.94837500e-08,1.74925000e-01
-5.94437500e-08,1.74878125e-01
-5.94037500e-08,1.74920313e-01
-5.93637500e-08,1.74881250e-01
-5.93237500e-08,1.74918750e-01
-5.92837500e-08,1.74882813e-01
-5.92437500e-08,1.74917188e-01
-5.92037500e-08,1.74882813e-01
-5.91637500e-08,1.74918750e-01
-5.91237500e-08,1.74881250e-01
-5.90837500e-08,1.74920313e-01
-5.90437500e-08,1.74876562e-01
-5.90037500e-08,1.74928125e-01
-5.89637500e-08,1.74862500e-01
-5.89237500e-08,1.74962500e-01
-5.88837500e-08,1.74684375e-01
-5.88437500e-08,1.74453125e-01
-5.88037500e-08,1.74523438e-01
-5.87637500e-08,1.74485937e-01
-5.87237500e-08,1.74509375e-01
-5.86837500e-08,1.74492188e-01
-5.86437500e-08,1.74504688e-01
-5.86037500e-08,1.74495312e-01
-5.85637500e-08,1.74503125e-01
-5.85237500e-08,1.74496875e-01
-5.84837500e-08,1.74501563e-01
-5.84437500e-08,1.74498438e-01
-5.84037500e-08,1.74501563e-01
-5.83637500e-08,1.74498438e-01
-5.83237500e-08,1.74500000e-01
-5.82837500e-08,1.74500000e-01
-5.82437500e-08,1.74500000e-01
-5.82037500e-08,1.74500000e-01
-5.81637500e-08,1.74500000e-01
-5.81237500e-08,1.74500000e-01
-5.80837500e-08,1.74500000e-01
-5.80437500e-08,1.74500000e-01
-5.80037500e-08,1.74500000e-01
-5.79637500e-08,1.74500000e-01
-5.79237500e-08,1.74500000e-01
-5.78837500e-08,1.74501563e-01
-5.78437500e-08,1.74498438e-01
-5.78037500e-08,1.74501563e-01
-5.77637500e-08,1.74498438e-01
-5.77237500e-08,1.74501563e-01
-5.76837500e-08,1.74496875e-01
-5.76437500e-08,1.74504688e-01
-5.76037500e-08,1.74493750e-01
-5.75637500e-08,1.74510938e-01
-5.75237500e-08,1.74481250e-01
-5.74837500e-08,1.74540625e-01
-5.74437500e-08,1.74309375e-01
-5.74037500e-08,1.74023438e-01
-5.73637500e-08,1.74162500e-01
-5.73237500e-08,1.74021875e-01
-5.72837500e-08,1.74326563e-01
-5.72437500e-08,1.74539063e-01
-5.72037500e-08,1.74482813e-01
-5.71637500e-08,1.74507812e-01
-5.71237500e-08,1.74495312e-01
-5.70837500e-08,1.74501563e-01
-5.70437500e-08,1.74500000e-01
-5.70037500e-08,1.74498438e-01
-5.69637500e-08,1.74501563e-01
-5.69237500e-08,1.74496875e-01
-5.68837500e-08,1.74504688e-01
-5.68437500e-08,1.74495312e-01
-5.68037500e-08,1.74506250e-01
-5.67637500e-08,1.74493750e-01
-5.67237500e-08,1.74507812e-01
-5.66837500e-08,1.74490625e-01
-5.66437500e-08,1.74510938e-01
-5.66037500e-08,1.74485937e-01
-5.65637500e-08,1.74517188e-01
-5.65237500e-08,1.74478125e-01
-5.64837500e-08,1.74532812e-01
-5.64437500e-08,1.74442188e-01
-5.64037500e-08,1.74710937e-01
-5.63637500e-08,1.74950000e-01
-5.63237500e-08,1.74873438e-01
-5.62837500e-08,1.74915625e-01
-5.62437500e-08,1.74890625e-01
-5.62037500e-08,1.74906250e-01
-5.61637500e-08,1.74898438e-01
-5.61237500e-08,1.74898438e-01
-5.60837500e-08,1.74906250e-01
-5.60437500e-08,1.74887500e-01
-5.60037500e-08,1.74921875e-01
-5.59637500e-08,1.74851563e-01
-5.59237500e-08,1.75101563e-01
-5.58837500e-08,1.75360938e-01
-5.58437500e-08,1.75264063e-01
-5.58037500e-08,1.75326563e-01
-5.57637500e-08,1.75278125e-01
-5.57237500e-08,1.75317187e-01
-5.56837500e-08,1.75284375e-01
-5.56437500e-08,1.75314063e-01
-5.56037500e-08,1.75287500e-01
-5.55637500e-08,1.75310938e-01
-5.55237500e-08,1.75289063e-01
-5.54837500e-08,1.75309375e-01
-5.54437500e-08,1.75290625e-01
-5.54037500e-08,1.75307812e-01
-5.53637500e-08,1.75292188e-01
-5.53237500e-08,1.75307812e-01
-5.52837500e-08,1.75293750e-01
-5.52437500e-08,1.75306250e-01
-5.52037500e-08,1.75293750e-01
-5.51637500e-08,1.75306250e-01
-5.51237500e-08,1.75295312e-01
-5.50837500e-08,1.75304688e-01
-5.50437500e-08,1.75295312e-01
-5.50037500e-08,1.75303125e-01
-5.49637500e-08,1.75296875e-01
-5.49237500e-08,1.75303125e-01
-5.48837500e-08,1.75298438e-01
-5.48437500e-08,1.75300000e-01
-5.48037500e-08,1.75300000e-01
-5.47637500e-08,1.75298438e-01
-5.47237500e-08,1.75303125e-01
-5.46837500e-08,1.75293750e-01
-5.46437500e-08,1.75312500e-01
-5.46037500e-08,1.75278125e-01
-5.45637500e-08,1.75346875e-01
-5.45237500e-08,1.75101563e-01
-5.44837500e-08,1.74835938e-01
-5.44437500e-08,1.74939063e-01
-5.44037500e-08,1.74868750e-01
-5.43637500e-08,1.74926562e-01
-5.43237500e-08,1.74876562e-01
-5.42837500e-08,1.74921875e-01
-5.42437500e-08,1.74878125e-01
-5.42037500e-08,1.74921875e-01
-5.41637500e-08,1.74878125e-01
-5.41237500e-08,1.74923438e-01
-5.40837500e-08,1.74873438e-01
-5.40437500e-08,1.74931250e-01
-5.40037500e-08,1.74860938e-01
-5.39637500e-08,1.74964063e-01
-5.39237500e-08,1.74682813e-01
-5.38837500e-08,1.74454688e-01
-5.38437500e-08,1.74521875e-01
-5.38037500e-08,1.74487500e-01
-5.37637500e-08,1.74507812e-01
-5.37237500e-08,1.74495312e-01
-5.36837500e-08,1.74503125e-01
-5.36437500e-08,1.74498438e-01
-5.36037500e-08,1.74501563e-01
-5.35637500e-08,1.74500000e-01
-5.35237500e-08,1.74500000e-01
-5.34837500e-08,1.74501563e-01
-5.34437500e-08,1.74498438e-01
-5.34037500e-08,1.74501563e-01
-5.33637500e-08,1.74498438e-01
-5.33237500e-08,1.74501563e-01
-5.32837500e-08,1.74496875e-01
-5.32437500e-08,1.74503125e-01
-5.32037500e-08,1.74496875e-01
-5.31637500e-08,1.74503125e-01
-5.31237500e-08,1.74496875e-01
-5.30837500e-08,1.74503125e-01
-5.30437500e-08,1.74496875e-01
-5.30037500e-08,1.74503125e-01
-5.29637500e-08,1.74496875e-01
-5.29237500e-08,1.74504688e-01
-5.28837500e-08,1.74495312e-01
-5.28437500e-08,1.74504688e-01
-5.28037500e-08,1.74495312e-01
-5.27637500e-08,1.74504688e-01
-5.27237500e-08,1.74493750e-01
-5.26837500e-08,1.74506250e-01
-5.26437500e-08,1.74493750e-01
-5.26037500e-08,1.74507812e-01
-5.25637500e-08,1.74492188e-01
-5.25237500e-08,1.74509375e-01
-5.24837500e-08,1.74489063e-01
-5.24437500e-08,1.74514063e-01
-5.24037500e-08,1.74481250e-01
-5.23637500e-08,1.74528125e-01
-5.23237500e-08,1.74446875e-01
-5.22837500e-08,1.74706250e-01
-5.22437500e-08,1.74956250e-01
-5.22037500e-08,1.74867187e-01
-5.21637500e-08,1.74925000e-01
-5.21237500e-08,1.74879688e-01
-5.20837500e-08,1.74917188e-01
-5.20437500e-08,1.74882813e-01
-5.20037500e-08,1.74917188e-01
-5.19637500e-08,1.74881250e-01
-5.19237500e-08,1.74920313e-01
-5.18837500e-08,1.74875000e-01
-5.18437500e-08,1.74934375e-01
-5.18037500e-08,1.74842187e-01
-5.17637500e-08,1.75110938e-01
-5.17237500e-08,1.75351563e-01
-5.16837500e-08,1.75271875e-01
-5.16437500e-08,1.75318750e-01
-5.16037500e-08,1.75285938e-01
-5.15637500e-08,1.75310938e-01
-5.15237500e-08,1.75290625e-01
-5.14837500e-08,1.75307812e-01
-5.14437500e-08,1.75292188e-01
-5.14037500e-08,1.75306250e-01
-5.13637500e-08,1.75293750e-01
-5.13237500e-08,1.75304688e-01
-5.12837500e-08,1.75295312e-01
-5.12437500e-08,1.75304688e-01
-5.12037500e-08,1.75295312e-01
-5.11637500e-08,1.75303125e-01
-5.11237500e-08,1.75296875e-01
-5.10837500e-08,1.75303125e-01
-5.10437500e-08,1.75296875e-01
-5.10037500e-08,1.75301563e-01
-5.09637500e-08,1.75298438e-01
-5.09237500e-08,1.75300000e-01
-5.08837500e-08,1.75300000e-01
-5.08437500e-08,1.75298438e-01
-5.08037500e-08,1.75303125e-01
-5.07637500e-08,1.75293750e-01
-5.07237500e-08,1.75310938e-01
-5.06837500e-08,1.75279688e-01
-5.06437500e-08,1.75343750e-01
-5.06037500e-08,1.75103125e-01
-5.05637500e-08,1.74834375e-01
-5.05237500e-08,1.74943750e-01
-5.04837500e-08,1.74865625e-01
-5.04437500e-08,1.74931250e-01
-5.04037500e-08,1.74870313e-01
-5.03637500e-08,1.74929688e-01
-5.03237500e-08,1.74867187e-01
-5.02837500e-08,1.74935937e-01
-5.02437500e-08,1.74854687e-01
-5.02037500e-08,1.74970313e-01
-5.01637500e-08,1.74676562e-01
-5.01237500e-08,1.74460937e-01
-5.00837500e-08,1.74514063e-01
-5.00437500e-08,1.74495312e-01
-5.00037500e-08,1.74498438e-01
-4.99637500e-08,1.74507812e-01
-4.99237500e-08,1.74487500e-01
-4.98837500e-08,1.74518750e-01
-4.98437500e-08,1.74470313e-01
-4.98037500e-08,1.74554687e-01
-4.97637500e-08,1.74290625e-01
-4.97237500e-08,1.74046875e-01
-4.96837500e-08,1.74128125e-01
-4.96437500e-08,1.74081250e-01
-4.96037500e-08,1.74114062e-01
-4.95637500e-08,1.74089063e-01
-4.95237500e-08,1.74107813e-01
-4.94837500e-08,1.74093750e-01
-4.94437500e-08,1.74104687e-01
-4.94037500e-08,1.74096875e-01
-4.93637500e-08,1.74103125e-01
-4.93237500e-08,1.74098438e-01
-4.92837500e-08,1.74101563e-01
-4.92437500e-08,1.74100000e-01
-4.92037500e-08,1.74100000e-01
-4.91637500e-08,1.74101563e-01
-4.91237500e-08,1.74098438e-01
-4.90837500e-08,1.74103125e-01
-4.90437500e-08,1.74096875e-01
-4.90037500e-08,1.74104687e-01
-4.89637500e-08,1.74093750e-01
-4.89237500e-08,1.74106250e-01
-4.88837500e-08,1.74092187e-01
-4.88437500e-08,1.74109375e-01
-4.88037500e-08,1.74087500e-01
-4.87637500e-08,1.74115625e-01
-4.87237500e-08,1.74078125e-01
-4.86837500e-08,1.74131250e-01
-4.86437500e-08,1.74043750e-01
-4.86037500e-08,1.74309375e-01
-4.85637500e-08,1.74551563e-01
-4.85237500e-08,1.74471875e-01
-4.84837500e-08,1.74517188e-01
-4.84437500e-08,1.74487500e-01
-4.84037500e-08,1.74507812e-01
-4.83637500e-08,1.74495312e-01
-4.83237500e-08,1.74501563e-01
-4.82837500e-08,1.74500000e-01
-4.82437500e-08,1.74496875e-01
-4.82037500e-08,1.74507812e-01
-4.81637500e-08,1.74487500e-01
-4.81237500e-08,1.74523438e-01
-4.80837500e-08,1.74451563e-01
-4.80437500e-08,1.74701563e-01
-4.80037500e-08,1.74959375e-01
-4.79637500e-08,1.74864063e-01
-4.79237500e-08,1.74925000e-01
-4.78837500e-08,1.74879688e-01
-4.78437500e-08,1.74917188e-01
-4.78037500e-08,1.74885938e-01
-4.77637500e-08,1.74912500e-01
-4.77237500e-08,1.74889062e-01
-4.76837500e-08,1.74909375e-01
-4.76437500e-08,1.74892188e-01
-4.76037500e-08,1.74906250e-01
-4.75637500e-08,1.74895313e-01
-4.75237500e-08,1.74903125e-01
-4.74837500e-08,1.74900000e-01
-4.74437500e-08,1.74896875e-01
-4.74037500e-08,1.74907813e-01
-4.73637500e-08,1.74881250e-01
-4.73237500e-08,1.74942188e-01
-4.72837500e-08,1.74704688e-01
-4.72437500e-08,1.74434375e-01
-4.72037500e-08,1.74542188e-01
-4.71637500e-08,1.74465625e-01
-4.71237500e-08,1.74529688e-01
-4.70837500e-08,1.74473437e-01
-4.70437500e-08,1.74525000e-01
-4.70037500e-08,1.74475000e-01
-4.69637500e-08,1.74526563e-01
-4.69237500e-08,1.74471875e-01
-4.68837500e-08,1.74532812e-01
-4.68437500e-08,1.74459375e-01
-4.68037500e-08,1.74565625e-01
-4.67637500e-08,1.74282812e-01
-4.67237500e-08,1.74054687e-01
-4.66837500e-08,1.74121875e-01
-4.66437500e-08,1.74085938e-01
-4.66037500e-08,1.74109375e-01
-4.65637500e-08,1.74092187e-01
-4.65237500e-08,1.74106250e-01
-4.64837500e-08,1.74093750e-01
-4.64437500e-08,1.74106250e-01
-4.64037500e-08,1.74093750e-01
-4.63637500e-08,1.74107813e-01
-4.63237500e-08,1.74089063e-01
-4.62837500e-08,1.74115625e-01
-4.62437500e-08,1.74075000e-01
-4.62037500e-08,1.74150000e-01
-4.61637500e-08,1.73896875e-01
-4.61237500e-08,1.73640625e-01
-4.60837500e-08,1.73734375e-01
-4.60437500e-08,1.73675000e-01
-4.60037500e-08,1.73720313e-01
-4.59637500e-08,1.73684375e-01
-4.59237500e-08,1.73714063e-01
-4.58837500e-08,1.73689063e-01
-4.58437500e-08,1.73707813e-01
-4.58037500e-08,1.73695313e-01
-4.57637500e-08,1.73698437e-01
-4.57237500e-08,1.73710937e-01
-4.56837500e-08,1.73664062e-01
-4.56437500e-08,1.73889062e-01
-4.56037500e-08,1.74173438e-01
-4.55637500e-08,1.74050000e-01
-4.55237500e-08,1.74140625e-01
-4.54837500e-08,1.74062500e-01
-4.54437500e-08,1.74134375e-01
-4.54037500e-08,1.74065625e-01
-4.53637500e-08,1.74132813e-01
-4.53237500e-08,1.74065625e-01
-4.52837500e-08,1.74134375e-01
-4.52437500e-08,1.74064063e-01
-4.52037500e-08,1.74139062e-01
-4.51637500e-08,1.74054687e-01
-4.51237500e-08,1.74154688e-01
-4.50837500e-08,1.74020312e-01
-4.50437500e-08,1.74334375e-01
-4.50037500e-08,1.74526563e-01
-4.49637500e-08,1.74498438e-01
-4.49237500e-08,1.74489063e-01
-4.48837500e-08,1.74518750e-01
-4.48437500e-08,1.74471875e-01
-4.48037500e-08,1.74540625e-01
-4.47637500e-08,1.74432813e-01
-4.47237500e-08,1.74721875e-01
-4.46837500e-08,1.74937500e-01
-4.46437500e-08,1.74889062e-01
-4.46037500e-08,1.74898438e-01
-4.45637500e-08,1.74909375e-01
-4.45237500e-08,1.74881250e-01
-4.44837500e-08,1.74931250e-01
-4.44437500e-08,1.74840625e-01
-4.44037500e-08,1.75115625e-01
-4.43637500e-08,1.75343750e-01
-4.43237500e-08,1.75282812e-01
-4.42837500e-08,1.75301563e-01
-4.42437500e-08,1.75312500e-01
-4.42037500e-08,1.75259375e-01
-4.41637500e-08,1.75495313e-01
-4.41237500e-08,1.75765625e-01
-4.40837500e-08,1.75657813e-01
-4.40437500e-08,1.75732813e-01
-4.40037500e-08,1.75668750e-01
-4.39637500e-08,1.75737500e-01
-4.39237500e-08,1.75642188e-01
-4.38837500e-08,1.75907813e-01
-4.38437500e-08,1.76157813e-01
-4.38037500e-08,1.76062500e-01
-4.37637500e-08,1.76132813e-01
-4.37237500e-08,1.76065625e-01
-4.36837500e-08,1.76142188e-01
-4.36437500e-08,1.76032812e-01
-4.36037500e-08,1.76318750e-01
-4.35637500e-08,1.76542188e-01
-4.35237500e-08,1.76481250e-01
-4.34837500e-08,1.76507812e-01
-4.34437500e-08,1.76498437e-01
-4.34037500e-08,1.76496875e-01
-4.33637500e-08,1.76509375e-01
-4.33237500e-08,1.76484375e-01
-4.32837500e-08,1.76526563e-01
-4.32437500e-08,1.76448437e-01
-4.32037500e-08,1.76706250e-01
-4.31637500e-08,1.76954688e-01
-4.31237500e-08,1.76868750e-01
-4.30837500e-08,1.76920313e-01
-4.30437500e-08,1.76884375e-01
-4.30037500e-08,1.76912500e-01
-4.29637500e-08,1.76890625e-01
-4.29237500e-08,1.76907813e-01
-4.28837500e-08,1.76893750e-01
-4.28437500e-08,1.76904688e-01
-4.28037500e-08,1.76896875e-01
-4.27637500e-08,1.76901562e-01
-4.27237500e-08,1.76898438e-01
-4.26837500e-08,1.76900000e-01
-4.26437500e-08,1.76901562e-01
-4.26037500e-08,1.76898438e-01
-4.25637500e-08,1.76903125e-01
-4.25237500e-08,1.76895313e-01
-4.24837500e-08,1.76906250e-01
-4.24437500e-08,1.76892188e-01
-4.24037500e-08,1.76909375e-01
-4.23637500e-08,1.76887500e-01
-4.23237500e-08,1.76918750e-01
-4.22837500e-08,1.76871875e-01
-4.22437500e-08,1.76953125e-01
-4.22037500e-08,1.76693750e-01
-4.21637500e-08,1.76443750e-01
-4.21237500e-08,1.76532812e-01
-4.20837500e-08,1.76476563e-01
-4.20437500e-08,1.76518750e-01
-4.20037500e-08,1.76484375e-01
-4.19637500e-08,1.76514063e-01
-4.19237500e-08,1.76485937e-01
-4.18837500e-08,1.76514063e-01
-4.18437500e-08,1.76484375e-01
-4.18037500e-08,1.76518750e-01
-4.17637500e-08,1.76471875e-01
-4.17237500e-08,1.76551563e-01
-4.16837500e-08,1.76296875e-01
-4.16437500e-08,1.76039063e-01
-4.16037500e-08,1.76139062e-01
-4.15637500e-08,1.76068750e-01
-4.15237500e-08,1.76129687e-01
-4.14837500e-08,1.76068750e-01
-4.14437500e-08,1.76134375e-01
-4.14037500e-08,1.76056250e-01
-4.13637500e-08,1.76167188e-01
-4.13237500e-08,1.75878125e-01
-4.12837500e-08,1.75659375e-01
-4.12437500e-08,1.75715625e-01
-4.12037500e-08,1.75693750e-01
-4.11637500e-08,1.75700000e-01
-4.11237500e-08,1.75706250e-01
-4.10837500e-08,1.75689062e-01
-4.10437500e-08,1.75717188e-01
-4.10037500e-08,1.75671875e-01
-4.09637500e-08,1.75754688e-01
-4.09237500e-08,1.75490625e-01
-4.08837500e-08,1.75248437e-01
-4.08437500e-08,1.75326563e-01
-4.08037500e-08,1.75282812e-01
-4.07637500e-08,1.75310938e-01
-4.07237500e-08,1.75293750e-01
-4.06837500e-08,1.75301563e-01
-4.06437500e-08,1.75301563e-01
-4.06037500e-08,1.75293750e-01
-4.05637500e-08,1.75312500e-01
-4.05237500e-08,1.75276563e-01
-4.04837500e-08,1.75348438e-01
-4.04437500e-08,1.75096875e-01
-4.04037500e-08,1.74840625e-01
-4.03637500e-08,1.74934375e-01
-4.03237500e-08,1.74876562e-01
-4.02837500e-08,1.74918750e-01
-4.02437500e-08,1.74884375e-01
-4.02037500e-08,1.74912500e-01
-4.01637500e-08,1.74889062e-01
-4.01237500e-08,1.74907813e-01
-4.00837500e-08,1.74892188e-01
-4.00437500e-08,1.74906250e-01
-4.00037500e-08,1.74895313e-01
-3.99637500e-08,1.74903125e-01
-3.99237500e-08,1.74898438e-01
-3.98837500e-08,1.74900000e-01
-3.98437500e-08,1.74901562e-01
-3.98037500e-08,1.74895313e-01
-3.97637500e-08,1.74907813e-01
-3.97237500e-08,1.74885938e-01
-3.96837500e-08,1.74923438e-01
-3.96437500e-08,1.74851563e-01
-3.96037500e-08,1.75101563e-01
-3.95637500e-08,1.75359375e-01
-3.95237500e-08,1.75264063e-01
-3.94837500e-08,1.75326563e-01
-3.94437500e-08,1.75279688e-01
-3.94037500e-08,1.75317187e-01
-3.93637500e-08,1.75284375e-01
-3.93237500e-08,1.75314063e-01
-3.92837500e-08,1.75287500e-01
-3.92437500e-08,1.75310938e-01
-3.92037500e-08,1.75289063e-01
-3.91637500e-08,1.75309375e-01
-3.91237500e-08,1.75290625e-01
-3.90837500e-08,1.75307812e-01
-3.90437500e-08,1.75292188e-01
-3.90037500e-08,1.75307812e-01
-3.89637500e-08,1.75292188e-01
-3.89237500e-08,1.75306250e-01
-3.88837500e-08,1.75293750e-01
-3.88437500e-08,1.75306250e-01
-3.88037500e-08,1.75293750e-01
-3.87637500e-08,1.75304688e-01
-3.87237500e-08,1.75295312e-01
-3.86837500e-08,1.75304688e-01
-3.86437500e-08,1.75295312e-01
-3.86037500e-08,1.75304688e-01
-3.85637500e-08,1.75296875e-01
-3.85237500e-08,1.75303125e-01
