trails/0abb954fa332282a54c7a4841199d6d9/aes_ch1_20250507103327906.csv

Model,MSO66B
Label,
Waveform Type,ANALOG
Horizontal Units,s
Sample Interval,4.00000000e-11
Record Length,10000
Zero Index,1599.08984375
Vertical Units,A
ANALOG_Thumbnail,
yOffset,1.84500000e-01
yPosition,8.40000000e-01

Labels,
TIME,CH1
-6.39635937e-08,1.75682813e-01
-6.39235937e-08,1.75715625e-01
-6.38835938e-08,1.75685938e-01
-6.38435937e-08,1.75714063e-01
-6.38035938e-08,1.75687500e-01
-6.37635937e-08,1.75712500e-01
-6.37235937e-08,1.75689062e-01
-6.36835937e-08,1.75710937e-01
-6.36435937e-08,1.75689062e-01
-6.36035938e-08,1.75710937e-01
-6.35635937e-08,1.75690625e-01
-6.35235938e-08,1.75709375e-01
-6.34835937e-08,1.75690625e-01
-6.34435937e-08,1.75709375e-01
-6.34035937e-08,1.75690625e-01
-6.33635937e-08,1.75709375e-01
-6.33235938e-08,1.75690625e-01
-6.32835937e-08,1.75707813e-01
-6.32435938e-08,1.75692188e-01
-6.32035937e-08,1.75707813e-01
-6.31635937e-08,1.75692188e-01
-6.31235937e-08,1.75707813e-01
-6.30835937e-08,1.75692188e-01
-6.30435938e-08,1.75707813e-01
-6.30035937e-08,1.75692188e-01
-6.29635938e-08,1.75707813e-01
-6.29235937e-08,1.75692188e-01
-6.28835937e-08,1.75707813e-01
-6.28435937e-08,1.75692188e-01
-6.28035937e-08,1.75707813e-01
-6.27635938e-08,1.75692188e-01
-6.27235937e-08,1.75707813e-01
-6.26835938e-08,1.75692188e-01
-6.26435937e-08,1.75707813e-01
-6.26035937e-08,1.75692188e-01
-6.25635937e-08,1.75707813e-01
-6.25235937e-08,1.75692188e-01
-6.24835938e-08,1.75707813e-01
-6.24435937e-08,1.75692188e-01
-6.24035938e-08,1.75707813e-01
-6.23635937e-08,1.75692188e-01
-6.23235937e-08,1.75707813e-01
-6.22835937e-08,1.75692188e-01
-6.22435937e-08,1.75709375e-01
-6.22035938e-08,1.75690625e-01
-6.21635937e-08,1.75709375e-01
-6.21235937e-08,1.75690625e-01
-6.20835937e-08,1.75709375e-01
-6.20435937e-08,1.75690625e-01
-6.20035937e-08,1.75709375e-01
-6.19635937e-08,1.75689062e-01
-6.19235938e-08,1.75710937e-01
-6.18835937e-08,1.75689062e-01
-6.18435937e-08,1.75712500e-01
-6.18035937e-08,1.75687500e-01
-6.17635937e-08,1.75714063e-01
-6.17235937e-08,1.75685938e-01
-6.16835937e-08,1.75715625e-01
-6.16435938e-08,1.75681250e-01
-6.16035937e-08,1.75721875e-01
-6.15635937e-08,1.75673438e-01
-6.15235937e-08,1.75735937e-01
-6.14835937e-08,1.75639062e-01
-6.14435937e-08,1.75914062e-01
-6.14035937e-08,1.76146875e-01
-6.13635938e-08,1.76076563e-01
-6.13235937e-08,1.76114063e-01
-6.12835937e-08,1.76090625e-01
-6.12435937e-08,1.76106250e-01
-6.12035937e-08,1.76096875e-01
-6.11635937e-08,1.76101563e-01
-6.11235937e-08,1.76098438e-01
-6.10835938e-08,1.76100000e-01
-6.10435937e-08,1.76101563e-01
-6.10035937e-08,1.76098438e-01
-6.09635937e-08,1.76101563e-01
-6.09235937e-08,1.76096875e-01
-6.08835937e-08,1.76103125e-01
-6.08435937e-08,1.76095313e-01
-6.08035938e-08,1.76104687e-01
-6.07635937e-08,1.76095313e-01
-6.07235937e-08,1.76104687e-01
-6.06835937e-08,1.76093750e-01
-6.06435937e-08,1.76106250e-01
-6.06035937e-08,1.76092187e-01
-6.05635937e-08,1.76107813e-01
-6.05235938e-08,1.76092187e-01
-6.04835937e-08,1.76109375e-01
-6.04435937e-08,1.76090625e-01
-6.04035937e-08,1.76110938e-01
-6.03635937e-08,1.76087500e-01
-6.03235938e-08,1.76114063e-01
-6.02835937e-08,1.76084375e-01
-6.02435938e-08,1.76117187e-01
-6.02035937e-08,1.76079687e-01
-6.01635937e-08,1.76126563e-01
-6.01235937e-08,1.76064063e-01
-6.00835937e-08,1.76160938e-01
-6.00435938e-08,1.75884375e-01
-6.00035937e-08,1.75653125e-01
-5.99635938e-08,1.75721875e-01
-5.99235937e-08,1.75687500e-01
-5.98835937e-08,1.75706250e-01
-5.98435937e-08,1.75696875e-01
-5.98035937e-08,1.75700000e-01
-5.97635938e-08,1.75703125e-01
-5.97235937e-08,1.75693750e-01
-5.96835938e-08,1.75709375e-01
-5.96435937e-08,1.75685938e-01
-5.96035937e-08,1.75718750e-01
-5.95635937e-08,1.75670313e-01
-5.95235937e-08,1.75756250e-01
-5.94835937e-08,1.75490625e-01
-5.94435937e-08,1.75248437e-01
-5.94035937e-08,1.75326563e-01
-5.93635937e-08,1.75282812e-01
-5.93235937e-08,1.75310938e-01
-5.92835937e-08,1.75293750e-01
-5.92435937e-08,1.75303125e-01
-5.92035937e-08,1.75301563e-01
-5.91635937e-08,1.75293750e-01
-5.91235937e-08,1.75310938e-01
-5.90835937e-08,1.75278125e-01
-5.90435937e-08,1.75348438e-01
-5.90035937e-08,1.75098438e-01
-5.89635937e-08,1.74840625e-01
-5.89235937e-08,1.74935937e-01
-5.88835937e-08,1.74873438e-01
-5.88435937e-08,1.74920313e-01
-5.88035937e-08,1.74882813e-01
-5.87635937e-08,1.74914062e-01
-5.87235937e-08,1.74887500e-01
-5.86835937e-08,1.74910938e-01
-5.86435937e-08,1.74889062e-01
-5.86035937e-08,1.74909375e-01
-5.85635937e-08,1.74890625e-01
-5.85235937e-08,1.74907813e-01
-5.84835937e-08,1.74892188e-01
-5.84435937e-08,1.74906250e-01
-5.84035937e-08,1.74893750e-01
-5.83635937e-08,1.74906250e-01
-5.83235937e-08,1.74895313e-01
-5.82835937e-08,1.74904688e-01
-5.82435937e-08,1.74895313e-01
-5.82035937e-08,1.74904688e-01
-5.81635937e-08,1.74896875e-01
-5.81235937e-08,1.74903125e-01
-5.80835937e-08,1.74896875e-01
-5.80435937e-08,1.74903125e-01
-5.80035937e-08,1.74898438e-01
-5.79635937e-08,1.74901562e-01
-5.79235937e-08,1.74898438e-01
-5.78835937e-08,1.74900000e-01
-5.78435937e-08,1.74900000e-01
-5.78035937e-08,1.74900000e-01
-5.77635937e-08,1.74901562e-01
-5.77235937e-08,1.74898438e-01
-5.76835937e-08,1.74903125e-01
-5.76435937e-08,1.74895313e-01
-5.76035937e-08,1.74906250e-01
-5.75635937e-08,1.74892188e-01
-5.75235937e-08,1.74910938e-01
-5.74835937e-08,1.74884375e-01
-5.74435937e-08,1.74926562e-01
-5.74035937e-08,1.74848438e-01
-5.73635937e-08,1.75104687e-01
-5.73235937e-08,1.75357813e-01
-5.72835937e-08,1.75265625e-01
-5.72435937e-08,1.75325000e-01
-5.72035937e-08,1.75279688e-01
-5.71635937e-08,1.75317187e-01
-5.71235937e-08,1.75285938e-01
-5.70835937e-08,1.75312500e-01
-5.70435937e-08,1.75289063e-01
-5.70035937e-08,1.75310938e-01
-5.69635937e-08,1.75290625e-01
-5.69235937e-08,1.75309375e-01
-5.68835937e-08,1.75290625e-01
-5.68435937e-08,1.75307812e-01
-5.68035937e-08,1.75292188e-01
-5.67635937e-08,1.75307812e-01
-5.67235937e-08,1.75292188e-01
-5.66835937e-08,1.75306250e-01
-5.66435937e-08,1.75293750e-01
-5.66035937e-08,1.75306250e-01
-5.65635937e-08,1.75293750e-01
-5.65235937e-08,1.75306250e-01
-5.64835937e-08,1.75293750e-01
-5.64435937e-08,1.75304688e-01
-5.64035937e-08,1.75295312e-01
-5.63635937e-08,1.75304688e-01
-5.63235937e-08,1.75295312e-01
-5.62835937e-08,1.75304688e-01
-5.62435937e-08,1.75295312e-01
-5.62035937e-08,1.75304688e-01
-5.61635937e-08,1.75296875e-01
-5.61235937e-08,1.75303125e-01
-5.60835937e-08,1.75296875e-01
-5.60435937e-08,1.75303125e-01
-5.60035937e-08,1.75296875e-01
-5.59635937e-08,1.75301563e-01
-5.59235937e-08,1.75298438e-01
-5.58835937e-08,1.75301563e-01
-5.58435937e-08,1.75300000e-01
-5.58035937e-08,1.75300000e-01
-5.57635937e-08,1.75301563e-01
-5.57235937e-08,1.75296875e-01
-5.56835937e-08,1.75304688e-01
-5.56435937e-08,1.75292188e-01
-5.56035937e-08,1.75312500e-01
-5.55635937e-08,1.75278125e-01
-5.55235937e-08,1.75346875e-01
-5.54835937e-08,1.75100000e-01
-5.54435937e-08,1.74837500e-01
-5.54035937e-08,1.74939063e-01
-5.53635937e-08,1.74870313e-01
-5.53235937e-08,1.74925000e-01
-5.52835937e-08,1.74876562e-01
-5.52435937e-08,1.74921875e-01
-5.52035937e-08,1.74879688e-01
-5.51635937e-08,1.74920313e-01
-5.51235937e-08,1.74879688e-01
-5.50835937e-08,1.74920313e-01
-5.50435937e-08,1.74878125e-01
-5.50035937e-08,1.74923438e-01
-5.49635937e-08,1.74875000e-01
-5.49235937e-08,1.74929688e-01
-5.48835937e-08,1.74860938e-01
-5.48435937e-08,1.74964063e-01
-5.48035937e-08,1.74682813e-01
-5.47635937e-08,1.74454688e-01
-5.47235937e-08,1.74521875e-01
-5.46835937e-08,1.74487500e-01
-5.46435937e-08,1.74507812e-01
-5.46035937e-08,1.74495312e-01
-5.45635937e-08,1.74501563e-01
-5.45235937e-08,1.74498438e-01
-5.44835937e-08,1.74500000e-01
-5.44435937e-08,1.74501563e-01
-5.44035937e-08,1.74498438e-01
-5.43635937e-08,1.74503125e-01
-5.43235937e-08,1.74496875e-01
-5.42835937e-08,1.74503125e-01
-5.42435937e-08,1.74495312e-01
-5.42035937e-08,1.74504688e-01
-5.41635937e-08,1.74495312e-01
-5.41235937e-08,1.74504688e-01
-5.40835937e-08,1.74493750e-01
-5.40435937e-08,1.74506250e-01
-5.40035937e-08,1.74493750e-01
-5.39635937e-08,1.74506250e-01
-5.39235937e-08,1.74492188e-01
-5.38835937e-08,1.74507812e-01
-5.38435937e-08,1.74490625e-01
-5.38035937e-08,1.74509375e-01
-5.37635937e-08,1.74489063e-01
-5.37235937e-08,1.74512500e-01
-5.36835937e-08,1.74485937e-01
-5.36435937e-08,1.74518750e-01
-5.36035937e-08,1.74476563e-01
-5.35635937e-08,1.74532812e-01
-5.35235937e-08,1.74442188e-01
-5.34835937e-08,1.74710937e-01
-5.34435937e-08,1.74951563e-01
-5.34035937e-08,1.74871875e-01
-5.33635937e-08,1.74918750e-01
-5.33235937e-08,1.74887500e-01
-5.32835937e-08,1.74909375e-01
-5.32435937e-08,1.74892188e-01
-5.32035937e-08,1.74906250e-01
-5.31635937e-08,1.74895313e-01
-5.31235937e-08,1.74904688e-01
-5.30835937e-08,1.74896875e-01
-5.30435937e-08,1.74903125e-01
-5.30035937e-08,1.74898438e-01
-5.29635937e-08,1.74901562e-01
-5.29235938e-08,1.74898438e-01
-5.28835937e-08,1.74901562e-01
-5.28435937e-08,1.74898438e-01
-5.28035937e-08,1.74900000e-01
-5.27635937e-08,1.74900000e-01
-5.27235937e-08,1.74900000e-01
-5.26835937e-08,1.74900000e-01
-5.26435937e-08,1.74900000e-01
-5.26035937e-08,1.74900000e-01
-5.25635937e-08,1.74898438e-01
-5.25235937e-08,1.74901562e-01
-5.24835937e-08,1.74898438e-01
-5.24435937e-08,1.74901562e-01
-5.24035937e-08,1.74898438e-01
-5.23635937e-08,1.74901562e-01
-5.23235937e-08,1.74898438e-01
-5.22835937e-08,1.74901562e-01
-5.22435937e-08,1.74898438e-01
-5.22035937e-08,1.74901562e-01
-5.21635937e-08,1.74896875e-01
-5.21235937e-08,1.74903125e-01
-5.20835937e-08,1.74896875e-01
-5.20435937e-08,1.74903125e-01
-5.20035937e-08,1.74896875e-01
-5.19635937e-08,1.74903125e-01
-5.19235937e-08,1.74896875e-01
-5.18835937e-08,1.74903125e-01
-5.18435937e-08,1.74896875e-01
-5.18035937e-08,1.74904688e-01
-5.17635937e-08,1.74895313e-01
-5.17235937e-08,1.74904688e-01
-5.16835937e-08,1.74895313e-01
-5.16435937e-08,1.74904688e-01
-5.16035937e-08,1.74893750e-01
-5.15635937e-08,1.74906250e-01
-5.15235937e-08,1.74893750e-01
-5.14835937e-08,1.74906250e-01
-5.14435937e-08,1.74892188e-01
-5.14035937e-08,1.74907813e-01
-5.13635937e-08,1.74890625e-01
-5.13235937e-08,1.74909375e-01
-5.12835937e-08,1.74889062e-01
-5.12435937e-08,1.74912500e-01
-5.12035937e-08,1.74884375e-01
-5.11635937e-08,1.74918750e-01
-5.11235937e-08,1.74876562e-01
-5.10835937e-08,1.74932813e-01
-5.10435937e-08,1.74840625e-01
-5.10035938e-08,1.75112500e-01
-5.09635937e-08,1.75350000e-01
-5.09235937e-08,1.75273438e-01
-5.08835937e-08,1.75315625e-01
-5.08435937e-08,1.75289063e-01
-5.08035937e-08,1.75307812e-01
-5.07635937e-08,1.75295312e-01
-5.07235938e-08,1.75303125e-01
-5.06835937e-08,1.75298438e-01
-5.06435937e-08,1.75300000e-01
-5.06035937e-08,1.75303125e-01
-5.05635937e-08,1.75295312e-01
-5.05235937e-08,1.75306250e-01
-5.04835937e-08,1.75290625e-01
-5.04435937e-08,1.75312500e-01
-5.04035937e-08,1.75281250e-01
-5.03635937e-08,1.75328125e-01
-5.03235937e-08,1.75246875e-01
-5.02835937e-08,1.75507812e-01
-5.02435937e-08,1.75754688e-01
-5.02035937e-08,1.75670313e-01
-5.01635937e-08,1.75720313e-01
-5.01235937e-08,1.75685938e-01
-5.00835937e-08,1.75709375e-01
-5.00435937e-08,1.75693750e-01
-5.00035937e-08,1.75703125e-01
-4.99635937e-08,1.75701563e-01
-4.99235937e-08,1.75692188e-01
-4.98835937e-08,1.75717188e-01
-4.98435937e-08,1.75656250e-01
-4.98035937e-08,1.75896875e-01
-4.97635937e-08,1.76165625e-01
-4.97235937e-08,1.76057812e-01
-4.96835937e-08,1.76132813e-01
-4.96435937e-08,1.76071875e-01
-4.96035937e-08,1.76125000e-01
-4.95635937e-08,1.76076563e-01
-4.95235937e-08,1.76121875e-01
-4.94835937e-08,1.76078125e-01
-4.94435937e-08,1.76121875e-01
-4.94035937e-08,1.76076563e-01
-4.93635937e-08,1.76125000e-01
-4.93235937e-08,1.76070313e-01
-4.92835937e-08,1.76139062e-01
-4.92435937e-08,1.76035938e-01
-4.92035937e-08,1.76315625e-01
-4.91635937e-08,1.76546875e-01
-4.91235937e-08,1.76476563e-01
-4.90835938e-08,1.76514063e-01
-4.90435937e-08,1.76490625e-01
-4.90035937e-08,1.76506250e-01
-4.89635937e-08,1.76495313e-01
-4.89235937e-08,1.76504688e-01
-4.88835937e-08,1.76496875e-01
-4.88435937e-08,1.76503125e-01
-4.88035938e-08,1.76496875e-01
-4.87635937e-08,1.76503125e-01
-4.87235937e-08,1.76496875e-01
-4.86835937e-08,1.76503125e-01
-4.86435937e-08,1.76496875e-01
-4.86035937e-08,1.76503125e-01
-4.85635937e-08,1.76495313e-01
-4.85235938e-08,1.76504688e-01
-4.84835937e-08,1.76493750e-01
-4.84435937e-08,1.76507812e-01
-4.84035937e-08,1.76489063e-01
-4.83635937e-08,1.76515625e-01
-4.83235937e-08,1.76475000e-01
-4.82835937e-08,1.76550000e-01
-4.82435937e-08,1.76296875e-01
-4.82035937e-08,1.76040625e-01
-4.81635937e-08,1.76135938e-01
-4.81235937e-08,1.76073438e-01
-4.80835937e-08,1.76121875e-01
-4.80435937e-08,1.76081250e-01
-4.80035937e-08,1.76117187e-01
-4.79635937e-08,1.76082813e-01
-4.79235937e-08,1.76115625e-01
-4.78835937e-08,1.76084375e-01
-4.78435937e-08,1.76115625e-01
-4.78035937e-08,1.76084375e-01
-4.77635937e-08,1.76115625e-01
-4.77235937e-08,1.76084375e-01
-4.76835937e-08,1.76117187e-01
-4.76435937e-08,1.76081250e-01
-4.76035937e-08,1.76120313e-01
-4.75635937e-08,1.76076563e-01
-4.75235937e-08,1.76128125e-01
-4.74835937e-08,1.76062500e-01
-4.74435937e-08,1.76162500e-01
-4.74035937e-08,1.75884375e-01
-4.73635937e-08,1.75654688e-01
-4.73235937e-08,1.75721875e-01
-4.72835937e-08,1.75687500e-01
-4.72435937e-08,1.75706250e-01
-4.72035937e-08,1.75696875e-01
-4.71635938e-08,1.75700000e-01
-4.71235937e-08,1.75703125e-01
-4.70835937e-08,1.75693750e-01
-4.70435937e-08,1.75709375e-01
-4.70035937e-08,1.75684375e-01
-4.69635937e-08,1.75725000e-01
-4.69235937e-08,1.75650000e-01
-4.68835938e-08,1.75904688e-01
-4.68435937e-08,1.76157813e-01
-4.68035937e-08,1.76065625e-01
-4.67635937e-08,1.76125000e-01
-4.67235937e-08,1.76079687e-01
-4.66835937e-08,1.76117187e-01
-4.66435937e-08,1.76084375e-01
-4.66035938e-08,1.76114063e-01
-4.65635937e-08,1.76087500e-01
-4.65235937e-08,1.76112500e-01
-4.64835937e-08,1.76087500e-01
-4.64435937e-08,1.76110938e-01
-4.64035937e-08,1.76089063e-01
-4.63635937e-08,1.76112500e-01
-4.63235938e-08,1.76087500e-01
-4.62835937e-08,1.76112500e-01
-4.62435937e-08,1.76085938e-01
-4.62035937e-08,1.76115625e-01
-4.61635937e-08,1.76082813e-01
-4.61235937e-08,1.76120313e-01
-4.60835937e-08,1.76075000e-01
-4.60435937e-08,1.76134375e-01
-4.60035937e-08,1.76040625e-01
-4.59635937e-08,1.76312500e-01
-4.59235937e-08,1.76548438e-01
-4.58835937e-08,1.76475000e-01
-4.58435937e-08,1.76515625e-01
-4.58035937e-08,1.76490625e-01
-4.57635937e-08,1.76506250e-01
-4.57235937e-08,1.76496875e-01
-4.56835937e-08,1.76500000e-01
-4.56435937e-08,1.76501563e-01
-4.56035937e-08,1.76495313e-01
-4.55635937e-08,1.76507812e-01
-4.55235937e-08,1.76485937e-01
-4.54835937e-08,1.76523438e-01
-4.54435937e-08,1.76450000e-01
-4.54035937e-08,1.76703125e-01
-4.53635937e-08,1.76959375e-01
-4.53235937e-08,1.76864063e-01
-4.52835937e-08,1.76925000e-01
-4.52435938e-08,1.76879687e-01
-4.52035937e-08,1.76917188e-01
-4.51635937e-08,1.76884375e-01
-4.51235937e-08,1.76914062e-01
-4.50835937e-08,1.76887500e-01
-4.50435937e-08,1.76910938e-01
-4.50035937e-08,1.76889062e-01
-4.49635938e-08,1.76909375e-01
-4.49235937e-08,1.76890625e-01
-4.48835937e-08,1.76909375e-01
-4.48435937e-08,1.76892188e-01
-4.48035937e-08,1.76907813e-01
-4.47635937e-08,1.76892188e-01
-4.47235937e-08,1.76906250e-01
-4.46835938e-08,1.76893750e-01
-4.46435937e-08,1.76906250e-01
-4.46035937e-08,1.76893750e-01
-4.45635937e-08,1.76904688e-01
-4.45235937e-08,1.76895313e-01
-4.44835937e-08,1.76903125e-01
-4.44435937e-08,1.76896875e-01
-4.44035938e-08,1.76901562e-01
-4.43635937e-08,1.76900000e-01
-4.43235937e-08,1.76896875e-01
-4.42835937e-08,1.76907813e-01
-4.42435937e-08,1.76882813e-01
-4.42035937e-08,1.76940625e-01
-4.41635937e-08,1.76706250e-01
-4.41235938e-08,1.76429688e-01
-4.40835937e-08,1.76548438e-01
-4.40435937e-08,1.76457813e-01
-4.40035937e-08,1.76540625e-01
-4.39635937e-08,1.76453125e-01
-4.39235937e-08,1.76568750e-01
-4.38835937e-08,1.76281250e-01
-4.38435937e-08,1.76053125e-01
-4.38035937e-08,1.76126563e-01
-4.37635937e-08,1.76073438e-01
-4.37235937e-08,1.76145313e-01
-4.36835937e-08,1.75906250e-01
-4.36435937e-08,1.75626562e-01
-4.36035937e-08,1.75756250e-01
-4.35635937e-08,1.75642188e-01
-4.35235937e-08,1.75779688e-01
-4.34835937e-08,1.75468750e-01
-4.34435937e-08,1.75268750e-01
-4.34035937e-08,1.75304688e-01
-4.33635937e-08,1.75307812e-01
-4.33235938e-08,1.75279688e-01
-4.32835937e-08,1.75346875e-01
-4.32435937e-08,1.75098438e-01
-4.32035937e-08,1.74839063e-01
-4.31635937e-08,1.74939063e-01
-4.31235937e-08,1.74868750e-01
-4.30835937e-08,1.74931250e-01
-4.30435938e-08,1.74862500e-01
-4.30035937e-08,1.74959375e-01
-4.29635937e-08,1.74689063e-01
-4.29235937e-08,1.74446875e-01
-4.28835937e-08,1.74529688e-01
-4.28435937e-08,1.74478125e-01
-4.28035937e-08,1.74517188e-01
-4.27635938e-08,1.74484375e-01
-4.27235937e-08,1.74514063e-01
-4.26835937e-08,1.74485937e-01
-4.26435937e-08,1.74512500e-01
-4.26035937e-08,1.74487500e-01
-4.25635937e-08,1.74512500e-01
-4.25235937e-08,1.74487500e-01
-4.24835938e-08,1.74512500e-01
-4.24435937e-08,1.74485937e-01
-4.24035937e-08,1.74514063e-01
-4.23635937e-08,1.74485937e-01
-4.23235937e-08,1.74515625e-01
-4.22835937e-08,1.74484375e-01
-4.22435937e-08,1.74517188e-01
-4.22035938e-08,1.74481250e-01
-4.21635937e-08,1.74520312e-01
-4.21235937e-08,1.74478125e-01
-4.20835937e-08,1.74526563e-01
-4.20435937e-08,1.74468750e-01
-4.20035937e-08,1.74542188e-01
-4.19635937e-08,1.74432813e-01
-4.19235938e-08,1.74720313e-01
-4.18835937e-08,1.74940625e-01
-4.18435937e-08,1.74884375e-01
-4.18035937e-08,1.74903125e-01
-4.17635937e-08,1.74904688e-01
-4.17235937e-08,1.74887500e-01
-4.16835937e-08,1.74923438e-01
-4.16435937e-08,1.74850000e-01
-4.16035937e-08,1.75103125e-01
-4.15635937e-08,1.75359375e-01
-4.15235937e-08,1.75264063e-01
-4.14835937e-08,1.75329687e-01
-4.14435937e-08,1.75271875e-01
-4.14035938e-08,1.75332813e-01
-4.13635937e-08,1.75245313e-01
-4.13235937e-08,1.75504688e-01
-4.12835937e-08,1.75760938e-01
-4.12435937e-08,1.75659375e-01
-4.12035937e-08,1.75735937e-01
-4.11635937e-08,1.75664062e-01
-4.11235938e-08,1.75743750e-01
-4.10835937e-08,1.75631250e-01
-4.10435937e-08,1.75920313e-01
-4.10035937e-08,1.76140625e-01
-4.09635937e-08,1.76082813e-01
-4.09235937e-08,1.76107813e-01
-4.08835937e-08,1.76098438e-01
-4.08435938e-08,1.76096875e-01
-4.08035937e-08,1.76106250e-01
-4.07635937e-08,1.76089063e-01
-4.07235937e-08,1.76115625e-01
-4.06835937e-08,1.76078125e-01
-4.06435937e-08,1.76132813e-01
-4.06035937e-08,1.76042188e-01
-4.05635938e-08,1.76312500e-01
-4.05235937e-08,1.76546875e-01
-4.04835937e-08,1.76479688e-01
-4.04435937e-08,1.76507812e-01
-4.04035937e-08,1.76501563e-01
-4.03635937e-08,1.76485937e-01
-4.03235937e-08,1.76542188e-01
-4.02835938e-08,1.76303125e-01
-4.02435937e-08,1.76034375e-01
-4.02035937e-08,1.76140625e-01
-4.01635937e-08,1.76070313e-01
-4.01235937e-08,1.76125000e-01
-4.00835937e-08,1.76078125e-01
-4.00435937e-08,1.76120313e-01
-4.00035938e-08,1.76081250e-01
-3.99635937e-08,1.76117187e-01
-3.99235937e-08,1.76082813e-01
-3.98835937e-08,1.76118750e-01
-3.98435937e-08,1.76079687e-01
-3.98035937e-08,1.76125000e-01
-3.97635937e-08,1.76067187e-01
-3.97235937e-08,1.76157813e-01
-3.96835937e-08,1.75890625e-01
-3.96435937e-08,1.75645313e-01
-3.96035937e-08,1.75731250e-01
-3.95635937e-08,1.75676562e-01
-3.95235937e-08,1.75720313e-01
-3.94835938e-08,1.75681250e-01
-3.94435937e-08,1.75718750e-01
-3.94035937e-08,1.75679688e-01
-3.93635937e-08,1.75725000e-01
-3.93235937e-08,1.75665625e-01
-3.92835937e-08,1.75759375e-01
-3.92435937e-08,1.75489063e-01
-3.92035938e-08,1.75248437e-01
-3.91635937e-08,1.75326563e-01
-3.91235937e-08,1.75281250e-01
-3.90835937e-08,1.75312500e-01
-3.90435937e-08,1.75290625e-01
-3.90035937e-08,1.75307812e-01
-3.89635937e-08,1.75293750e-01
-3.89235938e-08,1.75306250e-01
-3.88835937e-08,1.75295312e-01
-3.88435937e-08,1.75303125e-01
-3.88035937e-08,1.75296875e-01
-3.87635937e-08,1.75303125e-01
-3.87235937e-08,1.75298438e-01
-3.86835937e-08,1.75301563e-01
-3.86435938e-08,1.75298438e-01
-3.86035937e-08,1.75301563e-01
-3.85635937e-08,1.75300000e-01
-3.85235937e-08,1.75300000e-01
