trails/0abb954fa332282a54c7a4841199d6d9/aes_ch1_20250507103946337.csv

Model,MSO66B
Label,
Waveform Type,ANALOG
Horizontal Units,s
Sample Interval,4.00000000e-11
Record Length,10000
Zero Index,1599.08593750
Vertical Units,A
ANALOG_Thumbnail,
yOffset,1.84500000e-01
yPosition,8.40000000e-01

Labels,
TIME,CH1
-6.39634375e-08,2.04498438e-01
-6.39234375e-08,2.04501563e-01
-6.38834375e-08,2.04496875e-01
-6.38434375e-08,2.04506250e-01
-6.38034375e-08,2.04490625e-01
-6.37634375e-08,2.04514063e-01
-6.37234375e-08,2.04476563e-01
-6.36834375e-08,2.04548438e-01
-6.36434375e-08,2.04298438e-01
-6.36034375e-08,2.04039063e-01
-6.35634375e-08,2.04137500e-01
-6.35234375e-08,2.04071875e-01
-6.34834375e-08,2.04123438e-01
-6.34434375e-08,2.04079687e-01
-6.34034375e-08,2.04118750e-01
-6.33634375e-08,2.04082813e-01
-6.33234375e-08,2.04115625e-01
-6.32834375e-08,2.04084375e-01
-6.32434375e-08,2.04115625e-01
-6.32034375e-08,2.04085938e-01
-6.31634375e-08,2.04114062e-01
-6.31234375e-08,2.04085938e-01
-6.30834375e-08,2.04114062e-01
-6.30434375e-08,2.04085938e-01
-6.30034375e-08,2.04114062e-01
-6.29634375e-08,2.04084375e-01
-6.29234375e-08,2.04115625e-01
-6.28834375e-08,2.04084375e-01
-6.28434375e-08,2.04117188e-01
-6.28034375e-08,2.04082813e-01
-6.27634375e-08,2.04118750e-01
-6.27234375e-08,2.04078125e-01
-6.26834375e-08,2.04125000e-01
-6.26434375e-08,2.04070313e-01
-6.26034375e-08,2.04139062e-01
-6.25634375e-08,2.04035938e-01
-6.25234375e-08,2.04317187e-01
-6.24834375e-08,2.04545313e-01
-6.24434375e-08,2.04478125e-01
-6.24034375e-08,2.04510938e-01
-6.23634375e-08,2.04493750e-01
-6.23234375e-08,2.04503125e-01
-6.22834375e-08,2.04498438e-01
-6.22434375e-08,2.04500000e-01
-6.22034375e-08,2.04501563e-01
-6.21634375e-08,2.04496875e-01
-6.21234375e-08,2.04503125e-01
-6.20834375e-08,2.04495312e-01
-6.20434375e-08,2.04504688e-01
-6.20034375e-08,2.04493750e-01
-6.19634375e-08,2.04506250e-01
-6.19234375e-08,2.04493750e-01
-6.18834375e-08,2.04507812e-01
-6.18434375e-08,2.04492188e-01
-6.18034375e-08,2.04509375e-01
-6.17634375e-08,2.04489063e-01
-6.17234375e-08,2.04510938e-01
-6.16834375e-08,2.04487500e-01
-6.16434375e-08,2.04514063e-01
-6.16034375e-08,2.04482812e-01
-6.15634375e-08,2.04520313e-01
-6.15234375e-08,2.04475000e-01
-6.14834375e-08,2.04535938e-01
-6.14434375e-08,2.04439063e-01
-6.14034375e-08,2.04714063e-01
-6.13634375e-08,2.04948437e-01
-6.13234375e-08,2.04876562e-01
-6.12834375e-08,2.04914062e-01
-6.12434375e-08,2.04892188e-01
-6.12034375e-08,2.04904688e-01
-6.11634375e-08,2.04898438e-01
-6.11234375e-08,2.04900000e-01
-6.10834375e-08,2.04903125e-01
-6.10434375e-08,2.04893750e-01
-6.10034375e-08,2.04907813e-01
-6.09634375e-08,2.04887500e-01
-6.09234375e-08,2.04917188e-01
-6.08834375e-08,2.04871875e-01
-6.08434375e-08,2.04953125e-01
-6.08034375e-08,2.04693750e-01
-6.07634375e-08,2.04443750e-01
-6.07234375e-08,2.04531250e-01
-6.06834375e-08,2.04478125e-01
-6.06434375e-08,2.04517188e-01
-6.06034375e-08,2.04485937e-01
-6.05634375e-08,2.04510938e-01
-6.05234375e-08,2.04490625e-01
-6.04834375e-08,2.04507812e-01
-6.04434375e-08,2.04492188e-01
-6.04034375e-08,2.04506250e-01
-6.03634375e-08,2.04493750e-01
-6.03234375e-08,2.04504688e-01
-6.02834375e-08,2.04495312e-01
-6.02434375e-08,2.04504688e-01
-6.02034375e-08,2.04496875e-01
-6.01634375e-08,2.04503125e-01
-6.01234375e-08,2.04496875e-01
-6.00834375e-08,2.04503125e-01
-6.00434375e-08,2.04496875e-01
-6.00034375e-08,2.04501563e-01
-5.99634375e-08,2.04498438e-01
-5.99234375e-08,2.04501563e-01
-5.98834375e-08,2.04498438e-01
-5.98434375e-08,2.04501563e-01
-5.98034375e-08,2.04498438e-01
-5.97634375e-08,2.04501563e-01
-5.97234375e-08,2.04498438e-01
-5.96834375e-08,2.04500000e-01
-5.96434375e-08,2.04500000e-01
-5.96034375e-08,2.04500000e-01
-5.95634375e-08,2.04500000e-01
-5.95234375e-08,2.04500000e-01
-5.94834375e-08,2.04500000e-01
-5.94434375e-08,2.04500000e-01
-5.94034375e-08,2.04500000e-01
-5.93634375e-08,2.04500000e-01
-5.93234375e-08,2.04500000e-01
-5.92834375e-08,2.04500000e-01
-5.92434375e-08,2.04501563e-01
-5.92034375e-08,2.04498438e-01
-5.91634375e-08,2.04501563e-01
-5.91234375e-08,2.04498438e-01
-5.90834375e-08,2.04501563e-01
-5.90434375e-08,2.04498438e-01
-5.90034375e-08,2.04501563e-01
-5.89634375e-08,2.04498438e-01
-5.89234375e-08,2.04503125e-01
-5.88834375e-08,2.04496875e-01
-5.88434375e-08,2.04503125e-01
-5.88034375e-08,2.04496875e-01
-5.87634375e-08,2.04503125e-01
-5.87234375e-08,2.04496875e-01
-5.86834375e-08,2.04504688e-01
-5.86434375e-08,2.04495312e-01
-5.86034375e-08,2.04504688e-01
-5.85634375e-08,2.04493750e-01
-5.85234375e-08,2.04506250e-01
-5.84834375e-08,2.04492188e-01
-5.84434375e-08,2.04507812e-01
-5.84034375e-08,2.04490625e-01
-5.83634375e-08,2.04512500e-01
-5.83234375e-08,2.04484375e-01
-5.82834375e-08,2.04520313e-01
-5.82434375e-08,2.04470313e-01
-5.82034375e-08,2.04554687e-01
-5.81634375e-08,2.04292187e-01
-5.81234375e-08,2.04045313e-01
-5.80834375e-08,2.04129688e-01
-5.80434375e-08,2.04079687e-01
-5.80034375e-08,2.04115625e-01
-5.79634375e-08,2.04087500e-01
-5.79234375e-08,2.04110938e-01
-5.78834375e-08,2.04090625e-01
-5.78434375e-08,2.04107813e-01
-5.78034375e-08,2.04092188e-01
-5.77634375e-08,2.04106250e-01
-5.77234375e-08,2.04093750e-01
-5.76834375e-08,2.04104687e-01
-5.76434375e-08,2.04095313e-01
-5.76034375e-08,2.04104687e-01
-5.75634375e-08,2.04095313e-01
-5.75234375e-08,2.04103125e-01
-5.74834375e-08,2.04096875e-01
-5.74434375e-08,2.04103125e-01
-5.74034375e-08,2.04096875e-01
-5.73634375e-08,2.04103125e-01
-5.73234375e-08,2.04096875e-01
-5.72834375e-08,2.04103125e-01
-5.72434375e-08,2.04096875e-01
-5.72034375e-08,2.04103125e-01
-5.71634375e-08,2.04098438e-01
-5.71234375e-08,2.04101562e-01
-5.70834375e-08,2.04098438e-01
-5.70434375e-08,2.04101562e-01
-5.70034375e-08,2.04098438e-01
-5.69634375e-08,2.04101562e-01
-5.69234375e-08,2.04098438e-01
-5.68834375e-08,2.04101562e-01
-5.68434375e-08,2.04098438e-01
-5.68034375e-08,2.04101562e-01
-5.67634375e-08,2.04098438e-01
-5.67234375e-08,2.04101562e-01
-5.66834375e-08,2.04098438e-01
-5.66434375e-08,2.04101562e-01
-5.66034375e-08,2.04098438e-01
-5.65634375e-08,2.04101562e-01
-5.65234375e-08,2.04098438e-01
-5.64834375e-08,2.04100000e-01
-5.64434375e-08,2.04100000e-01
-5.64034375e-08,2.04100000e-01
-5.63634375e-08,2.04100000e-01
-5.63234375e-08,2.04100000e-01
-5.62834375e-08,2.04100000e-01
-5.62434375e-08,2.04100000e-01
-5.62034375e-08,2.04100000e-01
-5.61634375e-08,2.04100000e-01
-5.61234375e-08,2.04100000e-01
-5.60834375e-08,2.04100000e-01
-5.60434375e-08,2.04100000e-01
-5.60034375e-08,2.04100000e-01
-5.59634375e-08,2.04100000e-01
-5.59234375e-08,2.04100000e-01
-5.58834375e-08,2.04100000e-01
-5.58434375e-08,2.04098438e-01
-5.58034375e-08,2.04101562e-01
-5.57634375e-08,2.04098438e-01
-5.57234375e-08,2.04101562e-01
-5.56834375e-08,2.04096875e-01
-5.56434375e-08,2.04103125e-01
-5.56034375e-08,2.04096875e-01
-5.55634375e-08,2.04104687e-01
-5.55234375e-08,2.04093750e-01
-5.54834375e-08,2.04107813e-01
-5.54434375e-08,2.04089063e-01
-5.54034375e-08,2.04115625e-01
-5.53634375e-08,2.04075000e-01
-5.53234375e-08,2.04148438e-01
-5.52834375e-08,2.03898438e-01
-5.52434375e-08,2.03639063e-01
-5.52034375e-08,2.03737500e-01
-5.51634375e-08,2.03670313e-01
-5.51234375e-08,2.03726563e-01
-5.50834375e-08,2.03675000e-01
-5.50434375e-08,2.03725000e-01
-5.50034375e-08,2.03673437e-01
-5.49634375e-08,2.03731250e-01
-5.49234375e-08,2.03660937e-01
-5.48834375e-08,2.03764063e-01
-5.48434375e-08,2.03482812e-01
-5.48034375e-08,2.03254688e-01
-5.47634375e-08,2.03320313e-01
-5.47234375e-08,2.03289063e-01
-5.46834375e-08,2.03304687e-01
-5.46434375e-08,2.03300000e-01
-5.46034375e-08,2.03295313e-01
-5.45634375e-08,2.03310938e-01
-5.45234375e-08,2.03279688e-01
-5.44834375e-08,2.03345313e-01
-5.44434375e-08,2.03101562e-01
-5.44034375e-08,2.02835938e-01
-5.43634375e-08,2.02940625e-01
-5.43234375e-08,2.02868750e-01
-5.42834375e-08,2.02926563e-01
-5.42434375e-08,2.02875000e-01
-5.42034375e-08,2.02925000e-01
-5.41634375e-08,2.02873438e-01
-5.41234375e-08,2.02931250e-01
-5.40834375e-08,2.02860938e-01
-5.40434375e-08,2.02964063e-01
-5.40034375e-08,2.02684375e-01
-5.39634375e-08,2.02453125e-01
-5.39234375e-08,2.02523438e-01
-5.38834375e-08,2.02485938e-01
-5.38434375e-08,2.02509375e-01
-5.38034375e-08,2.02493750e-01
-5.37634375e-08,2.02504688e-01
-5.37234375e-08,2.02496875e-01
-5.36834375e-08,2.02503125e-01
-5.36434375e-08,2.02498438e-01
-5.36034375e-08,2.02501563e-01
-5.35634375e-08,2.02498438e-01
-5.35234375e-08,2.02500000e-01
-5.34834375e-08,2.02500000e-01
-5.34434375e-08,2.02500000e-01
-5.34034375e-08,2.02500000e-01
-5.33634375e-08,2.02500000e-01
-5.33234375e-08,2.02501563e-01
-5.32834375e-08,2.02498438e-01
-5.32434375e-08,2.02501563e-01
-5.32034375e-08,2.02498438e-01
-5.31634375e-08,2.02501563e-01
-5.31234375e-08,2.02496875e-01
-5.30834375e-08,2.02503125e-01
-5.30434375e-08,2.02496875e-01
-5.30034375e-08,2.02503125e-01
-5.29634375e-08,2.02495312e-01
-5.29234375e-08,2.02504688e-01
-5.28834375e-08,2.02493750e-01
-5.28434375e-08,2.02507812e-01
-5.28034375e-08,2.02490625e-01
-5.27634375e-08,2.02512500e-01
-5.27234375e-08,2.02482812e-01
-5.26834375e-08,2.02526563e-01
-5.26434375e-08,2.02450000e-01
-5.26034375e-08,2.02703125e-01
-5.25634375e-08,2.02959375e-01
-5.25234375e-08,2.02864062e-01
-5.24834375e-08,2.02928125e-01
-5.24434375e-08,2.02875000e-01
-5.24034375e-08,2.02923437e-01
-5.23634375e-08,2.02876562e-01
-5.23234375e-08,2.02925000e-01
-5.22834375e-08,2.02870313e-01
-5.22434375e-08,2.02937500e-01
-5.22034375e-08,2.02837500e-01
-5.21634375e-08,2.03115625e-01
-5.21234375e-08,2.03346875e-01
-5.20834375e-08,2.03276563e-01
-5.20434375e-08,2.03312500e-01
-5.20034375e-08,2.03292187e-01
-5.19634375e-08,2.03303125e-01
-5.19234375e-08,2.03301563e-01
-5.18834375e-08,2.03292187e-01
-5.18434375e-08,2.03317187e-01
-5.18034375e-08,2.03256250e-01
-5.17634375e-08,2.03496875e-01
-5.17234375e-08,2.03765625e-01
-5.16834375e-08,2.03656250e-01
-5.16434375e-08,2.03734375e-01
-5.16034375e-08,2.03668750e-01
-5.15634375e-08,2.03729688e-01
-5.15234375e-08,2.03670313e-01
-5.14834375e-08,2.03731250e-01
-5.14434375e-08,2.03665625e-01
-5.14034375e-08,2.03743750e-01
-5.13634375e-08,2.03631250e-01
-5.13234375e-08,2.03921875e-01
-5.12834375e-08,2.04140625e-01
-5.12434375e-08,2.04082813e-01
-5.12034375e-08,2.04107813e-01
-5.11634375e-08,2.04098438e-01
-5.11234375e-08,2.04098438e-01
-5.10834375e-08,2.04104687e-01
-5.10434375e-08,2.04090625e-01
-5.10034375e-08,2.04112500e-01
-5.09634375e-08,2.04081250e-01
-5.09234375e-08,2.04128125e-01
-5.08834375e-08,2.04045313e-01
-5.08434375e-08,2.04307813e-01
-5.08034375e-08,2.04554687e-01
-5.07634375e-08,2.04470313e-01
-5.07234375e-08,2.04520313e-01
-5.06834375e-08,2.04484375e-01
-5.06434375e-08,2.04512500e-01
-5.06034375e-08,2.04490625e-01
-5.05634375e-08,2.04507812e-01
-5.05234375e-08,2.04492188e-01
-5.04834375e-08,2.04506250e-01
-5.04434375e-08,2.04495312e-01
-5.04034375e-08,2.04504688e-01
-5.03634375e-08,2.04495312e-01
-5.03234375e-08,2.04503125e-01
-5.02834375e-08,2.04496875e-01
-5.02434375e-08,2.04503125e-01
-5.02034375e-08,2.04498438e-01
-5.01634375e-08,2.04501563e-01
-5.01234375e-08,2.04498438e-01
-5.00834375e-08,2.04501563e-01
-5.00434375e-08,2.04498438e-01
-5.00034375e-08,2.04500000e-01
-4.99634375e-08,2.04500000e-01
-4.99234375e-08,2.04500000e-01
-4.98834375e-08,2.04500000e-01
-4.98434375e-08,2.04500000e-01
-4.98034375e-08,2.04500000e-01
-4.97634375e-08,2.04498438e-01
-4.97234375e-08,2.04501563e-01
-4.96834375e-08,2.04498438e-01
-4.96434375e-08,2.04501563e-01
-4.96034375e-08,2.04496875e-01
-4.95634375e-08,2.04503125e-01
-4.95234375e-08,2.04496875e-01
-4.94834375e-08,2.04503125e-01
-4.94434375e-08,2.04495312e-01
-4.94034375e-08,2.04504688e-01
-4.93634375e-08,2.04493750e-01
-4.93234375e-08,2.04507812e-01
-4.92834375e-08,2.04490625e-01
-4.92434375e-08,2.04510938e-01
-4.92034375e-08,2.04485937e-01
-4.91634375e-08,2.04518750e-01
-4.91234375e-08,2.04470313e-01
-4.90834375e-08,2.04554687e-01
-4.90434375e-08,2.04292187e-01
-4.90034375e-08,2.04045313e-01
-4.89634375e-08,2.04131250e-01
-4.89234375e-08,2.04078125e-01
-4.88834375e-08,2.04117188e-01
-4.88434375e-08,2.04085938e-01
-4.88034375e-08,2.04110938e-01
-4.87634375e-08,2.04090625e-01
-4.87234375e-08,2.04109375e-01
-4.86834375e-08,2.04092188e-01
-4.86434375e-08,2.04107813e-01
-4.86034375e-08,2.04093750e-01
-4.85634375e-08,2.04106250e-01
-4.85234375e-08,2.04093750e-01
-4.84834375e-08,2.04104687e-01
-4.84434375e-08,2.04095313e-01
-4.84034375e-08,2.04104687e-01
-4.83634375e-08,2.04095313e-01
-4.83234375e-08,2.04104687e-01
-4.82834375e-08,2.04095313e-01
-4.82434375e-08,2.04103125e-01
-4.82034375e-08,2.04096875e-01
-4.81634375e-08,2.04103125e-01
-4.81234375e-08,2.04096875e-01
-4.80834375e-08,2.04103125e-01
-4.80434375e-08,2.04096875e-01
-4.80034375e-08,2.04103125e-01
-4.79634375e-08,2.04096875e-01
-4.79234375e-08,2.04103125e-01
-4.78834375e-08,2.04096875e-01
-4.78434375e-08,2.04103125e-01
-4.78034375e-08,2.04096875e-01
-4.77634375e-08,2.04101562e-01
-4.77234375e-08,2.04098438e-01
-4.76834375e-08,2.04101562e-01
-4.76434375e-08,2.04098438e-01
-4.76034375e-08,2.04101562e-01
-4.75634375e-08,2.04098438e-01
-4.75234375e-08,2.04101562e-01
-4.74834375e-08,2.04098438e-01
-4.74434375e-08,2.04101562e-01
-4.74034375e-08,2.04098438e-01
-4.73634375e-08,2.04101562e-01
-4.73234375e-08,2.04098438e-01
-4.72834375e-08,2.04101562e-01
-4.72434375e-08,2.04098438e-01
-4.72034375e-08,2.04101562e-01
-4.71634375e-08,2.04098438e-01
-4.71234375e-08,2.04101562e-01
-4.70834375e-08,2.04098438e-01
-4.70434375e-08,2.04101562e-01
-4.70034375e-08,2.04100000e-01
-4.69634375e-08,2.04100000e-01
-4.69234375e-08,2.04100000e-01
-4.68834375e-08,2.04100000e-01
-4.68434375e-08,2.04100000e-01
-4.68034375e-08,2.04100000e-01
-4.67634375e-08,2.04100000e-01
-4.67234375e-08,2.04100000e-01
-4.66834375e-08,2.04100000e-01
-4.66434375e-08,2.04100000e-01
-4.66034375e-08,2.04100000e-01
-4.65634375e-08,2.04100000e-01
-4.65234375e-08,2.04100000e-01
-4.64834375e-08,2.04100000e-01
-4.64434375e-08,2.04101562e-01
-4.64034375e-08,2.04098438e-01
-4.63634375e-08,2.04101562e-01
-4.63234375e-08,2.04098438e-01
-4.62834375e-08,2.04101562e-01
-4.62434375e-08,2.04098438e-01
-4.62034375e-08,2.04103125e-01
-4.61634375e-08,2.04096875e-01
-4.61234375e-08,2.04103125e-01
-4.60834375e-08,2.04096875e-01
-4.60434375e-08,2.04104687e-01
-4.60034375e-08,2.04095313e-01
-4.59634375e-08,2.04106250e-01
-4.59234375e-08,2.04092188e-01
-4.58834375e-08,2.04109375e-01
-4.58434375e-08,2.04089063e-01
-4.58034375e-08,2.04114062e-01
-4.57634375e-08,2.04081250e-01
-4.57234375e-08,2.04129688e-01
-4.56834375e-08,2.04045313e-01
-4.56434375e-08,2.04307813e-01
-4.56034375e-08,2.04554687e-01
-4.55634375e-08,2.04470313e-01
-4.55234375e-08,2.04520313e-01
-4.54834375e-08,2.04485937e-01
-4.54434375e-08,2.04510938e-01
-4.54034375e-08,2.04492188e-01
-4.53634375e-08,2.04504688e-01
-4.53234375e-08,2.04500000e-01
-4.52834375e-08,2.04495312e-01
-4.52434375e-08,2.04514063e-01
-4.52034375e-08,2.04460937e-01
-4.51634375e-08,2.04692188e-01
-4.51234375e-08,2.04970313e-01
-4.50834375e-08,2.04851563e-01
-4.50434375e-08,2.04940625e-01
-4.50034375e-08,2.04862500e-01
-4.49634375e-08,2.04937500e-01
-4.49234375e-08,2.04859375e-01
-4.48834375e-08,2.04948437e-01
-4.48434375e-08,2.04826563e-01
-4.48034375e-08,2.05125000e-01
-4.47634375e-08,2.05335938e-01
-4.47234375e-08,2.05287500e-01
-4.46834375e-08,2.05303125e-01
-4.46434375e-08,2.05303125e-01
-4.46034375e-08,2.05292188e-01
-4.45634375e-08,2.05312500e-01
-4.45234375e-08,2.05281250e-01
-4.44834375e-08,2.05329687e-01
-4.44434375e-08,2.05245312e-01
-4.44034375e-08,2.05507812e-01
-4.43634375e-08,2.05753125e-01
-4.43234375e-08,2.05670313e-01
-4.42834375e-08,2.05720313e-01
-4.42434375e-08,2.05685937e-01
-4.42034375e-08,2.05710937e-01
-4.41634375e-08,2.05690625e-01
-4.41234375e-08,2.05707813e-01
-4.40834375e-08,2.05693750e-01
-4.40434375e-08,2.05704688e-01
-4.40034375e-08,2.05695313e-01
-4.39634375e-08,2.05704688e-01
-4.39234375e-08,2.05696875e-01
-4.38834375e-08,2.05703125e-01
-4.38434375e-08,2.05696875e-01
-4.38034375e-08,2.05701563e-01
-4.37634375e-08,2.05698437e-01
-4.37234375e-08,2.05701563e-01
-4.36834375e-08,2.05698437e-01
-4.36434375e-08,2.05700000e-01
-4.36034375e-08,2.05700000e-01
-4.35634375e-08,2.05700000e-01
-4.35234375e-08,2.05700000e-01
-4.34834375e-08,2.05698437e-01
-4.34434375e-08,2.05701563e-01
-4.34034375e-08,2.05698437e-01
-4.33634375e-08,2.05703125e-01
-4.33234375e-08,2.05696875e-01
-4.32834375e-08,2.05704688e-01
-4.32434375e-08,2.05693750e-01
-4.32034375e-08,2.05707813e-01
-4.31634375e-08,2.05689063e-01
-4.31234375e-08,2.05715625e-01
-4.30834375e-08,2.05675000e-01
-4.30434375e-08,2.05750000e-01
-4.30034375e-08,2.05496875e-01
-4.29634375e-08,2.05240625e-01
-4.29234375e-08,2.05335938e-01
-4.28834375e-08,2.05273438e-01
-4.28434375e-08,2.05321875e-01
-4.28034375e-08,2.05281250e-01
-4.27634375e-08,2.05317187e-01
-4.27234375e-08,2.05284375e-01
-4.26834375e-08,2.05315625e-01
-4.26434375e-08,2.05285938e-01
-4.26034375e-08,2.05314063e-01
-4.25634375e-08,2.05285938e-01
-4.25234375e-08,2.05315625e-01
-4.24834375e-08,2.05284375e-01
-4.24434375e-08,2.05315625e-01
-4.24034375e-08,2.05282813e-01
-4.23634375e-08,2.05318750e-01
-4.23234375e-08,2.05278125e-01
-4.22834375e-08,2.05328125e-01
-4.22434375e-08,2.05262500e-01
-4.22034375e-08,2.05362500e-01
-4.21634375e-08,2.05084375e-01
-4.21234375e-08,2.04853125e-01
-4.20834375e-08,2.04923437e-01
-4.20434375e-08,2.04885938e-01
-4.20034375e-08,2.04909375e-01
-4.19634375e-08,2.04895313e-01
-4.19234375e-08,2.04903125e-01
-4.18834375e-08,2.04898438e-01
-4.18434375e-08,2.04900000e-01
-4.18034375e-08,2.04901563e-01
-4.17634375e-08,2.04896875e-01
-4.17234375e-08,2.04903125e-01
-4.16834375e-08,2.04895313e-01
-4.16434375e-08,2.04906250e-01
-4.16034375e-08,2.04892188e-01
-4.15634375e-08,2.04909375e-01
-4.15234375e-08,2.04889062e-01
-4.14834375e-08,2.04915625e-01
-4.14434375e-08,2.04879688e-01
-4.14034375e-08,2.04929688e-01
-4.13634375e-08,2.04845313e-01
-4.13234375e-08,2.05109375e-01
-4.12834375e-08,2.05353125e-01
-4.12434375e-08,2.05270312e-01
-4.12034375e-08,2.05318750e-01
-4.11634375e-08,2.05285938e-01
-4.11234375e-08,2.05310938e-01
-4.10834375e-08,2.05290625e-01
-4.10434375e-08,2.05306250e-01
-4.10034375e-08,2.05295312e-01
-4.09634375e-08,2.05303125e-01
-4.09234375e-08,2.05296875e-01
-4.08834375e-08,2.05301563e-01
-4.08434375e-08,2.05300000e-01
-4.08034375e-08,2.05300000e-01
-4.07634375e-08,2.05301563e-01
-4.07234375e-08,2.05296875e-01
-4.06834375e-08,2.05304687e-01
-4.06434375e-08,2.05292188e-01
-4.06034375e-08,2.05310938e-01
-4.05634375e-08,2.05284375e-01
-4.05234375e-08,2.05326563e-01
-4.04834375e-08,2.05248438e-01
-4.04434375e-08,2.05504688e-01
-4.04034375e-08,2.05757812e-01
-4.03634375e-08,2.05667188e-01
-4.03234375e-08,2.05723437e-01
-4.02834375e-08,2.05681250e-01
-4.02434375e-08,2.05715625e-01
-4.02034375e-08,2.05687500e-01
-4.01634375e-08,2.05710937e-01
-4.01234375e-08,2.05690625e-01
-4.00834375e-08,2.05707813e-01
-4.00434375e-08,2.05693750e-01
-4.00034375e-08,2.05706250e-01
-3.99634375e-08,2.05695313e-01
-3.99234375e-08,2.05703125e-01
-3.98834375e-08,2.05698437e-01
-3.98434375e-08,2.05700000e-01
-3.98034375e-08,2.05701563e-01
-3.97634375e-08,2.05695313e-01
-3.97234375e-08,2.05710937e-01
-3.96834375e-08,2.05679688e-01
-3.96434375e-08,2.05745312e-01
-3.96034375e-08,2.05501563e-01
-3.95634375e-08,2.05235938e-01
-3.95234375e-08,2.05340625e-01
-3.94834375e-08,2.05268750e-01
-3.94434375e-08,2.05326563e-01
-3.94034375e-08,2.05276563e-01
-3.93634375e-08,2.05321875e-01
-3.93234375e-08,2.05279688e-01
-3.92834375e-08,2.05318750e-01
-3.92434375e-08,2.05281250e-01
-3.92034375e-08,2.05318750e-01
-3.91634375e-08,2.05282813e-01
-3.91234375e-08,2.05318750e-01
-3.90834375e-08,2.05281250e-01
-3.90434375e-08,2.05318750e-01
-3.90034375e-08,2.05279688e-01
-3.89634375e-08,2.05320313e-01
-3.89234375e-08,2.05276563e-01
-3.88834375e-08,2.05325000e-01
-3.88434375e-08,2.05268750e-01
-3.88034375e-08,2.05340625e-01
-3.87634375e-08,2.05234375e-01
-3.87234375e-08,2.05517188e-01
-3.86834375e-08,2.05743750e-01
-3.86434375e-08,2.05679688e-01
-3.86034375e-08,2.05710937e-01
-3.85634375e-08,2.05693750e-01
-3.85234375e-08,2.05703125e-01
