trails/0abb954fa332282a54c7a4841199d6d9/aes_ch1_20250507103234974.csv

Model,MSO66B
Label,
Waveform Type,ANALOG
Horizontal Units,s
Sample Interval,4.00000000e-11
Record Length,10000
Zero Index,1599.08593750
Vertical Units,A
ANALOG_Thumbnail,
yOffset,1.84500000e-01
yPosition,8.40000000e-01

Labels,
TIME,CH1
-6.39634375e-08,1.95671875e-01
-6.39234375e-08,1.95720312e-01
-6.38834375e-08,1.95684375e-01
-6.38434375e-08,1.95712500e-01
-6.38034375e-08,1.95689063e-01
-6.37634375e-08,1.95709375e-01
-6.37234375e-08,1.95690625e-01
-6.36834375e-08,1.95707813e-01
-6.36434375e-08,1.95692188e-01
-6.36034375e-08,1.95707813e-01
-6.35634375e-08,1.95692188e-01
-6.35234375e-08,1.95707813e-01
-6.34834375e-08,1.95690625e-01
-6.34434375e-08,1.95709375e-01
-6.34034375e-08,1.95689063e-01
-6.33634375e-08,1.95710938e-01
-6.33234375e-08,1.95685938e-01
-6.32834375e-08,1.95715625e-01
-6.32434375e-08,1.95678125e-01
-6.32034375e-08,1.95731250e-01
-6.31634375e-08,1.95645313e-01
-6.31234375e-08,1.95907813e-01
-6.30834375e-08,1.96154688e-01
-6.30434375e-08,1.96068750e-01
-6.30034375e-08,1.96121875e-01
-6.29634375e-08,1.96082813e-01
-6.29234375e-08,1.96114063e-01
-6.28834375e-08,1.96087500e-01
-6.28434375e-08,1.96110937e-01
-6.28034375e-08,1.96089063e-01
-6.27634375e-08,1.96110937e-01
-6.27234375e-08,1.96089063e-01
-6.26834375e-08,1.96112500e-01
-6.26434375e-08,1.96085938e-01
-6.26034375e-08,1.96115625e-01
-6.25634375e-08,1.96079688e-01
-6.25234375e-08,1.96129688e-01
-6.24834375e-08,1.96045313e-01
-6.24434375e-08,1.96307813e-01
-6.24034375e-08,1.96554688e-01
-6.23634375e-08,1.96468750e-01
-6.23234375e-08,1.96523438e-01
-6.22834375e-08,1.96481250e-01
-6.22434375e-08,1.96515625e-01
-6.22034375e-08,1.96485938e-01
-6.21634375e-08,1.96512500e-01
-6.21234375e-08,1.96487500e-01
-6.20834375e-08,1.96512500e-01
-6.20434375e-08,1.96487500e-01
-6.20034375e-08,1.96510938e-01
-6.19634375e-08,1.96487500e-01
-6.19234375e-08,1.96512500e-01
-6.18834375e-08,1.96487500e-01
-6.18434375e-08,1.96514063e-01
-6.18034375e-08,1.96485938e-01
-6.17634375e-08,1.96515625e-01
-6.17234375e-08,1.96481250e-01
-6.16834375e-08,1.96521875e-01
-6.16434375e-08,1.96473438e-01
-6.16034375e-08,1.96535938e-01
-6.15634375e-08,1.96439063e-01
-6.15234375e-08,1.96714063e-01
-6.14834375e-08,1.96946875e-01
-6.14434375e-08,1.96876563e-01
-6.14034375e-08,1.96914063e-01
-6.13634375e-08,1.96892188e-01
-6.13234375e-08,1.96904688e-01
-6.12834375e-08,1.96896875e-01
-6.12434375e-08,1.96900000e-01
-6.12034375e-08,1.96901563e-01
-6.11634375e-08,1.96896875e-01
-6.11234375e-08,1.96904688e-01
-6.10834375e-08,1.96892188e-01
-6.10434375e-08,1.96909375e-01
-6.10034375e-08,1.96885937e-01
-6.09634375e-08,1.96918750e-01
-6.09234375e-08,1.96870313e-01
-6.08834375e-08,1.96954688e-01
-6.08434375e-08,1.96692188e-01
-6.08034375e-08,1.96445312e-01
-6.07634375e-08,1.96529687e-01
-6.07234375e-08,1.96479687e-01
-6.06834375e-08,1.96515625e-01
-6.06434375e-08,1.96489063e-01
-6.06034375e-08,1.96509375e-01
-6.05634375e-08,1.96492187e-01
-6.05234375e-08,1.96506250e-01
-6.04834375e-08,1.96495313e-01
-6.04434375e-08,1.96503125e-01
-6.04034375e-08,1.96498438e-01
-6.03634375e-08,1.96501563e-01
-6.03234375e-08,1.96500000e-01
-6.02834375e-08,1.96498438e-01
-6.02434375e-08,1.96503125e-01
-6.02034375e-08,1.96495313e-01
-6.01634375e-08,1.96506250e-01
-6.01234375e-08,1.96489063e-01
-6.00834375e-08,1.96515625e-01
-6.00434375e-08,1.96475000e-01
-6.00034375e-08,1.96550000e-01
-5.99634375e-08,1.96296875e-01
-5.99234375e-08,1.96042188e-01
-5.98834375e-08,1.96134375e-01
-5.98434375e-08,1.96075000e-01
-5.98034375e-08,1.96120313e-01
-5.97634375e-08,1.96082813e-01
-5.97234375e-08,1.96114063e-01
-5.96834375e-08,1.96087500e-01
-5.96434375e-08,1.96110937e-01
-5.96034375e-08,1.96089063e-01
-5.95634375e-08,1.96109375e-01
-5.95234375e-08,1.96090625e-01
-5.94834375e-08,1.96107813e-01
-5.94434375e-08,1.96092188e-01
-5.94034375e-08,1.96107813e-01
-5.93634375e-08,1.96092188e-01
-5.93234375e-08,1.96106250e-01
-5.92834375e-08,1.96093750e-01
-5.92434375e-08,1.96106250e-01
-5.92034375e-08,1.96093750e-01
-5.91634375e-08,1.96106250e-01
-5.91234375e-08,1.96093750e-01
-5.90834375e-08,1.96106250e-01
-5.90434375e-08,1.96093750e-01
-5.90034375e-08,1.96104688e-01
-5.89634375e-08,1.96095313e-01
-5.89234375e-08,1.96104688e-01
-5.88834375e-08,1.96095313e-01
-5.88434375e-08,1.96104688e-01
-5.88034375e-08,1.96095313e-01
-5.87634375e-08,1.96104688e-01
-5.87234375e-08,1.96095313e-01
-5.86834375e-08,1.96104688e-01
-5.86434375e-08,1.96095313e-01
-5.86034375e-08,1.96104688e-01
-5.85634375e-08,1.96095313e-01
-5.85234375e-08,1.96104688e-01
-5.84834375e-08,1.96095313e-01
-5.84434375e-08,1.96104688e-01
-5.84034375e-08,1.96095313e-01
-5.83634375e-08,1.96104688e-01
-5.83234375e-08,1.96095313e-01
-5.82834375e-08,1.96104688e-01
-5.82434375e-08,1.96095313e-01
-5.82034375e-08,1.96104688e-01
-5.81634375e-08,1.96095313e-01
-5.81234375e-08,1.96104688e-01
-5.80834375e-08,1.96095313e-01
-5.80434375e-08,1.96104688e-01
-5.80034375e-08,1.96095313e-01
-5.79634375e-08,1.96104688e-01
-5.79234375e-08,1.96095313e-01
-5.78834375e-08,1.96104688e-01
-5.78434375e-08,1.96095313e-01
-5.78034375e-08,1.96104688e-01
-5.77634375e-08,1.96093750e-01
-5.77234375e-08,1.96106250e-01
-5.76834375e-08,1.96093750e-01
-5.76434375e-08,1.96106250e-01
-5.76034375e-08,1.96092188e-01
-5.75634375e-08,1.96107813e-01
-5.75234375e-08,1.96090625e-01
-5.74834375e-08,1.96110937e-01
-5.74434375e-08,1.96087500e-01
-5.74034375e-08,1.96115625e-01
-5.73634375e-08,1.96079688e-01
-5.73234375e-08,1.96131250e-01
-5.72834375e-08,1.96045313e-01
-5.72434375e-08,1.96307813e-01
-5.72034375e-08,1.96554688e-01
-5.71634375e-08,1.96470313e-01
-5.71234375e-08,1.96520313e-01
-5.70834375e-08,1.96484375e-01
-5.70434375e-08,1.96512500e-01
-5.70034375e-08,1.96489063e-01
-5.69634375e-08,1.96509375e-01
-5.69234375e-08,1.96490625e-01
-5.68834375e-08,1.96507813e-01
-5.68434375e-08,1.96492187e-01
-5.68034375e-08,1.96506250e-01
-5.67634375e-08,1.96493750e-01
-5.67234375e-08,1.96506250e-01
-5.66834375e-08,1.96493750e-01
-5.66434375e-08,1.96506250e-01
-5.66034375e-08,1.96495313e-01
-5.65634375e-08,1.96504687e-01
-5.65234375e-08,1.96495313e-01
-5.64834375e-08,1.96504687e-01
-5.64434375e-08,1.96495313e-01
-5.64034375e-08,1.96504687e-01
-5.63634375e-08,1.96495313e-01
-5.63234375e-08,1.96504687e-01
-5.62834375e-08,1.96495313e-01
-5.62434375e-08,1.96504687e-01
-5.62034375e-08,1.96495313e-01
-5.61634375e-08,1.96504687e-01
-5.61234375e-08,1.96495313e-01
-5.60834375e-08,1.96506250e-01
-5.60434375e-08,1.96493750e-01
-5.60034375e-08,1.96506250e-01
-5.59634375e-08,1.96493750e-01
-5.59234375e-08,1.96506250e-01
-5.58834375e-08,1.96493750e-01
-5.58434375e-08,1.96506250e-01
-5.58034375e-08,1.96493750e-01
-5.57634375e-08,1.96506250e-01
-5.57234375e-08,1.96492187e-01
-5.56834375e-08,1.96507813e-01
-5.56434375e-08,1.96492187e-01
-5.56034375e-08,1.96507813e-01
-5.55634375e-08,1.96490625e-01
-5.55234375e-08,1.96509375e-01
-5.54834375e-08,1.96489063e-01
-5.54434375e-08,1.96510938e-01
-5.54034375e-08,1.96487500e-01
-5.53634375e-08,1.96514063e-01
-5.53234375e-08,1.96484375e-01
-5.52834375e-08,1.96517187e-01
-5.52434375e-08,1.96479687e-01
-5.52034375e-08,1.96526563e-01
-5.51634375e-08,1.96464063e-01
-5.51234375e-08,1.96560938e-01
-5.50834375e-08,1.96285938e-01
-5.50434375e-08,1.96053125e-01
-5.50034375e-08,1.96123437e-01
-5.49634375e-08,1.96087500e-01
-5.49234375e-08,1.96107813e-01
-5.48834375e-08,1.96096875e-01
-5.48434375e-08,1.96100000e-01
-5.48034375e-08,1.96103125e-01
-5.47634375e-08,1.96095313e-01
-5.47234375e-08,1.96107813e-01
-5.46834375e-08,1.96087500e-01
-5.46434375e-08,1.96118750e-01
-5.46034375e-08,1.96071875e-01
-5.45634375e-08,1.96154688e-01
-5.45234375e-08,1.95892188e-01
-5.44834375e-08,1.95646875e-01
-5.44434375e-08,1.95729687e-01
-5.44034375e-08,1.95681250e-01
-5.43634375e-08,1.95714063e-01
-5.43234375e-08,1.95690625e-01
-5.42834375e-08,1.95706250e-01
-5.42434375e-08,1.95696875e-01
-5.42034375e-08,1.95701563e-01
-5.41634375e-08,1.95701563e-01
-5.41234375e-08,1.95693750e-01
-5.40834375e-08,1.95710938e-01
-5.40434375e-08,1.95678125e-01
-5.40034375e-08,1.95746875e-01
-5.39634375e-08,1.95498438e-01
-5.39234375e-08,1.95239063e-01
-5.38834375e-08,1.95337500e-01
-5.38434375e-08,1.95273438e-01
-5.38034375e-08,1.95321875e-01
-5.37634375e-08,1.95281250e-01
-5.37234375e-08,1.95315625e-01
-5.36834375e-08,1.95285938e-01
-5.36434375e-08,1.95314062e-01
-5.36034375e-08,1.95287500e-01
-5.35634375e-08,1.95310938e-01
-5.35234375e-08,1.95289062e-01
-5.34834375e-08,1.95309375e-01
-5.34434375e-08,1.95290625e-01
-5.34034375e-08,1.95309375e-01
-5.33634375e-08,1.95290625e-01
-5.33234375e-08,1.95307813e-01
-5.32834375e-08,1.95292188e-01
-5.32434375e-08,1.95307813e-01
-5.32034375e-08,1.95292188e-01
-5.31634375e-08,1.95307813e-01
-5.31234375e-08,1.95292188e-01
-5.30834375e-08,1.95306250e-01
-5.30434375e-08,1.95293750e-01
-5.30034375e-08,1.95306250e-01
-5.29634375e-08,1.95293750e-01
-5.29234375e-08,1.95306250e-01
-5.28834375e-08,1.95293750e-01
-5.28434375e-08,1.95306250e-01
-5.28034375e-08,1.95293750e-01
-5.27634375e-08,1.95306250e-01
-5.27234375e-08,1.95293750e-01
-5.26834375e-08,1.95304688e-01
-5.26434375e-08,1.95295313e-01
-5.26034375e-08,1.95304688e-01
-5.25634375e-08,1.95295313e-01
-5.25234375e-08,1.95304688e-01
-5.24834375e-08,1.95295313e-01
-5.24434375e-08,1.95304688e-01
-5.24034375e-08,1.95295313e-01
-5.23634375e-08,1.95304688e-01
-5.23234375e-08,1.95295313e-01
-5.22834375e-08,1.95304688e-01
-5.22434375e-08,1.95295313e-01
-5.22034375e-08,1.95304688e-01
-5.21634375e-08,1.95295313e-01
-5.21234375e-08,1.95304688e-01
-5.20834375e-08,1.95295313e-01
-5.20434375e-08,1.95304688e-01
-5.20034375e-08,1.95295313e-01
-5.19634375e-08,1.95304688e-01
-5.19234375e-08,1.95295313e-01
-5.18834375e-08,1.95304688e-01
-5.18434375e-08,1.95295313e-01
-5.18034375e-08,1.95304688e-01
-5.17634375e-08,1.95295313e-01
-5.17234375e-08,1.95303125e-01
-5.16834375e-08,1.95295313e-01
-5.16434375e-08,1.95303125e-01
-5.16034375e-08,1.95296875e-01
-5.15634375e-08,1.95303125e-01
-5.15234375e-08,1.95296875e-01
-5.14834375e-08,1.95303125e-01
-5.14434375e-08,1.95296875e-01
-5.14034375e-08,1.95303125e-01
-5.13634375e-08,1.95296875e-01
-5.13234375e-08,1.95303125e-01
-5.12834375e-08,1.95296875e-01
-5.12434375e-08,1.95303125e-01
-5.12034375e-08,1.95296875e-01
-5.11634375e-08,1.95303125e-01
-5.11234375e-08,1.95296875e-01
-5.10834375e-08,1.95303125e-01
-5.10434375e-08,1.95296875e-01
-5.10034375e-08,1.95303125e-01
-5.09634375e-08,1.95296875e-01
-5.09234375e-08,1.95303125e-01
-5.08834375e-08,1.95296875e-01
-5.08434375e-08,1.95303125e-01
-5.08034375e-08,1.95296875e-01
-5.07634375e-08,1.95303125e-01
-5.07234375e-08,1.95296875e-01
-5.06834375e-08,1.95303125e-01
-5.06434375e-08,1.95296875e-01
-5.06034375e-08,1.95303125e-01
-5.05634375e-08,1.95296875e-01
-5.05234375e-08,1.95303125e-01
-5.04834375e-08,1.95296875e-01
-5.04434375e-08,1.95303125e-01
-5.04034375e-08,1.95296875e-01
-5.03634375e-08,1.95304688e-01
-5.03234375e-08,1.95295313e-01
-5.02834375e-08,1.95304688e-01
-5.02434375e-08,1.95295313e-01
-5.02034375e-08,1.95304688e-01
-5.01634375e-08,1.95295313e-01
-5.01234375e-08,1.95304688e-01
-5.00834375e-08,1.95295313e-01
-5.00434375e-08,1.95304688e-01
-5.00034375e-08,1.95295313e-01
-4.99634375e-08,1.95304688e-01
-4.99234375e-08,1.95295313e-01
-4.98834375e-08,1.95304688e-01
-4.98434375e-08,1.95293750e-01
-4.98034375e-08,1.95306250e-01
-4.97634375e-08,1.95293750e-01
-4.97234375e-08,1.95306250e-01
-4.96834375e-08,1.95292188e-01
-4.96434375e-08,1.95307813e-01
-4.96034375e-08,1.95290625e-01
-4.95634375e-08,1.95310938e-01
-4.95234375e-08,1.95287500e-01
-4.94834375e-08,1.95315625e-01
-4.94434375e-08,1.95279688e-01
-4.94034375e-08,1.95329688e-01
-4.93634375e-08,1.95245313e-01
-4.93234375e-08,1.95507813e-01
-4.92834375e-08,1.95754687e-01
-4.92434375e-08,1.95668750e-01
-4.92034375e-08,1.95721875e-01
-4.91634375e-08,1.95681250e-01
-4.91234375e-08,1.95715625e-01
-4.90834375e-08,1.95685938e-01
-4.90434375e-08,1.95714063e-01
-4.90034375e-08,1.95685938e-01
-4.89634375e-08,1.95714063e-01
-4.89234375e-08,1.95684375e-01
-4.88834375e-08,1.95717188e-01
-4.88434375e-08,1.95678125e-01
-4.88034375e-08,1.95731250e-01
-4.87634375e-08,1.95643750e-01
-4.87234375e-08,1.95909375e-01
-4.86834375e-08,1.96153125e-01
-4.86434375e-08,1.96070313e-01
-4.86034375e-08,1.96120313e-01
-4.85634375e-08,1.96084375e-01
-4.85234375e-08,1.96114063e-01
-4.84834375e-08,1.96087500e-01
-4.84434375e-08,1.96110937e-01
-4.84034375e-08,1.96090625e-01
-4.83634375e-08,1.96109375e-01
-4.83234375e-08,1.96090625e-01
-4.82834375e-08,1.96107813e-01
-4.82434375e-08,1.96092188e-01
-4.82034375e-08,1.96107813e-01
-4.81634375e-08,1.96092188e-01
-4.81234375e-08,1.96107813e-01
-4.80834375e-08,1.96092188e-01
-4.80434375e-08,1.96107813e-01
-4.80034375e-08,1.96092188e-01
-4.79634375e-08,1.96107813e-01
-4.79234375e-08,1.96090625e-01
-4.78834375e-08,1.96109375e-01
-4.78434375e-08,1.96090625e-01
-4.78034375e-08,1.96110937e-01
-4.77634375e-08,1.96089063e-01
-4.77234375e-08,1.96112500e-01
-4.76834375e-08,1.96085938e-01
-4.76434375e-08,1.96115625e-01
-4.76034375e-08,1.96081250e-01
-4.75634375e-08,1.96125000e-01
-4.75234375e-08,1.96065625e-01
-4.74834375e-08,1.96159375e-01
-4.74434375e-08,1.95887500e-01
-4.74034375e-08,1.95650000e-01
-4.73634375e-08,1.95726563e-01
-4.73234375e-08,1.95684375e-01
-4.72834375e-08,1.95710938e-01
-4.72434375e-08,1.95692188e-01
-4.72034375e-08,1.95706250e-01
-4.71634375e-08,1.95695312e-01
-4.71234375e-08,1.95703125e-01
-4.70834375e-08,1.95698438e-01
-4.70434375e-08,1.95700000e-01
-4.70034375e-08,1.95701563e-01
-4.69634375e-08,1.95696875e-01
-4.69234375e-08,1.95704688e-01
-4.68834375e-08,1.95693750e-01
-4.68434375e-08,1.95707813e-01
-4.68034375e-08,1.95689063e-01
-4.67634375e-08,1.95717188e-01
-4.67234375e-08,1.95673438e-01
-4.66834375e-08,1.95751563e-01
-4.66434375e-08,1.95495313e-01
-4.66034375e-08,1.95242187e-01
-4.65634375e-08,1.95332813e-01
-4.65234375e-08,1.95276563e-01
-4.64834375e-08,1.95318750e-01
-4.64434375e-08,1.95284375e-01
-4.64034375e-08,1.95314062e-01
-4.63634375e-08,1.95287500e-01
-4.63234375e-08,1.95310938e-01
-4.62834375e-08,1.95289062e-01
-4.62434375e-08,1.95309375e-01
-4.62034375e-08,1.95290625e-01
-4.61634375e-08,1.95307813e-01
-4.61234375e-08,1.95292188e-01
-4.60834375e-08,1.95307813e-01
-4.60434375e-08,1.95292188e-01
-4.60034375e-08,1.95307813e-01
-4.59634375e-08,1.95293750e-01
-4.59234375e-08,1.95306250e-01
-4.58834375e-08,1.95293750e-01
-4.58434375e-08,1.95306250e-01
-4.58034375e-08,1.95293750e-01
-4.57634375e-08,1.95306250e-01
-4.57234375e-08,1.95293750e-01
-4.56834375e-08,1.95306250e-01
-4.56434375e-08,1.95293750e-01
-4.56034375e-08,1.95306250e-01
-4.55634375e-08,1.95293750e-01
-4.55234375e-08,1.95306250e-01
-4.54834375e-08,1.95293750e-01
-4.54434375e-08,1.95306250e-01
-4.54034375e-08,1.95293750e-01
-4.53634375e-08,1.95306250e-01
-4.53234375e-08,1.95293750e-01
-4.52834375e-08,1.95307813e-01
-4.52434375e-08,1.95292188e-01
-4.52034375e-08,1.95307813e-01
-4.51634375e-08,1.95292188e-01
-4.51234375e-08,1.95307813e-01
-4.50834375e-08,1.95290625e-01
-4.50434375e-08,1.95309375e-01
-4.50034375e-08,1.95290625e-01
-4.49634375e-08,1.95310938e-01
-4.49234375e-08,1.95287500e-01
-4.48834375e-08,1.95314062e-01
-4.48434375e-08,1.95284375e-01
-4.48034375e-08,1.95318750e-01
-4.47634375e-08,1.95276563e-01
-4.47234375e-08,1.95332813e-01
-4.46834375e-08,1.95242187e-01
-4.46434375e-08,1.95512500e-01
-4.46034375e-08,1.95750000e-01
-4.45634375e-08,1.95673438e-01
-4.45234375e-08,1.95717188e-01
-4.44834375e-08,1.95687500e-01
-4.44434375e-08,1.95709375e-01
-4.44034375e-08,1.95693750e-01
-4.43634375e-08,1.95704688e-01
-4.43234375e-08,1.95696875e-01
-4.42834375e-08,1.95703125e-01
-4.42434375e-08,1.95698438e-01
-4.42034375e-08,1.95700000e-01
-4.41634375e-08,1.95700000e-01
-4.41234375e-08,1.95698438e-01
-4.40834375e-08,1.95703125e-01
-4.40434375e-08,1.95695312e-01
-4.40034375e-08,1.95706250e-01
-4.39634375e-08,1.95692188e-01
-4.39234375e-08,1.95710938e-01
-4.38834375e-08,1.95684375e-01
-4.38434375e-08,1.95726563e-01
-4.38034375e-08,1.95650000e-01
-4.37634375e-08,1.95903125e-01
-4.37234375e-08,1.96159375e-01
-4.36834375e-08,1.96065625e-01
-4.36434375e-08,1.96125000e-01
-4.36034375e-08,1.96079688e-01
-4.35634375e-08,1.96118750e-01
-4.35234375e-08,1.96082813e-01
-4.34834375e-08,1.96115625e-01
-4.34434375e-08,1.96084375e-01
-4.34034375e-08,1.96117188e-01
-4.33634375e-08,1.96082813e-01
-4.33234375e-08,1.96120313e-01
-4.32834375e-08,1.96075000e-01
-4.32434375e-08,1.96132813e-01
-4.32034375e-08,1.96042188e-01
-4.31634375e-08,1.96309375e-01
-4.31234375e-08,1.96553125e-01
-4.30834375e-08,1.96470313e-01
-4.30434375e-08,1.96521875e-01
-4.30034375e-08,1.96482812e-01
-4.29634375e-08,1.96515625e-01
-4.29234375e-08,1.96485938e-01
-4.28834375e-08,1.96514063e-01
-4.28434375e-08,1.96484375e-01
-4.28034375e-08,1.96517187e-01
-4.27634375e-08,1.96478125e-01
-4.27234375e-08,1.96531250e-01
-4.26834375e-08,1.96443750e-01
-4.26434375e-08,1.96707812e-01
-4.26034375e-08,1.96954688e-01
-4.25634375e-08,1.96868750e-01
-4.25234375e-08,1.96921875e-01
-4.24834375e-08,1.96882813e-01
-4.24434375e-08,1.96914063e-01
-4.24034375e-08,1.96887500e-01
-4.23634375e-08,1.96912500e-01
-4.23234375e-08,1.96889063e-01
-4.22834375e-08,1.96910937e-01
-4.22434375e-08,1.96889063e-01
-4.22034375e-08,1.96912500e-01
-4.21634375e-08,1.96887500e-01
-4.21234375e-08,1.96914063e-01
-4.20834375e-08,1.96882813e-01
-4.20434375e-08,1.96921875e-01
-4.20034375e-08,1.96868750e-01
-4.19634375e-08,1.96956250e-01
-4.19234375e-08,1.96692188e-01
-4.18834375e-08,1.96445312e-01
-4.18434375e-08,1.96531250e-01
-4.18034375e-08,1.96478125e-01
-4.17634375e-08,1.96518750e-01
-4.17234375e-08,1.96484375e-01
-4.16834375e-08,1.96515625e-01
-4.16434375e-08,1.96484375e-01
-4.16034375e-08,1.96515625e-01
-4.15634375e-08,1.96481250e-01
-4.15234375e-08,1.96521875e-01
-4.14834375e-08,1.96468750e-01
-4.14434375e-08,1.96556250e-01
-4.14034375e-08,1.96292187e-01
-4.13634375e-08,1.96045313e-01
-4.13234375e-08,1.96131250e-01
-4.12834375e-08,1.96076562e-01
-4.12434375e-08,1.96118750e-01
-4.12034375e-08,1.96082813e-01
-4.11634375e-08,1.96115625e-01
-4.11234375e-08,1.96084375e-01
-4.10834375e-08,1.96117188e-01
-4.10434375e-08,1.96081250e-01
-4.10034375e-08,1.96123437e-01
-4.09634375e-08,1.96067188e-01
-4.09234375e-08,1.96156250e-01
-4.08834375e-08,1.95890625e-01
-4.08434375e-08,1.95646875e-01
-4.08034375e-08,1.95729687e-01
-4.07634375e-08,1.95679688e-01
-4.07234375e-08,1.95715625e-01
-4.06834375e-08,1.95685938e-01
-4.06434375e-08,1.95710938e-01
-4.06034375e-08,1.95689063e-01
-4.05634375e-08,1.95709375e-01
-4.05234375e-08,1.95690625e-01
-4.04834375e-08,1.95709375e-01
-4.04434375e-08,1.95690625e-01
-4.04034375e-08,1.95709375e-01
-4.03634375e-08,1.95690625e-01
-4.03234375e-08,1.95709375e-01
-4.02834375e-08,1.95689063e-01
-4.02434375e-08,1.95710938e-01
-4.02034375e-08,1.95687500e-01
-4.01634375e-08,1.95715625e-01
-4.01234375e-08,1.95682812e-01
-4.00834375e-08,1.95723438e-01
-4.00434375e-08,1.95667188e-01
-4.00034375e-08,1.95757813e-01
-3.99634375e-08,1.95489063e-01
-3.99234375e-08,1.95248438e-01
-3.98834375e-08,1.95328125e-01
-3.98434375e-08,1.95281250e-01
-3.98034375e-08,1.95314062e-01
-3.97634375e-08,1.95289062e-01
-3.97234375e-08,1.95307813e-01
-3.96834375e-08,1.95292188e-01
-3.96434375e-08,1.95306250e-01
-3.96034375e-08,1.95295313e-01
-3.95634375e-08,1.95304688e-01
-3.95234375e-08,1.95296875e-01
-3.94834375e-08,1.95303125e-01
-3.94434375e-08,1.95296875e-01
-3.94034375e-08,1.95301562e-01
-3.93634375e-08,1.95298438e-01
-3.93234375e-08,1.95301562e-01
-3.92834375e-08,1.95300000e-01
-3.92434375e-08,1.95300000e-01
-3.92034375e-08,1.95300000e-01
-3.91634375e-08,1.95300000e-01
-3.91234375e-08,1.95301562e-01
-3.90834375e-08,1.95298438e-01
-3.90434375e-08,1.95303125e-01
-3.90034375e-08,1.95296875e-01
-3.89634375e-08,1.95304688e-01
-3.89234375e-08,1.95295313e-01
-3.88834375e-08,1.95306250e-01
-3.88434375e-08,1.95290625e-01
-3.88034375e-08,1.95312500e-01
-3.87634375e-08,1.95282813e-01
-3.87234375e-08,1.95326563e-01
-3.86834375e-08,1.95248438e-01
-3.86434375e-08,1.95504687e-01
-3.86034375e-08,1.95757813e-01
-3.85634375e-08,1.95667188e-01
-3.85234375e-08,1.95723438e-01
