trails/0abb954fa332282a54c7a4841199d6d9/aes_ch1_20250507103202757.csv

Model,MSO66B
Label,
Waveform Type,ANALOG
Horizontal Units,s
Sample Interval,4.00000000e-11
Record Length,10000
Zero Index,1599.07421875
Vertical Units,A
ANALOG_Thumbnail,
yOffset,1.84500000e-01
yPosition,8.40000000e-01

Labels,
TIME,CH1
-6.39629687e-08,1.90093750e-01
-6.39229688e-08,1.90106250e-01
-6.38829687e-08,1.90093750e-01
-6.38429687e-08,1.90104688e-01
-6.38029687e-08,1.90095313e-01
-6.37629687e-08,1.90104688e-01
-6.37229688e-08,1.90095313e-01
-6.36829687e-08,1.90103125e-01
-6.36429688e-08,1.90096875e-01
-6.36029687e-08,1.90103125e-01
-6.35629687e-08,1.90098437e-01
-6.35229687e-08,1.90101563e-01
-6.34829687e-08,1.90100000e-01
-6.34429688e-08,1.90098437e-01
-6.34029687e-08,1.90103125e-01
-6.33629688e-08,1.90093750e-01
-6.33229687e-08,1.90110938e-01
-6.32829687e-08,1.90079688e-01
-6.32429687e-08,1.90145312e-01
-6.32029687e-08,1.89903125e-01
-6.31629688e-08,1.89634375e-01
-6.31229687e-08,1.89742187e-01
-6.30829688e-08,1.89667188e-01
-6.30429687e-08,1.89729688e-01
-6.30029687e-08,1.89673438e-01
-6.29629687e-08,1.89726563e-01
-6.29229687e-08,1.89673438e-01
-6.28829688e-08,1.89729688e-01
-6.28429687e-08,1.89667188e-01
-6.28029688e-08,1.89742187e-01
-6.27629687e-08,1.89632812e-01
-6.27229687e-08,1.89918750e-01
-6.26829687e-08,1.90143750e-01
-6.26429687e-08,1.90081250e-01
-6.26029688e-08,1.90110938e-01
-6.25629687e-08,1.90095313e-01
-6.25229688e-08,1.90101563e-01
-6.24829687e-08,1.90100000e-01
-6.24429687e-08,1.90098437e-01
-6.24029687e-08,1.90103125e-01
-6.23629687e-08,1.90095313e-01
-6.23229688e-08,1.90106250e-01
-6.22829687e-08,1.90090625e-01
-6.22429688e-08,1.90112500e-01
-6.22029687e-08,1.90082813e-01
-6.21629687e-08,1.90126563e-01
-6.21229687e-08,1.90048438e-01
-6.20829687e-08,1.90303125e-01
-6.20429688e-08,1.90559375e-01
-6.20029687e-08,1.90464063e-01
-6.19629688e-08,1.90528125e-01
-6.19229687e-08,1.90475000e-01
-6.18829687e-08,1.90525000e-01
-6.18429687e-08,1.90471875e-01
-6.18029687e-08,1.90534375e-01
-6.17629688e-08,1.90442187e-01
-6.17229687e-08,1.90709375e-01
-6.16829687e-08,1.90954687e-01
-6.16429687e-08,1.90867188e-01
-6.16029687e-08,1.90926563e-01
-6.15629687e-08,1.90873438e-01
-6.15229687e-08,1.90932812e-01
-6.14829688e-08,1.90845313e-01
-6.14429687e-08,1.91104688e-01
-6.14029687e-08,1.91359375e-01
-6.13629687e-08,1.91260938e-01
-6.13229687e-08,1.91334375e-01
-6.12829687e-08,1.91265625e-01
-6.12429687e-08,1.91342188e-01
-6.12029688e-08,1.91234375e-01
-6.11629687e-08,1.91517188e-01
-6.11229687e-08,1.91745313e-01
-6.10829687e-08,1.91679688e-01
-6.10429687e-08,1.91710938e-01
-6.10029687e-08,1.91695313e-01
-6.09629687e-08,1.91700000e-01
-6.09229688e-08,1.91704687e-01
-6.08829687e-08,1.91689063e-01
-6.08429687e-08,1.91721875e-01
-6.08029687e-08,1.91653125e-01
-6.07629687e-08,1.91900000e-01
-6.07229687e-08,1.92160938e-01
-6.06829687e-08,1.92062500e-01
-6.06429688e-08,1.92126563e-01
-6.06029687e-08,1.92078125e-01
-6.05629687e-08,1.92118750e-01
-6.05229687e-08,1.92082813e-01
-6.04829687e-08,1.92115625e-01
-6.04429687e-08,1.92085937e-01
-6.04029687e-08,1.92112500e-01
-6.03629688e-08,1.92087500e-01
-6.03229687e-08,1.92110937e-01
-6.02829687e-08,1.92089063e-01
-6.02429687e-08,1.92110937e-01
-6.02029687e-08,1.92089063e-01
-6.01629687e-08,1.92109375e-01
-6.01229687e-08,1.92090625e-01
-6.00829688e-08,1.92109375e-01
-6.00429687e-08,1.92090625e-01
-6.00029687e-08,1.92109375e-01
-5.99629687e-08,1.92090625e-01
-5.99229687e-08,1.92109375e-01
-5.98829688e-08,1.92090625e-01
-5.98429687e-08,1.92109375e-01
-5.98029688e-08,1.92090625e-01
-5.97629687e-08,1.92109375e-01
-5.97229687e-08,1.92090625e-01
-5.96829687e-08,1.92109375e-01
-5.96429687e-08,1.92090625e-01
-5.96029687e-08,1.92107813e-01
-5.95629687e-08,1.92090625e-01
-5.95229687e-08,1.92109375e-01
-5.94829687e-08,1.92090625e-01
-5.94429687e-08,1.92109375e-01
-5.94029687e-08,1.92090625e-01
-5.93629687e-08,1.92109375e-01
-5.93229687e-08,1.92090625e-01
-5.92829687e-08,1.92109375e-01
-5.92429687e-08,1.92090625e-01
-5.92029687e-08,1.92109375e-01
-5.91629687e-08,1.92089063e-01
-5.91229687e-08,1.92110937e-01
-5.90829687e-08,1.92089063e-01
-5.90429687e-08,1.92110937e-01
-5.90029687e-08,1.92087500e-01
-5.89629687e-08,1.92112500e-01
-5.89229687e-08,1.92085937e-01
-5.88829687e-08,1.92115625e-01
-5.88429687e-08,1.92082813e-01
-5.88029687e-08,1.92120313e-01
-5.87629687e-08,1.92073437e-01
-5.87229687e-08,1.92135938e-01
-5.86829687e-08,1.92039062e-01
-5.86429687e-08,1.92314062e-01
-5.86029687e-08,1.92548438e-01
-5.85629687e-08,1.92475000e-01
-5.85229687e-08,1.92515625e-01
-5.84829687e-08,1.92489063e-01
-5.84429687e-08,1.92507813e-01
-5.84029687e-08,1.92495313e-01
-5.83629687e-08,1.92503125e-01
-5.83229687e-08,1.92496875e-01
-5.82829687e-08,1.92501563e-01
-5.82429687e-08,1.92500000e-01
-5.82029687e-08,1.92500000e-01
-5.81629687e-08,1.92500000e-01
-5.81229687e-08,1.92498438e-01
-5.80829687e-08,1.92501563e-01
-5.80429687e-08,1.92498438e-01
-5.80029687e-08,1.92501563e-01
-5.79629687e-08,1.92496875e-01
-5.79229687e-08,1.92503125e-01
-5.78829687e-08,1.92496875e-01
-5.78429687e-08,1.92503125e-01
-5.78029687e-08,1.92495313e-01
-5.77629687e-08,1.92504687e-01
-5.77229687e-08,1.92495313e-01
-5.76829687e-08,1.92504687e-01
-5.76429687e-08,1.92493750e-01
-5.76029687e-08,1.92506250e-01
-5.75629687e-08,1.92493750e-01
-5.75229687e-08,1.92507813e-01
-5.74829687e-08,1.92490625e-01
-5.74429687e-08,1.92509375e-01
-5.74029687e-08,1.92489063e-01
-5.73629687e-08,1.92514062e-01
-5.73229687e-08,1.92482813e-01
-5.72829687e-08,1.92521875e-01
-5.72429687e-08,1.92468750e-01
-5.72029687e-08,1.92556250e-01
-5.71629687e-08,1.92290625e-01
-5.71229687e-08,1.92046875e-01
-5.70829687e-08,1.92128125e-01
-5.70429687e-08,1.92081250e-01
-5.70029687e-08,1.92114063e-01
-5.69629687e-08,1.92089063e-01
-5.69229687e-08,1.92109375e-01
-5.68829687e-08,1.92092188e-01
-5.68429687e-08,1.92106250e-01
-5.68029687e-08,1.92093750e-01
-5.67629687e-08,1.92104688e-01
-5.67229687e-08,1.92095313e-01
-5.66829687e-08,1.92104688e-01
-5.66429687e-08,1.92096875e-01
-5.66029687e-08,1.92103125e-01
-5.65629687e-08,1.92096875e-01
-5.65229687e-08,1.92103125e-01
-5.64829687e-08,1.92096875e-01
-5.64429687e-08,1.92103125e-01
-5.64029687e-08,1.92098437e-01
-5.63629687e-08,1.92101563e-01
-5.63229687e-08,1.92098437e-01
-5.62829687e-08,1.92101563e-01
-5.62429687e-08,1.92098437e-01
-5.62029687e-08,1.92101563e-01
-5.61629687e-08,1.92098437e-01
-5.61229687e-08,1.92101563e-01
-5.60829687e-08,1.92098437e-01
-5.60429687e-08,1.92101563e-01
-5.60029687e-08,1.92098437e-01
-5.59629687e-08,1.92101563e-01
-5.59229687e-08,1.92098437e-01
-5.58829687e-08,1.92101563e-01
-5.58429687e-08,1.92098437e-01
-5.58029687e-08,1.92103125e-01
-5.57629687e-08,1.92096875e-01
-5.57229687e-08,1.92103125e-01
-5.56829687e-08,1.92096875e-01
-5.56429687e-08,1.92103125e-01
-5.56029687e-08,1.92095313e-01
-5.55629687e-08,1.92104688e-01
-5.55229687e-08,1.92093750e-01
-5.54829687e-08,1.92109375e-01
-5.54429687e-08,1.92089063e-01
-5.54029687e-08,1.92115625e-01
-5.53629687e-08,1.92075000e-01
-5.53229687e-08,1.92150000e-01
-5.52829687e-08,1.91896875e-01
-5.52429687e-08,1.91640625e-01
-5.52029687e-08,1.91735938e-01
-5.51629687e-08,1.91673438e-01
-5.51229687e-08,1.91723438e-01
-5.50829687e-08,1.91679688e-01
-5.50429687e-08,1.91718750e-01
-5.50029687e-08,1.91681250e-01
-5.49629687e-08,1.91718750e-01
-5.49229687e-08,1.91681250e-01
-5.48829687e-08,1.91720313e-01
-5.48429687e-08,1.91676563e-01
-5.48029687e-08,1.91728125e-01
-5.47629687e-08,1.91662500e-01
-5.47229687e-08,1.91760938e-01
-5.46829687e-08,1.91485938e-01
-5.46429687e-08,1.91251562e-01
-5.46029687e-08,1.91325000e-01
-5.45629687e-08,1.91284375e-01
-5.45229687e-08,1.91310938e-01
-5.44829687e-08,1.91292188e-01
-5.44429687e-08,1.91304688e-01
-5.44029687e-08,1.91295313e-01
-5.43629687e-08,1.91303125e-01
-5.43229687e-08,1.91298438e-01
-5.42829687e-08,1.91301563e-01
-5.42429687e-08,1.91298438e-01
-5.42029687e-08,1.91300000e-01
-5.41629687e-08,1.91300000e-01
-5.41229687e-08,1.91300000e-01
-5.40829687e-08,1.91300000e-01
-5.40429687e-08,1.91298438e-01
-5.40029687e-08,1.91301563e-01
-5.39629687e-08,1.91298438e-01
-5.39229687e-08,1.91301563e-01
-5.38829687e-08,1.91298438e-01
-5.38429687e-08,1.91301563e-01
-5.38029687e-08,1.91298438e-01
-5.37629687e-08,1.91301563e-01
-5.37229687e-08,1.91296875e-01
-5.36829687e-08,1.91303125e-01
-5.36429687e-08,1.91296875e-01
-5.36029687e-08,1.91303125e-01
-5.35629687e-08,1.91296875e-01
-5.35229687e-08,1.91303125e-01
-5.34829687e-08,1.91296875e-01
-5.34429687e-08,1.91303125e-01
-5.34029687e-08,1.91295313e-01
-5.33629687e-08,1.91304688e-01
-5.33229687e-08,1.91295313e-01
-5.32829687e-08,1.91304688e-01
-5.32429687e-08,1.91295313e-01
-5.32029687e-08,1.91304688e-01
-5.31629687e-08,1.91293750e-01
-5.31229687e-08,1.91306250e-01
-5.30829687e-08,1.91293750e-01
-5.30429687e-08,1.91306250e-01
-5.30029687e-08,1.91292188e-01
-5.29629687e-08,1.91307813e-01
-5.29229687e-08,1.91290625e-01
-5.28829687e-08,1.91309375e-01
-5.28429687e-08,1.91289062e-01
-5.28029687e-08,1.91312500e-01
-5.27629687e-08,1.91284375e-01
-5.27229687e-08,1.91318750e-01
-5.26829687e-08,1.91276562e-01
-5.26429687e-08,1.91332813e-01
-5.26029687e-08,1.91242187e-01
-5.25629687e-08,1.91510938e-01
-5.25229687e-08,1.91750000e-01
-5.24829687e-08,1.91673438e-01
-5.24429687e-08,1.91717187e-01
-5.24029687e-08,1.91689063e-01
-5.23629687e-08,1.91707813e-01
-5.23229687e-08,1.91693750e-01
-5.22829687e-08,1.91703125e-01
-5.22429687e-08,1.91698438e-01
-5.22029688e-08,1.91700000e-01
-5.21629687e-08,1.91701563e-01
-5.21229687e-08,1.91696875e-01
-5.20829687e-08,1.91704687e-01
-5.20429687e-08,1.91692187e-01
-5.20029687e-08,1.91710938e-01
-5.19629687e-08,1.91684375e-01
-5.19229687e-08,1.91726563e-01
-5.18829687e-08,1.91648438e-01
-5.18429687e-08,1.91904688e-01
-5.18029687e-08,1.92157812e-01
-5.17629687e-08,1.92067188e-01
-5.17229687e-08,1.92123437e-01
-5.16829687e-08,1.92081250e-01
-5.16429687e-08,1.92115625e-01
-5.16029687e-08,1.92085937e-01
-5.15629687e-08,1.92112500e-01
-5.15229687e-08,1.92089063e-01
-5.14829687e-08,1.92109375e-01
-5.14429687e-08,1.92090625e-01
-5.14029687e-08,1.92107813e-01
-5.13629687e-08,1.92092188e-01
-5.13229687e-08,1.92107813e-01
-5.12829687e-08,1.92092188e-01
-5.12429687e-08,1.92106250e-01
-5.12029687e-08,1.92093750e-01
-5.11629687e-08,1.92106250e-01
-5.11229687e-08,1.92093750e-01
-5.10829687e-08,1.92106250e-01
-5.10429687e-08,1.92093750e-01
-5.10029687e-08,1.92104688e-01
-5.09629687e-08,1.92095313e-01
-5.09229687e-08,1.92104688e-01
-5.08829687e-08,1.92095313e-01
-5.08429687e-08,1.92104688e-01
-5.08029687e-08,1.92095313e-01
-5.07629687e-08,1.92104688e-01
-5.07229687e-08,1.92095313e-01
-5.06829687e-08,1.92104688e-01
-5.06429687e-08,1.92095313e-01
-5.06029687e-08,1.92104688e-01
-5.05629687e-08,1.92095313e-01
-5.05229687e-08,1.92104688e-01
-5.04829687e-08,1.92095313e-01
-5.04429687e-08,1.92104688e-01
-5.04029687e-08,1.92095313e-01
-5.03629687e-08,1.92104688e-01
-5.03229687e-08,1.92095313e-01
-5.02829688e-08,1.92104688e-01
-5.02429687e-08,1.92095313e-01
-5.02029687e-08,1.92106250e-01
-5.01629687e-08,1.92093750e-01
-5.01229687e-08,1.92106250e-01
-5.00829687e-08,1.92093750e-01
-5.00429687e-08,1.92106250e-01
-5.00029688e-08,1.92092188e-01
-4.99629687e-08,1.92107813e-01
-4.99229687e-08,1.92092188e-01
-4.98829687e-08,1.92109375e-01
-4.98429687e-08,1.92089063e-01
-4.98029687e-08,1.92112500e-01
-4.97629687e-08,1.92085937e-01
-4.97229687e-08,1.92117188e-01
-4.96829687e-08,1.92078125e-01
-4.96429687e-08,1.92132812e-01
-4.96029687e-08,1.92043750e-01
-4.95629687e-08,1.92310938e-01
-4.95229687e-08,1.92551562e-01
-4.94829687e-08,1.92471875e-01
-4.94429687e-08,1.92518750e-01
-4.94029687e-08,1.92487500e-01
-4.93629687e-08,1.92509375e-01
-4.93229687e-08,1.92492188e-01
-4.92829687e-08,1.92506250e-01
-4.92429687e-08,1.92496875e-01
-4.92029687e-08,1.92501563e-01
-4.91629687e-08,1.92500000e-01
-4.91229687e-08,1.92498438e-01
-4.90829687e-08,1.92503125e-01
-4.90429687e-08,1.92493750e-01
-4.90029687e-08,1.92512500e-01
-4.89629687e-08,1.92478125e-01
-4.89229687e-08,1.92546875e-01
-4.88829687e-08,1.92300000e-01
-4.88429687e-08,1.92037500e-01
-4.88029687e-08,1.92139063e-01
-4.87629687e-08,1.92070313e-01
-4.87229687e-08,1.92125000e-01
-4.86829687e-08,1.92078125e-01
-4.86429688e-08,1.92120313e-01
-4.86029687e-08,1.92081250e-01
-4.85629687e-08,1.92118750e-01
-4.85229687e-08,1.92082813e-01
-4.84829687e-08,1.92117188e-01
-4.84429687e-08,1.92082813e-01
-4.84029687e-08,1.92118750e-01
-4.83629688e-08,1.92081250e-01
-4.83229687e-08,1.92120313e-01
-4.82829687e-08,1.92079688e-01
-4.82429687e-08,1.92123437e-01
-4.82029687e-08,1.92073437e-01
-4.81629687e-08,1.92131250e-01
-4.81229687e-08,1.92059375e-01
-4.80829688e-08,1.92165625e-01
-4.80429687e-08,1.91879688e-01
-4.80029687e-08,1.91657812e-01
-4.79629687e-08,1.91717187e-01
-4.79229687e-08,1.91692187e-01
-4.78829687e-08,1.91701563e-01
-4.78429687e-08,1.91701563e-01
-4.78029687e-08,1.91693750e-01
-4.77629687e-08,1.91709375e-01
-4.77229687e-08,1.91685938e-01
-4.76829687e-08,1.91720313e-01
-4.76429687e-08,1.91670312e-01
-4.76029687e-08,1.91756250e-01
-4.75629687e-08,1.91490625e-01
-4.75229687e-08,1.91248438e-01
-4.74829687e-08,1.91326563e-01
-4.74429687e-08,1.91282813e-01
-4.74029687e-08,1.91310938e-01
-4.73629687e-08,1.91292188e-01
-4.73229687e-08,1.91304688e-01
-4.72829687e-08,1.91296875e-01
-4.72429687e-08,1.91300000e-01
-4.72029687e-08,1.91301563e-01
-4.71629687e-08,1.91295313e-01
-4.71229687e-08,1.91307813e-01
-4.70829687e-08,1.91287500e-01
-4.70429687e-08,1.91317188e-01
-4.70029687e-08,1.91271875e-01
-4.69629687e-08,1.91354688e-01
-4.69229687e-08,1.91090625e-01
-4.68829687e-08,1.90848437e-01
-4.68429687e-08,1.90926563e-01
-4.68029687e-08,1.90885938e-01
-4.67629687e-08,1.90903125e-01
-4.67229688e-08,1.90909375e-01
-4.66829687e-08,1.90864063e-01
-4.66429687e-08,1.91090625e-01
-4.66029687e-08,1.91370313e-01
-4.65629687e-08,1.91253125e-01
-4.65229687e-08,1.91335937e-01
-4.64829687e-08,1.91268750e-01
-4.64429688e-08,1.91328125e-01
-4.64029687e-08,1.91273438e-01
-4.63629687e-08,1.91325000e-01
-4.63229687e-08,1.91275000e-01
-4.62829687e-08,1.91325000e-01
-4.62429687e-08,1.91275000e-01
-4.62029687e-08,1.91325000e-01
-4.61629688e-08,1.91273438e-01
-4.61229687e-08,1.91329688e-01
-4.60829687e-08,1.91265625e-01
-4.60429687e-08,1.91343750e-01
-4.60029687e-08,1.91231250e-01
-4.59629687e-08,1.91521875e-01
-4.59229687e-08,1.91740625e-01
-4.58829688e-08,1.91684375e-01
-4.58429687e-08,1.91706250e-01
-4.58029687e-08,1.91700000e-01
-4.57629687e-08,1.91696875e-01
-4.57229687e-08,1.91706250e-01
-4.56829687e-08,1.91689063e-01
-4.56429687e-08,1.91714063e-01
-4.56029687e-08,1.91679688e-01
-4.55629687e-08,1.91731250e-01
-4.55229687e-08,1.91643750e-01
-4.54829687e-08,1.91909375e-01
-4.54429687e-08,1.92151563e-01
-4.54029687e-08,1.92071875e-01
-4.53629687e-08,1.92118750e-01
-4.53229687e-08,1.92087500e-01
-4.52829687e-08,1.92109375e-01
-4.52429687e-08,1.92093750e-01
-4.52029687e-08,1.92104688e-01
-4.51629687e-08,1.92096875e-01
-4.51229687e-08,1.92101563e-01
-4.50829687e-08,1.92100000e-01
-4.50429687e-08,1.92098437e-01
-4.50029687e-08,1.92103125e-01
-4.49629687e-08,1.92095313e-01
-4.49229687e-08,1.92106250e-01
-4.48829687e-08,1.92092188e-01
-4.48429687e-08,1.92112500e-01
-4.48029688e-08,1.92082813e-01
-4.47629687e-08,1.92128125e-01
-4.47229687e-08,1.92046875e-01
-4.46829687e-08,1.92307813e-01
-4.46429687e-08,1.92554688e-01
-4.46029687e-08,1.92470313e-01
-4.45629687e-08,1.92518750e-01
-4.45229688e-08,1.92487500e-01
-4.44829687e-08,1.92506250e-01
-4.44429687e-08,1.92501563e-01
-4.44029687e-08,1.92487500e-01
-4.43629687e-08,1.92537500e-01
-4.43229687e-08,1.92309375e-01
-4.42829687e-08,1.92029688e-01
-4.42429688e-08,1.92146875e-01
-4.42029687e-08,1.92062500e-01
-4.41629687e-08,1.92132812e-01
-4.41229687e-08,1.92070313e-01
-4.40829687e-08,1.92128125e-01
-4.40429687e-08,1.92071875e-01
-4.40029687e-08,1.92128125e-01
-4.39629688e-08,1.92071875e-01
-4.39229687e-08,1.92129688e-01
-4.38829687e-08,1.92067188e-01
-4.38429687e-08,1.92137500e-01
-4.38029687e-08,1.92051562e-01
-4.37629687e-08,1.92173438e-01
-4.37229687e-08,1.91873438e-01
-4.36829688e-08,1.91664063e-01
-4.36429687e-08,1.91710938e-01
-4.36029687e-08,1.91700000e-01
-4.35629687e-08,1.91693750e-01
-4.35229687e-08,1.91710938e-01
-4.34829687e-08,1.91682813e-01
-4.34429687e-08,1.91723438e-01
-4.34029687e-08,1.91665625e-01
-4.33629687e-08,1.91760938e-01
-4.33229687e-08,1.91484375e-01
-4.32829687e-08,1.91254688e-01
-4.32429687e-08,1.91320313e-01
-4.32029687e-08,1.91292188e-01
-4.31629687e-08,1.91300000e-01
-4.31229687e-08,1.91307813e-01
-4.30829687e-08,1.91279688e-01
-4.30429687e-08,1.91345313e-01
-4.30029687e-08,1.91100000e-01
-4.29629687e-08,1.90839063e-01
-4.29229687e-08,1.90937500e-01
-4.28829688e-08,1.90871875e-01
-4.28429687e-08,1.90921875e-01
-4.28029687e-08,1.90879688e-01
-4.27629687e-08,1.90918750e-01
-4.27229687e-08,1.90882812e-01
-4.26829687e-08,1.90918750e-01
-4.26429687e-08,1.90879688e-01
-4.26029688e-08,1.90923438e-01
-4.25629687e-08,1.90867188e-01
-4.25229687e-08,1.90956250e-01
-4.24829687e-08,1.90692187e-01
-4.24429687e-08,1.90445313e-01
-4.24029687e-08,1.90532813e-01
-4.23629687e-08,1.90476563e-01
-4.23229688e-08,1.90520313e-01
-4.22829687e-08,1.90481250e-01
-4.22429687e-08,1.90517188e-01
-4.22029687e-08,1.90482813e-01
-4.21629687e-08,1.90518750e-01
-4.21229687e-08,1.90479687e-01
-4.20829687e-08,1.90523438e-01
-4.20429688e-08,1.90471875e-01
-4.20029687e-08,1.90537500e-01
-4.19629687e-08,1.90437500e-01
-4.19229687e-08,1.90715625e-01
-4.18829687e-08,1.90945313e-01
-4.18429687e-08,1.90878125e-01
-4.18029687e-08,1.90910938e-01
-4.17629688e-08,1.90895312e-01
-4.17229687e-08,1.90901563e-01
-4.16829687e-08,1.90903125e-01
-4.16429687e-08,1.90893750e-01
-4.16029687e-08,1.90910938e-01
-4.15629687e-08,1.90882812e-01
-4.15229687e-08,1.90928125e-01
-4.14829688e-08,1.90845313e-01
-4.14429687e-08,1.91107813e-01
-4.14029687e-08,1.91353125e-01
-4.13629687e-08,1.91273438e-01
-4.13229687e-08,1.91315625e-01
-4.12829687e-08,1.91292188e-01
-4.12429687e-08,1.91300000e-01
-4.12029687e-08,1.91310938e-01
-4.11629687e-08,1.91262500e-01
-4.11229687e-08,1.91490625e-01
-4.10829687e-08,1.91771875e-01
-4.10429687e-08,1.91651563e-01
-4.10029687e-08,1.91742187e-01
-4.09629688e-08,1.91659375e-01
-4.09229687e-08,1.91746875e-01
-4.08829687e-08,1.91631250e-01
-4.08429687e-08,1.91918750e-01
-4.08029687e-08,1.92145312e-01
-4.07629687e-08,1.92076562e-01
-4.07229687e-08,1.92117188e-01
-4.06829688e-08,1.92085937e-01
-4.06429687e-08,1.92115625e-01
-4.06029687e-08,1.92081250e-01
-4.05629687e-08,1.92126563e-01
-4.05229687e-08,1.92048438e-01
-4.04829687e-08,1.92303125e-01
-4.04429687e-08,1.92559375e-01
-4.04029688e-08,1.92464063e-01
-4.03629687e-08,1.92528125e-01
-4.03229687e-08,1.92476563e-01
-4.02829687e-08,1.92521875e-01
-4.02429687e-08,1.92479687e-01
-4.02029687e-08,1.92520313e-01
-4.01629687e-08,1.92479687e-01
-4.01229688e-08,1.92523438e-01
-4.00829687e-08,1.92471875e-01
-4.00429687e-08,1.92535938e-01
-4.00029687e-08,1.92439063e-01
-3.99629687e-08,1.92712500e-01
-3.99229687e-08,1.92950000e-01
-3.98829687e-08,1.92873438e-01
-3.98429688e-08,1.92917188e-01
-3.98029687e-08,1.92887500e-01
-3.97629687e-08,1.92910938e-01
-3.97229687e-08,1.92892188e-01
-3.96829687e-08,1.92907812e-01
-3.96429687e-08,1.92893750e-01
-3.96029687e-08,1.92906250e-01
-3.95629688e-08,1.92893750e-01
-3.95229687e-08,1.92906250e-01
-3.94829687e-08,1.92893750e-01
-3.94429687e-08,1.92906250e-01
-3.94029687e-08,1.92892188e-01
-3.93629687e-08,1.92907812e-01
-3.93229687e-08,1.92892188e-01
-3.92829688e-08,1.92909375e-01
-3.92429687e-08,1.92889063e-01
-3.92029687e-08,1.92912500e-01
-3.91629687e-08,1.92884375e-01
-3.91229687e-08,1.92921875e-01
-3.90829687e-08,1.92868750e-01
-3.90429688e-08,1.92956250e-01
-3.90029687e-08,1.92690625e-01
-3.89629687e-08,1.92448438e-01
-3.89229687e-08,1.92528125e-01
-3.88829687e-08,1.92481250e-01
-3.88429687e-08,1.92512500e-01
-3.88029687e-08,1.92490625e-01
-3.87629688e-08,1.92506250e-01
-3.87229687e-08,1.92495313e-01
-3.86829687e-08,1.92501563e-01
-3.86429687e-08,1.92501563e-01
-3.86029687e-08,1.92495313e-01
-3.85629687e-08,1.92510938e-01
-3.85229687e-08,1.92479687e-01
