trails/0abb954fa332282a54c7a4841199d6d9/aes_ch1_20250507104104134.csv

Model,MSO66B
Label,
Waveform Type,ANALOG
Horizontal Units,s
Sample Interval,4.00000000e-11
Record Length,10000
Zero Index,1599.07812500
Vertical Units,A
ANALOG_Thumbnail,
yOffset,1.84500000e-01
yPosition,8.40000000e-01

Labels,
TIME,CH1
-6.39631250e-08,1.86117188e-01
-6.39231250e-08,1.86087500e-01
-6.38831250e-08,1.86109375e-01
-6.38431250e-08,1.86093750e-01
-6.38031250e-08,1.86104688e-01
-6.37631250e-08,1.86096875e-01
-6.37231250e-08,1.86101563e-01
-6.36831250e-08,1.86100000e-01
-6.36431250e-08,1.86098438e-01
-6.36031250e-08,1.86103125e-01
-6.35631250e-08,1.86093750e-01
-6.35231250e-08,1.86109375e-01
-6.34831250e-08,1.86084375e-01
-6.34431250e-08,1.86125000e-01
-6.34031250e-08,1.86050000e-01
-6.33631250e-08,1.86303125e-01
-6.33231250e-08,1.86559375e-01
-6.32831250e-08,1.86465625e-01
-6.32431250e-08,1.86525000e-01
-6.32031250e-08,1.86479688e-01
-6.31631250e-08,1.86517188e-01
-6.31231250e-08,1.86485938e-01
-6.30831250e-08,1.86512500e-01
-6.30431250e-08,1.86487500e-01
-6.30031250e-08,1.86510938e-01
-6.29631250e-08,1.86489062e-01
-6.29231250e-08,1.86509375e-01
-6.28831250e-08,1.86490625e-01
-6.28431250e-08,1.86509375e-01
-6.28031250e-08,1.86492188e-01
-6.27631250e-08,1.86507813e-01
-6.27231250e-08,1.86492188e-01
-6.26831250e-08,1.86507813e-01
-6.26431250e-08,1.86492188e-01
-6.26031250e-08,1.86506250e-01
-6.25631250e-08,1.86493750e-01
-6.25231250e-08,1.86506250e-01
-6.24831250e-08,1.86493750e-01
-6.24431250e-08,1.86506250e-01
-6.24031250e-08,1.86493750e-01
-6.23631250e-08,1.86506250e-01
-6.23231250e-08,1.86493750e-01
-6.22831250e-08,1.86506250e-01
-6.22431250e-08,1.86493750e-01
-6.22031250e-08,1.86506250e-01
-6.21631250e-08,1.86493750e-01
-6.21231250e-08,1.86506250e-01
-6.20831250e-08,1.86493750e-01
-6.20431250e-08,1.86506250e-01
-6.20031250e-08,1.86493750e-01
-6.19631250e-08,1.86506250e-01
-6.19231250e-08,1.86493750e-01
-6.18831250e-08,1.86506250e-01
-6.18431250e-08,1.86493750e-01
-6.18031250e-08,1.86506250e-01
-6.17631250e-08,1.86492188e-01
-6.17231250e-08,1.86507813e-01
-6.16831250e-08,1.86492188e-01
-6.16431250e-08,1.86507813e-01
-6.16031250e-08,1.86490625e-01
-6.15631250e-08,1.86509375e-01
-6.15231250e-08,1.86489062e-01
-6.14831250e-08,1.86510938e-01
-6.14431250e-08,1.86487500e-01
-6.14031250e-08,1.86515625e-01
-6.13631250e-08,1.86481250e-01
-6.13231250e-08,1.86523438e-01
-6.12831250e-08,1.86467188e-01
-6.12431250e-08,1.86557813e-01
-6.12031250e-08,1.86287500e-01
-6.11631250e-08,1.86050000e-01
-6.11231250e-08,1.86125000e-01
-6.10831250e-08,1.86084375e-01
-6.10431250e-08,1.86109375e-01
-6.10031250e-08,1.86095312e-01
-6.09631250e-08,1.86100000e-01
-6.09231250e-08,1.86106250e-01
-6.08831250e-08,1.86084375e-01
-6.08431250e-08,1.86140625e-01
-6.08031250e-08,1.85906250e-01
-6.07631250e-08,1.85631250e-01
-6.07231250e-08,1.85745313e-01
-6.06831250e-08,1.85662500e-01
-6.06431250e-08,1.85735938e-01
-6.06031250e-08,1.85664063e-01
-6.05631250e-08,1.85739062e-01
-6.05231250e-08,1.85653125e-01
-6.04831250e-08,1.85771875e-01
-6.04431250e-08,1.85475000e-01
-6.04031250e-08,1.85262500e-01
-6.03631250e-08,1.85312500e-01
-6.03231250e-08,1.85298437e-01
-6.02831250e-08,1.85293750e-01
-6.02431250e-08,1.85312500e-01
-6.02031250e-08,1.85275000e-01
-6.01631250e-08,1.85350000e-01
-6.01231250e-08,1.85095312e-01
-6.00831250e-08,1.84842188e-01
-6.00431250e-08,1.84932813e-01
-6.00031250e-08,1.84876563e-01
-5.99631250e-08,1.84917187e-01
-5.99231250e-08,1.84885938e-01
-5.98831250e-08,1.84912500e-01
-5.98431250e-08,1.84889063e-01
-5.98031250e-08,1.84909375e-01
-5.97631250e-08,1.84892187e-01
-5.97231250e-08,1.84907813e-01
-5.96831250e-08,1.84893750e-01
-5.96431250e-08,1.84906250e-01
-5.96031250e-08,1.84893750e-01
-5.95631250e-08,1.84904687e-01
-5.95231250e-08,1.84895313e-01
-5.94831250e-08,1.84904687e-01
-5.94431250e-08,1.84896875e-01
-5.94031250e-08,1.84903125e-01
-5.93631250e-08,1.84896875e-01
-5.93231250e-08,1.84901563e-01
-5.92831250e-08,1.84900000e-01
-5.92431250e-08,1.84898438e-01
-5.92031250e-08,1.84903125e-01
-5.91631250e-08,1.84892187e-01
-5.91231250e-08,1.84917187e-01
-5.90831250e-08,1.84859375e-01
-5.90431250e-08,1.85092188e-01
-5.90031250e-08,1.85371875e-01
-5.89631250e-08,1.85250000e-01
-5.89231250e-08,1.85345312e-01
-5.88831250e-08,1.85254688e-01
-5.88431250e-08,1.85353125e-01
-5.88031250e-08,1.85223438e-01
-5.87631250e-08,1.85531250e-01
-5.87231250e-08,1.85731250e-01
-5.86831250e-08,1.85695313e-01
-5.86431250e-08,1.85690625e-01
-5.86031250e-08,1.85725000e-01
-5.85631250e-08,1.85646875e-01
-5.85231250e-08,1.85907813e-01
-5.84831250e-08,1.86151563e-01
-5.84431250e-08,1.86075000e-01
-5.84031250e-08,1.86109375e-01
-5.83631250e-08,1.86104688e-01
-5.83231250e-08,1.86068750e-01
-5.82831250e-08,1.86284375e-01
-5.82431250e-08,1.86579688e-01
-5.82031250e-08,1.86440625e-01
-5.81631250e-08,1.86557813e-01
-5.81231250e-08,1.86423438e-01
-5.80831250e-08,1.86725000e-01
-5.80431250e-08,1.86940625e-01
-5.80031250e-08,1.86879688e-01
-5.79631250e-08,1.86914063e-01
-5.79231250e-08,1.86884375e-01
-5.78831250e-08,1.86921875e-01
-5.78431250e-08,1.86856250e-01
-5.78031250e-08,1.87095312e-01
-5.77631250e-08,1.87368750e-01
-5.77231250e-08,1.87251562e-01
-5.76831250e-08,1.87342188e-01
-5.76431250e-08,1.87256250e-01
-5.76031250e-08,1.87351563e-01
-5.75631250e-08,1.87225000e-01
-5.75231250e-08,1.87526562e-01
-5.74831250e-08,1.87734375e-01
-5.74431250e-08,1.87690625e-01
-5.74031250e-08,1.87698438e-01
-5.73631250e-08,1.87709375e-01
-5.73231250e-08,1.87682813e-01
-5.72831250e-08,1.87728125e-01
-5.72431250e-08,1.87645312e-01
-5.72031250e-08,1.87909375e-01
-5.71631250e-08,1.88151563e-01
-5.71231250e-08,1.88073437e-01
-5.70831250e-08,1.88115625e-01
-5.70431250e-08,1.88090625e-01
-5.70031250e-08,1.88104688e-01
-5.69631250e-08,1.88100000e-01
-5.69231250e-08,1.88093750e-01
-5.68831250e-08,1.88117188e-01
-5.68431250e-08,1.88056250e-01
-5.68031250e-08,1.88296875e-01
-5.67631250e-08,1.88565625e-01
-5.67231250e-08,1.88457813e-01
-5.66831250e-08,1.88532813e-01
-5.66431250e-08,1.88471875e-01
-5.66031250e-08,1.88525000e-01
-5.65631250e-08,1.88476562e-01
-5.65231250e-08,1.88523438e-01
-5.64831250e-08,1.88475000e-01
-5.64431250e-08,1.88526562e-01
-5.64031250e-08,1.88468750e-01
-5.63631250e-08,1.88539063e-01
-5.63231250e-08,1.88435938e-01
-5.62831250e-08,1.88715625e-01
-5.62431250e-08,1.88946875e-01
-5.62031250e-08,1.88876563e-01
-5.61631250e-08,1.88914063e-01
-5.61231250e-08,1.88890625e-01
-5.60831250e-08,1.88906250e-01
-5.60431250e-08,1.88895312e-01
-5.60031250e-08,1.88903125e-01
-5.59631250e-08,1.88896875e-01
-5.59231250e-08,1.88901563e-01
-5.58831250e-08,1.88898438e-01
-5.58431250e-08,1.88901563e-01
-5.58031250e-08,1.88900000e-01
-5.57631250e-08,1.88900000e-01
-5.57231250e-08,1.88900000e-01
-5.56831250e-08,1.88900000e-01
-5.56431250e-08,1.88900000e-01
-5.56031250e-08,1.88900000e-01
-5.55631250e-08,1.88900000e-01
-5.55231250e-08,1.88900000e-01
-5.54831250e-08,1.88900000e-01
-5.54431250e-08,1.88898438e-01
-5.54031250e-08,1.88901563e-01
-5.53631250e-08,1.88898438e-01
-5.53231250e-08,1.88901563e-01
-5.52831250e-08,1.88898438e-01
-5.52431250e-08,1.88901563e-01
-5.52031250e-08,1.88898438e-01
-5.51631250e-08,1.88901563e-01
-5.51231250e-08,1.88898438e-01
-5.50831250e-08,1.88901563e-01
-5.50431250e-08,1.88898438e-01
-5.50031250e-08,1.88901563e-01
-5.49631250e-08,1.88898438e-01
-5.49231250e-08,1.88903125e-01
-5.48831250e-08,1.88896875e-01
-5.48431250e-08,1.88903125e-01
-5.48031250e-08,1.88896875e-01
-5.47631250e-08,1.88903125e-01
-5.47231250e-08,1.88895312e-01
-5.46831250e-08,1.88904688e-01
-5.46431250e-08,1.88895312e-01
-5.46031250e-08,1.88906250e-01
-5.45631250e-08,1.88892188e-01
-5.45231250e-08,1.88909375e-01
-5.44831250e-08,1.88887500e-01
-5.44431250e-08,1.88917188e-01
-5.44031250e-08,1.88873438e-01
-5.43631250e-08,1.88951563e-01
-5.43231250e-08,1.88695313e-01
-5.42831250e-08,1.88442187e-01
-5.42431250e-08,1.88534375e-01
-5.42031250e-08,1.88475000e-01
-5.41631250e-08,1.88521875e-01
-5.41231250e-08,1.88481250e-01
-5.40831250e-08,1.88517188e-01
-5.40431250e-08,1.88482813e-01
-5.40031250e-08,1.88517188e-01
-5.39631250e-08,1.88482813e-01
-5.39231250e-08,1.88518750e-01
-5.38831250e-08,1.88478125e-01
-5.38431250e-08,1.88526562e-01
-5.38031250e-08,1.88464063e-01
-5.37631250e-08,1.88559375e-01
-5.37231250e-08,1.88287500e-01
-5.36831250e-08,1.88050000e-01
-5.36431250e-08,1.88126563e-01
-5.36031250e-08,1.88082813e-01
-5.35631250e-08,1.88112500e-01
-5.35231250e-08,1.88090625e-01
-5.34831250e-08,1.88107812e-01
-5.34431250e-08,1.88093750e-01
-5.34031250e-08,1.88104688e-01
-5.33631250e-08,1.88095313e-01
-5.33231250e-08,1.88103125e-01
-5.32831250e-08,1.88096875e-01
-5.32431250e-08,1.88103125e-01
-5.32031250e-08,1.88096875e-01
-5.31631250e-08,1.88103125e-01
-5.31231250e-08,1.88098437e-01
-5.30831250e-08,1.88101563e-01
-5.30431250e-08,1.88098437e-01
-5.30031250e-08,1.88101563e-01
-5.29631250e-08,1.88098437e-01
-5.29231250e-08,1.88101563e-01
-5.28831250e-08,1.88098437e-01
-5.28431250e-08,1.88101563e-01
-5.28031250e-08,1.88098437e-01
-5.27631250e-08,1.88101563e-01
-5.27231250e-08,1.88098437e-01
-5.26831250e-08,1.88101563e-01
-5.26431250e-08,1.88098437e-01
-5.26031250e-08,1.88101563e-01
-5.25631250e-08,1.88098437e-01
-5.25231250e-08,1.88101563e-01
-5.24831250e-08,1.88098437e-01
-5.24431250e-08,1.88101563e-01
-5.24031250e-08,1.88098437e-01
-5.23631250e-08,1.88101563e-01
-5.23231250e-08,1.88098437e-01
-5.22831250e-08,1.88101563e-01
-5.22431250e-08,1.88098437e-01
-5.22031250e-08,1.88101563e-01
-5.21631250e-08,1.88098437e-01
-5.21231250e-08,1.88101563e-01
-5.20831250e-08,1.88098437e-01
-5.20431250e-08,1.88101563e-01
-5.20031250e-08,1.88098437e-01
-5.19631250e-08,1.88101563e-01
-5.19231250e-08,1.88098437e-01
-5.18831250e-08,1.88101563e-01
-5.18431250e-08,1.88098437e-01
-5.18031250e-08,1.88103125e-01
-5.17631250e-08,1.88096875e-01
-5.17231250e-08,1.88103125e-01
-5.16831250e-08,1.88095313e-01
-5.16431250e-08,1.88104688e-01
-5.16031250e-08,1.88093750e-01
-5.15631250e-08,1.88109375e-01
-5.15231250e-08,1.88089063e-01
-5.14831250e-08,1.88117188e-01
-5.14431250e-08,1.88073437e-01
-5.14031250e-08,1.88150000e-01
-5.13631250e-08,1.87896875e-01
-5.13231250e-08,1.87640625e-01
-5.12831250e-08,1.87735938e-01
-5.12431250e-08,1.87673438e-01
-5.12031250e-08,1.87721875e-01
-5.11631250e-08,1.87681250e-01
-5.11231250e-08,1.87717187e-01
-5.10831250e-08,1.87682813e-01
-5.10431250e-08,1.87715625e-01
-5.10031250e-08,1.87684375e-01
-5.09631250e-08,1.87717187e-01
-5.09231250e-08,1.87682813e-01
-5.08831250e-08,1.87718750e-01
-5.08431250e-08,1.87678125e-01
-5.08031250e-08,1.87726562e-01
-5.07631250e-08,1.87664063e-01
-5.07231250e-08,1.87759375e-01
-5.06831250e-08,1.87487500e-01
-5.06431250e-08,1.87250000e-01
-5.06031250e-08,1.87326563e-01
-5.05631250e-08,1.87281250e-01
-5.05231250e-08,1.87314063e-01
-5.04831250e-08,1.87287500e-01
-5.04431250e-08,1.87312500e-01
-5.04031250e-08,1.87287500e-01
-5.03631250e-08,1.87317188e-01
-5.03231250e-08,1.87275000e-01
-5.02831250e-08,1.87348438e-01
-5.02431250e-08,1.87100000e-01
-5.02031250e-08,1.86835937e-01
-5.01631250e-08,1.86942187e-01
-5.01231250e-08,1.86865625e-01
-5.00831250e-08,1.86932813e-01
-5.00431250e-08,1.86867188e-01
-5.00031250e-08,1.86935938e-01
-4.99631250e-08,1.86854688e-01
-4.99231250e-08,1.86970313e-01
-4.98831250e-08,1.86676563e-01
-4.98431250e-08,1.86460938e-01
-4.98031250e-08,1.86514062e-01
-4.97631250e-08,1.86495313e-01
-4.97231250e-08,1.86498438e-01
-4.96831250e-08,1.86507813e-01
-4.96431250e-08,1.86487500e-01
-4.96031250e-08,1.86518750e-01
-4.95631250e-08,1.86470313e-01
-4.95231250e-08,1.86556250e-01
-4.94831250e-08,1.86290625e-01
-4.94431250e-08,1.86048437e-01
-4.94031250e-08,1.86126563e-01
-4.93631250e-08,1.86084375e-01
-4.93231250e-08,1.86109375e-01
-4.92831250e-08,1.86093750e-01
-4.92431250e-08,1.86101563e-01
-4.92031250e-08,1.86101563e-01
-4.91631250e-08,1.86093750e-01
-4.91231250e-08,1.86112500e-01
-4.90831250e-08,1.86076563e-01
-4.90431250e-08,1.86148438e-01
-4.90031250e-08,1.85896875e-01
-4.89631250e-08,1.85640625e-01
-4.89231250e-08,1.85734375e-01
-4.88831250e-08,1.85675000e-01
-4.88431250e-08,1.85720313e-01
-4.88031250e-08,1.85682813e-01
-4.87631250e-08,1.85714062e-01
-4.87231250e-08,1.85687500e-01
-4.86831250e-08,1.85710938e-01
-4.86431250e-08,1.85690625e-01
-4.86031250e-08,1.85709375e-01
-4.85631250e-08,1.85692187e-01
-4.85231250e-08,1.85707813e-01
-4.84831250e-08,1.85693750e-01
-4.84431250e-08,1.85706250e-01
-4.84031250e-08,1.85695313e-01
-4.83631250e-08,1.85704688e-01
-4.83231250e-08,1.85695313e-01
-4.82831250e-08,1.85703125e-01
-4.82431250e-08,1.85696875e-01
-4.82031250e-08,1.85703125e-01
-4.81631250e-08,1.85698438e-01
-4.81231250e-08,1.85701563e-01
-4.80831250e-08,1.85698438e-01
-4.80431250e-08,1.85700000e-01
-4.80031250e-08,1.85700000e-01
-4.79631250e-08,1.85698438e-01
-4.79231250e-08,1.85701563e-01
-4.78831250e-08,1.85696875e-01
-4.78431250e-08,1.85704688e-01
-4.78031250e-08,1.85692187e-01
-4.77631250e-08,1.85710938e-01
-4.77231250e-08,1.85684375e-01
-4.76831250e-08,1.85725000e-01
-4.76431250e-08,1.85650000e-01
-4.76031250e-08,1.85903125e-01
-4.75631250e-08,1.86159375e-01
-4.75231250e-08,1.86065625e-01
-4.74831250e-08,1.86125000e-01
-4.74431250e-08,1.86079688e-01
-4.74031250e-08,1.86117188e-01
-4.73631250e-08,1.86084375e-01
-4.73231250e-08,1.86114063e-01
-4.72831250e-08,1.86087500e-01
-4.72431250e-08,1.86110938e-01
-4.72031250e-08,1.86089063e-01
-4.71631250e-08,1.86109375e-01
-4.71231250e-08,1.86090625e-01
-4.70831250e-08,1.86109375e-01
-4.70431250e-08,1.86090625e-01
-4.70031250e-08,1.86107812e-01
-4.69631250e-08,1.86092188e-01
-4.69231250e-08,1.86107812e-01
-4.68831250e-08,1.86092188e-01
-4.68431250e-08,1.86107812e-01
-4.68031250e-08,1.86092188e-01
-4.67631250e-08,1.86107812e-01
-4.67231250e-08,1.86093750e-01
-4.66831250e-08,1.86106250e-01
-4.66431250e-08,1.86093750e-01
-4.66031250e-08,1.86106250e-01
-4.65631250e-08,1.86093750e-01
-4.65231250e-08,1.86106250e-01
-4.64831250e-08,1.86093750e-01
-4.64431250e-08,1.86106250e-01
-4.64031250e-08,1.86093750e-01
-4.63631250e-08,1.86106250e-01
-4.63231250e-08,1.86093750e-01
-4.62831250e-08,1.86106250e-01
-4.62431250e-08,1.86093750e-01
-4.62031250e-08,1.86106250e-01
-4.61631250e-08,1.86093750e-01
-4.61231250e-08,1.86106250e-01
-4.60831250e-08,1.86093750e-01
-4.60431250e-08,1.86106250e-01
-4.60031250e-08,1.86095312e-01
-4.59631250e-08,1.86104688e-01
-4.59231250e-08,1.86095312e-01
-4.58831250e-08,1.86104688e-01
-4.58431250e-08,1.86095312e-01
-4.58031250e-08,1.86104688e-01
-4.57631250e-08,1.86095312e-01
-4.57231250e-08,1.86104688e-01
-4.56831250e-08,1.86095312e-01
-4.56431250e-08,1.86104688e-01
-4.56031250e-08,1.86095312e-01
-4.55631250e-08,1.86104688e-01
-4.55231250e-08,1.86095312e-01
-4.54831250e-08,1.86104688e-01
-4.54431250e-08,1.86095312e-01
-4.54031250e-08,1.86104688e-01
-4.53631250e-08,1.86095312e-01
-4.53231250e-08,1.86104688e-01
-4.52831250e-08,1.86095312e-01
-4.52431250e-08,1.86104688e-01
-4.52031250e-08,1.86093750e-01
-4.51631250e-08,1.86104688e-01
-4.51231250e-08,1.86093750e-01
-4.50831250e-08,1.86106250e-01
-4.50431250e-08,1.86093750e-01
-4.50031250e-08,1.86106250e-01
-4.49631250e-08,1.86093750e-01
-4.49231250e-08,1.86106250e-01
-4.48831250e-08,1.86093750e-01
-4.48431250e-08,1.86106250e-01
-4.48031250e-08,1.86093750e-01
-4.47631250e-08,1.86106250e-01
-4.47231250e-08,1.86093750e-01
-4.46831250e-08,1.86106250e-01
-4.46431250e-08,1.86093750e-01
-4.46031250e-08,1.86106250e-01
-4.45631250e-08,1.86093750e-01
-4.45231250e-08,1.86107812e-01
-4.44831250e-08,1.86092188e-01
-4.44431250e-08,1.86107812e-01
-4.44031250e-08,1.86092188e-01
-4.43631250e-08,1.86107812e-01
-4.43231250e-08,1.86090625e-01
-4.42831250e-08,1.86109375e-01
-4.42431250e-08,1.86090625e-01
-4.42031250e-08,1.86110938e-01
-4.41631250e-08,1.86089063e-01
-4.41231250e-08,1.86112500e-01
-4.40831250e-08,1.86085938e-01
-4.40431250e-08,1.86115625e-01
-4.40031250e-08,1.86081250e-01
-4.39631250e-08,1.86125000e-01
-4.39231250e-08,1.86065625e-01
-4.38831250e-08,1.86159375e-01
-4.38431250e-08,1.85887500e-01
-4.38031250e-08,1.85650000e-01
-4.37631250e-08,1.85726562e-01
-4.37231250e-08,1.85682813e-01
-4.36831250e-08,1.85712500e-01
-4.36431250e-08,1.85690625e-01
-4.36031250e-08,1.85706250e-01
-4.35631250e-08,1.85695313e-01
-4.35231250e-08,1.85704688e-01
-4.34831250e-08,1.85696875e-01
-4.34431250e-08,1.85703125e-01
-4.34031250e-08,1.85698438e-01
-4.33631250e-08,1.85701563e-01
-4.33231250e-08,1.85698438e-01
-4.32831250e-08,1.85700000e-01
-4.32431250e-08,1.85700000e-01
-4.32031250e-08,1.85700000e-01
-4.31631250e-08,1.85700000e-01
-4.31231250e-08,1.85698438e-01
-4.30831250e-08,1.85701563e-01
-4.30431250e-08,1.85698438e-01
-4.30031250e-08,1.85701563e-01
-4.29631250e-08,1.85698438e-01
-4.29231250e-08,1.85703125e-01
-4.28831250e-08,1.85696875e-01
-4.28431250e-08,1.85703125e-01
-4.28031250e-08,1.85696875e-01
-4.27631250e-08,1.85704688e-01
-4.27231250e-08,1.85695313e-01
-4.26831250e-08,1.85704688e-01
-4.26431250e-08,1.85693750e-01
-4.26031250e-08,1.85706250e-01
-4.25631250e-08,1.85692187e-01
-4.25231250e-08,1.85709375e-01
-4.24831250e-08,1.85689063e-01
-4.24431250e-08,1.85714062e-01
-4.24031250e-08,1.85681250e-01
-4.23631250e-08,1.85729688e-01
-4.23231250e-08,1.85645312e-01
-4.22831250e-08,1.85906250e-01
-4.22431250e-08,1.86156250e-01
-4.22031250e-08,1.86068750e-01
-4.21631250e-08,1.86121875e-01
-4.21231250e-08,1.86082812e-01
-4.20831250e-08,1.86115625e-01
-4.20431250e-08,1.86085938e-01
-4.20031250e-08,1.86112500e-01
-4.19631250e-08,1.86087500e-01
-4.19231250e-08,1.86112500e-01
-4.18831250e-08,1.86087500e-01
-4.18431250e-08,1.86112500e-01
-4.18031250e-08,1.86085938e-01
-4.17631250e-08,1.86117188e-01
-4.17231250e-08,1.86078125e-01
-4.16831250e-08,1.86129688e-01
-4.16431250e-08,1.86045313e-01
-4.16031250e-08,1.86307813e-01
-4.15631250e-08,1.86554688e-01
-4.15231250e-08,1.86467188e-01
-4.14831250e-08,1.86523438e-01
-4.14431250e-08,1.86481250e-01
-4.14031250e-08,1.86517188e-01
-4.13631250e-08,1.86484375e-01
-4.13231250e-08,1.86514062e-01
-4.12831250e-08,1.86485938e-01
-4.12431250e-08,1.86514062e-01
-4.12031250e-08,1.86484375e-01
-4.11631250e-08,1.86517188e-01
-4.11231250e-08,1.86479688e-01
-4.10831250e-08,1.86525000e-01
-4.10431250e-08,1.86465625e-01
-4.10031250e-08,1.86559375e-01
-4.09631250e-08,1.86287500e-01
-4.09231250e-08,1.86050000e-01
-4.08831250e-08,1.86126563e-01
-4.08431250e-08,1.86082812e-01
-4.08031250e-08,1.86112500e-01
-4.07631250e-08,1.86090625e-01
-4.07231250e-08,1.86107812e-01
-4.06831250e-08,1.86093750e-01
-4.06431250e-08,1.86104688e-01
-4.06031250e-08,1.86095312e-01
-4.05631250e-08,1.86103125e-01
-4.05231250e-08,1.86096875e-01
-4.04831250e-08,1.86101563e-01
-4.04431250e-08,1.86098438e-01
-4.04031250e-08,1.86101563e-01
-4.03631250e-08,1.86098438e-01
-4.03231250e-08,1.86100000e-01
-4.02831250e-08,1.86100000e-01
-4.02431250e-08,1.86100000e-01
-4.02031250e-08,1.86100000e-01
-4.01631250e-08,1.86100000e-01
-4.01231250e-08,1.86101563e-01
-4.00831250e-08,1.86098438e-01
-4.00431250e-08,1.86101563e-01
-4.00031250e-08,1.86098438e-01
-3.99631250e-08,1.86101563e-01
-3.99231250e-08,1.86096875e-01
-3.98831250e-08,1.86103125e-01
-3.98431250e-08,1.86096875e-01
-3.98031250e-08,1.86104688e-01
-3.97631250e-08,1.86095312e-01
-3.97231250e-08,1.86106250e-01
-3.96831250e-08,1.86092188e-01
-3.96431250e-08,1.86109375e-01
-3.96031250e-08,1.86089063e-01
-3.95631250e-08,1.86114063e-01
-3.95231250e-08,1.86081250e-01
-3.94831250e-08,1.86128125e-01
-3.94431250e-08,1.86046875e-01
-3.94031250e-08,1.86306250e-01
-3.93631250e-08,1.86556250e-01
-3.93231250e-08,1.86468750e-01
-3.92831250e-08,1.86521875e-01
-3.92431250e-08,1.86482813e-01
-3.92031250e-08,1.86514062e-01
-3.91631250e-08,1.86487500e-01
-3.91231250e-08,1.86510938e-01
-3.90831250e-08,1.86490625e-01
-3.90431250e-08,1.86507813e-01
-3.90031250e-08,1.86492188e-01
-3.89631250e-08,1.86507813e-01
-3.89231250e-08,1.86493750e-01
-3.88831250e-08,1.86506250e-01
-3.88431250e-08,1.86493750e-01
-3.88031250e-08,1.86506250e-01
-3.87631250e-08,1.86493750e-01
-3.87231250e-08,1.86504688e-01
-3.86831250e-08,1.86495313e-01
-3.86431250e-08,1.86504688e-01
-3.86031250e-08,1.86495313e-01
-3.85631250e-08,1.86504688e-01
-3.85231250e-08,1.86495313e-01
