trails/0abb954fa332282a54c7a4841199d6d9/aes_ch1_20250507103158108.csv

Model,MSO66B
Label,
Waveform Type,ANALOG
Horizontal Units,s
Sample Interval,4.00000000e-11
Record Length,10000
Zero Index,1599.08203125
Vertical Units,A
ANALOG_Thumbnail,
yOffset,1.84500000e-01
yPosition,8.40000000e-01

Labels,
TIME,CH1
-6.39632812e-08,1.89698438e-01
-6.39232812e-08,1.89701563e-01
-6.38832812e-08,1.89700000e-01
-6.38432812e-08,1.89700000e-01
-6.38032812e-08,1.89700000e-01
-6.37632813e-08,1.89698438e-01
-6.37232812e-08,1.89701563e-01
-6.36832812e-08,1.89698438e-01
-6.36432812e-08,1.89703125e-01
-6.36032812e-08,1.89696875e-01
-6.35632812e-08,1.89704687e-01
-6.35232812e-08,1.89695313e-01
-6.34832813e-08,1.89706250e-01
-6.34432812e-08,1.89692187e-01
-6.34032812e-08,1.89709375e-01
-6.33632812e-08,1.89687500e-01
-6.33232812e-08,1.89715625e-01
-6.32832812e-08,1.89679687e-01
-6.32432812e-08,1.89731250e-01
-6.32032813e-08,1.89643750e-01
-6.31632812e-08,1.89910938e-01
-6.31232812e-08,1.90151563e-01
-6.30832812e-08,1.90073437e-01
-6.30432812e-08,1.90117188e-01
-6.30032812e-08,1.90089063e-01
-6.29632812e-08,1.90106250e-01
-6.29232813e-08,1.90096875e-01
-6.28832812e-08,1.90098437e-01
-6.28432812e-08,1.90106250e-01
-6.28032812e-08,1.90087500e-01
-6.27632812e-08,1.90123438e-01
-6.27232812e-08,1.90051562e-01
-6.26832812e-08,1.90303125e-01
-6.26432813e-08,1.90559375e-01
-6.26032812e-08,1.90465625e-01
-6.25632812e-08,1.90525000e-01
-6.25232812e-08,1.90481250e-01
-6.24832812e-08,1.90514062e-01
-6.24432812e-08,1.90489063e-01
-6.24032812e-08,1.90507813e-01
-6.23632813e-08,1.90493750e-01
-6.23232812e-08,1.90503125e-01
-6.22832812e-08,1.90501562e-01
-6.22432812e-08,1.90492188e-01
-6.22032812e-08,1.90517188e-01
-6.21632812e-08,1.90457813e-01
-6.21232812e-08,1.90696875e-01
-6.20832813e-08,1.90965625e-01
-6.20432812e-08,1.90859375e-01
-6.20032812e-08,1.90931250e-01
-6.19632812e-08,1.90873438e-01
-6.19232812e-08,1.90923438e-01
-6.18832813e-08,1.90879688e-01
-6.18432812e-08,1.90918750e-01
-6.18032813e-08,1.90882812e-01
-6.17632812e-08,1.90917188e-01
-6.17232812e-08,1.90884375e-01
-6.16832812e-08,1.90915625e-01
-6.16432812e-08,1.90885938e-01
-6.16032813e-08,1.90914063e-01
-6.15632812e-08,1.90885938e-01
-6.15232813e-08,1.90912500e-01
-6.14832812e-08,1.90887500e-01
-6.14432812e-08,1.90912500e-01
-6.14032812e-08,1.90887500e-01
-6.13632812e-08,1.90912500e-01
-6.13232813e-08,1.90887500e-01
-6.12832812e-08,1.90912500e-01
-6.12432813e-08,1.90887500e-01
-6.12032812e-08,1.90910938e-01
-6.11632812e-08,1.90889063e-01
-6.11232812e-08,1.90910938e-01
-6.10832812e-08,1.90889063e-01
-6.10432813e-08,1.90910938e-01
-6.10032812e-08,1.90889063e-01
-6.09632813e-08,1.90910938e-01
-6.09232812e-08,1.90887500e-01
-6.08832812e-08,1.90912500e-01
-6.08432812e-08,1.90887500e-01
-6.08032812e-08,1.90912500e-01
-6.07632813e-08,1.90887500e-01
-6.07232812e-08,1.90912500e-01
-6.06832813e-08,1.90885938e-01
-6.06432812e-08,1.90914063e-01
-6.06032812e-08,1.90884375e-01
-6.05632812e-08,1.90915625e-01
-6.05232812e-08,1.90882812e-01
-6.04832813e-08,1.90920312e-01
-6.04432812e-08,1.90876563e-01
-6.04032813e-08,1.90928125e-01
-6.03632812e-08,1.90862500e-01
-6.03232812e-08,1.90962500e-01
-6.02832812e-08,1.90684375e-01
-6.02432812e-08,1.90453125e-01
-6.02032813e-08,1.90521875e-01
-6.01632812e-08,1.90487500e-01
-6.01232813e-08,1.90507813e-01
-6.00832812e-08,1.90495313e-01
-6.00432812e-08,1.90501562e-01
-6.00032812e-08,1.90500000e-01
-5.99632812e-08,1.90498438e-01
-5.99232813e-08,1.90504688e-01
-5.98832812e-08,1.90493750e-01
-5.98432812e-08,1.90507813e-01
-5.98032812e-08,1.90489063e-01
-5.97632812e-08,1.90517188e-01
-5.97232812e-08,1.90473438e-01
-5.96832812e-08,1.90551562e-01
-5.96432813e-08,1.90295313e-01
-5.96032812e-08,1.90042188e-01
-5.95632812e-08,1.90134375e-01
-5.95232812e-08,1.90075000e-01
-5.94832812e-08,1.90120312e-01
-5.94432812e-08,1.90082813e-01
-5.94032812e-08,1.90115625e-01
-5.93632812e-08,1.90084375e-01
-5.93232812e-08,1.90114063e-01
-5.92832812e-08,1.90085937e-01
-5.92432812e-08,1.90114063e-01
-5.92032812e-08,1.90084375e-01
-5.91632812e-08,1.90117188e-01
-5.91232812e-08,1.90079688e-01
-5.90832812e-08,1.90125000e-01
-5.90432812e-08,1.90065625e-01
-5.90032812e-08,1.90159375e-01
-5.89632812e-08,1.89887500e-01
-5.89232812e-08,1.89650000e-01
-5.88832812e-08,1.89726563e-01
-5.88432812e-08,1.89682813e-01
-5.88032812e-08,1.89712500e-01
-5.87632812e-08,1.89690625e-01
-5.87232812e-08,1.89706250e-01
-5.86832812e-08,1.89695313e-01
-5.86432812e-08,1.89703125e-01
-5.86032812e-08,1.89698438e-01
-5.85632812e-08,1.89700000e-01
-5.85232812e-08,1.89701563e-01
-5.84832812e-08,1.89696875e-01
-5.84432812e-08,1.89704687e-01
-5.84032812e-08,1.89690625e-01
-5.83632812e-08,1.89714063e-01
-5.83232812e-08,1.89676563e-01
-5.82832812e-08,1.89748438e-01
-5.82432812e-08,1.89498438e-01
-5.82032812e-08,1.89239062e-01
-5.81632812e-08,1.89335937e-01
-5.81232812e-08,1.89273438e-01
-5.80832812e-08,1.89321875e-01
-5.80432812e-08,1.89279688e-01
-5.80032812e-08,1.89317188e-01
-5.79632812e-08,1.89282813e-01
-5.79232812e-08,1.89315625e-01
-5.78832812e-08,1.89284375e-01
-5.78432812e-08,1.89314063e-01
-5.78032812e-08,1.89285938e-01
-5.77632812e-08,1.89315625e-01
-5.77232812e-08,1.89284375e-01
-5.76832812e-08,1.89315625e-01
-5.76432812e-08,1.89282813e-01
-5.76032812e-08,1.89318750e-01
-5.75632812e-08,1.89278125e-01
-5.75232812e-08,1.89326563e-01
-5.74832812e-08,1.89264062e-01
-5.74432812e-08,1.89360937e-01
-5.74032812e-08,1.89085937e-01
-5.73632812e-08,1.88851563e-01
-5.73232812e-08,1.88925000e-01
-5.72832812e-08,1.88884375e-01
-5.72432812e-08,1.88910938e-01
-5.72032812e-08,1.88892188e-01
-5.71632812e-08,1.88906250e-01
-5.71232812e-08,1.88895312e-01
-5.70832812e-08,1.88904688e-01
-5.70432812e-08,1.88896875e-01
-5.70032812e-08,1.88903125e-01
-5.69632812e-08,1.88896875e-01
-5.69232812e-08,1.88901563e-01
-5.68832812e-08,1.88898438e-01
-5.68432812e-08,1.88901563e-01
-5.68032812e-08,1.88898438e-01
-5.67632812e-08,1.88901563e-01
-5.67232812e-08,1.88898438e-01
-5.66832812e-08,1.88901563e-01
-5.66432812e-08,1.88898438e-01
-5.66032812e-08,1.88901563e-01
-5.65632812e-08,1.88896875e-01
-5.65232812e-08,1.88903125e-01
-5.64832812e-08,1.88896875e-01
-5.64432812e-08,1.88903125e-01
-5.64032812e-08,1.88895312e-01
-5.63632812e-08,1.88904688e-01
-5.63232812e-08,1.88893750e-01
-5.62832812e-08,1.88909375e-01
-5.62432812e-08,1.88887500e-01
-5.62032812e-08,1.88917188e-01
-5.61632812e-08,1.88873438e-01
-5.61232812e-08,1.88951563e-01
-5.60832812e-08,1.88695313e-01
-5.60432812e-08,1.88442187e-01
-5.60032812e-08,1.88534375e-01
-5.59632812e-08,1.88475000e-01
-5.59232812e-08,1.88520313e-01
-5.58832812e-08,1.88482813e-01
-5.58432812e-08,1.88515625e-01
-5.58032812e-08,1.88485938e-01
-5.57632812e-08,1.88514062e-01
-5.57232812e-08,1.88485938e-01
-5.56832812e-08,1.88512500e-01
-5.56432812e-08,1.88487500e-01
-5.56032812e-08,1.88512500e-01
-5.55632812e-08,1.88487500e-01
-5.55232812e-08,1.88512500e-01
-5.54832812e-08,1.88487500e-01
-5.54432812e-08,1.88512500e-01
-5.54032812e-08,1.88487500e-01
-5.53632812e-08,1.88514062e-01
-5.53232812e-08,1.88485938e-01
-5.52832812e-08,1.88515625e-01
-5.52432812e-08,1.88482813e-01
-5.52032812e-08,1.88518750e-01
-5.51632812e-08,1.88479687e-01
-5.51232812e-08,1.88523438e-01
-5.50832812e-08,1.88470313e-01
-5.50432812e-08,1.88539063e-01
-5.50032812e-08,1.88435938e-01
-5.49632812e-08,1.88718750e-01
-5.49232812e-08,1.88942187e-01
-5.48832812e-08,1.88882812e-01
-5.48432812e-08,1.88906250e-01
-5.48032812e-08,1.88901563e-01
-5.47632812e-08,1.88890625e-01
-5.47232812e-08,1.88920313e-01
-5.46832812e-08,1.88854688e-01
-5.46432812e-08,1.89100000e-01
-5.46032812e-08,1.89362500e-01
-5.45632812e-08,1.89259375e-01
-5.45232812e-08,1.89332813e-01
-5.44832812e-08,1.89268750e-01
-5.44432812e-08,1.89337500e-01
-5.44032812e-08,1.89240625e-01
-5.43632812e-08,1.89509375e-01
-5.43232812e-08,1.89756250e-01
-5.42832812e-08,1.89664063e-01
-5.42432812e-08,1.89729688e-01
-5.42032812e-08,1.89668750e-01
-5.41632812e-08,1.89739062e-01
-5.41232812e-08,1.89637500e-01
-5.40832812e-08,1.89915625e-01
-5.40432812e-08,1.90146875e-01
-5.40032812e-08,1.90076563e-01
-5.39632812e-08,1.90112500e-01
-5.39232812e-08,1.90093750e-01
-5.38832812e-08,1.90101563e-01
-5.38432812e-08,1.90103125e-01
-5.38032812e-08,1.90090625e-01
-5.37632812e-08,1.90118750e-01
-5.37232812e-08,1.90054688e-01
-5.36832812e-08,1.90298438e-01
-5.36432812e-08,1.90564063e-01
-5.36032812e-08,1.90459375e-01
-5.35632812e-08,1.90531250e-01
-5.35232812e-08,1.90473438e-01
-5.34832812e-08,1.90523438e-01
-5.34432812e-08,1.90478125e-01
-5.34032812e-08,1.90520313e-01
-5.33632812e-08,1.90479687e-01
-5.33232812e-08,1.90521875e-01
-5.32832812e-08,1.90478125e-01
-5.32432812e-08,1.90525000e-01
-5.32032812e-08,1.90470313e-01
-5.31632812e-08,1.90539062e-01
-5.31232812e-08,1.90437500e-01
-5.30832812e-08,1.90715625e-01
-5.30432812e-08,1.90946875e-01
-5.30032812e-08,1.90876563e-01
-5.29632812e-08,1.90914063e-01
-5.29232812e-08,1.90890625e-01
-5.28832812e-08,1.90906250e-01
-5.28432812e-08,1.90895312e-01
-5.28032812e-08,1.90903125e-01
-5.27632812e-08,1.90898438e-01
-5.27232812e-08,1.90901563e-01
-5.26832812e-08,1.90898438e-01
-5.26432812e-08,1.90900000e-01
-5.26032812e-08,1.90900000e-01
-5.25632813e-08,1.90900000e-01
-5.25232812e-08,1.90900000e-01
-5.24832812e-08,1.90900000e-01
-5.24432812e-08,1.90901563e-01
-5.24032812e-08,1.90898438e-01
-5.23632812e-08,1.90901563e-01
-5.23232812e-08,1.90898438e-01
-5.22832812e-08,1.90901563e-01
-5.22432812e-08,1.90898438e-01
-5.22032812e-08,1.90901563e-01
-5.21632812e-08,1.90898438e-01
-5.21232812e-08,1.90901563e-01
-5.20832812e-08,1.90896875e-01
-5.20432812e-08,1.90903125e-01
-5.20032812e-08,1.90896875e-01
-5.19632812e-08,1.90903125e-01
-5.19232812e-08,1.90896875e-01
-5.18832812e-08,1.90903125e-01
-5.18432812e-08,1.90896875e-01
-5.18032812e-08,1.90904688e-01
-5.17632812e-08,1.90895312e-01
-5.17232812e-08,1.90904688e-01
-5.16832812e-08,1.90895312e-01
-5.16432812e-08,1.90906250e-01
-5.16032812e-08,1.90893750e-01
-5.15632812e-08,1.90906250e-01
-5.15232812e-08,1.90892188e-01
-5.14832812e-08,1.90909375e-01
-5.14432812e-08,1.90889063e-01
-5.14032812e-08,1.90912500e-01
-5.13632812e-08,1.90884375e-01
-5.13232812e-08,1.90920312e-01
-5.12832812e-08,1.90870313e-01
-5.12432812e-08,1.90954687e-01
-5.12032812e-08,1.90692187e-01
-5.11632812e-08,1.90445313e-01
-5.11232812e-08,1.90529688e-01
-5.10832812e-08,1.90479687e-01
-5.10432812e-08,1.90515625e-01
-5.10032812e-08,1.90487500e-01
-5.09632812e-08,1.90510938e-01
-5.09232812e-08,1.90490625e-01
-5.08832812e-08,1.90507813e-01
-5.08432812e-08,1.90492188e-01
-5.08032812e-08,1.90506250e-01
-5.07632812e-08,1.90493750e-01
-5.07232812e-08,1.90506250e-01
-5.06832812e-08,1.90495313e-01
-5.06432813e-08,1.90504688e-01
-5.06032812e-08,1.90495313e-01
-5.05632812e-08,1.90504688e-01
-5.05232812e-08,1.90495313e-01
-5.04832812e-08,1.90503125e-01
-5.04432812e-08,1.90496875e-01
-5.04032812e-08,1.90503125e-01
-5.03632813e-08,1.90496875e-01
-5.03232812e-08,1.90503125e-01
-5.02832812e-08,1.90496875e-01
-5.02432812e-08,1.90503125e-01
-5.02032812e-08,1.90496875e-01
-5.01632812e-08,1.90503125e-01
-5.01232812e-08,1.90496875e-01
-5.00832812e-08,1.90503125e-01
-5.00432812e-08,1.90496875e-01
-5.00032812e-08,1.90503125e-01
-4.99632812e-08,1.90496875e-01
-4.99232812e-08,1.90501562e-01
-4.98832812e-08,1.90496875e-01
-4.98432812e-08,1.90501562e-01
-4.98032812e-08,1.90498438e-01
-4.97632812e-08,1.90501562e-01
-4.97232812e-08,1.90498438e-01
-4.96832812e-08,1.90501562e-01
-4.96432812e-08,1.90498438e-01
-4.96032812e-08,1.90501562e-01
-4.95632812e-08,1.90498438e-01
-4.95232812e-08,1.90501562e-01
-4.94832812e-08,1.90498438e-01
-4.94432812e-08,1.90501562e-01
-4.94032812e-08,1.90498438e-01
-4.93632812e-08,1.90501562e-01
-4.93232812e-08,1.90498438e-01
-4.92832812e-08,1.90501562e-01
-4.92432812e-08,1.90498438e-01
-4.92032812e-08,1.90501562e-01
-4.91632812e-08,1.90498438e-01
-4.91232812e-08,1.90501562e-01
-4.90832812e-08,1.90498438e-01
-4.90432812e-08,1.90501562e-01
-4.90032812e-08,1.90498438e-01
-4.89632812e-08,1.90501562e-01
-4.89232812e-08,1.90498438e-01
-4.88832812e-08,1.90501562e-01
-4.88432812e-08,1.90498438e-01
-4.88032812e-08,1.90501562e-01
-4.87632812e-08,1.90498438e-01
-4.87232813e-08,1.90501562e-01
-4.86832812e-08,1.90498438e-01
-4.86432812e-08,1.90501562e-01
-4.86032812e-08,1.90498438e-01
-4.85632812e-08,1.90501562e-01
-4.85232812e-08,1.90498438e-01
-4.84832812e-08,1.90501562e-01
-4.84432813e-08,1.90496875e-01
-4.84032812e-08,1.90503125e-01
-4.83632812e-08,1.90496875e-01
-4.83232812e-08,1.90503125e-01
-4.82832812e-08,1.90496875e-01
-4.82432812e-08,1.90503125e-01
-4.82032812e-08,1.90496875e-01
-4.81632813e-08,1.90503125e-01
-4.81232812e-08,1.90496875e-01
-4.80832812e-08,1.90503125e-01
-4.80432812e-08,1.90496875e-01
-4.80032812e-08,1.90503125e-01
-4.79632812e-08,1.90496875e-01
-4.79232812e-08,1.90503125e-01
-4.78832812e-08,1.90496875e-01
-4.78432812e-08,1.90504688e-01
-4.78032812e-08,1.90495313e-01
-4.77632812e-08,1.90504688e-01
-4.77232812e-08,1.90495313e-01
-4.76832812e-08,1.90504688e-01
-4.76432812e-08,1.90495313e-01
-4.76032812e-08,1.90506250e-01
-4.75632812e-08,1.90493750e-01
-4.75232812e-08,1.90507813e-01
-4.74832812e-08,1.90492188e-01
-4.74432812e-08,1.90509375e-01
-4.74032812e-08,1.90490625e-01
-4.73632812e-08,1.90510938e-01
-4.73232812e-08,1.90485938e-01
-4.72832812e-08,1.90517188e-01
-4.72432812e-08,1.90478125e-01
-4.72032812e-08,1.90531250e-01
-4.71632812e-08,1.90443750e-01
-4.71232812e-08,1.90709375e-01
-4.70832812e-08,1.90951563e-01
-4.70432812e-08,1.90871875e-01
-4.70032812e-08,1.90918750e-01
-4.69632812e-08,1.90885938e-01
-4.69232812e-08,1.90910938e-01
-4.68832812e-08,1.90892188e-01
-4.68432812e-08,1.90906250e-01
-4.68032813e-08,1.90895312e-01
-4.67632812e-08,1.90903125e-01
-4.67232812e-08,1.90896875e-01
-4.66832812e-08,1.90901563e-01
-4.66432812e-08,1.90900000e-01
-4.66032812e-08,1.90898438e-01
-4.65632812e-08,1.90903125e-01
-4.65232813e-08,1.90895312e-01
-4.64832812e-08,1.90906250e-01
-4.64432812e-08,1.90890625e-01
-4.64032812e-08,1.90915625e-01
-4.63632812e-08,1.90875000e-01
-4.63232812e-08,1.90950000e-01
-4.62832812e-08,1.90696875e-01
-4.62432813e-08,1.90440625e-01
-4.62032812e-08,1.90535938e-01
-4.61632812e-08,1.90473438e-01
-4.61232812e-08,1.90520313e-01
-4.60832812e-08,1.90482813e-01
-4.60432812e-08,1.90515625e-01
-4.60032812e-08,1.90485938e-01
-4.59632813e-08,1.90512500e-01
-4.59232812e-08,1.90487500e-01
-4.58832812e-08,1.90510938e-01
-4.58432812e-08,1.90489063e-01
-4.58032812e-08,1.90510938e-01
-4.57632812e-08,1.90490625e-01
-4.57232812e-08,1.90509375e-01
-4.56832812e-08,1.90490625e-01
-4.56432812e-08,1.90509375e-01
-4.56032812e-08,1.90490625e-01
-4.55632812e-08,1.90509375e-01
-4.55232812e-08,1.90490625e-01
-4.54832812e-08,1.90507813e-01
-4.54432812e-08,1.90492188e-01
-4.54032812e-08,1.90507813e-01
-4.53632812e-08,1.90492188e-01
-4.53232812e-08,1.90507813e-01
-4.52832812e-08,1.90492188e-01
-4.52432812e-08,1.90507813e-01
-4.52032812e-08,1.90492188e-01
-4.51632812e-08,1.90507813e-01
-4.51232812e-08,1.90492188e-01
-4.50832812e-08,1.90509375e-01
-4.50432812e-08,1.90490625e-01
-4.50032812e-08,1.90509375e-01
-4.49632812e-08,1.90490625e-01
-4.49232812e-08,1.90509375e-01
-4.48832813e-08,1.90490625e-01
-4.48432812e-08,1.90509375e-01
-4.48032812e-08,1.90490625e-01
-4.47632812e-08,1.90510938e-01
-4.47232812e-08,1.90489063e-01
-4.46832812e-08,1.90510938e-01
-4.46432812e-08,1.90487500e-01
-4.46032813e-08,1.90512500e-01
-4.45632812e-08,1.90485938e-01
-4.45232812e-08,1.90515625e-01
-4.44832812e-08,1.90482813e-01
-4.44432812e-08,1.90520313e-01
-4.44032812e-08,1.90473438e-01
-4.43632812e-08,1.90535938e-01
-4.43232813e-08,1.90439063e-01
-4.42832812e-08,1.90714063e-01
-4.42432812e-08,1.90948438e-01
-4.42032812e-08,1.90875000e-01
-4.41632812e-08,1.90915625e-01
-4.41232812e-08,1.90890625e-01
-4.40832812e-08,1.90906250e-01
-4.40432813e-08,1.90895312e-01
-4.40032812e-08,1.90903125e-01
-4.39632812e-08,1.90898438e-01
-4.39232812e-08,1.90901563e-01
-4.38832812e-08,1.90900000e-01
-4.38432812e-08,1.90900000e-01
-4.38032812e-08,1.90901563e-01
-4.37632812e-08,1.90898438e-01
-4.37232812e-08,1.90901563e-01
-4.36832812e-08,1.90896875e-01
-4.36432812e-08,1.90903125e-01
-4.36032812e-08,1.90896875e-01
-4.35632812e-08,1.90904688e-01
-4.35232812e-08,1.90895312e-01
-4.34832812e-08,1.90904688e-01
-4.34432812e-08,1.90895312e-01
-4.34032812e-08,1.90906250e-01
-4.33632812e-08,1.90893750e-01
-4.33232812e-08,1.90907812e-01
-4.32832812e-08,1.90892188e-01
-4.32432812e-08,1.90907812e-01
-4.32032812e-08,1.90890625e-01
-4.31632812e-08,1.90910938e-01
-4.31232812e-08,1.90887500e-01
-4.30832812e-08,1.90914063e-01
-4.30432812e-08,1.90882812e-01
-4.30032812e-08,1.90923438e-01
-4.29632813e-08,1.90867188e-01
-4.29232812e-08,1.90957813e-01
-4.28832812e-08,1.90689063e-01
-4.28432812e-08,1.90448438e-01
-4.28032812e-08,1.90526562e-01
-4.27632812e-08,1.90482813e-01
-4.27232812e-08,1.90512500e-01
-4.26832813e-08,1.90490625e-01
-4.26432812e-08,1.90506250e-01
-4.26032812e-08,1.90495313e-01
-4.25632812e-08,1.90504688e-01
-4.25232812e-08,1.90496875e-01
-4.24832812e-08,1.90501562e-01
-4.24432812e-08,1.90498438e-01
-4.24032813e-08,1.90500000e-01
-4.23632812e-08,1.90500000e-01
-4.23232812e-08,1.90498438e-01
-4.22832812e-08,1.90501562e-01
-4.22432812e-08,1.90496875e-01
-4.22032812e-08,1.90503125e-01
-4.21632812e-08,1.90495313e-01
-4.21232813e-08,1.90504688e-01
-4.20832812e-08,1.90493750e-01
-4.20432812e-08,1.90507813e-01
-4.20032812e-08,1.90489063e-01
-4.19632812e-08,1.90514062e-01
-4.19232812e-08,1.90481250e-01
-4.18832812e-08,1.90528125e-01
-4.18432813e-08,1.90446875e-01
-4.18032812e-08,1.90706250e-01
-4.17632812e-08,1.90956250e-01
-4.17232812e-08,1.90867188e-01
-4.16832812e-08,1.90923438e-01
-4.16432812e-08,1.90879688e-01
-4.16032812e-08,1.90917188e-01
-4.15632812e-08,1.90882812e-01
-4.15232812e-08,1.90918750e-01
-4.14832812e-08,1.90878125e-01
-4.14432812e-08,1.90929688e-01
-4.14032812e-08,1.90846875e-01
-4.13632812e-08,1.91104688e-01
-4.13232812e-08,1.91359375e-01
-4.12832812e-08,1.91262500e-01
-4.12432812e-08,1.91329688e-01
-4.12032812e-08,1.91271875e-01
-4.11632812e-08,1.91328125e-01
-4.11232812e-08,1.91268750e-01
-4.10832812e-08,1.91340625e-01
-4.10432813e-08,1.91234375e-01
-4.10032812e-08,1.91518750e-01
-4.09632812e-08,1.91743750e-01
-4.09232812e-08,1.91681250e-01
-4.08832812e-08,1.91709375e-01
-4.08432812e-08,1.91696875e-01
-4.08032812e-08,1.91698438e-01
-4.07632813e-08,1.91707813e-01
-4.07232812e-08,1.91685938e-01
-4.06832812e-08,1.91725000e-01
-4.06432812e-08,1.91650000e-01
-4.06032812e-08,1.91903125e-01
-4.05632812e-08,1.92157812e-01
-4.05232812e-08,1.92067188e-01
-4.04832813e-08,1.92123437e-01
-4.04432812e-08,1.92081250e-01
-4.04032812e-08,1.92115625e-01
-4.03632812e-08,1.92087500e-01
-4.03232812e-08,1.92110937e-01
-4.02832812e-08,1.92090625e-01
-4.02432812e-08,1.92107813e-01
-4.02032813e-08,1.92093750e-01
-4.01632812e-08,1.92106250e-01
-4.01232812e-08,1.92095313e-01
-4.00832812e-08,1.92104688e-01
-4.00432812e-08,1.92096875e-01
-4.00032812e-08,1.92103125e-01
-3.99632812e-08,1.92098437e-01
-3.99232813e-08,1.92100000e-01
-3.98832812e-08,1.92101563e-01
-3.98432812e-08,1.92096875e-01
-3.98032812e-08,1.92104688e-01
-3.97632812e-08,1.92092188e-01
-3.97232812e-08,1.92112500e-01
-3.96832812e-08,1.92078125e-01
-3.96432813e-08,1.92146875e-01
-3.96032812e-08,1.91900000e-01
-3.95632812e-08,1.91637500e-01
-3.95232812e-08,1.91739063e-01
-3.94832812e-08,1.91670312e-01
-3.94432812e-08,1.91726563e-01
-3.94032813e-08,1.91675000e-01
-3.93632812e-08,1.91723438e-01
-3.93232812e-08,1.91675000e-01
-3.92832812e-08,1.91729687e-01
-3.92432812e-08,1.91662500e-01
-3.92032812e-08,1.91760938e-01
-3.91632812e-08,1.91487500e-01
-3.91232813e-08,1.91250000e-01
-3.90832812e-08,1.91328125e-01
-3.90432812e-08,1.91281250e-01
-3.90032812e-08,1.91315625e-01
-3.89632812e-08,1.91285938e-01
-3.89232812e-08,1.91314062e-01
-3.88832812e-08,1.91282813e-01
-3.88432813e-08,1.91320313e-01
-3.88032812e-08,1.91270313e-01
-3.87632812e-08,1.91354688e-01
-3.87232812e-08,1.91093750e-01
-3.86832812e-08,1.90843750e-01
-3.86432812e-08,1.90932812e-01
-3.86032812e-08,1.90876563e-01
-3.85632813e-08,1.90918750e-01
-3.85232812e-08,1.90884375e-01
