trails/0abb954fa332282a54c7a4841199d6d9/aes_ch1_20250507103541709.csv

Model,MSO66B
Label,
Waveform Type,ANALOG
Horizontal Units,s
Sample Interval,4.00000000e-11
Record Length,10000
Zero Index,1599.03515625
Vertical Units,A
ANALOG_Thumbnail,
yOffset,1.84500000e-01
yPosition,8.40000000e-01

Labels,
TIME,CH1
-6.39614062e-08,1.98889063e-01
-6.39214062e-08,1.98914063e-01
-6.38814062e-08,1.98881250e-01
-6.38414063e-08,1.98929688e-01
-6.38014062e-08,1.98845313e-01
-6.37614063e-08,1.99107813e-01
-6.37214062e-08,1.99354688e-01
-6.36814062e-08,1.99268750e-01
-6.36414062e-08,1.99321875e-01
-6.36014062e-08,1.99284375e-01
-6.35614063e-08,1.99312500e-01
-6.35214062e-08,1.99289063e-01
-6.34814063e-08,1.99309375e-01
-6.34414062e-08,1.99292187e-01
-6.34014062e-08,1.99307813e-01
-6.33614062e-08,1.99293750e-01
-6.33214062e-08,1.99306250e-01
-6.32814063e-08,1.99295313e-01
-6.32414062e-08,1.99304688e-01
-6.32014063e-08,1.99295313e-01
-6.31614062e-08,1.99304688e-01
-6.31214062e-08,1.99296875e-01
-6.30814062e-08,1.99303125e-01
-6.30414062e-08,1.99296875e-01
-6.30014063e-08,1.99303125e-01
-6.29614062e-08,1.99296875e-01
-6.29214063e-08,1.99303125e-01
-6.28814062e-08,1.99296875e-01
-6.28414062e-08,1.99303125e-01
-6.28014062e-08,1.99298438e-01
-6.27614062e-08,1.99301563e-01
-6.27214063e-08,1.99298438e-01
-6.26814062e-08,1.99301563e-01
-6.26414062e-08,1.99298438e-01
-6.26014062e-08,1.99301563e-01
-6.25614062e-08,1.99298438e-01
-6.25214062e-08,1.99301563e-01
-6.24814062e-08,1.99298438e-01
-6.24414063e-08,1.99301563e-01
-6.24014062e-08,1.99298438e-01
-6.23614062e-08,1.99300000e-01
-6.23214062e-08,1.99300000e-01
-6.22814062e-08,1.99300000e-01
-6.22414062e-08,1.99300000e-01
-6.22014062e-08,1.99300000e-01
-6.21614063e-08,1.99300000e-01
-6.21214062e-08,1.99300000e-01
-6.20814062e-08,1.99300000e-01
-6.20414062e-08,1.99300000e-01
-6.20014062e-08,1.99300000e-01
-6.19614062e-08,1.99298438e-01
-6.19214062e-08,1.99301563e-01
-6.18814063e-08,1.99298438e-01
-6.18414062e-08,1.99301563e-01
-6.18014062e-08,1.99298438e-01
-6.17614062e-08,1.99303125e-01
-6.17214062e-08,1.99296875e-01
-6.16814062e-08,1.99303125e-01
-6.16414062e-08,1.99295313e-01
-6.16014063e-08,1.99304688e-01
-6.15614062e-08,1.99293750e-01
-6.15214062e-08,1.99306250e-01
-6.14814062e-08,1.99292187e-01
-6.14414062e-08,1.99310938e-01
-6.14014062e-08,1.99285938e-01
-6.13614062e-08,1.99318750e-01
-6.13214063e-08,1.99271875e-01
-6.12814062e-08,1.99353125e-01
-6.12414062e-08,1.99093750e-01
-6.12014062e-08,1.98843750e-01
-6.11614062e-08,1.98931250e-01
-6.11214062e-08,1.98878125e-01
-6.10814062e-08,1.98917188e-01
-6.10414063e-08,1.98885937e-01
-6.10014062e-08,1.98912500e-01
-6.09614062e-08,1.98889063e-01
-6.09214062e-08,1.98909375e-01
-6.08814062e-08,1.98890625e-01
-6.08414062e-08,1.98907813e-01
-6.08014062e-08,1.98892188e-01
-6.07614063e-08,1.98906250e-01
-6.07214062e-08,1.98893750e-01
-6.06814062e-08,1.98906250e-01
-6.06414062e-08,1.98895313e-01
-6.06014062e-08,1.98904688e-01
-6.05614063e-08,1.98895313e-01
-6.05214062e-08,1.98904688e-01
-6.04814063e-08,1.98896875e-01
-6.04414062e-08,1.98903125e-01
-6.04014062e-08,1.98896875e-01
-6.03614062e-08,1.98901563e-01
-6.03214062e-08,1.98898437e-01
-6.02814063e-08,1.98901563e-01
-6.02414062e-08,1.98900000e-01
-6.02014063e-08,1.98900000e-01
-6.01614062e-08,1.98901563e-01
-6.01214062e-08,1.98896875e-01
-6.00814062e-08,1.98904688e-01
-6.00414062e-08,1.98892188e-01
-6.00014063e-08,1.98914063e-01
-5.99614062e-08,1.98876563e-01
-5.99214063e-08,1.98948438e-01
-5.98814062e-08,1.98698438e-01
-5.98414062e-08,1.98439063e-01
-5.98014062e-08,1.98537500e-01
-5.97614062e-08,1.98471875e-01
-5.97214063e-08,1.98523438e-01
-5.96814062e-08,1.98479688e-01
-5.96414063e-08,1.98518750e-01
-5.96014062e-08,1.98482812e-01
-5.95614062e-08,1.98515625e-01
-5.95214062e-08,1.98484375e-01
-5.94814062e-08,1.98514063e-01
-5.94414062e-08,1.98485938e-01
-5.94014062e-08,1.98514063e-01
-5.93614062e-08,1.98485938e-01
-5.93214062e-08,1.98512500e-01
-5.92814062e-08,1.98487500e-01
-5.92414062e-08,1.98512500e-01
-5.92014062e-08,1.98485938e-01
-5.91614062e-08,1.98514063e-01
-5.91214062e-08,1.98485938e-01
-5.90814062e-08,1.98515625e-01
-5.90414062e-08,1.98482812e-01
-5.90014062e-08,1.98520313e-01
-5.89614062e-08,1.98473438e-01
-5.89214062e-08,1.98546875e-01
-5.88814062e-08,1.98309375e-01
-5.88414062e-08,1.98003125e-01
-5.88014062e-08,1.98326562e-01
-5.87614062e-08,1.98545313e-01
-5.87214062e-08,1.98473438e-01
-5.86814062e-08,1.98520313e-01
-5.86414062e-08,1.98481250e-01
-5.86014062e-08,1.98517187e-01
-5.85614062e-08,1.98482812e-01
-5.85214062e-08,1.98517187e-01
-5.84814062e-08,1.98482812e-01
-5.84414062e-08,1.98517187e-01
-5.84014062e-08,1.98482812e-01
-5.83614062e-08,1.98518750e-01
-5.83214062e-08,1.98479688e-01
-5.82814062e-08,1.98521875e-01
-5.82414062e-08,1.98476563e-01
-5.82014062e-08,1.98526563e-01
-5.81614062e-08,1.98468750e-01
-5.81214062e-08,1.98542188e-01
-5.80814062e-08,1.98432812e-01
-5.80414062e-08,1.98720312e-01
-5.80014062e-08,1.98942188e-01
-5.79614062e-08,1.98882813e-01
-5.79214062e-08,1.98907813e-01
-5.78814062e-08,1.98898437e-01
-5.78414062e-08,1.98898437e-01
-5.78014062e-08,1.98904688e-01
-5.77614062e-08,1.98892188e-01
-5.77214062e-08,1.98910937e-01
-5.76814062e-08,1.98885937e-01
-5.76414062e-08,1.98917188e-01
-5.76014062e-08,1.98876563e-01
-5.75614062e-08,1.98934375e-01
-5.75214062e-08,1.98840625e-01
-5.74814062e-08,1.99112500e-01
-5.74414062e-08,1.99348438e-01
-5.74014062e-08,1.99276563e-01
-5.73614062e-08,1.99314062e-01
-5.73214062e-08,1.99292187e-01
-5.72814062e-08,1.99304688e-01
-5.72414062e-08,1.99298438e-01
-5.72014062e-08,1.99298438e-01
-5.71614062e-08,1.99303125e-01
-5.71214062e-08,1.99293750e-01
-5.70814062e-08,1.99309375e-01
-5.70414062e-08,1.99287500e-01
-5.70014062e-08,1.99318750e-01
-5.69614062e-08,1.99271875e-01
-5.69214062e-08,1.99353125e-01
-5.68814062e-08,1.99092188e-01
-5.68414062e-08,1.98845313e-01
-5.68014062e-08,1.98929688e-01
-5.67614062e-08,1.98879688e-01
-5.67214062e-08,1.98915625e-01
-5.66814062e-08,1.98887500e-01
-5.66414062e-08,1.98909375e-01
-5.66014062e-08,1.98892188e-01
-5.65614062e-08,1.98906250e-01
-5.65214062e-08,1.98893750e-01
-5.64814062e-08,1.98904688e-01
-5.64414062e-08,1.98895313e-01
-5.64014062e-08,1.98903125e-01
-5.63614062e-08,1.98896875e-01
-5.63214062e-08,1.98901563e-01
-5.62814062e-08,1.98898437e-01
-5.62414062e-08,1.98901563e-01
-5.62014062e-08,1.98900000e-01
-5.61614062e-08,1.98900000e-01
-5.61214062e-08,1.98900000e-01
-5.60814062e-08,1.98898437e-01
-5.60414062e-08,1.98901563e-01
-5.60014062e-08,1.98898437e-01
-5.59614062e-08,1.98903125e-01
-5.59214062e-08,1.98896875e-01
-5.58814062e-08,1.98903125e-01
-5.58414062e-08,1.98895313e-01
-5.58014062e-08,1.98904688e-01
-5.57614062e-08,1.98893750e-01
-5.57214062e-08,1.98907813e-01
-5.56814062e-08,1.98890625e-01
-5.56414062e-08,1.98910937e-01
-5.56014062e-08,1.98885937e-01
-5.55614062e-08,1.98918750e-01
-5.55214062e-08,1.98870313e-01
-5.54814062e-08,1.98953125e-01
-5.54414062e-08,1.98692188e-01
-5.54014062e-08,1.98445312e-01
-5.53614062e-08,1.98531250e-01
-5.53214062e-08,1.98478125e-01
-5.52814062e-08,1.98517187e-01
-5.52414062e-08,1.98485938e-01
-5.52014062e-08,1.98512500e-01
-5.51614062e-08,1.98489063e-01
-5.51214062e-08,1.98510938e-01
-5.50814062e-08,1.98490625e-01
-5.50414062e-08,1.98509375e-01
-5.50014062e-08,1.98490625e-01
-5.49614062e-08,1.98510938e-01
-5.49214062e-08,1.98489063e-01
-5.48814062e-08,1.98512500e-01
-5.48414062e-08,1.98484375e-01
-5.48014062e-08,1.98520313e-01
-5.47614062e-08,1.98470312e-01
-5.47214062e-08,1.98553125e-01
-5.46814062e-08,1.98293750e-01
-5.46414062e-08,1.98043750e-01
-5.46014062e-08,1.98132813e-01
-5.45614062e-08,1.98075000e-01
-5.45214062e-08,1.98120313e-01
-5.44814062e-08,1.98082813e-01
-5.44414062e-08,1.98117188e-01
-5.44014062e-08,1.98084375e-01
-5.43614062e-08,1.98115625e-01
-5.43214062e-08,1.98084375e-01
-5.42814062e-08,1.98117188e-01
-5.42414062e-08,1.98082813e-01
-5.42014062e-08,1.98118750e-01
-5.41614062e-08,1.98078125e-01
-5.41214062e-08,1.98126563e-01
-5.40814062e-08,1.98062500e-01
-5.40414062e-08,1.98160938e-01
-5.40014062e-08,1.97885937e-01
-5.39614062e-08,1.97653125e-01
-5.39214062e-08,1.97723438e-01
-5.38814062e-08,1.97685938e-01
-5.38414062e-08,1.97709375e-01
-5.38014062e-08,1.97693750e-01
-5.37614062e-08,1.97703125e-01
-5.37214062e-08,1.97698438e-01
-5.36814062e-08,1.97700000e-01
-5.36414062e-08,1.97700000e-01
-5.36014062e-08,1.97698438e-01
-5.35614062e-08,1.97703125e-01
-5.35214062e-08,1.97696875e-01
-5.34814062e-08,1.97704688e-01
-5.34414062e-08,1.97695312e-01
-5.34014062e-08,1.97706250e-01
-5.33614062e-08,1.97692188e-01
-5.33214062e-08,1.97707812e-01
-5.32814062e-08,1.97690625e-01
-5.32414062e-08,1.97710938e-01
-5.32014062e-08,1.97685938e-01
-5.31614063e-08,1.97717188e-01
-5.31214062e-08,1.97676563e-01
-5.30814062e-08,1.97732813e-01
-5.30414062e-08,1.97642188e-01
-5.30014062e-08,1.97910937e-01
-5.29614062e-08,1.98150000e-01
-5.29214062e-08,1.98073438e-01
-5.28814062e-08,1.98117188e-01
-5.28414062e-08,1.98089062e-01
-5.28014062e-08,1.98107813e-01
-5.27614062e-08,1.98095313e-01
-5.27214062e-08,1.98103125e-01
-5.26814062e-08,1.98098438e-01
-5.26414062e-08,1.98100000e-01
-5.26014062e-08,1.98101562e-01
-5.25614062e-08,1.98096875e-01
-5.25214062e-08,1.98104688e-01
-5.24814062e-08,1.98093750e-01
-5.24414062e-08,1.98109375e-01
-5.24014062e-08,1.98087500e-01
-5.23614062e-08,1.98118750e-01
-5.23214062e-08,1.98071875e-01
-5.22814062e-08,1.98153125e-01
-5.22414062e-08,1.97892188e-01
-5.22014062e-08,1.97645313e-01
-5.21614062e-08,1.97729688e-01
-5.21214062e-08,1.97679688e-01
-5.20814062e-08,1.97715625e-01
-5.20414062e-08,1.97687500e-01
-5.20014062e-08,1.97709375e-01
-5.19614062e-08,1.97692188e-01
-5.19214062e-08,1.97706250e-01
-5.18814062e-08,1.97696875e-01
-5.18414062e-08,1.97701563e-01
-5.18014062e-08,1.97700000e-01
-5.17614062e-08,1.97698438e-01
-5.17214062e-08,1.97703125e-01
-5.16814062e-08,1.97692188e-01
-5.16414062e-08,1.97712500e-01
-5.16014062e-08,1.97678125e-01
-5.15614062e-08,1.97746875e-01
-5.15214062e-08,1.97500000e-01
-5.14814062e-08,1.97237500e-01
-5.14414062e-08,1.97339062e-01
-5.14014062e-08,1.97270313e-01
-5.13614062e-08,1.97326562e-01
-5.13214062e-08,1.97276563e-01
-5.12814062e-08,1.97323438e-01
-5.12414063e-08,1.97275000e-01
-5.12014062e-08,1.97328125e-01
-5.11614062e-08,1.97264063e-01
-5.11214062e-08,1.97360937e-01
-5.10814062e-08,1.97087500e-01
-5.10414062e-08,1.96850000e-01
-5.10014062e-08,1.96928125e-01
-5.09614063e-08,1.96879688e-01
-5.09214062e-08,1.96915625e-01
-5.08814062e-08,1.96885937e-01
-5.08414062e-08,1.96914063e-01
-5.08014062e-08,1.96885937e-01
-5.07614062e-08,1.96915625e-01
-5.07214062e-08,1.96882813e-01
-5.06814062e-08,1.96921875e-01
-5.06414062e-08,1.96868750e-01
-5.06014062e-08,1.96956250e-01
-5.05614062e-08,1.96690625e-01
-5.05214062e-08,1.96446875e-01
-5.04814062e-08,1.96529687e-01
-5.04414062e-08,1.96479687e-01
-5.04014062e-08,1.96515625e-01
-5.03614062e-08,1.96487500e-01
-5.03214062e-08,1.96510938e-01
-5.02814062e-08,1.96490625e-01
-5.02414062e-08,1.96507813e-01
-5.02014062e-08,1.96492187e-01
-5.01614062e-08,1.96506250e-01
-5.01214062e-08,1.96493750e-01
-5.00814062e-08,1.96504687e-01
-5.00414062e-08,1.96495313e-01
-5.00014062e-08,1.96504687e-01
-4.99614062e-08,1.96495313e-01
-4.99214062e-08,1.96504687e-01
-4.98814062e-08,1.96496875e-01
-4.98414062e-08,1.96503125e-01
-4.98014062e-08,1.96496875e-01
-4.97614062e-08,1.96503125e-01
-4.97214062e-08,1.96496875e-01
-4.96814062e-08,1.96503125e-01
-4.96414062e-08,1.96496875e-01
-4.96014062e-08,1.96501563e-01
-4.95614062e-08,1.96498438e-01
-4.95214062e-08,1.96501563e-01
-4.94814062e-08,1.96498438e-01
-4.94414062e-08,1.96501563e-01
-4.94014062e-08,1.96498438e-01
-4.93614062e-08,1.96501563e-01
-4.93214063e-08,1.96498438e-01
-4.92814062e-08,1.96501563e-01
-4.92414062e-08,1.96498438e-01
-4.92014062e-08,1.96501563e-01
-4.91614062e-08,1.96498438e-01
-4.91214062e-08,1.96500000e-01
-4.90814062e-08,1.96500000e-01
-4.90414063e-08,1.96500000e-01
-4.90014062e-08,1.96500000e-01
-4.89614062e-08,1.96500000e-01
-4.89214062e-08,1.96500000e-01
-4.88814062e-08,1.96500000e-01
-4.88414062e-08,1.96500000e-01
-4.88014062e-08,1.96500000e-01
-4.87614063e-08,1.96500000e-01
-4.87214062e-08,1.96500000e-01
-4.86814062e-08,1.96500000e-01
-4.86414062e-08,1.96500000e-01
-4.86014062e-08,1.96501563e-01
-4.85614062e-08,1.96498438e-01
-4.85214062e-08,1.96501563e-01
-4.84814062e-08,1.96498438e-01
-4.84414062e-08,1.96501563e-01
-4.84014062e-08,1.96498438e-01
-4.83614062e-08,1.96501563e-01
-4.83214062e-08,1.96498438e-01
-4.82814062e-08,1.96501563e-01
-4.82414062e-08,1.96496875e-01
-4.82014062e-08,1.96503125e-01
-4.81614062e-08,1.96496875e-01
-4.81214062e-08,1.96503125e-01
-4.80814062e-08,1.96496875e-01
-4.80414062e-08,1.96503125e-01
-4.80014062e-08,1.96495313e-01
-4.79614062e-08,1.96504687e-01
-4.79214062e-08,1.96495313e-01
-4.78814062e-08,1.96504687e-01
-4.78414062e-08,1.96493750e-01
-4.78014062e-08,1.96506250e-01
-4.77614062e-08,1.96493750e-01
-4.77214062e-08,1.96507813e-01
-4.76814062e-08,1.96490625e-01
-4.76414062e-08,1.96509375e-01
-4.76014062e-08,1.96487500e-01
-4.75614062e-08,1.96514063e-01
-4.75214062e-08,1.96482812e-01
-4.74814062e-08,1.96521875e-01
-4.74414062e-08,1.96467188e-01
-4.74014063e-08,1.96557813e-01
-4.73614062e-08,1.96289062e-01
-4.73214062e-08,1.96048438e-01
-4.72814062e-08,1.96126563e-01
-4.72414062e-08,1.96082813e-01
-4.72014062e-08,1.96112500e-01
-4.71614062e-08,1.96090625e-01
-4.71214063e-08,1.96106250e-01
-4.70814062e-08,1.96095313e-01
-4.70414062e-08,1.96103125e-01
-4.70014062e-08,1.96098438e-01
-4.69614062e-08,1.96100000e-01
-4.69214062e-08,1.96101562e-01
-4.68814062e-08,1.96096875e-01
-4.68414063e-08,1.96104688e-01
-4.68014062e-08,1.96092188e-01
-4.67614062e-08,1.96110937e-01
-4.67214062e-08,1.96082813e-01
-4.66814062e-08,1.96126563e-01
-4.66414062e-08,1.96048438e-01
-4.66014062e-08,1.96306250e-01
-4.65614063e-08,1.96556250e-01
-4.65214062e-08,1.96467188e-01
-4.64814062e-08,1.96521875e-01
-4.64414062e-08,1.96482812e-01
-4.64014062e-08,1.96514063e-01
-4.63614062e-08,1.96489063e-01
-4.63214062e-08,1.96509375e-01
-4.62814062e-08,1.96493750e-01
-4.62414062e-08,1.96504687e-01
-4.62014062e-08,1.96496875e-01
-4.61614062e-08,1.96500000e-01
-4.61214062e-08,1.96503125e-01
-4.60814062e-08,1.96492187e-01
-4.60414062e-08,1.96517187e-01
-4.60014062e-08,1.96457812e-01
-4.59614062e-08,1.96695312e-01
-4.59214062e-08,1.96967188e-01
-4.58814062e-08,1.96856250e-01
-4.58414062e-08,1.96934375e-01
-4.58014062e-08,1.96868750e-01
-4.57614062e-08,1.96929688e-01
-4.57214062e-08,1.96870313e-01
-4.56814062e-08,1.96931250e-01
-4.56414062e-08,1.96865625e-01
-4.56014062e-08,1.96943750e-01
-4.55614062e-08,1.96832813e-01
-4.55214062e-08,1.97120313e-01
-4.54814063e-08,1.97342188e-01
-4.54414062e-08,1.97282813e-01
-4.54014062e-08,1.97307813e-01
-4.53614062e-08,1.97298438e-01
-4.53214062e-08,1.97298438e-01
-4.52814062e-08,1.97306250e-01
-4.52414062e-08,1.97287500e-01
-4.52014063e-08,1.97321875e-01
-4.51614062e-08,1.97253125e-01
-4.51214062e-08,1.97500000e-01
-4.50814062e-08,1.97762500e-01
-4.50414062e-08,1.97659375e-01
-4.50014062e-08,1.97732813e-01
-4.49614062e-08,1.97670313e-01
-4.49214063e-08,1.97729688e-01
-4.48814062e-08,1.97667188e-01
-4.48414062e-08,1.97742187e-01
-4.48014062e-08,1.97634375e-01
-4.47614062e-08,1.97918750e-01
-4.47214062e-08,1.98143750e-01
-4.46814062e-08,1.98081250e-01
-4.46414063e-08,1.98107813e-01
-4.46014062e-08,1.98098438e-01
-4.45614062e-08,1.98093750e-01
-4.45214062e-08,1.98117188e-01
-4.44814062e-08,1.98056250e-01
-4.44414062e-08,1.98296875e-01
-4.44014062e-08,1.98565625e-01
-4.43614063e-08,1.98457812e-01
-4.43214062e-08,1.98534375e-01
-4.42814062e-08,1.98468750e-01
-4.42414062e-08,1.98531250e-01
-4.42014062e-08,1.98465625e-01
-4.41614062e-08,1.98542188e-01
-4.41214062e-08,1.98434375e-01
-4.40814062e-08,1.98717188e-01
-4.40414062e-08,1.98945312e-01
-4.40014062e-08,1.98876563e-01
-4.39614062e-08,1.98914063e-01
-4.39214062e-08,1.98890625e-01
-4.38814062e-08,1.98907813e-01
-4.38414062e-08,1.98895313e-01
-4.38014062e-08,1.98904688e-01
-4.37614062e-08,1.98896875e-01
-4.37214062e-08,1.98903125e-01
-4.36814062e-08,1.98896875e-01
-4.36414062e-08,1.98903125e-01
-4.36014062e-08,1.98898437e-01
-4.35614063e-08,1.98901563e-01
-4.35214062e-08,1.98898437e-01
-4.34814062e-08,1.98901563e-01
-4.34414062e-08,1.98898437e-01
-4.34014062e-08,1.98901563e-01
-4.33614062e-08,1.98898437e-01
-4.33214062e-08,1.98901563e-01
-4.32814063e-08,1.98896875e-01
-4.32414062e-08,1.98903125e-01
-4.32014062e-08,1.98896875e-01
-4.31614062e-08,1.98903125e-01
-4.31214062e-08,1.98896875e-01
-4.30814062e-08,1.98904688e-01
-4.30414062e-08,1.98895313e-01
-4.30014063e-08,1.98904688e-01
-4.29614062e-08,1.98893750e-01
-4.29214062e-08,1.98907813e-01
-4.28814062e-08,1.98890625e-01
-4.28414062e-08,1.98910937e-01
-4.28014062e-08,1.98885937e-01
-4.27614062e-08,1.98918750e-01
-4.27214063e-08,1.98871875e-01
-4.26814062e-08,1.98953125e-01
-4.26414062e-08,1.98693750e-01
-4.26014062e-08,1.98443750e-01
-4.25614062e-08,1.98531250e-01
-4.25214062e-08,1.98478125e-01
-4.24814062e-08,1.98517187e-01
-4.24414063e-08,1.98485938e-01
-4.24014062e-08,1.98512500e-01
-4.23614062e-08,1.98489063e-01
-4.23214062e-08,1.98509375e-01
-4.22814062e-08,1.98490625e-01
-4.22414062e-08,1.98507813e-01
-4.22014062e-08,1.98492188e-01
-4.21614062e-08,1.98507813e-01
-4.21214062e-08,1.98492188e-01
-4.20814062e-08,1.98507813e-01
-4.20414062e-08,1.98493750e-01
-4.20014062e-08,1.98506250e-01
-4.19614062e-08,1.98493750e-01
-4.19214062e-08,1.98506250e-01
-4.18814062e-08,1.98493750e-01
-4.18414062e-08,1.98506250e-01
-4.18014062e-08,1.98493750e-01
-4.17614062e-08,1.98506250e-01
-4.17214062e-08,1.98493750e-01
-4.16814062e-08,1.98506250e-01
-4.16414063e-08,1.98493750e-01
-4.16014062e-08,1.98506250e-01
-4.15614062e-08,1.98493750e-01
-4.15214062e-08,1.98507813e-01
-4.14814062e-08,1.98492188e-01
-4.14414062e-08,1.98507813e-01
-4.14014062e-08,1.98492188e-01
-4.13614063e-08,1.98509375e-01
-4.13214062e-08,1.98490625e-01
-4.12814062e-08,1.98510938e-01
-4.12414062e-08,1.98487500e-01
-4.12014062e-08,1.98514063e-01
-4.11614062e-08,1.98482812e-01
-4.11214062e-08,1.98521875e-01
-4.10814063e-08,1.98467188e-01
-4.10414062e-08,1.98557813e-01
-4.10014062e-08,1.98289063e-01
-4.09614062e-08,1.98048438e-01
-4.09214062e-08,1.98128125e-01
-4.08814062e-08,1.98081250e-01
-4.08414062e-08,1.98112500e-01
-4.08014063e-08,1.98090625e-01
-4.07614062e-08,1.98107813e-01
-4.07214062e-08,1.98095313e-01
-4.06814062e-08,1.98103125e-01
-4.06414062e-08,1.98098438e-01
-4.06014062e-08,1.98100000e-01
-4.05614062e-08,1.98103125e-01
-4.05214063e-08,1.98093750e-01
-4.04814062e-08,1.98110938e-01
-4.04414062e-08,1.98079688e-01
-4.04014062e-08,1.98145313e-01
-4.03614062e-08,1.97901563e-01
-4.03214062e-08,1.97635937e-01
-4.02814062e-08,1.97740625e-01
-4.02414063e-08,1.97668750e-01
-4.02014062e-08,1.97726563e-01
-4.01614062e-08,1.97676563e-01
-4.01214062e-08,1.97721875e-01
-4.00814062e-08,1.97678125e-01
-4.00414062e-08,1.97721875e-01
-4.00014062e-08,1.97676563e-01
-3.99614062e-08,1.97723438e-01
-3.99214062e-08,1.97673437e-01
-3.98814062e-08,1.97731250e-01
-3.98414062e-08,1.97659375e-01
-3.98014062e-08,1.97765625e-01
-3.97614062e-08,1.97481250e-01
-3.97214063e-08,1.97256250e-01
-3.96814062e-08,1.97320313e-01
-3.96414062e-08,1.97289063e-01
-3.96014062e-08,1.97306250e-01
-3.95614062e-08,1.97296875e-01
-3.95214062e-08,1.97300000e-01
-3.94814062e-08,1.97301562e-01
-3.94414063e-08,1.97296875e-01
-3.94014062e-08,1.97303125e-01
-3.93614062e-08,1.97295313e-01
-3.93214062e-08,1.97306250e-01
-3.92814062e-08,1.97293750e-01
-3.92414062e-08,1.97307813e-01
-3.92014062e-08,1.97290625e-01
-3.91614063e-08,1.97310938e-01
-3.91214062e-08,1.97287500e-01
-3.90814062e-08,1.97314062e-01
-3.90414062e-08,1.97282813e-01
-3.90014062e-08,1.97320313e-01
-3.89614062e-08,1.97275000e-01
-3.89214062e-08,1.97335938e-01
-3.88814063e-08,1.97239063e-01
-3.88414062e-08,1.97514063e-01
-3.88014062e-08,1.97746875e-01
-3.87614062e-08,1.97678125e-01
-3.87214062e-08,1.97712500e-01
-3.86814062e-08,1.97693750e-01
-3.86414062e-08,1.97701563e-01
-3.86014063e-08,1.97703125e-01
-3.85614062e-08,1.97693750e-01
-3.85214062e-08,1.97710938e-01
