trails/0abb954fa332282a54c7a4841199d6d9/aes_ch1_20250507103828900.csv

Model,MSO66B
Label,
Waveform Type,ANALOG
Horizontal Units,s
Sample Interval,4.00000000e-11
Record Length,10000
Zero Index,1599.08984375
Vertical Units,A
ANALOG_Thumbnail,
yOffset,1.84500000e-01
yPosition,8.40000000e-01

Labels,
TIME,CH1
-6.39635937e-08,1.90496875e-01
-6.39235937e-08,1.90503125e-01
-6.38835938e-08,1.90496875e-01
-6.38435937e-08,1.90501562e-01
-6.38035938e-08,1.90498438e-01
-6.37635937e-08,1.90501562e-01
-6.37235937e-08,1.90500000e-01
-6.36835937e-08,1.90498438e-01
-6.36435937e-08,1.90503125e-01
-6.36035938e-08,1.90493750e-01
-6.35635937e-08,1.90510938e-01
-6.35235938e-08,1.90479687e-01
-6.34835937e-08,1.90543750e-01
-6.34435937e-08,1.90303125e-01
-6.34035937e-08,1.90034375e-01
-6.33635937e-08,1.90142188e-01
-6.33235938e-08,1.90065625e-01
-6.32835937e-08,1.90131250e-01
-6.32435938e-08,1.90070313e-01
-6.32035937e-08,1.90129688e-01
-6.31635937e-08,1.90068750e-01
-6.31235937e-08,1.90135938e-01
-6.30835937e-08,1.90054688e-01
-6.30435938e-08,1.90170312e-01
-6.30035937e-08,1.89878125e-01
-6.29635938e-08,1.89660938e-01
-6.29235937e-08,1.89715625e-01
-6.28835937e-08,1.89695313e-01
-6.28435937e-08,1.89698438e-01
-6.28035937e-08,1.89706250e-01
-6.27635938e-08,1.89689063e-01
-6.27235937e-08,1.89717187e-01
-6.26835938e-08,1.89673438e-01
-6.26435937e-08,1.89753125e-01
-6.26035937e-08,1.89493750e-01
-6.25635937e-08,1.89245313e-01
-6.25235937e-08,1.89331250e-01
-6.24835938e-08,1.89278125e-01
-6.24435937e-08,1.89317188e-01
-6.24035938e-08,1.89285938e-01
-6.23635937e-08,1.89310937e-01
-6.23235937e-08,1.89290625e-01
-6.22835937e-08,1.89307813e-01
-6.22435937e-08,1.89292188e-01
-6.22035938e-08,1.89306250e-01
-6.21635937e-08,1.89293750e-01
-6.21235937e-08,1.89306250e-01
-6.20835937e-08,1.89295313e-01
-6.20435937e-08,1.89304688e-01
-6.20035937e-08,1.89295313e-01
-6.19635937e-08,1.89304688e-01
-6.19235938e-08,1.89295313e-01
-6.18835937e-08,1.89304688e-01
-6.18435937e-08,1.89295313e-01
-6.18035937e-08,1.89304688e-01
-6.17635937e-08,1.89295313e-01
-6.17235937e-08,1.89304688e-01
-6.16835937e-08,1.89295313e-01
-6.16435938e-08,1.89304688e-01
-6.16035937e-08,1.89295313e-01
-6.15635937e-08,1.89304688e-01
-6.15235937e-08,1.89295313e-01
-6.14835937e-08,1.89304688e-01
-6.14435937e-08,1.89295313e-01
-6.14035937e-08,1.89306250e-01
-6.13635938e-08,1.89293750e-01
-6.13235937e-08,1.89306250e-01
-6.12835937e-08,1.89293750e-01
-6.12435937e-08,1.89307813e-01
-6.12035937e-08,1.89290625e-01
-6.11635937e-08,1.89310937e-01
-6.11235937e-08,1.89287500e-01
-6.10835938e-08,1.89315625e-01
-6.10435937e-08,1.89279688e-01
-6.10035937e-08,1.89329688e-01
-6.09635937e-08,1.89245313e-01
-6.09235937e-08,1.89507813e-01
-6.08835937e-08,1.89754688e-01
-6.08435937e-08,1.89668750e-01
-6.08035938e-08,1.89721875e-01
-6.07635937e-08,1.89684375e-01
-6.07235937e-08,1.89712500e-01
-6.06835937e-08,1.89689063e-01
-6.06435937e-08,1.89709375e-01
-6.06035937e-08,1.89690625e-01
-6.05635937e-08,1.89707813e-01
-6.05235938e-08,1.89692187e-01
-6.04835937e-08,1.89706250e-01
-6.04435937e-08,1.89693750e-01
-6.04035937e-08,1.89706250e-01
-6.03635937e-08,1.89693750e-01
-6.03235938e-08,1.89704687e-01
-6.02835937e-08,1.89695313e-01
-6.02435938e-08,1.89704687e-01
-6.02035937e-08,1.89695313e-01
-6.01635937e-08,1.89704687e-01
-6.01235937e-08,1.89695313e-01
-6.00835937e-08,1.89704687e-01
-6.00435938e-08,1.89695313e-01
-6.00035937e-08,1.89704687e-01
-5.99635938e-08,1.89695313e-01
-5.99235937e-08,1.89704687e-01
-5.98835937e-08,1.89695313e-01
-5.98435937e-08,1.89704687e-01
-5.98035937e-08,1.89695313e-01
-5.97635938e-08,1.89704687e-01
-5.97235937e-08,1.89695313e-01
-5.96835938e-08,1.89704687e-01
-5.96435937e-08,1.89695313e-01
-5.96035937e-08,1.89704687e-01
-5.95635937e-08,1.89695313e-01
-5.95235937e-08,1.89704687e-01
-5.94835937e-08,1.89695313e-01
-5.94435937e-08,1.89704687e-01
-5.94035937e-08,1.89695313e-01
-5.93635937e-08,1.89704687e-01
-5.93235937e-08,1.89695313e-01
-5.92835937e-08,1.89706250e-01
-5.92435937e-08,1.89693750e-01
-5.92035937e-08,1.89706250e-01
-5.91635937e-08,1.89692187e-01
-5.91235937e-08,1.89707813e-01
-5.90835937e-08,1.89690625e-01
-5.90435937e-08,1.89710938e-01
-5.90035937e-08,1.89687500e-01
-5.89635937e-08,1.89715625e-01
-5.89235937e-08,1.89679687e-01
-5.88835937e-08,1.89729688e-01
-5.88435937e-08,1.89645312e-01
-5.88035937e-08,1.89907812e-01
-5.87635937e-08,1.90154688e-01
-5.87235937e-08,1.90068750e-01
-5.86835937e-08,1.90121875e-01
-5.86435937e-08,1.90082813e-01
-5.86035937e-08,1.90114063e-01
-5.85635937e-08,1.90087500e-01
-5.85235937e-08,1.90110938e-01
-5.84835937e-08,1.90089063e-01
-5.84435937e-08,1.90109375e-01
-5.84035937e-08,1.90090625e-01
-5.83635937e-08,1.90109375e-01
-5.83235937e-08,1.90090625e-01
-5.82835937e-08,1.90109375e-01
-5.82435937e-08,1.90090625e-01
-5.82035937e-08,1.90110938e-01
-5.81635937e-08,1.90089063e-01
-5.81235937e-08,1.90112500e-01
-5.80835937e-08,1.90085937e-01
-5.80435937e-08,1.90117188e-01
-5.80035937e-08,1.90078125e-01
-5.79635937e-08,1.90131250e-01
-5.79235937e-08,1.90043750e-01
-5.78835937e-08,1.90309375e-01
-5.78435937e-08,1.90553125e-01
-5.78035937e-08,1.90470313e-01
-5.77635937e-08,1.90520313e-01
-5.77235937e-08,1.90484375e-01
-5.76835937e-08,1.90512500e-01
-5.76435937e-08,1.90489063e-01
-5.76035937e-08,1.90509375e-01
-5.75635937e-08,1.90492188e-01
-5.75235937e-08,1.90507813e-01
-5.74835937e-08,1.90493750e-01
-5.74435937e-08,1.90506250e-01
-5.74035937e-08,1.90493750e-01
-5.73635937e-08,1.90506250e-01
-5.73235937e-08,1.90493750e-01
-5.72835937e-08,1.90504688e-01
-5.72435937e-08,1.90495313e-01
-5.72035937e-08,1.90504688e-01
-5.71635937e-08,1.90495313e-01
-5.71235937e-08,1.90504688e-01
-5.70835937e-08,1.90495313e-01
-5.70435937e-08,1.90504688e-01
-5.70035937e-08,1.90495313e-01
-5.69635937e-08,1.90504688e-01
-5.69235937e-08,1.90493750e-01
-5.68835937e-08,1.90506250e-01
-5.68435937e-08,1.90493750e-01
-5.68035937e-08,1.90506250e-01
-5.67635937e-08,1.90492188e-01
-5.67235937e-08,1.90507813e-01
-5.66835937e-08,1.90492188e-01
-5.66435937e-08,1.90509375e-01
-5.66035937e-08,1.90489063e-01
-5.65635937e-08,1.90512500e-01
-5.65235937e-08,1.90484375e-01
-5.64835937e-08,1.90520313e-01
-5.64435937e-08,1.90468750e-01
-5.64035937e-08,1.90554688e-01
-5.63635937e-08,1.90292188e-01
-5.63235937e-08,1.90046875e-01
-5.62835937e-08,1.90129688e-01
-5.62435937e-08,1.90079688e-01
-5.62035937e-08,1.90115625e-01
-5.61635937e-08,1.90087500e-01
-5.61235937e-08,1.90110938e-01
-5.60835937e-08,1.90090625e-01
-5.60435937e-08,1.90107813e-01
-5.60035937e-08,1.90092188e-01
-5.59635937e-08,1.90106250e-01
-5.59235937e-08,1.90093750e-01
-5.58835937e-08,1.90106250e-01
-5.58435937e-08,1.90093750e-01
-5.58035937e-08,1.90104688e-01
-5.57635937e-08,1.90095313e-01
-5.57235937e-08,1.90104688e-01
-5.56835937e-08,1.90095313e-01
-5.56435937e-08,1.90104688e-01
-5.56035937e-08,1.90095313e-01
-5.55635937e-08,1.90104688e-01
-5.55235937e-08,1.90095313e-01
-5.54835937e-08,1.90104688e-01
-5.54435937e-08,1.90096875e-01
-5.54035937e-08,1.90103125e-01
-5.53635937e-08,1.90096875e-01
-5.53235937e-08,1.90103125e-01
-5.52835937e-08,1.90096875e-01
-5.52435937e-08,1.90103125e-01
-5.52035937e-08,1.90096875e-01
-5.51635937e-08,1.90103125e-01
-5.51235937e-08,1.90096875e-01
-5.50835937e-08,1.90103125e-01
-5.50435937e-08,1.90096875e-01
-5.50035937e-08,1.90103125e-01
-5.49635937e-08,1.90096875e-01
-5.49235937e-08,1.90103125e-01
-5.48835937e-08,1.90096875e-01
-5.48435937e-08,1.90103125e-01
-5.48035937e-08,1.90096875e-01
-5.47635937e-08,1.90104688e-01
-5.47235937e-08,1.90095313e-01
-5.46835937e-08,1.90104688e-01
-5.46435937e-08,1.90095313e-01
-5.46035937e-08,1.90104688e-01
-5.45635937e-08,1.90095313e-01
-5.45235937e-08,1.90104688e-01
-5.44835937e-08,1.90095313e-01
-5.44435937e-08,1.90104688e-01
-5.44035937e-08,1.90095313e-01
-5.43635937e-08,1.90104688e-01
-5.43235937e-08,1.90095313e-01
-5.42835937e-08,1.90106250e-01
-5.42435937e-08,1.90093750e-01
-5.42035937e-08,1.90106250e-01
-5.41635937e-08,1.90093750e-01
-5.41235937e-08,1.90106250e-01
-5.40835937e-08,1.90092188e-01
-5.40435937e-08,1.90107813e-01
-5.40035937e-08,1.90092188e-01
-5.39635937e-08,1.90109375e-01
-5.39235937e-08,1.90090625e-01
-5.38835937e-08,1.90110938e-01
-5.38435937e-08,1.90089063e-01
-5.38035937e-08,1.90112500e-01
-5.37635937e-08,1.90084375e-01
-5.37235937e-08,1.90118750e-01
-5.36835937e-08,1.90076563e-01
-5.36435937e-08,1.90134375e-01
-5.36035937e-08,1.90040625e-01
-5.35635937e-08,1.90312500e-01
-5.35235937e-08,1.90550000e-01
-5.34835937e-08,1.90473438e-01
-5.34435937e-08,1.90515625e-01
-5.34035937e-08,1.90489063e-01
-5.33635937e-08,1.90507813e-01
-5.33235937e-08,1.90495313e-01
-5.32835937e-08,1.90503125e-01
-5.32435937e-08,1.90498438e-01
-5.32035937e-08,1.90498438e-01
-5.31635937e-08,1.90503125e-01
-5.31235937e-08,1.90493750e-01
-5.30835937e-08,1.90509375e-01
-5.30435937e-08,1.90485938e-01
-5.30035937e-08,1.90525000e-01
-5.29635937e-08,1.90450000e-01
-5.29235938e-08,1.90703125e-01
-5.28835937e-08,1.90959375e-01
-5.28435937e-08,1.90864063e-01
-5.28035937e-08,1.90926563e-01
-5.27635937e-08,1.90878125e-01
-5.27235937e-08,1.90918750e-01
-5.26835937e-08,1.90882812e-01
-5.26435937e-08,1.90915625e-01
-5.26035937e-08,1.90884375e-01
-5.25635937e-08,1.90915625e-01
-5.25235937e-08,1.90884375e-01
-5.24835937e-08,1.90915625e-01
-5.24435937e-08,1.90882812e-01
-5.24035937e-08,1.90920312e-01
-5.23635937e-08,1.90875000e-01
-5.23235937e-08,1.90934375e-01
-5.22835937e-08,1.90842188e-01
-5.22435937e-08,1.91110937e-01
-5.22035937e-08,1.91351563e-01
-5.21635937e-08,1.91271875e-01
-5.21235937e-08,1.91318750e-01
-5.20835937e-08,1.91285938e-01
-5.20435937e-08,1.91310938e-01
-5.20035937e-08,1.91290625e-01
-5.19635937e-08,1.91307813e-01
-5.19235937e-08,1.91292188e-01
-5.18835937e-08,1.91307813e-01
-5.18435937e-08,1.91293750e-01
-5.18035937e-08,1.91306250e-01
-5.17635937e-08,1.91293750e-01
-5.17235937e-08,1.91306250e-01
-5.16835937e-08,1.91293750e-01
-5.16435937e-08,1.91306250e-01
-5.16035937e-08,1.91293750e-01
-5.15635937e-08,1.91306250e-01
-5.15235937e-08,1.91292188e-01
-5.14835937e-08,1.91307813e-01
-5.14435937e-08,1.91292188e-01
-5.14035937e-08,1.91309375e-01
-5.13635937e-08,1.91290625e-01
-5.13235937e-08,1.91310938e-01
-5.12835937e-08,1.91287500e-01
-5.12435937e-08,1.91314062e-01
-5.12035937e-08,1.91281250e-01
-5.11635937e-08,1.91323437e-01
-5.11235937e-08,1.91267188e-01
-5.10835937e-08,1.91357813e-01
-5.10435937e-08,1.91089063e-01
-5.10035938e-08,1.90848437e-01
-5.09635937e-08,1.90926563e-01
-5.09235937e-08,1.90882812e-01
-5.08835937e-08,1.90912500e-01
-5.08435937e-08,1.90890625e-01
-5.08035937e-08,1.90906250e-01
-5.07635937e-08,1.90895312e-01
-5.07235938e-08,1.90903125e-01
-5.06835937e-08,1.90898438e-01
-5.06435937e-08,1.90900000e-01
-5.06035937e-08,1.90903125e-01
-5.05635937e-08,1.90895312e-01
-5.05235937e-08,1.90906250e-01
-5.04835937e-08,1.90889063e-01
-5.04435937e-08,1.90915625e-01
-5.04035937e-08,1.90875000e-01
-5.03635937e-08,1.90950000e-01
-5.03235937e-08,1.90695313e-01
-5.02835937e-08,1.90442187e-01
-5.02435937e-08,1.90534375e-01
-5.02035937e-08,1.90475000e-01
-5.01635937e-08,1.90518750e-01
-5.01235937e-08,1.90484375e-01
-5.00835937e-08,1.90514062e-01
-5.00435937e-08,1.90487500e-01
-5.00035937e-08,1.90510938e-01
-4.99635937e-08,1.90490625e-01
-4.99235937e-08,1.90509375e-01
-4.98835937e-08,1.90492188e-01
-4.98435937e-08,1.90507813e-01
-4.98035937e-08,1.90492188e-01
-4.97635937e-08,1.90506250e-01
-4.97235937e-08,1.90493750e-01
-4.96835937e-08,1.90506250e-01
-4.96435937e-08,1.90493750e-01
-4.96035937e-08,1.90504688e-01
-4.95635937e-08,1.90495313e-01
-4.95235937e-08,1.90504688e-01
-4.94835937e-08,1.90495313e-01
-4.94435937e-08,1.90503125e-01
-4.94035937e-08,1.90496875e-01
-4.93635937e-08,1.90503125e-01
-4.93235937e-08,1.90498438e-01
-4.92835937e-08,1.90501562e-01
-4.92435937e-08,1.90500000e-01
-4.92035937e-08,1.90498438e-01
-4.91635937e-08,1.90501562e-01
-4.91235937e-08,1.90495313e-01
-4.90835938e-08,1.90507813e-01
-4.90435937e-08,1.90487500e-01
-4.90035937e-08,1.90521875e-01
-4.89635937e-08,1.90453125e-01
-4.89235937e-08,1.90700000e-01
-4.88835937e-08,1.90962500e-01
-4.88435937e-08,1.90860937e-01
-4.88035938e-08,1.90929688e-01
-4.87635937e-08,1.90875000e-01
-4.87235937e-08,1.90923438e-01
-4.86835937e-08,1.90879688e-01
-4.86435937e-08,1.90920312e-01
-4.86035937e-08,1.90879688e-01
-4.85635937e-08,1.90920312e-01
-4.85235938e-08,1.90879688e-01
-4.84835937e-08,1.90920312e-01
-4.84435937e-08,1.90878125e-01
-4.84035937e-08,1.90925000e-01
-4.83635937e-08,1.90870313e-01
-4.83235937e-08,1.90939063e-01
-4.82835937e-08,1.90835937e-01
-4.82435937e-08,1.91117188e-01
-4.82035937e-08,1.91345313e-01
-4.81635937e-08,1.91278125e-01
-4.81235937e-08,1.91312500e-01
-4.80835937e-08,1.91292188e-01
-4.80435937e-08,1.91304688e-01
-4.80035937e-08,1.91296875e-01
-4.79635937e-08,1.91301563e-01
-4.79235937e-08,1.91300000e-01
-4.78835937e-08,1.91300000e-01
-4.78435937e-08,1.91301563e-01
-4.78035937e-08,1.91298438e-01
-4.77635937e-08,1.91301563e-01
-4.77235937e-08,1.91296875e-01
-4.76835937e-08,1.91303125e-01
-4.76435937e-08,1.91296875e-01
-4.76035937e-08,1.91303125e-01
-4.75635937e-08,1.91296875e-01
-4.75235937e-08,1.91303125e-01
-4.74835937e-08,1.91295313e-01
-4.74435937e-08,1.91304688e-01
-4.74035937e-08,1.91295313e-01
-4.73635937e-08,1.91304688e-01
-4.73235937e-08,1.91295313e-01
-4.72835937e-08,1.91304688e-01
-4.72435937e-08,1.91293750e-01
-4.72035937e-08,1.91306250e-01
-4.71635938e-08,1.91293750e-01
-4.71235937e-08,1.91306250e-01
-4.70835937e-08,1.91293750e-01
-4.70435937e-08,1.91307813e-01
-4.70035937e-08,1.91292188e-01
-4.69635937e-08,1.91307813e-01
-4.69235937e-08,1.91290625e-01
-4.68835938e-08,1.91309375e-01
-4.68435937e-08,1.91289062e-01
-4.68035937e-08,1.91312500e-01
-4.67635937e-08,1.91285938e-01
-4.67235937e-08,1.91315625e-01
-4.66835937e-08,1.91281250e-01
-4.66435937e-08,1.91323437e-01
-4.66035938e-08,1.91265625e-01
-4.65635937e-08,1.91359375e-01
-4.65235937e-08,1.91087500e-01
-4.64835937e-08,1.90850000e-01
-4.64435937e-08,1.90926563e-01
-4.64035937e-08,1.90882812e-01
-4.63635937e-08,1.90912500e-01
-4.63235938e-08,1.90892188e-01
-4.62835937e-08,1.90906250e-01
-4.62435937e-08,1.90895312e-01
-4.62035937e-08,1.90903125e-01
-4.61635937e-08,1.90898438e-01
-4.61235937e-08,1.90901563e-01
-4.60835937e-08,1.90900000e-01
-4.60435937e-08,1.90900000e-01
-4.60035937e-08,1.90900000e-01
-4.59635937e-08,1.90898438e-01
-4.59235937e-08,1.90901563e-01
-4.58835937e-08,1.90896875e-01
-4.58435937e-08,1.90903125e-01
-4.58035937e-08,1.90895312e-01
-4.57635937e-08,1.90904688e-01
-4.57235937e-08,1.90893750e-01
-4.56835937e-08,1.90907812e-01
-4.56435937e-08,1.90892188e-01
-4.56035937e-08,1.90910938e-01
-4.55635937e-08,1.90887500e-01
-4.55235937e-08,1.90915625e-01
-4.54835937e-08,1.90878125e-01
-4.54435937e-08,1.90931250e-01
-4.54035937e-08,1.90843750e-01
-4.53635937e-08,1.91109375e-01
-4.53235937e-08,1.91351563e-01
-4.52835937e-08,1.91271875e-01
-4.52435938e-08,1.91317188e-01
-4.52035937e-08,1.91287500e-01
-4.51635937e-08,1.91307813e-01
-4.51235937e-08,1.91295313e-01
-4.50835937e-08,1.91301563e-01
-4.50435937e-08,1.91303125e-01
-4.50035937e-08,1.91290625e-01
-4.49635938e-08,1.91318750e-01
-4.49235937e-08,1.91256250e-01
-4.48835937e-08,1.91496875e-01
-4.48435937e-08,1.91765625e-01
-4.48035937e-08,1.91657812e-01
-4.47635937e-08,1.91732813e-01
-4.47235937e-08,1.91671875e-01
-4.46835938e-08,1.91726563e-01
-4.46435937e-08,1.91673438e-01
-4.46035937e-08,1.91728125e-01
-4.45635937e-08,1.91668750e-01
-4.45235937e-08,1.91740625e-01
-4.44835937e-08,1.91635938e-01
-4.44435937e-08,1.91917188e-01
-4.44035938e-08,1.92146875e-01
-4.43635937e-08,1.92076562e-01
-4.43235937e-08,1.92114063e-01
-4.42835937e-08,1.92090625e-01
-4.42435937e-08,1.92107813e-01
-4.42035937e-08,1.92093750e-01
-4.41635937e-08,1.92104688e-01
-4.41235938e-08,1.92095313e-01
-4.40835937e-08,1.92103125e-01
-4.40435937e-08,1.92096875e-01
-4.40035937e-08,1.92103125e-01
-4.39635937e-08,1.92096875e-01
-4.39235937e-08,1.92103125e-01
-4.38835937e-08,1.92096875e-01
-4.38435937e-08,1.92103125e-01
-4.38035937e-08,1.92096875e-01
-4.37635937e-08,1.92103125e-01
-4.37235937e-08,1.92095313e-01
-4.36835937e-08,1.92104688e-01
-4.36435937e-08,1.92093750e-01
-4.36035937e-08,1.92106250e-01
-4.35635937e-08,1.92092188e-01
-4.35235937e-08,1.92110937e-01
-4.34835937e-08,1.92085937e-01
-4.34435937e-08,1.92118750e-01
-4.34035937e-08,1.92071875e-01
-4.33635937e-08,1.92153125e-01
-4.33235938e-08,1.91893750e-01
-4.32835937e-08,1.91643750e-01
-4.32435937e-08,1.91732813e-01
-4.32035937e-08,1.91676563e-01
-4.31635937e-08,1.91718750e-01
-4.31235937e-08,1.91684375e-01
-4.30835937e-08,1.91712500e-01
-4.30435938e-08,1.91689063e-01
-4.30035937e-08,1.91710938e-01
-4.29635937e-08,1.91690625e-01
-4.29235937e-08,1.91709375e-01
-4.28835937e-08,1.91692187e-01
-4.28435937e-08,1.91707813e-01
-4.28035937e-08,1.91692187e-01
-4.27635938e-08,1.91707813e-01
-4.27235937e-08,1.91693750e-01
-4.26835937e-08,1.91706250e-01
-4.26435937e-08,1.91693750e-01
-4.26035937e-08,1.91706250e-01
-4.25635937e-08,1.91693750e-01
-4.25235937e-08,1.91706250e-01
-4.24835938e-08,1.91693750e-01
-4.24435937e-08,1.91704687e-01
-4.24035937e-08,1.91695313e-01
-4.23635937e-08,1.91704687e-01
-4.23235937e-08,1.91695313e-01
-4.22835937e-08,1.91704687e-01
-4.22435937e-08,1.91695313e-01
-4.22035938e-08,1.91704687e-01
-4.21635937e-08,1.91695313e-01
-4.21235937e-08,1.91703125e-01
-4.20835937e-08,1.91696875e-01
-4.20435937e-08,1.91703125e-01
-4.20035937e-08,1.91696875e-01
-4.19635937e-08,1.91701563e-01
-4.19235938e-08,1.91700000e-01
-4.18835937e-08,1.91700000e-01
-4.18435937e-08,1.91703125e-01
-4.18035937e-08,1.91695313e-01
-4.17635937e-08,1.91709375e-01
-4.17235937e-08,1.91681250e-01
-4.16835937e-08,1.91743750e-01
-4.16435937e-08,1.91503125e-01
-4.16035937e-08,1.91232813e-01
-4.15635937e-08,1.91343750e-01
-4.15235937e-08,1.91265625e-01
-4.14835937e-08,1.91331250e-01
-4.14435937e-08,1.91271875e-01
-4.14035938e-08,1.91328125e-01
-4.13635937e-08,1.91271875e-01
-4.13235937e-08,1.91329688e-01
-4.12835937e-08,1.91267188e-01
-4.12435937e-08,1.91337500e-01
-4.12035937e-08,1.91253125e-01
-4.11635937e-08,1.91371875e-01
-4.11235938e-08,1.91075000e-01
-4.10835937e-08,1.90864063e-01
-4.10435937e-08,1.90912500e-01
-4.10035937e-08,1.90898438e-01
-4.09635937e-08,1.90895312e-01
-4.09235937e-08,1.90909375e-01
-4.08835937e-08,1.90884375e-01
-4.08435938e-08,1.90921875e-01
-4.08035937e-08,1.90867188e-01
-4.07635937e-08,1.90959375e-01
-4.07235937e-08,1.90685938e-01
-4.06835937e-08,1.90453125e-01
-4.06435937e-08,1.90521875e-01
-4.06035937e-08,1.90489063e-01
-4.05635938e-08,1.90504688e-01
-4.05235937e-08,1.90500000e-01
-4.04835937e-08,1.90493750e-01
-4.04435937e-08,1.90512500e-01
-4.04035937e-08,1.90476563e-01
-4.03635937e-08,1.90550000e-01
-4.03235937e-08,1.90296875e-01
-4.02835938e-08,1.90042188e-01
-4.02435937e-08,1.90134375e-01
-4.02035937e-08,1.90076563e-01
-4.01635937e-08,1.90118750e-01
-4.01235937e-08,1.90084375e-01
-4.00835937e-08,1.90112500e-01
-4.00435937e-08,1.90089063e-01
-4.00035938e-08,1.90109375e-01
-3.99635937e-08,1.90092188e-01
-3.99235937e-08,1.90107813e-01
-3.98835937e-08,1.90093750e-01
-3.98435937e-08,1.90106250e-01
-3.98035937e-08,1.90095313e-01
-3.97635937e-08,1.90104688e-01
-3.97235937e-08,1.90095313e-01
-3.96835937e-08,1.90103125e-01
-3.96435937e-08,1.90096875e-01
-3.96035937e-08,1.90103125e-01
-3.95635937e-08,1.90096875e-01
-3.95235937e-08,1.90101563e-01
-3.94835938e-08,1.90098437e-01
-3.94435937e-08,1.90101563e-01
-3.94035937e-08,1.90098437e-01
-3.93635937e-08,1.90101563e-01
-3.93235937e-08,1.90100000e-01
-3.92835937e-08,1.90100000e-01
-3.92435937e-08,1.90100000e-01
-3.92035938e-08,1.90100000e-01
-3.91635937e-08,1.90101563e-01
-3.91235937e-08,1.90098437e-01
-3.90835937e-08,1.90101563e-01
-3.90435937e-08,1.90096875e-01
-3.90035937e-08,1.90103125e-01
-3.89635937e-08,1.90095313e-01
-3.89235938e-08,1.90104688e-01
-3.88835937e-08,1.90093750e-01
-3.88435937e-08,1.90107813e-01
-3.88035937e-08,1.90090625e-01
-3.87635937e-08,1.90112500e-01
-3.87235937e-08,1.90081250e-01
-3.86835937e-08,1.90128125e-01
-3.86435938e-08,1.90046875e-01
-3.86035937e-08,1.90306250e-01
-3.85635937e-08,1.90556250e-01
-3.85235937e-08,1.90467187e-01
