trails/0abb954fa332282a54c7a4841199d6d9/aes_ch1_20250507104113549.csv

Model,MSO66B
Label,
Waveform Type,ANALOG
Horizontal Units,s
Sample Interval,4.00000000e-11
Record Length,10000
Zero Index,1599.08593750
Vertical Units,A
ANALOG_Thumbnail,
yOffset,1.84500000e-01
yPosition,8.40000000e-01

Labels,
TIME,CH1
-6.39634375e-08,2.08090625e-01
-6.39234375e-08,2.08109375e-01
-6.38834375e-08,2.08090625e-01
-6.38434375e-08,2.08109375e-01
-6.38034375e-08,2.08090625e-01
-6.37634375e-08,2.08109375e-01
-6.37234375e-08,2.08090625e-01
-6.36834375e-08,2.08109375e-01
-6.36434375e-08,2.08090625e-01
-6.36034375e-08,2.08109375e-01
-6.35634375e-08,2.08090625e-01
-6.35234375e-08,2.08110938e-01
-6.34834375e-08,2.08089063e-01
-6.34434375e-08,2.08112500e-01
-6.34034375e-08,2.08085938e-01
-6.33634375e-08,2.08117188e-01
-6.33234375e-08,2.08078125e-01
-6.32834375e-08,2.08131250e-01
-6.32434375e-08,2.08043750e-01
-6.32034375e-08,2.08309375e-01
-6.31634375e-08,2.08553125e-01
-6.31234375e-08,2.08470313e-01
-6.30834375e-08,2.08520312e-01
-6.30434375e-08,2.08484375e-01
-6.30034375e-08,2.08512500e-01
-6.29634375e-08,2.08489063e-01
-6.29234375e-08,2.08509375e-01
-6.28834375e-08,2.08490625e-01
-6.28434375e-08,2.08507813e-01
-6.28034375e-08,2.08492188e-01
-6.27634375e-08,2.08507813e-01
-6.27234375e-08,2.08492188e-01
-6.26834375e-08,2.08507813e-01
-6.26434375e-08,2.08492188e-01
-6.26034375e-08,2.08507813e-01
-6.25634375e-08,2.08492188e-01
-6.25234375e-08,2.08507813e-01
-6.24834375e-08,2.08492188e-01
-6.24434375e-08,2.08509375e-01
-6.24034375e-08,2.08490625e-01
-6.23634375e-08,2.08510937e-01
-6.23234375e-08,2.08489063e-01
-6.22834375e-08,2.08512500e-01
-6.22434375e-08,2.08485937e-01
-6.22034375e-08,2.08515625e-01
-6.21634375e-08,2.08481250e-01
-6.21234375e-08,2.08525000e-01
-6.20834375e-08,2.08465625e-01
-6.20434375e-08,2.08559375e-01
-6.20034375e-08,2.08287500e-01
-6.19634375e-08,2.08050000e-01
-6.19234375e-08,2.08125000e-01
-6.18834375e-08,2.08084375e-01
-6.18434375e-08,2.08110938e-01
-6.18034375e-08,2.08092188e-01
-6.17634375e-08,2.08104687e-01
-6.17234375e-08,2.08096875e-01
-6.16834375e-08,2.08101563e-01
-6.16434375e-08,2.08100000e-01
-6.16034375e-08,2.08100000e-01
-6.15634375e-08,2.08101563e-01
-6.15234375e-08,2.08096875e-01
-6.14834375e-08,2.08104687e-01
-6.14434375e-08,2.08093750e-01
-6.14034375e-08,2.08107813e-01
-6.13634375e-08,2.08089063e-01
-6.13234375e-08,2.08114063e-01
-6.12834375e-08,2.08081250e-01
-6.12434375e-08,2.08129687e-01
-6.12034375e-08,2.08045313e-01
-6.11634375e-08,2.08307813e-01
-6.11234375e-08,2.08554688e-01
-6.10834375e-08,2.08470313e-01
-6.10434375e-08,2.08520312e-01
-6.10034375e-08,2.08484375e-01
-6.09634375e-08,2.08512500e-01
-6.09234375e-08,2.08490625e-01
-6.08834375e-08,2.08507813e-01
-6.08434375e-08,2.08493750e-01
-6.08034375e-08,2.08506250e-01
-6.07634375e-08,2.08495313e-01
-6.07234375e-08,2.08503125e-01
-6.06834375e-08,2.08496875e-01
-6.06434375e-08,2.08501563e-01
-6.06034375e-08,2.08498438e-01
-6.05634375e-08,2.08500000e-01
-6.05234375e-08,2.08500000e-01
-6.04834375e-08,2.08498438e-01
-6.04434375e-08,2.08503125e-01
-6.04034375e-08,2.08496875e-01
-6.03634375e-08,2.08504688e-01
-6.03234375e-08,2.08493750e-01
-6.02834375e-08,2.08509375e-01
-6.02434375e-08,2.08487500e-01
-6.02034375e-08,2.08517188e-01
-6.01634375e-08,2.08471875e-01
-6.01234375e-08,2.08553125e-01
-6.00834375e-08,2.08293750e-01
-6.00434375e-08,2.08043750e-01
-6.00034375e-08,2.08132813e-01
-5.99634375e-08,2.08078125e-01
-5.99234375e-08,2.08117188e-01
-5.98834375e-08,2.08085938e-01
-5.98434375e-08,2.08112500e-01
-5.98034375e-08,2.08089063e-01
-5.97634375e-08,2.08109375e-01
-5.97234375e-08,2.08092188e-01
-5.96834375e-08,2.08106250e-01
-5.96434375e-08,2.08093750e-01
-5.96034375e-08,2.08106250e-01
-5.95634375e-08,2.08095313e-01
-5.95234375e-08,2.08104687e-01
-5.94834375e-08,2.08096875e-01
-5.94434375e-08,2.08103125e-01
-5.94034375e-08,2.08096875e-01
-5.93634375e-08,2.08101563e-01
-5.93234375e-08,2.08098438e-01
-5.92834375e-08,2.08101563e-01
-5.92434375e-08,2.08100000e-01
-5.92034375e-08,2.08100000e-01
-5.91634375e-08,2.08101563e-01
-5.91234375e-08,2.08098438e-01
-5.90834375e-08,2.08103125e-01
-5.90434375e-08,2.08096875e-01
-5.90034375e-08,2.08104687e-01
-5.89634375e-08,2.08093750e-01
-5.89234375e-08,2.08109375e-01
-5.88834375e-08,2.08087500e-01
-5.88434375e-08,2.08117188e-01
-5.88034375e-08,2.08071875e-01
-5.87634375e-08,2.08153125e-01
-5.87234375e-08,2.07893750e-01
-5.86834375e-08,2.07643750e-01
-5.86434375e-08,2.07732813e-01
-5.86034375e-08,2.07678125e-01
-5.85634375e-08,2.07717188e-01
-5.85234375e-08,2.07685938e-01
-5.84834375e-08,2.07710937e-01
-5.84434375e-08,2.07690625e-01
-5.84034375e-08,2.07709375e-01
-5.83634375e-08,2.07692188e-01
-5.83234375e-08,2.07706250e-01
-5.82834375e-08,2.07695313e-01
-5.82434375e-08,2.07704688e-01
-5.82034375e-08,2.07696875e-01
-5.81634375e-08,2.07701562e-01
-5.81234375e-08,2.07698437e-01
-5.80834375e-08,2.07700000e-01
-5.80434375e-08,2.07703125e-01
-5.80034375e-08,2.07695313e-01
-5.79634375e-08,2.07707813e-01
-5.79234375e-08,2.07687500e-01
-5.78834375e-08,2.07723437e-01
-5.78434375e-08,2.07651562e-01
-5.78034375e-08,2.07901562e-01
-5.77634375e-08,2.08160938e-01
-5.77234375e-08,2.08062500e-01
-5.76834375e-08,2.08126563e-01
-5.76434375e-08,2.08078125e-01
-5.76034375e-08,2.08118750e-01
-5.75634375e-08,2.08082812e-01
-5.75234375e-08,2.08115625e-01
-5.74834375e-08,2.08085938e-01
-5.74434375e-08,2.08112500e-01
-5.74034375e-08,2.08087500e-01
-5.73634375e-08,2.08112500e-01
-5.73234375e-08,2.08089063e-01
-5.72834375e-08,2.08110938e-01
-5.72434375e-08,2.08089063e-01
-5.72034375e-08,2.08109375e-01
-5.71634375e-08,2.08090625e-01
-5.71234375e-08,2.08109375e-01
-5.70834375e-08,2.08090625e-01
-5.70434375e-08,2.08109375e-01
-5.70034375e-08,2.08090625e-01
-5.69634375e-08,2.08109375e-01
-5.69234375e-08,2.08090625e-01
-5.68834375e-08,2.08109375e-01
-5.68434375e-08,2.08090625e-01
-5.68034375e-08,2.08109375e-01
-5.67634375e-08,2.08090625e-01
-5.67234375e-08,2.08109375e-01
-5.66834375e-08,2.08090625e-01
-5.66434375e-08,2.08109375e-01
-5.66034375e-08,2.08090625e-01
-5.65634375e-08,2.08109375e-01
-5.65234375e-08,2.08089063e-01
-5.64834375e-08,2.08110938e-01
-5.64434375e-08,2.08087500e-01
-5.64034375e-08,2.08112500e-01
-5.63634375e-08,2.08084375e-01
-5.63234375e-08,2.08117188e-01
-5.62834375e-08,2.08078125e-01
-5.62434375e-08,2.08131250e-01
-5.62034375e-08,2.08043750e-01
-5.61634375e-08,2.08309375e-01
-5.61234375e-08,2.08553125e-01
-5.60834375e-08,2.08470313e-01
-5.60434375e-08,2.08521875e-01
-5.60034375e-08,2.08482813e-01
-5.59634375e-08,2.08514063e-01
-5.59234375e-08,2.08485937e-01
-5.58834375e-08,2.08512500e-01
-5.58434375e-08,2.08487500e-01
-5.58034375e-08,2.08514063e-01
-5.57634375e-08,2.08484375e-01
-5.57234375e-08,2.08518750e-01
-5.56834375e-08,2.08476563e-01
-5.56434375e-08,2.08532812e-01
-5.56034375e-08,2.08443750e-01
-5.55634375e-08,2.08709375e-01
-5.55234375e-08,2.08951563e-01
-5.54834375e-08,2.08871875e-01
-5.54434375e-08,2.08918750e-01
-5.54034375e-08,2.08885938e-01
-5.53634375e-08,2.08910938e-01
-5.53234375e-08,2.08892187e-01
-5.52834375e-08,2.08906250e-01
-5.52434375e-08,2.08895313e-01
-5.52034375e-08,2.08903125e-01
-5.51634375e-08,2.08898438e-01
-5.51234375e-08,2.08898438e-01
-5.50834375e-08,2.08903125e-01
-5.50434375e-08,2.08892187e-01
-5.50034375e-08,2.08912500e-01
-5.49634375e-08,2.08878125e-01
-5.49234375e-08,2.08948438e-01
-5.48834375e-08,2.08698438e-01
-5.48434375e-08,2.08439062e-01
-5.48034375e-08,2.08535938e-01
-5.47634375e-08,2.08475000e-01
-5.47234375e-08,2.08520312e-01
-5.46834375e-08,2.08484375e-01
-5.46434375e-08,2.08510937e-01
-5.46034375e-08,2.08495313e-01
-5.45634375e-08,2.08495313e-01
-5.45234375e-08,2.08529688e-01
-5.44834375e-08,2.08318750e-01
-5.44434375e-08,2.08018750e-01
-5.44034375e-08,2.08159375e-01
-5.43634375e-08,2.08046875e-01
-5.43234375e-08,2.08154687e-01
-5.42834375e-08,2.08037500e-01
-5.42434375e-08,2.08185938e-01
-5.42034375e-08,2.07860938e-01
-5.41634375e-08,2.07678125e-01
-5.41234375e-08,2.07696875e-01
-5.40834375e-08,2.07717188e-01
-5.40434375e-08,2.07667188e-01
-5.40034375e-08,2.07760938e-01
-5.39634375e-08,2.07484375e-01
-5.39234375e-08,2.07256250e-01
-5.38834375e-08,2.07315625e-01
-5.38434375e-08,2.07298438e-01
-5.38034375e-08,2.07287500e-01
-5.37634375e-08,2.07339063e-01
-5.37234375e-08,2.07106250e-01
-5.36834375e-08,2.06831250e-01
-5.36434375e-08,2.06945313e-01
-5.36034375e-08,2.06862500e-01
-5.35634375e-08,2.06937500e-01
-5.35234375e-08,2.06856250e-01
-5.34834375e-08,2.06965625e-01
-5.34434375e-08,2.06682813e-01
-5.34034375e-08,2.06453125e-01
-5.33634375e-08,2.06523438e-01
-5.33234375e-08,2.06484375e-01
-5.32834375e-08,2.06510938e-01
-5.32434375e-08,2.06492188e-01
-5.32034375e-08,2.06506250e-01
-5.31634375e-08,2.06495313e-01
-5.31234375e-08,2.06503125e-01
-5.30834375e-08,2.06498438e-01
-5.30434375e-08,2.06500000e-01
-5.30034375e-08,2.06504688e-01
-5.29634375e-08,2.06487500e-01
-5.29234375e-08,2.06535938e-01
-5.28834375e-08,2.06314063e-01
-5.28434375e-08,2.06018750e-01
-5.28034375e-08,2.06167188e-01
-5.27634375e-08,2.06017188e-01
-5.27234375e-08,2.06331250e-01
-5.26834375e-08,2.06532812e-01
-5.26434375e-08,2.06489063e-01
-5.26034375e-08,2.06503125e-01
-5.25634375e-08,2.06501563e-01
-5.25234375e-08,2.06496875e-01
-5.24834375e-08,2.06504688e-01
-5.24434375e-08,2.06493750e-01
-5.24034375e-08,2.06507812e-01
-5.23634375e-08,2.06490625e-01
-5.23234375e-08,2.06510938e-01
-5.22834375e-08,2.06487500e-01
-5.22434375e-08,2.06514063e-01
-5.22034375e-08,2.06482813e-01
-5.21634375e-08,2.06520312e-01
-5.21234375e-08,2.06475000e-01
-5.20834375e-08,2.06535938e-01
-5.20434375e-08,2.06439063e-01
-5.20034375e-08,2.06714063e-01
-5.19634375e-08,2.06946875e-01
-5.19234375e-08,2.06876562e-01
-5.18834375e-08,2.06912500e-01
-5.18434375e-08,2.06893750e-01
-5.18034375e-08,2.06903125e-01
-5.17634375e-08,2.06901562e-01
-5.17234375e-08,2.06895313e-01
-5.16834375e-08,2.06909375e-01
-5.16434375e-08,2.06884375e-01
-5.16034375e-08,2.06925000e-01
-5.15634375e-08,2.06850000e-01
-5.15234375e-08,2.07104687e-01
-5.14834375e-08,2.07357813e-01
-5.14434375e-08,2.07267188e-01
-5.14034375e-08,2.07323438e-01
-5.13634375e-08,2.07281250e-01
-5.13234375e-08,2.07315625e-01
-5.12834375e-08,2.07287500e-01
-5.12434375e-08,2.07310938e-01
-5.12034375e-08,2.07290625e-01
-5.11634375e-08,2.07309375e-01
-5.11234375e-08,2.07292188e-01
-5.10834375e-08,2.07307813e-01
-5.10434375e-08,2.07293750e-01
-5.10034375e-08,2.07306250e-01
-5.09634375e-08,2.07293750e-01
-5.09234375e-08,2.07306250e-01
-5.08834375e-08,2.07295312e-01
-5.08434375e-08,2.07304688e-01
-5.08034375e-08,2.07295312e-01
-5.07634375e-08,2.07304688e-01
-5.07234375e-08,2.07295312e-01
-5.06834375e-08,2.07303125e-01
-5.06434375e-08,2.07296875e-01
-5.06034375e-08,2.07303125e-01
-5.05634375e-08,2.07296875e-01
-5.05234375e-08,2.07303125e-01
-5.04834375e-08,2.07296875e-01
-5.04434375e-08,2.07303125e-01
-5.04034375e-08,2.07296875e-01
-5.03634375e-08,2.07303125e-01
-5.03234375e-08,2.07296875e-01
-5.02834375e-08,2.07303125e-01
-5.02434375e-08,2.07296875e-01
-5.02034375e-08,2.07301563e-01
-5.01634375e-08,2.07298438e-01
-5.01234375e-08,2.07301563e-01
-5.00834375e-08,2.07298438e-01
-5.00434375e-08,2.07301563e-01
-5.00034375e-08,2.07298438e-01
-4.99634375e-08,2.07301563e-01
-4.99234375e-08,2.07298438e-01
-4.98834375e-08,2.07301563e-01
-4.98434375e-08,2.07298438e-01
-4.98034375e-08,2.07301563e-01
-4.97634375e-08,2.07298438e-01
-4.97234375e-08,2.07301563e-01
-4.96834375e-08,2.07298438e-01
-4.96434375e-08,2.07301563e-01
-4.96034375e-08,2.07298438e-01
-4.95634375e-08,2.07301563e-01
-4.95234375e-08,2.07298438e-01
-4.94834375e-08,2.07301563e-01
-4.94434375e-08,2.07298438e-01
-4.94034375e-08,2.07301563e-01
-4.93634375e-08,2.07298438e-01
-4.93234375e-08,2.07301563e-01
-4.92834375e-08,2.07298438e-01
-4.92434375e-08,2.07300000e-01
-4.92034375e-08,2.07300000e-01
-4.91634375e-08,2.07300000e-01
-4.91234375e-08,2.07300000e-01
-4.90834375e-08,2.07300000e-01
-4.90434375e-08,2.07300000e-01
-4.90034375e-08,2.07300000e-01
-4.89634375e-08,2.07300000e-01
-4.89234375e-08,2.07300000e-01
-4.88834375e-08,2.07300000e-01
-4.88434375e-08,2.07300000e-01
-4.88034375e-08,2.07300000e-01
-4.87634375e-08,2.07300000e-01
-4.87234375e-08,2.07300000e-01
-4.86834375e-08,2.07300000e-01
-4.86434375e-08,2.07301563e-01
-4.86034375e-08,2.07298438e-01
-4.85634375e-08,2.07301563e-01
-4.85234375e-08,2.07298438e-01
-4.84834375e-08,2.07301563e-01
-4.84434375e-08,2.07296875e-01
-4.84034375e-08,2.07303125e-01
-4.83634375e-08,2.07296875e-01
-4.83234375e-08,2.07304688e-01
-4.82834375e-08,2.07295312e-01
-4.82434375e-08,2.07306250e-01
-4.82034375e-08,2.07290625e-01
-4.81634375e-08,2.07312500e-01
-4.81234375e-08,2.07282812e-01
-4.80834375e-08,2.07326563e-01
-4.80434375e-08,2.07248437e-01
-4.80034375e-08,2.07504688e-01
-4.79634375e-08,2.07757812e-01
-4.79234375e-08,2.07665625e-01
-4.78834375e-08,2.07725000e-01
-4.78434375e-08,2.07679688e-01
-4.78034375e-08,2.07717188e-01
-4.77634375e-08,2.07684375e-01
-4.77234375e-08,2.07714063e-01
-4.76834375e-08,2.07685938e-01
-4.76434375e-08,2.07712500e-01
-4.76034375e-08,2.07687500e-01
-4.75634375e-08,2.07712500e-01
-4.75234375e-08,2.07687500e-01
-4.74834375e-08,2.07712500e-01
-4.74434375e-08,2.07687500e-01
-4.74034375e-08,2.07712500e-01
-4.73634375e-08,2.07687500e-01
-4.73234375e-08,2.07712500e-01
-4.72834375e-08,2.07685938e-01
-4.72434375e-08,2.07714063e-01
-4.72034375e-08,2.07684375e-01
-4.71634375e-08,2.07717188e-01
-4.71234375e-08,2.07681250e-01
-4.70834375e-08,2.07721875e-01
-4.70434375e-08,2.07673438e-01
-4.70034375e-08,2.07737500e-01
-4.69634375e-08,2.07637500e-01
-4.69234375e-08,2.07915625e-01
-4.68834375e-08,2.08146875e-01
-4.68434375e-08,2.08078125e-01
-4.68034375e-08,2.08112500e-01
-4.67634375e-08,2.08092188e-01
-4.67234375e-08,2.08104687e-01
-4.66834375e-08,2.08098438e-01
-4.66434375e-08,2.08100000e-01
-4.66034375e-08,2.08103125e-01
-4.65634375e-08,2.08095313e-01
-4.65234375e-08,2.08106250e-01
-4.64834375e-08,2.08090625e-01
-4.64434375e-08,2.08112500e-01
-4.64034375e-08,2.08081250e-01
-4.63634375e-08,2.08128125e-01
-4.63234375e-08,2.08045313e-01
-4.62834375e-08,2.08307813e-01
-4.62434375e-08,2.08554688e-01
-4.62034375e-08,2.08470313e-01
-4.61634375e-08,2.08520312e-01
-4.61234375e-08,2.08484375e-01
-4.60834375e-08,2.08512500e-01
-4.60434375e-08,2.08490625e-01
-4.60034375e-08,2.08507813e-01
-4.59634375e-08,2.08493750e-01
-4.59234375e-08,2.08504688e-01
-4.58834375e-08,2.08496875e-01
-4.58434375e-08,2.08501563e-01
-4.58034375e-08,2.08498438e-01
-4.57634375e-08,2.08500000e-01
-4.57234375e-08,2.08503125e-01
-4.56834375e-08,2.08495313e-01
-4.56434375e-08,2.08507813e-01
-4.56034375e-08,2.08485937e-01
-4.55634375e-08,2.08523438e-01
-4.55234375e-08,2.08451563e-01
-4.54834375e-08,2.08701562e-01
-4.54434375e-08,2.08960937e-01
-4.54034375e-08,2.08862500e-01
-4.53634375e-08,2.08928125e-01
-4.53234375e-08,2.08876563e-01
-4.52834375e-08,2.08920313e-01
-4.52434375e-08,2.08882813e-01
-4.52034375e-08,2.08915625e-01
-4.51634375e-08,2.08884375e-01
-4.51234375e-08,2.08914062e-01
-4.50834375e-08,2.08885938e-01
-4.50434375e-08,2.08914062e-01
-4.50034375e-08,2.08885938e-01
-4.49634375e-08,2.08914062e-01
-4.49234375e-08,2.08885938e-01
-4.48834375e-08,2.08914062e-01
-4.48434375e-08,2.08884375e-01
-4.48034375e-08,2.08915625e-01
-4.47634375e-08,2.08882813e-01
-4.47234375e-08,2.08918750e-01
-4.46834375e-08,2.08878125e-01
-4.46434375e-08,2.08926563e-01
-4.46034375e-08,2.08864063e-01
-4.45634375e-08,2.08960937e-01
-4.45234375e-08,2.08685938e-01
-4.44834375e-08,2.08451563e-01
-4.44434375e-08,2.08525000e-01
-4.44034375e-08,2.08484375e-01
-4.43634375e-08,2.08510937e-01
-4.43234375e-08,2.08492188e-01
-4.42834375e-08,2.08506250e-01
-4.42434375e-08,2.08495313e-01
-4.42034375e-08,2.08503125e-01
-4.41634375e-08,2.08498438e-01
-4.41234375e-08,2.08501563e-01
-4.40834375e-08,2.08498438e-01
-4.40434375e-08,2.08500000e-01
-4.40034375e-08,2.08500000e-01
-4.39634375e-08,2.08500000e-01
-4.39234375e-08,2.08500000e-01
-4.38834375e-08,2.08498438e-01
-4.38434375e-08,2.08501563e-01
-4.38034375e-08,2.08498438e-01
-4.37634375e-08,2.08501563e-01
-4.37234375e-08,2.08498438e-01
-4.36834375e-08,2.08501563e-01
-4.36434375e-08,2.08498438e-01
-4.36034375e-08,2.08501563e-01
-4.35634375e-08,2.08496875e-01
-4.35234375e-08,2.08503125e-01
-4.34834375e-08,2.08496875e-01
-4.34434375e-08,2.08503125e-01
-4.34034375e-08,2.08496875e-01
-4.33634375e-08,2.08503125e-01
-4.33234375e-08,2.08495313e-01
-4.32834375e-08,2.08504688e-01
-4.32434375e-08,2.08495313e-01
-4.32034375e-08,2.08504688e-01
-4.31634375e-08,2.08493750e-01
-4.31234375e-08,2.08506250e-01
-4.30834375e-08,2.08493750e-01
-4.30434375e-08,2.08507813e-01
-4.30034375e-08,2.08492188e-01
-4.29634375e-08,2.08509375e-01
-4.29234375e-08,2.08489063e-01
-4.28834375e-08,2.08512500e-01
-4.28434375e-08,2.08484375e-01
-4.28034375e-08,2.08521875e-01
-4.27634375e-08,2.08468750e-01
-4.27234375e-08,2.08556250e-01
-4.26834375e-08,2.08290625e-01
-4.26434375e-08,2.08046875e-01
-4.26034375e-08,2.08129687e-01
-4.25634375e-08,2.08079687e-01
-4.25234375e-08,2.08114063e-01
-4.24834375e-08,2.08089063e-01
-4.24434375e-08,2.08109375e-01
-4.24034375e-08,2.08092188e-01
-4.23634375e-08,2.08106250e-01
-4.23234375e-08,2.08093750e-01
-4.22834375e-08,2.08104687e-01
-4.22434375e-08,2.08095313e-01
-4.22034375e-08,2.08103125e-01
-4.21634375e-08,2.08096875e-01
-4.21234375e-08,2.08103125e-01
-4.20834375e-08,2.08098438e-01
-4.20434375e-08,2.08101563e-01
-4.20034375e-08,2.08100000e-01
-4.19634375e-08,2.08100000e-01
-4.19234375e-08,2.08100000e-01
-4.18834375e-08,2.08098438e-01
-4.18434375e-08,2.08101563e-01
-4.18034375e-08,2.08096875e-01
-4.17634375e-08,2.08104687e-01
-4.17234375e-08,2.08093750e-01
-4.16834375e-08,2.08107813e-01
-4.16434375e-08,2.08089063e-01
-4.16034375e-08,2.08115625e-01
-4.15634375e-08,2.08075000e-01
-4.15234375e-08,2.08150000e-01
-4.14834375e-08,2.07896875e-01
-4.14434375e-08,2.07640625e-01
-4.14034375e-08,2.07735938e-01
-4.13634375e-08,2.07673438e-01
-4.13234375e-08,2.07721875e-01
-4.12834375e-08,2.07681250e-01
-4.12434375e-08,2.07717188e-01
-4.12034375e-08,2.07684375e-01
-4.11634375e-08,2.07715625e-01
-4.11234375e-08,2.07684375e-01
-4.10834375e-08,2.07715625e-01
-4.10434375e-08,2.07682813e-01
-4.10034375e-08,2.07718750e-01
-4.09634375e-08,2.07679688e-01
-4.09234375e-08,2.07725000e-01
-4.08834375e-08,2.07665625e-01
-4.08434375e-08,2.07759375e-01
-4.08034375e-08,2.07487500e-01
-4.07634375e-08,2.07250000e-01
-4.07234375e-08,2.07326563e-01
-4.06834375e-08,2.07281250e-01
-4.06434375e-08,2.07314063e-01
-4.06034375e-08,2.07289063e-01
-4.05634375e-08,2.07309375e-01
-4.05234375e-08,2.07292188e-01
-4.04834375e-08,2.07307813e-01
-4.04434375e-08,2.07293750e-01
-4.04034375e-08,2.07306250e-01
-4.03634375e-08,2.07293750e-01
-4.03234375e-08,2.07306250e-01
-4.02834375e-08,2.07293750e-01
-4.02434375e-08,2.07306250e-01
-4.02034375e-08,2.07292188e-01
-4.01634375e-08,2.07307813e-01
-4.01234375e-08,2.07290625e-01
-4.00834375e-08,2.07310938e-01
-4.00434375e-08,2.07287500e-01
-4.00034375e-08,2.07315625e-01
-3.99634375e-08,2.07279688e-01
-3.99234375e-08,2.07331250e-01
-3.98834375e-08,2.07243750e-01
-3.98434375e-08,2.07509375e-01
-3.98034375e-08,2.07753125e-01
-3.97634375e-08,2.07670313e-01
-3.97234375e-08,2.07718750e-01
-3.96834375e-08,2.07685938e-01
-3.96434375e-08,2.07710937e-01
-3.96034375e-08,2.07692188e-01
-3.95634375e-08,2.07704688e-01
-3.95234375e-08,2.07696875e-01
-3.94834375e-08,2.07700000e-01
-3.94434375e-08,2.07703125e-01
-3.94034375e-08,2.07690625e-01
-3.93634375e-08,2.07718750e-01
-3.93234375e-08,2.07656250e-01
-3.92834375e-08,2.07896875e-01
-3.92434375e-08,2.08165625e-01
-3.92034375e-08,2.08059375e-01
-3.91634375e-08,2.08132813e-01
-3.91234375e-08,2.08073438e-01
-3.90834375e-08,2.08125000e-01
-3.90434375e-08,2.08076563e-01
-3.90034375e-08,2.08121875e-01
-3.89634375e-08,2.08078125e-01
-3.89234375e-08,2.08121875e-01
-3.88834375e-08,2.08078125e-01
-3.88434375e-08,2.08121875e-01
-3.88034375e-08,2.08076563e-01
-3.87634375e-08,2.08126563e-01
-3.87234375e-08,2.08068750e-01
-3.86834375e-08,2.08140625e-01
-3.86434375e-08,2.08034375e-01
-3.86034375e-08,2.08318750e-01
-3.85634375e-08,2.08543750e-01
-3.85234375e-08,2.08479688e-01
