trails/0abb954fa332282a54c7a4841199d6d9/aes_ch1_20250507103641810.csv

Model,MSO66B
Label,
Waveform Type,ANALOG
Horizontal Units,s
Sample Interval,4.00000000e-11
Record Length,10000
Zero Index,1599.08203125
Vertical Units,A
ANALOG_Thumbnail,
yOffset,1.84500000e-01
yPosition,8.40000000e-01

Labels,
TIME,CH1
-6.39632812e-08,1.74295312e-01
-6.39232812e-08,1.74565625e-01
-6.38832812e-08,1.74459375e-01
-6.38432812e-08,1.74529688e-01
-6.38032812e-08,1.74476563e-01
-6.37632813e-08,1.74518750e-01
-6.37232812e-08,1.74484375e-01
-6.36832812e-08,1.74510938e-01
-6.36432812e-08,1.74492188e-01
-6.36032812e-08,1.74501563e-01
-6.35632812e-08,1.74509375e-01
-6.35232812e-08,1.74465625e-01
-6.34832813e-08,1.74687500e-01
-6.34432812e-08,1.74973437e-01
-6.34032812e-08,1.74850000e-01
-6.33632812e-08,1.74940625e-01
-6.33232812e-08,1.74865625e-01
-6.32832812e-08,1.74931250e-01
-6.32432812e-08,1.74870313e-01
-6.32032813e-08,1.74928125e-01
-6.31632812e-08,1.74871875e-01
-6.31232812e-08,1.74926562e-01
-6.30832812e-08,1.74873438e-01
-6.30432812e-08,1.74926562e-01
-6.30032812e-08,1.74873438e-01
-6.29632812e-08,1.74926562e-01
-6.29232813e-08,1.74871875e-01
-6.28832812e-08,1.74928125e-01
-6.28432812e-08,1.74870313e-01
-6.28032812e-08,1.74932813e-01
-6.27632812e-08,1.74864063e-01
-6.27232812e-08,1.74940625e-01
-6.26832812e-08,1.74850000e-01
-6.26432813e-08,1.74975000e-01
-6.26032812e-08,1.74671875e-01
-6.25632812e-08,1.74467188e-01
-6.25232812e-08,1.74507812e-01
-6.24832812e-08,1.74501563e-01
-6.24432812e-08,1.74492188e-01
-6.24032812e-08,1.74512500e-01
-6.23632813e-08,1.74484375e-01
-6.23232812e-08,1.74518750e-01
-6.22832812e-08,1.74476563e-01
-6.22432812e-08,1.74529688e-01
-6.22032812e-08,1.74459375e-01
-6.21632812e-08,1.74567187e-01
-6.21232812e-08,1.74279688e-01
-6.20832813e-08,1.74059375e-01
-6.20432812e-08,1.74114062e-01
-6.20032812e-08,1.74095313e-01
-6.19632812e-08,1.74096875e-01
-6.19232812e-08,1.74107813e-01
-6.18832813e-08,1.74085938e-01
-6.18432812e-08,1.74120313e-01
-6.18032813e-08,1.74067187e-01
-6.17632812e-08,1.74157813e-01
-6.17232812e-08,1.73887500e-01
-6.16832812e-08,1.73651562e-01
-6.16432812e-08,1.73723437e-01
-6.16032813e-08,1.73687500e-01
-6.15632812e-08,1.73706250e-01
-6.15232813e-08,1.73698437e-01
-6.14832812e-08,1.73698437e-01
-6.14432812e-08,1.73706250e-01
-6.14032812e-08,1.73689063e-01
-6.13632812e-08,1.73717188e-01
-6.13232813e-08,1.73673437e-01
-6.12832812e-08,1.73753125e-01
-6.12432813e-08,1.73493750e-01
-6.12032812e-08,1.73245312e-01
-6.11632812e-08,1.73329687e-01
-6.11232812e-08,1.73279688e-01
-6.10832812e-08,1.73314063e-01
-6.10432813e-08,1.73289063e-01
-6.10032812e-08,1.73307813e-01
-6.09632813e-08,1.73293750e-01
-6.09232812e-08,1.73304687e-01
-6.08832812e-08,1.73296875e-01
-6.08432812e-08,1.73301563e-01
-6.08032812e-08,1.73298438e-01
-6.07632813e-08,1.73300000e-01
-6.07232812e-08,1.73301563e-01
-6.06832813e-08,1.73296875e-01
-6.06432812e-08,1.73304687e-01
-6.06032812e-08,1.73293750e-01
-6.05632812e-08,1.73309375e-01
-6.05232812e-08,1.73287500e-01
-6.04832813e-08,1.73317187e-01
-6.04432812e-08,1.73271875e-01
-6.04032813e-08,1.73353125e-01
-6.03632812e-08,1.73093750e-01
-6.03232812e-08,1.72843750e-01
-6.02832812e-08,1.72931250e-01
-6.02432812e-08,1.72878125e-01
-6.02032813e-08,1.72917188e-01
-6.01632812e-08,1.72885938e-01
-6.01232813e-08,1.72910938e-01
-6.00832812e-08,1.72890625e-01
-6.00432812e-08,1.72907813e-01
-6.00032812e-08,1.72892188e-01
-5.99632812e-08,1.72906250e-01
-5.99232813e-08,1.72893750e-01
-5.98832812e-08,1.72904688e-01
-5.98432812e-08,1.72895313e-01
-5.98032812e-08,1.72904688e-01
-5.97632812e-08,1.72896875e-01
-5.97232812e-08,1.72903125e-01
-5.96832812e-08,1.72896875e-01
-5.96432813e-08,1.72901562e-01
-5.96032812e-08,1.72898438e-01
-5.95632812e-08,1.72901562e-01
-5.95232812e-08,1.72898438e-01
-5.94832812e-08,1.72900000e-01
-5.94432812e-08,1.72900000e-01
-5.94032812e-08,1.72900000e-01
-5.93632812e-08,1.72900000e-01
-5.93232812e-08,1.72898438e-01
-5.92832812e-08,1.72901562e-01
-5.92432812e-08,1.72896875e-01
-5.92032812e-08,1.72903125e-01
-5.91632812e-08,1.72895313e-01
-5.91232812e-08,1.72906250e-01
-5.90832812e-08,1.72892188e-01
-5.90432812e-08,1.72910938e-01
-5.90032812e-08,1.72884375e-01
-5.89632812e-08,1.72925000e-01
-5.89232812e-08,1.72850000e-01
-5.88832812e-08,1.73103125e-01
-5.88432812e-08,1.73359375e-01
-5.88032812e-08,1.73264063e-01
-5.87632812e-08,1.73328125e-01
-5.87232812e-08,1.73276563e-01
-5.86832812e-08,1.73321875e-01
-5.86432812e-08,1.73278125e-01
-5.86032812e-08,1.73323438e-01
-5.85632812e-08,1.73273438e-01
-5.85232812e-08,1.73334375e-01
-5.84832812e-08,1.73242188e-01
-5.84432812e-08,1.73510938e-01
-5.84032812e-08,1.73753125e-01
-5.83632812e-08,1.73668750e-01
-5.83232812e-08,1.73723437e-01
-5.82832812e-08,1.73679688e-01
-5.82432812e-08,1.73720313e-01
-5.82032812e-08,1.73676563e-01
-5.81632812e-08,1.73731250e-01
-5.81232812e-08,1.73645313e-01
-5.80832812e-08,1.73907813e-01
-5.80432812e-08,1.74156250e-01
-5.80032812e-08,1.74067187e-01
-5.79632812e-08,1.74125000e-01
-5.79232812e-08,1.74078125e-01
-5.78832812e-08,1.74120313e-01
-5.78432812e-08,1.74079687e-01
-5.78032812e-08,1.74121875e-01
-5.77632812e-08,1.74073438e-01
-5.77232812e-08,1.74134375e-01
-5.76832812e-08,1.74040625e-01
-5.76432812e-08,1.74310938e-01
-5.76032812e-08,1.74551563e-01
-5.75632812e-08,1.74471875e-01
-5.75232812e-08,1.74518750e-01
-5.74832812e-08,1.74485937e-01
-5.74432812e-08,1.74510938e-01
-5.74032812e-08,1.74490625e-01
-5.73632812e-08,1.74507812e-01
-5.73232812e-08,1.74492188e-01
-5.72832812e-08,1.74506250e-01
-5.72432812e-08,1.74493750e-01
-5.72032812e-08,1.74506250e-01
-5.71632812e-08,1.74495312e-01
-5.71232812e-08,1.74504688e-01
-5.70832812e-08,1.74495312e-01
-5.70432812e-08,1.74504688e-01
-5.70032812e-08,1.74495312e-01
-5.69632812e-08,1.74504688e-01
-5.69232812e-08,1.74495312e-01
-5.68832812e-08,1.74504688e-01
-5.68432812e-08,1.74495312e-01
-5.68032812e-08,1.74504688e-01
-5.67632812e-08,1.74495312e-01
-5.67232812e-08,1.74504688e-01
-5.66832812e-08,1.74495312e-01
-5.66432812e-08,1.74504688e-01
-5.66032812e-08,1.74495312e-01
-5.65632812e-08,1.74504688e-01
-5.65232812e-08,1.74495312e-01
-5.64832812e-08,1.74504688e-01
-5.64432812e-08,1.74493750e-01
-5.64032812e-08,1.74506250e-01
-5.63632812e-08,1.74493750e-01
-5.63232812e-08,1.74506250e-01
-5.62832812e-08,1.74493750e-01
-5.62432812e-08,1.74506250e-01
-5.62032812e-08,1.74492188e-01
-5.61632812e-08,1.74507812e-01
-5.61232812e-08,1.74492188e-01
-5.60832812e-08,1.74507812e-01
-5.60432812e-08,1.74490625e-01
-5.60032812e-08,1.74509375e-01
-5.59632812e-08,1.74489063e-01
-5.59232812e-08,1.74512500e-01
-5.58832812e-08,1.74485937e-01
-5.58432812e-08,1.74515625e-01
-5.58032812e-08,1.74481250e-01
-5.57632812e-08,1.74523438e-01
-5.57232812e-08,1.74465625e-01
-5.56832812e-08,1.74559375e-01
-5.56432812e-08,1.74287500e-01
-5.56032812e-08,1.74050000e-01
-5.55632812e-08,1.74126562e-01
-5.55232812e-08,1.74084375e-01
-5.54832812e-08,1.74110938e-01
-5.54432812e-08,1.74092187e-01
-5.54032812e-08,1.74106250e-01
-5.53632812e-08,1.74096875e-01
-5.53232812e-08,1.74101563e-01
-5.52832812e-08,1.74098438e-01
-5.52432812e-08,1.74100000e-01
-5.52032812e-08,1.74101563e-01
-5.51632812e-08,1.74098438e-01
-5.51232812e-08,1.74103125e-01
-5.50832812e-08,1.74095313e-01
-5.50432812e-08,1.74106250e-01
-5.50032812e-08,1.74092187e-01
-5.49632812e-08,1.74109375e-01
-5.49232812e-08,1.74085938e-01
-5.48832812e-08,1.74118750e-01
-5.48432812e-08,1.74071875e-01
-5.48032812e-08,1.74153125e-01
-5.47632812e-08,1.73893750e-01
-5.47232812e-08,1.73645313e-01
-5.46832812e-08,1.73731250e-01
-5.46432812e-08,1.73678125e-01
-5.46032812e-08,1.73717188e-01
-5.45632812e-08,1.73687500e-01
-5.45232812e-08,1.73710937e-01
-5.44832812e-08,1.73690625e-01
-5.44432812e-08,1.73707813e-01
-5.44032812e-08,1.73692188e-01
-5.43632812e-08,1.73706250e-01
-5.43232812e-08,1.73693750e-01
-5.42832812e-08,1.73704688e-01
-5.42432812e-08,1.73695313e-01
-5.42032812e-08,1.73704688e-01
-5.41632812e-08,1.73696875e-01
-5.41232812e-08,1.73703125e-01
-5.40832812e-08,1.73696875e-01
-5.40432812e-08,1.73703125e-01
-5.40032812e-08,1.73698437e-01
-5.39632812e-08,1.73701563e-01
-5.39232812e-08,1.73698437e-01
-5.38832812e-08,1.73701563e-01
-5.38432812e-08,1.73698437e-01
-5.38032812e-08,1.73701563e-01
-5.37632812e-08,1.73700000e-01
-5.37232812e-08,1.73700000e-01
-5.36832812e-08,1.73700000e-01
-5.36432812e-08,1.73700000e-01
-5.36032812e-08,1.73701563e-01
-5.35632812e-08,1.73698437e-01
-5.35232812e-08,1.73701563e-01
-5.34832812e-08,1.73698437e-01
-5.34432812e-08,1.73703125e-01
-5.34032812e-08,1.73696875e-01
-5.33632812e-08,1.73704688e-01
-5.33232812e-08,1.73693750e-01
-5.32832812e-08,1.73706250e-01
-5.32432812e-08,1.73690625e-01
-5.32032812e-08,1.73712500e-01
-5.31632812e-08,1.73682813e-01
-5.31232812e-08,1.73726563e-01
-5.30832812e-08,1.73648438e-01
-5.30432812e-08,1.73904688e-01
-5.30032812e-08,1.74159375e-01
-5.29632812e-08,1.74064063e-01
-5.29232812e-08,1.74126562e-01
-5.28832812e-08,1.74078125e-01
-5.28432812e-08,1.74120313e-01
-5.28032812e-08,1.74079687e-01
-5.27632812e-08,1.74121875e-01
-5.27232812e-08,1.74075000e-01
-5.26832812e-08,1.74134375e-01
-5.26432812e-08,1.74042188e-01
-5.26032812e-08,1.74309375e-01
-5.25632813e-08,1.74554687e-01
-5.25232812e-08,1.74468750e-01
-5.24832812e-08,1.74523438e-01
-5.24432812e-08,1.74479688e-01
-5.24032812e-08,1.74518750e-01
-5.23632812e-08,1.74481250e-01
-5.23232812e-08,1.74520312e-01
-5.22832812e-08,1.74475000e-01
-5.22432812e-08,1.74534375e-01
-5.22032812e-08,1.74442188e-01
-5.21632812e-08,1.74710937e-01
-5.21232812e-08,1.74951563e-01
-5.20832812e-08,1.74871875e-01
-5.20432812e-08,1.74918750e-01
-5.20032812e-08,1.74885938e-01
-5.19632812e-08,1.74910938e-01
-5.19232812e-08,1.74892188e-01
-5.18832812e-08,1.74907813e-01
-5.18432812e-08,1.74893750e-01
-5.18032812e-08,1.74904688e-01
-5.17632812e-08,1.74895313e-01
-5.17232812e-08,1.74903125e-01
-5.16832812e-08,1.74896875e-01
-5.16432812e-08,1.74903125e-01
-5.16032812e-08,1.74898438e-01
-5.15632812e-08,1.74901562e-01
-5.15232812e-08,1.74898438e-01
-5.14832812e-08,1.74901562e-01
-5.14432812e-08,1.74900000e-01
-5.14032812e-08,1.74900000e-01
-5.13632812e-08,1.74900000e-01
-5.13232812e-08,1.74900000e-01
-5.12832812e-08,1.74901562e-01
-5.12432812e-08,1.74898438e-01
-5.12032812e-08,1.74901562e-01
-5.11632812e-08,1.74896875e-01
-5.11232812e-08,1.74903125e-01
-5.10832812e-08,1.74895313e-01
-5.10432812e-08,1.74906250e-01
-5.10032812e-08,1.74892188e-01
-5.09632812e-08,1.74909375e-01
-5.09232812e-08,1.74887500e-01
-5.08832812e-08,1.74918750e-01
-5.08432812e-08,1.74871875e-01
-5.08032812e-08,1.74953125e-01
-5.07632812e-08,1.74693750e-01
-5.07232812e-08,1.74443750e-01
-5.06832812e-08,1.74532812e-01
-5.06432813e-08,1.74478125e-01
-5.06032812e-08,1.74517188e-01
-5.05632812e-08,1.74485937e-01
-5.05232812e-08,1.74512500e-01
-5.04832812e-08,1.74489063e-01
-5.04432812e-08,1.74509375e-01
-5.04032812e-08,1.74490625e-01
-5.03632813e-08,1.74507812e-01
-5.03232812e-08,1.74492188e-01
-5.02832812e-08,1.74506250e-01
-5.02432812e-08,1.74493750e-01
-5.02032812e-08,1.74506250e-01
-5.01632812e-08,1.74495312e-01
-5.01232812e-08,1.74504688e-01
-5.00832812e-08,1.74495312e-01
-5.00432812e-08,1.74503125e-01
-5.00032812e-08,1.74496875e-01
-4.99632812e-08,1.74503125e-01
-4.99232812e-08,1.74498438e-01
-4.98832812e-08,1.74501563e-01
-4.98432812e-08,1.74498438e-01
-4.98032812e-08,1.74500000e-01
-4.97632812e-08,1.74500000e-01
-4.97232812e-08,1.74498438e-01
-4.96832812e-08,1.74501563e-01
-4.96432812e-08,1.74496875e-01
-4.96032812e-08,1.74506250e-01
-4.95632812e-08,1.74490625e-01
-4.95232812e-08,1.74514063e-01
-4.94832812e-08,1.74476563e-01
-4.94432812e-08,1.74548438e-01
-4.94032812e-08,1.74298438e-01
-4.93632812e-08,1.74039063e-01
-4.93232812e-08,1.74137500e-01
-4.92832812e-08,1.74071875e-01
-4.92432812e-08,1.74123438e-01
-4.92032812e-08,1.74079687e-01
-4.91632812e-08,1.74118750e-01
-4.91232812e-08,1.74082813e-01
-4.90832812e-08,1.74117187e-01
-4.90432812e-08,1.74082813e-01
-4.90032812e-08,1.74117187e-01
-4.89632812e-08,1.74082813e-01
-4.89232812e-08,1.74117187e-01
-4.88832812e-08,1.74081250e-01
-4.88432812e-08,1.74120313e-01
-4.88032812e-08,1.74076563e-01
-4.87632812e-08,1.74128125e-01
-4.87232813e-08,1.74062500e-01
-4.86832812e-08,1.74162500e-01
-4.86432812e-08,1.73884375e-01
-4.86032812e-08,1.73653125e-01
-4.85632812e-08,1.73723437e-01
-4.85232812e-08,1.73685937e-01
-4.84832812e-08,1.73709375e-01
-4.84432813e-08,1.73693750e-01
-4.84032812e-08,1.73704688e-01
-4.83632812e-08,1.73696875e-01
-4.83232812e-08,1.73701563e-01
-4.82832812e-08,1.73698437e-01
-4.82432812e-08,1.73700000e-01
-4.82032812e-08,1.73700000e-01
-4.81632813e-08,1.73700000e-01
-4.81232812e-08,1.73701563e-01
-4.80832812e-08,1.73698437e-01
-4.80432812e-08,1.73701563e-01
-4.80032812e-08,1.73696875e-01
-4.79632812e-08,1.73703125e-01
-4.79232812e-08,1.73695313e-01
-4.78832812e-08,1.73704688e-01
-4.78432812e-08,1.73693750e-01
-4.78032812e-08,1.73707813e-01
-4.77632812e-08,1.73689063e-01
-4.77232812e-08,1.73715625e-01
-4.76832812e-08,1.73675000e-01
-4.76432812e-08,1.73750000e-01
-4.76032812e-08,1.73498438e-01
-4.75632812e-08,1.73239063e-01
-4.75232812e-08,1.73337500e-01
-4.74832812e-08,1.73270312e-01
-4.74432812e-08,1.73326563e-01
-4.74032812e-08,1.73275000e-01
-4.73632812e-08,1.73326563e-01
-4.73232812e-08,1.73270312e-01
-4.72832812e-08,1.73339063e-01
-4.72432812e-08,1.73237500e-01
-4.72032812e-08,1.73515625e-01
-4.71632812e-08,1.73746875e-01
-4.71232812e-08,1.73676563e-01
-4.70832812e-08,1.73714063e-01
-4.70432812e-08,1.73690625e-01
-4.70032812e-08,1.73706250e-01
-4.69632812e-08,1.73695313e-01
-4.69232812e-08,1.73703125e-01
-4.68832812e-08,1.73698437e-01
-4.68432812e-08,1.73701563e-01
-4.68032813e-08,1.73700000e-01
-4.67632812e-08,1.73698437e-01
-4.67232812e-08,1.73701563e-01
-4.66832812e-08,1.73696875e-01
-4.66432812e-08,1.73704688e-01
-4.66032812e-08,1.73693750e-01
-4.65632812e-08,1.73707813e-01
-4.65232813e-08,1.73690625e-01
-4.64832812e-08,1.73712500e-01
-4.64432812e-08,1.73681250e-01
-4.64032812e-08,1.73728125e-01
-4.63632812e-08,1.73646875e-01
-4.63232812e-08,1.73906250e-01
-4.62832812e-08,1.74154688e-01
-4.62432813e-08,1.74068750e-01
-4.62032812e-08,1.74121875e-01
-4.61632812e-08,1.74084375e-01
-4.61232812e-08,1.74112500e-01
-4.60832812e-08,1.74090625e-01
-4.60432812e-08,1.74106250e-01
-4.60032812e-08,1.74095313e-01
-4.59632813e-08,1.74101563e-01
-4.59232812e-08,1.74101563e-01
-4.58832812e-08,1.74092187e-01
-4.58432812e-08,1.74117187e-01
-4.58032812e-08,1.74057813e-01
-4.57632812e-08,1.74295312e-01
-4.57232812e-08,1.74567187e-01
-4.56832812e-08,1.74456250e-01
-4.56432812e-08,1.74534375e-01
-4.56032812e-08,1.74470313e-01
-4.55632812e-08,1.74526563e-01
-4.55232812e-08,1.74475000e-01
-4.54832812e-08,1.74525000e-01
-4.54432812e-08,1.74475000e-01
-4.54032812e-08,1.74525000e-01
-4.53632812e-08,1.74473437e-01
-4.53232812e-08,1.74529688e-01
-4.52832812e-08,1.74465625e-01
-4.52432812e-08,1.74542188e-01
-4.52032812e-08,1.74432813e-01
-4.51632812e-08,1.74720313e-01
-4.51232812e-08,1.74942188e-01
-4.50832812e-08,1.74881250e-01
-4.50432812e-08,1.74909375e-01
-4.50032812e-08,1.74895313e-01
-4.49632812e-08,1.74901562e-01
-4.49232812e-08,1.74901562e-01
-4.48832813e-08,1.74896875e-01
-4.48432812e-08,1.74904688e-01
-4.48032812e-08,1.74895313e-01
-4.47632812e-08,1.74906250e-01
-4.47232812e-08,1.74892188e-01
-4.46832812e-08,1.74907813e-01
-4.46432812e-08,1.74890625e-01
-4.46032813e-08,1.74910938e-01
-4.45632812e-08,1.74887500e-01
-4.45232812e-08,1.74915625e-01
-4.44832812e-08,1.74881250e-01
-4.44432812e-08,1.74923438e-01
-4.44032812e-08,1.74865625e-01
-4.43632812e-08,1.74959375e-01
-4.43232813e-08,1.74687500e-01
-4.42832812e-08,1.74450000e-01
-4.42432812e-08,1.74526563e-01
-4.42032812e-08,1.74484375e-01
-4.41632812e-08,1.74510938e-01
-4.41232812e-08,1.74492188e-01
-4.40832812e-08,1.74506250e-01
-4.40432813e-08,1.74496875e-01
-4.40032812e-08,1.74501563e-01
-4.39632812e-08,1.74498438e-01
-4.39232812e-08,1.74500000e-01
-4.38832812e-08,1.74501563e-01
-4.38432812e-08,1.74496875e-01
-4.38032812e-08,1.74504688e-01
-4.37632812e-08,1.74493750e-01
-4.37232812e-08,1.74509375e-01
-4.36832812e-08,1.74487500e-01
-4.36432812e-08,1.74517188e-01
-4.36032812e-08,1.74473437e-01
-4.35632812e-08,1.74551563e-01
-4.35232812e-08,1.74295312e-01
-4.34832812e-08,1.74043750e-01
-4.34432812e-08,1.74132813e-01
-4.34032812e-08,1.74076563e-01
-4.33632812e-08,1.74118750e-01
-4.33232812e-08,1.74084375e-01
-4.32832812e-08,1.74114062e-01
-4.32432812e-08,1.74087500e-01
-4.32032812e-08,1.74110938e-01
-4.31632812e-08,1.74089063e-01
-4.31232812e-08,1.74109375e-01
-4.30832812e-08,1.74090625e-01
-4.30432812e-08,1.74109375e-01
-4.30032812e-08,1.74090625e-01
-4.29632813e-08,1.74109375e-01
-4.29232812e-08,1.74092187e-01
-4.28832812e-08,1.74109375e-01
-4.28432812e-08,1.74090625e-01
-4.28032812e-08,1.74109375e-01
-4.27632812e-08,1.74090625e-01
-4.27232812e-08,1.74109375e-01
-4.26832813e-08,1.74089063e-01
-4.26432812e-08,1.74110938e-01
-4.26032812e-08,1.74087500e-01
-4.25632812e-08,1.74114062e-01
-4.25232812e-08,1.74082813e-01
-4.24832812e-08,1.74123438e-01
-4.24432812e-08,1.74067187e-01
-4.24032813e-08,1.74157813e-01
-4.23632812e-08,1.73890625e-01
-4.23232812e-08,1.73648438e-01
-4.22832812e-08,1.73728125e-01
-4.22432812e-08,1.73681250e-01
-4.22032812e-08,1.73714063e-01
-4.21632812e-08,1.73689063e-01
-4.21232813e-08,1.73709375e-01
-4.20832812e-08,1.73692188e-01
-4.20432812e-08,1.73706250e-01
-4.20032812e-08,1.73693750e-01
-4.19632812e-08,1.73704688e-01
-4.19232812e-08,1.73695313e-01
-4.18832812e-08,1.73704688e-01
-4.18432813e-08,1.73695313e-01
-4.18032812e-08,1.73703125e-01
-4.17632812e-08,1.73696875e-01
-4.17232812e-08,1.73703125e-01
-4.16832812e-08,1.73696875e-01
-4.16432812e-08,1.73703125e-01
-4.16032812e-08,1.73696875e-01
-4.15632812e-08,1.73703125e-01
-4.15232812e-08,1.73696875e-01
-4.14832812e-08,1.73701563e-01
-4.14432812e-08,1.73698437e-01
-4.14032812e-08,1.73701563e-01
-4.13632812e-08,1.73698437e-01
-4.13232812e-08,1.73701563e-01
-4.12832812e-08,1.73698437e-01
-4.12432812e-08,1.73701563e-01
-4.12032812e-08,1.73698437e-01
-4.11632812e-08,1.73701563e-01
-4.11232812e-08,1.73698437e-01
-4.10832812e-08,1.73701563e-01
-4.10432813e-08,1.73698437e-01
-4.10032812e-08,1.73701563e-01
-4.09632812e-08,1.73698437e-01
-4.09232812e-08,1.73701563e-01
-4.08832812e-08,1.73698437e-01
-4.08432812e-08,1.73701563e-01
-4.08032812e-08,1.73698437e-01
-4.07632813e-08,1.73700000e-01
-4.07232812e-08,1.73700000e-01
-4.06832812e-08,1.73700000e-01
-4.06432812e-08,1.73700000e-01
-4.06032812e-08,1.73700000e-01
-4.05632812e-08,1.73700000e-01
-4.05232812e-08,1.73700000e-01
-4.04832813e-08,1.73700000e-01
-4.04432812e-08,1.73700000e-01
-4.04032812e-08,1.73700000e-01
-4.03632812e-08,1.73700000e-01
-4.03232812e-08,1.73701563e-01
-4.02832812e-08,1.73698437e-01
-4.02432812e-08,1.73701563e-01
-4.02032813e-08,1.73698437e-01
-4.01632812e-08,1.73701563e-01
-4.01232812e-08,1.73696875e-01
-4.00832812e-08,1.73703125e-01
-4.00432812e-08,1.73696875e-01
-4.00032812e-08,1.73704688e-01
-3.99632812e-08,1.73695313e-01
-3.99232813e-08,1.73706250e-01
-3.98832812e-08,1.73692188e-01
-3.98432812e-08,1.73710937e-01
-3.98032812e-08,1.73685937e-01
-3.97632812e-08,1.73718750e-01
-3.97232812e-08,1.73671875e-01
-3.96832812e-08,1.73753125e-01
-3.96432813e-08,1.73492188e-01
-3.96032812e-08,1.73245312e-01
-3.95632812e-08,1.73331250e-01
-3.95232812e-08,1.73279688e-01
-3.94832812e-08,1.73315625e-01
-3.94432812e-08,1.73289063e-01
-3.94032813e-08,1.73307813e-01
-3.93632812e-08,1.73295312e-01
-3.93232812e-08,1.73300000e-01
-3.92832812e-08,1.73304687e-01
-3.92432812e-08,1.73284375e-01
-3.92032812e-08,1.73340625e-01
-3.91632812e-08,1.73106250e-01
-3.91232813e-08,1.72831250e-01
-3.90832812e-08,1.72945313e-01
-3.90432812e-08,1.72864062e-01
-3.90032812e-08,1.72931250e-01
-3.89632812e-08,1.72870313e-01
-3.89232812e-08,1.72928125e-01
-3.88832812e-08,1.72871875e-01
-3.88432813e-08,1.72929688e-01
-3.88032812e-08,1.72868750e-01
-3.87632812e-08,1.72935937e-01
-3.87232812e-08,1.72854687e-01
-3.86832812e-08,1.72968750e-01
-3.86432812e-08,1.72678125e-01
-3.86032812e-08,1.72459375e-01
-3.85632813e-08,1.72517188e-01
-3.85232812e-08,1.72492188e-01
