trails/0abb954fa332282a54c7a4841199d6d9/aes_ch1_20250507104159568.csv

Model,MSO66B
Label,
Waveform Type,ANALOG
Horizontal Units,s
Sample Interval,4.00000000e-11
Record Length,10000
Zero Index,1599.07031250
Vertical Units,A
ANALOG_Thumbnail,
yOffset,1.84500000e-01
yPosition,8.40000000e-01

Labels,
TIME,CH1
-6.39628125e-08,1.91306250e-01
-6.39228125e-08,1.91295313e-01
-6.38828125e-08,1.91304688e-01
-6.38428125e-08,1.91295313e-01
-6.38028125e-08,1.91304688e-01
-6.37628125e-08,1.91295313e-01
-6.37228125e-08,1.91304688e-01
-6.36828125e-08,1.91295313e-01
-6.36428125e-08,1.91304688e-01
-6.36028125e-08,1.91295313e-01
-6.35628125e-08,1.91304688e-01
-6.35228125e-08,1.91295313e-01
-6.34828125e-08,1.91304688e-01
-6.34428125e-08,1.91295313e-01
-6.34028125e-08,1.91304688e-01
-6.33628125e-08,1.91295313e-01
-6.33228125e-08,1.91304688e-01
-6.32828125e-08,1.91295313e-01
-6.32428125e-08,1.91304688e-01
-6.32028125e-08,1.91295313e-01
-6.31628125e-08,1.91304688e-01
-6.31228125e-08,1.91295313e-01
-6.30828125e-08,1.91306250e-01
-6.30428125e-08,1.91293750e-01
-6.30028125e-08,1.91306250e-01
-6.29628125e-08,1.91292188e-01
-6.29228125e-08,1.91307813e-01
-6.28828125e-08,1.91290625e-01
-6.28428125e-08,1.91310938e-01
-6.28028125e-08,1.91285938e-01
-6.27628125e-08,1.91318750e-01
-6.27228125e-08,1.91271875e-01
-6.26828125e-08,1.91353125e-01
-6.26428125e-08,1.91095313e-01
-6.26028125e-08,1.90842188e-01
-6.25628125e-08,1.90934375e-01
-6.25228125e-08,1.90875000e-01
-6.24828125e-08,1.90920312e-01
-6.24428125e-08,1.90881250e-01
-6.24028125e-08,1.90918750e-01
-6.23628125e-08,1.90881250e-01
-6.23228125e-08,1.90918750e-01
-6.22828125e-08,1.90878125e-01
-6.22428125e-08,1.90926563e-01
-6.22028125e-08,1.90865625e-01
-6.21628125e-08,1.90959375e-01
-6.21228125e-08,1.90687500e-01
-6.20828125e-08,1.90450000e-01
-6.20428125e-08,1.90526562e-01
-6.20028125e-08,1.90482813e-01
-6.19628125e-08,1.90512500e-01
-6.19228125e-08,1.90490625e-01
-6.18828125e-08,1.90507813e-01
-6.18428125e-08,1.90493750e-01
-6.18028125e-08,1.90504688e-01
-6.17628125e-08,1.90495313e-01
-6.17228125e-08,1.90503125e-01
-6.16828125e-08,1.90496875e-01
-6.16428125e-08,1.90501562e-01
-6.16028125e-08,1.90498438e-01
-6.15628125e-08,1.90501562e-01
-6.15228125e-08,1.90500000e-01
-6.14828125e-08,1.90500000e-01
-6.14428125e-08,1.90500000e-01
-6.14028125e-08,1.90498438e-01
-6.13628125e-08,1.90501562e-01
-6.13228125e-08,1.90496875e-01
-6.12828125e-08,1.90503125e-01
-6.12428125e-08,1.90495313e-01
-6.12028125e-08,1.90506250e-01
-6.11628125e-08,1.90490625e-01
-6.11228125e-08,1.90512500e-01
-6.10828125e-08,1.90482813e-01
-6.10428125e-08,1.90526562e-01
-6.10028125e-08,1.90448438e-01
-6.09628125e-08,1.90704687e-01
-6.09228125e-08,1.90957813e-01
-6.08828125e-08,1.90867188e-01
-6.08428125e-08,1.90923438e-01
-6.08028125e-08,1.90881250e-01
-6.07628125e-08,1.90915625e-01
-6.07228125e-08,1.90885938e-01
-6.06828125e-08,1.90912500e-01
-6.06428125e-08,1.90889063e-01
-6.06028125e-08,1.90910938e-01
-6.05628125e-08,1.90890625e-01
-6.05228125e-08,1.90909375e-01
-6.04828125e-08,1.90890625e-01
-6.04428125e-08,1.90907812e-01
-6.04028125e-08,1.90892188e-01
-6.03628125e-08,1.90907812e-01
-6.03228125e-08,1.90892188e-01
-6.02828125e-08,1.90907812e-01
-6.02428125e-08,1.90892188e-01
-6.02028125e-08,1.90907812e-01
-6.01628125e-08,1.90893750e-01
-6.01228125e-08,1.90906250e-01
-6.00828125e-08,1.90893750e-01
-6.00428125e-08,1.90906250e-01
-6.00028125e-08,1.90893750e-01
-5.99628125e-08,1.90906250e-01
-5.99228125e-08,1.90893750e-01
-5.98828125e-08,1.90906250e-01
-5.98428125e-08,1.90893750e-01
-5.98028125e-08,1.90906250e-01
-5.97628125e-08,1.90893750e-01
-5.97228125e-08,1.90906250e-01
-5.96828125e-08,1.90893750e-01
-5.96428125e-08,1.90906250e-01
-5.96028125e-08,1.90893750e-01
-5.95628125e-08,1.90906250e-01
-5.95228125e-08,1.90893750e-01
-5.94828125e-08,1.90906250e-01
-5.94428125e-08,1.90893750e-01
-5.94028125e-08,1.90906250e-01
-5.93628125e-08,1.90892188e-01
-5.93228125e-08,1.90907812e-01
-5.92828125e-08,1.90892188e-01
-5.92428125e-08,1.90907812e-01
-5.92028125e-08,1.90892188e-01
-5.91628125e-08,1.90907812e-01
-5.91228125e-08,1.90890625e-01
-5.90828125e-08,1.90909375e-01
-5.90428125e-08,1.90890625e-01
-5.90028125e-08,1.90909375e-01
-5.89628125e-08,1.90889063e-01
-5.89228125e-08,1.90912500e-01
-5.88828125e-08,1.90887500e-01
-5.88428125e-08,1.90914063e-01
-5.88028125e-08,1.90882812e-01
-5.87628125e-08,1.90920312e-01
-5.87228125e-08,1.90875000e-01
-5.86828125e-08,1.90934375e-01
-5.86428125e-08,1.90840625e-01
-5.86028125e-08,1.91112500e-01
-5.85628125e-08,1.91350000e-01
-5.85228125e-08,1.91275000e-01
-5.84828125e-08,1.91315625e-01
-5.84428125e-08,1.91289062e-01
-5.84028125e-08,1.91307813e-01
-5.83628125e-08,1.91295313e-01
-5.83228125e-08,1.91303125e-01
-5.82828125e-08,1.91298438e-01
-5.82428125e-08,1.91300000e-01
-5.82028125e-08,1.91300000e-01
-5.81628125e-08,1.91298438e-01
-5.81228125e-08,1.91303125e-01
-5.80828125e-08,1.91295313e-01
-5.80428125e-08,1.91306250e-01
-5.80028125e-08,1.91292188e-01
-5.79628125e-08,1.91312500e-01
-5.79228125e-08,1.91282813e-01
-5.78828125e-08,1.91326563e-01
-5.78428125e-08,1.91248438e-01
-5.78028125e-08,1.91504687e-01
-5.77628125e-08,1.91757813e-01
-5.77228125e-08,1.91665625e-01
-5.76828125e-08,1.91725000e-01
-5.76428125e-08,1.91679688e-01
-5.76028125e-08,1.91717187e-01
-5.75628125e-08,1.91684375e-01
-5.75228125e-08,1.91714063e-01
-5.74828125e-08,1.91687500e-01
-5.74428125e-08,1.91712500e-01
-5.74028125e-08,1.91687500e-01
-5.73628125e-08,1.91714063e-01
-5.73228125e-08,1.91685938e-01
-5.72828125e-08,1.91715625e-01
-5.72428125e-08,1.91681250e-01
-5.72028125e-08,1.91723438e-01
-5.71628125e-08,1.91667188e-01
-5.71228125e-08,1.91756250e-01
-5.70828125e-08,1.91490625e-01
-5.70428125e-08,1.91246875e-01
-5.70028125e-08,1.91329688e-01
-5.69628125e-08,1.91279688e-01
-5.69228125e-08,1.91315625e-01
-5.68828125e-08,1.91285938e-01
-5.68428125e-08,1.91312500e-01
-5.68028125e-08,1.91289062e-01
-5.67628125e-08,1.91310938e-01
-5.67228125e-08,1.91289062e-01
-5.66828125e-08,1.91310938e-01
-5.66428125e-08,1.91289062e-01
-5.66028125e-08,1.91312500e-01
-5.65628125e-08,1.91287500e-01
-5.65228125e-08,1.91314062e-01
-5.64828125e-08,1.91282813e-01
-5.64428125e-08,1.91321875e-01
-5.64028125e-08,1.91268750e-01
-5.63628125e-08,1.91356250e-01
-5.63228125e-08,1.91090625e-01
-5.62828125e-08,1.90846875e-01
-5.62428125e-08,1.90929688e-01
-5.62028125e-08,1.90879688e-01
-5.61628125e-08,1.90914063e-01
-5.61228125e-08,1.90887500e-01
-5.60828125e-08,1.90909375e-01
-5.60428125e-08,1.90892188e-01
-5.60028125e-08,1.90907812e-01
-5.59628125e-08,1.90893750e-01
-5.59228125e-08,1.90906250e-01
-5.58828125e-08,1.90895312e-01
-5.58428125e-08,1.90904688e-01
-5.58028125e-08,1.90895312e-01
-5.57628125e-08,1.90904688e-01
-5.57228125e-08,1.90896875e-01
-5.56828125e-08,1.90903125e-01
-5.56428125e-08,1.90896875e-01
-5.56028125e-08,1.90903125e-01
-5.55628125e-08,1.90896875e-01
-5.55228125e-08,1.90903125e-01
-5.54828125e-08,1.90896875e-01
-5.54428125e-08,1.90903125e-01
-5.54028125e-08,1.90896875e-01
-5.53628125e-08,1.90903125e-01
-5.53228125e-08,1.90898438e-01
-5.52828125e-08,1.90901563e-01
-5.52428125e-08,1.90898438e-01
-5.52028125e-08,1.90901563e-01
-5.51628125e-08,1.90898438e-01
-5.51228125e-08,1.90901563e-01
-5.50828125e-08,1.90898438e-01
-5.50428125e-08,1.90901563e-01
-5.50028125e-08,1.90898438e-01
-5.49628125e-08,1.90901563e-01
-5.49228125e-08,1.90898438e-01
-5.48828125e-08,1.90901563e-01
-5.48428125e-08,1.90898438e-01
-5.48028125e-08,1.90901563e-01
-5.47628125e-08,1.90898438e-01
-5.47228125e-08,1.90901563e-01
-5.46828125e-08,1.90898438e-01
-5.46428125e-08,1.90901563e-01
-5.46028125e-08,1.90898438e-01
-5.45628125e-08,1.90901563e-01
-5.45228125e-08,1.90898438e-01
-5.44828125e-08,1.90901563e-01
-5.44428125e-08,1.90898438e-01
-5.44028125e-08,1.90901563e-01
-5.43628125e-08,1.90900000e-01
-5.43228125e-08,1.90900000e-01
-5.42828125e-08,1.90900000e-01
-5.42428125e-08,1.90900000e-01
-5.42028125e-08,1.90900000e-01
-5.41628125e-08,1.90900000e-01
-5.41228125e-08,1.90900000e-01
-5.40828125e-08,1.90900000e-01
-5.40428125e-08,1.90900000e-01
-5.40028125e-08,1.90900000e-01
-5.39628125e-08,1.90900000e-01
-5.39228125e-08,1.90900000e-01
-5.38828125e-08,1.90900000e-01
-5.38428125e-08,1.90898438e-01
-5.38028125e-08,1.90901563e-01
-5.37628125e-08,1.90898438e-01
-5.37228125e-08,1.90901563e-01
-5.36828125e-08,1.90896875e-01
-5.36428125e-08,1.90903125e-01
-5.36028125e-08,1.90896875e-01
-5.35628125e-08,1.90904688e-01
-5.35228125e-08,1.90893750e-01
-5.34828125e-08,1.90907812e-01
-5.34428125e-08,1.90889063e-01
-5.34028125e-08,1.90915625e-01
-5.33628125e-08,1.90875000e-01
-5.33228125e-08,1.90950000e-01
-5.32828125e-08,1.90696875e-01
-5.32428125e-08,1.90440625e-01
-5.32028125e-08,1.90535938e-01
-5.31628125e-08,1.90473438e-01
-5.31228125e-08,1.90521875e-01
-5.30828125e-08,1.90481250e-01
-5.30428125e-08,1.90517188e-01
-5.30028125e-08,1.90482813e-01
-5.29628125e-08,1.90517188e-01
-5.29228125e-08,1.90482813e-01
-5.28828125e-08,1.90517188e-01
-5.28428125e-08,1.90481250e-01
-5.28028125e-08,1.90521875e-01
-5.27628125e-08,1.90473438e-01
-5.27228125e-08,1.90535938e-01
-5.26828125e-08,1.90440625e-01
-5.26428125e-08,1.90712500e-01
-5.26028125e-08,1.90950000e-01
-5.25628125e-08,1.90873438e-01
-5.25228125e-08,1.90917188e-01
-5.24828125e-08,1.90887500e-01
-5.24428125e-08,1.90910938e-01
-5.24028125e-08,1.90890625e-01
-5.23628125e-08,1.90907812e-01
-5.23228125e-08,1.90892188e-01
-5.22828125e-08,1.90909375e-01
-5.22428125e-08,1.90890625e-01
-5.22028125e-08,1.90912500e-01
-5.21628125e-08,1.90882812e-01
-5.21228125e-08,1.90925000e-01
-5.20828125e-08,1.90850000e-01
-5.20428125e-08,1.91101563e-01
-5.20028125e-08,1.91360937e-01
-5.19628125e-08,1.91260938e-01
-5.19228125e-08,1.91329688e-01
-5.18828125e-08,1.91273438e-01
-5.18428125e-08,1.91325000e-01
-5.18028125e-08,1.91275000e-01
-5.17628125e-08,1.91326563e-01
-5.17228125e-08,1.91268750e-01
-5.16828125e-08,1.91340625e-01
-5.16428125e-08,1.91234375e-01
-5.16028125e-08,1.91518750e-01
-5.15628125e-08,1.91743750e-01
-5.15228125e-08,1.91679688e-01
-5.14828125e-08,1.91710938e-01
-5.14428125e-08,1.91695313e-01
-5.14028125e-08,1.91701563e-01
-5.13628125e-08,1.91701563e-01
-5.13228125e-08,1.91693750e-01
-5.12828125e-08,1.91709375e-01
-5.12428125e-08,1.91684375e-01
-5.12028125e-08,1.91725000e-01
-5.11628125e-08,1.91650000e-01
-5.11228125e-08,1.91903125e-01
-5.10828125e-08,1.92159375e-01
-5.10428125e-08,1.92065625e-01
-5.10028125e-08,1.92125000e-01
-5.09628125e-08,1.92079688e-01
-5.09228125e-08,1.92118750e-01
-5.08828125e-08,1.92082813e-01
-5.08428125e-08,1.92115625e-01
-5.08028125e-08,1.92084375e-01
-5.07628125e-08,1.92115625e-01
-5.07228125e-08,1.92082813e-01
-5.06828125e-08,1.92120313e-01
-5.06428125e-08,1.92076562e-01
-5.06028125e-08,1.92132812e-01
-5.05628125e-08,1.92042188e-01
-5.05228125e-08,1.92310938e-01
-5.04828125e-08,1.92551562e-01
-5.04428125e-08,1.92471875e-01
-5.04028125e-08,1.92520313e-01
-5.03628125e-08,1.92484375e-01
-5.03228125e-08,1.92512500e-01
-5.02828125e-08,1.92489063e-01
-5.02428125e-08,1.92509375e-01
-5.02028125e-08,1.92490625e-01
-5.01628125e-08,1.92507813e-01
-5.01228125e-08,1.92492188e-01
-5.00828125e-08,1.92507813e-01
-5.00428125e-08,1.92492188e-01
-5.00028125e-08,1.92507813e-01
-4.99628125e-08,1.92492188e-01
-4.99228125e-08,1.92507813e-01
-4.98828125e-08,1.92492188e-01
-4.98428125e-08,1.92509375e-01
-4.98028125e-08,1.92490625e-01
-4.97628125e-08,1.92509375e-01
-4.97228125e-08,1.92489063e-01
-4.96828125e-08,1.92512500e-01
-4.96428125e-08,1.92487500e-01
-4.96028125e-08,1.92515625e-01
-4.95628125e-08,1.92481250e-01
-4.95228125e-08,1.92523438e-01
-4.94828125e-08,1.92465625e-01
-4.94428125e-08,1.92559375e-01
-4.94028125e-08,1.92287500e-01
-4.93628125e-08,1.92050000e-01
-4.93228125e-08,1.92125000e-01
-4.92828125e-08,1.92084375e-01
-4.92428125e-08,1.92110937e-01
-4.92028125e-08,1.92093750e-01
-4.91628125e-08,1.92103125e-01
-4.91228125e-08,1.92100000e-01
-4.90828125e-08,1.92095313e-01
-4.90428125e-08,1.92109375e-01
-4.90028125e-08,1.92079688e-01
-4.89628125e-08,1.92145312e-01
-4.89228125e-08,1.91901563e-01
-4.88828125e-08,1.91635938e-01
-4.88428125e-08,1.91740625e-01
-4.88028125e-08,1.91667188e-01
-4.87628125e-08,1.91728125e-01
-4.87228125e-08,1.91673438e-01
-4.86828125e-08,1.91726563e-01
-4.86428125e-08,1.91671875e-01
-4.86028125e-08,1.91732813e-01
-4.85628125e-08,1.91659375e-01
-4.85228125e-08,1.91765625e-01
-4.84828125e-08,1.91482813e-01
-4.84428125e-08,1.91254688e-01
-4.84028125e-08,1.91320313e-01
-4.83628125e-08,1.91289062e-01
-4.83228125e-08,1.91306250e-01
-4.82828125e-08,1.91296875e-01
-4.82428125e-08,1.91300000e-01
-4.82028125e-08,1.91301563e-01
-4.81628125e-08,1.91296875e-01
-4.81228125e-08,1.91306250e-01
-4.80828125e-08,1.91290625e-01
-4.80428125e-08,1.91314062e-01
-4.80028125e-08,1.91275000e-01
-4.79628125e-08,1.91350000e-01
-4.79228125e-08,1.91096875e-01
-4.78828125e-08,1.90840625e-01
-4.78428125e-08,1.90935938e-01
-4.78028125e-08,1.90873438e-01
-4.77628125e-08,1.90923438e-01
-4.77228125e-08,1.90879688e-01
-4.76828125e-08,1.90918750e-01
-4.76428125e-08,1.90881250e-01
-4.76028125e-08,1.90918750e-01
-4.75628125e-08,1.90881250e-01
-4.75228125e-08,1.90920312e-01
-4.74828125e-08,1.90878125e-01
-4.74428125e-08,1.90926563e-01
-4.74028125e-08,1.90864063e-01
-4.73628125e-08,1.90960938e-01
-4.73228125e-08,1.90685938e-01
-4.72828125e-08,1.90451563e-01
-4.72428125e-08,1.90525000e-01
-4.72028125e-08,1.90484375e-01
-4.71628125e-08,1.90510938e-01
-4.71228125e-08,1.90492188e-01
-4.70828125e-08,1.90506250e-01
-4.70428125e-08,1.90495313e-01
-4.70028125e-08,1.90503125e-01
-4.69628125e-08,1.90496875e-01
-4.69228125e-08,1.90501562e-01
-4.68828125e-08,1.90498438e-01
-4.68428125e-08,1.90501562e-01
-4.68028125e-08,1.90498438e-01
-4.67628125e-08,1.90500000e-01
-4.67228125e-08,1.90500000e-01
-4.66828125e-08,1.90500000e-01
-4.66428125e-08,1.90500000e-01
-4.66028125e-08,1.90500000e-01
-4.65628125e-08,1.90501562e-01
-4.65228125e-08,1.90498438e-01
-4.64828125e-08,1.90501562e-01
-4.64428125e-08,1.90498438e-01
-4.64028125e-08,1.90501562e-01
-4.63628125e-08,1.90496875e-01
-4.63228125e-08,1.90503125e-01
-4.62828125e-08,1.90496875e-01
-4.62428125e-08,1.90503125e-01
-4.62028125e-08,1.90495313e-01
-4.61628125e-08,1.90504688e-01
-4.61228125e-08,1.90493750e-01
-4.60828125e-08,1.90507813e-01
-4.60428125e-08,1.90490625e-01
-4.60028125e-08,1.90512500e-01
-4.59628125e-08,1.90482813e-01
-4.59228125e-08,1.90526562e-01
-4.58828125e-08,1.90448438e-01
-4.58428125e-08,1.90703125e-01
-4.58028125e-08,1.90959375e-01
-4.57628125e-08,1.90864063e-01
-4.57228125e-08,1.90928125e-01
-4.56828125e-08,1.90875000e-01
-4.56428125e-08,1.90925000e-01
-4.56028125e-08,1.90871875e-01
-4.55628125e-08,1.90935938e-01
-4.55228125e-08,1.90840625e-01
-4.54828125e-08,1.91110937e-01
-4.54428125e-08,1.91353125e-01
-4.54028125e-08,1.91268750e-01
-4.53628125e-08,1.91323437e-01
-4.53228125e-08,1.91279688e-01
-4.52828125e-08,1.91320313e-01
-4.52428125e-08,1.91276562e-01
-4.52028125e-08,1.91332813e-01
-4.51628125e-08,1.91243750e-01
-4.51228125e-08,1.91507813e-01
-4.50828125e-08,1.91754688e-01
-4.50428125e-08,1.91668750e-01
-4.50028125e-08,1.91723438e-01
-4.49628125e-08,1.91681250e-01
-4.49228125e-08,1.91717187e-01
-4.48828125e-08,1.91682813e-01
-4.48428125e-08,1.91717187e-01
-4.48028125e-08,1.91682813e-01
-4.47628125e-08,1.91720313e-01
-4.47228125e-08,1.91675000e-01
-4.46828125e-08,1.91732813e-01
-4.46428125e-08,1.91642188e-01
-4.46028125e-08,1.91910938e-01
-4.45628125e-08,1.92151563e-01
-4.45228125e-08,1.92071875e-01
-4.44828125e-08,1.92118750e-01
-4.44428125e-08,1.92085937e-01
-4.44028125e-08,1.92112500e-01
-4.43628125e-08,1.92090625e-01
-4.43228125e-08,1.92107813e-01
-4.42828125e-08,1.92092188e-01
-4.42428125e-08,1.92106250e-01
-4.42028125e-08,1.92093750e-01
-4.41628125e-08,1.92106250e-01
-4.41228125e-08,1.92093750e-01
-4.40828125e-08,1.92104688e-01
-4.40428125e-08,1.92095313e-01
-4.40028125e-08,1.92104688e-01
-4.39628125e-08,1.92095313e-01
-4.39228125e-08,1.92104688e-01
-4.38828125e-08,1.92095313e-01
-4.38428125e-08,1.92104688e-01
-4.38028125e-08,1.92095313e-01
-4.37628125e-08,1.92104688e-01
-4.37228125e-08,1.92095313e-01
-4.36828125e-08,1.92104688e-01
-4.36428125e-08,1.92095313e-01
-4.36028125e-08,1.92106250e-01
-4.35628125e-08,1.92093750e-01
-4.35228125e-08,1.92106250e-01
-4.34828125e-08,1.92093750e-01
-4.34428125e-08,1.92106250e-01
-4.34028125e-08,1.92092188e-01
-4.33628125e-08,1.92107813e-01
-4.33228125e-08,1.92092188e-01
-4.32828125e-08,1.92109375e-01
-4.32428125e-08,1.92090625e-01
-4.32028125e-08,1.92110937e-01
-4.31628125e-08,1.92087500e-01
-4.31228125e-08,1.92114063e-01
-4.30828125e-08,1.92082813e-01
-4.30428125e-08,1.92123437e-01
-4.30028125e-08,1.92067188e-01
-4.29628125e-08,1.92157812e-01
-4.29228125e-08,1.91889063e-01
-4.28828125e-08,1.91648438e-01
-4.28428125e-08,1.91726563e-01
-4.28028125e-08,1.91682813e-01
-4.27628125e-08,1.91712500e-01
-4.27228125e-08,1.91690625e-01
-4.26828125e-08,1.91706250e-01
-4.26428125e-08,1.91695313e-01
-4.26028125e-08,1.91703125e-01
-4.25628125e-08,1.91698438e-01
-4.25228125e-08,1.91698438e-01
-4.24828125e-08,1.91703125e-01
-4.24428125e-08,1.91693750e-01
-4.24028125e-08,1.91712500e-01
-4.23628125e-08,1.91678125e-01
-4.23228125e-08,1.91746875e-01
-4.22828125e-08,1.91500000e-01
-4.22428125e-08,1.91237500e-01
-4.22028125e-08,1.91339063e-01
-4.21628125e-08,1.91270313e-01
-4.21228125e-08,1.91326563e-01
-4.20828125e-08,1.91276562e-01
-4.20428125e-08,1.91321875e-01
-4.20028125e-08,1.91278125e-01
-4.19628125e-08,1.91323437e-01
-4.19228125e-08,1.91275000e-01
-4.18828125e-08,1.91329688e-01
-4.18428125e-08,1.91260938e-01
-4.18028125e-08,1.91364063e-01
-4.17628125e-08,1.91084375e-01
-4.17228125e-08,1.90853125e-01
-4.16828125e-08,1.90923438e-01
-4.16428125e-08,1.90885938e-01
-4.16028125e-08,1.90909375e-01
-4.15628125e-08,1.90893750e-01
-4.15228125e-08,1.90904688e-01
-4.14828125e-08,1.90896875e-01
-4.14428125e-08,1.90901563e-01
-4.14028125e-08,1.90898438e-01
-4.13628125e-08,1.90900000e-01
-4.13228125e-08,1.90900000e-01
-4.12828125e-08,1.90900000e-01
-4.12428125e-08,1.90901563e-01
-4.12028125e-08,1.90898438e-01
-4.11628125e-08,1.90901563e-01
-4.11228125e-08,1.90898438e-01
-4.10828125e-08,1.90903125e-01
-4.10428125e-08,1.90896875e-01
-4.10028125e-08,1.90903125e-01
-4.09628125e-08,1.90895312e-01
-4.09228125e-08,1.90904688e-01
-4.08828125e-08,1.90895312e-01
-4.08428125e-08,1.90906250e-01
-4.08028125e-08,1.90893750e-01
-4.07628125e-08,1.90907812e-01
-4.07228125e-08,1.90890625e-01
-4.06828125e-08,1.90910938e-01
-4.06428125e-08,1.90887500e-01
-4.06028125e-08,1.90917188e-01
-4.05628125e-08,1.90878125e-01
-4.05228125e-08,1.90932812e-01
-4.04828125e-08,1.90842188e-01
-4.04428125e-08,1.91110937e-01
-4.04028125e-08,1.91350000e-01
-4.03628125e-08,1.91273438e-01
-4.03228125e-08,1.91315625e-01
-4.02828125e-08,1.91290625e-01
-4.02428125e-08,1.91304688e-01
-4.02028125e-08,1.91301563e-01
-4.01628125e-08,1.91292188e-01
-4.01228125e-08,1.91318750e-01
-4.00828125e-08,1.91256250e-01
-4.00428125e-08,1.91496875e-01
-4.00028125e-08,1.91764062e-01
-3.99628125e-08,1.91659375e-01
-3.99228125e-08,1.91729687e-01
-3.98828125e-08,1.91675000e-01
-3.98428125e-08,1.91721875e-01
-3.98028125e-08,1.91679688e-01
-3.97628125e-08,1.91718750e-01
-3.97228125e-08,1.91682813e-01
-3.96828125e-08,1.91715625e-01
-3.96428125e-08,1.91684375e-01
-3.96028125e-08,1.91714063e-01
-3.95628125e-08,1.91685938e-01
-3.95228125e-08,1.91714063e-01
-3.94828125e-08,1.91685938e-01
-3.94428125e-08,1.91714063e-01
-3.94028125e-08,1.91685938e-01
-3.93628125e-08,1.91714063e-01
-3.93228125e-08,1.91685938e-01
-3.92828125e-08,1.91714063e-01
-3.92428125e-08,1.91685938e-01
-3.92028125e-08,1.91714063e-01
-3.91628125e-08,1.91685938e-01
-3.91228125e-08,1.91715625e-01
-3.90828125e-08,1.91684375e-01
-3.90428125e-08,1.91717187e-01
-3.90028125e-08,1.91681250e-01
-3.89628125e-08,1.91720313e-01
-3.89228125e-08,1.91676563e-01
-3.88828125e-08,1.91728125e-01
-3.88428125e-08,1.91662500e-01
-3.88028125e-08,1.91762500e-01
-3.87628125e-08,1.91484375e-01
-3.87228125e-08,1.91254688e-01
-3.86828125e-08,1.91321875e-01
-3.86428125e-08,1.91287500e-01
-3.86028125e-08,1.91307813e-01
-3.85628125e-08,1.91295313e-01
-3.85228125e-08,1.91303125e-01
