trails/0abb954fa332282a54c7a4841199d6d9/aes_ch1_20250507104043943.csv

Model,MSO66B
Label,
Waveform Type,ANALOG
Horizontal Units,s
Sample Interval,4.00000000e-11
Record Length,10000
Zero Index,1599.07421875
Vertical Units,A
ANALOG_Thumbnail,
yOffset,1.84500000e-01
yPosition,8.40000000e-01

Labels,
TIME,CH1
-6.39629687e-08,1.96100000e-01
-6.39229688e-08,1.96100000e-01
-6.38829687e-08,1.96100000e-01
-6.38429687e-08,1.96100000e-01
-6.38029687e-08,1.96100000e-01
-6.37629687e-08,1.96100000e-01
-6.37229688e-08,1.96098438e-01
-6.36829687e-08,1.96101562e-01
-6.36429688e-08,1.96098438e-01
-6.36029687e-08,1.96101562e-01
-6.35629687e-08,1.96098438e-01
-6.35229687e-08,1.96101562e-01
-6.34829687e-08,1.96098438e-01
-6.34429688e-08,1.96101562e-01
-6.34029687e-08,1.96098438e-01
-6.33629688e-08,1.96101562e-01
-6.33229687e-08,1.96098438e-01
-6.32829687e-08,1.96101562e-01
-6.32429687e-08,1.96098438e-01
-6.32029687e-08,1.96101562e-01
-6.31629688e-08,1.96098438e-01
-6.31229687e-08,1.96101562e-01
-6.30829688e-08,1.96098438e-01
-6.30429687e-08,1.96101562e-01
-6.30029687e-08,1.96098438e-01
-6.29629687e-08,1.96101562e-01
-6.29229687e-08,1.96096875e-01
-6.28829688e-08,1.96103125e-01
-6.28429687e-08,1.96096875e-01
-6.28029688e-08,1.96103125e-01
-6.27629687e-08,1.96096875e-01
-6.27229687e-08,1.96103125e-01
-6.26829687e-08,1.96096875e-01
-6.26429687e-08,1.96104688e-01
-6.26029688e-08,1.96095313e-01
-6.25629687e-08,1.96104688e-01
-6.25229688e-08,1.96093750e-01
-6.24829687e-08,1.96107813e-01
-6.24429687e-08,1.96092188e-01
-6.24029687e-08,1.96110937e-01
-6.23629687e-08,1.96087500e-01
-6.23229688e-08,1.96118750e-01
-6.22829687e-08,1.96071875e-01
-6.22429688e-08,1.96151563e-01
-6.22029687e-08,1.95895313e-01
-6.21629687e-08,1.95642188e-01
-6.21229687e-08,1.95734375e-01
-6.20829687e-08,1.95675000e-01
-6.20429688e-08,1.95721875e-01
-6.20029687e-08,1.95681250e-01
-6.19629688e-08,1.95718750e-01
-6.19229687e-08,1.95681250e-01
-6.18829687e-08,1.95718750e-01
-6.18429687e-08,1.95678125e-01
-6.18029687e-08,1.95725000e-01
-6.17629688e-08,1.95665625e-01
-6.17229687e-08,1.95759375e-01
-6.16829687e-08,1.95487500e-01
-6.16429687e-08,1.95250000e-01
-6.16029687e-08,1.95326563e-01
-6.15629687e-08,1.95281250e-01
-6.15229687e-08,1.95314062e-01
-6.14829688e-08,1.95289062e-01
-6.14429687e-08,1.95307813e-01
-6.14029687e-08,1.95292188e-01
-6.13629687e-08,1.95306250e-01
-6.13229687e-08,1.95293750e-01
-6.12829687e-08,1.95304688e-01
-6.12429687e-08,1.95295313e-01
-6.12029688e-08,1.95304688e-01
-6.11629687e-08,1.95296875e-01
-6.11229687e-08,1.95303125e-01
-6.10829687e-08,1.95296875e-01
-6.10429687e-08,1.95303125e-01
-6.10029687e-08,1.95296875e-01
-6.09629687e-08,1.95303125e-01
-6.09229688e-08,1.95296875e-01
-6.08829687e-08,1.95303125e-01
-6.08429687e-08,1.95298438e-01
-6.08029687e-08,1.95301562e-01
-6.07629687e-08,1.95298438e-01
-6.07229687e-08,1.95301562e-01
-6.06829687e-08,1.95298438e-01
-6.06429688e-08,1.95301562e-01
-6.06029687e-08,1.95298438e-01
-6.05629687e-08,1.95300000e-01
-6.05229687e-08,1.95300000e-01
-6.04829687e-08,1.95300000e-01
-6.04429687e-08,1.95301562e-01
-6.04029687e-08,1.95298438e-01
-6.03629688e-08,1.95303125e-01
-6.03229687e-08,1.95295313e-01
-6.02829687e-08,1.95307813e-01
-6.02429687e-08,1.95287500e-01
-6.02029687e-08,1.95321875e-01
-6.01629687e-08,1.95253125e-01
-6.01229687e-08,1.95498438e-01
-6.00829688e-08,1.95764063e-01
-6.00429687e-08,1.95659375e-01
-6.00029687e-08,1.95732813e-01
-5.99629687e-08,1.95670312e-01
-5.99229687e-08,1.95729687e-01
-5.98829688e-08,1.95667188e-01
-5.98429687e-08,1.95740625e-01
-5.98029688e-08,1.95635937e-01
-5.97629687e-08,1.95915625e-01
-5.97229687e-08,1.96148437e-01
-5.96829687e-08,1.96073438e-01
-5.96429687e-08,1.96120313e-01
-5.96029687e-08,1.96079688e-01
-5.95629687e-08,1.96126563e-01
-5.95229687e-08,1.96050000e-01
-5.94829687e-08,1.96300000e-01
-5.94429687e-08,1.96564062e-01
-5.94029687e-08,1.96457812e-01
-5.93629687e-08,1.96534375e-01
-5.93229687e-08,1.96467188e-01
-5.92829687e-08,1.96532813e-01
-5.92429687e-08,1.96462500e-01
-5.92029687e-08,1.96545313e-01
-5.91629687e-08,1.96429688e-01
-5.91229687e-08,1.96723438e-01
-5.90829687e-08,1.96939063e-01
-5.90429687e-08,1.96884375e-01
-5.90029687e-08,1.96904688e-01
-5.89629687e-08,1.96900000e-01
-5.89229687e-08,1.96895313e-01
-5.88829687e-08,1.96907813e-01
-5.88429687e-08,1.96889063e-01
-5.88029687e-08,1.96915625e-01
-5.87629687e-08,1.96878125e-01
-5.87229687e-08,1.96931250e-01
-5.86829687e-08,1.96842188e-01
-5.86429687e-08,1.97110937e-01
-5.86029687e-08,1.97350000e-01
-5.85629687e-08,1.97273438e-01
-5.85229687e-08,1.97315625e-01
-5.84829687e-08,1.97289063e-01
-5.84429687e-08,1.97307813e-01
-5.84029687e-08,1.97295313e-01
-5.83629687e-08,1.97301562e-01
-5.83229687e-08,1.97300000e-01
-5.82829687e-08,1.97298438e-01
-5.82429687e-08,1.97303125e-01
-5.82029687e-08,1.97293750e-01
-5.81629687e-08,1.97309375e-01
-5.81229687e-08,1.97287500e-01
-5.80829687e-08,1.97317188e-01
-5.80429687e-08,1.97271875e-01
-5.80029687e-08,1.97353125e-01
-5.79629687e-08,1.97093750e-01
-5.79229687e-08,1.96845313e-01
-5.78829687e-08,1.96931250e-01
-5.78429687e-08,1.96879688e-01
-5.78029687e-08,1.96915625e-01
-5.77629687e-08,1.96889063e-01
-5.77229687e-08,1.96909375e-01
-5.76829687e-08,1.96893750e-01
-5.76429687e-08,1.96904688e-01
-5.76029687e-08,1.96896875e-01
-5.75629687e-08,1.96900000e-01
-5.75229687e-08,1.96901563e-01
-5.74829687e-08,1.96895313e-01
-5.74429687e-08,1.96910937e-01
-5.74029687e-08,1.96879688e-01
-5.73629687e-08,1.96945312e-01
-5.73229687e-08,1.96701563e-01
-5.72829687e-08,1.96435938e-01
-5.72429687e-08,1.96540625e-01
-5.72029687e-08,1.96468750e-01
-5.71629687e-08,1.96526563e-01
-5.71229687e-08,1.96476563e-01
-5.70829687e-08,1.96523438e-01
-5.70429687e-08,1.96476563e-01
-5.70029687e-08,1.96523438e-01
-5.69629687e-08,1.96475000e-01
-5.69229687e-08,1.96529687e-01
-5.68829687e-08,1.96460938e-01
-5.68429687e-08,1.96562500e-01
-5.68029687e-08,1.96284375e-01
-5.67629687e-08,1.96053125e-01
-5.67229687e-08,1.96123437e-01
-5.66829687e-08,1.96085938e-01
-5.66429687e-08,1.96109375e-01
-5.66029687e-08,1.96092188e-01
-5.65629687e-08,1.96104688e-01
-5.65229687e-08,1.96095313e-01
-5.64829687e-08,1.96103125e-01
-5.64429687e-08,1.96096875e-01
-5.64029687e-08,1.96101562e-01
-5.63629687e-08,1.96098438e-01
-5.63229687e-08,1.96101562e-01
-5.62829687e-08,1.96098438e-01
-5.62429687e-08,1.96101562e-01
-5.62029687e-08,1.96100000e-01
-5.61629687e-08,1.96100000e-01
-5.61229687e-08,1.96100000e-01
-5.60829687e-08,1.96100000e-01
-5.60429687e-08,1.96100000e-01
-5.60029687e-08,1.96100000e-01
-5.59629687e-08,1.96100000e-01
-5.59229687e-08,1.96100000e-01
-5.58829687e-08,1.96100000e-01
-5.58429687e-08,1.96100000e-01
-5.58029687e-08,1.96100000e-01
-5.57629687e-08,1.96100000e-01
-5.57229687e-08,1.96100000e-01
-5.56829687e-08,1.96100000e-01
-5.56429687e-08,1.96100000e-01
-5.56029687e-08,1.96100000e-01
-5.55629687e-08,1.96100000e-01
-5.55229687e-08,1.96100000e-01
-5.54829687e-08,1.96100000e-01
-5.54429687e-08,1.96100000e-01
-5.54029687e-08,1.96100000e-01
-5.53629687e-08,1.96100000e-01
-5.53229687e-08,1.96100000e-01
-5.52829687e-08,1.96098438e-01
-5.52429687e-08,1.96101562e-01
-5.52029687e-08,1.96098438e-01
-5.51629687e-08,1.96101562e-01
-5.51229687e-08,1.96098438e-01
-5.50829687e-08,1.96101562e-01
-5.50429687e-08,1.96098438e-01
-5.50029687e-08,1.96103125e-01
-5.49629687e-08,1.96096875e-01
-5.49229687e-08,1.96104688e-01
-5.48829687e-08,1.96095313e-01
-5.48429687e-08,1.96106250e-01
-5.48029687e-08,1.96092188e-01
-5.47629687e-08,1.96110937e-01
-5.47229687e-08,1.96084375e-01
-5.46829687e-08,1.96125000e-01
-5.46429687e-08,1.96050000e-01
-5.46029687e-08,1.96303125e-01
-5.45629687e-08,1.96559375e-01
-5.45229687e-08,1.96464063e-01
-5.44829687e-08,1.96526563e-01
-5.44429687e-08,1.96478125e-01
-5.44029687e-08,1.96518750e-01
-5.43629687e-08,1.96482812e-01
-5.43229687e-08,1.96517187e-01
-5.42829687e-08,1.96482812e-01
-5.42429687e-08,1.96517187e-01
-5.42029687e-08,1.96482812e-01
-5.41629687e-08,1.96517187e-01
-5.41229687e-08,1.96481250e-01
-5.40829687e-08,1.96521875e-01
-5.40429687e-08,1.96473438e-01
-5.40029687e-08,1.96535938e-01
-5.39629687e-08,1.96439063e-01
-5.39229687e-08,1.96714063e-01
-5.38829687e-08,1.96948438e-01
-5.38429687e-08,1.96875000e-01
-5.38029687e-08,1.96917188e-01
-5.37629687e-08,1.96887500e-01
-5.37229687e-08,1.96909375e-01
-5.36829687e-08,1.96892188e-01
-5.36429687e-08,1.96907813e-01
-5.36029687e-08,1.96892188e-01
-5.35629687e-08,1.96909375e-01
-5.35229687e-08,1.96889063e-01
-5.34829687e-08,1.96915625e-01
-5.34429687e-08,1.96875000e-01
-5.34029687e-08,1.96948438e-01
-5.33629687e-08,1.96700000e-01
-5.33229687e-08,1.96437500e-01
-5.32829687e-08,1.96539063e-01
-5.32429687e-08,1.96468750e-01
-5.32029687e-08,1.96526563e-01
-5.31629687e-08,1.96475000e-01
-5.31229687e-08,1.96525000e-01
-5.30829687e-08,1.96475000e-01
-5.30429687e-08,1.96526563e-01
-5.30029687e-08,1.96470313e-01
-5.29629687e-08,1.96534375e-01
-5.29229687e-08,1.96456250e-01
-5.28829687e-08,1.96568750e-01
-5.28429687e-08,1.96276563e-01
-5.28029687e-08,1.96060938e-01
-5.27629687e-08,1.96114063e-01
-5.27229687e-08,1.96096875e-01
-5.26829687e-08,1.96096875e-01
-5.26429687e-08,1.96107813e-01
-5.26029687e-08,1.96085938e-01
-5.25629687e-08,1.96120313e-01
-5.25229687e-08,1.96068750e-01
-5.24829687e-08,1.96157813e-01
-5.24429687e-08,1.95889063e-01
-5.24029687e-08,1.95650000e-01
-5.23629687e-08,1.95725000e-01
-5.23229687e-08,1.95685938e-01
-5.22829687e-08,1.95707813e-01
-5.22429687e-08,1.95695312e-01
-5.22029688e-08,1.95700000e-01
-5.21629687e-08,1.95703125e-01
-5.21229687e-08,1.95692188e-01
-5.20829687e-08,1.95714063e-01
-5.20429687e-08,1.95675000e-01
-5.20029687e-08,1.95750000e-01
-5.19629687e-08,1.95495313e-01
-5.19229687e-08,1.95242187e-01
-5.18829687e-08,1.95332813e-01
-5.18429687e-08,1.95276563e-01
-5.18029687e-08,1.95317188e-01
-5.17629687e-08,1.95285938e-01
-5.17229687e-08,1.95312500e-01
-5.16829687e-08,1.95290625e-01
-5.16429687e-08,1.95309375e-01
-5.16029687e-08,1.95292188e-01
-5.15629687e-08,1.95306250e-01
-5.15229687e-08,1.95293750e-01
-5.14829687e-08,1.95304688e-01
-5.14429687e-08,1.95296875e-01
-5.14029687e-08,1.95303125e-01
-5.13629687e-08,1.95296875e-01
-5.13229687e-08,1.95301562e-01
-5.12829687e-08,1.95298438e-01
-5.12429687e-08,1.95300000e-01
-5.12029687e-08,1.95300000e-01
-5.11629687e-08,1.95298438e-01
-5.11229687e-08,1.95301562e-01
-5.10829687e-08,1.95296875e-01
-5.10429687e-08,1.95304688e-01
-5.10029687e-08,1.95295313e-01
-5.09629687e-08,1.95307813e-01
-5.09229687e-08,1.95290625e-01
-5.08829687e-08,1.95312500e-01
-5.08429687e-08,1.95281250e-01
-5.08029687e-08,1.95328125e-01
-5.07629687e-08,1.95246875e-01
-5.07229687e-08,1.95506250e-01
-5.06829687e-08,1.95754687e-01
-5.06429687e-08,1.95668750e-01
-5.06029687e-08,1.95720312e-01
-5.05629687e-08,1.95684375e-01
-5.05229687e-08,1.95710938e-01
-5.04829687e-08,1.95692188e-01
-5.04429687e-08,1.95704688e-01
-5.04029687e-08,1.95700000e-01
-5.03629687e-08,1.95695312e-01
-5.03229687e-08,1.95715625e-01
-5.02829688e-08,1.95660938e-01
-5.02429687e-08,1.95892188e-01
-5.02029687e-08,1.96170312e-01
-5.01629687e-08,1.96053125e-01
-5.01229687e-08,1.96139063e-01
-5.00829687e-08,1.96064062e-01
-5.00429687e-08,1.96135937e-01
-5.00029688e-08,1.96060938e-01
-4.99629687e-08,1.96146875e-01
-4.99229687e-08,1.96028125e-01
-4.98829687e-08,1.96323438e-01
-4.98429687e-08,1.96539063e-01
-4.98029687e-08,1.96485938e-01
-4.97629687e-08,1.96504687e-01
-4.97229687e-08,1.96501563e-01
-4.96829687e-08,1.96495313e-01
-4.96429687e-08,1.96509375e-01
-4.96029687e-08,1.96484375e-01
-4.95629687e-08,1.96526563e-01
-4.95229687e-08,1.96448438e-01
-4.94829687e-08,1.96704688e-01
-4.94429687e-08,1.96957812e-01
-4.94029687e-08,1.96867188e-01
-4.93629687e-08,1.96923438e-01
-4.93229687e-08,1.96881250e-01
-4.92829687e-08,1.96915625e-01
-4.92429687e-08,1.96885937e-01
-4.92029687e-08,1.96912500e-01
-4.91629687e-08,1.96887500e-01
-4.91229687e-08,1.96910937e-01
-4.90829687e-08,1.96889063e-01
-4.90429687e-08,1.96910937e-01
-4.90029687e-08,1.96889063e-01
-4.89629687e-08,1.96910937e-01
-4.89229687e-08,1.96889063e-01
-4.88829687e-08,1.96910937e-01
-4.88429687e-08,1.96889063e-01
-4.88029687e-08,1.96910937e-01
-4.87629687e-08,1.96887500e-01
-4.87229687e-08,1.96912500e-01
-4.86829687e-08,1.96885937e-01
-4.86429688e-08,1.96914063e-01
-4.86029687e-08,1.96882813e-01
-4.85629687e-08,1.96918750e-01
-4.85229687e-08,1.96878125e-01
-4.84829687e-08,1.96928125e-01
-4.84429687e-08,1.96862500e-01
-4.84029687e-08,1.96962500e-01
-4.83629688e-08,1.96682812e-01
-4.83229687e-08,1.96454688e-01
-4.82829687e-08,1.96520313e-01
-4.82429687e-08,1.96490625e-01
-4.82029687e-08,1.96503125e-01
-4.81629687e-08,1.96503125e-01
-4.81229687e-08,1.96492187e-01
-4.80829688e-08,1.96515625e-01
-4.80429687e-08,1.96473438e-01
-4.80029687e-08,1.96553125e-01
-4.79629687e-08,1.96293750e-01
-4.79229687e-08,1.96045313e-01
-4.78829687e-08,1.96128125e-01
-4.78429687e-08,1.96082813e-01
-4.78029687e-08,1.96109375e-01
-4.77629687e-08,1.96098438e-01
-4.77229687e-08,1.96089063e-01
-4.76829687e-08,1.96137500e-01
-4.76429687e-08,1.95909375e-01
-4.76029687e-08,1.95628125e-01
-4.75629687e-08,1.95748438e-01
-4.75229687e-08,1.95660938e-01
-4.74829687e-08,1.95735938e-01
-4.74429687e-08,1.95664063e-01
-4.74029687e-08,1.95737500e-01
-4.73629687e-08,1.95654688e-01
-4.73229687e-08,1.95768750e-01
-4.72829687e-08,1.95478125e-01
-4.72429687e-08,1.95257813e-01
-4.72029687e-08,1.95318750e-01
-4.71629687e-08,1.95289062e-01
-4.71229687e-08,1.95306250e-01
-4.70829687e-08,1.95296875e-01
-4.70429687e-08,1.95301562e-01
-4.70029687e-08,1.95298438e-01
-4.69629687e-08,1.95300000e-01
-4.69229687e-08,1.95300000e-01
-4.68829687e-08,1.95298438e-01
-4.68429687e-08,1.95301562e-01
-4.68029687e-08,1.95298438e-01
-4.67629687e-08,1.95301562e-01
-4.67229688e-08,1.95298438e-01
-4.66829687e-08,1.95303125e-01
-4.66429687e-08,1.95296875e-01
-4.66029687e-08,1.95303125e-01
-4.65629687e-08,1.95296875e-01
-4.65229687e-08,1.95304688e-01
-4.64829687e-08,1.95295313e-01
-4.64429688e-08,1.95306250e-01
-4.64029687e-08,1.95292188e-01
-4.63629687e-08,1.95310938e-01
-4.63229687e-08,1.95284375e-01
-4.62829687e-08,1.95323438e-01
-4.62429687e-08,1.95251563e-01
-4.62029687e-08,1.95500000e-01
-4.61629688e-08,1.95762500e-01
-4.61229687e-08,1.95659375e-01
-4.60829687e-08,1.95732813e-01
-4.60429687e-08,1.95670312e-01
-4.60029687e-08,1.95729687e-01
-4.59629687e-08,1.95667188e-01
-4.59229687e-08,1.95742187e-01
-4.58829688e-08,1.95634375e-01
-4.58429687e-08,1.95918750e-01
-4.58029687e-08,1.96143750e-01
-4.57629687e-08,1.96081250e-01
-4.57229687e-08,1.96109375e-01
-4.56829687e-08,1.96096875e-01
-4.56429687e-08,1.96098438e-01
-4.56029687e-08,1.96106250e-01
-4.55629687e-08,1.96087500e-01
-4.55229687e-08,1.96121875e-01
-4.54829687e-08,1.96051562e-01
-4.54429687e-08,1.96301562e-01
-4.54029687e-08,1.96560938e-01
-4.53629687e-08,1.96462500e-01
-4.53229687e-08,1.96528125e-01
-4.52829687e-08,1.96475000e-01
-4.52429687e-08,1.96521875e-01
-4.52029687e-08,1.96478125e-01
-4.51629687e-08,1.96523438e-01
-4.51229687e-08,1.96473438e-01
-4.50829687e-08,1.96535938e-01
-4.50429687e-08,1.96440625e-01
-4.50029687e-08,1.96710938e-01
-4.49629687e-08,1.96951563e-01
-4.49229687e-08,1.96871875e-01
-4.48829687e-08,1.96920312e-01
-4.48429687e-08,1.96884375e-01
-4.48029688e-08,1.96914063e-01
-4.47629687e-08,1.96887500e-01
-4.47229687e-08,1.96910937e-01
-4.46829687e-08,1.96889063e-01
-4.46429687e-08,1.96912500e-01
-4.46029687e-08,1.96887500e-01
-4.45629687e-08,1.96914063e-01
-4.45229688e-08,1.96884375e-01
-4.44829687e-08,1.96918750e-01
-4.44429687e-08,1.96876563e-01
-4.44029687e-08,1.96932812e-01
-4.43629687e-08,1.96842188e-01
-4.43229687e-08,1.97110937e-01
-4.42829687e-08,1.97351563e-01
-4.42429688e-08,1.97271875e-01
-4.42029687e-08,1.97317188e-01
-4.41629687e-08,1.97287500e-01
-4.41229687e-08,1.97309375e-01
-4.40829687e-08,1.97292187e-01
-4.40429687e-08,1.97306250e-01
-4.40029687e-08,1.97295313e-01
-4.39629688e-08,1.97303125e-01
-4.39229687e-08,1.97296875e-01
-4.38829687e-08,1.97301562e-01
-4.38429687e-08,1.97298438e-01
-4.38029687e-08,1.97300000e-01
-4.37629687e-08,1.97300000e-01
-4.37229687e-08,1.97300000e-01
-4.36829688e-08,1.97301562e-01
-4.36429687e-08,1.97298438e-01
-4.36029687e-08,1.97303125e-01
-4.35629687e-08,1.97296875e-01
-4.35229687e-08,1.97304688e-01
-4.34829687e-08,1.97295313e-01
-4.34429687e-08,1.97306250e-01
-4.34029687e-08,1.97292187e-01
-4.33629687e-08,1.97309375e-01
-4.33229687e-08,1.97289063e-01
-4.32829687e-08,1.97314062e-01
-4.32429687e-08,1.97282813e-01
-4.32029687e-08,1.97321875e-01
-4.31629687e-08,1.97267187e-01
-4.31229687e-08,1.97357813e-01
-4.30829687e-08,1.97087500e-01
-4.30429687e-08,1.96850000e-01
-4.30029687e-08,1.96925000e-01
-4.29629687e-08,1.96885937e-01
-4.29229687e-08,1.96906250e-01
-4.28829688e-08,1.96898438e-01
-4.28429687e-08,1.96895313e-01
-4.28029687e-08,1.96910937e-01
-4.27629687e-08,1.96878125e-01
-4.27229687e-08,1.96948438e-01
-4.26829687e-08,1.96696875e-01
-4.26429687e-08,1.96442188e-01
-4.26029688e-08,1.96532813e-01
-4.25629687e-08,1.96478125e-01
-4.25229687e-08,1.96515625e-01
-4.24829687e-08,1.96489063e-01
-4.24429687e-08,1.96504687e-01
-4.24029687e-08,1.96501563e-01
-4.23629687e-08,1.96487500e-01
-4.23229688e-08,1.96539063e-01
-4.22829687e-08,1.96307813e-01
-4.22429687e-08,1.96029687e-01
-4.22029687e-08,1.96145313e-01
-4.21629687e-08,1.96064062e-01
-4.21229687e-08,1.96131250e-01
-4.20829687e-08,1.96071875e-01
-4.20429688e-08,1.96125000e-01
-4.20029687e-08,1.96075000e-01
-4.19629687e-08,1.96123437e-01
-4.19229687e-08,1.96076562e-01
-4.18829687e-08,1.96125000e-01
-4.18429687e-08,1.96073438e-01
-4.18029687e-08,1.96129688e-01
-4.17629688e-08,1.96060938e-01
-4.17229687e-08,1.96162500e-01
-4.16829687e-08,1.95887500e-01
-4.16429687e-08,1.95648437e-01
-4.16029687e-08,1.95731250e-01
-4.15629687e-08,1.95673438e-01
-4.15229687e-08,1.95731250e-01
-4.14829688e-08,1.95646875e-01
-4.14429687e-08,1.95904688e-01
-4.14029687e-08,1.96159375e-01
-4.13629687e-08,1.96064062e-01
-4.13229687e-08,1.96128125e-01
-4.12829687e-08,1.96076562e-01
-4.12429687e-08,1.96121875e-01
-4.12029687e-08,1.96079688e-01
-4.11629687e-08,1.96118750e-01
-4.11229687e-08,1.96081250e-01
-4.10829687e-08,1.96118750e-01
-4.10429687e-08,1.96081250e-01
-4.10029687e-08,1.96118750e-01
-4.09629688e-08,1.96081250e-01
-4.09229687e-08,1.96118750e-01
-4.08829687e-08,1.96079688e-01
-4.08429687e-08,1.96121875e-01
-4.08029687e-08,1.96076562e-01
-4.07629687e-08,1.96126563e-01
-4.07229687e-08,1.96068750e-01
-4.06829688e-08,1.96142188e-01
-4.06429687e-08,1.96032813e-01
-4.06029687e-08,1.96320313e-01
-4.05629687e-08,1.96542188e-01
-4.05229687e-08,1.96481250e-01
-4.04829687e-08,1.96509375e-01
-4.04429687e-08,1.96496875e-01
-4.04029688e-08,1.96500000e-01
-4.03629687e-08,1.96501563e-01
-4.03229687e-08,1.96495313e-01
-4.02829687e-08,1.96506250e-01
-4.02429687e-08,1.96492187e-01
-4.02029687e-08,1.96509375e-01
-4.01629687e-08,1.96489063e-01
-4.01229688e-08,1.96512500e-01
-4.00829687e-08,1.96485938e-01
-4.00429687e-08,1.96517187e-01
-4.00029687e-08,1.96479687e-01
-3.99629687e-08,1.96526563e-01
-3.99229687e-08,1.96464063e-01
-3.98829687e-08,1.96560938e-01
-3.98429688e-08,1.96284375e-01
-3.98029687e-08,1.96053125e-01
-3.97629687e-08,1.96121875e-01
-3.97229687e-08,1.96089063e-01
-3.96829687e-08,1.96104688e-01
-3.96429687e-08,1.96098438e-01
-3.96029687e-08,1.96096875e-01
-3.95629688e-08,1.96106250e-01
-3.95229687e-08,1.96089063e-01
-3.94829687e-08,1.96117188e-01
-3.94429687e-08,1.96071875e-01
-3.94029687e-08,1.96154688e-01
-3.93629687e-08,1.95890625e-01
-3.93229687e-08,1.95648437e-01
-3.92829688e-08,1.95726563e-01
-3.92429687e-08,1.95684375e-01
-3.92029687e-08,1.95706250e-01
-3.91629687e-08,1.95701563e-01
-3.91229687e-08,1.95687500e-01
-3.90829687e-08,1.95739063e-01
-3.90429688e-08,1.95507813e-01
-3.90029687e-08,1.95229687e-01
-3.89629687e-08,1.95346875e-01
-3.89229687e-08,1.95262500e-01
-3.88829687e-08,1.95334375e-01
-3.88429687e-08,1.95267187e-01
-3.88029687e-08,1.95335938e-01
-3.87629688e-08,1.95256250e-01
-3.87229687e-08,1.95367188e-01
-3.86829687e-08,1.95081250e-01
-3.86429687e-08,1.94854688e-01
-3.86029687e-08,1.94921875e-01
-3.85629687e-08,1.94887500e-01
-3.85229687e-08,1.94909375e-01
