trails/0abb954fa332282a54c7a4841199d6d9/aes_ch1_20250507104221122.csv

Model,MSO66B
Label,
Waveform Type,ANALOG
Horizontal Units,s
Sample Interval,4.00000000e-11
Record Length,10000
Zero Index,1599.08984375
Vertical Units,A
ANALOG_Thumbnail,
yOffset,1.84500000e-01
yPosition,8.40000000e-01

Labels,
TIME,CH1
-6.39635937e-08,1.79764063e-01
-6.39235937e-08,1.79657813e-01
-6.38835938e-08,1.79734375e-01
-6.38435937e-08,1.79667188e-01
-6.38035938e-08,1.79732813e-01
-6.37635937e-08,1.79664062e-01
-6.37235937e-08,1.79745313e-01
-6.36835937e-08,1.79631250e-01
-6.36435937e-08,1.79921875e-01
-6.36035938e-08,1.80140625e-01
-6.35635937e-08,1.80084375e-01
-6.35235938e-08,1.80106250e-01
-6.34835937e-08,1.80100000e-01
-6.34435937e-08,1.80095312e-01
-6.34035937e-08,1.80109375e-01
-6.33635937e-08,1.80084375e-01
-6.33235938e-08,1.80126563e-01
-6.32835937e-08,1.80048438e-01
-6.32435938e-08,1.80304688e-01
-6.32035937e-08,1.80557812e-01
-6.31635937e-08,1.80465625e-01
-6.31235937e-08,1.80525000e-01
-6.30835937e-08,1.80479688e-01
-6.30435938e-08,1.80518750e-01
-6.30035937e-08,1.80482813e-01
-6.29635938e-08,1.80517188e-01
-6.29235937e-08,1.80482813e-01
-6.28835937e-08,1.80520313e-01
-6.28435937e-08,1.80476562e-01
-6.28035937e-08,1.80532813e-01
-6.27635938e-08,1.80442188e-01
-6.27235937e-08,1.80710938e-01
-6.26835938e-08,1.80953125e-01
-6.26435937e-08,1.80871875e-01
-6.26035937e-08,1.80920313e-01
-6.25635937e-08,1.80884375e-01
-6.25235937e-08,1.80912500e-01
-6.24835938e-08,1.80890625e-01
-6.24435937e-08,1.80909375e-01
-6.24035938e-08,1.80892187e-01
-6.23635937e-08,1.80906250e-01
-6.23235937e-08,1.80893750e-01
-6.22835937e-08,1.80906250e-01
-6.22435937e-08,1.80895313e-01
-6.22035938e-08,1.80904687e-01
-6.21635937e-08,1.80895313e-01
-6.21235937e-08,1.80903125e-01
-6.20835937e-08,1.80896875e-01
-6.20435937e-08,1.80901563e-01
-6.20035937e-08,1.80898438e-01
-6.19635937e-08,1.80900000e-01
-6.19235938e-08,1.80900000e-01
-6.18835937e-08,1.80898438e-01
-6.18435937e-08,1.80904687e-01
-6.18035937e-08,1.80892187e-01
-6.17635937e-08,1.80912500e-01
-6.17235937e-08,1.80878125e-01
-6.16835937e-08,1.80946875e-01
-6.16435938e-08,1.80698438e-01
-6.16035937e-08,1.80439062e-01
-6.15635937e-08,1.80537500e-01
-6.15235937e-08,1.80473438e-01
-6.14835937e-08,1.80521875e-01
-6.14435937e-08,1.80482813e-01
-6.14035937e-08,1.80512500e-01
-6.13635938e-08,1.80493750e-01
-6.13235937e-08,1.80496875e-01
-6.12835937e-08,1.80526563e-01
-6.12435937e-08,1.80320312e-01
-6.12035937e-08,1.80015625e-01
-6.11635937e-08,1.80162500e-01
-6.11235937e-08,1.80042188e-01
-6.10835938e-08,1.80157813e-01
-6.10435937e-08,1.80034375e-01
-6.10035937e-08,1.80189062e-01
-6.09635937e-08,1.79856250e-01
-6.09235937e-08,1.79682813e-01
-6.08835937e-08,1.79690625e-01
-6.08435937e-08,1.79723437e-01
-6.08035938e-08,1.79662500e-01
-6.07635937e-08,1.79767188e-01
-6.07235937e-08,1.79476563e-01
-6.06835937e-08,1.79264063e-01
-6.06435937e-08,1.79307812e-01
-6.06035937e-08,1.79307812e-01
-6.05635937e-08,1.79276563e-01
-6.05235938e-08,1.79353125e-01
-6.04835937e-08,1.79090625e-01
-6.04435937e-08,1.78851563e-01
-6.04035937e-08,1.78921875e-01
-6.03635937e-08,1.78893750e-01
-6.03235938e-08,1.78890625e-01
-6.02835937e-08,1.78937500e-01
-6.02435938e-08,1.78707813e-01
-6.02035937e-08,1.78431250e-01
-6.01635937e-08,1.78545312e-01
-6.01235937e-08,1.78464063e-01
-6.00835937e-08,1.78531250e-01
-6.00435938e-08,1.78468750e-01
-6.00035937e-08,1.78532812e-01
-5.99635938e-08,1.78459375e-01
-5.99235937e-08,1.78564063e-01
-5.98835937e-08,1.78284375e-01
-5.98435937e-08,1.78053125e-01
-5.98035937e-08,1.78125000e-01
-5.97635938e-08,1.78084375e-01
-5.97235937e-08,1.78112500e-01
-5.96835938e-08,1.78090625e-01
-5.96435937e-08,1.78107813e-01
-5.96035937e-08,1.78092187e-01
-5.95635937e-08,1.78106250e-01
-5.95235937e-08,1.78093750e-01
-5.94835937e-08,1.78106250e-01
-5.94435937e-08,1.78093750e-01
-5.94035937e-08,1.78106250e-01
-5.93635937e-08,1.78093750e-01
-5.93235937e-08,1.78106250e-01
-5.92835937e-08,1.78093750e-01
-5.92435937e-08,1.78106250e-01
-5.92035937e-08,1.78093750e-01
-5.91635937e-08,1.78106250e-01
-5.91235937e-08,1.78093750e-01
-5.90835937e-08,1.78106250e-01
-5.90435937e-08,1.78092187e-01
-5.90035937e-08,1.78107813e-01
-5.89635937e-08,1.78092187e-01
-5.89235937e-08,1.78107813e-01
-5.88835937e-08,1.78090625e-01
-5.88435937e-08,1.78109375e-01
-5.88035937e-08,1.78089063e-01
-5.87635937e-08,1.78110938e-01
-5.87235937e-08,1.78087500e-01
-5.86835937e-08,1.78114063e-01
-5.86435937e-08,1.78084375e-01
-5.86035937e-08,1.78120313e-01
-5.85635937e-08,1.78075000e-01
-5.85235937e-08,1.78134375e-01
-5.84835937e-08,1.78040625e-01
-5.84435937e-08,1.78312500e-01
-5.84035937e-08,1.78550000e-01
-5.83635937e-08,1.78475000e-01
-5.83235937e-08,1.78515625e-01
-5.82835937e-08,1.78489063e-01
-5.82435937e-08,1.78507813e-01
-5.82035937e-08,1.78495313e-01
-5.81635937e-08,1.78503125e-01
-5.81235937e-08,1.78498437e-01
-5.80835937e-08,1.78501563e-01
-5.80435937e-08,1.78500000e-01
-5.80035937e-08,1.78498437e-01
-5.79635937e-08,1.78501563e-01
-5.79235937e-08,1.78496875e-01
-5.78835937e-08,1.78503125e-01
-5.78435937e-08,1.78495313e-01
-5.78035937e-08,1.78506250e-01
-5.77635937e-08,1.78492188e-01
-5.77235937e-08,1.78509375e-01
-5.76835937e-08,1.78489063e-01
-5.76435937e-08,1.78514063e-01
-5.76035937e-08,1.78479688e-01
-5.75635937e-08,1.78529688e-01
-5.75235937e-08,1.78445313e-01
-5.74835937e-08,1.78707813e-01
-5.74435937e-08,1.78954688e-01
-5.74035937e-08,1.78870313e-01
-5.73635937e-08,1.78920313e-01
-5.73235937e-08,1.78884375e-01
-5.72835937e-08,1.78912500e-01
-5.72435937e-08,1.78889063e-01
-5.72035937e-08,1.78909375e-01
-5.71635937e-08,1.78892187e-01
-5.71235937e-08,1.78906250e-01
-5.70835937e-08,1.78893750e-01
-5.70435937e-08,1.78906250e-01
-5.70035937e-08,1.78895313e-01
-5.69635937e-08,1.78904688e-01
-5.69235937e-08,1.78895313e-01
-5.68835937e-08,1.78904688e-01
-5.68435937e-08,1.78895313e-01
-5.68035937e-08,1.78903125e-01
-5.67635937e-08,1.78896875e-01
-5.67235937e-08,1.78903125e-01
-5.66835937e-08,1.78896875e-01
-5.66435937e-08,1.78903125e-01
-5.66035937e-08,1.78896875e-01
-5.65635937e-08,1.78903125e-01
-5.65235937e-08,1.78896875e-01
-5.64835937e-08,1.78903125e-01
-5.64435937e-08,1.78896875e-01
-5.64035937e-08,1.78903125e-01
-5.63635937e-08,1.78896875e-01
-5.63235937e-08,1.78904688e-01
-5.62835937e-08,1.78895313e-01
-5.62435937e-08,1.78904688e-01
-5.62035937e-08,1.78893750e-01
-5.61635937e-08,1.78907813e-01
-5.61235937e-08,1.78890625e-01
-5.60835937e-08,1.78912500e-01
-5.60435937e-08,1.78882813e-01
-5.60035937e-08,1.78926562e-01
-5.59635937e-08,1.78848438e-01
-5.59235937e-08,1.79103125e-01
-5.58835937e-08,1.79359375e-01
-5.58435937e-08,1.79264063e-01
-5.58035937e-08,1.79326563e-01
-5.57635937e-08,1.79278125e-01
-5.57235937e-08,1.79320312e-01
-5.56835937e-08,1.79281250e-01
-5.56435937e-08,1.79318750e-01
-5.56035937e-08,1.79281250e-01
-5.55635937e-08,1.79318750e-01
-5.55235937e-08,1.79279688e-01
-5.54835937e-08,1.79323438e-01
-5.54435937e-08,1.79271875e-01
-5.54035937e-08,1.79337500e-01
-5.53635937e-08,1.79239063e-01
-5.53235937e-08,1.79514063e-01
-5.52835937e-08,1.79748437e-01
-5.52435937e-08,1.79675000e-01
-5.52035937e-08,1.79715625e-01
-5.51635937e-08,1.79689062e-01
-5.51235937e-08,1.79707813e-01
-5.50835937e-08,1.79693750e-01
-5.50435937e-08,1.79704688e-01
-5.50035937e-08,1.79696875e-01
-5.49635937e-08,1.79703125e-01
-5.49235937e-08,1.79698438e-01
-5.48835937e-08,1.79701562e-01
-5.48435937e-08,1.79698438e-01
-5.48035937e-08,1.79700000e-01
-5.47635937e-08,1.79700000e-01
-5.47235937e-08,1.79700000e-01
-5.46835937e-08,1.79700000e-01
-5.46435937e-08,1.79700000e-01
-5.46035937e-08,1.79700000e-01
-5.45635937e-08,1.79700000e-01
-5.45235937e-08,1.79700000e-01
-5.44835937e-08,1.79700000e-01
-5.44435937e-08,1.79700000e-01
-5.44035937e-08,1.79700000e-01
-5.43635937e-08,1.79698438e-01
-5.43235937e-08,1.79701562e-01
-5.42835937e-08,1.79696875e-01
-5.42435937e-08,1.79704688e-01
-5.42035937e-08,1.79692188e-01
-5.41635937e-08,1.79712500e-01
-5.41235937e-08,1.79678125e-01
-5.40835937e-08,1.79745313e-01
-5.40435937e-08,1.79501563e-01
-5.40035937e-08,1.79234375e-01
-5.39635937e-08,1.79342187e-01
-5.39235937e-08,1.79265625e-01
-5.38835937e-08,1.79329688e-01
-5.38435937e-08,1.79270313e-01
-5.38035937e-08,1.79329688e-01
-5.37635937e-08,1.79268750e-01
-5.37235937e-08,1.79335938e-01
-5.36835937e-08,1.79254688e-01
-5.36435937e-08,1.79370313e-01
-5.36035937e-08,1.79078125e-01
-5.35635937e-08,1.78860938e-01
-5.35235937e-08,1.78915625e-01
-5.34835937e-08,1.78893750e-01
-5.34435937e-08,1.78900000e-01
-5.34035937e-08,1.78904688e-01
-5.33635937e-08,1.78892187e-01
-5.33235937e-08,1.78910938e-01
-5.32835937e-08,1.78884375e-01
-5.32435937e-08,1.78920313e-01
-5.32035937e-08,1.78868750e-01
-5.31635937e-08,1.78956250e-01
-5.31235937e-08,1.78689062e-01
-5.30835937e-08,1.78448438e-01
-5.30435937e-08,1.78526563e-01
-5.30035937e-08,1.78482813e-01
-5.29635937e-08,1.78512500e-01
-5.29235938e-08,1.78490625e-01
-5.28835937e-08,1.78506250e-01
-5.28435937e-08,1.78495313e-01
-5.28035937e-08,1.78503125e-01
-5.27635937e-08,1.78498437e-01
-5.27235937e-08,1.78500000e-01
-5.26835937e-08,1.78500000e-01
-5.26435937e-08,1.78498437e-01
-5.26035937e-08,1.78503125e-01
-5.25635937e-08,1.78496875e-01
-5.25235937e-08,1.78504688e-01
-5.24835937e-08,1.78493750e-01
-5.24435937e-08,1.78507813e-01
-5.24035937e-08,1.78490625e-01
-5.23635937e-08,1.78512500e-01
-5.23235937e-08,1.78481250e-01
-5.22835937e-08,1.78528125e-01
-5.22435937e-08,1.78446875e-01
-5.22035937e-08,1.78706250e-01
-5.21635937e-08,1.78956250e-01
-5.21235937e-08,1.78867187e-01
-5.20835937e-08,1.78925000e-01
-5.20435937e-08,1.78879687e-01
-5.20035937e-08,1.78918750e-01
-5.19635937e-08,1.78882813e-01
-5.19235937e-08,1.78918750e-01
-5.18835937e-08,1.78878125e-01
-5.18435937e-08,1.78931250e-01
-5.18035937e-08,1.78845313e-01
-5.17635937e-08,1.79106250e-01
-5.17235937e-08,1.79357813e-01
-5.16835937e-08,1.79264063e-01
-5.16435937e-08,1.79328125e-01
-5.16035937e-08,1.79275000e-01
-5.15635937e-08,1.79325000e-01
-5.15235937e-08,1.79271875e-01
-5.14835937e-08,1.79337500e-01
-5.14435937e-08,1.79239063e-01
-5.14035937e-08,1.79512500e-01
-5.13635937e-08,1.79751563e-01
-5.13235937e-08,1.79671875e-01
-5.12835937e-08,1.79720313e-01
-5.12435937e-08,1.79682813e-01
-5.12035937e-08,1.79717188e-01
-5.11635937e-08,1.79681250e-01
-5.11235937e-08,1.79726563e-01
-5.10835937e-08,1.79650000e-01
-5.10435937e-08,1.79901563e-01
-5.10035938e-08,1.80160938e-01
-5.09635937e-08,1.80060938e-01
-5.09235937e-08,1.80131250e-01
-5.08835937e-08,1.80071875e-01
-5.08435937e-08,1.80128125e-01
-5.08035937e-08,1.80071875e-01
-5.07635937e-08,1.80131250e-01
-5.07235938e-08,1.80064063e-01
-5.06835937e-08,1.80145313e-01
-5.06435937e-08,1.80029688e-01
-5.06035937e-08,1.80323438e-01
-5.05635937e-08,1.80539063e-01
-5.05235937e-08,1.80485937e-01
-5.04835937e-08,1.80503125e-01
-5.04435937e-08,1.80503125e-01
-5.04035937e-08,1.80490625e-01
-5.03635937e-08,1.80514063e-01
-5.03235937e-08,1.80478125e-01
-5.02835937e-08,1.80532813e-01
-5.02435937e-08,1.80440625e-01
-5.02035937e-08,1.80712500e-01
-5.01635937e-08,1.80948438e-01
-5.01235937e-08,1.80878125e-01
-5.00835937e-08,1.80910938e-01
-5.00435937e-08,1.80895313e-01
-5.00035937e-08,1.80898438e-01
-4.99635937e-08,1.80906250e-01
-4.99235937e-08,1.80885938e-01
-4.98835937e-08,1.80925000e-01
-4.98435937e-08,1.80848438e-01
-4.98035937e-08,1.81106250e-01
-4.97635937e-08,1.81354688e-01
-4.97235937e-08,1.81270313e-01
-4.96835937e-08,1.81318750e-01
-4.96435937e-08,1.81287500e-01
-4.96035937e-08,1.81307812e-01
-4.95635937e-08,1.81295312e-01
-4.95235937e-08,1.81300000e-01
-4.94835937e-08,1.81304688e-01
-4.94435937e-08,1.81289063e-01
-4.94035937e-08,1.81320312e-01
-4.93635937e-08,1.81253125e-01
-4.93235937e-08,1.81500000e-01
-4.92835937e-08,1.81760937e-01
-4.92435937e-08,1.81664063e-01
-4.92035937e-08,1.81726562e-01
-4.91635937e-08,1.81678125e-01
-4.91235937e-08,1.81717188e-01
-4.90835938e-08,1.81684375e-01
-4.90435937e-08,1.81714062e-01
-4.90035937e-08,1.81687500e-01
-4.89635937e-08,1.81710938e-01
-4.89235937e-08,1.81690625e-01
-4.88835937e-08,1.81707813e-01
-4.88435937e-08,1.81692188e-01
-4.88035938e-08,1.81706250e-01
-4.87635937e-08,1.81693750e-01
-4.87235937e-08,1.81704688e-01
-4.86835937e-08,1.81695313e-01
-4.86435937e-08,1.81704688e-01
-4.86035937e-08,1.81696875e-01
-4.85635937e-08,1.81703125e-01
-4.85235938e-08,1.81698438e-01
-4.84835937e-08,1.81701562e-01
-4.84435937e-08,1.81700000e-01
-4.84035937e-08,1.81698438e-01
-4.83635937e-08,1.81701562e-01
-4.83235937e-08,1.81695313e-01
-4.82835937e-08,1.81706250e-01
-4.82435937e-08,1.81690625e-01
-4.82035937e-08,1.81714062e-01
-4.81635937e-08,1.81675000e-01
-4.81235937e-08,1.81750000e-01
-4.80835937e-08,1.81496875e-01
-4.80435937e-08,1.81240625e-01
-4.80035937e-08,1.81335938e-01
-4.79635937e-08,1.81273437e-01
-4.79235937e-08,1.81321875e-01
-4.78835937e-08,1.81281250e-01
-4.78435937e-08,1.81315625e-01
-4.78035937e-08,1.81285937e-01
-4.77635937e-08,1.81314063e-01
-4.77235937e-08,1.81287500e-01
-4.76835937e-08,1.81312500e-01
-4.76435937e-08,1.81287500e-01
-4.76035937e-08,1.81312500e-01
-4.75635937e-08,1.81287500e-01
-4.75235937e-08,1.81312500e-01
-4.74835937e-08,1.81287500e-01
-4.74435937e-08,1.81312500e-01
-4.74035937e-08,1.81285937e-01
-4.73635937e-08,1.81315625e-01
-4.73235937e-08,1.81281250e-01
-4.72835937e-08,1.81323438e-01
-4.72435937e-08,1.81268750e-01
-4.72035937e-08,1.81356250e-01
-4.71635938e-08,1.81090625e-01
-4.71235937e-08,1.80846875e-01
-4.70835937e-08,1.80929688e-01
-4.70435937e-08,1.80878125e-01
-4.70035937e-08,1.80917188e-01
-4.69635937e-08,1.80884375e-01
-4.69235937e-08,1.80914063e-01
-4.68835938e-08,1.80887500e-01
-4.68435937e-08,1.80912500e-01
-4.68035937e-08,1.80885938e-01
-4.67635937e-08,1.80914063e-01
-4.67235937e-08,1.80882813e-01
-4.66835937e-08,1.80918750e-01
-4.66435937e-08,1.80875000e-01
-4.66035938e-08,1.80934375e-01
-4.65635937e-08,1.80840625e-01
-4.65235937e-08,1.81112500e-01
-4.64835937e-08,1.81350000e-01
-4.64435937e-08,1.81275000e-01
-4.64035937e-08,1.81315625e-01
-4.63635937e-08,1.81289063e-01
-4.63235938e-08,1.81306250e-01
-4.62835937e-08,1.81296875e-01
-4.62435937e-08,1.81301563e-01
-4.62035937e-08,1.81301563e-01
-4.61635937e-08,1.81293750e-01
-4.61235937e-08,1.81310938e-01
-4.60835937e-08,1.81278125e-01
-4.60435937e-08,1.81346875e-01
-4.60035937e-08,1.81100000e-01
-4.59635937e-08,1.80837500e-01
-4.59235937e-08,1.80937500e-01
-4.58835937e-08,1.80871875e-01
-4.58435937e-08,1.80923438e-01
-4.58035937e-08,1.80879687e-01
-4.57635937e-08,1.80918750e-01
-4.57235937e-08,1.80882813e-01
-4.56835937e-08,1.80917188e-01
-4.56435937e-08,1.80884375e-01
-4.56035937e-08,1.80915625e-01
-4.55635937e-08,1.80884375e-01
-4.55235937e-08,1.80917188e-01
-4.54835937e-08,1.80882813e-01
-4.54435937e-08,1.80920313e-01
-4.54035937e-08,1.80878125e-01
-4.53635937e-08,1.80928125e-01
-4.53235937e-08,1.80862500e-01
-4.52835937e-08,1.80962500e-01
-4.52435938e-08,1.80685938e-01
-4.52035937e-08,1.80453125e-01
-4.51635937e-08,1.80523437e-01
-4.51235937e-08,1.80487500e-01
-4.50835937e-08,1.80507813e-01
-4.50435937e-08,1.80496875e-01
-4.50035937e-08,1.80498437e-01
-4.49635938e-08,1.80507813e-01
-4.49235937e-08,1.80482813e-01
-4.48835937e-08,1.80542188e-01
-4.48435937e-08,1.80304688e-01
-4.48035937e-08,1.80032813e-01
-4.47635937e-08,1.80145313e-01
-4.47235937e-08,1.80062500e-01
-4.46835938e-08,1.80134375e-01
-4.46435937e-08,1.80065625e-01
-4.46035937e-08,1.80137500e-01
-4.45635937e-08,1.80053125e-01
-4.45235937e-08,1.80170313e-01
-4.44835937e-08,1.79876563e-01
-4.44435937e-08,1.79660938e-01
-4.44035938e-08,1.79714062e-01
-4.43635937e-08,1.79695313e-01
-4.43235937e-08,1.79698438e-01
-4.42835937e-08,1.79706250e-01
-4.42435937e-08,1.79689062e-01
-4.42035937e-08,1.79718750e-01
-4.41635937e-08,1.79671875e-01
-4.41235938e-08,1.79754688e-01
-4.40835937e-08,1.79492188e-01
-4.40435937e-08,1.79246875e-01
-4.40035937e-08,1.79328125e-01
-4.39635937e-08,1.79281250e-01
-4.39235937e-08,1.79312500e-01
-4.38835937e-08,1.79290625e-01
-4.38435937e-08,1.79306250e-01
-4.38035937e-08,1.79296875e-01
-4.37635937e-08,1.79300000e-01
-4.37235937e-08,1.79303125e-01
-4.36835937e-08,1.79293750e-01
-4.36435937e-08,1.79312500e-01
-4.36035937e-08,1.79278125e-01
-4.35635937e-08,1.79348438e-01
-4.35235937e-08,1.79098438e-01
-4.34835937e-08,1.78839063e-01
-4.34435937e-08,1.78935938e-01
-4.34035937e-08,1.78873438e-01
-4.33635937e-08,1.78921875e-01
-4.33235938e-08,1.78881250e-01
-4.32835937e-08,1.78915625e-01
-4.32435937e-08,1.78885938e-01
-4.32035937e-08,1.78912500e-01
-4.31635937e-08,1.78887500e-01
-4.31235937e-08,1.78910938e-01
-4.30835937e-08,1.78889063e-01
-4.30435938e-08,1.78909375e-01
-4.30035937e-08,1.78890625e-01
-4.29635937e-08,1.78909375e-01
-4.29235937e-08,1.78892187e-01
-4.28835937e-08,1.78907813e-01
-4.28435937e-08,1.78892187e-01
-4.28035937e-08,1.78907813e-01
-4.27635938e-08,1.78892187e-01
-4.27235937e-08,1.78906250e-01
-4.26835937e-08,1.78893750e-01
-4.26435937e-08,1.78906250e-01
-4.26035937e-08,1.78893750e-01
-4.25635937e-08,1.78906250e-01
-4.25235937e-08,1.78893750e-01
-4.24835938e-08,1.78906250e-01
-4.24435937e-08,1.78893750e-01
-4.24035937e-08,1.78906250e-01
-4.23635937e-08,1.78893750e-01
-4.23235937e-08,1.78906250e-01
-4.22835937e-08,1.78893750e-01
-4.22435937e-08,1.78904688e-01
-4.22035938e-08,1.78895313e-01
-4.21635937e-08,1.78904688e-01
-4.21235937e-08,1.78895313e-01
-4.20835937e-08,1.78904688e-01
-4.20435937e-08,1.78895313e-01
-4.20035937e-08,1.78904688e-01
-4.19635937e-08,1.78895313e-01
-4.19235938e-08,1.78904688e-01
-4.18835937e-08,1.78895313e-01
-4.18435937e-08,1.78904688e-01
-4.18035937e-08,1.78895313e-01
-4.17635937e-08,1.78906250e-01
-4.17235937e-08,1.78893750e-01
-4.16835937e-08,1.78906250e-01
-4.16435937e-08,1.78893750e-01
-4.16035937e-08,1.78906250e-01
-4.15635937e-08,1.78893750e-01
-4.15235937e-08,1.78906250e-01
-4.14835937e-08,1.78892187e-01
-4.14435937e-08,1.78907813e-01
-4.14035938e-08,1.78892187e-01
-4.13635937e-08,1.78909375e-01
-4.13235937e-08,1.78890625e-01
-4.12835937e-08,1.78910938e-01
-4.12435937e-08,1.78885938e-01
-4.12035937e-08,1.78915625e-01
-4.11635937e-08,1.78878125e-01
-4.11235938e-08,1.78931250e-01
-4.10835937e-08,1.78843750e-01
-4.10435937e-08,1.79109375e-01
-4.10035937e-08,1.79353125e-01
-4.09635937e-08,1.79270313e-01
-4.09235937e-08,1.79320312e-01
-4.08835937e-08,1.79284375e-01
-4.08435938e-08,1.79312500e-01
-4.08035937e-08,1.79289063e-01
-4.07635937e-08,1.79309375e-01
-4.07235937e-08,1.79292188e-01
-4.06835937e-08,1.79307812e-01
-4.06435937e-08,1.79292188e-01
-4.06035937e-08,1.79306250e-01
-4.05635938e-08,1.79293750e-01
-4.05235937e-08,1.79306250e-01
-4.04835937e-08,1.79293750e-01
-4.04435937e-08,1.79306250e-01
-4.04035937e-08,1.79293750e-01
-4.03635937e-08,1.79306250e-01
-4.03235937e-08,1.79295312e-01
-4.02835938e-08,1.79306250e-01
-4.02435937e-08,1.79293750e-01
-4.02035937e-08,1.79306250e-01
-4.01635937e-08,1.79293750e-01
-4.01235937e-08,1.79306250e-01
-4.00835937e-08,1.79293750e-01
-4.00435937e-08,1.79306250e-01
-4.00035938e-08,1.79293750e-01
-3.99635937e-08,1.79306250e-01
-3.99235937e-08,1.79293750e-01
-3.98835937e-08,1.79306250e-01
-3.98435937e-08,1.79292188e-01
-3.98035937e-08,1.79307812e-01
-3.97635937e-08,1.79292188e-01
-3.97235937e-08,1.79307812e-01
-3.96835937e-08,1.79290625e-01
-3.96435937e-08,1.79309375e-01
-3.96035937e-08,1.79290625e-01
-3.95635937e-08,1.79310938e-01
-3.95235937e-08,1.79287500e-01
-3.94835938e-08,1.79314063e-01
-3.94435937e-08,1.79284375e-01
-3.94035937e-08,1.79317188e-01
-3.93635937e-08,1.79279688e-01
-3.93235937e-08,1.79326563e-01
-3.92835937e-08,1.79264063e-01
-3.92435937e-08,1.79360938e-01
-3.92035938e-08,1.79084375e-01
-3.91635937e-08,1.78853125e-01
-3.91235937e-08,1.78921875e-01
-3.90835937e-08,1.78887500e-01
-3.90435937e-08,1.78906250e-01
-3.90035937e-08,1.78898438e-01
-3.89635937e-08,1.78898438e-01
-3.89235938e-08,1.78906250e-01
-3.88835937e-08,1.78889063e-01
-3.88435937e-08,1.78917188e-01
-3.88035937e-08,1.78873438e-01
-3.87635937e-08,1.78953125e-01
-3.87235937e-08,1.78693750e-01
-3.86835937e-08,1.78445313e-01
-3.86435938e-08,1.78529688e-01
-3.86035937e-08,1.78479688e-01
-3.85635937e-08,1.78514063e-01
-3.85235937e-08,1.78489063e-01
