trails/0abb954fa332282a54c7a4841199d6d9/aes_ch1_20250507104018392.csv

Model,MSO66B
Label,
Waveform Type,ANALOG
Horizontal Units,s
Sample Interval,4.00000000e-11
Record Length,10000
Zero Index,1599.01953125
Vertical Units,A
ANALOG_Thumbnail,
yOffset,1.84500000e-01
yPosition,8.40000000e-01

Labels,
TIME,CH1
-6.39607813e-08,1.77689062e-01
-6.39207812e-08,1.77710937e-01
-6.38807813e-08,1.77687500e-01
-6.38407812e-08,1.77712500e-01
-6.38007812e-08,1.77685938e-01
-6.37607812e-08,1.77715625e-01
-6.37207812e-08,1.77682813e-01
-6.36807813e-08,1.77720313e-01
-6.36407812e-08,1.77673438e-01
-6.36007813e-08,1.77735937e-01
-6.35607812e-08,1.77639063e-01
-6.35207812e-08,1.77914062e-01
-6.34807812e-08,1.78148438e-01
-6.34407812e-08,1.78075000e-01
-6.34007813e-08,1.78114063e-01
-6.33607812e-08,1.78090625e-01
-6.33207813e-08,1.78106250e-01
-6.32807812e-08,1.78095313e-01
-6.32407812e-08,1.78101563e-01
-6.32007812e-08,1.78100000e-01
-6.31607812e-08,1.78100000e-01
-6.31207813e-08,1.78101563e-01
-6.30807812e-08,1.78096875e-01
-6.30407813e-08,1.78104687e-01
-6.30007812e-08,1.78093750e-01
-6.29607812e-08,1.78107813e-01
-6.29207812e-08,1.78089063e-01
-6.28807812e-08,1.78114063e-01
-6.28407813e-08,1.78081250e-01
-6.28007812e-08,1.78129687e-01
-6.27607813e-08,1.78045312e-01
-6.27207812e-08,1.78307812e-01
-6.26807812e-08,1.78554688e-01
-6.26407812e-08,1.78470313e-01
-6.26007812e-08,1.78520313e-01
-6.25607813e-08,1.78484375e-01
-6.25207812e-08,1.78510937e-01
-6.24807813e-08,1.78490625e-01
-6.24407812e-08,1.78507813e-01
-6.24007812e-08,1.78493750e-01
-6.23607812e-08,1.78504688e-01
-6.23207812e-08,1.78496875e-01
-6.22807813e-08,1.78501563e-01
-6.22407812e-08,1.78500000e-01
-6.22007813e-08,1.78498437e-01
-6.21607812e-08,1.78503125e-01
-6.21207812e-08,1.78495313e-01
-6.20807812e-08,1.78509375e-01
-6.20407812e-08,1.78485937e-01
-6.20007813e-08,1.78523437e-01
-6.19607812e-08,1.78451562e-01
-6.19207812e-08,1.78703125e-01
-6.18807812e-08,1.78959375e-01
-6.18407812e-08,1.78864063e-01
-6.18007812e-08,1.78926562e-01
-6.17607812e-08,1.78879687e-01
-6.17207813e-08,1.78918750e-01
-6.16807812e-08,1.78884375e-01
-6.16407812e-08,1.78914062e-01
-6.16007812e-08,1.78887500e-01
-6.15607812e-08,1.78912500e-01
-6.15207812e-08,1.78889063e-01
-6.14807812e-08,1.78910938e-01
-6.14407813e-08,1.78889063e-01
-6.14007812e-08,1.78909375e-01
-6.13607812e-08,1.78890625e-01
-6.13207812e-08,1.78909375e-01
-6.12807812e-08,1.78890625e-01
-6.12407812e-08,1.78909375e-01
-6.12007812e-08,1.78892187e-01
-6.11607813e-08,1.78907813e-01
-6.11207812e-08,1.78892187e-01
-6.10807812e-08,1.78907813e-01
-6.10407812e-08,1.78892187e-01
-6.10007812e-08,1.78907813e-01
-6.09607812e-08,1.78892187e-01
-6.09207812e-08,1.78907813e-01
-6.08807813e-08,1.78892187e-01
-6.08407812e-08,1.78907813e-01
-6.08007812e-08,1.78892187e-01
-6.07607812e-08,1.78907813e-01
-6.07207812e-08,1.78892187e-01
-6.06807812e-08,1.78907813e-01
-6.06407812e-08,1.78892187e-01
-6.06007813e-08,1.78907813e-01
-6.05607812e-08,1.78892187e-01
-6.05207812e-08,1.78907813e-01
-6.04807812e-08,1.78892187e-01
-6.04407812e-08,1.78907813e-01
-6.04007812e-08,1.78892187e-01
-6.03607812e-08,1.78907813e-01
-6.03207813e-08,1.78892187e-01
-6.02807812e-08,1.78907813e-01
-6.02407812e-08,1.78890625e-01
-6.02007812e-08,1.78909375e-01
-6.01607812e-08,1.78890625e-01
-6.01207813e-08,1.78909375e-01
-6.00807812e-08,1.78889063e-01
-6.00407813e-08,1.78910938e-01
-6.00007812e-08,1.78887500e-01
-5.99607812e-08,1.78912500e-01
-5.99207812e-08,1.78885938e-01
-5.98807812e-08,1.78917188e-01
-5.98407813e-08,1.78879687e-01
-5.98007812e-08,1.78925000e-01
-5.97607813e-08,1.78865625e-01
-5.97207812e-08,1.78959375e-01
-5.96807812e-08,1.78687500e-01
-5.96407812e-08,1.78450000e-01
-5.96007812e-08,1.78526563e-01
-5.95607812e-08,1.78482813e-01
-5.95207812e-08,1.78512500e-01
-5.94807812e-08,1.78490625e-01
-5.94407812e-08,1.78506250e-01
-5.94007812e-08,1.78495313e-01
-5.93607812e-08,1.78504688e-01
-5.93207812e-08,1.78496875e-01
-5.92807812e-08,1.78503125e-01
-5.92407812e-08,1.78498437e-01
-5.92007812e-08,1.78501563e-01
-5.91607812e-08,1.78498437e-01
-5.91207812e-08,1.78500000e-01
-5.90807812e-08,1.78500000e-01
-5.90407812e-08,1.78500000e-01
-5.90007812e-08,1.78500000e-01
-5.89607812e-08,1.78498437e-01
-5.89207812e-08,1.78501563e-01
-5.88807812e-08,1.78498437e-01
-5.88407812e-08,1.78501563e-01
-5.88007812e-08,1.78498437e-01
-5.87607812e-08,1.78501563e-01
-5.87207812e-08,1.78496875e-01
-5.86807812e-08,1.78503125e-01
-5.86407812e-08,1.78496875e-01
-5.86007812e-08,1.78503125e-01
-5.85607812e-08,1.78496875e-01
-5.85207812e-08,1.78504688e-01
-5.84807812e-08,1.78495313e-01
-5.84407812e-08,1.78504688e-01
-5.84007812e-08,1.78493750e-01
-5.83607812e-08,1.78506250e-01
-5.83207812e-08,1.78492188e-01
-5.82807812e-08,1.78507813e-01
-5.82407812e-08,1.78490625e-01
-5.82007812e-08,1.78510937e-01
-5.81607812e-08,1.78485937e-01
-5.81207812e-08,1.78517188e-01
-5.80807812e-08,1.78478125e-01
-5.80407812e-08,1.78531250e-01
-5.80007812e-08,1.78443750e-01
-5.79607812e-08,1.78710938e-01
-5.79207812e-08,1.78951562e-01
-5.78807812e-08,1.78873438e-01
-5.78407812e-08,1.78915625e-01
-5.78007812e-08,1.78889063e-01
-5.77607812e-08,1.78904688e-01
-5.77207812e-08,1.78900000e-01
-5.76807812e-08,1.78893750e-01
-5.76407812e-08,1.78915625e-01
-5.76007812e-08,1.78859375e-01
-5.75607812e-08,1.79093750e-01
-5.75207812e-08,1.79367187e-01
-5.74807812e-08,1.79256250e-01
-5.74407812e-08,1.79335938e-01
-5.74007812e-08,1.79268750e-01
-5.73607812e-08,1.79329688e-01
-5.73207812e-08,1.79270313e-01
-5.72807812e-08,1.79331250e-01
-5.72407812e-08,1.79264063e-01
-5.72007812e-08,1.79343750e-01
-5.71607812e-08,1.79231250e-01
-5.71207812e-08,1.79521875e-01
-5.70807812e-08,1.79740625e-01
-5.70407812e-08,1.79682813e-01
-5.70007812e-08,1.79707813e-01
-5.69607812e-08,1.79696875e-01
-5.69207812e-08,1.79700000e-01
-5.68807812e-08,1.79703125e-01
-5.68407812e-08,1.79695313e-01
-5.68007812e-08,1.79706250e-01
-5.67607812e-08,1.79690625e-01
-5.67207812e-08,1.79712500e-01
-5.66807812e-08,1.79684375e-01
-5.66407812e-08,1.79720313e-01
-5.66007812e-08,1.79668750e-01
-5.65607812e-08,1.79756250e-01
-5.65207812e-08,1.79490625e-01
-5.64807812e-08,1.79248437e-01
-5.64407812e-08,1.79328125e-01
-5.64007812e-08,1.79282812e-01
-5.63607812e-08,1.79310938e-01
-5.63207812e-08,1.79292188e-01
-5.62807812e-08,1.79304688e-01
-5.62407812e-08,1.79300000e-01
-5.62007812e-08,1.79296875e-01
-5.61607812e-08,1.79309375e-01
-5.61207812e-08,1.79281250e-01
-5.60807812e-08,1.79345313e-01
-5.60407812e-08,1.79101563e-01
-5.60007812e-08,1.78835938e-01
-5.59607812e-08,1.78940625e-01
-5.59207812e-08,1.78868750e-01
-5.58807812e-08,1.78926562e-01
-5.58407812e-08,1.78875000e-01
-5.58007812e-08,1.78923438e-01
-5.57607812e-08,1.78876563e-01
-5.57207812e-08,1.78923438e-01
-5.56807812e-08,1.78875000e-01
-5.56407812e-08,1.78929688e-01
-5.56007812e-08,1.78860938e-01
-5.55607812e-08,1.78962500e-01
-5.55207812e-08,1.78685938e-01
-5.54807812e-08,1.78451562e-01
-5.54407812e-08,1.78525000e-01
-5.54007812e-08,1.78482813e-01
-5.53607812e-08,1.78512500e-01
-5.53207812e-08,1.78489063e-01
-5.52807812e-08,1.78510937e-01
-5.52407812e-08,1.78489063e-01
-5.52007812e-08,1.78512500e-01
-5.51607812e-08,1.78482813e-01
-5.51207812e-08,1.78525000e-01
-5.50807812e-08,1.78450000e-01
-5.50407812e-08,1.78701562e-01
-5.50007812e-08,1.78960938e-01
-5.49607812e-08,1.78862500e-01
-5.49207812e-08,1.78929688e-01
-5.48807812e-08,1.78875000e-01
-5.48407812e-08,1.78923438e-01
-5.48007812e-08,1.78876563e-01
-5.47607812e-08,1.78923438e-01
-5.47207812e-08,1.78875000e-01
-5.46807812e-08,1.78926562e-01
-5.46407812e-08,1.78868750e-01
-5.46007812e-08,1.78940625e-01
-5.45607812e-08,1.78834375e-01
-5.45207812e-08,1.79118750e-01
-5.44807812e-08,1.79343750e-01
-5.44407812e-08,1.79281250e-01
-5.44007812e-08,1.79309375e-01
-5.43607812e-08,1.79296875e-01
-5.43207812e-08,1.79300000e-01
-5.42807812e-08,1.79303125e-01
-5.42407812e-08,1.79293750e-01
-5.42007812e-08,1.79310938e-01
-5.41607812e-08,1.79282812e-01
-5.41207812e-08,1.79326563e-01
-5.40807812e-08,1.79248437e-01
-5.40407812e-08,1.79506250e-01
-5.40007812e-08,1.79756250e-01
-5.39607812e-08,1.79667188e-01
-5.39207812e-08,1.79723437e-01
-5.38807812e-08,1.79682813e-01
-5.38407812e-08,1.79715625e-01
-5.38007812e-08,1.79687500e-01
-5.37607812e-08,1.79710938e-01
-5.37207812e-08,1.79689062e-01
-5.36807812e-08,1.79709375e-01
-5.36407812e-08,1.79690625e-01
-5.36007812e-08,1.79709375e-01
-5.35607812e-08,1.79690625e-01
-5.35207812e-08,1.79709375e-01
-5.34807812e-08,1.79690625e-01
-5.34407812e-08,1.79709375e-01
-5.34007812e-08,1.79690625e-01
-5.33607812e-08,1.79710938e-01
-5.33207812e-08,1.79687500e-01
-5.32807812e-08,1.79715625e-01
-5.32407812e-08,1.79679688e-01
-5.32007812e-08,1.79729688e-01
-5.31607812e-08,1.79645313e-01
-5.31207812e-08,1.79907813e-01
-5.30807812e-08,1.80154687e-01
-5.30407812e-08,1.80068750e-01
-5.30007812e-08,1.80121875e-01
-5.29607812e-08,1.80082812e-01
-5.29207812e-08,1.80115625e-01
-5.28807812e-08,1.80085938e-01
-5.28407812e-08,1.80112500e-01
-5.28007812e-08,1.80087500e-01
-5.27607812e-08,1.80110938e-01
-5.27207812e-08,1.80089063e-01
-5.26807812e-08,1.80110938e-01
-5.26407812e-08,1.80087500e-01
-5.26007812e-08,1.80112500e-01
-5.25607812e-08,1.80087500e-01
-5.25207812e-08,1.80114063e-01
-5.24807812e-08,1.80084375e-01
-5.24407813e-08,1.80118750e-01
-5.24007812e-08,1.80076563e-01
-5.23607812e-08,1.80134375e-01
-5.23207812e-08,1.80042188e-01
-5.22807812e-08,1.80310938e-01
-5.22407812e-08,1.80550000e-01
-5.22007812e-08,1.80473438e-01
-5.21607812e-08,1.80517188e-01
-5.21207812e-08,1.80487500e-01
-5.20807812e-08,1.80509375e-01
-5.20407812e-08,1.80492188e-01
-5.20007812e-08,1.80506250e-01
-5.19607812e-08,1.80495313e-01
-5.19207812e-08,1.80504688e-01
-5.18807812e-08,1.80496875e-01
-5.18407812e-08,1.80503125e-01
-5.18007812e-08,1.80496875e-01
-5.17607812e-08,1.80501563e-01
-5.17207812e-08,1.80498437e-01
-5.16807812e-08,1.80501563e-01
-5.16407812e-08,1.80498437e-01
-5.16007812e-08,1.80500000e-01
-5.15607812e-08,1.80500000e-01
-5.15207812e-08,1.80500000e-01
-5.14807812e-08,1.80500000e-01
-5.14407812e-08,1.80500000e-01
-5.14007812e-08,1.80500000e-01
-5.13607812e-08,1.80498437e-01
-5.13207812e-08,1.80501563e-01
-5.12807812e-08,1.80498437e-01
-5.12407812e-08,1.80501563e-01
-5.12007812e-08,1.80498437e-01
-5.11607812e-08,1.80503125e-01
-5.11207812e-08,1.80496875e-01
-5.10807812e-08,1.80503125e-01
-5.10407812e-08,1.80495313e-01
-5.10007812e-08,1.80504688e-01
-5.09607812e-08,1.80495313e-01
-5.09207812e-08,1.80506250e-01
-5.08807812e-08,1.80492188e-01
-5.08407812e-08,1.80509375e-01
-5.08007812e-08,1.80487500e-01
-5.07607812e-08,1.80517188e-01
-5.07207812e-08,1.80471875e-01
-5.06807812e-08,1.80551563e-01
-5.06407812e-08,1.80295312e-01
-5.06007812e-08,1.80042188e-01
-5.05607812e-08,1.80134375e-01
-5.05207813e-08,1.80075000e-01
-5.04807812e-08,1.80120313e-01
-5.04407812e-08,1.80082812e-01
-5.04007812e-08,1.80115625e-01
-5.03607812e-08,1.80085938e-01
-5.03207812e-08,1.80114063e-01
-5.02807812e-08,1.80085938e-01
-5.02407812e-08,1.80114063e-01
-5.02007812e-08,1.80084375e-01
-5.01607812e-08,1.80117187e-01
-5.01207812e-08,1.80081250e-01
-5.00807812e-08,1.80123438e-01
-5.00407812e-08,1.80067188e-01
-5.00007812e-08,1.80157813e-01
-4.99607812e-08,1.79889063e-01
-4.99207812e-08,1.79648438e-01
-4.98807812e-08,1.79728125e-01
-4.98407812e-08,1.79681250e-01
-4.98007812e-08,1.79714062e-01
-4.97607812e-08,1.79689062e-01
-4.97207812e-08,1.79709375e-01
-4.96807812e-08,1.79692188e-01
-4.96407812e-08,1.79707813e-01
-4.96007812e-08,1.79693750e-01
-4.95607812e-08,1.79706250e-01
-4.95207812e-08,1.79695313e-01
-4.94807812e-08,1.79704688e-01
-4.94407812e-08,1.79695313e-01
-4.94007812e-08,1.79704688e-01
-4.93607812e-08,1.79695313e-01
-4.93207812e-08,1.79704688e-01
-4.92807812e-08,1.79695313e-01
-4.92407812e-08,1.79704688e-01
-4.92007812e-08,1.79695313e-01
-4.91607812e-08,1.79704688e-01
-4.91207812e-08,1.79695313e-01
-4.90807812e-08,1.79704688e-01
-4.90407812e-08,1.79695313e-01
-4.90007812e-08,1.79704688e-01
-4.89607812e-08,1.79695313e-01
-4.89207812e-08,1.79704688e-01
-4.88807813e-08,1.79695313e-01
-4.88407812e-08,1.79704688e-01
-4.88007812e-08,1.79693750e-01
-4.87607812e-08,1.79706250e-01
-4.87207812e-08,1.79693750e-01
-4.86807812e-08,1.79706250e-01
-4.86407812e-08,1.79693750e-01
-4.86007813e-08,1.79707813e-01
-4.85607812e-08,1.79692188e-01
-4.85207812e-08,1.79709375e-01
-4.84807812e-08,1.79690625e-01
-4.84407812e-08,1.79712500e-01
-4.84007812e-08,1.79685938e-01
-4.83607812e-08,1.79717188e-01
-4.83207813e-08,1.79678125e-01
-4.82807812e-08,1.79731250e-01
-4.82407812e-08,1.79643750e-01
-4.82007812e-08,1.79909375e-01
-4.81607812e-08,1.80153125e-01
-4.81207812e-08,1.80071875e-01
-4.80807812e-08,1.80118750e-01
-4.80407812e-08,1.80085938e-01
-4.80007812e-08,1.80110938e-01
-4.79607812e-08,1.80090625e-01
-4.79207812e-08,1.80107813e-01
-4.78807812e-08,1.80093750e-01
-4.78407812e-08,1.80106250e-01
-4.78007812e-08,1.80095312e-01
-4.77607812e-08,1.80104687e-01
-4.77207812e-08,1.80096875e-01
-4.76807812e-08,1.80103125e-01
-4.76407812e-08,1.80096875e-01
-4.76007812e-08,1.80101563e-01
-4.75607812e-08,1.80098438e-01
-4.75207812e-08,1.80101563e-01
-4.74807812e-08,1.80098438e-01
-4.74407812e-08,1.80100000e-01
-4.74007812e-08,1.80100000e-01
-4.73607812e-08,1.80100000e-01
-4.73207812e-08,1.80100000e-01
-4.72807812e-08,1.80098438e-01
-4.72407812e-08,1.80101563e-01
-4.72007812e-08,1.80096875e-01
-4.71607812e-08,1.80103125e-01
-4.71207812e-08,1.80095312e-01
-4.70807812e-08,1.80107813e-01
-4.70407812e-08,1.80090625e-01
-4.70007812e-08,1.80114063e-01
-4.69607813e-08,1.80076563e-01
-4.69207812e-08,1.80148438e-01
-4.68807812e-08,1.79898438e-01
-4.68407812e-08,1.79637500e-01
-4.68007812e-08,1.79739063e-01
-4.67607812e-08,1.79668750e-01
-4.67207812e-08,1.79728125e-01
-4.66807813e-08,1.79671875e-01
-4.66407812e-08,1.79729688e-01
-4.66007812e-08,1.79662500e-01
-4.65607812e-08,1.79760937e-01
-4.65207812e-08,1.79487500e-01
-4.64807812e-08,1.79250000e-01
-4.64407812e-08,1.79328125e-01
-4.64007813e-08,1.79279688e-01
-4.63607812e-08,1.79317188e-01
-4.63207812e-08,1.79282812e-01
-4.62807812e-08,1.79320312e-01
-4.62407812e-08,1.79271875e-01
-4.62007812e-08,1.79351563e-01
-4.61607812e-08,1.79096875e-01
-4.61207813e-08,1.78839063e-01
-4.60807812e-08,1.78937500e-01
-4.60407812e-08,1.78868750e-01
-4.60007812e-08,1.78928125e-01
-4.59607812e-08,1.78871875e-01
-4.59207812e-08,1.78931250e-01
-4.58807812e-08,1.78859375e-01
-4.58407812e-08,1.78965625e-01
-4.58007812e-08,1.78682813e-01
-4.57607812e-08,1.78454688e-01
-4.57207812e-08,1.78520313e-01
-4.56807812e-08,1.78489063e-01
-4.56407812e-08,1.78504688e-01
-4.56007812e-08,1.78500000e-01
-4.55607812e-08,1.78495313e-01
-4.55207812e-08,1.78510937e-01
-4.54807812e-08,1.78479688e-01
-4.54407812e-08,1.78545312e-01
-4.54007812e-08,1.78301563e-01
-4.53607812e-08,1.78035938e-01
-4.53207812e-08,1.78140625e-01
-4.52807812e-08,1.78068750e-01
-4.52407812e-08,1.78126563e-01
-4.52007812e-08,1.78075000e-01
-4.51607812e-08,1.78125000e-01
-4.51207812e-08,1.78073438e-01
-4.50807812e-08,1.78131250e-01
-4.50407813e-08,1.78060938e-01
-4.50007812e-08,1.78164062e-01
-4.49607812e-08,1.77884375e-01
-4.49207812e-08,1.77653125e-01
-4.48807812e-08,1.77723437e-01
-4.48407812e-08,1.77685938e-01
-4.48007812e-08,1.77709375e-01
-4.47607813e-08,1.77692188e-01
-4.47207812e-08,1.77704688e-01
-4.46807812e-08,1.77695313e-01
-4.46407812e-08,1.77703125e-01
-4.46007812e-08,1.77696875e-01
-4.45607812e-08,1.77701562e-01
-4.45207812e-08,1.77698438e-01
-4.44807813e-08,1.77701562e-01
-4.44407812e-08,1.77698438e-01
-4.44007812e-08,1.77701562e-01
-4.43607812e-08,1.77700000e-01
-4.43207812e-08,1.77700000e-01
-4.42807812e-08,1.77700000e-01
-4.42407812e-08,1.77700000e-01
-4.42007813e-08,1.77700000e-01
-4.41607812e-08,1.77700000e-01
-4.41207812e-08,1.77700000e-01
-4.40807812e-08,1.77700000e-01
-4.40407812e-08,1.77698438e-01
-4.40007812e-08,1.77701562e-01
-4.39607812e-08,1.77698438e-01
-4.39207813e-08,1.77701562e-01
-4.38807812e-08,1.77696875e-01
-4.38407812e-08,1.77703125e-01
-4.38007812e-08,1.77693750e-01
-4.37607812e-08,1.77707813e-01
-4.37207812e-08,1.77687500e-01
-4.36807812e-08,1.77721875e-01
-4.36407812e-08,1.77654688e-01
-4.36007812e-08,1.77898438e-01
-4.35607812e-08,1.78165625e-01
-4.35207812e-08,1.78056250e-01
-4.34807812e-08,1.78135938e-01
-4.34407812e-08,1.78067188e-01
-4.34007812e-08,1.78132813e-01
-4.33607812e-08,1.78064063e-01
-4.33207812e-08,1.78145313e-01
-4.32807812e-08,1.78031250e-01
-4.32407812e-08,1.78321875e-01
-4.32007812e-08,1.78540625e-01
-4.31607812e-08,1.78484375e-01
-4.31207813e-08,1.78506250e-01
-4.30807812e-08,1.78500000e-01
-4.30407812e-08,1.78495313e-01
-4.30007812e-08,1.78510937e-01
-4.29607812e-08,1.78482813e-01
-4.29207812e-08,1.78526563e-01
-4.28807812e-08,1.78446875e-01
-4.28407813e-08,1.78706250e-01
-4.28007812e-08,1.78954688e-01
-4.27607812e-08,1.78868750e-01
-4.27207812e-08,1.78921875e-01
-4.26807812e-08,1.78884375e-01
-4.26407812e-08,1.78912500e-01
-4.26007812e-08,1.78889063e-01
-4.25607813e-08,1.78909375e-01
-4.25207812e-08,1.78892187e-01
-4.24807812e-08,1.78906250e-01
-4.24407812e-08,1.78893750e-01
-4.24007812e-08,1.78904688e-01
-4.23607812e-08,1.78895313e-01
-4.23207812e-08,1.78904688e-01
-4.22807813e-08,1.78896875e-01
-4.22407812e-08,1.78903125e-01
-4.22007812e-08,1.78896875e-01
-4.21607812e-08,1.78901562e-01
-4.21207812e-08,1.78898438e-01
-4.20807812e-08,1.78901562e-01
-4.20407812e-08,1.78898438e-01
-4.20007813e-08,1.78900000e-01
-4.19607812e-08,1.78900000e-01
-4.19207812e-08,1.78900000e-01
-4.18807812e-08,1.78900000e-01
-4.18407812e-08,1.78898438e-01
-4.18007812e-08,1.78901562e-01
-4.17607812e-08,1.78898438e-01
-4.17207813e-08,1.78901562e-01
-4.16807812e-08,1.78896875e-01
-4.16407812e-08,1.78903125e-01
-4.16007812e-08,1.78895313e-01
-4.15607812e-08,1.78904688e-01
-4.15207812e-08,1.78893750e-01
-4.14807812e-08,1.78907813e-01
-4.14407812e-08,1.78890625e-01
-4.14007812e-08,1.78912500e-01
-4.13607812e-08,1.78881250e-01
-4.13207812e-08,1.78928125e-01
-4.12807812e-08,1.78846875e-01
-4.12407812e-08,1.79106250e-01
-4.12007813e-08,1.79356250e-01
-4.11607812e-08,1.79267188e-01
-4.11207812e-08,1.79323438e-01
-4.10807812e-08,1.79282812e-01
-4.10407812e-08,1.79314063e-01
-4.10007812e-08,1.79287500e-01
-4.09607812e-08,1.79310938e-01
-4.09207813e-08,1.79290625e-01
-4.08807812e-08,1.79309375e-01
-4.08407812e-08,1.79292188e-01
-4.08007812e-08,1.79307812e-01
-4.07607812e-08,1.79292188e-01
-4.07207812e-08,1.79306250e-01
-4.06807812e-08,1.79293750e-01
-4.06407813e-08,1.79306250e-01
-4.06007812e-08,1.79293750e-01
-4.05607812e-08,1.79304688e-01
-4.05207812e-08,1.79295312e-01
-4.04807812e-08,1.79304688e-01
-4.04407812e-08,1.79295312e-01
-4.04007812e-08,1.79304688e-01
-4.03607813e-08,1.79295312e-01
-4.03207812e-08,1.79304688e-01
-4.02807812e-08,1.79295312e-01
-4.02407812e-08,1.79304688e-01
-4.02007812e-08,1.79295312e-01
-4.01607812e-08,1.79304688e-01
-4.01207812e-08,1.79296875e-01
-4.00807813e-08,1.79303125e-01
-4.00407812e-08,1.79296875e-01
-4.00007812e-08,1.79303125e-01
-3.99607812e-08,1.79296875e-01
-3.99207812e-08,1.79303125e-01
-3.98807812e-08,1.79296875e-01
-3.98407812e-08,1.79303125e-01
-3.98007813e-08,1.79296875e-01
-3.97607812e-08,1.79303125e-01
-3.97207812e-08,1.79296875e-01
-3.96807812e-08,1.79303125e-01
-3.96407812e-08,1.79296875e-01
-3.96007812e-08,1.79303125e-01
-3.95607812e-08,1.79296875e-01
-3.95207813e-08,1.79303125e-01
-3.94807812e-08,1.79296875e-01
-3.94407812e-08,1.79303125e-01
-3.94007812e-08,1.79296875e-01
-3.93607812e-08,1.79303125e-01
-3.93207812e-08,1.79296875e-01
-3.92807813e-08,1.79303125e-01
-3.92407812e-08,1.79296875e-01
-3.92007812e-08,1.79303125e-01
-3.91607812e-08,1.79296875e-01
-3.91207812e-08,1.79303125e-01
-3.90807812e-08,1.79296875e-01
-3.90407812e-08,1.79303125e-01
-3.90007813e-08,1.79296875e-01
-3.89607812e-08,1.79303125e-01
-3.89207812e-08,1.79296875e-01
-3.88807812e-08,1.79303125e-01
-3.88407812e-08,1.79296875e-01
-3.88007812e-08,1.79303125e-01
-3.87607812e-08,1.79296875e-01
-3.87207813e-08,1.79303125e-01
-3.86807812e-08,1.79296875e-01
-3.86407812e-08,1.79303125e-01
-3.86007812e-08,1.79296875e-01
-3.85607812e-08,1.79303125e-01
-3.85207812e-08,1.79296875e-01
