dpa/aes_ch1_20250506141102939.csv

Model,MSO66B
Label,
Waveform Type,ANALOG
Horizontal Units,s
Sample Interval,4.00000000e-11
Record Length,100000
Zero Index,15999.04296875
Vertical Units,A
ANALOG_Thumbnail,
yOffset,1.84500000e-01
yPosition,8.40000000e-01

Labels,
TIME,CH1
-6.39961719e-07,1.89698438e-01
-6.39921719e-07,1.89701563e-01
-6.39881719e-07,1.89698438e-01
-6.39841719e-07,1.89701563e-01
-6.39801719e-07,1.89698438e-01
-6.39761719e-07,1.89703125e-01
-6.39721719e-07,1.89696875e-01
-6.39681719e-07,1.89703125e-01
-6.39641719e-07,1.89696875e-01
-6.39601719e-07,1.89703125e-01
-6.39561719e-07,1.89695313e-01
-6.39521719e-07,1.89704687e-01
-6.39481719e-07,1.89695313e-01
-6.39441719e-07,1.89706250e-01
-6.39401719e-07,1.89692187e-01
-6.39361719e-07,1.89709375e-01
-6.39321719e-07,1.89689063e-01
-6.39281719e-07,1.89714063e-01
-6.39241719e-07,1.89681250e-01
-6.39201719e-07,1.89728125e-01
-6.39161719e-07,1.89646875e-01
-6.39121719e-07,1.89906250e-01
-6.39081719e-07,1.90154688e-01
-6.39041719e-07,1.90068750e-01
-6.39001719e-07,1.90121875e-01
-6.38961719e-07,1.90082813e-01
-6.38921719e-07,1.90114063e-01
-6.38881719e-07,1.90089063e-01
-6.38841719e-07,1.90109375e-01
-6.38801719e-07,1.90092188e-01
-6.38761719e-07,1.90106250e-01
-6.38721719e-07,1.90093750e-01
-6.38681719e-07,1.90104688e-01
-6.38641719e-07,1.90096875e-01
-6.38601719e-07,1.90101563e-01
-6.38561719e-07,1.90100000e-01
-6.38521719e-07,1.90096875e-01
-6.38481719e-07,1.90109375e-01
-6.38441719e-07,1.90081250e-01
-6.38401719e-07,1.90142188e-01
-6.38361719e-07,1.89904688e-01
-6.38321719e-07,1.89632812e-01
-6.38281719e-07,1.89743750e-01
-6.38241719e-07,1.89665625e-01
-6.38201719e-07,1.89731250e-01
-6.38161719e-07,1.89671875e-01
-6.38121719e-07,1.89728125e-01
-6.38081719e-07,1.89671875e-01
-6.38041719e-07,1.89729688e-01
-6.38001719e-07,1.89668750e-01
-6.37961719e-07,1.89735938e-01
-6.37921719e-07,1.89653125e-01
-6.37881719e-07,1.89771875e-01
-6.37841719e-07,1.89475000e-01
-6.37801719e-07,1.89262500e-01
-6.37761719e-07,1.89312500e-01
-6.37721719e-07,1.89296875e-01
-6.37681719e-07,1.89296875e-01
-6.37641719e-07,1.89309375e-01
-6.37601719e-07,1.89285938e-01
-6.37561719e-07,1.89320313e-01
-6.37521719e-07,1.89268750e-01
-6.37481719e-07,1.89357813e-01
-6.37441719e-07,1.89087500e-01
-6.37401719e-07,1.88850000e-01
-6.37361719e-07,1.88925000e-01
-6.37321719e-07,1.88885938e-01
-6.37281719e-07,1.88907812e-01
-6.37241719e-07,1.88898438e-01
-6.37201719e-07,1.88896875e-01
-6.37161719e-07,1.88909375e-01
-6.37121719e-07,1.88879688e-01
-6.37081719e-07,1.88946875e-01
-6.37041719e-07,1.88700000e-01
-6.37001719e-07,1.88437500e-01
-6.36961719e-07,1.88537500e-01
-6.36921719e-07,1.88471875e-01
-6.36881719e-07,1.88523438e-01
-6.36841719e-07,1.88478125e-01
-6.36801719e-07,1.88520313e-01
-6.36761719e-07,1.88479687e-01
-6.36721719e-07,1.88520313e-01
-6.36681719e-07,1.88478125e-01
-6.36641719e-07,1.88525000e-01
-6.36601719e-07,1.88465625e-01
-6.36561719e-07,1.88557813e-01
-6.36521719e-07,1.88289062e-01
-6.36481719e-07,1.88046875e-01
-6.36441719e-07,1.88129688e-01
-6.36401719e-07,1.88078125e-01
-6.36361719e-07,1.88117188e-01
-6.36321719e-07,1.88084375e-01
-6.36281719e-07,1.88115625e-01
-6.36241719e-07,1.88084375e-01
-6.36201719e-07,1.88117188e-01
-6.36161719e-07,1.88081250e-01
-6.36121719e-07,1.88123438e-01
-6.36081719e-07,1.88067188e-01
-6.36041719e-07,1.88157813e-01
-6.36001719e-07,1.87889063e-01
-6.35961719e-07,1.87650000e-01
-6.35921719e-07,1.87726562e-01
-6.35881719e-07,1.87682813e-01
-6.35841719e-07,1.87710938e-01
-6.35801719e-07,1.87692187e-01
-6.35761719e-07,1.87703125e-01
-6.35721719e-07,1.87700000e-01
-6.35681719e-07,1.87696875e-01
-6.35641719e-07,1.87709375e-01
-6.35601719e-07,1.87681250e-01
-6.35561719e-07,1.87743750e-01
-6.35521719e-07,1.87503125e-01
-6.35481719e-07,1.87235938e-01
-6.35441719e-07,1.87340625e-01
-6.35401719e-07,1.87268750e-01
-6.35361719e-07,1.87326563e-01
-6.35321719e-07,1.87276563e-01
-6.35281719e-07,1.87321875e-01
-6.35241719e-07,1.87278125e-01
-6.35201719e-07,1.87320313e-01
-6.35161719e-07,1.87279688e-01
-6.35121719e-07,1.87321875e-01
-6.35081719e-07,1.87278125e-01
-6.35041719e-07,1.87323437e-01
-6.35001719e-07,1.87273438e-01
-6.34961719e-07,1.87331250e-01
-6.34921719e-07,1.87259375e-01
-6.34881719e-07,1.87365625e-01
-6.34841719e-07,1.87081250e-01
-6.34801719e-07,1.86856250e-01
-6.34761719e-07,1.86920313e-01
-6.34721719e-07,1.86889063e-01
-6.34681719e-07,1.86906250e-01
-6.34641719e-07,1.86896875e-01
-6.34601719e-07,1.86900000e-01
-6.34561719e-07,1.86901563e-01
-6.34521719e-07,1.86896875e-01
-6.34481719e-07,1.86903125e-01
-6.34441719e-07,1.86895313e-01
-6.34401719e-07,1.86906250e-01
-6.34361719e-07,1.86893750e-01
-6.34321719e-07,1.86907812e-01
-6.34281719e-07,1.86892188e-01
-6.34241719e-07,1.86909375e-01
-6.34201719e-07,1.86889063e-01
-6.34161719e-07,1.86912500e-01
-6.34121719e-07,1.86884375e-01
-6.34081719e-07,1.86918750e-01
-6.34041719e-07,1.86875000e-01
-6.34001719e-07,1.86934375e-01
-6.33961719e-07,1.86840625e-01
-6.33921719e-07,1.87114063e-01
-6.33881719e-07,1.87348438e-01
-6.33841719e-07,1.87276563e-01
-6.33801719e-07,1.87314063e-01
-6.33761719e-07,1.87292188e-01
-6.33721719e-07,1.87304688e-01
-6.33681719e-07,1.87298437e-01
-6.33641719e-07,1.87298437e-01
-6.33601719e-07,1.87304688e-01
-6.33561719e-07,1.87292188e-01
-6.33521719e-07,1.87310937e-01
-6.33481719e-07,1.87282813e-01
-6.33441719e-07,1.87328125e-01
-6.33401719e-07,1.87245313e-01
-6.33361719e-07,1.87507813e-01
-6.33321719e-07,1.87753125e-01
-6.33281719e-07,1.87671875e-01
-6.33241719e-07,1.87715625e-01
-6.33201719e-07,1.87692187e-01
-6.33161719e-07,1.87700000e-01
-6.33121719e-07,1.87710938e-01
-6.33081719e-07,1.87662500e-01
-6.33041719e-07,1.87890625e-01
-6.33001719e-07,1.88171875e-01
-6.32961719e-07,1.88050000e-01
-6.32921719e-07,1.88142188e-01
-6.32881719e-07,1.88059375e-01
-6.32841719e-07,1.88146875e-01
-6.32801719e-07,1.88031250e-01
-6.32761719e-07,1.88318750e-01
-6.32721719e-07,1.88545313e-01
-6.32681719e-07,1.88476562e-01
-6.32641719e-07,1.88517188e-01
-6.32601719e-07,1.88485938e-01
-6.32561719e-07,1.88515625e-01
-6.32521719e-07,1.88481250e-01
-6.32481719e-07,1.88528125e-01
-6.32441719e-07,1.88448438e-01
-6.32401719e-07,1.88704687e-01
-6.32361719e-07,1.88957813e-01
-6.32321719e-07,1.88865625e-01
-6.32281719e-07,1.88926563e-01
-6.32241719e-07,1.88879688e-01
-6.32201719e-07,1.88918750e-01
-6.32161719e-07,1.88884375e-01
-6.32121719e-07,1.88914063e-01
-6.32081719e-07,1.88885938e-01
-6.32041719e-07,1.88912500e-01
-6.32001719e-07,1.88887500e-01
-6.31961719e-07,1.88912500e-01
-6.31921719e-07,1.88887500e-01
-6.31881719e-07,1.88910938e-01
-6.31841719e-07,1.88889063e-01
-6.31801719e-07,1.88910938e-01
-6.31761719e-07,1.88889063e-01
-6.31721719e-07,1.88910938e-01
-6.31681719e-07,1.88889063e-01
-6.31641719e-07,1.88910938e-01
-6.31601719e-07,1.88889063e-01
-6.31561719e-07,1.88910938e-01
-6.31521719e-07,1.88889063e-01
-6.31481719e-07,1.88910938e-01
-6.31441719e-07,1.88889063e-01
-6.31401719e-07,1.88912500e-01
-6.31361719e-07,1.88887500e-01
-6.31321719e-07,1.88912500e-01
-6.31281719e-07,1.88887500e-01
-6.31241719e-07,1.88914063e-01
-6.31201719e-07,1.88885938e-01
-6.31161719e-07,1.88915625e-01
-6.31121719e-07,1.88882812e-01
-6.31081719e-07,1.88918750e-01
-6.31041719e-07,1.88878125e-01
-6.31001719e-07,1.88928125e-01
-6.30961719e-07,1.88862500e-01
-6.30921719e-07,1.88962500e-01
-6.30881719e-07,1.88684375e-01
-6.30841719e-07,1.88453125e-01
-6.30801719e-07,1.88521875e-01
-6.30761719e-07,1.88487500e-01
-6.30721719e-07,1.88507813e-01
-6.30681719e-07,1.88495313e-01
-6.30641719e-07,1.88503125e-01
-6.30601719e-07,1.88500000e-01
-6.30561719e-07,1.88498438e-01
-6.30521719e-07,1.88501562e-01
-6.30481719e-07,1.88496875e-01
-6.30441719e-07,1.88504688e-01
-6.30401719e-07,1.88493750e-01
-6.30361719e-07,1.88506250e-01
-6.30321719e-07,1.88492188e-01
-6.30281719e-07,1.88510938e-01
-6.30241719e-07,1.88487500e-01
-6.30201719e-07,1.88515625e-01
-6.30161719e-07,1.88478125e-01
-6.30121719e-07,1.88531250e-01
-6.30081719e-07,1.88443750e-01
-6.30041719e-07,1.88709375e-01
-6.30001719e-07,1.88953125e-01
-6.29961719e-07,1.88871875e-01
-6.29921719e-07,1.88918750e-01
-6.29881719e-07,1.88885938e-01
-6.29841719e-07,1.88910938e-01
-6.29801719e-07,1.88890625e-01
-6.29761719e-07,1.88907812e-01
-6.29721719e-07,1.88893750e-01
-6.29681719e-07,1.88904688e-01
-6.29641719e-07,1.88895312e-01
-6.29601719e-07,1.88903125e-01
-6.29561719e-07,1.88896875e-01
-6.29521719e-07,1.88901563e-01
-6.29481719e-07,1.88898438e-01
-6.29441719e-07,1.88901563e-01
-6.29401719e-07,1.88900000e-01
-6.29361719e-07,1.88900000e-01
-6.29321719e-07,1.88900000e-01
-6.29281719e-07,1.88900000e-01
-6.29241719e-07,1.88901563e-01
-6.29201719e-07,1.88898438e-01
-6.29161719e-07,1.88901563e-01
-6.29121719e-07,1.88898438e-01
-6.29081719e-07,1.88903125e-01
-6.29041719e-07,1.88896875e-01
-6.29001719e-07,1.88903125e-01
-6.28961719e-07,1.88895312e-01
-6.28921719e-07,1.88904688e-01
-6.28881719e-07,1.88893750e-01
-6.28841719e-07,1.88906250e-01
-6.28801719e-07,1.88892188e-01
-6.28761719e-07,1.88909375e-01
-6.28721719e-07,1.88889063e-01
-6.28681719e-07,1.88912500e-01
-6.28641719e-07,1.88884375e-01
-6.28601719e-07,1.88921875e-01
-6.28561719e-07,1.88868750e-01
-6.28521719e-07,1.88957813e-01
-6.28481719e-07,1.88689063e-01
-6.28441719e-07,1.88448438e-01
-6.28401719e-07,1.88526562e-01
-6.28361719e-07,1.88484375e-01
-6.28321719e-07,1.88509375e-01
-6.28281719e-07,1.88495313e-01
-6.28241719e-07,1.88500000e-01
-6.28201719e-07,1.88506250e-01
-6.28161719e-07,1.88482813e-01
-6.28121719e-07,1.88542188e-01
-6.28081719e-07,1.88304688e-01
-6.28041719e-07,1.88031250e-01
-6.28001719e-07,1.88145312e-01
-6.27961719e-07,1.88062500e-01
-6.27921719e-07,1.88137500e-01
-6.27881719e-07,1.88057813e-01
-6.27841719e-07,1.88164063e-01
-6.27801719e-07,1.87885938e-01
-6.27761719e-07,1.87650000e-01
-6.27721719e-07,1.87729688e-01
-6.27681719e-07,1.87675000e-01
-6.27641719e-07,1.87726562e-01
-6.27601719e-07,1.87667187e-01
-6.27561719e-07,1.87757813e-01
-6.27521719e-07,1.87489062e-01
-6.27481719e-07,1.87248438e-01
-6.27441719e-07,1.87325000e-01
-6.27401719e-07,1.87287500e-01
-6.27361719e-07,1.87300000e-01
-6.27321719e-07,1.87326563e-01
-6.27281719e-07,1.87121875e-01
-6.27241719e-07,1.86814063e-01
-6.27201719e-07,1.86967188e-01
-6.27161719e-07,1.86832813e-01
-6.27121719e-07,1.86987500e-01
-6.27081719e-07,1.86662500e-01
-6.27041719e-07,1.86475000e-01
-6.27001719e-07,1.86500000e-01
-6.26961719e-07,1.86512500e-01
-6.26921719e-07,1.86475000e-01
-6.26881719e-07,1.86551563e-01
-6.26841719e-07,1.86295313e-01
-6.26801719e-07,1.86042188e-01
-6.26761719e-07,1.86134375e-01
-6.26721719e-07,1.86071875e-01
-6.26681719e-07,1.86126563e-01
-6.26641719e-07,1.86067188e-01
-6.26601719e-07,1.86154687e-01
-6.26561719e-07,1.85893750e-01
-6.26521719e-07,1.85642187e-01
-6.26481719e-07,1.85735938e-01
-6.26441719e-07,1.85670313e-01
-6.26401719e-07,1.85726562e-01
-6.26361719e-07,1.85671875e-01
-6.26321719e-07,1.85731250e-01
-6.26281719e-07,1.85660938e-01
-6.26241719e-07,1.85764062e-01
-6.26201719e-07,1.85482813e-01
-6.26161719e-07,1.85253125e-01
-6.26121719e-07,1.85321875e-01
-6.26081719e-07,1.85285937e-01
-6.26041719e-07,1.85309375e-01
-6.26001719e-07,1.85293750e-01
-6.25961719e-07,1.85303125e-01
-6.25921719e-07,1.85296875e-01
-6.25881719e-07,1.85301563e-01
-6.25841719e-07,1.85300000e-01
-6.25801719e-07,1.85300000e-01
-6.25761719e-07,1.85301563e-01
-6.25721719e-07,1.85298437e-01
-6.25681719e-07,1.85301563e-01
-6.25641719e-07,1.85296875e-01
-6.25601719e-07,1.85303125e-01
-6.25561719e-07,1.85296875e-01
-6.25521719e-07,1.85304688e-01
-6.25481719e-07,1.85295313e-01
-6.25441719e-07,1.85304688e-01
-6.25401719e-07,1.85293750e-01
-6.25361719e-07,1.85306250e-01
-6.25321719e-07,1.85292188e-01
-6.25281719e-07,1.85309375e-01
-6.25241719e-07,1.85290625e-01
-6.25201719e-07,1.85310937e-01
-6.25161719e-07,1.85285937e-01
-6.25121719e-07,1.85317188e-01
-6.25081719e-07,1.85278125e-01
-6.25041719e-07,1.85332812e-01
-6.25001719e-07,1.85242188e-01
-6.24961719e-07,1.85510938e-01
-6.24921719e-07,1.85751562e-01
-6.24881719e-07,1.85673438e-01
-6.24841719e-07,1.85717188e-01
-6.24801719e-07,1.85687500e-01
-6.24761719e-07,1.85709375e-01
-6.24721719e-07,1.85693750e-01
-6.24681719e-07,1.85704688e-01
-6.24641719e-07,1.85696875e-01
-6.24601719e-07,1.85701563e-01
-6.24561719e-07,1.85700000e-01
-6.24521719e-07,1.85698438e-01
-6.24481719e-07,1.85704688e-01
-6.24441719e-07,1.85693750e-01
-6.24401719e-07,1.85709375e-01
-6.24361719e-07,1.85684375e-01
-6.24321719e-07,1.85725000e-01
-6.24281719e-07,1.85650000e-01
-6.24241719e-07,1.85903125e-01
-6.24201719e-07,1.86157813e-01
-6.24161719e-07,1.86065625e-01
-6.24121719e-07,1.86125000e-01
-6.24081719e-07,1.86081250e-01
-6.24041719e-07,1.86115625e-01
-6.24001719e-07,1.86085938e-01
-6.23961719e-07,1.86110938e-01
-6.23921719e-07,1.86089063e-01
-6.23881719e-07,1.86109375e-01
-6.23841719e-07,1.86092188e-01
-6.23801719e-07,1.86106250e-01
-6.23761719e-07,1.86095312e-01
-6.23721719e-07,1.86103125e-01
-6.23681719e-07,1.86100000e-01
-6.23641719e-07,1.86093750e-01
-6.23601719e-07,1.86114063e-01
-6.23561719e-07,1.86060937e-01
-6.23521719e-07,1.86292188e-01
-6.23481719e-07,1.86571875e-01
-6.23441719e-07,1.86451563e-01
-6.23401719e-07,1.86540625e-01
-6.23361719e-07,1.86460938e-01
-6.23321719e-07,1.86539063e-01
-6.23281719e-07,1.86457813e-01
-6.23241719e-07,1.86551563e-01
-6.23201719e-07,1.86425000e-01
-6.23161719e-07,1.86728125e-01
-6.23121719e-07,1.86932813e-01
-6.23081719e-07,1.86892188e-01
-6.23041719e-07,1.86896875e-01
-6.23001719e-07,1.86910938e-01
-6.22961719e-07,1.86881250e-01
-6.22921719e-07,1.86931250e-01
-6.22881719e-07,1.86842188e-01
-6.22841719e-07,1.87112500e-01
-6.22801719e-07,1.87348438e-01
-6.22761719e-07,1.87276563e-01
-6.22721719e-07,1.87312500e-01
-6.22681719e-07,1.87296875e-01
-6.22641719e-07,1.87295313e-01
-6.22601719e-07,1.87315625e-01
-6.22561719e-07,1.87257813e-01
-6.22521719e-07,1.87495313e-01
-6.22481719e-07,1.87767188e-01
-6.22441719e-07,1.87656250e-01
-6.22401719e-07,1.87734375e-01
-6.22361719e-07,1.87668750e-01
-6.22321719e-07,1.87731250e-01
-6.22281719e-07,1.87667187e-01
-6.22241719e-07,1.87740625e-01
-6.22201719e-07,1.87635938e-01
-6.22161719e-07,1.87915625e-01
-6.22121719e-07,1.88146875e-01
-6.22081719e-07,1.88076563e-01
-6.22041719e-07,1.88115625e-01
-6.22001719e-07,1.88089063e-01
-6.21961719e-07,1.88109375e-01
-6.21921719e-07,1.88092188e-01
-6.21881719e-07,1.88107812e-01
-6.21841719e-07,1.88092188e-01
-6.21801719e-07,1.88107812e-01
-6.21761719e-07,1.88092188e-01
-6.21721719e-07,1.88109375e-01
-6.21681719e-07,1.88089063e-01
-6.21641719e-07,1.88114063e-01
-6.21601719e-07,1.88081250e-01
-6.21561719e-07,1.88128125e-01
-6.21521719e-07,1.88048437e-01
-6.21481719e-07,1.88304688e-01
-6.21441719e-07,1.88557813e-01
-6.21401719e-07,1.88465625e-01
-6.21361719e-07,1.88525000e-01
-6.21321719e-07,1.88479687e-01
-6.21281719e-07,1.88518750e-01
-6.21241719e-07,1.88484375e-01
-6.21201719e-07,1.88515625e-01
-6.21161719e-07,1.88484375e-01
-6.21121719e-07,1.88515625e-01
-6.21081719e-07,1.88484375e-01
-6.21041719e-07,1.88515625e-01
-6.21001719e-07,1.88482813e-01
-6.20961719e-07,1.88518750e-01
-6.20921719e-07,1.88478125e-01
-6.20881719e-07,1.88526562e-01
-6.20841719e-07,1.88464063e-01
-6.20801719e-07,1.88560937e-01
-6.20761719e-07,1.88285938e-01
-6.20721719e-07,1.88051563e-01
-6.20681719e-07,1.88125000e-01
-6.20641719e-07,1.88084375e-01
-6.20601719e-07,1.88110938e-01
-6.20561719e-07,1.88092188e-01
-6.20521719e-07,1.88104688e-01
-6.20481719e-07,1.88096875e-01
-6.20441719e-07,1.88101563e-01
-6.20401719e-07,1.88098437e-01
-6.20361719e-07,1.88100000e-01
-6.20321719e-07,1.88100000e-01
-6.20281719e-07,1.88098437e-01
-6.20241719e-07,1.88101563e-01
-6.20201719e-07,1.88096875e-01
-6.20161719e-07,1.88104688e-01
-6.20121719e-07,1.88095313e-01
-6.20081719e-07,1.88106250e-01
-6.20041719e-07,1.88092188e-01
-6.20001719e-07,1.88110938e-01
-6.19961719e-07,1.88085937e-01
-6.19921719e-07,1.88118750e-01
-6.19881719e-07,1.88071875e-01
-6.19841719e-07,1.88153125e-01
-6.19801719e-07,1.87893750e-01
-6.19761719e-07,1.87645312e-01
-6.19721719e-07,1.87731250e-01
-6.19681719e-07,1.87678125e-01
-6.19641719e-07,1.87717187e-01
-6.19601719e-07,1.87685938e-01
-6.19561719e-07,1.87710938e-01
-6.19521719e-07,1.87690625e-01
-6.19481719e-07,1.87709375e-01
-6.19441719e-07,1.87692187e-01
-6.19401719e-07,1.87706250e-01
-6.19361719e-07,1.87693750e-01
-6.19321719e-07,1.87704687e-01
-6.19281719e-07,1.87695313e-01
-6.19241719e-07,1.87704687e-01
-6.19201719e-07,1.87696875e-01
-6.19161719e-07,1.87703125e-01
-6.19121719e-07,1.87696875e-01
-6.19081719e-07,1.87701563e-01
-6.19041719e-07,1.87698438e-01
-6.19001719e-07,1.87700000e-01
-6.18961719e-07,1.87700000e-01
-6.18921719e-07,1.87698438e-01
-6.18881719e-07,1.87703125e-01
-6.18841719e-07,1.87695313e-01
-6.18801719e-07,1.87707813e-01
-6.18761719e-07,1.87687500e-01
-6.18721719e-07,1.87721875e-01
-6.18681719e-07,1.87653125e-01
-6.18641719e-07,1.87900000e-01
-6.18601719e-07,1.88162500e-01
-6.18561719e-07,1.88060937e-01
-6.18521719e-07,1.88131250e-01
-6.18481719e-07,1.88073437e-01
-6.18441719e-07,1.88125000e-01
-6.18401719e-07,1.88075000e-01
-6.18361719e-07,1.88126563e-01
-6.18321719e-07,1.88070313e-01
-6.18281719e-07,1.88137500e-01
-6.18241719e-07,1.88037500e-01
-6.18201719e-07,1.88314063e-01
-6.18161719e-07,1.88550000e-01
-6.18121719e-07,1.88473438e-01
-6.18081719e-07,1.88518750e-01
-6.18041719e-07,1.88485938e-01
-6.18001719e-07,1.88514062e-01
-6.17961719e-07,1.88485938e-01
-6.17921719e-07,1.88515625e-01
-6.17881719e-07,1.88481250e-01
-6.17841719e-07,1.88528125e-01
-6.17801719e-07,1.88446875e-01
-6.17761719e-07,1.88704687e-01
-6.17721719e-07,1.88957813e-01
-6.17681719e-07,1.88865625e-01
-6.17641719e-07,1.88925000e-01
-6.17601719e-07,1.88879688e-01
-6.17561719e-07,1.88917188e-01
-6.17521719e-07,1.88884375e-01
-6.17481719e-07,1.88914063e-01
-6.17441719e-07,1.88885938e-01
-6.17401719e-07,1.88914063e-01
-6.17361719e-07,1.88887500e-01
-6.17321719e-07,1.88912500e-01
-6.17281719e-07,1.88887500e-01
-6.17241719e-07,1.88912500e-01
-6.17201719e-07,1.88885938e-01
-6.17161719e-07,1.88914063e-01
-6.17121719e-07,1.88885938e-01
-6.17081719e-07,1.88915625e-01
-6.17041719e-07,1.88882812e-01
-6.17001719e-07,1.88918750e-01
-6.16961719e-07,1.88878125e-01
-6.16921719e-07,1.88926563e-01
-6.16881719e-07,1.88864063e-01
-6.16841719e-07,1.88960938e-01
-6.16801719e-07,1.88685938e-01
-6.16761719e-07,1.88451563e-01
-6.16721719e-07,1.88525000e-01
-6.16681719e-07,1.88484375e-01
-6.16641719e-07,1.88510938e-01
-6.16601719e-07,1.88492188e-01
-6.16561719e-07,1.88506250e-01
-6.16521719e-07,1.88495313e-01
-6.16481719e-07,1.88503125e-01
-6.16441719e-07,1.88496875e-01
-6.16401719e-07,1.88501562e-01
-6.16361719e-07,1.88498438e-01
-6.16321719e-07,1.88501562e-01
-6.16281719e-07,1.88500000e-01
-6.16241719e-07,1.88500000e-01
-6.16201719e-07,1.88500000e-01
-6.16161719e-07,1.88500000e-01
-6.16121719e-07,1.88500000e-01
-6.16081719e-07,1.88500000e-01
-6.16041719e-07,1.88500000e-01
-6.16001719e-07,1.88500000e-01
-6.15961719e-07,1.88500000e-01
-6.15921719e-07,1.88500000e-01
-6.15881719e-07,1.88500000e-01
-6.15841719e-07,1.88500000e-01
-6.15801719e-07,1.88500000e-01
-6.15761719e-07,1.88500000e-01
-6.15721719e-07,1.88500000e-01
-6.15681719e-07,1.88501562e-01
-6.15641719e-07,1.88498438e-01
-6.15601719e-07,1.88501562e-01
-6.15561719e-07,1.88496875e-01
-6.15521719e-07,1.88503125e-01
-6.15481719e-07,1.88495313e-01
-6.15441719e-07,1.88506250e-01
-6.15401719e-07,1.88492188e-01
-6.15361719e-07,1.88510938e-01
-6.15321719e-07,1.88484375e-01
-6.15281719e-07,1.88525000e-01
-6.15241719e-07,1.88450000e-01
-6.15201719e-07,1.88703125e-01
-6.15161719e-07,1.88957813e-01
-6.15121719e-07,1.88865625e-01
-6.15081719e-07,1.88925000e-01
-6.15041719e-07,1.88881250e-01
-6.15001719e-07,1.88915625e-01
-6.14961719e-07,1.88887500e-01
-6.14921719e-07,1.88909375e-01
-6.14881719e-07,1.88893750e-01
-6.14841719e-07,1.88900000e-01
-6.14801719e-07,1.88909375e-01
-6.14761719e-07,1.88865625e-01
-6.14721719e-07,1.89085937e-01
-6.14681719e-07,1.89376563e-01
-6.14641719e-07,1.89246875e-01
-6.14601719e-07,1.89345313e-01
-6.14561719e-07,1.89256250e-01
-6.14521719e-07,1.89343750e-01
