dpa/aes_ch1_20250506140502789.csv

Model,MSO66B
Label,
Waveform Type,ANALOG
Horizontal Units,s
Sample Interval,4.00000000e-11
Record Length,25000
Zero Index,6249.03125000
Vertical Units,A
ANALOG_Thumbnail,
yOffset,1.84500000e-01
yPosition,0.00000000e+00

Labels,
TIME,CH1
-2.49961250e-07,1.87749813e-01
-2.49921250e-07,1.87746187e-01
-2.49881250e-07,1.87749813e-01
-2.49841250e-07,1.87746187e-01
-2.49801250e-07,1.87749813e-01
-2.49761250e-07,1.87746187e-01
-2.49721250e-07,1.87749813e-01
-2.49681250e-07,1.87746187e-01
-2.49641250e-07,1.87749813e-01
-2.49601250e-07,1.87746187e-01
-2.49561250e-07,1.87749813e-01
-2.49521250e-07,1.87746187e-01
-2.49481250e-07,1.87749813e-01
-2.49441250e-07,1.87746187e-01
-2.49401250e-07,1.87749813e-01
-2.49361250e-07,1.87746187e-01
-2.49321250e-07,1.87749813e-01
-2.49281250e-07,1.87746187e-01
-2.49241250e-07,1.87749813e-01
-2.49201250e-07,1.87746187e-01
-2.49161250e-07,1.87749813e-01
-2.49121250e-07,1.87746187e-01
-2.49081250e-07,1.87749813e-01
-2.49041250e-07,1.87746187e-01
-2.49001250e-07,1.87750719e-01
-2.48961250e-07,1.87745281e-01
-2.48921250e-07,1.87750719e-01
-2.48881250e-07,1.87745281e-01
-2.48841250e-07,1.87751625e-01
-2.48801250e-07,1.87744375e-01
-2.48761250e-07,1.87752531e-01
-2.48721250e-07,1.87743469e-01
-2.48681250e-07,1.87753438e-01
-2.48641250e-07,1.87740750e-01
-2.48601250e-07,1.87756156e-01
-2.48561250e-07,1.87736219e-01
-2.48521250e-07,1.87765219e-01
-2.48481250e-07,1.87716281e-01
-2.48441250e-07,1.87868531e-01
-2.48401250e-07,1.88011719e-01
-2.48361250e-07,1.87961875e-01
-2.48321250e-07,1.87992688e-01
-2.48281250e-07,1.87970031e-01
-2.48241250e-07,1.87988156e-01
-2.48201250e-07,1.87972750e-01
-2.48161250e-07,1.87986344e-01
-2.48121250e-07,1.87974562e-01
-2.48081250e-07,1.87984531e-01
-2.48041250e-07,1.87975469e-01
-2.48001250e-07,1.87984531e-01
-2.47961250e-07,1.87976375e-01
-2.47921250e-07,1.87983625e-01
-2.47881250e-07,1.87976375e-01
-2.47841250e-07,1.87983625e-01
-2.47801250e-07,1.87977281e-01
-2.47761250e-07,1.87982719e-01
-2.47721250e-07,1.87977281e-01
-2.47681250e-07,1.87982719e-01
-2.47641250e-07,1.87977281e-01
-2.47601250e-07,1.87982719e-01
-2.47561250e-07,1.87978188e-01
-2.47521250e-07,1.87981812e-01
-2.47481250e-07,1.87978188e-01
-2.47441250e-07,1.87981812e-01
-2.47401250e-07,1.87979094e-01
-2.47361250e-07,1.87980906e-01
-2.47321250e-07,1.87980000e-01
-2.47281250e-07,1.87980000e-01
-2.47241250e-07,1.87980906e-01
-2.47201250e-07,1.87978188e-01
-2.47161250e-07,1.87983625e-01
-2.47121250e-07,1.87973656e-01
-2.47081250e-07,1.87991781e-01
-2.47041250e-07,1.87953719e-01
-2.47001250e-07,1.88095094e-01
-2.46961250e-07,1.88249156e-01
-2.46921250e-07,1.88188437e-01
-2.46881250e-07,1.88230125e-01
-2.46841250e-07,1.88196594e-01
-2.46801250e-07,1.88226500e-01
-2.46761250e-07,1.88198406e-01
-2.46721250e-07,1.88224687e-01
-2.46681250e-07,1.88199312e-01
-2.46641250e-07,1.88224687e-01
-2.46601250e-07,1.88198406e-01
-2.46561250e-07,1.88226500e-01
-2.46521250e-07,1.88196594e-01
-2.46481250e-07,1.88229219e-01
-2.46441250e-07,1.88192063e-01
-2.46401250e-07,1.88237375e-01
-2.46361250e-07,1.88172125e-01
-2.46321250e-07,1.88340687e-01
-2.46281250e-07,1.88467562e-01
-2.46241250e-07,1.88434938e-01
-2.46201250e-07,1.88447625e-01
-2.46161250e-07,1.88443094e-01
-2.46121250e-07,1.88442187e-01
-2.46081250e-07,1.88446719e-01
-2.46041250e-07,1.88439469e-01
-2.46001250e-07,1.88449437e-01
-2.45961250e-07,1.88436750e-01
-2.45921250e-07,1.88453062e-01
-2.45881250e-07,1.88433125e-01
-2.45841250e-07,1.88458500e-01
-2.45801250e-07,1.88424062e-01
-2.45761250e-07,1.88479344e-01
-2.45721250e-07,1.88319844e-01
-2.45681250e-07,1.88183906e-01
-2.45641250e-07,1.88225594e-01
-2.45601250e-07,1.88203844e-01
-2.45561250e-07,1.88216531e-01
-2.45521250e-07,1.88209281e-01
-2.45481250e-07,1.88212906e-01
-2.45441250e-07,1.88212906e-01
-2.45401250e-07,1.88210187e-01
-2.45361250e-07,1.88214719e-01
-2.45321250e-07,1.88207469e-01
-2.45281250e-07,1.88218344e-01
-2.45241250e-07,1.88203844e-01
-2.45201250e-07,1.88223781e-01
-2.45161250e-07,1.88194781e-01
-2.45121250e-07,1.88243719e-01
-2.45081250e-07,1.88090563e-01
-2.45041250e-07,1.87949188e-01
-2.45001250e-07,1.87996312e-01
-2.44961250e-07,1.87969125e-01
-2.44921250e-07,1.87988156e-01
-2.44881250e-07,1.87973656e-01
-2.44841250e-07,1.87984531e-01
-2.44801250e-07,1.87976375e-01
-2.44761250e-07,1.87982719e-01
-2.44721250e-07,1.87978188e-01
-2.44681250e-07,1.87981812e-01
-2.44641250e-07,1.87979094e-01
-2.44601250e-07,1.87980000e-01
-2.44561250e-07,1.87980000e-01
-2.44521250e-07,1.87979094e-01
-2.44481250e-07,1.87980906e-01
-2.44441250e-07,1.87978188e-01
-2.44401250e-07,1.87982719e-01
-2.44361250e-07,1.87977281e-01
-2.44321250e-07,1.87983625e-01
-2.44281250e-07,1.87975469e-01
-2.44241250e-07,1.87986344e-01
-2.44201250e-07,1.87971844e-01
-2.44161250e-07,1.87990875e-01
-2.44121250e-07,1.87962781e-01
-2.44081250e-07,1.88011719e-01
-2.44041250e-07,1.87859469e-01
-2.44001250e-07,1.87716281e-01
-2.43961250e-07,1.87765219e-01
-2.43921250e-07,1.87736219e-01
-2.43881250e-07,1.87757062e-01
-2.43841250e-07,1.87740750e-01
-2.43801250e-07,1.87754344e-01
-2.43761250e-07,1.87742562e-01
-2.43721250e-07,1.87752531e-01
-2.43681250e-07,1.87744375e-01
-2.43641250e-07,1.87751625e-01
-2.43601250e-07,1.87745281e-01
-2.43561250e-07,1.87750719e-01
-2.43521250e-07,1.87746187e-01
-2.43481250e-07,1.87749813e-01
-2.43441250e-07,1.87746187e-01
-2.43401250e-07,1.87748906e-01
-2.43361250e-07,1.87747094e-01
-2.43321250e-07,1.87748906e-01
-2.43281250e-07,1.87747094e-01
-2.43241250e-07,1.87748906e-01
-2.43201250e-07,1.87748000e-01
-2.43161250e-07,1.87748000e-01
-2.43121250e-07,1.87748000e-01
-2.43081250e-07,1.87748000e-01
-2.43041250e-07,1.87748000e-01
-2.43001250e-07,1.87747094e-01
-2.42961250e-07,1.87748906e-01
-2.42921250e-07,1.87747094e-01
-2.42881250e-07,1.87748906e-01
-2.42841250e-07,1.87747094e-01
-2.42801250e-07,1.87749813e-01
-2.42761250e-07,1.87746187e-01
-2.42721250e-07,1.87749813e-01
-2.42681250e-07,1.87746187e-01
-2.42641250e-07,1.87750719e-01
-2.42601250e-07,1.87745281e-01
-2.42561250e-07,1.87751625e-01
-2.42521250e-07,1.87744375e-01
-2.42481250e-07,1.87752531e-01
-2.42441250e-07,1.87743469e-01
-2.42401250e-07,1.87753438e-01
-2.42361250e-07,1.87740750e-01
-2.42321250e-07,1.87757062e-01
-2.42281250e-07,1.87736219e-01
-2.42241250e-07,1.87765219e-01
-2.42201250e-07,1.87716281e-01
-2.42161250e-07,1.87868531e-01
-2.42121250e-07,1.88010812e-01
-2.42081250e-07,1.87962781e-01
-2.42041250e-07,1.87991781e-01
-2.42001250e-07,1.87970937e-01
-2.41961250e-07,1.87987250e-01
-2.41921250e-07,1.87974562e-01
-2.41881250e-07,1.87985437e-01
-2.41841250e-07,1.87975469e-01
-2.41801250e-07,1.87983625e-01
-2.41761250e-07,1.87976375e-01
-2.41721250e-07,1.87982719e-01
-2.41681250e-07,1.87977281e-01
-2.41641250e-07,1.87982719e-01
-2.41601250e-07,1.87978188e-01
-2.41561250e-07,1.87981812e-01
-2.41521250e-07,1.87978188e-01
-2.41481250e-07,1.87981812e-01
-2.41441250e-07,1.87978188e-01
-2.41401250e-07,1.87980906e-01
-2.41361250e-07,1.87979094e-01
-2.41321250e-07,1.87980906e-01
-2.41281250e-07,1.87979094e-01
-2.41241250e-07,1.87980906e-01
-2.41201250e-07,1.87979094e-01
-2.41161250e-07,1.87980906e-01
-2.41121250e-07,1.87979094e-01
-2.41081250e-07,1.87980906e-01
-2.41041250e-07,1.87979094e-01
-2.41001250e-07,1.87980906e-01
-2.40961250e-07,1.87979094e-01
-2.40921250e-07,1.87980906e-01
-2.40881250e-07,1.87979094e-01
-2.40841250e-07,1.87980906e-01
-2.40801250e-07,1.87979094e-01
-2.40761250e-07,1.87981812e-01
-2.40721250e-07,1.87978188e-01
-2.40681250e-07,1.87981812e-01
-2.40641250e-07,1.87977281e-01
-2.40601250e-07,1.87983625e-01
-2.40561250e-07,1.87974562e-01
-2.40521250e-07,1.87988156e-01
-2.40481250e-07,1.87966406e-01
-2.40441250e-07,1.88007188e-01
-2.40401250e-07,1.87864000e-01
-2.40361250e-07,1.87711750e-01
-2.40321250e-07,1.87771562e-01
-2.40281250e-07,1.87729875e-01
-2.40241250e-07,1.87764313e-01
-2.40201250e-07,1.87732594e-01
-2.40161250e-07,1.87763406e-01
-2.40121250e-07,1.87730781e-01
-2.40081250e-07,1.87767031e-01
-2.40041250e-07,1.87723531e-01
-2.40001250e-07,1.87786969e-01
-2.39961250e-07,1.87621125e-01
-2.39921250e-07,1.87490625e-01
-2.39881250e-07,1.87526875e-01
-2.39841250e-07,1.87510563e-01
-2.39801250e-07,1.87518719e-01
-2.39761250e-07,1.87515094e-01
-2.39721250e-07,1.87516000e-01
-2.39681250e-07,1.87517812e-01
-2.39641250e-07,1.87514187e-01
-2.39601250e-07,1.87518719e-01
-2.39561250e-07,1.87512375e-01
-2.39521250e-07,1.87520531e-01
-2.39481250e-07,1.87510563e-01
-2.39441250e-07,1.87522344e-01
-2.39401250e-07,1.87508750e-01
-2.39361250e-07,1.87524156e-01
-2.39321250e-07,1.87506031e-01
-2.39281250e-07,1.87527781e-01
-2.39241250e-07,1.87500594e-01
-2.39201250e-07,1.87537750e-01
-2.39161250e-07,1.87479750e-01
-2.39121250e-07,1.87641969e-01
-2.39081250e-07,1.87773375e-01
-2.39041250e-07,1.87737125e-01
-2.39001250e-07,1.87751625e-01
-2.38961250e-07,1.87748906e-01
-2.38921250e-07,1.87741656e-01
-2.38881250e-07,1.87761594e-01
-2.38841250e-07,1.87719000e-01
-2.38801250e-07,1.87866719e-01
-2.38761250e-07,1.88012625e-01
-2.38721250e-07,1.87962781e-01
-2.38681250e-07,1.87990875e-01
-2.38641250e-07,1.87974562e-01
-2.38601250e-07,1.87980906e-01
-2.38561250e-07,1.87985437e-01
-2.38521250e-07,1.87959156e-01
-2.38481250e-07,1.88089656e-01
-2.38441250e-07,1.88253687e-01
-2.38401250e-07,1.88183906e-01
-2.38361250e-07,1.88235563e-01
-2.38321250e-07,1.88191156e-01
-2.38281250e-07,1.88232844e-01
-2.38241250e-07,1.88189344e-01
-2.38201250e-07,1.88239187e-01
-2.38161250e-07,1.88171219e-01
-2.38121250e-07,1.88340687e-01
-2.38081250e-07,1.88468469e-01
-2.38041250e-07,1.88433125e-01
-2.38001250e-07,1.88449437e-01
-2.37961250e-07,1.88441281e-01
-2.37921250e-07,1.88445813e-01
-2.37881250e-07,1.88443094e-01
-2.37841250e-07,1.88444000e-01
-2.37801250e-07,1.88444906e-01
-2.37761250e-07,1.88443094e-01
-2.37721250e-07,1.88445813e-01
-2.37681250e-07,1.88442187e-01
-2.37641250e-07,1.88446719e-01
-2.37601250e-07,1.88441281e-01
-2.37561250e-07,1.88447625e-01
-2.37521250e-07,1.88439469e-01
-2.37481250e-07,1.88448531e-01
-2.37441250e-07,1.88437656e-01
-2.37401250e-07,1.88452156e-01
-2.37361250e-07,1.88433125e-01
-2.37321250e-07,1.88460313e-01
-2.37281250e-07,1.88413187e-01
-2.37241250e-07,1.88563625e-01
-2.37201250e-07,1.88708625e-01
-2.37161250e-07,1.88656969e-01
-2.37121250e-07,1.88689594e-01
-2.37081250e-07,1.88665125e-01
-2.37041250e-07,1.88685063e-01
-2.37001250e-07,1.88667844e-01
-2.36961250e-07,1.88683250e-01
-2.36921250e-07,1.88669656e-01
-2.36881250e-07,1.88682344e-01
-2.36841250e-07,1.88670562e-01
-2.36801250e-07,1.88681437e-01
-2.36761250e-07,1.88670562e-01
-2.36721250e-07,1.88681437e-01
-2.36681250e-07,1.88670562e-01
-2.36641250e-07,1.88681437e-01
-2.36601250e-07,1.88671469e-01
-2.36561250e-07,1.88680531e-01
-2.36521250e-07,1.88671469e-01
-2.36481250e-07,1.88680531e-01
-2.36441250e-07,1.88671469e-01
-2.36401250e-07,1.88680531e-01
-2.36361250e-07,1.88671469e-01
-2.36321250e-07,1.88681437e-01
-2.36281250e-07,1.88670562e-01
-2.36241250e-07,1.88681437e-01
-2.36201250e-07,1.88670562e-01
-2.36161250e-07,1.88681437e-01
-2.36121250e-07,1.88670562e-01
-2.36081250e-07,1.88681437e-01
-2.36041250e-07,1.88669656e-01
-2.36001250e-07,1.88682344e-01
-2.35961250e-07,1.88669656e-01
-2.35921250e-07,1.88683250e-01
-2.35881250e-07,1.88668750e-01
-2.35841250e-07,1.88684156e-01
-2.35801250e-07,1.88666937e-01
-2.35761250e-07,1.88685969e-01
-2.35721250e-07,1.88664219e-01
-2.35681250e-07,1.88690500e-01
-2.35641250e-07,1.88656062e-01
-2.35601250e-07,1.88710437e-01
-2.35561250e-07,1.88553656e-01
-2.35521250e-07,1.88414094e-01
-2.35481250e-07,1.88460313e-01
-2.35441250e-07,1.88432219e-01
-2.35401250e-07,1.88453969e-01
-2.35361250e-07,1.88434938e-01
-2.35321250e-07,1.88454875e-01
-2.35281250e-07,1.88428594e-01
-2.35241250e-07,1.88472094e-01
-2.35201250e-07,1.88328000e-01
-2.35161250e-07,1.88174844e-01
-2.35121250e-07,1.88236469e-01
-2.35081250e-07,1.88191156e-01
-2.35041250e-07,1.88233750e-01
-2.35001250e-07,1.88186625e-01
-2.34961250e-07,1.88250063e-01
-2.34921250e-07,1.88086937e-01
-2.34881250e-07,1.87951000e-01
-2.34841250e-07,1.87997219e-01
-2.34801250e-07,1.87962781e-01
-2.34761250e-07,1.88008094e-01
-2.34721250e-07,1.87865813e-01
-2.34681250e-07,1.87707219e-01
-2.34641250e-07,1.87777906e-01
-2.34601250e-07,1.87717187e-01
-2.34561250e-07,1.87790594e-01
-2.34521250e-07,1.87618406e-01
-2.34481250e-07,1.87491531e-01
-2.34441250e-07,1.87529594e-01
-2.34401250e-07,1.87502406e-01
-2.34361250e-07,1.87540469e-01
-2.34321250e-07,1.87406344e-01
-2.34281250e-07,1.87237781e-01
-2.34241250e-07,1.87320250e-01
-2.34201250e-07,1.87246844e-01
-2.34161250e-07,1.87334750e-01
-2.34121250e-07,1.87145344e-01
-2.34081250e-07,1.87039312e-01
-2.34041250e-07,1.87049281e-01
-2.34001250e-07,1.87062875e-01
-2.33961250e-07,1.87032969e-01
-2.33921250e-07,1.87088250e-01
-2.33881250e-07,1.86926031e-01
-2.33841250e-07,1.86795531e-01
-2.33801250e-07,1.86829969e-01
-2.33761250e-07,1.86817281e-01
-2.33721250e-07,1.86818188e-01
-2.33681250e-07,1.86825437e-01
-2.33641250e-07,1.86811844e-01
-2.33601250e-07,1.86832687e-01
-2.33561250e-07,1.86800063e-01
-2.33521250e-07,1.86855344e-01
-2.33481250e-07,1.86694937e-01
-2.33441250e-07,1.86562625e-01
-2.33401250e-07,1.86598875e-01
-2.33361250e-07,1.86584375e-01
-2.33321250e-07,1.86587094e-01
-2.33281250e-07,1.86593437e-01
-2.33241250e-07,1.86578031e-01
-2.33201250e-07,1.86605219e-01
-2.33161250e-07,1.86555375e-01
-2.33121250e-07,1.86710344e-01
-2.33081250e-07,1.86848094e-01
-2.33041250e-07,1.86806406e-01
-2.33001250e-07,1.86826344e-01
-2.32961250e-07,1.86818188e-01
-2.32921250e-07,1.86818188e-01
-2.32881250e-07,1.86825437e-01
-2.32841250e-07,1.86810031e-01
-2.32801250e-07,1.86837219e-01
-2.32761250e-07,1.86787375e-01
-2.32721250e-07,1.86943250e-01
-2.32681250e-07,1.87078281e-01
-2.32641250e-07,1.87042031e-01
-2.32601250e-07,1.87052906e-01
-2.32561250e-07,1.87060156e-01
-2.32521250e-07,1.87026625e-01
-2.32481250e-07,1.87168000e-01
-2.32441250e-07,1.87317531e-01
-2.32401250e-07,1.87266781e-01
-2.32361250e-07,1.87292156e-01
-2.32321250e-07,1.87284000e-01
-2.32281250e-07,1.87267688e-01
-2.32241250e-07,1.87390937e-01
-2.32201250e-07,1.87561312e-01
-2.32161250e-07,1.87485187e-01
-2.32121250e-07,1.87542281e-01
-2.32081250e-07,1.87490625e-01
-2.32041250e-07,1.87544094e-01
-2.32001250e-07,1.87476125e-01
-2.31961250e-07,1.87642875e-01
-2.31921250e-07,1.87775187e-01
-2.31881250e-07,1.87732594e-01
-2.31841250e-07,1.87760687e-01
-2.31801250e-07,1.87735313e-01
-2.31761250e-07,1.87765219e-01
-2.31721250e-07,1.87717187e-01
-2.31681250e-07,1.87867625e-01
-2.31641250e-07,1.88012625e-01
-2.31601250e-07,1.87960969e-01
-2.31561250e-07,1.87993594e-01
-2.31521250e-07,1.87969125e-01
-2.31481250e-07,1.87989062e-01
-2.31441250e-07,1.87971844e-01
-2.31401250e-07,1.87987250e-01
-2.31361250e-07,1.87973656e-01
-2.31321250e-07,1.87985437e-01
-2.31281250e-07,1.87974562e-01
-2.31241250e-07,1.87985437e-01
-2.31201250e-07,1.87975469e-01
-2.31161250e-07,1.87984531e-01
-2.31121250e-07,1.87975469e-01
-2.31081250e-07,1.87984531e-01
-2.31041250e-07,1.87975469e-01
-2.31001250e-07,1.87984531e-01
-2.30961250e-07,1.87974562e-01
-2.30921250e-07,1.87986344e-01
-2.30881250e-07,1.87972750e-01
-2.30841250e-07,1.87989969e-01
-2.30801250e-07,1.87965500e-01
-2.30761250e-07,1.88008094e-01
-2.30721250e-07,1.87863094e-01
-2.30681250e-07,1.87711750e-01
-2.30641250e-07,1.87771562e-01
-2.30601250e-07,1.87728969e-01
-2.30561250e-07,1.87766125e-01
-2.30521250e-07,1.87729875e-01
-2.30481250e-07,1.87768844e-01
-2.30441250e-07,1.87722625e-01
-2.30401250e-07,1.87787875e-01
-2.30361250e-07,1.87619312e-01
-2.30321250e-07,1.87493344e-01
-2.30281250e-07,1.87525063e-01
-2.30241250e-07,1.87513281e-01
-2.30201250e-07,1.87515094e-01
-2.30161250e-07,1.87520531e-01
-2.30121250e-07,1.87508750e-01
-2.30081250e-07,1.87527781e-01
-2.30041250e-07,1.87497875e-01
-2.30001250e-07,1.87549531e-01
-2.29961250e-07,1.87393656e-01
-2.29921250e-07,1.87255000e-01
-2.29881250e-07,1.87297594e-01
-2.29841250e-07,1.87276750e-01
-2.29801250e-07,1.87287625e-01
-2.29761250e-07,1.87283094e-01
-2.29721250e-07,1.87281281e-01
-2.29681250e-07,1.87289437e-01
-2.29641250e-07,1.87274031e-01
-2.29601250e-07,1.87300313e-01
-2.29561250e-07,1.87252281e-01
-2.29521250e-07,1.87405437e-01
-2.29481250e-07,1.87545000e-01
-2.29441250e-07,1.87502406e-01
-2.29401250e-07,1.87522344e-01
-2.29361250e-07,1.87515094e-01
-2.29321250e-07,1.87512375e-01
-2.29281250e-07,1.87527781e-01
-2.29241250e-07,1.87487906e-01
-2.29201250e-07,1.87634719e-01
-2.29161250e-07,1.87779719e-01
-2.29121250e-07,1.87732594e-01
-2.29081250e-07,1.87754344e-01
-2.29041250e-07,1.87750719e-01
-2.29001250e-07,1.87728062e-01
-2.28961250e-07,1.87858562e-01
-2.28921250e-07,1.88018969e-01
-2.28881250e-07,1.87957344e-01
-2.28841250e-07,1.87994500e-01
-2.28801250e-07,1.87974562e-01
-2.28761250e-07,1.87969125e-01
-2.28721250e-07,1.88080594e-01
-2.28681250e-07,1.88263656e-01
-2.28641250e-07,1.88173937e-01
-2.28601250e-07,1.88245531e-01
-2.28561250e-07,1.88179375e-01
-2.28521250e-07,1.88248250e-01
-2.28481250e-07,1.88163063e-01
-2.28441250e-07,1.88348844e-01
-2.28401250e-07,1.88460313e-01
-2.28361250e-07,1.88440375e-01
-2.28321250e-07,1.88443094e-01
-2.28281250e-07,1.88447625e-01
-2.28241250e-07,1.88439469e-01
-2.28201250e-07,1.88449437e-01
-2.28161250e-07,1.88437656e-01
-2.28121250e-07,1.88450344e-01
-2.28081250e-07,1.88436750e-01
-2.28041250e-07,1.88451250e-01
-2.28001250e-07,1.88436750e-01
-2.27961250e-07,1.88452156e-01
-2.27921250e-07,1.88435844e-01
-2.27881250e-07,1.88452156e-01
-2.27841250e-07,1.88434938e-01
-2.27801250e-07,1.88453062e-01
-2.27761250e-07,1.88434031e-01
-2.27721250e-07,1.88454875e-01
-2.27681250e-07,1.88433125e-01
-2.27641250e-07,1.88456687e-01
-2.27601250e-07,1.88429500e-01
-2.27561250e-07,1.88461219e-01
-2.27521250e-07,1.88420438e-01
-2.27481250e-07,1.88482062e-01
-2.27441250e-07,1.88317125e-01
-2.27401250e-07,1.88186625e-01
-2.27361250e-07,1.88222875e-01
-2.27321250e-07,1.88206563e-01
-2.27281250e-07,1.88213812e-01
-2.27241250e-07,1.88212000e-01
-2.27201250e-07,1.88209281e-01
-2.27161250e-07,1.88216531e-01
-2.27121250e-07,1.88205656e-01
-2.27081250e-07,1.88221969e-01
-2.27041250e-07,1.88195687e-01
-2.27001250e-07,1.88242812e-01
-2.26961250e-07,1.88092375e-01
-2.26921250e-07,1.87947375e-01
-2.26881250e-07,1.87998125e-01
-2.26841250e-07,1.87967312e-01
-2.26801250e-07,1.87989969e-01
-2.26761250e-07,1.87971844e-01
-2.26721250e-07,1.87986344e-01
-2.26681250e-07,1.87974562e-01
-2.26641250e-07,1.87984531e-01
-2.26601250e-07,1.87975469e-01
-2.26561250e-07,1.87983625e-01
-2.26521250e-07,1.87976375e-01
-2.26481250e-07,1.87982719e-01
-2.26441250e-07,1.87977281e-01
-2.26401250e-07,1.87982719e-01
-2.26361250e-07,1.87977281e-01
-2.26321250e-07,1.87981812e-01
-2.26281250e-07,1.87978188e-01
-2.26241250e-07,1.87981812e-01
-2.26201250e-07,1.87978188e-01
-2.26161250e-07,1.87980906e-01
-2.26121250e-07,1.87979094e-01
-2.26081250e-07,1.87980906e-01
-2.26041250e-07,1.87980000e-01
-2.26001250e-07,1.87980000e-01
-2.25961250e-07,1.87980906e-01
-2.25921250e-07,1.87978188e-01
-2.25881250e-07,1.87982719e-01
-2.25841250e-07,1.87975469e-01
-2.25801250e-07,1.87987250e-01
-2.25761250e-07,1.87967312e-01
-2.25721250e-07,1.88007188e-01
-2.25681250e-07,1.87864906e-01
-2.25641250e-07,1.87710844e-01
-2.25601250e-07,1.87771562e-01
-2.25561250e-07,1.87729875e-01
-2.25521250e-07,1.87763406e-01
-2.25481250e-07,1.87733500e-01
-2.25441250e-07,1.87761594e-01
-2.25401250e-07,1.87735313e-01
-2.25361250e-07,1.87760687e-01
-2.25321250e-07,1.87734406e-01
-2.25281250e-07,1.87761594e-01
-2.25241250e-07,1.87733500e-01
-2.25201250e-07,1.87763406e-01
-2.25161250e-07,1.87730781e-01
-2.25121250e-07,1.87768844e-01
-2.25081250e-07,1.87721719e-01
-2.25041250e-07,1.87789687e-01
-2.25001250e-07,1.87617500e-01
-2.24961250e-07,1.87495156e-01
-2.24921250e-07,1.87521437e-01
-2.24881250e-07,1.87516906e-01
-2.24841250e-07,1.87509656e-01
-2.24801250e-07,1.87526875e-01
-2.24761250e-07,1.87497875e-01
-2.24721250e-07,1.87550438e-01
-2.24681250e-07,1.87390937e-01
-2.24641250e-07,1.87258625e-01
-2.24601250e-07,1.87293969e-01
-2.24561250e-07,1.87283094e-01
-2.24521250e-07,1.87275844e-01
