dpa/aes_ch1_20250506141354282.csv

Model,MSO66B
Label,
Waveform Type,ANALOG
Horizontal Units,s
Sample Interval,4.00000000e-11
Record Length,100000
Zero Index,15999.03515625
Vertical Units,A
ANALOG_Thumbnail,
yOffset,1.84500000e-01
yPosition,8.40000000e-01

Labels,
TIME,CH1
-6.39961406e-07,1.94501563e-01
-6.39921406e-07,1.94498438e-01
-6.39881406e-07,1.94503125e-01
-6.39841406e-07,1.94496875e-01
-6.39801406e-07,1.94504687e-01
-6.39761406e-07,1.94493750e-01
-6.39721406e-07,1.94510938e-01
-6.39681406e-07,1.94479687e-01
-6.39641406e-07,1.94543750e-01
-6.39601406e-07,1.94304688e-01
-6.39561406e-07,1.94029687e-01
-6.39521406e-07,1.94150000e-01
-6.39481406e-07,1.94054688e-01
-6.39441406e-07,1.94150000e-01
-6.39401406e-07,1.94028125e-01
-6.39361406e-07,1.94323438e-01
-6.39321406e-07,1.94540625e-01
-6.39281406e-07,1.94482813e-01
-6.39241406e-07,1.94509375e-01
-6.39201406e-07,1.94495313e-01
-6.39161406e-07,1.94501563e-01
-6.39121406e-07,1.94500000e-01
-6.39081406e-07,1.94498438e-01
-6.39041406e-07,1.94503125e-01
-6.39001406e-07,1.94496875e-01
-6.38961406e-07,1.94504687e-01
-6.38921406e-07,1.94495313e-01
-6.38881406e-07,1.94506250e-01
-6.38841406e-07,1.94493750e-01
-6.38801406e-07,1.94507813e-01
-6.38761406e-07,1.94492187e-01
-6.38721406e-07,1.94509375e-01
-6.38681406e-07,1.94489063e-01
-6.38641406e-07,1.94512500e-01
-6.38601406e-07,1.94485938e-01
-6.38561406e-07,1.94517188e-01
-6.38521406e-07,1.94476563e-01
-6.38481406e-07,1.94532813e-01
-6.38441406e-07,1.94442188e-01
-6.38401406e-07,1.94710938e-01
-6.38361406e-07,1.94951563e-01
-6.38321406e-07,1.94871875e-01
-6.38281406e-07,1.94918750e-01
-6.38241406e-07,1.94887500e-01
-6.38201406e-07,1.94909375e-01
-6.38161406e-07,1.94892188e-01
-6.38121406e-07,1.94906250e-01
-6.38081406e-07,1.94895313e-01
-6.38041406e-07,1.94904688e-01
-6.38001406e-07,1.94896875e-01
-6.37961406e-07,1.94903125e-01
-6.37921406e-07,1.94898438e-01
-6.37881406e-07,1.94901563e-01
-6.37841406e-07,1.94898438e-01
-6.37801406e-07,1.94900000e-01
-6.37761406e-07,1.94900000e-01
-6.37721406e-07,1.94900000e-01
-6.37681406e-07,1.94900000e-01
-6.37641406e-07,1.94900000e-01
-6.37601406e-07,1.94900000e-01
-6.37561406e-07,1.94898438e-01
-6.37521406e-07,1.94901563e-01
-6.37481406e-07,1.94898438e-01
-6.37441406e-07,1.94901563e-01
-6.37401406e-07,1.94898438e-01
-6.37361406e-07,1.94901563e-01
-6.37321406e-07,1.94896875e-01
-6.37281406e-07,1.94903125e-01
-6.37241406e-07,1.94896875e-01
-6.37201406e-07,1.94903125e-01
-6.37161406e-07,1.94896875e-01
-6.37121406e-07,1.94903125e-01
-6.37081406e-07,1.94896875e-01
-6.37041406e-07,1.94904688e-01
-6.37001406e-07,1.94895313e-01
-6.36961406e-07,1.94904688e-01
-6.36921406e-07,1.94895313e-01
-6.36881406e-07,1.94906250e-01
-6.36841406e-07,1.94893750e-01
-6.36801406e-07,1.94906250e-01
-6.36761406e-07,1.94892188e-01
-6.36721406e-07,1.94907812e-01
-6.36681406e-07,1.94892188e-01
-6.36641406e-07,1.94909375e-01
-6.36601406e-07,1.94889063e-01
-6.36561406e-07,1.94910937e-01
-6.36521406e-07,1.94885937e-01
-6.36481406e-07,1.94915625e-01
-6.36441406e-07,1.94881250e-01
-6.36401406e-07,1.94925000e-01
-6.36361406e-07,1.94865625e-01
-6.36321406e-07,1.94959375e-01
-6.36281406e-07,1.94685938e-01
-6.36241406e-07,1.94451563e-01
-6.36201406e-07,1.94523438e-01
-6.36161406e-07,1.94485938e-01
-6.36121406e-07,1.94507813e-01
-6.36081406e-07,1.94496875e-01
-6.36041406e-07,1.94498438e-01
-6.36001406e-07,1.94506250e-01
-6.35961406e-07,1.94487500e-01
-6.35921406e-07,1.94521875e-01
-6.35881406e-07,1.94451563e-01
-6.35841406e-07,1.94701563e-01
-6.35801406e-07,1.94959375e-01
-6.35761406e-07,1.94864063e-01
-6.35721406e-07,1.94926563e-01
-6.35681406e-07,1.94879688e-01
-6.35641406e-07,1.94917188e-01
-6.35601406e-07,1.94884375e-01
-6.35561406e-07,1.94914063e-01
-6.35521406e-07,1.94887500e-01
-6.35481406e-07,1.94910937e-01
-6.35441406e-07,1.94889063e-01
-6.35401406e-07,1.94909375e-01
-6.35361406e-07,1.94890625e-01
-6.35321406e-07,1.94909375e-01
-6.35281406e-07,1.94890625e-01
-6.35241406e-07,1.94907812e-01
-6.35201406e-07,1.94892188e-01
-6.35161406e-07,1.94907812e-01
-6.35121406e-07,1.94892188e-01
-6.35081406e-07,1.94907812e-01
-6.35041406e-07,1.94892188e-01
-6.35001406e-07,1.94907812e-01
-6.34961406e-07,1.94892188e-01
-6.34921406e-07,1.94907812e-01
-6.34881406e-07,1.94890625e-01
-6.34841406e-07,1.94909375e-01
-6.34801406e-07,1.94889063e-01
-6.34761406e-07,1.94910937e-01
-6.34721406e-07,1.94887500e-01
-6.34681406e-07,1.94914063e-01
-6.34641406e-07,1.94882813e-01
-6.34601406e-07,1.94921875e-01
-6.34561406e-07,1.94868750e-01
-6.34521406e-07,1.94956250e-01
-6.34481406e-07,1.94690625e-01
-6.34441406e-07,1.94446875e-01
-6.34401406e-07,1.94529687e-01
-6.34361406e-07,1.94479687e-01
-6.34321406e-07,1.94515625e-01
-6.34281406e-07,1.94487500e-01
-6.34241406e-07,1.94510938e-01
-6.34201406e-07,1.94490625e-01
-6.34161406e-07,1.94507813e-01
-6.34121406e-07,1.94492187e-01
-6.34081406e-07,1.94506250e-01
-6.34041406e-07,1.94493750e-01
-6.34001406e-07,1.94506250e-01
-6.33961406e-07,1.94493750e-01
-6.33921406e-07,1.94506250e-01
-6.33881406e-07,1.94493750e-01
-6.33841406e-07,1.94506250e-01
-6.33801406e-07,1.94493750e-01
-6.33761406e-07,1.94506250e-01
-6.33721406e-07,1.94493750e-01
-6.33681406e-07,1.94506250e-01
-6.33641406e-07,1.94493750e-01
-6.33601406e-07,1.94507813e-01
-6.33561406e-07,1.94492187e-01
-6.33521406e-07,1.94507813e-01
-6.33481406e-07,1.94490625e-01
-6.33441406e-07,1.94510938e-01
-6.33401406e-07,1.94487500e-01
-6.33361406e-07,1.94515625e-01
-6.33321406e-07,1.94479687e-01
-6.33281406e-07,1.94529687e-01
-6.33241406e-07,1.94445313e-01
-6.33201406e-07,1.94707813e-01
-6.33161406e-07,1.94954688e-01
-6.33121406e-07,1.94868750e-01
-6.33081406e-07,1.94921875e-01
-6.33041406e-07,1.94882813e-01
-6.33001406e-07,1.94914063e-01
-6.32961406e-07,1.94887500e-01
-6.32921406e-07,1.94910937e-01
-6.32881406e-07,1.94889063e-01
-6.32841406e-07,1.94909375e-01
-6.32801406e-07,1.94890625e-01
-6.32761406e-07,1.94909375e-01
-6.32721406e-07,1.94890625e-01
-6.32681406e-07,1.94909375e-01
-6.32641406e-07,1.94889063e-01
-6.32601406e-07,1.94912500e-01
-6.32561406e-07,1.94885937e-01
-6.32521406e-07,1.94917188e-01
-6.32481406e-07,1.94878125e-01
-6.32441406e-07,1.94931250e-01
-6.32401406e-07,1.94843750e-01
-6.32361406e-07,1.95107813e-01
-6.32321406e-07,1.95354688e-01
-6.32281406e-07,1.95270313e-01
-6.32241406e-07,1.95320313e-01
-6.32201406e-07,1.95284375e-01
-6.32161406e-07,1.95314062e-01
-6.32121406e-07,1.95289062e-01
-6.32081406e-07,1.95310938e-01
-6.32041406e-07,1.95290625e-01
-6.32001406e-07,1.95307813e-01
-6.31961406e-07,1.95292188e-01
-6.31921406e-07,1.95307813e-01
-6.31881406e-07,1.95292188e-01
-6.31841406e-07,1.95306250e-01
-6.31801406e-07,1.95293750e-01
-6.31761406e-07,1.95306250e-01
-6.31721406e-07,1.95293750e-01
-6.31681406e-07,1.95306250e-01
-6.31641406e-07,1.95293750e-01
-6.31601406e-07,1.95306250e-01
-6.31561406e-07,1.95293750e-01
-6.31521406e-07,1.95306250e-01
-6.31481406e-07,1.95293750e-01
-6.31441406e-07,1.95306250e-01
-6.31401406e-07,1.95293750e-01
-6.31361406e-07,1.95306250e-01
-6.31321406e-07,1.95293750e-01
-6.31281406e-07,1.95307813e-01
-6.31241406e-07,1.95292188e-01
-6.31201406e-07,1.95307813e-01
-6.31161406e-07,1.95292188e-01
-6.31121406e-07,1.95307813e-01
-6.31081406e-07,1.95290625e-01
-6.31041406e-07,1.95309375e-01
-6.31001406e-07,1.95290625e-01
-6.30961406e-07,1.95310938e-01
-6.30921406e-07,1.95289062e-01
-6.30881406e-07,1.95312500e-01
-6.30841406e-07,1.95285938e-01
-6.30801406e-07,1.95315625e-01
-6.30761406e-07,1.95281250e-01
-6.30721406e-07,1.95325000e-01
-6.30681406e-07,1.95265625e-01
-6.30641406e-07,1.95359375e-01
-6.30601406e-07,1.95087500e-01
-6.30561406e-07,1.94850000e-01
-6.30521406e-07,1.94926563e-01
-6.30481406e-07,1.94882813e-01
-6.30441406e-07,1.94910937e-01
-6.30401406e-07,1.94892188e-01
-6.30361406e-07,1.94906250e-01
-6.30321406e-07,1.94895313e-01
-6.30281406e-07,1.94903125e-01
-6.30241406e-07,1.94896875e-01
-6.30201406e-07,1.94901563e-01
-6.30161406e-07,1.94898438e-01
-6.30121406e-07,1.94900000e-01
-6.30081406e-07,1.94900000e-01
-6.30041406e-07,1.94898438e-01
-6.30001406e-07,1.94901563e-01
-6.29961406e-07,1.94898438e-01
-6.29921406e-07,1.94903125e-01
-6.29881406e-07,1.94896875e-01
-6.29841406e-07,1.94903125e-01
-6.29801406e-07,1.94896875e-01
-6.29761406e-07,1.94904688e-01
-6.29721406e-07,1.94895313e-01
-6.29681406e-07,1.94906250e-01
-6.29641406e-07,1.94893750e-01
-6.29601406e-07,1.94907812e-01
-6.29561406e-07,1.94892188e-01
-6.29521406e-07,1.94909375e-01
-6.29481406e-07,1.94889063e-01
-6.29441406e-07,1.94914063e-01
-6.29401406e-07,1.94882813e-01
-6.29361406e-07,1.94921875e-01
-6.29321406e-07,1.94868750e-01
-6.29281406e-07,1.94956250e-01
-6.29241406e-07,1.94690625e-01
-6.29201406e-07,1.94448438e-01
-6.29161406e-07,1.94528125e-01
-6.29121406e-07,1.94481250e-01
-6.29081406e-07,1.94514063e-01
-6.29041406e-07,1.94489063e-01
-6.29001406e-07,1.94507813e-01
-6.28961406e-07,1.94493750e-01
-6.28921406e-07,1.94504687e-01
-6.28881406e-07,1.94495313e-01
-6.28841406e-07,1.94503125e-01
-6.28801406e-07,1.94496875e-01
-6.28761406e-07,1.94501563e-01
-6.28721406e-07,1.94498438e-01
-6.28681406e-07,1.94500000e-01
-6.28641406e-07,1.94500000e-01
-6.28601406e-07,1.94498438e-01
-6.28561406e-07,1.94501563e-01
-6.28521406e-07,1.94498438e-01
-6.28481406e-07,1.94503125e-01
-6.28441406e-07,1.94496875e-01
-6.28401406e-07,1.94504687e-01
-6.28361406e-07,1.94493750e-01
-6.28321406e-07,1.94506250e-01
-6.28281406e-07,1.94490625e-01
-6.28241406e-07,1.94510938e-01
-6.28201406e-07,1.94485938e-01
-6.28161406e-07,1.94518750e-01
-6.28121406e-07,1.94470313e-01
-6.28081406e-07,1.94554688e-01
-6.28041406e-07,1.94292188e-01
-6.28001406e-07,1.94045313e-01
-6.27961406e-07,1.94131250e-01
-6.27921406e-07,1.94079688e-01
-6.27881406e-07,1.94115625e-01
-6.27841406e-07,1.94087500e-01
-6.27801406e-07,1.94110937e-01
-6.27761406e-07,1.94090625e-01
-6.27721406e-07,1.94107813e-01
-6.27681406e-07,1.94093750e-01
-6.27641406e-07,1.94106250e-01
-6.27601406e-07,1.94095313e-01
-6.27561406e-07,1.94104688e-01
-6.27521406e-07,1.94096875e-01
-6.27481406e-07,1.94103125e-01
-6.27441406e-07,1.94096875e-01
-6.27401406e-07,1.94101563e-01
-6.27361406e-07,1.94098437e-01
-6.27321406e-07,1.94101563e-01
-6.27281406e-07,1.94098437e-01
-6.27241406e-07,1.94100000e-01
-6.27201406e-07,1.94100000e-01
-6.27161406e-07,1.94100000e-01
-6.27121406e-07,1.94101563e-01
-6.27081406e-07,1.94098437e-01
-6.27041406e-07,1.94103125e-01
-6.27001406e-07,1.94096875e-01
-6.26961406e-07,1.94104688e-01
-6.26921406e-07,1.94093750e-01
-6.26881406e-07,1.94107813e-01
-6.26841406e-07,1.94090625e-01
-6.26801406e-07,1.94112500e-01
-6.26761406e-07,1.94082813e-01
-6.26721406e-07,1.94128125e-01
-6.26681406e-07,1.94046875e-01
-6.26641406e-07,1.94306250e-01
-6.26601406e-07,1.94556250e-01
-6.26561406e-07,1.94467187e-01
-6.26521406e-07,1.94523438e-01
-6.26481406e-07,1.94481250e-01
-6.26441406e-07,1.94515625e-01
-6.26401406e-07,1.94487500e-01
-6.26361406e-07,1.94510938e-01
-6.26321406e-07,1.94490625e-01
-6.26281406e-07,1.94509375e-01
-6.26241406e-07,1.94492187e-01
-6.26201406e-07,1.94507813e-01
-6.26161406e-07,1.94492187e-01
-6.26121406e-07,1.94506250e-01
-6.26081406e-07,1.94493750e-01
-6.26041406e-07,1.94506250e-01
-6.26001406e-07,1.94493750e-01
-6.25961406e-07,1.94504687e-01
-6.25921406e-07,1.94495313e-01
-6.25881406e-07,1.94504687e-01
-6.25841406e-07,1.94495313e-01
-6.25801406e-07,1.94504687e-01
-6.25761406e-07,1.94495313e-01
-6.25721406e-07,1.94504687e-01
-6.25681406e-07,1.94496875e-01
-6.25641406e-07,1.94503125e-01
-6.25601406e-07,1.94496875e-01
-6.25561406e-07,1.94503125e-01
-6.25521406e-07,1.94496875e-01
-6.25481406e-07,1.94503125e-01
-6.25441406e-07,1.94496875e-01
-6.25401406e-07,1.94503125e-01
-6.25361406e-07,1.94496875e-01
-6.25321406e-07,1.94503125e-01
-6.25281406e-07,1.94496875e-01
-6.25241406e-07,1.94501563e-01
-6.25201406e-07,1.94498438e-01
-6.25161406e-07,1.94501563e-01
-6.25121406e-07,1.94498438e-01
-6.25081406e-07,1.94501563e-01
-6.25041406e-07,1.94498438e-01
-6.25001406e-07,1.94501563e-01
-6.24961406e-07,1.94498438e-01
-6.24921406e-07,1.94501563e-01
-6.24881406e-07,1.94498438e-01
-6.24841406e-07,1.94501563e-01
-6.24801406e-07,1.94498438e-01
-6.24761406e-07,1.94500000e-01
-6.24721406e-07,1.94500000e-01
-6.24681406e-07,1.94500000e-01
-6.24641406e-07,1.94500000e-01
-6.24601406e-07,1.94500000e-01
-6.24561406e-07,1.94500000e-01
-6.24521406e-07,1.94500000e-01
-6.24481406e-07,1.94501563e-01
-6.24441406e-07,1.94498438e-01
-6.24401406e-07,1.94501563e-01
-6.24361406e-07,1.94498438e-01
-6.24321406e-07,1.94503125e-01
-6.24281406e-07,1.94496875e-01
-6.24241406e-07,1.94504687e-01
-6.24201406e-07,1.94495313e-01
-6.24161406e-07,1.94506250e-01
-6.24121406e-07,1.94490625e-01
-6.24081406e-07,1.94512500e-01
-6.24041406e-07,1.94482813e-01
-6.24001406e-07,1.94526562e-01
-6.23961406e-07,1.94448438e-01
-6.23921406e-07,1.94704688e-01
-6.23881406e-07,1.94957812e-01
-6.23841406e-07,1.94865625e-01
-6.23801406e-07,1.94925000e-01
-6.23761406e-07,1.94879688e-01
-6.23721406e-07,1.94917188e-01
-6.23681406e-07,1.94884375e-01
-6.23641406e-07,1.94914063e-01
-6.23601406e-07,1.94885937e-01
-6.23561406e-07,1.94914063e-01
-6.23521406e-07,1.94885937e-01
-6.23481406e-07,1.94914063e-01
-6.23441406e-07,1.94884375e-01
-6.23401406e-07,1.94917188e-01
-6.23361406e-07,1.94881250e-01
-6.23321406e-07,1.94923438e-01
-6.23281406e-07,1.94867188e-01
-6.23241406e-07,1.94957812e-01
-6.23201406e-07,1.94689063e-01
-6.23161406e-07,1.94448438e-01
-6.23121406e-07,1.94528125e-01
-6.23081406e-07,1.94481250e-01
-6.23041406e-07,1.94514063e-01
-6.23001406e-07,1.94487500e-01
-6.22961406e-07,1.94510938e-01
-6.22921406e-07,1.94490625e-01
-6.22881406e-07,1.94507813e-01
-6.22841406e-07,1.94492187e-01
-6.22801406e-07,1.94507813e-01
-6.22761406e-07,1.94492187e-01
-6.22721406e-07,1.94507813e-01
-6.22681406e-07,1.94492187e-01
-6.22641406e-07,1.94507813e-01
-6.22601406e-07,1.94492187e-01
-6.22561406e-07,1.94509375e-01
-6.22521406e-07,1.94490625e-01
-6.22481406e-07,1.94510938e-01
-6.22441406e-07,1.94487500e-01
-6.22401406e-07,1.94514063e-01
-6.22361406e-07,1.94482813e-01
-6.22321406e-07,1.94523438e-01
-6.22281406e-07,1.94467187e-01
-6.22241406e-07,1.94557813e-01
-6.22201406e-07,1.94289062e-01
-6.22161406e-07,1.94048438e-01
-6.22121406e-07,1.94126563e-01
-6.22081406e-07,1.94082813e-01
-6.22041406e-07,1.94112500e-01
-6.22001406e-07,1.94090625e-01
-6.21961406e-07,1.94106250e-01
-6.21921406e-07,1.94095313e-01
-6.21881406e-07,1.94103125e-01
-6.21841406e-07,1.94098437e-01
-6.21801406e-07,1.94100000e-01
-6.21761406e-07,1.94103125e-01
-6.21721406e-07,1.94095313e-01
-6.21681406e-07,1.94107813e-01
-6.21641406e-07,1.94089063e-01
-6.21601406e-07,1.94115625e-01
-6.21561406e-07,1.94073438e-01
-6.21521406e-07,1.94151563e-01
-6.21481406e-07,1.93895312e-01
-6.21441406e-07,1.93643750e-01
-6.21401406e-07,1.93732813e-01
-6.21361406e-07,1.93678125e-01
-6.21321406e-07,1.93715625e-01
-6.21281406e-07,1.93687500e-01
-6.21241406e-07,1.93709375e-01
-6.21201406e-07,1.93695312e-01
-6.21161406e-07,1.93701563e-01
-6.21121406e-07,1.93704688e-01
-6.21081406e-07,1.93685938e-01
-6.21041406e-07,1.93740625e-01
-6.21001406e-07,1.93506250e-01
-6.20961406e-07,1.93231250e-01
-6.20921406e-07,1.93345313e-01
-6.20881406e-07,1.93264063e-01
-6.20841406e-07,1.93331250e-01
-6.20801406e-07,1.93270313e-01
-6.20761406e-07,1.93328125e-01
-6.20721406e-07,1.93271875e-01
-6.20681406e-07,1.93328125e-01
-6.20641406e-07,1.93268750e-01
-6.20601406e-07,1.93334375e-01
-6.20561406e-07,1.93256250e-01
-6.20521406e-07,1.93368750e-01
-6.20481406e-07,1.93079688e-01
-6.20441406e-07,1.92857813e-01
-6.20401406e-07,1.92918750e-01
-6.20361406e-07,1.92890625e-01
-6.20321406e-07,1.92904688e-01
-6.20281406e-07,1.92898438e-01
-6.20241406e-07,1.92898438e-01
-6.20201406e-07,1.92901563e-01
-6.20161406e-07,1.92896875e-01
-6.20121406e-07,1.92904688e-01
-6.20081406e-07,1.92895312e-01
-6.20041406e-07,1.92906250e-01
-6.20001406e-07,1.92892188e-01
-6.19961406e-07,1.92907812e-01
-6.19921406e-07,1.92890625e-01
-6.19881406e-07,1.92910938e-01
-6.19841406e-07,1.92887500e-01
-6.19801406e-07,1.92915625e-01
-6.19761406e-07,1.92878125e-01
-6.19721406e-07,1.92931250e-01
-6.19681406e-07,1.92843750e-01
-6.19641406e-07,1.93109375e-01
-6.19601406e-07,1.93353125e-01
-6.19561406e-07,1.93270313e-01
-6.19521406e-07,1.93321875e-01
-6.19481406e-07,1.93282813e-01
-6.19441406e-07,1.93314062e-01
-6.19401406e-07,1.93287500e-01
-6.19361406e-07,1.93310938e-01
-6.19321406e-07,1.93289062e-01
-6.19281406e-07,1.93310938e-01
-6.19241406e-07,1.93289062e-01
-6.19201406e-07,1.93312500e-01
-6.19161406e-07,1.93285938e-01
-6.19121406e-07,1.93315625e-01
-6.19081406e-07,1.93279688e-01
-6.19041406e-07,1.93329688e-01
-6.19001406e-07,1.93245313e-01
-6.18961406e-07,1.93507813e-01
-6.18921406e-07,1.93754688e-01
-6.18881406e-07,1.93668750e-01
-6.18841406e-07,1.93721875e-01
-6.18801406e-07,1.93682812e-01
-6.18761406e-07,1.93714063e-01
-6.18721406e-07,1.93687500e-01
-6.18681406e-07,1.93710938e-01
-6.18641406e-07,1.93690625e-01
-6.18601406e-07,1.93709375e-01
-6.18561406e-07,1.93692188e-01
-6.18521406e-07,1.93707813e-01
-6.18481406e-07,1.93692188e-01
-6.18441406e-07,1.93707813e-01
-6.18401406e-07,1.93692188e-01
-6.18361406e-07,1.93706250e-01
-6.18321406e-07,1.93693750e-01
-6.18281406e-07,1.93706250e-01
-6.18241406e-07,1.93693750e-01
-6.18201406e-07,1.93706250e-01
-6.18161406e-07,1.93693750e-01
-6.18121406e-07,1.93706250e-01
-6.18081406e-07,1.93693750e-01
-6.18041406e-07,1.93706250e-01
-6.18001406e-07,1.93693750e-01
-6.17961406e-07,1.93706250e-01
-6.17921406e-07,1.93693750e-01
-6.17881406e-07,1.93706250e-01
-6.17841406e-07,1.93693750e-01
-6.17801406e-07,1.93706250e-01
-6.17761406e-07,1.93693750e-01
-6.17721406e-07,1.93706250e-01
-6.17681406e-07,1.93693750e-01
-6.17641406e-07,1.93706250e-01
-6.17601406e-07,1.93693750e-01
-6.17561406e-07,1.93706250e-01
-6.17521406e-07,1.93693750e-01
-6.17481406e-07,1.93706250e-01
-6.17441406e-07,1.93693750e-01
-6.17401406e-07,1.93706250e-01
-6.17361406e-07,1.93693750e-01
-6.17321406e-07,1.93706250e-01
-6.17281406e-07,1.93693750e-01
-6.17241406e-07,1.93707813e-01
-6.17201406e-07,1.93692188e-01
-6.17161406e-07,1.93707813e-01
-6.17121406e-07,1.93692188e-01
-6.17081406e-07,1.93707813e-01
-6.17041406e-07,1.93692188e-01
-6.17001406e-07,1.93707813e-01
-6.16961406e-07,1.93692188e-01
-6.16921406e-07,1.93709375e-01
-6.16881406e-07,1.93690625e-01
-6.16841406e-07,1.93709375e-01
-6.16801406e-07,1.93690625e-01
-6.16761406e-07,1.93709375e-01
-6.16721406e-07,1.93689063e-01
-6.16681406e-07,1.93710938e-01
-6.16641406e-07,1.93687500e-01
-6.16601406e-07,1.93712500e-01
-6.16561406e-07,1.93685938e-01
-6.16521406e-07,1.93715625e-01
-6.16481406e-07,1.93682812e-01
-6.16441406e-07,1.93718750e-01
-6.16401406e-07,1.93678125e-01
-6.16361406e-07,1.93728125e-01
-6.16321406e-07,1.93662500e-01
-6.16281406e-07,1.93762500e-01
-6.16241406e-07,1.93484375e-01
-6.16201406e-07,1.93254688e-01
-6.16161406e-07,1.93321875e-01
-6.16121406e-07,1.93289062e-01
-6.16081406e-07,1.93306250e-01
-6.16041406e-07,1.93298438e-01
-6.16001406e-07,1.93300000e-01
-6.15961406e-07,1.93303125e-01
-6.15921406e-07,1.93293750e-01
-6.15881406e-07,1.93309375e-01
-6.15841406e-07,1.93287500e-01
-6.15801406e-07,1.93318750e-01
-6.15761406e-07,1.93271875e-01
-6.15721406e-07,1.93354688e-01
-6.15681406e-07,1.93092188e-01
-6.15641406e-07,1.92845313e-01
-6.15601406e-07,1.92929688e-01
-6.15561406e-07,1.92879688e-01
-6.15521406e-07,1.92914063e-01
-6.15481406e-07,1.92889063e-01
-6.15441406e-07,1.92909375e-01
-6.15401406e-07,1.92892188e-01
-6.15361406e-07,1.92906250e-01
-6.15321406e-07,1.92895312e-01
-6.15281406e-07,1.92903125e-01
-6.15241406e-07,1.92896875e-01
-6.15201406e-07,1.92901563e-01
-6.15161406e-07,1.92898438e-01
-6.15121406e-07,1.92900000e-01
-6.15081406e-07,1.92901563e-01
-6.15041406e-07,1.92898438e-01
-6.15001406e-07,1.92903125e-01
-6.14961406e-07,1.92896875e-01
-6.14921406e-07,1.92904688e-01
-6.14881406e-07,1.92893750e-01
-6.14841406e-07,1.92907812e-01
-6.14801406e-07,1.92889063e-01
-6.14761406e-07,1.92914063e-01
-6.14721406e-07,1.92879688e-01
-6.14681406e-07,1.92929688e-01
-6.14641406e-07,1.92845313e-01
-6.14601406e-07,1.93109375e-01
-6.14561406e-07,1.93353125e-01
-6.14521406e-07,1.93271875e-01
