dpa/aes_ch1_20250506140523659.csv

Model,MSO66B
Label,
Waveform Type,ANALOG
Horizontal Units,s
Sample Interval,4.00000000e-11
Record Length,25000
Zero Index,6249.03125000
Vertical Units,A
ANALOG_Thumbnail,
yOffset,1.84500000e-01
yPosition,0.00000000e+00

Labels,
TIME,CH1
-2.49961250e-07,1.93553438e-01
-2.49921250e-07,1.93542562e-01
-2.49881250e-07,1.93555250e-01
-2.49841250e-07,1.93538938e-01
-2.49801250e-07,1.93559781e-01
-2.49761250e-07,1.93530781e-01
-2.49721250e-07,1.93578813e-01
-2.49681250e-07,1.93428375e-01
-2.49641250e-07,1.93283375e-01
-2.49601250e-07,1.93335031e-01
-2.49561250e-07,1.93302406e-01
-2.49521250e-07,1.93326875e-01
-2.49481250e-07,1.93306937e-01
-2.49441250e-07,1.93324156e-01
-2.49401250e-07,1.93308750e-01
-2.49361250e-07,1.93323250e-01
-2.49321250e-07,1.93308750e-01
-2.49281250e-07,1.93323250e-01
-2.49241250e-07,1.93308750e-01
-2.49201250e-07,1.93323250e-01
-2.49161250e-07,1.93308750e-01
-2.49121250e-07,1.93324156e-01
-2.49081250e-07,1.93306937e-01
-2.49041250e-07,1.93325969e-01
-2.49001250e-07,1.93304219e-01
-2.48961250e-07,1.93330500e-01
-2.48921250e-07,1.93296063e-01
-2.48881250e-07,1.93350437e-01
-2.48841250e-07,1.93193656e-01
-2.48801250e-07,1.93054094e-01
-2.48761250e-07,1.93100312e-01
-2.48721250e-07,1.93073125e-01
-2.48681250e-07,1.93093062e-01
-2.48641250e-07,1.93074937e-01
-2.48601250e-07,1.93093969e-01
-2.48561250e-07,1.93069500e-01
-2.48521250e-07,1.93111188e-01
-2.48481250e-07,1.92969813e-01
-2.48441250e-07,1.92813031e-01
-2.48401250e-07,1.92879187e-01
-2.48361250e-07,1.92827531e-01
-2.48321250e-07,1.92877375e-01
-2.48281250e-07,1.92822094e-01
-2.48241250e-07,1.92896406e-01
-2.48201250e-07,1.92717875e-01
-2.48161250e-07,1.92602781e-01
-2.48121250e-07,1.92620906e-01
-2.48081250e-07,1.92627250e-01
-2.48041250e-07,1.92603688e-01
-2.48001250e-07,1.92653531e-01
-2.47961250e-07,1.92495844e-01
-2.47921250e-07,1.92362625e-01
-2.47881250e-07,1.92397062e-01
-2.47841250e-07,1.92388000e-01
-2.47801250e-07,1.92378937e-01
-2.47761250e-07,1.92415188e-01
-2.47721250e-07,1.92270187e-01
-2.47681250e-07,1.92124281e-01
-2.47641250e-07,1.92171406e-01
-2.47601250e-07,1.92150563e-01
-2.47561250e-07,1.92152375e-01
-2.47521250e-07,1.92176844e-01
-2.47481250e-07,1.92044531e-01
-2.47441250e-07,1.91885937e-01
-2.47401250e-07,1.91945750e-01
-2.47361250e-07,1.91911312e-01
-2.47321250e-07,1.91928531e-01
-2.47281250e-07,1.91936688e-01
-2.47241250e-07,1.91821594e-01
-2.47201250e-07,1.91643062e-01
-2.47161250e-07,1.91726437e-01
-2.47121250e-07,1.91663000e-01
-2.47081250e-07,1.91718281e-01
-2.47041250e-07,1.91667531e-01
-2.47001250e-07,1.91716469e-01
-2.46961250e-07,1.91666625e-01
-2.46921250e-07,1.91719187e-01
-2.46881250e-07,1.91660281e-01
-2.46841250e-07,1.91738219e-01
-2.46801250e-07,1.91557875e-01
-2.46761250e-07,1.91441875e-01
-2.46721250e-07,1.91464531e-01
-2.46681250e-07,1.91460906e-01
-2.46641250e-07,1.91456375e-01
-2.46601250e-07,1.91465438e-01
-2.46561250e-07,1.91452750e-01
-2.46521250e-07,1.91468156e-01
-2.46481250e-07,1.91450938e-01
-2.46441250e-07,1.91470875e-01
-2.46401250e-07,1.91448219e-01
-2.46361250e-07,1.91473594e-01
-2.46321250e-07,1.91442781e-01
-2.46281250e-07,1.91482656e-01
-2.46241250e-07,1.91422844e-01
-2.46201250e-07,1.91586875e-01
-2.46161250e-07,1.91717375e-01
-2.46121250e-07,1.91681125e-01
-2.46081250e-07,1.91697437e-01
-2.46041250e-07,1.91690187e-01
-2.46001250e-07,1.91692000e-01
-2.45961250e-07,1.91693813e-01
-2.45921250e-07,1.91689281e-01
-2.45881250e-07,1.91696531e-01
-2.45841250e-07,1.91685656e-01
-2.45801250e-07,1.91700156e-01
-2.45761250e-07,1.91680219e-01
-2.45721250e-07,1.91709219e-01
-2.45681250e-07,1.91660281e-01
-2.45641250e-07,1.91813437e-01
-2.45601250e-07,1.91954812e-01
-2.45561250e-07,1.91906781e-01
-2.45521250e-07,1.91934875e-01
-2.45481250e-07,1.91915844e-01
-2.45441250e-07,1.91930344e-01
-2.45401250e-07,1.91918563e-01
-2.45361250e-07,1.91928531e-01
-2.45321250e-07,1.91920375e-01
-2.45281250e-07,1.91926719e-01
-2.45241250e-07,1.91921281e-01
-2.45201250e-07,1.91926719e-01
-2.45161250e-07,1.91922188e-01
-2.45121250e-07,1.91925812e-01
-2.45081250e-07,1.91922188e-01
-2.45041250e-07,1.91925812e-01
-2.45001250e-07,1.91923094e-01
-2.44961250e-07,1.91924906e-01
-2.44921250e-07,1.91923094e-01
-2.44881250e-07,1.91924906e-01
-2.44841250e-07,1.91923094e-01
-2.44801250e-07,1.91924906e-01
-2.44761250e-07,1.91923094e-01
-2.44721250e-07,1.91924906e-01
-2.44681250e-07,1.91923094e-01
-2.44641250e-07,1.91924906e-01
-2.44601250e-07,1.91923094e-01
-2.44561250e-07,1.91925812e-01
-2.44521250e-07,1.91922188e-01
-2.44481250e-07,1.91925812e-01
-2.44441250e-07,1.91921281e-01
-2.44401250e-07,1.91927625e-01
-2.44361250e-07,1.91918563e-01
-2.44321250e-07,1.91932156e-01
-2.44281250e-07,1.91910406e-01
-2.44241250e-07,1.91951188e-01
-2.44201250e-07,1.91808000e-01
-2.44161250e-07,1.91654844e-01
-2.44121250e-07,1.91716469e-01
-2.44081250e-07,1.91672062e-01
-2.44041250e-07,1.91710125e-01
-2.44001250e-07,1.91673875e-01
-2.43961250e-07,1.91711937e-01
-2.43921250e-07,1.91667531e-01
-2.43881250e-07,1.91730062e-01
-2.43841250e-07,1.91565125e-01
-2.43801250e-07,1.91434625e-01
-2.43761250e-07,1.91471781e-01
-2.43721250e-07,1.91453656e-01
-2.43681250e-07,1.91464531e-01
-2.43641250e-07,1.91457281e-01
-2.43601250e-07,1.91461812e-01
-2.43561250e-07,1.91459094e-01
-2.43521250e-07,1.91460000e-01
-2.43481250e-07,1.91460000e-01
-2.43441250e-07,1.91459094e-01
-2.43401250e-07,1.91460906e-01
-2.43361250e-07,1.91459094e-01
-2.43321250e-07,1.91460906e-01
-2.43281250e-07,1.91459094e-01
-2.43241250e-07,1.91460000e-01
-2.43201250e-07,1.91460906e-01
-2.43161250e-07,1.91456375e-01
-2.43121250e-07,1.91468156e-01
-2.43081250e-07,1.91438250e-01
-2.43041250e-07,1.91568750e-01
-2.43001250e-07,1.91736406e-01
-2.42961250e-07,1.91659375e-01
-2.42921250e-07,1.91721906e-01
-2.42881250e-07,1.91660281e-01
-2.42841250e-07,1.91729156e-01
-2.42801250e-07,1.91640344e-01
-2.42761250e-07,1.91834281e-01
-2.42721250e-07,1.91930344e-01
-2.42681250e-07,1.91937594e-01
-2.42641250e-07,1.91888656e-01
-2.42601250e-07,1.92052687e-01
-2.42561250e-07,1.92174125e-01
-2.42521250e-07,1.92159625e-01
-2.42481250e-07,1.92130625e-01
-2.42441250e-07,1.92276531e-01
-2.42401250e-07,1.92414281e-01
-2.42361250e-07,1.92383469e-01
-2.42321250e-07,1.92370781e-01
-2.42281250e-07,1.92498562e-01
-2.42241250e-07,1.92656250e-01
-2.42201250e-07,1.92604594e-01
-2.42161250e-07,1.92614563e-01
-2.42121250e-07,1.92716969e-01
-2.42081250e-07,1.92906375e-01
-2.42041250e-07,1.92811219e-01
-2.42001250e-07,1.92890969e-01
-2.41961250e-07,1.92803063e-01
-2.41921250e-07,1.92986125e-01
-2.41881250e-07,1.93105750e-01
-2.41841250e-07,1.93072219e-01
-2.41801250e-07,1.93096688e-01
-2.41761250e-07,1.93059531e-01
-2.41721250e-07,1.93196375e-01
-2.41681250e-07,1.93357687e-01
-2.41641250e-07,1.93287000e-01
-2.41601250e-07,1.93341375e-01
-2.41561250e-07,1.93290625e-01
-2.41521250e-07,1.93345000e-01
-2.41481250e-07,1.93274312e-01
-2.41441250e-07,1.93445594e-01
-2.41401250e-07,1.93571562e-01
-2.41361250e-07,1.93537125e-01
-2.41321250e-07,1.93554344e-01
-2.41281250e-07,1.93543469e-01
-2.41241250e-07,1.93551625e-01
-2.41201250e-07,1.93544375e-01
-2.41161250e-07,1.93553438e-01
-2.41121250e-07,1.93540750e-01
-2.41081250e-07,1.93560687e-01
-2.41041250e-07,1.93520813e-01
-2.41001250e-07,1.93663094e-01
-2.40961250e-07,1.93817156e-01
-2.40921250e-07,1.93756437e-01
-2.40881250e-07,1.93798125e-01
-2.40841250e-07,1.93764594e-01
-2.40801250e-07,1.93793594e-01
-2.40761250e-07,1.93767313e-01
-2.40721250e-07,1.93791781e-01
-2.40681250e-07,1.93769125e-01
-2.40641250e-07,1.93790875e-01
-2.40601250e-07,1.93769125e-01
-2.40561250e-07,1.93790875e-01
-2.40521250e-07,1.93769125e-01
-2.40481250e-07,1.93790875e-01
-2.40441250e-07,1.93769125e-01
-2.40401250e-07,1.93790875e-01
-2.40361250e-07,1.93769125e-01
-2.40321250e-07,1.93791781e-01
-2.40281250e-07,1.93768219e-01
-2.40241250e-07,1.93792688e-01
-2.40201250e-07,1.93766406e-01
-2.40161250e-07,1.93794500e-01
-2.40121250e-07,1.93763688e-01
-2.40081250e-07,1.93799031e-01
-2.40041250e-07,1.93754625e-01
-2.40001250e-07,1.93819875e-01
-2.39961250e-07,1.93651313e-01
-2.39921250e-07,1.93524438e-01
-2.39881250e-07,1.93557969e-01
-2.39841250e-07,1.93544375e-01
-2.39801250e-07,1.93548906e-01
-2.39761250e-07,1.93548906e-01
-2.39721250e-07,1.93545281e-01
-2.39681250e-07,1.93551625e-01
-2.39641250e-07,1.93543469e-01
-2.39601250e-07,1.93553438e-01
-2.39561250e-07,1.93541656e-01
-2.39521250e-07,1.93555250e-01
-2.39481250e-07,1.93538938e-01
-2.39441250e-07,1.93557969e-01
-2.39401250e-07,1.93535313e-01
-2.39361250e-07,1.93563406e-01
-2.39321250e-07,1.93526250e-01
-2.39281250e-07,1.93584250e-01
-2.39241250e-07,1.93422938e-01
-2.39201250e-07,1.93289719e-01
-2.39161250e-07,1.93328687e-01
-2.39121250e-07,1.93309656e-01
-2.39081250e-07,1.93319625e-01
-2.39041250e-07,1.93315094e-01
-2.39001250e-07,1.93316000e-01
-2.38961250e-07,1.93317812e-01
-2.38921250e-07,1.93313281e-01
-2.38881250e-07,1.93320531e-01
-2.38841250e-07,1.93310563e-01
-2.38801250e-07,1.93323250e-01
-2.38761250e-07,1.93306031e-01
-2.38721250e-07,1.93328687e-01
-2.38681250e-07,1.93296969e-01
-2.38641250e-07,1.93349531e-01
-2.38601250e-07,1.93192750e-01
-2.38561250e-07,1.93055000e-01
-2.38521250e-07,1.93098500e-01
-2.38481250e-07,1.93074937e-01
-2.38441250e-07,1.93089437e-01
-2.38401250e-07,1.93081281e-01
-2.38361250e-07,1.93084906e-01
-2.38321250e-07,1.93084906e-01
-2.38281250e-07,1.93080375e-01
-2.38241250e-07,1.93091250e-01
-2.38201250e-07,1.93071313e-01
-2.38161250e-07,1.93111188e-01
-2.38121250e-07,1.92967094e-01
-2.38081250e-07,1.92816656e-01
-2.38041250e-07,1.92873750e-01
-2.38001250e-07,1.92834781e-01
-2.37961250e-07,1.92867406e-01
-2.37921250e-07,1.92837500e-01
-2.37881250e-07,1.92868312e-01
-2.37841250e-07,1.92832062e-01
-2.37801250e-07,1.92885531e-01
-2.37761250e-07,1.92731469e-01
-2.37721250e-07,1.92587375e-01
-2.37681250e-07,1.92639937e-01
-2.37641250e-07,1.92602781e-01
-2.37601250e-07,1.92637219e-01
-2.37561250e-07,1.92599156e-01
-2.37521250e-07,1.92654437e-01
-2.37481250e-07,1.92498562e-01
-2.37441250e-07,1.92356281e-01
-2.37401250e-07,1.92407031e-01
-2.37361250e-07,1.92373500e-01
-2.37321250e-07,1.92402500e-01
-2.37281250e-07,1.92369875e-01
-2.37241250e-07,1.92418813e-01
-2.37201250e-07,1.92270187e-01
-2.37161250e-07,1.92120656e-01
-2.37121250e-07,1.92179562e-01
-2.37081250e-07,1.92136062e-01
-2.37041250e-07,1.92176844e-01
-2.37001250e-07,1.92130625e-01
-2.36961250e-07,1.92194969e-01
-2.36921250e-07,1.92028219e-01
-2.36881250e-07,1.91899531e-01
-2.36841250e-07,1.91934875e-01
-2.36801250e-07,1.91918563e-01
-2.36761250e-07,1.91925812e-01
-2.36721250e-07,1.91924906e-01
-2.36681250e-07,1.91920375e-01
-2.36641250e-07,1.91931250e-01
-2.36601250e-07,1.91910406e-01
-2.36561250e-07,1.91952094e-01
-2.36521250e-07,1.91807094e-01
-2.36481250e-07,1.91657562e-01
-2.36441250e-07,1.91712844e-01
-2.36401250e-07,1.91676594e-01
-2.36361250e-07,1.91705594e-01
-2.36321250e-07,1.91679313e-01
-2.36281250e-07,1.91704687e-01
-2.36241250e-07,1.91677500e-01
-2.36201250e-07,1.91711031e-01
-2.36161250e-07,1.91659375e-01
-2.36121250e-07,1.91811625e-01
-2.36081250e-07,1.91957531e-01
-2.36041250e-07,1.91903156e-01
-2.36001250e-07,1.91940312e-01
-2.35961250e-07,1.91908594e-01
-2.35921250e-07,1.91939406e-01
-2.35881250e-07,1.91905875e-01
-2.35841250e-07,1.91947563e-01
-2.35801250e-07,1.91885937e-01
-2.35761250e-07,1.92050875e-01
-2.35721250e-07,1.92180469e-01
-2.35681250e-07,1.92146938e-01
-2.35641250e-07,1.92156906e-01
-2.35601250e-07,1.92162344e-01
-2.35561250e-07,1.92134250e-01
-2.35521250e-07,1.92267469e-01
-2.35481250e-07,1.92429688e-01
-2.35441250e-07,1.92358094e-01
-2.35401250e-07,1.92417000e-01
-2.35361250e-07,1.92349031e-01
-2.35321250e-07,1.92513062e-01
-2.35281250e-07,1.92649906e-01
-2.35241250e-07,1.92600063e-01
-2.35201250e-07,1.92640844e-01
-2.35161250e-07,1.92587375e-01
-2.35121250e-07,1.92739625e-01
-2.35081250e-07,1.92885531e-01
-2.35041250e-07,1.92831156e-01
-2.35001250e-07,1.92869219e-01
-2.34961250e-07,1.92834781e-01
-2.34921250e-07,1.92872844e-01
-2.34881250e-07,1.92817562e-01
-2.34841250e-07,1.92973437e-01
-2.34801250e-07,1.93115719e-01
-2.34761250e-07,1.93064969e-01
-2.34721250e-07,1.93098500e-01
-2.34681250e-07,1.93070406e-01
-2.34641250e-07,1.93098500e-01
-2.34601250e-07,1.93067688e-01
-2.34561250e-07,1.93104844e-01
-2.34521250e-07,1.93048656e-01
-2.34481250e-07,1.93208156e-01
-2.34441250e-07,1.93344094e-01
-2.34401250e-07,1.93301500e-01
-2.34361250e-07,1.93325063e-01
-2.34321250e-07,1.93310563e-01
-2.34281250e-07,1.93319625e-01
-2.34241250e-07,1.93313281e-01
-2.34201250e-07,1.93316906e-01
-2.34161250e-07,1.93316000e-01
-2.34121250e-07,1.93315094e-01
-2.34081250e-07,1.93318719e-01
-2.34041250e-07,1.93312375e-01
-2.34001250e-07,1.93322344e-01
-2.33961250e-07,1.93306937e-01
-2.33921250e-07,1.93331406e-01
-2.33881250e-07,1.93286094e-01
-2.33841250e-07,1.93434719e-01
-2.33801250e-07,1.93581531e-01
-2.33761250e-07,1.93528969e-01
-2.33721250e-07,1.93561594e-01
-2.33681250e-07,1.93538031e-01
-2.33641250e-07,1.93556156e-01
-2.33601250e-07,1.93540750e-01
-2.33561250e-07,1.93554344e-01
-2.33521250e-07,1.93542562e-01
-2.33481250e-07,1.93552531e-01
-2.33441250e-07,1.93544375e-01
-2.33401250e-07,1.93550719e-01
-2.33361250e-07,1.93546187e-01
-2.33321250e-07,1.93548906e-01
-2.33281250e-07,1.93547094e-01
-2.33241250e-07,1.93547094e-01
-2.33201250e-07,1.93549813e-01
-2.33161250e-07,1.93544375e-01
-2.33121250e-07,1.93555250e-01
-2.33081250e-07,1.93535313e-01
-2.33041250e-07,1.93575187e-01
-2.33001250e-07,1.93432000e-01
-2.32961250e-07,1.93279750e-01
-2.32921250e-07,1.93337750e-01
-2.32881250e-07,1.93299687e-01
-2.32841250e-07,1.93329594e-01
-2.32801250e-07,1.93304219e-01
-2.32761250e-07,1.93326875e-01
-2.32721250e-07,1.93306031e-01
-2.32681250e-07,1.93325063e-01
-2.32641250e-07,1.93307844e-01
-2.32601250e-07,1.93324156e-01
-2.32561250e-07,1.93307844e-01
-2.32521250e-07,1.93323250e-01
-2.32481250e-07,1.93308750e-01
-2.32441250e-07,1.93323250e-01
-2.32401250e-07,1.93308750e-01
-2.32361250e-07,1.93323250e-01
-2.32321250e-07,1.93308750e-01
-2.32281250e-07,1.93323250e-01
-2.32241250e-07,1.93308750e-01
-2.32201250e-07,1.93323250e-01
-2.32161250e-07,1.93308750e-01
-2.32121250e-07,1.93324156e-01
-2.32081250e-07,1.93307844e-01
-2.32041250e-07,1.93325063e-01
-2.32001250e-07,1.93306031e-01
-2.31961250e-07,1.93327781e-01
-2.31921250e-07,1.93301500e-01
-2.31881250e-07,1.93335937e-01
-2.31841250e-07,1.93282469e-01
-2.31801250e-07,1.93438344e-01
-2.31761250e-07,1.93577906e-01
-2.31721250e-07,1.93530781e-01
-2.31681250e-07,1.93560687e-01
-2.31641250e-07,1.93537125e-01
-2.31601250e-07,1.93558875e-01
-2.31561250e-07,1.93536219e-01
-2.31521250e-07,1.93564313e-01
-2.31481250e-07,1.93518094e-01
-2.31441250e-07,1.93665813e-01
-2.31401250e-07,1.93815344e-01
-2.31361250e-07,1.93758250e-01
-2.31321250e-07,1.93798125e-01
-2.31281250e-07,1.93763688e-01
-2.31241250e-07,1.93796312e-01
-2.31201250e-07,1.93761875e-01
-2.31161250e-07,1.93803562e-01
-2.31121250e-07,1.93742844e-01
-2.31081250e-07,1.93905969e-01
-2.31041250e-07,1.94039187e-01
-2.31001250e-07,1.93998406e-01
-2.30961250e-07,1.94020156e-01
-2.30921250e-07,1.94006563e-01
-2.30881250e-07,1.94015625e-01
-2.30841250e-07,1.94009281e-01
-2.30801250e-07,1.94013812e-01
-2.30761250e-07,1.94011094e-01
-2.30721250e-07,1.94012906e-01
-2.30681250e-07,1.94012000e-01
-2.30641250e-07,1.94012000e-01
-2.30601250e-07,1.94012000e-01
-2.30561250e-07,1.94011094e-01
-2.30521250e-07,1.94012906e-01
-2.30481250e-07,1.94011094e-01
-2.30441250e-07,1.94013812e-01
-2.30401250e-07,1.94010187e-01
-2.30361250e-07,1.94013812e-01
-2.30321250e-07,1.94010187e-01
-2.30281250e-07,1.94014719e-01
-2.30241250e-07,1.94009281e-01
-2.30201250e-07,1.94015625e-01
-2.30161250e-07,1.94008375e-01
-2.30121250e-07,1.94016531e-01
-2.30081250e-07,1.94006563e-01
-2.30041250e-07,1.94018344e-01
-2.30001250e-07,1.94003844e-01
-2.29961250e-07,1.94023781e-01
-2.29921250e-07,1.93994781e-01
-2.29881250e-07,1.94043719e-01
-2.29841250e-07,1.93891469e-01
-2.29801250e-07,1.93748281e-01
-2.29761250e-07,1.93797219e-01
-2.29721250e-07,1.93768219e-01
-2.29681250e-07,1.93788156e-01
-2.29641250e-07,1.93774562e-01
-2.29601250e-07,1.93782719e-01
-2.29561250e-07,1.93780000e-01
-2.29521250e-07,1.93774562e-01
-2.29481250e-07,1.93799937e-01
-2.29441250e-07,1.93671250e-01
-2.29401250e-07,1.93503594e-01
-2.29361250e-07,1.93580625e-01
-2.29321250e-07,1.93519000e-01
-2.29281250e-07,1.93577000e-01
-2.29241250e-07,1.93514469e-01
-2.29201250e-07,1.93595125e-01
-2.29161250e-07,1.93411156e-01
-2.29121250e-07,1.93301500e-01
-2.29081250e-07,1.93315094e-01
-2.29041250e-07,1.93325063e-01
-2.29001250e-07,1.93298781e-01
-2.28961250e-07,1.93350437e-01
-2.28921250e-07,1.93190937e-01
-2.28881250e-07,1.93058625e-01
-2.28841250e-07,1.93093062e-01
-2.28801250e-07,1.93084000e-01
-2.28761250e-07,1.93074937e-01
-2.28721250e-07,1.93109375e-01
-2.28681250e-07,1.92968000e-01
-2.28641250e-07,1.92818469e-01
-2.28601250e-07,1.92870125e-01
-2.28561250e-07,1.92842938e-01
-2.28521250e-07,1.92852906e-01
-2.28481250e-07,1.92867406e-01
-2.28441250e-07,1.92747781e-01
-2.28401250e-07,1.92572875e-01
-2.28361250e-07,1.92654437e-01
-2.28321250e-07,1.92590094e-01
-2.28281250e-07,1.92649906e-01
-2.28241250e-07,1.92587375e-01
-2.28201250e-07,1.92666219e-01
-2.28161250e-07,1.92485875e-01
-2.28121250e-07,1.92368969e-01
-2.28081250e-07,1.92393437e-01
-2.28041250e-07,1.92388000e-01
-2.28001250e-07,1.92384375e-01
-2.27961250e-07,1.92394344e-01
-2.27921250e-07,1.92379844e-01
-2.27881250e-07,1.92399781e-01
-2.27841250e-07,1.92369875e-01
-2.27801250e-07,1.92420625e-01
-2.27761250e-07,1.92266562e-01
-2.27721250e-07,1.92125187e-01
-2.27681250e-07,1.92173219e-01
-2.27641250e-07,1.92144219e-01
-2.27601250e-07,1.92165062e-01
-2.27561250e-07,1.92148750e-01
-2.27521250e-07,1.92162344e-01
-2.27481250e-07,1.92150563e-01
-2.27441250e-07,1.92161438e-01
-2.27401250e-07,1.92151469e-01
-2.27361250e-07,1.92160531e-01
-2.27321250e-07,1.92151469e-01
-2.27281250e-07,1.92160531e-01
-2.27241250e-07,1.92151469e-01
-2.27201250e-07,1.92161438e-01
-2.27161250e-07,1.92150563e-01
-2.27121250e-07,1.92162344e-01
-2.27081250e-07,1.92148750e-01
-2.27041250e-07,1.92165062e-01
-2.27001250e-07,1.92143312e-01
-2.26961250e-07,1.92174125e-01
-2.26921250e-07,1.92123375e-01
-2.26881250e-07,1.92277438e-01
-2.26841250e-07,1.92418813e-01
-2.26801250e-07,1.92370781e-01
-2.26761250e-07,1.92399781e-01
-2.26721250e-07,1.92379844e-01
-2.26681250e-07,1.92394344e-01
-2.26641250e-07,1.92382562e-01
-2.26601250e-07,1.92391625e-01
-2.26561250e-07,1.92385281e-01
-2.26521250e-07,1.92389813e-01
-2.26481250e-07,1.92387094e-01
-2.26441250e-07,1.92387094e-01
-2.26401250e-07,1.92390719e-01
-2.26361250e-07,1.92382562e-01
-2.26321250e-07,1.92399781e-01
-2.26281250e-07,1.92361719e-01
-2.26241250e-07,1.92502188e-01
-2.26201250e-07,1.92657156e-01
-2.26161250e-07,1.92596437e-01
-2.26121250e-07,1.92638125e-01
-2.26081250e-07,1.92604594e-01
-2.26041250e-07,1.92634500e-01
-2.26001250e-07,1.92607312e-01
-2.25961250e-07,1.92632688e-01
-2.25921250e-07,1.92608219e-01
-2.25881250e-07,1.92631781e-01
-2.25841250e-07,1.92607312e-01
-2.25801250e-07,1.92632688e-01
-2.25761250e-07,1.92607312e-01
-2.25721250e-07,1.92633594e-01
-2.25681250e-07,1.92604594e-01
-2.25641250e-07,1.92637219e-01
-2.25601250e-07,1.92600063e-01
-2.25561250e-07,1.92646281e-01
-2.25521250e-07,1.92579219e-01
-2.25481250e-07,1.92750500e-01
-2.25441250e-07,1.92872844e-01
-2.25401250e-07,1.92845656e-01
-2.25361250e-07,1.92851094e-01
-2.25321250e-07,1.92858344e-01
-2.25281250e-07,1.92838406e-01
-2.25241250e-07,1.92881906e-01
-2.25201250e-07,1.92733281e-01
-2.25161250e-07,1.92587375e-01
-2.25121250e-07,1.92638125e-01
-2.25081250e-07,1.92608219e-01
-2.25041250e-07,1.92629063e-01
-2.25001250e-07,1.92612750e-01
-2.24961250e-07,1.92625437e-01
-2.24921250e-07,1.92615469e-01
-2.24881250e-07,1.92623625e-01
-2.24841250e-07,1.92617281e-01
-2.24801250e-07,1.92621812e-01
-2.24761250e-07,1.92619094e-01
-2.24721250e-07,1.92620000e-01
-2.24681250e-07,1.92620906e-01
-2.24641250e-07,1.92618187e-01
-2.24601250e-07,1.92622719e-01
-2.24561250e-07,1.92615469e-01
-2.24521250e-07,1.92627250e-01
