dpa/aes_ch1_20250506140507531.csv

Model,MSO66B
Label,
Waveform Type,ANALOG
Horizontal Units,s
Sample Interval,4.00000000e-11
Record Length,25000
Zero Index,6249.03125000
Vertical Units,A
ANALOG_Thumbnail,
yOffset,1.84500000e-01
yPosition,0.00000000e+00

Labels,
TIME,CH1
-2.49961250e-07,1.79282719e-01
-2.49921250e-07,1.79429531e-01
-2.49881250e-07,1.79376062e-01
-2.49841250e-07,1.79410500e-01
-2.49801250e-07,1.79384219e-01
-2.49761250e-07,1.79405969e-01
-2.49721250e-07,1.79386938e-01
-2.49681250e-07,1.79404156e-01
-2.49641250e-07,1.79388750e-01
-2.49601250e-07,1.79402344e-01
-2.49561250e-07,1.79389656e-01
-2.49521250e-07,1.79402344e-01
-2.49481250e-07,1.79390562e-01
-2.49441250e-07,1.79401438e-01
-2.49401250e-07,1.79390562e-01
-2.49361250e-07,1.79400531e-01
-2.49321250e-07,1.79391469e-01
-2.49281250e-07,1.79400531e-01
-2.49241250e-07,1.79391469e-01
-2.49201250e-07,1.79400531e-01
-2.49161250e-07,1.79392375e-01
-2.49121250e-07,1.79399625e-01
-2.49081250e-07,1.79392375e-01
-2.49041250e-07,1.79399625e-01
-2.49001250e-07,1.79392375e-01
-2.48961250e-07,1.79398719e-01
-2.48921250e-07,1.79393281e-01
-2.48881250e-07,1.79398719e-01
-2.48841250e-07,1.79394187e-01
-2.48801250e-07,1.79397813e-01
-2.48761250e-07,1.79395094e-01
-2.48721250e-07,1.79396906e-01
-2.48681250e-07,1.79396000e-01
-2.48641250e-07,1.79395094e-01
-2.48601250e-07,1.79398719e-01
-2.48561250e-07,1.79390562e-01
-2.48521250e-07,1.79407781e-01
-2.48481250e-07,1.79370625e-01
-2.48441250e-07,1.79510188e-01
-2.48401250e-07,1.79666063e-01
-2.48361250e-07,1.79603531e-01
-2.48321250e-07,1.79647031e-01
-2.48281250e-07,1.79611688e-01
-2.48241250e-07,1.79643406e-01
-2.48201250e-07,1.79613500e-01
-2.48161250e-07,1.79642500e-01
-2.48121250e-07,1.79612594e-01
-2.48081250e-07,1.79644312e-01
-2.48041250e-07,1.79609875e-01
-2.48001250e-07,1.79651563e-01
-2.47961250e-07,1.79590844e-01
-2.47921250e-07,1.79753063e-01
-2.47881250e-07,1.79887187e-01
-2.47841250e-07,1.79845500e-01
-2.47801250e-07,1.79870875e-01
-2.47761250e-07,1.79849125e-01
-2.47721250e-07,1.79873594e-01
-2.47681250e-07,1.79833719e-01
-2.47641250e-07,1.79973281e-01
-2.47601250e-07,1.80132781e-01
-2.47561250e-07,1.80062094e-01
-2.47521250e-07,1.80122813e-01
-2.47481250e-07,1.80050313e-01
-2.47441250e-07,1.80220688e-01
-2.47401250e-07,1.80350281e-01
-2.47361250e-07,1.80308594e-01
-2.47321250e-07,1.80338500e-01
-2.47281250e-07,1.80298625e-01
-2.47241250e-07,1.80435469e-01
-2.47201250e-07,1.80599500e-01
-2.47161250e-07,1.80522469e-01
-2.47121250e-07,1.80591344e-01
-2.47081250e-07,1.80507969e-01
-2.47041250e-07,1.80691938e-01
-2.47001250e-07,1.80803406e-01
-2.46961250e-07,1.80788000e-01
-2.46921250e-07,1.80780750e-01
-2.46881250e-07,1.80804313e-01
-2.46841250e-07,1.80755375e-01
-2.46801250e-07,1.80911250e-01
-2.46761250e-07,1.81047187e-01
-2.46721250e-07,1.81008219e-01
-2.46681250e-07,1.81023625e-01
-2.46641250e-07,1.81025437e-01
-2.46601250e-07,1.80999156e-01
-2.46561250e-07,1.81130563e-01
-2.46521250e-07,1.81293687e-01
-2.46481250e-07,1.81223906e-01
-2.46441250e-07,1.81275562e-01
-2.46401250e-07,1.81228438e-01
-2.46361250e-07,1.81279187e-01
-2.46321250e-07,1.81212125e-01
-2.46281250e-07,1.81378875e-01
-2.46241250e-07,1.81509375e-01
-2.46201250e-07,1.81471313e-01
-2.46161250e-07,1.81492156e-01
-2.46121250e-07,1.81478562e-01
-2.46081250e-07,1.81488531e-01
-2.46041250e-07,1.81480375e-01
-2.46001250e-07,1.81486719e-01
-2.45961250e-07,1.81481281e-01
-2.45921250e-07,1.81485813e-01
-2.45881250e-07,1.81482188e-01
-2.45841250e-07,1.81485813e-01
-2.45801250e-07,1.81482188e-01
-2.45761250e-07,1.81485813e-01
-2.45721250e-07,1.81482188e-01
-2.45681250e-07,1.81485813e-01
-2.45641250e-07,1.81482188e-01
-2.45601250e-07,1.81485813e-01
-2.45561250e-07,1.81482188e-01
-2.45521250e-07,1.81486719e-01
-2.45481250e-07,1.81481281e-01
-2.45441250e-07,1.81486719e-01
-2.45401250e-07,1.81481281e-01
-2.45361250e-07,1.81486719e-01
-2.45321250e-07,1.81481281e-01
-2.45281250e-07,1.81487625e-01
-2.45241250e-07,1.81480375e-01
-2.45201250e-07,1.81487625e-01
-2.45161250e-07,1.81479469e-01
-2.45121250e-07,1.81489437e-01
-2.45081250e-07,1.81477656e-01
-2.45041250e-07,1.81491250e-01
-2.45001250e-07,1.81474937e-01
-2.44961250e-07,1.81495781e-01
-2.44921250e-07,1.81466781e-01
-2.44881250e-07,1.81515719e-01
-2.44841250e-07,1.81363469e-01
-2.44801250e-07,1.81220281e-01
-2.44761250e-07,1.81270125e-01
-2.44721250e-07,1.81240219e-01
-2.44681250e-07,1.81261062e-01
-2.44641250e-07,1.81244750e-01
-2.44601250e-07,1.81258344e-01
-2.44561250e-07,1.81246562e-01
-2.44521250e-07,1.81257438e-01
-2.44481250e-07,1.81247469e-01
-2.44441250e-07,1.81256531e-01
-2.44401250e-07,1.81248375e-01
-2.44361250e-07,1.81255625e-01
-2.44321250e-07,1.81248375e-01
-2.44281250e-07,1.81255625e-01
-2.44241250e-07,1.81248375e-01
-2.44201250e-07,1.81255625e-01
-2.44161250e-07,1.81248375e-01
-2.44121250e-07,1.81255625e-01
-2.44081250e-07,1.81249281e-01
-2.44041250e-07,1.81254719e-01
-2.44001250e-07,1.81248375e-01
-2.43961250e-07,1.81255625e-01
-2.43921250e-07,1.81248375e-01
-2.43881250e-07,1.81255625e-01
-2.43841250e-07,1.81248375e-01
-2.43801250e-07,1.81255625e-01
-2.43761250e-07,1.81248375e-01
-2.43721250e-07,1.81255625e-01
-2.43681250e-07,1.81247469e-01
-2.43641250e-07,1.81256531e-01
-2.43601250e-07,1.81247469e-01
-2.43561250e-07,1.81257438e-01
-2.43521250e-07,1.81246562e-01
-2.43481250e-07,1.81258344e-01
-2.43441250e-07,1.81244750e-01
-2.43401250e-07,1.81261062e-01
-2.43361250e-07,1.81241125e-01
-2.43321250e-07,1.81265594e-01
-2.43281250e-07,1.81232062e-01
-2.43241250e-07,1.81286438e-01
-2.43201250e-07,1.81128750e-01
-2.43161250e-07,1.80991906e-01
-2.43121250e-07,1.81033594e-01
-2.43081250e-07,1.81012750e-01
-2.43041250e-07,1.81023625e-01
-2.43001250e-07,1.81020906e-01
-2.42961250e-07,1.81012750e-01
-2.42921250e-07,1.81041750e-01
-2.42881250e-07,1.80909437e-01
-2.42841250e-07,1.80745406e-01
-2.42801250e-07,1.80819719e-01
-2.42761250e-07,1.80757187e-01
-2.42721250e-07,1.80829688e-01
-2.42681250e-07,1.80660219e-01
-2.42641250e-07,1.80528812e-01
-2.42601250e-07,1.80573219e-01
-2.42561250e-07,1.80538781e-01
-2.42521250e-07,1.80584094e-01
-2.42481250e-07,1.80441812e-01
-2.42441250e-07,1.80284125e-01
-2.42401250e-07,1.80353906e-01
-2.42361250e-07,1.80293188e-01
-2.42321250e-07,1.80366594e-01
-2.42281250e-07,1.80193500e-01
-2.42241250e-07,1.80070250e-01
-2.42201250e-07,1.80099250e-01
-2.42161250e-07,1.80092000e-01
-2.42121250e-07,1.80083844e-01
-2.42081250e-07,1.80114656e-01
-2.42041250e-07,1.79979625e-01
-2.42001250e-07,1.79819219e-01
-2.41961250e-07,1.79888094e-01
-2.41921250e-07,1.79836438e-01
-2.41881250e-07,1.79883563e-01
-2.41841250e-07,1.79831906e-01
-2.41801250e-07,1.79901687e-01
-2.41761250e-07,1.79730406e-01
-2.41721250e-07,1.79605344e-01
-2.41681250e-07,1.79637062e-01
-2.41641250e-07,1.79624375e-01
-2.41601250e-07,1.79628000e-01
-2.41561250e-07,1.79630719e-01
-2.41521250e-07,1.79622562e-01
-2.41481250e-07,1.79637062e-01
-2.41441250e-07,1.79612594e-01
-2.41401250e-07,1.79657906e-01
-2.41361250e-07,1.79509281e-01
-2.41321250e-07,1.79363375e-01
-2.41281250e-07,1.79415031e-01
-2.41241250e-07,1.79383313e-01
-2.41201250e-07,1.79405969e-01
-2.41161250e-07,1.79387844e-01
-2.41121250e-07,1.79402344e-01
-2.41081250e-07,1.79390562e-01
-2.41041250e-07,1.79400531e-01
-2.41001250e-07,1.79392375e-01
-2.40961250e-07,1.79398719e-01
-2.40921250e-07,1.79394187e-01
-2.40881250e-07,1.79396000e-01
-2.40841250e-07,1.79396906e-01
-2.40801250e-07,1.79393281e-01
-2.40761250e-07,1.79402344e-01
-2.40721250e-07,1.79384219e-01
-2.40681250e-07,1.79422281e-01
-2.40641250e-07,1.79280906e-01
-2.40601250e-07,1.79126844e-01
-2.40561250e-07,1.79187563e-01
-2.40521250e-07,1.79145875e-01
-2.40481250e-07,1.79179406e-01
-2.40441250e-07,1.79150406e-01
-2.40401250e-07,1.79176687e-01
-2.40361250e-07,1.79152219e-01
-2.40321250e-07,1.79174875e-01
-2.40281250e-07,1.79153125e-01
-2.40241250e-07,1.79174875e-01
-2.40201250e-07,1.79153125e-01
-2.40161250e-07,1.79175781e-01
-2.40121250e-07,1.79151312e-01
-2.40081250e-07,1.79178500e-01
-2.40041250e-07,1.79146781e-01
-2.40001250e-07,1.79185750e-01
-2.39961250e-07,1.79127750e-01
-2.39921250e-07,1.79289062e-01
-2.39881250e-07,1.79423187e-01
-2.39841250e-07,1.79382406e-01
-2.39801250e-07,1.79405062e-01
-2.39761250e-07,1.79389656e-01
-2.39721250e-07,1.79400531e-01
-2.39681250e-07,1.79392375e-01
-2.39641250e-07,1.79399625e-01
-2.39601250e-07,1.79392375e-01
-2.39561250e-07,1.79399625e-01
-2.39521250e-07,1.79391469e-01
-2.39481250e-07,1.79402344e-01
-2.39441250e-07,1.79387844e-01
-2.39401250e-07,1.79409594e-01
-2.39361250e-07,1.79367906e-01
-2.39321250e-07,1.79512000e-01
-2.39281250e-07,1.79664250e-01
-2.39241250e-07,1.79605344e-01
-2.39201250e-07,1.79645219e-01
-2.39161250e-07,1.79612594e-01
-2.39121250e-07,1.79642500e-01
-2.39081250e-07,1.79614406e-01
-2.39041250e-07,1.79641594e-01
-2.39001250e-07,1.79613500e-01
-2.38961250e-07,1.79643406e-01
-2.38921250e-07,1.79609875e-01
-2.38881250e-07,1.79651563e-01
-2.38841250e-07,1.79589937e-01
-2.38801250e-07,1.79754875e-01
-2.38761250e-07,1.79886281e-01
-2.38721250e-07,1.79848219e-01
-2.38681250e-07,1.79866344e-01
-2.38641250e-07,1.79856375e-01
-2.38601250e-07,1.79862719e-01
-2.38561250e-07,1.79859094e-01
-2.38521250e-07,1.79860000e-01
-2.38481250e-07,1.79860000e-01
-2.38441250e-07,1.79859094e-01
-2.38401250e-07,1.79860906e-01
-2.38361250e-07,1.79858187e-01
-2.38321250e-07,1.79861812e-01
-2.38281250e-07,1.79858187e-01
-2.38241250e-07,1.79861812e-01
-2.38201250e-07,1.79857281e-01
-2.38161250e-07,1.79862719e-01
-2.38121250e-07,1.79857281e-01
-2.38081250e-07,1.79862719e-01
-2.38041250e-07,1.79857281e-01
-2.38001250e-07,1.79863625e-01
-2.37961250e-07,1.79856375e-01
-2.37921250e-07,1.79863625e-01
-2.37881250e-07,1.79856375e-01
-2.37841250e-07,1.79863625e-01
-2.37801250e-07,1.79856375e-01
-2.37761250e-07,1.79864531e-01
-2.37721250e-07,1.79855469e-01
-2.37681250e-07,1.79864531e-01
-2.37641250e-07,1.79855469e-01
-2.37601250e-07,1.79865438e-01
-2.37561250e-07,1.79854563e-01
-2.37521250e-07,1.79865438e-01
-2.37481250e-07,1.79853656e-01
-2.37441250e-07,1.79866344e-01
-2.37401250e-07,1.79852750e-01
-2.37361250e-07,1.79868156e-01
-2.37321250e-07,1.79850938e-01
-2.37281250e-07,1.79869969e-01
-2.37241250e-07,1.79848219e-01
-2.37201250e-07,1.79875406e-01
-2.37161250e-07,1.79839156e-01
-2.37121250e-07,1.79895344e-01
-2.37081250e-07,1.79735844e-01
-2.37041250e-07,1.79599906e-01
-2.37001250e-07,1.79642500e-01
-2.36961250e-07,1.79619844e-01
-2.36921250e-07,1.79633437e-01
-2.36881250e-07,1.79624375e-01
-2.36841250e-07,1.79630719e-01
-2.36801250e-07,1.79626188e-01
-2.36761250e-07,1.79628906e-01
-2.36721250e-07,1.79628000e-01
-2.36681250e-07,1.79627094e-01
-2.36641250e-07,1.79628906e-01
-2.36601250e-07,1.79626188e-01
-2.36561250e-07,1.79629812e-01
-2.36521250e-07,1.79625281e-01
-2.36481250e-07,1.79630719e-01
-2.36441250e-07,1.79625281e-01
-2.36401250e-07,1.79631625e-01
-2.36361250e-07,1.79624375e-01
-2.36321250e-07,1.79632531e-01
-2.36281250e-07,1.79622562e-01
-2.36241250e-07,1.79634344e-01
-2.36201250e-07,1.79620750e-01
-2.36161250e-07,1.79636156e-01
-2.36121250e-07,1.79618937e-01
-2.36081250e-07,1.79639781e-01
-2.36041250e-07,1.79613500e-01
-2.36001250e-07,1.79648844e-01
-2.35961250e-07,1.79592656e-01
-2.35921250e-07,1.79753063e-01
-2.35881250e-07,1.79887187e-01
-2.35841250e-07,1.79848219e-01
-2.35801250e-07,1.79865438e-01
-2.35761250e-07,1.79859094e-01
-2.35721250e-07,1.79856375e-01
-2.35681250e-07,1.79869969e-01
-2.35641250e-07,1.79834625e-01
-2.35601250e-07,1.79974187e-01
-2.35561250e-07,1.80130062e-01
-2.35521250e-07,1.80067531e-01
-2.35481250e-07,1.80112844e-01
-2.35441250e-07,1.80072062e-01
-2.35401250e-07,1.80114656e-01
-2.35361250e-07,1.80056656e-01
-2.35321250e-07,1.80214344e-01
-2.35281250e-07,1.80354812e-01
-2.35241250e-07,1.80304969e-01
-2.35201250e-07,1.80340312e-01
-2.35161250e-07,1.80307688e-01
-2.35121250e-07,1.80344844e-01
-2.35081250e-07,1.80289563e-01
-2.35041250e-07,1.80447250e-01
-2.35001250e-07,1.80585906e-01
-2.34961250e-07,1.80539687e-01
-2.34921250e-07,1.80566875e-01
-2.34881250e-07,1.80547844e-01
-2.34841250e-07,1.80562344e-01
-2.34801250e-07,1.80550563e-01
-2.34761250e-07,1.80560531e-01
-2.34721250e-07,1.80552375e-01
-2.34681250e-07,1.80558719e-01
-2.34641250e-07,1.80553281e-01
-2.34601250e-07,1.80557812e-01
-2.34561250e-07,1.80554187e-01
-2.34521250e-07,1.80557812e-01
-2.34481250e-07,1.80555094e-01
-2.34441250e-07,1.80556906e-01
-2.34401250e-07,1.80555094e-01
-2.34361250e-07,1.80556000e-01
-2.34321250e-07,1.80556000e-01
-2.34281250e-07,1.80556000e-01
-2.34241250e-07,1.80556906e-01
-2.34201250e-07,1.80555094e-01
-2.34161250e-07,1.80557812e-01
-2.34121250e-07,1.80554187e-01
-2.34081250e-07,1.80558719e-01
-2.34041250e-07,1.80552375e-01
-2.34001250e-07,1.80560531e-01
-2.33961250e-07,1.80549656e-01
-2.33921250e-07,1.80565062e-01
-2.33881250e-07,1.80541500e-01
-2.33841250e-07,1.80585000e-01
-2.33801250e-07,1.80438187e-01
-2.33761250e-07,1.80288656e-01
-2.33721250e-07,1.80345750e-01
-2.33681250e-07,1.80306781e-01
-2.33641250e-07,1.80339406e-01
-2.33601250e-07,1.80309500e-01
-2.33561250e-07,1.80340312e-01
-2.33521250e-07,1.80303156e-01
-2.33481250e-07,1.80358437e-01
-2.33441250e-07,1.80201656e-01
-2.33401250e-07,1.80061187e-01
-2.33361250e-07,1.80109219e-01
-2.33321250e-07,1.80079313e-01
-2.33281250e-07,1.80102875e-01
-2.33241250e-07,1.80082031e-01
-2.33201250e-07,1.80101969e-01
-2.33161250e-07,1.80080219e-01
-2.33121250e-07,1.80105594e-01
-2.33081250e-07,1.80072969e-01
-2.33041250e-07,1.80125531e-01
-2.33001250e-07,1.79969656e-01
-2.32961250e-07,1.79830094e-01
-2.32921250e-07,1.79876312e-01
-2.32881250e-07,1.79849125e-01
-2.32841250e-07,1.79868156e-01
-2.32801250e-07,1.79853656e-01
-2.32761250e-07,1.79865438e-01
-2.32721250e-07,1.79855469e-01
-2.32681250e-07,1.79863625e-01
-2.32641250e-07,1.79856375e-01
-2.32601250e-07,1.79862719e-01
-2.32561250e-07,1.79857281e-01
-2.32521250e-07,1.79862719e-01
-2.32481250e-07,1.79857281e-01
-2.32441250e-07,1.79861812e-01
-2.32401250e-07,1.79858187e-01
-2.32361250e-07,1.79861812e-01
-2.32321250e-07,1.79858187e-01
-2.32281250e-07,1.79861812e-01
-2.32241250e-07,1.79858187e-01
-2.32201250e-07,1.79860906e-01
-2.32161250e-07,1.79859094e-01
-2.32121250e-07,1.79860906e-01
-2.32081250e-07,1.79859094e-01
-2.32041250e-07,1.79860906e-01
-2.32001250e-07,1.79859094e-01
-2.31961250e-07,1.79860906e-01
-2.31921250e-07,1.79859094e-01
-2.31881250e-07,1.79860906e-01
-2.31841250e-07,1.79858187e-01
-2.31801250e-07,1.79861812e-01
-2.31761250e-07,1.79858187e-01
-2.31721250e-07,1.79862719e-01
-2.31681250e-07,1.79856375e-01
-2.31641250e-07,1.79864531e-01
-2.31601250e-07,1.79852750e-01
-2.31561250e-07,1.79872687e-01
-2.31521250e-07,1.79833719e-01
-2.31481250e-07,1.79974187e-01
-2.31441250e-07,1.80130969e-01
-2.31401250e-07,1.80066625e-01
-2.31361250e-07,1.80113750e-01
-2.31321250e-07,1.80072062e-01
-2.31281250e-07,1.80112844e-01
-2.31241250e-07,1.80069344e-01
-2.31201250e-07,1.80120094e-01
-2.31161250e-07,1.80048500e-01
-2.31121250e-07,1.80224313e-01
-2.31081250e-07,1.80343031e-01
-2.31041250e-07,1.80321281e-01
-2.31001250e-07,1.80318563e-01
-2.30961250e-07,1.80338500e-01
-2.30921250e-07,1.80293188e-01
-2.30881250e-07,1.80444531e-01
-2.30841250e-07,1.80585906e-01
-2.30801250e-07,1.80541500e-01
-2.30761250e-07,1.80563250e-01
-2.30721250e-07,1.80553281e-01
-2.30681250e-07,1.80553281e-01
-2.30641250e-07,1.80565969e-01
-2.30601250e-07,1.80530625e-01
-2.30561250e-07,1.80671094e-01
-2.30521250e-07,1.80824250e-01
-2.30481250e-07,1.80766250e-01
-2.30441250e-07,1.80804313e-01
-2.30401250e-07,1.80775313e-01
-2.30361250e-07,1.80797969e-01
-2.30321250e-07,1.80778937e-01
-2.30281250e-07,1.80795250e-01
-2.30241250e-07,1.80781656e-01
-2.30201250e-07,1.80793437e-01
-2.30161250e-07,1.80783469e-01
-2.30121250e-07,1.80790719e-01
-2.30081250e-07,1.80786188e-01
-2.30041250e-07,1.80788906e-01
-2.30001250e-07,1.80788906e-01
-2.29961250e-07,1.80785281e-01
-2.29921250e-07,1.80794344e-01
-2.29881250e-07,1.80775313e-01
-2.29841250e-07,1.80815188e-01
-2.29801250e-07,1.80671094e-01
-2.29761250e-07,1.80521563e-01
-2.29721250e-07,1.80575031e-01
-2.29681250e-07,1.80544219e-01
-2.29641250e-07,1.80559625e-01
-2.29601250e-07,1.80566875e-01
-2.29561250e-07,1.80456312e-01
-2.29521250e-07,1.80270531e-01
-2.29481250e-07,1.80366594e-01
-2.29441250e-07,1.80280500e-01
-2.29401250e-07,1.80379281e-01
-2.29361250e-07,1.80179906e-01
-2.29321250e-07,1.80085656e-01
-2.29281250e-07,1.80080219e-01
-2.29241250e-07,1.80123719e-01
-2.29201250e-07,1.79968750e-01
-2.29161250e-07,1.79833719e-01
-2.29121250e-07,1.79867250e-01
-2.29081250e-07,1.79870875e-01
-2.29041250e-07,1.79761219e-01
-2.29001250e-07,1.79570906e-01
-2.28961250e-07,1.79686000e-01
-2.28921250e-07,1.79486625e-01
-2.28881250e-07,1.79385125e-01
-2.28841250e-07,1.79390562e-01
-2.28801250e-07,1.79419562e-01
-2.28761250e-07,1.79282719e-01
-2.28721250e-07,1.79124125e-01
-2.28681250e-07,1.79191187e-01
-2.28641250e-07,1.79137719e-01
-2.28601250e-07,1.79201156e-01
-2.28561250e-07,1.79041656e-01
-2.28521250e-07,1.78899375e-01
-2.28481250e-07,1.78954656e-01
-2.28441250e-07,1.78907531e-01
-2.28401250e-07,1.78968250e-01
-2.28361250e-07,1.78807844e-01
-2.28321250e-07,1.78671906e-01
-2.28281250e-07,1.78713594e-01
-2.28241250e-07,1.78692750e-01
-2.28201250e-07,1.78703625e-01
-2.28161250e-07,1.78700906e-01
-2.28121250e-07,1.78691844e-01
-2.28081250e-07,1.78722656e-01
-2.28041250e-07,1.78587625e-01
-2.28001250e-07,1.78428125e-01
-2.27961250e-07,1.78493375e-01
-2.27921250e-07,1.78448063e-01
-2.27881250e-07,1.78485219e-01
-2.27841250e-07,1.78452594e-01
-2.27801250e-07,1.78481594e-01
-2.27761250e-07,1.78455312e-01
-2.27721250e-07,1.78480687e-01
-2.27681250e-07,1.78456219e-01
-2.27641250e-07,1.78479781e-01
-2.27601250e-07,1.78457125e-01
-2.27561250e-07,1.78478875e-01
-2.27521250e-07,1.78457125e-01
-2.27481250e-07,1.78478875e-01
-2.27441250e-07,1.78457125e-01
-2.27401250e-07,1.78478875e-01
-2.27361250e-07,1.78457125e-01
-2.27321250e-07,1.78478875e-01
-2.27281250e-07,1.78457125e-01
-2.27241250e-07,1.78478875e-01
-2.27201250e-07,1.78457125e-01
-2.27161250e-07,1.78478875e-01
-2.27121250e-07,1.78456219e-01
-2.27081250e-07,1.78479781e-01
-2.27041250e-07,1.78455312e-01
-2.27001250e-07,1.78480687e-01
-2.26961250e-07,1.78454406e-01
-2.26921250e-07,1.78482500e-01
-2.26881250e-07,1.78452594e-01
-2.26841250e-07,1.78485219e-01
-2.26801250e-07,1.78448969e-01
-2.26761250e-07,1.78489750e-01
-2.26721250e-07,1.78439906e-01
-2.26681250e-07,1.78511500e-01
-2.26641250e-07,1.78335688e-01
-2.26601250e-07,1.78217875e-01
-2.26561250e-07,1.78239625e-01
-2.26521250e-07,1.78239625e-01
-2.26481250e-07,1.78226031e-01
-2.26441250e-07,1.78253219e-01
-2.26401250e-07,1.78202469e-01
-2.26361250e-07,1.78359250e-01
-2.26321250e-07,1.78496094e-01
-2.26281250e-07,1.78454406e-01
-2.26241250e-07,1.78475250e-01
-2.26201250e-07,1.78463469e-01
-2.26161250e-07,1.78469812e-01
-2.26121250e-07,1.78468000e-01
-2.26081250e-07,1.78466187e-01
-2.26041250e-07,1.78470719e-01
-2.26001250e-07,1.78464375e-01
-2.25961250e-07,1.78473437e-01
-2.25921250e-07,1.78461656e-01
-2.25881250e-07,1.78476156e-01
-2.25841250e-07,1.78458031e-01
-2.25801250e-07,1.78479781e-01
-2.25761250e-07,1.78452594e-01
-2.25721250e-07,1.78489750e-01
-2.25681250e-07,1.78430844e-01
-2.25641250e-07,1.78594875e-01
-2.25601250e-07,1.78724469e-01
-2.25561250e-07,1.78690938e-01
-2.25521250e-07,1.78702719e-01
-2.25481250e-07,1.78702719e-01
-2.25441250e-07,1.78691844e-01
-2.25401250e-07,1.78715406e-01
-2.25361250e-07,1.78669187e-01
-2.25321250e-07,1.78821437e-01
-2.25281250e-07,1.78961000e-01
-2.25241250e-07,1.78918406e-01
-2.25201250e-07,1.78936531e-01
-2.25161250e-07,1.78935625e-01
-2.25121250e-07,1.78912062e-01
-2.25081250e-07,1.79041656e-01
-2.25041250e-07,1.79205687e-01
-2.25001250e-07,1.79135906e-01
-2.24961250e-07,1.79187563e-01
-2.24921250e-07,1.79141344e-01
-2.24881250e-07,1.79189375e-01
-2.24841250e-07,1.79125937e-01
-2.24801250e-07,1.79289062e-01
-2.24761250e-07,1.79425000e-01
-2.24721250e-07,1.79378781e-01
-2.24681250e-07,1.79410500e-01
-2.24641250e-07,1.79380594e-01
-2.24601250e-07,1.79415031e-01
-2.24561250e-07,1.79363375e-01
-2.24521250e-07,1.79517437e-01
