dpa/aes_ch1_20250506141322279.csv

Model,MSO66B
Label,
Waveform Type,ANALOG
Horizontal Units,s
Sample Interval,4.00000000e-11
Record Length,100000
Zero Index,15999.06250000
Vertical Units,A
ANALOG_Thumbnail,
yOffset,1.84500000e-01
yPosition,8.40000000e-01

Labels,
TIME,CH1
-6.39962500e-07,1.82103125e-01
-6.39922500e-07,1.82096875e-01
-6.39882500e-07,1.82103125e-01
-6.39842500e-07,1.82096875e-01
-6.39802500e-07,1.82103125e-01
-6.39762500e-07,1.82096875e-01
-6.39722500e-07,1.82101563e-01
-6.39682500e-07,1.82098438e-01
-6.39642500e-07,1.82101563e-01
-6.39602500e-07,1.82098438e-01
-6.39562500e-07,1.82101563e-01
-6.39522500e-07,1.82098438e-01
-6.39482500e-07,1.82103125e-01
-6.39442500e-07,1.82096875e-01
-6.39402500e-07,1.82103125e-01
-6.39362500e-07,1.82096875e-01
-6.39322500e-07,1.82103125e-01
-6.39282500e-07,1.82096875e-01
-6.39242500e-07,1.82103125e-01
-6.39202500e-07,1.82096875e-01
-6.39162500e-07,1.82104688e-01
-6.39122500e-07,1.82095312e-01
-6.39082500e-07,1.82106250e-01
-6.39042500e-07,1.82093750e-01
-6.39002500e-07,1.82107812e-01
-6.38962500e-07,1.82090625e-01
-6.38922500e-07,1.82112500e-01
-6.38882500e-07,1.82082812e-01
-6.38842500e-07,1.82128125e-01
-6.38802500e-07,1.82048437e-01
-6.38762500e-07,1.82304688e-01
-6.38722500e-07,1.82557812e-01
-6.38682500e-07,1.82465625e-01
-6.38642500e-07,1.82525000e-01
-6.38602500e-07,1.82479688e-01
-6.38562500e-07,1.82517188e-01
-6.38522500e-07,1.82484375e-01
-6.38482500e-07,1.82514063e-01
-6.38442500e-07,1.82487500e-01
-6.38402500e-07,1.82512500e-01
-6.38362500e-07,1.82487500e-01
-6.38322500e-07,1.82512500e-01
-6.38282500e-07,1.82487500e-01
-6.38242500e-07,1.82512500e-01
-6.38202500e-07,1.82487500e-01
-6.38162500e-07,1.82514063e-01
-6.38122500e-07,1.82484375e-01
-6.38082500e-07,1.82517188e-01
-6.38042500e-07,1.82481250e-01
-6.38002500e-07,1.82523437e-01
-6.37962500e-07,1.82465625e-01
-6.37922500e-07,1.82557812e-01
-6.37882500e-07,1.82289063e-01
-6.37842500e-07,1.82048437e-01
-6.37802500e-07,1.82128125e-01
-6.37762500e-07,1.82081250e-01
-6.37722500e-07,1.82114063e-01
-6.37682500e-07,1.82087500e-01
-6.37642500e-07,1.82110938e-01
-6.37602500e-07,1.82090625e-01
-6.37562500e-07,1.82109375e-01
-6.37522500e-07,1.82089063e-01
-6.37482500e-07,1.82112500e-01
-6.37442500e-07,1.82085938e-01
-6.37402500e-07,1.82118750e-01
-6.37362500e-07,1.82071875e-01
-6.37322500e-07,1.82151563e-01
-6.37282500e-07,1.81895313e-01
-6.37242500e-07,1.81642187e-01
-6.37202500e-07,1.81734375e-01
-6.37162500e-07,1.81675000e-01
-6.37122500e-07,1.81720313e-01
-6.37082500e-07,1.81681250e-01
-6.37042500e-07,1.81717188e-01
-6.37002500e-07,1.81684375e-01
-6.36962500e-07,1.81714062e-01
-6.36922500e-07,1.81685938e-01
-6.36882500e-07,1.81714062e-01
-6.36842500e-07,1.81685938e-01
-6.36802500e-07,1.81714062e-01
-6.36762500e-07,1.81685938e-01
-6.36722500e-07,1.81715625e-01
-6.36682500e-07,1.81684375e-01
-6.36642500e-07,1.81717188e-01
-6.36602500e-07,1.81681250e-01
-6.36562500e-07,1.81720313e-01
-6.36522500e-07,1.81678125e-01
-6.36482500e-07,1.81725000e-01
-6.36442500e-07,1.81668750e-01
-6.36402500e-07,1.81740625e-01
-6.36362500e-07,1.81634375e-01
-6.36322500e-07,1.81920313e-01
-6.36282500e-07,1.82142187e-01
-6.36242500e-07,1.82082812e-01
-6.36202500e-07,1.82106250e-01
-6.36162500e-07,1.82100000e-01
-6.36122500e-07,1.82093750e-01
-6.36082500e-07,1.82110938e-01
-6.36042500e-07,1.82082812e-01
-6.36002500e-07,1.82129687e-01
-6.35962500e-07,1.82045313e-01
-6.35922500e-07,1.82309375e-01
-6.35882500e-07,1.82551563e-01
-6.35842500e-07,1.82473438e-01
-6.35802500e-07,1.82515625e-01
-6.35762500e-07,1.82490625e-01
-6.35722500e-07,1.82504688e-01
-6.35682500e-07,1.82501563e-01
-6.35642500e-07,1.82492188e-01
-6.35602500e-07,1.82518750e-01
-6.35562500e-07,1.82456250e-01
-6.35522500e-07,1.82698438e-01
-6.35482500e-07,1.82964062e-01
-6.35442500e-07,1.82859375e-01
-6.35402500e-07,1.82931250e-01
-6.35362500e-07,1.82873438e-01
-6.35322500e-07,1.82923438e-01
-6.35282500e-07,1.82878125e-01
-6.35242500e-07,1.82921875e-01
-6.35202500e-07,1.82878125e-01
-6.35162500e-07,1.82923438e-01
-6.35122500e-07,1.82871875e-01
-6.35082500e-07,1.82937500e-01
-6.35042500e-07,1.82839063e-01
-6.35002500e-07,1.83114063e-01
-6.34962500e-07,1.83348438e-01
-6.34922500e-07,1.83273437e-01
-6.34882500e-07,1.83317188e-01
-6.34842500e-07,1.83287500e-01
-6.34802500e-07,1.83309375e-01
-6.34762500e-07,1.83292188e-01
-6.34722500e-07,1.83307813e-01
-6.34682500e-07,1.83293750e-01
-6.34642500e-07,1.83306250e-01
-6.34602500e-07,1.83293750e-01
-6.34562500e-07,1.83306250e-01
-6.34522500e-07,1.83293750e-01
-6.34482500e-07,1.83306250e-01
-6.34442500e-07,1.83293750e-01
-6.34402500e-07,1.83306250e-01
-6.34362500e-07,1.83293750e-01
-6.34322500e-07,1.83306250e-01
-6.34282500e-07,1.83292188e-01
-6.34242500e-07,1.83307813e-01
-6.34202500e-07,1.83290625e-01
-6.34162500e-07,1.83310937e-01
-6.34122500e-07,1.83287500e-01
-6.34082500e-07,1.83315625e-01
-6.34042500e-07,1.83279688e-01
-6.34002500e-07,1.83329688e-01
-6.33962500e-07,1.83245313e-01
-6.33922500e-07,1.83507813e-01
-6.33882500e-07,1.83754688e-01
-6.33842500e-07,1.83668750e-01
-6.33802500e-07,1.83721875e-01
-6.33762500e-07,1.83682813e-01
-6.33722500e-07,1.83714062e-01
-6.33682500e-07,1.83687500e-01
-6.33642500e-07,1.83710938e-01
-6.33602500e-07,1.83689062e-01
-6.33562500e-07,1.83710938e-01
-6.33522500e-07,1.83689062e-01
-6.33482500e-07,1.83712500e-01
-6.33442500e-07,1.83685938e-01
-6.33402500e-07,1.83715625e-01
-6.33362500e-07,1.83679687e-01
-6.33322500e-07,1.83729688e-01
-6.33282500e-07,1.83645313e-01
-6.33242500e-07,1.83906250e-01
-6.33202500e-07,1.84156250e-01
-6.33162500e-07,1.84067188e-01
-6.33122500e-07,1.84123438e-01
-6.33082500e-07,1.84081250e-01
-6.33042500e-07,1.84117188e-01
-6.33002500e-07,1.84084375e-01
-6.32962500e-07,1.84114063e-01
-6.32922500e-07,1.84085938e-01
-6.32882500e-07,1.84112500e-01
-6.32842500e-07,1.84087500e-01
-6.32802500e-07,1.84114063e-01
-6.32762500e-07,1.84085938e-01
-6.32722500e-07,1.84114063e-01
-6.32682500e-07,1.84084375e-01
-6.32642500e-07,1.84115625e-01
-6.32602500e-07,1.84082812e-01
-6.32562500e-07,1.84120312e-01
-6.32522500e-07,1.84076563e-01
-6.32482500e-07,1.84128125e-01
-6.32442500e-07,1.84060938e-01
-6.32402500e-07,1.84164063e-01
-6.32362500e-07,1.83881250e-01
-6.32322500e-07,1.83656250e-01
-6.32282500e-07,1.83717188e-01
-6.32242500e-07,1.83693750e-01
-6.32202500e-07,1.83698438e-01
-6.32162500e-07,1.83709375e-01
-6.32122500e-07,1.83679687e-01
-6.32082500e-07,1.83746875e-01
-6.32042500e-07,1.83500000e-01
-6.32002500e-07,1.83237500e-01
-6.31962500e-07,1.83339063e-01
-6.31922500e-07,1.83268750e-01
-6.31882500e-07,1.83331250e-01
-6.31842500e-07,1.83264063e-01
-6.31802500e-07,1.83357812e-01
-6.31762500e-07,1.83092188e-01
-6.31722500e-07,1.82842188e-01
-6.31682500e-07,1.82939062e-01
-6.31642500e-07,1.82867188e-01
-6.31602500e-07,1.82934375e-01
-6.31562500e-07,1.82856250e-01
-6.31522500e-07,1.82968750e-01
-6.31482500e-07,1.82678125e-01
-6.31442500e-07,1.82460938e-01
-6.31402500e-07,1.82512500e-01
-6.31362500e-07,1.82501563e-01
-6.31322500e-07,1.82482813e-01
-6.31282500e-07,1.82545313e-01
-6.31242500e-07,1.82300000e-01
-6.31202500e-07,1.82040625e-01
-6.31162500e-07,1.82134375e-01
-6.31122500e-07,1.82078125e-01
-6.31082500e-07,1.82114063e-01
-6.31042500e-07,1.82093750e-01
-6.31002500e-07,1.82095312e-01
-6.30962500e-07,1.82131250e-01
-6.30922500e-07,1.81915625e-01
-6.30882500e-07,1.81621875e-01
-6.30842500e-07,1.81756250e-01
-6.30802500e-07,1.81650000e-01
-6.30762500e-07,1.81748437e-01
-6.30722500e-07,1.81643750e-01
-6.30682500e-07,1.81778125e-01
-6.30642500e-07,1.81470313e-01
-6.30602500e-07,1.81267188e-01
-6.30562500e-07,1.81307812e-01
-6.30522500e-07,1.81301563e-01
-6.30482500e-07,1.81290625e-01
-6.30442500e-07,1.81315625e-01
-6.30402500e-07,1.81273437e-01
-6.30362500e-07,1.81351563e-01
-6.30322500e-07,1.81095312e-01
-6.30282500e-07,1.80842188e-01
-6.30242500e-07,1.80934375e-01
-6.30202500e-07,1.80873438e-01
-6.30162500e-07,1.80923438e-01
-6.30122500e-07,1.80876563e-01
-6.30082500e-07,1.80925000e-01
-6.30042500e-07,1.80867187e-01
-6.30002500e-07,1.80956250e-01
-6.29962500e-07,1.80690625e-01
-6.29922500e-07,1.80445313e-01
-6.29882500e-07,1.80531250e-01
-6.29842500e-07,1.80476562e-01
-6.29802500e-07,1.80520313e-01
-6.29762500e-07,1.80481250e-01
-6.29722500e-07,1.80518750e-01
-6.29682500e-07,1.80479688e-01
-6.29642500e-07,1.80525000e-01
-6.29602500e-07,1.80465625e-01
-6.29562500e-07,1.80557812e-01
-6.29522500e-07,1.80289063e-01
-6.29482500e-07,1.80048438e-01
-6.29442500e-07,1.80128125e-01
-6.29402500e-07,1.80079688e-01
-6.29362500e-07,1.80115625e-01
-6.29322500e-07,1.80087500e-01
-6.29282500e-07,1.80110938e-01
-6.29242500e-07,1.80090625e-01
-6.29202500e-07,1.80109375e-01
-6.29162500e-07,1.80092188e-01
-6.29122500e-07,1.80107813e-01
-6.29082500e-07,1.80092188e-01
-6.29042500e-07,1.80107813e-01
-6.29002500e-07,1.80092188e-01
-6.28962500e-07,1.80107813e-01
-6.28922500e-07,1.80090625e-01
-6.28882500e-07,1.80109375e-01
-6.28842500e-07,1.80090625e-01
-6.28802500e-07,1.80110938e-01
-6.28762500e-07,1.80087500e-01
-6.28722500e-07,1.80114063e-01
-6.28682500e-07,1.80082812e-01
-6.28642500e-07,1.80121875e-01
-6.28602500e-07,1.80068750e-01
-6.28562500e-07,1.80156250e-01
-6.28522500e-07,1.79890625e-01
-6.28482500e-07,1.79648438e-01
-6.28442500e-07,1.79728125e-01
-6.28402500e-07,1.79681250e-01
-6.28362500e-07,1.79714062e-01
-6.28322500e-07,1.79689062e-01
-6.28282500e-07,1.79709375e-01
-6.28242500e-07,1.79692188e-01
-6.28202500e-07,1.79706250e-01
-6.28162500e-07,1.79695313e-01
-6.28122500e-07,1.79704688e-01
-6.28082500e-07,1.79696875e-01
-6.28042500e-07,1.79703125e-01
-6.28002500e-07,1.79696875e-01
-6.27962500e-07,1.79701562e-01
-6.27922500e-07,1.79698438e-01
-6.27882500e-07,1.79701562e-01
-6.27842500e-07,1.79700000e-01
-6.27802500e-07,1.79700000e-01
-6.27762500e-07,1.79700000e-01
-6.27722500e-07,1.79698438e-01
-6.27682500e-07,1.79701562e-01
-6.27642500e-07,1.79698438e-01
-6.27602500e-07,1.79703125e-01
-6.27562500e-07,1.79695313e-01
-6.27522500e-07,1.79706250e-01
-6.27482500e-07,1.79692188e-01
-6.27442500e-07,1.79710938e-01
-6.27402500e-07,1.79684375e-01
-6.27362500e-07,1.79725000e-01
-6.27322500e-07,1.79650000e-01
-6.27282500e-07,1.79903125e-01
-6.27242500e-07,1.80159375e-01
-6.27202500e-07,1.80064063e-01
-6.27162500e-07,1.80126563e-01
-6.27122500e-07,1.80078125e-01
-6.27082500e-07,1.80118750e-01
-6.27042500e-07,1.80081250e-01
-6.27002500e-07,1.80117187e-01
-6.26962500e-07,1.80082812e-01
-6.26922500e-07,1.80117187e-01
-6.26882500e-07,1.80081250e-01
-6.26842500e-07,1.80120313e-01
-6.26802500e-07,1.80075000e-01
-6.26762500e-07,1.80134375e-01
-6.26722500e-07,1.80040625e-01
-6.26682500e-07,1.80310938e-01
-6.26642500e-07,1.80551563e-01
-6.26602500e-07,1.80470313e-01
-6.26562500e-07,1.80521875e-01
-6.26522500e-07,1.80481250e-01
-6.26482500e-07,1.80517188e-01
-6.26442500e-07,1.80479688e-01
-6.26402500e-07,1.80528125e-01
-6.26362500e-07,1.80448438e-01
-6.26322500e-07,1.80701562e-01
-6.26282500e-07,1.80962500e-01
-6.26242500e-07,1.80857812e-01
-6.26202500e-07,1.80935938e-01
-6.26162500e-07,1.80864063e-01
-6.26122500e-07,1.80943750e-01
-6.26082500e-07,1.80832812e-01
-6.26042500e-07,1.81120313e-01
-6.26002500e-07,1.81342188e-01
-6.25962500e-07,1.81281250e-01
-6.25922500e-07,1.81307812e-01
-6.25882500e-07,1.81300000e-01
-6.25842500e-07,1.81292188e-01
-6.25802500e-07,1.81318750e-01
-6.25762500e-07,1.81256250e-01
-6.25722500e-07,1.81496875e-01
-6.25682500e-07,1.81765625e-01
-6.25642500e-07,1.81657813e-01
-6.25602500e-07,1.81734375e-01
-6.25562500e-07,1.81670313e-01
-6.25522500e-07,1.81729688e-01
-6.25482500e-07,1.81667187e-01
-6.25442500e-07,1.81740625e-01
-6.25402500e-07,1.81635938e-01
-6.25362500e-07,1.81915625e-01
-6.25322500e-07,1.82148438e-01
-6.25282500e-07,1.82075000e-01
-6.25242500e-07,1.82117187e-01
-6.25202500e-07,1.82085938e-01
-6.25162500e-07,1.82112500e-01
-6.25122500e-07,1.82087500e-01
-6.25082500e-07,1.82114063e-01
-6.25042500e-07,1.82082812e-01
-6.25002500e-07,1.82126563e-01
-6.24962500e-07,1.82050000e-01
-6.24922500e-07,1.82303125e-01
-6.24882500e-07,1.82560938e-01
-6.24842500e-07,1.82462500e-01
-6.24802500e-07,1.82528125e-01
-6.24762500e-07,1.82475000e-01
-6.24722500e-07,1.82523437e-01
-6.24682500e-07,1.82478125e-01
-6.24642500e-07,1.82523437e-01
-6.24602500e-07,1.82476562e-01
-6.24562500e-07,1.82526563e-01
-6.24522500e-07,1.82468750e-01
-6.24482500e-07,1.82540625e-01
-6.24442500e-07,1.82434375e-01
-6.24402500e-07,1.82718750e-01
-6.24362500e-07,1.82942188e-01
-6.24322500e-07,1.82881250e-01
-6.24282500e-07,1.82907813e-01
-6.24242500e-07,1.82898438e-01
-6.24202500e-07,1.82896875e-01
-6.24162500e-07,1.82907813e-01
-6.24122500e-07,1.82885938e-01
-6.24082500e-07,1.82923438e-01
-6.24042500e-07,1.82851563e-01
-6.24002500e-07,1.83101563e-01
-6.23962500e-07,1.83359375e-01
-6.23922500e-07,1.83264063e-01
-6.23882500e-07,1.83328125e-01
-6.23842500e-07,1.83275000e-01
-6.23802500e-07,1.83323438e-01
-6.23762500e-07,1.83273437e-01
-6.23722500e-07,1.83334375e-01
-6.23682500e-07,1.83243750e-01
-6.23642500e-07,1.83507813e-01
-6.23602500e-07,1.83756250e-01
-6.23562500e-07,1.83667187e-01
-6.23522500e-07,1.83726562e-01
-6.23482500e-07,1.83676563e-01
-6.23442500e-07,1.83725000e-01
-6.23402500e-07,1.83671875e-01
-6.23362500e-07,1.83735938e-01
-6.23322500e-07,1.83639063e-01
-6.23282500e-07,1.83912500e-01
-6.23242500e-07,1.84150000e-01
-6.23202500e-07,1.84073437e-01
-6.23162500e-07,1.84117188e-01
-6.23122500e-07,1.84087500e-01
-6.23082500e-07,1.84109375e-01
-6.23042500e-07,1.84092188e-01
-6.23002500e-07,1.84106250e-01
-6.22962500e-07,1.84095312e-01
-6.22922500e-07,1.84103125e-01
-6.22882500e-07,1.84096875e-01
-6.22842500e-07,1.84103125e-01
-6.22802500e-07,1.84098438e-01
-6.22762500e-07,1.84101563e-01
-6.22722500e-07,1.84098438e-01
-6.22682500e-07,1.84100000e-01
-6.22642500e-07,1.84100000e-01
-6.22602500e-07,1.84100000e-01
-6.22562500e-07,1.84100000e-01
-6.22522500e-07,1.84100000e-01
-6.22482500e-07,1.84101563e-01
-6.22442500e-07,1.84098438e-01
-6.22402500e-07,1.84101563e-01
-6.22362500e-07,1.84098438e-01
-6.22322500e-07,1.84103125e-01
-6.22282500e-07,1.84096875e-01
-6.22242500e-07,1.84103125e-01
-6.22202500e-07,1.84096875e-01
-6.22162500e-07,1.84104688e-01
-6.22122500e-07,1.84095312e-01
-6.22082500e-07,1.84106250e-01
-6.22042500e-07,1.84093750e-01
-6.22002500e-07,1.84107812e-01
-6.21962500e-07,1.84090625e-01
-6.21922500e-07,1.84110938e-01
-6.21882500e-07,1.84085938e-01
-6.21842500e-07,1.84118750e-01
-6.21802500e-07,1.84071875e-01
-6.21762500e-07,1.84153125e-01
-6.21722500e-07,1.83893750e-01
-6.21682500e-07,1.83643750e-01
-6.21642500e-07,1.83732813e-01
-6.21602500e-07,1.83675000e-01
-6.21562500e-07,1.83721875e-01
-6.21522500e-07,1.83679687e-01
-6.21482500e-07,1.83723438e-01
-6.21442500e-07,1.83670313e-01
-6.21402500e-07,1.83753125e-01
-6.21362500e-07,1.83496875e-01
-6.21322500e-07,1.83239062e-01
-6.21282500e-07,1.83340625e-01
-6.21242500e-07,1.83265625e-01
-6.21202500e-07,1.83335938e-01
-6.21162500e-07,1.83256250e-01
-6.21122500e-07,1.83367188e-01
-6.21082500e-07,1.83079688e-01
-6.21042500e-07,1.82859375e-01
-6.21002500e-07,1.82914063e-01
-6.20962500e-07,1.82900000e-01
-6.20922500e-07,1.82887500e-01
-6.20882500e-07,1.82940625e-01
-6.20842500e-07,1.82706250e-01
-6.20802500e-07,1.82431250e-01
-6.20762500e-07,1.82545313e-01
-6.20722500e-07,1.82462500e-01
-6.20682500e-07,1.82535937e-01
-6.20642500e-07,1.82457813e-01
-6.20602500e-07,1.82564063e-01
-6.20562500e-07,1.82285937e-01
-6.20522500e-07,1.82048437e-01
-6.20482500e-07,1.82129687e-01
-6.20442500e-07,1.82075000e-01
-6.20402500e-07,1.82125000e-01
-6.20362500e-07,1.82068750e-01
-6.20322500e-07,1.82154687e-01
-6.20282500e-07,1.81893750e-01
-6.20242500e-07,1.81642187e-01
-6.20202500e-07,1.81734375e-01
-6.20162500e-07,1.81673438e-01
-6.20122500e-07,1.81725000e-01
-6.20082500e-07,1.81675000e-01
-6.20042500e-07,1.81726562e-01
-6.20002500e-07,1.81664063e-01
-6.19962500e-07,1.81759375e-01
-6.19922500e-07,1.81489063e-01
-6.19882500e-07,1.81246875e-01
-6.19842500e-07,1.81329688e-01
-6.19802500e-07,1.81279688e-01
-6.19762500e-07,1.81317188e-01
-6.19722500e-07,1.81284375e-01
-6.19682500e-07,1.81314063e-01
-6.19642500e-07,1.81285937e-01
-6.19602500e-07,1.81314063e-01
-6.19562500e-07,1.81284375e-01
-6.19522500e-07,1.81317188e-01
-6.19482500e-07,1.81279688e-01
-6.19442500e-07,1.81325000e-01
-6.19402500e-07,1.81265625e-01
-6.19362500e-07,1.81359375e-01
-6.19322500e-07,1.81087500e-01
-6.19282500e-07,1.80850000e-01
-6.19242500e-07,1.80926562e-01
-6.19202500e-07,1.80882813e-01
-6.19162500e-07,1.80912500e-01
-6.19122500e-07,1.80890625e-01
-6.19082500e-07,1.80906250e-01
-6.19042500e-07,1.80895313e-01
-6.19002500e-07,1.80903125e-01
-6.18962500e-07,1.80898438e-01
-6.18922500e-07,1.80901563e-01
-6.18882500e-07,1.80900000e-01
-6.18842500e-07,1.80900000e-01
-6.18802500e-07,1.80901563e-01
-6.18762500e-07,1.80896875e-01
-6.18722500e-07,1.80903125e-01
-6.18682500e-07,1.80895313e-01
-6.18642500e-07,1.80906250e-01
-6.18602500e-07,1.80892187e-01
-6.18562500e-07,1.80909375e-01
-6.18522500e-07,1.80887500e-01
-6.18482500e-07,1.80915625e-01
-6.18442500e-07,1.80878125e-01
-6.18402500e-07,1.80931250e-01
-6.18362500e-07,1.80842188e-01
-6.18322500e-07,1.81110938e-01
-6.18282500e-07,1.81350000e-01
-6.18242500e-07,1.81275000e-01
-6.18202500e-07,1.81314063e-01
-6.18162500e-07,1.81292188e-01
-6.18122500e-07,1.81303125e-01
-6.18082500e-07,1.81303125e-01
-6.18042500e-07,1.81290625e-01
-6.18002500e-07,1.81320312e-01
-6.17962500e-07,1.81253125e-01
-6.17922500e-07,1.81501563e-01
-6.17882500e-07,1.81759375e-01
-6.17842500e-07,1.81667187e-01
-6.17802500e-07,1.81721875e-01
-6.17762500e-07,1.81685938e-01
-6.17722500e-07,1.81706250e-01
-6.17682500e-07,1.81706250e-01
-6.17642500e-07,1.81668750e-01
-6.17602500e-07,1.81885938e-01
-6.17562500e-07,1.82176562e-01
-6.17522500e-07,1.82046875e-01
-6.17482500e-07,1.82143750e-01
-6.17442500e-07,1.82059375e-01
-6.17402500e-07,1.82140625e-01
-6.17362500e-07,1.82057812e-01
-6.17322500e-07,1.82150000e-01
-6.17282500e-07,1.82026563e-01
-6.17242500e-07,1.82326563e-01
-6.17202500e-07,1.82537500e-01
-6.17162500e-07,1.82485938e-01
-6.17122500e-07,1.82506250e-01
-6.17082500e-07,1.82498437e-01
-6.17042500e-07,1.82498437e-01
-6.17002500e-07,1.82503125e-01
-6.16962500e-07,1.82495313e-01
-6.16922500e-07,1.82504688e-01
-6.16882500e-07,1.82495313e-01
-6.16842500e-07,1.82506250e-01
-6.16802500e-07,1.82493750e-01
-6.16762500e-07,1.82506250e-01
-6.16722500e-07,1.82493750e-01
-6.16682500e-07,1.82507813e-01
-6.16642500e-07,1.82492188e-01
-6.16602500e-07,1.82507813e-01
-6.16562500e-07,1.82492188e-01
-6.16522500e-07,1.82507813e-01
-6.16482500e-07,1.82492188e-01
-6.16442500e-07,1.82509375e-01
-6.16402500e-07,1.82490625e-01
-6.16362500e-07,1.82509375e-01
-6.16322500e-07,1.82490625e-01
-6.16282500e-07,1.82510937e-01
-6.16242500e-07,1.82489063e-01
-6.16202500e-07,1.82512500e-01
-6.16162500e-07,1.82485938e-01
-6.16122500e-07,1.82515625e-01
-6.16082500e-07,1.82481250e-01
-6.16042500e-07,1.82523437e-01
-6.16002500e-07,1.82467188e-01
-6.15962500e-07,1.82557812e-01
-6.15922500e-07,1.82289063e-01
-6.15882500e-07,1.82048437e-01
-6.15842500e-07,1.82128125e-01
-6.15802500e-07,1.82081250e-01
-6.15762500e-07,1.82114063e-01
-6.15722500e-07,1.82089063e-01
-6.15682500e-07,1.82109375e-01
-6.15642500e-07,1.82092188e-01
-6.15602500e-07,1.82106250e-01
-6.15562500e-07,1.82093750e-01
-6.15522500e-07,1.82106250e-01
-6.15482500e-07,1.82093750e-01
-6.15442500e-07,1.82106250e-01
-6.15402500e-07,1.82093750e-01
-6.15362500e-07,1.82107812e-01
-6.15322500e-07,1.82092188e-01
-6.15282500e-07,1.82109375e-01
-6.15242500e-07,1.82087500e-01
-6.15202500e-07,1.82117187e-01
-6.15162500e-07,1.82073438e-01
-6.15122500e-07,1.82151563e-01
-6.15082500e-07,1.81895313e-01
-6.15042500e-07,1.81642187e-01
-6.15002500e-07,1.81734375e-01
-6.14962500e-07,1.81675000e-01
-6.14922500e-07,1.81720313e-01
-6.14882500e-07,1.81681250e-01
-6.14842500e-07,1.81717188e-01
-6.14802500e-07,1.81684375e-01
-6.14762500e-07,1.81714062e-01
-6.14722500e-07,1.81685938e-01
-6.14682500e-07,1.81714062e-01
-6.14642500e-07,1.81685938e-01
-6.14602500e-07,1.81714062e-01
-6.14562500e-07,1.81685938e-01
-6.14522500e-07,1.81715625e-01
