dpa/aes_ch1_20250506141232508.csv

Model,MSO66B
Label,
Waveform Type,ANALOG
Horizontal Units,s
Sample Interval,4.00000000e-11
Record Length,100000
Zero Index,15999.03515625
Vertical Units,A
ANALOG_Thumbnail,
yOffset,1.84500000e-01
yPosition,8.40000000e-01

Labels,
TIME,CH1
-6.39961406e-07,1.83265625e-01
-6.39921406e-07,1.83359375e-01
-6.39881406e-07,1.83087500e-01
-6.39841406e-07,1.82850000e-01
-6.39801406e-07,1.82925000e-01
-6.39761406e-07,1.82884375e-01
-6.39721406e-07,1.82910938e-01
-6.39681406e-07,1.82892187e-01
-6.39641406e-07,1.82904687e-01
-6.39601406e-07,1.82896875e-01
-6.39561406e-07,1.82901563e-01
-6.39521406e-07,1.82900000e-01
-6.39481406e-07,1.82900000e-01
-6.39441406e-07,1.82901563e-01
-6.39401406e-07,1.82896875e-01
-6.39361406e-07,1.82904687e-01
-6.39321406e-07,1.82895313e-01
-6.39281406e-07,1.82906250e-01
-6.39241406e-07,1.82892187e-01
-6.39201406e-07,1.82910938e-01
-6.39161406e-07,1.82885938e-01
-6.39121406e-07,1.82918750e-01
-6.39081406e-07,1.82870313e-01
-6.39041406e-07,1.82954688e-01
-6.39001406e-07,1.82692188e-01
-6.38961406e-07,1.82445313e-01
-6.38921406e-07,1.82531250e-01
-6.38881406e-07,1.82478125e-01
-6.38841406e-07,1.82517188e-01
-6.38801406e-07,1.82485938e-01
-6.38761406e-07,1.82512500e-01
-6.38721406e-07,1.82489063e-01
-6.38681406e-07,1.82509375e-01
-6.38641406e-07,1.82490625e-01
-6.38601406e-07,1.82509375e-01
-6.38561406e-07,1.82490625e-01
-6.38521406e-07,1.82509375e-01
-6.38481406e-07,1.82490625e-01
-6.38441406e-07,1.82510937e-01
-6.38401406e-07,1.82485938e-01
-6.38361406e-07,1.82517188e-01
-6.38321406e-07,1.82473438e-01
-6.38281406e-07,1.82550000e-01
-6.38241406e-07,1.82298437e-01
-6.38201406e-07,1.82039063e-01
-6.38161406e-07,1.82139063e-01
-6.38121406e-07,1.82067188e-01
-6.38081406e-07,1.82129687e-01
-6.38041406e-07,1.82067188e-01
-6.38001406e-07,1.82140625e-01
-6.37961406e-07,1.82035937e-01
-6.37921406e-07,1.82315625e-01
-6.37881406e-07,1.82546875e-01
-6.37841406e-07,1.82476562e-01
-6.37801406e-07,1.82514063e-01
-6.37761406e-07,1.82490625e-01
-6.37721406e-07,1.82506250e-01
-6.37681406e-07,1.82495313e-01
-6.37641406e-07,1.82503125e-01
-6.37601406e-07,1.82498437e-01
-6.37561406e-07,1.82501563e-01
-6.37521406e-07,1.82500000e-01
-6.37481406e-07,1.82500000e-01
-6.37441406e-07,1.82501563e-01
-6.37401406e-07,1.82498437e-01
-6.37361406e-07,1.82503125e-01
-6.37321406e-07,1.82495313e-01
-6.37281406e-07,1.82506250e-01
-6.37241406e-07,1.82492188e-01
-6.37201406e-07,1.82510937e-01
-6.37161406e-07,1.82484375e-01
-6.37121406e-07,1.82525000e-01
-6.37081406e-07,1.82450000e-01
-6.37041406e-07,1.82703125e-01
-6.37001406e-07,1.82959375e-01
-6.36961406e-07,1.82864063e-01
-6.36921406e-07,1.82928125e-01
-6.36881406e-07,1.82876563e-01
-6.36841406e-07,1.82920313e-01
-6.36801406e-07,1.82879687e-01
-6.36761406e-07,1.82920313e-01
-6.36721406e-07,1.82878125e-01
-6.36681406e-07,1.82923438e-01
-6.36641406e-07,1.82871875e-01
-6.36601406e-07,1.82937500e-01
-6.36561406e-07,1.82837500e-01
-6.36521406e-07,1.83114063e-01
-6.36481406e-07,1.83346875e-01
-6.36441406e-07,1.83276563e-01
-6.36401406e-07,1.83314063e-01
-6.36361406e-07,1.83292188e-01
-6.36321406e-07,1.83304688e-01
-6.36281406e-07,1.83298437e-01
-6.36241406e-07,1.83298437e-01
-6.36201406e-07,1.83306250e-01
-6.36161406e-07,1.83289063e-01
-6.36121406e-07,1.83321875e-01
-6.36081406e-07,1.83253125e-01
-6.36041406e-07,1.83500000e-01
-6.36001406e-07,1.83762500e-01
-6.35961406e-07,1.83660938e-01
-6.35921406e-07,1.83729688e-01
-6.35881406e-07,1.83675000e-01
-6.35841406e-07,1.83721875e-01
-6.35801406e-07,1.83679687e-01
-6.35761406e-07,1.83718750e-01
-6.35721406e-07,1.83682813e-01
-6.35681406e-07,1.83717188e-01
-6.35641406e-07,1.83682813e-01
-6.35601406e-07,1.83717188e-01
-6.35561406e-07,1.83682813e-01
-6.35521406e-07,1.83717188e-01
-6.35481406e-07,1.83682813e-01
-6.35441406e-07,1.83718750e-01
-6.35401406e-07,1.83681250e-01
-6.35361406e-07,1.83720313e-01
-6.35321406e-07,1.83678125e-01
-6.35281406e-07,1.83725000e-01
-6.35241406e-07,1.83671875e-01
-6.35201406e-07,1.83732813e-01
-6.35161406e-07,1.83656250e-01
-6.35121406e-07,1.83768750e-01
-6.35081406e-07,1.83478125e-01
-6.35041406e-07,1.83260937e-01
-6.35001406e-07,1.83314063e-01
-6.34961406e-07,1.83296875e-01
-6.34921406e-07,1.83296875e-01
-6.34881406e-07,1.83307813e-01
-6.34841406e-07,1.83285937e-01
-6.34801406e-07,1.83320312e-01
-6.34761406e-07,1.83268750e-01
-6.34721406e-07,1.83357812e-01
-6.34681406e-07,1.83087500e-01
-6.34641406e-07,1.82851563e-01
-6.34601406e-07,1.82923438e-01
-6.34561406e-07,1.82887500e-01
-6.34521406e-07,1.82904687e-01
-6.34481406e-07,1.82900000e-01
-6.34441406e-07,1.82893750e-01
-6.34401406e-07,1.82912500e-01
-6.34361406e-07,1.82876563e-01
-6.34321406e-07,1.82950000e-01
-6.34281406e-07,1.82695313e-01
-6.34241406e-07,1.82443750e-01
-6.34201406e-07,1.82531250e-01
-6.34161406e-07,1.82478125e-01
-6.34121406e-07,1.82515625e-01
-6.34081406e-07,1.82489063e-01
-6.34041406e-07,1.82507813e-01
-6.34001406e-07,1.82495313e-01
-6.33961406e-07,1.82503125e-01
-6.33921406e-07,1.82500000e-01
-6.33881406e-07,1.82495313e-01
-6.33841406e-07,1.82510937e-01
-6.33801406e-07,1.82479688e-01
-6.33761406e-07,1.82546875e-01
-6.33721406e-07,1.82300000e-01
-6.33681406e-07,1.82037500e-01
-6.33641406e-07,1.82137500e-01
-6.33601406e-07,1.82071875e-01
-6.33561406e-07,1.82123438e-01
-6.33521406e-07,1.82079688e-01
-6.33481406e-07,1.82117187e-01
-6.33441406e-07,1.82084375e-01
-6.33401406e-07,1.82114063e-01
-6.33361406e-07,1.82085938e-01
-6.33321406e-07,1.82112500e-01
-6.33281406e-07,1.82087500e-01
-6.33241406e-07,1.82110938e-01
-6.33201406e-07,1.82089063e-01
-6.33161406e-07,1.82110938e-01
-6.33121406e-07,1.82089063e-01
-6.33081406e-07,1.82109375e-01
-6.33041406e-07,1.82090625e-01
-6.33001406e-07,1.82109375e-01
-6.32961406e-07,1.82090625e-01
-6.32921406e-07,1.82109375e-01
-6.32881406e-07,1.82089063e-01
-6.32841406e-07,1.82110938e-01
-6.32801406e-07,1.82089063e-01
-6.32761406e-07,1.82112500e-01
-6.32721406e-07,1.82085938e-01
-6.32681406e-07,1.82115625e-01
-6.32641406e-07,1.82079688e-01
-6.32601406e-07,1.82129687e-01
-6.32561406e-07,1.82046875e-01
-6.32521406e-07,1.82306250e-01
-6.32481406e-07,1.82557812e-01
-6.32441406e-07,1.82464062e-01
-6.32401406e-07,1.82528125e-01
-6.32361406e-07,1.82473438e-01
-6.32321406e-07,1.82528125e-01
-6.32281406e-07,1.82464062e-01
-6.32241406e-07,1.82559375e-01
-6.32201406e-07,1.82289063e-01
-6.32161406e-07,1.82048437e-01
-6.32121406e-07,1.82128125e-01
-6.32081406e-07,1.82081250e-01
-6.32041406e-07,1.82114063e-01
-6.32001406e-07,1.82087500e-01
-6.31961406e-07,1.82110938e-01
-6.31921406e-07,1.82090625e-01
-6.31881406e-07,1.82107812e-01
-6.31841406e-07,1.82092188e-01
-6.31801406e-07,1.82107812e-01
-6.31761406e-07,1.82093750e-01
-6.31721406e-07,1.82106250e-01
-6.31681406e-07,1.82093750e-01
-6.31641406e-07,1.82106250e-01
-6.31601406e-07,1.82093750e-01
-6.31561406e-07,1.82106250e-01
-6.31521406e-07,1.82093750e-01
-6.31481406e-07,1.82104688e-01
-6.31441406e-07,1.82095312e-01
-6.31401406e-07,1.82104688e-01
-6.31361406e-07,1.82095312e-01
-6.31321406e-07,1.82104688e-01
-6.31281406e-07,1.82095312e-01
-6.31241406e-07,1.82106250e-01
-6.31201406e-07,1.82093750e-01
-6.31161406e-07,1.82106250e-01
-6.31121406e-07,1.82093750e-01
-6.31081406e-07,1.82106250e-01
-6.31041406e-07,1.82093750e-01
-6.31001406e-07,1.82106250e-01
-6.30961406e-07,1.82093750e-01
-6.30921406e-07,1.82107812e-01
-6.30881406e-07,1.82092188e-01
-6.30841406e-07,1.82107812e-01
-6.30801406e-07,1.82090625e-01
-6.30761406e-07,1.82110938e-01
-6.30721406e-07,1.82087500e-01
-6.30681406e-07,1.82114063e-01
-6.30641406e-07,1.82082812e-01
-6.30601406e-07,1.82121875e-01
-6.30561406e-07,1.82068750e-01
-6.30521406e-07,1.82156250e-01
-6.30481406e-07,1.81890625e-01
-6.30441406e-07,1.81646875e-01
-6.30401406e-07,1.81729688e-01
-6.30361406e-07,1.81679688e-01
-6.30321406e-07,1.81715625e-01
-6.30281406e-07,1.81687500e-01
-6.30241406e-07,1.81709375e-01
-6.30201406e-07,1.81690625e-01
-6.30161406e-07,1.81707813e-01
-6.30121406e-07,1.81693750e-01
-6.30081406e-07,1.81706250e-01
-6.30041406e-07,1.81693750e-01
-6.30001406e-07,1.81704688e-01
-6.29961406e-07,1.81695313e-01
-6.29921406e-07,1.81704688e-01
-6.29881406e-07,1.81695313e-01
-6.29841406e-07,1.81704688e-01
-6.29801406e-07,1.81695313e-01
-6.29761406e-07,1.81704688e-01
-6.29721406e-07,1.81695313e-01
-6.29681406e-07,1.81703125e-01
-6.29641406e-07,1.81696875e-01
-6.29601406e-07,1.81703125e-01
-6.29561406e-07,1.81696875e-01
-6.29521406e-07,1.81703125e-01
-6.29481406e-07,1.81696875e-01
-6.29441406e-07,1.81703125e-01
-6.29401406e-07,1.81696875e-01
-6.29361406e-07,1.81703125e-01
-6.29321406e-07,1.81696875e-01
-6.29281406e-07,1.81704688e-01
-6.29241406e-07,1.81695313e-01
-6.29201406e-07,1.81704688e-01
-6.29161406e-07,1.81695313e-01
-6.29121406e-07,1.81704688e-01
-6.29081406e-07,1.81695313e-01
-6.29041406e-07,1.81704688e-01
-6.29001406e-07,1.81695313e-01
-6.28961406e-07,1.81706250e-01
-6.28921406e-07,1.81693750e-01
-6.28881406e-07,1.81706250e-01
-6.28841406e-07,1.81692188e-01
-6.28801406e-07,1.81707813e-01
-6.28761406e-07,1.81690625e-01
-6.28721406e-07,1.81710938e-01
-6.28681406e-07,1.81687500e-01
-6.28641406e-07,1.81715625e-01
-6.28601406e-07,1.81679688e-01
-6.28561406e-07,1.81729688e-01
-6.28521406e-07,1.81645313e-01
-6.28481406e-07,1.81907813e-01
-6.28441406e-07,1.82154687e-01
-6.28401406e-07,1.82070312e-01
-6.28361406e-07,1.82120313e-01
-6.28321406e-07,1.82084375e-01
-6.28281406e-07,1.82112500e-01
-6.28241406e-07,1.82089063e-01
-6.28201406e-07,1.82109375e-01
-6.28161406e-07,1.82090625e-01
-6.28121406e-07,1.82107812e-01
-6.28081406e-07,1.82092188e-01
-6.28041406e-07,1.82107812e-01
-6.28001406e-07,1.82093750e-01
-6.27961406e-07,1.82106250e-01
-6.27921406e-07,1.82093750e-01
-6.27881406e-07,1.82106250e-01
-6.27841406e-07,1.82093750e-01
-6.27801406e-07,1.82107812e-01
-6.27761406e-07,1.82092188e-01
-6.27721406e-07,1.82107812e-01
-6.27681406e-07,1.82090625e-01
-6.27641406e-07,1.82110938e-01
-6.27601406e-07,1.82087500e-01
-6.27561406e-07,1.82114063e-01
-6.27521406e-07,1.82079688e-01
-6.27481406e-07,1.82129687e-01
-6.27441406e-07,1.82046875e-01
-6.27401406e-07,1.82306250e-01
-6.27361406e-07,1.82556250e-01
-6.27321406e-07,1.82467188e-01
-6.27281406e-07,1.82523437e-01
-6.27241406e-07,1.82481250e-01
-6.27201406e-07,1.82515625e-01
-6.27161406e-07,1.82485938e-01
-6.27121406e-07,1.82514063e-01
-6.27081406e-07,1.82485938e-01
-6.27041406e-07,1.82512500e-01
-6.27001406e-07,1.82485938e-01
-6.26961406e-07,1.82514063e-01
-6.26921406e-07,1.82484375e-01
-6.26881406e-07,1.82517188e-01
-6.26841406e-07,1.82479688e-01
-6.26801406e-07,1.82525000e-01
-6.26761406e-07,1.82465625e-01
-6.26721406e-07,1.82559375e-01
-6.26681406e-07,1.82289063e-01
-6.26641406e-07,1.82048437e-01
-6.26601406e-07,1.82126563e-01
-6.26561406e-07,1.82082812e-01
-6.26521406e-07,1.82112500e-01
-6.26481406e-07,1.82090625e-01
-6.26441406e-07,1.82107812e-01
-6.26401406e-07,1.82093750e-01
-6.26361406e-07,1.82106250e-01
-6.26321406e-07,1.82095312e-01
-6.26281406e-07,1.82104688e-01
-6.26241406e-07,1.82096875e-01
-6.26201406e-07,1.82103125e-01
-6.26161406e-07,1.82096875e-01
-6.26121406e-07,1.82101563e-01
-6.26081406e-07,1.82098438e-01
-6.26041406e-07,1.82101563e-01
-6.26001406e-07,1.82098438e-01
-6.25961406e-07,1.82101563e-01
-6.25921406e-07,1.82098438e-01
-6.25881406e-07,1.82101563e-01
-6.25841406e-07,1.82098438e-01
-6.25801406e-07,1.82101563e-01
-6.25761406e-07,1.82100000e-01
-6.25721406e-07,1.82100000e-01
-6.25681406e-07,1.82100000e-01
-6.25641406e-07,1.82100000e-01
-6.25601406e-07,1.82100000e-01
-6.25561406e-07,1.82100000e-01
-6.25521406e-07,1.82100000e-01
-6.25481406e-07,1.82100000e-01
-6.25441406e-07,1.82100000e-01
-6.25401406e-07,1.82100000e-01
-6.25361406e-07,1.82100000e-01
-6.25321406e-07,1.82100000e-01
-6.25281406e-07,1.82100000e-01
-6.25241406e-07,1.82100000e-01
-6.25201406e-07,1.82100000e-01
-6.25161406e-07,1.82100000e-01
-6.25121406e-07,1.82100000e-01
-6.25081406e-07,1.82100000e-01
-6.25041406e-07,1.82100000e-01
-6.25001406e-07,1.82098438e-01
-6.24961406e-07,1.82101563e-01
-6.24921406e-07,1.82098438e-01
-6.24881406e-07,1.82101563e-01
-6.24841406e-07,1.82098438e-01
-6.24801406e-07,1.82101563e-01
-6.24761406e-07,1.82098438e-01
-6.24721406e-07,1.82101563e-01
-6.24681406e-07,1.82098438e-01
-6.24641406e-07,1.82101563e-01
-6.24601406e-07,1.82098438e-01
-6.24561406e-07,1.82101563e-01
-6.24521406e-07,1.82098438e-01
-6.24481406e-07,1.82101563e-01
-6.24441406e-07,1.82098438e-01
-6.24401406e-07,1.82101563e-01
-6.24361406e-07,1.82098438e-01
-6.24321406e-07,1.82101563e-01
-6.24281406e-07,1.82098438e-01
-6.24241406e-07,1.82101563e-01
-6.24201406e-07,1.82098438e-01
-6.24161406e-07,1.82101563e-01
-6.24121406e-07,1.82098438e-01
-6.24081406e-07,1.82103125e-01
-6.24041406e-07,1.82096875e-01
-6.24001406e-07,1.82103125e-01
-6.23961406e-07,1.82096875e-01
-6.23921406e-07,1.82103125e-01
-6.23881406e-07,1.82096875e-01
-6.23841406e-07,1.82103125e-01
-6.23801406e-07,1.82096875e-01
-6.23761406e-07,1.82103125e-01
-6.23721406e-07,1.82096875e-01
-6.23681406e-07,1.82103125e-01
-6.23641406e-07,1.82096875e-01
-6.23601406e-07,1.82104688e-01
-6.23561406e-07,1.82095312e-01
-6.23521406e-07,1.82104688e-01
-6.23481406e-07,1.82095312e-01
-6.23441406e-07,1.82104688e-01
-6.23401406e-07,1.82095312e-01
-6.23361406e-07,1.82104688e-01
-6.23321406e-07,1.82093750e-01
-6.23281406e-07,1.82106250e-01
-6.23241406e-07,1.82093750e-01
-6.23201406e-07,1.82106250e-01
-6.23161406e-07,1.82092188e-01
-6.23121406e-07,1.82107812e-01
-6.23081406e-07,1.82090625e-01
-6.23041406e-07,1.82109375e-01
-6.23001406e-07,1.82089063e-01
-6.22961406e-07,1.82112500e-01
-6.22921406e-07,1.82085938e-01
-6.22881406e-07,1.82117187e-01
-6.22841406e-07,1.82076563e-01
-6.22801406e-07,1.82132813e-01
-6.22761406e-07,1.82042188e-01
-6.22721406e-07,1.82310938e-01
-6.22681406e-07,1.82551563e-01
-6.22641406e-07,1.82473438e-01
-6.22601406e-07,1.82517188e-01
-6.22561406e-07,1.82487500e-01
-6.22521406e-07,1.82509375e-01
-6.22481406e-07,1.82492188e-01
-6.22441406e-07,1.82506250e-01
-6.22401406e-07,1.82495313e-01
-6.22361406e-07,1.82503125e-01
-6.22321406e-07,1.82496875e-01
-6.22281406e-07,1.82501563e-01
-6.22241406e-07,1.82498437e-01
-6.22201406e-07,1.82500000e-01
-6.22161406e-07,1.82500000e-01
-6.22121406e-07,1.82500000e-01
-6.22081406e-07,1.82501563e-01
-6.22041406e-07,1.82498437e-01
-6.22001406e-07,1.82501563e-01
-6.21961406e-07,1.82496875e-01
-6.21921406e-07,1.82503125e-01
-6.21881406e-07,1.82495313e-01
-6.21841406e-07,1.82504688e-01
-6.21801406e-07,1.82493750e-01
-6.21761406e-07,1.82506250e-01
-6.21721406e-07,1.82492188e-01
-6.21681406e-07,1.82509375e-01
-6.21641406e-07,1.82489063e-01
-6.21601406e-07,1.82512500e-01
-6.21561406e-07,1.82482813e-01
-6.21521406e-07,1.82521875e-01
-6.21481406e-07,1.82468750e-01
-6.21441406e-07,1.82556250e-01
-6.21401406e-07,1.82289063e-01
-6.21361406e-07,1.82048437e-01
-6.21321406e-07,1.82128125e-01
-6.21281406e-07,1.82082812e-01
-6.21241406e-07,1.82112500e-01
-6.21201406e-07,1.82090625e-01
-6.21161406e-07,1.82106250e-01
-6.21121406e-07,1.82095312e-01
-6.21081406e-07,1.82103125e-01
-6.21041406e-07,1.82100000e-01
-6.21001406e-07,1.82098438e-01
-6.20961406e-07,1.82103125e-01
-6.20921406e-07,1.82095312e-01
-6.20881406e-07,1.82107812e-01
-6.20841406e-07,1.82089063e-01
-6.20801406e-07,1.82117187e-01
-6.20761406e-07,1.82073438e-01
-6.20721406e-07,1.82153125e-01
-6.20681406e-07,1.81893750e-01
-6.20641406e-07,1.81643750e-01
-6.20601406e-07,1.81731250e-01
-6.20561406e-07,1.81678125e-01
-6.20521406e-07,1.81715625e-01
-6.20481406e-07,1.81687500e-01
-6.20441406e-07,1.81709375e-01
-6.20401406e-07,1.81692188e-01
-6.20361406e-07,1.81704688e-01
-6.20321406e-07,1.81696875e-01
-6.20281406e-07,1.81701562e-01
-6.20241406e-07,1.81701562e-01
-6.20201406e-07,1.81695313e-01
-6.20161406e-07,1.81710938e-01
-6.20121406e-07,1.81679688e-01
-6.20081406e-07,1.81746875e-01
-6.20041406e-07,1.81500000e-01
-6.20001406e-07,1.81237500e-01
-6.19961406e-07,1.81337500e-01
-6.19921406e-07,1.81271875e-01
-6.19881406e-07,1.81323438e-01
-6.19841406e-07,1.81279688e-01
-6.19801406e-07,1.81317188e-01
-6.19761406e-07,1.81284375e-01
-6.19721406e-07,1.81315625e-01
-6.19681406e-07,1.81285937e-01
-6.19641406e-07,1.81312500e-01
-6.19601406e-07,1.81287500e-01
-6.19561406e-07,1.81312500e-01
-6.19521406e-07,1.81289063e-01
-6.19481406e-07,1.81310938e-01
-6.19441406e-07,1.81289063e-01
-6.19401406e-07,1.81310938e-01
-6.19361406e-07,1.81290625e-01
-6.19321406e-07,1.81309375e-01
-6.19281406e-07,1.81290625e-01
-6.19241406e-07,1.81309375e-01
-6.19201406e-07,1.81290625e-01
-6.19161406e-07,1.81309375e-01
-6.19121406e-07,1.81290625e-01
-6.19081406e-07,1.81307812e-01
-6.19041406e-07,1.81292188e-01
-6.19001406e-07,1.81307812e-01
-6.18961406e-07,1.81292188e-01
-6.18921406e-07,1.81307812e-01
-6.18881406e-07,1.81292188e-01
-6.18841406e-07,1.81307812e-01
-6.18801406e-07,1.81292188e-01
-6.18761406e-07,1.81307812e-01
-6.18721406e-07,1.81292188e-01
-6.18681406e-07,1.81307812e-01
-6.18641406e-07,1.81292188e-01
-6.18601406e-07,1.81307812e-01
-6.18561406e-07,1.81292188e-01
-6.18521406e-07,1.81307812e-01
-6.18481406e-07,1.81292188e-01
-6.18441406e-07,1.81307812e-01
-6.18401406e-07,1.81292188e-01
-6.18361406e-07,1.81307812e-01
-6.18321406e-07,1.81292188e-01
-6.18281406e-07,1.81307812e-01
-6.18241406e-07,1.81292188e-01
-6.18201406e-07,1.81307812e-01
-6.18161406e-07,1.81292188e-01
-6.18121406e-07,1.81307812e-01
-6.18081406e-07,1.81292188e-01
-6.18041406e-07,1.81307812e-01
-6.18001406e-07,1.81292188e-01
-6.17961406e-07,1.81309375e-01
-6.17921406e-07,1.81290625e-01
-6.17881406e-07,1.81309375e-01
-6.17841406e-07,1.81290625e-01
-6.17801406e-07,1.81309375e-01
-6.17761406e-07,1.81289063e-01
-6.17721406e-07,1.81310938e-01
-6.17681406e-07,1.81287500e-01
-6.17641406e-07,1.81312500e-01
-6.17601406e-07,1.81285937e-01
-6.17561406e-07,1.81317188e-01
-6.17521406e-07,1.81279688e-01
-6.17481406e-07,1.81325000e-01
-6.17441406e-07,1.81265625e-01
-6.17401406e-07,1.81359375e-01
-6.17361406e-07,1.81087500e-01
-6.17321406e-07,1.80850000e-01
-6.17281406e-07,1.80926562e-01
-6.17241406e-07,1.80882813e-01
-6.17201406e-07,1.80912500e-01
-6.17161406e-07,1.80890625e-01
-6.17121406e-07,1.80907813e-01
-6.17081406e-07,1.80893750e-01
-6.17041406e-07,1.80904687e-01
-6.17001406e-07,1.80896875e-01
-6.16961406e-07,1.80903125e-01
-6.16921406e-07,1.80896875e-01
-6.16881406e-07,1.80903125e-01
-6.16841406e-07,1.80898438e-01
-6.16801406e-07,1.80901563e-01
-6.16761406e-07,1.80898438e-01
-6.16721406e-07,1.80901563e-01
-6.16681406e-07,1.80898438e-01
-6.16641406e-07,1.80903125e-01
-6.16601406e-07,1.80896875e-01
-6.16561406e-07,1.80903125e-01
-6.16521406e-07,1.80895313e-01
-6.16481406e-07,1.80904687e-01
-6.16441406e-07,1.80893750e-01
-6.16401406e-07,1.80909375e-01
-6.16361406e-07,1.80885938e-01
-6.16321406e-07,1.80923438e-01
-6.16281406e-07,1.80851563e-01
-6.16241406e-07,1.81100000e-01
-6.16201406e-07,1.81362500e-01
-6.16161406e-07,1.81260937e-01
-6.16121406e-07,1.81329688e-01
-6.16081406e-07,1.81273437e-01
-6.16041406e-07,1.81323438e-01
-6.16001406e-07,1.81276563e-01
-6.15961406e-07,1.81323438e-01
-6.15921406e-07,1.81275000e-01
-6.15881406e-07,1.81326563e-01
-6.15841406e-07,1.81268750e-01
-6.15801406e-07,1.81340625e-01
-6.15761406e-07,1.81234375e-01
-6.15721406e-07,1.81518750e-01
-6.15681406e-07,1.81743750e-01
-6.15641406e-07,1.81681250e-01
-6.15601406e-07,1.81709375e-01
-6.15561406e-07,1.81695313e-01
-6.15521406e-07,1.81700000e-01
-6.15481406e-07,1.81701562e-01
-6.15441406e-07,1.81695313e-01
-6.15401406e-07,1.81707813e-01
-6.15361406e-07,1.81690625e-01
-6.15321406e-07,1.81714062e-01
-6.15281406e-07,1.81681250e-01
-6.15241406e-07,1.81729688e-01
-6.15201406e-07,1.81645313e-01
-6.15161406e-07,1.81907813e-01
-6.15121406e-07,1.82153125e-01
-6.15081406e-07,1.82070312e-01
-6.15041406e-07,1.82120313e-01
-6.15001406e-07,1.82084375e-01
-6.14961406e-07,1.82112500e-01
-6.14921406e-07,1.82090625e-01
-6.14881406e-07,1.82107812e-01
-6.14841406e-07,1.82093750e-01
-6.14801406e-07,1.82106250e-01
-6.14761406e-07,1.82095312e-01
-6.14721406e-07,1.82104688e-01
-6.14681406e-07,1.82096875e-01
-6.14641406e-07,1.82103125e-01
-6.14601406e-07,1.82098438e-01
-6.14561406e-07,1.82101563e-01
-6.14521406e-07,1.82098438e-01
