dpa/aes_ch1_20250506141151865.csv

Model,MSO66B
Label,
Waveform Type,ANALOG
Horizontal Units,s
Sample Interval,4.00000000e-11
Record Length,100000
Zero Index,15999.05468750
Vertical Units,A
ANALOG_Thumbnail,
yOffset,1.84500000e-01
yPosition,8.40000000e-01

Labels,
TIME,CH1
-6.39962187e-07,1.90432812e-01
-6.39922187e-07,1.90718750e-01
-6.39882187e-07,1.90942187e-01
-6.39842187e-07,1.90881250e-01
-6.39802187e-07,1.90909375e-01
-6.39762188e-07,1.90896875e-01
-6.39722187e-07,1.90898438e-01
-6.39682187e-07,1.90904688e-01
-6.39642187e-07,1.90892188e-01
-6.39602187e-07,1.90912500e-01
-6.39562187e-07,1.90881250e-01
-6.39522187e-07,1.90929688e-01
-6.39482188e-07,1.90845313e-01
-6.39442187e-07,1.91107813e-01
-6.39402187e-07,1.91353125e-01
-6.39362187e-07,1.91270313e-01
-6.39322187e-07,1.91318750e-01
-6.39282187e-07,1.91285938e-01
-6.39242187e-07,1.91310938e-01
-6.39202188e-07,1.91292188e-01
-6.39162187e-07,1.91306250e-01
-6.39122187e-07,1.91295313e-01
-6.39082187e-07,1.91303125e-01
-6.39042187e-07,1.91298438e-01
-6.39002187e-07,1.91300000e-01
-6.38962187e-07,1.91301563e-01
-6.38922188e-07,1.91296875e-01
-6.38882187e-07,1.91304688e-01
-6.38842187e-07,1.91293750e-01
-6.38802187e-07,1.91307813e-01
-6.38762187e-07,1.91289062e-01
-6.38722187e-07,1.91317188e-01
-6.38682187e-07,1.91273438e-01
-6.38642188e-07,1.91351563e-01
-6.38602187e-07,1.91095313e-01
-6.38562187e-07,1.90842188e-01
-6.38522187e-07,1.90932812e-01
-6.38482187e-07,1.90876563e-01
-6.38442187e-07,1.90918750e-01
-6.38402187e-07,1.90882812e-01
-6.38362188e-07,1.90915625e-01
-6.38322187e-07,1.90884375e-01
-6.38282187e-07,1.90915625e-01
-6.38242187e-07,1.90882812e-01
-6.38202187e-07,1.90920312e-01
-6.38162187e-07,1.90870313e-01
-6.38122187e-07,1.90953125e-01
-6.38082188e-07,1.90695313e-01
-6.38042187e-07,1.90442187e-01
-6.38002187e-07,1.90535938e-01
-6.37962187e-07,1.90471875e-01
-6.37922187e-07,1.90525000e-01
-6.37882187e-07,1.90476563e-01
-6.37842187e-07,1.90525000e-01
-6.37802188e-07,1.90473438e-01
-6.37762187e-07,1.90531250e-01
-6.37722187e-07,1.90459375e-01
-6.37682187e-07,1.90565625e-01
-6.37642187e-07,1.90281250e-01
-6.37602187e-07,1.90056250e-01
-6.37562187e-07,1.90118750e-01
-6.37522188e-07,1.90092188e-01
-6.37482187e-07,1.90103125e-01
-6.37442187e-07,1.90101563e-01
-6.37402187e-07,1.90095313e-01
-6.37362187e-07,1.90109375e-01
-6.37322187e-07,1.90085937e-01
-6.37282187e-07,1.90120312e-01
-6.37242188e-07,1.90068750e-01
-6.37202187e-07,1.90156250e-01
-6.37162187e-07,1.89889063e-01
-6.37122187e-07,1.89650000e-01
-6.37082187e-07,1.89725000e-01
-6.37042187e-07,1.89684375e-01
-6.37002187e-07,1.89709375e-01
-6.36962188e-07,1.89695313e-01
-6.36922187e-07,1.89700000e-01
-6.36882187e-07,1.89703125e-01
-6.36842187e-07,1.89692187e-01
-6.36802187e-07,1.89715625e-01
-6.36762187e-07,1.89675000e-01
-6.36722187e-07,1.89751562e-01
-6.36682188e-07,1.89493750e-01
-6.36642187e-07,1.89245313e-01
-6.36602187e-07,1.89329688e-01
-6.36562187e-07,1.89279688e-01
-6.36522187e-07,1.89312500e-01
-6.36482187e-07,1.89290625e-01
-6.36442187e-07,1.89304688e-01
-6.36402188e-07,1.89300000e-01
-6.36362187e-07,1.89295313e-01
-6.36322187e-07,1.89310937e-01
-6.36282187e-07,1.89278125e-01
-6.36242187e-07,1.89346875e-01
-6.36202187e-07,1.89098437e-01
-6.36162187e-07,1.88840625e-01
-6.36122188e-07,1.88934375e-01
-6.36082187e-07,1.88875000e-01
-6.36042187e-07,1.88918750e-01
-6.36002187e-07,1.88885938e-01
-6.35962187e-07,1.88909375e-01
-6.35922187e-07,1.88893750e-01
-6.35882187e-07,1.88901563e-01
-6.35842188e-07,1.88904688e-01
-6.35802187e-07,1.88885938e-01
-6.35762187e-07,1.88940625e-01
-6.35722187e-07,1.88706250e-01
-6.35682187e-07,1.88432813e-01
-6.35642187e-07,1.88543750e-01
-6.35602187e-07,1.88467188e-01
-6.35562188e-07,1.88528125e-01
-6.35522187e-07,1.88475000e-01
-6.35482187e-07,1.88523438e-01
-6.35442187e-07,1.88479687e-01
-6.35402187e-07,1.88520313e-01
-6.35362187e-07,1.88481250e-01
-6.35322187e-07,1.88518750e-01
-6.35282188e-07,1.88482813e-01
-6.35242187e-07,1.88517188e-01
-6.35202187e-07,1.88482813e-01
-6.35162187e-07,1.88517188e-01
-6.35122187e-07,1.88484375e-01
-6.35082187e-07,1.88515625e-01
-6.35042187e-07,1.88482813e-01
-6.35002188e-07,1.88517188e-01
-6.34962187e-07,1.88482813e-01
-6.34922187e-07,1.88518750e-01
-6.34882187e-07,1.88481250e-01
-6.34842187e-07,1.88521875e-01
-6.34802187e-07,1.88476562e-01
-6.34762187e-07,1.88529688e-01
-6.34722188e-07,1.88460938e-01
-6.34682187e-07,1.88562500e-01
-6.34642187e-07,1.88284375e-01
-6.34602187e-07,1.88053125e-01
-6.34562187e-07,1.88123438e-01
-6.34522187e-07,1.88085937e-01
-6.34482187e-07,1.88109375e-01
-6.34442188e-07,1.88093750e-01
-6.34402187e-07,1.88104688e-01
-6.34362187e-07,1.88096875e-01
-6.34322187e-07,1.88101563e-01
-6.34282187e-07,1.88098437e-01
-6.34242187e-07,1.88100000e-01
-6.34202187e-07,1.88100000e-01
-6.34162188e-07,1.88100000e-01
-6.34122187e-07,1.88100000e-01
-6.34082187e-07,1.88098437e-01
-6.34042187e-07,1.88101563e-01
-6.34002187e-07,1.88098437e-01
-6.33962187e-07,1.88101563e-01
-6.33922187e-07,1.88098437e-01
-6.33882188e-07,1.88101563e-01
-6.33842187e-07,1.88098437e-01
-6.33802187e-07,1.88101563e-01
-6.33762187e-07,1.88098437e-01
-6.33722187e-07,1.88101563e-01
-6.33682187e-07,1.88098437e-01
-6.33642187e-07,1.88101563e-01
-6.33602188e-07,1.88098437e-01
-6.33562187e-07,1.88101563e-01
-6.33522187e-07,1.88098437e-01
-6.33482187e-07,1.88101563e-01
-6.33442187e-07,1.88098437e-01
-6.33402187e-07,1.88101563e-01
-6.33362187e-07,1.88098437e-01
-6.33322188e-07,1.88101563e-01
-6.33282187e-07,1.88098437e-01
-6.33242187e-07,1.88101563e-01
-6.33202187e-07,1.88098437e-01
-6.33162187e-07,1.88101563e-01
-6.33122187e-07,1.88098437e-01
-6.33082187e-07,1.88101563e-01
-6.33042188e-07,1.88098437e-01
-6.33002187e-07,1.88101563e-01
-6.32962187e-07,1.88098437e-01
-6.32922187e-07,1.88101563e-01
-6.32882187e-07,1.88098437e-01
-6.32842187e-07,1.88101563e-01
-6.32802187e-07,1.88100000e-01
-6.32762188e-07,1.88100000e-01
-6.32722187e-07,1.88100000e-01
-6.32682187e-07,1.88100000e-01
-6.32642187e-07,1.88100000e-01
-6.32602187e-07,1.88100000e-01
-6.32562187e-07,1.88100000e-01
-6.32522187e-07,1.88100000e-01
-6.32482188e-07,1.88101563e-01
-6.32442187e-07,1.88098437e-01
-6.32402187e-07,1.88101563e-01
-6.32362187e-07,1.88098437e-01
-6.32322187e-07,1.88103125e-01
-6.32282187e-07,1.88096875e-01
-6.32242187e-07,1.88104688e-01
-6.32202188e-07,1.88093750e-01
-6.32162187e-07,1.88107812e-01
-6.32122187e-07,1.88089063e-01
-6.32082187e-07,1.88115625e-01
-6.32042187e-07,1.88075000e-01
-6.32002187e-07,1.88150000e-01
-6.31962187e-07,1.87896875e-01
-6.31922188e-07,1.87640625e-01
-6.31882187e-07,1.87735938e-01
-6.31842187e-07,1.87673438e-01
-6.31802187e-07,1.87721875e-01
-6.31762187e-07,1.87679687e-01
-6.31722187e-07,1.87718750e-01
-6.31682187e-07,1.87682813e-01
-6.31642188e-07,1.87717187e-01
-6.31602187e-07,1.87682813e-01
-6.31562187e-07,1.87717187e-01
-6.31522187e-07,1.87681250e-01
-6.31482187e-07,1.87720313e-01
-6.31442187e-07,1.87678125e-01
-6.31402187e-07,1.87726562e-01
-6.31362188e-07,1.87664063e-01
-6.31322187e-07,1.87760938e-01
-6.31282187e-07,1.87485938e-01
-6.31242187e-07,1.87251562e-01
-6.31202187e-07,1.87325000e-01
-6.31162187e-07,1.87284375e-01
-6.31122187e-07,1.87310937e-01
-6.31082188e-07,1.87292188e-01
-6.31042187e-07,1.87306250e-01
-6.31002187e-07,1.87295313e-01
-6.30962187e-07,1.87303125e-01
-6.30922187e-07,1.87296875e-01
-6.30882187e-07,1.87301563e-01
-6.30842187e-07,1.87298437e-01
-6.30802188e-07,1.87301563e-01
-6.30762187e-07,1.87300000e-01
-6.30722187e-07,1.87300000e-01
-6.30682187e-07,1.87300000e-01
-6.30642187e-07,1.87298437e-01
-6.30602187e-07,1.87301563e-01
-6.30562187e-07,1.87298437e-01
-6.30522188e-07,1.87301563e-01
-6.30482187e-07,1.87298437e-01
-6.30442187e-07,1.87303125e-01
-6.30402187e-07,1.87296875e-01
-6.30362187e-07,1.87303125e-01
-6.30322187e-07,1.87295313e-01
-6.30282187e-07,1.87304688e-01
-6.30242188e-07,1.87293750e-01
-6.30202187e-07,1.87307813e-01
-6.30162187e-07,1.87290625e-01
-6.30122187e-07,1.87312500e-01
-6.30082187e-07,1.87282813e-01
-6.30042187e-07,1.87328125e-01
-6.30002187e-07,1.87248438e-01
-6.29962188e-07,1.87504688e-01
-6.29922187e-07,1.87757813e-01
-6.29882187e-07,1.87667187e-01
-6.29842187e-07,1.87725000e-01
-6.29802187e-07,1.87681250e-01
-6.29762187e-07,1.87717187e-01
-6.29722187e-07,1.87684375e-01
-6.29682188e-07,1.87714063e-01
-6.29642187e-07,1.87687500e-01
-6.29602187e-07,1.87712500e-01
-6.29562187e-07,1.87687500e-01
-6.29522187e-07,1.87712500e-01
-6.29482187e-07,1.87685938e-01
-6.29442187e-07,1.87714063e-01
-6.29402188e-07,1.87684375e-01
-6.29362187e-07,1.87718750e-01
-6.29322187e-07,1.87676563e-01
-6.29282187e-07,1.87732813e-01
-6.29242187e-07,1.87642188e-01
-6.29202187e-07,1.87910938e-01
-6.29162187e-07,1.88153125e-01
-6.29122188e-07,1.88070313e-01
-6.29082187e-07,1.88120312e-01
-6.29042187e-07,1.88084375e-01
-6.29002187e-07,1.88112500e-01
-6.28962187e-07,1.88089063e-01
-6.28922187e-07,1.88110938e-01
-6.28882187e-07,1.88090625e-01
-6.28842188e-07,1.88109375e-01
-6.28802187e-07,1.88089063e-01
-6.28762187e-07,1.88110938e-01
-6.28722187e-07,1.88087500e-01
-6.28682187e-07,1.88115625e-01
-6.28642187e-07,1.88079688e-01
-6.28602187e-07,1.88129688e-01
-6.28562188e-07,1.88045313e-01
-6.28522187e-07,1.88307813e-01
-6.28482187e-07,1.88554688e-01
-6.28442187e-07,1.88468750e-01
-6.28402187e-07,1.88521875e-01
-6.28362187e-07,1.88482813e-01
-6.28322187e-07,1.88514062e-01
-6.28282188e-07,1.88487500e-01
-6.28242187e-07,1.88510938e-01
-6.28202187e-07,1.88489062e-01
-6.28162187e-07,1.88509375e-01
-6.28122187e-07,1.88490625e-01
-6.28082187e-07,1.88509375e-01
-6.28042187e-07,1.88490625e-01
-6.28002188e-07,1.88507813e-01
-6.27962187e-07,1.88492188e-01
-6.27922187e-07,1.88507813e-01
-6.27882187e-07,1.88492188e-01
-6.27842187e-07,1.88507813e-01
-6.27802187e-07,1.88492188e-01
-6.27762187e-07,1.88507813e-01
-6.27722188e-07,1.88492188e-01
-6.27682187e-07,1.88507813e-01
-6.27642187e-07,1.88492188e-01
-6.27602187e-07,1.88507813e-01
-6.27562187e-07,1.88490625e-01
-6.27522187e-07,1.88509375e-01
-6.27482187e-07,1.88490625e-01
-6.27442188e-07,1.88509375e-01
-6.27402187e-07,1.88490625e-01
-6.27362187e-07,1.88509375e-01
-6.27322187e-07,1.88490625e-01
-6.27282187e-07,1.88510938e-01
-6.27242187e-07,1.88489062e-01
-6.27202187e-07,1.88510938e-01
-6.27162188e-07,1.88487500e-01
-6.27122187e-07,1.88512500e-01
-6.27082187e-07,1.88485938e-01
-6.27042187e-07,1.88514062e-01
-6.27002187e-07,1.88484375e-01
-6.26962187e-07,1.88517188e-01
-6.26922187e-07,1.88481250e-01
-6.26882188e-07,1.88520313e-01
-6.26842187e-07,1.88475000e-01
-6.26802187e-07,1.88529688e-01
-6.26762187e-07,1.88459375e-01
-6.26722187e-07,1.88565625e-01
-6.26682187e-07,1.88281250e-01
-6.26642187e-07,1.88057813e-01
-6.26602188e-07,1.88117188e-01
-6.26562187e-07,1.88092188e-01
-6.26522187e-07,1.88101563e-01
-6.26482187e-07,1.88103125e-01
-6.26442187e-07,1.88092188e-01
-6.26402187e-07,1.88110938e-01
-6.26362187e-07,1.88084375e-01
-6.26322188e-07,1.88121875e-01
-6.26282187e-07,1.88067188e-01
-6.26242187e-07,1.88159375e-01
-6.26202187e-07,1.87885938e-01
-6.26162187e-07,1.87653125e-01
-6.26122187e-07,1.87720313e-01
-6.26082187e-07,1.87692187e-01
-6.26042188e-07,1.87700000e-01
-6.26002187e-07,1.87709375e-01
-6.25962187e-07,1.87678125e-01
-6.25922187e-07,1.87748438e-01
-6.25882187e-07,1.87496875e-01
-6.25842187e-07,1.87243750e-01
-6.25802187e-07,1.87331250e-01
-6.25762188e-07,1.87281250e-01
-6.25722187e-07,1.87310937e-01
-6.25682187e-07,1.87298437e-01
-6.25642187e-07,1.87290625e-01
-6.25602187e-07,1.87335937e-01
-6.25562187e-07,1.87110938e-01
-6.25522187e-07,1.86828125e-01
-6.25482188e-07,1.86948438e-01
-6.25442187e-07,1.86860938e-01
-6.25402187e-07,1.86935938e-01
-6.25362187e-07,1.86864063e-01
-6.25322187e-07,1.86937500e-01
-6.25282187e-07,1.86854688e-01
-6.25242187e-07,1.86968750e-01
-6.25202188e-07,1.86679687e-01
-6.25162187e-07,1.86457813e-01
-6.25122187e-07,1.86520313e-01
-6.25082187e-07,1.86489062e-01
-6.25042187e-07,1.86507813e-01
-6.25002187e-07,1.86495313e-01
-6.24962187e-07,1.86503125e-01
-6.24922188e-07,1.86496875e-01
-6.24882187e-07,1.86501562e-01
-6.24842187e-07,1.86498438e-01
-6.24802187e-07,1.86501562e-01
-6.24762187e-07,1.86498438e-01
-6.24722187e-07,1.86501562e-01
-6.24682187e-07,1.86498438e-01
-6.24642188e-07,1.86501562e-01
-6.24602187e-07,1.86498438e-01
-6.24562187e-07,1.86501562e-01
-6.24522187e-07,1.86498438e-01
-6.24482187e-07,1.86503125e-01
-6.24442187e-07,1.86496875e-01
-6.24402187e-07,1.86503125e-01
-6.24362188e-07,1.86496875e-01
-6.24322187e-07,1.86504688e-01
-6.24282187e-07,1.86495313e-01
-6.24242187e-07,1.86506250e-01
-6.24202187e-07,1.86493750e-01
-6.24162187e-07,1.86507813e-01
-6.24122187e-07,1.86490625e-01
-6.24082188e-07,1.86510938e-01
-6.24042187e-07,1.86487500e-01
-6.24002187e-07,1.86515625e-01
-6.23962187e-07,1.86478125e-01
-6.23922187e-07,1.86531250e-01
-6.23882187e-07,1.86443750e-01
-6.23842187e-07,1.86709375e-01
-6.23802188e-07,1.86951563e-01
-6.23762187e-07,1.86873438e-01
-6.23722187e-07,1.86917187e-01
-6.23682187e-07,1.86889063e-01
-6.23642187e-07,1.86907812e-01
-6.23602187e-07,1.86896875e-01
-6.23562187e-07,1.86900000e-01
-6.23522188e-07,1.86904687e-01
-6.23482187e-07,1.86890625e-01
-6.23442187e-07,1.86920313e-01
-6.23402187e-07,1.86854688e-01
-6.23362187e-07,1.87100000e-01
-6.23322187e-07,1.87362500e-01
-6.23282187e-07,1.87262500e-01
-6.23242188e-07,1.87328125e-01
-6.23202187e-07,1.87276563e-01
-6.23162187e-07,1.87320313e-01
-6.23122187e-07,1.87281250e-01
-6.23082187e-07,1.87317188e-01
-6.23042187e-07,1.87284375e-01
-6.23002187e-07,1.87314063e-01
-6.22962188e-07,1.87285937e-01
-6.22922187e-07,1.87312500e-01
-6.22882187e-07,1.87287500e-01
-6.22842187e-07,1.87312500e-01
-6.22802187e-07,1.87287500e-01
-6.22762187e-07,1.87312500e-01
-6.22722187e-07,1.87287500e-01
-6.22682188e-07,1.87312500e-01
-6.22642187e-07,1.87287500e-01
-6.22602187e-07,1.87312500e-01
-6.22562187e-07,1.87287500e-01
-6.22522187e-07,1.87312500e-01
-6.22482187e-07,1.87285937e-01
-6.22442187e-07,1.87315625e-01
-6.22402188e-07,1.87282813e-01
-6.22362187e-07,1.87320313e-01
-6.22322187e-07,1.87275000e-01
-6.22282187e-07,1.87334375e-01
-6.22242187e-07,1.87240625e-01
-6.22202187e-07,1.87512500e-01
-6.22162187e-07,1.87750000e-01
-6.22122188e-07,1.87673438e-01
-6.22082187e-07,1.87717187e-01
-6.22042187e-07,1.87687500e-01
-6.22002187e-07,1.87709375e-01
-6.21962187e-07,1.87692187e-01
-6.21922187e-07,1.87706250e-01
-6.21882187e-07,1.87693750e-01
-6.21842188e-07,1.87704687e-01
-6.21802187e-07,1.87695313e-01
-6.21762187e-07,1.87704687e-01
-6.21722187e-07,1.87695313e-01
-6.21682187e-07,1.87704687e-01
-6.21642187e-07,1.87695313e-01
-6.21602187e-07,1.87704687e-01
-6.21562188e-07,1.87695313e-01
-6.21522187e-07,1.87704687e-01
-6.21482187e-07,1.87695313e-01
-6.21442187e-07,1.87704687e-01
-6.21402187e-07,1.87695313e-01
-6.21362187e-07,1.87706250e-01
-6.21322187e-07,1.87693750e-01
-6.21282188e-07,1.87706250e-01
-6.21242187e-07,1.87692187e-01
-6.21202187e-07,1.87709375e-01
-6.21162187e-07,1.87689063e-01
-6.21122187e-07,1.87714063e-01
-6.21082187e-07,1.87681250e-01
-6.21042187e-07,1.87729688e-01
-6.21002188e-07,1.87645312e-01
-6.20962187e-07,1.87907812e-01
-6.20922187e-07,1.88154688e-01
-6.20882187e-07,1.88068750e-01
-6.20842187e-07,1.88121875e-01
-6.20802187e-07,1.88082813e-01
-6.20762187e-07,1.88114063e-01
-6.20722188e-07,1.88087500e-01
-6.20682187e-07,1.88110938e-01
-6.20642187e-07,1.88090625e-01
-6.20602187e-07,1.88109375e-01
-6.20562187e-07,1.88092188e-01
-6.20522187e-07,1.88107812e-01
-6.20482187e-07,1.88093750e-01
-6.20442188e-07,1.88106250e-01
-6.20402187e-07,1.88093750e-01
-6.20362187e-07,1.88106250e-01
-6.20322187e-07,1.88093750e-01
-6.20282187e-07,1.88104688e-01
-6.20242187e-07,1.88095313e-01
-6.20202187e-07,1.88104688e-01
-6.20162188e-07,1.88095313e-01
-6.20122187e-07,1.88104688e-01
-6.20082187e-07,1.88095313e-01
-6.20042187e-07,1.88104688e-01
-6.20002187e-07,1.88095313e-01
-6.19962187e-07,1.88104688e-01
-6.19922187e-07,1.88095313e-01
-6.19882188e-07,1.88104688e-01
-6.19842187e-07,1.88095313e-01
-6.19802187e-07,1.88104688e-01
-6.19762187e-07,1.88095313e-01
-6.19722187e-07,1.88104688e-01
-6.19682187e-07,1.88095313e-01
-6.19642187e-07,1.88104688e-01
-6.19602188e-07,1.88095313e-01
-6.19562187e-07,1.88104688e-01
-6.19522187e-07,1.88095313e-01
-6.19482187e-07,1.88104688e-01
-6.19442187e-07,1.88095313e-01
-6.19402187e-07,1.88104688e-01
-6.19362187e-07,1.88095313e-01
-6.19322188e-07,1.88104688e-01
-6.19282187e-07,1.88095313e-01
-6.19242187e-07,1.88104688e-01
-6.19202187e-07,1.88095313e-01
-6.19162187e-07,1.88104688e-01
-6.19122187e-07,1.88095313e-01
-6.19082187e-07,1.88104688e-01
-6.19042188e-07,1.88093750e-01
-6.19002187e-07,1.88106250e-01
-6.18962187e-07,1.88093750e-01
-6.18922187e-07,1.88107812e-01
-6.18882187e-07,1.88092188e-01
-6.18842187e-07,1.88109375e-01
-6.18802187e-07,1.88089063e-01
-6.18762188e-07,1.88112500e-01
-6.18722187e-07,1.88084375e-01
-6.18682187e-07,1.88120312e-01
-6.18642187e-07,1.88070313e-01
-6.18602187e-07,1.88154688e-01
-6.18562187e-07,1.87892188e-01
-6.18522187e-07,1.87645312e-01
-6.18482188e-07,1.87731250e-01
-6.18442187e-07,1.87678125e-01
-6.18402187e-07,1.87717187e-01
-6.18362187e-07,1.87685938e-01
-6.18322187e-07,1.87712500e-01
-6.18282187e-07,1.87689063e-01
-6.18242187e-07,1.87710938e-01
-6.18202188e-07,1.87690625e-01
-6.18162187e-07,1.87709375e-01
-6.18122187e-07,1.87690625e-01
-6.18082187e-07,1.87709375e-01
-6.18042187e-07,1.87690625e-01
-6.18002187e-07,1.87710938e-01
-6.17962187e-07,1.87689063e-01
-6.17922188e-07,1.87712500e-01
-6.17882187e-07,1.87687500e-01
-6.17842187e-07,1.87715625e-01
-6.17802187e-07,1.87682813e-01
-6.17762187e-07,1.87723438e-01
-6.17722187e-07,1.87667187e-01
-6.17682187e-07,1.87757813e-01
-6.17642188e-07,1.87489062e-01
-6.17602187e-07,1.87248438e-01
-6.17562187e-07,1.87328125e-01
-6.17522187e-07,1.87281250e-01
-6.17482187e-07,1.87314063e-01
-6.17442187e-07,1.87289063e-01
-6.17402187e-07,1.87309375e-01
-6.17362188e-07,1.87292188e-01
-6.17322187e-07,1.87306250e-01
-6.17282187e-07,1.87293750e-01
-6.17242187e-07,1.87304688e-01
-6.17202187e-07,1.87295313e-01
-6.17162187e-07,1.87304688e-01
-6.17122187e-07,1.87296875e-01
-6.17082188e-07,1.87303125e-01
-6.17042187e-07,1.87296875e-01
-6.17002187e-07,1.87303125e-01
-6.16962187e-07,1.87296875e-01
-6.16922187e-07,1.87301563e-01
-6.16882187e-07,1.87298437e-01
-6.16842187e-07,1.87301563e-01
-6.16802188e-07,1.87298437e-01
-6.16762187e-07,1.87301563e-01
-6.16722187e-07,1.87298437e-01
-6.16682187e-07,1.87301563e-01
-6.16642187e-07,1.87298437e-01
-6.16602187e-07,1.87300000e-01
-6.16562187e-07,1.87300000e-01
-6.16522188e-07,1.87300000e-01
-6.16482187e-07,1.87300000e-01
-6.16442187e-07,1.87300000e-01
-6.16402187e-07,1.87300000e-01
-6.16362187e-07,1.87300000e-01
-6.16322187e-07,1.87301563e-01
-6.16282187e-07,1.87298437e-01
-6.16242188e-07,1.87301563e-01
-6.16202187e-07,1.87298437e-01
-6.16162187e-07,1.87301563e-01
-6.16122187e-07,1.87296875e-01
-6.16082187e-07,1.87303125e-01
-6.16042187e-07,1.87295313e-01
-6.16002187e-07,1.87306250e-01
-6.15962188e-07,1.87293750e-01
-6.15922187e-07,1.87309375e-01
-6.15882187e-07,1.87287500e-01
-6.15842187e-07,1.87317188e-01
-6.15802187e-07,1.87273438e-01
-6.15762187e-07,1.87351563e-01
-6.15722187e-07,1.87095312e-01
-6.15682188e-07,1.86842188e-01
-6.15642187e-07,1.86934375e-01
-6.15602187e-07,1.86875000e-01
-6.15562187e-07,1.86920313e-01
-6.15522187e-07,1.86882812e-01
-6.15482187e-07,1.86915625e-01
-6.15442187e-07,1.86885938e-01
-6.15402188e-07,1.86914063e-01
-6.15362187e-07,1.86887500e-01
-6.15322187e-07,1.86912500e-01
-6.15282187e-07,1.86887500e-01
-6.15242187e-07,1.86914063e-01
-6.15202187e-07,1.86885938e-01
-6.15162187e-07,1.86915625e-01
-6.15122188e-07,1.86882812e-01
-6.15082187e-07,1.86920313e-01
-6.15042187e-07,1.86875000e-01
-6.15002187e-07,1.86934375e-01
-6.14962187e-07,1.86842188e-01
-6.14922187e-07,1.87110938e-01
-6.14882187e-07,1.87351563e-01
-6.14842188e-07,1.87271875e-01
-6.14802187e-07,1.87318750e-01
-6.14762187e-07,1.87285937e-01
-6.14722187e-07,1.87310937e-01
-6.14682187e-07,1.87290625e-01
-6.14642187e-07,1.87307813e-01
-6.14602187e-07,1.87292188e-01
-6.14562188e-07,1.87306250e-01
-6.14522187e-07,1.87293750e-01
