dpa/aes_ch1_20250506140546878.csv

Model,MSO66B
Label,
Waveform Type,ANALOG
Horizontal Units,s
Sample Interval,4.00000000e-11
Record Length,100000
Zero Index,15999.03125000
Vertical Units,A
ANALOG_Thumbnail,
yOffset,1.84500000e-01
yPosition,0.00000000e+00

Labels,
TIME,CH1
-6.39961250e-07,1.90062563e-01
-6.39921250e-07,1.90071625e-01
-6.39881250e-07,1.90065281e-01
-6.39841250e-07,1.90069812e-01
-6.39801250e-07,1.90068000e-01
-6.39761250e-07,1.90067094e-01
-6.39721250e-07,1.90069812e-01
-6.39681250e-07,1.90064375e-01
-6.39641250e-07,1.90074344e-01
-6.39601250e-07,1.90058937e-01
-6.39561250e-07,1.90083406e-01
-6.39521250e-07,1.90038094e-01
-6.39481250e-07,1.90186719e-01
-6.39441250e-07,1.90332625e-01
-6.39401250e-07,1.90280969e-01
-6.39361250e-07,1.90312687e-01
-6.39321250e-07,1.90290031e-01
-6.39281250e-07,1.90308156e-01
-6.39241250e-07,1.90293656e-01
-6.39201250e-07,1.90305438e-01
-6.39161250e-07,1.90295469e-01
-6.39121250e-07,1.90303625e-01
-6.39081250e-07,1.90297281e-01
-6.39041250e-07,1.90301813e-01
-6.39001250e-07,1.90299094e-01
-6.38961250e-07,1.90300000e-01
-6.38921250e-07,1.90300906e-01
-6.38881250e-07,1.90297281e-01
-6.38841250e-07,1.90304531e-01
-6.38801250e-07,1.90292750e-01
-6.38761250e-07,1.90313594e-01
-6.38721250e-07,1.90271906e-01
-6.38681250e-07,1.90416906e-01
-6.38641250e-07,1.90567344e-01
-6.38601250e-07,1.90511156e-01
-6.38561250e-07,1.90547406e-01
-6.38521250e-07,1.90519313e-01
-6.38481250e-07,1.90542875e-01
-6.38441250e-07,1.90522031e-01
-6.38401250e-07,1.90541062e-01
-6.38361250e-07,1.90523844e-01
-6.38321250e-07,1.90540156e-01
-6.38281250e-07,1.90524750e-01
-6.38241250e-07,1.90539250e-01
-6.38201250e-07,1.90524750e-01
-6.38161250e-07,1.90540156e-01
-6.38121250e-07,1.90523844e-01
-6.38081250e-07,1.90541062e-01
-6.38041250e-07,1.90521125e-01
-6.38001250e-07,1.90544688e-01
-6.37961250e-07,1.90513875e-01
-6.37921250e-07,1.90564625e-01
-6.37881250e-07,1.90411469e-01
-6.37841250e-07,1.90268281e-01
-6.37801250e-07,1.90319031e-01
-6.37761250e-07,1.90286406e-01
-6.37721250e-07,1.90311781e-01
-6.37681250e-07,1.90289125e-01
-6.37641250e-07,1.90309969e-01
-6.37601250e-07,1.90290031e-01
-6.37561250e-07,1.90310875e-01
-6.37521250e-07,1.90287312e-01
-6.37481250e-07,1.90315406e-01
-6.37441250e-07,1.90279156e-01
-6.37401250e-07,1.90336250e-01
-6.37361250e-07,1.90174938e-01
-6.37321250e-07,1.90040812e-01
-6.37281250e-07,1.90080687e-01
-6.37241250e-07,1.90061656e-01
-6.37201250e-07,1.90070719e-01
-6.37161250e-07,1.90068000e-01
-6.37121250e-07,1.90064375e-01
-6.37081250e-07,1.90075250e-01
-6.37041250e-07,1.90054406e-01
-6.37001250e-07,1.90096094e-01
-6.36961250e-07,1.89950188e-01
-6.36921250e-07,1.89802469e-01
-6.36881250e-07,1.89855937e-01
-6.36841250e-07,1.89822406e-01
-6.36801250e-07,1.89845969e-01
-6.36761250e-07,1.89827844e-01
-6.36721250e-07,1.89842344e-01
-6.36681250e-07,1.89831469e-01
-6.36641250e-07,1.89838719e-01
-6.36601250e-07,1.89835094e-01
-6.36561250e-07,1.89835094e-01
-6.36521250e-07,1.89840531e-01
-6.36481250e-07,1.89825125e-01
-6.36441250e-07,1.89861375e-01
-6.36401250e-07,1.89721813e-01
-6.36361250e-07,1.89566844e-01
-6.36321250e-07,1.89627562e-01
-6.36281250e-07,1.89585875e-01
-6.36241250e-07,1.89618500e-01
-6.36201250e-07,1.89591312e-01
-6.36161250e-07,1.89615781e-01
-6.36121250e-07,1.89593125e-01
-6.36081250e-07,1.89613969e-01
-6.36041250e-07,1.89594938e-01
-6.36001250e-07,1.89613062e-01
-6.35961250e-07,1.89595844e-01
-6.35921250e-07,1.89612156e-01
-6.35881250e-07,1.89595844e-01
-6.35841250e-07,1.89611250e-01
-6.35801250e-07,1.89596750e-01
-6.35761250e-07,1.89611250e-01
-6.35721250e-07,1.89596750e-01
-6.35681250e-07,1.89610344e-01
-6.35641250e-07,1.89597656e-01
-6.35601250e-07,1.89610344e-01
-6.35561250e-07,1.89597656e-01
-6.35521250e-07,1.89610344e-01
-6.35481250e-07,1.89597656e-01
-6.35441250e-07,1.89610344e-01
-6.35401250e-07,1.89597656e-01
-6.35361250e-07,1.89610344e-01
-6.35321250e-07,1.89597656e-01
-6.35281250e-07,1.89610344e-01
-6.35241250e-07,1.89597656e-01
-6.35201250e-07,1.89610344e-01
-6.35161250e-07,1.89597656e-01
-6.35121250e-07,1.89610344e-01
-6.35081250e-07,1.89597656e-01
-6.35041250e-07,1.89610344e-01
-6.35001250e-07,1.89596750e-01
-6.34961250e-07,1.89611250e-01
-6.34921250e-07,1.89596750e-01
-6.34881250e-07,1.89612156e-01
-6.34841250e-07,1.89594938e-01
-6.34801250e-07,1.89613969e-01
-6.34761250e-07,1.89592219e-01
-6.34721250e-07,1.89618500e-01
-6.34681250e-07,1.89584062e-01
-6.34641250e-07,1.89638438e-01
-6.34601250e-07,1.89481656e-01
-6.34561250e-07,1.89342094e-01
-6.34521250e-07,1.89388312e-01
-6.34481250e-07,1.89361125e-01
-6.34441250e-07,1.89380156e-01
-6.34401250e-07,1.89364750e-01
-6.34361250e-07,1.89378344e-01
-6.34321250e-07,1.89365656e-01
-6.34281250e-07,1.89378344e-01
-6.34241250e-07,1.89365656e-01
-6.34201250e-07,1.89379250e-01
-6.34161250e-07,1.89362937e-01
-6.34121250e-07,1.89383781e-01
-6.34081250e-07,1.89354781e-01
-6.34041250e-07,1.89403719e-01
-6.34001250e-07,1.89251469e-01
-6.33961250e-07,1.89108281e-01
-6.33921250e-07,1.89158125e-01
-6.33881250e-07,1.89127313e-01
-6.33841250e-07,1.89149969e-01
-6.33801250e-07,1.89131844e-01
-6.33761250e-07,1.89146344e-01
-6.33721250e-07,1.89134562e-01
-6.33681250e-07,1.89144531e-01
-6.33641250e-07,1.89137281e-01
-6.33601250e-07,1.89141813e-01
-6.33561250e-07,1.89139094e-01
-6.33521250e-07,1.89138187e-01
-6.33481250e-07,1.89144531e-01
-6.33441250e-07,1.89130031e-01
-6.33401250e-07,1.89164469e-01
-6.33361250e-07,1.89026719e-01
-6.33321250e-07,1.88869031e-01
-6.33281250e-07,1.88932469e-01
-6.33241250e-07,1.88888969e-01
-6.33201250e-07,1.88924312e-01
-6.33161250e-07,1.88893500e-01
-6.33121250e-07,1.88921594e-01
-6.33081250e-07,1.88895312e-01
-6.33041250e-07,1.88920687e-01
-6.33001250e-07,1.88896219e-01
-6.32961250e-07,1.88919781e-01
-6.32921250e-07,1.88896219e-01
-6.32881250e-07,1.88919781e-01
-6.32841250e-07,1.88896219e-01
-6.32801250e-07,1.88919781e-01
-6.32761250e-07,1.88895312e-01
-6.32721250e-07,1.88920687e-01
-6.32681250e-07,1.88894406e-01
-6.32641250e-07,1.88922500e-01
-6.32601250e-07,1.88892594e-01
-6.32561250e-07,1.88925219e-01
-6.32521250e-07,1.88888063e-01
-6.32481250e-07,1.88933375e-01
-6.32441250e-07,1.88868125e-01
-6.32401250e-07,1.89037594e-01
-6.32361250e-07,1.89162656e-01
-6.32321250e-07,1.89130937e-01
-6.32281250e-07,1.89142719e-01
-6.32241250e-07,1.89140000e-01
-6.32201250e-07,1.89138187e-01
-6.32161250e-07,1.89143625e-01
-6.32121250e-07,1.89134562e-01
-6.32081250e-07,1.89146344e-01
-6.32041250e-07,1.89131844e-01
-6.32001250e-07,1.89149969e-01
-6.31961250e-07,1.89126406e-01
-6.31921250e-07,1.89159031e-01
-6.31881250e-07,1.89106469e-01
-6.31841250e-07,1.89262344e-01
-6.31801250e-07,1.89401906e-01
-6.31761250e-07,1.89355688e-01
-6.31721250e-07,1.89382875e-01
-6.31681250e-07,1.89363844e-01
-6.31641250e-07,1.89379250e-01
-6.31601250e-07,1.89365656e-01
-6.31561250e-07,1.89379250e-01
-6.31521250e-07,1.89362937e-01
-6.31481250e-07,1.89386500e-01
-6.31441250e-07,1.89343906e-01
-6.31401250e-07,1.89488000e-01
-6.31361250e-07,1.89641156e-01
-6.31321250e-07,1.89580438e-01
-6.31281250e-07,1.89623031e-01
-6.31241250e-07,1.89587687e-01
-6.31201250e-07,1.89619406e-01
-6.31161250e-07,1.89588594e-01
-6.31121250e-07,1.89620312e-01
-6.31081250e-07,1.89586781e-01
-6.31041250e-07,1.89622125e-01
-6.31001250e-07,1.89582250e-01
-6.30961250e-07,1.89631187e-01
-6.30921250e-07,1.89562312e-01
-6.30881250e-07,1.89734500e-01
-6.30841250e-07,1.89857750e-01
-6.30801250e-07,1.89828750e-01
-6.30761250e-07,1.89836906e-01
-6.30721250e-07,1.89837813e-01
-6.30681250e-07,1.89831469e-01
-6.30641250e-07,1.89843250e-01
-6.30601250e-07,1.89826937e-01
-6.30561250e-07,1.89847781e-01
-6.30521250e-07,1.89820594e-01
-6.30481250e-07,1.89857750e-01
-6.30441250e-07,1.89798844e-01
-6.30401250e-07,1.89961969e-01
-6.30361250e-07,1.90093375e-01
-6.30321250e-07,1.90057125e-01
-6.30281250e-07,1.90072531e-01
-6.30241250e-07,1.90067094e-01
-6.30201250e-07,1.90066187e-01
-6.30161250e-07,1.90071625e-01
-6.30121250e-07,1.90061656e-01
-6.30081250e-07,1.90077063e-01
-6.30041250e-07,1.90055312e-01
-6.30001250e-07,1.90087031e-01
-6.29961250e-07,1.90033563e-01
-6.29921250e-07,1.90191250e-01
-6.29881250e-07,1.90328094e-01
-6.29841250e-07,1.90286406e-01
-6.29801250e-07,1.90307250e-01
-6.29761250e-07,1.90296375e-01
-6.29721250e-07,1.90300906e-01
-6.29681250e-07,1.90301813e-01
-6.29641250e-07,1.90296375e-01
-6.29601250e-07,1.90306344e-01
-6.29561250e-07,1.90290031e-01
-6.29521250e-07,1.90316313e-01
-6.29481250e-07,1.90268281e-01
-6.29441250e-07,1.90421437e-01
-6.29401250e-07,1.90562812e-01
-6.29361250e-07,1.90515688e-01
-6.29321250e-07,1.90541969e-01
-6.29281250e-07,1.90525656e-01
-6.29241250e-07,1.90536531e-01
-6.29201250e-07,1.90529281e-01
-6.29161250e-07,1.90532906e-01
-6.29121250e-07,1.90532000e-01
-6.29081250e-07,1.90531094e-01
-6.29041250e-07,1.90534719e-01
-6.29001250e-07,1.90528375e-01
-6.28961250e-07,1.90537437e-01
-6.28921250e-07,1.90524750e-01
-6.28881250e-07,1.90541969e-01
-6.28841250e-07,1.90518406e-01
-6.28801250e-07,1.90551937e-01
-6.28761250e-07,1.90496656e-01
-6.28721250e-07,1.90657063e-01
-6.28681250e-07,1.90790281e-01
-6.28641250e-07,1.90753125e-01
-6.28601250e-07,1.90767625e-01
-6.28561250e-07,1.90766719e-01
-6.28521250e-07,1.90753125e-01
-6.28481250e-07,1.90790281e-01
-6.28441250e-07,1.90648000e-01
-6.28401250e-07,1.90497562e-01
-6.28361250e-07,1.90551937e-01
-6.28321250e-07,1.90518406e-01
-6.28281250e-07,1.90541969e-01
-6.28241250e-07,1.90524750e-01
-6.28201250e-07,1.90537437e-01
-6.28161250e-07,1.90528375e-01
-6.28121250e-07,1.90534719e-01
-6.28081250e-07,1.90531094e-01
-6.28041250e-07,1.90531094e-01
-6.28001250e-07,1.90534719e-01
-6.27961250e-07,1.90526562e-01
-6.27921250e-07,1.90541062e-01
-6.27881250e-07,1.90516594e-01
-6.27841250e-07,1.90562812e-01
-6.27801250e-07,1.90411469e-01
-6.27761250e-07,1.90269187e-01
-6.27721250e-07,1.90316313e-01
-6.27681250e-07,1.90290938e-01
-6.27641250e-07,1.90303625e-01
-6.27601250e-07,1.90300906e-01
-6.27561250e-07,1.90291844e-01
-6.27521250e-07,1.90324469e-01
-6.27481250e-07,1.90185812e-01
-6.27441250e-07,1.90030844e-01
-6.27401250e-07,1.90089750e-01
-6.27361250e-07,1.90053500e-01
-6.27321250e-07,1.90077969e-01
-6.27281250e-07,1.90062563e-01
-6.27241250e-07,1.90066187e-01
-6.27201250e-07,1.90085219e-01
-6.27161250e-07,1.89961969e-01
-6.27121250e-07,1.89790687e-01
-6.27081250e-07,1.89867719e-01
-6.27041250e-07,1.89809719e-01
-6.27001250e-07,1.89860469e-01
-6.26961250e-07,1.89811531e-01
-6.26921250e-07,1.89861375e-01
-6.26881250e-07,1.89806094e-01
-6.26841250e-07,1.89879500e-01
-6.26801250e-07,1.89704594e-01
-6.26761250e-07,1.89583156e-01
-6.26721250e-07,1.89612156e-01
-6.26681250e-07,1.89601281e-01
-6.26641250e-07,1.89604906e-01
-6.26601250e-07,1.89604906e-01
-6.26561250e-07,1.89602187e-01
-6.26521250e-07,1.89605812e-01
-6.26481250e-07,1.89601281e-01
-6.26441250e-07,1.89606719e-01
-6.26401250e-07,1.89601281e-01
-6.26361250e-07,1.89606719e-01
-6.26321250e-07,1.89601281e-01
-6.26281250e-07,1.89606719e-01
-6.26241250e-07,1.89601281e-01
-6.26201250e-07,1.89606719e-01
-6.26161250e-07,1.89601281e-01
-6.26121250e-07,1.89606719e-01
-6.26081250e-07,1.89601281e-01
-6.26041250e-07,1.89606719e-01
-6.26001250e-07,1.89602187e-01
-6.25961250e-07,1.89605812e-01
-6.25921250e-07,1.89602187e-01
-6.25881250e-07,1.89605812e-01
-6.25841250e-07,1.89603094e-01
-6.25801250e-07,1.89604906e-01
-6.25761250e-07,1.89603094e-01
-6.25721250e-07,1.89604000e-01
-6.25681250e-07,1.89604906e-01
-6.25641250e-07,1.89603094e-01
-6.25601250e-07,1.89606719e-01
-6.25561250e-07,1.89599469e-01
-6.25521250e-07,1.89611250e-01
-6.25481250e-07,1.89591312e-01
-6.25441250e-07,1.89631187e-01
-6.25401250e-07,1.89488906e-01
-6.25361250e-07,1.89334844e-01
-6.25321250e-07,1.89395563e-01
-6.25281250e-07,1.89352969e-01
-6.25241250e-07,1.89388312e-01
-6.25201250e-07,1.89355688e-01
-6.25161250e-07,1.89390125e-01
-6.25121250e-07,1.89350250e-01
-6.25081250e-07,1.89407344e-01
-6.25041250e-07,1.89249656e-01
-6.25001250e-07,1.89109187e-01
-6.24961250e-07,1.89159031e-01
-6.24921250e-07,1.89124594e-01
-6.24881250e-07,1.89156313e-01
-6.24841250e-07,1.89119156e-01
-6.24801250e-07,1.89174437e-01
-6.24761250e-07,1.89016750e-01
-6.24721250e-07,1.88879906e-01
-6.24681250e-07,1.88920687e-01
-6.24641250e-07,1.88902563e-01
-6.24601250e-07,1.88905281e-01
-6.24561250e-07,1.88926125e-01
-6.24521250e-07,1.88800156e-01
-6.24481250e-07,1.88632500e-01
-6.24441250e-07,1.88705906e-01
-6.24401250e-07,1.88650625e-01
-6.24361250e-07,1.88699563e-01
-6.24321250e-07,1.88653344e-01
-6.24281250e-07,1.88700469e-01
-6.24241250e-07,1.88647000e-01
-6.24201250e-07,1.88718594e-01
-6.24161250e-07,1.88545500e-01
-6.24121250e-07,1.88422250e-01
-6.24081250e-07,1.88452156e-01
-6.24041250e-07,1.88440375e-01
-6.24001250e-07,1.88444906e-01
-6.23961250e-07,1.88444906e-01
-6.23921250e-07,1.88442187e-01
-6.23881250e-07,1.88446719e-01
-6.23841250e-07,1.88441281e-01
-6.23801250e-07,1.88447625e-01
-6.23761250e-07,1.88440375e-01
-6.23721250e-07,1.88447625e-01
-6.23681250e-07,1.88440375e-01
-6.23641250e-07,1.88448531e-01
-6.23601250e-07,1.88439469e-01
-6.23561250e-07,1.88448531e-01
-6.23521250e-07,1.88439469e-01
-6.23481250e-07,1.88448531e-01
-6.23441250e-07,1.88439469e-01
-6.23401250e-07,1.88448531e-01
-6.23361250e-07,1.88439469e-01
-6.23321250e-07,1.88448531e-01
-6.23281250e-07,1.88439469e-01
-6.23241250e-07,1.88448531e-01
-6.23201250e-07,1.88439469e-01
-6.23161250e-07,1.88449437e-01
-6.23121250e-07,1.88438562e-01
-6.23081250e-07,1.88449437e-01
-6.23041250e-07,1.88438562e-01
-6.23001250e-07,1.88449437e-01
-6.22961250e-07,1.88438562e-01
-6.22921250e-07,1.88449437e-01
-6.22881250e-07,1.88438562e-01
-6.22841250e-07,1.88449437e-01
-6.22801250e-07,1.88437656e-01
-6.22761250e-07,1.88450344e-01
-6.22721250e-07,1.88437656e-01
-6.22681250e-07,1.88450344e-01
-6.22641250e-07,1.88437656e-01
-6.22601250e-07,1.88451250e-01
-6.22561250e-07,1.88436750e-01
-6.22521250e-07,1.88451250e-01
-6.22481250e-07,1.88435844e-01
-6.22441250e-07,1.88452156e-01
-6.22401250e-07,1.88434938e-01
-6.22361250e-07,1.88453969e-01
-6.22321250e-07,1.88432219e-01
-6.22281250e-07,1.88457594e-01
-6.22241250e-07,1.88427687e-01
-6.22201250e-07,1.88465750e-01
-6.22161250e-07,1.88407750e-01
-6.22121250e-07,1.88569062e-01
-6.22081250e-07,1.88703188e-01
-6.22041250e-07,1.88663312e-01
-6.22001250e-07,1.88683250e-01
-6.21961250e-07,1.88671469e-01
-6.21921250e-07,1.88678719e-01
-6.21881250e-07,1.88675094e-01
-6.21841250e-07,1.88676000e-01
-6.21801250e-07,1.88676906e-01
-6.21761250e-07,1.88674188e-01
-6.21721250e-07,1.88677812e-01
-6.21681250e-07,1.88673281e-01
-6.21641250e-07,1.88679625e-01
-6.21601250e-07,1.88671469e-01
-6.21561250e-07,1.88681437e-01
-6.21521250e-07,1.88669656e-01
-6.21481250e-07,1.88684156e-01
-6.21441250e-07,1.88664219e-01
-6.21401250e-07,1.88693219e-01
-6.21361250e-07,1.88644281e-01
-6.21321250e-07,1.88796531e-01
-6.21281250e-07,1.88939719e-01
-6.21241250e-07,1.88889875e-01
-6.21201250e-07,1.88920687e-01
-6.21161250e-07,1.88897125e-01
-6.21121250e-07,1.88917063e-01
-6.21081250e-07,1.88899844e-01
-6.21041250e-07,1.88916156e-01
-6.21001250e-07,1.88898938e-01
-6.20961250e-07,1.88917969e-01
-6.20921250e-07,1.88895312e-01
-6.20881250e-07,1.88926125e-01
-6.20841250e-07,1.88876281e-01
-6.20801250e-07,1.89028531e-01
-6.20761250e-07,1.89171719e-01
-6.20721250e-07,1.89121875e-01
-6.20681250e-07,1.89153594e-01
-6.20641250e-07,1.89129125e-01
-6.20601250e-07,1.89149062e-01
-6.20561250e-07,1.89131844e-01
-6.20521250e-07,1.89147250e-01
-6.20481250e-07,1.89132750e-01
-6.20441250e-07,1.89146344e-01
-6.20401250e-07,1.89133656e-01
-6.20361250e-07,1.89146344e-01
-6.20321250e-07,1.89133656e-01
-6.20281250e-07,1.89146344e-01
-6.20241250e-07,1.89133656e-01
-6.20201250e-07,1.89146344e-01
-6.20161250e-07,1.89133656e-01
-6.20121250e-07,1.89146344e-01
-6.20081250e-07,1.89133656e-01
-6.20041250e-07,1.89146344e-01
-6.20001250e-07,1.89132750e-01
-6.19961250e-07,1.89147250e-01
-6.19921250e-07,1.89132750e-01
-6.19881250e-07,1.89147250e-01
-6.19841250e-07,1.89131844e-01
-6.19801250e-07,1.89148156e-01
-6.19761250e-07,1.89130937e-01
-6.19721250e-07,1.89149062e-01
-6.19681250e-07,1.89130031e-01
-6.19641250e-07,1.89150875e-01
-6.19601250e-07,1.89128219e-01
-6.19561250e-07,1.89153594e-01
-6.19521250e-07,1.89124594e-01
-6.19481250e-07,1.89159031e-01
-6.19441250e-07,1.89114625e-01
-6.19401250e-07,1.89179875e-01
-6.19361250e-07,1.89010406e-01
-6.19321250e-07,1.88886250e-01
-6.19281250e-07,1.88915250e-01
-6.19241250e-07,1.88908000e-01
-6.19201250e-07,1.88903469e-01
-6.19161250e-07,1.88917969e-01
-6.19121250e-07,1.88890781e-01
-6.19081250e-07,1.88940625e-01
-6.19041250e-07,1.88784750e-01
-6.19001250e-07,1.88648812e-01
-6.18961250e-07,1.88687781e-01
-6.18921250e-07,1.88672375e-01
-6.18881250e-07,1.88670562e-01
-6.18841250e-07,1.88697750e-01
-6.18801250e-07,1.88565437e-01
-6.18761250e-07,1.88403219e-01
-6.18721250e-07,1.88471187e-01
-6.18681250e-07,1.88421344e-01
-6.18641250e-07,1.88465750e-01
-6.18601250e-07,1.88418625e-01
-6.18561250e-07,1.88482062e-01
-6.18521250e-07,1.88318938e-01
-6.18481250e-07,1.88183906e-01
-6.18441250e-07,1.88227406e-01
-6.18401250e-07,1.88201125e-01
-6.18361250e-07,1.88221063e-01
-6.18321250e-07,1.88202938e-01
-6.18281250e-07,1.88221063e-01
-6.18241250e-07,1.88201125e-01
-6.18201250e-07,1.88225594e-01
-6.18161250e-07,1.88192969e-01
-6.18121250e-07,1.88245531e-01
-6.18081250e-07,1.88090563e-01
-6.18041250e-07,1.87949188e-01
-6.18001250e-07,1.87996312e-01
-6.17961250e-07,1.87969125e-01
-6.17921250e-07,1.87988156e-01
-6.17881250e-07,1.87973656e-01
-6.17841250e-07,1.87985437e-01
-6.17801250e-07,1.87975469e-01
-6.17761250e-07,1.87983625e-01
-6.17721250e-07,1.87977281e-01
-6.17681250e-07,1.87982719e-01
-6.17641250e-07,1.87978188e-01
-6.17601250e-07,1.87981812e-01
-6.17561250e-07,1.87978188e-01
-6.17521250e-07,1.87980906e-01
-6.17481250e-07,1.87979094e-01
-6.17441250e-07,1.87980906e-01
-6.17401250e-07,1.87979094e-01
-6.17361250e-07,1.87980906e-01
-6.17321250e-07,1.87980000e-01
-6.17281250e-07,1.87980000e-01
-6.17241250e-07,1.87980000e-01
-6.17201250e-07,1.87980000e-01
-6.17161250e-07,1.87980000e-01
-6.17121250e-07,1.87979094e-01
-6.17081250e-07,1.87980906e-01
-6.17041250e-07,1.87979094e-01
-6.17001250e-07,1.87980906e-01
-6.16961250e-07,1.87979094e-01
-6.16921250e-07,1.87981812e-01
-6.16881250e-07,1.87978188e-01
-6.16841250e-07,1.87981812e-01
-6.16801250e-07,1.87978188e-01
-6.16761250e-07,1.87981812e-01
-6.16721250e-07,1.87977281e-01
-6.16681250e-07,1.87982719e-01
-6.16641250e-07,1.87977281e-01
-6.16601250e-07,1.87982719e-01
-6.16561250e-07,1.87976375e-01
-6.16521250e-07,1.87983625e-01
-6.16481250e-07,1.87975469e-01
-6.16441250e-07,1.87984531e-01
-6.16401250e-07,1.87974562e-01
-6.16361250e-07,1.87985437e-01
-6.16321250e-07,1.87973656e-01
-6.16281250e-07,1.87987250e-01
-6.16241250e-07,1.87970937e-01
-6.16201250e-07,1.87990875e-01
-6.16161250e-07,1.87966406e-01
-6.16121250e-07,1.87999937e-01
-6.16081250e-07,1.87945562e-01
-6.16041250e-07,1.88103250e-01
-6.16001250e-07,1.88240094e-01
-6.15961250e-07,1.88197500e-01
-6.15921250e-07,1.88220156e-01
-6.15881250e-07,1.88206563e-01
-6.15841250e-07,1.88214719e-01
-6.15801250e-07,1.88211094e-01
-6.15761250e-07,1.88211094e-01
-6.15721250e-07,1.88213812e-01
-6.15681250e-07,1.88208375e-01
-6.15641250e-07,1.88218344e-01
-6.15601250e-07,1.88202031e-01
-6.15561250e-07,1.88227406e-01
-6.15521250e-07,1.88181187e-01
-6.15481250e-07,1.88331625e-01
-6.15441250e-07,1.88475719e-01
-6.15401250e-07,1.88426781e-01
-6.15361250e-07,1.88454875e-01
-6.15321250e-07,1.88436750e-01
-6.15281250e-07,1.88448531e-01
-6.15241250e-07,1.88442187e-01
-6.15201250e-07,1.88442187e-01
-6.15161250e-07,1.88452156e-01
-6.15121250e-07,1.88421344e-01
-6.15081250e-07,1.88555469e-01
-6.15041250e-07,1.88715875e-01
-6.15001250e-07,1.88648812e-01
-6.14961250e-07,1.88697750e-01
-6.14921250e-07,1.88656062e-01
-6.14881250e-07,1.88695937e-01
-6.14841250e-07,1.88655156e-01
-6.14801250e-07,1.88701375e-01
-6.14761250e-07,1.88637031e-01
-6.14721250e-07,1.88803781e-01
-6.14681250e-07,1.88933375e-01
-6.14641250e-07,1.88896219e-01
-6.14601250e-07,1.88915250e-01
-6.14561250e-07,1.88903469e-01
-6.14521250e-07,1.88910719e-01
