dpa/aes_ch1_20250506140823347.csv

Model,MSO66B
Label,
Waveform Type,ANALOG
Horizontal Units,s
Sample Interval,4.00000000e-11
Record Length,100000
Zero Index,15999.06250000
Vertical Units,A
ANALOG_Thumbnail,
yOffset,1.84500000e-01
yPosition,8.40000000e-01

Labels,
TIME,CH1
-6.39962500e-07,1.86087500e-01
-6.39922500e-07,1.86115625e-01
-6.39882500e-07,1.86079688e-01
-6.39842500e-07,1.86131250e-01
-6.39802500e-07,1.86045313e-01
-6.39762500e-07,1.86307813e-01
-6.39722500e-07,1.86553125e-01
-6.39682500e-07,1.86470313e-01
-6.39642500e-07,1.86520313e-01
-6.39602500e-07,1.86484375e-01
-6.39562500e-07,1.86512500e-01
-6.39522500e-07,1.86489062e-01
-6.39482500e-07,1.86509375e-01
-6.39442500e-07,1.86490625e-01
-6.39402500e-07,1.86507813e-01
-6.39362500e-07,1.86492188e-01
-6.39322500e-07,1.86506250e-01
-6.39282500e-07,1.86493750e-01
-6.39242500e-07,1.86506250e-01
-6.39202500e-07,1.86493750e-01
-6.39162500e-07,1.86506250e-01
-6.39122500e-07,1.86493750e-01
-6.39082500e-07,1.86506250e-01
-6.39042500e-07,1.86493750e-01
-6.39002500e-07,1.86506250e-01
-6.38962500e-07,1.86493750e-01
-6.38922500e-07,1.86506250e-01
-6.38882500e-07,1.86493750e-01
-6.38842500e-07,1.86506250e-01
-6.38802500e-07,1.86492188e-01
-6.38762500e-07,1.86507813e-01
-6.38722500e-07,1.86492188e-01
-6.38682500e-07,1.86509375e-01
-6.38642500e-07,1.86490625e-01
-6.38602500e-07,1.86510938e-01
-6.38562500e-07,1.86487500e-01
-6.38522500e-07,1.86514062e-01
-6.38482500e-07,1.86482813e-01
-6.38442500e-07,1.86523438e-01
-6.38402500e-07,1.86467188e-01
-6.38362500e-07,1.86557813e-01
-6.38322500e-07,1.86289063e-01
-6.38282500e-07,1.86048437e-01
-6.38242500e-07,1.86126563e-01
-6.38202500e-07,1.86082812e-01
-6.38162500e-07,1.86112500e-01
-6.38122500e-07,1.86090625e-01
-6.38082500e-07,1.86106250e-01
-6.38042500e-07,1.86095312e-01
-6.38002500e-07,1.86101563e-01
-6.37962500e-07,1.86100000e-01
-6.37922500e-07,1.86098438e-01
-6.37882500e-07,1.86104688e-01
-6.37842500e-07,1.86092188e-01
-6.37802500e-07,1.86112500e-01
-6.37762500e-07,1.86076563e-01
-6.37722500e-07,1.86148438e-01
-6.37682500e-07,1.85898438e-01
-6.37642500e-07,1.85639063e-01
-6.37602500e-07,1.85735938e-01
-6.37562500e-07,1.85673438e-01
-6.37522500e-07,1.85721875e-01
-6.37482500e-07,1.85681250e-01
-6.37442500e-07,1.85717188e-01
-6.37402500e-07,1.85684375e-01
-6.37362500e-07,1.85714062e-01
-6.37322500e-07,1.85685938e-01
-6.37282500e-07,1.85712500e-01
-6.37242500e-07,1.85687500e-01
-6.37202500e-07,1.85712500e-01
-6.37162500e-07,1.85687500e-01
-6.37122500e-07,1.85712500e-01
-6.37082500e-07,1.85687500e-01
-6.37042500e-07,1.85712500e-01
-6.37002500e-07,1.85687500e-01
-6.36962500e-07,1.85712500e-01
-6.36922500e-07,1.85687500e-01
-6.36882500e-07,1.85712500e-01
-6.36842500e-07,1.85687500e-01
-6.36802500e-07,1.85714062e-01
-6.36762500e-07,1.85685938e-01
-6.36722500e-07,1.85715625e-01
-6.36682500e-07,1.85682813e-01
-6.36642500e-07,1.85718750e-01
-6.36602500e-07,1.85679687e-01
-6.36562500e-07,1.85723438e-01
-6.36522500e-07,1.85671875e-01
-6.36482500e-07,1.85739062e-01
-6.36442500e-07,1.85635938e-01
-6.36402500e-07,1.85917187e-01
-6.36362500e-07,1.86145312e-01
-6.36322500e-07,1.86079688e-01
-6.36282500e-07,1.86110938e-01
-6.36242500e-07,1.86095312e-01
-6.36202500e-07,1.86100000e-01
-6.36162500e-07,1.86103125e-01
-6.36122500e-07,1.86093750e-01
-6.36082500e-07,1.86110938e-01
-6.36042500e-07,1.86082812e-01
-6.36002500e-07,1.86126563e-01
-6.35962500e-07,1.86046875e-01
-6.35922500e-07,1.86306250e-01
-6.35882500e-07,1.86556250e-01
-6.35842500e-07,1.86468750e-01
-6.35802500e-07,1.86521875e-01
-6.35762500e-07,1.86484375e-01
-6.35722500e-07,1.86512500e-01
-6.35682500e-07,1.86489062e-01
-6.35642500e-07,1.86507813e-01
-6.35602500e-07,1.86492188e-01
-6.35562500e-07,1.86506250e-01
-6.35522500e-07,1.86495313e-01
-6.35482500e-07,1.86503125e-01
-6.35442500e-07,1.86498438e-01
-6.35402500e-07,1.86500000e-01
-6.35362500e-07,1.86501562e-01
-6.35322500e-07,1.86496875e-01
-6.35282500e-07,1.86506250e-01
-6.35242500e-07,1.86489062e-01
-6.35202500e-07,1.86520313e-01
-6.35162500e-07,1.86454687e-01
-6.35122500e-07,1.86698438e-01
-6.35082500e-07,1.86964063e-01
-6.35042500e-07,1.86859375e-01
-6.35002500e-07,1.86931250e-01
-6.34962500e-07,1.86871875e-01
-6.34922500e-07,1.86926563e-01
-6.34882500e-07,1.86875000e-01
-6.34842500e-07,1.86926563e-01
-6.34802500e-07,1.86871875e-01
-6.34762500e-07,1.86932813e-01
-6.34722500e-07,1.86859375e-01
-6.34682500e-07,1.86965625e-01
-6.34642500e-07,1.86681250e-01
-6.34602500e-07,1.86456250e-01
-6.34562500e-07,1.86520313e-01
-6.34522500e-07,1.86489062e-01
-6.34482500e-07,1.86506250e-01
-6.34442500e-07,1.86498438e-01
-6.34402500e-07,1.86500000e-01
-6.34362500e-07,1.86501562e-01
-6.34322500e-07,1.86495313e-01
-6.34282500e-07,1.86506250e-01
-6.34242500e-07,1.86490625e-01
-6.34202500e-07,1.86512500e-01
-6.34162500e-07,1.86482813e-01
-6.34122500e-07,1.86528125e-01
-6.34082500e-07,1.86446875e-01
-6.34042500e-07,1.86706250e-01
-6.34002500e-07,1.86956250e-01
-6.33962500e-07,1.86867188e-01
-6.33922500e-07,1.86923438e-01
-6.33882500e-07,1.86882812e-01
-6.33842500e-07,1.86915625e-01
-6.33802500e-07,1.86887500e-01
-6.33762500e-07,1.86910938e-01
-6.33722500e-07,1.86889063e-01
-6.33682500e-07,1.86909375e-01
-6.33642500e-07,1.86890625e-01
-6.33602500e-07,1.86907812e-01
-6.33562500e-07,1.86892188e-01
-6.33522500e-07,1.86907812e-01
-6.33482500e-07,1.86892188e-01
-6.33442500e-07,1.86906250e-01
-6.33402500e-07,1.86893750e-01
-6.33362500e-07,1.86906250e-01
-6.33322500e-07,1.86893750e-01
-6.33282500e-07,1.86906250e-01
-6.33242500e-07,1.86893750e-01
-6.33202500e-07,1.86906250e-01
-6.33162500e-07,1.86893750e-01
-6.33122500e-07,1.86906250e-01
-6.33082500e-07,1.86893750e-01
-6.33042500e-07,1.86906250e-01
-6.33002500e-07,1.86893750e-01
-6.32962500e-07,1.86906250e-01
-6.32922500e-07,1.86893750e-01
-6.32882500e-07,1.86907812e-01
-6.32842500e-07,1.86892188e-01
-6.32802500e-07,1.86907812e-01
-6.32762500e-07,1.86892188e-01
-6.32722500e-07,1.86907812e-01
-6.32682500e-07,1.86890625e-01
-6.32642500e-07,1.86909375e-01
-6.32602500e-07,1.86890625e-01
-6.32562500e-07,1.86910938e-01
-6.32522500e-07,1.86889063e-01
-6.32482500e-07,1.86912500e-01
-6.32442500e-07,1.86885938e-01
-6.32402500e-07,1.86917187e-01
-6.32362500e-07,1.86879688e-01
-6.32322500e-07,1.86925000e-01
-6.32282500e-07,1.86864063e-01
-6.32242500e-07,1.86960938e-01
-6.32202500e-07,1.86685938e-01
-6.32162500e-07,1.86451563e-01
-6.32122500e-07,1.86523438e-01
-6.32082500e-07,1.86485938e-01
-6.32042500e-07,1.86507813e-01
-6.32002500e-07,1.86496875e-01
-6.31962500e-07,1.86500000e-01
-6.31922500e-07,1.86503125e-01
-6.31882500e-07,1.86492188e-01
-6.31842500e-07,1.86514062e-01
-6.31802500e-07,1.86476562e-01
-6.31762500e-07,1.86550000e-01
-6.31722500e-07,1.86296875e-01
-6.31682500e-07,1.86040625e-01
-6.31642500e-07,1.86134375e-01
-6.31602500e-07,1.86075000e-01
-6.31562500e-07,1.86120312e-01
-6.31522500e-07,1.86082812e-01
-6.31482500e-07,1.86114063e-01
-6.31442500e-07,1.86087500e-01
-6.31402500e-07,1.86110938e-01
-6.31362500e-07,1.86089063e-01
-6.31322500e-07,1.86109375e-01
-6.31282500e-07,1.86090625e-01
-6.31242500e-07,1.86107812e-01
-6.31202500e-07,1.86092188e-01
-6.31162500e-07,1.86107812e-01
-6.31122500e-07,1.86092188e-01
-6.31082500e-07,1.86106250e-01
-6.31042500e-07,1.86093750e-01
-6.31002500e-07,1.86106250e-01
-6.30962500e-07,1.86093750e-01
-6.30922500e-07,1.86106250e-01
-6.30882500e-07,1.86093750e-01
-6.30842500e-07,1.86106250e-01
-6.30802500e-07,1.86093750e-01
-6.30762500e-07,1.86104688e-01
-6.30722500e-07,1.86095312e-01
-6.30682500e-07,1.86104688e-01
-6.30642500e-07,1.86095312e-01
-6.30602500e-07,1.86104688e-01
-6.30562500e-07,1.86095312e-01
-6.30522500e-07,1.86104688e-01
-6.30482500e-07,1.86095312e-01
-6.30442500e-07,1.86104688e-01
-6.30402500e-07,1.86095312e-01
-6.30362500e-07,1.86104688e-01
-6.30322500e-07,1.86095312e-01
-6.30282500e-07,1.86104688e-01
-6.30242500e-07,1.86095312e-01
-6.30202500e-07,1.86104688e-01
-6.30162500e-07,1.86095312e-01
-6.30122500e-07,1.86104688e-01
-6.30082500e-07,1.86095312e-01
-6.30042500e-07,1.86104688e-01
-6.30002500e-07,1.86095312e-01
-6.29962500e-07,1.86104688e-01
-6.29922500e-07,1.86095312e-01
-6.29882500e-07,1.86104688e-01
-6.29842500e-07,1.86093750e-01
-6.29802500e-07,1.86106250e-01
-6.29762500e-07,1.86093750e-01
-6.29722500e-07,1.86106250e-01
-6.29682500e-07,1.86093750e-01
-6.29642500e-07,1.86106250e-01
-6.29602500e-07,1.86092188e-01
-6.29562500e-07,1.86107812e-01
-6.29522500e-07,1.86090625e-01
-6.29482500e-07,1.86109375e-01
-6.29442500e-07,1.86089063e-01
-6.29402500e-07,1.86114063e-01
-6.29362500e-07,1.86082812e-01
-6.29322500e-07,1.86121875e-01
-6.29282500e-07,1.86068750e-01
-6.29242500e-07,1.86156250e-01
-6.29202500e-07,1.85890625e-01
-6.29162500e-07,1.85646875e-01
-6.29122500e-07,1.85729688e-01
-6.29082500e-07,1.85679687e-01
-6.29042500e-07,1.85715625e-01
-6.29002500e-07,1.85687500e-01
-6.28962500e-07,1.85710938e-01
-6.28922500e-07,1.85690625e-01
-6.28882500e-07,1.85709375e-01
-6.28842500e-07,1.85692187e-01
-6.28802500e-07,1.85707813e-01
-6.28762500e-07,1.85692187e-01
-6.28722500e-07,1.85707813e-01
-6.28682500e-07,1.85692187e-01
-6.28642500e-07,1.85707813e-01
-6.28602500e-07,1.85690625e-01
-6.28562500e-07,1.85710938e-01
-6.28522500e-07,1.85687500e-01
-6.28482500e-07,1.85715625e-01
-6.28442500e-07,1.85679687e-01
-6.28402500e-07,1.85729688e-01
-6.28362500e-07,1.85646875e-01
-6.28322500e-07,1.85906250e-01
-6.28282500e-07,1.86156250e-01
-6.28242500e-07,1.86067188e-01
-6.28202500e-07,1.86123438e-01
-6.28162500e-07,1.86079688e-01
-6.28122500e-07,1.86117188e-01
-6.28082500e-07,1.86084375e-01
-6.28042500e-07,1.86115625e-01
-6.28002500e-07,1.86084375e-01
-6.27962500e-07,1.86115625e-01
-6.27922500e-07,1.86082812e-01
-6.27882500e-07,1.86120312e-01
-6.27842500e-07,1.86075000e-01
-6.27802500e-07,1.86134375e-01
-6.27762500e-07,1.86042188e-01
-6.27722500e-07,1.86310937e-01
-6.27682500e-07,1.86551563e-01
-6.27642500e-07,1.86471875e-01
-6.27602500e-07,1.86518750e-01
-6.27562500e-07,1.86485938e-01
-6.27522500e-07,1.86510938e-01
-6.27482500e-07,1.86490625e-01
-6.27442500e-07,1.86507813e-01
-6.27402500e-07,1.86492188e-01
-6.27362500e-07,1.86506250e-01
-6.27322500e-07,1.86493750e-01
-6.27282500e-07,1.86506250e-01
-6.27242500e-07,1.86493750e-01
-6.27202500e-07,1.86506250e-01
-6.27162500e-07,1.86493750e-01
-6.27122500e-07,1.86506250e-01
-6.27082500e-07,1.86492188e-01
-6.27042500e-07,1.86507813e-01
-6.27002500e-07,1.86490625e-01
-6.26962500e-07,1.86510938e-01
-6.26922500e-07,1.86487500e-01
-6.26882500e-07,1.86515625e-01
-6.26842500e-07,1.86479688e-01
-6.26802500e-07,1.86529688e-01
-6.26762500e-07,1.86445313e-01
-6.26722500e-07,1.86707813e-01
-6.26682500e-07,1.86954687e-01
-6.26642500e-07,1.86868750e-01
-6.26602500e-07,1.86921875e-01
-6.26562500e-07,1.86882812e-01
-6.26522500e-07,1.86914063e-01
-6.26482500e-07,1.86887500e-01
-6.26442500e-07,1.86910938e-01
-6.26402500e-07,1.86890625e-01
-6.26362500e-07,1.86909375e-01
-6.26322500e-07,1.86890625e-01
-6.26282500e-07,1.86907812e-01
-6.26242500e-07,1.86892188e-01
-6.26202500e-07,1.86907812e-01
-6.26162500e-07,1.86892188e-01
-6.26122500e-07,1.86907812e-01
-6.26082500e-07,1.86892188e-01
-6.26042500e-07,1.86907812e-01
-6.26002500e-07,1.86892188e-01
-6.25962500e-07,1.86907812e-01
-6.25922500e-07,1.86892188e-01
-6.25882500e-07,1.86907812e-01
-6.25842500e-07,1.86890625e-01
-6.25802500e-07,1.86909375e-01
-6.25762500e-07,1.86890625e-01
-6.25722500e-07,1.86910938e-01
-6.25682500e-07,1.86887500e-01
-6.25642500e-07,1.86914063e-01
-6.25602500e-07,1.86882812e-01
-6.25562500e-07,1.86921875e-01
-6.25522500e-07,1.86868750e-01
-6.25482500e-07,1.86956250e-01
-6.25442500e-07,1.86690625e-01
-6.25402500e-07,1.86446875e-01
-6.25362500e-07,1.86529688e-01
-6.25322500e-07,1.86479688e-01
-6.25282500e-07,1.86515625e-01
-6.25242500e-07,1.86485938e-01
-6.25202500e-07,1.86512500e-01
-6.25162500e-07,1.86489062e-01
-6.25122500e-07,1.86510938e-01
-6.25082500e-07,1.86487500e-01
-6.25042500e-07,1.86514062e-01
-6.25002500e-07,1.86484375e-01
-6.24962500e-07,1.86520313e-01
-6.24922500e-07,1.86470313e-01
-6.24882500e-07,1.86553125e-01
-6.24842500e-07,1.86293750e-01
-6.24802500e-07,1.86043750e-01
-6.24762500e-07,1.86132812e-01
-6.24722500e-07,1.86075000e-01
-6.24682500e-07,1.86120312e-01
-6.24642500e-07,1.86082812e-01
-6.24602500e-07,1.86115625e-01
-6.24562500e-07,1.86084375e-01
-6.24522500e-07,1.86115625e-01
-6.24482500e-07,1.86084375e-01
-6.24442500e-07,1.86115625e-01
-6.24402500e-07,1.86082812e-01
-6.24362500e-07,1.86118750e-01
-6.24322500e-07,1.86078125e-01
-6.24282500e-07,1.86126563e-01
-6.24242500e-07,1.86064063e-01
-6.24202500e-07,1.86160938e-01
-6.24162500e-07,1.85887500e-01
-6.24122500e-07,1.85651563e-01
-6.24082500e-07,1.85725000e-01
-6.24042500e-07,1.85684375e-01
-6.24002500e-07,1.85710938e-01
-6.23962500e-07,1.85692187e-01
-6.23922500e-07,1.85706250e-01
-6.23882500e-07,1.85695313e-01
-6.23842500e-07,1.85703125e-01
-6.23802500e-07,1.85696875e-01
-6.23762500e-07,1.85701563e-01
-6.23722500e-07,1.85698438e-01
-6.23682500e-07,1.85701563e-01
-6.23642500e-07,1.85700000e-01
-6.23602500e-07,1.85700000e-01
-6.23562500e-07,1.85700000e-01
-6.23522500e-07,1.85700000e-01
-6.23482500e-07,1.85700000e-01
-6.23442500e-07,1.85698438e-01
-6.23402500e-07,1.85701563e-01
-6.23362500e-07,1.85698438e-01
-6.23322500e-07,1.85701563e-01
-6.23282500e-07,1.85698438e-01
-6.23242500e-07,1.85701563e-01
-6.23202500e-07,1.85696875e-01
-6.23162500e-07,1.85703125e-01
-6.23122500e-07,1.85696875e-01
-6.23082500e-07,1.85703125e-01
-6.23042500e-07,1.85696875e-01
-6.23002500e-07,1.85703125e-01
-6.22962500e-07,1.85695313e-01
-6.22922500e-07,1.85704688e-01
-6.22882500e-07,1.85695313e-01
-6.22842500e-07,1.85704688e-01
-6.22802500e-07,1.85693750e-01
-6.22762500e-07,1.85706250e-01
-6.22722500e-07,1.85693750e-01
-6.22682500e-07,1.85707813e-01
-6.22642500e-07,1.85692187e-01
-6.22602500e-07,1.85709375e-01
-6.22562500e-07,1.85690625e-01
-6.22522500e-07,1.85710938e-01
-6.22482500e-07,1.85687500e-01
-6.22442500e-07,1.85715625e-01
-6.22402500e-07,1.85681250e-01
-6.22362500e-07,1.85723438e-01
-6.22322500e-07,1.85667187e-01
-6.22282500e-07,1.85757813e-01
-6.22242500e-07,1.85487500e-01
-6.22202500e-07,1.85250000e-01
-6.22162500e-07,1.85326563e-01
-6.22122500e-07,1.85284375e-01
-6.22082500e-07,1.85310937e-01
-6.22042500e-07,1.85292188e-01
-6.22002500e-07,1.85304688e-01
-6.21962500e-07,1.85298437e-01
-6.21922500e-07,1.85300000e-01
-6.21882500e-07,1.85301563e-01
-6.21842500e-07,1.85295313e-01
-6.21802500e-07,1.85306250e-01
-6.21762500e-07,1.85289063e-01
-6.21722500e-07,1.85315625e-01
-6.21682500e-07,1.85273437e-01
-6.21642500e-07,1.85351563e-01
-6.21602500e-07,1.85095312e-01
-6.21562500e-07,1.84842188e-01
-6.21522500e-07,1.84932813e-01
-6.21482500e-07,1.84876563e-01
-6.21442500e-07,1.84917187e-01
-6.21402500e-07,1.84885938e-01
-6.21362500e-07,1.84912500e-01
-6.21322500e-07,1.84889063e-01
-6.21282500e-07,1.84909375e-01
-6.21242500e-07,1.84892187e-01
-6.21202500e-07,1.84906250e-01
-6.21162500e-07,1.84895313e-01
-6.21122500e-07,1.84904687e-01
-6.21082500e-07,1.84896875e-01
-6.21042500e-07,1.84901563e-01
-6.21002500e-07,1.84900000e-01
-6.20962500e-07,1.84896875e-01
-6.20922500e-07,1.84906250e-01
-6.20882500e-07,1.84889063e-01
-6.20842500e-07,1.84920313e-01
-6.20802500e-07,1.84854688e-01
-6.20762500e-07,1.85098438e-01
-6.20722500e-07,1.85364063e-01
-6.20682500e-07,1.85259375e-01
-6.20642500e-07,1.85331250e-01
-6.20602500e-07,1.85273437e-01
-6.20562500e-07,1.85323438e-01
-6.20522500e-07,1.85278125e-01
-6.20482500e-07,1.85321875e-01
-6.20442500e-07,1.85278125e-01
-6.20402500e-07,1.85321875e-01
-6.20362500e-07,1.85276563e-01
-6.20322500e-07,1.85326563e-01
-6.20282500e-07,1.85268750e-01
-6.20242500e-07,1.85340625e-01
-6.20202500e-07,1.85235938e-01
-6.20162500e-07,1.85517188e-01
-6.20122500e-07,1.85745313e-01
-6.20082500e-07,1.85678125e-01
-6.20042500e-07,1.85712500e-01
-6.20002500e-07,1.85692187e-01
-6.19962500e-07,1.85704688e-01
-6.19922500e-07,1.85696875e-01
-6.19882500e-07,1.85701563e-01
-6.19842500e-07,1.85700000e-01
-6.19802500e-07,1.85700000e-01
-6.19762500e-07,1.85701563e-01
-6.19722500e-07,1.85698438e-01
-6.19682500e-07,1.85701563e-01
-6.19642500e-07,1.85698438e-01
-6.19602500e-07,1.85703125e-01
-6.19562500e-07,1.85696875e-01
-6.19522500e-07,1.85703125e-01
-6.19482500e-07,1.85696875e-01
-6.19442500e-07,1.85704688e-01
-6.19402500e-07,1.85695313e-01
-6.19362500e-07,1.85704688e-01
-6.19322500e-07,1.85693750e-01
-6.19282500e-07,1.85706250e-01
-6.19242500e-07,1.85692187e-01
-6.19202500e-07,1.85707813e-01
-6.19162500e-07,1.85690625e-01
-6.19122500e-07,1.85712500e-01
-6.19082500e-07,1.85684375e-01
-6.19042500e-07,1.85720313e-01
-6.19002500e-07,1.85670313e-01
-6.18962500e-07,1.85754688e-01
-6.18922500e-07,1.85492188e-01
-6.18882500e-07,1.85245313e-01
-6.18842500e-07,1.85331250e-01
-6.18802500e-07,1.85278125e-01
-6.18762500e-07,1.85317188e-01
-6.18722500e-07,1.85284375e-01
-6.18682500e-07,1.85314063e-01
-6.18642500e-07,1.85287500e-01
-6.18602500e-07,1.85310937e-01
-6.18562500e-07,1.85289063e-01
-6.18522500e-07,1.85310937e-01
-6.18482500e-07,1.85287500e-01
-6.18442500e-07,1.85312500e-01
-6.18402500e-07,1.85285937e-01
-6.18362500e-07,1.85317188e-01
-6.18322500e-07,1.85278125e-01
-6.18282500e-07,1.85331250e-01
-6.18242500e-07,1.85243750e-01
-6.18202500e-07,1.85509375e-01
-6.18162500e-07,1.85753125e-01
-6.18122500e-07,1.85670313e-01
-6.18082500e-07,1.85720313e-01
-6.18042500e-07,1.85684375e-01
-6.18002500e-07,1.85714062e-01
-6.17962500e-07,1.85689063e-01
-6.17922500e-07,1.85710938e-01
-6.17882500e-07,1.85690625e-01
-6.17842500e-07,1.85709375e-01
-6.17802500e-07,1.85690625e-01
-6.17762500e-07,1.85707813e-01
-6.17722500e-07,1.85692187e-01
-6.17682500e-07,1.85707813e-01
-6.17642500e-07,1.85692187e-01
-6.17602500e-07,1.85707813e-01
-6.17562500e-07,1.85690625e-01
-6.17522500e-07,1.85709375e-01
-6.17482500e-07,1.85690625e-01
-6.17442500e-07,1.85710938e-01
-6.17402500e-07,1.85689063e-01
-6.17362500e-07,1.85712500e-01
-6.17322500e-07,1.85684375e-01
-6.17282500e-07,1.85717188e-01
-6.17242500e-07,1.85676563e-01
-6.17202500e-07,1.85732813e-01
-6.17162500e-07,1.85642187e-01
-6.17122500e-07,1.85910938e-01
-6.17082500e-07,1.86151563e-01
-6.17042500e-07,1.86071875e-01
-6.17002500e-07,1.86118750e-01
-6.16962500e-07,1.86085938e-01
-6.16922500e-07,1.86110938e-01
-6.16882500e-07,1.86092188e-01
-6.16842500e-07,1.86106250e-01
-6.16802500e-07,1.86093750e-01
-6.16762500e-07,1.86104688e-01
-6.16722500e-07,1.86096875e-01
-6.16682500e-07,1.86103125e-01
-6.16642500e-07,1.86098438e-01
-6.16602500e-07,1.86101563e-01
-6.16562500e-07,1.86098438e-01
-6.16522500e-07,1.86100000e-01
-6.16482500e-07,1.86100000e-01
-6.16442500e-07,1.86098438e-01
-6.16402500e-07,1.86101563e-01
-6.16362500e-07,1.86096875e-01
-6.16322500e-07,1.86104688e-01
-6.16282500e-07,1.86092188e-01
-6.16242500e-07,1.86110938e-01
-6.16202500e-07,1.86084375e-01
-6.16162500e-07,1.86125000e-01
-6.16122500e-07,1.86050000e-01
-6.16082500e-07,1.86303125e-01
-6.16042500e-07,1.86559375e-01
-6.16002500e-07,1.86464062e-01
-6.15962500e-07,1.86526562e-01
-6.15922500e-07,1.86478125e-01
-6.15882500e-07,1.86518750e-01
-6.15842500e-07,1.86482813e-01
-6.15802500e-07,1.86515625e-01
-6.15762500e-07,1.86484375e-01
-6.15722500e-07,1.86514062e-01
-6.15682500e-07,1.86485938e-01
-6.15642500e-07,1.86514062e-01
-6.15602500e-07,1.86485938e-01
-6.15562500e-07,1.86514062e-01
-6.15522500e-07,1.86485938e-01
-6.15482500e-07,1.86515625e-01
-6.15442500e-07,1.86484375e-01
-6.15402500e-07,1.86517188e-01
-6.15362500e-07,1.86481250e-01
-6.15322500e-07,1.86521875e-01
-6.15282500e-07,1.86473438e-01
-6.15242500e-07,1.86537500e-01
-6.15202500e-07,1.86439063e-01
-6.15162500e-07,1.86714062e-01
-6.15122500e-07,1.86946875e-01
-6.15082500e-07,1.86876563e-01
-6.15042500e-07,1.86914063e-01
-6.15002500e-07,1.86890625e-01
-6.14962500e-07,1.86906250e-01
-6.14922500e-07,1.86895313e-01
-6.14882500e-07,1.86903125e-01
-6.14842500e-07,1.86898438e-01
-6.14802500e-07,1.86900000e-01
-6.14762500e-07,1.86900000e-01
-6.14722500e-07,1.86898438e-01
-6.14682500e-07,1.86901563e-01
-6.14642500e-07,1.86896875e-01
-6.14602500e-07,1.86903125e-01
-6.14562500e-07,1.86896875e-01
-6.14522500e-07,1.86904687e-01
