dpa/aes_ch1_20250506140522727.csv

Model,MSO66B
Label,
Waveform Type,ANALOG
Horizontal Units,s
Sample Interval,4.00000000e-11
Record Length,25000
Zero Index,6249.03125000
Vertical Units,A
ANALOG_Thumbnail,
yOffset,1.84500000e-01
yPosition,0.00000000e+00

Labels,
TIME,CH1
-2.49961250e-07,1.93542562e-01
-2.49921250e-07,1.93553438e-01
-2.49881250e-07,1.93541656e-01
-2.49841250e-07,1.93555250e-01
-2.49801250e-07,1.93539844e-01
-2.49761250e-07,1.93557969e-01
-2.49721250e-07,1.93535313e-01
-2.49681250e-07,1.93567031e-01
-2.49641250e-07,1.93514469e-01
-2.49601250e-07,1.93669437e-01
-2.49561250e-07,1.93809906e-01
-2.49521250e-07,1.93763688e-01
-2.49481250e-07,1.93790875e-01
-2.49441250e-07,1.93771844e-01
-2.49401250e-07,1.93786344e-01
-2.49361250e-07,1.93774562e-01
-2.49321250e-07,1.93784531e-01
-2.49281250e-07,1.93776375e-01
-2.49241250e-07,1.93782719e-01
-2.49201250e-07,1.93777281e-01
-2.49161250e-07,1.93782719e-01
-2.49121250e-07,1.93778188e-01
-2.49081250e-07,1.93781812e-01
-2.49041250e-07,1.93778188e-01
-2.49001250e-07,1.93781812e-01
-2.48961250e-07,1.93779094e-01
-2.48921250e-07,1.93780906e-01
-2.48881250e-07,1.93779094e-01
-2.48841250e-07,1.93780906e-01
-2.48801250e-07,1.93779094e-01
-2.48761250e-07,1.93780906e-01
-2.48721250e-07,1.93779094e-01
-2.48681250e-07,1.93780906e-01
-2.48641250e-07,1.93779094e-01
-2.48601250e-07,1.93780906e-01
-2.48561250e-07,1.93780000e-01
-2.48521250e-07,1.93780000e-01
-2.48481250e-07,1.93780000e-01
-2.48441250e-07,1.93780000e-01
-2.48401250e-07,1.93780000e-01
-2.48361250e-07,1.93780000e-01
-2.48321250e-07,1.93780000e-01
-2.48281250e-07,1.93780000e-01
-2.48241250e-07,1.93780000e-01
-2.48201250e-07,1.93780000e-01
-2.48161250e-07,1.93780000e-01
-2.48121250e-07,1.93780000e-01
-2.48081250e-07,1.93780000e-01
-2.48041250e-07,1.93780000e-01
-2.48001250e-07,1.93780000e-01
-2.47961250e-07,1.93780000e-01
-2.47921250e-07,1.93780000e-01
-2.47881250e-07,1.93780000e-01
-2.47841250e-07,1.93780000e-01
-2.47801250e-07,1.93780000e-01
-2.47761250e-07,1.93780000e-01
-2.47721250e-07,1.93780000e-01
-2.47681250e-07,1.93780000e-01
-2.47641250e-07,1.93779094e-01
-2.47601250e-07,1.93780906e-01
-2.47561250e-07,1.93779094e-01
-2.47521250e-07,1.93780906e-01
-2.47481250e-07,1.93779094e-01
-2.47441250e-07,1.93780906e-01
-2.47401250e-07,1.93779094e-01
-2.47361250e-07,1.93780906e-01
-2.47321250e-07,1.93779094e-01
-2.47281250e-07,1.93780906e-01
-2.47241250e-07,1.93779094e-01
-2.47201250e-07,1.93780906e-01
-2.47161250e-07,1.93779094e-01
-2.47121250e-07,1.93780906e-01
-2.47081250e-07,1.93779094e-01
-2.47041250e-07,1.93780906e-01
-2.47001250e-07,1.93779094e-01
-2.46961250e-07,1.93781812e-01
-2.46921250e-07,1.93778188e-01
-2.46881250e-07,1.93781812e-01
-2.46841250e-07,1.93778188e-01
-2.46801250e-07,1.93781812e-01
-2.46761250e-07,1.93778188e-01
-2.46721250e-07,1.93781812e-01
-2.46681250e-07,1.93777281e-01
-2.46641250e-07,1.93782719e-01
-2.46601250e-07,1.93777281e-01
-2.46561250e-07,1.93782719e-01
-2.46521250e-07,1.93776375e-01
-2.46481250e-07,1.93783625e-01
-2.46441250e-07,1.93775469e-01
-2.46401250e-07,1.93784531e-01
-2.46361250e-07,1.93774562e-01
-2.46321250e-07,1.93787250e-01
-2.46281250e-07,1.93770937e-01
-2.46241250e-07,1.93791781e-01
-2.46201250e-07,1.93762781e-01
-2.46161250e-07,1.93811719e-01
-2.46121250e-07,1.93659469e-01
-2.46081250e-07,1.93516281e-01
-2.46041250e-07,1.93565219e-01
-2.46001250e-07,1.93536219e-01
-2.45961250e-07,1.93557062e-01
-2.45921250e-07,1.93540750e-01
-2.45881250e-07,1.93554344e-01
-2.45841250e-07,1.93542562e-01
-2.45801250e-07,1.93552531e-01
-2.45761250e-07,1.93543469e-01
-2.45721250e-07,1.93551625e-01
-2.45681250e-07,1.93544375e-01
-2.45641250e-07,1.93551625e-01
-2.45601250e-07,1.93545281e-01
-2.45561250e-07,1.93550719e-01
-2.45521250e-07,1.93545281e-01
-2.45481250e-07,1.93550719e-01
-2.45441250e-07,1.93545281e-01
-2.45401250e-07,1.93549813e-01
-2.45361250e-07,1.93546187e-01
-2.45321250e-07,1.93549813e-01
-2.45281250e-07,1.93546187e-01
-2.45241250e-07,1.93549813e-01
-2.45201250e-07,1.93546187e-01
-2.45161250e-07,1.93549813e-01
-2.45121250e-07,1.93546187e-01
-2.45081250e-07,1.93549813e-01
-2.45041250e-07,1.93546187e-01
-2.45001250e-07,1.93549813e-01
-2.44961250e-07,1.93547094e-01
-2.44921250e-07,1.93548906e-01
-2.44881250e-07,1.93547094e-01
-2.44841250e-07,1.93548906e-01
-2.44801250e-07,1.93547094e-01
-2.44761250e-07,1.93548906e-01
-2.44721250e-07,1.93547094e-01
-2.44681250e-07,1.93548906e-01
-2.44641250e-07,1.93547094e-01
-2.44601250e-07,1.93548906e-01
-2.44561250e-07,1.93547094e-01
-2.44521250e-07,1.93548906e-01
-2.44481250e-07,1.93547094e-01
-2.44441250e-07,1.93548000e-01
-2.44401250e-07,1.93548000e-01
-2.44361250e-07,1.93548000e-01
-2.44321250e-07,1.93548000e-01
-2.44281250e-07,1.93548000e-01
-2.44241250e-07,1.93548000e-01
-2.44201250e-07,1.93547094e-01
-2.44161250e-07,1.93548906e-01
-2.44121250e-07,1.93547094e-01
-2.44081250e-07,1.93549813e-01
-2.44041250e-07,1.93546187e-01
-2.44001250e-07,1.93550719e-01
-2.43961250e-07,1.93545281e-01
-2.43921250e-07,1.93551625e-01
-2.43881250e-07,1.93542562e-01
-2.43841250e-07,1.93555250e-01
-2.43801250e-07,1.93538031e-01
-2.43761250e-07,1.93563406e-01
-2.43721250e-07,1.93517187e-01
-2.43681250e-07,1.93667625e-01
-2.43641250e-07,1.93812625e-01
-2.43601250e-07,1.93761875e-01
-2.43561250e-07,1.93791781e-01
-2.43521250e-07,1.93772750e-01
-2.43481250e-07,1.93783625e-01
-2.43441250e-07,1.93782719e-01
-2.43401250e-07,1.93762781e-01
-2.43361250e-07,1.93886031e-01
-2.43321250e-07,1.94059125e-01
-2.43281250e-07,1.93977563e-01
-2.43241250e-07,1.94042812e-01
-2.43201250e-07,1.93981187e-01
-2.43161250e-07,1.94047344e-01
-2.43121250e-07,1.93963063e-01
-2.43081250e-07,1.94149750e-01
-2.43041250e-07,1.94257594e-01
-2.43001250e-07,1.94245813e-01
-2.42961250e-07,1.94234031e-01
-2.42921250e-07,1.94262125e-01
-2.42881250e-07,1.94209562e-01
-2.42841250e-07,1.94368156e-01
-2.42801250e-07,1.94502281e-01
-2.42761250e-07,1.94464219e-01
-2.42721250e-07,1.94480531e-01
-2.42681250e-07,1.94476000e-01
-2.42641250e-07,1.94470562e-01
-2.42601250e-07,1.94487781e-01
-2.42561250e-07,1.94448812e-01
-2.42521250e-07,1.94592906e-01
-2.42481250e-07,1.94742438e-01
-2.42441250e-07,1.94688063e-01
-2.42401250e-07,1.94722500e-01
-2.42361250e-07,1.94697125e-01
-2.42321250e-07,1.94717062e-01
-2.42281250e-07,1.94699844e-01
-2.42241250e-07,1.94715250e-01
-2.42201250e-07,1.94701656e-01
-2.42161250e-07,1.94713438e-01
-2.42121250e-07,1.94703469e-01
-2.42081250e-07,1.94712531e-01
-2.42041250e-07,1.94703469e-01
-2.42001250e-07,1.94711625e-01
-2.41961250e-07,1.94704375e-01
-2.41921250e-07,1.94711625e-01
-2.41881250e-07,1.94704375e-01
-2.41841250e-07,1.94710719e-01
-2.41801250e-07,1.94705281e-01
-2.41761250e-07,1.94710719e-01
-2.41721250e-07,1.94705281e-01
-2.41681250e-07,1.94710719e-01
-2.41641250e-07,1.94705281e-01
-2.41601250e-07,1.94710719e-01
-2.41561250e-07,1.94705281e-01
-2.41521250e-07,1.94710719e-01
-2.41481250e-07,1.94705281e-01
-2.41441250e-07,1.94710719e-01
-2.41401250e-07,1.94705281e-01
-2.41361250e-07,1.94710719e-01
-2.41321250e-07,1.94704375e-01
-2.41281250e-07,1.94711625e-01
-2.41241250e-07,1.94704375e-01
-2.41201250e-07,1.94712531e-01
-2.41161250e-07,1.94702563e-01
-2.41121250e-07,1.94714344e-01
-2.41081250e-07,1.94699844e-01
-2.41041250e-07,1.94718875e-01
-2.41001250e-07,1.94691687e-01
-2.40961250e-07,1.94738812e-01
-2.40921250e-07,1.94588375e-01
-2.40881250e-07,1.94443375e-01
-2.40841250e-07,1.94495031e-01
-2.40801250e-07,1.94462406e-01
-2.40761250e-07,1.94487781e-01
-2.40721250e-07,1.94466031e-01
-2.40681250e-07,1.94485062e-01
-2.40641250e-07,1.94467844e-01
-2.40601250e-07,1.94484156e-01
-2.40561250e-07,1.94467844e-01
-2.40521250e-07,1.94484156e-01
-2.40481250e-07,1.94467844e-01
-2.40441250e-07,1.94485062e-01
-2.40401250e-07,1.94466937e-01
-2.40361250e-07,1.94486875e-01
-2.40321250e-07,1.94464219e-01
-2.40281250e-07,1.94491406e-01
-2.40241250e-07,1.94455156e-01
-2.40201250e-07,1.94511344e-01
-2.40161250e-07,1.94351844e-01
-2.40121250e-07,1.94215906e-01
-2.40081250e-07,1.94258500e-01
-2.40041250e-07,1.94234937e-01
-2.40001250e-07,1.94249438e-01
-2.39961250e-07,1.94240375e-01
-2.39921250e-07,1.94246719e-01
-2.39881250e-07,1.94242187e-01
-2.39841250e-07,1.94244906e-01
-2.39801250e-07,1.94244000e-01
-2.39761250e-07,1.94243094e-01
-2.39721250e-07,1.94246719e-01
-2.39681250e-07,1.94240375e-01
-2.39641250e-07,1.94248531e-01
-2.39601250e-07,1.94236750e-01
-2.39561250e-07,1.94253969e-01
-2.39521250e-07,1.94227687e-01
-2.39481250e-07,1.94274813e-01
-2.39441250e-07,1.94124375e-01
-2.39401250e-07,1.93980281e-01
-2.39361250e-07,1.94029219e-01
-2.39321250e-07,1.94001125e-01
-2.39281250e-07,1.94018344e-01
-2.39241250e-07,1.94009281e-01
-2.39201250e-07,1.94008375e-01
-2.39161250e-07,1.94031031e-01
-2.39121250e-07,1.93905063e-01
-2.39081250e-07,1.93734688e-01
-2.39041250e-07,1.93812625e-01
-2.39001250e-07,1.93751000e-01
-2.38961250e-07,1.93809000e-01
-2.38921250e-07,1.93746469e-01
-2.38881250e-07,1.93827125e-01
-2.38841250e-07,1.93644062e-01
-2.38801250e-07,1.93532594e-01
-2.38761250e-07,1.93548000e-01
-2.38721250e-07,1.93556156e-01
-2.38681250e-07,1.93531687e-01
-2.38641250e-07,1.93580625e-01
-2.38601250e-07,1.93425656e-01
-2.38561250e-07,1.93287906e-01
-2.38521250e-07,1.93327781e-01
-2.38481250e-07,1.93312375e-01
-2.38441250e-07,1.93311469e-01
-2.38401250e-07,1.93335937e-01
-2.38361250e-07,1.93206344e-01
-2.38321250e-07,1.93041406e-01
-2.38281250e-07,1.93113000e-01
-2.38241250e-07,1.93059531e-01
-2.38201250e-07,1.93108469e-01
-2.38161250e-07,1.93055906e-01
-2.38121250e-07,1.93124781e-01
-2.38081250e-07,1.92955313e-01
-2.38041250e-07,1.92827531e-01
-2.38001250e-07,1.92863781e-01
-2.37961250e-07,1.92845656e-01
-2.37921250e-07,1.92856531e-01
-2.37881250e-07,1.92849281e-01
-2.37841250e-07,1.92853812e-01
-2.37801250e-07,1.92850187e-01
-2.37761250e-07,1.92852906e-01
-2.37721250e-07,1.92851094e-01
-2.37681250e-07,1.92853812e-01
-2.37641250e-07,1.92850187e-01
-2.37601250e-07,1.92854719e-01
-2.37561250e-07,1.92848375e-01
-2.37521250e-07,1.92857438e-01
-2.37481250e-07,1.92842031e-01
-2.37441250e-07,1.92875562e-01
-2.37401250e-07,1.92741438e-01
-2.37361250e-07,1.92574688e-01
-2.37321250e-07,1.92657156e-01
-2.37281250e-07,1.92573781e-01
-2.37241250e-07,1.92752312e-01
-2.37201250e-07,1.92873750e-01
-2.37161250e-07,1.92842938e-01
-2.37121250e-07,1.92856531e-01
-2.37081250e-07,1.92850187e-01
-2.37041250e-07,1.92852000e-01
-2.37001250e-07,1.92852906e-01
-2.36961250e-07,1.92851094e-01
-2.36921250e-07,1.92853812e-01
-2.36881250e-07,1.92849281e-01
-2.36841250e-07,1.92854719e-01
-2.36801250e-07,1.92848375e-01
-2.36761250e-07,1.92855625e-01
-2.36721250e-07,1.92847469e-01
-2.36681250e-07,1.92857438e-01
-2.36641250e-07,1.92845656e-01
-2.36601250e-07,1.92859250e-01
-2.36561250e-07,1.92842938e-01
-2.36521250e-07,1.92862875e-01
-2.36481250e-07,1.92837500e-01
-2.36441250e-07,1.92871938e-01
-2.36401250e-07,1.92816656e-01
-2.36361250e-07,1.92976156e-01
-2.36321250e-07,1.93111188e-01
-2.36281250e-07,1.93072219e-01
-2.36241250e-07,1.93089437e-01
-2.36201250e-07,1.93084000e-01
-2.36161250e-07,1.93079469e-01
-2.36121250e-07,1.93095781e-01
-2.36081250e-07,1.93056813e-01
-2.36041250e-07,1.93201812e-01
-2.36001250e-07,1.93349531e-01
-2.35961250e-07,1.93298781e-01
-2.35921250e-07,1.93325063e-01
-2.35881250e-07,1.93315094e-01
-2.35841250e-07,1.93301500e-01
-2.35801250e-07,1.93419312e-01
-2.35761250e-07,1.93596938e-01
-2.35721250e-07,1.93510844e-01
-2.35681250e-07,1.93584250e-01
-2.35641250e-07,1.93500875e-01
-2.35601250e-07,1.93681219e-01
-2.35561250e-07,1.93801750e-01
-2.35521250e-07,1.93769125e-01
-2.35481250e-07,1.93791781e-01
-2.35441250e-07,1.93757344e-01
-2.35401250e-07,1.93888750e-01
-2.35361250e-07,1.94058219e-01
-2.35321250e-07,1.93975750e-01
-2.35281250e-07,1.94049156e-01
-2.35241250e-07,1.93962156e-01
-2.35201250e-07,1.94149750e-01
-2.35161250e-07,1.94258500e-01
-2.35121250e-07,1.94244906e-01
-2.35081250e-07,1.94234937e-01
-2.35041250e-07,1.94261219e-01
-2.35001250e-07,1.94211375e-01
-2.34961250e-07,1.94367250e-01
-2.34921250e-07,1.94504094e-01
-2.34881250e-07,1.94462406e-01
-2.34841250e-07,1.94483250e-01
-2.34801250e-07,1.94472375e-01
-2.34761250e-07,1.94476000e-01
-2.34721250e-07,1.94478719e-01
-2.34681250e-07,1.94468750e-01
-2.34641250e-07,1.94488688e-01
-2.34601250e-07,1.94447906e-01
-2.34561250e-07,1.94592906e-01
-2.34521250e-07,1.94742438e-01
-2.34481250e-07,1.94687156e-01
-2.34441250e-07,1.94722500e-01
-2.34401250e-07,1.94696219e-01
-2.34361250e-07,1.94717969e-01
-2.34321250e-07,1.94698938e-01
-2.34281250e-07,1.94716156e-01
-2.34241250e-07,1.94700750e-01
-2.34201250e-07,1.94714344e-01
-2.34161250e-07,1.94701656e-01
-2.34121250e-07,1.94714344e-01
-2.34081250e-07,1.94702563e-01
-2.34041250e-07,1.94713438e-01
-2.34001250e-07,1.94702563e-01
-2.33961250e-07,1.94713438e-01
-2.33921250e-07,1.94702563e-01
-2.33881250e-07,1.94713438e-01
-2.33841250e-07,1.94701656e-01
-2.33801250e-07,1.94714344e-01
-2.33761250e-07,1.94701656e-01
-2.33721250e-07,1.94715250e-01
-2.33681250e-07,1.94699844e-01
-2.33641250e-07,1.94717062e-01
-2.33601250e-07,1.94697125e-01
-2.33561250e-07,1.94721594e-01
-2.33521250e-07,1.94688969e-01
-2.33481250e-07,1.94741531e-01
-2.33441250e-07,1.94585656e-01
-2.33401250e-07,1.94446094e-01
-2.33361250e-07,1.94492312e-01
-2.33321250e-07,1.94465125e-01
-2.33281250e-07,1.94483250e-01
-2.33241250e-07,1.94470562e-01
-2.33201250e-07,1.94480531e-01
-2.33161250e-07,1.94472375e-01
-2.33121250e-07,1.94478719e-01
-2.33081250e-07,1.94473281e-01
-2.33041250e-07,1.94477812e-01
-2.33001250e-07,1.94474188e-01
-2.32961250e-07,1.94476906e-01
-2.32921250e-07,1.94475094e-01
-2.32881250e-07,1.94476000e-01
-2.32841250e-07,1.94476000e-01
-2.32801250e-07,1.94476000e-01
-2.32761250e-07,1.94476906e-01
-2.32721250e-07,1.94474188e-01
-2.32681250e-07,1.94477812e-01
-2.32641250e-07,1.94473281e-01
-2.32601250e-07,1.94480531e-01
-2.32561250e-07,1.94469656e-01
-2.32521250e-07,1.94485062e-01
-2.32481250e-07,1.94461500e-01
-2.32441250e-07,1.94505000e-01
-2.32401250e-07,1.94358188e-01
-2.32361250e-07,1.94209562e-01
-2.32321250e-07,1.94264844e-01
-2.32281250e-07,1.94228594e-01
-2.32241250e-07,1.94255781e-01
-2.32201250e-07,1.94233125e-01
-2.32161250e-07,1.94253062e-01
-2.32121250e-07,1.94235844e-01
-2.32081250e-07,1.94252156e-01
-2.32041250e-07,1.94236750e-01
-2.32001250e-07,1.94251250e-01
-2.31961250e-07,1.94236750e-01
-2.31921250e-07,1.94250344e-01
-2.31881250e-07,1.94237656e-01
-2.31841250e-07,1.94250344e-01
-2.31801250e-07,1.94237656e-01
-2.31761250e-07,1.94250344e-01
-2.31721250e-07,1.94237656e-01
-2.31681250e-07,1.94250344e-01
-2.31641250e-07,1.94237656e-01
-2.31601250e-07,1.94251250e-01
-2.31561250e-07,1.94236750e-01
-2.31521250e-07,1.94251250e-01
-2.31481250e-07,1.94235844e-01
-2.31441250e-07,1.94252156e-01
-2.31401250e-07,1.94234937e-01
-2.31361250e-07,1.94253062e-01
-2.31321250e-07,1.94234031e-01
-2.31281250e-07,1.94255781e-01
-2.31241250e-07,1.94230406e-01
-2.31201250e-07,1.94260313e-01
-2.31161250e-07,1.94222250e-01
-2.31121250e-07,1.94280250e-01
-2.31081250e-07,1.94118031e-01
-2.31041250e-07,1.93985719e-01
-2.31001250e-07,1.94023781e-01
-2.30961250e-07,1.94005656e-01
-2.30921250e-07,1.94015625e-01
-2.30881250e-07,1.94011094e-01
-2.30841250e-07,1.94011094e-01
-2.30801250e-07,1.94013812e-01
-2.30761250e-07,1.94008375e-01
-2.30721250e-07,1.94017438e-01
-2.30681250e-07,1.94004750e-01
-2.30641250e-07,1.94022875e-01
-2.30601250e-07,1.93995687e-01
-2.30561250e-07,1.94043719e-01
-2.30521250e-07,1.93891469e-01
-2.30481250e-07,1.93748281e-01
-2.30441250e-07,1.93797219e-01
-2.30401250e-07,1.93768219e-01
-2.30361250e-07,1.93789062e-01
-2.30321250e-07,1.93772750e-01
-2.30281250e-07,1.93785437e-01
-2.30241250e-07,1.93775469e-01
-2.30201250e-07,1.93783625e-01
-2.30161250e-07,1.93777281e-01
-2.30121250e-07,1.93782719e-01
-2.30081250e-07,1.93778188e-01
-2.30041250e-07,1.93781812e-01
-2.30001250e-07,1.93779094e-01
-2.29961250e-07,1.93780906e-01
-2.29921250e-07,1.93780000e-01
-2.29881250e-07,1.93780000e-01
-2.29841250e-07,1.93780000e-01
-2.29801250e-07,1.93779094e-01
-2.29761250e-07,1.93780906e-01
-2.29721250e-07,1.93778188e-01
-2.29681250e-07,1.93781812e-01
-2.29641250e-07,1.93777281e-01
-2.29601250e-07,1.93783625e-01
-2.29561250e-07,1.93776375e-01
-2.29521250e-07,1.93784531e-01
-2.29481250e-07,1.93773656e-01
-2.29441250e-07,1.93788156e-01
-2.29401250e-07,1.93769125e-01
-2.29361250e-07,1.93797219e-01
-2.29321250e-07,1.93748281e-01
-2.29281250e-07,1.93900531e-01
-2.29241250e-07,1.94043719e-01
-2.29201250e-07,1.93994781e-01
-2.29161250e-07,1.94023781e-01
-2.29121250e-07,1.94002938e-01
-2.29081250e-07,1.94018344e-01
-2.29041250e-07,1.94006563e-01
-2.29001250e-07,1.94015625e-01
-2.28961250e-07,1.94009281e-01
-2.28921250e-07,1.94013812e-01
-2.28881250e-07,1.94011094e-01
-2.28841250e-07,1.94012000e-01
-2.28801250e-07,1.94012906e-01
-2.28761250e-07,1.94009281e-01
-2.28721250e-07,1.94016531e-01
-2.28681250e-07,1.94003844e-01
-2.28641250e-07,1.94025594e-01
-2.28601250e-07,1.93983906e-01
-2.28561250e-07,1.94129812e-01
-2.28521250e-07,1.94278437e-01
-2.28481250e-07,1.94224062e-01
-2.28441250e-07,1.94258500e-01
-2.28401250e-07,1.94232219e-01
-2.28361250e-07,1.94253062e-01
-2.28321250e-07,1.94235844e-01
-2.28281250e-07,1.94250344e-01
-2.28241250e-07,1.94239469e-01
-2.28201250e-07,1.94247625e-01
-2.28161250e-07,1.94243094e-01
-2.28121250e-07,1.94242187e-01
-2.28081250e-07,1.94251250e-01
-2.28041250e-07,1.94222250e-01
-2.28001250e-07,1.94354562e-01
-2.27961250e-07,1.94517688e-01
-2.27921250e-07,1.94447000e-01
-2.27881250e-07,1.94499563e-01
-2.27841250e-07,1.94454250e-01
-2.27801250e-07,1.94496844e-01
-2.27761250e-07,1.94454250e-01
-2.27721250e-07,1.94499563e-01
-2.27681250e-07,1.94447000e-01
-2.27641250e-07,1.94518594e-01
-2.27601250e-07,1.94344594e-01
-2.27561250e-07,1.94223156e-01
-2.27521250e-07,1.94250344e-01
-2.27481250e-07,1.94243094e-01
-2.27441250e-07,1.94241281e-01
-2.27401250e-07,1.94249438e-01
-2.27361250e-07,1.94236750e-01
-2.27321250e-07,1.94254875e-01
-2.27281250e-07,1.94226781e-01
-2.27241250e-07,1.94275719e-01
-2.27201250e-07,1.94124375e-01
-2.27161250e-07,1.93979375e-01
-2.27121250e-07,1.94031938e-01
-2.27081250e-07,1.93996594e-01
-2.27041250e-07,1.94027406e-01
-2.27001250e-07,1.93993875e-01
-2.26961250e-07,1.94042812e-01
-2.26921250e-07,1.93894188e-01
-2.26881250e-07,1.93744656e-01
-2.26841250e-07,1.93803562e-01
-2.26801250e-07,1.93760062e-01
-2.26761250e-07,1.93800844e-01
-2.26721250e-07,1.93755531e-01
-2.26681250e-07,1.93818062e-01
-2.26641250e-07,1.93653125e-01
-2.26601250e-07,1.93521719e-01
-2.26561250e-07,1.93560687e-01
-2.26521250e-07,1.93540750e-01
-2.26481250e-07,1.93552531e-01
-2.26441250e-07,1.93545281e-01
-2.26401250e-07,1.93549813e-01
-2.26361250e-07,1.93547094e-01
-2.26321250e-07,1.93548000e-01
-2.26281250e-07,1.93548906e-01
-2.26241250e-07,1.93546187e-01
-2.26201250e-07,1.93549813e-01
-2.26161250e-07,1.93545281e-01
-2.26121250e-07,1.93551625e-01
-2.26081250e-07,1.93543469e-01
-2.26041250e-07,1.93554344e-01
-2.26001250e-07,1.93538938e-01
-2.25961250e-07,1.93562500e-01
-2.25921250e-07,1.93519906e-01
-2.25881250e-07,1.93664906e-01
-2.25841250e-07,1.93816250e-01
-2.25801250e-07,1.93756437e-01
-2.25761250e-07,1.93799937e-01
-2.25721250e-07,1.93759156e-01
-2.25681250e-07,1.93804469e-01
-2.25641250e-07,1.93741937e-01
-2.25601250e-07,1.93906875e-01
-2.25561250e-07,1.94037375e-01
-2.25521250e-07,1.94001125e-01
-2.25481250e-07,1.94015625e-01
-2.25441250e-07,1.94016531e-01
-2.25401250e-07,1.93992063e-01
-2.25361250e-07,1.94120750e-01
-2.25321250e-07,1.94288406e-01
-2.25281250e-07,1.94213187e-01
-2.25241250e-07,1.94271187e-01
-2.25201250e-07,1.94216813e-01
-2.25161250e-07,1.94275719e-01
-2.25121250e-07,1.94198687e-01
-2.25081250e-07,1.94377219e-01
-2.25041250e-07,1.94495031e-01
-2.25001250e-07,1.94470562e-01
-2.24961250e-07,1.94476000e-01
-2.24921250e-07,1.94479625e-01
-2.24881250e-07,1.94469656e-01
-2.24841250e-07,1.94485062e-01
-2.24801250e-07,1.94462406e-01
-2.24761250e-07,1.94495031e-01
-2.24721250e-07,1.94441562e-01
-2.24681250e-07,1.94599250e-01
-2.24641250e-07,1.94736094e-01
-2.24601250e-07,1.94694406e-01
-2.24561250e-07,1.94716156e-01
-2.24521250e-07,1.94703469e-01
