dpa/aes_ch1_20250506140540306.csv

Model,MSO66B
Label,
Waveform Type,ANALOG
Horizontal Units,s
Sample Interval,4.00000000e-11
Record Length,100000
Zero Index,24999.03125000
Vertical Units,A
ANALOG_Thumbnail,
yOffset,1.84500000e-01
yPosition,0.00000000e+00

Labels,
TIME,CH1
-9.99961250e-07,1.90288219e-01
-9.99921250e-07,1.90309062e-01
-9.99881250e-07,1.90291844e-01
-9.99841250e-07,1.90308156e-01
-9.99801250e-07,1.90290938e-01
-9.99761250e-07,1.90311781e-01
-9.99721250e-07,1.90283687e-01
-9.99681250e-07,1.90330813e-01
-9.99641250e-07,1.90181281e-01
-9.99601250e-07,1.90034469e-01
-9.99561250e-07,1.90087937e-01
-9.99521250e-07,1.90053500e-01
-9.99481250e-07,1.90079781e-01
-9.99441250e-07,1.90058031e-01
-9.99401250e-07,1.90077063e-01
-9.99361250e-07,1.90058937e-01
-9.99321250e-07,1.90076156e-01
-9.99281250e-07,1.90059844e-01
-9.99241250e-07,1.90076156e-01
-9.99201250e-07,1.90060750e-01
-9.99161250e-07,1.90076156e-01
-9.99121250e-07,1.90059844e-01
-9.99081250e-07,1.90076156e-01
-9.99041250e-07,1.90059844e-01
-9.99001250e-07,1.90077063e-01
-9.98961250e-07,1.90058031e-01
-9.98921250e-07,1.90079781e-01
-9.98881250e-07,1.90053500e-01
-9.98841250e-07,1.90087937e-01
-9.98801250e-07,1.90034469e-01
-9.98761250e-07,1.90190344e-01
-9.98721250e-07,1.90330813e-01
-9.98681250e-07,1.90282781e-01
-9.98641250e-07,1.90312687e-01
-9.98601250e-07,1.90289125e-01
-9.98561250e-07,1.90310875e-01
-9.98521250e-07,1.90288219e-01
-9.98481250e-07,1.90316313e-01
-9.98441250e-07,1.90270094e-01
-9.98401250e-07,1.90417813e-01
-9.98361250e-07,1.90567344e-01
-9.98321250e-07,1.90509344e-01
-9.98281250e-07,1.90551031e-01
-9.98241250e-07,1.90512969e-01
-9.98201250e-07,1.90554656e-01
-9.98161250e-07,1.90496656e-01
-9.98121250e-07,1.90655250e-01
-9.98081250e-07,1.90794812e-01
-9.98041250e-07,1.90745875e-01
-9.98001250e-07,1.90779406e-01
-9.97961250e-07,1.90748594e-01
-9.97921250e-07,1.90783031e-01
-9.97881250e-07,1.90731375e-01
-9.97841250e-07,1.90884531e-01
-9.97801250e-07,1.91027719e-01
-9.97761250e-07,1.90977875e-01
-9.97721250e-07,1.91009594e-01
-9.97681250e-07,1.90985125e-01
-9.97641250e-07,1.91005062e-01
-9.97601250e-07,1.90987844e-01
-9.97561250e-07,1.91003250e-01
-9.97521250e-07,1.90988750e-01
-9.97481250e-07,1.91002344e-01
-9.97441250e-07,1.90989656e-01
-9.97401250e-07,1.91002344e-01
-9.97361250e-07,1.90990562e-01
-9.97321250e-07,1.91001438e-01
-9.97281250e-07,1.90990562e-01
-9.97241250e-07,1.91001438e-01
-9.97201250e-07,1.90991469e-01
-9.97161250e-07,1.91000531e-01
-9.97121250e-07,1.90991469e-01
-9.97081250e-07,1.90999625e-01
-9.97041250e-07,1.90993281e-01
-9.97001250e-07,1.90997813e-01
-9.96961250e-07,1.90996906e-01
-9.96921250e-07,1.90989656e-01
-9.96881250e-07,1.91015938e-01
-9.96841250e-07,1.90888156e-01
-9.96801250e-07,1.90717781e-01
-9.96761250e-07,1.90797531e-01
-9.96721250e-07,1.90733187e-01
-9.96681250e-07,1.90794812e-01
-9.96641250e-07,1.90728656e-01
-9.96601250e-07,1.90813844e-01
-9.96561250e-07,1.90625344e-01
-9.96521250e-07,1.90519313e-01
-9.96481250e-07,1.90529281e-01
-9.96441250e-07,1.90543781e-01
-9.96401250e-07,1.90511156e-01
-9.96361250e-07,1.90569156e-01
-9.96321250e-07,1.90404219e-01
-9.96281250e-07,1.90277344e-01
-9.96241250e-07,1.90306344e-01
-9.96201250e-07,1.90302719e-01
-9.96161250e-07,1.90288219e-01
-9.96121250e-07,1.90329000e-01
-9.96081250e-07,1.90180375e-01
-9.96041250e-07,1.90037188e-01
-9.96001250e-07,1.90083406e-01
-9.95961250e-07,1.90059844e-01
-9.95921250e-07,1.90071625e-01
-9.95881250e-07,1.90069812e-01
-9.95841250e-07,1.90058937e-01
-9.95801250e-07,1.90092469e-01
-9.95761250e-07,1.89954719e-01
-9.95721250e-07,1.89797937e-01
-9.95681250e-07,1.89859562e-01
-9.95641250e-07,1.89817875e-01
-9.95601250e-07,1.89850500e-01
-9.95561250e-07,1.89823313e-01
-9.95521250e-07,1.89847781e-01
-9.95481250e-07,1.89825125e-01
-9.95441250e-07,1.89846875e-01
-9.95401250e-07,1.89825125e-01
-9.95361250e-07,1.89847781e-01
-9.95321250e-07,1.89821500e-01
-9.95281250e-07,1.89855031e-01
-9.95241250e-07,1.89803375e-01
-9.95201250e-07,1.89956531e-01
-9.95161250e-07,1.90100625e-01
-9.95121250e-07,1.90047156e-01
-9.95081250e-07,1.90085219e-01
-9.95041250e-07,1.90049875e-01
-9.95001250e-07,1.90089750e-01
-9.94961250e-07,1.90031750e-01
-9.94921250e-07,1.90192156e-01
-9.94881250e-07,1.90327187e-01
-9.94841250e-07,1.90287312e-01
-9.94801250e-07,1.90305438e-01
-9.94761250e-07,1.90301813e-01
-9.94721250e-07,1.90282781e-01
-9.94681250e-07,1.90405125e-01
-9.94641250e-07,1.90580031e-01
-9.94601250e-07,1.90494844e-01
-9.94561250e-07,1.90569156e-01
-9.94521250e-07,1.90483062e-01
-9.94481250e-07,1.90668844e-01
-9.94441250e-07,1.90779406e-01
-9.94401250e-07,1.90763094e-01
-9.94361250e-07,1.90757656e-01
-9.94321250e-07,1.90778500e-01
-9.94281250e-07,1.90734094e-01
-9.94241250e-07,1.90883625e-01
-9.94201250e-07,1.91027719e-01
-9.94161250e-07,1.90977875e-01
-9.94121250e-07,1.91007781e-01
-9.94081250e-07,1.90986938e-01
-9.94041250e-07,1.91003250e-01
-9.94001250e-07,1.90990562e-01
-9.93961250e-07,1.91000531e-01
-9.93921250e-07,1.90992375e-01
-9.93881250e-07,1.90999625e-01
-9.93841250e-07,1.90993281e-01
-9.93801250e-07,1.90997813e-01
-9.93761250e-07,1.90994187e-01
-9.93721250e-07,1.90997813e-01
-9.93681250e-07,1.90995094e-01
-9.93641250e-07,1.90996906e-01
-9.93601250e-07,1.90996000e-01
-9.93561250e-07,1.90995094e-01
-9.93521250e-07,1.90997813e-01
-9.93481250e-07,1.90993281e-01
-9.93441250e-07,1.90999625e-01
-9.93401250e-07,1.90990562e-01
-9.93361250e-07,1.91005062e-01
-9.93321250e-07,1.90981500e-01
-9.93281250e-07,1.91025000e-01
-9.93241250e-07,1.90878187e-01
-9.93201250e-07,1.90730469e-01
-9.93161250e-07,1.90783031e-01
-9.93121250e-07,1.90751312e-01
-9.93081250e-07,1.90773063e-01
-9.93041250e-07,1.90759469e-01
-9.93001250e-07,1.90762187e-01
-9.92961250e-07,1.90780312e-01
-9.92921250e-07,1.90658875e-01
-9.92881250e-07,1.90483969e-01
-9.92841250e-07,1.90567344e-01
-9.92801250e-07,1.90500281e-01
-9.92761250e-07,1.90563719e-01
-9.92721250e-07,1.90495750e-01
-9.92681250e-07,1.90581844e-01
-9.92641250e-07,1.90394250e-01
-9.92601250e-07,1.90286406e-01
-9.92561250e-07,1.90300000e-01
-9.92521250e-07,1.90306344e-01
-9.92481250e-07,1.90289125e-01
-9.92441250e-07,1.90316313e-01
-9.92401250e-07,1.90277344e-01
-9.92361250e-07,1.90338062e-01
-9.92321250e-07,1.90171312e-01
-9.92281250e-07,1.90045344e-01
-9.92241250e-07,1.90075250e-01
-9.92201250e-07,1.90068000e-01
-9.92161250e-07,1.90063469e-01
-9.92121250e-07,1.90077969e-01
-9.92081250e-07,1.90050781e-01
-9.92041250e-07,1.90100625e-01
-9.92001250e-07,1.89944750e-01
-9.91961250e-07,1.89807906e-01
-9.91921250e-07,1.89848688e-01
-9.91881250e-07,1.89830562e-01
-9.91841250e-07,1.89836000e-01
-9.91801250e-07,1.89840531e-01
-9.91761250e-07,1.89824219e-01
-9.91721250e-07,1.89864094e-01
-9.91681250e-07,1.89718187e-01
-9.91641250e-07,1.89571375e-01
-9.91601250e-07,1.89622125e-01
-9.91561250e-07,1.89593125e-01
-9.91521250e-07,1.89609438e-01
-9.91481250e-07,1.89603094e-01
-9.91441250e-07,1.89597656e-01
-9.91401250e-07,1.89625750e-01
-9.91361250e-07,1.89493438e-01
-9.91321250e-07,1.89331219e-01
-9.91281250e-07,1.89398281e-01
-9.91241250e-07,1.89351156e-01
-9.91201250e-07,1.89389219e-01
-9.91161250e-07,1.89356594e-01
-9.91121250e-07,1.89386500e-01
-9.91081250e-07,1.89358406e-01
-9.91041250e-07,1.89385594e-01
-9.91001250e-07,1.89359312e-01
-9.90961250e-07,1.89384688e-01
-9.90921250e-07,1.89358406e-01
-9.90881250e-07,1.89385594e-01
-9.90841250e-07,1.89356594e-01
-9.90801250e-07,1.89388312e-01
-9.90761250e-07,1.89352063e-01
-9.90721250e-07,1.89397375e-01
-9.90681250e-07,1.89332125e-01
-9.90641250e-07,1.89501594e-01
-9.90601250e-07,1.89625750e-01
-9.90561250e-07,1.89597656e-01
-9.90521250e-07,1.89603094e-01
-9.90481250e-07,1.89613062e-01
-9.90441250e-07,1.89579531e-01
-9.90401250e-07,1.89717281e-01
-9.90361250e-07,1.89874969e-01
-9.90321250e-07,1.89808813e-01
-9.90281250e-07,1.89862281e-01
-9.90241250e-07,1.89799750e-01
-9.90201250e-07,1.89958344e-01
-9.90161250e-07,1.90101531e-01
-9.90121250e-07,1.90044437e-01
-9.90081250e-07,1.90093375e-01
-9.90041250e-07,1.90029937e-01
-9.90001250e-07,1.90194875e-01
-9.89961250e-07,1.90323562e-01
-9.89921250e-07,1.90294562e-01
-9.89881250e-07,1.90287312e-01
-9.89841250e-07,1.90402406e-01
-9.89801250e-07,1.90581844e-01
-9.89761250e-07,1.90493937e-01
-9.89721250e-07,1.90570062e-01
-9.89681250e-07,1.90482156e-01
-9.89641250e-07,1.90669750e-01
-9.89601250e-07,1.90778500e-01
-9.89561250e-07,1.90764000e-01
-9.89521250e-07,1.90756750e-01
-9.89481250e-07,1.90778500e-01
-9.89441250e-07,1.90733187e-01
-9.89401250e-07,1.90883625e-01
-9.89361250e-07,1.91027719e-01
-9.89321250e-07,1.90978781e-01
-9.89281250e-07,1.91007781e-01
-9.89241250e-07,1.90986938e-01
-9.89201250e-07,1.91003250e-01
-9.89161250e-07,1.90989656e-01
-9.89121250e-07,1.91001438e-01
-9.89081250e-07,1.90991469e-01
-9.89041250e-07,1.91000531e-01
-9.89001250e-07,1.90991469e-01
-9.88961250e-07,1.90999625e-01
-9.88921250e-07,1.90991469e-01
-9.88881250e-07,1.91000531e-01
-9.88841250e-07,1.90991469e-01
-9.88801250e-07,1.91001438e-01
-9.88761250e-07,1.90988750e-01
-9.88721250e-07,1.91005969e-01
-9.88681250e-07,1.90980594e-01
-9.88641250e-07,1.91025000e-01
-9.88601250e-07,1.90878187e-01
-9.88561250e-07,1.90728656e-01
-9.88521250e-07,1.90785750e-01
-9.88481250e-07,1.90746781e-01
-9.88441250e-07,1.90779406e-01
-9.88401250e-07,1.90749500e-01
-9.88361250e-07,1.90778500e-01
-9.88321250e-07,1.90748594e-01
-9.88281250e-07,1.90782125e-01
-9.88241250e-07,1.90740437e-01
-9.88201250e-07,1.90801156e-01
-9.88161250e-07,1.90638031e-01
-9.88121250e-07,1.90505719e-01
-9.88081250e-07,1.90544688e-01
-9.88041250e-07,1.90524750e-01
-9.88001250e-07,1.90536531e-01
-9.87961250e-07,1.90530188e-01
-9.87921250e-07,1.90532906e-01
-9.87881250e-07,1.90532000e-01
-9.87841250e-07,1.90531094e-01
-9.87801250e-07,1.90533813e-01
-9.87761250e-07,1.90529281e-01
-9.87721250e-07,1.90534719e-01
-9.87681250e-07,1.90528375e-01
-9.87641250e-07,1.90536531e-01
-9.87601250e-07,1.90526562e-01
-9.87561250e-07,1.90539250e-01
-9.87521250e-07,1.90523844e-01
-9.87481250e-07,1.90542875e-01
-9.87441250e-07,1.90518406e-01
-9.87401250e-07,1.90551937e-01
-9.87361250e-07,1.90497562e-01
-9.87321250e-07,1.90656156e-01
-9.87281250e-07,1.90792094e-01
-9.87241250e-07,1.90750406e-01
-9.87201250e-07,1.90771250e-01
-9.87161250e-07,1.90761281e-01
-9.87121250e-07,1.90764000e-01
-9.87081250e-07,1.90767625e-01
-9.87041250e-07,1.90756750e-01
-9.87001250e-07,1.90777594e-01
-9.86961250e-07,1.90735000e-01
-9.86921250e-07,1.90882719e-01
-9.86881250e-07,1.91028625e-01
-9.86841250e-07,1.90978781e-01
-9.86801250e-07,1.91006875e-01
-9.86761250e-07,1.90989656e-01
-9.86721250e-07,1.90997813e-01
-9.86681250e-07,1.91001438e-01
-9.86641250e-07,1.90975156e-01
-9.86601250e-07,1.91105656e-01
-9.86561250e-07,1.91269688e-01
-9.86521250e-07,1.91199906e-01
-9.86481250e-07,1.91250656e-01
-9.86441250e-07,1.91208062e-01
-9.86401250e-07,1.91247031e-01
-9.86361250e-07,1.91209875e-01
-9.86321250e-07,1.91247031e-01
-9.86281250e-07,1.91207156e-01
-9.86241250e-07,1.91254281e-01
-9.86201250e-07,1.91188125e-01
-9.86161250e-07,1.91356687e-01
-9.86121250e-07,1.91484469e-01
-9.86081250e-07,1.91449125e-01
-9.86041250e-07,1.91465438e-01
-9.86001250e-07,1.91457281e-01
-9.85961250e-07,1.91461812e-01
-9.85921250e-07,1.91459094e-01
-9.85881250e-07,1.91460000e-01
-9.85841250e-07,1.91460906e-01
-9.85801250e-07,1.91459094e-01
-9.85761250e-07,1.91460906e-01
-9.85721250e-07,1.91459094e-01
-9.85681250e-07,1.91461812e-01
-9.85641250e-07,1.91458187e-01
-9.85601250e-07,1.91461812e-01
-9.85561250e-07,1.91458187e-01
-9.85521250e-07,1.91461812e-01
-9.85481250e-07,1.91458187e-01
-9.85441250e-07,1.91461812e-01
-9.85401250e-07,1.91458187e-01
-9.85361250e-07,1.91461812e-01
-9.85321250e-07,1.91458187e-01
-9.85281250e-07,1.91461812e-01
-9.85241250e-07,1.91458187e-01
-9.85201250e-07,1.91461812e-01
-9.85161250e-07,1.91458187e-01
-9.85121250e-07,1.91461812e-01
-9.85081250e-07,1.91458187e-01
-9.85041250e-07,1.91461812e-01
-9.85001250e-07,1.91458187e-01
-9.84961250e-07,1.91461812e-01
-9.84921250e-07,1.91458187e-01
-9.84881250e-07,1.91461812e-01
-9.84841250e-07,1.91458187e-01
-9.84801250e-07,1.91461812e-01
-9.84761250e-07,1.91458187e-01
-9.84721250e-07,1.91461812e-01
-9.84681250e-07,1.91458187e-01
-9.84641250e-07,1.91461812e-01
-9.84601250e-07,1.91459094e-01
-9.84561250e-07,1.91460906e-01
-9.84521250e-07,1.91459094e-01
-9.84481250e-07,1.91460906e-01
-9.84441250e-07,1.91459094e-01
-9.84401250e-07,1.91460906e-01
-9.84361250e-07,1.91459094e-01
-9.84321250e-07,1.91460906e-01
-9.84281250e-07,1.91459094e-01
-9.84241250e-07,1.91460906e-01
-9.84201250e-07,1.91459094e-01
-9.84161250e-07,1.91460906e-01
-9.84121250e-07,1.91459094e-01
-9.84081250e-07,1.91460906e-01
-9.84041250e-07,1.91459094e-01
-9.84001250e-07,1.91460906e-01
-9.83961250e-07,1.91460000e-01
-9.83921250e-07,1.91460000e-01
-9.83881250e-07,1.91460000e-01
-9.83841250e-07,1.91460000e-01
-9.83801250e-07,1.91460000e-01
-9.83761250e-07,1.91460000e-01
-9.83721250e-07,1.91460906e-01
-9.83681250e-07,1.91459094e-01
-9.83641250e-07,1.91460906e-01
-9.83601250e-07,1.91458187e-01
-9.83561250e-07,1.91461812e-01
-9.83521250e-07,1.91457281e-01
-9.83481250e-07,1.91463625e-01
-9.83441250e-07,1.91455469e-01
-9.83401250e-07,1.91467250e-01
-9.83361250e-07,1.91450031e-01
-9.83321250e-07,1.91475406e-01
-9.83281250e-07,1.91430094e-01
-9.83241250e-07,1.91578719e-01
-9.83201250e-07,1.91725531e-01
-9.83161250e-07,1.91672969e-01
-9.83121250e-07,1.91705594e-01
-9.83081250e-07,1.91681125e-01
-9.83041250e-07,1.91701062e-01
-9.83001250e-07,1.91684750e-01
-9.82961250e-07,1.91698344e-01
-9.82921250e-07,1.91686562e-01
-9.82881250e-07,1.91696531e-01
-9.82841250e-07,1.91688375e-01
-9.82801250e-07,1.91693813e-01
-9.82761250e-07,1.91692000e-01
-9.82721250e-07,1.91689281e-01
-9.82681250e-07,1.91700156e-01
-9.82641250e-07,1.91669344e-01
-9.82601250e-07,1.91803469e-01
-9.82561250e-07,1.91964781e-01
-9.82521250e-07,1.91896812e-01
-9.82481250e-07,1.91946656e-01
-9.82441250e-07,1.91904062e-01
-9.82401250e-07,1.91943031e-01
-9.82361250e-07,1.91904969e-01
-9.82321250e-07,1.91943937e-01
-9.82281250e-07,1.91903156e-01
-9.82241250e-07,1.91947563e-01
-9.82201250e-07,1.91895000e-01
-9.82161250e-07,1.91967500e-01
-9.82121250e-07,1.91791688e-01
-9.82081250e-07,1.91672062e-01
-9.82041250e-07,1.91697437e-01
-9.82001250e-07,1.91692000e-01
-9.81961250e-07,1.91688375e-01
-9.81921250e-07,1.91698344e-01
-9.81881250e-07,1.91682937e-01
-9.81841250e-07,1.91704687e-01
-9.81801250e-07,1.91672969e-01
-9.81761250e-07,1.91725531e-01
-9.81721250e-07,1.91569656e-01
-9.81681250e-07,1.91429187e-01
-9.81641250e-07,1.91479031e-01
-9.81601250e-07,1.91441875e-01
-9.81561250e-07,1.91488094e-01
-9.81521250e-07,1.91346719e-01
-9.81481250e-07,1.91184500e-01
-9.81441250e-07,1.91262437e-01
-9.81401250e-07,1.91191750e-01
-9.81361250e-07,1.91277844e-01
-9.81321250e-07,1.91087531e-01
-9.81281250e-07,1.90986938e-01
-9.81241250e-07,1.90985125e-01
-9.81201250e-07,1.91027719e-01
-9.81161250e-07,1.90870938e-01
-9.81121250e-07,1.90742250e-01
-9.81081250e-07,1.90764906e-01
-9.81041250e-07,1.90784844e-01
-9.81001250e-07,1.90648906e-01
-9.80961250e-07,1.90499375e-01
-9.80921250e-07,1.90544688e-01
-9.80881250e-07,1.90540156e-01
-9.80841250e-07,1.90432313e-01
-9.80801250e-07,1.90248344e-01
-9.80761250e-07,1.90338969e-01
-9.80721250e-07,1.90262844e-01
-9.80681250e-07,1.90347125e-01
-9.80641250e-07,1.90167687e-01
-9.80601250e-07,1.90044437e-01
-9.80561250e-07,1.90081594e-01
-9.80521250e-07,1.90053500e-01
-9.80481250e-07,1.90094281e-01
-9.80441250e-07,1.89953812e-01
-9.80401250e-07,1.89796125e-01
-9.80361250e-07,1.89863188e-01
-9.80321250e-07,1.89812437e-01
-9.80281250e-07,1.89859562e-01
-9.80241250e-07,1.89807906e-01
-9.80201250e-07,1.89876781e-01
-9.80161250e-07,1.89707313e-01
-9.80121250e-07,1.89580438e-01
-9.80081250e-07,1.89614875e-01
-9.80041250e-07,1.89598562e-01
-9.80001250e-07,1.89606719e-01
-9.79961250e-07,1.89602187e-01
-9.79921250e-07,1.89604906e-01
-9.79881250e-07,1.89604000e-01
-9.79841250e-07,1.89604000e-01
-9.79801250e-07,1.89604906e-01
-9.79761250e-07,1.89603094e-01
-9.79721250e-07,1.89604906e-01
-9.79681250e-07,1.89603094e-01
-9.79641250e-07,1.89604906e-01
-9.79601250e-07,1.89603094e-01
-9.79561250e-07,1.89604906e-01
-9.79521250e-07,1.89603094e-01
-9.79481250e-07,1.89604906e-01
-9.79441250e-07,1.89603094e-01
-9.79401250e-07,1.89604906e-01
-9.79361250e-07,1.89603094e-01
-9.79321250e-07,1.89604906e-01
-9.79281250e-07,1.89602187e-01
-9.79241250e-07,1.89604906e-01
-9.79201250e-07,1.89603094e-01
-9.79161250e-07,1.89605812e-01
-9.79121250e-07,1.89603094e-01
-9.79081250e-07,1.89605812e-01
-9.79041250e-07,1.89602187e-01
-9.79001250e-07,1.89605812e-01
-9.78961250e-07,1.89602187e-01
-9.78921250e-07,1.89604906e-01
-9.78881250e-07,1.89602187e-01
-9.78841250e-07,1.89605812e-01
-9.78801250e-07,1.89602187e-01
-9.78761250e-07,1.89605812e-01
-9.78721250e-07,1.89602187e-01
-9.78681250e-07,1.89605812e-01
-9.78641250e-07,1.89602187e-01
-9.78601250e-07,1.89605812e-01
-9.78561250e-07,1.89602187e-01
-9.78521250e-07,1.89605812e-01
-9.78481250e-07,1.89602187e-01
-9.78441250e-07,1.89605812e-01
-9.78401250e-07,1.89602187e-01
-9.78361250e-07,1.89605812e-01
-9.78321250e-07,1.89602187e-01
-9.78281250e-07,1.89605812e-01
-9.78241250e-07,1.89602187e-01
-9.78201250e-07,1.89606719e-01
-9.78161250e-07,1.89601281e-01
-9.78121250e-07,1.89606719e-01
-9.78081250e-07,1.89600375e-01
-9.78041250e-07,1.89607625e-01
-9.78001250e-07,1.89599469e-01
-9.77961250e-07,1.89609438e-01
-9.77921250e-07,1.89596750e-01
-9.77881250e-07,1.89613969e-01
-9.77841250e-07,1.89588594e-01
-9.77801250e-07,1.89633906e-01
-9.77761250e-07,1.89485281e-01
-9.77721250e-07,1.89337563e-01
-9.77681250e-07,1.89392844e-01
-9.77641250e-07,1.89356594e-01
-9.77601250e-07,1.89384688e-01
-9.77561250e-07,1.89360219e-01
-9.77521250e-07,1.89383781e-01
-9.77481250e-07,1.89360219e-01
-9.77441250e-07,1.89383781e-01
-9.77401250e-07,1.89358406e-01
-9.77361250e-07,1.89388312e-01
-9.77321250e-07,1.89350250e-01
-9.77281250e-07,1.89408250e-01
-9.77241250e-07,1.89247844e-01
-9.77201250e-07,1.89112813e-01
-9.77161250e-07,1.89153594e-01
-9.77121250e-07,1.89131844e-01
-9.77081250e-07,1.89145437e-01
-9.77041250e-07,1.89137281e-01
-9.77001250e-07,1.89141813e-01
-9.76961250e-07,1.89140000e-01
-9.76921250e-07,1.89139094e-01
-9.76881250e-07,1.89142719e-01
-9.76841250e-07,1.89135469e-01
-9.76801250e-07,1.89148156e-01
-9.76761250e-07,1.89126406e-01
-9.76721250e-07,1.89168094e-01
-9.76681250e-07,1.89023094e-01
-9.76641250e-07,1.88873563e-01
-9.76601250e-07,1.88928844e-01
-9.76561250e-07,1.88892594e-01
-9.76521250e-07,1.88920687e-01
-9.76481250e-07,1.88897125e-01
-9.76441250e-07,1.88917969e-01
-9.76401250e-07,1.88898938e-01
-9.76361250e-07,1.88917063e-01
-9.76321250e-07,1.88899844e-01
-9.76281250e-07,1.88916156e-01
-9.76241250e-07,1.88898938e-01
-9.76201250e-07,1.88917063e-01
-9.76161250e-07,1.88898031e-01
-9.76121250e-07,1.88918875e-01
-9.76081250e-07,1.88894406e-01
-9.76041250e-07,1.88927031e-01
-9.76001250e-07,1.88875375e-01
-9.75961250e-07,1.89029438e-01
-9.75921250e-07,1.89171719e-01
-9.75881250e-07,1.89120969e-01
-9.75841250e-07,1.89154500e-01
-9.75801250e-07,1.89127313e-01
-9.75761250e-07,1.89152687e-01
-9.75721250e-07,1.89124594e-01
-9.75681250e-07,1.89159937e-01
-9.75641250e-07,1.89105562e-01
-9.75601250e-07,1.89263250e-01
-9.75561250e-07,1.89400094e-01
-9.75521250e-07,1.89358406e-01
-9.75481250e-07,1.89378344e-01
-9.75441250e-07,1.89373812e-01
-9.75401250e-07,1.89354781e-01
-9.75361250e-07,1.89477125e-01
-9.75321250e-07,1.89652031e-01
-9.75281250e-07,1.89567750e-01
-9.75241250e-07,1.89639344e-01
-9.75201250e-07,1.89557781e-01
-9.75161250e-07,1.89737219e-01
-9.75121250e-07,1.89857750e-01
-9.75081250e-07,1.89825125e-01
-9.75041250e-07,1.89846875e-01
-9.75001250e-07,1.89814250e-01
-9.74961250e-07,1.89942937e-01
-9.74921250e-07,1.90116031e-01
-9.74881250e-07,1.90029031e-01
-9.74841250e-07,1.90107875e-01
-9.74801250e-07,1.90014531e-01
-9.74761250e-07,1.90211187e-01
-9.74721250e-07,1.90306344e-01
-9.74681250e-07,1.90312687e-01
-9.74641250e-07,1.90267375e-01
-9.74601250e-07,1.90425062e-01
-9.74561250e-07,1.90556469e-01
-9.74521250e-07,1.90524750e-01
