dpa/aes_ch1_20250506140555278.csv

Model,MSO66B
Label,
Waveform Type,ANALOG
Horizontal Units,s
Sample Interval,4.00000000e-11
Record Length,100000
Zero Index,15999.03125000
Vertical Units,A
ANALOG_Thumbnail,
yOffset,1.84500000e-01
yPosition,0.00000000e+00

Labels,
TIME,CH1
-6.39961250e-07,1.76373656e-01
-6.39921250e-07,1.76386344e-01
-6.39881250e-07,1.76373656e-01
-6.39841250e-07,1.76387250e-01
-6.39801250e-07,1.76372750e-01
-6.39761250e-07,1.76387250e-01
-6.39721250e-07,1.76371844e-01
-6.39681250e-07,1.76388156e-01
-6.39641250e-07,1.76370937e-01
-6.39601250e-07,1.76389969e-01
-6.39561250e-07,1.76368219e-01
-6.39521250e-07,1.76395406e-01
-6.39481250e-07,1.76359156e-01
-6.39441250e-07,1.76415344e-01
-6.39401250e-07,1.76255844e-01
-6.39361250e-07,1.76119906e-01
-6.39321250e-07,1.76162500e-01
-6.39281250e-07,1.76138938e-01
-6.39241250e-07,1.76154344e-01
-6.39201250e-07,1.76143469e-01
-6.39161250e-07,1.76151625e-01
-6.39121250e-07,1.76145281e-01
-6.39081250e-07,1.76149813e-01
-6.39041250e-07,1.76146187e-01
-6.39001250e-07,1.76148906e-01
-6.38961250e-07,1.76147094e-01
-6.38921250e-07,1.76148906e-01
-6.38881250e-07,1.76148000e-01
-6.38841250e-07,1.76148000e-01
-6.38801250e-07,1.76148000e-01
-6.38761250e-07,1.76148000e-01
-6.38721250e-07,1.76148000e-01
-6.38681250e-07,1.76147094e-01
-6.38641250e-07,1.76148906e-01
-6.38601250e-07,1.76147094e-01
-6.38561250e-07,1.76148906e-01
-6.38521250e-07,1.76147094e-01
-6.38481250e-07,1.76148906e-01
-6.38441250e-07,1.76147094e-01
-6.38401250e-07,1.76148906e-01
-6.38361250e-07,1.76147094e-01
-6.38321250e-07,1.76148906e-01
-6.38281250e-07,1.76146187e-01
-6.38241250e-07,1.76149813e-01
-6.38201250e-07,1.76146187e-01
-6.38161250e-07,1.76149813e-01
-6.38121250e-07,1.76146187e-01
-6.38081250e-07,1.76149813e-01
-6.38041250e-07,1.76146187e-01
-6.38001250e-07,1.76149813e-01
-6.37961250e-07,1.76146187e-01
-6.37921250e-07,1.76149813e-01
-6.37881250e-07,1.76145281e-01
-6.37841250e-07,1.76150719e-01
-6.37801250e-07,1.76145281e-01
-6.37761250e-07,1.76150719e-01
-6.37721250e-07,1.76145281e-01
-6.37681250e-07,1.76151625e-01
-6.37641250e-07,1.76144375e-01
-6.37601250e-07,1.76151625e-01
-6.37561250e-07,1.76144375e-01
-6.37521250e-07,1.76152531e-01
-6.37481250e-07,1.76143469e-01
-6.37441250e-07,1.76153438e-01
-6.37401250e-07,1.76141656e-01
-6.37361250e-07,1.76155250e-01
-6.37321250e-07,1.76138938e-01
-6.37281250e-07,1.76160687e-01
-6.37241250e-07,1.76129875e-01
-6.37201250e-07,1.76180625e-01
-6.37161250e-07,1.76026563e-01
-6.37121250e-07,1.75885187e-01
-6.37081250e-07,1.75933219e-01
-6.37041250e-07,1.75903312e-01
-6.37001250e-07,1.75925969e-01
-6.36961250e-07,1.75906937e-01
-6.36921250e-07,1.75924156e-01
-6.36881250e-07,1.75906937e-01
-6.36841250e-07,1.75926875e-01
-6.36801250e-07,1.75900594e-01
-6.36761250e-07,1.75944094e-01
-6.36721250e-07,1.75800000e-01
-6.36681250e-07,1.75645937e-01
-6.36641250e-07,1.75709375e-01
-6.36601250e-07,1.75661344e-01
-6.36561250e-07,1.75707562e-01
-6.36521250e-07,1.75655906e-01
-6.36481250e-07,1.75726594e-01
-6.36441250e-07,1.75552594e-01
-6.36401250e-07,1.75432062e-01
-6.36361250e-07,1.75455625e-01
-6.36321250e-07,1.75456531e-01
-6.36281250e-07,1.75438406e-01
-6.36241250e-07,1.75481906e-01
-6.36201250e-07,1.75331469e-01
-6.36161250e-07,1.75191000e-01
-6.36121250e-07,1.75232687e-01
-6.36081250e-07,1.75215469e-01
-6.36041250e-07,1.75215469e-01
-6.36001250e-07,1.75241750e-01
-6.35961250e-07,1.75107625e-01
-6.35921250e-07,1.74950844e-01
-6.35881250e-07,1.75009750e-01
-6.35841250e-07,1.74975313e-01
-6.35801250e-07,1.74992531e-01
-6.35761250e-07,1.74999781e-01
-6.35721250e-07,1.74886500e-01
-6.35681250e-07,1.74706156e-01
-6.35641250e-07,1.74792250e-01
-6.35601250e-07,1.74725187e-01
-6.35561250e-07,1.74785000e-01
-6.35521250e-07,1.74727000e-01
-6.35481250e-07,1.74786812e-01
-6.35441250e-07,1.74720656e-01
-6.35401250e-07,1.74804938e-01
-6.35361250e-07,1.74618250e-01
-6.35321250e-07,1.74509500e-01
-6.35281250e-07,1.74524906e-01
-6.35241250e-07,1.74528531e-01
-6.35201250e-07,1.74515844e-01
-6.35161250e-07,1.74534875e-01
-6.35121250e-07,1.74511312e-01
-6.35081250e-07,1.74539406e-01
-6.35041250e-07,1.74504063e-01
-6.35001250e-07,1.74550281e-01
-6.34961250e-07,1.74483219e-01
-6.34921250e-07,1.74654500e-01
-6.34881250e-07,1.74775938e-01
-6.34841250e-07,1.74750562e-01
-6.34801250e-07,1.74754187e-01
-6.34761250e-07,1.74763250e-01
-6.34721250e-07,1.74743312e-01
-6.34681250e-07,1.74775938e-01
-6.34641250e-07,1.74720656e-01
-6.34601250e-07,1.74881969e-01
-6.34561250e-07,1.75011562e-01
-6.34521250e-07,1.74980750e-01
-6.34481250e-07,1.74987094e-01
-6.34441250e-07,1.74998875e-01
-6.34401250e-07,1.74960813e-01
-6.34361250e-07,1.75106719e-01
-6.34321250e-07,1.75251719e-01
-6.34281250e-07,1.75204594e-01
-6.34241250e-07,1.75227250e-01
-6.34201250e-07,1.75221812e-01
-6.34161250e-07,1.75202781e-01
-6.34121250e-07,1.75326938e-01
-6.34081250e-07,1.75497313e-01
-6.34041250e-07,1.75418469e-01
-6.34001250e-07,1.75484625e-01
-6.33961250e-07,1.75409406e-01
-6.33921250e-07,1.75579781e-01
-6.33881250e-07,1.75711188e-01
-6.33841250e-07,1.75666781e-01
-6.33801250e-07,1.75702125e-01
-6.33761250e-07,1.75654094e-01
-6.33721250e-07,1.75800906e-01
-6.33681250e-07,1.75953156e-01
-6.33641250e-07,1.75889719e-01
-6.33601250e-07,1.75942281e-01
-6.33561250e-07,1.75878844e-01
-6.33521250e-07,1.76038344e-01
-6.33481250e-07,1.76180625e-01
-6.33441250e-07,1.76125344e-01
-6.33401250e-07,1.76171562e-01
-6.33361250e-07,1.76111750e-01
-6.33321250e-07,1.76272156e-01
-6.33281250e-07,1.76408094e-01
-6.33241250e-07,1.76366406e-01
-6.33201250e-07,1.76386344e-01
-6.33161250e-07,1.76380906e-01
-6.33121250e-07,1.76363688e-01
-6.33081250e-07,1.76484219e-01
-6.33041250e-07,1.76660938e-01
-6.33001250e-07,1.76573937e-01
-6.32961250e-07,1.76650063e-01
-6.32921250e-07,1.76562156e-01
-6.32881250e-07,1.76748844e-01
-6.32841250e-07,1.76859406e-01
-6.32801250e-07,1.76843094e-01
-6.32761250e-07,1.76837656e-01
-6.32721250e-07,1.76858500e-01
-6.32681250e-07,1.76814094e-01
-6.32641250e-07,1.76962719e-01
-6.32601250e-07,1.77109531e-01
-6.32561250e-07,1.77056062e-01
-6.32521250e-07,1.77090500e-01
-6.32481250e-07,1.77063312e-01
-6.32441250e-07,1.77088688e-01
-6.32401250e-07,1.77062406e-01
-6.32361250e-07,1.77094125e-01
-6.32321250e-07,1.77044281e-01
-6.32281250e-07,1.77196531e-01
-6.32241250e-07,1.77340625e-01
-6.32201250e-07,1.77288063e-01
-6.32161250e-07,1.77322500e-01
-6.32121250e-07,1.77295312e-01
-6.32081250e-07,1.77319781e-01
-6.32041250e-07,1.77296219e-01
-6.32001250e-07,1.77320687e-01
-6.31961250e-07,1.77294406e-01
-6.31921250e-07,1.77324312e-01
-6.31881250e-07,1.77286250e-01
-6.31841250e-07,1.77344250e-01
-6.31801250e-07,1.77182937e-01
-6.31761250e-07,1.77049719e-01
-6.31721250e-07,1.77088688e-01
-6.31681250e-07,1.77069656e-01
-6.31641250e-07,1.77079625e-01
-6.31601250e-07,1.77075094e-01
-6.31561250e-07,1.77074188e-01
-6.31521250e-07,1.77081437e-01
-6.31481250e-07,1.77064219e-01
-6.31441250e-07,1.77102281e-01
-6.31401250e-07,1.76961813e-01
-6.31361250e-07,1.76805938e-01
-6.31321250e-07,1.76869375e-01
-6.31281250e-07,1.76823156e-01
-6.31241250e-07,1.76864844e-01
-6.31201250e-07,1.76819531e-01
-6.31161250e-07,1.76881156e-01
-6.31121250e-07,1.76719844e-01
-6.31081250e-07,1.76583000e-01
-6.31041250e-07,1.76628312e-01
-6.31001250e-07,1.76599312e-01
-6.30961250e-07,1.76622875e-01
-6.30921250e-07,1.76601125e-01
-6.30881250e-07,1.76625594e-01
-6.30841250e-07,1.76593875e-01
-6.30801250e-07,1.76644625e-01
-6.30761250e-07,1.76491469e-01
-6.30721250e-07,1.76348281e-01
-6.30681250e-07,1.76398125e-01
-6.30641250e-07,1.76367312e-01
-6.30601250e-07,1.76389969e-01
-6.30561250e-07,1.76371844e-01
-6.30521250e-07,1.76387250e-01
-6.30481250e-07,1.76373656e-01
-6.30441250e-07,1.76385437e-01
-6.30401250e-07,1.76374562e-01
-6.30361250e-07,1.76384531e-01
-6.30321250e-07,1.76375469e-01
-6.30281250e-07,1.76384531e-01
-6.30241250e-07,1.76375469e-01
-6.30201250e-07,1.76383625e-01
-6.30161250e-07,1.76376375e-01
-6.30121250e-07,1.76383625e-01
-6.30081250e-07,1.76376375e-01
-6.30041250e-07,1.76383625e-01
-6.30001250e-07,1.76377281e-01
-6.29961250e-07,1.76382719e-01
-6.29921250e-07,1.76377281e-01
-6.29881250e-07,1.76382719e-01
-6.29841250e-07,1.76378188e-01
-6.29801250e-07,1.76380906e-01
-6.29761250e-07,1.76379094e-01
-6.29721250e-07,1.76380000e-01
-6.29681250e-07,1.76381813e-01
-6.29641250e-07,1.76375469e-01
-6.29601250e-07,1.76389969e-01
-6.29561250e-07,1.76356437e-01
-6.29521250e-07,1.76492375e-01
-6.29481250e-07,1.76652781e-01
-6.29441250e-07,1.76584812e-01
-6.29401250e-07,1.76634656e-01
-6.29361250e-07,1.76590250e-01
-6.29321250e-07,1.76633750e-01
-6.29281250e-07,1.76588438e-01
-6.29241250e-07,1.76641000e-01
-6.29201250e-07,1.76569406e-01
-6.29161250e-07,1.76743406e-01
-6.29121250e-07,1.76864844e-01
-6.29081250e-07,1.76837656e-01
-6.29041250e-07,1.76844906e-01
-6.29001250e-07,1.76846719e-01
-6.28961250e-07,1.76838562e-01
-6.28921250e-07,1.76852156e-01
-6.28881250e-07,1.76832219e-01
-6.28841250e-07,1.76862125e-01
-6.28801250e-07,1.76811375e-01
-6.28761250e-07,1.76965437e-01
-6.28721250e-07,1.77105906e-01
-6.28681250e-07,1.77059688e-01
-6.28641250e-07,1.77086875e-01
-6.28601250e-07,1.77067844e-01
-6.28561250e-07,1.77082344e-01
-6.28521250e-07,1.77070563e-01
-6.28481250e-07,1.77080531e-01
-6.28441250e-07,1.77071469e-01
-6.28401250e-07,1.77081437e-01
-6.28361250e-07,1.77069656e-01
-6.28321250e-07,1.77084156e-01
-6.28281250e-07,1.77063312e-01
-6.28241250e-07,1.77103188e-01
-6.28201250e-07,1.76960906e-01
-6.28161250e-07,1.76805938e-01
-6.28121250e-07,1.76869375e-01
-6.28081250e-07,1.76823156e-01
-6.28041250e-07,1.76863938e-01
-6.28001250e-07,1.76823156e-01
-6.27961250e-07,1.76866656e-01
-6.27921250e-07,1.76815906e-01
-6.27881250e-07,1.76886594e-01
-6.27841250e-07,1.76712594e-01
-6.27801250e-07,1.76592063e-01
-6.27761250e-07,1.76617438e-01
-6.27721250e-07,1.76612906e-01
-6.27681250e-07,1.76605656e-01
-6.27641250e-07,1.76622875e-01
-6.27601250e-07,1.76593875e-01
-6.27561250e-07,1.76645531e-01
-6.27521250e-07,1.76488750e-01
-6.27481250e-07,1.76352813e-01
-6.27441250e-07,1.76392688e-01
-6.27401250e-07,1.76374562e-01
-6.27361250e-07,1.76380906e-01
-6.27321250e-07,1.76384531e-01
-6.27281250e-07,1.76368219e-01
-6.27241250e-07,1.76407188e-01
-6.27201250e-07,1.76264000e-01
-6.27161250e-07,1.76112656e-01
-6.27121250e-07,1.76168844e-01
-6.27081250e-07,1.76133500e-01
-6.27041250e-07,1.76159781e-01
-6.27001250e-07,1.76138938e-01
-6.26961250e-07,1.76156156e-01
-6.26921250e-07,1.76141656e-01
-6.26881250e-07,1.76153438e-01
-6.26841250e-07,1.76143469e-01
-6.26801250e-07,1.76152531e-01
-6.26761250e-07,1.76144375e-01
-6.26721250e-07,1.76150719e-01
-6.26681250e-07,1.76145281e-01
-6.26641250e-07,1.76149813e-01
-6.26601250e-07,1.76146187e-01
-6.26561250e-07,1.76148906e-01
-6.26521250e-07,1.76147094e-01
-6.26481250e-07,1.76148000e-01
-6.26441250e-07,1.76148000e-01
-6.26401250e-07,1.76147094e-01
-6.26361250e-07,1.76149813e-01
-6.26321250e-07,1.76146187e-01
-6.26281250e-07,1.76151625e-01
-6.26241250e-07,1.76143469e-01
-6.26201250e-07,1.76154344e-01
-6.26161250e-07,1.76138938e-01
-6.26121250e-07,1.76163406e-01
-6.26081250e-07,1.76118094e-01
-6.26041250e-07,1.76266719e-01
-6.26001250e-07,1.76413531e-01
-6.25961250e-07,1.76360969e-01
-6.25921250e-07,1.76393594e-01
-6.25881250e-07,1.76369125e-01
-6.25841250e-07,1.76389062e-01
-6.25801250e-07,1.76371844e-01
-6.25761250e-07,1.76387250e-01
-6.25721250e-07,1.76373656e-01
-6.25681250e-07,1.76385437e-01
-6.25641250e-07,1.76374562e-01
-6.25601250e-07,1.76384531e-01
-6.25561250e-07,1.76375469e-01
-6.25521250e-07,1.76384531e-01
-6.25481250e-07,1.76375469e-01
-6.25441250e-07,1.76383625e-01
-6.25401250e-07,1.76376375e-01
-6.25361250e-07,1.76383625e-01
-6.25321250e-07,1.76376375e-01
-6.25281250e-07,1.76383625e-01
-6.25241250e-07,1.76376375e-01
-6.25201250e-07,1.76382719e-01
-6.25161250e-07,1.76377281e-01
-6.25121250e-07,1.76382719e-01
-6.25081250e-07,1.76377281e-01
-6.25041250e-07,1.76382719e-01
-6.25001250e-07,1.76377281e-01
-6.24961250e-07,1.76382719e-01
-6.24921250e-07,1.76377281e-01
-6.24881250e-07,1.76382719e-01
-6.24841250e-07,1.76377281e-01
-6.24801250e-07,1.76382719e-01
-6.24761250e-07,1.76376375e-01
-6.24721250e-07,1.76383625e-01
-6.24681250e-07,1.76376375e-01
-6.24641250e-07,1.76384531e-01
-6.24601250e-07,1.76375469e-01
-6.24561250e-07,1.76385437e-01
-6.24521250e-07,1.76373656e-01
-6.24481250e-07,1.76388156e-01
-6.24441250e-07,1.76369125e-01
-6.24401250e-07,1.76396312e-01
-6.24361250e-07,1.76349188e-01
-6.24321250e-07,1.76498719e-01
-6.24281250e-07,1.76645531e-01
-6.24241250e-07,1.76592063e-01
-6.24201250e-07,1.76626500e-01
-6.24161250e-07,1.76600219e-01
-6.24121250e-07,1.76622875e-01
-6.24081250e-07,1.76602031e-01
-6.24041250e-07,1.76621969e-01
-6.24001250e-07,1.76602031e-01
-6.23961250e-07,1.76621969e-01
-6.23921250e-07,1.76601125e-01
-6.23881250e-07,1.76624687e-01
-6.23841250e-07,1.76596594e-01
-6.23801250e-07,1.76632844e-01
-6.23761250e-07,1.76576656e-01
-6.23721250e-07,1.76736156e-01
-6.23681250e-07,1.76872094e-01
-6.23641250e-07,1.76830406e-01
-6.23601250e-07,1.76852156e-01
-6.23561250e-07,1.76838562e-01
-6.23521250e-07,1.76847625e-01
-6.23481250e-07,1.76842187e-01
-6.23441250e-07,1.76844906e-01
-6.23401250e-07,1.76844000e-01
-6.23361250e-07,1.76842187e-01
-6.23321250e-07,1.76846719e-01
-6.23281250e-07,1.76839469e-01
-6.23241250e-07,1.76850344e-01
-6.23201250e-07,1.76834938e-01
-6.23161250e-07,1.76859406e-01
-6.23121250e-07,1.76814094e-01
-6.23081250e-07,1.76962719e-01
-6.23041250e-07,1.77109531e-01
-6.23001250e-07,1.77056969e-01
-6.22961250e-07,1.77089594e-01
-6.22921250e-07,1.77065125e-01
-6.22881250e-07,1.77085063e-01
-6.22841250e-07,1.77067844e-01
-6.22801250e-07,1.77083250e-01
-6.22761250e-07,1.77069656e-01
-6.22721250e-07,1.77081437e-01
-6.22681250e-07,1.77070563e-01
-6.22641250e-07,1.77081437e-01
-6.22601250e-07,1.77071469e-01
-6.22561250e-07,1.77080531e-01
-6.22521250e-07,1.77071469e-01
-6.22481250e-07,1.77080531e-01
-6.22441250e-07,1.77072375e-01
-6.22401250e-07,1.77079625e-01
-6.22361250e-07,1.77072375e-01
-6.22321250e-07,1.77079625e-01
-6.22281250e-07,1.77072375e-01
-6.22241250e-07,1.77079625e-01
-6.22201250e-07,1.77072375e-01
-6.22161250e-07,1.77079625e-01
-6.22121250e-07,1.77072375e-01
-6.22081250e-07,1.77079625e-01
-6.22041250e-07,1.77072375e-01
-6.22001250e-07,1.77080531e-01
-6.21961250e-07,1.77071469e-01
-6.21921250e-07,1.77080531e-01
-6.21881250e-07,1.77071469e-01
-6.21841250e-07,1.77081437e-01
-6.21801250e-07,1.77070563e-01
-6.21761250e-07,1.77082344e-01
-6.21721250e-07,1.77068750e-01
-6.21681250e-07,1.77084156e-01
-6.21641250e-07,1.77066031e-01
-6.21601250e-07,1.77089594e-01
-6.21561250e-07,1.77056969e-01
-6.21521250e-07,1.77109531e-01
-6.21481250e-07,1.76953656e-01
-6.21441250e-07,1.76815000e-01
-6.21401250e-07,1.76859406e-01
-6.21361250e-07,1.76834938e-01
-6.21321250e-07,1.76850344e-01
-6.21281250e-07,1.76840375e-01
-6.21241250e-07,1.76844906e-01
-6.21201250e-07,1.76846719e-01
-6.21161250e-07,1.76834938e-01
-6.21121250e-07,1.76867562e-01
-6.21081250e-07,1.76731625e-01
-6.21041250e-07,1.76571219e-01
-6.21001250e-07,1.76639187e-01
-6.20961250e-07,1.76589344e-01
-6.20921250e-07,1.76632844e-01
-6.20881250e-07,1.76591156e-01
-6.20841250e-07,1.76634656e-01
-6.20801250e-07,1.76584812e-01
-6.20761250e-07,1.76652781e-01
-6.20721250e-07,1.76482406e-01
-6.20681250e-07,1.76357344e-01
-6.20641250e-07,1.76389062e-01
-6.20601250e-07,1.76376375e-01
-6.20561250e-07,1.76380906e-01
-6.20521250e-07,1.76381813e-01
-6.20481250e-07,1.76376375e-01
-6.20441250e-07,1.76385437e-01
-6.20401250e-07,1.76372750e-01
-6.20361250e-07,1.76390875e-01
-6.20321250e-07,1.76363688e-01
-6.20281250e-07,1.76410812e-01
-6.20241250e-07,1.76260375e-01
-6.20201250e-07,1.76116281e-01
-6.20161250e-07,1.76166125e-01
-6.20121250e-07,1.76135313e-01
-6.20081250e-07,1.76157969e-01
-6.20041250e-07,1.76138938e-01
-6.20001250e-07,1.76156156e-01
-6.19961250e-07,1.76139844e-01
-6.19921250e-07,1.76156156e-01
-6.19881250e-07,1.76138938e-01
-6.19841250e-07,1.76159781e-01
-6.19801250e-07,1.76131687e-01
-6.19761250e-07,1.76177906e-01
-6.19721250e-07,1.76029281e-01
-6.19681250e-07,1.75881563e-01
-6.19641250e-07,1.75936844e-01
-6.19601250e-07,1.75899688e-01
-6.19561250e-07,1.75930500e-01
-6.19521250e-07,1.75902406e-01
-6.19481250e-07,1.75929594e-01
-6.19441250e-07,1.75900594e-01
-6.19401250e-07,1.75934125e-01
-6.19361250e-07,1.75893344e-01
-6.19321250e-07,1.75953156e-01
-6.19281250e-07,1.75790031e-01
-6.19241250e-07,1.75658625e-01
-6.19201250e-07,1.75695781e-01
-6.19161250e-07,1.75677656e-01
-6.19121250e-07,1.75686719e-01
-6.19081250e-07,1.75683094e-01
-6.19041250e-07,1.75682188e-01
-6.19001250e-07,1.75687625e-01
-6.18961250e-07,1.75678562e-01
-6.18921250e-07,1.75693062e-01
-6.18881250e-07,1.75668594e-01
-6.18841250e-07,1.75713906e-01
-6.18801250e-07,1.75565281e-01
-6.18761250e-07,1.75418469e-01
-6.18721250e-07,1.75471031e-01
-6.18681250e-07,1.75438406e-01
-6.18641250e-07,1.75462875e-01
-6.18601250e-07,1.75442938e-01
-6.18561250e-07,1.75460156e-01
-6.18521250e-07,1.75444750e-01
-6.18481250e-07,1.75458344e-01
-6.18441250e-07,1.75445656e-01
-6.18401250e-07,1.75457438e-01
-6.18361250e-07,1.75445656e-01
-6.18321250e-07,1.75458344e-01
-6.18281250e-07,1.75444750e-01
-6.18241250e-07,1.75460156e-01
-6.18201250e-07,1.75441125e-01
-6.18161250e-07,1.75467406e-01
-6.18121250e-07,1.75423000e-01
-6.18081250e-07,1.75569813e-01
-6.18041250e-07,1.75719344e-01
-6.18001250e-07,1.75661344e-01
-6.17961250e-07,1.75702125e-01
-6.17921250e-07,1.75666781e-01
-6.17881250e-07,1.75701219e-01
-6.17841250e-07,1.75664062e-01
-6.17801250e-07,1.75708469e-01
-6.17761250e-07,1.75645031e-01
-6.17721250e-07,1.75812688e-01
-6.17681250e-07,1.75939563e-01
-6.17641250e-07,1.75907844e-01
-6.17601250e-07,1.75916000e-01
-6.17561250e-07,1.75923250e-01
-6.17521250e-07,1.75892437e-01
-6.17481250e-07,1.76028375e-01
-6.17441250e-07,1.76188781e-01
-6.17401250e-07,1.76119000e-01
-6.17361250e-07,1.76176094e-01
-6.17321250e-07,1.76109938e-01
-6.17281250e-07,1.76272156e-01
-6.17241250e-07,1.76410812e-01
-6.17201250e-07,1.76359156e-01
-6.17161250e-07,1.76401750e-01
-6.17121250e-07,1.76346469e-01
-6.17081250e-07,1.76500531e-01
-6.17041250e-07,1.76645531e-01
-6.17001250e-07,1.76589344e-01
-6.16961250e-07,1.76634656e-01
-6.16921250e-07,1.76578469e-01
-6.16881250e-07,1.76730719e-01
-6.16841250e-07,1.76880250e-01
-6.16801250e-07,1.76817719e-01
-6.16761250e-07,1.76871187e-01
-6.16721250e-07,1.76804125e-01
-6.16681250e-07,1.76971781e-01
-6.16641250e-07,1.77100469e-01
-6.16601250e-07,1.77065125e-01
-6.16561250e-07,1.77080531e-01
-6.16521250e-07,1.77076000e-01
-6.16481250e-07,1.77071469e-01
-6.16441250e-07,1.77086875e-01
-6.16401250e-07,1.77049719e-01
-6.16361250e-07,1.77191094e-01
-6.16321250e-07,1.77344250e-01
-6.16281250e-07,1.77286250e-01
-6.16241250e-07,1.77324312e-01
-6.16201250e-07,1.77294406e-01
-6.16161250e-07,1.77319781e-01
-6.16121250e-07,1.77298031e-01
-6.16081250e-07,1.77317063e-01
-6.16041250e-07,1.77299844e-01
-6.16001250e-07,1.77316156e-01
-6.15961250e-07,1.77300750e-01
-6.15921250e-07,1.77315250e-01
-6.15881250e-07,1.77300750e-01
-6.15841250e-07,1.77314344e-01
-6.15801250e-07,1.77301656e-01
-6.15761250e-07,1.77314344e-01
-6.15721250e-07,1.77301656e-01
-6.15681250e-07,1.77314344e-01
-6.15641250e-07,1.77301656e-01
-6.15601250e-07,1.77315250e-01
-6.15561250e-07,1.77300750e-01
-6.15521250e-07,1.77315250e-01
-6.15481250e-07,1.77299844e-01
-6.15441250e-07,1.77317063e-01
-6.15401250e-07,1.77297125e-01
-6.15361250e-07,1.77321594e-01
-6.15321250e-07,1.77288969e-01
-6.15281250e-07,1.77340625e-01
-6.15241250e-07,1.77186563e-01
-6.15201250e-07,1.77045188e-01
-6.15161250e-07,1.77093219e-01
-6.15121250e-07,1.77063312e-01
-6.15081250e-07,1.77085969e-01
-6.15041250e-07,1.77066937e-01
-6.15001250e-07,1.77085063e-01
-6.14961250e-07,1.77066031e-01
-6.14921250e-07,1.77088688e-01
-6.14881250e-07,1.77058781e-01
-6.14841250e-07,1.77106812e-01
-6.14801250e-07,1.76956375e-01
-6.14761250e-07,1.76810469e-01
-6.14721250e-07,1.76864844e-01
-6.14681250e-07,1.76827687e-01
-6.14641250e-07,1.76858500e-01
-6.14601250e-07,1.76829500e-01
-6.14561250e-07,1.76860313e-01
-6.14521250e-07,1.76823156e-01
