dpa/aes_ch1_20250506140650040.csv

Model,MSO66B
Label,
Waveform Type,ANALOG
Horizontal Units,s
Sample Interval,4.00000000e-11
Record Length,100000
Zero Index,15999.05859375
Vertical Units,A
ANALOG_Thumbnail,
yOffset,1.84500000e-01
yPosition,8.40000000e-01

Labels,
TIME,CH1
-6.39962344e-07,1.88873438e-01
-6.39922344e-07,1.88917188e-01
-6.39882344e-07,1.88889063e-01
-6.39842344e-07,1.88907812e-01
-6.39802344e-07,1.88893750e-01
-6.39762344e-07,1.88903125e-01
-6.39722344e-07,1.88898438e-01
-6.39682344e-07,1.88901563e-01
-6.39642344e-07,1.88900000e-01
-6.39602344e-07,1.88898438e-01
-6.39562344e-07,1.88903125e-01
-6.39522344e-07,1.88896875e-01
-6.39482344e-07,1.88904688e-01
-6.39442344e-07,1.88893750e-01
-6.39402344e-07,1.88907812e-01
-6.39362344e-07,1.88889063e-01
-6.39322344e-07,1.88914063e-01
-6.39282344e-07,1.88881250e-01
-6.39242344e-07,1.88929687e-01
-6.39202344e-07,1.88845313e-01
-6.39162344e-07,1.89107812e-01
-6.39122344e-07,1.89354688e-01
-6.39082344e-07,1.89270313e-01
-6.39042344e-07,1.89320313e-01
-6.39002344e-07,1.89284375e-01
-6.38962344e-07,1.89312500e-01
-6.38922344e-07,1.89290625e-01
-6.38882344e-07,1.89307813e-01
-6.38842344e-07,1.89293750e-01
-6.38802344e-07,1.89306250e-01
-6.38762344e-07,1.89295313e-01
-6.38722344e-07,1.89304688e-01
-6.38682344e-07,1.89296875e-01
-6.38642344e-07,1.89303125e-01
-6.38602344e-07,1.89298437e-01
-6.38562344e-07,1.89301563e-01
-6.38522344e-07,1.89298437e-01
-6.38482344e-07,1.89300000e-01
-6.38442344e-07,1.89300000e-01
-6.38402344e-07,1.89300000e-01
-6.38362344e-07,1.89301563e-01
-6.38322344e-07,1.89298437e-01
-6.38282344e-07,1.89301563e-01
-6.38242344e-07,1.89296875e-01
-6.38202344e-07,1.89303125e-01
-6.38162344e-07,1.89296875e-01
-6.38122344e-07,1.89304688e-01
-6.38082344e-07,1.89295313e-01
-6.38042344e-07,1.89306250e-01
-6.38002344e-07,1.89293750e-01
-6.37962344e-07,1.89307813e-01
-6.37922344e-07,1.89290625e-01
-6.37882344e-07,1.89310937e-01
-6.37842344e-07,1.89287500e-01
-6.37802344e-07,1.89315625e-01
-6.37762344e-07,1.89281250e-01
-6.37722344e-07,1.89325000e-01
-6.37682344e-07,1.89264062e-01
-6.37642344e-07,1.89360937e-01
-6.37602344e-07,1.89084375e-01
-6.37562344e-07,1.88854688e-01
-6.37522344e-07,1.88920313e-01
-6.37482344e-07,1.88892188e-01
-6.37442344e-07,1.88900000e-01
-6.37402344e-07,1.88909375e-01
-6.37362344e-07,1.88878125e-01
-6.37322344e-07,1.88948438e-01
-6.37282344e-07,1.88696875e-01
-6.37242344e-07,1.88443750e-01
-6.37202344e-07,1.88531250e-01
-6.37162344e-07,1.88481250e-01
-6.37122344e-07,1.88510938e-01
-6.37082344e-07,1.88498438e-01
-6.37042344e-07,1.88490625e-01
-6.37002344e-07,1.88535938e-01
-6.36962344e-07,1.88309375e-01
-6.36922344e-07,1.88028125e-01
-6.36882344e-07,1.88146875e-01
-6.36842344e-07,1.88062500e-01
-6.36802344e-07,1.88132812e-01
-6.36762344e-07,1.88068750e-01
-6.36722344e-07,1.88131250e-01
-6.36682344e-07,1.88068750e-01
-6.36642344e-07,1.88134375e-01
-6.36602344e-07,1.88056250e-01
-6.36562344e-07,1.88167187e-01
-6.36522344e-07,1.87881250e-01
-6.36482344e-07,1.87656250e-01
-6.36442344e-07,1.87721875e-01
-6.36402344e-07,1.87687500e-01
-6.36362344e-07,1.87709375e-01
-6.36322344e-07,1.87693750e-01
-6.36282344e-07,1.87706250e-01
-6.36242344e-07,1.87695313e-01
-6.36202344e-07,1.87704687e-01
-6.36162344e-07,1.87695313e-01
-6.36122344e-07,1.87706250e-01
-6.36082344e-07,1.87692187e-01
-6.36042344e-07,1.87709375e-01
-6.36002344e-07,1.87687500e-01
-6.35962344e-07,1.87717187e-01
-6.35922344e-07,1.87673438e-01
-6.35882344e-07,1.87751562e-01
-6.35842344e-07,1.87495313e-01
-6.35802344e-07,1.87242188e-01
-6.35762344e-07,1.87334375e-01
-6.35722344e-07,1.87275000e-01
-6.35682344e-07,1.87320313e-01
-6.35642344e-07,1.87282813e-01
-6.35602344e-07,1.87315625e-01
-6.35562344e-07,1.87285937e-01
-6.35522344e-07,1.87312500e-01
-6.35482344e-07,1.87287500e-01
-6.35442344e-07,1.87312500e-01
-6.35402344e-07,1.87287500e-01
-6.35362344e-07,1.87312500e-01
-6.35322344e-07,1.87287500e-01
-6.35282344e-07,1.87312500e-01
-6.35242344e-07,1.87285937e-01
-6.35202344e-07,1.87317188e-01
-6.35162344e-07,1.87279688e-01
-6.35122344e-07,1.87329688e-01
-6.35082344e-07,1.87246875e-01
-6.35042344e-07,1.87506250e-01
-6.35002344e-07,1.87757813e-01
-6.34962344e-07,1.87664063e-01
-6.34922344e-07,1.87728125e-01
-6.34882344e-07,1.87673438e-01
-6.34842344e-07,1.87726562e-01
-6.34802344e-07,1.87668750e-01
-6.34762344e-07,1.87739062e-01
-6.34722344e-07,1.87634375e-01
-6.34682344e-07,1.87918750e-01
-6.34642344e-07,1.88142188e-01
-6.34602344e-07,1.88084375e-01
-6.34562344e-07,1.88101563e-01
-6.34522344e-07,1.88114063e-01
-6.34482344e-07,1.88057813e-01
-6.34442344e-07,1.88296875e-01
-6.34402344e-07,1.88562500e-01
-6.34362344e-07,1.88464063e-01
-6.34322344e-07,1.88521875e-01
-6.34282344e-07,1.88492188e-01
-6.34242344e-07,1.88481250e-01
-6.34202344e-07,1.88671875e-01
-6.34162344e-07,1.88992188e-01
-6.34122344e-07,1.88826563e-01
-6.34082344e-07,1.88973438e-01
-6.34042344e-07,1.88806250e-01
-6.34002344e-07,1.89145312e-01
-6.33962344e-07,1.89317188e-01
-6.33922344e-07,1.89307813e-01
-6.33882344e-07,1.89279688e-01
-6.33842344e-07,1.89334375e-01
-6.33802344e-07,1.89237500e-01
-6.33762344e-07,1.89517188e-01
-6.33722344e-07,1.89743750e-01
-6.33682344e-07,1.89682813e-01
-6.33642344e-07,1.89706250e-01
-6.33602344e-07,1.89701563e-01
-6.33562344e-07,1.89690625e-01
-6.33522344e-07,1.89721875e-01
-6.33482344e-07,1.89653125e-01
-6.33442344e-07,1.89901563e-01
-6.33402344e-07,1.90160938e-01
-6.33362344e-07,1.90064063e-01
-6.33322344e-07,1.90126563e-01
-6.33282344e-07,1.90078125e-01
-6.33242344e-07,1.90120312e-01
-6.33202344e-07,1.90081250e-01
-6.33162344e-07,1.90117188e-01
-6.33122344e-07,1.90082813e-01
-6.33082344e-07,1.90118750e-01
-6.33042344e-07,1.90078125e-01
-6.33002344e-07,1.90125000e-01
-6.32962344e-07,1.90065625e-01
-6.32922344e-07,1.90159375e-01
-6.32882344e-07,1.89887500e-01
-6.32842344e-07,1.89650000e-01
-6.32802344e-07,1.89725000e-01
-6.32762344e-07,1.89684375e-01
-6.32722344e-07,1.89709375e-01
-6.32682344e-07,1.89693750e-01
-6.32642344e-07,1.89701563e-01
-6.32602344e-07,1.89704687e-01
-6.32562344e-07,1.89685938e-01
-6.32522344e-07,1.89737500e-01
-6.32482344e-07,1.89509375e-01
-6.32442344e-07,1.89226563e-01
-6.32402344e-07,1.89351563e-01
-6.32362344e-07,1.89254688e-01
-6.32322344e-07,1.89346875e-01
-6.32282344e-07,1.89246875e-01
-6.32242344e-07,1.89378125e-01
-6.32202344e-07,1.89068750e-01
-6.32162344e-07,1.88870312e-01
-6.32122344e-07,1.88904688e-01
-6.32082344e-07,1.88909375e-01
-6.32042344e-07,1.88876563e-01
-6.32002344e-07,1.88951563e-01
-6.31962344e-07,1.88692187e-01
-6.31922344e-07,1.88448438e-01
-6.31882344e-07,1.88525000e-01
-6.31842344e-07,1.88489062e-01
-6.31802344e-07,1.88496875e-01
-6.31762344e-07,1.88531250e-01
-6.31722344e-07,1.88315625e-01
-6.31682344e-07,1.88021875e-01
-6.31642344e-07,1.88154688e-01
-6.31602344e-07,1.88051563e-01
-6.31562344e-07,1.88148438e-01
-6.31522344e-07,1.88045313e-01
-6.31482344e-07,1.88178125e-01
-6.31442344e-07,1.87870312e-01
-6.31402344e-07,1.87667187e-01
-6.31362344e-07,1.87707813e-01
-6.31322344e-07,1.87701563e-01
-6.31282344e-07,1.87690625e-01
-6.31242344e-07,1.87717187e-01
-6.31202344e-07,1.87671875e-01
-6.31162344e-07,1.87754688e-01
-6.31122344e-07,1.87492188e-01
-6.31082344e-07,1.87246875e-01
-6.31042344e-07,1.87328125e-01
-6.31002344e-07,1.87281250e-01
-6.30962344e-07,1.87314063e-01
-6.30922344e-07,1.87290625e-01
-6.30882344e-07,1.87307813e-01
-6.30842344e-07,1.87295313e-01
-6.30802344e-07,1.87303125e-01
-6.30762344e-07,1.87298437e-01
-6.30722344e-07,1.87298437e-01
-6.30682344e-07,1.87303125e-01
-6.30642344e-07,1.87292188e-01
-6.30602344e-07,1.87312500e-01
-6.30562344e-07,1.87278125e-01
-6.30522344e-07,1.87346875e-01
-6.30482344e-07,1.87100000e-01
-6.30442344e-07,1.86837500e-01
-6.30402344e-07,1.86937500e-01
-6.30362344e-07,1.86871875e-01
-6.30322344e-07,1.86923438e-01
-6.30282344e-07,1.86878125e-01
-6.30242344e-07,1.86920313e-01
-6.30202344e-07,1.86881250e-01
-6.30162344e-07,1.86918750e-01
-6.30122344e-07,1.86881250e-01
-6.30082344e-07,1.86918750e-01
-6.30042344e-07,1.86879688e-01
-6.30002344e-07,1.86923438e-01
-6.29962344e-07,1.86871875e-01
-6.29922344e-07,1.86937500e-01
-6.29882344e-07,1.86839063e-01
-6.29842344e-07,1.87114063e-01
-6.29802344e-07,1.87348438e-01
-6.29762344e-07,1.87275000e-01
-6.29722344e-07,1.87315625e-01
-6.29682344e-07,1.87289063e-01
-6.29642344e-07,1.87307813e-01
-6.29602344e-07,1.87293750e-01
-6.29562344e-07,1.87304688e-01
-6.29522344e-07,1.87295313e-01
-6.29482344e-07,1.87303125e-01
-6.29442344e-07,1.87296875e-01
-6.29402344e-07,1.87303125e-01
-6.29362344e-07,1.87296875e-01
-6.29322344e-07,1.87303125e-01
-6.29282344e-07,1.87298437e-01
-6.29242344e-07,1.87301563e-01
-6.29202344e-07,1.87298437e-01
-6.29162344e-07,1.87301563e-01
-6.29122344e-07,1.87296875e-01
-6.29082344e-07,1.87303125e-01
-6.29042344e-07,1.87296875e-01
-6.29002344e-07,1.87303125e-01
-6.28962344e-07,1.87296875e-01
-6.28922344e-07,1.87303125e-01
-6.28882344e-07,1.87295313e-01
-6.28842344e-07,1.87304688e-01
-6.28802344e-07,1.87293750e-01
-6.28762344e-07,1.87307813e-01
-6.28722344e-07,1.87290625e-01
-6.28682344e-07,1.87312500e-01
-6.28642344e-07,1.87282813e-01
-6.28602344e-07,1.87326563e-01
-6.28562344e-07,1.87248438e-01
-6.28522344e-07,1.87504688e-01
-6.28482344e-07,1.87757813e-01
-6.28442344e-07,1.87665625e-01
-6.28402344e-07,1.87725000e-01
-6.28362344e-07,1.87679687e-01
-6.28322344e-07,1.87717187e-01
-6.28282344e-07,1.87684375e-01
-6.28242344e-07,1.87714063e-01
-6.28202344e-07,1.87685938e-01
-6.28162344e-07,1.87712500e-01
-6.28122344e-07,1.87687500e-01
-6.28082344e-07,1.87712500e-01
-6.28042344e-07,1.87687500e-01
-6.28002344e-07,1.87714063e-01
-6.27962344e-07,1.87685938e-01
-6.27922344e-07,1.87715625e-01
-6.27882344e-07,1.87682813e-01
-6.27842344e-07,1.87720313e-01
-6.27802344e-07,1.87675000e-01
-6.27762344e-07,1.87734375e-01
-6.27722344e-07,1.87640625e-01
-6.27682344e-07,1.87912500e-01
-6.27642344e-07,1.88150000e-01
-6.27602344e-07,1.88073437e-01
-6.27562344e-07,1.88117188e-01
-6.27522344e-07,1.88087500e-01
-6.27482344e-07,1.88109375e-01
-6.27442344e-07,1.88092188e-01
-6.27402344e-07,1.88106250e-01
-6.27362344e-07,1.88095313e-01
-6.27322344e-07,1.88104688e-01
-6.27282344e-07,1.88096875e-01
-6.27242344e-07,1.88103125e-01
-6.27202344e-07,1.88098437e-01
-6.27162344e-07,1.88101563e-01
-6.27122344e-07,1.88098437e-01
-6.27082344e-07,1.88101563e-01
-6.27042344e-07,1.88098437e-01
-6.27002344e-07,1.88101563e-01
-6.26962344e-07,1.88098437e-01
-6.26922344e-07,1.88100000e-01
-6.26882344e-07,1.88100000e-01
-6.26842344e-07,1.88100000e-01
-6.26802344e-07,1.88100000e-01
-6.26762344e-07,1.88100000e-01
-6.26722344e-07,1.88100000e-01
-6.26682344e-07,1.88100000e-01
-6.26642344e-07,1.88100000e-01
-6.26602344e-07,1.88100000e-01
-6.26562344e-07,1.88100000e-01
-6.26522344e-07,1.88100000e-01
-6.26482344e-07,1.88100000e-01
-6.26442344e-07,1.88100000e-01
-6.26402344e-07,1.88101563e-01
-6.26362344e-07,1.88098437e-01
-6.26322344e-07,1.88101563e-01
-6.26282344e-07,1.88098437e-01
-6.26242344e-07,1.88101563e-01
-6.26202344e-07,1.88098437e-01
-6.26162344e-07,1.88101563e-01
-6.26122344e-07,1.88098437e-01
-6.26082344e-07,1.88103125e-01
-6.26042344e-07,1.88096875e-01
-6.26002344e-07,1.88103125e-01
-6.25962344e-07,1.88096875e-01
-6.25922344e-07,1.88104688e-01
-6.25882344e-07,1.88095313e-01
-6.25842344e-07,1.88106250e-01
-6.25802344e-07,1.88092188e-01
-6.25762344e-07,1.88110938e-01
-6.25722344e-07,1.88084375e-01
-6.25682344e-07,1.88125000e-01
-6.25642344e-07,1.88050000e-01
-6.25602344e-07,1.88301563e-01
-6.25562344e-07,1.88560937e-01
-6.25522344e-07,1.88462500e-01
-6.25482344e-07,1.88529688e-01
-6.25442344e-07,1.88473438e-01
-6.25402344e-07,1.88525000e-01
-6.25362344e-07,1.88473438e-01
-6.25322344e-07,1.88529688e-01
-6.25282344e-07,1.88462500e-01
-6.25242344e-07,1.88562500e-01
-6.25202344e-07,1.88285938e-01
-6.25162344e-07,1.88051563e-01
-6.25122344e-07,1.88125000e-01
-6.25082344e-07,1.88084375e-01
-6.25042344e-07,1.88110938e-01
-6.25002344e-07,1.88092188e-01
-6.24962344e-07,1.88106250e-01
-6.24922344e-07,1.88095313e-01
-6.24882344e-07,1.88104688e-01
-6.24842344e-07,1.88096875e-01
-6.24802344e-07,1.88103125e-01
-6.24762344e-07,1.88096875e-01
-6.24722344e-07,1.88103125e-01
-6.24682344e-07,1.88098437e-01
-6.24642344e-07,1.88101563e-01
-6.24602344e-07,1.88098437e-01
-6.24562344e-07,1.88101563e-01
-6.24522344e-07,1.88098437e-01
-6.24482344e-07,1.88101563e-01
-6.24442344e-07,1.88098437e-01
-6.24402344e-07,1.88101563e-01
-6.24362344e-07,1.88098437e-01
-6.24322344e-07,1.88101563e-01
-6.24282344e-07,1.88098437e-01
-6.24242344e-07,1.88101563e-01
-6.24202344e-07,1.88100000e-01
-6.24162344e-07,1.88100000e-01
-6.24122344e-07,1.88100000e-01
-6.24082344e-07,1.88100000e-01
-6.24042344e-07,1.88100000e-01
-6.24002344e-07,1.88100000e-01
-6.23962344e-07,1.88100000e-01
-6.23922344e-07,1.88100000e-01
-6.23882344e-07,1.88100000e-01
-6.23842344e-07,1.88100000e-01
-6.23802344e-07,1.88100000e-01
-6.23762344e-07,1.88100000e-01
-6.23722344e-07,1.88100000e-01
-6.23682344e-07,1.88100000e-01
-6.23642344e-07,1.88100000e-01
-6.23602344e-07,1.88100000e-01
-6.23562344e-07,1.88100000e-01
-6.23522344e-07,1.88100000e-01
-6.23482344e-07,1.88100000e-01
-6.23442344e-07,1.88100000e-01
-6.23402344e-07,1.88100000e-01
-6.23362344e-07,1.88100000e-01
-6.23322344e-07,1.88100000e-01
-6.23282344e-07,1.88100000e-01
-6.23242344e-07,1.88100000e-01
-6.23202344e-07,1.88100000e-01
-6.23162344e-07,1.88100000e-01
-6.23122344e-07,1.88100000e-01
-6.23082344e-07,1.88100000e-01
-6.23042344e-07,1.88100000e-01
-6.23002344e-07,1.88100000e-01
-6.22962344e-07,1.88100000e-01
-6.22922344e-07,1.88100000e-01
-6.22882344e-07,1.88100000e-01
-6.22842344e-07,1.88100000e-01
-6.22802344e-07,1.88100000e-01
-6.22762344e-07,1.88100000e-01
-6.22722344e-07,1.88100000e-01
-6.22682344e-07,1.88100000e-01
-6.22642344e-07,1.88100000e-01
-6.22602344e-07,1.88100000e-01
-6.22562344e-07,1.88100000e-01
-6.22522344e-07,1.88100000e-01
-6.22482344e-07,1.88100000e-01
-6.22442344e-07,1.88100000e-01
-6.22402344e-07,1.88100000e-01
-6.22362344e-07,1.88100000e-01
-6.22322344e-07,1.88100000e-01
-6.22282344e-07,1.88100000e-01
-6.22242344e-07,1.88100000e-01
-6.22202344e-07,1.88100000e-01
-6.22162344e-07,1.88100000e-01
-6.22122344e-07,1.88100000e-01
-6.22082344e-07,1.88101563e-01
-6.22042344e-07,1.88098437e-01
-6.22002344e-07,1.88101563e-01
-6.21962344e-07,1.88098437e-01
-6.21922344e-07,1.88101563e-01
-6.21882344e-07,1.88098437e-01
-6.21842344e-07,1.88101563e-01
-6.21802344e-07,1.88098437e-01
-6.21762344e-07,1.88101563e-01
-6.21722344e-07,1.88098437e-01
-6.21682344e-07,1.88101563e-01
-6.21642344e-07,1.88096875e-01
-6.21602344e-07,1.88103125e-01
-6.21562344e-07,1.88096875e-01
-6.21522344e-07,1.88103125e-01
-6.21482344e-07,1.88095313e-01
-6.21442344e-07,1.88104688e-01
-6.21402344e-07,1.88095313e-01
-6.21362344e-07,1.88106250e-01
-6.21322344e-07,1.88092188e-01
-6.21282344e-07,1.88109375e-01
-6.21242344e-07,1.88087500e-01
-6.21202344e-07,1.88118750e-01
-6.21162344e-07,1.88071875e-01
-6.21122344e-07,1.88153125e-01
-6.21082344e-07,1.87893750e-01
-6.21042344e-07,1.87643750e-01
-6.21002344e-07,1.87732813e-01
-6.20962344e-07,1.87676563e-01
-6.20922344e-07,1.87718750e-01
-6.20882344e-07,1.87684375e-01
-6.20842344e-07,1.87714063e-01
-6.20802344e-07,1.87687500e-01
-6.20762344e-07,1.87710938e-01
-6.20722344e-07,1.87689063e-01
-6.20682344e-07,1.87709375e-01
-6.20642344e-07,1.87690625e-01
-6.20602344e-07,1.87709375e-01
-6.20562344e-07,1.87690625e-01
-6.20522344e-07,1.87709375e-01
-6.20482344e-07,1.87690625e-01
-6.20442344e-07,1.87707813e-01
-6.20402344e-07,1.87692187e-01
-6.20362344e-07,1.87707813e-01
-6.20322344e-07,1.87692187e-01
-6.20282344e-07,1.87707813e-01
-6.20242344e-07,1.87692187e-01
-6.20202344e-07,1.87709375e-01
-6.20162344e-07,1.87690625e-01
-6.20122344e-07,1.87709375e-01
-6.20082344e-07,1.87690625e-01
-6.20042344e-07,1.87709375e-01
-6.20002344e-07,1.87690625e-01
-6.19962344e-07,1.87710938e-01
-6.19922344e-07,1.87689063e-01
-6.19882344e-07,1.87712500e-01
-6.19842344e-07,1.87687500e-01
-6.19802344e-07,1.87714063e-01
-6.19762344e-07,1.87684375e-01
-6.19722344e-07,1.87717187e-01
-6.19682344e-07,1.87679687e-01
-6.19642344e-07,1.87725000e-01
-6.19602344e-07,1.87664063e-01
-6.19562344e-07,1.87760938e-01
-6.19522344e-07,1.87485938e-01
-6.19482344e-07,1.87251562e-01
-6.19442344e-07,1.87325000e-01
-6.19402344e-07,1.87284375e-01
-6.19362344e-07,1.87309375e-01
-6.19322344e-07,1.87293750e-01
-6.19282344e-07,1.87304688e-01
-6.19242344e-07,1.87296875e-01
-6.19202344e-07,1.87301563e-01
-6.19162344e-07,1.87300000e-01
-6.19122344e-07,1.87300000e-01
-6.19082344e-07,1.87301563e-01
-6.19042344e-07,1.87298437e-01
-6.19002344e-07,1.87303125e-01
-6.18962344e-07,1.87296875e-01
-6.18922344e-07,1.87304688e-01
-6.18882344e-07,1.87295313e-01
-6.18842344e-07,1.87306250e-01
-6.18802344e-07,1.87292188e-01
-6.18762344e-07,1.87309375e-01
-6.18722344e-07,1.87289063e-01
-6.18682344e-07,1.87312500e-01
-6.18642344e-07,1.87284375e-01
-6.18602344e-07,1.87321875e-01
-6.18562344e-07,1.87268750e-01
-6.18522344e-07,1.87356250e-01
-6.18482344e-07,1.87090625e-01
-6.18442344e-07,1.86848438e-01
-6.18402344e-07,1.86928125e-01
-6.18362344e-07,1.86881250e-01
-6.18322344e-07,1.86912500e-01
-6.18282344e-07,1.86890625e-01
-6.18242344e-07,1.86907812e-01
-6.18202344e-07,1.86895313e-01
-6.18162344e-07,1.86903125e-01
-6.18122344e-07,1.86898438e-01
-6.18082344e-07,1.86901563e-01
-6.18042344e-07,1.86900000e-01
-6.18002344e-07,1.86898438e-01
-6.17962344e-07,1.86904687e-01
-6.17922344e-07,1.86893750e-01
-6.17882344e-07,1.86909375e-01
-6.17842344e-07,1.86884375e-01
-6.17802344e-07,1.86925000e-01
-6.17762344e-07,1.86850000e-01
-6.17722344e-07,1.87103125e-01
-6.17682344e-07,1.87359375e-01
-6.17642344e-07,1.87265625e-01
-6.17602344e-07,1.87325000e-01
-6.17562344e-07,1.87279688e-01
-6.17522344e-07,1.87317188e-01
-6.17482344e-07,1.87284375e-01
-6.17442344e-07,1.87314063e-01
-6.17402344e-07,1.87287500e-01
-6.17362344e-07,1.87310937e-01
-6.17322344e-07,1.87289063e-01
-6.17282344e-07,1.87310937e-01
-6.17242344e-07,1.87290625e-01
-6.17202344e-07,1.87309375e-01
-6.17162344e-07,1.87290625e-01
-6.17122344e-07,1.87309375e-01
-6.17082344e-07,1.87290625e-01
-6.17042344e-07,1.87309375e-01
-6.17002344e-07,1.87290625e-01
-6.16962344e-07,1.87309375e-01
-6.16922344e-07,1.87289063e-01
-6.16882344e-07,1.87310937e-01
-6.16842344e-07,1.87287500e-01
-6.16802344e-07,1.87314063e-01
-6.16762344e-07,1.87284375e-01
-6.16722344e-07,1.87318750e-01
-6.16682344e-07,1.87276563e-01
-6.16642344e-07,1.87332813e-01
-6.16602344e-07,1.87243750e-01
-6.16562344e-07,1.87509375e-01
-6.16522344e-07,1.87753125e-01
-6.16482344e-07,1.87671875e-01
-6.16442344e-07,1.87720313e-01
-6.16402344e-07,1.87684375e-01
-6.16362344e-07,1.87712500e-01
-6.16322344e-07,1.87689063e-01
-6.16282344e-07,1.87709375e-01
-6.16242344e-07,1.87692187e-01
-6.16202344e-07,1.87707813e-01
-6.16162344e-07,1.87693750e-01
-6.16122344e-07,1.87706250e-01
-6.16082344e-07,1.87693750e-01
-6.16042344e-07,1.87706250e-01
-6.16002344e-07,1.87693750e-01
-6.15962344e-07,1.87706250e-01
-6.15922344e-07,1.87693750e-01
-6.15882344e-07,1.87707813e-01
-6.15842344e-07,1.87692187e-01
-6.15802344e-07,1.87707813e-01
-6.15762344e-07,1.87690625e-01
-6.15722344e-07,1.87710938e-01
-6.15682344e-07,1.87687500e-01
-6.15642344e-07,1.87715625e-01
-6.15602344e-07,1.87679687e-01
-6.15562344e-07,1.87729688e-01
-6.15522344e-07,1.87645312e-01
-6.15482344e-07,1.87907812e-01
-6.15442344e-07,1.88154688e-01
-6.15402344e-07,1.88068750e-01
-6.15362344e-07,1.88121875e-01
-6.15322344e-07,1.88082813e-01
-6.15282344e-07,1.88114063e-01
-6.15242344e-07,1.88087500e-01
-6.15202344e-07,1.88110938e-01
-6.15162344e-07,1.88089063e-01
-6.15122344e-07,1.88110938e-01
-6.15082344e-07,1.88089063e-01
-6.15042344e-07,1.88110938e-01
-6.15002344e-07,1.88089063e-01
-6.14962344e-07,1.88112500e-01
-6.14922344e-07,1.88085937e-01
-6.14882344e-07,1.88117188e-01
-6.14842344e-07,1.88078125e-01
-6.14802344e-07,1.88131250e-01
-6.14762344e-07,1.88045313e-01
-6.14722344e-07,1.88307813e-01
-6.14682344e-07,1.88554688e-01
-6.14642344e-07,1.88468750e-01
-6.14602344e-07,1.88521875e-01
-6.14562344e-07,1.88482813e-01
-6.14522344e-07,1.88514062e-01
