dpa/aes_ch1_20250506141426423.csv

Model,MSO66B
Label,
Waveform Type,ANALOG
Horizontal Units,s
Sample Interval,4.00000000e-11
Record Length,100000
Zero Index,15999.04296875
Vertical Units,A
ANALOG_Thumbnail,
yOffset,1.84500000e-01
yPosition,8.40000000e-01

Labels,
TIME,CH1
-6.39961719e-07,1.73689063e-01
-6.39921719e-07,1.73709375e-01
-6.39881719e-07,1.73692188e-01
-6.39841719e-07,1.73707813e-01
-6.39801719e-07,1.73693750e-01
-6.39761719e-07,1.73707813e-01
-6.39721719e-07,1.73692188e-01
-6.39681719e-07,1.73707813e-01
-6.39641719e-07,1.73690625e-01
-6.39601719e-07,1.73710937e-01
-6.39561719e-07,1.73685937e-01
-6.39521719e-07,1.73718750e-01
-6.39481719e-07,1.73671875e-01
-6.39441719e-07,1.73751563e-01
-6.39401719e-07,1.73495312e-01
-6.39361719e-07,1.73242188e-01
-6.39321719e-07,1.73334375e-01
-6.39281719e-07,1.73275000e-01
-6.39241719e-07,1.73321875e-01
-6.39201719e-07,1.73281250e-01
-6.39161719e-07,1.73318750e-01
-6.39121719e-07,1.73281250e-01
-6.39081719e-07,1.73318750e-01
-6.39041719e-07,1.73278125e-01
-6.39001719e-07,1.73325000e-01
-6.38961719e-07,1.73265625e-01
-6.38921719e-07,1.73359375e-01
-6.38881719e-07,1.73089063e-01
-6.38841719e-07,1.72848438e-01
-6.38801719e-07,1.72928125e-01
-6.38761719e-07,1.72881250e-01
-6.38721719e-07,1.72914062e-01
-6.38681719e-07,1.72887500e-01
-6.38641719e-07,1.72910938e-01
-6.38601719e-07,1.72890625e-01
-6.38561719e-07,1.72909375e-01
-6.38521719e-07,1.72892188e-01
-6.38481719e-07,1.72907813e-01
-6.38441719e-07,1.72890625e-01
-6.38401719e-07,1.72909375e-01
-6.38361719e-07,1.72889062e-01
-6.38321719e-07,1.72912500e-01
-6.38281719e-07,1.72884375e-01
-6.38241719e-07,1.72920313e-01
-6.38201719e-07,1.72870313e-01
-6.38161719e-07,1.72954688e-01
-6.38121719e-07,1.72692188e-01
-6.38081719e-07,1.72445313e-01
-6.38041719e-07,1.72531250e-01
-6.38001719e-07,1.72478125e-01
-6.37961719e-07,1.72517188e-01
-6.37921719e-07,1.72485938e-01
-6.37881719e-07,1.72512500e-01
-6.37841719e-07,1.72489063e-01
-6.37801719e-07,1.72509375e-01
-6.37761719e-07,1.72490625e-01
-6.37721719e-07,1.72507812e-01
-6.37681719e-07,1.72492188e-01
-6.37641719e-07,1.72507812e-01
-6.37601719e-07,1.72492188e-01
-6.37561719e-07,1.72507812e-01
-6.37521719e-07,1.72493750e-01
-6.37481719e-07,1.72506250e-01
-6.37441719e-07,1.72493750e-01
-6.37401719e-07,1.72506250e-01
-6.37361719e-07,1.72493750e-01
-6.37321719e-07,1.72506250e-01
-6.37281719e-07,1.72493750e-01
-6.37241719e-07,1.72506250e-01
-6.37201719e-07,1.72493750e-01
-6.37161719e-07,1.72506250e-01
-6.37121719e-07,1.72493750e-01
-6.37081719e-07,1.72506250e-01
-6.37041719e-07,1.72493750e-01
-6.37001719e-07,1.72506250e-01
-6.36961719e-07,1.72493750e-01
-6.36921719e-07,1.72507812e-01
-6.36881719e-07,1.72492188e-01
-6.36841719e-07,1.72507812e-01
-6.36801719e-07,1.72492188e-01
-6.36761719e-07,1.72509375e-01
-6.36721719e-07,1.72490625e-01
-6.36681719e-07,1.72509375e-01
-6.36641719e-07,1.72489063e-01
-6.36601719e-07,1.72512500e-01
-6.36561719e-07,1.72485938e-01
-6.36521719e-07,1.72517188e-01
-6.36481719e-07,1.72478125e-01
-6.36441719e-07,1.72531250e-01
-6.36401719e-07,1.72443750e-01
-6.36361719e-07,1.72709375e-01
-6.36321719e-07,1.72953125e-01
-6.36281719e-07,1.72868750e-01
-6.36241719e-07,1.72921875e-01
-6.36201719e-07,1.72882813e-01
-6.36161719e-07,1.72915625e-01
-6.36121719e-07,1.72884375e-01
-6.36081719e-07,1.72917188e-01
-6.36041719e-07,1.72879688e-01
-6.36001719e-07,1.72928125e-01
-6.35961719e-07,1.72846875e-01
-6.35921719e-07,1.73104687e-01
-6.35881719e-07,1.73359375e-01
-6.35841719e-07,1.73262500e-01
-6.35801719e-07,1.73329687e-01
-6.35761719e-07,1.73273438e-01
-6.35721719e-07,1.73326563e-01
-6.35681719e-07,1.73270312e-01
-6.35641719e-07,1.73339063e-01
-6.35601719e-07,1.73237500e-01
-6.35561719e-07,1.73515625e-01
-6.35521719e-07,1.73748438e-01
-6.35481719e-07,1.73675000e-01
-6.35441719e-07,1.73715625e-01
-6.35401719e-07,1.73689063e-01
-6.35361719e-07,1.73707813e-01
-6.35321719e-07,1.73693750e-01
-6.35281719e-07,1.73704688e-01
-6.35241719e-07,1.73696875e-01
-6.35201719e-07,1.73703125e-01
-6.35161719e-07,1.73696875e-01
-6.35121719e-07,1.73701563e-01
-6.35081719e-07,1.73698437e-01
-6.35041719e-07,1.73701563e-01
-6.35001719e-07,1.73698437e-01
-6.34961719e-07,1.73701563e-01
-6.34921719e-07,1.73700000e-01
-6.34881719e-07,1.73700000e-01
-6.34841719e-07,1.73700000e-01
-6.34801719e-07,1.73700000e-01
-6.34761719e-07,1.73700000e-01
-6.34721719e-07,1.73700000e-01
-6.34681719e-07,1.73700000e-01
-6.34641719e-07,1.73700000e-01
-6.34601719e-07,1.73700000e-01
-6.34561719e-07,1.73700000e-01
-6.34521719e-07,1.73700000e-01
-6.34481719e-07,1.73700000e-01
-6.34441719e-07,1.73700000e-01
-6.34401719e-07,1.73700000e-01
-6.34361719e-07,1.73700000e-01
-6.34321719e-07,1.73700000e-01
-6.34281719e-07,1.73698437e-01
-6.34241719e-07,1.73701563e-01
-6.34201719e-07,1.73698437e-01
-6.34161719e-07,1.73701563e-01
-6.34121719e-07,1.73696875e-01
-6.34081719e-07,1.73704688e-01
-6.34041719e-07,1.73695313e-01
-6.34001719e-07,1.73707813e-01
-6.33961719e-07,1.73690625e-01
-6.33921719e-07,1.73715625e-01
-6.33881719e-07,1.73675000e-01
-6.33841719e-07,1.73748438e-01
-6.33801719e-07,1.73498438e-01
-6.33761719e-07,1.73239063e-01
-6.33721719e-07,1.73337500e-01
-6.33681719e-07,1.73271875e-01
-6.33641719e-07,1.73323438e-01
-6.33601719e-07,1.73279688e-01
-6.33561719e-07,1.73318750e-01
-6.33521719e-07,1.73282812e-01
-6.33481719e-07,1.73317187e-01
-6.33441719e-07,1.73282812e-01
-6.33401719e-07,1.73317187e-01
-6.33361719e-07,1.73282812e-01
-6.33321719e-07,1.73317187e-01
-6.33281719e-07,1.73282812e-01
-6.33241719e-07,1.73317187e-01
-6.33201719e-07,1.73281250e-01
-6.33161719e-07,1.73320313e-01
-6.33121719e-07,1.73278125e-01
-6.33081719e-07,1.73325000e-01
-6.33041719e-07,1.73268750e-01
-6.33001719e-07,1.73340625e-01
-6.32961719e-07,1.73234375e-01
-6.32921719e-07,1.73518750e-01
-6.32881719e-07,1.73743750e-01
-6.32841719e-07,1.73681250e-01
-6.32801719e-07,1.73709375e-01
-6.32761719e-07,1.73696875e-01
-6.32721719e-07,1.73700000e-01
-6.32681719e-07,1.73703125e-01
-6.32641719e-07,1.73693750e-01
-6.32601719e-07,1.73707813e-01
-6.32561719e-07,1.73689063e-01
-6.32521719e-07,1.73715625e-01
-6.32481719e-07,1.73679688e-01
-6.32441719e-07,1.73731250e-01
-6.32401719e-07,1.73643750e-01
-6.32361719e-07,1.73909375e-01
-6.32321719e-07,1.74151562e-01
-6.32281719e-07,1.74071875e-01
-6.32241719e-07,1.74118750e-01
-6.32201719e-07,1.74087500e-01
-6.32161719e-07,1.74109375e-01
-6.32121719e-07,1.74092187e-01
-6.32081719e-07,1.74106250e-01
-6.32041719e-07,1.74095313e-01
-6.32001719e-07,1.74103125e-01
-6.31961719e-07,1.74098438e-01
-6.31921719e-07,1.74101563e-01
-6.31881719e-07,1.74098438e-01
-6.31841719e-07,1.74100000e-01
-6.31801719e-07,1.74100000e-01
-6.31761719e-07,1.74098438e-01
-6.31721719e-07,1.74101563e-01
-6.31681719e-07,1.74098438e-01
-6.31641719e-07,1.74103125e-01
-6.31601719e-07,1.74096875e-01
-6.31561719e-07,1.74103125e-01
-6.31521719e-07,1.74096875e-01
-6.31481719e-07,1.74104687e-01
-6.31441719e-07,1.74095313e-01
-6.31401719e-07,1.74104687e-01
-6.31361719e-07,1.74093750e-01
-6.31321719e-07,1.74106250e-01
-6.31281719e-07,1.74092187e-01
-6.31241719e-07,1.74107813e-01
-6.31201719e-07,1.74090625e-01
-6.31161719e-07,1.74109375e-01
-6.31121719e-07,1.74089063e-01
-6.31081719e-07,1.74112500e-01
-6.31041719e-07,1.74085938e-01
-6.31001719e-07,1.74117187e-01
-6.30961719e-07,1.74079687e-01
-6.30921719e-07,1.74125000e-01
-6.30881719e-07,1.74064063e-01
-6.30841719e-07,1.74160938e-01
-6.30801719e-07,1.73885938e-01
-6.30761719e-07,1.73653125e-01
-6.30721719e-07,1.73723437e-01
-6.30681719e-07,1.73687500e-01
-6.30641719e-07,1.73707813e-01
-6.30601719e-07,1.73696875e-01
-6.30561719e-07,1.73700000e-01
-6.30521719e-07,1.73703125e-01
-6.30481719e-07,1.73693750e-01
-6.30441719e-07,1.73709375e-01
-6.30401719e-07,1.73687500e-01
-6.30361719e-07,1.73718750e-01
-6.30321719e-07,1.73670313e-01
-6.30281719e-07,1.73754688e-01
-6.30241719e-07,1.73490625e-01
-6.30201719e-07,1.73246875e-01
-6.30161719e-07,1.73328125e-01
-6.30121719e-07,1.73281250e-01
-6.30081719e-07,1.73312500e-01
-6.30041719e-07,1.73292188e-01
-6.30001719e-07,1.73304687e-01
-6.29961719e-07,1.73298438e-01
-6.29921719e-07,1.73300000e-01
-6.29881719e-07,1.73303125e-01
-6.29841719e-07,1.73292188e-01
-6.29801719e-07,1.73314063e-01
-6.29761719e-07,1.73276563e-01
-6.29721719e-07,1.73350000e-01
-6.29681719e-07,1.73096875e-01
-6.29641719e-07,1.72842187e-01
-6.29601719e-07,1.72934375e-01
-6.29561719e-07,1.72875000e-01
-6.29521719e-07,1.72918750e-01
-6.29481719e-07,1.72884375e-01
-6.29441719e-07,1.72912500e-01
-6.29401719e-07,1.72889062e-01
-6.29361719e-07,1.72909375e-01
-6.29321719e-07,1.72892188e-01
-6.29281719e-07,1.72906250e-01
-6.29241719e-07,1.72895313e-01
-6.29201719e-07,1.72904688e-01
-6.29161719e-07,1.72896875e-01
-6.29121719e-07,1.72901562e-01
-6.29081719e-07,1.72900000e-01
-6.29041719e-07,1.72898438e-01
-6.29001719e-07,1.72904688e-01
-6.28961719e-07,1.72892188e-01
-6.28921719e-07,1.72912500e-01
-6.28881719e-07,1.72876562e-01
-6.28841719e-07,1.72948437e-01
-6.28801719e-07,1.72698437e-01
-6.28761719e-07,1.72439063e-01
-6.28721719e-07,1.72535938e-01
-6.28681719e-07,1.72473437e-01
-6.28641719e-07,1.72521875e-01
-6.28601719e-07,1.72481250e-01
-6.28561719e-07,1.72515625e-01
-6.28521719e-07,1.72485938e-01
-6.28481719e-07,1.72514063e-01
-6.28441719e-07,1.72487500e-01
-6.28401719e-07,1.72512500e-01
-6.28361719e-07,1.72489063e-01
-6.28321719e-07,1.72510938e-01
-6.28281719e-07,1.72490625e-01
-6.28241719e-07,1.72509375e-01
-6.28201719e-07,1.72490625e-01
-6.28161719e-07,1.72509375e-01
-6.28121719e-07,1.72492188e-01
-6.28081719e-07,1.72507812e-01
-6.28041719e-07,1.72492188e-01
-6.28001719e-07,1.72507812e-01
-6.27961719e-07,1.72492188e-01
-6.27921719e-07,1.72507812e-01
-6.27881719e-07,1.72492188e-01
-6.27841719e-07,1.72506250e-01
-6.27801719e-07,1.72493750e-01
-6.27761719e-07,1.72506250e-01
-6.27721719e-07,1.72493750e-01
-6.27681719e-07,1.72506250e-01
-6.27641719e-07,1.72493750e-01
-6.27601719e-07,1.72506250e-01
-6.27561719e-07,1.72493750e-01
-6.27521719e-07,1.72506250e-01
-6.27481719e-07,1.72493750e-01
-6.27441719e-07,1.72506250e-01
-6.27401719e-07,1.72493750e-01
-6.27361719e-07,1.72506250e-01
-6.27321719e-07,1.72493750e-01
-6.27281719e-07,1.72506250e-01
-6.27241719e-07,1.72495312e-01
-6.27201719e-07,1.72504688e-01
-6.27161719e-07,1.72495312e-01
-6.27121719e-07,1.72504688e-01
-6.27081719e-07,1.72495312e-01
-6.27041719e-07,1.72504688e-01
-6.27001719e-07,1.72495312e-01
-6.26961719e-07,1.72504688e-01
-6.26921719e-07,1.72495312e-01
-6.26881719e-07,1.72504688e-01
-6.26841719e-07,1.72495312e-01
-6.26801719e-07,1.72504688e-01
-6.26761719e-07,1.72495312e-01
-6.26721719e-07,1.72504688e-01
-6.26681719e-07,1.72495312e-01
-6.26641719e-07,1.72504688e-01
-6.26601719e-07,1.72495312e-01
-6.26561719e-07,1.72504688e-01
-6.26521719e-07,1.72495312e-01
-6.26481719e-07,1.72504688e-01
-6.26441719e-07,1.72493750e-01
-6.26401719e-07,1.72506250e-01
-6.26361719e-07,1.72493750e-01
-6.26321719e-07,1.72506250e-01
-6.26281719e-07,1.72493750e-01
-6.26241719e-07,1.72506250e-01
-6.26201719e-07,1.72493750e-01
-6.26161719e-07,1.72506250e-01
-6.26121719e-07,1.72492188e-01
-6.26081719e-07,1.72507812e-01
-6.26041719e-07,1.72492188e-01
-6.26001719e-07,1.72509375e-01
-6.25961719e-07,1.72489063e-01
-6.25921719e-07,1.72512500e-01
-6.25881719e-07,1.72484375e-01
-6.25841719e-07,1.72520312e-01
-6.25801719e-07,1.72471875e-01
-6.25761719e-07,1.72553125e-01
-6.25721719e-07,1.72295313e-01
-6.25681719e-07,1.72042187e-01
-6.25641719e-07,1.72135938e-01
-6.25601719e-07,1.72071875e-01
-6.25561719e-07,1.72126562e-01
-6.25521719e-07,1.72071875e-01
-6.25481719e-07,1.72135938e-01
-6.25441719e-07,1.72040625e-01
-6.25401719e-07,1.72310938e-01
-6.25361719e-07,1.72553125e-01
-6.25321719e-07,1.72470313e-01
-6.25281719e-07,1.72521875e-01
-6.25241719e-07,1.72482812e-01
-6.25201719e-07,1.72514063e-01
-6.25161719e-07,1.72485938e-01
-6.25121719e-07,1.72512500e-01
-6.25081719e-07,1.72487500e-01
-6.25041719e-07,1.72512500e-01
-6.25001719e-07,1.72487500e-01
-6.24961719e-07,1.72514063e-01
-6.24921719e-07,1.72484375e-01
-6.24881719e-07,1.72518750e-01
-6.24841719e-07,1.72476563e-01
-6.24801719e-07,1.72532812e-01
-6.24761719e-07,1.72443750e-01
-6.24721719e-07,1.72709375e-01
-6.24681719e-07,1.72953125e-01
-6.24641719e-07,1.72868750e-01
-6.24601719e-07,1.72923437e-01
-6.24561719e-07,1.72879688e-01
-6.24521719e-07,1.72918750e-01
-6.24481719e-07,1.72878125e-01
-6.24441719e-07,1.72929688e-01
-6.24401719e-07,1.72846875e-01
-6.24361719e-07,1.73104687e-01
-6.24321719e-07,1.73359375e-01
-6.24281719e-07,1.73262500e-01
-6.24241719e-07,1.73331250e-01
-6.24201719e-07,1.73271875e-01
-6.24161719e-07,1.73329687e-01
-6.24121719e-07,1.73267188e-01
-6.24081719e-07,1.73340625e-01
-6.24041719e-07,1.73234375e-01
-6.24001719e-07,1.73518750e-01
-6.23961719e-07,1.73743750e-01
-6.23921719e-07,1.73679688e-01
-6.23881719e-07,1.73709375e-01
-6.23841719e-07,1.73695313e-01
-6.23801719e-07,1.73700000e-01
-6.23761719e-07,1.73703125e-01
-6.23721719e-07,1.73693750e-01
-6.23681719e-07,1.73710937e-01
-6.23641719e-07,1.73682813e-01
-6.23601719e-07,1.73726563e-01
-6.23561719e-07,1.73646875e-01
-6.23521719e-07,1.73906250e-01
-6.23481719e-07,1.74154688e-01
-6.23441719e-07,1.74068750e-01
-6.23401719e-07,1.74121875e-01
-6.23361719e-07,1.74084375e-01
-6.23321719e-07,1.74112500e-01
-6.23281719e-07,1.74090625e-01
-6.23241719e-07,1.74106250e-01
-6.23201719e-07,1.74095313e-01
-6.23161719e-07,1.74101563e-01
-6.23121719e-07,1.74100000e-01
-6.23081719e-07,1.74095313e-01
-6.23041719e-07,1.74109375e-01
-6.23001719e-07,1.74079687e-01
-6.22961719e-07,1.74145313e-01
-6.22921719e-07,1.73901562e-01
-6.22881719e-07,1.73635938e-01
-6.22841719e-07,1.73740625e-01
-6.22801719e-07,1.73668750e-01
-6.22761719e-07,1.73726563e-01
-6.22721719e-07,1.73675000e-01
-6.22681719e-07,1.73723437e-01
-6.22641719e-07,1.73676563e-01
-6.22601719e-07,1.73723437e-01
-6.22561719e-07,1.73675000e-01
-6.22521719e-07,1.73728125e-01
-6.22481719e-07,1.73662500e-01
-6.22441719e-07,1.73760938e-01
-6.22401719e-07,1.73487500e-01
-6.22361719e-07,1.73250000e-01
-6.22321719e-07,1.73328125e-01
-6.22281719e-07,1.73279688e-01
-6.22241719e-07,1.73317187e-01
-6.22201719e-07,1.73282812e-01
-6.22161719e-07,1.73320313e-01
-6.22121719e-07,1.73270312e-01
-6.22081719e-07,1.73353125e-01
-6.22041719e-07,1.73093750e-01
-6.22001719e-07,1.72842187e-01
-6.21961719e-07,1.72934375e-01
-6.21921719e-07,1.72875000e-01
-6.21881719e-07,1.72920313e-01
-6.21841719e-07,1.72882813e-01
-6.21801719e-07,1.72915625e-01
-6.21761719e-07,1.72885938e-01
-6.21721719e-07,1.72914062e-01
-6.21681719e-07,1.72887500e-01
-6.21641719e-07,1.72912500e-01
-6.21601719e-07,1.72887500e-01
-6.21561719e-07,1.72912500e-01
-6.21521719e-07,1.72887500e-01
-6.21481719e-07,1.72912500e-01
-6.21441719e-07,1.72887500e-01
-6.21401719e-07,1.72912500e-01
-6.21361719e-07,1.72887500e-01
-6.21321719e-07,1.72912500e-01
-6.21281719e-07,1.72887500e-01
-6.21241719e-07,1.72912500e-01
-6.21201719e-07,1.72887500e-01
-6.21161719e-07,1.72914062e-01
-6.21121719e-07,1.72885938e-01
-6.21081719e-07,1.72914062e-01
-6.21041719e-07,1.72884375e-01
-6.21001719e-07,1.72917188e-01
-6.20961719e-07,1.72881250e-01
-6.20921719e-07,1.72921875e-01
-6.20881719e-07,1.72873438e-01
-6.20841719e-07,1.72935937e-01
-6.20801719e-07,1.72839063e-01
-6.20761719e-07,1.73112500e-01
-6.20721719e-07,1.73350000e-01
-6.20681719e-07,1.73273438e-01
-6.20641719e-07,1.73318750e-01
-6.20601719e-07,1.73284375e-01
-6.20561719e-07,1.73315625e-01
-6.20521719e-07,1.73282812e-01
-6.20481719e-07,1.73325000e-01
-6.20441719e-07,1.73251563e-01
-6.20401719e-07,1.73500000e-01
-6.20361719e-07,1.73764063e-01
-6.20321719e-07,1.73659375e-01
-6.20281719e-07,1.73732813e-01
-6.20241719e-07,1.73670313e-01
-6.20201719e-07,1.73729688e-01
-6.20161719e-07,1.73670313e-01
-6.20121719e-07,1.73731250e-01
-6.20081719e-07,1.73664062e-01
-6.20041719e-07,1.73745312e-01
-6.20001719e-07,1.73629688e-01
-6.19961719e-07,1.73923437e-01
-6.19921719e-07,1.74137500e-01
-6.19881719e-07,1.74085938e-01
-6.19841719e-07,1.74104687e-01
-6.19801719e-07,1.74101563e-01
-6.19761719e-07,1.74093750e-01
-6.19721719e-07,1.74109375e-01
-6.19681719e-07,1.74087500e-01
-6.19641719e-07,1.74115625e-01
-6.19601719e-07,1.74079687e-01
-6.19561719e-07,1.74125000e-01
-6.19521719e-07,1.74064063e-01
-6.19481719e-07,1.74162500e-01
-6.19441719e-07,1.73884375e-01
-6.19401719e-07,1.73654688e-01
-6.19361719e-07,1.73720313e-01
-6.19321719e-07,1.73690625e-01
-6.19281719e-07,1.73703125e-01
-6.19241719e-07,1.73701563e-01
-6.19201719e-07,1.73695313e-01
-6.19161719e-07,1.73709375e-01
-6.19121719e-07,1.73685937e-01
-6.19081719e-07,1.73720313e-01
-6.19041719e-07,1.73668750e-01
-6.19001719e-07,1.73757812e-01
-6.18961719e-07,1.73487500e-01
-6.18921719e-07,1.73251563e-01
-6.18881719e-07,1.73323438e-01
-6.18841719e-07,1.73289063e-01
-6.18801719e-07,1.73303125e-01
-6.18761719e-07,1.73304687e-01
-6.18721719e-07,1.73282812e-01
-6.18681719e-07,1.73342187e-01
-6.18641719e-07,1.73103125e-01
-6.18601719e-07,1.72834375e-01
-6.18561719e-07,1.72940625e-01
-6.18521719e-07,1.72867188e-01
-6.18481719e-07,1.72928125e-01
-6.18441719e-07,1.72871875e-01
-6.18401719e-07,1.72929688e-01
-6.18361719e-07,1.72862500e-01
-6.18321719e-07,1.72959375e-01
-6.18281719e-07,1.72689063e-01
-6.18241719e-07,1.72446875e-01
-6.18201719e-07,1.72529688e-01
-6.18161719e-07,1.72476563e-01
-6.18121719e-07,1.72520312e-01
-6.18081719e-07,1.72481250e-01
-6.18041719e-07,1.72518750e-01
-6.18001719e-07,1.72478125e-01
-6.17961719e-07,1.72526563e-01
-6.17921719e-07,1.72464063e-01
-6.17881719e-07,1.72559375e-01
-6.17841719e-07,1.72287500e-01
-6.17801719e-07,1.72051563e-01
-6.17761719e-07,1.72125000e-01
-6.17721719e-07,1.72084375e-01
-6.17681719e-07,1.72110938e-01
-6.17641719e-07,1.72092187e-01
-6.17601719e-07,1.72104688e-01
-6.17561719e-07,1.72096875e-01
-6.17521719e-07,1.72101562e-01
-6.17481719e-07,1.72100000e-01
-6.17441719e-07,1.72100000e-01
-6.17401719e-07,1.72101562e-01
-6.17361719e-07,1.72096875e-01
-6.17321719e-07,1.72103125e-01
-6.17281719e-07,1.72095313e-01
-6.17241719e-07,1.72106250e-01
-6.17201719e-07,1.72092187e-01
-6.17161719e-07,1.72107813e-01
-6.17121719e-07,1.72090625e-01
-6.17081719e-07,1.72112500e-01
-6.17041719e-07,1.72085938e-01
-6.17001719e-07,1.72118750e-01
-6.16961719e-07,1.72076563e-01
-6.16921719e-07,1.72134375e-01
-6.16881719e-07,1.72040625e-01
-6.16841719e-07,1.72314063e-01
-6.16801719e-07,1.72548438e-01
-6.16761719e-07,1.72476563e-01
-6.16721719e-07,1.72512500e-01
-6.16681719e-07,1.72493750e-01
-6.16641719e-07,1.72501563e-01
-6.16601719e-07,1.72501563e-01
-6.16561719e-07,1.72493750e-01
-6.16521719e-07,1.72510938e-01
-6.16481719e-07,1.72482812e-01
-6.16441719e-07,1.72528125e-01
-6.16401719e-07,1.72446875e-01
-6.16361719e-07,1.72707813e-01
-6.16321719e-07,1.72953125e-01
-6.16281719e-07,1.72871875e-01
-6.16241719e-07,1.72918750e-01
-6.16201719e-07,1.72887500e-01
-6.16161719e-07,1.72907813e-01
-6.16121719e-07,1.72896875e-01
-6.16081719e-07,1.72900000e-01
-6.16041719e-07,1.72904688e-01
-6.16001719e-07,1.72887500e-01
-6.15961719e-07,1.72921875e-01
-6.15921719e-07,1.72851562e-01
-6.15881719e-07,1.73103125e-01
-6.15841719e-07,1.73359375e-01
-6.15801719e-07,1.73265625e-01
-6.15761719e-07,1.73323438e-01
-6.15721719e-07,1.73282812e-01
-6.15681719e-07,1.73314063e-01
-6.15641719e-07,1.73289063e-01
-6.15601719e-07,1.73307813e-01
-6.15561719e-07,1.73295312e-01
-6.15521719e-07,1.73301563e-01
-6.15481719e-07,1.73303125e-01
-6.15441719e-07,1.73290625e-01
-6.15401719e-07,1.73318750e-01
-6.15361719e-07,1.73254688e-01
-6.15321719e-07,1.73498438e-01
-6.15281719e-07,1.73762500e-01
-6.15241719e-07,1.73660938e-01
-6.15201719e-07,1.73728125e-01
-6.15161719e-07,1.73676563e-01
-6.15121719e-07,1.73720313e-01
-6.15081719e-07,1.73682813e-01
-6.15041719e-07,1.73715625e-01
-6.15001719e-07,1.73685937e-01
-6.14961719e-07,1.73712500e-01
-6.14921719e-07,1.73689063e-01
-6.14881719e-07,1.73709375e-01
-6.14841719e-07,1.73690625e-01
-6.14801719e-07,1.73707813e-01
-6.14761719e-07,1.73693750e-01
-6.14721719e-07,1.73704688e-01
-6.14681719e-07,1.73696875e-01
-6.14641719e-07,1.73700000e-01
-6.14601719e-07,1.73703125e-01
-6.14561719e-07,1.73692188e-01
-6.14521719e-07,1.73717188e-01
