dpa/aes_ch1_20250506140600154.csv

Model,MSO66B
Label,
Waveform Type,ANALOG
Horizontal Units,s
Sample Interval,4.00000000e-11
Record Length,100000
Zero Index,15999.03125000
Vertical Units,A
ANALOG_Thumbnail,
yOffset,1.84500000e-01
yPosition,0.00000000e+00

Labels,
TIME,CH1
-6.39961250e-07,1.86346031e-01
-6.39921250e-07,1.86364156e-01
-6.39881250e-07,1.86349656e-01
-6.39841250e-07,1.86360531e-01
-6.39801250e-07,1.86352375e-01
-6.39761250e-07,1.86357812e-01
-6.39721250e-07,1.86356000e-01
-6.39681250e-07,1.86354187e-01
-6.39641250e-07,1.86360531e-01
-6.39601250e-07,1.86346031e-01
-6.39561250e-07,1.86380469e-01
-6.39521250e-07,1.86243625e-01
-6.39481250e-07,1.86084125e-01
-6.39441250e-07,1.86151188e-01
-6.39401250e-07,1.86100437e-01
-6.39361250e-07,1.86147563e-01
-6.39321250e-07,1.86096812e-01
-6.39281250e-07,1.86164781e-01
-6.39241250e-07,1.85994406e-01
-6.39201250e-07,1.85869344e-01
-6.39161250e-07,1.85900156e-01
-6.39121250e-07,1.85891094e-01
-6.39081250e-07,1.85885656e-01
-6.39041250e-07,1.85912844e-01
-6.39001250e-07,1.85782344e-01
-6.38961250e-07,1.85615594e-01
-6.38921250e-07,1.85692625e-01
-6.38881250e-07,1.85626469e-01
-6.38841250e-07,1.85705312e-01
-6.38801250e-07,1.85527688e-01
-6.38761250e-07,1.85408062e-01
-6.38721250e-07,1.85433437e-01
-6.38681250e-07,1.85429812e-01
-6.38641250e-07,1.85418937e-01
-6.38601250e-07,1.85452469e-01
-6.38561250e-07,1.85314719e-01
-6.38521250e-07,1.85157031e-01
-6.38481250e-07,1.85222281e-01
-6.38441250e-07,1.85174250e-01
-6.38401250e-07,1.85217750e-01
-6.38361250e-07,1.85170625e-01
-6.38321250e-07,1.85234969e-01
-6.38281250e-07,1.85069125e-01
-6.38241250e-07,1.84937719e-01
-6.38201250e-07,1.84976687e-01
-6.38161250e-07,1.84956750e-01
-6.38121250e-07,1.84969438e-01
-6.38081250e-07,1.84960375e-01
-6.38041250e-07,1.84965812e-01
-6.38001250e-07,1.84963094e-01
-6.37961250e-07,1.84964906e-01
-6.37921250e-07,1.84964000e-01
-6.37881250e-07,1.84963094e-01
-6.37841250e-07,1.84965812e-01
-6.37801250e-07,1.84960375e-01
-6.37761250e-07,1.84969438e-01
-6.37721250e-07,1.84955844e-01
-6.37681250e-07,1.84978500e-01
-6.37641250e-07,1.84935000e-01
-6.37601250e-07,1.85081812e-01
-6.37561250e-07,1.85230437e-01
-6.37521250e-07,1.85176062e-01
-6.37481250e-07,1.85209594e-01
-6.37441250e-07,1.85186031e-01
-6.37401250e-07,1.85201438e-01
-6.37361250e-07,1.85196000e-01
-6.37321250e-07,1.85181500e-01
-6.37281250e-07,1.85298406e-01
-6.37241250e-07,1.85479656e-01
-6.37201250e-07,1.85387219e-01
-6.37161250e-07,1.85469688e-01
-6.37121250e-07,1.85374531e-01
-6.37081250e-07,1.85569375e-01
-6.37041250e-07,1.85670875e-01
-6.37001250e-07,1.85664531e-01
-6.36961250e-07,1.85647312e-01
-6.36921250e-07,1.85680844e-01
-6.36881250e-07,1.85622844e-01
-6.36841250e-07,1.85786875e-01
-6.36801250e-07,1.85915562e-01
-6.36761250e-07,1.85884750e-01
-6.36721250e-07,1.85891094e-01
-6.36681250e-07,1.85901062e-01
-6.36641250e-07,1.85866625e-01
-6.36601250e-07,1.86007094e-01
-6.36561250e-07,1.86161156e-01
-6.36521250e-07,1.86100437e-01
-6.36481250e-07,1.86143031e-01
-6.36441250e-07,1.86104969e-01
-6.36401250e-07,1.86145750e-01
-6.36361250e-07,1.86089562e-01
-6.36321250e-07,1.86246344e-01
-6.36281250e-07,1.86387719e-01
-6.36241250e-07,1.86336969e-01
-6.36201250e-07,1.86370500e-01
-6.36161250e-07,1.86343312e-01
-6.36121250e-07,1.86367781e-01
-6.36081250e-07,1.86343312e-01
-6.36041250e-07,1.86369594e-01
-6.36001250e-07,1.86339687e-01
-6.35961250e-07,1.86377750e-01
-6.35921250e-07,1.86319750e-01
-6.35881250e-07,1.86481062e-01
-6.35841250e-07,1.86615188e-01
-6.35801250e-07,1.86575313e-01
-6.35761250e-07,1.86595250e-01
-6.35721250e-07,1.86583469e-01
-6.35681250e-07,1.86590719e-01
-6.35641250e-07,1.86587094e-01
-6.35601250e-07,1.86588000e-01
-6.35561250e-07,1.86588906e-01
-6.35521250e-07,1.86586188e-01
-6.35481250e-07,1.86590719e-01
-6.35441250e-07,1.86585281e-01
-6.35401250e-07,1.86591625e-01
-6.35361250e-07,1.86583469e-01
-6.35321250e-07,1.86593437e-01
-6.35281250e-07,1.86581656e-01
-6.35241250e-07,1.86596156e-01
-6.35201250e-07,1.86578031e-01
-6.35161250e-07,1.86601594e-01
-6.35121250e-07,1.86568969e-01
-6.35081250e-07,1.86621531e-01
-6.35041250e-07,1.86464750e-01
-6.35001250e-07,1.86327000e-01
-6.34961250e-07,1.86370500e-01
-6.34921250e-07,1.86346938e-01
-6.34881250e-07,1.86361438e-01
-6.34841250e-07,1.86352375e-01
-6.34801250e-07,1.86357812e-01
-6.34761250e-07,1.86355094e-01
-6.34721250e-07,1.86355094e-01
-6.34681250e-07,1.86357812e-01
-6.34641250e-07,1.86352375e-01
-6.34601250e-07,1.86361438e-01
-6.34561250e-07,1.86348750e-01
-6.34521250e-07,1.86366875e-01
-6.34481250e-07,1.86339687e-01
-6.34441250e-07,1.86387719e-01
-6.34401250e-07,1.86235469e-01
-6.34361250e-07,1.86093188e-01
-6.34321250e-07,1.86140312e-01
-6.34281250e-07,1.86113125e-01
-6.34241250e-07,1.86131250e-01
-6.34201250e-07,1.86119469e-01
-6.34161250e-07,1.86126719e-01
-6.34121250e-07,1.86123094e-01
-6.34081250e-07,1.86122188e-01
-6.34041250e-07,1.86129437e-01
-6.34001250e-07,1.86112219e-01
-6.33961250e-07,1.86150281e-01
-6.33921250e-07,1.86008906e-01
-6.33881250e-07,1.85855750e-01
-6.33841250e-07,1.85914656e-01
-6.33801250e-07,1.85874781e-01
-6.33761250e-07,1.85906500e-01
-6.33721250e-07,1.85879313e-01
-6.33681250e-07,1.85902875e-01
-6.33641250e-07,1.85882031e-01
-6.33601250e-07,1.85901969e-01
-6.33561250e-07,1.85882937e-01
-6.33521250e-07,1.85901062e-01
-6.33481250e-07,1.85882937e-01
-6.33441250e-07,1.85901062e-01
-6.33401250e-07,1.85882937e-01
-6.33361250e-07,1.85901062e-01
-6.33321250e-07,1.85882937e-01
-6.33281250e-07,1.85901062e-01
-6.33241250e-07,1.85882031e-01
-6.33201250e-07,1.85902875e-01
-6.33161250e-07,1.85880219e-01
-6.33121250e-07,1.85906500e-01
-6.33081250e-07,1.85874781e-01
-6.33041250e-07,1.85914656e-01
-6.33001250e-07,1.85853938e-01
-6.32961250e-07,1.86018875e-01
-6.32921250e-07,1.86148469e-01
-6.32881250e-07,1.86114031e-01
-6.32841250e-07,1.86127625e-01
-6.32801250e-07,1.86125812e-01
-6.32761250e-07,1.86117656e-01
-6.32721250e-07,1.86137594e-01
-6.32681250e-07,1.86095000e-01
-6.32641250e-07,1.86242719e-01
-6.32601250e-07,1.86387719e-01
-6.32561250e-07,1.86339687e-01
-6.32521250e-07,1.86364156e-01
-6.32481250e-07,1.86356906e-01
-6.32441250e-07,1.86339687e-01
-6.32401250e-07,1.86462031e-01
-6.32361250e-07,1.86633313e-01
-6.32321250e-07,1.86556281e-01
-6.32281250e-07,1.86615188e-01
-6.32241250e-07,1.86562625e-01
-6.32201250e-07,1.86612469e-01
-6.32161250e-07,1.86561719e-01
-6.32121250e-07,1.86618813e-01
-6.32081250e-07,1.86542687e-01
-6.32041250e-07,1.86721219e-01
-6.32001250e-07,1.86839031e-01
-6.31961250e-07,1.86814563e-01
-6.31921250e-07,1.86820000e-01
-6.31881250e-07,1.86823625e-01
-6.31841250e-07,1.86814563e-01
-6.31801250e-07,1.86827250e-01
-6.31761250e-07,1.86810937e-01
-6.31721250e-07,1.86830875e-01
-6.31681250e-07,1.86807312e-01
-6.31641250e-07,1.86836312e-01
-6.31601250e-07,1.86797344e-01
-6.31561250e-07,1.86857156e-01
-6.31521250e-07,1.86694031e-01
-6.31481250e-07,1.86562625e-01
-6.31441250e-07,1.86598875e-01
-6.31401250e-07,1.86583469e-01
-6.31361250e-07,1.86588906e-01
-6.31321250e-07,1.86589813e-01
-6.31281250e-07,1.86582562e-01
-6.31241250e-07,1.86597062e-01
-6.31201250e-07,1.86572594e-01
-6.31161250e-07,1.86617906e-01
-6.31121250e-07,1.86468375e-01
-6.31081250e-07,1.86323375e-01
-6.31041250e-07,1.86375031e-01
-6.31001250e-07,1.86342406e-01
-6.30961250e-07,1.86366875e-01
-6.30921250e-07,1.86346938e-01
-6.30881250e-07,1.86365062e-01
-6.30841250e-07,1.86346938e-01
-6.30801250e-07,1.86366875e-01
-6.30761250e-07,1.86340594e-01
-6.30721250e-07,1.86385000e-01
-6.30681250e-07,1.86240000e-01
-6.30641250e-07,1.86086844e-01
-6.30601250e-07,1.86148469e-01
-6.30561250e-07,1.86103156e-01
-6.30521250e-07,1.86144844e-01
-6.30481250e-07,1.86102250e-01
-6.30441250e-07,1.86151188e-01
-6.30401250e-07,1.86082312e-01
-6.30361250e-07,1.86254500e-01
-6.30321250e-07,1.86377750e-01
-6.30281250e-07,1.86348750e-01
-6.30241250e-07,1.86356906e-01
-6.30201250e-07,1.86358719e-01
-6.30161250e-07,1.86349656e-01
-6.30121250e-07,1.86365062e-01
-6.30081250e-07,1.86342406e-01
-6.30041250e-07,1.86375938e-01
-6.30001250e-07,1.86319750e-01
-6.29961250e-07,1.86481969e-01
-6.29921250e-07,1.86612469e-01
-6.29881250e-07,1.86579844e-01
-6.29841250e-07,1.86587094e-01
-6.29801250e-07,1.86597969e-01
-6.29761250e-07,1.86560813e-01
-6.29721250e-07,1.86705812e-01
-6.29681250e-07,1.86852625e-01
-6.29641250e-07,1.86803688e-01
-6.29601250e-07,1.86827250e-01
-6.29561250e-07,1.86820906e-01
-6.29521250e-07,1.86802781e-01
-6.29481250e-07,1.86926938e-01
-6.29441250e-07,1.87096406e-01
-6.29401250e-07,1.87021187e-01
-6.29361250e-07,1.87078281e-01
-6.29321250e-07,1.87026625e-01
-6.29281250e-07,1.87081000e-01
-6.29241250e-07,1.87010312e-01
-6.29201250e-07,1.87180687e-01
-6.29161250e-07,1.87308469e-01
-6.29121250e-07,1.87272219e-01
-6.29081250e-07,1.87292156e-01
-6.29041250e-07,1.87277656e-01
-6.29001250e-07,1.87289437e-01
-6.28961250e-07,1.87278562e-01
-6.28921250e-07,1.87291250e-01
-6.28881250e-07,1.87274937e-01
-6.28841250e-07,1.87298500e-01
-6.28801250e-07,1.87255906e-01
-6.28761250e-07,1.87400000e-01
-6.28721250e-07,1.87553156e-01
-6.28681250e-07,1.87491531e-01
-6.28641250e-07,1.87537750e-01
-6.28601250e-07,1.87491531e-01
-6.28561250e-07,1.87553156e-01
-6.28521250e-07,1.87391844e-01
-6.28481250e-07,1.87255000e-01
-6.28441250e-07,1.87300313e-01
-6.28401250e-07,1.87272219e-01
-6.28361250e-07,1.87293969e-01
-6.28321250e-07,1.87274031e-01
-6.28281250e-07,1.87293969e-01
-6.28241250e-07,1.87274031e-01
-6.28201250e-07,1.87294875e-01
-6.28161250e-07,1.87271313e-01
-6.28121250e-07,1.87300313e-01
-6.28081250e-07,1.87262250e-01
-6.28041250e-07,1.87321156e-01
-6.28001250e-07,1.87158031e-01
-6.27961250e-07,1.87026625e-01
-6.27921250e-07,1.87061969e-01
-6.27881250e-07,1.87048375e-01
-6.27841250e-07,1.87051094e-01
-6.27801250e-07,1.87058344e-01
-6.27761250e-07,1.87038406e-01
-6.27721250e-07,1.87081000e-01
-6.27681250e-07,1.86933281e-01
-6.27641250e-07,1.86787375e-01
-6.27601250e-07,1.86838125e-01
-6.27561250e-07,1.86808219e-01
-6.27521250e-07,1.86827250e-01
-6.27481250e-07,1.86815469e-01
-6.27441250e-07,1.86820906e-01
-6.27401250e-07,1.86822719e-01
-6.27361250e-07,1.86810031e-01
-6.27321250e-07,1.86844469e-01
-6.27281250e-07,1.86705812e-01
-6.27241250e-07,1.86550844e-01
-6.27201250e-07,1.86611562e-01
-6.27161250e-07,1.86570781e-01
-6.27121250e-07,1.86602500e-01
-6.27081250e-07,1.86575313e-01
-6.27041250e-07,1.86598875e-01
-6.27001250e-07,1.86578031e-01
-6.26961250e-07,1.86597062e-01
-6.26921250e-07,1.86579844e-01
-6.26881250e-07,1.86595250e-01
-6.26841250e-07,1.86580750e-01
-6.26801250e-07,1.86594344e-01
-6.26761250e-07,1.86581656e-01
-6.26721250e-07,1.86593437e-01
-6.26681250e-07,1.86582562e-01
-6.26641250e-07,1.86593437e-01
-6.26601250e-07,1.86583469e-01
-6.26561250e-07,1.86592531e-01
-6.26521250e-07,1.86584375e-01
-6.26481250e-07,1.86591625e-01
-6.26441250e-07,1.86584375e-01
-6.26401250e-07,1.86591625e-01
-6.26361250e-07,1.86585281e-01
-6.26321250e-07,1.86590719e-01
-6.26281250e-07,1.86585281e-01
-6.26241250e-07,1.86589813e-01
-6.26201250e-07,1.86586188e-01
-6.26161250e-07,1.86588906e-01
-6.26121250e-07,1.86587094e-01
-6.26081250e-07,1.86588000e-01
-6.26041250e-07,1.86588000e-01
-6.26001250e-07,1.86587094e-01
-6.25961250e-07,1.86589813e-01
-6.25921250e-07,1.86584375e-01
-6.25881250e-07,1.86593437e-01
-6.25841250e-07,1.86579844e-01
-6.25801250e-07,1.86602500e-01
-6.25761250e-07,1.86559000e-01
-6.25721250e-07,1.86705812e-01
-6.25681250e-07,1.86854437e-01
-6.25641250e-07,1.86799156e-01
-6.25601250e-07,1.86835406e-01
-6.25561250e-07,1.86808219e-01
-6.25521250e-07,1.86829969e-01
-6.25481250e-07,1.86810937e-01
-6.25441250e-07,1.86828156e-01
-6.25401250e-07,1.86812750e-01
-6.25361250e-07,1.86826344e-01
-6.25321250e-07,1.86814563e-01
-6.25281250e-07,1.86825437e-01
-6.25241250e-07,1.86815469e-01
-6.25201250e-07,1.86823625e-01
-6.25161250e-07,1.86816375e-01
-6.25121250e-07,1.86822719e-01
-6.25081250e-07,1.86818188e-01
-6.25041250e-07,1.86821812e-01
-6.25001250e-07,1.86819094e-01
-6.24961250e-07,1.86819094e-01
-6.24921250e-07,1.86822719e-01
-6.24881250e-07,1.86814563e-01
-6.24841250e-07,1.86830875e-01
-6.24801250e-07,1.86794625e-01
-6.24761250e-07,1.86934187e-01
-6.24721250e-07,1.87089156e-01
-6.24681250e-07,1.87028438e-01
-6.24641250e-07,1.87070125e-01
-6.24601250e-07,1.87036594e-01
-6.24561250e-07,1.87065594e-01
-6.24521250e-07,1.87039312e-01
-6.24481250e-07,1.87063781e-01
-6.24441250e-07,1.87040219e-01
-6.24401250e-07,1.87062875e-01
-6.24361250e-07,1.87041125e-01
-6.24321250e-07,1.87062875e-01
-6.24281250e-07,1.87041125e-01
-6.24241250e-07,1.87062875e-01
-6.24201250e-07,1.87040219e-01
-6.24161250e-07,1.87064687e-01
-6.24121250e-07,1.87037500e-01
-6.24081250e-07,1.87069219e-01
-6.24041250e-07,1.87030250e-01
-6.24001250e-07,1.87088250e-01
-6.23961250e-07,1.86926938e-01
-6.23921250e-07,1.86792812e-01
-6.23881250e-07,1.86834500e-01
-6.23841250e-07,1.86810937e-01
-6.23801250e-07,1.86826344e-01
-6.23761250e-07,1.86814563e-01
-6.23721250e-07,1.86824531e-01
-6.23681250e-07,1.86814563e-01
-6.23641250e-07,1.86825437e-01
-6.23601250e-07,1.86812750e-01
-6.23561250e-07,1.86829063e-01
-6.23521250e-07,1.86805500e-01
-6.23481250e-07,1.86849000e-01
-6.23441250e-07,1.86702188e-01
-6.23401250e-07,1.86553562e-01
-6.23361250e-07,1.86608844e-01
-6.23321250e-07,1.86571687e-01
-6.23281250e-07,1.86601594e-01
-6.23241250e-07,1.86576219e-01
-6.23201250e-07,1.86598875e-01
-6.23161250e-07,1.86578031e-01
-6.23121250e-07,1.86597062e-01
-6.23081250e-07,1.86578937e-01
-6.23041250e-07,1.86597062e-01
-6.23001250e-07,1.86578937e-01
-6.22961250e-07,1.86597062e-01
-6.22921250e-07,1.86578937e-01
-6.22881250e-07,1.86597062e-01
-6.22841250e-07,1.86578937e-01
-6.22801250e-07,1.86597062e-01
-6.22761250e-07,1.86578937e-01
-6.22721250e-07,1.86597969e-01
-6.22681250e-07,1.86578031e-01
-6.22641250e-07,1.86598875e-01
-6.22601250e-07,1.86577125e-01
-6.22561250e-07,1.86599781e-01
-6.22521250e-07,1.86574406e-01
-6.22481250e-07,1.86603406e-01
-6.22441250e-07,1.86569875e-01
-6.22401250e-07,1.86611562e-01
-6.22361250e-07,1.86549031e-01
-6.22321250e-07,1.86715781e-01
-6.22281250e-07,1.86844469e-01
-6.22241250e-07,1.86810031e-01
-6.22201250e-07,1.86823625e-01
-6.22161250e-07,1.86820000e-01
-6.22121250e-07,1.86817281e-01
-6.22081250e-07,1.86825437e-01
-6.22041250e-07,1.86810937e-01
-6.22001250e-07,1.86835406e-01
-6.21961250e-07,1.86790094e-01
-6.21921250e-07,1.86939625e-01
-6.21881250e-07,1.87084625e-01
-6.21841250e-07,1.87032969e-01
-6.21801250e-07,1.87065594e-01
-6.21761250e-07,1.87042031e-01
-6.21721250e-07,1.87061062e-01
-6.21681250e-07,1.87043844e-01
-6.21641250e-07,1.87059250e-01
-6.21601250e-07,1.87044750e-01
-6.21561250e-07,1.87060156e-01
-6.21521250e-07,1.87042938e-01
-6.21481250e-07,1.87063781e-01
-6.21441250e-07,1.87035687e-01
-6.21401250e-07,1.87081906e-01
-6.21361250e-07,1.86933281e-01
-6.21321250e-07,1.86785563e-01
-6.21281250e-07,1.86840844e-01
-6.21241250e-07,1.86803688e-01
-6.21201250e-07,1.86835406e-01
-6.21161250e-07,1.86805500e-01
-6.21121250e-07,1.86836312e-01
-6.21081250e-07,1.86799156e-01
-6.21041250e-07,1.86854437e-01
-6.21001250e-07,1.86697656e-01
-6.20961250e-07,1.86557187e-01
-6.20921250e-07,1.86606125e-01
-6.20881250e-07,1.86573500e-01
-6.20841250e-07,1.86602500e-01
-6.20801250e-07,1.86569875e-01
-6.20761250e-07,1.86619719e-01
-6.20721250e-07,1.86469281e-01
-6.20681250e-07,1.86322469e-01
-6.20641250e-07,1.86376844e-01
-6.20601250e-07,1.86339687e-01
-6.20561250e-07,1.86370500e-01
-6.20521250e-07,1.86342406e-01
-6.20481250e-07,1.86368687e-01
-6.20441250e-07,1.86342406e-01
-6.20401250e-07,1.86370500e-01
-6.20361250e-07,1.86339687e-01
-6.20321250e-07,1.86375031e-01
-6.20281250e-07,1.86331531e-01
-6.20241250e-07,1.86394969e-01
-6.20201250e-07,1.86228219e-01
-6.20161250e-07,1.86100437e-01
-6.20121250e-07,1.86133063e-01
-6.20081250e-07,1.86121281e-01
-6.20041250e-07,1.86123094e-01
-6.20001250e-07,1.86128531e-01
-6.19961250e-07,1.86114937e-01
-6.19921250e-07,1.86139406e-01
-6.19881250e-07,1.86094094e-01
-6.19841250e-07,1.86243625e-01
-6.19801250e-07,1.86388625e-01
-6.19761250e-07,1.86337875e-01
-6.19721250e-07,1.86367781e-01
-6.19681250e-07,1.86346938e-01
-6.19641250e-07,1.86363250e-01
-6.19601250e-07,1.86350562e-01
-6.19561250e-07,1.86360531e-01
-6.19521250e-07,1.86352375e-01
-6.19481250e-07,1.86358719e-01
-6.19441250e-07,1.86353281e-01
-6.19401250e-07,1.86357812e-01
-6.19361250e-07,1.86355094e-01
-6.19321250e-07,1.86356906e-01
-6.19281250e-07,1.86356000e-01
-6.19241250e-07,1.86356000e-01
-6.19201250e-07,1.86356906e-01
-6.19161250e-07,1.86355094e-01
-6.19121250e-07,1.86357812e-01
-6.19081250e-07,1.86353281e-01
-6.19041250e-07,1.86359625e-01
-6.19001250e-07,1.86351469e-01
-6.18961250e-07,1.86363250e-01
-6.18921250e-07,1.86346031e-01
-6.18881250e-07,1.86371406e-01
-6.18841250e-07,1.86326094e-01
-6.18801250e-07,1.86474719e-01
-6.18761250e-07,1.86621531e-01
-6.18721250e-07,1.86568969e-01
-6.18681250e-07,1.86601594e-01
-6.18641250e-07,1.86577125e-01
-6.18601250e-07,1.86597062e-01
-6.18561250e-07,1.86579844e-01
-6.18521250e-07,1.86595250e-01
-6.18481250e-07,1.86581656e-01
-6.18441250e-07,1.86593437e-01
-6.18401250e-07,1.86582562e-01
-6.18361250e-07,1.86592531e-01
-6.18321250e-07,1.86583469e-01
-6.18281250e-07,1.86592531e-01
-6.18241250e-07,1.86583469e-01
-6.18201250e-07,1.86591625e-01
-6.18161250e-07,1.86584375e-01
-6.18121250e-07,1.86591625e-01
-6.18081250e-07,1.86584375e-01
-6.18041250e-07,1.86591625e-01
-6.18001250e-07,1.86584375e-01
-6.17961250e-07,1.86591625e-01
-6.17921250e-07,1.86584375e-01
-6.17881250e-07,1.86591625e-01
-6.17841250e-07,1.86584375e-01
-6.17801250e-07,1.86590719e-01
-6.17761250e-07,1.86585281e-01
-6.17721250e-07,1.86590719e-01
-6.17681250e-07,1.86585281e-01
-6.17641250e-07,1.86590719e-01
-6.17601250e-07,1.86585281e-01
-6.17561250e-07,1.86590719e-01
-6.17521250e-07,1.86585281e-01
-6.17481250e-07,1.86590719e-01
-6.17441250e-07,1.86584375e-01
-6.17401250e-07,1.86591625e-01
-6.17361250e-07,1.86584375e-01
-6.17321250e-07,1.86591625e-01
-6.17281250e-07,1.86584375e-01
-6.17241250e-07,1.86591625e-01
-6.17201250e-07,1.86584375e-01
-6.17161250e-07,1.86591625e-01
-6.17121250e-07,1.86584375e-01
-6.17081250e-07,1.86591625e-01
-6.17041250e-07,1.86584375e-01
-6.17001250e-07,1.86592531e-01
-6.16961250e-07,1.86583469e-01
-6.16921250e-07,1.86592531e-01
-6.16881250e-07,1.86583469e-01
-6.16841250e-07,1.86593437e-01
-6.16801250e-07,1.86582562e-01
-6.16761250e-07,1.86594344e-01
-6.16721250e-07,1.86580750e-01
-6.16681250e-07,1.86596156e-01
-6.16641250e-07,1.86578937e-01
-6.16601250e-07,1.86598875e-01
-6.16561250e-07,1.86574406e-01
-6.16521250e-07,1.86607937e-01
-6.16481250e-07,1.86553562e-01
-6.16441250e-07,1.86711250e-01
-6.16401250e-07,1.86849000e-01
-6.16361250e-07,1.86804594e-01
-6.16321250e-07,1.86829063e-01
-6.16281250e-07,1.86813656e-01
-6.16241250e-07,1.86824531e-01
-6.16201250e-07,1.86817281e-01
-6.16161250e-07,1.86821812e-01
-6.16121250e-07,1.86819094e-01
-6.16081250e-07,1.86820000e-01
-6.16041250e-07,1.86820906e-01
-6.16001250e-07,1.86818188e-01
-6.15961250e-07,1.86822719e-01
-6.15921250e-07,1.86816375e-01
-6.15881250e-07,1.86825437e-01
-6.15841250e-07,1.86812750e-01
-6.15801250e-07,1.86829969e-01
-6.15761250e-07,1.86803688e-01
-6.15721250e-07,1.86850812e-01
-6.15681250e-07,1.86700375e-01
-6.15641250e-07,1.86556281e-01
-6.15601250e-07,1.86606125e-01
-6.15561250e-07,1.86576219e-01
-6.15521250e-07,1.86597062e-01
-6.15481250e-07,1.86581656e-01
-6.15441250e-07,1.86592531e-01
-6.15401250e-07,1.86585281e-01
-6.15361250e-07,1.86588000e-01
-6.15321250e-07,1.86590719e-01
-6.15281250e-07,1.86578937e-01
-6.15241250e-07,1.86610656e-01
-6.15201250e-07,1.86476531e-01
-6.15161250e-07,1.86315219e-01
-6.15121250e-07,1.86383187e-01
-6.15081250e-07,1.86333344e-01
-6.15041250e-07,1.86376844e-01
-6.15001250e-07,1.86335156e-01
-6.14961250e-07,1.86378656e-01
-6.14921250e-07,1.86328812e-01
-6.14881250e-07,1.86396781e-01
-6.14841250e-07,1.86227312e-01
-6.14801250e-07,1.86100437e-01
-6.14761250e-07,1.86133969e-01
-6.14721250e-07,1.86119469e-01
-6.14681250e-07,1.86125812e-01
-6.14641250e-07,1.86124000e-01
-6.14601250e-07,1.86123094e-01
-6.14561250e-07,1.86125812e-01
-6.14521250e-07,1.86121281e-01
