dpa/aes_ch1_20250506140651987.csv

Model,MSO66B
Label,
Waveform Type,ANALOG
Horizontal Units,s
Sample Interval,4.00000000e-11
Record Length,100000
Zero Index,15999.03125000
Vertical Units,A
ANALOG_Thumbnail,
yOffset,1.84500000e-01
yPosition,8.40000000e-01

Labels,
TIME,CH1
-6.39961250e-07,1.92510938e-01
-6.39921250e-07,1.92487500e-01
-6.39881250e-07,1.92514062e-01
-6.39841250e-07,1.92484375e-01
-6.39801250e-07,1.92518750e-01
-6.39761250e-07,1.92475000e-01
-6.39721250e-07,1.92534375e-01
-6.39681250e-07,1.92440625e-01
-6.39641250e-07,1.92712500e-01
-6.39601250e-07,1.92948438e-01
-6.39561250e-07,1.92875000e-01
-6.39521250e-07,1.92915625e-01
-6.39481250e-07,1.92890625e-01
-6.39441250e-07,1.92904688e-01
-6.39401250e-07,1.92898438e-01
-6.39361250e-07,1.92898438e-01
-6.39321250e-07,1.92906250e-01
-6.39281250e-07,1.92889063e-01
-6.39241250e-07,1.92921875e-01
-6.39201250e-07,1.92853125e-01
-6.39161250e-07,1.93100000e-01
-6.39121250e-07,1.93360937e-01
-6.39081250e-07,1.93262500e-01
-6.39041250e-07,1.93328125e-01
-6.39001250e-07,1.93276562e-01
-6.38961250e-07,1.93320313e-01
-6.38921250e-07,1.93282813e-01
-6.38881250e-07,1.93317188e-01
-6.38841250e-07,1.93284375e-01
-6.38801250e-07,1.93315625e-01
-6.38761250e-07,1.93285938e-01
-6.38721250e-07,1.93314062e-01
-6.38681250e-07,1.93285938e-01
-6.38641250e-07,1.93314062e-01
-6.38601250e-07,1.93285938e-01
-6.38561250e-07,1.93314062e-01
-6.38521250e-07,1.93284375e-01
-6.38481250e-07,1.93315625e-01
-6.38441250e-07,1.93282813e-01
-6.38401250e-07,1.93318750e-01
-6.38361250e-07,1.93279688e-01
-6.38321250e-07,1.93323438e-01
-6.38281250e-07,1.93271875e-01
-6.38241250e-07,1.93337500e-01
-6.38201250e-07,1.93237500e-01
-6.38161250e-07,1.93515625e-01
-6.38121250e-07,1.93746875e-01
-6.38081250e-07,1.93678125e-01
-6.38041250e-07,1.93712500e-01
-6.38001250e-07,1.93692188e-01
-6.37961250e-07,1.93704688e-01
-6.37921250e-07,1.93698438e-01
-6.37881250e-07,1.93700000e-01
-6.37841250e-07,1.93701563e-01
-6.37801250e-07,1.93696875e-01
-6.37761250e-07,1.93704688e-01
-6.37721250e-07,1.93693750e-01
-6.37681250e-07,1.93707813e-01
-6.37641250e-07,1.93690625e-01
-6.37601250e-07,1.93710938e-01
-6.37561250e-07,1.93687500e-01
-6.37521250e-07,1.93717187e-01
-6.37481250e-07,1.93678125e-01
-6.37441250e-07,1.93732813e-01
-6.37401250e-07,1.93642188e-01
-6.37361250e-07,1.93910938e-01
-6.37321250e-07,1.94151563e-01
-6.37281250e-07,1.94073438e-01
-6.37241250e-07,1.94117188e-01
-6.37201250e-07,1.94089063e-01
-6.37161250e-07,1.94107813e-01
-6.37121250e-07,1.94095313e-01
-6.37081250e-07,1.94103125e-01
-6.37041250e-07,1.94098437e-01
-6.37001250e-07,1.94100000e-01
-6.36961250e-07,1.94101563e-01
-6.36921250e-07,1.94096875e-01
-6.36881250e-07,1.94106250e-01
-6.36841250e-07,1.94092188e-01
-6.36801250e-07,1.94110937e-01
-6.36761250e-07,1.94085937e-01
-6.36721250e-07,1.94118750e-01
-6.36681250e-07,1.94075000e-01
-6.36641250e-07,1.94137500e-01
-6.36601250e-07,1.94034375e-01
-6.36561250e-07,1.94323438e-01
-6.36521250e-07,1.94528125e-01
-6.36481250e-07,1.94520313e-01
-6.36441250e-07,1.94317188e-01
-6.36401250e-07,1.94026562e-01
-6.36361250e-07,1.94146875e-01
-6.36321250e-07,1.94065625e-01
-6.36281250e-07,1.94128125e-01
-6.36241250e-07,1.94076562e-01
-6.36201250e-07,1.94120313e-01
-6.36161250e-07,1.94082813e-01
-6.36121250e-07,1.94115625e-01
-6.36081250e-07,1.94087500e-01
-6.36041250e-07,1.94110937e-01
-6.36001250e-07,1.94092188e-01
-6.35961250e-07,1.94104688e-01
-6.35921250e-07,1.94100000e-01
-6.35881250e-07,1.94089063e-01
-6.35841250e-07,1.94134375e-01
-6.35801250e-07,1.93912500e-01
-6.35761250e-07,1.93625000e-01
-6.35721250e-07,1.93751563e-01
-6.35681250e-07,1.93656250e-01
-6.35641250e-07,1.93740625e-01
-6.35601250e-07,1.93659375e-01
-6.35561250e-07,1.93743750e-01
-6.35521250e-07,1.93648437e-01
-6.35481250e-07,1.93776562e-01
-6.35441250e-07,1.93471875e-01
-6.35401250e-07,1.93265625e-01
-6.35361250e-07,1.93310938e-01
-6.35321250e-07,1.93298438e-01
-6.35281250e-07,1.93295313e-01
-6.35241250e-07,1.93307813e-01
-6.35201250e-07,1.93289062e-01
-6.35161250e-07,1.93314062e-01
-6.35121250e-07,1.93281250e-01
-6.35081250e-07,1.93323438e-01
-6.35041250e-07,1.93265625e-01
-6.35001250e-07,1.93359375e-01
-6.34961250e-07,1.93087500e-01
-6.34921250e-07,1.92850000e-01
-6.34881250e-07,1.92925000e-01
-6.34841250e-07,1.92884375e-01
-6.34801250e-07,1.92910938e-01
-6.34761250e-07,1.92892188e-01
-6.34721250e-07,1.92906250e-01
-6.34681250e-07,1.92895312e-01
-6.34641250e-07,1.92903125e-01
-6.34601250e-07,1.92898438e-01
-6.34561250e-07,1.92901563e-01
-6.34521250e-07,1.92898438e-01
-6.34481250e-07,1.92900000e-01
-6.34441250e-07,1.92900000e-01
-6.34401250e-07,1.92900000e-01
-6.34361250e-07,1.92900000e-01
-6.34321250e-07,1.92898438e-01
-6.34281250e-07,1.92901563e-01
-6.34241250e-07,1.92898438e-01
-6.34201250e-07,1.92901563e-01
-6.34161250e-07,1.92898438e-01
-6.34121250e-07,1.92901563e-01
-6.34081250e-07,1.92896875e-01
-6.34041250e-07,1.92903125e-01
-6.34001250e-07,1.92896875e-01
-6.33961250e-07,1.92903125e-01
-6.33921250e-07,1.92896875e-01
-6.33881250e-07,1.92903125e-01
-6.33841250e-07,1.92896875e-01
-6.33801250e-07,1.92904688e-01
-6.33761250e-07,1.92895312e-01
-6.33721250e-07,1.92904688e-01
-6.33681250e-07,1.92895312e-01
-6.33641250e-07,1.92906250e-01
-6.33601250e-07,1.92893750e-01
-6.33561250e-07,1.92907812e-01
-6.33521250e-07,1.92892188e-01
-6.33481250e-07,1.92909375e-01
-6.33441250e-07,1.92889063e-01
-6.33401250e-07,1.92914063e-01
-6.33361250e-07,1.92881250e-01
-6.33321250e-07,1.92929688e-01
-6.33281250e-07,1.92846875e-01
-6.33241250e-07,1.93106250e-01
-6.33201250e-07,1.93356250e-01
-6.33161250e-07,1.93267187e-01
-6.33121250e-07,1.93323438e-01
-6.33081250e-07,1.93281250e-01
-6.33041250e-07,1.93315625e-01
-6.33001250e-07,1.93284375e-01
-6.32961250e-07,1.93314062e-01
-6.32921250e-07,1.93285938e-01
-6.32881250e-07,1.93315625e-01
-6.32841250e-07,1.93284375e-01
-6.32801250e-07,1.93318750e-01
-6.32761250e-07,1.93276562e-01
-6.32721250e-07,1.93332813e-01
-6.32681250e-07,1.93243750e-01
-6.32641250e-07,1.93509375e-01
-6.32601250e-07,1.93753125e-01
-6.32561250e-07,1.93670312e-01
-6.32521250e-07,1.93720313e-01
-6.32481250e-07,1.93684375e-01
-6.32441250e-07,1.93712500e-01
-6.32401250e-07,1.93689063e-01
-6.32361250e-07,1.93709375e-01
-6.32321250e-07,1.93690625e-01
-6.32281250e-07,1.93707813e-01
-6.32241250e-07,1.93692188e-01
-6.32201250e-07,1.93707813e-01
-6.32161250e-07,1.93692188e-01
-6.32121250e-07,1.93707813e-01
-6.32081250e-07,1.93692188e-01
-6.32041250e-07,1.93707813e-01
-6.32001250e-07,1.93692188e-01
-6.31961250e-07,1.93707813e-01
-6.31921250e-07,1.93690625e-01
-6.31881250e-07,1.93709375e-01
-6.31841250e-07,1.93689063e-01
-6.31801250e-07,1.93712500e-01
-6.31761250e-07,1.93685938e-01
-6.31721250e-07,1.93717187e-01
-6.31681250e-07,1.93678125e-01
-6.31641250e-07,1.93731250e-01
-6.31601250e-07,1.93643750e-01
-6.31561250e-07,1.93909375e-01
-6.31521250e-07,1.94153125e-01
-6.31481250e-07,1.94070313e-01
-6.31441250e-07,1.94120313e-01
-6.31401250e-07,1.94084375e-01
-6.31361250e-07,1.94114063e-01
-6.31321250e-07,1.94087500e-01
-6.31281250e-07,1.94110937e-01
-6.31241250e-07,1.94090625e-01
-6.31201250e-07,1.94109375e-01
-6.31161250e-07,1.94090625e-01
-6.31121250e-07,1.94109375e-01
-6.31081250e-07,1.94089063e-01
-6.31041250e-07,1.94110937e-01
-6.31001250e-07,1.94087500e-01
-6.30961250e-07,1.94115625e-01
-6.30921250e-07,1.94079688e-01
-6.30881250e-07,1.94129688e-01
-6.30841250e-07,1.94046875e-01
-6.30801250e-07,1.94306250e-01
-6.30761250e-07,1.94556250e-01
-6.30721250e-07,1.94467187e-01
-6.30681250e-07,1.94523438e-01
-6.30641250e-07,1.94479687e-01
-6.30601250e-07,1.94517188e-01
-6.30561250e-07,1.94482813e-01
-6.30521250e-07,1.94517188e-01
-6.30481250e-07,1.94482813e-01
-6.30441250e-07,1.94520313e-01
-6.30401250e-07,1.94476563e-01
-6.30361250e-07,1.94532813e-01
-6.30321250e-07,1.94442188e-01
-6.30281250e-07,1.94709375e-01
-6.30241250e-07,1.94953125e-01
-6.30201250e-07,1.94870313e-01
-6.30161250e-07,1.94920312e-01
-6.30121250e-07,1.94884375e-01
-6.30081250e-07,1.94914063e-01
-6.30041250e-07,1.94887500e-01
-6.30001250e-07,1.94912500e-01
-6.29961250e-07,1.94887500e-01
-6.29921250e-07,1.94912500e-01
-6.29881250e-07,1.94885937e-01
-6.29841250e-07,1.94917188e-01
-6.29801250e-07,1.94878125e-01
-6.29761250e-07,1.94931250e-01
-6.29721250e-07,1.94845313e-01
-6.29681250e-07,1.95107813e-01
-6.29641250e-07,1.95354688e-01
-6.29601250e-07,1.95268750e-01
-6.29561250e-07,1.95321875e-01
-6.29521250e-07,1.95282813e-01
-6.29481250e-07,1.95315625e-01
-6.29441250e-07,1.95285938e-01
-6.29401250e-07,1.95312500e-01
-6.29361250e-07,1.95289062e-01
-6.29321250e-07,1.95310938e-01
-6.29281250e-07,1.95289062e-01
-6.29241250e-07,1.95312500e-01
-6.29201250e-07,1.95287500e-01
-6.29161250e-07,1.95314062e-01
-6.29121250e-07,1.95284375e-01
-6.29081250e-07,1.95317188e-01
-6.29041250e-07,1.95276563e-01
-6.29001250e-07,1.95332813e-01
-6.28961250e-07,1.95243750e-01
-6.28921250e-07,1.95509375e-01
-6.28881250e-07,1.95753125e-01
-6.28841250e-07,1.95670312e-01
-6.28801250e-07,1.95720312e-01
-6.28761250e-07,1.95684375e-01
-6.28721250e-07,1.95712500e-01
-6.28681250e-07,1.95689063e-01
-6.28641250e-07,1.95709375e-01
-6.28601250e-07,1.95690625e-01
-6.28561250e-07,1.95709375e-01
-6.28521250e-07,1.95690625e-01
-6.28481250e-07,1.95709375e-01
-6.28441250e-07,1.95690625e-01
-6.28401250e-07,1.95709375e-01
-6.28361250e-07,1.95690625e-01
-6.28321250e-07,1.95710938e-01
-6.28281250e-07,1.95687500e-01
-6.28241250e-07,1.95714063e-01
-6.28201250e-07,1.95682812e-01
-6.28161250e-07,1.95721875e-01
-6.28121250e-07,1.95668750e-01
-6.28081250e-07,1.95756250e-01
-6.28041250e-07,1.95490625e-01
-6.28001250e-07,1.95248438e-01
-6.27961250e-07,1.95328125e-01
-6.27921250e-07,1.95281250e-01
-6.27881250e-07,1.95314062e-01
-6.27841250e-07,1.95290625e-01
-6.27801250e-07,1.95307813e-01
-6.27761250e-07,1.95295313e-01
-6.27721250e-07,1.95303125e-01
-6.27681250e-07,1.95300000e-01
-6.27641250e-07,1.95296875e-01
-6.27601250e-07,1.95309375e-01
-6.27561250e-07,1.95281250e-01
-6.27521250e-07,1.95343750e-01
-6.27481250e-07,1.95103125e-01
-6.27441250e-07,1.94834375e-01
-6.27401250e-07,1.94942188e-01
-6.27361250e-07,1.94865625e-01
-6.27321250e-07,1.94929688e-01
-6.27281250e-07,1.94873437e-01
-6.27241250e-07,1.94926563e-01
-6.27201250e-07,1.94873437e-01
-6.27161250e-07,1.94928125e-01
-6.27121250e-07,1.94870313e-01
-6.27081250e-07,1.94934375e-01
-6.27041250e-07,1.94856250e-01
-6.27001250e-07,1.94968750e-01
-6.26961250e-07,1.94678125e-01
-6.26921250e-07,1.94459375e-01
-6.26881250e-07,1.94517188e-01
-6.26841250e-07,1.94492187e-01
-6.26801250e-07,1.94501563e-01
-6.26761250e-07,1.94501563e-01
-6.26721250e-07,1.94495313e-01
-6.26681250e-07,1.94507813e-01
-6.26641250e-07,1.94487500e-01
-6.26601250e-07,1.94517188e-01
-6.26561250e-07,1.94471875e-01
-6.26521250e-07,1.94553125e-01
-6.26481250e-07,1.94293750e-01
-6.26441250e-07,1.94043750e-01
-6.26401250e-07,1.94132813e-01
-6.26361250e-07,1.94076562e-01
-6.26321250e-07,1.94118750e-01
-6.26281250e-07,1.94084375e-01
-6.26241250e-07,1.94115625e-01
-6.26201250e-07,1.94085937e-01
-6.26161250e-07,1.94115625e-01
-6.26121250e-07,1.94082813e-01
-6.26081250e-07,1.94121875e-01
-6.26041250e-07,1.94070313e-01
-6.26001250e-07,1.94154688e-01
-6.25961250e-07,1.93893750e-01
-6.25921250e-07,1.93643750e-01
-6.25881250e-07,1.93732813e-01
-6.25841250e-07,1.93675000e-01
-6.25801250e-07,1.93720313e-01
-6.25761250e-07,1.93681250e-01
-6.25721250e-07,1.93717187e-01
-6.25681250e-07,1.93682812e-01
-6.25641250e-07,1.93717187e-01
-6.25601250e-07,1.93681250e-01
-6.25561250e-07,1.93720313e-01
-6.25521250e-07,1.93676563e-01
-6.25481250e-07,1.93728125e-01
-6.25441250e-07,1.93662500e-01
-6.25401250e-07,1.93762500e-01
-6.25361250e-07,1.93484375e-01
-6.25321250e-07,1.93253125e-01
-6.25281250e-07,1.93323438e-01
-6.25241250e-07,1.93285938e-01
-6.25201250e-07,1.93307813e-01
-6.25161250e-07,1.93295313e-01
-6.25121250e-07,1.93303125e-01
-6.25081250e-07,1.93298438e-01
-6.25041250e-07,1.93300000e-01
-6.25001250e-07,1.93301562e-01
-6.24961250e-07,1.93296875e-01
-6.24921250e-07,1.93304688e-01
-6.24881250e-07,1.93293750e-01
-6.24841250e-07,1.93309375e-01
-6.24801250e-07,1.93289062e-01
-6.24761250e-07,1.93314062e-01
-6.24721250e-07,1.93279688e-01
-6.24681250e-07,1.93329688e-01
-6.24641250e-07,1.93245313e-01
-6.24601250e-07,1.93509375e-01
-6.24561250e-07,1.93753125e-01
-6.24521250e-07,1.93670312e-01
-6.24481250e-07,1.93718750e-01
-6.24441250e-07,1.93685938e-01
-6.24401250e-07,1.93710938e-01
-6.24361250e-07,1.93692188e-01
-6.24321250e-07,1.93704688e-01
-6.24281250e-07,1.93696875e-01
-6.24241250e-07,1.93701563e-01
-6.24201250e-07,1.93700000e-01
-6.24161250e-07,1.93696875e-01
-6.24121250e-07,1.93706250e-01
-6.24081250e-07,1.93687500e-01
-6.24041250e-07,1.93721875e-01
-6.24001250e-07,1.93653125e-01
-6.23961250e-07,1.93900000e-01
-6.23921250e-07,1.94162500e-01
-6.23881250e-07,1.94062500e-01
-6.23841250e-07,1.94128125e-01
-6.23801250e-07,1.94076562e-01
-6.23761250e-07,1.94120313e-01
-6.23721250e-07,1.94081250e-01
-6.23681250e-07,1.94117188e-01
-6.23641250e-07,1.94082813e-01
-6.23601250e-07,1.94115625e-01
-6.23561250e-07,1.94084375e-01
-6.23521250e-07,1.94117188e-01
-6.23481250e-07,1.94082813e-01
-6.23441250e-07,1.94118750e-01
-6.23401250e-07,1.94079688e-01
-6.23361250e-07,1.94121875e-01
-6.23321250e-07,1.94073438e-01
-6.23281250e-07,1.94135938e-01
-6.23241250e-07,1.94039062e-01
-6.23201250e-07,1.94314062e-01
-6.23161250e-07,1.94548438e-01
-6.23121250e-07,1.94475000e-01
-6.23081250e-07,1.94515625e-01
-6.23041250e-07,1.94489063e-01
-6.23001250e-07,1.94507813e-01
-6.22961250e-07,1.94493750e-01
-6.22921250e-07,1.94504687e-01
-6.22881250e-07,1.94496875e-01
-6.22841250e-07,1.94503125e-01
-6.22801250e-07,1.94496875e-01
-6.22761250e-07,1.94501563e-01
-6.22721250e-07,1.94498438e-01
-6.22681250e-07,1.94501563e-01
-6.22641250e-07,1.94498438e-01
-6.22601250e-07,1.94501563e-01
-6.22561250e-07,1.94500000e-01
-6.22521250e-07,1.94500000e-01
-6.22481250e-07,1.94500000e-01
-6.22441250e-07,1.94500000e-01
-6.22401250e-07,1.94500000e-01
-6.22361250e-07,1.94500000e-01
-6.22321250e-07,1.94500000e-01
-6.22281250e-07,1.94500000e-01
-6.22241250e-07,1.94500000e-01
-6.22201250e-07,1.94500000e-01
-6.22161250e-07,1.94500000e-01
-6.22121250e-07,1.94500000e-01
-6.22081250e-07,1.94500000e-01
-6.22041250e-07,1.94500000e-01
-6.22001250e-07,1.94501563e-01
-6.21961250e-07,1.94498438e-01
-6.21921250e-07,1.94501563e-01
-6.21881250e-07,1.94498438e-01
-6.21841250e-07,1.94501563e-01
-6.21801250e-07,1.94498438e-01
-6.21761250e-07,1.94501563e-01
-6.21721250e-07,1.94498438e-01
-6.21681250e-07,1.94501563e-01
-6.21641250e-07,1.94498438e-01
-6.21601250e-07,1.94501563e-01
-6.21561250e-07,1.94498438e-01
-6.21521250e-07,1.94501563e-01
-6.21481250e-07,1.94496875e-01
-6.21441250e-07,1.94503125e-01
-6.21401250e-07,1.94496875e-01
-6.21361250e-07,1.94503125e-01
-6.21321250e-07,1.94496875e-01
-6.21281250e-07,1.94504687e-01
-6.21241250e-07,1.94495313e-01
-6.21201250e-07,1.94504687e-01
-6.21161250e-07,1.94493750e-01
-6.21121250e-07,1.94507813e-01
-6.21081250e-07,1.94490625e-01
-6.21041250e-07,1.94510938e-01
-6.21001250e-07,1.94485938e-01
-6.20961250e-07,1.94518750e-01
-6.20921250e-07,1.94471875e-01
-6.20881250e-07,1.94553125e-01
-6.20841250e-07,1.94293750e-01
-6.20801250e-07,1.94043750e-01
-6.20761250e-07,1.94132813e-01
-6.20721250e-07,1.94076562e-01
-6.20681250e-07,1.94117188e-01
-6.20641250e-07,1.94085937e-01
-6.20601250e-07,1.94112500e-01
-6.20561250e-07,1.94089063e-01
-6.20521250e-07,1.94110937e-01
-6.20481250e-07,1.94090625e-01
-6.20441250e-07,1.94109375e-01
-6.20401250e-07,1.94092188e-01
-6.20361250e-07,1.94107813e-01
-6.20321250e-07,1.94092188e-01
-6.20281250e-07,1.94107813e-01
-6.20241250e-07,1.94092188e-01
-6.20201250e-07,1.94106250e-01
-6.20161250e-07,1.94093750e-01
-6.20121250e-07,1.94106250e-01
-6.20081250e-07,1.94093750e-01
-6.20041250e-07,1.94106250e-01
-6.20001250e-07,1.94093750e-01
-6.19961250e-07,1.94106250e-01
-6.19921250e-07,1.94093750e-01
-6.19881250e-07,1.94106250e-01
-6.19841250e-07,1.94093750e-01
-6.19801250e-07,1.94106250e-01
-6.19761250e-07,1.94093750e-01
-6.19721250e-07,1.94106250e-01
-6.19681250e-07,1.94093750e-01
-6.19641250e-07,1.94106250e-01
-6.19601250e-07,1.94093750e-01
-6.19561250e-07,1.94106250e-01
-6.19521250e-07,1.94093750e-01
-6.19481250e-07,1.94106250e-01
-6.19441250e-07,1.94092188e-01
-6.19401250e-07,1.94107813e-01
-6.19361250e-07,1.94092188e-01
-6.19321250e-07,1.94107813e-01
-6.19281250e-07,1.94092188e-01
-6.19241250e-07,1.94109375e-01
-6.19201250e-07,1.94090625e-01
-6.19161250e-07,1.94109375e-01
-6.19121250e-07,1.94090625e-01
-6.19081250e-07,1.94110937e-01
-6.19041250e-07,1.94089063e-01
-6.19001250e-07,1.94112500e-01
-6.18961250e-07,1.94085937e-01
-6.18921250e-07,1.94115625e-01
-6.18881250e-07,1.94082813e-01
-6.18841250e-07,1.94120313e-01
-6.18801250e-07,1.94073438e-01
-6.18761250e-07,1.94135938e-01
-6.18721250e-07,1.94039062e-01
-6.18681250e-07,1.94314062e-01
-6.18641250e-07,1.94546875e-01
-6.18601250e-07,1.94478125e-01
-6.18561250e-07,1.94512500e-01
-6.18521250e-07,1.94493750e-01
-6.18481250e-07,1.94503125e-01
-6.18441250e-07,1.94501563e-01
-6.18401250e-07,1.94495313e-01
-6.18361250e-07,1.94509375e-01
-6.18321250e-07,1.94485938e-01
-6.18281250e-07,1.94525000e-01
-6.18241250e-07,1.94450000e-01
-6.18201250e-07,1.94703125e-01
-6.18161250e-07,1.94957812e-01
-6.18121250e-07,1.94865625e-01
-6.18081250e-07,1.94925000e-01
-6.18041250e-07,1.94881250e-01
-6.18001250e-07,1.94915625e-01
-6.17961250e-07,1.94885937e-01
-6.17921250e-07,1.94912500e-01
-6.17881250e-07,1.94889063e-01
-6.17841250e-07,1.94910937e-01
-6.17801250e-07,1.94890625e-01
-6.17761250e-07,1.94909375e-01
-6.17721250e-07,1.94890625e-01
-6.17681250e-07,1.94907812e-01
-6.17641250e-07,1.94892188e-01
-6.17601250e-07,1.94907812e-01
-6.17561250e-07,1.94892188e-01
-6.17521250e-07,1.94907812e-01
-6.17481250e-07,1.94892188e-01
-6.17441250e-07,1.94907812e-01
-6.17401250e-07,1.94890625e-01
-6.17361250e-07,1.94909375e-01
-6.17321250e-07,1.94890625e-01
-6.17281250e-07,1.94910937e-01
-6.17241250e-07,1.94887500e-01
-6.17201250e-07,1.94914063e-01
-6.17161250e-07,1.94882813e-01
-6.17121250e-07,1.94921875e-01
-6.17081250e-07,1.94867188e-01
-6.17041250e-07,1.94957812e-01
-6.17001250e-07,1.94689063e-01
-6.16961250e-07,1.94450000e-01
-6.16921250e-07,1.94526562e-01
-6.16881250e-07,1.94484375e-01
-6.16841250e-07,1.94507813e-01
-6.16801250e-07,1.94500000e-01
-6.16761250e-07,1.94489063e-01
-6.16721250e-07,1.94535938e-01
-6.16681250e-07,1.94312500e-01
-6.16641250e-07,1.94025000e-01
-6.16601250e-07,1.94153125e-01
-6.16561250e-07,1.94053125e-01
-6.16521250e-07,1.94146875e-01
-6.16481250e-07,1.94046875e-01
-6.16441250e-07,1.94176563e-01
-6.16401250e-07,1.93871875e-01
-6.16361250e-07,1.93665625e-01
-6.16321250e-07,1.93710938e-01
-6.16281250e-07,1.93698438e-01
-6.16241250e-07,1.93696875e-01
-6.16201250e-07,1.93706250e-01
-6.16161250e-07,1.93689063e-01
-6.16121250e-07,1.93714063e-01
-6.16081250e-07,1.93682812e-01
-6.16041250e-07,1.93723438e-01
-6.16001250e-07,1.93665625e-01
-6.15961250e-07,1.93759375e-01
-6.15921250e-07,1.93485938e-01
-6.15881250e-07,1.93251563e-01
-6.15841250e-07,1.93323438e-01
-6.15801250e-07,1.93287500e-01
-6.15761250e-07,1.93306250e-01
-6.15721250e-07,1.93298438e-01
-6.15681250e-07,1.93298438e-01
-6.15641250e-07,1.93306250e-01
-6.15601250e-07,1.93287500e-01
-6.15561250e-07,1.93323438e-01
-6.15521250e-07,1.93251563e-01
-6.15481250e-07,1.93503125e-01
-6.15441250e-07,1.93759375e-01
-6.15401250e-07,1.93665625e-01
-6.15361250e-07,1.93725000e-01
-6.15321250e-07,1.93679688e-01
-6.15281250e-07,1.93715625e-01
-6.15241250e-07,1.93685938e-01
-6.15201250e-07,1.93712500e-01
-6.15161250e-07,1.93689063e-01
-6.15121250e-07,1.93709375e-01
-6.15081250e-07,1.93690625e-01
-6.15041250e-07,1.93707813e-01
-6.15001250e-07,1.93692188e-01
-6.14961250e-07,1.93707813e-01
-6.14921250e-07,1.93693750e-01
-6.14881250e-07,1.93706250e-01
-6.14841250e-07,1.93693750e-01
-6.14801250e-07,1.93706250e-01
-6.14761250e-07,1.93693750e-01
-6.14721250e-07,1.93704688e-01
-6.14681250e-07,1.93695312e-01
-6.14641250e-07,1.93704688e-01
-6.14601250e-07,1.93695312e-01
-6.14561250e-07,1.93704688e-01
-6.14521250e-07,1.93695312e-01
