dpa/aes_ch1_20250506141312343.csv

Model,MSO66B
Label,
Waveform Type,ANALOG
Horizontal Units,s
Sample Interval,4.00000000e-11
Record Length,100000
Zero Index,15999.03515625
Vertical Units,A
ANALOG_Thumbnail,
yOffset,1.84500000e-01
yPosition,8.40000000e-01

Labels,
TIME,CH1
-6.39961406e-07,1.99298438e-01
-6.39921406e-07,1.99300000e-01
-6.39881406e-07,1.99301563e-01
-6.39841406e-07,1.99296875e-01
-6.39801406e-07,1.99304688e-01
-6.39761406e-07,1.99295313e-01
-6.39721406e-07,1.99306250e-01
-6.39681406e-07,1.99292187e-01
-6.39641406e-07,1.99309375e-01
-6.39601406e-07,1.99289063e-01
-6.39561406e-07,1.99314062e-01
-6.39521406e-07,1.99279687e-01
-6.39481406e-07,1.99329688e-01
-6.39441406e-07,1.99245312e-01
-6.39401406e-07,1.99507812e-01
-6.39361406e-07,1.99754687e-01
-6.39321406e-07,1.99670313e-01
-6.39281406e-07,1.99720312e-01
-6.39241406e-07,1.99684375e-01
-6.39201406e-07,1.99712500e-01
-6.39161406e-07,1.99689063e-01
-6.39121406e-07,1.99709375e-01
-6.39081406e-07,1.99692188e-01
-6.39041406e-07,1.99707812e-01
-6.39001406e-07,1.99693750e-01
-6.38961406e-07,1.99706250e-01
-6.38921406e-07,1.99693750e-01
-6.38881406e-07,1.99706250e-01
-6.38841406e-07,1.99695312e-01
-6.38801406e-07,1.99704688e-01
-6.38761406e-07,1.99695312e-01
-6.38721406e-07,1.99704688e-01
-6.38681406e-07,1.99695312e-01
-6.38641406e-07,1.99704688e-01
-6.38601406e-07,1.99695312e-01
-6.38561406e-07,1.99704688e-01
-6.38521406e-07,1.99693750e-01
-6.38481406e-07,1.99706250e-01
-6.38441406e-07,1.99693750e-01
-6.38401406e-07,1.99706250e-01
-6.38361406e-07,1.99692188e-01
-6.38321406e-07,1.99707812e-01
-6.38281406e-07,1.99690625e-01
-6.38241406e-07,1.99710938e-01
-6.38201406e-07,1.99687500e-01
-6.38161406e-07,1.99715625e-01
-6.38121406e-07,1.99679688e-01
-6.38081406e-07,1.99729688e-01
-6.38041406e-07,1.99645313e-01
-6.38001406e-07,1.99907813e-01
-6.37961406e-07,2.00153125e-01
-6.37921406e-07,2.00070313e-01
-6.37881406e-07,2.00120313e-01
-6.37841406e-07,2.00084375e-01
-6.37801406e-07,2.00110938e-01
-6.37761406e-07,2.00090625e-01
-6.37721406e-07,2.00107813e-01
-6.37681406e-07,2.00093750e-01
-6.37641406e-07,2.00103125e-01
-6.37601406e-07,2.00098438e-01
-6.37561406e-07,2.00100000e-01
-6.37521406e-07,2.00103125e-01
-6.37481406e-07,2.00090625e-01
-6.37441406e-07,2.00118750e-01
-6.37401406e-07,2.00056250e-01
-6.37361406e-07,2.00296875e-01
-6.37321406e-07,2.00565625e-01
-6.37281406e-07,2.00457812e-01
-6.37241406e-07,2.00532813e-01
-6.37201406e-07,2.00470312e-01
-6.37161406e-07,2.00526563e-01
-6.37121406e-07,2.00475000e-01
-6.37081406e-07,2.00525000e-01
-6.37041406e-07,2.00475000e-01
-6.37001406e-07,2.00525000e-01
-6.36961406e-07,2.00473438e-01
-6.36921406e-07,2.00529687e-01
-6.36881406e-07,2.00465625e-01
-6.36841406e-07,2.00543750e-01
-6.36801406e-07,2.00431250e-01
-6.36761406e-07,2.00721875e-01
-6.36721406e-07,2.00940625e-01
-6.36681406e-07,2.00882813e-01
-6.36641406e-07,2.00906250e-01
-6.36601406e-07,2.00898437e-01
-6.36561406e-07,2.00898437e-01
-6.36521406e-07,2.00904688e-01
-6.36481406e-07,2.00893750e-01
-6.36441406e-07,2.00907813e-01
-6.36401406e-07,2.00889062e-01
-6.36361406e-07,2.00912500e-01
-6.36321406e-07,2.00884375e-01
-6.36281406e-07,2.00918750e-01
-6.36241406e-07,2.00875000e-01
-6.36201406e-07,2.00934375e-01
-6.36161406e-07,2.00840625e-01
-6.36121406e-07,2.01112500e-01
-6.36081406e-07,2.01348438e-01
-6.36041406e-07,2.01275000e-01
-6.36001406e-07,2.01314063e-01
-6.35961406e-07,2.01290625e-01
-6.35921406e-07,2.01306250e-01
-6.35881406e-07,2.01296875e-01
-6.35841406e-07,2.01301563e-01
-6.35801406e-07,2.01300000e-01
-6.35761406e-07,2.01298438e-01
-6.35721406e-07,2.01303125e-01
-6.35681406e-07,2.01295313e-01
-6.35641406e-07,2.01306250e-01
-6.35601406e-07,2.01292187e-01
-6.35561406e-07,2.01310938e-01
-6.35521406e-07,2.01287500e-01
-6.35481406e-07,2.01317187e-01
-6.35441406e-07,2.01278125e-01
-6.35401406e-07,2.01332813e-01
-6.35361406e-07,2.01242188e-01
-6.35321406e-07,2.01510938e-01
-6.35281406e-07,2.01750000e-01
-6.35241406e-07,2.01675000e-01
-6.35201406e-07,2.01715625e-01
-6.35161406e-07,2.01690625e-01
-6.35121406e-07,2.01704688e-01
-6.35081406e-07,2.01698437e-01
-6.35041406e-07,2.01698437e-01
-6.35001406e-07,2.01704688e-01
-6.34961406e-07,2.01690625e-01
-6.34921406e-07,2.01714063e-01
-6.34881406e-07,2.01675000e-01
-6.34841406e-07,2.01751563e-01
-6.34801406e-07,2.01495312e-01
-6.34761406e-07,2.01243750e-01
-6.34721406e-07,2.01332813e-01
-6.34681406e-07,2.01278125e-01
-6.34641406e-07,2.01317187e-01
-6.34601406e-07,2.01287500e-01
-6.34561406e-07,2.01310938e-01
-6.34521406e-07,2.01292187e-01
-6.34481406e-07,2.01306250e-01
-6.34441406e-07,2.01295313e-01
-6.34401406e-07,2.01301563e-01
-6.34361406e-07,2.01300000e-01
-6.34321406e-07,2.01295313e-01
-6.34281406e-07,2.01309375e-01
-6.34241406e-07,2.01281250e-01
-6.34201406e-07,2.01343750e-01
-6.34161406e-07,2.01103125e-01
-6.34121406e-07,2.00834375e-01
-6.34081406e-07,2.00942188e-01
-6.34041406e-07,2.00867188e-01
-6.34001406e-07,2.00929688e-01
-6.33961406e-07,2.00870313e-01
-6.33921406e-07,2.00931250e-01
-6.33881406e-07,2.00860938e-01
-6.33841406e-07,2.00962500e-01
-6.33801406e-07,2.00685938e-01
-6.33761406e-07,2.00450000e-01
-6.33721406e-07,2.00528125e-01
-6.33681406e-07,2.00478125e-01
-6.33641406e-07,2.00518750e-01
-6.33601406e-07,2.00479688e-01
-6.33561406e-07,2.00523438e-01
-6.33521406e-07,2.00468750e-01
-6.33481406e-07,2.00556250e-01
-6.33441406e-07,2.00290625e-01
-6.33401406e-07,2.00046875e-01
-6.33361406e-07,2.00129688e-01
-6.33321406e-07,2.00079688e-01
-6.33281406e-07,2.00114063e-01
-6.33241406e-07,2.00089062e-01
-6.33201406e-07,2.00107813e-01
-6.33161406e-07,2.00095313e-01
-6.33121406e-07,2.00100000e-01
-6.33081406e-07,2.00106250e-01
-6.33041406e-07,2.00084375e-01
-6.33001406e-07,2.00140625e-01
-6.32961406e-07,1.99906250e-01
-6.32921406e-07,1.99631250e-01
-6.32881406e-07,1.99745312e-01
-6.32841406e-07,1.99664063e-01
-6.32801406e-07,1.99731250e-01
-6.32761406e-07,1.99671875e-01
-6.32721406e-07,1.99728125e-01
-6.32681406e-07,1.99673437e-01
-6.32641406e-07,1.99726563e-01
-6.32601406e-07,1.99671875e-01
-6.32561406e-07,1.99729688e-01
-6.32521406e-07,1.99667188e-01
-6.32481406e-07,1.99737500e-01
-6.32441406e-07,1.99653125e-01
-6.32401406e-07,1.99771875e-01
-6.32361406e-07,1.99475000e-01
-6.32321406e-07,1.99264063e-01
-6.32281406e-07,1.99312500e-01
-6.32241406e-07,1.99298438e-01
-6.32201406e-07,1.99295313e-01
-6.32161406e-07,1.99309375e-01
-6.32121406e-07,1.99284375e-01
-6.32081406e-07,1.99321875e-01
-6.32041406e-07,1.99267187e-01
-6.32001406e-07,1.99359375e-01
-6.31961406e-07,1.99087500e-01
-6.31921406e-07,1.98851563e-01
-6.31881406e-07,1.98923438e-01
-6.31841406e-07,1.98887500e-01
-6.31801406e-07,1.98906250e-01
-6.31761406e-07,1.98900000e-01
-6.31721406e-07,1.98895313e-01
-6.31681406e-07,1.98910937e-01
-6.31641406e-07,1.98878125e-01
-6.31601406e-07,1.98948438e-01
-6.31561406e-07,1.98698438e-01
-6.31521406e-07,1.98440625e-01
-6.31481406e-07,1.98535938e-01
-6.31441406e-07,1.98475000e-01
-6.31401406e-07,1.98520313e-01
-6.31361406e-07,1.98482812e-01
-6.31321406e-07,1.98514063e-01
-6.31281406e-07,1.98487500e-01
-6.31241406e-07,1.98510938e-01
-6.31201406e-07,1.98489063e-01
-6.31161406e-07,1.98509375e-01
-6.31121406e-07,1.98490625e-01
-6.31081406e-07,1.98507813e-01
-6.31041406e-07,1.98492188e-01
-6.31001406e-07,1.98506250e-01
-6.30961406e-07,1.98493750e-01
-6.30921406e-07,1.98506250e-01
-6.30881406e-07,1.98493750e-01
-6.30841406e-07,1.98504687e-01
-6.30801406e-07,1.98495313e-01
-6.30761406e-07,1.98504687e-01
-6.30721406e-07,1.98496875e-01
-6.30681406e-07,1.98501563e-01
-6.30641406e-07,1.98498438e-01
-6.30601406e-07,1.98498438e-01
-6.30561406e-07,1.98503125e-01
-6.30521406e-07,1.98492188e-01
-6.30481406e-07,1.98517187e-01
-6.30441406e-07,1.98459375e-01
-6.30401406e-07,1.98693750e-01
-6.30361406e-07,1.98970312e-01
-6.30321406e-07,1.98853125e-01
-6.30281406e-07,1.98939063e-01
-6.30241406e-07,1.98862500e-01
-6.30201406e-07,1.98937500e-01
-6.30161406e-07,1.98859375e-01
-6.30121406e-07,1.98950000e-01
-6.30081406e-07,1.98825000e-01
-6.30041406e-07,1.99128125e-01
-6.30001406e-07,1.99334375e-01
-6.29961406e-07,1.99290625e-01
-6.29921406e-07,1.99296875e-01
-6.29881406e-07,1.99310938e-01
-6.29841406e-07,1.99281250e-01
-6.29801406e-07,1.99329688e-01
-6.29761406e-07,1.99243750e-01
-6.29721406e-07,1.99510938e-01
-6.29681406e-07,1.99750000e-01
-6.29641406e-07,1.99675000e-01
-6.29601406e-07,1.99714063e-01
-6.29561406e-07,1.99693750e-01
-6.29521406e-07,1.99701563e-01
-6.29481406e-07,1.99703125e-01
-6.29441406e-07,1.99689063e-01
-6.29401406e-07,1.99721875e-01
-6.29361406e-07,1.99653125e-01
-6.29321406e-07,1.99901563e-01
-6.29281406e-07,2.00160937e-01
-6.29241406e-07,2.00064063e-01
-6.29201406e-07,2.00126562e-01
-6.29161406e-07,2.00079688e-01
-6.29121406e-07,2.00117188e-01
-6.29081406e-07,2.00084375e-01
-6.29041406e-07,2.00114063e-01
-6.29001406e-07,2.00087500e-01
-6.28961406e-07,2.00110938e-01
-6.28921406e-07,2.00089062e-01
-6.28881406e-07,2.00109375e-01
-6.28841406e-07,2.00090625e-01
-6.28801406e-07,2.00107813e-01
-6.28761406e-07,2.00092188e-01
-6.28721406e-07,2.00107813e-01
-6.28681406e-07,2.00092188e-01
-6.28641406e-07,2.00106250e-01
-6.28601406e-07,2.00093750e-01
-6.28561406e-07,2.00106250e-01
-6.28521406e-07,2.00093750e-01
-6.28481406e-07,2.00106250e-01
-6.28441406e-07,2.00093750e-01
-6.28401406e-07,2.00106250e-01
-6.28361406e-07,2.00095313e-01
-6.28321406e-07,2.00104688e-01
-6.28281406e-07,2.00095313e-01
-6.28241406e-07,2.00104688e-01
-6.28201406e-07,2.00095313e-01
-6.28161406e-07,2.00104688e-01
-6.28121406e-07,2.00095313e-01
-6.28081406e-07,2.00104688e-01
-6.28041406e-07,2.00095313e-01
-6.28001406e-07,2.00104688e-01
-6.27961406e-07,2.00095313e-01
-6.27921406e-07,2.00104688e-01
-6.27881406e-07,2.00095313e-01
-6.27841406e-07,2.00104688e-01
-6.27801406e-07,2.00095313e-01
-6.27761406e-07,2.00104688e-01
-6.27721406e-07,2.00095313e-01
-6.27681406e-07,2.00104688e-01
-6.27641406e-07,2.00095313e-01
-6.27601406e-07,2.00104688e-01
-6.27561406e-07,2.00095313e-01
-6.27521406e-07,2.00104688e-01
-6.27481406e-07,2.00095313e-01
-6.27441406e-07,2.00106250e-01
-6.27401406e-07,2.00093750e-01
-6.27361406e-07,2.00106250e-01
-6.27321406e-07,2.00093750e-01
-6.27281406e-07,2.00106250e-01
-6.27241406e-07,2.00093750e-01
-6.27201406e-07,2.00107813e-01
-6.27161406e-07,2.00092188e-01
-6.27121406e-07,2.00109375e-01
-6.27081406e-07,2.00090625e-01
-6.27041406e-07,2.00110938e-01
-6.27001406e-07,2.00085938e-01
-6.26961406e-07,2.00117188e-01
-6.26921406e-07,2.00078125e-01
-6.26881406e-07,2.00131250e-01
-6.26841406e-07,2.00043750e-01
-6.26801406e-07,2.00309375e-01
-6.26761406e-07,2.00553125e-01
-6.26721406e-07,2.00470312e-01
-6.26681406e-07,2.00520313e-01
-6.26641406e-07,2.00484375e-01
-6.26601406e-07,2.00512500e-01
-6.26561406e-07,2.00489063e-01
-6.26521406e-07,2.00509375e-01
-6.26481406e-07,2.00492188e-01
-6.26441406e-07,2.00507812e-01
-6.26401406e-07,2.00493750e-01
-6.26361406e-07,2.00506250e-01
-6.26321406e-07,2.00493750e-01
-6.26281406e-07,2.00506250e-01
-6.26241406e-07,2.00493750e-01
-6.26201406e-07,2.00506250e-01
-6.26161406e-07,2.00493750e-01
-6.26121406e-07,2.00506250e-01
-6.26081406e-07,2.00493750e-01
-6.26041406e-07,2.00506250e-01
-6.26001406e-07,2.00493750e-01
-6.25961406e-07,2.00506250e-01
-6.25921406e-07,2.00492188e-01
-6.25881406e-07,2.00507812e-01
-6.25841406e-07,2.00490625e-01
-6.25801406e-07,2.00510938e-01
-6.25761406e-07,2.00487500e-01
-6.25721406e-07,2.00515625e-01
-6.25681406e-07,2.00479688e-01
-6.25641406e-07,2.00529687e-01
-6.25601406e-07,2.00445313e-01
-6.25561406e-07,2.00707812e-01
-6.25521406e-07,2.00954688e-01
-6.25481406e-07,2.00868750e-01
-6.25441406e-07,2.00921875e-01
-6.25401406e-07,2.00882813e-01
-6.25361406e-07,2.00914063e-01
-6.25321406e-07,2.00887500e-01
-6.25281406e-07,2.00910937e-01
-6.25241406e-07,2.00890625e-01
-6.25201406e-07,2.00909375e-01
-6.25161406e-07,2.00890625e-01
-6.25121406e-07,2.00907813e-01
-6.25081406e-07,2.00892188e-01
-6.25041406e-07,2.00907813e-01
-6.25001406e-07,2.00892188e-01
-6.24961406e-07,2.00907813e-01
-6.24921406e-07,2.00892188e-01
-6.24881406e-07,2.00907813e-01
-6.24841406e-07,2.00892188e-01
-6.24801406e-07,2.00907813e-01
-6.24761406e-07,2.00892188e-01
-6.24721406e-07,2.00907813e-01
-6.24681406e-07,2.00890625e-01
-6.24641406e-07,2.00909375e-01
-6.24601406e-07,2.00890625e-01
-6.24561406e-07,2.00910937e-01
-6.24521406e-07,2.00889062e-01
-6.24481406e-07,2.00912500e-01
-6.24441406e-07,2.00884375e-01
-6.24401406e-07,2.00918750e-01
-6.24361406e-07,2.00876563e-01
-6.24321406e-07,2.00932813e-01
-6.24281406e-07,2.00842188e-01
-6.24241406e-07,2.01110938e-01
-6.24201406e-07,2.01351562e-01
-6.24161406e-07,2.01271875e-01
-6.24121406e-07,2.01318750e-01
-6.24081406e-07,2.01287500e-01
-6.24041406e-07,2.01309375e-01
-6.24001406e-07,2.01292187e-01
-6.23961406e-07,2.01306250e-01
-6.23921406e-07,2.01295313e-01
-6.23881406e-07,2.01304687e-01
-6.23841406e-07,2.01296875e-01
-6.23801406e-07,2.01303125e-01
-6.23761406e-07,2.01298438e-01
-6.23721406e-07,2.01301563e-01
-6.23681406e-07,2.01298438e-01
-6.23641406e-07,2.01300000e-01
-6.23601406e-07,2.01300000e-01
-6.23561406e-07,2.01300000e-01
-6.23521406e-07,2.01301563e-01
-6.23481406e-07,2.01298438e-01
-6.23441406e-07,2.01301563e-01
-6.23401406e-07,2.01296875e-01
-6.23361406e-07,2.01303125e-01
-6.23321406e-07,2.01295313e-01
-6.23281406e-07,2.01306250e-01
-6.23241406e-07,2.01292187e-01
-6.23201406e-07,2.01309375e-01
-6.23161406e-07,2.01287500e-01
-6.23121406e-07,2.01317187e-01
-6.23081406e-07,2.01271875e-01
-6.23041406e-07,2.01353125e-01
-6.23001406e-07,2.01093750e-01
-6.22961406e-07,2.00843750e-01
-6.22921406e-07,2.00932813e-01
-6.22881406e-07,2.00876563e-01
-6.22841406e-07,2.00918750e-01
-6.22801406e-07,2.00884375e-01
-6.22761406e-07,2.00912500e-01
-6.22721406e-07,2.00889062e-01
-6.22681406e-07,2.00910937e-01
-6.22641406e-07,2.00890625e-01
-6.22601406e-07,2.00909375e-01
-6.22561406e-07,2.00892188e-01
-6.22521406e-07,2.00907813e-01
-6.22481406e-07,2.00892188e-01
-6.22441406e-07,2.00907813e-01
-6.22401406e-07,2.00893750e-01
-6.22361406e-07,2.00906250e-01
-6.22321406e-07,2.00893750e-01
-6.22281406e-07,2.00906250e-01
-6.22241406e-07,2.00893750e-01
-6.22201406e-07,2.00906250e-01
-6.22161406e-07,2.00893750e-01
-6.22121406e-07,2.00906250e-01
-6.22081406e-07,2.00895313e-01
-6.22041406e-07,2.00904688e-01
-6.22001406e-07,2.00895313e-01
-6.21961406e-07,2.00904688e-01
-6.21921406e-07,2.00895313e-01
-6.21881406e-07,2.00904688e-01
-6.21841406e-07,2.00895313e-01
-6.21801406e-07,2.00904688e-01
-6.21761406e-07,2.00895313e-01
-6.21721406e-07,2.00904688e-01
-6.21681406e-07,2.00895313e-01
-6.21641406e-07,2.00904688e-01
-6.21601406e-07,2.00895313e-01
-6.21561406e-07,2.00904688e-01
-6.21521406e-07,2.00895313e-01
-6.21481406e-07,2.00904688e-01
-6.21441406e-07,2.00895313e-01
-6.21401406e-07,2.00904688e-01
-6.21361406e-07,2.00895313e-01
-6.21321406e-07,2.00904688e-01
-6.21281406e-07,2.00895313e-01
-6.21241406e-07,2.00904688e-01
-6.21201406e-07,2.00895313e-01
-6.21161406e-07,2.00904688e-01
-6.21121406e-07,2.00895313e-01
-6.21081406e-07,2.00904688e-01
-6.21041406e-07,2.00895313e-01
-6.21001406e-07,2.00904688e-01
-6.20961406e-07,2.00895313e-01
-6.20921406e-07,2.00904688e-01
-6.20881406e-07,2.00895313e-01
-6.20841406e-07,2.00904688e-01
-6.20801406e-07,2.00895313e-01
-6.20761406e-07,2.00906250e-01
-6.20721406e-07,2.00893750e-01
-6.20681406e-07,2.00906250e-01
-6.20641406e-07,2.00893750e-01
-6.20601406e-07,2.00906250e-01
-6.20561406e-07,2.00893750e-01
-6.20521406e-07,2.00906250e-01
-6.20481406e-07,2.00893750e-01
-6.20441406e-07,2.00907813e-01
-6.20401406e-07,2.00892188e-01
-6.20361406e-07,2.00907813e-01
-6.20321406e-07,2.00892188e-01
-6.20281406e-07,2.00909375e-01
-6.20241406e-07,2.00890625e-01
-6.20201406e-07,2.00910937e-01
-6.20161406e-07,2.00887500e-01
-6.20121406e-07,2.00914063e-01
-6.20081406e-07,2.00882813e-01
-6.20041406e-07,2.00923437e-01
-6.20001406e-07,2.00867188e-01
-6.19961406e-07,2.00957812e-01
-6.19921406e-07,2.00689063e-01
-6.19881406e-07,2.00448438e-01
-6.19841406e-07,2.00528125e-01
-6.19801406e-07,2.00481250e-01
-6.19761406e-07,2.00514063e-01
-6.19721406e-07,2.00489063e-01
-6.19681406e-07,2.00509375e-01
-6.19641406e-07,2.00492188e-01
-6.19601406e-07,2.00506250e-01
-6.19561406e-07,2.00493750e-01
-6.19521406e-07,2.00504688e-01
-6.19481406e-07,2.00495313e-01
-6.19441406e-07,2.00503125e-01
-6.19401406e-07,2.00496875e-01
-6.19361406e-07,2.00503125e-01
-6.19321406e-07,2.00496875e-01
-6.19281406e-07,2.00503125e-01
-6.19241406e-07,2.00496875e-01
-6.19201406e-07,2.00503125e-01
-6.19161406e-07,2.00496875e-01
-6.19121406e-07,2.00503125e-01
-6.19081406e-07,2.00496875e-01
-6.19041406e-07,2.00503125e-01
-6.19001406e-07,2.00496875e-01
-6.18961406e-07,2.00503125e-01
-6.18921406e-07,2.00495313e-01
-6.18881406e-07,2.00504688e-01
-6.18841406e-07,2.00495313e-01
-6.18801406e-07,2.00506250e-01
-6.18761406e-07,2.00493750e-01
-6.18721406e-07,2.00507812e-01
-6.18681406e-07,2.00490625e-01
-6.18641406e-07,2.00512500e-01
-6.18601406e-07,2.00482812e-01
-6.18561406e-07,2.00528125e-01
-6.18521406e-07,2.00446875e-01
-6.18481406e-07,2.00704688e-01
-6.18441406e-07,2.00956250e-01
-6.18401406e-07,2.00867188e-01
-6.18361406e-07,2.00923437e-01
-6.18321406e-07,2.00881250e-01
-6.18281406e-07,2.00915625e-01
-6.18241406e-07,2.00885938e-01
-6.18201406e-07,2.00912500e-01
-6.18161406e-07,2.00887500e-01
-6.18121406e-07,2.00910937e-01
-6.18081406e-07,2.00889062e-01
-6.18041406e-07,2.00909375e-01
-6.18001406e-07,2.00890625e-01
-6.17961406e-07,2.00909375e-01
-6.17921406e-07,2.00890625e-01
-6.17881406e-07,2.00909375e-01
-6.17841406e-07,2.00890625e-01
-6.17801406e-07,2.00909375e-01
-6.17761406e-07,2.00892188e-01
-6.17721406e-07,2.00907813e-01
-6.17681406e-07,2.00892188e-01
-6.17641406e-07,2.00907813e-01
-6.17601406e-07,2.00892188e-01
-6.17561406e-07,2.00907813e-01
-6.17521406e-07,2.00890625e-01
-6.17481406e-07,2.00909375e-01
-6.17441406e-07,2.00890625e-01
-6.17401406e-07,2.00909375e-01
-6.17361406e-07,2.00890625e-01
-6.17321406e-07,2.00909375e-01
-6.17281406e-07,2.00890625e-01
-6.17241406e-07,2.00909375e-01
-6.17201406e-07,2.00890625e-01
-6.17161406e-07,2.00909375e-01
-6.17121406e-07,2.00889062e-01
-6.17081406e-07,2.00910937e-01
-6.17041406e-07,2.00889062e-01
-6.17001406e-07,2.00910937e-01
-6.16961406e-07,2.00887500e-01
-6.16921406e-07,2.00912500e-01
-6.16881406e-07,2.00887500e-01
-6.16841406e-07,2.00914063e-01
-6.16801406e-07,2.00885938e-01
-6.16761406e-07,2.00915625e-01
-6.16721406e-07,2.00882813e-01
-6.16681406e-07,2.00920313e-01
-6.16641406e-07,2.00876563e-01
-6.16601406e-07,2.00928125e-01
-6.16561406e-07,2.00862500e-01
-6.16521406e-07,2.00962500e-01
-6.16481406e-07,2.00682813e-01
-6.16441406e-07,2.00454688e-01
-6.16401406e-07,2.00521875e-01
-6.16361406e-07,2.00487500e-01
-6.16321406e-07,2.00506250e-01
-6.16281406e-07,2.00496875e-01
-6.16241406e-07,2.00500000e-01
-6.16201406e-07,2.00501563e-01
-6.16161406e-07,2.00496875e-01
-6.16121406e-07,2.00504688e-01
-6.16081406e-07,2.00493750e-01
-6.16041406e-07,2.00507812e-01
-6.16001406e-07,2.00492188e-01
-6.15961406e-07,2.00510938e-01
-6.15921406e-07,2.00487500e-01
-6.15881406e-07,2.00514063e-01
-6.15841406e-07,2.00481250e-01
-6.15801406e-07,2.00523438e-01
-6.15761406e-07,2.00465625e-01
-6.15721406e-07,2.00559375e-01
-6.15681406e-07,2.00287500e-01
-6.15641406e-07,2.00050000e-01
-6.15601406e-07,2.00125000e-01
-6.15561406e-07,2.00084375e-01
-6.15521406e-07,2.00109375e-01
-6.15481406e-07,2.00093750e-01
-6.15441406e-07,2.00103125e-01
-6.15401406e-07,2.00098438e-01
-6.15361406e-07,2.00100000e-01
-6.15321406e-07,2.00101562e-01
-6.15281406e-07,2.00096875e-01
-6.15241406e-07,2.00104688e-01
-6.15201406e-07,2.00093750e-01
-6.15161406e-07,2.00107813e-01
-6.15121406e-07,2.00089062e-01
-6.15081406e-07,2.00114063e-01
-6.15041406e-07,2.00079688e-01
-6.15001406e-07,2.00129688e-01
-6.14961406e-07,2.00043750e-01
-6.14921406e-07,2.00309375e-01
-6.14881406e-07,2.00553125e-01
-6.14841406e-07,2.00471875e-01
-6.14801406e-07,2.00518750e-01
-6.14761406e-07,2.00485938e-01
-6.14721406e-07,2.00509375e-01
-6.14681406e-07,2.00492188e-01
-6.14641406e-07,2.00504688e-01
-6.14601406e-07,2.00496875e-01
-6.14561406e-07,2.00503125e-01
-6.14521406e-07,2.00498438e-01
