dpa/aes_ch1_20250506140644006.csv

Model,MSO66B
Label,
Waveform Type,ANALOG
Horizontal Units,s
Sample Interval,4.00000000e-11
Record Length,100000
Zero Index,15999.03125000
Vertical Units,A
ANALOG_Thumbnail,
yOffset,1.84500000e-01
yPosition,8.40000000e-01

Labels,
TIME,CH1
-6.39961250e-07,1.82529688e-01
-6.39921250e-07,1.82445313e-01
-6.39881250e-07,1.82707813e-01
-6.39841250e-07,1.82954688e-01
-6.39801250e-07,1.82868750e-01
-6.39761250e-07,1.82923438e-01
-6.39721250e-07,1.82881250e-01
-6.39681250e-07,1.82917187e-01
-6.39641250e-07,1.82882813e-01
-6.39601250e-07,1.82918750e-01
-6.39561250e-07,1.82878125e-01
-6.39521250e-07,1.82931250e-01
-6.39481250e-07,1.82845312e-01
-6.39441250e-07,1.83107812e-01
-6.39401250e-07,1.83356250e-01
-6.39361250e-07,1.83267188e-01
-6.39321250e-07,1.83325000e-01
-6.39281250e-07,1.83278125e-01
-6.39241250e-07,1.83320312e-01
-6.39201250e-07,1.83279688e-01
-6.39161250e-07,1.83321875e-01
-6.39121250e-07,1.83275000e-01
-6.39081250e-07,1.83334375e-01
-6.39041250e-07,1.83240625e-01
-6.39001250e-07,1.83510937e-01
-6.38961250e-07,1.83751563e-01
-6.38921250e-07,1.83671875e-01
-6.38881250e-07,1.83718750e-01
-6.38841250e-07,1.83685938e-01
-6.38801250e-07,1.83712500e-01
-6.38761250e-07,1.83689062e-01
-6.38721250e-07,1.83709375e-01
-6.38681250e-07,1.83690625e-01
-6.38641250e-07,1.83709375e-01
-6.38601250e-07,1.83690625e-01
-6.38561250e-07,1.83709375e-01
-6.38521250e-07,1.83690625e-01
-6.38481250e-07,1.83710938e-01
-6.38441250e-07,1.83687500e-01
-6.38401250e-07,1.83715625e-01
-6.38361250e-07,1.83679687e-01
-6.38321250e-07,1.83729688e-01
-6.38281250e-07,1.83645313e-01
-6.38241250e-07,1.83907813e-01
-6.38201250e-07,1.84154687e-01
-6.38161250e-07,1.84068750e-01
-6.38121250e-07,1.84121875e-01
-6.38081250e-07,1.84082812e-01
-6.38041250e-07,1.84114063e-01
-6.38001250e-07,1.84087500e-01
-6.37961250e-07,1.84110938e-01
-6.37921250e-07,1.84090625e-01
-6.37881250e-07,1.84109375e-01
-6.37841250e-07,1.84090625e-01
-6.37801250e-07,1.84107812e-01
-6.37761250e-07,1.84092188e-01
-6.37721250e-07,1.84107812e-01
-6.37681250e-07,1.84092188e-01
-6.37641250e-07,1.84107812e-01
-6.37601250e-07,1.84092188e-01
-6.37561250e-07,1.84106250e-01
-6.37521250e-07,1.84092188e-01
-6.37481250e-07,1.84106250e-01
-6.37441250e-07,1.84093750e-01
-6.37401250e-07,1.84107812e-01
-6.37361250e-07,1.84092188e-01
-6.37321250e-07,1.84107812e-01
-6.37281250e-07,1.84092188e-01
-6.37241250e-07,1.84107812e-01
-6.37201250e-07,1.84092188e-01
-6.37161250e-07,1.84107812e-01
-6.37121250e-07,1.84092188e-01
-6.37081250e-07,1.84107812e-01
-6.37041250e-07,1.84090625e-01
-6.37001250e-07,1.84109375e-01
-6.36961250e-07,1.84090625e-01
-6.36921250e-07,1.84110938e-01
-6.36881250e-07,1.84089063e-01
-6.36841250e-07,1.84112500e-01
-6.36801250e-07,1.84085938e-01
-6.36761250e-07,1.84115625e-01
-6.36721250e-07,1.84081250e-01
-6.36681250e-07,1.84123438e-01
-6.36641250e-07,1.84065625e-01
-6.36601250e-07,1.84159375e-01
-6.36561250e-07,1.83887500e-01
-6.36521250e-07,1.83650000e-01
-6.36481250e-07,1.83726562e-01
-6.36441250e-07,1.83682813e-01
-6.36401250e-07,1.83712500e-01
-6.36361250e-07,1.83690625e-01
-6.36321250e-07,1.83706250e-01
-6.36281250e-07,1.83695313e-01
-6.36241250e-07,1.83704688e-01
-6.36201250e-07,1.83696875e-01
-6.36161250e-07,1.83703125e-01
-6.36121250e-07,1.83698438e-01
-6.36081250e-07,1.83701562e-01
-6.36041250e-07,1.83698438e-01
-6.36001250e-07,1.83700000e-01
-6.35961250e-07,1.83700000e-01
-6.35921250e-07,1.83700000e-01
-6.35881250e-07,1.83700000e-01
-6.35841250e-07,1.83700000e-01
-6.35801250e-07,1.83701562e-01
-6.35761250e-07,1.83698438e-01
-6.35721250e-07,1.83701562e-01
-6.35681250e-07,1.83698438e-01
-6.35641250e-07,1.83701562e-01
-6.35601250e-07,1.83698438e-01
-6.35561250e-07,1.83703125e-01
-6.35521250e-07,1.83696875e-01
-6.35481250e-07,1.83703125e-01
-6.35441250e-07,1.83696875e-01
-6.35401250e-07,1.83703125e-01
-6.35361250e-07,1.83696875e-01
-6.35321250e-07,1.83704688e-01
-6.35281250e-07,1.83695313e-01
-6.35241250e-07,1.83704688e-01
-6.35201250e-07,1.83695313e-01
-6.35161250e-07,1.83706250e-01
-6.35121250e-07,1.83693750e-01
-6.35081250e-07,1.83706250e-01
-6.35041250e-07,1.83692187e-01
-6.35001250e-07,1.83707813e-01
-6.34961250e-07,1.83692187e-01
-6.34921250e-07,1.83709375e-01
-6.34881250e-07,1.83689062e-01
-6.34841250e-07,1.83710938e-01
-6.34801250e-07,1.83687500e-01
-6.34761250e-07,1.83714062e-01
-6.34721250e-07,1.83682813e-01
-6.34681250e-07,1.83720313e-01
-6.34641250e-07,1.83673438e-01
-6.34601250e-07,1.83737500e-01
-6.34561250e-07,1.83637500e-01
-6.34521250e-07,1.83917187e-01
-6.34481250e-07,1.84143750e-01
-6.34441250e-07,1.84082812e-01
-6.34401250e-07,1.84104688e-01
-6.34361250e-07,1.84104688e-01
-6.34321250e-07,1.84081250e-01
-6.34281250e-07,1.84145313e-01
-6.34241250e-07,1.83900000e-01
-6.34201250e-07,1.83639063e-01
-6.34161250e-07,1.83735938e-01
-6.34121250e-07,1.83673438e-01
-6.34081250e-07,1.83720313e-01
-6.34041250e-07,1.83684375e-01
-6.34001250e-07,1.83714062e-01
-6.33961250e-07,1.83689062e-01
-6.33921250e-07,1.83709375e-01
-6.33881250e-07,1.83692187e-01
-6.33841250e-07,1.83706250e-01
-6.33801250e-07,1.83695313e-01
-6.33761250e-07,1.83701562e-01
-6.33721250e-07,1.83700000e-01
-6.33681250e-07,1.83696875e-01
-6.33641250e-07,1.83709375e-01
-6.33601250e-07,1.83681250e-01
-6.33561250e-07,1.83743750e-01
-6.33521250e-07,1.83503125e-01
-6.33481250e-07,1.83234375e-01
-6.33441250e-07,1.83342188e-01
-6.33401250e-07,1.83267188e-01
-6.33361250e-07,1.83328125e-01
-6.33321250e-07,1.83273437e-01
-6.33281250e-07,1.83325000e-01
-6.33241250e-07,1.83275000e-01
-6.33201250e-07,1.83325000e-01
-6.33161250e-07,1.83273437e-01
-6.33121250e-07,1.83331250e-01
-6.33081250e-07,1.83259375e-01
-6.33041250e-07,1.83364063e-01
-6.33001250e-07,1.83082812e-01
-6.32961250e-07,1.82854688e-01
-6.32921250e-07,1.82921875e-01
-6.32881250e-07,1.82885938e-01
-6.32841250e-07,1.82909375e-01
-6.32801250e-07,1.82893750e-01
-6.32761250e-07,1.82904687e-01
-6.32721250e-07,1.82895313e-01
-6.32681250e-07,1.82903125e-01
-6.32641250e-07,1.82896875e-01
-6.32601250e-07,1.82903125e-01
-6.32561250e-07,1.82896875e-01
-6.32521250e-07,1.82904687e-01
-6.32481250e-07,1.82895313e-01
-6.32441250e-07,1.82906250e-01
-6.32401250e-07,1.82892187e-01
-6.32361250e-07,1.82910938e-01
-6.32321250e-07,1.82884375e-01
-6.32281250e-07,1.82925000e-01
-6.32241250e-07,1.82850000e-01
-6.32201250e-07,1.83101563e-01
-6.32161250e-07,1.83360938e-01
-6.32121250e-07,1.83262500e-01
-6.32081250e-07,1.83328125e-01
-6.32041250e-07,1.83276563e-01
-6.32001250e-07,1.83320312e-01
-6.31961250e-07,1.83281250e-01
-6.31921250e-07,1.83317188e-01
-6.31881250e-07,1.83282813e-01
-6.31841250e-07,1.83317188e-01
-6.31801250e-07,1.83282813e-01
-6.31761250e-07,1.83317188e-01
-6.31721250e-07,1.83281250e-01
-6.31681250e-07,1.83318750e-01
-6.31641250e-07,1.83279688e-01
-6.31601250e-07,1.83323438e-01
-6.31561250e-07,1.83271875e-01
-6.31521250e-07,1.83337500e-01
-6.31481250e-07,1.83237500e-01
-6.31441250e-07,1.83515625e-01
-6.31401250e-07,1.83746875e-01
-6.31361250e-07,1.83678125e-01
-6.31321250e-07,1.83712500e-01
-6.31281250e-07,1.83692187e-01
-6.31241250e-07,1.83704688e-01
-6.31201250e-07,1.83696875e-01
-6.31161250e-07,1.83701562e-01
-6.31121250e-07,1.83700000e-01
-6.31081250e-07,1.83700000e-01
-6.31041250e-07,1.83701562e-01
-6.31001250e-07,1.83698438e-01
-6.30961250e-07,1.83703125e-01
-6.30921250e-07,1.83696875e-01
-6.30881250e-07,1.83703125e-01
-6.30841250e-07,1.83695313e-01
-6.30801250e-07,1.83704688e-01
-6.30761250e-07,1.83693750e-01
-6.30721250e-07,1.83706250e-01
-6.30681250e-07,1.83692187e-01
-6.30641250e-07,1.83707813e-01
-6.30601250e-07,1.83690625e-01
-6.30561250e-07,1.83710938e-01
-6.30521250e-07,1.83685938e-01
-6.30481250e-07,1.83717188e-01
-6.30441250e-07,1.83678125e-01
-6.30401250e-07,1.83731250e-01
-6.30361250e-07,1.83643750e-01
-6.30321250e-07,1.83909375e-01
-6.30281250e-07,1.84153125e-01
-6.30241250e-07,1.84071875e-01
-6.30201250e-07,1.84118750e-01
-6.30161250e-07,1.84085938e-01
-6.30121250e-07,1.84110938e-01
-6.30081250e-07,1.84090625e-01
-6.30041250e-07,1.84107812e-01
-6.30001250e-07,1.84093750e-01
-6.29961250e-07,1.84106250e-01
-6.29921250e-07,1.84095312e-01
-6.29881250e-07,1.84104688e-01
-6.29841250e-07,1.84096875e-01
-6.29801250e-07,1.84103125e-01
-6.29761250e-07,1.84096875e-01
-6.29721250e-07,1.84103125e-01
-6.29681250e-07,1.84096875e-01
-6.29641250e-07,1.84101563e-01
-6.29601250e-07,1.84098438e-01
-6.29561250e-07,1.84101563e-01
-6.29521250e-07,1.84098438e-01
-6.29481250e-07,1.84101563e-01
-6.29441250e-07,1.84098438e-01
-6.29401250e-07,1.84101563e-01
-6.29361250e-07,1.84098438e-01
-6.29321250e-07,1.84101563e-01
-6.29281250e-07,1.84098438e-01
-6.29241250e-07,1.84101563e-01
-6.29201250e-07,1.84098438e-01
-6.29161250e-07,1.84101563e-01
-6.29121250e-07,1.84098438e-01
-6.29081250e-07,1.84103125e-01
-6.29041250e-07,1.84096875e-01
-6.29001250e-07,1.84103125e-01
-6.28961250e-07,1.84095312e-01
-6.28921250e-07,1.84106250e-01
-6.28881250e-07,1.84090625e-01
-6.28841250e-07,1.84114063e-01
-6.28801250e-07,1.84078125e-01
-6.28761250e-07,1.84146875e-01
-6.28721250e-07,1.83901563e-01
-6.28681250e-07,1.83635938e-01
-6.28641250e-07,1.83740625e-01
-6.28601250e-07,1.83667187e-01
-6.28561250e-07,1.83729688e-01
-6.28521250e-07,1.83670313e-01
-6.28481250e-07,1.83729688e-01
-6.28441250e-07,1.83668750e-01
-6.28401250e-07,1.83737500e-01
-6.28361250e-07,1.83653125e-01
-6.28321250e-07,1.83771875e-01
-6.28281250e-07,1.83473438e-01
-6.28241250e-07,1.83265625e-01
-6.28201250e-07,1.83306250e-01
-6.28161250e-07,1.83307813e-01
-6.28121250e-07,1.83276563e-01
-6.28081250e-07,1.83351563e-01
-6.28041250e-07,1.83092188e-01
-6.28001250e-07,1.82848438e-01
-6.27961250e-07,1.82925000e-01
-6.27921250e-07,1.82890625e-01
-6.27881250e-07,1.82895313e-01
-6.27841250e-07,1.82931250e-01
-6.27801250e-07,1.82714062e-01
-6.27761250e-07,1.82421875e-01
-6.27721250e-07,1.82556250e-01
-6.27681250e-07,1.82445313e-01
-6.27641250e-07,1.82573438e-01
-6.27601250e-07,1.82279688e-01
-6.27561250e-07,1.82053125e-01
-6.27521250e-07,1.82129687e-01
-6.27481250e-07,1.82070312e-01
-6.27441250e-07,1.82151563e-01
-6.27401250e-07,1.81898438e-01
-6.27361250e-07,1.81635938e-01
-6.27321250e-07,1.81742188e-01
-6.27281250e-07,1.81662500e-01
-6.27241250e-07,1.81737500e-01
-6.27201250e-07,1.81656250e-01
-6.27161250e-07,1.81767188e-01
-6.27121250e-07,1.81481250e-01
-6.27081250e-07,1.81256250e-01
-6.27041250e-07,1.81321875e-01
-6.27001250e-07,1.81287500e-01
-6.26961250e-07,1.81307812e-01
-6.26921250e-07,1.81293750e-01
-6.26881250e-07,1.81304688e-01
-6.26841250e-07,1.81296875e-01
-6.26801250e-07,1.81303125e-01
-6.26761250e-07,1.81296875e-01
-6.26721250e-07,1.81301563e-01
-6.26681250e-07,1.81298438e-01
-6.26641250e-07,1.81301563e-01
-6.26601250e-07,1.81298438e-01
-6.26561250e-07,1.81301563e-01
-6.26521250e-07,1.81298438e-01
-6.26481250e-07,1.81301563e-01
-6.26441250e-07,1.81298438e-01
-6.26401250e-07,1.81301563e-01
-6.26361250e-07,1.81296875e-01
-6.26321250e-07,1.81303125e-01
-6.26281250e-07,1.81296875e-01
-6.26241250e-07,1.81304688e-01
-6.26201250e-07,1.81295312e-01
-6.26161250e-07,1.81306250e-01
-6.26121250e-07,1.81290625e-01
-6.26081250e-07,1.81310938e-01
-6.26041250e-07,1.81284375e-01
-6.26001250e-07,1.81325000e-01
-6.25961250e-07,1.81250000e-01
-6.25921250e-07,1.81503125e-01
-6.25881250e-07,1.81759375e-01
-6.25841250e-07,1.81664063e-01
-6.25801250e-07,1.81726562e-01
-6.25761250e-07,1.81676562e-01
-6.25721250e-07,1.81720313e-01
-6.25681250e-07,1.81679688e-01
-6.25641250e-07,1.81720313e-01
-6.25601250e-07,1.81679688e-01
-6.25561250e-07,1.81723438e-01
-6.25521250e-07,1.81673438e-01
-6.25481250e-07,1.81735937e-01
-6.25441250e-07,1.81639063e-01
-6.25401250e-07,1.81912500e-01
-6.25361250e-07,1.82150000e-01
-6.25321250e-07,1.82073438e-01
-6.25281250e-07,1.82117187e-01
-6.25241250e-07,1.82087500e-01
-6.25201250e-07,1.82109375e-01
-6.25161250e-07,1.82092188e-01
-6.25121250e-07,1.82106250e-01
-6.25081250e-07,1.82093750e-01
-6.25041250e-07,1.82104688e-01
-6.25001250e-07,1.82095312e-01
-6.24961250e-07,1.82104688e-01
-6.24921250e-07,1.82095312e-01
-6.24881250e-07,1.82104688e-01
-6.24841250e-07,1.82095312e-01
-6.24801250e-07,1.82104688e-01
-6.24761250e-07,1.82095312e-01
-6.24721250e-07,1.82104688e-01
-6.24681250e-07,1.82095312e-01
-6.24641250e-07,1.82106250e-01
-6.24601250e-07,1.82093750e-01
-6.24561250e-07,1.82106250e-01
-6.24521250e-07,1.82092188e-01
-6.24481250e-07,1.82109375e-01
-6.24441250e-07,1.82089063e-01
-6.24401250e-07,1.82114063e-01
-6.24361250e-07,1.82081250e-01
-6.24321250e-07,1.82129687e-01
-6.24281250e-07,1.82046875e-01
-6.24241250e-07,1.82306250e-01
-6.24201250e-07,1.82554688e-01
-6.24161250e-07,1.82468750e-01
-6.24121250e-07,1.82521875e-01
-6.24081250e-07,1.82482813e-01
-6.24041250e-07,1.82514063e-01
-6.24001250e-07,1.82487500e-01
-6.23961250e-07,1.82510937e-01
-6.23921250e-07,1.82490625e-01
-6.23881250e-07,1.82509375e-01
-6.23841250e-07,1.82492188e-01
-6.23801250e-07,1.82507813e-01
-6.23761250e-07,1.82492188e-01
-6.23721250e-07,1.82506250e-01
-6.23681250e-07,1.82493750e-01
-6.23641250e-07,1.82506250e-01
-6.23601250e-07,1.82493750e-01
-6.23561250e-07,1.82506250e-01
-6.23521250e-07,1.82493750e-01
-6.23481250e-07,1.82506250e-01
-6.23441250e-07,1.82493750e-01
-6.23401250e-07,1.82506250e-01
-6.23361250e-07,1.82495313e-01
-6.23321250e-07,1.82504688e-01
-6.23281250e-07,1.82495313e-01
-6.23241250e-07,1.82504688e-01
-6.23201250e-07,1.82495313e-01
-6.23161250e-07,1.82504688e-01
-6.23121250e-07,1.82495313e-01
-6.23081250e-07,1.82504688e-01
-6.23041250e-07,1.82495313e-01
-6.23001250e-07,1.82504688e-01
-6.22961250e-07,1.82495313e-01
-6.22921250e-07,1.82504688e-01
-6.22881250e-07,1.82495313e-01
-6.22841250e-07,1.82504688e-01
-6.22801250e-07,1.82495313e-01
-6.22761250e-07,1.82504688e-01
-6.22721250e-07,1.82495313e-01
-6.22681250e-07,1.82504688e-01
-6.22641250e-07,1.82495313e-01
-6.22601250e-07,1.82504688e-01
-6.22561250e-07,1.82493750e-01
-6.22521250e-07,1.82506250e-01
-6.22481250e-07,1.82493750e-01
-6.22441250e-07,1.82506250e-01
-6.22401250e-07,1.82493750e-01
-6.22361250e-07,1.82506250e-01
-6.22321250e-07,1.82493750e-01
-6.22281250e-07,1.82506250e-01
-6.22241250e-07,1.82493750e-01
-6.22201250e-07,1.82506250e-01
-6.22161250e-07,1.82492188e-01
-6.22121250e-07,1.82507813e-01
-6.22081250e-07,1.82492188e-01
-6.22041250e-07,1.82507813e-01
-6.22001250e-07,1.82492188e-01
-6.21961250e-07,1.82509375e-01
-6.21921250e-07,1.82490625e-01
-6.21881250e-07,1.82509375e-01
-6.21841250e-07,1.82489063e-01
-6.21801250e-07,1.82510937e-01
-6.21761250e-07,1.82487500e-01
-6.21721250e-07,1.82514063e-01
-6.21681250e-07,1.82482813e-01
-6.21641250e-07,1.82520313e-01
-6.21601250e-07,1.82475000e-01
-6.21561250e-07,1.82534375e-01
-6.21521250e-07,1.82440625e-01
-6.21481250e-07,1.82712500e-01
-6.21441250e-07,1.82948438e-01
-6.21401250e-07,1.82875000e-01
-6.21361250e-07,1.82915625e-01
-6.21321250e-07,1.82890625e-01
-6.21281250e-07,1.82906250e-01
-6.21241250e-07,1.82895313e-01
-6.21201250e-07,1.82901563e-01
-6.21161250e-07,1.82900000e-01
-6.21121250e-07,1.82898438e-01
-6.21081250e-07,1.82903125e-01
-6.21041250e-07,1.82895313e-01
-6.21001250e-07,1.82906250e-01
-6.20961250e-07,1.82892187e-01
-6.20921250e-07,1.82912500e-01
-6.20881250e-07,1.82882813e-01
-6.20841250e-07,1.82926563e-01
-6.20801250e-07,1.82846875e-01
-6.20761250e-07,1.83106250e-01
-6.20721250e-07,1.83356250e-01
-6.20681250e-07,1.83267188e-01
-6.20641250e-07,1.83323438e-01
-6.20601250e-07,1.83282813e-01
-6.20561250e-07,1.83314063e-01
-6.20521250e-07,1.83287500e-01
-6.20481250e-07,1.83310937e-01
-6.20441250e-07,1.83290625e-01
-6.20401250e-07,1.83309375e-01
-6.20361250e-07,1.83292188e-01
-6.20321250e-07,1.83307813e-01
-6.20281250e-07,1.83292188e-01
-6.20241250e-07,1.83306250e-01
-6.20201250e-07,1.83293750e-01
-6.20161250e-07,1.83306250e-01
-6.20121250e-07,1.83293750e-01
-6.20081250e-07,1.83306250e-01
-6.20041250e-07,1.83295313e-01
-6.20001250e-07,1.83304688e-01
-6.19961250e-07,1.83295313e-01
-6.19921250e-07,1.83304688e-01
-6.19881250e-07,1.83295313e-01
-6.19841250e-07,1.83304688e-01
-6.19801250e-07,1.83295313e-01
-6.19761250e-07,1.83304688e-01
-6.19721250e-07,1.83295313e-01
-6.19681250e-07,1.83304688e-01
-6.19641250e-07,1.83295313e-01
-6.19601250e-07,1.83304688e-01
-6.19561250e-07,1.83295313e-01
-6.19521250e-07,1.83304688e-01
-6.19481250e-07,1.83295313e-01
-6.19441250e-07,1.83304688e-01
-6.19401250e-07,1.83293750e-01
-6.19361250e-07,1.83306250e-01
-6.19321250e-07,1.83293750e-01
-6.19281250e-07,1.83307813e-01
-6.19241250e-07,1.83292188e-01
-6.19201250e-07,1.83309375e-01
-6.19161250e-07,1.83289063e-01
-6.19121250e-07,1.83312500e-01
-6.19081250e-07,1.83284375e-01
-6.19041250e-07,1.83320312e-01
-6.19001250e-07,1.83270313e-01
-6.18961250e-07,1.83354688e-01
-6.18921250e-07,1.83092188e-01
-6.18881250e-07,1.82845312e-01
-6.18841250e-07,1.82931250e-01
-6.18801250e-07,1.82878125e-01
-6.18761250e-07,1.82917187e-01
-6.18721250e-07,1.82885938e-01
-6.18681250e-07,1.82912500e-01
-6.18641250e-07,1.82889063e-01
-6.18601250e-07,1.82909375e-01
-6.18561250e-07,1.82890625e-01
-6.18521250e-07,1.82909375e-01
-6.18481250e-07,1.82890625e-01
-6.18441250e-07,1.82907813e-01
-6.18401250e-07,1.82892187e-01
-6.18361250e-07,1.82907813e-01
-6.18321250e-07,1.82892187e-01
-6.18281250e-07,1.82907813e-01
-6.18241250e-07,1.82892187e-01
-6.18201250e-07,1.82907813e-01
-6.18161250e-07,1.82890625e-01
-6.18121250e-07,1.82909375e-01
-6.18081250e-07,1.82890625e-01
-6.18041250e-07,1.82910938e-01
-6.18001250e-07,1.82889063e-01
-6.17961250e-07,1.82912500e-01
-6.17921250e-07,1.82885938e-01
-6.17881250e-07,1.82915625e-01
-6.17841250e-07,1.82881250e-01
-6.17801250e-07,1.82923438e-01
-6.17761250e-07,1.82867188e-01
-6.17721250e-07,1.82957813e-01
-6.17681250e-07,1.82687500e-01
-6.17641250e-07,1.82450000e-01
-6.17601250e-07,1.82526563e-01
-6.17561250e-07,1.82482813e-01
-6.17521250e-07,1.82512500e-01
-6.17481250e-07,1.82490625e-01
-6.17441250e-07,1.82506250e-01
-6.17401250e-07,1.82495313e-01
-6.17361250e-07,1.82503125e-01
-6.17321250e-07,1.82496875e-01
-6.17281250e-07,1.82501563e-01
-6.17241250e-07,1.82500000e-01
-6.17201250e-07,1.82500000e-01
-6.17161250e-07,1.82501563e-01
-6.17121250e-07,1.82498437e-01
-6.17081250e-07,1.82503125e-01
-6.17041250e-07,1.82495313e-01
-6.17001250e-07,1.82504688e-01
-6.16961250e-07,1.82493750e-01
-6.16921250e-07,1.82509375e-01
-6.16881250e-07,1.82487500e-01
-6.16841250e-07,1.82517188e-01
-6.16801250e-07,1.82471875e-01
-6.16761250e-07,1.82553125e-01
-6.16721250e-07,1.82293750e-01
-6.16681250e-07,1.82043750e-01
-6.16641250e-07,1.82132813e-01
-6.16601250e-07,1.82076563e-01
-6.16561250e-07,1.82118750e-01
-6.16521250e-07,1.82084375e-01
-6.16481250e-07,1.82112500e-01
-6.16441250e-07,1.82089063e-01
-6.16401250e-07,1.82109375e-01
-6.16361250e-07,1.82090625e-01
-6.16321250e-07,1.82107812e-01
-6.16281250e-07,1.82092188e-01
-6.16241250e-07,1.82107812e-01
-6.16201250e-07,1.82093750e-01
-6.16161250e-07,1.82106250e-01
-6.16121250e-07,1.82093750e-01
-6.16081250e-07,1.82106250e-01
-6.16041250e-07,1.82093750e-01
-6.16001250e-07,1.82104688e-01
-6.15961250e-07,1.82095312e-01
-6.15921250e-07,1.82104688e-01
-6.15881250e-07,1.82095312e-01
-6.15841250e-07,1.82104688e-01
-6.15801250e-07,1.82095312e-01
-6.15761250e-07,1.82104688e-01
-6.15721250e-07,1.82095312e-01
-6.15681250e-07,1.82104688e-01
-6.15641250e-07,1.82095312e-01
-6.15601250e-07,1.82104688e-01
-6.15561250e-07,1.82095312e-01
-6.15521250e-07,1.82104688e-01
-6.15481250e-07,1.82096875e-01
-6.15441250e-07,1.82103125e-01
-6.15401250e-07,1.82096875e-01
-6.15361250e-07,1.82103125e-01
-6.15321250e-07,1.82096875e-01
-6.15281250e-07,1.82103125e-01
-6.15241250e-07,1.82096875e-01
-6.15201250e-07,1.82103125e-01
-6.15161250e-07,1.82096875e-01
-6.15121250e-07,1.82103125e-01
-6.15081250e-07,1.82096875e-01
-6.15041250e-07,1.82103125e-01
-6.15001250e-07,1.82096875e-01
-6.14961250e-07,1.82103125e-01
-6.14921250e-07,1.82096875e-01
-6.14881250e-07,1.82103125e-01
-6.14841250e-07,1.82095312e-01
-6.14801250e-07,1.82104688e-01
-6.14761250e-07,1.82095312e-01
-6.14721250e-07,1.82104688e-01
-6.14681250e-07,1.82095312e-01
-6.14641250e-07,1.82104688e-01
-6.14601250e-07,1.82095312e-01
-6.14561250e-07,1.82106250e-01
-6.14521250e-07,1.82093750e-01
