dpa/aes_ch1_20250506140507169.csv

Model,MSO66B
Label,
Waveform Type,ANALOG
Horizontal Units,s
Sample Interval,4.00000000e-11
Record Length,25000
Zero Index,6249.03125000
Vertical Units,A
ANALOG_Thumbnail,
yOffset,1.84500000e-01
yPosition,0.00000000e+00

Labels,
TIME,CH1
-2.49961250e-07,1.84965812e-01
-2.49921250e-07,1.84962187e-01
-2.49881250e-07,1.84965812e-01
-2.49841250e-07,1.84963094e-01
-2.49801250e-07,1.84964906e-01
-2.49761250e-07,1.84964000e-01
-2.49721250e-07,1.84964000e-01
-2.49681250e-07,1.84964906e-01
-2.49641250e-07,1.84963094e-01
-2.49601250e-07,1.84965812e-01
-2.49561250e-07,1.84962187e-01
-2.49521250e-07,1.84966719e-01
-2.49481250e-07,1.84960375e-01
-2.49441250e-07,1.84969438e-01
-2.49401250e-07,1.84956750e-01
-2.49361250e-07,1.84973969e-01
-2.49321250e-07,1.84948594e-01
-2.49281250e-07,1.84994812e-01
-2.49241250e-07,1.84844375e-01
-2.49201250e-07,1.84699375e-01
-2.49161250e-07,1.84751031e-01
-2.49121250e-07,1.84719313e-01
-2.49081250e-07,1.84741969e-01
-2.49041250e-07,1.84723844e-01
-2.49001250e-07,1.84738344e-01
-2.48961250e-07,1.84726562e-01
-2.48921250e-07,1.84736531e-01
-2.48881250e-07,1.84727469e-01
-2.48841250e-07,1.84735625e-01
-2.48801250e-07,1.84729281e-01
-2.48761250e-07,1.84733813e-01
-2.48721250e-07,1.84730188e-01
-2.48681250e-07,1.84732906e-01
-2.48641250e-07,1.84732000e-01
-2.48601250e-07,1.84731094e-01
-2.48561250e-07,1.84734719e-01
-2.48521250e-07,1.84727469e-01
-2.48481250e-07,1.84740156e-01
-2.48441250e-07,1.84718406e-01
-2.48401250e-07,1.84761000e-01
-2.48361250e-07,1.84614187e-01
-2.48321250e-07,1.84466469e-01
-2.48281250e-07,1.84519031e-01
-2.48241250e-07,1.84487313e-01
-2.48201250e-07,1.84508156e-01
-2.48161250e-07,1.84495469e-01
-2.48121250e-07,1.84498187e-01
-2.48081250e-07,1.84517219e-01
-2.48041250e-07,1.84394875e-01
-2.48001250e-07,1.84220875e-01
-2.47961250e-07,1.84302437e-01
-2.47921250e-07,1.84237188e-01
-2.47881250e-07,1.84298812e-01
-2.47841250e-07,1.84233563e-01
-2.47801250e-07,1.84316031e-01
-2.47761250e-07,1.84131156e-01
-2.47721250e-07,1.84020594e-01
-2.47681250e-07,1.84036906e-01
-2.47641250e-07,1.84043250e-01
-2.47601250e-07,1.84021500e-01
-2.47561250e-07,1.84065906e-01
-2.47521250e-07,1.83916375e-01
-2.47481250e-07,1.83771375e-01
-2.47441250e-07,1.83823938e-01
-2.47401250e-07,1.83788594e-01
-2.47361250e-07,1.83819406e-01
-2.47321250e-07,1.83785875e-01
-2.47281250e-07,1.83835719e-01
-2.47241250e-07,1.83685281e-01
-2.47201250e-07,1.83537563e-01
-2.47161250e-07,1.83593750e-01
-2.47121250e-07,1.83553875e-01
-2.47081250e-07,1.83588312e-01
-2.47041250e-07,1.83554781e-01
-2.47001250e-07,1.83591031e-01
-2.46961250e-07,1.83548437e-01
-2.46921250e-07,1.83610063e-01
-2.46881250e-07,1.83445125e-01
-2.46841250e-07,1.83313719e-01
-2.46801250e-07,1.83351781e-01
-2.46761250e-07,1.83332750e-01
-2.46721250e-07,1.83343625e-01
-2.46681250e-07,1.83337281e-01
-2.46641250e-07,1.83340906e-01
-2.46601250e-07,1.83340000e-01
-2.46561250e-07,1.83339094e-01
-2.46521250e-07,1.83340906e-01
-2.46481250e-07,1.83338187e-01
-2.46441250e-07,1.83341813e-01
-2.46401250e-07,1.83337281e-01
-2.46361250e-07,1.83343625e-01
-2.46321250e-07,1.83336375e-01
-2.46281250e-07,1.83344531e-01
-2.46241250e-07,1.83334562e-01
-2.46201250e-07,1.83347250e-01
-2.46161250e-07,1.83330937e-01
-2.46121250e-07,1.83351781e-01
-2.46081250e-07,1.83322781e-01
-2.46041250e-07,1.83371719e-01
-2.46001250e-07,1.83219469e-01
-2.45961250e-07,1.83076281e-01
-2.45921250e-07,1.83126125e-01
-2.45881250e-07,1.83095312e-01
-2.45841250e-07,1.83117063e-01
-2.45801250e-07,1.83099844e-01
-2.45761250e-07,1.83114344e-01
-2.45721250e-07,1.83102563e-01
-2.45681250e-07,1.83113438e-01
-2.45641250e-07,1.83103469e-01
-2.45601250e-07,1.83112531e-01
-2.45561250e-07,1.83103469e-01
-2.45521250e-07,1.83112531e-01
-2.45481250e-07,1.83103469e-01
-2.45441250e-07,1.83112531e-01
-2.45401250e-07,1.83103469e-01
-2.45361250e-07,1.83112531e-01
-2.45321250e-07,1.83103469e-01
-2.45281250e-07,1.83113438e-01
-2.45241250e-07,1.83101656e-01
-2.45201250e-07,1.83115250e-01
-2.45161250e-07,1.83098938e-01
-2.45121250e-07,1.83119781e-01
-2.45081250e-07,1.83090781e-01
-2.45041250e-07,1.83138812e-01
-2.45001250e-07,1.82988375e-01
-2.44961250e-07,1.82843375e-01
-2.44921250e-07,1.82895031e-01
-2.44881250e-07,1.82862406e-01
-2.44841250e-07,1.82886875e-01
-2.44801250e-07,1.82866031e-01
-2.44761250e-07,1.82885063e-01
-2.44721250e-07,1.82866937e-01
-2.44681250e-07,1.82885063e-01
-2.44641250e-07,1.82866937e-01
-2.44601250e-07,1.82886875e-01
-2.44561250e-07,1.82863312e-01
-2.44521250e-07,1.82894125e-01
-2.44481250e-07,1.82844281e-01
-2.44441250e-07,1.82996531e-01
-2.44401250e-07,1.83140625e-01
-2.44361250e-07,1.83088969e-01
-2.44321250e-07,1.83122500e-01
-2.44281250e-07,1.83095312e-01
-2.44241250e-07,1.83119781e-01
-2.44201250e-07,1.83096219e-01
-2.44161250e-07,1.83120687e-01
-2.44121250e-07,1.83092594e-01
-2.44081250e-07,1.83128844e-01
-2.44041250e-07,1.83072656e-01
-2.44001250e-07,1.83233062e-01
-2.43961250e-07,1.83366281e-01
-2.43921250e-07,1.83328219e-01
-2.43881250e-07,1.83343625e-01
-2.43841250e-07,1.83343625e-01
-2.43801250e-07,1.83320969e-01
-2.43761250e-07,1.83447844e-01
-2.43721250e-07,1.83616406e-01
-2.43681250e-07,1.83539375e-01
-2.43641250e-07,1.83603719e-01
-2.43601250e-07,1.83529406e-01
-2.43561250e-07,1.83700687e-01
-2.43521250e-07,1.83830281e-01
-2.43481250e-07,1.83787687e-01
-2.43441250e-07,1.83820312e-01
-2.43401250e-07,1.83775906e-01
-2.43361250e-07,1.83918187e-01
-2.43321250e-07,1.84075875e-01
-2.43281250e-07,1.84006094e-01
-2.43241250e-07,1.84065906e-01
-2.43201250e-07,1.83995219e-01
-2.43161250e-07,1.84163781e-01
-2.43121250e-07,1.84295187e-01
-2.43081250e-07,1.84251688e-01
-2.43041250e-07,1.84284312e-01
-2.43001250e-07,1.84239906e-01
-2.42961250e-07,1.84382187e-01
-2.42921250e-07,1.84539875e-01
-2.42881250e-07,1.84471906e-01
-2.42841250e-07,1.84524469e-01
-2.42801250e-07,1.84474625e-01
-2.42761250e-07,1.84529906e-01
-2.42721250e-07,1.84455594e-01
-2.42681250e-07,1.84633219e-01
-2.42641250e-07,1.84751031e-01
-2.42601250e-07,1.84727469e-01
-2.42561250e-07,1.84730188e-01
-2.42521250e-07,1.84738344e-01
-2.42481250e-07,1.84721125e-01
-2.42441250e-07,1.84750125e-01
-2.42401250e-07,1.84698469e-01
-2.42361250e-07,1.84855250e-01
-2.42321250e-07,1.84992094e-01
-2.42281250e-07,1.84950406e-01
-2.42241250e-07,1.84971250e-01
-2.42201250e-07,1.84961281e-01
-2.42161250e-07,1.84964000e-01
-2.42121250e-07,1.84966719e-01
-2.42081250e-07,1.84956750e-01
-2.42041250e-07,1.84977594e-01
-2.42001250e-07,1.84935000e-01
-2.41961250e-07,1.85081812e-01
-2.41921250e-07,1.85229531e-01
-2.41881250e-07,1.85176062e-01
-2.41841250e-07,1.85209594e-01
-2.41801250e-07,1.85185125e-01
-2.41761250e-07,1.85204156e-01
-2.41721250e-07,1.85188750e-01
-2.41681250e-07,1.85201438e-01
-2.41641250e-07,1.85191469e-01
-2.41601250e-07,1.85199625e-01
-2.41561250e-07,1.85192375e-01
-2.41521250e-07,1.85198719e-01
-2.41481250e-07,1.85194187e-01
-2.41441250e-07,1.85197813e-01
-2.41401250e-07,1.85195094e-01
-2.41361250e-07,1.85196000e-01
-2.41321250e-07,1.85196906e-01
-2.41281250e-07,1.85194187e-01
-2.41241250e-07,1.85199625e-01
-2.41201250e-07,1.85190562e-01
-2.41161250e-07,1.85205062e-01
-2.41121250e-07,1.85181500e-01
-2.41081250e-07,1.85225906e-01
-2.41041250e-07,1.85077281e-01
-2.41001250e-07,1.84931375e-01
-2.40961250e-07,1.84981219e-01
-2.40921250e-07,1.84954937e-01
-2.40881250e-07,1.84965812e-01
-2.40841250e-07,1.84977594e-01
-2.40801250e-07,1.84862500e-01
-2.40761250e-07,1.84680344e-01
-2.40721250e-07,1.84772781e-01
-2.40681250e-07,1.84691219e-01
-2.40641250e-07,1.84784562e-01
-2.40601250e-07,1.84590625e-01
-2.40561250e-07,1.84490031e-01
-2.40521250e-07,1.84491844e-01
-2.40481250e-07,1.84526281e-01
-2.40441250e-07,1.84383094e-01
-2.40401250e-07,1.84232656e-01
-2.40361250e-07,1.84291563e-01
-2.40321250e-07,1.84246250e-01
-2.40281250e-07,1.84300625e-01
-2.40241250e-07,1.84150188e-01
-2.40201250e-07,1.83998844e-01
-2.40161250e-07,1.84064094e-01
-2.40121250e-07,1.84007000e-01
-2.40081250e-07,1.84077688e-01
-2.40041250e-07,1.83906406e-01
-2.40001250e-07,1.83782250e-01
-2.39961250e-07,1.83811250e-01
-2.39921250e-07,1.83804906e-01
-2.39881250e-07,1.83794938e-01
-2.39841250e-07,1.83828469e-01
-2.39801250e-07,1.83689812e-01
-2.39761250e-07,1.83533937e-01
-2.39721250e-07,1.83595563e-01
-2.39681250e-07,1.83553875e-01
-2.39641250e-07,1.83587406e-01
-2.39601250e-07,1.83557500e-01
-2.39561250e-07,1.83585594e-01
-2.39521250e-07,1.83558406e-01
-2.39481250e-07,1.83586500e-01
-2.39441250e-07,1.83556594e-01
-2.39401250e-07,1.83590125e-01
-2.39361250e-07,1.83548437e-01
-2.39321250e-07,1.83610063e-01
-2.39281250e-07,1.83445125e-01
-2.39241250e-07,1.83315531e-01
-2.39201250e-07,1.83350875e-01
-2.39161250e-07,1.83335469e-01
-2.39121250e-07,1.83340906e-01
-2.39081250e-07,1.83342719e-01
-2.39041250e-07,1.83332750e-01
-2.39001250e-07,1.83353594e-01
-2.38961250e-07,1.83311906e-01
-2.38921250e-07,1.83456906e-01
-2.38881250e-07,1.83606437e-01
-2.38841250e-07,1.83551156e-01
-2.38801250e-07,1.83586500e-01
-2.38761250e-07,1.83560219e-01
-2.38721250e-07,1.83581969e-01
-2.38681250e-07,1.83562937e-01
-2.38641250e-07,1.83580156e-01
-2.38601250e-07,1.83564750e-01
-2.38561250e-07,1.83578344e-01
-2.38521250e-07,1.83565656e-01
-2.38481250e-07,1.83577437e-01
-2.38441250e-07,1.83566563e-01
-2.38401250e-07,1.83577437e-01
-2.38361250e-07,1.83566563e-01
-2.38321250e-07,1.83577437e-01
-2.38281250e-07,1.83566563e-01
-2.38241250e-07,1.83577437e-01
-2.38201250e-07,1.83566563e-01
-2.38161250e-07,1.83577437e-01
-2.38121250e-07,1.83566563e-01
-2.38081250e-07,1.83577437e-01
-2.38041250e-07,1.83565656e-01
-2.38001250e-07,1.83578344e-01
-2.37961250e-07,1.83564750e-01
-2.37921250e-07,1.83581063e-01
-2.37881250e-07,1.83560219e-01
-2.37841250e-07,1.83589219e-01
-2.37801250e-07,1.83541188e-01
-2.37761250e-07,1.83691625e-01
-2.37721250e-07,1.83837531e-01
-2.37681250e-07,1.83783156e-01
-2.37641250e-07,1.83820312e-01
-2.37601250e-07,1.83789500e-01
-2.37561250e-07,1.83818500e-01
-2.37521250e-07,1.83787687e-01
-2.37481250e-07,1.83825750e-01
-2.37441250e-07,1.83768656e-01
-2.37401250e-07,1.83928156e-01
-2.37361250e-07,1.84063188e-01
-2.37321250e-07,1.84022406e-01
-2.37281250e-07,1.84043250e-01
-2.37241250e-07,1.84033281e-01
-2.37201250e-07,1.84035094e-01
-2.37161250e-07,1.84043250e-01
-2.37121250e-07,1.84013344e-01
-2.37081250e-07,1.84147469e-01
-2.37041250e-07,1.84308781e-01
-2.37001250e-07,1.84240812e-01
-2.36961250e-07,1.84290656e-01
-2.36921250e-07,1.84247156e-01
-2.36881250e-07,1.84288844e-01
-2.36841250e-07,1.84245344e-01
-2.36801250e-07,1.84295187e-01
-2.36761250e-07,1.84227219e-01
-2.36721250e-07,1.84396687e-01
-2.36681250e-07,1.84523562e-01
-2.36641250e-07,1.84490031e-01
-2.36601250e-07,1.84504531e-01
-2.36561250e-07,1.84498187e-01
-2.36521250e-07,1.84500906e-01
-2.36481250e-07,1.84500000e-01
-2.36441250e-07,1.84499094e-01
-2.36401250e-07,1.84501813e-01
-2.36361250e-07,1.84498187e-01
-2.36321250e-07,1.84502719e-01
-2.36281250e-07,1.84497281e-01
-2.36241250e-07,1.84502719e-01
-2.36201250e-07,1.84497281e-01
-2.36161250e-07,1.84503625e-01
-2.36121250e-07,1.84496375e-01
-2.36081250e-07,1.84503625e-01
-2.36041250e-07,1.84496375e-01
-2.36001250e-07,1.84503625e-01
-2.35961250e-07,1.84495469e-01
-2.35921250e-07,1.84504531e-01
-2.35881250e-07,1.84495469e-01
-2.35841250e-07,1.84504531e-01
-2.35801250e-07,1.84495469e-01
-2.35761250e-07,1.84505438e-01
-2.35721250e-07,1.84494562e-01
-2.35681250e-07,1.84505438e-01
-2.35641250e-07,1.84494562e-01
-2.35601250e-07,1.84506344e-01
-2.35561250e-07,1.84493656e-01
-2.35521250e-07,1.84506344e-01
-2.35481250e-07,1.84492750e-01
-2.35441250e-07,1.84507250e-01
-2.35401250e-07,1.84491844e-01
-2.35361250e-07,1.84509062e-01
-2.35321250e-07,1.84490938e-01
-2.35281250e-07,1.84509969e-01
-2.35241250e-07,1.84489125e-01
-2.35201250e-07,1.84512687e-01
-2.35161250e-07,1.84485500e-01
-2.35121250e-07,1.84518125e-01
-2.35081250e-07,1.84475531e-01
-2.35041250e-07,1.84538969e-01
-2.35001250e-07,1.84371312e-01
-2.34961250e-07,1.84244437e-01
-2.34921250e-07,1.84277063e-01
-2.34881250e-07,1.84265281e-01
-2.34841250e-07,1.84266187e-01
-2.34801250e-07,1.84272531e-01
-2.34761250e-07,1.84259844e-01
-2.34721250e-07,1.84280687e-01
-2.34681250e-07,1.84248969e-01
-2.34641250e-07,1.84302437e-01
-2.34601250e-07,1.84143844e-01
-2.34561250e-07,1.84009719e-01
-2.34521250e-07,1.84046875e-01
-2.34481250e-07,1.84031469e-01
-2.34441250e-07,1.84035094e-01
-2.34401250e-07,1.84042344e-01
-2.34361250e-07,1.84022406e-01
-2.34321250e-07,1.84065000e-01
-2.34281250e-07,1.83916375e-01
-2.34241250e-07,1.83773187e-01
-2.34201250e-07,1.83820312e-01
-2.34161250e-07,1.83794938e-01
-2.34121250e-07,1.83807625e-01
-2.34081250e-07,1.83805812e-01
-2.34041250e-07,1.83794938e-01
-2.34001250e-07,1.83828469e-01
-2.33961250e-07,1.83689812e-01
-2.33921250e-07,1.83535750e-01
-2.33881250e-07,1.83593750e-01
-2.33841250e-07,1.83556594e-01
-2.33801250e-07,1.83582875e-01
-2.33761250e-07,1.83563844e-01
-2.33721250e-07,1.83576531e-01
-2.33681250e-07,1.83571094e-01
-2.33641250e-07,1.83566563e-01
-2.33601250e-07,1.83592844e-01
-2.33561250e-07,1.83462344e-01
-2.33521250e-07,1.83298313e-01
-2.33481250e-07,1.83368094e-01
-2.33441250e-07,1.83317344e-01
-2.33401250e-07,1.83359031e-01
-2.33361250e-07,1.83321875e-01
-2.33321250e-07,1.83356313e-01
-2.33281250e-07,1.83323687e-01
-2.33241250e-07,1.83356313e-01
-2.33201250e-07,1.83323687e-01
-2.33161250e-07,1.83356313e-01
-2.33121250e-07,1.83321875e-01
-2.33081250e-07,1.83360844e-01
-2.33041250e-07,1.83314625e-01
-2.33001250e-07,1.83379875e-01
-2.32961250e-07,1.83211313e-01
-2.32921250e-07,1.83084438e-01
-2.32881250e-07,1.83117969e-01
-2.32841250e-07,1.83103469e-01
-2.32801250e-07,1.83110719e-01
-2.32761250e-07,1.83107094e-01
-2.32721250e-07,1.83108000e-01
-2.32681250e-07,1.83108906e-01
-2.32641250e-07,1.83106187e-01
-2.32601250e-07,1.83109812e-01
-2.32561250e-07,1.83105281e-01
-2.32521250e-07,1.83110719e-01
-2.32481250e-07,1.83105281e-01
-2.32441250e-07,1.83111625e-01
-2.32401250e-07,1.83104375e-01
-2.32361250e-07,1.83111625e-01
-2.32321250e-07,1.83104375e-01
-2.32281250e-07,1.83111625e-01
-2.32241250e-07,1.83104375e-01
-2.32201250e-07,1.83112531e-01
-2.32161250e-07,1.83103469e-01
-2.32121250e-07,1.83112531e-01
-2.32081250e-07,1.83103469e-01
-2.32041250e-07,1.83113438e-01
-2.32001250e-07,1.83102563e-01
-2.31961250e-07,1.83113438e-01
-2.31921250e-07,1.83101656e-01
-2.31881250e-07,1.83114344e-01
-2.31841250e-07,1.83100750e-01
-2.31801250e-07,1.83116156e-01
-2.31761250e-07,1.83098938e-01
-2.31721250e-07,1.83118875e-01
-2.31681250e-07,1.83093500e-01
-2.31641250e-07,1.83127938e-01
-2.31601250e-07,1.83073563e-01
-2.31561250e-07,1.83231250e-01
-2.31521250e-07,1.83369000e-01
-2.31481250e-07,1.83324594e-01
-2.31441250e-07,1.83349969e-01
-2.31401250e-07,1.83332750e-01
-2.31361250e-07,1.83345437e-01
-2.31321250e-07,1.83336375e-01
-2.31281250e-07,1.83342719e-01
-2.31241250e-07,1.83337281e-01
-2.31201250e-07,1.83341813e-01
-2.31161250e-07,1.83338187e-01
-2.31121250e-07,1.83340906e-01
-2.31081250e-07,1.83339094e-01
-2.31041250e-07,1.83340906e-01
-2.31001250e-07,1.83340000e-01
-2.30961250e-07,1.83340000e-01
-2.30921250e-07,1.83340000e-01
-2.30881250e-07,1.83340000e-01
-2.30841250e-07,1.83340906e-01
-2.30801250e-07,1.83339094e-01
-2.30761250e-07,1.83340906e-01
-2.30721250e-07,1.83339094e-01
-2.30681250e-07,1.83341813e-01
-2.30641250e-07,1.83338187e-01
-2.30601250e-07,1.83341813e-01
-2.30561250e-07,1.83338187e-01
-2.30521250e-07,1.83342719e-01
-2.30481250e-07,1.83337281e-01
-2.30441250e-07,1.83343625e-01
-2.30401250e-07,1.83336375e-01
-2.30361250e-07,1.83344531e-01
-2.30321250e-07,1.83334562e-01
-2.30281250e-07,1.83346344e-01
-2.30241250e-07,1.83331844e-01
-2.30201250e-07,1.83350875e-01
-2.30161250e-07,1.83322781e-01
-2.30121250e-07,1.83371719e-01
-2.30081250e-07,1.83219469e-01
-2.30041250e-07,1.83076281e-01
-2.30001250e-07,1.83126125e-01
-2.29961250e-07,1.83095312e-01
-2.29921250e-07,1.83117969e-01
-2.29881250e-07,1.83099844e-01
-2.29841250e-07,1.83114344e-01
-2.29801250e-07,1.83101656e-01
-2.29761250e-07,1.83113438e-01
-2.29721250e-07,1.83103469e-01
-2.29681250e-07,1.83112531e-01
-2.29641250e-07,1.83103469e-01
-2.29601250e-07,1.83111625e-01
-2.29561250e-07,1.83104375e-01
-2.29521250e-07,1.83111625e-01
-2.29481250e-07,1.83104375e-01
-2.29441250e-07,1.83111625e-01
-2.29401250e-07,1.83105281e-01
-2.29361250e-07,1.83110719e-01
-2.29321250e-07,1.83105281e-01
-2.29281250e-07,1.83110719e-01
-2.29241250e-07,1.83105281e-01
-2.29201250e-07,1.83110719e-01
-2.29161250e-07,1.83105281e-01
-2.29121250e-07,1.83110719e-01
-2.29081250e-07,1.83105281e-01
-2.29041250e-07,1.83110719e-01
-2.29001250e-07,1.83105281e-01
-2.28961250e-07,1.83110719e-01
-2.28921250e-07,1.83105281e-01
-2.28881250e-07,1.83110719e-01
-2.28841250e-07,1.83105281e-01
-2.28801250e-07,1.83110719e-01
-2.28761250e-07,1.83105281e-01
-2.28721250e-07,1.83110719e-01
-2.28681250e-07,1.83104375e-01
-2.28641250e-07,1.83111625e-01
-2.28601250e-07,1.83104375e-01
-2.28561250e-07,1.83111625e-01
-2.28521250e-07,1.83104375e-01
-2.28481250e-07,1.83112531e-01
-2.28441250e-07,1.83103469e-01
-2.28401250e-07,1.83112531e-01
-2.28361250e-07,1.83102563e-01
-2.28321250e-07,1.83113438e-01
-2.28281250e-07,1.83101656e-01
-2.28241250e-07,1.83115250e-01
-2.28201250e-07,1.83098938e-01
-2.28161250e-07,1.83118875e-01
-2.28121250e-07,1.83094406e-01
-2.28081250e-07,1.83127031e-01
-2.28041250e-07,1.83073563e-01
-2.28001250e-07,1.83231250e-01
-2.27961250e-07,1.83369000e-01
-2.27921250e-07,1.83325500e-01
-2.27881250e-07,1.83348156e-01
-2.27841250e-07,1.83335469e-01
-2.27801250e-07,1.83341813e-01
-2.27761250e-07,1.83340906e-01
-2.27721250e-07,1.83335469e-01
-2.27681250e-07,1.83349969e-01
-2.27641250e-07,1.83314625e-01
-2.27601250e-07,1.83454188e-01
-2.27561250e-07,1.83610063e-01
-2.27521250e-07,1.83547531e-01
-2.27481250e-07,1.83591031e-01
-2.27441250e-07,1.83554781e-01
-2.27401250e-07,1.83588312e-01
-2.27361250e-07,1.83556594e-01
-2.27321250e-07,1.83588312e-01
-2.27281250e-07,1.83552969e-01
-2.27241250e-07,1.83595563e-01
-2.27201250e-07,1.83533937e-01
-2.27161250e-07,1.83697969e-01
-2.27121250e-07,1.83830281e-01
-2.27081250e-07,1.83791312e-01
-2.27041250e-07,1.83811250e-01
-2.27001250e-07,1.83799469e-01
-2.26961250e-07,1.83806719e-01
-2.26921250e-07,1.83802187e-01
-2.26881250e-07,1.83804906e-01
-2.26841250e-07,1.83803094e-01
-2.26801250e-07,1.83804000e-01
-2.26761250e-07,1.83804000e-01
-2.26721250e-07,1.83804000e-01
-2.26681250e-07,1.83804906e-01
-2.26641250e-07,1.83803094e-01
-2.26601250e-07,1.83804906e-01
-2.26561250e-07,1.83803094e-01
-2.26521250e-07,1.83804906e-01
-2.26481250e-07,1.83802187e-01
-2.26441250e-07,1.83805812e-01
-2.26401250e-07,1.83802187e-01
-2.26361250e-07,1.83806719e-01
-2.26321250e-07,1.83801281e-01
-2.26281250e-07,1.83806719e-01
-2.26241250e-07,1.83800375e-01
-2.26201250e-07,1.83808531e-01
-2.26161250e-07,1.83799469e-01
-2.26121250e-07,1.83810344e-01
-2.26081250e-07,1.83795844e-01
-2.26041250e-07,1.83814875e-01
-2.26001250e-07,1.83787687e-01
-2.25961250e-07,1.83834812e-01
-2.25921250e-07,1.83684375e-01
-2.25881250e-07,1.83539375e-01
-2.25841250e-07,1.83591031e-01
-2.25801250e-07,1.83558406e-01
-2.25761250e-07,1.83582875e-01
-2.25721250e-07,1.83562031e-01
-2.25681250e-07,1.83581063e-01
-2.25641250e-07,1.83563844e-01
-2.25601250e-07,1.83580156e-01
-2.25561250e-07,1.83563844e-01
-2.25521250e-07,1.83580156e-01
-2.25481250e-07,1.83562937e-01
-2.25441250e-07,1.83581969e-01
-2.25401250e-07,1.83561125e-01
-2.25361250e-07,1.83585594e-01
-2.25321250e-07,1.83552969e-01
-2.25281250e-07,1.83605531e-01
-2.25241250e-07,1.83449656e-01
-2.25201250e-07,1.83310094e-01
-2.25161250e-07,1.83356313e-01
-2.25121250e-07,1.83329125e-01
-2.25081250e-07,1.83348156e-01
-2.25041250e-07,1.83333656e-01
-2.25001250e-07,1.83345437e-01
-2.24961250e-07,1.83335469e-01
-2.24921250e-07,1.83344531e-01
-2.24881250e-07,1.83336375e-01
-2.24841250e-07,1.83343625e-01
-2.24801250e-07,1.83336375e-01
-2.24761250e-07,1.83342719e-01
-2.24721250e-07,1.83337281e-01
-2.24681250e-07,1.83342719e-01
-2.24641250e-07,1.83337281e-01
-2.24601250e-07,1.83342719e-01
-2.24561250e-07,1.83337281e-01
-2.24521250e-07,1.83342719e-01
