dpa/aes_ch1_20250506141334490.csv

Model,MSO66B
Label,
Waveform Type,ANALOG
Horizontal Units,s
Sample Interval,4.00000000e-11
Record Length,100000
Zero Index,15999.06250000
Vertical Units,A
ANALOG_Thumbnail,
yOffset,1.84500000e-01
yPosition,8.40000000e-01

Labels,
TIME,CH1
-6.39962500e-07,1.76884375e-01
-6.39922500e-07,1.76912500e-01
-6.39882500e-07,1.76890625e-01
-6.39842500e-07,1.76907813e-01
-6.39802500e-07,1.76892188e-01
-6.39762500e-07,1.76906250e-01
-6.39722500e-07,1.76895313e-01
-6.39682500e-07,1.76904688e-01
-6.39642500e-07,1.76895313e-01
-6.39602500e-07,1.76903125e-01
-6.39562500e-07,1.76896875e-01
-6.39522500e-07,1.76903125e-01
-6.39482500e-07,1.76898438e-01
-6.39442500e-07,1.76901562e-01
-6.39402500e-07,1.76898438e-01
-6.39362500e-07,1.76901562e-01
-6.39322500e-07,1.76898438e-01
-6.39282500e-07,1.76901562e-01
-6.39242500e-07,1.76900000e-01
-6.39202500e-07,1.76900000e-01
-6.39162500e-07,1.76900000e-01
-6.39122500e-07,1.76900000e-01
-6.39082500e-07,1.76900000e-01
-6.39042500e-07,1.76900000e-01
-6.39002500e-07,1.76900000e-01
-6.38962500e-07,1.76898438e-01
-6.38922500e-07,1.76901562e-01
-6.38882500e-07,1.76898438e-01
-6.38842500e-07,1.76901562e-01
-6.38802500e-07,1.76898438e-01
-6.38762500e-07,1.76901562e-01
-6.38722500e-07,1.76898438e-01
-6.38682500e-07,1.76901562e-01
-6.38642500e-07,1.76896875e-01
-6.38602500e-07,1.76903125e-01
-6.38562500e-07,1.76896875e-01
-6.38522500e-07,1.76903125e-01
-6.38482500e-07,1.76896875e-01
-6.38442500e-07,1.76904688e-01
-6.38402500e-07,1.76895313e-01
-6.38362500e-07,1.76904688e-01
-6.38322500e-07,1.76895313e-01
-6.38282500e-07,1.76906250e-01
-6.38242500e-07,1.76893750e-01
-6.38202500e-07,1.76906250e-01
-6.38162500e-07,1.76892188e-01
-6.38122500e-07,1.76909375e-01
-6.38082500e-07,1.76890625e-01
-6.38042500e-07,1.76910938e-01
-6.38002500e-07,1.76885938e-01
-6.37962500e-07,1.76917188e-01
-6.37922500e-07,1.76878125e-01
-6.37882500e-07,1.76931250e-01
-6.37842500e-07,1.76843750e-01
-6.37802500e-07,1.77109375e-01
-6.37762500e-07,1.77351563e-01
-6.37722500e-07,1.77271875e-01
-6.37682500e-07,1.77318750e-01
-6.37642500e-07,1.77285938e-01
-6.37602500e-07,1.77310938e-01
-6.37562500e-07,1.77292188e-01
-6.37522500e-07,1.77306250e-01
-6.37482500e-07,1.77293750e-01
-6.37442500e-07,1.77304688e-01
-6.37402500e-07,1.77296875e-01
-6.37362500e-07,1.77303125e-01
-6.37322500e-07,1.77298438e-01
-6.37282500e-07,1.77301563e-01
-6.37242500e-07,1.77298438e-01
-6.37202500e-07,1.77300000e-01
-6.37162500e-07,1.77300000e-01
-6.37122500e-07,1.77300000e-01
-6.37082500e-07,1.77301563e-01
-6.37042500e-07,1.77298438e-01
-6.37002500e-07,1.77303125e-01
-6.36962500e-07,1.77296875e-01
-6.36922500e-07,1.77304688e-01
-6.36882500e-07,1.77295312e-01
-6.36842500e-07,1.77306250e-01
-6.36802500e-07,1.77292188e-01
-6.36762500e-07,1.77310938e-01
-6.36722500e-07,1.77285938e-01
-6.36682500e-07,1.77318750e-01
-6.36642500e-07,1.77271875e-01
-6.36602500e-07,1.77353125e-01
-6.36562500e-07,1.77093750e-01
-6.36522500e-07,1.76845313e-01
-6.36482500e-07,1.76931250e-01
-6.36442500e-07,1.76878125e-01
-6.36402500e-07,1.76917188e-01
-6.36362500e-07,1.76885938e-01
-6.36322500e-07,1.76910938e-01
-6.36282500e-07,1.76890625e-01
-6.36242500e-07,1.76909375e-01
-6.36202500e-07,1.76892188e-01
-6.36162500e-07,1.76907813e-01
-6.36122500e-07,1.76893750e-01
-6.36082500e-07,1.76906250e-01
-6.36042500e-07,1.76893750e-01
-6.36002500e-07,1.76904688e-01
-6.35962500e-07,1.76895313e-01
-6.35922500e-07,1.76904688e-01
-6.35882500e-07,1.76895313e-01
-6.35842500e-07,1.76903125e-01
-6.35802500e-07,1.76896875e-01
-6.35762500e-07,1.76903125e-01
-6.35722500e-07,1.76896875e-01
-6.35682500e-07,1.76903125e-01
-6.35642500e-07,1.76896875e-01
-6.35602500e-07,1.76903125e-01
-6.35562500e-07,1.76898438e-01
-6.35522500e-07,1.76901562e-01
-6.35482500e-07,1.76898438e-01
-6.35442500e-07,1.76901562e-01
-6.35402500e-07,1.76898438e-01
-6.35362500e-07,1.76901562e-01
-6.35322500e-07,1.76898438e-01
-6.35282500e-07,1.76901562e-01
-6.35242500e-07,1.76898438e-01
-6.35202500e-07,1.76900000e-01
-6.35162500e-07,1.76900000e-01
-6.35122500e-07,1.76900000e-01
-6.35082500e-07,1.76900000e-01
-6.35042500e-07,1.76900000e-01
-6.35002500e-07,1.76900000e-01
-6.34962500e-07,1.76900000e-01
-6.34922500e-07,1.76900000e-01
-6.34882500e-07,1.76900000e-01
-6.34842500e-07,1.76901562e-01
-6.34802500e-07,1.76898438e-01
-6.34762500e-07,1.76901562e-01
-6.34722500e-07,1.76898438e-01
-6.34682500e-07,1.76901562e-01
-6.34642500e-07,1.76898438e-01
-6.34602500e-07,1.76901562e-01
-6.34562500e-07,1.76896875e-01
-6.34522500e-07,1.76903125e-01
-6.34482500e-07,1.76896875e-01
-6.34442500e-07,1.76903125e-01
-6.34402500e-07,1.76896875e-01
-6.34362500e-07,1.76904688e-01
-6.34322500e-07,1.76895313e-01
-6.34282500e-07,1.76904688e-01
-6.34242500e-07,1.76893750e-01
-6.34202500e-07,1.76906250e-01
-6.34162500e-07,1.76893750e-01
-6.34122500e-07,1.76907813e-01
-6.34082500e-07,1.76890625e-01
-6.34042500e-07,1.76909375e-01
-6.34002500e-07,1.76889062e-01
-6.33962500e-07,1.76912500e-01
-6.33922500e-07,1.76885938e-01
-6.33882500e-07,1.76917188e-01
-6.33842500e-07,1.76879687e-01
-6.33802500e-07,1.76926562e-01
-6.33762500e-07,1.76865625e-01
-6.33722500e-07,1.76950000e-01
-6.33682500e-07,1.76815625e-01
-6.33642500e-07,1.77162500e-01
-6.33602500e-07,1.77146875e-01
-6.33562500e-07,1.76814063e-01
-6.33522500e-07,1.76951563e-01
-6.33482500e-07,1.76862500e-01
-6.33442500e-07,1.76929688e-01
-6.33402500e-07,1.76876563e-01
-6.33362500e-07,1.76920313e-01
-6.33322500e-07,1.76882813e-01
-6.33282500e-07,1.76915625e-01
-6.33242500e-07,1.76885938e-01
-6.33202500e-07,1.76912500e-01
-6.33162500e-07,1.76889062e-01
-6.33122500e-07,1.76909375e-01
-6.33082500e-07,1.76892188e-01
-6.33042500e-07,1.76906250e-01
-6.33002500e-07,1.76895313e-01
-6.32962500e-07,1.76903125e-01
-6.32922500e-07,1.76900000e-01
-6.32882500e-07,1.76896875e-01
-6.32842500e-07,1.76907813e-01
-6.32802500e-07,1.76882813e-01
-6.32762500e-07,1.76942188e-01
-6.32722500e-07,1.76704688e-01
-6.32682500e-07,1.76432813e-01
-6.32642500e-07,1.76543750e-01
-6.32602500e-07,1.76465625e-01
-6.32562500e-07,1.76531250e-01
-6.32522500e-07,1.76471875e-01
-6.32482500e-07,1.76528125e-01
-6.32442500e-07,1.76470313e-01
-6.32402500e-07,1.76532812e-01
-6.32362500e-07,1.76457813e-01
-6.32322500e-07,1.76565625e-01
-6.32282500e-07,1.76282812e-01
-6.32242500e-07,1.76053125e-01
-6.32202500e-07,1.76123438e-01
-6.32162500e-07,1.76082813e-01
-6.32122500e-07,1.76114063e-01
-6.32082500e-07,1.76085938e-01
-6.32042500e-07,1.76117187e-01
-6.32002500e-07,1.76075000e-01
-6.31962500e-07,1.76148438e-01
-6.31922500e-07,1.75898438e-01
-6.31882500e-07,1.75637500e-01
-6.31842500e-07,1.75739063e-01
-6.31802500e-07,1.75668750e-01
-6.31762500e-07,1.75726563e-01
-6.31722500e-07,1.75675000e-01
-6.31682500e-07,1.75725000e-01
-6.31642500e-07,1.75675000e-01
-6.31602500e-07,1.75726563e-01
-6.31562500e-07,1.75671875e-01
-6.31522500e-07,1.75732813e-01
-6.31482500e-07,1.75657813e-01
-6.31442500e-07,1.75767188e-01
-6.31402500e-07,1.75481250e-01
-6.31362500e-07,1.75257812e-01
-6.31322500e-07,1.75318750e-01
-6.31282500e-07,1.75290625e-01
-6.31242500e-07,1.75304688e-01
-6.31202500e-07,1.75298438e-01
-6.31162500e-07,1.75300000e-01
-6.31122500e-07,1.75303125e-01
-6.31082500e-07,1.75296875e-01
-6.31042500e-07,1.75304688e-01
-6.31002500e-07,1.75293750e-01
-6.30962500e-07,1.75307812e-01
-6.30922500e-07,1.75290625e-01
-6.30882500e-07,1.75310938e-01
-6.30842500e-07,1.75287500e-01
-6.30802500e-07,1.75317187e-01
-6.30762500e-07,1.75278125e-01
-6.30722500e-07,1.75331250e-01
-6.30682500e-07,1.75243750e-01
-6.30642500e-07,1.75509375e-01
-6.30602500e-07,1.75751563e-01
-6.30562500e-07,1.75671875e-01
-6.30522500e-07,1.75718750e-01
-6.30482500e-07,1.75685938e-01
-6.30442500e-07,1.75710937e-01
-6.30402500e-07,1.75690625e-01
-6.30362500e-07,1.75707813e-01
-6.30322500e-07,1.75693750e-01
-6.30282500e-07,1.75704688e-01
-6.30242500e-07,1.75695313e-01
-6.30202500e-07,1.75703125e-01
-6.30162500e-07,1.75696875e-01
-6.30122500e-07,1.75703125e-01
-6.30082500e-07,1.75696875e-01
-6.30042500e-07,1.75701563e-01
-6.30002500e-07,1.75698437e-01
-6.29962500e-07,1.75701563e-01
-6.29922500e-07,1.75698437e-01
-6.29882500e-07,1.75701563e-01
-6.29842500e-07,1.75698437e-01
-6.29802500e-07,1.75701563e-01
-6.29762500e-07,1.75698437e-01
-6.29722500e-07,1.75700000e-01
-6.29682500e-07,1.75700000e-01
-6.29642500e-07,1.75700000e-01
-6.29602500e-07,1.75700000e-01
-6.29562500e-07,1.75700000e-01
-6.29522500e-07,1.75700000e-01
-6.29482500e-07,1.75700000e-01
-6.29442500e-07,1.75700000e-01
-6.29402500e-07,1.75700000e-01
-6.29362500e-07,1.75700000e-01
-6.29322500e-07,1.75700000e-01
-6.29282500e-07,1.75700000e-01
-6.29242500e-07,1.75700000e-01
-6.29202500e-07,1.75700000e-01
-6.29162500e-07,1.75700000e-01
-6.29122500e-07,1.75700000e-01
-6.29082500e-07,1.75700000e-01
-6.29042500e-07,1.75700000e-01
-6.29002500e-07,1.75700000e-01
-6.28962500e-07,1.75700000e-01
-6.28922500e-07,1.75700000e-01
-6.28882500e-07,1.75700000e-01
-6.28842500e-07,1.75700000e-01
-6.28802500e-07,1.75700000e-01
-6.28762500e-07,1.75700000e-01
-6.28722500e-07,1.75700000e-01
-6.28682500e-07,1.75700000e-01
-6.28642500e-07,1.75700000e-01
-6.28602500e-07,1.75700000e-01
-6.28562500e-07,1.75700000e-01
-6.28522500e-07,1.75700000e-01
-6.28482500e-07,1.75700000e-01
-6.28442500e-07,1.75700000e-01
-6.28402500e-07,1.75700000e-01
-6.28362500e-07,1.75700000e-01
-6.28322500e-07,1.75700000e-01
-6.28282500e-07,1.75700000e-01
-6.28242500e-07,1.75700000e-01
-6.28202500e-07,1.75700000e-01
-6.28162500e-07,1.75700000e-01
-6.28122500e-07,1.75700000e-01
-6.28082500e-07,1.75700000e-01
-6.28042500e-07,1.75700000e-01
-6.28002500e-07,1.75700000e-01
-6.27962500e-07,1.75700000e-01
-6.27922500e-07,1.75700000e-01
-6.27882500e-07,1.75700000e-01
-6.27842500e-07,1.75700000e-01
-6.27802500e-07,1.75700000e-01
-6.27762500e-07,1.75700000e-01
-6.27722500e-07,1.75700000e-01
-6.27682500e-07,1.75700000e-01
-6.27642500e-07,1.75700000e-01
-6.27602500e-07,1.75700000e-01
-6.27562500e-07,1.75700000e-01
-6.27522500e-07,1.75700000e-01
-6.27482500e-07,1.75701563e-01
-6.27442500e-07,1.75698437e-01
-6.27402500e-07,1.75701563e-01
-6.27362500e-07,1.75698437e-01
-6.27322500e-07,1.75701563e-01
-6.27282500e-07,1.75698437e-01
-6.27242500e-07,1.75701563e-01
-6.27202500e-07,1.75698437e-01
-6.27162500e-07,1.75701563e-01
-6.27122500e-07,1.75698437e-01
-6.27082500e-07,1.75703125e-01
-6.27042500e-07,1.75696875e-01
-6.27002500e-07,1.75703125e-01
-6.26962500e-07,1.75696875e-01
-6.26922500e-07,1.75704688e-01
-6.26882500e-07,1.75695313e-01
-6.26842500e-07,1.75704688e-01
-6.26802500e-07,1.75693750e-01
-6.26762500e-07,1.75707813e-01
-6.26722500e-07,1.75692188e-01
-6.26682500e-07,1.75709375e-01
-6.26642500e-07,1.75687500e-01
-6.26602500e-07,1.75715625e-01
-6.26562500e-07,1.75679688e-01
-6.26522500e-07,1.75731250e-01
-6.26482500e-07,1.75643750e-01
-6.26442500e-07,1.75909375e-01
-6.26402500e-07,1.76151562e-01
-6.26362500e-07,1.76071875e-01
-6.26322500e-07,1.76117187e-01
-6.26282500e-07,1.76087500e-01
-6.26242500e-07,1.76107813e-01
-6.26202500e-07,1.76095313e-01
-6.26162500e-07,1.76101563e-01
-6.26122500e-07,1.76103125e-01
-6.26082500e-07,1.76090625e-01
-6.26042500e-07,1.76118750e-01
-6.26002500e-07,1.76054688e-01
-6.25962500e-07,1.76298438e-01
-6.25922500e-07,1.76564063e-01
-6.25882500e-07,1.76460937e-01
-6.25842500e-07,1.76529688e-01
-6.25802500e-07,1.76475000e-01
-6.25762500e-07,1.76521875e-01
-6.25722500e-07,1.76481250e-01
-6.25682500e-07,1.76517188e-01
-6.25642500e-07,1.76484375e-01
-6.25602500e-07,1.76515625e-01
-6.25562500e-07,1.76485937e-01
-6.25522500e-07,1.76514063e-01
-6.25482500e-07,1.76485937e-01
-6.25442500e-07,1.76512500e-01
-6.25402500e-07,1.76487500e-01
-6.25362500e-07,1.76512500e-01
-6.25322500e-07,1.76487500e-01
-6.25282500e-07,1.76512500e-01
-6.25242500e-07,1.76489063e-01
-6.25202500e-07,1.76510938e-01
-6.25162500e-07,1.76489063e-01
-6.25122500e-07,1.76510938e-01
-6.25082500e-07,1.76489063e-01
-6.25042500e-07,1.76510938e-01
-6.25002500e-07,1.76489063e-01
-6.24962500e-07,1.76510938e-01
-6.24922500e-07,1.76489063e-01
-6.24882500e-07,1.76510938e-01
-6.24842500e-07,1.76489063e-01
-6.24802500e-07,1.76510938e-01
-6.24762500e-07,1.76489063e-01
-6.24722500e-07,1.76510938e-01
-6.24682500e-07,1.76489063e-01
-6.24642500e-07,1.76510938e-01
-6.24602500e-07,1.76489063e-01
-6.24562500e-07,1.76512500e-01
-6.24522500e-07,1.76487500e-01
-6.24482500e-07,1.76512500e-01
-6.24442500e-07,1.76487500e-01
-6.24402500e-07,1.76512500e-01
-6.24362500e-07,1.76487500e-01
-6.24322500e-07,1.76514063e-01
-6.24282500e-07,1.76485937e-01
-6.24242500e-07,1.76514063e-01
-6.24202500e-07,1.76484375e-01
-6.24162500e-07,1.76515625e-01
-6.24122500e-07,1.76482813e-01
-6.24082500e-07,1.76517188e-01
-6.24042500e-07,1.76481250e-01
-6.24002500e-07,1.76520312e-01
-6.23962500e-07,1.76476563e-01
-6.23922500e-07,1.76526563e-01
-6.23882500e-07,1.76468750e-01
-6.23842500e-07,1.76540625e-01
-6.23802500e-07,1.76434375e-01
-6.23762500e-07,1.76720313e-01
-6.23722500e-07,1.76942188e-01
-6.23682500e-07,1.76882813e-01
-6.23642500e-07,1.76907813e-01
-6.23602500e-07,1.76898438e-01
-6.23562500e-07,1.76898438e-01
-6.23522500e-07,1.76904688e-01
-6.23482500e-07,1.76892188e-01
-6.23442500e-07,1.76909375e-01
-6.23402500e-07,1.76887500e-01
-6.23362500e-07,1.76917188e-01
-6.23322500e-07,1.76876563e-01
-6.23282500e-07,1.76932813e-01
-6.23242500e-07,1.76842187e-01
-6.23202500e-07,1.77112500e-01
-6.23162500e-07,1.77350000e-01
-6.23122500e-07,1.77275000e-01
-6.23082500e-07,1.77315625e-01
-6.23042500e-07,1.77290625e-01
-6.23002500e-07,1.77306250e-01
-6.22962500e-07,1.77296875e-01
-6.22922500e-07,1.77301563e-01
-6.22882500e-07,1.77300000e-01
-6.22842500e-07,1.77298438e-01
-6.22802500e-07,1.77303125e-01
-6.22762500e-07,1.77293750e-01
-6.22722500e-07,1.77307812e-01
-6.22682500e-07,1.77289063e-01
-6.22642500e-07,1.77314063e-01
-6.22602500e-07,1.77281250e-01
-6.22562500e-07,1.77329687e-01
-6.22522500e-07,1.77245313e-01
-6.22482500e-07,1.77507813e-01
-6.22442500e-07,1.77754688e-01
-6.22402500e-07,1.77670313e-01
-6.22362500e-07,1.77720313e-01
-6.22322500e-07,1.77684375e-01
-6.22282500e-07,1.77712500e-01
-6.22242500e-07,1.77690625e-01
-6.22202500e-07,1.77707813e-01
-6.22162500e-07,1.77693750e-01
-6.22122500e-07,1.77706250e-01
-6.22082500e-07,1.77695313e-01
-6.22042500e-07,1.77704688e-01
-6.22002500e-07,1.77696875e-01
-6.21962500e-07,1.77703125e-01
-6.21922500e-07,1.77696875e-01
-6.21882500e-07,1.77701562e-01
-6.21842500e-07,1.77698438e-01
-6.21802500e-07,1.77701562e-01
-6.21762500e-07,1.77698438e-01
-6.21722500e-07,1.77700000e-01
-6.21682500e-07,1.77700000e-01
-6.21642500e-07,1.77700000e-01
-6.21602500e-07,1.77700000e-01
-6.21562500e-07,1.77700000e-01
-6.21522500e-07,1.77700000e-01
-6.21482500e-07,1.77698438e-01
-6.21442500e-07,1.77701562e-01
-6.21402500e-07,1.77698438e-01
-6.21362500e-07,1.77701562e-01
-6.21322500e-07,1.77698438e-01
-6.21282500e-07,1.77701562e-01
-6.21242500e-07,1.77698438e-01
-6.21202500e-07,1.77703125e-01
-6.21162500e-07,1.77696875e-01
-6.21122500e-07,1.77703125e-01
-6.21082500e-07,1.77696875e-01
-6.21042500e-07,1.77703125e-01
-6.21002500e-07,1.77696875e-01
-6.20962500e-07,1.77703125e-01
-6.20922500e-07,1.77695313e-01
-6.20882500e-07,1.77704688e-01
-6.20842500e-07,1.77695313e-01
-6.20802500e-07,1.77704688e-01
-6.20762500e-07,1.77695313e-01
-6.20722500e-07,1.77706250e-01
-6.20682500e-07,1.77693750e-01
-6.20642500e-07,1.77706250e-01
-6.20602500e-07,1.77693750e-01
-6.20562500e-07,1.77707813e-01
-6.20522500e-07,1.77692188e-01
-6.20482500e-07,1.77709375e-01
-6.20442500e-07,1.77690625e-01
-6.20402500e-07,1.77710937e-01
-6.20362500e-07,1.77689062e-01
-6.20322500e-07,1.77714063e-01
-6.20282500e-07,1.77684375e-01
-6.20242500e-07,1.77718750e-01
-6.20202500e-07,1.77676562e-01
-6.20162500e-07,1.77734375e-01
-6.20122500e-07,1.77640625e-01
-6.20082500e-07,1.77912500e-01
-6.20042500e-07,1.78150000e-01
-6.20002500e-07,1.78073438e-01
-6.19962500e-07,1.78117187e-01
-6.19922500e-07,1.78089063e-01
-6.19882500e-07,1.78107813e-01
-6.19842500e-07,1.78093750e-01
-6.19802500e-07,1.78104687e-01
-6.19762500e-07,1.78096875e-01
-6.19722500e-07,1.78101563e-01
-6.19682500e-07,1.78098438e-01
-6.19642500e-07,1.78100000e-01
-6.19602500e-07,1.78100000e-01
-6.19562500e-07,1.78098438e-01
-6.19522500e-07,1.78101563e-01
-6.19482500e-07,1.78096875e-01
-6.19442500e-07,1.78103125e-01
-6.19402500e-07,1.78095313e-01
-6.19362500e-07,1.78104687e-01
-6.19322500e-07,1.78093750e-01
-6.19282500e-07,1.78106250e-01
-6.19242500e-07,1.78092187e-01
-6.19202500e-07,1.78109375e-01
-6.19162500e-07,1.78089063e-01
-6.19122500e-07,1.78112500e-01
-6.19082500e-07,1.78082813e-01
-6.19042500e-07,1.78121875e-01
-6.19002500e-07,1.78068750e-01
-6.18962500e-07,1.78156250e-01
-6.18922500e-07,1.77890625e-01
-6.18882500e-07,1.77648438e-01
-6.18842500e-07,1.77728125e-01
-6.18802500e-07,1.77681250e-01
-6.18762500e-07,1.77712500e-01
-6.18722500e-07,1.77690625e-01
-6.18682500e-07,1.77707813e-01
-6.18642500e-07,1.77693750e-01
-6.18602500e-07,1.77704688e-01
-6.18562500e-07,1.77696875e-01
-6.18522500e-07,1.77701562e-01
-6.18482500e-07,1.77698438e-01
-6.18442500e-07,1.77700000e-01
-6.18402500e-07,1.77701562e-01
-6.18362500e-07,1.77698438e-01
-6.18322500e-07,1.77703125e-01
-6.18282500e-07,1.77696875e-01
-6.18242500e-07,1.77704688e-01
-6.18202500e-07,1.77693750e-01
-6.18162500e-07,1.77707813e-01
-6.18122500e-07,1.77689062e-01
-6.18082500e-07,1.77714063e-01
-6.18042500e-07,1.77681250e-01
-6.18002500e-07,1.77729688e-01
-6.17962500e-07,1.77645313e-01
-6.17922500e-07,1.77907813e-01
-6.17882500e-07,1.78154688e-01
-6.17842500e-07,1.78068750e-01
-6.17802500e-07,1.78120313e-01
-6.17762500e-07,1.78084375e-01
-6.17722500e-07,1.78112500e-01
-6.17682500e-07,1.78089063e-01
-6.17642500e-07,1.78109375e-01
-6.17602500e-07,1.78092187e-01
-6.17562500e-07,1.78106250e-01
-6.17522500e-07,1.78093750e-01
-6.17482500e-07,1.78104687e-01
-6.17442500e-07,1.78095313e-01
-6.17402500e-07,1.78103125e-01
-6.17362500e-07,1.78096875e-01
-6.17322500e-07,1.78103125e-01
-6.17282500e-07,1.78098438e-01
-6.17242500e-07,1.78101563e-01
-6.17202500e-07,1.78098438e-01
-6.17162500e-07,1.78101563e-01
-6.17122500e-07,1.78100000e-01
-6.17082500e-07,1.78100000e-01
-6.17042500e-07,1.78100000e-01
-6.17002500e-07,1.78100000e-01
-6.16962500e-07,1.78101563e-01
-6.16922500e-07,1.78098438e-01
-6.16882500e-07,1.78101563e-01
-6.16842500e-07,1.78096875e-01
-6.16802500e-07,1.78103125e-01
-6.16762500e-07,1.78096875e-01
-6.16722500e-07,1.78104687e-01
-6.16682500e-07,1.78095313e-01
-6.16642500e-07,1.78106250e-01
-6.16602500e-07,1.78093750e-01
-6.16562500e-07,1.78107813e-01
-6.16522500e-07,1.78090625e-01
-6.16482500e-07,1.78112500e-01
-6.16442500e-07,1.78084375e-01
-6.16402500e-07,1.78120313e-01
-6.16362500e-07,1.78068750e-01
-6.16322500e-07,1.78156250e-01
-6.16282500e-07,1.77890625e-01
-6.16242500e-07,1.77646875e-01
-6.16202500e-07,1.77728125e-01
-6.16162500e-07,1.77681250e-01
-6.16122500e-07,1.77714063e-01
-6.16082500e-07,1.77690625e-01
-6.16042500e-07,1.77707813e-01
-6.16002500e-07,1.77695313e-01
-6.15962500e-07,1.77703125e-01
-6.15922500e-07,1.77698438e-01
-6.15882500e-07,1.77698438e-01
-6.15842500e-07,1.77703125e-01
-6.15802500e-07,1.77692188e-01
-6.15762500e-07,1.77712500e-01
-6.15722500e-07,1.77678125e-01
-6.15682500e-07,1.77748437e-01
-6.15642500e-07,1.77498437e-01
-6.15602500e-07,1.77239063e-01
-6.15562500e-07,1.77337500e-01
-6.15522500e-07,1.77271875e-01
-6.15482500e-07,1.77323438e-01
-6.15442500e-07,1.77279688e-01
-6.15402500e-07,1.77318750e-01
-6.15362500e-07,1.77282812e-01
-6.15322500e-07,1.77317188e-01
-6.15282500e-07,1.77282812e-01
-6.15242500e-07,1.77317188e-01
-6.15202500e-07,1.77282812e-01
-6.15162500e-07,1.77318750e-01
-6.15122500e-07,1.77278125e-01
-6.15082500e-07,1.77325000e-01
-6.15042500e-07,1.77265625e-01
-6.15002500e-07,1.77359375e-01
-6.14962500e-07,1.77087500e-01
-6.14922500e-07,1.76850000e-01
-6.14882500e-07,1.76926562e-01
-6.14842500e-07,1.76881250e-01
-6.14802500e-07,1.76914062e-01
-6.14762500e-07,1.76889062e-01
-6.14722500e-07,1.76909375e-01
-6.14682500e-07,1.76892188e-01
-6.14642500e-07,1.76907813e-01
-6.14602500e-07,1.76892188e-01
-6.14562500e-07,1.76906250e-01
-6.14522500e-07,1.76893750e-01
