dpa/aes_ch1_20250506140631329.csv

Model,MSO66B
Label,
Waveform Type,ANALOG
Horizontal Units,s
Sample Interval,4.00000000e-11
Record Length,100000
Zero Index,15999.03125000
Vertical Units,A
ANALOG_Thumbnail,
yOffset,1.84500000e-01
yPosition,8.40000000e-01

Labels,
TIME,CH1
-6.39961250e-07,1.86120312e-01
-6.39921250e-07,1.86081250e-01
-6.39881250e-07,1.86118750e-01
-6.39841250e-07,1.86081250e-01
-6.39801250e-07,1.86118750e-01
-6.39761250e-07,1.86079688e-01
-6.39721250e-07,1.86121875e-01
-6.39681250e-07,1.86075000e-01
-6.39641250e-07,1.86129688e-01
-6.39601250e-07,1.86060937e-01
-6.39561250e-07,1.86164063e-01
-6.39521250e-07,1.85882812e-01
-6.39481250e-07,1.85654687e-01
-6.39441250e-07,1.85721875e-01
-6.39401250e-07,1.85687500e-01
-6.39361250e-07,1.85707813e-01
-6.39321250e-07,1.85695313e-01
-6.39281250e-07,1.85701563e-01
-6.39241250e-07,1.85700000e-01
-6.39201250e-07,1.85698438e-01
-6.39161250e-07,1.85701563e-01
-6.39121250e-07,1.85696875e-01
-6.39081250e-07,1.85703125e-01
-6.39041250e-07,1.85695313e-01
-6.39001250e-07,1.85706250e-01
-6.38961250e-07,1.85693750e-01
-6.38921250e-07,1.85707813e-01
-6.38881250e-07,1.85690625e-01
-6.38841250e-07,1.85710938e-01
-6.38801250e-07,1.85687500e-01
-6.38761250e-07,1.85714062e-01
-6.38721250e-07,1.85681250e-01
-6.38681250e-07,1.85723438e-01
-6.38641250e-07,1.85665625e-01
-6.38601250e-07,1.85759375e-01
-6.38561250e-07,1.85487500e-01
-6.38521250e-07,1.85251562e-01
-6.38481250e-07,1.85323438e-01
-6.38441250e-07,1.85285937e-01
-6.38401250e-07,1.85307813e-01
-6.38361250e-07,1.85296875e-01
-6.38321250e-07,1.85300000e-01
-6.38281250e-07,1.85304688e-01
-6.38241250e-07,1.85292188e-01
-6.38201250e-07,1.85314063e-01
-6.38161250e-07,1.85275000e-01
-6.38121250e-07,1.85351563e-01
-6.38081250e-07,1.85095312e-01
-6.38041250e-07,1.84843750e-01
-6.38001250e-07,1.84931250e-01
-6.37961250e-07,1.84879688e-01
-6.37921250e-07,1.84914063e-01
-6.37881250e-07,1.84892187e-01
-6.37841250e-07,1.84903125e-01
-6.37801250e-07,1.84903125e-01
-6.37761250e-07,1.84885938e-01
-6.37721250e-07,1.84940625e-01
-6.37681250e-07,1.84706250e-01
-6.37641250e-07,1.84431250e-01
-6.37601250e-07,1.84543750e-01
-6.37561250e-07,1.84465625e-01
-6.37521250e-07,1.84529688e-01
-6.37481250e-07,1.84473438e-01
-6.37441250e-07,1.84525000e-01
-6.37401250e-07,1.84476562e-01
-6.37361250e-07,1.84523437e-01
-6.37321250e-07,1.84475000e-01
-6.37281250e-07,1.84525000e-01
-6.37241250e-07,1.84471875e-01
-6.37201250e-07,1.84532813e-01
-6.37161250e-07,1.84459375e-01
-6.37121250e-07,1.84565625e-01
-6.37081250e-07,1.84281250e-01
-6.37041250e-07,1.84056250e-01
-6.37001250e-07,1.84120312e-01
-6.36961250e-07,1.84087500e-01
-6.36921250e-07,1.84107812e-01
-6.36881250e-07,1.84095312e-01
-6.36841250e-07,1.84103125e-01
-6.36801250e-07,1.84098438e-01
-6.36761250e-07,1.84100000e-01
-6.36721250e-07,1.84100000e-01
-6.36681250e-07,1.84100000e-01
-6.36641250e-07,1.84101563e-01
-6.36601250e-07,1.84098438e-01
-6.36561250e-07,1.84101563e-01
-6.36521250e-07,1.84098438e-01
-6.36481250e-07,1.84101563e-01
-6.36441250e-07,1.84096875e-01
-6.36401250e-07,1.84103125e-01
-6.36361250e-07,1.84096875e-01
-6.36321250e-07,1.84103125e-01
-6.36281250e-07,1.84096875e-01
-6.36241250e-07,1.84103125e-01
-6.36201250e-07,1.84096875e-01
-6.36161250e-07,1.84103125e-01
-6.36121250e-07,1.84096875e-01
-6.36081250e-07,1.84103125e-01
-6.36041250e-07,1.84096875e-01
-6.36001250e-07,1.84103125e-01
-6.35961250e-07,1.84095312e-01
-6.35921250e-07,1.84104688e-01
-6.35881250e-07,1.84095312e-01
-6.35841250e-07,1.84104688e-01
-6.35801250e-07,1.84093750e-01
-6.35761250e-07,1.84106250e-01
-6.35721250e-07,1.84092188e-01
-6.35681250e-07,1.84107812e-01
-6.35641250e-07,1.84089063e-01
-6.35601250e-07,1.84112500e-01
-6.35561250e-07,1.84082812e-01
-6.35521250e-07,1.84126563e-01
-6.35481250e-07,1.84048437e-01
-6.35441250e-07,1.84304688e-01
-6.35401250e-07,1.84557813e-01
-6.35361250e-07,1.84465625e-01
-6.35321250e-07,1.84526563e-01
-6.35281250e-07,1.84478125e-01
-6.35241250e-07,1.84520313e-01
-6.35201250e-07,1.84479688e-01
-6.35161250e-07,1.84520313e-01
-6.35121250e-07,1.84479688e-01
-6.35081250e-07,1.84523437e-01
-6.35041250e-07,1.84471875e-01
-6.35001250e-07,1.84537500e-01
-6.34961250e-07,1.84437500e-01
-6.34921250e-07,1.84715625e-01
-6.34881250e-07,1.84946875e-01
-6.34841250e-07,1.84878125e-01
-6.34801250e-07,1.84912500e-01
-6.34761250e-07,1.84892187e-01
-6.34721250e-07,1.84903125e-01
-6.34681250e-07,1.84900000e-01
-6.34641250e-07,1.84896875e-01
-6.34601250e-07,1.84907813e-01
-6.34561250e-07,1.84885938e-01
-6.34521250e-07,1.84923438e-01
-6.34481250e-07,1.84851563e-01
-6.34441250e-07,1.85103125e-01
-6.34401250e-07,1.85359375e-01
-6.34361250e-07,1.85265625e-01
-6.34321250e-07,1.85325000e-01
-6.34281250e-07,1.85279688e-01
-6.34241250e-07,1.85317188e-01
-6.34201250e-07,1.85285937e-01
-6.34161250e-07,1.85312500e-01
-6.34121250e-07,1.85289063e-01
-6.34081250e-07,1.85310937e-01
-6.34041250e-07,1.85290625e-01
-6.34001250e-07,1.85307813e-01
-6.33961250e-07,1.85292188e-01
-6.33921250e-07,1.85306250e-01
-6.33881250e-07,1.85293750e-01
-6.33841250e-07,1.85304688e-01
-6.33801250e-07,1.85296875e-01
-6.33761250e-07,1.85301563e-01
-6.33721250e-07,1.85300000e-01
-6.33681250e-07,1.85296875e-01
-6.33641250e-07,1.85307813e-01
-6.33601250e-07,1.85282813e-01
-6.33561250e-07,1.85342188e-01
-6.33521250e-07,1.85104688e-01
-6.33481250e-07,1.84831250e-01
-6.33441250e-07,1.84945313e-01
-6.33401250e-07,1.84864063e-01
-6.33361250e-07,1.84931250e-01
-6.33321250e-07,1.84870312e-01
-6.33281250e-07,1.84929687e-01
-6.33241250e-07,1.84870312e-01
-6.33201250e-07,1.84929687e-01
-6.33161250e-07,1.84867188e-01
-6.33121250e-07,1.84937500e-01
-6.33081250e-07,1.84853125e-01
-6.33041250e-07,1.84971875e-01
-6.33001250e-07,1.84675000e-01
-6.32961250e-07,1.84464062e-01
-6.32921250e-07,1.84512500e-01
-6.32881250e-07,1.84498438e-01
-6.32841250e-07,1.84495313e-01
-6.32801250e-07,1.84509375e-01
-6.32761250e-07,1.84484375e-01
-6.32721250e-07,1.84521875e-01
-6.32681250e-07,1.84467188e-01
-6.32641250e-07,1.84557813e-01
-6.32601250e-07,1.84287500e-01
-6.32561250e-07,1.84051563e-01
-6.32521250e-07,1.84123438e-01
-6.32481250e-07,1.84085938e-01
-6.32441250e-07,1.84106250e-01
-6.32401250e-07,1.84098438e-01
-6.32361250e-07,1.84096875e-01
-6.32321250e-07,1.84109375e-01
-6.32281250e-07,1.84079688e-01
-6.32241250e-07,1.84145313e-01
-6.32201250e-07,1.83901563e-01
-6.32161250e-07,1.83635938e-01
-6.32121250e-07,1.83740625e-01
-6.32081250e-07,1.83668750e-01
-6.32041250e-07,1.83728125e-01
-6.32001250e-07,1.83671875e-01
-6.31961250e-07,1.83729688e-01
-6.31921250e-07,1.83662500e-01
-6.31881250e-07,1.83760937e-01
-6.31841250e-07,1.83487500e-01
-6.31801250e-07,1.83250000e-01
-6.31761250e-07,1.83328125e-01
-6.31721250e-07,1.83279688e-01
-6.31681250e-07,1.83315625e-01
-6.31641250e-07,1.83285937e-01
-6.31601250e-07,1.83314063e-01
-6.31561250e-07,1.83285937e-01
-6.31521250e-07,1.83315625e-01
-6.31481250e-07,1.83282813e-01
-6.31441250e-07,1.83321875e-01
-6.31401250e-07,1.83268750e-01
-6.31361250e-07,1.83356250e-01
-6.31321250e-07,1.83092188e-01
-6.31281250e-07,1.82845312e-01
-6.31241250e-07,1.82931250e-01
-6.31201250e-07,1.82878125e-01
-6.31161250e-07,1.82917187e-01
-6.31121250e-07,1.82885938e-01
-6.31081250e-07,1.82912500e-01
-6.31041250e-07,1.82887500e-01
-6.31001250e-07,1.82910938e-01
-6.30961250e-07,1.82889063e-01
-6.30921250e-07,1.82912500e-01
-6.30881250e-07,1.82885938e-01
-6.30841250e-07,1.82915625e-01
-6.30801250e-07,1.82879687e-01
-6.30761250e-07,1.82929687e-01
-6.30721250e-07,1.82846875e-01
-6.30681250e-07,1.83106250e-01
-6.30641250e-07,1.83356250e-01
-6.30601250e-07,1.83265625e-01
-6.30561250e-07,1.83325000e-01
-6.30521250e-07,1.83278125e-01
-6.30481250e-07,1.83318750e-01
-6.30441250e-07,1.83281250e-01
-6.30401250e-07,1.83318750e-01
-6.30361250e-07,1.83279688e-01
-6.30321250e-07,1.83323438e-01
-6.30281250e-07,1.83271875e-01
-6.30241250e-07,1.83337500e-01
-6.30201250e-07,1.83239062e-01
-6.30161250e-07,1.83514063e-01
-6.30121250e-07,1.83746875e-01
-6.30081250e-07,1.83676563e-01
-6.30041250e-07,1.83714062e-01
-6.30001250e-07,1.83692187e-01
-6.29961250e-07,1.83703125e-01
-6.29921250e-07,1.83700000e-01
-6.29881250e-07,1.83696875e-01
-6.29841250e-07,1.83706250e-01
-6.29801250e-07,1.83687500e-01
-6.29761250e-07,1.83723438e-01
-6.29721250e-07,1.83651563e-01
-6.29681250e-07,1.83901563e-01
-6.29641250e-07,1.84160938e-01
-6.29601250e-07,1.84064063e-01
-6.29561250e-07,1.84126563e-01
-6.29521250e-07,1.84078125e-01
-6.29481250e-07,1.84118750e-01
-6.29441250e-07,1.84082812e-01
-6.29401250e-07,1.84115625e-01
-6.29361250e-07,1.84085938e-01
-6.29321250e-07,1.84112500e-01
-6.29281250e-07,1.84087500e-01
-6.29241250e-07,1.84112500e-01
-6.29201250e-07,1.84089063e-01
-6.29161250e-07,1.84110938e-01
-6.29121250e-07,1.84089063e-01
-6.29081250e-07,1.84110938e-01
-6.29041250e-07,1.84089063e-01
-6.29001250e-07,1.84110938e-01
-6.28961250e-07,1.84089063e-01
-6.28921250e-07,1.84110938e-01
-6.28881250e-07,1.84089063e-01
-6.28841250e-07,1.84110938e-01
-6.28801250e-07,1.84087500e-01
-6.28761250e-07,1.84112500e-01
-6.28721250e-07,1.84085938e-01
-6.28681250e-07,1.84114063e-01
-6.28641250e-07,1.84084375e-01
-6.28601250e-07,1.84117188e-01
-6.28561250e-07,1.84081250e-01
-6.28521250e-07,1.84121875e-01
-6.28481250e-07,1.84071875e-01
-6.28441250e-07,1.84137500e-01
-6.28401250e-07,1.84037500e-01
-6.28361250e-07,1.84315625e-01
-6.28321250e-07,1.84546875e-01
-6.28281250e-07,1.84478125e-01
-6.28241250e-07,1.84512500e-01
-6.28201250e-07,1.84493750e-01
-6.28161250e-07,1.84503125e-01
-6.28121250e-07,1.84500000e-01
-6.28081250e-07,1.84496875e-01
-6.28041250e-07,1.84506250e-01
-6.28001250e-07,1.84490625e-01
-6.27961250e-07,1.84512500e-01
-6.27921250e-07,1.84481250e-01
-6.27881250e-07,1.84528125e-01
-6.27841250e-07,1.84445313e-01
-6.27801250e-07,1.84707813e-01
-6.27761250e-07,1.84953125e-01
-6.27721250e-07,1.84870312e-01
-6.27681250e-07,1.84918750e-01
-6.27641250e-07,1.84887500e-01
-6.27601250e-07,1.84909375e-01
-6.27561250e-07,1.84895313e-01
-6.27521250e-07,1.84901563e-01
-6.27481250e-07,1.84903125e-01
-6.27441250e-07,1.84892187e-01
-6.27401250e-07,1.84918750e-01
-6.27361250e-07,1.84856250e-01
-6.27321250e-07,1.85096875e-01
-6.27281250e-07,1.85364063e-01
-6.27241250e-07,1.85259375e-01
-6.27201250e-07,1.85331250e-01
-6.27161250e-07,1.85273437e-01
-6.27121250e-07,1.85323438e-01
-6.27081250e-07,1.85278125e-01
-6.27041250e-07,1.85320313e-01
-6.27001250e-07,1.85281250e-01
-6.26961250e-07,1.85318750e-01
-6.26921250e-07,1.85281250e-01
-6.26881250e-07,1.85318750e-01
-6.26841250e-07,1.85281250e-01
-6.26801250e-07,1.85318750e-01
-6.26761250e-07,1.85281250e-01
-6.26721250e-07,1.85320313e-01
-6.26681250e-07,1.85278125e-01
-6.26641250e-07,1.85323438e-01
-6.26601250e-07,1.85273437e-01
-6.26561250e-07,1.85332812e-01
-6.26521250e-07,1.85257813e-01
-6.26481250e-07,1.85367188e-01
-6.26441250e-07,1.85079688e-01
-6.26401250e-07,1.84859375e-01
-6.26361250e-07,1.84915625e-01
-6.26321250e-07,1.84893750e-01
-6.26281250e-07,1.84898438e-01
-6.26241250e-07,1.84906250e-01
-6.26201250e-07,1.84889063e-01
-6.26161250e-07,1.84918750e-01
-6.26121250e-07,1.84870312e-01
-6.26081250e-07,1.84954687e-01
-6.26041250e-07,1.84690625e-01
-6.26001250e-07,1.84448438e-01
-6.25961250e-07,1.84526563e-01
-6.25921250e-07,1.84484375e-01
-6.25881250e-07,1.84509375e-01
-6.25841250e-07,1.84495313e-01
-6.25801250e-07,1.84498438e-01
-6.25761250e-07,1.84507813e-01
-6.25721250e-07,1.84481250e-01
-6.25681250e-07,1.84543750e-01
-6.25641250e-07,1.84301563e-01
-6.25601250e-07,1.84035937e-01
-6.25561250e-07,1.84139063e-01
-6.25521250e-07,1.84070312e-01
-6.25481250e-07,1.84125000e-01
-6.25441250e-07,1.84079688e-01
-6.25401250e-07,1.84118750e-01
-6.25361250e-07,1.84082812e-01
-6.25321250e-07,1.84115625e-01
-6.25281250e-07,1.84084375e-01
-6.25241250e-07,1.84114063e-01
-6.25201250e-07,1.84085938e-01
-6.25161250e-07,1.84114063e-01
-6.25121250e-07,1.84087500e-01
-6.25081250e-07,1.84112500e-01
-6.25041250e-07,1.84087500e-01
-6.25001250e-07,1.84112500e-01
-6.24961250e-07,1.84087500e-01
-6.24921250e-07,1.84114063e-01
-6.24881250e-07,1.84085938e-01
-6.24841250e-07,1.84114063e-01
-6.24801250e-07,1.84085938e-01
-6.24761250e-07,1.84115625e-01
-6.24721250e-07,1.84082812e-01
-6.24681250e-07,1.84118750e-01
-6.24641250e-07,1.84079688e-01
-6.24601250e-07,1.84123438e-01
-6.24561250e-07,1.84071875e-01
-6.24521250e-07,1.84137500e-01
-6.24481250e-07,1.84037500e-01
-6.24441250e-07,1.84317188e-01
-6.24401250e-07,1.84545313e-01
-6.24361250e-07,1.84478125e-01
-6.24321250e-07,1.84510937e-01
-6.24281250e-07,1.84493750e-01
-6.24241250e-07,1.84503125e-01
-6.24201250e-07,1.84500000e-01
-6.24161250e-07,1.84496875e-01
-6.24121250e-07,1.84504688e-01
-6.24081250e-07,1.84492188e-01
-6.24041250e-07,1.84512500e-01
-6.24001250e-07,1.84482813e-01
-6.23961250e-07,1.84528125e-01
-6.23921250e-07,1.84446875e-01
-6.23881250e-07,1.84706250e-01
-6.23841250e-07,1.84956250e-01
-6.23801250e-07,1.84868750e-01
-6.23761250e-07,1.84921875e-01
-6.23721250e-07,1.84882812e-01
-6.23681250e-07,1.84914063e-01
-6.23641250e-07,1.84889063e-01
-6.23601250e-07,1.84909375e-01
-6.23561250e-07,1.84890625e-01
-6.23521250e-07,1.84907813e-01
-6.23481250e-07,1.84893750e-01
-6.23441250e-07,1.84906250e-01
-6.23401250e-07,1.84893750e-01
-6.23361250e-07,1.84904687e-01
-6.23321250e-07,1.84895313e-01
-6.23281250e-07,1.84904687e-01
-6.23241250e-07,1.84895313e-01
-6.23201250e-07,1.84903125e-01
-6.23161250e-07,1.84896875e-01
-6.23121250e-07,1.84903125e-01
-6.23081250e-07,1.84896875e-01
-6.23041250e-07,1.84903125e-01
-6.23001250e-07,1.84896875e-01
-6.22961250e-07,1.84903125e-01
-6.22921250e-07,1.84896875e-01
-6.22881250e-07,1.84901563e-01
-6.22841250e-07,1.84898438e-01
-6.22801250e-07,1.84901563e-01
-6.22761250e-07,1.84898438e-01
-6.22721250e-07,1.84901563e-01
-6.22681250e-07,1.84898438e-01
-6.22641250e-07,1.84901563e-01
-6.22601250e-07,1.84898438e-01
-6.22561250e-07,1.84901563e-01
-6.22521250e-07,1.84898438e-01
-6.22481250e-07,1.84901563e-01
-6.22441250e-07,1.84898438e-01
-6.22401250e-07,1.84901563e-01
-6.22361250e-07,1.84898438e-01
-6.22321250e-07,1.84901563e-01
-6.22281250e-07,1.84898438e-01
-6.22241250e-07,1.84901563e-01
-6.22201250e-07,1.84900000e-01
-6.22161250e-07,1.84900000e-01
-6.22121250e-07,1.84900000e-01
-6.22081250e-07,1.84900000e-01
-6.22041250e-07,1.84900000e-01
-6.22001250e-07,1.84900000e-01
-6.21961250e-07,1.84900000e-01
-6.21921250e-07,1.84900000e-01
-6.21881250e-07,1.84900000e-01
-6.21841250e-07,1.84900000e-01
-6.21801250e-07,1.84900000e-01
-6.21761250e-07,1.84900000e-01
-6.21721250e-07,1.84900000e-01
-6.21681250e-07,1.84900000e-01
-6.21641250e-07,1.84900000e-01
-6.21601250e-07,1.84900000e-01
-6.21561250e-07,1.84900000e-01
-6.21521250e-07,1.84900000e-01
-6.21481250e-07,1.84900000e-01
-6.21441250e-07,1.84900000e-01
-6.21401250e-07,1.84900000e-01
-6.21361250e-07,1.84900000e-01
-6.21321250e-07,1.84901563e-01
-6.21281250e-07,1.84898438e-01
-6.21241250e-07,1.84901563e-01
-6.21201250e-07,1.84898438e-01
-6.21161250e-07,1.84901563e-01
-6.21121250e-07,1.84898438e-01
-6.21081250e-07,1.84901563e-01
-6.21041250e-07,1.84898438e-01
-6.21001250e-07,1.84901563e-01
-6.20961250e-07,1.84898438e-01
-6.20921250e-07,1.84901563e-01
-6.20881250e-07,1.84898438e-01
-6.20841250e-07,1.84903125e-01
-6.20801250e-07,1.84896875e-01
-6.20761250e-07,1.84903125e-01
-6.20721250e-07,1.84896875e-01
-6.20681250e-07,1.84903125e-01
-6.20641250e-07,1.84896875e-01
-6.20601250e-07,1.84904687e-01
-6.20561250e-07,1.84895313e-01
-6.20521250e-07,1.84904687e-01
-6.20481250e-07,1.84895313e-01
-6.20441250e-07,1.84906250e-01
-6.20401250e-07,1.84893750e-01
-6.20361250e-07,1.84907813e-01
-6.20321250e-07,1.84892187e-01
-6.20281250e-07,1.84909375e-01
-6.20241250e-07,1.84889063e-01
-6.20201250e-07,1.84914063e-01
-6.20161250e-07,1.84882812e-01
-6.20121250e-07,1.84921875e-01
-6.20081250e-07,1.84868750e-01
-6.20041250e-07,1.84957813e-01
-6.20001250e-07,1.84689063e-01
-6.19961250e-07,1.84448438e-01
-6.19921250e-07,1.84526563e-01
-6.19881250e-07,1.84482813e-01
-6.19841250e-07,1.84510937e-01
-6.19801250e-07,1.84492188e-01
-6.19761250e-07,1.84503125e-01
-6.19721250e-07,1.84500000e-01
-6.19681250e-07,1.84496875e-01
-6.19641250e-07,1.84509375e-01
-6.19601250e-07,1.84481250e-01
-6.19561250e-07,1.84545313e-01
-6.19521250e-07,1.84301563e-01
-6.19481250e-07,1.84035937e-01
-6.19441250e-07,1.84140625e-01
-6.19401250e-07,1.84068750e-01
-6.19361250e-07,1.84128125e-01
-6.19321250e-07,1.84075000e-01
-6.19281250e-07,1.84125000e-01
-6.19241250e-07,1.84073437e-01
-6.19201250e-07,1.84129687e-01
-6.19161250e-07,1.84062500e-01
-6.19121250e-07,1.84162500e-01
-6.19081250e-07,1.83885938e-01
-6.19041250e-07,1.83650000e-01
-6.19001250e-07,1.83726562e-01
-6.18961250e-07,1.83681250e-01
-6.18921250e-07,1.83715625e-01
-6.18881250e-07,1.83685938e-01
-6.18841250e-07,1.83714062e-01
-6.18801250e-07,1.83684375e-01
-6.18761250e-07,1.83720313e-01
-6.18721250e-07,1.83670313e-01
-6.18681250e-07,1.83753125e-01
-6.18641250e-07,1.83493750e-01
-6.18601250e-07,1.83243750e-01
-6.18561250e-07,1.83332812e-01
-6.18521250e-07,1.83276563e-01
-6.18481250e-07,1.83318750e-01
-6.18441250e-07,1.83284375e-01
-6.18401250e-07,1.83314063e-01
-6.18361250e-07,1.83287500e-01
-6.18321250e-07,1.83310937e-01
-6.18281250e-07,1.83289063e-01
-6.18241250e-07,1.83309375e-01
-6.18201250e-07,1.83290625e-01
-6.18161250e-07,1.83309375e-01
-6.18121250e-07,1.83290625e-01
-6.18081250e-07,1.83307813e-01
-6.18041250e-07,1.83292188e-01
-6.18001250e-07,1.83307813e-01
-6.17961250e-07,1.83292188e-01
-6.17921250e-07,1.83307813e-01
-6.17881250e-07,1.83292188e-01
-6.17841250e-07,1.83306250e-01
-6.17801250e-07,1.83293750e-01
-6.17761250e-07,1.83306250e-01
-6.17721250e-07,1.83293750e-01
-6.17681250e-07,1.83306250e-01
-6.17641250e-07,1.83293750e-01
-6.17601250e-07,1.83306250e-01
-6.17561250e-07,1.83295313e-01
-6.17521250e-07,1.83304688e-01
-6.17481250e-07,1.83295313e-01
-6.17441250e-07,1.83303125e-01
-6.17401250e-07,1.83298437e-01
-6.17361250e-07,1.83300000e-01
-6.17321250e-07,1.83301563e-01
-6.17281250e-07,1.83293750e-01
-6.17241250e-07,1.83315625e-01
-6.17201250e-07,1.83260937e-01
-6.17161250e-07,1.83492188e-01
-6.17121250e-07,1.83771875e-01
-6.17081250e-07,1.83650000e-01
-6.17041250e-07,1.83742188e-01
-6.17001250e-07,1.83660938e-01
-6.16961250e-07,1.83740625e-01
-6.16921250e-07,1.83656250e-01
-6.16881250e-07,1.83753125e-01
-6.16841250e-07,1.83623438e-01
-6.16801250e-07,1.83929687e-01
-6.16761250e-07,1.84131250e-01
-6.16721250e-07,1.84093750e-01
-6.16681250e-07,1.84095312e-01
-6.16641250e-07,1.84112500e-01
-6.16601250e-07,1.84079688e-01
-6.16561250e-07,1.84132813e-01
-6.16521250e-07,1.84040625e-01
-6.16481250e-07,1.84314063e-01
-6.16441250e-07,1.84546875e-01
-6.16401250e-07,1.84478125e-01
-6.16361250e-07,1.84510937e-01
-6.16321250e-07,1.84495313e-01
-6.16281250e-07,1.84498438e-01
-6.16241250e-07,1.84506250e-01
-6.16201250e-07,1.84485938e-01
-6.16161250e-07,1.84525000e-01
-6.16121250e-07,1.84450000e-01
-6.16081250e-07,1.84704688e-01
-6.16041250e-07,1.84957813e-01
-6.16001250e-07,1.84867188e-01
-6.15961250e-07,1.84923438e-01
-6.15921250e-07,1.84882812e-01
-6.15881250e-07,1.84914063e-01
-6.15841250e-07,1.84887500e-01
-6.15801250e-07,1.84909375e-01
-6.15761250e-07,1.84892187e-01
-6.15721250e-07,1.84907813e-01
-6.15681250e-07,1.84893750e-01
-6.15641250e-07,1.84906250e-01
-6.15601250e-07,1.84895313e-01
-6.15561250e-07,1.84904687e-01
-6.15521250e-07,1.84895313e-01
-6.15481250e-07,1.84903125e-01
-6.15441250e-07,1.84896875e-01
-6.15401250e-07,1.84903125e-01
-6.15361250e-07,1.84898438e-01
-6.15321250e-07,1.84901563e-01
-6.15281250e-07,1.84898438e-01
-6.15241250e-07,1.84901563e-01
-6.15201250e-07,1.84898438e-01
-6.15161250e-07,1.84900000e-01
-6.15121250e-07,1.84900000e-01
-6.15081250e-07,1.84900000e-01
-6.15041250e-07,1.84900000e-01
-6.15001250e-07,1.84900000e-01
-6.14961250e-07,1.84901563e-01
-6.14921250e-07,1.84898438e-01
-6.14881250e-07,1.84901563e-01
-6.14841250e-07,1.84898438e-01
-6.14801250e-07,1.84901563e-01
-6.14761250e-07,1.84896875e-01
-6.14721250e-07,1.84903125e-01
-6.14681250e-07,1.84896875e-01
-6.14641250e-07,1.84904687e-01
-6.14601250e-07,1.84895313e-01
-6.14561250e-07,1.84906250e-01
-6.14521250e-07,1.84893750e-01
