dpa/aes_ch1_20250506141329717.csv

Model,MSO66B
Label,
Waveform Type,ANALOG
Horizontal Units,s
Sample Interval,4.00000000e-11
Record Length,100000
Zero Index,15999.01562500
Vertical Units,A
ANALOG_Thumbnail,
yOffset,1.84500000e-01
yPosition,8.40000000e-01

Labels,
TIME,CH1
-6.39960625e-07,1.92304688e-01
-6.39920625e-07,1.92557813e-01
-6.39880625e-07,1.92465625e-01
-6.39840625e-07,1.92526562e-01
-6.39800625e-07,1.92478125e-01
-6.39760625e-07,1.92520313e-01
-6.39720625e-07,1.92479687e-01
-6.39680625e-07,1.92520313e-01
-6.39640625e-07,1.92478125e-01
-6.39600625e-07,1.92525000e-01
-6.39560625e-07,1.92470313e-01
-6.39520625e-07,1.92539062e-01
-6.39480625e-07,1.92435938e-01
-6.39440625e-07,1.92717187e-01
-6.39400625e-07,1.92943750e-01
-6.39360625e-07,1.92881250e-01
-6.39320625e-07,1.92907812e-01
-6.39280625e-07,1.92900000e-01
-6.39240625e-07,1.92892188e-01
-6.39200625e-07,1.92918750e-01
-6.39160625e-07,1.92854688e-01
-6.39120625e-07,1.93098437e-01
-6.39080625e-07,1.93364063e-01
-6.39040625e-07,1.93260938e-01
-6.39000625e-07,1.93331250e-01
-6.38960625e-07,1.93271875e-01
-6.38920625e-07,1.93326563e-01
-6.38880625e-07,1.93271875e-01
-6.38840625e-07,1.93335937e-01
-6.38800625e-07,1.93240625e-01
-6.38760625e-07,1.93510938e-01
-6.38720625e-07,1.93753125e-01
-6.38680625e-07,1.93668750e-01
-6.38640625e-07,1.93725000e-01
-6.38600625e-07,1.93676563e-01
-6.38560625e-07,1.93723438e-01
-6.38520625e-07,1.93673438e-01
-6.38480625e-07,1.93735938e-01
-6.38440625e-07,1.93640625e-01
-6.38400625e-07,1.93912500e-01
-6.38360625e-07,1.94150000e-01
-6.38320625e-07,1.94075000e-01
-6.38280625e-07,1.94115625e-01
-6.38240625e-07,1.94089063e-01
-6.38200625e-07,1.94107813e-01
-6.38160625e-07,1.94095313e-01
-6.38120625e-07,1.94101563e-01
-6.38080625e-07,1.94100000e-01
-6.38040625e-07,1.94096875e-01
-6.38000625e-07,1.94107813e-01
-6.37960625e-07,1.94087500e-01
-6.37920625e-07,1.94123437e-01
-6.37880625e-07,1.94051562e-01
-6.37840625e-07,1.94301562e-01
-6.37800625e-07,1.94560938e-01
-6.37760625e-07,1.94464063e-01
-6.37720625e-07,1.94526562e-01
-6.37680625e-07,1.94478125e-01
-6.37640625e-07,1.94518750e-01
-6.37600625e-07,1.94484375e-01
-6.37560625e-07,1.94514063e-01
-6.37520625e-07,1.94485938e-01
-6.37480625e-07,1.94512500e-01
-6.37440625e-07,1.94487500e-01
-6.37400625e-07,1.94510938e-01
-6.37360625e-07,1.94489063e-01
-6.37320625e-07,1.94509375e-01
-6.37280625e-07,1.94490625e-01
-6.37240625e-07,1.94509375e-01
-6.37200625e-07,1.94490625e-01
-6.37160625e-07,1.94509375e-01
-6.37120625e-07,1.94490625e-01
-6.37080625e-07,1.94509375e-01
-6.37040625e-07,1.94492187e-01
-6.37000625e-07,1.94507813e-01
-6.36960625e-07,1.94492187e-01
-6.36920625e-07,1.94507813e-01
-6.36880625e-07,1.94492187e-01
-6.36840625e-07,1.94507813e-01
-6.36800625e-07,1.94490625e-01
-6.36760625e-07,1.94509375e-01
-6.36720625e-07,1.94490625e-01
-6.36680625e-07,1.94509375e-01
-6.36640625e-07,1.94490625e-01
-6.36600625e-07,1.94509375e-01
-6.36560625e-07,1.94489063e-01
-6.36520625e-07,1.94510938e-01
-6.36480625e-07,1.94487500e-01
-6.36440625e-07,1.94514063e-01
-6.36400625e-07,1.94484375e-01
-6.36360625e-07,1.94518750e-01
-6.36320625e-07,1.94476563e-01
-6.36280625e-07,1.94532813e-01
-6.36240625e-07,1.94442188e-01
-6.36200625e-07,1.94710938e-01
-6.36160625e-07,1.94951563e-01
-6.36120625e-07,1.94871875e-01
-6.36080625e-07,1.94918750e-01
-6.36040625e-07,1.94885937e-01
-6.36000625e-07,1.94910937e-01
-6.35960625e-07,1.94890625e-01
-6.35920625e-07,1.94907812e-01
-6.35880625e-07,1.94893750e-01
-6.35840625e-07,1.94906250e-01
-6.35800625e-07,1.94895313e-01
-6.35760625e-07,1.94904688e-01
-6.35720625e-07,1.94895313e-01
-6.35680625e-07,1.94904688e-01
-6.35640625e-07,1.94896875e-01
-6.35600625e-07,1.94903125e-01
-6.35560625e-07,1.94896875e-01
-6.35520625e-07,1.94903125e-01
-6.35480625e-07,1.94896875e-01
-6.35440625e-07,1.94903125e-01
-6.35400625e-07,1.94896875e-01
-6.35360625e-07,1.94903125e-01
-6.35320625e-07,1.94896875e-01
-6.35280625e-07,1.94903125e-01
-6.35240625e-07,1.94895313e-01
-6.35200625e-07,1.94904688e-01
-6.35160625e-07,1.94895313e-01
-6.35120625e-07,1.94904688e-01
-6.35080625e-07,1.94895313e-01
-6.35040625e-07,1.94906250e-01
-6.35000625e-07,1.94893750e-01
-6.34960625e-07,1.94907812e-01
-6.34920625e-07,1.94890625e-01
-6.34880625e-07,1.94910937e-01
-6.34840625e-07,1.94885937e-01
-6.34800625e-07,1.94918750e-01
-6.34760625e-07,1.94871875e-01
-6.34720625e-07,1.94953125e-01
-6.34680625e-07,1.94695312e-01
-6.34640625e-07,1.94442188e-01
-6.34600625e-07,1.94534375e-01
-6.34560625e-07,1.94473438e-01
-6.34520625e-07,1.94523438e-01
-6.34480625e-07,1.94476563e-01
-6.34440625e-07,1.94525000e-01
-6.34400625e-07,1.94467187e-01
-6.34360625e-07,1.94556250e-01
-6.34320625e-07,1.94292188e-01
-6.34280625e-07,1.94043750e-01
-6.34240625e-07,1.94134375e-01
-6.34200625e-07,1.94073438e-01
-6.34160625e-07,1.94125000e-01
-6.34120625e-07,1.94075000e-01
-6.34080625e-07,1.94129688e-01
-6.34040625e-07,1.94062500e-01
-6.34000625e-07,1.94162500e-01
-6.33960625e-07,1.93884375e-01
-6.33920625e-07,1.93653125e-01
-6.33880625e-07,1.93721875e-01
-6.33840625e-07,1.93687500e-01
-6.33800625e-07,1.93706250e-01
-6.33760625e-07,1.93698438e-01
-6.33720625e-07,1.93696875e-01
-6.33680625e-07,1.93709375e-01
-6.33640625e-07,1.93679688e-01
-6.33600625e-07,1.93746875e-01
-6.33560625e-07,1.93500000e-01
-6.33520625e-07,1.93237500e-01
-6.33480625e-07,1.93337500e-01
-6.33440625e-07,1.93271875e-01
-6.33400625e-07,1.93323438e-01
-6.33360625e-07,1.93281250e-01
-6.33320625e-07,1.93317188e-01
-6.33280625e-07,1.93284375e-01
-6.33240625e-07,1.93314062e-01
-6.33200625e-07,1.93285938e-01
-6.33160625e-07,1.93312500e-01
-6.33120625e-07,1.93287500e-01
-6.33080625e-07,1.93312500e-01
-6.33040625e-07,1.93289062e-01
-6.33000625e-07,1.93310938e-01
-6.32960625e-07,1.93289062e-01
-6.32920625e-07,1.93310938e-01
-6.32880625e-07,1.93289062e-01
-6.32840625e-07,1.93310938e-01
-6.32800625e-07,1.93289062e-01
-6.32760625e-07,1.93310938e-01
-6.32720625e-07,1.93289062e-01
-6.32680625e-07,1.93310938e-01
-6.32640625e-07,1.93289062e-01
-6.32600625e-07,1.93312500e-01
-6.32560625e-07,1.93287500e-01
-6.32520625e-07,1.93312500e-01
-6.32480625e-07,1.93285938e-01
-6.32440625e-07,1.93315625e-01
-6.32400625e-07,1.93282813e-01
-6.32360625e-07,1.93320313e-01
-6.32320625e-07,1.93275000e-01
-6.32280625e-07,1.93334375e-01
-6.32240625e-07,1.93240625e-01
-6.32200625e-07,1.93512500e-01
-6.32160625e-07,1.93750000e-01
-6.32120625e-07,1.93675000e-01
-6.32080625e-07,1.93715625e-01
-6.32040625e-07,1.93689063e-01
-6.32000625e-07,1.93707813e-01
-6.31960625e-07,1.93693750e-01
-6.31920625e-07,1.93704688e-01
-6.31880625e-07,1.93695312e-01
-6.31840625e-07,1.93703125e-01
-6.31800625e-07,1.93696875e-01
-6.31760625e-07,1.93701563e-01
-6.31720625e-07,1.93698438e-01
-6.31680625e-07,1.93701563e-01
-6.31640625e-07,1.93698438e-01
-6.31600625e-07,1.93701563e-01
-6.31560625e-07,1.93700000e-01
-6.31520625e-07,1.93700000e-01
-6.31480625e-07,1.93700000e-01
-6.31440625e-07,1.93700000e-01
-6.31400625e-07,1.93700000e-01
-6.31360625e-07,1.93700000e-01
-6.31320625e-07,1.93700000e-01
-6.31280625e-07,1.93701563e-01
-6.31240625e-07,1.93698438e-01
-6.31200625e-07,1.93701563e-01
-6.31160625e-07,1.93698438e-01
-6.31120625e-07,1.93703125e-01
-6.31080625e-07,1.93696875e-01
-6.31040625e-07,1.93704688e-01
-6.31000625e-07,1.93692188e-01
-6.30960625e-07,1.93712500e-01
-6.30920625e-07,1.93678125e-01
-6.30880625e-07,1.93745313e-01
-6.30840625e-07,1.93501563e-01
-6.30800625e-07,1.93234375e-01
-6.30760625e-07,1.93343750e-01
-6.30720625e-07,1.93264063e-01
-6.30680625e-07,1.93332813e-01
-6.30640625e-07,1.93267187e-01
-6.30600625e-07,1.93337500e-01
-6.30560625e-07,1.93254688e-01
-6.30520625e-07,1.93370313e-01
-6.30480625e-07,1.93076562e-01
-6.30440625e-07,1.92860937e-01
-6.30400625e-07,1.92914063e-01
-6.30360625e-07,1.92896875e-01
-6.30320625e-07,1.92895312e-01
-6.30280625e-07,1.92912500e-01
-6.30240625e-07,1.92876563e-01
-6.30200625e-07,1.92950000e-01
-6.30160625e-07,1.92695312e-01
-6.30120625e-07,1.92442188e-01
-6.30080625e-07,1.92532813e-01
-6.30040625e-07,1.92476563e-01
-6.30000625e-07,1.92518750e-01
-6.29960625e-07,1.92484375e-01
-6.29920625e-07,1.92512500e-01
-6.29880625e-07,1.92489063e-01
-6.29840625e-07,1.92510938e-01
-6.29800625e-07,1.92490625e-01
-6.29760625e-07,1.92509375e-01
-6.29720625e-07,1.92492188e-01
-6.29680625e-07,1.92507813e-01
-6.29640625e-07,1.92492188e-01
-6.29600625e-07,1.92507813e-01
-6.29560625e-07,1.92492188e-01
-6.29520625e-07,1.92507813e-01
-6.29480625e-07,1.92492188e-01
-6.29440625e-07,1.92507813e-01
-6.29400625e-07,1.92490625e-01
-6.29360625e-07,1.92509375e-01
-6.29320625e-07,1.92489063e-01
-6.29280625e-07,1.92514062e-01
-6.29240625e-07,1.92481250e-01
-6.29200625e-07,1.92528125e-01
-6.29160625e-07,1.92448438e-01
-6.29120625e-07,1.92704687e-01
-6.29080625e-07,1.92959375e-01
-6.29040625e-07,1.92864063e-01
-6.29000625e-07,1.92928125e-01
-6.28960625e-07,1.92875000e-01
-6.28920625e-07,1.92925000e-01
-6.28880625e-07,1.92871875e-01
-6.28840625e-07,1.92935938e-01
-6.28800625e-07,1.92839063e-01
-6.28760625e-07,1.93112500e-01
-6.28720625e-07,1.93350000e-01
-6.28680625e-07,1.93271875e-01
-6.28640625e-07,1.93318750e-01
-6.28600625e-07,1.93285938e-01
-6.28560625e-07,1.93312500e-01
-6.28520625e-07,1.93289062e-01
-6.28480625e-07,1.93309375e-01
-6.28440625e-07,1.93290625e-01
-6.28400625e-07,1.93309375e-01
-6.28360625e-07,1.93289062e-01
-6.28320625e-07,1.93312500e-01
-6.28280625e-07,1.93284375e-01
-6.28240625e-07,1.93325000e-01
-6.28200625e-07,1.93253125e-01
-6.28160625e-07,1.93496875e-01
-6.28120625e-07,1.93770313e-01
-6.28080625e-07,1.93643750e-01
-6.28040625e-07,1.93771875e-01
-6.28000625e-07,1.93479687e-01
-6.27960625e-07,1.93254688e-01
-6.27920625e-07,1.93323438e-01
-6.27880625e-07,1.93284375e-01
-6.27840625e-07,1.93312500e-01
-6.27800625e-07,1.93289062e-01
-6.27760625e-07,1.93309375e-01
-6.27720625e-07,1.93290625e-01
-6.27680625e-07,1.93309375e-01
-6.27640625e-07,1.93289062e-01
-6.27600625e-07,1.93312500e-01
-6.27560625e-07,1.93285938e-01
-6.27520625e-07,1.93318750e-01
-6.27480625e-07,1.93271875e-01
-6.27440625e-07,1.93353125e-01
-6.27400625e-07,1.93095313e-01
-6.27360625e-07,1.92842188e-01
-6.27320625e-07,1.92935938e-01
-6.27280625e-07,1.92871875e-01
-6.27240625e-07,1.92925000e-01
-6.27200625e-07,1.92875000e-01
-6.27160625e-07,1.92928125e-01
-6.27120625e-07,1.92864063e-01
-6.27080625e-07,1.92959375e-01
-6.27040625e-07,1.92689063e-01
-6.27000625e-07,1.92448438e-01
-6.26960625e-07,1.92529688e-01
-6.26920625e-07,1.92479687e-01
-6.26880625e-07,1.92515625e-01
-6.26840625e-07,1.92485938e-01
-6.26800625e-07,1.92512500e-01
-6.26760625e-07,1.92487500e-01
-6.26720625e-07,1.92512500e-01
-6.26680625e-07,1.92485938e-01
-6.26640625e-07,1.92515625e-01
-6.26600625e-07,1.92482813e-01
-6.26560625e-07,1.92521875e-01
-6.26520625e-07,1.92468750e-01
-6.26480625e-07,1.92556250e-01
-6.26440625e-07,1.92290625e-01
-6.26400625e-07,1.92046875e-01
-6.26360625e-07,1.92129688e-01
-6.26320625e-07,1.92079688e-01
-6.26280625e-07,1.92115625e-01
-6.26240625e-07,1.92087500e-01
-6.26200625e-07,1.92110937e-01
-6.26160625e-07,1.92090625e-01
-6.26120625e-07,1.92107813e-01
-6.26080625e-07,1.92092188e-01
-6.26040625e-07,1.92106250e-01
-6.26000625e-07,1.92093750e-01
-6.25960625e-07,1.92106250e-01
-6.25920625e-07,1.92095313e-01
-6.25880625e-07,1.92104688e-01
-6.25840625e-07,1.92095313e-01
-6.25800625e-07,1.92104688e-01
-6.25760625e-07,1.92095313e-01
-6.25720625e-07,1.92104688e-01
-6.25680625e-07,1.92095313e-01
-6.25640625e-07,1.92104688e-01
-6.25600625e-07,1.92095313e-01
-6.25560625e-07,1.92104688e-01
-6.25520625e-07,1.92096875e-01
-6.25480625e-07,1.92104688e-01
-6.25440625e-07,1.92096875e-01
-6.25400625e-07,1.92103125e-01
-6.25360625e-07,1.92096875e-01
-6.25320625e-07,1.92103125e-01
-6.25280625e-07,1.92096875e-01
-6.25240625e-07,1.92103125e-01
-6.25200625e-07,1.92096875e-01
-6.25160625e-07,1.92103125e-01
-6.25120625e-07,1.92096875e-01
-6.25080625e-07,1.92103125e-01
-6.25040625e-07,1.92096875e-01
-6.25000625e-07,1.92103125e-01
-6.24960625e-07,1.92095313e-01
-6.24920625e-07,1.92104688e-01
-6.24880625e-07,1.92095313e-01
-6.24840625e-07,1.92104688e-01
-6.24800625e-07,1.92095313e-01
-6.24760625e-07,1.92104688e-01
-6.24720625e-07,1.92095313e-01
-6.24680625e-07,1.92104688e-01
-6.24640625e-07,1.92095313e-01
-6.24600625e-07,1.92104688e-01
-6.24560625e-07,1.92095313e-01
-6.24520625e-07,1.92104688e-01
-6.24480625e-07,1.92093750e-01
-6.24440625e-07,1.92106250e-01
-6.24400625e-07,1.92093750e-01
-6.24360625e-07,1.92106250e-01
-6.24320625e-07,1.92092188e-01
-6.24280625e-07,1.92107813e-01
-6.24240625e-07,1.92092188e-01
-6.24200625e-07,1.92109375e-01
-6.24160625e-07,1.92089063e-01
-6.24120625e-07,1.92112500e-01
-6.24080625e-07,1.92085937e-01
-6.24040625e-07,1.92117188e-01
-6.24000625e-07,1.92078125e-01
-6.23960625e-07,1.92131250e-01
-6.23920625e-07,1.92042188e-01
-6.23880625e-07,1.92310938e-01
-6.23840625e-07,1.92551562e-01
-6.23800625e-07,1.92471875e-01
-6.23760625e-07,1.92518750e-01
-6.23720625e-07,1.92487500e-01
-6.23680625e-07,1.92509375e-01
-6.23640625e-07,1.92492188e-01
-6.23600625e-07,1.92504687e-01
-6.23560625e-07,1.92496875e-01
-6.23520625e-07,1.92501563e-01
-6.23480625e-07,1.92500000e-01
-6.23440625e-07,1.92496875e-01
-6.23400625e-07,1.92506250e-01
-6.23360625e-07,1.92489063e-01
-6.23320625e-07,1.92520313e-01
-6.23280625e-07,1.92454687e-01
-6.23240625e-07,1.92698438e-01
-6.23200625e-07,1.92964063e-01
-6.23160625e-07,1.92859375e-01
-6.23120625e-07,1.92932812e-01
-6.23080625e-07,1.92871875e-01
-6.23040625e-07,1.92926563e-01
-6.23000625e-07,1.92873438e-01
-6.22960625e-07,1.92926563e-01
-6.22920625e-07,1.92870313e-01
-6.22880625e-07,1.92932812e-01
-6.22840625e-07,1.92857813e-01
-6.22800625e-07,1.92967187e-01
-6.22760625e-07,1.92679688e-01
-6.22720625e-07,1.92457812e-01
-6.22680625e-07,1.92517188e-01
-6.22640625e-07,1.92492188e-01
-6.22600625e-07,1.92503125e-01
-6.22560625e-07,1.92501563e-01
-6.22520625e-07,1.92495313e-01
-6.22480625e-07,1.92507813e-01
-6.22440625e-07,1.92487500e-01
-6.22400625e-07,1.92518750e-01
-6.22360625e-07,1.92470313e-01
-6.22320625e-07,1.92554688e-01
-6.22280625e-07,1.92290625e-01
-6.22240625e-07,1.92046875e-01
-6.22200625e-07,1.92128125e-01
-6.22160625e-07,1.92082813e-01
-6.22120625e-07,1.92110937e-01
-6.22080625e-07,1.92093750e-01
-6.22040625e-07,1.92100000e-01
-6.22000625e-07,1.92106250e-01
-6.21960625e-07,1.92084375e-01
-6.21920625e-07,1.92142188e-01
-6.21880625e-07,1.91904688e-01
-6.21840625e-07,1.91632812e-01
-6.21800625e-07,1.91742187e-01
-6.21760625e-07,1.91667188e-01
-6.21720625e-07,1.91728125e-01
-6.21680625e-07,1.91675000e-01
-6.21640625e-07,1.91723438e-01
-6.21600625e-07,1.91678125e-01
-6.21560625e-07,1.91721875e-01
-6.21520625e-07,1.91678125e-01
-6.21480625e-07,1.91721875e-01
-6.21440625e-07,1.91676563e-01
-6.21400625e-07,1.91725000e-01
-6.21360625e-07,1.91671875e-01
-6.21320625e-07,1.91732813e-01
-6.21280625e-07,1.91657812e-01
-6.21240625e-07,1.91767188e-01
-6.21200625e-07,1.91478125e-01
-6.21160625e-07,1.91259375e-01
-6.21120625e-07,1.91315625e-01
-6.21080625e-07,1.91293750e-01
-6.21040625e-07,1.91298438e-01
-6.21000625e-07,1.91306250e-01
-6.20960625e-07,1.91285938e-01
-6.20920625e-07,1.91325000e-01
-6.20880625e-07,1.91250000e-01
-6.20840625e-07,1.91503125e-01
-6.20800625e-07,1.91757813e-01
-6.20760625e-07,1.91665625e-01
-6.20720625e-07,1.91725000e-01
-6.20680625e-07,1.91679688e-01
-6.20640625e-07,1.91718750e-01
-6.20600625e-07,1.91682813e-01
-6.20560625e-07,1.91718750e-01
-6.20520625e-07,1.91679688e-01
-6.20480625e-07,1.91723438e-01
-6.20440625e-07,1.91667188e-01
-6.20400625e-07,1.91756250e-01
-6.20360625e-07,1.91492188e-01
-6.20320625e-07,1.91245313e-01
-6.20280625e-07,1.91331250e-01
-6.20240625e-07,1.91276562e-01
-6.20200625e-07,1.91318750e-01
-6.20160625e-07,1.91284375e-01
-6.20120625e-07,1.91315625e-01
-6.20080625e-07,1.91285938e-01
-6.20040625e-07,1.91314062e-01
-6.20000625e-07,1.91285938e-01
-6.19960625e-07,1.91315625e-01
-6.19920625e-07,1.91282813e-01
-6.19880625e-07,1.91318750e-01
-6.19840625e-07,1.91278125e-01
-6.19800625e-07,1.91326563e-01
-6.19760625e-07,1.91264062e-01
-6.19720625e-07,1.91360937e-01
-6.19680625e-07,1.91084375e-01
-6.19640625e-07,1.90853125e-01
-6.19600625e-07,1.90921875e-01
-6.19560625e-07,1.90887500e-01
-6.19520625e-07,1.90906250e-01
-6.19480625e-07,1.90900000e-01
-6.19440625e-07,1.90895312e-01
-6.19400625e-07,1.90910938e-01
-6.19360625e-07,1.90879688e-01
-6.19320625e-07,1.90946875e-01
-6.19280625e-07,1.90700000e-01
-6.19240625e-07,1.90437500e-01
-6.19200625e-07,1.90539062e-01
-6.19160625e-07,1.90470313e-01
-6.19120625e-07,1.90525000e-01
-6.19080625e-07,1.90478125e-01
-6.19040625e-07,1.90520313e-01
-6.19000625e-07,1.90479687e-01
-6.18960625e-07,1.90520313e-01
-6.18920625e-07,1.90476563e-01
-6.18880625e-07,1.90526562e-01
-6.18840625e-07,1.90464063e-01
-6.18800625e-07,1.90559375e-01
-6.18760625e-07,1.90287500e-01
-6.18720625e-07,1.90050000e-01
-6.18680625e-07,1.90128125e-01
-6.18640625e-07,1.90081250e-01
-6.18600625e-07,1.90114063e-01
-6.18560625e-07,1.90087500e-01
-6.18520625e-07,1.90110938e-01
-6.18480625e-07,1.90089063e-01
-6.18440625e-07,1.90110938e-01
-6.18400625e-07,1.90087500e-01
-6.18360625e-07,1.90115625e-01
-6.18320625e-07,1.90079688e-01
-6.18280625e-07,1.90129688e-01
-6.18240625e-07,1.90046875e-01
-6.18200625e-07,1.90306250e-01
-6.18160625e-07,1.90556250e-01
-6.18120625e-07,1.90465625e-01
-6.18080625e-07,1.90525000e-01
-6.18040625e-07,1.90479687e-01
-6.18000625e-07,1.90518750e-01
-6.17960625e-07,1.90482813e-01
-6.17920625e-07,1.90517188e-01
-6.17880625e-07,1.90481250e-01
-6.17840625e-07,1.90520313e-01
-6.17800625e-07,1.90475000e-01
-6.17760625e-07,1.90534375e-01
-6.17720625e-07,1.90442187e-01
-6.17680625e-07,1.90710938e-01
-6.17640625e-07,1.90953125e-01
-6.17600625e-07,1.90870313e-01
-6.17560625e-07,1.90921875e-01
-6.17520625e-07,1.90882812e-01
-6.17480625e-07,1.90915625e-01
-6.17440625e-07,1.90884375e-01
-6.17400625e-07,1.90917188e-01
-6.17360625e-07,1.90879688e-01
-6.17320625e-07,1.90929688e-01
-6.17280625e-07,1.90846875e-01
-6.17240625e-07,1.91104688e-01
-6.17200625e-07,1.91357813e-01
-6.17160625e-07,1.91264062e-01
-6.17120625e-07,1.91326563e-01
-6.17080625e-07,1.91276562e-01
-6.17040625e-07,1.91321875e-01
-6.17000625e-07,1.91278125e-01
-6.16960625e-07,1.91325000e-01
-6.16920625e-07,1.91271875e-01
-6.16880625e-07,1.91337500e-01
-6.16840625e-07,1.91237500e-01
-6.16800625e-07,1.91515625e-01
-6.16760625e-07,1.91746875e-01
-6.16720625e-07,1.91676563e-01
-6.16680625e-07,1.91714063e-01
-6.16640625e-07,1.91690625e-01
-6.16600625e-07,1.91706250e-01
-6.16560625e-07,1.91696875e-01
-6.16520625e-07,1.91701563e-01
-6.16480625e-07,1.91700000e-01
-6.16440625e-07,1.91698438e-01
-6.16400625e-07,1.91704687e-01
-6.16360625e-07,1.91693750e-01
-6.16320625e-07,1.91710938e-01
-6.16280625e-07,1.91684375e-01
-6.16240625e-07,1.91725000e-01
-6.16200625e-07,1.91650000e-01
-6.16160625e-07,1.91903125e-01
-6.16120625e-07,1.92157812e-01
-6.16080625e-07,1.92065625e-01
-6.16040625e-07,1.92125000e-01
-6.16000625e-07,1.92079688e-01
-6.15960625e-07,1.92117188e-01
-6.15920625e-07,1.92085937e-01
-6.15880625e-07,1.92112500e-01
-6.15840625e-07,1.92087500e-01
-6.15800625e-07,1.92110937e-01
-6.15760625e-07,1.92089063e-01
-6.15720625e-07,1.92109375e-01
-6.15680625e-07,1.92090625e-01
-6.15640625e-07,1.92109375e-01
-6.15600625e-07,1.92090625e-01
-6.15560625e-07,1.92107813e-01
-6.15520625e-07,1.92092188e-01
-6.15480625e-07,1.92107813e-01
-6.15440625e-07,1.92092188e-01
-6.15400625e-07,1.92107813e-01
-6.15360625e-07,1.92092188e-01
-6.15320625e-07,1.92107813e-01
-6.15280625e-07,1.92092188e-01
-6.15240625e-07,1.92107813e-01
-6.15200625e-07,1.92092188e-01
-6.15160625e-07,1.92107813e-01
-6.15120625e-07,1.92092188e-01
-6.15080625e-07,1.92107813e-01
-6.15040625e-07,1.92092188e-01
-6.15000625e-07,1.92107813e-01
-6.14960625e-07,1.92092188e-01
-6.14920625e-07,1.92107813e-01
-6.14880625e-07,1.92092188e-01
-6.14840625e-07,1.92107813e-01
-6.14800625e-07,1.92092188e-01
-6.14760625e-07,1.92107813e-01
-6.14720625e-07,1.92092188e-01
-6.14680625e-07,1.92107813e-01
-6.14640625e-07,1.92092188e-01
-6.14600625e-07,1.92107813e-01
-6.14560625e-07,1.92092188e-01
-6.14520625e-07,1.92109375e-01
