dpa/aes_ch1_20250506141146385.csv

Model,MSO66B
Label,
Waveform Type,ANALOG
Horizontal Units,s
Sample Interval,4.00000000e-11
Record Length,100000
Zero Index,15999.00781250
Vertical Units,A
ANALOG_Thumbnail,
yOffset,1.84500000e-01
yPosition,8.40000000e-01

Labels,
TIME,CH1
-6.39960312e-07,1.81296875e-01
-6.39920312e-07,1.81303125e-01
-6.39880313e-07,1.81296875e-01
-6.39840312e-07,1.81303125e-01
-6.39800312e-07,1.81296875e-01
-6.39760312e-07,1.81303125e-01
-6.39720312e-07,1.81296875e-01
-6.39680312e-07,1.81303125e-01
-6.39640312e-07,1.81296875e-01
-6.39600313e-07,1.81304688e-01
-6.39560312e-07,1.81295312e-01
-6.39520312e-07,1.81304688e-01
-6.39480312e-07,1.81295312e-01
-6.39440312e-07,1.81304688e-01
-6.39400312e-07,1.81295312e-01
-6.39360312e-07,1.81304688e-01
-6.39320313e-07,1.81295312e-01
-6.39280312e-07,1.81306250e-01
-6.39240312e-07,1.81293750e-01
-6.39200312e-07,1.81306250e-01
-6.39160312e-07,1.81292188e-01
-6.39120312e-07,1.81307812e-01
-6.39080312e-07,1.81290625e-01
-6.39040313e-07,1.81310938e-01
-6.39000312e-07,1.81287500e-01
-6.38960312e-07,1.81315625e-01
-6.38920312e-07,1.81279688e-01
-6.38880312e-07,1.81329688e-01
-6.38840312e-07,1.81245313e-01
-6.38800312e-07,1.81506250e-01
-6.38760313e-07,1.81756250e-01
-6.38720312e-07,1.81667187e-01
-6.38680312e-07,1.81723438e-01
-6.38640312e-07,1.81679688e-01
-6.38600312e-07,1.81718750e-01
-6.38560312e-07,1.81681250e-01
-6.38520312e-07,1.81720313e-01
-6.38480313e-07,1.81676562e-01
-6.38440312e-07,1.81732813e-01
-6.38400312e-07,1.81643750e-01
-6.38360312e-07,1.81909375e-01
-6.38320312e-07,1.82154687e-01
-6.38280312e-07,1.82068750e-01
-6.38240312e-07,1.82121875e-01
-6.38200313e-07,1.82082812e-01
-6.38160312e-07,1.82114063e-01
-6.38120312e-07,1.82087500e-01
-6.38080312e-07,1.82112500e-01
-6.38040312e-07,1.82089063e-01
-6.38000312e-07,1.82110938e-01
-6.37960312e-07,1.82089063e-01
-6.37920313e-07,1.82110938e-01
-6.37880312e-07,1.82089063e-01
-6.37840312e-07,1.82110938e-01
-6.37800312e-07,1.82089063e-01
-6.37760312e-07,1.82110938e-01
-6.37720312e-07,1.82089063e-01
-6.37680312e-07,1.82112500e-01
-6.37640313e-07,1.82087500e-01
-6.37600312e-07,1.82112500e-01
-6.37560312e-07,1.82085938e-01
-6.37520312e-07,1.82115625e-01
-6.37480312e-07,1.82082812e-01
-6.37440312e-07,1.82118750e-01
-6.37400312e-07,1.82078125e-01
-6.37360313e-07,1.82128125e-01
-6.37320312e-07,1.82062500e-01
-6.37280312e-07,1.82162500e-01
-6.37240312e-07,1.81884375e-01
-6.37200312e-07,1.81654687e-01
-6.37160312e-07,1.81721875e-01
-6.37120312e-07,1.81689062e-01
-6.37080313e-07,1.81706250e-01
-6.37040312e-07,1.81698438e-01
-6.37000312e-07,1.81698438e-01
-6.36960312e-07,1.81703125e-01
-6.36920312e-07,1.81693750e-01
-6.36880312e-07,1.81709375e-01
-6.36840312e-07,1.81685938e-01
-6.36800313e-07,1.81718750e-01
-6.36760312e-07,1.81670313e-01
-6.36720312e-07,1.81754688e-01
-6.36680312e-07,1.81492188e-01
-6.36640312e-07,1.81246875e-01
-6.36600312e-07,1.81329688e-01
-6.36560312e-07,1.81281250e-01
-6.36520313e-07,1.81314063e-01
-6.36480312e-07,1.81290625e-01
-6.36440312e-07,1.81307812e-01
-6.36400312e-07,1.81295312e-01
-6.36360312e-07,1.81303125e-01
-6.36320312e-07,1.81298438e-01
-6.36280312e-07,1.81300000e-01
-6.36240313e-07,1.81301563e-01
-6.36200312e-07,1.81296875e-01
-6.36160312e-07,1.81306250e-01
-6.36120312e-07,1.81290625e-01
-6.36080312e-07,1.81315625e-01
-6.36040312e-07,1.81275000e-01
-6.36000312e-07,1.81350000e-01
-6.35960313e-07,1.81096875e-01
-6.35920312e-07,1.80840625e-01
-6.35880312e-07,1.80934375e-01
-6.35840312e-07,1.80875000e-01
-6.35800312e-07,1.80920313e-01
-6.35760312e-07,1.80882813e-01
-6.35720312e-07,1.80915625e-01
-6.35680313e-07,1.80885938e-01
-6.35640312e-07,1.80914063e-01
-6.35600312e-07,1.80887500e-01
-6.35560312e-07,1.80912500e-01
-6.35520312e-07,1.80887500e-01
-6.35480312e-07,1.80912500e-01
-6.35440312e-07,1.80885938e-01
-6.35400313e-07,1.80915625e-01
-6.35360312e-07,1.80881250e-01
-6.35320312e-07,1.80923438e-01
-6.35280312e-07,1.80868750e-01
-6.35240312e-07,1.80956250e-01
-6.35200312e-07,1.80690625e-01
-6.35160312e-07,1.80446875e-01
-6.35120313e-07,1.80529688e-01
-6.35080312e-07,1.80478125e-01
-6.35040312e-07,1.80517188e-01
-6.35000312e-07,1.80485937e-01
-6.34960312e-07,1.80512500e-01
-6.34920312e-07,1.80487500e-01
-6.34880312e-07,1.80512500e-01
-6.34840313e-07,1.80487500e-01
-6.34800312e-07,1.80512500e-01
-6.34760312e-07,1.80487500e-01
-6.34720312e-07,1.80514063e-01
-6.34680312e-07,1.80485937e-01
-6.34640312e-07,1.80517188e-01
-6.34600312e-07,1.80479688e-01
-6.34560313e-07,1.80525000e-01
-6.34520312e-07,1.80465625e-01
-6.34480312e-07,1.80559375e-01
-6.34440312e-07,1.80287500e-01
-6.34400312e-07,1.80050000e-01
-6.34360312e-07,1.80126563e-01
-6.34320312e-07,1.80084375e-01
-6.34280313e-07,1.80110938e-01
-6.34240312e-07,1.80092188e-01
-6.34200312e-07,1.80106250e-01
-6.34160312e-07,1.80095312e-01
-6.34120312e-07,1.80103125e-01
-6.34080312e-07,1.80098438e-01
-6.34040312e-07,1.80100000e-01
-6.34000313e-07,1.80101563e-01
-6.33960312e-07,1.80098438e-01
-6.33920312e-07,1.80103125e-01
-6.33880312e-07,1.80095312e-01
-6.33840312e-07,1.80106250e-01
-6.33800312e-07,1.80090625e-01
-6.33760312e-07,1.80112500e-01
-6.33720313e-07,1.80082812e-01
-6.33680312e-07,1.80128125e-01
-6.33640312e-07,1.80046875e-01
-6.33600312e-07,1.80306250e-01
-6.33560312e-07,1.80556250e-01
-6.33520312e-07,1.80468750e-01
-6.33480312e-07,1.80521875e-01
-6.33440313e-07,1.80482813e-01
-6.33400312e-07,1.80514063e-01
-6.33360312e-07,1.80487500e-01
-6.33320312e-07,1.80510937e-01
-6.33280312e-07,1.80490625e-01
-6.33240312e-07,1.80507813e-01
-6.33200312e-07,1.80492188e-01
-6.33160313e-07,1.80506250e-01
-6.33120312e-07,1.80493750e-01
-6.33080312e-07,1.80506250e-01
-6.33040312e-07,1.80495313e-01
-6.33000312e-07,1.80504688e-01
-6.32960312e-07,1.80495313e-01
-6.32920312e-07,1.80504688e-01
-6.32880313e-07,1.80496875e-01
-6.32840312e-07,1.80503125e-01
-6.32800312e-07,1.80496875e-01
-6.32760312e-07,1.80503125e-01
-6.32720312e-07,1.80496875e-01
-6.32680312e-07,1.80503125e-01
-6.32640312e-07,1.80498437e-01
-6.32600313e-07,1.80501563e-01
-6.32560312e-07,1.80498437e-01
-6.32520312e-07,1.80501563e-01
-6.32480312e-07,1.80498437e-01
-6.32440312e-07,1.80501563e-01
-6.32400312e-07,1.80498437e-01
-6.32360312e-07,1.80501563e-01
-6.32320313e-07,1.80500000e-01
-6.32280312e-07,1.80500000e-01
-6.32240312e-07,1.80500000e-01
-6.32200312e-07,1.80500000e-01
-6.32160312e-07,1.80500000e-01
-6.32120312e-07,1.80500000e-01
-6.32080312e-07,1.80500000e-01
-6.32040313e-07,1.80500000e-01
-6.32000312e-07,1.80501563e-01
-6.31960312e-07,1.80498437e-01
-6.31920312e-07,1.80501563e-01
-6.31880312e-07,1.80498437e-01
-6.31840312e-07,1.80501563e-01
-6.31800312e-07,1.80498437e-01
-6.31760313e-07,1.80503125e-01
-6.31720312e-07,1.80496875e-01
-6.31680312e-07,1.80503125e-01
-6.31640312e-07,1.80495313e-01
-6.31600312e-07,1.80504688e-01
-6.31560312e-07,1.80495313e-01
-6.31520312e-07,1.80506250e-01
-6.31480313e-07,1.80493750e-01
-6.31440312e-07,1.80507813e-01
-6.31400312e-07,1.80490625e-01
-6.31360312e-07,1.80510937e-01
-6.31320312e-07,1.80487500e-01
-6.31280312e-07,1.80515625e-01
-6.31240312e-07,1.80478125e-01
-6.31200313e-07,1.80531250e-01
-6.31160312e-07,1.80443750e-01
-6.31120312e-07,1.80710938e-01
-6.31080312e-07,1.80951562e-01
-6.31040312e-07,1.80873438e-01
-6.31000312e-07,1.80917188e-01
-6.30960312e-07,1.80889063e-01
-6.30920313e-07,1.80907813e-01
-6.30880312e-07,1.80895313e-01
-6.30840312e-07,1.80900000e-01
-6.30800312e-07,1.80903125e-01
-6.30760312e-07,1.80890625e-01
-6.30720312e-07,1.80918750e-01
-6.30680312e-07,1.80854687e-01
-6.30640313e-07,1.81098438e-01
-6.30600312e-07,1.81364063e-01
-6.30560312e-07,1.81259375e-01
-6.30520312e-07,1.81331250e-01
-6.30480312e-07,1.81273437e-01
-6.30440312e-07,1.81323438e-01
-6.30400312e-07,1.81276563e-01
-6.30360313e-07,1.81323438e-01
-6.30320312e-07,1.81276563e-01
-6.30280312e-07,1.81325000e-01
-6.30240312e-07,1.81270313e-01
-6.30200312e-07,1.81339063e-01
-6.30160312e-07,1.81237500e-01
-6.30120312e-07,1.81515625e-01
-6.30080313e-07,1.81748437e-01
-6.30040312e-07,1.81675000e-01
-6.30000312e-07,1.81715625e-01
-6.29960312e-07,1.81689062e-01
-6.29920312e-07,1.81707813e-01
-6.29880312e-07,1.81692188e-01
-6.29840312e-07,1.81706250e-01
-6.29800313e-07,1.81695313e-01
-6.29760312e-07,1.81704688e-01
-6.29720312e-07,1.81695313e-01
-6.29680312e-07,1.81704688e-01
-6.29640312e-07,1.81695313e-01
-6.29600312e-07,1.81706250e-01
-6.29560312e-07,1.81693750e-01
-6.29520313e-07,1.81707813e-01
-6.29480312e-07,1.81692188e-01
-6.29440312e-07,1.81710938e-01
-6.29400312e-07,1.81687500e-01
-6.29360312e-07,1.81717188e-01
-6.29320312e-07,1.81671875e-01
-6.29280312e-07,1.81751563e-01
-6.29240313e-07,1.81495313e-01
-6.29200312e-07,1.81242188e-01
-6.29160312e-07,1.81334375e-01
-6.29120312e-07,1.81275000e-01
-6.29080312e-07,1.81320312e-01
-6.29040312e-07,1.81282813e-01
-6.29000312e-07,1.81315625e-01
-6.28960313e-07,1.81284375e-01
-6.28920312e-07,1.81315625e-01
-6.28880312e-07,1.81284375e-01
-6.28840312e-07,1.81317188e-01
-6.28800312e-07,1.81279688e-01
-6.28760312e-07,1.81323438e-01
-6.28720312e-07,1.81267188e-01
-6.28680313e-07,1.81357812e-01
-6.28640312e-07,1.81090625e-01
-6.28600312e-07,1.80846875e-01
-6.28560312e-07,1.80929688e-01
-6.28520312e-07,1.80879687e-01
-6.28480312e-07,1.80915625e-01
-6.28440312e-07,1.80885938e-01
-6.28400313e-07,1.80912500e-01
-6.28360312e-07,1.80889063e-01
-6.28320312e-07,1.80910938e-01
-6.28280312e-07,1.80889063e-01
-6.28240312e-07,1.80910938e-01
-6.28200312e-07,1.80889063e-01
-6.28160312e-07,1.80912500e-01
-6.28120313e-07,1.80885938e-01
-6.28080312e-07,1.80915625e-01
-6.28040312e-07,1.80881250e-01
-6.28000312e-07,1.80923438e-01
-6.27960312e-07,1.80867187e-01
-6.27920312e-07,1.80957813e-01
-6.27880312e-07,1.80689062e-01
-6.27840313e-07,1.80450000e-01
-6.27800312e-07,1.80526563e-01
-6.27760312e-07,1.80482813e-01
-6.27720312e-07,1.80510937e-01
-6.27680312e-07,1.80492188e-01
-6.27640312e-07,1.80504688e-01
-6.27600312e-07,1.80496875e-01
-6.27560313e-07,1.80501563e-01
-6.27520312e-07,1.80501563e-01
-6.27480312e-07,1.80495313e-01
-6.27440312e-07,1.80507813e-01
-6.27400312e-07,1.80487500e-01
-6.27360312e-07,1.80523437e-01
-6.27320312e-07,1.80451562e-01
-6.27280313e-07,1.80701562e-01
-6.27240312e-07,1.80960938e-01
-6.27200312e-07,1.80864063e-01
-6.27160312e-07,1.80926562e-01
-6.27120312e-07,1.80878125e-01
-6.27080312e-07,1.80918750e-01
-6.27040312e-07,1.80882813e-01
-6.27000313e-07,1.80915625e-01
-6.26960312e-07,1.80885938e-01
-6.26920312e-07,1.80914063e-01
-6.26880312e-07,1.80887500e-01
-6.26840312e-07,1.80912500e-01
-6.26800312e-07,1.80887500e-01
-6.26760312e-07,1.80912500e-01
-6.26720313e-07,1.80885938e-01
-6.26680312e-07,1.80914063e-01
-6.26640312e-07,1.80884375e-01
-6.26600312e-07,1.80917188e-01
-6.26560312e-07,1.80881250e-01
-6.26520312e-07,1.80923438e-01
-6.26480312e-07,1.80867187e-01
-6.26440313e-07,1.80957813e-01
-6.26400312e-07,1.80689062e-01
-6.26360312e-07,1.80446875e-01
-6.26320312e-07,1.80529688e-01
-6.26280312e-07,1.80479688e-01
-6.26240312e-07,1.80515625e-01
-6.26200312e-07,1.80485937e-01
-6.26160313e-07,1.80512500e-01
-6.26120312e-07,1.80487500e-01
-6.26080312e-07,1.80512500e-01
-6.26040312e-07,1.80487500e-01
-6.26000312e-07,1.80514063e-01
-6.25960312e-07,1.80482813e-01
-6.25920312e-07,1.80521875e-01
-6.25880313e-07,1.80468750e-01
-6.25840312e-07,1.80556250e-01
-6.25800312e-07,1.80290625e-01
-6.25760312e-07,1.80046875e-01
-6.25720312e-07,1.80129687e-01
-6.25680312e-07,1.80079688e-01
-6.25640312e-07,1.80115625e-01
-6.25600313e-07,1.80087500e-01
-6.25560312e-07,1.80109375e-01
-6.25520312e-07,1.80092188e-01
-6.25480312e-07,1.80106250e-01
-6.25440312e-07,1.80095312e-01
-6.25400312e-07,1.80104687e-01
-6.25360312e-07,1.80096875e-01
-6.25320313e-07,1.80101563e-01
-6.25280312e-07,1.80101563e-01
-6.25240312e-07,1.80095312e-01
-6.25200312e-07,1.80109375e-01
-6.25160312e-07,1.80081250e-01
-6.25120312e-07,1.80143750e-01
-6.25080312e-07,1.79904687e-01
-6.25040313e-07,1.79632813e-01
-6.25000312e-07,1.79743750e-01
-6.24960312e-07,1.79664062e-01
-6.24920312e-07,1.79731250e-01
-6.24880312e-07,1.79668750e-01
-6.24840312e-07,1.79731250e-01
-6.24800312e-07,1.79664062e-01
-6.24760313e-07,1.79743750e-01
-6.24720312e-07,1.79632813e-01
-6.24680312e-07,1.79920313e-01
-6.24640312e-07,1.80142187e-01
-6.24600312e-07,1.80081250e-01
-6.24560312e-07,1.80109375e-01
-6.24520312e-07,1.80095312e-01
-6.24480313e-07,1.80103125e-01
-6.24440312e-07,1.80098438e-01
-6.24400312e-07,1.80100000e-01
-6.24360312e-07,1.80101563e-01
-6.24320312e-07,1.80096875e-01
-6.24280312e-07,1.80103125e-01
-6.24240312e-07,1.80096875e-01
-6.24200313e-07,1.80104687e-01
-6.24160312e-07,1.80095312e-01
-6.24120312e-07,1.80106250e-01
-6.24080312e-07,1.80093750e-01
-6.24040312e-07,1.80107813e-01
-6.24000312e-07,1.80090625e-01
-6.23960312e-07,1.80109375e-01
-6.23920313e-07,1.80087500e-01
-6.23880312e-07,1.80115625e-01
-6.23840312e-07,1.80079688e-01
-6.23800312e-07,1.80129687e-01
-6.23760312e-07,1.80045312e-01
-6.23720312e-07,1.80306250e-01
-6.23680312e-07,1.80556250e-01
-6.23640313e-07,1.80467188e-01
-6.23600312e-07,1.80523437e-01
-6.23560312e-07,1.80481250e-01
-6.23520312e-07,1.80517188e-01
-6.23480312e-07,1.80484375e-01
-6.23440312e-07,1.80515625e-01
-6.23400312e-07,1.80482813e-01
-6.23360313e-07,1.80518750e-01
-6.23320312e-07,1.80476562e-01
-6.23280312e-07,1.80531250e-01
-6.23240312e-07,1.80443750e-01
-6.23200312e-07,1.80709375e-01
-6.23160312e-07,1.80953125e-01
-6.23120312e-07,1.80870313e-01
-6.23080313e-07,1.80921875e-01
-6.23040312e-07,1.80882813e-01
-6.23000312e-07,1.80914063e-01
-6.22960312e-07,1.80887500e-01
-6.22920312e-07,1.80910938e-01
-6.22880312e-07,1.80890625e-01
-6.22840312e-07,1.80909375e-01
-6.22800313e-07,1.80890625e-01
-6.22760312e-07,1.80909375e-01
-6.22720312e-07,1.80892187e-01
-6.22680312e-07,1.80907813e-01
-6.22640312e-07,1.80892187e-01
-6.22600312e-07,1.80907813e-01
-6.22560312e-07,1.80892187e-01
-6.22520313e-07,1.80907813e-01
-6.22480312e-07,1.80890625e-01
-6.22440312e-07,1.80909375e-01
-6.22400312e-07,1.80890625e-01
-6.22360312e-07,1.80909375e-01
-6.22320312e-07,1.80890625e-01
-6.22280312e-07,1.80910938e-01
-6.22240313e-07,1.80889063e-01
-6.22200312e-07,1.80912500e-01
-6.22160312e-07,1.80887500e-01
-6.22120312e-07,1.80914063e-01
-6.22080312e-07,1.80884375e-01
-6.22040312e-07,1.80918750e-01
-6.22000312e-07,1.80878125e-01
-6.21960313e-07,1.80926562e-01
-6.21920312e-07,1.80864063e-01
-6.21880312e-07,1.80962500e-01
-6.21840312e-07,1.80684375e-01
-6.21800312e-07,1.80453125e-01
-6.21760312e-07,1.80521875e-01
-6.21720312e-07,1.80487500e-01
-6.21680313e-07,1.80506250e-01
-6.21640312e-07,1.80498437e-01
-6.21600312e-07,1.80498437e-01
-6.21560312e-07,1.80504688e-01
-6.21520312e-07,1.80490625e-01
-6.21480312e-07,1.80515625e-01
-6.21440312e-07,1.80473438e-01
-6.21400313e-07,1.80551563e-01
-6.21360312e-07,1.80295312e-01
-6.21320312e-07,1.80043750e-01
-6.21280312e-07,1.80132813e-01
-6.21240312e-07,1.80076563e-01
-6.21200312e-07,1.80117187e-01
-6.21160312e-07,1.80085938e-01
-6.21120313e-07,1.80110938e-01
-6.21080312e-07,1.80090625e-01
-6.21040312e-07,1.80107813e-01
-6.21000312e-07,1.80092188e-01
-6.20960312e-07,1.80106250e-01
-6.20920312e-07,1.80095312e-01
-6.20880312e-07,1.80104687e-01
-6.20840313e-07,1.80096875e-01
-6.20800312e-07,1.80101563e-01
-6.20760312e-07,1.80098438e-01
-6.20720312e-07,1.80100000e-01
-6.20680312e-07,1.80101563e-01
-6.20640312e-07,1.80095312e-01
-6.20600312e-07,1.80107813e-01
-6.20560313e-07,1.80087500e-01
-6.20520312e-07,1.80121875e-01
-6.20480312e-07,1.80053125e-01
-6.20440312e-07,1.80300000e-01
-6.20400312e-07,1.80564063e-01
-6.20360312e-07,1.80459375e-01
-6.20320312e-07,1.80531250e-01
-6.20280313e-07,1.80473438e-01
-6.20240312e-07,1.80525000e-01
-6.20200312e-07,1.80475000e-01
-6.20160312e-07,1.80526563e-01
-6.20120312e-07,1.80470313e-01
-6.20080312e-07,1.80539063e-01
-6.20040312e-07,1.80437500e-01
-6.20000313e-07,1.80715625e-01
-6.19960312e-07,1.80948438e-01
-6.19920312e-07,1.80875000e-01
-6.19880312e-07,1.80917188e-01
-6.19840312e-07,1.80887500e-01
-6.19800312e-07,1.80909375e-01
-6.19760312e-07,1.80890625e-01
-6.19720313e-07,1.80909375e-01
-6.19680312e-07,1.80890625e-01
-6.19640312e-07,1.80909375e-01
-6.19600312e-07,1.80889063e-01
-6.19560312e-07,1.80914063e-01
-6.19520313e-07,1.80881250e-01
-6.19480312e-07,1.80928125e-01
-6.19440313e-07,1.80846875e-01
-6.19400312e-07,1.81104688e-01
-6.19360312e-07,1.81357812e-01
-6.19320312e-07,1.81267188e-01
-6.19280312e-07,1.81325000e-01
-6.19240313e-07,1.81281250e-01
-6.19200312e-07,1.81317188e-01
-6.19160313e-07,1.81285937e-01
-6.19120312e-07,1.81312500e-01
-6.19080312e-07,1.81287500e-01
-6.19040312e-07,1.81310938e-01
-6.19000312e-07,1.81289063e-01
-6.18960313e-07,1.81310938e-01
-6.18920312e-07,1.81290625e-01
-6.18880312e-07,1.81309375e-01
-6.18840312e-07,1.81290625e-01
-6.18800312e-07,1.81309375e-01
-6.18760312e-07,1.81290625e-01
-6.18720312e-07,1.81309375e-01
-6.18680313e-07,1.81290625e-01
-6.18640312e-07,1.81309375e-01
-6.18600312e-07,1.81290625e-01
-6.18560312e-07,1.81309375e-01
-6.18520312e-07,1.81290625e-01
-6.18480312e-07,1.81309375e-01
-6.18440312e-07,1.81290625e-01
-6.18400313e-07,1.81309375e-01
-6.18360312e-07,1.81290625e-01
-6.18320312e-07,1.81310938e-01
-6.18280312e-07,1.81289063e-01
-6.18240312e-07,1.81310938e-01
-6.18200312e-07,1.81289063e-01
-6.18160312e-07,1.81312500e-01
-6.18120313e-07,1.81287500e-01
-6.18080312e-07,1.81314063e-01
-6.18040312e-07,1.81285937e-01
-6.18000312e-07,1.81315625e-01
-6.17960312e-07,1.81281250e-01
-6.17920312e-07,1.81321875e-01
-6.17880312e-07,1.81273437e-01
-6.17840313e-07,1.81335938e-01
-6.17800312e-07,1.81239063e-01
-6.17760312e-07,1.81514063e-01
-6.17720312e-07,1.81748437e-01
-6.17680312e-07,1.81676562e-01
-6.17640312e-07,1.81714062e-01
-6.17600312e-07,1.81690625e-01
-6.17560313e-07,1.81706250e-01
-6.17520312e-07,1.81695313e-01
-6.17480312e-07,1.81703125e-01
-6.17440312e-07,1.81698438e-01
-6.17400312e-07,1.81700000e-01
-6.17360312e-07,1.81700000e-01
-6.17320312e-07,1.81698438e-01
-6.17280313e-07,1.81701562e-01
-6.17240312e-07,1.81696875e-01
-6.17200312e-07,1.81703125e-01
-6.17160312e-07,1.81695313e-01
-6.17120312e-07,1.81704688e-01
-6.17080312e-07,1.81695313e-01
-6.17040312e-07,1.81706250e-01
-6.17000313e-07,1.81693750e-01
-6.16960312e-07,1.81706250e-01
-6.16920312e-07,1.81692188e-01
-6.16880312e-07,1.81707813e-01
-6.16840312e-07,1.81690625e-01
-6.16800312e-07,1.81710938e-01
-6.16760312e-07,1.81687500e-01
-6.16720313e-07,1.81714062e-01
-6.16680312e-07,1.81684375e-01
-6.16640312e-07,1.81718750e-01
-6.16600312e-07,1.81675000e-01
-6.16560312e-07,1.81734375e-01
-6.16520312e-07,1.81640625e-01
-6.16480312e-07,1.81912500e-01
-6.16440313e-07,1.82148438e-01
-6.16400312e-07,1.82075000e-01
-6.16360312e-07,1.82114063e-01
-6.16320312e-07,1.82090625e-01
-6.16280312e-07,1.82106250e-01
-6.16240312e-07,1.82096875e-01
-6.16200312e-07,1.82100000e-01
-6.16160313e-07,1.82101563e-01
-6.16120312e-07,1.82096875e-01
-6.16080312e-07,1.82106250e-01
-6.16040312e-07,1.82090625e-01
-6.16000312e-07,1.82112500e-01
-6.15960312e-07,1.82082812e-01
-6.15920312e-07,1.82128125e-01
-6.15880313e-07,1.82046875e-01
-6.15840312e-07,1.82307812e-01
-6.15800312e-07,1.82554688e-01
-6.15760312e-07,1.82468750e-01
-6.15720312e-07,1.82520313e-01
-6.15680312e-07,1.82484375e-01
-6.15640312e-07,1.82510937e-01
-6.15600313e-07,1.82490625e-01
-6.15560312e-07,1.82506250e-01
-6.15520312e-07,1.82495313e-01
-6.15480312e-07,1.82503125e-01
-6.15440312e-07,1.82498437e-01
-6.15400312e-07,1.82500000e-01
-6.15360312e-07,1.82501563e-01
-6.15320313e-07,1.82495313e-01
-6.15280312e-07,1.82507813e-01
-6.15240312e-07,1.82485938e-01
-6.15200312e-07,1.82523437e-01
-6.15160312e-07,1.82451562e-01
-6.15120312e-07,1.82701562e-01
-6.15080312e-07,1.82959375e-01
-6.15040313e-07,1.82864063e-01
-6.15000312e-07,1.82926563e-01
-6.14960312e-07,1.82878125e-01
-6.14920312e-07,1.82918750e-01
-6.14880312e-07,1.82884375e-01
-6.14840312e-07,1.82914063e-01
-6.14800312e-07,1.82885938e-01
-6.14760313e-07,1.82912500e-01
-6.14720312e-07,1.82887500e-01
-6.14680312e-07,1.82910938e-01
-6.14640312e-07,1.82889063e-01
-6.14600312e-07,1.82910938e-01
-6.14560312e-07,1.82890625e-01
-6.14520312e-07,1.82909375e-01
