dpa/aes_ch1_20250506140643510.csv

Model,MSO66B
Label,
Waveform Type,ANALOG
Horizontal Units,s
Sample Interval,4.00000000e-11
Record Length,100000
Zero Index,15999.03125000
Vertical Units,A
ANALOG_Thumbnail,
yOffset,1.84500000e-01
yPosition,8.40000000e-01

Labels,
TIME,CH1
-6.39961250e-07,1.86914063e-01
-6.39921250e-07,1.86887500e-01
-6.39881250e-07,1.86910938e-01
-6.39841250e-07,1.86889063e-01
-6.39801250e-07,1.86909375e-01
-6.39761250e-07,1.86890625e-01
-6.39721250e-07,1.86909375e-01
-6.39681250e-07,1.86892188e-01
-6.39641250e-07,1.86907812e-01
-6.39601250e-07,1.86893750e-01
-6.39561250e-07,1.86906250e-01
-6.39521250e-07,1.86893750e-01
-6.39481250e-07,1.86904687e-01
-6.39441250e-07,1.86895313e-01
-6.39401250e-07,1.86903125e-01
-6.39361250e-07,1.86896875e-01
-6.39321250e-07,1.86901563e-01
-6.39281250e-07,1.86900000e-01
-6.39241250e-07,1.86898438e-01
-6.39201250e-07,1.86904687e-01
-6.39161250e-07,1.86890625e-01
-6.39121250e-07,1.86920313e-01
-6.39081250e-07,1.86856250e-01
-6.39041250e-07,1.87096875e-01
-6.39001250e-07,1.87365625e-01
-6.38961250e-07,1.87257813e-01
-6.38921250e-07,1.87332813e-01
-6.38881250e-07,1.87271875e-01
-6.38841250e-07,1.87326563e-01
-6.38801250e-07,1.87275000e-01
-6.38761250e-07,1.87325000e-01
-6.38721250e-07,1.87273438e-01
-6.38681250e-07,1.87328125e-01
-6.38641250e-07,1.87267188e-01
-6.38601250e-07,1.87342188e-01
-6.38561250e-07,1.87234375e-01
-6.38521250e-07,1.87518750e-01
-6.38481250e-07,1.87743750e-01
-6.38441250e-07,1.87679687e-01
-6.38401250e-07,1.87710938e-01
-6.38361250e-07,1.87693750e-01
-6.38321250e-07,1.87703125e-01
-6.38281250e-07,1.87698438e-01
-6.38241250e-07,1.87700000e-01
-6.38201250e-07,1.87700000e-01
-6.38161250e-07,1.87698438e-01
-6.38121250e-07,1.87701563e-01
-6.38081250e-07,1.87698438e-01
-6.38041250e-07,1.87701563e-01
-6.38001250e-07,1.87696875e-01
-6.37961250e-07,1.87703125e-01
-6.37921250e-07,1.87696875e-01
-6.37881250e-07,1.87703125e-01
-6.37841250e-07,1.87696875e-01
-6.37801250e-07,1.87703125e-01
-6.37761250e-07,1.87696875e-01
-6.37721250e-07,1.87703125e-01
-6.37681250e-07,1.87696875e-01
-6.37641250e-07,1.87703125e-01
-6.37601250e-07,1.87695313e-01
-6.37561250e-07,1.87704687e-01
-6.37521250e-07,1.87695313e-01
-6.37481250e-07,1.87704687e-01
-6.37441250e-07,1.87695313e-01
-6.37401250e-07,1.87704687e-01
-6.37361250e-07,1.87695313e-01
-6.37321250e-07,1.87704687e-01
-6.37281250e-07,1.87695313e-01
-6.37241250e-07,1.87704687e-01
-6.37201250e-07,1.87695313e-01
-6.37161250e-07,1.87704687e-01
-6.37121250e-07,1.87695313e-01
-6.37081250e-07,1.87704687e-01
-6.37041250e-07,1.87695313e-01
-6.37001250e-07,1.87704687e-01
-6.36961250e-07,1.87695313e-01
-6.36921250e-07,1.87704687e-01
-6.36881250e-07,1.87695313e-01
-6.36841250e-07,1.87704687e-01
-6.36801250e-07,1.87695313e-01
-6.36761250e-07,1.87704687e-01
-6.36721250e-07,1.87695313e-01
-6.36681250e-07,1.87704687e-01
-6.36641250e-07,1.87695313e-01
-6.36601250e-07,1.87704687e-01
-6.36561250e-07,1.87695313e-01
-6.36521250e-07,1.87704687e-01
-6.36481250e-07,1.87695313e-01
-6.36441250e-07,1.87706250e-01
-6.36401250e-07,1.87693750e-01
-6.36361250e-07,1.87706250e-01
-6.36321250e-07,1.87693750e-01
-6.36281250e-07,1.87706250e-01
-6.36241250e-07,1.87693750e-01
-6.36201250e-07,1.87706250e-01
-6.36161250e-07,1.87693750e-01
-6.36121250e-07,1.87706250e-01
-6.36081250e-07,1.87693750e-01
-6.36041250e-07,1.87706250e-01
-6.36001250e-07,1.87693750e-01
-6.35961250e-07,1.87706250e-01
-6.35921250e-07,1.87693750e-01
-6.35881250e-07,1.87707813e-01
-6.35841250e-07,1.87692187e-01
-6.35801250e-07,1.87707813e-01
-6.35761250e-07,1.87692187e-01
-6.35721250e-07,1.87707813e-01
-6.35681250e-07,1.87692187e-01
-6.35641250e-07,1.87707813e-01
-6.35601250e-07,1.87692187e-01
-6.35561250e-07,1.87709375e-01
-6.35521250e-07,1.87690625e-01
-6.35481250e-07,1.87709375e-01
-6.35441250e-07,1.87690625e-01
-6.35401250e-07,1.87709375e-01
-6.35361250e-07,1.87689063e-01
-6.35321250e-07,1.87710938e-01
-6.35281250e-07,1.87689063e-01
-6.35241250e-07,1.87712500e-01
-6.35201250e-07,1.87687500e-01
-6.35161250e-07,1.87714063e-01
-6.35121250e-07,1.87685938e-01
-6.35081250e-07,1.87715625e-01
-6.35041250e-07,1.87682813e-01
-6.35001250e-07,1.87718750e-01
-6.34961250e-07,1.87678125e-01
-6.34921250e-07,1.87725000e-01
-6.34881250e-07,1.87668750e-01
-6.34841250e-07,1.87742188e-01
-6.34801250e-07,1.87632812e-01
-6.34761250e-07,1.87921875e-01
-6.34721250e-07,1.88139063e-01
-6.34681250e-07,1.88087500e-01
-6.34641250e-07,1.88100000e-01
-6.34601250e-07,1.88110938e-01
-6.34561250e-07,1.88076563e-01
-6.34521250e-07,1.88150000e-01
-6.34481250e-07,1.87895312e-01
-6.34441250e-07,1.87643750e-01
-6.34401250e-07,1.87729688e-01
-6.34361250e-07,1.87679687e-01
-6.34321250e-07,1.87714063e-01
-6.34281250e-07,1.87690625e-01
-6.34241250e-07,1.87706250e-01
-6.34201250e-07,1.87695313e-01
-6.34161250e-07,1.87701563e-01
-6.34121250e-07,1.87701563e-01
-6.34081250e-07,1.87695313e-01
-6.34041250e-07,1.87707813e-01
-6.34001250e-07,1.87685938e-01
-6.33961250e-07,1.87723438e-01
-6.33921250e-07,1.87650000e-01
-6.33881250e-07,1.87903125e-01
-6.33841250e-07,1.88159375e-01
-6.33801250e-07,1.88065625e-01
-6.33761250e-07,1.88125000e-01
-6.33721250e-07,1.88079688e-01
-6.33681250e-07,1.88115625e-01
-6.33641250e-07,1.88085937e-01
-6.33601250e-07,1.88112500e-01
-6.33561250e-07,1.88089063e-01
-6.33521250e-07,1.88109375e-01
-6.33481250e-07,1.88090625e-01
-6.33441250e-07,1.88107812e-01
-6.33401250e-07,1.88092188e-01
-6.33361250e-07,1.88106250e-01
-6.33321250e-07,1.88093750e-01
-6.33281250e-07,1.88106250e-01
-6.33241250e-07,1.88093750e-01
-6.33201250e-07,1.88104688e-01
-6.33161250e-07,1.88095313e-01
-6.33121250e-07,1.88104688e-01
-6.33081250e-07,1.88095313e-01
-6.33041250e-07,1.88104688e-01
-6.33001250e-07,1.88095313e-01
-6.32961250e-07,1.88103125e-01
-6.32921250e-07,1.88096875e-01
-6.32881250e-07,1.88103125e-01
-6.32841250e-07,1.88096875e-01
-6.32801250e-07,1.88103125e-01
-6.32761250e-07,1.88096875e-01
-6.32721250e-07,1.88103125e-01
-6.32681250e-07,1.88096875e-01
-6.32641250e-07,1.88103125e-01
-6.32601250e-07,1.88098437e-01
-6.32561250e-07,1.88101563e-01
-6.32521250e-07,1.88098437e-01
-6.32481250e-07,1.88101563e-01
-6.32441250e-07,1.88098437e-01
-6.32401250e-07,1.88101563e-01
-6.32361250e-07,1.88098437e-01
-6.32321250e-07,1.88101563e-01
-6.32281250e-07,1.88098437e-01
-6.32241250e-07,1.88101563e-01
-6.32201250e-07,1.88098437e-01
-6.32161250e-07,1.88101563e-01
-6.32121250e-07,1.88098437e-01
-6.32081250e-07,1.88100000e-01
-6.32041250e-07,1.88100000e-01
-6.32001250e-07,1.88100000e-01
-6.31961250e-07,1.88100000e-01
-6.31921250e-07,1.88100000e-01
-6.31881250e-07,1.88100000e-01
-6.31841250e-07,1.88100000e-01
-6.31801250e-07,1.88100000e-01
-6.31761250e-07,1.88100000e-01
-6.31721250e-07,1.88100000e-01
-6.31681250e-07,1.88100000e-01
-6.31641250e-07,1.88101563e-01
-6.31601250e-07,1.88098437e-01
-6.31561250e-07,1.88101563e-01
-6.31521250e-07,1.88098437e-01
-6.31481250e-07,1.88101563e-01
-6.31441250e-07,1.88098437e-01
-6.31401250e-07,1.88101563e-01
-6.31361250e-07,1.88098437e-01
-6.31321250e-07,1.88101563e-01
-6.31281250e-07,1.88096875e-01
-6.31241250e-07,1.88103125e-01
-6.31201250e-07,1.88096875e-01
-6.31161250e-07,1.88103125e-01
-6.31121250e-07,1.88096875e-01
-6.31081250e-07,1.88104688e-01
-6.31041250e-07,1.88095313e-01
-6.31001250e-07,1.88104688e-01
-6.30961250e-07,1.88093750e-01
-6.30921250e-07,1.88106250e-01
-6.30881250e-07,1.88092188e-01
-6.30841250e-07,1.88109375e-01
-6.30801250e-07,1.88089063e-01
-6.30761250e-07,1.88112500e-01
-6.30721250e-07,1.88084375e-01
-6.30681250e-07,1.88120312e-01
-6.30641250e-07,1.88070313e-01
-6.30601250e-07,1.88154688e-01
-6.30561250e-07,1.87890625e-01
-6.30521250e-07,1.87646875e-01
-6.30481250e-07,1.87729688e-01
-6.30441250e-07,1.87679687e-01
-6.30401250e-07,1.87715625e-01
-6.30361250e-07,1.87687500e-01
-6.30321250e-07,1.87709375e-01
-6.30281250e-07,1.87692187e-01
-6.30241250e-07,1.87706250e-01
-6.30201250e-07,1.87693750e-01
-6.30161250e-07,1.87704687e-01
-6.30121250e-07,1.87695313e-01
-6.30081250e-07,1.87703125e-01
-6.30041250e-07,1.87696875e-01
-6.30001250e-07,1.87701563e-01
-6.29961250e-07,1.87698438e-01
-6.29921250e-07,1.87701563e-01
-6.29881250e-07,1.87700000e-01
-6.29841250e-07,1.87700000e-01
-6.29801250e-07,1.87701563e-01
-6.29761250e-07,1.87698438e-01
-6.29721250e-07,1.87703125e-01
-6.29681250e-07,1.87695313e-01
-6.29641250e-07,1.87704687e-01
-6.29601250e-07,1.87693750e-01
-6.29561250e-07,1.87709375e-01
-6.29521250e-07,1.87687500e-01
-6.29481250e-07,1.87717187e-01
-6.29441250e-07,1.87671875e-01
-6.29401250e-07,1.87753125e-01
-6.29361250e-07,1.87493750e-01
-6.29321250e-07,1.87243750e-01
-6.29281250e-07,1.87331250e-01
-6.29241250e-07,1.87278125e-01
-6.29201250e-07,1.87315625e-01
-6.29161250e-07,1.87287500e-01
-6.29121250e-07,1.87309375e-01
-6.29081250e-07,1.87292188e-01
-6.29041250e-07,1.87304688e-01
-6.29001250e-07,1.87298437e-01
-6.28961250e-07,1.87298437e-01
-6.28921250e-07,1.87306250e-01
-6.28881250e-07,1.87282813e-01
-6.28841250e-07,1.87342188e-01
-6.28801250e-07,1.87104688e-01
-6.28761250e-07,1.86832813e-01
-6.28721250e-07,1.86943750e-01
-6.28681250e-07,1.86864063e-01
-6.28641250e-07,1.86931250e-01
-6.28601250e-07,1.86870312e-01
-6.28561250e-07,1.86929687e-01
-6.28521250e-07,1.86868750e-01
-6.28481250e-07,1.86934375e-01
-6.28441250e-07,1.86856250e-01
-6.28401250e-07,1.86967188e-01
-6.28361250e-07,1.86679687e-01
-6.28321250e-07,1.86457813e-01
-6.28281250e-07,1.86518750e-01
-6.28241250e-07,1.86489062e-01
-6.28201250e-07,1.86506250e-01
-6.28161250e-07,1.86496875e-01
-6.28121250e-07,1.86501562e-01
-6.28081250e-07,1.86500000e-01
-6.28041250e-07,1.86498438e-01
-6.28001250e-07,1.86501562e-01
-6.27961250e-07,1.86496875e-01
-6.27921250e-07,1.86503125e-01
-6.27881250e-07,1.86496875e-01
-6.27841250e-07,1.86503125e-01
-6.27801250e-07,1.86495313e-01
-6.27761250e-07,1.86504688e-01
-6.27721250e-07,1.86495313e-01
-6.27681250e-07,1.86504688e-01
-6.27641250e-07,1.86495313e-01
-6.27601250e-07,1.86506250e-01
-6.27561250e-07,1.86493750e-01
-6.27521250e-07,1.86506250e-01
-6.27481250e-07,1.86492188e-01
-6.27441250e-07,1.86507813e-01
-6.27401250e-07,1.86490625e-01
-6.27361250e-07,1.86510938e-01
-6.27321250e-07,1.86487500e-01
-6.27281250e-07,1.86515625e-01
-6.27241250e-07,1.86479688e-01
-6.27201250e-07,1.86529688e-01
-6.27161250e-07,1.86446875e-01
-6.27121250e-07,1.86706250e-01
-6.27081250e-07,1.86956250e-01
-6.27041250e-07,1.86867188e-01
-6.27001250e-07,1.86925000e-01
-6.26961250e-07,1.86879688e-01
-6.26921250e-07,1.86918750e-01
-6.26881250e-07,1.86881250e-01
-6.26841250e-07,1.86920313e-01
-6.26801250e-07,1.86875000e-01
-6.26761250e-07,1.86932813e-01
-6.26721250e-07,1.86842188e-01
-6.26681250e-07,1.87109375e-01
-6.26641250e-07,1.87353125e-01
-6.26601250e-07,1.87270313e-01
-6.26561250e-07,1.87320313e-01
-6.26521250e-07,1.87284375e-01
-6.26481250e-07,1.87312500e-01
-6.26441250e-07,1.87289063e-01
-6.26401250e-07,1.87310937e-01
-6.26361250e-07,1.87290625e-01
-6.26321250e-07,1.87309375e-01
-6.26281250e-07,1.87292188e-01
-6.26241250e-07,1.87307813e-01
-6.26201250e-07,1.87292188e-01
-6.26161250e-07,1.87307813e-01
-6.26121250e-07,1.87292188e-01
-6.26081250e-07,1.87307813e-01
-6.26041250e-07,1.87292188e-01
-6.26001250e-07,1.87307813e-01
-6.25961250e-07,1.87292188e-01
-6.25921250e-07,1.87309375e-01
-6.25881250e-07,1.87290625e-01
-6.25841250e-07,1.87309375e-01
-6.25801250e-07,1.87289063e-01
-6.25761250e-07,1.87310937e-01
-6.25721250e-07,1.87287500e-01
-6.25681250e-07,1.87315625e-01
-6.25641250e-07,1.87282813e-01
-6.25601250e-07,1.87323437e-01
-6.25561250e-07,1.87267188e-01
-6.25521250e-07,1.87357812e-01
-6.25481250e-07,1.87089063e-01
-6.25441250e-07,1.86848438e-01
-6.25401250e-07,1.86928125e-01
-6.25361250e-07,1.86881250e-01
-6.25321250e-07,1.86914063e-01
-6.25281250e-07,1.86889063e-01
-6.25241250e-07,1.86909375e-01
-6.25201250e-07,1.86892188e-01
-6.25161250e-07,1.86906250e-01
-6.25121250e-07,1.86893750e-01
-6.25081250e-07,1.86904687e-01
-6.25041250e-07,1.86895313e-01
-6.25001250e-07,1.86904687e-01
-6.24961250e-07,1.86895313e-01
-6.24921250e-07,1.86904687e-01
-6.24881250e-07,1.86896875e-01
-6.24841250e-07,1.86903125e-01
-6.24801250e-07,1.86896875e-01
-6.24761250e-07,1.86904687e-01
-6.24721250e-07,1.86895313e-01
-6.24681250e-07,1.86904687e-01
-6.24641250e-07,1.86895313e-01
-6.24601250e-07,1.86904687e-01
-6.24561250e-07,1.86893750e-01
-6.24521250e-07,1.86907812e-01
-6.24481250e-07,1.86890625e-01
-6.24441250e-07,1.86912500e-01
-6.24401250e-07,1.86882812e-01
-6.24361250e-07,1.86926563e-01
-6.24321250e-07,1.86850000e-01
-6.24281250e-07,1.87103125e-01
-6.24241250e-07,1.87359375e-01
-6.24201250e-07,1.87262500e-01
-6.24161250e-07,1.87328125e-01
-6.24121250e-07,1.87275000e-01
-6.24081250e-07,1.87323437e-01
-6.24041250e-07,1.87276563e-01
-6.24001250e-07,1.87325000e-01
-6.23961250e-07,1.87271875e-01
-6.23921250e-07,1.87337500e-01
-6.23881250e-07,1.87239062e-01
-6.23841250e-07,1.87514062e-01
-6.23801250e-07,1.87750000e-01
-6.23761250e-07,1.87673438e-01
-6.23721250e-07,1.87717187e-01
-6.23681250e-07,1.87685938e-01
-6.23641250e-07,1.87710938e-01
-6.23601250e-07,1.87690625e-01
-6.23561250e-07,1.87709375e-01
-6.23521250e-07,1.87689063e-01
-6.23481250e-07,1.87712500e-01
-6.23441250e-07,1.87682813e-01
-6.23401250e-07,1.87725000e-01
-6.23361250e-07,1.87650000e-01
-6.23321250e-07,1.87901563e-01
-6.23281250e-07,1.88162500e-01
-6.23241250e-07,1.88060937e-01
-6.23201250e-07,1.88131250e-01
-6.23161250e-07,1.88071875e-01
-6.23121250e-07,1.88128125e-01
-6.23081250e-07,1.88070313e-01
-6.23041250e-07,1.88132812e-01
-6.23001250e-07,1.88057813e-01
-6.22961250e-07,1.88165625e-01
-6.22921250e-07,1.87881250e-01
-6.22881250e-07,1.87656250e-01
-6.22841250e-07,1.87718750e-01
-6.22801250e-07,1.87690625e-01
-6.22761250e-07,1.87704687e-01
-6.22721250e-07,1.87698438e-01
-6.22681250e-07,1.87698438e-01
-6.22641250e-07,1.87704687e-01
-6.22601250e-07,1.87692187e-01
-6.22561250e-07,1.87710938e-01
-6.22521250e-07,1.87685938e-01
-6.22481250e-07,1.87720313e-01
-6.22441250e-07,1.87670313e-01
-6.22401250e-07,1.87756250e-01
-6.22361250e-07,1.87490625e-01
-6.22321250e-07,1.87248438e-01
-6.22281250e-07,1.87326563e-01
-6.22241250e-07,1.87282813e-01
-6.22201250e-07,1.87309375e-01
-6.22161250e-07,1.87295313e-01
-6.22121250e-07,1.87300000e-01
-6.22081250e-07,1.87306250e-01
-6.22041250e-07,1.87282813e-01
-6.22001250e-07,1.87342188e-01
-6.21961250e-07,1.87104688e-01
-6.21921250e-07,1.86834375e-01
-6.21881250e-07,1.86942187e-01
-6.21841250e-07,1.86867188e-01
-6.21801250e-07,1.86928125e-01
-6.21761250e-07,1.86875000e-01
-6.21721250e-07,1.86925000e-01
-6.21681250e-07,1.86875000e-01
-6.21641250e-07,1.86925000e-01
-6.21601250e-07,1.86873438e-01
-6.21561250e-07,1.86931250e-01
-6.21521250e-07,1.86859375e-01
-6.21481250e-07,1.86964063e-01
-6.21441250e-07,1.86682813e-01
-6.21401250e-07,1.86454687e-01
-6.21361250e-07,1.86521875e-01
-6.21321250e-07,1.86485938e-01
-6.21281250e-07,1.86509375e-01
-6.21241250e-07,1.86493750e-01
-6.21201250e-07,1.86504688e-01
-6.21161250e-07,1.86496875e-01
-6.21121250e-07,1.86501562e-01
-6.21081250e-07,1.86498438e-01
-6.21041250e-07,1.86501562e-01
-6.21001250e-07,1.86500000e-01
-6.20961250e-07,1.86500000e-01
-6.20921250e-07,1.86500000e-01
-6.20881250e-07,1.86500000e-01
-6.20841250e-07,1.86500000e-01
-6.20801250e-07,1.86500000e-01
-6.20761250e-07,1.86500000e-01
-6.20721250e-07,1.86500000e-01
-6.20681250e-07,1.86500000e-01
-6.20641250e-07,1.86498438e-01
-6.20601250e-07,1.86501562e-01
-6.20561250e-07,1.86498438e-01
-6.20521250e-07,1.86501562e-01
-6.20481250e-07,1.86498438e-01
-6.20441250e-07,1.86501562e-01
-6.20401250e-07,1.86498438e-01
-6.20361250e-07,1.86501562e-01
-6.20321250e-07,1.86498438e-01
-6.20281250e-07,1.86501562e-01
-6.20241250e-07,1.86498438e-01
-6.20201250e-07,1.86501562e-01
-6.20161250e-07,1.86498438e-01
-6.20121250e-07,1.86501562e-01
-6.20081250e-07,1.86498438e-01
-6.20041250e-07,1.86501562e-01
-6.20001250e-07,1.86498438e-01
-6.19961250e-07,1.86501562e-01
-6.19921250e-07,1.86498438e-01
-6.19881250e-07,1.86501562e-01
-6.19841250e-07,1.86498438e-01
-6.19801250e-07,1.86501562e-01
-6.19761250e-07,1.86498438e-01
-6.19721250e-07,1.86501562e-01
-6.19681250e-07,1.86498438e-01
-6.19641250e-07,1.86501562e-01
-6.19601250e-07,1.86498438e-01
-6.19561250e-07,1.86501562e-01
-6.19521250e-07,1.86498438e-01
-6.19481250e-07,1.86501562e-01
-6.19441250e-07,1.86496875e-01
-6.19401250e-07,1.86503125e-01
-6.19361250e-07,1.86496875e-01
-6.19321250e-07,1.86503125e-01
-6.19281250e-07,1.86496875e-01
-6.19241250e-07,1.86503125e-01
-6.19201250e-07,1.86495313e-01
-6.19161250e-07,1.86504688e-01
-6.19121250e-07,1.86493750e-01
-6.19081250e-07,1.86507813e-01
-6.19041250e-07,1.86490625e-01
-6.19001250e-07,1.86512500e-01
-6.18961250e-07,1.86482813e-01
-6.18921250e-07,1.86525000e-01
-6.18881250e-07,1.86450000e-01
-6.18841250e-07,1.86703125e-01
-6.18801250e-07,1.86960938e-01
-6.18761250e-07,1.86862500e-01
-6.18721250e-07,1.86929687e-01
-6.18681250e-07,1.86873438e-01
-6.18641250e-07,1.86926563e-01
-6.18601250e-07,1.86870312e-01
-6.18561250e-07,1.86937500e-01
-6.18521250e-07,1.86840625e-01
-6.18481250e-07,1.87110938e-01
-6.18441250e-07,1.87353125e-01
-6.18401250e-07,1.87268750e-01
-6.18361250e-07,1.87325000e-01
-6.18321250e-07,1.87276563e-01
-6.18281250e-07,1.87329688e-01
-6.18241250e-07,1.87246875e-01
-6.18201250e-07,1.87503125e-01
-6.18161250e-07,1.87762500e-01
-6.18121250e-07,1.87659375e-01
-6.18081250e-07,1.87735938e-01
-6.18041250e-07,1.87664063e-01
-6.18001250e-07,1.87743750e-01
-6.17961250e-07,1.87632812e-01
-6.17921250e-07,1.87918750e-01
-6.17881250e-07,1.88143750e-01
-6.17841250e-07,1.88081250e-01
-6.17801250e-07,1.88109375e-01
-6.17761250e-07,1.88096875e-01
-6.17721250e-07,1.88098437e-01
-6.17681250e-07,1.88106250e-01
-6.17641250e-07,1.88087500e-01
-6.17601250e-07,1.88123438e-01
-6.17561250e-07,1.88051563e-01
-6.17521250e-07,1.88301563e-01
-6.17481250e-07,1.88559375e-01
-6.17441250e-07,1.88464063e-01
-6.17401250e-07,1.88526562e-01
-6.17361250e-07,1.88478125e-01
-6.17321250e-07,1.88518750e-01
-6.17281250e-07,1.88484375e-01
-6.17241250e-07,1.88514062e-01
-6.17201250e-07,1.88485938e-01
-6.17161250e-07,1.88512500e-01
-6.17121250e-07,1.88487500e-01
-6.17081250e-07,1.88510938e-01
-6.17041250e-07,1.88489062e-01
-6.17001250e-07,1.88510938e-01
-6.16961250e-07,1.88489062e-01
-6.16921250e-07,1.88510938e-01
-6.16881250e-07,1.88489062e-01
-6.16841250e-07,1.88512500e-01
-6.16801250e-07,1.88487500e-01
-6.16761250e-07,1.88514062e-01
-6.16721250e-07,1.88485938e-01
-6.16681250e-07,1.88517188e-01
-6.16641250e-07,1.88481250e-01
-6.16601250e-07,1.88525000e-01
-6.16561250e-07,1.88465625e-01
-6.16521250e-07,1.88557813e-01
-6.16481250e-07,1.88289062e-01
-6.16441250e-07,1.88048437e-01
-6.16401250e-07,1.88128125e-01
-6.16361250e-07,1.88081250e-01
-6.16321250e-07,1.88114063e-01
-6.16281250e-07,1.88089063e-01
-6.16241250e-07,1.88109375e-01
-6.16201250e-07,1.88092188e-01
-6.16161250e-07,1.88106250e-01
-6.16121250e-07,1.88093750e-01
-6.16081250e-07,1.88104688e-01
-6.16041250e-07,1.88095313e-01
-6.16001250e-07,1.88104688e-01
-6.15961250e-07,1.88095313e-01
-6.15921250e-07,1.88104688e-01
-6.15881250e-07,1.88095313e-01
-6.15841250e-07,1.88106250e-01
-6.15801250e-07,1.88093750e-01
-6.15761250e-07,1.88106250e-01
-6.15721250e-07,1.88092188e-01
-6.15681250e-07,1.88109375e-01
-6.15641250e-07,1.88089063e-01
-6.15601250e-07,1.88114063e-01
-6.15561250e-07,1.88081250e-01
-6.15521250e-07,1.88128125e-01
-6.15481250e-07,1.88046875e-01
-6.15441250e-07,1.88306250e-01
-6.15401250e-07,1.88556250e-01
-6.15361250e-07,1.88467188e-01
-6.15321250e-07,1.88523438e-01
-6.15281250e-07,1.88481250e-01
-6.15241250e-07,1.88515625e-01
-6.15201250e-07,1.88485938e-01
-6.15161250e-07,1.88512500e-01
-6.15121250e-07,1.88489062e-01
-6.15081250e-07,1.88510938e-01
-6.15041250e-07,1.88489062e-01
-6.15001250e-07,1.88509375e-01
-6.14961250e-07,1.88490625e-01
-6.14921250e-07,1.88509375e-01
-6.14881250e-07,1.88490625e-01
-6.14841250e-07,1.88509375e-01
-6.14801250e-07,1.88490625e-01
-6.14761250e-07,1.88509375e-01
-6.14721250e-07,1.88490625e-01
-6.14681250e-07,1.88509375e-01
-6.14641250e-07,1.88490625e-01
-6.14601250e-07,1.88509375e-01
-6.14561250e-07,1.88490625e-01
-6.14521250e-07,1.88510938e-01
