dpa/aes_ch1_20250506140506342.csv

Model,MSO66B
Label,
Waveform Type,ANALOG
Horizontal Units,s
Sample Interval,4.00000000e-11
Record Length,25000
Zero Index,6249.03125000
Vertical Units,A
ANALOG_Thumbnail,
yOffset,1.84500000e-01
yPosition,0.00000000e+00

Labels,
TIME,CH1
-2.49961250e-07,1.82405656e-01
-2.49921250e-07,1.82415625e-01
-2.49881250e-07,1.82412000e-01
-2.49841250e-07,1.82409281e-01
-2.49801250e-07,1.82418344e-01
-2.49761250e-07,1.82400219e-01
-2.49721250e-07,1.82439187e-01
-2.49681250e-07,1.82296000e-01
-2.49641250e-07,1.82143750e-01
-2.49601250e-07,1.82201750e-01
-2.49561250e-07,1.82163688e-01
-2.49521250e-07,1.82193594e-01
-2.49481250e-07,1.82168219e-01
-2.49441250e-07,1.82190875e-01
-2.49401250e-07,1.82170031e-01
-2.49361250e-07,1.82189969e-01
-2.49321250e-07,1.82170937e-01
-2.49281250e-07,1.82189062e-01
-2.49241250e-07,1.82170937e-01
-2.49201250e-07,1.82189062e-01
-2.49161250e-07,1.82170031e-01
-2.49121250e-07,1.82189969e-01
-2.49081250e-07,1.82169125e-01
-2.49041250e-07,1.82192688e-01
-2.49001250e-07,1.82164594e-01
-2.48961250e-07,1.82200844e-01
-2.48921250e-07,1.82144656e-01
-2.48881250e-07,1.82303250e-01
-2.48841250e-07,1.82441000e-01
-2.48801250e-07,1.82396594e-01
-2.48761250e-07,1.82421969e-01
-2.48721250e-07,1.82404750e-01
-2.48681250e-07,1.82418344e-01
-2.48641250e-07,1.82406563e-01
-2.48601250e-07,1.82417438e-01
-2.48561250e-07,1.82406563e-01
-2.48521250e-07,1.82418344e-01
-2.48481250e-07,1.82402938e-01
-2.48441250e-07,1.82425594e-01
-2.48401250e-07,1.82383906e-01
-2.48361250e-07,1.82528000e-01
-2.48321250e-07,1.82681156e-01
-2.48281250e-07,1.82619531e-01
-2.48241250e-07,1.82663937e-01
-2.48201250e-07,1.82625875e-01
-2.48161250e-07,1.82663031e-01
-2.48121250e-07,1.82623156e-01
-2.48081250e-07,1.82670281e-01
-2.48041250e-07,1.82603219e-01
-2.48001250e-07,1.82773594e-01
-2.47961250e-07,1.82898656e-01
-2.47921250e-07,1.82867844e-01
-2.47881250e-07,1.82876906e-01
-2.47841250e-07,1.82879625e-01
-2.47801250e-07,1.82867844e-01
-2.47761250e-07,1.82890500e-01
-2.47721250e-07,1.82846094e-01
-2.47681250e-07,1.82995625e-01
-2.47641250e-07,1.83139719e-01
-2.47601250e-07,1.83091687e-01
-2.47561250e-07,1.83117969e-01
-2.47521250e-07,1.83102563e-01
-2.47481250e-07,1.83108906e-01
-2.47441250e-07,1.83114344e-01
-2.47401250e-07,1.83087156e-01
-2.47361250e-07,1.83218562e-01
-2.47321250e-07,1.83381688e-01
-2.47281250e-07,1.83311906e-01
-2.47241250e-07,1.83363562e-01
-2.47201250e-07,1.83318250e-01
-2.47161250e-07,1.83361750e-01
-2.47121250e-07,1.83317344e-01
-2.47081250e-07,1.83367188e-01
-2.47041250e-07,1.83299219e-01
-2.47001250e-07,1.83469594e-01
-2.46961250e-07,1.83595563e-01
-2.46921250e-07,1.83562031e-01
-2.46881250e-07,1.83576531e-01
-2.46841250e-07,1.83570188e-01
-2.46801250e-07,1.83572000e-01
-2.46761250e-07,1.83572906e-01
-2.46721250e-07,1.83570188e-01
-2.46681250e-07,1.83574719e-01
-2.46641250e-07,1.83569281e-01
-2.46601250e-07,1.83575625e-01
-2.46561250e-07,1.83567469e-01
-2.46521250e-07,1.83577437e-01
-2.46481250e-07,1.83566563e-01
-2.46441250e-07,1.83578344e-01
-2.46401250e-07,1.83563844e-01
-2.46361250e-07,1.83581969e-01
-2.46321250e-07,1.83559312e-01
-2.46281250e-07,1.83591031e-01
-2.46241250e-07,1.83538469e-01
-2.46201250e-07,1.83694344e-01
-2.46161250e-07,1.83833906e-01
-2.46121250e-07,1.83787687e-01
-2.46081250e-07,1.83814875e-01
-2.46041250e-07,1.83795844e-01
-2.46001250e-07,1.83810344e-01
-2.45961250e-07,1.83799469e-01
-2.45921250e-07,1.83807625e-01
-2.45881250e-07,1.83801281e-01
-2.45841250e-07,1.83806719e-01
-2.45801250e-07,1.83802187e-01
-2.45761250e-07,1.83804906e-01
-2.45721250e-07,1.83803094e-01
-2.45681250e-07,1.83804906e-01
-2.45641250e-07,1.83804000e-01
-2.45601250e-07,1.83804000e-01
-2.45561250e-07,1.83804906e-01
-2.45521250e-07,1.83802187e-01
-2.45481250e-07,1.83805812e-01
-2.45441250e-07,1.83800375e-01
-2.45401250e-07,1.83808531e-01
-2.45361250e-07,1.83797656e-01
-2.45321250e-07,1.83813062e-01
-2.45281250e-07,1.83789500e-01
-2.45241250e-07,1.83833000e-01
-2.45201250e-07,1.83686187e-01
-2.45161250e-07,1.83537563e-01
-2.45121250e-07,1.83592844e-01
-2.45081250e-07,1.83556594e-01
-2.45041250e-07,1.83584688e-01
-2.45001250e-07,1.83561125e-01
-2.44961250e-07,1.83582875e-01
-2.44921250e-07,1.83562031e-01
-2.44881250e-07,1.83581969e-01
-2.44841250e-07,1.83562031e-01
-2.44801250e-07,1.83582875e-01
-2.44761250e-07,1.83559312e-01
-2.44721250e-07,1.83587406e-01
-2.44681250e-07,1.83552063e-01
-2.44641250e-07,1.83606437e-01
-2.44601250e-07,1.83448750e-01
-2.44561250e-07,1.83311000e-01
-2.44521250e-07,1.83355406e-01
-2.44481250e-07,1.83329125e-01
-2.44441250e-07,1.83348156e-01
-2.44401250e-07,1.83333656e-01
-2.44361250e-07,1.83345437e-01
-2.44321250e-07,1.83335469e-01
-2.44281250e-07,1.83344531e-01
-2.44241250e-07,1.83336375e-01
-2.44201250e-07,1.83343625e-01
-2.44161250e-07,1.83336375e-01
-2.44121250e-07,1.83343625e-01
-2.44081250e-07,1.83336375e-01
-2.44041250e-07,1.83344531e-01
-2.44001250e-07,1.83335469e-01
-2.43961250e-07,1.83345437e-01
-2.43921250e-07,1.83333656e-01
-2.43881250e-07,1.83348156e-01
-2.43841250e-07,1.83329125e-01
-2.43801250e-07,1.83356313e-01
-2.43761250e-07,1.83310094e-01
-2.43721250e-07,1.83458719e-01
-2.43681250e-07,1.83605531e-01
-2.43641250e-07,1.83551156e-01
-2.43601250e-07,1.83587406e-01
-2.43561250e-07,1.83558406e-01
-2.43521250e-07,1.83585594e-01
-2.43481250e-07,1.83556594e-01
-2.43441250e-07,1.83591031e-01
-2.43401250e-07,1.83539375e-01
-2.43361250e-07,1.83692531e-01
-2.43321250e-07,1.83836625e-01
-2.43281250e-07,1.83783156e-01
-2.43241250e-07,1.83821219e-01
-2.43201250e-07,1.83786781e-01
-2.43161250e-07,1.83825750e-01
-2.43121250e-07,1.83769563e-01
-2.43081250e-07,1.83927250e-01
-2.43041250e-07,1.84065906e-01
-2.43001250e-07,1.84019688e-01
-2.42961250e-07,1.84046875e-01
-2.42921250e-07,1.84026937e-01
-2.42881250e-07,1.84043250e-01
-2.42841250e-07,1.84029656e-01
-2.42801250e-07,1.84041437e-01
-2.42761250e-07,1.84030562e-01
-2.42721250e-07,1.84040531e-01
-2.42681250e-07,1.84031469e-01
-2.42641250e-07,1.84040531e-01
-2.42601250e-07,1.84032375e-01
-2.42561250e-07,1.84039625e-01
-2.42521250e-07,1.84032375e-01
-2.42481250e-07,1.84039625e-01
-2.42441250e-07,1.84032375e-01
-2.42401250e-07,1.84039625e-01
-2.42361250e-07,1.84032375e-01
-2.42321250e-07,1.84039625e-01
-2.42281250e-07,1.84031469e-01
-2.42241250e-07,1.84040531e-01
-2.42201250e-07,1.84031469e-01
-2.42161250e-07,1.84040531e-01
-2.42121250e-07,1.84030562e-01
-2.42081250e-07,1.84042344e-01
-2.42041250e-07,1.84029656e-01
-2.42001250e-07,1.84043250e-01
-2.41961250e-07,1.84026937e-01
-2.41921250e-07,1.84047781e-01
-2.41881250e-07,1.84018781e-01
-2.41841250e-07,1.84067719e-01
-2.41801250e-07,1.83915469e-01
-2.41761250e-07,1.83771375e-01
-2.41721250e-07,1.83823031e-01
-2.41681250e-07,1.83789500e-01
-2.41641250e-07,1.83816687e-01
-2.41601250e-07,1.83792219e-01
-2.41561250e-07,1.83817594e-01
-2.41521250e-07,1.83785875e-01
-2.41481250e-07,1.83835719e-01
-2.41441250e-07,1.83684375e-01
-2.41401250e-07,1.83538469e-01
-2.41361250e-07,1.83592844e-01
-2.41321250e-07,1.83555688e-01
-2.41281250e-07,1.83587406e-01
-2.41241250e-07,1.83556594e-01
-2.41201250e-07,1.83590125e-01
-2.41161250e-07,1.83549344e-01
-2.41121250e-07,1.83609156e-01
-2.41081250e-07,1.83446937e-01
-2.41041250e-07,1.83313719e-01
-2.41001250e-07,1.83352688e-01
-2.40961250e-07,1.83332750e-01
-2.40921250e-07,1.83343625e-01
-2.40881250e-07,1.83338187e-01
-2.40841250e-07,1.83340000e-01
-2.40801250e-07,1.83341813e-01
-2.40761250e-07,1.83335469e-01
-2.40721250e-07,1.83348156e-01
-2.40681250e-07,1.83326406e-01
-2.40641250e-07,1.83368094e-01
-2.40601250e-07,1.83222187e-01
-2.40561250e-07,1.83073563e-01
-2.40521250e-07,1.83128844e-01
-2.40481250e-07,1.83092594e-01
-2.40441250e-07,1.83119781e-01
-2.40401250e-07,1.83098031e-01
-2.40361250e-07,1.83117063e-01
-2.40321250e-07,1.83099844e-01
-2.40281250e-07,1.83115250e-01
-2.40241250e-07,1.83101656e-01
-2.40201250e-07,1.83114344e-01
-2.40161250e-07,1.83101656e-01
-2.40121250e-07,1.83113438e-01
-2.40081250e-07,1.83102563e-01
-2.40041250e-07,1.83113438e-01
-2.40001250e-07,1.83102563e-01
-2.39961250e-07,1.83113438e-01
-2.39921250e-07,1.83103469e-01
-2.39881250e-07,1.83112531e-01
-2.39841250e-07,1.83103469e-01
-2.39801250e-07,1.83112531e-01
-2.39761250e-07,1.83103469e-01
-2.39721250e-07,1.83112531e-01
-2.39681250e-07,1.83103469e-01
-2.39641250e-07,1.83112531e-01
-2.39601250e-07,1.83103469e-01
-2.39561250e-07,1.83112531e-01
-2.39521250e-07,1.83103469e-01
-2.39481250e-07,1.83112531e-01
-2.39441250e-07,1.83103469e-01
-2.39401250e-07,1.83112531e-01
-2.39361250e-07,1.83103469e-01
-2.39321250e-07,1.83112531e-01
-2.39281250e-07,1.83103469e-01
-2.39241250e-07,1.83112531e-01
-2.39201250e-07,1.83103469e-01
-2.39161250e-07,1.83113438e-01
-2.39121250e-07,1.83102563e-01
-2.39081250e-07,1.83113438e-01
-2.39041250e-07,1.83102563e-01
-2.39001250e-07,1.83113438e-01
-2.38961250e-07,1.83101656e-01
-2.38921250e-07,1.83114344e-01
-2.38881250e-07,1.83101656e-01
-2.38841250e-07,1.83115250e-01
-2.38801250e-07,1.83100750e-01
-2.38761250e-07,1.83116156e-01
-2.38721250e-07,1.83098938e-01
-2.38681250e-07,1.83117969e-01
-2.38641250e-07,1.83096219e-01
-2.38601250e-07,1.83122500e-01
-2.38561250e-07,1.83088063e-01
-2.38521250e-07,1.83142438e-01
-2.38481250e-07,1.82984750e-01
-2.38441250e-07,1.82847000e-01
-2.38401250e-07,1.82891406e-01
-2.38361250e-07,1.82865125e-01
-2.38321250e-07,1.82885063e-01
-2.38281250e-07,1.82867844e-01
-2.38241250e-07,1.82885969e-01
-2.38201250e-07,1.82862406e-01
-2.38161250e-07,1.82903188e-01
-2.38121250e-07,1.82761813e-01
-2.38081250e-07,1.82604125e-01
-2.38041250e-07,1.82671187e-01
-2.38001250e-07,1.82619531e-01
-2.37961250e-07,1.82669375e-01
-2.37921250e-07,1.82614094e-01
-2.37881250e-07,1.82687500e-01
-2.37841250e-07,1.82511687e-01
-2.37801250e-07,1.82392969e-01
-2.37761250e-07,1.82416531e-01
-2.37721250e-07,1.82413812e-01
-2.37681250e-07,1.82405656e-01
-2.37641250e-07,1.82423781e-01
-2.37601250e-07,1.82393875e-01
-2.37561250e-07,1.82446438e-01
-2.37521250e-07,1.82287844e-01
-2.37481250e-07,1.82152813e-01
-2.37441250e-07,1.82191781e-01
-2.37401250e-07,1.82175469e-01
-2.37361250e-07,1.82180000e-01
-2.37321250e-07,1.82185437e-01
-2.37281250e-07,1.82167313e-01
-2.37241250e-07,1.82208094e-01
-2.37201250e-07,1.82062188e-01
-2.37161250e-07,1.81914469e-01
-2.37121250e-07,1.81966125e-01
-2.37081250e-07,1.81936219e-01
-2.37041250e-07,1.81956156e-01
-2.37001250e-07,1.81942562e-01
-2.36961250e-07,1.81951625e-01
-2.36921250e-07,1.81947094e-01
-2.36881250e-07,1.81946187e-01
-2.36841250e-07,1.81953438e-01
-2.36801250e-07,1.81936219e-01
-2.36761250e-07,1.81974281e-01
-2.36721250e-07,1.81832000e-01
-2.36681250e-07,1.81679750e-01
-2.36641250e-07,1.81737750e-01
-2.36601250e-07,1.81699687e-01
-2.36561250e-07,1.81728687e-01
-2.36521250e-07,1.81705125e-01
-2.36481250e-07,1.81725063e-01
-2.36441250e-07,1.81707844e-01
-2.36401250e-07,1.81723250e-01
-2.36361250e-07,1.81709656e-01
-2.36321250e-07,1.81721437e-01
-2.36281250e-07,1.81711469e-01
-2.36241250e-07,1.81720531e-01
-2.36201250e-07,1.81712375e-01
-2.36161250e-07,1.81718719e-01
-2.36121250e-07,1.81713281e-01
-2.36081250e-07,1.81717812e-01
-2.36041250e-07,1.81715094e-01
-2.36001250e-07,1.81716000e-01
-2.35961250e-07,1.81716906e-01
-2.35921250e-07,1.81713281e-01
-2.35881250e-07,1.81720531e-01
-2.35841250e-07,1.81708750e-01
-2.35801250e-07,1.81729594e-01
-2.35761250e-07,1.81687906e-01
-2.35721250e-07,1.81833812e-01
-2.35681250e-07,1.81982438e-01
-2.35641250e-07,1.81928062e-01
-2.35601250e-07,1.81961594e-01
-2.35561250e-07,1.81938938e-01
-2.35521250e-07,1.81953438e-01
-2.35481250e-07,1.81948906e-01
-2.35441250e-07,1.81932594e-01
-2.35401250e-07,1.82051313e-01
-2.35361250e-07,1.82229844e-01
-2.35321250e-07,1.82141031e-01
-2.35281250e-07,1.82218969e-01
-2.35241250e-07,1.82128344e-01
-2.35201250e-07,1.82319563e-01
-2.35161250e-07,1.82423781e-01
-2.35121250e-07,1.82417438e-01
-2.35081250e-07,1.82388438e-01
-2.35041250e-07,1.82525281e-01
-2.35001250e-07,1.82683875e-01
-2.34961250e-07,1.82615906e-01
-2.34921250e-07,1.82673000e-01
-2.34881250e-07,1.82603219e-01
-2.34841250e-07,1.82772688e-01
-2.34801250e-07,1.82897750e-01
-2.34761250e-07,1.82872375e-01
-2.34721250e-07,1.82861500e-01
-2.34681250e-07,1.82980219e-01
-2.34641250e-07,1.83156031e-01
-2.34601250e-07,1.83071750e-01
-2.34561250e-07,1.83144250e-01
-2.34521250e-07,1.83060875e-01
-2.34481250e-07,1.83241219e-01
-2.34441250e-07,1.83360844e-01
-2.34401250e-07,1.83331844e-01
-2.34361250e-07,1.83344531e-01
-2.34321250e-07,1.83337281e-01
-2.34281250e-07,1.83342719e-01
-2.34241250e-07,1.83335469e-01
-2.34201250e-07,1.83349062e-01
-2.34161250e-07,1.83317344e-01
-2.34121250e-07,1.83450562e-01
-2.34081250e-07,1.83614594e-01
-2.34041250e-07,1.83542094e-01
-2.34001250e-07,1.83597375e-01
-2.33961250e-07,1.83546625e-01
-2.33921250e-07,1.83598281e-01
-2.33881250e-07,1.83540281e-01
-2.33841250e-07,1.83617312e-01
-2.33801250e-07,1.83437875e-01
-2.33761250e-07,1.83321875e-01
-2.33721250e-07,1.83343625e-01
-2.33681250e-07,1.83341813e-01
-2.33641250e-07,1.83333656e-01
-2.33601250e-07,1.83349062e-01
-2.33561250e-07,1.83328219e-01
-2.33521250e-07,1.83356313e-01
-2.33481250e-07,1.83317344e-01
-2.33441250e-07,1.83378062e-01
-2.33401250e-07,1.83211313e-01
-2.33361250e-07,1.83086250e-01
-2.33321250e-07,1.83114344e-01
-2.33281250e-07,1.83110719e-01
-2.33241250e-07,1.83096219e-01
-2.33201250e-07,1.83136094e-01
-2.33161250e-07,1.82989281e-01
-2.33121250e-07,1.82845188e-01
-2.33081250e-07,1.82891406e-01
-2.33041250e-07,1.82869656e-01
-2.33001250e-07,1.82874188e-01
-2.32961250e-07,1.82894125e-01
-2.32921250e-07,1.82769062e-01
-2.32881250e-07,1.82599594e-01
-2.32841250e-07,1.82675719e-01
-2.32801250e-07,1.82616813e-01
-2.32761250e-07,1.82670281e-01
-2.32721250e-07,1.82614094e-01
-2.32681250e-07,1.82687500e-01
-2.32641250e-07,1.82512594e-01
-2.32601250e-07,1.82390250e-01
-2.32561250e-07,1.82420156e-01
-2.32521250e-07,1.82409281e-01
-2.32481250e-07,1.82411094e-01
-2.32441250e-07,1.82414719e-01
-2.32401250e-07,1.82406563e-01
-2.32361250e-07,1.82421063e-01
-2.32321250e-07,1.82397500e-01
-2.32281250e-07,1.82441000e-01
-2.32241250e-07,1.82294188e-01
-2.32201250e-07,1.82146469e-01
-2.32161250e-07,1.82199937e-01
-2.32121250e-07,1.82165500e-01
-2.32081250e-07,1.82191781e-01
-2.32041250e-07,1.82170031e-01
-2.32001250e-07,1.82189062e-01
-2.31961250e-07,1.82170937e-01
-2.31921250e-07,1.82188156e-01
-2.31881250e-07,1.82171844e-01
-2.31841250e-07,1.82188156e-01
-2.31801250e-07,1.82171844e-01
-2.31761250e-07,1.82188156e-01
-2.31721250e-07,1.82171844e-01
-2.31681250e-07,1.82188156e-01
-2.31641250e-07,1.82170937e-01
-2.31601250e-07,1.82189062e-01
-2.31561250e-07,1.82170031e-01
-2.31521250e-07,1.82190875e-01
-2.31481250e-07,1.82168219e-01
-2.31441250e-07,1.82193594e-01
-2.31401250e-07,1.82162781e-01
-2.31361250e-07,1.82202656e-01
-2.31321250e-07,1.82142844e-01
-2.31281250e-07,1.82306875e-01
-2.31241250e-07,1.82437375e-01
-2.31201250e-07,1.82401125e-01
-2.31161250e-07,1.82416531e-01
-2.31121250e-07,1.82411094e-01
-2.31081250e-07,1.82409281e-01
-2.31041250e-07,1.82417438e-01
-2.31001250e-07,1.82402031e-01
-2.30961250e-07,1.82428312e-01
-2.30921250e-07,1.82381187e-01
-2.30881250e-07,1.82532531e-01
-2.30841250e-07,1.82674813e-01
-2.30801250e-07,1.82628594e-01
-2.30761250e-07,1.82653062e-01
-2.30721250e-07,1.82639469e-01
-2.30681250e-07,1.82644000e-01
-2.30641250e-07,1.82651250e-01
-2.30601250e-07,1.82622250e-01
-2.30561250e-07,1.82755469e-01
-2.30521250e-07,1.82916781e-01
-2.30481250e-07,1.82848812e-01
-2.30441250e-07,1.82898656e-01
-2.30401250e-07,1.82856062e-01
-2.30361250e-07,1.82895937e-01
-2.30321250e-07,1.82854250e-01
-2.30281250e-07,1.82902281e-01
-2.30241250e-07,1.82836125e-01
-2.30201250e-07,1.83003781e-01
-2.30161250e-07,1.83133375e-01
-2.30121250e-07,1.83096219e-01
-2.30081250e-07,1.83114344e-01
-2.30041250e-07,1.83104375e-01
-2.30001250e-07,1.83110719e-01
-2.29961250e-07,1.83106187e-01
-2.29921250e-07,1.83108906e-01
-2.29881250e-07,1.83107094e-01
-2.29841250e-07,1.83108000e-01
-2.29801250e-07,1.83108000e-01
-2.29761250e-07,1.83108000e-01
-2.29721250e-07,1.83108000e-01
-2.29681250e-07,1.83108000e-01
-2.29641250e-07,1.83108906e-01
-2.29601250e-07,1.83107094e-01
-2.29561250e-07,1.83108906e-01
-2.29521250e-07,1.83107094e-01
-2.29481250e-07,1.83108906e-01
-2.29441250e-07,1.83107094e-01
-2.29401250e-07,1.83108906e-01
-2.29361250e-07,1.83107094e-01
-2.29321250e-07,1.83108906e-01
-2.29281250e-07,1.83107094e-01
-2.29241250e-07,1.83109812e-01
-2.29201250e-07,1.83106187e-01
-2.29161250e-07,1.83109812e-01
-2.29121250e-07,1.83106187e-01
-2.29081250e-07,1.83110719e-01
-2.29041250e-07,1.83104375e-01
-2.29001250e-07,1.83112531e-01
-2.28961250e-07,1.83101656e-01
-2.28921250e-07,1.83116156e-01
-2.28881250e-07,1.83094406e-01
-2.28841250e-07,1.83136094e-01
-2.28801250e-07,1.82992000e-01
-2.28761250e-07,1.82839750e-01
-2.28721250e-07,1.82899563e-01
-2.28681250e-07,1.82856969e-01
-2.28641250e-07,1.82894125e-01
-2.28601250e-07,1.82857875e-01
-2.28561250e-07,1.82895937e-01
-2.28521250e-07,1.82850625e-01
-2.28481250e-07,1.82914969e-01
-2.28441250e-07,1.82747313e-01
-2.28401250e-07,1.82620438e-01
-2.28361250e-07,1.82652156e-01
-2.28321250e-07,1.82644000e-01
-2.28281250e-07,1.82636750e-01
-2.28241250e-07,1.82666656e-01
-2.28201250e-07,1.82532531e-01
-2.28161250e-07,1.82370312e-01
-2.28121250e-07,1.82441906e-01
-2.28081250e-07,1.82383000e-01
-2.28041250e-07,1.82451875e-01
-2.28001250e-07,1.82286937e-01
-2.27961250e-07,1.82150094e-01
-2.27921250e-07,1.82199031e-01
-2.27881250e-07,1.82160062e-01
-2.27841250e-07,1.82211719e-01
-2.27801250e-07,1.82062188e-01
-2.27761250e-07,1.81911750e-01
-2.27721250e-07,1.81973375e-01
-2.27681250e-07,1.81922625e-01
-2.27641250e-07,1.81985156e-01
-2.27601250e-07,1.81824750e-01
-2.27561250e-07,1.81684281e-01
-2.27521250e-07,1.81736844e-01
-2.27481250e-07,1.81694250e-01
-2.27441250e-07,1.81748625e-01
-2.27401250e-07,1.81596375e-01
-2.27361250e-07,1.81449562e-01
-2.27321250e-07,1.81505750e-01
-2.27281250e-07,1.81464969e-01
-2.27241250e-07,1.81503031e-01
-2.27201250e-07,1.81460437e-01
-2.27161250e-07,1.81521156e-01
-2.27121250e-07,1.81358937e-01
-2.27081250e-07,1.81223906e-01
-2.27041250e-07,1.81266500e-01
-2.27001250e-07,1.81242938e-01
-2.26961250e-07,1.81258344e-01
-2.26921250e-07,1.81246562e-01
-2.26881250e-07,1.81255625e-01
-2.26841250e-07,1.81248375e-01
-2.26801250e-07,1.81254719e-01
-2.26761250e-07,1.81249281e-01
-2.26721250e-07,1.81253812e-01
-2.26681250e-07,1.81250187e-01
-2.26641250e-07,1.81253812e-01
-2.26601250e-07,1.81250187e-01
-2.26561250e-07,1.81253812e-01
-2.26521250e-07,1.81250187e-01
-2.26481250e-07,1.81253812e-01
-2.26441250e-07,1.81251094e-01
-2.26401250e-07,1.81252906e-01
-2.26361250e-07,1.81251094e-01
-2.26321250e-07,1.81252906e-01
-2.26281250e-07,1.81251094e-01
-2.26241250e-07,1.81252906e-01
-2.26201250e-07,1.81251094e-01
-2.26161250e-07,1.81252906e-01
-2.26121250e-07,1.81251094e-01
-2.26081250e-07,1.81252906e-01
-2.26041250e-07,1.81251094e-01
-2.26001250e-07,1.81252906e-01
-2.25961250e-07,1.81251094e-01
-2.25921250e-07,1.81252906e-01
-2.25881250e-07,1.81251094e-01
-2.25841250e-07,1.81252906e-01
-2.25801250e-07,1.81251094e-01
-2.25761250e-07,1.81252906e-01
-2.25721250e-07,1.81251094e-01
-2.25681250e-07,1.81252906e-01
-2.25641250e-07,1.81251094e-01
-2.25601250e-07,1.81252906e-01
-2.25561250e-07,1.81251094e-01
-2.25521250e-07,1.81253812e-01
-2.25481250e-07,1.81250187e-01
-2.25441250e-07,1.81253812e-01
-2.25401250e-07,1.81250187e-01
-2.25361250e-07,1.81253812e-01
-2.25321250e-07,1.81250187e-01
-2.25281250e-07,1.81253812e-01
-2.25241250e-07,1.81250187e-01
-2.25201250e-07,1.81253812e-01
-2.25161250e-07,1.81250187e-01
-2.25121250e-07,1.81253812e-01
-2.25081250e-07,1.81249281e-01
-2.25041250e-07,1.81254719e-01
-2.25001250e-07,1.81249281e-01
-2.24961250e-07,1.81254719e-01
-2.24921250e-07,1.81248375e-01
-2.24881250e-07,1.81255625e-01
-2.24841250e-07,1.81248375e-01
-2.24801250e-07,1.81256531e-01
-2.24761250e-07,1.81246562e-01
-2.24721250e-07,1.81258344e-01
-2.24681250e-07,1.81244750e-01
-2.24641250e-07,1.81261062e-01
-2.24601250e-07,1.81240219e-01
-2.24561250e-07,1.81269219e-01
-2.24521250e-07,1.81220281e-01
