dpa/aes_ch1_20250506140523253.csv

Model,MSO66B
Label,
Waveform Type,ANALOG
Horizontal Units,s
Sample Interval,4.00000000e-11
Record Length,25000
Zero Index,6249.03125000
Vertical Units,A
ANALOG_Thumbnail,
yOffset,1.84500000e-01
yPosition,0.00000000e+00

Labels,
TIME,CH1
-2.49961250e-07,1.73816219e-01
-2.49921250e-07,1.73840688e-01
-2.49881250e-07,1.73813500e-01
-2.49841250e-07,1.73846125e-01
-2.49801250e-07,1.73804437e-01
-2.49761250e-07,1.73866063e-01
-2.49721250e-07,1.73700219e-01
-2.49681250e-07,1.73571531e-01
-2.49641250e-07,1.73605969e-01
-2.49601250e-07,1.73591469e-01
-2.49561250e-07,1.73596906e-01
-2.49521250e-07,1.73598719e-01
-2.49481250e-07,1.73590562e-01
-2.49441250e-07,1.73605062e-01
-2.49401250e-07,1.73580594e-01
-2.49361250e-07,1.73625906e-01
-2.49321250e-07,1.73476375e-01
-2.49281250e-07,1.73331375e-01
-2.49241250e-07,1.73382125e-01
-2.49201250e-07,1.73351312e-01
-2.49161250e-07,1.73373969e-01
-2.49121250e-07,1.73355844e-01
-2.49081250e-07,1.73370344e-01
-2.49041250e-07,1.73358563e-01
-2.49001250e-07,1.73369438e-01
-2.48961250e-07,1.73359469e-01
-2.48921250e-07,1.73367625e-01
-2.48881250e-07,1.73360375e-01
-2.48841250e-07,1.73367625e-01
-2.48801250e-07,1.73361281e-01
-2.48761250e-07,1.73366719e-01
-2.48721250e-07,1.73361281e-01
-2.48681250e-07,1.73366719e-01
-2.48641250e-07,1.73361281e-01
-2.48601250e-07,1.73365812e-01
-2.48561250e-07,1.73362187e-01
-2.48521250e-07,1.73365812e-01
-2.48481250e-07,1.73362187e-01
-2.48441250e-07,1.73365812e-01
-2.48401250e-07,1.73362187e-01
-2.48361250e-07,1.73365812e-01
-2.48321250e-07,1.73362187e-01
-2.48281250e-07,1.73365812e-01
-2.48241250e-07,1.73362187e-01
-2.48201250e-07,1.73365812e-01
-2.48161250e-07,1.73362187e-01
-2.48121250e-07,1.73365812e-01
-2.48081250e-07,1.73363094e-01
-2.48041250e-07,1.73364906e-01
-2.48001250e-07,1.73363094e-01
-2.47961250e-07,1.73364906e-01
-2.47921250e-07,1.73363094e-01
-2.47881250e-07,1.73364906e-01
-2.47841250e-07,1.73363094e-01
-2.47801250e-07,1.73364906e-01
-2.47761250e-07,1.73363094e-01
-2.47721250e-07,1.73365812e-01
-2.47681250e-07,1.73362187e-01
-2.47641250e-07,1.73364906e-01
-2.47601250e-07,1.73362187e-01
-2.47561250e-07,1.73365812e-01
-2.47521250e-07,1.73362187e-01
-2.47481250e-07,1.73365812e-01
-2.47441250e-07,1.73362187e-01
-2.47401250e-07,1.73365812e-01
-2.47361250e-07,1.73362187e-01
-2.47321250e-07,1.73365812e-01
-2.47281250e-07,1.73362187e-01
-2.47241250e-07,1.73365812e-01
-2.47201250e-07,1.73362187e-01
-2.47161250e-07,1.73365812e-01
-2.47121250e-07,1.73362187e-01
-2.47081250e-07,1.73365812e-01
-2.47041250e-07,1.73361281e-01
-2.47001250e-07,1.73366719e-01
-2.46961250e-07,1.73361281e-01
-2.46921250e-07,1.73366719e-01
-2.46881250e-07,1.73360375e-01
-2.46841250e-07,1.73367625e-01
-2.46801250e-07,1.73360375e-01
-2.46761250e-07,1.73368531e-01
-2.46721250e-07,1.73358563e-01
-2.46681250e-07,1.73370344e-01
-2.46641250e-07,1.73356750e-01
-2.46601250e-07,1.73373063e-01
-2.46561250e-07,1.73352219e-01
-2.46521250e-07,1.73381219e-01
-2.46481250e-07,1.73332281e-01
-2.46441250e-07,1.73484531e-01
-2.46401250e-07,1.73627719e-01
-2.46361250e-07,1.73578781e-01
-2.46321250e-07,1.73607781e-01
-2.46281250e-07,1.73586938e-01
-2.46241250e-07,1.73603250e-01
-2.46201250e-07,1.73589656e-01
-2.46161250e-07,1.73601438e-01
-2.46121250e-07,1.73591469e-01
-2.46081250e-07,1.73600531e-01
-2.46041250e-07,1.73592375e-01
-2.46001250e-07,1.73599625e-01
-2.45961250e-07,1.73592375e-01
-2.45921250e-07,1.73598719e-01
-2.45881250e-07,1.73593281e-01
-2.45841250e-07,1.73598719e-01
-2.45801250e-07,1.73593281e-01
-2.45761250e-07,1.73598719e-01
-2.45721250e-07,1.73593281e-01
-2.45681250e-07,1.73597813e-01
-2.45641250e-07,1.73594187e-01
-2.45601250e-07,1.73597813e-01
-2.45561250e-07,1.73594187e-01
-2.45521250e-07,1.73597813e-01
-2.45481250e-07,1.73594187e-01
-2.45441250e-07,1.73597813e-01
-2.45401250e-07,1.73594187e-01
-2.45361250e-07,1.73597813e-01
-2.45321250e-07,1.73594187e-01
-2.45281250e-07,1.73597813e-01
-2.45241250e-07,1.73594187e-01
-2.45201250e-07,1.73597813e-01
-2.45161250e-07,1.73593281e-01
-2.45121250e-07,1.73598719e-01
-2.45081250e-07,1.73593281e-01
-2.45041250e-07,1.73598719e-01
-2.45001250e-07,1.73592375e-01
-2.44961250e-07,1.73600531e-01
-2.44921250e-07,1.73590562e-01
-2.44881250e-07,1.73603250e-01
-2.44841250e-07,1.73586031e-01
-2.44801250e-07,1.73610500e-01
-2.44761250e-07,1.73567000e-01
-2.44721250e-07,1.73713813e-01
-2.44681250e-07,1.73863344e-01
-2.44641250e-07,1.73806250e-01
-2.44601250e-07,1.73845219e-01
-2.44561250e-07,1.73813500e-01
-2.44521250e-07,1.73842500e-01
-2.44481250e-07,1.73813500e-01
-2.44441250e-07,1.73843406e-01
-2.44401250e-07,1.73809875e-01
-2.44361250e-07,1.73851563e-01
-2.44321250e-07,1.73790844e-01
-2.44281250e-07,1.73953969e-01
-2.44241250e-07,1.74085375e-01
-2.44201250e-07,1.74048219e-01
-2.44161250e-07,1.74065438e-01
-2.44121250e-07,1.74058187e-01
-2.44081250e-07,1.74059094e-01
-2.44041250e-07,1.74063625e-01
-2.44001250e-07,1.74052750e-01
-2.43961250e-07,1.74073594e-01
-2.43921250e-07,1.74031906e-01
-2.43881250e-07,1.74177813e-01
-2.43841250e-07,1.74326437e-01
-2.43801250e-07,1.74272062e-01
-2.43761250e-07,1.74306500e-01
-2.43721250e-07,1.74280219e-01
-2.43681250e-07,1.74301969e-01
-2.43641250e-07,1.74282938e-01
-2.43601250e-07,1.74300156e-01
-2.43561250e-07,1.74284750e-01
-2.43521250e-07,1.74298344e-01
-2.43481250e-07,1.74285656e-01
-2.43441250e-07,1.74297437e-01
-2.43401250e-07,1.74286562e-01
-2.43361250e-07,1.74297437e-01
-2.43321250e-07,1.74286562e-01
-2.43281250e-07,1.74296531e-01
-2.43241250e-07,1.74287469e-01
-2.43201250e-07,1.74296531e-01
-2.43161250e-07,1.74287469e-01
-2.43121250e-07,1.74296531e-01
-2.43081250e-07,1.74287469e-01
-2.43041250e-07,1.74296531e-01
-2.43001250e-07,1.74287469e-01
-2.42961250e-07,1.74296531e-01
-2.42921250e-07,1.74286562e-01
-2.42881250e-07,1.74297437e-01
-2.42841250e-07,1.74286562e-01
-2.42801250e-07,1.74298344e-01
-2.42761250e-07,1.74284750e-01
-2.42721250e-07,1.74300156e-01
-2.42681250e-07,1.74282031e-01
-2.42641250e-07,1.74304687e-01
-2.42601250e-07,1.74273875e-01
-2.42561250e-07,1.74323719e-01
-2.42521250e-07,1.74171469e-01
-2.42481250e-07,1.74028281e-01
-2.42441250e-07,1.74078125e-01
-2.42401250e-07,1.74046406e-01
-2.42361250e-07,1.74070875e-01
-2.42321250e-07,1.74050031e-01
-2.42281250e-07,1.74069063e-01
-2.42241250e-07,1.74050938e-01
-2.42201250e-07,1.74069969e-01
-2.42161250e-07,1.74049125e-01
-2.42121250e-07,1.74073594e-01
-2.42081250e-07,1.74040969e-01
-2.42041250e-07,1.74092625e-01
-2.42001250e-07,1.73938563e-01
-2.41961250e-07,1.73797188e-01
-2.41921250e-07,1.73845219e-01
-2.41881250e-07,1.73816219e-01
-2.41841250e-07,1.73837063e-01
-2.41801250e-07,1.73820750e-01
-2.41761250e-07,1.73834344e-01
-2.41721250e-07,1.73822562e-01
-2.41681250e-07,1.73833437e-01
-2.41641250e-07,1.73823469e-01
-2.41601250e-07,1.73832531e-01
-2.41561250e-07,1.73823469e-01
-2.41521250e-07,1.73832531e-01
-2.41481250e-07,1.73823469e-01
-2.41441250e-07,1.73831625e-01
-2.41401250e-07,1.73824375e-01
-2.41361250e-07,1.73831625e-01
-2.41321250e-07,1.73823469e-01
-2.41281250e-07,1.73832531e-01
-2.41241250e-07,1.73823469e-01
-2.41201250e-07,1.73832531e-01
-2.41161250e-07,1.73823469e-01
-2.41121250e-07,1.73833437e-01
-2.41081250e-07,1.73822562e-01
-2.41041250e-07,1.73834344e-01
-2.41001250e-07,1.73820750e-01
-2.40961250e-07,1.73837063e-01
-2.40921250e-07,1.73816219e-01
-2.40881250e-07,1.73846125e-01
-2.40841250e-07,1.73796281e-01
-2.40801250e-07,1.73948531e-01
-2.40761250e-07,1.74091719e-01
-2.40721250e-07,1.74041875e-01
-2.40681250e-07,1.74072687e-01
-2.40641250e-07,1.74050031e-01
-2.40601250e-07,1.74068156e-01
-2.40561250e-07,1.74052750e-01
-2.40521250e-07,1.74066344e-01
-2.40481250e-07,1.74053656e-01
-2.40441250e-07,1.74065438e-01
-2.40401250e-07,1.74054563e-01
-2.40361250e-07,1.74065438e-01
-2.40321250e-07,1.74053656e-01
-2.40281250e-07,1.74066344e-01
-2.40241250e-07,1.74053656e-01
-2.40201250e-07,1.74067250e-01
-2.40161250e-07,1.74051844e-01
-2.40121250e-07,1.74069063e-01
-2.40081250e-07,1.74049125e-01
-2.40041250e-07,1.74073594e-01
-2.40001250e-07,1.74040063e-01
-2.39961250e-07,1.74094438e-01
-2.39921250e-07,1.73936750e-01
-2.39881250e-07,1.73799000e-01
-2.39841250e-07,1.73842500e-01
-2.39801250e-07,1.73818937e-01
-2.39761250e-07,1.73834344e-01
-2.39721250e-07,1.73824375e-01
-2.39681250e-07,1.73829812e-01
-2.39641250e-07,1.73827094e-01
-2.39601250e-07,1.73827094e-01
-2.39561250e-07,1.73830719e-01
-2.39521250e-07,1.73823469e-01
-2.39481250e-07,1.73836156e-01
-2.39441250e-07,1.73813500e-01
-2.39401250e-07,1.73857000e-01
-2.39361250e-07,1.73709281e-01
-2.39321250e-07,1.73563375e-01
-2.39281250e-07,1.73614125e-01
-2.39241250e-07,1.73584219e-01
-2.39201250e-07,1.73603250e-01
-2.39161250e-07,1.73593281e-01
-2.39121250e-07,1.73592375e-01
-2.39081250e-07,1.73614125e-01
-2.39041250e-07,1.73488156e-01
-2.39001250e-07,1.73319594e-01
-2.38961250e-07,1.73394812e-01
-2.38921250e-07,1.73337719e-01
-2.38881250e-07,1.73388469e-01
-2.38841250e-07,1.73339531e-01
-2.38801250e-07,1.73390281e-01
-2.38761250e-07,1.73333187e-01
-2.38721250e-07,1.73408406e-01
-2.38681250e-07,1.73230781e-01
-2.38641250e-07,1.73112969e-01
-2.38601250e-07,1.73136531e-01
-2.38561250e-07,1.73132906e-01
-2.38521250e-07,1.73127469e-01
-2.38481250e-07,1.73139250e-01
-2.38441250e-07,1.73122031e-01
-2.38401250e-07,1.73145594e-01
-2.38361250e-07,1.73112969e-01
-2.38321250e-07,1.73166437e-01
-2.38281250e-07,1.73008750e-01
-2.38241250e-07,1.72871000e-01
-2.38201250e-07,1.72914500e-01
-2.38161250e-07,1.72890938e-01
-2.38121250e-07,1.72906344e-01
-2.38081250e-07,1.72895469e-01
-2.38041250e-07,1.72902719e-01
-2.38001250e-07,1.72898187e-01
-2.37961250e-07,1.72901813e-01
-2.37921250e-07,1.72899094e-01
-2.37881250e-07,1.72900000e-01
-2.37841250e-07,1.72900000e-01
-2.37801250e-07,1.72900000e-01
-2.37761250e-07,1.72900906e-01
-2.37721250e-07,1.72899094e-01
-2.37681250e-07,1.72900906e-01
-2.37641250e-07,1.72898187e-01
-2.37601250e-07,1.72901813e-01
-2.37561250e-07,1.72898187e-01
-2.37521250e-07,1.72901813e-01
-2.37481250e-07,1.72897281e-01
-2.37441250e-07,1.72902719e-01
-2.37401250e-07,1.72897281e-01
-2.37361250e-07,1.72902719e-01
-2.37321250e-07,1.72896375e-01
-2.37281250e-07,1.72903625e-01
-2.37241250e-07,1.72896375e-01
-2.37201250e-07,1.72904531e-01
-2.37161250e-07,1.72895469e-01
-2.37121250e-07,1.72905438e-01
-2.37081250e-07,1.72893656e-01
-2.37041250e-07,1.72907250e-01
-2.37001250e-07,1.72891844e-01
-2.36961250e-07,1.72909969e-01
-2.36921250e-07,1.72887313e-01
-2.36881250e-07,1.72919031e-01
-2.36841250e-07,1.72866469e-01
-2.36801250e-07,1.73022344e-01
-2.36761250e-07,1.73161906e-01
-2.36721250e-07,1.73115688e-01
-2.36681250e-07,1.73142875e-01
-2.36641250e-07,1.73124750e-01
-2.36601250e-07,1.73137437e-01
-2.36561250e-07,1.73127469e-01
-2.36521250e-07,1.73135625e-01
-2.36481250e-07,1.73129281e-01
-2.36441250e-07,1.73134719e-01
-2.36401250e-07,1.73130188e-01
-2.36361250e-07,1.73133812e-01
-2.36321250e-07,1.73131094e-01
-2.36281250e-07,1.73132906e-01
-2.36241250e-07,1.73132000e-01
-2.36201250e-07,1.73132000e-01
-2.36161250e-07,1.73132000e-01
-2.36121250e-07,1.73131094e-01
-2.36081250e-07,1.73132906e-01
-2.36041250e-07,1.73131094e-01
-2.36001250e-07,1.73133812e-01
-2.35961250e-07,1.73130188e-01
-2.35921250e-07,1.73134719e-01
-2.35881250e-07,1.73128375e-01
-2.35841250e-07,1.73136531e-01
-2.35801250e-07,1.73126562e-01
-2.35761250e-07,1.73139250e-01
-2.35721250e-07,1.73122031e-01
-2.35681250e-07,1.73147406e-01
-2.35641250e-07,1.73102094e-01
-2.35601250e-07,1.73250719e-01
-2.35561250e-07,1.73397531e-01
-2.35521250e-07,1.73344969e-01
-2.35481250e-07,1.73378500e-01
-2.35441250e-07,1.73352219e-01
-2.35401250e-07,1.73373969e-01
-2.35361250e-07,1.73354938e-01
-2.35321250e-07,1.73372156e-01
-2.35281250e-07,1.73356750e-01
-2.35241250e-07,1.73371250e-01
-2.35201250e-07,1.73356750e-01
-2.35161250e-07,1.73372156e-01
-2.35121250e-07,1.73355844e-01
-2.35081250e-07,1.73373063e-01
-2.35041250e-07,1.73353125e-01
-2.35001250e-07,1.73377594e-01
-2.34961250e-07,1.73345875e-01
-2.34921250e-07,1.73396625e-01
-2.34881250e-07,1.73242563e-01
-2.34841250e-07,1.73100281e-01
-2.34801250e-07,1.73150125e-01
-2.34761250e-07,1.73119313e-01
-2.34721250e-07,1.73142875e-01
-2.34681250e-07,1.73122031e-01
-2.34641250e-07,1.73141969e-01
-2.34601250e-07,1.73121125e-01
-2.34561250e-07,1.73144688e-01
-2.34521250e-07,1.73114781e-01
-2.34481250e-07,1.73163719e-01
-2.34441250e-07,1.73012375e-01
-2.34401250e-07,1.72866469e-01
-2.34361250e-07,1.72919938e-01
-2.34321250e-07,1.72883687e-01
-2.34281250e-07,1.72914500e-01
-2.34241250e-07,1.72885500e-01
-2.34201250e-07,1.72916313e-01
-2.34161250e-07,1.72879156e-01
-2.34121250e-07,1.72935344e-01
-2.34081250e-07,1.72776750e-01
-2.34041250e-07,1.72639000e-01
-2.34001250e-07,1.72683406e-01
-2.33961250e-07,1.72658031e-01
-2.33921250e-07,1.72675250e-01
-2.33881250e-07,1.72661656e-01
-2.33841250e-07,1.72672531e-01
-2.33801250e-07,1.72663469e-01
-2.33761250e-07,1.72671625e-01
-2.33721250e-07,1.72664375e-01
-2.33681250e-07,1.72670719e-01
-2.33641250e-07,1.72665281e-01
-2.33601250e-07,1.72670719e-01
-2.33561250e-07,1.72665281e-01
-2.33521250e-07,1.72670719e-01
-2.33481250e-07,1.72666188e-01
-2.33441250e-07,1.72669812e-01
-2.33401250e-07,1.72666188e-01
-2.33361250e-07,1.72669812e-01
-2.33321250e-07,1.72666188e-01
-2.33281250e-07,1.72669812e-01
-2.33241250e-07,1.72666188e-01
-2.33201250e-07,1.72669812e-01
-2.33161250e-07,1.72666188e-01
-2.33121250e-07,1.72669812e-01
-2.33081250e-07,1.72666188e-01
-2.33041250e-07,1.72669812e-01
-2.33001250e-07,1.72666188e-01
-2.32961250e-07,1.72669812e-01
-2.32921250e-07,1.72666188e-01
-2.32881250e-07,1.72670719e-01
-2.32841250e-07,1.72665281e-01
-2.32801250e-07,1.72670719e-01
-2.32761250e-07,1.72664375e-01
-2.32721250e-07,1.72671625e-01
-2.32681250e-07,1.72663469e-01
-2.32641250e-07,1.72674344e-01
-2.32601250e-07,1.72659844e-01
-2.32561250e-07,1.72681594e-01
-2.32521250e-07,1.72640812e-01
-2.32481250e-07,1.72783094e-01
-2.32441250e-07,1.72938062e-01
-2.32401250e-07,1.72874625e-01
-2.32361250e-07,1.72921750e-01
-2.32321250e-07,1.72877344e-01
-2.32281250e-07,1.72926281e-01
-2.32241250e-07,1.72859219e-01
-2.32201250e-07,1.73028688e-01
-2.32161250e-07,1.73154656e-01
-2.32121250e-07,1.73124750e-01
-2.32081250e-07,1.73132000e-01
-2.32041250e-07,1.73140156e-01
-2.32001250e-07,1.73108437e-01
-2.31961250e-07,1.73244375e-01
-2.31921250e-07,1.73404781e-01
-2.31881250e-07,1.73335000e-01
-2.31841250e-07,1.73392094e-01
-2.31801250e-07,1.73325937e-01
-2.31761250e-07,1.73487250e-01
-2.31721250e-07,1.73627719e-01
-2.31681250e-07,1.73573344e-01
-2.31641250e-07,1.73619562e-01
-2.31601250e-07,1.73559750e-01
-2.31561250e-07,1.73721062e-01
-2.31521250e-07,1.73855188e-01
-2.31481250e-07,1.73816219e-01
-2.31441250e-07,1.73832531e-01
-2.31401250e-07,1.73831625e-01
-2.31361250e-07,1.73808062e-01
-2.31321250e-07,1.73937656e-01
-2.31281250e-07,1.74101687e-01
-2.31241250e-07,1.74031906e-01
-2.31201250e-07,1.74081750e-01
-2.31161250e-07,1.74040969e-01
-2.31121250e-07,1.74077219e-01
-2.31081250e-07,1.74043687e-01
-2.31041250e-07,1.74075406e-01
-2.31001250e-07,1.74045500e-01
-2.30961250e-07,1.74074500e-01
-2.30921250e-07,1.74045500e-01
-2.30881250e-07,1.74074500e-01
-2.30841250e-07,1.74045500e-01
-2.30801250e-07,1.74074500e-01
-2.30761250e-07,1.74045500e-01
-2.30721250e-07,1.74075406e-01
-2.30681250e-07,1.74043687e-01
-2.30641250e-07,1.74077219e-01
-2.30601250e-07,1.74041875e-01
-2.30561250e-07,1.74079938e-01
-2.30521250e-07,1.74038250e-01
-2.30481250e-07,1.74085375e-01
-2.30441250e-07,1.74028281e-01
-2.30401250e-07,1.74107125e-01
-2.30361250e-07,1.73923156e-01
-2.30321250e-07,1.73814406e-01
-2.30281250e-07,1.73826188e-01
-2.30241250e-07,1.73838875e-01
-2.30201250e-07,1.73808062e-01
-2.30161250e-07,1.73865156e-01
-2.30121250e-07,1.73700219e-01
-2.30081250e-07,1.73574250e-01
-2.30041250e-07,1.73601438e-01
-2.30001250e-07,1.73600531e-01
-2.29961250e-07,1.73582406e-01
-2.29921250e-07,1.73626813e-01
-2.29881250e-07,1.73474562e-01
-2.29841250e-07,1.73335000e-01
-2.29801250e-07,1.73377594e-01
-2.29761250e-07,1.73357656e-01
-2.29721250e-07,1.73364906e-01
-2.29681250e-07,1.73368531e-01
-2.29641250e-07,1.73352219e-01
-2.29601250e-07,1.73392094e-01
-2.29561250e-07,1.73246188e-01
-2.29521250e-07,1.73098469e-01
-2.29481250e-07,1.73150125e-01
-2.29441250e-07,1.73120219e-01
-2.29401250e-07,1.73140156e-01
-2.29361250e-07,1.73126562e-01
-2.29321250e-07,1.73134719e-01
-2.29281250e-07,1.73132000e-01
-2.29241250e-07,1.73129281e-01
-2.29201250e-07,1.73138344e-01
-2.29161250e-07,1.73119313e-01
-2.29121250e-07,1.73159188e-01
-2.29081250e-07,1.73015094e-01
-2.29041250e-07,1.72864656e-01
-2.29001250e-07,1.72920844e-01
-2.28961250e-07,1.72885500e-01
-2.28921250e-07,1.72911781e-01
-2.28881250e-07,1.72890938e-01
-2.28841250e-07,1.72908156e-01
-2.28801250e-07,1.72893656e-01
-2.28761250e-07,1.72905438e-01
-2.28721250e-07,1.72895469e-01
-2.28681250e-07,1.72903625e-01
-2.28641250e-07,1.72897281e-01
-2.28601250e-07,1.72901813e-01
-2.28561250e-07,1.72898187e-01
-2.28521250e-07,1.72900906e-01
-2.28481250e-07,1.72900906e-01
-2.28441250e-07,1.72898187e-01
-2.28401250e-07,1.72902719e-01
-2.28361250e-07,1.72894562e-01
-2.28321250e-07,1.72908156e-01
-2.28281250e-07,1.72885500e-01
-2.28241250e-07,1.72929000e-01
-2.28201250e-07,1.72781281e-01
-2.28161250e-07,1.72634469e-01
-2.28121250e-07,1.72687031e-01
-2.28081250e-07,1.72654406e-01
-2.28041250e-07,1.72677969e-01
-2.28001250e-07,1.72660750e-01
-2.27961250e-07,1.72673437e-01
-2.27921250e-07,1.72664375e-01
-2.27881250e-07,1.72668906e-01
-2.27841250e-07,1.72670719e-01
-2.27801250e-07,1.72659844e-01
-2.27761250e-07,1.72690656e-01
-2.27721250e-07,1.72556531e-01
-2.27681250e-07,1.72396125e-01
-2.27641250e-07,1.72462281e-01
-2.27601250e-07,1.72415156e-01
-2.27561250e-07,1.72454125e-01
-2.27521250e-07,1.72418781e-01
-2.27481250e-07,1.72452313e-01
-2.27441250e-07,1.72419688e-01
-2.27401250e-07,1.72452313e-01
-2.27361250e-07,1.72417875e-01
-2.27321250e-07,1.72455937e-01
-2.27281250e-07,1.72410625e-01
-2.27241250e-07,1.72475875e-01
-2.27201250e-07,1.72308219e-01
-2.27161250e-07,1.72179531e-01
-2.27121250e-07,1.72214875e-01
-2.27081250e-07,1.72198562e-01
-2.27041250e-07,1.72206719e-01
-2.27001250e-07,1.72203094e-01
-2.26961250e-07,1.72203094e-01
-2.26921250e-07,1.72205812e-01
-2.26881250e-07,1.72202187e-01
-2.26841250e-07,1.72206719e-01
-2.26801250e-07,1.72200375e-01
-2.26761250e-07,1.72207625e-01
-2.26721250e-07,1.72199469e-01
-2.26681250e-07,1.72209438e-01
-2.26641250e-07,1.72196750e-01
-2.26601250e-07,1.72213062e-01
-2.26561250e-07,1.72192219e-01
-2.26521250e-07,1.72221219e-01
-2.26481250e-07,1.72172281e-01
-2.26441250e-07,1.72324531e-01
-2.26401250e-07,1.72467719e-01
-2.26361250e-07,1.72417875e-01
-2.26321250e-07,1.72449594e-01
-2.26281250e-07,1.72425125e-01
-2.26241250e-07,1.72445062e-01
-2.26201250e-07,1.72427844e-01
-2.26161250e-07,1.72444156e-01
-2.26121250e-07,1.72427844e-01
-2.26081250e-07,1.72444156e-01
-2.26041250e-07,1.72426937e-01
-2.26001250e-07,1.72446875e-01
-2.25961250e-07,1.72422406e-01
-2.25921250e-07,1.72455031e-01
-2.25881250e-07,1.72402469e-01
-2.25841250e-07,1.72558344e-01
-2.25801250e-07,1.72697906e-01
-2.25761250e-07,1.72651687e-01
-2.25721250e-07,1.72678875e-01
-2.25681250e-07,1.72660750e-01
-2.25641250e-07,1.72673437e-01
-2.25601250e-07,1.72664375e-01
-2.25561250e-07,1.72669812e-01
-2.25521250e-07,1.72668000e-01
-2.25481250e-07,1.72665281e-01
-2.25441250e-07,1.72676156e-01
-2.25401250e-07,1.72645344e-01
-2.25361250e-07,1.72779469e-01
-2.25321250e-07,1.72941687e-01
-2.25281250e-07,1.72871906e-01
-2.25241250e-07,1.72923562e-01
-2.25201250e-07,1.72877344e-01
-2.25161250e-07,1.72922656e-01
-2.25121250e-07,1.72875531e-01
-2.25081250e-07,1.72929906e-01
-2.25041250e-07,1.72855594e-01
-2.25001250e-07,1.73033219e-01
-2.24961250e-07,1.73151031e-01
-2.24921250e-07,1.73127469e-01
-2.24881250e-07,1.73129281e-01
-2.24841250e-07,1.73139250e-01
-2.24801250e-07,1.73120219e-01
-2.24761250e-07,1.73151031e-01
-2.24721250e-07,1.73096656e-01
-2.24681250e-07,1.73257063e-01
-2.24641250e-07,1.73389375e-01
-2.24601250e-07,1.73354938e-01
-2.24561250e-07,1.73364000e-01
-2.24521250e-07,1.73373063e-01
