dpa/aes_ch1_20250506141406008.csv

Model,MSO66B
Label,
Waveform Type,ANALOG
Horizontal Units,s
Sample Interval,4.00000000e-11
Record Length,100000
Zero Index,15999.08984375
Vertical Units,A
ANALOG_Thumbnail,
yOffset,1.84500000e-01
yPosition,8.40000000e-01

Labels,
TIME,CH1
-6.39963594e-07,1.75679688e-01
-6.39923594e-07,1.75721875e-01
-6.39883594e-07,1.75673438e-01
-6.39843594e-07,1.75734375e-01
-6.39803594e-07,1.75640625e-01
-6.39763594e-07,1.75910938e-01
-6.39723594e-07,1.76151562e-01
-6.39683594e-07,1.76070313e-01
-6.39643594e-07,1.76120313e-01
-6.39603594e-07,1.76082813e-01
-6.39563594e-07,1.76115625e-01
-6.39523594e-07,1.76084375e-01
-6.39483594e-07,1.76117187e-01
-6.39443594e-07,1.76078125e-01
-6.39403594e-07,1.76129687e-01
-6.39363594e-07,1.76045312e-01
-6.39323594e-07,1.76306250e-01
-6.39283594e-07,1.76556250e-01
-6.39243594e-07,1.76467188e-01
-6.39203594e-07,1.76523438e-01
-6.39163594e-07,1.76481250e-01
-6.39123594e-07,1.76517188e-01
-6.39083594e-07,1.76485937e-01
-6.39043594e-07,1.76514063e-01
-6.39003594e-07,1.76487500e-01
-6.38963594e-07,1.76512500e-01
-6.38923594e-07,1.76487500e-01
-6.38883594e-07,1.76512500e-01
-6.38843594e-07,1.76489063e-01
-6.38803594e-07,1.76510938e-01
-6.38763594e-07,1.76487500e-01
-6.38723594e-07,1.76512500e-01
-6.38683594e-07,1.76487500e-01
-6.38643594e-07,1.76512500e-01
-6.38603594e-07,1.76487500e-01
-6.38563594e-07,1.76514063e-01
-6.38523594e-07,1.76485937e-01
-6.38483594e-07,1.76514063e-01
-6.38443594e-07,1.76484375e-01
-6.38403594e-07,1.76515625e-01
-6.38363594e-07,1.76482813e-01
-6.38323594e-07,1.76518750e-01
-6.38283594e-07,1.76478125e-01
-6.38243594e-07,1.76523438e-01
-6.38203594e-07,1.76471875e-01
-6.38163594e-07,1.76532812e-01
-6.38123594e-07,1.76456250e-01
-6.38083594e-07,1.76570312e-01
-6.38043594e-07,1.76275000e-01
-6.38003594e-07,1.76064063e-01
-6.37963594e-07,1.76110938e-01
-6.37923594e-07,1.76101563e-01
-6.37883594e-07,1.76089063e-01
-6.37843594e-07,1.76120313e-01
-6.37803594e-07,1.76067187e-01
-6.37763594e-07,1.76160938e-01
-6.37723594e-07,1.75882813e-01
-6.37683594e-07,1.75657813e-01
-6.37643594e-07,1.75714063e-01
-6.37603594e-07,1.75701563e-01
-6.37563594e-07,1.75681250e-01
-6.37523594e-07,1.75746875e-01
-6.37483594e-07,1.75495313e-01
-6.37443594e-07,1.75246875e-01
-6.37403594e-07,1.75325000e-01
-6.37363594e-07,1.75290625e-01
-6.37323594e-07,1.75292188e-01
-6.37283594e-07,1.75335938e-01
-6.37243594e-07,1.75107813e-01
-6.37203594e-07,1.74832813e-01
-6.37163594e-07,1.74939063e-01
-6.37123594e-07,1.74873438e-01
-6.37083594e-07,1.74918750e-01
-6.37043594e-07,1.74890625e-01
-6.37003594e-07,1.74896875e-01
-6.36963594e-07,1.74929688e-01
-6.36923594e-07,1.74715625e-01
-6.36883594e-07,1.74423438e-01
-6.36843594e-07,1.74551563e-01
-6.36803594e-07,1.74457813e-01
-6.36763594e-07,1.74535938e-01
-6.36723594e-07,1.74467188e-01
-6.36683594e-07,1.74531250e-01
-6.36643594e-07,1.74470313e-01
-6.36603594e-07,1.74528125e-01
-6.36563594e-07,1.74473437e-01
-6.36523594e-07,1.74526563e-01
-6.36483594e-07,1.74473437e-01
-6.36443594e-07,1.74526563e-01
-6.36403594e-07,1.74473437e-01
-6.36363594e-07,1.74526563e-01
-6.36323594e-07,1.74471875e-01
-6.36283594e-07,1.74529688e-01
-6.36243594e-07,1.74468750e-01
-6.36203594e-07,1.74534375e-01
-6.36163594e-07,1.74459375e-01
-6.36123594e-07,1.74550000e-01
-6.36083594e-07,1.74425000e-01
-6.36043594e-07,1.74729688e-01
-6.36003594e-07,1.74931250e-01
-6.35963594e-07,1.74893750e-01
-6.35923594e-07,1.74893750e-01
-6.35883594e-07,1.74914062e-01
-6.35843594e-07,1.74878125e-01
-6.35803594e-07,1.74934375e-01
-6.35763594e-07,1.74839063e-01
-6.35723594e-07,1.75115625e-01
-6.35683594e-07,1.75345313e-01
-6.35643594e-07,1.75281250e-01
-6.35603594e-07,1.75306250e-01
-6.35563594e-07,1.75301563e-01
-6.35523594e-07,1.75290625e-01
-6.35483594e-07,1.75321875e-01
-6.35443594e-07,1.75251563e-01
-6.35403594e-07,1.75503125e-01
-6.35363594e-07,1.75757812e-01
-6.35323594e-07,1.75665625e-01
-6.35283594e-07,1.75723437e-01
-6.35243594e-07,1.75681250e-01
-6.35203594e-07,1.75715625e-01
-6.35163594e-07,1.75687500e-01
-6.35123594e-07,1.75710937e-01
-6.35083594e-07,1.75690625e-01
-6.35043594e-07,1.75707813e-01
-6.35003594e-07,1.75692188e-01
-6.34963594e-07,1.75706250e-01
-6.34923594e-07,1.75693750e-01
-6.34883594e-07,1.75706250e-01
-6.34843594e-07,1.75695313e-01
-6.34803594e-07,1.75704688e-01
-6.34763594e-07,1.75695313e-01
-6.34723594e-07,1.75704688e-01
-6.34683594e-07,1.75695313e-01
-6.34643594e-07,1.75704688e-01
-6.34603594e-07,1.75696875e-01
-6.34563594e-07,1.75703125e-01
-6.34523594e-07,1.75696875e-01
-6.34483594e-07,1.75703125e-01
-6.34443594e-07,1.75696875e-01
-6.34403594e-07,1.75703125e-01
-6.34363594e-07,1.75696875e-01
-6.34323594e-07,1.75704688e-01
-6.34283594e-07,1.75695313e-01
-6.34243594e-07,1.75704688e-01
-6.34203594e-07,1.75695313e-01
-6.34163594e-07,1.75704688e-01
-6.34123594e-07,1.75693750e-01
-6.34083594e-07,1.75707813e-01
-6.34043594e-07,1.75692188e-01
-6.34003594e-07,1.75710937e-01
-6.33963594e-07,1.75687500e-01
-6.33923594e-07,1.75718750e-01
-6.33883594e-07,1.75671875e-01
-6.33843594e-07,1.75751563e-01
-6.33803594e-07,1.75495313e-01
-6.33763594e-07,1.75242188e-01
-6.33723594e-07,1.75332813e-01
-6.33683594e-07,1.75275000e-01
-6.33643594e-07,1.75320313e-01
-6.33603594e-07,1.75282812e-01
-6.33563594e-07,1.75315625e-01
-6.33523594e-07,1.75285938e-01
-6.33483594e-07,1.75312500e-01
-6.33443594e-07,1.75287500e-01
-6.33403594e-07,1.75312500e-01
-6.33363594e-07,1.75289063e-01
-6.33323594e-07,1.75310938e-01
-6.33283594e-07,1.75287500e-01
-6.33243594e-07,1.75312500e-01
-6.33203594e-07,1.75287500e-01
-6.33163594e-07,1.75312500e-01
-6.33123594e-07,1.75285938e-01
-6.33083594e-07,1.75314063e-01
-6.33043594e-07,1.75284375e-01
-6.33003594e-07,1.75318750e-01
-6.32963594e-07,1.75279688e-01
-6.32923594e-07,1.75326563e-01
-6.32883594e-07,1.75264063e-01
-6.32843594e-07,1.75360938e-01
-6.32803594e-07,1.75085938e-01
-6.32763594e-07,1.74851563e-01
-6.32723594e-07,1.74923438e-01
-6.32683594e-07,1.74885938e-01
-6.32643594e-07,1.74909375e-01
-6.32603594e-07,1.74893750e-01
-6.32563594e-07,1.74903125e-01
-6.32523594e-07,1.74898438e-01
-6.32483594e-07,1.74900000e-01
-6.32443594e-07,1.74901562e-01
-6.32403594e-07,1.74896875e-01
-6.32363594e-07,1.74904688e-01
-6.32323594e-07,1.74892188e-01
-6.32283594e-07,1.74910938e-01
-6.32243594e-07,1.74884375e-01
-6.32203594e-07,1.74925000e-01
-6.32163594e-07,1.74850000e-01
-6.32123594e-07,1.75103125e-01
-6.32083594e-07,1.75359375e-01
-6.32043594e-07,1.75264063e-01
-6.32003594e-07,1.75326563e-01
-6.31963594e-07,1.75278125e-01
-6.31923594e-07,1.75318750e-01
-6.31883594e-07,1.75282812e-01
-6.31843594e-07,1.75317187e-01
-6.31803594e-07,1.75282812e-01
-6.31763594e-07,1.75317187e-01
-6.31723594e-07,1.75281250e-01
-6.31683594e-07,1.75321875e-01
-6.31643594e-07,1.75273438e-01
-6.31603594e-07,1.75335938e-01
-6.31563594e-07,1.75239063e-01
-6.31523594e-07,1.75514063e-01
-6.31483594e-07,1.75748437e-01
-6.31443594e-07,1.75676562e-01
-6.31403594e-07,1.75714063e-01
-6.31363594e-07,1.75692188e-01
-6.31323594e-07,1.75703125e-01
-6.31283594e-07,1.75701563e-01
-6.31243594e-07,1.75692188e-01
-6.31203594e-07,1.75717188e-01
-6.31163594e-07,1.75657813e-01
-6.31123594e-07,1.75895313e-01
-6.31083594e-07,1.76167188e-01
-6.31043594e-07,1.76056250e-01
-6.31003594e-07,1.76134375e-01
-6.30963594e-07,1.76068750e-01
-6.30923594e-07,1.76129687e-01
-6.30883594e-07,1.76070313e-01
-6.30843594e-07,1.76131250e-01
-6.30803594e-07,1.76065625e-01
-6.30763594e-07,1.76143750e-01
-6.30723594e-07,1.76031250e-01
-6.30683594e-07,1.76320313e-01
-6.30643594e-07,1.76542188e-01
-6.30603594e-07,1.76481250e-01
-6.30563594e-07,1.76509375e-01
-6.30523594e-07,1.76495313e-01
-6.30483594e-07,1.76501563e-01
-6.30443594e-07,1.76501563e-01
-6.30403594e-07,1.76496875e-01
-6.30363594e-07,1.76504688e-01
-6.30323594e-07,1.76493750e-01
-6.30283594e-07,1.76506250e-01
-6.30243594e-07,1.76492188e-01
-6.30203594e-07,1.76509375e-01
-6.30163594e-07,1.76489063e-01
-6.30123594e-07,1.76512500e-01
-6.30083594e-07,1.76484375e-01
-6.30043594e-07,1.76518750e-01
-6.30003594e-07,1.76475000e-01
-6.29963594e-07,1.76534375e-01
-6.29923594e-07,1.76440625e-01
-6.29883594e-07,1.76714063e-01
-6.29843594e-07,1.76948437e-01
-6.29803594e-07,1.76876563e-01
-6.29763594e-07,1.76914062e-01
-6.29723594e-07,1.76892188e-01
-6.29683594e-07,1.76904688e-01
-6.29643594e-07,1.76898438e-01
-6.29603594e-07,1.76898438e-01
-6.29563594e-07,1.76904688e-01
-6.29523594e-07,1.76890625e-01
-6.29483594e-07,1.76915625e-01
-6.29443594e-07,1.76875000e-01
-6.29403594e-07,1.76951563e-01
-6.29363594e-07,1.76695313e-01
-6.29323594e-07,1.76442188e-01
-6.29283594e-07,1.76532812e-01
-6.29243594e-07,1.76476563e-01
-6.29203594e-07,1.76517188e-01
-6.29163594e-07,1.76485937e-01
-6.29123594e-07,1.76512500e-01
-6.29083594e-07,1.76489063e-01
-6.29043594e-07,1.76509375e-01
-6.29003594e-07,1.76492188e-01
-6.28963594e-07,1.76506250e-01
-6.28923594e-07,1.76493750e-01
-6.28883594e-07,1.76504688e-01
-6.28843594e-07,1.76495313e-01
-6.28803594e-07,1.76503125e-01
-6.28763594e-07,1.76496875e-01
-6.28723594e-07,1.76501563e-01
-6.28683594e-07,1.76498437e-01
-6.28643594e-07,1.76500000e-01
-6.28603594e-07,1.76501563e-01
-6.28563594e-07,1.76498437e-01
-6.28523594e-07,1.76503125e-01
-6.28483594e-07,1.76493750e-01
-6.28443594e-07,1.76509375e-01
-6.28403594e-07,1.76485937e-01
-6.28363594e-07,1.76523438e-01
-6.28323594e-07,1.76451563e-01
-6.28283594e-07,1.76701563e-01
-6.28243594e-07,1.76960937e-01
-6.28203594e-07,1.76864063e-01
-6.28163594e-07,1.76926562e-01
-6.28123594e-07,1.76878125e-01
-6.28083594e-07,1.76918750e-01
-6.28043594e-07,1.76882813e-01
-6.28003594e-07,1.76915625e-01
-6.27963594e-07,1.76884375e-01
-6.27923594e-07,1.76914062e-01
-6.27883594e-07,1.76885938e-01
-6.27843594e-07,1.76914062e-01
-6.27803594e-07,1.76885938e-01
-6.27763594e-07,1.76914062e-01
-6.27723594e-07,1.76884375e-01
-6.27683594e-07,1.76917188e-01
-6.27643594e-07,1.76881250e-01
-6.27603594e-07,1.76920313e-01
-6.27563594e-07,1.76875000e-01
-6.27523594e-07,1.76934375e-01
-6.27483594e-07,1.76840625e-01
-6.27443594e-07,1.77112500e-01
-6.27403594e-07,1.77350000e-01
-6.27363594e-07,1.77273438e-01
-6.27323594e-07,1.77317188e-01
-6.27283594e-07,1.77287500e-01
-6.27243594e-07,1.77309375e-01
-6.27203594e-07,1.77292188e-01
-6.27163594e-07,1.77306250e-01
-6.27123594e-07,1.77293750e-01
-6.27083594e-07,1.77304688e-01
-6.27043594e-07,1.77295312e-01
-6.27003594e-07,1.77304688e-01
-6.26963594e-07,1.77295312e-01
-6.26923594e-07,1.77304688e-01
-6.26883594e-07,1.77295312e-01
-6.26843594e-07,1.77304688e-01
-6.26803594e-07,1.77293750e-01
-6.26763594e-07,1.77306250e-01
-6.26723594e-07,1.77292188e-01
-6.26683594e-07,1.77309375e-01
-6.26643594e-07,1.77287500e-01
-6.26603594e-07,1.77317188e-01
-6.26563594e-07,1.77273438e-01
-6.26523594e-07,1.77351563e-01
-6.26483594e-07,1.77095313e-01
-6.26443594e-07,1.76840625e-01
-6.26403594e-07,1.76935938e-01
-6.26363594e-07,1.76873438e-01
-6.26323594e-07,1.76921875e-01
-6.26283594e-07,1.76879687e-01
-6.26243594e-07,1.76918750e-01
-6.26203594e-07,1.76882813e-01
-6.26163594e-07,1.76917188e-01
-6.26123594e-07,1.76881250e-01
-6.26083594e-07,1.76920313e-01
-6.26043594e-07,1.76876563e-01
-6.26003594e-07,1.76928125e-01
-6.25963594e-07,1.76862500e-01
-6.25923594e-07,1.76962500e-01
-6.25883594e-07,1.76684375e-01
-6.25843594e-07,1.76453125e-01
-6.25803594e-07,1.76523438e-01
-6.25763594e-07,1.76485937e-01
-6.25723594e-07,1.76507812e-01
-6.25683594e-07,1.76495313e-01
-6.25643594e-07,1.76501563e-01
-6.25603594e-07,1.76503125e-01
-6.25563594e-07,1.76493750e-01
-6.25523594e-07,1.76512500e-01
-6.25483594e-07,1.76478125e-01
-6.25443594e-07,1.76546875e-01
-6.25403594e-07,1.76300000e-01
-6.25363594e-07,1.76037500e-01
-6.25323594e-07,1.76139062e-01
-6.25283594e-07,1.76070313e-01
-6.25243594e-07,1.76125000e-01
-6.25203594e-07,1.76078125e-01
-6.25163594e-07,1.76120313e-01
-6.25123594e-07,1.76079687e-01
-6.25083594e-07,1.76120313e-01
-6.25043594e-07,1.76079687e-01
-6.25003594e-07,1.76121875e-01
-6.24963594e-07,1.76075000e-01
-6.24923594e-07,1.76129687e-01
-6.24883594e-07,1.76060938e-01
-6.24843594e-07,1.76164062e-01
-6.24803594e-07,1.75882813e-01
-6.24763594e-07,1.75654688e-01
-6.24723594e-07,1.75720313e-01
-6.24683594e-07,1.75689062e-01
-6.24643594e-07,1.75706250e-01
-6.24603594e-07,1.75696875e-01
-6.24563594e-07,1.75700000e-01
-6.24523594e-07,1.75703125e-01
-6.24483594e-07,1.75695313e-01
-6.24443594e-07,1.75707813e-01
-6.24403594e-07,1.75689062e-01
-6.24363594e-07,1.75717188e-01
-6.24323594e-07,1.75673438e-01
-6.24283594e-07,1.75751563e-01
-6.24243594e-07,1.75493750e-01
-6.24203594e-07,1.75243750e-01
-6.24163594e-07,1.75332813e-01
-6.24123594e-07,1.75276563e-01
-6.24083594e-07,1.75317187e-01
-6.24043594e-07,1.75285938e-01
-6.24003594e-07,1.75312500e-01
-6.23963594e-07,1.75289063e-01
-6.23923594e-07,1.75309375e-01
-6.23883594e-07,1.75292188e-01
-6.23843594e-07,1.75307812e-01
-6.23803594e-07,1.75292188e-01
-6.23763594e-07,1.75306250e-01
-6.23723594e-07,1.75293750e-01
-6.23683594e-07,1.75306250e-01
-6.23643594e-07,1.75295312e-01
-6.23603594e-07,1.75304688e-01
-6.23563594e-07,1.75295312e-01
-6.23523594e-07,1.75304688e-01
-6.23483594e-07,1.75295312e-01
-6.23443594e-07,1.75304688e-01
-6.23403594e-07,1.75296875e-01
-6.23363594e-07,1.75303125e-01
-6.23323594e-07,1.75296875e-01
-6.23283594e-07,1.75303125e-01
-6.23243594e-07,1.75296875e-01
-6.23203594e-07,1.75303125e-01
-6.23163594e-07,1.75296875e-01
-6.23123594e-07,1.75301563e-01
-6.23083594e-07,1.75298438e-01
-6.23043594e-07,1.75301563e-01
-6.23003594e-07,1.75298438e-01
-6.22963594e-07,1.75301563e-01
-6.22923594e-07,1.75300000e-01
-6.22883594e-07,1.75300000e-01
-6.22843594e-07,1.75300000e-01
-6.22803594e-07,1.75298438e-01
-6.22763594e-07,1.75301563e-01
-6.22723594e-07,1.75296875e-01
-6.22683594e-07,1.75304688e-01
-6.22643594e-07,1.75293750e-01
-6.22603594e-07,1.75309375e-01
-6.22563594e-07,1.75285938e-01
-6.22523594e-07,1.75323438e-01
-6.22483594e-07,1.75251563e-01
-6.22443594e-07,1.75501563e-01
-6.22403594e-07,1.75760938e-01
-6.22363594e-07,1.75662500e-01
-6.22323594e-07,1.75728125e-01
-6.22283594e-07,1.75676562e-01
-6.22243594e-07,1.75721875e-01
-6.22203594e-07,1.75679688e-01
-6.22163594e-07,1.75718750e-01
-6.22123594e-07,1.75681250e-01
-6.22083594e-07,1.75718750e-01
-6.22043594e-07,1.75681250e-01
-6.22003594e-07,1.75720313e-01
-6.21963594e-07,1.75678125e-01
-6.21923594e-07,1.75725000e-01
-6.21883594e-07,1.75670313e-01
-6.21843594e-07,1.75739063e-01
-6.21803594e-07,1.75635938e-01
-6.21763594e-07,1.75917188e-01
-6.21723594e-07,1.76145313e-01
-6.21683594e-07,1.76078125e-01
-6.21643594e-07,1.76112500e-01
-6.21603594e-07,1.76093750e-01
-6.21563594e-07,1.76103125e-01
-6.21523594e-07,1.76098438e-01
-6.21483594e-07,1.76100000e-01
-6.21443594e-07,1.76101563e-01
-6.21403594e-07,1.76096875e-01
-6.21363594e-07,1.76104687e-01
-6.21323594e-07,1.76093750e-01
-6.21283594e-07,1.76107813e-01
-6.21243594e-07,1.76089063e-01
-6.21203594e-07,1.76114063e-01
-6.21163594e-07,1.76079687e-01
-6.21123594e-07,1.76129687e-01
-6.21083594e-07,1.76045312e-01
-6.21043594e-07,1.76307812e-01
-6.21003594e-07,1.76554688e-01
-6.20963594e-07,1.76470313e-01
-6.20923594e-07,1.76520312e-01
-6.20883594e-07,1.76484375e-01
-6.20843594e-07,1.76512500e-01
-6.20803594e-07,1.76489063e-01
-6.20763594e-07,1.76509375e-01
-6.20723594e-07,1.76492188e-01
-6.20683594e-07,1.76506250e-01
-6.20643594e-07,1.76493750e-01
-6.20603594e-07,1.76506250e-01
-6.20563594e-07,1.76495313e-01
-6.20523594e-07,1.76504688e-01
-6.20483594e-07,1.76495313e-01
-6.20443594e-07,1.76504688e-01
-6.20403594e-07,1.76496875e-01
-6.20363594e-07,1.76503125e-01
-6.20323594e-07,1.76496875e-01
-6.20283594e-07,1.76503125e-01
-6.20243594e-07,1.76496875e-01
-6.20203594e-07,1.76503125e-01
-6.20163594e-07,1.76496875e-01
-6.20123594e-07,1.76501563e-01
-6.20083594e-07,1.76498437e-01
-6.20043594e-07,1.76501563e-01
-6.20003594e-07,1.76498437e-01
-6.19963594e-07,1.76501563e-01
-6.19923594e-07,1.76498437e-01
-6.19883594e-07,1.76501563e-01
-6.19843594e-07,1.76498437e-01
-6.19803594e-07,1.76501563e-01
-6.19763594e-07,1.76498437e-01
-6.19723594e-07,1.76500000e-01
-6.19683594e-07,1.76500000e-01
-6.19643594e-07,1.76500000e-01
-6.19603594e-07,1.76500000e-01
-6.19563594e-07,1.76500000e-01
-6.19523594e-07,1.76500000e-01
-6.19483594e-07,1.76500000e-01
-6.19443594e-07,1.76500000e-01
-6.19403594e-07,1.76498437e-01
-6.19363594e-07,1.76501563e-01
-6.19323594e-07,1.76498437e-01
-6.19283594e-07,1.76501563e-01
-6.19243594e-07,1.76496875e-01
-6.19203594e-07,1.76503125e-01
-6.19163594e-07,1.76495313e-01
-6.19123594e-07,1.76504688e-01
-6.19083594e-07,1.76493750e-01
-6.19043594e-07,1.76507812e-01
-6.19003594e-07,1.76489063e-01
-6.18963594e-07,1.76515625e-01
-6.18923594e-07,1.76473437e-01
-6.18883594e-07,1.76550000e-01
-6.18843594e-07,1.76296875e-01
-6.18803594e-07,1.76040625e-01
-6.18763594e-07,1.76134375e-01
-6.18723594e-07,1.76073438e-01
-6.18683594e-07,1.76121875e-01
-6.18643594e-07,1.76081250e-01
-6.18603594e-07,1.76117187e-01
-6.18563594e-07,1.76084375e-01
-6.18523594e-07,1.76114063e-01
-6.18483594e-07,1.76085938e-01
-6.18443594e-07,1.76114063e-01
-6.18403594e-07,1.76085938e-01
-6.18363594e-07,1.76114063e-01
-6.18323594e-07,1.76084375e-01
-6.18283594e-07,1.76115625e-01
-6.18243594e-07,1.76082813e-01
-6.18203594e-07,1.76118750e-01
-6.18163594e-07,1.76078125e-01
-6.18123594e-07,1.76126563e-01
-6.18083594e-07,1.76064063e-01
-6.18043594e-07,1.76160938e-01
-6.18003594e-07,1.75885938e-01
-6.17963594e-07,1.75651562e-01
-6.17923594e-07,1.75725000e-01
-6.17883594e-07,1.75685938e-01
-6.17843594e-07,1.75709375e-01
-6.17803594e-07,1.75693750e-01
-6.17763594e-07,1.75704688e-01
-6.17723594e-07,1.75696875e-01
-6.17683594e-07,1.75701563e-01
-6.17643594e-07,1.75700000e-01
-6.17603594e-07,1.75700000e-01
-6.17563594e-07,1.75701563e-01
-6.17523594e-07,1.75696875e-01
-6.17483594e-07,1.75703125e-01
-6.17443594e-07,1.75695313e-01
-6.17403594e-07,1.75706250e-01
-6.17363594e-07,1.75692188e-01
-6.17323594e-07,1.75709375e-01
-6.17283594e-07,1.75687500e-01
-6.17243594e-07,1.75718750e-01
-6.17203594e-07,1.75671875e-01
-6.17163594e-07,1.75753125e-01
-6.17123594e-07,1.75493750e-01
-6.17083594e-07,1.75243750e-01
-6.17043594e-07,1.75332813e-01
-6.17003594e-07,1.75276563e-01
-6.16963594e-07,1.75318750e-01
-6.16923594e-07,1.75284375e-01
-6.16883594e-07,1.75314063e-01
-6.16843594e-07,1.75287500e-01
-6.16803594e-07,1.75310938e-01
-6.16763594e-07,1.75289063e-01
-6.16723594e-07,1.75309375e-01
-6.16683594e-07,1.75290625e-01
-6.16643594e-07,1.75309375e-01
-6.16603594e-07,1.75290625e-01
-6.16563594e-07,1.75309375e-01
-6.16523594e-07,1.75290625e-01
-6.16483594e-07,1.75309375e-01
-6.16443594e-07,1.75289063e-01
-6.16403594e-07,1.75310938e-01
-6.16363594e-07,1.75287500e-01
-6.16323594e-07,1.75314063e-01
-6.16283594e-07,1.75282812e-01
-6.16243594e-07,1.75321875e-01
-6.16203594e-07,1.75268750e-01
-6.16163594e-07,1.75356250e-01
-6.16123594e-07,1.75090625e-01
-6.16083594e-07,1.74846875e-01
-6.16043594e-07,1.74929688e-01
-6.16003594e-07,1.74879688e-01
-6.15963594e-07,1.74915625e-01
-6.15923594e-07,1.74887500e-01
-6.15883594e-07,1.74910938e-01
-6.15843594e-07,1.74890625e-01
-6.15803594e-07,1.74909375e-01
-6.15763594e-07,1.74892188e-01
-6.15723594e-07,1.74907813e-01
-6.15683594e-07,1.74892188e-01
-6.15643594e-07,1.74907813e-01
-6.15603594e-07,1.74892188e-01
-6.15563594e-07,1.74907813e-01
-6.15523594e-07,1.74892188e-01
-6.15483594e-07,1.74907813e-01
-6.15443594e-07,1.74892188e-01
-6.15403594e-07,1.74907813e-01
-6.15363594e-07,1.74890625e-01
-6.15323594e-07,1.74909375e-01
-6.15283594e-07,1.74889062e-01
-6.15243594e-07,1.74912500e-01
-6.15203594e-07,1.74884375e-01
-6.15163594e-07,1.74920313e-01
-6.15123594e-07,1.74870313e-01
-6.15083594e-07,1.74954688e-01
-6.15043594e-07,1.74692188e-01
-6.15003594e-07,1.74445313e-01
-6.14963594e-07,1.74531250e-01
-6.14923594e-07,1.74478125e-01
-6.14883594e-07,1.74517188e-01
-6.14843594e-07,1.74484375e-01
-6.14803594e-07,1.74514063e-01
-6.14763594e-07,1.74487500e-01
-6.14723594e-07,1.74514063e-01
-6.14683594e-07,1.74485937e-01
-6.14643594e-07,1.74517188e-01
-6.14603594e-07,1.74479688e-01
-6.14563594e-07,1.74529688e-01
-6.14523594e-07,1.74446875e-01
