dpa/aes_ch1_20250506140519167.csv

Model,MSO66B
Label,
Waveform Type,ANALOG
Horizontal Units,s
Sample Interval,4.00000000e-11
Record Length,25000
Zero Index,6249.03125000
Vertical Units,A
ANALOG_Thumbnail,
yOffset,1.84500000e-01
yPosition,0.00000000e+00

Labels,
TIME,CH1
-2.49961250e-07,1.75901500e-01
-2.49921250e-07,1.75934125e-01
-2.49881250e-07,1.75892437e-01
-2.49841250e-07,1.75954063e-01
-2.49801250e-07,1.75789125e-01
-2.49761250e-07,1.75658625e-01
-2.49721250e-07,1.75694875e-01
-2.49681250e-07,1.75678562e-01
-2.49641250e-07,1.75686719e-01
-2.49601250e-07,1.75683094e-01
-2.49561250e-07,1.75683094e-01
-2.49521250e-07,1.75685813e-01
-2.49481250e-07,1.75681281e-01
-2.49441250e-07,1.75688531e-01
-2.49401250e-07,1.75678562e-01
-2.49361250e-07,1.75691250e-01
-2.49321250e-07,1.75674937e-01
-2.49281250e-07,1.75695781e-01
-2.49241250e-07,1.75665875e-01
-2.49201250e-07,1.75716625e-01
-2.49161250e-07,1.75562562e-01
-2.49121250e-07,1.75421187e-01
-2.49081250e-07,1.75468313e-01
-2.49041250e-07,1.75441125e-01
-2.49001250e-07,1.75460156e-01
-2.48961250e-07,1.75445656e-01
-2.48921250e-07,1.75457438e-01
-2.48881250e-07,1.75447469e-01
-2.48841250e-07,1.75455625e-01
-2.48801250e-07,1.75449281e-01
-2.48761250e-07,1.75454719e-01
-2.48721250e-07,1.75449281e-01
-2.48681250e-07,1.75453813e-01
-2.48641250e-07,1.75450187e-01
-2.48601250e-07,1.75453813e-01
-2.48561250e-07,1.75451094e-01
-2.48521250e-07,1.75452906e-01
-2.48481250e-07,1.75451094e-01
-2.48441250e-07,1.75452906e-01
-2.48401250e-07,1.75451094e-01
-2.48361250e-07,1.75452906e-01
-2.48321250e-07,1.75451094e-01
-2.48281250e-07,1.75452906e-01
-2.48241250e-07,1.75452000e-01
-2.48201250e-07,1.75452000e-01
-2.48161250e-07,1.75452000e-01
-2.48121250e-07,1.75452000e-01
-2.48081250e-07,1.75452000e-01
-2.48041250e-07,1.75452000e-01
-2.48001250e-07,1.75452000e-01
-2.47961250e-07,1.75452000e-01
-2.47921250e-07,1.75452000e-01
-2.47881250e-07,1.75452000e-01
-2.47841250e-07,1.75452000e-01
-2.47801250e-07,1.75452000e-01
-2.47761250e-07,1.75451094e-01
-2.47721250e-07,1.75452906e-01
-2.47681250e-07,1.75451094e-01
-2.47641250e-07,1.75452906e-01
-2.47601250e-07,1.75450187e-01
-2.47561250e-07,1.75453813e-01
-2.47521250e-07,1.75449281e-01
-2.47481250e-07,1.75455625e-01
-2.47441250e-07,1.75446562e-01
-2.47401250e-07,1.75460156e-01
-2.47361250e-07,1.75438406e-01
-2.47321250e-07,1.75479187e-01
-2.47281250e-07,1.75336000e-01
-2.47241250e-07,1.75183750e-01
-2.47201250e-07,1.75243563e-01
-2.47161250e-07,1.75201875e-01
-2.47121250e-07,1.75236312e-01
-2.47081250e-07,1.75204594e-01
-2.47041250e-07,1.75235406e-01
-2.47001250e-07,1.75203688e-01
-2.46961250e-07,1.75239031e-01
-2.46921250e-07,1.75195531e-01
-2.46881250e-07,1.75258063e-01
-2.46841250e-07,1.75093125e-01
-2.46801250e-07,1.74962625e-01
-2.46761250e-07,1.74999781e-01
-2.46721250e-07,1.74981656e-01
-2.46681250e-07,1.74991625e-01
-2.46641250e-07,1.74986188e-01
-2.46601250e-07,1.74988906e-01
-2.46561250e-07,1.74988000e-01
-2.46521250e-07,1.74988000e-01
-2.46481250e-07,1.74988000e-01
-2.46441250e-07,1.74988000e-01
-2.46401250e-07,1.74988000e-01
-2.46361250e-07,1.74988906e-01
-2.46321250e-07,1.74985281e-01
-2.46281250e-07,1.74995250e-01
-2.46241250e-07,1.74967156e-01
-2.46201250e-07,1.75096750e-01
-2.46161250e-07,1.75265312e-01
-2.46121250e-07,1.75186469e-01
-2.46081250e-07,1.75250812e-01
-2.46041250e-07,1.75187375e-01
-2.46001250e-07,1.75258063e-01
-2.45961250e-07,1.75166531e-01
-2.45921250e-07,1.75364094e-01
-2.45881250e-07,1.75456531e-01
-2.45841250e-07,1.75467406e-01
-2.45801250e-07,1.75414844e-01
-2.45761250e-07,1.75583406e-01
-2.45721250e-07,1.75699406e-01
-2.45681250e-07,1.75690344e-01
-2.45641250e-07,1.75655000e-01
-2.45601250e-07,1.75807250e-01
-2.45561250e-07,1.75938656e-01
-2.45521250e-07,1.75915094e-01
-2.45481250e-07,1.75894250e-01
-2.45441250e-07,1.76032906e-01
-2.45401250e-07,1.76177000e-01
-2.45361250e-07,1.76140750e-01
-2.45321250e-07,1.76132594e-01
-2.45281250e-07,1.76257656e-01
-2.45241250e-07,1.76416250e-01
-2.45201250e-07,1.76365500e-01
-2.45161250e-07,1.76372750e-01
-2.45121250e-07,1.76481500e-01
-2.45081250e-07,1.76657312e-01
-2.45041250e-07,1.76587531e-01
-2.45001250e-07,1.76616531e-01
-2.44961250e-07,1.76699000e-01
-2.44921250e-07,1.76908344e-01
-2.44881250e-07,1.76792344e-01
-2.44841250e-07,1.76893844e-01
-2.44801250e-07,1.76783281e-01
-2.44761250e-07,1.76990813e-01
-2.44721250e-07,1.77083250e-01
-2.44681250e-07,1.77081437e-01
-2.44641250e-07,1.77066031e-01
-2.44601250e-07,1.77087781e-01
-2.44561250e-07,1.77062406e-01
-2.44521250e-07,1.77090500e-01
-2.44481250e-07,1.77061500e-01
-2.44441250e-07,1.77091406e-01
-2.44401250e-07,1.77059688e-01
-2.44361250e-07,1.77092312e-01
-2.44321250e-07,1.77058781e-01
-2.44281250e-07,1.77094125e-01
-2.44241250e-07,1.77056969e-01
-2.44201250e-07,1.77096844e-01
-2.44161250e-07,1.77052437e-01
-2.44121250e-07,1.77102281e-01
-2.44081250e-07,1.77043375e-01
-2.44041250e-07,1.77124031e-01
-2.44001250e-07,1.76938250e-01
-2.43961250e-07,1.76831313e-01
-2.43921250e-07,1.76840375e-01
-2.43881250e-07,1.76856687e-01
-2.43841250e-07,1.76822250e-01
-2.43801250e-07,1.76882969e-01
-2.43761250e-07,1.76714406e-01
-2.43721250e-07,1.76592063e-01
-2.43681250e-07,1.76615625e-01
-2.43641250e-07,1.76618344e-01
-2.43601250e-07,1.76596594e-01
-2.43561250e-07,1.76644625e-01
-2.43521250e-07,1.76487844e-01
-2.43481250e-07,1.76353719e-01
-2.43441250e-07,1.76389062e-01
-2.43401250e-07,1.76380000e-01
-2.43361250e-07,1.76370937e-01
-2.43321250e-07,1.76406281e-01
-2.43281250e-07,1.76263094e-01
-2.43241250e-07,1.76114469e-01
-2.43201250e-07,1.76166125e-01
-2.43161250e-07,1.76137125e-01
-2.43121250e-07,1.76153438e-01
-2.43081250e-07,1.76148000e-01
-2.43041250e-07,1.76140750e-01
-2.43001250e-07,1.76170656e-01
-2.42961250e-07,1.76035625e-01
-2.42921250e-07,1.75877031e-01
-2.42881250e-07,1.75940469e-01
-2.42841250e-07,1.75896969e-01
-2.42801250e-07,1.75931406e-01
-2.42761250e-07,1.75902406e-01
-2.42721250e-07,1.75927781e-01
-2.42681250e-07,1.75905125e-01
-2.42641250e-07,1.75926875e-01
-2.42601250e-07,1.75906031e-01
-2.42561250e-07,1.75925969e-01
-2.42521250e-07,1.75906031e-01
-2.42481250e-07,1.75925969e-01
-2.42441250e-07,1.75906031e-01
-2.42401250e-07,1.75926875e-01
-2.42361250e-07,1.75903312e-01
-2.42321250e-07,1.75931406e-01
-2.42281250e-07,1.75896063e-01
-2.42241250e-07,1.75950438e-01
-2.42201250e-07,1.75792750e-01
-2.42161250e-07,1.75654094e-01
-2.42121250e-07,1.75699406e-01
-2.42081250e-07,1.75673125e-01
-2.42041250e-07,1.75692156e-01
-2.42001250e-07,1.75677656e-01
-2.41961250e-07,1.75689437e-01
-2.41921250e-07,1.75678562e-01
-2.41881250e-07,1.75689437e-01
-2.41841250e-07,1.75679469e-01
-2.41801250e-07,1.75689437e-01
-2.41761250e-07,1.75678562e-01
-2.41721250e-07,1.75689437e-01
-2.41681250e-07,1.75677656e-01
-2.41641250e-07,1.75691250e-01
-2.41601250e-07,1.75674937e-01
-2.41561250e-07,1.75695781e-01
-2.41521250e-07,1.75666781e-01
-2.41481250e-07,1.75715719e-01
-2.41441250e-07,1.75563469e-01
-2.41401250e-07,1.75420281e-01
-2.41361250e-07,1.75470125e-01
-2.41321250e-07,1.75438406e-01
-2.41281250e-07,1.75462875e-01
-2.41241250e-07,1.75442031e-01
-2.41201250e-07,1.75461062e-01
-2.41161250e-07,1.75442938e-01
-2.41121250e-07,1.75461969e-01
-2.41081250e-07,1.75439312e-01
-2.41041250e-07,1.75469219e-01
-2.41001250e-07,1.75421187e-01
-2.40961250e-07,1.75570719e-01
-2.40921250e-07,1.75717531e-01
-2.40881250e-07,1.75663156e-01
-2.40841250e-07,1.75700313e-01
-2.40801250e-07,1.75669500e-01
-2.40761250e-07,1.75697594e-01
-2.40721250e-07,1.75670406e-01
-2.40681250e-07,1.75699406e-01
-2.40641250e-07,1.75665875e-01
-2.40601250e-07,1.75707562e-01
-2.40561250e-07,1.75645937e-01
-2.40521250e-07,1.75810875e-01
-2.40481250e-07,1.75940469e-01
-2.40441250e-07,1.75906031e-01
-2.40401250e-07,1.75918719e-01
-2.40361250e-07,1.75917812e-01
-2.40321250e-07,1.75909656e-01
-2.40281250e-07,1.75929594e-01
-2.40241250e-07,1.75887000e-01
-2.40201250e-07,1.76034719e-01
-2.40161250e-07,1.76180625e-01
-2.40121250e-07,1.76129875e-01
-2.40081250e-07,1.76159781e-01
-2.40041250e-07,1.76139844e-01
-2.40001250e-07,1.76152531e-01
-2.39961250e-07,1.76146187e-01
-2.39921250e-07,1.76146187e-01
-2.39881250e-07,1.76156156e-01
-2.39841250e-07,1.76124438e-01
-2.39801250e-07,1.76260375e-01
-2.39761250e-07,1.76418969e-01
-2.39721250e-07,1.76355531e-01
-2.39681250e-07,1.76399031e-01
-2.39641250e-07,1.76363688e-01
-2.39601250e-07,1.76394500e-01
-2.39561250e-07,1.76367312e-01
-2.39521250e-07,1.76391781e-01
-2.39481250e-07,1.76368219e-01
-2.39441250e-07,1.76390875e-01
-2.39401250e-07,1.76369125e-01
-2.39361250e-07,1.76389969e-01
-2.39321250e-07,1.76370031e-01
-2.39281250e-07,1.76389969e-01
-2.39241250e-07,1.76370031e-01
-2.39201250e-07,1.76389969e-01
-2.39161250e-07,1.76370031e-01
-2.39121250e-07,1.76389969e-01
-2.39081250e-07,1.76369125e-01
-2.39041250e-07,1.76390875e-01
-2.39001250e-07,1.76368219e-01
-2.38961250e-07,1.76392688e-01
-2.38921250e-07,1.76365500e-01
-2.38881250e-07,1.76397219e-01
-2.38841250e-07,1.76357344e-01
-2.38801250e-07,1.76417156e-01
-2.38761250e-07,1.76254031e-01
-2.38721250e-07,1.76121719e-01
-2.38681250e-07,1.76160687e-01
-2.38641250e-07,1.76140750e-01
-2.38601250e-07,1.76152531e-01
-2.38561250e-07,1.76145281e-01
-2.38521250e-07,1.76148906e-01
-2.38481250e-07,1.76148000e-01
-2.38441250e-07,1.76148000e-01
-2.38401250e-07,1.76148906e-01
-2.38361250e-07,1.76147094e-01
-2.38321250e-07,1.76149813e-01
-2.38281250e-07,1.76146187e-01
-2.38241250e-07,1.76149813e-01
-2.38201250e-07,1.76145281e-01
-2.38161250e-07,1.76150719e-01
-2.38121250e-07,1.76145281e-01
-2.38081250e-07,1.76150719e-01
-2.38041250e-07,1.76144375e-01
-2.38001250e-07,1.76151625e-01
-2.37961250e-07,1.76144375e-01
-2.37921250e-07,1.76151625e-01
-2.37881250e-07,1.76143469e-01
-2.37841250e-07,1.76152531e-01
-2.37801250e-07,1.76143469e-01
-2.37761250e-07,1.76153438e-01
-2.37721250e-07,1.76142562e-01
-2.37681250e-07,1.76153438e-01
-2.37641250e-07,1.76141656e-01
-2.37601250e-07,1.76155250e-01
-2.37561250e-07,1.76139844e-01
-2.37521250e-07,1.76157062e-01
-2.37481250e-07,1.76137125e-01
-2.37441250e-07,1.76162500e-01
-2.37401250e-07,1.76128062e-01
-2.37361250e-07,1.76182438e-01
-2.37321250e-07,1.76024750e-01
-2.37281250e-07,1.75887000e-01
-2.37241250e-07,1.75931406e-01
-2.37201250e-07,1.75906031e-01
-2.37161250e-07,1.75922344e-01
-2.37121250e-07,1.75911469e-01
-2.37081250e-07,1.75919625e-01
-2.37041250e-07,1.75913281e-01
-2.37001250e-07,1.75917812e-01
-2.36961250e-07,1.75915094e-01
-2.36921250e-07,1.75916906e-01
-2.36881250e-07,1.75916000e-01
-2.36841250e-07,1.75916000e-01
-2.36801250e-07,1.75916000e-01
-2.36761250e-07,1.75915094e-01
-2.36721250e-07,1.75916906e-01
-2.36681250e-07,1.75914187e-01
-2.36641250e-07,1.75917812e-01
-2.36601250e-07,1.75913281e-01
-2.36561250e-07,1.75918719e-01
-2.36521250e-07,1.75912375e-01
-2.36481250e-07,1.75920531e-01
-2.36441250e-07,1.75910563e-01
-2.36401250e-07,1.75923250e-01
-2.36361250e-07,1.75906031e-01
-2.36321250e-07,1.75931406e-01
-2.36281250e-07,1.75886094e-01
-2.36241250e-07,1.76034719e-01
-2.36201250e-07,1.76182438e-01
-2.36161250e-07,1.76127156e-01
-2.36121250e-07,1.76164313e-01
-2.36081250e-07,1.76133500e-01
-2.36041250e-07,1.76161594e-01
-2.36001250e-07,1.76132594e-01
-2.35961250e-07,1.76167938e-01
-2.35921250e-07,1.76114469e-01
-2.35881250e-07,1.76269437e-01
-2.35841250e-07,1.76411719e-01
-2.35801250e-07,1.76360969e-01
-2.35761250e-07,1.76394500e-01
-2.35721250e-07,1.76367312e-01
-2.35681250e-07,1.76392688e-01
-2.35641250e-07,1.76365500e-01
-2.35601250e-07,1.76399937e-01
-2.35561250e-07,1.76346469e-01
-2.35521250e-07,1.76501437e-01
-2.35481250e-07,1.76643719e-01
-2.35441250e-07,1.76593875e-01
-2.35401250e-07,1.76625594e-01
-2.35361250e-07,1.76600219e-01
-2.35321250e-07,1.76623781e-01
-2.35281250e-07,1.76598406e-01
-2.35241250e-07,1.76630125e-01
-2.35201250e-07,1.76580281e-01
-2.35161250e-07,1.76731625e-01
-2.35121250e-07,1.76877531e-01
-2.35081250e-07,1.76823156e-01
-2.35041250e-07,1.76860313e-01
-2.35001250e-07,1.76829500e-01
-2.34961250e-07,1.76858500e-01
-2.34921250e-07,1.76827687e-01
-2.34881250e-07,1.76865750e-01
-2.34841250e-07,1.76808656e-01
-2.34801250e-07,1.76967250e-01
-2.34761250e-07,1.77105000e-01
-2.34721250e-07,1.77060594e-01
-2.34681250e-07,1.77085969e-01
-2.34641250e-07,1.77067844e-01
-2.34601250e-07,1.77082344e-01
-2.34561250e-07,1.77069656e-01
-2.34521250e-07,1.77082344e-01
-2.34481250e-07,1.77069656e-01
-2.34441250e-07,1.77083250e-01
-2.34401250e-07,1.77066031e-01
-2.34361250e-07,1.77091406e-01
-2.34321250e-07,1.77047000e-01
-2.34281250e-07,1.77193812e-01
-2.34241250e-07,1.77343344e-01
-2.34201250e-07,1.77286250e-01
-2.34161250e-07,1.77325219e-01
-2.34121250e-07,1.77293500e-01
-2.34081250e-07,1.77321594e-01
-2.34041250e-07,1.77294406e-01
-2.34001250e-07,1.77321594e-01
-2.33961250e-07,1.77294406e-01
-2.33921250e-07,1.77322500e-01
-2.33881250e-07,1.77291687e-01
-2.33841250e-07,1.77327938e-01
-2.33801250e-07,1.77282625e-01
-2.33761250e-07,1.77347875e-01
-2.33721250e-07,1.77178406e-01
-2.33681250e-07,1.77053344e-01
-2.33641250e-07,1.77084156e-01
-2.33601250e-07,1.77074188e-01
-2.33561250e-07,1.77073281e-01
-2.33521250e-07,1.77081437e-01
-2.33481250e-07,1.77066937e-01
-2.33441250e-07,1.77089594e-01
-2.33401250e-07,1.77056062e-01
-2.33361250e-07,1.77111344e-01
-2.33321250e-07,1.76950031e-01
-2.33281250e-07,1.76819531e-01
-2.33241250e-07,1.76852156e-01
-2.33201250e-07,1.76844906e-01
-2.33161250e-07,1.76834031e-01
-2.33121250e-07,1.76870281e-01
-2.33081250e-07,1.76727094e-01
-2.33041250e-07,1.76579375e-01
-2.33001250e-07,1.76628312e-01
-2.32961250e-07,1.76603844e-01
-2.32921250e-07,1.76612000e-01
-2.32881250e-07,1.76628312e-01
-2.32841250e-07,1.76505969e-01
-2.32801250e-07,1.76332875e-01
-2.32761250e-07,1.76414437e-01
-2.32721250e-07,1.76346469e-01
-2.32681250e-07,1.76424406e-01
-2.32641250e-07,1.76250406e-01
-2.32601250e-07,1.76123531e-01
-2.32561250e-07,1.76161594e-01
-2.32521250e-07,1.76137125e-01
-2.32481250e-07,1.76159781e-01
-2.32441250e-07,1.76131687e-01
-2.32401250e-07,1.76177906e-01
-2.32361250e-07,1.76030187e-01
-2.32321250e-07,1.75881563e-01
-2.32281250e-07,1.75935938e-01
-2.32241250e-07,1.75901500e-01
-2.32201250e-07,1.75927781e-01
-2.32161250e-07,1.75906031e-01
-2.32121250e-07,1.75925063e-01
-2.32081250e-07,1.75907844e-01
-2.32041250e-07,1.75923250e-01
-2.32001250e-07,1.75909656e-01
-2.31961250e-07,1.75922344e-01
-2.31921250e-07,1.75910563e-01
-2.31881250e-07,1.75921437e-01
-2.31841250e-07,1.75910563e-01
-2.31801250e-07,1.75920531e-01
-2.31761250e-07,1.75911469e-01
-2.31721250e-07,1.75919625e-01
-2.31681250e-07,1.75912375e-01
-2.31641250e-07,1.75919625e-01
-2.31601250e-07,1.75913281e-01
-2.31561250e-07,1.75918719e-01
-2.31521250e-07,1.75914187e-01
-2.31481250e-07,1.75917812e-01
-2.31441250e-07,1.75915094e-01
-2.31401250e-07,1.75916000e-01
-2.31361250e-07,1.75916906e-01
-2.31321250e-07,1.75914187e-01
-2.31281250e-07,1.75920531e-01
-2.31241250e-07,1.75908750e-01
-2.31201250e-07,1.75928687e-01
-2.31161250e-07,1.75887906e-01
-2.31121250e-07,1.76032906e-01
-2.31081250e-07,1.76182438e-01
-2.31041250e-07,1.76128062e-01
-2.31001250e-07,1.76161594e-01
-2.30961250e-07,1.76138031e-01
-2.30921250e-07,1.76153438e-01
-2.30881250e-07,1.76148906e-01
-2.30841250e-07,1.76132594e-01
-2.30801250e-07,1.76252219e-01
-2.30761250e-07,1.76428031e-01
-2.30721250e-07,1.76344656e-01
-2.30681250e-07,1.76411719e-01
-2.30641250e-07,1.76348281e-01
-2.30601250e-07,1.76415344e-01
-2.30561250e-07,1.76331062e-01
-2.30521250e-07,1.76516844e-01
-2.30481250e-07,1.76627406e-01
-2.30441250e-07,1.76610187e-01
-2.30401250e-07,1.76608375e-01
-2.30361250e-07,1.76618344e-01
-2.30321250e-07,1.76603844e-01
-2.30281250e-07,1.76622875e-01
-2.30241250e-07,1.76599312e-01
-2.30201250e-07,1.76627406e-01
-2.30161250e-07,1.76593875e-01
-2.30121250e-07,1.76636469e-01
-2.30081250e-07,1.76572125e-01
-2.30041250e-07,1.76741594e-01
-2.30001250e-07,1.76865750e-01
-2.29961250e-07,1.76837656e-01
-2.29921250e-07,1.76843094e-01
-2.29881250e-07,1.76850344e-01
-2.29841250e-07,1.76830406e-01
-2.29801250e-07,1.76873000e-01
-2.29761250e-07,1.76725281e-01
-2.29721250e-07,1.76579375e-01
-2.29681250e-07,1.76631031e-01
-2.29641250e-07,1.76599312e-01
-2.29601250e-07,1.76621969e-01
-2.29561250e-07,1.76602938e-01
-2.29521250e-07,1.76620156e-01
-2.29481250e-07,1.76603844e-01
-2.29441250e-07,1.76621969e-01
-2.29401250e-07,1.76597500e-01
-2.29361250e-07,1.76639187e-01
-2.29321250e-07,1.76496906e-01
-2.29281250e-07,1.76341031e-01
-2.29241250e-07,1.76406281e-01
-2.29201250e-07,1.76356437e-01
-2.29161250e-07,1.76404469e-01
-2.29121250e-07,1.76351000e-01
-2.29081250e-07,1.76423500e-01
-2.29041250e-07,1.76247687e-01
-2.29001250e-07,1.76128969e-01
-2.28961250e-07,1.76150719e-01
-2.28921250e-07,1.76153438e-01
-2.28881250e-07,1.76134406e-01
-2.28841250e-07,1.76177906e-01
-2.28801250e-07,1.76027469e-01
-2.28761250e-07,1.75886094e-01
-2.28721250e-07,1.75931406e-01
-2.28681250e-07,1.75907844e-01
-2.28641250e-07,1.75918719e-01
-2.28601250e-07,1.75917812e-01
-2.28561250e-07,1.75906937e-01
-2.28521250e-07,1.75940469e-01
-2.28481250e-07,1.75801812e-01
-2.28441250e-07,1.75646844e-01
-2.28401250e-07,1.75707562e-01
-2.28361250e-07,1.75666781e-01
-2.28321250e-07,1.75698500e-01
-2.28281250e-07,1.75672219e-01
-2.28241250e-07,1.75694875e-01
-2.28201250e-07,1.75674031e-01
-2.28161250e-07,1.75693062e-01
-2.28121250e-07,1.75675844e-01
-2.28081250e-07,1.75691250e-01
-2.28041250e-07,1.75676750e-01
-2.28001250e-07,1.75690344e-01
-2.27961250e-07,1.75677656e-01
-2.27921250e-07,1.75690344e-01
-2.27881250e-07,1.75677656e-01
-2.27841250e-07,1.75689437e-01
-2.27801250e-07,1.75678562e-01
-2.27761250e-07,1.75689437e-01
-2.27721250e-07,1.75678562e-01
-2.27681250e-07,1.75689437e-01
-2.27641250e-07,1.75678562e-01
-2.27601250e-07,1.75689437e-01
-2.27561250e-07,1.75678562e-01
-2.27521250e-07,1.75689437e-01
-2.27481250e-07,1.75678562e-01
-2.27441250e-07,1.75689437e-01
-2.27401250e-07,1.75678562e-01
-2.27361250e-07,1.75689437e-01
-2.27321250e-07,1.75678562e-01
-2.27281250e-07,1.75690344e-01
-2.27241250e-07,1.75677656e-01
-2.27201250e-07,1.75690344e-01
-2.27161250e-07,1.75676750e-01
-2.27121250e-07,1.75691250e-01
-2.27081250e-07,1.75675844e-01
-2.27041250e-07,1.75693062e-01
-2.27001250e-07,1.75674031e-01
-2.26961250e-07,1.75695781e-01
-2.26921250e-07,1.75669500e-01
-2.26881250e-07,1.75704844e-01
-2.26841250e-07,1.75648656e-01
-2.26801250e-07,1.75808156e-01
-2.26761250e-07,1.75944094e-01
-2.26721250e-07,1.75901500e-01
-2.26681250e-07,1.75925063e-01
-2.26641250e-07,1.75910563e-01
-2.26601250e-07,1.75919625e-01
-2.26561250e-07,1.75913281e-01
-2.26521250e-07,1.75917812e-01
-2.26481250e-07,1.75915094e-01
-2.26441250e-07,1.75916000e-01
-2.26401250e-07,1.75916906e-01
-2.26361250e-07,1.75914187e-01
-2.26321250e-07,1.75918719e-01
-2.26281250e-07,1.75912375e-01
-2.26241250e-07,1.75920531e-01
-2.26201250e-07,1.75909656e-01
-2.26161250e-07,1.75924156e-01
-2.26121250e-07,1.75905125e-01
-2.26081250e-07,1.75933219e-01
-2.26041250e-07,1.75884281e-01
-2.26001250e-07,1.76036531e-01
-2.25961250e-07,1.76179719e-01
-2.25921250e-07,1.76130781e-01
-2.25881250e-07,1.76159781e-01
-2.25841250e-07,1.76139844e-01
-2.25801250e-07,1.76154344e-01
-2.25761250e-07,1.76143469e-01
-2.25721250e-07,1.76150719e-01
-2.25681250e-07,1.76147094e-01
-2.25641250e-07,1.76148000e-01
-2.25601250e-07,1.76150719e-01
-2.25561250e-07,1.76142562e-01
-2.25521250e-07,1.76159781e-01
-2.25481250e-07,1.76121719e-01
-2.25441250e-07,1.76263094e-01
-2.25401250e-07,1.76417156e-01
-2.25361250e-07,1.76357344e-01
-2.25321250e-07,1.76397219e-01
-2.25281250e-07,1.76365500e-01
-2.25241250e-07,1.76392688e-01
-2.25201250e-07,1.76369125e-01
-2.25161250e-07,1.76390875e-01
-2.25121250e-07,1.76370031e-01
-2.25081250e-07,1.76389062e-01
-2.25041250e-07,1.76370937e-01
-2.25001250e-07,1.76389062e-01
-2.24961250e-07,1.76371844e-01
-2.24921250e-07,1.76388156e-01
-2.24881250e-07,1.76371844e-01
-2.24841250e-07,1.76388156e-01
-2.24801250e-07,1.76371844e-01
-2.24761250e-07,1.76388156e-01
-2.24721250e-07,1.76371844e-01
-2.24681250e-07,1.76389062e-01
-2.24641250e-07,1.76370937e-01
-2.24601250e-07,1.76389062e-01
-2.24561250e-07,1.76370031e-01
-2.24521250e-07,1.76390875e-01
