dpa/aes_ch1_20250506140526323.csv

Model,MSO66B
Label,
Waveform Type,ANALOG
Horizontal Units,s
Sample Interval,4.00000000e-11
Record Length,25000
Zero Index,6249.03125000
Vertical Units,A
ANALOG_Thumbnail,
yOffset,1.84500000e-01
yPosition,0.00000000e+00

Labels,
TIME,CH1
-2.49961250e-07,1.87275844e-01
-2.49921250e-07,1.87306656e-01
-2.49881250e-07,1.87172531e-01
-2.49841250e-07,1.87011219e-01
-2.49801250e-07,1.87079187e-01
-2.49761250e-07,1.87030250e-01
-2.49721250e-07,1.87071938e-01
-2.49681250e-07,1.87032969e-01
-2.49641250e-07,1.87071031e-01
-2.49601250e-07,1.87032062e-01
-2.49561250e-07,1.87073750e-01
-2.49521250e-07,1.87024812e-01
-2.49481250e-07,1.87093687e-01
-2.49441250e-07,1.86922406e-01
-2.49401250e-07,1.86797344e-01
-2.49361250e-07,1.86828156e-01
-2.49321250e-07,1.86817281e-01
-2.49281250e-07,1.86819094e-01
-2.49241250e-07,1.86823625e-01
-2.49201250e-07,1.86814563e-01
-2.49161250e-07,1.86829063e-01
-2.49121250e-07,1.86805500e-01
-2.49081250e-07,1.86849000e-01
-2.49041250e-07,1.86703094e-01
-2.49001250e-07,1.86552656e-01
-2.48961250e-07,1.86610656e-01
-2.48921250e-07,1.86568969e-01
-2.48881250e-07,1.86607031e-01
-2.48841250e-07,1.86564437e-01
-2.48801250e-07,1.86625156e-01
-2.48761250e-07,1.86462031e-01
-2.48721250e-07,1.86329719e-01
-2.48681250e-07,1.86367781e-01
-2.48641250e-07,1.86351469e-01
-2.48601250e-07,1.86352375e-01
-2.48561250e-07,1.86374125e-01
-2.48521250e-07,1.86249063e-01
-2.48481250e-07,1.86077781e-01
-2.48441250e-07,1.86158437e-01
-2.48401250e-07,1.86090469e-01
-2.48361250e-07,1.86168406e-01
-2.48321250e-07,1.85993500e-01
-2.48281250e-07,1.85867531e-01
-2.48241250e-07,1.85906500e-01
-2.48201250e-07,1.85877500e-01
-2.48161250e-07,1.85918281e-01
-2.48121250e-07,1.85778719e-01
-2.48081250e-07,1.85619219e-01
-2.48041250e-07,1.85689000e-01
-2.48001250e-07,1.85633719e-01
-2.47961250e-07,1.85686281e-01
-2.47921250e-07,1.85629187e-01
-2.47881250e-07,1.85704406e-01
-2.47841250e-07,1.85527688e-01
-2.47801250e-07,1.85408062e-01
-2.47761250e-07,1.85434344e-01
-2.47721250e-07,1.85427094e-01
-2.47681250e-07,1.85426188e-01
-2.47641250e-07,1.85431625e-01
-2.47601250e-07,1.85423469e-01
-2.47561250e-07,1.85433437e-01
-2.47521250e-07,1.85421656e-01
-2.47481250e-07,1.85435250e-01
-2.47441250e-07,1.85419844e-01
-2.47401250e-07,1.85437062e-01
-2.47361250e-07,1.85418031e-01
-2.47321250e-07,1.85438875e-01
-2.47281250e-07,1.85415312e-01
-2.47241250e-07,1.85442500e-01
-2.47201250e-07,1.85409875e-01
-2.47161250e-07,1.85452469e-01
-2.47121250e-07,1.85389031e-01
-2.47081250e-07,1.85556687e-01
-2.47041250e-07,1.85683563e-01
-2.47001250e-07,1.85650938e-01
-2.46961250e-07,1.85661812e-01
-2.46921250e-07,1.85662719e-01
-2.46881250e-07,1.85652750e-01
-2.46841250e-07,1.85673594e-01
-2.46801250e-07,1.85631906e-01
-2.46761250e-07,1.85776906e-01
-2.46721250e-07,1.85927344e-01
-2.46681250e-07,1.85870250e-01
-2.46641250e-07,1.85910125e-01
-2.46601250e-07,1.85873875e-01
-2.46561250e-07,1.85913750e-01
-2.46521250e-07,1.85857562e-01
-2.46481250e-07,1.86014344e-01
-2.46441250e-07,1.86153906e-01
-2.46401250e-07,1.86108594e-01
-2.46361250e-07,1.86132156e-01
-2.46321250e-07,1.86122188e-01
-2.46281250e-07,1.86111312e-01
-2.46241250e-07,1.86224594e-01
-2.46201250e-07,1.86408562e-01
-2.46161250e-07,1.86313406e-01
-2.46121250e-07,1.86399500e-01
-2.46081250e-07,1.86300719e-01
-2.46041250e-07,1.86500094e-01
-2.46001250e-07,1.86596156e-01
-2.45961250e-07,1.86595250e-01
-2.45921250e-07,1.86572594e-01
-2.45881250e-07,1.86612469e-01
-2.45841250e-07,1.86547219e-01
-2.45801250e-07,1.86720312e-01
-2.45761250e-07,1.86838125e-01
-2.45721250e-07,1.86818188e-01
-2.45681250e-07,1.86811844e-01
-2.45641250e-07,1.86837219e-01
-2.45601250e-07,1.86785563e-01
-2.45561250e-07,1.86945969e-01
-2.45521250e-07,1.87076469e-01
-2.45481250e-07,1.87044750e-01
-2.45441250e-07,1.87050187e-01
-2.45401250e-07,1.87062875e-01
-2.45361250e-07,1.87023906e-01
-2.45321250e-07,1.87170719e-01
-2.45281250e-07,1.87315719e-01
-2.45241250e-07,1.87267688e-01
-2.45201250e-07,1.87293062e-01
-2.45161250e-07,1.87279469e-01
-2.45121250e-07,1.87284906e-01
-2.45081250e-07,1.87286719e-01
-2.45041250e-07,1.87276750e-01
-2.45001250e-07,1.87297594e-01
-2.44961250e-07,1.87255000e-01
-2.44921250e-07,1.87403625e-01
-2.44881250e-07,1.87547719e-01
-2.44841250e-07,1.87498781e-01
-2.44801250e-07,1.87526875e-01
-2.44761250e-07,1.87509656e-01
-2.44721250e-07,1.87519625e-01
-2.44681250e-07,1.87515094e-01
-2.44641250e-07,1.87514187e-01
-2.44601250e-07,1.87522344e-01
-2.44561250e-07,1.87503312e-01
-2.44521250e-07,1.87544094e-01
-2.44481250e-07,1.87398188e-01
-2.44441250e-07,1.87249562e-01
-2.44401250e-07,1.87303937e-01
-2.44361250e-07,1.87270406e-01
-2.44321250e-07,1.87293969e-01
-2.44281250e-07,1.87276750e-01
-2.44241250e-07,1.87289437e-01
-2.44201250e-07,1.87280375e-01
-2.44161250e-07,1.87285813e-01
-2.44121250e-07,1.87284000e-01
-2.44081250e-07,1.87281281e-01
-2.44041250e-07,1.87289437e-01
-2.44001250e-07,1.87272219e-01
-2.43961250e-07,1.87311188e-01
-2.43921250e-07,1.87168000e-01
-2.43881250e-07,1.87015750e-01
-2.43841250e-07,1.87073750e-01
-2.43801250e-07,1.87035687e-01
-2.43761250e-07,1.87064687e-01
-2.43721250e-07,1.87041125e-01
-2.43681250e-07,1.87061062e-01
-2.43641250e-07,1.87043844e-01
-2.43601250e-07,1.87059250e-01
-2.43561250e-07,1.87044750e-01
-2.43521250e-07,1.87058344e-01
-2.43481250e-07,1.87046562e-01
-2.43441250e-07,1.87057438e-01
-2.43401250e-07,1.87047469e-01
-2.43361250e-07,1.87056531e-01
-2.43321250e-07,1.87047469e-01
-2.43281250e-07,1.87055625e-01
-2.43241250e-07,1.87048375e-01
-2.43201250e-07,1.87055625e-01
-2.43161250e-07,1.87048375e-01
-2.43121250e-07,1.87054719e-01
-2.43081250e-07,1.87049281e-01
-2.43041250e-07,1.87054719e-01
-2.43001250e-07,1.87049281e-01
-2.42961250e-07,1.87053812e-01
-2.42921250e-07,1.87050187e-01
-2.42881250e-07,1.87053812e-01
-2.42841250e-07,1.87050187e-01
-2.42801250e-07,1.87053812e-01
-2.42761250e-07,1.87051094e-01
-2.42721250e-07,1.87052906e-01
-2.42681250e-07,1.87051094e-01
-2.42641250e-07,1.87052906e-01
-2.42601250e-07,1.87051094e-01
-2.42561250e-07,1.87052000e-01
-2.42521250e-07,1.87052000e-01
-2.42481250e-07,1.87052000e-01
-2.42441250e-07,1.87052000e-01
-2.42401250e-07,1.87052000e-01
-2.42361250e-07,1.87052906e-01
-2.42321250e-07,1.87051094e-01
-2.42281250e-07,1.87052906e-01
-2.42241250e-07,1.87050187e-01
-2.42201250e-07,1.87053812e-01
-2.42161250e-07,1.87050187e-01
-2.42121250e-07,1.87054719e-01
-2.42081250e-07,1.87049281e-01
-2.42041250e-07,1.87055625e-01
-2.42001250e-07,1.87048375e-01
-2.41961250e-07,1.87056531e-01
-2.41921250e-07,1.87046562e-01
-2.41881250e-07,1.87059250e-01
-2.41841250e-07,1.87042938e-01
-2.41801250e-07,1.87063781e-01
-2.41761250e-07,1.87033875e-01
-2.41721250e-07,1.87084625e-01
-2.41681250e-07,1.86930563e-01
-2.41641250e-07,1.86790094e-01
-2.41601250e-07,1.86835406e-01
-2.41561250e-07,1.86810031e-01
-2.41521250e-07,1.86826344e-01
-2.41481250e-07,1.86816375e-01
-2.41441250e-07,1.86820906e-01
-2.41401250e-07,1.86822719e-01
-2.41361250e-07,1.86811844e-01
-2.41321250e-07,1.86842656e-01
-2.41281250e-07,1.86708531e-01
-2.41241250e-07,1.86546313e-01
-2.41201250e-07,1.86616094e-01
-2.41161250e-07,1.86563531e-01
-2.41121250e-07,1.86612469e-01
-2.41081250e-07,1.86559000e-01
-2.41041250e-07,1.86630594e-01
-2.41001250e-07,1.86457500e-01
-2.40961250e-07,1.86334250e-01
-2.40921250e-07,1.86363250e-01
-2.40881250e-07,1.86356906e-01
-2.40841250e-07,1.86347844e-01
-2.40801250e-07,1.86378656e-01
-2.40761250e-07,1.86244531e-01
-2.40721250e-07,1.86082312e-01
-2.40681250e-07,1.86153906e-01
-2.40641250e-07,1.86094094e-01
-2.40601250e-07,1.86164781e-01
-2.40561250e-07,1.85997125e-01
-2.40521250e-07,1.85863906e-01
-2.40481250e-07,1.85910125e-01
-2.40441250e-07,1.85873875e-01
-2.40401250e-07,1.85921906e-01
-2.40361250e-07,1.85776000e-01
-2.40321250e-07,1.85621938e-01
-2.40281250e-07,1.85686281e-01
-2.40241250e-07,1.85636438e-01
-2.40201250e-07,1.85683563e-01
-2.40161250e-07,1.85631906e-01
-2.40121250e-07,1.85702594e-01
-2.40081250e-07,1.85528594e-01
-2.40041250e-07,1.85407156e-01
-2.40001250e-07,1.85434344e-01
-2.39961250e-07,1.85428000e-01
-2.39921250e-07,1.85423469e-01
-2.39881250e-07,1.85437062e-01
-2.39841250e-07,1.85412594e-01
-2.39801250e-07,1.85458812e-01
-2.39761250e-07,1.85307469e-01
-2.39721250e-07,1.85165187e-01
-2.39681250e-07,1.85213219e-01
-2.39641250e-07,1.85185125e-01
-2.39601250e-07,1.85204156e-01
-2.39561250e-07,1.85190562e-01
-2.39521250e-07,1.85200531e-01
-2.39481250e-07,1.85193281e-01
-2.39441250e-07,1.85197813e-01
-2.39401250e-07,1.85195094e-01
-2.39361250e-07,1.85196906e-01
-2.39321250e-07,1.85196000e-01
-2.39281250e-07,1.85195094e-01
-2.39241250e-07,1.85197813e-01
-2.39201250e-07,1.85194187e-01
-2.39161250e-07,1.85198719e-01
-2.39121250e-07,1.85192375e-01
-2.39081250e-07,1.85200531e-01
-2.39041250e-07,1.85190562e-01
-2.39001250e-07,1.85203250e-01
-2.38961250e-07,1.85187844e-01
-2.38921250e-07,1.85206875e-01
-2.38881250e-07,1.85182406e-01
-2.38841250e-07,1.85215938e-01
-2.38801250e-07,1.85161562e-01
-2.38761250e-07,1.85320156e-01
-2.38721250e-07,1.85455188e-01
-2.38681250e-07,1.85415312e-01
-2.38641250e-07,1.85434344e-01
-2.38601250e-07,1.85425281e-01
-2.38561250e-07,1.85427094e-01
-2.38521250e-07,1.85432531e-01
-2.38481250e-07,1.85419844e-01
-2.38441250e-07,1.85442500e-01
-2.38401250e-07,1.85398094e-01
-2.38361250e-07,1.85547625e-01
-2.38321250e-07,1.85691719e-01
-2.38281250e-07,1.85643687e-01
-2.38241250e-07,1.85669969e-01
-2.38201250e-07,1.85653656e-01
-2.38161250e-07,1.85662719e-01
-2.38121250e-07,1.85660000e-01
-2.38081250e-07,1.85655469e-01
-2.38041250e-07,1.85670875e-01
-2.38001250e-07,1.85633719e-01
-2.37961250e-07,1.85776000e-01
-2.37921250e-07,1.85928250e-01
-2.37881250e-07,1.85870250e-01
-2.37841250e-07,1.85907406e-01
-2.37801250e-07,1.85880219e-01
-2.37761250e-07,1.85901969e-01
-2.37721250e-07,1.85883844e-01
-2.37681250e-07,1.85898344e-01
-2.37641250e-07,1.85886562e-01
-2.37601250e-07,1.85895625e-01
-2.37561250e-07,1.85889281e-01
-2.37521250e-07,1.85892906e-01
-2.37481250e-07,1.85893813e-01
-2.37441250e-07,1.85887469e-01
-2.37401250e-07,1.85902875e-01
-2.37361250e-07,1.85866625e-01
-2.37321250e-07,1.86006188e-01
-2.37281250e-07,1.86161156e-01
-2.37241250e-07,1.86100437e-01
-2.37201250e-07,1.86141219e-01
-2.37161250e-07,1.86109500e-01
-2.37121250e-07,1.86136688e-01
-2.37081250e-07,1.86113125e-01
-2.37041250e-07,1.86133969e-01
-2.37001250e-07,1.86114937e-01
-2.36961250e-07,1.86133063e-01
-2.36921250e-07,1.86115844e-01
-2.36881250e-07,1.86132156e-01
-2.36841250e-07,1.86116750e-01
-2.36801250e-07,1.86131250e-01
-2.36761250e-07,1.86117656e-01
-2.36721250e-07,1.86130344e-01
-2.36681250e-07,1.86117656e-01
-2.36641250e-07,1.86130344e-01
-2.36601250e-07,1.86118563e-01
-2.36561250e-07,1.86129437e-01
-2.36521250e-07,1.86118563e-01
-2.36481250e-07,1.86129437e-01
-2.36441250e-07,1.86118563e-01
-2.36401250e-07,1.86129437e-01
-2.36361250e-07,1.86119469e-01
-2.36321250e-07,1.86128531e-01
-2.36281250e-07,1.86119469e-01
-2.36241250e-07,1.86128531e-01
-2.36201250e-07,1.86119469e-01
-2.36161250e-07,1.86128531e-01
-2.36121250e-07,1.86119469e-01
-2.36081250e-07,1.86128531e-01
-2.36041250e-07,1.86119469e-01
-2.36001250e-07,1.86127625e-01
-2.35961250e-07,1.86120375e-01
-2.35921250e-07,1.86127625e-01
-2.35881250e-07,1.86120375e-01
-2.35841250e-07,1.86127625e-01
-2.35801250e-07,1.86120375e-01
-2.35761250e-07,1.86127625e-01
-2.35721250e-07,1.86120375e-01
-2.35681250e-07,1.86127625e-01
-2.35641250e-07,1.86120375e-01
-2.35601250e-07,1.86127625e-01
-2.35561250e-07,1.86120375e-01
-2.35521250e-07,1.86127625e-01
-2.35481250e-07,1.86120375e-01
-2.35441250e-07,1.86127625e-01
-2.35401250e-07,1.86120375e-01
-2.35361250e-07,1.86127625e-01
-2.35321250e-07,1.86120375e-01
-2.35281250e-07,1.86127625e-01
-2.35241250e-07,1.86120375e-01
-2.35201250e-07,1.86127625e-01
-2.35161250e-07,1.86120375e-01
-2.35121250e-07,1.86127625e-01
-2.35081250e-07,1.86120375e-01
-2.35041250e-07,1.86127625e-01
-2.35001250e-07,1.86120375e-01
-2.34961250e-07,1.86127625e-01
-2.34921250e-07,1.86120375e-01
-2.34881250e-07,1.86127625e-01
-2.34841250e-07,1.86120375e-01
-2.34801250e-07,1.86128531e-01
-2.34761250e-07,1.86119469e-01
-2.34721250e-07,1.86128531e-01
-2.34681250e-07,1.86118563e-01
-2.34641250e-07,1.86130344e-01
-2.34601250e-07,1.86116750e-01
-2.34561250e-07,1.86133063e-01
-2.34521250e-07,1.86112219e-01
-2.34481250e-07,1.86141219e-01
-2.34441250e-07,1.86092281e-01
-2.34401250e-07,1.86244531e-01
-2.34361250e-07,1.86388625e-01
-2.34321250e-07,1.86337875e-01
-2.34281250e-07,1.86369594e-01
-2.34241250e-07,1.86345125e-01
-2.34201250e-07,1.86365062e-01
-2.34161250e-07,1.86347844e-01
-2.34121250e-07,1.86363250e-01
-2.34081250e-07,1.86348750e-01
-2.34041250e-07,1.86363250e-01
-2.34001250e-07,1.86348750e-01
-2.33961250e-07,1.86363250e-01
-2.33921250e-07,1.86347844e-01
-2.33881250e-07,1.86364156e-01
-2.33841250e-07,1.86346938e-01
-2.33801250e-07,1.86365969e-01
-2.33761250e-07,1.86343312e-01
-2.33721250e-07,1.86371406e-01
-2.33681250e-07,1.86335156e-01
-2.33641250e-07,1.86391344e-01
-2.33601250e-07,1.86231844e-01
-2.33561250e-07,1.86096812e-01
-2.33521250e-07,1.86137594e-01
-2.33481250e-07,1.86116750e-01
-2.33441250e-07,1.86128531e-01
-2.33401250e-07,1.86122188e-01
-2.33361250e-07,1.86124000e-01
-2.33321250e-07,1.86125812e-01
-2.33281250e-07,1.86120375e-01
-2.33241250e-07,1.86129437e-01
-2.33201250e-07,1.86116750e-01
-2.33161250e-07,1.86134875e-01
-2.33121250e-07,1.86106781e-01
-2.33081250e-07,1.86156625e-01
-2.33041250e-07,1.86001656e-01
-2.33001250e-07,1.85863000e-01
-2.32961250e-07,1.85906500e-01
-2.32921250e-07,1.85884750e-01
-2.32881250e-07,1.85894719e-01
-2.32841250e-07,1.85894719e-01
-2.32801250e-07,1.85882031e-01
-2.32761250e-07,1.85917375e-01
-2.32721250e-07,1.85776906e-01
-2.32681250e-07,1.85624656e-01
-2.32641250e-07,1.85680844e-01
-2.32601250e-07,1.85646406e-01
-2.32561250e-07,1.85669063e-01
-2.32521250e-07,1.85655469e-01
-2.32481250e-07,1.85657281e-01
-2.32441250e-07,1.85678125e-01
-2.32401250e-07,1.85553063e-01
-2.32361250e-07,1.85383594e-01
-2.32321250e-07,1.85458812e-01
-2.32281250e-07,1.85402625e-01
-2.32241250e-07,1.85450656e-01
-2.32201250e-07,1.85406250e-01
-2.32161250e-07,1.85449750e-01
-2.32121250e-07,1.85406250e-01
-2.32081250e-07,1.85452469e-01
-2.32041250e-07,1.85399000e-01
-2.32001250e-07,1.85470594e-01
-2.31961250e-07,1.85296594e-01
-2.31921250e-07,1.85175156e-01
-2.31881250e-07,1.85203250e-01
-2.31841250e-07,1.85193281e-01
-2.31801250e-07,1.85196000e-01
-2.31761250e-07,1.85197813e-01
-2.31721250e-07,1.85193281e-01
-2.31681250e-07,1.85199625e-01
-2.31641250e-07,1.85191469e-01
-2.31601250e-07,1.85200531e-01
-2.31561250e-07,1.85190562e-01
-2.31521250e-07,1.85201438e-01
-2.31481250e-07,1.85190562e-01
-2.31441250e-07,1.85201438e-01
-2.31401250e-07,1.85189656e-01
-2.31361250e-07,1.85202344e-01
-2.31321250e-07,1.85189656e-01
-2.31281250e-07,1.85203250e-01
-2.31241250e-07,1.85188750e-01
-2.31201250e-07,1.85204156e-01
-2.31161250e-07,1.85186938e-01
-2.31121250e-07,1.85205969e-01
-2.31081250e-07,1.85185125e-01
-2.31041250e-07,1.85208687e-01
-2.31001250e-07,1.85180594e-01
-2.30961250e-07,1.85216844e-01
-2.30921250e-07,1.85160656e-01
-2.30881250e-07,1.85320156e-01
-2.30841250e-07,1.85456094e-01
-2.30801250e-07,1.85413500e-01
-2.30761250e-07,1.85437969e-01
-2.30721250e-07,1.85419844e-01
-2.30681250e-07,1.85435250e-01
-2.30641250e-07,1.85419844e-01
-2.30601250e-07,1.85440688e-01
-2.30561250e-07,1.85402625e-01
-2.30521250e-07,1.85541281e-01
-2.30481250e-07,1.85700781e-01
-2.30441250e-07,1.85631000e-01
-2.30401250e-07,1.85686281e-01
-2.30361250e-07,1.85632812e-01
-2.30321250e-07,1.85691719e-01
-2.30281250e-07,1.85613781e-01
-2.30241250e-07,1.85795031e-01
-2.30201250e-07,1.85908313e-01
-2.30161250e-07,1.85892000e-01
-2.30121250e-07,1.85883844e-01
-2.30081250e-07,1.85909219e-01
-2.30041250e-07,1.85858469e-01
-2.30001250e-07,1.86017062e-01
-2.29961250e-07,1.86149375e-01
-2.29921250e-07,1.86114937e-01
-2.29881250e-07,1.86124000e-01
-2.29841250e-07,1.86133063e-01
-2.29801250e-07,1.86097719e-01
-2.29761250e-07,1.86240906e-01
-2.29721250e-07,1.86389531e-01
-2.29681250e-07,1.86337875e-01
-2.29641250e-07,1.86366875e-01
-2.29601250e-07,1.86349656e-01
-2.29561250e-07,1.86356906e-01
-2.29521250e-07,1.86362344e-01
-2.29481250e-07,1.86334250e-01
-2.29441250e-07,1.86467469e-01
-2.29401250e-07,1.86627875e-01
-2.29361250e-07,1.86562625e-01
-2.29321250e-07,1.86607937e-01
-2.29281250e-07,1.86571687e-01
-2.29241250e-07,1.86602500e-01
-2.29201250e-07,1.86575313e-01
-2.29161250e-07,1.86599781e-01
-2.29121250e-07,1.86577125e-01
-2.29081250e-07,1.86598875e-01
-2.29041250e-07,1.86578031e-01
-2.29001250e-07,1.86597969e-01
-2.28961250e-07,1.86578937e-01
-2.28921250e-07,1.86597062e-01
-2.28881250e-07,1.86578937e-01
-2.28841250e-07,1.86597062e-01
-2.28801250e-07,1.86578937e-01
-2.28761250e-07,1.86597062e-01
-2.28721250e-07,1.86578937e-01
-2.28681250e-07,1.86597062e-01
-2.28641250e-07,1.86578031e-01
-2.28601250e-07,1.86597969e-01
-2.28561250e-07,1.86577125e-01
-2.28521250e-07,1.86599781e-01
-2.28481250e-07,1.86574406e-01
-2.28441250e-07,1.86604313e-01
-2.28401250e-07,1.86566250e-01
-2.28361250e-07,1.86624250e-01
-2.28321250e-07,1.86462938e-01
-2.28281250e-07,1.86328812e-01
-2.28241250e-07,1.86369594e-01
-2.28201250e-07,1.86347844e-01
-2.28161250e-07,1.86361438e-01
-2.28121250e-07,1.86351469e-01
-2.28081250e-07,1.86359625e-01
-2.28041250e-07,1.86353281e-01
-2.28001250e-07,1.86358719e-01
-2.27961250e-07,1.86354187e-01
-2.27921250e-07,1.86357812e-01
-2.27881250e-07,1.86353281e-01
-2.27841250e-07,1.86358719e-01
-2.27801250e-07,1.86352375e-01
-2.27761250e-07,1.86361438e-01
-2.27721250e-07,1.86347844e-01
-2.27681250e-07,1.86368687e-01
-2.27641250e-07,1.86328812e-01
-2.27601250e-07,1.86472000e-01
-2.27561250e-07,1.86625156e-01
-2.27521250e-07,1.86564437e-01
-2.27481250e-07,1.86606125e-01
-2.27441250e-07,1.86571687e-01
-2.27401250e-07,1.86603406e-01
-2.27361250e-07,1.86573500e-01
-2.27321250e-07,1.86602500e-01
-2.27281250e-07,1.86572594e-01
-2.27241250e-07,1.86605219e-01
-2.27201250e-07,1.86568062e-01
-2.27161250e-07,1.86613375e-01
-2.27121250e-07,1.86548125e-01
-2.27081250e-07,1.86716688e-01
-2.27041250e-07,1.86843563e-01
-2.27001250e-07,1.86810031e-01
-2.26961250e-07,1.86823625e-01
-2.26921250e-07,1.86819094e-01
-2.26881250e-07,1.86819094e-01
-2.26841250e-07,1.86822719e-01
-2.26801250e-07,1.86815469e-01
-2.26761250e-07,1.86826344e-01
-2.26721250e-07,1.86811844e-01
-2.26681250e-07,1.86829969e-01
-2.26641250e-07,1.86806406e-01
-2.26601250e-07,1.86839031e-01
-2.26561250e-07,1.86785563e-01
-2.26521250e-07,1.86943250e-01
-2.26481250e-07,1.87081000e-01
-2.26441250e-07,1.87037500e-01
-2.26401250e-07,1.87061062e-01
-2.26361250e-07,1.87046562e-01
-2.26321250e-07,1.87055625e-01
-2.26281250e-07,1.87050187e-01
-2.26241250e-07,1.87052906e-01
-2.26201250e-07,1.87052906e-01
-2.26161250e-07,1.87050187e-01
-2.26121250e-07,1.87054719e-01
-2.26081250e-07,1.87048375e-01
-2.26041250e-07,1.87057438e-01
-2.26001250e-07,1.87043844e-01
-2.25961250e-07,1.87062875e-01
-2.25921250e-07,1.87034781e-01
-2.25881250e-07,1.87083719e-01
-2.25841250e-07,1.86931469e-01
-2.25801250e-07,1.86789188e-01
-2.25761250e-07,1.86837219e-01
-2.25721250e-07,1.86809125e-01
-2.25681250e-07,1.86828156e-01
-2.25641250e-07,1.86814563e-01
-2.25601250e-07,1.86824531e-01
-2.25561250e-07,1.86817281e-01
-2.25521250e-07,1.86820906e-01
-2.25481250e-07,1.86820000e-01
-2.25441250e-07,1.86817281e-01
-2.25401250e-07,1.86825437e-01
-2.25361250e-07,1.86809125e-01
-2.25321250e-07,1.86845375e-01
-2.25281250e-07,1.86705812e-01
-2.25241250e-07,1.86549937e-01
-2.25201250e-07,1.86613375e-01
-2.25161250e-07,1.86568062e-01
-2.25121250e-07,1.86607031e-01
-2.25081250e-07,1.86568969e-01
-2.25041250e-07,1.86607937e-01
-2.25001250e-07,1.86562625e-01
-2.24961250e-07,1.86626969e-01
-2.24921250e-07,1.86460219e-01
-2.24881250e-07,1.86331531e-01
-2.24841250e-07,1.86365969e-01
-2.24801250e-07,1.86351469e-01
-2.24761250e-07,1.86356000e-01
-2.24721250e-07,1.86359625e-01
-2.24681250e-07,1.86346031e-01
-2.24641250e-07,1.86380469e-01
-2.24601250e-07,1.86242719e-01
-2.24561250e-07,1.86085031e-01
-2.24521250e-07,1.86149375e-01
