dpa/aes_ch1_20250506140552973.csv

Model,MSO66B
Label,
Waveform Type,ANALOG
Horizontal Units,s
Sample Interval,4.00000000e-11
Record Length,100000
Zero Index,15999.03125000
Vertical Units,A
ANALOG_Thumbnail,
yOffset,1.84500000e-01
yPosition,0.00000000e+00

Labels,
TIME,CH1
-6.39961250e-07,1.84604219e-01
-6.39921250e-07,1.84476438e-01
-6.39881250e-07,1.84509969e-01
-6.39841250e-07,1.84496375e-01
-6.39801250e-07,1.84500000e-01
-6.39761250e-07,1.84501813e-01
-6.39721250e-07,1.84496375e-01
-6.39681250e-07,1.84504531e-01
-6.39641250e-07,1.84493656e-01
-6.39601250e-07,1.84507250e-01
-6.39561250e-07,1.84491844e-01
-6.39521250e-07,1.84509969e-01
-6.39481250e-07,1.84489125e-01
-6.39441250e-07,1.84512687e-01
-6.39401250e-07,1.84485500e-01
-6.39361250e-07,1.84516313e-01
-6.39321250e-07,1.84480062e-01
-6.39281250e-07,1.84526281e-01
-6.39241250e-07,1.84458312e-01
-6.39201250e-07,1.84631406e-01
-6.39161250e-07,1.84751937e-01
-6.39121250e-07,1.84726562e-01
-6.39081250e-07,1.84731094e-01
-6.39041250e-07,1.84737437e-01
-6.39001250e-07,1.84722937e-01
-6.38961250e-07,1.84744688e-01
-6.38921250e-07,1.84714781e-01
-6.38881250e-07,1.84756469e-01
-6.38841250e-07,1.84691219e-01
-6.38801250e-07,1.84863406e-01
-6.38761250e-07,1.84982125e-01
-6.38721250e-07,1.84962187e-01
-6.38681250e-07,1.84956750e-01
-6.38641250e-07,1.84981219e-01
-6.38601250e-07,1.84929563e-01
-6.38561250e-07,1.85089969e-01
-6.38521250e-07,1.85219562e-01
-6.38481250e-07,1.85189656e-01
-6.38441250e-07,1.85192375e-01
-6.38401250e-07,1.85208687e-01
-6.38361250e-07,1.85165187e-01
-6.38321250e-07,1.85318344e-01
-6.38281250e-07,1.85455188e-01
-6.38241250e-07,1.85418031e-01
-6.38201250e-07,1.85428000e-01
-6.38161250e-07,1.85437969e-01
-6.38121250e-07,1.85400812e-01
-6.38081250e-07,1.85546719e-01
-6.38041250e-07,1.85690812e-01
-6.38001250e-07,1.85646406e-01
-6.37961250e-07,1.85664531e-01
-6.37921250e-07,1.85665438e-01
-6.37881250e-07,1.85637344e-01
-6.37841250e-07,1.85774187e-01
-6.37801250e-07,1.85928250e-01
-6.37761250e-07,1.85871156e-01
-6.37721250e-07,1.85904687e-01
-6.37681250e-07,1.85884750e-01
-6.37641250e-07,1.85893813e-01
-6.37601250e-07,1.85897437e-01
-6.37561250e-07,1.85870250e-01
-6.37521250e-07,1.86003469e-01
-6.37481250e-07,1.86163875e-01
-6.37441250e-07,1.86099531e-01
-6.37401250e-07,1.86142125e-01
-6.37361250e-07,1.86109500e-01
-6.37321250e-07,1.86135781e-01
-6.37281250e-07,1.86114031e-01
-6.37241250e-07,1.86132156e-01
-6.37201250e-07,1.86116750e-01
-6.37161250e-07,1.86129437e-01
-6.37121250e-07,1.86120375e-01
-6.37081250e-07,1.86125812e-01
-6.37041250e-07,1.86124906e-01
-6.37001250e-07,1.86120375e-01
-6.36961250e-07,1.86133969e-01
-6.36921250e-07,1.86099531e-01
-6.36881250e-07,1.86238187e-01
-6.36841250e-07,1.86394062e-01
-6.36801250e-07,1.86332438e-01
-6.36761250e-07,1.86374125e-01
-6.36721250e-07,1.86341500e-01
-6.36681250e-07,1.86368687e-01
-6.36641250e-07,1.86345125e-01
-6.36601250e-07,1.86365969e-01
-6.36561250e-07,1.86346938e-01
-6.36521250e-07,1.86364156e-01
-6.36481250e-07,1.86348750e-01
-6.36441250e-07,1.86363250e-01
-6.36401250e-07,1.86349656e-01
-6.36361250e-07,1.86362344e-01
-6.36321250e-07,1.86350562e-01
-6.36281250e-07,1.86361438e-01
-6.36241250e-07,1.86350562e-01
-6.36201250e-07,1.86360531e-01
-6.36161250e-07,1.86351469e-01
-6.36121250e-07,1.86359625e-01
-6.36081250e-07,1.86352375e-01
-6.36041250e-07,1.86359625e-01
-6.36001250e-07,1.86353281e-01
-6.35961250e-07,1.86358719e-01
-6.35921250e-07,1.86353281e-01
-6.35881250e-07,1.86357812e-01
-6.35841250e-07,1.86354187e-01
-6.35801250e-07,1.86356906e-01
-6.35761250e-07,1.86355094e-01
-6.35721250e-07,1.86356000e-01
-6.35681250e-07,1.86356000e-01
-6.35641250e-07,1.86355094e-01
-6.35601250e-07,1.86356906e-01
-6.35561250e-07,1.86354187e-01
-6.35521250e-07,1.86358719e-01
-6.35481250e-07,1.86351469e-01
-6.35441250e-07,1.86362344e-01
-6.35401250e-07,1.86346938e-01
-6.35361250e-07,1.86370500e-01
-6.35321250e-07,1.86327000e-01
-6.35281250e-07,1.86473813e-01
-6.35241250e-07,1.86622437e-01
-6.35201250e-07,1.86567156e-01
-6.35161250e-07,1.86603406e-01
-6.35121250e-07,1.86574406e-01
-6.35081250e-07,1.86600688e-01
-6.35041250e-07,1.86574406e-01
-6.35001250e-07,1.86605219e-01
-6.34961250e-07,1.86557187e-01
-6.34921250e-07,1.86705812e-01
-6.34881250e-07,1.86856250e-01
-6.34841250e-07,1.86795531e-01
-6.34801250e-07,1.86841750e-01
-6.34761250e-07,1.86797344e-01
-6.34721250e-07,1.86847187e-01
-6.34681250e-07,1.86778312e-01
-6.34641250e-07,1.86951406e-01
-6.34601250e-07,1.87071938e-01
-6.34561250e-07,1.87048375e-01
-6.34521250e-07,1.87047469e-01
-6.34481250e-07,1.87065594e-01
-6.34441250e-07,1.87021187e-01
-6.34401250e-07,1.87174344e-01
-6.34361250e-07,1.87312094e-01
-6.34321250e-07,1.87273125e-01
-6.34281250e-07,1.87285813e-01
-6.34241250e-07,1.87291250e-01
-6.34201250e-07,1.87259531e-01
-6.34161250e-07,1.87400000e-01
-6.34121250e-07,1.87549531e-01
-6.34081250e-07,1.87498781e-01
-6.34041250e-07,1.87523250e-01
-6.34001250e-07,1.87517812e-01
-6.33961250e-07,1.87496969e-01
-6.33921250e-07,1.87625656e-01
-6.33881250e-07,1.87788781e-01
-6.33841250e-07,1.87723531e-01
-6.33801250e-07,1.87765219e-01
-6.33761250e-07,1.87736219e-01
-6.33721250e-07,1.87755250e-01
-6.33681250e-07,1.87748000e-01
-6.33641250e-07,1.87731687e-01
-6.33601250e-07,1.87854031e-01
-6.33561250e-07,1.88025312e-01
-6.33521250e-07,1.87949188e-01
-6.33481250e-07,1.88005375e-01
-6.33441250e-07,1.87958250e-01
-6.33401250e-07,1.87999937e-01
-6.33361250e-07,1.87961875e-01
-6.33321250e-07,1.87997219e-01
-6.33281250e-07,1.87963688e-01
-6.33241250e-07,1.87995406e-01
-6.33201250e-07,1.87965500e-01
-6.33161250e-07,1.87994500e-01
-6.33121250e-07,1.87966406e-01
-6.33081250e-07,1.87993594e-01
-6.33041250e-07,1.87967312e-01
-6.33001250e-07,1.87992688e-01
-6.32961250e-07,1.87967312e-01
-6.32921250e-07,1.87992688e-01
-6.32881250e-07,1.87968219e-01
-6.32841250e-07,1.87991781e-01
-6.32801250e-07,1.87968219e-01
-6.32761250e-07,1.87991781e-01
-6.32721250e-07,1.87968219e-01
-6.32681250e-07,1.87991781e-01
-6.32641250e-07,1.87968219e-01
-6.32601250e-07,1.87991781e-01
-6.32561250e-07,1.87967312e-01
-6.32521250e-07,1.87992688e-01
-6.32481250e-07,1.87967312e-01
-6.32441250e-07,1.87993594e-01
-6.32401250e-07,1.87965500e-01
-6.32361250e-07,1.87995406e-01
-6.32321250e-07,1.87962781e-01
-6.32281250e-07,1.87999937e-01
-6.32241250e-07,1.87954625e-01
-6.32201250e-07,1.88018969e-01
-6.32161250e-07,1.87852219e-01
-6.32121250e-07,1.87723531e-01
-6.32081250e-07,1.87759781e-01
-6.32041250e-07,1.87740750e-01
-6.32001250e-07,1.87755250e-01
-6.31961250e-07,1.87738031e-01
-6.31921250e-07,1.87769750e-01
-6.31881250e-07,1.87640156e-01
-6.31841250e-07,1.87468875e-01
-6.31801250e-07,1.87553156e-01
-6.31761250e-07,1.87477031e-01
-6.31721250e-07,1.87568563e-01
-6.31681250e-07,1.87374625e-01
-6.31641250e-07,1.87275844e-01
-6.31601250e-07,1.87273125e-01
-6.31561250e-07,1.87315719e-01
-6.31521250e-07,1.87159844e-01
-6.31481250e-07,1.87027531e-01
-6.31441250e-07,1.87056531e-01
-6.31401250e-07,1.87067406e-01
-6.31361250e-07,1.86945063e-01
-6.31321250e-07,1.86774688e-01
-6.31281250e-07,1.86852625e-01
-6.31241250e-07,1.86789188e-01
-6.31201250e-07,1.86860781e-01
-6.31161250e-07,1.86693125e-01
-6.31121250e-07,1.86559000e-01
-6.31081250e-07,1.86607031e-01
-6.31041250e-07,1.86568969e-01
-6.31001250e-07,1.86618813e-01
-6.30961250e-07,1.86470187e-01
-6.30921250e-07,1.86320656e-01
-6.30881250e-07,1.86379562e-01
-6.30841250e-07,1.86336063e-01
-6.30801250e-07,1.86376844e-01
-6.30761250e-07,1.86331531e-01
-6.30721250e-07,1.86394062e-01
-6.30681250e-07,1.86230031e-01
-6.30641250e-07,1.86097719e-01
-6.30601250e-07,1.86136688e-01
-6.30561250e-07,1.86116750e-01
-6.30521250e-07,1.86128531e-01
-6.30481250e-07,1.86121281e-01
-6.30441250e-07,1.86125812e-01
-6.30401250e-07,1.86123094e-01
-6.30361250e-07,1.86124000e-01
-6.30321250e-07,1.86124906e-01
-6.30281250e-07,1.86122188e-01
-6.30241250e-07,1.86126719e-01
-6.30201250e-07,1.86120375e-01
-6.30161250e-07,1.86128531e-01
-6.30121250e-07,1.86117656e-01
-6.30081250e-07,1.86133063e-01
-6.30041250e-07,1.86112219e-01
-6.30001250e-07,1.86142125e-01
-6.29961250e-07,1.86090469e-01
-6.29921250e-07,1.86246344e-01
-6.29881250e-07,1.86385000e-01
-6.29841250e-07,1.86342406e-01
-6.29801250e-07,1.86362344e-01
-6.29761250e-07,1.86354187e-01
-6.29721250e-07,1.86352375e-01
-6.29681250e-07,1.86366875e-01
-6.29641250e-07,1.86328812e-01
-6.29601250e-07,1.86472906e-01
-6.29561250e-07,1.86620625e-01
-6.29521250e-07,1.86570781e-01
-6.29481250e-07,1.86596156e-01
-6.29441250e-07,1.86588906e-01
-6.29401250e-07,1.86569875e-01
-6.29361250e-07,1.86696750e-01
-6.29321250e-07,1.86861687e-01
-6.29281250e-07,1.86794625e-01
-6.29241250e-07,1.86837219e-01
-6.29201250e-07,1.86811844e-01
-6.29161250e-07,1.86811844e-01
-6.29121250e-07,1.86916969e-01
-6.29081250e-07,1.87106375e-01
-6.29041250e-07,1.87011219e-01
-6.29001250e-07,1.87089156e-01
-6.28961250e-07,1.87015750e-01
-6.28921250e-07,1.87091875e-01
-6.28881250e-07,1.86999438e-01
-6.28841250e-07,1.87192469e-01
-6.28801250e-07,1.87295781e-01
-6.28761250e-07,1.87284906e-01
-6.28721250e-07,1.87277656e-01
-6.28681250e-07,1.87292156e-01
-6.28641250e-07,1.87274031e-01
-6.28601250e-07,1.87294875e-01
-6.28561250e-07,1.87272219e-01
-6.28521250e-07,1.87296688e-01
-6.28481250e-07,1.87270406e-01
-6.28441250e-07,1.87297594e-01
-6.28401250e-07,1.87269500e-01
-6.28361250e-07,1.87299406e-01
-6.28321250e-07,1.87267688e-01
-6.28281250e-07,1.87301219e-01
-6.28241250e-07,1.87265875e-01
-6.28201250e-07,1.87303937e-01
-6.28161250e-07,1.87262250e-01
-6.28121250e-07,1.87309375e-01
-6.28081250e-07,1.87252281e-01
-6.28041250e-07,1.87331125e-01
-6.28001250e-07,1.87148062e-01
-6.27961250e-07,1.87037500e-01
-6.27921250e-07,1.87052000e-01
-6.27881250e-07,1.87059250e-01
-6.27841250e-07,1.87039312e-01
-6.27801250e-07,1.87070125e-01
-6.27761250e-07,1.87026625e-01
-6.27721250e-07,1.87093687e-01
-6.27681250e-07,1.86919687e-01
-6.27641250e-07,1.86801875e-01
-6.27601250e-07,1.86820906e-01
-6.27561250e-07,1.86828156e-01
-6.27521250e-07,1.86802781e-01
-6.27481250e-07,1.86854437e-01
-6.27441250e-07,1.86694031e-01
-6.27401250e-07,1.86563531e-01
-6.27361250e-07,1.86595250e-01
-6.27321250e-07,1.86589813e-01
-6.27281250e-07,1.86577125e-01
-6.27241250e-07,1.86616094e-01
-6.27201250e-07,1.86469281e-01
-6.27161250e-07,1.86325187e-01
-6.27121250e-07,1.86371406e-01
-6.27081250e-07,1.86347844e-01
-6.27041250e-07,1.86358719e-01
-6.27001250e-07,1.86358719e-01
-6.26961250e-07,1.86346031e-01
-6.26921250e-07,1.86381375e-01
-6.26881250e-07,1.86240906e-01
-6.26841250e-07,1.86087750e-01
-6.26801250e-07,1.86145750e-01
-6.26761250e-07,1.86108594e-01
-6.26721250e-07,1.86136688e-01
-6.26681250e-07,1.86114031e-01
-6.26641250e-07,1.86132156e-01
-6.26601250e-07,1.86116750e-01
-6.26561250e-07,1.86130344e-01
-6.26521250e-07,1.86118563e-01
-6.26481250e-07,1.86128531e-01
-6.26441250e-07,1.86119469e-01
-6.26401250e-07,1.86127625e-01
-6.26361250e-07,1.86120375e-01
-6.26321250e-07,1.86126719e-01
-6.26281250e-07,1.86121281e-01
-6.26241250e-07,1.86126719e-01
-6.26201250e-07,1.86122188e-01
-6.26161250e-07,1.86125812e-01
-6.26121250e-07,1.86122188e-01
-6.26081250e-07,1.86124906e-01
-6.26041250e-07,1.86123094e-01
-6.26001250e-07,1.86124906e-01
-6.25961250e-07,1.86123094e-01
-6.25921250e-07,1.86124000e-01
-6.25881250e-07,1.86124000e-01
-6.25841250e-07,1.86124000e-01
-6.25801250e-07,1.86124000e-01
-6.25761250e-07,1.86124000e-01
-6.25721250e-07,1.86124906e-01
-6.25681250e-07,1.86123094e-01
-6.25641250e-07,1.86124906e-01
-6.25601250e-07,1.86123094e-01
-6.25561250e-07,1.86124906e-01
-6.25521250e-07,1.86123094e-01
-6.25481250e-07,1.86125812e-01
-6.25441250e-07,1.86122188e-01
-6.25401250e-07,1.86125812e-01
-6.25361250e-07,1.86122188e-01
-6.25321250e-07,1.86125812e-01
-6.25281250e-07,1.86121281e-01
-6.25241250e-07,1.86126719e-01
-6.25201250e-07,1.86121281e-01
-6.25161250e-07,1.86126719e-01
-6.25121250e-07,1.86121281e-01
-6.25081250e-07,1.86126719e-01
-6.25041250e-07,1.86120375e-01
-6.25001250e-07,1.86127625e-01
-6.24961250e-07,1.86120375e-01
-6.24921250e-07,1.86127625e-01
-6.24881250e-07,1.86119469e-01
-6.24841250e-07,1.86128531e-01
-6.24801250e-07,1.86118563e-01
-6.24761250e-07,1.86129437e-01
-6.24721250e-07,1.86117656e-01
-6.24681250e-07,1.86130344e-01
-6.24641250e-07,1.86116750e-01
-6.24601250e-07,1.86132156e-01
-6.24561250e-07,1.86114937e-01
-6.24521250e-07,1.86133969e-01
-6.24481250e-07,1.86111312e-01
-6.24441250e-07,1.86139406e-01
-6.24401250e-07,1.86103156e-01
-6.24361250e-07,1.86160250e-01
-6.24321250e-07,1.85998937e-01
-6.24281250e-07,1.85864813e-01
-6.24241250e-07,1.85904687e-01
-6.24201250e-07,1.85885656e-01
-6.24161250e-07,1.85895625e-01
-6.24121250e-07,1.85891094e-01
-6.24081250e-07,1.85891094e-01
-6.24041250e-07,1.85895625e-01
-6.24001250e-07,1.85885656e-01
-6.23961250e-07,1.85901062e-01
-6.23921250e-07,1.85876594e-01
-6.23881250e-07,1.85921906e-01
-6.23841250e-07,1.85772375e-01
-6.23801250e-07,1.85627375e-01
-6.23761250e-07,1.85678125e-01
-6.23721250e-07,1.85647312e-01
-6.23681250e-07,1.85669969e-01
-6.23641250e-07,1.85651844e-01
-6.23601250e-07,1.85666344e-01
-6.23561250e-07,1.85654563e-01
-6.23521250e-07,1.85665438e-01
-6.23481250e-07,1.85655469e-01
-6.23441250e-07,1.85664531e-01
-6.23401250e-07,1.85655469e-01
-6.23361250e-07,1.85664531e-01
-6.23321250e-07,1.85654563e-01
-6.23281250e-07,1.85667250e-01
-6.23241250e-07,1.85648219e-01
-6.23201250e-07,1.85684469e-01
-6.23161250e-07,1.85548531e-01
-6.23121250e-07,1.85383594e-01
-6.23081250e-07,1.85464250e-01
-6.23041250e-07,1.85382688e-01
-6.23001250e-07,1.85560312e-01
-6.22961250e-07,1.85681750e-01
-6.22921250e-07,1.85651844e-01
-6.22881250e-07,1.85663625e-01
-6.22841250e-07,1.85659094e-01
-6.22801250e-07,1.85658187e-01
-6.22761250e-07,1.85662719e-01
-6.22721250e-07,1.85655469e-01
-6.22681250e-07,1.85665438e-01
-6.22641250e-07,1.85651844e-01
-6.22601250e-07,1.85669969e-01
-6.22561250e-07,1.85646406e-01
-6.22521250e-07,1.85679938e-01
-6.22481250e-07,1.85624656e-01
-6.22441250e-07,1.85785062e-01
-6.22401250e-07,1.85918281e-01
-6.22361250e-07,1.85881125e-01
-6.22321250e-07,1.85894719e-01
-6.22281250e-07,1.85897437e-01
-6.22241250e-07,1.85870250e-01
-6.22201250e-07,1.86002562e-01
-6.22161250e-07,1.86165688e-01
-6.22121250e-07,1.86095000e-01
-6.22081250e-07,1.86152094e-01
-6.22041250e-07,1.86085937e-01
-6.22001250e-07,1.86247250e-01
-6.21961250e-07,1.86388625e-01
-6.21921250e-07,1.86333344e-01
-6.21881250e-07,1.86380469e-01
-6.21841250e-07,1.86317938e-01
-6.21801250e-07,1.86482875e-01
-6.21761250e-07,1.86611562e-01
-6.21721250e-07,1.86582562e-01
-6.21681250e-07,1.86574406e-01
-6.21641250e-07,1.86691312e-01
-6.21601250e-07,1.86868937e-01
-6.21561250e-07,1.86782844e-01
-6.21521250e-07,1.86857156e-01
-6.21481250e-07,1.86771063e-01
-6.21441250e-07,1.86956844e-01
-6.21401250e-07,1.87066500e-01
-6.21361250e-07,1.87054719e-01
-6.21321250e-07,1.87031156e-01
-6.21281250e-07,1.87161656e-01
-6.21241250e-07,1.87327500e-01
-6.21201250e-07,1.87252281e-01
-6.21161250e-07,1.87315719e-01
-6.21121250e-07,1.87240500e-01
-6.21081250e-07,1.87415406e-01
-6.21041250e-07,1.87537750e-01
-6.21001250e-07,1.87508750e-01
-6.20961250e-07,1.87517812e-01
-6.20921250e-07,1.87518719e-01
-6.20881250e-07,1.87508750e-01
-6.20841250e-07,1.87529594e-01
-6.20801250e-07,1.87487000e-01
-6.20761250e-07,1.87633812e-01
-6.20721250e-07,1.87781531e-01
-6.20681250e-07,1.87728062e-01
-6.20641250e-07,1.87761594e-01
-6.20601250e-07,1.87737125e-01
-6.20561250e-07,1.87757062e-01
-6.20521250e-07,1.87740750e-01
-6.20481250e-07,1.87754344e-01
-6.20441250e-07,1.87742562e-01
-6.20401250e-07,1.87752531e-01
-6.20361250e-07,1.87744375e-01
-6.20321250e-07,1.87750719e-01
-6.20281250e-07,1.87746187e-01
-6.20241250e-07,1.87748906e-01
-6.20201250e-07,1.87748906e-01
-6.20161250e-07,1.87745281e-01
-6.20121250e-07,1.87753438e-01
-6.20081250e-07,1.87737125e-01
-6.20041250e-07,1.87772469e-01
-6.20001250e-07,1.87634719e-01
-6.19961250e-07,1.87476125e-01
-6.19921250e-07,1.87543187e-01
-6.19881250e-07,1.87492437e-01
-6.19841250e-07,1.87539563e-01
-6.19801250e-07,1.87488812e-01
-6.19761250e-07,1.87555875e-01
-6.19721250e-07,1.87387312e-01
-6.19681250e-07,1.87260437e-01
-6.19641250e-07,1.87293062e-01
-6.19601250e-07,1.87281281e-01
-6.19561250e-07,1.87279469e-01
-6.19521250e-07,1.87303031e-01
-6.19481250e-07,1.87177062e-01
-6.19441250e-07,1.87004875e-01
-6.19401250e-07,1.87089156e-01
-6.19361250e-07,1.87013938e-01
-6.19321250e-07,1.87102750e-01
-6.19281250e-07,1.86912438e-01
-6.19241250e-07,1.86810031e-01
-6.19201250e-07,1.86810937e-01
-6.19161250e-07,1.86849000e-01
-6.19121250e-07,1.86698562e-01
-6.19081250e-07,1.86559906e-01
-6.19041250e-07,1.86599781e-01
-6.19001250e-07,1.86585281e-01
-6.18961250e-07,1.86581656e-01
-6.18921250e-07,1.86611562e-01
-6.18881250e-07,1.86473813e-01
-6.18841250e-07,1.86319750e-01
-6.18801250e-07,1.86376844e-01
-6.18761250e-07,1.86342406e-01
-6.18721250e-07,1.86364156e-01
-6.18681250e-07,1.86353281e-01
-6.18641250e-07,1.86351469e-01
-6.18601250e-07,1.86375938e-01
-6.18561250e-07,1.86246344e-01
-6.18521250e-07,1.86082312e-01
-6.18481250e-07,1.86151188e-01
-6.18441250e-07,1.86103156e-01
-6.18401250e-07,1.86141219e-01
-6.18361250e-07,1.86109500e-01
-6.18321250e-07,1.86135781e-01
-6.18281250e-07,1.86114937e-01
-6.18241250e-07,1.86129437e-01
-6.18201250e-07,1.86124000e-01
-6.18161250e-07,1.86109500e-01
-6.18121250e-07,1.86227312e-01
-6.18081250e-07,1.86404938e-01
-6.18041250e-07,1.86320656e-01
-6.18001250e-07,1.86386812e-01
-6.17961250e-07,1.86327000e-01
-6.17921250e-07,1.86385000e-01
-6.17881250e-07,1.86325187e-01
-6.17841250e-07,1.86392250e-01
-6.17801250e-07,1.86306156e-01
-6.17761250e-07,1.86494656e-01
-6.17721250e-07,1.86601594e-01
-6.17681250e-07,1.86588906e-01
-6.17641250e-07,1.86580750e-01
-6.17601250e-07,1.86599781e-01
-6.17561250e-07,1.86571687e-01
-6.17521250e-07,1.86611562e-01
-6.17481250e-07,1.86549031e-01
-6.17441250e-07,1.86716688e-01
-6.17401250e-07,1.86842656e-01
-6.17361250e-07,1.86811844e-01
-6.17321250e-07,1.86821812e-01
-6.17281250e-07,1.86821812e-01
-6.17241250e-07,1.86815469e-01
-6.17201250e-07,1.86828156e-01
-6.17161250e-07,1.86808219e-01
-6.17121250e-07,1.86838125e-01
-6.17081250e-07,1.86787375e-01
-6.17041250e-07,1.86942344e-01
-6.17001250e-07,1.87081906e-01
-6.16961250e-07,1.87036594e-01
-6.16921250e-07,1.87061969e-01
-6.16881250e-07,1.87045656e-01
-6.16841250e-07,1.87056531e-01
-6.16801250e-07,1.87049281e-01
-6.16761250e-07,1.87053812e-01
-6.16721250e-07,1.87051094e-01
-6.16681250e-07,1.87052906e-01
-6.16641250e-07,1.87052000e-01
-6.16601250e-07,1.87051094e-01
-6.16561250e-07,1.87052906e-01
-6.16521250e-07,1.87051094e-01
-6.16481250e-07,1.87053812e-01
-6.16441250e-07,1.87050187e-01
-6.16401250e-07,1.87054719e-01
-6.16361250e-07,1.87049281e-01
-6.16321250e-07,1.87054719e-01
-6.16281250e-07,1.87048375e-01
-6.16241250e-07,1.87055625e-01
-6.16201250e-07,1.87047469e-01
-6.16161250e-07,1.87056531e-01
-6.16121250e-07,1.87046562e-01
-6.16081250e-07,1.87058344e-01
-6.16041250e-07,1.87045656e-01
-6.16001250e-07,1.87060156e-01
-6.15961250e-07,1.87042938e-01
-6.15921250e-07,1.87062875e-01
-6.15881250e-07,1.87037500e-01
-6.15841250e-07,1.87071938e-01
-6.15801250e-07,1.87017562e-01
-6.15761250e-07,1.87176156e-01
-6.15721250e-07,1.87312094e-01
-6.15681250e-07,1.87270406e-01
-6.15641250e-07,1.87292156e-01
-6.15601250e-07,1.87279469e-01
-6.15561250e-07,1.87285813e-01
-6.15521250e-07,1.87284000e-01
-6.15481250e-07,1.87282188e-01
-6.15441250e-07,1.87288531e-01
-6.15401250e-07,1.87276750e-01
-6.15361250e-07,1.87297594e-01
-6.15321250e-07,1.87255906e-01
-6.15281250e-07,1.87401812e-01
-6.15241250e-07,1.87550438e-01
-6.15201250e-07,1.87495156e-01
-6.15161250e-07,1.87531406e-01
-6.15121250e-07,1.87504219e-01
-6.15081250e-07,1.87525969e-01
-6.15041250e-07,1.87506937e-01
-6.15001250e-07,1.87524156e-01
-6.14961250e-07,1.87508750e-01
-6.14921250e-07,1.87523250e-01
-6.14881250e-07,1.87508750e-01
-6.14841250e-07,1.87522344e-01
-6.14801250e-07,1.87509656e-01
-6.14761250e-07,1.87522344e-01
-6.14721250e-07,1.87509656e-01
-6.14681250e-07,1.87523250e-01
-6.14641250e-07,1.87508750e-01
-6.14601250e-07,1.87524156e-01
-6.14561250e-07,1.87506937e-01
-6.14521250e-07,1.87525969e-01
