dpa/aes_ch1_20250506140822368.csv

Model,MSO66B
Label,
Waveform Type,ANALOG
Horizontal Units,s
Sample Interval,4.00000000e-11
Record Length,100000
Zero Index,15999.02734375
Vertical Units,A
ANALOG_Thumbnail,
yOffset,1.84500000e-01
yPosition,8.40000000e-01

Labels,
TIME,CH1
-6.39961094e-07,1.88104688e-01
-6.39921094e-07,1.88095313e-01
-6.39881094e-07,1.88104688e-01
-6.39841094e-07,1.88095313e-01
-6.39801094e-07,1.88104688e-01
-6.39761094e-07,1.88095313e-01
-6.39721094e-07,1.88106250e-01
-6.39681094e-07,1.88093750e-01
-6.39641094e-07,1.88106250e-01
-6.39601094e-07,1.88092188e-01
-6.39561094e-07,1.88107812e-01
-6.39521094e-07,1.88090625e-01
-6.39481094e-07,1.88110938e-01
-6.39441094e-07,1.88087500e-01
-6.39401094e-07,1.88115625e-01
-6.39361094e-07,1.88079688e-01
-6.39321094e-07,1.88129688e-01
-6.39281094e-07,1.88045313e-01
-6.39241094e-07,1.88307813e-01
-6.39201094e-07,1.88554688e-01
-6.39161094e-07,1.88467188e-01
-6.39121094e-07,1.88523438e-01
-6.39081094e-07,1.88481250e-01
-6.39041094e-07,1.88517188e-01
-6.39001094e-07,1.88482813e-01
-6.38961094e-07,1.88518750e-01
-6.38921094e-07,1.88478125e-01
-6.38881094e-07,1.88531250e-01
-6.38841094e-07,1.88445313e-01
-6.38801094e-07,1.88706250e-01
-6.38761094e-07,1.88957813e-01
-6.38721094e-07,1.88865625e-01
-6.38681094e-07,1.88926563e-01
-6.38641094e-07,1.88876563e-01
-6.38601094e-07,1.88921875e-01
-6.38561094e-07,1.88878125e-01
-6.38521094e-07,1.88923438e-01
-6.38481094e-07,1.88871875e-01
-6.38441094e-07,1.88937500e-01
-6.38401094e-07,1.88837500e-01
-6.38361094e-07,1.89114063e-01
-6.38321094e-07,1.89348437e-01
-6.38281094e-07,1.89275000e-01
-6.38241094e-07,1.89315625e-01
-6.38201094e-07,1.89290625e-01
-6.38161094e-07,1.89306250e-01
-6.38121094e-07,1.89295313e-01
-6.38081094e-07,1.89303125e-01
-6.38041094e-07,1.89298437e-01
-6.38001094e-07,1.89301563e-01
-6.37961094e-07,1.89300000e-01
-6.37921094e-07,1.89298437e-01
-6.37881094e-07,1.89301563e-01
-6.37841094e-07,1.89296875e-01
-6.37801094e-07,1.89303125e-01
-6.37761094e-07,1.89295313e-01
-6.37721094e-07,1.89306250e-01
-6.37681094e-07,1.89293750e-01
-6.37641094e-07,1.89309375e-01
-6.37601094e-07,1.89289062e-01
-6.37561094e-07,1.89314063e-01
-6.37521094e-07,1.89281250e-01
-6.37481094e-07,1.89329688e-01
-6.37441094e-07,1.89245313e-01
-6.37401094e-07,1.89507813e-01
-6.37361094e-07,1.89754688e-01
-6.37321094e-07,1.89668750e-01
-6.37281094e-07,1.89721875e-01
-6.37241094e-07,1.89684375e-01
-6.37201094e-07,1.89712500e-01
-6.37161094e-07,1.89689063e-01
-6.37121094e-07,1.89709375e-01
-6.37081094e-07,1.89692187e-01
-6.37041094e-07,1.89707813e-01
-6.37001094e-07,1.89693750e-01
-6.36961094e-07,1.89706250e-01
-6.36921094e-07,1.89695313e-01
-6.36881094e-07,1.89704687e-01
-6.36841094e-07,1.89696875e-01
-6.36801094e-07,1.89703125e-01
-6.36761094e-07,1.89696875e-01
-6.36721094e-07,1.89703125e-01
-6.36681094e-07,1.89698438e-01
-6.36641094e-07,1.89701563e-01
-6.36601094e-07,1.89698438e-01
-6.36561094e-07,1.89701563e-01
-6.36521094e-07,1.89700000e-01
-6.36481094e-07,1.89700000e-01
-6.36441094e-07,1.89700000e-01
-6.36401094e-07,1.89698438e-01
-6.36361094e-07,1.89701563e-01
-6.36321094e-07,1.89696875e-01
-6.36281094e-07,1.89703125e-01
-6.36241094e-07,1.89695313e-01
-6.36201094e-07,1.89706250e-01
-6.36161094e-07,1.89692187e-01
-6.36121094e-07,1.89710938e-01
-6.36081094e-07,1.89682813e-01
-6.36041094e-07,1.89726563e-01
-6.36001094e-07,1.89648438e-01
-6.35961094e-07,1.89904688e-01
-6.35921094e-07,1.90157812e-01
-6.35881094e-07,1.90065625e-01
-6.35841094e-07,1.90125000e-01
-6.35801094e-07,1.90079688e-01
-6.35761094e-07,1.90117188e-01
-6.35721094e-07,1.90084375e-01
-6.35681094e-07,1.90114063e-01
-6.35641094e-07,1.90087500e-01
-6.35601094e-07,1.90110938e-01
-6.35561094e-07,1.90089063e-01
-6.35521094e-07,1.90110938e-01
-6.35481094e-07,1.90089063e-01
-6.35441094e-07,1.90109375e-01
-6.35401094e-07,1.90090625e-01
-6.35361094e-07,1.90109375e-01
-6.35321094e-07,1.90090625e-01
-6.35281094e-07,1.90109375e-01
-6.35241094e-07,1.90090625e-01
-6.35201094e-07,1.90109375e-01
-6.35161094e-07,1.90089063e-01
-6.35121094e-07,1.90110938e-01
-6.35081094e-07,1.90089063e-01
-6.35041094e-07,1.90112500e-01
-6.35001094e-07,1.90087500e-01
-6.34961094e-07,1.90114063e-01
-6.34921094e-07,1.90084375e-01
-6.34881094e-07,1.90118750e-01
-6.34841094e-07,1.90075000e-01
-6.34801094e-07,1.90134375e-01
-6.34761094e-07,1.90040625e-01
-6.34721094e-07,1.90312500e-01
-6.34681094e-07,1.90550000e-01
-6.34641094e-07,1.90473438e-01
-6.34601094e-07,1.90517188e-01
-6.34561094e-07,1.90487500e-01
-6.34521094e-07,1.90509375e-01
-6.34481094e-07,1.90492188e-01
-6.34441094e-07,1.90506250e-01
-6.34401094e-07,1.90495313e-01
-6.34361094e-07,1.90503125e-01
-6.34321094e-07,1.90496875e-01
-6.34281094e-07,1.90503125e-01
-6.34241094e-07,1.90498438e-01
-6.34201094e-07,1.90501562e-01
-6.34161094e-07,1.90498438e-01
-6.34121094e-07,1.90500000e-01
-6.34081094e-07,1.90500000e-01
-6.34041094e-07,1.90500000e-01
-6.34001094e-07,1.90500000e-01
-6.33961094e-07,1.90498438e-01
-6.33921094e-07,1.90501562e-01
-6.33881094e-07,1.90498438e-01
-6.33841094e-07,1.90503125e-01
-6.33801094e-07,1.90496875e-01
-6.33761094e-07,1.90504688e-01
-6.33721094e-07,1.90493750e-01
-6.33681094e-07,1.90507813e-01
-6.33641094e-07,1.90489063e-01
-6.33601094e-07,1.90515625e-01
-6.33561094e-07,1.90475000e-01
-6.33521094e-07,1.90550000e-01
-6.33481094e-07,1.90296875e-01
-6.33441094e-07,1.90040625e-01
-6.33401094e-07,1.90135938e-01
-6.33361094e-07,1.90073437e-01
-6.33321094e-07,1.90123438e-01
-6.33281094e-07,1.90079688e-01
-6.33241094e-07,1.90120312e-01
-6.33201094e-07,1.90081250e-01
-6.33161094e-07,1.90120312e-01
-6.33121094e-07,1.90078125e-01
-6.33081094e-07,1.90126563e-01
-6.33041094e-07,1.90064063e-01
-6.33001094e-07,1.90159375e-01
-6.32961094e-07,1.89887500e-01
-6.32921094e-07,1.89648438e-01
-6.32881094e-07,1.89728125e-01
-6.32841094e-07,1.89679687e-01
-6.32801094e-07,1.89715625e-01
-6.32761094e-07,1.89685938e-01
-6.32721094e-07,1.89714063e-01
-6.32681094e-07,1.89684375e-01
-6.32641094e-07,1.89720313e-01
-6.32601094e-07,1.89671875e-01
-6.32561094e-07,1.89751562e-01
-6.32521094e-07,1.89495313e-01
-6.32481094e-07,1.89240625e-01
-6.32441094e-07,1.89335937e-01
-6.32401094e-07,1.89271875e-01
-6.32361094e-07,1.89323437e-01
-6.32321094e-07,1.89278125e-01
-6.32281094e-07,1.89320313e-01
-6.32241094e-07,1.89278125e-01
-6.32201094e-07,1.89321875e-01
-6.32161094e-07,1.89275000e-01
-6.32121094e-07,1.89329688e-01
-6.32081094e-07,1.89260938e-01
-6.32041094e-07,1.89364063e-01
-6.32001094e-07,1.89082813e-01
-6.31961094e-07,1.88854688e-01
-6.31921094e-07,1.88921875e-01
-6.31881094e-07,1.88889063e-01
-6.31841094e-07,1.88906250e-01
-6.31801094e-07,1.88896875e-01
-6.31761094e-07,1.88900000e-01
-6.31721094e-07,1.88903125e-01
-6.31681094e-07,1.88895312e-01
-6.31641094e-07,1.88907812e-01
-6.31601094e-07,1.88889063e-01
-6.31561094e-07,1.88917188e-01
-6.31521094e-07,1.88873438e-01
-6.31481094e-07,1.88951563e-01
-6.31441094e-07,1.88693750e-01
-6.31401094e-07,1.88443750e-01
-6.31361094e-07,1.88532813e-01
-6.31321094e-07,1.88476562e-01
-6.31281094e-07,1.88517188e-01
-6.31241094e-07,1.88485938e-01
-6.31201094e-07,1.88512500e-01
-6.31161094e-07,1.88489062e-01
-6.31121094e-07,1.88509375e-01
-6.31081094e-07,1.88492188e-01
-6.31041094e-07,1.88507813e-01
-6.31001094e-07,1.88492188e-01
-6.30961094e-07,1.88506250e-01
-6.30921094e-07,1.88493750e-01
-6.30881094e-07,1.88506250e-01
-6.30841094e-07,1.88493750e-01
-6.30801094e-07,1.88504688e-01
-6.30761094e-07,1.88495313e-01
-6.30721094e-07,1.88504688e-01
-6.30681094e-07,1.88495313e-01
-6.30641094e-07,1.88504688e-01
-6.30601094e-07,1.88495313e-01
-6.30561094e-07,1.88504688e-01
-6.30521094e-07,1.88495313e-01
-6.30481094e-07,1.88504688e-01
-6.30441094e-07,1.88495313e-01
-6.30401094e-07,1.88504688e-01
-6.30361094e-07,1.88495313e-01
-6.30321094e-07,1.88504688e-01
-6.30281094e-07,1.88495313e-01
-6.30241094e-07,1.88504688e-01
-6.30201094e-07,1.88495313e-01
-6.30161094e-07,1.88504688e-01
-6.30121094e-07,1.88495313e-01
-6.30081094e-07,1.88504688e-01
-6.30041094e-07,1.88495313e-01
-6.30001094e-07,1.88504688e-01
-6.29961094e-07,1.88493750e-01
-6.29921094e-07,1.88506250e-01
-6.29881094e-07,1.88493750e-01
-6.29841094e-07,1.88507813e-01
-6.29801094e-07,1.88492188e-01
-6.29761094e-07,1.88509375e-01
-6.29721094e-07,1.88489062e-01
-6.29681094e-07,1.88514062e-01
-6.29641094e-07,1.88479687e-01
-6.29601094e-07,1.88529688e-01
-6.29561094e-07,1.88446875e-01
-6.29521094e-07,1.88706250e-01
-6.29481094e-07,1.88956250e-01
-6.29441094e-07,1.88868750e-01
-6.29401094e-07,1.88921875e-01
-6.29361094e-07,1.88882812e-01
-6.29321094e-07,1.88915625e-01
-6.29281094e-07,1.88887500e-01
-6.29241094e-07,1.88910938e-01
-6.29201094e-07,1.88889063e-01
-6.29161094e-07,1.88910938e-01
-6.29121094e-07,1.88890625e-01
-6.29081094e-07,1.88909375e-01
-6.29041094e-07,1.88890625e-01
-6.29001094e-07,1.88909375e-01
-6.28961094e-07,1.88890625e-01
-6.28921094e-07,1.88909375e-01
-6.28881094e-07,1.88890625e-01
-6.28841094e-07,1.88909375e-01
-6.28801094e-07,1.88889063e-01
-6.28761094e-07,1.88910938e-01
-6.28721094e-07,1.88887500e-01
-6.28681094e-07,1.88914063e-01
-6.28641094e-07,1.88884375e-01
-6.28601094e-07,1.88918750e-01
-6.28561094e-07,1.88876563e-01
-6.28521094e-07,1.88932813e-01
-6.28481094e-07,1.88842188e-01
-6.28441094e-07,1.89110938e-01
-6.28401094e-07,1.89351563e-01
-6.28361094e-07,1.89271875e-01
-6.28321094e-07,1.89318750e-01
-6.28281094e-07,1.89287500e-01
-6.28241094e-07,1.89310937e-01
-6.28201094e-07,1.89292188e-01
-6.28161094e-07,1.89306250e-01
-6.28121094e-07,1.89293750e-01
-6.28081094e-07,1.89304688e-01
-6.28041094e-07,1.89295313e-01
-6.28001094e-07,1.89303125e-01
-6.27961094e-07,1.89296875e-01
-6.27921094e-07,1.89303125e-01
-6.27881094e-07,1.89298437e-01
-6.27841094e-07,1.89301563e-01
-6.27801094e-07,1.89298437e-01
-6.27761094e-07,1.89301563e-01
-6.27721094e-07,1.89298437e-01
-6.27681094e-07,1.89301563e-01
-6.27641094e-07,1.89298437e-01
-6.27601094e-07,1.89301563e-01
-6.27561094e-07,1.89300000e-01
-6.27521094e-07,1.89300000e-01
-6.27481094e-07,1.89300000e-01
-6.27441094e-07,1.89300000e-01
-6.27401094e-07,1.89300000e-01
-6.27361094e-07,1.89300000e-01
-6.27321094e-07,1.89300000e-01
-6.27281094e-07,1.89300000e-01
-6.27241094e-07,1.89300000e-01
-6.27201094e-07,1.89300000e-01
-6.27161094e-07,1.89300000e-01
-6.27121094e-07,1.89300000e-01
-6.27081094e-07,1.89300000e-01
-6.27041094e-07,1.89300000e-01
-6.27001094e-07,1.89300000e-01
-6.26961094e-07,1.89300000e-01
-6.26921094e-07,1.89301563e-01
-6.26881094e-07,1.89298437e-01
-6.26841094e-07,1.89301563e-01
-6.26801094e-07,1.89298437e-01
-6.26761094e-07,1.89301563e-01
-6.26721094e-07,1.89298437e-01
-6.26681094e-07,1.89301563e-01
-6.26641094e-07,1.89298437e-01
-6.26601094e-07,1.89301563e-01
-6.26561094e-07,1.89298437e-01
-6.26521094e-07,1.89301563e-01
-6.26481094e-07,1.89298437e-01
-6.26441094e-07,1.89301563e-01
-6.26401094e-07,1.89298437e-01
-6.26361094e-07,1.89301563e-01
-6.26321094e-07,1.89298437e-01
-6.26281094e-07,1.89301563e-01
-6.26241094e-07,1.89298437e-01
-6.26201094e-07,1.89301563e-01
-6.26161094e-07,1.89298437e-01
-6.26121094e-07,1.89301563e-01
-6.26081094e-07,1.89298437e-01
-6.26041094e-07,1.89303125e-01
-6.26001094e-07,1.89296875e-01
-6.25961094e-07,1.89303125e-01
-6.25921094e-07,1.89296875e-01
-6.25881094e-07,1.89303125e-01
-6.25841094e-07,1.89296875e-01
-6.25801094e-07,1.89303125e-01
-6.25761094e-07,1.89296875e-01
-6.25721094e-07,1.89303125e-01
-6.25681094e-07,1.89296875e-01
-6.25641094e-07,1.89303125e-01
-6.25601094e-07,1.89296875e-01
-6.25561094e-07,1.89304688e-01
-6.25521094e-07,1.89295313e-01
-6.25481094e-07,1.89304688e-01
-6.25441094e-07,1.89295313e-01
-6.25401094e-07,1.89304688e-01
-6.25361094e-07,1.89293750e-01
-6.25321094e-07,1.89306250e-01
-6.25281094e-07,1.89293750e-01
-6.25241094e-07,1.89307813e-01
-6.25201094e-07,1.89292188e-01
-6.25161094e-07,1.89309375e-01
-6.25121094e-07,1.89289062e-01
-6.25081094e-07,1.89312500e-01
-6.25041094e-07,1.89284375e-01
-6.25001094e-07,1.89320313e-01
-6.24961094e-07,1.89270313e-01
-6.24921094e-07,1.89354688e-01
-6.24881094e-07,1.89092188e-01
-6.24841094e-07,1.88845313e-01
-6.24801094e-07,1.88931250e-01
-6.24761094e-07,1.88878125e-01
-6.24721094e-07,1.88917188e-01
-6.24681094e-07,1.88885938e-01
-6.24641094e-07,1.88912500e-01
-6.24601094e-07,1.88887500e-01
-6.24561094e-07,1.88912500e-01
-6.24521094e-07,1.88887500e-01
-6.24481094e-07,1.88914063e-01
-6.24441094e-07,1.88884375e-01
-6.24401094e-07,1.88920313e-01
-6.24361094e-07,1.88870312e-01
-6.24321094e-07,1.88953125e-01
-6.24281094e-07,1.88693750e-01
-6.24241094e-07,1.88443750e-01
-6.24201094e-07,1.88534375e-01
-6.24161094e-07,1.88475000e-01
-6.24121094e-07,1.88520313e-01
-6.24081094e-07,1.88481250e-01
-6.24041094e-07,1.88517188e-01
-6.24001094e-07,1.88482813e-01
-6.23961094e-07,1.88517188e-01
-6.23921094e-07,1.88481250e-01
-6.23881094e-07,1.88520313e-01
-6.23841094e-07,1.88478125e-01
-6.23801094e-07,1.88526562e-01
-6.23761094e-07,1.88464063e-01
-6.23721094e-07,1.88560937e-01
-6.23681094e-07,1.88285938e-01
-6.23641094e-07,1.88051563e-01
-6.23601094e-07,1.88123438e-01
-6.23561094e-07,1.88085937e-01
-6.23521094e-07,1.88109375e-01
-6.23481094e-07,1.88093750e-01
-6.23441094e-07,1.88104688e-01
-6.23401094e-07,1.88096875e-01
-6.23361094e-07,1.88101563e-01
-6.23321094e-07,1.88100000e-01
-6.23281094e-07,1.88100000e-01
-6.23241094e-07,1.88101563e-01
-6.23201094e-07,1.88096875e-01
-6.23161094e-07,1.88103125e-01
-6.23121094e-07,1.88095313e-01
-6.23081094e-07,1.88104688e-01
-6.23041094e-07,1.88093750e-01
-6.23001094e-07,1.88107812e-01
-6.22961094e-07,1.88090625e-01
-6.22921094e-07,1.88112500e-01
-6.22881094e-07,1.88084375e-01
-6.22841094e-07,1.88120312e-01
-6.22801094e-07,1.88068750e-01
-6.22761094e-07,1.88156250e-01
-6.22721094e-07,1.87890625e-01
-6.22681094e-07,1.87646875e-01
-6.22641094e-07,1.87729688e-01
-6.22601094e-07,1.87681250e-01
-6.22561094e-07,1.87714063e-01
-6.22521094e-07,1.87689063e-01
-6.22481094e-07,1.87707813e-01
-6.22441094e-07,1.87693750e-01
-6.22401094e-07,1.87704687e-01
-6.22361094e-07,1.87696875e-01
-6.22321094e-07,1.87703125e-01
-6.22281094e-07,1.87698438e-01
-6.22241094e-07,1.87700000e-01
-6.22201094e-07,1.87701563e-01
-6.22161094e-07,1.87696875e-01
-6.22121094e-07,1.87704687e-01
-6.22081094e-07,1.87693750e-01
-6.22041094e-07,1.87709375e-01
-6.22001094e-07,1.87684375e-01
-6.21961094e-07,1.87725000e-01
-6.21921094e-07,1.87650000e-01
-6.21881094e-07,1.87903125e-01
-6.21841094e-07,1.88159375e-01
-6.21801094e-07,1.88064063e-01
-6.21761094e-07,1.88126563e-01
-6.21721094e-07,1.88079688e-01
-6.21681094e-07,1.88118750e-01
-6.21641094e-07,1.88084375e-01
-6.21601094e-07,1.88115625e-01
-6.21561094e-07,1.88085937e-01
-6.21521094e-07,1.88114063e-01
-6.21481094e-07,1.88085937e-01
-6.21441094e-07,1.88114063e-01
-6.21401094e-07,1.88085937e-01
-6.21361094e-07,1.88115625e-01
-6.21321094e-07,1.88082813e-01
-6.21281094e-07,1.88118750e-01
-6.21241094e-07,1.88076563e-01
-6.21201094e-07,1.88132812e-01
-6.21161094e-07,1.88042188e-01
-6.21121094e-07,1.88309375e-01
-6.21081094e-07,1.88553125e-01
-6.21041094e-07,1.88470313e-01
-6.21001094e-07,1.88520313e-01
-6.20961094e-07,1.88484375e-01
-6.20921094e-07,1.88514062e-01
-6.20881094e-07,1.88487500e-01
-6.20841094e-07,1.88510938e-01
-6.20801094e-07,1.88489062e-01
-6.20761094e-07,1.88510938e-01
-6.20721094e-07,1.88489062e-01
-6.20681094e-07,1.88512500e-01
-6.20641094e-07,1.88485938e-01
-6.20601094e-07,1.88517188e-01
-6.20561094e-07,1.88478125e-01
-6.20521094e-07,1.88531250e-01
-6.20481094e-07,1.88443750e-01
-6.20441094e-07,1.88709375e-01
-6.20401094e-07,1.88953125e-01
-6.20361094e-07,1.88870312e-01
-6.20321094e-07,1.88920313e-01
-6.20281094e-07,1.88884375e-01
-6.20241094e-07,1.88912500e-01
-6.20201094e-07,1.88889063e-01
-6.20161094e-07,1.88909375e-01
-6.20121094e-07,1.88892188e-01
-6.20081094e-07,1.88907812e-01
-6.20041094e-07,1.88893750e-01
-6.20001094e-07,1.88906250e-01
-6.19961094e-07,1.88893750e-01
-6.19921094e-07,1.88904688e-01
-6.19881094e-07,1.88895312e-01
-6.19841094e-07,1.88904688e-01
-6.19801094e-07,1.88895312e-01
-6.19761094e-07,1.88904688e-01
-6.19721094e-07,1.88895312e-01
-6.19681094e-07,1.88903125e-01
-6.19641094e-07,1.88896875e-01
-6.19601094e-07,1.88903125e-01
-6.19561094e-07,1.88896875e-01
-6.19521094e-07,1.88903125e-01
-6.19481094e-07,1.88896875e-01
-6.19441094e-07,1.88903125e-01
-6.19401094e-07,1.88896875e-01
-6.19361094e-07,1.88903125e-01
-6.19321094e-07,1.88896875e-01
-6.19281094e-07,1.88903125e-01
-6.19241094e-07,1.88896875e-01
-6.19201094e-07,1.88903125e-01
-6.19161094e-07,1.88896875e-01
-6.19121094e-07,1.88903125e-01
-6.19081094e-07,1.88896875e-01
-6.19041094e-07,1.88903125e-01
-6.19001094e-07,1.88896875e-01
-6.18961094e-07,1.88903125e-01
-6.18921094e-07,1.88896875e-01
-6.18881094e-07,1.88903125e-01
-6.18841094e-07,1.88896875e-01
-6.18801094e-07,1.88903125e-01
-6.18761094e-07,1.88896875e-01
-6.18721094e-07,1.88903125e-01
-6.18681094e-07,1.88896875e-01
-6.18641094e-07,1.88903125e-01
-6.18601094e-07,1.88896875e-01
-6.18561094e-07,1.88903125e-01
-6.18521094e-07,1.88896875e-01
-6.18481094e-07,1.88903125e-01
-6.18441094e-07,1.88896875e-01
-6.18401094e-07,1.88903125e-01
-6.18361094e-07,1.88896875e-01
-6.18321094e-07,1.88904688e-01
-6.18281094e-07,1.88895312e-01
-6.18241094e-07,1.88904688e-01
-6.18201094e-07,1.88895312e-01
-6.18161094e-07,1.88906250e-01
-6.18121094e-07,1.88893750e-01
-6.18081094e-07,1.88907812e-01
-6.18041094e-07,1.88890625e-01
-6.18001094e-07,1.88910938e-01
-6.17961094e-07,1.88885938e-01
-6.17921094e-07,1.88918750e-01
-6.17881094e-07,1.88871875e-01
-6.17841094e-07,1.88953125e-01
-6.17801094e-07,1.88693750e-01
-6.17761094e-07,1.88443750e-01
-6.17721094e-07,1.88532813e-01
-6.17681094e-07,1.88476562e-01
-6.17641094e-07,1.88518750e-01
-6.17601094e-07,1.88484375e-01
-6.17561094e-07,1.88514062e-01
-6.17521094e-07,1.88487500e-01
-6.17481094e-07,1.88510938e-01
-6.17441094e-07,1.88489062e-01
-6.17401094e-07,1.88510938e-01
-6.17361094e-07,1.88490625e-01
-6.17321094e-07,1.88509375e-01
-6.17281094e-07,1.88489062e-01
-6.17241094e-07,1.88510938e-01
-6.17201094e-07,1.88489062e-01
-6.17161094e-07,1.88512500e-01
-6.17121094e-07,1.88487500e-01
-6.17081094e-07,1.88515625e-01
-6.17041094e-07,1.88482813e-01
-6.17001094e-07,1.88521875e-01
-6.16961094e-07,1.88468750e-01
-6.16921094e-07,1.88556250e-01
-6.16881094e-07,1.88290625e-01
-6.16841094e-07,1.88046875e-01
-6.16801094e-07,1.88129688e-01
-6.16761094e-07,1.88079688e-01
-6.16721094e-07,1.88115625e-01
-6.16681094e-07,1.88087500e-01
-6.16641094e-07,1.88110938e-01
-6.16601094e-07,1.88089063e-01
-6.16561094e-07,1.88109375e-01
-6.16521094e-07,1.88090625e-01
-6.16481094e-07,1.88109375e-01
-6.16441094e-07,1.88089063e-01
-6.16401094e-07,1.88110938e-01
-6.16361094e-07,1.88085937e-01
-6.16321094e-07,1.88115625e-01
-6.16281094e-07,1.88079688e-01
-6.16241094e-07,1.88129688e-01
-6.16201094e-07,1.88045313e-01
-6.16161094e-07,1.88307813e-01
-6.16121094e-07,1.88554688e-01
-6.16081094e-07,1.88468750e-01
-6.16041094e-07,1.88521875e-01
-6.16001094e-07,1.88482813e-01
-6.15961094e-07,1.88514062e-01
-6.15921094e-07,1.88487500e-01
-6.15881094e-07,1.88510938e-01
-6.15841094e-07,1.88489062e-01
-6.15801094e-07,1.88509375e-01
-6.15761094e-07,1.88490625e-01
-6.15721094e-07,1.88507813e-01
-6.15681094e-07,1.88492188e-01
-6.15641094e-07,1.88507813e-01
-6.15601094e-07,1.88492188e-01
-6.15561094e-07,1.88507813e-01
-6.15521094e-07,1.88492188e-01
-6.15481094e-07,1.88507813e-01
-6.15441094e-07,1.88492188e-01
-6.15401094e-07,1.88507813e-01
-6.15361094e-07,1.88492188e-01
-6.15321094e-07,1.88507813e-01
-6.15281094e-07,1.88492188e-01
-6.15241094e-07,1.88507813e-01
-6.15201094e-07,1.88490625e-01
-6.15161094e-07,1.88509375e-01
-6.15121094e-07,1.88490625e-01
-6.15081094e-07,1.88509375e-01
-6.15041094e-07,1.88489062e-01
-6.15001094e-07,1.88510938e-01
-6.14961094e-07,1.88487500e-01
-6.14921094e-07,1.88514062e-01
-6.14881094e-07,1.88484375e-01
-6.14841094e-07,1.88518750e-01
-6.14801094e-07,1.88475000e-01
-6.14761094e-07,1.88534375e-01
-6.14721094e-07,1.88440625e-01
-6.14681094e-07,1.88712500e-01
-6.14641094e-07,1.88950000e-01
-6.14601094e-07,1.88873438e-01
-6.14561094e-07,1.88917188e-01
-6.14521094e-07,1.88887500e-01
