dpa/aes_ch1_20250506140522815.csv

Model,MSO66B
Label,
Waveform Type,ANALOG
Horizontal Units,s
Sample Interval,4.00000000e-11
Record Length,25000
Zero Index,6249.03125000
Vertical Units,A
ANALOG_Thumbnail,
yOffset,1.84500000e-01
yPosition,0.00000000e+00

Labels,
TIME,CH1
-2.49961250e-07,1.83575625e-01
-2.49921250e-07,1.83566563e-01
-2.49881250e-07,1.83578344e-01
-2.49841250e-07,1.83564750e-01
-2.49801250e-07,1.83581063e-01
-2.49761250e-07,1.83562031e-01
-2.49721250e-07,1.83583781e-01
-2.49681250e-07,1.83558406e-01
-2.49641250e-07,1.83589219e-01
-2.49601250e-07,1.83549344e-01
-2.49561250e-07,1.83609156e-01
-2.49521250e-07,1.83445125e-01
-2.49481250e-07,1.83314625e-01
-2.49441250e-07,1.83350875e-01
-2.49401250e-07,1.83334562e-01
-2.49361250e-07,1.83341813e-01
-2.49321250e-07,1.83340000e-01
-2.49281250e-07,1.83338187e-01
-2.49241250e-07,1.83343625e-01
-2.49201250e-07,1.83334562e-01
-2.49161250e-07,1.83348156e-01
-2.49121250e-07,1.83328219e-01
-2.49081250e-07,1.83357219e-01
-2.49041250e-07,1.83308281e-01
-2.49001250e-07,1.83461437e-01
-2.48961250e-07,1.83602812e-01
-2.48921250e-07,1.83554781e-01
-2.48881250e-07,1.83583781e-01
-2.48841250e-07,1.83562937e-01
-2.48801250e-07,1.83579250e-01
-2.48761250e-07,1.83564750e-01
-2.48721250e-07,1.83579250e-01
-2.48681250e-07,1.83562937e-01
-2.48641250e-07,1.83585594e-01
-2.48601250e-07,1.83544812e-01
-2.48561250e-07,1.83686187e-01
-2.48521250e-07,1.83842969e-01
-2.48481250e-07,1.83776812e-01
-2.48441250e-07,1.83828469e-01
-2.48401250e-07,1.83778625e-01
-2.48361250e-07,1.83833906e-01
-2.48321250e-07,1.83759594e-01
-2.48281250e-07,1.83937219e-01
-2.48241250e-07,1.84054125e-01
-2.48201250e-07,1.84033281e-01
-2.48161250e-07,1.84029656e-01
-2.48121250e-07,1.84050500e-01
-2.48081250e-07,1.84005188e-01
-2.48041250e-07,1.84157437e-01
-2.48001250e-07,1.84297000e-01
-2.47961250e-07,1.84254406e-01
-2.47921250e-07,1.84275250e-01
-2.47881250e-07,1.84266187e-01
-2.47841250e-07,1.84264375e-01
-2.47801250e-07,1.84277969e-01
-2.47761250e-07,1.84242625e-01
-2.47721250e-07,1.84383094e-01
-2.47681250e-07,1.84536250e-01
-2.47641250e-07,1.84478250e-01
-2.47601250e-07,1.84515406e-01
-2.47561250e-07,1.84487313e-01
-2.47521250e-07,1.84509969e-01
-2.47481250e-07,1.84491844e-01
-2.47441250e-07,1.84507250e-01
-2.47401250e-07,1.84493656e-01
-2.47361250e-07,1.84505438e-01
-2.47321250e-07,1.84495469e-01
-2.47281250e-07,1.84503625e-01
-2.47241250e-07,1.84496375e-01
-2.47201250e-07,1.84502719e-01
-2.47161250e-07,1.84498187e-01
-2.47121250e-07,1.84500906e-01
-2.47081250e-07,1.84500000e-01
-2.47041250e-07,1.84499094e-01
-2.47001250e-07,1.84501813e-01
-2.46961250e-07,1.84495469e-01
-2.46921250e-07,1.84507250e-01
-2.46881250e-07,1.84487313e-01
-2.46841250e-07,1.84527187e-01
-2.46801250e-07,1.84384000e-01
-2.46761250e-07,1.84232656e-01
-2.46721250e-07,1.84289750e-01
-2.46681250e-07,1.84251688e-01
-2.46641250e-07,1.84281594e-01
-2.46601250e-07,1.84256219e-01
-2.46561250e-07,1.84277969e-01
-2.46521250e-07,1.84258937e-01
-2.46481250e-07,1.84277063e-01
-2.46441250e-07,1.84259844e-01
-2.46401250e-07,1.84276156e-01
-2.46361250e-07,1.84260750e-01
-2.46321250e-07,1.84275250e-01
-2.46281250e-07,1.84260750e-01
-2.46241250e-07,1.84274344e-01
-2.46201250e-07,1.84261656e-01
-2.46161250e-07,1.84274344e-01
-2.46121250e-07,1.84261656e-01
-2.46081250e-07,1.84274344e-01
-2.46041250e-07,1.84261656e-01
-2.46001250e-07,1.84274344e-01
-2.45961250e-07,1.84261656e-01
-2.45921250e-07,1.84274344e-01
-2.45881250e-07,1.84261656e-01
-2.45841250e-07,1.84274344e-01
-2.45801250e-07,1.84261656e-01
-2.45761250e-07,1.84274344e-01
-2.45721250e-07,1.84261656e-01
-2.45681250e-07,1.84275250e-01
-2.45641250e-07,1.84260750e-01
-2.45601250e-07,1.84275250e-01
-2.45561250e-07,1.84259844e-01
-2.45521250e-07,1.84276156e-01
-2.45481250e-07,1.84258937e-01
-2.45441250e-07,1.84277969e-01
-2.45401250e-07,1.84256219e-01
-2.45361250e-07,1.84281594e-01
-2.45321250e-07,1.84251688e-01
-2.45281250e-07,1.84289750e-01
-2.45241250e-07,1.84231750e-01
-2.45201250e-07,1.84393969e-01
-2.45161250e-07,1.84526281e-01
-2.45121250e-07,1.84487313e-01
-2.45081250e-07,1.84506344e-01
-2.45041250e-07,1.84497281e-01
-2.45001250e-07,1.84500906e-01
-2.44961250e-07,1.84500906e-01
-2.44921250e-07,1.84496375e-01
-2.44881250e-07,1.84505438e-01
-2.44841250e-07,1.84490938e-01
-2.44801250e-07,1.84514500e-01
-2.44761250e-07,1.84470094e-01
-2.44721250e-07,1.84618719e-01
-2.44681250e-07,1.84765531e-01
-2.44641250e-07,1.84712969e-01
-2.44601250e-07,1.84745594e-01
-2.44561250e-07,1.84721125e-01
-2.44521250e-07,1.84741062e-01
-2.44481250e-07,1.84723844e-01
-2.44441250e-07,1.84739250e-01
-2.44401250e-07,1.84725656e-01
-2.44361250e-07,1.84737437e-01
-2.44321250e-07,1.84726562e-01
-2.44281250e-07,1.84737437e-01
-2.44241250e-07,1.84727469e-01
-2.44201250e-07,1.84736531e-01
-2.44161250e-07,1.84727469e-01
-2.44121250e-07,1.84736531e-01
-2.44081250e-07,1.84727469e-01
-2.44041250e-07,1.84736531e-01
-2.44001250e-07,1.84726562e-01
-2.43961250e-07,1.84737437e-01
-2.43921250e-07,1.84726562e-01
-2.43881250e-07,1.84738344e-01
-2.43841250e-07,1.84724750e-01
-2.43801250e-07,1.84740156e-01
-2.43761250e-07,1.84722031e-01
-2.43721250e-07,1.84744688e-01
-2.43681250e-07,1.84713875e-01
-2.43641250e-07,1.84764625e-01
-2.43601250e-07,1.84610562e-01
-2.43561250e-07,1.84469187e-01
-2.43521250e-07,1.84517219e-01
-2.43481250e-07,1.84488219e-01
-2.43441250e-07,1.84509062e-01
-2.43401250e-07,1.84492750e-01
-2.43361250e-07,1.84506344e-01
-2.43321250e-07,1.84494562e-01
-2.43281250e-07,1.84504531e-01
-2.43241250e-07,1.84495469e-01
-2.43201250e-07,1.84504531e-01
-2.43161250e-07,1.84496375e-01
-2.43121250e-07,1.84503625e-01
-2.43081250e-07,1.84496375e-01
-2.43041250e-07,1.84503625e-01
-2.43001250e-07,1.84496375e-01
-2.42961250e-07,1.84503625e-01
-2.42921250e-07,1.84496375e-01
-2.42881250e-07,1.84503625e-01
-2.42841250e-07,1.84496375e-01
-2.42801250e-07,1.84503625e-01
-2.42761250e-07,1.84495469e-01
-2.42721250e-07,1.84505438e-01
-2.42681250e-07,1.84493656e-01
-2.42641250e-07,1.84507250e-01
-2.42601250e-07,1.84490031e-01
-2.42561250e-07,1.84514500e-01
-2.42521250e-07,1.84471000e-01
-2.42481250e-07,1.84616906e-01
-2.42441250e-07,1.84768250e-01
-2.42401250e-07,1.84708437e-01
-2.42361250e-07,1.84751937e-01
-2.42321250e-07,1.84711156e-01
-2.42281250e-07,1.84756469e-01
-2.42241250e-07,1.84693937e-01
-2.42201250e-07,1.84858875e-01
-2.42161250e-07,1.84989375e-01
-2.42121250e-07,1.84952219e-01
-2.42081250e-07,1.84969438e-01
-2.42041250e-07,1.84963094e-01
-2.42001250e-07,1.84961281e-01
-2.41961250e-07,1.84973063e-01
-2.41921250e-07,1.84939531e-01
-2.41881250e-07,1.85077281e-01
-2.41841250e-07,1.85234969e-01
-2.41801250e-07,1.85171531e-01
-2.41761250e-07,1.85215031e-01
-2.41721250e-07,1.85178781e-01
-2.41681250e-07,1.85211406e-01
-2.41641250e-07,1.85181500e-01
-2.41601250e-07,1.85210500e-01
-2.41561250e-07,1.85180594e-01
-2.41521250e-07,1.85212313e-01
-2.41481250e-07,1.85178781e-01
-2.41441250e-07,1.85215938e-01
-2.41401250e-07,1.85169719e-01
-2.41361250e-07,1.85236781e-01
-2.41321250e-07,1.85066406e-01
-2.41281250e-07,1.84942250e-01
-2.41241250e-07,1.84970344e-01
-2.41201250e-07,1.84965812e-01
-2.41161250e-07,1.84954031e-01
-2.41121250e-07,1.84989375e-01
-2.41081250e-07,1.84849812e-01
-2.41041250e-07,1.84693031e-01
-2.41001250e-07,1.84759188e-01
-2.40961250e-07,1.84705719e-01
-2.40921250e-07,1.84769156e-01
-2.40881250e-07,1.84609656e-01
-2.40841250e-07,1.84467375e-01
-2.40801250e-07,1.84522656e-01
-2.40761250e-07,1.84477344e-01
-2.40721250e-07,1.84534438e-01
-2.40681250e-07,1.84379469e-01
-2.40641250e-07,1.84234469e-01
-2.40601250e-07,1.84290656e-01
-2.40561250e-07,1.84245344e-01
-2.40521250e-07,1.84302437e-01
-2.40481250e-07,1.84147469e-01
-2.40441250e-07,1.84002469e-01
-2.40401250e-07,1.84057750e-01
-2.40361250e-07,1.84016969e-01
-2.40321250e-07,1.84055031e-01
-2.40281250e-07,1.84012437e-01
-2.40241250e-07,1.84073156e-01
-2.40201250e-07,1.83910938e-01
-2.40161250e-07,1.83776812e-01
-2.40121250e-07,1.83817594e-01
-2.40081250e-07,1.83795844e-01
-2.40041250e-07,1.83809438e-01
-2.40001250e-07,1.83800375e-01
-2.39961250e-07,1.83806719e-01
-2.39921250e-07,1.83802187e-01
-2.39881250e-07,1.83805812e-01
-2.39841250e-07,1.83803094e-01
-2.39801250e-07,1.83804906e-01
-2.39761250e-07,1.83804000e-01
-2.39721250e-07,1.83804000e-01
-2.39681250e-07,1.83804906e-01
-2.39641250e-07,1.83803094e-01
-2.39601250e-07,1.83804906e-01
-2.39561250e-07,1.83803094e-01
-2.39521250e-07,1.83805812e-01
-2.39481250e-07,1.83802187e-01
-2.39441250e-07,1.83805812e-01
-2.39401250e-07,1.83802187e-01
-2.39361250e-07,1.83806719e-01
-2.39321250e-07,1.83801281e-01
-2.39281250e-07,1.83806719e-01
-2.39241250e-07,1.83800375e-01
-2.39201250e-07,1.83807625e-01
-2.39161250e-07,1.83799469e-01
-2.39121250e-07,1.83808531e-01
-2.39081250e-07,1.83798562e-01
-2.39041250e-07,1.83810344e-01
-2.39001250e-07,1.83796750e-01
-2.38961250e-07,1.83813062e-01
-2.38921250e-07,1.83793125e-01
-2.38881250e-07,1.83817594e-01
-2.38841250e-07,1.83784062e-01
-2.38801250e-07,1.83838438e-01
-2.38761250e-07,1.83679844e-01
-2.38721250e-07,1.83543906e-01
-2.38681250e-07,1.83585594e-01
-2.38641250e-07,1.83564750e-01
-2.38601250e-07,1.83575625e-01
-2.38561250e-07,1.83571094e-01
-2.38521250e-07,1.83569281e-01
-2.38481250e-07,1.83578344e-01
-2.38441250e-07,1.83559312e-01
-2.38401250e-07,1.83599188e-01
-2.38361250e-07,1.83455094e-01
-2.38321250e-07,1.83304656e-01
-2.38281250e-07,1.83360844e-01
-2.38241250e-07,1.83324594e-01
-2.38201250e-07,1.83352688e-01
-2.38161250e-07,1.83330031e-01
-2.38121250e-07,1.83349062e-01
-2.38081250e-07,1.83331844e-01
-2.38041250e-07,1.83347250e-01
-2.38001250e-07,1.83333656e-01
-2.37961250e-07,1.83346344e-01
-2.37921250e-07,1.83334562e-01
-2.37881250e-07,1.83345437e-01
-2.37841250e-07,1.83335469e-01
-2.37801250e-07,1.83344531e-01
-2.37761250e-07,1.83336375e-01
-2.37721250e-07,1.83343625e-01
-2.37681250e-07,1.83336375e-01
-2.37641250e-07,1.83342719e-01
-2.37601250e-07,1.83338187e-01
-2.37561250e-07,1.83340906e-01
-2.37521250e-07,1.83340000e-01
-2.37481250e-07,1.83337281e-01
-2.37441250e-07,1.83347250e-01
-2.37401250e-07,1.83319156e-01
-2.37361250e-07,1.83447844e-01
-2.37321250e-07,1.83618219e-01
-2.37281250e-07,1.83535750e-01
-2.37241250e-07,1.83609156e-01
-2.37201250e-07,1.83522156e-01
-2.37161250e-07,1.83710656e-01
-2.37121250e-07,1.83815781e-01
-2.37081250e-07,1.83811250e-01
-2.37041250e-07,1.83776812e-01
-2.37001250e-07,1.83922719e-01
-2.36961250e-07,1.84066813e-01
-2.36921250e-07,1.84024219e-01
-2.36881250e-07,1.84029656e-01
-2.36841250e-07,1.84130250e-01
-2.36801250e-07,1.84329625e-01
-2.36761250e-07,1.84205469e-01
-2.36721250e-07,1.84414812e-01
-2.36681250e-07,1.84505438e-01
-2.36641250e-07,1.84511781e-01
-2.36601250e-07,1.84469187e-01
-2.36561250e-07,1.84622344e-01
-2.36521250e-07,1.84758281e-01
-2.36481250e-07,1.84724750e-01
-2.36441250e-07,1.84720219e-01
-2.36401250e-07,1.84834406e-01
-2.36361250e-07,1.85013844e-01
-2.36321250e-07,1.84925031e-01
-2.36281250e-07,1.85002063e-01
-2.36241250e-07,1.84914156e-01
-2.36201250e-07,1.85100844e-01
-2.36161250e-07,1.85211406e-01
-2.36121250e-07,1.85195094e-01
-2.36081250e-07,1.85189656e-01
-2.36041250e-07,1.85210500e-01
-2.36001250e-07,1.85166094e-01
-2.35961250e-07,1.85315625e-01
-2.35921250e-07,1.85459719e-01
-2.35881250e-07,1.85409875e-01
-2.35841250e-07,1.85440688e-01
-2.35801250e-07,1.85418937e-01
-2.35761250e-07,1.85435250e-01
-2.35721250e-07,1.85421656e-01
-2.35681250e-07,1.85433437e-01
-2.35641250e-07,1.85423469e-01
-2.35601250e-07,1.85431625e-01
-2.35561250e-07,1.85424375e-01
-2.35521250e-07,1.85430719e-01
-2.35481250e-07,1.85425281e-01
-2.35441250e-07,1.85429812e-01
-2.35401250e-07,1.85427094e-01
-2.35361250e-07,1.85428906e-01
-2.35321250e-07,1.85428000e-01
-2.35281250e-07,1.85426188e-01
-2.35241250e-07,1.85432531e-01
-2.35201250e-07,1.85418031e-01
-2.35161250e-07,1.85451563e-01
-2.35121250e-07,1.85316531e-01
-2.35081250e-07,1.85154313e-01
-2.35041250e-07,1.85225000e-01
-2.35001250e-07,1.85169719e-01
-2.34961250e-07,1.85222281e-01
-2.34921250e-07,1.85165187e-01
-2.34881250e-07,1.85241313e-01
-2.34841250e-07,1.85061875e-01
-2.34801250e-07,1.84946781e-01
-2.34761250e-07,1.84965812e-01
-2.34721250e-07,1.84970344e-01
-2.34681250e-07,1.84949500e-01
-2.34641250e-07,1.84994812e-01
-2.34601250e-07,1.84842563e-01
-2.34561250e-07,1.84703000e-01
-2.34521250e-07,1.84745594e-01
-2.34481250e-07,1.84726562e-01
-2.34441250e-07,1.84729281e-01
-2.34401250e-07,1.84751031e-01
-2.34361250e-07,1.84624156e-01
-2.34321250e-07,1.84456500e-01
-2.34281250e-07,1.84530813e-01
-2.34241250e-07,1.84473719e-01
-2.34201250e-07,1.84526281e-01
-2.34161250e-07,1.84470094e-01
-2.34121250e-07,1.84542594e-01
-2.34081250e-07,1.84369500e-01
-2.34041250e-07,1.84246250e-01
-2.34001250e-07,1.84276156e-01
-2.33961250e-07,1.84265281e-01
-2.33921250e-07,1.84268000e-01
-2.33881250e-07,1.84270719e-01
-2.33841250e-07,1.84262563e-01
-2.33801250e-07,1.84276156e-01
-2.33761250e-07,1.84253500e-01
-2.33721250e-07,1.84297000e-01
-2.33681250e-07,1.84150188e-01
-2.33641250e-07,1.84001562e-01
-2.33601250e-07,1.84056844e-01
-2.33561250e-07,1.84020594e-01
-2.33521250e-07,1.84048688e-01
-2.33481250e-07,1.84024219e-01
-2.33441250e-07,1.84046875e-01
-2.33401250e-07,1.84026031e-01
-2.33361250e-07,1.84046875e-01
-2.33321250e-07,1.84025125e-01
-2.33281250e-07,1.84047781e-01
-2.33241250e-07,1.84022406e-01
-2.33201250e-07,1.84052313e-01
-2.33161250e-07,1.84014250e-01
-2.33121250e-07,1.84072250e-01
-2.33081250e-07,1.83910938e-01
-2.33041250e-07,1.83776812e-01
-2.33001250e-07,1.83817594e-01
-2.32961250e-07,1.83796750e-01
-2.32921250e-07,1.83808531e-01
-2.32881250e-07,1.83802187e-01
-2.32841250e-07,1.83804000e-01
-2.32801250e-07,1.83805812e-01
-2.32761250e-07,1.83800375e-01
-2.32721250e-07,1.83811250e-01
-2.32681250e-07,1.83791312e-01
-2.32641250e-07,1.83831187e-01
-2.32601250e-07,1.83688000e-01
-2.32561250e-07,1.83535750e-01
-2.32521250e-07,1.83594656e-01
-2.32481250e-07,1.83554781e-01
-2.32441250e-07,1.83587406e-01
-2.32401250e-07,1.83558406e-01
-2.32361250e-07,1.83585594e-01
-2.32321250e-07,1.83557500e-01
-2.32281250e-07,1.83589219e-01
-2.32241250e-07,1.83550250e-01
-2.32201250e-07,1.83608250e-01
-2.32161250e-07,1.83447844e-01
-2.32121250e-07,1.83311906e-01
-2.32081250e-07,1.83354500e-01
-2.32041250e-07,1.83330031e-01
-2.32001250e-07,1.83347250e-01
-2.31961250e-07,1.83334562e-01
-2.31921250e-07,1.83344531e-01
-2.31881250e-07,1.83336375e-01
-2.31841250e-07,1.83343625e-01
-2.31801250e-07,1.83337281e-01
-2.31761250e-07,1.83342719e-01
-2.31721250e-07,1.83337281e-01
-2.31681250e-07,1.83342719e-01
-2.31641250e-07,1.83337281e-01
-2.31601250e-07,1.83342719e-01
-2.31561250e-07,1.83337281e-01
-2.31521250e-07,1.83342719e-01
-2.31481250e-07,1.83337281e-01
-2.31441250e-07,1.83342719e-01
-2.31401250e-07,1.83337281e-01
-2.31361250e-07,1.83342719e-01
-2.31321250e-07,1.83337281e-01
-2.31281250e-07,1.83343625e-01
-2.31241250e-07,1.83336375e-01
-2.31201250e-07,1.83343625e-01
-2.31161250e-07,1.83335469e-01
-2.31121250e-07,1.83344531e-01
-2.31081250e-07,1.83334562e-01
-2.31041250e-07,1.83346344e-01
-2.31001250e-07,1.83332750e-01
-2.30961250e-07,1.83349062e-01
-2.30921250e-07,1.83328219e-01
-2.30881250e-07,1.83358125e-01
-2.30841250e-07,1.83307375e-01
-2.30801250e-07,1.83461437e-01
-2.30761250e-07,1.83602812e-01
-2.30721250e-07,1.83554781e-01
-2.30681250e-07,1.83583781e-01
-2.30641250e-07,1.83562937e-01
-2.30601250e-07,1.83579250e-01
-2.30561250e-07,1.83566563e-01
-2.30521250e-07,1.83576531e-01
-2.30481250e-07,1.83567469e-01
-2.30441250e-07,1.83575625e-01
-2.30401250e-07,1.83568375e-01
-2.30361250e-07,1.83574719e-01
-2.30321250e-07,1.83569281e-01
-2.30281250e-07,1.83574719e-01
-2.30241250e-07,1.83570188e-01
-2.30201250e-07,1.83573812e-01
-2.30161250e-07,1.83570188e-01
-2.30121250e-07,1.83573812e-01
-2.30081250e-07,1.83570188e-01
-2.30041250e-07,1.83572906e-01
-2.30001250e-07,1.83571094e-01
-2.29961250e-07,1.83572906e-01
-2.29921250e-07,1.83571094e-01
-2.29881250e-07,1.83572906e-01
-2.29841250e-07,1.83571094e-01
-2.29801250e-07,1.83572000e-01
-2.29761250e-07,1.83572000e-01
-2.29721250e-07,1.83572000e-01
-2.29681250e-07,1.83572000e-01
-2.29641250e-07,1.83572000e-01
-2.29601250e-07,1.83572906e-01
-2.29561250e-07,1.83571094e-01
-2.29521250e-07,1.83572906e-01
-2.29481250e-07,1.83571094e-01
-2.29441250e-07,1.83573812e-01
-2.29401250e-07,1.83570188e-01
-2.29361250e-07,1.83574719e-01
-2.29321250e-07,1.83568375e-01
-2.29281250e-07,1.83576531e-01
-2.29241250e-07,1.83566563e-01
-2.29201250e-07,1.83579250e-01
-2.29161250e-07,1.83562031e-01
-2.29121250e-07,1.83587406e-01
-2.29081250e-07,1.83542094e-01
-2.29041250e-07,1.83690719e-01
-2.29001250e-07,1.83837531e-01
-2.28961250e-07,1.83784969e-01
-2.28921250e-07,1.83817594e-01
-2.28881250e-07,1.83793125e-01
-2.28841250e-07,1.83813062e-01
-2.28801250e-07,1.83795844e-01
-2.28761250e-07,1.83811250e-01
-2.28721250e-07,1.83797656e-01
-2.28681250e-07,1.83810344e-01
-2.28641250e-07,1.83798562e-01
-2.28601250e-07,1.83809438e-01
-2.28561250e-07,1.83798562e-01
-2.28521250e-07,1.83809438e-01
-2.28481250e-07,1.83799469e-01
-2.28441250e-07,1.83808531e-01
-2.28401250e-07,1.83799469e-01
-2.28361250e-07,1.83808531e-01
-2.28321250e-07,1.83799469e-01
-2.28281250e-07,1.83808531e-01
-2.28241250e-07,1.83799469e-01
-2.28201250e-07,1.83808531e-01
-2.28161250e-07,1.83799469e-01
-2.28121250e-07,1.83808531e-01
-2.28081250e-07,1.83798562e-01
-2.28041250e-07,1.83809438e-01
-2.28001250e-07,1.83798562e-01
-2.27961250e-07,1.83810344e-01
-2.27921250e-07,1.83797656e-01
-2.27881250e-07,1.83811250e-01
-2.27841250e-07,1.83795844e-01
-2.27801250e-07,1.83813969e-01
-2.27761250e-07,1.83791312e-01
-2.27721250e-07,1.83822125e-01
-2.27681250e-07,1.83771375e-01
-2.27641250e-07,1.83925438e-01
-2.27601250e-07,1.84067719e-01
-2.27561250e-07,1.84017875e-01
-2.27521250e-07,1.84049594e-01
-2.27481250e-07,1.84024219e-01
-2.27441250e-07,1.84046875e-01
-2.27401250e-07,1.84023313e-01
-2.27361250e-07,1.84053219e-01
-2.27321250e-07,1.84006094e-01
-2.27281250e-07,1.84153812e-01
-2.27241250e-07,1.84304250e-01
-2.27201250e-07,1.84244437e-01
-2.27161250e-07,1.84288844e-01
-2.27121250e-07,1.84247156e-01
-2.27081250e-07,1.84293375e-01
-2.27041250e-07,1.84229031e-01
-2.27001250e-07,1.84395781e-01
-2.26961250e-07,1.84523562e-01
-2.26921250e-07,1.84490938e-01
-2.26881250e-07,1.84500906e-01
-2.26841250e-07,1.84507250e-01
-2.26801250e-07,1.84477344e-01
-2.26761250e-07,1.84611469e-01
-2.26721250e-07,1.84772781e-01
-2.26681250e-07,1.84703906e-01
-2.26641250e-07,1.84755562e-01
-2.26601250e-07,1.84708437e-01
-2.26561250e-07,1.84759188e-01
-2.26521250e-07,1.84692125e-01
-2.26481250e-07,1.84859781e-01
-2.26441250e-07,1.84989375e-01
-2.26401250e-07,1.84952219e-01
-2.26361250e-07,1.84970344e-01
-2.26321250e-07,1.84959469e-01
-2.26281250e-07,1.84966719e-01
-2.26241250e-07,1.84962187e-01
-2.26201250e-07,1.84964906e-01
-2.26161250e-07,1.84963094e-01
-2.26121250e-07,1.84964000e-01
-2.26081250e-07,1.84964000e-01
-2.26041250e-07,1.84963094e-01
-2.26001250e-07,1.84964906e-01
-2.25961250e-07,1.84963094e-01
-2.25921250e-07,1.84965812e-01
-2.25881250e-07,1.84961281e-01
-2.25841250e-07,1.84967625e-01
-2.25801250e-07,1.84958563e-01
-2.25761250e-07,1.84971250e-01
-2.25721250e-07,1.84951312e-01
-2.25681250e-07,1.84990281e-01
-2.25641250e-07,1.84848906e-01
-2.25601250e-07,1.84693937e-01
-2.25561250e-07,1.84758281e-01
-2.25521250e-07,1.84709344e-01
-2.25481250e-07,1.84754656e-01
-2.25441250e-07,1.84704813e-01
-2.25401250e-07,1.84772781e-01
-2.25361250e-07,1.84602406e-01
-2.25321250e-07,1.84477344e-01
-2.25281250e-07,1.84507250e-01
-2.25241250e-07,1.84500000e-01
-2.25201250e-07,1.84491844e-01
-2.25161250e-07,1.84523562e-01
-2.25121250e-07,1.84387625e-01
-2.25081250e-07,1.84228125e-01
-2.25041250e-07,1.84294281e-01
-2.25001250e-07,1.84245344e-01
-2.24961250e-07,1.84290656e-01
-2.24921250e-07,1.84242625e-01
-2.24881250e-07,1.84306969e-01
-2.24841250e-07,1.84142031e-01
-2.24801250e-07,1.84008813e-01
-2.24761250e-07,1.84049594e-01
-2.24721250e-07,1.84026937e-01
-2.24681250e-07,1.84043250e-01
-2.24641250e-07,1.84029656e-01
-2.24601250e-07,1.84042344e-01
-2.24561250e-07,1.84028750e-01
-2.24521250e-07,1.84045969e-01
