dpa/aes_ch1_20250506141212275.csv

Model,MSO66B
Label,
Waveform Type,ANALOG
Horizontal Units,s
Sample Interval,4.00000000e-11
Record Length,100000
Zero Index,15999.10546875
Vertical Units,A
ANALOG_Thumbnail,
yOffset,1.84500000e-01
yPosition,8.40000000e-01

Labels,
TIME,CH1
-6.39964219e-07,1.90890625e-01
-6.39924219e-07,1.90910938e-01
-6.39884219e-07,1.90885938e-01
-6.39844219e-07,1.90920312e-01
-6.39804219e-07,1.90870313e-01
-6.39764219e-07,1.90954687e-01
-6.39724219e-07,1.90692187e-01
-6.39684219e-07,1.90446875e-01
-6.39644219e-07,1.90529688e-01
-6.39604219e-07,1.90481250e-01
-6.39564219e-07,1.90514062e-01
-6.39524219e-07,1.90489063e-01
-6.39484219e-07,1.90507813e-01
-6.39444219e-07,1.90495313e-01
-6.39404219e-07,1.90503125e-01
-6.39364219e-07,1.90500000e-01
-6.39324219e-07,1.90495313e-01
-6.39284219e-07,1.90509375e-01
-6.39244219e-07,1.90481250e-01
-6.39204219e-07,1.90543750e-01
-6.39164219e-07,1.90303125e-01
-6.39124219e-07,1.90034375e-01
-6.39084219e-07,1.90142188e-01
-6.39044219e-07,1.90067188e-01
-6.39004219e-07,1.90128125e-01
-6.38964219e-07,1.90073437e-01
-6.38924219e-07,1.90126563e-01
-6.38884219e-07,1.90071875e-01
-6.38844219e-07,1.90131250e-01
-6.38804219e-07,1.90059375e-01
-6.38764219e-07,1.90164063e-01
-6.38724219e-07,1.89882812e-01
-6.38684219e-07,1.89653125e-01
-6.38644219e-07,1.89723438e-01
-6.38604219e-07,1.89685938e-01
-6.38564219e-07,1.89710938e-01
-6.38524219e-07,1.89692187e-01
-6.38484219e-07,1.89706250e-01
-6.38444219e-07,1.89693750e-01
-6.38404219e-07,1.89706250e-01
-6.38364219e-07,1.89693750e-01
-6.38324219e-07,1.89706250e-01
-6.38284219e-07,1.89692187e-01
-6.38244219e-07,1.89709375e-01
-6.38204219e-07,1.89687500e-01
-6.38164219e-07,1.89717187e-01
-6.38124219e-07,1.89673438e-01
-6.38084219e-07,1.89751562e-01
-6.38044219e-07,1.89496875e-01
-6.38004219e-07,1.89240625e-01
-6.37964219e-07,1.89334375e-01
-6.37924219e-07,1.89273438e-01
-6.37884219e-07,1.89321875e-01
-6.37844219e-07,1.89281250e-01
-6.37804219e-07,1.89317188e-01
-6.37764219e-07,1.89284375e-01
-6.37724219e-07,1.89314063e-01
-6.37684219e-07,1.89285938e-01
-6.37644219e-07,1.89314063e-01
-6.37604219e-07,1.89285938e-01
-6.37564219e-07,1.89314063e-01
-6.37524219e-07,1.89285938e-01
-6.37484219e-07,1.89314063e-01
-6.37444219e-07,1.89285938e-01
-6.37404219e-07,1.89315625e-01
-6.37364219e-07,1.89284375e-01
-6.37324219e-07,1.89317188e-01
-6.37284219e-07,1.89281250e-01
-6.37244219e-07,1.89321875e-01
-6.37204219e-07,1.89273438e-01
-6.37164219e-07,1.89335937e-01
-6.37124219e-07,1.89239062e-01
-6.37084219e-07,1.89514062e-01
-6.37044219e-07,1.89748438e-01
-6.37004219e-07,1.89675000e-01
-6.36964219e-07,1.89715625e-01
-6.36924219e-07,1.89687500e-01
-6.36884219e-07,1.89709375e-01
-6.36844219e-07,1.89690625e-01
-6.36804219e-07,1.89709375e-01
-6.36764219e-07,1.89687500e-01
-6.36724219e-07,1.89720313e-01
-6.36684219e-07,1.89656250e-01
-6.36644219e-07,1.89895312e-01
-6.36604219e-07,1.90170312e-01
-6.36564219e-07,1.90050000e-01
-6.36524219e-07,1.90143750e-01
-6.36484219e-07,1.90054688e-01
-6.36444219e-07,1.90153125e-01
-6.36404219e-07,1.90021875e-01
-6.36364219e-07,1.90332813e-01
-6.36324219e-07,1.90528125e-01
-6.36284219e-07,1.90498438e-01
-6.36244219e-07,1.90485938e-01
-6.36204219e-07,1.90528125e-01
-6.36164219e-07,1.90442187e-01
-6.36124219e-07,1.90714063e-01
-6.36084219e-07,1.90945313e-01
-6.36044219e-07,1.90882812e-01
-6.36004219e-07,1.90901563e-01
-6.35964219e-07,1.90914063e-01
-6.35924219e-07,1.90856250e-01
-6.35884219e-07,1.91100000e-01
-6.35844219e-07,1.91359375e-01
-6.35804219e-07,1.91267188e-01
-6.35764219e-07,1.91320313e-01
-6.35724219e-07,1.91289062e-01
-6.35684219e-07,1.91303125e-01
-6.35644219e-07,1.91309375e-01
-6.35604219e-07,1.91264062e-01
-6.35564219e-07,1.91490625e-01
-6.35524219e-07,1.91770313e-01
-6.35484219e-07,1.91654688e-01
-6.35444219e-07,1.91735938e-01
-6.35404219e-07,1.91670312e-01
-6.35364219e-07,1.91726563e-01
-6.35324219e-07,1.91676563e-01
-6.35284219e-07,1.91721875e-01
-6.35244219e-07,1.91679688e-01
-6.35204219e-07,1.91720313e-01
-6.35164219e-07,1.91681250e-01
-6.35124219e-07,1.91718750e-01
-6.35084219e-07,1.91681250e-01
-6.35044219e-07,1.91717187e-01
-6.35004219e-07,1.91682813e-01
-6.34964219e-07,1.91717187e-01
-6.34924219e-07,1.91681250e-01
-6.34884219e-07,1.91718750e-01
-6.34844219e-07,1.91681250e-01
-6.34804219e-07,1.91720313e-01
-6.34764219e-07,1.91678125e-01
-6.34724219e-07,1.91723438e-01
-6.34684219e-07,1.91673438e-01
-6.34644219e-07,1.91731250e-01
-6.34604219e-07,1.91659375e-01
-6.34564219e-07,1.91765625e-01
-6.34524219e-07,1.91481250e-01
-6.34484219e-07,1.91256250e-01
-6.34444219e-07,1.91320313e-01
-6.34404219e-07,1.91289062e-01
-6.34364219e-07,1.91304688e-01
-6.34324219e-07,1.91298438e-01
-6.34284219e-07,1.91300000e-01
-6.34244219e-07,1.91301563e-01
-6.34204219e-07,1.91295313e-01
-6.34164219e-07,1.91306250e-01
-6.34124219e-07,1.91292188e-01
-6.34084219e-07,1.91309375e-01
-6.34044219e-07,1.91285938e-01
-6.34004219e-07,1.91318750e-01
-6.33964219e-07,1.91271875e-01
-6.33924219e-07,1.91353125e-01
-6.33884219e-07,1.91093750e-01
-6.33844219e-07,1.90843750e-01
-6.33804219e-07,1.90932812e-01
-6.33764219e-07,1.90875000e-01
-6.33724219e-07,1.90920312e-01
-6.33684219e-07,1.90881250e-01
-6.33644219e-07,1.90917188e-01
-6.33604219e-07,1.90882812e-01
-6.33564219e-07,1.90920312e-01
-6.33524219e-07,1.90876563e-01
-6.33484219e-07,1.90932812e-01
-6.33444219e-07,1.90843750e-01
-6.33404219e-07,1.91109375e-01
-6.33364219e-07,1.91353125e-01
-6.33324219e-07,1.91270313e-01
-6.33284219e-07,1.91320313e-01
-6.33244219e-07,1.91284375e-01
-6.33204219e-07,1.91314062e-01
-6.33164219e-07,1.91287500e-01
-6.33124219e-07,1.91310938e-01
-6.33084219e-07,1.91290625e-01
-6.33044219e-07,1.91309375e-01
-6.33004219e-07,1.91290625e-01
-6.32964219e-07,1.91307813e-01
-6.32924219e-07,1.91292188e-01
-6.32884219e-07,1.91307813e-01
-6.32844219e-07,1.91292188e-01
-6.32804219e-07,1.91307813e-01
-6.32764219e-07,1.91292188e-01
-6.32724219e-07,1.91307813e-01
-6.32684219e-07,1.91292188e-01
-6.32644219e-07,1.91307813e-01
-6.32604219e-07,1.91292188e-01
-6.32564219e-07,1.91307813e-01
-6.32524219e-07,1.91292188e-01
-6.32484219e-07,1.91307813e-01
-6.32444219e-07,1.91292188e-01
-6.32404219e-07,1.91307813e-01
-6.32364219e-07,1.91292188e-01
-6.32324219e-07,1.91309375e-01
-6.32284219e-07,1.91290625e-01
-6.32244219e-07,1.91309375e-01
-6.32204219e-07,1.91290625e-01
-6.32164219e-07,1.91309375e-01
-6.32124219e-07,1.91289062e-01
-6.32084219e-07,1.91310938e-01
-6.32044219e-07,1.91287500e-01
-6.32004219e-07,1.91312500e-01
-6.31964219e-07,1.91285938e-01
-6.31924219e-07,1.91315625e-01
-6.31884219e-07,1.91282813e-01
-6.31844219e-07,1.91318750e-01
-6.31804219e-07,1.91278125e-01
-6.31764219e-07,1.91326563e-01
-6.31724219e-07,1.91262500e-01
-6.31684219e-07,1.91362500e-01
-6.31644219e-07,1.91084375e-01
-6.31604219e-07,1.90853125e-01
-6.31564219e-07,1.90921875e-01
-6.31524219e-07,1.90887500e-01
-6.31484219e-07,1.90907812e-01
-6.31444219e-07,1.90896875e-01
-6.31404219e-07,1.90901563e-01
-6.31364219e-07,1.90900000e-01
-6.31324219e-07,1.90898438e-01
-6.31284219e-07,1.90903125e-01
-6.31244219e-07,1.90895312e-01
-6.31204219e-07,1.90907812e-01
-6.31164219e-07,1.90890625e-01
-6.31124219e-07,1.90910938e-01
-6.31084219e-07,1.90885938e-01
-6.31044219e-07,1.90917188e-01
-6.31004219e-07,1.90878125e-01
-6.30964219e-07,1.90932812e-01
-6.30924219e-07,1.90842188e-01
-6.30884219e-07,1.91112500e-01
-6.30844219e-07,1.91350000e-01
-6.30804219e-07,1.91275000e-01
-6.30764219e-07,1.91315625e-01
-6.30724219e-07,1.91290625e-01
-6.30684219e-07,1.91306250e-01
-6.30644219e-07,1.91296875e-01
-6.30604219e-07,1.91300000e-01
-6.30564219e-07,1.91303125e-01
-6.30524219e-07,1.91293750e-01
-6.30484219e-07,1.91309375e-01
-6.30444219e-07,1.91284375e-01
-6.30404219e-07,1.91326563e-01
-6.30364219e-07,1.91248438e-01
-6.30324219e-07,1.91504687e-01
-6.30284219e-07,1.91756250e-01
-6.30244219e-07,1.91667188e-01
-6.30204219e-07,1.91721875e-01
-6.30164219e-07,1.91682813e-01
-6.30124219e-07,1.91714063e-01
-6.30084219e-07,1.91689063e-01
-6.30044219e-07,1.91709375e-01
-6.30004219e-07,1.91692187e-01
-6.29964219e-07,1.91706250e-01
-6.29924219e-07,1.91695313e-01
-6.29884219e-07,1.91704687e-01
-6.29844219e-07,1.91696875e-01
-6.29804219e-07,1.91703125e-01
-6.29764219e-07,1.91698438e-01
-6.29724219e-07,1.91700000e-01
-6.29684219e-07,1.91701563e-01
-6.29644219e-07,1.91698438e-01
-6.29604219e-07,1.91703125e-01
-6.29564219e-07,1.91693750e-01
-6.29524219e-07,1.91707813e-01
-6.29484219e-07,1.91689063e-01
-6.29444219e-07,1.91717187e-01
-6.29404219e-07,1.91673438e-01
-6.29364219e-07,1.91753125e-01
-6.29324219e-07,1.91493750e-01
-6.29284219e-07,1.91245313e-01
-6.29244219e-07,1.91329688e-01
-6.29204219e-07,1.91279688e-01
-6.29164219e-07,1.91314062e-01
-6.29124219e-07,1.91290625e-01
-6.29084219e-07,1.91303125e-01
-6.29044219e-07,1.91303125e-01
-6.29004219e-07,1.91287500e-01
-6.28964219e-07,1.91339063e-01
-6.28924219e-07,1.91107813e-01
-6.28884219e-07,1.90829688e-01
-6.28844219e-07,1.90946875e-01
-6.28804219e-07,1.90862500e-01
-6.28764219e-07,1.90932812e-01
-6.28724219e-07,1.90868750e-01
-6.28684219e-07,1.90931250e-01
-6.28644219e-07,1.90867188e-01
-6.28604219e-07,1.90935938e-01
-6.28564219e-07,1.90856250e-01
-6.28524219e-07,1.90968750e-01
-6.28484219e-07,1.90679688e-01
-6.28444219e-07,1.90457813e-01
-6.28404219e-07,1.90518750e-01
-6.28364219e-07,1.90489063e-01
-6.28324219e-07,1.90506250e-01
-6.28284219e-07,1.90496875e-01
-6.28244219e-07,1.90501562e-01
-6.28204219e-07,1.90500000e-01
-6.28164219e-07,1.90500000e-01
-6.28124219e-07,1.90500000e-01
-6.28084219e-07,1.90498438e-01
-6.28044219e-07,1.90501562e-01
-6.28004219e-07,1.90498438e-01
-6.27964219e-07,1.90501562e-01
-6.27924219e-07,1.90498438e-01
-6.27884219e-07,1.90500000e-01
-6.27844219e-07,1.90500000e-01
-6.27804219e-07,1.90500000e-01
-6.27764219e-07,1.90501562e-01
-6.27724219e-07,1.90496875e-01
-6.27684219e-07,1.90506250e-01
-6.27644219e-07,1.90489063e-01
-6.27604219e-07,1.90520313e-01
-6.27564219e-07,1.90456250e-01
-6.27524219e-07,1.90696875e-01
-6.27484219e-07,1.90965625e-01
-6.27444219e-07,1.90856250e-01
-6.27404219e-07,1.90934375e-01
-6.27364219e-07,1.90868750e-01
-6.27324219e-07,1.90929688e-01
-6.27284219e-07,1.90870313e-01
-6.27244219e-07,1.90932812e-01
-6.27204219e-07,1.90864063e-01
-6.27164219e-07,1.90945313e-01
-6.27124219e-07,1.90829688e-01
-6.27084219e-07,1.91123437e-01
-6.27044219e-07,1.91339063e-01
-6.27004219e-07,1.91285938e-01
-6.26964219e-07,1.91304688e-01
-6.26924219e-07,1.91301563e-01
-6.26884219e-07,1.91292188e-01
-6.26844219e-07,1.91312500e-01
-6.26804219e-07,1.91281250e-01
-6.26764219e-07,1.91329688e-01
-6.26724219e-07,1.91245313e-01
-6.26684219e-07,1.91509375e-01
-6.26644219e-07,1.91753125e-01
-6.26604219e-07,1.91671875e-01
-6.26564219e-07,1.91718750e-01
-6.26524219e-07,1.91685938e-01
-6.26484219e-07,1.91709375e-01
-6.26444219e-07,1.91692187e-01
-6.26404219e-07,1.91706250e-01
-6.26364219e-07,1.91695313e-01
-6.26324219e-07,1.91703125e-01
-6.26284219e-07,1.91698438e-01
-6.26244219e-07,1.91701563e-01
-6.26204219e-07,1.91700000e-01
-6.26164219e-07,1.91698438e-01
-6.26124219e-07,1.91703125e-01
-6.26084219e-07,1.91695313e-01
-6.26044219e-07,1.91706250e-01
-6.26004219e-07,1.91692187e-01
-6.25964219e-07,1.91710938e-01
-6.25924219e-07,1.91682813e-01
-6.25884219e-07,1.91726563e-01
-6.25844219e-07,1.91648438e-01
-6.25804219e-07,1.91904688e-01
-6.25764219e-07,1.92157812e-01
-6.25724219e-07,1.92065625e-01
-6.25684219e-07,1.92125000e-01
-6.25644219e-07,1.92081250e-01
-6.25604219e-07,1.92115625e-01
-6.25564219e-07,1.92085937e-01
-6.25524219e-07,1.92112500e-01
-6.25484219e-07,1.92089063e-01
-6.25444219e-07,1.92110937e-01
-6.25404219e-07,1.92090625e-01
-6.25364219e-07,1.92109375e-01
-6.25324219e-07,1.92090625e-01
-6.25284219e-07,1.92109375e-01
-6.25244219e-07,1.92092188e-01
-6.25204219e-07,1.92107813e-01
-6.25164219e-07,1.92092188e-01
-6.25124219e-07,1.92107813e-01
-6.25084219e-07,1.92092188e-01
-6.25044219e-07,1.92107813e-01
-6.25004219e-07,1.92092188e-01
-6.24964219e-07,1.92107813e-01
-6.24924219e-07,1.92092188e-01
-6.24884219e-07,1.92107813e-01
-6.24844219e-07,1.92092188e-01
-6.24804219e-07,1.92107813e-01
-6.24764219e-07,1.92092188e-01
-6.24724219e-07,1.92107813e-01
-6.24684219e-07,1.92090625e-01
-6.24644219e-07,1.92109375e-01
-6.24604219e-07,1.92090625e-01
-6.24564219e-07,1.92109375e-01
-6.24524219e-07,1.92089063e-01
-6.24484219e-07,1.92110937e-01
-6.24444219e-07,1.92087500e-01
-6.24404219e-07,1.92114063e-01
-6.24364219e-07,1.92082813e-01
-6.24324219e-07,1.92120313e-01
-6.24284219e-07,1.92075000e-01
-6.24244219e-07,1.92134375e-01
-6.24204219e-07,1.92040625e-01
-6.24164219e-07,1.92312500e-01
-6.24124219e-07,1.92550000e-01
-6.24084219e-07,1.92475000e-01
-6.24044219e-07,1.92515625e-01
-6.24004219e-07,1.92489063e-01
-6.23964219e-07,1.92506250e-01
-6.23924219e-07,1.92495313e-01
-6.23884219e-07,1.92501563e-01
-6.23844219e-07,1.92500000e-01
-6.23804219e-07,1.92498438e-01
-6.23764219e-07,1.92503125e-01
-6.23724219e-07,1.92493750e-01
-6.23684219e-07,1.92509375e-01
-6.23644219e-07,1.92484375e-01
-6.23604219e-07,1.92525000e-01
-6.23564219e-07,1.92450000e-01
-6.23524219e-07,1.92703125e-01
-6.23484219e-07,1.92959375e-01
-6.23444219e-07,1.92864063e-01
-6.23404219e-07,1.92926563e-01
-6.23364219e-07,1.92878125e-01
-6.23324219e-07,1.92918750e-01
-6.23284219e-07,1.92882813e-01
-6.23244219e-07,1.92915625e-01
-6.23204219e-07,1.92885937e-01
-6.23164219e-07,1.92914063e-01
-6.23124219e-07,1.92885937e-01
-6.23084219e-07,1.92914063e-01
-6.23044219e-07,1.92885937e-01
-6.23004219e-07,1.92915625e-01
-6.22964219e-07,1.92882813e-01
-6.22924219e-07,1.92920312e-01
-6.22884219e-07,1.92875000e-01
-6.22844219e-07,1.92934375e-01
-6.22804219e-07,1.92840625e-01
-6.22764219e-07,1.93110937e-01
-6.22724219e-07,1.93351563e-01
-6.22684219e-07,1.93273438e-01
-6.22644219e-07,1.93318750e-01
-6.22604219e-07,1.93287500e-01
-6.22564219e-07,1.93310938e-01
-6.22524219e-07,1.93292188e-01
-6.22484219e-07,1.93307813e-01
-6.22444219e-07,1.93293750e-01
-6.22404219e-07,1.93306250e-01
-6.22364219e-07,1.93295313e-01
-6.22324219e-07,1.93304688e-01
-6.22284219e-07,1.93295313e-01
-6.22244219e-07,1.93304688e-01
-6.22204219e-07,1.93296875e-01
-6.22164219e-07,1.93303125e-01
-6.22124219e-07,1.93296875e-01
-6.22084219e-07,1.93303125e-01
-6.22044219e-07,1.93296875e-01
-6.22004219e-07,1.93303125e-01
-6.21964219e-07,1.93296875e-01
-6.21924219e-07,1.93303125e-01
-6.21884219e-07,1.93296875e-01
-6.21844219e-07,1.93303125e-01
-6.21804219e-07,1.93296875e-01
-6.21764219e-07,1.93303125e-01
-6.21724219e-07,1.93296875e-01
-6.21684219e-07,1.93303125e-01
-6.21644219e-07,1.93296875e-01
-6.21604219e-07,1.93303125e-01
-6.21564219e-07,1.93296875e-01
-6.21524219e-07,1.93304688e-01
-6.21484219e-07,1.93295313e-01
-6.21444219e-07,1.93304688e-01
-6.21404219e-07,1.93295313e-01
-6.21364219e-07,1.93304688e-01
-6.21324219e-07,1.93295313e-01
-6.21284219e-07,1.93304688e-01
-6.21244219e-07,1.93293750e-01
-6.21204219e-07,1.93306250e-01
-6.21164219e-07,1.93293750e-01
-6.21124219e-07,1.93306250e-01
-6.21084219e-07,1.93292188e-01
-6.21044219e-07,1.93307813e-01
-6.21004219e-07,1.93290625e-01
-6.20964219e-07,1.93310938e-01
-6.20924219e-07,1.93287500e-01
-6.20884219e-07,1.93314062e-01
-6.20844219e-07,1.93282813e-01
-6.20804219e-07,1.93321875e-01
-6.20764219e-07,1.93267187e-01
-6.20724219e-07,1.93357813e-01
-6.20684219e-07,1.93089063e-01
-6.20644219e-07,1.92848437e-01
-6.20604219e-07,1.92926563e-01
-6.20564219e-07,1.92882813e-01
-6.20524219e-07,1.92912500e-01
-6.20484219e-07,1.92890625e-01
-6.20444219e-07,1.92906250e-01
-6.20404219e-07,1.92895312e-01
-6.20364219e-07,1.92903125e-01
-6.20324219e-07,1.92898438e-01
-6.20284219e-07,1.92900000e-01
-6.20244219e-07,1.92901563e-01
-6.20204219e-07,1.92895312e-01
-6.20164219e-07,1.92906250e-01
-6.20124219e-07,1.92890625e-01
-6.20084219e-07,1.92915625e-01
-6.20044219e-07,1.92875000e-01
-6.20004219e-07,1.92950000e-01
-6.19964219e-07,1.92696875e-01
-6.19924219e-07,1.92442188e-01
-6.19884219e-07,1.92534375e-01
-6.19844219e-07,1.92475000e-01
-6.19804219e-07,1.92520313e-01
-6.19764219e-07,1.92482813e-01
-6.19724219e-07,1.92514062e-01
-6.19684219e-07,1.92487500e-01
-6.19644219e-07,1.92512500e-01
-6.19604219e-07,1.92489063e-01
-6.19564219e-07,1.92509375e-01
-6.19524219e-07,1.92490625e-01
-6.19484219e-07,1.92509375e-01
-6.19444219e-07,1.92492188e-01
-6.19404219e-07,1.92507813e-01
-6.19364219e-07,1.92492188e-01
-6.19324219e-07,1.92507813e-01
-6.19284219e-07,1.92493750e-01
-6.19244219e-07,1.92506250e-01
-6.19204219e-07,1.92493750e-01
-6.19164219e-07,1.92506250e-01
-6.19124219e-07,1.92493750e-01
-6.19084219e-07,1.92506250e-01
-6.19044219e-07,1.92493750e-01
-6.19004219e-07,1.92504687e-01
-6.18964219e-07,1.92495313e-01
-6.18924219e-07,1.92504687e-01
-6.18884219e-07,1.92495313e-01
-6.18844219e-07,1.92504687e-01
-6.18804219e-07,1.92495313e-01
-6.18764219e-07,1.92504687e-01
-6.18724219e-07,1.92496875e-01
-6.18684219e-07,1.92503125e-01
-6.18644219e-07,1.92496875e-01
-6.18604219e-07,1.92503125e-01
-6.18564219e-07,1.92496875e-01
-6.18524219e-07,1.92501563e-01
-6.18484219e-07,1.92498438e-01
-6.18444219e-07,1.92500000e-01
-6.18404219e-07,1.92500000e-01
-6.18364219e-07,1.92498438e-01
-6.18324219e-07,1.92503125e-01
-6.18284219e-07,1.92493750e-01
-6.18244219e-07,1.92510938e-01
-6.18204219e-07,1.92479687e-01
-6.18164219e-07,1.92545313e-01
-6.18124219e-07,1.92301563e-01
-6.18084219e-07,1.92035938e-01
-6.18044219e-07,1.92140625e-01
-6.18004219e-07,1.92067188e-01
-6.17964219e-07,1.92128125e-01
-6.17924219e-07,1.92075000e-01
-6.17884219e-07,1.92123437e-01
-6.17844219e-07,1.92076562e-01
-6.17804219e-07,1.92123437e-01
-6.17764219e-07,1.92075000e-01
-6.17724219e-07,1.92126563e-01
-6.17684219e-07,1.92071875e-01
-6.17644219e-07,1.92132812e-01
-6.17604219e-07,1.92056250e-01
-6.17564219e-07,1.92167188e-01
-6.17524219e-07,1.91879688e-01
-6.17484219e-07,1.91659375e-01
-6.17444219e-07,1.91717187e-01
-6.17404219e-07,1.91692187e-01
-6.17364219e-07,1.91703125e-01
-6.17324219e-07,1.91701563e-01
-6.17284219e-07,1.91696875e-01
-6.17244219e-07,1.91706250e-01
-6.17204219e-07,1.91692187e-01
-6.17164219e-07,1.91709375e-01
-6.17124219e-07,1.91687500e-01
-6.17084219e-07,1.91714063e-01
-6.17044219e-07,1.91681250e-01
-6.17004219e-07,1.91723438e-01
-6.16964219e-07,1.91665625e-01
-6.16924219e-07,1.91759375e-01
-6.16884219e-07,1.91487500e-01
-6.16844219e-07,1.91251562e-01
-6.16804219e-07,1.91325000e-01
-6.16764219e-07,1.91285938e-01
-6.16724219e-07,1.91309375e-01
-6.16684219e-07,1.91293750e-01
-6.16644219e-07,1.91303125e-01
-6.16604219e-07,1.91300000e-01
-6.16564219e-07,1.91298438e-01
-6.16524219e-07,1.91303125e-01
-6.16484219e-07,1.91295313e-01
-6.16444219e-07,1.91307813e-01
-6.16404219e-07,1.91289062e-01
-6.16364219e-07,1.91314062e-01
-6.16324219e-07,1.91279688e-01
-6.16284219e-07,1.91329688e-01
-6.16244219e-07,1.91243750e-01
-6.16204219e-07,1.91509375e-01
-6.16164219e-07,1.91751563e-01
-6.16124219e-07,1.91673438e-01
-6.16084219e-07,1.91717187e-01
-6.16044219e-07,1.91689063e-01
-6.16004219e-07,1.91706250e-01
-6.15964219e-07,1.91698438e-01
-6.15924219e-07,1.91696875e-01
-6.15884219e-07,1.91709375e-01
-6.15844219e-07,1.91681250e-01
-6.15804219e-07,1.91745313e-01
-6.15764219e-07,1.91501562e-01
-6.15724219e-07,1.91237500e-01
-6.15684219e-07,1.91339063e-01
-6.15644219e-07,1.91271875e-01
-6.15604219e-07,1.91323437e-01
-6.15564219e-07,1.91279688e-01
-6.15524219e-07,1.91318750e-01
-6.15484219e-07,1.91282813e-01
-6.15444219e-07,1.91315625e-01
-6.15404219e-07,1.91285938e-01
-6.15364219e-07,1.91314062e-01
-6.15324219e-07,1.91287500e-01
-6.15284219e-07,1.91312500e-01
-6.15244219e-07,1.91287500e-01
-6.15204219e-07,1.91310938e-01
-6.15164219e-07,1.91289062e-01
-6.15124219e-07,1.91310938e-01
-6.15084219e-07,1.91289062e-01
-6.15044219e-07,1.91310938e-01
-6.15004219e-07,1.91289062e-01
-6.14964219e-07,1.91310938e-01
-6.14924219e-07,1.91289062e-01
-6.14884219e-07,1.91310938e-01
-6.14844219e-07,1.91289062e-01
-6.14804219e-07,1.91310938e-01
-6.14764219e-07,1.91287500e-01
-6.14724219e-07,1.91312500e-01
-6.14684219e-07,1.91287500e-01
-6.14644219e-07,1.91314062e-01
-6.14604219e-07,1.91285938e-01
-6.14564219e-07,1.91315625e-01
-6.14524219e-07,1.91281250e-01
