dpa/aes_ch1_20250506140608982.csv

Model,MSO66B
Label,
Waveform Type,ANALOG
Horizontal Units,s
Sample Interval,4.00000000e-11
Record Length,100000
Zero Index,15999.03125000
Vertical Units,A
ANALOG_Thumbnail,
yOffset,1.84500000e-01
yPosition,8.40000000e-01

Labels,
TIME,CH1
-6.39961250e-07,1.87989062e-01
-6.39921250e-07,1.87974562e-01
-6.39881250e-07,1.87982719e-01
-6.39841250e-07,1.87979094e-01
-6.39801250e-07,1.87978188e-01
-6.39761250e-07,1.87984531e-01
-6.39721250e-07,1.87971844e-01
-6.39681250e-07,1.87994500e-01
-6.39641250e-07,1.87951000e-01
-6.39601250e-07,1.88098719e-01
-6.39561250e-07,1.88244625e-01
-6.39521250e-07,1.88193875e-01
-6.39481250e-07,1.88222875e-01
-6.39441250e-07,1.88205656e-01
-6.39401250e-07,1.88213813e-01
-6.39361250e-07,1.88216531e-01
-6.39321250e-07,1.88192063e-01
-6.39281250e-07,1.88320750e-01
-6.39241250e-07,1.88487500e-01
-6.39201250e-07,1.88413188e-01
-6.39161250e-07,1.88470281e-01
-6.39121250e-07,1.88418625e-01
-6.39081250e-07,1.88473000e-01
-6.39041250e-07,1.88402313e-01
-6.39001250e-07,1.88572688e-01
-6.38961250e-07,1.88700469e-01
-6.38921250e-07,1.88663313e-01
-6.38881250e-07,1.88685063e-01
-6.38841250e-07,1.88666031e-01
-6.38801250e-07,1.88689594e-01
-6.38761250e-07,1.88648813e-01
-6.38721250e-07,1.88791094e-01
-6.38681250e-07,1.88946063e-01
-6.38641250e-07,1.88882625e-01
-6.38601250e-07,1.88928844e-01
-6.38561250e-07,1.88888063e-01
-6.38521250e-07,1.88927938e-01
-6.38481250e-07,1.88886250e-01
-6.38441250e-07,1.88934281e-01
-6.38401250e-07,1.88867219e-01
-6.38361250e-07,1.89036688e-01
-6.38321250e-07,1.89163563e-01
-6.38281250e-07,1.89130031e-01
-6.38241250e-07,1.89144531e-01
-6.38201250e-07,1.89138187e-01
-6.38161250e-07,1.89140000e-01
-6.38121250e-07,1.89140906e-01
-6.38081250e-07,1.89138187e-01
-6.38041250e-07,1.89142719e-01
-6.38001250e-07,1.89137281e-01
-6.37961250e-07,1.89143625e-01
-6.37921250e-07,1.89135469e-01
-6.37881250e-07,1.89144531e-01
-6.37841250e-07,1.89134563e-01
-6.37801250e-07,1.89145438e-01
-6.37761250e-07,1.89133656e-01
-6.37721250e-07,1.89147250e-01
-6.37681250e-07,1.89131844e-01
-6.37641250e-07,1.89149969e-01
-6.37601250e-07,1.89128219e-01
-6.37561250e-07,1.89155406e-01
-6.37521250e-07,1.89119156e-01
-6.37481250e-07,1.89175344e-01
-6.37441250e-07,1.89014938e-01
-6.37401250e-07,1.88880812e-01
-6.37361250e-07,1.88920688e-01
-6.37321250e-07,1.88901656e-01
-6.37281250e-07,1.88910719e-01
-6.37241250e-07,1.88908906e-01
-6.37201250e-07,1.88904375e-01
-6.37161250e-07,1.88915250e-01
-6.37121250e-07,1.88894406e-01
-6.37081250e-07,1.88937000e-01
-6.37041250e-07,1.88789281e-01
-6.37001250e-07,1.88643375e-01
-6.36961250e-07,1.88695031e-01
-6.36921250e-07,1.88663313e-01
-6.36881250e-07,1.88685063e-01
-6.36841250e-07,1.88669656e-01
-6.36801250e-07,1.88680531e-01
-6.36761250e-07,1.88674188e-01
-6.36721250e-07,1.88675094e-01
-6.36681250e-07,1.88680531e-01
-6.36641250e-07,1.88666031e-01
-6.36601250e-07,1.88701375e-01
-6.36561250e-07,1.88561813e-01
-6.36521250e-07,1.88406844e-01
-6.36481250e-07,1.88466656e-01
-6.36441250e-07,1.88427687e-01
-6.36401250e-07,1.88456687e-01
-6.36361250e-07,1.88434938e-01
-6.36321250e-07,1.88449438e-01
-6.36281250e-07,1.88444906e-01
-6.36241250e-07,1.88428594e-01
-6.36201250e-07,1.88548219e-01
-6.36161250e-07,1.88724031e-01
-6.36121250e-07,1.88640656e-01
-6.36081250e-07,1.88706813e-01
-6.36041250e-07,1.88647000e-01
-6.36001250e-07,1.88705000e-01
-6.35961250e-07,1.88644281e-01
-6.35921250e-07,1.88713156e-01
-6.35881250e-07,1.88624344e-01
-6.35841250e-07,1.88816469e-01
-6.35801250e-07,1.88918875e-01
-6.35761250e-07,1.88913438e-01
-6.35721250e-07,1.88894406e-01
-6.35681250e-07,1.88930656e-01
-6.35641250e-07,1.88869031e-01
-6.35601250e-07,1.89037594e-01
-6.35561250e-07,1.89159938e-01
-6.35521250e-07,1.89136375e-01
-6.35481250e-07,1.89134563e-01
-6.35441250e-07,1.89154500e-01
-6.35401250e-07,1.89109187e-01
-6.35361250e-07,1.89261438e-01
-6.35321250e-07,1.89401000e-01
-6.35281250e-07,1.89359313e-01
-6.35241250e-07,1.89377438e-01
-6.35201250e-07,1.89371094e-01
-6.35161250e-07,1.89367469e-01
-6.35121250e-07,1.89383781e-01
-6.35081250e-07,1.89344813e-01
-6.35041250e-07,1.89489813e-01
-6.35001250e-07,1.89637531e-01
-6.34961250e-07,1.89584969e-01
-6.34921250e-07,1.89616688e-01
-6.34881250e-07,1.89595844e-01
-6.34841250e-07,1.89608531e-01
-6.34801250e-07,1.89603094e-01
-6.34761250e-07,1.89598563e-01
-6.34721250e-07,1.89623938e-01
-6.34681250e-07,1.89495250e-01
-6.34641250e-07,1.89327594e-01
-6.34601250e-07,1.89403719e-01
-6.34561250e-07,1.89343906e-01
-6.34521250e-07,1.89401000e-01
-6.34481250e-07,1.89338469e-01
-6.34441250e-07,1.89419125e-01
-6.34401250e-07,1.89235156e-01
-6.34361250e-07,1.89127313e-01
-6.34321250e-07,1.89133656e-01
-6.34281250e-07,1.89167188e-01
-6.34241250e-07,1.89020375e-01
-6.34201250e-07,1.88879000e-01
-6.34161250e-07,1.88917969e-01
-6.34121250e-07,1.88917063e-01
-6.34081250e-07,1.88809219e-01
-6.34041250e-07,1.88619813e-01
-6.34001250e-07,1.88729469e-01
-6.33961250e-07,1.88542781e-01
-6.33921250e-07,1.88415906e-01
-6.33881250e-07,1.88474813e-01
-6.33841250e-07,1.88327094e-01
-6.33801250e-07,1.88175750e-01
-6.33761250e-07,1.88231031e-01
-6.33721250e-07,1.88209281e-01
-6.33681250e-07,1.88127719e-01
-6.33641250e-07,1.87906594e-01
-6.33601250e-07,1.88055219e-01
-6.33561250e-07,1.87819594e-01
-6.33521250e-07,1.87757063e-01
-6.33481250e-07,1.87720813e-01
-6.33441250e-07,1.87795125e-01
-6.33401250e-07,1.87607531e-01
-6.33361250e-07,1.87509656e-01
-6.33321250e-07,1.87501500e-01
-6.33281250e-07,1.87552250e-01
-6.33241250e-07,1.87385500e-01
-6.33201250e-07,1.87267688e-01
-6.33161250e-07,1.87278563e-01
-6.33121250e-07,1.87311188e-01
-6.33081250e-07,1.87163469e-01
-6.33041250e-07,1.87024812e-01
-6.33001250e-07,1.87061969e-01
-6.32961250e-07,1.87052000e-01
-6.32921250e-07,1.87041125e-01
-6.32881250e-07,1.87080094e-01
-6.32841250e-07,1.86932375e-01
-6.32801250e-07,1.86791000e-01
-6.32761250e-07,1.86831781e-01
-6.32721250e-07,1.86817281e-01
-6.32681250e-07,1.86812750e-01
-6.32641250e-07,1.86844469e-01
-6.32601250e-07,1.86704000e-01
-6.32561250e-07,1.86553563e-01
-6.32521250e-07,1.86606125e-01
-6.32481250e-07,1.86577125e-01
-6.32441250e-07,1.86592531e-01
-6.32401250e-07,1.86588906e-01
-6.32361250e-07,1.86579844e-01
-6.32321250e-07,1.86612469e-01
-6.32281250e-07,1.86472906e-01
-6.32241250e-07,1.86320656e-01
-6.32201250e-07,1.86375938e-01
-6.32161250e-07,1.86343312e-01
-6.32121250e-07,1.86363250e-01
-6.32081250e-07,1.86354188e-01
-6.32041250e-07,1.86349656e-01
-6.32001250e-07,1.86377750e-01
-6.31961250e-07,1.86243625e-01
-6.31921250e-07,1.86085031e-01
-6.31881250e-07,1.86147563e-01
-6.31841250e-07,1.86106781e-01
-6.31801250e-07,1.86136688e-01
-6.31761250e-07,1.86114031e-01
-6.31721250e-07,1.86130344e-01
-6.31681250e-07,1.86122188e-01
-6.31641250e-07,1.86119469e-01
-6.31601250e-07,1.86143938e-01
-6.31561250e-07,1.86014344e-01
-6.31521250e-07,1.85849406e-01
-6.31481250e-07,1.85920094e-01
-6.31441250e-07,1.85870250e-01
-6.31401250e-07,1.85911031e-01
-6.31361250e-07,1.85875687e-01
-6.31321250e-07,1.85907406e-01
-6.31281250e-07,1.85878406e-01
-6.31241250e-07,1.85904687e-01
-6.31201250e-07,1.85880219e-01
-6.31161250e-07,1.85903781e-01
-6.31121250e-07,1.85881125e-01
-6.31081250e-07,1.85902875e-01
-6.31041250e-07,1.85882031e-01
-6.31001250e-07,1.85901969e-01
-6.30961250e-07,1.85882938e-01
-6.30921250e-07,1.85901063e-01
-6.30881250e-07,1.85883844e-01
-6.30841250e-07,1.85900156e-01
-6.30801250e-07,1.85883844e-01
-6.30761250e-07,1.85899250e-01
-6.30721250e-07,1.85884750e-01
-6.30681250e-07,1.85899250e-01
-6.30641250e-07,1.85885656e-01
-6.30601250e-07,1.85898344e-01
-6.30561250e-07,1.85886563e-01
-6.30521250e-07,1.85897438e-01
-6.30481250e-07,1.85887469e-01
-6.30441250e-07,1.85896531e-01
-6.30401250e-07,1.85888375e-01
-6.30361250e-07,1.85893813e-01
-6.30321250e-07,1.85892000e-01
-6.30281250e-07,1.85889281e-01
-6.30241250e-07,1.85900156e-01
-6.30201250e-07,1.85869344e-01
-6.30161250e-07,1.86002562e-01
-6.30121250e-07,1.86165688e-01
-6.30081250e-07,1.86095906e-01
-6.30041250e-07,1.86146656e-01
-6.30001250e-07,1.86104063e-01
-6.29961250e-07,1.86143031e-01
-6.29921250e-07,1.86105875e-01
-6.29881250e-07,1.86142125e-01
-6.29841250e-07,1.86104969e-01
-6.29801250e-07,1.86143938e-01
-6.29761250e-07,1.86101344e-01
-6.29721250e-07,1.86152094e-01
-6.29681250e-07,1.86081406e-01
-6.29641250e-07,1.86255406e-01
-6.29601250e-07,1.86376844e-01
-6.29561250e-07,1.86348750e-01
-6.29521250e-07,1.86357812e-01
-6.29481250e-07,1.86357812e-01
-6.29441250e-07,1.86352375e-01
-6.29401250e-07,1.86361438e-01
-6.29361250e-07,1.86348750e-01
-6.29321250e-07,1.86365969e-01
-6.29281250e-07,1.86343312e-01
-6.29241250e-07,1.86375031e-01
-6.29201250e-07,1.86322469e-01
-6.29161250e-07,1.86478344e-01
-6.29121250e-07,1.86617906e-01
-6.29081250e-07,1.86571687e-01
-6.29041250e-07,1.86599781e-01
-6.29001250e-07,1.86578938e-01
-6.28961250e-07,1.86596156e-01
-6.28921250e-07,1.86579844e-01
-6.28881250e-07,1.86597063e-01
-6.28841250e-07,1.86577125e-01
-6.28801250e-07,1.86604313e-01
-6.28761250e-07,1.86558094e-01
-6.28721250e-07,1.86705813e-01
-6.28681250e-07,1.86854437e-01
-6.28641250e-07,1.86799156e-01
-6.28601250e-07,1.86836313e-01
-6.28561250e-07,1.86806406e-01
-6.28521250e-07,1.86832688e-01
-6.28481250e-07,1.86807313e-01
-6.28441250e-07,1.86832688e-01
-6.28401250e-07,1.86807313e-01
-6.28361250e-07,1.86834500e-01
-6.28321250e-07,1.86802781e-01
-6.28281250e-07,1.86842656e-01
-6.28241250e-07,1.86783750e-01
-6.28201250e-07,1.86945063e-01
-6.28161250e-07,1.87079188e-01
-6.28121250e-07,1.87038406e-01
-6.28081250e-07,1.87061063e-01
-6.28041250e-07,1.87045656e-01
-6.28001250e-07,1.87056531e-01
-6.27961250e-07,1.87048375e-01
-6.27921250e-07,1.87055625e-01
-6.27881250e-07,1.87048375e-01
-6.27841250e-07,1.87055625e-01
-6.27801250e-07,1.87047469e-01
-6.27761250e-07,1.87058344e-01
-6.27721250e-07,1.87042938e-01
-6.27681250e-07,1.87065594e-01
-6.27641250e-07,1.87023906e-01
-6.27601250e-07,1.87168906e-01
-6.27561250e-07,1.87319344e-01
-6.27521250e-07,1.87262250e-01
-6.27481250e-07,1.87301219e-01
-6.27441250e-07,1.87269500e-01
-6.27401250e-07,1.87296688e-01
-6.27361250e-07,1.87272219e-01
-6.27321250e-07,1.87295781e-01
-6.27281250e-07,1.87273125e-01
-6.27241250e-07,1.87294875e-01
-6.27201250e-07,1.87273125e-01
-6.27161250e-07,1.87294875e-01
-6.27121250e-07,1.87273125e-01
-6.27081250e-07,1.87295781e-01
-6.27041250e-07,1.87272219e-01
-6.27001250e-07,1.87296688e-01
-6.26961250e-07,1.87270406e-01
-6.26921250e-07,1.87299406e-01
-6.26881250e-07,1.87266781e-01
-6.26841250e-07,1.87303938e-01
-6.26801250e-07,1.87257719e-01
-6.26761250e-07,1.87324781e-01
-6.26721250e-07,1.87154406e-01
-6.26681250e-07,1.87030250e-01
-6.26641250e-07,1.87059250e-01
-6.26601250e-07,1.87051094e-01
-6.26561250e-07,1.87048375e-01
-6.26521250e-07,1.87060156e-01
-6.26481250e-07,1.87036594e-01
-6.26441250e-07,1.87081906e-01
-6.26401250e-07,1.86933281e-01
-6.26361250e-07,1.86785563e-01
-6.26321250e-07,1.86842656e-01
-6.26281250e-07,1.86799156e-01
-6.26241250e-07,1.86851719e-01
-6.26201250e-07,1.86703094e-01
-6.26161250e-07,1.86549031e-01
-6.26121250e-07,1.86617906e-01
-6.26081250e-07,1.86556281e-01
-6.26041250e-07,1.86632406e-01
-6.26001250e-07,1.86453875e-01
-6.25961250e-07,1.86339688e-01
-6.25921250e-07,1.86354188e-01
-6.25881250e-07,1.86376844e-01
-6.25841250e-07,1.86244531e-01
-6.25801250e-07,1.86084125e-01
-6.25761250e-07,1.86152094e-01
-6.25721250e-07,1.86097719e-01
-6.25681250e-07,1.86161156e-01
-6.25641250e-07,1.86001656e-01
-6.25601250e-07,1.85860281e-01
-6.25561250e-07,1.85912844e-01
-6.25521250e-07,1.85873875e-01
-6.25481250e-07,1.85911031e-01
-6.25441250e-07,1.85868438e-01
-6.25401250e-07,1.85930063e-01
-6.25361250e-07,1.85765125e-01
-6.25321250e-07,1.85634625e-01
-6.25281250e-07,1.85671781e-01
-6.25241250e-07,1.85654563e-01
-6.25201250e-07,1.85661813e-01
-6.25161250e-07,1.85660000e-01
-6.25121250e-07,1.85658188e-01
-6.25081250e-07,1.85664531e-01
-6.25041250e-07,1.85653656e-01
-6.25001250e-07,1.85669063e-01
-6.24961250e-07,1.85647313e-01
-6.24921250e-07,1.85679031e-01
-6.24881250e-07,1.85625563e-01
-6.24841250e-07,1.85784156e-01
-6.24801250e-07,1.85919187e-01
-6.24761250e-07,1.85880219e-01
-6.24721250e-07,1.85896531e-01
-6.24681250e-07,1.85892906e-01
-6.24641250e-07,1.85886563e-01
-6.24601250e-07,1.85905594e-01
-6.24561250e-07,1.85862094e-01
-6.24521250e-07,1.86011625e-01
-6.24481250e-07,1.86153906e-01
-6.24441250e-07,1.86110406e-01
-6.24401250e-07,1.86128531e-01
-6.24361250e-07,1.86127625e-01
-6.24321250e-07,1.86103156e-01
-6.24281250e-07,1.86235469e-01
-6.24241250e-07,1.86394969e-01
-6.24201250e-07,1.86332438e-01
-6.24161250e-07,1.86372312e-01
-6.24121250e-07,1.86344219e-01
-6.24081250e-07,1.86362344e-01
-6.24041250e-07,1.86356906e-01
-6.24001250e-07,1.86339688e-01
-6.23961250e-07,1.86461125e-01
-6.23921250e-07,1.86634219e-01
-6.23881250e-07,1.86556281e-01
-6.23841250e-07,1.86614281e-01
-6.23801250e-07,1.86564438e-01
-6.23761250e-07,1.86609750e-01
-6.23721250e-07,1.86567156e-01
-6.23681250e-07,1.86608844e-01
-6.23641250e-07,1.86567156e-01
-6.23601250e-07,1.86608844e-01
-6.23561250e-07,1.86565344e-01
-6.23521250e-07,1.86613375e-01
-6.23481250e-07,1.86557187e-01
-6.23441250e-07,1.86633313e-01
-6.23401250e-07,1.86453875e-01
-6.23361250e-07,1.86337875e-01
-6.23321250e-07,1.86359625e-01
-6.23281250e-07,1.86358719e-01
-6.23241250e-07,1.86349656e-01
-6.23201250e-07,1.86365063e-01
-6.23161250e-07,1.86344219e-01
-6.23121250e-07,1.86371406e-01
-6.23081250e-07,1.86334250e-01
-6.23041250e-07,1.86393156e-01
-6.23001250e-07,1.86229125e-01
-6.22961250e-07,1.86099531e-01
-6.22921250e-07,1.86133969e-01
-6.22881250e-07,1.86121281e-01
-6.22841250e-07,1.86122188e-01
-6.22801250e-07,1.86130344e-01
-6.22761250e-07,1.86110406e-01
-6.22721250e-07,1.86153000e-01
-6.22681250e-07,1.86006188e-01
-6.22641250e-07,1.85858469e-01
-6.22601250e-07,1.85911031e-01
-6.22561250e-07,1.85878406e-01
-6.22521250e-07,1.85901969e-01
-6.22481250e-07,1.85883844e-01
-6.22441250e-07,1.85899250e-01
-6.22401250e-07,1.85885656e-01
-6.22361250e-07,1.85897438e-01
-6.22321250e-07,1.85887469e-01
-6.22281250e-07,1.85895625e-01
-6.22241250e-07,1.85888375e-01
-6.22201250e-07,1.85895625e-01
-6.22161250e-07,1.85889281e-01
-6.22121250e-07,1.85894719e-01
-6.22081250e-07,1.85889281e-01
-6.22041250e-07,1.85894719e-01
-6.22001250e-07,1.85889281e-01
-6.21961250e-07,1.85893813e-01
-6.21921250e-07,1.85890187e-01
-6.21881250e-07,1.85893813e-01
-6.21841250e-07,1.85890187e-01
-6.21801250e-07,1.85893813e-01
-6.21761250e-07,1.85890187e-01
-6.21721250e-07,1.85893813e-01
-6.21681250e-07,1.85890187e-01
-6.21641250e-07,1.85893813e-01
-6.21601250e-07,1.85889281e-01
-6.21561250e-07,1.85894719e-01
-6.21521250e-07,1.85889281e-01
-6.21481250e-07,1.85894719e-01
-6.21441250e-07,1.85888375e-01
-6.21401250e-07,1.85895625e-01
-6.21361250e-07,1.85887469e-01
-6.21321250e-07,1.85897438e-01
-6.21281250e-07,1.85885656e-01
-6.21241250e-07,1.85900156e-01
-6.21201250e-07,1.85881125e-01
-6.21161250e-07,1.85908313e-01
-6.21121250e-07,1.85861187e-01
-6.21081250e-07,1.86011625e-01
-6.21041250e-07,1.86156625e-01
-6.21001250e-07,1.86104969e-01
-6.20961250e-07,1.86137594e-01
-6.20921250e-07,1.86113125e-01
-6.20881250e-07,1.86133063e-01
-6.20841250e-07,1.86115844e-01
-6.20801250e-07,1.86131250e-01
-6.20761250e-07,1.86117656e-01
-6.20721250e-07,1.86130344e-01
-6.20681250e-07,1.86117656e-01
-6.20641250e-07,1.86129438e-01
-6.20601250e-07,1.86118563e-01
-6.20561250e-07,1.86129438e-01
-6.20521250e-07,1.86118563e-01
-6.20481250e-07,1.86129438e-01
-6.20441250e-07,1.86118563e-01
-6.20401250e-07,1.86129438e-01
-6.20361250e-07,1.86118563e-01
-6.20321250e-07,1.86129438e-01
-6.20281250e-07,1.86117656e-01
-6.20241250e-07,1.86130344e-01
-6.20201250e-07,1.86117656e-01
-6.20161250e-07,1.86130344e-01
-6.20121250e-07,1.86116750e-01
-6.20081250e-07,1.86131250e-01
-6.20041250e-07,1.86115844e-01
-6.20001250e-07,1.86133063e-01
-6.19961250e-07,1.86113125e-01
-6.19921250e-07,1.86136688e-01
-6.19881250e-07,1.86108594e-01
-6.19841250e-07,1.86144844e-01
-6.19801250e-07,1.86088656e-01
-6.19761250e-07,1.86248156e-01
-6.19721250e-07,1.86383188e-01
-6.19681250e-07,1.86342406e-01
-6.19641250e-07,1.86363250e-01
-6.19601250e-07,1.86351469e-01
-6.19561250e-07,1.86357812e-01
-6.19521250e-07,1.86356000e-01
-6.19481250e-07,1.86355094e-01
-6.19441250e-07,1.86358719e-01
-6.19401250e-07,1.86350563e-01
-6.19361250e-07,1.86364156e-01
-6.19321250e-07,1.86341500e-01
-6.19281250e-07,1.86385000e-01
-6.19241250e-07,1.86238188e-01
-6.19201250e-07,1.86089562e-01
-6.19161250e-07,1.86143938e-01
-6.19121250e-07,1.86109500e-01
-6.19081250e-07,1.86135781e-01
-6.19041250e-07,1.86113125e-01
-6.19001250e-07,1.86133063e-01
-6.18961250e-07,1.86114938e-01
-6.18921250e-07,1.86133063e-01
-6.18881250e-07,1.86114938e-01
-6.18841250e-07,1.86133969e-01
-6.18801250e-07,1.86113125e-01
-6.18761250e-07,1.86137594e-01
-6.18721250e-07,1.86105875e-01
-6.18681250e-07,1.86156625e-01
-6.18641250e-07,1.86003469e-01
-6.18601250e-07,1.85860281e-01
-6.18561250e-07,1.85911031e-01
-6.18521250e-07,1.85878406e-01
-6.18481250e-07,1.85903781e-01
-6.18441250e-07,1.85881125e-01
-6.18401250e-07,1.85902875e-01
-6.18361250e-07,1.85880219e-01
-6.18321250e-07,1.85906500e-01
-6.18281250e-07,1.85872063e-01
-6.18241250e-07,1.85925531e-01
-6.18201250e-07,1.85769656e-01
-6.18161250e-07,1.85630094e-01
-6.18121250e-07,1.85676312e-01
-6.18081250e-07,1.85649125e-01
-6.18041250e-07,1.85668156e-01
-6.18001250e-07,1.85653656e-01
-6.17961250e-07,1.85665438e-01
-6.17921250e-07,1.85655469e-01
-6.17881250e-07,1.85664531e-01
-6.17841250e-07,1.85656375e-01
-6.17801250e-07,1.85663625e-01
-6.17761250e-07,1.85656375e-01
-6.17721250e-07,1.85663625e-01
-6.17681250e-07,1.85656375e-01
-6.17641250e-07,1.85662719e-01
-6.17601250e-07,1.85657281e-01
-6.17561250e-07,1.85662719e-01
-6.17521250e-07,1.85657281e-01
-6.17481250e-07,1.85663625e-01
-6.17441250e-07,1.85656375e-01
-6.17401250e-07,1.85663625e-01
-6.17361250e-07,1.85656375e-01
-6.17321250e-07,1.85664531e-01
-6.17281250e-07,1.85655469e-01
-6.17241250e-07,1.85665438e-01
-6.17201250e-07,1.85653656e-01
-6.17161250e-07,1.85668156e-01
-6.17121250e-07,1.85649125e-01
-6.17081250e-07,1.85676312e-01
-6.17041250e-07,1.85629188e-01
-6.17001250e-07,1.85778719e-01
-6.16961250e-07,1.85925531e-01
-6.16921250e-07,1.85872063e-01
-6.16881250e-07,1.85906500e-01
-6.16841250e-07,1.85879313e-01
-6.16801250e-07,1.85903781e-01
-6.16761250e-07,1.85880219e-01
-6.16721250e-07,1.85903781e-01
-6.16681250e-07,1.85877500e-01
-6.16641250e-07,1.85911031e-01
-6.16601250e-07,1.85859375e-01
-6.16561250e-07,1.86012531e-01
-6.16521250e-07,1.86155719e-01
-6.16481250e-07,1.86104969e-01
-6.16441250e-07,1.86138500e-01
-6.16401250e-07,1.86111313e-01
-6.16361250e-07,1.86136688e-01
-6.16321250e-07,1.86109500e-01
-6.16281250e-07,1.86143938e-01
-6.16241250e-07,1.86090469e-01
-6.16201250e-07,1.86245437e-01
-6.16161250e-07,1.86386812e-01
-6.16121250e-07,1.86338781e-01
-6.16081250e-07,1.86367781e-01
-6.16041250e-07,1.86346938e-01
-6.16001250e-07,1.86364156e-01
-6.15961250e-07,1.86349656e-01
-6.15921250e-07,1.86362344e-01
-6.15881250e-07,1.86350563e-01
-6.15841250e-07,1.86361438e-01
-6.15801250e-07,1.86351469e-01
-6.15761250e-07,1.86360531e-01
-6.15721250e-07,1.86351469e-01
-6.15681250e-07,1.86360531e-01
-6.15641250e-07,1.86351469e-01
-6.15601250e-07,1.86360531e-01
-6.15561250e-07,1.86351469e-01
-6.15521250e-07,1.86360531e-01
-6.15481250e-07,1.86351469e-01
-6.15441250e-07,1.86360531e-01
-6.15401250e-07,1.86351469e-01
-6.15361250e-07,1.86360531e-01
-6.15321250e-07,1.86351469e-01
-6.15281250e-07,1.86360531e-01
-6.15241250e-07,1.86351469e-01
-6.15201250e-07,1.86361438e-01
-6.15161250e-07,1.86350563e-01
-6.15121250e-07,1.86361438e-01
-6.15081250e-07,1.86350563e-01
-6.15041250e-07,1.86362344e-01
-6.15001250e-07,1.86349656e-01
-6.14961250e-07,1.86363250e-01
-6.14921250e-07,1.86348750e-01
-6.14881250e-07,1.86364156e-01
-6.14841250e-07,1.86346031e-01
-6.14801250e-07,1.86367781e-01
-6.14761250e-07,1.86341500e-01
-6.14721250e-07,1.86375938e-01
-6.14681250e-07,1.86321563e-01
-6.14641250e-07,1.86479250e-01
-6.14601250e-07,1.86617000e-01
-6.14561250e-07,1.86572594e-01
-6.14521250e-07,1.86597969e-01
