dpa/aes_ch1_20250506140530509.csv

Model,MSO66B
Label,
Waveform Type,ANALOG
Horizontal Units,s
Sample Interval,4.00000000e-11
Record Length,25000
Zero Index,6249.03125000
Vertical Units,A
ANALOG_Thumbnail,
yOffset,1.84500000e-01
yPosition,0.00000000e+00

Labels,
TIME,CH1
-2.49961250e-07,1.91658469e-01
-2.49921250e-07,1.91812531e-01
-2.49881250e-07,1.91957531e-01
-2.49841250e-07,1.91901344e-01
-2.49801250e-07,1.91946656e-01
-2.49761250e-07,1.91890469e-01
-2.49721250e-07,1.92044531e-01
-2.49681250e-07,1.92190438e-01
-2.49641250e-07,1.92133344e-01
-2.49601250e-07,1.92175938e-01
-2.49561250e-07,1.92135156e-01
-2.49521250e-07,1.92181375e-01
-2.49481250e-07,1.92117031e-01
-2.49441250e-07,1.92283781e-01
-2.49401250e-07,1.92412469e-01
-2.49361250e-07,1.92378031e-01
-2.49321250e-07,1.92392531e-01
-2.49281250e-07,1.92387094e-01
-2.49241250e-07,1.92385281e-01
-2.49201250e-07,1.92393437e-01
-2.49161250e-07,1.92378937e-01
-2.49121250e-07,1.92403406e-01
-2.49081250e-07,1.92357187e-01
-2.49041250e-07,1.92508531e-01
-2.49001250e-07,1.92651719e-01
-2.48961250e-07,1.92602781e-01
-2.48921250e-07,1.92630875e-01
-2.48881250e-07,1.92612750e-01
-2.48841250e-07,1.92625437e-01
-2.48801250e-07,1.92616375e-01
-2.48761250e-07,1.92621812e-01
-2.48721250e-07,1.92620000e-01
-2.48681250e-07,1.92619094e-01
-2.48641250e-07,1.92622719e-01
-2.48601250e-07,1.92614563e-01
-2.48561250e-07,1.92629063e-01
-2.48521250e-07,1.92604594e-01
-2.48481250e-07,1.92649906e-01
-2.48441250e-07,1.92500375e-01
-2.48401250e-07,1.92356281e-01
-2.48361250e-07,1.92405219e-01
-2.48321250e-07,1.92377125e-01
-2.48281250e-07,1.92394344e-01
-2.48241250e-07,1.92384375e-01
-2.48201250e-07,1.92388000e-01
-2.48161250e-07,1.92391625e-01
-2.48121250e-07,1.92377125e-01
-2.48081250e-07,1.92414281e-01
-2.48041250e-07,1.92272000e-01
-2.48001250e-07,1.92121563e-01
-2.47961250e-07,1.92175031e-01
-2.47921250e-07,1.92145125e-01
-2.47881250e-07,1.92158719e-01
-2.47841250e-07,1.92168687e-01
-2.47801250e-07,1.92054500e-01
-2.47761250e-07,1.91873250e-01
-2.47721250e-07,1.91962969e-01
-2.47681250e-07,1.91885937e-01
-2.47641250e-07,1.91972937e-01
-2.47601250e-07,1.91788969e-01
-2.47561250e-07,1.91672062e-01
-2.47521250e-07,1.91701969e-01
-2.47481250e-07,1.91682031e-01
-2.47441250e-07,1.91713750e-01
-2.47401250e-07,1.91584156e-01
-2.47361250e-07,1.91412875e-01
-2.47321250e-07,1.91497156e-01
-2.47281250e-07,1.91421031e-01
-2.47241250e-07,1.91511656e-01
-2.47201250e-07,1.91319531e-01
-2.47161250e-07,1.91218031e-01
-2.47121250e-07,1.91219844e-01
-2.47081250e-07,1.91254281e-01
-2.47041250e-07,1.91111094e-01
-2.47001250e-07,1.90960656e-01
-2.46961250e-07,1.91018656e-01
-2.46921250e-07,1.90974250e-01
-2.46881250e-07,1.91027719e-01
-2.46841250e-07,1.90879094e-01
-2.46801250e-07,1.90725937e-01
-2.46761250e-07,1.90793000e-01
-2.46721250e-07,1.90734094e-01
-2.46681250e-07,1.90806594e-01
-2.46641250e-07,1.90632594e-01
-2.46601250e-07,1.90511156e-01
-2.46561250e-07,1.90538344e-01
-2.46521250e-07,1.90533813e-01
-2.46481250e-07,1.90522031e-01
-2.46441250e-07,1.90557375e-01
-2.46401250e-07,1.90417813e-01
-2.46361250e-07,1.90261938e-01
-2.46321250e-07,1.90324469e-01
-2.46281250e-07,1.90280062e-01
-2.46241250e-07,1.90319938e-01
-2.46201250e-07,1.90277344e-01
-2.46161250e-07,1.90335344e-01
-2.46121250e-07,1.90176750e-01
-2.46081250e-07,1.90038094e-01
-2.46041250e-07,1.90085219e-01
-2.46001250e-07,1.90054406e-01
-2.45961250e-07,1.90080687e-01
-2.45921250e-07,1.90055312e-01
-2.45881250e-07,1.90082500e-01
-2.45841250e-07,1.90048063e-01
-2.45801250e-07,1.90101531e-01
-2.45761250e-07,1.89945656e-01
-2.45721250e-07,1.89806094e-01
-2.45681250e-07,1.89852313e-01
-2.45641250e-07,1.89825125e-01
-2.45601250e-07,1.89844156e-01
-2.45561250e-07,1.89828750e-01
-2.45521250e-07,1.89841437e-01
-2.45481250e-07,1.89831469e-01
-2.45441250e-07,1.89840531e-01
-2.45401250e-07,1.89832375e-01
-2.45361250e-07,1.89839625e-01
-2.45321250e-07,1.89832375e-01
-2.45281250e-07,1.89838719e-01
-2.45241250e-07,1.89833281e-01
-2.45201250e-07,1.89838719e-01
-2.45161250e-07,1.89833281e-01
-2.45121250e-07,1.89838719e-01
-2.45081250e-07,1.89833281e-01
-2.45041250e-07,1.89837813e-01
-2.45001250e-07,1.89834188e-01
-2.44961250e-07,1.89837813e-01
-2.44921250e-07,1.89834188e-01
-2.44881250e-07,1.89837813e-01
-2.44841250e-07,1.89834188e-01
-2.44801250e-07,1.89836906e-01
-2.44761250e-07,1.89835094e-01
-2.44721250e-07,1.89836906e-01
-2.44681250e-07,1.89835094e-01
-2.44641250e-07,1.89836000e-01
-2.44601250e-07,1.89836906e-01
-2.44561250e-07,1.89834188e-01
-2.44521250e-07,1.89838719e-01
-2.44481250e-07,1.89830562e-01
-2.44441250e-07,1.89846875e-01
-2.44401250e-07,1.89810625e-01
-2.44361250e-07,1.89949281e-01
-2.44321250e-07,1.90107875e-01
-2.44281250e-07,1.90041719e-01
-2.44241250e-07,1.90089750e-01
-2.44201250e-07,1.90047156e-01
-2.44161250e-07,1.90088844e-01
-2.44121250e-07,1.90045344e-01
-2.44081250e-07,1.90096094e-01
-2.44041250e-07,1.90025406e-01
-2.44001250e-07,1.90199406e-01
-2.43961250e-07,1.90320844e-01
-2.43921250e-07,1.90293656e-01
-2.43881250e-07,1.90300000e-01
-2.43841250e-07,1.90304531e-01
-2.43801250e-07,1.90290938e-01
-2.43761250e-07,1.90315406e-01
-2.43721250e-07,1.90269187e-01
-2.43681250e-07,1.90420531e-01
-2.43641250e-07,1.90563719e-01
-2.43601250e-07,1.90514781e-01
-2.43561250e-07,1.90543781e-01
-2.43521250e-07,1.90523844e-01
-2.43481250e-07,1.90538344e-01
-2.43441250e-07,1.90526562e-01
-2.43401250e-07,1.90536531e-01
-2.43361250e-07,1.90528375e-01
-2.43321250e-07,1.90534719e-01
-2.43281250e-07,1.90530188e-01
-2.43241250e-07,1.90533813e-01
-2.43201250e-07,1.90531094e-01
-2.43161250e-07,1.90532906e-01
-2.43121250e-07,1.90531094e-01
-2.43081250e-07,1.90532906e-01
-2.43041250e-07,1.90532000e-01
-2.43001250e-07,1.90532000e-01
-2.42961250e-07,1.90532000e-01
-2.42921250e-07,1.90532000e-01
-2.42881250e-07,1.90532000e-01
-2.42841250e-07,1.90531094e-01
-2.42801250e-07,1.90532906e-01
-2.42761250e-07,1.90531094e-01
-2.42721250e-07,1.90532906e-01
-2.42681250e-07,1.90532000e-01
-2.42641250e-07,1.90532000e-01
-2.42601250e-07,1.90532906e-01
-2.42561250e-07,1.90530188e-01
-2.42521250e-07,1.90536531e-01
-2.42481250e-07,1.90522937e-01
-2.42441250e-07,1.90554656e-01
-2.42401250e-07,1.90421437e-01
-2.42361250e-07,1.90256500e-01
-2.42321250e-07,1.90330813e-01
-2.42281250e-07,1.90271906e-01
-2.42241250e-07,1.90329000e-01
-2.42201250e-07,1.90266469e-01
-2.42161250e-07,1.90348031e-01
-2.42121250e-07,1.90163156e-01
-2.42081250e-07,1.90054406e-01
-2.42041250e-07,1.90066187e-01
-2.42001250e-07,1.90078875e-01
-2.41961250e-07,1.90048063e-01
-2.41921250e-07,1.90104250e-01
-2.41881250e-07,1.89940219e-01
-2.41841250e-07,1.89814250e-01
-2.41801250e-07,1.89841437e-01
-2.41761250e-07,1.89839625e-01
-2.41721250e-07,1.89822406e-01
-2.41681250e-07,1.89866813e-01
-2.41641250e-07,1.89713656e-01
-2.41601250e-07,1.89576812e-01
-2.41561250e-07,1.89614875e-01
-2.41521250e-07,1.89603094e-01
-2.41481250e-07,1.89595844e-01
-2.41441250e-07,1.89630281e-01
-2.41401250e-07,1.89487094e-01
-2.41361250e-07,1.89339375e-01
-2.41321250e-07,1.89387406e-01
-2.41281250e-07,1.89365656e-01
-2.41241250e-07,1.89368375e-01
-2.41201250e-07,1.89391937e-01
-2.41161250e-07,1.89260531e-01
-2.41121250e-07,1.89101031e-01
-2.41081250e-07,1.89163562e-01
-2.41041250e-07,1.89123687e-01
-2.41001250e-07,1.89150875e-01
-2.40961250e-07,1.89134562e-01
-2.40921250e-07,1.89138187e-01
-2.40881250e-07,1.89157219e-01
-2.40841250e-07,1.89033062e-01
-2.40801250e-07,1.88863594e-01
-2.40761250e-07,1.88937906e-01
-2.40721250e-07,1.88884438e-01
-2.40681250e-07,1.88927938e-01
-2.40641250e-07,1.88889875e-01
-2.40601250e-07,1.88924312e-01
-2.40561250e-07,1.88892594e-01
-2.40521250e-07,1.88922500e-01
-2.40481250e-07,1.88893500e-01
-2.40441250e-07,1.88921594e-01
-2.40401250e-07,1.88894406e-01
-2.40361250e-07,1.88921594e-01
-2.40321250e-07,1.88894406e-01
-2.40281250e-07,1.88921594e-01
-2.40241250e-07,1.88893500e-01
-2.40201250e-07,1.88923406e-01
-2.40161250e-07,1.88889875e-01
-2.40121250e-07,1.88930656e-01
-2.40081250e-07,1.88870844e-01
-2.40041250e-07,1.89033062e-01
-2.40001250e-07,1.89168094e-01
-2.39961250e-07,1.89124594e-01
-2.39921250e-07,1.89151781e-01
-2.39881250e-07,1.89128219e-01
-2.39841250e-07,1.89155406e-01
-2.39801250e-07,1.89111906e-01
-2.39761250e-07,1.89255094e-01
-2.39721250e-07,1.89410063e-01
-2.39681250e-07,1.89344812e-01
-2.39641250e-07,1.89399188e-01
-2.39601250e-07,1.89333937e-01
-2.39561250e-07,1.89495250e-01
-2.39521250e-07,1.89635719e-01
-2.39481250e-07,1.89582250e-01
-2.39441250e-07,1.89626656e-01
-2.39401250e-07,1.89568656e-01
-2.39361250e-07,1.89728156e-01
-2.39321250e-07,1.89862281e-01
-2.39281250e-07,1.89827844e-01
-2.39241250e-07,1.89826031e-01
-2.39201250e-07,1.89936594e-01
-2.39161250e-07,1.90120563e-01
-2.39121250e-07,1.90027219e-01
-2.39081250e-07,1.90108781e-01
-2.39041250e-07,1.90015437e-01
-2.39001250e-07,1.90207562e-01
-2.38961250e-07,1.90312687e-01
-2.38921250e-07,1.90300906e-01
-2.38881250e-07,1.90291844e-01
-2.38841250e-07,1.90316313e-01
-2.38801250e-07,1.90268281e-01
-2.38761250e-07,1.90420531e-01
-2.38721250e-07,1.90563719e-01
-2.38681250e-07,1.90513875e-01
-2.38641250e-07,1.90545594e-01
-2.38601250e-07,1.90520219e-01
-2.38561250e-07,1.90543781e-01
-2.38521250e-07,1.90518406e-01
-2.38481250e-07,1.90550125e-01
-2.38441250e-07,1.90500281e-01
-2.38401250e-07,1.90652531e-01
-2.38361250e-07,1.90795719e-01
-2.38321250e-07,1.90744969e-01
-2.38281250e-07,1.90777594e-01
-2.38241250e-07,1.90753125e-01
-2.38201250e-07,1.90773063e-01
-2.38161250e-07,1.90755844e-01
-2.38121250e-07,1.90770344e-01
-2.38081250e-07,1.90757656e-01
-2.38041250e-07,1.90769437e-01
-2.38001250e-07,1.90759469e-01
-2.37961250e-07,1.90767625e-01
-2.37921250e-07,1.90761281e-01
-2.37881250e-07,1.90765812e-01
-2.37841250e-07,1.90764000e-01
-2.37801250e-07,1.90761281e-01
-2.37761250e-07,1.90773063e-01
-2.37721250e-07,1.90741344e-01
-2.37681250e-07,1.90875469e-01
-2.37641250e-07,1.91036781e-01
-2.37601250e-07,1.90969719e-01
-2.37561250e-07,1.91017750e-01
-2.37521250e-07,1.90976969e-01
-2.37481250e-07,1.91013219e-01
-2.37441250e-07,1.90979687e-01
-2.37401250e-07,1.91012313e-01
-2.37361250e-07,1.90980594e-01
-2.37321250e-07,1.91012313e-01
-2.37281250e-07,1.90979687e-01
-2.37241250e-07,1.91013219e-01
-2.37201250e-07,1.90977875e-01
-2.37161250e-07,1.91015938e-01
-2.37121250e-07,1.90973344e-01
-2.37081250e-07,1.91024094e-01
-2.37041250e-07,1.90953406e-01
-2.37001250e-07,1.91127406e-01
-2.36961250e-07,1.91247937e-01
-2.36921250e-07,1.91221656e-01
-2.36881250e-07,1.91228000e-01
-2.36841250e-07,1.91230719e-01
-2.36801250e-07,1.91222562e-01
-2.36761250e-07,1.91235250e-01
-2.36721250e-07,1.91218937e-01
-2.36681250e-07,1.91239781e-01
-2.36641250e-07,1.91212594e-01
-2.36601250e-07,1.91248844e-01
-2.36561250e-07,1.91191750e-01
-2.36521250e-07,1.91353063e-01
-2.36481250e-07,1.91487187e-01
-2.36441250e-07,1.91447312e-01
-2.36401250e-07,1.91467250e-01
-2.36361250e-07,1.91456375e-01
-2.36321250e-07,1.91461812e-01
-2.36281250e-07,1.91459094e-01
-2.36241250e-07,1.91460000e-01
-2.36201250e-07,1.91460906e-01
-2.36161250e-07,1.91458187e-01
-2.36121250e-07,1.91462719e-01
-2.36081250e-07,1.91457281e-01
-2.36041250e-07,1.91463625e-01
-2.36001250e-07,1.91456375e-01
-2.35961250e-07,1.91464531e-01
-2.35921250e-07,1.91455469e-01
-2.35881250e-07,1.91465438e-01
-2.35841250e-07,1.91454563e-01
-2.35801250e-07,1.91466344e-01
-2.35761250e-07,1.91453656e-01
-2.35721250e-07,1.91467250e-01
-2.35681250e-07,1.91452750e-01
-2.35641250e-07,1.91468156e-01
-2.35601250e-07,1.91450938e-01
-2.35561250e-07,1.91469969e-01
-2.35521250e-07,1.91449125e-01
-2.35481250e-07,1.91471781e-01
-2.35441250e-07,1.91445500e-01
-2.35401250e-07,1.91477219e-01
-2.35361250e-07,1.91436438e-01
-2.35321250e-07,1.91498063e-01
-2.35281250e-07,1.91332219e-01
-2.35241250e-07,1.91203531e-01
-2.35201250e-07,1.91237969e-01
-2.35161250e-07,1.91224375e-01
-2.35121250e-07,1.91228000e-01
-2.35081250e-07,1.91230719e-01
-2.35041250e-07,1.91222562e-01
-2.35001250e-07,1.91237969e-01
-2.34961250e-07,1.91212594e-01
-2.34921250e-07,1.91258812e-01
-2.34881250e-07,1.91108375e-01
-2.34841250e-07,1.90963375e-01
-2.34801250e-07,1.91015938e-01
-2.34761250e-07,1.90980594e-01
-2.34721250e-07,1.91010500e-01
-2.34681250e-07,1.90978781e-01
-2.34641250e-07,1.91025906e-01
-2.34601250e-07,1.90879094e-01
-2.34561250e-07,1.90726844e-01
-2.34521250e-07,1.90789375e-01
-2.34481250e-07,1.90740437e-01
-2.34441250e-07,1.90788469e-01
-2.34401250e-07,1.90735000e-01
-2.34361250e-07,1.90807500e-01
-2.34321250e-07,1.90631688e-01
-2.34281250e-07,1.90513875e-01
-2.34241250e-07,1.90534719e-01
-2.34201250e-07,1.90537437e-01
-2.34161250e-07,1.90517500e-01
-2.34121250e-07,1.90563719e-01
-2.34081250e-07,1.90409656e-01
-2.34041250e-07,1.90271906e-01
-2.34001250e-07,1.90311781e-01
-2.33961250e-07,1.90296375e-01
-2.33921250e-07,1.90294562e-01
-2.33881250e-07,1.90320844e-01
-2.33841250e-07,1.90189438e-01
-2.33801250e-07,1.90027219e-01
-2.33761250e-07,1.90095187e-01
-2.33721250e-07,1.90045344e-01
-2.33681250e-07,1.90089750e-01
-2.33641250e-07,1.90043531e-01
-2.33601250e-07,1.90105156e-01
-2.33561250e-07,1.89943844e-01
-2.33521250e-07,1.89807000e-01
-2.33481250e-07,1.89853219e-01
-2.33441250e-07,1.89823313e-01
-2.33401250e-07,1.89847781e-01
-2.33361250e-07,1.89823313e-01
-2.33321250e-07,1.89850500e-01
-2.33281250e-07,1.89816062e-01
-2.33241250e-07,1.89870437e-01
-2.33201250e-07,1.89712750e-01
-2.33161250e-07,1.89575000e-01
-2.33121250e-07,1.89619406e-01
-2.33081250e-07,1.89594031e-01
-2.33041250e-07,1.89610344e-01
-2.33001250e-07,1.89599469e-01
-2.32961250e-07,1.89607625e-01
-2.32921250e-07,1.89601281e-01
-2.32881250e-07,1.89605812e-01
-2.32841250e-07,1.89603094e-01
-2.32801250e-07,1.89604000e-01
-2.32761250e-07,1.89604906e-01
-2.32721250e-07,1.89602187e-01
-2.32681250e-07,1.89606719e-01
-2.32641250e-07,1.89600375e-01
-2.32601250e-07,1.89608531e-01
-2.32561250e-07,1.89597656e-01
-2.32521250e-07,1.89612156e-01
-2.32481250e-07,1.89592219e-01
-2.32441250e-07,1.89621219e-01
-2.32401250e-07,1.89572281e-01
-2.32361250e-07,1.89725437e-01
-2.32321250e-07,1.89866813e-01
-2.32281250e-07,1.89819688e-01
-2.32241250e-07,1.89846875e-01
-2.32201250e-07,1.89828750e-01
-2.32161250e-07,1.89841437e-01
-2.32121250e-07,1.89832375e-01
-2.32081250e-07,1.89838719e-01
-2.32041250e-07,1.89835094e-01
-2.32001250e-07,1.89836000e-01
-2.31961250e-07,1.89837813e-01
-2.31921250e-07,1.89833281e-01
-2.31881250e-07,1.89841437e-01
-2.31841250e-07,1.89827844e-01
-2.31801250e-07,1.89850500e-01
-2.31761250e-07,1.89807000e-01
-2.31721250e-07,1.89953812e-01
-2.31681250e-07,1.90101531e-01
-2.31641250e-07,1.90048063e-01
-2.31601250e-07,1.90081594e-01
-2.31561250e-07,1.90057125e-01
-2.31521250e-07,1.90077063e-01
-2.31481250e-07,1.90060750e-01
-2.31441250e-07,1.90074344e-01
-2.31401250e-07,1.90062563e-01
-2.31361250e-07,1.90072531e-01
-2.31321250e-07,1.90064375e-01
-2.31281250e-07,1.90071625e-01
-2.31241250e-07,1.90065281e-01
-2.31201250e-07,1.90069812e-01
-2.31161250e-07,1.90066187e-01
-2.31121250e-07,1.90068906e-01
-2.31081250e-07,1.90068000e-01
-2.31041250e-07,1.90067094e-01
-2.31001250e-07,1.90070719e-01
-2.30961250e-07,1.90063469e-01
-2.30921250e-07,1.90075250e-01
-2.30881250e-07,1.90054406e-01
-2.30841250e-07,1.90096094e-01
-2.30801250e-07,1.89951094e-01
-2.30761250e-07,1.89800656e-01
-2.30721250e-07,1.89857750e-01
-2.30681250e-07,1.89820594e-01
-2.30641250e-07,1.89848688e-01
-2.30601250e-07,1.89825125e-01
-2.30561250e-07,1.89845969e-01
-2.30521250e-07,1.89826937e-01
-2.30481250e-07,1.89844156e-01
-2.30441250e-07,1.89828750e-01
-2.30401250e-07,1.89843250e-01
-2.30361250e-07,1.89828750e-01
-2.30321250e-07,1.89842344e-01
-2.30281250e-07,1.89829656e-01
-2.30241250e-07,1.89842344e-01
-2.30201250e-07,1.89829656e-01
-2.30161250e-07,1.89841437e-01
-2.30121250e-07,1.89830562e-01
-2.30081250e-07,1.89841437e-01
-2.30041250e-07,1.89830562e-01
-2.30001250e-07,1.89841437e-01
-2.29961250e-07,1.89830562e-01
-2.29921250e-07,1.89841437e-01
-2.29881250e-07,1.89830562e-01
-2.29841250e-07,1.89841437e-01
-2.29801250e-07,1.89830562e-01
-2.29761250e-07,1.89841437e-01
-2.29721250e-07,1.89830562e-01
-2.29681250e-07,1.89841437e-01
-2.29641250e-07,1.89829656e-01
-2.29601250e-07,1.89842344e-01
-2.29561250e-07,1.89829656e-01
-2.29521250e-07,1.89843250e-01
-2.29481250e-07,1.89827844e-01
-2.29441250e-07,1.89845062e-01
-2.29401250e-07,1.89825125e-01
-2.29361250e-07,1.89849594e-01
-2.29321250e-07,1.89816969e-01
-2.29281250e-07,1.89868625e-01
-2.29241250e-07,1.89714562e-01
-2.29201250e-07,1.89573187e-01
-2.29161250e-07,1.89621219e-01
-2.29121250e-07,1.89591312e-01
-2.29081250e-07,1.89614875e-01
-2.29041250e-07,1.89593125e-01
-2.29001250e-07,1.89615781e-01
-2.28961250e-07,1.89587687e-01
-2.28921250e-07,1.89633906e-01
-2.28881250e-07,1.89487094e-01
-2.28841250e-07,1.89335750e-01
-2.28801250e-07,1.89396469e-01
-2.28761250e-07,1.89351156e-01
-2.28721250e-07,1.89393750e-01
-2.28681250e-07,1.89346625e-01
-2.28641250e-07,1.89410969e-01
-2.28601250e-07,1.89244219e-01
-2.28561250e-07,1.89115531e-01
-2.28521250e-07,1.89149969e-01
-2.28481250e-07,1.89136375e-01
-2.28441250e-07,1.89139094e-01
-2.28401250e-07,1.89144531e-01
-2.28361250e-07,1.89128219e-01
-2.28321250e-07,1.89166281e-01
-2.28281250e-07,1.89024000e-01
-2.28241250e-07,1.88871750e-01
-2.28201250e-07,1.88929750e-01
-2.28161250e-07,1.88891687e-01
-2.28121250e-07,1.88921594e-01
-2.28081250e-07,1.88896219e-01
-2.28041250e-07,1.88918875e-01
-2.28001250e-07,1.88898031e-01
-2.27961250e-07,1.88917969e-01
-2.27921250e-07,1.88898938e-01
-2.27881250e-07,1.88917063e-01
-2.27841250e-07,1.88898938e-01
-2.27801250e-07,1.88917063e-01
-2.27761250e-07,1.88898938e-01
-2.27721250e-07,1.88917063e-01
-2.27681250e-07,1.88898031e-01
-2.27641250e-07,1.88917969e-01
-2.27601250e-07,1.88897125e-01
-2.27561250e-07,1.88919781e-01
-2.27521250e-07,1.88894406e-01
-2.27481250e-07,1.88923406e-01
-2.27441250e-07,1.88889875e-01
-2.27401250e-07,1.88932469e-01
-2.27361250e-07,1.88869031e-01
-2.27321250e-07,1.89036687e-01
-2.27281250e-07,1.89162656e-01
-2.27241250e-07,1.89131844e-01
-2.27201250e-07,1.89141813e-01
-2.27161250e-07,1.89143625e-01
-2.27121250e-07,1.89131844e-01
-2.27081250e-07,1.89155406e-01
-2.27041250e-07,1.89109187e-01
-2.27001250e-07,1.89260531e-01
-2.26961250e-07,1.89402812e-01
-2.26921250e-07,1.89355688e-01
-2.26881250e-07,1.89381969e-01
-2.26841250e-07,1.89366563e-01
-2.26801250e-07,1.89374719e-01
-2.26761250e-07,1.89372906e-01
-2.26721250e-07,1.89367469e-01
-2.26681250e-07,1.89382875e-01
-2.26641250e-07,1.89345719e-01
-2.26601250e-07,1.89487094e-01
-2.26561250e-07,1.89640250e-01
-2.26521250e-07,1.89582250e-01
-2.26481250e-07,1.89620312e-01
-2.26441250e-07,1.89590406e-01
-2.26401250e-07,1.89614875e-01
-2.26361250e-07,1.89594031e-01
-2.26321250e-07,1.89613062e-01
-2.26281250e-07,1.89595844e-01
-2.26241250e-07,1.89611250e-01
-2.26201250e-07,1.89597656e-01
-2.26161250e-07,1.89610344e-01
-2.26121250e-07,1.89598562e-01
-2.26081250e-07,1.89609438e-01
-2.26041250e-07,1.89598562e-01
-2.26001250e-07,1.89608531e-01
-2.25961250e-07,1.89599469e-01
-2.25921250e-07,1.89608531e-01
-2.25881250e-07,1.89599469e-01
-2.25841250e-07,1.89608531e-01
-2.25801250e-07,1.89600375e-01
-2.25761250e-07,1.89607625e-01
-2.25721250e-07,1.89600375e-01
-2.25681250e-07,1.89607625e-01
-2.25641250e-07,1.89600375e-01
-2.25601250e-07,1.89606719e-01
-2.25561250e-07,1.89601281e-01
-2.25521250e-07,1.89606719e-01
-2.25481250e-07,1.89601281e-01
-2.25441250e-07,1.89606719e-01
-2.25401250e-07,1.89601281e-01
-2.25361250e-07,1.89606719e-01
-2.25321250e-07,1.89601281e-01
-2.25281250e-07,1.89606719e-01
-2.25241250e-07,1.89601281e-01
-2.25201250e-07,1.89605812e-01
-2.25161250e-07,1.89602187e-01
-2.25121250e-07,1.89605812e-01
-2.25081250e-07,1.89602187e-01
-2.25041250e-07,1.89605812e-01
-2.25001250e-07,1.89602187e-01
-2.24961250e-07,1.89605812e-01
-2.24921250e-07,1.89602187e-01
-2.24881250e-07,1.89605812e-01
-2.24841250e-07,1.89602187e-01
-2.24801250e-07,1.89605812e-01
-2.24761250e-07,1.89603094e-01
-2.24721250e-07,1.89604906e-01
-2.24681250e-07,1.89603094e-01
-2.24641250e-07,1.89604906e-01
-2.24601250e-07,1.89603094e-01
-2.24561250e-07,1.89604906e-01
-2.24521250e-07,1.89603094e-01
