dpa/aes_ch1_20250506141455287.csv

Model,MSO66B
Label,
Waveform Type,ANALOG
Horizontal Units,s
Sample Interval,4.00000000e-11
Record Length,100000
Zero Index,15999.08203125
Vertical Units,A
ANALOG_Thumbnail,
yOffset,1.84500000e-01
yPosition,8.40000000e-01

Labels,
TIME,CH1
-6.39963281e-07,1.90920312e-01
-6.39923281e-07,1.90879688e-01
-6.39883281e-07,1.90921875e-01
-6.39843281e-07,1.90876563e-01
-6.39803281e-07,1.90925000e-01
-6.39763281e-07,1.90870313e-01
-6.39723281e-07,1.90939063e-01
-6.39683281e-07,1.90835937e-01
-6.39643281e-07,1.91117188e-01
-6.39603281e-07,1.91345313e-01
-6.39563281e-07,1.91278125e-01
-6.39523281e-07,1.91312500e-01
-6.39483281e-07,1.91293750e-01
-6.39443281e-07,1.91303125e-01
-6.39403281e-07,1.91298438e-01
-6.39363281e-07,1.91300000e-01
-6.39323281e-07,1.91301563e-01
-6.39283281e-07,1.91296875e-01
-6.39243281e-07,1.91304688e-01
-6.39203281e-07,1.91295313e-01
-6.39163281e-07,1.91306250e-01
-6.39123281e-07,1.91292188e-01
-6.39083281e-07,1.91309375e-01
-6.39043281e-07,1.91287500e-01
-6.39003281e-07,1.91315625e-01
-6.38963281e-07,1.91279688e-01
-6.38923281e-07,1.91331250e-01
-6.38883281e-07,1.91243750e-01
-6.38843281e-07,1.91509375e-01
-6.38803281e-07,1.91753125e-01
-6.38763281e-07,1.91670312e-01
-6.38723281e-07,1.91718750e-01
-6.38683281e-07,1.91685938e-01
-6.38643281e-07,1.91710938e-01
-6.38603281e-07,1.91690625e-01
-6.38563281e-07,1.91707813e-01
-6.38523281e-07,1.91693750e-01
-6.38483281e-07,1.91704687e-01
-6.38443281e-07,1.91695313e-01
-6.38403281e-07,1.91703125e-01
-6.38363281e-07,1.91696875e-01
-6.38323281e-07,1.91701563e-01
-6.38283281e-07,1.91698438e-01
-6.38243281e-07,1.91701563e-01
-6.38203281e-07,1.91700000e-01
-6.38163281e-07,1.91700000e-01
-6.38123281e-07,1.91700000e-01
-6.38083281e-07,1.91698438e-01
-6.38043281e-07,1.91701563e-01
-6.38003281e-07,1.91696875e-01
-6.37963281e-07,1.91703125e-01
-6.37923281e-07,1.91695313e-01
-6.37883281e-07,1.91706250e-01
-6.37843281e-07,1.91692187e-01
-6.37803281e-07,1.91709375e-01
-6.37763281e-07,1.91687500e-01
-6.37723281e-07,1.91718750e-01
-6.37683281e-07,1.91671875e-01
-6.37643281e-07,1.91753125e-01
-6.37603281e-07,1.91493750e-01
-6.37563281e-07,1.91243750e-01
-6.37523281e-07,1.91331250e-01
-6.37483281e-07,1.91278125e-01
-6.37443281e-07,1.91317188e-01
-6.37403281e-07,1.91285938e-01
-6.37363281e-07,1.91312500e-01
-6.37323281e-07,1.91290625e-01
-6.37283281e-07,1.91309375e-01
-6.37243281e-07,1.91292188e-01
-6.37203281e-07,1.91306250e-01
-6.37163281e-07,1.91293750e-01
-6.37123281e-07,1.91304688e-01
-6.37083281e-07,1.91296875e-01
-6.37043281e-07,1.91303125e-01
-6.37003281e-07,1.91298438e-01
-6.36963281e-07,1.91300000e-01
-6.36923281e-07,1.91303125e-01
-6.36883281e-07,1.91293750e-01
-6.36843281e-07,1.91310938e-01
-6.36803281e-07,1.91279688e-01
-6.36763281e-07,1.91345313e-01
-6.36723281e-07,1.91101563e-01
-6.36683281e-07,1.90835937e-01
-6.36643281e-07,1.90940625e-01
-6.36603281e-07,1.90867188e-01
-6.36563281e-07,1.90928125e-01
-6.36523281e-07,1.90873438e-01
-6.36483281e-07,1.90925000e-01
-6.36443281e-07,1.90875000e-01
-6.36403281e-07,1.90925000e-01
-6.36363281e-07,1.90871875e-01
-6.36323281e-07,1.90932812e-01
-6.36283281e-07,1.90859375e-01
-6.36243281e-07,1.90965625e-01
-6.36203281e-07,1.90681250e-01
-6.36163281e-07,1.90456250e-01
-6.36123281e-07,1.90520313e-01
-6.36083281e-07,1.90489063e-01
-6.36043281e-07,1.90506250e-01
-6.36003281e-07,1.90495313e-01
-6.35963281e-07,1.90501562e-01
-6.35923281e-07,1.90500000e-01
-6.35883281e-07,1.90500000e-01
-6.35843281e-07,1.90501562e-01
-6.35803281e-07,1.90498438e-01
-6.35763281e-07,1.90501562e-01
-6.35723281e-07,1.90496875e-01
-6.35683281e-07,1.90503125e-01
-6.35643281e-07,1.90496875e-01
-6.35603281e-07,1.90503125e-01
-6.35563281e-07,1.90495313e-01
-6.35523281e-07,1.90504688e-01
-6.35483281e-07,1.90495313e-01
-6.35443281e-07,1.90504688e-01
-6.35403281e-07,1.90495313e-01
-6.35363281e-07,1.90504688e-01
-6.35323281e-07,1.90493750e-01
-6.35283281e-07,1.90506250e-01
-6.35243281e-07,1.90493750e-01
-6.35203281e-07,1.90506250e-01
-6.35163281e-07,1.90492188e-01
-6.35123281e-07,1.90507813e-01
-6.35083281e-07,1.90490625e-01
-6.35043281e-07,1.90509375e-01
-6.35003281e-07,1.90489063e-01
-6.34963281e-07,1.90512500e-01
-6.34923281e-07,1.90485938e-01
-6.34883281e-07,1.90517188e-01
-6.34843281e-07,1.90478125e-01
-6.34803281e-07,1.90532813e-01
-6.34763281e-07,1.90442187e-01
-6.34723281e-07,1.90710938e-01
-6.34683281e-07,1.90951563e-01
-6.34643281e-07,1.90871875e-01
-6.34603281e-07,1.90918750e-01
-6.34563281e-07,1.90885938e-01
-6.34523281e-07,1.90910938e-01
-6.34483281e-07,1.90890625e-01
-6.34443281e-07,1.90907812e-01
-6.34403281e-07,1.90893750e-01
-6.34363281e-07,1.90906250e-01
-6.34323281e-07,1.90895312e-01
-6.34283281e-07,1.90904688e-01
-6.34243281e-07,1.90896875e-01
-6.34203281e-07,1.90903125e-01
-6.34163281e-07,1.90896875e-01
-6.34123281e-07,1.90903125e-01
-6.34083281e-07,1.90896875e-01
-6.34043281e-07,1.90903125e-01
-6.34003281e-07,1.90896875e-01
-6.33963281e-07,1.90903125e-01
-6.33923281e-07,1.90896875e-01
-6.33883281e-07,1.90903125e-01
-6.33843281e-07,1.90896875e-01
-6.33803281e-07,1.90903125e-01
-6.33763281e-07,1.90896875e-01
-6.33723281e-07,1.90904688e-01
-6.33683281e-07,1.90895312e-01
-6.33643281e-07,1.90906250e-01
-6.33603281e-07,1.90893750e-01
-6.33563281e-07,1.90909375e-01
-6.33523281e-07,1.90887500e-01
-6.33483281e-07,1.90917188e-01
-6.33443281e-07,1.90873438e-01
-6.33403281e-07,1.90950000e-01
-6.33363281e-07,1.90696875e-01
-6.33323281e-07,1.90440625e-01
-6.33283281e-07,1.90535938e-01
-6.33243281e-07,1.90473438e-01
-6.33203281e-07,1.90521875e-01
-6.33163281e-07,1.90481250e-01
-6.33123281e-07,1.90517188e-01
-6.33083281e-07,1.90482813e-01
-6.33043281e-07,1.90515625e-01
-6.33003281e-07,1.90484375e-01
-6.32963281e-07,1.90515625e-01
-6.32923281e-07,1.90484375e-01
-6.32883281e-07,1.90515625e-01
-6.32843281e-07,1.90484375e-01
-6.32803281e-07,1.90517188e-01
-6.32763281e-07,1.90481250e-01
-6.32723281e-07,1.90520313e-01
-6.32683281e-07,1.90478125e-01
-6.32643281e-07,1.90525000e-01
-6.32603281e-07,1.90468750e-01
-6.32563281e-07,1.90540625e-01
-6.32523281e-07,1.90434375e-01
-6.32483281e-07,1.90720313e-01
-6.32443281e-07,1.90942187e-01
-6.32403281e-07,1.90882812e-01
-6.32363281e-07,1.90906250e-01
-6.32323281e-07,1.90900000e-01
-6.32283281e-07,1.90893750e-01
-6.32243281e-07,1.90910938e-01
-6.32203281e-07,1.90882812e-01
-6.32163281e-07,1.90928125e-01
-6.32123281e-07,1.90845313e-01
-6.32083281e-07,1.91109375e-01
-6.32043281e-07,1.91351563e-01
-6.32003281e-07,1.91275000e-01
-6.31963281e-07,1.91314062e-01
-6.31923281e-07,1.91293750e-01
-6.31883281e-07,1.91296875e-01
-6.31843281e-07,1.91314062e-01
-6.31803281e-07,1.91259375e-01
-6.31763281e-07,1.91493750e-01
-6.31723281e-07,1.91767188e-01
-6.31683281e-07,1.91656250e-01
-6.31643281e-07,1.91734375e-01
-6.31603281e-07,1.91670312e-01
-6.31563281e-07,1.91728125e-01
-6.31523281e-07,1.91671875e-01
-6.31483281e-07,1.91728125e-01
-6.31443281e-07,1.91667188e-01
-6.31403281e-07,1.91740625e-01
-6.31363281e-07,1.91635938e-01
-6.31323281e-07,1.91917188e-01
-6.31283281e-07,1.92146875e-01
-6.31243281e-07,1.92076562e-01
-6.31203281e-07,1.92114063e-01
-6.31163281e-07,1.92090625e-01
-6.31123281e-07,1.92107813e-01
-6.31083281e-07,1.92093750e-01
-6.31043281e-07,1.92104688e-01
-6.31003281e-07,1.92095313e-01
-6.30963281e-07,1.92103125e-01
-6.30923281e-07,1.92096875e-01
-6.30883281e-07,1.92103125e-01
-6.30843281e-07,1.92096875e-01
-6.30803281e-07,1.92103125e-01
-6.30763281e-07,1.92096875e-01
-6.30723281e-07,1.92103125e-01
-6.30683281e-07,1.92096875e-01
-6.30643281e-07,1.92104688e-01
-6.30603281e-07,1.92095313e-01
-6.30563281e-07,1.92104688e-01
-6.30523281e-07,1.92093750e-01
-6.30483281e-07,1.92106250e-01
-6.30443281e-07,1.92092188e-01
-6.30403281e-07,1.92109375e-01
-6.30363281e-07,1.92087500e-01
-6.30323281e-07,1.92117188e-01
-6.30283281e-07,1.92073437e-01
-6.30243281e-07,1.92151563e-01
-6.30203281e-07,1.91895312e-01
-6.30163281e-07,1.91642188e-01
-6.30123281e-07,1.91734375e-01
-6.30083281e-07,1.91675000e-01
-6.30043281e-07,1.91720313e-01
-6.30003281e-07,1.91681250e-01
-6.29963281e-07,1.91717187e-01
-6.29923281e-07,1.91684375e-01
-6.29883281e-07,1.91715625e-01
-6.29843281e-07,1.91682813e-01
-6.29803281e-07,1.91717187e-01
-6.29763281e-07,1.91679688e-01
-6.29723281e-07,1.91725000e-01
-6.29683281e-07,1.91665625e-01
-6.29643281e-07,1.91757813e-01
-6.29603281e-07,1.91489063e-01
-6.29563281e-07,1.91248438e-01
-6.29523281e-07,1.91328125e-01
-6.29483281e-07,1.91281250e-01
-6.29443281e-07,1.91314062e-01
-6.29403281e-07,1.91287500e-01
-6.29363281e-07,1.91310938e-01
-6.29323281e-07,1.91290625e-01
-6.29283281e-07,1.91309375e-01
-6.29243281e-07,1.91290625e-01
-6.29203281e-07,1.91309375e-01
-6.29163281e-07,1.91290625e-01
-6.29123281e-07,1.91310938e-01
-6.29083281e-07,1.91285938e-01
-6.29043281e-07,1.91317188e-01
-6.29003281e-07,1.91273438e-01
-6.28963281e-07,1.91350000e-01
-6.28923281e-07,1.91096875e-01
-6.28883281e-07,1.90839063e-01
-6.28843281e-07,1.90939063e-01
-6.28803281e-07,1.90868750e-01
-6.28763281e-07,1.90929688e-01
-6.28723281e-07,1.90868750e-01
-6.28683281e-07,1.90939063e-01
-6.28643281e-07,1.90835937e-01
-6.28603281e-07,1.91115625e-01
-6.28563281e-07,1.91346875e-01
-6.28523281e-07,1.91276562e-01
-6.28483281e-07,1.91315625e-01
-6.28443281e-07,1.91289062e-01
-6.28403281e-07,1.91307813e-01
-6.28363281e-07,1.91295313e-01
-6.28323281e-07,1.91303125e-01
-6.28283281e-07,1.91298438e-01
-6.28243281e-07,1.91300000e-01
-6.28203281e-07,1.91301563e-01
-6.28163281e-07,1.91296875e-01
-6.28123281e-07,1.91306250e-01
-6.28083281e-07,1.91287500e-01
-6.28043281e-07,1.91321875e-01
-6.28003281e-07,1.91254688e-01
-6.27963281e-07,1.91498438e-01
-6.27923281e-07,1.91764062e-01
-6.27883281e-07,1.91659375e-01
-6.27843281e-07,1.91732813e-01
-6.27803281e-07,1.91671875e-01
-6.27763281e-07,1.91726563e-01
-6.27723281e-07,1.91673438e-01
-6.27683281e-07,1.91728125e-01
-6.27643281e-07,1.91667188e-01
-6.27603281e-07,1.91740625e-01
-6.27563281e-07,1.91634375e-01
-6.27523281e-07,1.91917188e-01
-6.27483281e-07,1.92145312e-01
-6.27443281e-07,1.92078125e-01
-6.27403281e-07,1.92112500e-01
-6.27363281e-07,1.92092188e-01
-6.27323281e-07,1.92104688e-01
-6.27283281e-07,1.92096875e-01
-6.27243281e-07,1.92101563e-01
-6.27203281e-07,1.92100000e-01
-6.27163281e-07,1.92100000e-01
-6.27123281e-07,1.92101563e-01
-6.27083281e-07,1.92098437e-01
-6.27043281e-07,1.92101563e-01
-6.27003281e-07,1.92096875e-01
-6.26963281e-07,1.92103125e-01
-6.26923281e-07,1.92096875e-01
-6.26883281e-07,1.92103125e-01
-6.26843281e-07,1.92095313e-01
-6.26803281e-07,1.92104688e-01
-6.26763281e-07,1.92095313e-01
-6.26723281e-07,1.92104688e-01
-6.26683281e-07,1.92093750e-01
-6.26643281e-07,1.92106250e-01
-6.26603281e-07,1.92093750e-01
-6.26563281e-07,1.92107813e-01
-6.26523281e-07,1.92092188e-01
-6.26483281e-07,1.92109375e-01
-6.26443281e-07,1.92089063e-01
-6.26403281e-07,1.92112500e-01
-6.26363281e-07,1.92085937e-01
-6.26323281e-07,1.92117188e-01
-6.26283281e-07,1.92078125e-01
-6.26243281e-07,1.92132812e-01
-6.26203281e-07,1.92043750e-01
-6.26163281e-07,1.92309375e-01
-6.26123281e-07,1.92551562e-01
-6.26083281e-07,1.92471875e-01
-6.26043281e-07,1.92518750e-01
-6.26003281e-07,1.92485938e-01
-6.25963281e-07,1.92510938e-01
-6.25923281e-07,1.92492188e-01
-6.25883281e-07,1.92506250e-01
-6.25843281e-07,1.92493750e-01
-6.25803281e-07,1.92504687e-01
-6.25763281e-07,1.92495313e-01
-6.25723281e-07,1.92503125e-01
-6.25683281e-07,1.92496875e-01
-6.25643281e-07,1.92503125e-01
-6.25603281e-07,1.92498438e-01
-6.25563281e-07,1.92501563e-01
-6.25523281e-07,1.92498438e-01
-6.25483281e-07,1.92501563e-01
-6.25443281e-07,1.92498438e-01
-6.25403281e-07,1.92500000e-01
-6.25363281e-07,1.92500000e-01
-6.25323281e-07,1.92500000e-01
-6.25283281e-07,1.92500000e-01
-6.25243281e-07,1.92500000e-01
-6.25203281e-07,1.92500000e-01
-6.25163281e-07,1.92500000e-01
-6.25123281e-07,1.92501563e-01
-6.25083281e-07,1.92498438e-01
-6.25043281e-07,1.92501563e-01
-6.25003281e-07,1.92498438e-01
-6.24963281e-07,1.92501563e-01
-6.24923281e-07,1.92498438e-01
-6.24883281e-07,1.92501563e-01
-6.24843281e-07,1.92498438e-01
-6.24803281e-07,1.92501563e-01
-6.24763281e-07,1.92498438e-01
-6.24723281e-07,1.92503125e-01
-6.24683281e-07,1.92496875e-01
-6.24643281e-07,1.92503125e-01
-6.24603281e-07,1.92496875e-01
-6.24563281e-07,1.92503125e-01
-6.24523281e-07,1.92496875e-01
-6.24483281e-07,1.92503125e-01
-6.24443281e-07,1.92495313e-01
-6.24403281e-07,1.92504687e-01
-6.24363281e-07,1.92495313e-01
-6.24323281e-07,1.92504687e-01
-6.24283281e-07,1.92495313e-01
-6.24243281e-07,1.92506250e-01
-6.24203281e-07,1.92493750e-01
-6.24163281e-07,1.92506250e-01
-6.24123281e-07,1.92492188e-01
-6.24083281e-07,1.92507813e-01
-6.24043281e-07,1.92490625e-01
-6.24003281e-07,1.92510938e-01
-6.23963281e-07,1.92487500e-01
-6.23923281e-07,1.92514062e-01
-6.23883281e-07,1.92482813e-01
-6.23843281e-07,1.92521875e-01
-6.23803281e-07,1.92467187e-01
-6.23763281e-07,1.92557813e-01
-6.23723281e-07,1.92289062e-01
-6.23683281e-07,1.92048438e-01
-6.23643281e-07,1.92128125e-01
-6.23603281e-07,1.92081250e-01
-6.23563281e-07,1.92114063e-01
-6.23523281e-07,1.92089063e-01
-6.23483281e-07,1.92107813e-01
-6.23443281e-07,1.92093750e-01
-6.23403281e-07,1.92104688e-01
-6.23363281e-07,1.92095313e-01
-6.23323281e-07,1.92103125e-01
-6.23283281e-07,1.92096875e-01
-6.23243281e-07,1.92101563e-01
-6.23203281e-07,1.92098437e-01
-6.23163281e-07,1.92101563e-01
-6.23123281e-07,1.92100000e-01
-6.23083281e-07,1.92100000e-01
-6.23043281e-07,1.92100000e-01
-6.23003281e-07,1.92098437e-01
-6.22963281e-07,1.92101563e-01
-6.22923281e-07,1.92098437e-01
-6.22883281e-07,1.92103125e-01
-6.22843281e-07,1.92096875e-01
-6.22803281e-07,1.92103125e-01
-6.22763281e-07,1.92095313e-01
-6.22723281e-07,1.92104688e-01
-6.22683281e-07,1.92093750e-01
-6.22643281e-07,1.92107813e-01
-6.22603281e-07,1.92090625e-01
-6.22563281e-07,1.92110937e-01
-6.22523281e-07,1.92085937e-01
-6.22483281e-07,1.92120313e-01
-6.22443281e-07,1.92070313e-01
-6.22403281e-07,1.92154688e-01
-6.22363281e-07,1.91892188e-01
-6.22323281e-07,1.91645312e-01
-6.22283281e-07,1.91731250e-01
-6.22243281e-07,1.91679688e-01
-6.22203281e-07,1.91715625e-01
-6.22163281e-07,1.91687500e-01
-6.22123281e-07,1.91710938e-01
-6.22083281e-07,1.91690625e-01
-6.22043281e-07,1.91707813e-01
-6.22003281e-07,1.91692187e-01
-6.21963281e-07,1.91706250e-01
-6.21923281e-07,1.91693750e-01
-6.21883281e-07,1.91704687e-01
-6.21843281e-07,1.91695313e-01
-6.21803281e-07,1.91704687e-01
-6.21763281e-07,1.91695313e-01
-6.21723281e-07,1.91704687e-01
-6.21683281e-07,1.91695313e-01
-6.21643281e-07,1.91704687e-01
-6.21603281e-07,1.91695313e-01
-6.21563281e-07,1.91704687e-01
-6.21523281e-07,1.91695313e-01
-6.21483281e-07,1.91704687e-01
-6.21443281e-07,1.91693750e-01
-6.21403281e-07,1.91707813e-01
-6.21363281e-07,1.91690625e-01
-6.21323281e-07,1.91714063e-01
-6.21283281e-07,1.91676563e-01
-6.21243281e-07,1.91746875e-01
-6.21203281e-07,1.91501562e-01
-6.21163281e-07,1.91235938e-01
-6.21123281e-07,1.91342188e-01
-6.21083281e-07,1.91265625e-01
-6.21043281e-07,1.91332813e-01
-6.21003281e-07,1.91267188e-01
-6.20963281e-07,1.91337500e-01
-6.20923281e-07,1.91254688e-01
-6.20883281e-07,1.91370313e-01
-6.20843281e-07,1.91076563e-01
-6.20803281e-07,1.90862500e-01
-6.20763281e-07,1.90912500e-01
-6.20723281e-07,1.90898438e-01
-6.20683281e-07,1.90893750e-01
-6.20643281e-07,1.90914063e-01
-6.20603281e-07,1.90873438e-01
-6.20563281e-07,1.90953125e-01
-6.20523281e-07,1.90692187e-01
-6.20483281e-07,1.90446875e-01
-6.20443281e-07,1.90528125e-01
-6.20403281e-07,1.90482813e-01
-6.20363281e-07,1.90510938e-01
-6.20323281e-07,1.90493750e-01
-6.20283281e-07,1.90503125e-01
-6.20243281e-07,1.90501562e-01
-6.20203281e-07,1.90493750e-01
-6.20163281e-07,1.90512500e-01
-6.20123281e-07,1.90478125e-01
-6.20083281e-07,1.90548438e-01
-6.20043281e-07,1.90296875e-01
-6.20003281e-07,1.90040625e-01
-6.19963281e-07,1.90134375e-01
-6.19923281e-07,1.90076563e-01
-6.19883281e-07,1.90118750e-01
-6.19843281e-07,1.90085937e-01
-6.19803281e-07,1.90110938e-01
-6.19763281e-07,1.90092188e-01
-6.19723281e-07,1.90104688e-01
-6.19683281e-07,1.90100000e-01
-6.19643281e-07,1.90095313e-01
-6.19603281e-07,1.90115625e-01
-6.19563281e-07,1.90059375e-01
-6.19523281e-07,1.90293750e-01
-6.19483281e-07,1.90568750e-01
-6.19443281e-07,1.90454687e-01
-6.19403281e-07,1.90535938e-01
-6.19363281e-07,1.90468750e-01
-6.19323281e-07,1.90529688e-01
-6.19283281e-07,1.90471875e-01
-6.19243281e-07,1.90529688e-01
-6.19203281e-07,1.90467187e-01
-6.19163281e-07,1.90542188e-01
-6.19123281e-07,1.90434375e-01
-6.19083281e-07,1.90717187e-01
-6.19043281e-07,1.90946875e-01
-6.19003281e-07,1.90875000e-01
-6.18963281e-07,1.90917188e-01
-6.18923281e-07,1.90885938e-01
-6.18883281e-07,1.90914063e-01
-6.18843281e-07,1.90882812e-01
-6.18803281e-07,1.90925000e-01
-6.18763281e-07,1.90850000e-01
-6.18723281e-07,1.91101563e-01
-6.18683281e-07,1.91362500e-01
-6.18643281e-07,1.91260938e-01
-6.18603281e-07,1.91331250e-01
-6.18563281e-07,1.91273438e-01
-6.18523281e-07,1.91326563e-01
-6.18483281e-07,1.91273438e-01
-6.18443281e-07,1.91328125e-01
-6.18403281e-07,1.91268750e-01
-6.18363281e-07,1.91340625e-01
-6.18323281e-07,1.91235938e-01
-6.18283281e-07,1.91517188e-01
-6.18243281e-07,1.91745313e-01
-6.18203281e-07,1.91678125e-01
-6.18163281e-07,1.91712500e-01
-6.18123281e-07,1.91692187e-01
-6.18083281e-07,1.91704687e-01
-6.18043281e-07,1.91696875e-01
-6.18003281e-07,1.91703125e-01
-6.17963281e-07,1.91698438e-01
-6.17923281e-07,1.91700000e-01
-6.17883281e-07,1.91700000e-01
-6.17843281e-07,1.91700000e-01
-6.17803281e-07,1.91700000e-01
-6.17763281e-07,1.91700000e-01
-6.17723281e-07,1.91701563e-01
-6.17683281e-07,1.91698438e-01
-6.17643281e-07,1.91701563e-01
-6.17603281e-07,1.91698438e-01
-6.17563281e-07,1.91701563e-01
-6.17523281e-07,1.91698438e-01
-6.17483281e-07,1.91701563e-01
-6.17443281e-07,1.91698438e-01
-6.17403281e-07,1.91701563e-01
-6.17363281e-07,1.91698438e-01
-6.17323281e-07,1.91701563e-01
-6.17283281e-07,1.91698438e-01
-6.17243281e-07,1.91701563e-01
-6.17203281e-07,1.91698438e-01
-6.17163281e-07,1.91701563e-01
-6.17123281e-07,1.91698438e-01
-6.17083281e-07,1.91701563e-01
-6.17043281e-07,1.91698438e-01
-6.17003281e-07,1.91701563e-01
-6.16963281e-07,1.91698438e-01
-6.16923281e-07,1.91701563e-01
-6.16883281e-07,1.91698438e-01
-6.16843281e-07,1.91701563e-01
-6.16803281e-07,1.91698438e-01
-6.16763281e-07,1.91701563e-01
-6.16723281e-07,1.91698438e-01
-6.16683281e-07,1.91701563e-01
-6.16643281e-07,1.91698438e-01
-6.16603281e-07,1.91701563e-01
-6.16563281e-07,1.91698438e-01
-6.16523281e-07,1.91701563e-01
-6.16483281e-07,1.91698438e-01
-6.16443281e-07,1.91701563e-01
-6.16403281e-07,1.91698438e-01
-6.16363281e-07,1.91701563e-01
-6.16323281e-07,1.91698438e-01
-6.16283281e-07,1.91701563e-01
-6.16243281e-07,1.91698438e-01
-6.16203281e-07,1.91701563e-01
-6.16163281e-07,1.91698438e-01
-6.16123281e-07,1.91701563e-01
-6.16083281e-07,1.91698438e-01
-6.16043281e-07,1.91701563e-01
-6.16003281e-07,1.91698438e-01
-6.15963281e-07,1.91701563e-01
-6.15923281e-07,1.91698438e-01
-6.15883281e-07,1.91701563e-01
-6.15843281e-07,1.91698438e-01
-6.15803281e-07,1.91701563e-01
-6.15763281e-07,1.91698438e-01
-6.15723281e-07,1.91701563e-01
-6.15683281e-07,1.91698438e-01
-6.15643281e-07,1.91700000e-01
-6.15603281e-07,1.91700000e-01
-6.15563281e-07,1.91700000e-01
-6.15523281e-07,1.91700000e-01
-6.15483281e-07,1.91700000e-01
-6.15443281e-07,1.91700000e-01
-6.15403281e-07,1.91700000e-01
-6.15363281e-07,1.91700000e-01
-6.15323281e-07,1.91700000e-01
-6.15283281e-07,1.91700000e-01
-6.15243281e-07,1.91700000e-01
-6.15203281e-07,1.91701563e-01
-6.15163281e-07,1.91698438e-01
-6.15123281e-07,1.91701563e-01
-6.15083281e-07,1.91698438e-01
-6.15043281e-07,1.91701563e-01
-6.15003281e-07,1.91696875e-01
-6.14963281e-07,1.91703125e-01
-6.14923281e-07,1.91695313e-01
-6.14883281e-07,1.91704687e-01
-6.14843281e-07,1.91693750e-01
-6.14803281e-07,1.91709375e-01
-6.14763281e-07,1.91687500e-01
-6.14723281e-07,1.91717187e-01
-6.14683281e-07,1.91673438e-01
-6.14643281e-07,1.91751563e-01
-6.14603281e-07,1.91496875e-01
-6.14563281e-07,1.91242187e-01
-6.14523281e-07,1.91334375e-01
