dpa/aes_ch1_20250506141404370.csv

Model,MSO66B
Label,
Waveform Type,ANALOG
Horizontal Units,s
Sample Interval,4.00000000e-11
Record Length,100000
Zero Index,15999.02734375
Vertical Units,A
ANALOG_Thumbnail,
yOffset,1.84500000e-01
yPosition,8.40000000e-01

Labels,
TIME,CH1
-6.39961094e-07,1.72895313e-01
-6.39921094e-07,1.72904688e-01
-6.39881094e-07,1.72895313e-01
-6.39841094e-07,1.72904688e-01
-6.39801094e-07,1.72895313e-01
-6.39761094e-07,1.72904688e-01
-6.39721094e-07,1.72896875e-01
-6.39681094e-07,1.72903125e-01
-6.39641094e-07,1.72896875e-01
-6.39601094e-07,1.72903125e-01
-6.39561094e-07,1.72896875e-01
-6.39521094e-07,1.72903125e-01
-6.39481094e-07,1.72896875e-01
-6.39441094e-07,1.72903125e-01
-6.39401094e-07,1.72896875e-01
-6.39361094e-07,1.72903125e-01
-6.39321094e-07,1.72896875e-01
-6.39281094e-07,1.72903125e-01
-6.39241094e-07,1.72896875e-01
-6.39201094e-07,1.72903125e-01
-6.39161094e-07,1.72896875e-01
-6.39121094e-07,1.72903125e-01
-6.39081094e-07,1.72896875e-01
-6.39041094e-07,1.72901562e-01
-6.39001094e-07,1.72898438e-01
-6.38961094e-07,1.72901562e-01
-6.38921094e-07,1.72898438e-01
-6.38881094e-07,1.72901562e-01
-6.38841094e-07,1.72898438e-01
-6.38801094e-07,1.72900000e-01
-6.38761094e-07,1.72900000e-01
-6.38721094e-07,1.72900000e-01
-6.38681094e-07,1.72901562e-01
-6.38641094e-07,1.72898438e-01
-6.38601094e-07,1.72903125e-01
-6.38561094e-07,1.72895313e-01
-6.38521094e-07,1.72906250e-01
-6.38481094e-07,1.72890625e-01
-6.38441094e-07,1.72914062e-01
-6.38401094e-07,1.72876562e-01
-6.38361094e-07,1.72948437e-01
-6.38321094e-07,1.72698437e-01
-6.38281094e-07,1.72439063e-01
-6.38241094e-07,1.72537500e-01
-6.38201094e-07,1.72471875e-01
-6.38161094e-07,1.72523438e-01
-6.38121094e-07,1.72478125e-01
-6.38081094e-07,1.72520312e-01
-6.38041094e-07,1.72481250e-01
-6.38001094e-07,1.72518750e-01
-6.37961094e-07,1.72481250e-01
-6.37921094e-07,1.72518750e-01
-6.37881094e-07,1.72481250e-01
-6.37841094e-07,1.72520312e-01
-6.37801094e-07,1.72478125e-01
-6.37761094e-07,1.72525000e-01
-6.37721094e-07,1.72470313e-01
-6.37681094e-07,1.72539063e-01
-6.37641094e-07,1.72437500e-01
-6.37601094e-07,1.72715625e-01
-6.37561094e-07,1.72946875e-01
-6.37521094e-07,1.72878125e-01
-6.37481094e-07,1.72914062e-01
-6.37441094e-07,1.72892188e-01
-6.37401094e-07,1.72904688e-01
-6.37361094e-07,1.72896875e-01
-6.37321094e-07,1.72901562e-01
-6.37281094e-07,1.72898438e-01
-6.37241094e-07,1.72900000e-01
-6.37201094e-07,1.72900000e-01
-6.37161094e-07,1.72898438e-01
-6.37121094e-07,1.72901562e-01
-6.37081094e-07,1.72898438e-01
-6.37041094e-07,1.72903125e-01
-6.37001094e-07,1.72896875e-01
-6.36961094e-07,1.72903125e-01
-6.36921094e-07,1.72896875e-01
-6.36881094e-07,1.72903125e-01
-6.36841094e-07,1.72895313e-01
-6.36801094e-07,1.72904688e-01
-6.36761094e-07,1.72895313e-01
-6.36721094e-07,1.72904688e-01
-6.36681094e-07,1.72893750e-01
-6.36641094e-07,1.72906250e-01
-6.36601094e-07,1.72893750e-01
-6.36561094e-07,1.72907813e-01
-6.36521094e-07,1.72892188e-01
-6.36481094e-07,1.72907813e-01
-6.36441094e-07,1.72890625e-01
-6.36401094e-07,1.72910938e-01
-6.36361094e-07,1.72887500e-01
-6.36321094e-07,1.72914062e-01
-6.36281094e-07,1.72882813e-01
-6.36241094e-07,1.72921875e-01
-6.36201094e-07,1.72867188e-01
-6.36161094e-07,1.72957813e-01
-6.36121094e-07,1.72689063e-01
-6.36081094e-07,1.72448437e-01
-6.36041094e-07,1.72528125e-01
-6.36001094e-07,1.72481250e-01
-6.35961094e-07,1.72514063e-01
-6.35921094e-07,1.72489063e-01
-6.35881094e-07,1.72507812e-01
-6.35841094e-07,1.72493750e-01
-6.35801094e-07,1.72506250e-01
-6.35761094e-07,1.72495312e-01
-6.35721094e-07,1.72504688e-01
-6.35681094e-07,1.72496875e-01
-6.35641094e-07,1.72503125e-01
-6.35601094e-07,1.72498438e-01
-6.35561094e-07,1.72501563e-01
-6.35521094e-07,1.72498438e-01
-6.35481094e-07,1.72501563e-01
-6.35441094e-07,1.72498438e-01
-6.35401094e-07,1.72500000e-01
-6.35361094e-07,1.72500000e-01
-6.35321094e-07,1.72500000e-01
-6.35281094e-07,1.72500000e-01
-6.35241094e-07,1.72500000e-01
-6.35201094e-07,1.72500000e-01
-6.35161094e-07,1.72498438e-01
-6.35121094e-07,1.72501563e-01
-6.35081094e-07,1.72498438e-01
-6.35041094e-07,1.72501563e-01
-6.35001094e-07,1.72498438e-01
-6.34961094e-07,1.72501563e-01
-6.34921094e-07,1.72496875e-01
-6.34881094e-07,1.72503125e-01
-6.34841094e-07,1.72496875e-01
-6.34801094e-07,1.72503125e-01
-6.34761094e-07,1.72495312e-01
-6.34721094e-07,1.72504688e-01
-6.34681094e-07,1.72495312e-01
-6.34641094e-07,1.72506250e-01
-6.34601094e-07,1.72493750e-01
-6.34561094e-07,1.72507812e-01
-6.34521094e-07,1.72490625e-01
-6.34481094e-07,1.72510938e-01
-6.34441094e-07,1.72487500e-01
-6.34401094e-07,1.72515625e-01
-6.34361094e-07,1.72479688e-01
-6.34321094e-07,1.72531250e-01
-6.34281094e-07,1.72443750e-01
-6.34241094e-07,1.72709375e-01
-6.34201094e-07,1.72953125e-01
-6.34161094e-07,1.72870313e-01
-6.34121094e-07,1.72920313e-01
-6.34081094e-07,1.72885938e-01
-6.34041094e-07,1.72910938e-01
-6.34001094e-07,1.72890625e-01
-6.33961094e-07,1.72906250e-01
-6.33921094e-07,1.72893750e-01
-6.33881094e-07,1.72904688e-01
-6.33841094e-07,1.72896875e-01
-6.33801094e-07,1.72901562e-01
-6.33761094e-07,1.72900000e-01
-6.33721094e-07,1.72898438e-01
-6.33681094e-07,1.72903125e-01
-6.33641094e-07,1.72895313e-01
-6.33601094e-07,1.72907813e-01
-6.33561094e-07,1.72885938e-01
-6.33521094e-07,1.72923437e-01
-6.33481094e-07,1.72851562e-01
-6.33441094e-07,1.73101563e-01
-6.33401094e-07,1.73360938e-01
-6.33361094e-07,1.73264063e-01
-6.33321094e-07,1.73326563e-01
-6.33281094e-07,1.73278125e-01
-6.33241094e-07,1.73318750e-01
-6.33201094e-07,1.73282812e-01
-6.33161094e-07,1.73315625e-01
-6.33121094e-07,1.73285938e-01
-6.33081094e-07,1.73314063e-01
-6.33041094e-07,1.73285938e-01
-6.33001094e-07,1.73312500e-01
-6.32961094e-07,1.73287500e-01
-6.32921094e-07,1.73312500e-01
-6.32881094e-07,1.73287500e-01
-6.32841094e-07,1.73312500e-01
-6.32801094e-07,1.73287500e-01
-6.32761094e-07,1.73312500e-01
-6.32721094e-07,1.73287500e-01
-6.32681094e-07,1.73314063e-01
-6.32641094e-07,1.73285938e-01
-6.32601094e-07,1.73315625e-01
-6.32561094e-07,1.73282812e-01
-6.32521094e-07,1.73318750e-01
-6.32481094e-07,1.73278125e-01
-6.32441094e-07,1.73326563e-01
-6.32401094e-07,1.73264063e-01
-6.32361094e-07,1.73360938e-01
-6.32321094e-07,1.73085938e-01
-6.32281094e-07,1.72851562e-01
-6.32241094e-07,1.72925000e-01
-6.32201094e-07,1.72884375e-01
-6.32161094e-07,1.72910938e-01
-6.32121094e-07,1.72892188e-01
-6.32081094e-07,1.72906250e-01
-6.32041094e-07,1.72895313e-01
-6.32001094e-07,1.72903125e-01
-6.31961094e-07,1.72898438e-01
-6.31921094e-07,1.72901562e-01
-6.31881094e-07,1.72898438e-01
-6.31841094e-07,1.72900000e-01
-6.31801094e-07,1.72900000e-01
-6.31761094e-07,1.72900000e-01
-6.31721094e-07,1.72900000e-01
-6.31681094e-07,1.72900000e-01
-6.31641094e-07,1.72901562e-01
-6.31601094e-07,1.72898438e-01
-6.31561094e-07,1.72901562e-01
-6.31521094e-07,1.72898438e-01
-6.31481094e-07,1.72901562e-01
-6.31441094e-07,1.72898438e-01
-6.31401094e-07,1.72901562e-01
-6.31361094e-07,1.72898438e-01
-6.31321094e-07,1.72901562e-01
-6.31281094e-07,1.72898438e-01
-6.31241094e-07,1.72901562e-01
-6.31201094e-07,1.72898438e-01
-6.31161094e-07,1.72903125e-01
-6.31121094e-07,1.72896875e-01
-6.31081094e-07,1.72903125e-01
-6.31041094e-07,1.72896875e-01
-6.31001094e-07,1.72903125e-01
-6.30961094e-07,1.72896875e-01
-6.30921094e-07,1.72903125e-01
-6.30881094e-07,1.72896875e-01
-6.30841094e-07,1.72903125e-01
-6.30801094e-07,1.72896875e-01
-6.30761094e-07,1.72903125e-01
-6.30721094e-07,1.72896875e-01
-6.30681094e-07,1.72903125e-01
-6.30641094e-07,1.72896875e-01
-6.30601094e-07,1.72904688e-01
-6.30561094e-07,1.72895313e-01
-6.30521094e-07,1.72904688e-01
-6.30481094e-07,1.72895313e-01
-6.30441094e-07,1.72904688e-01
-6.30401094e-07,1.72895313e-01
-6.30361094e-07,1.72904688e-01
-6.30321094e-07,1.72895313e-01
-6.30281094e-07,1.72904688e-01
-6.30241094e-07,1.72893750e-01
-6.30201094e-07,1.72906250e-01
-6.30161094e-07,1.72893750e-01
-6.30121094e-07,1.72906250e-01
-6.30081094e-07,1.72893750e-01
-6.30041094e-07,1.72907813e-01
-6.30001094e-07,1.72892188e-01
-6.29961094e-07,1.72909375e-01
-6.29921094e-07,1.72890625e-01
-6.29881094e-07,1.72910938e-01
-6.29841094e-07,1.72887500e-01
-6.29801094e-07,1.72914062e-01
-6.29761094e-07,1.72882813e-01
-6.29721094e-07,1.72921875e-01
-6.29681094e-07,1.72868750e-01
-6.29641094e-07,1.72956250e-01
-6.29601094e-07,1.72690625e-01
-6.29561094e-07,1.72446875e-01
-6.29521094e-07,1.72531250e-01
-6.29481094e-07,1.72478125e-01
-6.29441094e-07,1.72518750e-01
-6.29401094e-07,1.72481250e-01
-6.29361094e-07,1.72520312e-01
-6.29321094e-07,1.72471875e-01
-6.29281094e-07,1.72550000e-01
-6.29241094e-07,1.72298438e-01
-6.29201094e-07,1.72035938e-01
-6.29161094e-07,1.72143750e-01
-6.29121094e-07,1.72062500e-01
-6.29081094e-07,1.72139062e-01
-6.29041094e-07,1.72053125e-01
-6.29001094e-07,1.72170313e-01
-6.28961094e-07,1.71876562e-01
-6.28921094e-07,1.71660937e-01
-6.28881094e-07,1.71714063e-01
-6.28841094e-07,1.71696875e-01
-6.28801094e-07,1.71695313e-01
-6.28761094e-07,1.71712500e-01
-6.28721094e-07,1.71676563e-01
-6.28681094e-07,1.71750000e-01
-6.28641094e-07,1.71495312e-01
-6.28601094e-07,1.71242188e-01
-6.28561094e-07,1.71332813e-01
-6.28521094e-07,1.71276563e-01
-6.28481094e-07,1.71317187e-01
-6.28441094e-07,1.71285938e-01
-6.28401094e-07,1.71310938e-01
-6.28361094e-07,1.71290625e-01
-6.28321094e-07,1.71307813e-01
-6.28281094e-07,1.71292187e-01
-6.28241094e-07,1.71306250e-01
-6.28201094e-07,1.71295313e-01
-6.28161094e-07,1.71304687e-01
-6.28121094e-07,1.71296875e-01
-6.28081094e-07,1.71303125e-01
-6.28041094e-07,1.71296875e-01
-6.28001094e-07,1.71301563e-01
-6.27961094e-07,1.71298438e-01
-6.27921094e-07,1.71300000e-01
-6.27881094e-07,1.71300000e-01
-6.27841094e-07,1.71298438e-01
-6.27801094e-07,1.71303125e-01
-6.27761094e-07,1.71295313e-01
-6.27721094e-07,1.71306250e-01
-6.27681094e-07,1.71292187e-01
-6.27641094e-07,1.71310938e-01
-6.27601094e-07,1.71284375e-01
-6.27561094e-07,1.71326563e-01
-6.27521094e-07,1.71248438e-01
-6.27481094e-07,1.71504688e-01
-6.27441094e-07,1.71757812e-01
-6.27401094e-07,1.71665625e-01
-6.27361094e-07,1.71725000e-01
-6.27321094e-07,1.71681250e-01
-6.27281094e-07,1.71717188e-01
-6.27241094e-07,1.71685937e-01
-6.27201094e-07,1.71712500e-01
-6.27161094e-07,1.71689063e-01
-6.27121094e-07,1.71710937e-01
-6.27081094e-07,1.71690625e-01
-6.27041094e-07,1.71709375e-01
-6.27001094e-07,1.71690625e-01
-6.26961094e-07,1.71707813e-01
-6.26921094e-07,1.71692188e-01
-6.26881094e-07,1.71707813e-01
-6.26841094e-07,1.71692188e-01
-6.26801094e-07,1.71707813e-01
-6.26761094e-07,1.71693750e-01
-6.26721094e-07,1.71706250e-01
-6.26681094e-07,1.71693750e-01
-6.26641094e-07,1.71706250e-01
-6.26601094e-07,1.71693750e-01
-6.26561094e-07,1.71706250e-01
-6.26521094e-07,1.71693750e-01
-6.26481094e-07,1.71706250e-01
-6.26441094e-07,1.71693750e-01
-6.26401094e-07,1.71706250e-01
-6.26361094e-07,1.71693750e-01
-6.26321094e-07,1.71706250e-01
-6.26281094e-07,1.71693750e-01
-6.26241094e-07,1.71706250e-01
-6.26201094e-07,1.71695313e-01
-6.26161094e-07,1.71706250e-01
-6.26121094e-07,1.71695313e-01
-6.26081094e-07,1.71704688e-01
-6.26041094e-07,1.71695313e-01
-6.26001094e-07,1.71706250e-01
-6.25961094e-07,1.71693750e-01
-6.25921094e-07,1.71706250e-01
-6.25881094e-07,1.71693750e-01
-6.25841094e-07,1.71706250e-01
-6.25801094e-07,1.71693750e-01
-6.25761094e-07,1.71706250e-01
-6.25721094e-07,1.71693750e-01
-6.25681094e-07,1.71706250e-01
-6.25641094e-07,1.71693750e-01
-6.25601094e-07,1.71706250e-01
-6.25561094e-07,1.71693750e-01
-6.25521094e-07,1.71706250e-01
-6.25481094e-07,1.71692188e-01
-6.25441094e-07,1.71707813e-01
-6.25401094e-07,1.71692188e-01
-6.25361094e-07,1.71707813e-01
-6.25321094e-07,1.71690625e-01
-6.25281094e-07,1.71709375e-01
-6.25241094e-07,1.71689063e-01
-6.25201094e-07,1.71712500e-01
-6.25161094e-07,1.71685937e-01
-6.25121094e-07,1.71717188e-01
-6.25081094e-07,1.71676563e-01
-6.25041094e-07,1.71732812e-01
-6.25001094e-07,1.71642188e-01
-6.24961094e-07,1.71910937e-01
-6.24921094e-07,1.72151562e-01
-6.24881094e-07,1.72071875e-01
-6.24841094e-07,1.72118750e-01
-6.24801094e-07,1.72085938e-01
-6.24761094e-07,1.72110938e-01
-6.24721094e-07,1.72090625e-01
-6.24681094e-07,1.72107813e-01
-6.24641094e-07,1.72093750e-01
-6.24601094e-07,1.72104688e-01
-6.24561094e-07,1.72095313e-01
-6.24521094e-07,1.72104688e-01
-6.24481094e-07,1.72096875e-01
-6.24441094e-07,1.72103125e-01
-6.24401094e-07,1.72096875e-01
-6.24361094e-07,1.72103125e-01
-6.24321094e-07,1.72098438e-01
-6.24281094e-07,1.72101562e-01
-6.24241094e-07,1.72098438e-01
-6.24201094e-07,1.72101562e-01
-6.24161094e-07,1.72098438e-01
-6.24121094e-07,1.72101562e-01
-6.24081094e-07,1.72098438e-01
-6.24041094e-07,1.72101562e-01
-6.24001094e-07,1.72098438e-01
-6.23961094e-07,1.72100000e-01
-6.23921094e-07,1.72100000e-01
-6.23881094e-07,1.72100000e-01
-6.23841094e-07,1.72100000e-01
-6.23801094e-07,1.72100000e-01
-6.23761094e-07,1.72100000e-01
-6.23721094e-07,1.72100000e-01
-6.23681094e-07,1.72100000e-01
-6.23641094e-07,1.72100000e-01
-6.23601094e-07,1.72100000e-01
-6.23561094e-07,1.72100000e-01
-6.23521094e-07,1.72100000e-01
-6.23481094e-07,1.72100000e-01
-6.23441094e-07,1.72101562e-01
-6.23401094e-07,1.72098438e-01
-6.23361094e-07,1.72101562e-01
-6.23321094e-07,1.72098438e-01
-6.23281094e-07,1.72101562e-01
-6.23241094e-07,1.72098438e-01
-6.23201094e-07,1.72103125e-01
-6.23161094e-07,1.72096875e-01
-6.23121094e-07,1.72103125e-01
-6.23081094e-07,1.72096875e-01
-6.23041094e-07,1.72104688e-01
-6.23001094e-07,1.72095313e-01
-6.22961094e-07,1.72106250e-01
-6.22921094e-07,1.72092187e-01
-6.22881094e-07,1.72109375e-01
-6.22841094e-07,1.72087500e-01
-6.22801094e-07,1.72117188e-01
-6.22761094e-07,1.72073438e-01
-6.22721094e-07,1.72151562e-01
-6.22681094e-07,1.71895313e-01
-6.22641094e-07,1.71642188e-01
-6.22601094e-07,1.71734375e-01
-6.22561094e-07,1.71675000e-01
-6.22521094e-07,1.71720312e-01
-6.22481094e-07,1.71682813e-01
-6.22441094e-07,1.71715625e-01
-6.22401094e-07,1.71685937e-01
-6.22361094e-07,1.71714063e-01
-6.22321094e-07,1.71685937e-01
-6.22281094e-07,1.71714063e-01
-6.22241094e-07,1.71684375e-01
-6.22201094e-07,1.71717188e-01
-6.22161094e-07,1.71681250e-01
-6.22121094e-07,1.71723438e-01
-6.22081094e-07,1.71667188e-01
-6.22041094e-07,1.71757812e-01
-6.22001094e-07,1.71490625e-01
-6.21961094e-07,1.71246875e-01
-6.21921094e-07,1.71329687e-01
-6.21881094e-07,1.71278125e-01
-6.21841094e-07,1.71317187e-01
-6.21801094e-07,1.71284375e-01
-6.21761094e-07,1.71315625e-01
-6.21721094e-07,1.71282812e-01
-6.21681094e-07,1.71321875e-01
-6.21641094e-07,1.71270312e-01
-6.21601094e-07,1.71353125e-01
-6.21561094e-07,1.71093750e-01
-6.21521094e-07,1.70842188e-01
-6.21481094e-07,1.70934375e-01
-6.21441094e-07,1.70873438e-01
-6.21401094e-07,1.70921875e-01
-6.21361094e-07,1.70878125e-01
-6.21321094e-07,1.70921875e-01
-6.21281094e-07,1.70876562e-01
-6.21241094e-07,1.70926563e-01
-6.21201094e-07,1.70864062e-01
-6.21161094e-07,1.70960937e-01
-6.21121094e-07,1.70687500e-01
-6.21081094e-07,1.70450000e-01
-6.21041094e-07,1.70526563e-01
-6.21001094e-07,1.70482812e-01
-6.20961094e-07,1.70512500e-01
-6.20921094e-07,1.70490625e-01
-6.20881094e-07,1.70507812e-01
-6.20841094e-07,1.70493750e-01
-6.20801094e-07,1.70506250e-01
-6.20761094e-07,1.70495312e-01
-6.20721094e-07,1.70504688e-01
-6.20681094e-07,1.70495312e-01
-6.20641094e-07,1.70503125e-01
-6.20601094e-07,1.70496875e-01
-6.20561094e-07,1.70503125e-01
-6.20521094e-07,1.70496875e-01
-6.20481094e-07,1.70503125e-01
-6.20441094e-07,1.70496875e-01
-6.20401094e-07,1.70503125e-01
-6.20361094e-07,1.70496875e-01
-6.20321094e-07,1.70503125e-01
-6.20281094e-07,1.70495312e-01
-6.20241094e-07,1.70504688e-01
-6.20201094e-07,1.70495312e-01
-6.20161094e-07,1.70506250e-01
-6.20121094e-07,1.70493750e-01
-6.20081094e-07,1.70507812e-01
-6.20041094e-07,1.70490625e-01
-6.20001094e-07,1.70512500e-01
-6.19961094e-07,1.70482812e-01
-6.19921094e-07,1.70526563e-01
-6.19881094e-07,1.70448437e-01
-6.19841094e-07,1.70703125e-01
-6.19801094e-07,1.70959375e-01
-6.19761094e-07,1.70864062e-01
-6.19721094e-07,1.70926563e-01
-6.19681094e-07,1.70876562e-01
-6.19641094e-07,1.70921875e-01
-6.19601094e-07,1.70879688e-01
-6.19561094e-07,1.70921875e-01
-6.19521094e-07,1.70873438e-01
-6.19481094e-07,1.70934375e-01
-6.19441094e-07,1.70842188e-01
-6.19401094e-07,1.71109375e-01
-6.19361094e-07,1.71353125e-01
-6.19321094e-07,1.71268750e-01
-6.19281094e-07,1.71323438e-01
-6.19241094e-07,1.71279687e-01
-6.19201094e-07,1.71320313e-01
-6.19161094e-07,1.71276563e-01
-6.19121094e-07,1.71331250e-01
-6.19081094e-07,1.71243750e-01
-6.19041094e-07,1.71507812e-01
-6.19001094e-07,1.71754688e-01
-6.18961094e-07,1.71667188e-01
-6.18921094e-07,1.71723438e-01
-6.18881094e-07,1.71681250e-01
-6.18841094e-07,1.71717188e-01
-6.18801094e-07,1.71684375e-01
-6.18761094e-07,1.71715625e-01
-6.18721094e-07,1.71684375e-01
-6.18681094e-07,1.71715625e-01
-6.18641094e-07,1.71682813e-01
-6.18601094e-07,1.71720312e-01
-6.18561094e-07,1.71675000e-01
-6.18521094e-07,1.71732812e-01
-6.18481094e-07,1.71642188e-01
-6.18441094e-07,1.71910937e-01
-6.18401094e-07,1.72153125e-01
-6.18361094e-07,1.72070313e-01
-6.18321094e-07,1.72120313e-01
-6.18281094e-07,1.72082813e-01
-6.18241094e-07,1.72115625e-01
-6.18201094e-07,1.72085938e-01
-6.18161094e-07,1.72114062e-01
-6.18121094e-07,1.72082813e-01
-6.18081094e-07,1.72120313e-01
-6.18041094e-07,1.72070313e-01
-6.18001094e-07,1.72154688e-01
-6.17961094e-07,1.71893750e-01
-6.17921094e-07,1.71643750e-01
-6.17881094e-07,1.71732812e-01
-6.17841094e-07,1.71676563e-01
-6.17801094e-07,1.71718750e-01
-6.17761094e-07,1.71682813e-01
-6.17721094e-07,1.71715625e-01
-6.17681094e-07,1.71685937e-01
-6.17641094e-07,1.71714063e-01
-6.17601094e-07,1.71685937e-01
-6.17561094e-07,1.71712500e-01
-6.17521094e-07,1.71685937e-01
-6.17481094e-07,1.71714063e-01
-6.17441094e-07,1.71685937e-01
-6.17401094e-07,1.71715625e-01
-6.17361094e-07,1.71682813e-01
-6.17321094e-07,1.71718750e-01
-6.17281094e-07,1.71678125e-01
-6.17241094e-07,1.71726563e-01
-6.17201094e-07,1.71664062e-01
-6.17161094e-07,1.71760938e-01
-6.17121094e-07,1.71485938e-01
-6.17081094e-07,1.71251563e-01
-6.17041094e-07,1.71325000e-01
-6.17001094e-07,1.71284375e-01
-6.16961094e-07,1.71309375e-01
-6.16921094e-07,1.71293750e-01
-6.16881094e-07,1.71304687e-01
-6.16841094e-07,1.71296875e-01
-6.16801094e-07,1.71301563e-01
-6.16761094e-07,1.71298438e-01
-6.16721094e-07,1.71300000e-01
-6.16681094e-07,1.71300000e-01
-6.16641094e-07,1.71298438e-01
-6.16601094e-07,1.71301563e-01
-6.16561094e-07,1.71298438e-01
-6.16521094e-07,1.71303125e-01
-6.16481094e-07,1.71296875e-01
-6.16441094e-07,1.71303125e-01
-6.16401094e-07,1.71295313e-01
-6.16361094e-07,1.71304687e-01
-6.16321094e-07,1.71293750e-01
-6.16281094e-07,1.71306250e-01
-6.16241094e-07,1.71292187e-01
-6.16201094e-07,1.71307813e-01
-6.16161094e-07,1.71290625e-01
-6.16121094e-07,1.71310938e-01
-6.16081094e-07,1.71285938e-01
-6.16041094e-07,1.71317187e-01
-6.16001094e-07,1.71278125e-01
-6.15961094e-07,1.71332813e-01
-6.15921094e-07,1.71242188e-01
-6.15881094e-07,1.71510938e-01
-6.15841094e-07,1.71750000e-01
-6.15801094e-07,1.71673437e-01
-6.15761094e-07,1.71715625e-01
-6.15721094e-07,1.71690625e-01
-6.15681094e-07,1.71704688e-01
-6.15641094e-07,1.71700000e-01
-6.15601094e-07,1.71693750e-01
-6.15561094e-07,1.71715625e-01
-6.15521094e-07,1.71657813e-01
-6.15481094e-07,1.71895313e-01
-6.15441094e-07,1.72168750e-01
-6.15401094e-07,1.72054687e-01
-6.15361094e-07,1.72137500e-01
-6.15321094e-07,1.72065625e-01
-6.15281094e-07,1.72134375e-01
-6.15241094e-07,1.72064063e-01
-6.15201094e-07,1.72145313e-01
-6.15161094e-07,1.72031250e-01
-6.15121094e-07,1.72320313e-01
-6.15081094e-07,1.72542187e-01
-6.15041094e-07,1.72481250e-01
-6.15001094e-07,1.72509375e-01
-6.14961094e-07,1.72496875e-01
-6.14921094e-07,1.72500000e-01
-6.14881094e-07,1.72503125e-01
-6.14841094e-07,1.72493750e-01
-6.14801094e-07,1.72509375e-01
-6.14761094e-07,1.72484375e-01
-6.14721094e-07,1.72525000e-01
-6.14681094e-07,1.72448437e-01
-6.14641094e-07,1.72704688e-01
-6.14601094e-07,1.72957813e-01
-6.14561094e-07,1.72865625e-01
-6.14521094e-07,1.72925000e-01
