trails/0b415fe76bd122fbe60d5dd91566c6d8/aes_ch1_20250507111814739.csv

Model,MSO66B
Label,
Waveform Type,ANALOG
Horizontal Units,s
Sample Interval,4.00000000e-11
Record Length,10000
Zero Index,1599.06640625
Vertical Units,A
ANALOG_Thumbnail,
yOffset,1.84500000e-01
yPosition,8.40000000e-01

Labels,
TIME,CH1
-6.39626562e-08,1.86498438e-01
-6.39226562e-08,1.86501562e-01
-6.38826563e-08,1.86498438e-01
-6.38426562e-08,1.86501562e-01
-6.38026563e-08,1.86498438e-01
-6.37626562e-08,1.86501562e-01
-6.37226562e-08,1.86498438e-01
-6.36826562e-08,1.86501562e-01
-6.36426562e-08,1.86498438e-01
-6.36026563e-08,1.86501562e-01
-6.35626562e-08,1.86498438e-01
-6.35226562e-08,1.86501562e-01
-6.34826562e-08,1.86498438e-01
-6.34426562e-08,1.86501562e-01
-6.34026562e-08,1.86498438e-01
-6.33626562e-08,1.86501562e-01
-6.33226563e-08,1.86498438e-01
-6.32826562e-08,1.86501562e-01
-6.32426562e-08,1.86498438e-01
-6.32026562e-08,1.86501562e-01
-6.31626562e-08,1.86498438e-01
-6.31226562e-08,1.86500000e-01
-6.30826562e-08,1.86498438e-01
-6.30426563e-08,1.86500000e-01
-6.30026562e-08,1.86500000e-01
-6.29626562e-08,1.86500000e-01
-6.29226562e-08,1.86500000e-01
-6.28826562e-08,1.86500000e-01
-6.28426562e-08,1.86500000e-01
-6.28026562e-08,1.86500000e-01
-6.27626563e-08,1.86500000e-01
-6.27226562e-08,1.86500000e-01
-6.26826562e-08,1.86500000e-01
-6.26426562e-08,1.86500000e-01
-6.26026562e-08,1.86500000e-01
-6.25626562e-08,1.86500000e-01
-6.25226562e-08,1.86500000e-01
-6.24826563e-08,1.86500000e-01
-6.24426562e-08,1.86500000e-01
-6.24026562e-08,1.86500000e-01
-6.23626562e-08,1.86500000e-01
-6.23226562e-08,1.86500000e-01
-6.22826562e-08,1.86500000e-01
-6.22426562e-08,1.86500000e-01
-6.22026563e-08,1.86500000e-01
-6.21626562e-08,1.86500000e-01
-6.21226562e-08,1.86500000e-01
-6.20826562e-08,1.86498438e-01
-6.20426562e-08,1.86501562e-01
-6.20026562e-08,1.86498438e-01
-6.19626562e-08,1.86501562e-01
-6.19226563e-08,1.86498438e-01
-6.18826562e-08,1.86501562e-01
-6.18426562e-08,1.86496875e-01
-6.18026562e-08,1.86503125e-01
-6.17626562e-08,1.86495313e-01
-6.17226562e-08,1.86504688e-01
-6.16826562e-08,1.86493750e-01
-6.16426563e-08,1.86507813e-01
-6.16026562e-08,1.86489062e-01
-6.15626562e-08,1.86515625e-01
-6.15226562e-08,1.86475000e-01
-6.14826562e-08,1.86550000e-01
-6.14426563e-08,1.86296875e-01
-6.14026562e-08,1.86039063e-01
-6.13626563e-08,1.86137500e-01
-6.13226562e-08,1.86071875e-01
-6.12826562e-08,1.86123438e-01
-6.12426562e-08,1.86078125e-01
-6.12026562e-08,1.86121875e-01
-6.11626563e-08,1.86078125e-01
-6.11226562e-08,1.86121875e-01
-6.10826563e-08,1.86075000e-01
-6.10426562e-08,1.86129688e-01
-6.10026562e-08,1.86060937e-01
-6.09626562e-08,1.86162500e-01
-6.09226562e-08,1.85884375e-01
-6.08826563e-08,1.85654687e-01
-6.08426562e-08,1.85721875e-01
-6.08026563e-08,1.85687500e-01
-6.07626562e-08,1.85706250e-01
-6.07226562e-08,1.85696875e-01
-6.06826562e-08,1.85700000e-01
-6.06426562e-08,1.85703125e-01
-6.06026563e-08,1.85692187e-01
-6.05626562e-08,1.85712500e-01
-6.05226563e-08,1.85676563e-01
-6.04826562e-08,1.85748438e-01
-6.04426562e-08,1.85498438e-01
-6.04026562e-08,1.85239062e-01
-6.03626562e-08,1.85337500e-01
-6.03226563e-08,1.85271875e-01
-6.02826562e-08,1.85325000e-01
-6.02426563e-08,1.85278125e-01
-6.02026562e-08,1.85320313e-01
-6.01626562e-08,1.85279688e-01
-6.01226562e-08,1.85321875e-01
-6.00826562e-08,1.85276563e-01
-6.00426563e-08,1.85328125e-01
-6.00026562e-08,1.85262500e-01
-5.99626563e-08,1.85360938e-01
-5.99226562e-08,1.85085938e-01
-5.98826562e-08,1.84851563e-01
-5.98426562e-08,1.84925000e-01
-5.98026562e-08,1.84884375e-01
-5.97626563e-08,1.84910938e-01
-5.97226562e-08,1.84892187e-01
-5.96826563e-08,1.84906250e-01
-5.96426562e-08,1.84893750e-01
-5.96026562e-08,1.84904687e-01
-5.95626562e-08,1.84896875e-01
-5.95226562e-08,1.84903125e-01
-5.94826562e-08,1.84896875e-01
-5.94426562e-08,1.84903125e-01
-5.94026562e-08,1.84896875e-01
-5.93626562e-08,1.84901563e-01
-5.93226562e-08,1.84898438e-01
-5.92826562e-08,1.84901563e-01
-5.92426562e-08,1.84898438e-01
-5.92026562e-08,1.84901563e-01
-5.91626562e-08,1.84898438e-01
-5.91226562e-08,1.84901563e-01
-5.90826562e-08,1.84898438e-01
-5.90426562e-08,1.84901563e-01
-5.90026562e-08,1.84896875e-01
-5.89626562e-08,1.84903125e-01
-5.89226562e-08,1.84896875e-01
-5.88826562e-08,1.84903125e-01
-5.88426562e-08,1.84895313e-01
-5.88026562e-08,1.84904687e-01
-5.87626562e-08,1.84893750e-01
-5.87226562e-08,1.84906250e-01
-5.86826562e-08,1.84890625e-01
-5.86426562e-08,1.84910938e-01
-5.86026562e-08,1.84884375e-01
-5.85626562e-08,1.84925000e-01
-5.85226562e-08,1.84850000e-01
-5.84826562e-08,1.85103125e-01
-5.84426562e-08,1.85359375e-01
-5.84026562e-08,1.85264062e-01
-5.83626562e-08,1.85326563e-01
-5.83226562e-08,1.85278125e-01
-5.82826562e-08,1.85320313e-01
-5.82426562e-08,1.85281250e-01
-5.82026562e-08,1.85318750e-01
-5.81626562e-08,1.85281250e-01
-5.81226562e-08,1.85318750e-01
-5.80826562e-08,1.85281250e-01
-5.80426562e-08,1.85320313e-01
-5.80026562e-08,1.85276563e-01
-5.79626562e-08,1.85328125e-01
-5.79226562e-08,1.85260938e-01
-5.78826562e-08,1.85362500e-01
-5.78426562e-08,1.85084375e-01
-5.78026562e-08,1.84854688e-01
-5.77626562e-08,1.84921875e-01
-5.77226562e-08,1.84887500e-01
-5.76826562e-08,1.84906250e-01
-5.76426562e-08,1.84896875e-01
-5.76026562e-08,1.84900000e-01
-5.75626562e-08,1.84903125e-01
-5.75226562e-08,1.84893750e-01
-5.74826562e-08,1.84909375e-01
-5.74426562e-08,1.84884375e-01
-5.74026562e-08,1.84925000e-01
-5.73626562e-08,1.84848438e-01
-5.73226562e-08,1.85104688e-01
-5.72826562e-08,1.85357812e-01
-5.72426562e-08,1.85265625e-01
-5.72026562e-08,1.85325000e-01
-5.71626562e-08,1.85279688e-01
-5.71226562e-08,1.85317188e-01
-5.70826562e-08,1.85285937e-01
-5.70426562e-08,1.85312500e-01
-5.70026562e-08,1.85287500e-01
-5.69626562e-08,1.85310937e-01
-5.69226562e-08,1.85289063e-01
-5.68826562e-08,1.85310937e-01
-5.68426562e-08,1.85289063e-01
-5.68026562e-08,1.85310937e-01
-5.67626562e-08,1.85287500e-01
-5.67226562e-08,1.85312500e-01
-5.66826562e-08,1.85285937e-01
-5.66426562e-08,1.85317188e-01
-5.66026562e-08,1.85278125e-01
-5.65626562e-08,1.85331250e-01
-5.65226562e-08,1.85243750e-01
-5.64826562e-08,1.85507813e-01
-5.64426562e-08,1.85754688e-01
-5.64026562e-08,1.85668750e-01
-5.63626562e-08,1.85721875e-01
-5.63226562e-08,1.85681250e-01
-5.62826562e-08,1.85715625e-01
-5.62426562e-08,1.85684375e-01
-5.62026562e-08,1.85715625e-01
-5.61626562e-08,1.85684375e-01
-5.61226562e-08,1.85718750e-01
-5.60826562e-08,1.85676563e-01
-5.60426562e-08,1.85731250e-01
-5.60026562e-08,1.85643750e-01
-5.59626562e-08,1.85909375e-01
-5.59226562e-08,1.86154687e-01
-5.58826562e-08,1.86068750e-01
-5.58426562e-08,1.86121875e-01
-5.58026562e-08,1.86082812e-01
-5.57626562e-08,1.86114063e-01
-5.57226562e-08,1.86087500e-01
-5.56826562e-08,1.86112500e-01
-5.56426562e-08,1.86087500e-01
-5.56026562e-08,1.86112500e-01
-5.55626562e-08,1.86087500e-01
-5.55226562e-08,1.86114063e-01
-5.54826562e-08,1.86084375e-01
-5.54426562e-08,1.86117188e-01
-5.54026562e-08,1.86078125e-01
-5.53626562e-08,1.86131250e-01
-5.53226562e-08,1.86043750e-01
-5.52826562e-08,1.86309375e-01
-5.52426562e-08,1.86553125e-01
-5.52026562e-08,1.86470313e-01
-5.51626562e-08,1.86520313e-01
-5.51226562e-08,1.86484375e-01
-5.50826562e-08,1.86512500e-01
-5.50426562e-08,1.86489062e-01
-5.50026562e-08,1.86509375e-01
-5.49626562e-08,1.86490625e-01
-5.49226562e-08,1.86507813e-01
-5.48826562e-08,1.86492188e-01
-5.48426562e-08,1.86507813e-01
-5.48026562e-08,1.86493750e-01
-5.47626562e-08,1.86506250e-01
-5.47226562e-08,1.86493750e-01
-5.46826562e-08,1.86506250e-01
-5.46426562e-08,1.86493750e-01
-5.46026562e-08,1.86506250e-01
-5.45626562e-08,1.86493750e-01
-5.45226562e-08,1.86507813e-01
-5.44826562e-08,1.86492188e-01
-5.44426562e-08,1.86507813e-01
-5.44026562e-08,1.86490625e-01
-5.43626562e-08,1.86509375e-01
-5.43226562e-08,1.86489062e-01
-5.42826562e-08,1.86512500e-01
-5.42426562e-08,1.86484375e-01
-5.42026562e-08,1.86521875e-01
-5.41626562e-08,1.86468750e-01
-5.41226562e-08,1.86556250e-01
-5.40826562e-08,1.86292188e-01
-5.40426563e-08,1.86045313e-01
-5.40026562e-08,1.86129688e-01
-5.39626562e-08,1.86079688e-01
-5.39226562e-08,1.86115625e-01
-5.38826562e-08,1.86085938e-01
-5.38426562e-08,1.86110938e-01
-5.38026562e-08,1.86089063e-01
-5.37626562e-08,1.86109375e-01
-5.37226562e-08,1.86090625e-01
-5.36826562e-08,1.86107812e-01
-5.36426562e-08,1.86092188e-01
-5.36026562e-08,1.86107812e-01
-5.35626562e-08,1.86092188e-01
-5.35226562e-08,1.86107812e-01
-5.34826562e-08,1.86092188e-01
-5.34426562e-08,1.86107812e-01
-5.34026562e-08,1.86090625e-01
-5.33626562e-08,1.86109375e-01
-5.33226562e-08,1.86089063e-01
-5.32826562e-08,1.86112500e-01
-5.32426562e-08,1.86085938e-01
-5.32026562e-08,1.86117188e-01
-5.31626562e-08,1.86078125e-01
-5.31226562e-08,1.86131250e-01
-5.30826562e-08,1.86043750e-01
-5.30426562e-08,1.86309375e-01
-5.30026562e-08,1.86551563e-01
-5.29626562e-08,1.86471875e-01
-5.29226562e-08,1.86518750e-01
-5.28826562e-08,1.86485938e-01
-5.28426562e-08,1.86510938e-01
-5.28026562e-08,1.86492188e-01
-5.27626562e-08,1.86506250e-01
-5.27226562e-08,1.86495313e-01
-5.26826562e-08,1.86501562e-01
-5.26426562e-08,1.86500000e-01
-5.26026562e-08,1.86498438e-01
-5.25626562e-08,1.86504688e-01
-5.25226562e-08,1.86489062e-01
-5.24826562e-08,1.86520313e-01
-5.24426562e-08,1.86454687e-01
-5.24026562e-08,1.86698438e-01
-5.23626562e-08,1.86964063e-01
-5.23226562e-08,1.86859375e-01
-5.22826562e-08,1.86932813e-01
-5.22426562e-08,1.86871875e-01
-5.22026562e-08,1.86926563e-01
-5.21626562e-08,1.86873438e-01
-5.21226563e-08,1.86928125e-01
-5.20826562e-08,1.86868750e-01
-5.20426562e-08,1.86940625e-01
-5.20026562e-08,1.86835937e-01
-5.19626562e-08,1.87115625e-01
-5.19226562e-08,1.87348438e-01
-5.18826562e-08,1.87275000e-01
-5.18426562e-08,1.87317188e-01
-5.18026562e-08,1.87285937e-01
-5.17626562e-08,1.87314063e-01
-5.17226562e-08,1.87282813e-01
-5.16826562e-08,1.87325000e-01
-5.16426562e-08,1.87250000e-01
-5.16026562e-08,1.87501562e-01
-5.15626562e-08,1.87762500e-01
-5.15226562e-08,1.87660938e-01
-5.14826562e-08,1.87731250e-01
-5.14426562e-08,1.87673438e-01
-5.14026562e-08,1.87725000e-01
-5.13626562e-08,1.87675000e-01
-5.13226562e-08,1.87725000e-01
-5.12826562e-08,1.87673438e-01
-5.12426562e-08,1.87729688e-01
-5.12026562e-08,1.87665625e-01
-5.11626562e-08,1.87743750e-01
-5.11226562e-08,1.87631250e-01
-5.10826562e-08,1.87921875e-01
-5.10426562e-08,1.88140625e-01
-5.10026562e-08,1.88084375e-01
-5.09626562e-08,1.88106250e-01
-5.09226562e-08,1.88100000e-01
-5.08826562e-08,1.88096875e-01
-5.08426562e-08,1.88106250e-01
-5.08026562e-08,1.88090625e-01
-5.07626562e-08,1.88112500e-01
-5.07226562e-08,1.88082813e-01
-5.06826562e-08,1.88121875e-01
-5.06426562e-08,1.88067188e-01
-5.06026562e-08,1.88157813e-01
-5.05626562e-08,1.87887500e-01
-5.05226562e-08,1.87651563e-01
-5.04826562e-08,1.87725000e-01
-5.04426562e-08,1.87685938e-01
-5.04026562e-08,1.87707813e-01
-5.03626562e-08,1.87695313e-01
-5.03226562e-08,1.87700000e-01
-5.02826562e-08,1.87703125e-01
-5.02426562e-08,1.87693750e-01
-5.02026563e-08,1.87712500e-01
-5.01626562e-08,1.87676563e-01
-5.01226562e-08,1.87748438e-01
-5.00826562e-08,1.87498438e-01
-5.00426562e-08,1.87239062e-01
-5.00026562e-08,1.87337500e-01
-4.99626562e-08,1.87270313e-01
-4.99226563e-08,1.87326563e-01
-4.98826562e-08,1.87275000e-01
-4.98426562e-08,1.87328125e-01
-4.98026562e-08,1.87264062e-01
-4.97626562e-08,1.87357812e-01
-4.97226562e-08,1.87090625e-01
-4.96826562e-08,1.86845312e-01
-4.96426562e-08,1.86932813e-01
-4.96026562e-08,1.86875000e-01
-4.95626562e-08,1.86921875e-01
-4.95226562e-08,1.86876563e-01
-4.94826562e-08,1.86926563e-01
-4.94426562e-08,1.86865625e-01
-4.94026562e-08,1.86957813e-01
-4.93626562e-08,1.86689063e-01
-4.93226562e-08,1.86446875e-01
-4.92826562e-08,1.86529688e-01
-4.92426562e-08,1.86478125e-01
-4.92026562e-08,1.86518750e-01
-4.91626562e-08,1.86481250e-01
-4.91226562e-08,1.86520313e-01
-4.90826562e-08,1.86471875e-01
-4.90426562e-08,1.86551563e-01
-4.90026562e-08,1.86296875e-01
-4.89626562e-08,1.86039063e-01
-4.89226562e-08,1.86139063e-01
-4.88826562e-08,1.86068750e-01
-4.88426562e-08,1.86129688e-01
-4.88026562e-08,1.86068750e-01
-4.87626562e-08,1.86134375e-01
-4.87226562e-08,1.86056250e-01
-4.86826562e-08,1.86167187e-01
-4.86426562e-08,1.85879688e-01
-4.86026562e-08,1.85659375e-01
-4.85626562e-08,1.85717188e-01
-4.85226562e-08,1.85693750e-01
-4.84826562e-08,1.85700000e-01
-4.84426562e-08,1.85704688e-01
-4.84026562e-08,1.85689063e-01
-4.83626562e-08,1.85717188e-01
-4.83226562e-08,1.85671875e-01
-4.82826563e-08,1.85754688e-01
-4.82426562e-08,1.85492188e-01
-4.82026562e-08,1.85246875e-01
-4.81626562e-08,1.85328125e-01
-4.81226562e-08,1.85281250e-01
-4.80826562e-08,1.85312500e-01
-4.80426562e-08,1.85290625e-01
-4.80026563e-08,1.85306250e-01
-4.79626562e-08,1.85296875e-01
-4.79226562e-08,1.85300000e-01
-4.78826562e-08,1.85303125e-01
-4.78426562e-08,1.85292188e-01
-4.78026562e-08,1.85312500e-01
-4.77626562e-08,1.85276563e-01
-4.77226563e-08,1.85348438e-01
-4.76826562e-08,1.85096875e-01
-4.76426562e-08,1.84840625e-01
-4.76026562e-08,1.84934375e-01
-4.75626562e-08,1.84875000e-01
-4.75226562e-08,1.84920313e-01
-4.74826562e-08,1.84882812e-01
-4.74426562e-08,1.84914063e-01
-4.74026562e-08,1.84887500e-01
-4.73626562e-08,1.84910938e-01
-4.73226562e-08,1.84889063e-01
-4.72826562e-08,1.84909375e-01
-4.72426562e-08,1.84892187e-01
-4.72026562e-08,1.84907813e-01
-4.71626562e-08,1.84892187e-01
-4.71226562e-08,1.84906250e-01
-4.70826562e-08,1.84893750e-01
-4.70426562e-08,1.84906250e-01
-4.70026562e-08,1.84895313e-01
-4.69626562e-08,1.84904687e-01
-4.69226562e-08,1.84895313e-01
-4.68826562e-08,1.84904687e-01
-4.68426562e-08,1.84896875e-01
-4.68026562e-08,1.84903125e-01
-4.67626562e-08,1.84896875e-01
-4.67226562e-08,1.84903125e-01
-4.66826562e-08,1.84896875e-01
-4.66426562e-08,1.84901563e-01
-4.66026562e-08,1.84898438e-01
-4.65626562e-08,1.84901563e-01
-4.65226562e-08,1.84898438e-01
-4.64826562e-08,1.84900000e-01
-4.64426562e-08,1.84900000e-01
-4.64026562e-08,1.84900000e-01
-4.63626563e-08,1.84901563e-01
-4.63226562e-08,1.84898438e-01
-4.62826562e-08,1.84901563e-01
-4.62426562e-08,1.84896875e-01
-4.62026562e-08,1.84904687e-01
-4.61626562e-08,1.84895313e-01
-4.61226562e-08,1.84906250e-01
-4.60826563e-08,1.84890625e-01
-4.60426562e-08,1.84912500e-01
-4.60026562e-08,1.84882812e-01
-4.59626562e-08,1.84926563e-01
-4.59226562e-08,1.84848438e-01
-4.58826562e-08,1.85104688e-01
-4.58426562e-08,1.85356250e-01
-4.58026563e-08,1.85267188e-01
-4.57626562e-08,1.85323438e-01
-4.57226562e-08,1.85281250e-01
-4.56826562e-08,1.85315625e-01
-4.56426562e-08,1.85287500e-01
-4.56026562e-08,1.85310937e-01
-4.55626562e-08,1.85290625e-01
-4.55226563e-08,1.85309375e-01
-4.54826562e-08,1.85292188e-01
-4.54426562e-08,1.85306250e-01
-4.54026562e-08,1.85293750e-01
-4.53626562e-08,1.85304688e-01
-4.53226562e-08,1.85295313e-01
-4.52826562e-08,1.85303125e-01
-4.52426562e-08,1.85298437e-01
-4.52026562e-08,1.85300000e-01
-4.51626562e-08,1.85303125e-01
-4.51226562e-08,1.85292188e-01
-4.50826562e-08,1.85317188e-01
-4.50426562e-08,1.85259375e-01
-4.50026562e-08,1.85492188e-01
-4.49626562e-08,1.85771875e-01
-4.49226562e-08,1.85650000e-01
-4.48826562e-08,1.85745313e-01
-4.48426562e-08,1.85650000e-01
-4.48026562e-08,1.85771875e-01
-4.47626562e-08,1.85476562e-01
-4.47226562e-08,1.85259375e-01
-4.46826562e-08,1.85317188e-01
-4.46426562e-08,1.85290625e-01
-4.46026562e-08,1.85304688e-01
-4.45626562e-08,1.85296875e-01
-4.45226562e-08,1.85301563e-01
-4.44826562e-08,1.85300000e-01
-4.44426563e-08,1.85300000e-01
-4.44026562e-08,1.85300000e-01
-4.43626562e-08,1.85298437e-01
-4.43226562e-08,1.85301563e-01
-4.42826562e-08,1.85298437e-01
-4.42426562e-08,1.85301563e-01
-4.42026562e-08,1.85298437e-01
-4.41626563e-08,1.85301563e-01
-4.41226562e-08,1.85298437e-01
-4.40826562e-08,1.85301563e-01
-4.40426562e-08,1.85298437e-01
-4.40026562e-08,1.85301563e-01
-4.39626562e-08,1.85298437e-01
-4.39226562e-08,1.85301563e-01
-4.38826563e-08,1.85298437e-01
-4.38426562e-08,1.85301563e-01
-4.38026562e-08,1.85298437e-01
-4.37626562e-08,1.85301563e-01
-4.37226562e-08,1.85298437e-01
-4.36826562e-08,1.85301563e-01
-4.36426562e-08,1.85298437e-01
-4.36026563e-08,1.85301563e-01
-4.35626562e-08,1.85298437e-01
-4.35226562e-08,1.85300000e-01
-4.34826562e-08,1.85300000e-01
-4.34426562e-08,1.85300000e-01
-4.34026562e-08,1.85300000e-01
-4.33626562e-08,1.85300000e-01
-4.33226563e-08,1.85300000e-01
-4.32826562e-08,1.85300000e-01
-4.32426562e-08,1.85300000e-01
-4.32026562e-08,1.85298437e-01
-4.31626562e-08,1.85301563e-01
-4.31226562e-08,1.85298437e-01
-4.30826562e-08,1.85301563e-01
-4.30426562e-08,1.85296875e-01
-4.30026562e-08,1.85303125e-01
-4.29626562e-08,1.85295313e-01
-4.29226562e-08,1.85304688e-01
-4.28826562e-08,1.85293750e-01
-4.28426562e-08,1.85307813e-01
-4.28026562e-08,1.85290625e-01
-4.27626562e-08,1.85312500e-01
-4.27226562e-08,1.85281250e-01
-4.26826562e-08,1.85328125e-01
-4.26426562e-08,1.85246875e-01
-4.26026562e-08,1.85506250e-01
-4.25626562e-08,1.85756250e-01
-4.25226563e-08,1.85668750e-01
-4.24826562e-08,1.85721875e-01
-4.24426562e-08,1.85684375e-01
-4.24026562e-08,1.85712500e-01
-4.23626562e-08,1.85689063e-01
-4.23226562e-08,1.85707813e-01
-4.22826562e-08,1.85695313e-01
-4.22426563e-08,1.85703125e-01
-4.22026562e-08,1.85700000e-01
-4.21626562e-08,1.85693750e-01
-4.21226562e-08,1.85715625e-01
-4.20826562e-08,1.85659375e-01
-4.20426562e-08,1.85893750e-01
-4.20026562e-08,1.86168750e-01
-4.19626563e-08,1.86054688e-01
-4.19226562e-08,1.86137500e-01
-4.18826562e-08,1.86067188e-01
-4.18426562e-08,1.86131250e-01
-4.18026562e-08,1.86068750e-01
-4.17626562e-08,1.86134375e-01
-4.17226562e-08,1.86062500e-01
-4.16826563e-08,1.86146875e-01
-4.16426562e-08,1.86028125e-01
-4.16026562e-08,1.86323437e-01
-4.15626562e-08,1.86539063e-01
-4.15226562e-08,1.86485938e-01
-4.14826562e-08,1.86504688e-01
-4.14426562e-08,1.86500000e-01
-4.14026563e-08,1.86495313e-01
-4.13626562e-08,1.86507813e-01
-4.13226562e-08,1.86489062e-01
-4.12826562e-08,1.86514062e-01
-4.12426562e-08,1.86479688e-01
-4.12026562e-08,1.86531250e-01
-4.11626562e-08,1.86443750e-01
-4.11226563e-08,1.86709375e-01
-4.10826562e-08,1.86953125e-01
-4.10426562e-08,1.86871875e-01
-4.10026562e-08,1.86918750e-01
-4.09626562e-08,1.86885938e-01
-4.09226562e-08,1.86910938e-01
-4.08826562e-08,1.86890625e-01
-4.08426562e-08,1.86907812e-01
-4.08026562e-08,1.86893750e-01
-4.07626562e-08,1.86904687e-01
-4.07226562e-08,1.86895313e-01
-4.06826562e-08,1.86904687e-01
-4.06426562e-08,1.86896875e-01
-4.06026563e-08,1.86903125e-01
-4.05626562e-08,1.86896875e-01
-4.05226562e-08,1.86903125e-01
-4.04826562e-08,1.86898438e-01
-4.04426562e-08,1.86901563e-01
-4.04026562e-08,1.86898438e-01
-4.03626562e-08,1.86901563e-01
-4.03226563e-08,1.86898438e-01
-4.02826562e-08,1.86901563e-01
-4.02426562e-08,1.86898438e-01
-4.02026562e-08,1.86901563e-01
-4.01626562e-08,1.86898438e-01
-4.01226562e-08,1.86901563e-01
-4.00826562e-08,1.86898438e-01
-4.00426563e-08,1.86901563e-01
-4.00026562e-08,1.86898438e-01
-3.99626562e-08,1.86901563e-01
-3.99226562e-08,1.86898438e-01
-3.98826562e-08,1.86901563e-01
-3.98426562e-08,1.86898438e-01
-3.98026562e-08,1.86901563e-01
-3.97626563e-08,1.86898438e-01
-3.97226562e-08,1.86901563e-01
-3.96826562e-08,1.86898438e-01
-3.96426562e-08,1.86901563e-01
-3.96026562e-08,1.86898438e-01
-3.95626562e-08,1.86901563e-01
-3.95226562e-08,1.86898438e-01
-3.94826563e-08,1.86901563e-01
-3.94426562e-08,1.86898438e-01
-3.94026562e-08,1.86901563e-01
-3.93626562e-08,1.86898438e-01
-3.93226562e-08,1.86901563e-01
-3.92826562e-08,1.86898438e-01
-3.92426562e-08,1.86901563e-01
-3.92026563e-08,1.86896875e-01
-3.91626562e-08,1.86903125e-01
-3.91226562e-08,1.86896875e-01
-3.90826562e-08,1.86903125e-01
-3.90426562e-08,1.86896875e-01
-3.90026562e-08,1.86904687e-01
-3.89626562e-08,1.86895313e-01
-3.89226562e-08,1.86906250e-01
-3.88826562e-08,1.86893750e-01
-3.88426562e-08,1.86907812e-01
-3.88026562e-08,1.86890625e-01
-3.87626562e-08,1.86910938e-01
-3.87226562e-08,1.86885938e-01
-3.86826563e-08,1.86920313e-01
-3.86426562e-08,1.86870312e-01
-3.86026562e-08,1.86954687e-01
-3.85626562e-08,1.86692187e-01
-3.85226562e-08,1.86445313e-01
