trails/0b415fe76bd122fbe60d5dd91566c6d8/aes_ch1_20250507111349135.csv

Model,MSO66B
Label,
Waveform Type,ANALOG
Horizontal Units,s
Sample Interval,4.00000000e-11
Record Length,10000
Zero Index,1599.10156250
Vertical Units,A
ANALOG_Thumbnail,
yOffset,1.84500000e-01
yPosition,8.40000000e-01

Labels,
TIME,CH1
-6.39640625e-08,1.92862500e-01
-6.39240625e-08,1.92929688e-01
-6.38840625e-08,1.92873438e-01
-6.38440625e-08,1.92925000e-01
-6.38040625e-08,1.92875000e-01
-6.37640625e-08,1.92926563e-01
-6.37240625e-08,1.92868750e-01
-6.36840625e-08,1.92939063e-01
-6.36440625e-08,1.92837500e-01
-6.36040625e-08,1.93115625e-01
-6.35640625e-08,1.93348437e-01
-6.35240625e-08,1.93273438e-01
-6.34840625e-08,1.93320313e-01
-6.34440625e-08,1.93281250e-01
-6.34040625e-08,1.93325000e-01
-6.33640625e-08,1.93253125e-01
-6.33240625e-08,1.93496875e-01
-6.32840625e-08,1.93768750e-01
-6.32440625e-08,1.93653125e-01
-6.32040625e-08,1.93742187e-01
-6.31640625e-08,1.93656250e-01
-6.31240625e-08,1.93751563e-01
-6.30840625e-08,1.93625000e-01
-6.30440625e-08,1.93928125e-01
-6.30040625e-08,1.94134375e-01
-6.29640625e-08,1.94090625e-01
-6.29240625e-08,1.94096875e-01
-6.28840625e-08,1.94110937e-01
-6.28440625e-08,1.94081250e-01
-6.28040625e-08,1.94129688e-01
-6.27640625e-08,1.94043750e-01
-6.27240625e-08,1.94310938e-01
-6.26840625e-08,1.94550000e-01
-6.26440625e-08,1.94475000e-01
-6.26040625e-08,1.94514063e-01
-6.25640625e-08,1.94492187e-01
-6.25240625e-08,1.94503125e-01
-6.24840625e-08,1.94500000e-01
-6.24440625e-08,1.94496875e-01
-6.24040625e-08,1.94507813e-01
-6.23640625e-08,1.94485938e-01
-6.23240625e-08,1.94525000e-01
-6.22840625e-08,1.94450000e-01
-6.22440625e-08,1.94704688e-01
-6.22040625e-08,1.94957812e-01
-6.21640625e-08,1.94867188e-01
-6.21240625e-08,1.94923438e-01
-6.20840625e-08,1.94881250e-01
-6.20440625e-08,1.94914063e-01
-6.20040625e-08,1.94887500e-01
-6.19640625e-08,1.94910937e-01
-6.19240625e-08,1.94890625e-01
-6.18840625e-08,1.94907812e-01
-6.18440625e-08,1.94893750e-01
-6.18040625e-08,1.94906250e-01
-6.17640625e-08,1.94895313e-01
-6.17240625e-08,1.94904688e-01
-6.16840625e-08,1.94895313e-01
-6.16440625e-08,1.94903125e-01
-6.16040625e-08,1.94896875e-01
-6.15640625e-08,1.94903125e-01
-6.15240625e-08,1.94898438e-01
-6.14840625e-08,1.94901563e-01
-6.14440625e-08,1.94898438e-01
-6.14040625e-08,1.94900000e-01
-6.13640625e-08,1.94900000e-01
-6.13240625e-08,1.94900000e-01
-6.12840625e-08,1.94901563e-01
-6.12440625e-08,1.94898438e-01
-6.12040625e-08,1.94903125e-01
-6.11640625e-08,1.94896875e-01
-6.11240625e-08,1.94904688e-01
-6.10840625e-08,1.94893750e-01
-6.10440625e-08,1.94909375e-01
-6.10040625e-08,1.94887500e-01
-6.09640625e-08,1.94917188e-01
-6.09240625e-08,1.94873437e-01
-6.08840625e-08,1.94951563e-01
-6.08440625e-08,1.94695312e-01
-6.08040625e-08,1.94442188e-01
-6.07640625e-08,1.94534375e-01
-6.07240625e-08,1.94475000e-01
-6.06840625e-08,1.94518750e-01
-6.06440625e-08,1.94482813e-01
-6.06040625e-08,1.94514063e-01
-6.05640625e-08,1.94485938e-01
-6.05240625e-08,1.94512500e-01
-6.04840625e-08,1.94487500e-01
-6.04440625e-08,1.94512500e-01
-6.04040625e-08,1.94487500e-01
-6.03640625e-08,1.94512500e-01
-6.03240625e-08,1.94487500e-01
-6.02840625e-08,1.94514063e-01
-6.02440625e-08,1.94482813e-01
-6.02040625e-08,1.94521875e-01
-6.01640625e-08,1.94468750e-01
-6.01240625e-08,1.94554688e-01
-6.00840625e-08,1.94292188e-01
-6.00440625e-08,1.94043750e-01
-6.00040625e-08,1.94132813e-01
-5.99640625e-08,1.94076562e-01
-5.99240625e-08,1.94120313e-01
-5.98840625e-08,1.94081250e-01
-5.98440625e-08,1.94117188e-01
-5.98040625e-08,1.94082813e-01
-5.97640625e-08,1.94118750e-01
-5.97240625e-08,1.94078125e-01
-5.96840625e-08,1.94126563e-01
-5.96440625e-08,1.94064062e-01
-5.96040625e-08,1.94160938e-01
-5.95640625e-08,1.93885937e-01
-5.95240625e-08,1.93651563e-01
-5.94840625e-08,1.93723438e-01
-5.94440625e-08,1.93685938e-01
-5.94040625e-08,1.93707813e-01
-5.93640625e-08,1.93695312e-01
-5.93240625e-08,1.93701563e-01
-5.92840625e-08,1.93701563e-01
-5.92440625e-08,1.93693750e-01
-5.92040625e-08,1.93712500e-01
-5.91640625e-08,1.93678125e-01
-5.91240625e-08,1.93748438e-01
-5.90840625e-08,1.93498438e-01
-5.90440625e-08,1.93239063e-01
-5.90040625e-08,1.93335937e-01
-5.89640625e-08,1.93273438e-01
-5.89240625e-08,1.93321875e-01
-5.88840625e-08,1.93281250e-01
-5.88440625e-08,1.93315625e-01
-5.88040625e-08,1.93285938e-01
-5.87640625e-08,1.93314062e-01
-5.87240625e-08,1.93287500e-01
-5.86840625e-08,1.93310938e-01
-5.86440625e-08,1.93289062e-01
-5.86040625e-08,1.93310938e-01
-5.85640625e-08,1.93290625e-01
-5.85240625e-08,1.93309375e-01
-5.84840625e-08,1.93290625e-01
-5.84440625e-08,1.93309375e-01
-5.84040625e-08,1.93290625e-01
-5.83640625e-08,1.93307813e-01
-5.83240625e-08,1.93292188e-01
-5.82840625e-08,1.93307813e-01
-5.82440625e-08,1.93292188e-01
-5.82040625e-08,1.93307813e-01
-5.81640625e-08,1.93292188e-01
-5.81240625e-08,1.93307813e-01
-5.80840625e-08,1.93292188e-01
-5.80440625e-08,1.93307813e-01
-5.80040625e-08,1.93292188e-01
-5.79640625e-08,1.93307813e-01
-5.79240625e-08,1.93292188e-01
-5.78840625e-08,1.93307813e-01
-5.78440625e-08,1.93292188e-01
-5.78040625e-08,1.93307813e-01
-5.77640625e-08,1.93292188e-01
-5.77240625e-08,1.93307813e-01
-5.76840625e-08,1.93292188e-01
-5.76440625e-08,1.93307813e-01
-5.76040625e-08,1.93292188e-01
-5.75640625e-08,1.93307813e-01
-5.75240625e-08,1.93292188e-01
-5.74840625e-08,1.93307813e-01
-5.74440625e-08,1.93292188e-01
-5.74040625e-08,1.93307813e-01
-5.73640625e-08,1.93292188e-01
-5.73240625e-08,1.93307813e-01
-5.72840625e-08,1.93292188e-01
-5.72440625e-08,1.93307813e-01
-5.72040625e-08,1.93292188e-01
-5.71640625e-08,1.93309375e-01
-5.71240625e-08,1.93290625e-01
-5.70840625e-08,1.93309375e-01
-5.70440625e-08,1.93290625e-01
-5.70040625e-08,1.93309375e-01
-5.69640625e-08,1.93289062e-01
-5.69240625e-08,1.93310938e-01
-5.68840625e-08,1.93287500e-01
-5.68440625e-08,1.93314062e-01
-5.68040625e-08,1.93285938e-01
-5.67640625e-08,1.93317188e-01
-5.67240625e-08,1.93279688e-01
-5.66840625e-08,1.93325000e-01
-5.66440625e-08,1.93265625e-01
-5.66040625e-08,1.93359375e-01
-5.65640625e-08,1.93087500e-01
-5.65240625e-08,1.92850000e-01
-5.64840625e-08,1.92925000e-01
-5.64440625e-08,1.92884375e-01
-5.64040625e-08,1.92910938e-01
-5.63640625e-08,1.92892188e-01
-5.63240625e-08,1.92906250e-01
-5.62840625e-08,1.92895312e-01
-5.62440625e-08,1.92903125e-01
-5.62040625e-08,1.92896875e-01
-5.61640625e-08,1.92901563e-01
-5.61240625e-08,1.92898438e-01
-5.60840625e-08,1.92900000e-01
-5.60440625e-08,1.92900000e-01
-5.60040625e-08,1.92900000e-01
-5.59640625e-08,1.92900000e-01
-5.59240625e-08,1.92898438e-01
-5.58840625e-08,1.92901563e-01
-5.58440625e-08,1.92898438e-01
-5.58040625e-08,1.92901563e-01
-5.57640625e-08,1.92898438e-01
-5.57240625e-08,1.92901563e-01
-5.56840625e-08,1.92898438e-01
-5.56440625e-08,1.92903125e-01
-5.56040625e-08,1.92896875e-01
-5.55640625e-08,1.92903125e-01
-5.55240625e-08,1.92896875e-01
-5.54840625e-08,1.92903125e-01
-5.54440625e-08,1.92896875e-01
-5.54040625e-08,1.92903125e-01
-5.53640625e-08,1.92895312e-01
-5.53240625e-08,1.92904688e-01
-5.52840625e-08,1.92895312e-01
-5.52440625e-08,1.92904688e-01
-5.52040625e-08,1.92895312e-01
-5.51640625e-08,1.92904688e-01
-5.51240625e-08,1.92893750e-01
-5.50840625e-08,1.92906250e-01
-5.50440625e-08,1.92893750e-01
-5.50040625e-08,1.92906250e-01
-5.49640625e-08,1.92892188e-01
-5.49240625e-08,1.92907812e-01
-5.48840625e-08,1.92892188e-01
-5.48440625e-08,1.92909375e-01
-5.48040625e-08,1.92890625e-01
-5.47640625e-08,1.92910938e-01
-5.47240625e-08,1.92887500e-01
-5.46840625e-08,1.92914063e-01
-5.46440625e-08,1.92884375e-01
-5.46040625e-08,1.92918750e-01
-5.45640625e-08,1.92876563e-01
-5.45240625e-08,1.92934375e-01
-5.44840625e-08,1.92840625e-01
-5.44440625e-08,1.93112500e-01
-5.44040625e-08,1.93350000e-01
-5.43640625e-08,1.93275000e-01
-5.43240625e-08,1.93315625e-01
-5.42840625e-08,1.93289062e-01
-5.42440625e-08,1.93307813e-01
-5.42040625e-08,1.93295313e-01
-5.41640625e-08,1.93303125e-01
-5.41240625e-08,1.93298438e-01
-5.40840625e-08,1.93300000e-01
-5.40440625e-08,1.93301562e-01
-5.40040625e-08,1.93296875e-01
-5.39640625e-08,1.93303125e-01
-5.39240625e-08,1.93295313e-01
-5.38840625e-08,1.93307813e-01
-5.38440625e-08,1.93290625e-01
-5.38040625e-08,1.93314062e-01
-5.37640625e-08,1.93281250e-01
-5.37240625e-08,1.93328125e-01
-5.36840625e-08,1.93246875e-01
-5.36440625e-08,1.93507813e-01
-5.36040625e-08,1.93754688e-01
-5.35640625e-08,1.93670312e-01
-5.35240625e-08,1.93720313e-01
-5.34840625e-08,1.93684375e-01
-5.34440625e-08,1.93710938e-01
-5.34040625e-08,1.93690625e-01
-5.33640625e-08,1.93706250e-01
-5.33240625e-08,1.93695312e-01
-5.32840625e-08,1.93703125e-01
-5.32440625e-08,1.93698438e-01
-5.32040625e-08,1.93698438e-01
-5.31640625e-08,1.93704688e-01
-5.31240625e-08,1.93689063e-01
-5.30840625e-08,1.93720313e-01
-5.30440625e-08,1.93654688e-01
-5.30040625e-08,1.93898438e-01
-5.29640625e-08,1.94164063e-01
-5.29240625e-08,1.94059375e-01
-5.28840625e-08,1.94131250e-01
-5.28440625e-08,1.94073438e-01
-5.28040625e-08,1.94123437e-01
-5.27640625e-08,1.94078125e-01
-5.27240625e-08,1.94121875e-01
-5.26840625e-08,1.94078125e-01
-5.26440625e-08,1.94121875e-01
-5.26040625e-08,1.94076562e-01
-5.25640625e-08,1.94126563e-01
-5.25240625e-08,1.94068750e-01
-5.24840625e-08,1.94140625e-01
-5.24440625e-08,1.94034375e-01
-5.24040625e-08,1.94317188e-01
-5.23640625e-08,1.94543750e-01
-5.23240625e-08,1.94479687e-01
-5.22840625e-08,1.94510938e-01
-5.22440625e-08,1.94493750e-01
-5.22040625e-08,1.94503125e-01
-5.21640625e-08,1.94500000e-01
-5.21240625e-08,1.94496875e-01
-5.20840625e-08,1.94504687e-01
-5.20440625e-08,1.94492187e-01
-5.20040625e-08,1.94510938e-01
-5.19640625e-08,1.94482813e-01
-5.19240625e-08,1.94526562e-01
-5.18840625e-08,1.94448438e-01
-5.18440625e-08,1.94704688e-01
-5.18040625e-08,1.94957812e-01
-5.17640625e-08,1.94865625e-01
-5.17240625e-08,1.94925000e-01
-5.16840625e-08,1.94881250e-01
-5.16440625e-08,1.94915625e-01
-5.16040625e-08,1.94885937e-01
-5.15640625e-08,1.94912500e-01
-5.15240625e-08,1.94887500e-01
-5.14840625e-08,1.94910937e-01
-5.14440625e-08,1.94889063e-01
-5.14040625e-08,1.94910937e-01
-5.13640625e-08,1.94889063e-01
-5.13240625e-08,1.94910937e-01
-5.12840625e-08,1.94889063e-01
-5.12440625e-08,1.94910937e-01
-5.12040625e-08,1.94889063e-01
-5.11640625e-08,1.94912500e-01
-5.11240625e-08,1.94887500e-01
-5.10840625e-08,1.94914063e-01
-5.10440625e-08,1.94884375e-01
-5.10040625e-08,1.94917188e-01
-5.09640625e-08,1.94879688e-01
-5.09240625e-08,1.94925000e-01
-5.08840625e-08,1.94864063e-01
-5.08440625e-08,1.94960938e-01
-5.08040625e-08,1.94685938e-01
-5.07640625e-08,1.94453125e-01
-5.07240625e-08,1.94521875e-01
-5.06840625e-08,1.94489063e-01
-5.06440625e-08,1.94504687e-01
-5.06040625e-08,1.94503125e-01
-5.05640625e-08,1.94487500e-01
-5.05240625e-08,1.94537500e-01
-5.04840625e-08,1.94310938e-01
-5.04440625e-08,1.94025000e-01
-5.04040625e-08,1.94156250e-01
-5.03640625e-08,1.94043750e-01
-5.03240625e-08,1.94176563e-01
-5.02840625e-08,1.93873437e-01
-5.02440625e-08,1.93662500e-01
-5.02040625e-08,1.93712500e-01
-5.01640625e-08,1.93700000e-01
-5.01240625e-08,1.93689063e-01
-5.00840625e-08,1.93737500e-01
-5.00440625e-08,1.93510938e-01
-5.00040625e-08,1.93223438e-01
-4.99640625e-08,1.93357813e-01
-4.99240625e-08,1.93242187e-01
-4.98840625e-08,1.93378125e-01
-4.98440625e-08,1.93071875e-01
-4.98040625e-08,1.92865625e-01
-4.97640625e-08,1.92910938e-01
-4.97240625e-08,1.92900000e-01
-4.96840625e-08,1.92893750e-01
-4.96440625e-08,1.92914063e-01
-4.96040625e-08,1.92875000e-01
-4.95640625e-08,1.92951563e-01
-4.95240625e-08,1.92695312e-01
-4.94840625e-08,1.92443750e-01
-4.94440625e-08,1.92532813e-01
-4.94040625e-08,1.92476563e-01
-4.93640625e-08,1.92517188e-01
-4.93240625e-08,1.92485938e-01
-4.92840625e-08,1.92512500e-01
-4.92440625e-08,1.92489063e-01
-4.92040625e-08,1.92509375e-01
-4.91640625e-08,1.92492188e-01
-4.91240625e-08,1.92507813e-01
-4.90840625e-08,1.92493750e-01
-4.90440625e-08,1.92506250e-01
-4.90040625e-08,1.92495313e-01
-4.89640625e-08,1.92504687e-01
-4.89240625e-08,1.92495313e-01
-4.88840625e-08,1.92504687e-01
-4.88440625e-08,1.92496875e-01
-4.88040625e-08,1.92503125e-01
-4.87640625e-08,1.92496875e-01
-4.87240625e-08,1.92503125e-01
-4.86840625e-08,1.92498438e-01
-4.86440625e-08,1.92501563e-01
-4.86040625e-08,1.92498438e-01
-4.85640625e-08,1.92500000e-01
-4.85240625e-08,1.92500000e-01
-4.84840625e-08,1.92500000e-01
-4.84440625e-08,1.92501563e-01
-4.84040625e-08,1.92498438e-01
-4.83640625e-08,1.92503125e-01
-4.83240625e-08,1.92496875e-01
-4.82840625e-08,1.92504687e-01
-4.82440625e-08,1.92492188e-01
-4.82040625e-08,1.92510938e-01
-4.81640625e-08,1.92484375e-01
-4.81240625e-08,1.92525000e-01
-4.80840625e-08,1.92450000e-01
-4.80440625e-08,1.92703125e-01
-4.80040625e-08,1.92957812e-01
-4.79640625e-08,1.92865625e-01
-4.79240625e-08,1.92925000e-01
-4.78840625e-08,1.92879688e-01
-4.78440625e-08,1.92917188e-01
-4.78040625e-08,1.92885937e-01
-4.77640625e-08,1.92912500e-01
-4.77240625e-08,1.92889063e-01
-4.76840625e-08,1.92909375e-01
-4.76440625e-08,1.92892188e-01
-4.76040625e-08,1.92904688e-01
-4.75640625e-08,1.92896875e-01
-4.75240625e-08,1.92896875e-01
-4.74840625e-08,1.92910938e-01
-4.74440625e-08,1.92864063e-01
-4.74040625e-08,1.93087500e-01
-4.73640625e-08,1.93375000e-01
-4.73240625e-08,1.93246875e-01
-4.72840625e-08,1.93345313e-01
-4.72440625e-08,1.93256250e-01
-4.72040625e-08,1.93343750e-01
-4.71640625e-08,1.93251563e-01
-4.71240625e-08,1.93356250e-01
-4.70840625e-08,1.93217187e-01
-4.70440625e-08,1.93535938e-01
-4.70040625e-08,1.93723438e-01
-4.69640625e-08,1.93703125e-01
-4.69240625e-08,1.93682812e-01
-4.68840625e-08,1.93732813e-01
-4.68440625e-08,1.93639063e-01
-4.68040625e-08,1.93918750e-01
-4.67640625e-08,1.94140625e-01
-4.67240625e-08,1.94087500e-01
-4.66840625e-08,1.94096875e-01
-4.66440625e-08,1.94118750e-01
-4.66040625e-08,1.94051562e-01
-4.65640625e-08,1.94304688e-01
-4.65240625e-08,1.94554688e-01
-4.64840625e-08,1.94473438e-01
-4.64440625e-08,1.94510938e-01
-4.64040625e-08,1.94503125e-01
-4.63640625e-08,1.94468750e-01
-4.63240625e-08,1.94685938e-01
-4.62840625e-08,1.94975000e-01
-4.62440625e-08,1.94848437e-01
-4.62040625e-08,1.94943750e-01
-4.61640625e-08,1.94856250e-01
-4.61240625e-08,1.94948438e-01
-4.60840625e-08,1.94829688e-01
-4.60440625e-08,1.95121875e-01
-4.60040625e-08,1.95343750e-01
-4.59640625e-08,1.95278125e-01
-4.59240625e-08,1.95314062e-01
-4.58840625e-08,1.95289062e-01
-4.58440625e-08,1.95309375e-01
-4.58040625e-08,1.95289062e-01
-4.57640625e-08,1.95312500e-01
-4.57240625e-08,1.95282813e-01
-4.56840625e-08,1.95325000e-01
-4.56440625e-08,1.95250000e-01
-4.56040625e-08,1.95503125e-01
-4.55640625e-08,1.95759375e-01
-4.55240625e-08,1.95664063e-01
-4.54840625e-08,1.95728125e-01
-4.54440625e-08,1.95676563e-01
-4.54040625e-08,1.95720312e-01
-4.53640625e-08,1.95679688e-01
-4.53240625e-08,1.95718750e-01
-4.52840625e-08,1.95681250e-01
-4.52440625e-08,1.95720312e-01
-4.52040625e-08,1.95676563e-01
-4.51640625e-08,1.95726563e-01
-4.51240625e-08,1.95664063e-01
-4.50840625e-08,1.95760938e-01
-4.50440625e-08,1.95487500e-01
-4.50040625e-08,1.95250000e-01
-4.49640625e-08,1.95326563e-01
-4.49240625e-08,1.95281250e-01
-4.48840625e-08,1.95314062e-01
-4.48440625e-08,1.95289062e-01
-4.48040625e-08,1.95310938e-01
-4.47640625e-08,1.95289062e-01
-4.47240625e-08,1.95310938e-01
-4.46840625e-08,1.95285938e-01
-4.46440625e-08,1.95317188e-01
-4.46040625e-08,1.95273438e-01
-4.45640625e-08,1.95351563e-01
-4.45240625e-08,1.95096875e-01
-4.44840625e-08,1.94840625e-01
-4.44440625e-08,1.94937500e-01
-4.44040625e-08,1.94871875e-01
-4.43640625e-08,1.94925000e-01
-4.43240625e-08,1.94876563e-01
-4.42840625e-08,1.94923438e-01
-4.42440625e-08,1.94875000e-01
-4.42040625e-08,1.94929688e-01
-4.41640625e-08,1.94860937e-01
-4.41240625e-08,1.94962500e-01
-4.40840625e-08,1.94684375e-01
-4.40440625e-08,1.94453125e-01
-4.40040625e-08,1.94523438e-01
-4.39640625e-08,1.94485938e-01
-4.39240625e-08,1.94509375e-01
-4.38840625e-08,1.94492187e-01
-4.38440625e-08,1.94504687e-01
-4.38040625e-08,1.94495313e-01
-4.37640625e-08,1.94503125e-01
-4.37240625e-08,1.94498438e-01
-4.36840625e-08,1.94501563e-01
-4.36440625e-08,1.94498438e-01
-4.36040625e-08,1.94500000e-01
-4.35640625e-08,1.94500000e-01
-4.35240625e-08,1.94500000e-01
-4.34840625e-08,1.94500000e-01
-4.34440625e-08,1.94500000e-01
-4.34040625e-08,1.94500000e-01
-4.33640625e-08,1.94500000e-01
-4.33240625e-08,1.94501563e-01
-4.32840625e-08,1.94498438e-01
-4.32440625e-08,1.94501563e-01
-4.32040625e-08,1.94498438e-01
-4.31640625e-08,1.94501563e-01
-4.31240625e-08,1.94498438e-01
-4.30840625e-08,1.94501563e-01
-4.30440625e-08,1.94498438e-01
-4.30040625e-08,1.94501563e-01
-4.29640625e-08,1.94498438e-01
-4.29240625e-08,1.94501563e-01
-4.28840625e-08,1.94498438e-01
-4.28440625e-08,1.94501563e-01
-4.28040625e-08,1.94498438e-01
-4.27640625e-08,1.94503125e-01
-4.27240625e-08,1.94496875e-01
-4.26840625e-08,1.94503125e-01
-4.26440625e-08,1.94496875e-01
-4.26040625e-08,1.94503125e-01
-4.25640625e-08,1.94496875e-01
-4.25240625e-08,1.94503125e-01
-4.24840625e-08,1.94496875e-01
-4.24440625e-08,1.94503125e-01
-4.24040625e-08,1.94496875e-01
-4.23640625e-08,1.94503125e-01
-4.23240625e-08,1.94496875e-01
-4.22840625e-08,1.94503125e-01
-4.22440625e-08,1.94496875e-01
-4.22040625e-08,1.94504687e-01
-4.21640625e-08,1.94495313e-01
-4.21240625e-08,1.94504687e-01
-4.20840625e-08,1.94495313e-01
-4.20440625e-08,1.94504687e-01
-4.20040625e-08,1.94495313e-01
-4.19640625e-08,1.94504687e-01
-4.19240625e-08,1.94493750e-01
-4.18840625e-08,1.94506250e-01
-4.18440625e-08,1.94493750e-01
-4.18040625e-08,1.94506250e-01
-4.17640625e-08,1.94493750e-01
-4.17240625e-08,1.94507813e-01
-4.16840625e-08,1.94492187e-01
-4.16440625e-08,1.94509375e-01
-4.16040625e-08,1.94490625e-01
-4.15640625e-08,1.94510938e-01
-4.15240625e-08,1.94487500e-01
-4.14840625e-08,1.94514063e-01
-4.14440625e-08,1.94482813e-01
-4.14040625e-08,1.94523438e-01
-4.13640625e-08,1.94467187e-01
-4.13240625e-08,1.94557813e-01
-4.12840625e-08,1.94289062e-01
-4.12440625e-08,1.94048438e-01
-4.12040625e-08,1.94126563e-01
-4.11640625e-08,1.94082813e-01
-4.11240625e-08,1.94112500e-01
-4.10840625e-08,1.94090625e-01
-4.10440625e-08,1.94107813e-01
-4.10040625e-08,1.94093750e-01
-4.09640625e-08,1.94104688e-01
-4.09240625e-08,1.94096875e-01
-4.08840625e-08,1.94103125e-01
-4.08440625e-08,1.94098437e-01
-4.08040625e-08,1.94101563e-01
-4.07640625e-08,1.94100000e-01
-4.07240625e-08,1.94100000e-01
-4.06840625e-08,1.94100000e-01
-4.06440625e-08,1.94098437e-01
-4.06040625e-08,1.94101563e-01
-4.05640625e-08,1.94098437e-01
-4.05240625e-08,1.94103125e-01
-4.04840625e-08,1.94096875e-01
-4.04440625e-08,1.94103125e-01
-4.04040625e-08,1.94095313e-01
-4.03640625e-08,1.94104688e-01
-4.03240625e-08,1.94093750e-01
-4.02840625e-08,1.94107813e-01
-4.02440625e-08,1.94090625e-01
-4.02040625e-08,1.94110937e-01
-4.01640625e-08,1.94087500e-01
-4.01240625e-08,1.94115625e-01
-4.00840625e-08,1.94078125e-01
-4.00440625e-08,1.94131250e-01
-4.00040625e-08,1.94043750e-01
-3.99640625e-08,1.94309375e-01
-3.99240625e-08,1.94551562e-01
-3.98840625e-08,1.94471875e-01
-3.98440625e-08,1.94518750e-01
-3.98040625e-08,1.94487500e-01
-3.97640625e-08,1.94509375e-01
-3.97240625e-08,1.94493750e-01
-3.96840625e-08,1.94504687e-01
-3.96440625e-08,1.94498438e-01
-3.96040625e-08,1.94500000e-01
-3.95640625e-08,1.94501563e-01
-3.95240625e-08,1.94495313e-01
-3.94840625e-08,1.94507813e-01
-3.94440625e-08,1.94485938e-01
-3.94040625e-08,1.94523438e-01
-3.93640625e-08,1.94450000e-01
-3.93240625e-08,1.94703125e-01
-3.92840625e-08,1.94959375e-01
-3.92440625e-08,1.94865625e-01
-3.92040625e-08,1.94925000e-01
-3.91640625e-08,1.94879688e-01
-3.91240625e-08,1.94917188e-01
-3.90840625e-08,1.94885937e-01
-3.90440625e-08,1.94912500e-01
-3.90040625e-08,1.94889063e-01
-3.89640625e-08,1.94909375e-01
-3.89240625e-08,1.94892188e-01
-3.88840625e-08,1.94906250e-01
-3.88440625e-08,1.94893750e-01
-3.88040625e-08,1.94904688e-01
-3.87640625e-08,1.94896875e-01
-3.87240625e-08,1.94900000e-01
-3.86840625e-08,1.94903125e-01
-3.86440625e-08,1.94892188e-01
-3.86040625e-08,1.94917188e-01
-3.85640625e-08,1.94857813e-01
-3.85240625e-08,1.95095313e-01
