trails/0b415fe76bd122fbe60d5dd91566c6d8/aes_ch1_20250507111600350.csv

Model,MSO66B
Label,
Waveform Type,ANALOG
Horizontal Units,s
Sample Interval,4.00000000e-11
Record Length,10000
Zero Index,1599.12109375
Vertical Units,A
ANALOG_Thumbnail,
yOffset,1.84500000e-01
yPosition,8.40000000e-01

Labels,
TIME,CH1
-6.39648437e-08,1.84081250e-01
-6.39248438e-08,1.84115625e-01
-6.38848437e-08,1.84085938e-01
-6.38448438e-08,1.84112500e-01
-6.38048437e-08,1.84089063e-01
-6.37648437e-08,1.84109375e-01
-6.37248437e-08,1.84090625e-01
-6.36848437e-08,1.84107812e-01
-6.36448438e-08,1.84092188e-01
-6.36048437e-08,1.84107812e-01
-6.35648438e-08,1.84093750e-01
-6.35248437e-08,1.84106250e-01
-6.34848437e-08,1.84093750e-01
-6.34448437e-08,1.84106250e-01
-6.34048437e-08,1.84093750e-01
-6.33648438e-08,1.84104688e-01
-6.33248437e-08,1.84095312e-01
-6.32848437e-08,1.84104688e-01
-6.32448437e-08,1.84095312e-01
-6.32048437e-08,1.84103125e-01
-6.31648437e-08,1.84096875e-01
-6.31248437e-08,1.84101563e-01
-6.30848438e-08,1.84098438e-01
-6.30448437e-08,1.84100000e-01
-6.30048437e-08,1.84101563e-01
-6.29648437e-08,1.84095312e-01
-6.29248437e-08,1.84109375e-01
-6.28848437e-08,1.84081250e-01
-6.28448437e-08,1.84142187e-01
-6.28048438e-08,1.83904687e-01
-6.27648437e-08,1.83632813e-01
-6.27248437e-08,1.83745313e-01
-6.26848437e-08,1.83664063e-01
-6.26448437e-08,1.83732813e-01
-6.26048437e-08,1.83668750e-01
-6.25648437e-08,1.83731250e-01
-6.25248438e-08,1.83665625e-01
-6.24848437e-08,1.83739062e-01
-6.24448437e-08,1.83651563e-01
-6.24048437e-08,1.83773437e-01
-6.23648437e-08,1.83473438e-01
-6.23248437e-08,1.83265625e-01
-6.22848437e-08,1.83309375e-01
-6.22448438e-08,1.83301563e-01
-6.22048437e-08,1.83290625e-01
-6.21648437e-08,1.83317188e-01
-6.21248437e-08,1.83270313e-01
-6.20848437e-08,1.83356250e-01
-6.20448437e-08,1.83089063e-01
-6.20048437e-08,1.82850000e-01
-6.19648438e-08,1.82925000e-01
-6.19248437e-08,1.82887500e-01
-6.18848437e-08,1.82904687e-01
-6.18448437e-08,1.82903125e-01
-6.18048437e-08,1.82885938e-01
-6.17648437e-08,1.82940625e-01
-6.17248437e-08,1.82706250e-01
-6.16848438e-08,1.82432813e-01
-6.16448437e-08,1.82543750e-01
-6.16048437e-08,1.82464062e-01
-6.15648437e-08,1.82532813e-01
-6.15248437e-08,1.82468750e-01
-6.14848437e-08,1.82534375e-01
-6.14448437e-08,1.82457813e-01
-6.14048438e-08,1.82565625e-01
-6.13648437e-08,1.82282813e-01
-6.13248437e-08,1.82054688e-01
-6.12848437e-08,1.82121875e-01
-6.12448437e-08,1.82085938e-01
-6.12048438e-08,1.82109375e-01
-6.11648437e-08,1.82093750e-01
-6.11248438e-08,1.82104688e-01
-6.10848437e-08,1.82095312e-01
-6.10448437e-08,1.82103125e-01
-6.10048437e-08,1.82096875e-01
-6.09648437e-08,1.82103125e-01
-6.09248438e-08,1.82098438e-01
-6.08848437e-08,1.82101563e-01
-6.08448438e-08,1.82098438e-01
-6.08048437e-08,1.82101563e-01
-6.07648437e-08,1.82098438e-01
-6.07248437e-08,1.82101563e-01
-6.06848437e-08,1.82098438e-01
-6.06448438e-08,1.82101563e-01
-6.06048437e-08,1.82098438e-01
-6.05648438e-08,1.82101563e-01
-6.05248437e-08,1.82098438e-01
-6.04848437e-08,1.82101563e-01
-6.04448437e-08,1.82098438e-01
-6.04048437e-08,1.82101563e-01
-6.03648438e-08,1.82098438e-01
-6.03248437e-08,1.82101563e-01
-6.02848438e-08,1.82098438e-01
-6.02448437e-08,1.82101563e-01
-6.02048437e-08,1.82098438e-01
-6.01648437e-08,1.82101563e-01
-6.01248437e-08,1.82098438e-01
-6.00848438e-08,1.82101563e-01
-6.00448437e-08,1.82098438e-01
-6.00048438e-08,1.82101563e-01
-5.99648437e-08,1.82096875e-01
-5.99248437e-08,1.82103125e-01
-5.98848437e-08,1.82096875e-01
-5.98448437e-08,1.82103125e-01
-5.98048438e-08,1.82096875e-01
-5.97648437e-08,1.82103125e-01
-5.97248438e-08,1.82096875e-01
-5.96848437e-08,1.82104688e-01
-5.96448437e-08,1.82095312e-01
-5.96048437e-08,1.82104688e-01
-5.95648437e-08,1.82095312e-01
-5.95248437e-08,1.82106250e-01
-5.94848437e-08,1.82093750e-01
-5.94448437e-08,1.82107812e-01
-5.94048437e-08,1.82090625e-01
-5.93648437e-08,1.82110938e-01
-5.93248437e-08,1.82085938e-01
-5.92848437e-08,1.82120313e-01
-5.92448437e-08,1.82070312e-01
-5.92048437e-08,1.82154687e-01
-5.91648437e-08,1.81892187e-01
-5.91248437e-08,1.81645313e-01
-5.90848437e-08,1.81731250e-01
-5.90448437e-08,1.81678125e-01
-5.90048437e-08,1.81717188e-01
-5.89648437e-08,1.81685938e-01
-5.89248437e-08,1.81710938e-01
-5.88848437e-08,1.81690625e-01
-5.88448437e-08,1.81709375e-01
-5.88048437e-08,1.81692188e-01
-5.87648437e-08,1.81707813e-01
-5.87248437e-08,1.81693750e-01
-5.86848437e-08,1.81706250e-01
-5.86448437e-08,1.81693750e-01
-5.86048437e-08,1.81706250e-01
-5.85648437e-08,1.81695313e-01
-5.85248437e-08,1.81704688e-01
-5.84848437e-08,1.81695313e-01
-5.84448437e-08,1.81704688e-01
-5.84048437e-08,1.81695313e-01
-5.83648437e-08,1.81704688e-01
-5.83248437e-08,1.81695313e-01
-5.82848437e-08,1.81704688e-01
-5.82448437e-08,1.81695313e-01
-5.82048437e-08,1.81703125e-01
-5.81648437e-08,1.81696875e-01
-5.81248437e-08,1.81703125e-01
-5.80848437e-08,1.81696875e-01
-5.80448437e-08,1.81703125e-01
-5.80048437e-08,1.81696875e-01
-5.79648437e-08,1.81703125e-01
-5.79248437e-08,1.81696875e-01
-5.78848437e-08,1.81703125e-01
-5.78448437e-08,1.81696875e-01
-5.78048437e-08,1.81703125e-01
-5.77648437e-08,1.81696875e-01
-5.77248437e-08,1.81703125e-01
-5.76848437e-08,1.81696875e-01
-5.76448437e-08,1.81703125e-01
-5.76048437e-08,1.81696875e-01
-5.75648437e-08,1.81703125e-01
-5.75248437e-08,1.81698438e-01
-5.74848437e-08,1.81701562e-01
-5.74448437e-08,1.81698438e-01
-5.74048437e-08,1.81701562e-01
-5.73648437e-08,1.81698438e-01
-5.73248437e-08,1.81701562e-01
-5.72848437e-08,1.81698438e-01
-5.72448437e-08,1.81701562e-01
-5.72048437e-08,1.81700000e-01
-5.71648437e-08,1.81700000e-01
-5.71248437e-08,1.81700000e-01
-5.70848437e-08,1.81698438e-01
-5.70448437e-08,1.81703125e-01
-5.70048437e-08,1.81696875e-01
-5.69648437e-08,1.81706250e-01
-5.69248437e-08,1.81692188e-01
-5.68848437e-08,1.81714062e-01
-5.68448437e-08,1.81676562e-01
-5.68048437e-08,1.81746875e-01
-5.67648437e-08,1.81500000e-01
-5.67248437e-08,1.81237500e-01
-5.66848437e-08,1.81339063e-01
-5.66448437e-08,1.81270313e-01
-5.66048437e-08,1.81325000e-01
-5.65648437e-08,1.81276563e-01
-5.65248437e-08,1.81321875e-01
-5.64848437e-08,1.81278125e-01
-5.64448437e-08,1.81321875e-01
-5.64048437e-08,1.81278125e-01
-5.63648437e-08,1.81323438e-01
-5.63248437e-08,1.81273437e-01
-5.62848437e-08,1.81331250e-01
-5.62448437e-08,1.81259375e-01
-5.62048437e-08,1.81364063e-01
-5.61648437e-08,1.81082812e-01
-5.61248437e-08,1.80854687e-01
-5.60848437e-08,1.80921875e-01
-5.60448437e-08,1.80887500e-01
-5.60048437e-08,1.80907813e-01
-5.59648437e-08,1.80895313e-01
-5.59248437e-08,1.80901563e-01
-5.58848437e-08,1.80900000e-01
-5.58448437e-08,1.80900000e-01
-5.58048437e-08,1.80901563e-01
-5.57648437e-08,1.80898438e-01
-5.57248437e-08,1.80903125e-01
-5.56848437e-08,1.80896875e-01
-5.56448437e-08,1.80904687e-01
-5.56048437e-08,1.80895313e-01
-5.55648437e-08,1.80904687e-01
-5.55248437e-08,1.80895313e-01
-5.54848437e-08,1.80906250e-01
-5.54448437e-08,1.80893750e-01
-5.54048437e-08,1.80906250e-01
-5.53648437e-08,1.80892187e-01
-5.53248437e-08,1.80907813e-01
-5.52848437e-08,1.80892187e-01
-5.52448437e-08,1.80909375e-01
-5.52048437e-08,1.80890625e-01
-5.51648437e-08,1.80910938e-01
-5.51248437e-08,1.80887500e-01
-5.50848437e-08,1.80914063e-01
-5.50448437e-08,1.80884375e-01
-5.50048437e-08,1.80918750e-01
-5.49648437e-08,1.80875000e-01
-5.49248437e-08,1.80934375e-01
-5.48848437e-08,1.80840625e-01
-5.48448437e-08,1.81112500e-01
-5.48048437e-08,1.81350000e-01
-5.47648437e-08,1.81275000e-01
-5.47248437e-08,1.81315625e-01
-5.46848437e-08,1.81289063e-01
-5.46448437e-08,1.81307812e-01
-5.46048437e-08,1.81295312e-01
-5.45648437e-08,1.81303125e-01
-5.45248437e-08,1.81298438e-01
-5.44848437e-08,1.81301563e-01
-5.44448437e-08,1.81300000e-01
-5.44048437e-08,1.81300000e-01
-5.43648437e-08,1.81301563e-01
-5.43248437e-08,1.81298438e-01
-5.42848437e-08,1.81303125e-01
-5.42448437e-08,1.81296875e-01
-5.42048437e-08,1.81304688e-01
-5.41648437e-08,1.81295312e-01
-5.41248437e-08,1.81306250e-01
-5.40848437e-08,1.81293750e-01
-5.40448437e-08,1.81307812e-01
-5.40048437e-08,1.81290625e-01
-5.39648437e-08,1.81310938e-01
-5.39248437e-08,1.81287500e-01
-5.38848437e-08,1.81314063e-01
-5.38448437e-08,1.81281250e-01
-5.38048438e-08,1.81323438e-01
-5.37648437e-08,1.81265625e-01
-5.37248437e-08,1.81359375e-01
-5.36848437e-08,1.81087500e-01
-5.36448437e-08,1.80851563e-01
-5.36048437e-08,1.80925000e-01
-5.35648437e-08,1.80885938e-01
-5.35248437e-08,1.80907813e-01
-5.34848437e-08,1.80895313e-01
-5.34448437e-08,1.80900000e-01
-5.34048437e-08,1.80903125e-01
-5.33648437e-08,1.80892187e-01
-5.33248437e-08,1.80914063e-01
-5.32848437e-08,1.80876563e-01
-5.32448437e-08,1.80950000e-01
-5.32048437e-08,1.80696875e-01
-5.31648437e-08,1.80442188e-01
-5.31248437e-08,1.80534375e-01
-5.30848437e-08,1.80475000e-01
-5.30448437e-08,1.80518750e-01
-5.30048437e-08,1.80484375e-01
-5.29648437e-08,1.80514063e-01
-5.29248437e-08,1.80489063e-01
-5.28848437e-08,1.80510937e-01
-5.28448437e-08,1.80490625e-01
-5.28048437e-08,1.80507813e-01
-5.27648437e-08,1.80492188e-01
-5.27248437e-08,1.80506250e-01
-5.26848437e-08,1.80493750e-01
-5.26448437e-08,1.80504688e-01
-5.26048437e-08,1.80495313e-01
-5.25648437e-08,1.80504688e-01
-5.25248437e-08,1.80496875e-01
-5.24848437e-08,1.80503125e-01
-5.24448437e-08,1.80498437e-01
-5.24048437e-08,1.80501563e-01
-5.23648437e-08,1.80498437e-01
-5.23248437e-08,1.80500000e-01
-5.22848437e-08,1.80500000e-01
-5.22448437e-08,1.80498437e-01
-5.22048437e-08,1.80503125e-01
-5.21648437e-08,1.80495313e-01
-5.21248437e-08,1.80507813e-01
-5.20848437e-08,1.80487500e-01
-5.20448437e-08,1.80523437e-01
-5.20048437e-08,1.80453125e-01
-5.19648437e-08,1.80700000e-01
-5.19248437e-08,1.80962500e-01
-5.18848438e-08,1.80859375e-01
-5.18448437e-08,1.80931250e-01
-5.18048437e-08,1.80871875e-01
-5.17648437e-08,1.80928125e-01
-5.17248437e-08,1.80868750e-01
-5.16848437e-08,1.80937500e-01
-5.16448437e-08,1.80839063e-01
-5.16048438e-08,1.81112500e-01
-5.15648437e-08,1.81351563e-01
-5.15248437e-08,1.81271875e-01
-5.14848437e-08,1.81321875e-01
-5.14448437e-08,1.81281250e-01
-5.14048437e-08,1.81318750e-01
-5.13648437e-08,1.81278125e-01
-5.13248437e-08,1.81331250e-01
-5.12848437e-08,1.81245313e-01
-5.12448437e-08,1.81507813e-01
-5.12048437e-08,1.81756250e-01
-5.11648437e-08,1.81667187e-01
-5.11248437e-08,1.81723438e-01
-5.10848437e-08,1.81681250e-01
-5.10448437e-08,1.81715625e-01
-5.10048437e-08,1.81685938e-01
-5.09648437e-08,1.81712500e-01
-5.09248437e-08,1.81687500e-01
-5.08848437e-08,1.81712500e-01
-5.08448437e-08,1.81689062e-01
-5.08048437e-08,1.81710938e-01
-5.07648437e-08,1.81689062e-01
-5.07248437e-08,1.81710938e-01
-5.06848437e-08,1.81687500e-01
-5.06448437e-08,1.81712500e-01
-5.06048437e-08,1.81687500e-01
-5.05648437e-08,1.81714062e-01
-5.05248437e-08,1.81684375e-01
-5.04848437e-08,1.81717188e-01
-5.04448437e-08,1.81679688e-01
-5.04048437e-08,1.81726562e-01
-5.03648437e-08,1.81664063e-01
-5.03248437e-08,1.81760937e-01
-5.02848437e-08,1.81485937e-01
-5.02448437e-08,1.81253125e-01
-5.02048437e-08,1.81323438e-01
-5.01648437e-08,1.81287500e-01
-5.01248437e-08,1.81306250e-01
-5.00848437e-08,1.81298438e-01
-5.00448437e-08,1.81296875e-01
-5.00048437e-08,1.81309375e-01
-4.99648438e-08,1.81281250e-01
-4.99248437e-08,1.81343750e-01
-4.98848437e-08,1.81103125e-01
-4.98448437e-08,1.80835938e-01
-4.98048437e-08,1.80940625e-01
-4.97648437e-08,1.80867187e-01
-4.97248437e-08,1.80928125e-01
-4.96848438e-08,1.80873438e-01
-4.96448437e-08,1.80926562e-01
-4.96048437e-08,1.80871875e-01
-4.95648437e-08,1.80931250e-01
-4.95248437e-08,1.80859375e-01
-4.94848437e-08,1.80965625e-01
-4.94448437e-08,1.80682813e-01
-4.94048437e-08,1.80454688e-01
-4.93648437e-08,1.80521875e-01
-4.93248437e-08,1.80487500e-01
-4.92848437e-08,1.80507813e-01
-4.92448437e-08,1.80495313e-01
-4.92048437e-08,1.80503125e-01
-4.91648437e-08,1.80498437e-01
-4.91248437e-08,1.80500000e-01
-4.90848437e-08,1.80500000e-01
-4.90448437e-08,1.80498437e-01
-4.90048437e-08,1.80501563e-01
-4.89648437e-08,1.80496875e-01
-4.89248437e-08,1.80504688e-01
-4.88848437e-08,1.80495313e-01
-4.88448437e-08,1.80506250e-01
-4.88048437e-08,1.80492188e-01
-4.87648437e-08,1.80509375e-01
-4.87248437e-08,1.80487500e-01
-4.86848437e-08,1.80518750e-01
-4.86448437e-08,1.80471875e-01
-4.86048437e-08,1.80553125e-01
-4.85648437e-08,1.80295312e-01
-4.85248437e-08,1.80042188e-01
-4.84848437e-08,1.80132813e-01
-4.84448437e-08,1.80075000e-01
-4.84048437e-08,1.80120313e-01
-4.83648437e-08,1.80082812e-01
-4.83248437e-08,1.80115625e-01
-4.82848437e-08,1.80085938e-01
-4.82448437e-08,1.80114063e-01
-4.82048437e-08,1.80084375e-01
-4.81648437e-08,1.80115625e-01
-4.81248437e-08,1.80081250e-01
-4.80848437e-08,1.80123438e-01
-4.80448438e-08,1.80068750e-01
-4.80048437e-08,1.80156250e-01
-4.79648437e-08,1.79892187e-01
-4.79248437e-08,1.79645313e-01
-4.78848437e-08,1.79731250e-01
-4.78448437e-08,1.79676562e-01
-4.78048437e-08,1.79720313e-01
-4.77648438e-08,1.79682813e-01
-4.77248437e-08,1.79718750e-01
-4.76848437e-08,1.79679688e-01
-4.76448437e-08,1.79723437e-01
-4.76048437e-08,1.79667188e-01
-4.75648437e-08,1.79756250e-01
-4.75248437e-08,1.79490625e-01
-4.74848438e-08,1.79245313e-01
-4.74448437e-08,1.79331250e-01
-4.74048437e-08,1.79278125e-01
-4.73648437e-08,1.79318750e-01
-4.73248437e-08,1.79284375e-01
-4.72848437e-08,1.79315625e-01
-4.72448437e-08,1.79284375e-01
-4.72048437e-08,1.79317188e-01
-4.71648437e-08,1.79281250e-01
-4.71248437e-08,1.79323438e-01
-4.70848437e-08,1.79267188e-01
-4.70448437e-08,1.79356250e-01
-4.70048437e-08,1.79090625e-01
-4.69648437e-08,1.78846875e-01
-4.69248437e-08,1.78929688e-01
-4.68848437e-08,1.78879687e-01
-4.68448437e-08,1.78915625e-01
-4.68048437e-08,1.78885938e-01
-4.67648437e-08,1.78910938e-01
-4.67248437e-08,1.78889063e-01
-4.66848437e-08,1.78909375e-01
-4.66448437e-08,1.78890625e-01
-4.66048437e-08,1.78907813e-01
-4.65648437e-08,1.78892187e-01
-4.65248437e-08,1.78907813e-01
-4.64848437e-08,1.78892187e-01
-4.64448437e-08,1.78907813e-01
-4.64048437e-08,1.78892187e-01
-4.63648437e-08,1.78907813e-01
-4.63248437e-08,1.78890625e-01
-4.62848437e-08,1.78909375e-01
-4.62448437e-08,1.78890625e-01
-4.62048437e-08,1.78909375e-01
-4.61648437e-08,1.78889063e-01
-4.61248438e-08,1.78912500e-01
-4.60848437e-08,1.78885938e-01
-4.60448437e-08,1.78915625e-01
-4.60048437e-08,1.78881250e-01
-4.59648437e-08,1.78923438e-01
-4.59248437e-08,1.78867187e-01
-4.58848437e-08,1.78957813e-01
-4.58448438e-08,1.78689062e-01
-4.58048437e-08,1.78448438e-01
-4.57648437e-08,1.78526563e-01
-4.57248437e-08,1.78482813e-01
-4.56848437e-08,1.78512500e-01
-4.56448437e-08,1.78490625e-01
-4.56048437e-08,1.78507813e-01
-4.55648438e-08,1.78493750e-01
-4.55248437e-08,1.78504688e-01
-4.54848437e-08,1.78496875e-01
-4.54448437e-08,1.78503125e-01
-4.54048437e-08,1.78498437e-01
-4.53648437e-08,1.78501563e-01
-4.53248437e-08,1.78498437e-01
-4.52848438e-08,1.78500000e-01
-4.52448437e-08,1.78500000e-01
-4.52048437e-08,1.78500000e-01
-4.51648437e-08,1.78501563e-01
-4.51248437e-08,1.78498437e-01
-4.50848437e-08,1.78501563e-01
-4.50448437e-08,1.78496875e-01
-4.50048437e-08,1.78503125e-01
-4.49648437e-08,1.78496875e-01
-4.49248437e-08,1.78504688e-01
-4.48848437e-08,1.78493750e-01
-4.48448437e-08,1.78506250e-01
-4.48048437e-08,1.78492188e-01
-4.47648437e-08,1.78509375e-01
-4.47248437e-08,1.78487500e-01
-4.46848437e-08,1.78515625e-01
-4.46448437e-08,1.78479688e-01
-4.46048437e-08,1.78529688e-01
-4.45648437e-08,1.78445313e-01
-4.45248437e-08,1.78709375e-01
-4.44848437e-08,1.78953125e-01
-4.44448437e-08,1.78871875e-01
-4.44048437e-08,1.78918750e-01
-4.43648437e-08,1.78887500e-01
-4.43248437e-08,1.78909375e-01
-4.42848437e-08,1.78893750e-01
-4.42448437e-08,1.78903125e-01
-4.42048438e-08,1.78901562e-01
-4.41648437e-08,1.78893750e-01
-4.41248437e-08,1.78915625e-01
-4.40848437e-08,1.78859375e-01
-4.40448437e-08,1.79093750e-01
-4.40048437e-08,1.79368750e-01
-4.39648437e-08,1.79254688e-01
-4.39248438e-08,1.79337500e-01
-4.38848437e-08,1.79265625e-01
-4.38448437e-08,1.79334375e-01
-4.38048437e-08,1.79262500e-01
-4.37648437e-08,1.79346875e-01
-4.37248437e-08,1.79229688e-01
-4.36848437e-08,1.79523437e-01
-4.36448438e-08,1.79739063e-01
-4.36048437e-08,1.79685938e-01
-4.35648437e-08,1.79704688e-01
-4.35248437e-08,1.79703125e-01
-4.34848437e-08,1.79689062e-01
-4.34448437e-08,1.79721875e-01
-4.34048437e-08,1.79653125e-01
-4.33648438e-08,1.79900000e-01
-4.33248437e-08,1.80162500e-01
-4.32848437e-08,1.80060938e-01
-4.32448437e-08,1.80131250e-01
-4.32048437e-08,1.80071875e-01
-4.31648437e-08,1.80128125e-01
-4.31248437e-08,1.80068750e-01
-4.30848438e-08,1.80139063e-01
-4.30448437e-08,1.80037500e-01
-4.30048437e-08,1.80314063e-01
-4.29648437e-08,1.80548438e-01
-4.29248437e-08,1.80475000e-01
-4.28848437e-08,1.80517188e-01
-4.28448437e-08,1.80487500e-01
-4.28048437e-08,1.80509375e-01
-4.27648437e-08,1.80492188e-01
-4.27248437e-08,1.80506250e-01
-4.26848437e-08,1.80493750e-01
-4.26448437e-08,1.80504688e-01
-4.26048437e-08,1.80495313e-01
-4.25648437e-08,1.80504688e-01
-4.25248437e-08,1.80495313e-01
-4.24848437e-08,1.80504688e-01
-4.24448437e-08,1.80495313e-01
-4.24048437e-08,1.80504688e-01
-4.23648437e-08,1.80495313e-01
-4.23248437e-08,1.80504688e-01
-4.22848438e-08,1.80495313e-01
-4.22448437e-08,1.80504688e-01
-4.22048437e-08,1.80493750e-01
-4.21648437e-08,1.80506250e-01
-4.21248437e-08,1.80493750e-01
-4.20848437e-08,1.80507813e-01
-4.20448437e-08,1.80490625e-01
-4.20048438e-08,1.80510937e-01
-4.19648437e-08,1.80485937e-01
-4.19248437e-08,1.80520313e-01
-4.18848437e-08,1.80470313e-01
-4.18448437e-08,1.80554688e-01
-4.18048437e-08,1.80292188e-01
-4.17648437e-08,1.80046875e-01
-4.17248438e-08,1.80128125e-01
-4.16848437e-08,1.80081250e-01
-4.16448437e-08,1.80110938e-01
-4.16048437e-08,1.80096875e-01
-4.15648437e-08,1.80093750e-01
-4.15248437e-08,1.80131250e-01
-4.14848437e-08,1.79915625e-01
-4.14448438e-08,1.79620313e-01
-4.14048437e-08,1.79757813e-01
-4.13648437e-08,1.79648438e-01
-4.13248437e-08,1.79751563e-01
-4.12848437e-08,1.79640625e-01
-4.12448437e-08,1.79782812e-01
-4.12048437e-08,1.79464062e-01
-4.11648438e-08,1.79275000e-01
-4.11248437e-08,1.79298438e-01
-4.10848437e-08,1.79315625e-01
-4.10448437e-08,1.79270313e-01
-4.10048437e-08,1.79357813e-01
-4.09648437e-08,1.79085938e-01
-4.09248437e-08,1.78853125e-01
-4.08848438e-08,1.78920313e-01
-4.08448437e-08,1.78890625e-01
-4.08048437e-08,1.78900000e-01
-4.07648437e-08,1.78907813e-01
-4.07248437e-08,1.78879687e-01
-4.06848437e-08,1.78946875e-01
-4.06448437e-08,1.78698438e-01
-4.06048437e-08,1.78439062e-01
-4.05648437e-08,1.78535938e-01
-4.05248437e-08,1.78473437e-01
-4.04848437e-08,1.78520313e-01
-4.04448437e-08,1.78482813e-01
-4.04048437e-08,1.78514063e-01
-4.03648438e-08,1.78487500e-01
-4.03248437e-08,1.78510937e-01
-4.02848437e-08,1.78489063e-01
-4.02448437e-08,1.78509375e-01
-4.02048437e-08,1.78490625e-01
-4.01648437e-08,1.78509375e-01
-4.01248437e-08,1.78490625e-01
-4.00848438e-08,1.78509375e-01
-4.00448437e-08,1.78490625e-01
-4.00048437e-08,1.78509375e-01
-3.99648437e-08,1.78489063e-01
-3.99248437e-08,1.78514063e-01
-3.98848437e-08,1.78482813e-01
-3.98448437e-08,1.78526563e-01
-3.98048438e-08,1.78450000e-01
-3.97648437e-08,1.78701562e-01
-3.97248437e-08,1.78960938e-01
-3.96848437e-08,1.78860938e-01
-3.96448437e-08,1.78932813e-01
-3.96048437e-08,1.78870313e-01
-3.95648437e-08,1.78931250e-01
-3.95248438e-08,1.78865625e-01
-3.94848437e-08,1.78943750e-01
-3.94448437e-08,1.78831250e-01
-3.94048437e-08,1.79121875e-01
-3.93648437e-08,1.79340625e-01
-3.93248437e-08,1.79284375e-01
-3.92848437e-08,1.79303125e-01
-3.92448438e-08,1.79304688e-01
-3.92048437e-08,1.79287500e-01
-3.91648437e-08,1.79325000e-01
-3.91248437e-08,1.79248437e-01
-3.90848437e-08,1.79506250e-01
-3.90448437e-08,1.79754688e-01
-3.90048437e-08,1.79671875e-01
-3.89648438e-08,1.79717188e-01
-3.89248437e-08,1.79692188e-01
-3.88848437e-08,1.79700000e-01
-3.88448437e-08,1.79712500e-01
-3.88048437e-08,1.79662500e-01
-3.87648437e-08,1.79892187e-01
-3.87248437e-08,1.80168750e-01
-3.86848438e-08,1.80054688e-01
-3.86448437e-08,1.80134375e-01
-3.86048437e-08,1.80070312e-01
-3.85648437e-08,1.80126563e-01
-3.85248437e-08,1.80075000e-01
