trails/0b415fe76bd122fbe60d5dd91566c6d8/aes_ch1_20250507111512475.csv

Model,MSO66B
Label,
Waveform Type,ANALOG
Horizontal Units,s
Sample Interval,4.00000000e-11
Record Length,10000
Zero Index,1599.10937500
Vertical Units,A
ANALOG_Thumbnail,
yOffset,1.84500000e-01
yPosition,8.40000000e-01

Labels,
TIME,CH1
-6.39643750e-08,1.99739063e-01
-6.39243750e-08,1.99635937e-01
-6.38843750e-08,1.99917188e-01
-6.38443750e-08,2.00145313e-01
-6.38043750e-08,2.00079688e-01
-6.37643750e-08,2.00110938e-01
-6.37243750e-08,2.00095313e-01
-6.36843750e-08,2.00100000e-01
-6.36443750e-08,2.00104688e-01
-6.36043750e-08,2.00089062e-01
-6.35643750e-08,2.00120313e-01
-6.35243750e-08,2.00054687e-01
-6.34843750e-08,2.00298438e-01
-6.34443750e-08,2.00564063e-01
-6.34043750e-08,2.00459375e-01
-6.33643750e-08,2.00531250e-01
-6.33243750e-08,2.00471875e-01
-6.32843750e-08,2.00526563e-01
-6.32443750e-08,2.00473438e-01
-6.32043750e-08,2.00528125e-01
-6.31643750e-08,2.00467188e-01
-6.31243750e-08,2.00540625e-01
-6.30843750e-08,2.00434375e-01
-6.30443750e-08,2.00718750e-01
-6.30043750e-08,2.00943750e-01
-6.29643750e-08,2.00879688e-01
-6.29243750e-08,2.00909375e-01
-6.28843750e-08,2.00895313e-01
-6.28443750e-08,2.00900000e-01
-6.28043750e-08,2.00903125e-01
-6.27643750e-08,2.00893750e-01
-6.27243750e-08,2.00909375e-01
-6.26843750e-08,2.00884375e-01
-6.26443750e-08,2.00925000e-01
-6.26043750e-08,2.00848438e-01
-6.25643750e-08,2.01104688e-01
-6.25243750e-08,2.01357813e-01
-6.24843750e-08,2.01267187e-01
-6.24443750e-08,2.01323438e-01
-6.24043750e-08,2.01281250e-01
-6.23643750e-08,2.01315625e-01
-6.23243750e-08,2.01285938e-01
-6.22843750e-08,2.01312500e-01
-6.22443750e-08,2.01289063e-01
-6.22043750e-08,2.01309375e-01
-6.21643750e-08,2.01290625e-01
-6.21243750e-08,2.01307813e-01
-6.20843750e-08,2.01292187e-01
-6.20443750e-08,2.01307813e-01
-6.20043750e-08,2.01292187e-01
-6.19643750e-08,2.01307813e-01
-6.19243750e-08,2.01293750e-01
-6.18843750e-08,2.01306250e-01
-6.18443750e-08,2.01293750e-01
-6.18043750e-08,2.01306250e-01
-6.17643750e-08,2.01293750e-01
-6.17243750e-08,2.01306250e-01
-6.16843750e-08,2.01293750e-01
-6.16443750e-08,2.01306250e-01
-6.16043750e-08,2.01293750e-01
-6.15643750e-08,2.01307813e-01
-6.15243750e-08,2.01292187e-01
-6.14843750e-08,2.01307813e-01
-6.14443750e-08,2.01290625e-01
-6.14043750e-08,2.01309375e-01
-6.13643750e-08,2.01289063e-01
-6.13243750e-08,2.01312500e-01
-6.12843750e-08,2.01284375e-01
-6.12443750e-08,2.01320313e-01
-6.12043750e-08,2.01270312e-01
-6.11643750e-08,2.01354688e-01
-6.11243750e-08,2.01092188e-01
-6.10843750e-08,2.00843750e-01
-6.10443750e-08,2.00932813e-01
-6.10043750e-08,2.00876563e-01
-6.09643750e-08,2.00918750e-01
-6.09243750e-08,2.00884375e-01
-6.08843750e-08,2.00915625e-01
-6.08443750e-08,2.00885938e-01
-6.08043750e-08,2.00914063e-01
-6.07643750e-08,2.00884375e-01
-6.07243750e-08,2.00915625e-01
-6.06843750e-08,2.00881250e-01
-6.06443750e-08,2.00923437e-01
-6.06043750e-08,2.00867188e-01
-6.05643750e-08,2.00956250e-01
-6.05243750e-08,2.00690625e-01
-6.04843750e-08,2.00446875e-01
-6.04443750e-08,2.00529687e-01
-6.04043750e-08,2.00479688e-01
-6.03643750e-08,2.00517187e-01
-6.03243750e-08,2.00485938e-01
-6.02843750e-08,2.00512500e-01
-6.02443750e-08,2.00487500e-01
-6.02043750e-08,2.00514063e-01
-6.01643750e-08,2.00484375e-01
-6.01243750e-08,2.00520313e-01
-6.00843750e-08,2.00471875e-01
-6.00443750e-08,2.00551563e-01
-6.00043750e-08,2.00295313e-01
-5.99643750e-08,2.00040625e-01
-5.99243750e-08,2.00135937e-01
-5.98843750e-08,2.00071875e-01
-5.98443750e-08,2.00125000e-01
-5.98043750e-08,2.00076562e-01
-5.97643750e-08,2.00123438e-01
-5.97243750e-08,2.00073438e-01
-5.96843750e-08,2.00131250e-01
-5.96443750e-08,2.00059375e-01
-5.96043750e-08,2.00165625e-01
-5.95643750e-08,1.99881250e-01
-5.95243750e-08,1.99656250e-01
-5.94843750e-08,1.99718750e-01
-5.94443750e-08,1.99690625e-01
-5.94043750e-08,1.99703125e-01
-5.93643750e-08,1.99703125e-01
-5.93243750e-08,1.99692188e-01
-5.92843750e-08,1.99714063e-01
-5.92443750e-08,1.99675000e-01
-5.92043750e-08,1.99751563e-01
-5.91643750e-08,1.99495313e-01
-5.91243750e-08,1.99243750e-01
-5.90843750e-08,1.99331250e-01
-5.90443750e-08,1.99279687e-01
-5.90043750e-08,1.99314062e-01
-5.89643750e-08,1.99289063e-01
-5.89243750e-08,1.99306250e-01
-5.88843750e-08,1.99296875e-01
-5.88443750e-08,1.99298438e-01
-5.88043750e-08,1.99307813e-01
-5.87643750e-08,1.99282813e-01
-5.87243750e-08,1.99343750e-01
-5.86843750e-08,1.99103125e-01
-5.86443750e-08,1.98834375e-01
-5.86043750e-08,1.98940625e-01
-5.85643750e-08,1.98868750e-01
-5.85243750e-08,1.98926563e-01
-5.84843750e-08,1.98878125e-01
-5.84443750e-08,1.98920313e-01
-5.84043750e-08,1.98881250e-01
-5.83643750e-08,1.98917188e-01
-5.83243750e-08,1.98882813e-01
-5.82843750e-08,1.98915625e-01
-5.82443750e-08,1.98884375e-01
-5.82043750e-08,1.98914063e-01
-5.81643750e-08,1.98885937e-01
-5.81243750e-08,1.98914063e-01
-5.80843750e-08,1.98885937e-01
-5.80443750e-08,1.98914063e-01
-5.80043750e-08,1.98887500e-01
-5.79643750e-08,1.98912500e-01
-5.79243750e-08,1.98887500e-01
-5.78843750e-08,1.98912500e-01
-5.78443750e-08,1.98887500e-01
-5.78043750e-08,1.98912500e-01
-5.77643750e-08,1.98887500e-01
-5.77243750e-08,1.98912500e-01
-5.76843750e-08,1.98887500e-01
-5.76443750e-08,1.98912500e-01
-5.76043750e-08,1.98885937e-01
-5.75643750e-08,1.98914063e-01
-5.75243750e-08,1.98885937e-01
-5.74843750e-08,1.98914063e-01
-5.74443750e-08,1.98885937e-01
-5.74043750e-08,1.98915625e-01
-5.73643750e-08,1.98884375e-01
-5.73243750e-08,1.98917188e-01
-5.72843750e-08,1.98882813e-01
-5.72443750e-08,1.98918750e-01
-5.72043750e-08,1.98879688e-01
-5.71643750e-08,1.98921875e-01
-5.71243750e-08,1.98876563e-01
-5.70843750e-08,1.98928125e-01
-5.70443750e-08,1.98867188e-01
-5.70043750e-08,1.98943750e-01
-5.69643750e-08,1.98831250e-01
-5.69243750e-08,1.99121875e-01
-5.68843750e-08,1.99339062e-01
-5.68443750e-08,1.99285938e-01
-5.68043750e-08,1.99303125e-01
-5.67643750e-08,1.99303125e-01
-5.67243750e-08,1.99290625e-01
-5.66843750e-08,1.99314062e-01
-5.66443750e-08,1.99278125e-01
-5.66043750e-08,1.99332813e-01
-5.65643750e-08,1.99240625e-01
-5.65243750e-08,1.99514063e-01
-5.64843750e-08,1.99745312e-01
-5.64443750e-08,1.99679688e-01
-5.64043750e-08,1.99707812e-01
-5.63643750e-08,1.99700000e-01
-5.63243750e-08,1.99690625e-01
-5.62843750e-08,1.99721875e-01
-5.62443750e-08,1.99651563e-01
-5.62043750e-08,1.99904688e-01
-5.61643750e-08,2.00156250e-01
-5.61243750e-08,2.00070313e-01
-5.60843750e-08,2.00118750e-01
-5.60443750e-08,2.00089062e-01
-5.60043750e-08,2.00101562e-01
-5.59643750e-08,2.00109375e-01
-5.59243750e-08,2.00064063e-01
-5.58843750e-08,2.00290625e-01
-5.58443750e-08,2.00571875e-01
-5.58043750e-08,2.00453125e-01
-5.57643750e-08,2.00537500e-01
-5.57243750e-08,2.00465625e-01
-5.56843750e-08,2.00531250e-01
-5.56443750e-08,2.00468750e-01
-5.56043750e-08,2.00532813e-01
-5.55643750e-08,2.00464063e-01
-5.55243750e-08,2.00545313e-01
-5.54843750e-08,2.00431250e-01
-5.54443750e-08,2.00720312e-01
-5.54043750e-08,2.00942188e-01
-5.53643750e-08,2.00881250e-01
-5.53243750e-08,2.00909375e-01
-5.52843750e-08,2.00895313e-01
-5.52443750e-08,2.00903125e-01
-5.52043750e-08,2.00900000e-01
-5.51643750e-08,2.00898437e-01
-5.51243750e-08,2.00901563e-01
-5.50843750e-08,2.00896875e-01
-5.50443750e-08,2.00903125e-01
-5.50043750e-08,2.00895313e-01
-5.49643750e-08,2.00904688e-01
-5.49243750e-08,2.00893750e-01
-5.48843750e-08,2.00906250e-01
-5.48443750e-08,2.00892188e-01
-5.48043750e-08,2.00909375e-01
-5.47643750e-08,2.00889062e-01
-5.47243750e-08,2.00914063e-01
-5.46843750e-08,2.00879688e-01
-5.46443750e-08,2.00929688e-01
-5.46043750e-08,2.00845313e-01
-5.45643750e-08,2.01107813e-01
-5.45243750e-08,2.01354688e-01
-5.44843750e-08,2.01268750e-01
-5.44443750e-08,2.01321875e-01
-5.44043750e-08,2.01282813e-01
-5.43643750e-08,2.01314063e-01
-5.43243750e-08,2.01287500e-01
-5.42843750e-08,2.01310938e-01
-5.42443750e-08,2.01289063e-01
-5.42043750e-08,2.01309375e-01
-5.41643750e-08,2.01290625e-01
-5.41243750e-08,2.01309375e-01
-5.40843750e-08,2.01290625e-01
-5.40443750e-08,2.01309375e-01
-5.40043750e-08,2.01290625e-01
-5.39643750e-08,2.01310938e-01
-5.39243750e-08,2.01289063e-01
-5.38843750e-08,2.01312500e-01
-5.38443750e-08,2.01285938e-01
-5.38043750e-08,2.01317187e-01
-5.37643750e-08,2.01278125e-01
-5.37243750e-08,2.01331250e-01
-5.36843750e-08,2.01243750e-01
-5.36443750e-08,2.01509375e-01
-5.36043750e-08,2.01753125e-01
-5.35643750e-08,2.01670313e-01
-5.35243750e-08,2.01720312e-01
-5.34843750e-08,2.01684375e-01
-5.34443750e-08,2.01712500e-01
-5.34043750e-08,2.01689063e-01
-5.33643750e-08,2.01709375e-01
-5.33243750e-08,2.01692188e-01
-5.32843750e-08,2.01707812e-01
-5.32443750e-08,2.01692188e-01
-5.32043750e-08,2.01707812e-01
-5.31643750e-08,2.01693750e-01
-5.31243750e-08,2.01706250e-01
-5.30843750e-08,2.01693750e-01
-5.30443750e-08,2.01706250e-01
-5.30043750e-08,2.01693750e-01
-5.29643750e-08,2.01707812e-01
-5.29243750e-08,2.01692188e-01
-5.28843750e-08,2.01707812e-01
-5.28443750e-08,2.01690625e-01
-5.28043750e-08,2.01709375e-01
-5.27643750e-08,2.01689063e-01
-5.27243750e-08,2.01712500e-01
-5.26843750e-08,2.01684375e-01
-5.26443750e-08,2.01721875e-01
-5.26043750e-08,2.01668750e-01
-5.25643750e-08,2.01756250e-01
-5.25243750e-08,2.01490625e-01
-5.24843750e-08,2.01246875e-01
-5.24443750e-08,2.01329688e-01
-5.24043750e-08,2.01279687e-01
-5.23643750e-08,2.01315625e-01
-5.23243750e-08,2.01287500e-01
-5.22843750e-08,2.01310938e-01
-5.22443750e-08,2.01290625e-01
-5.22043750e-08,2.01307813e-01
-5.21643750e-08,2.01292187e-01
-5.21243750e-08,2.01306250e-01
-5.20843750e-08,2.01293750e-01
-5.20443750e-08,2.01306250e-01
-5.20043750e-08,2.01295313e-01
-5.19643750e-08,2.01304687e-01
-5.19243750e-08,2.01295313e-01
-5.18843750e-08,2.01304687e-01
-5.18443750e-08,2.01295313e-01
-5.18043750e-08,2.01304687e-01
-5.17643750e-08,2.01295313e-01
-5.17243750e-08,2.01303125e-01
-5.16843750e-08,2.01296875e-01
-5.16443750e-08,2.01303125e-01
-5.16043750e-08,2.01296875e-01
-5.15643750e-08,2.01303125e-01
-5.15243750e-08,2.01296875e-01
-5.14843750e-08,2.01303125e-01
-5.14443750e-08,2.01296875e-01
-5.14043750e-08,2.01303125e-01
-5.13643750e-08,2.01296875e-01
-5.13243750e-08,2.01303125e-01
-5.12843750e-08,2.01296875e-01
-5.12443750e-08,2.01303125e-01
-5.12043750e-08,2.01296875e-01
-5.11643750e-08,2.01303125e-01
-5.11243750e-08,2.01296875e-01
-5.10843750e-08,2.01303125e-01
-5.10443750e-08,2.01296875e-01
-5.10043750e-08,2.01303125e-01
-5.09643750e-08,2.01296875e-01
-5.09243750e-08,2.01301563e-01
-5.08843750e-08,2.01298438e-01
-5.08443750e-08,2.01301563e-01
-5.08043750e-08,2.01298438e-01
-5.07643750e-08,2.01301563e-01
-5.07243750e-08,2.01298438e-01
-5.06843750e-08,2.01301563e-01
-5.06443750e-08,2.01298438e-01
-5.06043750e-08,2.01300000e-01
-5.05643750e-08,2.01300000e-01
-5.05243750e-08,2.01300000e-01
-5.04843750e-08,2.01301563e-01
-5.04443750e-08,2.01298438e-01
-5.04043750e-08,2.01303125e-01
-5.03643750e-08,2.01295313e-01
-5.03243750e-08,2.01307813e-01
-5.02843750e-08,2.01287500e-01
-5.02443750e-08,2.01321875e-01
-5.02043750e-08,2.01254688e-01
-5.01643750e-08,2.01498438e-01
-5.01243750e-08,2.01764063e-01
-5.00843750e-08,2.01659375e-01
-5.00443750e-08,2.01732812e-01
-5.00043750e-08,2.01670313e-01
-4.99643750e-08,2.01728125e-01
-4.99243750e-08,2.01671875e-01
-4.98843750e-08,2.01729688e-01
-4.98443750e-08,2.01667188e-01
-4.98043750e-08,2.01742188e-01
-4.97643750e-08,2.01632813e-01
-4.97243750e-08,2.01918750e-01
-4.96843750e-08,2.02143750e-01
-4.96443750e-08,2.02079687e-01
-4.96043750e-08,2.02110938e-01
-4.95643750e-08,2.02093750e-01
-4.95243750e-08,2.02103125e-01
-4.94843750e-08,2.02098438e-01
-4.94443750e-08,2.02100000e-01
-4.94043750e-08,2.02101562e-01
-4.93643750e-08,2.02098438e-01
-4.93243750e-08,2.02103125e-01
-4.92843750e-08,2.02096875e-01
-4.92443750e-08,2.02104688e-01
-4.92043750e-08,2.02095313e-01
-4.91643750e-08,2.02104688e-01
-4.91243750e-08,2.02093750e-01
-4.90843750e-08,2.02106250e-01
-4.90443750e-08,2.02093750e-01
-4.90043750e-08,2.02106250e-01
-4.89643750e-08,2.02092188e-01
-4.89243750e-08,2.02107813e-01
-4.88843750e-08,2.02090625e-01
-4.88443750e-08,2.02109375e-01
-4.88043750e-08,2.02089062e-01
-4.87643750e-08,2.02110938e-01
-4.87243750e-08,2.02087500e-01
-4.86843750e-08,2.02114062e-01
-4.86443750e-08,2.02084375e-01
-4.86043750e-08,2.02117188e-01
-4.85643750e-08,2.02078125e-01
-4.85243750e-08,2.02126562e-01
-4.84843750e-08,2.02062500e-01
-4.84443750e-08,2.02162500e-01
-4.84043750e-08,2.01884375e-01
-4.83643750e-08,2.01654688e-01
-4.83243750e-08,2.01721875e-01
-4.82843750e-08,2.01689063e-01
-4.82443750e-08,2.01704688e-01
-4.82043750e-08,2.01698437e-01
-4.81643750e-08,2.01696875e-01
-4.81243750e-08,2.01706250e-01
-4.80843750e-08,2.01689063e-01
-4.80443750e-08,2.01717188e-01
-4.80043750e-08,2.01671875e-01
-4.79643750e-08,2.01753125e-01
-4.79243750e-08,2.01492188e-01
-4.78843750e-08,2.01246875e-01
-4.78443750e-08,2.01329688e-01
-4.78043750e-08,2.01281250e-01
-4.77643750e-08,2.01312500e-01
-4.77243750e-08,2.01292187e-01
-4.76843750e-08,2.01304687e-01
-4.76443750e-08,2.01298438e-01
-4.76043750e-08,2.01296875e-01
-4.75643750e-08,2.01309375e-01
-4.75243750e-08,2.01281250e-01
-4.74843750e-08,2.01345313e-01
-4.74443750e-08,2.01101562e-01
-4.74043750e-08,2.00835938e-01
-4.73643750e-08,2.00939063e-01
-4.73243750e-08,2.00870313e-01
-4.72843750e-08,2.00925000e-01
-4.72443750e-08,2.00878125e-01
-4.72043750e-08,2.00920313e-01
-4.71643750e-08,2.00879688e-01
-4.71243750e-08,2.00920313e-01
-4.70843750e-08,2.00879688e-01
-4.70443750e-08,2.00921875e-01
-4.70043750e-08,2.00876563e-01
-4.69643750e-08,2.00928125e-01
-4.69243750e-08,2.00864062e-01
-4.68843750e-08,2.00960938e-01
-4.68443750e-08,2.00685938e-01
-4.68043750e-08,2.00450000e-01
-4.67643750e-08,2.00526563e-01
-4.67243750e-08,2.00482812e-01
-4.66843750e-08,2.00512500e-01
-4.66443750e-08,2.00490625e-01
-4.66043750e-08,2.00507812e-01
-4.65643750e-08,2.00492188e-01
-4.65243750e-08,2.00506250e-01
-4.64843750e-08,2.00493750e-01
-4.64443750e-08,2.00506250e-01
-4.64043750e-08,2.00493750e-01
-4.63643750e-08,2.00507812e-01
-4.63243750e-08,2.00492188e-01
-4.62843750e-08,2.00509375e-01
-4.62443750e-08,2.00489063e-01
-4.62043750e-08,2.00512500e-01
-4.61643750e-08,2.00484375e-01
-4.61243750e-08,2.00520313e-01
-4.60843750e-08,2.00470312e-01
-4.60443750e-08,2.00554687e-01
-4.60043750e-08,2.00292187e-01
-4.59643750e-08,2.00045313e-01
-4.59243750e-08,2.00131250e-01
-4.58843750e-08,2.00078125e-01
-4.58443750e-08,2.00117188e-01
-4.58043750e-08,2.00085938e-01
-4.57643750e-08,2.00110938e-01
-4.57243750e-08,2.00090625e-01
-4.56843750e-08,2.00109375e-01
-4.56443750e-08,2.00092188e-01
-4.56043750e-08,2.00107813e-01
-4.55643750e-08,2.00093750e-01
-4.55243750e-08,2.00106250e-01
-4.54843750e-08,2.00093750e-01
-4.54443750e-08,2.00106250e-01
-4.54043750e-08,2.00095313e-01
-4.53643750e-08,2.00104688e-01
-4.53243750e-08,2.00095313e-01
-4.52843750e-08,2.00104688e-01
-4.52443750e-08,2.00095313e-01
-4.52043750e-08,2.00104688e-01
-4.51643750e-08,2.00095313e-01
-4.51243750e-08,2.00103125e-01
-4.50843750e-08,2.00096875e-01
-4.50443750e-08,2.00103125e-01
-4.50043750e-08,2.00096875e-01
-4.49643750e-08,2.00103125e-01
-4.49243750e-08,2.00096875e-01
-4.48843750e-08,2.00103125e-01
-4.48443750e-08,2.00096875e-01
-4.48043750e-08,2.00103125e-01
-4.47643750e-08,2.00096875e-01
-4.47243750e-08,2.00103125e-01
-4.46843750e-08,2.00096875e-01
-4.46443750e-08,2.00103125e-01
-4.46043750e-08,2.00096875e-01
-4.45643750e-08,2.00103125e-01
-4.45243750e-08,2.00098438e-01
-4.44843750e-08,2.00101562e-01
-4.44443750e-08,2.00098438e-01
-4.44043750e-08,2.00101562e-01
-4.43643750e-08,2.00098438e-01
-4.43243750e-08,2.00101562e-01
-4.42843750e-08,2.00098438e-01
-4.42443750e-08,2.00101562e-01
-4.42043750e-08,2.00098438e-01
-4.41643750e-08,2.00101562e-01
-4.41243750e-08,2.00098438e-01
-4.40843750e-08,2.00101562e-01
-4.40443750e-08,2.00098438e-01
-4.40043750e-08,2.00101562e-01
-4.39643750e-08,2.00098438e-01
-4.39243750e-08,2.00100000e-01
-4.38843750e-08,2.00100000e-01
-4.38443750e-08,2.00100000e-01
-4.38043750e-08,2.00100000e-01
-4.37643750e-08,2.00100000e-01
-4.37243750e-08,2.00100000e-01
-4.36843750e-08,2.00098438e-01
-4.36443750e-08,2.00101562e-01
-4.36043750e-08,2.00098438e-01
-4.35643750e-08,2.00103125e-01
-4.35243750e-08,2.00096875e-01
-4.34843750e-08,2.00104688e-01
-4.34443750e-08,2.00093750e-01
-4.34043750e-08,2.00107813e-01
-4.33643750e-08,2.00089062e-01
-4.33243750e-08,2.00115625e-01
-4.32843750e-08,2.00075000e-01
-4.32443750e-08,2.00150000e-01
-4.32043750e-08,1.99896875e-01
-4.31643750e-08,1.99640625e-01
-4.31243750e-08,1.99735938e-01
-4.30843750e-08,1.99673437e-01
-4.30443750e-08,1.99721875e-01
-4.30043750e-08,1.99681250e-01
-4.29643750e-08,1.99717188e-01
-4.29243750e-08,1.99684375e-01
-4.28843750e-08,1.99714063e-01
-4.28443750e-08,1.99685938e-01
-4.28043750e-08,1.99712500e-01
-4.27643750e-08,1.99687500e-01
-4.27243750e-08,1.99712500e-01
-4.26843750e-08,1.99687500e-01
-4.26443750e-08,1.99712500e-01
-4.26043750e-08,1.99687500e-01
-4.25643750e-08,1.99712500e-01
-4.25243750e-08,1.99685938e-01
-4.24843750e-08,1.99714063e-01
-4.24443750e-08,1.99685938e-01
-4.24043750e-08,1.99715625e-01
-4.23643750e-08,1.99682813e-01
-4.23243750e-08,1.99718750e-01
-4.22843750e-08,1.99679688e-01
-4.22443750e-08,1.99723438e-01
-4.22043750e-08,1.99671875e-01
-4.21643750e-08,1.99737500e-01
-4.21243750e-08,1.99637500e-01
-4.20843750e-08,1.99917188e-01
-4.20443750e-08,2.00145313e-01
-4.20043750e-08,2.00078125e-01
-4.19643750e-08,2.00110938e-01
-4.19243750e-08,2.00093750e-01
-4.18843750e-08,2.00103125e-01
-4.18443750e-08,2.00100000e-01
-4.18043750e-08,2.00098438e-01
-4.17643750e-08,2.00104688e-01
-4.17243750e-08,2.00093750e-01
-4.16843750e-08,2.00109375e-01
-4.16443750e-08,2.00089062e-01
-4.16043750e-08,2.00115625e-01
-4.15643750e-08,2.00079688e-01
-4.15243750e-08,2.00131250e-01
-4.14843750e-08,2.00043750e-01
-4.14443750e-08,2.00309375e-01
-4.14043750e-08,2.00551563e-01
-4.13643750e-08,2.00471875e-01
-4.13243750e-08,2.00517187e-01
-4.12843750e-08,2.00487500e-01
-4.12443750e-08,2.00507812e-01
-4.12043750e-08,2.00495313e-01
-4.11643750e-08,2.00501563e-01
-4.11243750e-08,2.00500000e-01
-4.10843750e-08,2.00496875e-01
-4.10443750e-08,2.00507812e-01
-4.10043750e-08,2.00487500e-01
-4.09643750e-08,2.00523438e-01
-4.09243750e-08,2.00451563e-01
-4.08843750e-08,2.00701563e-01
-4.08443750e-08,2.00959375e-01
-4.08043750e-08,2.00864062e-01
-4.07643750e-08,2.00926563e-01
-4.07243750e-08,2.00879688e-01
-4.06843750e-08,2.00917188e-01
-4.06443750e-08,2.00884375e-01
-4.06043750e-08,2.00914063e-01
-4.05643750e-08,2.00887500e-01
-4.05243750e-08,2.00910937e-01
-4.04843750e-08,2.00889062e-01
-4.04443750e-08,2.00909375e-01
-4.04043750e-08,2.00890625e-01
-4.03643750e-08,2.00909375e-01
-4.03243750e-08,2.00890625e-01
-4.02843750e-08,2.00907813e-01
-4.02443750e-08,2.00892188e-01
-4.02043750e-08,2.00907813e-01
-4.01643750e-08,2.00892188e-01
-4.01243750e-08,2.00907813e-01
-4.00843750e-08,2.00893750e-01
-4.00443750e-08,2.00906250e-01
-4.00043750e-08,2.00893750e-01
-3.99643750e-08,2.00906250e-01
-3.99243750e-08,2.00893750e-01
-3.98843750e-08,2.00906250e-01
-3.98443750e-08,2.00893750e-01
-3.98043750e-08,2.00906250e-01
-3.97643750e-08,2.00893750e-01
-3.97243750e-08,2.00906250e-01
-3.96843750e-08,2.00893750e-01
-3.96443750e-08,2.00906250e-01
-3.96043750e-08,2.00895313e-01
-3.95643750e-08,2.00904688e-01
-3.95243750e-08,2.00895313e-01
-3.94843750e-08,2.00904688e-01
-3.94443750e-08,2.00895313e-01
-3.94043750e-08,2.00904688e-01
-3.93643750e-08,2.00895313e-01
-3.93243750e-08,2.00904688e-01
-3.92843750e-08,2.00895313e-01
-3.92443750e-08,2.00904688e-01
-3.92043750e-08,2.00895313e-01
-3.91643750e-08,2.00904688e-01
-3.91243750e-08,2.00895313e-01
-3.90843750e-08,2.00904688e-01
-3.90443750e-08,2.00895313e-01
-3.90043750e-08,2.00904688e-01
-3.89643750e-08,2.00895313e-01
-3.89243750e-08,2.00904688e-01
-3.88843750e-08,2.00895313e-01
-3.88443750e-08,2.00904688e-01
-3.88043750e-08,2.00895313e-01
-3.87643750e-08,2.00904688e-01
-3.87243750e-08,2.00895313e-01
-3.86843750e-08,2.00904688e-01
-3.86443750e-08,2.00895313e-01
-3.86043750e-08,2.00904688e-01
-3.85643750e-08,2.00896875e-01
-3.85243750e-08,2.00903125e-01
