trails/0b415fe76bd122fbe60d5dd91566c6d8/aes_ch1_20250507111427558.csv

Model,MSO66B
Label,
Waveform Type,ANALOG
Horizontal Units,s
Sample Interval,4.00000000e-11
Record Length,10000
Zero Index,1599.07031250
Vertical Units,A
ANALOG_Thumbnail,
yOffset,1.84500000e-01
yPosition,8.40000000e-01

Labels,
TIME,CH1
-6.39628125e-08,1.80529688e-01
-6.39228125e-08,1.80446875e-01
-6.38828125e-08,1.80706250e-01
-6.38428125e-08,1.80956250e-01
-6.38028125e-08,1.80867187e-01
-6.37628125e-08,1.80923438e-01
-6.37228125e-08,1.80879687e-01
-6.36828125e-08,1.80917188e-01
-6.36428125e-08,1.80884375e-01
-6.36028125e-08,1.80915625e-01
-6.35628125e-08,1.80884375e-01
-6.35228125e-08,1.80917188e-01
-6.34828125e-08,1.80881250e-01
-6.34428125e-08,1.80921875e-01
-6.34028125e-08,1.80873438e-01
-6.33628125e-08,1.80935938e-01
-6.33228125e-08,1.80839063e-01
-6.32828125e-08,1.81114063e-01
-6.32428125e-08,1.81348438e-01
-6.32028125e-08,1.81275000e-01
-6.31628125e-08,1.81315625e-01
-6.31228125e-08,1.81289063e-01
-6.30828125e-08,1.81307812e-01
-6.30428125e-08,1.81295312e-01
-6.30028125e-08,1.81303125e-01
-6.29628125e-08,1.81296875e-01
-6.29228125e-08,1.81301563e-01
-6.28828125e-08,1.81300000e-01
-6.28428125e-08,1.81300000e-01
-6.28028125e-08,1.81301563e-01
-6.27628125e-08,1.81298438e-01
-6.27228125e-08,1.81303125e-01
-6.26828125e-08,1.81296875e-01
-6.26428125e-08,1.81304688e-01
-6.26028125e-08,1.81295312e-01
-6.25628125e-08,1.81306250e-01
-6.25228125e-08,1.81292188e-01
-6.24828125e-08,1.81309375e-01
-6.24428125e-08,1.81289063e-01
-6.24028125e-08,1.81312500e-01
-6.23628125e-08,1.81282813e-01
-6.23228125e-08,1.81321875e-01
-6.22828125e-08,1.81268750e-01
-6.22428125e-08,1.81357812e-01
-6.22028125e-08,1.81089063e-01
-6.21628125e-08,1.80848438e-01
-6.21228125e-08,1.80926562e-01
-6.20828125e-08,1.80884375e-01
-6.20428125e-08,1.80910938e-01
-6.20028125e-08,1.80893750e-01
-6.19628125e-08,1.80903125e-01
-6.19228125e-08,1.80900000e-01
-6.18828125e-08,1.80895313e-01
-6.18428125e-08,1.80910938e-01
-6.18028125e-08,1.80879687e-01
-6.17628125e-08,1.80945313e-01
-6.17228125e-08,1.80701562e-01
-6.16828125e-08,1.80437500e-01
-6.16428125e-08,1.80539063e-01
-6.16028125e-08,1.80468750e-01
-6.15628125e-08,1.80528125e-01
-6.15228125e-08,1.80473438e-01
-6.14828125e-08,1.80529688e-01
-6.14428125e-08,1.80464062e-01
-6.14028125e-08,1.80559375e-01
-6.13628125e-08,1.80289063e-01
-6.13228125e-08,1.80046875e-01
-6.12828125e-08,1.80131250e-01
-6.12428125e-08,1.80075000e-01
-6.12028125e-08,1.80123438e-01
-6.11628125e-08,1.80076563e-01
-6.11228125e-08,1.80126563e-01
-6.10828125e-08,1.80064063e-01
-6.10428125e-08,1.80160938e-01
-6.10028125e-08,1.79885938e-01
-6.09628125e-08,1.79651563e-01
-6.09228125e-08,1.79723437e-01
-6.08828125e-08,1.79685938e-01
-6.08428125e-08,1.79706250e-01
-6.08028125e-08,1.79698438e-01
-6.07628125e-08,1.79696875e-01
-6.07228125e-08,1.79709375e-01
-6.06828125e-08,1.79679688e-01
-6.06428125e-08,1.79745313e-01
-6.06028125e-08,1.79500000e-01
-6.05628125e-08,1.79237500e-01
-6.05228125e-08,1.79337500e-01
-6.04828125e-08,1.79271875e-01
-6.04428125e-08,1.79323438e-01
-6.04028125e-08,1.79279688e-01
-6.03628125e-08,1.79317188e-01
-6.03228125e-08,1.79284375e-01
-6.02828125e-08,1.79315625e-01
-6.02428125e-08,1.79285938e-01
-6.02028125e-08,1.79312500e-01
-6.01628125e-08,1.79287500e-01
-6.01228125e-08,1.79312500e-01
-6.00828125e-08,1.79287500e-01
-6.00428125e-08,1.79310938e-01
-6.00028125e-08,1.79289063e-01
-5.99628125e-08,1.79312500e-01
-5.99228125e-08,1.79287500e-01
-5.98828125e-08,1.79312500e-01
-5.98428125e-08,1.79287500e-01
-5.98028125e-08,1.79314063e-01
-5.97628125e-08,1.79284375e-01
-5.97228125e-08,1.79318750e-01
-5.96828125e-08,1.79276563e-01
-5.96428125e-08,1.79332812e-01
-5.96028125e-08,1.79243750e-01
-5.95628125e-08,1.79509375e-01
-5.95228125e-08,1.79754688e-01
-5.94828125e-08,1.79668750e-01
-5.94428125e-08,1.79721875e-01
-5.94028125e-08,1.79681250e-01
-5.93628125e-08,1.79717188e-01
-5.93228125e-08,1.79682813e-01
-5.92828125e-08,1.79718750e-01
-5.92428125e-08,1.79678125e-01
-5.92028125e-08,1.79731250e-01
-5.91628125e-08,1.79645313e-01
-5.91228125e-08,1.79907813e-01
-5.90828125e-08,1.80156250e-01
-5.90428125e-08,1.80067188e-01
-5.90028125e-08,1.80123438e-01
-5.89628125e-08,1.80079688e-01
-5.89228125e-08,1.80118750e-01
-5.88828125e-08,1.80081250e-01
-5.88428125e-08,1.80120313e-01
-5.88028125e-08,1.80076563e-01
-5.87628125e-08,1.80132813e-01
-5.87228125e-08,1.80043750e-01
-5.86828125e-08,1.80309375e-01
-5.86428125e-08,1.80554688e-01
-5.86028125e-08,1.80468750e-01
-5.85628125e-08,1.80523437e-01
-5.85228125e-08,1.80481250e-01
-5.84828125e-08,1.80517188e-01
-5.84428125e-08,1.80484375e-01
-5.84028125e-08,1.80515625e-01
-5.83628125e-08,1.80482813e-01
-5.83228125e-08,1.80520313e-01
-5.82828125e-08,1.80475000e-01
-5.82428125e-08,1.80534375e-01
-5.82028125e-08,1.80442188e-01
-5.81628125e-08,1.80710938e-01
-5.81228125e-08,1.80951562e-01
-5.80828125e-08,1.80871875e-01
-5.80428125e-08,1.80918750e-01
-5.80028125e-08,1.80885938e-01
-5.79628125e-08,1.80910938e-01
-5.79228125e-08,1.80892187e-01
-5.78828125e-08,1.80906250e-01
-5.78428125e-08,1.80893750e-01
-5.78028125e-08,1.80904687e-01
-5.77628125e-08,1.80895313e-01
-5.77228125e-08,1.80903125e-01
-5.76828125e-08,1.80896875e-01
-5.76428125e-08,1.80903125e-01
-5.76028125e-08,1.80898438e-01
-5.75628125e-08,1.80901563e-01
-5.75228125e-08,1.80898438e-01
-5.74828125e-08,1.80901563e-01
-5.74428125e-08,1.80900000e-01
-5.74028125e-08,1.80900000e-01
-5.73628125e-08,1.80900000e-01
-5.73228125e-08,1.80900000e-01
-5.72828125e-08,1.80900000e-01
-5.72428125e-08,1.80898438e-01
-5.72028125e-08,1.80901563e-01
-5.71628125e-08,1.80898438e-01
-5.71228125e-08,1.80901563e-01
-5.70828125e-08,1.80898438e-01
-5.70428125e-08,1.80903125e-01
-5.70028125e-08,1.80896875e-01
-5.69628125e-08,1.80903125e-01
-5.69228125e-08,1.80895313e-01
-5.68828125e-08,1.80904687e-01
-5.68428125e-08,1.80893750e-01
-5.68028125e-08,1.80906250e-01
-5.67628125e-08,1.80892187e-01
-5.67228125e-08,1.80909375e-01
-5.66828125e-08,1.80889063e-01
-5.66428125e-08,1.80912500e-01
-5.66028125e-08,1.80884375e-01
-5.65628125e-08,1.80921875e-01
-5.65228125e-08,1.80868750e-01
-5.64828125e-08,1.80956250e-01
-5.64428125e-08,1.80690625e-01
-5.64028125e-08,1.80446875e-01
-5.63628125e-08,1.80528125e-01
-5.63228125e-08,1.80481250e-01
-5.62828125e-08,1.80512500e-01
-5.62428125e-08,1.80490625e-01
-5.62028125e-08,1.80506250e-01
-5.61628125e-08,1.80495313e-01
-5.61228125e-08,1.80503125e-01
-5.60828125e-08,1.80500000e-01
-5.60428125e-08,1.80498437e-01
-5.60028125e-08,1.80504688e-01
-5.59628125e-08,1.80492188e-01
-5.59228125e-08,1.80514063e-01
-5.58828125e-08,1.80476562e-01
-5.58428125e-08,1.80548438e-01
-5.58028125e-08,1.80298438e-01
-5.57628125e-08,1.80040625e-01
-5.57228125e-08,1.80135938e-01
-5.56828125e-08,1.80073438e-01
-5.56428125e-08,1.80120313e-01
-5.56028125e-08,1.80082812e-01
-5.55628125e-08,1.80115625e-01
-5.55228125e-08,1.80085938e-01
-5.54828125e-08,1.80112500e-01
-5.54428125e-08,1.80087500e-01
-5.54028125e-08,1.80110938e-01
-5.53628125e-08,1.80089063e-01
-5.53228125e-08,1.80109375e-01
-5.52828125e-08,1.80090625e-01
-5.52428125e-08,1.80109375e-01
-5.52028125e-08,1.80090625e-01
-5.51628125e-08,1.80109375e-01
-5.51228125e-08,1.80090625e-01
-5.50828125e-08,1.80109375e-01
-5.50428125e-08,1.80090625e-01
-5.50028125e-08,1.80109375e-01
-5.49628125e-08,1.80090625e-01
-5.49228125e-08,1.80110938e-01
-5.48828125e-08,1.80087500e-01
-5.48428125e-08,1.80115625e-01
-5.48028125e-08,1.80081250e-01
-5.47628125e-08,1.80128125e-01
-5.47228125e-08,1.80048438e-01
-5.46828125e-08,1.80304688e-01
-5.46428125e-08,1.80559375e-01
-5.46028125e-08,1.80462500e-01
-5.45628125e-08,1.80529688e-01
-5.45228125e-08,1.80473438e-01
-5.44828125e-08,1.80528125e-01
-5.44428125e-08,1.80468750e-01
-5.44028125e-08,1.80539063e-01
-5.43628125e-08,1.80435938e-01
-5.43228125e-08,1.80717188e-01
-5.42828125e-08,1.80943750e-01
-5.42428125e-08,1.80881250e-01
-5.42028125e-08,1.80907813e-01
-5.41628125e-08,1.80900000e-01
-5.41228125e-08,1.80892187e-01
-5.40828125e-08,1.80918750e-01
-5.40428125e-08,1.80854687e-01
-5.40028125e-08,1.81098438e-01
-5.39628125e-08,1.81362500e-01
-5.39228125e-08,1.81260937e-01
-5.38828125e-08,1.81328125e-01
-5.38428125e-08,1.81276563e-01
-5.38028125e-08,1.81320312e-01
-5.37628125e-08,1.81282813e-01
-5.37228125e-08,1.81315625e-01
-5.36828125e-08,1.81284375e-01
-5.36428125e-08,1.81314063e-01
-5.36028125e-08,1.81287500e-01
-5.35628125e-08,1.81312500e-01
-5.35228125e-08,1.81287500e-01
-5.34828125e-08,1.81310938e-01
-5.34428125e-08,1.81289063e-01
-5.34028125e-08,1.81310938e-01
-5.33628125e-08,1.81289063e-01
-5.33228125e-08,1.81310938e-01
-5.32828125e-08,1.81289063e-01
-5.32428125e-08,1.81310938e-01
-5.32028125e-08,1.81289063e-01
-5.31628125e-08,1.81310938e-01
-5.31228125e-08,1.81289063e-01
-5.30828125e-08,1.81310938e-01
-5.30428125e-08,1.81287500e-01
-5.30028125e-08,1.81312500e-01
-5.29628125e-08,1.81285937e-01
-5.29228125e-08,1.81315625e-01
-5.28828125e-08,1.81281250e-01
-5.28428125e-08,1.81323438e-01
-5.28028125e-08,1.81267188e-01
-5.27628125e-08,1.81357812e-01
-5.27228125e-08,1.81090625e-01
-5.26828125e-08,1.80846875e-01
-5.26428125e-08,1.80929688e-01
-5.26028125e-08,1.80878125e-01
-5.25628125e-08,1.80917188e-01
-5.25228125e-08,1.80884375e-01
-5.24828125e-08,1.80915625e-01
-5.24428125e-08,1.80882813e-01
-5.24028125e-08,1.80921875e-01
-5.23628125e-08,1.80870313e-01
-5.23228125e-08,1.80954688e-01
-5.22828125e-08,1.80692188e-01
-5.22428125e-08,1.80443750e-01
-5.22028125e-08,1.80532813e-01
-5.21628125e-08,1.80476562e-01
-5.21228125e-08,1.80518750e-01
-5.20828125e-08,1.80482813e-01
-5.20428125e-08,1.80515625e-01
-5.20028125e-08,1.80485937e-01
-5.19628125e-08,1.80514063e-01
-5.19228125e-08,1.80485937e-01
-5.18828125e-08,1.80514063e-01
-5.18428125e-08,1.80485937e-01
-5.18028125e-08,1.80514063e-01
-5.17628125e-08,1.80484375e-01
-5.17228125e-08,1.80517188e-01
-5.16828125e-08,1.80479688e-01
-5.16428125e-08,1.80525000e-01
-5.16028125e-08,1.80465625e-01
-5.15628125e-08,1.80559375e-01
-5.15228125e-08,1.80287500e-01
-5.14828125e-08,1.80050000e-01
-5.14428125e-08,1.80126563e-01
-5.14028125e-08,1.80082812e-01
-5.13628125e-08,1.80112500e-01
-5.13228125e-08,1.80090625e-01
-5.12828125e-08,1.80107813e-01
-5.12428125e-08,1.80093750e-01
-5.12028125e-08,1.80104687e-01
-5.11628125e-08,1.80095312e-01
-5.11228125e-08,1.80104687e-01
-5.10828125e-08,1.80096875e-01
-5.10428125e-08,1.80103125e-01
-5.10028125e-08,1.80096875e-01
-5.09628125e-08,1.80103125e-01
-5.09228125e-08,1.80096875e-01
-5.08828125e-08,1.80103125e-01
-5.08428125e-08,1.80096875e-01
-5.08028125e-08,1.80103125e-01
-5.07628125e-08,1.80096875e-01
-5.07228125e-08,1.80103125e-01
-5.06828125e-08,1.80096875e-01
-5.06428125e-08,1.80103125e-01
-5.06028125e-08,1.80096875e-01
-5.05628125e-08,1.80104687e-01
-5.05228125e-08,1.80095312e-01
-5.04828125e-08,1.80106250e-01
-5.04428125e-08,1.80093750e-01
-5.04028125e-08,1.80109375e-01
-5.03628125e-08,1.80087500e-01
-5.03228125e-08,1.80117187e-01
-5.02828125e-08,1.80073438e-01
-5.02428125e-08,1.80150000e-01
-5.02028125e-08,1.79896875e-01
-5.01628125e-08,1.79640625e-01
-5.01228125e-08,1.79735937e-01
-5.00828125e-08,1.79673438e-01
-5.00428125e-08,1.79721875e-01
-5.00028125e-08,1.79679688e-01
-4.99628125e-08,1.79718750e-01
-4.99228125e-08,1.79681250e-01
-4.98828125e-08,1.79718750e-01
-4.98428125e-08,1.79681250e-01
-4.98028125e-08,1.79720313e-01
-4.97628125e-08,1.79676562e-01
-4.97228125e-08,1.79728125e-01
-4.96828125e-08,1.79662500e-01
-4.96428125e-08,1.79760937e-01
-4.96028125e-08,1.79485937e-01
-4.95628125e-08,1.79251563e-01
-4.95228125e-08,1.79323438e-01
-4.94828125e-08,1.79285938e-01
-4.94428125e-08,1.79309375e-01
-4.94028125e-08,1.79293750e-01
-4.93628125e-08,1.79304688e-01
-4.93228125e-08,1.79296875e-01
-4.92828125e-08,1.79301563e-01
-4.92428125e-08,1.79300000e-01
-4.92028125e-08,1.79300000e-01
-4.91628125e-08,1.79301563e-01
-4.91228125e-08,1.79296875e-01
-4.90828125e-08,1.79304688e-01
-4.90428125e-08,1.79293750e-01
-4.90028125e-08,1.79307812e-01
-4.89628125e-08,1.79289063e-01
-4.89228125e-08,1.79315625e-01
-4.88828125e-08,1.79275000e-01
-4.88428125e-08,1.79350000e-01
-4.88028125e-08,1.79096875e-01
-4.87628125e-08,1.78840625e-01
-4.87228125e-08,1.78934375e-01
-4.86828125e-08,1.78873438e-01
-4.86428125e-08,1.78921875e-01
-4.86028125e-08,1.78881250e-01
-4.85628125e-08,1.78917188e-01
-4.85228125e-08,1.78884375e-01
-4.84828125e-08,1.78915625e-01
-4.84428125e-08,1.78884375e-01
-4.84028125e-08,1.78915625e-01
-4.83628125e-08,1.78884375e-01
-4.83228125e-08,1.78917188e-01
-4.82828125e-08,1.78881250e-01
-4.82428125e-08,1.78921875e-01
-4.82028125e-08,1.78873438e-01
-4.81628125e-08,1.78935938e-01
-4.81228125e-08,1.78839063e-01
-4.80828125e-08,1.79112500e-01
-4.80428125e-08,1.79350000e-01
-4.80028125e-08,1.79275000e-01
-4.79628125e-08,1.79315625e-01
-4.79228125e-08,1.79289063e-01
-4.78828125e-08,1.79307812e-01
-4.78428125e-08,1.79293750e-01
-4.78028125e-08,1.79304688e-01
-4.77628125e-08,1.79296875e-01
-4.77228125e-08,1.79303125e-01
-4.76828125e-08,1.79298438e-01
-4.76428125e-08,1.79301563e-01
-4.76028125e-08,1.79298438e-01
-4.75628125e-08,1.79300000e-01
-4.75228125e-08,1.79300000e-01
-4.74828125e-08,1.79300000e-01
-4.74428125e-08,1.79300000e-01
-4.74028125e-08,1.79300000e-01
-4.73628125e-08,1.79301563e-01
-4.73228125e-08,1.79298438e-01
-4.72828125e-08,1.79301563e-01
-4.72428125e-08,1.79298438e-01
-4.72028125e-08,1.79303125e-01
-4.71628125e-08,1.79296875e-01
-4.71228125e-08,1.79303125e-01
-4.70828125e-08,1.79295312e-01
-4.70428125e-08,1.79304688e-01
-4.70028125e-08,1.79293750e-01
-4.69628125e-08,1.79306250e-01
-4.69228125e-08,1.79292188e-01
-4.68828125e-08,1.79309375e-01
-4.68428125e-08,1.79287500e-01
-4.68028125e-08,1.79315625e-01
-4.67628125e-08,1.79279688e-01
-4.67228125e-08,1.79329688e-01
-4.66828125e-08,1.79245313e-01
-4.66428125e-08,1.79507813e-01
-4.66028125e-08,1.79754688e-01
-4.65628125e-08,1.79670313e-01
-4.65228125e-08,1.79720313e-01
-4.64828125e-08,1.79684375e-01
-4.64428125e-08,1.79712500e-01
-4.64028125e-08,1.79690625e-01
-4.63628125e-08,1.79707813e-01
-4.63228125e-08,1.79693750e-01
-4.62828125e-08,1.79706250e-01
-4.62428125e-08,1.79695313e-01
-4.62028125e-08,1.79703125e-01
-4.61628125e-08,1.79696875e-01
-4.61228125e-08,1.79701562e-01
-4.60828125e-08,1.79698438e-01
-4.60428125e-08,1.79700000e-01
-4.60028125e-08,1.79701562e-01
-4.59628125e-08,1.79696875e-01
-4.59228125e-08,1.79704688e-01
-4.58828125e-08,1.79693750e-01
-4.58428125e-08,1.79709375e-01
-4.58028125e-08,1.79684375e-01
-4.57628125e-08,1.79725000e-01
-4.57228125e-08,1.79650000e-01
-4.56828125e-08,1.79904687e-01
-4.56428125e-08,1.80157813e-01
-4.56028125e-08,1.80067188e-01
-4.55628125e-08,1.80123438e-01
-4.55228125e-08,1.80082812e-01
-4.54828125e-08,1.80112500e-01
-4.54428125e-08,1.80092188e-01
-4.54028125e-08,1.80101563e-01
-4.53628125e-08,1.80109375e-01
-4.53228125e-08,1.80065625e-01
-4.52828125e-08,1.80287500e-01
-4.52428125e-08,1.80575000e-01
-4.52028125e-08,1.80446875e-01
-4.51628125e-08,1.80545312e-01
-4.51228125e-08,1.80457813e-01
-4.50828125e-08,1.80542188e-01
-4.50428125e-08,1.80454688e-01
-4.50028125e-08,1.80553125e-01
-4.49628125e-08,1.80421875e-01
-4.49228125e-08,1.80729688e-01
-4.48828125e-08,1.80932813e-01
-4.48428125e-08,1.80892187e-01
-4.48028125e-08,1.80898438e-01
-4.47628125e-08,1.80907813e-01
-4.47228125e-08,1.80887500e-01
-4.46828125e-08,1.80917188e-01
-4.46428125e-08,1.80876563e-01
-4.46028125e-08,1.80934375e-01
-4.45628125e-08,1.80840625e-01
-4.45228125e-08,1.81114063e-01
-4.44828125e-08,1.81348438e-01
-4.44428125e-08,1.81276563e-01
-4.44028125e-08,1.81314063e-01
-4.43628125e-08,1.81292188e-01
-4.43228125e-08,1.81304688e-01
-4.42828125e-08,1.81298438e-01
-4.42428125e-08,1.81300000e-01
-4.42028125e-08,1.81303125e-01
-4.41628125e-08,1.81295312e-01
-4.41228125e-08,1.81307812e-01
-4.40828125e-08,1.81290625e-01
-4.40428125e-08,1.81314063e-01
-4.40028125e-08,1.81281250e-01
-4.39628125e-08,1.81328125e-01
-4.39228125e-08,1.81245313e-01
-4.38828125e-08,1.81507813e-01
-4.38428125e-08,1.81754688e-01
-4.38028125e-08,1.81670313e-01
-4.37628125e-08,1.81720313e-01
-4.37228125e-08,1.81684375e-01
-4.36828125e-08,1.81712500e-01
-4.36428125e-08,1.81689062e-01
-4.36028125e-08,1.81707813e-01
-4.35628125e-08,1.81692188e-01
-4.35228125e-08,1.81706250e-01
-4.34828125e-08,1.81695313e-01
-4.34428125e-08,1.81704688e-01
-4.34028125e-08,1.81695313e-01
-4.33628125e-08,1.81703125e-01
-4.33228125e-08,1.81696875e-01
-4.32828125e-08,1.81703125e-01
-4.32428125e-08,1.81698438e-01
-4.32028125e-08,1.81701562e-01
-4.31628125e-08,1.81698438e-01
-4.31228125e-08,1.81701562e-01
-4.30828125e-08,1.81700000e-01
-4.30428125e-08,1.81700000e-01
-4.30028125e-08,1.81700000e-01
-4.29628125e-08,1.81698438e-01
-4.29228125e-08,1.81701562e-01
-4.28828125e-08,1.81698438e-01
-4.28428125e-08,1.81703125e-01
-4.28028125e-08,1.81696875e-01
-4.27628125e-08,1.81704688e-01
-4.27228125e-08,1.81693750e-01
-4.26828125e-08,1.81706250e-01
-4.26428125e-08,1.81690625e-01
-4.26028125e-08,1.81712500e-01
-4.25628125e-08,1.81682813e-01
-4.25228125e-08,1.81726562e-01
-4.24828125e-08,1.81648438e-01
-4.24428125e-08,1.81904687e-01
-4.24028125e-08,1.82157813e-01
-4.23628125e-08,1.82065625e-01
-4.23228125e-08,1.82125000e-01
-4.22828125e-08,1.82079688e-01
-4.22428125e-08,1.82117187e-01
-4.22028125e-08,1.82084375e-01
-4.21628125e-08,1.82114063e-01
-4.21228125e-08,1.82085938e-01
-4.20828125e-08,1.82112500e-01
-4.20428125e-08,1.82087500e-01
-4.20028125e-08,1.82114063e-01
-4.19628125e-08,1.82085938e-01
-4.19228125e-08,1.82115625e-01
-4.18828125e-08,1.82081250e-01
-4.18428125e-08,1.82123438e-01
-4.18028125e-08,1.82068750e-01
-4.17628125e-08,1.82156250e-01
-4.17228125e-08,1.81890625e-01
-4.16828125e-08,1.81646875e-01
-4.16428125e-08,1.81731250e-01
-4.16028125e-08,1.81678125e-01
-4.15628125e-08,1.81717188e-01
-4.15228125e-08,1.81684375e-01
-4.14828125e-08,1.81714062e-01
-4.14428125e-08,1.81685938e-01
-4.14028125e-08,1.81714062e-01
-4.13628125e-08,1.81684375e-01
-4.13228125e-08,1.81717188e-01
-4.12828125e-08,1.81681250e-01
-4.12428125e-08,1.81725000e-01
-4.12028125e-08,1.81665625e-01
-4.11628125e-08,1.81759375e-01
-4.11228125e-08,1.81487500e-01
-4.10828125e-08,1.81250000e-01
-4.10428125e-08,1.81325000e-01
-4.10028125e-08,1.81284375e-01
-4.09628125e-08,1.81309375e-01
-4.09228125e-08,1.81295312e-01
-4.08828125e-08,1.81300000e-01
-4.08428125e-08,1.81306250e-01
-4.08028125e-08,1.81282813e-01
-4.07628125e-08,1.81342188e-01
-4.07228125e-08,1.81104688e-01
-4.06828125e-08,1.80832812e-01
-4.06428125e-08,1.80943750e-01
-4.06028125e-08,1.80865625e-01
-4.05628125e-08,1.80931250e-01
-4.05228125e-08,1.80871875e-01
-4.04828125e-08,1.80928125e-01
-4.04428125e-08,1.80870313e-01
-4.04028125e-08,1.80934375e-01
-4.03628125e-08,1.80857812e-01
-4.03228125e-08,1.80967188e-01
-4.02828125e-08,1.80681250e-01
-4.02428125e-08,1.80456250e-01
-4.02028125e-08,1.80520313e-01
-4.01628125e-08,1.80489063e-01
-4.01228125e-08,1.80506250e-01
-4.00828125e-08,1.80495313e-01
-4.00428125e-08,1.80501563e-01
-4.00028125e-08,1.80498437e-01
-3.99628125e-08,1.80500000e-01
-3.99228125e-08,1.80500000e-01
-3.98828125e-08,1.80498437e-01
-3.98428125e-08,1.80501563e-01
-3.98028125e-08,1.80498437e-01
-3.97628125e-08,1.80503125e-01
-3.97228125e-08,1.80496875e-01
-3.96828125e-08,1.80503125e-01
-3.96428125e-08,1.80496875e-01
-3.96028125e-08,1.80503125e-01
-3.95628125e-08,1.80496875e-01
-3.95228125e-08,1.80503125e-01
-3.94828125e-08,1.80495313e-01
-3.94428125e-08,1.80504688e-01
-3.94028125e-08,1.80495313e-01
-3.93628125e-08,1.80504688e-01
-3.93228125e-08,1.80495313e-01
-3.92828125e-08,1.80504688e-01
-3.92428125e-08,1.80495313e-01
-3.92028125e-08,1.80506250e-01
-3.91628125e-08,1.80493750e-01
-3.91228125e-08,1.80506250e-01
-3.90828125e-08,1.80493750e-01
-3.90428125e-08,1.80507813e-01
-3.90028125e-08,1.80492188e-01
-3.89628125e-08,1.80509375e-01
-3.89228125e-08,1.80489063e-01
-3.88828125e-08,1.80510937e-01
-3.88428125e-08,1.80485937e-01
-3.88028125e-08,1.80517188e-01
-3.87628125e-08,1.80478125e-01
-3.87228125e-08,1.80531250e-01
-3.86828125e-08,1.80443750e-01
-3.86428125e-08,1.80709375e-01
-3.86028125e-08,1.80953125e-01
-3.85628125e-08,1.80870313e-01
-3.85228125e-08,1.80920313e-01
