trails/0b415fe76bd122fbe60d5dd91566c6d8/aes_ch1_20250507111708346.csv

Model,MSO66B
Label,
Waveform Type,ANALOG
Horizontal Units,s
Sample Interval,4.00000000e-11
Record Length,10000
Zero Index,1599.08984375
Vertical Units,A
ANALOG_Thumbnail,
yOffset,1.84500000e-01
yPosition,8.40000000e-01

Labels,
TIME,CH1
-6.39635937e-08,1.78520313e-01
-6.39235937e-08,1.78478125e-01
-6.38835938e-08,1.78526563e-01
-6.38435937e-08,1.78465625e-01
-6.38035938e-08,1.78559375e-01
-6.37635937e-08,1.78287500e-01
-6.37235937e-08,1.78050000e-01
-6.36835937e-08,1.78126563e-01
-6.36435937e-08,1.78082813e-01
-6.36035938e-08,1.78112500e-01
-6.35635937e-08,1.78089063e-01
-6.35235938e-08,1.78107813e-01
-6.34835937e-08,1.78092187e-01
-6.34435937e-08,1.78106250e-01
-6.34035937e-08,1.78093750e-01
-6.33635937e-08,1.78104687e-01
-6.33235938e-08,1.78095313e-01
-6.32835937e-08,1.78104687e-01
-6.32435938e-08,1.78095313e-01
-6.32035937e-08,1.78104687e-01
-6.31635937e-08,1.78095313e-01
-6.31235937e-08,1.78104687e-01
-6.30835937e-08,1.78095313e-01
-6.30435938e-08,1.78104687e-01
-6.30035937e-08,1.78093750e-01
-6.29635938e-08,1.78107813e-01
-6.29235937e-08,1.78090625e-01
-6.28835937e-08,1.78110938e-01
-6.28435937e-08,1.78084375e-01
-6.28035937e-08,1.78125000e-01
-6.27635938e-08,1.78050000e-01
-6.27235937e-08,1.78301563e-01
-6.26835938e-08,1.78560938e-01
-6.26435937e-08,1.78462500e-01
-6.26035937e-08,1.78529688e-01
-6.25635937e-08,1.78473437e-01
-6.25235937e-08,1.78525000e-01
-6.24835938e-08,1.78475000e-01
-6.24435937e-08,1.78526563e-01
-6.24035938e-08,1.78468750e-01
-6.23635937e-08,1.78540625e-01
-6.23235937e-08,1.78434375e-01
-6.22835937e-08,1.78718750e-01
-6.22435937e-08,1.78943750e-01
-6.22035938e-08,1.78879687e-01
-6.21635937e-08,1.78909375e-01
-6.21235937e-08,1.78896875e-01
-6.20835937e-08,1.78898438e-01
-6.20435937e-08,1.78906250e-01
-6.20035937e-08,1.78887500e-01
-6.19635937e-08,1.78921875e-01
-6.19235938e-08,1.78853125e-01
-6.18835937e-08,1.79100000e-01
-6.18435937e-08,1.79360938e-01
-6.18035937e-08,1.79262500e-01
-6.17635937e-08,1.79329688e-01
-6.17235937e-08,1.79275000e-01
-6.16835937e-08,1.79323438e-01
-6.16435938e-08,1.79276563e-01
-6.16035937e-08,1.79323438e-01
-6.15635937e-08,1.79271875e-01
-6.15235937e-08,1.79335938e-01
-6.14835937e-08,1.79240625e-01
-6.14435937e-08,1.79512500e-01
-6.14035937e-08,1.79751563e-01
-6.13635938e-08,1.79671875e-01
-6.13235937e-08,1.79720313e-01
-6.12835937e-08,1.79682813e-01
-6.12435937e-08,1.79715625e-01
-6.12035937e-08,1.79684375e-01
-6.11635937e-08,1.79717188e-01
-6.11235937e-08,1.79679688e-01
-6.10835938e-08,1.79729688e-01
-6.10435937e-08,1.79646875e-01
-6.10035937e-08,1.79904687e-01
-6.09635937e-08,1.80157813e-01
-6.09235937e-08,1.80065625e-01
-6.08835937e-08,1.80126563e-01
-6.08435937e-08,1.80076563e-01
-6.08035938e-08,1.80121875e-01
-6.07635937e-08,1.80078125e-01
-6.07235937e-08,1.80123438e-01
-6.06835937e-08,1.80071875e-01
-6.06435937e-08,1.80137500e-01
-6.06035937e-08,1.80039063e-01
-6.05635937e-08,1.80314063e-01
-6.05235938e-08,1.80548438e-01
-6.04835937e-08,1.80475000e-01
-6.04435937e-08,1.80515625e-01
-6.04035937e-08,1.80489063e-01
-6.03635937e-08,1.80507813e-01
-6.03235938e-08,1.80493750e-01
-6.02835937e-08,1.80504688e-01
-6.02435938e-08,1.80496875e-01
-6.02035937e-08,1.80501563e-01
-6.01635937e-08,1.80500000e-01
-6.01235937e-08,1.80498437e-01
-6.00835937e-08,1.80503125e-01
-6.00435938e-08,1.80495313e-01
-6.00035937e-08,1.80507813e-01
-5.99635938e-08,1.80485937e-01
-5.99235937e-08,1.80523437e-01
-5.98835937e-08,1.80451562e-01
-5.98435937e-08,1.80700000e-01
-5.98035937e-08,1.80962500e-01
-5.97635938e-08,1.80860938e-01
-5.97235937e-08,1.80929688e-01
-5.96835938e-08,1.80875000e-01
-5.96435937e-08,1.80923438e-01
-5.96035937e-08,1.80876563e-01
-5.95635937e-08,1.80923438e-01
-5.95235937e-08,1.80875000e-01
-5.94835937e-08,1.80929688e-01
-5.94435937e-08,1.80862500e-01
-5.94035937e-08,1.80962500e-01
-5.93635937e-08,1.80685938e-01
-5.93235937e-08,1.80451562e-01
-5.92835937e-08,1.80525000e-01
-5.92435937e-08,1.80484375e-01
-5.92035937e-08,1.80510937e-01
-5.91635937e-08,1.80490625e-01
-5.91235937e-08,1.80507813e-01
-5.90835937e-08,1.80493750e-01
-5.90435937e-08,1.80506250e-01
-5.90035937e-08,1.80493750e-01
-5.89635937e-08,1.80506250e-01
-5.89235937e-08,1.80492188e-01
-5.88835937e-08,1.80509375e-01
-5.88435937e-08,1.80489063e-01
-5.88035937e-08,1.80515625e-01
-5.87635937e-08,1.80475000e-01
-5.87235937e-08,1.80550000e-01
-5.86835937e-08,1.80298438e-01
-5.86435937e-08,1.80039063e-01
-5.86035937e-08,1.80137500e-01
-5.85635937e-08,1.80070312e-01
-5.85235937e-08,1.80125000e-01
-5.84835937e-08,1.80076563e-01
-5.84435937e-08,1.80123438e-01
-5.84035937e-08,1.80075000e-01
-5.83635937e-08,1.80129687e-01
-5.83235937e-08,1.80062500e-01
-5.82835937e-08,1.80162500e-01
-5.82435937e-08,1.79885938e-01
-5.82035937e-08,1.79651563e-01
-5.81635937e-08,1.79726563e-01
-5.81235937e-08,1.79682813e-01
-5.80835937e-08,1.79714062e-01
-5.80435937e-08,1.79687500e-01
-5.80035937e-08,1.79712500e-01
-5.79635937e-08,1.79685938e-01
-5.79235937e-08,1.79717188e-01
-5.78835937e-08,1.79673438e-01
-5.78435937e-08,1.79750000e-01
-5.78035937e-08,1.79498437e-01
-5.77635937e-08,1.79239063e-01
-5.77235937e-08,1.79339063e-01
-5.76835937e-08,1.79268750e-01
-5.76435937e-08,1.79328125e-01
-5.76035937e-08,1.79273437e-01
-5.75635937e-08,1.79326563e-01
-5.75235937e-08,1.79271875e-01
-5.74835937e-08,1.79332812e-01
-5.74435937e-08,1.79257813e-01
-5.74035937e-08,1.79367187e-01
-5.73635937e-08,1.79079688e-01
-5.73235937e-08,1.78857813e-01
-5.72835937e-08,1.78918750e-01
-5.72435937e-08,1.78892187e-01
-5.72035937e-08,1.78903125e-01
-5.71635937e-08,1.78901562e-01
-5.71235937e-08,1.78895313e-01
-5.70835937e-08,1.78907813e-01
-5.70435937e-08,1.78887500e-01
-5.70035937e-08,1.78917188e-01
-5.69635937e-08,1.78871875e-01
-5.69235937e-08,1.78953125e-01
-5.68835937e-08,1.78693750e-01
-5.68435937e-08,1.78445313e-01
-5.68035937e-08,1.78531250e-01
-5.67635937e-08,1.78478125e-01
-5.67235937e-08,1.78515625e-01
-5.66835937e-08,1.78487500e-01
-5.66435937e-08,1.78510937e-01
-5.66035937e-08,1.78490625e-01
-5.65635937e-08,1.78507813e-01
-5.65235937e-08,1.78492188e-01
-5.64835937e-08,1.78506250e-01
-5.64435937e-08,1.78493750e-01
-5.64035937e-08,1.78506250e-01
-5.63635937e-08,1.78493750e-01
-5.63235937e-08,1.78506250e-01
-5.62835937e-08,1.78493750e-01
-5.62435937e-08,1.78506250e-01
-5.62035937e-08,1.78493750e-01
-5.61635937e-08,1.78507813e-01
-5.61235937e-08,1.78490625e-01
-5.60835937e-08,1.78510937e-01
-5.60435937e-08,1.78484375e-01
-5.60035937e-08,1.78525000e-01
-5.59635937e-08,1.78451562e-01
-5.59235937e-08,1.78701562e-01
-5.58835937e-08,1.78962500e-01
-5.58435937e-08,1.78859375e-01
-5.58035937e-08,1.78932813e-01
-5.57635937e-08,1.78870313e-01
-5.57235937e-08,1.78931250e-01
-5.56835937e-08,1.78865625e-01
-5.56435937e-08,1.78942188e-01
-5.56035937e-08,1.78832812e-01
-5.55635937e-08,1.79120313e-01
-5.55235937e-08,1.79342187e-01
-5.54835937e-08,1.79282812e-01
-5.54435937e-08,1.79306250e-01
-5.54035937e-08,1.79301563e-01
-5.53635937e-08,1.79290625e-01
-5.53235937e-08,1.79320312e-01
-5.52835937e-08,1.79253125e-01
-5.52435937e-08,1.79500000e-01
-5.52035937e-08,1.79762500e-01
-5.51635937e-08,1.79660938e-01
-5.51235937e-08,1.79729688e-01
-5.50835937e-08,1.79675000e-01
-5.50435937e-08,1.79723437e-01
-5.50035937e-08,1.79676562e-01
-5.49635937e-08,1.79723437e-01
-5.49235937e-08,1.79671875e-01
-5.48835937e-08,1.79735937e-01
-5.48435937e-08,1.79640625e-01
-5.48035937e-08,1.79912500e-01
-5.47635937e-08,1.80151563e-01
-5.47235937e-08,1.80071875e-01
-5.46835937e-08,1.80120313e-01
-5.46435937e-08,1.80084375e-01
-5.46035937e-08,1.80114063e-01
-5.45635937e-08,1.80087500e-01
-5.45235937e-08,1.80112500e-01
-5.44835937e-08,1.80087500e-01
-5.44435937e-08,1.80114063e-01
-5.44035937e-08,1.80082812e-01
-5.43635937e-08,1.80121875e-01
-5.43235937e-08,1.80068750e-01
-5.42835937e-08,1.80154687e-01
-5.42435937e-08,1.79892187e-01
-5.42035937e-08,1.79645313e-01
-5.41635937e-08,1.79731250e-01
-5.41235937e-08,1.79678125e-01
-5.40835937e-08,1.79717188e-01
-5.40435937e-08,1.79685938e-01
-5.40035937e-08,1.79712500e-01
-5.39635937e-08,1.79687500e-01
-5.39235937e-08,1.79710938e-01
-5.38835937e-08,1.79689062e-01
-5.38435937e-08,1.79710938e-01
-5.38035937e-08,1.79689062e-01
-5.37635937e-08,1.79712500e-01
-5.37235937e-08,1.79687500e-01
-5.36835937e-08,1.79714062e-01
-5.36435937e-08,1.79682813e-01
-5.36035937e-08,1.79721875e-01
-5.35635937e-08,1.79668750e-01
-5.35235937e-08,1.79756250e-01
-5.34835937e-08,1.79490625e-01
-5.34435937e-08,1.79246875e-01
-5.34035937e-08,1.79329688e-01
-5.33635937e-08,1.79279688e-01
-5.33235937e-08,1.79315625e-01
-5.32835937e-08,1.79287500e-01
-5.32435937e-08,1.79310938e-01
-5.32035937e-08,1.79290625e-01
-5.31635937e-08,1.79309375e-01
-5.31235937e-08,1.79292188e-01
-5.30835937e-08,1.79307812e-01
-5.30435937e-08,1.79293750e-01
-5.30035937e-08,1.79306250e-01
-5.29635937e-08,1.79293750e-01
-5.29235938e-08,1.79306250e-01
-5.28835937e-08,1.79293750e-01
-5.28435937e-08,1.79306250e-01
-5.28035937e-08,1.79293750e-01
-5.27635937e-08,1.79306250e-01
-5.27235937e-08,1.79293750e-01
-5.26835937e-08,1.79304688e-01
-5.26435937e-08,1.79293750e-01
-5.26035937e-08,1.79306250e-01
-5.25635937e-08,1.79295312e-01
-5.25235937e-08,1.79304688e-01
-5.24835937e-08,1.79293750e-01
-5.24435937e-08,1.79306250e-01
-5.24035937e-08,1.79293750e-01
-5.23635937e-08,1.79306250e-01
-5.23235937e-08,1.79293750e-01
-5.22835937e-08,1.79306250e-01
-5.22435937e-08,1.79293750e-01
-5.22035937e-08,1.79306250e-01
-5.21635937e-08,1.79293750e-01
-5.21235937e-08,1.79306250e-01
-5.20835937e-08,1.79293750e-01
-5.20435937e-08,1.79306250e-01
-5.20035937e-08,1.79293750e-01
-5.19635937e-08,1.79307812e-01
-5.19235937e-08,1.79292188e-01
-5.18835937e-08,1.79307812e-01
-5.18435937e-08,1.79292188e-01
-5.18035937e-08,1.79307812e-01
-5.17635937e-08,1.79292188e-01
-5.17235937e-08,1.79309375e-01
-5.16835937e-08,1.79290625e-01
-5.16435937e-08,1.79309375e-01
-5.16035937e-08,1.79289063e-01
-5.15635937e-08,1.79310938e-01
-5.15235937e-08,1.79287500e-01
-5.14835937e-08,1.79312500e-01
-5.14435937e-08,1.79285938e-01
-5.14035937e-08,1.79315625e-01
-5.13635937e-08,1.79281250e-01
-5.13235937e-08,1.79321875e-01
-5.12835937e-08,1.79273437e-01
-5.12435937e-08,1.79337500e-01
-5.12035937e-08,1.79237500e-01
-5.11635937e-08,1.79515625e-01
-5.11235937e-08,1.79745313e-01
-5.10835937e-08,1.79678125e-01
-5.10435937e-08,1.79710938e-01
-5.10035938e-08,1.79693750e-01
-5.09635937e-08,1.79701562e-01
-5.09235937e-08,1.79701562e-01
-5.08835937e-08,1.79696875e-01
-5.08435937e-08,1.79706250e-01
-5.08035937e-08,1.79690625e-01
-5.07635937e-08,1.79714062e-01
-5.07235938e-08,1.79681250e-01
-5.06835937e-08,1.79729688e-01
-5.06435937e-08,1.79645313e-01
-5.06035937e-08,1.79909375e-01
-5.05635937e-08,1.80153125e-01
-5.05235937e-08,1.80071875e-01
-5.04835937e-08,1.80117187e-01
-5.04435937e-08,1.80087500e-01
-5.04035937e-08,1.80107813e-01
-5.03635937e-08,1.80095312e-01
-5.03235937e-08,1.80103125e-01
-5.02835937e-08,1.80100000e-01
-5.02435937e-08,1.80096875e-01
-5.02035937e-08,1.80107813e-01
-5.01635937e-08,1.80087500e-01
-5.01235937e-08,1.80123438e-01
-5.00835937e-08,1.80051563e-01
-5.00435937e-08,1.80303125e-01
-5.00035937e-08,1.80559375e-01
-4.99635937e-08,1.80464062e-01
-4.99235937e-08,1.80525000e-01
-4.98835937e-08,1.80479688e-01
-4.98435937e-08,1.80517188e-01
-4.98035937e-08,1.80484375e-01
-4.97635937e-08,1.80512500e-01
-4.97235937e-08,1.80487500e-01
-4.96835937e-08,1.80510937e-01
-4.96435937e-08,1.80490625e-01
-4.96035937e-08,1.80509375e-01
-4.95635937e-08,1.80490625e-01
-4.95235937e-08,1.80507813e-01
-4.94835937e-08,1.80492188e-01
-4.94435937e-08,1.80507813e-01
-4.94035937e-08,1.80493750e-01
-4.93635937e-08,1.80506250e-01
-4.93235937e-08,1.80493750e-01
-4.92835937e-08,1.80506250e-01
-4.92435937e-08,1.80493750e-01
-4.92035937e-08,1.80506250e-01
-4.91635937e-08,1.80493750e-01
-4.91235937e-08,1.80504688e-01
-4.90835938e-08,1.80495313e-01
-4.90435937e-08,1.80504688e-01
-4.90035937e-08,1.80495313e-01
-4.89635937e-08,1.80504688e-01
-4.89235937e-08,1.80495313e-01
-4.88835937e-08,1.80504688e-01
-4.88435937e-08,1.80495313e-01
-4.88035938e-08,1.80504688e-01
-4.87635937e-08,1.80495313e-01
-4.87235937e-08,1.80504688e-01
-4.86835937e-08,1.80495313e-01
-4.86435937e-08,1.80504688e-01
-4.86035937e-08,1.80493750e-01
-4.85635937e-08,1.80506250e-01
-4.85235938e-08,1.80493750e-01
-4.84835937e-08,1.80507813e-01
-4.84435937e-08,1.80490625e-01
-4.84035937e-08,1.80510937e-01
-4.83635937e-08,1.80487500e-01
-4.83235937e-08,1.80517188e-01
-4.82835937e-08,1.80473438e-01
-4.82435937e-08,1.80551563e-01
-4.82035937e-08,1.80296875e-01
-4.81635937e-08,1.80040625e-01
-4.81235937e-08,1.80135938e-01
-4.80835937e-08,1.80071875e-01
-4.80435937e-08,1.80125000e-01
-4.80035937e-08,1.80076563e-01
-4.79635937e-08,1.80123438e-01
-4.79235937e-08,1.80075000e-01
-4.78835937e-08,1.80129687e-01
-4.78435937e-08,1.80060938e-01
-4.78035937e-08,1.80164062e-01
-4.77635937e-08,1.79882813e-01
-4.77235937e-08,1.79656250e-01
-4.76835937e-08,1.79720313e-01
-4.76435937e-08,1.79690625e-01
-4.76035937e-08,1.79701562e-01
-4.75635937e-08,1.79706250e-01
-4.75235937e-08,1.79682813e-01
-4.74835937e-08,1.79742188e-01
-4.74435937e-08,1.79504688e-01
-4.74035937e-08,1.79232813e-01
-4.73635937e-08,1.79345313e-01
-4.73235937e-08,1.79262500e-01
-4.72835937e-08,1.79337500e-01
-4.72435937e-08,1.79256250e-01
-4.72035937e-08,1.79365625e-01
-4.71635938e-08,1.79084375e-01
-4.71235937e-08,1.78851563e-01
-4.70835937e-08,1.78926562e-01
-4.70435937e-08,1.78881250e-01
-4.70035937e-08,1.78917188e-01
-4.69635937e-08,1.78882813e-01
-4.69235937e-08,1.78920313e-01
-4.68835938e-08,1.78870313e-01
-4.68435937e-08,1.78953125e-01
-4.68035937e-08,1.78695313e-01
-4.67635937e-08,1.78442188e-01
-4.67235937e-08,1.78534375e-01
-4.66835937e-08,1.78473437e-01
-4.66435937e-08,1.78521875e-01
-4.66035938e-08,1.78481250e-01
-4.65635937e-08,1.78518750e-01
-4.65235937e-08,1.78481250e-01
-4.64835937e-08,1.78518750e-01
-4.64435937e-08,1.78481250e-01
-4.64035937e-08,1.78520313e-01
-4.63635937e-08,1.78476563e-01
-4.63235938e-08,1.78529688e-01
-4.62835937e-08,1.78460937e-01
-4.62435937e-08,1.78564063e-01
-4.62035937e-08,1.78282812e-01
-4.61635937e-08,1.78056250e-01
-4.61235937e-08,1.78117187e-01
-4.60835937e-08,1.78093750e-01
-4.60435937e-08,1.78096875e-01
-4.60035937e-08,1.78115625e-01
-4.59635937e-08,1.78057812e-01
-4.59235937e-08,1.78296875e-01
-4.58835937e-08,1.78564063e-01
-4.58435937e-08,1.78459375e-01
-4.58035937e-08,1.78531250e-01
-4.57635937e-08,1.78473437e-01
-4.57235937e-08,1.78523437e-01
-4.56835937e-08,1.78478125e-01
-4.56435937e-08,1.78520313e-01
-4.56035937e-08,1.78479688e-01
-4.55635937e-08,1.78520313e-01
-4.55235937e-08,1.78479688e-01
-4.54835937e-08,1.78521875e-01
-4.54435937e-08,1.78476563e-01
-4.54035937e-08,1.78526563e-01
-4.53635937e-08,1.78468750e-01
-4.53235937e-08,1.78540625e-01
-4.52835937e-08,1.78434375e-01
-4.52435938e-08,1.78718750e-01
-4.52035937e-08,1.78943750e-01
-4.51635937e-08,1.78881250e-01
-4.51235937e-08,1.78909375e-01
-4.50835937e-08,1.78896875e-01
-4.50435937e-08,1.78900000e-01
-4.50035937e-08,1.78903125e-01
-4.49635938e-08,1.78892187e-01
-4.49235937e-08,1.78910938e-01
-4.48835937e-08,1.78882813e-01
-4.48435937e-08,1.78928125e-01
-4.48035937e-08,1.78846875e-01
-4.47635937e-08,1.79106250e-01
-4.47235937e-08,1.79356250e-01
-4.46835938e-08,1.79268750e-01
-4.46435937e-08,1.79321875e-01
-4.46035937e-08,1.79282812e-01
-4.45635937e-08,1.79314063e-01
-4.45235937e-08,1.79289063e-01
-4.44835937e-08,1.79309375e-01
-4.44435937e-08,1.79292188e-01
-4.44035938e-08,1.79307812e-01
-4.43635937e-08,1.79293750e-01
-4.43235937e-08,1.79306250e-01
-4.42835937e-08,1.79295312e-01
-4.42435937e-08,1.79304688e-01
-4.42035937e-08,1.79295312e-01
-4.41635937e-08,1.79303125e-01
-4.41235938e-08,1.79296875e-01
-4.40835937e-08,1.79303125e-01
-4.40435937e-08,1.79296875e-01
-4.40035937e-08,1.79303125e-01
-4.39635937e-08,1.79298438e-01
-4.39235937e-08,1.79301563e-01
-4.38835937e-08,1.79298438e-01
-4.38435937e-08,1.79301563e-01
-4.38035937e-08,1.79298438e-01
-4.37635937e-08,1.79301563e-01
-4.37235937e-08,1.79300000e-01
-4.36835937e-08,1.79300000e-01
-4.36435937e-08,1.79300000e-01
-4.36035937e-08,1.79300000e-01
-4.35635937e-08,1.79300000e-01
-4.35235937e-08,1.79300000e-01
-4.34835937e-08,1.79300000e-01
-4.34435937e-08,1.79298438e-01
-4.34035937e-08,1.79301563e-01
-4.33635937e-08,1.79298438e-01
-4.33235938e-08,1.79301563e-01
-4.32835937e-08,1.79298438e-01
-4.32435937e-08,1.79303125e-01
-4.32035937e-08,1.79296875e-01
-4.31635937e-08,1.79303125e-01
-4.31235937e-08,1.79295312e-01
-4.30835937e-08,1.79304688e-01
-4.30435938e-08,1.79293750e-01
-4.30035937e-08,1.79306250e-01
-4.29635937e-08,1.79292188e-01
-4.29235937e-08,1.79309375e-01
-4.28835937e-08,1.79289063e-01
-4.28435937e-08,1.79314063e-01
-4.28035937e-08,1.79279688e-01
-4.27635938e-08,1.79329688e-01
-4.27235937e-08,1.79245313e-01
-4.26835937e-08,1.79507813e-01
-4.26435937e-08,1.79754688e-01
-4.26035937e-08,1.79668750e-01
-4.25635937e-08,1.79721875e-01
-4.25235937e-08,1.79684375e-01
-4.24835938e-08,1.79712500e-01
-4.24435937e-08,1.79689062e-01
-4.24035937e-08,1.79709375e-01
-4.23635937e-08,1.79692188e-01
-4.23235937e-08,1.79707813e-01
-4.22835937e-08,1.79693750e-01
-4.22435937e-08,1.79706250e-01
-4.22035938e-08,1.79695313e-01
-4.21635937e-08,1.79704688e-01
-4.21235937e-08,1.79695313e-01
-4.20835937e-08,1.79704688e-01
-4.20435937e-08,1.79696875e-01
-4.20035937e-08,1.79703125e-01
-4.19635937e-08,1.79696875e-01
-4.19235938e-08,1.79703125e-01
-4.18835937e-08,1.79698438e-01
-4.18435937e-08,1.79701562e-01
-4.18035937e-08,1.79698438e-01
-4.17635937e-08,1.79701562e-01
-4.17235937e-08,1.79700000e-01
-4.16835937e-08,1.79700000e-01
-4.16435937e-08,1.79700000e-01
-4.16035937e-08,1.79698438e-01
-4.15635937e-08,1.79701562e-01
-4.15235937e-08,1.79696875e-01
-4.14835937e-08,1.79703125e-01
-4.14435937e-08,1.79695313e-01
-4.14035938e-08,1.79706250e-01
-4.13635937e-08,1.79690625e-01
-4.13235937e-08,1.79714062e-01
-4.12835937e-08,1.79675000e-01
-4.12435937e-08,1.79748437e-01
-4.12035937e-08,1.79498437e-01
-4.11635937e-08,1.79239063e-01
-4.11235938e-08,1.79337500e-01
-4.10835937e-08,1.79270313e-01
-4.10435937e-08,1.79325000e-01
-4.10035937e-08,1.79276563e-01
-4.09635937e-08,1.79323438e-01
-4.09235937e-08,1.79276563e-01
-4.08835937e-08,1.79328125e-01
-4.08435938e-08,1.79264063e-01
-4.08035937e-08,1.79359375e-01
-4.07635937e-08,1.79087500e-01
-4.07235937e-08,1.78848438e-01
-4.06835937e-08,1.78929688e-01
-4.06435937e-08,1.78878125e-01
-4.06035937e-08,1.78918750e-01
-4.05635938e-08,1.78881250e-01
-4.05235937e-08,1.78921875e-01
-4.04835937e-08,1.78870313e-01
-4.04435937e-08,1.78953125e-01
-4.04035937e-08,1.78695313e-01
-4.03635937e-08,1.78440625e-01
-4.03235937e-08,1.78535938e-01
-4.02835938e-08,1.78471875e-01
-4.02435937e-08,1.78526563e-01
-4.02035937e-08,1.78473437e-01
-4.01635937e-08,1.78529688e-01
-4.01235937e-08,1.78462500e-01
-4.00835937e-08,1.78560938e-01
-4.00435937e-08,1.78285938e-01
-4.00035938e-08,1.78051563e-01
-3.99635937e-08,1.78126563e-01
-3.99235937e-08,1.78082813e-01
-3.98835937e-08,1.78112500e-01
-3.98435937e-08,1.78090625e-01
-3.98035937e-08,1.78107813e-01
-3.97635937e-08,1.78093750e-01
-3.97235937e-08,1.78106250e-01
-3.96835937e-08,1.78093750e-01
-3.96435937e-08,1.78104687e-01
-3.96035937e-08,1.78095313e-01
-3.95635937e-08,1.78104687e-01
-3.95235937e-08,1.78095313e-01
-3.94835938e-08,1.78104687e-01
-3.94435937e-08,1.78095313e-01
-3.94035937e-08,1.78104687e-01
-3.93635937e-08,1.78095313e-01
-3.93235937e-08,1.78106250e-01
-3.92835937e-08,1.78093750e-01
-3.92435937e-08,1.78106250e-01
-3.92035938e-08,1.78093750e-01
-3.91635937e-08,1.78107813e-01
-3.91235937e-08,1.78092187e-01
-3.90835937e-08,1.78109375e-01
-3.90435937e-08,1.78089063e-01
-3.90035937e-08,1.78112500e-01
-3.89635937e-08,1.78085938e-01
-3.89235938e-08,1.78117187e-01
-3.88835937e-08,1.78076563e-01
-3.88435937e-08,1.78132813e-01
-3.88035937e-08,1.78042188e-01
-3.87635937e-08,1.78310938e-01
-3.87235937e-08,1.78550000e-01
-3.86835937e-08,1.78473437e-01
-3.86435938e-08,1.78515625e-01
-3.86035937e-08,1.78489063e-01
-3.85635937e-08,1.78506250e-01
-3.85235937e-08,1.78496875e-01
