trails/0b415fe76bd122fbe60d5dd91566c6d8/aes_ch1_20250507111303333.csv

Model,MSO66B
Label,
Waveform Type,ANALOG
Horizontal Units,s
Sample Interval,4.00000000e-11
Record Length,10000
Zero Index,1599.10156250
Vertical Units,A
ANALOG_Thumbnail,
yOffset,1.84500000e-01
yPosition,8.40000000e-01

Labels,
TIME,CH1
-6.39640625e-08,1.78901562e-01
-6.39240625e-08,1.78895313e-01
-6.38840625e-08,1.78907813e-01
-6.38440625e-08,1.78885938e-01
-6.38040625e-08,1.78923438e-01
-6.37640625e-08,1.78851563e-01
-6.37240625e-08,1.79101563e-01
-6.36840625e-08,1.79360938e-01
-6.36440625e-08,1.79262500e-01
-6.36040625e-08,1.79328125e-01
-6.35640625e-08,1.79276563e-01
-6.35240625e-08,1.79320312e-01
-6.34840625e-08,1.79281250e-01
-6.34440625e-08,1.79318750e-01
-6.34040625e-08,1.79279688e-01
-6.33640625e-08,1.79321875e-01
-6.33240625e-08,1.79273437e-01
-6.32840625e-08,1.79334375e-01
-6.32440625e-08,1.79240625e-01
-6.32040625e-08,1.79510937e-01
-6.31640625e-08,1.79751563e-01
-6.31240625e-08,1.79671875e-01
-6.30840625e-08,1.79718750e-01
-6.30440625e-08,1.79684375e-01
-6.30040625e-08,1.79712500e-01
-6.29640625e-08,1.79689062e-01
-6.29240625e-08,1.79710938e-01
-6.28840625e-08,1.79690625e-01
-6.28440625e-08,1.79709375e-01
-6.28040625e-08,1.79690625e-01
-6.27640625e-08,1.79709375e-01
-6.27240625e-08,1.79689062e-01
-6.26840625e-08,1.79710938e-01
-6.26440625e-08,1.79687500e-01
-6.26040625e-08,1.79714062e-01
-6.25640625e-08,1.79682813e-01
-6.25240625e-08,1.79723437e-01
-6.24840625e-08,1.79667188e-01
-6.24440625e-08,1.79757813e-01
-6.24040625e-08,1.79489063e-01
-6.23640625e-08,1.79248437e-01
-6.23240625e-08,1.79328125e-01
-6.22840625e-08,1.79281250e-01
-6.22440625e-08,1.79314063e-01
-6.22040625e-08,1.79289063e-01
-6.21640625e-08,1.79309375e-01
-6.21240625e-08,1.79292188e-01
-6.20840625e-08,1.79306250e-01
-6.20440625e-08,1.79295312e-01
-6.20040625e-08,1.79304688e-01
-6.19640625e-08,1.79296875e-01
-6.19240625e-08,1.79303125e-01
-6.18840625e-08,1.79296875e-01
-6.18440625e-08,1.79303125e-01
-6.18040625e-08,1.79298438e-01
-6.17640625e-08,1.79301563e-01
-6.17240625e-08,1.79298438e-01
-6.16840625e-08,1.79301563e-01
-6.16440625e-08,1.79298438e-01
-6.16040625e-08,1.79300000e-01
-6.15640625e-08,1.79300000e-01
-6.15240625e-08,1.79300000e-01
-6.14840625e-08,1.79300000e-01
-6.14440625e-08,1.79300000e-01
-6.14040625e-08,1.79300000e-01
-6.13640625e-08,1.79300000e-01
-6.13240625e-08,1.79301563e-01
-6.12840625e-08,1.79298438e-01
-6.12440625e-08,1.79301563e-01
-6.12040625e-08,1.79298438e-01
-6.11640625e-08,1.79301563e-01
-6.11240625e-08,1.79298438e-01
-6.10840625e-08,1.79301563e-01
-6.10440625e-08,1.79296875e-01
-6.10040625e-08,1.79303125e-01
-6.09640625e-08,1.79296875e-01
-6.09240625e-08,1.79303125e-01
-6.08840625e-08,1.79296875e-01
-6.08440625e-08,1.79303125e-01
-6.08040625e-08,1.79295312e-01
-6.07640625e-08,1.79304688e-01
-6.07240625e-08,1.79295312e-01
-6.06840625e-08,1.79306250e-01
-6.06440625e-08,1.79293750e-01
-6.06040625e-08,1.79306250e-01
-6.05640625e-08,1.79292188e-01
-6.05240625e-08,1.79307812e-01
-6.04840625e-08,1.79290625e-01
-6.04440625e-08,1.79310938e-01
-6.04040625e-08,1.79287500e-01
-6.03640625e-08,1.79314063e-01
-6.03240625e-08,1.79282812e-01
-6.02840625e-08,1.79323438e-01
-6.02440625e-08,1.79267188e-01
-6.02040625e-08,1.79357813e-01
-6.01640625e-08,1.79089063e-01
-6.01240625e-08,1.78850000e-01
-6.00840625e-08,1.78926562e-01
-6.00440625e-08,1.78882813e-01
-6.00040625e-08,1.78910938e-01
-5.99640625e-08,1.78892187e-01
-5.99240625e-08,1.78906250e-01
-5.98840625e-08,1.78896875e-01
-5.98440625e-08,1.78901562e-01
-5.98040625e-08,1.78900000e-01
-5.97640625e-08,1.78898438e-01
-5.97240625e-08,1.78903125e-01
-5.96840625e-08,1.78895313e-01
-5.96440625e-08,1.78907813e-01
-5.96040625e-08,1.78889063e-01
-5.95640625e-08,1.78917188e-01
-5.95240625e-08,1.78873438e-01
-5.94840625e-08,1.78951562e-01
-5.94440625e-08,1.78695313e-01
-5.94040625e-08,1.78443750e-01
-5.93640625e-08,1.78532812e-01
-5.93240625e-08,1.78476563e-01
-5.92840625e-08,1.78517188e-01
-5.92440625e-08,1.78485937e-01
-5.92040625e-08,1.78512500e-01
-5.91640625e-08,1.78489063e-01
-5.91240625e-08,1.78509375e-01
-5.90840625e-08,1.78492188e-01
-5.90440625e-08,1.78507813e-01
-5.90040625e-08,1.78493750e-01
-5.89640625e-08,1.78506250e-01
-5.89240625e-08,1.78495313e-01
-5.88840625e-08,1.78504688e-01
-5.88440625e-08,1.78495313e-01
-5.88040625e-08,1.78503125e-01
-5.87640625e-08,1.78496875e-01
-5.87240625e-08,1.78503125e-01
-5.86840625e-08,1.78498437e-01
-5.86440625e-08,1.78501563e-01
-5.86040625e-08,1.78498437e-01
-5.85640625e-08,1.78500000e-01
-5.85240625e-08,1.78500000e-01
-5.84840625e-08,1.78500000e-01
-5.84440625e-08,1.78500000e-01
-5.84040625e-08,1.78498437e-01
-5.83640625e-08,1.78501563e-01
-5.83240625e-08,1.78496875e-01
-5.82840625e-08,1.78503125e-01
-5.82440625e-08,1.78495313e-01
-5.82040625e-08,1.78506250e-01
-5.81640625e-08,1.78493750e-01
-5.81240625e-08,1.78509375e-01
-5.80840625e-08,1.78489063e-01
-5.80440625e-08,1.78514063e-01
-5.80040625e-08,1.78479688e-01
-5.79640625e-08,1.78529688e-01
-5.79240625e-08,1.78443750e-01
-5.78840625e-08,1.78709375e-01
-5.78440625e-08,1.78951562e-01
-5.78040625e-08,1.78873438e-01
-5.77640625e-08,1.78915625e-01
-5.77240625e-08,1.78890625e-01
-5.76840625e-08,1.78903125e-01
-5.76440625e-08,1.78904688e-01
-5.76040625e-08,1.78884375e-01
-5.75640625e-08,1.78940625e-01
-5.75240625e-08,1.78704688e-01
-5.74840625e-08,1.78432813e-01
-5.74440625e-08,1.78542188e-01
-5.74040625e-08,1.78467188e-01
-5.73640625e-08,1.78528125e-01
-5.73240625e-08,1.78475000e-01
-5.72840625e-08,1.78521875e-01
-5.72440625e-08,1.78478125e-01
-5.72040625e-08,1.78520313e-01
-5.71640625e-08,1.78479688e-01
-5.71240625e-08,1.78520313e-01
-5.70840625e-08,1.78479688e-01
-5.70440625e-08,1.78521875e-01
-5.70040625e-08,1.78475000e-01
-5.69640625e-08,1.78528125e-01
-5.69240625e-08,1.78462500e-01
-5.68840625e-08,1.78562500e-01
-5.68440625e-08,1.78285938e-01
-5.68040625e-08,1.78051563e-01
-5.67640625e-08,1.78126563e-01
-5.67240625e-08,1.78082813e-01
-5.66840625e-08,1.78114063e-01
-5.66440625e-08,1.78087500e-01
-5.66040625e-08,1.78112500e-01
-5.65640625e-08,1.78085938e-01
-5.65240625e-08,1.78117187e-01
-5.64840625e-08,1.78073438e-01
-5.64440625e-08,1.78150000e-01
-5.64040625e-08,1.77896875e-01
-5.63640625e-08,1.77639063e-01
-5.63240625e-08,1.77737500e-01
-5.62840625e-08,1.77671875e-01
-5.62440625e-08,1.77725000e-01
-5.62040625e-08,1.77678125e-01
-5.61640625e-08,1.77721875e-01
-5.61240625e-08,1.77678125e-01
-5.60840625e-08,1.77723437e-01
-5.60440625e-08,1.77675000e-01
-5.60040625e-08,1.77729688e-01
-5.59640625e-08,1.77660938e-01
-5.59240625e-08,1.77764063e-01
-5.58840625e-08,1.77484375e-01
-5.58440625e-08,1.77253125e-01
-5.58040625e-08,1.77323438e-01
-5.57640625e-08,1.77285938e-01
-5.57240625e-08,1.77309375e-01
-5.56840625e-08,1.77293750e-01
-5.56440625e-08,1.77304688e-01
-5.56040625e-08,1.77296875e-01
-5.55640625e-08,1.77301563e-01
-5.55240625e-08,1.77300000e-01
-5.54840625e-08,1.77300000e-01
-5.54440625e-08,1.77300000e-01
-5.54040625e-08,1.77298438e-01
-5.53640625e-08,1.77301563e-01
-5.53240625e-08,1.77298438e-01
-5.52840625e-08,1.77303125e-01
-5.52440625e-08,1.77296875e-01
-5.52040625e-08,1.77303125e-01
-5.51640625e-08,1.77295312e-01
-5.51240625e-08,1.77304688e-01
-5.50840625e-08,1.77295312e-01
-5.50440625e-08,1.77306250e-01
-5.50040625e-08,1.77292188e-01
-5.49640625e-08,1.77309375e-01
-5.49240625e-08,1.77289063e-01
-5.48840625e-08,1.77314063e-01
-5.48440625e-08,1.77281250e-01
-5.48040625e-08,1.77328125e-01
-5.47640625e-08,1.77246875e-01
-5.47240625e-08,1.77506250e-01
-5.46840625e-08,1.77756250e-01
-5.46440625e-08,1.77667188e-01
-5.46040625e-08,1.77723437e-01
-5.45640625e-08,1.77679688e-01
-5.45240625e-08,1.77717188e-01
-5.44840625e-08,1.77684375e-01
-5.44440625e-08,1.77715625e-01
-5.44040625e-08,1.77684375e-01
-5.43640625e-08,1.77715625e-01
-5.43240625e-08,1.77682813e-01
-5.42840625e-08,1.77718750e-01
-5.42440625e-08,1.77676562e-01
-5.42040625e-08,1.77732813e-01
-5.41640625e-08,1.77643750e-01
-5.41240625e-08,1.77909375e-01
-5.40840625e-08,1.78153125e-01
-5.40440625e-08,1.78070312e-01
-5.40040625e-08,1.78121875e-01
-5.39640625e-08,1.78082813e-01
-5.39240625e-08,1.78115625e-01
-5.38840625e-08,1.78085938e-01
-5.38440625e-08,1.78114063e-01
-5.38040625e-08,1.78084375e-01
-5.37640625e-08,1.78117187e-01
-5.37240625e-08,1.78078125e-01
-5.36840625e-08,1.78129687e-01
-5.36440625e-08,1.78045312e-01
-5.36040625e-08,1.78306250e-01
-5.35640625e-08,1.78556250e-01
-5.35240625e-08,1.78467188e-01
-5.34840625e-08,1.78525000e-01
-5.34440625e-08,1.78479688e-01
-5.34040625e-08,1.78518750e-01
-5.33640625e-08,1.78482813e-01
-5.33240625e-08,1.78517188e-01
-5.32840625e-08,1.78481250e-01
-5.32440625e-08,1.78521875e-01
-5.32040625e-08,1.78475000e-01
-5.31640625e-08,1.78534375e-01
-5.31240625e-08,1.78440625e-01
-5.30840625e-08,1.78712500e-01
-5.30440625e-08,1.78950000e-01
-5.30040625e-08,1.78873438e-01
-5.29640625e-08,1.78917188e-01
-5.29240625e-08,1.78887500e-01
-5.28840625e-08,1.78909375e-01
-5.28440625e-08,1.78892187e-01
-5.28040625e-08,1.78906250e-01
-5.27640625e-08,1.78895313e-01
-5.27240625e-08,1.78904688e-01
-5.26840625e-08,1.78895313e-01
-5.26440625e-08,1.78903125e-01
-5.26040625e-08,1.78896875e-01
-5.25640625e-08,1.78903125e-01
-5.25240625e-08,1.78898438e-01
-5.24840625e-08,1.78901562e-01
-5.24440625e-08,1.78898438e-01
-5.24040625e-08,1.78901562e-01
-5.23640625e-08,1.78898438e-01
-5.23240625e-08,1.78901562e-01
-5.22840625e-08,1.78898438e-01
-5.22440625e-08,1.78900000e-01
-5.22040625e-08,1.78900000e-01
-5.21640625e-08,1.78900000e-01
-5.21240625e-08,1.78900000e-01
-5.20840625e-08,1.78900000e-01
-5.20440625e-08,1.78900000e-01
-5.20040625e-08,1.78900000e-01
-5.19640625e-08,1.78900000e-01
-5.19240625e-08,1.78900000e-01
-5.18840625e-08,1.78900000e-01
-5.18440625e-08,1.78900000e-01
-5.18040625e-08,1.78901562e-01
-5.17640625e-08,1.78898438e-01
-5.17240625e-08,1.78901562e-01
-5.16840625e-08,1.78898438e-01
-5.16440625e-08,1.78901562e-01
-5.16040625e-08,1.78898438e-01
-5.15640625e-08,1.78901562e-01
-5.15240625e-08,1.78898438e-01
-5.14840625e-08,1.78903125e-01
-5.14440625e-08,1.78896875e-01
-5.14040625e-08,1.78903125e-01
-5.13640625e-08,1.78896875e-01
-5.13240625e-08,1.78903125e-01
-5.12840625e-08,1.78895313e-01
-5.12440625e-08,1.78904688e-01
-5.12040625e-08,1.78895313e-01
-5.11640625e-08,1.78906250e-01
-5.11240625e-08,1.78893750e-01
-5.10840625e-08,1.78907813e-01
-5.10440625e-08,1.78892187e-01
-5.10040625e-08,1.78909375e-01
-5.09640625e-08,1.78887500e-01
-5.09240625e-08,1.78915625e-01
-5.08840625e-08,1.78879687e-01
-5.08440625e-08,1.78929688e-01
-5.08040625e-08,1.78845313e-01
-5.07640625e-08,1.79107813e-01
-5.07240625e-08,1.79354687e-01
-5.06840625e-08,1.79270313e-01
-5.06440625e-08,1.79320312e-01
-5.06040625e-08,1.79284375e-01
-5.05640625e-08,1.79312500e-01
-5.05240625e-08,1.79289063e-01
-5.04840625e-08,1.79309375e-01
-5.04440625e-08,1.79292188e-01
-5.04040625e-08,1.79306250e-01
-5.03640625e-08,1.79293750e-01
-5.03240625e-08,1.79304688e-01
-5.02840625e-08,1.79295312e-01
-5.02440625e-08,1.79303125e-01
-5.02040625e-08,1.79296875e-01
-5.01640625e-08,1.79303125e-01
-5.01240625e-08,1.79296875e-01
-5.00840625e-08,1.79301563e-01
-5.00440625e-08,1.79298438e-01
-5.00040625e-08,1.79301563e-01
-4.99640625e-08,1.79298438e-01
-4.99240625e-08,1.79300000e-01
-4.98840625e-08,1.79300000e-01
-4.98440625e-08,1.79300000e-01
-4.98040625e-08,1.79301563e-01
-4.97640625e-08,1.79298438e-01
-4.97240625e-08,1.79301563e-01
-4.96840625e-08,1.79296875e-01
-4.96440625e-08,1.79303125e-01
-4.96040625e-08,1.79295312e-01
-4.95640625e-08,1.79306250e-01
-4.95240625e-08,1.79292188e-01
-4.94840625e-08,1.79309375e-01
-4.94440625e-08,1.79287500e-01
-4.94040625e-08,1.79317188e-01
-4.93640625e-08,1.79271875e-01
-4.93240625e-08,1.79353125e-01
-4.92840625e-08,1.79093750e-01
-4.92440625e-08,1.78843750e-01
-4.92040625e-08,1.78932813e-01
-4.91640625e-08,1.78876563e-01
-4.91240625e-08,1.78917188e-01
-4.90840625e-08,1.78885938e-01
-4.90440625e-08,1.78912500e-01
-4.90040625e-08,1.78889063e-01
-4.89640625e-08,1.78909375e-01
-4.89240625e-08,1.78890625e-01
-4.88840625e-08,1.78907813e-01
-4.88440625e-08,1.78893750e-01
-4.88040625e-08,1.78906250e-01
-4.87640625e-08,1.78893750e-01
-4.87240625e-08,1.78904688e-01
-4.86840625e-08,1.78895313e-01
-4.86440625e-08,1.78904688e-01
-4.86040625e-08,1.78896875e-01
-4.85640625e-08,1.78903125e-01
-4.85240625e-08,1.78898438e-01
-4.84840625e-08,1.78901562e-01
-4.84440625e-08,1.78900000e-01
-4.84040625e-08,1.78900000e-01
-4.83640625e-08,1.78901562e-01
-4.83240625e-08,1.78896875e-01
-4.82840625e-08,1.78904688e-01
-4.82440625e-08,1.78892187e-01
-4.82040625e-08,1.78914062e-01
-4.81640625e-08,1.78876563e-01
-4.81240625e-08,1.78948438e-01
-4.80840625e-08,1.78698438e-01
-4.80440625e-08,1.78439062e-01
-4.80040625e-08,1.78537500e-01
-4.79640625e-08,1.78471875e-01
-4.79240625e-08,1.78521875e-01
-4.78840625e-08,1.78479688e-01
-4.78440625e-08,1.78517188e-01
-4.78040625e-08,1.78484375e-01
-4.77640625e-08,1.78515625e-01
-4.77240625e-08,1.78485937e-01
-4.76840625e-08,1.78514063e-01
-4.76440625e-08,1.78487500e-01
-4.76040625e-08,1.78512500e-01
-4.75640625e-08,1.78487500e-01
-4.75240625e-08,1.78512500e-01
-4.74840625e-08,1.78487500e-01
-4.74440625e-08,1.78510937e-01
-4.74040625e-08,1.78489063e-01
-4.73640625e-08,1.78510937e-01
-4.73240625e-08,1.78489063e-01
-4.72840625e-08,1.78510937e-01
-4.72440625e-08,1.78489063e-01
-4.72040625e-08,1.78510937e-01
-4.71640625e-08,1.78489063e-01
-4.71240625e-08,1.78512500e-01
-4.70840625e-08,1.78487500e-01
-4.70440625e-08,1.78512500e-01
-4.70040625e-08,1.78487500e-01
-4.69640625e-08,1.78512500e-01
-4.69240625e-08,1.78485937e-01
-4.68840625e-08,1.78514063e-01
-4.68440625e-08,1.78485937e-01
-4.68040625e-08,1.78515625e-01
-4.67640625e-08,1.78482813e-01
-4.67240625e-08,1.78518750e-01
-4.66840625e-08,1.78479688e-01
-4.66440625e-08,1.78523437e-01
-4.66040625e-08,1.78471875e-01
-4.65640625e-08,1.78537500e-01
-4.65240625e-08,1.78437500e-01
-4.64840625e-08,1.78717188e-01
-4.64440625e-08,1.78945313e-01
-4.64040625e-08,1.78878125e-01
-4.63640625e-08,1.78912500e-01
-4.63240625e-08,1.78893750e-01
-4.62840625e-08,1.78903125e-01
-4.62440625e-08,1.78898438e-01
-4.62040625e-08,1.78898438e-01
-4.61640625e-08,1.78903125e-01
-4.61240625e-08,1.78895313e-01
-4.60840625e-08,1.78906250e-01
-4.60440625e-08,1.78892187e-01
-4.60040625e-08,1.78909375e-01
-4.59640625e-08,1.78887500e-01
-4.59240625e-08,1.78915625e-01
-4.58840625e-08,1.78879687e-01
-4.58440625e-08,1.78929688e-01
-4.58040625e-08,1.78843750e-01
-4.57640625e-08,1.79109375e-01
-4.57240625e-08,1.79353125e-01
-4.56840625e-08,1.79270313e-01
-4.56440625e-08,1.79320312e-01
-4.56040625e-08,1.79285938e-01
-4.55640625e-08,1.79310938e-01
-4.55240625e-08,1.79290625e-01
-4.54840625e-08,1.79307812e-01
-4.54440625e-08,1.79293750e-01
-4.54040625e-08,1.79306250e-01
-4.53640625e-08,1.79295312e-01
-4.53240625e-08,1.79304688e-01
-4.52840625e-08,1.79296875e-01
-4.52440625e-08,1.79303125e-01
-4.52040625e-08,1.79296875e-01
-4.51640625e-08,1.79303125e-01
-4.51240625e-08,1.79298438e-01
-4.50840625e-08,1.79301563e-01
-4.50440625e-08,1.79298438e-01
-4.50040625e-08,1.79301563e-01
-4.49640625e-08,1.79298438e-01
-4.49240625e-08,1.79301563e-01
-4.48840625e-08,1.79298438e-01
-4.48440625e-08,1.79300000e-01
-4.48040625e-08,1.79300000e-01
-4.47640625e-08,1.79300000e-01
-4.47240625e-08,1.79300000e-01
-4.46840625e-08,1.79300000e-01
-4.46440625e-08,1.79300000e-01
-4.46040625e-08,1.79300000e-01
-4.45640625e-08,1.79300000e-01
-4.45240625e-08,1.79300000e-01
-4.44840625e-08,1.79300000e-01
-4.44440625e-08,1.79300000e-01
-4.44040625e-08,1.79300000e-01
-4.43640625e-08,1.79298438e-01
-4.43240625e-08,1.79301563e-01
-4.42840625e-08,1.79298438e-01
-4.42440625e-08,1.79301563e-01
-4.42040625e-08,1.79298438e-01
-4.41640625e-08,1.79301563e-01
-4.41240625e-08,1.79298438e-01
-4.40840625e-08,1.79301563e-01
-4.40440625e-08,1.79298438e-01
-4.40040625e-08,1.79301563e-01
-4.39640625e-08,1.79298438e-01
-4.39240625e-08,1.79301563e-01
-4.38840625e-08,1.79298438e-01
-4.38440625e-08,1.79301563e-01
-4.38040625e-08,1.79298438e-01
-4.37640625e-08,1.79301563e-01
-4.37240625e-08,1.79298438e-01
-4.36840625e-08,1.79303125e-01
-4.36440625e-08,1.79296875e-01
-4.36040625e-08,1.79303125e-01
-4.35640625e-08,1.79296875e-01
-4.35240625e-08,1.79303125e-01
-4.34840625e-08,1.79296875e-01
-4.34440625e-08,1.79303125e-01
-4.34040625e-08,1.79296875e-01
-4.33640625e-08,1.79303125e-01
-4.33240625e-08,1.79296875e-01
-4.32840625e-08,1.79304688e-01
-4.32440625e-08,1.79295312e-01
-4.32040625e-08,1.79304688e-01
-4.31640625e-08,1.79295312e-01
-4.31240625e-08,1.79304688e-01
-4.30840625e-08,1.79295312e-01
-4.30440625e-08,1.79306250e-01
-4.30040625e-08,1.79293750e-01
-4.29640625e-08,1.79306250e-01
-4.29240625e-08,1.79293750e-01
-4.28840625e-08,1.79307812e-01
-4.28440625e-08,1.79292188e-01
-4.28040625e-08,1.79309375e-01
-4.27640625e-08,1.79290625e-01
-4.27240625e-08,1.79310938e-01
-4.26840625e-08,1.79287500e-01
-4.26440625e-08,1.79315625e-01
-4.26040625e-08,1.79281250e-01
-4.25640625e-08,1.79323438e-01
-4.25240625e-08,1.79267188e-01
-4.24840625e-08,1.79357813e-01
-4.24440625e-08,1.79087500e-01
-4.24040625e-08,1.78850000e-01
-4.23640625e-08,1.78925000e-01
-4.23240625e-08,1.78884375e-01
-4.22840625e-08,1.78910938e-01
-4.22440625e-08,1.78893750e-01
-4.22040625e-08,1.78903125e-01
-4.21640625e-08,1.78898438e-01
-4.21240625e-08,1.78898438e-01
-4.20840625e-08,1.78904688e-01
-4.20440625e-08,1.78892187e-01
-4.20040625e-08,1.78914062e-01
-4.19640625e-08,1.78876563e-01
-4.19240625e-08,1.78950000e-01
-4.18840625e-08,1.78696875e-01
-4.18440625e-08,1.78440625e-01
-4.18040625e-08,1.78534375e-01
-4.17640625e-08,1.78475000e-01
-4.17240625e-08,1.78520313e-01
-4.16840625e-08,1.78482813e-01
-4.16440625e-08,1.78515625e-01
-4.16040625e-08,1.78485937e-01
-4.15640625e-08,1.78512500e-01
-4.15240625e-08,1.78489063e-01
-4.14840625e-08,1.78510937e-01
-4.14440625e-08,1.78490625e-01
-4.14040625e-08,1.78509375e-01
-4.13640625e-08,1.78492188e-01
-4.13240625e-08,1.78507813e-01
-4.12840625e-08,1.78492188e-01
-4.12440625e-08,1.78507813e-01
-4.12040625e-08,1.78493750e-01
-4.11640625e-08,1.78506250e-01
-4.11240625e-08,1.78493750e-01
-4.10840625e-08,1.78504688e-01
-4.10440625e-08,1.78495313e-01
-4.10040625e-08,1.78503125e-01
-4.09640625e-08,1.78496875e-01
-4.09240625e-08,1.78501563e-01
-4.08840625e-08,1.78501563e-01
-4.08440625e-08,1.78493750e-01
-4.08040625e-08,1.78514063e-01
-4.07640625e-08,1.78462500e-01
-4.07240625e-08,1.78689062e-01
-4.06840625e-08,1.78975000e-01
-4.06440625e-08,1.78846875e-01
-4.06040625e-08,1.78946875e-01
-4.05640625e-08,1.78851563e-01
-4.05240625e-08,1.78956250e-01
-4.04840625e-08,1.78820312e-01
-4.04440625e-08,1.79132813e-01
-4.04040625e-08,1.79328125e-01
-4.03640625e-08,1.79298438e-01
-4.03240625e-08,1.79287500e-01
-4.02840625e-08,1.79328125e-01
-4.02440625e-08,1.79243750e-01
-4.02040625e-08,1.79512500e-01
-4.01640625e-08,1.79746875e-01
-4.01240625e-08,1.79679688e-01
-4.00840625e-08,1.79704688e-01
-4.00440625e-08,1.79709375e-01
-4.00040625e-08,1.79662500e-01
-3.99640625e-08,1.79892187e-01
-3.99240625e-08,1.80170313e-01
-3.98840625e-08,1.80054688e-01
-3.98440625e-08,1.80137500e-01
-3.98040625e-08,1.80067188e-01
-3.97640625e-08,1.80132813e-01
-3.97240625e-08,1.80065625e-01
-3.96840625e-08,1.80142187e-01
-3.96440625e-08,1.80034375e-01
-3.96040625e-08,1.80317188e-01
-3.95640625e-08,1.80545312e-01
-3.95240625e-08,1.80478125e-01
-3.94840625e-08,1.80514063e-01
-3.94440625e-08,1.80490625e-01
-3.94040625e-08,1.80507813e-01
-3.93640625e-08,1.80493750e-01
-3.93240625e-08,1.80504688e-01
-3.92840625e-08,1.80495313e-01
-3.92440625e-08,1.80503125e-01
-3.92040625e-08,1.80496875e-01
-3.91640625e-08,1.80503125e-01
-3.91240625e-08,1.80496875e-01
-3.90840625e-08,1.80503125e-01
-3.90440625e-08,1.80496875e-01
-3.90040625e-08,1.80503125e-01
-3.89640625e-08,1.80496875e-01
-3.89240625e-08,1.80503125e-01
-3.88840625e-08,1.80496875e-01
-3.88440625e-08,1.80503125e-01
-3.88040625e-08,1.80496875e-01
-3.87640625e-08,1.80504688e-01
-3.87240625e-08,1.80495313e-01
-3.86840625e-08,1.80504688e-01
-3.86440625e-08,1.80493750e-01
-3.86040625e-08,1.80506250e-01
-3.85640625e-08,1.80492188e-01
-3.85240625e-08,1.80509375e-01
