trails/0b415fe76bd122fbe60d5dd91566c6d8/aes_ch1_20250507111915411.csv

Model,MSO66B
Label,
Waveform Type,ANALOG
Horizontal Units,s
Sample Interval,4.00000000e-11
Record Length,10000
Zero Index,1599.05468750
Vertical Units,A
ANALOG_Thumbnail,
yOffset,1.84500000e-01
yPosition,8.40000000e-01

Labels,
TIME,CH1
-6.39621875e-08,1.86498438e-01
-6.39221875e-08,1.86501562e-01
-6.38821875e-08,1.86498438e-01
-6.38421875e-08,1.86501562e-01
-6.38021875e-08,1.86498438e-01
-6.37621875e-08,1.86500000e-01
-6.37221875e-08,1.86500000e-01
-6.36821875e-08,1.86500000e-01
-6.36421875e-08,1.86500000e-01
-6.36021875e-08,1.86500000e-01
-6.35621875e-08,1.86500000e-01
-6.35221875e-08,1.86500000e-01
-6.34821875e-08,1.86500000e-01
-6.34421875e-08,1.86500000e-01
-6.34021875e-08,1.86500000e-01
-6.33621875e-08,1.86500000e-01
-6.33221875e-08,1.86500000e-01
-6.32821875e-08,1.86500000e-01
-6.32421875e-08,1.86500000e-01
-6.32021875e-08,1.86500000e-01
-6.31621875e-08,1.86500000e-01
-6.31221875e-08,1.86500000e-01
-6.30821875e-08,1.86500000e-01
-6.30421875e-08,1.86500000e-01
-6.30021875e-08,1.86500000e-01
-6.29621875e-08,1.86500000e-01
-6.29221875e-08,1.86500000e-01
-6.28821875e-08,1.86500000e-01
-6.28421875e-08,1.86500000e-01
-6.28021875e-08,1.86500000e-01
-6.27621875e-08,1.86500000e-01
-6.27221875e-08,1.86498438e-01
-6.26821875e-08,1.86501562e-01
-6.26421875e-08,1.86498438e-01
-6.26021875e-08,1.86501562e-01
-6.25621875e-08,1.86498438e-01
-6.25221875e-08,1.86501562e-01
-6.24821875e-08,1.86498438e-01
-6.24421875e-08,1.86501562e-01
-6.24021875e-08,1.86498438e-01
-6.23621875e-08,1.86501562e-01
-6.23221875e-08,1.86498438e-01
-6.22821875e-08,1.86501562e-01
-6.22421875e-08,1.86498438e-01
-6.22021875e-08,1.86501562e-01
-6.21621875e-08,1.86498438e-01
-6.21221875e-08,1.86501562e-01
-6.20821875e-08,1.86498438e-01
-6.20421875e-08,1.86501562e-01
-6.20021875e-08,1.86498438e-01
-6.19621875e-08,1.86501562e-01
-6.19221875e-08,1.86498438e-01
-6.18821875e-08,1.86501562e-01
-6.18421875e-08,1.86498438e-01
-6.18021875e-08,1.86501562e-01
-6.17621875e-08,1.86498438e-01
-6.17221875e-08,1.86501562e-01
-6.16821875e-08,1.86498438e-01
-6.16421875e-08,1.86501562e-01
-6.16021875e-08,1.86498438e-01
-6.15621875e-08,1.86503125e-01
-6.15221875e-08,1.86496875e-01
-6.14821875e-08,1.86503125e-01
-6.14421875e-08,1.86496875e-01
-6.14021875e-08,1.86503125e-01
-6.13621875e-08,1.86496875e-01
-6.13221875e-08,1.86503125e-01
-6.12821875e-08,1.86496875e-01
-6.12421875e-08,1.86503125e-01
-6.12021875e-08,1.86496875e-01
-6.11621875e-08,1.86503125e-01
-6.11221875e-08,1.86496875e-01
-6.10821875e-08,1.86503125e-01
-6.10421875e-08,1.86495313e-01
-6.10021875e-08,1.86504688e-01
-6.09621875e-08,1.86495313e-01
-6.09221875e-08,1.86504688e-01
-6.08821875e-08,1.86495313e-01
-6.08421875e-08,1.86504688e-01
-6.08021875e-08,1.86493750e-01
-6.07621875e-08,1.86506250e-01
-6.07221875e-08,1.86493750e-01
-6.06821875e-08,1.86507813e-01
-6.06421875e-08,1.86492188e-01
-6.06021875e-08,1.86509375e-01
-6.05621875e-08,1.86489062e-01
-6.05221875e-08,1.86512500e-01
-6.04821875e-08,1.86485938e-01
-6.04421875e-08,1.86517188e-01
-6.04021875e-08,1.86478125e-01
-6.03621875e-08,1.86532813e-01
-6.03221875e-08,1.86442187e-01
-6.02821875e-08,1.86710938e-01
-6.02421875e-08,1.86951563e-01
-6.02021875e-08,1.86873438e-01
-6.01621875e-08,1.86917187e-01
-6.01221875e-08,1.86887500e-01
-6.00821875e-08,1.86909375e-01
-6.00421875e-08,1.86893750e-01
-6.00021875e-08,1.86904687e-01
-5.99621875e-08,1.86898438e-01
-5.99221875e-08,1.86900000e-01
-5.98821875e-08,1.86901563e-01
-5.98421875e-08,1.86895313e-01
-5.98021875e-08,1.86907812e-01
-5.97621875e-08,1.86887500e-01
-5.97221875e-08,1.86923438e-01
-5.96821875e-08,1.86851563e-01
-5.96421875e-08,1.87101563e-01
-5.96021875e-08,1.87360938e-01
-5.95621875e-08,1.87262500e-01
-5.95221875e-08,1.87328125e-01
-5.94821875e-08,1.87276563e-01
-5.94421875e-08,1.87321875e-01
-5.94021875e-08,1.87279688e-01
-5.93621875e-08,1.87318750e-01
-5.93221875e-08,1.87281250e-01
-5.92821875e-08,1.87318750e-01
-5.92421875e-08,1.87279688e-01
-5.92021875e-08,1.87323437e-01
-5.91621875e-08,1.87271875e-01
-5.91221875e-08,1.87335937e-01
-5.90821875e-08,1.87239062e-01
-5.90421875e-08,1.87514062e-01
-5.90021875e-08,1.87748438e-01
-5.89621875e-08,1.87675000e-01
-5.89221875e-08,1.87715625e-01
-5.88821875e-08,1.87689063e-01
-5.88421875e-08,1.87709375e-01
-5.88021875e-08,1.87693750e-01
-5.87621875e-08,1.87706250e-01
-5.87221875e-08,1.87695313e-01
-5.86821875e-08,1.87704687e-01
-5.86421875e-08,1.87696875e-01
-5.86021875e-08,1.87703125e-01
-5.85621875e-08,1.87696875e-01
-5.85221875e-08,1.87703125e-01
-5.84821875e-08,1.87696875e-01
-5.84421875e-08,1.87703125e-01
-5.84021875e-08,1.87696875e-01
-5.83621875e-08,1.87703125e-01
-5.83221875e-08,1.87698438e-01
-5.82821875e-08,1.87703125e-01
-5.82421875e-08,1.87696875e-01
-5.82021875e-08,1.87703125e-01
-5.81621875e-08,1.87696875e-01
-5.81221875e-08,1.87703125e-01
-5.80821875e-08,1.87696875e-01
-5.80421875e-08,1.87703125e-01
-5.80021875e-08,1.87696875e-01
-5.79621875e-08,1.87703125e-01
-5.79221875e-08,1.87695313e-01
-5.78821875e-08,1.87704687e-01
-5.78421875e-08,1.87695313e-01
-5.78021875e-08,1.87706250e-01
-5.77621875e-08,1.87692187e-01
-5.77221875e-08,1.87707813e-01
-5.76821875e-08,1.87689063e-01
-5.76421875e-08,1.87714063e-01
-5.76021875e-08,1.87681250e-01
-5.75621875e-08,1.87728125e-01
-5.75221875e-08,1.87646875e-01
-5.74821875e-08,1.87906250e-01
-5.74421875e-08,1.88156250e-01
-5.74021875e-08,1.88067188e-01
-5.73621875e-08,1.88123438e-01
-5.73221875e-08,1.88081250e-01
-5.72821875e-08,1.88115625e-01
-5.72421875e-08,1.88085937e-01
-5.72021875e-08,1.88112500e-01
-5.71621875e-08,1.88087500e-01
-5.71221875e-08,1.88110938e-01
-5.70821875e-08,1.88089063e-01
-5.70421875e-08,1.88110938e-01
-5.70021875e-08,1.88089063e-01
-5.69621875e-08,1.88110938e-01
-5.69221875e-08,1.88089063e-01
-5.68821875e-08,1.88112500e-01
-5.68421875e-08,1.88087500e-01
-5.68021875e-08,1.88114063e-01
-5.67621875e-08,1.88084375e-01
-5.67221875e-08,1.88118750e-01
-5.66821875e-08,1.88076563e-01
-5.66421875e-08,1.88132812e-01
-5.66021875e-08,1.88042188e-01
-5.65621875e-08,1.88310937e-01
-5.65221875e-08,1.88551563e-01
-5.64821875e-08,1.88473438e-01
-5.64421875e-08,1.88517188e-01
-5.64021875e-08,1.88487500e-01
-5.63621875e-08,1.88509375e-01
-5.63221875e-08,1.88492188e-01
-5.62821875e-08,1.88506250e-01
-5.62421875e-08,1.88495313e-01
-5.62021875e-08,1.88504688e-01
-5.61621875e-08,1.88496875e-01
-5.61221875e-08,1.88503125e-01
-5.60821875e-08,1.88498438e-01
-5.60421875e-08,1.88501562e-01
-5.60021875e-08,1.88498438e-01
-5.59621875e-08,1.88500000e-01
-5.59221875e-08,1.88500000e-01
-5.58821875e-08,1.88498438e-01
-5.58421875e-08,1.88501562e-01
-5.58021875e-08,1.88496875e-01
-5.57621875e-08,1.88503125e-01
-5.57221875e-08,1.88495313e-01
-5.56821875e-08,1.88507813e-01
-5.56421875e-08,1.88489062e-01
-5.56021875e-08,1.88515625e-01
-5.55621875e-08,1.88475000e-01
-5.55221875e-08,1.88550000e-01
-5.54821875e-08,1.88296875e-01
-5.54421875e-08,1.88040625e-01
-5.54021875e-08,1.88135938e-01
-5.53621875e-08,1.88073437e-01
-5.53221875e-08,1.88121875e-01
-5.52821875e-08,1.88081250e-01
-5.52421875e-08,1.88117188e-01
-5.52021875e-08,1.88082813e-01
-5.51621875e-08,1.88115625e-01
-5.51221875e-08,1.88084375e-01
-5.50821875e-08,1.88115625e-01
-5.50421875e-08,1.88084375e-01
-5.50021875e-08,1.88115625e-01
-5.49621875e-08,1.88084375e-01
-5.49221875e-08,1.88117188e-01
-5.48821875e-08,1.88081250e-01
-5.48421875e-08,1.88120312e-01
-5.48021875e-08,1.88076563e-01
-5.47621875e-08,1.88128125e-01
-5.47221875e-08,1.88062500e-01
-5.46821875e-08,1.88162500e-01
-5.46421875e-08,1.87884375e-01
-5.46021875e-08,1.87653125e-01
-5.45621875e-08,1.87723438e-01
-5.45221875e-08,1.87685938e-01
-5.44821875e-08,1.87707813e-01
-5.44421875e-08,1.87695313e-01
-5.44021875e-08,1.87703125e-01
-5.43621875e-08,1.87698438e-01
-5.43221875e-08,1.87700000e-01
-5.42821875e-08,1.87701563e-01
-5.42421875e-08,1.87698438e-01
-5.42021875e-08,1.87703125e-01
-5.41621875e-08,1.87696875e-01
-5.41221875e-08,1.87704687e-01
-5.40821875e-08,1.87695313e-01
-5.40421875e-08,1.87706250e-01
-5.40021875e-08,1.87693750e-01
-5.39621875e-08,1.87707813e-01
-5.39221875e-08,1.87690625e-01
-5.38821875e-08,1.87710938e-01
-5.38421875e-08,1.87687500e-01
-5.38021875e-08,1.87714063e-01
-5.37621875e-08,1.87681250e-01
-5.37221875e-08,1.87723438e-01
-5.36821875e-08,1.87667187e-01
-5.36421875e-08,1.87759375e-01
-5.36021875e-08,1.87487500e-01
-5.35621875e-08,1.87251562e-01
-5.35221875e-08,1.87325000e-01
-5.34821875e-08,1.87285937e-01
-5.34421875e-08,1.87307813e-01
-5.34021875e-08,1.87296875e-01
-5.33621875e-08,1.87300000e-01
-5.33221875e-08,1.87304688e-01
-5.32821875e-08,1.87289063e-01
-5.32421875e-08,1.87321875e-01
-5.32021875e-08,1.87253125e-01
-5.31621875e-08,1.87501562e-01
-5.31221875e-08,1.87760938e-01
-5.30821875e-08,1.87662500e-01
-5.30421875e-08,1.87728125e-01
-5.30021875e-08,1.87678125e-01
-5.29621875e-08,1.87718750e-01
-5.29221875e-08,1.87682813e-01
-5.28821875e-08,1.87717187e-01
-5.28421875e-08,1.87684375e-01
-5.28021875e-08,1.87715625e-01
-5.27621875e-08,1.87682813e-01
-5.27221875e-08,1.87718750e-01
-5.26821875e-08,1.87676563e-01
-5.26421875e-08,1.87731250e-01
-5.26021875e-08,1.87645312e-01
-5.25621875e-08,1.87906250e-01
-5.25221875e-08,1.88156250e-01
-5.24821875e-08,1.88065625e-01
-5.24421875e-08,1.88126563e-01
-5.24021875e-08,1.88075000e-01
-5.23621875e-08,1.88125000e-01
-5.23221875e-08,1.88071875e-01
-5.22821875e-08,1.88137500e-01
-5.22421875e-08,1.88037500e-01
-5.22021875e-08,1.88315625e-01
-5.21621875e-08,1.88546875e-01
-5.21221875e-08,1.88476562e-01
-5.20821875e-08,1.88512500e-01
-5.20421875e-08,1.88493750e-01
-5.20021875e-08,1.88501562e-01
-5.19621875e-08,1.88503125e-01
-5.19221875e-08,1.88490625e-01
-5.18821875e-08,1.88520313e-01
-5.18421875e-08,1.88454687e-01
-5.18021875e-08,1.88700000e-01
-5.17621875e-08,1.88962500e-01
-5.17221875e-08,1.88862500e-01
-5.16821875e-08,1.88928125e-01
-5.16421875e-08,1.88876563e-01
-5.16021875e-08,1.88920313e-01
-5.15621875e-08,1.88882812e-01
-5.15221875e-08,1.88915625e-01
-5.14821875e-08,1.88884375e-01
-5.14421875e-08,1.88914063e-01
-5.14021875e-08,1.88885938e-01
-5.13621875e-08,1.88912500e-01
-5.13221875e-08,1.88887500e-01
-5.12821875e-08,1.88912500e-01
-5.12421875e-08,1.88887500e-01
-5.12021875e-08,1.88910938e-01
-5.11621875e-08,1.88889063e-01
-5.11221875e-08,1.88910938e-01
-5.10821875e-08,1.88889063e-01
-5.10421875e-08,1.88910938e-01
-5.10021875e-08,1.88889063e-01
-5.09621875e-08,1.88910938e-01
-5.09221875e-08,1.88889063e-01
-5.08821875e-08,1.88912500e-01
-5.08421875e-08,1.88887500e-01
-5.08021875e-08,1.88912500e-01
-5.07621875e-08,1.88885938e-01
-5.07221875e-08,1.88914063e-01
-5.06821875e-08,1.88884375e-01
-5.06421875e-08,1.88917188e-01
-5.06021875e-08,1.88879688e-01
-5.05621875e-08,1.88926563e-01
-5.05221875e-08,1.88864063e-01
-5.04821875e-08,1.88960938e-01
-5.04421875e-08,1.88685938e-01
-5.04021875e-08,1.88451563e-01
-5.03621875e-08,1.88525000e-01
-5.03221875e-08,1.88484375e-01
-5.02821875e-08,1.88510938e-01
-5.02421875e-08,1.88492188e-01
-5.02021875e-08,1.88506250e-01
-5.01621875e-08,1.88495313e-01
-5.01221875e-08,1.88503125e-01
-5.00821875e-08,1.88496875e-01
-5.00421875e-08,1.88501562e-01
-5.00021875e-08,1.88498438e-01
-4.99621875e-08,1.88501562e-01
-4.99221875e-08,1.88500000e-01
-4.98821875e-08,1.88500000e-01
-4.98421875e-08,1.88500000e-01
-4.98021875e-08,1.88500000e-01
-4.97621875e-08,1.88500000e-01
-4.97221875e-08,1.88500000e-01
-4.96821875e-08,1.88500000e-01
-4.96421875e-08,1.88498438e-01
-4.96021875e-08,1.88501562e-01
-4.95621875e-08,1.88498438e-01
-4.95221875e-08,1.88501562e-01
-4.94821875e-08,1.88498438e-01
-4.94421875e-08,1.88501562e-01
-4.94021875e-08,1.88498438e-01
-4.93621875e-08,1.88501562e-01
-4.93221875e-08,1.88498438e-01
-4.92821875e-08,1.88501562e-01
-4.92421875e-08,1.88498438e-01
-4.92021875e-08,1.88501562e-01
-4.91621875e-08,1.88498438e-01
-4.91221875e-08,1.88501562e-01
-4.90821875e-08,1.88498438e-01
-4.90421875e-08,1.88501562e-01
-4.90021875e-08,1.88498438e-01
-4.89621875e-08,1.88501562e-01
-4.89221875e-08,1.88496875e-01
-4.88821875e-08,1.88503125e-01
-4.88421875e-08,1.88496875e-01
-4.88021875e-08,1.88503125e-01
-4.87621875e-08,1.88496875e-01
-4.87221875e-08,1.88503125e-01
-4.86821875e-08,1.88496875e-01
-4.86421875e-08,1.88503125e-01
-4.86021875e-08,1.88496875e-01
-4.85621875e-08,1.88503125e-01
-4.85221875e-08,1.88496875e-01
-4.84821875e-08,1.88503125e-01
-4.84421875e-08,1.88496875e-01
-4.84021875e-08,1.88503125e-01
-4.83621875e-08,1.88495313e-01
-4.83221875e-08,1.88504688e-01
-4.82821875e-08,1.88495313e-01
-4.82421875e-08,1.88504688e-01
-4.82021875e-08,1.88495313e-01
-4.81621875e-08,1.88504688e-01
-4.81221875e-08,1.88493750e-01
-4.80821875e-08,1.88506250e-01
-4.80421875e-08,1.88493750e-01
-4.80021875e-08,1.88506250e-01
-4.79621875e-08,1.88492188e-01
-4.79221875e-08,1.88507813e-01
-4.78821875e-08,1.88490625e-01
-4.78421875e-08,1.88510938e-01
-4.78021875e-08,1.88485938e-01
-4.77621875e-08,1.88515625e-01
-4.77221875e-08,1.88478125e-01
-4.76821875e-08,1.88531250e-01
-4.76421875e-08,1.88443750e-01
-4.76021875e-08,1.88709375e-01
-4.75621875e-08,1.88953125e-01
-4.75221875e-08,1.88870312e-01
-4.74821875e-08,1.88920313e-01
-4.74421875e-08,1.88884375e-01
-4.74021875e-08,1.88912500e-01
-4.73621875e-08,1.88890625e-01
-4.73221875e-08,1.88907812e-01
-4.72821875e-08,1.88892188e-01
-4.72421875e-08,1.88906250e-01
-4.72021875e-08,1.88893750e-01
-4.71621875e-08,1.88904688e-01
-4.71221875e-08,1.88895312e-01
-4.70821875e-08,1.88904688e-01
-4.70421875e-08,1.88896875e-01
-4.70021875e-08,1.88903125e-01
-4.69621875e-08,1.88896875e-01
-4.69221875e-08,1.88903125e-01
-4.68821875e-08,1.88896875e-01
-4.68421875e-08,1.88903125e-01
-4.68021875e-08,1.88896875e-01
-4.67621875e-08,1.88901563e-01
-4.67221875e-08,1.88898438e-01
-4.66821875e-08,1.88901563e-01
-4.66421875e-08,1.88898438e-01
-4.66021875e-08,1.88901563e-01
-4.65621875e-08,1.88898438e-01
-4.65221875e-08,1.88901563e-01
-4.64821875e-08,1.88898438e-01
-4.64421875e-08,1.88901563e-01
-4.64021875e-08,1.88898438e-01
-4.63621875e-08,1.88901563e-01
-4.63221875e-08,1.88898438e-01
-4.62821875e-08,1.88901563e-01
-4.62421875e-08,1.88898438e-01
-4.62021875e-08,1.88901563e-01
-4.61621875e-08,1.88898438e-01
-4.61221875e-08,1.88900000e-01
-4.60821875e-08,1.88900000e-01
-4.60421875e-08,1.88900000e-01
-4.60021875e-08,1.88900000e-01
-4.59621875e-08,1.88900000e-01
-4.59221875e-08,1.88900000e-01
-4.58821875e-08,1.88900000e-01
-4.58421875e-08,1.88900000e-01
-4.58021875e-08,1.88900000e-01
-4.57621875e-08,1.88900000e-01
-4.57221875e-08,1.88900000e-01
-4.56821875e-08,1.88900000e-01
-4.56421875e-08,1.88900000e-01
-4.56021875e-08,1.88900000e-01
-4.55621875e-08,1.88898438e-01
-4.55221875e-08,1.88901563e-01
-4.54821875e-08,1.88898438e-01
-4.54421875e-08,1.88901563e-01
-4.54021875e-08,1.88898438e-01
-4.53621875e-08,1.88903125e-01
-4.53221875e-08,1.88896875e-01
-4.52821875e-08,1.88903125e-01
-4.52421875e-08,1.88895312e-01
-4.52021875e-08,1.88904688e-01
-4.51621875e-08,1.88893750e-01
-4.51221875e-08,1.88909375e-01
-4.50821875e-08,1.88889063e-01
-4.50421875e-08,1.88917188e-01
-4.50021875e-08,1.88873438e-01
-4.49621875e-08,1.88950000e-01
-4.49221875e-08,1.88696875e-01
-4.48821875e-08,1.88440625e-01
-4.48421875e-08,1.88535938e-01
-4.48021875e-08,1.88473438e-01
-4.47621875e-08,1.88521875e-01
-4.47221875e-08,1.88481250e-01
-4.46821875e-08,1.88517188e-01
-4.46421875e-08,1.88482813e-01
-4.46021875e-08,1.88517188e-01
-4.45621875e-08,1.88482813e-01
-4.45221875e-08,1.88518750e-01
-4.44821875e-08,1.88478125e-01
-4.44421875e-08,1.88525000e-01
-4.44021875e-08,1.88465625e-01
-4.43621875e-08,1.88559375e-01
-4.43221875e-08,1.88289062e-01
-4.42821875e-08,1.88048437e-01
-4.42421875e-08,1.88128125e-01
-4.42021875e-08,1.88079688e-01
-4.41621875e-08,1.88115625e-01
-4.41221875e-08,1.88085937e-01
-4.40821875e-08,1.88114063e-01
-4.40421875e-08,1.88084375e-01
-4.40021875e-08,1.88120312e-01
-4.39621875e-08,1.88071875e-01
-4.39221875e-08,1.88153125e-01
-4.38821875e-08,1.87895312e-01
-4.38421875e-08,1.87642188e-01
-4.38021875e-08,1.87734375e-01
-4.37621875e-08,1.87673438e-01
-4.37221875e-08,1.87721875e-01
-4.36821875e-08,1.87679687e-01
-4.36421875e-08,1.87718750e-01
-4.36021875e-08,1.87681250e-01
-4.35621875e-08,1.87718750e-01
-4.35221875e-08,1.87679687e-01
-4.34821875e-08,1.87721875e-01
-4.34421875e-08,1.87676563e-01
-4.34021875e-08,1.87728125e-01
-4.33621875e-08,1.87662500e-01
-4.33221875e-08,1.87762500e-01
-4.32821875e-08,1.87484375e-01
-4.32421875e-08,1.87253125e-01
-4.32021875e-08,1.87321875e-01
-4.31621875e-08,1.87287500e-01
-4.31221875e-08,1.87307813e-01
-4.30821875e-08,1.87295313e-01
-4.30421875e-08,1.87301563e-01
-4.30021875e-08,1.87300000e-01
-4.29621875e-08,1.87298437e-01
-4.29221875e-08,1.87303125e-01
-4.28821875e-08,1.87295313e-01
-4.28421875e-08,1.87306250e-01
-4.28021875e-08,1.87292188e-01
-4.27621875e-08,1.87309375e-01
-4.27221875e-08,1.87287500e-01
-4.26821875e-08,1.87315625e-01
-4.26421875e-08,1.87279688e-01
-4.26021875e-08,1.87331250e-01
-4.25621875e-08,1.87243750e-01
-4.25221875e-08,1.87509375e-01
-4.24821875e-08,1.87753125e-01
-4.24421875e-08,1.87671875e-01
-4.24021875e-08,1.87718750e-01
-4.23621875e-08,1.87687500e-01
-4.23221875e-08,1.87709375e-01
-4.22821875e-08,1.87693750e-01
-4.22421875e-08,1.87704687e-01
-4.22021875e-08,1.87696875e-01
-4.21621875e-08,1.87700000e-01
-4.21221875e-08,1.87701563e-01
-4.20821875e-08,1.87695313e-01
-4.20421875e-08,1.87707813e-01
-4.20021875e-08,1.87687500e-01
-4.19621875e-08,1.87723438e-01
-4.19221875e-08,1.87651563e-01
-4.18821875e-08,1.87901563e-01
-4.18421875e-08,1.88160938e-01
-4.18021875e-08,1.88062500e-01
-4.17621875e-08,1.88128125e-01
-4.17221875e-08,1.88076563e-01
-4.16821875e-08,1.88120312e-01
-4.16421875e-08,1.88081250e-01
-4.16021875e-08,1.88118750e-01
-4.15621875e-08,1.88082813e-01
-4.15221875e-08,1.88118750e-01
-4.14821875e-08,1.88081250e-01
-4.14421875e-08,1.88121875e-01
-4.14021875e-08,1.88073437e-01
-4.13621875e-08,1.88134375e-01
-4.13221875e-08,1.88040625e-01
-4.12821875e-08,1.88310937e-01
-4.12421875e-08,1.88551563e-01
-4.12021875e-08,1.88471875e-01
-4.11621875e-08,1.88518750e-01
-4.11221875e-08,1.88484375e-01
-4.10821875e-08,1.88512500e-01
-4.10421875e-08,1.88489062e-01
-4.10021875e-08,1.88510938e-01
-4.09621875e-08,1.88489062e-01
-4.09221875e-08,1.88510938e-01
-4.08821875e-08,1.88489062e-01
-4.08421875e-08,1.88512500e-01
-4.08021875e-08,1.88485938e-01
-4.07621875e-08,1.88517188e-01
-4.07221875e-08,1.88478125e-01
-4.06821875e-08,1.88531250e-01
-4.06421875e-08,1.88443750e-01
-4.06021875e-08,1.88709375e-01
-4.05621875e-08,1.88953125e-01
-4.05221875e-08,1.88871875e-01
-4.04821875e-08,1.88918750e-01
-4.04421875e-08,1.88885938e-01
-4.04021875e-08,1.88910938e-01
-4.03621875e-08,1.88890625e-01
-4.03221875e-08,1.88907812e-01
-4.02821875e-08,1.88893750e-01
-4.02421875e-08,1.88904688e-01
-4.02021875e-08,1.88895312e-01
-4.01621875e-08,1.88903125e-01
-4.01221875e-08,1.88896875e-01
-4.00821875e-08,1.88901563e-01
-4.00421875e-08,1.88898438e-01
-4.00021875e-08,1.88900000e-01
-3.99621875e-08,1.88900000e-01
-3.99221875e-08,1.88898438e-01
-3.98821875e-08,1.88901563e-01
-3.98421875e-08,1.88896875e-01
-3.98021875e-08,1.88903125e-01
-3.97621875e-08,1.88895312e-01
-3.97221875e-08,1.88906250e-01
-3.96821875e-08,1.88892188e-01
-3.96421875e-08,1.88910938e-01
-3.96021875e-08,1.88885938e-01
-3.95621875e-08,1.88917188e-01
-3.95221875e-08,1.88875000e-01
-3.94821875e-08,1.88935938e-01
-3.94421875e-08,1.88835937e-01
-3.94021875e-08,1.89121875e-01
-3.93621875e-08,1.89329688e-01
-3.93221875e-08,1.89318750e-01
-3.92821875e-08,1.89118750e-01
-3.92421875e-08,1.88823437e-01
-3.92021875e-08,1.88950000e-01
-3.91621875e-08,1.88862500e-01
-3.91221875e-08,1.88931250e-01
-3.90821875e-08,1.88873438e-01
-3.90421875e-08,1.88925000e-01
-3.90021875e-08,1.88878125e-01
-3.89621875e-08,1.88920313e-01
-3.89221875e-08,1.88881250e-01
-3.88821875e-08,1.88918750e-01
-3.88421875e-08,1.88882812e-01
-3.88021875e-08,1.88917188e-01
-3.87621875e-08,1.88884375e-01
-3.87221875e-08,1.88915625e-01
-3.86821875e-08,1.88885938e-01
-3.86421875e-08,1.88914063e-01
-3.86021875e-08,1.88885938e-01
-3.85621875e-08,1.88914063e-01
-3.85221875e-08,1.88885938e-01
