trails/0b415fe76bd122fbe60d5dd91566c6d8/aes_ch1_20250507112106735.csv

Model,MSO66B
Label,
Waveform Type,ANALOG
Horizontal Units,s
Sample Interval,4.00000000e-11
Record Length,10000
Zero Index,1599.10546875
Vertical Units,A
ANALOG_Thumbnail,
yOffset,1.84500000e-01
yPosition,8.40000000e-01

Labels,
TIME,CH1
-6.39642188e-08,1.81282813e-01
-6.39242187e-08,1.81320312e-01
-6.38842187e-08,1.81275000e-01
-6.38442187e-08,1.81334375e-01
-6.38042187e-08,1.81240625e-01
-6.37642188e-08,1.81514063e-01
-6.37242187e-08,1.81748437e-01
-6.36842188e-08,1.81675000e-01
-6.36442187e-08,1.81715625e-01
-6.36042187e-08,1.81690625e-01
-6.35642187e-08,1.81706250e-01
-6.35242187e-08,1.81696875e-01
-6.34842188e-08,1.81701562e-01
-6.34442187e-08,1.81700000e-01
-6.34042188e-08,1.81698438e-01
-6.33642187e-08,1.81704688e-01
-6.33242187e-08,1.81693750e-01
-6.32842187e-08,1.81710938e-01
-6.32442187e-08,1.81684375e-01
-6.32042188e-08,1.81725000e-01
-6.31642187e-08,1.81650000e-01
-6.31242188e-08,1.81904687e-01
-6.30842187e-08,1.82157813e-01
-6.30442187e-08,1.82065625e-01
-6.30042187e-08,1.82125000e-01
-6.29642187e-08,1.82079688e-01
-6.29242188e-08,1.82117187e-01
-6.28842187e-08,1.82085938e-01
-6.28442187e-08,1.82112500e-01
-6.28042187e-08,1.82087500e-01
-6.27642187e-08,1.82110938e-01
-6.27242187e-08,1.82089063e-01
-6.26842187e-08,1.82109375e-01
-6.26442188e-08,1.82090625e-01
-6.26042187e-08,1.82109375e-01
-6.25642187e-08,1.82090625e-01
-6.25242187e-08,1.82107812e-01
-6.24842187e-08,1.82092188e-01
-6.24442187e-08,1.82107812e-01
-6.24042187e-08,1.82092188e-01
-6.23642188e-08,1.82107812e-01
-6.23242187e-08,1.82092188e-01
-6.22842187e-08,1.82107812e-01
-6.22442187e-08,1.82090625e-01
-6.22042187e-08,1.82109375e-01
-6.21642187e-08,1.82090625e-01
-6.21242187e-08,1.82110938e-01
-6.20842188e-08,1.82089063e-01
-6.20442187e-08,1.82114063e-01
-6.20042187e-08,1.82084375e-01
-6.19642187e-08,1.82120313e-01
-6.19242187e-08,1.82070312e-01
-6.18842187e-08,1.82154687e-01
-6.18442187e-08,1.81893750e-01
-6.18042188e-08,1.81643750e-01
-6.17642187e-08,1.81734375e-01
-6.17242187e-08,1.81673438e-01
-6.16842187e-08,1.81723438e-01
-6.16442187e-08,1.81676562e-01
-6.16042187e-08,1.81726562e-01
-6.15642187e-08,1.81665625e-01
-6.15242188e-08,1.81757813e-01
-6.14842187e-08,1.81489063e-01
-6.14442187e-08,1.81246875e-01
-6.14042187e-08,1.81329688e-01
-6.13642187e-08,1.81279688e-01
-6.13242187e-08,1.81315625e-01
-6.12842187e-08,1.81287500e-01
-6.12442188e-08,1.81310938e-01
-6.12042187e-08,1.81290625e-01
-6.11642187e-08,1.81309375e-01
-6.11242187e-08,1.81292188e-01
-6.10842187e-08,1.81306250e-01
-6.10442187e-08,1.81293750e-01
-6.10042187e-08,1.81304688e-01
-6.09642188e-08,1.81298438e-01
-6.09242187e-08,1.81293750e-01
-6.08842187e-08,1.81325000e-01
-6.08442187e-08,1.81131250e-01
-6.08042187e-08,1.80781250e-01
-6.07642188e-08,1.81148438e-01
-6.07242187e-08,1.81323438e-01
-6.06842188e-08,1.81295312e-01
-6.06442187e-08,1.81296875e-01
-6.06042187e-08,1.81306250e-01
-6.05642187e-08,1.81292188e-01
-6.05242187e-08,1.81309375e-01
-6.04842188e-08,1.81289063e-01
-6.04442187e-08,1.81312500e-01
-6.04042188e-08,1.81285937e-01
-6.03642187e-08,1.81317188e-01
-6.03242187e-08,1.81281250e-01
-6.02842187e-08,1.81323438e-01
-6.02442187e-08,1.81271875e-01
-6.02042188e-08,1.81339063e-01
-6.01642187e-08,1.81235937e-01
-6.01242188e-08,1.81518750e-01
-6.00842187e-08,1.81742188e-01
-6.00442187e-08,1.81684375e-01
-6.00042187e-08,1.81704688e-01
-5.99642187e-08,1.81703125e-01
-5.99242188e-08,1.81687500e-01
-5.98842187e-08,1.81723438e-01
-5.98442188e-08,1.81648438e-01
-5.98042187e-08,1.81906250e-01
-5.97642187e-08,1.82154687e-01
-5.97242187e-08,1.82071875e-01
-5.96842187e-08,1.82117187e-01
-5.96442188e-08,1.82090625e-01
-5.96042187e-08,1.82100000e-01
-5.95642187e-08,1.82110938e-01
-5.95242187e-08,1.82064063e-01
-5.94842187e-08,1.82290625e-01
-5.94442187e-08,1.82571875e-01
-5.94042187e-08,1.82451562e-01
-5.93642187e-08,1.82542188e-01
-5.93242187e-08,1.82459375e-01
-5.92842187e-08,1.82546875e-01
-5.92442187e-08,1.82431250e-01
-5.92042187e-08,1.82718750e-01
-5.91642187e-08,1.82946875e-01
-5.91242187e-08,1.82873438e-01
-5.90842187e-08,1.82920313e-01
-5.90442187e-08,1.82879687e-01
-5.90042187e-08,1.82928125e-01
-5.89642187e-08,1.82848438e-01
-5.89242187e-08,1.83103125e-01
-5.88842187e-08,1.83360938e-01
-5.88442187e-08,1.83262500e-01
-5.88042187e-08,1.83329688e-01
-5.87642187e-08,1.83273437e-01
-5.87242187e-08,1.83325000e-01
-5.86842187e-08,1.83275000e-01
-5.86442187e-08,1.83326563e-01
-5.86042187e-08,1.83268750e-01
-5.85642187e-08,1.83339063e-01
-5.85242187e-08,1.83235938e-01
-5.84842187e-08,1.83515625e-01
-5.84442187e-08,1.83746875e-01
-5.84042187e-08,1.83676563e-01
-5.83642187e-08,1.83714062e-01
-5.83242187e-08,1.83690625e-01
-5.82842187e-08,1.83706250e-01
-5.82442187e-08,1.83695313e-01
-5.82042187e-08,1.83703125e-01
-5.81642187e-08,1.83696875e-01
-5.81242187e-08,1.83701562e-01
-5.80842187e-08,1.83698438e-01
-5.80442187e-08,1.83701562e-01
-5.80042187e-08,1.83700000e-01
-5.79642187e-08,1.83700000e-01
-5.79242187e-08,1.83700000e-01
-5.78842187e-08,1.83700000e-01
-5.78442187e-08,1.83700000e-01
-5.78042187e-08,1.83700000e-01
-5.77642187e-08,1.83700000e-01
-5.77242187e-08,1.83700000e-01
-5.76842187e-08,1.83700000e-01
-5.76442187e-08,1.83700000e-01
-5.76042187e-08,1.83700000e-01
-5.75642187e-08,1.83700000e-01
-5.75242187e-08,1.83701562e-01
-5.74842187e-08,1.83698438e-01
-5.74442187e-08,1.83701562e-01
-5.74042187e-08,1.83698438e-01
-5.73642187e-08,1.83701562e-01
-5.73242187e-08,1.83698438e-01
-5.72842187e-08,1.83701562e-01
-5.72442187e-08,1.83698438e-01
-5.72042187e-08,1.83701562e-01
-5.71642187e-08,1.83698438e-01
-5.71242187e-08,1.83701562e-01
-5.70842187e-08,1.83698438e-01
-5.70442187e-08,1.83701562e-01
-5.70042187e-08,1.83698438e-01
-5.69642187e-08,1.83701562e-01
-5.69242187e-08,1.83698438e-01
-5.68842187e-08,1.83701562e-01
-5.68442187e-08,1.83698438e-01
-5.68042187e-08,1.83701562e-01
-5.67642187e-08,1.83698438e-01
-5.67242187e-08,1.83701562e-01
-5.66842187e-08,1.83698438e-01
-5.66442187e-08,1.83701562e-01
-5.66042187e-08,1.83698438e-01
-5.65642187e-08,1.83701562e-01
-5.65242187e-08,1.83698438e-01
-5.64842187e-08,1.83701562e-01
-5.64442187e-08,1.83698438e-01
-5.64042187e-08,1.83701562e-01
-5.63642187e-08,1.83698438e-01
-5.63242187e-08,1.83701562e-01
-5.62842187e-08,1.83698438e-01
-5.62442187e-08,1.83701562e-01
-5.62042187e-08,1.83698438e-01
-5.61642187e-08,1.83701562e-01
-5.61242187e-08,1.83698438e-01
-5.60842187e-08,1.83701562e-01
-5.60442187e-08,1.83700000e-01
-5.60042187e-08,1.83700000e-01
-5.59642187e-08,1.83700000e-01
-5.59242187e-08,1.83700000e-01
-5.58842187e-08,1.83700000e-01
-5.58442187e-08,1.83700000e-01
-5.58042187e-08,1.83700000e-01
-5.57642187e-08,1.83700000e-01
-5.57242187e-08,1.83700000e-01
-5.56842187e-08,1.83700000e-01
-5.56442187e-08,1.83700000e-01
-5.56042187e-08,1.83698438e-01
-5.55642187e-08,1.83701562e-01
-5.55242187e-08,1.83698438e-01
-5.54842187e-08,1.83703125e-01
-5.54442187e-08,1.83695313e-01
-5.54042187e-08,1.83706250e-01
-5.53642187e-08,1.83692187e-01
-5.53242187e-08,1.83712500e-01
-5.52842187e-08,1.83678125e-01
-5.52442187e-08,1.83746875e-01
-5.52042187e-08,1.83501562e-01
-5.51642187e-08,1.83234375e-01
-5.51242187e-08,1.83342188e-01
-5.50842187e-08,1.83265625e-01
-5.50442187e-08,1.83332812e-01
-5.50042187e-08,1.83267188e-01
-5.49642187e-08,1.83335938e-01
-5.49242187e-08,1.83256250e-01
-5.48842187e-08,1.83368750e-01
-5.48442187e-08,1.83078125e-01
-5.48042187e-08,1.82859375e-01
-5.47642187e-08,1.82915625e-01
-5.47242187e-08,1.82895313e-01
-5.46842187e-08,1.82896875e-01
-5.46442187e-08,1.82909375e-01
-5.46042187e-08,1.82879687e-01
-5.45642187e-08,1.82945313e-01
-5.45242187e-08,1.82701562e-01
-5.44842187e-08,1.82435938e-01
-5.44442187e-08,1.82540625e-01
-5.44042187e-08,1.82465625e-01
-5.43642187e-08,1.82532813e-01
-5.43242187e-08,1.82460938e-01
-5.42842187e-08,1.82560938e-01
-5.42442187e-08,1.82287500e-01
-5.42042187e-08,1.82048437e-01
-5.41642187e-08,1.82129687e-01
-5.41242187e-08,1.82076563e-01
-5.40842187e-08,1.82120313e-01
-5.40442187e-08,1.82078125e-01
-5.40042187e-08,1.82125000e-01
-5.39642187e-08,1.82065625e-01
-5.39242187e-08,1.82157813e-01
-5.38842187e-08,1.81889063e-01
-5.38442187e-08,1.81648438e-01
-5.38042187e-08,1.81728125e-01
-5.37642187e-08,1.81679688e-01
-5.37242187e-08,1.81715625e-01
-5.36842187e-08,1.81687500e-01
-5.36442187e-08,1.81710938e-01
-5.36042187e-08,1.81690625e-01
-5.35642187e-08,1.81707813e-01
-5.35242187e-08,1.81692188e-01
-5.34842187e-08,1.81706250e-01
-5.34442187e-08,1.81693750e-01
-5.34042187e-08,1.81706250e-01
-5.33642188e-08,1.81693750e-01
-5.33242187e-08,1.81704688e-01
-5.32842187e-08,1.81695313e-01
-5.32442187e-08,1.81704688e-01
-5.32042187e-08,1.81695313e-01
-5.31642187e-08,1.81704688e-01
-5.31242187e-08,1.81695313e-01
-5.30842187e-08,1.81704688e-01
-5.30442187e-08,1.81695313e-01
-5.30042187e-08,1.81704688e-01
-5.29642187e-08,1.81695313e-01
-5.29242187e-08,1.81704688e-01
-5.28842187e-08,1.81695313e-01
-5.28442187e-08,1.81704688e-01
-5.28042187e-08,1.81693750e-01
-5.27642187e-08,1.81706250e-01
-5.27242187e-08,1.81693750e-01
-5.26842187e-08,1.81707813e-01
-5.26442187e-08,1.81692188e-01
-5.26042187e-08,1.81709375e-01
-5.25642187e-08,1.81689062e-01
-5.25242187e-08,1.81714062e-01
-5.24842187e-08,1.81681250e-01
-5.24442187e-08,1.81728125e-01
-5.24042187e-08,1.81646875e-01
-5.23642187e-08,1.81906250e-01
-5.23242187e-08,1.82156250e-01
-5.22842187e-08,1.82067188e-01
-5.22442187e-08,1.82123438e-01
-5.22042187e-08,1.82081250e-01
-5.21642187e-08,1.82117187e-01
-5.21242187e-08,1.82084375e-01
-5.20842187e-08,1.82114063e-01
-5.20442187e-08,1.82085938e-01
-5.20042187e-08,1.82114063e-01
-5.19642187e-08,1.82085938e-01
-5.19242187e-08,1.82115625e-01
-5.18842187e-08,1.82082812e-01
-5.18442187e-08,1.82118750e-01
-5.18042187e-08,1.82076563e-01
-5.17642187e-08,1.82132813e-01
-5.17242187e-08,1.82042188e-01
-5.16842187e-08,1.82310938e-01
-5.16442187e-08,1.82551563e-01
-5.16042187e-08,1.82471875e-01
-5.15642187e-08,1.82518750e-01
-5.15242187e-08,1.82485938e-01
-5.14842187e-08,1.82510937e-01
-5.14442188e-08,1.82490625e-01
-5.14042187e-08,1.82507813e-01
-5.13642187e-08,1.82493750e-01
-5.13242187e-08,1.82506250e-01
-5.12842187e-08,1.82495313e-01
-5.12442187e-08,1.82504688e-01
-5.12042187e-08,1.82495313e-01
-5.11642188e-08,1.82503125e-01
-5.11242187e-08,1.82496875e-01
-5.10842187e-08,1.82503125e-01
-5.10442187e-08,1.82496875e-01
-5.10042187e-08,1.82503125e-01
-5.09642187e-08,1.82496875e-01
-5.09242187e-08,1.82501563e-01
-5.08842187e-08,1.82498437e-01
-5.08442187e-08,1.82501563e-01
-5.08042187e-08,1.82498437e-01
-5.07642187e-08,1.82501563e-01
-5.07242187e-08,1.82498437e-01
-5.06842187e-08,1.82501563e-01
-5.06442187e-08,1.82498437e-01
-5.06042187e-08,1.82501563e-01
-5.05642187e-08,1.82498437e-01
-5.05242187e-08,1.82501563e-01
-5.04842187e-08,1.82498437e-01
-5.04442187e-08,1.82501563e-01
-5.04042187e-08,1.82498437e-01
-5.03642187e-08,1.82501563e-01
-5.03242187e-08,1.82498437e-01
-5.02842187e-08,1.82501563e-01
-5.02442187e-08,1.82498437e-01
-5.02042187e-08,1.82501563e-01
-5.01642187e-08,1.82498437e-01
-5.01242187e-08,1.82500000e-01
-5.00842187e-08,1.82500000e-01
-5.00442187e-08,1.82500000e-01
-5.00042187e-08,1.82500000e-01
-4.99642187e-08,1.82500000e-01
-4.99242187e-08,1.82500000e-01
-4.98842187e-08,1.82500000e-01
-4.98442187e-08,1.82500000e-01
-4.98042187e-08,1.82500000e-01
-4.97642187e-08,1.82500000e-01
-4.97242187e-08,1.82500000e-01
-4.96842187e-08,1.82500000e-01
-4.96442187e-08,1.82500000e-01
-4.96042187e-08,1.82500000e-01
-4.95642187e-08,1.82500000e-01
-4.95242188e-08,1.82500000e-01
-4.94842187e-08,1.82500000e-01
-4.94442187e-08,1.82500000e-01
-4.94042187e-08,1.82500000e-01
-4.93642187e-08,1.82500000e-01
-4.93242187e-08,1.82500000e-01
-4.92842187e-08,1.82501563e-01
-4.92442188e-08,1.82498437e-01
-4.92042187e-08,1.82501563e-01
-4.91642187e-08,1.82498437e-01
-4.91242187e-08,1.82501563e-01
-4.90842187e-08,1.82498437e-01
-4.90442187e-08,1.82501563e-01
-4.90042187e-08,1.82496875e-01
-4.89642188e-08,1.82503125e-01
-4.89242187e-08,1.82496875e-01
-4.88842187e-08,1.82504688e-01
-4.88442187e-08,1.82495313e-01
-4.88042187e-08,1.82506250e-01
-4.87642187e-08,1.82492188e-01
-4.87242187e-08,1.82509375e-01
-4.86842187e-08,1.82487500e-01
-4.86442187e-08,1.82517188e-01
-4.86042187e-08,1.82473438e-01
-4.85642187e-08,1.82551563e-01
-4.85242187e-08,1.82295313e-01
-4.84842187e-08,1.82042188e-01
-4.84442187e-08,1.82134375e-01
-4.84042187e-08,1.82075000e-01
-4.83642187e-08,1.82120313e-01
-4.83242187e-08,1.82082812e-01
-4.82842187e-08,1.82115625e-01
-4.82442187e-08,1.82085938e-01
-4.82042187e-08,1.82114063e-01
-4.81642187e-08,1.82085938e-01
-4.81242187e-08,1.82114063e-01
-4.80842187e-08,1.82084375e-01
-4.80442187e-08,1.82117187e-01
-4.80042187e-08,1.82081250e-01
-4.79642187e-08,1.82123438e-01
-4.79242187e-08,1.82067188e-01
-4.78842187e-08,1.82157813e-01
-4.78442187e-08,1.81890625e-01
-4.78042187e-08,1.81646875e-01
-4.77642187e-08,1.81729688e-01
-4.77242187e-08,1.81679688e-01
-4.76842187e-08,1.81715625e-01
-4.76442187e-08,1.81685938e-01
-4.76042188e-08,1.81712500e-01
-4.75642187e-08,1.81687500e-01
-4.75242187e-08,1.81712500e-01
-4.74842187e-08,1.81687500e-01
-4.74442187e-08,1.81714062e-01
-4.74042187e-08,1.81682813e-01
-4.73642187e-08,1.81721875e-01
-4.73242188e-08,1.81668750e-01
-4.72842187e-08,1.81756250e-01
-4.72442187e-08,1.81490625e-01
-4.72042187e-08,1.81246875e-01
-4.71642187e-08,1.81329688e-01
-4.71242187e-08,1.81279688e-01
-4.70842187e-08,1.81315625e-01
-4.70442188e-08,1.81287500e-01
-4.70042187e-08,1.81310938e-01
-4.69642187e-08,1.81290625e-01
-4.69242187e-08,1.81307812e-01
-4.68842187e-08,1.81292188e-01
-4.68442187e-08,1.81306250e-01
-4.68042187e-08,1.81293750e-01
-4.67642188e-08,1.81304688e-01
-4.67242187e-08,1.81295312e-01
-4.66842187e-08,1.81304688e-01
-4.66442187e-08,1.81296875e-01
-4.66042187e-08,1.81303125e-01
-4.65642187e-08,1.81298438e-01
-4.65242187e-08,1.81301563e-01
-4.64842187e-08,1.81300000e-01
-4.64442187e-08,1.81298438e-01
-4.64042187e-08,1.81304688e-01
-4.63642187e-08,1.81290625e-01
-4.63242187e-08,1.81318750e-01
-4.62842187e-08,1.81256250e-01
-4.62442187e-08,1.81496875e-01
-4.62042187e-08,1.81767188e-01
-4.61642187e-08,1.81656250e-01
-4.61242187e-08,1.81734375e-01
-4.60842187e-08,1.81668750e-01
-4.60442187e-08,1.81729688e-01
-4.60042187e-08,1.81670313e-01
-4.59642187e-08,1.81732813e-01
-4.59242187e-08,1.81664063e-01
-4.58842187e-08,1.81745313e-01
-4.58442187e-08,1.81629687e-01
-4.58042187e-08,1.81923438e-01
-4.57642187e-08,1.82139063e-01
-4.57242187e-08,1.82085938e-01
-4.56842188e-08,1.82104688e-01
-4.56442187e-08,1.82101563e-01
-4.56042187e-08,1.82093750e-01
-4.55642187e-08,1.82110938e-01
-4.55242187e-08,1.82082812e-01
-4.54842187e-08,1.82128125e-01
-4.54442187e-08,1.82046875e-01
-4.54042188e-08,1.82307812e-01
-4.53642187e-08,1.82554688e-01
-4.53242187e-08,1.82470313e-01
-4.52842187e-08,1.82520313e-01
-4.52442187e-08,1.82484375e-01
-4.52042187e-08,1.82512500e-01
-4.51642187e-08,1.82490625e-01
-4.51242188e-08,1.82507813e-01
-4.50842187e-08,1.82492188e-01
-4.50442187e-08,1.82506250e-01
-4.50042187e-08,1.82493750e-01
-4.49642187e-08,1.82504688e-01
-4.49242187e-08,1.82495313e-01
-4.48842187e-08,1.82504688e-01
-4.48442188e-08,1.82496875e-01
-4.48042187e-08,1.82503125e-01
-4.47642187e-08,1.82496875e-01
-4.47242187e-08,1.82503125e-01
-4.46842187e-08,1.82496875e-01
-4.46442187e-08,1.82503125e-01
-4.46042187e-08,1.82496875e-01
-4.45642187e-08,1.82503125e-01
-4.45242187e-08,1.82496875e-01
-4.44842187e-08,1.82503125e-01
-4.44442187e-08,1.82496875e-01
-4.44042187e-08,1.82503125e-01
-4.43642187e-08,1.82496875e-01
-4.43242187e-08,1.82503125e-01
-4.42842187e-08,1.82496875e-01
-4.42442187e-08,1.82503125e-01
-4.42042187e-08,1.82495313e-01
-4.41642187e-08,1.82504688e-01
-4.41242187e-08,1.82493750e-01
-4.40842187e-08,1.82506250e-01
-4.40442187e-08,1.82492188e-01
-4.40042187e-08,1.82509375e-01
-4.39642187e-08,1.82487500e-01
-4.39242187e-08,1.82517188e-01
-4.38842187e-08,1.82471875e-01
-4.38442187e-08,1.82551563e-01
-4.38042187e-08,1.82295313e-01
-4.37642188e-08,1.82042188e-01
-4.37242187e-08,1.82132813e-01
-4.36842187e-08,1.82075000e-01
-4.36442187e-08,1.82118750e-01
-4.36042187e-08,1.82082812e-01
-4.35642187e-08,1.82114063e-01
-4.35242187e-08,1.82085938e-01
-4.34842188e-08,1.82112500e-01
-4.34442187e-08,1.82087500e-01
-4.34042187e-08,1.82110938e-01
-4.33642187e-08,1.82089063e-01
-4.33242187e-08,1.82110938e-01
-4.32842187e-08,1.82089063e-01
-4.32442187e-08,1.82110938e-01
-4.32042188e-08,1.82089063e-01
-4.31642187e-08,1.82110938e-01
-4.31242187e-08,1.82089063e-01
-4.30842187e-08,1.82110938e-01
-4.30442187e-08,1.82087500e-01
-4.30042187e-08,1.82112500e-01
-4.29642187e-08,1.82085938e-01
-4.29242188e-08,1.82115625e-01
-4.28842187e-08,1.82082812e-01
-4.28442187e-08,1.82120313e-01
-4.28042187e-08,1.82075000e-01
-4.27642187e-08,1.82134375e-01
-4.27242187e-08,1.82040625e-01
-4.26842187e-08,1.82310938e-01
-4.26442188e-08,1.82551563e-01
-4.26042187e-08,1.82471875e-01
-4.25642187e-08,1.82518750e-01
-4.25242187e-08,1.82485938e-01
-4.24842187e-08,1.82510937e-01
-4.24442187e-08,1.82490625e-01
-4.24042187e-08,1.82509375e-01
-4.23642187e-08,1.82490625e-01
-4.23242187e-08,1.82509375e-01
-4.22842187e-08,1.82489063e-01
-4.22442187e-08,1.82512500e-01
-4.22042187e-08,1.82482813e-01
-4.21642187e-08,1.82526563e-01
-4.21242187e-08,1.82450000e-01
-4.20842187e-08,1.82703125e-01
-4.20442187e-08,1.82960938e-01
-4.20042187e-08,1.82862500e-01
-4.19642187e-08,1.82928125e-01
-4.19242187e-08,1.82875000e-01
-4.18842187e-08,1.82921875e-01
-4.18442188e-08,1.82878125e-01
-4.18042187e-08,1.82921875e-01
-4.17642187e-08,1.82876563e-01
-4.17242187e-08,1.82925000e-01
-4.16842187e-08,1.82870313e-01
-4.16442187e-08,1.82939062e-01
-4.16042187e-08,1.82835938e-01
-4.15642188e-08,1.83117188e-01
-4.15242187e-08,1.83345312e-01
-4.14842187e-08,1.83278125e-01
-4.14442187e-08,1.83312500e-01
-4.14042187e-08,1.83292188e-01
-4.13642187e-08,1.83304688e-01
-4.13242187e-08,1.83296875e-01
-4.12842188e-08,1.83301563e-01
-4.12442187e-08,1.83300000e-01
-4.12042187e-08,1.83298437e-01
-4.11642187e-08,1.83301563e-01
-4.11242187e-08,1.83298437e-01
-4.10842187e-08,1.83303125e-01
-4.10442187e-08,1.83296875e-01
-4.10042188e-08,1.83303125e-01
-4.09642187e-08,1.83295313e-01
-4.09242187e-08,1.83304688e-01
-4.08842187e-08,1.83295313e-01
-4.08442187e-08,1.83304688e-01
-4.08042187e-08,1.83293750e-01
-4.07642187e-08,1.83306250e-01
-4.07242188e-08,1.83293750e-01
-4.06842187e-08,1.83306250e-01
-4.06442187e-08,1.83292188e-01
-4.06042187e-08,1.83307813e-01
-4.05642187e-08,1.83292188e-01
-4.05242187e-08,1.83309375e-01
-4.04842187e-08,1.83290625e-01
-4.04442188e-08,1.83309375e-01
-4.04042187e-08,1.83289063e-01
-4.03642187e-08,1.83312500e-01
-4.03242187e-08,1.83287500e-01
-4.02842187e-08,1.83314063e-01
-4.02442187e-08,1.83284375e-01
-4.02042187e-08,1.83318750e-01
-4.01642187e-08,1.83278125e-01
-4.01242187e-08,1.83326563e-01
-4.00842187e-08,1.83262500e-01
-4.00442187e-08,1.83362500e-01
-4.00042187e-08,1.83084375e-01
-3.99642187e-08,1.82853125e-01
-3.99242188e-08,1.82921875e-01
-3.98842187e-08,1.82887500e-01
-3.98442187e-08,1.82906250e-01
-3.98042187e-08,1.82896875e-01
-3.97642187e-08,1.82900000e-01
-3.97242187e-08,1.82901563e-01
-3.96842187e-08,1.82895313e-01
-3.96442188e-08,1.82906250e-01
-3.96042187e-08,1.82890625e-01
-3.95642187e-08,1.82910938e-01
-3.95242187e-08,1.82884375e-01
-3.94842187e-08,1.82920313e-01
-3.94442187e-08,1.82868750e-01
-3.94042187e-08,1.82956250e-01
-3.93642188e-08,1.82689062e-01
-3.93242187e-08,1.82448438e-01
-3.92842187e-08,1.82526563e-01
-3.92442187e-08,1.82482813e-01
-3.92042187e-08,1.82512500e-01
-3.91642187e-08,1.82492188e-01
-3.91242187e-08,1.82506250e-01
-3.90842188e-08,1.82496875e-01
-3.90442187e-08,1.82501563e-01
-3.90042187e-08,1.82500000e-01
-3.89642187e-08,1.82498437e-01
-3.89242187e-08,1.82503125e-01
-3.88842187e-08,1.82496875e-01
-3.88442187e-08,1.82504688e-01
-3.88042188e-08,1.82493750e-01
-3.87642187e-08,1.82507813e-01
-3.87242187e-08,1.82489063e-01
-3.86842187e-08,1.82514063e-01
-3.86442187e-08,1.82482813e-01
-3.86042187e-08,1.82523437e-01
-3.85642187e-08,1.82467188e-01
-3.85242188e-08,1.82559375e-01
