trails/0b415fe76bd122fbe60d5dd91566c6d8/aes_ch1_20250507112110080.csv

Model,MSO66B
Label,
Waveform Type,ANALOG
Horizontal Units,s
Sample Interval,4.00000000e-11
Record Length,10000
Zero Index,1599.14843750
Vertical Units,A
ANALOG_Thumbnail,
yOffset,1.84500000e-01
yPosition,8.40000000e-01

Labels,
TIME,CH1
-6.39659375e-08,1.90101563e-01
-6.39259375e-08,1.90098437e-01
-6.38859375e-08,1.90101563e-01
-6.38459375e-08,1.90098437e-01
-6.38059375e-08,1.90101563e-01
-6.37659375e-08,1.90098437e-01
-6.37259375e-08,1.90101563e-01
-6.36859375e-08,1.90098437e-01
-6.36459375e-08,1.90101563e-01
-6.36059375e-08,1.90098437e-01
-6.35659375e-08,1.90101563e-01
-6.35259375e-08,1.90098437e-01
-6.34859375e-08,1.90101563e-01
-6.34459375e-08,1.90098437e-01
-6.34059375e-08,1.90101563e-01
-6.33659375e-08,1.90098437e-01
-6.33259375e-08,1.90101563e-01
-6.32859375e-08,1.90098437e-01
-6.32459375e-08,1.90101563e-01
-6.32059375e-08,1.90098437e-01
-6.31659375e-08,1.90101563e-01
-6.31259375e-08,1.90098437e-01
-6.30859375e-08,1.90101563e-01
-6.30459375e-08,1.90098437e-01
-6.30059375e-08,1.90101563e-01
-6.29659375e-08,1.90098437e-01
-6.29259375e-08,1.90103125e-01
-6.28859375e-08,1.90096875e-01
-6.28459375e-08,1.90103125e-01
-6.28059375e-08,1.90096875e-01
-6.27659375e-08,1.90104688e-01
-6.27259375e-08,1.90095313e-01
-6.26859375e-08,1.90104688e-01
-6.26459375e-08,1.90093750e-01
-6.26059375e-08,1.90106250e-01
-6.25659375e-08,1.90092188e-01
-6.25259375e-08,1.90110938e-01
-6.24859375e-08,1.90085937e-01
-6.24459375e-08,1.90118750e-01
-6.24059375e-08,1.90071875e-01
-6.23659375e-08,1.90153125e-01
-6.23259375e-08,1.89893750e-01
-6.22859375e-08,1.89643750e-01
-6.22459375e-08,1.89732813e-01
-6.22059375e-08,1.89676563e-01
-6.21659375e-08,1.89718750e-01
-6.21259375e-08,1.89682813e-01
-6.20859375e-08,1.89714063e-01
-6.20459375e-08,1.89685938e-01
-6.20059375e-08,1.89712500e-01
-6.19659375e-08,1.89687500e-01
-6.19259375e-08,1.89714063e-01
-6.18859375e-08,1.89685938e-01
-6.18459375e-08,1.89715625e-01
-6.18059375e-08,1.89681250e-01
-6.17659375e-08,1.89721875e-01
-6.17259375e-08,1.89668750e-01
-6.16859375e-08,1.89756250e-01
-6.16459375e-08,1.89490625e-01
-6.16059375e-08,1.89245313e-01
-6.15659375e-08,1.89331250e-01
-6.15259375e-08,1.89278125e-01
-6.14859375e-08,1.89317188e-01
-6.14459375e-08,1.89284375e-01
-6.14059375e-08,1.89314063e-01
-6.13659375e-08,1.89285938e-01
-6.13259375e-08,1.89312500e-01
-6.12859375e-08,1.89285938e-01
-6.12459375e-08,1.89314063e-01
-6.12059375e-08,1.89284375e-01
-6.11659375e-08,1.89318750e-01
-6.11259375e-08,1.89276562e-01
-6.10859375e-08,1.89332813e-01
-6.10459375e-08,1.89242188e-01
-6.10059375e-08,1.89510938e-01
-6.09659375e-08,1.89751562e-01
-6.09259375e-08,1.89673438e-01
-6.08859375e-08,1.89717187e-01
-6.08459375e-08,1.89687500e-01
-6.08059375e-08,1.89709375e-01
-6.07659375e-08,1.89693750e-01
-6.07259375e-08,1.89704687e-01
-6.06859375e-08,1.89696875e-01
-6.06459375e-08,1.89701563e-01
-6.06059375e-08,1.89700000e-01
-6.05659375e-08,1.89698438e-01
-6.05259375e-08,1.89703125e-01
-6.04859375e-08,1.89693750e-01
-6.04459375e-08,1.89709375e-01
-6.04059375e-08,1.89685938e-01
-6.03659375e-08,1.89723438e-01
-6.03259375e-08,1.89651563e-01
-6.02859375e-08,1.89903125e-01
-6.02459375e-08,1.90159375e-01
-6.02059375e-08,1.90064063e-01
-6.01659375e-08,1.90126563e-01
-6.01259375e-08,1.90078125e-01
-6.00859375e-08,1.90118750e-01
-6.00459375e-08,1.90084375e-01
-6.00059375e-08,1.90114063e-01
-5.99659375e-08,1.90085937e-01
-5.99259375e-08,1.90112500e-01
-5.98859375e-08,1.90087500e-01
-5.98459375e-08,1.90110938e-01
-5.98059375e-08,1.90089063e-01
-5.97659375e-08,1.90110938e-01
-5.97259375e-08,1.90090625e-01
-5.96859375e-08,1.90109375e-01
-5.96459375e-08,1.90090625e-01
-5.96059375e-08,1.90109375e-01
-5.95659375e-08,1.90090625e-01
-5.95259375e-08,1.90109375e-01
-5.94859375e-08,1.90090625e-01
-5.94459375e-08,1.90109375e-01
-5.94059375e-08,1.90090625e-01
-5.93659375e-08,1.90109375e-01
-5.93259375e-08,1.90090625e-01
-5.92859375e-08,1.90109375e-01
-5.92459375e-08,1.90090625e-01
-5.92059375e-08,1.90109375e-01
-5.91659375e-08,1.90090625e-01
-5.91259375e-08,1.90110938e-01
-5.90859375e-08,1.90089063e-01
-5.90459375e-08,1.90110938e-01
-5.90059375e-08,1.90087500e-01
-5.89659375e-08,1.90112500e-01
-5.89259375e-08,1.90085937e-01
-5.88859375e-08,1.90115625e-01
-5.88459375e-08,1.90081250e-01
-5.88059375e-08,1.90123438e-01
-5.87659375e-08,1.90065625e-01
-5.87259375e-08,1.90157812e-01
-5.86859375e-08,1.89889063e-01
-5.86459375e-08,1.89648438e-01
-5.86059375e-08,1.89728125e-01
-5.85659375e-08,1.89681250e-01
-5.85259375e-08,1.89714063e-01
-5.84859375e-08,1.89689063e-01
-5.84459375e-08,1.89709375e-01
-5.84059375e-08,1.89692187e-01
-5.83659375e-08,1.89707813e-01
-5.83259375e-08,1.89693750e-01
-5.82859375e-08,1.89706250e-01
-5.82459375e-08,1.89692187e-01
-5.82059375e-08,1.89707813e-01
-5.81659375e-08,1.89690625e-01
-5.81259375e-08,1.89710938e-01
-5.80859375e-08,1.89685938e-01
-5.80459375e-08,1.89718750e-01
-5.80059375e-08,1.89671875e-01
-5.79659375e-08,1.89751562e-01
-5.79259375e-08,1.89495313e-01
-5.78859375e-08,1.89242188e-01
-5.78459375e-08,1.89334375e-01
-5.78059375e-08,1.89275000e-01
-5.77659375e-08,1.89320313e-01
-5.77259375e-08,1.89282813e-01
-5.76859375e-08,1.89315625e-01
-5.76459375e-08,1.89285938e-01
-5.76059375e-08,1.89314063e-01
-5.75659375e-08,1.89287500e-01
-5.75259375e-08,1.89312500e-01
-5.74859375e-08,1.89287500e-01
-5.74459375e-08,1.89312500e-01
-5.74059375e-08,1.89287500e-01
-5.73659375e-08,1.89314063e-01
-5.73259375e-08,1.89285938e-01
-5.72859375e-08,1.89314063e-01
-5.72459375e-08,1.89284375e-01
-5.72059375e-08,1.89317188e-01
-5.71659375e-08,1.89279688e-01
-5.71259375e-08,1.89325000e-01
-5.70859375e-08,1.89265625e-01
-5.70459375e-08,1.89359375e-01
-5.70059375e-08,1.89087500e-01
-5.69659375e-08,1.88850000e-01
-5.69259375e-08,1.88926563e-01
-5.68859375e-08,1.88882812e-01
-5.68459375e-08,1.88912500e-01
-5.68059375e-08,1.88890625e-01
-5.67659375e-08,1.88907812e-01
-5.67259375e-08,1.88892188e-01
-5.66859375e-08,1.88906250e-01
-5.66459375e-08,1.88893750e-01
-5.66059375e-08,1.88906250e-01
-5.65659375e-08,1.88892188e-01
-5.65259375e-08,1.88909375e-01
-5.64859375e-08,1.88887500e-01
-5.64459375e-08,1.88915625e-01
-5.64059375e-08,1.88875000e-01
-5.63659375e-08,1.88950000e-01
-5.63259375e-08,1.88696875e-01
-5.62859375e-08,1.88440625e-01
-5.62459375e-08,1.88535938e-01
-5.62059375e-08,1.88471875e-01
-5.61659375e-08,1.88523438e-01
-5.61259375e-08,1.88479687e-01
-5.60859375e-08,1.88518750e-01
-5.60459375e-08,1.88482813e-01
-5.60059375e-08,1.88517188e-01
-5.59659375e-08,1.88482813e-01
-5.59259375e-08,1.88517188e-01
-5.58859375e-08,1.88482813e-01
-5.58459375e-08,1.88517188e-01
-5.58059375e-08,1.88481250e-01
-5.57659375e-08,1.88518750e-01
-5.57259375e-08,1.88479687e-01
-5.56859375e-08,1.88521875e-01
-5.56459375e-08,1.88476562e-01
-5.56059375e-08,1.88526562e-01
-5.55659375e-08,1.88467188e-01
-5.55259375e-08,1.88542188e-01
-5.54859375e-08,1.88432813e-01
-5.54459375e-08,1.88720313e-01
-5.54059375e-08,1.88940625e-01
-5.53659375e-08,1.88884375e-01
-5.53259375e-08,1.88906250e-01
-5.52859375e-08,1.88900000e-01
-5.52459375e-08,1.88895312e-01
-5.52059375e-08,1.88907812e-01
-5.51659375e-08,1.88887500e-01
-5.51259375e-08,1.88915625e-01
-5.50859375e-08,1.88878125e-01
-5.50459375e-08,1.88932813e-01
-5.50059375e-08,1.88840625e-01
-5.49659375e-08,1.89114063e-01
-5.49259375e-08,1.89348437e-01
-5.48859375e-08,1.89276562e-01
-5.48459375e-08,1.89312500e-01
-5.48059375e-08,1.89295313e-01
-5.47659375e-08,1.89300000e-01
-5.47259375e-08,1.89306250e-01
-5.46859375e-08,1.89287500e-01
-5.46459375e-08,1.89323437e-01
-5.46059375e-08,1.89251562e-01
-5.45659375e-08,1.89503125e-01
-5.45259375e-08,1.89757813e-01
-5.44859375e-08,1.89665625e-01
-5.44459375e-08,1.89723438e-01
-5.44059375e-08,1.89681250e-01
-5.43659375e-08,1.89715625e-01
-5.43259375e-08,1.89687500e-01
-5.42859375e-08,1.89710938e-01
-5.42459375e-08,1.89690625e-01
-5.42059375e-08,1.89707813e-01
-5.41659375e-08,1.89692187e-01
-5.41259375e-08,1.89706250e-01
-5.40859375e-08,1.89693750e-01
-5.40459375e-08,1.89704687e-01
-5.40059375e-08,1.89695313e-01
-5.39659375e-08,1.89704687e-01
-5.39259375e-08,1.89696875e-01
-5.38859375e-08,1.89703125e-01
-5.38459375e-08,1.89696875e-01
-5.38059375e-08,1.89701563e-01
-5.37659375e-08,1.89698438e-01
-5.37259375e-08,1.89701563e-01
-5.36859375e-08,1.89698438e-01
-5.36459375e-08,1.89700000e-01
-5.36059375e-08,1.89700000e-01
-5.35659375e-08,1.89700000e-01
-5.35259375e-08,1.89700000e-01
-5.34859375e-08,1.89698438e-01
-5.34459375e-08,1.89701563e-01
-5.34059375e-08,1.89698438e-01
-5.33659375e-08,1.89703125e-01
-5.33259375e-08,1.89696875e-01
-5.32859375e-08,1.89704687e-01
-5.32459375e-08,1.89695313e-01
-5.32059375e-08,1.89706250e-01
-5.31659375e-08,1.89692187e-01
-5.31259375e-08,1.89709375e-01
-5.30859375e-08,1.89687500e-01
-5.30459375e-08,1.89718750e-01
-5.30059375e-08,1.89671875e-01
-5.29659375e-08,1.89753125e-01
-5.29259375e-08,1.89493750e-01
-5.28859375e-08,1.89243750e-01
-5.28459375e-08,1.89332813e-01
-5.28059375e-08,1.89276562e-01
-5.27659375e-08,1.89318750e-01
-5.27259375e-08,1.89284375e-01
-5.26859375e-08,1.89312500e-01
-5.26459375e-08,1.89289062e-01
-5.26059375e-08,1.89310937e-01
-5.25659375e-08,1.89290625e-01
-5.25259375e-08,1.89309375e-01
-5.24859375e-08,1.89292188e-01
-5.24459375e-08,1.89307813e-01
-5.24059375e-08,1.89292188e-01
-5.23659375e-08,1.89307813e-01
-5.23259375e-08,1.89292188e-01
-5.22859375e-08,1.89306250e-01
-5.22459375e-08,1.89293750e-01
-5.22059375e-08,1.89306250e-01
-5.21659375e-08,1.89293750e-01
-5.21259375e-08,1.89306250e-01
-5.20859375e-08,1.89293750e-01
-5.20459375e-08,1.89306250e-01
-5.20059375e-08,1.89292188e-01
-5.19659375e-08,1.89307813e-01
-5.19259375e-08,1.89292188e-01
-5.18859375e-08,1.89309375e-01
-5.18459375e-08,1.89290625e-01
-5.18059375e-08,1.89310937e-01
-5.17659375e-08,1.89289062e-01
-5.17259375e-08,1.89314063e-01
-5.16859375e-08,1.89282813e-01
-5.16459375e-08,1.89321875e-01
-5.16059375e-08,1.89268750e-01
-5.15659375e-08,1.89356250e-01
-5.15259375e-08,1.89090625e-01
-5.14859375e-08,1.88846875e-01
-5.14459375e-08,1.88929687e-01
-5.14059375e-08,1.88879688e-01
-5.13659375e-08,1.88915625e-01
-5.13259375e-08,1.88887500e-01
-5.12859375e-08,1.88910938e-01
-5.12459375e-08,1.88890625e-01
-5.12059375e-08,1.88907812e-01
-5.11659375e-08,1.88892188e-01
-5.11259375e-08,1.88906250e-01
-5.10859375e-08,1.88893750e-01
-5.10459375e-08,1.88906250e-01
-5.10059375e-08,1.88893750e-01
-5.09659375e-08,1.88904688e-01
-5.09259375e-08,1.88895312e-01
-5.08859375e-08,1.88904688e-01
-5.08459375e-08,1.88895312e-01
-5.08059375e-08,1.88904688e-01
-5.07659375e-08,1.88895312e-01
-5.07259375e-08,1.88904688e-01
-5.06859375e-08,1.88895312e-01
-5.06459375e-08,1.88904688e-01
-5.06059375e-08,1.88895312e-01
-5.05659375e-08,1.88904688e-01
-5.05259375e-08,1.88895312e-01
-5.04859375e-08,1.88904688e-01
-5.04459375e-08,1.88895312e-01
-5.04059375e-08,1.88904688e-01
-5.03659375e-08,1.88895312e-01
-5.03259375e-08,1.88904688e-01
-5.02859375e-08,1.88895312e-01
-5.02459375e-08,1.88904688e-01
-5.02059375e-08,1.88895312e-01
-5.01659375e-08,1.88904688e-01
-5.01259375e-08,1.88895312e-01
-5.00859375e-08,1.88904688e-01
-5.00459375e-08,1.88895312e-01
-5.00059375e-08,1.88904688e-01
-4.99659375e-08,1.88895312e-01
-4.99259375e-08,1.88904688e-01
-4.98859375e-08,1.88895312e-01
-4.98459375e-08,1.88904688e-01
-4.98059375e-08,1.88895312e-01
-4.97659375e-08,1.88904688e-01
-4.97259375e-08,1.88895312e-01
-4.96859375e-08,1.88904688e-01
-4.96459375e-08,1.88895312e-01
-4.96059375e-08,1.88904688e-01
-4.95659375e-08,1.88895312e-01
-4.95259375e-08,1.88904688e-01
-4.94859375e-08,1.88895312e-01
-4.94459375e-08,1.88904688e-01
-4.94059375e-08,1.88895312e-01
-4.93659375e-08,1.88904688e-01
-4.93259375e-08,1.88895312e-01
-4.92859375e-08,1.88906250e-01
-4.92459375e-08,1.88893750e-01
-4.92059375e-08,1.88906250e-01
-4.91659375e-08,1.88893750e-01
-4.91259375e-08,1.88906250e-01
-4.90859375e-08,1.88893750e-01
-4.90459375e-08,1.88906250e-01
-4.90059375e-08,1.88893750e-01
-4.89659375e-08,1.88906250e-01
-4.89259375e-08,1.88893750e-01
-4.88859375e-08,1.88907812e-01
-4.88459375e-08,1.88892188e-01
-4.88059375e-08,1.88907812e-01
-4.87659375e-08,1.88892188e-01
-4.87259375e-08,1.88907812e-01
-4.86859375e-08,1.88890625e-01
-4.86459375e-08,1.88909375e-01
-4.86059375e-08,1.88890625e-01
-4.85659375e-08,1.88909375e-01
-4.85259375e-08,1.88889063e-01
-4.84859375e-08,1.88910938e-01
-4.84459375e-08,1.88887500e-01
-4.84059375e-08,1.88912500e-01
-4.83659375e-08,1.88885938e-01
-4.83259375e-08,1.88915625e-01
-4.82859375e-08,1.88881250e-01
-4.82459375e-08,1.88921875e-01
-4.82059375e-08,1.88873438e-01
-4.81659375e-08,1.88935938e-01
-4.81259375e-08,1.88837500e-01
-4.80859375e-08,1.89115625e-01
-4.80459375e-08,1.89346875e-01
-4.80059375e-08,1.89276562e-01
-4.79659375e-08,1.89312500e-01
-4.79259375e-08,1.89292188e-01
-4.78859375e-08,1.89304688e-01
-4.78459375e-08,1.89298437e-01
-4.78059375e-08,1.89300000e-01
-4.77659375e-08,1.89301563e-01
-4.77259375e-08,1.89296875e-01
-4.76859375e-08,1.89304688e-01
-4.76459375e-08,1.89292188e-01
-4.76059375e-08,1.89309375e-01
-4.75659375e-08,1.89289062e-01
-4.75259375e-08,1.89315625e-01
-4.74859375e-08,1.89279688e-01
-4.74459375e-08,1.89331250e-01
-4.74059375e-08,1.89243750e-01
-4.73659375e-08,1.89509375e-01
-4.73259375e-08,1.89753125e-01
-4.72859375e-08,1.89671875e-01
-4.72459375e-08,1.89718750e-01
-4.72059375e-08,1.89685938e-01
-4.71659375e-08,1.89710938e-01
-4.71259375e-08,1.89692187e-01
-4.70859375e-08,1.89706250e-01
-4.70459375e-08,1.89695313e-01
-4.70059375e-08,1.89704687e-01
-4.69659375e-08,1.89696875e-01
-4.69259375e-08,1.89701563e-01
-4.68859375e-08,1.89698438e-01
-4.68459375e-08,1.89700000e-01
-4.68059375e-08,1.89700000e-01
-4.67659375e-08,1.89700000e-01
-4.67259375e-08,1.89701563e-01
-4.66859375e-08,1.89698438e-01
-4.66459375e-08,1.89703125e-01
-4.66059375e-08,1.89696875e-01
-4.65659375e-08,1.89704687e-01
-4.65259375e-08,1.89695313e-01
-4.64859375e-08,1.89706250e-01
-4.64459375e-08,1.89692187e-01
-4.64059375e-08,1.89709375e-01
-4.63659375e-08,1.89689063e-01
-4.63259375e-08,1.89714063e-01
-4.62859375e-08,1.89681250e-01
-4.62459375e-08,1.89729688e-01
-4.62059375e-08,1.89645312e-01
-4.61659375e-08,1.89907812e-01
-4.61259375e-08,1.90154688e-01
-4.60859375e-08,1.90068750e-01
-4.60459375e-08,1.90121875e-01
-4.60059375e-08,1.90082813e-01
-4.59659375e-08,1.90115625e-01
-4.59259375e-08,1.90085937e-01
-4.58859375e-08,1.90112500e-01
-4.58459375e-08,1.90085937e-01
-4.58059375e-08,1.90115625e-01
-4.57659375e-08,1.90081250e-01
-4.57259375e-08,1.90128125e-01
-4.56859375e-08,1.90048438e-01
-4.56459375e-08,1.90303125e-01
-4.56059375e-08,1.90560937e-01
-4.55659375e-08,1.90460938e-01
-4.55259375e-08,1.90531250e-01
-4.54859375e-08,1.90470313e-01
-4.54459375e-08,1.90529688e-01
-4.54059375e-08,1.90467187e-01
-4.53659375e-08,1.90542188e-01
-4.53259375e-08,1.90432812e-01
-4.52859375e-08,1.90720313e-01
-4.52459375e-08,1.90942187e-01
-4.52059375e-08,1.90882812e-01
-4.51659375e-08,1.90907812e-01
-4.51259375e-08,1.90898438e-01
-4.50859375e-08,1.90895312e-01
-4.50459375e-08,1.90909375e-01
-4.50059375e-08,1.90884375e-01
-4.49659375e-08,1.90926563e-01
-4.49259375e-08,1.90848437e-01
-4.48859375e-08,1.91106250e-01
-4.48459375e-08,1.91356250e-01
-4.48059375e-08,1.91268750e-01
-4.47659375e-08,1.91321875e-01
-4.47259375e-08,1.91284375e-01
-4.46859375e-08,1.91312500e-01
-4.46459375e-08,1.91289062e-01
-4.46059375e-08,1.91309375e-01
-4.45659375e-08,1.91292188e-01
-4.45259375e-08,1.91306250e-01
-4.44859375e-08,1.91295313e-01
-4.44459375e-08,1.91304688e-01
-4.44059375e-08,1.91296875e-01
-4.43659375e-08,1.91303125e-01
-4.43259375e-08,1.91298438e-01
-4.42859375e-08,1.91301563e-01
-4.42459375e-08,1.91300000e-01
-4.42059375e-08,1.91300000e-01
-4.41659375e-08,1.91301563e-01
-4.41259375e-08,1.91298438e-01
-4.40859375e-08,1.91301563e-01
-4.40459375e-08,1.91296875e-01
-4.40059375e-08,1.91303125e-01
-4.39659375e-08,1.91295313e-01
-4.39259375e-08,1.91306250e-01
-4.38859375e-08,1.91292188e-01
-4.38459375e-08,1.91307813e-01
-4.38059375e-08,1.91289062e-01
-4.37659375e-08,1.91312500e-01
-4.37259375e-08,1.91284375e-01
-4.36859375e-08,1.91321875e-01
-4.36459375e-08,1.91268750e-01
-4.36059375e-08,1.91357813e-01
-4.35659375e-08,1.91089063e-01
-4.35259375e-08,1.90850000e-01
-4.34859375e-08,1.90926563e-01
-4.34459375e-08,1.90884375e-01
-4.34059375e-08,1.90909375e-01
-4.33659375e-08,1.90895312e-01
-4.33259375e-08,1.90901563e-01
-4.32859375e-08,1.90903125e-01
-4.32459375e-08,1.90893750e-01
-4.32059375e-08,1.90912500e-01
-4.31659375e-08,1.90876563e-01
-4.31259375e-08,1.90950000e-01
-4.30859375e-08,1.90696875e-01
-4.30459375e-08,1.90442187e-01
-4.30059375e-08,1.90532813e-01
-4.29659375e-08,1.90478125e-01
-4.29259375e-08,1.90515625e-01
-4.28859375e-08,1.90489063e-01
-4.28459375e-08,1.90506250e-01
-4.28059375e-08,1.90501562e-01
-4.27659375e-08,1.90489063e-01
-4.27259375e-08,1.90535938e-01
-4.26859375e-08,1.90309375e-01
-4.26459375e-08,1.90028125e-01
-4.26059375e-08,1.90150000e-01
-4.25659375e-08,1.90059375e-01
-4.25259375e-08,1.90137500e-01
-4.24859375e-08,1.90062500e-01
-4.24459375e-08,1.90140625e-01
-4.24059375e-08,1.90051562e-01
-4.23659375e-08,1.90171875e-01
-4.23259375e-08,1.89875000e-01
-4.22859375e-08,1.89662500e-01
-4.22459375e-08,1.89712500e-01
-4.22059375e-08,1.89696875e-01
-4.21659375e-08,1.89695313e-01
-4.21259375e-08,1.89710938e-01
-4.20859375e-08,1.89678125e-01
-4.20459375e-08,1.89746875e-01
-4.20059375e-08,1.89500000e-01
-4.19659375e-08,1.89237500e-01
-4.19259375e-08,1.89339063e-01
-4.18859375e-08,1.89268750e-01
-4.18459375e-08,1.89329688e-01
-4.18059375e-08,1.89270313e-01
-4.17659375e-08,1.89332813e-01
-4.17259375e-08,1.89259375e-01
-4.16859375e-08,1.89365625e-01
-4.16459375e-08,1.89081250e-01
-4.16059375e-08,1.88856250e-01
-4.15659375e-08,1.88920313e-01
-4.15259375e-08,1.88890625e-01
-4.14859375e-08,1.88904688e-01
-4.14459375e-08,1.88900000e-01
-4.14059375e-08,1.88893750e-01
-4.13659375e-08,1.88912500e-01
-4.13259375e-08,1.88878125e-01
-4.12859375e-08,1.88948438e-01
-4.12459375e-08,1.88698438e-01
-4.12059375e-08,1.88439063e-01
-4.11659375e-08,1.88535938e-01
-4.11259375e-08,1.88473438e-01
-4.10859375e-08,1.88521875e-01
-4.10459375e-08,1.88482813e-01
-4.10059375e-08,1.88515625e-01
-4.09659375e-08,1.88485938e-01
-4.09259375e-08,1.88512500e-01
-4.08859375e-08,1.88487500e-01
-4.08459375e-08,1.88510938e-01
-4.08059375e-08,1.88489062e-01
-4.07659375e-08,1.88509375e-01
-4.07259375e-08,1.88490625e-01
-4.06859375e-08,1.88509375e-01
-4.06459375e-08,1.88490625e-01
-4.06059375e-08,1.88509375e-01
-4.05659375e-08,1.88492188e-01
-4.05259375e-08,1.88507813e-01
-4.04859375e-08,1.88492188e-01
-4.04459375e-08,1.88507813e-01
-4.04059375e-08,1.88492188e-01
-4.03659375e-08,1.88507813e-01
-4.03259375e-08,1.88492188e-01
-4.02859375e-08,1.88507813e-01
-4.02459375e-08,1.88492188e-01
-4.02059375e-08,1.88507813e-01
-4.01659375e-08,1.88492188e-01
-4.01259375e-08,1.88509375e-01
-4.00859375e-08,1.88490625e-01
-4.00459375e-08,1.88509375e-01
-4.00059375e-08,1.88489062e-01
-3.99659375e-08,1.88512500e-01
-3.99259375e-08,1.88485938e-01
-3.98859375e-08,1.88517188e-01
-3.98459375e-08,1.88478125e-01
-3.98059375e-08,1.88531250e-01
-3.97659375e-08,1.88443750e-01
-3.97259375e-08,1.88709375e-01
-3.96859375e-08,1.88954687e-01
-3.96459375e-08,1.88870312e-01
-3.96059375e-08,1.88921875e-01
-3.95659375e-08,1.88882812e-01
-3.95259375e-08,1.88914063e-01
-3.94859375e-08,1.88887500e-01
-3.94459375e-08,1.88912500e-01
-3.94059375e-08,1.88889063e-01
-3.93659375e-08,1.88910938e-01
-3.93259375e-08,1.88887500e-01
-3.92859375e-08,1.88912500e-01
-3.92459375e-08,1.88885938e-01
-3.92059375e-08,1.88917188e-01
-3.91659375e-08,1.88878125e-01
-3.91259375e-08,1.88931250e-01
-3.90859375e-08,1.88843750e-01
-3.90459375e-08,1.89107812e-01
-3.90059375e-08,1.89354688e-01
-3.89659375e-08,1.89268750e-01
-3.89259375e-08,1.89321875e-01
-3.88859375e-08,1.89282813e-01
-3.88459375e-08,1.89314063e-01
-3.88059375e-08,1.89287500e-01
-3.87659375e-08,1.89312500e-01
-3.87259375e-08,1.89287500e-01
-3.86859375e-08,1.89312500e-01
-3.86459375e-08,1.89285938e-01
-3.86059375e-08,1.89315625e-01
-3.85659375e-08,1.89279688e-01
-3.85259375e-08,1.89328125e-01
