trails/0b415fe76bd122fbe60d5dd91566c6d8/aes_ch1_20250507111806582.csv

Model,MSO66B
Label,
Waveform Type,ANALOG
Horizontal Units,s
Sample Interval,4.00000000e-11
Record Length,10000
Zero Index,1599.09765625
Vertical Units,A
ANALOG_Thumbnail,
yOffset,1.84500000e-01
yPosition,8.40000000e-01

Labels,
TIME,CH1
-6.39639062e-08,1.92875000e-01
-6.39239063e-08,1.92921875e-01
-6.38839062e-08,1.92878125e-01
-6.38439062e-08,1.92923438e-01
-6.38039062e-08,1.92873438e-01
-6.37639062e-08,1.92935938e-01
-6.37239062e-08,1.92840625e-01
-6.36839062e-08,1.93110937e-01
-6.36439063e-08,1.93351563e-01
-6.36039062e-08,1.93271875e-01
-6.35639062e-08,1.93320313e-01
-6.35239062e-08,1.93284375e-01
-6.34839062e-08,1.93314062e-01
-6.34439062e-08,1.93285938e-01
-6.34039062e-08,1.93314062e-01
-6.33639063e-08,1.93284375e-01
-6.33239062e-08,1.93317188e-01
-6.32839062e-08,1.93278125e-01
-6.32439062e-08,1.93331250e-01
-6.32039062e-08,1.93243750e-01
-6.31639062e-08,1.93507813e-01
-6.31239062e-08,1.93754688e-01
-6.30839063e-08,1.93670312e-01
-6.30439062e-08,1.93721875e-01
-6.30039062e-08,1.93682812e-01
-6.29639062e-08,1.93714063e-01
-6.29239062e-08,1.93689063e-01
-6.28839062e-08,1.93710938e-01
-6.28439062e-08,1.93690625e-01
-6.28039063e-08,1.93709375e-01
-6.27639062e-08,1.93692188e-01
-6.27239062e-08,1.93707813e-01
-6.26839062e-08,1.93692188e-01
-6.26439062e-08,1.93707813e-01
-6.26039063e-08,1.93693750e-01
-6.25639062e-08,1.93706250e-01
-6.25239063e-08,1.93693750e-01
-6.24839062e-08,1.93706250e-01
-6.24439062e-08,1.93693750e-01
-6.24039062e-08,1.93706250e-01
-6.23639062e-08,1.93693750e-01
-6.23239063e-08,1.93706250e-01
-6.22839062e-08,1.93693750e-01
-6.22439063e-08,1.93707813e-01
-6.22039062e-08,1.93692188e-01
-6.21639062e-08,1.93707813e-01
-6.21239062e-08,1.93692188e-01
-6.20839062e-08,1.93709375e-01
-6.20439063e-08,1.93690625e-01
-6.20039062e-08,1.93710938e-01
-6.19639063e-08,1.93687500e-01
-6.19239062e-08,1.93714063e-01
-6.18839062e-08,1.93682812e-01
-6.18439062e-08,1.93721875e-01
-6.18039062e-08,1.93668750e-01
-6.17639063e-08,1.93756250e-01
-6.17239062e-08,1.93490625e-01
-6.16839063e-08,1.93246875e-01
-6.16439062e-08,1.93328125e-01
-6.16039062e-08,1.93281250e-01
-6.15639062e-08,1.93314062e-01
-6.15239062e-08,1.93289062e-01
-6.14839063e-08,1.93309375e-01
-6.14439062e-08,1.93292188e-01
-6.14039063e-08,1.93306250e-01
-6.13639062e-08,1.93293750e-01
-6.13239062e-08,1.93304688e-01
-6.12839062e-08,1.93295313e-01
-6.12439062e-08,1.93304688e-01
-6.12039063e-08,1.93296875e-01
-6.11639062e-08,1.93303125e-01
-6.11239063e-08,1.93296875e-01
-6.10839062e-08,1.93303125e-01
-6.10439062e-08,1.93296875e-01
-6.10039062e-08,1.93301562e-01
-6.09639062e-08,1.93298438e-01
-6.09239063e-08,1.93301562e-01
-6.08839062e-08,1.93298438e-01
-6.08439063e-08,1.93301562e-01
-6.08039062e-08,1.93298438e-01
-6.07639062e-08,1.93301562e-01
-6.07239062e-08,1.93300000e-01
-6.06839062e-08,1.93300000e-01
-6.06439063e-08,1.93300000e-01
-6.06039062e-08,1.93300000e-01
-6.05639063e-08,1.93300000e-01
-6.05239062e-08,1.93300000e-01
-6.04839062e-08,1.93301562e-01
-6.04439062e-08,1.93298438e-01
-6.04039062e-08,1.93301562e-01
-6.03639063e-08,1.93296875e-01
-6.03239062e-08,1.93303125e-01
-6.02839062e-08,1.93295313e-01
-6.02439062e-08,1.93304688e-01
-6.02039062e-08,1.93293750e-01
-6.01639062e-08,1.93309375e-01
-6.01239062e-08,1.93287500e-01
-6.00839063e-08,1.93317188e-01
-6.00439062e-08,1.93273438e-01
-6.00039062e-08,1.93351563e-01
-5.99639062e-08,1.93095313e-01
-5.99239062e-08,1.92842188e-01
-5.98839062e-08,1.92934375e-01
-5.98439062e-08,1.92875000e-01
-5.98039063e-08,1.92920312e-01
-5.97639062e-08,1.92882813e-01
-5.97239062e-08,1.92914063e-01
-5.96839062e-08,1.92885937e-01
-5.96439062e-08,1.92912500e-01
-5.96039062e-08,1.92889063e-01
-5.95639062e-08,1.92910938e-01
-5.95239062e-08,1.92889063e-01
-5.94839062e-08,1.92909375e-01
-5.94439062e-08,1.92890625e-01
-5.94039062e-08,1.92909375e-01
-5.93639062e-08,1.92890625e-01
-5.93239062e-08,1.92909375e-01
-5.92839062e-08,1.92890625e-01
-5.92439062e-08,1.92909375e-01
-5.92039062e-08,1.92892188e-01
-5.91639062e-08,1.92907812e-01
-5.91239062e-08,1.92892188e-01
-5.90839062e-08,1.92907812e-01
-5.90439062e-08,1.92892188e-01
-5.90039062e-08,1.92907812e-01
-5.89639062e-08,1.92892188e-01
-5.89239062e-08,1.92907812e-01
-5.88839062e-08,1.92890625e-01
-5.88439062e-08,1.92909375e-01
-5.88039062e-08,1.92890625e-01
-5.87639062e-08,1.92909375e-01
-5.87239062e-08,1.92890625e-01
-5.86839062e-08,1.92909375e-01
-5.86439062e-08,1.92890625e-01
-5.86039062e-08,1.92909375e-01
-5.85639062e-08,1.92890625e-01
-5.85239062e-08,1.92909375e-01
-5.84839062e-08,1.92890625e-01
-5.84439062e-08,1.92910938e-01
-5.84039062e-08,1.92889063e-01
-5.83639062e-08,1.92910938e-01
-5.83239062e-08,1.92889063e-01
-5.82839062e-08,1.92912500e-01
-5.82439062e-08,1.92887500e-01
-5.82039062e-08,1.92912500e-01
-5.81639062e-08,1.92885937e-01
-5.81239062e-08,1.92914063e-01
-5.80839062e-08,1.92884375e-01
-5.80439062e-08,1.92915625e-01
-5.80039062e-08,1.92882813e-01
-5.79639062e-08,1.92918750e-01
-5.79239062e-08,1.92879688e-01
-5.78839062e-08,1.92923438e-01
-5.78439062e-08,1.92873438e-01
-5.78039062e-08,1.92931250e-01
-5.77639062e-08,1.92857813e-01
-5.77239062e-08,1.92967187e-01
-5.76839062e-08,1.92678125e-01
-5.76439062e-08,1.92460938e-01
-5.76039062e-08,1.92514062e-01
-5.75639062e-08,1.92496875e-01
-5.75239062e-08,1.92496875e-01
-5.74839062e-08,1.92509375e-01
-5.74439062e-08,1.92485938e-01
-5.74039062e-08,1.92521875e-01
-5.73639062e-08,1.92467187e-01
-5.73239062e-08,1.92559375e-01
-5.72839062e-08,1.92285938e-01
-5.72439062e-08,1.92054688e-01
-5.72039062e-08,1.92120313e-01
-5.71639062e-08,1.92092188e-01
-5.71239062e-08,1.92098437e-01
-5.70839062e-08,1.92109375e-01
-5.70439062e-08,1.92078125e-01
-5.70039062e-08,1.92150000e-01
-5.69639062e-08,1.91895312e-01
-5.69239062e-08,1.91643750e-01
-5.68839062e-08,1.91729687e-01
-5.68439062e-08,1.91682813e-01
-5.68039062e-08,1.91709375e-01
-5.67639062e-08,1.91698438e-01
-5.67239062e-08,1.91689063e-01
-5.66839062e-08,1.91735938e-01
-5.66439062e-08,1.91509375e-01
-5.66039062e-08,1.91228125e-01
-5.65639062e-08,1.91348437e-01
-5.65239062e-08,1.91257813e-01
-5.64839062e-08,1.91340625e-01
-5.64439062e-08,1.91253125e-01
-5.64039062e-08,1.91368750e-01
-5.63639062e-08,1.91081250e-01
-5.63239062e-08,1.90854688e-01
-5.62839062e-08,1.90923438e-01
-5.62439062e-08,1.90884375e-01
-5.62039062e-08,1.90914063e-01
-5.61639062e-08,1.90887500e-01
-5.61239062e-08,1.90914063e-01
-5.60839062e-08,1.90884375e-01
-5.60439062e-08,1.90920312e-01
-5.60039062e-08,1.90870313e-01
-5.59639062e-08,1.90954687e-01
-5.59239062e-08,1.90692187e-01
-5.58839062e-08,1.90445313e-01
-5.58439062e-08,1.90529688e-01
-5.58039062e-08,1.90479687e-01
-5.57639062e-08,1.90515625e-01
-5.57239062e-08,1.90487500e-01
-5.56839062e-08,1.90509375e-01
-5.56439062e-08,1.90493750e-01
-5.56039062e-08,1.90504688e-01
-5.55639062e-08,1.90496875e-01
-5.55239062e-08,1.90500000e-01
-5.54839062e-08,1.90503125e-01
-5.54439062e-08,1.90490625e-01
-5.54039062e-08,1.90518750e-01
-5.53639062e-08,1.90456250e-01
-5.53239062e-08,1.90696875e-01
-5.52839062e-08,1.90965625e-01
-5.52439062e-08,1.90857813e-01
-5.52039062e-08,1.90932812e-01
-5.51639062e-08,1.90871875e-01
-5.51239062e-08,1.90925000e-01
-5.50839062e-08,1.90876563e-01
-5.50439062e-08,1.90923438e-01
-5.50039062e-08,1.90875000e-01
-5.49639062e-08,1.90926563e-01
-5.49239062e-08,1.90870313e-01
-5.48839062e-08,1.90939063e-01
-5.48439062e-08,1.90837500e-01
-5.48039062e-08,1.91115625e-01
-5.47639062e-08,1.91348437e-01
-5.47239062e-08,1.91273438e-01
-5.46839062e-08,1.91318750e-01
-5.46439062e-08,1.91284375e-01
-5.46039062e-08,1.91315625e-01
-5.45639062e-08,1.91281250e-01
-5.45239062e-08,1.91326563e-01
-5.44839062e-08,1.91250000e-01
-5.44439062e-08,1.91501562e-01
-5.44039062e-08,1.91762500e-01
-5.43639062e-08,1.91660938e-01
-5.43239062e-08,1.91731250e-01
-5.42839062e-08,1.91671875e-01
-5.42439062e-08,1.91726563e-01
-5.42039062e-08,1.91673438e-01
-5.41639062e-08,1.91729687e-01
-5.41239062e-08,1.91667188e-01
-5.40839062e-08,1.91742187e-01
-5.40439062e-08,1.91632812e-01
-5.40039062e-08,1.91920312e-01
-5.39639062e-08,1.92140625e-01
-5.39239062e-08,1.92082813e-01
-5.38839062e-08,1.92106250e-01
-5.38439062e-08,1.92100000e-01
-5.38039062e-08,1.92095313e-01
-5.37639062e-08,1.92109375e-01
-5.37239062e-08,1.92084375e-01
-5.36839062e-08,1.92126563e-01
-5.36439062e-08,1.92048438e-01
-5.36039062e-08,1.92304688e-01
-5.35639062e-08,1.92556250e-01
-5.35239062e-08,1.92467187e-01
-5.34839062e-08,1.92523438e-01
-5.34439062e-08,1.92482813e-01
-5.34039062e-08,1.92514062e-01
-5.33639062e-08,1.92487500e-01
-5.33239062e-08,1.92510938e-01
-5.32839062e-08,1.92490625e-01
-5.32439062e-08,1.92509375e-01
-5.32039062e-08,1.92492188e-01
-5.31639062e-08,1.92507813e-01
-5.31239062e-08,1.92492188e-01
-5.30839062e-08,1.92506250e-01
-5.30439062e-08,1.92493750e-01
-5.30039063e-08,1.92506250e-01
-5.29639062e-08,1.92493750e-01
-5.29239062e-08,1.92506250e-01
-5.28839062e-08,1.92493750e-01
-5.28439062e-08,1.92506250e-01
-5.28039062e-08,1.92493750e-01
-5.27639062e-08,1.92506250e-01
-5.27239062e-08,1.92493750e-01
-5.26839062e-08,1.92506250e-01
-5.26439062e-08,1.92493750e-01
-5.26039062e-08,1.92506250e-01
-5.25639062e-08,1.92493750e-01
-5.25239062e-08,1.92506250e-01
-5.24839062e-08,1.92492188e-01
-5.24439062e-08,1.92507813e-01
-5.24039062e-08,1.92492188e-01
-5.23639062e-08,1.92509375e-01
-5.23239062e-08,1.92489063e-01
-5.22839062e-08,1.92512500e-01
-5.22439062e-08,1.92484375e-01
-5.22039062e-08,1.92520313e-01
-5.21639062e-08,1.92470313e-01
-5.21239062e-08,1.92554688e-01
-5.20839062e-08,1.92292188e-01
-5.20439062e-08,1.92045313e-01
-5.20039062e-08,1.92131250e-01
-5.19639062e-08,1.92078125e-01
-5.19239062e-08,1.92117188e-01
-5.18839062e-08,1.92084375e-01
-5.18439062e-08,1.92114063e-01
-5.18039062e-08,1.92087500e-01
-5.17639062e-08,1.92112500e-01
-5.17239062e-08,1.92085937e-01
-5.16839062e-08,1.92114063e-01
-5.16439062e-08,1.92082813e-01
-5.16039062e-08,1.92120313e-01
-5.15639062e-08,1.92070313e-01
-5.15239062e-08,1.92154688e-01
-5.14839062e-08,1.91893750e-01
-5.14439062e-08,1.91643750e-01
-5.14039062e-08,1.91734375e-01
-5.13639062e-08,1.91675000e-01
-5.13239062e-08,1.91721875e-01
-5.12839062e-08,1.91678125e-01
-5.12439062e-08,1.91721875e-01
-5.12039062e-08,1.91673438e-01
-5.11639062e-08,1.91734375e-01
-5.11239062e-08,1.91640625e-01
-5.10839063e-08,1.91910938e-01
-5.10439062e-08,1.92151563e-01
-5.10039062e-08,1.92071875e-01
-5.09639062e-08,1.92120313e-01
-5.09239062e-08,1.92084375e-01
-5.08839062e-08,1.92112500e-01
-5.08439062e-08,1.92087500e-01
-5.08039063e-08,1.92110937e-01
-5.07639062e-08,1.92089063e-01
-5.07239062e-08,1.92110937e-01
-5.06839062e-08,1.92089063e-01
-5.06439062e-08,1.92112500e-01
-5.06039062e-08,1.92085937e-01
-5.05639062e-08,1.92117188e-01
-5.05239062e-08,1.92078125e-01
-5.04839062e-08,1.92131250e-01
-5.04439062e-08,1.92045313e-01
-5.04039062e-08,1.92307813e-01
-5.03639062e-08,1.92554688e-01
-5.03239062e-08,1.92468750e-01
-5.02839062e-08,1.92521875e-01
-5.02439062e-08,1.92482813e-01
-5.02039062e-08,1.92514062e-01
-5.01639062e-08,1.92487500e-01
-5.01239062e-08,1.92510938e-01
-5.00839062e-08,1.92490625e-01
-5.00439062e-08,1.92509375e-01
-5.00039062e-08,1.92492188e-01
-4.99639062e-08,1.92507813e-01
-4.99239062e-08,1.92492188e-01
-4.98839062e-08,1.92507813e-01
-4.98439062e-08,1.92492188e-01
-4.98039062e-08,1.92506250e-01
-4.97639062e-08,1.92493750e-01
-4.97239062e-08,1.92506250e-01
-4.96839062e-08,1.92493750e-01
-4.96439062e-08,1.92506250e-01
-4.96039062e-08,1.92493750e-01
-4.95639062e-08,1.92507813e-01
-4.95239062e-08,1.92492188e-01
-4.94839062e-08,1.92507813e-01
-4.94439062e-08,1.92492188e-01
-4.94039062e-08,1.92507813e-01
-4.93639062e-08,1.92492188e-01
-4.93239062e-08,1.92507813e-01
-4.92839062e-08,1.92490625e-01
-4.92439062e-08,1.92509375e-01
-4.92039062e-08,1.92489063e-01
-4.91639063e-08,1.92510938e-01
-4.91239062e-08,1.92487500e-01
-4.90839062e-08,1.92514062e-01
-4.90439062e-08,1.92484375e-01
-4.90039062e-08,1.92518750e-01
-4.89639062e-08,1.92476563e-01
-4.89239062e-08,1.92534375e-01
-4.88839063e-08,1.92440625e-01
-4.88439062e-08,1.92710938e-01
-4.88039062e-08,1.92950000e-01
-4.87639062e-08,1.92873438e-01
-4.87239062e-08,1.92917188e-01
-4.86839062e-08,1.92887500e-01
-4.86439062e-08,1.92909375e-01
-4.86039062e-08,1.92892188e-01
-4.85639062e-08,1.92906250e-01
-4.85239062e-08,1.92895312e-01
-4.84839062e-08,1.92903125e-01
-4.84439062e-08,1.92896875e-01
-4.84039062e-08,1.92901563e-01
-4.83639062e-08,1.92898438e-01
-4.83239062e-08,1.92901563e-01
-4.82839062e-08,1.92900000e-01
-4.82439062e-08,1.92900000e-01
-4.82039062e-08,1.92900000e-01
-4.81639062e-08,1.92900000e-01
-4.81239062e-08,1.92900000e-01
-4.80839062e-08,1.92898438e-01
-4.80439062e-08,1.92901563e-01
-4.80039062e-08,1.92898438e-01
-4.79639062e-08,1.92901563e-01
-4.79239062e-08,1.92898438e-01
-4.78839062e-08,1.92901563e-01
-4.78439062e-08,1.92898438e-01
-4.78039062e-08,1.92903125e-01
-4.77639062e-08,1.92896875e-01
-4.77239062e-08,1.92903125e-01
-4.76839062e-08,1.92896875e-01
-4.76439062e-08,1.92903125e-01
-4.76039062e-08,1.92896875e-01
-4.75639062e-08,1.92904688e-01
-4.75239062e-08,1.92895312e-01
-4.74839062e-08,1.92904688e-01
-4.74439062e-08,1.92895312e-01
-4.74039062e-08,1.92904688e-01
-4.73639062e-08,1.92893750e-01
-4.73239062e-08,1.92906250e-01
-4.72839062e-08,1.92893750e-01
-4.72439063e-08,1.92907812e-01
-4.72039062e-08,1.92892188e-01
-4.71639062e-08,1.92909375e-01
-4.71239062e-08,1.92890625e-01
-4.70839062e-08,1.92910938e-01
-4.70439062e-08,1.92887500e-01
-4.70039062e-08,1.92914063e-01
-4.69639063e-08,1.92884375e-01
-4.69239062e-08,1.92918750e-01
-4.68839062e-08,1.92875000e-01
-4.68439062e-08,1.92934375e-01
-4.68039062e-08,1.92840625e-01
-4.67639062e-08,1.93112500e-01
-4.67239062e-08,1.93348437e-01
-4.66839063e-08,1.93275000e-01
-4.66439062e-08,1.93315625e-01
-4.66039062e-08,1.93290625e-01
-4.65639062e-08,1.93306250e-01
-4.65239062e-08,1.93296875e-01
-4.64839062e-08,1.93301562e-01
-4.64439062e-08,1.93301562e-01
-4.64039062e-08,1.93296875e-01
-4.63639062e-08,1.93304688e-01
-4.63239062e-08,1.93292188e-01
-4.62839062e-08,1.93310938e-01
-4.62439062e-08,1.93282813e-01
-4.62039062e-08,1.93328125e-01
-4.61639062e-08,1.93246875e-01
-4.61239062e-08,1.93506250e-01
-4.60839062e-08,1.93756250e-01
-4.60439062e-08,1.93668750e-01
-4.60039062e-08,1.93721875e-01
-4.59639062e-08,1.93682812e-01
-4.59239062e-08,1.93714063e-01
-4.58839062e-08,1.93689063e-01
-4.58439062e-08,1.93709375e-01
-4.58039062e-08,1.93692188e-01
-4.57639062e-08,1.93706250e-01
-4.57239062e-08,1.93693750e-01
-4.56839062e-08,1.93704688e-01
-4.56439062e-08,1.93695312e-01
-4.56039062e-08,1.93703125e-01
-4.55639062e-08,1.93696875e-01
-4.55239062e-08,1.93701563e-01
-4.54839062e-08,1.93698438e-01
-4.54439062e-08,1.93701563e-01
-4.54039062e-08,1.93700000e-01
-4.53639062e-08,1.93700000e-01
-4.53239063e-08,1.93701563e-01
-4.52839062e-08,1.93698438e-01
-4.52439062e-08,1.93703125e-01
-4.52039062e-08,1.93695312e-01
-4.51639062e-08,1.93706250e-01
-4.51239062e-08,1.93692188e-01
-4.50839062e-08,1.93709375e-01
-4.50439063e-08,1.93687500e-01
-4.50039062e-08,1.93718750e-01
-4.49639062e-08,1.93671875e-01
-4.49239062e-08,1.93754688e-01
-4.48839062e-08,1.93492187e-01
-4.48439062e-08,1.93245313e-01
-4.48039062e-08,1.93329688e-01
-4.47639063e-08,1.93279688e-01
-4.47239062e-08,1.93314062e-01
-4.46839062e-08,1.93290625e-01
-4.46439062e-08,1.93306250e-01
-4.46039062e-08,1.93296875e-01
-4.45639062e-08,1.93298438e-01
-4.45239062e-08,1.93307813e-01
-4.44839063e-08,1.93282813e-01
-4.44439062e-08,1.93342188e-01
-4.44039062e-08,1.93104688e-01
-4.43639062e-08,1.92834375e-01
-4.43239062e-08,1.92942188e-01
-4.42839062e-08,1.92867188e-01
-4.42439062e-08,1.92928125e-01
-4.42039062e-08,1.92875000e-01
-4.41639062e-08,1.92923438e-01
-4.41239062e-08,1.92876563e-01
-4.40839062e-08,1.92923438e-01
-4.40439062e-08,1.92876563e-01
-4.40039062e-08,1.92925000e-01
-4.39639062e-08,1.92873438e-01
-4.39239062e-08,1.92931250e-01
-4.38839062e-08,1.92859375e-01
-4.38439062e-08,1.92964063e-01
-4.38039062e-08,1.92682813e-01
-4.37639062e-08,1.92454687e-01
-4.37239062e-08,1.92521875e-01
-4.36839063e-08,1.92487500e-01
-4.36439062e-08,1.92507813e-01
-4.36039062e-08,1.92495313e-01
-4.35639062e-08,1.92503125e-01
-4.35239062e-08,1.92498438e-01
-4.34839062e-08,1.92501563e-01
-4.34439062e-08,1.92500000e-01
-4.34039063e-08,1.92500000e-01
-4.33639062e-08,1.92501563e-01
-4.33239062e-08,1.92498438e-01
-4.32839062e-08,1.92501563e-01
-4.32439062e-08,1.92498438e-01
-4.32039062e-08,1.92501563e-01
-4.31639062e-08,1.92496875e-01
-4.31239063e-08,1.92503125e-01
-4.30839062e-08,1.92496875e-01
-4.30439062e-08,1.92503125e-01
-4.30039062e-08,1.92495313e-01
-4.29639062e-08,1.92504687e-01
-4.29239062e-08,1.92493750e-01
-4.28839062e-08,1.92506250e-01
-4.28439063e-08,1.92492188e-01
-4.28039062e-08,1.92509375e-01
-4.27639062e-08,1.92487500e-01
-4.27239062e-08,1.92517188e-01
-4.26839062e-08,1.92473438e-01
-4.26439062e-08,1.92551562e-01
-4.26039062e-08,1.92295313e-01
-4.25639063e-08,1.92042188e-01
-4.25239062e-08,1.92134375e-01
-4.24839062e-08,1.92073437e-01
-4.24439062e-08,1.92121875e-01
-4.24039062e-08,1.92079688e-01
-4.23639062e-08,1.92118750e-01
-4.23239062e-08,1.92081250e-01
-4.22839063e-08,1.92118750e-01
-4.22439062e-08,1.92081250e-01
-4.22039062e-08,1.92120313e-01
-4.21639062e-08,1.92076562e-01
-4.21239062e-08,1.92128125e-01
-4.20839062e-08,1.92062500e-01
-4.20439062e-08,1.92164063e-01
-4.20039062e-08,1.91882812e-01
-4.19639062e-08,1.91654688e-01
-4.19239062e-08,1.91720313e-01
-4.18839062e-08,1.91689063e-01
-4.18439062e-08,1.91703125e-01
-4.18039062e-08,1.91701563e-01
-4.17639063e-08,1.91693750e-01
-4.17239062e-08,1.91712500e-01
-4.16839062e-08,1.91676563e-01
-4.16439062e-08,1.91748438e-01
-4.16039062e-08,1.91496875e-01
-4.15639062e-08,1.91240625e-01
-4.15239062e-08,1.91334375e-01
-4.14839063e-08,1.91275000e-01
-4.14439062e-08,1.91320313e-01
-4.14039062e-08,1.91282813e-01
-4.13639062e-08,1.91314062e-01
-4.13239062e-08,1.91287500e-01
-4.12839062e-08,1.91310938e-01
-4.12439062e-08,1.91290625e-01
-4.12039063e-08,1.91309375e-01
-4.11639062e-08,1.91292188e-01
-4.11239062e-08,1.91307813e-01
-4.10839062e-08,1.91292188e-01
-4.10439062e-08,1.91306250e-01
-4.10039062e-08,1.91293750e-01
-4.09639062e-08,1.91306250e-01
-4.09239063e-08,1.91295313e-01
-4.08839062e-08,1.91304688e-01
-4.08439062e-08,1.91295313e-01
-4.08039062e-08,1.91303125e-01
-4.07639062e-08,1.91296875e-01
-4.07239062e-08,1.91303125e-01
-4.06839062e-08,1.91298438e-01
-4.06439063e-08,1.91301563e-01
-4.06039062e-08,1.91300000e-01
-4.05639062e-08,1.91300000e-01
-4.05239062e-08,1.91301563e-01
-4.04839062e-08,1.91296875e-01
-4.04439062e-08,1.91306250e-01
-4.04039062e-08,1.91289062e-01
-4.03639063e-08,1.91321875e-01
-4.03239062e-08,1.91254688e-01
-4.02839062e-08,1.91498438e-01
-4.02439062e-08,1.91764062e-01
-4.02039062e-08,1.91659375e-01
-4.01639062e-08,1.91731250e-01
-4.01239062e-08,1.91673438e-01
-4.00839063e-08,1.91725000e-01
-4.00439062e-08,1.91676563e-01
-4.00039062e-08,1.91723438e-01
-3.99639062e-08,1.91675000e-01
-3.99239062e-08,1.91726563e-01
-3.98839062e-08,1.91668750e-01
-3.98439063e-08,1.91740625e-01
-3.98039062e-08,1.91634375e-01
-3.97639062e-08,1.91917188e-01
-3.97239062e-08,1.92145312e-01
-3.96839062e-08,1.92078125e-01
-3.96439062e-08,1.92112500e-01
-3.96039062e-08,1.92092188e-01
-3.95639063e-08,1.92104688e-01
-3.95239062e-08,1.92096875e-01
-3.94839062e-08,1.92101563e-01
-3.94439062e-08,1.92100000e-01
-3.94039062e-08,1.92100000e-01
-3.93639062e-08,1.92101563e-01
-3.93239062e-08,1.92098437e-01
-3.92839063e-08,1.92103125e-01
-3.92439062e-08,1.92096875e-01
-3.92039062e-08,1.92103125e-01
-3.91639062e-08,1.92095313e-01
-3.91239062e-08,1.92104688e-01
-3.90839062e-08,1.92095313e-01
-3.90439062e-08,1.92106250e-01
-3.90039063e-08,1.92093750e-01
-3.89639062e-08,1.92107813e-01
-3.89239062e-08,1.92090625e-01
-3.88839062e-08,1.92110937e-01
-3.88439062e-08,1.92085937e-01
-3.88039062e-08,1.92118750e-01
-3.87639062e-08,1.92071875e-01
-3.87239063e-08,1.92153125e-01
-3.86839062e-08,1.91893750e-01
-3.86439062e-08,1.91643750e-01
-3.86039062e-08,1.91732813e-01
-3.85639062e-08,1.91676563e-01
-3.85239062e-08,1.91720313e-01
