trails/0b415fe76bd122fbe60d5dd91566c6d8/aes_ch1_20250507111339729.csv

Model,MSO66B
Label,
Waveform Type,ANALOG
Horizontal Units,s
Sample Interval,4.00000000e-11
Record Length,10000
Zero Index,1599.10156250
Vertical Units,A
ANALOG_Thumbnail,
yOffset,1.84500000e-01
yPosition,8.40000000e-01

Labels,
TIME,CH1
-6.39640625e-08,1.85315625e-01
-6.39240625e-08,1.85287500e-01
-6.38840625e-08,1.85309375e-01
-6.38440625e-08,1.85290625e-01
-6.38040625e-08,1.85307813e-01
-6.37640625e-08,1.85293750e-01
-6.37240625e-08,1.85306250e-01
-6.36840625e-08,1.85293750e-01
-6.36440625e-08,1.85304688e-01
-6.36040625e-08,1.85295313e-01
-6.35640625e-08,1.85304688e-01
-6.35240625e-08,1.85295313e-01
-6.34840625e-08,1.85304688e-01
-6.34440625e-08,1.85295313e-01
-6.34040625e-08,1.85303125e-01
-6.33640625e-08,1.85296875e-01
-6.33240625e-08,1.85303125e-01
-6.32840625e-08,1.85296875e-01
-6.32440625e-08,1.85303125e-01
-6.32040625e-08,1.85296875e-01
-6.31640625e-08,1.85303125e-01
-6.31240625e-08,1.85296875e-01
-6.30840625e-08,1.85303125e-01
-6.30440625e-08,1.85296875e-01
-6.30040625e-08,1.85303125e-01
-6.29640625e-08,1.85296875e-01
-6.29240625e-08,1.85303125e-01
-6.28840625e-08,1.85296875e-01
-6.28440625e-08,1.85303125e-01
-6.28040625e-08,1.85296875e-01
-6.27640625e-08,1.85303125e-01
-6.27240625e-08,1.85296875e-01
-6.26840625e-08,1.85303125e-01
-6.26440625e-08,1.85296875e-01
-6.26040625e-08,1.85303125e-01
-6.25640625e-08,1.85296875e-01
-6.25240625e-08,1.85303125e-01
-6.24840625e-08,1.85295313e-01
-6.24440625e-08,1.85304688e-01
-6.24040625e-08,1.85295313e-01
-6.23640625e-08,1.85304688e-01
-6.23240625e-08,1.85295313e-01
-6.22840625e-08,1.85304688e-01
-6.22440625e-08,1.85293750e-01
-6.22040625e-08,1.85306250e-01
-6.21640625e-08,1.85293750e-01
-6.21240625e-08,1.85306250e-01
-6.20840625e-08,1.85292188e-01
-6.20440625e-08,1.85307813e-01
-6.20040625e-08,1.85290625e-01
-6.19640625e-08,1.85310937e-01
-6.19240625e-08,1.85287500e-01
-6.18840625e-08,1.85315625e-01
-6.18440625e-08,1.85278125e-01
-6.18040625e-08,1.85331250e-01
-6.17640625e-08,1.85243750e-01
-6.17240625e-08,1.85509375e-01
-6.16840625e-08,1.85753125e-01
-6.16440625e-08,1.85670313e-01
-6.16040625e-08,1.85720313e-01
-6.15640625e-08,1.85684375e-01
-6.15240625e-08,1.85712500e-01
-6.14840625e-08,1.85690625e-01
-6.14440625e-08,1.85707813e-01
-6.14040625e-08,1.85692187e-01
-6.13640625e-08,1.85706250e-01
-6.13240625e-08,1.85693750e-01
-6.12840625e-08,1.85704688e-01
-6.12440625e-08,1.85695313e-01
-6.12040625e-08,1.85704688e-01
-6.11640625e-08,1.85696875e-01
-6.11240625e-08,1.85703125e-01
-6.10840625e-08,1.85696875e-01
-6.10440625e-08,1.85703125e-01
-6.10040625e-08,1.85698438e-01
-6.09640625e-08,1.85701563e-01
-6.09240625e-08,1.85698438e-01
-6.08840625e-08,1.85701563e-01
-6.08440625e-08,1.85698438e-01
-6.08040625e-08,1.85701563e-01
-6.07640625e-08,1.85700000e-01
-6.07240625e-08,1.85700000e-01
-6.06840625e-08,1.85700000e-01
-6.06440625e-08,1.85700000e-01
-6.06040625e-08,1.85700000e-01
-6.05640625e-08,1.85698438e-01
-6.05240625e-08,1.85701563e-01
-6.04840625e-08,1.85698438e-01
-6.04440625e-08,1.85703125e-01
-6.04040625e-08,1.85696875e-01
-6.03640625e-08,1.85704688e-01
-6.03240625e-08,1.85695313e-01
-6.02840625e-08,1.85706250e-01
-6.02440625e-08,1.85690625e-01
-6.02040625e-08,1.85712500e-01
-6.01640625e-08,1.85682813e-01
-6.01240625e-08,1.85726562e-01
-6.00840625e-08,1.85648438e-01
-6.00440625e-08,1.85904687e-01
-6.00040625e-08,1.86157813e-01
-5.99640625e-08,1.86065625e-01
-5.99240625e-08,1.86125000e-01
-5.98840625e-08,1.86081250e-01
-5.98440625e-08,1.86117188e-01
-5.98040625e-08,1.86085938e-01
-5.97640625e-08,1.86112500e-01
-5.97240625e-08,1.86087500e-01
-5.96840625e-08,1.86110938e-01
-5.96440625e-08,1.86089063e-01
-5.96040625e-08,1.86109375e-01
-5.95640625e-08,1.86090625e-01
-5.95240625e-08,1.86109375e-01
-5.94840625e-08,1.86090625e-01
-5.94440625e-08,1.86109375e-01
-5.94040625e-08,1.86090625e-01
-5.93640625e-08,1.86107812e-01
-5.93240625e-08,1.86092188e-01
-5.92840625e-08,1.86107812e-01
-5.92440625e-08,1.86092188e-01
-5.92040625e-08,1.86107812e-01
-5.91640625e-08,1.86092188e-01
-5.91240625e-08,1.86107812e-01
-5.90840625e-08,1.86090625e-01
-5.90440625e-08,1.86109375e-01
-5.90040625e-08,1.86090625e-01
-5.89640625e-08,1.86109375e-01
-5.89240625e-08,1.86090625e-01
-5.88840625e-08,1.86109375e-01
-5.88440625e-08,1.86089063e-01
-5.88040625e-08,1.86110938e-01
-5.87640625e-08,1.86087500e-01
-5.87240625e-08,1.86112500e-01
-5.86840625e-08,1.86085938e-01
-5.86440625e-08,1.86117188e-01
-5.86040625e-08,1.86079688e-01
-5.85640625e-08,1.86125000e-01
-5.85240625e-08,1.86065625e-01
-5.84840625e-08,1.86159375e-01
-5.84440625e-08,1.85887500e-01
-5.84040625e-08,1.85650000e-01
-5.83640625e-08,1.85726562e-01
-5.83240625e-08,1.85682813e-01
-5.82840625e-08,1.85712500e-01
-5.82440625e-08,1.85690625e-01
-5.82040625e-08,1.85706250e-01
-5.81640625e-08,1.85695313e-01
-5.81240625e-08,1.85704688e-01
-5.80840625e-08,1.85696875e-01
-5.80440625e-08,1.85703125e-01
-5.80040625e-08,1.85698438e-01
-5.79640625e-08,1.85701563e-01
-5.79240625e-08,1.85698438e-01
-5.78840625e-08,1.85701563e-01
-5.78440625e-08,1.85700000e-01
-5.78040625e-08,1.85700000e-01
-5.77640625e-08,1.85700000e-01
-5.77240625e-08,1.85700000e-01
-5.76840625e-08,1.85700000e-01
-5.76440625e-08,1.85700000e-01
-5.76040625e-08,1.85701563e-01
-5.75640625e-08,1.85698438e-01
-5.75240625e-08,1.85701563e-01
-5.74840625e-08,1.85698438e-01
-5.74440625e-08,1.85701563e-01
-5.74040625e-08,1.85698438e-01
-5.73640625e-08,1.85701563e-01
-5.73240625e-08,1.85698438e-01
-5.72840625e-08,1.85701563e-01
-5.72440625e-08,1.85698438e-01
-5.72040625e-08,1.85701563e-01
-5.71640625e-08,1.85698438e-01
-5.71240625e-08,1.85703125e-01
-5.70840625e-08,1.85696875e-01
-5.70440625e-08,1.85703125e-01
-5.70040625e-08,1.85696875e-01
-5.69640625e-08,1.85703125e-01
-5.69240625e-08,1.85696875e-01
-5.68840625e-08,1.85703125e-01
-5.68440625e-08,1.85696875e-01
-5.68040625e-08,1.85703125e-01
-5.67640625e-08,1.85696875e-01
-5.67240625e-08,1.85703125e-01
-5.66840625e-08,1.85695313e-01
-5.66440625e-08,1.85704688e-01
-5.66040625e-08,1.85695313e-01
-5.65640625e-08,1.85704688e-01
-5.65240625e-08,1.85695313e-01
-5.64840625e-08,1.85704688e-01
-5.64440625e-08,1.85693750e-01
-5.64040625e-08,1.85706250e-01
-5.63640625e-08,1.85693750e-01
-5.63240625e-08,1.85707813e-01
-5.62840625e-08,1.85692187e-01
-5.62440625e-08,1.85707813e-01
-5.62040625e-08,1.85690625e-01
-5.61640625e-08,1.85710938e-01
-5.61240625e-08,1.85687500e-01
-5.60840625e-08,1.85714062e-01
-5.60440625e-08,1.85682813e-01
-5.60040625e-08,1.85721875e-01
-5.59640625e-08,1.85667187e-01
-5.59240625e-08,1.85757813e-01
-5.58840625e-08,1.85489062e-01
-5.58440625e-08,1.85248438e-01
-5.58040625e-08,1.85328125e-01
-5.57640625e-08,1.85281250e-01
-5.57240625e-08,1.85314063e-01
-5.56840625e-08,1.85289063e-01
-5.56440625e-08,1.85307813e-01
-5.56040625e-08,1.85293750e-01
-5.55640625e-08,1.85306250e-01
-5.55240625e-08,1.85295313e-01
-5.54840625e-08,1.85303125e-01
-5.54440625e-08,1.85296875e-01
-5.54040625e-08,1.85303125e-01
-5.53640625e-08,1.85298437e-01
-5.53240625e-08,1.85301563e-01
-5.52840625e-08,1.85298437e-01
-5.52440625e-08,1.85301563e-01
-5.52040625e-08,1.85300000e-01
-5.51640625e-08,1.85300000e-01
-5.51240625e-08,1.85300000e-01
-5.50840625e-08,1.85300000e-01
-5.50440625e-08,1.85300000e-01
-5.50040625e-08,1.85298437e-01
-5.49640625e-08,1.85301563e-01
-5.49240625e-08,1.85298437e-01
-5.48840625e-08,1.85301563e-01
-5.48440625e-08,1.85298437e-01
-5.48040625e-08,1.85303125e-01
-5.47640625e-08,1.85296875e-01
-5.47240625e-08,1.85303125e-01
-5.46840625e-08,1.85296875e-01
-5.46440625e-08,1.85303125e-01
-5.46040625e-08,1.85295313e-01
-5.45640625e-08,1.85304688e-01
-5.45240625e-08,1.85295313e-01
-5.44840625e-08,1.85306250e-01
-5.44440625e-08,1.85293750e-01
-5.44040625e-08,1.85307813e-01
-5.43640625e-08,1.85290625e-01
-5.43240625e-08,1.85309375e-01
-5.42840625e-08,1.85289063e-01
-5.42440625e-08,1.85314063e-01
-5.42040625e-08,1.85282813e-01
-5.41640625e-08,1.85321875e-01
-5.41240625e-08,1.85267188e-01
-5.40840625e-08,1.85357812e-01
-5.40440625e-08,1.85089063e-01
-5.40040625e-08,1.84848438e-01
-5.39640625e-08,1.84926563e-01
-5.39240625e-08,1.84882812e-01
-5.38840625e-08,1.84910938e-01
-5.38440625e-08,1.84892187e-01
-5.38040625e-08,1.84904687e-01
-5.37640625e-08,1.84896875e-01
-5.37240625e-08,1.84900000e-01
-5.36840625e-08,1.84901563e-01
-5.36440625e-08,1.84895313e-01
-5.36040625e-08,1.84907813e-01
-5.35640625e-08,1.84885938e-01
-5.35240625e-08,1.84923438e-01
-5.34840625e-08,1.84850000e-01
-5.34440625e-08,1.85103125e-01
-5.34040625e-08,1.85359375e-01
-5.33640625e-08,1.85265625e-01
-5.33240625e-08,1.85325000e-01
-5.32840625e-08,1.85279688e-01
-5.32440625e-08,1.85317188e-01
-5.32040625e-08,1.85285937e-01
-5.31640625e-08,1.85312500e-01
-5.31240625e-08,1.85289063e-01
-5.30840625e-08,1.85310937e-01
-5.30440625e-08,1.85290625e-01
-5.30040625e-08,1.85309375e-01
-5.29640625e-08,1.85290625e-01
-5.29240625e-08,1.85307813e-01
-5.28840625e-08,1.85292188e-01
-5.28440625e-08,1.85307813e-01
-5.28040625e-08,1.85293750e-01
-5.27640625e-08,1.85306250e-01
-5.27240625e-08,1.85293750e-01
-5.26840625e-08,1.85306250e-01
-5.26440625e-08,1.85293750e-01
-5.26040625e-08,1.85304688e-01
-5.25640625e-08,1.85295313e-01
-5.25240625e-08,1.85304688e-01
-5.24840625e-08,1.85295313e-01
-5.24440625e-08,1.85304688e-01
-5.24040625e-08,1.85295313e-01
-5.23640625e-08,1.85304688e-01
-5.23240625e-08,1.85296875e-01
-5.22840625e-08,1.85303125e-01
-5.22440625e-08,1.85296875e-01
-5.22040625e-08,1.85303125e-01
-5.21640625e-08,1.85296875e-01
-5.21240625e-08,1.85303125e-01
-5.20840625e-08,1.85296875e-01
-5.20440625e-08,1.85303125e-01
-5.20040625e-08,1.85296875e-01
-5.19640625e-08,1.85301563e-01
-5.19240625e-08,1.85298437e-01
-5.18840625e-08,1.85301563e-01
-5.18440625e-08,1.85298437e-01
-5.18040625e-08,1.85301563e-01
-5.17640625e-08,1.85298437e-01
-5.17240625e-08,1.85300000e-01
-5.16840625e-08,1.85300000e-01
-5.16440625e-08,1.85300000e-01
-5.16040625e-08,1.85300000e-01
-5.15640625e-08,1.85298437e-01
-5.15240625e-08,1.85301563e-01
-5.14840625e-08,1.85298437e-01
-5.14440625e-08,1.85303125e-01
-5.14040625e-08,1.85295313e-01
-5.13640625e-08,1.85304688e-01
-5.13240625e-08,1.85293750e-01
-5.12840625e-08,1.85309375e-01
-5.12440625e-08,1.85287500e-01
-5.12040625e-08,1.85317188e-01
-5.11640625e-08,1.85273437e-01
-5.11240625e-08,1.85351563e-01
-5.10840625e-08,1.85095312e-01
-5.10440625e-08,1.84843750e-01
-5.10040625e-08,1.84932813e-01
-5.09640625e-08,1.84876563e-01
-5.09240625e-08,1.84917187e-01
-5.08840625e-08,1.84885938e-01
-5.08440625e-08,1.84912500e-01
-5.08040625e-08,1.84890625e-01
-5.07640625e-08,1.84907813e-01
-5.07240625e-08,1.84893750e-01
-5.06840625e-08,1.84904687e-01
-5.06440625e-08,1.84896875e-01
-5.06040625e-08,1.84900000e-01
-5.05640625e-08,1.84903125e-01
-5.05240625e-08,1.84892187e-01
-5.04840625e-08,1.84917187e-01
-5.04440625e-08,1.84857812e-01
-5.04040625e-08,1.85095312e-01
-5.03640625e-08,1.85367188e-01
-5.03240625e-08,1.85256250e-01
-5.02840625e-08,1.85334375e-01
-5.02440625e-08,1.85270313e-01
-5.02040625e-08,1.85328125e-01
-5.01640625e-08,1.85273437e-01
-5.01240625e-08,1.85326563e-01
-5.00840625e-08,1.85273437e-01
-5.00440625e-08,1.85328125e-01
-5.00040625e-08,1.85267188e-01
-4.99640625e-08,1.85342188e-01
-4.99240625e-08,1.85234375e-01
-4.98840625e-08,1.85517188e-01
-4.98440625e-08,1.85745313e-01
-4.98040625e-08,1.85676563e-01
-4.97640625e-08,1.85715625e-01
-4.97240625e-08,1.85687500e-01
-4.96840625e-08,1.85712500e-01
-4.96440625e-08,1.85685938e-01
-4.96040625e-08,1.85721875e-01
-4.95640625e-08,1.85654687e-01
-4.95240625e-08,1.85896875e-01
-4.94840625e-08,1.86167187e-01
-4.94440625e-08,1.86056250e-01
-4.94040625e-08,1.86137500e-01
-4.93640625e-08,1.86065625e-01
-4.93240625e-08,1.86134375e-01
-4.92840625e-08,1.86062500e-01
-4.92440625e-08,1.86146875e-01
-4.92040625e-08,1.86028125e-01
-4.91640625e-08,1.86323437e-01
-4.91240625e-08,1.86539063e-01
-4.90840625e-08,1.86484375e-01
-4.90440625e-08,1.86504688e-01
-4.90040625e-08,1.86500000e-01
-4.89640625e-08,1.86496875e-01
-4.89240625e-08,1.86506250e-01
-4.88840625e-08,1.86492188e-01
-4.88440625e-08,1.86510938e-01
-4.88040625e-08,1.86485938e-01
-4.87640625e-08,1.86517188e-01
-4.87240625e-08,1.86476562e-01
-4.86840625e-08,1.86532813e-01
-4.86440625e-08,1.86442187e-01
-4.86040625e-08,1.86710938e-01
-4.85640625e-08,1.86950000e-01
-4.85240625e-08,1.86873438e-01
-4.84840625e-08,1.86917187e-01
-4.84440625e-08,1.86887500e-01
-4.84040625e-08,1.86909375e-01
-4.83640625e-08,1.86893750e-01
-4.83240625e-08,1.86904687e-01
-4.82840625e-08,1.86896875e-01
-4.82440625e-08,1.86903125e-01
-4.82040625e-08,1.86898438e-01
-4.81640625e-08,1.86901563e-01
-4.81240625e-08,1.86900000e-01
-4.80840625e-08,1.86900000e-01
-4.80440625e-08,1.86900000e-01
-4.80040625e-08,1.86898438e-01
-4.79640625e-08,1.86901563e-01
-4.79240625e-08,1.86898438e-01
-4.78840625e-08,1.86901563e-01
-4.78440625e-08,1.86898438e-01
-4.78040625e-08,1.86903125e-01
-4.77640625e-08,1.86896875e-01
-4.77240625e-08,1.86903125e-01
-4.76840625e-08,1.86896875e-01
-4.76440625e-08,1.86903125e-01
-4.76040625e-08,1.86895313e-01
-4.75640625e-08,1.86904687e-01
-4.75240625e-08,1.86895313e-01
-4.74840625e-08,1.86904687e-01
-4.74440625e-08,1.86895313e-01
-4.74040625e-08,1.86906250e-01
-4.73640625e-08,1.86893750e-01
-4.73240625e-08,1.86906250e-01
-4.72840625e-08,1.86892188e-01
-4.72440625e-08,1.86907812e-01
-4.72040625e-08,1.86892188e-01
-4.71640625e-08,1.86909375e-01
-4.71240625e-08,1.86889063e-01
-4.70840625e-08,1.86910938e-01
-4.70440625e-08,1.86887500e-01
-4.70040625e-08,1.86915625e-01
-4.69640625e-08,1.86881250e-01
-4.69240625e-08,1.86923438e-01
-4.68840625e-08,1.86867188e-01
-4.68440625e-08,1.86957813e-01
-4.68040625e-08,1.86687500e-01
-4.67640625e-08,1.86450000e-01
-4.67240625e-08,1.86526562e-01
-4.66840625e-08,1.86482813e-01
-4.66440625e-08,1.86510938e-01
-4.66040625e-08,1.86492188e-01
-4.65640625e-08,1.86506250e-01
-4.65240625e-08,1.86495313e-01
-4.64840625e-08,1.86503125e-01
-4.64440625e-08,1.86498438e-01
-4.64040625e-08,1.86500000e-01
-4.63640625e-08,1.86501562e-01
-4.63240625e-08,1.86496875e-01
-4.62840625e-08,1.86504688e-01
-4.62440625e-08,1.86493750e-01
-4.62040625e-08,1.86507813e-01
-4.61640625e-08,1.86489062e-01
-4.61240625e-08,1.86517188e-01
-4.60840625e-08,1.86473438e-01
-4.60440625e-08,1.86551563e-01
-4.60040625e-08,1.86295313e-01
-4.59640625e-08,1.86042188e-01
-4.59240625e-08,1.86134375e-01
-4.58840625e-08,1.86075000e-01
-4.58440625e-08,1.86120312e-01
-4.58040625e-08,1.86082812e-01
-4.57640625e-08,1.86115625e-01
-4.57240625e-08,1.86085938e-01
-4.56840625e-08,1.86112500e-01
-4.56440625e-08,1.86087500e-01
-4.56040625e-08,1.86112500e-01
-4.55640625e-08,1.86087500e-01
-4.55240625e-08,1.86114063e-01
-4.54840625e-08,1.86085938e-01
-4.54440625e-08,1.86115625e-01
-4.54040625e-08,1.86081250e-01
-4.53640625e-08,1.86123438e-01
-4.53240625e-08,1.86067188e-01
-4.52840625e-08,1.86157813e-01
-4.52440625e-08,1.85889063e-01
-4.52040625e-08,1.85648438e-01
-4.51640625e-08,1.85728125e-01
-4.51240625e-08,1.85681250e-01
-4.50840625e-08,1.85714062e-01
-4.50440625e-08,1.85687500e-01
-4.50040625e-08,1.85709375e-01
-4.49640625e-08,1.85690625e-01
-4.49240625e-08,1.85707813e-01
-4.48840625e-08,1.85693750e-01
-4.48440625e-08,1.85706250e-01
-4.48040625e-08,1.85693750e-01
-4.47640625e-08,1.85706250e-01
-4.47240625e-08,1.85695313e-01
-4.46840625e-08,1.85704688e-01
-4.46440625e-08,1.85695313e-01
-4.46040625e-08,1.85704688e-01
-4.45640625e-08,1.85695313e-01
-4.45240625e-08,1.85704688e-01
-4.44840625e-08,1.85695313e-01
-4.44440625e-08,1.85704688e-01
-4.44040625e-08,1.85695313e-01
-4.43640625e-08,1.85704688e-01
-4.43240625e-08,1.85695313e-01
-4.42840625e-08,1.85704688e-01
-4.42440625e-08,1.85695313e-01
-4.42040625e-08,1.85704688e-01
-4.41640625e-08,1.85695313e-01
-4.41240625e-08,1.85704688e-01
-4.40840625e-08,1.85695313e-01
-4.40440625e-08,1.85704688e-01
-4.40040625e-08,1.85695313e-01
-4.39640625e-08,1.85704688e-01
-4.39240625e-08,1.85695313e-01
-4.38840625e-08,1.85704688e-01
-4.38440625e-08,1.85695313e-01
-4.38040625e-08,1.85704688e-01
-4.37640625e-08,1.85695313e-01
-4.37240625e-08,1.85706250e-01
-4.36840625e-08,1.85693750e-01
-4.36440625e-08,1.85706250e-01
-4.36040625e-08,1.85693750e-01
-4.35640625e-08,1.85706250e-01
-4.35240625e-08,1.85693750e-01
-4.34840625e-08,1.85706250e-01
-4.34440625e-08,1.85693750e-01
-4.34040625e-08,1.85706250e-01
-4.33640625e-08,1.85692187e-01
-4.33240625e-08,1.85707813e-01
-4.32840625e-08,1.85692187e-01
-4.32440625e-08,1.85707813e-01
-4.32040625e-08,1.85690625e-01
-4.31640625e-08,1.85709375e-01
-4.31240625e-08,1.85690625e-01
-4.30840625e-08,1.85710938e-01
-4.30440625e-08,1.85689063e-01
-4.30040625e-08,1.85712500e-01
-4.29640625e-08,1.85685938e-01
-4.29240625e-08,1.85715625e-01
-4.28840625e-08,1.85682813e-01
-4.28440625e-08,1.85720313e-01
-4.28040625e-08,1.85675000e-01
-4.27640625e-08,1.85735938e-01
-4.27240625e-08,1.85639063e-01
-4.26840625e-08,1.85914063e-01
-4.26440625e-08,1.86148438e-01
-4.26040625e-08,1.86075000e-01
-4.25640625e-08,1.86114063e-01
-4.25240625e-08,1.86090625e-01
-4.24840625e-08,1.86106250e-01
-4.24440625e-08,1.86095312e-01
-4.24040625e-08,1.86101563e-01
-4.23640625e-08,1.86098438e-01
-4.23240625e-08,1.86100000e-01
-4.22840625e-08,1.86101563e-01
-4.22440625e-08,1.86096875e-01
-4.22040625e-08,1.86103125e-01
-4.21640625e-08,1.86095312e-01
-4.21240625e-08,1.86106250e-01
-4.20840625e-08,1.86092188e-01
-4.20440625e-08,1.86109375e-01
-4.20040625e-08,1.86087500e-01
-4.19640625e-08,1.86115625e-01
-4.19240625e-08,1.86079688e-01
-4.18840625e-08,1.86131250e-01
-4.18440625e-08,1.86043750e-01
-4.18040625e-08,1.86309375e-01
-4.17640625e-08,1.86553125e-01
-4.17240625e-08,1.86470313e-01
-4.16840625e-08,1.86518750e-01
-4.16440625e-08,1.86485938e-01
-4.16040625e-08,1.86510938e-01
-4.15640625e-08,1.86490625e-01
-4.15240625e-08,1.86506250e-01
-4.14840625e-08,1.86493750e-01
-4.14440625e-08,1.86504688e-01
-4.14040625e-08,1.86496875e-01
-4.13640625e-08,1.86503125e-01
-4.13240625e-08,1.86498438e-01
-4.12840625e-08,1.86501562e-01
-4.12440625e-08,1.86500000e-01
-4.12040625e-08,1.86500000e-01
-4.11640625e-08,1.86501562e-01
-4.11240625e-08,1.86496875e-01
-4.10840625e-08,1.86503125e-01
-4.10440625e-08,1.86495313e-01
-4.10040625e-08,1.86506250e-01
-4.09640625e-08,1.86490625e-01
-4.09240625e-08,1.86512500e-01
-4.08840625e-08,1.86482813e-01
-4.08440625e-08,1.86526562e-01
-4.08040625e-08,1.86448438e-01
-4.07640625e-08,1.86704688e-01
-4.07240625e-08,1.86957813e-01
-4.06840625e-08,1.86867188e-01
-4.06440625e-08,1.86923438e-01
-4.06040625e-08,1.86881250e-01
-4.05640625e-08,1.86915625e-01
-4.05240625e-08,1.86885938e-01
-4.04840625e-08,1.86912500e-01
-4.04440625e-08,1.86887500e-01
-4.04040625e-08,1.86910938e-01
-4.03640625e-08,1.86889063e-01
-4.03240625e-08,1.86910938e-01
-4.02840625e-08,1.86889063e-01
-4.02440625e-08,1.86912500e-01
-4.02040625e-08,1.86887500e-01
-4.01640625e-08,1.86914063e-01
-4.01240625e-08,1.86882812e-01
-4.00840625e-08,1.86921875e-01
-4.00440625e-08,1.86868750e-01
-4.00040625e-08,1.86954687e-01
-3.99640625e-08,1.86692187e-01
-3.99240625e-08,1.86445313e-01
-3.98840625e-08,1.86531250e-01
-3.98440625e-08,1.86476562e-01
-3.98040625e-08,1.86518750e-01
-3.97640625e-08,1.86484375e-01
-3.97240625e-08,1.86514062e-01
-3.96840625e-08,1.86485938e-01
-3.96440625e-08,1.86514062e-01
-3.96040625e-08,1.86485938e-01
-3.95640625e-08,1.86514062e-01
-3.95240625e-08,1.86484375e-01
-3.94840625e-08,1.86517188e-01
-3.94440625e-08,1.86479688e-01
-3.94040625e-08,1.86525000e-01
-3.93640625e-08,1.86464062e-01
-3.93240625e-08,1.86560937e-01
-3.92840625e-08,1.86285937e-01
-3.92440625e-08,1.86051563e-01
-3.92040625e-08,1.86125000e-01
-3.91640625e-08,1.86085938e-01
-3.91240625e-08,1.86109375e-01
-3.90840625e-08,1.86095312e-01
-3.90440625e-08,1.86101563e-01
-3.90040625e-08,1.86101563e-01
-3.89640625e-08,1.86093750e-01
-3.89240625e-08,1.86110938e-01
-3.88840625e-08,1.86078125e-01
-3.88440625e-08,1.86146875e-01
-3.88040625e-08,1.85900000e-01
-3.87640625e-08,1.85637500e-01
-3.87240625e-08,1.85739062e-01
-3.86840625e-08,1.85670313e-01
-3.86440625e-08,1.85725000e-01
-3.86040625e-08,1.85678125e-01
-3.85640625e-08,1.85721875e-01
-3.85240625e-08,1.85678125e-01
