trails/0b415fe76bd122fbe60d5dd91566c6d8/aes_ch1_20250507111809316.csv

Model,MSO66B
Label,
Waveform Type,ANALOG
Horizontal Units,s
Sample Interval,4.00000000e-11
Record Length,10000
Zero Index,1599.04296875
Vertical Units,A
ANALOG_Thumbnail,
yOffset,1.84500000e-01
yPosition,8.40000000e-01

Labels,
TIME,CH1
-6.39617187e-08,1.98498438e-01
-6.39217187e-08,1.98501563e-01
-6.38817188e-08,1.98496875e-01
-6.38417187e-08,1.98503125e-01
-6.38017187e-08,1.98496875e-01
-6.37617187e-08,1.98504687e-01
-6.37217187e-08,1.98495313e-01
-6.36817187e-08,1.98504687e-01
-6.36417187e-08,1.98493750e-01
-6.36017188e-08,1.98506250e-01
-6.35617187e-08,1.98492188e-01
-6.35217187e-08,1.98509375e-01
-6.34817187e-08,1.98489063e-01
-6.34417187e-08,1.98514063e-01
-6.34017187e-08,1.98479688e-01
-6.33617187e-08,1.98529687e-01
-6.33217188e-08,1.98445312e-01
-6.32817187e-08,1.98707812e-01
-6.32417187e-08,1.98954688e-01
-6.32017187e-08,1.98868750e-01
-6.31617187e-08,1.98921875e-01
-6.31217187e-08,1.98882813e-01
-6.30817187e-08,1.98914063e-01
-6.30417188e-08,1.98887500e-01
-6.30017187e-08,1.98910937e-01
-6.29617187e-08,1.98890625e-01
-6.29217187e-08,1.98909375e-01
-6.28817187e-08,1.98890625e-01
-6.28417188e-08,1.98907813e-01
-6.28017187e-08,1.98892188e-01
-6.27617188e-08,1.98909375e-01
-6.27217187e-08,1.98890625e-01
-6.26817187e-08,1.98909375e-01
-6.26417187e-08,1.98889063e-01
-6.26017187e-08,1.98912500e-01
-6.25617188e-08,1.98884375e-01
-6.25217187e-08,1.98920313e-01
-6.24817188e-08,1.98870313e-01
-6.24417187e-08,1.98953125e-01
-6.24017187e-08,1.98693750e-01
-6.23617187e-08,1.98443750e-01
-6.23217187e-08,1.98532813e-01
-6.22817188e-08,1.98476563e-01
-6.22417187e-08,1.98518750e-01
-6.22017188e-08,1.98484375e-01
-6.21617187e-08,1.98514063e-01
-6.21217187e-08,1.98487500e-01
-6.20817187e-08,1.98512500e-01
-6.20417187e-08,1.98487500e-01
-6.20017188e-08,1.98512500e-01
-6.19617187e-08,1.98487500e-01
-6.19217188e-08,1.98512500e-01
-6.18817187e-08,1.98487500e-01
-6.18417187e-08,1.98512500e-01
-6.18017187e-08,1.98485938e-01
-6.17617187e-08,1.98514063e-01
-6.17217188e-08,1.98484375e-01
-6.16817187e-08,1.98517187e-01
-6.16417188e-08,1.98479688e-01
-6.16017187e-08,1.98526563e-01
-6.15617187e-08,1.98464063e-01
-6.15217187e-08,1.98560938e-01
-6.14817187e-08,1.98285938e-01
-6.14417188e-08,1.98051563e-01
-6.14017187e-08,1.98125000e-01
-6.13617188e-08,1.98084375e-01
-6.13217187e-08,1.98109375e-01
-6.12817187e-08,1.98093750e-01
-6.12417187e-08,1.98104688e-01
-6.12017187e-08,1.98096875e-01
-6.11617188e-08,1.98101562e-01
-6.11217187e-08,1.98100000e-01
-6.10817188e-08,1.98100000e-01
-6.10417187e-08,1.98101562e-01
-6.10017187e-08,1.98098438e-01
-6.09617187e-08,1.98103125e-01
-6.09217187e-08,1.98096875e-01
-6.08817188e-08,1.98104688e-01
-6.08417187e-08,1.98095313e-01
-6.08017188e-08,1.98106250e-01
-6.07617187e-08,1.98092188e-01
-6.07217187e-08,1.98109375e-01
-6.06817187e-08,1.98089062e-01
-6.06417187e-08,1.98112500e-01
-6.06017188e-08,1.98084375e-01
-6.05617187e-08,1.98121875e-01
-6.05217187e-08,1.98068750e-01
-6.04817187e-08,1.98156250e-01
-6.04417187e-08,1.97890625e-01
-6.04017187e-08,1.97646875e-01
-6.03617187e-08,1.97728125e-01
-6.03217188e-08,1.97681250e-01
-6.02817187e-08,1.97714063e-01
-6.02417187e-08,1.97689063e-01
-6.02017187e-08,1.97707812e-01
-6.01617187e-08,1.97693750e-01
-6.01217187e-08,1.97704688e-01
-6.00817187e-08,1.97696875e-01
-6.00417188e-08,1.97703125e-01
-6.00017187e-08,1.97698438e-01
-5.99617187e-08,1.97700000e-01
-5.99217187e-08,1.97700000e-01
-5.98817187e-08,1.97698438e-01
-5.98417187e-08,1.97703125e-01
-5.98017187e-08,1.97695312e-01
-5.97617188e-08,1.97706250e-01
-5.97217187e-08,1.97692188e-01
-5.96817187e-08,1.97710938e-01
-5.96417187e-08,1.97682812e-01
-5.96017187e-08,1.97726563e-01
-5.95617187e-08,1.97648437e-01
-5.95217187e-08,1.97904688e-01
-5.94817187e-08,1.98157813e-01
-5.94417187e-08,1.98065625e-01
-5.94017187e-08,1.98125000e-01
-5.93617187e-08,1.98079688e-01
-5.93217187e-08,1.98117188e-01
-5.92817187e-08,1.98084375e-01
-5.92417187e-08,1.98114063e-01
-5.92017187e-08,1.98085938e-01
-5.91617187e-08,1.98114063e-01
-5.91217187e-08,1.98084375e-01
-5.90817187e-08,1.98117188e-01
-5.90417187e-08,1.98078125e-01
-5.90017187e-08,1.98131250e-01
-5.89617187e-08,1.98045313e-01
-5.89217187e-08,1.98306250e-01
-5.88817187e-08,1.98556250e-01
-5.88417187e-08,1.98467188e-01
-5.88017187e-08,1.98525000e-01
-5.87617187e-08,1.98478125e-01
-5.87217187e-08,1.98520313e-01
-5.86817187e-08,1.98478125e-01
-5.86417187e-08,1.98523438e-01
-5.86017187e-08,1.98471875e-01
-5.85617187e-08,1.98535938e-01
-5.85217187e-08,1.98439063e-01
-5.84817187e-08,1.98714063e-01
-5.84417187e-08,1.98948438e-01
-5.84017187e-08,1.98876563e-01
-5.83617187e-08,1.98914063e-01
-5.83217187e-08,1.98890625e-01
-5.82817187e-08,1.98904688e-01
-5.82417187e-08,1.98896875e-01
-5.82017187e-08,1.98900000e-01
-5.81617187e-08,1.98903125e-01
-5.81217187e-08,1.98895313e-01
-5.80817187e-08,1.98909375e-01
-5.80417187e-08,1.98885937e-01
-5.80017187e-08,1.98925000e-01
-5.79617187e-08,1.98850000e-01
-5.79217187e-08,1.99103125e-01
-5.78817187e-08,1.99359375e-01
-5.78417187e-08,1.99265625e-01
-5.78017187e-08,1.99325000e-01
-5.77617187e-08,1.99279687e-01
-5.77217187e-08,1.99317187e-01
-5.76817187e-08,1.99285938e-01
-5.76417187e-08,1.99312500e-01
-5.76017187e-08,1.99289063e-01
-5.75617187e-08,1.99310938e-01
-5.75217187e-08,1.99290625e-01
-5.74817187e-08,1.99309375e-01
-5.74417187e-08,1.99292187e-01
-5.74017187e-08,1.99307813e-01
-5.73617187e-08,1.99292187e-01
-5.73217187e-08,1.99307813e-01
-5.72817187e-08,1.99293750e-01
-5.72417187e-08,1.99306250e-01
-5.72017187e-08,1.99293750e-01
-5.71617187e-08,1.99306250e-01
-5.71217187e-08,1.99293750e-01
-5.70817187e-08,1.99306250e-01
-5.70417187e-08,1.99295313e-01
-5.70017187e-08,1.99304688e-01
-5.69617187e-08,1.99295313e-01
-5.69217187e-08,1.99304688e-01
-5.68817187e-08,1.99295313e-01
-5.68417187e-08,1.99304688e-01
-5.68017187e-08,1.99295313e-01
-5.67617187e-08,1.99304688e-01
-5.67217187e-08,1.99295313e-01
-5.66817187e-08,1.99304688e-01
-5.66417187e-08,1.99295313e-01
-5.66017187e-08,1.99303125e-01
-5.65617187e-08,1.99296875e-01
-5.65217187e-08,1.99303125e-01
-5.64817187e-08,1.99296875e-01
-5.64417187e-08,1.99303125e-01
-5.64017187e-08,1.99296875e-01
-5.63617187e-08,1.99303125e-01
-5.63217187e-08,1.99296875e-01
-5.62817187e-08,1.99303125e-01
-5.62417187e-08,1.99296875e-01
-5.62017187e-08,1.99303125e-01
-5.61617187e-08,1.99296875e-01
-5.61217187e-08,1.99303125e-01
-5.60817187e-08,1.99296875e-01
-5.60417187e-08,1.99303125e-01
-5.60017187e-08,1.99296875e-01
-5.59617187e-08,1.99303125e-01
-5.59217187e-08,1.99296875e-01
-5.58817187e-08,1.99303125e-01
-5.58417187e-08,1.99296875e-01
-5.58017187e-08,1.99303125e-01
-5.57617187e-08,1.99298438e-01
-5.57217187e-08,1.99301563e-01
-5.56817187e-08,1.99298438e-01
-5.56417187e-08,1.99301563e-01
-5.56017187e-08,1.99298438e-01
-5.55617187e-08,1.99301563e-01
-5.55217187e-08,1.99298438e-01
-5.54817187e-08,1.99301563e-01
-5.54417187e-08,1.99298438e-01
-5.54017187e-08,1.99301563e-01
-5.53617187e-08,1.99298438e-01
-5.53217187e-08,1.99301563e-01
-5.52817187e-08,1.99298438e-01
-5.52417187e-08,1.99301563e-01
-5.52017187e-08,1.99298438e-01
-5.51617187e-08,1.99301563e-01
-5.51217187e-08,1.99298438e-01
-5.50817187e-08,1.99301563e-01
-5.50417187e-08,1.99298438e-01
-5.50017187e-08,1.99301563e-01
-5.49617187e-08,1.99298438e-01
-5.49217187e-08,1.99301563e-01
-5.48817187e-08,1.99298438e-01
-5.48417187e-08,1.99301563e-01
-5.48017187e-08,1.99298438e-01
-5.47617187e-08,1.99301563e-01
-5.47217187e-08,1.99300000e-01
-5.46817187e-08,1.99300000e-01
-5.46417187e-08,1.99300000e-01
-5.46017187e-08,1.99300000e-01
-5.45617187e-08,1.99300000e-01
-5.45217187e-08,1.99300000e-01
-5.44817187e-08,1.99300000e-01
-5.44417187e-08,1.99300000e-01
-5.44017187e-08,1.99300000e-01
-5.43617187e-08,1.99300000e-01
-5.43217187e-08,1.99300000e-01
-5.42817187e-08,1.99300000e-01
-5.42417187e-08,1.99301563e-01
-5.42017187e-08,1.99298438e-01
-5.41617187e-08,1.99301563e-01
-5.41217187e-08,1.99298438e-01
-5.40817187e-08,1.99301563e-01
-5.40417187e-08,1.99296875e-01
-5.40017187e-08,1.99303125e-01
-5.39617187e-08,1.99296875e-01
-5.39217187e-08,1.99304688e-01
-5.38817187e-08,1.99295313e-01
-5.38417187e-08,1.99306250e-01
-5.38017187e-08,1.99292187e-01
-5.37617187e-08,1.99309375e-01
-5.37217187e-08,1.99287500e-01
-5.36817187e-08,1.99318750e-01
-5.36417187e-08,1.99271875e-01
-5.36017187e-08,1.99353125e-01
-5.35617187e-08,1.99093750e-01
-5.35217187e-08,1.98843750e-01
-5.34817187e-08,1.98932813e-01
-5.34417187e-08,1.98876563e-01
-5.34017187e-08,1.98918750e-01
-5.33617187e-08,1.98884375e-01
-5.33217187e-08,1.98914063e-01
-5.32817187e-08,1.98887500e-01
-5.32417188e-08,1.98910937e-01
-5.32017187e-08,1.98890625e-01
-5.31617187e-08,1.98909375e-01
-5.31217187e-08,1.98890625e-01
-5.30817187e-08,1.98907813e-01
-5.30417187e-08,1.98892188e-01
-5.30017187e-08,1.98907813e-01
-5.29617187e-08,1.98892188e-01
-5.29217187e-08,1.98906250e-01
-5.28817187e-08,1.98893750e-01
-5.28417187e-08,1.98906250e-01
-5.28017187e-08,1.98893750e-01
-5.27617187e-08,1.98906250e-01
-5.27217187e-08,1.98893750e-01
-5.26817187e-08,1.98906250e-01
-5.26417187e-08,1.98893750e-01
-5.26017187e-08,1.98906250e-01
-5.25617187e-08,1.98893750e-01
-5.25217187e-08,1.98906250e-01
-5.24817187e-08,1.98893750e-01
-5.24417187e-08,1.98906250e-01
-5.24017187e-08,1.98893750e-01
-5.23617187e-08,1.98906250e-01
-5.23217187e-08,1.98893750e-01
-5.22817187e-08,1.98906250e-01
-5.22417187e-08,1.98893750e-01
-5.22017187e-08,1.98906250e-01
-5.21617187e-08,1.98893750e-01
-5.21217187e-08,1.98906250e-01
-5.20817187e-08,1.98893750e-01
-5.20417187e-08,1.98906250e-01
-5.20017187e-08,1.98893750e-01
-5.19617187e-08,1.98906250e-01
-5.19217187e-08,1.98893750e-01
-5.18817187e-08,1.98906250e-01
-5.18417187e-08,1.98893750e-01
-5.18017187e-08,1.98906250e-01
-5.17617187e-08,1.98893750e-01
-5.17217187e-08,1.98906250e-01
-5.16817187e-08,1.98893750e-01
-5.16417187e-08,1.98907813e-01
-5.16017187e-08,1.98892188e-01
-5.15617187e-08,1.98907813e-01
-5.15217187e-08,1.98892188e-01
-5.14817187e-08,1.98907813e-01
-5.14417187e-08,1.98890625e-01
-5.14017187e-08,1.98909375e-01
-5.13617187e-08,1.98890625e-01
-5.13217188e-08,1.98910937e-01
-5.12817187e-08,1.98887500e-01
-5.12417187e-08,1.98914063e-01
-5.12017187e-08,1.98884375e-01
-5.11617187e-08,1.98918750e-01
-5.11217187e-08,1.98876563e-01
-5.10817187e-08,1.98934375e-01
-5.10417187e-08,1.98840625e-01
-5.10017187e-08,1.99112500e-01
-5.09617187e-08,1.99350000e-01
-5.09217187e-08,1.99273438e-01
-5.08817187e-08,1.99317187e-01
-5.08417187e-08,1.99287500e-01
-5.08017187e-08,1.99307813e-01
-5.07617187e-08,1.99293750e-01
-5.07217187e-08,1.99304688e-01
-5.06817187e-08,1.99296875e-01
-5.06417187e-08,1.99301563e-01
-5.06017187e-08,1.99298438e-01
-5.05617187e-08,1.99300000e-01
-5.05217187e-08,1.99300000e-01
-5.04817187e-08,1.99298438e-01
-5.04417187e-08,1.99301563e-01
-5.04017187e-08,1.99296875e-01
-5.03617187e-08,1.99304688e-01
-5.03217187e-08,1.99295313e-01
-5.02817187e-08,1.99307813e-01
-5.02417187e-08,1.99290625e-01
-5.02017187e-08,1.99312500e-01
-5.01617187e-08,1.99282813e-01
-5.01217187e-08,1.99328125e-01
-5.00817187e-08,1.99246875e-01
-5.00417187e-08,1.99506250e-01
-5.00017187e-08,1.99756250e-01
-4.99617187e-08,1.99667188e-01
-4.99217187e-08,1.99723438e-01
-4.98817187e-08,1.99681250e-01
-4.98417187e-08,1.99715625e-01
-4.98017187e-08,1.99685938e-01
-4.97617187e-08,1.99712500e-01
-4.97217187e-08,1.99689063e-01
-4.96817187e-08,1.99709375e-01
-4.96417187e-08,1.99690625e-01
-4.96017187e-08,1.99709375e-01
-4.95617187e-08,1.99692188e-01
-4.95217187e-08,1.99707812e-01
-4.94817187e-08,1.99692188e-01
-4.94417187e-08,1.99707812e-01
-4.94017188e-08,1.99692188e-01
-4.93617187e-08,1.99707812e-01
-4.93217187e-08,1.99692188e-01
-4.92817187e-08,1.99707812e-01
-4.92417187e-08,1.99692188e-01
-4.92017187e-08,1.99707812e-01
-4.91617187e-08,1.99692188e-01
-4.91217188e-08,1.99707812e-01
-4.90817187e-08,1.99692188e-01
-4.90417187e-08,1.99707812e-01
-4.90017187e-08,1.99692188e-01
-4.89617187e-08,1.99709375e-01
-4.89217187e-08,1.99690625e-01
-4.88817187e-08,1.99709375e-01
-4.88417187e-08,1.99689063e-01
-4.88017187e-08,1.99712500e-01
-4.87617187e-08,1.99685938e-01
-4.87217187e-08,1.99715625e-01
-4.86817187e-08,1.99681250e-01
-4.86417187e-08,1.99723438e-01
-4.86017187e-08,1.99667188e-01
-4.85617187e-08,1.99757813e-01
-4.85217187e-08,1.99489063e-01
-4.84817187e-08,1.99250000e-01
-4.84417187e-08,1.99326562e-01
-4.84017187e-08,1.99282813e-01
-4.83617187e-08,1.99312500e-01
-4.83217187e-08,1.99290625e-01
-4.82817187e-08,1.99306250e-01
-4.82417187e-08,1.99295313e-01
-4.82017187e-08,1.99303125e-01
-4.81617187e-08,1.99298438e-01
-4.81217187e-08,1.99301563e-01
-4.80817187e-08,1.99300000e-01
-4.80417187e-08,1.99298438e-01
-4.80017187e-08,1.99303125e-01
-4.79617187e-08,1.99295313e-01
-4.79217187e-08,1.99306250e-01
-4.78817187e-08,1.99290625e-01
-4.78417187e-08,1.99315625e-01
-4.78017187e-08,1.99275000e-01
-4.77617187e-08,1.99350000e-01
-4.77217187e-08,1.99096875e-01
-4.76817187e-08,1.98840625e-01
-4.76417187e-08,1.98935937e-01
-4.76017187e-08,1.98873437e-01
-4.75617187e-08,1.98920313e-01
-4.75217187e-08,1.98881250e-01
-4.74817188e-08,1.98915625e-01
-4.74417187e-08,1.98885937e-01
-4.74017187e-08,1.98914063e-01
-4.73617187e-08,1.98887500e-01
-4.73217187e-08,1.98912500e-01
-4.72817187e-08,1.98887500e-01
-4.72417187e-08,1.98912500e-01
-4.72017188e-08,1.98887500e-01
-4.71617187e-08,1.98912500e-01
-4.71217187e-08,1.98887500e-01
-4.70817187e-08,1.98912500e-01
-4.70417187e-08,1.98887500e-01
-4.70017187e-08,1.98912500e-01
-4.69617187e-08,1.98885937e-01
-4.69217188e-08,1.98914063e-01
-4.68817187e-08,1.98884375e-01
-4.68417187e-08,1.98917188e-01
-4.68017187e-08,1.98881250e-01
-4.67617187e-08,1.98921875e-01
-4.67217187e-08,1.98873437e-01
-4.66817187e-08,1.98935937e-01
-4.66417187e-08,1.98839062e-01
-4.66017187e-08,1.99114063e-01
-4.65617187e-08,1.99346875e-01
-4.65217187e-08,1.99276563e-01
-4.64817187e-08,1.99314062e-01
-4.64417187e-08,1.99292187e-01
-4.64017187e-08,1.99304688e-01
-4.63617187e-08,1.99296875e-01
-4.63217187e-08,1.99301563e-01
-4.62817187e-08,1.99301563e-01
-4.62417187e-08,1.99296875e-01
-4.62017187e-08,1.99304688e-01
-4.61617187e-08,1.99293750e-01
-4.61217187e-08,1.99307813e-01
-4.60817187e-08,1.99290625e-01
-4.60417187e-08,1.99314062e-01
-4.60017187e-08,1.99281250e-01
-4.59617187e-08,1.99328125e-01
-4.59217187e-08,1.99245312e-01
-4.58817187e-08,1.99507812e-01
-4.58417187e-08,1.99754687e-01
-4.58017187e-08,1.99670313e-01
-4.57617187e-08,1.99720312e-01
-4.57217187e-08,1.99684375e-01
-4.56817187e-08,1.99712500e-01
-4.56417187e-08,1.99690625e-01
-4.56017187e-08,1.99707812e-01
-4.55617188e-08,1.99693750e-01
-4.55217187e-08,1.99704688e-01
-4.54817187e-08,1.99696875e-01
-4.54417187e-08,1.99701563e-01
-4.54017187e-08,1.99700000e-01
-4.53617187e-08,1.99698437e-01
-4.53217187e-08,1.99703125e-01
-4.52817188e-08,1.99693750e-01
-4.52417187e-08,1.99710938e-01
-4.52017187e-08,1.99678125e-01
-4.51617187e-08,1.99746875e-01
-4.51217187e-08,1.99501563e-01
-4.50817187e-08,1.99235938e-01
-4.50417187e-08,1.99340625e-01
-4.50017188e-08,1.99268750e-01
-4.49617187e-08,1.99326562e-01
-4.49217187e-08,1.99275000e-01
-4.48817187e-08,1.99325000e-01
-4.48417187e-08,1.99273438e-01
-4.48017187e-08,1.99329688e-01
-4.47617187e-08,1.99262500e-01
-4.47217188e-08,1.99360938e-01
-4.46817187e-08,1.99085938e-01
-4.46417187e-08,1.98850000e-01
-4.46017187e-08,1.98928125e-01
-4.45617187e-08,1.98879688e-01
-4.45217187e-08,1.98917188e-01
-4.44817187e-08,1.98882813e-01
-4.44417187e-08,1.98920313e-01
-4.44017187e-08,1.98871875e-01
-4.43617187e-08,1.98951563e-01
-4.43217187e-08,1.98695312e-01
-4.42817187e-08,1.98440625e-01
-4.42417187e-08,1.98535938e-01
-4.42017187e-08,1.98471875e-01
-4.41617187e-08,1.98525000e-01
-4.41217187e-08,1.98476563e-01
-4.40817187e-08,1.98523438e-01
-4.40417187e-08,1.98475000e-01
-4.40017187e-08,1.98529687e-01
-4.39617187e-08,1.98462500e-01
-4.39217188e-08,1.98562500e-01
-4.38817187e-08,1.98285938e-01
-4.38417187e-08,1.98051563e-01
-4.38017187e-08,1.98125000e-01
-4.37617187e-08,1.98084375e-01
-4.37217187e-08,1.98110938e-01
-4.36817187e-08,1.98090625e-01
-4.36417188e-08,1.98107813e-01
-4.36017187e-08,1.98093750e-01
-4.35617187e-08,1.98106250e-01
-4.35217187e-08,1.98095313e-01
-4.34817187e-08,1.98104688e-01
-4.34417187e-08,1.98095313e-01
-4.34017187e-08,1.98106250e-01
-4.33617188e-08,1.98093750e-01
-4.33217187e-08,1.98107813e-01
-4.32817187e-08,1.98090625e-01
-4.32417187e-08,1.98112500e-01
-4.32017187e-08,1.98082813e-01
-4.31617187e-08,1.98126563e-01
-4.31217187e-08,1.98048438e-01
-4.30817188e-08,1.98304688e-01
-4.30417187e-08,1.98557813e-01
-4.30017187e-08,1.98465625e-01
-4.29617187e-08,1.98526563e-01
-4.29217187e-08,1.98478125e-01
-4.28817187e-08,1.98518750e-01
-4.28417187e-08,1.98482812e-01
-4.28017188e-08,1.98515625e-01
-4.27617187e-08,1.98485938e-01
-4.27217187e-08,1.98514063e-01
-4.26817187e-08,1.98485938e-01
-4.26417187e-08,1.98514063e-01
-4.26017187e-08,1.98487500e-01
-4.25617187e-08,1.98514063e-01
-4.25217188e-08,1.98485938e-01
-4.24817187e-08,1.98514063e-01
-4.24417187e-08,1.98485938e-01
-4.24017187e-08,1.98515625e-01
-4.23617187e-08,1.98484375e-01
-4.23217187e-08,1.98517187e-01
-4.22817187e-08,1.98481250e-01
-4.22417187e-08,1.98520313e-01
-4.22017187e-08,1.98476563e-01
-4.21617187e-08,1.98528125e-01
-4.21217187e-08,1.98460938e-01
-4.20817187e-08,1.98564062e-01
-4.20417187e-08,1.98282813e-01
-4.20017188e-08,1.98054687e-01
-4.19617187e-08,1.98121875e-01
-4.19217187e-08,1.98087500e-01
-4.18817187e-08,1.98106250e-01
-4.18417187e-08,1.98096875e-01
-4.18017187e-08,1.98100000e-01
-4.17617187e-08,1.98101562e-01
-4.17217188e-08,1.98096875e-01
-4.16817187e-08,1.98104688e-01
-4.16417187e-08,1.98093750e-01
-4.16017187e-08,1.98107813e-01
-4.15617187e-08,1.98090625e-01
-4.15217187e-08,1.98112500e-01
-4.14817187e-08,1.98084375e-01
-4.14417188e-08,1.98121875e-01
-4.14017187e-08,1.98068750e-01
-4.13617187e-08,1.98156250e-01
-4.13217187e-08,1.97889063e-01
-4.12817187e-08,1.97648437e-01
-4.12417187e-08,1.97726563e-01
-4.12017187e-08,1.97682812e-01
-4.11617188e-08,1.97710938e-01
-4.11217187e-08,1.97692188e-01
-4.10817187e-08,1.97704688e-01
-4.10417187e-08,1.97696875e-01
-4.10017187e-08,1.97700000e-01
-4.09617187e-08,1.97701563e-01
-4.09217187e-08,1.97695312e-01
-4.08817188e-08,1.97707812e-01
-4.08417187e-08,1.97685938e-01
-4.08017187e-08,1.97723438e-01
-4.07617187e-08,1.97651563e-01
-4.07217187e-08,1.97903125e-01
-4.06817187e-08,1.98159375e-01
-4.06417187e-08,1.98064062e-01
-4.06017188e-08,1.98126563e-01
-4.05617187e-08,1.98078125e-01
-4.05217187e-08,1.98118750e-01
-4.04817187e-08,1.98084375e-01
-4.04417187e-08,1.98115625e-01
-4.04017187e-08,1.98085938e-01
-4.03617187e-08,1.98114063e-01
-4.03217188e-08,1.98087500e-01
-4.02817187e-08,1.98112500e-01
-4.02417187e-08,1.98087500e-01
-4.02017187e-08,1.98112500e-01
-4.01617187e-08,1.98085938e-01
-4.01217187e-08,1.98115625e-01
-4.00817188e-08,1.98082813e-01
-4.00417187e-08,1.98118750e-01
-4.00017187e-08,1.98076562e-01
-3.99617187e-08,1.98132813e-01
-3.99217187e-08,1.98042188e-01
-3.98817187e-08,1.98310938e-01
-3.98417187e-08,1.98551563e-01
-3.98017188e-08,1.98471875e-01
-3.97617187e-08,1.98518750e-01
-3.97217187e-08,1.98485938e-01
-3.96817187e-08,1.98510938e-01
-3.96417187e-08,1.98490625e-01
-3.96017187e-08,1.98507813e-01
-3.95617187e-08,1.98492188e-01
-3.95217188e-08,1.98506250e-01
-3.94817187e-08,1.98493750e-01
-3.94417187e-08,1.98506250e-01
-3.94017187e-08,1.98493750e-01
-3.93617187e-08,1.98506250e-01
-3.93217187e-08,1.98495313e-01
-3.92817187e-08,1.98504687e-01
-3.92417188e-08,1.98493750e-01
-3.92017187e-08,1.98506250e-01
-3.91617187e-08,1.98493750e-01
-3.91217187e-08,1.98506250e-01
-3.90817187e-08,1.98493750e-01
-3.90417187e-08,1.98507813e-01
-3.90017187e-08,1.98492188e-01
-3.89617188e-08,1.98509375e-01
-3.89217187e-08,1.98489063e-01
-3.88817187e-08,1.98512500e-01
-3.88417187e-08,1.98484375e-01
-3.88017187e-08,1.98520313e-01
-3.87617187e-08,1.98470312e-01
-3.87217187e-08,1.98554687e-01
-3.86817188e-08,1.98292187e-01
-3.86417187e-08,1.98045313e-01
-3.86017187e-08,1.98131250e-01
-3.85617187e-08,1.98078125e-01
-3.85217187e-08,1.98117188e-01
