trails/0b415fe76bd122fbe60d5dd91566c6d8/aes_ch1_20250507111838236.csv

Model,MSO66B
Label,
Waveform Type,ANALOG
Horizontal Units,s
Sample Interval,4.00000000e-11
Record Length,10000
Zero Index,1599.19531250
Vertical Units,A
ANALOG_Thumbnail,
yOffset,1.84500000e-01
yPosition,8.40000000e-01

Labels,
TIME,CH1
-6.39678125e-08,2.01300000e-01
-6.39278125e-08,2.01300000e-01
-6.38878125e-08,2.01300000e-01
-6.38478125e-08,2.01300000e-01
-6.38078125e-08,2.01301563e-01
-6.37678125e-08,2.01298438e-01
-6.37278125e-08,2.01301563e-01
-6.36878125e-08,2.01298438e-01
-6.36478125e-08,2.01303125e-01
-6.36078125e-08,2.01296875e-01
-6.35678125e-08,2.01303125e-01
-6.35278125e-08,2.01295313e-01
-6.34878125e-08,2.01304687e-01
-6.34478125e-08,2.01293750e-01
-6.34078125e-08,2.01306250e-01
-6.33678125e-08,2.01292187e-01
-6.33278125e-08,2.01309375e-01
-6.32878125e-08,2.01287500e-01
-6.32478125e-08,2.01315625e-01
-6.32078125e-08,2.01279687e-01
-6.31678125e-08,2.01329688e-01
-6.31278125e-08,2.01245312e-01
-6.30878125e-08,2.01509375e-01
-6.30478125e-08,2.01753125e-01
-6.30078125e-08,2.01670313e-01
-6.29678125e-08,2.01718750e-01
-6.29278125e-08,2.01685938e-01
-6.28878125e-08,2.01710938e-01
-6.28478125e-08,2.01692188e-01
-6.28078125e-08,2.01704688e-01
-6.27678125e-08,2.01696875e-01
-6.27278125e-08,2.01700000e-01
-6.26878125e-08,2.01701563e-01
-6.26478125e-08,2.01693750e-01
-6.26078125e-08,2.01710938e-01
-6.25678125e-08,2.01678125e-01
-6.25278125e-08,2.01746875e-01
-6.24878125e-08,2.01500000e-01
-6.24478125e-08,2.01237500e-01
-6.24078125e-08,2.01337500e-01
-6.23678125e-08,2.01271875e-01
-6.23278125e-08,2.01321875e-01
-6.22878125e-08,2.01281250e-01
-6.22478125e-08,2.01315625e-01
-6.22078125e-08,2.01285938e-01
-6.21678125e-08,2.01312500e-01
-6.21278125e-08,2.01290625e-01
-6.20878125e-08,2.01306250e-01
-6.20478125e-08,2.01298438e-01
-6.20078125e-08,2.01292187e-01
-6.19678125e-08,2.01331250e-01
-6.19278125e-08,2.01115625e-01
-6.18878125e-08,2.00820313e-01
-6.18478125e-08,2.00957812e-01
-6.18078125e-08,2.00848438e-01
-6.17678125e-08,2.00953125e-01
-6.17278125e-08,2.00840625e-01
-6.16878125e-08,2.00982812e-01
-6.16478125e-08,2.00664063e-01
-6.16078125e-08,2.00473438e-01
-6.15678125e-08,2.00501563e-01
-6.15278125e-08,2.00509375e-01
-6.14878125e-08,2.00482812e-01
-6.14478125e-08,2.00525000e-01
-6.14078125e-08,2.00462500e-01
-6.13678125e-08,2.00564063e-01
-6.13278125e-08,2.00281250e-01
-6.12878125e-08,2.00057813e-01
-6.12478125e-08,2.00115625e-01
-6.12078125e-08,2.00095313e-01
-6.11678125e-08,2.00095313e-01
-6.11278125e-08,2.00112500e-01
-6.10878125e-08,2.00076562e-01
-6.10478125e-08,2.00150000e-01
-6.10078125e-08,1.99895313e-01
-6.09678125e-08,1.99643750e-01
-6.09278125e-08,1.99731250e-01
-6.08878125e-08,1.99678125e-01
-6.08478125e-08,1.99715625e-01
-6.08078125e-08,1.99687500e-01
-6.07678125e-08,1.99709375e-01
-6.07278125e-08,1.99692188e-01
-6.06878125e-08,1.99706250e-01
-6.06478125e-08,1.99695312e-01
-6.06078125e-08,1.99704688e-01
-6.05678125e-08,1.99696875e-01
-6.05278125e-08,1.99703125e-01
-6.04878125e-08,1.99698437e-01
-6.04478125e-08,1.99701563e-01
-6.04078125e-08,1.99700000e-01
-6.03678125e-08,1.99700000e-01
-6.03278125e-08,1.99700000e-01
-6.02878125e-08,1.99698437e-01
-6.02478125e-08,1.99701563e-01
-6.02078125e-08,1.99698437e-01
-6.01678125e-08,1.99703125e-01
-6.01278125e-08,1.99696875e-01
-6.00878125e-08,1.99703125e-01
-6.00478125e-08,1.99695312e-01
-6.00078125e-08,1.99704688e-01
-5.99678125e-08,1.99693750e-01
-5.99278125e-08,1.99707812e-01
-5.98878125e-08,1.99690625e-01
-5.98478125e-08,1.99710938e-01
-5.98078125e-08,1.99687500e-01
-5.97678125e-08,1.99715625e-01
-5.97278125e-08,1.99678125e-01
-5.96878125e-08,1.99731250e-01
-5.96478125e-08,1.99643750e-01
-5.96078125e-08,1.99909375e-01
-5.95678125e-08,2.00151563e-01
-5.95278125e-08,2.00071875e-01
-5.94878125e-08,2.00118750e-01
-5.94478125e-08,2.00087500e-01
-5.94078125e-08,2.00109375e-01
-5.93678125e-08,2.00092188e-01
-5.93278125e-08,2.00104688e-01
-5.92878125e-08,2.00096875e-01
-5.92478125e-08,2.00101562e-01
-5.92078125e-08,2.00100000e-01
-5.91678125e-08,2.00098438e-01
-5.91278125e-08,2.00103125e-01
-5.90878125e-08,2.00093750e-01
-5.90478125e-08,2.00109375e-01
-5.90078125e-08,2.00085938e-01
-5.89678125e-08,2.00125000e-01
-5.89278125e-08,2.00050000e-01
-5.88878125e-08,2.00303125e-01
-5.88478125e-08,2.00559375e-01
-5.88078125e-08,2.00464063e-01
-5.87678125e-08,2.00526563e-01
-5.87278125e-08,2.00479688e-01
-5.86878125e-08,2.00517187e-01
-5.86478125e-08,2.00484375e-01
-5.86078125e-08,2.00514063e-01
-5.85678125e-08,2.00485938e-01
-5.85278125e-08,2.00512500e-01
-5.84878125e-08,2.00487500e-01
-5.84478125e-08,2.00512500e-01
-5.84078125e-08,2.00487500e-01
-5.83678125e-08,2.00512500e-01
-5.83278125e-08,2.00487500e-01
-5.82878125e-08,2.00514063e-01
-5.82478125e-08,2.00484375e-01
-5.82078125e-08,2.00517187e-01
-5.81678125e-08,2.00478125e-01
-5.81278125e-08,2.00531250e-01
-5.80878125e-08,2.00443750e-01
-5.80478125e-08,2.00707812e-01
-5.80078125e-08,2.00954688e-01
-5.79678125e-08,2.00868750e-01
-5.79278125e-08,2.00921875e-01
-5.78878125e-08,2.00881250e-01
-5.78478125e-08,2.00915625e-01
-5.78078125e-08,2.00884375e-01
-5.77678125e-08,2.00914063e-01
-5.77278125e-08,2.00884375e-01
-5.76878125e-08,2.00915625e-01
-5.76478125e-08,2.00882813e-01
-5.76078125e-08,2.00920313e-01
-5.75678125e-08,2.00875000e-01
-5.75278125e-08,2.00934375e-01
-5.74878125e-08,2.00840625e-01
-5.74478125e-08,2.01112500e-01
-5.74078125e-08,2.01350000e-01
-5.73678125e-08,2.01275000e-01
-5.73278125e-08,2.01315625e-01
-5.72878125e-08,2.01290625e-01
-5.72478125e-08,2.01306250e-01
-5.72078125e-08,2.01296875e-01
-5.71678125e-08,2.01301563e-01
-5.71278125e-08,2.01301563e-01
-5.70878125e-08,2.01295313e-01
-5.70478125e-08,2.01307813e-01
-5.70078125e-08,2.01285938e-01
-5.69678125e-08,2.01323438e-01
-5.69278125e-08,2.01250000e-01
-5.68878125e-08,2.01503125e-01
-5.68478125e-08,2.01759375e-01
-5.68078125e-08,2.01665625e-01
-5.67678125e-08,2.01725000e-01
-5.67278125e-08,2.01679688e-01
-5.66878125e-08,2.01717188e-01
-5.66478125e-08,2.01685938e-01
-5.66078125e-08,2.01712500e-01
-5.65678125e-08,2.01689063e-01
-5.65278125e-08,2.01709375e-01
-5.64878125e-08,2.01690625e-01
-5.64478125e-08,2.01707812e-01
-5.64078125e-08,2.01693750e-01
-5.63678125e-08,2.01706250e-01
-5.63278125e-08,2.01695313e-01
-5.62878125e-08,2.01704688e-01
-5.62478125e-08,2.01696875e-01
-5.62078125e-08,2.01701563e-01
-5.61678125e-08,2.01701563e-01
-5.61278125e-08,2.01695313e-01
-5.60878125e-08,2.01709375e-01
-5.60478125e-08,2.01681250e-01
-5.60078125e-08,2.01742188e-01
-5.59678125e-08,2.01504688e-01
-5.59278125e-08,2.01232812e-01
-5.58878125e-08,2.01343750e-01
-5.58478125e-08,2.01264063e-01
-5.58078125e-08,2.01332813e-01
-5.57678125e-08,2.01267187e-01
-5.57278125e-08,2.01335938e-01
-5.56878125e-08,2.01256250e-01
-5.56478125e-08,2.01365625e-01
-5.56078125e-08,2.01082813e-01
-5.55678125e-08,2.00854688e-01
-5.55278125e-08,2.00923437e-01
-5.54878125e-08,2.00884375e-01
-5.54478125e-08,2.00914063e-01
-5.54078125e-08,2.00885938e-01
-5.53678125e-08,2.00917188e-01
-5.53278125e-08,2.00875000e-01
-5.52878125e-08,2.00948438e-01
-5.52478125e-08,2.00700000e-01
-5.52078125e-08,2.00437500e-01
-5.51678125e-08,2.00540625e-01
-5.51278125e-08,2.00467188e-01
-5.50878125e-08,2.00528125e-01
-5.50478125e-08,2.00473438e-01
-5.50078125e-08,2.00528125e-01
-5.49678125e-08,2.00470312e-01
-5.49278125e-08,2.00532813e-01
-5.48878125e-08,2.00457812e-01
-5.48478125e-08,2.00567188e-01
-5.48078125e-08,2.00281250e-01
-5.47678125e-08,2.00056250e-01
-5.47278125e-08,2.00120313e-01
-5.46878125e-08,2.00089062e-01
-5.46478125e-08,2.00106250e-01
-5.46078125e-08,2.00096875e-01
-5.45678125e-08,2.00101562e-01
-5.45278125e-08,2.00100000e-01
-5.44878125e-08,2.00098438e-01
-5.44478125e-08,2.00101562e-01
-5.44078125e-08,2.00096875e-01
-5.43678125e-08,2.00103125e-01
-5.43278125e-08,2.00096875e-01
-5.42878125e-08,2.00103125e-01
-5.42478125e-08,2.00095313e-01
-5.42078125e-08,2.00104688e-01
-5.41678125e-08,2.00095313e-01
-5.41278125e-08,2.00104688e-01
-5.40878125e-08,2.00095313e-01
-5.40478125e-08,2.00106250e-01
-5.40078125e-08,2.00093750e-01
-5.39678125e-08,2.00106250e-01
-5.39278125e-08,2.00093750e-01
-5.38878125e-08,2.00106250e-01
-5.38478125e-08,2.00092188e-01
-5.38078125e-08,2.00107813e-01
-5.37678125e-08,2.00092188e-01
-5.37278125e-08,2.00107813e-01
-5.36878125e-08,2.00090625e-01
-5.36478125e-08,2.00109375e-01
-5.36078125e-08,2.00089062e-01
-5.35678125e-08,2.00110938e-01
-5.35278125e-08,2.00087500e-01
-5.34878125e-08,2.00114063e-01
-5.34478125e-08,2.00084375e-01
-5.34078125e-08,2.00118750e-01
-5.33678125e-08,2.00075000e-01
-5.33278125e-08,2.00134375e-01
-5.32878125e-08,2.00040625e-01
-5.32478125e-08,2.00312500e-01
-5.32078125e-08,2.00550000e-01
-5.31678125e-08,2.00473438e-01
-5.31278125e-08,2.00517187e-01
-5.30878125e-08,2.00487500e-01
-5.30478125e-08,2.00509375e-01
-5.30078125e-08,2.00493750e-01
-5.29678125e-08,2.00504688e-01
-5.29278125e-08,2.00495313e-01
-5.28878125e-08,2.00503125e-01
-5.28478125e-08,2.00496875e-01
-5.28078125e-08,2.00501563e-01
-5.27678125e-08,2.00498438e-01
-5.27278125e-08,2.00500000e-01
-5.26878125e-08,2.00500000e-01
-5.26478125e-08,2.00500000e-01
-5.26078125e-08,2.00500000e-01
-5.25678125e-08,2.00500000e-01
-5.25278125e-08,2.00501563e-01
-5.24878125e-08,2.00498438e-01
-5.24478125e-08,2.00501563e-01
-5.24078125e-08,2.00498438e-01
-5.23678125e-08,2.00501563e-01
-5.23278125e-08,2.00496875e-01
-5.22878125e-08,2.00503125e-01
-5.22478125e-08,2.00496875e-01
-5.22078125e-08,2.00503125e-01
-5.21678125e-08,2.00496875e-01
-5.21278125e-08,2.00503125e-01
-5.20878125e-08,2.00495313e-01
-5.20478125e-08,2.00504688e-01
-5.20078125e-08,2.00495313e-01
-5.19678125e-08,2.00506250e-01
-5.19278125e-08,2.00493750e-01
-5.18878125e-08,2.00506250e-01
-5.18478125e-08,2.00492188e-01
-5.18078125e-08,2.00509375e-01
-5.17678125e-08,2.00489063e-01
-5.17278125e-08,2.00512500e-01
-5.16878125e-08,2.00484375e-01
-5.16478125e-08,2.00520313e-01
-5.16078125e-08,2.00470312e-01
-5.15678125e-08,2.00554687e-01
-5.15278125e-08,2.00292187e-01
-5.14878125e-08,2.00045313e-01
-5.14478125e-08,2.00129688e-01
-5.14078125e-08,2.00079688e-01
-5.13678125e-08,2.00115625e-01
-5.13278125e-08,2.00087500e-01
-5.12878125e-08,2.00110938e-01
-5.12478125e-08,2.00090625e-01
-5.12078125e-08,2.00109375e-01
-5.11678125e-08,2.00090625e-01
-5.11278125e-08,2.00107813e-01
-5.10878125e-08,2.00092188e-01
-5.10478125e-08,2.00107813e-01
-5.10078125e-08,2.00092188e-01
-5.09678125e-08,2.00109375e-01
-5.09278125e-08,2.00090625e-01
-5.08878125e-08,2.00112500e-01
-5.08478125e-08,2.00085938e-01
-5.08078125e-08,2.00118750e-01
-5.07678125e-08,2.00071875e-01
-5.07278125e-08,2.00153125e-01
-5.06878125e-08,1.99895313e-01
-5.06478125e-08,1.99642188e-01
-5.06078125e-08,1.99734375e-01
-5.05678125e-08,1.99673437e-01
-5.05278125e-08,1.99721875e-01
-5.04878125e-08,1.99679688e-01
-5.04478125e-08,1.99720312e-01
-5.04078125e-08,1.99678125e-01
-5.03678125e-08,1.99726563e-01
-5.03278125e-08,1.99665625e-01
-5.02878125e-08,1.99757813e-01
-5.02478125e-08,1.99489063e-01
-5.02078125e-08,1.99246875e-01
-5.01678125e-08,1.99329688e-01
-5.01278125e-08,1.99278125e-01
-5.00878125e-08,1.99318750e-01
-5.00478125e-08,1.99281250e-01
-5.00078125e-08,1.99321875e-01
-4.99678125e-08,1.99270313e-01
-4.99278125e-08,1.99353125e-01
-4.98878125e-08,1.99093750e-01
-4.98478125e-08,1.98842188e-01
-4.98078125e-08,1.98935937e-01
-4.97678125e-08,1.98873437e-01
-4.97278125e-08,1.98923438e-01
-4.96878125e-08,1.98878125e-01
-4.96478125e-08,1.98921875e-01
-4.96078125e-08,1.98875000e-01
-4.95678125e-08,1.98928125e-01
-4.95278125e-08,1.98862500e-01
-4.94878125e-08,1.98962500e-01
-4.94478125e-08,1.98685938e-01
-4.94078125e-08,1.98451563e-01
-4.93678125e-08,1.98525000e-01
-4.93278125e-08,1.98484375e-01
-4.92878125e-08,1.98510938e-01
-4.92478125e-08,1.98492188e-01
-4.92078125e-08,1.98504687e-01
-4.91678125e-08,1.98495313e-01
-4.91278125e-08,1.98503125e-01
-4.90878125e-08,1.98498438e-01
-4.90478125e-08,1.98501563e-01
-4.90078125e-08,1.98498438e-01
-4.89678125e-08,1.98500000e-01
-4.89278125e-08,1.98500000e-01
-4.88878125e-08,1.98500000e-01
-4.88478125e-08,1.98500000e-01
-4.88078125e-08,1.98498438e-01
-4.87678125e-08,1.98501563e-01
-4.87278125e-08,1.98498438e-01
-4.86878125e-08,1.98501563e-01
-4.86478125e-08,1.98498438e-01
-4.86078125e-08,1.98503125e-01
-4.85678125e-08,1.98496875e-01
-4.85278125e-08,1.98503125e-01
-4.84878125e-08,1.98496875e-01
-4.84478125e-08,1.98503125e-01
-4.84078125e-08,1.98496875e-01
-4.83678125e-08,1.98504687e-01
-4.83278125e-08,1.98495313e-01
-4.82878125e-08,1.98504687e-01
-4.82478125e-08,1.98493750e-01
-4.82078125e-08,1.98506250e-01
-4.81678125e-08,1.98493750e-01
-4.81278125e-08,1.98507813e-01
-4.80878125e-08,1.98490625e-01
-4.80478125e-08,1.98510938e-01
-4.80078125e-08,1.98487500e-01
-4.79678125e-08,1.98515625e-01
-4.79278125e-08,1.98479688e-01
-4.78878125e-08,1.98529687e-01
-4.78478125e-08,1.98445312e-01
-4.78078125e-08,1.98707812e-01
-4.77678125e-08,1.98954688e-01
-4.77278125e-08,1.98868750e-01
-4.76878125e-08,1.98921875e-01
-4.76478125e-08,1.98882813e-01
-4.76078125e-08,1.98915625e-01
-4.75678125e-08,1.98885937e-01
-4.75278125e-08,1.98914063e-01
-4.74878125e-08,1.98885937e-01
-4.74478125e-08,1.98917188e-01
-4.74078125e-08,1.98879688e-01
-4.73678125e-08,1.98929688e-01
-4.73278125e-08,1.98846875e-01
-4.72878125e-08,1.99106250e-01
-4.72478125e-08,1.99357813e-01
-4.72078125e-08,1.99265625e-01
-4.71678125e-08,1.99326562e-01
-4.71278125e-08,1.99276563e-01
-4.70878125e-08,1.99321875e-01
-4.70478125e-08,1.99278125e-01
-4.70078125e-08,1.99323438e-01
-4.69678125e-08,1.99271875e-01
-4.69278125e-08,1.99337500e-01
-4.68878125e-08,1.99237500e-01
-4.68478125e-08,1.99514063e-01
-4.68078125e-08,1.99748438e-01
-4.67678125e-08,1.99675000e-01
-4.67278125e-08,1.99715625e-01
-4.66878125e-08,1.99689063e-01
-4.66478125e-08,1.99707812e-01
-4.66078125e-08,1.99695312e-01
-4.65678125e-08,1.99703125e-01
-4.65278125e-08,1.99696875e-01
-4.64878125e-08,1.99701563e-01
-4.64478125e-08,1.99698437e-01
-4.64078125e-08,1.99700000e-01
-4.63678125e-08,1.99700000e-01
-4.63278125e-08,1.99700000e-01
-4.62878125e-08,1.99701563e-01
-4.62478125e-08,1.99698437e-01
-4.62078125e-08,1.99701563e-01
-4.61678125e-08,1.99696875e-01
-4.61278125e-08,1.99703125e-01
-4.60878125e-08,1.99696875e-01
-4.60478125e-08,1.99703125e-01
-4.60078125e-08,1.99695312e-01
-4.59678125e-08,1.99704688e-01
-4.59278125e-08,1.99695312e-01
-4.58878125e-08,1.99706250e-01
-4.58478125e-08,1.99693750e-01
-4.58078125e-08,1.99706250e-01
-4.57678125e-08,1.99692188e-01
-4.57278125e-08,1.99707812e-01
-4.56878125e-08,1.99690625e-01
-4.56478125e-08,1.99710938e-01
-4.56078125e-08,1.99687500e-01
-4.55678125e-08,1.99715625e-01
-4.55278125e-08,1.99681250e-01
-4.54878125e-08,1.99723438e-01
-4.54478125e-08,1.99665625e-01
-4.54078125e-08,1.99759375e-01
-4.53678125e-08,1.99487500e-01
-4.53278125e-08,1.99251563e-01
-4.52878125e-08,1.99325000e-01
-4.52478125e-08,1.99285938e-01
-4.52078125e-08,1.99307813e-01
-4.51678125e-08,1.99295313e-01
-4.51278125e-08,1.99300000e-01
-4.50878125e-08,1.99303125e-01
-4.50478125e-08,1.99292187e-01
-4.50078125e-08,1.99314062e-01
-4.49678125e-08,1.99276563e-01
-4.49278125e-08,1.99348438e-01
-4.48878125e-08,1.99096875e-01
-4.48478125e-08,1.98840625e-01
-4.48078125e-08,1.98934375e-01
-4.47678125e-08,1.98875000e-01
-4.47278125e-08,1.98920313e-01
-4.46878125e-08,1.98882813e-01
-4.46478125e-08,1.98914063e-01
-4.46078125e-08,1.98887500e-01
-4.45678125e-08,1.98910937e-01
-4.45278125e-08,1.98890625e-01
-4.44878125e-08,1.98909375e-01
-4.44478125e-08,1.98892188e-01
-4.44078125e-08,1.98907813e-01
-4.43678125e-08,1.98892188e-01
-4.43278125e-08,1.98906250e-01
-4.42878125e-08,1.98893750e-01
-4.42478125e-08,1.98906250e-01
-4.42078125e-08,1.98893750e-01
-4.41678125e-08,1.98904688e-01
-4.41278125e-08,1.98895313e-01
-4.40878125e-08,1.98904688e-01
-4.40478125e-08,1.98895313e-01
-4.40078125e-08,1.98904688e-01
-4.39678125e-08,1.98896875e-01
-4.39278125e-08,1.98903125e-01
-4.38878125e-08,1.98896875e-01
-4.38478125e-08,1.98903125e-01
-4.38078125e-08,1.98896875e-01
-4.37678125e-08,1.98903125e-01
-4.37278125e-08,1.98896875e-01
-4.36878125e-08,1.98903125e-01
-4.36478125e-08,1.98898437e-01
-4.36078125e-08,1.98901563e-01
-4.35678125e-08,1.98898437e-01
-4.35278125e-08,1.98901563e-01
-4.34878125e-08,1.98898437e-01
-4.34478125e-08,1.98901563e-01
-4.34078125e-08,1.98898437e-01
-4.33678125e-08,1.98901563e-01
-4.33278125e-08,1.98900000e-01
-4.32878125e-08,1.98900000e-01
-4.32478125e-08,1.98900000e-01
-4.32078125e-08,1.98900000e-01
-4.31678125e-08,1.98900000e-01
-4.31278125e-08,1.98900000e-01
-4.30878125e-08,1.98901563e-01
-4.30478125e-08,1.98898437e-01
-4.30078125e-08,1.98901563e-01
-4.29678125e-08,1.98898437e-01
-4.29278125e-08,1.98901563e-01
-4.28878125e-08,1.98896875e-01
-4.28478125e-08,1.98903125e-01
-4.28078125e-08,1.98896875e-01
-4.27678125e-08,1.98904688e-01
-4.27278125e-08,1.98895313e-01
-4.26878125e-08,1.98906250e-01
-4.26478125e-08,1.98892188e-01
-4.26078125e-08,1.98909375e-01
-4.25678125e-08,1.98889063e-01
-4.25278125e-08,1.98914063e-01
-4.24878125e-08,1.98879688e-01
-4.24478125e-08,1.98929688e-01
-4.24078125e-08,1.98845313e-01
-4.23678125e-08,1.99107813e-01
-4.23278125e-08,1.99353125e-01
-4.22878125e-08,1.99270313e-01
-4.22478125e-08,1.99318750e-01
-4.22078125e-08,1.99285938e-01
-4.21678125e-08,1.99309375e-01
-4.21278125e-08,1.99293750e-01
-4.20878125e-08,1.99303125e-01
-4.20478125e-08,1.99301563e-01
-4.20078125e-08,1.99293750e-01
-4.19678125e-08,1.99317187e-01
-4.19278125e-08,1.99257813e-01
-4.18878125e-08,1.99495313e-01
-4.18478125e-08,1.99767187e-01
-4.18078125e-08,1.99656250e-01
-4.17678125e-08,1.99734375e-01
-4.17278125e-08,1.99668750e-01
-4.16878125e-08,1.99728125e-01
-4.16478125e-08,1.99671875e-01
-4.16078125e-08,1.99729688e-01
-4.15678125e-08,1.99665625e-01
-4.15278125e-08,1.99742188e-01
-4.14878125e-08,1.99632813e-01
-4.14478125e-08,1.99918750e-01
-4.14078125e-08,2.00143750e-01
-4.13678125e-08,2.00079688e-01
-4.13278125e-08,2.00112500e-01
-4.12878125e-08,2.00092188e-01
-4.12478125e-08,2.00104688e-01
-4.12078125e-08,2.00096875e-01
-4.11678125e-08,2.00101562e-01
-4.11278125e-08,2.00098438e-01
-4.10878125e-08,2.00100000e-01
-4.10478125e-08,2.00100000e-01
-4.10078125e-08,2.00100000e-01
-4.09678125e-08,2.00100000e-01
-4.09278125e-08,2.00098438e-01
-4.08878125e-08,2.00101562e-01
-4.08478125e-08,2.00098438e-01
-4.08078125e-08,2.00101562e-01
-4.07678125e-08,2.00098438e-01
-4.07278125e-08,2.00101562e-01
-4.06878125e-08,2.00098438e-01
-4.06478125e-08,2.00101562e-01
-4.06078125e-08,2.00098438e-01
-4.05678125e-08,2.00101562e-01
-4.05278125e-08,2.00098438e-01
-4.04878125e-08,2.00101562e-01
-4.04478125e-08,2.00098438e-01
-4.04078125e-08,2.00101562e-01
-4.03678125e-08,2.00098438e-01
-4.03278125e-08,2.00101562e-01
-4.02878125e-08,2.00098438e-01
-4.02478125e-08,2.00101562e-01
-4.02078125e-08,2.00098438e-01
-4.01678125e-08,2.00100000e-01
-4.01278125e-08,2.00100000e-01
-4.00878125e-08,2.00100000e-01
-4.00478125e-08,2.00100000e-01
-4.00078125e-08,2.00100000e-01
-3.99678125e-08,2.00100000e-01
-3.99278125e-08,2.00100000e-01
-3.98878125e-08,2.00101562e-01
-3.98478125e-08,2.00098438e-01
-3.98078125e-08,2.00101562e-01
-3.97678125e-08,2.00096875e-01
-3.97278125e-08,2.00104688e-01
-3.96878125e-08,2.00093750e-01
-3.96478125e-08,2.00107813e-01
-3.96078125e-08,2.00089062e-01
-3.95678125e-08,2.00115625e-01
-3.95278125e-08,2.00075000e-01
-3.94878125e-08,2.00150000e-01
-3.94478125e-08,1.99896875e-01
-3.94078125e-08,1.99640625e-01
-3.93678125e-08,1.99735938e-01
-3.93278125e-08,1.99673437e-01
-3.92878125e-08,1.99721875e-01
-3.92478125e-08,1.99681250e-01
-3.92078125e-08,1.99717188e-01
-3.91678125e-08,1.99682813e-01
-3.91278125e-08,1.99715625e-01
-3.90878125e-08,1.99684375e-01
-3.90478125e-08,1.99715625e-01
-3.90078125e-08,1.99684375e-01
-3.89678125e-08,1.99715625e-01
-3.89278125e-08,1.99684375e-01
-3.88878125e-08,1.99717188e-01
-3.88478125e-08,1.99681250e-01
-3.88078125e-08,1.99720312e-01
-3.87678125e-08,1.99676563e-01
-3.87278125e-08,1.99728125e-01
-3.86878125e-08,1.99662500e-01
-3.86478125e-08,1.99762500e-01
-3.86078125e-08,1.99484375e-01
-3.85678125e-08,1.99253125e-01
-3.85278125e-08,1.99323438e-01
