trails/0b415fe76bd122fbe60d5dd91566c6d8/aes_ch1_20250507111405297.csv

Model,MSO66B
Label,
Waveform Type,ANALOG
Horizontal Units,s
Sample Interval,4.00000000e-11
Record Length,10000
Zero Index,1599.10937500
Vertical Units,A
ANALOG_Thumbnail,
yOffset,1.84500000e-01
yPosition,8.40000000e-01

Labels,
TIME,CH1
-6.39643750e-08,1.95296875e-01
-6.39243750e-08,1.95303125e-01
-6.38843750e-08,1.95296875e-01
-6.38443750e-08,1.95303125e-01
-6.38043750e-08,1.95296875e-01
-6.37643750e-08,1.95303125e-01
-6.37243750e-08,1.95296875e-01
-6.36843750e-08,1.95303125e-01
-6.36443750e-08,1.95296875e-01
-6.36043750e-08,1.95303125e-01
-6.35643750e-08,1.95296875e-01
-6.35243750e-08,1.95303125e-01
-6.34843750e-08,1.95296875e-01
-6.34443750e-08,1.95303125e-01
-6.34043750e-08,1.95296875e-01
-6.33643750e-08,1.95303125e-01
-6.33243750e-08,1.95296875e-01
-6.32843750e-08,1.95303125e-01
-6.32443750e-08,1.95295313e-01
-6.32043750e-08,1.95304688e-01
-6.31643750e-08,1.95295313e-01
-6.31243750e-08,1.95304688e-01
-6.30843750e-08,1.95295313e-01
-6.30443750e-08,1.95304688e-01
-6.30043750e-08,1.95295313e-01
-6.29643750e-08,1.95304688e-01
-6.29243750e-08,1.95295313e-01
-6.28843750e-08,1.95304688e-01
-6.28443750e-08,1.95295313e-01
-6.28043750e-08,1.95304688e-01
-6.27643750e-08,1.95295313e-01
-6.27243750e-08,1.95304688e-01
-6.26843750e-08,1.95293750e-01
-6.26443750e-08,1.95306250e-01
-6.26043750e-08,1.95293750e-01
-6.25643750e-08,1.95306250e-01
-6.25243750e-08,1.95293750e-01
-6.24843750e-08,1.95307813e-01
-6.24443750e-08,1.95292188e-01
-6.24043750e-08,1.95309375e-01
-6.23643750e-08,1.95290625e-01
-6.23243750e-08,1.95310938e-01
-6.22843750e-08,1.95285938e-01
-6.22443750e-08,1.95315625e-01
-6.22043750e-08,1.95278125e-01
-6.21643750e-08,1.95331250e-01
-6.21243750e-08,1.95243750e-01
-6.20843750e-08,1.95507813e-01
-6.20443750e-08,1.95753125e-01
-6.20043750e-08,1.95670312e-01
-6.19643750e-08,1.95720312e-01
-6.19243750e-08,1.95684375e-01
-6.18843750e-08,1.95714063e-01
-6.18443750e-08,1.95687500e-01
-6.18043750e-08,1.95710938e-01
-6.17643750e-08,1.95690625e-01
-6.17243750e-08,1.95709375e-01
-6.16843750e-08,1.95690625e-01
-6.16443750e-08,1.95709375e-01
-6.16043750e-08,1.95689063e-01
-6.15643750e-08,1.95710938e-01
-6.15243750e-08,1.95687500e-01
-6.14843750e-08,1.95715625e-01
-6.14443750e-08,1.95679688e-01
-6.14043750e-08,1.95729687e-01
-6.13643750e-08,1.95645313e-01
-6.13243750e-08,1.95907813e-01
-6.12843750e-08,1.96154688e-01
-6.12443750e-08,1.96068750e-01
-6.12043750e-08,1.96121875e-01
-6.11643750e-08,1.96082813e-01
-6.11243750e-08,1.96114063e-01
-6.10843750e-08,1.96087500e-01
-6.10443750e-08,1.96110937e-01
-6.10043750e-08,1.96090625e-01
-6.09643750e-08,1.96109375e-01
-6.09243750e-08,1.96090625e-01
-6.08843750e-08,1.96107813e-01
-6.08443750e-08,1.96092188e-01
-6.08043750e-08,1.96107813e-01
-6.07643750e-08,1.96092188e-01
-6.07243750e-08,1.96107813e-01
-6.06843750e-08,1.96092188e-01
-6.06443750e-08,1.96107813e-01
-6.06043750e-08,1.96092188e-01
-6.05643750e-08,1.96107813e-01
-6.05243750e-08,1.96092188e-01
-6.04843750e-08,1.96107813e-01
-6.04443750e-08,1.96092188e-01
-6.04043750e-08,1.96107813e-01
-6.03643750e-08,1.96092188e-01
-6.03243750e-08,1.96107813e-01
-6.02843750e-08,1.96092188e-01
-6.02443750e-08,1.96107813e-01
-6.02043750e-08,1.96092188e-01
-6.01643750e-08,1.96107813e-01
-6.01243750e-08,1.96092188e-01
-6.00843750e-08,1.96107813e-01
-6.00443750e-08,1.96090625e-01
-6.00043750e-08,1.96109375e-01
-5.99643750e-08,1.96090625e-01
-5.99243750e-08,1.96110937e-01
-5.98843750e-08,1.96089063e-01
-5.98443750e-08,1.96112500e-01
-5.98043750e-08,1.96087500e-01
-5.97643750e-08,1.96114063e-01
-5.97243750e-08,1.96082813e-01
-5.96843750e-08,1.96120313e-01
-5.96443750e-08,1.96075000e-01
-5.96043750e-08,1.96134375e-01
-5.95643750e-08,1.96040625e-01
-5.95243750e-08,1.96312500e-01
-5.94843750e-08,1.96550000e-01
-5.94443750e-08,1.96473438e-01
-5.94043750e-08,1.96517187e-01
-5.93643750e-08,1.96489063e-01
-5.93243750e-08,1.96507813e-01
-5.92843750e-08,1.96493750e-01
-5.92443750e-08,1.96504687e-01
-5.92043750e-08,1.96496875e-01
-5.91643750e-08,1.96503125e-01
-5.91243750e-08,1.96496875e-01
-5.90843750e-08,1.96501563e-01
-5.90443750e-08,1.96498438e-01
-5.90043750e-08,1.96501563e-01
-5.89643750e-08,1.96500000e-01
-5.89243750e-08,1.96500000e-01
-5.88843750e-08,1.96500000e-01
-5.88443750e-08,1.96500000e-01
-5.88043750e-08,1.96500000e-01
-5.87643750e-08,1.96500000e-01
-5.87243750e-08,1.96500000e-01
-5.86843750e-08,1.96500000e-01
-5.86443750e-08,1.96500000e-01
-5.86043750e-08,1.96500000e-01
-5.85643750e-08,1.96498438e-01
-5.85243750e-08,1.96501563e-01
-5.84843750e-08,1.96496875e-01
-5.84443750e-08,1.96504687e-01
-5.84043750e-08,1.96493750e-01
-5.83643750e-08,1.96510938e-01
-5.83243750e-08,1.96479687e-01
-5.82843750e-08,1.96545313e-01
-5.82443750e-08,1.96303125e-01
-5.82043750e-08,1.96034375e-01
-5.81643750e-08,1.96143750e-01
-5.81243750e-08,1.96065625e-01
-5.80843750e-08,1.96131250e-01
-5.80443750e-08,1.96070313e-01
-5.80043750e-08,1.96131250e-01
-5.79643750e-08,1.96067188e-01
-5.79243750e-08,1.96137500e-01
-5.78843750e-08,1.96053125e-01
-5.78443750e-08,1.96171875e-01
-5.78043750e-08,1.95875000e-01
-5.77643750e-08,1.95664063e-01
-5.77243750e-08,1.95712500e-01
-5.76843750e-08,1.95698438e-01
-5.76443750e-08,1.95695312e-01
-5.76043750e-08,1.95709375e-01
-5.75643750e-08,1.95684375e-01
-5.75243750e-08,1.95721875e-01
-5.74843750e-08,1.95667188e-01
-5.74443750e-08,1.95759375e-01
-5.74043750e-08,1.95485938e-01
-5.73643750e-08,1.95253125e-01
-5.73243750e-08,1.95321875e-01
-5.72843750e-08,1.95289062e-01
-5.72443750e-08,1.95304688e-01
-5.72043750e-08,1.95301562e-01
-5.71643750e-08,1.95293750e-01
-5.71243750e-08,1.95314062e-01
-5.70843750e-08,1.95275000e-01
-5.70443750e-08,1.95351563e-01
-5.70043750e-08,1.95093750e-01
-5.69643750e-08,1.94843750e-01
-5.69243750e-08,1.94931250e-01
-5.68843750e-08,1.94879688e-01
-5.68443750e-08,1.94914063e-01
-5.68043750e-08,1.94890625e-01
-5.67643750e-08,1.94906250e-01
-5.67243750e-08,1.94898438e-01
-5.66843750e-08,1.94898438e-01
-5.66443750e-08,1.94907812e-01
-5.66043750e-08,1.94881250e-01
-5.65643750e-08,1.94943750e-01
-5.65243750e-08,1.94703125e-01
-5.64843750e-08,1.94435938e-01
-5.64443750e-08,1.94540625e-01
-5.64043750e-08,1.94468750e-01
-5.63643750e-08,1.94525000e-01
-5.63243750e-08,1.94478125e-01
-5.62843750e-08,1.94520313e-01
-5.62443750e-08,1.94479687e-01
-5.62043750e-08,1.94518750e-01
-5.61643750e-08,1.94481250e-01
-5.61243750e-08,1.94518750e-01
-5.60843750e-08,1.94481250e-01
-5.60443750e-08,1.94520313e-01
-5.60043750e-08,1.94476563e-01
-5.59643750e-08,1.94528125e-01
-5.59243750e-08,1.94462500e-01
-5.58843750e-08,1.94562500e-01
-5.58443750e-08,1.94285938e-01
-5.58043750e-08,1.94051562e-01
-5.57643750e-08,1.94125000e-01
-5.57243750e-08,1.94084375e-01
-5.56843750e-08,1.94110937e-01
-5.56443750e-08,1.94092188e-01
-5.56043750e-08,1.94106250e-01
-5.55643750e-08,1.94095313e-01
-5.55243750e-08,1.94103125e-01
-5.54843750e-08,1.94096875e-01
-5.54443750e-08,1.94101563e-01
-5.54043750e-08,1.94098437e-01
-5.53643750e-08,1.94101563e-01
-5.53243750e-08,1.94100000e-01
-5.52843750e-08,1.94100000e-01
-5.52443750e-08,1.94100000e-01
-5.52043750e-08,1.94098437e-01
-5.51643750e-08,1.94101563e-01
-5.51243750e-08,1.94096875e-01
-5.50843750e-08,1.94104688e-01
-5.50443750e-08,1.94093750e-01
-5.50043750e-08,1.94109375e-01
-5.49643750e-08,1.94085937e-01
-5.49243750e-08,1.94123437e-01
-5.48843750e-08,1.94051562e-01
-5.48443750e-08,1.94301562e-01
-5.48043750e-08,1.94560938e-01
-5.47643750e-08,1.94462500e-01
-5.47243750e-08,1.94529687e-01
-5.46843750e-08,1.94475000e-01
-5.46443750e-08,1.94523438e-01
-5.46043750e-08,1.94478125e-01
-5.45643750e-08,1.94520313e-01
-5.45243750e-08,1.94478125e-01
-5.44843750e-08,1.94521875e-01
-5.44443750e-08,1.94476563e-01
-5.44043750e-08,1.94526562e-01
-5.43643750e-08,1.94468750e-01
-5.43243750e-08,1.94540625e-01
-5.42843750e-08,1.94434375e-01
-5.42443750e-08,1.94718750e-01
-5.42043750e-08,1.94942188e-01
-5.41643750e-08,1.94881250e-01
-5.41243750e-08,1.94909375e-01
-5.40843750e-08,1.94896875e-01
-5.40443750e-08,1.94898438e-01
-5.40043750e-08,1.94904688e-01
-5.39643750e-08,1.94892188e-01
-5.39243750e-08,1.94912500e-01
-5.38843750e-08,1.94881250e-01
-5.38443750e-08,1.94928125e-01
-5.38043750e-08,1.94846875e-01
-5.37643750e-08,1.95107813e-01
-5.37243750e-08,1.95354688e-01
-5.36843750e-08,1.95268750e-01
-5.36443750e-08,1.95320313e-01
-5.36043750e-08,1.95284375e-01
-5.35643750e-08,1.95312500e-01
-5.35243750e-08,1.95290625e-01
-5.34843750e-08,1.95307813e-01
-5.34443750e-08,1.95292188e-01
-5.34043750e-08,1.95306250e-01
-5.33643750e-08,1.95295313e-01
-5.33243750e-08,1.95304688e-01
-5.32843750e-08,1.95295313e-01
-5.32443750e-08,1.95303125e-01
-5.32043750e-08,1.95296875e-01
-5.31643750e-08,1.95303125e-01
-5.31243750e-08,1.95298438e-01
-5.30843750e-08,1.95301562e-01
-5.30443750e-08,1.95298438e-01
-5.30043750e-08,1.95301562e-01
-5.29643750e-08,1.95300000e-01
-5.29243750e-08,1.95300000e-01
-5.28843750e-08,1.95300000e-01
-5.28443750e-08,1.95300000e-01
-5.28043750e-08,1.95300000e-01
-5.27643750e-08,1.95300000e-01
-5.27243750e-08,1.95300000e-01
-5.26843750e-08,1.95298438e-01
-5.26443750e-08,1.95301562e-01
-5.26043750e-08,1.95298438e-01
-5.25643750e-08,1.95301562e-01
-5.25243750e-08,1.95298438e-01
-5.24843750e-08,1.95301562e-01
-5.24443750e-08,1.95296875e-01
-5.24043750e-08,1.95303125e-01
-5.23643750e-08,1.95296875e-01
-5.23243750e-08,1.95303125e-01
-5.22843750e-08,1.95296875e-01
-5.22443750e-08,1.95304688e-01
-5.22043750e-08,1.95295313e-01
-5.21643750e-08,1.95304688e-01
-5.21243750e-08,1.95295313e-01
-5.20843750e-08,1.95306250e-01
-5.20443750e-08,1.95293750e-01
-5.20043750e-08,1.95307813e-01
-5.19643750e-08,1.95292188e-01
-5.19243750e-08,1.95309375e-01
-5.18843750e-08,1.95289062e-01
-5.18443750e-08,1.95312500e-01
-5.18043750e-08,1.95285938e-01
-5.17643750e-08,1.95317188e-01
-5.17243750e-08,1.95276563e-01
-5.16843750e-08,1.95332813e-01
-5.16443750e-08,1.95242187e-01
-5.16043750e-08,1.95512500e-01
-5.15643750e-08,1.95750000e-01
-5.15243750e-08,1.95675000e-01
-5.14843750e-08,1.95714063e-01
-5.14443750e-08,1.95693750e-01
-5.14043750e-08,1.95698438e-01
-5.13643750e-08,1.95710938e-01
-5.13243750e-08,1.95664063e-01
-5.12843750e-08,1.95889063e-01
-5.12443750e-08,1.96176563e-01
-5.12043750e-08,1.96043750e-01
-5.11643750e-08,1.96157813e-01
-5.11243750e-08,1.96023438e-01
-5.10843750e-08,1.96328125e-01
-5.10443750e-08,1.96535938e-01
-5.10043750e-08,1.96489063e-01
-5.09643750e-08,1.96500000e-01
-5.09243750e-08,1.96512500e-01
-5.08843750e-08,1.96462500e-01
-5.08443750e-08,1.96689063e-01
-5.08043750e-08,1.96975000e-01
-5.07643750e-08,1.96843750e-01
-5.07243750e-08,1.96957812e-01
-5.06843750e-08,1.96821875e-01
-5.06443750e-08,1.97129688e-01
-5.06043750e-08,1.97332813e-01
-5.05643750e-08,1.97292187e-01
-5.05243750e-08,1.97295313e-01
-5.04843750e-08,1.97318750e-01
-5.04443750e-08,1.97254687e-01
-5.04043750e-08,1.97498438e-01
-5.03643750e-08,1.97762500e-01
-5.03243750e-08,1.97660938e-01
-5.02843750e-08,1.97731250e-01
-5.02443750e-08,1.97671875e-01
-5.02043750e-08,1.97726563e-01
-5.01643750e-08,1.97670313e-01
-5.01243750e-08,1.97737500e-01
-5.00843750e-08,1.97639063e-01
-5.00443750e-08,1.97912500e-01
-5.00043750e-08,1.98150000e-01
-4.99643750e-08,1.98071875e-01
-4.99243750e-08,1.98118750e-01
-4.98843750e-08,1.98085938e-01
-4.98443750e-08,1.98112500e-01
-4.98043750e-08,1.98089062e-01
-4.97643750e-08,1.98110938e-01
-4.97243750e-08,1.98089062e-01
-4.96843750e-08,1.98109375e-01
-4.96443750e-08,1.98089062e-01
-4.96043750e-08,1.98110938e-01
-4.95643750e-08,1.98089062e-01
-4.95243750e-08,1.98112500e-01
-4.94843750e-08,1.98085938e-01
-4.94443750e-08,1.98115625e-01
-4.94043750e-08,1.98081250e-01
-4.93643750e-08,1.98125000e-01
-4.93243750e-08,1.98065625e-01
-4.92843750e-08,1.98159375e-01
-4.92443750e-08,1.97887500e-01
-4.92043750e-08,1.97650000e-01
-4.91643750e-08,1.97725000e-01
-4.91243750e-08,1.97684375e-01
-4.90843750e-08,1.97710938e-01
-4.90443750e-08,1.97692188e-01
-4.90043750e-08,1.97704688e-01
-4.89643750e-08,1.97696875e-01
-4.89243750e-08,1.97700000e-01
-4.88843750e-08,1.97701563e-01
-4.88443750e-08,1.97696875e-01
-4.88043750e-08,1.97706250e-01
-4.87643750e-08,1.97690625e-01
-4.87243750e-08,1.97715625e-01
-4.86843750e-08,1.97675000e-01
-4.86443750e-08,1.97750000e-01
-4.86043750e-08,1.97496875e-01
-4.85643750e-08,1.97240625e-01
-4.85243750e-08,1.97334375e-01
-4.84843750e-08,1.97275000e-01
-4.84443750e-08,1.97320313e-01
-4.84043750e-08,1.97282813e-01
-4.83643750e-08,1.97315625e-01
-4.83243750e-08,1.97285938e-01
-4.82843750e-08,1.97312500e-01
-4.82443750e-08,1.97287500e-01
-4.82043750e-08,1.97310938e-01
-4.81643750e-08,1.97289063e-01
-4.81243750e-08,1.97310938e-01
-4.80843750e-08,1.97289063e-01
-4.80443750e-08,1.97312500e-01
-4.80043750e-08,1.97287500e-01
-4.79643750e-08,1.97314062e-01
-4.79243750e-08,1.97284375e-01
-4.78843750e-08,1.97318750e-01
-4.78443750e-08,1.97276563e-01
-4.78043750e-08,1.97332813e-01
-4.77643750e-08,1.97243750e-01
-4.77243750e-08,1.97509375e-01
-4.76843750e-08,1.97753125e-01
-4.76443750e-08,1.97670313e-01
-4.76043750e-08,1.97720312e-01
-4.75643750e-08,1.97684375e-01
-4.75243750e-08,1.97712500e-01
-4.74843750e-08,1.97689063e-01
-4.74443750e-08,1.97709375e-01
-4.74043750e-08,1.97692188e-01
-4.73643750e-08,1.97707812e-01
-4.73243750e-08,1.97692188e-01
-4.72843750e-08,1.97707812e-01
-4.72443750e-08,1.97693750e-01
-4.72043750e-08,1.97706250e-01
-4.71643750e-08,1.97693750e-01
-4.71243750e-08,1.97706250e-01
-4.70843750e-08,1.97693750e-01
-4.70443750e-08,1.97706250e-01
-4.70043750e-08,1.97693750e-01
-4.69643750e-08,1.97707812e-01
-4.69243750e-08,1.97692188e-01
-4.68843750e-08,1.97707812e-01
-4.68443750e-08,1.97692188e-01
-4.68043750e-08,1.97709375e-01
-4.67643750e-08,1.97690625e-01
-4.67243750e-08,1.97710938e-01
-4.66843750e-08,1.97687500e-01
-4.66443750e-08,1.97714063e-01
-4.66043750e-08,1.97682812e-01
-4.65643750e-08,1.97721875e-01
-4.65243750e-08,1.97668750e-01
-4.64843750e-08,1.97756250e-01
-4.64443750e-08,1.97490625e-01
-4.64043750e-08,1.97245313e-01
-4.63643750e-08,1.97331250e-01
-4.63243750e-08,1.97278125e-01
-4.62843750e-08,1.97317188e-01
-4.62443750e-08,1.97284375e-01
-4.62043750e-08,1.97315625e-01
-4.61643750e-08,1.97282813e-01
-4.61243750e-08,1.97320313e-01
-4.60843750e-08,1.97271875e-01
-4.60443750e-08,1.97353125e-01
-4.60043750e-08,1.97095313e-01
-4.59643750e-08,1.96840625e-01
-4.59243750e-08,1.96935938e-01
-4.58843750e-08,1.96871875e-01
-4.58443750e-08,1.96925000e-01
-4.58043750e-08,1.96876563e-01
-4.57643750e-08,1.96923438e-01
-4.57243750e-08,1.96873437e-01
-4.56843750e-08,1.96929688e-01
-4.56443750e-08,1.96860937e-01
-4.56043750e-08,1.96964063e-01
-4.55643750e-08,1.96682812e-01
-4.55243750e-08,1.96454688e-01
-4.54843750e-08,1.96521875e-01
-4.54443750e-08,1.96487500e-01
-4.54043750e-08,1.96507813e-01
-4.53643750e-08,1.96495313e-01
-4.53243750e-08,1.96503125e-01
-4.52843750e-08,1.96498438e-01
-4.52443750e-08,1.96500000e-01
-4.52043750e-08,1.96501563e-01
-4.51643750e-08,1.96496875e-01
-4.51243750e-08,1.96503125e-01
-4.50843750e-08,1.96495313e-01
-4.50443750e-08,1.96504687e-01
-4.50043750e-08,1.96493750e-01
-4.49643750e-08,1.96506250e-01
-4.49243750e-08,1.96492187e-01
-4.48843750e-08,1.96507813e-01
-4.48443750e-08,1.96490625e-01
-4.48043750e-08,1.96510938e-01
-4.47643750e-08,1.96487500e-01
-4.47243750e-08,1.96514063e-01
-4.46843750e-08,1.96482812e-01
-4.46443750e-08,1.96520313e-01
-4.46043750e-08,1.96473438e-01
-4.45643750e-08,1.96535938e-01
-4.45243750e-08,1.96437500e-01
-4.44843750e-08,1.96715625e-01
-4.44443750e-08,1.96945312e-01
-4.44043750e-08,1.96879688e-01
-4.43643750e-08,1.96909375e-01
-4.43243750e-08,1.96896875e-01
-4.42843750e-08,1.96898438e-01
-4.42443750e-08,1.96907813e-01
-4.42043750e-08,1.96885937e-01
-4.41643750e-08,1.96925000e-01
-4.41243750e-08,1.96848438e-01
-4.40843750e-08,1.97106250e-01
-4.40443750e-08,1.97354688e-01
-4.40043750e-08,1.97270313e-01
-4.39643750e-08,1.97320313e-01
-4.39243750e-08,1.97285938e-01
-4.38843750e-08,1.97309375e-01
-4.38443750e-08,1.97293750e-01
-4.38043750e-08,1.97301562e-01
-4.37643750e-08,1.97303125e-01
-4.37243750e-08,1.97292187e-01
-4.36843750e-08,1.97318750e-01
-4.36443750e-08,1.97256250e-01
-4.36043750e-08,1.97498438e-01
-4.35643750e-08,1.97764063e-01
-4.35243750e-08,1.97659375e-01
-4.34843750e-08,1.97731250e-01
-4.34443750e-08,1.97675000e-01
-4.34043750e-08,1.97723438e-01
-4.33643750e-08,1.97678125e-01
-4.33243750e-08,1.97720312e-01
-4.32843750e-08,1.97679688e-01
-4.32443750e-08,1.97721875e-01
-4.32043750e-08,1.97676563e-01
-4.31643750e-08,1.97726563e-01
-4.31243750e-08,1.97664063e-01
-4.30843750e-08,1.97759375e-01
-4.30443750e-08,1.97487500e-01
-4.30043750e-08,1.97250000e-01
-4.29643750e-08,1.97328125e-01
-4.29243750e-08,1.97281250e-01
-4.28843750e-08,1.97315625e-01
-4.28443750e-08,1.97287500e-01
-4.28043750e-08,1.97310938e-01
-4.27643750e-08,1.97289063e-01
-4.27243750e-08,1.97310938e-01
-4.26843750e-08,1.97287500e-01
-4.26443750e-08,1.97314062e-01
-4.26043750e-08,1.97282813e-01
-4.25643750e-08,1.97321875e-01
-4.25243750e-08,1.97268750e-01
-4.24843750e-08,1.97356250e-01
-4.24443750e-08,1.97090625e-01
-4.24043750e-08,1.96846875e-01
-4.23643750e-08,1.96929688e-01
-4.23243750e-08,1.96879688e-01
-4.22843750e-08,1.96915625e-01
-4.22443750e-08,1.96887500e-01
-4.22043750e-08,1.96910937e-01
-4.21643750e-08,1.96890625e-01
-4.21243750e-08,1.96907813e-01
-4.20843750e-08,1.96893750e-01
-4.20443750e-08,1.96906250e-01
-4.20043750e-08,1.96895313e-01
-4.19643750e-08,1.96904688e-01
-4.19243750e-08,1.96895313e-01
-4.18843750e-08,1.96904688e-01
-4.18443750e-08,1.96896875e-01
-4.18043750e-08,1.96903125e-01
-4.17643750e-08,1.96896875e-01
-4.17243750e-08,1.96903125e-01
-4.16843750e-08,1.96896875e-01
-4.16443750e-08,1.96901563e-01
-4.16043750e-08,1.96898438e-01
-4.15643750e-08,1.96901563e-01
-4.15243750e-08,1.96898438e-01
-4.14843750e-08,1.96901563e-01
-4.14443750e-08,1.96898438e-01
-4.14043750e-08,1.96900000e-01
-4.13643750e-08,1.96900000e-01
-4.13243750e-08,1.96900000e-01
-4.12843750e-08,1.96900000e-01
-4.12443750e-08,1.96900000e-01
-4.12043750e-08,1.96901563e-01
-4.11643750e-08,1.96898438e-01
-4.11243750e-08,1.96901563e-01
-4.10843750e-08,1.96898438e-01
-4.10443750e-08,1.96903125e-01
-4.10043750e-08,1.96896875e-01
-4.09643750e-08,1.96904688e-01
-4.09243750e-08,1.96893750e-01
-4.08843750e-08,1.96906250e-01
-4.08443750e-08,1.96890625e-01
-4.08043750e-08,1.96912500e-01
-4.07643750e-08,1.96882813e-01
-4.07243750e-08,1.96926563e-01
-4.06843750e-08,1.96848438e-01
-4.06443750e-08,1.97104688e-01
-4.06043750e-08,1.97357813e-01
-4.05643750e-08,1.97265625e-01
-4.05243750e-08,1.97326562e-01
-4.04843750e-08,1.97278125e-01
-4.04443750e-08,1.97318750e-01
-4.04043750e-08,1.97281250e-01
-4.03643750e-08,1.97317188e-01
-4.03243750e-08,1.97281250e-01
-4.02843750e-08,1.97320313e-01
-4.02443750e-08,1.97275000e-01
-4.02043750e-08,1.97334375e-01
-4.01643750e-08,1.97242187e-01
-4.01243750e-08,1.97510938e-01
-4.00843750e-08,1.97753125e-01
-4.00443750e-08,1.97670313e-01
-4.00043750e-08,1.97720312e-01
-3.99643750e-08,1.97682812e-01
-3.99243750e-08,1.97714063e-01
-3.98843750e-08,1.97687500e-01
-3.98443750e-08,1.97712500e-01
-3.98043750e-08,1.97687500e-01
-3.97643750e-08,1.97714063e-01
-3.97243750e-08,1.97684375e-01
-3.96843750e-08,1.97717188e-01
-3.96443750e-08,1.97678125e-01
-3.96043750e-08,1.97731250e-01
-3.95643750e-08,1.97643750e-01
-3.95243750e-08,1.97909375e-01
-3.94843750e-08,1.98153125e-01
-3.94443750e-08,1.98070313e-01
-3.94043750e-08,1.98120313e-01
-3.93643750e-08,1.98084375e-01
-3.93243750e-08,1.98112500e-01
-3.92843750e-08,1.98089062e-01
-3.92443750e-08,1.98109375e-01
-3.92043750e-08,1.98090625e-01
-3.91643750e-08,1.98107813e-01
-3.91243750e-08,1.98092188e-01
-3.90843750e-08,1.98107813e-01
-3.90443750e-08,1.98092188e-01
-3.90043750e-08,1.98106250e-01
-3.89643750e-08,1.98092188e-01
-3.89243750e-08,1.98107813e-01
-3.88843750e-08,1.98092188e-01
-3.88443750e-08,1.98107813e-01
-3.88043750e-08,1.98090625e-01
-3.87643750e-08,1.98110938e-01
-3.87243750e-08,1.98087500e-01
-3.86843750e-08,1.98115625e-01
-3.86443750e-08,1.98079688e-01
-3.86043750e-08,1.98129688e-01
-3.85643750e-08,1.98045313e-01
-3.85243750e-08,1.98307813e-01
