trails/0b415fe76bd122fbe60d5dd91566c6d8/aes_ch1_20250507112057280.csv

Model,MSO66B
Label,
Waveform Type,ANALOG
Horizontal Units,s
Sample Interval,4.00000000e-11
Record Length,10000
Zero Index,1599.17578125
Vertical Units,A
ANALOG_Thumbnail,
yOffset,1.84500000e-01
yPosition,8.40000000e-01

Labels,
TIME,CH1
-6.39670313e-08,1.88037500e-01
-6.39270312e-08,1.88139063e-01
-6.38870313e-08,1.88070313e-01
-6.38470312e-08,1.88125000e-01
-6.38070312e-08,1.88076563e-01
-6.37670312e-08,1.88121875e-01
-6.37270312e-08,1.88079688e-01
-6.36870313e-08,1.88120312e-01
-6.36470312e-08,1.88079688e-01
-6.36070313e-08,1.88120312e-01
-6.35670312e-08,1.88079688e-01
-6.35270312e-08,1.88120312e-01
-6.34870312e-08,1.88078125e-01
-6.34470312e-08,1.88125000e-01
-6.34070313e-08,1.88071875e-01
-6.33670312e-08,1.88132812e-01
-6.33270313e-08,1.88057813e-01
-6.32870312e-08,1.88167187e-01
-6.32470312e-08,1.87879688e-01
-6.32070312e-08,1.87659375e-01
-6.31670312e-08,1.87715625e-01
-6.31270313e-08,1.87693750e-01
-6.30870312e-08,1.87700000e-01
-6.30470312e-08,1.87704687e-01
-6.30070312e-08,1.87692187e-01
-6.29670312e-08,1.87712500e-01
-6.29270312e-08,1.87681250e-01
-6.28870312e-08,1.87729688e-01
-6.28470313e-08,1.87645312e-01
-6.28070312e-08,1.87909375e-01
-6.27670312e-08,1.88153125e-01
-6.27270312e-08,1.88071875e-01
-6.26870312e-08,1.88118750e-01
-6.26470312e-08,1.88087500e-01
-6.26070312e-08,1.88109375e-01
-6.25670313e-08,1.88092188e-01
-6.25270312e-08,1.88106250e-01
-6.24870312e-08,1.88095313e-01
-6.24470312e-08,1.88103125e-01
-6.24070312e-08,1.88098437e-01
-6.23670312e-08,1.88101563e-01
-6.23270312e-08,1.88100000e-01
-6.22870313e-08,1.88098437e-01
-6.22470312e-08,1.88101563e-01
-6.22070312e-08,1.88096875e-01
-6.21670312e-08,1.88103125e-01
-6.21270312e-08,1.88095313e-01
-6.20870312e-08,1.88106250e-01
-6.20470312e-08,1.88092188e-01
-6.20070313e-08,1.88109375e-01
-6.19670312e-08,1.88089063e-01
-6.19270312e-08,1.88114063e-01
-6.18870312e-08,1.88079688e-01
-6.18470312e-08,1.88129688e-01
-6.18070312e-08,1.88045313e-01
-6.17670312e-08,1.88307813e-01
-6.17270313e-08,1.88554688e-01
-6.16870312e-08,1.88470313e-01
-6.16470312e-08,1.88520313e-01
-6.16070312e-08,1.88484375e-01
-6.15670312e-08,1.88512500e-01
-6.15270312e-08,1.88489062e-01
-6.14870312e-08,1.88509375e-01
-6.14470313e-08,1.88492188e-01
-6.14070312e-08,1.88506250e-01
-6.13670312e-08,1.88493750e-01
-6.13270312e-08,1.88504688e-01
-6.12870312e-08,1.88495313e-01
-6.12470312e-08,1.88503125e-01
-6.12070312e-08,1.88496875e-01
-6.11670313e-08,1.88503125e-01
-6.11270312e-08,1.88496875e-01
-6.10870312e-08,1.88501562e-01
-6.10470312e-08,1.88498438e-01
-6.10070312e-08,1.88501562e-01
-6.09670313e-08,1.88498438e-01
-6.09270312e-08,1.88501562e-01
-6.08870313e-08,1.88498438e-01
-6.08470312e-08,1.88500000e-01
-6.08070312e-08,1.88500000e-01
-6.07670312e-08,1.88500000e-01
-6.07270312e-08,1.88500000e-01
-6.06870313e-08,1.88500000e-01
-6.06470312e-08,1.88500000e-01
-6.06070313e-08,1.88498438e-01
-6.05670312e-08,1.88501562e-01
-6.05270312e-08,1.88498438e-01
-6.04870312e-08,1.88501562e-01
-6.04470312e-08,1.88498438e-01
-6.04070313e-08,1.88501562e-01
-6.03670312e-08,1.88498438e-01
-6.03270313e-08,1.88503125e-01
-6.02870312e-08,1.88496875e-01
-6.02470312e-08,1.88503125e-01
-6.02070312e-08,1.88496875e-01
-6.01670312e-08,1.88503125e-01
-6.01270313e-08,1.88495313e-01
-6.00870312e-08,1.88504688e-01
-6.00470313e-08,1.88495313e-01
-6.00070312e-08,1.88506250e-01
-5.99670312e-08,1.88493750e-01
-5.99270312e-08,1.88506250e-01
-5.98870312e-08,1.88492188e-01
-5.98470313e-08,1.88507813e-01
-5.98070312e-08,1.88490625e-01
-5.97670313e-08,1.88510938e-01
-5.97270312e-08,1.88487500e-01
-5.96870312e-08,1.88514062e-01
-5.96470312e-08,1.88484375e-01
-5.96070312e-08,1.88520313e-01
-5.95670312e-08,1.88475000e-01
-5.95270312e-08,1.88535938e-01
-5.94870312e-08,1.88439063e-01
-5.94470312e-08,1.88715625e-01
-5.94070312e-08,1.88946875e-01
-5.93670312e-08,1.88878125e-01
-5.93270312e-08,1.88910938e-01
-5.92870312e-08,1.88895312e-01
-5.92470312e-08,1.88898438e-01
-5.92070312e-08,1.88906250e-01
-5.91670312e-08,1.88885938e-01
-5.91270312e-08,1.88925000e-01
-5.90870312e-08,1.88848438e-01
-5.90470312e-08,1.89106250e-01
-5.90070312e-08,1.89354688e-01
-5.89670312e-08,1.89270313e-01
-5.89270312e-08,1.89317188e-01
-5.88870312e-08,1.89290625e-01
-5.88470312e-08,1.89301563e-01
-5.88070312e-08,1.89309375e-01
-5.87670312e-08,1.89264062e-01
-5.87270312e-08,1.89489062e-01
-5.86870312e-08,1.89773438e-01
-5.86470312e-08,1.89650000e-01
-5.86070312e-08,1.89742187e-01
-5.85670312e-08,1.89659375e-01
-5.85270312e-08,1.89746875e-01
-5.84870312e-08,1.89631250e-01
-5.84470312e-08,1.89918750e-01
-5.84070312e-08,1.90146875e-01
-5.83670312e-08,1.90073437e-01
-5.83270312e-08,1.90121875e-01
-5.82870312e-08,1.90078125e-01
-5.82470312e-08,1.90129688e-01
-5.82070312e-08,1.90046875e-01
-5.81670312e-08,1.90304688e-01
-5.81270312e-08,1.90557813e-01
-5.80870312e-08,1.90465625e-01
-5.80470312e-08,1.90525000e-01
-5.80070312e-08,1.90479687e-01
-5.79670312e-08,1.90518750e-01
-5.79270312e-08,1.90484375e-01
-5.78870312e-08,1.90514062e-01
-5.78470312e-08,1.90485938e-01
-5.78070312e-08,1.90512500e-01
-5.77670312e-08,1.90487500e-01
-5.77270312e-08,1.90512500e-01
-5.76870312e-08,1.90489063e-01
-5.76470312e-08,1.90510938e-01
-5.76070312e-08,1.90489063e-01
-5.75670312e-08,1.90510938e-01
-5.75270312e-08,1.90489063e-01
-5.74870312e-08,1.90510938e-01
-5.74470312e-08,1.90489063e-01
-5.74070312e-08,1.90510938e-01
-5.73670312e-08,1.90489063e-01
-5.73270312e-08,1.90510938e-01
-5.72870312e-08,1.90489063e-01
-5.72470312e-08,1.90510938e-01
-5.72070312e-08,1.90489063e-01
-5.71670312e-08,1.90512500e-01
-5.71270312e-08,1.90487500e-01
-5.70870312e-08,1.90514062e-01
-5.70470312e-08,1.90485938e-01
-5.70070312e-08,1.90515625e-01
-5.69670312e-08,1.90481250e-01
-5.69270312e-08,1.90523438e-01
-5.68870312e-08,1.90467187e-01
-5.68470312e-08,1.90557813e-01
-5.68070312e-08,1.90290625e-01
-5.67670312e-08,1.90046875e-01
-5.67270312e-08,1.90129688e-01
-5.66870312e-08,1.90078125e-01
-5.66470312e-08,1.90118750e-01
-5.66070312e-08,1.90081250e-01
-5.65670312e-08,1.90121875e-01
-5.65270312e-08,1.90070313e-01
-5.64870312e-08,1.90153125e-01
-5.64470312e-08,1.89895312e-01
-5.64070312e-08,1.89640625e-01
-5.63670312e-08,1.89737500e-01
-5.63270312e-08,1.89670312e-01
-5.62870312e-08,1.89728125e-01
-5.62470312e-08,1.89671875e-01
-5.62070312e-08,1.89731250e-01
-5.61670312e-08,1.89660938e-01
-5.61270312e-08,1.89764062e-01
-5.60870312e-08,1.89484375e-01
-5.60470312e-08,1.89253125e-01
-5.60070312e-08,1.89323437e-01
-5.59670312e-08,1.89285938e-01
-5.59270312e-08,1.89309375e-01
-5.58870312e-08,1.89293750e-01
-5.58470312e-08,1.89304688e-01
-5.58070312e-08,1.89295313e-01
-5.57670312e-08,1.89303125e-01
-5.57270312e-08,1.89298437e-01
-5.56870312e-08,1.89301563e-01
-5.56470312e-08,1.89298437e-01
-5.56070312e-08,1.89301563e-01
-5.55670312e-08,1.89300000e-01
-5.55270312e-08,1.89300000e-01
-5.54870312e-08,1.89300000e-01
-5.54470312e-08,1.89300000e-01
-5.54070312e-08,1.89300000e-01
-5.53670312e-08,1.89300000e-01
-5.53270312e-08,1.89300000e-01
-5.52870312e-08,1.89300000e-01
-5.52470312e-08,1.89301563e-01
-5.52070312e-08,1.89298437e-01
-5.51670312e-08,1.89301563e-01
-5.51270312e-08,1.89298437e-01
-5.50870312e-08,1.89301563e-01
-5.50470312e-08,1.89298437e-01
-5.50070312e-08,1.89301563e-01
-5.49670312e-08,1.89298437e-01
-5.49270312e-08,1.89301563e-01
-5.48870312e-08,1.89298437e-01
-5.48470312e-08,1.89301563e-01
-5.48070312e-08,1.89298437e-01
-5.47670312e-08,1.89301563e-01
-5.47270312e-08,1.89298437e-01
-5.46870312e-08,1.89301563e-01
-5.46470312e-08,1.89298437e-01
-5.46070312e-08,1.89301563e-01
-5.45670312e-08,1.89298437e-01
-5.45270312e-08,1.89301563e-01
-5.44870312e-08,1.89298437e-01
-5.44470312e-08,1.89301563e-01
-5.44070312e-08,1.89298437e-01
-5.43670312e-08,1.89301563e-01
-5.43270312e-08,1.89298437e-01
-5.42870312e-08,1.89301563e-01
-5.42470312e-08,1.89298437e-01
-5.42070312e-08,1.89301563e-01
-5.41670312e-08,1.89298437e-01
-5.41270312e-08,1.89301563e-01
-5.40870312e-08,1.89298437e-01
-5.40470312e-08,1.89303125e-01
-5.40070312e-08,1.89296875e-01
-5.39670312e-08,1.89303125e-01
-5.39270312e-08,1.89296875e-01
-5.38870312e-08,1.89303125e-01
-5.38470312e-08,1.89296875e-01
-5.38070312e-08,1.89303125e-01
-5.37670312e-08,1.89296875e-01
-5.37270312e-08,1.89303125e-01
-5.36870312e-08,1.89296875e-01
-5.36470312e-08,1.89303125e-01
-5.36070312e-08,1.89295313e-01
-5.35670313e-08,1.89304688e-01
-5.35270312e-08,1.89295313e-01
-5.34870312e-08,1.89304688e-01
-5.34470312e-08,1.89293750e-01
-5.34070312e-08,1.89306250e-01
-5.33670312e-08,1.89293750e-01
-5.33270312e-08,1.89307813e-01
-5.32870312e-08,1.89290625e-01
-5.32470312e-08,1.89310937e-01
-5.32070312e-08,1.89285938e-01
-5.31670312e-08,1.89318750e-01
-5.31270312e-08,1.89271875e-01
-5.30870312e-08,1.89353125e-01
-5.30470312e-08,1.89093750e-01
-5.30070312e-08,1.88843750e-01
-5.29670312e-08,1.88932813e-01
-5.29270312e-08,1.88876563e-01
-5.28870312e-08,1.88918750e-01
-5.28470312e-08,1.88884375e-01
-5.28070312e-08,1.88914063e-01
-5.27670312e-08,1.88887500e-01
-5.27270312e-08,1.88912500e-01
-5.26870312e-08,1.88887500e-01
-5.26470312e-08,1.88912500e-01
-5.26070312e-08,1.88887500e-01
-5.25670312e-08,1.88912500e-01
-5.25270312e-08,1.88885938e-01
-5.24870312e-08,1.88915625e-01
-5.24470312e-08,1.88881250e-01
-5.24070312e-08,1.88923438e-01
-5.23670312e-08,1.88867188e-01
-5.23270312e-08,1.88957813e-01
-5.22870312e-08,1.88689063e-01
-5.22470312e-08,1.88448438e-01
-5.22070312e-08,1.88528125e-01
-5.21670312e-08,1.88481250e-01
-5.21270312e-08,1.88514062e-01
-5.20870312e-08,1.88489062e-01
-5.20470312e-08,1.88509375e-01
-5.20070312e-08,1.88492188e-01
-5.19670312e-08,1.88506250e-01
-5.19270312e-08,1.88493750e-01
-5.18870312e-08,1.88504688e-01
-5.18470312e-08,1.88495313e-01
-5.18070312e-08,1.88504688e-01
-5.17670312e-08,1.88495313e-01
-5.17270312e-08,1.88503125e-01
-5.16870312e-08,1.88496875e-01
-5.16470313e-08,1.88503125e-01
-5.16070312e-08,1.88496875e-01
-5.15670312e-08,1.88503125e-01
-5.15270312e-08,1.88496875e-01
-5.14870312e-08,1.88503125e-01
-5.14470312e-08,1.88496875e-01
-5.14070312e-08,1.88501562e-01
-5.13670313e-08,1.88498438e-01
-5.13270312e-08,1.88501562e-01
-5.12870312e-08,1.88498438e-01
-5.12470312e-08,1.88501562e-01
-5.12070312e-08,1.88498438e-01
-5.11670312e-08,1.88501562e-01
-5.11270312e-08,1.88498438e-01
-5.10870312e-08,1.88501562e-01
-5.10470312e-08,1.88498438e-01
-5.10070312e-08,1.88501562e-01
-5.09670312e-08,1.88498438e-01
-5.09270312e-08,1.88501562e-01
-5.08870312e-08,1.88498438e-01
-5.08470312e-08,1.88501562e-01
-5.08070312e-08,1.88500000e-01
-5.07670312e-08,1.88500000e-01
-5.07270312e-08,1.88500000e-01
-5.06870312e-08,1.88500000e-01
-5.06470312e-08,1.88500000e-01
-5.06070312e-08,1.88500000e-01
-5.05670312e-08,1.88500000e-01
-5.05270312e-08,1.88500000e-01
-5.04870312e-08,1.88500000e-01
-5.04470312e-08,1.88500000e-01
-5.04070312e-08,1.88501562e-01
-5.03670312e-08,1.88498438e-01
-5.03270312e-08,1.88501562e-01
-5.02870312e-08,1.88498438e-01
-5.02470312e-08,1.88503125e-01
-5.02070312e-08,1.88496875e-01
-5.01670312e-08,1.88504688e-01
-5.01270312e-08,1.88495313e-01
-5.00870312e-08,1.88506250e-01
-5.00470312e-08,1.88490625e-01
-5.00070312e-08,1.88510938e-01
-4.99670312e-08,1.88482813e-01
-4.99270312e-08,1.88526562e-01
-4.98870312e-08,1.88448438e-01
-4.98470312e-08,1.88704687e-01
-4.98070312e-08,1.88957813e-01
-4.97670312e-08,1.88865625e-01
-4.97270313e-08,1.88925000e-01
-4.96870312e-08,1.88879688e-01
-4.96470312e-08,1.88918750e-01
-4.96070312e-08,1.88882812e-01
-4.95670312e-08,1.88915625e-01
-4.95270312e-08,1.88884375e-01
-4.94870312e-08,1.88914063e-01
-4.94470313e-08,1.88884375e-01
-4.94070312e-08,1.88915625e-01
-4.93670312e-08,1.88882812e-01
-4.93270312e-08,1.88920313e-01
-4.92870312e-08,1.88876563e-01
-4.92470312e-08,1.88932813e-01
-4.92070312e-08,1.88842188e-01
-4.91670312e-08,1.89109375e-01
-4.91270312e-08,1.89353125e-01
-4.90870312e-08,1.89270313e-01
-4.90470312e-08,1.89321875e-01
-4.90070312e-08,1.89282813e-01
-4.89670312e-08,1.89315625e-01
-4.89270312e-08,1.89284375e-01
-4.88870312e-08,1.89317188e-01
-4.88470312e-08,1.89281250e-01
-4.88070312e-08,1.89323437e-01
-4.87670312e-08,1.89267188e-01
-4.87270312e-08,1.89356250e-01
-4.86870312e-08,1.89090625e-01
-4.86470312e-08,1.88846875e-01
-4.86070312e-08,1.88929687e-01
-4.85670312e-08,1.88881250e-01
-4.85270312e-08,1.88914063e-01
-4.84870312e-08,1.88889063e-01
-4.84470312e-08,1.88907812e-01
-4.84070312e-08,1.88893750e-01
-4.83670312e-08,1.88903125e-01
-4.83270312e-08,1.88898438e-01
-4.82870312e-08,1.88898438e-01
-4.82470312e-08,1.88907812e-01
-4.82070312e-08,1.88882812e-01
-4.81670312e-08,1.88942187e-01
-4.81270312e-08,1.88704687e-01
-4.80870312e-08,1.88432813e-01
-4.80470312e-08,1.88543750e-01
-4.80070312e-08,1.88465625e-01
-4.79670312e-08,1.88529688e-01
-4.79270312e-08,1.88471875e-01
-4.78870312e-08,1.88526562e-01
-4.78470312e-08,1.88475000e-01
-4.78070313e-08,1.88525000e-01
-4.77670312e-08,1.88473438e-01
-4.77270312e-08,1.88528125e-01
-4.76870312e-08,1.88468750e-01
-4.76470312e-08,1.88535938e-01
-4.76070312e-08,1.88454687e-01
-4.75670312e-08,1.88568750e-01
-4.75270313e-08,1.88278125e-01
-4.74870312e-08,1.88060937e-01
-4.74470312e-08,1.88115625e-01
-4.74070312e-08,1.88093750e-01
-4.73670312e-08,1.88101563e-01
-4.73270312e-08,1.88101563e-01
-4.72870312e-08,1.88095313e-01
-4.72470313e-08,1.88106250e-01
-4.72070312e-08,1.88092188e-01
-4.71670312e-08,1.88109375e-01
-4.71270312e-08,1.88087500e-01
-4.70870312e-08,1.88114063e-01
-4.70470312e-08,1.88082813e-01
-4.70070312e-08,1.88120312e-01
-4.69670312e-08,1.88075000e-01
-4.69270312e-08,1.88135938e-01
-4.68870312e-08,1.88039063e-01
-4.68470312e-08,1.88314063e-01
-4.68070312e-08,1.88546875e-01
-4.67670312e-08,1.88476562e-01
-4.67270312e-08,1.88514062e-01
-4.66870312e-08,1.88492188e-01
-4.66470312e-08,1.88504688e-01
-4.66070312e-08,1.88498438e-01
-4.65670312e-08,1.88500000e-01
-4.65270312e-08,1.88501562e-01
-4.64870312e-08,1.88496875e-01
-4.64470312e-08,1.88504688e-01
-4.64070312e-08,1.88493750e-01
-4.63670312e-08,1.88507813e-01
-4.63270312e-08,1.88489062e-01
-4.62870312e-08,1.88512500e-01
-4.62470312e-08,1.88482813e-01
-4.62070312e-08,1.88521875e-01
-4.61670312e-08,1.88467188e-01
-4.61270312e-08,1.88557813e-01
-4.60870312e-08,1.88289062e-01
-4.60470312e-08,1.88048437e-01
-4.60070312e-08,1.88126563e-01
-4.59670312e-08,1.88082813e-01
-4.59270312e-08,1.88110938e-01
-4.58870313e-08,1.88092188e-01
-4.58470312e-08,1.88106250e-01
-4.58070312e-08,1.88096875e-01
-4.57670312e-08,1.88101563e-01
-4.57270312e-08,1.88100000e-01
-4.56870312e-08,1.88098437e-01
-4.56470312e-08,1.88103125e-01
-4.56070313e-08,1.88095313e-01
-4.55670312e-08,1.88106250e-01
-4.55270312e-08,1.88092188e-01
-4.54870312e-08,1.88110938e-01
-4.54470312e-08,1.88085937e-01
-4.54070312e-08,1.88120312e-01
-4.53670312e-08,1.88070313e-01
-4.53270313e-08,1.88156250e-01
-4.52870312e-08,1.87890625e-01
-4.52470312e-08,1.87648438e-01
-4.52070312e-08,1.87726562e-01
-4.51670312e-08,1.87682813e-01
-4.51270312e-08,1.87710938e-01
-4.50870312e-08,1.87693750e-01
-4.50470313e-08,1.87701563e-01
-4.50070312e-08,1.87703125e-01
-4.49670312e-08,1.87690625e-01
-4.49270312e-08,1.87718750e-01
-4.48870312e-08,1.87654688e-01
-4.48470312e-08,1.87898438e-01
-4.48070312e-08,1.88164063e-01
-4.47670312e-08,1.88060937e-01
-4.47270312e-08,1.88129688e-01
-4.46870312e-08,1.88075000e-01
-4.46470312e-08,1.88121875e-01
-4.46070312e-08,1.88079688e-01
-4.45670312e-08,1.88118750e-01
-4.45270312e-08,1.88081250e-01
-4.44870312e-08,1.88118750e-01
-4.44470312e-08,1.88079688e-01
-4.44070312e-08,1.88121875e-01
-4.43670312e-08,1.88073437e-01
-4.43270312e-08,1.88134375e-01
-4.42870312e-08,1.88040625e-01
-4.42470312e-08,1.88310937e-01
-4.42070312e-08,1.88551563e-01
-4.41670312e-08,1.88471875e-01
-4.41270312e-08,1.88520313e-01
-4.40870312e-08,1.88484375e-01
-4.40470312e-08,1.88514062e-01
-4.40070312e-08,1.88485938e-01
-4.39670313e-08,1.88514062e-01
-4.39270312e-08,1.88484375e-01
-4.38870312e-08,1.88517188e-01
-4.38470312e-08,1.88478125e-01
-4.38070312e-08,1.88531250e-01
-4.37670312e-08,1.88443750e-01
-4.37270312e-08,1.88709375e-01
-4.36870313e-08,1.88953125e-01
-4.36470312e-08,1.88870312e-01
-4.36070312e-08,1.88920313e-01
-4.35670312e-08,1.88884375e-01
-4.35270312e-08,1.88912500e-01
-4.34870312e-08,1.88889063e-01
-4.34470312e-08,1.88909375e-01
-4.34070313e-08,1.88892188e-01
-4.33670312e-08,1.88906250e-01
-4.33270312e-08,1.88893750e-01
-4.32870312e-08,1.88904688e-01
-4.32470312e-08,1.88895312e-01
-4.32070312e-08,1.88904688e-01
-4.31670312e-08,1.88896875e-01
-4.31270313e-08,1.88903125e-01
-4.30870312e-08,1.88898438e-01
-4.30470312e-08,1.88901563e-01
-4.30070312e-08,1.88900000e-01
-4.29670312e-08,1.88898438e-01
-4.29270312e-08,1.88904688e-01
-4.28870312e-08,1.88892188e-01
-4.28470313e-08,1.88917188e-01
-4.28070312e-08,1.88860938e-01
-4.27670312e-08,1.89089063e-01
-4.27270312e-08,1.89378125e-01
-4.26870312e-08,1.89237500e-01
-4.26470312e-08,1.89378125e-01
-4.26070312e-08,1.89073437e-01
-4.25670312e-08,1.88860938e-01
-4.25270312e-08,1.88917188e-01
-4.24870312e-08,1.88890625e-01
-4.24470312e-08,1.88906250e-01
-4.24070312e-08,1.88896875e-01
-4.23670312e-08,1.88903125e-01
-4.23270312e-08,1.88898438e-01
-4.22870312e-08,1.88901563e-01
-4.22470312e-08,1.88898438e-01
-4.22070312e-08,1.88901563e-01
-4.21670312e-08,1.88898438e-01
-4.21270312e-08,1.88901563e-01
-4.20870312e-08,1.88898438e-01
-4.20470313e-08,1.88901563e-01
-4.20070312e-08,1.88898438e-01
-4.19670312e-08,1.88901563e-01
-4.19270312e-08,1.88896875e-01
-4.18870312e-08,1.88903125e-01
-4.18470312e-08,1.88896875e-01
-4.18070312e-08,1.88904688e-01
-4.17670313e-08,1.88893750e-01
-4.17270312e-08,1.88907812e-01
-4.16870312e-08,1.88889063e-01
-4.16470312e-08,1.88915625e-01
-4.16070312e-08,1.88875000e-01
-4.15670312e-08,1.88950000e-01
-4.15270312e-08,1.88696875e-01
-4.14870313e-08,1.88440625e-01
-4.14470312e-08,1.88535938e-01
-4.14070312e-08,1.88473438e-01
-4.13670312e-08,1.88521875e-01
-4.13270312e-08,1.88481250e-01
-4.12870312e-08,1.88517188e-01
-4.12470312e-08,1.88484375e-01
-4.12070313e-08,1.88515625e-01
-4.11670312e-08,1.88484375e-01
-4.11270312e-08,1.88515625e-01
-4.10870312e-08,1.88484375e-01
-4.10470312e-08,1.88515625e-01
-4.10070312e-08,1.88482813e-01
-4.09670312e-08,1.88518750e-01
-4.09270313e-08,1.88478125e-01
-4.08870312e-08,1.88526562e-01
-4.08470312e-08,1.88464063e-01
-4.08070312e-08,1.88559375e-01
-4.07670312e-08,1.88287500e-01
-4.07270312e-08,1.88050000e-01
-4.06870312e-08,1.88126563e-01
-4.06470313e-08,1.88082813e-01
-4.06070312e-08,1.88112500e-01
-4.05670312e-08,1.88090625e-01
-4.05270312e-08,1.88106250e-01
-4.04870312e-08,1.88093750e-01
-4.04470312e-08,1.88104688e-01
-4.04070312e-08,1.88096875e-01
-4.03670312e-08,1.88103125e-01
-4.03270312e-08,1.88096875e-01
-4.02870312e-08,1.88103125e-01
-4.02470312e-08,1.88098437e-01
-4.02070312e-08,1.88101563e-01
-4.01670312e-08,1.88098437e-01
-4.01270313e-08,1.88101563e-01
-4.00870312e-08,1.88098437e-01
-4.00470312e-08,1.88101563e-01
-4.00070312e-08,1.88098437e-01
-3.99670312e-08,1.88101563e-01
-3.99270312e-08,1.88098437e-01
-3.98870312e-08,1.88101563e-01
-3.98470313e-08,1.88096875e-01
-3.98070312e-08,1.88103125e-01
-3.97670312e-08,1.88096875e-01
-3.97270312e-08,1.88104688e-01
-3.96870312e-08,1.88095313e-01
-3.96470312e-08,1.88106250e-01
-3.96070312e-08,1.88092188e-01
-3.95670313e-08,1.88110938e-01
-3.95270312e-08,1.88084375e-01
-3.94870312e-08,1.88125000e-01
-3.94470312e-08,1.88051563e-01
-3.94070312e-08,1.88301563e-01
-3.93670312e-08,1.88560937e-01
-3.93270312e-08,1.88460938e-01
-3.92870313e-08,1.88529688e-01
-3.92470312e-08,1.88473438e-01
-3.92070312e-08,1.88525000e-01
-3.91670312e-08,1.88475000e-01
-3.91270312e-08,1.88526562e-01
-3.90870312e-08,1.88468750e-01
-3.90470312e-08,1.88540625e-01
-3.90070313e-08,1.88434375e-01
-3.89670312e-08,1.88718750e-01
-3.89270312e-08,1.88943750e-01
-3.88870312e-08,1.88881250e-01
-3.88470312e-08,1.88907812e-01
-3.88070312e-08,1.88900000e-01
-3.87670312e-08,1.88893750e-01
-3.87270313e-08,1.88917188e-01
-3.86870312e-08,1.88856250e-01
-3.86470312e-08,1.89095313e-01
-3.86070312e-08,1.89367188e-01
-3.85670312e-08,1.89256250e-01
-3.85270312e-08,1.89337500e-01
