trails/0b415fe76bd122fbe60d5dd91566c6d8/aes_ch1_20250507111700307.csv

Model,MSO66B
Label,
Waveform Type,ANALOG
Horizontal Units,s
Sample Interval,4.00000000e-11
Record Length,10000
Zero Index,1599.07031250
Vertical Units,A
ANALOG_Thumbnail,
yOffset,1.84500000e-01
yPosition,8.40000000e-01

Labels,
TIME,CH1
-6.39628125e-08,1.88496875e-01
-6.39228125e-08,1.88501562e-01
-6.38828125e-08,1.88498438e-01
-6.38428125e-08,1.88500000e-01
-6.38028125e-08,1.88501562e-01
-6.37628125e-08,1.88496875e-01
-6.37228125e-08,1.88504688e-01
-6.36828125e-08,1.88493750e-01
-6.36428125e-08,1.88509375e-01
-6.36028125e-08,1.88487500e-01
-6.35628125e-08,1.88518750e-01
-6.35228125e-08,1.88470313e-01
-6.34828125e-08,1.88554688e-01
-6.34428125e-08,1.88290625e-01
-6.34028125e-08,1.88048437e-01
-6.33628125e-08,1.88126563e-01
-6.33228125e-08,1.88084375e-01
-6.32828125e-08,1.88109375e-01
-6.32428125e-08,1.88096875e-01
-6.32028125e-08,1.88098437e-01
-6.31628125e-08,1.88109375e-01
-6.31228125e-08,1.88079688e-01
-6.30828125e-08,1.88146875e-01
-6.30428125e-08,1.87898438e-01
-6.30028125e-08,1.87640625e-01
-6.29628125e-08,1.87734375e-01
-6.29228125e-08,1.87676563e-01
-6.28828125e-08,1.87715625e-01
-6.28428125e-08,1.87689063e-01
-6.28028125e-08,1.87704687e-01
-6.27628125e-08,1.87701563e-01
-6.27228125e-08,1.87687500e-01
-6.26828125e-08,1.87739062e-01
-6.26428125e-08,1.87506250e-01
-6.26028125e-08,1.87232813e-01
-6.25628125e-08,1.87343750e-01
-6.25228125e-08,1.87267188e-01
-6.24828125e-08,1.87328125e-01
-6.24428125e-08,1.87276563e-01
-6.24028125e-08,1.87321875e-01
-6.23628125e-08,1.87281250e-01
-6.23228125e-08,1.87317188e-01
-6.22828125e-08,1.87284375e-01
-6.22428125e-08,1.87315625e-01
-6.22028125e-08,1.87285937e-01
-6.21628125e-08,1.87312500e-01
-6.21228125e-08,1.87287500e-01
-6.20828125e-08,1.87310937e-01
-6.20428125e-08,1.87289063e-01
-6.20028125e-08,1.87309375e-01
-6.19628125e-08,1.87290625e-01
-6.19228125e-08,1.87307813e-01
-6.18828125e-08,1.87293750e-01
-6.18428125e-08,1.87306250e-01
-6.18028125e-08,1.87295313e-01
-6.17628125e-08,1.87303125e-01
-6.17228125e-08,1.87298437e-01
-6.16828125e-08,1.87298437e-01
-6.16428125e-08,1.87304688e-01
-6.16028125e-08,1.87289063e-01
-6.15628125e-08,1.87320313e-01
-6.15228125e-08,1.87254688e-01
-6.14828125e-08,1.87500000e-01
-6.14428125e-08,1.87762500e-01
-6.14028125e-08,1.87662500e-01
-6.13628125e-08,1.87728125e-01
-6.13228125e-08,1.87678125e-01
-6.12828125e-08,1.87717187e-01
-6.12428125e-08,1.87685938e-01
-6.12028125e-08,1.87710938e-01
-6.11628125e-08,1.87693750e-01
-6.11228125e-08,1.87700000e-01
-6.10828125e-08,1.87709375e-01
-6.10428125e-08,1.87665625e-01
-6.10028125e-08,1.87887500e-01
-6.09628125e-08,1.88173438e-01
-6.09228125e-08,1.88050000e-01
-6.08828125e-08,1.88140625e-01
-6.08428125e-08,1.88064063e-01
-6.08028125e-08,1.88134375e-01
-6.07628125e-08,1.88067188e-01
-6.07228125e-08,1.88132812e-01
-6.06828125e-08,1.88067188e-01
-6.06428125e-08,1.88135938e-01
-6.06028125e-08,1.88060937e-01
-6.05628125e-08,1.88148438e-01
-6.05228125e-08,1.88028125e-01
-6.04828125e-08,1.88325000e-01
-6.04428125e-08,1.88537500e-01
-6.04028125e-08,1.88485938e-01
-6.03628125e-08,1.88504688e-01
-6.03228125e-08,1.88500000e-01
-6.02828125e-08,1.88498438e-01
-6.02428125e-08,1.88503125e-01
-6.02028125e-08,1.88495313e-01
-6.01628125e-08,1.88506250e-01
-6.01228125e-08,1.88493750e-01
-6.00828125e-08,1.88507813e-01
-6.00428125e-08,1.88492188e-01
-6.00028125e-08,1.88507813e-01
-5.99628125e-08,1.88492188e-01
-5.99228125e-08,1.88507813e-01
-5.98828125e-08,1.88490625e-01
-5.98428125e-08,1.88509375e-01
-5.98028125e-08,1.88490625e-01
-5.97628125e-08,1.88509375e-01
-5.97228125e-08,1.88490625e-01
-5.96828125e-08,1.88509375e-01
-5.96428125e-08,1.88490625e-01
-5.96028125e-08,1.88509375e-01
-5.95628125e-08,1.88490625e-01
-5.95228125e-08,1.88509375e-01
-5.94828125e-08,1.88489062e-01
-5.94428125e-08,1.88510938e-01
-5.94028125e-08,1.88489062e-01
-5.93628125e-08,1.88510938e-01
-5.93228125e-08,1.88489062e-01
-5.92828125e-08,1.88512500e-01
-5.92428125e-08,1.88487500e-01
-5.92028125e-08,1.88512500e-01
-5.91628125e-08,1.88485938e-01
-5.91228125e-08,1.88514062e-01
-5.90828125e-08,1.88484375e-01
-5.90428125e-08,1.88517188e-01
-5.90028125e-08,1.88481250e-01
-5.89628125e-08,1.88521875e-01
-5.89228125e-08,1.88473438e-01
-5.88828125e-08,1.88535938e-01
-5.88428125e-08,1.88439063e-01
-5.88028125e-08,1.88714063e-01
-5.87628125e-08,1.88948438e-01
-5.87228125e-08,1.88876563e-01
-5.86828125e-08,1.88914063e-01
-5.86428125e-08,1.88890625e-01
-5.86028125e-08,1.88906250e-01
-5.85628125e-08,1.88895312e-01
-5.85228125e-08,1.88903125e-01
-5.84828125e-08,1.88896875e-01
-5.84428125e-08,1.88901563e-01
-5.84028125e-08,1.88898438e-01
-5.83628125e-08,1.88900000e-01
-5.83228125e-08,1.88900000e-01
-5.82828125e-08,1.88900000e-01
-5.82428125e-08,1.88900000e-01
-5.82028125e-08,1.88900000e-01
-5.81628125e-08,1.88900000e-01
-5.81228125e-08,1.88898438e-01
-5.80828125e-08,1.88901563e-01
-5.80428125e-08,1.88898438e-01
-5.80028125e-08,1.88901563e-01
-5.79628125e-08,1.88900000e-01
-5.79228125e-08,1.88900000e-01
-5.78828125e-08,1.88900000e-01
-5.78428125e-08,1.88900000e-01
-5.78028125e-08,1.88900000e-01
-5.77628125e-08,1.88898438e-01
-5.77228125e-08,1.88901563e-01
-5.76828125e-08,1.88896875e-01
-5.76428125e-08,1.88904688e-01
-5.76028125e-08,1.88892188e-01
-5.75628125e-08,1.88912500e-01
-5.75228125e-08,1.88878125e-01
-5.74828125e-08,1.88946875e-01
-5.74428125e-08,1.88700000e-01
-5.74028125e-08,1.88437500e-01
-5.73628125e-08,1.88539063e-01
-5.73228125e-08,1.88468750e-01
-5.72828125e-08,1.88526562e-01
-5.72428125e-08,1.88476562e-01
-5.72028125e-08,1.88523438e-01
-5.71628125e-08,1.88478125e-01
-5.71228125e-08,1.88521875e-01
-5.70828125e-08,1.88476562e-01
-5.70428125e-08,1.88525000e-01
-5.70028125e-08,1.88473438e-01
-5.69628125e-08,1.88531250e-01
-5.69228125e-08,1.88459375e-01
-5.68828125e-08,1.88565625e-01
-5.68428125e-08,1.88281250e-01
-5.68028125e-08,1.88056250e-01
-5.67628125e-08,1.88118750e-01
-5.67228125e-08,1.88090625e-01
-5.66828125e-08,1.88104688e-01
-5.66428125e-08,1.88098437e-01
-5.66028125e-08,1.88100000e-01
-5.65628125e-08,1.88101563e-01
-5.65228125e-08,1.88096875e-01
-5.64828125e-08,1.88104688e-01
-5.64428125e-08,1.88093750e-01
-5.64028125e-08,1.88107812e-01
-5.63628125e-08,1.88090625e-01
-5.63228125e-08,1.88110938e-01
-5.62828125e-08,1.88085937e-01
-5.62428125e-08,1.88117188e-01
-5.62028125e-08,1.88078125e-01
-5.61628125e-08,1.88131250e-01
-5.61228125e-08,1.88043750e-01
-5.60828125e-08,1.88309375e-01
-5.60428125e-08,1.88551563e-01
-5.60028125e-08,1.88471875e-01
-5.59628125e-08,1.88518750e-01
-5.59228125e-08,1.88485938e-01
-5.58828125e-08,1.88510938e-01
-5.58428125e-08,1.88492188e-01
-5.58028125e-08,1.88506250e-01
-5.57628125e-08,1.88493750e-01
-5.57228125e-08,1.88504688e-01
-5.56828125e-08,1.88495313e-01
-5.56428125e-08,1.88503125e-01
-5.56028125e-08,1.88496875e-01
-5.55628125e-08,1.88503125e-01
-5.55228125e-08,1.88498438e-01
-5.54828125e-08,1.88501562e-01
-5.54428125e-08,1.88498438e-01
-5.54028125e-08,1.88501562e-01
-5.53628125e-08,1.88498438e-01
-5.53228125e-08,1.88500000e-01
-5.52828125e-08,1.88500000e-01
-5.52428125e-08,1.88500000e-01
-5.52028125e-08,1.88500000e-01
-5.51628125e-08,1.88500000e-01
-5.51228125e-08,1.88500000e-01
-5.50828125e-08,1.88500000e-01
-5.50428125e-08,1.88500000e-01
-5.50028125e-08,1.88500000e-01
-5.49628125e-08,1.88500000e-01
-5.49228125e-08,1.88498438e-01
-5.48828125e-08,1.88501562e-01
-5.48428125e-08,1.88498438e-01
-5.48028125e-08,1.88501562e-01
-5.47628125e-08,1.88498438e-01
-5.47228125e-08,1.88501562e-01
-5.46828125e-08,1.88498438e-01
-5.46428125e-08,1.88501562e-01
-5.46028125e-08,1.88498438e-01
-5.45628125e-08,1.88501562e-01
-5.45228125e-08,1.88498438e-01
-5.44828125e-08,1.88501562e-01
-5.44428125e-08,1.88498438e-01
-5.44028125e-08,1.88501562e-01
-5.43628125e-08,1.88498438e-01
-5.43228125e-08,1.88501562e-01
-5.42828125e-08,1.88498438e-01
-5.42428125e-08,1.88501562e-01
-5.42028125e-08,1.88496875e-01
-5.41628125e-08,1.88503125e-01
-5.41228125e-08,1.88496875e-01
-5.40828125e-08,1.88503125e-01
-5.40428125e-08,1.88496875e-01
-5.40028125e-08,1.88503125e-01
-5.39628125e-08,1.88496875e-01
-5.39228125e-08,1.88503125e-01
-5.38828125e-08,1.88496875e-01
-5.38428125e-08,1.88503125e-01
-5.38028125e-08,1.88496875e-01
-5.37628125e-08,1.88503125e-01
-5.37228125e-08,1.88496875e-01
-5.36828125e-08,1.88504688e-01
-5.36428125e-08,1.88495313e-01
-5.36028125e-08,1.88504688e-01
-5.35628125e-08,1.88495313e-01
-5.35228125e-08,1.88504688e-01
-5.34828125e-08,1.88495313e-01
-5.34428125e-08,1.88506250e-01
-5.34028125e-08,1.88493750e-01
-5.33628125e-08,1.88506250e-01
-5.33228125e-08,1.88492188e-01
-5.32828125e-08,1.88507813e-01
-5.32428125e-08,1.88490625e-01
-5.32028125e-08,1.88510938e-01
-5.31628125e-08,1.88487500e-01
-5.31228125e-08,1.88515625e-01
-5.30828125e-08,1.88478125e-01
-5.30428125e-08,1.88531250e-01
-5.30028125e-08,1.88443750e-01
-5.29628125e-08,1.88709375e-01
-5.29228125e-08,1.88953125e-01
-5.28828125e-08,1.88870312e-01
-5.28428125e-08,1.88920313e-01
-5.28028125e-08,1.88884375e-01
-5.27628125e-08,1.88912500e-01
-5.27228125e-08,1.88890625e-01
-5.26828125e-08,1.88909375e-01
-5.26428125e-08,1.88892188e-01
-5.26028125e-08,1.88906250e-01
-5.25628125e-08,1.88893750e-01
-5.25228125e-08,1.88906250e-01
-5.24828125e-08,1.88895312e-01
-5.24428125e-08,1.88904688e-01
-5.24028125e-08,1.88895312e-01
-5.23628125e-08,1.88904688e-01
-5.23228125e-08,1.88896875e-01
-5.22828125e-08,1.88903125e-01
-5.22428125e-08,1.88896875e-01
-5.22028125e-08,1.88903125e-01
-5.21628125e-08,1.88896875e-01
-5.21228125e-08,1.88903125e-01
-5.20828125e-08,1.88896875e-01
-5.20428125e-08,1.88903125e-01
-5.20028125e-08,1.88896875e-01
-5.19628125e-08,1.88903125e-01
-5.19228125e-08,1.88896875e-01
-5.18828125e-08,1.88903125e-01
-5.18428125e-08,1.88896875e-01
-5.18028125e-08,1.88904688e-01
-5.17628125e-08,1.88895312e-01
-5.17228125e-08,1.88904688e-01
-5.16828125e-08,1.88893750e-01
-5.16428125e-08,1.88906250e-01
-5.16028125e-08,1.88892188e-01
-5.15628125e-08,1.88909375e-01
-5.15228125e-08,1.88887500e-01
-5.14828125e-08,1.88917188e-01
-5.14428125e-08,1.88873438e-01
-5.14028125e-08,1.88950000e-01
-5.13628125e-08,1.88696875e-01
-5.13228125e-08,1.88440625e-01
-5.12828125e-08,1.88535938e-01
-5.12428125e-08,1.88471875e-01
-5.12028125e-08,1.88525000e-01
-5.11628125e-08,1.88476562e-01
-5.11228125e-08,1.88523438e-01
-5.10828125e-08,1.88475000e-01
-5.10428125e-08,1.88528125e-01
-5.10028125e-08,1.88462500e-01
-5.09628125e-08,1.88560937e-01
-5.09228125e-08,1.88285938e-01
-5.08828125e-08,1.88051563e-01
-5.08428125e-08,1.88125000e-01
-5.08028125e-08,1.88084375e-01
-5.07628125e-08,1.88110938e-01
-5.07228125e-08,1.88092188e-01
-5.06828125e-08,1.88106250e-01
-5.06428125e-08,1.88095313e-01
-5.06028125e-08,1.88104688e-01
-5.05628125e-08,1.88096875e-01
-5.05228125e-08,1.88103125e-01
-5.04828125e-08,1.88096875e-01
-5.04428125e-08,1.88101563e-01
-5.04028125e-08,1.88098437e-01
-5.03628125e-08,1.88101563e-01
-5.03228125e-08,1.88098437e-01
-5.02828125e-08,1.88101563e-01
-5.02428125e-08,1.88098437e-01
-5.02028125e-08,1.88101563e-01
-5.01628125e-08,1.88100000e-01
-5.01228125e-08,1.88100000e-01
-5.00828125e-08,1.88100000e-01
-5.00428125e-08,1.88100000e-01
-5.00028125e-08,1.88100000e-01
-4.99628125e-08,1.88100000e-01
-4.99228125e-08,1.88100000e-01
-4.98828125e-08,1.88100000e-01
-4.98428125e-08,1.88100000e-01
-4.98028125e-08,1.88100000e-01
-4.97628125e-08,1.88100000e-01
-4.97228125e-08,1.88098437e-01
-4.96828125e-08,1.88101563e-01
-4.96428125e-08,1.88098437e-01
-4.96028125e-08,1.88101563e-01
-4.95628125e-08,1.88098437e-01
-4.95228125e-08,1.88101563e-01
-4.94828125e-08,1.88098437e-01
-4.94428125e-08,1.88103125e-01
-4.94028125e-08,1.88096875e-01
-4.93628125e-08,1.88103125e-01
-4.93228125e-08,1.88095313e-01
-4.92828125e-08,1.88104688e-01
-4.92428125e-08,1.88093750e-01
-4.92028125e-08,1.88107812e-01
-4.91628125e-08,1.88090625e-01
-4.91228125e-08,1.88112500e-01
-4.90828125e-08,1.88082813e-01
-4.90428125e-08,1.88126563e-01
-4.90028125e-08,1.88048437e-01
-4.89628125e-08,1.88304688e-01
-4.89228125e-08,1.88557813e-01
-4.88828125e-08,1.88465625e-01
-4.88428125e-08,1.88525000e-01
-4.88028125e-08,1.88479687e-01
-4.87628125e-08,1.88517188e-01
-4.87228125e-08,1.88484375e-01
-4.86828125e-08,1.88515625e-01
-4.86428125e-08,1.88485938e-01
-4.86028125e-08,1.88514062e-01
-4.85628125e-08,1.88485938e-01
-4.85228125e-08,1.88514062e-01
-4.84828125e-08,1.88484375e-01
-4.84428125e-08,1.88517188e-01
-4.84028125e-08,1.88481250e-01
-4.83628125e-08,1.88521875e-01
-4.83228125e-08,1.88473438e-01
-4.82828125e-08,1.88535938e-01
-4.82428125e-08,1.88439063e-01
-4.82028125e-08,1.88714063e-01
-4.81628125e-08,1.88948438e-01
-4.81228125e-08,1.88875000e-01
-4.80828125e-08,1.88914063e-01
-4.80428125e-08,1.88890625e-01
-4.80028125e-08,1.88906250e-01
-4.79628125e-08,1.88896875e-01
-4.79228125e-08,1.88901563e-01
-4.78828125e-08,1.88900000e-01
-4.78428125e-08,1.88896875e-01
-4.78028125e-08,1.88904688e-01
-4.77628125e-08,1.88890625e-01
-4.77228125e-08,1.88914063e-01
-4.76828125e-08,1.88876563e-01
-4.76428125e-08,1.88948438e-01
-4.76028125e-08,1.88698438e-01
-4.75628125e-08,1.88439063e-01
-4.75228125e-08,1.88535938e-01
-4.74828125e-08,1.88471875e-01
-4.74428125e-08,1.88521875e-01
-4.74028125e-08,1.88479687e-01
-4.73628125e-08,1.88518750e-01
-4.73228125e-08,1.88482813e-01
-4.72828125e-08,1.88517188e-01
-4.72428125e-08,1.88482813e-01
-4.72028125e-08,1.88517188e-01
-4.71628125e-08,1.88482813e-01
-4.71228125e-08,1.88518750e-01
-4.70828125e-08,1.88478125e-01
-4.70428125e-08,1.88526562e-01
-4.70028125e-08,1.88464063e-01
-4.69628125e-08,1.88560937e-01
-4.69228125e-08,1.88285938e-01
-4.68828125e-08,1.88051563e-01
-4.68428125e-08,1.88125000e-01
-4.68028125e-08,1.88084375e-01
-4.67628125e-08,1.88110938e-01
-4.67228125e-08,1.88092188e-01
-4.66828125e-08,1.88106250e-01
-4.66428125e-08,1.88095313e-01
-4.66028125e-08,1.88103125e-01
-4.65628125e-08,1.88096875e-01
-4.65228125e-08,1.88103125e-01
-4.64828125e-08,1.88098437e-01
-4.64428125e-08,1.88101563e-01
-4.64028125e-08,1.88098437e-01
-4.63628125e-08,1.88100000e-01
-4.63228125e-08,1.88100000e-01
-4.62828125e-08,1.88100000e-01
-4.62428125e-08,1.88100000e-01
-4.62028125e-08,1.88100000e-01
-4.61628125e-08,1.88100000e-01
-4.61228125e-08,1.88100000e-01
-4.60828125e-08,1.88101563e-01
-4.60428125e-08,1.88098437e-01
-4.60028125e-08,1.88101563e-01
-4.59628125e-08,1.88098437e-01
-4.59228125e-08,1.88101563e-01
-4.58828125e-08,1.88098437e-01
-4.58428125e-08,1.88101563e-01
-4.58028125e-08,1.88096875e-01
-4.57628125e-08,1.88103125e-01
-4.57228125e-08,1.88096875e-01
-4.56828125e-08,1.88103125e-01
-4.56428125e-08,1.88095313e-01
-4.56028125e-08,1.88104688e-01
-4.55628125e-08,1.88095313e-01
-4.55228125e-08,1.88106250e-01
-4.54828125e-08,1.88092188e-01
-4.54428125e-08,1.88109375e-01
-4.54028125e-08,1.88089063e-01
-4.53628125e-08,1.88114063e-01
-4.53228125e-08,1.88081250e-01
-4.52828125e-08,1.88128125e-01
-4.52428125e-08,1.88046875e-01
-4.52028125e-08,1.88306250e-01
-4.51628125e-08,1.88556250e-01
-4.51228125e-08,1.88468750e-01
-4.50828125e-08,1.88521875e-01
-4.50428125e-08,1.88482813e-01
-4.50028125e-08,1.88514062e-01
-4.49628125e-08,1.88487500e-01
-4.49228125e-08,1.88510938e-01
-4.48828125e-08,1.88490625e-01
-4.48428125e-08,1.88509375e-01
-4.48028125e-08,1.88492188e-01
-4.47628125e-08,1.88507813e-01
-4.47228125e-08,1.88492188e-01
-4.46828125e-08,1.88506250e-01
-4.46428125e-08,1.88493750e-01
-4.46028125e-08,1.88506250e-01
-4.45628125e-08,1.88493750e-01
-4.45228125e-08,1.88506250e-01
-4.44828125e-08,1.88493750e-01
-4.44428125e-08,1.88506250e-01
-4.44028125e-08,1.88493750e-01
-4.43628125e-08,1.88506250e-01
-4.43228125e-08,1.88493750e-01
-4.42828125e-08,1.88506250e-01
-4.42428125e-08,1.88493750e-01
-4.42028125e-08,1.88506250e-01
-4.41628125e-08,1.88493750e-01
-4.41228125e-08,1.88506250e-01
-4.40828125e-08,1.88493750e-01
-4.40428125e-08,1.88506250e-01
-4.40028125e-08,1.88493750e-01
-4.39628125e-08,1.88506250e-01
-4.39228125e-08,1.88493750e-01
-4.38828125e-08,1.88506250e-01
-4.38428125e-08,1.88493750e-01
-4.38028125e-08,1.88506250e-01
-4.37628125e-08,1.88492188e-01
-4.37228125e-08,1.88507813e-01
-4.36828125e-08,1.88492188e-01
-4.36428125e-08,1.88509375e-01
-4.36028125e-08,1.88490625e-01
-4.35628125e-08,1.88510938e-01
-4.35228125e-08,1.88487500e-01
-4.34828125e-08,1.88514062e-01
-4.34428125e-08,1.88482813e-01
-4.34028125e-08,1.88521875e-01
-4.33628125e-08,1.88468750e-01
-4.33228125e-08,1.88556250e-01
-4.32828125e-08,1.88290625e-01
-4.32428125e-08,1.88046875e-01
-4.32028125e-08,1.88129688e-01
-4.31628125e-08,1.88079688e-01
-4.31228125e-08,1.88115625e-01
-4.30828125e-08,1.88087500e-01
-4.30428125e-08,1.88110938e-01
-4.30028125e-08,1.88090625e-01
-4.29628125e-08,1.88109375e-01
-4.29228125e-08,1.88092188e-01
-4.28828125e-08,1.88107812e-01
-4.28428125e-08,1.88092188e-01
-4.28028125e-08,1.88109375e-01
-4.27628125e-08,1.88090625e-01
-4.27228125e-08,1.88110938e-01
-4.26828125e-08,1.88085937e-01
-4.26428125e-08,1.88118750e-01
-4.26028125e-08,1.88073437e-01
-4.25628125e-08,1.88151563e-01
-4.25228125e-08,1.87895312e-01
-4.24828125e-08,1.87642188e-01
-4.24428125e-08,1.87735938e-01
-4.24028125e-08,1.87673438e-01
-4.23628125e-08,1.87721875e-01
-4.23228125e-08,1.87679687e-01
-4.22828125e-08,1.87718750e-01
-4.22428125e-08,1.87681250e-01
-4.22028125e-08,1.87718750e-01
-4.21628125e-08,1.87679687e-01
-4.21228125e-08,1.87721875e-01
-4.20828125e-08,1.87676563e-01
-4.20428125e-08,1.87729688e-01
-4.20028125e-08,1.87660938e-01
-4.19628125e-08,1.87764062e-01
-4.19228125e-08,1.87482813e-01
-4.18828125e-08,1.87254688e-01
-4.18428125e-08,1.87321875e-01
-4.18028125e-08,1.87289063e-01
-4.17628125e-08,1.87306250e-01
-4.17228125e-08,1.87298437e-01
-4.16828125e-08,1.87300000e-01
-4.16428125e-08,1.87303125e-01
-4.16028125e-08,1.87293750e-01
-4.15628125e-08,1.87309375e-01
-4.15228125e-08,1.87287500e-01
-4.14828125e-08,1.87318750e-01
-4.14428125e-08,1.87271875e-01
-4.14028125e-08,1.87353125e-01
-4.13628125e-08,1.87092188e-01
-4.13228125e-08,1.86845312e-01
-4.12828125e-08,1.86931250e-01
-4.12428125e-08,1.86879688e-01
-4.12028125e-08,1.86915625e-01
-4.11628125e-08,1.86887500e-01
-4.11228125e-08,1.86909375e-01
-4.10828125e-08,1.86892188e-01
-4.10428125e-08,1.86906250e-01
-4.10028125e-08,1.86893750e-01
-4.09628125e-08,1.86904687e-01
-4.09228125e-08,1.86896875e-01
-4.08828125e-08,1.86903125e-01
-4.08428125e-08,1.86898438e-01
-4.08028125e-08,1.86901563e-01
-4.07628125e-08,1.86900000e-01
-4.07228125e-08,1.86900000e-01
-4.06828125e-08,1.86901563e-01
-4.06428125e-08,1.86898438e-01
-4.06028125e-08,1.86903125e-01
-4.05628125e-08,1.86895313e-01
-4.05228125e-08,1.86904687e-01
-4.04828125e-08,1.86893750e-01
-4.04428125e-08,1.86909375e-01
-4.04028125e-08,1.86889063e-01
-4.03628125e-08,1.86915625e-01
-4.03228125e-08,1.86879688e-01
-4.02828125e-08,1.86931250e-01
-4.02428125e-08,1.86843750e-01
-4.02028125e-08,1.87110938e-01
-4.01628125e-08,1.87351563e-01
-4.01228125e-08,1.87273438e-01
-4.00828125e-08,1.87315625e-01
-4.00428125e-08,1.87290625e-01
-4.00028125e-08,1.87303125e-01
-3.99628125e-08,1.87301563e-01
-3.99228125e-08,1.87292188e-01
-3.98828125e-08,1.87320313e-01
-3.98428125e-08,1.87254688e-01
-3.98028125e-08,1.87500000e-01
-3.97628125e-08,1.87760938e-01
-3.97228125e-08,1.87664063e-01
-3.96828125e-08,1.87726562e-01
-3.96428125e-08,1.87679687e-01
-3.96028125e-08,1.87715625e-01
-3.95628125e-08,1.87689063e-01
-3.95228125e-08,1.87707813e-01
-3.94828125e-08,1.87696875e-01
-3.94428125e-08,1.87696875e-01
-3.94028125e-08,1.87712500e-01
-3.93628125e-08,1.87660938e-01
-3.93228125e-08,1.87892188e-01
-3.92828125e-08,1.88170313e-01
-3.92428125e-08,1.88054688e-01
-3.92028125e-08,1.88135938e-01
-3.91628125e-08,1.88068750e-01
-3.91228125e-08,1.88128125e-01
-3.90828125e-08,1.88075000e-01
-3.90428125e-08,1.88123438e-01
-3.90028125e-08,1.88076563e-01
-3.89628125e-08,1.88121875e-01
-3.89228125e-08,1.88078125e-01
-3.88828125e-08,1.88120312e-01
-3.88428125e-08,1.88079688e-01
-3.88028125e-08,1.88120312e-01
-3.87628125e-08,1.88079688e-01
-3.87228125e-08,1.88120312e-01
-3.86828125e-08,1.88079688e-01
-3.86428125e-08,1.88121875e-01
-3.86028125e-08,1.88078125e-01
-3.85628125e-08,1.88121875e-01
-3.85228125e-08,1.88076563e-01
