trails/0b415fe76bd122fbe60d5dd91566c6d8/aes_ch1_20250507111226381.csv

Model,MSO66B
Label,
Waveform Type,ANALOG
Horizontal Units,s
Sample Interval,4.00000000e-11
Record Length,10000
Zero Index,1599.18750000
Vertical Units,A
ANALOG_Thumbnail,
yOffset,1.84500000e-01
yPosition,8.40000000e-01

Labels,
TIME,CH1
-6.39675000e-08,1.89671875e-01
-6.39275000e-08,1.89726563e-01
-6.38875000e-08,1.89671875e-01
-6.38475000e-08,1.89732813e-01
-6.38075000e-08,1.89659375e-01
-6.37675000e-08,1.89765625e-01
-6.37275000e-08,1.89482813e-01
-6.36875000e-08,1.89254688e-01
-6.36475000e-08,1.89321875e-01
-6.36075000e-08,1.89287500e-01
-6.35675000e-08,1.89307813e-01
-6.35275000e-08,1.89293750e-01
-6.34875000e-08,1.89304688e-01
-6.34475000e-08,1.89296875e-01
-6.34075000e-08,1.89301563e-01
-6.33675000e-08,1.89298437e-01
-6.33275000e-08,1.89301563e-01
-6.32875000e-08,1.89300000e-01
-6.32475000e-08,1.89300000e-01
-6.32075000e-08,1.89300000e-01
-6.31675000e-08,1.89300000e-01
-6.31275000e-08,1.89300000e-01
-6.30875000e-08,1.89300000e-01
-6.30475000e-08,1.89300000e-01
-6.30075000e-08,1.89300000e-01
-6.29675000e-08,1.89300000e-01
-6.29275000e-08,1.89300000e-01
-6.28875000e-08,1.89300000e-01
-6.28475000e-08,1.89300000e-01
-6.28075000e-08,1.89300000e-01
-6.27675000e-08,1.89300000e-01
-6.27275000e-08,1.89300000e-01
-6.26875000e-08,1.89300000e-01
-6.26475000e-08,1.89300000e-01
-6.26075000e-08,1.89300000e-01
-6.25675000e-08,1.89300000e-01
-6.25275000e-08,1.89301563e-01
-6.24875000e-08,1.89298437e-01
-6.24475000e-08,1.89301563e-01
-6.24075000e-08,1.89298437e-01
-6.23675000e-08,1.89303125e-01
-6.23275000e-08,1.89296875e-01
-6.22875000e-08,1.89303125e-01
-6.22475000e-08,1.89295313e-01
-6.22075000e-08,1.89306250e-01
-6.21675000e-08,1.89292188e-01
-6.21275000e-08,1.89310937e-01
-6.20875000e-08,1.89284375e-01
-6.20475000e-08,1.89325000e-01
-6.20075000e-08,1.89250000e-01
-6.19675000e-08,1.89503125e-01
-6.19275000e-08,1.89759375e-01
-6.18875000e-08,1.89664063e-01
-6.18475000e-08,1.89726563e-01
-6.18075000e-08,1.89678125e-01
-6.17675000e-08,1.89718750e-01
-6.17275000e-08,1.89682813e-01
-6.16875000e-08,1.89715625e-01
-6.16475000e-08,1.89685938e-01
-6.16075000e-08,1.89714063e-01
-6.15675000e-08,1.89685938e-01
-6.15275000e-08,1.89714063e-01
-6.14875000e-08,1.89685938e-01
-6.14475000e-08,1.89714063e-01
-6.14075000e-08,1.89685938e-01
-6.13675000e-08,1.89715625e-01
-6.13275000e-08,1.89682813e-01
-6.12875000e-08,1.89717187e-01
-6.12475000e-08,1.89679687e-01
-6.12075000e-08,1.89723438e-01
-6.11675000e-08,1.89671875e-01
-6.11275000e-08,1.89737500e-01
-6.10875000e-08,1.89637500e-01
-6.10475000e-08,1.89917188e-01
-6.10075000e-08,1.90145312e-01
-6.09675000e-08,1.90079688e-01
-6.09275000e-08,1.90110938e-01
-6.08875000e-08,1.90095313e-01
-6.08475000e-08,1.90100000e-01
-6.08075000e-08,1.90104688e-01
-6.07675000e-08,1.90089063e-01
-6.07275000e-08,1.90121875e-01
-6.06875000e-08,1.90053125e-01
-6.06475000e-08,1.90300000e-01
-6.06075000e-08,1.90562500e-01
-6.05675000e-08,1.90460938e-01
-6.05275000e-08,1.90531250e-01
-6.04875000e-08,1.90471875e-01
-6.04475000e-08,1.90528125e-01
-6.04075000e-08,1.90468750e-01
-6.03675000e-08,1.90539062e-01
-6.03275000e-08,1.90437500e-01
-6.02875000e-08,1.90714063e-01
-6.02475000e-08,1.90950000e-01
-6.02075000e-08,1.90873438e-01
-6.01675000e-08,1.90918750e-01
-6.01275000e-08,1.90885938e-01
-6.00875000e-08,1.90912500e-01
-6.00475000e-08,1.90889063e-01
-6.00075000e-08,1.90909375e-01
-5.99675000e-08,1.90890625e-01
-5.99275000e-08,1.90910938e-01
-5.98875000e-08,1.90887500e-01
-5.98475000e-08,1.90914063e-01
-5.98075000e-08,1.90881250e-01
-5.97675000e-08,1.90926563e-01
-5.97275000e-08,1.90850000e-01
-5.96875000e-08,1.91103125e-01
-5.96475000e-08,1.91362500e-01
-5.96075000e-08,1.91259375e-01
-5.95675000e-08,1.91335937e-01
-5.95275000e-08,1.91259375e-01
-5.94875000e-08,1.91362500e-01
-5.94475000e-08,1.91085937e-01
-5.94075000e-08,1.90850000e-01
-5.93675000e-08,1.90928125e-01
-5.93275000e-08,1.90879688e-01
-5.92875000e-08,1.90915625e-01
-5.92475000e-08,1.90885938e-01
-5.92075000e-08,1.90914063e-01
-5.91675000e-08,1.90887500e-01
-5.91275000e-08,1.90914063e-01
-5.90875000e-08,1.90885938e-01
-5.90475000e-08,1.90915625e-01
-5.90075000e-08,1.90881250e-01
-5.89675000e-08,1.90923438e-01
-5.89275000e-08,1.90865625e-01
-5.88875000e-08,1.90959375e-01
-5.88475000e-08,1.90687500e-01
-5.88075000e-08,1.90450000e-01
-5.87675000e-08,1.90525000e-01
-5.87275000e-08,1.90484375e-01
-5.86875000e-08,1.90509375e-01
-5.86475000e-08,1.90495313e-01
-5.86075000e-08,1.90500000e-01
-5.85675000e-08,1.90506250e-01
-5.85275000e-08,1.90484375e-01
-5.84875000e-08,1.90540625e-01
-5.84475000e-08,1.90306250e-01
-5.84075000e-08,1.90031250e-01
-5.83675000e-08,1.90145312e-01
-5.83275000e-08,1.90062500e-01
-5.82875000e-08,1.90134375e-01
-5.82475000e-08,1.90065625e-01
-5.82075000e-08,1.90137500e-01
-5.81675000e-08,1.90054688e-01
-5.81275000e-08,1.90170312e-01
-5.80875000e-08,1.89878125e-01
-5.80475000e-08,1.89659375e-01
-5.80075000e-08,1.89717187e-01
-5.79675000e-08,1.89692187e-01
-5.79275000e-08,1.89701563e-01
-5.78875000e-08,1.89701563e-01
-5.78475000e-08,1.89695313e-01
-5.78075000e-08,1.89707813e-01
-5.77675000e-08,1.89689063e-01
-5.77275000e-08,1.89717187e-01
-5.76875000e-08,1.89673438e-01
-5.76475000e-08,1.89753125e-01
-5.76075000e-08,1.89493750e-01
-5.75675000e-08,1.89243750e-01
-5.75275000e-08,1.89332813e-01
-5.74875000e-08,1.89276562e-01
-5.74475000e-08,1.89317188e-01
-5.74075000e-08,1.89284375e-01
-5.73675000e-08,1.89312500e-01
-5.73275000e-08,1.89289062e-01
-5.72875000e-08,1.89310937e-01
-5.72475000e-08,1.89290625e-01
-5.72075000e-08,1.89309375e-01
-5.71675000e-08,1.89290625e-01
-5.71275000e-08,1.89307813e-01
-5.70875000e-08,1.89292188e-01
-5.70475000e-08,1.89307813e-01
-5.70075000e-08,1.89292188e-01
-5.69675000e-08,1.89307813e-01
-5.69275000e-08,1.89292188e-01
-5.68875000e-08,1.89309375e-01
-5.68475000e-08,1.89290625e-01
-5.68075000e-08,1.89309375e-01
-5.67675000e-08,1.89289062e-01
-5.67275000e-08,1.89312500e-01
-5.66875000e-08,1.89285938e-01
-5.66475000e-08,1.89317188e-01
-5.66075000e-08,1.89278125e-01
-5.65675000e-08,1.89331250e-01
-5.65275000e-08,1.89243750e-01
-5.64875000e-08,1.89509375e-01
-5.64475000e-08,1.89753125e-01
-5.64075000e-08,1.89670312e-01
-5.63675000e-08,1.89720313e-01
-5.63275000e-08,1.89684375e-01
-5.62875000e-08,1.89712500e-01
-5.62475000e-08,1.89689063e-01
-5.62075000e-08,1.89709375e-01
-5.61675000e-08,1.89692187e-01
-5.61275000e-08,1.89707813e-01
-5.60875000e-08,1.89693750e-01
-5.60475000e-08,1.89706250e-01
-5.60075000e-08,1.89693750e-01
-5.59675000e-08,1.89706250e-01
-5.59275000e-08,1.89695313e-01
-5.58875000e-08,1.89704687e-01
-5.58475000e-08,1.89695313e-01
-5.58075000e-08,1.89704687e-01
-5.57675000e-08,1.89695313e-01
-5.57275000e-08,1.89704687e-01
-5.56875000e-08,1.89693750e-01
-5.56475000e-08,1.89706250e-01
-5.56075000e-08,1.89693750e-01
-5.55675000e-08,1.89706250e-01
-5.55275000e-08,1.89692187e-01
-5.54875000e-08,1.89707813e-01
-5.54475000e-08,1.89690625e-01
-5.54075000e-08,1.89710938e-01
-5.53675000e-08,1.89685938e-01
-5.53275000e-08,1.89718750e-01
-5.52875000e-08,1.89671875e-01
-5.52475000e-08,1.89753125e-01
-5.52075000e-08,1.89493750e-01
-5.51675000e-08,1.89243750e-01
-5.51275000e-08,1.89332813e-01
-5.50875000e-08,1.89276562e-01
-5.50475000e-08,1.89318750e-01
-5.50075000e-08,1.89284375e-01
-5.49675000e-08,1.89314063e-01
-5.49275000e-08,1.89287500e-01
-5.48875000e-08,1.89312500e-01
-5.48475000e-08,1.89287500e-01
-5.48075000e-08,1.89312500e-01
-5.47675000e-08,1.89287500e-01
-5.47275000e-08,1.89314063e-01
-5.46875000e-08,1.89285938e-01
-5.46475000e-08,1.89315625e-01
-5.46075000e-08,1.89281250e-01
-5.45675000e-08,1.89323437e-01
-5.45275000e-08,1.89267188e-01
-5.44875000e-08,1.89357813e-01
-5.44475000e-08,1.89089063e-01
-5.44075000e-08,1.88848438e-01
-5.43675000e-08,1.88928125e-01
-5.43275000e-08,1.88881250e-01
-5.42875000e-08,1.88914063e-01
-5.42475000e-08,1.88889063e-01
-5.42075000e-08,1.88907812e-01
-5.41675000e-08,1.88893750e-01
-5.41275000e-08,1.88906250e-01
-5.40875000e-08,1.88895312e-01
-5.40475000e-08,1.88904688e-01
-5.40075000e-08,1.88896875e-01
-5.39675000e-08,1.88903125e-01
-5.39275000e-08,1.88896875e-01
-5.38875000e-08,1.88903125e-01
-5.38475000e-08,1.88898438e-01
-5.38075000e-08,1.88901563e-01
-5.37675000e-08,1.88898438e-01
-5.37275000e-08,1.88901563e-01
-5.36875000e-08,1.88898438e-01
-5.36475000e-08,1.88900000e-01
-5.36075000e-08,1.88900000e-01
-5.35675000e-08,1.88900000e-01
-5.35275000e-08,1.88900000e-01
-5.34875000e-08,1.88898438e-01
-5.34475000e-08,1.88901563e-01
-5.34075000e-08,1.88898438e-01
-5.33675000e-08,1.88903125e-01
-5.33275000e-08,1.88896875e-01
-5.32875000e-08,1.88904688e-01
-5.32475000e-08,1.88892188e-01
-5.32075000e-08,1.88909375e-01
-5.31675000e-08,1.88884375e-01
-5.31275000e-08,1.88925000e-01
-5.30875000e-08,1.88851563e-01
-5.30475000e-08,1.89101563e-01
-5.30075000e-08,1.89360937e-01
-5.29675000e-08,1.89262500e-01
-5.29275000e-08,1.89328125e-01
-5.28875000e-08,1.89275000e-01
-5.28475000e-08,1.89321875e-01
-5.28075000e-08,1.89278125e-01
-5.27675000e-08,1.89321875e-01
-5.27275000e-08,1.89278125e-01
-5.26875000e-08,1.89325000e-01
-5.26475000e-08,1.89270313e-01
-5.26075000e-08,1.89337500e-01
-5.25675000e-08,1.89237500e-01
-5.25275000e-08,1.89515625e-01
-5.24875000e-08,1.89746875e-01
-5.24475000e-08,1.89676563e-01
-5.24075000e-08,1.89714063e-01
-5.23675000e-08,1.89690625e-01
-5.23275000e-08,1.89706250e-01
-5.22875000e-08,1.89695313e-01
-5.22475000e-08,1.89703125e-01
-5.22075000e-08,1.89696875e-01
-5.21675000e-08,1.89701563e-01
-5.21275000e-08,1.89698438e-01
-5.20875000e-08,1.89700000e-01
-5.20475000e-08,1.89700000e-01
-5.20075000e-08,1.89698438e-01
-5.19675000e-08,1.89701563e-01
-5.19275000e-08,1.89698438e-01
-5.18875000e-08,1.89703125e-01
-5.18475000e-08,1.89696875e-01
-5.18075000e-08,1.89704687e-01
-5.17675000e-08,1.89693750e-01
-5.17275000e-08,1.89707813e-01
-5.16875000e-08,1.89689063e-01
-5.16475000e-08,1.89715625e-01
-5.16075000e-08,1.89675000e-01
-5.15675000e-08,1.89750000e-01
-5.15275000e-08,1.89498438e-01
-5.14875000e-08,1.89239062e-01
-5.14475000e-08,1.89337500e-01
-5.14075000e-08,1.89270313e-01
-5.13675000e-08,1.89325000e-01
-5.13275000e-08,1.89276562e-01
-5.12875000e-08,1.89323437e-01
-5.12475000e-08,1.89275000e-01
-5.12075000e-08,1.89329688e-01
-5.11675000e-08,1.89260938e-01
-5.11275000e-08,1.89362500e-01
-5.10875000e-08,1.89084375e-01
-5.10475000e-08,1.88853125e-01
-5.10075000e-08,1.88923438e-01
-5.09675000e-08,1.88887500e-01
-5.09275000e-08,1.88907812e-01
-5.08875000e-08,1.88896875e-01
-5.08475000e-08,1.88900000e-01
-5.08075000e-08,1.88903125e-01
-5.07675000e-08,1.88893750e-01
-5.07275000e-08,1.88912500e-01
-5.06875000e-08,1.88878125e-01
-5.06475000e-08,1.88946875e-01
-5.06075000e-08,1.88700000e-01
-5.05675000e-08,1.88437500e-01
-5.05275000e-08,1.88539063e-01
-5.04875000e-08,1.88470313e-01
-5.04475000e-08,1.88525000e-01
-5.04075000e-08,1.88478125e-01
-5.03675000e-08,1.88520313e-01
-5.03275000e-08,1.88481250e-01
-5.02875000e-08,1.88518750e-01
-5.02475000e-08,1.88481250e-01
-5.02075000e-08,1.88518750e-01
-5.01675000e-08,1.88481250e-01
-5.01275000e-08,1.88520313e-01
-5.00875000e-08,1.88478125e-01
-5.00475000e-08,1.88525000e-01
-5.00075000e-08,1.88470313e-01
-4.99675000e-08,1.88540625e-01
-4.99275000e-08,1.88434375e-01
-4.98875000e-08,1.88718750e-01
-4.98475000e-08,1.88943750e-01
-4.98075000e-08,1.88881250e-01
-4.97675000e-08,1.88909375e-01
-4.97275000e-08,1.88896875e-01
-4.96875000e-08,1.88900000e-01
-4.96475000e-08,1.88904688e-01
-4.96075000e-08,1.88892188e-01
-4.95675000e-08,1.88912500e-01
-4.95275000e-08,1.88881250e-01
-4.94875000e-08,1.88928125e-01
-4.94475000e-08,1.88845313e-01
-4.94075000e-08,1.89109375e-01
-4.93675000e-08,1.89351563e-01
-4.93275000e-08,1.89273438e-01
-4.92875000e-08,1.89315625e-01
-4.92475000e-08,1.89292188e-01
-4.92075000e-08,1.89300000e-01
-4.91675000e-08,1.89310937e-01
-4.91275000e-08,1.89262500e-01
-4.90875000e-08,1.89490625e-01
-4.90475000e-08,1.89771875e-01
-4.90075000e-08,1.89651563e-01
-4.89675000e-08,1.89740625e-01
-4.89275000e-08,1.89662500e-01
-4.88875000e-08,1.89737500e-01
-4.88475000e-08,1.89660938e-01
-4.88075000e-08,1.89748438e-01
-4.87675000e-08,1.89628125e-01
-4.87275000e-08,1.89925000e-01
-4.86875000e-08,1.90137500e-01
-4.86475000e-08,1.90085937e-01
-4.86075000e-08,1.90104688e-01
-4.85675000e-08,1.90101563e-01
-4.85275000e-08,1.90093750e-01
-4.84875000e-08,1.90110938e-01
-4.84475000e-08,1.90082813e-01
-4.84075000e-08,1.90126563e-01
-4.83675000e-08,1.90046875e-01
-4.83275000e-08,1.90306250e-01
-4.82875000e-08,1.90556250e-01
-4.82475000e-08,1.90468750e-01
-4.82075000e-08,1.90521875e-01
-4.81675000e-08,1.90482813e-01
-4.81275000e-08,1.90514062e-01
-4.80875000e-08,1.90487500e-01
-4.80475000e-08,1.90510938e-01
-4.80075000e-08,1.90490625e-01
-4.79675000e-08,1.90507813e-01
-4.79275000e-08,1.90492188e-01
-4.78875000e-08,1.90507813e-01
-4.78475000e-08,1.90493750e-01
-4.78075000e-08,1.90506250e-01
-4.77675000e-08,1.90493750e-01
-4.77275000e-08,1.90506250e-01
-4.76875000e-08,1.90493750e-01
-4.76475000e-08,1.90506250e-01
-4.76075000e-08,1.90493750e-01
-4.75675000e-08,1.90504688e-01
-4.75275000e-08,1.90495313e-01
-4.74875000e-08,1.90504688e-01
-4.74475000e-08,1.90495313e-01
-4.74075000e-08,1.90504688e-01
-4.73675000e-08,1.90495313e-01
-4.73275000e-08,1.90504688e-01
-4.72875000e-08,1.90495313e-01
-4.72475000e-08,1.90504688e-01
-4.72075000e-08,1.90495313e-01
-4.71675000e-08,1.90506250e-01
-4.71275000e-08,1.90493750e-01
-4.70875000e-08,1.90506250e-01
-4.70475000e-08,1.90493750e-01
-4.70075000e-08,1.90506250e-01
-4.69675000e-08,1.90493750e-01
-4.69275000e-08,1.90506250e-01
-4.68875000e-08,1.90493750e-01
-4.68475000e-08,1.90507813e-01
-4.68075000e-08,1.90492188e-01
-4.67675000e-08,1.90507813e-01
-4.67275000e-08,1.90490625e-01
-4.66875000e-08,1.90509375e-01
-4.66475000e-08,1.90489063e-01
-4.66075000e-08,1.90510938e-01
-4.65675000e-08,1.90487500e-01
-4.65275000e-08,1.90515625e-01
-4.64875000e-08,1.90481250e-01
-4.64475000e-08,1.90523438e-01
-4.64075000e-08,1.90467187e-01
-4.63675000e-08,1.90557813e-01
-4.63275000e-08,1.90289062e-01
-4.62875000e-08,1.90048438e-01
-4.62475000e-08,1.90128125e-01
-4.62075000e-08,1.90081250e-01
-4.61675000e-08,1.90112500e-01
-4.61275000e-08,1.90090625e-01
-4.60875000e-08,1.90107813e-01
-4.60475000e-08,1.90093750e-01
-4.60075000e-08,1.90104688e-01
-4.59675000e-08,1.90095313e-01
-4.59275000e-08,1.90103125e-01
-4.58875000e-08,1.90096875e-01
-4.58475000e-08,1.90101563e-01
-4.58075000e-08,1.90098437e-01
-4.57675000e-08,1.90101563e-01
-4.57275000e-08,1.90098437e-01
-4.56875000e-08,1.90100000e-01
-4.56475000e-08,1.90100000e-01
-4.56075000e-08,1.90100000e-01
-4.55675000e-08,1.90100000e-01
-4.55275000e-08,1.90100000e-01
-4.54875000e-08,1.90101563e-01
-4.54475000e-08,1.90098437e-01
-4.54075000e-08,1.90101563e-01
-4.53675000e-08,1.90098437e-01
-4.53275000e-08,1.90101563e-01
-4.52875000e-08,1.90096875e-01
-4.52475000e-08,1.90103125e-01
-4.52075000e-08,1.90096875e-01
-4.51675000e-08,1.90103125e-01
-4.51275000e-08,1.90095313e-01
-4.50875000e-08,1.90104688e-01
-4.50475000e-08,1.90093750e-01
-4.50075000e-08,1.90106250e-01
-4.49675000e-08,1.90092188e-01
-4.49275000e-08,1.90107813e-01
-4.48875000e-08,1.90089063e-01
-4.48475000e-08,1.90112500e-01
-4.48075000e-08,1.90084375e-01
-4.47675000e-08,1.90120312e-01
-4.47275000e-08,1.90070313e-01
-4.46875000e-08,1.90154688e-01
-4.46475000e-08,1.89892188e-01
-4.46075000e-08,1.89646875e-01
-4.45675000e-08,1.89729688e-01
-4.45275000e-08,1.89679687e-01
-4.44875000e-08,1.89715625e-01
-4.44475000e-08,1.89687500e-01
-4.44075000e-08,1.89709375e-01
-4.43675000e-08,1.89692187e-01
-4.43275000e-08,1.89706250e-01
-4.42875000e-08,1.89693750e-01
-4.42475000e-08,1.89704687e-01
-4.42075000e-08,1.89695313e-01
-4.41675000e-08,1.89704687e-01
-4.41275000e-08,1.89696875e-01
-4.40875000e-08,1.89703125e-01
-4.40475000e-08,1.89696875e-01
-4.40075000e-08,1.89701563e-01
-4.39675000e-08,1.89698438e-01
-4.39275000e-08,1.89701563e-01
-4.38875000e-08,1.89700000e-01
-4.38475000e-08,1.89700000e-01
-4.38075000e-08,1.89700000e-01
-4.37675000e-08,1.89700000e-01
-4.37275000e-08,1.89701563e-01
-4.36875000e-08,1.89698438e-01
-4.36475000e-08,1.89701563e-01
-4.36075000e-08,1.89696875e-01
-4.35675000e-08,1.89703125e-01
-4.35275000e-08,1.89695313e-01
-4.34875000e-08,1.89706250e-01
-4.34475000e-08,1.89692187e-01
-4.34075000e-08,1.89709375e-01
-4.33675000e-08,1.89687500e-01
-4.33275000e-08,1.89718750e-01
-4.32875000e-08,1.89671875e-01
-4.32475000e-08,1.89753125e-01
-4.32075000e-08,1.89493750e-01
-4.31675000e-08,1.89243750e-01
-4.31275000e-08,1.89332813e-01
-4.30875000e-08,1.89276562e-01
-4.30475000e-08,1.89317188e-01
-4.30075000e-08,1.89285938e-01
-4.29675000e-08,1.89312500e-01
-4.29275000e-08,1.89289062e-01
-4.28875000e-08,1.89309375e-01
-4.28475000e-08,1.89290625e-01
-4.28075000e-08,1.89307813e-01
-4.27675000e-08,1.89292188e-01
-4.27275000e-08,1.89306250e-01
-4.26875000e-08,1.89293750e-01
-4.26475000e-08,1.89306250e-01
-4.26075000e-08,1.89295313e-01
-4.25675000e-08,1.89304688e-01
-4.25275000e-08,1.89295313e-01
-4.24875000e-08,1.89304688e-01
-4.24475000e-08,1.89296875e-01
-4.24075000e-08,1.89303125e-01
-4.23675000e-08,1.89296875e-01
-4.23275000e-08,1.89303125e-01
-4.22875000e-08,1.89296875e-01
-4.22475000e-08,1.89301563e-01
-4.22075000e-08,1.89298437e-01
-4.21675000e-08,1.89301563e-01
-4.21275000e-08,1.89298437e-01
-4.20875000e-08,1.89300000e-01
-4.20475000e-08,1.89300000e-01
-4.20075000e-08,1.89300000e-01
-4.19675000e-08,1.89301563e-01
-4.19275000e-08,1.89298437e-01
-4.18875000e-08,1.89303125e-01
-4.18475000e-08,1.89296875e-01
-4.18075000e-08,1.89306250e-01
-4.17675000e-08,1.89292188e-01
-4.17275000e-08,1.89310937e-01
-4.16875000e-08,1.89284375e-01
-4.16475000e-08,1.89325000e-01
-4.16075000e-08,1.89250000e-01
-4.15675000e-08,1.89503125e-01
-4.15275000e-08,1.89757813e-01
-4.14875000e-08,1.89665625e-01
-4.14475000e-08,1.89725000e-01
-4.14075000e-08,1.89679687e-01
-4.13675000e-08,1.89717187e-01
-4.13275000e-08,1.89684375e-01
-4.12875000e-08,1.89714063e-01
-4.12475000e-08,1.89687500e-01
-4.12075000e-08,1.89710938e-01
-4.11675000e-08,1.89689063e-01
-4.11275000e-08,1.89710938e-01
-4.10875000e-08,1.89690625e-01
-4.10475000e-08,1.89709375e-01
-4.10075000e-08,1.89690625e-01
-4.09675000e-08,1.89709375e-01
-4.09275000e-08,1.89692187e-01
-4.08875000e-08,1.89707813e-01
-4.08475000e-08,1.89692187e-01
-4.08075000e-08,1.89707813e-01
-4.07675000e-08,1.89692187e-01
-4.07275000e-08,1.89707813e-01
-4.06875000e-08,1.89692187e-01
-4.06475000e-08,1.89707813e-01
-4.06075000e-08,1.89692187e-01
-4.05675000e-08,1.89706250e-01
-4.05275000e-08,1.89693750e-01
-4.04875000e-08,1.89706250e-01
-4.04475000e-08,1.89693750e-01
-4.04075000e-08,1.89706250e-01
-4.03675000e-08,1.89693750e-01
-4.03275000e-08,1.89706250e-01
-4.02875000e-08,1.89693750e-01
-4.02475000e-08,1.89706250e-01
-4.02075000e-08,1.89693750e-01
-4.01675000e-08,1.89706250e-01
-4.01275000e-08,1.89693750e-01
-4.00875000e-08,1.89706250e-01
-4.00475000e-08,1.89693750e-01
-4.00075000e-08,1.89706250e-01
-3.99675000e-08,1.89693750e-01
-3.99275000e-08,1.89706250e-01
-3.98875000e-08,1.89693750e-01
-3.98475000e-08,1.89706250e-01
-3.98075000e-08,1.89693750e-01
-3.97675000e-08,1.89706250e-01
-3.97275000e-08,1.89693750e-01
-3.96875000e-08,1.89706250e-01
-3.96475000e-08,1.89693750e-01
-3.96075000e-08,1.89706250e-01
-3.95675000e-08,1.89693750e-01
-3.95275000e-08,1.89706250e-01
-3.94875000e-08,1.89693750e-01
-3.94475000e-08,1.89706250e-01
-3.94075000e-08,1.89693750e-01
-3.93675000e-08,1.89706250e-01
-3.93275000e-08,1.89693750e-01
-3.92875000e-08,1.89706250e-01
-3.92475000e-08,1.89693750e-01
-3.92075000e-08,1.89706250e-01
-3.91675000e-08,1.89693750e-01
-3.91275000e-08,1.89706250e-01
-3.90875000e-08,1.89693750e-01
-3.90475000e-08,1.89706250e-01
-3.90075000e-08,1.89693750e-01
-3.89675000e-08,1.89706250e-01
-3.89275000e-08,1.89693750e-01
-3.88875000e-08,1.89706250e-01
-3.88475000e-08,1.89693750e-01
-3.88075000e-08,1.89707813e-01
-3.87675000e-08,1.89692187e-01
-3.87275000e-08,1.89707813e-01
-3.86875000e-08,1.89692187e-01
-3.86475000e-08,1.89707813e-01
-3.86075000e-08,1.89692187e-01
-3.85675000e-08,1.89707813e-01
-3.85275000e-08,1.89692187e-01
