trails/0b415fe76bd122fbe60d5dd91566c6d8/aes_ch1_20250507111820161.csv

Model,MSO66B
Label,
Waveform Type,ANALOG
Horizontal Units,s
Sample Interval,4.00000000e-11
Record Length,10000
Zero Index,1599.07031250
Vertical Units,A
ANALOG_Thumbnail,
yOffset,1.84500000e-01
yPosition,8.40000000e-01

Labels,
TIME,CH1
-6.39628125e-08,2.00900000e-01
-6.39228125e-08,2.00900000e-01
-6.38828125e-08,2.00900000e-01
-6.38428125e-08,2.00901563e-01
-6.38028125e-08,2.00898437e-01
-6.37628125e-08,2.00901563e-01
-6.37228125e-08,2.00898437e-01
-6.36828125e-08,2.00901563e-01
-6.36428125e-08,2.00896875e-01
-6.36028125e-08,2.00903125e-01
-6.35628125e-08,2.00895313e-01
-6.35228125e-08,2.00904688e-01
-6.34828125e-08,2.00893750e-01
-6.34428125e-08,2.00907813e-01
-6.34028125e-08,2.00890625e-01
-6.33628125e-08,2.00912500e-01
-6.33228125e-08,2.00882813e-01
-6.32828125e-08,2.00926563e-01
-6.32428125e-08,2.00848438e-01
-6.32028125e-08,2.01104688e-01
-6.31628125e-08,2.01357813e-01
-6.31228125e-08,2.01267187e-01
-6.30828125e-08,2.01323438e-01
-6.30428125e-08,2.01281250e-01
-6.30028125e-08,2.01315625e-01
-6.29628125e-08,2.01285938e-01
-6.29228125e-08,2.01312500e-01
-6.28828125e-08,2.01289063e-01
-6.28428125e-08,2.01310938e-01
-6.28028125e-08,2.01290625e-01
-6.27628125e-08,2.01309375e-01
-6.27228125e-08,2.01290625e-01
-6.26828125e-08,2.01309375e-01
-6.26428125e-08,2.01290625e-01
-6.26028125e-08,2.01309375e-01
-6.25628125e-08,2.01292187e-01
-6.25228125e-08,2.01307813e-01
-6.24828125e-08,2.01292187e-01
-6.24428125e-08,2.01309375e-01
-6.24028125e-08,2.01290625e-01
-6.23628125e-08,2.01309375e-01
-6.23228125e-08,2.01290625e-01
-6.22828125e-08,2.01309375e-01
-6.22428125e-08,2.01289063e-01
-6.22028125e-08,2.01310938e-01
-6.21628125e-08,2.01287500e-01
-6.21228125e-08,2.01312500e-01
-6.20828125e-08,2.01284375e-01
-6.20428125e-08,2.01318750e-01
-6.20028125e-08,2.01276563e-01
-6.19628125e-08,2.01332813e-01
-6.19228125e-08,2.01242188e-01
-6.18828125e-08,2.01510938e-01
-6.18428125e-08,2.01751563e-01
-6.18028125e-08,2.01671875e-01
-6.17628125e-08,2.01718750e-01
-6.17228125e-08,2.01685938e-01
-6.16828125e-08,2.01710938e-01
-6.16428125e-08,2.01690625e-01
-6.16028125e-08,2.01707812e-01
-6.15628125e-08,2.01692188e-01
-6.15228125e-08,2.01707812e-01
-6.14828125e-08,2.01693750e-01
-6.14428125e-08,2.01706250e-01
-6.14028125e-08,2.01692188e-01
-6.13628125e-08,2.01707812e-01
-6.13228125e-08,2.01692188e-01
-6.12828125e-08,2.01709375e-01
-6.12428125e-08,2.01689063e-01
-6.12028125e-08,2.01714063e-01
-6.11628125e-08,2.01681250e-01
-6.11228125e-08,2.01728125e-01
-6.10828125e-08,2.01648437e-01
-6.10428125e-08,2.01904688e-01
-6.10028125e-08,2.02157813e-01
-6.09628125e-08,2.02065625e-01
-6.09228125e-08,2.02126562e-01
-6.08828125e-08,2.02078125e-01
-6.08428125e-08,2.02120313e-01
-6.08028125e-08,2.02081250e-01
-6.07628125e-08,2.02118750e-01
-6.07228125e-08,2.02079687e-01
-6.06828125e-08,2.02121875e-01
-6.06428125e-08,2.02073438e-01
-6.06028125e-08,2.02135938e-01
-6.05628125e-08,2.02039063e-01
-6.05228125e-08,2.02312500e-01
-6.04828125e-08,2.02550000e-01
-6.04428125e-08,2.02473438e-01
-6.04028125e-08,2.02517188e-01
-6.03628125e-08,2.02487500e-01
-6.03228125e-08,2.02509375e-01
-6.02828125e-08,2.02492188e-01
-6.02428125e-08,2.02506250e-01
-6.02028125e-08,2.02495312e-01
-6.01628125e-08,2.02504688e-01
-6.01228125e-08,2.02495312e-01
-6.00828125e-08,2.02504688e-01
-6.00428125e-08,2.02496875e-01
-6.00028125e-08,2.02503125e-01
-5.99628125e-08,2.02496875e-01
-5.99228125e-08,2.02503125e-01
-5.98828125e-08,2.02496875e-01
-5.98428125e-08,2.02503125e-01
-5.98028125e-08,2.02496875e-01
-5.97628125e-08,2.02503125e-01
-5.97228125e-08,2.02496875e-01
-5.96828125e-08,2.02504688e-01
-5.96428125e-08,2.02495312e-01
-5.96028125e-08,2.02504688e-01
-5.95628125e-08,2.02493750e-01
-5.95228125e-08,2.02506250e-01
-5.94828125e-08,2.02492188e-01
-5.94428125e-08,2.02510938e-01
-5.94028125e-08,2.02487500e-01
-5.93628125e-08,2.02518750e-01
-5.93228125e-08,2.02471875e-01
-5.92828125e-08,2.02553125e-01
-5.92428125e-08,2.02295313e-01
-5.92028125e-08,2.02043750e-01
-5.91628125e-08,2.02132813e-01
-5.91228125e-08,2.02076563e-01
-5.90828125e-08,2.02118750e-01
-5.90428125e-08,2.02084375e-01
-5.90028125e-08,2.02114062e-01
-5.89628125e-08,2.02087500e-01
-5.89228125e-08,2.02112500e-01
-5.88828125e-08,2.02089062e-01
-5.88428125e-08,2.02110938e-01
-5.88028125e-08,2.02089062e-01
-5.87628125e-08,2.02110938e-01
-5.87228125e-08,2.02090625e-01
-5.86828125e-08,2.02109375e-01
-5.86428125e-08,2.02090625e-01
-5.86028125e-08,2.02109375e-01
-5.85628125e-08,2.02090625e-01
-5.85228125e-08,2.02109375e-01
-5.84828125e-08,2.02090625e-01
-5.84428125e-08,2.02110938e-01
-5.84028125e-08,2.02089062e-01
-5.83628125e-08,2.02110938e-01
-5.83228125e-08,2.02089062e-01
-5.82828125e-08,2.02112500e-01
-5.82428125e-08,2.02087500e-01
-5.82028125e-08,2.02114062e-01
-5.81628125e-08,2.02084375e-01
-5.81228125e-08,2.02117188e-01
-5.80828125e-08,2.02081250e-01
-5.80428125e-08,2.02121875e-01
-5.80028125e-08,2.02073438e-01
-5.79628125e-08,2.02137500e-01
-5.79228125e-08,2.02037500e-01
-5.78828125e-08,2.02315625e-01
-5.78428125e-08,2.02546875e-01
-5.78028125e-08,2.02478125e-01
-5.77628125e-08,2.02512500e-01
-5.77228125e-08,2.02493750e-01
-5.76828125e-08,2.02503125e-01
-5.76428125e-08,2.02500000e-01
-5.76028125e-08,2.02498438e-01
-5.75628125e-08,2.02504688e-01
-5.75228125e-08,2.02492188e-01
-5.74828125e-08,2.02510938e-01
-5.74428125e-08,2.02482812e-01
-5.74028125e-08,2.02526563e-01
-5.73628125e-08,2.02448438e-01
-5.73228125e-08,2.02704688e-01
-5.72828125e-08,2.02956250e-01
-5.72428125e-08,2.02867188e-01
-5.72028125e-08,2.02923437e-01
-5.71628125e-08,2.02881250e-01
-5.71228125e-08,2.02915625e-01
-5.70828125e-08,2.02885938e-01
-5.70428125e-08,2.02912500e-01
-5.70028125e-08,2.02887500e-01
-5.69628125e-08,2.02912500e-01
-5.69228125e-08,2.02887500e-01
-5.68828125e-08,2.02914063e-01
-5.68428125e-08,2.02884375e-01
-5.68028125e-08,2.02920313e-01
-5.67628125e-08,2.02871875e-01
-5.67228125e-08,2.02953125e-01
-5.66828125e-08,2.02695313e-01
-5.66428125e-08,2.02442188e-01
-5.66028125e-08,2.02535938e-01
-5.65628125e-08,2.02473438e-01
-5.65228125e-08,2.02523438e-01
-5.64828125e-08,2.02478125e-01
-5.64428125e-08,2.02520313e-01
-5.64028125e-08,2.02478125e-01
-5.63628125e-08,2.02523438e-01
-5.63228125e-08,2.02473438e-01
-5.62828125e-08,2.02531250e-01
-5.62428125e-08,2.02459375e-01
-5.62028125e-08,2.02565625e-01
-5.61628125e-08,2.02279687e-01
-5.61228125e-08,2.02059375e-01
-5.60828125e-08,2.02115625e-01
-5.60428125e-08,2.02095313e-01
-5.60028125e-08,2.02095313e-01
-5.59628125e-08,2.02112500e-01
-5.59228125e-08,2.02075000e-01
-5.58828125e-08,2.02151562e-01
-5.58428125e-08,2.01893750e-01
-5.58028125e-08,2.01645313e-01
-5.57628125e-08,2.01728125e-01
-5.57228125e-08,2.01682813e-01
-5.56828125e-08,2.01709375e-01
-5.56428125e-08,2.01698437e-01
-5.56028125e-08,2.01689063e-01
-5.55628125e-08,2.01735938e-01
-5.55228125e-08,2.01509375e-01
-5.54828125e-08,2.01228125e-01
-5.54428125e-08,2.01350000e-01
-5.54028125e-08,2.01257813e-01
-5.53628125e-08,2.01342188e-01
-5.53228125e-08,2.01253125e-01
-5.52828125e-08,2.01368750e-01
-5.52428125e-08,2.01079687e-01
-5.52028125e-08,2.00854688e-01
-5.51628125e-08,2.00923437e-01
-5.51228125e-08,2.00884375e-01
-5.50828125e-08,2.00914063e-01
-5.50428125e-08,2.00885938e-01
-5.50028125e-08,2.00917188e-01
-5.49628125e-08,2.00873438e-01
-5.49228125e-08,2.00950000e-01
-5.48828125e-08,2.00696875e-01
-5.48428125e-08,2.00440625e-01
-5.48028125e-08,2.00537500e-01
-5.47628125e-08,2.00471875e-01
-5.47228125e-08,2.00523438e-01
-5.46828125e-08,2.00478125e-01
-5.46428125e-08,2.00520313e-01
-5.46028125e-08,2.00479688e-01
-5.45628125e-08,2.00521875e-01
-5.45228125e-08,2.00476563e-01
-5.44828125e-08,2.00528125e-01
-5.44428125e-08,2.00464063e-01
-5.44028125e-08,2.00560938e-01
-5.43628125e-08,2.00285938e-01
-5.43228125e-08,2.00050000e-01
-5.42828125e-08,2.00126562e-01
-5.42428125e-08,2.00082813e-01
-5.42028125e-08,2.00114063e-01
-5.41628125e-08,2.00089062e-01
-5.41228125e-08,2.00109375e-01
-5.40828125e-08,2.00090625e-01
-5.40428125e-08,2.00109375e-01
-5.40028125e-08,2.00089062e-01
-5.39628125e-08,2.00112500e-01
-5.39228125e-08,2.00085938e-01
-5.38828125e-08,2.00118750e-01
-5.38428125e-08,2.00071875e-01
-5.38028125e-08,2.00153125e-01
-5.37628125e-08,1.99893750e-01
-5.37228125e-08,1.99643750e-01
-5.36828125e-08,1.99732813e-01
-5.36428125e-08,1.99676563e-01
-5.36028125e-08,1.99718750e-01
-5.35628125e-08,1.99684375e-01
-5.35228125e-08,1.99714063e-01
-5.34828125e-08,1.99687500e-01
-5.34428125e-08,1.99710938e-01
-5.34028125e-08,1.99689063e-01
-5.33628125e-08,1.99709375e-01
-5.33228125e-08,1.99690625e-01
-5.32828125e-08,1.99709375e-01
-5.32428125e-08,1.99690625e-01
-5.32028125e-08,1.99707812e-01
-5.31628125e-08,1.99692188e-01
-5.31228125e-08,1.99707812e-01
-5.30828125e-08,1.99692188e-01
-5.30428125e-08,1.99707812e-01
-5.30028125e-08,1.99692188e-01
-5.29628125e-08,1.99706250e-01
-5.29228125e-08,1.99693750e-01
-5.28828125e-08,1.99706250e-01
-5.28428125e-08,1.99693750e-01
-5.28028125e-08,1.99706250e-01
-5.27628125e-08,1.99693750e-01
-5.27228125e-08,1.99706250e-01
-5.26828125e-08,1.99695312e-01
-5.26428125e-08,1.99704688e-01
-5.26028125e-08,1.99696875e-01
-5.25628125e-08,1.99701563e-01
-5.25228125e-08,1.99700000e-01
-5.24828125e-08,1.99695312e-01
-5.24428125e-08,1.99714063e-01
-5.24028125e-08,1.99662500e-01
-5.23628125e-08,1.99889062e-01
-5.23228125e-08,2.00175000e-01
-5.22828125e-08,2.00046875e-01
-5.22428125e-08,2.00148437e-01
-5.22028125e-08,2.00051563e-01
-5.21628125e-08,2.00156250e-01
-5.21228125e-08,2.00020313e-01
-5.20828125e-08,2.00332813e-01
-5.20428125e-08,2.00528125e-01
-5.20028125e-08,2.00496875e-01
-5.19628125e-08,2.00489063e-01
-5.19228125e-08,2.00525000e-01
-5.18828125e-08,2.00448438e-01
-5.18428125e-08,2.00704688e-01
-5.18028125e-08,2.00957812e-01
-5.17628125e-08,2.00862500e-01
-5.17228125e-08,2.00935937e-01
-5.16828125e-08,2.00846875e-01
-5.16428125e-08,2.01100000e-01
-5.16028125e-08,2.01368750e-01
-5.15628125e-08,2.01246875e-01
-5.15228125e-08,2.01354688e-01
-5.14828125e-08,2.01223438e-01
-5.14428125e-08,2.01529687e-01
-5.14028125e-08,2.01731250e-01
-5.13628125e-08,2.01695313e-01
-5.13228125e-08,2.01690625e-01
-5.12828125e-08,2.01725000e-01
-5.12428125e-08,2.01646875e-01
-5.12028125e-08,2.01907813e-01
-5.11628125e-08,2.02151562e-01
-5.11228125e-08,2.02075000e-01
-5.10828125e-08,2.02112500e-01
-5.10428125e-08,2.02095313e-01
-5.10028125e-08,2.02095313e-01
-5.09628125e-08,2.02115625e-01
-5.09228125e-08,2.02056250e-01
-5.08828125e-08,2.02296875e-01
-5.08428125e-08,2.02564063e-01
-5.08028125e-08,2.02460937e-01
-5.07628125e-08,2.02528125e-01
-5.07228125e-08,2.02476563e-01
-5.06828125e-08,2.02518750e-01
-5.06428125e-08,2.02482812e-01
-5.06028125e-08,2.02515625e-01
-5.05628125e-08,2.02485938e-01
-5.05228125e-08,2.02512500e-01
-5.04828125e-08,2.02489063e-01
-5.04428125e-08,2.02510938e-01
-5.04028125e-08,2.02490625e-01
-5.03628125e-08,2.02509375e-01
-5.03228125e-08,2.02490625e-01
-5.02828125e-08,2.02507812e-01
-5.02428125e-08,2.02492188e-01
-5.02028125e-08,2.02507812e-01
-5.01628125e-08,2.02493750e-01
-5.01228125e-08,2.02506250e-01
-5.00828125e-08,2.02493750e-01
-5.00428125e-08,2.02506250e-01
-5.00028125e-08,2.02493750e-01
-4.99628125e-08,2.02506250e-01
-4.99228125e-08,2.02495312e-01
-4.98828125e-08,2.02504688e-01
-4.98428125e-08,2.02495312e-01
-4.98028125e-08,2.02504688e-01
-4.97628125e-08,2.02495312e-01
-4.97228125e-08,2.02504688e-01
-4.96828125e-08,2.02495312e-01
-4.96428125e-08,2.02504688e-01
-4.96028125e-08,2.02495312e-01
-4.95628125e-08,2.02504688e-01
-4.95228125e-08,2.02496875e-01
-4.94828125e-08,2.02503125e-01
-4.94428125e-08,2.02496875e-01
-4.94028125e-08,2.02503125e-01
-4.93628125e-08,2.02496875e-01
-4.93228125e-08,2.02503125e-01
-4.92828125e-08,2.02496875e-01
-4.92428125e-08,2.02503125e-01
-4.92028125e-08,2.02496875e-01
-4.91628125e-08,2.02503125e-01
-4.91228125e-08,2.02496875e-01
-4.90828125e-08,2.02503125e-01
-4.90428125e-08,2.02496875e-01
-4.90028125e-08,2.02503125e-01
-4.89628125e-08,2.02496875e-01
-4.89228125e-08,2.02501563e-01
-4.88828125e-08,2.02498438e-01
-4.88428125e-08,2.02501563e-01
-4.88028125e-08,2.02498438e-01
-4.87628125e-08,2.02501563e-01
-4.87228125e-08,2.02498438e-01
-4.86828125e-08,2.02501563e-01
-4.86428125e-08,2.02498438e-01
-4.86028125e-08,2.02501563e-01
-4.85628125e-08,2.02498438e-01
-4.85228125e-08,2.02501563e-01
-4.84828125e-08,2.02498438e-01
-4.84428125e-08,2.02501563e-01
-4.84028125e-08,2.02500000e-01
-4.83628125e-08,2.02500000e-01
-4.83228125e-08,2.02500000e-01
-4.82828125e-08,2.02500000e-01
-4.82428125e-08,2.02500000e-01
-4.82028125e-08,2.02500000e-01
-4.81628125e-08,2.02500000e-01
-4.81228125e-08,2.02498438e-01
-4.80828125e-08,2.02501563e-01
-4.80428125e-08,2.02498438e-01
-4.80028125e-08,2.02503125e-01
-4.79628125e-08,2.02496875e-01
-4.79228125e-08,2.02504688e-01
-4.78828125e-08,2.02495312e-01
-4.78428125e-08,2.02506250e-01
-4.78028125e-08,2.02490625e-01
-4.77628125e-08,2.02510938e-01
-4.77228125e-08,2.02482812e-01
-4.76828125e-08,2.02526563e-01
-4.76428125e-08,2.02448438e-01
-4.76028125e-08,2.02704688e-01
-4.75628125e-08,2.02957813e-01
-4.75228125e-08,2.02865625e-01
-4.74828125e-08,2.02925000e-01
-4.74428125e-08,2.02879688e-01
-4.74028125e-08,2.02917188e-01
-4.73628125e-08,2.02884375e-01
-4.73228125e-08,2.02914063e-01
-4.72828125e-08,2.02887500e-01
-4.72428125e-08,2.02910937e-01
-4.72028125e-08,2.02889062e-01
-4.71628125e-08,2.02910937e-01
-4.71228125e-08,2.02890625e-01
-4.70828125e-08,2.02909375e-01
-4.70428125e-08,2.02890625e-01
-4.70028125e-08,2.02909375e-01
-4.69628125e-08,2.02890625e-01
-4.69228125e-08,2.02909375e-01
-4.68828125e-08,2.02890625e-01
-4.68428125e-08,2.02909375e-01
-4.68028125e-08,2.02890625e-01
-4.67628125e-08,2.02909375e-01
-4.67228125e-08,2.02892188e-01
-4.66828125e-08,2.02909375e-01
-4.66428125e-08,2.02890625e-01
-4.66028125e-08,2.02909375e-01
-4.65628125e-08,2.02890625e-01
-4.65228125e-08,2.02909375e-01
-4.64828125e-08,2.02890625e-01
-4.64428125e-08,2.02909375e-01
-4.64028125e-08,2.02890625e-01
-4.63628125e-08,2.02910937e-01
-4.63228125e-08,2.02889062e-01
-4.62828125e-08,2.02910937e-01
-4.62428125e-08,2.02889062e-01
-4.62028125e-08,2.02912500e-01
-4.61628125e-08,2.02885938e-01
-4.61228125e-08,2.02914063e-01
-4.60828125e-08,2.02884375e-01
-4.60428125e-08,2.02918750e-01
-4.60028125e-08,2.02878125e-01
-4.59628125e-08,2.02926563e-01
-4.59228125e-08,2.02864062e-01
-4.58828125e-08,2.02962500e-01
-4.58428125e-08,2.02684375e-01
-4.58028125e-08,2.02453125e-01
-4.57628125e-08,2.02521875e-01
-4.57228125e-08,2.02487500e-01
-4.56828125e-08,2.02506250e-01
-4.56428125e-08,2.02496875e-01
-4.56028125e-08,2.02500000e-01
-4.55628125e-08,2.02503125e-01
-4.55228125e-08,2.02492188e-01
-4.54828125e-08,2.02514063e-01
-4.54428125e-08,2.02476563e-01
-4.54028125e-08,2.02548438e-01
-4.53628125e-08,2.02298438e-01
-4.53228125e-08,2.02040625e-01
-4.52828125e-08,2.02135938e-01
-4.52428125e-08,2.02073438e-01
-4.52028125e-08,2.02123438e-01
-4.51628125e-08,2.02079687e-01
-4.51228125e-08,2.02118750e-01
-4.50828125e-08,2.02081250e-01
-4.50428125e-08,2.02120313e-01
-4.50028125e-08,2.02078125e-01
-4.49628125e-08,2.02126562e-01
-4.49228125e-08,2.02065625e-01
-4.48828125e-08,2.02159375e-01
-4.48428125e-08,2.01887500e-01
-4.48028125e-08,2.01648437e-01
-4.47628125e-08,2.01726563e-01
-4.47228125e-08,2.01681250e-01
-4.46828125e-08,2.01714063e-01
-4.46428125e-08,2.01689063e-01
-4.46028125e-08,2.01709375e-01
-4.45628125e-08,2.01692188e-01
-4.45228125e-08,2.01707812e-01
-4.44828125e-08,2.01693750e-01
-4.44428125e-08,2.01706250e-01
-4.44028125e-08,2.01693750e-01
-4.43628125e-08,2.01704688e-01
-4.43228125e-08,2.01695313e-01
-4.42828125e-08,2.01704688e-01
-4.42428125e-08,2.01695313e-01
-4.42028125e-08,2.01704688e-01
-4.41628125e-08,2.01695313e-01
-4.41228125e-08,2.01704688e-01
-4.40828125e-08,2.01695313e-01
-4.40428125e-08,2.01704688e-01
-4.40028125e-08,2.01695313e-01
-4.39628125e-08,2.01704688e-01
-4.39228125e-08,2.01695313e-01
-4.38828125e-08,2.01704688e-01
-4.38428125e-08,2.01695313e-01
-4.38028125e-08,2.01706250e-01
-4.37628125e-08,2.01693750e-01
-4.37228125e-08,2.01706250e-01
-4.36828125e-08,2.01693750e-01
-4.36428125e-08,2.01706250e-01
-4.36028125e-08,2.01693750e-01
-4.35628125e-08,2.01707812e-01
-4.35228125e-08,2.01692188e-01
-4.34828125e-08,2.01707812e-01
-4.34428125e-08,2.01690625e-01
-4.34028125e-08,2.01710938e-01
-4.33628125e-08,2.01689063e-01
-4.33228125e-08,2.01714063e-01
-4.32828125e-08,2.01682813e-01
-4.32428125e-08,2.01721875e-01
-4.32028125e-08,2.01668750e-01
-4.31628125e-08,2.01756250e-01
-4.31228125e-08,2.01490625e-01
-4.30828125e-08,2.01246875e-01
-4.30428125e-08,2.01329688e-01
-4.30028125e-08,2.01279687e-01
-4.29628125e-08,2.01315625e-01
-4.29228125e-08,2.01287500e-01
-4.28828125e-08,2.01310938e-01
-4.28428125e-08,2.01290625e-01
-4.28028125e-08,2.01309375e-01
-4.27628125e-08,2.01292187e-01
-4.27228125e-08,2.01307813e-01
-4.26828125e-08,2.01292187e-01
-4.26428125e-08,2.01309375e-01
-4.26028125e-08,2.01290625e-01
-4.25628125e-08,2.01310938e-01
-4.25228125e-08,2.01285938e-01
-4.24828125e-08,2.01318750e-01
-4.24428125e-08,2.01271875e-01
-4.24028125e-08,2.01351562e-01
-4.23628125e-08,2.01095313e-01
-4.23228125e-08,2.00842188e-01
-4.22828125e-08,2.00934375e-01
-4.22428125e-08,2.00873438e-01
-4.22028125e-08,2.00921875e-01
-4.21628125e-08,2.00879688e-01
-4.21228125e-08,2.00918750e-01
-4.20828125e-08,2.00881250e-01
-4.20428125e-08,2.00920313e-01
-4.20028125e-08,2.00876563e-01
-4.19628125e-08,2.00926563e-01
-4.19228125e-08,2.00864062e-01
-4.18828125e-08,2.00960938e-01
-4.18428125e-08,2.00685938e-01
-4.18028125e-08,2.00451563e-01
-4.17628125e-08,2.00525000e-01
-4.17228125e-08,2.00484375e-01
-4.16828125e-08,2.00510938e-01
-4.16428125e-08,2.00492188e-01
-4.16028125e-08,2.00506250e-01
-4.15628125e-08,2.00495313e-01
-4.15228125e-08,2.00504688e-01
-4.14828125e-08,2.00496875e-01
-4.14428125e-08,2.00503125e-01
-4.14028125e-08,2.00496875e-01
-4.13628125e-08,2.00501563e-01
-4.13228125e-08,2.00498438e-01
-4.12828125e-08,2.00501563e-01
-4.12428125e-08,2.00498438e-01
-4.12028125e-08,2.00501563e-01
-4.11628125e-08,2.00498438e-01
-4.11228125e-08,2.00501563e-01
-4.10828125e-08,2.00496875e-01
-4.10428125e-08,2.00503125e-01
-4.10028125e-08,2.00496875e-01
-4.09628125e-08,2.00504688e-01
-4.09228125e-08,2.00493750e-01
-4.08828125e-08,2.00509375e-01
-4.08428125e-08,2.00485938e-01
-4.08028125e-08,2.00523438e-01
-4.07628125e-08,2.00453125e-01
-4.07228125e-08,2.00700000e-01
-4.06828125e-08,2.00962500e-01
-4.06428125e-08,2.00860938e-01
-4.06028125e-08,2.00931250e-01
-4.05628125e-08,2.00873438e-01
-4.05228125e-08,2.00925000e-01
-4.04828125e-08,2.00875000e-01
-4.04428125e-08,2.00925000e-01
-4.04028125e-08,2.00873438e-01
-4.03628125e-08,2.00928125e-01
-4.03228125e-08,2.00867188e-01
-4.02828125e-08,2.00943750e-01
-4.02428125e-08,2.00831250e-01
-4.02028125e-08,2.01121875e-01
-4.01628125e-08,2.01340625e-01
-4.01228125e-08,2.01282813e-01
-4.00828125e-08,2.01306250e-01
-4.00428125e-08,2.01300000e-01
-4.00028125e-08,2.01296875e-01
-3.99628125e-08,2.01306250e-01
-3.99228125e-08,2.01289063e-01
-3.98828125e-08,2.01314063e-01
-3.98428125e-08,2.01279687e-01
-3.98028125e-08,2.01331250e-01
-3.97628125e-08,2.01243750e-01
-3.97228125e-08,2.01510938e-01
-3.96828125e-08,2.01751563e-01
-3.96428125e-08,2.01673437e-01
-3.96028125e-08,2.01715625e-01
-3.95628125e-08,2.01689063e-01
-3.95228125e-08,2.01706250e-01
-3.94828125e-08,2.01695313e-01
-3.94428125e-08,2.01701563e-01
-3.94028125e-08,2.01700000e-01
-3.93628125e-08,2.01696875e-01
-3.93228125e-08,2.01704688e-01
-3.92828125e-08,2.01692188e-01
-3.92428125e-08,2.01710938e-01
-3.92028125e-08,2.01682813e-01
-3.91628125e-08,2.01728125e-01
-3.91228125e-08,2.01646875e-01
-3.90828125e-08,2.01906250e-01
-3.90428125e-08,2.02154688e-01
-3.90028125e-08,2.02068750e-01
-3.89628125e-08,2.02121875e-01
-3.89228125e-08,2.02084375e-01
-3.88828125e-08,2.02112500e-01
-3.88428125e-08,2.02090625e-01
-3.88028125e-08,2.02107813e-01
-3.87628125e-08,2.02093750e-01
-3.87228125e-08,2.02104688e-01
-3.86828125e-08,2.02095313e-01
-3.86428125e-08,2.02103125e-01
-3.86028125e-08,2.02098438e-01
-3.85628125e-08,2.02100000e-01
-3.85228125e-08,2.02100000e-01
