trails/0b415fe76bd122fbe60d5dd91566c6d8/aes_ch1_20250507111741144.csv

Model,MSO66B
Label,
Waveform Type,ANALOG
Horizontal Units,s
Sample Interval,4.00000000e-11
Record Length,10000
Zero Index,1599.14453125
Vertical Units,A
ANALOG_Thumbnail,
yOffset,1.84500000e-01
yPosition,8.40000000e-01

Labels,
TIME,CH1
-6.39657812e-08,1.94117188e-01
-6.39257813e-08,1.94082813e-01
-6.38857812e-08,1.94118750e-01
-6.38457813e-08,1.94079688e-01
-6.38057812e-08,1.94123437e-01
-6.37657812e-08,1.94071875e-01
-6.37257812e-08,1.94137500e-01
-6.36857812e-08,1.94037500e-01
-6.36457813e-08,1.94315625e-01
-6.36057812e-08,1.94546875e-01
-6.35657813e-08,1.94478125e-01
-6.35257812e-08,1.94512500e-01
-6.34857812e-08,1.94492187e-01
-6.34457812e-08,1.94503125e-01
-6.34057812e-08,1.94498438e-01
-6.33657813e-08,1.94498438e-01
-6.33257812e-08,1.94504687e-01
-6.32857813e-08,1.94493750e-01
-6.32457812e-08,1.94510938e-01
-6.32057812e-08,1.94484375e-01
-6.31657812e-08,1.94526562e-01
-6.31257812e-08,1.94448438e-01
-6.30857813e-08,1.94704688e-01
-6.30457812e-08,1.94956250e-01
-6.30057813e-08,1.94867188e-01
-6.29657812e-08,1.94923438e-01
-6.29257812e-08,1.94881250e-01
-6.28857812e-08,1.94914063e-01
-6.28457812e-08,1.94887500e-01
-6.28057813e-08,1.94910937e-01
-6.27657812e-08,1.94890625e-01
-6.27257813e-08,1.94907812e-01
-6.26857812e-08,1.94892188e-01
-6.26457812e-08,1.94906250e-01
-6.26057812e-08,1.94895313e-01
-6.25657812e-08,1.94904688e-01
-6.25257813e-08,1.94896875e-01
-6.24857812e-08,1.94903125e-01
-6.24457813e-08,1.94898438e-01
-6.24057812e-08,1.94900000e-01
-6.23657812e-08,1.94901563e-01
-6.23257812e-08,1.94895313e-01
-6.22857812e-08,1.94910937e-01
-6.22457813e-08,1.94879688e-01
-6.22057812e-08,1.94945312e-01
-6.21657813e-08,1.94703125e-01
-6.21257812e-08,1.94434375e-01
-6.20857812e-08,1.94542188e-01
-6.20457812e-08,1.94467187e-01
-6.20057812e-08,1.94528125e-01
-6.19657813e-08,1.94473438e-01
-6.19257812e-08,1.94525000e-01
-6.18857812e-08,1.94475000e-01
-6.18457812e-08,1.94526562e-01
-6.18057812e-08,1.94470313e-01
-6.17657812e-08,1.94532813e-01
-6.17257812e-08,1.94457812e-01
-6.16857813e-08,1.94567188e-01
-6.16457812e-08,1.94279688e-01
-6.16057812e-08,1.94057813e-01
-6.15657812e-08,1.94118750e-01
-6.15257812e-08,1.94090625e-01
-6.14857812e-08,1.94103125e-01
-6.14457812e-08,1.94100000e-01
-6.14057813e-08,1.94096875e-01
-6.13657812e-08,1.94104688e-01
-6.13257812e-08,1.94092188e-01
-6.12857812e-08,1.94109375e-01
-6.12457812e-08,1.94085937e-01
-6.12057812e-08,1.94118750e-01
-6.11657812e-08,1.94070313e-01
-6.11257813e-08,1.94154688e-01
-6.10857812e-08,1.93892188e-01
-6.10457812e-08,1.93645312e-01
-6.10057812e-08,1.93731250e-01
-6.09657812e-08,1.93678125e-01
-6.09257812e-08,1.93717187e-01
-6.08857812e-08,1.93685938e-01
-6.08457813e-08,1.93712500e-01
-6.08057812e-08,1.93689063e-01
-6.07657812e-08,1.93709375e-01
-6.07257812e-08,1.93690625e-01
-6.06857812e-08,1.93707813e-01
-6.06457812e-08,1.93692188e-01
-6.06057812e-08,1.93707813e-01
-6.05657813e-08,1.93692188e-01
-6.05257812e-08,1.93707813e-01
-6.04857812e-08,1.93692188e-01
-6.04457812e-08,1.93707813e-01
-6.04057812e-08,1.93690625e-01
-6.03657812e-08,1.93709375e-01
-6.03257812e-08,1.93689063e-01
-6.02857813e-08,1.93712500e-01
-6.02457812e-08,1.93684375e-01
-6.02057812e-08,1.93720313e-01
-6.01657812e-08,1.93670312e-01
-6.01257812e-08,1.93754688e-01
-6.00857813e-08,1.93492187e-01
-6.00457812e-08,1.93245313e-01
-6.00057813e-08,1.93329688e-01
-5.99657812e-08,1.93278125e-01
-5.99257812e-08,1.93315625e-01
-5.98857812e-08,1.93285938e-01
-5.98457812e-08,1.93310938e-01
-5.98057813e-08,1.93290625e-01
-5.97657812e-08,1.93309375e-01
-5.97257813e-08,1.93292188e-01
-5.96857812e-08,1.93307813e-01
-5.96457812e-08,1.93293750e-01
-5.96057812e-08,1.93306250e-01
-5.95657812e-08,1.93293750e-01
-5.95257812e-08,1.93306250e-01
-5.94857812e-08,1.93293750e-01
-5.94457812e-08,1.93306250e-01
-5.94057812e-08,1.93295313e-01
-5.93657812e-08,1.93304688e-01
-5.93257812e-08,1.93295313e-01
-5.92857812e-08,1.93304688e-01
-5.92457812e-08,1.93295313e-01
-5.92057812e-08,1.93304688e-01
-5.91657812e-08,1.93295313e-01
-5.91257812e-08,1.93304688e-01
-5.90857812e-08,1.93295313e-01
-5.90457812e-08,1.93304688e-01
-5.90057812e-08,1.93295313e-01
-5.89657812e-08,1.93304688e-01
-5.89257812e-08,1.93295313e-01
-5.88857812e-08,1.93304688e-01
-5.88457812e-08,1.93295313e-01
-5.88057812e-08,1.93304688e-01
-5.87657812e-08,1.93296875e-01
-5.87257812e-08,1.93303125e-01
-5.86857812e-08,1.93296875e-01
-5.86457812e-08,1.93303125e-01
-5.86057812e-08,1.93296875e-01
-5.85657812e-08,1.93303125e-01
-5.85257812e-08,1.93296875e-01
-5.84857812e-08,1.93303125e-01
-5.84457812e-08,1.93296875e-01
-5.84057812e-08,1.93303125e-01
-5.83657812e-08,1.93296875e-01
-5.83257812e-08,1.93303125e-01
-5.82857812e-08,1.93296875e-01
-5.82457812e-08,1.93301562e-01
-5.82057812e-08,1.93298438e-01
-5.81657812e-08,1.93301562e-01
-5.81257812e-08,1.93300000e-01
-5.80857812e-08,1.93300000e-01
-5.80457812e-08,1.93301562e-01
-5.80057812e-08,1.93296875e-01
-5.79657812e-08,1.93306250e-01
-5.79257812e-08,1.93289062e-01
-5.78857812e-08,1.93320313e-01
-5.78457812e-08,1.93254688e-01
-5.78057812e-08,1.93496875e-01
-5.77657812e-08,1.93765625e-01
-5.77257812e-08,1.93657812e-01
-5.76857812e-08,1.93732813e-01
-5.76457812e-08,1.93670312e-01
-5.76057812e-08,1.93726563e-01
-5.75657812e-08,1.93673438e-01
-5.75257812e-08,1.93726563e-01
-5.74857812e-08,1.93671875e-01
-5.74457812e-08,1.93729687e-01
-5.74057812e-08,1.93665625e-01
-5.73657812e-08,1.93743750e-01
-5.73257812e-08,1.93631250e-01
-5.72857812e-08,1.93921875e-01
-5.72457812e-08,1.94140625e-01
-5.72057812e-08,1.94084375e-01
-5.71657812e-08,1.94106250e-01
-5.71257812e-08,1.94098437e-01
-5.70857812e-08,1.94096875e-01
-5.70457812e-08,1.94104688e-01
-5.70057812e-08,1.94092188e-01
-5.69657812e-08,1.94110937e-01
-5.69257812e-08,1.94085937e-01
-5.68857812e-08,1.94117188e-01
-5.68457812e-08,1.94076562e-01
-5.68057812e-08,1.94132813e-01
-5.67657812e-08,1.94042188e-01
-5.67257812e-08,1.94310938e-01
-5.66857812e-08,1.94550000e-01
-5.66457812e-08,1.94473438e-01
-5.66057812e-08,1.94517188e-01
-5.65657812e-08,1.94489063e-01
-5.65257812e-08,1.94507813e-01
-5.64857812e-08,1.94493750e-01
-5.64457812e-08,1.94503125e-01
-5.64057812e-08,1.94496875e-01
-5.63657812e-08,1.94501563e-01
-5.63257812e-08,1.94500000e-01
-5.62857812e-08,1.94500000e-01
-5.62457812e-08,1.94501563e-01
-5.62057812e-08,1.94498438e-01
-5.61657812e-08,1.94503125e-01
-5.61257812e-08,1.94496875e-01
-5.60857812e-08,1.94504687e-01
-5.60457812e-08,1.94495313e-01
-5.60057812e-08,1.94506250e-01
-5.59657812e-08,1.94493750e-01
-5.59257812e-08,1.94507813e-01
-5.58857812e-08,1.94490625e-01
-5.58457812e-08,1.94510938e-01
-5.58057812e-08,1.94487500e-01
-5.57657812e-08,1.94514063e-01
-5.57257812e-08,1.94482813e-01
-5.56857812e-08,1.94523438e-01
-5.56457812e-08,1.94467187e-01
-5.56057812e-08,1.94557813e-01
-5.55657812e-08,1.94289062e-01
-5.55257812e-08,1.94050000e-01
-5.54857812e-08,1.94126563e-01
-5.54457812e-08,1.94082813e-01
-5.54057812e-08,1.94110937e-01
-5.53657812e-08,1.94092188e-01
-5.53257812e-08,1.94104688e-01
-5.52857812e-08,1.94096875e-01
-5.52457812e-08,1.94101563e-01
-5.52057812e-08,1.94100000e-01
-5.51657812e-08,1.94098437e-01
-5.51257812e-08,1.94103125e-01
-5.50857812e-08,1.94093750e-01
-5.50457812e-08,1.94107813e-01
-5.50057812e-08,1.94087500e-01
-5.49657812e-08,1.94117188e-01
-5.49257812e-08,1.94073438e-01
-5.48857812e-08,1.94153125e-01
-5.48457812e-08,1.93893750e-01
-5.48057812e-08,1.93643750e-01
-5.47657812e-08,1.93732813e-01
-5.47257812e-08,1.93678125e-01
-5.46857812e-08,1.93717187e-01
-5.46457812e-08,1.93685938e-01
-5.46057812e-08,1.93712500e-01
-5.45657812e-08,1.93689063e-01
-5.45257812e-08,1.93709375e-01
-5.44857812e-08,1.93692188e-01
-5.44457812e-08,1.93707813e-01
-5.44057812e-08,1.93693750e-01
-5.43657812e-08,1.93706250e-01
-5.43257812e-08,1.93695312e-01
-5.42857812e-08,1.93704688e-01
-5.42457812e-08,1.93695312e-01
-5.42057812e-08,1.93703125e-01
-5.41657812e-08,1.93696875e-01
-5.41257812e-08,1.93703125e-01
-5.40857812e-08,1.93696875e-01
-5.40457812e-08,1.93703125e-01
-5.40057812e-08,1.93696875e-01
-5.39657812e-08,1.93701563e-01
-5.39257812e-08,1.93698438e-01
-5.38857812e-08,1.93701563e-01
-5.38457812e-08,1.93698438e-01
-5.38057812e-08,1.93701563e-01
-5.37657812e-08,1.93698438e-01
-5.37257812e-08,1.93700000e-01
-5.36857812e-08,1.93700000e-01
-5.36457812e-08,1.93700000e-01
-5.36057812e-08,1.93700000e-01
-5.35657812e-08,1.93700000e-01
-5.35257812e-08,1.93700000e-01
-5.34857812e-08,1.93700000e-01
-5.34457812e-08,1.93701563e-01
-5.34057812e-08,1.93698438e-01
-5.33657812e-08,1.93701563e-01
-5.33257812e-08,1.93698438e-01
-5.32857812e-08,1.93701563e-01
-5.32457812e-08,1.93698438e-01
-5.32057812e-08,1.93701563e-01
-5.31657812e-08,1.93696875e-01
-5.31257812e-08,1.93703125e-01
-5.30857812e-08,1.93696875e-01
-5.30457812e-08,1.93703125e-01
-5.30057812e-08,1.93695312e-01
-5.29657812e-08,1.93704688e-01
-5.29257812e-08,1.93693750e-01
-5.28857812e-08,1.93706250e-01
-5.28457812e-08,1.93693750e-01
-5.28057812e-08,1.93707813e-01
-5.27657812e-08,1.93690625e-01
-5.27257812e-08,1.93710938e-01
-5.26857813e-08,1.93687500e-01
-5.26457812e-08,1.93717187e-01
-5.26057812e-08,1.93678125e-01
-5.25657812e-08,1.93731250e-01
-5.25257812e-08,1.93643750e-01
-5.24857812e-08,1.93909375e-01
-5.24457812e-08,1.94151563e-01
-5.24057812e-08,1.94071875e-01
-5.23657812e-08,1.94118750e-01
-5.23257812e-08,1.94087500e-01
-5.22857812e-08,1.94109375e-01
-5.22457812e-08,1.94092188e-01
-5.22057812e-08,1.94104688e-01
-5.21657812e-08,1.94096875e-01
-5.21257812e-08,1.94101563e-01
-5.20857812e-08,1.94098437e-01
-5.20457812e-08,1.94100000e-01
-5.20057812e-08,1.94101563e-01
-5.19657812e-08,1.94096875e-01
-5.19257812e-08,1.94104688e-01
-5.18857812e-08,1.94093750e-01
-5.18457812e-08,1.94109375e-01
-5.18057812e-08,1.94087500e-01
-5.17657812e-08,1.94115625e-01
-5.17257812e-08,1.94076562e-01
-5.16857812e-08,1.94134375e-01
-5.16457812e-08,1.94037500e-01
-5.16057812e-08,1.94320313e-01
-5.15657812e-08,1.94531250e-01
-5.15257812e-08,1.94517188e-01
-5.14857812e-08,1.94320313e-01
-5.14457812e-08,1.94021875e-01
-5.14057812e-08,1.94151563e-01
-5.13657812e-08,1.94059375e-01
-5.13257812e-08,1.94134375e-01
-5.12857812e-08,1.94070313e-01
-5.12457812e-08,1.94128125e-01
-5.12057812e-08,1.94073438e-01
-5.11657812e-08,1.94125000e-01
-5.11257812e-08,1.94075000e-01
-5.10857812e-08,1.94125000e-01
-5.10457812e-08,1.94073438e-01
-5.10057812e-08,1.94126563e-01
-5.09657812e-08,1.94070313e-01
-5.09257812e-08,1.94134375e-01
-5.08857812e-08,1.94056250e-01
-5.08457812e-08,1.94168750e-01
-5.08057812e-08,1.93878125e-01
-5.07657813e-08,1.93659375e-01
-5.07257812e-08,1.93717187e-01
-5.06857812e-08,1.93693750e-01
-5.06457812e-08,1.93701563e-01
-5.06057812e-08,1.93703125e-01
-5.05657812e-08,1.93693750e-01
-5.05257812e-08,1.93709375e-01
-5.04857813e-08,1.93687500e-01
-5.04457812e-08,1.93718750e-01
-5.04057812e-08,1.93671875e-01
-5.03657812e-08,1.93753125e-01
-5.03257812e-08,1.93492187e-01
-5.02857812e-08,1.93245313e-01
-5.02457812e-08,1.93331250e-01
-5.02057812e-08,1.93278125e-01
-5.01657812e-08,1.93315625e-01
-5.01257812e-08,1.93285938e-01
-5.00857812e-08,1.93310938e-01
-5.00457812e-08,1.93290625e-01
-5.00057812e-08,1.93309375e-01
-4.99657812e-08,1.93292188e-01
-4.99257812e-08,1.93307813e-01
-4.98857812e-08,1.93293750e-01
-4.98457812e-08,1.93306250e-01
-4.98057812e-08,1.93293750e-01
-4.97657812e-08,1.93306250e-01
-4.97257812e-08,1.93293750e-01
-4.96857812e-08,1.93306250e-01
-4.96457812e-08,1.93293750e-01
-4.96057812e-08,1.93306250e-01
-4.95657812e-08,1.93293750e-01
-4.95257812e-08,1.93306250e-01
-4.94857812e-08,1.93293750e-01
-4.94457812e-08,1.93306250e-01
-4.94057812e-08,1.93293750e-01
-4.93657812e-08,1.93307813e-01
-4.93257812e-08,1.93292188e-01
-4.92857812e-08,1.93309375e-01
-4.92457812e-08,1.93290625e-01
-4.92057812e-08,1.93310938e-01
-4.91657812e-08,1.93287500e-01
-4.91257812e-08,1.93314062e-01
-4.90857812e-08,1.93282813e-01
-4.90457812e-08,1.93321875e-01
-4.90057812e-08,1.93267187e-01
-4.89657812e-08,1.93357813e-01
-4.89257812e-08,1.93089063e-01
-4.88857812e-08,1.92848437e-01
-4.88457813e-08,1.92928125e-01
-4.88057812e-08,1.92882813e-01
-4.87657812e-08,1.92912500e-01
-4.87257812e-08,1.92890625e-01
-4.86857812e-08,1.92906250e-01
-4.86457812e-08,1.92895312e-01
-4.86057812e-08,1.92903125e-01
-4.85657813e-08,1.92900000e-01
-4.85257812e-08,1.92898438e-01
-4.84857812e-08,1.92903125e-01
-4.84457812e-08,1.92892188e-01
-4.84057812e-08,1.92912500e-01
-4.83657812e-08,1.92878125e-01
-4.83257812e-08,1.92946875e-01
-4.82857813e-08,1.92700000e-01
-4.82457812e-08,1.92437500e-01
-4.82057812e-08,1.92537500e-01
-4.81657812e-08,1.92471875e-01
-4.81257812e-08,1.92523438e-01
-4.80857812e-08,1.92478125e-01
-4.80457812e-08,1.92518750e-01
-4.80057812e-08,1.92481250e-01
-4.79657812e-08,1.92517188e-01
-4.79257812e-08,1.92482813e-01
-4.78857812e-08,1.92518750e-01
-4.78457812e-08,1.92481250e-01
-4.78057812e-08,1.92520313e-01
-4.77657812e-08,1.92476563e-01
-4.77257812e-08,1.92528125e-01
-4.76857812e-08,1.92462500e-01
-4.76457812e-08,1.92560938e-01
-4.76057812e-08,1.92285938e-01
-4.75657812e-08,1.92051562e-01
-4.75257812e-08,1.92125000e-01
-4.74857812e-08,1.92084375e-01
-4.74457812e-08,1.92110937e-01
-4.74057812e-08,1.92092188e-01
-4.73657812e-08,1.92106250e-01
-4.73257812e-08,1.92095313e-01
-4.72857812e-08,1.92103125e-01
-4.72457812e-08,1.92096875e-01
-4.72057812e-08,1.92101563e-01
-4.71657812e-08,1.92098437e-01
-4.71257812e-08,1.92101563e-01
-4.70857812e-08,1.92098437e-01
-4.70457812e-08,1.92101563e-01
-4.70057812e-08,1.92098437e-01
-4.69657812e-08,1.92100000e-01
-4.69257813e-08,1.92100000e-01
-4.68857812e-08,1.92100000e-01
-4.68457812e-08,1.92100000e-01
-4.68057812e-08,1.92100000e-01
-4.67657812e-08,1.92100000e-01
-4.67257812e-08,1.92100000e-01
-4.66857812e-08,1.92100000e-01
-4.66457813e-08,1.92100000e-01
-4.66057812e-08,1.92100000e-01
-4.65657812e-08,1.92100000e-01
-4.65257812e-08,1.92100000e-01
-4.64857812e-08,1.92100000e-01
-4.64457812e-08,1.92100000e-01
-4.64057812e-08,1.92100000e-01
-4.63657813e-08,1.92100000e-01
-4.63257812e-08,1.92100000e-01
-4.62857812e-08,1.92100000e-01
-4.62457812e-08,1.92100000e-01
-4.62057812e-08,1.92100000e-01
-4.61657812e-08,1.92100000e-01
-4.61257812e-08,1.92100000e-01
-4.60857813e-08,1.92100000e-01
-4.60457812e-08,1.92100000e-01
-4.60057812e-08,1.92100000e-01
-4.59657812e-08,1.92100000e-01
-4.59257812e-08,1.92100000e-01
-4.58857812e-08,1.92100000e-01
-4.58457812e-08,1.92100000e-01
-4.58057812e-08,1.92100000e-01
-4.57657812e-08,1.92100000e-01
-4.57257812e-08,1.92100000e-01
-4.56857812e-08,1.92100000e-01
-4.56457812e-08,1.92100000e-01
-4.56057812e-08,1.92100000e-01
-4.55657812e-08,1.92100000e-01
-4.55257812e-08,1.92100000e-01
-4.54857812e-08,1.92100000e-01
-4.54457812e-08,1.92100000e-01
-4.54057812e-08,1.92100000e-01
-4.53657812e-08,1.92100000e-01
-4.53257812e-08,1.92100000e-01
-4.52857812e-08,1.92100000e-01
-4.52457812e-08,1.92098437e-01
-4.52057812e-08,1.92101563e-01
-4.51657812e-08,1.92098437e-01
-4.51257812e-08,1.92101563e-01
-4.50857812e-08,1.92098437e-01
-4.50457812e-08,1.92101563e-01
-4.50057813e-08,1.92098437e-01
-4.49657812e-08,1.92101563e-01
-4.49257812e-08,1.92098437e-01
-4.48857812e-08,1.92103125e-01
-4.48457812e-08,1.92096875e-01
-4.48057812e-08,1.92103125e-01
-4.47657812e-08,1.92095313e-01
-4.47257813e-08,1.92104688e-01
-4.46857812e-08,1.92093750e-01
-4.46457812e-08,1.92107813e-01
-4.46057812e-08,1.92090625e-01
-4.45657812e-08,1.92112500e-01
-4.45257812e-08,1.92082813e-01
-4.44857812e-08,1.92126563e-01
-4.44457813e-08,1.92050000e-01
-4.44057812e-08,1.92303125e-01
-4.43657812e-08,1.92559375e-01
-4.43257812e-08,1.92464063e-01
-4.42857812e-08,1.92528125e-01
-4.42457812e-08,1.92476563e-01
-4.42057812e-08,1.92521875e-01
-4.41657813e-08,1.92478125e-01
-4.41257812e-08,1.92523438e-01
-4.40857812e-08,1.92473438e-01
-4.40457812e-08,1.92534375e-01
-4.40057812e-08,1.92440625e-01
-4.39657812e-08,1.92710938e-01
-4.39257812e-08,1.92951563e-01
-4.38857813e-08,1.92870313e-01
-4.38457812e-08,1.92921875e-01
-4.38057812e-08,1.92882813e-01
-4.37657812e-08,1.92915625e-01
-4.37257812e-08,1.92882813e-01
-4.36857812e-08,1.92918750e-01
-4.36457812e-08,1.92878125e-01
-4.36057812e-08,1.92931250e-01
-4.35657812e-08,1.92845313e-01
-4.35257812e-08,1.93107813e-01
-4.34857812e-08,1.93354688e-01
-4.34457812e-08,1.93268750e-01
-4.34057812e-08,1.93321875e-01
-4.33657812e-08,1.93282813e-01
-4.33257812e-08,1.93315625e-01
-4.32857812e-08,1.93287500e-01
-4.32457812e-08,1.93312500e-01
-4.32057812e-08,1.93289062e-01
-4.31657812e-08,1.93310938e-01
-4.31257812e-08,1.93289062e-01
-4.30857813e-08,1.93310938e-01
-4.30457812e-08,1.93290625e-01
-4.30057812e-08,1.93309375e-01
-4.29657812e-08,1.93290625e-01
-4.29257812e-08,1.93309375e-01
-4.28857812e-08,1.93289062e-01
-4.28457812e-08,1.93310938e-01
-4.28057813e-08,1.93289062e-01
-4.27657812e-08,1.93310938e-01
-4.27257812e-08,1.93287500e-01
-4.26857812e-08,1.93312500e-01
-4.26457812e-08,1.93285938e-01
-4.26057812e-08,1.93315625e-01
-4.25657812e-08,1.93282813e-01
-4.25257813e-08,1.93318750e-01
-4.24857812e-08,1.93278125e-01
-4.24457812e-08,1.93328125e-01
-4.24057812e-08,1.93262500e-01
-4.23657812e-08,1.93364063e-01
-4.23257812e-08,1.93082813e-01
-4.22857812e-08,1.92856250e-01
-4.22457813e-08,1.92918750e-01
-4.22057812e-08,1.92890625e-01
-4.21657812e-08,1.92901563e-01
-4.21257812e-08,1.92903125e-01
-4.20857812e-08,1.92892188e-01
-4.20457812e-08,1.92915625e-01
-4.20057812e-08,1.92873438e-01
-4.19657813e-08,1.92953125e-01
-4.19257812e-08,1.92693750e-01
-4.18857812e-08,1.92445313e-01
-4.18457812e-08,1.92529688e-01
-4.18057812e-08,1.92481250e-01
-4.17657812e-08,1.92510938e-01
-4.17257812e-08,1.92493750e-01
-4.16857813e-08,1.92501563e-01
-4.16457812e-08,1.92506250e-01
-4.16057812e-08,1.92482813e-01
-4.15657812e-08,1.92542188e-01
-4.15257812e-08,1.92303125e-01
-4.14857812e-08,1.92034375e-01
-4.14457812e-08,1.92140625e-01
-4.14057812e-08,1.92068750e-01
-4.13657812e-08,1.92126563e-01
-4.13257812e-08,1.92078125e-01
-4.12857812e-08,1.92120313e-01
-4.12457812e-08,1.92081250e-01
-4.12057812e-08,1.92117188e-01
-4.11657813e-08,1.92082813e-01
-4.11257812e-08,1.92115625e-01
-4.10857812e-08,1.92084375e-01
-4.10457812e-08,1.92114063e-01
-4.10057812e-08,1.92085937e-01
-4.09657812e-08,1.92114063e-01
-4.09257812e-08,1.92085937e-01
-4.08857813e-08,1.92112500e-01
-4.08457812e-08,1.92087500e-01
-4.08057812e-08,1.92112500e-01
-4.07657812e-08,1.92087500e-01
-4.07257812e-08,1.92112500e-01
-4.06857812e-08,1.92087500e-01
-4.06457812e-08,1.92112500e-01
-4.06057813e-08,1.92087500e-01
-4.05657812e-08,1.92112500e-01
-4.05257812e-08,1.92087500e-01
-4.04857812e-08,1.92112500e-01
-4.04457812e-08,1.92085937e-01
-4.04057812e-08,1.92114063e-01
-4.03657812e-08,1.92085937e-01
-4.03257813e-08,1.92114063e-01
-4.02857812e-08,1.92084375e-01
-4.02457812e-08,1.92115625e-01
-4.02057812e-08,1.92082813e-01
-4.01657812e-08,1.92117188e-01
-4.01257812e-08,1.92081250e-01
-4.00857812e-08,1.92120313e-01
-4.00457813e-08,1.92076562e-01
-4.00057812e-08,1.92126563e-01
-3.99657812e-08,1.92068750e-01
-3.99257812e-08,1.92142188e-01
-3.98857812e-08,1.92032813e-01
-3.98457812e-08,1.92320313e-01
-3.98057812e-08,1.92540625e-01
-3.97657813e-08,1.92482813e-01
-3.97257812e-08,1.92506250e-01
-3.96857812e-08,1.92498438e-01
-3.96457812e-08,1.92496875e-01
-3.96057812e-08,1.92507813e-01
-3.95657812e-08,1.92489063e-01
-3.95257812e-08,1.92515625e-01
-3.94857813e-08,1.92478125e-01
-3.94457812e-08,1.92531250e-01
-3.94057812e-08,1.92442188e-01
-3.93657812e-08,1.92710938e-01
-3.93257812e-08,1.92950000e-01
-3.92857812e-08,1.92873438e-01
-3.92457813e-08,1.92915625e-01
-3.92057812e-08,1.92889063e-01
-3.91657812e-08,1.92906250e-01
-3.91257812e-08,1.92895312e-01
-3.90857812e-08,1.92901563e-01
-3.90457812e-08,1.92900000e-01
-3.90057812e-08,1.92898438e-01
-3.89657813e-08,1.92903125e-01
-3.89257812e-08,1.92893750e-01
-3.88857812e-08,1.92907812e-01
-3.88457812e-08,1.92889063e-01
-3.88057812e-08,1.92914063e-01
-3.87657812e-08,1.92879688e-01
-3.87257812e-08,1.92929688e-01
-3.86857813e-08,1.92845313e-01
-3.86457812e-08,1.93109375e-01
-3.86057812e-08,1.93353125e-01
-3.85657812e-08,1.93271875e-01
-3.85257812e-08,1.93318750e-01
