trails/0b415fe76bd122fbe60d5dd91566c6d8/aes_ch1_20250507111434901.csv

Model,MSO66B
Label,
Waveform Type,ANALOG
Horizontal Units,s
Sample Interval,4.00000000e-11
Record Length,10000
Zero Index,1599.15234375
Vertical Units,A
ANALOG_Thumbnail,
yOffset,1.84500000e-01
yPosition,8.40000000e-01

Labels,
TIME,CH1
-6.39660938e-08,1.88896875e-01
-6.39260937e-08,1.88901563e-01
-6.38860937e-08,1.88900000e-01
-6.38460937e-08,1.88896875e-01
-6.38060937e-08,1.88906250e-01
-6.37660937e-08,1.88889063e-01
-6.37260937e-08,1.88920313e-01
-6.36860938e-08,1.88854688e-01
-6.36460937e-08,1.89098437e-01
-6.36060937e-08,1.89364063e-01
-6.35660937e-08,1.89259375e-01
-6.35260937e-08,1.89331250e-01
-6.34860937e-08,1.89273438e-01
-6.34460937e-08,1.89323437e-01
-6.34060938e-08,1.89278125e-01
-6.33660937e-08,1.89321875e-01
-6.33260937e-08,1.89279688e-01
-6.32860937e-08,1.89320313e-01
-6.32460937e-08,1.89279688e-01
-6.32060937e-08,1.89321875e-01
-6.31660937e-08,1.89276562e-01
-6.31260938e-08,1.89326563e-01
-6.30860937e-08,1.89268750e-01
-6.30460937e-08,1.89340625e-01
-6.30060937e-08,1.89235938e-01
-6.29660937e-08,1.89517188e-01
-6.29260937e-08,1.89745313e-01
-6.28860937e-08,1.89678125e-01
-6.28460938e-08,1.89712500e-01
-6.28060937e-08,1.89692187e-01
-6.27660937e-08,1.89704687e-01
-6.27260937e-08,1.89698438e-01
-6.26860937e-08,1.89701563e-01
-6.26460937e-08,1.89700000e-01
-6.26060937e-08,1.89698438e-01
-6.25660938e-08,1.89701563e-01
-6.25260937e-08,1.89698438e-01
-6.24860937e-08,1.89703125e-01
-6.24460937e-08,1.89696875e-01
-6.24060937e-08,1.89703125e-01
-6.23660938e-08,1.89696875e-01
-6.23260937e-08,1.89703125e-01
-6.22860938e-08,1.89695313e-01
-6.22460937e-08,1.89704687e-01
-6.22060937e-08,1.89695313e-01
-6.21660937e-08,1.89704687e-01
-6.21260937e-08,1.89695313e-01
-6.20860938e-08,1.89704687e-01
-6.20460937e-08,1.89695313e-01
-6.20060938e-08,1.89704687e-01
-6.19660937e-08,1.89693750e-01
-6.19260937e-08,1.89706250e-01
-6.18860937e-08,1.89693750e-01
-6.18460937e-08,1.89706250e-01
-6.18060938e-08,1.89693750e-01
-6.17660937e-08,1.89706250e-01
-6.17260938e-08,1.89693750e-01
-6.16860937e-08,1.89707813e-01
-6.16460937e-08,1.89692187e-01
-6.16060937e-08,1.89707813e-01
-6.15660937e-08,1.89692187e-01
-6.15260938e-08,1.89709375e-01
-6.14860937e-08,1.89690625e-01
-6.14460938e-08,1.89710938e-01
-6.14060937e-08,1.89689063e-01
-6.13660937e-08,1.89712500e-01
-6.13260937e-08,1.89685938e-01
-6.12860937e-08,1.89715625e-01
-6.12460938e-08,1.89681250e-01
-6.12060937e-08,1.89725000e-01
-6.11660938e-08,1.89665625e-01
-6.11260937e-08,1.89759375e-01
-6.10860937e-08,1.89487500e-01
-6.10460937e-08,1.89250000e-01
-6.10060937e-08,1.89326563e-01
-6.09660938e-08,1.89282813e-01
-6.09260937e-08,1.89312500e-01
-6.08860938e-08,1.89290625e-01
-6.08460937e-08,1.89306250e-01
-6.08060937e-08,1.89295313e-01
-6.07660937e-08,1.89304688e-01
-6.07260937e-08,1.89296875e-01
-6.06860938e-08,1.89301563e-01
-6.06460937e-08,1.89298437e-01
-6.06060938e-08,1.89301563e-01
-6.05660937e-08,1.89300000e-01
-6.05260937e-08,1.89300000e-01
-6.04860937e-08,1.89300000e-01
-6.04460937e-08,1.89300000e-01
-6.04060938e-08,1.89300000e-01
-6.03660937e-08,1.89298437e-01
-6.03260938e-08,1.89301563e-01
-6.02860937e-08,1.89298437e-01
-6.02460937e-08,1.89301563e-01
-6.02060937e-08,1.89298437e-01
-6.01660937e-08,1.89301563e-01
-6.01260938e-08,1.89296875e-01
-6.00860937e-08,1.89303125e-01
-6.00460937e-08,1.89296875e-01
-6.00060937e-08,1.89303125e-01
-5.99660937e-08,1.89296875e-01
-5.99260937e-08,1.89303125e-01
-5.98860937e-08,1.89296875e-01
-5.98460938e-08,1.89303125e-01
-5.98060937e-08,1.89295313e-01
-5.97660937e-08,1.89304688e-01
-5.97260937e-08,1.89295313e-01
-5.96860937e-08,1.89304688e-01
-5.96460937e-08,1.89295313e-01
-5.96060937e-08,1.89304688e-01
-5.95660937e-08,1.89293750e-01
-5.95260937e-08,1.89306250e-01
-5.94860937e-08,1.89293750e-01
-5.94460937e-08,1.89306250e-01
-5.94060937e-08,1.89292188e-01
-5.93660937e-08,1.89307813e-01
-5.93260937e-08,1.89292188e-01
-5.92860937e-08,1.89309375e-01
-5.92460937e-08,1.89290625e-01
-5.92060937e-08,1.89310937e-01
-5.91660937e-08,1.89287500e-01
-5.91260937e-08,1.89314063e-01
-5.90860937e-08,1.89284375e-01
-5.90460937e-08,1.89318750e-01
-5.90060937e-08,1.89275000e-01
-5.89660937e-08,1.89334375e-01
-5.89260937e-08,1.89240625e-01
-5.88860937e-08,1.89512500e-01
-5.88460937e-08,1.89750000e-01
-5.88060937e-08,1.89675000e-01
-5.87660937e-08,1.89715625e-01
-5.87260937e-08,1.89689063e-01
-5.86860937e-08,1.89707813e-01
-5.86460937e-08,1.89695313e-01
-5.86060937e-08,1.89703125e-01
-5.85660937e-08,1.89698438e-01
-5.85260937e-08,1.89701563e-01
-5.84860937e-08,1.89700000e-01
-5.84460937e-08,1.89698438e-01
-5.84060937e-08,1.89701563e-01
-5.83660937e-08,1.89696875e-01
-5.83260937e-08,1.89704687e-01
-5.82860937e-08,1.89693750e-01
-5.82460937e-08,1.89707813e-01
-5.82060937e-08,1.89690625e-01
-5.81660937e-08,1.89710938e-01
-5.81260937e-08,1.89685938e-01
-5.80860937e-08,1.89720313e-01
-5.80460937e-08,1.89670312e-01
-5.80060937e-08,1.89754688e-01
-5.79660937e-08,1.89492188e-01
-5.79260937e-08,1.89246875e-01
-5.78860937e-08,1.89329688e-01
-5.78460937e-08,1.89279688e-01
-5.78060937e-08,1.89314063e-01
-5.77660937e-08,1.89289062e-01
-5.77260937e-08,1.89309375e-01
-5.76860937e-08,1.89292188e-01
-5.76460937e-08,1.89306250e-01
-5.76060937e-08,1.89295313e-01
-5.75660937e-08,1.89304688e-01
-5.75260937e-08,1.89296875e-01
-5.74860937e-08,1.89301563e-01
-5.74460937e-08,1.89298437e-01
-5.74060937e-08,1.89300000e-01
-5.73660937e-08,1.89300000e-01
-5.73260937e-08,1.89298437e-01
-5.72860937e-08,1.89303125e-01
-5.72460937e-08,1.89295313e-01
-5.72060937e-08,1.89306250e-01
-5.71660937e-08,1.89292188e-01
-5.71260937e-08,1.89310937e-01
-5.70860937e-08,1.89284375e-01
-5.70460937e-08,1.89326563e-01
-5.70060937e-08,1.89248438e-01
-5.69660937e-08,1.89504688e-01
-5.69260937e-08,1.89757813e-01
-5.68860937e-08,1.89665625e-01
-5.68460937e-08,1.89725000e-01
-5.68060937e-08,1.89681250e-01
-5.67660937e-08,1.89717187e-01
-5.67260937e-08,1.89685938e-01
-5.66860937e-08,1.89712500e-01
-5.66460937e-08,1.89687500e-01
-5.66060937e-08,1.89710938e-01
-5.65660937e-08,1.89689063e-01
-5.65260937e-08,1.89710938e-01
-5.64860937e-08,1.89690625e-01
-5.64460937e-08,1.89709375e-01
-5.64060937e-08,1.89690625e-01
-5.63660937e-08,1.89710938e-01
-5.63260937e-08,1.89689063e-01
-5.62860937e-08,1.89710938e-01
-5.62460937e-08,1.89687500e-01
-5.62060937e-08,1.89714063e-01
-5.61660937e-08,1.89682813e-01
-5.61260937e-08,1.89721875e-01
-5.60860937e-08,1.89668750e-01
-5.60460937e-08,1.89754688e-01
-5.60060937e-08,1.89492188e-01
-5.59660937e-08,1.89245313e-01
-5.59260937e-08,1.89331250e-01
-5.58860937e-08,1.89276562e-01
-5.58460937e-08,1.89318750e-01
-5.58060937e-08,1.89282813e-01
-5.57660937e-08,1.89315625e-01
-5.57260937e-08,1.89284375e-01
-5.56860937e-08,1.89317188e-01
-5.56460937e-08,1.89281250e-01
-5.56060937e-08,1.89323437e-01
-5.55660937e-08,1.89267188e-01
-5.55260937e-08,1.89356250e-01
-5.54860937e-08,1.89090625e-01
-5.54460937e-08,1.88845313e-01
-5.54060937e-08,1.88931250e-01
-5.53660937e-08,1.88876563e-01
-5.53260937e-08,1.88920313e-01
-5.52860937e-08,1.88879688e-01
-5.52460937e-08,1.88923438e-01
-5.52060937e-08,1.88870312e-01
-5.51660937e-08,1.88953125e-01
-5.51260937e-08,1.88695313e-01
-5.50860937e-08,1.88440625e-01
-5.50460937e-08,1.88537500e-01
-5.50060937e-08,1.88470313e-01
-5.49660937e-08,1.88528125e-01
-5.49260937e-08,1.88471875e-01
-5.48860937e-08,1.88531250e-01
-5.48460937e-08,1.88459375e-01
-5.48060937e-08,1.88564063e-01
-5.47660937e-08,1.88282813e-01
-5.47260937e-08,1.88056250e-01
-5.46860937e-08,1.88120312e-01
-5.46460937e-08,1.88090625e-01
-5.46060937e-08,1.88103125e-01
-5.45660937e-08,1.88101563e-01
-5.45260937e-08,1.88093750e-01
-5.44860937e-08,1.88112500e-01
-5.44460937e-08,1.88076563e-01
-5.44060937e-08,1.88148438e-01
-5.43660937e-08,1.87896875e-01
-5.43260937e-08,1.87640625e-01
-5.42860937e-08,1.87734375e-01
-5.42460937e-08,1.87675000e-01
-5.42060937e-08,1.87720313e-01
-5.41660937e-08,1.87682813e-01
-5.41260937e-08,1.87714063e-01
-5.40860937e-08,1.87687500e-01
-5.40460937e-08,1.87710938e-01
-5.40060937e-08,1.87689063e-01
-5.39660937e-08,1.87709375e-01
-5.39260937e-08,1.87690625e-01
-5.38860937e-08,1.87709375e-01
-5.38460937e-08,1.87692187e-01
-5.38060937e-08,1.87707813e-01
-5.37660937e-08,1.87692187e-01
-5.37260937e-08,1.87706250e-01
-5.36860937e-08,1.87693750e-01
-5.36460937e-08,1.87706250e-01
-5.36060937e-08,1.87693750e-01
-5.35660937e-08,1.87706250e-01
-5.35260937e-08,1.87693750e-01
-5.34860937e-08,1.87706250e-01
-5.34460937e-08,1.87693750e-01
-5.34060937e-08,1.87706250e-01
-5.33660937e-08,1.87695313e-01
-5.33260937e-08,1.87704687e-01
-5.32860937e-08,1.87695313e-01
-5.32460937e-08,1.87704687e-01
-5.32060937e-08,1.87695313e-01
-5.31660937e-08,1.87704687e-01
-5.31260937e-08,1.87695313e-01
-5.30860937e-08,1.87704687e-01
-5.30460937e-08,1.87695313e-01
-5.30060937e-08,1.87704687e-01
-5.29660937e-08,1.87695313e-01
-5.29260937e-08,1.87704687e-01
-5.28860937e-08,1.87695313e-01
-5.28460937e-08,1.87704687e-01
-5.28060937e-08,1.87695313e-01
-5.27660938e-08,1.87704687e-01
-5.27260937e-08,1.87695313e-01
-5.26860937e-08,1.87706250e-01
-5.26460937e-08,1.87693750e-01
-5.26060937e-08,1.87706250e-01
-5.25660937e-08,1.87693750e-01
-5.25260937e-08,1.87706250e-01
-5.24860937e-08,1.87693750e-01
-5.24460937e-08,1.87706250e-01
-5.24060937e-08,1.87692187e-01
-5.23660937e-08,1.87707813e-01
-5.23260937e-08,1.87690625e-01
-5.22860937e-08,1.87709375e-01
-5.22460937e-08,1.87689063e-01
-5.22060937e-08,1.87712500e-01
-5.21660937e-08,1.87685938e-01
-5.21260937e-08,1.87717187e-01
-5.20860937e-08,1.87676563e-01
-5.20460937e-08,1.87732813e-01
-5.20060937e-08,1.87642188e-01
-5.19660937e-08,1.87910938e-01
-5.19260937e-08,1.88150000e-01
-5.18860937e-08,1.88073437e-01
-5.18460937e-08,1.88115625e-01
-5.18060937e-08,1.88090625e-01
-5.17660937e-08,1.88104688e-01
-5.17260937e-08,1.88100000e-01
-5.16860937e-08,1.88093750e-01
-5.16460937e-08,1.88115625e-01
-5.16060937e-08,1.88059375e-01
-5.15660937e-08,1.88293750e-01
-5.15260937e-08,1.88570313e-01
-5.14860937e-08,1.88453125e-01
-5.14460937e-08,1.88540625e-01
-5.14060937e-08,1.88459375e-01
-5.13660937e-08,1.88545313e-01
-5.13260937e-08,1.88431250e-01
-5.12860937e-08,1.88718750e-01
-5.12460937e-08,1.88945313e-01
-5.12060937e-08,1.88875000e-01
-5.11660937e-08,1.88918750e-01
-5.11260937e-08,1.88881250e-01
-5.10860937e-08,1.88925000e-01
-5.10460937e-08,1.88853125e-01
-5.10060937e-08,1.89098437e-01
-5.09660937e-08,1.89367188e-01
-5.09260937e-08,1.89253125e-01
-5.08860937e-08,1.89340625e-01
-5.08460938e-08,1.89259375e-01
-5.08060937e-08,1.89348437e-01
-5.07660937e-08,1.89228125e-01
-5.07260937e-08,1.89525000e-01
-5.06860937e-08,1.89737500e-01
-5.06460937e-08,1.89685938e-01
-5.06060937e-08,1.89704687e-01
-5.05660938e-08,1.89701563e-01
-5.05260937e-08,1.89693750e-01
-5.04860937e-08,1.89710938e-01
-5.04460937e-08,1.89682813e-01
-5.04060937e-08,1.89728125e-01
-5.03660937e-08,1.89645312e-01
-5.03260937e-08,1.89907812e-01
-5.02860937e-08,1.90154688e-01
-5.02460937e-08,1.90070313e-01
-5.02060937e-08,1.90120312e-01
-5.01660937e-08,1.90084375e-01
-5.01260937e-08,1.90110938e-01
-5.00860937e-08,1.90090625e-01
-5.00460937e-08,1.90107813e-01
-5.00060937e-08,1.90093750e-01
-4.99660937e-08,1.90104688e-01
-4.99260937e-08,1.90095313e-01
-4.98860937e-08,1.90103125e-01
-4.98460937e-08,1.90096875e-01
-4.98060937e-08,1.90103125e-01
-4.97660937e-08,1.90098437e-01
-4.97260937e-08,1.90101563e-01
-4.96860937e-08,1.90098437e-01
-4.96460937e-08,1.90100000e-01
-4.96060937e-08,1.90100000e-01
-4.95660937e-08,1.90100000e-01
-4.95260937e-08,1.90100000e-01
-4.94860937e-08,1.90098437e-01
-4.94460937e-08,1.90101563e-01
-4.94060937e-08,1.90098437e-01
-4.93660937e-08,1.90103125e-01
-4.93260937e-08,1.90096875e-01
-4.92860937e-08,1.90103125e-01
-4.92460937e-08,1.90095313e-01
-4.92060937e-08,1.90104688e-01
-4.91660937e-08,1.90093750e-01
-4.91260937e-08,1.90106250e-01
-4.90860937e-08,1.90092188e-01
-4.90460937e-08,1.90109375e-01
-4.90060937e-08,1.90089063e-01
-4.89660937e-08,1.90112500e-01
-4.89260938e-08,1.90084375e-01
-4.88860937e-08,1.90121875e-01
-4.88460937e-08,1.90068750e-01
-4.88060937e-08,1.90156250e-01
-4.87660937e-08,1.89890625e-01
-4.87260937e-08,1.89646875e-01
-4.86860937e-08,1.89728125e-01
-4.86460938e-08,1.89681250e-01
-4.86060937e-08,1.89712500e-01
-4.85660937e-08,1.89690625e-01
-4.85260937e-08,1.89707813e-01
-4.84860937e-08,1.89695313e-01
-4.84460937e-08,1.89703125e-01
-4.84060937e-08,1.89696875e-01
-4.83660937e-08,1.89701563e-01
-4.83260937e-08,1.89700000e-01
-4.82860937e-08,1.89698438e-01
-4.82460937e-08,1.89703125e-01
-4.82060937e-08,1.89693750e-01
-4.81660937e-08,1.89707813e-01
-4.81260937e-08,1.89687500e-01
-4.80860937e-08,1.89717187e-01
-4.80460937e-08,1.89671875e-01
-4.80060937e-08,1.89753125e-01
-4.79660937e-08,1.89493750e-01
-4.79260937e-08,1.89245313e-01
-4.78860937e-08,1.89329688e-01
-4.78460937e-08,1.89279688e-01
-4.78060937e-08,1.89314063e-01
-4.77660937e-08,1.89290625e-01
-4.77260937e-08,1.89304688e-01
-4.76860937e-08,1.89300000e-01
-4.76460937e-08,1.89293750e-01
-4.76060937e-08,1.89315625e-01
-4.75660937e-08,1.89257813e-01
-4.75260937e-08,1.89495313e-01
-4.74860937e-08,1.89767188e-01
-4.74460937e-08,1.89657812e-01
-4.74060937e-08,1.89732813e-01
-4.73660937e-08,1.89671875e-01
-4.73260937e-08,1.89725000e-01
-4.72860937e-08,1.89676563e-01
-4.72460937e-08,1.89721875e-01
-4.72060937e-08,1.89679687e-01
-4.71660937e-08,1.89720313e-01
-4.71260937e-08,1.89679687e-01
-4.70860937e-08,1.89720313e-01
-4.70460937e-08,1.89679687e-01
-4.70060938e-08,1.89721875e-01
-4.69660937e-08,1.89676563e-01
-4.69260937e-08,1.89725000e-01
-4.68860937e-08,1.89670312e-01
-4.68460937e-08,1.89739062e-01
-4.68060937e-08,1.89635938e-01
-4.67660937e-08,1.89917188e-01
-4.67260938e-08,1.90145312e-01
-4.66860937e-08,1.90078125e-01
-4.66460937e-08,1.90112500e-01
-4.66060937e-08,1.90092188e-01
-4.65660937e-08,1.90104688e-01
-4.65260937e-08,1.90096875e-01
-4.64860937e-08,1.90101563e-01
-4.64460938e-08,1.90098437e-01
-4.64060937e-08,1.90100000e-01
-4.63660937e-08,1.90100000e-01
-4.63260937e-08,1.90100000e-01
-4.62860937e-08,1.90101563e-01
-4.62460937e-08,1.90098437e-01
-4.62060937e-08,1.90101563e-01
-4.61660937e-08,1.90098437e-01
-4.61260937e-08,1.90101563e-01
-4.60860937e-08,1.90098437e-01
-4.60460937e-08,1.90101563e-01
-4.60060937e-08,1.90098437e-01
-4.59660937e-08,1.90101563e-01
-4.59260937e-08,1.90098437e-01
-4.58860937e-08,1.90101563e-01
-4.58460937e-08,1.90098437e-01
-4.58060937e-08,1.90101563e-01
-4.57660937e-08,1.90098437e-01
-4.57260937e-08,1.90101563e-01
-4.56860937e-08,1.90098437e-01
-4.56460937e-08,1.90101563e-01
-4.56060937e-08,1.90098437e-01
-4.55660937e-08,1.90101563e-01
-4.55260937e-08,1.90100000e-01
-4.54860937e-08,1.90100000e-01
-4.54460937e-08,1.90100000e-01
-4.54060937e-08,1.90100000e-01
-4.53660937e-08,1.90101563e-01
-4.53260937e-08,1.90098437e-01
-4.52860937e-08,1.90101563e-01
-4.52460937e-08,1.90096875e-01
-4.52060937e-08,1.90104688e-01
-4.51660937e-08,1.90093750e-01
-4.51260937e-08,1.90109375e-01
-4.50860938e-08,1.90085937e-01
-4.50460937e-08,1.90125000e-01
-4.50060937e-08,1.90051562e-01
-4.49660937e-08,1.90301563e-01
-4.49260937e-08,1.90560937e-01
-4.48860937e-08,1.90464063e-01
-4.48460937e-08,1.90526562e-01
-4.48060938e-08,1.90478125e-01
-4.47660937e-08,1.90520313e-01
-4.47260937e-08,1.90482813e-01
-4.46860937e-08,1.90515625e-01
-4.46460937e-08,1.90484375e-01
-4.46060937e-08,1.90514062e-01
-4.45660937e-08,1.90485938e-01
-4.45260938e-08,1.90514062e-01
-4.44860937e-08,1.90485938e-01
-4.44460937e-08,1.90514062e-01
-4.44060937e-08,1.90487500e-01
-4.43660937e-08,1.90512500e-01
-4.43260937e-08,1.90487500e-01
-4.42860937e-08,1.90514062e-01
-4.42460938e-08,1.90485938e-01
-4.42060937e-08,1.90514062e-01
-4.41660937e-08,1.90485938e-01
-4.41260937e-08,1.90514062e-01
-4.40860937e-08,1.90485938e-01
-4.40460937e-08,1.90515625e-01
-4.40060937e-08,1.90484375e-01
-4.39660937e-08,1.90517188e-01
-4.39260937e-08,1.90482813e-01
-4.38860937e-08,1.90518750e-01
-4.38460937e-08,1.90479687e-01
-4.38060937e-08,1.90523438e-01
-4.37660937e-08,1.90473438e-01
-4.37260937e-08,1.90531250e-01
-4.36860937e-08,1.90457813e-01
-4.36460937e-08,1.90567188e-01
-4.36060937e-08,1.90279688e-01
-4.35660937e-08,1.90059375e-01
-4.35260937e-08,1.90117188e-01
-4.34860937e-08,1.90093750e-01
-4.34460938e-08,1.90101563e-01
-4.34060937e-08,1.90103125e-01
-4.33660937e-08,1.90093750e-01
-4.33260937e-08,1.90109375e-01
-4.32860937e-08,1.90087500e-01
-4.32460937e-08,1.90115625e-01
-4.32060937e-08,1.90079688e-01
-4.31660938e-08,1.90126563e-01
-4.31260937e-08,1.90062500e-01
-4.30860937e-08,1.90164063e-01
-4.30460937e-08,1.89881250e-01
-4.30060937e-08,1.89657812e-01
-4.29660937e-08,1.89717187e-01
-4.29260937e-08,1.89695313e-01
-4.28860938e-08,1.89695313e-01
-4.28460937e-08,1.89712500e-01
-4.28060937e-08,1.89675000e-01
-4.27660937e-08,1.89753125e-01
-4.27260937e-08,1.89492188e-01
-4.26860937e-08,1.89248438e-01
-4.26460937e-08,1.89325000e-01
-4.26060938e-08,1.89287500e-01
-4.25660937e-08,1.89304688e-01
-4.25260937e-08,1.89304688e-01
-4.24860937e-08,1.89282813e-01
-4.24460937e-08,1.89345313e-01
-4.24060937e-08,1.89100000e-01
-4.23660937e-08,1.88839063e-01
-4.23260938e-08,1.88934375e-01
-4.22860937e-08,1.88878125e-01
-4.22460937e-08,1.88914063e-01
-4.22060937e-08,1.88893750e-01
-4.21660937e-08,1.88893750e-01
-4.21260937e-08,1.88932813e-01
-4.20860937e-08,1.88712500e-01
-4.20460938e-08,1.88425000e-01
-4.20060937e-08,1.88550000e-01
-4.19660937e-08,1.88459375e-01
-4.19260937e-08,1.88535938e-01
-4.18860937e-08,1.88465625e-01
-4.18460937e-08,1.88534375e-01
-4.18060937e-08,1.88465625e-01
-4.17660937e-08,1.88539063e-01
-4.17260937e-08,1.88453125e-01
-4.16860937e-08,1.88570313e-01
-4.16460937e-08,1.88276562e-01
-4.16060937e-08,1.88059375e-01
-4.15660937e-08,1.88117188e-01
-4.15260938e-08,1.88092188e-01
-4.14860937e-08,1.88103125e-01
-4.14460937e-08,1.88098437e-01
-4.14060937e-08,1.88100000e-01
-4.13660937e-08,1.88101563e-01
-4.13260937e-08,1.88098437e-01
-4.12860937e-08,1.88103125e-01
-4.12460938e-08,1.88096875e-01
-4.12060937e-08,1.88103125e-01
-4.11660937e-08,1.88096875e-01
-4.11260937e-08,1.88104688e-01
-4.10860937e-08,1.88095313e-01
-4.10460937e-08,1.88104688e-01
-4.10060937e-08,1.88095313e-01
-4.09660938e-08,1.88104688e-01
-4.09260937e-08,1.88095313e-01
-4.08860937e-08,1.88104688e-01
-4.08460937e-08,1.88095313e-01
-4.08060937e-08,1.88104688e-01
-4.07660937e-08,1.88095313e-01
-4.07260937e-08,1.88104688e-01
-4.06860938e-08,1.88095313e-01
-4.06460937e-08,1.88104688e-01
-4.06060937e-08,1.88095313e-01
-4.05660937e-08,1.88104688e-01
-4.05260937e-08,1.88095313e-01
-4.04860937e-08,1.88104688e-01
-4.04460937e-08,1.88095313e-01
-4.04060938e-08,1.88104688e-01
-4.03660937e-08,1.88095313e-01
-4.03260937e-08,1.88104688e-01
-4.02860937e-08,1.88095313e-01
-4.02460937e-08,1.88104688e-01
-4.02060937e-08,1.88095313e-01
-4.01660937e-08,1.88104688e-01
-4.01260938e-08,1.88095313e-01
-4.00860937e-08,1.88104688e-01
-4.00460937e-08,1.88095313e-01
-4.00060937e-08,1.88104688e-01
-3.99660937e-08,1.88095313e-01
-3.99260937e-08,1.88104688e-01
-3.98860937e-08,1.88095313e-01
-3.98460938e-08,1.88104688e-01
-3.98060937e-08,1.88095313e-01
-3.97660937e-08,1.88104688e-01
-3.97260937e-08,1.88095313e-01
-3.96860937e-08,1.88104688e-01
-3.96460937e-08,1.88095313e-01
-3.96060938e-08,1.88104688e-01
-3.95660937e-08,1.88095313e-01
-3.95260937e-08,1.88104688e-01
-3.94860937e-08,1.88095313e-01
-3.94460937e-08,1.88104688e-01
-3.94060937e-08,1.88095313e-01
-3.93660937e-08,1.88104688e-01
-3.93260938e-08,1.88095313e-01
-3.92860937e-08,1.88104688e-01
-3.92460937e-08,1.88096875e-01
-3.92060937e-08,1.88103125e-01
-3.91660937e-08,1.88096875e-01
-3.91260937e-08,1.88101563e-01
-3.90860937e-08,1.88098437e-01
-3.90460938e-08,1.88100000e-01
-3.90060937e-08,1.88103125e-01
-3.89660937e-08,1.88092188e-01
-3.89260937e-08,1.88115625e-01
-3.88860937e-08,1.88059375e-01
-3.88460937e-08,1.88292188e-01
-3.88060937e-08,1.88571875e-01
-3.87660938e-08,1.88451563e-01
-3.87260937e-08,1.88542188e-01
-3.86860937e-08,1.88460938e-01
-3.86460937e-08,1.88540625e-01
-3.86060937e-08,1.88456250e-01
-3.85660937e-08,1.88553125e-01
-3.85260937e-08,1.88421875e-01
