trails/0b415fe76bd122fbe60d5dd91566c6d8/aes_ch1_20250507111458492.csv

Model,MSO66B
Label,
Waveform Type,ANALOG
Horizontal Units,s
Sample Interval,4.00000000e-11
Record Length,10000
Zero Index,1599.04687500
Vertical Units,A
ANALOG_Thumbnail,
yOffset,1.84500000e-01
yPosition,8.40000000e-01

Labels,
TIME,CH1
-6.39618750e-08,1.81715625e-01
-6.39218750e-08,1.81684375e-01
-6.38818750e-08,1.81715625e-01
-6.38418750e-08,1.81684375e-01
-6.38018750e-08,1.81715625e-01
-6.37618750e-08,1.81684375e-01
-6.37218750e-08,1.81715625e-01
-6.36818750e-08,1.81684375e-01
-6.36418750e-08,1.81715625e-01
-6.36018750e-08,1.81682813e-01
-6.35618750e-08,1.81717188e-01
-6.35218750e-08,1.81681250e-01
-6.34818750e-08,1.81720313e-01
-6.34418750e-08,1.81678125e-01
-6.34018750e-08,1.81726562e-01
-6.33618750e-08,1.81668750e-01
-6.33218750e-08,1.81740625e-01
-6.32818750e-08,1.81634375e-01
-6.32418750e-08,1.81920313e-01
-6.32018750e-08,1.82142187e-01
-6.31618750e-08,1.82082812e-01
-6.31218750e-08,1.82107812e-01
-6.30818750e-08,1.82098438e-01
-6.30418750e-08,1.82096875e-01
-6.30018750e-08,1.82109375e-01
-6.29618750e-08,1.82084375e-01
-6.29218750e-08,1.82125000e-01
-6.28818750e-08,1.82050000e-01
-6.28418750e-08,1.82303125e-01
-6.28018750e-08,1.82559375e-01
-6.27618750e-08,1.82464062e-01
-6.27218750e-08,1.82526563e-01
-6.26818750e-08,1.82476562e-01
-6.26418750e-08,1.82523437e-01
-6.26018750e-08,1.82475000e-01
-6.25618750e-08,1.82532813e-01
-6.25218750e-08,1.82443750e-01
-6.24818750e-08,1.82709375e-01
-6.24418750e-08,1.82954688e-01
-6.24018750e-08,1.82868750e-01
-6.23618750e-08,1.82923438e-01
-6.23218750e-08,1.82879687e-01
-6.22818750e-08,1.82917187e-01
-6.22418750e-08,1.82884375e-01
-6.22018750e-08,1.82915625e-01
-6.21618750e-08,1.82884375e-01
-6.21218750e-08,1.82915625e-01
-6.20818750e-08,1.82882813e-01
-6.20418750e-08,1.82918750e-01
-6.20018750e-08,1.82879687e-01
-6.19618750e-08,1.82923438e-01
-6.19218750e-08,1.82871875e-01
-6.18818750e-08,1.82937500e-01
-6.18418750e-08,1.82837500e-01
-6.18018750e-08,1.83115625e-01
-6.17618750e-08,1.83345312e-01
-6.17218750e-08,1.83278125e-01
-6.16818750e-08,1.83312500e-01
-6.16418750e-08,1.83293750e-01
-6.16018750e-08,1.83303125e-01
-6.15618750e-08,1.83298437e-01
-6.15218750e-08,1.83300000e-01
-6.14818750e-08,1.83301563e-01
-6.14418750e-08,1.83296875e-01
-6.14018750e-08,1.83304688e-01
-6.13618750e-08,1.83293750e-01
-6.13218750e-08,1.83307813e-01
-6.12818750e-08,1.83292188e-01
-6.12418750e-08,1.83309375e-01
-6.12018750e-08,1.83289063e-01
-6.11618750e-08,1.83312500e-01
-6.11218750e-08,1.83284375e-01
-6.10818750e-08,1.83318750e-01
-6.10418750e-08,1.83275000e-01
-6.10018750e-08,1.83334375e-01
-6.09618750e-08,1.83239062e-01
-6.09218750e-08,1.83514063e-01
-6.08818750e-08,1.83748438e-01
-6.08418750e-08,1.83676563e-01
-6.08018750e-08,1.83714062e-01
-6.07618750e-08,1.83692187e-01
-6.07218750e-08,1.83704688e-01
-6.06818750e-08,1.83698438e-01
-6.06418750e-08,1.83700000e-01
-6.06018750e-08,1.83701562e-01
-6.05618750e-08,1.83696875e-01
-6.05218750e-08,1.83706250e-01
-6.04818750e-08,1.83692187e-01
-6.04418750e-08,1.83709375e-01
-6.04018750e-08,1.83687500e-01
-6.03618750e-08,1.83714062e-01
-6.03218750e-08,1.83681250e-01
-6.02818750e-08,1.83725000e-01
-6.02418750e-08,1.83665625e-01
-6.02018750e-08,1.83760937e-01
-6.01618750e-08,1.83484375e-01
-6.01218750e-08,1.83254688e-01
-6.00818750e-08,1.83320312e-01
-6.00418750e-08,1.83290625e-01
-6.00018750e-08,1.83303125e-01
-5.99618750e-08,1.83303125e-01
-5.99218750e-08,1.83290625e-01
-5.98818750e-08,1.83315625e-01
-5.98418750e-08,1.83271875e-01
-5.98018750e-08,1.83354688e-01
-5.97618750e-08,1.83090625e-01
-5.97218750e-08,1.82848438e-01
-5.96818750e-08,1.82925000e-01
-5.96418750e-08,1.82887500e-01
-5.96018750e-08,1.82903125e-01
-5.95618750e-08,1.82904687e-01
-5.95218750e-08,1.82882813e-01
-5.94818750e-08,1.82945313e-01
-5.94418750e-08,1.82700000e-01
-5.94018750e-08,1.82440625e-01
-5.93618750e-08,1.82534375e-01
-5.93218750e-08,1.82478125e-01
-5.92818750e-08,1.82514063e-01
-5.92418750e-08,1.82495313e-01
-5.92018750e-08,1.82493750e-01
-5.91618750e-08,1.82532813e-01
-5.91218750e-08,1.82312500e-01
-5.90818750e-08,1.82025000e-01
-5.90418750e-08,1.82151563e-01
-5.90018750e-08,1.82057812e-01
-5.89618750e-08,1.82139063e-01
-5.89218750e-08,1.82062500e-01
-5.88818750e-08,1.82140625e-01
-5.88418750e-08,1.82053125e-01
-5.88018750e-08,1.82170313e-01
-5.87618750e-08,1.81878125e-01
-5.87218750e-08,1.81659375e-01
-5.86818750e-08,1.81718750e-01
-5.86418750e-08,1.81690625e-01
-5.86018750e-08,1.81706250e-01
-5.85618750e-08,1.81696875e-01
-5.85218750e-08,1.81703125e-01
-5.84818750e-08,1.81698438e-01
-5.84418750e-08,1.81701562e-01
-5.84018750e-08,1.81698438e-01
-5.83618750e-08,1.81701562e-01
-5.83218750e-08,1.81698438e-01
-5.82818750e-08,1.81701562e-01
-5.82418750e-08,1.81698438e-01
-5.82018750e-08,1.81703125e-01
-5.81618750e-08,1.81696875e-01
-5.81218750e-08,1.81703125e-01
-5.80818750e-08,1.81695313e-01
-5.80418750e-08,1.81706250e-01
-5.80018750e-08,1.81692188e-01
-5.79618750e-08,1.81709375e-01
-5.79218750e-08,1.81689062e-01
-5.78818750e-08,1.81715625e-01
-5.78418750e-08,1.81679688e-01
-5.78018750e-08,1.81731250e-01
-5.77618750e-08,1.81643750e-01
-5.77218750e-08,1.81909375e-01
-5.76818750e-08,1.82151563e-01
-5.76418750e-08,1.82073438e-01
-5.76018750e-08,1.82115625e-01
-5.75618750e-08,1.82090625e-01
-5.75218750e-08,1.82103125e-01
-5.74818750e-08,1.82101563e-01
-5.74418750e-08,1.82090625e-01
-5.74018750e-08,1.82120313e-01
-5.73618750e-08,1.82053125e-01
-5.73218750e-08,1.82300000e-01
-5.72818750e-08,1.82559375e-01
-5.72418750e-08,1.82465625e-01
-5.72018750e-08,1.82523437e-01
-5.71618750e-08,1.82484375e-01
-5.71218750e-08,1.82506250e-01
-5.70818750e-08,1.82504688e-01
-5.70418750e-08,1.82468750e-01
-5.70018750e-08,1.82684375e-01
-5.69618750e-08,1.82978125e-01
-5.69218750e-08,1.82843750e-01
-5.68818750e-08,1.82948438e-01
-5.68418750e-08,1.82853125e-01
-5.68018750e-08,1.82953125e-01
-5.67618750e-08,1.82825000e-01
-5.67218750e-08,1.83126563e-01
-5.66818750e-08,1.83339063e-01
-5.66418750e-08,1.83282813e-01
-5.66018750e-08,1.83309375e-01
-5.65618750e-08,1.83292188e-01
-5.65218750e-08,1.83307813e-01
-5.64818750e-08,1.83289063e-01
-5.64418750e-08,1.83320312e-01
-5.64018750e-08,1.83256250e-01
-5.63618750e-08,1.83496875e-01
-5.63218750e-08,1.83767188e-01
-5.62818750e-08,1.83656250e-01
-5.62418750e-08,1.83734375e-01
-5.62018750e-08,1.83668750e-01
-5.61618750e-08,1.83728125e-01
-5.61218750e-08,1.83671875e-01
-5.60818750e-08,1.83728125e-01
-5.60418750e-08,1.83670313e-01
-5.60018750e-08,1.83731250e-01
-5.59618750e-08,1.83664063e-01
-5.59218750e-08,1.83745313e-01
-5.58818750e-08,1.83631250e-01
-5.58418750e-08,1.83921875e-01
-5.58018750e-08,1.84140625e-01
-5.57618750e-08,1.84082812e-01
-5.57218750e-08,1.84107812e-01
-5.56818750e-08,1.84096875e-01
-5.56418750e-08,1.84100000e-01
-5.56018750e-08,1.84101563e-01
-5.55618750e-08,1.84096875e-01
-5.55218750e-08,1.84104688e-01
-5.54818750e-08,1.84093750e-01
-5.54418750e-08,1.84106250e-01
-5.54018750e-08,1.84092188e-01
-5.53618750e-08,1.84107812e-01
-5.53218750e-08,1.84092188e-01
-5.52818750e-08,1.84109375e-01
-5.52418750e-08,1.84090625e-01
-5.52018750e-08,1.84110938e-01
-5.51618750e-08,1.84089063e-01
-5.51218750e-08,1.84112500e-01
-5.50818750e-08,1.84087500e-01
-5.50418750e-08,1.84114063e-01
-5.50018750e-08,1.84084375e-01
-5.49618750e-08,1.84118750e-01
-5.49218750e-08,1.84078125e-01
-5.48818750e-08,1.84126563e-01
-5.48418750e-08,1.84064063e-01
-5.48018750e-08,1.84160938e-01
-5.47618750e-08,1.83884375e-01
-5.47218750e-08,1.83653125e-01
-5.46818750e-08,1.83723438e-01
-5.46418750e-08,1.83685938e-01
-5.46018750e-08,1.83707813e-01
-5.45618750e-08,1.83695313e-01
-5.45218750e-08,1.83701562e-01
-5.44818750e-08,1.83700000e-01
-5.44418750e-08,1.83698438e-01
-5.44018750e-08,1.83703125e-01
-5.43618750e-08,1.83693750e-01
-5.43218750e-08,1.83707813e-01
-5.42818750e-08,1.83689062e-01
-5.42418750e-08,1.83717188e-01
-5.42018750e-08,1.83673438e-01
-5.41618750e-08,1.83751563e-01
-5.41218750e-08,1.83495313e-01
-5.40818750e-08,1.83242188e-01
-5.40418750e-08,1.83334375e-01
-5.40018750e-08,1.83275000e-01
-5.39618750e-08,1.83320312e-01
-5.39218750e-08,1.83281250e-01
-5.38818750e-08,1.83317188e-01
-5.38418750e-08,1.83282813e-01
-5.38018750e-08,1.83318750e-01
-5.37618750e-08,1.83279688e-01
-5.37218750e-08,1.83325000e-01
-5.36818750e-08,1.83267188e-01
-5.36418750e-08,1.83357812e-01
-5.36018750e-08,1.83089063e-01
-5.35618750e-08,1.82848438e-01
-5.35218750e-08,1.82928125e-01
-5.34818750e-08,1.82879687e-01
-5.34418750e-08,1.82915625e-01
-5.34018750e-08,1.82887500e-01
-5.33618750e-08,1.82910938e-01
-5.33218750e-08,1.82890625e-01
-5.32818750e-08,1.82909375e-01
-5.32418750e-08,1.82892187e-01
-5.32018750e-08,1.82907813e-01
-5.31618750e-08,1.82893750e-01
-5.31218750e-08,1.82906250e-01
-5.30818750e-08,1.82893750e-01
-5.30418750e-08,1.82906250e-01
-5.30018750e-08,1.82893750e-01
-5.29618750e-08,1.82906250e-01
-5.29218750e-08,1.82893750e-01
-5.28818750e-08,1.82906250e-01
-5.28418750e-08,1.82893750e-01
-5.28018750e-08,1.82906250e-01
-5.27618750e-08,1.82893750e-01
-5.27218750e-08,1.82906250e-01
-5.26818750e-08,1.82893750e-01
-5.26418750e-08,1.82906250e-01
-5.26018750e-08,1.82893750e-01
-5.25618750e-08,1.82906250e-01
-5.25218750e-08,1.82893750e-01
-5.24818750e-08,1.82907813e-01
-5.24418750e-08,1.82892187e-01
-5.24018750e-08,1.82907813e-01
-5.23618750e-08,1.82892187e-01
-5.23218750e-08,1.82907813e-01
-5.22818750e-08,1.82890625e-01
-5.22418750e-08,1.82909375e-01
-5.22018750e-08,1.82889063e-01
-5.21618750e-08,1.82910938e-01
-5.21218750e-08,1.82887500e-01
-5.20818750e-08,1.82915625e-01
-5.20418750e-08,1.82881250e-01
-5.20018750e-08,1.82923438e-01
-5.19618750e-08,1.82867188e-01
-5.19218750e-08,1.82957813e-01
-5.18818750e-08,1.82689062e-01
-5.18418750e-08,1.82448438e-01
-5.18018750e-08,1.82528125e-01
-5.17618750e-08,1.82481250e-01
-5.17218750e-08,1.82514063e-01
-5.16818750e-08,1.82489063e-01
-5.16418750e-08,1.82509375e-01
-5.16018750e-08,1.82490625e-01
-5.15618750e-08,1.82507813e-01
-5.15218750e-08,1.82492188e-01
-5.14818750e-08,1.82507813e-01
-5.14418750e-08,1.82490625e-01
-5.14018750e-08,1.82509375e-01
-5.13618750e-08,1.82487500e-01
-5.13218750e-08,1.82517188e-01
-5.12818750e-08,1.82473438e-01
-5.12418750e-08,1.82550000e-01
-5.12018750e-08,1.82296875e-01
-5.11618750e-08,1.82039063e-01
-5.11218750e-08,1.82137500e-01
-5.10818750e-08,1.82071875e-01
-5.10418750e-08,1.82125000e-01
-5.10018750e-08,1.82076563e-01
-5.09618750e-08,1.82121875e-01
-5.09218750e-08,1.82078125e-01
-5.08818750e-08,1.82123438e-01
-5.08418750e-08,1.82073438e-01
-5.08018750e-08,1.82131250e-01
-5.07618750e-08,1.82059375e-01
-5.07218750e-08,1.82165625e-01
-5.06818750e-08,1.81881250e-01
-5.06418750e-08,1.81656250e-01
-5.06018750e-08,1.81720313e-01
-5.05618750e-08,1.81690625e-01
-5.05218750e-08,1.81704688e-01
-5.04818750e-08,1.81698438e-01
-5.04418750e-08,1.81698438e-01
-5.04018750e-08,1.81704688e-01
-5.03618750e-08,1.81693750e-01
-5.03218750e-08,1.81709375e-01
-5.02818750e-08,1.81685938e-01
-5.02418750e-08,1.81718750e-01
-5.02018750e-08,1.81670313e-01
-5.01618750e-08,1.81754688e-01
-5.01218750e-08,1.81492188e-01
-5.00818750e-08,1.81245313e-01
-5.00418750e-08,1.81329688e-01
-5.00018750e-08,1.81279688e-01
-4.99618750e-08,1.81315625e-01
-4.99218750e-08,1.81287500e-01
-4.98818750e-08,1.81309375e-01
-4.98418750e-08,1.81292188e-01
-4.98018750e-08,1.81306250e-01
-4.97618750e-08,1.81293750e-01
-4.97218750e-08,1.81304688e-01
-4.96818750e-08,1.81296875e-01
-4.96418750e-08,1.81303125e-01
-4.96018750e-08,1.81296875e-01
-4.95618750e-08,1.81301563e-01
-4.95218750e-08,1.81298438e-01
-4.94818750e-08,1.81301563e-01
-4.94418750e-08,1.81298438e-01
-4.94018750e-08,1.81300000e-01
-4.93618750e-08,1.81300000e-01
-4.93218750e-08,1.81300000e-01
-4.92818750e-08,1.81300000e-01
-4.92418750e-08,1.81298438e-01
-4.92018750e-08,1.81301563e-01
-4.91618750e-08,1.81298438e-01
-4.91218750e-08,1.81301563e-01
-4.90818750e-08,1.81296875e-01
-4.90418750e-08,1.81303125e-01
-4.90018750e-08,1.81296875e-01
-4.89618750e-08,1.81303125e-01
-4.89218750e-08,1.81295312e-01
-4.88818750e-08,1.81304688e-01
-4.88418750e-08,1.81295312e-01
-4.88018750e-08,1.81306250e-01
-4.87618750e-08,1.81293750e-01
-4.87218750e-08,1.81306250e-01
-4.86818750e-08,1.81292188e-01
-4.86418750e-08,1.81309375e-01
-4.86018750e-08,1.81290625e-01
-4.85618750e-08,1.81310938e-01
-4.85218750e-08,1.81287500e-01
-4.84818750e-08,1.81314063e-01
-4.84418750e-08,1.81282813e-01
-4.84018750e-08,1.81320312e-01
-4.83618750e-08,1.81273437e-01
-4.83218750e-08,1.81337500e-01
-4.82818750e-08,1.81237500e-01
-4.82418750e-08,1.81517188e-01
-4.82018750e-08,1.81743750e-01
-4.81618750e-08,1.81682813e-01
-4.81218750e-08,1.81706250e-01
-4.80818750e-08,1.81703125e-01
-4.80418750e-08,1.81687500e-01
-4.80018750e-08,1.81725000e-01
-4.79618750e-08,1.81648438e-01
-4.79218750e-08,1.81907813e-01
-4.78818750e-08,1.82151563e-01
-4.78418750e-08,1.82076563e-01
-4.78018750e-08,1.82107812e-01
-4.77618750e-08,1.82107812e-01
-4.77218750e-08,1.82064063e-01
-4.76818750e-08,1.82292188e-01
-4.76418750e-08,1.82565625e-01
-4.76018750e-08,1.82460938e-01
-4.75618750e-08,1.82525000e-01
-4.75218750e-08,1.82489063e-01
-4.74818750e-08,1.82482813e-01
-4.74418750e-08,1.82670313e-01
-4.74018750e-08,1.82993750e-01
-4.73618750e-08,1.82826563e-01
-4.73218750e-08,1.82973438e-01
-4.72818750e-08,1.82807812e-01
-4.72418750e-08,1.83143750e-01
-4.72018750e-08,1.83320312e-01
-4.71618750e-08,1.83301563e-01
-4.71218750e-08,1.83287500e-01
-4.70818750e-08,1.83318750e-01
-4.70418750e-08,1.83275000e-01
-4.70018750e-08,1.83335938e-01
-4.69618750e-08,1.83237500e-01
-4.69218750e-08,1.83515625e-01
-4.68818750e-08,1.83746875e-01
-4.68418750e-08,1.83678125e-01
-4.68018750e-08,1.83712500e-01
-4.67618750e-08,1.83692187e-01
-4.67218750e-08,1.83704688e-01
-4.66818750e-08,1.83696875e-01
-4.66418750e-08,1.83701562e-01
-4.66018750e-08,1.83700000e-01
-4.65618750e-08,1.83698438e-01
-4.65218750e-08,1.83703125e-01
-4.64818750e-08,1.83696875e-01
-4.64418750e-08,1.83704688e-01
-4.64018750e-08,1.83693750e-01
-4.63618750e-08,1.83707813e-01
-4.63218750e-08,1.83689062e-01
-4.62818750e-08,1.83715625e-01
-4.62418750e-08,1.83675000e-01
-4.62018750e-08,1.83750000e-01
-4.61618750e-08,1.83498438e-01
-4.61218750e-08,1.83239062e-01
-4.60818750e-08,1.83339063e-01
-4.60418750e-08,1.83268750e-01
-4.60018750e-08,1.83328125e-01
-4.59618750e-08,1.83271875e-01
-4.59218750e-08,1.83331250e-01
-4.58818750e-08,1.83259375e-01
-4.58418750e-08,1.83364063e-01
-4.58018750e-08,1.83082812e-01
-4.57618750e-08,1.82854688e-01
-4.57218750e-08,1.82920313e-01
-4.56818750e-08,1.82889063e-01
-4.56418750e-08,1.82904687e-01
-4.56018750e-08,1.82900000e-01
-4.55618750e-08,1.82895313e-01
-4.55218750e-08,1.82910938e-01
-4.54818750e-08,1.82878125e-01
-4.54418750e-08,1.82946875e-01
-4.54018750e-08,1.82700000e-01
-4.53618750e-08,1.82439062e-01
-4.53218750e-08,1.82537500e-01
-4.52818750e-08,1.82471875e-01
-4.52418750e-08,1.82521875e-01
-4.52018750e-08,1.82481250e-01
-4.51618750e-08,1.82517188e-01
-4.51218750e-08,1.82484375e-01
-4.50818750e-08,1.82514063e-01
-4.50418750e-08,1.82485938e-01
-4.50018750e-08,1.82512500e-01
-4.49618750e-08,1.82487500e-01
-4.49218750e-08,1.82510937e-01
-4.48818750e-08,1.82489063e-01
-4.48418750e-08,1.82510937e-01
-4.48018750e-08,1.82489063e-01
-4.47618750e-08,1.82510937e-01
-4.47218750e-08,1.82490625e-01
-4.46818750e-08,1.82509375e-01
-4.46418750e-08,1.82490625e-01
-4.46018750e-08,1.82509375e-01
-4.45618750e-08,1.82490625e-01
-4.45218750e-08,1.82509375e-01
-4.44818750e-08,1.82490625e-01
-4.44418750e-08,1.82509375e-01
-4.44018750e-08,1.82490625e-01
-4.43618750e-08,1.82509375e-01
-4.43218750e-08,1.82490625e-01
-4.42818750e-08,1.82509375e-01
-4.42418750e-08,1.82490625e-01
-4.42018750e-08,1.82509375e-01
-4.41618750e-08,1.82490625e-01
-4.41218750e-08,1.82509375e-01
-4.40818750e-08,1.82490625e-01
-4.40418750e-08,1.82509375e-01
-4.40018750e-08,1.82490625e-01
-4.39618750e-08,1.82510937e-01
-4.39218750e-08,1.82489063e-01
-4.38818750e-08,1.82510937e-01
-4.38418750e-08,1.82489063e-01
-4.38018750e-08,1.82512500e-01
-4.37618750e-08,1.82487500e-01
-4.37218750e-08,1.82512500e-01
-4.36818750e-08,1.82485938e-01
-4.36418750e-08,1.82515625e-01
-4.36018750e-08,1.82482813e-01
-4.35618750e-08,1.82518750e-01
-4.35218750e-08,1.82478125e-01
-4.34818750e-08,1.82526563e-01
-4.34418750e-08,1.82464062e-01
-4.34018750e-08,1.82560938e-01
-4.33618750e-08,1.82285937e-01
-4.33218750e-08,1.82051563e-01
-4.32818750e-08,1.82123438e-01
-4.32418750e-08,1.82085938e-01
-4.32018750e-08,1.82109375e-01
-4.31618750e-08,1.82093750e-01
-4.31218750e-08,1.82104688e-01
-4.30818750e-08,1.82096875e-01
-4.30418750e-08,1.82101563e-01
-4.30018750e-08,1.82100000e-01
-4.29618750e-08,1.82100000e-01
-4.29218750e-08,1.82100000e-01
-4.28818750e-08,1.82098438e-01
-4.28418750e-08,1.82101563e-01
-4.28018750e-08,1.82098438e-01
-4.27618750e-08,1.82103125e-01
-4.27218750e-08,1.82096875e-01
-4.26818750e-08,1.82103125e-01
-4.26418750e-08,1.82096875e-01
-4.26018750e-08,1.82103125e-01
-4.25618750e-08,1.82096875e-01
-4.25218750e-08,1.82104688e-01
-4.24818750e-08,1.82095312e-01
-4.24418750e-08,1.82104688e-01
-4.24018750e-08,1.82095312e-01
-4.23618750e-08,1.82104688e-01
-4.23218750e-08,1.82095312e-01
-4.22818750e-08,1.82104688e-01
-4.22418750e-08,1.82093750e-01
-4.22018750e-08,1.82106250e-01
-4.21618750e-08,1.82093750e-01
-4.21218750e-08,1.82106250e-01
-4.20818750e-08,1.82093750e-01
-4.20418750e-08,1.82106250e-01
-4.20018750e-08,1.82093750e-01
-4.19618750e-08,1.82107812e-01
-4.19218750e-08,1.82092188e-01
-4.18818750e-08,1.82107812e-01
-4.18418750e-08,1.82092188e-01
-4.18018750e-08,1.82107812e-01
-4.17618750e-08,1.82092188e-01
-4.17218750e-08,1.82109375e-01
-4.16818750e-08,1.82090625e-01
-4.16418750e-08,1.82109375e-01
-4.16018750e-08,1.82090625e-01
-4.15618750e-08,1.82110938e-01
-4.15218750e-08,1.82089063e-01
-4.14818750e-08,1.82110938e-01
-4.14418750e-08,1.82087500e-01
-4.14018750e-08,1.82112500e-01
-4.13618750e-08,1.82085938e-01
-4.13218750e-08,1.82114063e-01
-4.12818750e-08,1.82084375e-01
-4.12418750e-08,1.82117187e-01
-4.12018750e-08,1.82081250e-01
-4.11618750e-08,1.82120313e-01
-4.11218750e-08,1.82076563e-01
-4.10818750e-08,1.82126563e-01
-4.10418750e-08,1.82067188e-01
-4.10018750e-08,1.82143750e-01
-4.09618750e-08,1.82031250e-01
-4.09218750e-08,1.82323438e-01
-4.08818750e-08,1.82537500e-01
-4.08418750e-08,1.82489063e-01
-4.08018750e-08,1.82500000e-01
-4.07618750e-08,1.82509375e-01
-4.07218750e-08,1.82481250e-01
-4.06818750e-08,1.82531250e-01
-4.06418750e-08,1.82442188e-01
-4.06018750e-08,1.82714062e-01
-4.05618750e-08,1.82946875e-01
-4.05218750e-08,1.82879687e-01
-4.04818750e-08,1.82907813e-01
-4.04418750e-08,1.82901563e-01
-4.04018750e-08,1.82890625e-01
-4.03618750e-08,1.82923438e-01
-4.03218750e-08,1.82850000e-01
-4.02818750e-08,1.83106250e-01
-4.02418750e-08,1.83354688e-01
-4.02018750e-08,1.83271875e-01
-4.01618750e-08,1.83315625e-01
-4.01218750e-08,1.83292188e-01
-4.00818750e-08,1.83298437e-01
-4.00418750e-08,1.83314063e-01
-4.00018750e-08,1.83259375e-01
-3.99618750e-08,1.83495313e-01
-3.99218750e-08,1.83765625e-01
-3.98818750e-08,1.83659375e-01
-3.98418750e-08,1.83729688e-01
-3.98018750e-08,1.83675000e-01
-3.97618750e-08,1.83720313e-01
-3.97218750e-08,1.83681250e-01
-3.96818750e-08,1.83715625e-01
-3.96418750e-08,1.83685938e-01
-3.96018750e-08,1.83712500e-01
-3.95618750e-08,1.83687500e-01
-3.95218750e-08,1.83710938e-01
-3.94818750e-08,1.83690625e-01
-3.94418750e-08,1.83709375e-01
-3.94018750e-08,1.83692187e-01
-3.93618750e-08,1.83707813e-01
-3.93218750e-08,1.83693750e-01
-3.92818750e-08,1.83706250e-01
-3.92418750e-08,1.83695313e-01
-3.92018750e-08,1.83704688e-01
-3.91618750e-08,1.83696875e-01
-3.91218750e-08,1.83701562e-01
-3.90818750e-08,1.83698438e-01
-3.90418750e-08,1.83700000e-01
-3.90018750e-08,1.83703125e-01
-3.89618750e-08,1.83693750e-01
-3.89218750e-08,1.83710938e-01
-3.88818750e-08,1.83679687e-01
-3.88418750e-08,1.83745313e-01
-3.88018750e-08,1.83501562e-01
-3.87618750e-08,1.83235938e-01
-3.87218750e-08,1.83342188e-01
-3.86818750e-08,1.83267188e-01
-3.86418750e-08,1.83329688e-01
-3.86018750e-08,1.83270313e-01
-3.85618750e-08,1.83331250e-01
-3.85218750e-08,1.83260937e-01
