trails/00d3b5ca214f61c40c3d804afea55865/aes_ch1_20250506163512461.csv

Model,MSO66B
Label,
Waveform Type,ANALOG
Horizontal Units,s
Sample Interval,4.00000000e-11
Record Length,10000
Zero Index,1599.07421875
Vertical Units,A
ANALOG_Thumbnail,
yOffset,1.84500000e-01
yPosition,8.40000000e-01

Labels,
TIME,CH1
-6.39629687e-08,1.75321875e-01
-6.39229688e-08,1.75281250e-01
-6.38829687e-08,1.75315625e-01
-6.38429687e-08,1.75284375e-01
-6.38029687e-08,1.75314063e-01
-6.37629687e-08,1.75287500e-01
-6.37229688e-08,1.75312500e-01
-6.36829687e-08,1.75289063e-01
-6.36429688e-08,1.75310938e-01
-6.36029687e-08,1.75289063e-01
-6.35629687e-08,1.75310938e-01
-6.35229687e-08,1.75289063e-01
-6.34829687e-08,1.75310938e-01
-6.34429688e-08,1.75290625e-01
-6.34029687e-08,1.75309375e-01
-6.33629688e-08,1.75290625e-01
-6.33229687e-08,1.75309375e-01
-6.32829687e-08,1.75290625e-01
-6.32429687e-08,1.75310938e-01
-6.32029687e-08,1.75289063e-01
-6.31629688e-08,1.75310938e-01
-6.31229687e-08,1.75289063e-01
-6.30829688e-08,1.75310938e-01
-6.30429687e-08,1.75289063e-01
-6.30029687e-08,1.75312500e-01
-6.29629687e-08,1.75287500e-01
-6.29229687e-08,1.75314063e-01
-6.28829688e-08,1.75285938e-01
-6.28429687e-08,1.75315625e-01
-6.28029688e-08,1.75281250e-01
-6.27629687e-08,1.75321875e-01
-6.27229687e-08,1.75273438e-01
-6.26829687e-08,1.75335938e-01
-6.26429687e-08,1.75239063e-01
-6.26029688e-08,1.75514063e-01
-6.25629687e-08,1.75748437e-01
-6.25229688e-08,1.75675000e-01
-6.24829687e-08,1.75714063e-01
-6.24429687e-08,1.75690625e-01
-6.24029687e-08,1.75706250e-01
-6.23629687e-08,1.75695313e-01
-6.23229688e-08,1.75703125e-01
-6.22829687e-08,1.75698437e-01
-6.22429688e-08,1.75701563e-01
-6.22029687e-08,1.75700000e-01
-6.21629687e-08,1.75700000e-01
-6.21229687e-08,1.75701563e-01
-6.20829687e-08,1.75698437e-01
-6.20429688e-08,1.75701563e-01
-6.20029687e-08,1.75698437e-01
-6.19629688e-08,1.75703125e-01
-6.19229687e-08,1.75696875e-01
-6.18829687e-08,1.75703125e-01
-6.18429687e-08,1.75696875e-01
-6.18029687e-08,1.75704688e-01
-6.17629688e-08,1.75695313e-01
-6.17229687e-08,1.75704688e-01
-6.16829687e-08,1.75695313e-01
-6.16429687e-08,1.75704688e-01
-6.16029687e-08,1.75693750e-01
-6.15629687e-08,1.75706250e-01
-6.15229687e-08,1.75693750e-01
-6.14829688e-08,1.75706250e-01
-6.14429687e-08,1.75692188e-01
-6.14029687e-08,1.75707813e-01
-6.13629687e-08,1.75692188e-01
-6.13229687e-08,1.75709375e-01
-6.12829687e-08,1.75690625e-01
-6.12429687e-08,1.75710937e-01
-6.12029688e-08,1.75689062e-01
-6.11629687e-08,1.75712500e-01
-6.11229687e-08,1.75685938e-01
-6.10829687e-08,1.75715625e-01
-6.10429687e-08,1.75681250e-01
-6.10029687e-08,1.75721875e-01
-6.09629687e-08,1.75673438e-01
-6.09229688e-08,1.75737500e-01
-6.08829687e-08,1.75637500e-01
-6.08429687e-08,1.75915625e-01
-6.08029687e-08,1.76145313e-01
-6.07629687e-08,1.76079687e-01
-6.07229687e-08,1.76110938e-01
-6.06829687e-08,1.76095313e-01
-6.06429688e-08,1.76100000e-01
-6.06029687e-08,1.76103125e-01
-6.05629687e-08,1.76092187e-01
-6.05229687e-08,1.76112500e-01
-6.04829687e-08,1.76081250e-01
-6.04429687e-08,1.76129687e-01
-6.04029687e-08,1.76045312e-01
-6.03629688e-08,1.76309375e-01
-6.03229687e-08,1.76551563e-01
-6.02829687e-08,1.76473437e-01
-6.02429687e-08,1.76514063e-01
-6.02029687e-08,1.76493750e-01
-6.01629687e-08,1.76498437e-01
-6.01229687e-08,1.76512500e-01
-6.00829688e-08,1.76460937e-01
-6.00429687e-08,1.76692188e-01
-6.00029687e-08,1.76970313e-01
-5.99629687e-08,1.76853125e-01
-5.99229687e-08,1.76940625e-01
-5.98829688e-08,1.76860938e-01
-5.98429687e-08,1.76945313e-01
-5.98029688e-08,1.76834375e-01
-5.97629687e-08,1.77117187e-01
-5.97229687e-08,1.77346875e-01
-5.96829687e-08,1.77273438e-01
-5.96429687e-08,1.77318750e-01
-5.96029687e-08,1.77282812e-01
-5.95629687e-08,1.77317188e-01
-5.95229687e-08,1.77278125e-01
-5.94829687e-08,1.77329687e-01
-5.94429687e-08,1.77245313e-01
-5.94029687e-08,1.77507813e-01
-5.93629687e-08,1.77756250e-01
-5.93229687e-08,1.77668750e-01
-5.92829687e-08,1.77721875e-01
-5.92429687e-08,1.77682813e-01
-5.92029687e-08,1.77715625e-01
-5.91629687e-08,1.77687500e-01
-5.91229687e-08,1.77710937e-01
-5.90829687e-08,1.77689062e-01
-5.90429687e-08,1.77709375e-01
-5.90029687e-08,1.77690625e-01
-5.89629687e-08,1.77707813e-01
-5.89229687e-08,1.77692188e-01
-5.88829687e-08,1.77707813e-01
-5.88429687e-08,1.77692188e-01
-5.88029687e-08,1.77707813e-01
-5.87629687e-08,1.77692188e-01
-5.87229687e-08,1.77706250e-01
-5.86829687e-08,1.77693750e-01
-5.86429687e-08,1.77706250e-01
-5.86029687e-08,1.77693750e-01
-5.85629687e-08,1.77707813e-01
-5.85229687e-08,1.77692188e-01
-5.84829687e-08,1.77707813e-01
-5.84429687e-08,1.77692188e-01
-5.84029687e-08,1.77709375e-01
-5.83629687e-08,1.77689062e-01
-5.83229687e-08,1.77712500e-01
-5.82829687e-08,1.77685938e-01
-5.82429687e-08,1.77718750e-01
-5.82029687e-08,1.77671875e-01
-5.81629687e-08,1.77753125e-01
-5.81229687e-08,1.77493750e-01
-5.80829687e-08,1.77242188e-01
-5.80429687e-08,1.77334375e-01
-5.80029687e-08,1.77275000e-01
-5.79629687e-08,1.77321875e-01
-5.79229687e-08,1.77281250e-01
-5.78829687e-08,1.77318750e-01
-5.78429687e-08,1.77281250e-01
-5.78029687e-08,1.77320312e-01
-5.77629687e-08,1.77278125e-01
-5.77229687e-08,1.77326563e-01
-5.76829687e-08,1.77264063e-01
-5.76429687e-08,1.77360938e-01
-5.76029687e-08,1.77085938e-01
-5.75629687e-08,1.76851563e-01
-5.75229687e-08,1.76923438e-01
-5.74829687e-08,1.76885938e-01
-5.74429687e-08,1.76907813e-01
-5.74029687e-08,1.76895313e-01
-5.73629687e-08,1.76901562e-01
-5.73229687e-08,1.76903125e-01
-5.72829687e-08,1.76893750e-01
-5.72429687e-08,1.76912500e-01
-5.72029687e-08,1.76878125e-01
-5.71629687e-08,1.76946875e-01
-5.71229687e-08,1.76698437e-01
-5.70829687e-08,1.76439062e-01
-5.70429687e-08,1.76537500e-01
-5.70029687e-08,1.76471875e-01
-5.69629687e-08,1.76523438e-01
-5.69229687e-08,1.76479688e-01
-5.68829687e-08,1.76517188e-01
-5.68429687e-08,1.76482813e-01
-5.68029687e-08,1.76515625e-01
-5.67629687e-08,1.76484375e-01
-5.67229687e-08,1.76515625e-01
-5.66829687e-08,1.76484375e-01
-5.66429687e-08,1.76515625e-01
-5.66029687e-08,1.76482813e-01
-5.65629687e-08,1.76518750e-01
-5.65229687e-08,1.76479688e-01
-5.64829687e-08,1.76525000e-01
-5.64429687e-08,1.76465625e-01
-5.64029687e-08,1.76559375e-01
-5.63629687e-08,1.76287500e-01
-5.63229687e-08,1.76050000e-01
-5.62829687e-08,1.76126563e-01
-5.62429687e-08,1.76081250e-01
-5.62029687e-08,1.76114063e-01
-5.61629687e-08,1.76089063e-01
-5.61229687e-08,1.76109375e-01
-5.60829687e-08,1.76092187e-01
-5.60429687e-08,1.76107813e-01
-5.60029687e-08,1.76092187e-01
-5.59629687e-08,1.76107813e-01
-5.59229687e-08,1.76092187e-01
-5.58829687e-08,1.76107813e-01
-5.58429687e-08,1.76092187e-01
-5.58029687e-08,1.76109375e-01
-5.57629687e-08,1.76089063e-01
-5.57229687e-08,1.76114063e-01
-5.56829687e-08,1.76081250e-01
-5.56429687e-08,1.76128125e-01
-5.56029687e-08,1.76046875e-01
-5.55629687e-08,1.76306250e-01
-5.55229687e-08,1.76556250e-01
-5.54829687e-08,1.76467188e-01
-5.54429687e-08,1.76523438e-01
-5.54029687e-08,1.76481250e-01
-5.53629687e-08,1.76515625e-01
-5.53229687e-08,1.76485937e-01
-5.52829687e-08,1.76512500e-01
-5.52429687e-08,1.76489063e-01
-5.52029687e-08,1.76510938e-01
-5.51629687e-08,1.76489063e-01
-5.51229687e-08,1.76510938e-01
-5.50829687e-08,1.76490625e-01
-5.50429687e-08,1.76509375e-01
-5.50029687e-08,1.76490625e-01
-5.49629687e-08,1.76509375e-01
-5.49229687e-08,1.76489063e-01
-5.48829687e-08,1.76510938e-01
-5.48429687e-08,1.76489063e-01
-5.48029687e-08,1.76512500e-01
-5.47629687e-08,1.76487500e-01
-5.47229687e-08,1.76514063e-01
-5.46829687e-08,1.76484375e-01
-5.46429687e-08,1.76518750e-01
-5.46029687e-08,1.76475000e-01
-5.45629687e-08,1.76534375e-01
-5.45229687e-08,1.76440625e-01
-5.44829687e-08,1.76712500e-01
-5.44429687e-08,1.76950000e-01
-5.44029687e-08,1.76873438e-01
-5.43629687e-08,1.76917188e-01
-5.43229687e-08,1.76887500e-01
-5.42829687e-08,1.76909375e-01
-5.42429687e-08,1.76892188e-01
-5.42029687e-08,1.76906250e-01
-5.41629687e-08,1.76895313e-01
-5.41229687e-08,1.76904688e-01
-5.40829687e-08,1.76896875e-01
-5.40429687e-08,1.76903125e-01
-5.40029687e-08,1.76898438e-01
-5.39629687e-08,1.76901562e-01
-5.39229687e-08,1.76898438e-01
-5.38829687e-08,1.76901562e-01
-5.38429687e-08,1.76898438e-01
-5.38029687e-08,1.76900000e-01
-5.37629687e-08,1.76900000e-01
-5.37229687e-08,1.76900000e-01
-5.36829687e-08,1.76900000e-01
-5.36429687e-08,1.76900000e-01
-5.36029687e-08,1.76900000e-01
-5.35629687e-08,1.76898438e-01
-5.35229687e-08,1.76901562e-01
-5.34829687e-08,1.76898438e-01
-5.34429687e-08,1.76901562e-01
-5.34029687e-08,1.76898438e-01
-5.33629687e-08,1.76901562e-01
-5.33229687e-08,1.76896875e-01
-5.32829687e-08,1.76903125e-01
-5.32429687e-08,1.76896875e-01
-5.32029687e-08,1.76904688e-01
-5.31629687e-08,1.76895313e-01
-5.31229687e-08,1.76906250e-01
-5.30829687e-08,1.76893750e-01
-5.30429687e-08,1.76907813e-01
-5.30029687e-08,1.76889062e-01
-5.29629687e-08,1.76914062e-01
-5.29229687e-08,1.76881250e-01
-5.28829687e-08,1.76928125e-01
-5.28429687e-08,1.76846875e-01
-5.28029687e-08,1.77106250e-01
-5.27629687e-08,1.77356250e-01
-5.27229687e-08,1.77268750e-01
-5.26829687e-08,1.77323438e-01
-5.26429687e-08,1.77282812e-01
-5.26029687e-08,1.77314063e-01
-5.25629687e-08,1.77287500e-01
-5.25229687e-08,1.77310938e-01
-5.24829687e-08,1.77290625e-01
-5.24429687e-08,1.77309375e-01
-5.24029687e-08,1.77292188e-01
-5.23629687e-08,1.77307812e-01
-5.23229687e-08,1.77292188e-01
-5.22829687e-08,1.77307812e-01
-5.22429687e-08,1.77293750e-01
-5.22029688e-08,1.77306250e-01
-5.21629687e-08,1.77293750e-01
-5.21229687e-08,1.77306250e-01
-5.20829687e-08,1.77293750e-01
-5.20429687e-08,1.77306250e-01
-5.20029687e-08,1.77293750e-01
-5.19629687e-08,1.77306250e-01
-5.19229687e-08,1.77295312e-01
-5.18829687e-08,1.77304688e-01
-5.18429687e-08,1.77295312e-01
-5.18029687e-08,1.77304688e-01
-5.17629687e-08,1.77295312e-01
-5.17229687e-08,1.77304688e-01
-5.16829687e-08,1.77295312e-01
-5.16429687e-08,1.77304688e-01
-5.16029687e-08,1.77295312e-01
-5.15629687e-08,1.77304688e-01
-5.15229687e-08,1.77295312e-01
-5.14829687e-08,1.77304688e-01
-5.14429687e-08,1.77295312e-01
-5.14029687e-08,1.77304688e-01
-5.13629687e-08,1.77295312e-01
-5.13229687e-08,1.77304688e-01
-5.12829687e-08,1.77295312e-01
-5.12429687e-08,1.77304688e-01
-5.12029687e-08,1.77295312e-01
-5.11629687e-08,1.77304688e-01
-5.11229687e-08,1.77295312e-01
-5.10829687e-08,1.77304688e-01
-5.10429687e-08,1.77293750e-01
-5.10029687e-08,1.77306250e-01
-5.09629687e-08,1.77293750e-01
-5.09229687e-08,1.77306250e-01
-5.08829687e-08,1.77293750e-01
-5.08429687e-08,1.77306250e-01
-5.08029687e-08,1.77293750e-01
-5.07629687e-08,1.77306250e-01
-5.07229687e-08,1.77293750e-01
-5.06829687e-08,1.77306250e-01
-5.06429687e-08,1.77293750e-01
-5.06029687e-08,1.77306250e-01
-5.05629687e-08,1.77292188e-01
-5.05229687e-08,1.77307812e-01
-5.04829687e-08,1.77292188e-01
-5.04429687e-08,1.77307812e-01
-5.04029687e-08,1.77292188e-01
-5.03629687e-08,1.77307812e-01
-5.03229687e-08,1.77290625e-01
-5.02829688e-08,1.77309375e-01
-5.02429687e-08,1.77290625e-01
-5.02029687e-08,1.77310938e-01
-5.01629687e-08,1.77289063e-01
-5.01229687e-08,1.77312500e-01
-5.00829687e-08,1.77285938e-01
-5.00429687e-08,1.77315625e-01
-5.00029688e-08,1.77282812e-01
-4.99629687e-08,1.77320312e-01
-4.99229687e-08,1.77273438e-01
-4.98829687e-08,1.77335938e-01
-4.98429687e-08,1.77239063e-01
-4.98029687e-08,1.77514063e-01
-4.97629687e-08,1.77748437e-01
-4.97229687e-08,1.77676562e-01
-4.96829687e-08,1.77714063e-01
-4.96429687e-08,1.77690625e-01
-4.96029687e-08,1.77706250e-01
-4.95629687e-08,1.77696875e-01
-4.95229687e-08,1.77701562e-01
-4.94829687e-08,1.77700000e-01
-4.94429687e-08,1.77698438e-01
-4.94029687e-08,1.77701562e-01
-4.93629687e-08,1.77696875e-01
-4.93229687e-08,1.77704688e-01
-4.92829687e-08,1.77693750e-01
-4.92429687e-08,1.77707813e-01
-4.92029687e-08,1.77690625e-01
-4.91629687e-08,1.77712500e-01
-4.91229687e-08,1.77684375e-01
-4.90829687e-08,1.77720313e-01
-4.90429687e-08,1.77668750e-01
-4.90029687e-08,1.77756250e-01
-4.89629687e-08,1.77490625e-01
-4.89229687e-08,1.77246875e-01
-4.88829687e-08,1.77328125e-01
-4.88429687e-08,1.77281250e-01
-4.88029687e-08,1.77314063e-01
-4.87629687e-08,1.77289063e-01
-4.87229687e-08,1.77307812e-01
-4.86829687e-08,1.77293750e-01
-4.86429688e-08,1.77304688e-01
-4.86029687e-08,1.77296875e-01
-4.85629687e-08,1.77301563e-01
-4.85229687e-08,1.77300000e-01
-4.84829687e-08,1.77298438e-01
-4.84429687e-08,1.77303125e-01
-4.84029687e-08,1.77295312e-01
-4.83629688e-08,1.77306250e-01
-4.83229687e-08,1.77290625e-01
-4.82829687e-08,1.77315625e-01
-4.82429687e-08,1.77275000e-01
-4.82029687e-08,1.77350000e-01
-4.81629687e-08,1.77096875e-01
-4.81229687e-08,1.76840625e-01
-4.80829688e-08,1.76935938e-01
-4.80429687e-08,1.76873438e-01
-4.80029687e-08,1.76921875e-01
-4.79629687e-08,1.76881250e-01
-4.79229687e-08,1.76917188e-01
-4.78829687e-08,1.76884375e-01
-4.78429687e-08,1.76915625e-01
-4.78029687e-08,1.76884375e-01
-4.77629687e-08,1.76915625e-01
-4.77229687e-08,1.76882813e-01
-4.76829687e-08,1.76920313e-01
-4.76429687e-08,1.76875000e-01
-4.76029687e-08,1.76932813e-01
-4.75629687e-08,1.76842187e-01
-4.75229687e-08,1.77110938e-01
-4.74829687e-08,1.77351563e-01
-4.74429687e-08,1.77271875e-01
-4.74029687e-08,1.77320312e-01
-4.73629687e-08,1.77284375e-01
-4.73229687e-08,1.77312500e-01
-4.72829687e-08,1.77289063e-01
-4.72429687e-08,1.77309375e-01
-4.72029687e-08,1.77290625e-01
-4.71629687e-08,1.77307812e-01
-4.71229687e-08,1.77292188e-01
-4.70829687e-08,1.77307812e-01
-4.70429687e-08,1.77292188e-01
-4.70029687e-08,1.77307812e-01
-4.69629687e-08,1.77292188e-01
-4.69229687e-08,1.77307812e-01
-4.68829687e-08,1.77290625e-01
-4.68429687e-08,1.77309375e-01
-4.68029687e-08,1.77290625e-01
-4.67629687e-08,1.77310938e-01
-4.67229688e-08,1.77289063e-01
-4.66829687e-08,1.77312500e-01
-4.66429687e-08,1.77287500e-01
-4.66029687e-08,1.77314063e-01
-4.65629687e-08,1.77284375e-01
-4.65229687e-08,1.77318750e-01
-4.64829687e-08,1.77278125e-01
-4.64429688e-08,1.77328125e-01
-4.64029687e-08,1.77262500e-01
-4.63629687e-08,1.77364063e-01
-4.63229687e-08,1.77082813e-01
-4.62829687e-08,1.76856250e-01
-4.62429687e-08,1.76918750e-01
-4.62029687e-08,1.76892188e-01
-4.61629688e-08,1.76901562e-01
-4.61229687e-08,1.76904688e-01
-4.60829687e-08,1.76890625e-01
-4.60429687e-08,1.76917188e-01
-4.60029687e-08,1.76871875e-01
-4.59629687e-08,1.76954688e-01
-4.59229687e-08,1.76690625e-01
-4.58829688e-08,1.76450000e-01
-4.58429687e-08,1.76525000e-01
-4.58029687e-08,1.76487500e-01
-4.57629687e-08,1.76504688e-01
-4.57229687e-08,1.76504688e-01
-4.56829687e-08,1.76482813e-01
-4.56429687e-08,1.76543750e-01
-4.56029687e-08,1.76301563e-01
-4.55629687e-08,1.76039063e-01
-4.55229687e-08,1.76135938e-01
-4.54829687e-08,1.76076563e-01
-4.54429687e-08,1.76115625e-01
-4.54029687e-08,1.76093750e-01
-4.53629687e-08,1.76095313e-01
-4.53229687e-08,1.76131250e-01
-4.52829687e-08,1.75915625e-01
-4.52429687e-08,1.75621875e-01
-4.52029687e-08,1.75753125e-01
-4.51629687e-08,1.75654688e-01
-4.51229687e-08,1.75742188e-01
-4.50829687e-08,1.75659375e-01
-4.50429687e-08,1.75743750e-01
-4.50029687e-08,1.75648438e-01
-4.49629687e-08,1.75775000e-01
-4.49229687e-08,1.75471875e-01
-4.48829687e-08,1.75264063e-01
-4.48429687e-08,1.75312500e-01
-4.48029688e-08,1.75296875e-01
-4.47629687e-08,1.75296875e-01
-4.47229687e-08,1.75306250e-01
-4.46829687e-08,1.75290625e-01
-4.46429687e-08,1.75310938e-01
-4.46029687e-08,1.75284375e-01
-4.45629687e-08,1.75320313e-01
-4.45229688e-08,1.75268750e-01
-4.44829687e-08,1.75354687e-01
-4.44429687e-08,1.75092187e-01
-4.44029687e-08,1.74845313e-01
-4.43629687e-08,1.74929688e-01
-4.43229687e-08,1.74878125e-01
-4.42829687e-08,1.74917188e-01
-4.42429688e-08,1.74885938e-01
-4.42029687e-08,1.74912500e-01
-4.41629687e-08,1.74889062e-01
-4.41229687e-08,1.74910938e-01
-4.40829687e-08,1.74889062e-01
-4.40429687e-08,1.74912500e-01
-4.40029687e-08,1.74887500e-01
-4.39629688e-08,1.74914062e-01
-4.39229687e-08,1.74882813e-01
-4.38829687e-08,1.74921875e-01
-4.38429687e-08,1.74868750e-01
-4.38029687e-08,1.74956250e-01
-4.37629687e-08,1.74690625e-01
-4.37229687e-08,1.74446875e-01
-4.36829688e-08,1.74529688e-01
-4.36429687e-08,1.74479688e-01
-4.36029687e-08,1.74515625e-01
-4.35629687e-08,1.74487500e-01
-4.35229687e-08,1.74509375e-01
-4.34829687e-08,1.74492188e-01
-4.34429687e-08,1.74507812e-01
-4.34029687e-08,1.74493750e-01
-4.33629687e-08,1.74504688e-01
-4.33229687e-08,1.74495312e-01
-4.32829687e-08,1.74503125e-01
-4.32429687e-08,1.74496875e-01
-4.32029687e-08,1.74503125e-01
-4.31629687e-08,1.74498438e-01
-4.31229687e-08,1.74501563e-01
-4.30829687e-08,1.74500000e-01
-4.30429687e-08,1.74500000e-01
-4.30029687e-08,1.74500000e-01
-4.29629687e-08,1.74498438e-01
-4.29229687e-08,1.74503125e-01
-4.28829688e-08,1.74495312e-01
-4.28429687e-08,1.74506250e-01
-4.28029687e-08,1.74492188e-01
-4.27629687e-08,1.74510938e-01
-4.27229687e-08,1.74482813e-01
-4.26829687e-08,1.74526563e-01
-4.26429687e-08,1.74448437e-01
-4.26029688e-08,1.74704688e-01
-4.25629687e-08,1.74956250e-01
-4.25229687e-08,1.74867187e-01
-4.24829687e-08,1.74921875e-01
-4.24429687e-08,1.74882813e-01
-4.24029687e-08,1.74912500e-01
-4.23629687e-08,1.74890625e-01
-4.23229688e-08,1.74906250e-01
-4.22829687e-08,1.74898438e-01
-4.22429687e-08,1.74896875e-01
-4.22029687e-08,1.74914062e-01
-4.21629687e-08,1.74860938e-01
-4.21229687e-08,1.75092187e-01
-4.20829687e-08,1.75370313e-01
-4.20429688e-08,1.75253125e-01
-4.20029687e-08,1.75337500e-01
-4.19629687e-08,1.75265625e-01
-4.19229687e-08,1.75332813e-01
-4.18829687e-08,1.75267188e-01
-4.18429687e-08,1.75332813e-01
-4.18029687e-08,1.75262500e-01
-4.17629688e-08,1.75345313e-01
-4.17229687e-08,1.75229688e-01
-4.16829687e-08,1.75521875e-01
-4.16429687e-08,1.75740625e-01
-4.16029687e-08,1.75682813e-01
-4.15629687e-08,1.75707813e-01
-4.15229687e-08,1.75696875e-01
-4.14829688e-08,1.75700000e-01
-4.14429687e-08,1.75701563e-01
-4.14029687e-08,1.75696875e-01
-4.13629687e-08,1.75703125e-01
-4.13229687e-08,1.75695313e-01
-4.12829687e-08,1.75704688e-01
-4.12429687e-08,1.75695313e-01
-4.12029687e-08,1.75706250e-01
-4.11629687e-08,1.75693750e-01
-4.11229687e-08,1.75706250e-01
-4.10829687e-08,1.75693750e-01
-4.10429687e-08,1.75707813e-01
-4.10029687e-08,1.75692188e-01
-4.09629688e-08,1.75707813e-01
-4.09229687e-08,1.75692188e-01
-4.08829687e-08,1.75709375e-01
-4.08429687e-08,1.75690625e-01
-4.08029687e-08,1.75709375e-01
-4.07629687e-08,1.75689062e-01
-4.07229687e-08,1.75712500e-01
-4.06829688e-08,1.75685938e-01
-4.06429687e-08,1.75715625e-01
-4.06029687e-08,1.75681250e-01
-4.05629687e-08,1.75723437e-01
-4.05229687e-08,1.75667188e-01
-4.04829687e-08,1.75757812e-01
-4.04429687e-08,1.75489063e-01
-4.04029688e-08,1.75248437e-01
-4.03629687e-08,1.75328125e-01
-4.03229687e-08,1.75281250e-01
-4.02829687e-08,1.75314063e-01
-4.02429687e-08,1.75289063e-01
-4.02029687e-08,1.75309375e-01
-4.01629687e-08,1.75292188e-01
-4.01229688e-08,1.75307812e-01
-4.00829687e-08,1.75293750e-01
-4.00429687e-08,1.75306250e-01
-4.00029687e-08,1.75293750e-01
-3.99629687e-08,1.75307812e-01
-3.99229687e-08,1.75292188e-01
-3.98829687e-08,1.75309375e-01
-3.98429688e-08,1.75289063e-01
-3.98029687e-08,1.75314063e-01
-3.97629687e-08,1.75281250e-01
-3.97229687e-08,1.75328125e-01
-3.96829687e-08,1.75248437e-01
-3.96429687e-08,1.75504688e-01
-3.96029687e-08,1.75757812e-01
-3.95629688e-08,1.75665625e-01
-3.95229687e-08,1.75725000e-01
-3.94829687e-08,1.75679688e-01
-3.94429687e-08,1.75717188e-01
-3.94029687e-08,1.75684375e-01
-3.93629687e-08,1.75715625e-01
-3.93229687e-08,1.75685938e-01
-3.92829688e-08,1.75714063e-01
-3.92429687e-08,1.75685938e-01
-3.92029687e-08,1.75714063e-01
-3.91629687e-08,1.75684375e-01
-3.91229687e-08,1.75715625e-01
-3.90829687e-08,1.75682813e-01
-3.90429688e-08,1.75720313e-01
-3.90029687e-08,1.75675000e-01
-3.89629687e-08,1.75734375e-01
-3.89229687e-08,1.75640625e-01
-3.88829687e-08,1.75910938e-01
-3.88429687e-08,1.76151562e-01
-3.88029687e-08,1.76071875e-01
-3.87629688e-08,1.76118750e-01
-3.87229687e-08,1.76085938e-01
-3.86829687e-08,1.76112500e-01
-3.86429687e-08,1.76089063e-01
-3.86029687e-08,1.76109375e-01
-3.85629687e-08,1.76090625e-01
-3.85229687e-08,1.76110938e-01
