trails/00d3b5ca214f61c40c3d804afea55865/aes_ch1_20250506164325369.csv

Model,MSO66B
Label,
Waveform Type,ANALOG
Horizontal Units,s
Sample Interval,4.00000000e-11
Record Length,10000
Zero Index,1599.07812500
Vertical Units,A
ANALOG_Thumbnail,
yOffset,1.84500000e-01
yPosition,8.40000000e-01

Labels,
TIME,CH1
-6.39631250e-08,1.82109375e-01
-6.39231250e-08,1.82090625e-01
-6.38831250e-08,1.82109375e-01
-6.38431250e-08,1.82090625e-01
-6.38031250e-08,1.82109375e-01
-6.37631250e-08,1.82090625e-01
-6.37231250e-08,1.82109375e-01
-6.36831250e-08,1.82090625e-01
-6.36431250e-08,1.82109375e-01
-6.36031250e-08,1.82089063e-01
-6.35631250e-08,1.82112500e-01
-6.35231250e-08,1.82085938e-01
-6.34831250e-08,1.82117187e-01
-6.34431250e-08,1.82078125e-01
-6.34031250e-08,1.82131250e-01
-6.33631250e-08,1.82045313e-01
-6.33231250e-08,1.82307812e-01
-6.32831250e-08,1.82554688e-01
-6.32431250e-08,1.82468750e-01
-6.32031250e-08,1.82521875e-01
-6.31631250e-08,1.82482813e-01
-6.31231250e-08,1.82514063e-01
-6.30831250e-08,1.82487500e-01
-6.30431250e-08,1.82510937e-01
-6.30031250e-08,1.82489063e-01
-6.29631250e-08,1.82509375e-01
-6.29231250e-08,1.82490625e-01
-6.28831250e-08,1.82509375e-01
-6.28431250e-08,1.82490625e-01
-6.28031250e-08,1.82510937e-01
-6.27631250e-08,1.82489063e-01
-6.27231250e-08,1.82512500e-01
-6.26831250e-08,1.82485938e-01
-6.26431250e-08,1.82517188e-01
-6.26031250e-08,1.82478125e-01
-6.25631250e-08,1.82531250e-01
-6.25231250e-08,1.82443750e-01
-6.24831250e-08,1.82709375e-01
-6.24431250e-08,1.82953125e-01
-6.24031250e-08,1.82870313e-01
-6.23631250e-08,1.82920313e-01
-6.23231250e-08,1.82884375e-01
-6.22831250e-08,1.82912500e-01
-6.22431250e-08,1.82889063e-01
-6.22031250e-08,1.82909375e-01
-6.21631250e-08,1.82892187e-01
-6.21231250e-08,1.82907813e-01
-6.20831250e-08,1.82893750e-01
-6.20431250e-08,1.82906250e-01
-6.20031250e-08,1.82893750e-01
-6.19631250e-08,1.82904687e-01
-6.19231250e-08,1.82895313e-01
-6.18831250e-08,1.82904687e-01
-6.18431250e-08,1.82895313e-01
-6.18031250e-08,1.82904687e-01
-6.17631250e-08,1.82895313e-01
-6.17231250e-08,1.82904687e-01
-6.16831250e-08,1.82895313e-01
-6.16431250e-08,1.82904687e-01
-6.16031250e-08,1.82895313e-01
-6.15631250e-08,1.82904687e-01
-6.15231250e-08,1.82895313e-01
-6.14831250e-08,1.82904687e-01
-6.14431250e-08,1.82895313e-01
-6.14031250e-08,1.82904687e-01
-6.13631250e-08,1.82895313e-01
-6.13231250e-08,1.82904687e-01
-6.12831250e-08,1.82895313e-01
-6.12431250e-08,1.82904687e-01
-6.12031250e-08,1.82895313e-01
-6.11631250e-08,1.82904687e-01
-6.11231250e-08,1.82895313e-01
-6.10831250e-08,1.82904687e-01
-6.10431250e-08,1.82895313e-01
-6.10031250e-08,1.82904687e-01
-6.09631250e-08,1.82893750e-01
-6.09231250e-08,1.82906250e-01
-6.08831250e-08,1.82893750e-01
-6.08431250e-08,1.82906250e-01
-6.08031250e-08,1.82892187e-01
-6.07631250e-08,1.82907813e-01
-6.07231250e-08,1.82890625e-01
-6.06831250e-08,1.82909375e-01
-6.06431250e-08,1.82889063e-01
-6.06031250e-08,1.82914063e-01
-6.05631250e-08,1.82882813e-01
-6.05231250e-08,1.82921875e-01
-6.04831250e-08,1.82868750e-01
-6.04431250e-08,1.82956250e-01
-6.04031250e-08,1.82690625e-01
-6.03631250e-08,1.82446875e-01
-6.03231250e-08,1.82529688e-01
-6.02831250e-08,1.82479688e-01
-6.02431250e-08,1.82514063e-01
-6.02031250e-08,1.82489063e-01
-6.01631250e-08,1.82509375e-01
-6.01231250e-08,1.82492188e-01
-6.00831250e-08,1.82506250e-01
-6.00431250e-08,1.82493750e-01
-6.00031250e-08,1.82504688e-01
-5.99631250e-08,1.82495313e-01
-5.99231250e-08,1.82504688e-01
-5.98831250e-08,1.82495313e-01
-5.98431250e-08,1.82503125e-01
-5.98031250e-08,1.82496875e-01
-5.97631250e-08,1.82503125e-01
-5.97231250e-08,1.82496875e-01
-5.96831250e-08,1.82503125e-01
-5.96431250e-08,1.82498437e-01
-5.96031250e-08,1.82501563e-01
-5.95631250e-08,1.82498437e-01
-5.95231250e-08,1.82501563e-01
-5.94831250e-08,1.82498437e-01
-5.94431250e-08,1.82501563e-01
-5.94031250e-08,1.82498437e-01
-5.93631250e-08,1.82501563e-01
-5.93231250e-08,1.82498437e-01
-5.92831250e-08,1.82501563e-01
-5.92431250e-08,1.82498437e-01
-5.92031250e-08,1.82501563e-01
-5.91631250e-08,1.82498437e-01
-5.91231250e-08,1.82501563e-01
-5.90831250e-08,1.82500000e-01
-5.90431250e-08,1.82500000e-01
-5.90031250e-08,1.82500000e-01
-5.89631250e-08,1.82500000e-01
-5.89231250e-08,1.82500000e-01
-5.88831250e-08,1.82500000e-01
-5.88431250e-08,1.82500000e-01
-5.88031250e-08,1.82500000e-01
-5.87631250e-08,1.82500000e-01
-5.87231250e-08,1.82500000e-01
-5.86831250e-08,1.82500000e-01
-5.86431250e-08,1.82500000e-01
-5.86031250e-08,1.82500000e-01
-5.85631250e-08,1.82500000e-01
-5.85231250e-08,1.82500000e-01
-5.84831250e-08,1.82500000e-01
-5.84431250e-08,1.82500000e-01
-5.84031250e-08,1.82500000e-01
-5.83631250e-08,1.82500000e-01
-5.83231250e-08,1.82498437e-01
-5.82831250e-08,1.82501563e-01
-5.82431250e-08,1.82498437e-01
-5.82031250e-08,1.82501563e-01
-5.81631250e-08,1.82498437e-01
-5.81231250e-08,1.82501563e-01
-5.80831250e-08,1.82498437e-01
-5.80431250e-08,1.82501563e-01
-5.80031250e-08,1.82498437e-01
-5.79631250e-08,1.82501563e-01
-5.79231250e-08,1.82496875e-01
-5.78831250e-08,1.82503125e-01
-5.78431250e-08,1.82496875e-01
-5.78031250e-08,1.82503125e-01
-5.77631250e-08,1.82495313e-01
-5.77231250e-08,1.82504688e-01
-5.76831250e-08,1.82493750e-01
-5.76431250e-08,1.82506250e-01
-5.76031250e-08,1.82492188e-01
-5.75631250e-08,1.82510937e-01
-5.75231250e-08,1.82485938e-01
-5.74831250e-08,1.82518750e-01
-5.74431250e-08,1.82471875e-01
-5.74031250e-08,1.82553125e-01
-5.73631250e-08,1.82293750e-01
-5.73231250e-08,1.82043750e-01
-5.72831250e-08,1.82132813e-01
-5.72431250e-08,1.82076563e-01
-5.72031250e-08,1.82118750e-01
-5.71631250e-08,1.82082812e-01
-5.71231250e-08,1.82114063e-01
-5.70831250e-08,1.82085938e-01
-5.70431250e-08,1.82112500e-01
-5.70031250e-08,1.82087500e-01
-5.69631250e-08,1.82112500e-01
-5.69231250e-08,1.82085938e-01
-5.68831250e-08,1.82114063e-01
-5.68431250e-08,1.82084375e-01
-5.68031250e-08,1.82118750e-01
-5.67631250e-08,1.82076563e-01
-5.67231250e-08,1.82132813e-01
-5.66831250e-08,1.82043750e-01
-5.66431250e-08,1.82309375e-01
-5.66031250e-08,1.82553125e-01
-5.65631250e-08,1.82470313e-01
-5.65231250e-08,1.82520313e-01
-5.64831250e-08,1.82484375e-01
-5.64431250e-08,1.82512500e-01
-5.64031250e-08,1.82489063e-01
-5.63631250e-08,1.82510937e-01
-5.63231250e-08,1.82490625e-01
-5.62831250e-08,1.82509375e-01
-5.62431250e-08,1.82490625e-01
-5.62031250e-08,1.82509375e-01
-5.61631250e-08,1.82490625e-01
-5.61231250e-08,1.82510937e-01
-5.60831250e-08,1.82489063e-01
-5.60431250e-08,1.82512500e-01
-5.60031250e-08,1.82485938e-01
-5.59631250e-08,1.82517188e-01
-5.59231250e-08,1.82478125e-01
-5.58831250e-08,1.82531250e-01
-5.58431250e-08,1.82443750e-01
-5.58031250e-08,1.82709375e-01
-5.57631250e-08,1.82953125e-01
-5.57231250e-08,1.82870313e-01
-5.56831250e-08,1.82920313e-01
-5.56431250e-08,1.82885938e-01
-5.56031250e-08,1.82912500e-01
-5.55631250e-08,1.82890625e-01
-5.55231250e-08,1.82907813e-01
-5.54831250e-08,1.82892187e-01
-5.54431250e-08,1.82906250e-01
-5.54031250e-08,1.82893750e-01
-5.53631250e-08,1.82904687e-01
-5.53231250e-08,1.82895313e-01
-5.52831250e-08,1.82904687e-01
-5.52431250e-08,1.82896875e-01
-5.52031250e-08,1.82903125e-01
-5.51631250e-08,1.82896875e-01
-5.51231250e-08,1.82903125e-01
-5.50831250e-08,1.82896875e-01
-5.50431250e-08,1.82903125e-01
-5.50031250e-08,1.82896875e-01
-5.49631250e-08,1.82901563e-01
-5.49231250e-08,1.82898438e-01
-5.48831250e-08,1.82901563e-01
-5.48431250e-08,1.82898438e-01
-5.48031250e-08,1.82901563e-01
-5.47631250e-08,1.82898438e-01
-5.47231250e-08,1.82901563e-01
-5.46831250e-08,1.82898438e-01
-5.46431250e-08,1.82900000e-01
-5.46031250e-08,1.82900000e-01
-5.45631250e-08,1.82900000e-01
-5.45231250e-08,1.82900000e-01
-5.44831250e-08,1.82900000e-01
-5.44431250e-08,1.82900000e-01
-5.44031250e-08,1.82900000e-01
-5.43631250e-08,1.82901563e-01
-5.43231250e-08,1.82898438e-01
-5.42831250e-08,1.82901563e-01
-5.42431250e-08,1.82898438e-01
-5.42031250e-08,1.82901563e-01
-5.41631250e-08,1.82896875e-01
-5.41231250e-08,1.82903125e-01
-5.40831250e-08,1.82895313e-01
-5.40431250e-08,1.82904687e-01
-5.40031250e-08,1.82893750e-01
-5.39631250e-08,1.82907813e-01
-5.39231250e-08,1.82890625e-01
-5.38831250e-08,1.82912500e-01
-5.38431250e-08,1.82881250e-01
-5.38031250e-08,1.82928125e-01
-5.37631250e-08,1.82846875e-01
-5.37231250e-08,1.83106250e-01
-5.36831250e-08,1.83356250e-01
-5.36431250e-08,1.83267188e-01
-5.36031250e-08,1.83323438e-01
-5.35631250e-08,1.83282813e-01
-5.35231250e-08,1.83315625e-01
-5.34831250e-08,1.83287500e-01
-5.34431250e-08,1.83310937e-01
-5.34031250e-08,1.83290625e-01
-5.33631250e-08,1.83309375e-01
-5.33231250e-08,1.83292188e-01
-5.32831250e-08,1.83307813e-01
-5.32431250e-08,1.83293750e-01
-5.32031250e-08,1.83306250e-01
-5.31631250e-08,1.83293750e-01
-5.31231250e-08,1.83304688e-01
-5.30831250e-08,1.83295313e-01
-5.30431250e-08,1.83304688e-01
-5.30031250e-08,1.83296875e-01
-5.29631250e-08,1.83303125e-01
-5.29231250e-08,1.83296875e-01
-5.28831250e-08,1.83301563e-01
-5.28431250e-08,1.83298437e-01
-5.28031250e-08,1.83300000e-01
-5.27631250e-08,1.83301563e-01
-5.27231250e-08,1.83295313e-01
-5.26831250e-08,1.83306250e-01
-5.26431250e-08,1.83287500e-01
-5.26031250e-08,1.83321875e-01
-5.25631250e-08,1.83253125e-01
-5.25231250e-08,1.83500000e-01
-5.24831250e-08,1.83762500e-01
-5.24431250e-08,1.83660938e-01
-5.24031250e-08,1.83729688e-01
-5.23631250e-08,1.83675000e-01
-5.23231250e-08,1.83721875e-01
-5.22831250e-08,1.83679687e-01
-5.22431250e-08,1.83718750e-01
-5.22031250e-08,1.83682813e-01
-5.21631250e-08,1.83717188e-01
-5.21231250e-08,1.83682813e-01
-5.20831250e-08,1.83717188e-01
-5.20431250e-08,1.83682813e-01
-5.20031250e-08,1.83717188e-01
-5.19631250e-08,1.83682813e-01
-5.19231250e-08,1.83717188e-01
-5.18831250e-08,1.83682813e-01
-5.18431250e-08,1.83717188e-01
-5.18031250e-08,1.83681250e-01
-5.17631250e-08,1.83720313e-01
-5.17231250e-08,1.83678125e-01
-5.16831250e-08,1.83723438e-01
-5.16431250e-08,1.83673438e-01
-5.16031250e-08,1.83731250e-01
-5.15631250e-08,1.83659375e-01
-5.15231250e-08,1.83765625e-01
-5.14831250e-08,1.83481250e-01
-5.14431250e-08,1.83257813e-01
-5.14031250e-08,1.83318750e-01
-5.13631250e-08,1.83290625e-01
-5.13231250e-08,1.83303125e-01
-5.12831250e-08,1.83300000e-01
-5.12431250e-08,1.83298437e-01
-5.12031250e-08,1.83304688e-01
-5.11631250e-08,1.83293750e-01
-5.11231250e-08,1.83307813e-01
-5.10831250e-08,1.83290625e-01
-5.10431250e-08,1.83310937e-01
-5.10031250e-08,1.83287500e-01
-5.09631250e-08,1.83315625e-01
-5.09231250e-08,1.83281250e-01
-5.08831250e-08,1.83325000e-01
-5.08431250e-08,1.83265625e-01
-5.08031250e-08,1.83359375e-01
-5.07631250e-08,1.83085938e-01
-5.07231250e-08,1.82851563e-01
-5.06831250e-08,1.82923438e-01
-5.06431250e-08,1.82885938e-01
-5.06031250e-08,1.82909375e-01
-5.05631250e-08,1.82895313e-01
-5.05231250e-08,1.82903125e-01
-5.04831250e-08,1.82900000e-01
-5.04431250e-08,1.82898438e-01
-5.04031250e-08,1.82903125e-01
-5.03631250e-08,1.82895313e-01
-5.03231250e-08,1.82906250e-01
-5.02831250e-08,1.82890625e-01
-5.02431250e-08,1.82910938e-01
-5.02031250e-08,1.82884375e-01
-5.01631250e-08,1.82920313e-01
-5.01231250e-08,1.82868750e-01
-5.00831250e-08,1.82956250e-01
-5.00431250e-08,1.82690625e-01
-5.00031250e-08,1.82446875e-01
-4.99631250e-08,1.82528125e-01
-4.99231250e-08,1.82481250e-01
-4.98831250e-08,1.82512500e-01
-4.98431250e-08,1.82490625e-01
-4.98031250e-08,1.82507813e-01
-4.97631250e-08,1.82495313e-01
-4.97231250e-08,1.82503125e-01
-4.96831250e-08,1.82498437e-01
-4.96431250e-08,1.82500000e-01
-4.96031250e-08,1.82500000e-01
-4.95631250e-08,1.82498437e-01
-4.95231250e-08,1.82503125e-01
-4.94831250e-08,1.82495313e-01
-4.94431250e-08,1.82507813e-01
-4.94031250e-08,1.82490625e-01
-4.93631250e-08,1.82514063e-01
-4.93231250e-08,1.82481250e-01
-4.92831250e-08,1.82529688e-01
-4.92431250e-08,1.82445313e-01
-4.92031250e-08,1.82707813e-01
-4.91631250e-08,1.82953125e-01
-4.91231250e-08,1.82871875e-01
-4.90831250e-08,1.82917187e-01
-4.90431250e-08,1.82889063e-01
-4.90031250e-08,1.82906250e-01
-4.89631250e-08,1.82898438e-01
-4.89231250e-08,1.82895313e-01
-4.88831250e-08,1.82915625e-01
-4.88431250e-08,1.82859375e-01
-4.88031250e-08,1.83093750e-01
-4.87631250e-08,1.83368750e-01
-4.87231250e-08,1.83253125e-01
-4.86831250e-08,1.83339063e-01
-4.86431250e-08,1.83262500e-01
-4.86031250e-08,1.83343750e-01
-4.85631250e-08,1.83234375e-01
-4.85231250e-08,1.83515625e-01
-4.84831250e-08,1.83750000e-01
-4.84431250e-08,1.83670313e-01
-4.84031250e-08,1.83725000e-01
-4.83631250e-08,1.83673438e-01
-4.83231250e-08,1.83734375e-01
-4.82831250e-08,1.83642187e-01
-4.82431250e-08,1.83910938e-01
-4.82031250e-08,1.84150000e-01
-4.81631250e-08,1.84075000e-01
-4.81231250e-08,1.84110938e-01
-4.80831250e-08,1.84101563e-01
-4.80431250e-08,1.84070312e-01
-4.80031250e-08,1.84282813e-01
-4.79631250e-08,1.84579688e-01
-4.79231250e-08,1.84442188e-01
-4.78831250e-08,1.84550000e-01
-4.78431250e-08,1.84450000e-01
-4.78031250e-08,1.84556250e-01
-4.77631250e-08,1.84420313e-01
-4.77231250e-08,1.84731250e-01
-4.76831250e-08,1.84931250e-01
-4.76431250e-08,1.84892187e-01
-4.76031250e-08,1.84900000e-01
-4.75631250e-08,1.84906250e-01
-4.75231250e-08,1.84890625e-01
-4.74831250e-08,1.84912500e-01
-4.74431250e-08,1.84884375e-01
-4.74031250e-08,1.84920313e-01
-4.73631250e-08,1.84875000e-01
-4.73231250e-08,1.84935938e-01
-4.72831250e-08,1.84839063e-01
-4.72431250e-08,1.85114063e-01
-4.72031250e-08,1.85346875e-01
-4.71631250e-08,1.85276563e-01
-4.71231250e-08,1.85312500e-01
-4.70831250e-08,1.85292188e-01
-4.70431250e-08,1.85303125e-01
-4.70031250e-08,1.85300000e-01
-4.69631250e-08,1.85296875e-01
-4.69231250e-08,1.85306250e-01
-4.68831250e-08,1.85290625e-01
-4.68431250e-08,1.85315625e-01
-4.68031250e-08,1.85275000e-01
-4.67631250e-08,1.85350000e-01
-4.67231250e-08,1.85096875e-01
-4.66831250e-08,1.84842188e-01
-4.66431250e-08,1.84934375e-01
-4.66031250e-08,1.84875000e-01
-4.65631250e-08,1.84920313e-01
-4.65231250e-08,1.84882812e-01
-4.64831250e-08,1.84915625e-01
-4.64431250e-08,1.84884375e-01
-4.64031250e-08,1.84915625e-01
-4.63631250e-08,1.84884375e-01
-4.63231250e-08,1.84917187e-01
-4.62831250e-08,1.84881250e-01
-4.62431250e-08,1.84923438e-01
-4.62031250e-08,1.84867188e-01
-4.61631250e-08,1.84956250e-01
-4.61231250e-08,1.84690625e-01
-4.60831250e-08,1.84446875e-01
-4.60431250e-08,1.84531250e-01
-4.60031250e-08,1.84478125e-01
-4.59631250e-08,1.84517188e-01
-4.59231250e-08,1.84484375e-01
-4.58831250e-08,1.84514063e-01
-4.58431250e-08,1.84487500e-01
-4.58031250e-08,1.84512500e-01
-4.57631250e-08,1.84485938e-01
-4.57231250e-08,1.84514063e-01
-4.56831250e-08,1.84484375e-01
-4.56431250e-08,1.84517188e-01
-4.56031250e-08,1.84479688e-01
-4.55631250e-08,1.84525000e-01
-4.55231250e-08,1.84465625e-01
-4.54831250e-08,1.84559375e-01
-4.54431250e-08,1.84285937e-01
-4.54031250e-08,1.84051563e-01
-4.53631250e-08,1.84123438e-01
-4.53231250e-08,1.84085938e-01
-4.52831250e-08,1.84107812e-01
-4.52431250e-08,1.84096875e-01
-4.52031250e-08,1.84100000e-01
-4.51631250e-08,1.84104688e-01
-4.51231250e-08,1.84089063e-01
-4.50831250e-08,1.84121875e-01
-4.50431250e-08,1.84053125e-01
-4.50031250e-08,1.84300000e-01
-4.49631250e-08,1.84560937e-01
-4.49231250e-08,1.84462500e-01
-4.48831250e-08,1.84528125e-01
-4.48431250e-08,1.84478125e-01
-4.48031250e-08,1.84518750e-01
-4.47631250e-08,1.84482813e-01
-4.47231250e-08,1.84515625e-01
-4.46831250e-08,1.84485938e-01
-4.46431250e-08,1.84514063e-01
-4.46031250e-08,1.84487500e-01
-4.45631250e-08,1.84512500e-01
-4.45231250e-08,1.84487500e-01
-4.44831250e-08,1.84510937e-01
-4.44431250e-08,1.84489062e-01
-4.44031250e-08,1.84510937e-01
-4.43631250e-08,1.84489062e-01
-4.43231250e-08,1.84510937e-01
-4.42831250e-08,1.84489062e-01
-4.42431250e-08,1.84510937e-01
-4.42031250e-08,1.84489062e-01
-4.41631250e-08,1.84510937e-01
-4.41231250e-08,1.84489062e-01
-4.40831250e-08,1.84510937e-01
-4.40431250e-08,1.84489062e-01
-4.40031250e-08,1.84512500e-01
-4.39631250e-08,1.84487500e-01
-4.39231250e-08,1.84512500e-01
-4.38831250e-08,1.84485938e-01
-4.38431250e-08,1.84515625e-01
-4.38031250e-08,1.84482813e-01
-4.37631250e-08,1.84518750e-01
-4.37231250e-08,1.84478125e-01
-4.36831250e-08,1.84526563e-01
-4.36431250e-08,1.84464062e-01
-4.36031250e-08,1.84560937e-01
-4.35631250e-08,1.84285937e-01
-4.35231250e-08,1.84051563e-01
-4.34831250e-08,1.84123438e-01
-4.34431250e-08,1.84085938e-01
-4.34031250e-08,1.84109375e-01
-4.33631250e-08,1.84093750e-01
-4.33231250e-08,1.84104688e-01
-4.32831250e-08,1.84096875e-01
-4.32431250e-08,1.84101563e-01
-4.32031250e-08,1.84100000e-01
-4.31631250e-08,1.84100000e-01
-4.31231250e-08,1.84101563e-01
-4.30831250e-08,1.84098438e-01
-4.30431250e-08,1.84103125e-01
-4.30031250e-08,1.84096875e-01
-4.29631250e-08,1.84103125e-01
-4.29231250e-08,1.84095312e-01
-4.28831250e-08,1.84104688e-01
-4.28431250e-08,1.84093750e-01
-4.28031250e-08,1.84106250e-01
-4.27631250e-08,1.84092188e-01
-4.27231250e-08,1.84109375e-01
-4.26831250e-08,1.84090625e-01
-4.26431250e-08,1.84112500e-01
-4.26031250e-08,1.84084375e-01
-4.25631250e-08,1.84120312e-01
-4.25231250e-08,1.84070312e-01
-4.24831250e-08,1.84154687e-01
-4.24431250e-08,1.83892187e-01
-4.24031250e-08,1.83643750e-01
-4.23631250e-08,1.83732813e-01
-4.23231250e-08,1.83675000e-01
-4.22831250e-08,1.83720313e-01
-4.22431250e-08,1.83679687e-01
-4.22031250e-08,1.83723438e-01
-4.21631250e-08,1.83670313e-01
-4.21231250e-08,1.83753125e-01
-4.20831250e-08,1.83495313e-01
-4.20431250e-08,1.83240625e-01
-4.20031250e-08,1.83337500e-01
-4.19631250e-08,1.83270313e-01
-4.19231250e-08,1.83328125e-01
-4.18831250e-08,1.83271875e-01
-4.18431250e-08,1.83332812e-01
-4.18031250e-08,1.83257813e-01
-4.17631250e-08,1.83365625e-01
-4.17231250e-08,1.83081250e-01
-4.16831250e-08,1.82857812e-01
-4.16431250e-08,1.82918750e-01
-4.16031250e-08,1.82892187e-01
-4.15631250e-08,1.82901563e-01
-4.15231250e-08,1.82903125e-01
-4.14831250e-08,1.82892187e-01
-4.14431250e-08,1.82914063e-01
-4.14031250e-08,1.82875000e-01
-4.13631250e-08,1.82951562e-01
-4.13231250e-08,1.82695313e-01
-4.12831250e-08,1.82442188e-01
-4.12431250e-08,1.82532813e-01
-4.12031250e-08,1.82476562e-01
-4.11631250e-08,1.82517188e-01
-4.11231250e-08,1.82485938e-01
-4.10831250e-08,1.82512500e-01
-4.10431250e-08,1.82489063e-01
-4.10031250e-08,1.82509375e-01
-4.09631250e-08,1.82492188e-01
-4.09231250e-08,1.82506250e-01
-4.08831250e-08,1.82493750e-01
-4.08431250e-08,1.82504688e-01
-4.08031250e-08,1.82495313e-01
-4.07631250e-08,1.82504688e-01
-4.07231250e-08,1.82496875e-01
-4.06831250e-08,1.82503125e-01
-4.06431250e-08,1.82496875e-01
-4.06031250e-08,1.82501563e-01
-4.05631250e-08,1.82498437e-01
-4.05231250e-08,1.82501563e-01
-4.04831250e-08,1.82498437e-01
-4.04431250e-08,1.82500000e-01
-4.04031250e-08,1.82500000e-01
-4.03631250e-08,1.82500000e-01
-4.03231250e-08,1.82501563e-01
-4.02831250e-08,1.82498437e-01
-4.02431250e-08,1.82503125e-01
-4.02031250e-08,1.82496875e-01
-4.01631250e-08,1.82504688e-01
-4.01231250e-08,1.82493750e-01
-4.00831250e-08,1.82507813e-01
-4.00431250e-08,1.82490625e-01
-4.00031250e-08,1.82512500e-01
-3.99631250e-08,1.82482813e-01
-3.99231250e-08,1.82528125e-01
-3.98831250e-08,1.82446875e-01
-3.98431250e-08,1.82706250e-01
-3.98031250e-08,1.82956250e-01
-3.97631250e-08,1.82867188e-01
-3.97231250e-08,1.82923438e-01
-3.96831250e-08,1.82882813e-01
-3.96431250e-08,1.82914063e-01
-3.96031250e-08,1.82887500e-01
-3.95631250e-08,1.82910938e-01
-3.95231250e-08,1.82890625e-01
-3.94831250e-08,1.82909375e-01
-3.94431250e-08,1.82892187e-01
-3.94031250e-08,1.82907813e-01
-3.93631250e-08,1.82893750e-01
-3.93231250e-08,1.82906250e-01
-3.92831250e-08,1.82893750e-01
-3.92431250e-08,1.82904687e-01
-3.92031250e-08,1.82895313e-01
-3.91631250e-08,1.82904687e-01
-3.91231250e-08,1.82895313e-01
-3.90831250e-08,1.82904687e-01
-3.90431250e-08,1.82895313e-01
-3.90031250e-08,1.82903125e-01
-3.89631250e-08,1.82896875e-01
-3.89231250e-08,1.82903125e-01
-3.88831250e-08,1.82896875e-01
-3.88431250e-08,1.82903125e-01
-3.88031250e-08,1.82898438e-01
-3.87631250e-08,1.82901563e-01
-3.87231250e-08,1.82898438e-01
-3.86831250e-08,1.82901563e-01
-3.86431250e-08,1.82898438e-01
-3.86031250e-08,1.82901563e-01
-3.85631250e-08,1.82900000e-01
-3.85231250e-08,1.82900000e-01
