trails/00d3b5ca214f61c40c3d804afea55865/aes_ch1_20250506163636308.csv

Model,MSO66B
Label,
Waveform Type,ANALOG
Horizontal Units,s
Sample Interval,4.00000000e-11
Record Length,10000
Zero Index,1599.08203125
Vertical Units,A
ANALOG_Thumbnail,
yOffset,1.84500000e-01
yPosition,8.40000000e-01

Labels,
TIME,CH1
-6.39632812e-08,1.88925000e-01
-6.39232812e-08,1.88884375e-01
-6.38832812e-08,1.88909375e-01
-6.38432812e-08,1.88895312e-01
-6.38032812e-08,1.88900000e-01
-6.37632813e-08,1.88903125e-01
-6.37232812e-08,1.88892188e-01
-6.36832812e-08,1.88912500e-01
-6.36432812e-08,1.88876563e-01
-6.36032812e-08,1.88948438e-01
-6.35632812e-08,1.88698438e-01
-6.35232812e-08,1.88440625e-01
-6.34832813e-08,1.88535938e-01
-6.34432812e-08,1.88473438e-01
-6.34032812e-08,1.88523438e-01
-6.33632812e-08,1.88478125e-01
-6.33232812e-08,1.88521875e-01
-6.32832812e-08,1.88475000e-01
-6.32432812e-08,1.88532813e-01
-6.32032813e-08,1.88443750e-01
-6.31632812e-08,1.88707813e-01
-6.31232812e-08,1.88956250e-01
-6.30832812e-08,1.88865625e-01
-6.30432812e-08,1.88926563e-01
-6.30032812e-08,1.88876563e-01
-6.29632812e-08,1.88921875e-01
-6.29232813e-08,1.88876563e-01
-6.28832812e-08,1.88925000e-01
-6.28432812e-08,1.88870312e-01
-6.28032812e-08,1.88939063e-01
-6.27632812e-08,1.88834375e-01
-6.27232812e-08,1.89118750e-01
-6.26832812e-08,1.89343750e-01
-6.26432813e-08,1.89281250e-01
-6.26032812e-08,1.89306250e-01
-6.25632812e-08,1.89301563e-01
-6.25232812e-08,1.89292188e-01
-6.24832812e-08,1.89320313e-01
-6.24432812e-08,1.89254688e-01
-6.24032812e-08,1.89498438e-01
-6.23632813e-08,1.89764062e-01
-6.23232812e-08,1.89659375e-01
-6.22832812e-08,1.89732813e-01
-6.22432812e-08,1.89667188e-01
-6.22032812e-08,1.89737500e-01
-6.21632812e-08,1.89640625e-01
-6.21232812e-08,1.89909375e-01
-6.20832813e-08,1.90154688e-01
-6.20432812e-08,1.90065625e-01
-6.20032812e-08,1.90126563e-01
-6.19632812e-08,1.90075000e-01
-6.19232812e-08,1.90126563e-01
-6.18832813e-08,1.90068750e-01
-6.18432812e-08,1.90139063e-01
-6.18032813e-08,1.90035938e-01
-6.17632812e-08,1.90317188e-01
-6.17232812e-08,1.90543750e-01
-6.16832812e-08,1.90481250e-01
-6.16432812e-08,1.90507813e-01
-6.16032813e-08,1.90498438e-01
-6.15632812e-08,1.90496875e-01
-6.15232813e-08,1.90509375e-01
-6.14832812e-08,1.90484375e-01
-6.14432812e-08,1.90526562e-01
-6.14032812e-08,1.90446875e-01
-6.13632812e-08,1.90706250e-01
-6.13232813e-08,1.90954687e-01
-6.12832812e-08,1.90870313e-01
-6.12432813e-08,1.90918750e-01
-6.12032812e-08,1.90887500e-01
-6.11632812e-08,1.90907812e-01
-6.11232812e-08,1.90896875e-01
-6.10832812e-08,1.90900000e-01
-6.10432813e-08,1.90904688e-01
-6.10032812e-08,1.90889063e-01
-6.09632813e-08,1.90921875e-01
-6.09232812e-08,1.90851563e-01
-6.08832812e-08,1.91101563e-01
-6.08432812e-08,1.91359375e-01
-6.08032812e-08,1.91265625e-01
-6.07632813e-08,1.91323437e-01
-6.07232812e-08,1.91281250e-01
-6.06832813e-08,1.91314062e-01
-6.06432812e-08,1.91290625e-01
-6.06032812e-08,1.91306250e-01
-6.05632812e-08,1.91298438e-01
-6.05232812e-08,1.91295313e-01
-6.04832813e-08,1.91314062e-01
-6.04432812e-08,1.91260938e-01
-6.04032813e-08,1.91493750e-01
-6.03632812e-08,1.91768750e-01
-6.03232812e-08,1.91654688e-01
-6.02832812e-08,1.91735938e-01
-6.02432812e-08,1.91668750e-01
-6.02032813e-08,1.91728125e-01
-6.01632812e-08,1.91673438e-01
-6.01232813e-08,1.91726563e-01
-6.00832812e-08,1.91673438e-01
-6.00432812e-08,1.91729687e-01
-6.00032812e-08,1.91667188e-01
-5.99632812e-08,1.91742187e-01
-5.99232813e-08,1.91634375e-01
-5.98832812e-08,1.91918750e-01
-5.98432812e-08,1.92143750e-01
-5.98032812e-08,1.92078125e-01
-5.97632812e-08,1.92112500e-01
-5.97232812e-08,1.92092188e-01
-5.96832812e-08,1.92104688e-01
-5.96432813e-08,1.92096875e-01
-5.96032812e-08,1.92103125e-01
-5.95632812e-08,1.92098437e-01
-5.95232812e-08,1.92101563e-01
-5.94832812e-08,1.92098437e-01
-5.94432812e-08,1.92101563e-01
-5.94032812e-08,1.92098437e-01
-5.93632812e-08,1.92101563e-01
-5.93232812e-08,1.92098437e-01
-5.92832812e-08,1.92103125e-01
-5.92432812e-08,1.92096875e-01
-5.92032812e-08,1.92104688e-01
-5.91632812e-08,1.92095313e-01
-5.91232812e-08,1.92107813e-01
-5.90832812e-08,1.92090625e-01
-5.90432812e-08,1.92114063e-01
-5.90032812e-08,1.92076562e-01
-5.89632812e-08,1.92148438e-01
-5.89232812e-08,1.91898438e-01
-5.88832812e-08,1.91637500e-01
-5.88432812e-08,1.91739063e-01
-5.88032812e-08,1.91668750e-01
-5.87632812e-08,1.91728125e-01
-5.87232812e-08,1.91673438e-01
-5.86832812e-08,1.91729687e-01
-5.86432812e-08,1.91662500e-01
-5.86032812e-08,1.91760938e-01
-5.85632812e-08,1.91489063e-01
-5.85232812e-08,1.91246875e-01
-5.84832812e-08,1.91331250e-01
-5.84432812e-08,1.91275000e-01
-5.84032812e-08,1.91325000e-01
-5.83632812e-08,1.91268750e-01
-5.83232812e-08,1.91354688e-01
-5.82832812e-08,1.91095313e-01
-5.82432812e-08,1.90840625e-01
-5.82032812e-08,1.90937500e-01
-5.81632812e-08,1.90868750e-01
-5.81232812e-08,1.90931250e-01
-5.80832812e-08,1.90862500e-01
-5.80432812e-08,1.90960938e-01
-5.80032812e-08,1.90689063e-01
-5.79632812e-08,1.90446875e-01
-5.79232812e-08,1.90531250e-01
-5.78832812e-08,1.90476563e-01
-5.78432812e-08,1.90520313e-01
-5.78032812e-08,1.90478125e-01
-5.77632812e-08,1.90525000e-01
-5.77232812e-08,1.90467187e-01
-5.76832812e-08,1.90557813e-01
-5.76432812e-08,1.90290625e-01
-5.76032812e-08,1.90046875e-01
-5.75632812e-08,1.90129688e-01
-5.75232812e-08,1.90079688e-01
-5.74832812e-08,1.90115625e-01
-5.74432812e-08,1.90087500e-01
-5.74032812e-08,1.90110938e-01
-5.73632812e-08,1.90090625e-01
-5.73232812e-08,1.90109375e-01
-5.72832812e-08,1.90092188e-01
-5.72432812e-08,1.90107813e-01
-5.72032812e-08,1.90093750e-01
-5.71632812e-08,1.90106250e-01
-5.71232812e-08,1.90093750e-01
-5.70832812e-08,1.90106250e-01
-5.70432812e-08,1.90093750e-01
-5.70032812e-08,1.90104688e-01
-5.69632812e-08,1.90095313e-01
-5.69232812e-08,1.90104688e-01
-5.68832812e-08,1.90095313e-01
-5.68432812e-08,1.90104688e-01
-5.68032812e-08,1.90095313e-01
-5.67632812e-08,1.90104688e-01
-5.67232812e-08,1.90095313e-01
-5.66832812e-08,1.90104688e-01
-5.66432812e-08,1.90096875e-01
-5.66032812e-08,1.90103125e-01
-5.65632812e-08,1.90096875e-01
-5.65232812e-08,1.90103125e-01
-5.64832812e-08,1.90096875e-01
-5.64432812e-08,1.90103125e-01
-5.64032812e-08,1.90096875e-01
-5.63632812e-08,1.90103125e-01
-5.63232812e-08,1.90096875e-01
-5.62832812e-08,1.90101563e-01
-5.62432812e-08,1.90098437e-01
-5.62032812e-08,1.90101563e-01
-5.61632812e-08,1.90098437e-01
-5.61232812e-08,1.90101563e-01
-5.60832812e-08,1.90100000e-01
-5.60432812e-08,1.90100000e-01
-5.60032812e-08,1.90101563e-01
-5.59632812e-08,1.90096875e-01
-5.59232812e-08,1.90104688e-01
-5.58832812e-08,1.90092188e-01
-5.58432812e-08,1.90112500e-01
-5.58032812e-08,1.90078125e-01
-5.57632812e-08,1.90146875e-01
-5.57232812e-08,1.89901563e-01
-5.56832812e-08,1.89635938e-01
-5.56432812e-08,1.89740625e-01
-5.56032812e-08,1.89668750e-01
-5.55632812e-08,1.89726563e-01
-5.55232812e-08,1.89675000e-01
-5.54832812e-08,1.89723438e-01
-5.54432812e-08,1.89676563e-01
-5.54032812e-08,1.89723438e-01
-5.53632812e-08,1.89675000e-01
-5.53232812e-08,1.89726563e-01
-5.52832812e-08,1.89670312e-01
-5.52432812e-08,1.89734375e-01
-5.52032812e-08,1.89654688e-01
-5.51632812e-08,1.89770313e-01
-5.51232812e-08,1.89475000e-01
-5.50832812e-08,1.89264062e-01
-5.50432812e-08,1.89310937e-01
-5.50032812e-08,1.89300000e-01
-5.49632812e-08,1.89290625e-01
-5.49232812e-08,1.89317188e-01
-5.48832812e-08,1.89270313e-01
-5.48432812e-08,1.89357813e-01
-5.48032812e-08,1.89085937e-01
-5.47632812e-08,1.88854688e-01
-5.47232812e-08,1.88918750e-01
-5.46832812e-08,1.88896875e-01
-5.46432812e-08,1.88887500e-01
-5.46032812e-08,1.88940625e-01
-5.45632812e-08,1.88701563e-01
-5.45232812e-08,1.88439063e-01
-5.44832812e-08,1.88534375e-01
-5.44432812e-08,1.88481250e-01
-5.44032812e-08,1.88504688e-01
-5.43632812e-08,1.88523438e-01
-5.43232812e-08,1.88323437e-01
-5.42832812e-08,1.88015625e-01
-5.42432812e-08,1.88162500e-01
-5.42032812e-08,1.88045313e-01
-5.41632812e-08,1.88154688e-01
-5.41232812e-08,1.88039063e-01
-5.40832812e-08,1.88182813e-01
-5.40432812e-08,1.87865625e-01
-5.40032812e-08,1.87671875e-01
-5.39632812e-08,1.87704687e-01
-5.39232812e-08,1.87704687e-01
-5.38832812e-08,1.87689063e-01
-5.38432812e-08,1.87715625e-01
-5.38032812e-08,1.87679687e-01
-5.37632812e-08,1.87726562e-01
-5.37232812e-08,1.87664063e-01
-5.36832812e-08,1.87762500e-01
-5.36432812e-08,1.87484375e-01
-5.36032812e-08,1.87253125e-01
-5.35632812e-08,1.87321875e-01
-5.35232812e-08,1.87287500e-01
-5.34832812e-08,1.87306250e-01
-5.34432812e-08,1.87296875e-01
-5.34032812e-08,1.87300000e-01
-5.33632812e-08,1.87301563e-01
-5.33232812e-08,1.87296875e-01
-5.32832812e-08,1.87304688e-01
-5.32432812e-08,1.87293750e-01
-5.32032812e-08,1.87307813e-01
-5.31632812e-08,1.87290625e-01
-5.31232812e-08,1.87310937e-01
-5.30832812e-08,1.87285937e-01
-5.30432812e-08,1.87318750e-01
-5.30032812e-08,1.87276563e-01
-5.29632812e-08,1.87334375e-01
-5.29232812e-08,1.87240625e-01
-5.28832812e-08,1.87512500e-01
-5.28432812e-08,1.87748438e-01
-5.28032812e-08,1.87676563e-01
-5.27632812e-08,1.87714063e-01
-5.27232812e-08,1.87692187e-01
-5.26832812e-08,1.87703125e-01
-5.26432812e-08,1.87701563e-01
-5.26032812e-08,1.87695313e-01
-5.25632813e-08,1.87709375e-01
-5.25232812e-08,1.87684375e-01
-5.24832812e-08,1.87726562e-01
-5.24432812e-08,1.87648438e-01
-5.24032812e-08,1.87906250e-01
-5.23632812e-08,1.88154688e-01
-5.23232812e-08,1.88070313e-01
-5.22832812e-08,1.88118750e-01
-5.22432812e-08,1.88087500e-01
-5.22032812e-08,1.88107812e-01
-5.21632812e-08,1.88096875e-01
-5.21232812e-08,1.88096875e-01
-5.20832812e-08,1.88114063e-01
-5.20432812e-08,1.88059375e-01
-5.20032812e-08,1.88293750e-01
-5.19632812e-08,1.88568750e-01
-5.19232812e-08,1.88454687e-01
-5.18832812e-08,1.88535938e-01
-5.18432812e-08,1.88467188e-01
-5.18032812e-08,1.88532813e-01
-5.17632812e-08,1.88465625e-01
-5.17232812e-08,1.88542188e-01
-5.16832812e-08,1.88434375e-01
-5.16432812e-08,1.88717187e-01
-5.16032812e-08,1.88946875e-01
-5.15632812e-08,1.88875000e-01
-5.15232812e-08,1.88917188e-01
-5.14832812e-08,1.88887500e-01
-5.14432812e-08,1.88912500e-01
-5.14032812e-08,1.88887500e-01
-5.13632812e-08,1.88914063e-01
-5.13232812e-08,1.88881250e-01
-5.12832812e-08,1.88928125e-01
-5.12432812e-08,1.88846875e-01
-5.12032812e-08,1.89104688e-01
-5.11632812e-08,1.89357813e-01
-5.11232812e-08,1.89267188e-01
-5.10832812e-08,1.89325000e-01
-5.10432812e-08,1.89281250e-01
-5.10032812e-08,1.89317188e-01
-5.09632812e-08,1.89285938e-01
-5.09232812e-08,1.89312500e-01
-5.08832812e-08,1.89287500e-01
-5.08432812e-08,1.89310937e-01
-5.08032812e-08,1.89289062e-01
-5.07632812e-08,1.89310937e-01
-5.07232812e-08,1.89290625e-01
-5.06832812e-08,1.89309375e-01
-5.06432813e-08,1.89290625e-01
-5.06032812e-08,1.89309375e-01
-5.05632812e-08,1.89290625e-01
-5.05232812e-08,1.89309375e-01
-5.04832812e-08,1.89290625e-01
-5.04432812e-08,1.89309375e-01
-5.04032812e-08,1.89290625e-01
-5.03632813e-08,1.89309375e-01
-5.03232812e-08,1.89290625e-01
-5.02832812e-08,1.89309375e-01
-5.02432812e-08,1.89290625e-01
-5.02032812e-08,1.89309375e-01
-5.01632812e-08,1.89289062e-01
-5.01232812e-08,1.89310937e-01
-5.00832812e-08,1.89289062e-01
-5.00432812e-08,1.89312500e-01
-5.00032812e-08,1.89285938e-01
-4.99632812e-08,1.89315625e-01
-4.99232812e-08,1.89281250e-01
-4.98832812e-08,1.89323437e-01
-4.98432812e-08,1.89267188e-01
-4.98032812e-08,1.89357813e-01
-4.97632812e-08,1.89089063e-01
-4.97232812e-08,1.88848438e-01
-4.96832812e-08,1.88928125e-01
-4.96432812e-08,1.88881250e-01
-4.96032812e-08,1.88914063e-01
-4.95632812e-08,1.88889063e-01
-4.95232812e-08,1.88909375e-01
-4.94832812e-08,1.88892188e-01
-4.94432812e-08,1.88906250e-01
-4.94032812e-08,1.88893750e-01
-4.93632812e-08,1.88906250e-01
-4.93232812e-08,1.88895312e-01
-4.92832812e-08,1.88904688e-01
-4.92432812e-08,1.88895312e-01
-4.92032812e-08,1.88904688e-01
-4.91632812e-08,1.88895312e-01
-4.91232812e-08,1.88904688e-01
-4.90832812e-08,1.88895312e-01
-4.90432812e-08,1.88904688e-01
-4.90032812e-08,1.88895312e-01
-4.89632812e-08,1.88906250e-01
-4.89232812e-08,1.88893750e-01
-4.88832812e-08,1.88907812e-01
-4.88432812e-08,1.88892188e-01
-4.88032812e-08,1.88909375e-01
-4.87632812e-08,1.88889063e-01
-4.87232813e-08,1.88914063e-01
-4.86832812e-08,1.88879688e-01
-4.86432812e-08,1.88929687e-01
-4.86032812e-08,1.88845313e-01
-4.85632812e-08,1.89107812e-01
-4.85232812e-08,1.89354688e-01
-4.84832812e-08,1.89268750e-01
-4.84432813e-08,1.89321875e-01
-4.84032812e-08,1.89282813e-01
-4.83632812e-08,1.89314063e-01
-4.83232812e-08,1.89287500e-01
-4.82832812e-08,1.89310937e-01
-4.82432812e-08,1.89290625e-01
-4.82032812e-08,1.89309375e-01
-4.81632813e-08,1.89292188e-01
-4.81232812e-08,1.89307813e-01
-4.80832812e-08,1.89293750e-01
-4.80432812e-08,1.89306250e-01
-4.80032812e-08,1.89293750e-01
-4.79632812e-08,1.89306250e-01
-4.79232812e-08,1.89293750e-01
-4.78832812e-08,1.89306250e-01
-4.78432812e-08,1.89295313e-01
-4.78032812e-08,1.89304688e-01
-4.77632812e-08,1.89295313e-01
-4.77232812e-08,1.89304688e-01
-4.76832812e-08,1.89295313e-01
-4.76432812e-08,1.89304688e-01
-4.76032812e-08,1.89295313e-01
-4.75632812e-08,1.89304688e-01
-4.75232812e-08,1.89295313e-01
-4.74832812e-08,1.89304688e-01
-4.74432812e-08,1.89295313e-01
-4.74032812e-08,1.89304688e-01
-4.73632812e-08,1.89295313e-01
-4.73232812e-08,1.89304688e-01
-4.72832812e-08,1.89295313e-01
-4.72432812e-08,1.89304688e-01
-4.72032812e-08,1.89295313e-01
-4.71632812e-08,1.89303125e-01
-4.71232812e-08,1.89296875e-01
-4.70832812e-08,1.89303125e-01
-4.70432812e-08,1.89296875e-01
-4.70032812e-08,1.89303125e-01
-4.69632812e-08,1.89296875e-01
-4.69232812e-08,1.89303125e-01
-4.68832812e-08,1.89296875e-01
-4.68432812e-08,1.89303125e-01
-4.68032813e-08,1.89296875e-01
-4.67632812e-08,1.89303125e-01
-4.67232812e-08,1.89296875e-01
-4.66832812e-08,1.89303125e-01
-4.66432812e-08,1.89296875e-01
-4.66032812e-08,1.89303125e-01
-4.65632812e-08,1.89296875e-01
-4.65232813e-08,1.89303125e-01
-4.64832812e-08,1.89296875e-01
-4.64432812e-08,1.89303125e-01
-4.64032812e-08,1.89296875e-01
-4.63632812e-08,1.89303125e-01
-4.63232812e-08,1.89296875e-01
-4.62832812e-08,1.89303125e-01
-4.62432813e-08,1.89296875e-01
-4.62032812e-08,1.89303125e-01
-4.61632812e-08,1.89296875e-01
-4.61232812e-08,1.89303125e-01
-4.60832812e-08,1.89296875e-01
-4.60432812e-08,1.89303125e-01
-4.60032812e-08,1.89296875e-01
-4.59632813e-08,1.89303125e-01
-4.59232812e-08,1.89296875e-01
-4.58832812e-08,1.89303125e-01
-4.58432812e-08,1.89296875e-01
-4.58032812e-08,1.89304688e-01
-4.57632812e-08,1.89295313e-01
-4.57232812e-08,1.89304688e-01
-4.56832812e-08,1.89295313e-01
-4.56432812e-08,1.89304688e-01
-4.56032812e-08,1.89295313e-01
-4.55632812e-08,1.89304688e-01
-4.55232812e-08,1.89295313e-01
-4.54832812e-08,1.89304688e-01
-4.54432812e-08,1.89295313e-01
-4.54032812e-08,1.89304688e-01
-4.53632812e-08,1.89295313e-01
-4.53232812e-08,1.89304688e-01
-4.52832812e-08,1.89295313e-01
-4.52432812e-08,1.89304688e-01
-4.52032812e-08,1.89295313e-01
-4.51632812e-08,1.89306250e-01
-4.51232812e-08,1.89293750e-01
-4.50832812e-08,1.89306250e-01
-4.50432812e-08,1.89293750e-01
-4.50032812e-08,1.89307813e-01
-4.49632812e-08,1.89292188e-01
-4.49232812e-08,1.89307813e-01
-4.48832813e-08,1.89290625e-01
-4.48432812e-08,1.89310937e-01
-4.48032812e-08,1.89287500e-01
-4.47632812e-08,1.89315625e-01
-4.47232812e-08,1.89279688e-01
-4.46832812e-08,1.89329688e-01
-4.46432812e-08,1.89245313e-01
-4.46032813e-08,1.89506250e-01
-4.45632812e-08,1.89756250e-01
-4.45232812e-08,1.89667188e-01
-4.44832812e-08,1.89725000e-01
-4.44432812e-08,1.89679687e-01
-4.44032812e-08,1.89720313e-01
-4.43632812e-08,1.89679687e-01
-4.43232813e-08,1.89725000e-01
-4.42832812e-08,1.89667188e-01
-4.42432812e-08,1.89756250e-01
-4.42032812e-08,1.89490625e-01
-4.41632812e-08,1.89245313e-01
-4.41232812e-08,1.89331250e-01
-4.40832812e-08,1.89278125e-01
-4.40432813e-08,1.89318750e-01
-4.40032812e-08,1.89284375e-01
-4.39632812e-08,1.89314063e-01
-4.39232812e-08,1.89287500e-01
-4.38832812e-08,1.89312500e-01
-4.38432812e-08,1.89287500e-01
-4.38032812e-08,1.89312500e-01
-4.37632812e-08,1.89287500e-01
-4.37232812e-08,1.89312500e-01
-4.36832812e-08,1.89285938e-01
-4.36432812e-08,1.89314063e-01
-4.36032812e-08,1.89284375e-01
-4.35632812e-08,1.89315625e-01
-4.35232812e-08,1.89282813e-01
-4.34832812e-08,1.89320313e-01
-4.34432812e-08,1.89276562e-01
-4.34032812e-08,1.89328125e-01
-4.33632812e-08,1.89260938e-01
-4.33232812e-08,1.89364063e-01
-4.32832812e-08,1.89081250e-01
-4.32432812e-08,1.88856250e-01
-4.32032812e-08,1.88918750e-01
-4.31632812e-08,1.88892188e-01
-4.31232812e-08,1.88901563e-01
-4.30832812e-08,1.88904688e-01
-4.30432812e-08,1.88890625e-01
-4.30032812e-08,1.88915625e-01
-4.29632813e-08,1.88873438e-01
-4.29232812e-08,1.88953125e-01
-4.28832812e-08,1.88692187e-01
-4.28432812e-08,1.88446875e-01
-4.28032812e-08,1.88528125e-01
-4.27632812e-08,1.88482813e-01
-4.27232812e-08,1.88510938e-01
-4.26832813e-08,1.88495313e-01
-4.26432812e-08,1.88500000e-01
-4.26032812e-08,1.88506250e-01
-4.25632812e-08,1.88482813e-01
-4.25232812e-08,1.88543750e-01
-4.24832812e-08,1.88303125e-01
-4.24432812e-08,1.88035937e-01
-4.24032813e-08,1.88139063e-01
-4.23632812e-08,1.88070313e-01
-4.23232812e-08,1.88125000e-01
-4.22832812e-08,1.88078125e-01
-4.22432812e-08,1.88118750e-01
-4.22032812e-08,1.88082813e-01
-4.21632812e-08,1.88115625e-01
-4.21232813e-08,1.88084375e-01
-4.20832812e-08,1.88114063e-01
-4.20432812e-08,1.88085937e-01
-4.20032812e-08,1.88112500e-01
-4.19632812e-08,1.88087500e-01
-4.19232812e-08,1.88112500e-01
-4.18832812e-08,1.88087500e-01
-4.18432813e-08,1.88110938e-01
-4.18032812e-08,1.88089063e-01
-4.17632812e-08,1.88110938e-01
-4.17232812e-08,1.88089063e-01
-4.16832812e-08,1.88110938e-01
-4.16432812e-08,1.88089063e-01
-4.16032812e-08,1.88110938e-01
-4.15632812e-08,1.88089063e-01
-4.15232812e-08,1.88110938e-01
-4.14832812e-08,1.88087500e-01
-4.14432812e-08,1.88112500e-01
-4.14032812e-08,1.88087500e-01
-4.13632812e-08,1.88112500e-01
-4.13232812e-08,1.88085937e-01
-4.12832812e-08,1.88115625e-01
-4.12432812e-08,1.88084375e-01
-4.12032812e-08,1.88117188e-01
-4.11632812e-08,1.88079688e-01
-4.11232812e-08,1.88123438e-01
-4.10832812e-08,1.88071875e-01
-4.10432813e-08,1.88139063e-01
-4.10032812e-08,1.88035937e-01
-4.09632812e-08,1.88317188e-01
-4.09232812e-08,1.88543750e-01
-4.08832812e-08,1.88479687e-01
-4.08432812e-08,1.88509375e-01
-4.08032812e-08,1.88496875e-01
-4.07632813e-08,1.88496875e-01
-4.07232812e-08,1.88507813e-01
-4.06832812e-08,1.88485938e-01
-4.06432812e-08,1.88525000e-01
-4.06032812e-08,1.88448438e-01
-4.05632812e-08,1.88704687e-01
-4.05232812e-08,1.88956250e-01
-4.04832813e-08,1.88870312e-01
-4.04432812e-08,1.88918750e-01
-4.04032812e-08,1.88889063e-01
-4.03632812e-08,1.88904688e-01
-4.03232812e-08,1.88906250e-01
-4.02832812e-08,1.88867188e-01
-4.02432812e-08,1.89084375e-01
-4.02032813e-08,1.89378125e-01
-4.01632812e-08,1.89243750e-01
-4.01232812e-08,1.89350000e-01
-4.00832812e-08,1.89250000e-01
-4.00432812e-08,1.89356250e-01
-4.00032812e-08,1.89220313e-01
-3.99632812e-08,1.89532813e-01
-3.99232813e-08,1.89729688e-01
-3.98832812e-08,1.89695313e-01
-3.98432812e-08,1.89693750e-01
-3.98032812e-08,1.89712500e-01
-3.97632812e-08,1.89678125e-01
-3.97232812e-08,1.89732813e-01
-3.96832812e-08,1.89640625e-01
-3.96432813e-08,1.89914063e-01
-3.96032812e-08,1.90146875e-01
-3.95632812e-08,1.90079688e-01
-3.95232812e-08,1.90107813e-01
-3.94832812e-08,1.90100000e-01
-3.94432812e-08,1.90092188e-01
-3.94032813e-08,1.90120312e-01
-3.93632812e-08,1.90053125e-01
-3.93232812e-08,1.90303125e-01
-3.92832812e-08,1.90557813e-01
-3.92432812e-08,1.90467187e-01
-3.92032812e-08,1.90520313e-01
-3.91632812e-08,1.90487500e-01
-3.91232813e-08,1.90504688e-01
-3.90832812e-08,1.90507813e-01
-3.90432812e-08,1.90467187e-01
-3.90032812e-08,1.90687500e-01
-3.89632812e-08,1.90975000e-01
-3.89232812e-08,1.90850000e-01
-3.88832812e-08,1.90940625e-01
-3.88432813e-08,1.90862500e-01
-3.88032812e-08,1.90934375e-01
-3.87632812e-08,1.90865625e-01
-3.87232812e-08,1.90935938e-01
-3.86832812e-08,1.90859375e-01
-3.86432812e-08,1.90948438e-01
-3.86032812e-08,1.90826563e-01
-3.85632813e-08,1.91125000e-01
-3.85232812e-08,1.91337500e-01
