trails/00d3b5ca214f61c40c3d804afea55865/aes_ch1_20250506163751924.csv

Model,MSO66B
Label,
Waveform Type,ANALOG
Horizontal Units,s
Sample Interval,4.00000000e-11
Record Length,10000
Zero Index,1599.08203125
Vertical Units,A
ANALOG_Thumbnail,
yOffset,1.84500000e-01
yPosition,8.40000000e-01

Labels,
TIME,CH1
-6.39632812e-08,1.79315625e-01
-6.39232812e-08,1.79273437e-01
-6.38832812e-08,1.79351563e-01
-6.38432812e-08,1.79095313e-01
-6.38032812e-08,1.78843750e-01
-6.37632813e-08,1.78932813e-01
-6.37232812e-08,1.78876563e-01
-6.36832812e-08,1.78920313e-01
-6.36432812e-08,1.78882813e-01
-6.36032812e-08,1.78917188e-01
-6.35632812e-08,1.78882813e-01
-6.35232812e-08,1.78920313e-01
-6.34832813e-08,1.78871875e-01
-6.34432812e-08,1.78951562e-01
-6.34032812e-08,1.78696875e-01
-6.33632812e-08,1.78439062e-01
-6.33232812e-08,1.78537500e-01
-6.32832812e-08,1.78468750e-01
-6.32432812e-08,1.78529688e-01
-6.32032813e-08,1.78470313e-01
-6.31632812e-08,1.78532812e-01
-6.31232812e-08,1.78457813e-01
-6.30832812e-08,1.78567188e-01
-6.30432812e-08,1.78279688e-01
-6.30032812e-08,1.78057812e-01
-6.29632812e-08,1.78117187e-01
-6.29232813e-08,1.78093750e-01
-6.28832812e-08,1.78098438e-01
-6.28432812e-08,1.78109375e-01
-6.28032812e-08,1.78079688e-01
-6.27632812e-08,1.78146875e-01
-6.27232812e-08,1.77900000e-01
-6.26832812e-08,1.77639063e-01
-6.26432813e-08,1.77737500e-01
-6.26032812e-08,1.77670313e-01
-6.25632812e-08,1.77726563e-01
-6.25232812e-08,1.77675000e-01
-6.24832812e-08,1.77728125e-01
-6.24432812e-08,1.77665625e-01
-6.24032812e-08,1.77757813e-01
-6.23632813e-08,1.77490625e-01
-6.23232812e-08,1.77245313e-01
-6.22832812e-08,1.77331250e-01
-6.22432812e-08,1.77276563e-01
-6.22032812e-08,1.77320312e-01
-6.21632812e-08,1.77279688e-01
-6.21232812e-08,1.77320312e-01
-6.20832813e-08,1.77278125e-01
-6.20432812e-08,1.77326563e-01
-6.20032812e-08,1.77264063e-01
-6.19632812e-08,1.77360938e-01
-6.19232812e-08,1.77085938e-01
-6.18832813e-08,1.76851563e-01
-6.18432812e-08,1.76925000e-01
-6.18032813e-08,1.76884375e-01
-6.17632812e-08,1.76910938e-01
-6.17232812e-08,1.76892188e-01
-6.16832812e-08,1.76904688e-01
-6.16432812e-08,1.76896875e-01
-6.16032813e-08,1.76901562e-01
-6.15632812e-08,1.76900000e-01
-6.15232813e-08,1.76900000e-01
-6.14832812e-08,1.76901562e-01
-6.14432812e-08,1.76896875e-01
-6.14032812e-08,1.76904688e-01
-6.13632812e-08,1.76893750e-01
-6.13232813e-08,1.76907813e-01
-6.12832812e-08,1.76889062e-01
-6.12432813e-08,1.76914062e-01
-6.12032812e-08,1.76881250e-01
-6.11632812e-08,1.76929688e-01
-6.11232812e-08,1.76845313e-01
-6.10832812e-08,1.77107813e-01
-6.10432813e-08,1.77354687e-01
-6.10032812e-08,1.77270312e-01
-6.09632813e-08,1.77320312e-01
-6.09232812e-08,1.77284375e-01
-6.08832812e-08,1.77310938e-01
-6.08432812e-08,1.77290625e-01
-6.08032812e-08,1.77306250e-01
-6.07632813e-08,1.77295312e-01
-6.07232812e-08,1.77303125e-01
-6.06832813e-08,1.77300000e-01
-6.06432812e-08,1.77298438e-01
-6.06032812e-08,1.77306250e-01
-6.05632812e-08,1.77289063e-01
-6.05232812e-08,1.77320312e-01
-6.04832813e-08,1.77254688e-01
-6.04432812e-08,1.77498437e-01
-6.04032813e-08,1.77764063e-01
-6.03632812e-08,1.77660938e-01
-6.03232812e-08,1.77729688e-01
-6.02832812e-08,1.77675000e-01
-6.02432812e-08,1.77721875e-01
-6.02032813e-08,1.77679688e-01
-6.01632812e-08,1.77720313e-01
-6.01232813e-08,1.77681250e-01
-6.00832812e-08,1.77718750e-01
-6.00432812e-08,1.77679688e-01
-6.00032812e-08,1.77720313e-01
-5.99632812e-08,1.77678125e-01
-5.99232813e-08,1.77725000e-01
-5.98832812e-08,1.77670313e-01
-5.98432812e-08,1.77739063e-01
-5.98032812e-08,1.77635938e-01
-5.97632812e-08,1.77917188e-01
-5.97232812e-08,1.78145313e-01
-5.96832812e-08,1.78078125e-01
-5.96432813e-08,1.78112500e-01
-5.96032812e-08,1.78092187e-01
-5.95632812e-08,1.78104687e-01
-5.95232812e-08,1.78096875e-01
-5.94832812e-08,1.78101563e-01
-5.94432812e-08,1.78100000e-01
-5.94032812e-08,1.78098438e-01
-5.93632812e-08,1.78103125e-01
-5.93232812e-08,1.78095313e-01
-5.92832812e-08,1.78104687e-01
-5.92432812e-08,1.78093750e-01
-5.92032812e-08,1.78107813e-01
-5.91632812e-08,1.78089063e-01
-5.91232812e-08,1.78114063e-01
-5.90832812e-08,1.78081250e-01
-5.90432812e-08,1.78128125e-01
-5.90032812e-08,1.78046875e-01
-5.89632812e-08,1.78306250e-01
-5.89232812e-08,1.78554688e-01
-5.88832812e-08,1.78468750e-01
-5.88432812e-08,1.78521875e-01
-5.88032812e-08,1.78482813e-01
-5.87632812e-08,1.78514063e-01
-5.87232812e-08,1.78489063e-01
-5.86832812e-08,1.78509375e-01
-5.86432812e-08,1.78490625e-01
-5.86032812e-08,1.78507813e-01
-5.85632812e-08,1.78493750e-01
-5.85232812e-08,1.78506250e-01
-5.84832812e-08,1.78493750e-01
-5.84432812e-08,1.78504688e-01
-5.84032812e-08,1.78495313e-01
-5.83632812e-08,1.78504688e-01
-5.83232812e-08,1.78496875e-01
-5.82832812e-08,1.78503125e-01
-5.82432812e-08,1.78496875e-01
-5.82032812e-08,1.78501563e-01
-5.81632812e-08,1.78498437e-01
-5.81232812e-08,1.78500000e-01
-5.80832812e-08,1.78501563e-01
-5.80432812e-08,1.78496875e-01
-5.80032812e-08,1.78504688e-01
-5.79632812e-08,1.78492188e-01
-5.79232812e-08,1.78512500e-01
-5.78832812e-08,1.78478125e-01
-5.78432812e-08,1.78546875e-01
-5.78032812e-08,1.78300000e-01
-5.77632812e-08,1.78037500e-01
-5.77232812e-08,1.78139063e-01
-5.76832812e-08,1.78070312e-01
-5.76432812e-08,1.78125000e-01
-5.76032812e-08,1.78078125e-01
-5.75632812e-08,1.78120313e-01
-5.75232812e-08,1.78081250e-01
-5.74832812e-08,1.78117187e-01
-5.74432812e-08,1.78082813e-01
-5.74032812e-08,1.78117187e-01
-5.73632812e-08,1.78082813e-01
-5.73232812e-08,1.78117187e-01
-5.72832812e-08,1.78082813e-01
-5.72432812e-08,1.78117187e-01
-5.72032812e-08,1.78082813e-01
-5.71632812e-08,1.78117187e-01
-5.71232812e-08,1.78082813e-01
-5.70832812e-08,1.78118750e-01
-5.70432812e-08,1.78081250e-01
-5.70032812e-08,1.78120313e-01
-5.69632812e-08,1.78078125e-01
-5.69232812e-08,1.78123438e-01
-5.68832812e-08,1.78075000e-01
-5.68432812e-08,1.78129687e-01
-5.68032812e-08,1.78065625e-01
-5.67632812e-08,1.78145313e-01
-5.67232812e-08,1.78029688e-01
-5.66832812e-08,1.78323438e-01
-5.66432812e-08,1.78537500e-01
-5.66032812e-08,1.78487500e-01
-5.65632812e-08,1.78501563e-01
-5.65232812e-08,1.78504688e-01
-5.64832812e-08,1.78490625e-01
-5.64432812e-08,1.78515625e-01
-5.64032812e-08,1.78478125e-01
-5.63632812e-08,1.78532812e-01
-5.63232812e-08,1.78440625e-01
-5.62832812e-08,1.78714062e-01
-5.62432812e-08,1.78946875e-01
-5.62032812e-08,1.78878125e-01
-5.61632812e-08,1.78910938e-01
-5.61232812e-08,1.78895313e-01
-5.60832812e-08,1.78900000e-01
-5.60432812e-08,1.78903125e-01
-5.60032812e-08,1.78892187e-01
-5.59632812e-08,1.78912500e-01
-5.59232812e-08,1.78881250e-01
-5.58832812e-08,1.78929688e-01
-5.58432812e-08,1.78845313e-01
-5.58032812e-08,1.79109375e-01
-5.57632812e-08,1.79351563e-01
-5.57232812e-08,1.79273437e-01
-5.56832812e-08,1.79317188e-01
-5.56432812e-08,1.79289063e-01
-5.56032812e-08,1.79306250e-01
-5.55632812e-08,1.79296875e-01
-5.55232812e-08,1.79301563e-01
-5.54832812e-08,1.79301563e-01
-5.54432812e-08,1.79295312e-01
-5.54032812e-08,1.79307812e-01
-5.53632812e-08,1.79287500e-01
-5.53232812e-08,1.79318750e-01
-5.52832812e-08,1.79271875e-01
-5.52432812e-08,1.79354687e-01
-5.52032812e-08,1.79090625e-01
-5.51632812e-08,1.78846875e-01
-5.51232812e-08,1.78928125e-01
-5.50832812e-08,1.78882813e-01
-5.50432812e-08,1.78910938e-01
-5.50032812e-08,1.78893750e-01
-5.49632812e-08,1.78901562e-01
-5.49232812e-08,1.78901562e-01
-5.48832812e-08,1.78893750e-01
-5.48432812e-08,1.78912500e-01
-5.48032812e-08,1.78876563e-01
-5.47632812e-08,1.78950000e-01
-5.47232812e-08,1.78695313e-01
-5.46832812e-08,1.78443750e-01
-5.46432812e-08,1.78531250e-01
-5.46032812e-08,1.78479688e-01
-5.45632812e-08,1.78514063e-01
-5.45232812e-08,1.78492188e-01
-5.44832812e-08,1.78503125e-01
-5.44432812e-08,1.78503125e-01
-5.44032812e-08,1.78485937e-01
-5.43632812e-08,1.78540625e-01
-5.43232812e-08,1.78304688e-01
-5.42832812e-08,1.78032812e-01
-5.42432812e-08,1.78142187e-01
-5.42032812e-08,1.78067188e-01
-5.41632812e-08,1.78126563e-01
-5.41232812e-08,1.78076563e-01
-5.40832812e-08,1.78120313e-01
-5.40432812e-08,1.78081250e-01
-5.40032812e-08,1.78117187e-01
-5.39632812e-08,1.78082813e-01
-5.39232812e-08,1.78115625e-01
-5.38832812e-08,1.78085938e-01
-5.38432812e-08,1.78114063e-01
-5.38032812e-08,1.78085938e-01
-5.37632812e-08,1.78112500e-01
-5.37232812e-08,1.78087500e-01
-5.36832812e-08,1.78112500e-01
-5.36432812e-08,1.78087500e-01
-5.36032812e-08,1.78110938e-01
-5.35632812e-08,1.78089063e-01
-5.35232812e-08,1.78110938e-01
-5.34832812e-08,1.78089063e-01
-5.34432812e-08,1.78110938e-01
-5.34032812e-08,1.78089063e-01
-5.33632812e-08,1.78110938e-01
-5.33232812e-08,1.78089063e-01
-5.32832812e-08,1.78110938e-01
-5.32432812e-08,1.78089063e-01
-5.32032812e-08,1.78110938e-01
-5.31632812e-08,1.78089063e-01
-5.31232812e-08,1.78110938e-01
-5.30832812e-08,1.78089063e-01
-5.30432812e-08,1.78110938e-01
-5.30032812e-08,1.78089063e-01
-5.29632812e-08,1.78110938e-01
-5.29232812e-08,1.78089063e-01
-5.28832812e-08,1.78112500e-01
-5.28432812e-08,1.78087500e-01
-5.28032812e-08,1.78112500e-01
-5.27632812e-08,1.78085938e-01
-5.27232812e-08,1.78115625e-01
-5.26832812e-08,1.78084375e-01
-5.26432812e-08,1.78118750e-01
-5.26032812e-08,1.78078125e-01
-5.25632813e-08,1.78126563e-01
-5.25232812e-08,1.78064063e-01
-5.24832812e-08,1.78160938e-01
-5.24432812e-08,1.77885938e-01
-5.24032812e-08,1.77653125e-01
-5.23632812e-08,1.77723437e-01
-5.23232812e-08,1.77687500e-01
-5.22832812e-08,1.77707813e-01
-5.22432812e-08,1.77696875e-01
-5.22032812e-08,1.77700000e-01
-5.21632812e-08,1.77703125e-01
-5.21232812e-08,1.77692188e-01
-5.20832812e-08,1.77712500e-01
-5.20432812e-08,1.77676562e-01
-5.20032812e-08,1.77748437e-01
-5.19632812e-08,1.77498437e-01
-5.19232812e-08,1.77239063e-01
-5.18832812e-08,1.77337500e-01
-5.18432812e-08,1.77271875e-01
-5.18032812e-08,1.77323438e-01
-5.17632812e-08,1.77279688e-01
-5.17232812e-08,1.77318750e-01
-5.16832812e-08,1.77282812e-01
-5.16432812e-08,1.77317188e-01
-5.16032812e-08,1.77282812e-01
-5.15632812e-08,1.77317188e-01
-5.15232812e-08,1.77282812e-01
-5.14832812e-08,1.77317188e-01
-5.14432812e-08,1.77281250e-01
-5.14032812e-08,1.77320312e-01
-5.13632812e-08,1.77278125e-01
-5.13232812e-08,1.77325000e-01
-5.12832812e-08,1.77270312e-01
-5.12432812e-08,1.77340625e-01
-5.12032812e-08,1.77234375e-01
-5.11632812e-08,1.77518750e-01
-5.11232812e-08,1.77742188e-01
-5.10832812e-08,1.77682813e-01
-5.10432812e-08,1.77706250e-01
-5.10032812e-08,1.77700000e-01
-5.09632812e-08,1.77695313e-01
-5.09232812e-08,1.77710937e-01
-5.08832812e-08,1.77682813e-01
-5.08432812e-08,1.77728125e-01
-5.08032812e-08,1.77645313e-01
-5.07632812e-08,1.77909375e-01
-5.07232812e-08,1.78151562e-01
-5.06832812e-08,1.78073438e-01
-5.06432813e-08,1.78115625e-01
-5.06032812e-08,1.78090625e-01
-5.05632812e-08,1.78103125e-01
-5.05232812e-08,1.78101563e-01
-5.04832812e-08,1.78090625e-01
-5.04432812e-08,1.78120313e-01
-5.04032812e-08,1.78053125e-01
-5.03632813e-08,1.78300000e-01
-5.03232812e-08,1.78560938e-01
-5.02832812e-08,1.78464063e-01
-5.02432812e-08,1.78526563e-01
-5.02032812e-08,1.78479688e-01
-5.01632812e-08,1.78515625e-01
-5.01232812e-08,1.78485937e-01
-5.00832812e-08,1.78510937e-01
-5.00432812e-08,1.78490625e-01
-5.00032812e-08,1.78506250e-01
-4.99632812e-08,1.78495313e-01
-4.99232812e-08,1.78501563e-01
-4.98832812e-08,1.78503125e-01
-4.98432812e-08,1.78492188e-01
-4.98032812e-08,1.78518750e-01
-4.97632812e-08,1.78456250e-01
-4.97232812e-08,1.78696875e-01
-4.96832812e-08,1.78964063e-01
-4.96432812e-08,1.78859375e-01
-4.96032812e-08,1.78931250e-01
-4.95632812e-08,1.78875000e-01
-4.95232812e-08,1.78921875e-01
-4.94832812e-08,1.78879687e-01
-4.94432812e-08,1.78918750e-01
-4.94032812e-08,1.78882813e-01
-4.93632812e-08,1.78915625e-01
-4.93232812e-08,1.78884375e-01
-4.92832812e-08,1.78914062e-01
-4.92432812e-08,1.78885938e-01
-4.92032812e-08,1.78912500e-01
-4.91632812e-08,1.78887500e-01
-4.91232812e-08,1.78910938e-01
-4.90832812e-08,1.78889063e-01
-4.90432812e-08,1.78909375e-01
-4.90032812e-08,1.78890625e-01
-4.89632812e-08,1.78907813e-01
-4.89232812e-08,1.78892187e-01
-4.88832812e-08,1.78906250e-01
-4.88432812e-08,1.78896875e-01
-4.88032812e-08,1.78901562e-01
-4.87632812e-08,1.78904688e-01
-4.87232813e-08,1.78885938e-01
-4.86832812e-08,1.78937500e-01
-4.86432812e-08,1.78709375e-01
-4.86032812e-08,1.78428125e-01
-4.85632812e-08,1.78548438e-01
-4.85232812e-08,1.78459375e-01
-4.84832812e-08,1.78535938e-01
-4.84432813e-08,1.78465625e-01
-4.84032812e-08,1.78532812e-01
-4.83632812e-08,1.78467188e-01
-4.83232812e-08,1.78534375e-01
-4.82832812e-08,1.78462500e-01
-4.82432812e-08,1.78542188e-01
-4.82032812e-08,1.78448438e-01
-4.81632813e-08,1.78576563e-01
-4.81232812e-08,1.78270312e-01
-4.80832812e-08,1.78067188e-01
-4.80432812e-08,1.78107813e-01
-4.80032812e-08,1.78103125e-01
-4.79632812e-08,1.78090625e-01
-4.79232812e-08,1.78114063e-01
-4.78832812e-08,1.78081250e-01
-4.78432812e-08,1.78125000e-01
-4.78032812e-08,1.78064063e-01
-4.77632812e-08,1.78162500e-01
-4.77232812e-08,1.77884375e-01
-4.76832812e-08,1.77654688e-01
-4.76432812e-08,1.77721875e-01
-4.76032812e-08,1.77689062e-01
-4.75632812e-08,1.77706250e-01
-4.75232812e-08,1.77698438e-01
-4.74832812e-08,1.77698438e-01
-4.74432812e-08,1.77703125e-01
-4.74032812e-08,1.77693750e-01
-4.73632812e-08,1.77707813e-01
-4.73232812e-08,1.77690625e-01
-4.72832812e-08,1.77712500e-01
-4.72432812e-08,1.77684375e-01
-4.72032812e-08,1.77721875e-01
-4.71632812e-08,1.77667188e-01
-4.71232812e-08,1.77757813e-01
-4.70832812e-08,1.77489063e-01
-4.70432812e-08,1.77248437e-01
-4.70032812e-08,1.77326563e-01
-4.69632812e-08,1.77282812e-01
-4.69232812e-08,1.77312500e-01
-4.68832812e-08,1.77290625e-01
-4.68432812e-08,1.77306250e-01
-4.68032813e-08,1.77295312e-01
-4.67632812e-08,1.77303125e-01
-4.67232812e-08,1.77298438e-01
-4.66832812e-08,1.77301563e-01
-4.66432812e-08,1.77300000e-01
-4.66032812e-08,1.77300000e-01
-4.65632812e-08,1.77301563e-01
-4.65232813e-08,1.77298438e-01
-4.64832812e-08,1.77301563e-01
-4.64432812e-08,1.77296875e-01
-4.64032812e-08,1.77303125e-01
-4.63632812e-08,1.77296875e-01
-4.63232812e-08,1.77304688e-01
-4.62832812e-08,1.77295312e-01
-4.62432813e-08,1.77304688e-01
-4.62032812e-08,1.77293750e-01
-4.61632812e-08,1.77306250e-01
-4.61232812e-08,1.77292188e-01
-4.60832812e-08,1.77307812e-01
-4.60432812e-08,1.77290625e-01
-4.60032812e-08,1.77310938e-01
-4.59632813e-08,1.77287500e-01
-4.59232812e-08,1.77314063e-01
-4.58832812e-08,1.77281250e-01
-4.58432812e-08,1.77323438e-01
-4.58032812e-08,1.77267188e-01
-4.57632812e-08,1.77357813e-01
-4.57232812e-08,1.77089063e-01
-4.56832812e-08,1.76850000e-01
-4.56432812e-08,1.76926562e-01
-4.56032812e-08,1.76882813e-01
-4.55632812e-08,1.76912500e-01
-4.55232812e-08,1.76892188e-01
-4.54832812e-08,1.76906250e-01
-4.54432812e-08,1.76895313e-01
-4.54032812e-08,1.76903125e-01
-4.53632812e-08,1.76898438e-01
-4.53232812e-08,1.76901562e-01
-4.52832812e-08,1.76900000e-01
-4.52432812e-08,1.76898438e-01
-4.52032812e-08,1.76901562e-01
-4.51632812e-08,1.76896875e-01
-4.51232812e-08,1.76903125e-01
-4.50832812e-08,1.76895313e-01
-4.50432812e-08,1.76906250e-01
-4.50032812e-08,1.76892188e-01
-4.49632812e-08,1.76909375e-01
-4.49232812e-08,1.76887500e-01
-4.48832813e-08,1.76915625e-01
-4.48432812e-08,1.76879687e-01
-4.48032812e-08,1.76929688e-01
-4.47632812e-08,1.76843750e-01
-4.47232812e-08,1.77109375e-01
-4.46832812e-08,1.77353125e-01
-4.46432812e-08,1.77271875e-01
-4.46032813e-08,1.77318750e-01
-4.45632812e-08,1.77285938e-01
-4.45232812e-08,1.77309375e-01
-4.44832812e-08,1.77292188e-01
-4.44432812e-08,1.77304688e-01
-4.44032812e-08,1.77296875e-01
-4.43632812e-08,1.77301563e-01
-4.43232813e-08,1.77301563e-01
-4.42832812e-08,1.77296875e-01
-4.42432812e-08,1.77307812e-01
-4.42032812e-08,1.77287500e-01
-4.41632812e-08,1.77321875e-01
-4.41232812e-08,1.77253125e-01
-4.40832812e-08,1.77500000e-01
-4.40432813e-08,1.77760937e-01
-4.40032812e-08,1.77662500e-01
-4.39632812e-08,1.77728125e-01
-4.39232812e-08,1.77676562e-01
-4.38832812e-08,1.77720313e-01
-4.38432812e-08,1.77681250e-01
-4.38032812e-08,1.77717188e-01
-4.37632812e-08,1.77682813e-01
-4.37232812e-08,1.77717188e-01
-4.36832812e-08,1.77682813e-01
-4.36432812e-08,1.77718750e-01
-4.36032812e-08,1.77679688e-01
-4.35632812e-08,1.77721875e-01
-4.35232812e-08,1.77673438e-01
-4.34832812e-08,1.77735937e-01
-4.34432812e-08,1.77639063e-01
-4.34032812e-08,1.77912500e-01
-4.33632812e-08,1.78150000e-01
-4.33232812e-08,1.78075000e-01
-4.32832812e-08,1.78117187e-01
-4.32432812e-08,1.78087500e-01
-4.32032812e-08,1.78109375e-01
-4.31632812e-08,1.78092187e-01
-4.31232812e-08,1.78106250e-01
-4.30832812e-08,1.78095313e-01
-4.30432812e-08,1.78104687e-01
-4.30032812e-08,1.78095313e-01
-4.29632813e-08,1.78103125e-01
-4.29232812e-08,1.78096875e-01
-4.28832812e-08,1.78103125e-01
-4.28432812e-08,1.78096875e-01
-4.28032812e-08,1.78103125e-01
-4.27632812e-08,1.78096875e-01
-4.27232812e-08,1.78103125e-01
-4.26832813e-08,1.78096875e-01
-4.26432812e-08,1.78103125e-01
-4.26032812e-08,1.78096875e-01
-4.25632812e-08,1.78103125e-01
-4.25232812e-08,1.78096875e-01
-4.24832812e-08,1.78103125e-01
-4.24432812e-08,1.78096875e-01
-4.24032813e-08,1.78103125e-01
-4.23632812e-08,1.78096875e-01
-4.23232812e-08,1.78103125e-01
-4.22832812e-08,1.78096875e-01
-4.22432812e-08,1.78104687e-01
-4.22032812e-08,1.78095313e-01
-4.21632812e-08,1.78104687e-01
-4.21232813e-08,1.78095313e-01
-4.20832812e-08,1.78106250e-01
-4.20432812e-08,1.78093750e-01
-4.20032812e-08,1.78107813e-01
-4.19632812e-08,1.78092187e-01
-4.19232812e-08,1.78109375e-01
-4.18832812e-08,1.78087500e-01
-4.18432813e-08,1.78115625e-01
-4.18032812e-08,1.78079688e-01
-4.17632812e-08,1.78129687e-01
-4.17232812e-08,1.78045312e-01
-4.16832812e-08,1.78307812e-01
-4.16432812e-08,1.78554688e-01
-4.16032812e-08,1.78468750e-01
-4.15632812e-08,1.78521875e-01
-4.15232812e-08,1.78482813e-01
-4.14832812e-08,1.78514063e-01
-4.14432812e-08,1.78489063e-01
-4.14032812e-08,1.78509375e-01
-4.13632812e-08,1.78490625e-01
-4.13232812e-08,1.78507813e-01
-4.12832812e-08,1.78492188e-01
-4.12432812e-08,1.78506250e-01
-4.12032812e-08,1.78493750e-01
-4.11632812e-08,1.78506250e-01
-4.11232812e-08,1.78493750e-01
-4.10832812e-08,1.78506250e-01
-4.10432813e-08,1.78495313e-01
-4.10032812e-08,1.78504688e-01
-4.09632812e-08,1.78495313e-01
-4.09232812e-08,1.78504688e-01
-4.08832812e-08,1.78495313e-01
-4.08432812e-08,1.78504688e-01
-4.08032812e-08,1.78495313e-01
-4.07632813e-08,1.78504688e-01
-4.07232812e-08,1.78495313e-01
-4.06832812e-08,1.78504688e-01
-4.06432812e-08,1.78495313e-01
-4.06032812e-08,1.78504688e-01
-4.05632812e-08,1.78495313e-01
-4.05232812e-08,1.78504688e-01
-4.04832813e-08,1.78495313e-01
-4.04432812e-08,1.78504688e-01
-4.04032812e-08,1.78493750e-01
-4.03632812e-08,1.78506250e-01
-4.03232812e-08,1.78493750e-01
-4.02832812e-08,1.78506250e-01
-4.02432812e-08,1.78493750e-01
-4.02032813e-08,1.78507813e-01
-4.01632812e-08,1.78492188e-01
-4.01232812e-08,1.78509375e-01
-4.00832812e-08,1.78490625e-01
-4.00432812e-08,1.78510937e-01
-4.00032812e-08,1.78485937e-01
-3.99632812e-08,1.78517188e-01
-3.99232813e-08,1.78478125e-01
-3.98832812e-08,1.78531250e-01
-3.98432812e-08,1.78443750e-01
-3.98032812e-08,1.78709375e-01
-3.97632812e-08,1.78953125e-01
-3.97232812e-08,1.78870313e-01
-3.96832812e-08,1.78920313e-01
-3.96432813e-08,1.78884375e-01
-3.96032812e-08,1.78912500e-01
-3.95632812e-08,1.78890625e-01
-3.95232812e-08,1.78909375e-01
-3.94832812e-08,1.78892187e-01
-3.94432812e-08,1.78906250e-01
-3.94032813e-08,1.78893750e-01
-3.93632812e-08,1.78904688e-01
-3.93232812e-08,1.78895313e-01
-3.92832812e-08,1.78904688e-01
-3.92432812e-08,1.78895313e-01
-3.92032812e-08,1.78903125e-01
-3.91632812e-08,1.78896875e-01
-3.91232813e-08,1.78903125e-01
-3.90832812e-08,1.78896875e-01
-3.90432812e-08,1.78903125e-01
-3.90032812e-08,1.78896875e-01
-3.89632812e-08,1.78903125e-01
-3.89232812e-08,1.78896875e-01
-3.88832812e-08,1.78901562e-01
-3.88432813e-08,1.78898438e-01
-3.88032812e-08,1.78901562e-01
-3.87632812e-08,1.78898438e-01
-3.87232812e-08,1.78901562e-01
-3.86832812e-08,1.78898438e-01
-3.86432812e-08,1.78901562e-01
-3.86032812e-08,1.78898438e-01
-3.85632813e-08,1.78901562e-01
-3.85232812e-08,1.78900000e-01
