trails/00d3b5ca214f61c40c3d804afea55865/aes_ch1_20250506163616905.csv

Model,MSO66B
Label,
Waveform Type,ANALOG
Horizontal Units,s
Sample Interval,4.00000000e-11
Record Length,10000
Zero Index,1599.09375000
Vertical Units,A
ANALOG_Thumbnail,
yOffset,1.84500000e-01
yPosition,8.40000000e-01

Labels,
TIME,CH1
-6.39637500e-08,2.04890625e-01
-6.39237500e-08,2.04909375e-01
-6.38837500e-08,2.04890625e-01
-6.38437500e-08,2.04909375e-01
-6.38037500e-08,2.04890625e-01
-6.37637500e-08,2.04910938e-01
-6.37237500e-08,2.04889062e-01
-6.36837500e-08,2.04910938e-01
-6.36437500e-08,2.04889062e-01
-6.36037500e-08,2.04912500e-01
-6.35637500e-08,2.04887500e-01
-6.35237500e-08,2.04912500e-01
-6.34837500e-08,2.04885938e-01
-6.34437500e-08,2.04914062e-01
-6.34037500e-08,2.04884375e-01
-6.33637500e-08,2.04917188e-01
-6.33237500e-08,2.04881250e-01
-6.32837500e-08,2.04920313e-01
-6.32437500e-08,2.04878125e-01
-6.32037500e-08,2.04925000e-01
-6.31637500e-08,2.04868750e-01
-6.31237500e-08,2.04940625e-01
-6.30837500e-08,2.04832813e-01
-6.30437500e-08,2.05120313e-01
-6.30037500e-08,2.05340625e-01
-6.29637500e-08,2.05284375e-01
-6.29237500e-08,2.05306250e-01
-6.28837500e-08,2.05300000e-01
-6.28437500e-08,2.05295312e-01
-6.28037500e-08,2.05309375e-01
-6.27637500e-08,2.05285938e-01
-6.27237500e-08,2.05320313e-01
-6.26837500e-08,2.05268750e-01
-6.26437500e-08,2.05357813e-01
-6.26037500e-08,2.05089063e-01
-6.25637500e-08,2.04850000e-01
-6.25237500e-08,2.04925000e-01
-6.24837500e-08,2.04885938e-01
-6.24437500e-08,2.04909375e-01
-6.24037500e-08,2.04895313e-01
-6.23637500e-08,2.04901563e-01
-6.23237500e-08,2.04901563e-01
-6.22837500e-08,2.04895313e-01
-6.22437500e-08,2.04907813e-01
-6.22037500e-08,2.04887500e-01
-6.21637500e-08,2.04918750e-01
-6.21237500e-08,2.04870313e-01
-6.20837500e-08,2.04954688e-01
-6.20437500e-08,2.04690625e-01
-6.20037500e-08,2.04448437e-01
-6.19637500e-08,2.04526563e-01
-6.19237500e-08,2.04485937e-01
-6.18837500e-08,2.04506250e-01
-6.18437500e-08,2.04501563e-01
-6.18037500e-08,2.04487500e-01
-6.17637500e-08,2.04539063e-01
-6.17237500e-08,2.04307813e-01
-6.16837500e-08,2.04031250e-01
-6.16437500e-08,2.04145313e-01
-6.16037500e-08,2.04062500e-01
-6.15637500e-08,2.04132813e-01
-6.15237500e-08,2.04067187e-01
-6.14837500e-08,2.04135938e-01
-6.14437500e-08,2.04056250e-01
-6.14037500e-08,2.04167188e-01
-6.13637500e-08,2.03881250e-01
-6.13237500e-08,2.03654688e-01
-6.12837500e-08,2.03721875e-01
-6.12437500e-08,2.03687500e-01
-6.12037500e-08,2.03709375e-01
-6.11637500e-08,2.03693750e-01
-6.11237500e-08,2.03704688e-01
-6.10837500e-08,2.03695313e-01
-6.10437500e-08,2.03703125e-01
-6.10037500e-08,2.03696875e-01
-6.09637500e-08,2.03703125e-01
-6.09237500e-08,2.03696875e-01
-6.08837500e-08,2.03701563e-01
-6.08437500e-08,2.03698437e-01
-6.08037500e-08,2.03701563e-01
-6.07637500e-08,2.03698437e-01
-6.07237500e-08,2.03701563e-01
-6.06837500e-08,2.03698437e-01
-6.06437500e-08,2.03703125e-01
-6.06037500e-08,2.03696875e-01
-6.05637500e-08,2.03703125e-01
-6.05237500e-08,2.03696875e-01
-6.04837500e-08,2.03703125e-01
-6.04437500e-08,2.03696875e-01
-6.04037500e-08,2.03703125e-01
-6.03637500e-08,2.03696875e-01
-6.03237500e-08,2.03703125e-01
-6.02837500e-08,2.03696875e-01
-6.02437500e-08,2.03703125e-01
-6.02037500e-08,2.03695313e-01
-6.01637500e-08,2.03704688e-01
-6.01237500e-08,2.03695313e-01
-6.00837500e-08,2.03704688e-01
-6.00437500e-08,2.03695313e-01
-6.00037500e-08,2.03704688e-01
-5.99637500e-08,2.03693750e-01
-5.99237500e-08,2.03706250e-01
-5.98837500e-08,2.03693750e-01
-5.98437500e-08,2.03706250e-01
-5.98037500e-08,2.03692188e-01
-5.97637500e-08,2.03707813e-01
-5.97237500e-08,2.03690625e-01
-5.96837500e-08,2.03709375e-01
-5.96437500e-08,2.03689063e-01
-5.96037500e-08,2.03712500e-01
-5.95637500e-08,2.03684375e-01
-5.95237500e-08,2.03718750e-01
-5.94837500e-08,2.03676563e-01
-5.94437500e-08,2.03732812e-01
-5.94037500e-08,2.03642188e-01
-5.93637500e-08,2.03910938e-01
-5.93237500e-08,2.04151562e-01
-5.92837500e-08,2.04073438e-01
-5.92437500e-08,2.04117188e-01
-5.92037500e-08,2.04087500e-01
-5.91637500e-08,2.04109375e-01
-5.91237500e-08,2.04093750e-01
-5.90837500e-08,2.04104687e-01
-5.90437500e-08,2.04095313e-01
-5.90037500e-08,2.04103125e-01
-5.89637500e-08,2.04098438e-01
-5.89237500e-08,2.04101562e-01
-5.88837500e-08,2.04100000e-01
-5.88437500e-08,2.04100000e-01
-5.88037500e-08,2.04100000e-01
-5.87637500e-08,2.04098438e-01
-5.87237500e-08,2.04101562e-01
-5.86837500e-08,2.04098438e-01
-5.86437500e-08,2.04103125e-01
-5.86037500e-08,2.04096875e-01
-5.85637500e-08,2.04103125e-01
-5.85237500e-08,2.04095313e-01
-5.84837500e-08,2.04104687e-01
-5.84437500e-08,2.04093750e-01
-5.84037500e-08,2.04106250e-01
-5.83637500e-08,2.04092188e-01
-5.83237500e-08,2.04109375e-01
-5.82837500e-08,2.04089063e-01
-5.82437500e-08,2.04112500e-01
-5.82037500e-08,2.04085938e-01
-5.81637500e-08,2.04117188e-01
-5.81237500e-08,2.04076563e-01
-5.80837500e-08,2.04132813e-01
-5.80437500e-08,2.04042187e-01
-5.80037500e-08,2.04310938e-01
-5.79637500e-08,2.04550000e-01
-5.79237500e-08,2.04475000e-01
-5.78837500e-08,2.04515625e-01
-5.78437500e-08,2.04489063e-01
-5.78037500e-08,2.04506250e-01
-5.77637500e-08,2.04495312e-01
-5.77237500e-08,2.04501563e-01
-5.76837500e-08,2.04500000e-01
-5.76437500e-08,2.04496875e-01
-5.76037500e-08,2.04504688e-01
-5.75637500e-08,2.04492188e-01
-5.75237500e-08,2.04510938e-01
-5.74837500e-08,2.04482812e-01
-5.74437500e-08,2.04528125e-01
-5.74037500e-08,2.04446875e-01
-5.73637500e-08,2.04706250e-01
-5.73237500e-08,2.04954688e-01
-5.72837500e-08,2.04870313e-01
-5.72437500e-08,2.04920313e-01
-5.72037500e-08,2.04885938e-01
-5.71637500e-08,2.04909375e-01
-5.71237500e-08,2.04893750e-01
-5.70837500e-08,2.04903125e-01
-5.70437500e-08,2.04901563e-01
-5.70037500e-08,2.04892188e-01
-5.69637500e-08,2.04917188e-01
-5.69237500e-08,2.04856250e-01
-5.68837500e-08,2.05096875e-01
-5.68437500e-08,2.05365625e-01
-5.68037500e-08,2.05257812e-01
-5.67637500e-08,2.05332813e-01
-5.67237500e-08,2.05271875e-01
-5.66837500e-08,2.05325000e-01
-5.66437500e-08,2.05276563e-01
-5.66037500e-08,2.05323438e-01
-5.65637500e-08,2.05276563e-01
-5.65237500e-08,2.05326563e-01
-5.64837500e-08,2.05270312e-01
-5.64437500e-08,2.05339063e-01
-5.64037500e-08,2.05237500e-01
-5.63637500e-08,2.05515625e-01
-5.63237500e-08,2.05748438e-01
-5.62837500e-08,2.05675000e-01
-5.62437500e-08,2.05715625e-01
-5.62037500e-08,2.05689063e-01
-5.61637500e-08,2.05709375e-01
-5.61237500e-08,2.05692188e-01
-5.60837500e-08,2.05706250e-01
-5.60437500e-08,2.05693750e-01
-5.60037500e-08,2.05706250e-01
-5.59637500e-08,2.05693750e-01
-5.59237500e-08,2.05706250e-01
-5.58837500e-08,2.05693750e-01
-5.58437500e-08,2.05706250e-01
-5.58037500e-08,2.05692188e-01
-5.57637500e-08,2.05709375e-01
-5.57237500e-08,2.05689063e-01
-5.56837500e-08,2.05714063e-01
-5.56437500e-08,2.05681250e-01
-5.56037500e-08,2.05728125e-01
-5.55637500e-08,2.05646875e-01
-5.55237500e-08,2.05906250e-01
-5.54837500e-08,2.06156250e-01
-5.54437500e-08,2.06068750e-01
-5.54037500e-08,2.06121875e-01
-5.53637500e-08,2.06082813e-01
-5.53237500e-08,2.06114063e-01
-5.52837500e-08,2.06087500e-01
-5.52437500e-08,2.06110938e-01
-5.52037500e-08,2.06090625e-01
-5.51637500e-08,2.06109375e-01
-5.51237500e-08,2.06092187e-01
-5.50837500e-08,2.06107813e-01
-5.50437500e-08,2.06093750e-01
-5.50037500e-08,2.06106250e-01
-5.49637500e-08,2.06093750e-01
-5.49237500e-08,2.06106250e-01
-5.48837500e-08,2.06095313e-01
-5.48437500e-08,2.06104687e-01
-5.48037500e-08,2.06095313e-01
-5.47637500e-08,2.06104687e-01
-5.47237500e-08,2.06095313e-01
-5.46837500e-08,2.06104687e-01
-5.46437500e-08,2.06095313e-01
-5.46037500e-08,2.06104687e-01
-5.45637500e-08,2.06095313e-01
-5.45237500e-08,2.06103125e-01
-5.44837500e-08,2.06096875e-01
-5.44437500e-08,2.06103125e-01
-5.44037500e-08,2.06096875e-01
-5.43637500e-08,2.06103125e-01
-5.43237500e-08,2.06096875e-01
-5.42837500e-08,2.06103125e-01
-5.42437500e-08,2.06096875e-01
-5.42037500e-08,2.06103125e-01
-5.41637500e-08,2.06096875e-01
-5.41237500e-08,2.06103125e-01
-5.40837500e-08,2.06096875e-01
-5.40437500e-08,2.06103125e-01
-5.40037500e-08,2.06096875e-01
-5.39637500e-08,2.06101563e-01
-5.39237500e-08,2.06098438e-01
-5.38837500e-08,2.06101563e-01
-5.38437500e-08,2.06098438e-01
-5.38037500e-08,2.06101563e-01
-5.37637500e-08,2.06098438e-01
-5.37237500e-08,2.06101563e-01
-5.36837500e-08,2.06098438e-01
-5.36437500e-08,2.06101563e-01
-5.36037500e-08,2.06098438e-01
-5.35637500e-08,2.06101563e-01
-5.35237500e-08,2.06098438e-01
-5.34837500e-08,2.06101563e-01
-5.34437500e-08,2.06098438e-01
-5.34037500e-08,2.06101563e-01
-5.33637500e-08,2.06098438e-01
-5.33237500e-08,2.06100000e-01
-5.32837500e-08,2.06100000e-01
-5.32437500e-08,2.06100000e-01
-5.32037500e-08,2.06100000e-01
-5.31637500e-08,2.06100000e-01
-5.31237500e-08,2.06100000e-01
-5.30837500e-08,2.06100000e-01
-5.30437500e-08,2.06100000e-01
-5.30037500e-08,2.06100000e-01
-5.29637500e-08,2.06100000e-01
-5.29237500e-08,2.06098438e-01
-5.28837500e-08,2.06101563e-01
-5.28437500e-08,2.06098438e-01
-5.28037500e-08,2.06101563e-01
-5.27637500e-08,2.06098438e-01
-5.27237500e-08,2.06103125e-01
-5.26837500e-08,2.06096875e-01
-5.26437500e-08,2.06104687e-01
-5.26037500e-08,2.06095313e-01
-5.25637500e-08,2.06106250e-01
-5.25237500e-08,2.06092187e-01
-5.24837500e-08,2.06109375e-01
-5.24437500e-08,2.06087500e-01
-5.24037500e-08,2.06117188e-01
-5.23637500e-08,2.06073438e-01
-5.23237500e-08,2.06151562e-01
-5.22837500e-08,2.05895313e-01
-5.22437500e-08,2.05642188e-01
-5.22037500e-08,2.05732813e-01
-5.21637500e-08,2.05676562e-01
-5.21237500e-08,2.05718750e-01
-5.20837500e-08,2.05684375e-01
-5.20437500e-08,2.05714063e-01
-5.20037500e-08,2.05687500e-01
-5.19637500e-08,2.05712500e-01
-5.19237500e-08,2.05689063e-01
-5.18837500e-08,2.05710937e-01
-5.18437500e-08,2.05690625e-01
-5.18037500e-08,2.05709375e-01
-5.17637500e-08,2.05690625e-01
-5.17237500e-08,2.05709375e-01
-5.16837500e-08,2.05690625e-01
-5.16437500e-08,2.05709375e-01
-5.16037500e-08,2.05690625e-01
-5.15637500e-08,2.05709375e-01
-5.15237500e-08,2.05690625e-01
-5.14837500e-08,2.05710937e-01
-5.14437500e-08,2.05689063e-01
-5.14037500e-08,2.05712500e-01
-5.13637500e-08,2.05685937e-01
-5.13237500e-08,2.05715625e-01
-5.12837500e-08,2.05681250e-01
-5.12437500e-08,2.05723437e-01
-5.12037500e-08,2.05667188e-01
-5.11637500e-08,2.05757812e-01
-5.11237500e-08,2.05489063e-01
-5.10837500e-08,2.05248438e-01
-5.10437500e-08,2.05328125e-01
-5.10037500e-08,2.05281250e-01
-5.09637500e-08,2.05314063e-01
-5.09237500e-08,2.05289063e-01
-5.08837500e-08,2.05309375e-01
-5.08437500e-08,2.05292188e-01
-5.08037500e-08,2.05306250e-01
-5.07637500e-08,2.05293750e-01
-5.07237500e-08,2.05306250e-01
-5.06837500e-08,2.05295312e-01
-5.06437500e-08,2.05304687e-01
-5.06037500e-08,2.05295312e-01
-5.05637500e-08,2.05304687e-01
-5.05237500e-08,2.05295312e-01
-5.04837500e-08,2.05304687e-01
-5.04437500e-08,2.05295312e-01
-5.04037500e-08,2.05304687e-01
-5.03637500e-08,2.05295312e-01
-5.03237500e-08,2.05304687e-01
-5.02837500e-08,2.05295312e-01
-5.02437500e-08,2.05304687e-01
-5.02037500e-08,2.05295312e-01
-5.01637500e-08,2.05306250e-01
-5.01237500e-08,2.05293750e-01
-5.00837500e-08,2.05306250e-01
-5.00437500e-08,2.05292188e-01
-5.00037500e-08,2.05309375e-01
-4.99637500e-08,2.05289063e-01
-4.99237500e-08,2.05314063e-01
-4.98837500e-08,2.05281250e-01
-4.98437500e-08,2.05328125e-01
-4.98037500e-08,2.05246875e-01
-4.97637500e-08,2.05504688e-01
-4.97237500e-08,2.05757812e-01
-4.96837500e-08,2.05665625e-01
-4.96437500e-08,2.05726563e-01
-4.96037500e-08,2.05676562e-01
-4.95637500e-08,2.05723437e-01
-4.95237500e-08,2.05673438e-01
-4.94837500e-08,2.05734375e-01
-4.94437500e-08,2.05643750e-01
-4.94037500e-08,2.05907813e-01
-4.93637500e-08,2.06154688e-01
-4.93237500e-08,2.06067187e-01
-4.92837500e-08,2.06125000e-01
-4.92437500e-08,2.06076563e-01
-4.92037500e-08,2.06123438e-01
-4.91637500e-08,2.06073438e-01
-4.91237500e-08,2.06135938e-01
-4.90837500e-08,2.06040625e-01
-4.90437500e-08,2.06310938e-01
-4.90037500e-08,2.06551563e-01
-4.89637500e-08,2.06471875e-01
-4.89237500e-08,2.06518750e-01
-4.88837500e-08,2.06485937e-01
-4.88437500e-08,2.06510938e-01
-4.88037500e-08,2.06490625e-01
-4.87637500e-08,2.06507812e-01
-4.87237500e-08,2.06492188e-01
-4.86837500e-08,2.06506250e-01
-4.86437500e-08,2.06493750e-01
-4.86037500e-08,2.06506250e-01
-4.85637500e-08,2.06493750e-01
-4.85237500e-08,2.06506250e-01
-4.84837500e-08,2.06493750e-01
-4.84437500e-08,2.06506250e-01
-4.84037500e-08,2.06493750e-01
-4.83637500e-08,2.06506250e-01
-4.83237500e-08,2.06492188e-01
-4.82837500e-08,2.06509375e-01
-4.82437500e-08,2.06487500e-01
-4.82037500e-08,2.06515625e-01
-4.81637500e-08,2.06475000e-01
-4.81237500e-08,2.06550000e-01
-4.80837500e-08,2.06298438e-01
-4.80437500e-08,2.06037500e-01
-4.80037500e-08,2.06139062e-01
-4.79637500e-08,2.06067187e-01
-4.79237500e-08,2.06129688e-01
-4.78837500e-08,2.06070313e-01
-4.78437500e-08,2.06132813e-01
-4.78037500e-08,2.06057812e-01
-4.77637500e-08,2.06167188e-01
-4.77237500e-08,2.05879688e-01
-4.76837500e-08,2.05657813e-01
-4.76437500e-08,2.05717188e-01
-4.76037500e-08,2.05693750e-01
-4.75637500e-08,2.05700000e-01
-4.75237500e-08,2.05707813e-01
-4.74837500e-08,2.05681250e-01
-4.74437500e-08,2.05745312e-01
-4.74037500e-08,2.05501563e-01
-4.73637500e-08,2.05235938e-01
-4.73237500e-08,2.05340625e-01
-4.72837500e-08,2.05268750e-01
-4.72437500e-08,2.05328125e-01
-4.72037500e-08,2.05271875e-01
-4.71637500e-08,2.05329687e-01
-4.71237500e-08,2.05262500e-01
-4.70837500e-08,2.05360938e-01
-4.70437500e-08,2.05087500e-01
-4.70037500e-08,2.04848438e-01
-4.69637500e-08,2.04929688e-01
-4.69237500e-08,2.04879688e-01
-4.68837500e-08,2.04917188e-01
-4.68437500e-08,2.04882813e-01
-4.68037500e-08,2.04917188e-01
-4.67637500e-08,2.04881250e-01
-4.67237500e-08,2.04923437e-01
-4.66837500e-08,2.04867188e-01
-4.66437500e-08,2.04957813e-01
-4.66037500e-08,2.04690625e-01
-4.65637500e-08,2.04446875e-01
-4.65237500e-08,2.04528125e-01
-4.64837500e-08,2.04481250e-01
-4.64437500e-08,2.04514063e-01
-4.64037500e-08,2.04489063e-01
-4.63637500e-08,2.04509375e-01
-4.63237500e-08,2.04492188e-01
-4.62837500e-08,2.04506250e-01
-4.62437500e-08,2.04493750e-01
-4.62037500e-08,2.04504688e-01
-4.61637500e-08,2.04495312e-01
-4.61237500e-08,2.04503125e-01
-4.60837500e-08,2.04496875e-01
-4.60437500e-08,2.04501563e-01
-4.60037500e-08,2.04498438e-01
-4.59637500e-08,2.04501563e-01
-4.59237500e-08,2.04500000e-01
-4.58837500e-08,2.04500000e-01
-4.58437500e-08,2.04501563e-01
-4.58037500e-08,2.04496875e-01
-4.57637500e-08,2.04503125e-01
-4.57237500e-08,2.04495312e-01
-4.56837500e-08,2.04507812e-01
-4.56437500e-08,2.04489063e-01
-4.56037500e-08,2.04515625e-01
-4.55637500e-08,2.04475000e-01
-4.55237500e-08,2.04550000e-01
-4.54837500e-08,2.04295312e-01
-4.54437500e-08,2.04042187e-01
-4.54037500e-08,2.04134375e-01
-4.53637500e-08,2.04075000e-01
-4.53237500e-08,2.04120313e-01
-4.52837500e-08,2.04082813e-01
-4.52437500e-08,2.04114062e-01
-4.52037500e-08,2.04087500e-01
-4.51637500e-08,2.04112500e-01
-4.51237500e-08,2.04089063e-01
-4.50837500e-08,2.04109375e-01
-4.50437500e-08,2.04090625e-01
-4.50037500e-08,2.04109375e-01
-4.49637500e-08,2.04092188e-01
-4.49237500e-08,2.04107813e-01
-4.48837500e-08,2.04092188e-01
-4.48437500e-08,2.04107813e-01
-4.48037500e-08,2.04093750e-01
-4.47637500e-08,2.04106250e-01
-4.47237500e-08,2.04093750e-01
-4.46837500e-08,2.04106250e-01
-4.46437500e-08,2.04095313e-01
-4.46037500e-08,2.04104687e-01
-4.45637500e-08,2.04095313e-01
-4.45237500e-08,2.04103125e-01
-4.44837500e-08,2.04096875e-01
-4.44437500e-08,2.04101562e-01
-4.44037500e-08,2.04100000e-01
-4.43637500e-08,2.04098438e-01
-4.43237500e-08,2.04104687e-01
-4.42837500e-08,2.04090625e-01
-4.42437500e-08,2.04118750e-01
-4.42037500e-08,2.04057813e-01
-4.41637500e-08,2.04295312e-01
-4.41237500e-08,2.04568750e-01
-4.40837500e-08,2.04454688e-01
-4.40437500e-08,2.04537500e-01
-4.40037500e-08,2.04467188e-01
-4.39637500e-08,2.04532812e-01
-4.39237500e-08,2.04467188e-01
-4.38837500e-08,2.04534375e-01
-4.38437500e-08,2.04460937e-01
-4.38037500e-08,2.04548438e-01
-4.37637500e-08,2.04426563e-01
-4.37237500e-08,2.04728125e-01
-4.36837500e-08,2.04932813e-01
-4.36437500e-08,2.04893750e-01
-4.36037500e-08,2.04892188e-01
-4.35637500e-08,2.04923437e-01
-4.35237500e-08,2.04848438e-01
-4.34837500e-08,2.05107813e-01
-4.34437500e-08,2.05353125e-01
-4.34037500e-08,2.05273438e-01
-4.33637500e-08,2.05312500e-01
-4.33237500e-08,2.05301563e-01
-4.32837500e-08,2.05271875e-01
-4.32437500e-08,2.05481250e-01
-4.32037500e-08,2.05782813e-01
-4.31637500e-08,2.05635938e-01
-4.31237500e-08,2.05764063e-01
-4.30837500e-08,2.05615625e-01
-4.30437500e-08,2.05935937e-01
-4.30037500e-08,2.06126562e-01
-4.29637500e-08,2.06098438e-01
-4.29237500e-08,2.06089063e-01
-4.28837500e-08,2.06125000e-01
-4.28437500e-08,2.06046875e-01
-4.28037500e-08,2.06307813e-01
-4.27637500e-08,2.06553125e-01
-4.27237500e-08,2.06473438e-01
-4.26837500e-08,2.06515625e-01
-4.26437500e-08,2.06492188e-01
-4.26037500e-08,2.06500000e-01
-4.25637500e-08,2.06510938e-01
-4.25237500e-08,2.06462500e-01
-4.24837500e-08,2.06692188e-01
-4.24437500e-08,2.06970313e-01
-4.24037500e-08,2.06853125e-01
-4.23637500e-08,2.06937500e-01
-4.23237500e-08,2.06867187e-01
-4.22837500e-08,2.06931250e-01
-4.22437500e-08,2.06870313e-01
-4.22037500e-08,2.06931250e-01
-4.21637500e-08,2.06867187e-01
-4.21237500e-08,2.06937500e-01
-4.20837500e-08,2.06854688e-01
-4.20437500e-08,2.06970313e-01
-4.20037500e-08,2.06676562e-01
-4.19637500e-08,2.06460937e-01
-4.19237500e-08,2.06514063e-01
-4.18837500e-08,2.06495313e-01
-4.18437500e-08,2.06498438e-01
-4.18037500e-08,2.06506250e-01
-4.17637500e-08,2.06489063e-01
-4.17237500e-08,2.06517188e-01
-4.16837500e-08,2.06473438e-01
-4.16437500e-08,2.06551563e-01
-4.16037500e-08,2.06295312e-01
-4.15637500e-08,2.06042188e-01
-4.15237500e-08,2.06134375e-01
-4.14837500e-08,2.06073438e-01
-4.14437500e-08,2.06123438e-01
-4.14037500e-08,2.06078125e-01
-4.13637500e-08,2.06125000e-01
-4.13237500e-08,2.06067187e-01
-4.12837500e-08,2.06156250e-01
-4.12437500e-08,2.05892188e-01
-4.12037500e-08,2.05643750e-01
-4.11637500e-08,2.05732813e-01
-4.11237500e-08,2.05675000e-01
-4.10837500e-08,2.05721875e-01
-4.10437500e-08,2.05679688e-01
-4.10037500e-08,2.05720313e-01
-4.09637500e-08,2.05678125e-01
-4.09237500e-08,2.05726563e-01
-4.08837500e-08,2.05664063e-01
-4.08437500e-08,2.05759375e-01
-4.08037500e-08,2.05487500e-01
-4.07637500e-08,2.05250000e-01
-4.07237500e-08,2.05326563e-01
-4.06837500e-08,2.05282813e-01
-4.06437500e-08,2.05312500e-01
-4.06037500e-08,2.05289063e-01
-4.05637500e-08,2.05307813e-01
-4.05237500e-08,2.05292188e-01
-4.04837500e-08,2.05306250e-01
-4.04437500e-08,2.05293750e-01
-4.04037500e-08,2.05306250e-01
-4.03637500e-08,2.05293750e-01
-4.03237500e-08,2.05307813e-01
-4.02837500e-08,2.05292188e-01
-4.02437500e-08,2.05309375e-01
-4.02037500e-08,2.05287500e-01
-4.01637500e-08,2.05317187e-01
-4.01237500e-08,2.05273438e-01
-4.00837500e-08,2.05350000e-01
-4.00437500e-08,2.05096875e-01
-4.00037500e-08,2.04840625e-01
-3.99637500e-08,2.04935937e-01
-3.99237500e-08,2.04871875e-01
-3.98837500e-08,2.04923437e-01
-3.98437500e-08,2.04879688e-01
-3.98037500e-08,2.04920313e-01
-3.97637500e-08,2.04881250e-01
-3.97237500e-08,2.04918750e-01
-3.96837500e-08,2.04879688e-01
-3.96437500e-08,2.04921875e-01
-3.96037500e-08,2.04875000e-01
-3.95637500e-08,2.04929688e-01
-3.95237500e-08,2.04860938e-01
-3.94837500e-08,2.04964063e-01
-3.94437500e-08,2.04682813e-01
-3.94037500e-08,2.04454688e-01
-3.93637500e-08,2.04521875e-01
-3.93237500e-08,2.04489063e-01
-3.92837500e-08,2.04506250e-01
-3.92437500e-08,2.04498438e-01
-3.92037500e-08,2.04498438e-01
-3.91637500e-08,2.04504688e-01
-3.91237500e-08,2.04492188e-01
-3.90837500e-08,2.04514063e-01
-3.90437500e-08,2.04476563e-01
-3.90037500e-08,2.04548438e-01
-3.89637500e-08,2.04298438e-01
-3.89237500e-08,2.04039063e-01
-3.88837500e-08,2.04137500e-01
-3.88437500e-08,2.04071875e-01
-3.88037500e-08,2.04125000e-01
-3.87637500e-08,2.04078125e-01
-3.87237500e-08,2.04121875e-01
-3.86837500e-08,2.04076563e-01
-3.86437500e-08,2.04128125e-01
-3.86037500e-08,2.04064063e-01
-3.85637500e-08,2.04160938e-01
-3.85237500e-08,2.03887500e-01
