trails/00d3b5ca214f61c40c3d804afea55865/aes_ch1_20250506164251656.csv

Model,MSO66B
Label,
Waveform Type,ANALOG
Horizontal Units,s
Sample Interval,4.00000000e-11
Record Length,10000
Zero Index,1599.08984375
Vertical Units,A
ANALOG_Thumbnail,
yOffset,1.84500000e-01
yPosition,8.40000000e-01

Labels,
TIME,CH1
-6.39635937e-08,1.85284375e-01
-6.39235937e-08,1.85300000e-01
-6.38835938e-08,1.85315625e-01
-6.38435937e-08,1.85254688e-01
-6.38035938e-08,1.85501562e-01
-6.37635937e-08,1.85757813e-01
-6.37235937e-08,1.85670313e-01
-6.36835937e-08,1.85714062e-01
-6.36435937e-08,1.85701563e-01
-6.36035938e-08,1.85670313e-01
-6.35635937e-08,1.85884375e-01
-6.35235938e-08,1.86176563e-01
-6.34835937e-08,1.86048437e-01
-6.34435937e-08,1.86142188e-01
-6.34035937e-08,1.86060937e-01
-6.33635937e-08,1.86137500e-01
-6.33235938e-08,1.86060937e-01
-6.32835937e-08,1.86146875e-01
-6.32435938e-08,1.86029688e-01
-6.32035937e-08,1.86321875e-01
-6.31635937e-08,1.86542188e-01
-6.31235937e-08,1.86481250e-01
-6.30835937e-08,1.86510938e-01
-6.30435938e-08,1.86492188e-01
-6.30035937e-08,1.86504688e-01
-6.29635938e-08,1.86495313e-01
-6.29235937e-08,1.86504688e-01
-6.28835937e-08,1.86495313e-01
-6.28435937e-08,1.86504688e-01
-6.28035937e-08,1.86493750e-01
-6.27635938e-08,1.86507813e-01
-6.27235937e-08,1.86490625e-01
-6.26835938e-08,1.86514062e-01
-6.26435937e-08,1.86476562e-01
-6.26035937e-08,1.86548437e-01
-6.25635937e-08,1.86298437e-01
-6.25235937e-08,1.86037500e-01
-6.24835938e-08,1.86139063e-01
-6.24435937e-08,1.86068750e-01
-6.24035938e-08,1.86128125e-01
-6.23635937e-08,1.86071875e-01
-6.23235937e-08,1.86129688e-01
-6.22835937e-08,1.86062500e-01
-6.22435937e-08,1.86160938e-01
-6.22035938e-08,1.85887500e-01
-6.21635937e-08,1.85646875e-01
-6.21235937e-08,1.85731250e-01
-6.20835937e-08,1.85675000e-01
-6.20435937e-08,1.85725000e-01
-6.20035937e-08,1.85668750e-01
-6.19635937e-08,1.85753125e-01
-6.19235938e-08,1.85495313e-01
-6.18835937e-08,1.85240625e-01
-6.18435937e-08,1.85337500e-01
-6.18035937e-08,1.85267188e-01
-6.17635937e-08,1.85332812e-01
-6.17235937e-08,1.85260938e-01
-6.16835937e-08,1.85360938e-01
-6.16435938e-08,1.85087500e-01
-6.16035937e-08,1.84848438e-01
-6.15635937e-08,1.84929687e-01
-6.15235937e-08,1.84878125e-01
-6.14835937e-08,1.84918750e-01
-6.14435937e-08,1.84879688e-01
-6.14035937e-08,1.84923438e-01
-6.13635938e-08,1.84868750e-01
-6.13235937e-08,1.84954687e-01
-6.12835937e-08,1.84692187e-01
-6.12435937e-08,1.84443750e-01
-6.12035937e-08,1.84532813e-01
-6.11635937e-08,1.84475000e-01
-6.11235937e-08,1.84520313e-01
-6.10835938e-08,1.84481250e-01
-6.10435937e-08,1.84517188e-01
-6.10035937e-08,1.84482813e-01
-6.09635937e-08,1.84518750e-01
-6.09235937e-08,1.84479688e-01
-6.08835937e-08,1.84525000e-01
-6.08435937e-08,1.84465625e-01
-6.08035938e-08,1.84559375e-01
-6.07635937e-08,1.84289063e-01
-6.07235937e-08,1.84048437e-01
-6.06835937e-08,1.84128125e-01
-6.06435937e-08,1.84081250e-01
-6.06035937e-08,1.84114063e-01
-6.05635937e-08,1.84089063e-01
-6.05235938e-08,1.84109375e-01
-6.04835937e-08,1.84092188e-01
-6.04435937e-08,1.84107812e-01
-6.04035937e-08,1.84092188e-01
-6.03635937e-08,1.84106250e-01
-6.03235938e-08,1.84093750e-01
-6.02835937e-08,1.84106250e-01
-6.02435938e-08,1.84093750e-01
-6.02035937e-08,1.84106250e-01
-6.01635937e-08,1.84093750e-01
-6.01235937e-08,1.84106250e-01
-6.00835937e-08,1.84092188e-01
-6.00435938e-08,1.84107812e-01
-6.00035937e-08,1.84090625e-01
-5.99635938e-08,1.84109375e-01
-5.99235937e-08,1.84089063e-01
-5.98835937e-08,1.84112500e-01
-5.98435937e-08,1.84084375e-01
-5.98035937e-08,1.84121875e-01
-5.97635938e-08,1.84068750e-01
-5.97235937e-08,1.84156250e-01
-5.96835938e-08,1.83890625e-01
-5.96435937e-08,1.83646875e-01
-5.96035937e-08,1.83729688e-01
-5.95635937e-08,1.83679687e-01
-5.95235937e-08,1.83715625e-01
-5.94835937e-08,1.83687500e-01
-5.94435937e-08,1.83710938e-01
-5.94035937e-08,1.83690625e-01
-5.93635937e-08,1.83707813e-01
-5.93235937e-08,1.83693750e-01
-5.92835937e-08,1.83706250e-01
-5.92435937e-08,1.83693750e-01
-5.92035937e-08,1.83704688e-01
-5.91635937e-08,1.83695313e-01
-5.91235937e-08,1.83704688e-01
-5.90835937e-08,1.83696875e-01
-5.90435937e-08,1.83703125e-01
-5.90035937e-08,1.83696875e-01
-5.89635937e-08,1.83703125e-01
-5.89235937e-08,1.83696875e-01
-5.88835937e-08,1.83703125e-01
-5.88435937e-08,1.83696875e-01
-5.88035937e-08,1.83701562e-01
-5.87635937e-08,1.83698438e-01
-5.87235937e-08,1.83701562e-01
-5.86835937e-08,1.83698438e-01
-5.86435937e-08,1.83701562e-01
-5.86035937e-08,1.83698438e-01
-5.85635937e-08,1.83701562e-01
-5.85235937e-08,1.83698438e-01
-5.84835937e-08,1.83701562e-01
-5.84435937e-08,1.83698438e-01
-5.84035937e-08,1.83700000e-01
-5.83635937e-08,1.83700000e-01
-5.83235937e-08,1.83700000e-01
-5.82835937e-08,1.83700000e-01
-5.82435937e-08,1.83700000e-01
-5.82035937e-08,1.83700000e-01
-5.81635937e-08,1.83700000e-01
-5.81235937e-08,1.83701562e-01
-5.80835937e-08,1.83698438e-01
-5.80435937e-08,1.83701562e-01
-5.80035937e-08,1.83698438e-01
-5.79635937e-08,1.83701562e-01
-5.79235937e-08,1.83696875e-01
-5.78835937e-08,1.83703125e-01
-5.78435937e-08,1.83695313e-01
-5.78035937e-08,1.83706250e-01
-5.77635937e-08,1.83693750e-01
-5.77235937e-08,1.83709375e-01
-5.76835937e-08,1.83687500e-01
-5.76435937e-08,1.83717188e-01
-5.76035937e-08,1.83673438e-01
-5.75635937e-08,1.83751563e-01
-5.75235937e-08,1.83495313e-01
-5.74835937e-08,1.83242188e-01
-5.74435937e-08,1.83334375e-01
-5.74035937e-08,1.83275000e-01
-5.73635937e-08,1.83320312e-01
-5.73235937e-08,1.83281250e-01
-5.72835937e-08,1.83315625e-01
-5.72435937e-08,1.83284375e-01
-5.72035937e-08,1.83315625e-01
-5.71635937e-08,1.83284375e-01
-5.71235937e-08,1.83315625e-01
-5.70835937e-08,1.83282813e-01
-5.70435937e-08,1.83320312e-01
-5.70035937e-08,1.83276563e-01
-5.69635937e-08,1.83332812e-01
-5.69235937e-08,1.83242188e-01
-5.68835937e-08,1.83509375e-01
-5.68435937e-08,1.83753125e-01
-5.68035937e-08,1.83670313e-01
-5.67635937e-08,1.83720313e-01
-5.67235937e-08,1.83682813e-01
-5.66835937e-08,1.83714062e-01
-5.66435937e-08,1.83687500e-01
-5.66035937e-08,1.83712500e-01
-5.65635937e-08,1.83687500e-01
-5.65235937e-08,1.83714062e-01
-5.64835937e-08,1.83684375e-01
-5.64435937e-08,1.83718750e-01
-5.64035937e-08,1.83676563e-01
-5.63635937e-08,1.83732813e-01
-5.63235937e-08,1.83642187e-01
-5.62835937e-08,1.83910938e-01
-5.62435937e-08,1.84150000e-01
-5.62035937e-08,1.84075000e-01
-5.61635937e-08,1.84114063e-01
-5.61235937e-08,1.84092188e-01
-5.60835937e-08,1.84100000e-01
-5.60435937e-08,1.84110938e-01
-5.60035937e-08,1.84064063e-01
-5.59635937e-08,1.84289063e-01
-5.59235937e-08,1.84573437e-01
-5.58835937e-08,1.84448438e-01
-5.58435937e-08,1.84545313e-01
-5.58035937e-08,1.84454688e-01
-5.57635937e-08,1.84551563e-01
-5.57235937e-08,1.84425000e-01
-5.56835937e-08,1.84726562e-01
-5.56435937e-08,1.84935938e-01
-5.56035937e-08,1.84889063e-01
-5.55635937e-08,1.84901563e-01
-5.55235937e-08,1.84906250e-01
-5.54835937e-08,1.84887500e-01
-5.54435937e-08,1.84923438e-01
-5.54035937e-08,1.84850000e-01
-5.53635937e-08,1.85103125e-01
-5.53235937e-08,1.85359375e-01
-5.52835937e-08,1.85264062e-01
-5.52435937e-08,1.85328125e-01
-5.52035937e-08,1.85276563e-01
-5.51635937e-08,1.85321875e-01
-5.51235937e-08,1.85278125e-01
-5.50835937e-08,1.85323438e-01
-5.50435937e-08,1.85271875e-01
-5.50035937e-08,1.85335938e-01
-5.49635937e-08,1.85239062e-01
-5.49235937e-08,1.85512500e-01
-5.48835937e-08,1.85750000e-01
-5.48435937e-08,1.85673438e-01
-5.48035937e-08,1.85717188e-01
-5.47635937e-08,1.85687500e-01
-5.47235937e-08,1.85709375e-01
-5.46835937e-08,1.85693750e-01
-5.46435937e-08,1.85706250e-01
-5.46035937e-08,1.85695313e-01
-5.45635937e-08,1.85703125e-01
-5.45235937e-08,1.85698438e-01
-5.44835937e-08,1.85701563e-01
-5.44435937e-08,1.85700000e-01
-5.44035937e-08,1.85698438e-01
-5.43635937e-08,1.85703125e-01
-5.43235937e-08,1.85695313e-01
-5.42835937e-08,1.85707813e-01
-5.42435937e-08,1.85685938e-01
-5.42035937e-08,1.85723438e-01
-5.41635937e-08,1.85651563e-01
-5.41235937e-08,1.85901563e-01
-5.40835937e-08,1.86160938e-01
-5.40435937e-08,1.86062500e-01
-5.40035937e-08,1.86128125e-01
-5.39635937e-08,1.86076563e-01
-5.39235937e-08,1.86120312e-01
-5.38835937e-08,1.86081250e-01
-5.38435937e-08,1.86117188e-01
-5.38035937e-08,1.86082812e-01
-5.37635937e-08,1.86117188e-01
-5.37235937e-08,1.86082812e-01
-5.36835937e-08,1.86117188e-01
-5.36435937e-08,1.86082812e-01
-5.36035937e-08,1.86118750e-01
-5.35635937e-08,1.86079688e-01
-5.35235937e-08,1.86123438e-01
-5.34835937e-08,1.86071875e-01
-5.34435937e-08,1.86137500e-01
-5.34035937e-08,1.86037500e-01
-5.33635937e-08,1.86315625e-01
-5.33235937e-08,1.86546875e-01
-5.32835937e-08,1.86476562e-01
-5.32435937e-08,1.86514062e-01
-5.32035937e-08,1.86490625e-01
-5.31635937e-08,1.86506250e-01
-5.31235937e-08,1.86495313e-01
-5.30835937e-08,1.86503125e-01
-5.30435937e-08,1.86498438e-01
-5.30035937e-08,1.86501562e-01
-5.29635937e-08,1.86500000e-01
-5.29235938e-08,1.86500000e-01
-5.28835937e-08,1.86500000e-01
-5.28435937e-08,1.86498438e-01
-5.28035937e-08,1.86501562e-01
-5.27635937e-08,1.86498438e-01
-5.27235937e-08,1.86501562e-01
-5.26835937e-08,1.86498438e-01
-5.26435937e-08,1.86501562e-01
-5.26035937e-08,1.86498438e-01
-5.25635937e-08,1.86503125e-01
-5.25235937e-08,1.86496875e-01
-5.24835937e-08,1.86503125e-01
-5.24435937e-08,1.86496875e-01
-5.24035937e-08,1.86503125e-01
-5.23635937e-08,1.86496875e-01
-5.23235937e-08,1.86503125e-01
-5.22835937e-08,1.86496875e-01
-5.22435937e-08,1.86503125e-01
-5.22035937e-08,1.86495313e-01
-5.21635937e-08,1.86504688e-01
-5.21235937e-08,1.86495313e-01
-5.20835937e-08,1.86504688e-01
-5.20435937e-08,1.86493750e-01
-5.20035937e-08,1.86506250e-01
-5.19635937e-08,1.86493750e-01
-5.19235937e-08,1.86507813e-01
-5.18835937e-08,1.86490625e-01
-5.18435937e-08,1.86510938e-01
-5.18035937e-08,1.86487500e-01
-5.17635937e-08,1.86517188e-01
-5.17235937e-08,1.86473438e-01
-5.16835937e-08,1.86550000e-01
-5.16435937e-08,1.86296875e-01
-5.16035937e-08,1.86039063e-01
-5.15635937e-08,1.86139063e-01
-5.15235937e-08,1.86067188e-01
-5.14835937e-08,1.86134375e-01
-5.14435937e-08,1.86059375e-01
-5.14035937e-08,1.86164063e-01
-5.13635937e-08,1.85884375e-01
-5.13235937e-08,1.85654687e-01
-5.12835937e-08,1.85720313e-01
-5.12435937e-08,1.85692187e-01
-5.12035937e-08,1.85695313e-01
-5.11635937e-08,1.85729688e-01
-5.11235937e-08,1.85518750e-01
-5.10835937e-08,1.85217188e-01
-5.10435937e-08,1.85364063e-01
-5.10035938e-08,1.85234375e-01
-5.09635937e-08,1.85385938e-01
-5.09235937e-08,1.85062500e-01
-5.08835937e-08,1.84875000e-01
-5.08435937e-08,1.84898438e-01
-5.08035937e-08,1.84914063e-01
-5.07635937e-08,1.84871875e-01
-5.07235938e-08,1.84956250e-01
-5.06835937e-08,1.84687500e-01
-5.06435937e-08,1.84453125e-01
-5.06035937e-08,1.84520313e-01
-5.05635937e-08,1.84495313e-01
-5.05235937e-08,1.84490625e-01
-5.04835937e-08,1.84537500e-01
-5.04435937e-08,1.84307813e-01
-5.04035937e-08,1.84031250e-01
-5.03635937e-08,1.84145313e-01
-5.03235937e-08,1.84065625e-01
-5.02835937e-08,1.84129687e-01
-5.02435937e-08,1.84071875e-01
-5.02035937e-08,1.84126563e-01
-5.01635937e-08,1.84073437e-01
-5.01235937e-08,1.84128125e-01
-5.00835937e-08,1.84070312e-01
-5.00435937e-08,1.84134375e-01
-5.00035937e-08,1.84054688e-01
-4.99635937e-08,1.84170313e-01
-4.99235937e-08,1.83875000e-01
-4.98835937e-08,1.83665625e-01
-4.98435937e-08,1.83706250e-01
-4.98035937e-08,1.83712500e-01
-4.97635937e-08,1.83657813e-01
-4.97235937e-08,1.83896875e-01
-4.96835937e-08,1.84162500e-01
-4.96435937e-08,1.84060938e-01
-4.96035937e-08,1.84128125e-01
-4.95635937e-08,1.84076563e-01
-4.95235937e-08,1.84118750e-01
-4.94835937e-08,1.84082812e-01
-4.94435937e-08,1.84115625e-01
-4.94035937e-08,1.84085938e-01
-4.93635937e-08,1.84114063e-01
-4.93235937e-08,1.84087500e-01
-4.92835937e-08,1.84112500e-01
-4.92435937e-08,1.84087500e-01
-4.92035937e-08,1.84112500e-01
-4.91635937e-08,1.84087500e-01
-4.91235937e-08,1.84112500e-01
-4.90835938e-08,1.84087500e-01
-4.90435937e-08,1.84114063e-01
-4.90035937e-08,1.84085938e-01
-4.89635937e-08,1.84115625e-01
-4.89235937e-08,1.84082812e-01
-4.88835937e-08,1.84120312e-01
-4.88435937e-08,1.84075000e-01
-4.88035938e-08,1.84135938e-01
-4.87635937e-08,1.84040625e-01
-4.87235937e-08,1.84312500e-01
-4.86835937e-08,1.84548437e-01
-4.86435937e-08,1.84475000e-01
-4.86035937e-08,1.84515625e-01
-4.85635937e-08,1.84489062e-01
-4.85235938e-08,1.84507813e-01
-4.84835937e-08,1.84493750e-01
-4.84435937e-08,1.84504688e-01
-4.84035937e-08,1.84496875e-01
-4.83635937e-08,1.84503125e-01
-4.83235937e-08,1.84498438e-01
-4.82835937e-08,1.84501562e-01
-4.82435937e-08,1.84498438e-01
-4.82035937e-08,1.84500000e-01
-4.81635937e-08,1.84500000e-01
-4.81235937e-08,1.84500000e-01
-4.80835937e-08,1.84500000e-01
-4.80435937e-08,1.84500000e-01
-4.80035937e-08,1.84500000e-01
-4.79635937e-08,1.84498438e-01
-4.79235937e-08,1.84501562e-01
-4.78835937e-08,1.84498438e-01
-4.78435937e-08,1.84501562e-01
-4.78035937e-08,1.84498438e-01
-4.77635937e-08,1.84501562e-01
-4.77235937e-08,1.84498438e-01
-4.76835937e-08,1.84501562e-01
-4.76435937e-08,1.84498438e-01
-4.76035937e-08,1.84503125e-01
-4.75635937e-08,1.84496875e-01
-4.75235937e-08,1.84503125e-01
-4.74835937e-08,1.84496875e-01
-4.74435937e-08,1.84503125e-01
-4.74035937e-08,1.84496875e-01
-4.73635937e-08,1.84503125e-01
-4.73235937e-08,1.84496875e-01
-4.72835937e-08,1.84503125e-01
-4.72435937e-08,1.84496875e-01
-4.72035937e-08,1.84503125e-01
-4.71635938e-08,1.84495313e-01
-4.71235937e-08,1.84504688e-01
-4.70835937e-08,1.84495313e-01
-4.70435937e-08,1.84504688e-01
-4.70035937e-08,1.84495313e-01
-4.69635937e-08,1.84504688e-01
-4.69235937e-08,1.84495313e-01
-4.68835938e-08,1.84506250e-01
-4.68435937e-08,1.84493750e-01
-4.68035937e-08,1.84506250e-01
-4.67635937e-08,1.84493750e-01
-4.67235937e-08,1.84506250e-01
-4.66835937e-08,1.84492188e-01
-4.66435937e-08,1.84507813e-01
-4.66035938e-08,1.84492188e-01
-4.65635937e-08,1.84509375e-01
-4.65235937e-08,1.84489062e-01
-4.64835937e-08,1.84510937e-01
-4.64435937e-08,1.84487500e-01
-4.64035937e-08,1.84515625e-01
-4.63635937e-08,1.84481250e-01
-4.63235938e-08,1.84523437e-01
-4.62835937e-08,1.84467188e-01
-4.62435937e-08,1.84557813e-01
-4.62035937e-08,1.84289063e-01
-4.61635937e-08,1.84050000e-01
-4.61235937e-08,1.84126563e-01
-4.60835937e-08,1.84082812e-01
-4.60435937e-08,1.84112500e-01
-4.60035937e-08,1.84090625e-01
-4.59635937e-08,1.84106250e-01
-4.59235937e-08,1.84095312e-01
-4.58835937e-08,1.84104688e-01
-4.58435937e-08,1.84096875e-01
-4.58035937e-08,1.84101563e-01
-4.57635937e-08,1.84098438e-01
-4.57235937e-08,1.84100000e-01
-4.56835937e-08,1.84100000e-01
-4.56435937e-08,1.84100000e-01
-4.56035937e-08,1.84101563e-01
-4.55635937e-08,1.84098438e-01
-4.55235937e-08,1.84101563e-01
-4.54835937e-08,1.84096875e-01
-4.54435937e-08,1.84103125e-01
-4.54035937e-08,1.84095312e-01
-4.53635937e-08,1.84104688e-01
-4.53235937e-08,1.84093750e-01
-4.52835937e-08,1.84106250e-01
-4.52435938e-08,1.84092188e-01
-4.52035937e-08,1.84109375e-01
-4.51635937e-08,1.84089063e-01
-4.51235937e-08,1.84112500e-01
-4.50835937e-08,1.84084375e-01
-4.50435937e-08,1.84120312e-01
-4.50035937e-08,1.84068750e-01
-4.49635938e-08,1.84156250e-01
-4.49235937e-08,1.83890625e-01
-4.48835937e-08,1.83646875e-01
-4.48435937e-08,1.83728125e-01
-4.48035937e-08,1.83681250e-01
-4.47635937e-08,1.83714062e-01
-4.47235937e-08,1.83689062e-01
-4.46835938e-08,1.83709375e-01
-4.46435937e-08,1.83692187e-01
-4.46035937e-08,1.83706250e-01
-4.45635937e-08,1.83695313e-01
-4.45235937e-08,1.83703125e-01
-4.44835937e-08,1.83696875e-01
-4.44435937e-08,1.83701562e-01
-4.44035938e-08,1.83698438e-01
-4.43635937e-08,1.83701562e-01
-4.43235937e-08,1.83700000e-01
-4.42835937e-08,1.83700000e-01
-4.42435937e-08,1.83701562e-01
-4.42035937e-08,1.83698438e-01
-4.41635937e-08,1.83701562e-01
-4.41235938e-08,1.83696875e-01
-4.40835937e-08,1.83703125e-01
-4.40435937e-08,1.83695313e-01
-4.40035937e-08,1.83706250e-01
-4.39635937e-08,1.83692187e-01
-4.39235937e-08,1.83709375e-01
-4.38835937e-08,1.83689062e-01
-4.38435937e-08,1.83714062e-01
-4.38035937e-08,1.83679687e-01
-4.37635937e-08,1.83729688e-01
-4.37235937e-08,1.83645313e-01
-4.36835937e-08,1.83909375e-01
-4.36435937e-08,1.84153125e-01
-4.36035937e-08,1.84071875e-01
-4.35635937e-08,1.84118750e-01
-4.35235937e-08,1.84085938e-01
-4.34835937e-08,1.84109375e-01
-4.34435937e-08,1.84093750e-01
-4.34035937e-08,1.84104688e-01
-4.33635937e-08,1.84098438e-01
-4.33235938e-08,1.84098438e-01
-4.32835937e-08,1.84104688e-01
-4.32435937e-08,1.84089063e-01
-4.32035937e-08,1.84120312e-01
-4.31635937e-08,1.84054688e-01
-4.31235937e-08,1.84298437e-01
-4.30835937e-08,1.84562500e-01
-4.30435938e-08,1.84460938e-01
-4.30035937e-08,1.84529688e-01
-4.29635937e-08,1.84475000e-01
-4.29235937e-08,1.84521875e-01
-4.28835937e-08,1.84479688e-01
-4.28435937e-08,1.84520313e-01
-4.28035937e-08,1.84481250e-01
-4.27635938e-08,1.84520313e-01
-4.27235937e-08,1.84479688e-01
-4.26835937e-08,1.84523437e-01
-4.26435937e-08,1.84471875e-01
-4.26035937e-08,1.84535937e-01
-4.25635937e-08,1.84439063e-01
-4.25235937e-08,1.84712500e-01
-4.24835938e-08,1.84950000e-01
-4.24435937e-08,1.84873438e-01
-4.24035937e-08,1.84917187e-01
-4.23635937e-08,1.84885938e-01
-4.23235937e-08,1.84910938e-01
-4.22835937e-08,1.84890625e-01
-4.22435937e-08,1.84909375e-01
-4.22035938e-08,1.84890625e-01
-4.21635937e-08,1.84909375e-01
-4.21235937e-08,1.84890625e-01
-4.20835937e-08,1.84909375e-01
-4.20435937e-08,1.84889063e-01
-4.20035937e-08,1.84912500e-01
-4.19635937e-08,1.84884375e-01
-4.19235938e-08,1.84921875e-01
-4.18835937e-08,1.84868750e-01
-4.18435937e-08,1.84956250e-01
-4.18035937e-08,1.84690625e-01
-4.17635937e-08,1.84446875e-01
-4.17235937e-08,1.84529688e-01
-4.16835937e-08,1.84481250e-01
-4.16435937e-08,1.84514063e-01
-4.16035937e-08,1.84489062e-01
-4.15635937e-08,1.84507813e-01
-4.15235937e-08,1.84493750e-01
-4.14835937e-08,1.84504688e-01
-4.14435937e-08,1.84498438e-01
-4.14035938e-08,1.84500000e-01
-4.13635937e-08,1.84503125e-01
-4.13235937e-08,1.84493750e-01
-4.12835937e-08,1.84510937e-01
-4.12435937e-08,1.84478125e-01
-4.12035937e-08,1.84546875e-01
-4.11635937e-08,1.84300000e-01
-4.11235938e-08,1.84037500e-01
-4.10835937e-08,1.84139063e-01
-4.10435937e-08,1.84070312e-01
-4.10035937e-08,1.84123438e-01
-4.09635937e-08,1.84079688e-01
-4.09235937e-08,1.84118750e-01
-4.08835937e-08,1.84082812e-01
-4.08435938e-08,1.84115625e-01
-4.08035937e-08,1.84084375e-01
-4.07635937e-08,1.84115625e-01
-4.07235937e-08,1.84085938e-01
-4.06835937e-08,1.84114063e-01
-4.06435937e-08,1.84085938e-01
-4.06035937e-08,1.84114063e-01
-4.05635938e-08,1.84085938e-01
-4.05235937e-08,1.84114063e-01
-4.04835937e-08,1.84085938e-01
-4.04435937e-08,1.84114063e-01
-4.04035937e-08,1.84085938e-01
-4.03635937e-08,1.84114063e-01
-4.03235937e-08,1.84085938e-01
-4.02835938e-08,1.84114063e-01
-4.02435937e-08,1.84084375e-01
-4.02035937e-08,1.84115625e-01
-4.01635937e-08,1.84082812e-01
-4.01235937e-08,1.84118750e-01
-4.00835937e-08,1.84079688e-01
-4.00435937e-08,1.84123438e-01
-4.00035938e-08,1.84070312e-01
-3.99635937e-08,1.84139063e-01
-3.99235937e-08,1.84035937e-01
-3.98835937e-08,1.84317188e-01
-3.98435937e-08,1.84543750e-01
-3.98035937e-08,1.84479688e-01
-3.97635937e-08,1.84509375e-01
-3.97235937e-08,1.84495313e-01
-3.96835937e-08,1.84500000e-01
-3.96435937e-08,1.84503125e-01
-3.96035937e-08,1.84493750e-01
-3.95635937e-08,1.84510937e-01
-3.95235937e-08,1.84484375e-01
-3.94835938e-08,1.84526563e-01
-3.94435937e-08,1.84448438e-01
-3.94035937e-08,1.84704688e-01
-3.93635937e-08,1.84956250e-01
-3.93235937e-08,1.84867188e-01
-3.92835937e-08,1.84923438e-01
-3.92435937e-08,1.84881250e-01
-3.92035938e-08,1.84915625e-01
-3.91635937e-08,1.84885938e-01
-3.91235937e-08,1.84912500e-01
-3.90835937e-08,1.84889063e-01
-3.90435937e-08,1.84910938e-01
-3.90035937e-08,1.84889063e-01
-3.89635937e-08,1.84909375e-01
-3.89235938e-08,1.84889063e-01
-3.88835937e-08,1.84910938e-01
-3.88435937e-08,1.84889063e-01
-3.88035937e-08,1.84912500e-01
-3.87635937e-08,1.84885938e-01
-3.87235937e-08,1.84917187e-01
-3.86835937e-08,1.84878125e-01
-3.86435938e-08,1.84931250e-01
-3.86035937e-08,1.84843750e-01
-3.85635937e-08,1.85109375e-01
-3.85235937e-08,1.85353125e-01
