trails/00d3b5ca214f61c40c3d804afea55865/aes_ch1_20250506163608844.csv

Model,MSO66B
Label,
Waveform Type,ANALOG
Horizontal Units,s
Sample Interval,4.00000000e-11
Record Length,10000
Zero Index,1599.12109375
Vertical Units,A
ANALOG_Thumbnail,
yOffset,1.84500000e-01
yPosition,8.40000000e-01

Labels,
TIME,CH1
-6.39648437e-08,2.06135938e-01
-6.39248438e-08,2.06073438e-01
-6.38848437e-08,2.06121875e-01
-6.38448438e-08,2.06081250e-01
-6.38048437e-08,2.06115625e-01
-6.37648437e-08,2.06085938e-01
-6.37248437e-08,2.06114063e-01
-6.36848437e-08,2.06087500e-01
-6.36448438e-08,2.06112500e-01
-6.36048437e-08,2.06089063e-01
-6.35648438e-08,2.06110938e-01
-6.35248437e-08,2.06089063e-01
-6.34848437e-08,2.06109375e-01
-6.34448437e-08,2.06090625e-01
-6.34048437e-08,2.06109375e-01
-6.33648438e-08,2.06090625e-01
-6.33248437e-08,2.06109375e-01
-6.32848437e-08,2.06090625e-01
-6.32448437e-08,2.06109375e-01
-6.32048437e-08,2.06090625e-01
-6.31648437e-08,2.06109375e-01
-6.31248437e-08,2.06090625e-01
-6.30848438e-08,2.06109375e-01
-6.30448437e-08,2.06090625e-01
-6.30048437e-08,2.06109375e-01
-6.29648437e-08,2.06090625e-01
-6.29248437e-08,2.06109375e-01
-6.28848437e-08,2.06090625e-01
-6.28448437e-08,2.06109375e-01
-6.28048438e-08,2.06090625e-01
-6.27648437e-08,2.06109375e-01
-6.27248437e-08,2.06089063e-01
-6.26848437e-08,2.06110938e-01
-6.26448437e-08,2.06089063e-01
-6.26048437e-08,2.06112500e-01
-6.25648437e-08,2.06087500e-01
-6.25248438e-08,2.06114063e-01
-6.24848437e-08,2.06085938e-01
-6.24448437e-08,2.06115625e-01
-6.24048437e-08,2.06081250e-01
-6.23648437e-08,2.06121875e-01
-6.23248437e-08,2.06073438e-01
-6.22848437e-08,2.06135938e-01
-6.22448438e-08,2.06039063e-01
-6.22048437e-08,2.06314063e-01
-6.21648437e-08,2.06548438e-01
-6.21248437e-08,2.06476563e-01
-6.20848437e-08,2.06514063e-01
-6.20448437e-08,2.06490625e-01
-6.20048437e-08,2.06506250e-01
-6.19648438e-08,2.06496875e-01
-6.19248437e-08,2.06501563e-01
-6.18848437e-08,2.06500000e-01
-6.18448437e-08,2.06498438e-01
-6.18048437e-08,2.06503125e-01
-6.17648437e-08,2.06495313e-01
-6.17248437e-08,2.06506250e-01
-6.16848438e-08,2.06490625e-01
-6.16448437e-08,2.06512500e-01
-6.16048437e-08,2.06482813e-01
-6.15648437e-08,2.06526563e-01
-6.15248437e-08,2.06448437e-01
-6.14848437e-08,2.06704688e-01
-6.14448437e-08,2.06957813e-01
-6.14048438e-08,2.06865625e-01
-6.13648437e-08,2.06925000e-01
-6.13248437e-08,2.06878125e-01
-6.12848437e-08,2.06918750e-01
-6.12448437e-08,2.06881250e-01
-6.12048438e-08,2.06920313e-01
-6.11648437e-08,2.06876562e-01
-6.11248438e-08,2.06931250e-01
-6.10848437e-08,2.06843750e-01
-6.10448437e-08,2.07107813e-01
-6.10048437e-08,2.07356250e-01
-6.09648437e-08,2.07267188e-01
-6.09248438e-08,2.07325000e-01
-6.08848437e-08,2.07278125e-01
-6.08448438e-08,2.07320312e-01
-6.08048437e-08,2.07279688e-01
-6.07648437e-08,2.07321875e-01
-6.07248437e-08,2.07273438e-01
-6.06848437e-08,2.07335938e-01
-6.06448438e-08,2.07239063e-01
-6.06048437e-08,2.07512500e-01
-6.05648438e-08,2.07750000e-01
-6.05248437e-08,2.07673438e-01
-6.04848437e-08,2.07717188e-01
-6.04448437e-08,2.07687500e-01
-6.04048437e-08,2.07709375e-01
-6.03648438e-08,2.07693750e-01
-6.03248437e-08,2.07704688e-01
-6.02848438e-08,2.07695313e-01
-6.02448437e-08,2.07703125e-01
-6.02048437e-08,2.07696875e-01
-6.01648437e-08,2.07701562e-01
-6.01248437e-08,2.07698437e-01
-6.00848438e-08,2.07701562e-01
-6.00448437e-08,2.07700000e-01
-6.00048438e-08,2.07700000e-01
-5.99648437e-08,2.07700000e-01
-5.99248437e-08,2.07700000e-01
-5.98848437e-08,2.07700000e-01
-5.98448437e-08,2.07698437e-01
-5.98048438e-08,2.07701562e-01
-5.97648437e-08,2.07698437e-01
-5.97248438e-08,2.07701562e-01
-5.96848437e-08,2.07698437e-01
-5.96448437e-08,2.07703125e-01
-5.96048437e-08,2.07696875e-01
-5.95648437e-08,2.07703125e-01
-5.95248437e-08,2.07696875e-01
-5.94848437e-08,2.07704688e-01
-5.94448437e-08,2.07695313e-01
-5.94048437e-08,2.07704688e-01
-5.93648437e-08,2.07693750e-01
-5.93248437e-08,2.07706250e-01
-5.92848437e-08,2.07692188e-01
-5.92448437e-08,2.07709375e-01
-5.92048437e-08,2.07689063e-01
-5.91648437e-08,2.07712500e-01
-5.91248437e-08,2.07684375e-01
-5.90848437e-08,2.07721875e-01
-5.90448437e-08,2.07668750e-01
-5.90048437e-08,2.07756250e-01
-5.89648437e-08,2.07490625e-01
-5.89248437e-08,2.07246875e-01
-5.88848437e-08,2.07328125e-01
-5.88448437e-08,2.07281250e-01
-5.88048437e-08,2.07314063e-01
-5.87648437e-08,2.07289063e-01
-5.87248437e-08,2.07309375e-01
-5.86848437e-08,2.07292188e-01
-5.86448437e-08,2.07306250e-01
-5.86048437e-08,2.07295312e-01
-5.85648437e-08,2.07304688e-01
-5.85248437e-08,2.07296875e-01
-5.84848437e-08,2.07303125e-01
-5.84448437e-08,2.07298438e-01
-5.84048437e-08,2.07301563e-01
-5.83648437e-08,2.07300000e-01
-5.83248437e-08,2.07300000e-01
-5.82848437e-08,2.07300000e-01
-5.82448437e-08,2.07298438e-01
-5.82048437e-08,2.07301563e-01
-5.81648437e-08,2.07296875e-01
-5.81248437e-08,2.07303125e-01
-5.80848437e-08,2.07296875e-01
-5.80448437e-08,2.07304688e-01
-5.80048437e-08,2.07293750e-01
-5.79648437e-08,2.07307813e-01
-5.79248437e-08,2.07290625e-01
-5.78848437e-08,2.07310938e-01
-5.78448437e-08,2.07285938e-01
-5.78048437e-08,2.07320312e-01
-5.77648437e-08,2.07270312e-01
-5.77248437e-08,2.07354688e-01
-5.76848437e-08,2.07092187e-01
-5.76448437e-08,2.06846875e-01
-5.76048437e-08,2.06929688e-01
-5.75648437e-08,2.06881250e-01
-5.75248437e-08,2.06914062e-01
-5.74848437e-08,2.06889062e-01
-5.74448437e-08,2.06907813e-01
-5.74048437e-08,2.06893750e-01
-5.73648437e-08,2.06903125e-01
-5.73248437e-08,2.06898438e-01
-5.72848437e-08,2.06900000e-01
-5.72448437e-08,2.06903125e-01
-5.72048437e-08,2.06892188e-01
-5.71648437e-08,2.06912500e-01
-5.71248437e-08,2.06878125e-01
-5.70848437e-08,2.06948437e-01
-5.70448437e-08,2.06698437e-01
-5.70048437e-08,2.06439063e-01
-5.69648437e-08,2.06537500e-01
-5.69248437e-08,2.06473438e-01
-5.68848437e-08,2.06521875e-01
-5.68448437e-08,2.06481250e-01
-5.68048437e-08,2.06517188e-01
-5.67648437e-08,2.06484375e-01
-5.67248437e-08,2.06514063e-01
-5.66848437e-08,2.06487500e-01
-5.66448437e-08,2.06512500e-01
-5.66048437e-08,2.06489063e-01
-5.65648437e-08,2.06510938e-01
-5.65248437e-08,2.06490625e-01
-5.64848437e-08,2.06509375e-01
-5.64448437e-08,2.06490625e-01
-5.64048437e-08,2.06509375e-01
-5.63648437e-08,2.06490625e-01
-5.63248437e-08,2.06507812e-01
-5.62848437e-08,2.06492188e-01
-5.62448437e-08,2.06507812e-01
-5.62048437e-08,2.06492188e-01
-5.61648437e-08,2.06507812e-01
-5.61248437e-08,2.06492188e-01
-5.60848437e-08,2.06507812e-01
-5.60448437e-08,2.06492188e-01
-5.60048437e-08,2.06507812e-01
-5.59648437e-08,2.06493750e-01
-5.59248437e-08,2.06506250e-01
-5.58848437e-08,2.06493750e-01
-5.58448437e-08,2.06506250e-01
-5.58048437e-08,2.06493750e-01
-5.57648437e-08,2.06506250e-01
-5.57248437e-08,2.06493750e-01
-5.56848437e-08,2.06506250e-01
-5.56448437e-08,2.06493750e-01
-5.56048437e-08,2.06506250e-01
-5.55648437e-08,2.06493750e-01
-5.55248437e-08,2.06506250e-01
-5.54848437e-08,2.06493750e-01
-5.54448437e-08,2.06506250e-01
-5.54048437e-08,2.06493750e-01
-5.53648437e-08,2.06506250e-01
-5.53248437e-08,2.06493750e-01
-5.52848437e-08,2.06506250e-01
-5.52448437e-08,2.06493750e-01
-5.52048437e-08,2.06506250e-01
-5.51648437e-08,2.06493750e-01
-5.51248437e-08,2.06506250e-01
-5.50848437e-08,2.06493750e-01
-5.50448437e-08,2.06507812e-01
-5.50048437e-08,2.06492188e-01
-5.49648437e-08,2.06507812e-01
-5.49248437e-08,2.06492188e-01
-5.48848437e-08,2.06507812e-01
-5.48448437e-08,2.06492188e-01
-5.48048437e-08,2.06509375e-01
-5.47648437e-08,2.06490625e-01
-5.47248437e-08,2.06510938e-01
-5.46848437e-08,2.06487500e-01
-5.46448437e-08,2.06514063e-01
-5.46048437e-08,2.06482813e-01
-5.45648437e-08,2.06521875e-01
-5.45248437e-08,2.06468750e-01
-5.44848437e-08,2.06556250e-01
-5.44448437e-08,2.06290625e-01
-5.44048437e-08,2.06046875e-01
-5.43648437e-08,2.06129688e-01
-5.43248437e-08,2.06078125e-01
-5.42848437e-08,2.06117188e-01
-5.42448437e-08,2.06085938e-01
-5.42048437e-08,2.06112500e-01
-5.41648437e-08,2.06087500e-01
-5.41248437e-08,2.06112500e-01
-5.40848437e-08,2.06087500e-01
-5.40448437e-08,2.06114063e-01
-5.40048437e-08,2.06082813e-01
-5.39648437e-08,2.06121875e-01
-5.39248437e-08,2.06068750e-01
-5.38848437e-08,2.06154688e-01
-5.38448437e-08,2.05892188e-01
-5.38048438e-08,2.05645313e-01
-5.37648437e-08,2.05731250e-01
-5.37248437e-08,2.05678125e-01
-5.36848437e-08,2.05717188e-01
-5.36448437e-08,2.05685937e-01
-5.36048437e-08,2.05712500e-01
-5.35648437e-08,2.05689063e-01
-5.35248437e-08,2.05710937e-01
-5.34848437e-08,2.05690625e-01
-5.34448437e-08,2.05709375e-01
-5.34048437e-08,2.05690625e-01
-5.33648437e-08,2.05709375e-01
-5.33248437e-08,2.05690625e-01
-5.32848437e-08,2.05709375e-01
-5.32448437e-08,2.05690625e-01
-5.32048437e-08,2.05709375e-01
-5.31648437e-08,2.05690625e-01
-5.31248437e-08,2.05709375e-01
-5.30848437e-08,2.05690625e-01
-5.30448437e-08,2.05709375e-01
-5.30048437e-08,2.05689063e-01
-5.29648437e-08,2.05710937e-01
-5.29248437e-08,2.05687500e-01
-5.28848437e-08,2.05714063e-01
-5.28448437e-08,2.05684375e-01
-5.28048437e-08,2.05718750e-01
-5.27648437e-08,2.05676562e-01
-5.27248437e-08,2.05732813e-01
-5.26848437e-08,2.05642188e-01
-5.26448437e-08,2.05910938e-01
-5.26048437e-08,2.06151562e-01
-5.25648437e-08,2.06071875e-01
-5.25248437e-08,2.06118750e-01
-5.24848437e-08,2.06085938e-01
-5.24448437e-08,2.06110938e-01
-5.24048437e-08,2.06090625e-01
-5.23648437e-08,2.06107813e-01
-5.23248437e-08,2.06093750e-01
-5.22848437e-08,2.06106250e-01
-5.22448437e-08,2.06095313e-01
-5.22048437e-08,2.06104687e-01
-5.21648437e-08,2.06095313e-01
-5.21248437e-08,2.06104687e-01
-5.20848437e-08,2.06095313e-01
-5.20448437e-08,2.06104687e-01
-5.20048437e-08,2.06095313e-01
-5.19648437e-08,2.06104687e-01
-5.19248437e-08,2.06093750e-01
-5.18848438e-08,2.06106250e-01
-5.18448437e-08,2.06092187e-01
-5.18048437e-08,2.06109375e-01
-5.17648437e-08,2.06089063e-01
-5.17248437e-08,2.06114063e-01
-5.16848437e-08,2.06081250e-01
-5.16448437e-08,2.06128125e-01
-5.16048438e-08,2.06046875e-01
-5.15648437e-08,2.06306250e-01
-5.15248437e-08,2.06556250e-01
-5.14848437e-08,2.06467188e-01
-5.14448437e-08,2.06523438e-01
-5.14048437e-08,2.06481250e-01
-5.13648437e-08,2.06515625e-01
-5.13248437e-08,2.06485937e-01
-5.12848437e-08,2.06512500e-01
-5.12448437e-08,2.06487500e-01
-5.12048437e-08,2.06510938e-01
-5.11648437e-08,2.06489063e-01
-5.11248437e-08,2.06510938e-01
-5.10848437e-08,2.06490625e-01
-5.10448437e-08,2.06509375e-01
-5.10048437e-08,2.06490625e-01
-5.09648437e-08,2.06509375e-01
-5.09248437e-08,2.06490625e-01
-5.08848437e-08,2.06509375e-01
-5.08448437e-08,2.06490625e-01
-5.08048437e-08,2.06509375e-01
-5.07648437e-08,2.06489063e-01
-5.07248437e-08,2.06510938e-01
-5.06848437e-08,2.06489063e-01
-5.06448437e-08,2.06510938e-01
-5.06048437e-08,2.06487500e-01
-5.05648437e-08,2.06512500e-01
-5.05248437e-08,2.06485937e-01
-5.04848437e-08,2.06515625e-01
-5.04448437e-08,2.06482813e-01
-5.04048437e-08,2.06520312e-01
-5.03648437e-08,2.06473438e-01
-5.03248437e-08,2.06535938e-01
-5.02848437e-08,2.06439063e-01
-5.02448437e-08,2.06714063e-01
-5.02048437e-08,2.06948437e-01
-5.01648437e-08,2.06875000e-01
-5.01248437e-08,2.06915625e-01
-5.00848437e-08,2.06889062e-01
-5.00448437e-08,2.06907813e-01
-5.00048437e-08,2.06895313e-01
-4.99648438e-08,2.06903125e-01
-4.99248437e-08,2.06896875e-01
-4.98848437e-08,2.06901562e-01
-4.98448437e-08,2.06900000e-01
-4.98048437e-08,2.06900000e-01
-4.97648437e-08,2.06900000e-01
-4.97248437e-08,2.06898438e-01
-4.96848438e-08,2.06901562e-01
-4.96448437e-08,2.06898438e-01
-4.96048437e-08,2.06903125e-01
-4.95648437e-08,2.06896875e-01
-4.95248437e-08,2.06903125e-01
-4.94848437e-08,2.06895313e-01
-4.94448437e-08,2.06904688e-01
-4.94048437e-08,2.06895313e-01
-4.93648437e-08,2.06906250e-01
-4.93248437e-08,2.06893750e-01
-4.92848437e-08,2.06906250e-01
-4.92448437e-08,2.06892188e-01
-4.92048437e-08,2.06909375e-01
-4.91648437e-08,2.06889062e-01
-4.91248437e-08,2.06912500e-01
-4.90848437e-08,2.06884375e-01
-4.90448437e-08,2.06920313e-01
-4.90048437e-08,2.06870313e-01
-4.89648437e-08,2.06954688e-01
-4.89248437e-08,2.06692188e-01
-4.88848437e-08,2.06445313e-01
-4.88448437e-08,2.06531250e-01
-4.88048437e-08,2.06476563e-01
-4.87648437e-08,2.06520312e-01
-4.87248437e-08,2.06481250e-01
-4.86848437e-08,2.06521875e-01
-4.86448437e-08,2.06471875e-01
-4.86048437e-08,2.06551563e-01
-4.85648437e-08,2.06298438e-01
-4.85248437e-08,2.06037500e-01
-4.84848437e-08,2.06142188e-01
-4.84448437e-08,2.06064063e-01
-4.84048437e-08,2.06137500e-01
-4.83648437e-08,2.06054688e-01
-4.83248437e-08,2.06170313e-01
-4.82848437e-08,2.05876562e-01
-4.82448437e-08,2.05660938e-01
-4.82048437e-08,2.05712500e-01
-4.81648437e-08,2.05701563e-01
-4.81248437e-08,2.05685937e-01
-4.80848437e-08,2.05742188e-01
-4.80448438e-08,2.05504688e-01
-4.80048437e-08,2.05234375e-01
-4.79648437e-08,2.05343750e-01
-4.79248437e-08,2.05264063e-01
-4.78848437e-08,2.05334375e-01
-4.78448437e-08,2.05259375e-01
-4.78048437e-08,2.05362500e-01
-4.77648438e-08,2.05087500e-01
-4.77248437e-08,2.04848438e-01
-4.76848437e-08,2.04929688e-01
-4.76448437e-08,2.04876562e-01
-4.76048437e-08,2.04921875e-01
-4.75648437e-08,2.04878125e-01
-4.75248437e-08,2.04925000e-01
-4.74848438e-08,2.04865625e-01
-4.74448437e-08,2.04959375e-01
-4.74048437e-08,2.04689063e-01
-4.73648437e-08,2.04448437e-01
-4.73248437e-08,2.04526563e-01
-4.72848437e-08,2.04481250e-01
-4.72448437e-08,2.04512500e-01
-4.72048437e-08,2.04490625e-01
-4.71648437e-08,2.04507812e-01
-4.71248437e-08,2.04493750e-01
-4.70848437e-08,2.04504688e-01
-4.70448437e-08,2.04496875e-01
-4.70048437e-08,2.04503125e-01
-4.69648437e-08,2.04498438e-01
-4.69248437e-08,2.04500000e-01
-4.68848437e-08,2.04501563e-01
-4.68448437e-08,2.04498438e-01
-4.68048437e-08,2.04504688e-01
-4.67648437e-08,2.04493750e-01
-4.67248437e-08,2.04509375e-01
-4.66848437e-08,2.04485937e-01
-4.66448437e-08,2.04523438e-01
-4.66048437e-08,2.04451563e-01
-4.65648437e-08,2.04701563e-01
-4.65248437e-08,2.04960937e-01
-4.64848437e-08,2.04860938e-01
-4.64448437e-08,2.04929688e-01
-4.64048437e-08,2.04873438e-01
-4.63648437e-08,2.04926563e-01
-4.63248437e-08,2.04871875e-01
-4.62848437e-08,2.04935937e-01
-4.62448437e-08,2.04840625e-01
-4.62048437e-08,2.05109375e-01
-4.61648437e-08,2.05354688e-01
-4.61248438e-08,2.05267188e-01
-4.60848437e-08,2.05326563e-01
-4.60448437e-08,2.05271875e-01
-4.60048437e-08,2.05334375e-01
-4.59648437e-08,2.05243750e-01
-4.59248437e-08,2.05507812e-01
-4.58848437e-08,2.05756250e-01
-4.58448438e-08,2.05665625e-01
-4.58048437e-08,2.05728125e-01
-4.57648437e-08,2.05671875e-01
-4.57248437e-08,2.05734375e-01
-4.56848437e-08,2.05643750e-01
-4.56448437e-08,2.05906250e-01
-4.56048437e-08,2.06159375e-01
-4.55648438e-08,2.06060938e-01
-4.55248437e-08,2.06132813e-01
-4.54848437e-08,2.06065625e-01
-4.54448437e-08,2.06142188e-01
-4.54048437e-08,2.06034375e-01
-4.53648437e-08,2.06318750e-01
-4.53248437e-08,2.06543750e-01
-4.52848438e-08,2.06481250e-01
-4.52448437e-08,2.06507812e-01
-4.52048437e-08,2.06500000e-01
-4.51648437e-08,2.06492188e-01
-4.51248437e-08,2.06518750e-01
-4.50848437e-08,2.06454688e-01
-4.50448437e-08,2.06700000e-01
-4.50048437e-08,2.06962500e-01
-4.49648437e-08,2.06862500e-01
-4.49248437e-08,2.06928125e-01
-4.48848437e-08,2.06878125e-01
-4.48448437e-08,2.06918750e-01
-4.48048437e-08,2.06882813e-01
-4.47648437e-08,2.06915625e-01
-4.47248437e-08,2.06885938e-01
-4.46848437e-08,2.06912500e-01
-4.46448437e-08,2.06887500e-01
-4.46048437e-08,2.06910938e-01
-4.45648437e-08,2.06889062e-01
-4.45248437e-08,2.06909375e-01
-4.44848437e-08,2.06890625e-01
-4.44448437e-08,2.06909375e-01
-4.44048437e-08,2.06890625e-01
-4.43648437e-08,2.06907813e-01
-4.43248437e-08,2.06892188e-01
-4.42848437e-08,2.06907813e-01
-4.42448437e-08,2.06892188e-01
-4.42048438e-08,2.06907813e-01
-4.41648437e-08,2.06893750e-01
-4.41248437e-08,2.06906250e-01
-4.40848437e-08,2.06893750e-01
-4.40448437e-08,2.06906250e-01
-4.40048437e-08,2.06893750e-01
-4.39648437e-08,2.06906250e-01
-4.39248438e-08,2.06893750e-01
-4.38848437e-08,2.06904688e-01
-4.38448437e-08,2.06895313e-01
-4.38048437e-08,2.06904688e-01
-4.37648437e-08,2.06895313e-01
-4.37248437e-08,2.06903125e-01
-4.36848437e-08,2.06896875e-01
-4.36448438e-08,2.06903125e-01
-4.36048437e-08,2.06898438e-01
-4.35648437e-08,2.06901562e-01
-4.35248437e-08,2.06900000e-01
-4.34848437e-08,2.06898438e-01
-4.34448437e-08,2.06903125e-01
-4.34048437e-08,2.06893750e-01
-4.33648438e-08,2.06910938e-01
-4.33248437e-08,2.06879688e-01
-4.32848437e-08,2.06945313e-01
-4.32448437e-08,2.06701563e-01
-4.32048437e-08,2.06435937e-01
-4.31648437e-08,2.06540625e-01
-4.31248437e-08,2.06468750e-01
-4.30848438e-08,2.06526563e-01
-4.30448437e-08,2.06475000e-01
-4.30048437e-08,2.06523438e-01
-4.29648437e-08,2.06478125e-01
-4.29248437e-08,2.06521875e-01
-4.28848437e-08,2.06478125e-01
-4.28448437e-08,2.06523438e-01
-4.28048437e-08,2.06476563e-01
-4.27648437e-08,2.06525000e-01
-4.27248437e-08,2.06471875e-01
-4.26848437e-08,2.06532812e-01
-4.26448437e-08,2.06457813e-01
-4.26048437e-08,2.06567187e-01
-4.25648437e-08,2.06279688e-01
-4.25248437e-08,2.06059375e-01
-4.24848437e-08,2.06117188e-01
-4.24448437e-08,2.06092187e-01
-4.24048437e-08,2.06101563e-01
-4.23648437e-08,2.06101563e-01
-4.23248437e-08,2.06093750e-01
-4.22848438e-08,2.06109375e-01
-4.22448437e-08,2.06087500e-01
-4.22048437e-08,2.06118750e-01
-4.21648437e-08,2.06071875e-01
-4.21248437e-08,2.06153125e-01
-4.20848437e-08,2.05893750e-01
-4.20448437e-08,2.05645313e-01
-4.20048438e-08,2.05731250e-01
-4.19648437e-08,2.05678125e-01
-4.19248437e-08,2.05718750e-01
-4.18848437e-08,2.05684375e-01
-4.18448437e-08,2.05714063e-01
-4.18048437e-08,2.05685937e-01
-4.17648437e-08,2.05715625e-01
-4.17248438e-08,2.05682813e-01
-4.16848437e-08,2.05721875e-01
-4.16448437e-08,2.05670313e-01
-4.16048437e-08,2.05754688e-01
-4.15648437e-08,2.05493750e-01
-4.15248437e-08,2.05243750e-01
-4.14848437e-08,2.05332813e-01
-4.14448438e-08,2.05276563e-01
-4.14048437e-08,2.05318750e-01
-4.13648437e-08,2.05284375e-01
-4.13248437e-08,2.05314063e-01
-4.12848437e-08,2.05285938e-01
-4.12448437e-08,2.05312500e-01
-4.12048437e-08,2.05287500e-01
-4.11648438e-08,2.05312500e-01
-4.11248437e-08,2.05287500e-01
-4.10848437e-08,2.05312500e-01
-4.10448437e-08,2.05287500e-01
-4.10048437e-08,2.05312500e-01
-4.09648437e-08,2.05287500e-01
-4.09248437e-08,2.05312500e-01
-4.08848438e-08,2.05285938e-01
-4.08448437e-08,2.05314063e-01
-4.08048437e-08,2.05285938e-01
-4.07648437e-08,2.05315625e-01
-4.07248437e-08,2.05282813e-01
-4.06848437e-08,2.05318750e-01
-4.06448437e-08,2.05279688e-01
-4.06048437e-08,2.05323438e-01
-4.05648437e-08,2.05270312e-01
-4.05248437e-08,2.05339063e-01
-4.04848437e-08,2.05235938e-01
-4.04448437e-08,2.05517188e-01
-4.04048437e-08,2.05743750e-01
-4.03648438e-08,2.05679688e-01
-4.03248437e-08,2.05709375e-01
-4.02848437e-08,2.05695313e-01
-4.02448437e-08,2.05700000e-01
-4.02048437e-08,2.05703125e-01
-4.01648437e-08,2.05695313e-01
-4.01248437e-08,2.05707813e-01
-4.00848438e-08,2.05689063e-01
-4.00448437e-08,2.05715625e-01
-4.00048437e-08,2.05679688e-01
-3.99648437e-08,2.05731250e-01
-3.99248437e-08,2.05643750e-01
-3.98848437e-08,2.05910938e-01
-3.98448437e-08,2.06151562e-01
-3.98048438e-08,2.06073438e-01
-3.97648437e-08,2.06115625e-01
-3.97248437e-08,2.06090625e-01
-3.96848437e-08,2.06106250e-01
-3.96448437e-08,2.06098438e-01
-3.96048437e-08,2.06098438e-01
-3.95648437e-08,2.06106250e-01
-3.95248438e-08,2.06089063e-01
-3.94848437e-08,2.06121875e-01
-3.94448437e-08,2.06053125e-01
-3.94048437e-08,2.06301563e-01
-3.93648437e-08,2.06560938e-01
-3.93248437e-08,2.06462500e-01
-3.92848437e-08,2.06528125e-01
-3.92448438e-08,2.06478125e-01
-3.92048437e-08,2.06518750e-01
-3.91648437e-08,2.06482813e-01
-3.91248437e-08,2.06515625e-01
-3.90848437e-08,2.06484375e-01
-3.90448437e-08,2.06515625e-01
-3.90048437e-08,2.06484375e-01
-3.89648438e-08,2.06515625e-01
-3.89248437e-08,2.06482813e-01
-3.88848437e-08,2.06520312e-01
-3.88448437e-08,2.06475000e-01
-3.88048437e-08,2.06532812e-01
-3.87648437e-08,2.06442188e-01
-3.87248437e-08,2.06710937e-01
-3.86848438e-08,2.06953125e-01
-3.86448437e-08,2.06870313e-01
-3.86048437e-08,2.06920313e-01
-3.85648437e-08,2.06884375e-01
-3.85248437e-08,2.06914062e-01
