trails/00d3b5ca214f61c40c3d804afea55865/aes_ch1_20250506163834309.csv

Model,MSO66B
Label,
Waveform Type,ANALOG
Horizontal Units,s
Sample Interval,4.00000000e-11
Record Length,10000
Zero Index,1599.08203125
Vertical Units,A
ANALOG_Thumbnail,
yOffset,1.84500000e-01
yPosition,8.40000000e-01

Labels,
TIME,CH1
-6.39632812e-08,1.82070312e-01
-6.39232812e-08,1.82120313e-01
-6.38832812e-08,1.82084375e-01
-6.38432812e-08,1.82112500e-01
-6.38032812e-08,1.82089063e-01
-6.37632813e-08,1.82109375e-01
-6.37232812e-08,1.82092188e-01
-6.36832812e-08,1.82107812e-01
-6.36432812e-08,1.82093750e-01
-6.36032812e-08,1.82106250e-01
-6.35632812e-08,1.82095312e-01
-6.35232812e-08,1.82104688e-01
-6.34832813e-08,1.82095312e-01
-6.34432812e-08,1.82104688e-01
-6.34032812e-08,1.82096875e-01
-6.33632812e-08,1.82103125e-01
-6.33232812e-08,1.82096875e-01
-6.32832812e-08,1.82103125e-01
-6.32432812e-08,1.82096875e-01
-6.32032813e-08,1.82103125e-01
-6.31632812e-08,1.82096875e-01
-6.31232812e-08,1.82101563e-01
-6.30832812e-08,1.82098438e-01
-6.30432812e-08,1.82101563e-01
-6.30032812e-08,1.82098438e-01
-6.29632812e-08,1.82101563e-01
-6.29232813e-08,1.82098438e-01
-6.28832812e-08,1.82101563e-01
-6.28432812e-08,1.82098438e-01
-6.28032812e-08,1.82101563e-01
-6.27632812e-08,1.82098438e-01
-6.27232812e-08,1.82101563e-01
-6.26832812e-08,1.82100000e-01
-6.26432813e-08,1.82100000e-01
-6.26032812e-08,1.82100000e-01
-6.25632812e-08,1.82100000e-01
-6.25232812e-08,1.82100000e-01
-6.24832812e-08,1.82100000e-01
-6.24432812e-08,1.82100000e-01
-6.24032812e-08,1.82100000e-01
-6.23632813e-08,1.82100000e-01
-6.23232812e-08,1.82100000e-01
-6.22832812e-08,1.82100000e-01
-6.22432812e-08,1.82100000e-01
-6.22032812e-08,1.82100000e-01
-6.21632812e-08,1.82100000e-01
-6.21232812e-08,1.82100000e-01
-6.20832813e-08,1.82098438e-01
-6.20432812e-08,1.82101563e-01
-6.20032812e-08,1.82098438e-01
-6.19632812e-08,1.82101563e-01
-6.19232812e-08,1.82098438e-01
-6.18832813e-08,1.82101563e-01
-6.18432812e-08,1.82098438e-01
-6.18032813e-08,1.82101563e-01
-6.17632812e-08,1.82098438e-01
-6.17232812e-08,1.82101563e-01
-6.16832812e-08,1.82098438e-01
-6.16432812e-08,1.82101563e-01
-6.16032813e-08,1.82098438e-01
-6.15632812e-08,1.82103125e-01
-6.15232813e-08,1.82096875e-01
-6.14832812e-08,1.82103125e-01
-6.14432812e-08,1.82096875e-01
-6.14032812e-08,1.82103125e-01
-6.13632812e-08,1.82096875e-01
-6.13232813e-08,1.82103125e-01
-6.12832812e-08,1.82096875e-01
-6.12432813e-08,1.82103125e-01
-6.12032812e-08,1.82095312e-01
-6.11632812e-08,1.82104688e-01
-6.11232812e-08,1.82095312e-01
-6.10832812e-08,1.82104688e-01
-6.10432813e-08,1.82095312e-01
-6.10032812e-08,1.82104688e-01
-6.09632813e-08,1.82093750e-01
-6.09232812e-08,1.82106250e-01
-6.08832812e-08,1.82093750e-01
-6.08432812e-08,1.82106250e-01
-6.08032812e-08,1.82092188e-01
-6.07632813e-08,1.82107812e-01
-6.07232812e-08,1.82092188e-01
-6.06832813e-08,1.82109375e-01
-6.06432812e-08,1.82090625e-01
-6.06032812e-08,1.82110938e-01
-6.05632812e-08,1.82089063e-01
-6.05232812e-08,1.82112500e-01
-6.04832813e-08,1.82085938e-01
-6.04432812e-08,1.82115625e-01
-6.04032813e-08,1.82082812e-01
-6.03632812e-08,1.82121875e-01
-6.03232812e-08,1.82073438e-01
-6.02832812e-08,1.82137500e-01
-6.02432812e-08,1.82037500e-01
-6.02032813e-08,1.82315625e-01
-6.01632812e-08,1.82545313e-01
-6.01232813e-08,1.82479688e-01
-6.00832812e-08,1.82510937e-01
-6.00432812e-08,1.82495313e-01
-6.00032812e-08,1.82500000e-01
-5.99632812e-08,1.82503125e-01
-5.99232813e-08,1.82492188e-01
-5.98832812e-08,1.82512500e-01
-5.98432812e-08,1.82481250e-01
-5.98032812e-08,1.82529688e-01
-5.97632812e-08,1.82445313e-01
-5.97232812e-08,1.82709375e-01
-5.96832812e-08,1.82951562e-01
-5.96432813e-08,1.82873438e-01
-5.96032812e-08,1.82917187e-01
-5.95632812e-08,1.82889063e-01
-5.95232812e-08,1.82906250e-01
-5.94832812e-08,1.82898438e-01
-5.94432812e-08,1.82898438e-01
-5.94032812e-08,1.82906250e-01
-5.93632812e-08,1.82887500e-01
-5.93232812e-08,1.82923438e-01
-5.92832812e-08,1.82850000e-01
-5.92432812e-08,1.83103125e-01
-5.92032812e-08,1.83357812e-01
-5.91632812e-08,1.83267188e-01
-5.91232812e-08,1.83323438e-01
-5.90832812e-08,1.83282813e-01
-5.90432812e-08,1.83314063e-01
-5.90032812e-08,1.83289063e-01
-5.89632812e-08,1.83307813e-01
-5.89232812e-08,1.83293750e-01
-5.88832812e-08,1.83303125e-01
-5.88432812e-08,1.83300000e-01
-5.88032812e-08,1.83298437e-01
-5.87632812e-08,1.83306250e-01
-5.87232812e-08,1.83287500e-01
-5.86832812e-08,1.83321875e-01
-5.86432812e-08,1.83251563e-01
-5.86032812e-08,1.83501562e-01
-5.85632812e-08,1.83760937e-01
-5.85232812e-08,1.83664063e-01
-5.84832812e-08,1.83725000e-01
-5.84432812e-08,1.83679687e-01
-5.84032812e-08,1.83715625e-01
-5.83632812e-08,1.83685938e-01
-5.83232812e-08,1.83710938e-01
-5.82832812e-08,1.83690625e-01
-5.82432812e-08,1.83706250e-01
-5.82032812e-08,1.83695313e-01
-5.81632812e-08,1.83701562e-01
-5.81232812e-08,1.83701562e-01
-5.80832812e-08,1.83692187e-01
-5.80432812e-08,1.83717188e-01
-5.80032812e-08,1.83656250e-01
-5.79632812e-08,1.83896875e-01
-5.79232812e-08,1.84165625e-01
-5.78832812e-08,1.84059375e-01
-5.78432812e-08,1.84131250e-01
-5.78032812e-08,1.84073437e-01
-5.77632812e-08,1.84123438e-01
-5.77232812e-08,1.84078125e-01
-5.76832812e-08,1.84118750e-01
-5.76432812e-08,1.84081250e-01
-5.76032812e-08,1.84117188e-01
-5.75632812e-08,1.84082812e-01
-5.75232812e-08,1.84115625e-01
-5.74832812e-08,1.84084375e-01
-5.74432812e-08,1.84114063e-01
-5.74032812e-08,1.84085938e-01
-5.73632812e-08,1.84114063e-01
-5.73232812e-08,1.84085938e-01
-5.72832812e-08,1.84114063e-01
-5.72432812e-08,1.84085938e-01
-5.72032812e-08,1.84114063e-01
-5.71632812e-08,1.84085938e-01
-5.71232812e-08,1.84114063e-01
-5.70832812e-08,1.84085938e-01
-5.70432812e-08,1.84114063e-01
-5.70032812e-08,1.84085938e-01
-5.69632812e-08,1.84114063e-01
-5.69232812e-08,1.84084375e-01
-5.68832812e-08,1.84115625e-01
-5.68432812e-08,1.84082812e-01
-5.68032812e-08,1.84118750e-01
-5.67632812e-08,1.84078125e-01
-5.67232812e-08,1.84126563e-01
-5.66832812e-08,1.84064063e-01
-5.66432812e-08,1.84160938e-01
-5.66032812e-08,1.83887500e-01
-5.65632812e-08,1.83650000e-01
-5.65232812e-08,1.83726562e-01
-5.64832812e-08,1.83682813e-01
-5.64432812e-08,1.83712500e-01
-5.64032812e-08,1.83689062e-01
-5.63632812e-08,1.83709375e-01
-5.63232812e-08,1.83692187e-01
-5.62832812e-08,1.83709375e-01
-5.62432812e-08,1.83690625e-01
-5.62032812e-08,1.83710938e-01
-5.61632812e-08,1.83687500e-01
-5.61232812e-08,1.83717188e-01
-5.60832812e-08,1.83673438e-01
-5.60432812e-08,1.83751563e-01
-5.60032812e-08,1.83495313e-01
-5.59632812e-08,1.83242188e-01
-5.59232812e-08,1.83334375e-01
-5.58832812e-08,1.83275000e-01
-5.58432812e-08,1.83320312e-01
-5.58032812e-08,1.83282813e-01
-5.57632812e-08,1.83315625e-01
-5.57232812e-08,1.83285937e-01
-5.56832812e-08,1.83312500e-01
-5.56432812e-08,1.83287500e-01
-5.56032812e-08,1.83312500e-01
-5.55632812e-08,1.83289063e-01
-5.55232812e-08,1.83310937e-01
-5.54832812e-08,1.83289063e-01
-5.54432812e-08,1.83310937e-01
-5.54032812e-08,1.83289063e-01
-5.53632812e-08,1.83309375e-01
-5.53232812e-08,1.83290625e-01
-5.52832812e-08,1.83309375e-01
-5.52432812e-08,1.83290625e-01
-5.52032812e-08,1.83309375e-01
-5.51632812e-08,1.83290625e-01
-5.51232812e-08,1.83309375e-01
-5.50832812e-08,1.83290625e-01
-5.50432812e-08,1.83310937e-01
-5.50032812e-08,1.83289063e-01
-5.49632812e-08,1.83310937e-01
-5.49232812e-08,1.83289063e-01
-5.48832812e-08,1.83310937e-01
-5.48432812e-08,1.83289063e-01
-5.48032812e-08,1.83312500e-01
-5.47632812e-08,1.83287500e-01
-5.47232812e-08,1.83314063e-01
-5.46832812e-08,1.83284375e-01
-5.46432812e-08,1.83317188e-01
-5.46032812e-08,1.83279688e-01
-5.45632812e-08,1.83325000e-01
-5.45232812e-08,1.83265625e-01
-5.44832812e-08,1.83359375e-01
-5.44432812e-08,1.83087500e-01
-5.44032812e-08,1.82850000e-01
-5.43632812e-08,1.82926563e-01
-5.43232812e-08,1.82881250e-01
-5.42832812e-08,1.82914063e-01
-5.42432812e-08,1.82887500e-01
-5.42032812e-08,1.82910938e-01
-5.41632812e-08,1.82889063e-01
-5.41232812e-08,1.82910938e-01
-5.40832812e-08,1.82885938e-01
-5.40432812e-08,1.82917187e-01
-5.40032812e-08,1.82873438e-01
-5.39632812e-08,1.82951562e-01
-5.39232812e-08,1.82696875e-01
-5.38832812e-08,1.82440625e-01
-5.38432812e-08,1.82535937e-01
-5.38032812e-08,1.82471875e-01
-5.37632812e-08,1.82523437e-01
-5.37232812e-08,1.82478125e-01
-5.36832812e-08,1.82520313e-01
-5.36432812e-08,1.82479688e-01
-5.36032812e-08,1.82520313e-01
-5.35632812e-08,1.82479688e-01
-5.35232812e-08,1.82521875e-01
-5.34832812e-08,1.82475000e-01
-5.34432812e-08,1.82529688e-01
-5.34032812e-08,1.82460938e-01
-5.33632812e-08,1.82564063e-01
-5.33232812e-08,1.82284375e-01
-5.32832812e-08,1.82053125e-01
-5.32432812e-08,1.82121875e-01
-5.32032812e-08,1.82087500e-01
-5.31632812e-08,1.82107812e-01
-5.31232812e-08,1.82095312e-01
-5.30832812e-08,1.82103125e-01
-5.30432812e-08,1.82098438e-01
-5.30032812e-08,1.82101563e-01
-5.29632812e-08,1.82100000e-01
-5.29232812e-08,1.82100000e-01
-5.28832812e-08,1.82101563e-01
-5.28432812e-08,1.82098438e-01
-5.28032812e-08,1.82101563e-01
-5.27632812e-08,1.82098438e-01
-5.27232812e-08,1.82103125e-01
-5.26832812e-08,1.82096875e-01
-5.26432812e-08,1.82103125e-01
-5.26032812e-08,1.82096875e-01
-5.25632813e-08,1.82103125e-01
-5.25232812e-08,1.82096875e-01
-5.24832812e-08,1.82103125e-01
-5.24432812e-08,1.82096875e-01
-5.24032812e-08,1.82103125e-01
-5.23632812e-08,1.82096875e-01
-5.23232812e-08,1.82103125e-01
-5.22832812e-08,1.82096875e-01
-5.22432812e-08,1.82103125e-01
-5.22032812e-08,1.82096875e-01
-5.21632812e-08,1.82103125e-01
-5.21232812e-08,1.82096875e-01
-5.20832812e-08,1.82101563e-01
-5.20432812e-08,1.82098438e-01
-5.20032812e-08,1.82100000e-01
-5.19632812e-08,1.82101563e-01
-5.19232812e-08,1.82096875e-01
-5.18832812e-08,1.82107812e-01
-5.18432812e-08,1.82082812e-01
-5.18032812e-08,1.82140625e-01
-5.17632812e-08,1.81906250e-01
-5.17232812e-08,1.81629687e-01
-5.16832812e-08,1.81748437e-01
-5.16432812e-08,1.81659375e-01
-5.16032812e-08,1.81737500e-01
-5.15632812e-08,1.81660938e-01
-5.15232812e-08,1.81742188e-01
-5.14832812e-08,1.81650000e-01
-5.14432812e-08,1.81775000e-01
-5.14032812e-08,1.81471875e-01
-5.13632812e-08,1.81265625e-01
-5.13232812e-08,1.81309375e-01
-5.12832812e-08,1.81300000e-01
-5.12432812e-08,1.81293750e-01
-5.12032812e-08,1.81312500e-01
-5.11632812e-08,1.81282813e-01
-5.11232812e-08,1.81323438e-01
-5.10832812e-08,1.81265625e-01
-5.10432812e-08,1.81360938e-01
-5.10032812e-08,1.81085938e-01
-5.09632812e-08,1.80853125e-01
-5.09232812e-08,1.80921875e-01
-5.08832812e-08,1.80887500e-01
-5.08432812e-08,1.80906250e-01
-5.08032812e-08,1.80898438e-01
-5.07632812e-08,1.80898438e-01
-5.07232812e-08,1.80903125e-01
-5.06832812e-08,1.80893750e-01
-5.06432813e-08,1.80909375e-01
-5.06032812e-08,1.80885938e-01
-5.05632812e-08,1.80920313e-01
-5.05232812e-08,1.80870313e-01
-5.04832812e-08,1.80956250e-01
-5.04432812e-08,1.80690625e-01
-5.04032812e-08,1.80448438e-01
-5.03632813e-08,1.80528125e-01
-5.03232812e-08,1.80481250e-01
-5.02832812e-08,1.80512500e-01
-5.02432812e-08,1.80490625e-01
-5.02032812e-08,1.80506250e-01
-5.01632812e-08,1.80495313e-01
-5.01232812e-08,1.80503125e-01
-5.00832812e-08,1.80498437e-01
-5.00432812e-08,1.80500000e-01
-5.00032812e-08,1.80501563e-01
-4.99632812e-08,1.80498437e-01
-4.99232812e-08,1.80503125e-01
-4.98832812e-08,1.80495313e-01
-4.98432812e-08,1.80506250e-01
-4.98032812e-08,1.80492188e-01
-4.97632812e-08,1.80509375e-01
-4.97232812e-08,1.80487500e-01
-4.96832812e-08,1.80517188e-01
-4.96432812e-08,1.80478125e-01
-4.96032812e-08,1.80532813e-01
-4.95632812e-08,1.80442188e-01
-4.95232812e-08,1.80710938e-01
-4.94832812e-08,1.80950000e-01
-4.94432812e-08,1.80875000e-01
-4.94032812e-08,1.80914063e-01
-4.93632812e-08,1.80890625e-01
-4.93232812e-08,1.80904687e-01
-4.92832812e-08,1.80900000e-01
-4.92432812e-08,1.80896875e-01
-4.92032812e-08,1.80907813e-01
-4.91632812e-08,1.80885938e-01
-4.91232812e-08,1.80925000e-01
-4.90832812e-08,1.80848438e-01
-4.90432812e-08,1.81106250e-01
-4.90032812e-08,1.81354688e-01
-4.89632812e-08,1.81270313e-01
-4.89232812e-08,1.81317188e-01
-4.88832812e-08,1.81290625e-01
-4.88432812e-08,1.81301563e-01
-4.88032812e-08,1.81309375e-01
-4.87632812e-08,1.81264063e-01
-4.87232813e-08,1.81489063e-01
-4.86832812e-08,1.81773437e-01
-4.86432812e-08,1.81650000e-01
-4.86032812e-08,1.81742188e-01
-4.85632812e-08,1.81657813e-01
-4.85232812e-08,1.81746875e-01
-4.84832812e-08,1.81631250e-01
-4.84432813e-08,1.81918750e-01
-4.84032812e-08,1.82145313e-01
-4.83632812e-08,1.82075000e-01
-4.83232812e-08,1.82120313e-01
-4.82832812e-08,1.82079688e-01
-4.82432812e-08,1.82128125e-01
-4.82032812e-08,1.82050000e-01
-4.81632813e-08,1.82301563e-01
-4.81232812e-08,1.82560938e-01
-4.80832812e-08,1.82460938e-01
-4.80432812e-08,1.82529688e-01
-4.80032812e-08,1.82473438e-01
-4.79632812e-08,1.82525000e-01
-4.79232812e-08,1.82475000e-01
-4.78832812e-08,1.82526563e-01
-4.78432812e-08,1.82470313e-01
-4.78032812e-08,1.82539063e-01
-4.77632812e-08,1.82437500e-01
-4.77232812e-08,1.82715625e-01
-4.76832812e-08,1.82946875e-01
-4.76432812e-08,1.82876563e-01
-4.76032812e-08,1.82915625e-01
-4.75632812e-08,1.82889063e-01
-4.75232812e-08,1.82907813e-01
-4.74832812e-08,1.82893750e-01
-4.74432812e-08,1.82904687e-01
-4.74032812e-08,1.82895313e-01
-4.73632812e-08,1.82904687e-01
-4.73232812e-08,1.82895313e-01
-4.72832812e-08,1.82904687e-01
-4.72432812e-08,1.82895313e-01
-4.72032812e-08,1.82904687e-01
-4.71632812e-08,1.82895313e-01
-4.71232812e-08,1.82904687e-01
-4.70832812e-08,1.82893750e-01
-4.70432812e-08,1.82906250e-01
-4.70032812e-08,1.82892187e-01
-4.69632812e-08,1.82910938e-01
-4.69232812e-08,1.82885938e-01
-4.68832812e-08,1.82918750e-01
-4.68432812e-08,1.82871875e-01
-4.68032813e-08,1.82953125e-01
-4.67632812e-08,1.82693750e-01
-4.67232812e-08,1.82443750e-01
-4.66832812e-08,1.82532813e-01
-4.66432812e-08,1.82476562e-01
-4.66032812e-08,1.82518750e-01
-4.65632812e-08,1.82484375e-01
-4.65232813e-08,1.82512500e-01
-4.64832812e-08,1.82487500e-01
-4.64432812e-08,1.82510937e-01
-4.64032812e-08,1.82490625e-01
-4.63632812e-08,1.82509375e-01
-4.63232812e-08,1.82490625e-01
-4.62832812e-08,1.82507813e-01
-4.62432813e-08,1.82492188e-01
-4.62032812e-08,1.82507813e-01
-4.61632812e-08,1.82492188e-01
-4.61232812e-08,1.82506250e-01
-4.60832812e-08,1.82493750e-01
-4.60432812e-08,1.82506250e-01
-4.60032812e-08,1.82493750e-01
-4.59632813e-08,1.82506250e-01
-4.59232812e-08,1.82493750e-01
-4.58832812e-08,1.82506250e-01
-4.58432812e-08,1.82493750e-01
-4.58032812e-08,1.82506250e-01
-4.57632812e-08,1.82493750e-01
-4.57232812e-08,1.82506250e-01
-4.56832812e-08,1.82493750e-01
-4.56432812e-08,1.82504688e-01
-4.56032812e-08,1.82495313e-01
-4.55632812e-08,1.82504688e-01
-4.55232812e-08,1.82495313e-01
-4.54832812e-08,1.82504688e-01
-4.54432812e-08,1.82495313e-01
-4.54032812e-08,1.82504688e-01
-4.53632812e-08,1.82495313e-01
-4.53232812e-08,1.82504688e-01
-4.52832812e-08,1.82495313e-01
-4.52432812e-08,1.82504688e-01
-4.52032812e-08,1.82495313e-01
-4.51632812e-08,1.82504688e-01
-4.51232812e-08,1.82495313e-01
-4.50832812e-08,1.82506250e-01
-4.50432812e-08,1.82493750e-01
-4.50032812e-08,1.82506250e-01
-4.49632812e-08,1.82493750e-01
-4.49232812e-08,1.82506250e-01
-4.48832813e-08,1.82493750e-01
-4.48432812e-08,1.82506250e-01
-4.48032812e-08,1.82493750e-01
-4.47632812e-08,1.82507813e-01
-4.47232812e-08,1.82492188e-01
-4.46832812e-08,1.82507813e-01
-4.46432812e-08,1.82490625e-01
-4.46032813e-08,1.82509375e-01
-4.45632812e-08,1.82489063e-01
-4.45232812e-08,1.82512500e-01
-4.44832812e-08,1.82484375e-01
-4.44432812e-08,1.82520313e-01
-4.44032812e-08,1.82470313e-01
-4.43632812e-08,1.82554688e-01
-4.43232813e-08,1.82293750e-01
-4.42832812e-08,1.82043750e-01
-4.42432812e-08,1.82132813e-01
-4.42032812e-08,1.82075000e-01
-4.41632812e-08,1.82121875e-01
-4.41232812e-08,1.82078125e-01
-4.40832812e-08,1.82125000e-01
-4.40432813e-08,1.82068750e-01
-4.40032812e-08,1.82154687e-01
-4.39632812e-08,1.81893750e-01
-4.39232812e-08,1.81642187e-01
-4.38832812e-08,1.81735937e-01
-4.38432812e-08,1.81670313e-01
-4.38032812e-08,1.81729688e-01
-4.37632812e-08,1.81664063e-01
-4.37232812e-08,1.81757813e-01
-4.36832812e-08,1.81490625e-01
-4.36432812e-08,1.81245313e-01
-4.36032812e-08,1.81334375e-01
-4.35632812e-08,1.81271875e-01
-4.35232812e-08,1.81328125e-01
-4.34832812e-08,1.81264063e-01
-4.34432812e-08,1.81357812e-01
-4.34032812e-08,1.81090625e-01
-4.33632812e-08,1.80846875e-01
-4.33232812e-08,1.80929688e-01
-4.32832812e-08,1.80878125e-01
-4.32432812e-08,1.80917188e-01
-4.32032812e-08,1.80884375e-01
-4.31632812e-08,1.80914063e-01
-4.31232812e-08,1.80887500e-01
-4.30832812e-08,1.80912500e-01
-4.30432812e-08,1.80887500e-01
-4.30032812e-08,1.80912500e-01
-4.29632813e-08,1.80887500e-01
-4.29232812e-08,1.80912500e-01
-4.28832812e-08,1.80887500e-01
-4.28432812e-08,1.80914063e-01
-4.28032812e-08,1.80884375e-01
-4.27632812e-08,1.80917188e-01
-4.27232812e-08,1.80881250e-01
-4.26832813e-08,1.80921875e-01
-4.26432812e-08,1.80873438e-01
-4.26032812e-08,1.80937500e-01
-4.25632812e-08,1.80837500e-01
-4.25232812e-08,1.81115625e-01
-4.24832812e-08,1.81345312e-01
-4.24432812e-08,1.81279688e-01
-4.24032813e-08,1.81309375e-01
-4.23632812e-08,1.81298438e-01
-4.23232812e-08,1.81293750e-01
-4.22832812e-08,1.81317188e-01
-4.22432812e-08,1.81257813e-01
-4.22032812e-08,1.81495313e-01
-4.21632812e-08,1.81767188e-01
-4.21232813e-08,1.81656250e-01
-4.20832812e-08,1.81737500e-01
-4.20432812e-08,1.81664063e-01
-4.20032812e-08,1.81742188e-01
-4.19632812e-08,1.81635938e-01
-4.19232812e-08,1.81915625e-01
-4.18832812e-08,1.82148438e-01
-4.18432813e-08,1.82073438e-01
-4.18032812e-08,1.82118750e-01
-4.17632812e-08,1.82084375e-01
-4.17232812e-08,1.82114063e-01
-4.16832812e-08,1.82084375e-01
-4.16432812e-08,1.82117187e-01
-4.16032812e-08,1.82078125e-01
-4.15632812e-08,1.82131250e-01
-4.15232812e-08,1.82045313e-01
-4.14832812e-08,1.82307812e-01
-4.14432812e-08,1.82554688e-01
-4.14032812e-08,1.82468750e-01
-4.13632812e-08,1.82521875e-01
-4.13232812e-08,1.82482813e-01
-4.12832812e-08,1.82514063e-01
-4.12432812e-08,1.82487500e-01
-4.12032812e-08,1.82510937e-01
-4.11632812e-08,1.82489063e-01
-4.11232812e-08,1.82510937e-01
-4.10832812e-08,1.82490625e-01
-4.10432813e-08,1.82509375e-01
-4.10032812e-08,1.82490625e-01
-4.09632812e-08,1.82510937e-01
-4.09232812e-08,1.82489063e-01
-4.08832812e-08,1.82510937e-01
-4.08432812e-08,1.82487500e-01
-4.08032812e-08,1.82514063e-01
-4.07632813e-08,1.82482813e-01
-4.07232812e-08,1.82521875e-01
-4.06832812e-08,1.82468750e-01
-4.06432812e-08,1.82556250e-01
-4.06032812e-08,1.82290625e-01
-4.05632812e-08,1.82046875e-01
-4.05232812e-08,1.82129687e-01
-4.04832813e-08,1.82079688e-01
-4.04432812e-08,1.82115625e-01
-4.04032812e-08,1.82087500e-01
-4.03632812e-08,1.82110938e-01
-4.03232812e-08,1.82090625e-01
-4.02832812e-08,1.82109375e-01
-4.02432812e-08,1.82092188e-01
-4.02032813e-08,1.82107812e-01
-4.01632812e-08,1.82092188e-01
-4.01232812e-08,1.82107812e-01
-4.00832812e-08,1.82093750e-01
-4.00432812e-08,1.82106250e-01
-4.00032812e-08,1.82093750e-01
-3.99632812e-08,1.82106250e-01
-3.99232813e-08,1.82092188e-01
-3.98832812e-08,1.82107812e-01
-3.98432812e-08,1.82092188e-01
-3.98032812e-08,1.82107812e-01
-3.97632812e-08,1.82092188e-01
-3.97232812e-08,1.82109375e-01
-3.96832812e-08,1.82090625e-01
-3.96432813e-08,1.82109375e-01
-3.96032812e-08,1.82089063e-01
-3.95632812e-08,1.82112500e-01
-3.95232812e-08,1.82085938e-01
-3.94832812e-08,1.82115625e-01
-3.94432812e-08,1.82081250e-01
-3.94032813e-08,1.82125000e-01
-3.93632812e-08,1.82065625e-01
-3.93232812e-08,1.82159375e-01
-3.92832812e-08,1.81887500e-01
-3.92432812e-08,1.81651563e-01
-3.92032812e-08,1.81725000e-01
-3.91632812e-08,1.81685938e-01
-3.91232813e-08,1.81709375e-01
-3.90832812e-08,1.81695313e-01
-3.90432812e-08,1.81701562e-01
-3.90032812e-08,1.81700000e-01
-3.89632812e-08,1.81696875e-01
-3.89232812e-08,1.81706250e-01
-3.88832812e-08,1.81689062e-01
-3.88432813e-08,1.81715625e-01
-3.88032812e-08,1.81673438e-01
-3.87632812e-08,1.81751563e-01
-3.87232812e-08,1.81493750e-01
-3.86832812e-08,1.81243750e-01
-3.86432812e-08,1.81331250e-01
-3.86032812e-08,1.81279688e-01
-3.85632813e-08,1.81314063e-01
-3.85232812e-08,1.81290625e-01
