trails/00d3b5ca214f61c40c3d804afea55865/aes_ch1_20250506163426559.csv

Model,MSO66B
Label,
Waveform Type,ANALOG
Horizontal Units,s
Sample Interval,4.00000000e-11
Record Length,10000
Zero Index,1599.09375000
Vertical Units,A
ANALOG_Thumbnail,
yOffset,1.84500000e-01
yPosition,8.40000000e-01

Labels,
TIME,CH1
-6.39637500e-08,1.83309375e-01
-6.39237500e-08,1.83290625e-01
-6.38837500e-08,1.83310937e-01
-6.38437500e-08,1.83289063e-01
-6.38037500e-08,1.83312500e-01
-6.37637500e-08,1.83285937e-01
-6.37237500e-08,1.83315625e-01
-6.36837500e-08,1.83281250e-01
-6.36437500e-08,1.83323438e-01
-6.36037500e-08,1.83267188e-01
-6.35637500e-08,1.83357812e-01
-6.35237500e-08,1.83089063e-01
-6.34837500e-08,1.82850000e-01
-6.34437500e-08,1.82926563e-01
-6.34037500e-08,1.82882813e-01
-6.33637500e-08,1.82912500e-01
-6.33237500e-08,1.82890625e-01
-6.32837500e-08,1.82906250e-01
-6.32437500e-08,1.82895313e-01
-6.32037500e-08,1.82903125e-01
-6.31637500e-08,1.82898438e-01
-6.31237500e-08,1.82900000e-01
-6.30837500e-08,1.82901563e-01
-6.30437500e-08,1.82896875e-01
-6.30037500e-08,1.82904687e-01
-6.29637500e-08,1.82892187e-01
-6.29237500e-08,1.82912500e-01
-6.28837500e-08,1.82876563e-01
-6.28437500e-08,1.82946875e-01
-6.28037500e-08,1.82700000e-01
-6.27637500e-08,1.82437500e-01
-6.27237500e-08,1.82539063e-01
-6.26837500e-08,1.82468750e-01
-6.26437500e-08,1.82526563e-01
-6.26037500e-08,1.82475000e-01
-6.25637500e-08,1.82525000e-01
-6.25237500e-08,1.82473438e-01
-6.24837500e-08,1.82531250e-01
-6.24437500e-08,1.82459375e-01
-6.24037500e-08,1.82564063e-01
-6.23637500e-08,1.82282813e-01
-6.23237500e-08,1.82056250e-01
-6.22837500e-08,1.82120313e-01
-6.22437500e-08,1.82090625e-01
-6.22037500e-08,1.82101563e-01
-6.21637500e-08,1.82106250e-01
-6.21237500e-08,1.82084375e-01
-6.20837500e-08,1.82142187e-01
-6.20437500e-08,1.81904687e-01
-6.20037500e-08,1.81632813e-01
-6.19637500e-08,1.81745313e-01
-6.19237500e-08,1.81664063e-01
-6.18837500e-08,1.81734375e-01
-6.18437500e-08,1.81665625e-01
-6.18037500e-08,1.81737500e-01
-6.17637500e-08,1.81654687e-01
-6.17237500e-08,1.81768750e-01
-6.16837500e-08,1.81478125e-01
-6.16437500e-08,1.81259375e-01
-6.16037500e-08,1.81317188e-01
-6.15637500e-08,1.81292188e-01
-6.15237500e-08,1.81303125e-01
-6.14837500e-08,1.81301563e-01
-6.14437500e-08,1.81296875e-01
-6.14037500e-08,1.81306250e-01
-6.13637500e-08,1.81290625e-01
-6.13237500e-08,1.81310938e-01
-6.12837500e-08,1.81284375e-01
-6.12437500e-08,1.81321875e-01
-6.12037500e-08,1.81268750e-01
-6.11637500e-08,1.81357812e-01
-6.11237500e-08,1.81089063e-01
-6.10837500e-08,1.80850000e-01
-6.10437500e-08,1.80925000e-01
-6.10037500e-08,1.80884375e-01
-6.09637500e-08,1.80909375e-01
-6.09237500e-08,1.80895313e-01
-6.08837500e-08,1.80900000e-01
-6.08437500e-08,1.80904687e-01
-6.08037500e-08,1.80889063e-01
-6.07637500e-08,1.80921875e-01
-6.07237500e-08,1.80853125e-01
-6.06837500e-08,1.81101563e-01
-6.06437500e-08,1.81360938e-01
-6.06037500e-08,1.81264063e-01
-6.05637500e-08,1.81325000e-01
-6.05237500e-08,1.81279688e-01
-6.04837500e-08,1.81315625e-01
-6.04437500e-08,1.81285937e-01
-6.04037500e-08,1.81310938e-01
-6.03637500e-08,1.81290625e-01
-6.03237500e-08,1.81307812e-01
-6.02837500e-08,1.81295312e-01
-6.02437500e-08,1.81301563e-01
-6.02037500e-08,1.81301563e-01
-6.01637500e-08,1.81293750e-01
-6.01237500e-08,1.81317188e-01
-6.00837500e-08,1.81257813e-01
-6.00437500e-08,1.81495313e-01
-6.00037500e-08,1.81767188e-01
-5.99637500e-08,1.81656250e-01
-5.99237500e-08,1.81734375e-01
-5.98837500e-08,1.81670313e-01
-5.98437500e-08,1.81726562e-01
-5.98037500e-08,1.81675000e-01
-5.97637500e-08,1.81723438e-01
-5.97237500e-08,1.81676562e-01
-5.96837500e-08,1.81723438e-01
-5.96437500e-08,1.81676562e-01
-5.96037500e-08,1.81725000e-01
-5.95637500e-08,1.81673438e-01
-5.95237500e-08,1.81728125e-01
-5.94837500e-08,1.81667187e-01
-5.94437500e-08,1.81742188e-01
-5.94037500e-08,1.81632813e-01
-5.93637500e-08,1.81920313e-01
-5.93237500e-08,1.82142187e-01
-5.92837500e-08,1.82081250e-01
-5.92437500e-08,1.82109375e-01
-5.92037500e-08,1.82095312e-01
-5.91637500e-08,1.82101563e-01
-5.91237500e-08,1.82100000e-01
-5.90837500e-08,1.82098438e-01
-5.90437500e-08,1.82103125e-01
-5.90037500e-08,1.82096875e-01
-5.89637500e-08,1.82104688e-01
-5.89237500e-08,1.82095312e-01
-5.88837500e-08,1.82106250e-01
-5.88437500e-08,1.82093750e-01
-5.88037500e-08,1.82107812e-01
-5.87637500e-08,1.82092188e-01
-5.87237500e-08,1.82107812e-01
-5.86837500e-08,1.82090625e-01
-5.86437500e-08,1.82110938e-01
-5.86037500e-08,1.82089063e-01
-5.85637500e-08,1.82112500e-01
-5.85237500e-08,1.82084375e-01
-5.84837500e-08,1.82118750e-01
-5.84437500e-08,1.82076563e-01
-5.84037500e-08,1.82132813e-01
-5.83637500e-08,1.82042188e-01
-5.83237500e-08,1.82310938e-01
-5.82837500e-08,1.82551563e-01
-5.82437500e-08,1.82471875e-01
-5.82037500e-08,1.82518750e-01
-5.81637500e-08,1.82485938e-01
-5.81237500e-08,1.82510937e-01
-5.80837500e-08,1.82490625e-01
-5.80437500e-08,1.82507813e-01
-5.80037500e-08,1.82492188e-01
-5.79637500e-08,1.82507813e-01
-5.79237500e-08,1.82492188e-01
-5.78837500e-08,1.82509375e-01
-5.78437500e-08,1.82490625e-01
-5.78037500e-08,1.82512500e-01
-5.77637500e-08,1.82482813e-01
-5.77237500e-08,1.82526563e-01
-5.76837500e-08,1.82450000e-01
-5.76437500e-08,1.82703125e-01
-5.76037500e-08,1.82959375e-01
-5.75637500e-08,1.82862500e-01
-5.75237500e-08,1.82928125e-01
-5.74837500e-08,1.82876563e-01
-5.74437500e-08,1.82921875e-01
-5.74037500e-08,1.82879687e-01
-5.73637500e-08,1.82920313e-01
-5.73237500e-08,1.82879687e-01
-5.72837500e-08,1.82921875e-01
-5.72437500e-08,1.82876563e-01
-5.72037500e-08,1.82925000e-01
-5.71637500e-08,1.82870313e-01
-5.71237500e-08,1.82940625e-01
-5.70837500e-08,1.82835938e-01
-5.70437500e-08,1.83117188e-01
-5.70037500e-08,1.83343750e-01
-5.69637500e-08,1.83279688e-01
-5.69237500e-08,1.83310937e-01
-5.68837500e-08,1.83295313e-01
-5.68437500e-08,1.83301563e-01
-5.68037500e-08,1.83300000e-01
-5.67637500e-08,1.83296875e-01
-5.67237500e-08,1.83304688e-01
-5.66837500e-08,1.83293750e-01
-5.66437500e-08,1.83309375e-01
-5.66037500e-08,1.83289063e-01
-5.65637500e-08,1.83314063e-01
-5.65237500e-08,1.83279688e-01
-5.64837500e-08,1.83329688e-01
-5.64437500e-08,1.83243750e-01
-5.64037500e-08,1.83509375e-01
-5.63637500e-08,1.83753125e-01
-5.63237500e-08,1.83670313e-01
-5.62837500e-08,1.83720313e-01
-5.62437500e-08,1.83685938e-01
-5.62037500e-08,1.83710938e-01
-5.61637500e-08,1.83690625e-01
-5.61237500e-08,1.83707813e-01
-5.60837500e-08,1.83693750e-01
-5.60437500e-08,1.83704688e-01
-5.60037500e-08,1.83695313e-01
-5.59637500e-08,1.83703125e-01
-5.59237500e-08,1.83696875e-01
-5.58837500e-08,1.83701562e-01
-5.58437500e-08,1.83698438e-01
-5.58037500e-08,1.83701562e-01
-5.57637500e-08,1.83698438e-01
-5.57237500e-08,1.83700000e-01
-5.56837500e-08,1.83700000e-01
-5.56437500e-08,1.83700000e-01
-5.56037500e-08,1.83700000e-01
-5.55637500e-08,1.83698438e-01
-5.55237500e-08,1.83701562e-01
-5.54837500e-08,1.83698438e-01
-5.54437500e-08,1.83701562e-01
-5.54037500e-08,1.83696875e-01
-5.53637500e-08,1.83703125e-01
-5.53237500e-08,1.83696875e-01
-5.52837500e-08,1.83704688e-01
-5.52437500e-08,1.83695313e-01
-5.52037500e-08,1.83706250e-01
-5.51637500e-08,1.83692187e-01
-5.51237500e-08,1.83709375e-01
-5.50837500e-08,1.83687500e-01
-5.50437500e-08,1.83717188e-01
-5.50037500e-08,1.83671875e-01
-5.49637500e-08,1.83751563e-01
-5.49237500e-08,1.83495313e-01
-5.48837500e-08,1.83242188e-01
-5.48437500e-08,1.83334375e-01
-5.48037500e-08,1.83275000e-01
-5.47637500e-08,1.83320312e-01
-5.47237500e-08,1.83281250e-01
-5.46837500e-08,1.83317188e-01
-5.46437500e-08,1.83282813e-01
-5.46037500e-08,1.83317188e-01
-5.45637500e-08,1.83279688e-01
-5.45237500e-08,1.83323438e-01
-5.44837500e-08,1.83267188e-01
-5.44437500e-08,1.83357812e-01
-5.44037500e-08,1.83090625e-01
-5.43637500e-08,1.82846875e-01
-5.43237500e-08,1.82929687e-01
-5.42837500e-08,1.82878125e-01
-5.42437500e-08,1.82917187e-01
-5.42037500e-08,1.82885938e-01
-5.41637500e-08,1.82912500e-01
-5.41237500e-08,1.82887500e-01
-5.40837500e-08,1.82912500e-01
-5.40437500e-08,1.82887500e-01
-5.40037500e-08,1.82912500e-01
-5.39637500e-08,1.82885938e-01
-5.39237500e-08,1.82915625e-01
-5.38837500e-08,1.82881250e-01
-5.38437500e-08,1.82923438e-01
-5.38037500e-08,1.82867188e-01
-5.37637500e-08,1.82957813e-01
-5.37237500e-08,1.82690625e-01
-5.36837500e-08,1.82446875e-01
-5.36437500e-08,1.82528125e-01
-5.36037500e-08,1.82479688e-01
-5.35637500e-08,1.82515625e-01
-5.35237500e-08,1.82487500e-01
-5.34837500e-08,1.82510937e-01
-5.34437500e-08,1.82490625e-01
-5.34037500e-08,1.82507813e-01
-5.33637500e-08,1.82492188e-01
-5.33237500e-08,1.82507813e-01
-5.32837500e-08,1.82492188e-01
-5.32437500e-08,1.82507813e-01
-5.32037500e-08,1.82492188e-01
-5.31637500e-08,1.82507813e-01
-5.31237500e-08,1.82490625e-01
-5.30837500e-08,1.82510937e-01
-5.30437500e-08,1.82485938e-01
-5.30037500e-08,1.82518750e-01
-5.29637500e-08,1.82471875e-01
-5.29237500e-08,1.82553125e-01
-5.28837500e-08,1.82295313e-01
-5.28437500e-08,1.82042188e-01
-5.28037500e-08,1.82134375e-01
-5.27637500e-08,1.82075000e-01
-5.27237500e-08,1.82120313e-01
-5.26837500e-08,1.82082812e-01
-5.26437500e-08,1.82115625e-01
-5.26037500e-08,1.82084375e-01
-5.25637500e-08,1.82115625e-01
-5.25237500e-08,1.82084375e-01
-5.24837500e-08,1.82115625e-01
-5.24437500e-08,1.82084375e-01
-5.24037500e-08,1.82115625e-01
-5.23637500e-08,1.82082812e-01
-5.23237500e-08,1.82120313e-01
-5.22837500e-08,1.82078125e-01
-5.22437500e-08,1.82128125e-01
-5.22037500e-08,1.82062500e-01
-5.21637500e-08,1.82162500e-01
-5.21237500e-08,1.81884375e-01
-5.20837500e-08,1.81653125e-01
-5.20437500e-08,1.81721875e-01
-5.20037500e-08,1.81687500e-01
-5.19637500e-08,1.81707813e-01
-5.19237500e-08,1.81695313e-01
-5.18837500e-08,1.81701562e-01
-5.18437500e-08,1.81700000e-01
-5.18037500e-08,1.81698438e-01
-5.17637500e-08,1.81704688e-01
-5.17237500e-08,1.81693750e-01
-5.16837500e-08,1.81707813e-01
-5.16437500e-08,1.81689062e-01
-5.16037500e-08,1.81714062e-01
-5.15637500e-08,1.81679688e-01
-5.15237500e-08,1.81729688e-01
-5.14837500e-08,1.81645313e-01
-5.14437500e-08,1.81909375e-01
-5.14037500e-08,1.82153125e-01
-5.13637500e-08,1.82070312e-01
-5.13237500e-08,1.82118750e-01
-5.12837500e-08,1.82085938e-01
-5.12437500e-08,1.82109375e-01
-5.12037500e-08,1.82093750e-01
-5.11637500e-08,1.82104688e-01
-5.11237500e-08,1.82098438e-01
-5.10837500e-08,1.82098438e-01
-5.10437500e-08,1.82104688e-01
-5.10037500e-08,1.82089063e-01
-5.09637500e-08,1.82120313e-01
-5.09237500e-08,1.82054688e-01
-5.08837500e-08,1.82298437e-01
-5.08437500e-08,1.82564063e-01
-5.08037500e-08,1.82459375e-01
-5.07637500e-08,1.82531250e-01
-5.07237500e-08,1.82473438e-01
-5.06837500e-08,1.82525000e-01
-5.06437500e-08,1.82476562e-01
-5.06037500e-08,1.82523437e-01
-5.05637500e-08,1.82476562e-01
-5.05237500e-08,1.82526563e-01
-5.04837500e-08,1.82470313e-01
-5.04437500e-08,1.82539063e-01
-5.04037500e-08,1.82435938e-01
-5.03637500e-08,1.82715625e-01
-5.03237500e-08,1.82946875e-01
-5.02837500e-08,1.82876563e-01
-5.02437500e-08,1.82914063e-01
-5.02037500e-08,1.82890625e-01
-5.01637500e-08,1.82906250e-01
-5.01237500e-08,1.82895313e-01
-5.00837500e-08,1.82903125e-01
-5.00437500e-08,1.82898438e-01
-5.00037500e-08,1.82901563e-01
-4.99637500e-08,1.82900000e-01
-4.99237500e-08,1.82900000e-01
-4.98837500e-08,1.82900000e-01
-4.98437500e-08,1.82898438e-01
-4.98037500e-08,1.82901563e-01
-4.97637500e-08,1.82896875e-01
-4.97237500e-08,1.82903125e-01
-4.96837500e-08,1.82895313e-01
-4.96437500e-08,1.82904687e-01
-4.96037500e-08,1.82893750e-01
-4.95637500e-08,1.82909375e-01
-4.95237500e-08,1.82889063e-01
-4.94837500e-08,1.82917187e-01
-4.94437500e-08,1.82873438e-01
-4.94037500e-08,1.82950000e-01
-4.93637500e-08,1.82696875e-01
-4.93237500e-08,1.82440625e-01
-4.92837500e-08,1.82534375e-01
-4.92437500e-08,1.82473438e-01
-4.92037500e-08,1.82521875e-01
-4.91637500e-08,1.82481250e-01
-4.91237500e-08,1.82517188e-01
-4.90837500e-08,1.82482813e-01
-4.90437500e-08,1.82515625e-01
-4.90037500e-08,1.82484375e-01
-4.89637500e-08,1.82517188e-01
-4.89237500e-08,1.82482813e-01
-4.88837500e-08,1.82518750e-01
-4.88437500e-08,1.82478125e-01
-4.88037500e-08,1.82526563e-01
-4.87637500e-08,1.82464062e-01
-4.87237500e-08,1.82560938e-01
-4.86837500e-08,1.82285937e-01
-4.86437500e-08,1.82051563e-01
-4.86037500e-08,1.82125000e-01
-4.85637500e-08,1.82084375e-01
-4.85237500e-08,1.82110938e-01
-4.84837500e-08,1.82092188e-01
-4.84437500e-08,1.82106250e-01
-4.84037500e-08,1.82095312e-01
-4.83637500e-08,1.82103125e-01
-4.83237500e-08,1.82096875e-01
-4.82837500e-08,1.82103125e-01
-4.82437500e-08,1.82098438e-01
-4.82037500e-08,1.82101563e-01
-4.81637500e-08,1.82098438e-01
-4.81237500e-08,1.82101563e-01
-4.80837500e-08,1.82100000e-01
-4.80437500e-08,1.82100000e-01
-4.80037500e-08,1.82100000e-01
-4.79637500e-08,1.82100000e-01
-4.79237500e-08,1.82100000e-01
-4.78837500e-08,1.82100000e-01
-4.78437500e-08,1.82100000e-01
-4.78037500e-08,1.82100000e-01
-4.77637500e-08,1.82100000e-01
-4.77237500e-08,1.82100000e-01
-4.76837500e-08,1.82100000e-01
-4.76437500e-08,1.82100000e-01
-4.76037500e-08,1.82100000e-01
-4.75637500e-08,1.82100000e-01
-4.75237500e-08,1.82100000e-01
-4.74837500e-08,1.82100000e-01
-4.74437500e-08,1.82100000e-01
-4.74037500e-08,1.82100000e-01
-4.73637500e-08,1.82098438e-01
-4.73237500e-08,1.82101563e-01
-4.72837500e-08,1.82096875e-01
-4.72437500e-08,1.82103125e-01
-4.72037500e-08,1.82093750e-01
-4.71637500e-08,1.82107812e-01
-4.71237500e-08,1.82087500e-01
-4.70837500e-08,1.82121875e-01
-4.70437500e-08,1.82053125e-01
-4.70037500e-08,1.82300000e-01
-4.69637500e-08,1.82564063e-01
-4.69237500e-08,1.82459375e-01
-4.68837500e-08,1.82531250e-01
-4.68437500e-08,1.82471875e-01
-4.68037500e-08,1.82525000e-01
-4.67637500e-08,1.82475000e-01
-4.67237500e-08,1.82525000e-01
-4.66837500e-08,1.82473438e-01
-4.66437500e-08,1.82529688e-01
-4.66037500e-08,1.82465625e-01
-4.65637500e-08,1.82542188e-01
-4.65237500e-08,1.82432813e-01
-4.64837500e-08,1.82720313e-01
-4.64437500e-08,1.82942188e-01
-4.64037500e-08,1.82882813e-01
-4.63637500e-08,1.82907813e-01
-4.63237500e-08,1.82896875e-01
-4.62837500e-08,1.82900000e-01
-4.62437500e-08,1.82903125e-01
-4.62037500e-08,1.82895313e-01
-4.61637500e-08,1.82906250e-01
-4.61237500e-08,1.82890625e-01
-4.60837500e-08,1.82910938e-01
-4.60437500e-08,1.82887500e-01
-4.60037500e-08,1.82914063e-01
-4.59637500e-08,1.82882813e-01
-4.59237500e-08,1.82921875e-01
-4.58837500e-08,1.82871875e-01
-4.58437500e-08,1.82937500e-01
-4.58037500e-08,1.82835938e-01
-4.57637500e-08,1.83118750e-01
-4.57237500e-08,1.83342188e-01
-4.56837500e-08,1.83284375e-01
-4.56437500e-08,1.83303125e-01
-4.56037500e-08,1.83307813e-01
-4.55637500e-08,1.83279688e-01
-4.55237500e-08,1.83346875e-01
-4.54837500e-08,1.83098438e-01
-4.54437500e-08,1.82840625e-01
-4.54037500e-08,1.82934375e-01
-4.53637500e-08,1.82876563e-01
-4.53237500e-08,1.82917187e-01
-4.52837500e-08,1.82885938e-01
-4.52437500e-08,1.82910938e-01
-4.52037500e-08,1.82890625e-01
-4.51637500e-08,1.82906250e-01
-4.51237500e-08,1.82895313e-01
-4.50837500e-08,1.82903125e-01
-4.50437500e-08,1.82898438e-01
-4.50037500e-08,1.82900000e-01
-4.49637500e-08,1.82901563e-01
-4.49237500e-08,1.82896875e-01
-4.48837500e-08,1.82906250e-01
-4.48437500e-08,1.82890625e-01
-4.48037500e-08,1.82915625e-01
-4.47637500e-08,1.82875000e-01
-4.47237500e-08,1.82950000e-01
-4.46837500e-08,1.82696875e-01
-4.46437500e-08,1.82442188e-01
-4.46037500e-08,1.82534375e-01
-4.45637500e-08,1.82475000e-01
-4.45237500e-08,1.82520313e-01
-4.44837500e-08,1.82482813e-01
-4.44437500e-08,1.82514063e-01
-4.44037500e-08,1.82487500e-01
-4.43637500e-08,1.82510937e-01
-4.43237500e-08,1.82489063e-01
-4.42837500e-08,1.82509375e-01
-4.42437500e-08,1.82490625e-01
-4.42037500e-08,1.82509375e-01
-4.41637500e-08,1.82492188e-01
-4.41237500e-08,1.82507813e-01
-4.40837500e-08,1.82492188e-01
-4.40437500e-08,1.82507813e-01
-4.40037500e-08,1.82492188e-01
-4.39637500e-08,1.82507813e-01
-4.39237500e-08,1.82490625e-01
-4.38837500e-08,1.82509375e-01
-4.38437500e-08,1.82489063e-01
-4.38037500e-08,1.82512500e-01
-4.37637500e-08,1.82482813e-01
-4.37237500e-08,1.82526563e-01
-4.36837500e-08,1.82450000e-01
-4.36437500e-08,1.82703125e-01
-4.36037500e-08,1.82960938e-01
-4.35637500e-08,1.82860938e-01
-4.35237500e-08,1.82931250e-01
-4.34837500e-08,1.82871875e-01
-4.34437500e-08,1.82929687e-01
-4.34037500e-08,1.82867188e-01
-4.33637500e-08,1.82942188e-01
-4.33237500e-08,1.82834375e-01
-4.32837500e-08,1.83118750e-01
-4.32437500e-08,1.83343750e-01
-4.32037500e-08,1.83281250e-01
-4.31637500e-08,1.83309375e-01
-4.31237500e-08,1.83296875e-01
-4.30837500e-08,1.83296875e-01
-4.30437500e-08,1.83307813e-01
-4.30037500e-08,1.83285937e-01
-4.29637500e-08,1.83325000e-01
-4.29237500e-08,1.83250000e-01
-4.28837500e-08,1.83504688e-01
-4.28437500e-08,1.83757813e-01
-4.28037500e-08,1.83667187e-01
-4.27637500e-08,1.83723438e-01
-4.27237500e-08,1.83681250e-01
-4.26837500e-08,1.83714062e-01
-4.26437500e-08,1.83687500e-01
-4.26037500e-08,1.83710938e-01
-4.25637500e-08,1.83690625e-01
-4.25237500e-08,1.83707813e-01
-4.24837500e-08,1.83693750e-01
-4.24437500e-08,1.83704688e-01
-4.24037500e-08,1.83696875e-01
-4.23637500e-08,1.83703125e-01
-4.23237500e-08,1.83698438e-01
-4.22837500e-08,1.83700000e-01
-4.22437500e-08,1.83703125e-01
-4.22037500e-08,1.83693750e-01
-4.21637500e-08,1.83710938e-01
-4.21237500e-08,1.83679687e-01
-4.20837500e-08,1.83745313e-01
-4.20437500e-08,1.83501562e-01
-4.20037500e-08,1.83235938e-01
-4.19637500e-08,1.83340625e-01
-4.19237500e-08,1.83268750e-01
-4.18837500e-08,1.83328125e-01
-4.18437500e-08,1.83273437e-01
-4.18037500e-08,1.83325000e-01
-4.17637500e-08,1.83273437e-01
-4.17237500e-08,1.83331250e-01
-4.16837500e-08,1.83260937e-01
-4.16437500e-08,1.83364063e-01
-4.16037500e-08,1.83084375e-01
-4.15637500e-08,1.82853125e-01
-4.15237500e-08,1.82923438e-01
-4.14837500e-08,1.82884375e-01
-4.14437500e-08,1.82910938e-01
-4.14037500e-08,1.82892187e-01
-4.13637500e-08,1.82906250e-01
-4.13237500e-08,1.82895313e-01
-4.12837500e-08,1.82904687e-01
-4.12437500e-08,1.82895313e-01
-4.12037500e-08,1.82904687e-01
-4.11637500e-08,1.82896875e-01
-4.11237500e-08,1.82903125e-01
-4.10837500e-08,1.82895313e-01
-4.10437500e-08,1.82904687e-01
-4.10037500e-08,1.82895313e-01
-4.09637500e-08,1.82904687e-01
-4.09237500e-08,1.82895313e-01
-4.08837500e-08,1.82906250e-01
-4.08437500e-08,1.82893750e-01
-4.08037500e-08,1.82906250e-01
-4.07637500e-08,1.82892187e-01
-4.07237500e-08,1.82909375e-01
-4.06837500e-08,1.82889063e-01
-4.06437500e-08,1.82912500e-01
-4.06037500e-08,1.82884375e-01
-4.05637500e-08,1.82921875e-01
-4.05237500e-08,1.82868750e-01
-4.04837500e-08,1.82956250e-01
-4.04437500e-08,1.82690625e-01
-4.04037500e-08,1.82448438e-01
-4.03637500e-08,1.82528125e-01
-4.03237500e-08,1.82481250e-01
-4.02837500e-08,1.82512500e-01
-4.02437500e-08,1.82490625e-01
-4.02037500e-08,1.82506250e-01
-4.01637500e-08,1.82495313e-01
-4.01237500e-08,1.82503125e-01
-4.00837500e-08,1.82498437e-01
-4.00437500e-08,1.82500000e-01
-4.00037500e-08,1.82501563e-01
-3.99637500e-08,1.82495313e-01
-3.99237500e-08,1.82507813e-01
-3.98837500e-08,1.82489063e-01
-3.98437500e-08,1.82517188e-01
-3.98037500e-08,1.82473438e-01
-3.97637500e-08,1.82553125e-01
-3.97237500e-08,1.82293750e-01
-3.96837500e-08,1.82045313e-01
-3.96437500e-08,1.82129687e-01
-3.96037500e-08,1.82079688e-01
-3.95637500e-08,1.82112500e-01
-3.95237500e-08,1.82092188e-01
-3.94837500e-08,1.82103125e-01
-3.94437500e-08,1.82104688e-01
-3.94037500e-08,1.82085938e-01
-3.93637500e-08,1.82140625e-01
-3.93237500e-08,1.81906250e-01
-3.92837500e-08,1.81632813e-01
-3.92437500e-08,1.81743750e-01
-3.92037500e-08,1.81667187e-01
-3.91637500e-08,1.81728125e-01
-3.91237500e-08,1.81675000e-01
-3.90837500e-08,1.81721875e-01
-3.90437500e-08,1.81679688e-01
-3.90037500e-08,1.81718750e-01
-3.89637500e-08,1.81681250e-01
-3.89237500e-08,1.81717188e-01
-3.88837500e-08,1.81682813e-01
-3.88437500e-08,1.81717188e-01
-3.88037500e-08,1.81682813e-01
-3.87637500e-08,1.81715625e-01
-3.87237500e-08,1.81684375e-01
-3.86837500e-08,1.81715625e-01
-3.86437500e-08,1.81682813e-01
-3.86037500e-08,1.81717188e-01
-3.85637500e-08,1.81682813e-01
-3.85237500e-08,1.81718750e-01
