trails/00d3b5ca214f61c40c3d804afea55865/aes_ch1_20250506163524538.csv

Model,MSO66B
Label,
Waveform Type,ANALOG
Horizontal Units,s
Sample Interval,4.00000000e-11
Record Length,10000
Zero Index,1599.09375000
Vertical Units,A
ANALOG_Thumbnail,
yOffset,1.84500000e-01
yPosition,8.40000000e-01

Labels,
TIME,CH1
-6.39637500e-08,1.93304688e-01
-6.39237500e-08,1.93295313e-01
-6.38837500e-08,1.93304688e-01
-6.38437500e-08,1.93295313e-01
-6.38037500e-08,1.93304688e-01
-6.37637500e-08,1.93295313e-01
-6.37237500e-08,1.93306250e-01
-6.36837500e-08,1.93293750e-01
-6.36437500e-08,1.93306250e-01
-6.36037500e-08,1.93293750e-01
-6.35637500e-08,1.93307813e-01
-6.35237500e-08,1.93292188e-01
-6.34837500e-08,1.93309375e-01
-6.34437500e-08,1.93289062e-01
-6.34037500e-08,1.93314062e-01
-6.33637500e-08,1.93281250e-01
-6.33237500e-08,1.93328125e-01
-6.32837500e-08,1.93246875e-01
-6.32437500e-08,1.93504687e-01
-6.32037500e-08,1.93757813e-01
-6.31637500e-08,1.93665625e-01
-6.31237500e-08,1.93725000e-01
-6.30837500e-08,1.93679688e-01
-6.30437500e-08,1.93718750e-01
-6.30037500e-08,1.93682812e-01
-6.29637500e-08,1.93715625e-01
-6.29237500e-08,1.93684375e-01
-6.28837500e-08,1.93717187e-01
-6.28437500e-08,1.93681250e-01
-6.28037500e-08,1.93720313e-01
-6.27637500e-08,1.93675000e-01
-6.27237500e-08,1.93734375e-01
-6.26837500e-08,1.93640625e-01
-6.26437500e-08,1.93910938e-01
-6.26037500e-08,1.94151563e-01
-6.25637500e-08,1.94071875e-01
-6.25237500e-08,1.94120313e-01
-6.24837500e-08,1.94082813e-01
-6.24437500e-08,1.94117188e-01
-6.24037500e-08,1.94081250e-01
-6.23637500e-08,1.94126563e-01
-6.23237500e-08,1.94051562e-01
-6.22837500e-08,1.94300000e-01
-6.22437500e-08,1.94565625e-01
-6.22037500e-08,1.94456250e-01
-6.21637500e-08,1.94539062e-01
-6.21237500e-08,1.94459375e-01
-6.20837500e-08,1.94546875e-01
-6.20437500e-08,1.94428125e-01
-6.20037500e-08,1.94725000e-01
-6.19637500e-08,1.94937500e-01
-6.19237500e-08,1.94887500e-01
-6.18837500e-08,1.94901563e-01
-6.18437500e-08,1.94906250e-01
-6.18037500e-08,1.94885937e-01
-6.17637500e-08,1.94926563e-01
-6.17237500e-08,1.94846875e-01
-6.16837500e-08,1.95107813e-01
-6.16437500e-08,1.95353125e-01
-6.16037500e-08,1.95271875e-01
-6.15637500e-08,1.95318750e-01
-6.15237500e-08,1.95289062e-01
-6.14837500e-08,1.95307813e-01
-6.14437500e-08,1.95296875e-01
-6.14037500e-08,1.95300000e-01
-6.13637500e-08,1.95304688e-01
-6.13237500e-08,1.95289062e-01
-6.12837500e-08,1.95321875e-01
-6.12437500e-08,1.95251563e-01
-6.12037500e-08,1.95501563e-01
-6.11637500e-08,1.95759375e-01
-6.11237500e-08,1.95665625e-01
-6.10837500e-08,1.95725000e-01
-6.10437500e-08,1.95681250e-01
-6.10037500e-08,1.95715625e-01
-6.09637500e-08,1.95687500e-01
-6.09237500e-08,1.95709375e-01
-6.08837500e-08,1.95693750e-01
-6.08437500e-08,1.95704688e-01
-6.08037500e-08,1.95698438e-01
-6.07637500e-08,1.95696875e-01
-6.07237500e-08,1.95707813e-01
-6.06837500e-08,1.95681250e-01
-6.06437500e-08,1.95743750e-01
-6.06037500e-08,1.95501563e-01
-6.05637500e-08,1.95235938e-01
-6.05237500e-08,1.95339062e-01
-6.04837500e-08,1.95270313e-01
-6.04437500e-08,1.95323438e-01
-6.04037500e-08,1.95279688e-01
-6.03637500e-08,1.95315625e-01
-6.03237500e-08,1.95287500e-01
-6.02837500e-08,1.95309375e-01
-6.02437500e-08,1.95295313e-01
-6.02037500e-08,1.95293750e-01
-6.01637500e-08,1.95329688e-01
-6.01237500e-08,1.95117188e-01
-6.00837500e-08,1.94818750e-01
-6.00437500e-08,1.94959375e-01
-6.00037500e-08,1.94846875e-01
-5.99637500e-08,1.94953125e-01
-5.99237500e-08,1.94840625e-01
-5.98837500e-08,1.94982813e-01
-5.98437500e-08,1.94665625e-01
-5.98037500e-08,1.94471875e-01
-5.97637500e-08,1.94503125e-01
-5.97237500e-08,1.94506250e-01
-5.96837500e-08,1.94485938e-01
-5.96437500e-08,1.94520313e-01
-5.96037500e-08,1.94468750e-01
-5.95637500e-08,1.94556250e-01
-5.95237500e-08,1.94290625e-01
-5.94837500e-08,1.94046875e-01
-5.94437500e-08,1.94131250e-01
-5.94037500e-08,1.94076562e-01
-5.93637500e-08,1.94123437e-01
-5.93237500e-08,1.94070313e-01
-5.92837500e-08,1.94151563e-01
-5.92437500e-08,1.93898438e-01
-5.92037500e-08,1.93637500e-01
-5.91637500e-08,1.93740625e-01
-5.91237500e-08,1.93665625e-01
-5.90837500e-08,1.93731250e-01
-5.90437500e-08,1.93667188e-01
-5.90037500e-08,1.93735938e-01
-5.89637500e-08,1.93654688e-01
-5.89237500e-08,1.93768750e-01
-5.88837500e-08,1.93478125e-01
-5.88437500e-08,1.93259375e-01
-5.88037500e-08,1.93317188e-01
-5.87637500e-08,1.93292188e-01
-5.87237500e-08,1.93301562e-01
-5.86837500e-08,1.93301562e-01
-5.86437500e-08,1.93296875e-01
-5.86037500e-08,1.93306250e-01
-5.85637500e-08,1.93292188e-01
-5.85237500e-08,1.93309375e-01
-5.84837500e-08,1.93287500e-01
-5.84437500e-08,1.93315625e-01
-5.84037500e-08,1.93281250e-01
-5.83637500e-08,1.93325000e-01
-5.83237500e-08,1.93265625e-01
-5.82837500e-08,1.93360937e-01
-5.82437500e-08,1.93085937e-01
-5.82037500e-08,1.92853125e-01
-5.81637500e-08,1.92921875e-01
-5.81237500e-08,1.92889063e-01
-5.80837500e-08,1.92904688e-01
-5.80437500e-08,1.92901563e-01
-5.80037500e-08,1.92890625e-01
-5.79637500e-08,1.92920312e-01
-5.79237500e-08,1.92854688e-01
-5.78837500e-08,1.93100000e-01
-5.78437500e-08,1.93362500e-01
-5.78037500e-08,1.93262500e-01
-5.77637500e-08,1.93328125e-01
-5.77237500e-08,1.93276562e-01
-5.76837500e-08,1.93320313e-01
-5.76437500e-08,1.93281250e-01
-5.76037500e-08,1.93317188e-01
-5.75637500e-08,1.93284375e-01
-5.75237500e-08,1.93315625e-01
-5.74837500e-08,1.93284375e-01
-5.74437500e-08,1.93317188e-01
-5.74037500e-08,1.93281250e-01
-5.73637500e-08,1.93320313e-01
-5.73237500e-08,1.93275000e-01
-5.72837500e-08,1.93334375e-01
-5.72437500e-08,1.93240625e-01
-5.72037500e-08,1.93512500e-01
-5.71637500e-08,1.93750000e-01
-5.71237500e-08,1.93673438e-01
-5.70837500e-08,1.93717187e-01
-5.70437500e-08,1.93687500e-01
-5.70037500e-08,1.93709375e-01
-5.69637500e-08,1.93692188e-01
-5.69237500e-08,1.93706250e-01
-5.68837500e-08,1.93693750e-01
-5.68437500e-08,1.93704688e-01
-5.68037500e-08,1.93695312e-01
-5.67637500e-08,1.93704688e-01
-5.67237500e-08,1.93696875e-01
-5.66837500e-08,1.93703125e-01
-5.66437500e-08,1.93696875e-01
-5.66037500e-08,1.93703125e-01
-5.65637500e-08,1.93698438e-01
-5.65237500e-08,1.93701563e-01
-5.64837500e-08,1.93698438e-01
-5.64437500e-08,1.93701563e-01
-5.64037500e-08,1.93700000e-01
-5.63637500e-08,1.93700000e-01
-5.63237500e-08,1.93700000e-01
-5.62837500e-08,1.93698438e-01
-5.62437500e-08,1.93701563e-01
-5.62037500e-08,1.93696875e-01
-5.61637500e-08,1.93706250e-01
-5.61237500e-08,1.93692188e-01
-5.60837500e-08,1.93714063e-01
-5.60437500e-08,1.93676563e-01
-5.60037500e-08,1.93746875e-01
-5.59637500e-08,1.93500000e-01
-5.59237500e-08,1.93237500e-01
-5.58837500e-08,1.93339062e-01
-5.58437500e-08,1.93268750e-01
-5.58037500e-08,1.93326563e-01
-5.57637500e-08,1.93276562e-01
-5.57237500e-08,1.93323438e-01
-5.56837500e-08,1.93276562e-01
-5.56437500e-08,1.93323438e-01
-5.56037500e-08,1.93273438e-01
-5.55637500e-08,1.93331250e-01
-5.55237500e-08,1.93259375e-01
-5.54837500e-08,1.93364063e-01
-5.54437500e-08,1.93082813e-01
-5.54037500e-08,1.92854688e-01
-5.53637500e-08,1.92921875e-01
-5.53237500e-08,1.92887500e-01
-5.52837500e-08,1.92907812e-01
-5.52437500e-08,1.92895312e-01
-5.52037500e-08,1.92903125e-01
-5.51637500e-08,1.92898438e-01
-5.51237500e-08,1.92901563e-01
-5.50837500e-08,1.92900000e-01
-5.50437500e-08,1.92900000e-01
-5.50037500e-08,1.92901563e-01
-5.49637500e-08,1.92898438e-01
-5.49237500e-08,1.92901563e-01
-5.48837500e-08,1.92898438e-01
-5.48437500e-08,1.92903125e-01
-5.48037500e-08,1.92896875e-01
-5.47637500e-08,1.92903125e-01
-5.47237500e-08,1.92896875e-01
-5.46837500e-08,1.92903125e-01
-5.46437500e-08,1.92896875e-01
-5.46037500e-08,1.92903125e-01
-5.45637500e-08,1.92896875e-01
-5.45237500e-08,1.92904688e-01
-5.44837500e-08,1.92895312e-01
-5.44437500e-08,1.92904688e-01
-5.44037500e-08,1.92895312e-01
-5.43637500e-08,1.92904688e-01
-5.43237500e-08,1.92895312e-01
-5.42837500e-08,1.92904688e-01
-5.42437500e-08,1.92895312e-01
-5.42037500e-08,1.92904688e-01
-5.41637500e-08,1.92895312e-01
-5.41237500e-08,1.92906250e-01
-5.40837500e-08,1.92893750e-01
-5.40437500e-08,1.92906250e-01
-5.40037500e-08,1.92893750e-01
-5.39637500e-08,1.92906250e-01
-5.39237500e-08,1.92893750e-01
-5.38837500e-08,1.92906250e-01
-5.38437500e-08,1.92893750e-01
-5.38037500e-08,1.92907812e-01
-5.37637500e-08,1.92892188e-01
-5.37237500e-08,1.92907812e-01
-5.36837500e-08,1.92892188e-01
-5.36437500e-08,1.92907812e-01
-5.36037500e-08,1.92890625e-01
-5.35637500e-08,1.92909375e-01
-5.35237500e-08,1.92890625e-01
-5.34837500e-08,1.92910938e-01
-5.34437500e-08,1.92889063e-01
-5.34037500e-08,1.92910938e-01
-5.33637500e-08,1.92887500e-01
-5.33237500e-08,1.92914063e-01
-5.32837500e-08,1.92884375e-01
-5.32437500e-08,1.92917188e-01
-5.32037500e-08,1.92881250e-01
-5.31637500e-08,1.92921875e-01
-5.31237500e-08,1.92871875e-01
-5.30837500e-08,1.92937500e-01
-5.30437500e-08,1.92837500e-01
-5.30037500e-08,1.93117188e-01
-5.29637500e-08,1.93345313e-01
-5.29237500e-08,1.93279688e-01
-5.28837500e-08,1.93310938e-01
-5.28437500e-08,1.93295313e-01
-5.28037500e-08,1.93301562e-01
-5.27637500e-08,1.93301562e-01
-5.27237500e-08,1.93295313e-01
-5.26837500e-08,1.93307813e-01
-5.26437500e-08,1.93289062e-01
-5.26037500e-08,1.93314062e-01
-5.25637500e-08,1.93279688e-01
-5.25237500e-08,1.93331250e-01
-5.24837500e-08,1.93243750e-01
-5.24437500e-08,1.93509375e-01
-5.24037500e-08,1.93751563e-01
-5.23637500e-08,1.93673438e-01
-5.23237500e-08,1.93717187e-01
-5.22837500e-08,1.93689063e-01
-5.22437500e-08,1.93707813e-01
-5.22037500e-08,1.93695312e-01
-5.21637500e-08,1.93701563e-01
-5.21237500e-08,1.93701563e-01
-5.20837500e-08,1.93695312e-01
-5.20437500e-08,1.93707813e-01
-5.20037500e-08,1.93685938e-01
-5.19637500e-08,1.93725000e-01
-5.19237500e-08,1.93650000e-01
-5.18837500e-08,1.93903125e-01
-5.18437500e-08,1.94157812e-01
-5.18037500e-08,1.94065625e-01
-5.17637500e-08,1.94125000e-01
-5.17237500e-08,1.94081250e-01
-5.16837500e-08,1.94115625e-01
-5.16437500e-08,1.94087500e-01
-5.16037500e-08,1.94110937e-01
-5.15637500e-08,1.94090625e-01
-5.15237500e-08,1.94109375e-01
-5.14837500e-08,1.94092188e-01
-5.14437500e-08,1.94106250e-01
-5.14037500e-08,1.94093750e-01
-5.13637500e-08,1.94106250e-01
-5.13237500e-08,1.94095313e-01
-5.12837500e-08,1.94104688e-01
-5.12437500e-08,1.94096875e-01
-5.12037500e-08,1.94103125e-01
-5.11637500e-08,1.94098437e-01
-5.11237500e-08,1.94101563e-01
-5.10837500e-08,1.94100000e-01
-5.10437500e-08,1.94100000e-01
-5.10037500e-08,1.94101563e-01
-5.09637500e-08,1.94096875e-01
-5.09237500e-08,1.94106250e-01
-5.08837500e-08,1.94090625e-01
-5.08437500e-08,1.94114063e-01
-5.08037500e-08,1.94076562e-01
-5.07637500e-08,1.94148437e-01
-5.07237500e-08,1.93898438e-01
-5.06837500e-08,1.93639063e-01
-5.06437500e-08,1.93735938e-01
-5.06037500e-08,1.93673438e-01
-5.05637500e-08,1.93721875e-01
-5.05237500e-08,1.93681250e-01
-5.04837500e-08,1.93717187e-01
-5.04437500e-08,1.93684375e-01
-5.04037500e-08,1.93715625e-01
-5.03637500e-08,1.93685938e-01
-5.03237500e-08,1.93714063e-01
-5.02837500e-08,1.93685938e-01
-5.02437500e-08,1.93714063e-01
-5.02037500e-08,1.93685938e-01
-5.01637500e-08,1.93714063e-01
-5.01237500e-08,1.93685938e-01
-5.00837500e-08,1.93714063e-01
-5.00437500e-08,1.93684375e-01
-5.00037500e-08,1.93715625e-01
-4.99637500e-08,1.93682812e-01
-4.99237500e-08,1.93718750e-01
-4.98837500e-08,1.93678125e-01
-4.98437500e-08,1.93726563e-01
-4.98037500e-08,1.93662500e-01
-4.97637500e-08,1.93762500e-01
-4.97237500e-08,1.93484375e-01
-4.96837500e-08,1.93253125e-01
-4.96437500e-08,1.93323438e-01
-4.96037500e-08,1.93285938e-01
-4.95637500e-08,1.93307813e-01
-4.95237500e-08,1.93295313e-01
-4.94837500e-08,1.93303125e-01
-4.94437500e-08,1.93298438e-01
-4.94037500e-08,1.93300000e-01
-4.93637500e-08,1.93301562e-01
-4.93237500e-08,1.93296875e-01
-4.92837500e-08,1.93304688e-01
-4.92437500e-08,1.93292188e-01
-4.92037500e-08,1.93309375e-01
-4.91637500e-08,1.93287500e-01
-4.91237500e-08,1.93318750e-01
-4.90837500e-08,1.93271875e-01
-4.90437500e-08,1.93353125e-01
-4.90037500e-08,1.93093750e-01
-4.89637500e-08,1.92845313e-01
-4.89237500e-08,1.92931250e-01
-4.88837500e-08,1.92878125e-01
-4.88437500e-08,1.92915625e-01
-4.88037500e-08,1.92887500e-01
-4.87637500e-08,1.92910938e-01
-4.87237500e-08,1.92892188e-01
-4.86837500e-08,1.92906250e-01
-4.86437500e-08,1.92895312e-01
-4.86037500e-08,1.92903125e-01
-4.85637500e-08,1.92900000e-01
-4.85237500e-08,1.92896875e-01
-4.84837500e-08,1.92907812e-01
-4.84437500e-08,1.92881250e-01
-4.84037500e-08,1.92943750e-01
-4.83637500e-08,1.92704687e-01
-4.83237500e-08,1.92432812e-01
-4.82837500e-08,1.92542188e-01
-4.82437500e-08,1.92465625e-01
-4.82037500e-08,1.92529688e-01
-4.81637500e-08,1.92473438e-01
-4.81237500e-08,1.92525000e-01
-4.80837500e-08,1.92475000e-01
-4.80437500e-08,1.92525000e-01
-4.80037500e-08,1.92473438e-01
-4.79637500e-08,1.92528125e-01
-4.79237500e-08,1.92468750e-01
-4.78837500e-08,1.92535938e-01
-4.78437500e-08,1.92454687e-01
-4.78037500e-08,1.92570313e-01
-4.77637500e-08,1.92276562e-01
-4.77237500e-08,1.92062500e-01
-4.76837500e-08,1.92114063e-01
-4.76437500e-08,1.92096875e-01
-4.76037500e-08,1.92096875e-01
-4.75637500e-08,1.92109375e-01
-4.75237500e-08,1.92085937e-01
-4.74837500e-08,1.92120313e-01
-4.74437500e-08,1.92068750e-01
-4.74037500e-08,1.92157812e-01
-4.73637500e-08,1.91887500e-01
-4.73237500e-08,1.91651563e-01
-4.72837500e-08,1.91723438e-01
-4.72437500e-08,1.91689063e-01
-4.72037500e-08,1.91703125e-01
-4.71637500e-08,1.91704687e-01
-4.71237500e-08,1.91684375e-01
-4.70837500e-08,1.91742187e-01
-4.70437500e-08,1.91504687e-01
-4.70037500e-08,1.91232813e-01
-4.69637500e-08,1.91342188e-01
-4.69237500e-08,1.91265625e-01
-4.68837500e-08,1.91331250e-01
-4.68437500e-08,1.91270313e-01
-4.68037500e-08,1.91332813e-01
-4.67637500e-08,1.91259375e-01
-4.67237500e-08,1.91364063e-01
-4.66837500e-08,1.91084375e-01
-4.66437500e-08,1.90853125e-01
-4.66037500e-08,1.90925000e-01
-4.65637500e-08,1.90884375e-01
-4.65237500e-08,1.90912500e-01
-4.64837500e-08,1.90890625e-01
-4.64437500e-08,1.90907812e-01
-4.64037500e-08,1.90892188e-01
-4.63637500e-08,1.90906250e-01
-4.63237500e-08,1.90893750e-01
-4.62837500e-08,1.90906250e-01
-4.62437500e-08,1.90893750e-01
-4.62037500e-08,1.90906250e-01
-4.61637500e-08,1.90893750e-01
-4.61237500e-08,1.90906250e-01
-4.60837500e-08,1.90892188e-01
-4.60437500e-08,1.90907812e-01
-4.60037500e-08,1.90890625e-01
-4.59637500e-08,1.90910938e-01
-4.59237500e-08,1.90887500e-01
-4.58837500e-08,1.90915625e-01
-4.58437500e-08,1.90879688e-01
-4.58037500e-08,1.90929688e-01
-4.57637500e-08,1.90846875e-01
-4.57237500e-08,1.91106250e-01
-4.56837500e-08,1.91357813e-01
-4.56437500e-08,1.91264062e-01
-4.56037500e-08,1.91328125e-01
-4.55637500e-08,1.91271875e-01
-4.55237500e-08,1.91332813e-01
-4.54837500e-08,1.91245313e-01
-4.54437500e-08,1.91506250e-01
-4.54037500e-08,1.91759375e-01
-4.53637500e-08,1.91660938e-01
-4.53237500e-08,1.91734375e-01
-4.52837500e-08,1.91665625e-01
-4.52437500e-08,1.91742187e-01
-4.52037500e-08,1.91632812e-01
-4.51637500e-08,1.91920312e-01
-4.51237500e-08,1.92140625e-01
-4.50837500e-08,1.92084375e-01
-4.50437500e-08,1.92101563e-01
-4.50037500e-08,1.92112500e-01
-4.49637500e-08,1.92060938e-01
-4.49237500e-08,1.92293750e-01
-4.48837500e-08,1.92568750e-01
-4.48437500e-08,1.92456250e-01
-4.48037500e-08,1.92535938e-01
-4.47637500e-08,1.92467187e-01
-4.47237500e-08,1.92531250e-01
-4.46837500e-08,1.92465625e-01
-4.46437500e-08,1.92542188e-01
-4.46037500e-08,1.92434375e-01
-4.45637500e-08,1.92717187e-01
-4.45237500e-08,1.92945313e-01
-4.44837500e-08,1.92878125e-01
-4.44437500e-08,1.92914063e-01
-4.44037500e-08,1.92890625e-01
-4.43637500e-08,1.92906250e-01
-4.43237500e-08,1.92895312e-01
-4.42837500e-08,1.92904688e-01
-4.42437500e-08,1.92896875e-01
-4.42037500e-08,1.92903125e-01
-4.41637500e-08,1.92896875e-01
-4.41237500e-08,1.92903125e-01
-4.40837500e-08,1.92898438e-01
-4.40437500e-08,1.92901563e-01
-4.40037500e-08,1.92898438e-01
-4.39637500e-08,1.92901563e-01
-4.39237500e-08,1.92898438e-01
-4.38837500e-08,1.92901563e-01
-4.38437500e-08,1.92898438e-01
-4.38037500e-08,1.92901563e-01
-4.37637500e-08,1.92898438e-01
-4.37237500e-08,1.92901563e-01
-4.36837500e-08,1.92898438e-01
-4.36437500e-08,1.92901563e-01
-4.36037500e-08,1.92898438e-01
-4.35637500e-08,1.92901563e-01
-4.35237500e-08,1.92898438e-01
-4.34837500e-08,1.92901563e-01
-4.34437500e-08,1.92898438e-01
-4.34037500e-08,1.92901563e-01
-4.33637500e-08,1.92898438e-01
-4.33237500e-08,1.92901563e-01
-4.32837500e-08,1.92898438e-01
-4.32437500e-08,1.92901563e-01
-4.32037500e-08,1.92898438e-01
-4.31637500e-08,1.92901563e-01
-4.31237500e-08,1.92896875e-01
-4.30837500e-08,1.92903125e-01
-4.30437500e-08,1.92896875e-01
-4.30037500e-08,1.92903125e-01
-4.29637500e-08,1.92896875e-01
-4.29237500e-08,1.92903125e-01
-4.28837500e-08,1.92896875e-01
-4.28437500e-08,1.92903125e-01
-4.28037500e-08,1.92896875e-01
-4.27637500e-08,1.92903125e-01
-4.27237500e-08,1.92896875e-01
-4.26837500e-08,1.92903125e-01
-4.26437500e-08,1.92896875e-01
-4.26037500e-08,1.92903125e-01
-4.25637500e-08,1.92896875e-01
-4.25237500e-08,1.92903125e-01
-4.24837500e-08,1.92896875e-01
-4.24437500e-08,1.92904688e-01
-4.24037500e-08,1.92895312e-01
-4.23637500e-08,1.92904688e-01
-4.23237500e-08,1.92895312e-01
-4.22837500e-08,1.92904688e-01
-4.22437500e-08,1.92895312e-01
-4.22037500e-08,1.92904688e-01
-4.21637500e-08,1.92895312e-01
-4.21237500e-08,1.92906250e-01
-4.20837500e-08,1.92893750e-01
-4.20437500e-08,1.92906250e-01
-4.20037500e-08,1.92893750e-01
-4.19637500e-08,1.92906250e-01
-4.19237500e-08,1.92893750e-01
-4.18837500e-08,1.92907812e-01
-4.18437500e-08,1.92892188e-01
-4.18037500e-08,1.92907812e-01
-4.17637500e-08,1.92890625e-01
-4.17237500e-08,1.92909375e-01
-4.16837500e-08,1.92890625e-01
-4.16437500e-08,1.92910938e-01
-4.16037500e-08,1.92889063e-01
-4.15637500e-08,1.92912500e-01
-4.15237500e-08,1.92885937e-01
-4.14837500e-08,1.92915625e-01
-4.14437500e-08,1.92881250e-01
-4.14037500e-08,1.92921875e-01
-4.13637500e-08,1.92873438e-01
-4.13237500e-08,1.92937500e-01
-4.12837500e-08,1.92837500e-01
-4.12437500e-08,1.93117188e-01
-4.12037500e-08,1.93345313e-01
-4.11637500e-08,1.93279688e-01
-4.11237500e-08,1.93309375e-01
-4.10837500e-08,1.93296875e-01
-4.10437500e-08,1.93296875e-01
-4.10037500e-08,1.93307813e-01
-4.09637500e-08,1.93284375e-01
-4.09237500e-08,1.93326563e-01
-4.08837500e-08,1.93248438e-01
-4.08437500e-08,1.93506250e-01
-4.08037500e-08,1.93754688e-01
-4.07637500e-08,1.93670312e-01
-4.07237500e-08,1.93718750e-01
-4.06837500e-08,1.93687500e-01
-4.06437500e-08,1.93706250e-01
-4.06037500e-08,1.93698438e-01
-4.05637500e-08,1.93695312e-01
-4.05237500e-08,1.93715625e-01
-4.04837500e-08,1.93659375e-01
-4.04437500e-08,1.93895312e-01
-4.04037500e-08,1.94167188e-01
-4.03637500e-08,1.94056250e-01
-4.03237500e-08,1.94134375e-01
-4.02837500e-08,1.94070313e-01
-4.02437500e-08,1.94128125e-01
-4.02037500e-08,1.94071875e-01
-4.01637500e-08,1.94129688e-01
-4.01237500e-08,1.94067188e-01
-4.00837500e-08,1.94140625e-01
-4.00437500e-08,1.94034375e-01
-4.00037500e-08,1.94317188e-01
-3.99637500e-08,1.94545313e-01
-3.99237500e-08,1.94478125e-01
-3.98837500e-08,1.94514063e-01
-3.98437500e-08,1.94490625e-01
-3.98037500e-08,1.94506250e-01
-3.97637500e-08,1.94495313e-01
-3.97237500e-08,1.94504687e-01
-3.96837500e-08,1.94496875e-01
-3.96437500e-08,1.94503125e-01
-3.96037500e-08,1.94496875e-01
-3.95637500e-08,1.94503125e-01
-3.95237500e-08,1.94496875e-01
-3.94837500e-08,1.94503125e-01
-3.94437500e-08,1.94496875e-01
-3.94037500e-08,1.94503125e-01
-3.93637500e-08,1.94496875e-01
-3.93237500e-08,1.94503125e-01
-3.92837500e-08,1.94496875e-01
-3.92437500e-08,1.94503125e-01
-3.92037500e-08,1.94495313e-01
-3.91637500e-08,1.94504687e-01
-3.91237500e-08,1.94493750e-01
-3.90837500e-08,1.94506250e-01
-3.90437500e-08,1.94492187e-01
-3.90037500e-08,1.94509375e-01
-3.89637500e-08,1.94487500e-01
-3.89237500e-08,1.94517188e-01
-3.88837500e-08,1.94471875e-01
-3.88437500e-08,1.94551562e-01
-3.88037500e-08,1.94295313e-01
-3.87637500e-08,1.94042188e-01
-3.87237500e-08,1.94134375e-01
-3.86837500e-08,1.94075000e-01
-3.86437500e-08,1.94120313e-01
-3.86037500e-08,1.94081250e-01
-3.85637500e-08,1.94117188e-01
-3.85237500e-08,1.94082813e-01
