trails/00d3b5ca214f61c40c3d804afea55865/aes_ch1_20250506164307841.csv

Model,MSO66B
Label,
Waveform Type,ANALOG
Horizontal Units,s
Sample Interval,4.00000000e-11
Record Length,10000
Zero Index,1599.12109375
Vertical Units,A
ANALOG_Thumbnail,
yOffset,1.84500000e-01
yPosition,8.40000000e-01

Labels,
TIME,CH1
-6.39648437e-08,2.04907813e-01
-6.39248438e-08,2.04892188e-01
-6.38848437e-08,2.04907813e-01
-6.38448438e-08,2.04892188e-01
-6.38048437e-08,2.04907813e-01
-6.37648437e-08,2.04892188e-01
-6.37248437e-08,2.04907813e-01
-6.36848437e-08,2.04892188e-01
-6.36448438e-08,2.04907813e-01
-6.36048437e-08,2.04892188e-01
-6.35648438e-08,2.04907813e-01
-6.35248437e-08,2.04892188e-01
-6.34848437e-08,2.04907813e-01
-6.34448437e-08,2.04892188e-01
-6.34048437e-08,2.04907813e-01
-6.33648438e-08,2.04892188e-01
-6.33248437e-08,2.04909375e-01
-6.32848437e-08,2.04890625e-01
-6.32448437e-08,2.04909375e-01
-6.32048437e-08,2.04890625e-01
-6.31648437e-08,2.04910938e-01
-6.31248437e-08,2.04889062e-01
-6.30848438e-08,2.04912500e-01
-6.30448437e-08,2.04887500e-01
-6.30048437e-08,2.04914062e-01
-6.29648437e-08,2.04884375e-01
-6.29248437e-08,2.04917188e-01
-6.28848437e-08,2.04879688e-01
-6.28448437e-08,2.04926563e-01
-6.28048438e-08,2.04864062e-01
-6.27648437e-08,2.04960937e-01
-6.27248437e-08,2.04685937e-01
-6.26848437e-08,2.04453125e-01
-6.26448437e-08,2.04523438e-01
-6.26048437e-08,2.04487500e-01
-6.25648437e-08,2.04507812e-01
-6.25248438e-08,2.04496875e-01
-6.24848437e-08,2.04501563e-01
-6.24448437e-08,2.04501563e-01
-6.24048437e-08,2.04495312e-01
-6.23648437e-08,2.04507812e-01
-6.23248437e-08,2.04489063e-01
-6.22848437e-08,2.04517188e-01
-6.22448438e-08,2.04473438e-01
-6.22048437e-08,2.04553125e-01
-6.21648437e-08,2.04293750e-01
-6.21248437e-08,2.04043750e-01
-6.20848437e-08,2.04131250e-01
-6.20448437e-08,2.04078125e-01
-6.20048437e-08,2.04115625e-01
-6.19648438e-08,2.04087500e-01
-6.19248437e-08,2.04110938e-01
-6.18848437e-08,2.04092188e-01
-6.18448437e-08,2.04106250e-01
-6.18048437e-08,2.04095313e-01
-6.17648437e-08,2.04101562e-01
-6.17248437e-08,2.04100000e-01
-6.16848438e-08,2.04095313e-01
-6.16448437e-08,2.04109375e-01
-6.16048437e-08,2.04081250e-01
-6.15648437e-08,2.04143750e-01
-6.15248437e-08,2.03903125e-01
-6.14848437e-08,2.03634375e-01
-6.14448437e-08,2.03742188e-01
-6.14048438e-08,2.03667188e-01
-6.13648437e-08,2.03728125e-01
-6.13248437e-08,2.03675000e-01
-6.12848437e-08,2.03723437e-01
-6.12448437e-08,2.03678125e-01
-6.12048438e-08,2.03721875e-01
-6.11648437e-08,2.03678125e-01
-6.11248438e-08,2.03723437e-01
-6.10848437e-08,2.03676563e-01
-6.10448437e-08,2.03725000e-01
-6.10048437e-08,2.03671875e-01
-6.09648437e-08,2.03732812e-01
-6.09248438e-08,2.03656250e-01
-6.08848437e-08,2.03768750e-01
-6.08448438e-08,2.03478125e-01
-6.08048437e-08,2.03259375e-01
-6.07648437e-08,2.03315625e-01
-6.07248437e-08,2.03293750e-01
-6.06848437e-08,2.03300000e-01
-6.06448438e-08,2.03303125e-01
-6.06048437e-08,2.03292187e-01
-6.05648438e-08,2.03310938e-01
-6.05248437e-08,2.03284375e-01
-6.04848437e-08,2.03321875e-01
-6.04448437e-08,2.03268750e-01
-6.04048437e-08,2.03357813e-01
-6.03648438e-08,2.03089063e-01
-6.03248437e-08,2.02850000e-01
-6.02848438e-08,2.02925000e-01
-6.02448437e-08,2.02884375e-01
-6.02048437e-08,2.02909375e-01
-6.01648437e-08,2.02895313e-01
-6.01248437e-08,2.02901563e-01
-6.00848438e-08,2.02901563e-01
-6.00448437e-08,2.02893750e-01
-6.00048438e-08,2.02912500e-01
-5.99648437e-08,2.02876562e-01
-5.99248437e-08,2.02948438e-01
-5.98848437e-08,2.02698437e-01
-5.98448437e-08,2.02440625e-01
-5.98048438e-08,2.02535938e-01
-5.97648437e-08,2.02473438e-01
-5.97248438e-08,2.02520313e-01
-5.96848437e-08,2.02482812e-01
-5.96448437e-08,2.02515625e-01
-5.96048437e-08,2.02485938e-01
-5.95648437e-08,2.02512500e-01
-5.95248437e-08,2.02489063e-01
-5.94848437e-08,2.02510938e-01
-5.94448437e-08,2.02490625e-01
-5.94048437e-08,2.02509375e-01
-5.93648437e-08,2.02490625e-01
-5.93248437e-08,2.02509375e-01
-5.92848437e-08,2.02490625e-01
-5.92448437e-08,2.02507812e-01
-5.92048437e-08,2.02492188e-01
-5.91648437e-08,2.02507812e-01
-5.91248437e-08,2.02492188e-01
-5.90848437e-08,2.02509375e-01
-5.90448437e-08,2.02490625e-01
-5.90048437e-08,2.02509375e-01
-5.89648437e-08,2.02489063e-01
-5.89248437e-08,2.02510938e-01
-5.88848437e-08,2.02487500e-01
-5.88448437e-08,2.02515625e-01
-5.88048437e-08,2.02479688e-01
-5.87648437e-08,2.02529687e-01
-5.87248437e-08,2.02445313e-01
-5.86848437e-08,2.02706250e-01
-5.86448437e-08,2.02956250e-01
-5.86048437e-08,2.02867188e-01
-5.85648437e-08,2.02925000e-01
-5.85248437e-08,2.02879688e-01
-5.84848437e-08,2.02918750e-01
-5.84448437e-08,2.02881250e-01
-5.84048437e-08,2.02920313e-01
-5.83648437e-08,2.02875000e-01
-5.83248437e-08,2.02932813e-01
-5.82848437e-08,2.02843750e-01
-5.82448437e-08,2.03109375e-01
-5.82048437e-08,2.03354688e-01
-5.81648437e-08,2.03268750e-01
-5.81248437e-08,2.03323438e-01
-5.80848437e-08,2.03279688e-01
-5.80448437e-08,2.03320313e-01
-5.80048437e-08,2.03276563e-01
-5.79648437e-08,2.03331250e-01
-5.79248437e-08,2.03245312e-01
-5.78848437e-08,2.03506250e-01
-5.78448437e-08,2.03757812e-01
-5.78048437e-08,2.03664063e-01
-5.77648437e-08,2.03728125e-01
-5.77248437e-08,2.03673437e-01
-5.76848437e-08,2.03726563e-01
-5.76448437e-08,2.03668750e-01
-5.76048437e-08,2.03739063e-01
-5.75648437e-08,2.03635938e-01
-5.75248437e-08,2.03917188e-01
-5.74848437e-08,2.04145313e-01
-5.74448437e-08,2.04079687e-01
-5.74048437e-08,2.04110938e-01
-5.73648437e-08,2.04095313e-01
-5.73248437e-08,2.04100000e-01
-5.72848437e-08,2.04104687e-01
-5.72448437e-08,2.04089063e-01
-5.72048437e-08,2.04121875e-01
-5.71648437e-08,2.04053125e-01
-5.71248437e-08,2.04301563e-01
-5.70848437e-08,2.04560938e-01
-5.70448437e-08,2.04464063e-01
-5.70048437e-08,2.04526563e-01
-5.69648437e-08,2.04478125e-01
-5.69248437e-08,2.04518750e-01
-5.68848437e-08,2.04484375e-01
-5.68448437e-08,2.04514063e-01
-5.68048437e-08,2.04485937e-01
-5.67648437e-08,2.04512500e-01
-5.67248437e-08,2.04487500e-01
-5.66848437e-08,2.04510938e-01
-5.66448437e-08,2.04489063e-01
-5.66048437e-08,2.04510938e-01
-5.65648437e-08,2.04490625e-01
-5.65248437e-08,2.04509375e-01
-5.64848437e-08,2.04490625e-01
-5.64448437e-08,2.04509375e-01
-5.64048437e-08,2.04490625e-01
-5.63648437e-08,2.04509375e-01
-5.63248437e-08,2.04490625e-01
-5.62848437e-08,2.04509375e-01
-5.62448437e-08,2.04490625e-01
-5.62048437e-08,2.04509375e-01
-5.61648437e-08,2.04490625e-01
-5.61248437e-08,2.04509375e-01
-5.60848437e-08,2.04490625e-01
-5.60448437e-08,2.04509375e-01
-5.60048437e-08,2.04490625e-01
-5.59648437e-08,2.04509375e-01
-5.59248437e-08,2.04489063e-01
-5.58848437e-08,2.04510938e-01
-5.58448437e-08,2.04489063e-01
-5.58048437e-08,2.04512500e-01
-5.57648437e-08,2.04487500e-01
-5.57248437e-08,2.04514063e-01
-5.56848437e-08,2.04484375e-01
-5.56448437e-08,2.04517188e-01
-5.56048437e-08,2.04479688e-01
-5.55648437e-08,2.04526563e-01
-5.55248437e-08,2.04464063e-01
-5.54848437e-08,2.04560938e-01
-5.54448437e-08,2.04285938e-01
-5.54048437e-08,2.04051563e-01
-5.53648437e-08,2.04125000e-01
-5.53248437e-08,2.04084375e-01
-5.52848437e-08,2.04110938e-01
-5.52448437e-08,2.04093750e-01
-5.52048437e-08,2.04104687e-01
-5.51648437e-08,2.04096875e-01
-5.51248437e-08,2.04101562e-01
-5.50848437e-08,2.04100000e-01
-5.50448437e-08,2.04100000e-01
-5.50048437e-08,2.04101562e-01
-5.49648437e-08,2.04098438e-01
-5.49248437e-08,2.04103125e-01
-5.48848437e-08,2.04096875e-01
-5.48448437e-08,2.04104687e-01
-5.48048437e-08,2.04095313e-01
-5.47648437e-08,2.04106250e-01
-5.47248437e-08,2.04092188e-01
-5.46848437e-08,2.04109375e-01
-5.46448437e-08,2.04087500e-01
-5.46048437e-08,2.04115625e-01
-5.45648437e-08,2.04079687e-01
-5.45248437e-08,2.04129688e-01
-5.44848437e-08,2.04045313e-01
-5.44448437e-08,2.04307813e-01
-5.44048437e-08,2.04553125e-01
-5.43648437e-08,2.04470313e-01
-5.43248437e-08,2.04520313e-01
-5.42848437e-08,2.04485937e-01
-5.42448437e-08,2.04510938e-01
-5.42048437e-08,2.04490625e-01
-5.41648437e-08,2.04507812e-01
-5.41248437e-08,2.04493750e-01
-5.40848437e-08,2.04504688e-01
-5.40448437e-08,2.04496875e-01
-5.40048437e-08,2.04501563e-01
-5.39648437e-08,2.04500000e-01
-5.39248437e-08,2.04498438e-01
-5.38848437e-08,2.04503125e-01
-5.38448437e-08,2.04495312e-01
-5.38048438e-08,2.04507812e-01
-5.37648437e-08,2.04485937e-01
-5.37248437e-08,2.04523438e-01
-5.36848437e-08,2.04451563e-01
-5.36448437e-08,2.04701563e-01
-5.36048437e-08,2.04960937e-01
-5.35648437e-08,2.04862500e-01
-5.35248437e-08,2.04928125e-01
-5.34848437e-08,2.04876562e-01
-5.34448437e-08,2.04920313e-01
-5.34048437e-08,2.04881250e-01
-5.33648437e-08,2.04917188e-01
-5.33248437e-08,2.04884375e-01
-5.32848437e-08,2.04915625e-01
-5.32448437e-08,2.04884375e-01
-5.32048437e-08,2.04915625e-01
-5.31648437e-08,2.04884375e-01
-5.31248437e-08,2.04915625e-01
-5.30848437e-08,2.04882813e-01
-5.30448437e-08,2.04917188e-01
-5.30048437e-08,2.04879688e-01
-5.29648437e-08,2.04921875e-01
-5.29248437e-08,2.04873438e-01
-5.28848437e-08,2.04935937e-01
-5.28448437e-08,2.04839063e-01
-5.28048437e-08,2.05114062e-01
-5.27648437e-08,2.05348438e-01
-5.27248437e-08,2.05275000e-01
-5.26848437e-08,2.05315625e-01
-5.26448437e-08,2.05289063e-01
-5.26048437e-08,2.05307813e-01
-5.25648437e-08,2.05295312e-01
-5.25248437e-08,2.05304687e-01
-5.24848437e-08,2.05296875e-01
-5.24448437e-08,2.05301563e-01
-5.24048437e-08,2.05298438e-01
-5.23648437e-08,2.05301563e-01
-5.23248437e-08,2.05300000e-01
-5.22848437e-08,2.05300000e-01
-5.22448437e-08,2.05300000e-01
-5.22048437e-08,2.05300000e-01
-5.21648437e-08,2.05300000e-01
-5.21248437e-08,2.05300000e-01
-5.20848437e-08,2.05301563e-01
-5.20448437e-08,2.05298438e-01
-5.20048437e-08,2.05301563e-01
-5.19648437e-08,2.05298438e-01
-5.19248437e-08,2.05301563e-01
-5.18848438e-08,2.05298438e-01
-5.18448437e-08,2.05301563e-01
-5.18048437e-08,2.05298438e-01
-5.17648437e-08,2.05301563e-01
-5.17248437e-08,2.05298438e-01
-5.16848437e-08,2.05301563e-01
-5.16448437e-08,2.05296875e-01
-5.16048438e-08,2.05303125e-01
-5.15648437e-08,2.05296875e-01
-5.15248437e-08,2.05303125e-01
-5.14848437e-08,2.05296875e-01
-5.14448437e-08,2.05303125e-01
-5.14048437e-08,2.05296875e-01
-5.13648437e-08,2.05303125e-01
-5.13248437e-08,2.05296875e-01
-5.12848437e-08,2.05303125e-01
-5.12448437e-08,2.05296875e-01
-5.12048437e-08,2.05303125e-01
-5.11648437e-08,2.05295312e-01
-5.11248437e-08,2.05304687e-01
-5.10848437e-08,2.05295312e-01
-5.10448437e-08,2.05304687e-01
-5.10048437e-08,2.05295312e-01
-5.09648437e-08,2.05304687e-01
-5.09248437e-08,2.05295312e-01
-5.08848437e-08,2.05306250e-01
-5.08448437e-08,2.05293750e-01
-5.08048437e-08,2.05306250e-01
-5.07648437e-08,2.05292188e-01
-5.07248437e-08,2.05307813e-01
-5.06848437e-08,2.05290625e-01
-5.06448437e-08,2.05310938e-01
-5.06048437e-08,2.05289063e-01
-5.05648437e-08,2.05314063e-01
-5.05248437e-08,2.05282813e-01
-5.04848437e-08,2.05321875e-01
-5.04448437e-08,2.05268750e-01
-5.04048437e-08,2.05356250e-01
-5.03648437e-08,2.05090625e-01
-5.03248437e-08,2.04846875e-01
-5.02848437e-08,2.04928125e-01
-5.02448437e-08,2.04881250e-01
-5.02048437e-08,2.04914062e-01
-5.01648437e-08,2.04889062e-01
-5.01248437e-08,2.04909375e-01
-5.00848437e-08,2.04892188e-01
-5.00448437e-08,2.04906250e-01
-5.00048437e-08,2.04895313e-01
-4.99648438e-08,2.04904688e-01
-4.99248437e-08,2.04895313e-01
-4.98848437e-08,2.04903125e-01
-4.98448437e-08,2.04896875e-01
-4.98048437e-08,2.04903125e-01
-4.97648437e-08,2.04896875e-01
-4.97248437e-08,2.04901563e-01
-4.96848438e-08,2.04898438e-01
-4.96448437e-08,2.04901563e-01
-4.96048437e-08,2.04898438e-01
-4.95648437e-08,2.04901563e-01
-4.95248437e-08,2.04900000e-01
-4.94848437e-08,2.04900000e-01
-4.94448437e-08,2.04900000e-01
-4.94048437e-08,2.04900000e-01
-4.93648437e-08,2.04900000e-01
-4.93248437e-08,2.04900000e-01
-4.92848437e-08,2.04900000e-01
-4.92448437e-08,2.04900000e-01
-4.92048437e-08,2.04901563e-01
-4.91648437e-08,2.04898438e-01
-4.91248437e-08,2.04901563e-01
-4.90848437e-08,2.04898438e-01
-4.90448437e-08,2.04901563e-01
-4.90048437e-08,2.04896875e-01
-4.89648437e-08,2.04903125e-01
-4.89248437e-08,2.04896875e-01
-4.88848437e-08,2.04904688e-01
-4.88448437e-08,2.04895313e-01
-4.88048437e-08,2.04906250e-01
-4.87648437e-08,2.04892188e-01
-4.87248437e-08,2.04909375e-01
-4.86848437e-08,2.04887500e-01
-4.86448437e-08,2.04917188e-01
-4.86048437e-08,2.04873438e-01
-4.85648437e-08,2.04951563e-01
-4.85248437e-08,2.04695313e-01
-4.84848437e-08,2.04442188e-01
-4.84448437e-08,2.04534375e-01
-4.84048437e-08,2.04473438e-01
-4.83648437e-08,2.04521875e-01
-4.83248437e-08,2.04479688e-01
-4.82848437e-08,2.04520313e-01
-4.82448437e-08,2.04478125e-01
-4.82048437e-08,2.04525000e-01
-4.81648437e-08,2.04465625e-01
-4.81248437e-08,2.04557813e-01
-4.80848437e-08,2.04290625e-01
-4.80448438e-08,2.04046875e-01
-4.80048437e-08,2.04131250e-01
-4.79648437e-08,2.04076563e-01
-4.79248437e-08,2.04118750e-01
-4.78848437e-08,2.04081250e-01
-4.78448437e-08,2.04118750e-01
-4.78048437e-08,2.04079687e-01
-4.77648438e-08,2.04123438e-01
-4.77248437e-08,2.04067187e-01
-4.76848437e-08,2.04157813e-01
-4.76448437e-08,2.03890625e-01
-4.76048437e-08,2.03646875e-01
-4.75648437e-08,2.03729688e-01
-4.75248437e-08,2.03679688e-01
-4.74848438e-08,2.03715625e-01
-4.74448437e-08,2.03687500e-01
-4.74048437e-08,2.03710938e-01
-4.73648437e-08,2.03690625e-01
-4.73248437e-08,2.03707813e-01
-4.72848437e-08,2.03692188e-01
-4.72448437e-08,2.03707813e-01
-4.72048437e-08,2.03692188e-01
-4.71648437e-08,2.03706250e-01
-4.71248437e-08,2.03693750e-01
-4.70848437e-08,2.03707813e-01
-4.70448437e-08,2.03692188e-01
-4.70048437e-08,2.03707813e-01
-4.69648437e-08,2.03692188e-01
-4.69248437e-08,2.03709375e-01
-4.68848437e-08,2.03689063e-01
-4.68448437e-08,2.03714063e-01
-4.68048437e-08,2.03681250e-01
-4.67648437e-08,2.03728125e-01
-4.67248437e-08,2.03648438e-01
-4.66848437e-08,2.03904688e-01
-4.66448437e-08,2.04159375e-01
-4.66048437e-08,2.04064063e-01
-4.65648437e-08,2.04128125e-01
-4.65248437e-08,2.04076563e-01
-4.64848437e-08,2.04121875e-01
-4.64448437e-08,2.04076563e-01
-4.64048437e-08,2.04125000e-01
-4.63648437e-08,2.04071875e-01
-4.63248437e-08,2.04137500e-01
-4.62848437e-08,2.04037500e-01
-4.62448437e-08,2.04315625e-01
-4.62048437e-08,2.04546875e-01
-4.61648437e-08,2.04478125e-01
-4.61248438e-08,2.04512500e-01
-4.60848437e-08,2.04493750e-01
-4.60448437e-08,2.04501563e-01
-4.60048437e-08,2.04503125e-01
-4.59648437e-08,2.04490625e-01
-4.59248437e-08,2.04518750e-01
-4.58848437e-08,2.04456250e-01
-4.58448438e-08,2.04698437e-01
-4.58048437e-08,2.04964063e-01
-4.57648437e-08,2.04859375e-01
-4.57248437e-08,2.04932813e-01
-4.56848437e-08,2.04871875e-01
-4.56448437e-08,2.04926563e-01
-4.56048437e-08,2.04873438e-01
-4.55648438e-08,2.04928125e-01
-4.55248437e-08,2.04868750e-01
-4.54848437e-08,2.04940625e-01
-4.54448437e-08,2.04835938e-01
-4.54048437e-08,2.05117188e-01
-4.53648437e-08,2.05345313e-01
-4.53248437e-08,2.05278125e-01
-4.52848438e-08,2.05314063e-01
-4.52448437e-08,2.05290625e-01
-4.52048437e-08,2.05306250e-01
-4.51648437e-08,2.05295312e-01
-4.51248437e-08,2.05303125e-01
-4.50848437e-08,2.05298438e-01
-4.50448437e-08,2.05301563e-01
-4.50048437e-08,2.05298438e-01
-4.49648437e-08,2.05300000e-01
-4.49248437e-08,2.05300000e-01
-4.48848437e-08,2.05300000e-01
-4.48448437e-08,2.05300000e-01
-4.48048437e-08,2.05298438e-01
-4.47648437e-08,2.05301563e-01
-4.47248437e-08,2.05298438e-01
-4.46848437e-08,2.05301563e-01
-4.46448437e-08,2.05298438e-01
-4.46048437e-08,2.05301563e-01
-4.45648437e-08,2.05296875e-01
-4.45248437e-08,2.05303125e-01
-4.44848437e-08,2.05296875e-01
-4.44448437e-08,2.05303125e-01
-4.44048437e-08,2.05295312e-01
-4.43648437e-08,2.05304687e-01
-4.43248437e-08,2.05293750e-01
-4.42848437e-08,2.05306250e-01
-4.42448437e-08,2.05292188e-01
-4.42048438e-08,2.05309375e-01
-4.41648437e-08,2.05287500e-01
-4.41248437e-08,2.05317187e-01
-4.40848437e-08,2.05271875e-01
-4.40448437e-08,2.05351563e-01
-4.40048437e-08,2.05095313e-01
-4.39648437e-08,2.04842187e-01
-4.39248438e-08,2.04934375e-01
-4.38848437e-08,2.04875000e-01
-4.38448437e-08,2.04920313e-01
-4.38048437e-08,2.04882813e-01
-4.37648437e-08,2.04915625e-01
-4.37248437e-08,2.04885938e-01
-4.36848437e-08,2.04914062e-01
-4.36448438e-08,2.04885938e-01
-4.36048437e-08,2.04914062e-01
-4.35648437e-08,2.04885938e-01
-4.35248437e-08,2.04914062e-01
-4.34848437e-08,2.04884375e-01
-4.34448437e-08,2.04917188e-01
-4.34048437e-08,2.04879688e-01
-4.33648438e-08,2.04925000e-01
-4.33248437e-08,2.04865625e-01
-4.32848437e-08,2.04959375e-01
-4.32448437e-08,2.04687500e-01
-4.32048437e-08,2.04450000e-01
-4.31648437e-08,2.04526563e-01
-4.31248437e-08,2.04482812e-01
-4.30848438e-08,2.04512500e-01
-4.30448437e-08,2.04490625e-01
-4.30048437e-08,2.04507812e-01
-4.29648437e-08,2.04493750e-01
-4.29248437e-08,2.04504688e-01
-4.28848437e-08,2.04495312e-01
-4.28448437e-08,2.04503125e-01
-4.28048437e-08,2.04496875e-01
-4.27648437e-08,2.04503125e-01
-4.27248437e-08,2.04496875e-01
-4.26848437e-08,2.04501563e-01
-4.26448437e-08,2.04498438e-01
-4.26048437e-08,2.04501563e-01
-4.25648437e-08,2.04498438e-01
-4.25248437e-08,2.04501563e-01
-4.24848437e-08,2.04498438e-01
-4.24448437e-08,2.04501563e-01
-4.24048437e-08,2.04498438e-01
-4.23648437e-08,2.04501563e-01
-4.23248437e-08,2.04500000e-01
-4.22848438e-08,2.04500000e-01
-4.22448437e-08,2.04500000e-01
-4.22048437e-08,2.04500000e-01
-4.21648437e-08,2.04500000e-01
-4.21248437e-08,2.04500000e-01
-4.20848437e-08,2.04500000e-01
-4.20448437e-08,2.04500000e-01
-4.20048438e-08,2.04500000e-01
-4.19648437e-08,2.04500000e-01
-4.19248437e-08,2.04500000e-01
-4.18848437e-08,2.04500000e-01
-4.18448437e-08,2.04500000e-01
-4.18048437e-08,2.04500000e-01
-4.17648437e-08,2.04500000e-01
-4.17248438e-08,2.04500000e-01
-4.16848437e-08,2.04500000e-01
-4.16448437e-08,2.04500000e-01
-4.16048437e-08,2.04500000e-01
-4.15648437e-08,2.04500000e-01
-4.15248437e-08,2.04498438e-01
-4.14848437e-08,2.04501563e-01
-4.14448438e-08,2.04498438e-01
-4.14048437e-08,2.04501563e-01
-4.13648437e-08,2.04496875e-01
-4.13248437e-08,2.04504688e-01
-4.12848437e-08,2.04493750e-01
-4.12448437e-08,2.04507812e-01
-4.12048437e-08,2.04487500e-01
-4.11648438e-08,2.04521875e-01
-4.11248437e-08,2.04454688e-01
-4.10848437e-08,2.04698437e-01
-4.10448437e-08,2.04965625e-01
-4.10048437e-08,2.04856250e-01
-4.09648437e-08,2.04935937e-01
-4.09248437e-08,2.04867188e-01
-4.08848438e-08,2.04934375e-01
-4.08448437e-08,2.04862500e-01
-4.08048437e-08,2.04946875e-01
-4.07648437e-08,2.04829687e-01
-4.07248437e-08,2.05125000e-01
-4.06848437e-08,2.05335938e-01
-4.06448437e-08,2.05289063e-01
-4.06048437e-08,2.05296875e-01
-4.05648437e-08,2.05317187e-01
-4.05248437e-08,2.05256250e-01
-4.04848437e-08,2.05496875e-01
-4.04448437e-08,2.05765625e-01
-4.04048437e-08,2.05654688e-01
-4.03648438e-08,2.05743750e-01
-4.03248437e-08,2.05639062e-01
-4.02848437e-08,2.05909375e-01
-4.02448437e-08,2.06159375e-01
-4.02048437e-08,2.06057812e-01
-4.01648437e-08,2.06145313e-01
-4.01248437e-08,2.06032812e-01
-4.00848438e-08,2.06318750e-01
-4.00448437e-08,2.06543750e-01
-4.00048437e-08,2.06482813e-01
-3.99648437e-08,2.06504688e-01
-3.99248437e-08,2.06509375e-01
-3.98848437e-08,2.06464063e-01
-3.98448437e-08,2.06690625e-01
-3.98048438e-08,2.06971875e-01
-3.97648437e-08,2.06850000e-01
-3.97248437e-08,2.06942188e-01
-3.96848437e-08,2.06857813e-01
-3.96448437e-08,2.06948437e-01
-3.96048437e-08,2.06829687e-01
-3.95648437e-08,2.07121875e-01
-3.95248438e-08,2.07342187e-01
-3.94848437e-08,2.07281250e-01
-3.94448437e-08,2.07310938e-01
-3.94048437e-08,2.07293750e-01
-3.93648437e-08,2.07303125e-01
-3.93248437e-08,2.07298438e-01
-3.92848437e-08,2.07301563e-01
-3.92448438e-08,2.07300000e-01
-3.92048437e-08,2.07300000e-01
-3.91648437e-08,2.07301563e-01
-3.91248437e-08,2.07298438e-01
-3.90848437e-08,2.07301563e-01
-3.90448437e-08,2.07296875e-01
-3.90048437e-08,2.07303125e-01
-3.89648438e-08,2.07295312e-01
-3.89248437e-08,2.07306250e-01
-3.88848437e-08,2.07290625e-01
-3.88448437e-08,2.07314063e-01
-3.88048437e-08,2.07276563e-01
-3.87648437e-08,2.07346875e-01
-3.87248437e-08,2.07101563e-01
-3.86848438e-08,2.06835938e-01
-3.86448437e-08,2.06942188e-01
-3.86048437e-08,2.06865625e-01
-3.85648437e-08,2.06931250e-01
-3.85248437e-08,2.06867187e-01
