0a4d6f8107274375cf0a549995fe79f0/aes_ch1_20250506175209128.csv

Model,MSO66B
Label,
Waveform Type,ANALOG
Horizontal Units,s
Sample Interval,4.00000000e-11
Record Length,10000
Zero Index,1599.07812500
Vertical Units,A
ANALOG_Thumbnail,
yOffset,1.84500000e-01
yPosition,8.40000000e-01

Labels,
TIME,CH1
-6.39631250e-08,1.78917188e-01
-6.39231250e-08,1.78879687e-01
-6.38831250e-08,1.78926562e-01
-6.38431250e-08,1.78864063e-01
-6.38031250e-08,1.78960938e-01
-6.37631250e-08,1.78685938e-01
-6.37231250e-08,1.78453125e-01
-6.36831250e-08,1.78523437e-01
-6.36431250e-08,1.78485937e-01
-6.36031250e-08,1.78507813e-01
-6.35631250e-08,1.78496875e-01
-6.35231250e-08,1.78500000e-01
-6.34831250e-08,1.78503125e-01
-6.34431250e-08,1.78493750e-01
-6.34031250e-08,1.78512500e-01
-6.33631250e-08,1.78476563e-01
-6.33231250e-08,1.78548438e-01
-6.32831250e-08,1.78298438e-01
-6.32431250e-08,1.78039063e-01
-6.32031250e-08,1.78137500e-01
-6.31631250e-08,1.78071875e-01
-6.31231250e-08,1.78123438e-01
-6.30831250e-08,1.78078125e-01
-6.30431250e-08,1.78120313e-01
-6.30031250e-08,1.78079688e-01
-6.29631250e-08,1.78120313e-01
-6.29231250e-08,1.78078125e-01
-6.28831250e-08,1.78126563e-01
-6.28431250e-08,1.78064063e-01
-6.28031250e-08,1.78159375e-01
-6.27631250e-08,1.77889063e-01
-6.27231250e-08,1.77648438e-01
-6.26831250e-08,1.77728125e-01
-6.26431250e-08,1.77679688e-01
-6.26031250e-08,1.77715625e-01
-6.25631250e-08,1.77685938e-01
-6.25231250e-08,1.77712500e-01
-6.24831250e-08,1.77687500e-01
-6.24431250e-08,1.77714063e-01
-6.24031250e-08,1.77684375e-01
-6.23631250e-08,1.77720313e-01
-6.23231250e-08,1.77670313e-01
-6.22831250e-08,1.77754688e-01
-6.22431250e-08,1.77493750e-01
-6.22031250e-08,1.77243750e-01
-6.21631250e-08,1.77332813e-01
-6.21231250e-08,1.77276563e-01
-6.20831250e-08,1.77318750e-01
-6.20431250e-08,1.77282812e-01
-6.20031250e-08,1.77314063e-01
-6.19631250e-08,1.77285938e-01
-6.19231250e-08,1.77314063e-01
-6.18831250e-08,1.77287500e-01
-6.18431250e-08,1.77312500e-01
-6.18031250e-08,1.77285938e-01
-6.17631250e-08,1.77314063e-01
-6.17231250e-08,1.77284375e-01
-6.16831250e-08,1.77317188e-01
-6.16431250e-08,1.77279688e-01
-6.16031250e-08,1.77325000e-01
-6.15631250e-08,1.77265625e-01
-6.15231250e-08,1.77359375e-01
-6.14831250e-08,1.77087500e-01
-6.14431250e-08,1.76850000e-01
-6.14031250e-08,1.76926562e-01
-6.13631250e-08,1.76882813e-01
-6.13231250e-08,1.76912500e-01
-6.12831250e-08,1.76890625e-01
-6.12431250e-08,1.76907813e-01
-6.12031250e-08,1.76893750e-01
-6.11631250e-08,1.76904688e-01
-6.11231250e-08,1.76895313e-01
-6.10831250e-08,1.76903125e-01
-6.10431250e-08,1.76896875e-01
-6.10031250e-08,1.76901562e-01
-6.09631250e-08,1.76898438e-01
-6.09231250e-08,1.76901562e-01
-6.08831250e-08,1.76898438e-01
-6.08431250e-08,1.76901562e-01
-6.08031250e-08,1.76900000e-01
-6.07631250e-08,1.76900000e-01
-6.07231250e-08,1.76900000e-01
-6.06831250e-08,1.76900000e-01
-6.06431250e-08,1.76900000e-01
-6.06031250e-08,1.76900000e-01
-6.05631250e-08,1.76900000e-01
-6.05231250e-08,1.76898438e-01
-6.04831250e-08,1.76901562e-01
-6.04431250e-08,1.76898438e-01
-6.04031250e-08,1.76901562e-01
-6.03631250e-08,1.76898438e-01
-6.03231250e-08,1.76901562e-01
-6.02831250e-08,1.76896875e-01
-6.02431250e-08,1.76903125e-01
-6.02031250e-08,1.76896875e-01
-6.01631250e-08,1.76903125e-01
-6.01231250e-08,1.76895313e-01
-6.00831250e-08,1.76904688e-01
-6.00431250e-08,1.76895313e-01
-6.00031250e-08,1.76906250e-01
-5.99631250e-08,1.76893750e-01
-5.99231250e-08,1.76907813e-01
-5.98831250e-08,1.76890625e-01
-5.98431250e-08,1.76910938e-01
-5.98031250e-08,1.76885938e-01
-5.97631250e-08,1.76920313e-01
-5.97231250e-08,1.76870313e-01
-5.96831250e-08,1.76954688e-01
-5.96431250e-08,1.76692188e-01
-5.96031250e-08,1.76445313e-01
-5.95631250e-08,1.76531250e-01
-5.95231250e-08,1.76478125e-01
-5.94831250e-08,1.76517188e-01
-5.94431250e-08,1.76485937e-01
-5.94031250e-08,1.76510938e-01
-5.93631250e-08,1.76490625e-01
-5.93231250e-08,1.76509375e-01
-5.92831250e-08,1.76492188e-01
-5.92431250e-08,1.76507812e-01
-5.92031250e-08,1.76493750e-01
-5.91631250e-08,1.76506250e-01
-5.91231250e-08,1.76493750e-01
-5.90831250e-08,1.76504688e-01
-5.90431250e-08,1.76495313e-01
-5.90031250e-08,1.76504688e-01
-5.89631250e-08,1.76495313e-01
-5.89231250e-08,1.76504688e-01
-5.88831250e-08,1.76495313e-01
-5.88431250e-08,1.76503125e-01
-5.88031250e-08,1.76496875e-01
-5.87631250e-08,1.76503125e-01
-5.87231250e-08,1.76496875e-01
-5.86831250e-08,1.76503125e-01
-5.86431250e-08,1.76496875e-01
-5.86031250e-08,1.76503125e-01
-5.85631250e-08,1.76496875e-01
-5.85231250e-08,1.76501563e-01
-5.84831250e-08,1.76498437e-01
-5.84431250e-08,1.76501563e-01
-5.84031250e-08,1.76498437e-01
-5.83631250e-08,1.76501563e-01
-5.83231250e-08,1.76500000e-01
-5.82831250e-08,1.76500000e-01
-5.82431250e-08,1.76500000e-01
-5.82031250e-08,1.76498437e-01
-5.81631250e-08,1.76501563e-01
-5.81231250e-08,1.76496875e-01
-5.80831250e-08,1.76504688e-01
-5.80431250e-08,1.76493750e-01
-5.80031250e-08,1.76509375e-01
-5.79631250e-08,1.76485937e-01
-5.79231250e-08,1.76523438e-01
-5.78831250e-08,1.76451563e-01
-5.78431250e-08,1.76701563e-01
-5.78031250e-08,1.76960937e-01
-5.77631250e-08,1.76862500e-01
-5.77231250e-08,1.76929688e-01
-5.76831250e-08,1.76875000e-01
-5.76431250e-08,1.76921875e-01
-5.76031250e-08,1.76879687e-01
-5.75631250e-08,1.76918750e-01
-5.75231250e-08,1.76881250e-01
-5.74831250e-08,1.76918750e-01
-5.74431250e-08,1.76881250e-01
-5.74031250e-08,1.76918750e-01
-5.73631250e-08,1.76879687e-01
-5.73231250e-08,1.76921875e-01
-5.72831250e-08,1.76876563e-01
-5.72431250e-08,1.76926562e-01
-5.72031250e-08,1.76868750e-01
-5.71631250e-08,1.76942188e-01
-5.71231250e-08,1.76832813e-01
-5.70831250e-08,1.77120313e-01
-5.70431250e-08,1.77340625e-01
-5.70031250e-08,1.77284375e-01
-5.69631250e-08,1.77306250e-01
-5.69231250e-08,1.77301563e-01
-5.68831250e-08,1.77293750e-01
-5.68431250e-08,1.77310938e-01
-5.68031250e-08,1.77281250e-01
-5.67631250e-08,1.77329687e-01
-5.67231250e-08,1.77245313e-01
-5.66831250e-08,1.77509375e-01
-5.66431250e-08,1.77751563e-01
-5.66031250e-08,1.77675000e-01
-5.65631250e-08,1.77714063e-01
-5.65231250e-08,1.77693750e-01
-5.64831250e-08,1.77698438e-01
-5.64431250e-08,1.77712500e-01
-5.64031250e-08,1.77660938e-01
-5.63631250e-08,1.77892187e-01
-5.63231250e-08,1.78170313e-01
-5.62831250e-08,1.78053125e-01
-5.62431250e-08,1.78140625e-01
-5.62031250e-08,1.78060938e-01
-5.61631250e-08,1.78145313e-01
-5.61231250e-08,1.78034375e-01
-5.60831250e-08,1.78317188e-01
-5.60431250e-08,1.78548438e-01
-5.60031250e-08,1.78471875e-01
-5.59631250e-08,1.78521875e-01
-5.59231250e-08,1.78478125e-01
-5.58831250e-08,1.78529688e-01
-5.58431250e-08,1.78448438e-01
-5.58031250e-08,1.78704688e-01
-5.57631250e-08,1.78959375e-01
-5.57231250e-08,1.78862500e-01
-5.56831250e-08,1.78928125e-01
-5.56431250e-08,1.78875000e-01
-5.56031250e-08,1.78923438e-01
-5.55631250e-08,1.78876563e-01
-5.55231250e-08,1.78925000e-01
-5.54831250e-08,1.78870313e-01
-5.54431250e-08,1.78939062e-01
-5.54031250e-08,1.78837500e-01
-5.53631250e-08,1.79115625e-01
-5.53231250e-08,1.79346875e-01
-5.52831250e-08,1.79276563e-01
-5.52431250e-08,1.79315625e-01
-5.52031250e-08,1.79289063e-01
-5.51631250e-08,1.79307812e-01
-5.51231250e-08,1.79293750e-01
-5.50831250e-08,1.79304688e-01
-5.50431250e-08,1.79296875e-01
-5.50031250e-08,1.79303125e-01
-5.49631250e-08,1.79298438e-01
-5.49231250e-08,1.79301563e-01
-5.48831250e-08,1.79298438e-01
-5.48431250e-08,1.79301563e-01
-5.48031250e-08,1.79298438e-01
-5.47631250e-08,1.79300000e-01
-5.47231250e-08,1.79300000e-01
-5.46831250e-08,1.79300000e-01
-5.46431250e-08,1.79300000e-01
-5.46031250e-08,1.79300000e-01
-5.45631250e-08,1.79300000e-01
-5.45231250e-08,1.79300000e-01
-5.44831250e-08,1.79300000e-01
-5.44431250e-08,1.79300000e-01
-5.44031250e-08,1.79300000e-01
-5.43631250e-08,1.79300000e-01
-5.43231250e-08,1.79300000e-01
-5.42831250e-08,1.79300000e-01
-5.42431250e-08,1.79300000e-01
-5.42031250e-08,1.79300000e-01
-5.41631250e-08,1.79300000e-01
-5.41231250e-08,1.79300000e-01
-5.40831250e-08,1.79301563e-01
-5.40431250e-08,1.79298438e-01
-5.40031250e-08,1.79301563e-01
-5.39631250e-08,1.79298438e-01
-5.39231250e-08,1.79301563e-01
-5.38831250e-08,1.79298438e-01
-5.38431250e-08,1.79301563e-01
-5.38031250e-08,1.79298438e-01
-5.37631250e-08,1.79301563e-01
-5.37231250e-08,1.79298438e-01
-5.36831250e-08,1.79301563e-01
-5.36431250e-08,1.79298438e-01
-5.36031250e-08,1.79301563e-01
-5.35631250e-08,1.79298438e-01
-5.35231250e-08,1.79301563e-01
-5.34831250e-08,1.79298438e-01
-5.34431250e-08,1.79301563e-01
-5.34031250e-08,1.79298438e-01
-5.33631250e-08,1.79301563e-01
-5.33231250e-08,1.79296875e-01
-5.32831250e-08,1.79303125e-01
-5.32431250e-08,1.79296875e-01
-5.32031250e-08,1.79303125e-01
-5.31631250e-08,1.79296875e-01
-5.31231250e-08,1.79303125e-01
-5.30831250e-08,1.79295312e-01
-5.30431250e-08,1.79304688e-01
-5.30031250e-08,1.79295312e-01
-5.29631250e-08,1.79306250e-01
-5.29231250e-08,1.79293750e-01
-5.28831250e-08,1.79307812e-01
-5.28431250e-08,1.79290625e-01
-5.28031250e-08,1.79312500e-01
-5.27631250e-08,1.79284375e-01
-5.27231250e-08,1.79320312e-01
-5.26831250e-08,1.79270313e-01
-5.26431250e-08,1.79354687e-01
-5.26031250e-08,1.79092187e-01
-5.25631250e-08,1.78846875e-01
-5.25231250e-08,1.78929688e-01
-5.24831250e-08,1.78881250e-01
-5.24431250e-08,1.78912500e-01
-5.24031250e-08,1.78892187e-01
-5.23631250e-08,1.78903125e-01
-5.23231250e-08,1.78901562e-01
-5.22831250e-08,1.78887500e-01
-5.22431250e-08,1.78937500e-01
-5.22031250e-08,1.78709375e-01
-5.21631250e-08,1.78426562e-01
-5.21231250e-08,1.78550000e-01
-5.20831250e-08,1.78457813e-01
-5.20431250e-08,1.78539063e-01
-5.20031250e-08,1.78460937e-01
-5.19631250e-08,1.78542188e-01
-5.19231250e-08,1.78448438e-01
-5.18831250e-08,1.78576563e-01
-5.18431250e-08,1.78270312e-01
-5.18031250e-08,1.78067188e-01
-5.17631250e-08,1.78107813e-01
-5.17231250e-08,1.78103125e-01
-5.16831250e-08,1.78089063e-01
-5.16431250e-08,1.78118750e-01
-5.16031250e-08,1.78070312e-01
-5.15631250e-08,1.78156250e-01
-5.15231250e-08,1.77889063e-01
-5.14831250e-08,1.77650000e-01
-5.14431250e-08,1.77726563e-01
-5.14031250e-08,1.77684375e-01
-5.13631250e-08,1.77709375e-01
-5.13231250e-08,1.77693750e-01
-5.12831250e-08,1.77703125e-01
-5.12431250e-08,1.77700000e-01
-5.12031250e-08,1.77696875e-01
-5.11631250e-08,1.77706250e-01
-5.11231250e-08,1.77690625e-01
-5.10831250e-08,1.77715625e-01
-5.10431250e-08,1.77673438e-01
-5.10031250e-08,1.77751563e-01
-5.09631250e-08,1.77495313e-01
-5.09231250e-08,1.77243750e-01
-5.08831250e-08,1.77331250e-01
-5.08431250e-08,1.77278125e-01
-5.08031250e-08,1.77317188e-01
-5.07631250e-08,1.77287500e-01
-5.07231250e-08,1.77310938e-01
-5.06831250e-08,1.77292188e-01
-5.06431250e-08,1.77306250e-01
-5.06031250e-08,1.77296875e-01
-5.05631250e-08,1.77300000e-01
-5.05231250e-08,1.77303125e-01
-5.04831250e-08,1.77292188e-01
-5.04431250e-08,1.77317188e-01
-5.04031250e-08,1.77257813e-01
-5.03631250e-08,1.77495313e-01
-5.03231250e-08,1.77767188e-01
-5.02831250e-08,1.77656250e-01
-5.02431250e-08,1.77734375e-01
-5.02031250e-08,1.77668750e-01
-5.01631250e-08,1.77729688e-01
-5.01231250e-08,1.77668750e-01
-5.00831250e-08,1.77734375e-01
-5.00431250e-08,1.77657813e-01
-5.00031250e-08,1.77765625e-01
-4.99631250e-08,1.77481250e-01
-4.99231250e-08,1.77254688e-01
-4.98831250e-08,1.77321875e-01
-4.98431250e-08,1.77287500e-01
-4.98031250e-08,1.77309375e-01
-4.97631250e-08,1.77293750e-01
-4.97231250e-08,1.77304688e-01
-4.96831250e-08,1.77295312e-01
-4.96431250e-08,1.77303125e-01
-4.96031250e-08,1.77296875e-01
-4.95631250e-08,1.77303125e-01
-4.95231250e-08,1.77295312e-01
-4.94831250e-08,1.77304688e-01
-4.94431250e-08,1.77293750e-01
-4.94031250e-08,1.77307812e-01
-4.93631250e-08,1.77289063e-01
-4.93231250e-08,1.77315625e-01
-4.92831250e-08,1.77275000e-01
-4.92431250e-08,1.77350000e-01
-4.92031250e-08,1.77096875e-01
-4.91631250e-08,1.76840625e-01
-4.91231250e-08,1.76935938e-01
-4.90831250e-08,1.76873438e-01
-4.90431250e-08,1.76921875e-01
-4.90031250e-08,1.76881250e-01
-4.89631250e-08,1.76917188e-01
-4.89231250e-08,1.76884375e-01
-4.88831250e-08,1.76915625e-01
-4.88431250e-08,1.76885938e-01
-4.88031250e-08,1.76914062e-01
-4.87631250e-08,1.76885938e-01
-4.87231250e-08,1.76914062e-01
-4.86831250e-08,1.76885938e-01
-4.86431250e-08,1.76914062e-01
-4.86031250e-08,1.76885938e-01
-4.85631250e-08,1.76914062e-01
-4.85231250e-08,1.76885938e-01
-4.84831250e-08,1.76915625e-01
-4.84431250e-08,1.76884375e-01
-4.84031250e-08,1.76917188e-01
-4.83631250e-08,1.76882813e-01
-4.83231250e-08,1.76918750e-01
-4.82831250e-08,1.76878125e-01
-4.82431250e-08,1.76925000e-01
-4.82031250e-08,1.76870313e-01
-4.81631250e-08,1.76939062e-01
-4.81231250e-08,1.76835938e-01
-4.80831250e-08,1.77117187e-01
-4.80431250e-08,1.77343750e-01
-4.80031250e-08,1.77279688e-01
-4.79631250e-08,1.77309375e-01
-4.79231250e-08,1.77295312e-01
-4.78831250e-08,1.77301563e-01
-4.78431250e-08,1.77301563e-01
-4.78031250e-08,1.77295312e-01
-4.77631250e-08,1.77307812e-01
-4.77231250e-08,1.77290625e-01
-4.76831250e-08,1.77314063e-01
-4.76431250e-08,1.77281250e-01
-4.76031250e-08,1.77329687e-01
-4.75631250e-08,1.77245313e-01
-4.75231250e-08,1.77507813e-01
-4.74831250e-08,1.77753125e-01
-4.74431250e-08,1.77670313e-01
-4.74031250e-08,1.77720313e-01
-4.73631250e-08,1.77685938e-01
-4.73231250e-08,1.77710937e-01
-4.72831250e-08,1.77690625e-01
-4.72431250e-08,1.77707813e-01
-4.72031250e-08,1.77693750e-01
-4.71631250e-08,1.77704688e-01
-4.71231250e-08,1.77695313e-01
-4.70831250e-08,1.77703125e-01
-4.70431250e-08,1.77696875e-01
-4.70031250e-08,1.77703125e-01
-4.69631250e-08,1.77698438e-01
-4.69231250e-08,1.77701562e-01
-4.68831250e-08,1.77698438e-01
-4.68431250e-08,1.77700000e-01
-4.68031250e-08,1.77700000e-01
-4.67631250e-08,1.77700000e-01
-4.67231250e-08,1.77700000e-01
-4.66831250e-08,1.77700000e-01
-4.66431250e-08,1.77701562e-01
-4.66031250e-08,1.77698438e-01
-4.65631250e-08,1.77701562e-01
-4.65231250e-08,1.77696875e-01
-4.64831250e-08,1.77703125e-01
-4.64431250e-08,1.77696875e-01
-4.64031250e-08,1.77704688e-01
-4.63631250e-08,1.77695313e-01
-4.63231250e-08,1.77706250e-01
-4.62831250e-08,1.77692188e-01
-4.62431250e-08,1.77709375e-01
-4.62031250e-08,1.77689062e-01
-4.61631250e-08,1.77714063e-01
-4.61231250e-08,1.77681250e-01
-4.60831250e-08,1.77728125e-01
-4.60431250e-08,1.77646875e-01
-4.60031250e-08,1.77906250e-01
-4.59631250e-08,1.78156250e-01
-4.59231250e-08,1.78068750e-01
-4.58831250e-08,1.78121875e-01
-4.58431250e-08,1.78082813e-01
-4.58031250e-08,1.78114063e-01
-4.57631250e-08,1.78087500e-01
-4.57231250e-08,1.78110938e-01
-4.56831250e-08,1.78090625e-01
-4.56431250e-08,1.78109375e-01
-4.56031250e-08,1.78090625e-01
-4.55631250e-08,1.78107813e-01
-4.55231250e-08,1.78092187e-01
-4.54831250e-08,1.78107813e-01
-4.54431250e-08,1.78092187e-01
-4.54031250e-08,1.78107813e-01
-4.53631250e-08,1.78092187e-01
-4.53231250e-08,1.78107813e-01
-4.52831250e-08,1.78092187e-01
-4.52431250e-08,1.78107813e-01
-4.52031250e-08,1.78092187e-01
-4.51631250e-08,1.78109375e-01
-4.51231250e-08,1.78090625e-01
-4.50831250e-08,1.78110938e-01
-4.50431250e-08,1.78089063e-01
-4.50031250e-08,1.78114063e-01
-4.49631250e-08,1.78082813e-01
-4.49231250e-08,1.78121875e-01
-4.48831250e-08,1.78068750e-01
-4.48431250e-08,1.78156250e-01
-4.48031250e-08,1.77890625e-01
-4.47631250e-08,1.77646875e-01
-4.47231250e-08,1.77729688e-01
-4.46831250e-08,1.77679688e-01
-4.46431250e-08,1.77715625e-01
-4.46031250e-08,1.77687500e-01
-4.45631250e-08,1.77710937e-01
-4.45231250e-08,1.77690625e-01
-4.44831250e-08,1.77707813e-01
-4.44431250e-08,1.77692188e-01
-4.44031250e-08,1.77707813e-01
-4.43631250e-08,1.77693750e-01
-4.43231250e-08,1.77706250e-01
-4.42831250e-08,1.77693750e-01
-4.42431250e-08,1.77706250e-01
-4.42031250e-08,1.77693750e-01
-4.41631250e-08,1.77706250e-01
-4.41231250e-08,1.77695313e-01
-4.40831250e-08,1.77704688e-01
-4.40431250e-08,1.77695313e-01
-4.40031250e-08,1.77704688e-01
-4.39631250e-08,1.77695313e-01
-4.39231250e-08,1.77704688e-01
-4.38831250e-08,1.77695313e-01
-4.38431250e-08,1.77704688e-01
-4.38031250e-08,1.77695313e-01
-4.37631250e-08,1.77706250e-01
-4.37231250e-08,1.77693750e-01
-4.36831250e-08,1.77706250e-01
-4.36431250e-08,1.77693750e-01
-4.36031250e-08,1.77706250e-01
-4.35631250e-08,1.77693750e-01
-4.35231250e-08,1.77706250e-01
-4.34831250e-08,1.77692188e-01
-4.34431250e-08,1.77707813e-01
-4.34031250e-08,1.77690625e-01
-4.33631250e-08,1.77709375e-01
-4.33231250e-08,1.77689062e-01
-4.32831250e-08,1.77712500e-01
-4.32431250e-08,1.77684375e-01
-4.32031250e-08,1.77721875e-01
-4.31631250e-08,1.77668750e-01
-4.31231250e-08,1.77754688e-01
-4.30831250e-08,1.77492188e-01
-4.30431250e-08,1.77245313e-01
-4.30031250e-08,1.77331250e-01
-4.29631250e-08,1.77278125e-01
-4.29231250e-08,1.77317188e-01
-4.28831250e-08,1.77285938e-01
-4.28431250e-08,1.77314063e-01
-4.28031250e-08,1.77287500e-01
-4.27631250e-08,1.77312500e-01
-4.27231250e-08,1.77287500e-01
-4.26831250e-08,1.77314063e-01
-4.26431250e-08,1.77282812e-01
-4.26031250e-08,1.77321875e-01
-4.25631250e-08,1.77270312e-01
-4.25231250e-08,1.77354687e-01
-4.24831250e-08,1.77092187e-01
-4.24431250e-08,1.76845313e-01
-4.24031250e-08,1.76931250e-01
-4.23631250e-08,1.76878125e-01
-4.23231250e-08,1.76918750e-01
-4.22831250e-08,1.76884375e-01
-4.22431250e-08,1.76914062e-01
-4.22031250e-08,1.76887500e-01
-4.21631250e-08,1.76910938e-01
-4.21231250e-08,1.76889062e-01
-4.20831250e-08,1.76910938e-01
-4.20431250e-08,1.76889062e-01
-4.20031250e-08,1.76910938e-01
-4.19631250e-08,1.76889062e-01
-4.19231250e-08,1.76910938e-01
-4.18831250e-08,1.76887500e-01
-4.18431250e-08,1.76912500e-01
-4.18031250e-08,1.76885938e-01
-4.17631250e-08,1.76915625e-01
-4.17231250e-08,1.76882813e-01
-4.16831250e-08,1.76920313e-01
-4.16431250e-08,1.76875000e-01
-4.16031250e-08,1.76934375e-01
-4.15631250e-08,1.76840625e-01
-4.15231250e-08,1.77112500e-01
-4.14831250e-08,1.77350000e-01
-4.14431250e-08,1.77273438e-01
-4.14031250e-08,1.77317188e-01
-4.13631250e-08,1.77289063e-01
-4.13231250e-08,1.77307812e-01
-4.12831250e-08,1.77293750e-01
-4.12431250e-08,1.77304688e-01
-4.12031250e-08,1.77296875e-01
-4.11631250e-08,1.77303125e-01
-4.11231250e-08,1.77298438e-01
-4.10831250e-08,1.77301563e-01
-4.10431250e-08,1.77298438e-01
-4.10031250e-08,1.77300000e-01
-4.09631250e-08,1.77300000e-01
-4.09231250e-08,1.77300000e-01
-4.08831250e-08,1.77300000e-01
-4.08431250e-08,1.77300000e-01
-4.08031250e-08,1.77300000e-01
-4.07631250e-08,1.77298438e-01
-4.07231250e-08,1.77301563e-01
-4.06831250e-08,1.77298438e-01
-4.06431250e-08,1.77301563e-01
-4.06031250e-08,1.77298438e-01
-4.05631250e-08,1.77301563e-01
-4.05231250e-08,1.77298438e-01
-4.04831250e-08,1.77300000e-01
-4.04431250e-08,1.77300000e-01
-4.04031250e-08,1.77298438e-01
-4.03631250e-08,1.77301563e-01
-4.03231250e-08,1.77295312e-01
-4.02831250e-08,1.77307812e-01
-4.02431250e-08,1.77282812e-01
-4.02031250e-08,1.77340625e-01
-4.01631250e-08,1.77107813e-01
-4.01231250e-08,1.76828125e-01
-4.00831250e-08,1.76951563e-01
-4.00431250e-08,1.76854687e-01
-4.00031250e-08,1.76946875e-01
-3.99631250e-08,1.76845313e-01
-3.99231250e-08,1.76979688e-01
-3.98831250e-08,1.76667188e-01
-3.98431250e-08,1.76471875e-01
-3.98031250e-08,1.76501563e-01
-3.97631250e-08,1.76512500e-01
-3.97231250e-08,1.76473437e-01
-3.96831250e-08,1.76554688e-01
-3.96431250e-08,1.76289063e-01
-3.96031250e-08,1.76051563e-01
-3.95631250e-08,1.76123438e-01
-3.95231250e-08,1.76089063e-01
-3.94831250e-08,1.76101563e-01
-3.94431250e-08,1.76106250e-01
-3.94031250e-08,1.76081250e-01
-3.93631250e-08,1.76145313e-01
-3.93231250e-08,1.75901562e-01
-3.92831250e-08,1.75637500e-01
-3.92431250e-08,1.75737500e-01
-3.92031250e-08,1.75673438e-01
-3.91631250e-08,1.75721875e-01
-3.91231250e-08,1.75681250e-01
-3.90831250e-08,1.75715625e-01
-3.90431250e-08,1.75685938e-01
-3.90031250e-08,1.75712500e-01
-3.89631250e-08,1.75687500e-01
-3.89231250e-08,1.75710937e-01
-3.88831250e-08,1.75689062e-01
-3.88431250e-08,1.75710937e-01
-3.88031250e-08,1.75689062e-01
-3.87631250e-08,1.75712500e-01
-3.87231250e-08,1.75687500e-01
-3.86831250e-08,1.75715625e-01
-3.86431250e-08,1.75681250e-01
-3.86031250e-08,1.75728125e-01
-3.85631250e-08,1.75648438e-01
-3.85231250e-08,1.75903125e-01
