0a4d6f8107274375cf0a549995fe79f0/aes_ch1_20250506175502882.csv

Model,MSO66B
Label,
Waveform Type,ANALOG
Horizontal Units,s
Sample Interval,4.00000000e-11
Record Length,10000
Zero Index,1599.08984375
Vertical Units,A
ANALOG_Thumbnail,
yOffset,1.84500000e-01
yPosition,8.40000000e-01

Labels,
TIME,CH1
-6.39635937e-08,1.80160938e-01
-6.39235937e-08,1.80064063e-01
-6.38835938e-08,1.80126563e-01
-6.38435937e-08,1.80079688e-01
-6.38035938e-08,1.80117187e-01
-6.37635937e-08,1.80084375e-01
-6.37235937e-08,1.80112500e-01
-6.36835937e-08,1.80089063e-01
-6.36435937e-08,1.80110938e-01
-6.36035938e-08,1.80090625e-01
-6.35635937e-08,1.80107813e-01
-6.35235938e-08,1.80092188e-01
-6.34835937e-08,1.80106250e-01
-6.34435937e-08,1.80093750e-01
-6.34035937e-08,1.80104687e-01
-6.33635937e-08,1.80095312e-01
-6.33235938e-08,1.80103125e-01
-6.32835937e-08,1.80098438e-01
-6.32435938e-08,1.80100000e-01
-6.32035937e-08,1.80101563e-01
-6.31635937e-08,1.80095312e-01
-6.31235937e-08,1.80109375e-01
-6.30835937e-08,1.80079688e-01
-6.30435938e-08,1.80143750e-01
-6.30035937e-08,1.79903125e-01
-6.29635938e-08,1.79634375e-01
-6.29235937e-08,1.79742188e-01
-6.28835937e-08,1.79667188e-01
-6.28435937e-08,1.79729688e-01
-6.28035937e-08,1.79671875e-01
-6.27635938e-08,1.79726563e-01
-6.27235937e-08,1.79671875e-01
-6.26835938e-08,1.79732813e-01
-6.26435937e-08,1.79659375e-01
-6.26035937e-08,1.79764063e-01
-6.25635937e-08,1.79482813e-01
-6.25235937e-08,1.79253125e-01
-6.24835938e-08,1.79323438e-01
-6.24435937e-08,1.79284375e-01
-6.24035938e-08,1.79312500e-01
-6.23635937e-08,1.79289063e-01
-6.23235937e-08,1.79310938e-01
-6.22835937e-08,1.79287500e-01
-6.22435937e-08,1.79317188e-01
-6.22035938e-08,1.79275000e-01
-6.21635937e-08,1.79350000e-01
-6.21235937e-08,1.79098438e-01
-6.20835937e-08,1.78839063e-01
-6.20435937e-08,1.78937500e-01
-6.20035937e-08,1.78871875e-01
-6.19635937e-08,1.78923438e-01
-6.19235938e-08,1.78878125e-01
-6.18835937e-08,1.78920313e-01
-6.18435937e-08,1.78879687e-01
-6.18035937e-08,1.78918750e-01
-6.17635937e-08,1.78881250e-01
-6.17235937e-08,1.78920313e-01
-6.16835937e-08,1.78879687e-01
-6.16435938e-08,1.78923438e-01
-6.16035937e-08,1.78875000e-01
-6.15635937e-08,1.78929688e-01
-6.15235937e-08,1.78859375e-01
-6.14835937e-08,1.78964063e-01
-6.14435937e-08,1.78682813e-01
-6.14035937e-08,1.78454688e-01
-6.13635938e-08,1.78520313e-01
-6.13235937e-08,1.78489063e-01
-6.12835937e-08,1.78506250e-01
-6.12435937e-08,1.78496875e-01
-6.12035937e-08,1.78501563e-01
-6.11635937e-08,1.78500000e-01
-6.11235937e-08,1.78498437e-01
-6.10835938e-08,1.78503125e-01
-6.10435937e-08,1.78496875e-01
-6.10035937e-08,1.78504688e-01
-6.09635937e-08,1.78493750e-01
-6.09235937e-08,1.78506250e-01
-6.08835937e-08,1.78492188e-01
-6.08435937e-08,1.78509375e-01
-6.08035938e-08,1.78489063e-01
-6.07635937e-08,1.78512500e-01
-6.07235937e-08,1.78484375e-01
-6.06835937e-08,1.78520313e-01
-6.06435937e-08,1.78468750e-01
-6.06035937e-08,1.78556250e-01
-6.05635937e-08,1.78292188e-01
-6.05235938e-08,1.78046875e-01
-6.04835937e-08,1.78129687e-01
-6.04435937e-08,1.78079688e-01
-6.04035937e-08,1.78115625e-01
-6.03635937e-08,1.78085938e-01
-6.03235938e-08,1.78112500e-01
-6.02835937e-08,1.78089063e-01
-6.02435938e-08,1.78110938e-01
-6.02035937e-08,1.78087500e-01
-6.01635937e-08,1.78112500e-01
-6.01235937e-08,1.78084375e-01
-6.00835937e-08,1.78120313e-01
-6.00435938e-08,1.78071875e-01
-6.00035937e-08,1.78153125e-01
-5.99635938e-08,1.77893750e-01
-5.99235937e-08,1.77642187e-01
-5.98835937e-08,1.77734375e-01
-5.98435937e-08,1.77675000e-01
-5.98035937e-08,1.77720313e-01
-5.97635938e-08,1.77681250e-01
-5.97235937e-08,1.77717188e-01
-5.96835938e-08,1.77684375e-01
-5.96435937e-08,1.77715625e-01
-5.96035937e-08,1.77684375e-01
-5.95635937e-08,1.77715625e-01
-5.95235937e-08,1.77682813e-01
-5.94835937e-08,1.77717188e-01
-5.94435937e-08,1.77681250e-01
-5.94035937e-08,1.77720313e-01
-5.93635937e-08,1.77676562e-01
-5.93235937e-08,1.77729688e-01
-5.92835937e-08,1.77660938e-01
-5.92435937e-08,1.77764063e-01
-5.92035937e-08,1.77482813e-01
-5.91635937e-08,1.77254688e-01
-5.91235937e-08,1.77320312e-01
-5.90835937e-08,1.77289063e-01
-5.90435937e-08,1.77304688e-01
-5.90035937e-08,1.77298438e-01
-5.89635937e-08,1.77298438e-01
-5.89235937e-08,1.77304688e-01
-5.88835937e-08,1.77292188e-01
-5.88435937e-08,1.77312500e-01
-5.88035937e-08,1.77281250e-01
-5.87635937e-08,1.77328125e-01
-5.87235937e-08,1.77246875e-01
-5.86835937e-08,1.77507813e-01
-5.86435937e-08,1.77754688e-01
-5.86035937e-08,1.77670313e-01
-5.85635937e-08,1.77720313e-01
-5.85235937e-08,1.77684375e-01
-5.84835937e-08,1.77712500e-01
-5.84435937e-08,1.77690625e-01
-5.84035937e-08,1.77707813e-01
-5.83635937e-08,1.77693750e-01
-5.83235937e-08,1.77704688e-01
-5.82835937e-08,1.77695313e-01
-5.82435937e-08,1.77703125e-01
-5.82035937e-08,1.77696875e-01
-5.81635937e-08,1.77701562e-01
-5.81235937e-08,1.77698438e-01
-5.80835937e-08,1.77701562e-01
-5.80435937e-08,1.77700000e-01
-5.80035937e-08,1.77700000e-01
-5.79635937e-08,1.77700000e-01
-5.79235937e-08,1.77698438e-01
-5.78835937e-08,1.77701562e-01
-5.78435937e-08,1.77696875e-01
-5.78035937e-08,1.77703125e-01
-5.77635937e-08,1.77695313e-01
-5.77235937e-08,1.77706250e-01
-5.76835937e-08,1.77693750e-01
-5.76435937e-08,1.77707813e-01
-5.76035937e-08,1.77689062e-01
-5.75635937e-08,1.77714063e-01
-5.75235937e-08,1.77681250e-01
-5.74835937e-08,1.77729688e-01
-5.74435937e-08,1.77645313e-01
-5.74035937e-08,1.77907813e-01
-5.73635937e-08,1.78154688e-01
-5.73235937e-08,1.78070312e-01
-5.72835937e-08,1.78120313e-01
-5.72435937e-08,1.78084375e-01
-5.72035937e-08,1.78112500e-01
-5.71635937e-08,1.78090625e-01
-5.71235937e-08,1.78107813e-01
-5.70835937e-08,1.78093750e-01
-5.70435937e-08,1.78104687e-01
-5.70035937e-08,1.78096875e-01
-5.69635937e-08,1.78101563e-01
-5.69235937e-08,1.78101563e-01
-5.68835937e-08,1.78096875e-01
-5.68435937e-08,1.78106250e-01
-5.68035937e-08,1.78089063e-01
-5.67635937e-08,1.78121875e-01
-5.67235937e-08,1.78053125e-01
-5.66835937e-08,1.78300000e-01
-5.66435937e-08,1.78562500e-01
-5.66035937e-08,1.78460937e-01
-5.65635937e-08,1.78529688e-01
-5.65235937e-08,1.78475000e-01
-5.64835937e-08,1.78521875e-01
-5.64435937e-08,1.78479688e-01
-5.64035937e-08,1.78520313e-01
-5.63635937e-08,1.78479688e-01
-5.63235937e-08,1.78520313e-01
-5.62835937e-08,1.78478125e-01
-5.62435937e-08,1.78525000e-01
-5.62035937e-08,1.78471875e-01
-5.61635937e-08,1.78537500e-01
-5.61235937e-08,1.78437500e-01
-5.60835937e-08,1.78715625e-01
-5.60435937e-08,1.78948438e-01
-5.60035937e-08,1.78875000e-01
-5.59635937e-08,1.78915625e-01
-5.59235937e-08,1.78889063e-01
-5.58835937e-08,1.78907813e-01
-5.58435937e-08,1.78893750e-01
-5.58035937e-08,1.78904688e-01
-5.57635937e-08,1.78895313e-01
-5.57235937e-08,1.78903125e-01
-5.56835937e-08,1.78896875e-01
-5.56435937e-08,1.78903125e-01
-5.56035937e-08,1.78896875e-01
-5.55635937e-08,1.78903125e-01
-5.55235937e-08,1.78896875e-01
-5.54835937e-08,1.78903125e-01
-5.54435937e-08,1.78896875e-01
-5.54035937e-08,1.78903125e-01
-5.53635937e-08,1.78896875e-01
-5.53235937e-08,1.78904688e-01
-5.52835937e-08,1.78895313e-01
-5.52435937e-08,1.78906250e-01
-5.52035937e-08,1.78892187e-01
-5.51635937e-08,1.78909375e-01
-5.51235937e-08,1.78887500e-01
-5.50835937e-08,1.78917188e-01
-5.50435937e-08,1.78873438e-01
-5.50035937e-08,1.78951562e-01
-5.49635937e-08,1.78695313e-01
-5.49235937e-08,1.78442188e-01
-5.48835937e-08,1.78534375e-01
-5.48435937e-08,1.78475000e-01
-5.48035937e-08,1.78520313e-01
-5.47635937e-08,1.78482813e-01
-5.47235937e-08,1.78515625e-01
-5.46835937e-08,1.78485937e-01
-5.46435937e-08,1.78514063e-01
-5.46035937e-08,1.78487500e-01
-5.45635937e-08,1.78512500e-01
-5.45235937e-08,1.78487500e-01
-5.44835937e-08,1.78512500e-01
-5.44435937e-08,1.78487500e-01
-5.44035937e-08,1.78512500e-01
-5.43635937e-08,1.78485937e-01
-5.43235937e-08,1.78514063e-01
-5.42835937e-08,1.78484375e-01
-5.42435937e-08,1.78517188e-01
-5.42035937e-08,1.78479688e-01
-5.41635937e-08,1.78525000e-01
-5.41235937e-08,1.78465625e-01
-5.40835937e-08,1.78559375e-01
-5.40435937e-08,1.78287500e-01
-5.40035937e-08,1.78050000e-01
-5.39635937e-08,1.78126563e-01
-5.39235937e-08,1.78082813e-01
-5.38835937e-08,1.78112500e-01
-5.38435937e-08,1.78090625e-01
-5.38035937e-08,1.78107813e-01
-5.37635937e-08,1.78093750e-01
-5.37235937e-08,1.78104687e-01
-5.36835937e-08,1.78095313e-01
-5.36435937e-08,1.78103125e-01
-5.36035937e-08,1.78096875e-01
-5.35635937e-08,1.78103125e-01
-5.35235937e-08,1.78098438e-01
-5.34835937e-08,1.78101563e-01
-5.34435937e-08,1.78098438e-01
-5.34035937e-08,1.78101563e-01
-5.33635937e-08,1.78098438e-01
-5.33235937e-08,1.78101563e-01
-5.32835937e-08,1.78098438e-01
-5.32435937e-08,1.78100000e-01
-5.32035937e-08,1.78100000e-01
-5.31635937e-08,1.78100000e-01
-5.31235937e-08,1.78100000e-01
-5.30835937e-08,1.78100000e-01
-5.30435937e-08,1.78100000e-01
-5.30035937e-08,1.78100000e-01
-5.29635937e-08,1.78100000e-01
-5.29235938e-08,1.78100000e-01
-5.28835937e-08,1.78100000e-01
-5.28435937e-08,1.78100000e-01
-5.28035937e-08,1.78100000e-01
-5.27635937e-08,1.78100000e-01
-5.27235937e-08,1.78100000e-01
-5.26835937e-08,1.78100000e-01
-5.26435937e-08,1.78100000e-01
-5.26035937e-08,1.78100000e-01
-5.25635937e-08,1.78100000e-01
-5.25235937e-08,1.78100000e-01
-5.24835937e-08,1.78100000e-01
-5.24435937e-08,1.78100000e-01
-5.24035937e-08,1.78100000e-01
-5.23635937e-08,1.78100000e-01
-5.23235937e-08,1.78100000e-01
-5.22835937e-08,1.78100000e-01
-5.22435937e-08,1.78100000e-01
-5.22035937e-08,1.78100000e-01
-5.21635937e-08,1.78100000e-01
-5.21235937e-08,1.78100000e-01
-5.20835937e-08,1.78100000e-01
-5.20435937e-08,1.78101563e-01
-5.20035937e-08,1.78098438e-01
-5.19635937e-08,1.78101563e-01
-5.19235937e-08,1.78098438e-01
-5.18835937e-08,1.78101563e-01
-5.18435937e-08,1.78098438e-01
-5.18035937e-08,1.78103125e-01
-5.17635937e-08,1.78096875e-01
-5.17235937e-08,1.78103125e-01
-5.16835937e-08,1.78095313e-01
-5.16435937e-08,1.78104687e-01
-5.16035937e-08,1.78093750e-01
-5.15635937e-08,1.78107813e-01
-5.15235937e-08,1.78089063e-01
-5.14835937e-08,1.78115625e-01
-5.14435937e-08,1.78075000e-01
-5.14035937e-08,1.78150000e-01
-5.13635937e-08,1.77896875e-01
-5.13235937e-08,1.77640625e-01
-5.12835937e-08,1.77735937e-01
-5.12435937e-08,1.77671875e-01
-5.12035937e-08,1.77723437e-01
-5.11635937e-08,1.77678125e-01
-5.11235937e-08,1.77720313e-01
-5.10835937e-08,1.77678125e-01
-5.10435937e-08,1.77723437e-01
-5.10035938e-08,1.77671875e-01
-5.09635937e-08,1.77735937e-01
-5.09235937e-08,1.77639063e-01
-5.08835937e-08,1.77912500e-01
-5.08435937e-08,1.78150000e-01
-5.08035937e-08,1.78073438e-01
-5.07635937e-08,1.78117187e-01
-5.07235938e-08,1.78087500e-01
-5.06835937e-08,1.78110938e-01
-5.06435937e-08,1.78090625e-01
-5.06035937e-08,1.78109375e-01
-5.05635937e-08,1.78090625e-01
-5.05235937e-08,1.78109375e-01
-5.04835937e-08,1.78089063e-01
-5.04435937e-08,1.78112500e-01
-5.04035937e-08,1.78082813e-01
-5.03635937e-08,1.78126563e-01
-5.03235937e-08,1.78050000e-01
-5.02835937e-08,1.78301563e-01
-5.02435937e-08,1.78560938e-01
-5.02035937e-08,1.78460937e-01
-5.01635937e-08,1.78531250e-01
-5.01235937e-08,1.78471875e-01
-5.00835937e-08,1.78528125e-01
-5.00435937e-08,1.78468750e-01
-5.00035937e-08,1.78539063e-01
-4.99635937e-08,1.78435938e-01
-4.99235937e-08,1.78715625e-01
-4.98835937e-08,1.78946875e-01
-4.98435937e-08,1.78876563e-01
-4.98035937e-08,1.78915625e-01
-4.97635937e-08,1.78889063e-01
-4.97235937e-08,1.78907813e-01
-4.96835937e-08,1.78893750e-01
-4.96435937e-08,1.78904688e-01
-4.96035937e-08,1.78896875e-01
-4.95635937e-08,1.78903125e-01
-4.95235937e-08,1.78896875e-01
-4.94835937e-08,1.78901562e-01
-4.94435937e-08,1.78898438e-01
-4.94035937e-08,1.78901562e-01
-4.93635937e-08,1.78898438e-01
-4.93235937e-08,1.78901562e-01
-4.92835937e-08,1.78898438e-01
-4.92435937e-08,1.78901562e-01
-4.92035937e-08,1.78898438e-01
-4.91635937e-08,1.78901562e-01
-4.91235937e-08,1.78898438e-01
-4.90835938e-08,1.78901562e-01
-4.90435937e-08,1.78898438e-01
-4.90035937e-08,1.78901562e-01
-4.89635937e-08,1.78898438e-01
-4.89235937e-08,1.78901562e-01
-4.88835937e-08,1.78898438e-01
-4.88435937e-08,1.78901562e-01
-4.88035938e-08,1.78898438e-01
-4.87635937e-08,1.78901562e-01
-4.87235937e-08,1.78896875e-01
-4.86835937e-08,1.78903125e-01
-4.86435937e-08,1.78895313e-01
-4.86035937e-08,1.78904688e-01
-4.85635937e-08,1.78893750e-01
-4.85235938e-08,1.78907813e-01
-4.84835937e-08,1.78889063e-01
-4.84435937e-08,1.78915625e-01
-4.84035937e-08,1.78875000e-01
-4.83635937e-08,1.78950000e-01
-4.83235937e-08,1.78698438e-01
-4.82835937e-08,1.78439062e-01
-4.82435937e-08,1.78537500e-01
-4.82035937e-08,1.78471875e-01
-4.81635937e-08,1.78525000e-01
-4.81235937e-08,1.78476563e-01
-4.80835937e-08,1.78523437e-01
-4.80435937e-08,1.78475000e-01
-4.80035937e-08,1.78528125e-01
-4.79635937e-08,1.78464063e-01
-4.79235937e-08,1.78560938e-01
-4.78835937e-08,1.78287500e-01
-4.78435937e-08,1.78048438e-01
-4.78035937e-08,1.78128125e-01
-4.77635937e-08,1.78079688e-01
-4.77235937e-08,1.78117187e-01
-4.76835937e-08,1.78082813e-01
-4.76435937e-08,1.78120313e-01
-4.76035937e-08,1.78071875e-01
-4.75635937e-08,1.78151562e-01
-4.75235937e-08,1.77896875e-01
-4.74835937e-08,1.77640625e-01
-4.74435937e-08,1.77737500e-01
-4.74035937e-08,1.77670313e-01
-4.73635937e-08,1.77726563e-01
-4.73235937e-08,1.77673438e-01
-4.72835937e-08,1.77729688e-01
-4.72435937e-08,1.77660938e-01
-4.72035937e-08,1.77762500e-01
-4.71635938e-08,1.77485937e-01
-4.71235937e-08,1.77251563e-01
-4.70835937e-08,1.77326563e-01
-4.70435937e-08,1.77282812e-01
-4.70035937e-08,1.77314063e-01
-4.69635937e-08,1.77287500e-01
-4.69235937e-08,1.77312500e-01
-4.68835938e-08,1.77285938e-01
-4.68435937e-08,1.77318750e-01
-4.68035937e-08,1.77273438e-01
-4.67635937e-08,1.77350000e-01
-4.67235937e-08,1.77096875e-01
-4.66835937e-08,1.76840625e-01
-4.66435937e-08,1.76937500e-01
-4.66035938e-08,1.76871875e-01
-4.65635937e-08,1.76923438e-01
-4.65235937e-08,1.76878125e-01
-4.64835937e-08,1.76920313e-01
-4.64435937e-08,1.76879687e-01
-4.64035937e-08,1.76920313e-01
-4.63635937e-08,1.76879687e-01
-4.63235938e-08,1.76921875e-01
-4.62835937e-08,1.76876563e-01
-4.62435937e-08,1.76926562e-01
-4.62035937e-08,1.76867187e-01
-4.61635937e-08,1.76942188e-01
-4.61235937e-08,1.76832813e-01
-4.60835937e-08,1.77120313e-01
-4.60435937e-08,1.77340625e-01
-4.60035937e-08,1.77282812e-01
-4.59635937e-08,1.77306250e-01
-4.59235937e-08,1.77300000e-01
-4.58835937e-08,1.77295312e-01
-4.58435937e-08,1.77309375e-01
-4.58035937e-08,1.77284375e-01
-4.57635937e-08,1.77326563e-01
-4.57235937e-08,1.77248437e-01
-4.56835937e-08,1.77504688e-01
-4.56435937e-08,1.77757813e-01
-4.56035937e-08,1.77665625e-01
-4.55635937e-08,1.77726563e-01
-4.55235937e-08,1.77673438e-01
-4.54835937e-08,1.77731250e-01
-4.54435937e-08,1.77646875e-01
-4.54035937e-08,1.77903125e-01
-4.53635937e-08,1.78162500e-01
-4.53235937e-08,1.78056250e-01
-4.52835937e-08,1.78139063e-01
-4.52435938e-08,1.78059375e-01
-4.52035937e-08,1.78148438e-01
-4.51635937e-08,1.78026563e-01
-4.51235937e-08,1.78326563e-01
-4.50835937e-08,1.78532812e-01
-4.50435937e-08,1.78493750e-01
-4.50035937e-08,1.78492188e-01
-4.49635938e-08,1.78523437e-01
-4.49235937e-08,1.78448438e-01
-4.48835937e-08,1.78707813e-01
-4.48435937e-08,1.78953125e-01
-4.48035937e-08,1.78873438e-01
-4.47635937e-08,1.78914062e-01
-4.47235937e-08,1.78895313e-01
-4.46835938e-08,1.78896875e-01
-4.46435937e-08,1.78915625e-01
-4.46035937e-08,1.78857813e-01
-4.45635937e-08,1.79096875e-01
-4.45235937e-08,1.79364063e-01
-4.44835937e-08,1.79260937e-01
-4.44435937e-08,1.79329688e-01
-4.44035938e-08,1.79276563e-01
-4.43635937e-08,1.79320312e-01
-4.43235937e-08,1.79282812e-01
-4.42835937e-08,1.79315625e-01
-4.42435937e-08,1.79285938e-01
-4.42035937e-08,1.79312500e-01
-4.41635937e-08,1.79289063e-01
-4.41235938e-08,1.79310938e-01
-4.40835937e-08,1.79290625e-01
-4.40435937e-08,1.79309375e-01
-4.40035937e-08,1.79292188e-01
-4.39635937e-08,1.79307812e-01
-4.39235937e-08,1.79293750e-01
-4.38835937e-08,1.79306250e-01
-4.38435937e-08,1.79293750e-01
-4.38035937e-08,1.79304688e-01
-4.37635937e-08,1.79295312e-01
-4.37235937e-08,1.79303125e-01
-4.36835937e-08,1.79296875e-01
-4.36435937e-08,1.79301563e-01
-4.36035937e-08,1.79298438e-01
-4.35635937e-08,1.79300000e-01
-4.35235937e-08,1.79301563e-01
-4.34835937e-08,1.79298438e-01
-4.34435937e-08,1.79304688e-01
-4.34035937e-08,1.79292188e-01
-4.33635937e-08,1.79312500e-01
-4.33235938e-08,1.79278125e-01
-4.32835937e-08,1.79346875e-01
-4.32435937e-08,1.79100000e-01
-4.32035937e-08,1.78837500e-01
-4.31635937e-08,1.78940625e-01
-4.31235937e-08,1.78868750e-01
-4.30835937e-08,1.78928125e-01
-4.30435938e-08,1.78871875e-01
-4.30035937e-08,1.78929688e-01
-4.29635937e-08,1.78862500e-01
-4.29235937e-08,1.78959375e-01
-4.28835937e-08,1.78689062e-01
-4.28435937e-08,1.78445313e-01
-4.28035937e-08,1.78532812e-01
-4.27635938e-08,1.78471875e-01
-4.27235937e-08,1.78528125e-01
-4.26835937e-08,1.78464063e-01
-4.26435937e-08,1.78559375e-01
-4.26035937e-08,1.78287500e-01
-4.25635937e-08,1.78050000e-01
-4.25235937e-08,1.78125000e-01
-4.24835938e-08,1.78085938e-01
-4.24435937e-08,1.78107813e-01
-4.24035937e-08,1.78100000e-01
-4.23635937e-08,1.78089063e-01
-4.23235937e-08,1.78137500e-01
-4.22835937e-08,1.77909375e-01
-4.22435937e-08,1.77628125e-01
-4.22035938e-08,1.77746875e-01
-4.21635937e-08,1.77662500e-01
-4.21235937e-08,1.77732813e-01
-4.20835937e-08,1.77668750e-01
-4.20435937e-08,1.77729688e-01
-4.20035937e-08,1.77670313e-01
-4.19635937e-08,1.77731250e-01
-4.19235938e-08,1.77667188e-01
-4.18835937e-08,1.77737500e-01
-4.18435937e-08,1.77653125e-01
-4.18035937e-08,1.77771875e-01
-4.17635937e-08,1.77475000e-01
-4.17235937e-08,1.77262500e-01
-4.16835937e-08,1.77312500e-01
-4.16435937e-08,1.77296875e-01
-4.16035937e-08,1.77296875e-01
-4.15635937e-08,1.77306250e-01
-4.15235937e-08,1.77289063e-01
-4.14835937e-08,1.77315625e-01
-4.14435937e-08,1.77279688e-01
-4.14035938e-08,1.77331250e-01
-4.13635937e-08,1.77243750e-01
-4.13235937e-08,1.77509375e-01
-4.12835937e-08,1.77751563e-01
-4.12435937e-08,1.77671875e-01
-4.12035937e-08,1.77718750e-01
-4.11635937e-08,1.77687500e-01
-4.11235938e-08,1.77709375e-01
-4.10835937e-08,1.77692188e-01
-4.10435937e-08,1.77706250e-01
-4.10035937e-08,1.77695313e-01
-4.09635937e-08,1.77704688e-01
-4.09235937e-08,1.77696875e-01
-4.08835937e-08,1.77703125e-01
-4.08435938e-08,1.77698438e-01
-4.08035937e-08,1.77701562e-01
-4.07635937e-08,1.77698438e-01
-4.07235937e-08,1.77701562e-01
-4.06835937e-08,1.77698438e-01
-4.06435937e-08,1.77700000e-01
-4.06035937e-08,1.77700000e-01
-4.05635938e-08,1.77700000e-01
-4.05235937e-08,1.77700000e-01
-4.04835937e-08,1.77700000e-01
-4.04435937e-08,1.77700000e-01
-4.04035937e-08,1.77700000e-01
-4.03635937e-08,1.77700000e-01
-4.03235937e-08,1.77700000e-01
-4.02835938e-08,1.77700000e-01
-4.02435937e-08,1.77698438e-01
-4.02035937e-08,1.77701562e-01
-4.01635937e-08,1.77698438e-01
-4.01235937e-08,1.77701562e-01
-4.00835937e-08,1.77698438e-01
-4.00435937e-08,1.77701562e-01
-4.00035938e-08,1.77698438e-01
-3.99635937e-08,1.77701562e-01
-3.99235937e-08,1.77698438e-01
-3.98835937e-08,1.77701562e-01
-3.98435937e-08,1.77698438e-01
-3.98035937e-08,1.77701562e-01
-3.97635937e-08,1.77698438e-01
-3.97235937e-08,1.77701562e-01
-3.96835937e-08,1.77698438e-01
-3.96435937e-08,1.77701562e-01
-3.96035937e-08,1.77698438e-01
-3.95635937e-08,1.77701562e-01
-3.95235937e-08,1.77698438e-01
-3.94835938e-08,1.77701562e-01
-3.94435937e-08,1.77698438e-01
-3.94035937e-08,1.77701562e-01
-3.93635937e-08,1.77698438e-01
-3.93235937e-08,1.77700000e-01
-3.92835937e-08,1.77700000e-01
-3.92435937e-08,1.77700000e-01
-3.92035938e-08,1.77700000e-01
-3.91635937e-08,1.77700000e-01
-3.91235937e-08,1.77700000e-01
-3.90835937e-08,1.77698438e-01
-3.90435937e-08,1.77701562e-01
-3.90035937e-08,1.77696875e-01
-3.89635937e-08,1.77704688e-01
-3.89235938e-08,1.77693750e-01
-3.88835937e-08,1.77709375e-01
-3.88435937e-08,1.77685938e-01
-3.88035937e-08,1.77723437e-01
-3.87635937e-08,1.77651562e-01
-3.87235937e-08,1.77900000e-01
-3.86835937e-08,1.78162500e-01
-3.86435938e-08,1.78060938e-01
-3.86035937e-08,1.78129687e-01
-3.85635937e-08,1.78075000e-01
-3.85235937e-08,1.78123438e-01
