0a4d6f8107274375cf0a549995fe79f0/aes_ch1_20250506175509013.csv

Model,MSO66B
Label,
Waveform Type,ANALOG
Horizontal Units,s
Sample Interval,4.00000000e-11
Record Length,10000
Zero Index,1599.01562500
Vertical Units,A
ANALOG_Thumbnail,
yOffset,1.84500000e-01
yPosition,8.40000000e-01

Labels,
TIME,CH1
-6.39606250e-08,1.99695312e-01
-6.39206250e-08,1.99706250e-01
-6.38806250e-08,1.99692188e-01
-6.38406250e-08,1.99709375e-01
-6.38006250e-08,1.99689063e-01
-6.37606250e-08,1.99712500e-01
-6.37206250e-08,1.99685938e-01
-6.36806250e-08,1.99718750e-01
-6.36406250e-08,1.99676563e-01
-6.36006250e-08,1.99732813e-01
-6.35606250e-08,1.99642188e-01
-6.35206250e-08,1.99912500e-01
-6.34806250e-08,2.00150000e-01
-6.34406250e-08,2.00073438e-01
-6.34006250e-08,2.00115625e-01
-6.33606250e-08,2.00089062e-01
-6.33206250e-08,2.00107813e-01
-6.32806250e-08,2.00095313e-01
-6.32406250e-08,2.00103125e-01
-6.32006250e-08,2.00098438e-01
-6.31606250e-08,2.00100000e-01
-6.31206250e-08,2.00100000e-01
-6.30806250e-08,2.00098438e-01
-6.30406250e-08,2.00103125e-01
-6.30006250e-08,2.00096875e-01
-6.29606250e-08,2.00104688e-01
-6.29206250e-08,2.00093750e-01
-6.28806250e-08,2.00107813e-01
-6.28406250e-08,2.00090625e-01
-6.28006250e-08,2.00110938e-01
-6.27606250e-08,2.00087500e-01
-6.27206250e-08,2.00117188e-01
-6.26806250e-08,2.00078125e-01
-6.26406250e-08,2.00131250e-01
-6.26006250e-08,2.00042187e-01
-6.25606250e-08,2.00310938e-01
-6.25206250e-08,2.00551563e-01
-6.24806250e-08,2.00473438e-01
-6.24406250e-08,2.00517187e-01
-6.24006250e-08,2.00489063e-01
-6.23606250e-08,2.00507812e-01
-6.23206250e-08,2.00495313e-01
-6.22806250e-08,2.00501563e-01
-6.22406250e-08,2.00500000e-01
-6.22006250e-08,2.00496875e-01
-6.21606250e-08,2.00507812e-01
-6.21206250e-08,2.00487500e-01
-6.20806250e-08,2.00521875e-01
-6.20406250e-08,2.00451563e-01
-6.20006250e-08,2.00701563e-01
-6.19606250e-08,2.00960938e-01
-6.19206250e-08,2.00862500e-01
-6.18806250e-08,2.00928125e-01
-6.18406250e-08,2.00875000e-01
-6.18006250e-08,2.00921875e-01
-6.17606250e-08,2.00878125e-01
-6.17206250e-08,2.00923437e-01
-6.16806250e-08,2.00873438e-01
-6.16406250e-08,2.00934375e-01
-6.16006250e-08,2.00842188e-01
-6.15606250e-08,2.01110938e-01
-6.15206250e-08,2.01353125e-01
-6.14806250e-08,2.01268750e-01
-6.14406250e-08,2.01321875e-01
-6.14006250e-08,2.01281250e-01
-6.13606250e-08,2.01318750e-01
-6.13206250e-08,2.01281250e-01
-6.12806250e-08,2.01320313e-01
-6.12406250e-08,2.01275000e-01
-6.12006250e-08,2.01334375e-01
-6.11606250e-08,2.01242188e-01
-6.11206250e-08,2.01510938e-01
-6.10806250e-08,2.01751563e-01
-6.10406250e-08,2.01671875e-01
-6.10006250e-08,2.01718750e-01
-6.09606250e-08,2.01687500e-01
-6.09206250e-08,2.01710938e-01
-6.08806250e-08,2.01692188e-01
-6.08406250e-08,2.01706250e-01
-6.08006250e-08,2.01695313e-01
-6.07606250e-08,2.01704688e-01
-6.07206250e-08,2.01696875e-01
-6.06806250e-08,2.01703125e-01
-6.06406250e-08,2.01698437e-01
-6.06006250e-08,2.01701563e-01
-6.05606250e-08,2.01700000e-01
-6.05206250e-08,2.01700000e-01
-6.04806250e-08,2.01701563e-01
-6.04406250e-08,2.01698437e-01
-6.04006250e-08,2.01703125e-01
-6.03606250e-08,2.01696875e-01
-6.03206250e-08,2.01704688e-01
-6.02806250e-08,2.01693750e-01
-6.02406250e-08,2.01709375e-01
-6.02006250e-08,2.01687500e-01
-6.01606250e-08,2.01717188e-01
-6.01206250e-08,2.01673437e-01
-6.00806250e-08,2.01751563e-01
-6.00406250e-08,2.01495312e-01
-6.00006250e-08,2.01242188e-01
-5.99606250e-08,2.01332813e-01
-5.99206250e-08,2.01276563e-01
-5.98806250e-08,2.01318750e-01
-5.98406250e-08,2.01284375e-01
-5.98006250e-08,2.01314063e-01
-5.97606250e-08,2.01287500e-01
-5.97206250e-08,2.01310938e-01
-5.96806250e-08,2.01290625e-01
-5.96406250e-08,2.01309375e-01
-5.96006250e-08,2.01292187e-01
-5.95606250e-08,2.01307813e-01
-5.95206250e-08,2.01292187e-01
-5.94806250e-08,2.01307813e-01
-5.94406250e-08,2.01293750e-01
-5.94006250e-08,2.01306250e-01
-5.93606250e-08,2.01293750e-01
-5.93206250e-08,2.01306250e-01
-5.92806250e-08,2.01293750e-01
-5.92406250e-08,2.01306250e-01
-5.92006250e-08,2.01293750e-01
-5.91606250e-08,2.01304687e-01
-5.91206250e-08,2.01295313e-01
-5.90806250e-08,2.01304687e-01
-5.90406250e-08,2.01295313e-01
-5.90006250e-08,2.01304687e-01
-5.89606250e-08,2.01295313e-01
-5.89206250e-08,2.01304687e-01
-5.88806250e-08,2.01295313e-01
-5.88406250e-08,2.01304687e-01
-5.88006250e-08,2.01295313e-01
-5.87606250e-08,2.01304687e-01
-5.87206250e-08,2.01295313e-01
-5.86806250e-08,2.01304687e-01
-5.86406250e-08,2.01295313e-01
-5.86006250e-08,2.01304687e-01
-5.85606250e-08,2.01295313e-01
-5.85206250e-08,2.01304687e-01
-5.84806250e-08,2.01295313e-01
-5.84406250e-08,2.01304687e-01
-5.84006250e-08,2.01295313e-01
-5.83606250e-08,2.01304687e-01
-5.83206250e-08,2.01295313e-01
-5.82806250e-08,2.01304687e-01
-5.82406250e-08,2.01295313e-01
-5.82006250e-08,2.01304687e-01
-5.81606250e-08,2.01295313e-01
-5.81206250e-08,2.01304687e-01
-5.80806250e-08,2.01295313e-01
-5.80406250e-08,2.01304687e-01
-5.80006250e-08,2.01295313e-01
-5.79606250e-08,2.01304687e-01
-5.79206250e-08,2.01295313e-01
-5.78806250e-08,2.01306250e-01
-5.78406250e-08,2.01293750e-01
-5.78006250e-08,2.01306250e-01
-5.77606250e-08,2.01293750e-01
-5.77206250e-08,2.01306250e-01
-5.76806250e-08,2.01292187e-01
-5.76406250e-08,2.01307813e-01
-5.76006250e-08,2.01292187e-01
-5.75606250e-08,2.01309375e-01
-5.75206250e-08,2.01289063e-01
-5.74806250e-08,2.01310938e-01
-5.74406250e-08,2.01285938e-01
-5.74006250e-08,2.01317187e-01
-5.73606250e-08,2.01278125e-01
-5.73206250e-08,2.01331250e-01
-5.72806250e-08,2.01243750e-01
-5.72406250e-08,2.01509375e-01
-5.72006250e-08,2.01753125e-01
-5.71606250e-08,2.01670313e-01
-5.71206250e-08,2.01718750e-01
-5.70806250e-08,2.01685938e-01
-5.70406250e-08,2.01710938e-01
-5.70006250e-08,2.01690625e-01
-5.69606250e-08,2.01707812e-01
-5.69206250e-08,2.01693750e-01
-5.68806250e-08,2.01706250e-01
-5.68406250e-08,2.01695313e-01
-5.68006250e-08,2.01704688e-01
-5.67606250e-08,2.01695313e-01
-5.67206250e-08,2.01703125e-01
-5.66806250e-08,2.01696875e-01
-5.66406250e-08,2.01703125e-01
-5.66006250e-08,2.01696875e-01
-5.65606250e-08,2.01701563e-01
-5.65206250e-08,2.01698437e-01
-5.64806250e-08,2.01701563e-01
-5.64406250e-08,2.01698437e-01
-5.64006250e-08,2.01700000e-01
-5.63606250e-08,2.01700000e-01
-5.63206250e-08,2.01700000e-01
-5.62806250e-08,2.01701563e-01
-5.62406250e-08,2.01698437e-01
-5.62006250e-08,2.01703125e-01
-5.61606250e-08,2.01695313e-01
-5.61206250e-08,2.01706250e-01
-5.60806250e-08,2.01690625e-01
-5.60406250e-08,2.01714063e-01
-5.60006250e-08,2.01676563e-01
-5.59606250e-08,2.01748438e-01
-5.59206250e-08,2.01500000e-01
-5.58806250e-08,2.01237500e-01
-5.58406250e-08,2.01339062e-01
-5.58006250e-08,2.01268750e-01
-5.57606250e-08,2.01326563e-01
-5.57206250e-08,2.01275000e-01
-5.56806250e-08,2.01325000e-01
-5.56406250e-08,2.01273438e-01
-5.56006250e-08,2.01331250e-01
-5.55606250e-08,2.01260938e-01
-5.55206250e-08,2.01364062e-01
-5.54806250e-08,2.01082813e-01
-5.54406250e-08,2.00853125e-01
-5.54006250e-08,2.00923437e-01
-5.53606250e-08,2.00885938e-01
-5.53206250e-08,2.00909375e-01
-5.52806250e-08,2.00893750e-01
-5.52406250e-08,2.00904688e-01
-5.52006250e-08,2.00896875e-01
-5.51606250e-08,2.00901563e-01
-5.51206250e-08,2.00898437e-01
-5.50806250e-08,2.00901563e-01
-5.50406250e-08,2.00900000e-01
-5.50006250e-08,2.00900000e-01
-5.49606250e-08,2.00900000e-01
-5.49206250e-08,2.00900000e-01
-5.48806250e-08,2.00900000e-01
-5.48406250e-08,2.00898437e-01
-5.48006250e-08,2.00901563e-01
-5.47606250e-08,2.00898437e-01
-5.47206250e-08,2.00901563e-01
-5.46806250e-08,2.00898437e-01
-5.46406250e-08,2.00901563e-01
-5.46006250e-08,2.00898437e-01
-5.45606250e-08,2.00901563e-01
-5.45206250e-08,2.00898437e-01
-5.44806250e-08,2.00901563e-01
-5.44406250e-08,2.00896875e-01
-5.44006250e-08,2.00903125e-01
-5.43606250e-08,2.00896875e-01
-5.43206250e-08,2.00903125e-01
-5.42806250e-08,2.00896875e-01
-5.42406250e-08,2.00903125e-01
-5.42006250e-08,2.00896875e-01
-5.41606250e-08,2.00903125e-01
-5.41206250e-08,2.00896875e-01
-5.40806250e-08,2.00903125e-01
-5.40406250e-08,2.00896875e-01
-5.40006250e-08,2.00903125e-01
-5.39606250e-08,2.00896875e-01
-5.39206250e-08,2.00903125e-01
-5.38806250e-08,2.00895313e-01
-5.38406250e-08,2.00904688e-01
-5.38006250e-08,2.00895313e-01
-5.37606250e-08,2.00904688e-01
-5.37206250e-08,2.00895313e-01
-5.36806250e-08,2.00904688e-01
-5.36406250e-08,2.00895313e-01
-5.36006250e-08,2.00904688e-01
-5.35606250e-08,2.00893750e-01
-5.35206250e-08,2.00906250e-01
-5.34806250e-08,2.00893750e-01
-5.34406250e-08,2.00906250e-01
-5.34006250e-08,2.00892188e-01
-5.33606250e-08,2.00907813e-01
-5.33206250e-08,2.00890625e-01
-5.32806250e-08,2.00909375e-01
-5.32406250e-08,2.00889062e-01
-5.32006250e-08,2.00912500e-01
-5.31606250e-08,2.00885938e-01
-5.31206250e-08,2.00917188e-01
-5.30806250e-08,2.00878125e-01
-5.30406250e-08,2.00932813e-01
-5.30006250e-08,2.00842188e-01
-5.29606250e-08,2.01110938e-01
-5.29206250e-08,2.01351562e-01
-5.28806250e-08,2.01271875e-01
-5.28406250e-08,2.01318750e-01
-5.28006250e-08,2.01285938e-01
-5.27606250e-08,2.01310938e-01
-5.27206250e-08,2.01292187e-01
-5.26806250e-08,2.01306250e-01
-5.26406250e-08,2.01293750e-01
-5.26006250e-08,2.01304687e-01
-5.25606250e-08,2.01296875e-01
-5.25206250e-08,2.01303125e-01
-5.24806250e-08,2.01296875e-01
-5.24406250e-08,2.01301563e-01
-5.24006250e-08,2.01298438e-01
-5.23606250e-08,2.01301563e-01
-5.23206250e-08,2.01298438e-01
-5.22806250e-08,2.01301563e-01
-5.22406250e-08,2.01300000e-01
-5.22006250e-08,2.01300000e-01
-5.21606250e-08,2.01300000e-01
-5.21206250e-08,2.01300000e-01
-5.20806250e-08,2.01300000e-01
-5.20406250e-08,2.01300000e-01
-5.20006250e-08,2.01301563e-01
-5.19606250e-08,2.01298438e-01
-5.19206250e-08,2.01301563e-01
-5.18806250e-08,2.01298438e-01
-5.18406250e-08,2.01301563e-01
-5.18006250e-08,2.01298438e-01
-5.17606250e-08,2.01301563e-01
-5.17206250e-08,2.01296875e-01
-5.16806250e-08,2.01303125e-01
-5.16406250e-08,2.01296875e-01
-5.16006250e-08,2.01303125e-01
-5.15606250e-08,2.01296875e-01
-5.15206250e-08,2.01303125e-01
-5.14806250e-08,2.01296875e-01
-5.14406250e-08,2.01304687e-01
-5.14006250e-08,2.01295313e-01
-5.13606250e-08,2.01304687e-01
-5.13206250e-08,2.01295313e-01
-5.12806250e-08,2.01306250e-01
-5.12406250e-08,2.01293750e-01
-5.12006250e-08,2.01306250e-01
-5.11606250e-08,2.01292187e-01
-5.11206250e-08,2.01307813e-01
-5.10806250e-08,2.01290625e-01
-5.10406250e-08,2.01309375e-01
-5.10006250e-08,2.01289063e-01
-5.09606250e-08,2.01312500e-01
-5.09206250e-08,2.01284375e-01
-5.08806250e-08,2.01318750e-01
-5.08406250e-08,2.01276563e-01
-5.08006250e-08,2.01332813e-01
-5.07606250e-08,2.01242188e-01
-5.07206250e-08,2.01510938e-01
-5.06806250e-08,2.01750000e-01
-5.06406250e-08,2.01673437e-01
-5.06006250e-08,2.01717188e-01
-5.05606250e-08,2.01689063e-01
-5.05206250e-08,2.01707812e-01
-5.04806250e-08,2.01695313e-01
-5.04406250e-08,2.01703125e-01
-5.04006250e-08,2.01698437e-01
-5.03606250e-08,2.01700000e-01
-5.03206250e-08,2.01701563e-01
-5.02806250e-08,2.01696875e-01
-5.02406250e-08,2.01706250e-01
-5.02006250e-08,2.01692188e-01
-5.01606250e-08,2.01710938e-01
-5.01206250e-08,2.01682813e-01
-5.00806250e-08,2.01726563e-01
-5.00406250e-08,2.01648437e-01
-5.00006250e-08,2.01906250e-01
-4.99606250e-08,2.02156250e-01
-4.99206250e-08,2.02067188e-01
-4.98806250e-08,2.02123438e-01
-4.98406250e-08,2.02082813e-01
-4.98006250e-08,2.02114062e-01
-4.97606250e-08,2.02087500e-01
-4.97206250e-08,2.02110938e-01
-4.96806250e-08,2.02090625e-01
-4.96406250e-08,2.02107813e-01
-4.96006250e-08,2.02093750e-01
-4.95606250e-08,2.02106250e-01
-4.95206250e-08,2.02093750e-01
-4.94806250e-08,2.02104688e-01
-4.94406250e-08,2.02095313e-01
-4.94006250e-08,2.02104688e-01
-4.93606250e-08,2.02096875e-01
-4.93206250e-08,2.02103125e-01
-4.92806250e-08,2.02096875e-01
-4.92406250e-08,2.02101562e-01
-4.92006250e-08,2.02098438e-01
-4.91606250e-08,2.02101562e-01
-4.91206250e-08,2.02098438e-01
-4.90806250e-08,2.02100000e-01
-4.90406250e-08,2.02100000e-01
-4.90006250e-08,2.02100000e-01
-4.89606250e-08,2.02101562e-01
-4.89206250e-08,2.02098438e-01
-4.88806250e-08,2.02103125e-01
-4.88406250e-08,2.02096875e-01
-4.88006250e-08,2.02104688e-01
-4.87606250e-08,2.02095313e-01
-4.87206250e-08,2.02106250e-01
-4.86806250e-08,2.02092188e-01
-4.86406250e-08,2.02110938e-01
-4.86006250e-08,2.02085938e-01
-4.85606250e-08,2.02118750e-01
-4.85206250e-08,2.02070313e-01
-4.84806250e-08,2.02154688e-01
-4.84406250e-08,2.01892188e-01
-4.84006250e-08,2.01646875e-01
-4.83606250e-08,2.01728125e-01
-4.83206250e-08,2.01681250e-01
-4.82806250e-08,2.01712500e-01
-4.82406250e-08,2.01690625e-01
-4.82006250e-08,2.01704688e-01
-4.81606250e-08,2.01698437e-01
-4.81206250e-08,2.01696875e-01
-4.80806250e-08,2.01709375e-01
-4.80406250e-08,2.01681250e-01
-4.80006250e-08,2.01743750e-01
-4.79606250e-08,2.01501563e-01
-4.79206250e-08,2.01235938e-01
-4.78806250e-08,2.01339062e-01
-4.78406250e-08,2.01270312e-01
-4.78006250e-08,2.01325000e-01
-4.77606250e-08,2.01278125e-01
-4.77206250e-08,2.01318750e-01
-4.76806250e-08,2.01282813e-01
-4.76406250e-08,2.01317187e-01
-4.76006250e-08,2.01284375e-01
-4.75606250e-08,2.01314063e-01
-4.75206250e-08,2.01285938e-01
-4.74806250e-08,2.01314063e-01
-4.74406250e-08,2.01287500e-01
-4.74006250e-08,2.01312500e-01
-4.73606250e-08,2.01287500e-01
-4.73206250e-08,2.01312500e-01
-4.72806250e-08,2.01287500e-01
-4.72406250e-08,2.01312500e-01
-4.72006250e-08,2.01287500e-01
-4.71606250e-08,2.01312500e-01
-4.71206250e-08,2.01287500e-01
-4.70806250e-08,2.01312500e-01
-4.70406250e-08,2.01287500e-01
-4.70006250e-08,2.01312500e-01
-4.69606250e-08,2.01285938e-01
-4.69206250e-08,2.01314063e-01
-4.68806250e-08,2.01284375e-01
-4.68406250e-08,2.01315625e-01
-4.68006250e-08,2.01282813e-01
-4.67606250e-08,2.01320313e-01
-4.67206250e-08,2.01275000e-01
-4.66806250e-08,2.01334375e-01
-4.66406250e-08,2.01240625e-01
-4.66006250e-08,2.01510938e-01
-4.65606250e-08,2.01751563e-01
-4.65206250e-08,2.01671875e-01
-4.64806250e-08,2.01720312e-01
-4.64406250e-08,2.01682813e-01
-4.64006250e-08,2.01717188e-01
-4.63606250e-08,2.01681250e-01
-4.63206250e-08,2.01726563e-01
-4.62806250e-08,2.01650000e-01
-4.62406250e-08,2.01901563e-01
-4.62006250e-08,2.02162500e-01
-4.61606250e-08,2.02059375e-01
-4.61206250e-08,2.02132813e-01
-4.60806250e-08,2.02070313e-01
-4.60406250e-08,2.02131250e-01
-4.60006250e-08,2.02065625e-01
-4.59606250e-08,2.02142188e-01
-4.59206250e-08,2.02032813e-01
-4.58806250e-08,2.02320313e-01
-4.58406250e-08,2.02542187e-01
-4.58006250e-08,2.02481250e-01
-4.57606250e-08,2.02509375e-01
-4.57206250e-08,2.02495312e-01
-4.56806250e-08,2.02501563e-01
-4.56406250e-08,2.02501563e-01
-4.56006250e-08,2.02495312e-01
-4.55606250e-08,2.02506250e-01
-4.55206250e-08,2.02490625e-01
-4.54806250e-08,2.02512500e-01
-4.54406250e-08,2.02481250e-01
-4.54006250e-08,2.02528125e-01
-4.53606250e-08,2.02446875e-01
-4.53206250e-08,2.02706250e-01
-4.52806250e-08,2.02954688e-01
-4.52406250e-08,2.02868750e-01
-4.52006250e-08,2.02921875e-01
-4.51606250e-08,2.02882813e-01
-4.51206250e-08,2.02914063e-01
-4.50806250e-08,2.02889062e-01
-4.50406250e-08,2.02909375e-01
-4.50006250e-08,2.02890625e-01
-4.49606250e-08,2.02907813e-01
-4.49206250e-08,2.02892188e-01
-4.48806250e-08,2.02906250e-01
-4.48406250e-08,2.02893750e-01
-4.48006250e-08,2.02906250e-01
-4.47606250e-08,2.02893750e-01
-4.47206250e-08,2.02904688e-01
-4.46806250e-08,2.02895313e-01
-4.46406250e-08,2.02904688e-01
-4.46006250e-08,2.02895313e-01
-4.45606250e-08,2.02904688e-01
-4.45206250e-08,2.02895313e-01
-4.44806250e-08,2.02904688e-01
-4.44406250e-08,2.02895313e-01
-4.44006250e-08,2.02904688e-01
-4.43606250e-08,2.02895313e-01
-4.43206250e-08,2.02904688e-01
-4.42806250e-08,2.02895313e-01
-4.42406250e-08,2.02906250e-01
-4.42006250e-08,2.02893750e-01
-4.41606250e-08,2.02906250e-01
-4.41206250e-08,2.02893750e-01
-4.40806250e-08,2.02907813e-01
-4.40406250e-08,2.02892188e-01
-4.40006250e-08,2.02909375e-01
-4.39606250e-08,2.02889062e-01
-4.39206250e-08,2.02912500e-01
-4.38806250e-08,2.02884375e-01
-4.38406250e-08,2.02920313e-01
-4.38006250e-08,2.02868750e-01
-4.37606250e-08,2.02954688e-01
-4.37206250e-08,2.02692188e-01
-4.36806250e-08,2.02446875e-01
-4.36406250e-08,2.02529687e-01
-4.36006250e-08,2.02479688e-01
-4.35606250e-08,2.02515625e-01
-4.35206250e-08,2.02487500e-01
-4.34806250e-08,2.02510938e-01
-4.34406250e-08,2.02490625e-01
-4.34006250e-08,2.02507812e-01
-4.33606250e-08,2.02492188e-01
-4.33206250e-08,2.02506250e-01
-4.32806250e-08,2.02493750e-01
-4.32406250e-08,2.02504688e-01
-4.32006250e-08,2.02495312e-01
-4.31606250e-08,2.02504688e-01
-4.31206250e-08,2.02495312e-01
-4.30806250e-08,2.02504688e-01
-4.30406250e-08,2.02495312e-01
-4.30006250e-08,2.02503125e-01
-4.29606250e-08,2.02496875e-01
-4.29206250e-08,2.02503125e-01
-4.28806250e-08,2.02496875e-01
-4.28406250e-08,2.02503125e-01
-4.28006250e-08,2.02496875e-01
-4.27606250e-08,2.02503125e-01
-4.27206250e-08,2.02496875e-01
-4.26806250e-08,2.02503125e-01
-4.26406250e-08,2.02498438e-01
-4.26006250e-08,2.02501563e-01
-4.25606250e-08,2.02498438e-01
-4.25206250e-08,2.02501563e-01
-4.24806250e-08,2.02498438e-01
-4.24406250e-08,2.02501563e-01
-4.24006250e-08,2.02498438e-01
-4.23606250e-08,2.02501563e-01
-4.23206250e-08,2.02498438e-01
-4.22806250e-08,2.02501563e-01
-4.22406250e-08,2.02500000e-01
-4.22006250e-08,2.02500000e-01
-4.21606250e-08,2.02500000e-01
-4.21206250e-08,2.02500000e-01
-4.20806250e-08,2.02500000e-01
-4.20406250e-08,2.02498438e-01
-4.20006250e-08,2.02501563e-01
-4.19606250e-08,2.02498438e-01
-4.19206250e-08,2.02503125e-01
-4.18806250e-08,2.02496875e-01
-4.18406250e-08,2.02504688e-01
-4.18006250e-08,2.02493750e-01
-4.17606250e-08,2.02507812e-01
-4.17206250e-08,2.02489063e-01
-4.16806250e-08,2.02515625e-01
-4.16406250e-08,2.02475000e-01
-4.16006250e-08,2.02550000e-01
-4.15606250e-08,2.02296875e-01
-4.15206250e-08,2.02040625e-01
-4.14806250e-08,2.02134375e-01
-4.14406250e-08,2.02075000e-01
-4.14006250e-08,2.02120313e-01
-4.13606250e-08,2.02082813e-01
-4.13206250e-08,2.02115625e-01
-4.12806250e-08,2.02085938e-01
-4.12406250e-08,2.02114062e-01
-4.12006250e-08,2.02087500e-01
-4.11606250e-08,2.02112500e-01
-4.11206250e-08,2.02089062e-01
-4.10806250e-08,2.02110938e-01
-4.10406250e-08,2.02089062e-01
-4.10006250e-08,2.02110938e-01
-4.09606250e-08,2.02089062e-01
-4.09206250e-08,2.02110938e-01
-4.08806250e-08,2.02089062e-01
-4.08406250e-08,2.02110938e-01
-4.08006250e-08,2.02089062e-01
-4.07606250e-08,2.02110938e-01
-4.07206250e-08,2.02089062e-01
-4.06806250e-08,2.02110938e-01
-4.06406250e-08,2.02087500e-01
-4.06006250e-08,2.02112500e-01
-4.05606250e-08,2.02087500e-01
-4.05206250e-08,2.02114062e-01
-4.04806250e-08,2.02084375e-01
-4.04406250e-08,2.02117188e-01
-4.04006250e-08,2.02081250e-01
-4.03606250e-08,2.02121875e-01
-4.03206250e-08,2.02073438e-01
-4.02806250e-08,2.02135938e-01
-4.02406250e-08,2.02039063e-01
-4.02006250e-08,2.02314063e-01
-4.01606250e-08,2.02548438e-01
-4.01206250e-08,2.02476563e-01
-4.00806250e-08,2.02514063e-01
-4.00406250e-08,2.02490625e-01
-4.00006250e-08,2.02506250e-01
-3.99606250e-08,2.02496875e-01
-3.99206250e-08,2.02501563e-01
-3.98806250e-08,2.02498438e-01
-3.98406250e-08,2.02500000e-01
-3.98006250e-08,2.02501563e-01
-3.97606250e-08,2.02498438e-01
-3.97206250e-08,2.02503125e-01
-3.96806250e-08,2.02496875e-01
-3.96406250e-08,2.02504688e-01
-3.96006250e-08,2.02495312e-01
-3.95606250e-08,2.02506250e-01
-3.95206250e-08,2.02492188e-01
-3.94806250e-08,2.02507812e-01
-3.94406250e-08,2.02490625e-01
-3.94006250e-08,2.02512500e-01
-3.93606250e-08,2.02484375e-01
-3.93206250e-08,2.02520313e-01
-3.92806250e-08,2.02470312e-01
-3.92406250e-08,2.02554687e-01
-3.92006250e-08,2.02292187e-01
-3.91606250e-08,2.02046875e-01
-3.91206250e-08,2.02129688e-01
-3.90806250e-08,2.02079687e-01
-3.90406250e-08,2.02115625e-01
-3.90006250e-08,2.02087500e-01
-3.89606250e-08,2.02109375e-01
-3.89206250e-08,2.02092188e-01
-3.88806250e-08,2.02107813e-01
-3.88406250e-08,2.02093750e-01
-3.88006250e-08,2.02106250e-01
-3.87606250e-08,2.02095313e-01
-3.87206250e-08,2.02104688e-01
-3.86806250e-08,2.02095313e-01
-3.86406250e-08,2.02103125e-01
-3.86006250e-08,2.02096875e-01
-3.85606250e-08,2.02103125e-01
-3.85206250e-08,2.02096875e-01
