0a4d6f8107274375cf0a549995fe79f0/aes_ch1_20250506175417285.csv

Model,MSO66B
Label,
Waveform Type,ANALOG
Horizontal Units,s
Sample Interval,4.00000000e-11
Record Length,10000
Zero Index,1599.08984375
Vertical Units,A
ANALOG_Thumbnail,
yOffset,1.84500000e-01
yPosition,8.40000000e-01

Labels,
TIME,CH1
-6.39635937e-08,1.73690625e-01
-6.39235937e-08,1.73712500e-01
-6.38835938e-08,1.73682813e-01
-6.38435937e-08,1.73726563e-01
-6.38035938e-08,1.73648438e-01
-6.37635937e-08,1.73904688e-01
-6.37235937e-08,1.74157813e-01
-6.36835937e-08,1.74065625e-01
-6.36435937e-08,1.74126562e-01
-6.36035938e-08,1.74078125e-01
-6.35635937e-08,1.74118750e-01
-6.35235938e-08,1.74082813e-01
-6.34835937e-08,1.74117187e-01
-6.34435937e-08,1.74082813e-01
-6.34035937e-08,1.74117187e-01
-6.33635937e-08,1.74081250e-01
-6.33235938e-08,1.74120313e-01
-6.32835937e-08,1.74078125e-01
-6.32435938e-08,1.74126562e-01
-6.32035937e-08,1.74064063e-01
-6.31635937e-08,1.74160938e-01
-6.31235937e-08,1.73885938e-01
-6.30835937e-08,1.73651562e-01
-6.30435938e-08,1.73725000e-01
-6.30035937e-08,1.73684375e-01
-6.29635938e-08,1.73710937e-01
-6.29235937e-08,1.73692188e-01
-6.28835937e-08,1.73706250e-01
-6.28435937e-08,1.73695313e-01
-6.28035937e-08,1.73703125e-01
-6.27635938e-08,1.73696875e-01
-6.27235937e-08,1.73701563e-01
-6.26835938e-08,1.73698437e-01
-6.26435937e-08,1.73701563e-01
-6.26035937e-08,1.73700000e-01
-6.25635937e-08,1.73700000e-01
-6.25235937e-08,1.73700000e-01
-6.24835938e-08,1.73700000e-01
-6.24435937e-08,1.73701563e-01
-6.24035938e-08,1.73698437e-01
-6.23635937e-08,1.73701563e-01
-6.23235937e-08,1.73698437e-01
-6.22835937e-08,1.73701563e-01
-6.22435937e-08,1.73698437e-01
-6.22035938e-08,1.73701563e-01
-6.21635937e-08,1.73698437e-01
-6.21235937e-08,1.73703125e-01
-6.20835937e-08,1.73696875e-01
-6.20435937e-08,1.73703125e-01
-6.20035937e-08,1.73696875e-01
-6.19635937e-08,1.73703125e-01
-6.19235938e-08,1.73696875e-01
-6.18835937e-08,1.73703125e-01
-6.18435937e-08,1.73696875e-01
-6.18035937e-08,1.73704688e-01
-6.17635937e-08,1.73695313e-01
-6.17235937e-08,1.73704688e-01
-6.16835937e-08,1.73695313e-01
-6.16435938e-08,1.73706250e-01
-6.16035937e-08,1.73693750e-01
-6.15635937e-08,1.73706250e-01
-6.15235937e-08,1.73692188e-01
-6.14835937e-08,1.73707813e-01
-6.14435937e-08,1.73690625e-01
-6.14035937e-08,1.73710937e-01
-6.13635938e-08,1.73687500e-01
-6.13235937e-08,1.73715625e-01
-6.12835937e-08,1.73678125e-01
-6.12435937e-08,1.73731250e-01
-6.12035937e-08,1.73643750e-01
-6.11635937e-08,1.73909375e-01
-6.11235937e-08,1.74153125e-01
-6.10835938e-08,1.74070313e-01
-6.10435937e-08,1.74120313e-01
-6.10035937e-08,1.74084375e-01
-6.09635937e-08,1.74112500e-01
-6.09235937e-08,1.74089063e-01
-6.08835937e-08,1.74109375e-01
-6.08435937e-08,1.74092187e-01
-6.08035938e-08,1.74107813e-01
-6.07635937e-08,1.74093750e-01
-6.07235937e-08,1.74106250e-01
-6.06835937e-08,1.74093750e-01
-6.06435937e-08,1.74104687e-01
-6.06035937e-08,1.74095313e-01
-6.05635937e-08,1.74104687e-01
-6.05235938e-08,1.74095313e-01
-6.04835937e-08,1.74104687e-01
-6.04435937e-08,1.74093750e-01
-6.04035937e-08,1.74106250e-01
-6.03635937e-08,1.74093750e-01
-6.03235938e-08,1.74107813e-01
-6.02835937e-08,1.74092187e-01
-6.02435938e-08,1.74110938e-01
-6.02035937e-08,1.74087500e-01
-6.01635937e-08,1.74117187e-01
-6.01235937e-08,1.74073438e-01
-6.00835937e-08,1.74151562e-01
-6.00435938e-08,1.73895313e-01
-6.00035937e-08,1.73642188e-01
-5.99635938e-08,1.73734375e-01
-5.99235937e-08,1.73673437e-01
-5.98835937e-08,1.73721875e-01
-5.98435937e-08,1.73681250e-01
-5.98035937e-08,1.73718750e-01
-5.97635938e-08,1.73682813e-01
-5.97235937e-08,1.73717188e-01
-5.96835938e-08,1.73681250e-01
-5.96435937e-08,1.73720313e-01
-5.96035937e-08,1.73676563e-01
-5.95635937e-08,1.73728125e-01
-5.95235937e-08,1.73662500e-01
-5.94835937e-08,1.73760938e-01
-5.94435937e-08,1.73485938e-01
-5.94035937e-08,1.73251563e-01
-5.93635937e-08,1.73323438e-01
-5.93235937e-08,1.73285938e-01
-5.92835937e-08,1.73309375e-01
-5.92435937e-08,1.73293750e-01
-5.92035937e-08,1.73304687e-01
-5.91635937e-08,1.73296875e-01
-5.91235937e-08,1.73301563e-01
-5.90835937e-08,1.73298438e-01
-5.90435937e-08,1.73300000e-01
-5.90035937e-08,1.73300000e-01
-5.89635937e-08,1.73298438e-01
-5.89235937e-08,1.73301563e-01
-5.88835937e-08,1.73298438e-01
-5.88435937e-08,1.73303125e-01
-5.88035937e-08,1.73296875e-01
-5.87635937e-08,1.73304687e-01
-5.87235937e-08,1.73295312e-01
-5.86835937e-08,1.73304687e-01
-5.86435937e-08,1.73293750e-01
-5.86035937e-08,1.73307813e-01
-5.85635937e-08,1.73292188e-01
-5.85235937e-08,1.73310938e-01
-5.84835937e-08,1.73287500e-01
-5.84435937e-08,1.73315625e-01
-5.84035937e-08,1.73279688e-01
-5.83635937e-08,1.73331250e-01
-5.83235937e-08,1.73243750e-01
-5.82835937e-08,1.73509375e-01
-5.82435937e-08,1.73753125e-01
-5.82035937e-08,1.73670313e-01
-5.81635937e-08,1.73720313e-01
-5.81235937e-08,1.73684375e-01
-5.80835937e-08,1.73712500e-01
-5.80435937e-08,1.73690625e-01
-5.80035937e-08,1.73707813e-01
-5.79635937e-08,1.73693750e-01
-5.79235937e-08,1.73706250e-01
-5.78835937e-08,1.73695313e-01
-5.78435937e-08,1.73704688e-01
-5.78035937e-08,1.73696875e-01
-5.77635937e-08,1.73703125e-01
-5.77235937e-08,1.73696875e-01
-5.76835937e-08,1.73701563e-01
-5.76435937e-08,1.73698437e-01
-5.76035937e-08,1.73701563e-01
-5.75635937e-08,1.73698437e-01
-5.75235937e-08,1.73700000e-01
-5.74835937e-08,1.73700000e-01
-5.74435937e-08,1.73700000e-01
-5.74035937e-08,1.73700000e-01
-5.73635937e-08,1.73698437e-01
-5.73235937e-08,1.73701563e-01
-5.72835937e-08,1.73698437e-01
-5.72435937e-08,1.73703125e-01
-5.72035937e-08,1.73696875e-01
-5.71635937e-08,1.73704688e-01
-5.71235937e-08,1.73695313e-01
-5.70835937e-08,1.73706250e-01
-5.70435937e-08,1.73692188e-01
-5.70035937e-08,1.73710937e-01
-5.69635937e-08,1.73685937e-01
-5.69235937e-08,1.73718750e-01
-5.68835937e-08,1.73670313e-01
-5.68435937e-08,1.73754688e-01
-5.68035937e-08,1.73492188e-01
-5.67635937e-08,1.73245312e-01
-5.67235937e-08,1.73329687e-01
-5.66835937e-08,1.73281250e-01
-5.66435937e-08,1.73312500e-01
-5.66035937e-08,1.73292188e-01
-5.65635937e-08,1.73303125e-01
-5.65235937e-08,1.73301563e-01
-5.64835937e-08,1.73287500e-01
-5.64435937e-08,1.73337500e-01
-5.64035937e-08,1.73109375e-01
-5.63635937e-08,1.72828125e-01
-5.63235937e-08,1.72950000e-01
-5.62835937e-08,1.72859375e-01
-5.62435937e-08,1.72937500e-01
-5.62035937e-08,1.72860938e-01
-5.61635937e-08,1.72940625e-01
-5.61235937e-08,1.72850000e-01
-5.60835937e-08,1.72973437e-01
-5.60435937e-08,1.72673437e-01
-5.60035937e-08,1.72464063e-01
-5.59635937e-08,1.72510938e-01
-5.59235937e-08,1.72498438e-01
-5.58835937e-08,1.72495312e-01
-5.58435937e-08,1.72509375e-01
-5.58035937e-08,1.72485938e-01
-5.57635937e-08,1.72520312e-01
-5.57235937e-08,1.72468750e-01
-5.56835937e-08,1.72556250e-01
-5.56435937e-08,1.72289063e-01
-5.56035937e-08,1.72048438e-01
-5.55635937e-08,1.72126562e-01
-5.55235937e-08,1.72082813e-01
-5.54835937e-08,1.72110938e-01
-5.54435937e-08,1.72092187e-01
-5.54035937e-08,1.72104688e-01
-5.53635937e-08,1.72098438e-01
-5.53235937e-08,1.72098438e-01
-5.52835937e-08,1.72104688e-01
-5.52435937e-08,1.72092187e-01
-5.52035937e-08,1.72114062e-01
-5.51635937e-08,1.72076563e-01
-5.51235937e-08,1.72150000e-01
-5.50835937e-08,1.71896875e-01
-5.50435937e-08,1.71640625e-01
-5.50035937e-08,1.71734375e-01
-5.49635937e-08,1.71675000e-01
-5.49235937e-08,1.71718750e-01
-5.48835937e-08,1.71684375e-01
-5.48435937e-08,1.71712500e-01
-5.48035937e-08,1.71689063e-01
-5.47635937e-08,1.71709375e-01
-5.47235937e-08,1.71693750e-01
-5.46835937e-08,1.71704688e-01
-5.46435937e-08,1.71700000e-01
-5.46035937e-08,1.71695313e-01
-5.45635937e-08,1.71714063e-01
-5.45235937e-08,1.71660937e-01
-5.44835937e-08,1.71892188e-01
-5.44435937e-08,1.72170313e-01
-5.44035937e-08,1.72053125e-01
-5.43635937e-08,1.72139062e-01
-5.43235937e-08,1.72065625e-01
-5.42835937e-08,1.72132813e-01
-5.42435937e-08,1.72068750e-01
-5.42035937e-08,1.72131250e-01
-5.41635937e-08,1.72067187e-01
-5.41235937e-08,1.72135938e-01
-5.40835937e-08,1.72059375e-01
-5.40435937e-08,1.72150000e-01
-5.40035937e-08,1.72025000e-01
-5.39635937e-08,1.72328125e-01
-5.39235937e-08,1.72534375e-01
-5.38835937e-08,1.72490625e-01
-5.38435937e-08,1.72498438e-01
-5.38035937e-08,1.72507812e-01
-5.37635937e-08,1.72487500e-01
-5.37235937e-08,1.72518750e-01
-5.36835937e-08,1.72475000e-01
-5.36435937e-08,1.72535938e-01
-5.36035937e-08,1.72439063e-01
-5.35635937e-08,1.72715625e-01
-5.35235937e-08,1.72945313e-01
-5.34835937e-08,1.72879688e-01
-5.34435937e-08,1.72909375e-01
-5.34035937e-08,1.72896875e-01
-5.33635937e-08,1.72900000e-01
-5.33235937e-08,1.72904688e-01
-5.32835937e-08,1.72892188e-01
-5.32435937e-08,1.72912500e-01
-5.32035937e-08,1.72881250e-01
-5.31635937e-08,1.72929688e-01
-5.31235937e-08,1.72843750e-01
-5.30835937e-08,1.73109375e-01
-5.30435937e-08,1.73351563e-01
-5.30035937e-08,1.73271875e-01
-5.29635937e-08,1.73317187e-01
-5.29235938e-08,1.73289063e-01
-5.28835937e-08,1.73307813e-01
-5.28435937e-08,1.73295312e-01
-5.28035937e-08,1.73303125e-01
-5.27635937e-08,1.73300000e-01
-5.27235937e-08,1.73298438e-01
-5.26835937e-08,1.73303125e-01
-5.26435937e-08,1.73295312e-01
-5.26035937e-08,1.73307813e-01
-5.25635937e-08,1.73289063e-01
-5.25235937e-08,1.73314063e-01
-5.24835937e-08,1.73279688e-01
-5.24435937e-08,1.73331250e-01
-5.24035937e-08,1.73243750e-01
-5.23635937e-08,1.73510938e-01
-5.23235937e-08,1.73750000e-01
-5.22835937e-08,1.73675000e-01
-5.22435937e-08,1.73714063e-01
-5.22035937e-08,1.73692188e-01
-5.21635937e-08,1.73701563e-01
-5.21235937e-08,1.73703125e-01
-5.20835937e-08,1.73689063e-01
-5.20435937e-08,1.73721875e-01
-5.20035937e-08,1.73651562e-01
-5.19635937e-08,1.73903125e-01
-5.19235937e-08,1.74157813e-01
-5.18835937e-08,1.74067187e-01
-5.18435937e-08,1.74120313e-01
-5.18035937e-08,1.74087500e-01
-5.17635937e-08,1.74104687e-01
-5.17235937e-08,1.74107813e-01
-5.16835937e-08,1.74067187e-01
-5.16435937e-08,1.74287500e-01
-5.16035937e-08,1.74575000e-01
-5.15635937e-08,1.74448437e-01
-5.15235937e-08,1.74542188e-01
-5.14835937e-08,1.74460937e-01
-5.14435937e-08,1.74539063e-01
-5.14035937e-08,1.74459375e-01
-5.13635937e-08,1.74548438e-01
-5.13235937e-08,1.74428125e-01
-5.12835937e-08,1.74725000e-01
-5.12435937e-08,1.74939063e-01
-5.12035937e-08,1.74884375e-01
-5.11635937e-08,1.74906250e-01
-5.11235937e-08,1.74898438e-01
-5.10835937e-08,1.74898438e-01
-5.10435937e-08,1.74903125e-01
-5.10035938e-08,1.74895313e-01
-5.09635937e-08,1.74906250e-01
-5.09235937e-08,1.74893750e-01
-5.08835937e-08,1.74907813e-01
-5.08435937e-08,1.74889062e-01
-5.08035937e-08,1.74914062e-01
-5.07635937e-08,1.74881250e-01
-5.07235938e-08,1.74928125e-01
-5.06835937e-08,1.74848438e-01
-5.06435937e-08,1.75104687e-01
-5.06035937e-08,1.75357813e-01
-5.05635937e-08,1.75264063e-01
-5.05235937e-08,1.75326563e-01
-5.04835937e-08,1.75276563e-01
-5.04435937e-08,1.75323438e-01
-5.04035937e-08,1.75276563e-01
-5.03635937e-08,1.75328125e-01
-5.03235937e-08,1.75264063e-01
-5.02835937e-08,1.75360938e-01
-5.02435937e-08,1.75087500e-01
-5.02035937e-08,1.74850000e-01
-5.01635937e-08,1.74926562e-01
-5.01235937e-08,1.74882813e-01
-5.00835937e-08,1.74912500e-01
-5.00435937e-08,1.74890625e-01
-5.00035937e-08,1.74907813e-01
-4.99635937e-08,1.74893750e-01
-4.99235937e-08,1.74904688e-01
-4.98835937e-08,1.74895313e-01
-4.98435937e-08,1.74904688e-01
-4.98035937e-08,1.74896875e-01
-4.97635937e-08,1.74903125e-01
-4.97235937e-08,1.74898438e-01
-4.96835937e-08,1.74901562e-01
-4.96435937e-08,1.74898438e-01
-4.96035937e-08,1.74901562e-01
-4.95635937e-08,1.74900000e-01
-4.95235937e-08,1.74900000e-01
-4.94835937e-08,1.74900000e-01
-4.94435937e-08,1.74898438e-01
-4.94035937e-08,1.74901562e-01
-4.93635937e-08,1.74896875e-01
-4.93235937e-08,1.74904688e-01
-4.92835937e-08,1.74893750e-01
-4.92435937e-08,1.74907813e-01
-4.92035937e-08,1.74889062e-01
-4.91635937e-08,1.74915625e-01
-4.91235937e-08,1.74875000e-01
-4.90835938e-08,1.74950000e-01
-4.90435937e-08,1.74696875e-01
-4.90035937e-08,1.74440625e-01
-4.89635937e-08,1.74535938e-01
-4.89235937e-08,1.74473437e-01
-4.88835937e-08,1.74521875e-01
-4.88435937e-08,1.74481250e-01
-4.88035938e-08,1.74517188e-01
-4.87635937e-08,1.74484375e-01
-4.87235937e-08,1.74514063e-01
-4.86835937e-08,1.74485937e-01
-4.86435937e-08,1.74514063e-01
-4.86035937e-08,1.74485937e-01
-4.85635937e-08,1.74514063e-01
-4.85235938e-08,1.74485937e-01
-4.84835937e-08,1.74514063e-01
-4.84435937e-08,1.74484375e-01
-4.84035937e-08,1.74517188e-01
-4.83635937e-08,1.74479688e-01
-4.83235937e-08,1.74525000e-01
-4.82835937e-08,1.74465625e-01
-4.82435937e-08,1.74559375e-01
-4.82035937e-08,1.74287500e-01
-4.81635937e-08,1.74050000e-01
-4.81235937e-08,1.74126562e-01
-4.80835937e-08,1.74082813e-01
-4.80435937e-08,1.74112500e-01
-4.80035937e-08,1.74090625e-01
-4.79635937e-08,1.74107813e-01
-4.79235937e-08,1.74093750e-01
-4.78835937e-08,1.74104687e-01
-4.78435937e-08,1.74095313e-01
-4.78035937e-08,1.74103125e-01
-4.77635937e-08,1.74096875e-01
-4.77235937e-08,1.74103125e-01
-4.76835937e-08,1.74096875e-01
-4.76435937e-08,1.74103125e-01
-4.76035937e-08,1.74098438e-01
-4.75635937e-08,1.74101563e-01
-4.75235937e-08,1.74098438e-01
-4.74835937e-08,1.74101563e-01
-4.74435937e-08,1.74098438e-01
-4.74035937e-08,1.74101563e-01
-4.73635937e-08,1.74098438e-01
-4.73235937e-08,1.74101563e-01
-4.72835937e-08,1.74098438e-01
-4.72435937e-08,1.74101563e-01
-4.72035937e-08,1.74098438e-01
-4.71635938e-08,1.74101563e-01
-4.71235937e-08,1.74098438e-01
-4.70835937e-08,1.74101563e-01
-4.70435937e-08,1.74098438e-01
-4.70035937e-08,1.74101563e-01
-4.69635937e-08,1.74098438e-01
-4.69235937e-08,1.74101563e-01
-4.68835938e-08,1.74096875e-01
-4.68435937e-08,1.74103125e-01
-4.68035937e-08,1.74096875e-01
-4.67635937e-08,1.74103125e-01
-4.67235937e-08,1.74096875e-01
-4.66835937e-08,1.74103125e-01
-4.66435937e-08,1.74095313e-01
-4.66035938e-08,1.74104687e-01
-4.65635937e-08,1.74093750e-01
-4.65235937e-08,1.74106250e-01
-4.64835937e-08,1.74092187e-01
-4.64435937e-08,1.74109375e-01
-4.64035937e-08,1.74089063e-01
-4.63635937e-08,1.74114062e-01
-4.63235938e-08,1.74081250e-01
-4.62835937e-08,1.74128125e-01
-4.62435937e-08,1.74046875e-01
-4.62035937e-08,1.74306250e-01
-4.61635937e-08,1.74556250e-01
-4.61235937e-08,1.74467188e-01
-4.60835937e-08,1.74523438e-01
-4.60435937e-08,1.74481250e-01
-4.60035937e-08,1.74515625e-01
-4.59635937e-08,1.74485937e-01
-4.59235937e-08,1.74512500e-01
-4.58835937e-08,1.74489063e-01
-4.58435937e-08,1.74510938e-01
-4.58035937e-08,1.74490625e-01
-4.57635937e-08,1.74509375e-01
-4.57235937e-08,1.74490625e-01
-4.56835937e-08,1.74509375e-01
-4.56435937e-08,1.74490625e-01
-4.56035937e-08,1.74509375e-01
-4.55635937e-08,1.74490625e-01
-4.55235937e-08,1.74510938e-01
-4.54835937e-08,1.74489063e-01
-4.54435937e-08,1.74512500e-01
-4.54035937e-08,1.74487500e-01
-4.53635937e-08,1.74515625e-01
-4.53235937e-08,1.74482813e-01
-4.52835937e-08,1.74523438e-01
-4.52435938e-08,1.74467188e-01
-4.52035937e-08,1.74557813e-01
-4.51635937e-08,1.74290625e-01
-4.51235937e-08,1.74048438e-01
-4.50835937e-08,1.74128125e-01
-4.50435937e-08,1.74081250e-01
-4.50035937e-08,1.74114062e-01
-4.49635938e-08,1.74089063e-01
-4.49235937e-08,1.74109375e-01
-4.48835937e-08,1.74092187e-01
-4.48435937e-08,1.74106250e-01
-4.48035937e-08,1.74093750e-01
-4.47635937e-08,1.74106250e-01
-4.47235937e-08,1.74095313e-01
-4.46835938e-08,1.74104687e-01
-4.46435937e-08,1.74095313e-01
-4.46035937e-08,1.74104687e-01
-4.45635937e-08,1.74096875e-01
-4.45235937e-08,1.74103125e-01
-4.44835937e-08,1.74096875e-01
-4.44435937e-08,1.74103125e-01
-4.44035938e-08,1.74096875e-01
-4.43635937e-08,1.74103125e-01
-4.43235937e-08,1.74096875e-01
-4.42835937e-08,1.74103125e-01
-4.42435937e-08,1.74096875e-01
-4.42035937e-08,1.74103125e-01
-4.41635937e-08,1.74096875e-01
-4.41235938e-08,1.74103125e-01
-4.40835937e-08,1.74096875e-01
-4.40435937e-08,1.74103125e-01
-4.40035937e-08,1.74096875e-01
-4.39635937e-08,1.74103125e-01
-4.39235937e-08,1.74096875e-01
-4.38835937e-08,1.74103125e-01
-4.38435937e-08,1.74096875e-01
-4.38035937e-08,1.74103125e-01
-4.37635937e-08,1.74096875e-01
-4.37235937e-08,1.74103125e-01
-4.36835937e-08,1.74096875e-01
-4.36435937e-08,1.74103125e-01
-4.36035937e-08,1.74096875e-01
-4.35635937e-08,1.74103125e-01
-4.35235937e-08,1.74096875e-01
-4.34835937e-08,1.74103125e-01
-4.34435937e-08,1.74096875e-01
-4.34035937e-08,1.74103125e-01
-4.33635937e-08,1.74095313e-01
-4.33235938e-08,1.74104687e-01
-4.32835937e-08,1.74095313e-01
-4.32435937e-08,1.74104687e-01
-4.32035937e-08,1.74095313e-01
-4.31635937e-08,1.74104687e-01
-4.31235937e-08,1.74095313e-01
-4.30835937e-08,1.74104687e-01
-4.30435938e-08,1.74093750e-01
-4.30035937e-08,1.74106250e-01
-4.29635937e-08,1.74093750e-01
-4.29235937e-08,1.74106250e-01
-4.28835937e-08,1.74092187e-01
-4.28435937e-08,1.74107813e-01
-4.28035937e-08,1.74090625e-01
-4.27635938e-08,1.74109375e-01
-4.27235937e-08,1.74089063e-01
-4.26835937e-08,1.74112500e-01
-4.26435937e-08,1.74084375e-01
-4.26035937e-08,1.74118750e-01
-4.25635937e-08,1.74076563e-01
-4.25235937e-08,1.74132813e-01
-4.24835938e-08,1.74042188e-01
-4.24435937e-08,1.74312500e-01
-4.24035937e-08,1.74550000e-01
-4.23635937e-08,1.74475000e-01
-4.23235937e-08,1.74515625e-01
-4.22835937e-08,1.74490625e-01
-4.22435937e-08,1.74506250e-01
-4.22035938e-08,1.74496875e-01
-4.21635937e-08,1.74498438e-01
-4.21235937e-08,1.74504688e-01
-4.20835937e-08,1.74489063e-01
-4.20435937e-08,1.74520312e-01
-4.20035937e-08,1.74454688e-01
-4.19635937e-08,1.74698437e-01
-4.19235938e-08,1.74962500e-01
-4.18835937e-08,1.74860938e-01
-4.18435937e-08,1.74929688e-01
-4.18035937e-08,1.74873438e-01
-4.17635937e-08,1.74923438e-01
-4.17235937e-08,1.74878125e-01
-4.16835937e-08,1.74921875e-01
-4.16435937e-08,1.74876562e-01
-4.16035937e-08,1.74925000e-01
-4.15635937e-08,1.74870313e-01
-4.15235937e-08,1.74937500e-01
-4.14835937e-08,1.74837500e-01
-4.14435937e-08,1.75115625e-01
-4.14035938e-08,1.75346875e-01
-4.13635937e-08,1.75276563e-01
-4.13235937e-08,1.75315625e-01
-4.12835937e-08,1.75289063e-01
-4.12435937e-08,1.75307812e-01
-4.12035937e-08,1.75293750e-01
-4.11635937e-08,1.75304688e-01
-4.11235938e-08,1.75296875e-01
-4.10835937e-08,1.75303125e-01
-4.10435937e-08,1.75296875e-01
-4.10035937e-08,1.75301563e-01
-4.09635937e-08,1.75298438e-01
-4.09235937e-08,1.75301563e-01
-4.08835937e-08,1.75298438e-01
-4.08435938e-08,1.75301563e-01
-4.08035937e-08,1.75298438e-01
-4.07635937e-08,1.75301563e-01
-4.07235937e-08,1.75298438e-01
-4.06835937e-08,1.75301563e-01
-4.06435937e-08,1.75300000e-01
-4.06035937e-08,1.75300000e-01
-4.05635938e-08,1.75300000e-01
-4.05235937e-08,1.75300000e-01
-4.04835937e-08,1.75300000e-01
-4.04435937e-08,1.75300000e-01
-4.04035937e-08,1.75300000e-01
-4.03635937e-08,1.75300000e-01
-4.03235937e-08,1.75300000e-01
-4.02835938e-08,1.75300000e-01
-4.02435937e-08,1.75300000e-01
-4.02035937e-08,1.75300000e-01
-4.01635937e-08,1.75300000e-01
-4.01235937e-08,1.75300000e-01
-4.00835937e-08,1.75300000e-01
-4.00435937e-08,1.75300000e-01
-4.00035938e-08,1.75300000e-01
-3.99635937e-08,1.75300000e-01
-3.99235937e-08,1.75300000e-01
-3.98835937e-08,1.75300000e-01
-3.98435937e-08,1.75300000e-01
-3.98035937e-08,1.75300000e-01
-3.97635937e-08,1.75300000e-01
-3.97235937e-08,1.75300000e-01
-3.96835937e-08,1.75300000e-01
-3.96435937e-08,1.75300000e-01
-3.96035937e-08,1.75300000e-01
-3.95635937e-08,1.75300000e-01
-3.95235937e-08,1.75300000e-01
-3.94835938e-08,1.75300000e-01
-3.94435937e-08,1.75300000e-01
-3.94035937e-08,1.75300000e-01
-3.93635937e-08,1.75300000e-01
-3.93235937e-08,1.75300000e-01
-3.92835937e-08,1.75300000e-01
-3.92435937e-08,1.75300000e-01
-3.92035938e-08,1.75300000e-01
-3.91635937e-08,1.75300000e-01
-3.91235937e-08,1.75301563e-01
-3.90835937e-08,1.75298438e-01
-3.90435937e-08,1.75301563e-01
-3.90035937e-08,1.75298438e-01
-3.89635937e-08,1.75301563e-01
-3.89235938e-08,1.75296875e-01
-3.88835937e-08,1.75303125e-01
-3.88435937e-08,1.75296875e-01
-3.88035937e-08,1.75304688e-01
-3.87635937e-08,1.75295312e-01
-3.87235937e-08,1.75306250e-01
-3.86835937e-08,1.75290625e-01
-3.86435938e-08,1.75310938e-01
-3.86035937e-08,1.75282812e-01
-3.85635937e-08,1.75326563e-01
-3.85235937e-08,1.75248437e-01
