0a4d6f8107274375cf0a549995fe79f0/aes_ch1_20250506175836974.csv

Model,MSO66B
Label,
Waveform Type,ANALOG
Horizontal Units,s
Sample Interval,4.00000000e-11
Record Length,10000
Zero Index,1599.08593750
Vertical Units,A
ANALOG_Thumbnail,
yOffset,1.84500000e-01
yPosition,8.40000000e-01

Labels,
TIME,CH1
-6.39634375e-08,1.80090625e-01
-6.39234375e-08,1.80112500e-01
-6.38834375e-08,1.80081250e-01
-6.38434375e-08,1.80128125e-01
-6.38034375e-08,1.80046875e-01
-6.37634375e-08,1.80307812e-01
-6.37234375e-08,1.80554688e-01
-6.36834375e-08,1.80468750e-01
-6.36434375e-08,1.80520313e-01
-6.36034375e-08,1.80484375e-01
-6.35634375e-08,1.80512500e-01
-6.35234375e-08,1.80490625e-01
-6.34834375e-08,1.80507813e-01
-6.34434375e-08,1.80493750e-01
-6.34034375e-08,1.80504688e-01
-6.33634375e-08,1.80496875e-01
-6.33234375e-08,1.80501563e-01
-6.32834375e-08,1.80500000e-01
-6.32434375e-08,1.80498437e-01
-6.32034375e-08,1.80503125e-01
-6.31634375e-08,1.80495313e-01
-6.31234375e-08,1.80506250e-01
-6.30834375e-08,1.80489063e-01
-6.30434375e-08,1.80515625e-01
-6.30034375e-08,1.80475000e-01
-6.29634375e-08,1.80551563e-01
-6.29234375e-08,1.80295312e-01
-6.28834375e-08,1.80042188e-01
-6.28434375e-08,1.80132813e-01
-6.28034375e-08,1.80076563e-01
-6.27634375e-08,1.80118750e-01
-6.27234375e-08,1.80084375e-01
-6.26834375e-08,1.80112500e-01
-6.26434375e-08,1.80089063e-01
-6.26034375e-08,1.80109375e-01
-6.25634375e-08,1.80090625e-01
-6.25234375e-08,1.80107813e-01
-6.24834375e-08,1.80092188e-01
-6.24434375e-08,1.80106250e-01
-6.24034375e-08,1.80093750e-01
-6.23634375e-08,1.80104687e-01
-6.23234375e-08,1.80095312e-01
-6.22834375e-08,1.80103125e-01
-6.22434375e-08,1.80096875e-01
-6.22034375e-08,1.80101563e-01
-6.21634375e-08,1.80098438e-01
-6.21234375e-08,1.80101563e-01
-6.20834375e-08,1.80100000e-01
-6.20434375e-08,1.80098438e-01
-6.20034375e-08,1.80103125e-01
-6.19634375e-08,1.80095312e-01
-6.19234375e-08,1.80106250e-01
-6.18834375e-08,1.80090625e-01
-6.18434375e-08,1.80115625e-01
-6.18034375e-08,1.80075000e-01
-6.17634375e-08,1.80150000e-01
-6.17234375e-08,1.79896875e-01
-6.16834375e-08,1.79640625e-01
-6.16434375e-08,1.79735937e-01
-6.16034375e-08,1.79675000e-01
-6.15634375e-08,1.79720313e-01
-6.15234375e-08,1.79682813e-01
-6.14834375e-08,1.79715625e-01
-6.14434375e-08,1.79685938e-01
-6.14034375e-08,1.79712500e-01
-6.13634375e-08,1.79689062e-01
-6.13234375e-08,1.79710938e-01
-6.12834375e-08,1.79689062e-01
-6.12434375e-08,1.79709375e-01
-6.12034375e-08,1.79690625e-01
-6.11634375e-08,1.79709375e-01
-6.11234375e-08,1.79692188e-01
-6.10834375e-08,1.79707813e-01
-6.10434375e-08,1.79692188e-01
-6.10034375e-08,1.79707813e-01
-6.09634375e-08,1.79692188e-01
-6.09234375e-08,1.79707813e-01
-6.08834375e-08,1.79693750e-01
-6.08434375e-08,1.79706250e-01
-6.08034375e-08,1.79693750e-01
-6.07634375e-08,1.79706250e-01
-6.07234375e-08,1.79693750e-01
-6.06834375e-08,1.79706250e-01
-6.06434375e-08,1.79693750e-01
-6.06034375e-08,1.79706250e-01
-6.05634375e-08,1.79693750e-01
-6.05234375e-08,1.79706250e-01
-6.04834375e-08,1.79693750e-01
-6.04434375e-08,1.79706250e-01
-6.04034375e-08,1.79695313e-01
-6.03634375e-08,1.79704688e-01
-6.03234375e-08,1.79695313e-01
-6.02834375e-08,1.79704688e-01
-6.02434375e-08,1.79695313e-01
-6.02034375e-08,1.79704688e-01
-6.01634375e-08,1.79695313e-01
-6.01234375e-08,1.79704688e-01
-6.00834375e-08,1.79695313e-01
-6.00434375e-08,1.79704688e-01
-6.00034375e-08,1.79695313e-01
-5.99634375e-08,1.79704688e-01
-5.99234375e-08,1.79695313e-01
-5.98834375e-08,1.79704688e-01
-5.98434375e-08,1.79695313e-01
-5.98034375e-08,1.79704688e-01
-5.97634375e-08,1.79695313e-01
-5.97234375e-08,1.79704688e-01
-5.96834375e-08,1.79695313e-01
-5.96434375e-08,1.79704688e-01
-5.96034375e-08,1.79695313e-01
-5.95634375e-08,1.79704688e-01
-5.95234375e-08,1.79695313e-01
-5.94834375e-08,1.79704688e-01
-5.94434375e-08,1.79695313e-01
-5.94034375e-08,1.79704688e-01
-5.93634375e-08,1.79693750e-01
-5.93234375e-08,1.79706250e-01
-5.92834375e-08,1.79693750e-01
-5.92434375e-08,1.79706250e-01
-5.92034375e-08,1.79692188e-01
-5.91634375e-08,1.79707813e-01
-5.91234375e-08,1.79690625e-01
-5.90834375e-08,1.79710938e-01
-5.90434375e-08,1.79685938e-01
-5.90034375e-08,1.79718750e-01
-5.89634375e-08,1.79671875e-01
-5.89234375e-08,1.79751563e-01
-5.88834375e-08,1.79495313e-01
-5.88434375e-08,1.79242188e-01
-5.88034375e-08,1.79335938e-01
-5.87634375e-08,1.79273437e-01
-5.87234375e-08,1.79323438e-01
-5.86834375e-08,1.79278125e-01
-5.86434375e-08,1.79321875e-01
-5.86034375e-08,1.79276563e-01
-5.85634375e-08,1.79328125e-01
-5.85234375e-08,1.79262500e-01
-5.84834375e-08,1.79362500e-01
-5.84434375e-08,1.79085938e-01
-5.84034375e-08,1.78853125e-01
-5.83634375e-08,1.78923438e-01
-5.83234375e-08,1.78885938e-01
-5.82834375e-08,1.78907813e-01
-5.82434375e-08,1.78895313e-01
-5.82034375e-08,1.78901562e-01
-5.81634375e-08,1.78901562e-01
-5.81234375e-08,1.78893750e-01
-5.80834375e-08,1.78912500e-01
-5.80434375e-08,1.78878125e-01
-5.80034375e-08,1.78946875e-01
-5.79634375e-08,1.78700000e-01
-5.79234375e-08,1.78439062e-01
-5.78834375e-08,1.78537500e-01
-5.78434375e-08,1.78471875e-01
-5.78034375e-08,1.78521875e-01
-5.77634375e-08,1.78479688e-01
-5.77234375e-08,1.78517188e-01
-5.76834375e-08,1.78484375e-01
-5.76434375e-08,1.78514063e-01
-5.76034375e-08,1.78485937e-01
-5.75634375e-08,1.78512500e-01
-5.75234375e-08,1.78487500e-01
-5.74834375e-08,1.78512500e-01
-5.74434375e-08,1.78487500e-01
-5.74034375e-08,1.78512500e-01
-5.73634375e-08,1.78489063e-01
-5.73234375e-08,1.78510937e-01
-5.72834375e-08,1.78489063e-01
-5.72434375e-08,1.78510937e-01
-5.72034375e-08,1.78489063e-01
-5.71634375e-08,1.78510937e-01
-5.71234375e-08,1.78489063e-01
-5.70834375e-08,1.78510937e-01
-5.70434375e-08,1.78489063e-01
-5.70034375e-08,1.78512500e-01
-5.69634375e-08,1.78487500e-01
-5.69234375e-08,1.78512500e-01
-5.68834375e-08,1.78487500e-01
-5.68434375e-08,1.78514063e-01
-5.68034375e-08,1.78485937e-01
-5.67634375e-08,1.78515625e-01
-5.67234375e-08,1.78484375e-01
-5.66834375e-08,1.78517188e-01
-5.66434375e-08,1.78479688e-01
-5.66034375e-08,1.78523437e-01
-5.65634375e-08,1.78471875e-01
-5.65234375e-08,1.78537500e-01
-5.64834375e-08,1.78437500e-01
-5.64434375e-08,1.78715625e-01
-5.64034375e-08,1.78945313e-01
-5.63634375e-08,1.78878125e-01
-5.63234375e-08,1.78912500e-01
-5.62834375e-08,1.78893750e-01
-5.62434375e-08,1.78903125e-01
-5.62034375e-08,1.78898438e-01
-5.61634375e-08,1.78898438e-01
-5.61234375e-08,1.78903125e-01
-5.60834375e-08,1.78895313e-01
-5.60434375e-08,1.78906250e-01
-5.60034375e-08,1.78892187e-01
-5.59634375e-08,1.78909375e-01
-5.59234375e-08,1.78887500e-01
-5.58834375e-08,1.78915625e-01
-5.58434375e-08,1.78878125e-01
-5.58034375e-08,1.78931250e-01
-5.57634375e-08,1.78843750e-01
-5.57234375e-08,1.79110938e-01
-5.56834375e-08,1.79351563e-01
-5.56434375e-08,1.79271875e-01
-5.56034375e-08,1.79317188e-01
-5.55634375e-08,1.79287500e-01
-5.55234375e-08,1.79307812e-01
-5.54834375e-08,1.79293750e-01
-5.54434375e-08,1.79303125e-01
-5.54034375e-08,1.79298438e-01
-5.53634375e-08,1.79300000e-01
-5.53234375e-08,1.79303125e-01
-5.52834375e-08,1.79295312e-01
-5.52434375e-08,1.79309375e-01
-5.52034375e-08,1.79285938e-01
-5.51634375e-08,1.79325000e-01
-5.51234375e-08,1.79250000e-01
-5.50834375e-08,1.79503125e-01
-5.50434375e-08,1.79759375e-01
-5.50034375e-08,1.79665625e-01
-5.49634375e-08,1.79725000e-01
-5.49234375e-08,1.79679688e-01
-5.48834375e-08,1.79717188e-01
-5.48434375e-08,1.79684375e-01
-5.48034375e-08,1.79714062e-01
-5.47634375e-08,1.79687500e-01
-5.47234375e-08,1.79710938e-01
-5.46834375e-08,1.79689062e-01
-5.46434375e-08,1.79709375e-01
-5.46034375e-08,1.79690625e-01
-5.45634375e-08,1.79709375e-01
-5.45234375e-08,1.79690625e-01
-5.44834375e-08,1.79707813e-01
-5.44434375e-08,1.79692188e-01
-5.44034375e-08,1.79707813e-01
-5.43634375e-08,1.79692188e-01
-5.43234375e-08,1.79707813e-01
-5.42834375e-08,1.79692188e-01
-5.42434375e-08,1.79707813e-01
-5.42034375e-08,1.79692188e-01
-5.41634375e-08,1.79707813e-01
-5.41234375e-08,1.79692188e-01
-5.40834375e-08,1.79707813e-01
-5.40434375e-08,1.79692188e-01
-5.40034375e-08,1.79707813e-01
-5.39634375e-08,1.79692188e-01
-5.39234375e-08,1.79707813e-01
-5.38834375e-08,1.79692188e-01
-5.38434375e-08,1.79707813e-01
-5.38034375e-08,1.79692188e-01
-5.37634375e-08,1.79707813e-01
-5.37234375e-08,1.79692188e-01
-5.36834375e-08,1.79707813e-01
-5.36434375e-08,1.79692188e-01
-5.36034375e-08,1.79709375e-01
-5.35634375e-08,1.79690625e-01
-5.35234375e-08,1.79709375e-01
-5.34834375e-08,1.79690625e-01
-5.34434375e-08,1.79710938e-01
-5.34034375e-08,1.79689062e-01
-5.33634375e-08,1.79712500e-01
-5.33234375e-08,1.79687500e-01
-5.32834375e-08,1.79714062e-01
-5.32434375e-08,1.79684375e-01
-5.32034375e-08,1.79717188e-01
-5.31634375e-08,1.79678125e-01
-5.31234375e-08,1.79726563e-01
-5.30834375e-08,1.79664062e-01
-5.30434375e-08,1.79760937e-01
-5.30034375e-08,1.79484375e-01
-5.29634375e-08,1.79253125e-01
-5.29234375e-08,1.79321875e-01
-5.28834375e-08,1.79287500e-01
-5.28434375e-08,1.79306250e-01
-5.28034375e-08,1.79296875e-01
-5.27634375e-08,1.79300000e-01
-5.27234375e-08,1.79303125e-01
-5.26834375e-08,1.79295312e-01
-5.26434375e-08,1.79307812e-01
-5.26034375e-08,1.79287500e-01
-5.25634375e-08,1.79318750e-01
-5.25234375e-08,1.79271875e-01
-5.24834375e-08,1.79353125e-01
-5.24434375e-08,1.79092187e-01
-5.24034375e-08,1.78845313e-01
-5.23634375e-08,1.78929688e-01
-5.23234375e-08,1.78881250e-01
-5.22834375e-08,1.78914062e-01
-5.22434375e-08,1.78890625e-01
-5.22034375e-08,1.78906250e-01
-5.21634375e-08,1.78895313e-01
-5.21234375e-08,1.78901562e-01
-5.20834375e-08,1.78901562e-01
-5.20434375e-08,1.78893750e-01
-5.20034375e-08,1.78910938e-01
-5.19634375e-08,1.78878125e-01
-5.19234375e-08,1.78946875e-01
-5.18834375e-08,1.78700000e-01
-5.18434375e-08,1.78437500e-01
-5.18034375e-08,1.78537500e-01
-5.17634375e-08,1.78471875e-01
-5.17234375e-08,1.78523437e-01
-5.16834375e-08,1.78479688e-01
-5.16434375e-08,1.78517188e-01
-5.16034375e-08,1.78484375e-01
-5.15634375e-08,1.78514063e-01
-5.15234375e-08,1.78485937e-01
-5.14834375e-08,1.78512500e-01
-5.14434375e-08,1.78487500e-01
-5.14034375e-08,1.78510937e-01
-5.13634375e-08,1.78489063e-01
-5.13234375e-08,1.78510937e-01
-5.12834375e-08,1.78489063e-01
-5.12434375e-08,1.78509375e-01
-5.12034375e-08,1.78490625e-01
-5.11634375e-08,1.78509375e-01
-5.11234375e-08,1.78490625e-01
-5.10834375e-08,1.78509375e-01
-5.10434375e-08,1.78490625e-01
-5.10034375e-08,1.78509375e-01
-5.09634375e-08,1.78490625e-01
-5.09234375e-08,1.78509375e-01
-5.08834375e-08,1.78492188e-01
-5.08434375e-08,1.78507813e-01
-5.08034375e-08,1.78492188e-01
-5.07634375e-08,1.78507813e-01
-5.07234375e-08,1.78492188e-01
-5.06834375e-08,1.78507813e-01
-5.06434375e-08,1.78492188e-01
-5.06034375e-08,1.78507813e-01
-5.05634375e-08,1.78492188e-01
-5.05234375e-08,1.78507813e-01
-5.04834375e-08,1.78490625e-01
-5.04434375e-08,1.78509375e-01
-5.04034375e-08,1.78490625e-01
-5.03634375e-08,1.78509375e-01
-5.03234375e-08,1.78490625e-01
-5.02834375e-08,1.78509375e-01
-5.02434375e-08,1.78490625e-01
-5.02034375e-08,1.78509375e-01
-5.01634375e-08,1.78489063e-01
-5.01234375e-08,1.78510937e-01
-5.00834375e-08,1.78489063e-01
-5.00434375e-08,1.78512500e-01
-5.00034375e-08,1.78487500e-01
-4.99634375e-08,1.78514063e-01
-4.99234375e-08,1.78485937e-01
-4.98834375e-08,1.78515625e-01
-4.98434375e-08,1.78481250e-01
-4.98034375e-08,1.78521875e-01
-4.97634375e-08,1.78473437e-01
-4.97234375e-08,1.78535938e-01
-4.96834375e-08,1.78439062e-01
-4.96434375e-08,1.78714062e-01
-4.96034375e-08,1.78946875e-01
-4.95634375e-08,1.78876563e-01
-4.95234375e-08,1.78914062e-01
-4.94834375e-08,1.78890625e-01
-4.94434375e-08,1.78906250e-01
-4.94034375e-08,1.78896875e-01
-4.93634375e-08,1.78901562e-01
-4.93234375e-08,1.78900000e-01
-4.92834375e-08,1.78898438e-01
-4.92434375e-08,1.78903125e-01
-4.92034375e-08,1.78895313e-01
-4.91634375e-08,1.78904688e-01
-4.91234375e-08,1.78893750e-01
-4.90834375e-08,1.78909375e-01
-4.90434375e-08,1.78889063e-01
-4.90034375e-08,1.78914062e-01
-4.89634375e-08,1.78879687e-01
-4.89234375e-08,1.78929688e-01
-4.88834375e-08,1.78845313e-01
-4.88434375e-08,1.79107813e-01
-4.88034375e-08,1.79354687e-01
-4.87634375e-08,1.79270313e-01
-4.87234375e-08,1.79320312e-01
-4.86834375e-08,1.79284375e-01
-4.86434375e-08,1.79312500e-01
-4.86034375e-08,1.79289063e-01
-4.85634375e-08,1.79309375e-01
-4.85234375e-08,1.79292188e-01
-4.84834375e-08,1.79306250e-01
-4.84434375e-08,1.79293750e-01
-4.84034375e-08,1.79304688e-01
-4.83634375e-08,1.79295312e-01
-4.83234375e-08,1.79304688e-01
-4.82834375e-08,1.79296875e-01
-4.82434375e-08,1.79303125e-01
-4.82034375e-08,1.79296875e-01
-4.81634375e-08,1.79303125e-01
-4.81234375e-08,1.79296875e-01
-4.80834375e-08,1.79301563e-01
-4.80434375e-08,1.79298438e-01
-4.80034375e-08,1.79301563e-01
-4.79634375e-08,1.79298438e-01
-4.79234375e-08,1.79301563e-01
-4.78834375e-08,1.79298438e-01
-4.78434375e-08,1.79301563e-01
-4.78034375e-08,1.79298438e-01
-4.77634375e-08,1.79301563e-01
-4.77234375e-08,1.79300000e-01
-4.76834375e-08,1.79300000e-01
-4.76434375e-08,1.79300000e-01
-4.76034375e-08,1.79300000e-01
-4.75634375e-08,1.79300000e-01
-4.75234375e-08,1.79300000e-01
-4.74834375e-08,1.79300000e-01
-4.74434375e-08,1.79300000e-01
-4.74034375e-08,1.79300000e-01
-4.73634375e-08,1.79300000e-01
-4.73234375e-08,1.79300000e-01
-4.72834375e-08,1.79300000e-01
-4.72434375e-08,1.79301563e-01
-4.72034375e-08,1.79298438e-01
-4.71634375e-08,1.79301563e-01
-4.71234375e-08,1.79298438e-01
-4.70834375e-08,1.79301563e-01
-4.70434375e-08,1.79298438e-01
-4.70034375e-08,1.79301563e-01
-4.69634375e-08,1.79298438e-01
-4.69234375e-08,1.79303125e-01
-4.68834375e-08,1.79296875e-01
-4.68434375e-08,1.79303125e-01
-4.68034375e-08,1.79296875e-01
-4.67634375e-08,1.79303125e-01
-4.67234375e-08,1.79295312e-01
-4.66834375e-08,1.79304688e-01
-4.66434375e-08,1.79295312e-01
-4.66034375e-08,1.79306250e-01
-4.65634375e-08,1.79293750e-01
-4.65234375e-08,1.79307812e-01
-4.64834375e-08,1.79290625e-01
-4.64434375e-08,1.79310938e-01
-4.64034375e-08,1.79287500e-01
-4.63634375e-08,1.79315625e-01
-4.63234375e-08,1.79279688e-01
-4.62834375e-08,1.79331250e-01
-4.62434375e-08,1.79243750e-01
-4.62034375e-08,1.79509375e-01
-4.61634375e-08,1.79753125e-01
-4.61234375e-08,1.79670313e-01
-4.60834375e-08,1.79718750e-01
-4.60434375e-08,1.79685938e-01
-4.60034375e-08,1.79709375e-01
-4.59634375e-08,1.79692188e-01
-4.59234375e-08,1.79704688e-01
-4.58834375e-08,1.79696875e-01
-4.58434375e-08,1.79700000e-01
-4.58034375e-08,1.79703125e-01
-4.57634375e-08,1.79690625e-01
-4.57234375e-08,1.79718750e-01
-4.56834375e-08,1.79656250e-01
-4.56434375e-08,1.79896875e-01
-4.56034375e-08,1.80165625e-01
-4.55634375e-08,1.80057812e-01
-4.55234375e-08,1.80132813e-01
-4.54834375e-08,1.80071875e-01
-4.54434375e-08,1.80126563e-01
-4.54034375e-08,1.80075000e-01
-4.53634375e-08,1.80125000e-01
-4.53234375e-08,1.80073438e-01
-4.52834375e-08,1.80128125e-01
-4.52434375e-08,1.80067188e-01
-4.52034375e-08,1.80142187e-01
-4.51634375e-08,1.80032813e-01
-4.51234375e-08,1.80320312e-01
-4.50834375e-08,1.80542188e-01
-4.50434375e-08,1.80481250e-01
-4.50034375e-08,1.80509375e-01
-4.49634375e-08,1.80496875e-01
-4.49234375e-08,1.80500000e-01
-4.48834375e-08,1.80503125e-01
-4.48434375e-08,1.80492188e-01
-4.48034375e-08,1.80510937e-01
-4.47634375e-08,1.80482813e-01
-4.47234375e-08,1.80526563e-01
-4.46834375e-08,1.80448438e-01
-4.46434375e-08,1.80704688e-01
-4.46034375e-08,1.80957813e-01
-4.45634375e-08,1.80867187e-01
-4.45234375e-08,1.80923438e-01
-4.44834375e-08,1.80881250e-01
-4.44434375e-08,1.80915625e-01
-4.44034375e-08,1.80885938e-01
-4.43634375e-08,1.80912500e-01
-4.43234375e-08,1.80887500e-01
-4.42834375e-08,1.80912500e-01
-4.42434375e-08,1.80887500e-01
-4.42034375e-08,1.80912500e-01
-4.41634375e-08,1.80887500e-01
-4.41234375e-08,1.80914063e-01
-4.40834375e-08,1.80884375e-01
-4.40434375e-08,1.80918750e-01
-4.40034375e-08,1.80876563e-01
-4.39634375e-08,1.80932813e-01
-4.39234375e-08,1.80843750e-01
-4.38834375e-08,1.81109375e-01
-4.38434375e-08,1.81353125e-01
-4.38034375e-08,1.81271875e-01
-4.37634375e-08,1.81320312e-01
-4.37234375e-08,1.81284375e-01
-4.36834375e-08,1.81312500e-01
-4.36434375e-08,1.81290625e-01
-4.36034375e-08,1.81309375e-01
-4.35634375e-08,1.81292188e-01
-4.35234375e-08,1.81306250e-01
-4.34834375e-08,1.81293750e-01
-4.34434375e-08,1.81306250e-01
-4.34034375e-08,1.81293750e-01
-4.33634375e-08,1.81304688e-01
-4.33234375e-08,1.81295312e-01
-4.32834375e-08,1.81304688e-01
-4.32434375e-08,1.81295312e-01
-4.32034375e-08,1.81304688e-01
-4.31634375e-08,1.81295312e-01
-4.31234375e-08,1.81304688e-01
-4.30834375e-08,1.81295312e-01
-4.30434375e-08,1.81304688e-01
-4.30034375e-08,1.81295312e-01
-4.29634375e-08,1.81304688e-01
-4.29234375e-08,1.81295312e-01
-4.28834375e-08,1.81304688e-01
-4.28434375e-08,1.81295312e-01
-4.28034375e-08,1.81304688e-01
-4.27634375e-08,1.81295312e-01
-4.27234375e-08,1.81304688e-01
-4.26834375e-08,1.81295312e-01
-4.26434375e-08,1.81304688e-01
-4.26034375e-08,1.81295312e-01
-4.25634375e-08,1.81304688e-01
-4.25234375e-08,1.81293750e-01
-4.24834375e-08,1.81306250e-01
-4.24434375e-08,1.81293750e-01
-4.24034375e-08,1.81306250e-01
-4.23634375e-08,1.81292188e-01
-4.23234375e-08,1.81307812e-01
-4.22834375e-08,1.81292188e-01
-4.22434375e-08,1.81309375e-01
-4.22034375e-08,1.81289063e-01
-4.21634375e-08,1.81312500e-01
-4.21234375e-08,1.81285937e-01
-4.20834375e-08,1.81317188e-01
-4.20434375e-08,1.81278125e-01
-4.20034375e-08,1.81331250e-01
-4.19634375e-08,1.81243750e-01
-4.19234375e-08,1.81509375e-01
-4.18834375e-08,1.81753125e-01
-4.18434375e-08,1.81671875e-01
-4.18034375e-08,1.81718750e-01
-4.17634375e-08,1.81685938e-01
-4.17234375e-08,1.81710938e-01
-4.16834375e-08,1.81690625e-01
-4.16434375e-08,1.81707813e-01
-4.16034375e-08,1.81693750e-01
-4.15634375e-08,1.81704688e-01
-4.15234375e-08,1.81695313e-01
-4.14834375e-08,1.81704688e-01
-4.14434375e-08,1.81696875e-01
-4.14034375e-08,1.81703125e-01
-4.13634375e-08,1.81696875e-01
-4.13234375e-08,1.81701562e-01
-4.12834375e-08,1.81698438e-01
-4.12434375e-08,1.81701562e-01
-4.12034375e-08,1.81700000e-01
-4.11634375e-08,1.81700000e-01
-4.11234375e-08,1.81700000e-01
-4.10834375e-08,1.81698438e-01
-4.10434375e-08,1.81701562e-01
-4.10034375e-08,1.81696875e-01
-4.09634375e-08,1.81703125e-01
-4.09234375e-08,1.81695313e-01
-4.08834375e-08,1.81706250e-01
-4.08434375e-08,1.81690625e-01
-4.08034375e-08,1.81714062e-01
-4.07634375e-08,1.81676562e-01
-4.07234375e-08,1.81748437e-01
-4.06834375e-08,1.81498437e-01
-4.06434375e-08,1.81237500e-01
-4.06034375e-08,1.81339063e-01
-4.05634375e-08,1.81268750e-01
-4.05234375e-08,1.81328125e-01
-4.04834375e-08,1.81271875e-01
-4.04434375e-08,1.81329688e-01
-4.04034375e-08,1.81262500e-01
-4.03634375e-08,1.81360938e-01
-4.03234375e-08,1.81087500e-01
-4.02834375e-08,1.80850000e-01
-4.02434375e-08,1.80928125e-01
-4.02034375e-08,1.80879687e-01
-4.01634375e-08,1.80918750e-01
-4.01234375e-08,1.80881250e-01
-4.00834375e-08,1.80921875e-01
-4.00434375e-08,1.80870313e-01
-4.00034375e-08,1.80953125e-01
-3.99634375e-08,1.80693750e-01
-3.99234375e-08,1.80442188e-01
-3.98834375e-08,1.80534375e-01
-3.98434375e-08,1.80473438e-01
-3.98034375e-08,1.80521875e-01
-3.97634375e-08,1.80479688e-01
-3.97234375e-08,1.80520313e-01
-3.96834375e-08,1.80479688e-01
-3.96434375e-08,1.80520313e-01
-3.96034375e-08,1.80476562e-01
-3.95634375e-08,1.80528125e-01
-3.95234375e-08,1.80462500e-01
-3.94834375e-08,1.80560938e-01
-3.94434375e-08,1.80285937e-01
-3.94034375e-08,1.80051563e-01
-3.93634375e-08,1.80125000e-01
-3.93234375e-08,1.80084375e-01
-3.92834375e-08,1.80110938e-01
-3.92434375e-08,1.80092188e-01
-3.92034375e-08,1.80106250e-01
-3.91634375e-08,1.80095312e-01
-3.91234375e-08,1.80103125e-01
-3.90834375e-08,1.80096875e-01
-3.90434375e-08,1.80101563e-01
-3.90034375e-08,1.80098438e-01
-3.89634375e-08,1.80101563e-01
-3.89234375e-08,1.80098438e-01
-3.88834375e-08,1.80100000e-01
-3.88434375e-08,1.80100000e-01
-3.88034375e-08,1.80100000e-01
-3.87634375e-08,1.80100000e-01
-3.87234375e-08,1.80100000e-01
-3.86834375e-08,1.80100000e-01
-3.86434375e-08,1.80100000e-01
-3.86034375e-08,1.80100000e-01
-3.85634375e-08,1.80100000e-01
-3.85234375e-08,1.80101563e-01
