0a4d6f8107274375cf0a549995fe79f0/aes_ch1_20250506175301194.csv

Model,MSO66B
Label,
Waveform Type,ANALOG
Horizontal Units,s
Sample Interval,4.00000000e-11
Record Length,10000
Zero Index,1599.01953125
Vertical Units,A
ANALOG_Thumbnail,
yOffset,1.84500000e-01
yPosition,8.40000000e-01

Labels,
TIME,CH1
-6.39607813e-08,1.96867188e-01
-6.39207812e-08,1.96957812e-01
-6.38807813e-08,1.96687500e-01
-6.38407812e-08,1.96450000e-01
-6.38007812e-08,1.96525000e-01
-6.37607812e-08,1.96484375e-01
-6.37207812e-08,1.96509375e-01
-6.36807813e-08,1.96493750e-01
-6.36407812e-08,1.96501563e-01
-6.36007813e-08,1.96501563e-01
-6.35607812e-08,1.96493750e-01
-6.35207812e-08,1.96510938e-01
-6.34807812e-08,1.96478125e-01
-6.34407812e-08,1.96546875e-01
-6.34007813e-08,1.96298438e-01
-6.33607812e-08,1.96039062e-01
-6.33207813e-08,1.96137500e-01
-6.32807812e-08,1.96071875e-01
-6.32407812e-08,1.96121875e-01
-6.32007812e-08,1.96081250e-01
-6.31607812e-08,1.96117188e-01
-6.31207813e-08,1.96084375e-01
-6.30807812e-08,1.96115625e-01
-6.30407813e-08,1.96085938e-01
-6.30007812e-08,1.96114063e-01
-6.29607812e-08,1.96085938e-01
-6.29207812e-08,1.96114063e-01
-6.28807812e-08,1.96084375e-01
-6.28407813e-08,1.96117188e-01
-6.28007812e-08,1.96081250e-01
-6.27607813e-08,1.96123437e-01
-6.27207812e-08,1.96067188e-01
-6.26807812e-08,1.96157813e-01
-6.26407812e-08,1.95889063e-01
-6.26007812e-08,1.95646875e-01
-6.25607813e-08,1.95729687e-01
-6.25207812e-08,1.95679688e-01
-6.24807813e-08,1.95715625e-01
-6.24407812e-08,1.95685938e-01
-6.24007812e-08,1.95712500e-01
-6.23607812e-08,1.95689063e-01
-6.23207812e-08,1.95710938e-01
-6.22807813e-08,1.95689063e-01
-6.22407812e-08,1.95710938e-01
-6.22007813e-08,1.95687500e-01
-6.21607812e-08,1.95714063e-01
-6.21207812e-08,1.95684375e-01
-6.20807812e-08,1.95718750e-01
-6.20407812e-08,1.95676563e-01
-6.20007813e-08,1.95732813e-01
-6.19607812e-08,1.95642188e-01
-6.19207812e-08,1.95910937e-01
-6.18807812e-08,1.96151563e-01
-6.18407812e-08,1.96071875e-01
-6.18007812e-08,1.96118750e-01
-6.17607812e-08,1.96087500e-01
-6.17207813e-08,1.96109375e-01
-6.16807812e-08,1.96092188e-01
-6.16407812e-08,1.96106250e-01
-6.16007812e-08,1.96095313e-01
-6.15607812e-08,1.96103125e-01
-6.15207812e-08,1.96098438e-01
-6.14807812e-08,1.96101562e-01
-6.14407813e-08,1.96100000e-01
-6.14007812e-08,1.96098438e-01
-6.13607812e-08,1.96103125e-01
-6.13207812e-08,1.96095313e-01
-6.12807812e-08,1.96106250e-01
-6.12407812e-08,1.96092188e-01
-6.12007812e-08,1.96112500e-01
-6.11607813e-08,1.96082813e-01
-6.11207812e-08,1.96128125e-01
-6.10807812e-08,1.96046875e-01
-6.10407812e-08,1.96306250e-01
-6.10007812e-08,1.96554688e-01
-6.09607812e-08,1.96470313e-01
-6.09207812e-08,1.96520313e-01
-6.08807813e-08,1.96485938e-01
-6.08407812e-08,1.96509375e-01
-6.08007812e-08,1.96496875e-01
-6.07607812e-08,1.96496875e-01
-6.07207812e-08,1.96512500e-01
-6.06807812e-08,1.96462500e-01
-6.06407812e-08,1.96690625e-01
-6.06007813e-08,1.96971875e-01
-6.05607812e-08,1.96851563e-01
-6.05207812e-08,1.96939063e-01
-6.04807812e-08,1.96864062e-01
-6.04407812e-08,1.96935938e-01
-6.04007812e-08,1.96862500e-01
-6.03607812e-08,1.96945312e-01
-6.03207813e-08,1.96831250e-01
-6.02807812e-08,1.97120313e-01
-6.02407812e-08,1.97343750e-01
-6.02007812e-08,1.97279688e-01
-6.01607812e-08,1.97312500e-01
-6.01207813e-08,1.97289063e-01
-6.00807812e-08,1.97310938e-01
-6.00407813e-08,1.97285938e-01
-6.00007812e-08,1.97321875e-01
-5.99607812e-08,1.97254687e-01
-5.99207812e-08,1.97496875e-01
-5.98807812e-08,1.97767187e-01
-5.98407813e-08,1.97654688e-01
-5.98007812e-08,1.97737500e-01
-5.97607813e-08,1.97664063e-01
-5.97207812e-08,1.97735938e-01
-5.96807812e-08,1.97660938e-01
-5.96407812e-08,1.97748438e-01
-5.96007812e-08,1.97626563e-01
-5.95607812e-08,1.97925000e-01
-5.95207812e-08,1.98135937e-01
-5.94807812e-08,1.98087500e-01
-5.94407812e-08,1.98101562e-01
-5.94007812e-08,1.98104688e-01
-5.93607812e-08,1.98090625e-01
-5.93207812e-08,1.98114063e-01
-5.92807812e-08,1.98079688e-01
-5.92407812e-08,1.98131250e-01
-5.92007812e-08,1.98042188e-01
-5.91607812e-08,1.98310938e-01
-5.91207812e-08,1.98550000e-01
-5.90807812e-08,1.98475000e-01
-5.90407812e-08,1.98515625e-01
-5.90007812e-08,1.98490625e-01
-5.89607812e-08,1.98506250e-01
-5.89207812e-08,1.98496875e-01
-5.88807812e-08,1.98500000e-01
-5.88407812e-08,1.98503125e-01
-5.88007812e-08,1.98493750e-01
-5.87607812e-08,1.98509375e-01
-5.87207812e-08,1.98484375e-01
-5.86807812e-08,1.98525000e-01
-5.86407812e-08,1.98448438e-01
-5.86007812e-08,1.98704688e-01
-5.85607812e-08,1.98957812e-01
-5.85207812e-08,1.98867188e-01
-5.84807812e-08,1.98923438e-01
-5.84407812e-08,1.98882813e-01
-5.84007812e-08,1.98914063e-01
-5.83607812e-08,1.98887500e-01
-5.83207812e-08,1.98909375e-01
-5.82807812e-08,1.98890625e-01
-5.82407812e-08,1.98907813e-01
-5.82007812e-08,1.98893750e-01
-5.81607812e-08,1.98904688e-01
-5.81207812e-08,1.98896875e-01
-5.80807812e-08,1.98901563e-01
-5.80407812e-08,1.98900000e-01
-5.80007812e-08,1.98898437e-01
-5.79607812e-08,1.98904688e-01
-5.79207812e-08,1.98889063e-01
-5.78807812e-08,1.98920313e-01
-5.78407812e-08,1.98854688e-01
-5.78007812e-08,1.99098438e-01
-5.77607812e-08,1.99364062e-01
-5.77207812e-08,1.99259375e-01
-5.76807812e-08,1.99331250e-01
-5.76407812e-08,1.99273438e-01
-5.76007812e-08,1.99323438e-01
-5.75607812e-08,1.99278125e-01
-5.75207812e-08,1.99320313e-01
-5.74807812e-08,1.99279687e-01
-5.74407812e-08,1.99320313e-01
-5.74007812e-08,1.99279687e-01
-5.73607812e-08,1.99320313e-01
-5.73207812e-08,1.99279687e-01
-5.72807812e-08,1.99321875e-01
-5.72407812e-08,1.99278125e-01
-5.72007812e-08,1.99325000e-01
-5.71607812e-08,1.99271875e-01
-5.71207812e-08,1.99332813e-01
-5.70807812e-08,1.99257813e-01
-5.70407812e-08,1.99367188e-01
-5.70007812e-08,1.99079688e-01
-5.69607812e-08,1.98859375e-01
-5.69207812e-08,1.98917188e-01
-5.68807812e-08,1.98893750e-01
-5.68407812e-08,1.98901563e-01
-5.68007812e-08,1.98903125e-01
-5.67607812e-08,1.98893750e-01
-5.67207812e-08,1.98907813e-01
-5.66807812e-08,1.98889063e-01
-5.66407812e-08,1.98914063e-01
-5.66007812e-08,1.98881250e-01
-5.65607812e-08,1.98925000e-01
-5.65207812e-08,1.98864062e-01
-5.64807812e-08,1.98960938e-01
-5.64407812e-08,1.98684375e-01
-5.64007812e-08,1.98454688e-01
-5.63607812e-08,1.98518750e-01
-5.63207812e-08,1.98492188e-01
-5.62807812e-08,1.98498438e-01
-5.62407812e-08,1.98509375e-01
-5.62007812e-08,1.98478125e-01
-5.61607812e-08,1.98548438e-01
-5.61207812e-08,1.98296875e-01
-5.60807812e-08,1.98043750e-01
-5.60407812e-08,1.98131250e-01
-5.60007812e-08,1.98081250e-01
-5.59607812e-08,1.98110938e-01
-5.59207812e-08,1.98096875e-01
-5.58807812e-08,1.98090625e-01
-5.58407812e-08,1.98135937e-01
-5.58007812e-08,1.97910937e-01
-5.57607812e-08,1.97626563e-01
-5.57207812e-08,1.97750000e-01
-5.56807812e-08,1.97659375e-01
-5.56407812e-08,1.97737500e-01
-5.56007812e-08,1.97662500e-01
-5.55607812e-08,1.97739063e-01
-5.55207812e-08,1.97653125e-01
-5.54807812e-08,1.97770313e-01
-5.54407812e-08,1.97478125e-01
-5.54007812e-08,1.97259375e-01
-5.53607812e-08,1.97317188e-01
-5.53207812e-08,1.97290625e-01
-5.52807812e-08,1.97304688e-01
-5.52407812e-08,1.97298438e-01
-5.52007812e-08,1.97300000e-01
-5.51607812e-08,1.97300000e-01
-5.51207812e-08,1.97298438e-01
-5.50807812e-08,1.97301562e-01
-5.50407812e-08,1.97296875e-01
-5.50007812e-08,1.97303125e-01
-5.49607812e-08,1.97296875e-01
-5.49207812e-08,1.97303125e-01
-5.48807812e-08,1.97296875e-01
-5.48407812e-08,1.97303125e-01
-5.48007812e-08,1.97296875e-01
-5.47607812e-08,1.97304688e-01
-5.47207812e-08,1.97295313e-01
-5.46807812e-08,1.97304688e-01
-5.46407812e-08,1.97295313e-01
-5.46007812e-08,1.97304688e-01
-5.45607812e-08,1.97295313e-01
-5.45207812e-08,1.97306250e-01
-5.44807812e-08,1.97293750e-01
-5.44407812e-08,1.97306250e-01
-5.44007812e-08,1.97292187e-01
-5.43607812e-08,1.97307813e-01
-5.43207812e-08,1.97290625e-01
-5.42807812e-08,1.97310938e-01
-5.42407812e-08,1.97287500e-01
-5.42007812e-08,1.97315625e-01
-5.41607812e-08,1.97279688e-01
-5.41207812e-08,1.97331250e-01
-5.40807812e-08,1.97245313e-01
-5.40407812e-08,1.97507813e-01
-5.40007812e-08,1.97753125e-01
-5.39607812e-08,1.97670313e-01
-5.39207812e-08,1.97720312e-01
-5.38807812e-08,1.97684375e-01
-5.38407812e-08,1.97712500e-01
-5.38007812e-08,1.97689063e-01
-5.37607812e-08,1.97709375e-01
-5.37207812e-08,1.97692188e-01
-5.36807812e-08,1.97707812e-01
-5.36407812e-08,1.97693750e-01
-5.36007812e-08,1.97706250e-01
-5.35607812e-08,1.97693750e-01
-5.35207812e-08,1.97704688e-01
-5.34807812e-08,1.97695312e-01
-5.34407812e-08,1.97704688e-01
-5.34007812e-08,1.97695312e-01
-5.33607812e-08,1.97704688e-01
-5.33207812e-08,1.97695312e-01
-5.32807812e-08,1.97704688e-01
-5.32407812e-08,1.97695312e-01
-5.32007812e-08,1.97704688e-01
-5.31607812e-08,1.97696875e-01
-5.31207812e-08,1.97703125e-01
-5.30807812e-08,1.97696875e-01
-5.30407812e-08,1.97703125e-01
-5.30007812e-08,1.97696875e-01
-5.29607812e-08,1.97703125e-01
-5.29207812e-08,1.97696875e-01
-5.28807812e-08,1.97703125e-01
-5.28407812e-08,1.97696875e-01
-5.28007812e-08,1.97703125e-01
-5.27607812e-08,1.97696875e-01
-5.27207812e-08,1.97703125e-01
-5.26807812e-08,1.97696875e-01
-5.26407812e-08,1.97703125e-01
-5.26007812e-08,1.97696875e-01
-5.25607812e-08,1.97703125e-01
-5.25207812e-08,1.97696875e-01
-5.24807812e-08,1.97703125e-01
-5.24407813e-08,1.97696875e-01
-5.24007812e-08,1.97703125e-01
-5.23607812e-08,1.97696875e-01
-5.23207812e-08,1.97703125e-01
-5.22807812e-08,1.97695312e-01
-5.22407812e-08,1.97704688e-01
-5.22007812e-08,1.97695312e-01
-5.21607812e-08,1.97704688e-01
-5.21207812e-08,1.97695312e-01
-5.20807812e-08,1.97704688e-01
-5.20407812e-08,1.97695312e-01
-5.20007812e-08,1.97704688e-01
-5.19607812e-08,1.97695312e-01
-5.19207812e-08,1.97704688e-01
-5.18807812e-08,1.97695312e-01
-5.18407812e-08,1.97704688e-01
-5.18007812e-08,1.97695312e-01
-5.17607812e-08,1.97704688e-01
-5.17207812e-08,1.97695312e-01
-5.16807812e-08,1.97706250e-01
-5.16407812e-08,1.97693750e-01
-5.16007812e-08,1.97706250e-01
-5.15607812e-08,1.97693750e-01
-5.15207812e-08,1.97706250e-01
-5.14807812e-08,1.97693750e-01
-5.14407812e-08,1.97706250e-01
-5.14007812e-08,1.97692188e-01
-5.13607812e-08,1.97707812e-01
-5.13207812e-08,1.97692188e-01
-5.12807812e-08,1.97707812e-01
-5.12407812e-08,1.97690625e-01
-5.12007812e-08,1.97709375e-01
-5.11607812e-08,1.97689063e-01
-5.11207812e-08,1.97710938e-01
-5.10807812e-08,1.97687500e-01
-5.10407812e-08,1.97712500e-01
-5.10007812e-08,1.97685938e-01
-5.09607812e-08,1.97715625e-01
-5.09207812e-08,1.97681250e-01
-5.08807812e-08,1.97721875e-01
-5.08407812e-08,1.97671875e-01
-5.08007812e-08,1.97737500e-01
-5.07607812e-08,1.97637500e-01
-5.07207812e-08,1.97917188e-01
-5.06807812e-08,1.98145313e-01
-5.06407812e-08,1.98079688e-01
-5.06007812e-08,1.98109375e-01
-5.05607812e-08,1.98096875e-01
-5.05207813e-08,1.98096875e-01
-5.04807812e-08,1.98107813e-01
-5.04407812e-08,1.98084375e-01
-5.04007812e-08,1.98126563e-01
-5.03607812e-08,1.98046875e-01
-5.03207812e-08,1.98306250e-01
-5.02807812e-08,1.98554687e-01
-5.02407812e-08,1.98470312e-01
-5.02007812e-08,1.98518750e-01
-5.01607812e-08,1.98487500e-01
-5.01207812e-08,1.98506250e-01
-5.00807812e-08,1.98498438e-01
-5.00407812e-08,1.98495313e-01
-5.00007812e-08,1.98515625e-01
-4.99607812e-08,1.98457812e-01
-4.99207812e-08,1.98695312e-01
-4.98807812e-08,1.98965625e-01
-4.98407812e-08,1.98857813e-01
-4.98007812e-08,1.98931250e-01
-4.97607812e-08,1.98873437e-01
-4.97207812e-08,1.98923438e-01
-4.96807812e-08,1.98878125e-01
-4.96407812e-08,1.98920313e-01
-4.96007812e-08,1.98881250e-01
-4.95607812e-08,1.98918750e-01
-4.95207812e-08,1.98881250e-01
-4.94807812e-08,1.98918750e-01
-4.94407812e-08,1.98881250e-01
-4.94007812e-08,1.98920313e-01
-4.93607812e-08,1.98878125e-01
-4.93207812e-08,1.98923438e-01
-4.92807812e-08,1.98873437e-01
-4.92407812e-08,1.98931250e-01
-4.92007812e-08,1.98859375e-01
-4.91607812e-08,1.98965625e-01
-4.91207812e-08,1.98679688e-01
-4.90807812e-08,1.98459375e-01
-4.90407812e-08,1.98515625e-01
-4.90007812e-08,1.98495313e-01
-4.89607812e-08,1.98496875e-01
-4.89207812e-08,1.98510938e-01
-4.88807813e-08,1.98476563e-01
-4.88407812e-08,1.98550000e-01
-4.88007812e-08,1.98295313e-01
-4.87607812e-08,1.98043750e-01
-4.87207812e-08,1.98129688e-01
-4.86807812e-08,1.98084375e-01
-4.86407812e-08,1.98103125e-01
-4.86007813e-08,1.98123437e-01
-4.85607812e-08,1.97923438e-01
-4.85207812e-08,1.97610938e-01
-4.84807812e-08,1.97768750e-01
-4.84407812e-08,1.97629688e-01
-4.84007812e-08,1.97790625e-01
-4.83607812e-08,1.97457812e-01
-4.83207813e-08,1.97279688e-01
-4.82807812e-08,1.97295313e-01
-4.82407812e-08,1.97318750e-01
-4.82007812e-08,1.97267187e-01
-4.81607812e-08,1.97360937e-01
-4.81207812e-08,1.97082813e-01
-4.80807812e-08,1.96857813e-01
-4.80407812e-08,1.96915625e-01
-4.80007812e-08,1.96900000e-01
-4.79607812e-08,1.96885937e-01
-4.79207812e-08,1.96942188e-01
-4.78807812e-08,1.96703125e-01
-4.78407812e-08,1.96437500e-01
-4.78007812e-08,1.96537500e-01
-4.77607812e-08,1.96471875e-01
-4.77207812e-08,1.96521875e-01
-4.76807812e-08,1.96481250e-01
-4.76407812e-08,1.96515625e-01
-4.76007812e-08,1.96485938e-01
-4.75607812e-08,1.96512500e-01
-4.75207812e-08,1.96487500e-01
-4.74807812e-08,1.96510938e-01
-4.74407812e-08,1.96490625e-01
-4.74007812e-08,1.96509375e-01
-4.73607812e-08,1.96490625e-01
-4.73207812e-08,1.96509375e-01
-4.72807812e-08,1.96492187e-01
-4.72407812e-08,1.96507813e-01
-4.72007812e-08,1.96492187e-01
-4.71607812e-08,1.96507813e-01
-4.71207812e-08,1.96492187e-01
-4.70807812e-08,1.96506250e-01
-4.70407812e-08,1.96493750e-01
-4.70007812e-08,1.96506250e-01
-4.69607813e-08,1.96493750e-01
-4.69207812e-08,1.96506250e-01
-4.68807812e-08,1.96493750e-01
-4.68407812e-08,1.96506250e-01
-4.68007812e-08,1.96493750e-01
-4.67607812e-08,1.96506250e-01
-4.67207812e-08,1.96493750e-01
-4.66807813e-08,1.96506250e-01
-4.66407812e-08,1.96493750e-01
-4.66007812e-08,1.96506250e-01
-4.65607812e-08,1.96493750e-01
-4.65207812e-08,1.96506250e-01
-4.64807812e-08,1.96493750e-01
-4.64407812e-08,1.96506250e-01
-4.64007813e-08,1.96493750e-01
-4.63607812e-08,1.96506250e-01
-4.63207812e-08,1.96492187e-01
-4.62807812e-08,1.96507813e-01
-4.62407812e-08,1.96492187e-01
-4.62007812e-08,1.96507813e-01
-4.61607812e-08,1.96492187e-01
-4.61207813e-08,1.96509375e-01
-4.60807812e-08,1.96490625e-01
-4.60407812e-08,1.96510938e-01
-4.60007812e-08,1.96489063e-01
-4.59607812e-08,1.96512500e-01
-4.59207812e-08,1.96485938e-01
-4.58807812e-08,1.96515625e-01
-4.58407812e-08,1.96479687e-01
-4.58007812e-08,1.96525000e-01
-4.57607812e-08,1.96465625e-01
-4.57207812e-08,1.96559375e-01
-4.56807812e-08,1.96287500e-01
-4.56407812e-08,1.96051562e-01
-4.56007812e-08,1.96125000e-01
-4.55607812e-08,1.96084375e-01
-4.55207812e-08,1.96109375e-01
-4.54807812e-08,1.96093750e-01
-4.54407812e-08,1.96103125e-01
-4.54007812e-08,1.96100000e-01
-4.53607812e-08,1.96096875e-01
-4.53207812e-08,1.96104688e-01
-4.52807812e-08,1.96090625e-01
-4.52407812e-08,1.96114063e-01
-4.52007812e-08,1.96075000e-01
-4.51607812e-08,1.96150000e-01
-4.51207812e-08,1.95896875e-01
-4.50807812e-08,1.95642188e-01
-4.50407813e-08,1.95734375e-01
-4.50007812e-08,1.95675000e-01
-4.49607812e-08,1.95720312e-01
-4.49207812e-08,1.95682812e-01
-4.48807812e-08,1.95714063e-01
-4.48407812e-08,1.95687500e-01
-4.48007812e-08,1.95710938e-01
-4.47607813e-08,1.95689063e-01
-4.47207812e-08,1.95709375e-01
-4.46807812e-08,1.95690625e-01
-4.46407812e-08,1.95707813e-01
-4.46007812e-08,1.95692188e-01
-4.45607812e-08,1.95707813e-01
-4.45207812e-08,1.95692188e-01
-4.44807813e-08,1.95706250e-01
-4.44407812e-08,1.95693750e-01
-4.44007812e-08,1.95706250e-01
-4.43607812e-08,1.95693750e-01
-4.43207812e-08,1.95706250e-01
-4.42807812e-08,1.95693750e-01
-4.42407812e-08,1.95704688e-01
-4.42007813e-08,1.95695312e-01
-4.41607812e-08,1.95704688e-01
-4.41207812e-08,1.95695312e-01
-4.40807812e-08,1.95704688e-01
-4.40407812e-08,1.95695312e-01
-4.40007812e-08,1.95704688e-01
-4.39607812e-08,1.95695312e-01
-4.39207813e-08,1.95703125e-01
-4.38807812e-08,1.95696875e-01
-4.38407812e-08,1.95703125e-01
-4.38007812e-08,1.95696875e-01
-4.37607812e-08,1.95703125e-01
-4.37207812e-08,1.95696875e-01
-4.36807812e-08,1.95701563e-01
-4.36407812e-08,1.95698438e-01
-4.36007812e-08,1.95700000e-01
-4.35607812e-08,1.95700000e-01
-4.35207812e-08,1.95698438e-01
-4.34807812e-08,1.95703125e-01
-4.34407812e-08,1.95695312e-01
-4.34007812e-08,1.95707813e-01
-4.33607812e-08,1.95687500e-01
-4.33207812e-08,1.95721875e-01
-4.32807812e-08,1.95653125e-01
-4.32407812e-08,1.95900000e-01
-4.32007812e-08,1.96162500e-01
-4.31607812e-08,1.96060938e-01
-4.31207813e-08,1.96129688e-01
-4.30807812e-08,1.96075000e-01
-4.30407812e-08,1.96121875e-01
-4.30007812e-08,1.96079688e-01
-4.29607812e-08,1.96118750e-01
-4.29207812e-08,1.96081250e-01
-4.28807812e-08,1.96117188e-01
-4.28407813e-08,1.96082813e-01
-4.28007812e-08,1.96117188e-01
-4.27607812e-08,1.96082813e-01
-4.27207812e-08,1.96117188e-01
-4.26807812e-08,1.96082813e-01
-4.26407812e-08,1.96117188e-01
-4.26007812e-08,1.96081250e-01
-4.25607813e-08,1.96118750e-01
-4.25207812e-08,1.96079688e-01
-4.24807812e-08,1.96121875e-01
-4.24407812e-08,1.96076562e-01
-4.24007812e-08,1.96126563e-01
-4.23607812e-08,1.96068750e-01
-4.23207812e-08,1.96140625e-01
-4.22807813e-08,1.96034375e-01
-4.22407812e-08,1.96318750e-01
-4.22007812e-08,1.96543750e-01
-4.21607812e-08,1.96481250e-01
-4.21207812e-08,1.96509375e-01
-4.20807812e-08,1.96495313e-01
-4.20407812e-08,1.96501563e-01
-4.20007813e-08,1.96501563e-01
-4.19607812e-08,1.96496875e-01
-4.19207812e-08,1.96504687e-01
-4.18807812e-08,1.96495313e-01
-4.18407812e-08,1.96506250e-01
-4.18007812e-08,1.96493750e-01
-4.17607812e-08,1.96507813e-01
-4.17207813e-08,1.96492187e-01
-4.16807812e-08,1.96509375e-01
-4.16407812e-08,1.96489063e-01
-4.16007812e-08,1.96510938e-01
-4.15607812e-08,1.96487500e-01
-4.15207812e-08,1.96512500e-01
-4.14807812e-08,1.96485938e-01
-4.14407812e-08,1.96515625e-01
-4.14007812e-08,1.96482812e-01
-4.13607812e-08,1.96520313e-01
-4.13207812e-08,1.96476563e-01
-4.12807812e-08,1.96529687e-01
-4.12407812e-08,1.96460938e-01
-4.12007813e-08,1.96564062e-01
-4.11607812e-08,1.96282813e-01
-4.11207812e-08,1.96056250e-01
-4.10807812e-08,1.96120313e-01
-4.10407812e-08,1.96090625e-01
-4.10007812e-08,1.96104688e-01
-4.09607812e-08,1.96100000e-01
-4.09207813e-08,1.96098438e-01
-4.08807812e-08,1.96104688e-01
-4.08407812e-08,1.96093750e-01
-4.08007812e-08,1.96109375e-01
-4.07607812e-08,1.96089063e-01
-4.07207812e-08,1.96114063e-01
-4.06807812e-08,1.96084375e-01
-4.06407813e-08,1.96120313e-01
-4.06007812e-08,1.96073438e-01
-4.05607812e-08,1.96135937e-01
-4.05207812e-08,1.96037500e-01
-4.04807812e-08,1.96315625e-01
-4.04407812e-08,1.96545313e-01
-4.04007812e-08,1.96479687e-01
-4.03607813e-08,1.96510938e-01
-4.03207812e-08,1.96495313e-01
-4.02807812e-08,1.96500000e-01
-4.02407812e-08,1.96503125e-01
-4.02007812e-08,1.96493750e-01
-4.01607812e-08,1.96509375e-01
-4.01207812e-08,1.96485938e-01
-4.00807813e-08,1.96518750e-01
-4.00407812e-08,1.96475000e-01
-4.00007812e-08,1.96535938e-01
-3.99607812e-08,1.96437500e-01
-3.99207812e-08,1.96717188e-01
-3.98807812e-08,1.96943750e-01
-3.98407812e-08,1.96882813e-01
-3.98007813e-08,1.96904688e-01
-3.97607812e-08,1.96903125e-01
-3.97207812e-08,1.96887500e-01
-3.96807812e-08,1.96925000e-01
-3.96407812e-08,1.96846875e-01
-3.96007812e-08,1.97107813e-01
-3.95607812e-08,1.97351563e-01
-3.95207813e-08,1.97275000e-01
-3.94807812e-08,1.97312500e-01
-3.94407812e-08,1.97296875e-01
-3.94007812e-08,1.97293750e-01
-3.93607812e-08,1.97318750e-01
-3.93207812e-08,1.97253125e-01
-3.92807813e-08,1.97501563e-01
-3.92407812e-08,1.97757813e-01
-3.92007812e-08,1.97668750e-01
-3.91607812e-08,1.97718750e-01
-3.91207812e-08,1.97690625e-01
-3.90807812e-08,1.97701563e-01
-3.90407812e-08,1.97710938e-01
-3.90007813e-08,1.97660938e-01
-3.89607812e-08,1.97893750e-01
-3.89207812e-08,1.98167188e-01
-3.88807812e-08,1.98057813e-01
-3.88407812e-08,1.98131250e-01
-3.88007812e-08,1.98075000e-01
-3.87607812e-08,1.98120313e-01
-3.87207813e-08,1.98084375e-01
-3.86807812e-08,1.98112500e-01
-3.86407812e-08,1.98092188e-01
-3.86007812e-08,1.98101562e-01
-3.85607812e-08,1.98109375e-01
-3.85207812e-08,1.98065625e-01
