0a4d6f8107274375cf0a549995fe79f0/aes_ch1_20250506175158400.csv

Model,MSO66B
Label,
Waveform Type,ANALOG
Horizontal Units,s
Sample Interval,4.00000000e-11
Record Length,10000
Zero Index,1599.09375000
Vertical Units,A
ANALOG_Thumbnail,
yOffset,1.84500000e-01
yPosition,8.40000000e-01

Labels,
TIME,CH1
-6.39637500e-08,1.76132813e-01
-6.39237500e-08,1.76070313e-01
-6.38837500e-08,1.76129687e-01
-6.38437500e-08,1.76067187e-01
-6.38037500e-08,1.76142188e-01
-6.37637500e-08,1.76034375e-01
-6.37237500e-08,1.76318750e-01
-6.36837500e-08,1.76543750e-01
-6.36437500e-08,1.76481250e-01
-6.36037500e-08,1.76509375e-01
-6.35637500e-08,1.76496875e-01
-6.35237500e-08,1.76498437e-01
-6.34837500e-08,1.76506250e-01
-6.34437500e-08,1.76487500e-01
-6.34037500e-08,1.76523438e-01
-6.33637500e-08,1.76451563e-01
-6.33237500e-08,1.76701563e-01
-6.32837500e-08,1.76960937e-01
-6.32437500e-08,1.76864063e-01
-6.32037500e-08,1.76926562e-01
-6.31637500e-08,1.76878125e-01
-6.31237500e-08,1.76918750e-01
-6.30837500e-08,1.76882813e-01
-6.30437500e-08,1.76915625e-01
-6.30037500e-08,1.76885938e-01
-6.29637500e-08,1.76914062e-01
-6.29237500e-08,1.76887500e-01
-6.28837500e-08,1.76912500e-01
-6.28437500e-08,1.76887500e-01
-6.28037500e-08,1.76912500e-01
-6.27637500e-08,1.76887500e-01
-6.27237500e-08,1.76912500e-01
-6.26837500e-08,1.76885938e-01
-6.26437500e-08,1.76914062e-01
-6.26037500e-08,1.76884375e-01
-6.25637500e-08,1.76917188e-01
-6.25237500e-08,1.76879687e-01
-6.24837500e-08,1.76925000e-01
-6.24437500e-08,1.76865625e-01
-6.24037500e-08,1.76959375e-01
-6.23637500e-08,1.76689062e-01
-6.23237500e-08,1.76448437e-01
-6.22837500e-08,1.76528125e-01
-6.22437500e-08,1.76481250e-01
-6.22037500e-08,1.76514063e-01
-6.21637500e-08,1.76487500e-01
-6.21237500e-08,1.76510938e-01
-6.20837500e-08,1.76489063e-01
-6.20437500e-08,1.76512500e-01
-6.20037500e-08,1.76485937e-01
-6.19637500e-08,1.76517188e-01
-6.19237500e-08,1.76473437e-01
-6.18837500e-08,1.76550000e-01
-6.18437500e-08,1.76296875e-01
-6.18037500e-08,1.76040625e-01
-6.17637500e-08,1.76137500e-01
-6.17237500e-08,1.76071875e-01
-6.16837500e-08,1.76125000e-01
-6.16437500e-08,1.76076563e-01
-6.16037500e-08,1.76121875e-01
-6.15637500e-08,1.76078125e-01
-6.15237500e-08,1.76123438e-01
-6.14837500e-08,1.76073438e-01
-6.14437500e-08,1.76131250e-01
-6.14037500e-08,1.76059375e-01
-6.13637500e-08,1.76165625e-01
-6.13237500e-08,1.75881250e-01
-6.12837500e-08,1.75656250e-01
-6.12437500e-08,1.75720313e-01
-6.12037500e-08,1.75690625e-01
-6.11637500e-08,1.75704688e-01
-6.11237500e-08,1.75698437e-01
-6.10837500e-08,1.75698437e-01
-6.10437500e-08,1.75704688e-01
-6.10037500e-08,1.75692188e-01
-6.09637500e-08,1.75709375e-01
-6.09237500e-08,1.75685938e-01
-6.08837500e-08,1.75718750e-01
-6.08437500e-08,1.75670313e-01
-6.08037500e-08,1.75754688e-01
-6.07637500e-08,1.75490625e-01
-6.07237500e-08,1.75246875e-01
-6.06837500e-08,1.75329687e-01
-6.06437500e-08,1.75281250e-01
-6.06037500e-08,1.75314063e-01
-6.05637500e-08,1.75290625e-01
-6.05237500e-08,1.75307812e-01
-6.04837500e-08,1.75295312e-01
-6.04437500e-08,1.75303125e-01
-6.04037500e-08,1.75298438e-01
-6.03637500e-08,1.75298438e-01
-6.03237500e-08,1.75303125e-01
-6.02837500e-08,1.75292188e-01
-6.02437500e-08,1.75312500e-01
-6.02037500e-08,1.75278125e-01
-6.01637500e-08,1.75346875e-01
-6.01237500e-08,1.75100000e-01
-6.00837500e-08,1.74839063e-01
-6.00437500e-08,1.74937500e-01
-6.00037500e-08,1.74871875e-01
-5.99637500e-08,1.74923438e-01
-5.99237500e-08,1.74879688e-01
-5.98837500e-08,1.74918750e-01
-5.98437500e-08,1.74882813e-01
-5.98037500e-08,1.74917188e-01
-5.97637500e-08,1.74882813e-01
-5.97237500e-08,1.74917188e-01
-5.96837500e-08,1.74882813e-01
-5.96437500e-08,1.74918750e-01
-5.96037500e-08,1.74879688e-01
-5.95637500e-08,1.74923438e-01
-5.95237500e-08,1.74871875e-01
-5.94837500e-08,1.74937500e-01
-5.94437500e-08,1.74837500e-01
-5.94037500e-08,1.75115625e-01
-5.93637500e-08,1.75346875e-01
-5.93237500e-08,1.75276563e-01
-5.92837500e-08,1.75314063e-01
-5.92437500e-08,1.75292188e-01
-5.92037500e-08,1.75304688e-01
-5.91637500e-08,1.75298438e-01
-5.91237500e-08,1.75300000e-01
-5.90837500e-08,1.75303125e-01
-5.90437500e-08,1.75295312e-01
-5.90037500e-08,1.75309375e-01
-5.89637500e-08,1.75285938e-01
-5.89237500e-08,1.75325000e-01
-5.88837500e-08,1.75250000e-01
-5.88437500e-08,1.75503125e-01
-5.88037500e-08,1.75759375e-01
-5.87637500e-08,1.75664062e-01
-5.87237500e-08,1.75726563e-01
-5.86837500e-08,1.75678125e-01
-5.86437500e-08,1.75718750e-01
-5.86037500e-08,1.75684375e-01
-5.85637500e-08,1.75715625e-01
-5.85237500e-08,1.75685938e-01
-5.84837500e-08,1.75712500e-01
-5.84437500e-08,1.75687500e-01
-5.84037500e-08,1.75712500e-01
-5.83637500e-08,1.75687500e-01
-5.83237500e-08,1.75710937e-01
-5.82837500e-08,1.75689062e-01
-5.82437500e-08,1.75710937e-01
-5.82037500e-08,1.75689062e-01
-5.81637500e-08,1.75710937e-01
-5.81237500e-08,1.75687500e-01
-5.80837500e-08,1.75712500e-01
-5.80437500e-08,1.75687500e-01
-5.80037500e-08,1.75712500e-01
-5.79637500e-08,1.75687500e-01
-5.79237500e-08,1.75714063e-01
-5.78837500e-08,1.75685938e-01
-5.78437500e-08,1.75714063e-01
-5.78037500e-08,1.75684375e-01
-5.77637500e-08,1.75715625e-01
-5.77237500e-08,1.75682813e-01
-5.76837500e-08,1.75718750e-01
-5.76437500e-08,1.75679688e-01
-5.76037500e-08,1.75723437e-01
-5.75637500e-08,1.75673438e-01
-5.75237500e-08,1.75732813e-01
-5.74837500e-08,1.75657813e-01
-5.74437500e-08,1.75768750e-01
-5.74037500e-08,1.75478125e-01
-5.73637500e-08,1.75260938e-01
-5.73237500e-08,1.75314063e-01
-5.72837500e-08,1.75296875e-01
-5.72437500e-08,1.75296875e-01
-5.72037500e-08,1.75309375e-01
-5.71637500e-08,1.75285938e-01
-5.71237500e-08,1.75321875e-01
-5.70837500e-08,1.75267188e-01
-5.70437500e-08,1.75360938e-01
-5.70037500e-08,1.75084375e-01
-5.69637500e-08,1.74854687e-01
-5.69237500e-08,1.74918750e-01
-5.68837500e-08,1.74893750e-01
-5.68437500e-08,1.74898438e-01
-5.68037500e-08,1.74910938e-01
-5.67637500e-08,1.74876562e-01
-5.67237500e-08,1.74951563e-01
-5.66837500e-08,1.74693750e-01
-5.66437500e-08,1.74446875e-01
-5.66037500e-08,1.74526563e-01
-5.65637500e-08,1.74484375e-01
-5.65237500e-08,1.74506250e-01
-5.64837500e-08,1.74503125e-01
-5.64437500e-08,1.74485937e-01
-5.64037500e-08,1.74542188e-01
-5.63637500e-08,1.74303125e-01
-5.63237500e-08,1.74035938e-01
-5.62837500e-08,1.74139062e-01
-5.62437500e-08,1.74071875e-01
-5.62037500e-08,1.74121875e-01
-5.61637500e-08,1.74081250e-01
-5.61237500e-08,1.74115625e-01
-5.60837500e-08,1.74087500e-01
-5.60437500e-08,1.74109375e-01
-5.60037500e-08,1.74093750e-01
-5.59637500e-08,1.74103125e-01
-5.59237500e-08,1.74103125e-01
-5.58837500e-08,1.74087500e-01
-5.58437500e-08,1.74135938e-01
-5.58037500e-08,1.73910938e-01
-5.57637500e-08,1.73625000e-01
-5.57237500e-08,1.73753125e-01
-5.56837500e-08,1.73651562e-01
-5.56437500e-08,1.73751563e-01
-5.56037500e-08,1.73626562e-01
-5.55637500e-08,1.73923437e-01
-5.55237500e-08,1.74140625e-01
-5.54837500e-08,1.74081250e-01
-5.54437500e-08,1.74110938e-01
-5.54037500e-08,1.74092187e-01
-5.53637500e-08,1.74106250e-01
-5.53237500e-08,1.74095313e-01
-5.52837500e-08,1.74104687e-01
-5.52437500e-08,1.74093750e-01
-5.52037500e-08,1.74106250e-01
-5.51637500e-08,1.74090625e-01
-5.51237500e-08,1.74112500e-01
-5.50837500e-08,1.74082813e-01
-5.50437500e-08,1.74126562e-01
-5.50037500e-08,1.74048438e-01
-5.49637500e-08,1.74304687e-01
-5.49237500e-08,1.74556250e-01
-5.48837500e-08,1.74467188e-01
-5.48437500e-08,1.74521875e-01
-5.48037500e-08,1.74484375e-01
-5.47637500e-08,1.74512500e-01
-5.47237500e-08,1.74490625e-01
-5.46837500e-08,1.74504688e-01
-5.46437500e-08,1.74498438e-01
-5.46037500e-08,1.74495312e-01
-5.45637500e-08,1.74515625e-01
-5.45237500e-08,1.74459375e-01
-5.44837500e-08,1.74693750e-01
-5.44437500e-08,1.74967188e-01
-5.44037500e-08,1.74856250e-01
-5.43637500e-08,1.74934375e-01
-5.43237500e-08,1.74870313e-01
-5.42837500e-08,1.74926562e-01
-5.42437500e-08,1.74876562e-01
-5.42037500e-08,1.74921875e-01
-5.41637500e-08,1.74878125e-01
-5.41237500e-08,1.74920313e-01
-5.40837500e-08,1.74879688e-01
-5.40437500e-08,1.74918750e-01
-5.40037500e-08,1.74881250e-01
-5.39637500e-08,1.74918750e-01
-5.39237500e-08,1.74881250e-01
-5.38837500e-08,1.74918750e-01
-5.38437500e-08,1.74881250e-01
-5.38037500e-08,1.74920313e-01
-5.37637500e-08,1.74879688e-01
-5.37237500e-08,1.74921875e-01
-5.36837500e-08,1.74878125e-01
-5.36437500e-08,1.74925000e-01
-5.36037500e-08,1.74871875e-01
-5.35637500e-08,1.74932813e-01
-5.35237500e-08,1.74857813e-01
-5.34837500e-08,1.74967188e-01
-5.34437500e-08,1.74679688e-01
-5.34037500e-08,1.74457813e-01
-5.33637500e-08,1.74518750e-01
-5.33237500e-08,1.74490625e-01
-5.32837500e-08,1.74504688e-01
-5.32437500e-08,1.74498438e-01
-5.32037500e-08,1.74500000e-01
-5.31637500e-08,1.74501563e-01
-5.31237500e-08,1.74496875e-01
-5.30837500e-08,1.74504688e-01
-5.30437500e-08,1.74495312e-01
-5.30037500e-08,1.74506250e-01
-5.29637500e-08,1.74493750e-01
-5.29237500e-08,1.74506250e-01
-5.28837500e-08,1.74492188e-01
-5.28437500e-08,1.74507812e-01
-5.28037500e-08,1.74492188e-01
-5.27637500e-08,1.74509375e-01
-5.27237500e-08,1.74490625e-01
-5.26837500e-08,1.74510938e-01
-5.26437500e-08,1.74489063e-01
-5.26037500e-08,1.74512500e-01
-5.25637500e-08,1.74487500e-01
-5.25237500e-08,1.74514063e-01
-5.24837500e-08,1.74482813e-01
-5.24437500e-08,1.74520312e-01
-5.24037500e-08,1.74475000e-01
-5.23637500e-08,1.74534375e-01
-5.23237500e-08,1.74440625e-01
-5.22837500e-08,1.74712500e-01
-5.22437500e-08,1.74950000e-01
-5.22037500e-08,1.74873438e-01
-5.21637500e-08,1.74918750e-01
-5.21237500e-08,1.74885938e-01
-5.20837500e-08,1.74912500e-01
-5.20437500e-08,1.74889062e-01
-5.20037500e-08,1.74912500e-01
-5.19637500e-08,1.74884375e-01
-5.19237500e-08,1.74923438e-01
-5.18837500e-08,1.74853125e-01
-5.18437500e-08,1.75098438e-01
-5.18037500e-08,1.75364063e-01
-5.17637500e-08,1.75257812e-01
-5.17237500e-08,1.75335938e-01
-5.16837500e-08,1.75267188e-01
-5.16437500e-08,1.75334375e-01
-5.16037500e-08,1.75262500e-01
-5.15637500e-08,1.75346875e-01
-5.15237500e-08,1.75229688e-01
-5.14837500e-08,1.75523438e-01
-5.14437500e-08,1.75737500e-01
-5.14037500e-08,1.75685938e-01
-5.13637500e-08,1.75703125e-01
-5.13237500e-08,1.75703125e-01
-5.12837500e-08,1.75692188e-01
-5.12437500e-08,1.75712500e-01
-5.12037500e-08,1.75679688e-01
-5.11637500e-08,1.75729688e-01
-5.11237500e-08,1.75643750e-01
-5.10837500e-08,1.75910938e-01
-5.10437500e-08,1.76151562e-01
-5.10037500e-08,1.76073438e-01
-5.09637500e-08,1.76117187e-01
-5.09237500e-08,1.76089063e-01
-5.08837500e-08,1.76107813e-01
-5.08437500e-08,1.76095313e-01
-5.08037500e-08,1.76103125e-01
-5.07637500e-08,1.76100000e-01
-5.07237500e-08,1.76098438e-01
-5.06837500e-08,1.76103125e-01
-5.06437500e-08,1.76095313e-01
-5.06037500e-08,1.76107813e-01
-5.05637500e-08,1.76089063e-01
-5.05237500e-08,1.76117187e-01
-5.04837500e-08,1.76073438e-01
-5.04437500e-08,1.76151562e-01
-5.04037500e-08,1.75895313e-01
-5.03637500e-08,1.75642188e-01
-5.03237500e-08,1.75734375e-01
-5.02837500e-08,1.75675000e-01
-5.02437500e-08,1.75720313e-01
-5.02037500e-08,1.75681250e-01
-5.01637500e-08,1.75717188e-01
-5.01237500e-08,1.75681250e-01
-5.00837500e-08,1.75721875e-01
-5.00437500e-08,1.75670313e-01
-5.00037500e-08,1.75753125e-01
-4.99637500e-08,1.75495313e-01
-4.99237500e-08,1.75240625e-01
-4.98837500e-08,1.75337500e-01
-4.98437500e-08,1.75270312e-01
-4.98037500e-08,1.75328125e-01
-4.97637500e-08,1.75271875e-01
-4.97237500e-08,1.75332813e-01
-4.96837500e-08,1.75259375e-01
-4.96437500e-08,1.75365625e-01
-4.96037500e-08,1.75081250e-01
-4.95637500e-08,1.74857813e-01
-4.95237500e-08,1.74918750e-01
-4.94837500e-08,1.74892188e-01
-4.94437500e-08,1.74901562e-01
-4.94037500e-08,1.74903125e-01
-4.93637500e-08,1.74892188e-01
-4.93237500e-08,1.74915625e-01
-4.92837500e-08,1.74873438e-01
-4.92437500e-08,1.74951563e-01
-4.92037500e-08,1.74693750e-01
-4.91637500e-08,1.74445313e-01
-4.91237500e-08,1.74529688e-01
-4.90837500e-08,1.74479688e-01
-4.90437500e-08,1.74514063e-01
-4.90037500e-08,1.74490625e-01
-4.89637500e-08,1.74506250e-01
-4.89237500e-08,1.74498438e-01
-4.88837500e-08,1.74498438e-01
-4.88437500e-08,1.74507812e-01
-4.88037500e-08,1.74481250e-01
-4.87637500e-08,1.74543750e-01
-4.87237500e-08,1.74301563e-01
-4.86837500e-08,1.74035938e-01
-4.86437500e-08,1.74140625e-01
-4.86037500e-08,1.74068750e-01
-4.85637500e-08,1.74125000e-01
-4.85237500e-08,1.74078125e-01
-4.84837500e-08,1.74120313e-01
-4.84437500e-08,1.74081250e-01
-4.84037500e-08,1.74118750e-01
-4.83637500e-08,1.74082813e-01
-4.83237500e-08,1.74117187e-01
-4.82837500e-08,1.74082813e-01
-4.82437500e-08,1.74117187e-01
-4.82037500e-08,1.74081250e-01
-4.81637500e-08,1.74120313e-01
-4.81237500e-08,1.74076563e-01
-4.80837500e-08,1.74128125e-01
-4.80437500e-08,1.74062500e-01
-4.80037500e-08,1.74160938e-01
-4.79637500e-08,1.73885938e-01
-4.79237500e-08,1.73651562e-01
-4.78837500e-08,1.73725000e-01
-4.78437500e-08,1.73684375e-01
-4.78037500e-08,1.73710937e-01
-4.77637500e-08,1.73692188e-01
-4.77237500e-08,1.73706250e-01
-4.76837500e-08,1.73695313e-01
-4.76437500e-08,1.73704688e-01
-4.76037500e-08,1.73696875e-01
-4.75637500e-08,1.73703125e-01
-4.75237500e-08,1.73696875e-01
-4.74837500e-08,1.73703125e-01
-4.74437500e-08,1.73696875e-01
-4.74037500e-08,1.73703125e-01
-4.73637500e-08,1.73696875e-01
-4.73237500e-08,1.73703125e-01
-4.72837500e-08,1.73696875e-01
-4.72437500e-08,1.73703125e-01
-4.72037500e-08,1.73696875e-01
-4.71637500e-08,1.73703125e-01
-4.71237500e-08,1.73695313e-01
-4.70837500e-08,1.73704688e-01
-4.70437500e-08,1.73695313e-01
-4.70037500e-08,1.73706250e-01
-4.69637500e-08,1.73693750e-01
-4.69237500e-08,1.73707813e-01
-4.68837500e-08,1.73689063e-01
-4.68437500e-08,1.73712500e-01
-4.68037500e-08,1.73681250e-01
-4.67637500e-08,1.73728125e-01
-4.67237500e-08,1.73648438e-01
-4.66837500e-08,1.73904688e-01
-4.66437500e-08,1.74157813e-01
-4.66037500e-08,1.74065625e-01
-4.65637500e-08,1.74125000e-01
-4.65237500e-08,1.74079687e-01
-4.64837500e-08,1.74117187e-01
-4.64437500e-08,1.74082813e-01
-4.64037500e-08,1.74115625e-01
-4.63637500e-08,1.74082813e-01
-4.63237500e-08,1.74118750e-01
-4.62837500e-08,1.74078125e-01
-4.62437500e-08,1.74131250e-01
-4.62037500e-08,1.74045312e-01
-4.61637500e-08,1.74306250e-01
-4.61237500e-08,1.74557813e-01
-4.60837500e-08,1.74464063e-01
-4.60437500e-08,1.74529688e-01
-4.60037500e-08,1.74470313e-01
-4.59637500e-08,1.74535938e-01
-4.59237500e-08,1.74440625e-01
-4.58837500e-08,1.74709375e-01
-4.58437500e-08,1.74954688e-01
-4.58037500e-08,1.74867187e-01
-4.57637500e-08,1.74926562e-01
-4.57237500e-08,1.74873438e-01
-4.56837500e-08,1.74932813e-01
-4.56437500e-08,1.74845313e-01
-4.56037500e-08,1.75104687e-01
-4.55637500e-08,1.75359375e-01
-4.55237500e-08,1.75260938e-01
-4.54837500e-08,1.75334375e-01
-4.54437500e-08,1.75265625e-01
-4.54037500e-08,1.75342187e-01
-4.53637500e-08,1.75234375e-01
-4.53237500e-08,1.75518750e-01
-4.52837500e-08,1.75742188e-01
-4.52437500e-08,1.75681250e-01
-4.52037500e-08,1.75707813e-01
-4.51637500e-08,1.75700000e-01
-4.51237500e-08,1.75692188e-01
-4.50837500e-08,1.75718750e-01
-4.50437500e-08,1.75654688e-01
-4.50037500e-08,1.75900000e-01
-4.49637500e-08,1.76162500e-01
-4.49237500e-08,1.76062500e-01
-4.48837500e-08,1.76128125e-01
-4.48437500e-08,1.76078125e-01
-4.48037500e-08,1.76118750e-01
-4.47637500e-08,1.76082813e-01
-4.47237500e-08,1.76114063e-01
-4.46837500e-08,1.76085938e-01
-4.46437500e-08,1.76112500e-01
-4.46037500e-08,1.76089063e-01
-4.45637500e-08,1.76110938e-01
-4.45237500e-08,1.76090625e-01
-4.44837500e-08,1.76109375e-01
-4.44437500e-08,1.76092187e-01
-4.44037500e-08,1.76107813e-01
-4.43637500e-08,1.76093750e-01
-4.43237500e-08,1.76106250e-01
-4.42837500e-08,1.76095313e-01
-4.42437500e-08,1.76103125e-01
-4.42037500e-08,1.76098438e-01
-4.41637500e-08,1.76098438e-01
-4.41237500e-08,1.76106250e-01
-4.40837500e-08,1.76084375e-01
-4.40437500e-08,1.76140625e-01
-4.40037500e-08,1.75906250e-01
-4.39637500e-08,1.75629688e-01
-4.39237500e-08,1.75746875e-01
-4.38837500e-08,1.75662500e-01
-4.38437500e-08,1.75734375e-01
-4.38037500e-08,1.75667188e-01
-4.37637500e-08,1.75732813e-01
-4.37237500e-08,1.75665625e-01
-4.36837500e-08,1.75739063e-01
-4.36437500e-08,1.75651562e-01
-4.36037500e-08,1.75773438e-01
-4.35637500e-08,1.75473437e-01
-4.35237500e-08,1.75264063e-01
-4.34837500e-08,1.75312500e-01
-4.34437500e-08,1.75296875e-01
-4.34037500e-08,1.75296875e-01
-4.33637500e-08,1.75306250e-01
-4.33237500e-08,1.75290625e-01
-4.32837500e-08,1.75314063e-01
-4.32437500e-08,1.75282812e-01
-4.32037500e-08,1.75323438e-01
-4.31637500e-08,1.75265625e-01
-4.31237500e-08,1.75359375e-01
-4.30837500e-08,1.75087500e-01
-4.30437500e-08,1.74851563e-01
-4.30037500e-08,1.74925000e-01
-4.29637500e-08,1.74884375e-01
-4.29237500e-08,1.74909375e-01
-4.28837500e-08,1.74893750e-01
-4.28437500e-08,1.74904688e-01
-4.28037500e-08,1.74896875e-01
-4.27637500e-08,1.74901562e-01
-4.27237500e-08,1.74900000e-01
-4.26837500e-08,1.74898438e-01
-4.26437500e-08,1.74901562e-01
-4.26037500e-08,1.74896875e-01
-4.25637500e-08,1.74904688e-01
-4.25237500e-08,1.74895313e-01
-4.24837500e-08,1.74906250e-01
-4.24437500e-08,1.74892188e-01
-4.24037500e-08,1.74909375e-01
-4.23637500e-08,1.74889062e-01
-4.23237500e-08,1.74914062e-01
-4.22837500e-08,1.74882813e-01
-4.22437500e-08,1.74921875e-01
-4.22037500e-08,1.74868750e-01
-4.21637500e-08,1.74957813e-01
-4.21237500e-08,1.74689063e-01
-4.20837500e-08,1.74448437e-01
-4.20437500e-08,1.74526563e-01
-4.20037500e-08,1.74482813e-01
-4.19637500e-08,1.74512500e-01
-4.19237500e-08,1.74492188e-01
-4.18837500e-08,1.74506250e-01
-4.18437500e-08,1.74496875e-01
-4.18037500e-08,1.74501563e-01
-4.17637500e-08,1.74500000e-01
-4.17237500e-08,1.74496875e-01
-4.16837500e-08,1.74504688e-01
-4.16437500e-08,1.74492188e-01
-4.16037500e-08,1.74514063e-01
-4.15637500e-08,1.74476563e-01
-4.15237500e-08,1.74548438e-01
-4.14837500e-08,1.74298438e-01
-4.14437500e-08,1.74039063e-01
-4.14037500e-08,1.74135938e-01
-4.13637500e-08,1.74073438e-01
-4.13237500e-08,1.74121875e-01
-4.12837500e-08,1.74079687e-01
-4.12437500e-08,1.74118750e-01
-4.12037500e-08,1.74082813e-01
-4.11637500e-08,1.74117187e-01
-4.11237500e-08,1.74082813e-01
-4.10837500e-08,1.74118750e-01
-4.10437500e-08,1.74079687e-01
-4.10037500e-08,1.74125000e-01
-4.09637500e-08,1.74065625e-01
-4.09237500e-08,1.74159375e-01
-4.08837500e-08,1.73889062e-01
-4.08437500e-08,1.73648438e-01
-4.08037500e-08,1.73728125e-01
-4.07637500e-08,1.73681250e-01
-4.07237500e-08,1.73715625e-01
-4.06837500e-08,1.73687500e-01
-4.06437500e-08,1.73710937e-01
-4.06037500e-08,1.73689063e-01
-4.05637500e-08,1.73710937e-01
-4.05237500e-08,1.73689063e-01
-4.04837500e-08,1.73710937e-01
-4.04437500e-08,1.73687500e-01
-4.04037500e-08,1.73715625e-01
-4.03637500e-08,1.73679688e-01
-4.03237500e-08,1.73729688e-01
-4.02837500e-08,1.73645313e-01
-4.02437500e-08,1.73906250e-01
-4.02037500e-08,1.74156250e-01
-4.01637500e-08,1.74067187e-01
-4.01237500e-08,1.74123438e-01
-4.00837500e-08,1.74081250e-01
-4.00437500e-08,1.74117187e-01
-4.00037500e-08,1.74084375e-01
-3.99637500e-08,1.74114062e-01
-3.99237500e-08,1.74085938e-01
-3.98837500e-08,1.74115625e-01
-3.98437500e-08,1.74082813e-01
-3.98037500e-08,1.74118750e-01
-3.97637500e-08,1.74076563e-01
-3.97237500e-08,1.74132813e-01
-3.96837500e-08,1.74042188e-01
-3.96437500e-08,1.74310938e-01
-3.96037500e-08,1.74551563e-01
-3.95637500e-08,1.74471875e-01
-3.95237500e-08,1.74518750e-01
-3.94837500e-08,1.74485937e-01
-3.94437500e-08,1.74512500e-01
-3.94037500e-08,1.74490625e-01
-3.93637500e-08,1.74509375e-01
-3.93237500e-08,1.74492188e-01
-3.92837500e-08,1.74507812e-01
-3.92437500e-08,1.74493750e-01
-3.92037500e-08,1.74506250e-01
-3.91637500e-08,1.74493750e-01
-3.91237500e-08,1.74506250e-01
-3.90837500e-08,1.74495312e-01
-3.90437500e-08,1.74504688e-01
-3.90037500e-08,1.74495312e-01
-3.89637500e-08,1.74504688e-01
-3.89237500e-08,1.74495312e-01
-3.88837500e-08,1.74504688e-01
-3.88437500e-08,1.74495312e-01
-3.88037500e-08,1.74504688e-01
-3.87637500e-08,1.74495312e-01
-3.87237500e-08,1.74504688e-01
-3.86837500e-08,1.74495312e-01
-3.86437500e-08,1.74504688e-01
-3.86037500e-08,1.74495312e-01
-3.85637500e-08,1.74506250e-01
-3.85237500e-08,1.74493750e-01
