trails/0a08b63e0bce357032480812e7e37d0e/aes_ch1_20250506174605005.csv

Model,MSO66B
Label,
Waveform Type,ANALOG
Horizontal Units,s
Sample Interval,4.00000000e-11
Record Length,10000
Zero Index,1599.04296875
Vertical Units,A
ANALOG_Thumbnail,
yOffset,1.84500000e-01
yPosition,8.40000000e-01

Labels,
TIME,CH1
-6.39617187e-08,2.00907813e-01
-6.39217187e-08,2.00892188e-01
-6.38817188e-08,2.00909375e-01
-6.38417187e-08,2.00890625e-01
-6.38017187e-08,2.00909375e-01
-6.37617187e-08,2.00889062e-01
-6.37217187e-08,2.00910937e-01
-6.36817187e-08,2.00885938e-01
-6.36417187e-08,2.00915625e-01
-6.36017188e-08,2.00878125e-01
-6.35617187e-08,2.00931250e-01
-6.35217187e-08,2.00843750e-01
-6.34817187e-08,2.01109375e-01
-6.34417187e-08,2.01353125e-01
-6.34017187e-08,2.01270312e-01
-6.33617187e-08,2.01320313e-01
-6.33217188e-08,2.01284375e-01
-6.32817187e-08,2.01312500e-01
-6.32417187e-08,2.01289063e-01
-6.32017187e-08,2.01309375e-01
-6.31617187e-08,2.01292187e-01
-6.31217187e-08,2.01307813e-01
-6.30817187e-08,2.01293750e-01
-6.30417188e-08,2.01306250e-01
-6.30017187e-08,2.01293750e-01
-6.29617187e-08,2.01304687e-01
-6.29217187e-08,2.01295313e-01
-6.28817187e-08,2.01304687e-01
-6.28417188e-08,2.01295313e-01
-6.28017187e-08,2.01304687e-01
-6.27617188e-08,2.01295313e-01
-6.27217187e-08,2.01304687e-01
-6.26817187e-08,2.01296875e-01
-6.26417187e-08,2.01303125e-01
-6.26017187e-08,2.01296875e-01
-6.25617188e-08,2.01303125e-01
-6.25217187e-08,2.01296875e-01
-6.24817188e-08,2.01303125e-01
-6.24417187e-08,2.01296875e-01
-6.24017187e-08,2.01303125e-01
-6.23617187e-08,2.01296875e-01
-6.23217187e-08,2.01303125e-01
-6.22817188e-08,2.01296875e-01
-6.22417187e-08,2.01303125e-01
-6.22017188e-08,2.01296875e-01
-6.21617187e-08,2.01301563e-01
-6.21217187e-08,2.01298438e-01
-6.20817187e-08,2.01301563e-01
-6.20417187e-08,2.01298438e-01
-6.20017188e-08,2.01301563e-01
-6.19617187e-08,2.01298438e-01
-6.19217188e-08,2.01301563e-01
-6.18817187e-08,2.01298438e-01
-6.18417187e-08,2.01301563e-01
-6.18017187e-08,2.01300000e-01
-6.17617187e-08,2.01300000e-01
-6.17217188e-08,2.01300000e-01
-6.16817187e-08,2.01300000e-01
-6.16417188e-08,2.01301563e-01
-6.16017187e-08,2.01298438e-01
-6.15617187e-08,2.01301563e-01
-6.15217187e-08,2.01296875e-01
-6.14817187e-08,2.01304687e-01
-6.14417188e-08,2.01293750e-01
-6.14017187e-08,2.01309375e-01
-6.13617188e-08,2.01285938e-01
-6.13217187e-08,2.01323438e-01
-6.12817187e-08,2.01251563e-01
-6.12417187e-08,2.01501563e-01
-6.12017187e-08,2.01760938e-01
-6.11617188e-08,2.01662500e-01
-6.11217187e-08,2.01728125e-01
-6.10817188e-08,2.01676563e-01
-6.10417187e-08,2.01720312e-01
-6.10017187e-08,2.01681250e-01
-6.09617187e-08,2.01718750e-01
-6.09217187e-08,2.01681250e-01
-6.08817188e-08,2.01718750e-01
-6.08417187e-08,2.01681250e-01
-6.08017188e-08,2.01720312e-01
-6.07617187e-08,2.01678125e-01
-6.07217187e-08,2.01723438e-01
-6.06817187e-08,2.01671875e-01
-6.06417187e-08,2.01737500e-01
-6.06017188e-08,2.01637500e-01
-6.05617187e-08,2.01915625e-01
-6.05217187e-08,2.02146875e-01
-6.04817187e-08,2.02076563e-01
-6.04417187e-08,2.02114062e-01
-6.04017187e-08,2.02090625e-01
-6.03617187e-08,2.02106250e-01
-6.03217188e-08,2.02095313e-01
-6.02817187e-08,2.02103125e-01
-6.02417187e-08,2.02098438e-01
-6.02017187e-08,2.02100000e-01
-6.01617187e-08,2.02100000e-01
-6.01217187e-08,2.02100000e-01
-6.00817187e-08,2.02101562e-01
-6.00417188e-08,2.02098438e-01
-6.00017187e-08,2.02101562e-01
-5.99617187e-08,2.02098438e-01
-5.99217187e-08,2.02103125e-01
-5.98817187e-08,2.02096875e-01
-5.98417187e-08,2.02103125e-01
-5.98017187e-08,2.02096875e-01
-5.97617188e-08,2.02103125e-01
-5.97217187e-08,2.02095313e-01
-5.96817187e-08,2.02104688e-01
-5.96417187e-08,2.02095313e-01
-5.96017187e-08,2.02106250e-01
-5.95617187e-08,2.02093750e-01
-5.95217187e-08,2.02106250e-01
-5.94817187e-08,2.02092188e-01
-5.94417187e-08,2.02109375e-01
-5.94017187e-08,2.02089062e-01
-5.93617187e-08,2.02112500e-01
-5.93217187e-08,2.02084375e-01
-5.92817187e-08,2.02120313e-01
-5.92417187e-08,2.02070313e-01
-5.92017187e-08,2.02154688e-01
-5.91617187e-08,2.01892188e-01
-5.91217187e-08,2.01645313e-01
-5.90817187e-08,2.01731250e-01
-5.90417187e-08,2.01678125e-01
-5.90017187e-08,2.01717188e-01
-5.89617187e-08,2.01685938e-01
-5.89217187e-08,2.01712500e-01
-5.88817187e-08,2.01687500e-01
-5.88417187e-08,2.01710938e-01
-5.88017187e-08,2.01689063e-01
-5.87617187e-08,2.01712500e-01
-5.87217187e-08,2.01687500e-01
-5.86817187e-08,2.01714063e-01
-5.86417187e-08,2.01682813e-01
-5.86017187e-08,2.01721875e-01
-5.85617187e-08,2.01668750e-01
-5.85217187e-08,2.01754688e-01
-5.84817187e-08,2.01492188e-01
-5.84417187e-08,2.01245312e-01
-5.84017187e-08,2.01331250e-01
-5.83617187e-08,2.01278125e-01
-5.83217187e-08,2.01317187e-01
-5.82817187e-08,2.01285938e-01
-5.82417187e-08,2.01312500e-01
-5.82017187e-08,2.01289063e-01
-5.81617187e-08,2.01310938e-01
-5.81217187e-08,2.01290625e-01
-5.80817187e-08,2.01309375e-01
-5.80417187e-08,2.01290625e-01
-5.80017187e-08,2.01309375e-01
-5.79617187e-08,2.01290625e-01
-5.79217187e-08,2.01309375e-01
-5.78817187e-08,2.01290625e-01
-5.78417187e-08,2.01309375e-01
-5.78017187e-08,2.01290625e-01
-5.77617187e-08,2.01310938e-01
-5.77217187e-08,2.01289063e-01
-5.76817187e-08,2.01310938e-01
-5.76417187e-08,2.01287500e-01
-5.76017187e-08,2.01314063e-01
-5.75617187e-08,2.01284375e-01
-5.75217187e-08,2.01318750e-01
-5.74817187e-08,2.01275000e-01
-5.74417187e-08,2.01334375e-01
-5.74017187e-08,2.01240625e-01
-5.73617187e-08,2.01512500e-01
-5.73217187e-08,2.01750000e-01
-5.72817187e-08,2.01673437e-01
-5.72417187e-08,2.01717188e-01
-5.72017187e-08,2.01687500e-01
-5.71617187e-08,2.01709375e-01
-5.71217187e-08,2.01693750e-01
-5.70817187e-08,2.01706250e-01
-5.70417187e-08,2.01695313e-01
-5.70017187e-08,2.01703125e-01
-5.69617187e-08,2.01696875e-01
-5.69217187e-08,2.01701563e-01
-5.68817187e-08,2.01698437e-01
-5.68417187e-08,2.01701563e-01
-5.68017187e-08,2.01700000e-01
-5.67617187e-08,2.01700000e-01
-5.67217187e-08,2.01700000e-01
-5.66817187e-08,2.01700000e-01
-5.66417187e-08,2.01700000e-01
-5.66017187e-08,2.01698437e-01
-5.65617187e-08,2.01701563e-01
-5.65217187e-08,2.01698437e-01
-5.64817187e-08,2.01701563e-01
-5.64417187e-08,2.01698437e-01
-5.64017187e-08,2.01701563e-01
-5.63617187e-08,2.01696875e-01
-5.63217187e-08,2.01703125e-01
-5.62817187e-08,2.01696875e-01
-5.62417187e-08,2.01703125e-01
-5.62017187e-08,2.01696875e-01
-5.61617187e-08,2.01703125e-01
-5.61217187e-08,2.01695313e-01
-5.60817187e-08,2.01704688e-01
-5.60417187e-08,2.01695313e-01
-5.60017187e-08,2.01704688e-01
-5.59617187e-08,2.01693750e-01
-5.59217187e-08,2.01706250e-01
-5.58817187e-08,2.01693750e-01
-5.58417187e-08,2.01707812e-01
-5.58017187e-08,2.01692188e-01
-5.57617187e-08,2.01709375e-01
-5.57217187e-08,2.01689063e-01
-5.56817187e-08,2.01712500e-01
-5.56417187e-08,2.01685938e-01
-5.56017187e-08,2.01717188e-01
-5.55617187e-08,2.01676563e-01
-5.55217187e-08,2.01732812e-01
-5.54817187e-08,2.01642188e-01
-5.54417187e-08,2.01910937e-01
-5.54017187e-08,2.02150000e-01
-5.53617187e-08,2.02073438e-01
-5.53217187e-08,2.02117188e-01
-5.52817187e-08,2.02089062e-01
-5.52417187e-08,2.02107813e-01
-5.52017187e-08,2.02095313e-01
-5.51617187e-08,2.02103125e-01
-5.51217187e-08,2.02098438e-01
-5.50817187e-08,2.02100000e-01
-5.50417187e-08,2.02101562e-01
-5.50017187e-08,2.02095313e-01
-5.49617187e-08,2.02106250e-01
-5.49217187e-08,2.02089062e-01
-5.48817187e-08,2.02115625e-01
-5.48417187e-08,2.02073438e-01
-5.48017187e-08,2.02151562e-01
-5.47617187e-08,2.01895313e-01
-5.47217187e-08,2.01642188e-01
-5.46817187e-08,2.01732812e-01
-5.46417187e-08,2.01676563e-01
-5.46017187e-08,2.01717188e-01
-5.45617187e-08,2.01685938e-01
-5.45217187e-08,2.01712500e-01
-5.44817187e-08,2.01690625e-01
-5.44417187e-08,2.01707812e-01
-5.44017187e-08,2.01693750e-01
-5.43617187e-08,2.01704688e-01
-5.43217187e-08,2.01696875e-01
-5.42817187e-08,2.01701563e-01
-5.42417187e-08,2.01700000e-01
-5.42017187e-08,2.01696875e-01
-5.41617187e-08,2.01709375e-01
-5.41217187e-08,2.01681250e-01
-5.40817187e-08,2.01743750e-01
-5.40417187e-08,2.01503125e-01
-5.40017187e-08,2.01234375e-01
-5.39617187e-08,2.01342188e-01
-5.39217187e-08,2.01265625e-01
-5.38817187e-08,2.01329688e-01
-5.38417187e-08,2.01273438e-01
-5.38017187e-08,2.01326563e-01
-5.37617187e-08,2.01273438e-01
-5.37217187e-08,2.01326563e-01
-5.36817187e-08,2.01270312e-01
-5.36417187e-08,2.01334375e-01
-5.36017187e-08,2.01257813e-01
-5.35617187e-08,2.01367188e-01
-5.35217187e-08,2.01079687e-01
-5.34817187e-08,2.00857813e-01
-5.34417187e-08,2.00918750e-01
-5.34017187e-08,2.00890625e-01
-5.33617187e-08,2.00904688e-01
-5.33217187e-08,2.00898437e-01
-5.32817187e-08,2.00898437e-01
-5.32417188e-08,2.00903125e-01
-5.32017187e-08,2.00895313e-01
-5.31617187e-08,2.00906250e-01
-5.31217187e-08,2.00892188e-01
-5.30817187e-08,2.00910937e-01
-5.30417187e-08,2.00885938e-01
-5.30017187e-08,2.00918750e-01
-5.29617187e-08,2.00870313e-01
-5.29217187e-08,2.00954688e-01
-5.28817187e-08,2.00692188e-01
-5.28417187e-08,2.00445313e-01
-5.28017187e-08,2.00531250e-01
-5.27617187e-08,2.00478125e-01
-5.27217187e-08,2.00517187e-01
-5.26817187e-08,2.00485938e-01
-5.26417187e-08,2.00512500e-01
-5.26017187e-08,2.00487500e-01
-5.25617187e-08,2.00510938e-01
-5.25217187e-08,2.00489063e-01
-5.24817187e-08,2.00512500e-01
-5.24417187e-08,2.00485938e-01
-5.24017187e-08,2.00515625e-01
-5.23617187e-08,2.00479688e-01
-5.23217187e-08,2.00529687e-01
-5.22817187e-08,2.00446875e-01
-5.22417187e-08,2.00706250e-01
-5.22017187e-08,2.00956250e-01
-5.21617187e-08,2.00865625e-01
-5.21217187e-08,2.00925000e-01
-5.20817187e-08,2.00878125e-01
-5.20417187e-08,2.00918750e-01
-5.20017187e-08,2.00881250e-01
-5.19617187e-08,2.00918750e-01
-5.19217187e-08,2.00879688e-01
-5.18817187e-08,2.00921875e-01
-5.18417187e-08,2.00873438e-01
-5.18017187e-08,2.00937500e-01
-5.17617187e-08,2.00839062e-01
-5.17217187e-08,2.01114062e-01
-5.16817187e-08,2.01346875e-01
-5.16417187e-08,2.01276563e-01
-5.16017187e-08,2.01312500e-01
-5.15617187e-08,2.01292187e-01
-5.15217187e-08,2.01303125e-01
-5.14817187e-08,2.01301563e-01
-5.14417187e-08,2.01292187e-01
-5.14017187e-08,2.01318750e-01
-5.13617187e-08,2.01256250e-01
-5.13217188e-08,2.01495312e-01
-5.12817187e-08,2.01767188e-01
-5.12417187e-08,2.01656250e-01
-5.12017187e-08,2.01735938e-01
-5.11617187e-08,2.01667188e-01
-5.11217187e-08,2.01732812e-01
-5.10817187e-08,2.01664063e-01
-5.10417187e-08,2.01743750e-01
-5.10017187e-08,2.01631250e-01
-5.09617187e-08,2.01921875e-01
-5.09217187e-08,2.02140625e-01
-5.08817187e-08,2.02082813e-01
-5.08417187e-08,2.02106250e-01
-5.08017187e-08,2.02101562e-01
-5.07617187e-08,2.02092188e-01
-5.07217187e-08,2.02118750e-01
-5.06817187e-08,2.02056250e-01
-5.06417187e-08,2.02296875e-01
-5.06017187e-08,2.02565625e-01
-5.05617187e-08,2.02457813e-01
-5.05217187e-08,2.02534375e-01
-5.04817187e-08,2.02468750e-01
-5.04417187e-08,2.02531250e-01
-5.04017187e-08,2.02465625e-01
-5.03617187e-08,2.02542187e-01
-5.03217187e-08,2.02432813e-01
-5.02817187e-08,2.02720312e-01
-5.02417187e-08,2.02942188e-01
-5.02017187e-08,2.02881250e-01
-5.01617187e-08,2.02907813e-01
-5.01217187e-08,2.02900000e-01
-5.00817187e-08,2.02892188e-01
-5.00417187e-08,2.02918750e-01
-5.00017187e-08,2.02856250e-01
-4.99617187e-08,2.03096875e-01
-4.99217187e-08,2.03365625e-01
-4.98817187e-08,2.03257812e-01
-4.98417187e-08,2.03334375e-01
-4.98017187e-08,2.03268750e-01
-4.97617187e-08,2.03331250e-01
-4.97217187e-08,2.03265625e-01
-4.96817187e-08,2.03342187e-01
-4.96417187e-08,2.03234375e-01
-4.96017187e-08,2.03517188e-01
-4.95617187e-08,2.03745312e-01
-4.95217187e-08,2.03678125e-01
-4.94817187e-08,2.03712500e-01
-4.94417187e-08,2.03690625e-01
-4.94017188e-08,2.03706250e-01
-4.93617187e-08,2.03695313e-01
-4.93217187e-08,2.03703125e-01
-4.92817187e-08,2.03696875e-01
-4.92417187e-08,2.03701563e-01
-4.92017187e-08,2.03698437e-01
-4.91617187e-08,2.03700000e-01
-4.91217188e-08,2.03700000e-01
-4.90817187e-08,2.03700000e-01
-4.90417187e-08,2.03700000e-01
-4.90017187e-08,2.03700000e-01
-4.89617187e-08,2.03700000e-01
-4.89217187e-08,2.03698437e-01
-4.88817187e-08,2.03701563e-01
-4.88417187e-08,2.03698437e-01
-4.88017187e-08,2.03701563e-01
-4.87617187e-08,2.03698437e-01
-4.87217187e-08,2.03701563e-01
-4.86817187e-08,2.03698437e-01
-4.86417187e-08,2.03701563e-01
-4.86017187e-08,2.03696875e-01
-4.85617187e-08,2.03703125e-01
-4.85217187e-08,2.03696875e-01
-4.84817187e-08,2.03703125e-01
-4.84417187e-08,2.03695313e-01
-4.84017187e-08,2.03704688e-01
-4.83617187e-08,2.03693750e-01
-4.83217187e-08,2.03706250e-01
-4.82817187e-08,2.03692188e-01
-4.82417187e-08,2.03709375e-01
-4.82017187e-08,2.03687500e-01
-4.81617187e-08,2.03717188e-01
-4.81217187e-08,2.03673437e-01
-4.80817187e-08,2.03751563e-01
-4.80417187e-08,2.03496875e-01
-4.80017187e-08,2.03240625e-01
-4.79617187e-08,2.03335938e-01
-4.79217187e-08,2.03271875e-01
-4.78817187e-08,2.03325000e-01
-4.78417187e-08,2.03275000e-01
-4.78017187e-08,2.03328125e-01
-4.77617187e-08,2.03265625e-01
-4.77217187e-08,2.03357813e-01
-4.76817187e-08,2.03090625e-01
-4.76417187e-08,2.02846875e-01
-4.76017187e-08,2.02931250e-01
-4.75617187e-08,2.02876562e-01
-4.75217187e-08,2.02921875e-01
-4.74817188e-08,2.02878125e-01
-4.74417187e-08,2.02925000e-01
-4.74017187e-08,2.02867188e-01
-4.73617187e-08,2.02956250e-01
-4.73217187e-08,2.02690625e-01
-4.72817187e-08,2.02445313e-01
-4.72417187e-08,2.02531250e-01
-4.72017188e-08,2.02478125e-01
-4.71617187e-08,2.02518750e-01
-4.71217187e-08,2.02482812e-01
-4.70817187e-08,2.02515625e-01
-4.70417187e-08,2.02484375e-01
-4.70017187e-08,2.02517188e-01
-4.69617187e-08,2.02481250e-01
-4.69217188e-08,2.02523438e-01
-4.68817187e-08,2.02467188e-01
-4.68417187e-08,2.02556250e-01
-4.68017187e-08,2.02290625e-01
-4.67617187e-08,2.02045313e-01
-4.67217187e-08,2.02131250e-01
-4.66817187e-08,2.02078125e-01
-4.66417187e-08,2.02117188e-01
-4.66017187e-08,2.02084375e-01
-4.65617187e-08,2.02114062e-01
-4.65217187e-08,2.02087500e-01
-4.64817187e-08,2.02112500e-01
-4.64417187e-08,2.02087500e-01
-4.64017187e-08,2.02114062e-01
-4.63617187e-08,2.02085938e-01
-4.63217187e-08,2.02117188e-01
-4.62817187e-08,2.02081250e-01
-4.62417187e-08,2.02125000e-01
-4.62017187e-08,2.02065625e-01
-4.61617187e-08,2.02159375e-01
-4.61217187e-08,2.01887500e-01
-4.60817187e-08,2.01650000e-01
-4.60417187e-08,2.01725000e-01
-4.60017187e-08,2.01684375e-01
-4.59617187e-08,2.01710938e-01
-4.59217187e-08,2.01693750e-01
-4.58817187e-08,2.01703125e-01
-4.58417187e-08,2.01700000e-01
-4.58017187e-08,2.01696875e-01
-4.57617187e-08,2.01709375e-01
-4.57217187e-08,2.01681250e-01
-4.56817187e-08,2.01743750e-01
-4.56417187e-08,2.01503125e-01
-4.56017187e-08,2.01234375e-01
-4.55617188e-08,2.01342188e-01
-4.55217187e-08,2.01267187e-01
-4.54817187e-08,2.01329688e-01
-4.54417187e-08,2.01273438e-01
-4.54017187e-08,2.01326563e-01
-4.53617187e-08,2.01271875e-01
-4.53217187e-08,2.01332813e-01
-4.52817188e-08,2.01259375e-01
-4.52417187e-08,2.01365625e-01
-4.52017187e-08,2.01082813e-01
-4.51617187e-08,2.00854688e-01
-4.51217187e-08,2.00921875e-01
-4.50817187e-08,2.00887500e-01
-4.50417187e-08,2.00907813e-01
-4.50017188e-08,2.00895313e-01
-4.49617187e-08,2.00903125e-01
-4.49217187e-08,2.00896875e-01
-4.48817187e-08,2.00901563e-01
-4.48417187e-08,2.00898437e-01
-4.48017187e-08,2.00900000e-01
-4.47617187e-08,2.00900000e-01
-4.47217188e-08,2.00900000e-01
-4.46817187e-08,2.00901563e-01
-4.46417187e-08,2.00898437e-01
-4.46017187e-08,2.00901563e-01
-4.45617187e-08,2.00898437e-01
-4.45217187e-08,2.00901563e-01
-4.44817187e-08,2.00898437e-01
-4.44417187e-08,2.00901563e-01
-4.44017187e-08,2.00896875e-01
-4.43617187e-08,2.00903125e-01
-4.43217187e-08,2.00896875e-01
-4.42817187e-08,2.00903125e-01
-4.42417187e-08,2.00896875e-01
-4.42017187e-08,2.00903125e-01
-4.41617187e-08,2.00895313e-01
-4.41217187e-08,2.00904688e-01
-4.40817187e-08,2.00895313e-01
-4.40417187e-08,2.00904688e-01
-4.40017187e-08,2.00893750e-01
-4.39617187e-08,2.00906250e-01
-4.39217188e-08,2.00892188e-01
-4.38817187e-08,2.00909375e-01
-4.38417187e-08,2.00889062e-01
-4.38017187e-08,2.00914063e-01
-4.37617187e-08,2.00881250e-01
-4.37217187e-08,2.00928125e-01
-4.36817187e-08,2.00846875e-01
-4.36417188e-08,2.01106250e-01
-4.36017187e-08,2.01356250e-01
-4.35617187e-08,2.01267187e-01
-4.35217187e-08,2.01323438e-01
-4.34817187e-08,2.01281250e-01
-4.34417187e-08,2.01315625e-01
-4.34017187e-08,2.01285938e-01
-4.33617188e-08,2.01312500e-01
-4.33217187e-08,2.01287500e-01
-4.32817187e-08,2.01312500e-01
-4.32417187e-08,2.01287500e-01
-4.32017187e-08,2.01312500e-01
-4.31617187e-08,2.01287500e-01
-4.31217187e-08,2.01314063e-01
-4.30817188e-08,2.01284375e-01
-4.30417187e-08,2.01318750e-01
-4.30017187e-08,2.01276563e-01
-4.29617187e-08,2.01332813e-01
-4.29217187e-08,2.01242188e-01
-4.28817187e-08,2.01510938e-01
-4.28417187e-08,2.01751563e-01
-4.28017188e-08,2.01671875e-01
-4.27617187e-08,2.01718750e-01
-4.27217187e-08,2.01685938e-01
-4.26817187e-08,2.01710938e-01
-4.26417187e-08,2.01690625e-01
-4.26017187e-08,2.01707812e-01
-4.25617187e-08,2.01692188e-01
-4.25217188e-08,2.01706250e-01
-4.24817187e-08,2.01693750e-01
-4.24417187e-08,2.01704688e-01
-4.24017187e-08,2.01695313e-01
-4.23617187e-08,2.01704688e-01
-4.23217187e-08,2.01695313e-01
-4.22817187e-08,2.01704688e-01
-4.22417187e-08,2.01695313e-01
-4.22017187e-08,2.01704688e-01
-4.21617187e-08,2.01695313e-01
-4.21217187e-08,2.01703125e-01
-4.20817187e-08,2.01696875e-01
-4.20417187e-08,2.01703125e-01
-4.20017188e-08,2.01696875e-01
-4.19617187e-08,2.01703125e-01
-4.19217187e-08,2.01696875e-01
-4.18817187e-08,2.01703125e-01
-4.18417187e-08,2.01696875e-01
-4.18017187e-08,2.01703125e-01
-4.17617187e-08,2.01696875e-01
-4.17217188e-08,2.01704688e-01
-4.16817187e-08,2.01695313e-01
-4.16417187e-08,2.01704688e-01
-4.16017187e-08,2.01695313e-01
-4.15617187e-08,2.01704688e-01
-4.15217187e-08,2.01695313e-01
-4.14817187e-08,2.01704688e-01
-4.14417188e-08,2.01695313e-01
-4.14017187e-08,2.01706250e-01
-4.13617187e-08,2.01693750e-01
-4.13217187e-08,2.01707812e-01
-4.12817187e-08,2.01692188e-01
-4.12417187e-08,2.01709375e-01
-4.12017187e-08,2.01689063e-01
-4.11617188e-08,2.01714063e-01
-4.11217187e-08,2.01681250e-01
-4.10817187e-08,2.01728125e-01
-4.10417187e-08,2.01646875e-01
-4.10017187e-08,2.01906250e-01
-4.09617187e-08,2.02156250e-01
-4.09217187e-08,2.02067188e-01
-4.08817188e-08,2.02123438e-01
-4.08417187e-08,2.02081250e-01
-4.08017187e-08,2.02117188e-01
-4.07617187e-08,2.02084375e-01
-4.07217187e-08,2.02114062e-01
-4.06817187e-08,2.02085938e-01
-4.06417187e-08,2.02115625e-01
-4.06017188e-08,2.02082813e-01
-4.05617187e-08,2.02118750e-01
-4.05217187e-08,2.02076563e-01
-4.04817187e-08,2.02132813e-01
-4.04417187e-08,2.02042187e-01
-4.04017187e-08,2.02309375e-01
-4.03617187e-08,2.02553125e-01
-4.03217188e-08,2.02470312e-01
-4.02817187e-08,2.02520313e-01
-4.02417187e-08,2.02484375e-01
-4.02017187e-08,2.02512500e-01
-4.01617187e-08,2.02489063e-01
-4.01217187e-08,2.02509375e-01
-4.00817188e-08,2.02490625e-01
-4.00417187e-08,2.02507812e-01
-4.00017187e-08,2.02492188e-01
-3.99617187e-08,2.02507812e-01
-3.99217187e-08,2.02492188e-01
-3.98817187e-08,2.02507812e-01
-3.98417187e-08,2.02492188e-01
-3.98017188e-08,2.02507812e-01
-3.97617187e-08,2.02492188e-01
-3.97217187e-08,2.02507812e-01
-3.96817187e-08,2.02492188e-01
-3.96417187e-08,2.02509375e-01
-3.96017187e-08,2.02490625e-01
-3.95617187e-08,2.02510938e-01
-3.95217188e-08,2.02487500e-01
-3.94817187e-08,2.02514063e-01
-3.94417187e-08,2.02482812e-01
-3.94017187e-08,2.02521875e-01
-3.93617187e-08,2.02468750e-01
-3.93217187e-08,2.02556250e-01
-3.92817187e-08,2.02290625e-01
-3.92417188e-08,2.02046875e-01
-3.92017187e-08,2.02129688e-01
-3.91617187e-08,2.02079687e-01
-3.91217187e-08,2.02115625e-01
-3.90817187e-08,2.02087500e-01
-3.90417187e-08,2.02109375e-01
-3.90017187e-08,2.02090625e-01
-3.89617188e-08,2.02107813e-01
-3.89217187e-08,2.02093750e-01
-3.88817187e-08,2.02106250e-01
-3.88417187e-08,2.02093750e-01
-3.88017187e-08,2.02104688e-01
-3.87617187e-08,2.02095313e-01
-3.87217187e-08,2.02104688e-01
-3.86817188e-08,2.02095313e-01
-3.86417187e-08,2.02104688e-01
-3.86017187e-08,2.02095313e-01
-3.85617187e-08,2.02103125e-01
-3.85217187e-08,2.02096875e-01
