trails/0a08b63e0bce357032480812e7e37d0e/aes_ch1_20250506174540658.csv

Model,MSO66B
Label,
Waveform Type,ANALOG
Horizontal Units,s
Sample Interval,4.00000000e-11
Record Length,10000
Zero Index,1599.08984375
Vertical Units,A
ANALOG_Thumbnail,
yOffset,1.84500000e-01
yPosition,8.40000000e-01

Labels,
TIME,CH1
-6.39635937e-08,2.04915625e-01
-6.39235937e-08,2.04879688e-01
-6.38835938e-08,2.04931250e-01
-6.38435937e-08,2.04843750e-01
-6.38035938e-08,2.05109375e-01
-6.37635937e-08,2.05351563e-01
-6.37235937e-08,2.05271875e-01
-6.36835937e-08,2.05317187e-01
-6.36435937e-08,2.05287500e-01
-6.36035938e-08,2.05309375e-01
-6.35635937e-08,2.05293750e-01
-6.35235938e-08,2.05304687e-01
-6.34835937e-08,2.05298438e-01
-6.34435937e-08,2.05300000e-01
-6.34035937e-08,2.05301563e-01
-6.33635937e-08,2.05296875e-01
-6.33235938e-08,2.05304687e-01
-6.32835937e-08,2.05292188e-01
-6.32435938e-08,2.05310938e-01
-6.32035937e-08,2.05282813e-01
-6.31635937e-08,2.05326563e-01
-6.31235937e-08,2.05248438e-01
-6.30835937e-08,2.05504688e-01
-6.30435938e-08,2.05756250e-01
-6.30035937e-08,2.05667188e-01
-6.29635938e-08,2.05723437e-01
-6.29235937e-08,2.05682813e-01
-6.28835937e-08,2.05714063e-01
-6.28435937e-08,2.05687500e-01
-6.28035937e-08,2.05710937e-01
-6.27635938e-08,2.05690625e-01
-6.27235937e-08,2.05707813e-01
-6.26835938e-08,2.05692188e-01
-6.26435937e-08,2.05706250e-01
-6.26035937e-08,2.05693750e-01
-6.25635937e-08,2.05704688e-01
-6.25235937e-08,2.05695313e-01
-6.24835938e-08,2.05703125e-01
-6.24435937e-08,2.05696875e-01
-6.24035938e-08,2.05703125e-01
-6.23635937e-08,2.05698437e-01
-6.23235937e-08,2.05701563e-01
-6.22835937e-08,2.05700000e-01
-6.22435937e-08,2.05700000e-01
-6.22035938e-08,2.05701563e-01
-6.21635937e-08,2.05696875e-01
-6.21235937e-08,2.05704688e-01
-6.20835937e-08,2.05693750e-01
-6.20435937e-08,2.05709375e-01
-6.20035937e-08,2.05685937e-01
-6.19635937e-08,2.05723437e-01
-6.19235938e-08,2.05651562e-01
-6.18835937e-08,2.05901562e-01
-6.18435937e-08,2.06160938e-01
-6.18035937e-08,2.06062500e-01
-6.17635937e-08,2.06129688e-01
-6.17235937e-08,2.06075000e-01
-6.16835937e-08,2.06123438e-01
-6.16435938e-08,2.06076563e-01
-6.16035937e-08,2.06125000e-01
-6.15635937e-08,2.06071875e-01
-6.15235937e-08,2.06135938e-01
-6.14835937e-08,2.06040625e-01
-6.14435937e-08,2.06312500e-01
-6.14035937e-08,2.06551563e-01
-6.13635938e-08,2.06471875e-01
-6.13235937e-08,2.06520312e-01
-6.12835937e-08,2.06482813e-01
-6.12435937e-08,2.06515625e-01
-6.12035937e-08,2.06484375e-01
-6.11635937e-08,2.06518750e-01
-6.11235937e-08,2.06478125e-01
-6.10835938e-08,2.06531250e-01
-6.10435937e-08,2.06443750e-01
-6.10035937e-08,2.06707813e-01
-6.09635937e-08,2.06954688e-01
-6.09235937e-08,2.06868750e-01
-6.08835937e-08,2.06921875e-01
-6.08435937e-08,2.06882813e-01
-6.08035938e-08,2.06914062e-01
-6.07635937e-08,2.06887500e-01
-6.07235937e-08,2.06910938e-01
-6.06835937e-08,2.06890625e-01
-6.06435937e-08,2.06909375e-01
-6.06035937e-08,2.06892188e-01
-6.05635937e-08,2.06907813e-01
-6.05235938e-08,2.06892188e-01
-6.04835937e-08,2.06907813e-01
-6.04435937e-08,2.06893750e-01
-6.04035937e-08,2.06906250e-01
-6.03635937e-08,2.06893750e-01
-6.03235938e-08,2.06906250e-01
-6.02835937e-08,2.06893750e-01
-6.02435938e-08,2.06906250e-01
-6.02035937e-08,2.06893750e-01
-6.01635937e-08,2.06906250e-01
-6.01235937e-08,2.06893750e-01
-6.00835937e-08,2.06906250e-01
-6.00435938e-08,2.06893750e-01
-6.00035937e-08,2.06906250e-01
-5.99635938e-08,2.06893750e-01
-5.99235937e-08,2.06906250e-01
-5.98835937e-08,2.06893750e-01
-5.98435937e-08,2.06907813e-01
-5.98035937e-08,2.06892188e-01
-5.97635938e-08,2.06907813e-01
-5.97235937e-08,2.06890625e-01
-5.96835938e-08,2.06909375e-01
-5.96435937e-08,2.06889062e-01
-5.96035937e-08,2.06912500e-01
-5.95635937e-08,2.06884375e-01
-5.95235937e-08,2.06920313e-01
-5.94835937e-08,2.06870313e-01
-5.94435937e-08,2.06954688e-01
-5.94035937e-08,2.06692188e-01
-5.93635937e-08,2.06443750e-01
-5.93235937e-08,2.06532812e-01
-5.92835937e-08,2.06476563e-01
-5.92435937e-08,2.06518750e-01
-5.92035937e-08,2.06482813e-01
-5.91635937e-08,2.06515625e-01
-5.91235937e-08,2.06484375e-01
-5.90835937e-08,2.06517188e-01
-5.90435937e-08,2.06481250e-01
-5.90035937e-08,2.06523438e-01
-5.89635937e-08,2.06467188e-01
-5.89235937e-08,2.06556250e-01
-5.88835937e-08,2.06290625e-01
-5.88435937e-08,2.06046875e-01
-5.88035937e-08,2.06129688e-01
-5.87635937e-08,2.06079687e-01
-5.87235937e-08,2.06115625e-01
-5.86835937e-08,2.06085938e-01
-5.86435937e-08,2.06110938e-01
-5.86035937e-08,2.06089063e-01
-5.85635937e-08,2.06109375e-01
-5.85235937e-08,2.06090625e-01
-5.84835937e-08,2.06109375e-01
-5.84435937e-08,2.06092187e-01
-5.84035937e-08,2.06107813e-01
-5.83635937e-08,2.06092187e-01
-5.83235937e-08,2.06109375e-01
-5.82835937e-08,2.06090625e-01
-5.82435937e-08,2.06109375e-01
-5.82035937e-08,2.06089063e-01
-5.81635937e-08,2.06110938e-01
-5.81235937e-08,2.06087500e-01
-5.80835937e-08,2.06114063e-01
-5.80435937e-08,2.06082813e-01
-5.80035937e-08,2.06121875e-01
-5.79635937e-08,2.06068750e-01
-5.79235937e-08,2.06156250e-01
-5.78835937e-08,2.05890625e-01
-5.78435937e-08,2.05646875e-01
-5.78035937e-08,2.05728125e-01
-5.77635937e-08,2.05681250e-01
-5.77235937e-08,2.05714063e-01
-5.76835937e-08,2.05689063e-01
-5.76435937e-08,2.05709375e-01
-5.76035937e-08,2.05692188e-01
-5.75635937e-08,2.05707813e-01
-5.75235937e-08,2.05693750e-01
-5.74835937e-08,2.05706250e-01
-5.74435937e-08,2.05695313e-01
-5.74035937e-08,2.05704688e-01
-5.73635937e-08,2.05695313e-01
-5.73235937e-08,2.05704688e-01
-5.72835937e-08,2.05695313e-01
-5.72435937e-08,2.05703125e-01
-5.72035937e-08,2.05696875e-01
-5.71635937e-08,2.05703125e-01
-5.71235937e-08,2.05696875e-01
-5.70835937e-08,2.05703125e-01
-5.70435937e-08,2.05696875e-01
-5.70035937e-08,2.05703125e-01
-5.69635937e-08,2.05696875e-01
-5.69235937e-08,2.05703125e-01
-5.68835937e-08,2.05696875e-01
-5.68435937e-08,2.05703125e-01
-5.68035937e-08,2.05696875e-01
-5.67635937e-08,2.05703125e-01
-5.67235937e-08,2.05696875e-01
-5.66835937e-08,2.05703125e-01
-5.66435937e-08,2.05696875e-01
-5.66035937e-08,2.05703125e-01
-5.65635937e-08,2.05696875e-01
-5.65235937e-08,2.05703125e-01
-5.64835937e-08,2.05696875e-01
-5.64435937e-08,2.05703125e-01
-5.64035937e-08,2.05696875e-01
-5.63635937e-08,2.05703125e-01
-5.63235937e-08,2.05696875e-01
-5.62835937e-08,2.05703125e-01
-5.62435937e-08,2.05696875e-01
-5.62035937e-08,2.05703125e-01
-5.61635937e-08,2.05696875e-01
-5.61235937e-08,2.05703125e-01
-5.60835937e-08,2.05696875e-01
-5.60435937e-08,2.05703125e-01
-5.60035937e-08,2.05696875e-01
-5.59635937e-08,2.05703125e-01
-5.59235937e-08,2.05696875e-01
-5.58835937e-08,2.05703125e-01
-5.58435937e-08,2.05696875e-01
-5.58035937e-08,2.05703125e-01
-5.57635937e-08,2.05696875e-01
-5.57235937e-08,2.05703125e-01
-5.56835937e-08,2.05696875e-01
-5.56435937e-08,2.05703125e-01
-5.56035937e-08,2.05696875e-01
-5.55635937e-08,2.05703125e-01
-5.55235937e-08,2.05696875e-01
-5.54835937e-08,2.05703125e-01
-5.54435937e-08,2.05696875e-01
-5.54035937e-08,2.05703125e-01
-5.53635937e-08,2.05696875e-01
-5.53235937e-08,2.05703125e-01
-5.52835937e-08,2.05696875e-01
-5.52435937e-08,2.05703125e-01
-5.52035937e-08,2.05696875e-01
-5.51635937e-08,2.05703125e-01
-5.51235937e-08,2.05695313e-01
-5.50835937e-08,2.05704688e-01
-5.50435937e-08,2.05695313e-01
-5.50035937e-08,2.05704688e-01
-5.49635937e-08,2.05695313e-01
-5.49235937e-08,2.05704688e-01
-5.48835937e-08,2.05695313e-01
-5.48435937e-08,2.05704688e-01
-5.48035937e-08,2.05695313e-01
-5.47635937e-08,2.05706250e-01
-5.47235937e-08,2.05693750e-01
-5.46835937e-08,2.05706250e-01
-5.46435937e-08,2.05693750e-01
-5.46035937e-08,2.05707813e-01
-5.45635937e-08,2.05692188e-01
-5.45235937e-08,2.05709375e-01
-5.44835937e-08,2.05689063e-01
-5.44435937e-08,2.05712500e-01
-5.44035937e-08,2.05684375e-01
-5.43635937e-08,2.05720313e-01
-5.43235937e-08,2.05670313e-01
-5.42835937e-08,2.05754688e-01
-5.42435937e-08,2.05492188e-01
-5.42035937e-08,2.05245312e-01
-5.41635937e-08,2.05331250e-01
-5.41235937e-08,2.05276563e-01
-5.40835937e-08,2.05318750e-01
-5.40435937e-08,2.05282813e-01
-5.40035937e-08,2.05317187e-01
-5.39635937e-08,2.05281250e-01
-5.39235937e-08,2.05321875e-01
-5.38835937e-08,2.05268750e-01
-5.38435937e-08,2.05354688e-01
-5.38035937e-08,2.05093750e-01
-5.37635937e-08,2.04843750e-01
-5.37235937e-08,2.04932813e-01
-5.36835937e-08,2.04875000e-01
-5.36435937e-08,2.04920313e-01
-5.36035937e-08,2.04881250e-01
-5.35635937e-08,2.04917188e-01
-5.35235937e-08,2.04882813e-01
-5.34835937e-08,2.04917188e-01
-5.34435937e-08,2.04881250e-01
-5.34035937e-08,2.04920313e-01
-5.33635937e-08,2.04876562e-01
-5.33235937e-08,2.04928125e-01
-5.32835937e-08,2.04862500e-01
-5.32435937e-08,2.04962500e-01
-5.32035937e-08,2.04684375e-01
-5.31635937e-08,2.04453125e-01
-5.31235937e-08,2.04523438e-01
-5.30835937e-08,2.04485937e-01
-5.30435937e-08,2.04507812e-01
-5.30035937e-08,2.04495312e-01
-5.29635937e-08,2.04503125e-01
-5.29235938e-08,2.04498438e-01
-5.28835937e-08,2.04500000e-01
-5.28435937e-08,2.04501563e-01
-5.28035937e-08,2.04496875e-01
-5.27635937e-08,2.04504688e-01
-5.27235937e-08,2.04493750e-01
-5.26835937e-08,2.04507812e-01
-5.26435937e-08,2.04489063e-01
-5.26035937e-08,2.04514063e-01
-5.25635937e-08,2.04479688e-01
-5.25235937e-08,2.04529688e-01
-5.24835937e-08,2.04445313e-01
-5.24435937e-08,2.04707813e-01
-5.24035937e-08,2.04953125e-01
-5.23635937e-08,2.04870313e-01
-5.23235937e-08,2.04920313e-01
-5.22835937e-08,2.04885938e-01
-5.22435937e-08,2.04910938e-01
-5.22035937e-08,2.04890625e-01
-5.21635937e-08,2.04907813e-01
-5.21235937e-08,2.04893750e-01
-5.20835937e-08,2.04904688e-01
-5.20435937e-08,2.04895313e-01
-5.20035937e-08,2.04903125e-01
-5.19635937e-08,2.04896875e-01
-5.19235937e-08,2.04901563e-01
-5.18835937e-08,2.04898438e-01
-5.18435937e-08,2.04900000e-01
-5.18035937e-08,2.04900000e-01
-5.17635937e-08,2.04898438e-01
-5.17235937e-08,2.04901563e-01
-5.16835937e-08,2.04896875e-01
-5.16435937e-08,2.04903125e-01
-5.16035937e-08,2.04895313e-01
-5.15635937e-08,2.04906250e-01
-5.15235937e-08,2.04892188e-01
-5.14835937e-08,2.04910938e-01
-5.14435937e-08,2.04885938e-01
-5.14035937e-08,2.04918750e-01
-5.13635937e-08,2.04871875e-01
-5.13235937e-08,2.04953125e-01
-5.12835937e-08,2.04692188e-01
-5.12435937e-08,2.04445313e-01
-5.12035937e-08,2.04531250e-01
-5.11635937e-08,2.04479688e-01
-5.11235937e-08,2.04515625e-01
-5.10835937e-08,2.04487500e-01
-5.10435937e-08,2.04509375e-01
-5.10035938e-08,2.04492188e-01
-5.09635937e-08,2.04506250e-01
-5.09235937e-08,2.04495312e-01
-5.08835937e-08,2.04504688e-01
-5.08435937e-08,2.04496875e-01
-5.08035937e-08,2.04501563e-01
-5.07635937e-08,2.04500000e-01
-5.07235938e-08,2.04498438e-01
-5.06835937e-08,2.04504688e-01
-5.06435937e-08,2.04492188e-01
-5.06035937e-08,2.04512500e-01
-5.05635937e-08,2.04476563e-01
-5.05235937e-08,2.04548438e-01
-5.04835937e-08,2.04298438e-01
-5.04435937e-08,2.04039063e-01
-5.04035937e-08,2.04137500e-01
-5.03635937e-08,2.04071875e-01
-5.03235937e-08,2.04121875e-01
-5.02835937e-08,2.04079687e-01
-5.02435937e-08,2.04117188e-01
-5.02035937e-08,2.04084375e-01
-5.01635937e-08,2.04115625e-01
-5.01235937e-08,2.04085938e-01
-5.00835937e-08,2.04114062e-01
-5.00435937e-08,2.04085938e-01
-5.00035937e-08,2.04114062e-01
-4.99635937e-08,2.04085938e-01
-4.99235937e-08,2.04114062e-01
-4.98835937e-08,2.04085938e-01
-4.98435937e-08,2.04114062e-01
-4.98035937e-08,2.04084375e-01
-4.97635937e-08,2.04117188e-01
-4.97235937e-08,2.04079687e-01
-4.96835937e-08,2.04125000e-01
-4.96435937e-08,2.04065625e-01
-4.96035937e-08,2.04159375e-01
-4.95635937e-08,2.03889062e-01
-4.95235937e-08,2.03648438e-01
-4.94835937e-08,2.03728125e-01
-4.94435937e-08,2.03681250e-01
-4.94035937e-08,2.03714063e-01
-4.93635937e-08,2.03687500e-01
-4.93235937e-08,2.03710938e-01
-4.92835937e-08,2.03690625e-01
-4.92435937e-08,2.03709375e-01
-4.92035937e-08,2.03690625e-01
-4.91635937e-08,2.03709375e-01
-4.91235937e-08,2.03689063e-01
-4.90835938e-08,2.03712500e-01
-4.90435937e-08,2.03684375e-01
-4.90035937e-08,2.03720313e-01
-4.89635937e-08,2.03670313e-01
-4.89235937e-08,2.03754688e-01
-4.88835937e-08,2.03493750e-01
-4.88435937e-08,2.03245312e-01
-4.88035938e-08,2.03331250e-01
-4.87635937e-08,2.03278125e-01
-4.87235937e-08,2.03317187e-01
-4.86835937e-08,2.03285938e-01
-4.86435937e-08,2.03312500e-01
-4.86035937e-08,2.03289063e-01
-4.85635937e-08,2.03310938e-01
-4.85235938e-08,2.03290625e-01
-4.84835937e-08,2.03309375e-01
-4.84435937e-08,2.03292187e-01
-4.84035937e-08,2.03307813e-01
-4.83635937e-08,2.03292187e-01
-4.83235937e-08,2.03307813e-01
-4.82835937e-08,2.03292187e-01
-4.82435937e-08,2.03307813e-01
-4.82035937e-08,2.03293750e-01
-4.81635937e-08,2.03306250e-01
-4.81235937e-08,2.03293750e-01
-4.80835937e-08,2.03306250e-01
-4.80435937e-08,2.03293750e-01
-4.80035937e-08,2.03306250e-01
-4.79635937e-08,2.03293750e-01
-4.79235937e-08,2.03306250e-01
-4.78835937e-08,2.03293750e-01
-4.78435937e-08,2.03306250e-01
-4.78035937e-08,2.03293750e-01
-4.77635937e-08,2.03306250e-01
-4.77235937e-08,2.03293750e-01
-4.76835937e-08,2.03306250e-01
-4.76435937e-08,2.03292187e-01
-4.76035937e-08,2.03307813e-01
-4.75635937e-08,2.03292187e-01
-4.75235937e-08,2.03307813e-01
-4.74835937e-08,2.03292187e-01
-4.74435937e-08,2.03309375e-01
-4.74035937e-08,2.03290625e-01
-4.73635937e-08,2.03309375e-01
-4.73235937e-08,2.03289063e-01
-4.72835937e-08,2.03310938e-01
-4.72435937e-08,2.03287500e-01
-4.72035937e-08,2.03314063e-01
-4.71635938e-08,2.03284375e-01
-4.71235937e-08,2.03318750e-01
-4.70835937e-08,2.03276563e-01
-4.70435937e-08,2.03334375e-01
-4.70035937e-08,2.03240625e-01
-4.69635937e-08,2.03512500e-01
-4.69235937e-08,2.03750000e-01
-4.68835938e-08,2.03673437e-01
-4.68435937e-08,2.03717188e-01
-4.68035937e-08,2.03687500e-01
-4.67635937e-08,2.03709375e-01
-4.67235937e-08,2.03693750e-01
-4.66835937e-08,2.03704688e-01
-4.66435937e-08,2.03696875e-01
-4.66035938e-08,2.03703125e-01
-4.65635937e-08,2.03698437e-01
-4.65235937e-08,2.03700000e-01
-4.64835937e-08,2.03700000e-01
-4.64435937e-08,2.03698437e-01
-4.64035937e-08,2.03701563e-01
-4.63635937e-08,2.03696875e-01
-4.63235938e-08,2.03704688e-01
-4.62835937e-08,2.03693750e-01
-4.62435937e-08,2.03707813e-01
-4.62035937e-08,2.03689063e-01
-4.61635937e-08,2.03717188e-01
-4.61235937e-08,2.03673437e-01
-4.60835937e-08,2.03751563e-01
-4.60435937e-08,2.03495312e-01
-4.60035937e-08,2.03242188e-01
-4.59635937e-08,2.03334375e-01
-4.59235937e-08,2.03275000e-01
-4.58835937e-08,2.03318750e-01
-4.58435937e-08,2.03282813e-01
-4.58035937e-08,2.03314063e-01
-4.57635937e-08,2.03287500e-01
-4.57235937e-08,2.03312500e-01
-4.56835937e-08,2.03289063e-01
-4.56435937e-08,2.03310938e-01
-4.56035937e-08,2.03289063e-01
-4.55635937e-08,2.03310938e-01
-4.55235937e-08,2.03290625e-01
-4.54835937e-08,2.03309375e-01
-4.54435937e-08,2.03290625e-01
-4.54035937e-08,2.03309375e-01
-4.53635937e-08,2.03290625e-01
-4.53235937e-08,2.03310938e-01
-4.52835937e-08,2.03289063e-01
-4.52435938e-08,2.03310938e-01
-4.52035937e-08,2.03287500e-01
-4.51635937e-08,2.03312500e-01
-4.51235937e-08,2.03285938e-01
-4.50835937e-08,2.03315625e-01
-4.50435937e-08,2.03282813e-01
-4.50035937e-08,2.03320313e-01
-4.49635938e-08,2.03273438e-01
-4.49235937e-08,2.03335938e-01
-4.48835937e-08,2.03239063e-01
-4.48435937e-08,2.03514063e-01
-4.48035937e-08,2.03746875e-01
-4.47635937e-08,2.03676563e-01
-4.47235937e-08,2.03712500e-01
-4.46835938e-08,2.03693750e-01
-4.46435937e-08,2.03701563e-01
-4.46035937e-08,2.03703125e-01
-4.45635937e-08,2.03690625e-01
-4.45235937e-08,2.03720313e-01
-4.44835937e-08,2.03654688e-01
-4.44435937e-08,2.03900000e-01
-4.44035938e-08,2.04162500e-01
-4.43635937e-08,2.04060938e-01
-4.43235937e-08,2.04129688e-01
-4.42835937e-08,2.04075000e-01
-4.42435937e-08,2.04123438e-01
-4.42035937e-08,2.04078125e-01
-4.41635937e-08,2.04121875e-01
-4.41235938e-08,2.04078125e-01
-4.40835937e-08,2.04125000e-01
-4.40435937e-08,2.04071875e-01
-4.40035937e-08,2.04137500e-01
-4.39635937e-08,2.04037500e-01
-4.39235937e-08,2.04314063e-01
-4.38835937e-08,2.04548438e-01
-4.38435937e-08,2.04475000e-01
-4.38035937e-08,2.04515625e-01
-4.37635937e-08,2.04489063e-01
-4.37235937e-08,2.04507812e-01
-4.36835937e-08,2.04493750e-01
-4.36435937e-08,2.04504688e-01
-4.36035937e-08,2.04495312e-01
-4.35635937e-08,2.04503125e-01
-4.35235937e-08,2.04496875e-01
-4.34835937e-08,2.04503125e-01
-4.34435937e-08,2.04496875e-01
-4.34035937e-08,2.04501563e-01
-4.33635937e-08,2.04498438e-01
-4.33235938e-08,2.04501563e-01
-4.32835937e-08,2.04498438e-01
-4.32435937e-08,2.04501563e-01
-4.32035937e-08,2.04498438e-01
-4.31635937e-08,2.04501563e-01
-4.31235937e-08,2.04498438e-01
-4.30835937e-08,2.04501563e-01
-4.30435938e-08,2.04498438e-01
-4.30035937e-08,2.04501563e-01
-4.29635937e-08,2.04498438e-01
-4.29235937e-08,2.04501563e-01
-4.28835937e-08,2.04498438e-01
-4.28435937e-08,2.04501563e-01
-4.28035937e-08,2.04498438e-01
-4.27635938e-08,2.04501563e-01
-4.27235937e-08,2.04498438e-01
-4.26835937e-08,2.04501563e-01
-4.26435937e-08,2.04498438e-01
-4.26035937e-08,2.04501563e-01
-4.25635937e-08,2.04498438e-01
-4.25235937e-08,2.04501563e-01
-4.24835938e-08,2.04498438e-01
-4.24435937e-08,2.04501563e-01
-4.24035937e-08,2.04498438e-01
-4.23635937e-08,2.04501563e-01
-4.23235937e-08,2.04498438e-01
-4.22835937e-08,2.04501563e-01
-4.22435937e-08,2.04498438e-01
-4.22035938e-08,2.04501563e-01
-4.21635937e-08,2.04498438e-01
-4.21235937e-08,2.04501563e-01
-4.20835937e-08,2.04496875e-01
-4.20435937e-08,2.04503125e-01
-4.20035937e-08,2.04496875e-01
-4.19635937e-08,2.04503125e-01
-4.19235938e-08,2.04496875e-01
-4.18835937e-08,2.04503125e-01
-4.18435937e-08,2.04495312e-01
-4.18035937e-08,2.04504688e-01
-4.17635937e-08,2.04493750e-01
-4.17235937e-08,2.04507812e-01
-4.16835937e-08,2.04490625e-01
-4.16435937e-08,2.04512500e-01
-4.16035937e-08,2.04482812e-01
-4.15635937e-08,2.04526563e-01
-4.15235937e-08,2.04450000e-01
-4.14835937e-08,2.04703125e-01
-4.14435937e-08,2.04959375e-01
-4.14035938e-08,2.04862500e-01
-4.13635937e-08,2.04928125e-01
-4.13235937e-08,2.04875000e-01
-4.12835937e-08,2.04923437e-01
-4.12435937e-08,2.04876562e-01
-4.12035937e-08,2.04925000e-01
-4.11635937e-08,2.04870313e-01
-4.11235938e-08,2.04939063e-01
-4.10835937e-08,2.04837500e-01
-4.10435937e-08,2.05117188e-01
-4.10035937e-08,2.05345313e-01
-4.09635937e-08,2.05279688e-01
-4.09235937e-08,2.05309375e-01
-4.08835937e-08,2.05296875e-01
-4.08435938e-08,2.05295312e-01
-4.08035937e-08,2.05315625e-01
-4.07635937e-08,2.05259375e-01
-4.07235937e-08,2.05493750e-01
-4.06835937e-08,2.05768750e-01
-4.06435937e-08,2.05654688e-01
-4.06035937e-08,2.05737500e-01
-4.05635938e-08,2.05665625e-01
-4.05235937e-08,2.05734375e-01
-4.04835937e-08,2.05662500e-01
-4.04435937e-08,2.05745312e-01
-4.04035937e-08,2.05631250e-01
-4.03635937e-08,2.05921875e-01
-4.03235937e-08,2.06140625e-01
-4.02835938e-08,2.06082813e-01
-4.02435937e-08,2.06107813e-01
-4.02035937e-08,2.06098438e-01
-4.01635937e-08,2.06098438e-01
-4.01235937e-08,2.06104687e-01
-4.00835937e-08,2.06092187e-01
-4.00435937e-08,2.06112500e-01
-4.00035938e-08,2.06082813e-01
-3.99635937e-08,2.06128125e-01
-3.99235937e-08,2.06046875e-01
-3.98835937e-08,2.06306250e-01
-3.98435937e-08,2.06556250e-01
-3.98035937e-08,2.06468750e-01
-3.97635937e-08,2.06521875e-01
-3.97235937e-08,2.06482813e-01
-3.96835937e-08,2.06514063e-01
-3.96435937e-08,2.06487500e-01
-3.96035937e-08,2.06510938e-01
-3.95635937e-08,2.06490625e-01
-3.95235937e-08,2.06507812e-01
-3.94835938e-08,2.06492188e-01
-3.94435937e-08,2.06506250e-01
-3.94035937e-08,2.06493750e-01
-3.93635937e-08,2.06506250e-01
-3.93235937e-08,2.06493750e-01
-3.92835937e-08,2.06506250e-01
-3.92435937e-08,2.06495313e-01
-3.92035938e-08,2.06504688e-01
-3.91635937e-08,2.06495313e-01
-3.91235937e-08,2.06504688e-01
-3.90835937e-08,2.06495313e-01
-3.90435937e-08,2.06504688e-01
-3.90035937e-08,2.06495313e-01
-3.89635937e-08,2.06504688e-01
-3.89235938e-08,2.06495313e-01
-3.88835937e-08,2.06506250e-01
-3.88435937e-08,2.06493750e-01
-3.88035937e-08,2.06506250e-01
-3.87635937e-08,2.06492188e-01
-3.87235937e-08,2.06507812e-01
-3.86835937e-08,2.06490625e-01
-3.86435938e-08,2.06510938e-01
-3.86035937e-08,2.06485937e-01
-3.85635937e-08,2.06518750e-01
-3.85235937e-08,2.06471875e-01
