trails/0a08b63e0bce357032480812e7e37d0e/aes_ch1_20250506174309276.csv

Model,MSO66B
Label,
Waveform Type,ANALOG
Horizontal Units,s
Sample Interval,4.00000000e-11
Record Length,10000
Zero Index,1599.08203125
Vertical Units,A
ANALOG_Thumbnail,
yOffset,1.84500000e-01
yPosition,8.40000000e-01

Labels,
TIME,CH1
-6.39632812e-08,2.01329688e-01
-6.39232812e-08,2.01275000e-01
-6.38832812e-08,2.01321875e-01
-6.38432812e-08,2.01279687e-01
-6.38032812e-08,2.01320313e-01
-6.37632813e-08,2.01278125e-01
-6.37232812e-08,2.01323438e-01
-6.36832812e-08,2.01273438e-01
-6.36432812e-08,2.01335938e-01
-6.36032812e-08,2.01239063e-01
-6.35632812e-08,2.01512500e-01
-6.35232812e-08,2.01750000e-01
-6.34832813e-08,2.01673437e-01
-6.34432812e-08,2.01718750e-01
-6.34032812e-08,2.01685938e-01
-6.33632812e-08,2.01712500e-01
-6.33232812e-08,2.01689063e-01
-6.32832812e-08,2.01709375e-01
-6.32432812e-08,2.01690625e-01
-6.32032813e-08,2.01709375e-01
-6.31632812e-08,2.01689063e-01
-6.31232812e-08,2.01712500e-01
-6.30832812e-08,2.01685938e-01
-6.30432812e-08,2.01717188e-01
-6.30032812e-08,2.01678125e-01
-6.29632812e-08,2.01731250e-01
-6.29232813e-08,2.01643750e-01
-6.28832812e-08,2.01909375e-01
-6.28432812e-08,2.02153125e-01
-6.28032812e-08,2.02070313e-01
-6.27632812e-08,2.02120313e-01
-6.27232812e-08,2.02084375e-01
-6.26832812e-08,2.02112500e-01
-6.26432813e-08,2.02090625e-01
-6.26032812e-08,2.02109375e-01
-6.25632812e-08,2.02092188e-01
-6.25232812e-08,2.02106250e-01
-6.24832812e-08,2.02093750e-01
-6.24432812e-08,2.02104688e-01
-6.24032812e-08,2.02095313e-01
-6.23632813e-08,2.02104688e-01
-6.23232812e-08,2.02096875e-01
-6.22832812e-08,2.02103125e-01
-6.22432812e-08,2.02096875e-01
-6.22032812e-08,2.02103125e-01
-6.21632812e-08,2.02098438e-01
-6.21232812e-08,2.02101562e-01
-6.20832813e-08,2.02098438e-01
-6.20432812e-08,2.02101562e-01
-6.20032812e-08,2.02098438e-01
-6.19632812e-08,2.02100000e-01
-6.19232812e-08,2.02100000e-01
-6.18832813e-08,2.02100000e-01
-6.18432812e-08,2.02100000e-01
-6.18032813e-08,2.02100000e-01
-6.17632812e-08,2.02101562e-01
-6.17232812e-08,2.02098438e-01
-6.16832812e-08,2.02101562e-01
-6.16432812e-08,2.02098438e-01
-6.16032813e-08,2.02103125e-01
-6.15632812e-08,2.02096875e-01
-6.15232813e-08,2.02104688e-01
-6.14832812e-08,2.02095313e-01
-6.14432812e-08,2.02106250e-01
-6.14032812e-08,2.02093750e-01
-6.13632812e-08,2.02107813e-01
-6.13232813e-08,2.02089062e-01
-6.12832812e-08,2.02114062e-01
-6.12432813e-08,2.02081250e-01
-6.12032812e-08,2.02128125e-01
-6.11632812e-08,2.02046875e-01
-6.11232812e-08,2.02307813e-01
-6.10832812e-08,2.02554687e-01
-6.10432813e-08,2.02468750e-01
-6.10032812e-08,2.02521875e-01
-6.09632813e-08,2.02482812e-01
-6.09232812e-08,2.02514063e-01
-6.08832812e-08,2.02489063e-01
-6.08432812e-08,2.02509375e-01
-6.08032812e-08,2.02492188e-01
-6.07632813e-08,2.02507812e-01
-6.07232812e-08,2.02493750e-01
-6.06832813e-08,2.02506250e-01
-6.06432812e-08,2.02495312e-01
-6.06032812e-08,2.02504688e-01
-6.05632812e-08,2.02495312e-01
-6.05232812e-08,2.02503125e-01
-6.04832813e-08,2.02496875e-01
-6.04432812e-08,2.02503125e-01
-6.04032813e-08,2.02498438e-01
-6.03632812e-08,2.02501563e-01
-6.03232812e-08,2.02498438e-01
-6.02832812e-08,2.02500000e-01
-6.02432812e-08,2.02500000e-01
-6.02032813e-08,2.02498438e-01
-6.01632812e-08,2.02501563e-01
-6.01232813e-08,2.02496875e-01
-6.00832812e-08,2.02504688e-01
-6.00432812e-08,2.02493750e-01
-6.00032812e-08,2.02507812e-01
-5.99632812e-08,2.02489063e-01
-5.99232813e-08,2.02515625e-01
-5.98832812e-08,2.02473438e-01
-5.98432812e-08,2.02551563e-01
-5.98032812e-08,2.02295313e-01
-5.97632812e-08,2.02042187e-01
-5.97232812e-08,2.02134375e-01
-5.96832812e-08,2.02075000e-01
-5.96432813e-08,2.02120313e-01
-5.96032812e-08,2.02082813e-01
-5.95632812e-08,2.02114062e-01
-5.95232812e-08,2.02087500e-01
-5.94832812e-08,2.02112500e-01
-5.94432812e-08,2.02089062e-01
-5.94032812e-08,2.02110938e-01
-5.93632812e-08,2.02090625e-01
-5.93232812e-08,2.02109375e-01
-5.92832812e-08,2.02090625e-01
-5.92432812e-08,2.02107813e-01
-5.92032812e-08,2.02092188e-01
-5.91632812e-08,2.02107813e-01
-5.91232812e-08,2.02092188e-01
-5.90832812e-08,2.02107813e-01
-5.90432812e-08,2.02092188e-01
-5.90032812e-08,2.02107813e-01
-5.89632812e-08,2.02092188e-01
-5.89232812e-08,2.02107813e-01
-5.88832812e-08,2.02092188e-01
-5.88432812e-08,2.02107813e-01
-5.88032812e-08,2.02092188e-01
-5.87632812e-08,2.02107813e-01
-5.87232812e-08,2.02092188e-01
-5.86832812e-08,2.02107813e-01
-5.86432812e-08,2.02092188e-01
-5.86032812e-08,2.02107813e-01
-5.85632812e-08,2.02092188e-01
-5.85232812e-08,2.02107813e-01
-5.84832812e-08,2.02090625e-01
-5.84432812e-08,2.02109375e-01
-5.84032812e-08,2.02090625e-01
-5.83632812e-08,2.02110938e-01
-5.83232812e-08,2.02087500e-01
-5.82832812e-08,2.02114062e-01
-5.82432812e-08,2.02082813e-01
-5.82032812e-08,2.02121875e-01
-5.81632812e-08,2.02068750e-01
-5.81232812e-08,2.02156250e-01
-5.80832812e-08,2.01890625e-01
-5.80432812e-08,2.01646875e-01
-5.80032812e-08,2.01729688e-01
-5.79632812e-08,2.01679688e-01
-5.79232812e-08,2.01715625e-01
-5.78832812e-08,2.01687500e-01
-5.78432812e-08,2.01710938e-01
-5.78032812e-08,2.01690625e-01
-5.77632812e-08,2.01707812e-01
-5.77232812e-08,2.01692188e-01
-5.76832812e-08,2.01706250e-01
-5.76432812e-08,2.01693750e-01
-5.76032812e-08,2.01706250e-01
-5.75632812e-08,2.01693750e-01
-5.75232812e-08,2.01706250e-01
-5.74832812e-08,2.01693750e-01
-5.74432812e-08,2.01706250e-01
-5.74032812e-08,2.01693750e-01
-5.73632812e-08,2.01706250e-01
-5.73232812e-08,2.01693750e-01
-5.72832812e-08,2.01706250e-01
-5.72432812e-08,2.01693750e-01
-5.72032812e-08,2.01707812e-01
-5.71632812e-08,2.01692188e-01
-5.71232812e-08,2.01709375e-01
-5.70832812e-08,2.01690625e-01
-5.70432812e-08,2.01710938e-01
-5.70032812e-08,2.01687500e-01
-5.69632812e-08,2.01715625e-01
-5.69232812e-08,2.01678125e-01
-5.68832812e-08,2.01731250e-01
-5.68432812e-08,2.01643750e-01
-5.68032812e-08,2.01909375e-01
-5.67632812e-08,2.02153125e-01
-5.67232812e-08,2.02070313e-01
-5.66832812e-08,2.02120313e-01
-5.66432812e-08,2.02084375e-01
-5.66032812e-08,2.02112500e-01
-5.65632812e-08,2.02089062e-01
-5.65232812e-08,2.02109375e-01
-5.64832812e-08,2.02092188e-01
-5.64432812e-08,2.02106250e-01
-5.64032812e-08,2.02093750e-01
-5.63632812e-08,2.02106250e-01
-5.63232812e-08,2.02095313e-01
-5.62832812e-08,2.02104688e-01
-5.62432812e-08,2.02095313e-01
-5.62032812e-08,2.02104688e-01
-5.61632812e-08,2.02096875e-01
-5.61232812e-08,2.02103125e-01
-5.60832812e-08,2.02096875e-01
-5.60432812e-08,2.02103125e-01
-5.60032812e-08,2.02096875e-01
-5.59632812e-08,2.02103125e-01
-5.59232812e-08,2.02096875e-01
-5.58832812e-08,2.02103125e-01
-5.58432812e-08,2.02098438e-01
-5.58032812e-08,2.02101562e-01
-5.57632812e-08,2.02098438e-01
-5.57232812e-08,2.02101562e-01
-5.56832812e-08,2.02098438e-01
-5.56432812e-08,2.02101562e-01
-5.56032812e-08,2.02098438e-01
-5.55632812e-08,2.02101562e-01
-5.55232812e-08,2.02098438e-01
-5.54832812e-08,2.02101562e-01
-5.54432812e-08,2.02098438e-01
-5.54032812e-08,2.02101562e-01
-5.53632812e-08,2.02098438e-01
-5.53232812e-08,2.02101562e-01
-5.52832812e-08,2.02098438e-01
-5.52432812e-08,2.02101562e-01
-5.52032812e-08,2.02098438e-01
-5.51632812e-08,2.02101562e-01
-5.51232812e-08,2.02100000e-01
-5.50832812e-08,2.02100000e-01
-5.50432812e-08,2.02100000e-01
-5.50032812e-08,2.02100000e-01
-5.49632812e-08,2.02100000e-01
-5.49232812e-08,2.02100000e-01
-5.48832812e-08,2.02100000e-01
-5.48432812e-08,2.02100000e-01
-5.48032812e-08,2.02100000e-01
-5.47632812e-08,2.02100000e-01
-5.47232812e-08,2.02100000e-01
-5.46832812e-08,2.02100000e-01
-5.46432812e-08,2.02100000e-01
-5.46032812e-08,2.02100000e-01
-5.45632812e-08,2.02100000e-01
-5.45232812e-08,2.02100000e-01
-5.44832812e-08,2.02100000e-01
-5.44432812e-08,2.02100000e-01
-5.44032812e-08,2.02100000e-01
-5.43632812e-08,2.02100000e-01
-5.43232812e-08,2.02100000e-01
-5.42832812e-08,2.02100000e-01
-5.42432812e-08,2.02100000e-01
-5.42032812e-08,2.02100000e-01
-5.41632812e-08,2.02100000e-01
-5.41232812e-08,2.02100000e-01
-5.40832812e-08,2.02101562e-01
-5.40432812e-08,2.02098438e-01
-5.40032812e-08,2.02101562e-01
-5.39632812e-08,2.02098438e-01
-5.39232812e-08,2.02101562e-01
-5.38832812e-08,2.02098438e-01
-5.38432812e-08,2.02101562e-01
-5.38032812e-08,2.02098438e-01
-5.37632812e-08,2.02101562e-01
-5.37232812e-08,2.02098438e-01
-5.36832812e-08,2.02101562e-01
-5.36432812e-08,2.02098438e-01
-5.36032812e-08,2.02101562e-01
-5.35632812e-08,2.02098438e-01
-5.35232812e-08,2.02101562e-01
-5.34832812e-08,2.02098438e-01
-5.34432812e-08,2.02101562e-01
-5.34032812e-08,2.02098438e-01
-5.33632812e-08,2.02103125e-01
-5.33232812e-08,2.02096875e-01
-5.32832812e-08,2.02103125e-01
-5.32432812e-08,2.02096875e-01
-5.32032812e-08,2.02103125e-01
-5.31632812e-08,2.02096875e-01
-5.31232812e-08,2.02103125e-01
-5.30832812e-08,2.02096875e-01
-5.30432812e-08,2.02103125e-01
-5.30032812e-08,2.02095313e-01
-5.29632812e-08,2.02104688e-01
-5.29232812e-08,2.02095313e-01
-5.28832812e-08,2.02104688e-01
-5.28432812e-08,2.02095313e-01
-5.28032812e-08,2.02106250e-01
-5.27632812e-08,2.02093750e-01
-5.27232812e-08,2.02106250e-01
-5.26832812e-08,2.02092188e-01
-5.26432812e-08,2.02109375e-01
-5.26032812e-08,2.02090625e-01
-5.25632813e-08,2.02110938e-01
-5.25232812e-08,2.02085938e-01
-5.24832812e-08,2.02117188e-01
-5.24432812e-08,2.02078125e-01
-5.24032812e-08,2.02131250e-01
-5.23632812e-08,2.02043750e-01
-5.23232812e-08,2.02309375e-01
-5.22832812e-08,2.02553125e-01
-5.22432812e-08,2.02471875e-01
-5.22032812e-08,2.02518750e-01
-5.21632812e-08,2.02485938e-01
-5.21232812e-08,2.02510938e-01
-5.20832812e-08,2.02490625e-01
-5.20432812e-08,2.02507812e-01
-5.20032812e-08,2.02493750e-01
-5.19632812e-08,2.02504688e-01
-5.19232812e-08,2.02495312e-01
-5.18832812e-08,2.02503125e-01
-5.18432812e-08,2.02496875e-01
-5.18032812e-08,2.02503125e-01
-5.17632812e-08,2.02498438e-01
-5.17232812e-08,2.02501563e-01
-5.16832812e-08,2.02498438e-01
-5.16432812e-08,2.02501563e-01
-5.16032812e-08,2.02500000e-01
-5.15632812e-08,2.02500000e-01
-5.15232812e-08,2.02500000e-01
-5.14832812e-08,2.02500000e-01
-5.14432812e-08,2.02500000e-01
-5.14032812e-08,2.02498438e-01
-5.13632812e-08,2.02501563e-01
-5.13232812e-08,2.02498438e-01
-5.12832812e-08,2.02501563e-01
-5.12432812e-08,2.02498438e-01
-5.12032812e-08,2.02503125e-01
-5.11632812e-08,2.02496875e-01
-5.11232812e-08,2.02503125e-01
-5.10832812e-08,2.02495312e-01
-5.10432812e-08,2.02504688e-01
-5.10032812e-08,2.02493750e-01
-5.09632812e-08,2.02506250e-01
-5.09232812e-08,2.02492188e-01
-5.08832812e-08,2.02509375e-01
-5.08432812e-08,2.02489063e-01
-5.08032812e-08,2.02512500e-01
-5.07632812e-08,2.02484375e-01
-5.07232812e-08,2.02521875e-01
-5.06832812e-08,2.02468750e-01
-5.06432813e-08,2.02556250e-01
-5.06032812e-08,2.02290625e-01
-5.05632812e-08,2.02048438e-01
-5.05232812e-08,2.02128125e-01
-5.04832812e-08,2.02081250e-01
-5.04432812e-08,2.02112500e-01
-5.04032812e-08,2.02090625e-01
-5.03632813e-08,2.02106250e-01
-5.03232812e-08,2.02096875e-01
-5.02832812e-08,2.02101562e-01
-5.02432812e-08,2.02101562e-01
-5.02032812e-08,2.02093750e-01
-5.01632812e-08,2.02110938e-01
-5.01232812e-08,2.02078125e-01
-5.00832812e-08,2.02146875e-01
-5.00432812e-08,2.01900000e-01
-5.00032812e-08,2.01637500e-01
-4.99632812e-08,2.01739063e-01
-4.99232812e-08,2.01670313e-01
-4.98832812e-08,2.01725000e-01
-4.98432812e-08,2.01678125e-01
-4.98032812e-08,2.01720312e-01
-4.97632812e-08,2.01679688e-01
-4.97232812e-08,2.01720312e-01
-4.96832812e-08,2.01679688e-01
-4.96432812e-08,2.01721875e-01
-4.96032812e-08,2.01676563e-01
-4.95632812e-08,2.01728125e-01
-4.95232812e-08,2.01662500e-01
-4.94832812e-08,2.01760938e-01
-4.94432812e-08,2.01485938e-01
-4.94032812e-08,2.01251563e-01
-4.93632812e-08,2.01325000e-01
-4.93232812e-08,2.01284375e-01
-4.92832812e-08,2.01310938e-01
-4.92432812e-08,2.01290625e-01
-4.92032812e-08,2.01306250e-01
-4.91632812e-08,2.01293750e-01
-4.91232812e-08,2.01304687e-01
-4.90832812e-08,2.01295313e-01
-4.90432812e-08,2.01304687e-01
-4.90032812e-08,2.01296875e-01
-4.89632812e-08,2.01303125e-01
-4.89232812e-08,2.01296875e-01
-4.88832812e-08,2.01303125e-01
-4.88432812e-08,2.01296875e-01
-4.88032812e-08,2.01303125e-01
-4.87632812e-08,2.01296875e-01
-4.87232813e-08,2.01303125e-01
-4.86832812e-08,2.01296875e-01
-4.86432812e-08,2.01303125e-01
-4.86032812e-08,2.01296875e-01
-4.85632812e-08,2.01303125e-01
-4.85232812e-08,2.01296875e-01
-4.84832812e-08,2.01304687e-01
-4.84432813e-08,2.01295313e-01
-4.84032812e-08,2.01304687e-01
-4.83632812e-08,2.01295313e-01
-4.83232812e-08,2.01304687e-01
-4.82832812e-08,2.01293750e-01
-4.82432812e-08,2.01306250e-01
-4.82032812e-08,2.01293750e-01
-4.81632813e-08,2.01307813e-01
-4.81232812e-08,2.01292187e-01
-4.80832812e-08,2.01309375e-01
-4.80432812e-08,2.01289063e-01
-4.80032812e-08,2.01312500e-01
-4.79632812e-08,2.01285938e-01
-4.79232812e-08,2.01318750e-01
-4.78832812e-08,2.01276563e-01
-4.78432812e-08,2.01332813e-01
-4.78032812e-08,2.01240625e-01
-4.77632812e-08,2.01512500e-01
-4.77232812e-08,2.01750000e-01
-4.76832812e-08,2.01675000e-01
-4.76432812e-08,2.01715625e-01
-4.76032812e-08,2.01690625e-01
-4.75632812e-08,2.01706250e-01
-4.75232812e-08,2.01696875e-01
-4.74832812e-08,2.01700000e-01
-4.74432812e-08,2.01703125e-01
-4.74032812e-08,2.01693750e-01
-4.73632812e-08,2.01709375e-01
-4.73232812e-08,2.01684375e-01
-4.72832812e-08,2.01726563e-01
-4.72432812e-08,2.01648437e-01
-4.72032812e-08,2.01906250e-01
-4.71632812e-08,2.02154688e-01
-4.71232812e-08,2.02070313e-01
-4.70832812e-08,2.02118750e-01
-4.70432812e-08,2.02087500e-01
-4.70032812e-08,2.02107813e-01
-4.69632812e-08,2.02096875e-01
-4.69232812e-08,2.02095313e-01
-4.68832812e-08,2.02115625e-01
-4.68432812e-08,2.02059375e-01
-4.68032813e-08,2.02293750e-01
-4.67632812e-08,2.02567188e-01
-4.67232812e-08,2.02457813e-01
-4.66832812e-08,2.02532812e-01
-4.66432812e-08,2.02471875e-01
-4.66032812e-08,2.02525000e-01
-4.65632812e-08,2.02478125e-01
-4.65232813e-08,2.02520313e-01
-4.64832812e-08,2.02479688e-01
-4.64432812e-08,2.02518750e-01
-4.64032812e-08,2.02481250e-01
-4.63632812e-08,2.02518750e-01
-4.63232812e-08,2.02482812e-01
-4.62832812e-08,2.02517188e-01
-4.62432813e-08,2.02481250e-01
-4.62032812e-08,2.02518750e-01
-4.61632812e-08,2.02481250e-01
-4.61232812e-08,2.02520313e-01
-4.60832812e-08,2.02478125e-01
-4.60432812e-08,2.02523438e-01
-4.60032812e-08,2.02473438e-01
-4.59632813e-08,2.02531250e-01
-4.59232812e-08,2.02459375e-01
-4.58832812e-08,2.02565625e-01
-4.58432812e-08,2.02281250e-01
-4.58032812e-08,2.02057813e-01
-4.57632812e-08,2.02118750e-01
-4.57232812e-08,2.02092188e-01
-4.56832812e-08,2.02101562e-01
-4.56432812e-08,2.02103125e-01
-4.56032812e-08,2.02092188e-01
-4.55632812e-08,2.02114062e-01
-4.55232812e-08,2.02076563e-01
-4.54832812e-08,2.02148438e-01
-4.54432812e-08,2.01898437e-01
-4.54032812e-08,2.01639063e-01
-4.53632812e-08,2.01737500e-01
-4.53232812e-08,2.01671875e-01
-4.52832812e-08,2.01723438e-01
-4.52432812e-08,2.01678125e-01
-4.52032812e-08,2.01721875e-01
-4.51632812e-08,2.01676563e-01
-4.51232812e-08,2.01728125e-01
-4.50832812e-08,2.01664063e-01
-4.50432812e-08,2.01760938e-01
-4.50032812e-08,2.01487500e-01
-4.49632812e-08,2.01250000e-01
-4.49232812e-08,2.01326563e-01
-4.48832813e-08,2.01282813e-01
-4.48432812e-08,2.01312500e-01
-4.48032812e-08,2.01290625e-01
-4.47632812e-08,2.01307813e-01
-4.47232812e-08,2.01293750e-01
-4.46832812e-08,2.01304687e-01
-4.46432812e-08,2.01296875e-01
-4.46032813e-08,2.01303125e-01
-4.45632812e-08,2.01298438e-01
-4.45232812e-08,2.01300000e-01
-4.44832812e-08,2.01301563e-01
-4.44432812e-08,2.01296875e-01
-4.44032812e-08,2.01306250e-01
-4.43632812e-08,2.01289063e-01
-4.43232813e-08,2.01320313e-01
-4.42832812e-08,2.01254688e-01
-4.42432812e-08,2.01498438e-01
-4.42032812e-08,2.01764063e-01
-4.41632812e-08,2.01659375e-01
-4.41232812e-08,2.01731250e-01
-4.40832812e-08,2.01671875e-01
-4.40432813e-08,2.01725000e-01
-4.40032812e-08,2.01675000e-01
-4.39632812e-08,2.01725000e-01
-4.39232812e-08,2.01673437e-01
-4.38832812e-08,2.01728125e-01
-4.38432812e-08,2.01667188e-01
-4.38032812e-08,2.01742188e-01
-4.37632812e-08,2.01632813e-01
-4.37232812e-08,2.01920313e-01
-4.36832812e-08,2.02142188e-01
-4.36432812e-08,2.02081250e-01
-4.36032812e-08,2.02107813e-01
-4.35632812e-08,2.02096875e-01
-4.35232812e-08,2.02098438e-01
-4.34832812e-08,2.02104688e-01
-4.34432812e-08,2.02092188e-01
-4.34032812e-08,2.02110938e-01
-4.33632812e-08,2.02082813e-01
-4.33232812e-08,2.02128125e-01
-4.32832812e-08,2.02046875e-01
-4.32432812e-08,2.02306250e-01
-4.32032812e-08,2.02556250e-01
-4.31632812e-08,2.02468750e-01
-4.31232812e-08,2.02521875e-01
-4.30832812e-08,2.02482812e-01
-4.30432812e-08,2.02514063e-01
-4.30032812e-08,2.02487500e-01
-4.29632813e-08,2.02510938e-01
-4.29232812e-08,2.02490625e-01
-4.28832812e-08,2.02509375e-01
-4.28432812e-08,2.02492188e-01
-4.28032812e-08,2.02507812e-01
-4.27632812e-08,2.02492188e-01
-4.27232812e-08,2.02507812e-01
-4.26832813e-08,2.02493750e-01
-4.26432812e-08,2.02506250e-01
-4.26032812e-08,2.02493750e-01
-4.25632812e-08,2.02506250e-01
-4.25232812e-08,2.02493750e-01
-4.24832812e-08,2.02507812e-01
-4.24432812e-08,2.02492188e-01
-4.24032813e-08,2.02507812e-01
-4.23632812e-08,2.02492188e-01
-4.23232812e-08,2.02509375e-01
-4.22832812e-08,2.02490625e-01
-4.22432812e-08,2.02510938e-01
-4.22032812e-08,2.02487500e-01
-4.21632812e-08,2.02514063e-01
-4.21232813e-08,2.02482812e-01
-4.20832812e-08,2.02521875e-01
-4.20432812e-08,2.02467188e-01
-4.20032812e-08,2.02557813e-01
-4.19632812e-08,2.02289063e-01
-4.19232812e-08,2.02048438e-01
-4.18832812e-08,2.02128125e-01
-4.18432813e-08,2.02082813e-01
-4.18032812e-08,2.02112500e-01
-4.17632812e-08,2.02090625e-01
-4.17232812e-08,2.02106250e-01
-4.16832812e-08,2.02096875e-01
-4.16432812e-08,2.02101562e-01
-4.16032812e-08,2.02101562e-01
-4.15632812e-08,2.02095313e-01
-4.15232812e-08,2.02110938e-01
-4.14832812e-08,2.02079687e-01
-4.14432812e-08,2.02145313e-01
-4.14032812e-08,2.01901563e-01
-4.13632812e-08,2.01635938e-01
-4.13232812e-08,2.01740625e-01
-4.12832812e-08,2.01668750e-01
-4.12432812e-08,2.01728125e-01
-4.12032812e-08,2.01673437e-01
-4.11632812e-08,2.01725000e-01
-4.11232812e-08,2.01673437e-01
-4.10832812e-08,2.01731250e-01
-4.10432813e-08,2.01660937e-01
-4.10032812e-08,2.01762500e-01
-4.09632812e-08,2.01485938e-01
-4.09232812e-08,2.01251563e-01
-4.08832812e-08,2.01326563e-01
-4.08432812e-08,2.01282813e-01
-4.08032812e-08,2.01314063e-01
-4.07632813e-08,2.01287500e-01
-4.07232812e-08,2.01312500e-01
-4.06832812e-08,2.01285938e-01
-4.06432812e-08,2.01318750e-01
-4.06032812e-08,2.01271875e-01
-4.05632812e-08,2.01351562e-01
-4.05232812e-08,2.01095313e-01
-4.04832813e-08,2.00842188e-01
-4.04432812e-08,2.00934375e-01
-4.04032812e-08,2.00875000e-01
-4.03632812e-08,2.00921875e-01
-4.03232812e-08,2.00881250e-01
-4.02832812e-08,2.00917188e-01
-4.02432812e-08,2.00884375e-01
-4.02032813e-08,2.00914063e-01
-4.01632812e-08,2.00885938e-01
-4.01232812e-08,2.00914063e-01
-4.00832812e-08,2.00885938e-01
-4.00432812e-08,2.00914063e-01
-4.00032812e-08,2.00885938e-01
-3.99632812e-08,2.00914063e-01
-3.99232813e-08,2.00885938e-01
-3.98832812e-08,2.00914063e-01
-3.98432812e-08,2.00885938e-01
-3.98032812e-08,2.00915625e-01
-3.97632812e-08,2.00884375e-01
-3.97232812e-08,2.00917188e-01
-3.96832812e-08,2.00881250e-01
-3.96432813e-08,2.00920313e-01
-3.96032812e-08,2.00878125e-01
-3.95632812e-08,2.00925000e-01
-3.95232812e-08,2.00868750e-01
-3.94832812e-08,2.00940625e-01
-3.94432812e-08,2.00834375e-01
-3.94032813e-08,2.01118750e-01
-3.93632812e-08,2.01342188e-01
-3.93232812e-08,2.01282813e-01
-3.92832812e-08,2.01307813e-01
-3.92432812e-08,2.01298438e-01
-3.92032812e-08,2.01296875e-01
-3.91632812e-08,2.01306250e-01
-3.91232813e-08,2.01290625e-01
-3.90832812e-08,2.01314063e-01
-3.90432812e-08,2.01279687e-01
-3.90032812e-08,2.01331250e-01
-3.89632812e-08,2.01243750e-01
-3.89232812e-08,2.01510938e-01
-3.88832812e-08,2.01750000e-01
-3.88432813e-08,2.01673437e-01
-3.88032812e-08,2.01715625e-01
-3.87632812e-08,2.01690625e-01
-3.87232812e-08,2.01704688e-01
-3.86832812e-08,2.01698437e-01
-3.86432812e-08,2.01698437e-01
-3.86032812e-08,2.01706250e-01
-3.85632813e-08,2.01687500e-01
-3.85232812e-08,2.01723438e-01
