trails/0a08b63e0bce357032480812e7e37d0e/aes_ch1_20250506173620845.csv

Model,MSO66B
Label,
Waveform Type,ANALOG
Horizontal Units,s
Sample Interval,4.00000000e-11
Record Length,10000
Zero Index,1599.06250000
Vertical Units,A
ANALOG_Thumbnail,
yOffset,1.84500000e-01
yPosition,8.40000000e-01

Labels,
TIME,CH1
-6.39625000e-08,1.80900000e-01
-6.39225000e-08,1.80901563e-01
-6.38825000e-08,1.80898438e-01
-6.38425000e-08,1.80901563e-01
-6.38025000e-08,1.80898438e-01
-6.37625000e-08,1.80901563e-01
-6.37225000e-08,1.80898438e-01
-6.36825000e-08,1.80901563e-01
-6.36425000e-08,1.80898438e-01
-6.36025000e-08,1.80901563e-01
-6.35625000e-08,1.80898438e-01
-6.35225000e-08,1.80901563e-01
-6.34825000e-08,1.80896875e-01
-6.34425000e-08,1.80903125e-01
-6.34025000e-08,1.80896875e-01
-6.33625000e-08,1.80903125e-01
-6.33225000e-08,1.80895313e-01
-6.32825000e-08,1.80906250e-01
-6.32425000e-08,1.80893750e-01
-6.32025000e-08,1.80909375e-01
-6.31625000e-08,1.80887500e-01
-6.31225000e-08,1.80917188e-01
-6.30825000e-08,1.80873438e-01
-6.30425000e-08,1.80951562e-01
-6.30025000e-08,1.80696875e-01
-6.29625000e-08,1.80440625e-01
-6.29225000e-08,1.80534375e-01
-6.28825000e-08,1.80473438e-01
-6.28425000e-08,1.80521875e-01
-6.28025000e-08,1.80481250e-01
-6.27625000e-08,1.80517188e-01
-6.27225000e-08,1.80484375e-01
-6.26825000e-08,1.80515625e-01
-6.26425000e-08,1.80484375e-01
-6.26025000e-08,1.80515625e-01
-6.25625000e-08,1.80484375e-01
-6.25225000e-08,1.80517188e-01
-6.24825000e-08,1.80481250e-01
-6.24425000e-08,1.80521875e-01
-6.24025000e-08,1.80473438e-01
-6.23625000e-08,1.80535938e-01
-6.23225000e-08,1.80439062e-01
-6.22825000e-08,1.80714062e-01
-6.22425000e-08,1.80948438e-01
-6.22025000e-08,1.80875000e-01
-6.21625000e-08,1.80915625e-01
-6.21225000e-08,1.80889063e-01
-6.20825000e-08,1.80907813e-01
-6.20425000e-08,1.80893750e-01
-6.20025000e-08,1.80904687e-01
-6.19625000e-08,1.80896875e-01
-6.19225000e-08,1.80903125e-01
-6.18825000e-08,1.80898438e-01
-6.18425000e-08,1.80901563e-01
-6.18025000e-08,1.80900000e-01
-6.17625000e-08,1.80900000e-01
-6.17225000e-08,1.80900000e-01
-6.16825000e-08,1.80900000e-01
-6.16425000e-08,1.80900000e-01
-6.16025000e-08,1.80898438e-01
-6.15625000e-08,1.80901563e-01
-6.15225000e-08,1.80898438e-01
-6.14825000e-08,1.80901563e-01
-6.14425000e-08,1.80898438e-01
-6.14025000e-08,1.80901563e-01
-6.13625000e-08,1.80898438e-01
-6.13225000e-08,1.80903125e-01
-6.12825000e-08,1.80896875e-01
-6.12425000e-08,1.80903125e-01
-6.12025000e-08,1.80896875e-01
-6.11625000e-08,1.80903125e-01
-6.11225000e-08,1.80895313e-01
-6.10825000e-08,1.80904687e-01
-6.10425000e-08,1.80895313e-01
-6.10025000e-08,1.80906250e-01
-6.09625000e-08,1.80893750e-01
-6.09225000e-08,1.80907813e-01
-6.08825000e-08,1.80892187e-01
-6.08425000e-08,1.80909375e-01
-6.08025000e-08,1.80889063e-01
-6.07625000e-08,1.80914063e-01
-6.07225000e-08,1.80879687e-01
-6.06825000e-08,1.80929688e-01
-6.06425000e-08,1.80846875e-01
-6.06025000e-08,1.81106250e-01
-6.05625000e-08,1.81356250e-01
-6.05225000e-08,1.81267188e-01
-6.04825000e-08,1.81323438e-01
-6.04425000e-08,1.81281250e-01
-6.04025000e-08,1.81315625e-01
-6.03625000e-08,1.81285937e-01
-6.03225000e-08,1.81314063e-01
-6.02825000e-08,1.81285937e-01
-6.02425000e-08,1.81314063e-01
-6.02025000e-08,1.81284375e-01
-6.01625000e-08,1.81317188e-01
-6.01225000e-08,1.81278125e-01
-6.00825000e-08,1.81331250e-01
-6.00425000e-08,1.81245313e-01
-6.00025000e-08,1.81507813e-01
-5.99625000e-08,1.81754688e-01
-5.99225000e-08,1.81668750e-01
-5.98825000e-08,1.81723438e-01
-5.98425000e-08,1.81681250e-01
-5.98025000e-08,1.81715625e-01
-5.97625000e-08,1.81685938e-01
-5.97225000e-08,1.81714062e-01
-5.96825000e-08,1.81685938e-01
-5.96425000e-08,1.81714062e-01
-5.96025000e-08,1.81685938e-01
-5.95625000e-08,1.81715625e-01
-5.95225000e-08,1.81682813e-01
-5.94825000e-08,1.81720313e-01
-5.94425000e-08,1.81675000e-01
-5.94025000e-08,1.81734375e-01
-5.93625000e-08,1.81640625e-01
-5.93225000e-08,1.81912500e-01
-5.92825000e-08,1.82150000e-01
-5.92425000e-08,1.82073438e-01
-5.92025000e-08,1.82117187e-01
-5.91625000e-08,1.82087500e-01
-5.91225000e-08,1.82109375e-01
-5.90825000e-08,1.82092188e-01
-5.90425000e-08,1.82106250e-01
-5.90025000e-08,1.82095312e-01
-5.89625000e-08,1.82104688e-01
-5.89225000e-08,1.82096875e-01
-5.88825000e-08,1.82103125e-01
-5.88425000e-08,1.82098438e-01
-5.88025000e-08,1.82101563e-01
-5.87625000e-08,1.82098438e-01
-5.87225000e-08,1.82101563e-01
-5.86825000e-08,1.82100000e-01
-5.86425000e-08,1.82100000e-01
-5.86025000e-08,1.82100000e-01
-5.85625000e-08,1.82100000e-01
-5.85225000e-08,1.82100000e-01
-5.84825000e-08,1.82098438e-01
-5.84425000e-08,1.82101563e-01
-5.84025000e-08,1.82098438e-01
-5.83625000e-08,1.82103125e-01
-5.83225000e-08,1.82096875e-01
-5.82825000e-08,1.82103125e-01
-5.82425000e-08,1.82095312e-01
-5.82025000e-08,1.82106250e-01
-5.81625000e-08,1.82092188e-01
-5.81225000e-08,1.82109375e-01
-5.80825000e-08,1.82087500e-01
-5.80425000e-08,1.82117187e-01
-5.80025000e-08,1.82073438e-01
-5.79625000e-08,1.82151563e-01
-5.79225000e-08,1.81895313e-01
-5.78825000e-08,1.81642187e-01
-5.78425000e-08,1.81734375e-01
-5.78025000e-08,1.81675000e-01
-5.77625000e-08,1.81721875e-01
-5.77225000e-08,1.81681250e-01
-5.76825000e-08,1.81717188e-01
-5.76425000e-08,1.81682813e-01
-5.76025000e-08,1.81717188e-01
-5.75625000e-08,1.81682813e-01
-5.75225000e-08,1.81718750e-01
-5.74825000e-08,1.81679688e-01
-5.74425000e-08,1.81725000e-01
-5.74025000e-08,1.81665625e-01
-5.73625000e-08,1.81759375e-01
-5.73225000e-08,1.81487500e-01
-5.72825000e-08,1.81250000e-01
-5.72425000e-08,1.81326563e-01
-5.72025000e-08,1.81282813e-01
-5.71625000e-08,1.81312500e-01
-5.71225000e-08,1.81289063e-01
-5.70825000e-08,1.81307812e-01
-5.70425000e-08,1.81292188e-01
-5.70025000e-08,1.81306250e-01
-5.69625000e-08,1.81295312e-01
-5.69225000e-08,1.81304688e-01
-5.68825000e-08,1.81295312e-01
-5.68425000e-08,1.81304688e-01
-5.68025000e-08,1.81296875e-01
-5.67625000e-08,1.81303125e-01
-5.67225000e-08,1.81296875e-01
-5.66825000e-08,1.81303125e-01
-5.66425000e-08,1.81296875e-01
-5.66025000e-08,1.81303125e-01
-5.65625000e-08,1.81296875e-01
-5.65225000e-08,1.81303125e-01
-5.64825000e-08,1.81296875e-01
-5.64425000e-08,1.81303125e-01
-5.64025000e-08,1.81296875e-01
-5.63625000e-08,1.81303125e-01
-5.63225000e-08,1.81296875e-01
-5.62825000e-08,1.81303125e-01
-5.62425000e-08,1.81296875e-01
-5.62025000e-08,1.81303125e-01
-5.61625000e-08,1.81296875e-01
-5.61225000e-08,1.81303125e-01
-5.60825000e-08,1.81296875e-01
-5.60425000e-08,1.81303125e-01
-5.60025000e-08,1.81296875e-01
-5.59625000e-08,1.81303125e-01
-5.59225000e-08,1.81296875e-01
-5.58825000e-08,1.81303125e-01
-5.58425000e-08,1.81296875e-01
-5.58025000e-08,1.81303125e-01
-5.57625000e-08,1.81296875e-01
-5.57225000e-08,1.81303125e-01
-5.56825000e-08,1.81296875e-01
-5.56425000e-08,1.81303125e-01
-5.56025000e-08,1.81296875e-01
-5.55625000e-08,1.81303125e-01
-5.55225000e-08,1.81296875e-01
-5.54825000e-08,1.81303125e-01
-5.54425000e-08,1.81296875e-01
-5.54025000e-08,1.81303125e-01
-5.53625000e-08,1.81296875e-01
-5.53225000e-08,1.81304688e-01
-5.52825000e-08,1.81295312e-01
-5.52425000e-08,1.81304688e-01
-5.52025000e-08,1.81295312e-01
-5.51625000e-08,1.81304688e-01
-5.51225000e-08,1.81295312e-01
-5.50825000e-08,1.81304688e-01
-5.50425000e-08,1.81295312e-01
-5.50025000e-08,1.81304688e-01
-5.49625000e-08,1.81293750e-01
-5.49225000e-08,1.81306250e-01
-5.48825000e-08,1.81293750e-01
-5.48425000e-08,1.81306250e-01
-5.48025000e-08,1.81293750e-01
-5.47625000e-08,1.81307812e-01
-5.47225000e-08,1.81292188e-01
-5.46825000e-08,1.81309375e-01
-5.46425000e-08,1.81290625e-01
-5.46025000e-08,1.81310938e-01
-5.45625000e-08,1.81287500e-01
-5.45225000e-08,1.81314063e-01
-5.44825000e-08,1.81282813e-01
-5.44425000e-08,1.81323438e-01
-5.44025000e-08,1.81267188e-01
-5.43625000e-08,1.81357812e-01
-5.43225000e-08,1.81089063e-01
-5.42825000e-08,1.80848438e-01
-5.42425000e-08,1.80928125e-01
-5.42025000e-08,1.80881250e-01
-5.41625000e-08,1.80912500e-01
-5.41225000e-08,1.80890625e-01
-5.40825000e-08,1.80907813e-01
-5.40425000e-08,1.80893750e-01
-5.40025000e-08,1.80904687e-01
-5.39625000e-08,1.80895313e-01
-5.39225000e-08,1.80903125e-01
-5.38825000e-08,1.80896875e-01
-5.38425000e-08,1.80901563e-01
-5.38025000e-08,1.80898438e-01
-5.37625000e-08,1.80900000e-01
-5.37225000e-08,1.80900000e-01
-5.36825000e-08,1.80900000e-01
-5.36425000e-08,1.80901563e-01
-5.36025000e-08,1.80898438e-01
-5.35625000e-08,1.80903125e-01
-5.35225000e-08,1.80896875e-01
-5.34825000e-08,1.80904687e-01
-5.34425000e-08,1.80893750e-01
-5.34025000e-08,1.80907813e-01
-5.33625000e-08,1.80889063e-01
-5.33225000e-08,1.80915625e-01
-5.32825000e-08,1.80873438e-01
-5.32425000e-08,1.80950000e-01
-5.32025000e-08,1.80696875e-01
-5.31625000e-08,1.80440625e-01
-5.31225000e-08,1.80535938e-01
-5.30825000e-08,1.80473438e-01
-5.30425000e-08,1.80521875e-01
-5.30025000e-08,1.80479688e-01
-5.29625000e-08,1.80518750e-01
-5.29225000e-08,1.80481250e-01
-5.28825000e-08,1.80520313e-01
-5.28425000e-08,1.80478125e-01
-5.28025000e-08,1.80526563e-01
-5.27625000e-08,1.80465625e-01
-5.27225000e-08,1.80559375e-01
-5.26825000e-08,1.80287500e-01
-5.26425000e-08,1.80050000e-01
-5.26025000e-08,1.80128125e-01
-5.25625000e-08,1.80081250e-01
-5.25225000e-08,1.80114063e-01
-5.24825000e-08,1.80089063e-01
-5.24425000e-08,1.80109375e-01
-5.24025000e-08,1.80092188e-01
-5.23625000e-08,1.80107813e-01
-5.23225000e-08,1.80093750e-01
-5.22825000e-08,1.80106250e-01
-5.22425000e-08,1.80093750e-01
-5.22025000e-08,1.80106250e-01
-5.21625000e-08,1.80093750e-01
-5.21225000e-08,1.80106250e-01
-5.20825000e-08,1.80093750e-01
-5.20425000e-08,1.80106250e-01
-5.20025000e-08,1.80093750e-01
-5.19625000e-08,1.80106250e-01
-5.19225000e-08,1.80093750e-01
-5.18825000e-08,1.80106250e-01
-5.18425000e-08,1.80092188e-01
-5.18025000e-08,1.80107813e-01
-5.17625000e-08,1.80092188e-01
-5.17225000e-08,1.80109375e-01
-5.16825000e-08,1.80089063e-01
-5.16425000e-08,1.80112500e-01
-5.16025000e-08,1.80085938e-01
-5.15625000e-08,1.80117187e-01
-5.15225000e-08,1.80078125e-01
-5.14825000e-08,1.80131250e-01
-5.14425000e-08,1.80043750e-01
-5.14025000e-08,1.80309375e-01
-5.13625000e-08,1.80553125e-01
-5.13225000e-08,1.80471875e-01
-5.12825000e-08,1.80518750e-01
-5.12425000e-08,1.80485937e-01
-5.12025000e-08,1.80510937e-01
-5.11625000e-08,1.80490625e-01
-5.11225000e-08,1.80507813e-01
-5.10825000e-08,1.80493750e-01
-5.10425000e-08,1.80506250e-01
-5.10025000e-08,1.80495313e-01
-5.09625000e-08,1.80504688e-01
-5.09225000e-08,1.80495313e-01
-5.08825000e-08,1.80503125e-01
-5.08425000e-08,1.80496875e-01
-5.08025000e-08,1.80503125e-01
-5.07625000e-08,1.80496875e-01
-5.07225000e-08,1.80503125e-01
-5.06825000e-08,1.80498437e-01
-5.06425000e-08,1.80501563e-01
-5.06025000e-08,1.80498437e-01
-5.05625000e-08,1.80501563e-01
-5.05225000e-08,1.80498437e-01
-5.04825000e-08,1.80501563e-01
-5.04425000e-08,1.80498437e-01
-5.04025000e-08,1.80501563e-01
-5.03625000e-08,1.80498437e-01
-5.03225000e-08,1.80501563e-01
-5.02825000e-08,1.80498437e-01
-5.02425000e-08,1.80500000e-01
-5.02025000e-08,1.80500000e-01
-5.01625000e-08,1.80500000e-01
-5.01225000e-08,1.80500000e-01
-5.00825000e-08,1.80500000e-01
-5.00425000e-08,1.80500000e-01
-5.00025000e-08,1.80500000e-01
-4.99625000e-08,1.80500000e-01
-4.99225000e-08,1.80500000e-01
-4.98825000e-08,1.80500000e-01
-4.98425000e-08,1.80500000e-01
-4.98025000e-08,1.80500000e-01
-4.97625000e-08,1.80500000e-01
-4.97225000e-08,1.80500000e-01
-4.96825000e-08,1.80500000e-01
-4.96425000e-08,1.80500000e-01
-4.96025000e-08,1.80500000e-01
-4.95625000e-08,1.80500000e-01
-4.95225000e-08,1.80500000e-01
-4.94825000e-08,1.80500000e-01
-4.94425000e-08,1.80500000e-01
-4.94025000e-08,1.80500000e-01
-4.93625000e-08,1.80500000e-01
-4.93225000e-08,1.80501563e-01
-4.92825000e-08,1.80498437e-01
-4.92425000e-08,1.80501563e-01
-4.92025000e-08,1.80498437e-01
-4.91625000e-08,1.80501563e-01
-4.91225000e-08,1.80498437e-01
-4.90825000e-08,1.80501563e-01
-4.90425000e-08,1.80498437e-01
-4.90025000e-08,1.80501563e-01
-4.89625000e-08,1.80498437e-01
-4.89225000e-08,1.80501563e-01
-4.88825000e-08,1.80498437e-01
-4.88425000e-08,1.80501563e-01
-4.88025000e-08,1.80498437e-01
-4.87625000e-08,1.80501563e-01
-4.87225000e-08,1.80498437e-01
-4.86825000e-08,1.80501563e-01
-4.86425000e-08,1.80498437e-01
-4.86025000e-08,1.80501563e-01
-4.85625000e-08,1.80498437e-01
-4.85225000e-08,1.80501563e-01
-4.84825000e-08,1.80498437e-01
-4.84425000e-08,1.80501563e-01
-4.84025000e-08,1.80498437e-01
-4.83625000e-08,1.80501563e-01
-4.83225000e-08,1.80498437e-01
-4.82825000e-08,1.80501563e-01
-4.82425000e-08,1.80496875e-01
-4.82025000e-08,1.80503125e-01
-4.81625000e-08,1.80496875e-01
-4.81225000e-08,1.80503125e-01
-4.80825000e-08,1.80496875e-01
-4.80425000e-08,1.80503125e-01
-4.80025000e-08,1.80496875e-01
-4.79625000e-08,1.80503125e-01
-4.79225000e-08,1.80496875e-01
-4.78825000e-08,1.80503125e-01
-4.78425000e-08,1.80496875e-01
-4.78025000e-08,1.80503125e-01
-4.77625000e-08,1.80496875e-01
-4.77225000e-08,1.80503125e-01
-4.76825000e-08,1.80496875e-01
-4.76425000e-08,1.80503125e-01
-4.76025000e-08,1.80496875e-01
-4.75625000e-08,1.80503125e-01
-4.75225000e-08,1.80495313e-01
-4.74825000e-08,1.80504688e-01
-4.74425000e-08,1.80495313e-01
-4.74025000e-08,1.80504688e-01
-4.73625000e-08,1.80495313e-01
-4.73225000e-08,1.80504688e-01
-4.72825000e-08,1.80495313e-01
-4.72425000e-08,1.80504688e-01
-4.72025000e-08,1.80495313e-01
-4.71625000e-08,1.80504688e-01
-4.71225000e-08,1.80495313e-01
-4.70825000e-08,1.80504688e-01
-4.70425000e-08,1.80493750e-01
-4.70025000e-08,1.80506250e-01
-4.69625000e-08,1.80493750e-01
-4.69225000e-08,1.80506250e-01
-4.68825000e-08,1.80493750e-01
-4.68425000e-08,1.80506250e-01
-4.68025000e-08,1.80492188e-01
-4.67625000e-08,1.80507813e-01
-4.67225000e-08,1.80492188e-01
-4.66825000e-08,1.80507813e-01
-4.66425000e-08,1.80492188e-01
-4.66025000e-08,1.80509375e-01
-4.65625000e-08,1.80490625e-01
-4.65225000e-08,1.80509375e-01
-4.64825000e-08,1.80489063e-01
-4.64425000e-08,1.80510937e-01
-4.64025000e-08,1.80487500e-01
-4.63625000e-08,1.80512500e-01
-4.63225000e-08,1.80485937e-01
-4.62825000e-08,1.80515625e-01
-4.62425000e-08,1.80482813e-01
-4.62025000e-08,1.80520313e-01
-4.61625000e-08,1.80476562e-01
-4.61225000e-08,1.80528125e-01
-4.60825000e-08,1.80460938e-01
-4.60425000e-08,1.80564063e-01
-4.60025000e-08,1.80282813e-01
-4.59625000e-08,1.80056250e-01
-4.59225000e-08,1.80118750e-01
-4.58825000e-08,1.80090625e-01
-4.58425000e-08,1.80103125e-01
-4.58025000e-08,1.80101563e-01
-4.57625000e-08,1.80095312e-01
-4.57225000e-08,1.80109375e-01
-4.56825000e-08,1.80085938e-01
-4.56425000e-08,1.80120313e-01
-4.56025000e-08,1.80068750e-01
-4.55625000e-08,1.80156250e-01
-4.55225000e-08,1.79889063e-01
-4.54825000e-08,1.79650000e-01
-4.54425000e-08,1.79725000e-01
-4.54025000e-08,1.79684375e-01
-4.53625000e-08,1.79709375e-01
-4.53225000e-08,1.79695313e-01
-4.52825000e-08,1.79700000e-01
-4.52425000e-08,1.79703125e-01
-4.52025000e-08,1.79692188e-01
-4.51625000e-08,1.79714062e-01
-4.51225000e-08,1.79675000e-01
-4.50825000e-08,1.79751563e-01
-4.50425000e-08,1.79493750e-01
-4.50025000e-08,1.79243750e-01
-4.49625000e-08,1.79331250e-01
-4.49225000e-08,1.79279688e-01
-4.48825000e-08,1.79315625e-01
-4.48425000e-08,1.79289063e-01
-4.48025000e-08,1.79307812e-01
-4.47625000e-08,1.79295312e-01
-4.47225000e-08,1.79301563e-01
-4.46825000e-08,1.79301563e-01
-4.46425000e-08,1.79293750e-01
-4.46025000e-08,1.79310938e-01
-4.45625000e-08,1.79278125e-01
-4.45225000e-08,1.79346875e-01
-4.44825000e-08,1.79098438e-01
-4.44425000e-08,1.78839063e-01
-4.44025000e-08,1.78935938e-01
-4.43625000e-08,1.78873438e-01
-4.43225000e-08,1.78921875e-01
-4.42825000e-08,1.78882813e-01
-4.42425000e-08,1.78915625e-01
-4.42025000e-08,1.78885938e-01
-4.41625000e-08,1.78912500e-01
-4.41225000e-08,1.78889063e-01
-4.40825000e-08,1.78909375e-01
-4.40425000e-08,1.78890625e-01
-4.40025000e-08,1.78907813e-01
-4.39625000e-08,1.78892187e-01
-4.39225000e-08,1.78906250e-01
-4.38825000e-08,1.78893750e-01
-4.38425000e-08,1.78904688e-01
-4.38025000e-08,1.78895313e-01
-4.37625000e-08,1.78903125e-01
-4.37225000e-08,1.78896875e-01
-4.36825000e-08,1.78901562e-01
-4.36425000e-08,1.78898438e-01
-4.36025000e-08,1.78900000e-01
-4.35625000e-08,1.78900000e-01
-4.35225000e-08,1.78898438e-01
-4.34825000e-08,1.78903125e-01
-4.34425000e-08,1.78895313e-01
-4.34025000e-08,1.78907813e-01
-4.33625000e-08,1.78889063e-01
-4.33225000e-08,1.78917188e-01
-4.32825000e-08,1.78873438e-01
-4.32425000e-08,1.78953125e-01
-4.32025000e-08,1.78693750e-01
-4.31625000e-08,1.78445313e-01
-4.31225000e-08,1.78529688e-01
-4.30825000e-08,1.78481250e-01
-4.30425000e-08,1.78512500e-01
-4.30025000e-08,1.78493750e-01
-4.29625000e-08,1.78498437e-01
-4.29225000e-08,1.78512500e-01
-4.28825000e-08,1.78462500e-01
-4.28425000e-08,1.78692188e-01
-4.28025000e-08,1.78970313e-01
-4.27625000e-08,1.78854687e-01
-4.27225000e-08,1.78935938e-01
-4.26825000e-08,1.78868750e-01
-4.26425000e-08,1.78928125e-01
-4.26025000e-08,1.78873438e-01
-4.25625000e-08,1.78925000e-01
-4.25225000e-08,1.78875000e-01
-4.24825000e-08,1.78925000e-01
-4.24425000e-08,1.78873438e-01
-4.24025000e-08,1.78928125e-01
-4.23625000e-08,1.78867187e-01
-4.23225000e-08,1.78942188e-01
-4.22825000e-08,1.78834375e-01
-4.22425000e-08,1.79117187e-01
-4.22025000e-08,1.79346875e-01
-4.21625000e-08,1.79276563e-01
-4.21225000e-08,1.79317188e-01
-4.20825000e-08,1.79282812e-01
-4.20425000e-08,1.79321875e-01
-4.20025000e-08,1.79256250e-01
-4.19625000e-08,1.79493750e-01
-4.19225000e-08,1.79773437e-01
-4.18825000e-08,1.79643750e-01
-4.18425000e-08,1.79757813e-01
-4.18025000e-08,1.79621875e-01
-4.17625000e-08,1.79929688e-01
-4.17225000e-08,1.80132813e-01
-4.16825000e-08,1.80092188e-01
-4.16425000e-08,1.80095312e-01
-4.16025000e-08,1.80118750e-01
-4.15625000e-08,1.80056250e-01
-4.15225000e-08,1.80296875e-01
-4.14825000e-08,1.80567188e-01
-4.14425000e-08,1.80453125e-01
-4.14025000e-08,1.80545312e-01
-4.13625000e-08,1.80435938e-01
-4.13225000e-08,1.80714062e-01
-4.12825000e-08,1.80951562e-01
-4.12425000e-08,1.80868750e-01
-4.12025000e-08,1.80926562e-01
-4.11625000e-08,1.80873438e-01
-4.11225000e-08,1.80934375e-01
-4.10825000e-08,1.80842188e-01
-4.10425000e-08,1.81107813e-01
-4.10025000e-08,1.81354688e-01
-4.09625000e-08,1.81267188e-01
-4.09225000e-08,1.81325000e-01
-4.08825000e-08,1.81276563e-01
-4.08425000e-08,1.81323438e-01
-4.08025000e-08,1.81273437e-01
-4.07625000e-08,1.81334375e-01
-4.07225000e-08,1.81242188e-01
-4.06825000e-08,1.81510937e-01
-4.06425000e-08,1.81751563e-01
-4.06025000e-08,1.81671875e-01
-4.05625000e-08,1.81720313e-01
-4.05225000e-08,1.81684375e-01
-4.04825000e-08,1.81712500e-01
-4.04425000e-08,1.81689062e-01
-4.04025000e-08,1.81709375e-01
-4.03625000e-08,1.81692188e-01
-4.03225000e-08,1.81707813e-01
-4.02825000e-08,1.81692188e-01
-4.02425000e-08,1.81706250e-01
-4.02025000e-08,1.81693750e-01
-4.01625000e-08,1.81706250e-01
-4.01225000e-08,1.81693750e-01
-4.00825000e-08,1.81706250e-01
-4.00425000e-08,1.81693750e-01
-4.00025000e-08,1.81704688e-01
-3.99625000e-08,1.81695313e-01
-3.99225000e-08,1.81704688e-01
-3.98825000e-08,1.81695313e-01
-3.98425000e-08,1.81704688e-01
-3.98025000e-08,1.81695313e-01
-3.97625000e-08,1.81704688e-01
-3.97225000e-08,1.81695313e-01
-3.96825000e-08,1.81704688e-01
-3.96425000e-08,1.81695313e-01
-3.96025000e-08,1.81704688e-01
-3.95625000e-08,1.81695313e-01
-3.95225000e-08,1.81704688e-01
-3.94825000e-08,1.81695313e-01
-3.94425000e-08,1.81704688e-01
-3.94025000e-08,1.81695313e-01
-3.93625000e-08,1.81704688e-01
-3.93225000e-08,1.81695313e-01
-3.92825000e-08,1.81704688e-01
-3.92425000e-08,1.81695313e-01
-3.92025000e-08,1.81704688e-01
-3.91625000e-08,1.81695313e-01
-3.91225000e-08,1.81704688e-01
-3.90825000e-08,1.81695313e-01
-3.90425000e-08,1.81704688e-01
-3.90025000e-08,1.81695313e-01
-3.89625000e-08,1.81704688e-01
-3.89225000e-08,1.81695313e-01
-3.88825000e-08,1.81704688e-01
-3.88425000e-08,1.81695313e-01
-3.88025000e-08,1.81706250e-01
-3.87625000e-08,1.81693750e-01
-3.87225000e-08,1.81706250e-01
-3.86825000e-08,1.81693750e-01
-3.86425000e-08,1.81706250e-01
-3.86025000e-08,1.81692188e-01
-3.85625000e-08,1.81707813e-01
-3.85225000e-08,1.81692188e-01
