trails/0a08b63e0bce357032480812e7e37d0e/aes_ch1_20250506174358398.csv

Model,MSO66B
Label,
Waveform Type,ANALOG
Horizontal Units,s
Sample Interval,4.00000000e-11
Record Length,10000
Zero Index,1599.06250000
Vertical Units,A
ANALOG_Thumbnail,
yOffset,1.84500000e-01
yPosition,8.40000000e-01

Labels,
TIME,CH1
-6.39625000e-08,1.88884375e-01
-6.39225000e-08,1.88912500e-01
-6.38825000e-08,1.88889063e-01
-6.38425000e-08,1.88909375e-01
-6.38025000e-08,1.88892188e-01
-6.37625000e-08,1.88906250e-01
-6.37225000e-08,1.88893750e-01
-6.36825000e-08,1.88904688e-01
-6.36425000e-08,1.88895312e-01
-6.36025000e-08,1.88904688e-01
-6.35625000e-08,1.88896875e-01
-6.35225000e-08,1.88903125e-01
-6.34825000e-08,1.88896875e-01
-6.34425000e-08,1.88903125e-01
-6.34025000e-08,1.88896875e-01
-6.33625000e-08,1.88901563e-01
-6.33225000e-08,1.88898438e-01
-6.32825000e-08,1.88901563e-01
-6.32425000e-08,1.88898438e-01
-6.32025000e-08,1.88901563e-01
-6.31625000e-08,1.88898438e-01
-6.31225000e-08,1.88901563e-01
-6.30825000e-08,1.88900000e-01
-6.30425000e-08,1.88900000e-01
-6.30025000e-08,1.88900000e-01
-6.29625000e-08,1.88900000e-01
-6.29225000e-08,1.88900000e-01
-6.28825000e-08,1.88900000e-01
-6.28425000e-08,1.88900000e-01
-6.28025000e-08,1.88898438e-01
-6.27625000e-08,1.88901563e-01
-6.27225000e-08,1.88898438e-01
-6.26825000e-08,1.88901563e-01
-6.26425000e-08,1.88896875e-01
-6.26025000e-08,1.88903125e-01
-6.25625000e-08,1.88895312e-01
-6.25225000e-08,1.88904688e-01
-6.24825000e-08,1.88893750e-01
-6.24425000e-08,1.88907812e-01
-6.24025000e-08,1.88890625e-01
-6.23625000e-08,1.88912500e-01
-6.23225000e-08,1.88882812e-01
-6.22825000e-08,1.88928125e-01
-6.22425000e-08,1.88846875e-01
-6.22025000e-08,1.89106250e-01
-6.21625000e-08,1.89356250e-01
-6.21225000e-08,1.89267188e-01
-6.20825000e-08,1.89323437e-01
-6.20425000e-08,1.89281250e-01
-6.20025000e-08,1.89315625e-01
-6.19625000e-08,1.89285938e-01
-6.19225000e-08,1.89312500e-01
-6.18825000e-08,1.89289062e-01
-6.18425000e-08,1.89310937e-01
-6.18025000e-08,1.89290625e-01
-6.17625000e-08,1.89309375e-01
-6.17225000e-08,1.89290625e-01
-6.16825000e-08,1.89309375e-01
-6.16425000e-08,1.89292188e-01
-6.16025000e-08,1.89307813e-01
-6.15625000e-08,1.89292188e-01
-6.15225000e-08,1.89307813e-01
-6.14825000e-08,1.89292188e-01
-6.14425000e-08,1.89307813e-01
-6.14025000e-08,1.89292188e-01
-6.13625000e-08,1.89309375e-01
-6.13225000e-08,1.89290625e-01
-6.12825000e-08,1.89309375e-01
-6.12425000e-08,1.89289062e-01
-6.12025000e-08,1.89310937e-01
-6.11625000e-08,1.89287500e-01
-6.11225000e-08,1.89315625e-01
-6.10825000e-08,1.89282813e-01
-6.10425000e-08,1.89323437e-01
-6.10025000e-08,1.89267188e-01
-6.09625000e-08,1.89357813e-01
-6.09225000e-08,1.89089063e-01
-6.08825000e-08,1.88848438e-01
-6.08425000e-08,1.88928125e-01
-6.08025000e-08,1.88881250e-01
-6.07625000e-08,1.88914063e-01
-6.07225000e-08,1.88889063e-01
-6.06825000e-08,1.88909375e-01
-6.06425000e-08,1.88892188e-01
-6.06025000e-08,1.88906250e-01
-6.05625000e-08,1.88893750e-01
-6.05225000e-08,1.88904688e-01
-6.04825000e-08,1.88895312e-01
-6.04425000e-08,1.88904688e-01
-6.04025000e-08,1.88895312e-01
-6.03625000e-08,1.88903125e-01
-6.03225000e-08,1.88896875e-01
-6.02825000e-08,1.88903125e-01
-6.02425000e-08,1.88896875e-01
-6.02025000e-08,1.88903125e-01
-6.01625000e-08,1.88896875e-01
-6.01225000e-08,1.88903125e-01
-6.00825000e-08,1.88896875e-01
-6.00425000e-08,1.88903125e-01
-6.00025000e-08,1.88896875e-01
-5.99625000e-08,1.88901563e-01
-5.99225000e-08,1.88898438e-01
-5.98825000e-08,1.88901563e-01
-5.98425000e-08,1.88898438e-01
-5.98025000e-08,1.88901563e-01
-5.97625000e-08,1.88898438e-01
-5.97225000e-08,1.88901563e-01
-5.96825000e-08,1.88898438e-01
-5.96425000e-08,1.88900000e-01
-5.96025000e-08,1.88900000e-01
-5.95625000e-08,1.88898438e-01
-5.95225000e-08,1.88901563e-01
-5.94825000e-08,1.88895312e-01
-5.94425000e-08,1.88906250e-01
-5.94025000e-08,1.88889063e-01
-5.93625000e-08,1.88920313e-01
-5.93225000e-08,1.88856250e-01
-5.92825000e-08,1.89096875e-01
-5.92425000e-08,1.89365625e-01
-5.92025000e-08,1.89256250e-01
-5.91625000e-08,1.89335937e-01
-5.91225000e-08,1.89268750e-01
-5.90825000e-08,1.89331250e-01
-5.90425000e-08,1.89268750e-01
-5.90025000e-08,1.89332813e-01
-5.89625000e-08,1.89262500e-01
-5.89225000e-08,1.89348437e-01
-5.88825000e-08,1.89226563e-01
-5.88425000e-08,1.89526562e-01
-5.88025000e-08,1.89734375e-01
-5.87625000e-08,1.89690625e-01
-5.87225000e-08,1.89698438e-01
-5.86825000e-08,1.89710938e-01
-5.86425000e-08,1.89681250e-01
-5.86025000e-08,1.89731250e-01
-5.85625000e-08,1.89642188e-01
-5.85225000e-08,1.89912500e-01
-5.84825000e-08,1.90146875e-01
-5.84425000e-08,1.90079688e-01
-5.84025000e-08,1.90109375e-01
-5.83625000e-08,1.90100000e-01
-5.83225000e-08,1.90092188e-01
-5.82825000e-08,1.90120312e-01
-5.82425000e-08,1.90051562e-01
-5.82025000e-08,1.90303125e-01
-5.81625000e-08,1.90557813e-01
-5.81225000e-08,1.90467187e-01
-5.80825000e-08,1.90520313e-01
-5.80425000e-08,1.90485938e-01
-5.80025000e-08,1.90507813e-01
-5.79625000e-08,1.90496875e-01
-5.79225000e-08,1.90496875e-01
-5.78825000e-08,1.90515625e-01
-5.78425000e-08,1.90459375e-01
-5.78025000e-08,1.90695313e-01
-5.77625000e-08,1.90967187e-01
-5.77225000e-08,1.90857813e-01
-5.76825000e-08,1.90932812e-01
-5.76425000e-08,1.90873438e-01
-5.76025000e-08,1.90923438e-01
-5.75625000e-08,1.90878125e-01
-5.75225000e-08,1.90918750e-01
-5.74825000e-08,1.90881250e-01
-5.74425000e-08,1.90917188e-01
-5.74025000e-08,1.90884375e-01
-5.73625000e-08,1.90915625e-01
-5.73225000e-08,1.90884375e-01
-5.72825000e-08,1.90914063e-01
-5.72425000e-08,1.90885938e-01
-5.72025000e-08,1.90914063e-01
-5.71625000e-08,1.90885938e-01
-5.71225000e-08,1.90914063e-01
-5.70825000e-08,1.90885938e-01
-5.70425000e-08,1.90914063e-01
-5.70025000e-08,1.90884375e-01
-5.69625000e-08,1.90915625e-01
-5.69225000e-08,1.90882812e-01
-5.68825000e-08,1.90918750e-01
-5.68425000e-08,1.90878125e-01
-5.68025000e-08,1.90926563e-01
-5.67625000e-08,1.90864063e-01
-5.67225000e-08,1.90960938e-01
-5.66825000e-08,1.90687500e-01
-5.66425000e-08,1.90450000e-01
-5.66025000e-08,1.90526562e-01
-5.65625000e-08,1.90482813e-01
-5.65225000e-08,1.90512500e-01
-5.64825000e-08,1.90490625e-01
-5.64425000e-08,1.90507813e-01
-5.64025000e-08,1.90492188e-01
-5.63625000e-08,1.90506250e-01
-5.63225000e-08,1.90493750e-01
-5.62825000e-08,1.90507813e-01
-5.62425000e-08,1.90492188e-01
-5.62025000e-08,1.90509375e-01
-5.61625000e-08,1.90487500e-01
-5.61225000e-08,1.90517188e-01
-5.60825000e-08,1.90473438e-01
-5.60425000e-08,1.90550000e-01
-5.60025000e-08,1.90296875e-01
-5.59625000e-08,1.90040625e-01
-5.59225000e-08,1.90135938e-01
-5.58825000e-08,1.90071875e-01
-5.58425000e-08,1.90123438e-01
-5.58025000e-08,1.90079688e-01
-5.57625000e-08,1.90120312e-01
-5.57225000e-08,1.90079688e-01
-5.56825000e-08,1.90120312e-01
-5.56425000e-08,1.90076563e-01
-5.56025000e-08,1.90126563e-01
-5.55625000e-08,1.90064063e-01
-5.55225000e-08,1.90160938e-01
-5.54825000e-08,1.89887500e-01
-5.54425000e-08,1.89650000e-01
-5.54025000e-08,1.89726563e-01
-5.53625000e-08,1.89681250e-01
-5.53225000e-08,1.89714063e-01
-5.52825000e-08,1.89687500e-01
-5.52425000e-08,1.89710938e-01
-5.52025000e-08,1.89689063e-01
-5.51625000e-08,1.89712500e-01
-5.51225000e-08,1.89684375e-01
-5.50825000e-08,1.89718750e-01
-5.50425000e-08,1.89671875e-01
-5.50025000e-08,1.89753125e-01
-5.49625000e-08,1.89493750e-01
-5.49225000e-08,1.89242188e-01
-5.48825000e-08,1.89334375e-01
-5.48425000e-08,1.89275000e-01
-5.48025000e-08,1.89320313e-01
-5.47625000e-08,1.89282813e-01
-5.47225000e-08,1.89315625e-01
-5.46825000e-08,1.89285938e-01
-5.46425000e-08,1.89312500e-01
-5.46025000e-08,1.89287500e-01
-5.45625000e-08,1.89312500e-01
-5.45225000e-08,1.89287500e-01
-5.44825000e-08,1.89310937e-01
-5.44425000e-08,1.89289062e-01
-5.44025000e-08,1.89310937e-01
-5.43625000e-08,1.89289062e-01
-5.43225000e-08,1.89312500e-01
-5.42825000e-08,1.89287500e-01
-5.42425000e-08,1.89312500e-01
-5.42025000e-08,1.89287500e-01
-5.41625000e-08,1.89314063e-01
-5.41225000e-08,1.89285938e-01
-5.40825000e-08,1.89315625e-01
-5.40425000e-08,1.89282813e-01
-5.40025000e-08,1.89318750e-01
-5.39625000e-08,1.89278125e-01
-5.39225000e-08,1.89326563e-01
-5.38825000e-08,1.89264062e-01
-5.38425000e-08,1.89360937e-01
-5.38025000e-08,1.89085937e-01
-5.37625000e-08,1.88851563e-01
-5.37225000e-08,1.88923438e-01
-5.36825000e-08,1.88885938e-01
-5.36425000e-08,1.88909375e-01
-5.36025000e-08,1.88893750e-01
-5.35625000e-08,1.88904688e-01
-5.35225000e-08,1.88896875e-01
-5.34825000e-08,1.88901563e-01
-5.34425000e-08,1.88900000e-01
-5.34025000e-08,1.88900000e-01
-5.33625000e-08,1.88900000e-01
-5.33225000e-08,1.88898438e-01
-5.32825000e-08,1.88901563e-01
-5.32425000e-08,1.88898438e-01
-5.32025000e-08,1.88903125e-01
-5.31625000e-08,1.88896875e-01
-5.31225000e-08,1.88903125e-01
-5.30825000e-08,1.88896875e-01
-5.30425000e-08,1.88904688e-01
-5.30025000e-08,1.88895312e-01
-5.29625000e-08,1.88904688e-01
-5.29225000e-08,1.88895312e-01
-5.28825000e-08,1.88906250e-01
-5.28425000e-08,1.88893750e-01
-5.28025000e-08,1.88906250e-01
-5.27625000e-08,1.88893750e-01
-5.27225000e-08,1.88906250e-01
-5.26825000e-08,1.88892188e-01
-5.26425000e-08,1.88907812e-01
-5.26025000e-08,1.88892188e-01
-5.25625000e-08,1.88909375e-01
-5.25225000e-08,1.88890625e-01
-5.24825000e-08,1.88910938e-01
-5.24425000e-08,1.88887500e-01
-5.24025000e-08,1.88912500e-01
-5.23625000e-08,1.88885938e-01
-5.23225000e-08,1.88915625e-01
-5.22825000e-08,1.88881250e-01
-5.22425000e-08,1.88921875e-01
-5.22025000e-08,1.88871875e-01
-5.21625000e-08,1.88937500e-01
-5.21225000e-08,1.88835937e-01
-5.20825000e-08,1.89117188e-01
-5.20425000e-08,1.89343750e-01
-5.20025000e-08,1.89281250e-01
-5.19625000e-08,1.89307813e-01
-5.19225000e-08,1.89298437e-01
-5.18825000e-08,1.89296875e-01
-5.18425000e-08,1.89309375e-01
-5.18025000e-08,1.89284375e-01
-5.17625000e-08,1.89326563e-01
-5.17225000e-08,1.89246875e-01
-5.16825000e-08,1.89507813e-01
-5.16425000e-08,1.89753125e-01
-5.16025000e-08,1.89671875e-01
-5.15625000e-08,1.89717187e-01
-5.15225000e-08,1.89689063e-01
-5.14825000e-08,1.89704687e-01
-5.14425000e-08,1.89700000e-01
-5.14025000e-08,1.89693750e-01
-5.13625000e-08,1.89718750e-01
-5.13225000e-08,1.89656250e-01
-5.12825000e-08,1.89898438e-01
-5.12425000e-08,1.90164063e-01
-5.12025000e-08,1.90060937e-01
-5.11625000e-08,1.90129688e-01
-5.11225000e-08,1.90076563e-01
-5.10825000e-08,1.90120312e-01
-5.10425000e-08,1.90081250e-01
-5.10025000e-08,1.90117188e-01
-5.09625000e-08,1.90084375e-01
-5.09225000e-08,1.90114063e-01
-5.08825000e-08,1.90087500e-01
-5.08425000e-08,1.90112500e-01
-5.08025000e-08,1.90087500e-01
-5.07625000e-08,1.90110938e-01
-5.07225000e-08,1.90089063e-01
-5.06825000e-08,1.90110938e-01
-5.06425000e-08,1.90089063e-01
-5.06025000e-08,1.90109375e-01
-5.05625000e-08,1.90090625e-01
-5.05225000e-08,1.90109375e-01
-5.04825000e-08,1.90090625e-01
-5.04425000e-08,1.90109375e-01
-5.04025000e-08,1.90090625e-01
-5.03625000e-08,1.90109375e-01
-5.03225000e-08,1.90090625e-01
-5.02825000e-08,1.90109375e-01
-5.02425000e-08,1.90089063e-01
-5.02025000e-08,1.90110938e-01
-5.01625000e-08,1.90089063e-01
-5.01225000e-08,1.90110938e-01
-5.00825000e-08,1.90087500e-01
-5.00425000e-08,1.90114063e-01
-5.00025000e-08,1.90085937e-01
-4.99625000e-08,1.90117188e-01
-4.99225000e-08,1.90079688e-01
-4.98825000e-08,1.90125000e-01
-4.98425000e-08,1.90065625e-01
-4.98025000e-08,1.90159375e-01
-4.97625000e-08,1.89887500e-01
-4.97225000e-08,1.89650000e-01
-4.96825000e-08,1.89726563e-01
-4.96425000e-08,1.89682813e-01
-4.96025000e-08,1.89712500e-01
-4.95625000e-08,1.89690625e-01
-4.95225000e-08,1.89707813e-01
-4.94825000e-08,1.89693750e-01
-4.94425000e-08,1.89704687e-01
-4.94025000e-08,1.89695313e-01
-4.93625000e-08,1.89703125e-01
-4.93225000e-08,1.89696875e-01
-4.92825000e-08,1.89703125e-01
-4.92425000e-08,1.89696875e-01
-4.92025000e-08,1.89701563e-01
-4.91625000e-08,1.89698438e-01
-4.91225000e-08,1.89701563e-01
-4.90825000e-08,1.89698438e-01
-4.90425000e-08,1.89701563e-01
-4.90025000e-08,1.89698438e-01
-4.89625000e-08,1.89701563e-01
-4.89225000e-08,1.89698438e-01
-4.88825000e-08,1.89700000e-01
-4.88425000e-08,1.89700000e-01
-4.88025000e-08,1.89700000e-01
-4.87625000e-08,1.89700000e-01
-4.87225000e-08,1.89700000e-01
-4.86825000e-08,1.89700000e-01
-4.86425000e-08,1.89700000e-01
-4.86025000e-08,1.89700000e-01
-4.85625000e-08,1.89700000e-01
-4.85225000e-08,1.89700000e-01
-4.84825000e-08,1.89700000e-01
-4.84425000e-08,1.89700000e-01
-4.84025000e-08,1.89700000e-01
-4.83625000e-08,1.89700000e-01
-4.83225000e-08,1.89700000e-01
-4.82825000e-08,1.89700000e-01
-4.82425000e-08,1.89700000e-01
-4.82025000e-08,1.89700000e-01
-4.81625000e-08,1.89700000e-01
-4.81225000e-08,1.89700000e-01
-4.80825000e-08,1.89700000e-01
-4.80425000e-08,1.89700000e-01
-4.80025000e-08,1.89700000e-01
-4.79625000e-08,1.89700000e-01
-4.79225000e-08,1.89700000e-01
-4.78825000e-08,1.89700000e-01
-4.78425000e-08,1.89700000e-01
-4.78025000e-08,1.89700000e-01
-4.77625000e-08,1.89700000e-01
-4.77225000e-08,1.89700000e-01
-4.76825000e-08,1.89700000e-01
-4.76425000e-08,1.89700000e-01
-4.76025000e-08,1.89700000e-01
-4.75625000e-08,1.89700000e-01
-4.75225000e-08,1.89700000e-01
-4.74825000e-08,1.89700000e-01
-4.74425000e-08,1.89700000e-01
-4.74025000e-08,1.89700000e-01
-4.73625000e-08,1.89700000e-01
-4.73225000e-08,1.89700000e-01
-4.72825000e-08,1.89700000e-01
-4.72425000e-08,1.89700000e-01
-4.72025000e-08,1.89700000e-01
-4.71625000e-08,1.89700000e-01
-4.71225000e-08,1.89700000e-01
-4.70825000e-08,1.89701563e-01
-4.70425000e-08,1.89698438e-01
-4.70025000e-08,1.89701563e-01
-4.69625000e-08,1.89698438e-01
-4.69225000e-08,1.89701563e-01
-4.68825000e-08,1.89698438e-01
-4.68425000e-08,1.89701563e-01
-4.68025000e-08,1.89698438e-01
-4.67625000e-08,1.89701563e-01
-4.67225000e-08,1.89696875e-01
-4.66825000e-08,1.89703125e-01
-4.66425000e-08,1.89696875e-01
-4.66025000e-08,1.89704687e-01
-4.65625000e-08,1.89695313e-01
-4.65225000e-08,1.89706250e-01
-4.64825000e-08,1.89692187e-01
-4.64425000e-08,1.89710938e-01
-4.64025000e-08,1.89684375e-01
-4.63625000e-08,1.89725000e-01
-4.63225000e-08,1.89650000e-01
-4.62825000e-08,1.89901563e-01
-4.62425000e-08,1.90160938e-01
-4.62025000e-08,1.90062500e-01
-4.61625000e-08,1.90129688e-01
-4.61225000e-08,1.90075000e-01
-4.60825000e-08,1.90123438e-01
-4.60425000e-08,1.90076563e-01
-4.60025000e-08,1.90125000e-01
-4.59625000e-08,1.90070313e-01
-4.59225000e-08,1.90139063e-01
-4.58825000e-08,1.90037500e-01
-4.58425000e-08,1.90315625e-01
-4.58025000e-08,1.90546875e-01
-4.57625000e-08,1.90476563e-01
-4.57225000e-08,1.90514062e-01
-4.56825000e-08,1.90490625e-01
-4.56425000e-08,1.90506250e-01
-4.56025000e-08,1.90495313e-01
-4.55625000e-08,1.90503125e-01
-4.55225000e-08,1.90496875e-01
-4.54825000e-08,1.90501562e-01
-4.54425000e-08,1.90498438e-01
-4.54025000e-08,1.90500000e-01
-4.53625000e-08,1.90500000e-01
-4.53225000e-08,1.90498438e-01
-4.52825000e-08,1.90501562e-01
-4.52425000e-08,1.90498438e-01
-4.52025000e-08,1.90503125e-01
-4.51625000e-08,1.90496875e-01
-4.51225000e-08,1.90504688e-01
-4.50825000e-08,1.90493750e-01
-4.50425000e-08,1.90506250e-01
-4.50025000e-08,1.90492188e-01
-4.49625000e-08,1.90510938e-01
-4.49225000e-08,1.90485938e-01
-4.48825000e-08,1.90518750e-01
-4.48425000e-08,1.90470313e-01
-4.48025000e-08,1.90554688e-01
-4.47625000e-08,1.90292188e-01
-4.47225000e-08,1.90046875e-01
-4.46825000e-08,1.90128125e-01
-4.46425000e-08,1.90082813e-01
-4.46025000e-08,1.90109375e-01
-4.45625000e-08,1.90096875e-01
-4.45225000e-08,1.90092188e-01
-4.44825000e-08,1.90132812e-01
-4.44425000e-08,1.89914063e-01
-4.44025000e-08,1.89623438e-01
-4.43625000e-08,1.89754688e-01
-4.43225000e-08,1.89651563e-01
-4.42825000e-08,1.89748438e-01
-4.42425000e-08,1.89645312e-01
-4.42025000e-08,1.89778125e-01
-4.41625000e-08,1.89468750e-01
-4.41225000e-08,1.89268750e-01
-4.40825000e-08,1.89307813e-01
-4.40425000e-08,1.89303125e-01
-4.40025000e-08,1.89289062e-01
-4.39625000e-08,1.89318750e-01
-4.39225000e-08,1.89270313e-01
-4.38825000e-08,1.89354688e-01
-4.38425000e-08,1.89090625e-01
-4.38025000e-08,1.88846875e-01
-4.37625000e-08,1.88928125e-01
-4.37225000e-08,1.88881250e-01
-4.36825000e-08,1.88914063e-01
-4.36425000e-08,1.88890625e-01
-4.36025000e-08,1.88907812e-01
-4.35625000e-08,1.88893750e-01
-4.35225000e-08,1.88904688e-01
-4.34825000e-08,1.88896875e-01
-4.34425000e-08,1.88903125e-01
-4.34025000e-08,1.88898438e-01
-4.33625000e-08,1.88901563e-01
-4.33225000e-08,1.88900000e-01
-4.32825000e-08,1.88900000e-01
-4.32425000e-08,1.88900000e-01
-4.32025000e-08,1.88898438e-01
-4.31625000e-08,1.88901563e-01
-4.31225000e-08,1.88896875e-01
-4.30825000e-08,1.88903125e-01
-4.30425000e-08,1.88895312e-01
-4.30025000e-08,1.88904688e-01
-4.29625000e-08,1.88893750e-01
-4.29225000e-08,1.88907812e-01
-4.28825000e-08,1.88889063e-01
-4.28425000e-08,1.88914063e-01
-4.28025000e-08,1.88881250e-01
-4.27625000e-08,1.88928125e-01
-4.27225000e-08,1.88846875e-01
-4.26825000e-08,1.89106250e-01
-4.26425000e-08,1.89354688e-01
-4.26025000e-08,1.89268750e-01
-4.25625000e-08,1.89321875e-01
-4.25225000e-08,1.89282813e-01
-4.24825000e-08,1.89314063e-01
-4.24425000e-08,1.89287500e-01
-4.24025000e-08,1.89309375e-01
-4.23625000e-08,1.89290625e-01
-4.23225000e-08,1.89307813e-01
-4.22825000e-08,1.89292188e-01
-4.22425000e-08,1.89306250e-01
-4.22025000e-08,1.89293750e-01
-4.21625000e-08,1.89304688e-01
-4.21225000e-08,1.89295313e-01
-4.20825000e-08,1.89304688e-01
-4.20425000e-08,1.89296875e-01
-4.20025000e-08,1.89303125e-01
-4.19625000e-08,1.89296875e-01
-4.19225000e-08,1.89303125e-01
-4.18825000e-08,1.89298437e-01
-4.18425000e-08,1.89301563e-01
-4.18025000e-08,1.89300000e-01
-4.17625000e-08,1.89300000e-01
-4.17225000e-08,1.89301563e-01
-4.16825000e-08,1.89298437e-01
-4.16425000e-08,1.89303125e-01
-4.16025000e-08,1.89295313e-01
-4.15625000e-08,1.89306250e-01
-4.15225000e-08,1.89289062e-01
-4.14825000e-08,1.89315625e-01
-4.14425000e-08,1.89275000e-01
-4.14025000e-08,1.89350000e-01
-4.13625000e-08,1.89095313e-01
-4.13225000e-08,1.88842188e-01
-4.12825000e-08,1.88932813e-01
-4.12425000e-08,1.88876563e-01
-4.12025000e-08,1.88917188e-01
-4.11625000e-08,1.88887500e-01
-4.11225000e-08,1.88907812e-01
-4.10825000e-08,1.88898438e-01
-4.10425000e-08,1.88892188e-01
-4.10025000e-08,1.88932813e-01
-4.09625000e-08,1.88714063e-01
-4.09225000e-08,1.88423438e-01
-4.08825000e-08,1.88553125e-01
-4.08425000e-08,1.88454687e-01
-4.08025000e-08,1.88542188e-01
-4.07625000e-08,1.88456250e-01
-4.07225000e-08,1.88546875e-01
-4.06825000e-08,1.88445313e-01
-4.06425000e-08,1.88579688e-01
-4.06025000e-08,1.88267188e-01
-4.05625000e-08,1.88070313e-01
-4.05225000e-08,1.88104688e-01
-4.04825000e-08,1.88106250e-01
-4.04425000e-08,1.88085937e-01
-4.04025000e-08,1.88121875e-01
-4.03625000e-08,1.88065625e-01
-4.03225000e-08,1.88160938e-01
-4.02825000e-08,1.87885938e-01
-4.02425000e-08,1.87653125e-01
-4.02025000e-08,1.87721875e-01
-4.01625000e-08,1.87689063e-01
-4.01225000e-08,1.87704687e-01
-4.00825000e-08,1.87701563e-01
-4.00425000e-08,1.87693750e-01
-4.00025000e-08,1.87712500e-01
-3.99625000e-08,1.87676563e-01
-3.99225000e-08,1.87748438e-01
-3.98825000e-08,1.87498438e-01
-3.98425000e-08,1.87240625e-01
-3.98025000e-08,1.87335937e-01
-3.97625000e-08,1.87273438e-01
-3.97225000e-08,1.87323437e-01
-3.96825000e-08,1.87279688e-01
-3.96425000e-08,1.87320313e-01
-3.96025000e-08,1.87278125e-01
-3.95625000e-08,1.87325000e-01
-3.95225000e-08,1.87265625e-01
-3.94825000e-08,1.87357812e-01
-3.94425000e-08,1.87090625e-01
-3.94025000e-08,1.86846875e-01
-3.93625000e-08,1.86929687e-01
-3.93225000e-08,1.86878125e-01
-3.92825000e-08,1.86917187e-01
-3.92425000e-08,1.86885938e-01
-3.92025000e-08,1.86912500e-01
-3.91625000e-08,1.86887500e-01
-3.91225000e-08,1.86910938e-01
-3.90825000e-08,1.86889063e-01
-3.90425000e-08,1.86910938e-01
-3.90025000e-08,1.86889063e-01
-3.89625000e-08,1.86910938e-01
-3.89225000e-08,1.86889063e-01
-3.88825000e-08,1.86910938e-01
-3.88425000e-08,1.86887500e-01
-3.88025000e-08,1.86912500e-01
-3.87625000e-08,1.86885938e-01
-3.87225000e-08,1.86914063e-01
-3.86825000e-08,1.86884375e-01
-3.86425000e-08,1.86917187e-01
-3.86025000e-08,1.86881250e-01
-3.85625000e-08,1.86923438e-01
-3.85225000e-08,1.86871875e-01
