trails/0a08b63e0bce357032480812e7e37d0e/aes_ch1_20250506173521823.csv

Model,MSO66B
Label,
Waveform Type,ANALOG
Horizontal Units,s
Sample Interval,4.00000000e-11
Record Length,10000
Zero Index,1599.10546875
Vertical Units,A
ANALOG_Thumbnail,
yOffset,1.84500000e-01
yPosition,8.40000000e-01

Labels,
TIME,CH1
-6.39642188e-08,1.98092188e-01
-6.39242187e-08,1.98107813e-01
-6.38842187e-08,1.98090625e-01
-6.38442187e-08,1.98110938e-01
-6.38042187e-08,1.98087500e-01
-6.37642188e-08,1.98114063e-01
-6.37242187e-08,1.98082813e-01
-6.36842188e-08,1.98123437e-01
-6.36442187e-08,1.98067188e-01
-6.36042187e-08,1.98157813e-01
-6.35642187e-08,1.97887500e-01
-6.35242187e-08,1.97650000e-01
-6.34842188e-08,1.97725000e-01
-6.34442187e-08,1.97684375e-01
-6.34042188e-08,1.97709375e-01
-6.33642187e-08,1.97695312e-01
-6.33242187e-08,1.97701563e-01
-6.32842187e-08,1.97701563e-01
-6.32442187e-08,1.97693750e-01
-6.32042188e-08,1.97712500e-01
-6.31642187e-08,1.97678125e-01
-6.31242188e-08,1.97748438e-01
-6.30842187e-08,1.97498438e-01
-6.30442187e-08,1.97239063e-01
-6.30042187e-08,1.97335938e-01
-6.29642187e-08,1.97273438e-01
-6.29242188e-08,1.97321875e-01
-6.28842187e-08,1.97281250e-01
-6.28442187e-08,1.97315625e-01
-6.28042187e-08,1.97285938e-01
-6.27642187e-08,1.97314062e-01
-6.27242187e-08,1.97287500e-01
-6.26842187e-08,1.97310938e-01
-6.26442188e-08,1.97289063e-01
-6.26042187e-08,1.97310938e-01
-6.25642187e-08,1.97290625e-01
-6.25242187e-08,1.97309375e-01
-6.24842187e-08,1.97290625e-01
-6.24442187e-08,1.97309375e-01
-6.24042187e-08,1.97292187e-01
-6.23642188e-08,1.97307813e-01
-6.23242187e-08,1.97292187e-01
-6.22842187e-08,1.97307813e-01
-6.22442187e-08,1.97292187e-01
-6.22042187e-08,1.97307813e-01
-6.21642187e-08,1.97292187e-01
-6.21242187e-08,1.97307813e-01
-6.20842188e-08,1.97292187e-01
-6.20442187e-08,1.97307813e-01
-6.20042187e-08,1.97292187e-01
-6.19642187e-08,1.97307813e-01
-6.19242187e-08,1.97292187e-01
-6.18842187e-08,1.97307813e-01
-6.18442187e-08,1.97292187e-01
-6.18042188e-08,1.97307813e-01
-6.17642187e-08,1.97292187e-01
-6.17242187e-08,1.97309375e-01
-6.16842187e-08,1.97290625e-01
-6.16442187e-08,1.97309375e-01
-6.16042187e-08,1.97289063e-01
-6.15642187e-08,1.97310938e-01
-6.15242188e-08,1.97287500e-01
-6.14842187e-08,1.97314062e-01
-6.14442187e-08,1.97284375e-01
-6.14042187e-08,1.97318750e-01
-6.13642187e-08,1.97276563e-01
-6.13242187e-08,1.97332813e-01
-6.12842187e-08,1.97242187e-01
-6.12442188e-08,1.97510938e-01
-6.12042187e-08,1.97751563e-01
-6.11642187e-08,1.97671875e-01
-6.11242187e-08,1.97718750e-01
-6.10842187e-08,1.97687500e-01
-6.10442187e-08,1.97709375e-01
-6.10042187e-08,1.97692188e-01
-6.09642188e-08,1.97706250e-01
-6.09242187e-08,1.97693750e-01
-6.08842187e-08,1.97704688e-01
-6.08442187e-08,1.97695312e-01
-6.08042187e-08,1.97703125e-01
-6.07642188e-08,1.97696875e-01
-6.07242187e-08,1.97703125e-01
-6.06842188e-08,1.97696875e-01
-6.06442187e-08,1.97701563e-01
-6.06042187e-08,1.97698438e-01
-6.05642187e-08,1.97701563e-01
-6.05242187e-08,1.97698438e-01
-6.04842188e-08,1.97701563e-01
-6.04442187e-08,1.97698438e-01
-6.04042188e-08,1.97701563e-01
-6.03642187e-08,1.97698438e-01
-6.03242187e-08,1.97701563e-01
-6.02842187e-08,1.97698438e-01
-6.02442187e-08,1.97700000e-01
-6.02042188e-08,1.97700000e-01
-6.01642187e-08,1.97700000e-01
-6.01242188e-08,1.97700000e-01
-6.00842187e-08,1.97700000e-01
-6.00442187e-08,1.97700000e-01
-6.00042187e-08,1.97700000e-01
-5.99642187e-08,1.97700000e-01
-5.99242188e-08,1.97700000e-01
-5.98842187e-08,1.97700000e-01
-5.98442188e-08,1.97700000e-01
-5.98042187e-08,1.97700000e-01
-5.97642187e-08,1.97700000e-01
-5.97242187e-08,1.97700000e-01
-5.96842187e-08,1.97700000e-01
-5.96442188e-08,1.97700000e-01
-5.96042187e-08,1.97700000e-01
-5.95642187e-08,1.97700000e-01
-5.95242187e-08,1.97700000e-01
-5.94842187e-08,1.97700000e-01
-5.94442187e-08,1.97700000e-01
-5.94042187e-08,1.97700000e-01
-5.93642187e-08,1.97700000e-01
-5.93242187e-08,1.97700000e-01
-5.92842187e-08,1.97700000e-01
-5.92442187e-08,1.97700000e-01
-5.92042187e-08,1.97700000e-01
-5.91642187e-08,1.97700000e-01
-5.91242187e-08,1.97700000e-01
-5.90842187e-08,1.97700000e-01
-5.90442187e-08,1.97700000e-01
-5.90042187e-08,1.97700000e-01
-5.89642187e-08,1.97700000e-01
-5.89242187e-08,1.97700000e-01
-5.88842187e-08,1.97700000e-01
-5.88442187e-08,1.97700000e-01
-5.88042187e-08,1.97700000e-01
-5.87642187e-08,1.97701563e-01
-5.87242187e-08,1.97698438e-01
-5.86842187e-08,1.97701563e-01
-5.86442187e-08,1.97698438e-01
-5.86042187e-08,1.97701563e-01
-5.85642187e-08,1.97698438e-01
-5.85242187e-08,1.97701563e-01
-5.84842187e-08,1.97698438e-01
-5.84442187e-08,1.97701563e-01
-5.84042187e-08,1.97698438e-01
-5.83642187e-08,1.97701563e-01
-5.83242187e-08,1.97698438e-01
-5.82842187e-08,1.97701563e-01
-5.82442187e-08,1.97696875e-01
-5.82042187e-08,1.97703125e-01
-5.81642187e-08,1.97696875e-01
-5.81242187e-08,1.97703125e-01
-5.80842187e-08,1.97695312e-01
-5.80442187e-08,1.97704688e-01
-5.80042187e-08,1.97693750e-01
-5.79642187e-08,1.97706250e-01
-5.79242187e-08,1.97692188e-01
-5.78842187e-08,1.97709375e-01
-5.78442187e-08,1.97687500e-01
-5.78042187e-08,1.97717188e-01
-5.77642187e-08,1.97673437e-01
-5.77242187e-08,1.97751563e-01
-5.76842187e-08,1.97495313e-01
-5.76442187e-08,1.97242187e-01
-5.76042187e-08,1.97334375e-01
-5.75642187e-08,1.97275000e-01
-5.75242187e-08,1.97320313e-01
-5.74842187e-08,1.97282813e-01
-5.74442187e-08,1.97315625e-01
-5.74042187e-08,1.97284375e-01
-5.73642187e-08,1.97315625e-01
-5.73242187e-08,1.97284375e-01
-5.72842187e-08,1.97315625e-01
-5.72442187e-08,1.97282813e-01
-5.72042187e-08,1.97318750e-01
-5.71642187e-08,1.97276563e-01
-5.71242187e-08,1.97332813e-01
-5.70842187e-08,1.97242187e-01
-5.70442187e-08,1.97509375e-01
-5.70042187e-08,1.97753125e-01
-5.69642187e-08,1.97670313e-01
-5.69242187e-08,1.97721875e-01
-5.68842187e-08,1.97682812e-01
-5.68442187e-08,1.97715625e-01
-5.68042187e-08,1.97684375e-01
-5.67642187e-08,1.97717188e-01
-5.67242187e-08,1.97679688e-01
-5.66842187e-08,1.97729688e-01
-5.66442187e-08,1.97646875e-01
-5.66042187e-08,1.97904688e-01
-5.65642187e-08,1.98159375e-01
-5.65242187e-08,1.98062500e-01
-5.64842187e-08,1.98131250e-01
-5.64442187e-08,1.98068750e-01
-5.64042187e-08,1.98137500e-01
-5.63642187e-08,1.98040625e-01
-5.63242187e-08,1.98310938e-01
-5.62842187e-08,1.98553125e-01
-5.62442187e-08,1.98467188e-01
-5.62042187e-08,1.98526563e-01
-5.61642187e-08,1.98473438e-01
-5.61242187e-08,1.98532813e-01
-5.60842187e-08,1.98445312e-01
-5.60442187e-08,1.98706250e-01
-5.60042187e-08,1.98957812e-01
-5.59642187e-08,1.98862500e-01
-5.59242187e-08,1.98931250e-01
-5.58842187e-08,1.98868750e-01
-5.58442187e-08,1.98937500e-01
-5.58042187e-08,1.98839062e-01
-5.57642187e-08,1.99112500e-01
-5.57242187e-08,1.99351562e-01
-5.56842187e-08,1.99270313e-01
-5.56442187e-08,1.99321875e-01
-5.56042187e-08,1.99279687e-01
-5.55642187e-08,1.99320313e-01
-5.55242187e-08,1.99276563e-01
-5.54842187e-08,1.99331250e-01
-5.54442187e-08,1.99245312e-01
-5.54042187e-08,1.99506250e-01
-5.53642187e-08,1.99756250e-01
-5.53242187e-08,1.99665625e-01
-5.52842187e-08,1.99725000e-01
-5.52442187e-08,1.99678125e-01
-5.52042187e-08,1.99720312e-01
-5.51642187e-08,1.99679688e-01
-5.51242187e-08,1.99721875e-01
-5.50842187e-08,1.99673437e-01
-5.50442187e-08,1.99734375e-01
-5.50042187e-08,1.99642188e-01
-5.49642187e-08,1.99910937e-01
-5.49242187e-08,2.00151563e-01
-5.48842187e-08,2.00070313e-01
-5.48442187e-08,2.00120313e-01
-5.48042187e-08,2.00084375e-01
-5.47642187e-08,2.00114063e-01
-5.47242187e-08,2.00085938e-01
-5.46842187e-08,2.00114063e-01
-5.46442187e-08,2.00085938e-01
-5.46042187e-08,2.00117188e-01
-5.45642187e-08,2.00078125e-01
-5.45242187e-08,2.00129688e-01
-5.44842187e-08,2.00045313e-01
-5.44442187e-08,2.00307813e-01
-5.44042187e-08,2.00554687e-01
-5.43642187e-08,2.00468750e-01
-5.43242187e-08,2.00521875e-01
-5.42842187e-08,2.00482812e-01
-5.42442187e-08,2.00514063e-01
-5.42042187e-08,2.00487500e-01
-5.41642187e-08,2.00510938e-01
-5.41242187e-08,2.00489063e-01
-5.40842187e-08,2.00509375e-01
-5.40442187e-08,2.00490625e-01
-5.40042187e-08,2.00509375e-01
-5.39642187e-08,2.00490625e-01
-5.39242187e-08,2.00507812e-01
-5.38842187e-08,2.00492188e-01
-5.38442187e-08,2.00507812e-01
-5.38042187e-08,2.00492188e-01
-5.37642187e-08,2.00507812e-01
-5.37242187e-08,2.00492188e-01
-5.36842187e-08,2.00507812e-01
-5.36442187e-08,2.00492188e-01
-5.36042187e-08,2.00507812e-01
-5.35642187e-08,2.00492188e-01
-5.35242187e-08,2.00507812e-01
-5.34842187e-08,2.00492188e-01
-5.34442187e-08,2.00509375e-01
-5.34042187e-08,2.00490625e-01
-5.33642188e-08,2.00509375e-01
-5.33242187e-08,2.00490625e-01
-5.32842187e-08,2.00509375e-01
-5.32442187e-08,2.00490625e-01
-5.32042187e-08,2.00510938e-01
-5.31642187e-08,2.00489063e-01
-5.31242187e-08,2.00510938e-01
-5.30842187e-08,2.00489063e-01
-5.30442187e-08,2.00512500e-01
-5.30042187e-08,2.00487500e-01
-5.29642187e-08,2.00514063e-01
-5.29242187e-08,2.00485938e-01
-5.28842187e-08,2.00515625e-01
-5.28442187e-08,2.00482812e-01
-5.28042187e-08,2.00520313e-01
-5.27642187e-08,2.00476563e-01
-5.27242187e-08,2.00528125e-01
-5.26842187e-08,2.00462500e-01
-5.26442187e-08,2.00564063e-01
-5.26042187e-08,2.00282813e-01
-5.25642187e-08,2.00054687e-01
-5.25242187e-08,2.00120313e-01
-5.24842187e-08,2.00089062e-01
-5.24442187e-08,2.00106250e-01
-5.24042187e-08,2.00098438e-01
-5.23642187e-08,2.00100000e-01
-5.23242187e-08,2.00103125e-01
-5.22842187e-08,2.00095313e-01
-5.22442187e-08,2.00107813e-01
-5.22042187e-08,2.00090625e-01
-5.21642187e-08,2.00112500e-01
-5.21242187e-08,2.00084375e-01
-5.20842187e-08,2.00121875e-01
-5.20442187e-08,2.00068750e-01
-5.20042187e-08,2.00157813e-01
-5.19642187e-08,1.99889062e-01
-5.19242187e-08,1.99650000e-01
-5.18842187e-08,1.99726563e-01
-5.18442187e-08,1.99682813e-01
-5.18042187e-08,1.99710938e-01
-5.17642187e-08,1.99692188e-01
-5.17242187e-08,1.99704688e-01
-5.16842187e-08,1.99698437e-01
-5.16442187e-08,1.99700000e-01
-5.16042187e-08,1.99701563e-01
-5.15642187e-08,1.99695312e-01
-5.15242187e-08,1.99707812e-01
-5.14842187e-08,1.99689063e-01
-5.14442188e-08,1.99717188e-01
-5.14042187e-08,1.99673437e-01
-5.13642187e-08,1.99751563e-01
-5.13242187e-08,1.99493750e-01
-5.12842187e-08,1.99243750e-01
-5.12442187e-08,1.99331250e-01
-5.12042187e-08,1.99278125e-01
-5.11642188e-08,1.99317187e-01
-5.11242187e-08,1.99285938e-01
-5.10842187e-08,1.99310938e-01
-5.10442187e-08,1.99290625e-01
-5.10042187e-08,1.99307813e-01
-5.09642187e-08,1.99293750e-01
-5.09242187e-08,1.99306250e-01
-5.08842187e-08,1.99295313e-01
-5.08442187e-08,1.99304688e-01
-5.08042187e-08,1.99296875e-01
-5.07642187e-08,1.99303125e-01
-5.07242187e-08,1.99298438e-01
-5.06842187e-08,1.99301563e-01
-5.06442187e-08,1.99300000e-01
-5.06042187e-08,1.99300000e-01
-5.05642187e-08,1.99301563e-01
-5.05242187e-08,1.99296875e-01
-5.04842187e-08,1.99304688e-01
-5.04442187e-08,1.99293750e-01
-5.04042187e-08,1.99307813e-01
-5.03642187e-08,1.99289063e-01
-5.03242187e-08,1.99317187e-01
-5.02842187e-08,1.99273438e-01
-5.02442187e-08,1.99351562e-01
-5.02042187e-08,1.99095313e-01
-5.01642187e-08,1.98842188e-01
-5.01242187e-08,1.98932813e-01
-5.00842187e-08,1.98876563e-01
-5.00442187e-08,1.98918750e-01
-5.00042187e-08,1.98884375e-01
-4.99642187e-08,1.98912500e-01
-4.99242187e-08,1.98889063e-01
-4.98842187e-08,1.98910937e-01
-4.98442187e-08,1.98890625e-01
-4.98042187e-08,1.98909375e-01
-4.97642187e-08,1.98892188e-01
-4.97242187e-08,1.98907813e-01
-4.96842187e-08,1.98893750e-01
-4.96442187e-08,1.98906250e-01
-4.96042187e-08,1.98893750e-01
-4.95642187e-08,1.98904688e-01
-4.95242188e-08,1.98895313e-01
-4.94842187e-08,1.98904688e-01
-4.94442187e-08,1.98895313e-01
-4.94042187e-08,1.98903125e-01
-4.93642187e-08,1.98896875e-01
-4.93242187e-08,1.98903125e-01
-4.92842187e-08,1.98898437e-01
-4.92442188e-08,1.98901563e-01
-4.92042187e-08,1.98900000e-01
-4.91642187e-08,1.98900000e-01
-4.91242187e-08,1.98901563e-01
-4.90842187e-08,1.98895313e-01
-4.90442187e-08,1.98907813e-01
-4.90042187e-08,1.98887500e-01
-4.89642188e-08,1.98921875e-01
-4.89242187e-08,1.98854688e-01
-4.88842187e-08,1.99098438e-01
-4.88442187e-08,1.99364062e-01
-4.88042187e-08,1.99259375e-01
-4.87642187e-08,1.99331250e-01
-4.87242187e-08,1.99271875e-01
-4.86842187e-08,1.99326562e-01
-4.86442187e-08,1.99275000e-01
-4.86042187e-08,1.99326562e-01
-4.85642187e-08,1.99271875e-01
-4.85242187e-08,1.99332813e-01
-4.84842187e-08,1.99259375e-01
-4.84442187e-08,1.99365625e-01
-4.84042187e-08,1.99081250e-01
-4.83642187e-08,1.98854688e-01
-4.83242187e-08,1.98920313e-01
-4.82842187e-08,1.98887500e-01
-4.82442187e-08,1.98907813e-01
-4.82042187e-08,1.98895313e-01
-4.81642187e-08,1.98901563e-01
-4.81242187e-08,1.98898437e-01
-4.80842187e-08,1.98900000e-01
-4.80442187e-08,1.98901563e-01
-4.80042187e-08,1.98898437e-01
-4.79642187e-08,1.98903125e-01
-4.79242187e-08,1.98896875e-01
-4.78842187e-08,1.98903125e-01
-4.78442187e-08,1.98895313e-01
-4.78042187e-08,1.98904688e-01
-4.77642187e-08,1.98895313e-01
-4.77242187e-08,1.98906250e-01
-4.76842187e-08,1.98893750e-01
-4.76442187e-08,1.98907813e-01
-4.76042188e-08,1.98890625e-01
-4.75642187e-08,1.98909375e-01
-4.75242187e-08,1.98889063e-01
-4.74842187e-08,1.98914063e-01
-4.74442187e-08,1.98882813e-01
-4.74042187e-08,1.98921875e-01
-4.73642187e-08,1.98867188e-01
-4.73242188e-08,1.98957812e-01
-4.72842187e-08,1.98689063e-01
-4.72442187e-08,1.98448438e-01
-4.72042187e-08,1.98526563e-01
-4.71642187e-08,1.98482812e-01
-4.71242187e-08,1.98512500e-01
-4.70842187e-08,1.98492188e-01
-4.70442188e-08,1.98506250e-01
-4.70042187e-08,1.98496875e-01
-4.69642187e-08,1.98501563e-01
-4.69242187e-08,1.98501563e-01
-4.68842187e-08,1.98495313e-01
-4.68442187e-08,1.98507813e-01
-4.68042187e-08,1.98485938e-01
-4.67642188e-08,1.98523438e-01
-4.67242187e-08,1.98451563e-01
-4.66842187e-08,1.98701563e-01
-4.66442187e-08,1.98959375e-01
-4.66042187e-08,1.98864062e-01
-4.65642187e-08,1.98926563e-01
-4.65242187e-08,1.98879688e-01
-4.64842187e-08,1.98917188e-01
-4.64442187e-08,1.98884375e-01
-4.64042187e-08,1.98912500e-01
-4.63642187e-08,1.98889063e-01
-4.63242187e-08,1.98910937e-01
-4.62842187e-08,1.98890625e-01
-4.62442187e-08,1.98907813e-01
-4.62042187e-08,1.98893750e-01
-4.61642187e-08,1.98904688e-01
-4.61242187e-08,1.98896875e-01
-4.60842187e-08,1.98900000e-01
-4.60442187e-08,1.98906250e-01
-4.60042187e-08,1.98884375e-01
-4.59642187e-08,1.98940625e-01
-4.59242187e-08,1.98706250e-01
-4.58842187e-08,1.98429688e-01
-4.58442187e-08,1.98545313e-01
-4.58042187e-08,1.98462500e-01
-4.57642187e-08,1.98532813e-01
-4.57242187e-08,1.98470312e-01
-4.56842188e-08,1.98529687e-01
-4.56442187e-08,1.98471875e-01
-4.56042187e-08,1.98528125e-01
-4.55642187e-08,1.98470312e-01
-4.55242187e-08,1.98531250e-01
-4.54842187e-08,1.98465625e-01
-4.54442187e-08,1.98539063e-01
-4.54042188e-08,1.98451563e-01
-4.53642187e-08,1.98573438e-01
-4.53242187e-08,1.98273438e-01
-4.52842187e-08,1.98064062e-01
-4.52442187e-08,1.98110938e-01
-4.52042187e-08,1.98098438e-01
-4.51642187e-08,1.98095313e-01
-4.51242188e-08,1.98107813e-01
-4.50842187e-08,1.98089062e-01
-4.50442187e-08,1.98114063e-01
-4.50042187e-08,1.98082813e-01
-4.49642187e-08,1.98120313e-01
-4.49242187e-08,1.98076562e-01
-4.48842187e-08,1.98129688e-01
-4.48442188e-08,1.98059375e-01
-4.48042187e-08,1.98165625e-01
-4.47642187e-08,1.97879688e-01
-4.47242187e-08,1.97659375e-01
-4.46842187e-08,1.97715625e-01
-4.46442187e-08,1.97695312e-01
-4.46042187e-08,1.97698438e-01
-4.45642187e-08,1.97706250e-01
-4.45242187e-08,1.97689063e-01
-4.44842187e-08,1.97715625e-01
-4.44442187e-08,1.97676563e-01
-4.44042187e-08,1.97734375e-01
-4.43642187e-08,1.97639063e-01
-4.43242187e-08,1.97914063e-01
-4.42842187e-08,1.98146875e-01
-4.42442187e-08,1.98079688e-01
-4.42042187e-08,1.98110938e-01
-4.41642187e-08,1.98096875e-01
-4.41242187e-08,1.98098438e-01
-4.40842187e-08,1.98106250e-01
-4.40442187e-08,1.98090625e-01
-4.40042187e-08,1.98115625e-01
-4.39642187e-08,1.98078125e-01
-4.39242187e-08,1.98132813e-01
-4.38842187e-08,1.98040625e-01
-4.38442187e-08,1.98314062e-01
-4.38042187e-08,1.98545313e-01
-4.37642188e-08,1.98481250e-01
-4.37242187e-08,1.98507813e-01
-4.36842187e-08,1.98501563e-01
-4.36442187e-08,1.98489063e-01
-4.36042187e-08,1.98523438e-01
-4.35642187e-08,1.98448438e-01
-4.35242187e-08,1.98706250e-01
-4.34842188e-08,1.98953125e-01
-4.34442187e-08,1.98873437e-01
-4.34042187e-08,1.98914063e-01
-4.33642187e-08,1.98895313e-01
-4.33242187e-08,1.98895313e-01
-4.32842187e-08,1.98917188e-01
-4.32442187e-08,1.98856250e-01
-4.32042188e-08,1.99098438e-01
-4.31642187e-08,1.99360938e-01
-4.31242187e-08,1.99264063e-01
-4.30842187e-08,1.99323438e-01
-4.30442187e-08,1.99282813e-01
-4.30042187e-08,1.99310938e-01
-4.29642187e-08,1.99295313e-01
-4.29242188e-08,1.99298438e-01
-4.28842187e-08,1.99312500e-01
-4.28442187e-08,1.99260938e-01
-4.28042187e-08,1.99493750e-01
-4.27642187e-08,1.99767187e-01
-4.27242187e-08,1.99657813e-01
-4.26842187e-08,1.99732813e-01
-4.26442188e-08,1.99673437e-01
-4.26042187e-08,1.99723438e-01
-4.25642187e-08,1.99679688e-01
-4.25242187e-08,1.99718750e-01
-4.24842187e-08,1.99684375e-01
-4.24442187e-08,1.99714063e-01
-4.24042187e-08,1.99687500e-01
-4.23642187e-08,1.99710938e-01
-4.23242187e-08,1.99690625e-01
-4.22842187e-08,1.99707812e-01
-4.22442187e-08,1.99695312e-01
-4.22042187e-08,1.99701563e-01
-4.21642187e-08,1.99703125e-01
-4.21242187e-08,1.99687500e-01
-4.20842187e-08,1.99737500e-01
-4.20442187e-08,1.99509375e-01
-4.20042187e-08,1.99228125e-01
-4.19642187e-08,1.99348438e-01
-4.19242187e-08,1.99259375e-01
-4.18842187e-08,1.99335938e-01
-4.18442188e-08,1.99265625e-01
-4.18042187e-08,1.99334375e-01
-4.17642187e-08,1.99264063e-01
-4.17242187e-08,1.99340625e-01
-4.16842187e-08,1.99251563e-01
-4.16442187e-08,1.99373438e-01
-4.16042187e-08,1.99073438e-01
-4.15642188e-08,1.98864062e-01
-4.15242187e-08,1.98912500e-01
-4.14842187e-08,1.98898437e-01
-4.14442187e-08,1.98896875e-01
-4.14042187e-08,1.98907813e-01
-4.13642187e-08,1.98887500e-01
-4.13242187e-08,1.98918750e-01
-4.12842188e-08,1.98870313e-01
-4.12442187e-08,1.98954688e-01
-4.12042187e-08,1.98692188e-01
-4.11642187e-08,1.98445312e-01
-4.11242187e-08,1.98531250e-01
-4.10842187e-08,1.98478125e-01
-4.10442187e-08,1.98517187e-01
-4.10042188e-08,1.98485938e-01
-4.09642187e-08,1.98512500e-01
-4.09242187e-08,1.98487500e-01
-4.08842187e-08,1.98512500e-01
-4.08442187e-08,1.98487500e-01
-4.08042187e-08,1.98514063e-01
-4.07642187e-08,1.98482812e-01
-4.07242188e-08,1.98521875e-01
-4.06842187e-08,1.98468750e-01
-4.06442187e-08,1.98554687e-01
-4.06042187e-08,1.98292187e-01
-4.05642187e-08,1.98045313e-01
-4.05242187e-08,1.98131250e-01
-4.04842187e-08,1.98078125e-01
-4.04442188e-08,1.98117188e-01
-4.04042187e-08,1.98085938e-01
-4.03642187e-08,1.98112500e-01
-4.03242187e-08,1.98089062e-01
-4.02842187e-08,1.98109375e-01
-4.02442187e-08,1.98090625e-01
-4.02042187e-08,1.98107813e-01
-4.01642187e-08,1.98092188e-01
-4.01242187e-08,1.98107813e-01
-4.00842187e-08,1.98093750e-01
-4.00442187e-08,1.98106250e-01
-4.00042187e-08,1.98093750e-01
-3.99642187e-08,1.98106250e-01
-3.99242188e-08,1.98093750e-01
-3.98842187e-08,1.98106250e-01
-3.98442187e-08,1.98095313e-01
-3.98042187e-08,1.98104688e-01
-3.97642187e-08,1.98095313e-01
-3.97242187e-08,1.98104688e-01
-3.96842187e-08,1.98095313e-01
-3.96442188e-08,1.98104688e-01
-3.96042187e-08,1.98095313e-01
-3.95642187e-08,1.98104688e-01
-3.95242187e-08,1.98095313e-01
-3.94842187e-08,1.98104688e-01
-3.94442187e-08,1.98095313e-01
-3.94042187e-08,1.98104688e-01
-3.93642188e-08,1.98096875e-01
-3.93242187e-08,1.98103125e-01
-3.92842187e-08,1.98096875e-01
-3.92442187e-08,1.98103125e-01
-3.92042187e-08,1.98096875e-01
-3.91642187e-08,1.98103125e-01
-3.91242187e-08,1.98096875e-01
-3.90842188e-08,1.98103125e-01
-3.90442187e-08,1.98098438e-01
-3.90042187e-08,1.98101562e-01
-3.89642187e-08,1.98098438e-01
-3.89242187e-08,1.98101562e-01
-3.88842187e-08,1.98098438e-01
-3.88442187e-08,1.98100000e-01
-3.88042188e-08,1.98100000e-01
-3.87642187e-08,1.98098438e-01
-3.87242187e-08,1.98101562e-01
-3.86842187e-08,1.98096875e-01
-3.86442187e-08,1.98104688e-01
-3.86042187e-08,1.98092188e-01
-3.85642187e-08,1.98112500e-01
-3.85242188e-08,1.98076562e-01
