trails/0a08b63e0bce357032480812e7e37d0e/aes_ch1_20250506173641742.csv

Model,MSO66B
Label,
Waveform Type,ANALOG
Horizontal Units,s
Sample Interval,4.00000000e-11
Record Length,10000
Zero Index,1599.07812500
Vertical Units,A
ANALOG_Thumbnail,
yOffset,1.84500000e-01
yPosition,8.40000000e-01

Labels,
TIME,CH1
-6.39631250e-08,1.92895312e-01
-6.39231250e-08,1.92904688e-01
-6.38831250e-08,1.92893750e-01
-6.38431250e-08,1.92907812e-01
-6.38031250e-08,1.92890625e-01
-6.37631250e-08,1.92912500e-01
-6.37231250e-08,1.92882813e-01
-6.36831250e-08,1.92926563e-01
-6.36431250e-08,1.92848437e-01
-6.36031250e-08,1.93104688e-01
-6.35631250e-08,1.93357813e-01
-6.35231250e-08,1.93265625e-01
-6.34831250e-08,1.93325000e-01
-6.34431250e-08,1.93279688e-01
-6.34031250e-08,1.93317188e-01
-6.33631250e-08,1.93284375e-01
-6.33231250e-08,1.93315625e-01
-6.32831250e-08,1.93284375e-01
-6.32431250e-08,1.93315625e-01
-6.32031250e-08,1.93282813e-01
-6.31631250e-08,1.93320313e-01
-6.31231250e-08,1.93276562e-01
-6.30831250e-08,1.93332813e-01
-6.30431250e-08,1.93242187e-01
-6.30031250e-08,1.93510938e-01
-6.29631250e-08,1.93753125e-01
-6.29231250e-08,1.93670312e-01
-6.28831250e-08,1.93720313e-01
-6.28431250e-08,1.93684375e-01
-6.28031250e-08,1.93714063e-01
-6.27631250e-08,1.93687500e-01
-6.27231250e-08,1.93710938e-01
-6.26831250e-08,1.93689063e-01
-6.26431250e-08,1.93710938e-01
-6.26031250e-08,1.93687500e-01
-6.25631250e-08,1.93714063e-01
-6.25231250e-08,1.93684375e-01
-6.24831250e-08,1.93720313e-01
-6.24431250e-08,1.93670312e-01
-6.24031250e-08,1.93754688e-01
-6.23631250e-08,1.93493750e-01
-6.23231250e-08,1.93243750e-01
-6.22831250e-08,1.93332813e-01
-6.22431250e-08,1.93276562e-01
-6.22031250e-08,1.93318750e-01
-6.21631250e-08,1.93282813e-01
-6.21231250e-08,1.93315625e-01
-6.20831250e-08,1.93284375e-01
-6.20431250e-08,1.93315625e-01
-6.20031250e-08,1.93284375e-01
-6.19631250e-08,1.93317188e-01
-6.19231250e-08,1.93279688e-01
-6.18831250e-08,1.93325000e-01
-6.18431250e-08,1.93265625e-01
-6.18031250e-08,1.93357813e-01
-6.17631250e-08,1.93089063e-01
-6.17231250e-08,1.92848437e-01
-6.16831250e-08,1.92928125e-01
-6.16431250e-08,1.92881250e-01
-6.16031250e-08,1.92914063e-01
-6.15631250e-08,1.92889063e-01
-6.15231250e-08,1.92909375e-01
-6.14831250e-08,1.92892188e-01
-6.14431250e-08,1.92906250e-01
-6.14031250e-08,1.92893750e-01
-6.13631250e-08,1.92904688e-01
-6.13231250e-08,1.92895312e-01
-6.12831250e-08,1.92904688e-01
-6.12431250e-08,1.92896875e-01
-6.12031250e-08,1.92903125e-01
-6.11631250e-08,1.92896875e-01
-6.11231250e-08,1.92903125e-01
-6.10831250e-08,1.92896875e-01
-6.10431250e-08,1.92903125e-01
-6.10031250e-08,1.92896875e-01
-6.09631250e-08,1.92903125e-01
-6.09231250e-08,1.92896875e-01
-6.08831250e-08,1.92901563e-01
-6.08431250e-08,1.92898438e-01
-6.08031250e-08,1.92901563e-01
-6.07631250e-08,1.92898438e-01
-6.07231250e-08,1.92901563e-01
-6.06831250e-08,1.92898438e-01
-6.06431250e-08,1.92901563e-01
-6.06031250e-08,1.92898438e-01
-6.05631250e-08,1.92901563e-01
-6.05231250e-08,1.92898438e-01
-6.04831250e-08,1.92901563e-01
-6.04431250e-08,1.92898438e-01
-6.04031250e-08,1.92901563e-01
-6.03631250e-08,1.92898438e-01
-6.03231250e-08,1.92901563e-01
-6.02831250e-08,1.92898438e-01
-6.02431250e-08,1.92901563e-01
-6.02031250e-08,1.92898438e-01
-6.01631250e-08,1.92901563e-01
-6.01231250e-08,1.92898438e-01
-6.00831250e-08,1.92901563e-01
-6.00431250e-08,1.92898438e-01
-6.00031250e-08,1.92901563e-01
-5.99631250e-08,1.92898438e-01
-5.99231250e-08,1.92900000e-01
-5.98831250e-08,1.92900000e-01
-5.98431250e-08,1.92900000e-01
-5.98031250e-08,1.92900000e-01
-5.97631250e-08,1.92900000e-01
-5.97231250e-08,1.92900000e-01
-5.96831250e-08,1.92900000e-01
-5.96431250e-08,1.92900000e-01
-5.96031250e-08,1.92900000e-01
-5.95631250e-08,1.92901563e-01
-5.95231250e-08,1.92898438e-01
-5.94831250e-08,1.92901563e-01
-5.94431250e-08,1.92898438e-01
-5.94031250e-08,1.92903125e-01
-5.93631250e-08,1.92896875e-01
-5.93231250e-08,1.92904688e-01
-5.92831250e-08,1.92893750e-01
-5.92431250e-08,1.92907812e-01
-5.92031250e-08,1.92889063e-01
-5.91631250e-08,1.92915625e-01
-5.91231250e-08,1.92875000e-01
-5.90831250e-08,1.92950000e-01
-5.90431250e-08,1.92696875e-01
-5.90031250e-08,1.92440625e-01
-5.89631250e-08,1.92535938e-01
-5.89231250e-08,1.92473438e-01
-5.88831250e-08,1.92521875e-01
-5.88431250e-08,1.92481250e-01
-5.88031250e-08,1.92517188e-01
-5.87631250e-08,1.92484375e-01
-5.87231250e-08,1.92515625e-01
-5.86831250e-08,1.92485938e-01
-5.86431250e-08,1.92514062e-01
-5.86031250e-08,1.92485938e-01
-5.85631250e-08,1.92515625e-01
-5.85231250e-08,1.92484375e-01
-5.84831250e-08,1.92515625e-01
-5.84431250e-08,1.92482813e-01
-5.84031250e-08,1.92518750e-01
-5.83631250e-08,1.92478125e-01
-5.83231250e-08,1.92526562e-01
-5.82831250e-08,1.92464063e-01
-5.82431250e-08,1.92560938e-01
-5.82031250e-08,1.92285938e-01
-5.81631250e-08,1.92051562e-01
-5.81231250e-08,1.92125000e-01
-5.80831250e-08,1.92084375e-01
-5.80431250e-08,1.92109375e-01
-5.80031250e-08,1.92093750e-01
-5.79631250e-08,1.92104688e-01
-5.79231250e-08,1.92096875e-01
-5.78831250e-08,1.92103125e-01
-5.78431250e-08,1.92098437e-01
-5.78031250e-08,1.92101563e-01
-5.77631250e-08,1.92100000e-01
-5.77231250e-08,1.92100000e-01
-5.76831250e-08,1.92100000e-01
-5.76431250e-08,1.92098437e-01
-5.76031250e-08,1.92101563e-01
-5.75631250e-08,1.92098437e-01
-5.75231250e-08,1.92101563e-01
-5.74831250e-08,1.92098437e-01
-5.74431250e-08,1.92101563e-01
-5.74031250e-08,1.92096875e-01
-5.73631250e-08,1.92103125e-01
-5.73231250e-08,1.92096875e-01
-5.72831250e-08,1.92103125e-01
-5.72431250e-08,1.92096875e-01
-5.72031250e-08,1.92103125e-01
-5.71631250e-08,1.92095313e-01
-5.71231250e-08,1.92104688e-01
-5.70831250e-08,1.92095313e-01
-5.70431250e-08,1.92104688e-01
-5.70031250e-08,1.92095313e-01
-5.69631250e-08,1.92106250e-01
-5.69231250e-08,1.92093750e-01
-5.68831250e-08,1.92106250e-01
-5.68431250e-08,1.92093750e-01
-5.68031250e-08,1.92107813e-01
-5.67631250e-08,1.92092188e-01
-5.67231250e-08,1.92109375e-01
-5.66831250e-08,1.92089063e-01
-5.66431250e-08,1.92112500e-01
-5.66031250e-08,1.92085937e-01
-5.65631250e-08,1.92117188e-01
-5.65231250e-08,1.92078125e-01
-5.64831250e-08,1.92132812e-01
-5.64431250e-08,1.92043750e-01
-5.64031250e-08,1.92310938e-01
-5.63631250e-08,1.92551562e-01
-5.63231250e-08,1.92471875e-01
-5.62831250e-08,1.92518750e-01
-5.62431250e-08,1.92485938e-01
-5.62031250e-08,1.92510938e-01
-5.61631250e-08,1.92492188e-01
-5.61231250e-08,1.92506250e-01
-5.60831250e-08,1.92493750e-01
-5.60431250e-08,1.92504687e-01
-5.60031250e-08,1.92495313e-01
-5.59631250e-08,1.92503125e-01
-5.59231250e-08,1.92496875e-01
-5.58831250e-08,1.92503125e-01
-5.58431250e-08,1.92498438e-01
-5.58031250e-08,1.92501563e-01
-5.57631250e-08,1.92498438e-01
-5.57231250e-08,1.92501563e-01
-5.56831250e-08,1.92498438e-01
-5.56431250e-08,1.92500000e-01
-5.56031250e-08,1.92500000e-01
-5.55631250e-08,1.92500000e-01
-5.55231250e-08,1.92500000e-01
-5.54831250e-08,1.92500000e-01
-5.54431250e-08,1.92500000e-01
-5.54031250e-08,1.92500000e-01
-5.53631250e-08,1.92501563e-01
-5.53231250e-08,1.92498438e-01
-5.52831250e-08,1.92501563e-01
-5.52431250e-08,1.92498438e-01
-5.52031250e-08,1.92501563e-01
-5.51631250e-08,1.92498438e-01
-5.51231250e-08,1.92501563e-01
-5.50831250e-08,1.92498438e-01
-5.50431250e-08,1.92503125e-01
-5.50031250e-08,1.92496875e-01
-5.49631250e-08,1.92503125e-01
-5.49231250e-08,1.92496875e-01
-5.48831250e-08,1.92503125e-01
-5.48431250e-08,1.92496875e-01
-5.48031250e-08,1.92504687e-01
-5.47631250e-08,1.92495313e-01
-5.47231250e-08,1.92504687e-01
-5.46831250e-08,1.92493750e-01
-5.46431250e-08,1.92506250e-01
-5.46031250e-08,1.92493750e-01
-5.45631250e-08,1.92507813e-01
-5.45231250e-08,1.92492188e-01
-5.44831250e-08,1.92509375e-01
-5.44431250e-08,1.92489063e-01
-5.44031250e-08,1.92514062e-01
-5.43631250e-08,1.92482813e-01
-5.43231250e-08,1.92521875e-01
-5.42831250e-08,1.92468750e-01
-5.42431250e-08,1.92556250e-01
-5.42031250e-08,1.92290625e-01
-5.41631250e-08,1.92048438e-01
-5.41231250e-08,1.92128125e-01
-5.40831250e-08,1.92081250e-01
-5.40431250e-08,1.92112500e-01
-5.40031250e-08,1.92090625e-01
-5.39631250e-08,1.92107813e-01
-5.39231250e-08,1.92093750e-01
-5.38831250e-08,1.92104688e-01
-5.38431250e-08,1.92096875e-01
-5.38031250e-08,1.92101563e-01
-5.37631250e-08,1.92100000e-01
-5.37231250e-08,1.92098437e-01
-5.36831250e-08,1.92104688e-01
-5.36431250e-08,1.92092188e-01
-5.36031250e-08,1.92112500e-01
-5.35631250e-08,1.92078125e-01
-5.35231250e-08,1.92146875e-01
-5.34831250e-08,1.91900000e-01
-5.34431250e-08,1.91637500e-01
-5.34031250e-08,1.91739063e-01
-5.33631250e-08,1.91668750e-01
-5.33231250e-08,1.91726563e-01
-5.32831250e-08,1.91673438e-01
-5.32431250e-08,1.91726563e-01
-5.32031250e-08,1.91670312e-01
-5.31631250e-08,1.91739063e-01
-5.31231250e-08,1.91637500e-01
-5.30831250e-08,1.91914063e-01
-5.30431250e-08,1.92148438e-01
-5.30031250e-08,1.92075000e-01
-5.29631250e-08,1.92117188e-01
-5.29231250e-08,1.92087500e-01
-5.28831250e-08,1.92110937e-01
-5.28431250e-08,1.92090625e-01
-5.28031250e-08,1.92107813e-01
-5.27631250e-08,1.92092188e-01
-5.27231250e-08,1.92107813e-01
-5.26831250e-08,1.92090625e-01
-5.26431250e-08,1.92109375e-01
-5.26031250e-08,1.92089063e-01
-5.25631250e-08,1.92114063e-01
-5.25231250e-08,1.92081250e-01
-5.24831250e-08,1.92128125e-01
-5.24431250e-08,1.92046875e-01
-5.24031250e-08,1.92306250e-01
-5.23631250e-08,1.92556250e-01
-5.23231250e-08,1.92467187e-01
-5.22831250e-08,1.92525000e-01
-5.22431250e-08,1.92479687e-01
-5.22031250e-08,1.92517188e-01
-5.21631250e-08,1.92484375e-01
-5.21231250e-08,1.92515625e-01
-5.20831250e-08,1.92484375e-01
-5.20431250e-08,1.92515625e-01
-5.20031250e-08,1.92482813e-01
-5.19631250e-08,1.92520313e-01
-5.19231250e-08,1.92475000e-01
-5.18831250e-08,1.92532813e-01
-5.18431250e-08,1.92442188e-01
-5.18031250e-08,1.92710938e-01
-5.17631250e-08,1.92951563e-01
-5.17231250e-08,1.92871875e-01
-5.16831250e-08,1.92918750e-01
-5.16431250e-08,1.92885937e-01
-5.16031250e-08,1.92912500e-01
-5.15631250e-08,1.92889063e-01
-5.15231250e-08,1.92909375e-01
-5.14831250e-08,1.92892188e-01
-5.14431250e-08,1.92907812e-01
-5.14031250e-08,1.92892188e-01
-5.13631250e-08,1.92906250e-01
-5.13231250e-08,1.92893750e-01
-5.12831250e-08,1.92906250e-01
-5.12431250e-08,1.92893750e-01
-5.12031250e-08,1.92906250e-01
-5.11631250e-08,1.92893750e-01
-5.11231250e-08,1.92906250e-01
-5.10831250e-08,1.92893750e-01
-5.10431250e-08,1.92907812e-01
-5.10031250e-08,1.92892188e-01
-5.09631250e-08,1.92907812e-01
-5.09231250e-08,1.92890625e-01
-5.08831250e-08,1.92909375e-01
-5.08431250e-08,1.92889063e-01
-5.08031250e-08,1.92910938e-01
-5.07631250e-08,1.92887500e-01
-5.07231250e-08,1.92915625e-01
-5.06831250e-08,1.92881250e-01
-5.06431250e-08,1.92923438e-01
-5.06031250e-08,1.92867188e-01
-5.05631250e-08,1.92957812e-01
-5.05231250e-08,1.92689063e-01
-5.04831250e-08,1.92448438e-01
-5.04431250e-08,1.92526562e-01
-5.04031250e-08,1.92482813e-01
-5.03631250e-08,1.92512500e-01
-5.03231250e-08,1.92490625e-01
-5.02831250e-08,1.92506250e-01
-5.02431250e-08,1.92495313e-01
-5.02031250e-08,1.92503125e-01
-5.01631250e-08,1.92496875e-01
-5.01231250e-08,1.92501563e-01
-5.00831250e-08,1.92498438e-01
-5.00431250e-08,1.92500000e-01
-5.00031250e-08,1.92501563e-01
-4.99631250e-08,1.92498438e-01
-4.99231250e-08,1.92503125e-01
-4.98831250e-08,1.92496875e-01
-4.98431250e-08,1.92504687e-01
-4.98031250e-08,1.92493750e-01
-4.97631250e-08,1.92507813e-01
-4.97231250e-08,1.92490625e-01
-4.96831250e-08,1.92512500e-01
-4.96431250e-08,1.92484375e-01
-4.96031250e-08,1.92520313e-01
-4.95631250e-08,1.92468750e-01
-4.95231250e-08,1.92556250e-01
-4.94831250e-08,1.92289062e-01
-4.94431250e-08,1.92048438e-01
-4.94031250e-08,1.92126563e-01
-4.93631250e-08,1.92084375e-01
-4.93231250e-08,1.92107813e-01
-4.92831250e-08,1.92098437e-01
-4.92431250e-08,1.92095313e-01
-4.92031250e-08,1.92117188e-01
-4.91631250e-08,1.92057813e-01
-4.91231250e-08,1.92296875e-01
-4.90831250e-08,1.92565625e-01
-4.90431250e-08,1.92459375e-01
-4.90031250e-08,1.92531250e-01
-4.89631250e-08,1.92473438e-01
-4.89231250e-08,1.92523438e-01
-4.88831250e-08,1.92479687e-01
-4.88431250e-08,1.92518750e-01
-4.88031250e-08,1.92482813e-01
-4.87631250e-08,1.92517188e-01
-4.87231250e-08,1.92484375e-01
-4.86831250e-08,1.92515625e-01
-4.86431250e-08,1.92484375e-01
-4.86031250e-08,1.92515625e-01
-4.85631250e-08,1.92484375e-01
-4.85231250e-08,1.92517188e-01
-4.84831250e-08,1.92482813e-01
-4.84431250e-08,1.92518750e-01
-4.84031250e-08,1.92479687e-01
-4.83631250e-08,1.92523438e-01
-4.83231250e-08,1.92471875e-01
-4.82831250e-08,1.92537500e-01
-4.82431250e-08,1.92439063e-01
-4.82031250e-08,1.92714063e-01
-4.81631250e-08,1.92948438e-01
-4.81231250e-08,1.92875000e-01
-4.80831250e-08,1.92915625e-01
-4.80431250e-08,1.92889063e-01
-4.80031250e-08,1.92907812e-01
-4.79631250e-08,1.92893750e-01
-4.79231250e-08,1.92904688e-01
-4.78831250e-08,1.92896875e-01
-4.78431250e-08,1.92903125e-01
-4.78031250e-08,1.92898438e-01
-4.77631250e-08,1.92901563e-01
-4.77231250e-08,1.92898438e-01
-4.76831250e-08,1.92901563e-01
-4.76431250e-08,1.92900000e-01
-4.76031250e-08,1.92900000e-01
-4.75631250e-08,1.92900000e-01
-4.75231250e-08,1.92900000e-01
-4.74831250e-08,1.92900000e-01
-4.74431250e-08,1.92900000e-01
-4.74031250e-08,1.92900000e-01
-4.73631250e-08,1.92900000e-01
-4.73231250e-08,1.92900000e-01
-4.72831250e-08,1.92900000e-01
-4.72431250e-08,1.92900000e-01
-4.72031250e-08,1.92900000e-01
-4.71631250e-08,1.92900000e-01
-4.71231250e-08,1.92900000e-01
-4.70831250e-08,1.92900000e-01
-4.70431250e-08,1.92900000e-01
-4.70031250e-08,1.92900000e-01
-4.69631250e-08,1.92900000e-01
-4.69231250e-08,1.92900000e-01
-4.68831250e-08,1.92901563e-01
-4.68431250e-08,1.92898438e-01
-4.68031250e-08,1.92901563e-01
-4.67631250e-08,1.92898438e-01
-4.67231250e-08,1.92901563e-01
-4.66831250e-08,1.92898438e-01
-4.66431250e-08,1.92901563e-01
-4.66031250e-08,1.92896875e-01
-4.65631250e-08,1.92903125e-01
-4.65231250e-08,1.92896875e-01
-4.64831250e-08,1.92903125e-01
-4.64431250e-08,1.92895312e-01
-4.64031250e-08,1.92904688e-01
-4.63631250e-08,1.92893750e-01
-4.63231250e-08,1.92907812e-01
-4.62831250e-08,1.92890625e-01
-4.62431250e-08,1.92910938e-01
-4.62031250e-08,1.92885937e-01
-4.61631250e-08,1.92918750e-01
-4.61231250e-08,1.92870313e-01
-4.60831250e-08,1.92954687e-01
-4.60431250e-08,1.92692188e-01
-4.60031250e-08,1.92445313e-01
-4.59631250e-08,1.92529688e-01
-4.59231250e-08,1.92479687e-01
-4.58831250e-08,1.92515625e-01
-4.58431250e-08,1.92487500e-01
-4.58031250e-08,1.92509375e-01
-4.57631250e-08,1.92492188e-01
-4.57231250e-08,1.92506250e-01
-4.56831250e-08,1.92496875e-01
-4.56431250e-08,1.92501563e-01
-4.56031250e-08,1.92501563e-01
-4.55631250e-08,1.92495313e-01
-4.55231250e-08,1.92509375e-01
-4.54831250e-08,1.92481250e-01
-4.54431250e-08,1.92543750e-01
-4.54031250e-08,1.92301563e-01
-4.53631250e-08,1.92035938e-01
-4.53231250e-08,1.92140625e-01
-4.52831250e-08,1.92068750e-01
-4.52431250e-08,1.92126563e-01
-4.52031250e-08,1.92076562e-01
-4.51631250e-08,1.92121875e-01
-4.51231250e-08,1.92078125e-01
-4.50831250e-08,1.92120313e-01
-4.50431250e-08,1.92079688e-01
-4.50031250e-08,1.92120313e-01
-4.49631250e-08,1.92078125e-01
-4.49231250e-08,1.92123437e-01
-4.48831250e-08,1.92073437e-01
-4.48431250e-08,1.92131250e-01
-4.48031250e-08,1.92059375e-01
-4.47631250e-08,1.92164063e-01
-4.47231250e-08,1.91882812e-01
-4.46831250e-08,1.91654688e-01
-4.46431250e-08,1.91721875e-01
-4.46031250e-08,1.91687500e-01
-4.45631250e-08,1.91707813e-01
-4.45231250e-08,1.91695313e-01
-4.44831250e-08,1.91703125e-01
-4.44431250e-08,1.91698438e-01
-4.44031250e-08,1.91700000e-01
-4.43631250e-08,1.91700000e-01
-4.43231250e-08,1.91698438e-01
-4.42831250e-08,1.91701563e-01
-4.42431250e-08,1.91698438e-01
-4.42031250e-08,1.91701563e-01
-4.41631250e-08,1.91696875e-01
-4.41231250e-08,1.91703125e-01
-4.40831250e-08,1.91696875e-01
-4.40431250e-08,1.91703125e-01
-4.40031250e-08,1.91696875e-01
-4.39631250e-08,1.91703125e-01
-4.39231250e-08,1.91696875e-01
-4.38831250e-08,1.91703125e-01
-4.38431250e-08,1.91695313e-01
-4.38031250e-08,1.91704687e-01
-4.37631250e-08,1.91695313e-01
-4.37231250e-08,1.91704687e-01
-4.36831250e-08,1.91695313e-01
-4.36431250e-08,1.91704687e-01
-4.36031250e-08,1.91695313e-01
-4.35631250e-08,1.91704687e-01
-4.35231250e-08,1.91695313e-01
-4.34831250e-08,1.91704687e-01
-4.34431250e-08,1.91695313e-01
-4.34031250e-08,1.91704687e-01
-4.33631250e-08,1.91695313e-01
-4.33231250e-08,1.91704687e-01
-4.32831250e-08,1.91695313e-01
-4.32431250e-08,1.91706250e-01
-4.32031250e-08,1.91693750e-01
-4.31631250e-08,1.91706250e-01
-4.31231250e-08,1.91693750e-01
-4.30831250e-08,1.91706250e-01
-4.30431250e-08,1.91693750e-01
-4.30031250e-08,1.91706250e-01
-4.29631250e-08,1.91693750e-01
-4.29231250e-08,1.91706250e-01
-4.28831250e-08,1.91693750e-01
-4.28431250e-08,1.91706250e-01
-4.28031250e-08,1.91692187e-01
-4.27631250e-08,1.91707813e-01
-4.27231250e-08,1.91692187e-01
-4.26831250e-08,1.91707813e-01
-4.26431250e-08,1.91692187e-01
-4.26031250e-08,1.91709375e-01
-4.25631250e-08,1.91690625e-01
-4.25231250e-08,1.91709375e-01
-4.24831250e-08,1.91690625e-01
-4.24431250e-08,1.91710938e-01
-4.24031250e-08,1.91689063e-01
-4.23631250e-08,1.91712500e-01
-4.23231250e-08,1.91685938e-01
-4.22831250e-08,1.91715625e-01
-4.22431250e-08,1.91682813e-01
-4.22031250e-08,1.91720313e-01
-4.21631250e-08,1.91673438e-01
-4.21231250e-08,1.91735938e-01
-4.20831250e-08,1.91639063e-01
-4.20431250e-08,1.91914063e-01
-4.20031250e-08,1.92148438e-01
-4.19631250e-08,1.92076562e-01
-4.19231250e-08,1.92114063e-01
-4.18831250e-08,1.92092188e-01
-4.18431250e-08,1.92104688e-01
-4.18031250e-08,1.92096875e-01
-4.17631250e-08,1.92100000e-01
-4.17231250e-08,1.92101563e-01
-4.16831250e-08,1.92096875e-01
-4.16431250e-08,1.92104688e-01
-4.16031250e-08,1.92092188e-01
-4.15631250e-08,1.92110937e-01
-4.15231250e-08,1.92082813e-01
-4.14831250e-08,1.92126563e-01
-4.14431250e-08,1.92048438e-01
-4.14031250e-08,1.92304688e-01
-4.13631250e-08,1.92557813e-01
-4.13231250e-08,1.92465625e-01
-4.12831250e-08,1.92525000e-01
-4.12431250e-08,1.92479687e-01
-4.12031250e-08,1.92517188e-01
-4.11631250e-08,1.92482813e-01
-4.11231250e-08,1.92515625e-01
-4.10831250e-08,1.92482813e-01
-4.10431250e-08,1.92518750e-01
-4.10031250e-08,1.92476563e-01
-4.09631250e-08,1.92531250e-01
-4.09231250e-08,1.92443750e-01
-4.08831250e-08,1.92707813e-01
-4.08431250e-08,1.92954687e-01
-4.08031250e-08,1.92868750e-01
-4.07631250e-08,1.92923438e-01
-4.07231250e-08,1.92881250e-01
-4.06831250e-08,1.92915625e-01
-4.06431250e-08,1.92884375e-01
-4.06031250e-08,1.92914063e-01
-4.05631250e-08,1.92885937e-01
-4.05231250e-08,1.92914063e-01
-4.04831250e-08,1.92884375e-01
-4.04431250e-08,1.92915625e-01
-4.04031250e-08,1.92881250e-01
-4.03631250e-08,1.92921875e-01
-4.03231250e-08,1.92873438e-01
-4.02831250e-08,1.92935938e-01
-4.02431250e-08,1.92839063e-01
-4.02031250e-08,1.93114063e-01
-4.01631250e-08,1.93348437e-01
-4.01231250e-08,1.93275000e-01
-4.00831250e-08,1.93315625e-01
-4.00431250e-08,1.93290625e-01
-4.00031250e-08,1.93306250e-01
-3.99631250e-08,1.93295313e-01
-3.99231250e-08,1.93303125e-01
-3.98831250e-08,1.93298438e-01
-3.98431250e-08,1.93300000e-01
-3.98031250e-08,1.93301562e-01
-3.97631250e-08,1.93296875e-01
-3.97231250e-08,1.93303125e-01
-3.96831250e-08,1.93295313e-01
-3.96431250e-08,1.93306250e-01
-3.96031250e-08,1.93292188e-01
-3.95631250e-08,1.93310938e-01
-3.95231250e-08,1.93285938e-01
-3.94831250e-08,1.93318750e-01
-3.94431250e-08,1.93270313e-01
-3.94031250e-08,1.93354688e-01
-3.93631250e-08,1.93092188e-01
-3.93231250e-08,1.92845313e-01
-3.92831250e-08,1.92931250e-01
-3.92431250e-08,1.92879688e-01
-3.92031250e-08,1.92915625e-01
-3.91631250e-08,1.92887500e-01
-3.91231250e-08,1.92910938e-01
-3.90831250e-08,1.92890625e-01
-3.90431250e-08,1.92907812e-01
-3.90031250e-08,1.92893750e-01
-3.89631250e-08,1.92906250e-01
-3.89231250e-08,1.92895312e-01
-3.88831250e-08,1.92904688e-01
-3.88431250e-08,1.92896875e-01
-3.88031250e-08,1.92903125e-01
-3.87631250e-08,1.92896875e-01
-3.87231250e-08,1.92903125e-01
-3.86831250e-08,1.92898438e-01
-3.86431250e-08,1.92901563e-01
-3.86031250e-08,1.92898438e-01
-3.85631250e-08,1.92901563e-01
-3.85231250e-08,1.92900000e-01
