trails/0a08b63e0bce357032480812e7e37d0e/aes_ch1_20250506174551479.csv

Model,MSO66B
Label,
Waveform Type,ANALOG
Horizontal Units,s
Sample Interval,4.00000000e-11
Record Length,10000
Zero Index,1599.09375000
Vertical Units,A
ANALOG_Thumbnail,
yOffset,1.84500000e-01
yPosition,8.40000000e-01

Labels,
TIME,CH1
-6.39637500e-08,1.98092188e-01
-6.39237500e-08,1.98109375e-01
-6.38837500e-08,1.98090625e-01
-6.38437500e-08,1.98110938e-01
-6.38037500e-08,1.98087500e-01
-6.37637500e-08,1.98114063e-01
-6.37237500e-08,1.98082813e-01
-6.36837500e-08,1.98121875e-01
-6.36437500e-08,1.98068750e-01
-6.36037500e-08,1.98156250e-01
-6.35637500e-08,1.97890625e-01
-6.35237500e-08,1.97648437e-01
-6.34837500e-08,1.97728125e-01
-6.34437500e-08,1.97681250e-01
-6.34037500e-08,1.97714063e-01
-6.33637500e-08,1.97689063e-01
-6.33237500e-08,1.97707812e-01
-6.32837500e-08,1.97693750e-01
-6.32437500e-08,1.97704688e-01
-6.32037500e-08,1.97696875e-01
-6.31637500e-08,1.97701563e-01
-6.31237500e-08,1.97700000e-01
-6.30837500e-08,1.97698438e-01
-6.30437500e-08,1.97703125e-01
-6.30037500e-08,1.97693750e-01
-6.29637500e-08,1.97710938e-01
-6.29237500e-08,1.97678125e-01
-6.28837500e-08,1.97745312e-01
-6.28437500e-08,1.97501563e-01
-6.28037500e-08,1.97235938e-01
-6.27637500e-08,1.97340625e-01
-6.27237500e-08,1.97268750e-01
-6.26837500e-08,1.97326562e-01
-6.26437500e-08,1.97275000e-01
-6.26037500e-08,1.97325000e-01
-6.25637500e-08,1.97275000e-01
-6.25237500e-08,1.97326562e-01
-6.24837500e-08,1.97268750e-01
-6.24437500e-08,1.97340625e-01
-6.24037500e-08,1.97235938e-01
-6.23637500e-08,1.97517187e-01
-6.23237500e-08,1.97745312e-01
-6.22837500e-08,1.97678125e-01
-6.22437500e-08,1.97712500e-01
-6.22037500e-08,1.97692188e-01
-6.21637500e-08,1.97704688e-01
-6.21237500e-08,1.97696875e-01
-6.20837500e-08,1.97701563e-01
-6.20437500e-08,1.97698438e-01
-6.20037500e-08,1.97700000e-01
-6.19637500e-08,1.97700000e-01
-6.19237500e-08,1.97698438e-01
-6.18837500e-08,1.97701563e-01
-6.18437500e-08,1.97696875e-01
-6.18037500e-08,1.97703125e-01
-6.17637500e-08,1.97695312e-01
-6.17237500e-08,1.97704688e-01
-6.16837500e-08,1.97693750e-01
-6.16437500e-08,1.97707812e-01
-6.16037500e-08,1.97690625e-01
-6.15637500e-08,1.97712500e-01
-6.15237500e-08,1.97682812e-01
-6.14837500e-08,1.97728125e-01
-6.14437500e-08,1.97648437e-01
-6.14037500e-08,1.97904688e-01
-6.13637500e-08,1.98157813e-01
-6.13237500e-08,1.98065625e-01
-6.12837500e-08,1.98125000e-01
-6.12437500e-08,1.98079688e-01
-6.12037500e-08,1.98117188e-01
-6.11637500e-08,1.98084375e-01
-6.11237500e-08,1.98114063e-01
-6.10837500e-08,1.98085938e-01
-6.10437500e-08,1.98114063e-01
-6.10037500e-08,1.98085938e-01
-6.09637500e-08,1.98114063e-01
-6.09237500e-08,1.98084375e-01
-6.08837500e-08,1.98115625e-01
-6.08437500e-08,1.98081250e-01
-6.08037500e-08,1.98120313e-01
-6.07637500e-08,1.98073438e-01
-6.07237500e-08,1.98135937e-01
-6.06837500e-08,1.98039063e-01
-6.06437500e-08,1.98314062e-01
-6.06037500e-08,1.98548438e-01
-6.05637500e-08,1.98476563e-01
-6.05237500e-08,1.98514063e-01
-6.04837500e-08,1.98490625e-01
-6.04437500e-08,1.98504687e-01
-6.04037500e-08,1.98498438e-01
-6.03637500e-08,1.98498438e-01
-6.03237500e-08,1.98506250e-01
-6.02837500e-08,1.98489063e-01
-6.02437500e-08,1.98521875e-01
-6.02037500e-08,1.98453125e-01
-6.01637500e-08,1.98700000e-01
-6.01237500e-08,1.98962500e-01
-6.00837500e-08,1.98860938e-01
-6.00437500e-08,1.98929688e-01
-6.00037500e-08,1.98875000e-01
-5.99637500e-08,1.98923438e-01
-5.99237500e-08,1.98878125e-01
-5.98837500e-08,1.98921875e-01
-5.98437500e-08,1.98878125e-01
-5.98037500e-08,1.98925000e-01
-5.97637500e-08,1.98871875e-01
-5.97237500e-08,1.98937500e-01
-5.96837500e-08,1.98837500e-01
-5.96437500e-08,1.99114063e-01
-5.96037500e-08,1.99348438e-01
-5.95637500e-08,1.99275000e-01
-5.95237500e-08,1.99315625e-01
-5.94837500e-08,1.99289063e-01
-5.94437500e-08,1.99309375e-01
-5.94037500e-08,1.99292187e-01
-5.93637500e-08,1.99306250e-01
-5.93237500e-08,1.99293750e-01
-5.92837500e-08,1.99304688e-01
-5.92437500e-08,1.99295313e-01
-5.92037500e-08,1.99304688e-01
-5.91637500e-08,1.99293750e-01
-5.91237500e-08,1.99306250e-01
-5.90837500e-08,1.99292187e-01
-5.90437500e-08,1.99309375e-01
-5.90037500e-08,1.99289063e-01
-5.89637500e-08,1.99315625e-01
-5.89237500e-08,1.99275000e-01
-5.88837500e-08,1.99350000e-01
-5.88437500e-08,1.99096875e-01
-5.88037500e-08,1.98839062e-01
-5.87637500e-08,1.98937500e-01
-5.87237500e-08,1.98871875e-01
-5.86837500e-08,1.98925000e-01
-5.86437500e-08,1.98878125e-01
-5.86037500e-08,1.98921875e-01
-5.85637500e-08,1.98878125e-01
-5.85237500e-08,1.98923438e-01
-5.84837500e-08,1.98875000e-01
-5.84437500e-08,1.98929688e-01
-5.84037500e-08,1.98860938e-01
-5.83637500e-08,1.98964063e-01
-5.83237500e-08,1.98682813e-01
-5.82837500e-08,1.98456250e-01
-5.82437500e-08,1.98520313e-01
-5.82037500e-08,1.98490625e-01
-5.81637500e-08,1.98504687e-01
-5.81237500e-08,1.98500000e-01
-5.80837500e-08,1.98495313e-01
-5.80437500e-08,1.98510938e-01
-5.80037500e-08,1.98478125e-01
-5.79637500e-08,1.98546875e-01
-5.79237500e-08,1.98300000e-01
-5.78837500e-08,1.98037500e-01
-5.78437500e-08,1.98139063e-01
-5.78037500e-08,1.98068750e-01
-5.77637500e-08,1.98128125e-01
-5.77237500e-08,1.98073438e-01
-5.76837500e-08,1.98129688e-01
-5.76437500e-08,1.98062500e-01
-5.76037500e-08,1.98160938e-01
-5.75637500e-08,1.97887500e-01
-5.75237500e-08,1.97648437e-01
-5.74837500e-08,1.97728125e-01
-5.74437500e-08,1.97679688e-01
-5.74037500e-08,1.97717188e-01
-5.73637500e-08,1.97684375e-01
-5.73237500e-08,1.97715625e-01
-5.72837500e-08,1.97681250e-01
-5.72437500e-08,1.97721875e-01
-5.72037500e-08,1.97668750e-01
-5.71637500e-08,1.97754687e-01
-5.71237500e-08,1.97492187e-01
-5.70837500e-08,1.97245313e-01
-5.70437500e-08,1.97331250e-01
-5.70037500e-08,1.97278125e-01
-5.69637500e-08,1.97318750e-01
-5.69237500e-08,1.97284375e-01
-5.68837500e-08,1.97314062e-01
-5.68437500e-08,1.97287500e-01
-5.68037500e-08,1.97312500e-01
-5.67637500e-08,1.97287500e-01
-5.67237500e-08,1.97312500e-01
-5.66837500e-08,1.97285938e-01
-5.66437500e-08,1.97315625e-01
-5.66037500e-08,1.97281250e-01
-5.65637500e-08,1.97323438e-01
-5.65237500e-08,1.97267187e-01
-5.64837500e-08,1.97356250e-01
-5.64437500e-08,1.97090625e-01
-5.64037500e-08,1.96846875e-01
-5.63637500e-08,1.96929688e-01
-5.63237500e-08,1.96879688e-01
-5.62837500e-08,1.96915625e-01
-5.62437500e-08,1.96887500e-01
-5.62037500e-08,1.96910937e-01
-5.61637500e-08,1.96890625e-01
-5.61237500e-08,1.96909375e-01
-5.60837500e-08,1.96892188e-01
-5.60437500e-08,1.96907813e-01
-5.60037500e-08,1.96892188e-01
-5.59637500e-08,1.96907813e-01
-5.59237500e-08,1.96892188e-01
-5.58837500e-08,1.96907813e-01
-5.58437500e-08,1.96892188e-01
-5.58037500e-08,1.96909375e-01
-5.57637500e-08,1.96890625e-01
-5.57237500e-08,1.96910937e-01
-5.56837500e-08,1.96889063e-01
-5.56437500e-08,1.96912500e-01
-5.56037500e-08,1.96885937e-01
-5.55637500e-08,1.96917188e-01
-5.55237500e-08,1.96876563e-01
-5.54837500e-08,1.96932812e-01
-5.54437500e-08,1.96842188e-01
-5.54037500e-08,1.97110937e-01
-5.53637500e-08,1.97351563e-01
-5.53237500e-08,1.97273438e-01
-5.52837500e-08,1.97317188e-01
-5.52437500e-08,1.97287500e-01
-5.52037500e-08,1.97309375e-01
-5.51637500e-08,1.97293750e-01
-5.51237500e-08,1.97304688e-01
-5.50837500e-08,1.97296875e-01
-5.50437500e-08,1.97301562e-01
-5.50037500e-08,1.97300000e-01
-5.49637500e-08,1.97298438e-01
-5.49237500e-08,1.97303125e-01
-5.48837500e-08,1.97293750e-01
-5.48437500e-08,1.97309375e-01
-5.48037500e-08,1.97284375e-01
-5.47637500e-08,1.97325000e-01
-5.47237500e-08,1.97250000e-01
-5.46837500e-08,1.97503125e-01
-5.46437500e-08,1.97757813e-01
-5.46037500e-08,1.97665625e-01
-5.45637500e-08,1.97725000e-01
-5.45237500e-08,1.97681250e-01
-5.44837500e-08,1.97715625e-01
-5.44437500e-08,1.97685938e-01
-5.44037500e-08,1.97710938e-01
-5.43637500e-08,1.97690625e-01
-5.43237500e-08,1.97707812e-01
-5.42837500e-08,1.97693750e-01
-5.42437500e-08,1.97704688e-01
-5.42037500e-08,1.97698438e-01
-5.41637500e-08,1.97698438e-01
-5.41237500e-08,1.97706250e-01
-5.40837500e-08,1.97684375e-01
-5.40437500e-08,1.97740625e-01
-5.40037500e-08,1.97506250e-01
-5.39637500e-08,1.97231250e-01
-5.39237500e-08,1.97345313e-01
-5.38837500e-08,1.97264063e-01
-5.38437500e-08,1.97331250e-01
-5.38037500e-08,1.97270313e-01
-5.37637500e-08,1.97328125e-01
-5.37237500e-08,1.97271875e-01
-5.36837500e-08,1.97329688e-01
-5.36437500e-08,1.97268750e-01
-5.36037500e-08,1.97335938e-01
-5.35637500e-08,1.97254687e-01
-5.35237500e-08,1.97370313e-01
-5.34837500e-08,1.97078125e-01
-5.34437500e-08,1.96859375e-01
-5.34037500e-08,1.96917188e-01
-5.33637500e-08,1.96892188e-01
-5.33237500e-08,1.96903125e-01
-5.32837500e-08,1.96900000e-01
-5.32437500e-08,1.96896875e-01
-5.32037500e-08,1.96904688e-01
-5.31637500e-08,1.96895313e-01
-5.31237500e-08,1.96906250e-01
-5.30837500e-08,1.96893750e-01
-5.30437500e-08,1.96907813e-01
-5.30037500e-08,1.96892188e-01
-5.29637500e-08,1.96909375e-01
-5.29237500e-08,1.96890625e-01
-5.28837500e-08,1.96909375e-01
-5.28437500e-08,1.96889063e-01
-5.28037500e-08,1.96910937e-01
-5.27637500e-08,1.96889063e-01
-5.27237500e-08,1.96912500e-01
-5.26837500e-08,1.96887500e-01
-5.26437500e-08,1.96914063e-01
-5.26037500e-08,1.96884375e-01
-5.25637500e-08,1.96915625e-01
-5.25237500e-08,1.96882813e-01
-5.24837500e-08,1.96918750e-01
-5.24437500e-08,1.96878125e-01
-5.24037500e-08,1.96925000e-01
-5.23637500e-08,1.96868750e-01
-5.23237500e-08,1.96940625e-01
-5.22837500e-08,1.96832813e-01
-5.22437500e-08,1.97120313e-01
-5.22037500e-08,1.97340625e-01
-5.21637500e-08,1.97284375e-01
-5.21237500e-08,1.97304688e-01
-5.20837500e-08,1.97301562e-01
-5.20437500e-08,1.97293750e-01
-5.20037500e-08,1.97312500e-01
-5.19637500e-08,1.97281250e-01
-5.19237500e-08,1.97329688e-01
-5.18837500e-08,1.97243750e-01
-5.18437500e-08,1.97510938e-01
-5.18037500e-08,1.97750000e-01
-5.17637500e-08,1.97675000e-01
-5.17237500e-08,1.97715625e-01
-5.16837500e-08,1.97690625e-01
-5.16437500e-08,1.97704688e-01
-5.16037500e-08,1.97700000e-01
-5.15637500e-08,1.97696875e-01
-5.15237500e-08,1.97707812e-01
-5.14837500e-08,1.97685938e-01
-5.14437500e-08,1.97725000e-01
-5.14037500e-08,1.97650000e-01
-5.13637500e-08,1.97903125e-01
-5.13237500e-08,1.98157813e-01
-5.12837500e-08,1.98067188e-01
-5.12437500e-08,1.98123437e-01
-5.12037500e-08,1.98081250e-01
-5.11637500e-08,1.98115625e-01
-5.11237500e-08,1.98087500e-01
-5.10837500e-08,1.98110938e-01
-5.10437500e-08,1.98090625e-01
-5.10037500e-08,1.98107813e-01
-5.09637500e-08,1.98092188e-01
-5.09237500e-08,1.98106250e-01
-5.08837500e-08,1.98093750e-01
-5.08437500e-08,1.98104688e-01
-5.08037500e-08,1.98095313e-01
-5.07637500e-08,1.98104688e-01
-5.07237500e-08,1.98096875e-01
-5.06837500e-08,1.98103125e-01
-5.06437500e-08,1.98096875e-01
-5.06037500e-08,1.98101562e-01
-5.05637500e-08,1.98098438e-01
-5.05237500e-08,1.98101562e-01
-5.04837500e-08,1.98098438e-01
-5.04437500e-08,1.98101562e-01
-5.04037500e-08,1.98100000e-01
-5.03637500e-08,1.98100000e-01
-5.03237500e-08,1.98100000e-01
-5.02837500e-08,1.98100000e-01
-5.02437500e-08,1.98101562e-01
-5.02037500e-08,1.98098438e-01
-5.01637500e-08,1.98101562e-01
-5.01237500e-08,1.98098438e-01
-5.00837500e-08,1.98103125e-01
-5.00437500e-08,1.98096875e-01
-5.00037500e-08,1.98103125e-01
-4.99637500e-08,1.98095313e-01
-4.99237500e-08,1.98104688e-01
-4.98837500e-08,1.98095313e-01
-4.98437500e-08,1.98106250e-01
-4.98037500e-08,1.98092188e-01
-4.97637500e-08,1.98109375e-01
-4.97237500e-08,1.98089062e-01
-4.96837500e-08,1.98112500e-01
-4.96437500e-08,1.98084375e-01
-4.96037500e-08,1.98121875e-01
-4.95637500e-08,1.98068750e-01
-4.95237500e-08,1.98156250e-01
-4.94837500e-08,1.97890625e-01
-4.94437500e-08,1.97648437e-01
-4.94037500e-08,1.97728125e-01
-4.93637500e-08,1.97681250e-01
-4.93237500e-08,1.97712500e-01
-4.92837500e-08,1.97690625e-01
-4.92437500e-08,1.97706250e-01
-4.92037500e-08,1.97696875e-01
-4.91637500e-08,1.97701563e-01
-4.91237500e-08,1.97701563e-01
-4.90837500e-08,1.97695312e-01
-4.90437500e-08,1.97710938e-01
-4.90037500e-08,1.97679688e-01
-4.89637500e-08,1.97745312e-01
-4.89237500e-08,1.97501563e-01
-4.88837500e-08,1.97235938e-01
-4.88437500e-08,1.97340625e-01
-4.88037500e-08,1.97268750e-01
-4.87637500e-08,1.97326562e-01
-4.87237500e-08,1.97275000e-01
-4.86837500e-08,1.97325000e-01
-4.86437500e-08,1.97275000e-01
-4.86037500e-08,1.97329688e-01
-4.85637500e-08,1.97262500e-01
-4.85237500e-08,1.97360937e-01
-4.84837500e-08,1.97087500e-01
-4.84437500e-08,1.96850000e-01
-4.84037500e-08,1.96928125e-01
-4.83637500e-08,1.96879688e-01
-4.83237500e-08,1.96917188e-01
-4.82837500e-08,1.96882813e-01
-4.82437500e-08,1.96920312e-01
-4.82037500e-08,1.96871875e-01
-4.81637500e-08,1.96951563e-01
-4.81237500e-08,1.96695312e-01
-4.80837500e-08,1.96440625e-01
-4.80437500e-08,1.96537500e-01
-4.80037500e-08,1.96470313e-01
-4.79637500e-08,1.96526563e-01
-4.79237500e-08,1.96473438e-01
-4.78837500e-08,1.96529687e-01
-4.78437500e-08,1.96460938e-01
-4.78037500e-08,1.96562500e-01
-4.77637500e-08,1.96285938e-01
-4.77237500e-08,1.96051562e-01
-4.76837500e-08,1.96125000e-01
-4.76437500e-08,1.96084375e-01
-4.76037500e-08,1.96112500e-01
-4.75637500e-08,1.96090625e-01
-4.75237500e-08,1.96107813e-01
-4.74837500e-08,1.96093750e-01
-4.74437500e-08,1.96104688e-01
-4.74037500e-08,1.96095313e-01
-4.73637500e-08,1.96104688e-01
-4.73237500e-08,1.96095313e-01
-4.72837500e-08,1.96103125e-01
-4.72437500e-08,1.96096875e-01
-4.72037500e-08,1.96103125e-01
-4.71637500e-08,1.96096875e-01
-4.71237500e-08,1.96103125e-01
-4.70837500e-08,1.96096875e-01
-4.70437500e-08,1.96103125e-01
-4.70037500e-08,1.96096875e-01
-4.69637500e-08,1.96103125e-01
-4.69237500e-08,1.96096875e-01
-4.68837500e-08,1.96103125e-01
-4.68437500e-08,1.96095313e-01
-4.68037500e-08,1.96104688e-01
-4.67637500e-08,1.96095313e-01
-4.67237500e-08,1.96104688e-01
-4.66837500e-08,1.96095313e-01
-4.66437500e-08,1.96106250e-01
-4.66037500e-08,1.96093750e-01
-4.65637500e-08,1.96107813e-01
-4.65237500e-08,1.96092188e-01
-4.64837500e-08,1.96109375e-01
-4.64437500e-08,1.96087500e-01
-4.64037500e-08,1.96114063e-01
-4.63637500e-08,1.96079688e-01
-4.63237500e-08,1.96129688e-01
-4.62837500e-08,1.96045313e-01
-4.62437500e-08,1.96307813e-01
-4.62037500e-08,1.96554688e-01
-4.61637500e-08,1.96468750e-01
-4.61237500e-08,1.96521875e-01
-4.60837500e-08,1.96482812e-01
-4.60437500e-08,1.96514063e-01
-4.60037500e-08,1.96487500e-01
-4.59637500e-08,1.96512500e-01
-4.59237500e-08,1.96489063e-01
-4.58837500e-08,1.96510938e-01
-4.58437500e-08,1.96489063e-01
-4.58037500e-08,1.96510938e-01
-4.57637500e-08,1.96489063e-01
-4.57237500e-08,1.96510938e-01
-4.56837500e-08,1.96487500e-01
-4.56437500e-08,1.96514063e-01
-4.56037500e-08,1.96482812e-01
-4.55637500e-08,1.96521875e-01
-4.55237500e-08,1.96468750e-01
-4.54837500e-08,1.96556250e-01
-4.54437500e-08,1.96290625e-01
-4.54037500e-08,1.96046875e-01
-4.53637500e-08,1.96129688e-01
-4.53237500e-08,1.96079688e-01
-4.52837500e-08,1.96115625e-01
-4.52437500e-08,1.96085938e-01
-4.52037500e-08,1.96110937e-01
-4.51637500e-08,1.96090625e-01
-4.51237500e-08,1.96109375e-01
-4.50837500e-08,1.96092188e-01
-4.50437500e-08,1.96107813e-01
-4.50037500e-08,1.96092188e-01
-4.49637500e-08,1.96107813e-01
-4.49237500e-08,1.96092188e-01
-4.48837500e-08,1.96106250e-01
-4.48437500e-08,1.96093750e-01
-4.48037500e-08,1.96106250e-01
-4.47637500e-08,1.96093750e-01
-4.47237500e-08,1.96106250e-01
-4.46837500e-08,1.96093750e-01
-4.46437500e-08,1.96106250e-01
-4.46037500e-08,1.96092188e-01
-4.45637500e-08,1.96107813e-01
-4.45237500e-08,1.96092188e-01
-4.44837500e-08,1.96107813e-01
-4.44437500e-08,1.96092188e-01
-4.44037500e-08,1.96107813e-01
-4.43637500e-08,1.96092188e-01
-4.43237500e-08,1.96109375e-01
-4.42837500e-08,1.96090625e-01
-4.42437500e-08,1.96109375e-01
-4.42037500e-08,1.96089063e-01
-4.41637500e-08,1.96110937e-01
-4.41237500e-08,1.96087500e-01
-4.40837500e-08,1.96114063e-01
-4.40437500e-08,1.96082813e-01
-4.40037500e-08,1.96120313e-01
-4.39637500e-08,1.96075000e-01
-4.39237500e-08,1.96134375e-01
-4.38837500e-08,1.96040625e-01
-4.38437500e-08,1.96312500e-01
-4.38037500e-08,1.96550000e-01
-4.37637500e-08,1.96475000e-01
-4.37237500e-08,1.96515625e-01
-4.36837500e-08,1.96489063e-01
-4.36437500e-08,1.96507813e-01
-4.36037500e-08,1.96495313e-01
-4.35637500e-08,1.96503125e-01
-4.35237500e-08,1.96496875e-01
-4.34837500e-08,1.96501563e-01
-4.34437500e-08,1.96500000e-01
-4.34037500e-08,1.96500000e-01
-4.33637500e-08,1.96501563e-01
-4.33237500e-08,1.96498438e-01
-4.32837500e-08,1.96503125e-01
-4.32437500e-08,1.96496875e-01
-4.32037500e-08,1.96504687e-01
-4.31637500e-08,1.96495313e-01
-4.31237500e-08,1.96504687e-01
-4.30837500e-08,1.96493750e-01
-4.30437500e-08,1.96507813e-01
-4.30037500e-08,1.96492187e-01
-4.29637500e-08,1.96509375e-01
-4.29237500e-08,1.96489063e-01
-4.28837500e-08,1.96514063e-01
-4.28437500e-08,1.96482812e-01
-4.28037500e-08,1.96521875e-01
-4.27637500e-08,1.96467188e-01
-4.27237500e-08,1.96557813e-01
-4.26837500e-08,1.96289062e-01
-4.26437500e-08,1.96048438e-01
-4.26037500e-08,1.96126563e-01
-4.25637500e-08,1.96082813e-01
-4.25237500e-08,1.96112500e-01
-4.24837500e-08,1.96090625e-01
-4.24437500e-08,1.96106250e-01
-4.24037500e-08,1.96095313e-01
-4.23637500e-08,1.96103125e-01
-4.23237500e-08,1.96098438e-01
-4.22837500e-08,1.96101562e-01
-4.22437500e-08,1.96100000e-01
-4.22037500e-08,1.96098438e-01
-4.21637500e-08,1.96101562e-01
-4.21237500e-08,1.96096875e-01
-4.20837500e-08,1.96104688e-01
-4.20437500e-08,1.96095313e-01
-4.20037500e-08,1.96106250e-01
-4.19637500e-08,1.96092188e-01
-4.19237500e-08,1.96109375e-01
-4.18837500e-08,1.96087500e-01
-4.18437500e-08,1.96115625e-01
-4.18037500e-08,1.96078125e-01
-4.17637500e-08,1.96131250e-01
-4.17237500e-08,1.96042188e-01
-4.16837500e-08,1.96310938e-01
-4.16437500e-08,1.96550000e-01
-4.16037500e-08,1.96473438e-01
-4.15637500e-08,1.96515625e-01
-4.15237500e-08,1.96490625e-01
-4.14837500e-08,1.96504687e-01
-4.14437500e-08,1.96498438e-01
-4.14037500e-08,1.96496875e-01
-4.13637500e-08,1.96506250e-01
-4.13237500e-08,1.96487500e-01
-4.12837500e-08,1.96523438e-01
-4.12437500e-08,1.96450000e-01
-4.12037500e-08,1.96703125e-01
-4.11637500e-08,1.96957812e-01
-4.11237500e-08,1.96867188e-01
-4.10837500e-08,1.96921875e-01
-4.10437500e-08,1.96884375e-01
-4.10037500e-08,1.96912500e-01
-4.09637500e-08,1.96892188e-01
-4.09237500e-08,1.96904688e-01
-4.08837500e-08,1.96900000e-01
-4.08437500e-08,1.96893750e-01
-4.08037500e-08,1.96915625e-01
-4.07637500e-08,1.96857813e-01
-4.07237500e-08,1.97095313e-01
-4.06837500e-08,1.97365625e-01
-4.06437500e-08,1.97257813e-01
-4.06037500e-08,1.97332813e-01
-4.05637500e-08,1.97273438e-01
-4.05237500e-08,1.97323438e-01
-4.04837500e-08,1.97278125e-01
-4.04437500e-08,1.97320313e-01
-4.04037500e-08,1.97281250e-01
-4.03637500e-08,1.97318750e-01
-4.03237500e-08,1.97282813e-01
-4.02837500e-08,1.97317188e-01
-4.02437500e-08,1.97284375e-01
-4.02037500e-08,1.97315625e-01
-4.01637500e-08,1.97284375e-01
-4.01237500e-08,1.97315625e-01
-4.00837500e-08,1.97284375e-01
-4.00437500e-08,1.97315625e-01
-4.00037500e-08,1.97282813e-01
-3.99637500e-08,1.97317188e-01
-3.99237500e-08,1.97282813e-01
-3.98837500e-08,1.97318750e-01
-3.98437500e-08,1.97279688e-01
-3.98037500e-08,1.97321875e-01
-3.97637500e-08,1.97275000e-01
-3.97237500e-08,1.97331250e-01
-3.96837500e-08,1.97259375e-01
-3.96437500e-08,1.97365625e-01
-3.96037500e-08,1.97081250e-01
-3.95637500e-08,1.96857813e-01
-3.95237500e-08,1.96918750e-01
-3.94837500e-08,1.96892188e-01
-3.94437500e-08,1.96901563e-01
-3.94037500e-08,1.96903125e-01
-3.93637500e-08,1.96892188e-01
-3.93237500e-08,1.96914063e-01
-3.92837500e-08,1.96876563e-01
-3.92437500e-08,1.96950000e-01
-3.92037500e-08,1.96698438e-01
-3.91637500e-08,1.96440625e-01
-3.91237500e-08,1.96537500e-01
-3.90837500e-08,1.96471875e-01
-3.90437500e-08,1.96525000e-01
-3.90037500e-08,1.96475000e-01
-3.89637500e-08,1.96526563e-01
-3.89237500e-08,1.96465625e-01
-3.88837500e-08,1.96557813e-01
-3.88437500e-08,1.96290625e-01
-3.88037500e-08,1.96045313e-01
-3.87637500e-08,1.96132813e-01
-3.87237500e-08,1.96075000e-01
-3.86837500e-08,1.96123437e-01
-3.86437500e-08,1.96076562e-01
-3.86037500e-08,1.96126563e-01
-3.85637500e-08,1.96065625e-01
-3.85237500e-08,1.96159375e-01
