trails/0bdfa5e45fec98341abdd20552c140b4/aes_ch1_20250507121505356.csv

Model,MSO66B
Label,
Waveform Type,ANALOG
Horizontal Units,s
Sample Interval,4.00000000e-11
Record Length,10000
Zero Index,1599.17187500
Vertical Units,A
ANALOG_Thumbnail,
yOffset,1.84500000e-01
yPosition,8.40000000e-01

Labels,
TIME,CH1
-6.39668750e-08,1.88503125e-01
-6.39268750e-08,1.88498438e-01
-6.38868750e-08,1.88501562e-01
-6.38468750e-08,1.88498438e-01
-6.38068750e-08,1.88501562e-01
-6.37668750e-08,1.88498438e-01
-6.37268750e-08,1.88501562e-01
-6.36868750e-08,1.88500000e-01
-6.36468750e-08,1.88500000e-01
-6.36068750e-08,1.88500000e-01
-6.35668750e-08,1.88500000e-01
-6.35268750e-08,1.88500000e-01
-6.34868750e-08,1.88500000e-01
-6.34468750e-08,1.88500000e-01
-6.34068750e-08,1.88500000e-01
-6.33668750e-08,1.88500000e-01
-6.33268750e-08,1.88498438e-01
-6.32868750e-08,1.88501562e-01
-6.32468750e-08,1.88498438e-01
-6.32068750e-08,1.88501562e-01
-6.31668750e-08,1.88498438e-01
-6.31268750e-08,1.88501562e-01
-6.30868750e-08,1.88498438e-01
-6.30468750e-08,1.88501562e-01
-6.30068750e-08,1.88498438e-01
-6.29668750e-08,1.88503125e-01
-6.29268750e-08,1.88496875e-01
-6.28868750e-08,1.88503125e-01
-6.28468750e-08,1.88496875e-01
-6.28068750e-08,1.88503125e-01
-6.27668750e-08,1.88496875e-01
-6.27268750e-08,1.88504688e-01
-6.26868750e-08,1.88495313e-01
-6.26468750e-08,1.88504688e-01
-6.26068750e-08,1.88495313e-01
-6.25668750e-08,1.88506250e-01
-6.25268750e-08,1.88493750e-01
-6.24868750e-08,1.88507813e-01
-6.24468750e-08,1.88492188e-01
-6.24068750e-08,1.88509375e-01
-6.23668750e-08,1.88489062e-01
-6.23268750e-08,1.88512500e-01
-6.22868750e-08,1.88485938e-01
-6.22468750e-08,1.88517188e-01
-6.22068750e-08,1.88476562e-01
-6.21668750e-08,1.88532813e-01
-6.21268750e-08,1.88442187e-01
-6.20868750e-08,1.88710938e-01
-6.20468750e-08,1.88951563e-01
-6.20068750e-08,1.88873438e-01
-6.19668750e-08,1.88917188e-01
-6.19268750e-08,1.88889063e-01
-6.18868750e-08,1.88907812e-01
-6.18468750e-08,1.88895312e-01
-6.18068750e-08,1.88903125e-01
-6.17668750e-08,1.88898438e-01
-6.17268750e-08,1.88898438e-01
-6.16868750e-08,1.88903125e-01
-6.16468750e-08,1.88893750e-01
-6.16068750e-08,1.88909375e-01
-6.15668750e-08,1.88885938e-01
-6.15268750e-08,1.88925000e-01
-6.14868750e-08,1.88850000e-01
-6.14468750e-08,1.89103125e-01
-6.14068750e-08,1.89359375e-01
-6.13668750e-08,1.89265625e-01
-6.13268750e-08,1.89325000e-01
-6.12868750e-08,1.89279688e-01
-6.12468750e-08,1.89317188e-01
-6.12068750e-08,1.89285938e-01
-6.11668750e-08,1.89312500e-01
-6.11268750e-08,1.89289062e-01
-6.10868750e-08,1.89310937e-01
-6.10468750e-08,1.89290625e-01
-6.10068750e-08,1.89309375e-01
-6.09668750e-08,1.89290625e-01
-6.09268750e-08,1.89307813e-01
-6.08868750e-08,1.89292188e-01
-6.08468750e-08,1.89307813e-01
-6.08068750e-08,1.89293750e-01
-6.07668750e-08,1.89306250e-01
-6.07268750e-08,1.89293750e-01
-6.06868750e-08,1.89306250e-01
-6.06468750e-08,1.89293750e-01
-6.06068750e-08,1.89306250e-01
-6.05668750e-08,1.89293750e-01
-6.05268750e-08,1.89304688e-01
-6.04868750e-08,1.89295313e-01
-6.04468750e-08,1.89304688e-01
-6.04068750e-08,1.89295313e-01
-6.03668750e-08,1.89304688e-01
-6.03268750e-08,1.89295313e-01
-6.02868750e-08,1.89304688e-01
-6.02468750e-08,1.89295313e-01
-6.02068750e-08,1.89304688e-01
-6.01668750e-08,1.89295313e-01
-6.01268750e-08,1.89304688e-01
-6.00868750e-08,1.89295313e-01
-6.00468750e-08,1.89304688e-01
-6.00068750e-08,1.89296875e-01
-5.99668750e-08,1.89303125e-01
-5.99268750e-08,1.89296875e-01
-5.98868750e-08,1.89303125e-01
-5.98468750e-08,1.89296875e-01
-5.98068750e-08,1.89303125e-01
-5.97668750e-08,1.89296875e-01
-5.97268750e-08,1.89303125e-01
-5.96868750e-08,1.89296875e-01
-5.96468750e-08,1.89303125e-01
-5.96068750e-08,1.89296875e-01
-5.95668750e-08,1.89303125e-01
-5.95268750e-08,1.89296875e-01
-5.94868750e-08,1.89303125e-01
-5.94468750e-08,1.89296875e-01
-5.94068750e-08,1.89303125e-01
-5.93668750e-08,1.89296875e-01
-5.93268750e-08,1.89303125e-01
-5.92868750e-08,1.89296875e-01
-5.92468750e-08,1.89303125e-01
-5.92068750e-08,1.89296875e-01
-5.91668750e-08,1.89303125e-01
-5.91268750e-08,1.89296875e-01
-5.90868750e-08,1.89303125e-01
-5.90468750e-08,1.89296875e-01
-5.90068750e-08,1.89303125e-01
-5.89668750e-08,1.89296875e-01
-5.89268750e-08,1.89303125e-01
-5.88868750e-08,1.89296875e-01
-5.88468750e-08,1.89303125e-01
-5.88068750e-08,1.89296875e-01
-5.87668750e-08,1.89303125e-01
-5.87268750e-08,1.89296875e-01
-5.86868750e-08,1.89303125e-01
-5.86468750e-08,1.89296875e-01
-5.86068750e-08,1.89303125e-01
-5.85668750e-08,1.89296875e-01
-5.85268750e-08,1.89301563e-01
-5.84868750e-08,1.89298437e-01
-5.84468750e-08,1.89303125e-01
-5.84068750e-08,1.89298437e-01
-5.83668750e-08,1.89301563e-01
-5.83268750e-08,1.89298437e-01
-5.82868750e-08,1.89301563e-01
-5.82468750e-08,1.89298437e-01
-5.82068750e-08,1.89301563e-01
-5.81668750e-08,1.89298437e-01
-5.81268750e-08,1.89301563e-01
-5.80868750e-08,1.89298437e-01
-5.80468750e-08,1.89301563e-01
-5.80068750e-08,1.89298437e-01
-5.79668750e-08,1.89301563e-01
-5.79268750e-08,1.89298437e-01
-5.78868750e-08,1.89301563e-01
-5.78468750e-08,1.89298437e-01
-5.78068750e-08,1.89301563e-01
-5.77668750e-08,1.89298437e-01
-5.77268750e-08,1.89301563e-01
-5.76868750e-08,1.89298437e-01
-5.76468750e-08,1.89301563e-01
-5.76068750e-08,1.89298437e-01
-5.75668750e-08,1.89301563e-01
-5.75268750e-08,1.89298437e-01
-5.74868750e-08,1.89301563e-01
-5.74468750e-08,1.89298437e-01
-5.74068750e-08,1.89301563e-01
-5.73668750e-08,1.89296875e-01
-5.73268750e-08,1.89303125e-01
-5.72868750e-08,1.89296875e-01
-5.72468750e-08,1.89303125e-01
-5.72068750e-08,1.89296875e-01
-5.71668750e-08,1.89303125e-01
-5.71268750e-08,1.89296875e-01
-5.70868750e-08,1.89303125e-01
-5.70468750e-08,1.89296875e-01
-5.70068750e-08,1.89303125e-01
-5.69668750e-08,1.89296875e-01
-5.69268750e-08,1.89303125e-01
-5.68868750e-08,1.89296875e-01
-5.68468750e-08,1.89304688e-01
-5.68068750e-08,1.89295313e-01
-5.67668750e-08,1.89304688e-01
-5.67268750e-08,1.89293750e-01
-5.66868750e-08,1.89306250e-01
-5.66468750e-08,1.89292188e-01
-5.66068750e-08,1.89309375e-01
-5.65668750e-08,1.89287500e-01
-5.65268750e-08,1.89317188e-01
-5.64868750e-08,1.89273438e-01
-5.64468750e-08,1.89350000e-01
-5.64068750e-08,1.89096875e-01
-5.63668750e-08,1.88840625e-01
-5.63268750e-08,1.88937500e-01
-5.62868750e-08,1.88871875e-01
-5.62468750e-08,1.88925000e-01
-5.62068750e-08,1.88876563e-01
-5.61668750e-08,1.88923438e-01
-5.61268750e-08,1.88875000e-01
-5.60868750e-08,1.88929687e-01
-5.60468750e-08,1.88860938e-01
-5.60068750e-08,1.88964063e-01
-5.59668750e-08,1.88682813e-01
-5.59268750e-08,1.88454687e-01
-5.58868750e-08,1.88520313e-01
-5.58468750e-08,1.88490625e-01
-5.58068750e-08,1.88501562e-01
-5.57668750e-08,1.88504688e-01
-5.57268750e-08,1.88484375e-01
-5.56868750e-08,1.88542188e-01
-5.56468750e-08,1.88304688e-01
-5.56068750e-08,1.88032813e-01
-5.55668750e-08,1.88143750e-01
-5.55268750e-08,1.88064063e-01
-5.54868750e-08,1.88132812e-01
-5.54468750e-08,1.88068750e-01
-5.54068750e-08,1.88134375e-01
-5.53668750e-08,1.88057813e-01
-5.53268750e-08,1.88167187e-01
-5.52868750e-08,1.87881250e-01
-5.52468750e-08,1.87654688e-01
-5.52068750e-08,1.87721875e-01
-5.51668750e-08,1.87687500e-01
-5.51268750e-08,1.87707813e-01
-5.50868750e-08,1.87693750e-01
-5.50468750e-08,1.87703125e-01
-5.50068750e-08,1.87696875e-01
-5.49668750e-08,1.87701563e-01
-5.49268750e-08,1.87698438e-01
-5.48868750e-08,1.87700000e-01
-5.48468750e-08,1.87700000e-01
-5.48068750e-08,1.87700000e-01
-5.47668750e-08,1.87700000e-01
-5.47268750e-08,1.87700000e-01
-5.46868750e-08,1.87700000e-01
-5.46468750e-08,1.87700000e-01
-5.46068750e-08,1.87701563e-01
-5.45668750e-08,1.87698438e-01
-5.45268750e-08,1.87701563e-01
-5.44868750e-08,1.87698438e-01
-5.44468750e-08,1.87701563e-01
-5.44068750e-08,1.87698438e-01
-5.43668750e-08,1.87701563e-01
-5.43268750e-08,1.87698438e-01
-5.42868750e-08,1.87701563e-01
-5.42468750e-08,1.87698438e-01
-5.42068750e-08,1.87701563e-01
-5.41668750e-08,1.87698438e-01
-5.41268750e-08,1.87701563e-01
-5.40868750e-08,1.87698438e-01
-5.40468750e-08,1.87701563e-01
-5.40068750e-08,1.87698438e-01
-5.39668750e-08,1.87701563e-01
-5.39268750e-08,1.87696875e-01
-5.38868750e-08,1.87703125e-01
-5.38468750e-08,1.87696875e-01
-5.38068750e-08,1.87703125e-01
-5.37668750e-08,1.87696875e-01
-5.37268750e-08,1.87703125e-01
-5.36868750e-08,1.87696875e-01
-5.36468750e-08,1.87703125e-01
-5.36068750e-08,1.87695313e-01
-5.35668750e-08,1.87704687e-01
-5.35268750e-08,1.87695313e-01
-5.34868750e-08,1.87706250e-01
-5.34468750e-08,1.87693750e-01
-5.34068750e-08,1.87707813e-01
-5.33668750e-08,1.87692187e-01
-5.33268750e-08,1.87710938e-01
-5.32868750e-08,1.87685938e-01
-5.32468750e-08,1.87718750e-01
-5.32068750e-08,1.87671875e-01
-5.31668750e-08,1.87751562e-01
-5.31268750e-08,1.87495313e-01
-5.30868750e-08,1.87242188e-01
-5.30468750e-08,1.87334375e-01
-5.30068750e-08,1.87273438e-01
-5.29668750e-08,1.87321875e-01
-5.29268750e-08,1.87279688e-01
-5.28868750e-08,1.87320313e-01
-5.28468750e-08,1.87278125e-01
-5.28068750e-08,1.87325000e-01
-5.27668750e-08,1.87265625e-01
-5.27268750e-08,1.87357812e-01
-5.26868750e-08,1.87089063e-01
-5.26468750e-08,1.86846875e-01
-5.26068750e-08,1.86929687e-01
-5.25668750e-08,1.86879688e-01
-5.25268750e-08,1.86917187e-01
-5.24868750e-08,1.86884375e-01
-5.24468750e-08,1.86914063e-01
-5.24068750e-08,1.86885938e-01
-5.23668750e-08,1.86915625e-01
-5.23268750e-08,1.86882812e-01
-5.22868750e-08,1.86921875e-01
-5.22468750e-08,1.86868750e-01
-5.22068750e-08,1.86954687e-01
-5.21668750e-08,1.86692187e-01
-5.21268750e-08,1.86445313e-01
-5.20868750e-08,1.86531250e-01
-5.20468750e-08,1.86478125e-01
-5.20068750e-08,1.86518750e-01
-5.19668750e-08,1.86484375e-01
-5.19268750e-08,1.86514062e-01
-5.18868750e-08,1.86485938e-01
-5.18468750e-08,1.86514062e-01
-5.18068750e-08,1.86485938e-01
-5.17668750e-08,1.86514062e-01
-5.17268750e-08,1.86484375e-01
-5.16868750e-08,1.86518750e-01
-5.16468750e-08,1.86476562e-01
-5.16068750e-08,1.86532813e-01
-5.15668750e-08,1.86442187e-01
-5.15268750e-08,1.86710938e-01
-5.14868750e-08,1.86951563e-01
-5.14468750e-08,1.86871875e-01
-5.14068750e-08,1.86918750e-01
-5.13668750e-08,1.86885938e-01
-5.13268750e-08,1.86910938e-01
-5.12868750e-08,1.86890625e-01
-5.12468750e-08,1.86907812e-01
-5.12068750e-08,1.86892188e-01
-5.11668750e-08,1.86906250e-01
-5.11268750e-08,1.86893750e-01
-5.10868750e-08,1.86904687e-01
-5.10468750e-08,1.86895313e-01
-5.10068750e-08,1.86904687e-01
-5.09668750e-08,1.86895313e-01
-5.09268750e-08,1.86904687e-01
-5.08868750e-08,1.86895313e-01
-5.08468750e-08,1.86903125e-01
-5.08068750e-08,1.86896875e-01
-5.07668750e-08,1.86903125e-01
-5.07268750e-08,1.86896875e-01
-5.06868750e-08,1.86903125e-01
-5.06468750e-08,1.86896875e-01
-5.06068750e-08,1.86903125e-01
-5.05668750e-08,1.86896875e-01
-5.05268750e-08,1.86903125e-01
-5.04868750e-08,1.86896875e-01
-5.04468750e-08,1.86903125e-01
-5.04068750e-08,1.86896875e-01
-5.03668750e-08,1.86903125e-01
-5.03268750e-08,1.86896875e-01
-5.02868750e-08,1.86903125e-01
-5.02468750e-08,1.86896875e-01
-5.02068750e-08,1.86904687e-01
-5.01668750e-08,1.86895313e-01
-5.01268750e-08,1.86904687e-01
-5.00868750e-08,1.86895313e-01
-5.00468750e-08,1.86904687e-01
-5.00068750e-08,1.86895313e-01
-4.99668750e-08,1.86904687e-01
-4.99268750e-08,1.86893750e-01
-4.98868750e-08,1.86906250e-01
-4.98468750e-08,1.86893750e-01
-4.98068750e-08,1.86906250e-01
-4.97668750e-08,1.86892188e-01
-4.97268750e-08,1.86907812e-01
-4.96868750e-08,1.86890625e-01
-4.96468750e-08,1.86910938e-01
-4.96068750e-08,1.86885938e-01
-4.95668750e-08,1.86917187e-01
-4.95268750e-08,1.86878125e-01
-4.94868750e-08,1.86931250e-01
-4.94468750e-08,1.86843750e-01
-4.94068750e-08,1.87109375e-01
-4.93668750e-08,1.87353125e-01
-4.93268750e-08,1.87271875e-01
-4.92868750e-08,1.87318750e-01
-4.92468750e-08,1.87285937e-01
-4.92068750e-08,1.87310937e-01
-4.91668750e-08,1.87292188e-01
-4.91268750e-08,1.87306250e-01
-4.90868750e-08,1.87295313e-01
-4.90468750e-08,1.87303125e-01
-4.90068750e-08,1.87298437e-01
-4.89668750e-08,1.87300000e-01
-4.89268750e-08,1.87301563e-01
-4.88868750e-08,1.87296875e-01
-4.88468750e-08,1.87306250e-01
-4.88068750e-08,1.87287500e-01
-4.87668750e-08,1.87321875e-01
-4.87268750e-08,1.87253125e-01
-4.86868750e-08,1.87500000e-01
-4.86468750e-08,1.87762500e-01
-4.86068750e-08,1.87660938e-01
-4.85668750e-08,1.87729688e-01
-4.85268750e-08,1.87673438e-01
-4.84868750e-08,1.87723438e-01
-4.84468750e-08,1.87678125e-01
-4.84068750e-08,1.87721875e-01
-4.83668750e-08,1.87678125e-01
-4.83268750e-08,1.87721875e-01
-4.82868750e-08,1.87676563e-01
-4.82468750e-08,1.87726562e-01
-4.82068750e-08,1.87668750e-01
-4.81668750e-08,1.87740625e-01
-4.81268750e-08,1.87635938e-01
-4.80868750e-08,1.87917187e-01
-4.80468750e-08,1.88145312e-01
-4.80068750e-08,1.88078125e-01
-4.79668750e-08,1.88112500e-01
-4.79268750e-08,1.88092188e-01
-4.78868750e-08,1.88104688e-01
-4.78468750e-08,1.88098437e-01
-4.78068750e-08,1.88100000e-01
-4.77668750e-08,1.88101563e-01
-4.77268750e-08,1.88098437e-01
-4.76868750e-08,1.88103125e-01
-4.76468750e-08,1.88096875e-01
-4.76068750e-08,1.88104688e-01
-4.75668750e-08,1.88093750e-01
-4.75268750e-08,1.88106250e-01
-4.74868750e-08,1.88092188e-01
-4.74468750e-08,1.88109375e-01
-4.74068750e-08,1.88089063e-01
-4.73668750e-08,1.88112500e-01
-4.73268750e-08,1.88084375e-01
-4.72868750e-08,1.88121875e-01
-4.72468750e-08,1.88068750e-01
-4.72068750e-08,1.88156250e-01
-4.71668750e-08,1.87890625e-01
-4.71268750e-08,1.87646875e-01
-4.70868750e-08,1.87728125e-01
-4.70468750e-08,1.87681250e-01
-4.70068750e-08,1.87714063e-01
-4.69668750e-08,1.87689063e-01
-4.69268750e-08,1.87707813e-01
-4.68868750e-08,1.87693750e-01
-4.68468750e-08,1.87704687e-01
-4.68068750e-08,1.87695313e-01
-4.67668750e-08,1.87703125e-01
-4.67268750e-08,1.87698438e-01
-4.66868750e-08,1.87701563e-01
-4.66468750e-08,1.87700000e-01
-4.66068750e-08,1.87698438e-01
-4.65668750e-08,1.87701563e-01
-4.65268750e-08,1.87696875e-01
-4.64868750e-08,1.87704687e-01
-4.64468750e-08,1.87692187e-01
-4.64068750e-08,1.87710938e-01
-4.63668750e-08,1.87684375e-01
-4.63268750e-08,1.87725000e-01
-4.62868750e-08,1.87650000e-01
-4.62468750e-08,1.87903125e-01
-4.62068750e-08,1.88159375e-01
-4.61668750e-08,1.88064063e-01
-4.61268750e-08,1.88126563e-01
-4.60868750e-08,1.88078125e-01
-4.60468750e-08,1.88118750e-01
-4.60068750e-08,1.88082813e-01
-4.59668750e-08,1.88115625e-01
-4.59268750e-08,1.88084375e-01
-4.58868750e-08,1.88115625e-01
-4.58468750e-08,1.88084375e-01
-4.58068750e-08,1.88115625e-01
-4.57668750e-08,1.88082813e-01
-4.57268750e-08,1.88120312e-01
-4.56868750e-08,1.88075000e-01
-4.56468750e-08,1.88134375e-01
-4.56068750e-08,1.88042188e-01
-4.55668750e-08,1.88310937e-01
-4.55268750e-08,1.88551563e-01
-4.54868750e-08,1.88471875e-01
-4.54468750e-08,1.88518750e-01
-4.54068750e-08,1.88485938e-01
-4.53668750e-08,1.88512500e-01
-4.53268750e-08,1.88489062e-01
-4.52868750e-08,1.88509375e-01
-4.52468750e-08,1.88490625e-01
-4.52068750e-08,1.88509375e-01
-4.51668750e-08,1.88490625e-01
-4.51268750e-08,1.88509375e-01
-4.50868750e-08,1.88490625e-01
-4.50468750e-08,1.88510938e-01
-4.50068750e-08,1.88487500e-01
-4.49668750e-08,1.88514062e-01
-4.49268750e-08,1.88482813e-01
-4.48868750e-08,1.88521875e-01
-4.48468750e-08,1.88468750e-01
-4.48068750e-08,1.88556250e-01
-4.47668750e-08,1.88290625e-01
-4.47268750e-08,1.88048437e-01
-4.46868750e-08,1.88128125e-01
-4.46468750e-08,1.88081250e-01
-4.46068750e-08,1.88112500e-01
-4.45668750e-08,1.88090625e-01
-4.45268750e-08,1.88106250e-01
-4.44868750e-08,1.88095313e-01
-4.44468750e-08,1.88101563e-01
-4.44068750e-08,1.88100000e-01
-4.43668750e-08,1.88095313e-01
-4.43268750e-08,1.88109375e-01
-4.42868750e-08,1.88081250e-01
-4.42468750e-08,1.88143750e-01
-4.42068750e-08,1.87903125e-01
-4.41668750e-08,1.87634375e-01
-4.41268750e-08,1.87740625e-01
-4.40868750e-08,1.87667187e-01
-4.40468750e-08,1.87728125e-01
-4.40068750e-08,1.87675000e-01
-4.39668750e-08,1.87725000e-01
-4.39268750e-08,1.87675000e-01
-4.38868750e-08,1.87725000e-01
-4.38468750e-08,1.87671875e-01
-4.38068750e-08,1.87731250e-01
-4.37668750e-08,1.87659375e-01
-4.37268750e-08,1.87765625e-01
-4.36868750e-08,1.87482813e-01
-4.36468750e-08,1.87254688e-01
-4.36068750e-08,1.87321875e-01
-4.35668750e-08,1.87287500e-01
-4.35268750e-08,1.87307813e-01
-4.34868750e-08,1.87295313e-01
-4.34468750e-08,1.87303125e-01
-4.34068750e-08,1.87298437e-01
-4.33668750e-08,1.87300000e-01
-4.33268750e-08,1.87300000e-01
-4.32868750e-08,1.87298437e-01
-4.32468750e-08,1.87301563e-01
-4.32068750e-08,1.87298437e-01
-4.31668750e-08,1.87301563e-01
-4.31268750e-08,1.87296875e-01
-4.30868750e-08,1.87303125e-01
-4.30468750e-08,1.87296875e-01
-4.30068750e-08,1.87303125e-01
-4.29668750e-08,1.87296875e-01
-4.29268750e-08,1.87304688e-01
-4.28868750e-08,1.87295313e-01
-4.28468750e-08,1.87304688e-01
-4.28068750e-08,1.87295313e-01
-4.27668750e-08,1.87304688e-01
-4.27268750e-08,1.87293750e-01
-4.26868750e-08,1.87306250e-01
-4.26468750e-08,1.87293750e-01
-4.26068750e-08,1.87306250e-01
-4.25668750e-08,1.87292188e-01
-4.25268750e-08,1.87309375e-01
-4.24868750e-08,1.87290625e-01
-4.24468750e-08,1.87310937e-01
-4.24068750e-08,1.87285937e-01
-4.23668750e-08,1.87315625e-01
-4.23268750e-08,1.87278125e-01
-4.22868750e-08,1.87331250e-01
-4.22468750e-08,1.87243750e-01
-4.22068750e-08,1.87509375e-01
-4.21668750e-08,1.87753125e-01
-4.21268750e-08,1.87670313e-01
-4.20868750e-08,1.87720313e-01
-4.20468750e-08,1.87684375e-01
-4.20068750e-08,1.87712500e-01
-4.19668750e-08,1.87690625e-01
-4.19268750e-08,1.87709375e-01
-4.18868750e-08,1.87692187e-01
-4.18468750e-08,1.87706250e-01
-4.18068750e-08,1.87693750e-01
-4.17668750e-08,1.87706250e-01
-4.17268750e-08,1.87695313e-01
-4.16868750e-08,1.87704687e-01
-4.16468750e-08,1.87695313e-01
-4.16068750e-08,1.87704687e-01
-4.15668750e-08,1.87695313e-01
-4.15268750e-08,1.87704687e-01
-4.14868750e-08,1.87695313e-01
-4.14468750e-08,1.87704687e-01
-4.14068750e-08,1.87695313e-01
-4.13668750e-08,1.87704687e-01
-4.13268750e-08,1.87696875e-01
-4.12868750e-08,1.87703125e-01
-4.12468750e-08,1.87695313e-01
-4.12068750e-08,1.87704687e-01
-4.11668750e-08,1.87695313e-01
-4.11268750e-08,1.87704687e-01
-4.10868750e-08,1.87695313e-01
-4.10468750e-08,1.87704687e-01
-4.10068750e-08,1.87695313e-01
-4.09668750e-08,1.87704687e-01
-4.09268750e-08,1.87693750e-01
-4.08868750e-08,1.87706250e-01
-4.08468750e-08,1.87693750e-01
-4.08068750e-08,1.87707813e-01
-4.07668750e-08,1.87692187e-01
-4.07268750e-08,1.87709375e-01
-4.06868750e-08,1.87689063e-01
-4.06468750e-08,1.87714063e-01
-4.06068750e-08,1.87682813e-01
-4.05668750e-08,1.87721875e-01
-4.05268750e-08,1.87668750e-01
-4.04868750e-08,1.87756250e-01
-4.04468750e-08,1.87489062e-01
-4.04068750e-08,1.87248438e-01
-4.03668750e-08,1.87328125e-01
-4.03268750e-08,1.87282813e-01
-4.02868750e-08,1.87312500e-01
-4.02468750e-08,1.87292188e-01
-4.02068750e-08,1.87304688e-01
-4.01668750e-08,1.87298437e-01
-4.01268750e-08,1.87296875e-01
-4.00868750e-08,1.87307813e-01
-4.00468750e-08,1.87281250e-01
-4.00068750e-08,1.87343750e-01
-3.99668750e-08,1.87103125e-01
-3.99268750e-08,1.86834375e-01
-3.98868750e-08,1.86942187e-01
-3.98468750e-08,1.86867188e-01
-3.98068750e-08,1.86929687e-01
-3.97668750e-08,1.86873438e-01
-3.97268750e-08,1.86926563e-01
-3.96868750e-08,1.86871875e-01
-3.96468750e-08,1.86931250e-01
-3.96068750e-08,1.86859375e-01
-3.95668750e-08,1.86964063e-01
-3.95268750e-08,1.86682813e-01
-3.94868750e-08,1.86453125e-01
-3.94468750e-08,1.86523438e-01
-3.94068750e-08,1.86484375e-01
-3.93668750e-08,1.86510938e-01
-3.93268750e-08,1.86490625e-01
-3.92868750e-08,1.86509375e-01
-3.92468750e-08,1.86490625e-01
-3.92068750e-08,1.86509375e-01
-3.91668750e-08,1.86487500e-01
-3.91268750e-08,1.86517188e-01
-3.90868750e-08,1.86475000e-01
-3.90468750e-08,1.86550000e-01
-3.90068750e-08,1.86296875e-01
-3.89668750e-08,1.86040625e-01
-3.89268750e-08,1.86135938e-01
-3.88868750e-08,1.86073437e-01
-3.88468750e-08,1.86121875e-01
-3.88068750e-08,1.86079688e-01
-3.87668750e-08,1.86118750e-01
-3.87268750e-08,1.86082812e-01
-3.86868750e-08,1.86115625e-01
-3.86468750e-08,1.86084375e-01
-3.86068750e-08,1.86115625e-01
-3.85668750e-08,1.86084375e-01
-3.85268750e-08,1.86115625e-01
