trails/0bdfa5e45fec98341abdd20552c140b4/aes_ch1_20250507120529011.csv

Model,MSO66B
Label,
Waveform Type,ANALOG
Horizontal Units,s
Sample Interval,4.00000000e-11
Record Length,10000
Zero Index,1599.14843750
Vertical Units,A
ANALOG_Thumbnail,
yOffset,1.84500000e-01
yPosition,8.40000000e-01

Labels,
TIME,CH1
-6.39659375e-08,1.86512500e-01
-6.39259375e-08,1.86492188e-01
-6.38859375e-08,1.86506250e-01
-6.38459375e-08,1.86495313e-01
-6.38059375e-08,1.86503125e-01
-6.37659375e-08,1.86498438e-01
-6.37259375e-08,1.86501562e-01
-6.36859375e-08,1.86500000e-01
-6.36459375e-08,1.86500000e-01
-6.36059375e-08,1.86501562e-01
-6.35659375e-08,1.86498438e-01
-6.35259375e-08,1.86503125e-01
-6.34859375e-08,1.86496875e-01
-6.34459375e-08,1.86504688e-01
-6.34059375e-08,1.86495313e-01
-6.33659375e-08,1.86506250e-01
-6.33259375e-08,1.86493750e-01
-6.32859375e-08,1.86507813e-01
-6.32459375e-08,1.86492188e-01
-6.32059375e-08,1.86509375e-01
-6.31659375e-08,1.86489062e-01
-6.31259375e-08,1.86512500e-01
-6.30859375e-08,1.86484375e-01
-6.30459375e-08,1.86518750e-01
-6.30059375e-08,1.86475000e-01
-6.29659375e-08,1.86534375e-01
-6.29259375e-08,1.86440625e-01
-6.28859375e-08,1.86714062e-01
-6.28459375e-08,1.86948438e-01
-6.28059375e-08,1.86876563e-01
-6.27659375e-08,1.86912500e-01
-6.27259375e-08,1.86893750e-01
-6.26859375e-08,1.86901563e-01
-6.26459375e-08,1.86901563e-01
-6.26059375e-08,1.86895313e-01
-6.25659375e-08,1.86909375e-01
-6.25259375e-08,1.86884375e-01
-6.24859375e-08,1.86926563e-01
-6.24459375e-08,1.86846875e-01
-6.24059375e-08,1.87106250e-01
-6.23659375e-08,1.87354688e-01
-6.23259375e-08,1.87270313e-01
-6.22859375e-08,1.87318750e-01
-6.22459375e-08,1.87287500e-01
-6.22059375e-08,1.87309375e-01
-6.21659375e-08,1.87295313e-01
-6.21259375e-08,1.87301563e-01
-6.20859375e-08,1.87303125e-01
-6.20459375e-08,1.87290625e-01
-6.20059375e-08,1.87320313e-01
-6.19659375e-08,1.87254688e-01
-6.19259375e-08,1.87500000e-01
-6.18859375e-08,1.87762500e-01
-6.18459375e-08,1.87662500e-01
-6.18059375e-08,1.87728125e-01
-6.17659375e-08,1.87678125e-01
-6.17259375e-08,1.87718750e-01
-6.16859375e-08,1.87682813e-01
-6.16459375e-08,1.87714063e-01
-6.16059375e-08,1.87687500e-01
-6.15659375e-08,1.87712500e-01
-6.15259375e-08,1.87689063e-01
-6.14859375e-08,1.87709375e-01
-6.14459375e-08,1.87690625e-01
-6.14059375e-08,1.87707813e-01
-6.13659375e-08,1.87692187e-01
-6.13259375e-08,1.87707813e-01
-6.12859375e-08,1.87693750e-01
-6.12459375e-08,1.87706250e-01
-6.12059375e-08,1.87695313e-01
-6.11659375e-08,1.87704687e-01
-6.11259375e-08,1.87696875e-01
-6.10859375e-08,1.87703125e-01
-6.10459375e-08,1.87698438e-01
-6.10059375e-08,1.87700000e-01
-6.09659375e-08,1.87703125e-01
-6.09259375e-08,1.87693750e-01
-6.08859375e-08,1.87710938e-01
-6.08459375e-08,1.87679687e-01
-6.08059375e-08,1.87745313e-01
-6.07659375e-08,1.87501562e-01
-6.07259375e-08,1.87235938e-01
-6.06859375e-08,1.87340625e-01
-6.06459375e-08,1.87267188e-01
-6.06059375e-08,1.87328125e-01
-6.05659375e-08,1.87275000e-01
-6.05259375e-08,1.87325000e-01
-6.04859375e-08,1.87275000e-01
-6.04459375e-08,1.87325000e-01
-6.04059375e-08,1.87271875e-01
-6.03659375e-08,1.87331250e-01
-6.03259375e-08,1.87259375e-01
-6.02859375e-08,1.87365625e-01
-6.02459375e-08,1.87082813e-01
-6.02059375e-08,1.86854688e-01
-6.01659375e-08,1.86921875e-01
-6.01259375e-08,1.86887500e-01
-6.00859375e-08,1.86907812e-01
-6.00459375e-08,1.86895313e-01
-6.00059375e-08,1.86903125e-01
-5.99659375e-08,1.86898438e-01
-5.99259375e-08,1.86901563e-01
-5.98859375e-08,1.86900000e-01
-5.98459375e-08,1.86900000e-01
-5.98059375e-08,1.86900000e-01
-5.97659375e-08,1.86900000e-01
-5.97259375e-08,1.86900000e-01
-5.96859375e-08,1.86898438e-01
-5.96459375e-08,1.86901563e-01
-5.96059375e-08,1.86898438e-01
-5.95659375e-08,1.86901563e-01
-5.95259375e-08,1.86898438e-01
-5.94859375e-08,1.86901563e-01
-5.94459375e-08,1.86898438e-01
-5.94059375e-08,1.86901563e-01
-5.93659375e-08,1.86898438e-01
-5.93259375e-08,1.86901563e-01
-5.92859375e-08,1.86898438e-01
-5.92459375e-08,1.86901563e-01
-5.92059375e-08,1.86898438e-01
-5.91659375e-08,1.86901563e-01
-5.91259375e-08,1.86898438e-01
-5.90859375e-08,1.86901563e-01
-5.90459375e-08,1.86900000e-01
-5.90059375e-08,1.86900000e-01
-5.89659375e-08,1.86900000e-01
-5.89259375e-08,1.86900000e-01
-5.88859375e-08,1.86900000e-01
-5.88459375e-08,1.86900000e-01
-5.88059375e-08,1.86900000e-01
-5.87659375e-08,1.86900000e-01
-5.87259375e-08,1.86901563e-01
-5.86859375e-08,1.86898438e-01
-5.86459375e-08,1.86901563e-01
-5.86059375e-08,1.86898438e-01
-5.85659375e-08,1.86903125e-01
-5.85259375e-08,1.86896875e-01
-5.84859375e-08,1.86904687e-01
-5.84459375e-08,1.86893750e-01
-5.84059375e-08,1.86907812e-01
-5.83659375e-08,1.86889063e-01
-5.83259375e-08,1.86915625e-01
-5.82859375e-08,1.86875000e-01
-5.82459375e-08,1.86950000e-01
-5.82059375e-08,1.86696875e-01
-5.81659375e-08,1.86440625e-01
-5.81259375e-08,1.86535937e-01
-5.80859375e-08,1.86473438e-01
-5.80459375e-08,1.86521875e-01
-5.80059375e-08,1.86481250e-01
-5.79659375e-08,1.86517188e-01
-5.79259375e-08,1.86484375e-01
-5.78859375e-08,1.86514062e-01
-5.78459375e-08,1.86485938e-01
-5.78059375e-08,1.86514062e-01
-5.77659375e-08,1.86485938e-01
-5.77259375e-08,1.86514062e-01
-5.76859375e-08,1.86485938e-01
-5.76459375e-08,1.86514062e-01
-5.76059375e-08,1.86485938e-01
-5.75659375e-08,1.86515625e-01
-5.75259375e-08,1.86482813e-01
-5.74859375e-08,1.86518750e-01
-5.74459375e-08,1.86478125e-01
-5.74059375e-08,1.86526562e-01
-5.73659375e-08,1.86464062e-01
-5.73259375e-08,1.86560937e-01
-5.72859375e-08,1.86285937e-01
-5.72459375e-08,1.86051563e-01
-5.72059375e-08,1.86125000e-01
-5.71659375e-08,1.86084375e-01
-5.71259375e-08,1.86110938e-01
-5.70859375e-08,1.86092188e-01
-5.70459375e-08,1.86106250e-01
-5.70059375e-08,1.86095312e-01
-5.69659375e-08,1.86103125e-01
-5.69259375e-08,1.86096875e-01
-5.68859375e-08,1.86101563e-01
-5.68459375e-08,1.86098438e-01
-5.68059375e-08,1.86100000e-01
-5.67659375e-08,1.86100000e-01
-5.67259375e-08,1.86100000e-01
-5.66859375e-08,1.86100000e-01
-5.66459375e-08,1.86100000e-01
-5.66059375e-08,1.86101563e-01
-5.65659375e-08,1.86098438e-01
-5.65259375e-08,1.86101563e-01
-5.64859375e-08,1.86098438e-01
-5.64459375e-08,1.86101563e-01
-5.64059375e-08,1.86098438e-01
-5.63659375e-08,1.86101563e-01
-5.63259375e-08,1.86096875e-01
-5.62859375e-08,1.86103125e-01
-5.62459375e-08,1.86096875e-01
-5.62059375e-08,1.86103125e-01
-5.61659375e-08,1.86096875e-01
-5.61259375e-08,1.86103125e-01
-5.60859375e-08,1.86095312e-01
-5.60459375e-08,1.86104688e-01
-5.60059375e-08,1.86095312e-01
-5.59659375e-08,1.86104688e-01
-5.59259375e-08,1.86093750e-01
-5.58859375e-08,1.86106250e-01
-5.58459375e-08,1.86092188e-01
-5.58059375e-08,1.86107812e-01
-5.57659375e-08,1.86090625e-01
-5.57259375e-08,1.86110938e-01
-5.56859375e-08,1.86087500e-01
-5.56459375e-08,1.86115625e-01
-5.56059375e-08,1.86078125e-01
-5.55659375e-08,1.86131250e-01
-5.55259375e-08,1.86043750e-01
-5.54859375e-08,1.86309375e-01
-5.54459375e-08,1.86553125e-01
-5.54059375e-08,1.86470313e-01
-5.53659375e-08,1.86518750e-01
-5.53259375e-08,1.86485938e-01
-5.52859375e-08,1.86510938e-01
-5.52459375e-08,1.86490625e-01
-5.52059375e-08,1.86506250e-01
-5.51659375e-08,1.86493750e-01
-5.51259375e-08,1.86504688e-01
-5.50859375e-08,1.86496875e-01
-5.50459375e-08,1.86501562e-01
-5.50059375e-08,1.86498438e-01
-5.49659375e-08,1.86500000e-01
-5.49259375e-08,1.86501562e-01
-5.48859375e-08,1.86496875e-01
-5.48459375e-08,1.86506250e-01
-5.48059375e-08,1.86490625e-01
-5.47659375e-08,1.86514062e-01
-5.47259375e-08,1.86476562e-01
-5.46859375e-08,1.86548437e-01
-5.46459375e-08,1.86298437e-01
-5.46059375e-08,1.86039063e-01
-5.45659375e-08,1.86137500e-01
-5.45259375e-08,1.86071875e-01
-5.44859375e-08,1.86121875e-01
-5.44459375e-08,1.86079688e-01
-5.44059375e-08,1.86117188e-01
-5.43659375e-08,1.86084375e-01
-5.43259375e-08,1.86115625e-01
-5.42859375e-08,1.86084375e-01
-5.42459375e-08,1.86114063e-01
-5.42059375e-08,1.86085938e-01
-5.41659375e-08,1.86114063e-01
-5.41259375e-08,1.86085938e-01
-5.40859375e-08,1.86114063e-01
-5.40459375e-08,1.86084375e-01
-5.40059375e-08,1.86115625e-01
-5.39659375e-08,1.86082812e-01
-5.39259375e-08,1.86118750e-01
-5.38859375e-08,1.86078125e-01
-5.38459375e-08,1.86126563e-01
-5.38059375e-08,1.86064063e-01
-5.37659375e-08,1.86160938e-01
-5.37259375e-08,1.85885938e-01
-5.36859375e-08,1.85651563e-01
-5.36459375e-08,1.85725000e-01
-5.36059375e-08,1.85684375e-01
-5.35659375e-08,1.85710938e-01
-5.35259375e-08,1.85692187e-01
-5.34859375e-08,1.85704688e-01
-5.34459375e-08,1.85696875e-01
-5.34059375e-08,1.85703125e-01
-5.33659375e-08,1.85698438e-01
-5.33259375e-08,1.85701563e-01
-5.32859375e-08,1.85698438e-01
-5.32459375e-08,1.85700000e-01
-5.32059375e-08,1.85700000e-01
-5.31659375e-08,1.85700000e-01
-5.31259375e-08,1.85700000e-01
-5.30859375e-08,1.85700000e-01
-5.30459375e-08,1.85700000e-01
-5.30059375e-08,1.85700000e-01
-5.29659375e-08,1.85701563e-01
-5.29259375e-08,1.85698438e-01
-5.28859375e-08,1.85701563e-01
-5.28459375e-08,1.85698438e-01
-5.28059375e-08,1.85700000e-01
-5.27659375e-08,1.85700000e-01
-5.27259375e-08,1.85700000e-01
-5.26859375e-08,1.85700000e-01
-5.26459375e-08,1.85698438e-01
-5.26059375e-08,1.85701563e-01
-5.25659375e-08,1.85696875e-01
-5.25259375e-08,1.85706250e-01
-5.24859375e-08,1.85689063e-01
-5.24459375e-08,1.85720313e-01
-5.24059375e-08,1.85656250e-01
-5.23659375e-08,1.85896875e-01
-5.23259375e-08,1.86167187e-01
-5.22859375e-08,1.86056250e-01
-5.22459375e-08,1.86135938e-01
-5.22059375e-08,1.86067188e-01
-5.21659375e-08,1.86131250e-01
-5.21259375e-08,1.86067188e-01
-5.20859375e-08,1.86134375e-01
-5.20459375e-08,1.86060937e-01
-5.20059375e-08,1.86148438e-01
-5.19659375e-08,1.86026562e-01
-5.19259375e-08,1.86328125e-01
-5.18859375e-08,1.86532813e-01
-5.18459375e-08,1.86492188e-01
-5.18059375e-08,1.86496875e-01
-5.17659375e-08,1.86512500e-01
-5.17259375e-08,1.86479688e-01
-5.16859375e-08,1.86532813e-01
-5.16459375e-08,1.86439063e-01
-5.16059375e-08,1.86717187e-01
-5.15659375e-08,1.86942187e-01
-5.15259375e-08,1.86885938e-01
-5.14859375e-08,1.86900000e-01
-5.14459375e-08,1.86915625e-01
-5.14059375e-08,1.86854688e-01
-5.13659375e-08,1.87101563e-01
-5.13259375e-08,1.87359375e-01
-5.12859375e-08,1.87267188e-01
-5.12459375e-08,1.87320313e-01
-5.12059375e-08,1.87289063e-01
-5.11659375e-08,1.87303125e-01
-5.11259375e-08,1.87309375e-01
-5.10859375e-08,1.87264062e-01
-5.10459375e-08,1.87490625e-01
-5.10059375e-08,1.87771875e-01
-5.09659375e-08,1.87653125e-01
-5.09259375e-08,1.87737500e-01
-5.08859375e-08,1.87667187e-01
-5.08459375e-08,1.87729688e-01
-5.08059375e-08,1.87671875e-01
-5.07659375e-08,1.87726562e-01
-5.07259375e-08,1.87673438e-01
-5.06859375e-08,1.87728125e-01
-5.06459375e-08,1.87670313e-01
-5.06059375e-08,1.87732813e-01
-5.05659375e-08,1.87662500e-01
-5.05259375e-08,1.87746875e-01
-5.04859375e-08,1.87626563e-01
-5.04459375e-08,1.87928125e-01
-5.04059375e-08,1.88132812e-01
-5.03659375e-08,1.88096875e-01
-5.03259375e-08,1.88084375e-01
-5.02859375e-08,1.88143750e-01
-5.02459375e-08,1.87900000e-01
-5.02059375e-08,1.87639063e-01
-5.01659375e-08,1.87735938e-01
-5.01259375e-08,1.87675000e-01
-5.00859375e-08,1.87720313e-01
-5.00459375e-08,1.87682813e-01
-5.00059375e-08,1.87714063e-01
-4.99659375e-08,1.87687500e-01
-4.99259375e-08,1.87710938e-01
-4.98859375e-08,1.87689063e-01
-4.98459375e-08,1.87709375e-01
-4.98059375e-08,1.87690625e-01
-4.97659375e-08,1.87709375e-01
-4.97259375e-08,1.87692187e-01
-4.96859375e-08,1.87707813e-01
-4.96459375e-08,1.87692187e-01
-4.96059375e-08,1.87707813e-01
-4.95659375e-08,1.87692187e-01
-4.95259375e-08,1.87707813e-01
-4.94859375e-08,1.87692187e-01
-4.94459375e-08,1.87707813e-01
-4.94059375e-08,1.87690625e-01
-4.93659375e-08,1.87709375e-01
-4.93259375e-08,1.87690625e-01
-4.92859375e-08,1.87709375e-01
-4.92459375e-08,1.87689063e-01
-4.92059375e-08,1.87710938e-01
-4.91659375e-08,1.87687500e-01
-4.91259375e-08,1.87714063e-01
-4.90859375e-08,1.87684375e-01
-4.90459375e-08,1.87717187e-01
-4.90059375e-08,1.87679687e-01
-4.89659375e-08,1.87725000e-01
-4.89259375e-08,1.87664063e-01
-4.88859375e-08,1.87760938e-01
-4.88459375e-08,1.87485938e-01
-4.88059375e-08,1.87251562e-01
-4.87659375e-08,1.87323437e-01
-4.87259375e-08,1.87285937e-01
-4.86859375e-08,1.87309375e-01
-4.86459375e-08,1.87295313e-01
-4.86059375e-08,1.87303125e-01
-4.85659375e-08,1.87300000e-01
-4.85259375e-08,1.87298437e-01
-4.84859375e-08,1.87304688e-01
-4.84459375e-08,1.87293750e-01
-4.84059375e-08,1.87309375e-01
-4.83659375e-08,1.87287500e-01
-4.83259375e-08,1.87318750e-01
-4.82859375e-08,1.87271875e-01
-4.82459375e-08,1.87354688e-01
-4.82059375e-08,1.87092188e-01
-4.81659375e-08,1.86846875e-01
-4.81259375e-08,1.86928125e-01
-4.80859375e-08,1.86881250e-01
-4.80459375e-08,1.86912500e-01
-4.80059375e-08,1.86893750e-01
-4.79659375e-08,1.86901563e-01
-4.79259375e-08,1.86904687e-01
-4.78859375e-08,1.86885938e-01
-4.78459375e-08,1.86940625e-01
-4.78059375e-08,1.86706250e-01
-4.77659375e-08,1.86431250e-01
-4.77259375e-08,1.86545313e-01
-4.76859375e-08,1.86462500e-01
-4.76459375e-08,1.86534375e-01
-4.76059375e-08,1.86465625e-01
-4.75659375e-08,1.86535937e-01
-4.75259375e-08,1.86454687e-01
-4.74859375e-08,1.86568750e-01
-4.74459375e-08,1.86279688e-01
-4.74059375e-08,1.86056250e-01
-4.73659375e-08,1.86120312e-01
-4.73259375e-08,1.86089063e-01
-4.72859375e-08,1.86106250e-01
-4.72459375e-08,1.86095312e-01
-4.72059375e-08,1.86103125e-01
-4.71659375e-08,1.86098438e-01
-4.71259375e-08,1.86100000e-01
-4.70859375e-08,1.86100000e-01
-4.70459375e-08,1.86100000e-01
-4.70059375e-08,1.86101563e-01
-4.69659375e-08,1.86098438e-01
-4.69259375e-08,1.86101563e-01
-4.68859375e-08,1.86098438e-01
-4.68459375e-08,1.86101563e-01
-4.68059375e-08,1.86096875e-01
-4.67659375e-08,1.86103125e-01
-4.67259375e-08,1.86096875e-01
-4.66859375e-08,1.86103125e-01
-4.66459375e-08,1.86095312e-01
-4.66059375e-08,1.86106250e-01
-4.65659375e-08,1.86092188e-01
-4.65259375e-08,1.86109375e-01
-4.64859375e-08,1.86085938e-01
-4.64459375e-08,1.86123438e-01
-4.64059375e-08,1.86051563e-01
-4.63659375e-08,1.86300000e-01
-4.63259375e-08,1.86564063e-01
-4.62859375e-08,1.86459375e-01
-4.62459375e-08,1.86532813e-01
-4.62059375e-08,1.86468750e-01
-4.61659375e-08,1.86531250e-01
-4.61259375e-08,1.86465625e-01
-4.60859375e-08,1.86543750e-01
-4.60459375e-08,1.86432813e-01
-4.60059375e-08,1.86720313e-01
-4.59659375e-08,1.86940625e-01
-4.59259375e-08,1.86884375e-01
-4.58859375e-08,1.86904687e-01
-4.58459375e-08,1.86903125e-01
-4.58059375e-08,1.86889063e-01
-4.57659375e-08,1.86921875e-01
-4.57259375e-08,1.86851563e-01
-4.56859375e-08,1.87101563e-01
-4.56459375e-08,1.87359375e-01
-4.56059375e-08,1.87264062e-01
-4.55659375e-08,1.87326563e-01
-4.55259375e-08,1.87279688e-01
-4.54859375e-08,1.87317188e-01
-4.54459375e-08,1.87284375e-01
-4.54059375e-08,1.87314063e-01
-4.53659375e-08,1.87287500e-01
-4.53259375e-08,1.87312500e-01
-4.52859375e-08,1.87289063e-01
-4.52459375e-08,1.87310937e-01
-4.52059375e-08,1.87289063e-01
-4.51659375e-08,1.87310937e-01
-4.51259375e-08,1.87289063e-01
-4.50859375e-08,1.87310937e-01
-4.50459375e-08,1.87289063e-01
-4.50059375e-08,1.87310937e-01
-4.49659375e-08,1.87287500e-01
-4.49259375e-08,1.87314063e-01
-4.48859375e-08,1.87282813e-01
-4.48459375e-08,1.87321875e-01
-4.48059375e-08,1.87268750e-01
-4.47659375e-08,1.87354688e-01
-4.47259375e-08,1.87092188e-01
-4.46859375e-08,1.86843750e-01
-4.46459375e-08,1.86932813e-01
-4.46059375e-08,1.86875000e-01
-4.45659375e-08,1.86921875e-01
-4.45259375e-08,1.86878125e-01
-4.44859375e-08,1.86925000e-01
-4.44459375e-08,1.86867188e-01
-4.44059375e-08,1.86956250e-01
-4.43659375e-08,1.86692187e-01
-4.43259375e-08,1.86443750e-01
-4.42859375e-08,1.86532813e-01
-4.42459375e-08,1.86473438e-01
-4.42059375e-08,1.86523438e-01
-4.41659375e-08,1.86476562e-01
-4.41259375e-08,1.86526562e-01
-4.40859375e-08,1.86465625e-01
-4.40459375e-08,1.86557813e-01
-4.40059375e-08,1.86289063e-01
-4.39659375e-08,1.86048437e-01
-4.39259375e-08,1.86129688e-01
-4.38859375e-08,1.86079688e-01
-4.38459375e-08,1.86115625e-01
-4.38059375e-08,1.86085938e-01
-4.37659375e-08,1.86112500e-01
-4.37259375e-08,1.86089063e-01
-4.36859375e-08,1.86110938e-01
-4.36459375e-08,1.86089063e-01
-4.36059375e-08,1.86110938e-01
-4.35659375e-08,1.86089063e-01
-4.35259375e-08,1.86112500e-01
-4.34859375e-08,1.86087500e-01
-4.34459375e-08,1.86115625e-01
-4.34059375e-08,1.86081250e-01
-4.33659375e-08,1.86123438e-01
-4.33259375e-08,1.86067188e-01
-4.32859375e-08,1.86157813e-01
-4.32459375e-08,1.85889063e-01
-4.32059375e-08,1.85648438e-01
-4.31659375e-08,1.85728125e-01
-4.31259375e-08,1.85681250e-01
-4.30859375e-08,1.85714062e-01
-4.30459375e-08,1.85689063e-01
-4.30059375e-08,1.85709375e-01
-4.29659375e-08,1.85692187e-01
-4.29259375e-08,1.85706250e-01
-4.28859375e-08,1.85695313e-01
-4.28459375e-08,1.85704688e-01
-4.28059375e-08,1.85695313e-01
-4.27659375e-08,1.85703125e-01
-4.27259375e-08,1.85696875e-01
-4.26859375e-08,1.85703125e-01
-4.26459375e-08,1.85698438e-01
-4.26059375e-08,1.85701563e-01
-4.25659375e-08,1.85698438e-01
-4.25259375e-08,1.85701563e-01
-4.24859375e-08,1.85700000e-01
-4.24459375e-08,1.85700000e-01
-4.24059375e-08,1.85700000e-01
-4.23659375e-08,1.85698438e-01
-4.23259375e-08,1.85701563e-01
-4.22859375e-08,1.85698438e-01
-4.22459375e-08,1.85703125e-01
-4.22059375e-08,1.85696875e-01
-4.21659375e-08,1.85704688e-01
-4.21259375e-08,1.85693750e-01
-4.20859375e-08,1.85707813e-01
-4.20459375e-08,1.85689063e-01
-4.20059375e-08,1.85717188e-01
-4.19659375e-08,1.85673438e-01
-4.19259375e-08,1.85751562e-01
-4.18859375e-08,1.85495313e-01
-4.18459375e-08,1.85242188e-01
-4.18059375e-08,1.85334375e-01
-4.17659375e-08,1.85275000e-01
-4.17259375e-08,1.85320313e-01
-4.16859375e-08,1.85282813e-01
-4.16459375e-08,1.85315625e-01
-4.16059375e-08,1.85285937e-01
-4.15659375e-08,1.85314063e-01
-4.15259375e-08,1.85287500e-01
-4.14859375e-08,1.85312500e-01
-4.14459375e-08,1.85287500e-01
-4.14059375e-08,1.85312500e-01
-4.13659375e-08,1.85287500e-01
-4.13259375e-08,1.85314063e-01
-4.12859375e-08,1.85284375e-01
-4.12459375e-08,1.85317188e-01
-4.12059375e-08,1.85281250e-01
-4.11659375e-08,1.85323438e-01
-4.11259375e-08,1.85267188e-01
-4.10859375e-08,1.85357812e-01
-4.10459375e-08,1.85089063e-01
-4.10059375e-08,1.84848438e-01
-4.09659375e-08,1.84928125e-01
-4.09259375e-08,1.84881250e-01
-4.08859375e-08,1.84914063e-01
-4.08459375e-08,1.84889063e-01
-4.08059375e-08,1.84909375e-01
-4.07659375e-08,1.84890625e-01
-4.07259375e-08,1.84907813e-01
-4.06859375e-08,1.84892187e-01
-4.06459375e-08,1.84907813e-01
-4.06059375e-08,1.84892187e-01
-4.05659375e-08,1.84909375e-01
-4.05259375e-08,1.84889063e-01
-4.04859375e-08,1.84912500e-01
-4.04459375e-08,1.84885938e-01
-4.04059375e-08,1.84918750e-01
-4.03659375e-08,1.84871875e-01
-4.03259375e-08,1.84953125e-01
-4.02859375e-08,1.84693750e-01
-4.02459375e-08,1.84443750e-01
-4.02059375e-08,1.84532813e-01
-4.01659375e-08,1.84476562e-01
-4.01259375e-08,1.84518750e-01
-4.00859375e-08,1.84484375e-01
-4.00459375e-08,1.84514063e-01
-4.00059375e-08,1.84485938e-01
-3.99659375e-08,1.84512500e-01
-3.99259375e-08,1.84487500e-01
-3.98859375e-08,1.84512500e-01
-3.98459375e-08,1.84487500e-01
-3.98059375e-08,1.84512500e-01
-3.97659375e-08,1.84485938e-01
-3.97259375e-08,1.84514063e-01
-3.96859375e-08,1.84484375e-01
-3.96459375e-08,1.84518750e-01
-3.96059375e-08,1.84476562e-01
-3.95659375e-08,1.84532813e-01
-3.95259375e-08,1.84442188e-01
-3.94859375e-08,1.84710938e-01
-3.94459375e-08,1.84951562e-01
-3.94059375e-08,1.84871875e-01
-3.93659375e-08,1.84918750e-01
-3.93259375e-08,1.84885938e-01
-3.92859375e-08,1.84912500e-01
-3.92459375e-08,1.84889063e-01
-3.92059375e-08,1.84909375e-01
-3.91659375e-08,1.84890625e-01
-3.91259375e-08,1.84910938e-01
-3.90859375e-08,1.84889063e-01
-3.90459375e-08,1.84914063e-01
-3.90059375e-08,1.84882812e-01
-3.89659375e-08,1.84926563e-01
-3.89259375e-08,1.84848438e-01
-3.88859375e-08,1.85103125e-01
-3.88459375e-08,1.85359375e-01
-3.88059375e-08,1.85262500e-01
-3.87659375e-08,1.85329688e-01
-3.87259375e-08,1.85275000e-01
-3.86859375e-08,1.85323438e-01
-3.86459375e-08,1.85275000e-01
-3.86059375e-08,1.85326563e-01
-3.85659375e-08,1.85268750e-01
-3.85259375e-08,1.85340625e-01
