trails/0bdfa5e45fec98341abdd20552c140b4/aes_ch1_20250507123458399.csv

Model,MSO66B
Label,
Waveform Type,ANALOG
Horizontal Units,s
Sample Interval,4.00000000e-11
Record Length,10000
Zero Index,1599.07421875
Vertical Units,A
ANALOG_Thumbnail,
yOffset,1.84500000e-01
yPosition,8.40000000e-01

Labels,
TIME,CH1
-6.39629687e-08,2.00109375e-01
-6.39229688e-08,2.00090625e-01
-6.38829687e-08,2.00109375e-01
-6.38429687e-08,2.00090625e-01
-6.38029687e-08,2.00109375e-01
-6.37629687e-08,2.00090625e-01
-6.37229688e-08,2.00107813e-01
-6.36829687e-08,2.00092188e-01
-6.36429688e-08,2.00107813e-01
-6.36029687e-08,2.00092188e-01
-6.35629687e-08,2.00107813e-01
-6.35229687e-08,2.00092188e-01
-6.34829687e-08,2.00107813e-01
-6.34429688e-08,2.00092188e-01
-6.34029687e-08,2.00107813e-01
-6.33629688e-08,2.00092188e-01
-6.33229687e-08,2.00107813e-01
-6.32829687e-08,2.00092188e-01
-6.32429687e-08,2.00107813e-01
-6.32029687e-08,2.00092188e-01
-6.31629688e-08,2.00107813e-01
-6.31229687e-08,2.00092188e-01
-6.30829688e-08,2.00107813e-01
-6.30429687e-08,2.00092188e-01
-6.30029687e-08,2.00107813e-01
-6.29629687e-08,2.00092188e-01
-6.29229687e-08,2.00107813e-01
-6.28829688e-08,2.00092188e-01
-6.28429687e-08,2.00107813e-01
-6.28029688e-08,2.00092188e-01
-6.27629687e-08,2.00107813e-01
-6.27229687e-08,2.00092188e-01
-6.26829687e-08,2.00107813e-01
-6.26429687e-08,2.00090625e-01
-6.26029688e-08,2.00109375e-01
-6.25629687e-08,2.00090625e-01
-6.25229688e-08,2.00109375e-01
-6.24829687e-08,2.00090625e-01
-6.24429687e-08,2.00110938e-01
-6.24029687e-08,2.00089062e-01
-6.23629687e-08,2.00110938e-01
-6.23229688e-08,2.00087500e-01
-6.22829687e-08,2.00112500e-01
-6.22429688e-08,2.00085938e-01
-6.22029687e-08,2.00115625e-01
-6.21629687e-08,2.00081250e-01
-6.21229687e-08,2.00120313e-01
-6.20829687e-08,2.00073438e-01
-6.20429688e-08,2.00135937e-01
-6.20029687e-08,2.00039063e-01
-6.19629688e-08,2.00314063e-01
-6.19229687e-08,2.00548438e-01
-6.18829687e-08,2.00476563e-01
-6.18429687e-08,2.00514063e-01
-6.18029687e-08,2.00490625e-01
-6.17629688e-08,2.00506250e-01
-6.17229687e-08,2.00496875e-01
-6.16829687e-08,2.00501563e-01
-6.16429687e-08,2.00500000e-01
-6.16029687e-08,2.00498438e-01
-6.15629687e-08,2.00503125e-01
-6.15229687e-08,2.00495313e-01
-6.14829688e-08,2.00506250e-01
-6.14429687e-08,2.00490625e-01
-6.14029687e-08,2.00512500e-01
-6.13629687e-08,2.00481250e-01
-6.13229687e-08,2.00528125e-01
-6.12829687e-08,2.00446875e-01
-6.12429687e-08,2.00706250e-01
-6.12029688e-08,2.00956250e-01
-6.11629687e-08,2.00868750e-01
-6.11229687e-08,2.00921875e-01
-6.10829687e-08,2.00882813e-01
-6.10429687e-08,2.00914063e-01
-6.10029687e-08,2.00887500e-01
-6.09629687e-08,2.00910937e-01
-6.09229688e-08,2.00890625e-01
-6.08829687e-08,2.00909375e-01
-6.08429687e-08,2.00892188e-01
-6.08029687e-08,2.00907813e-01
-6.07629687e-08,2.00892188e-01
-6.07229687e-08,2.00906250e-01
-6.06829687e-08,2.00893750e-01
-6.06429688e-08,2.00906250e-01
-6.06029687e-08,2.00893750e-01
-6.05629687e-08,2.00906250e-01
-6.05229687e-08,2.00893750e-01
-6.04829687e-08,2.00906250e-01
-6.04429687e-08,2.00893750e-01
-6.04029687e-08,2.00906250e-01
-6.03629688e-08,2.00893750e-01
-6.03229687e-08,2.00906250e-01
-6.02829687e-08,2.00893750e-01
-6.02429687e-08,2.00906250e-01
-6.02029687e-08,2.00892188e-01
-6.01629687e-08,2.00907813e-01
-6.01229687e-08,2.00892188e-01
-6.00829688e-08,2.00909375e-01
-6.00429687e-08,2.00890625e-01
-6.00029687e-08,2.00910937e-01
-5.99629687e-08,2.00887500e-01
-5.99229687e-08,2.00914063e-01
-5.98829688e-08,2.00882813e-01
-5.98429687e-08,2.00923437e-01
-5.98029688e-08,2.00867188e-01
-5.97629687e-08,2.00957812e-01
-5.97229687e-08,2.00689063e-01
-5.96829687e-08,2.00450000e-01
-5.96429687e-08,2.00525000e-01
-5.96029687e-08,2.00484375e-01
-5.95629687e-08,2.00509375e-01
-5.95229687e-08,2.00495313e-01
-5.94829687e-08,2.00500000e-01
-5.94429687e-08,2.00506250e-01
-5.94029687e-08,2.00482812e-01
-5.93629687e-08,2.00542187e-01
-5.93229687e-08,2.00304688e-01
-5.92829687e-08,2.00032813e-01
-5.92429687e-08,2.00143750e-01
-5.92029687e-08,2.00065625e-01
-5.91629687e-08,2.00129688e-01
-5.91229687e-08,2.00071875e-01
-5.90829687e-08,2.00128125e-01
-5.90429687e-08,2.00070313e-01
-5.90029687e-08,2.00134375e-01
-5.89629687e-08,2.00057813e-01
-5.89229687e-08,2.00167188e-01
-5.88829687e-08,1.99881250e-01
-5.88429687e-08,1.99656250e-01
-5.88029687e-08,1.99720312e-01
-5.87629687e-08,1.99689063e-01
-5.87229687e-08,1.99706250e-01
-5.86829687e-08,1.99696875e-01
-5.86429687e-08,1.99701563e-01
-5.86029687e-08,1.99700000e-01
-5.85629687e-08,1.99700000e-01
-5.85229687e-08,1.99701563e-01
-5.84829687e-08,1.99698437e-01
-5.84429687e-08,1.99703125e-01
-5.84029687e-08,1.99696875e-01
-5.83629687e-08,1.99703125e-01
-5.83229687e-08,1.99695312e-01
-5.82829687e-08,1.99704688e-01
-5.82429687e-08,1.99695312e-01
-5.82029687e-08,1.99706250e-01
-5.81629687e-08,1.99693750e-01
-5.81229687e-08,1.99707812e-01
-5.80829687e-08,1.99692188e-01
-5.80429687e-08,1.99709375e-01
-5.80029687e-08,1.99687500e-01
-5.79629687e-08,1.99715625e-01
-5.79229687e-08,1.99679688e-01
-5.78829687e-08,1.99729688e-01
-5.78429687e-08,1.99645313e-01
-5.78029687e-08,1.99907813e-01
-5.77629687e-08,2.00154688e-01
-5.77229687e-08,2.00068750e-01
-5.76829687e-08,2.00121875e-01
-5.76429687e-08,2.00082813e-01
-5.76029687e-08,2.00114063e-01
-5.75629687e-08,2.00087500e-01
-5.75229687e-08,2.00110938e-01
-5.74829687e-08,2.00090625e-01
-5.74429687e-08,2.00109375e-01
-5.74029687e-08,2.00090625e-01
-5.73629687e-08,2.00109375e-01
-5.73229687e-08,2.00090625e-01
-5.72829687e-08,2.00109375e-01
-5.72429687e-08,2.00090625e-01
-5.72029687e-08,2.00109375e-01
-5.71629687e-08,2.00089062e-01
-5.71229687e-08,2.00112500e-01
-5.70829687e-08,2.00085938e-01
-5.70429687e-08,2.00117188e-01
-5.70029687e-08,2.00078125e-01
-5.69629687e-08,2.00131250e-01
-5.69229687e-08,2.00043750e-01
-5.68829687e-08,2.00309375e-01
-5.68429687e-08,2.00553125e-01
-5.68029687e-08,2.00470312e-01
-5.67629687e-08,2.00520313e-01
-5.67229687e-08,2.00484375e-01
-5.66829687e-08,2.00512500e-01
-5.66429687e-08,2.00489063e-01
-5.66029687e-08,2.00509375e-01
-5.65629687e-08,2.00490625e-01
-5.65229687e-08,2.00507812e-01
-5.64829687e-08,2.00492188e-01
-5.64429687e-08,2.00506250e-01
-5.64029687e-08,2.00493750e-01
-5.63629687e-08,2.00506250e-01
-5.63229687e-08,2.00493750e-01
-5.62829687e-08,2.00506250e-01
-5.62429687e-08,2.00493750e-01
-5.62029687e-08,2.00506250e-01
-5.61629687e-08,2.00495313e-01
-5.61229687e-08,2.00504688e-01
-5.60829687e-08,2.00495313e-01
-5.60429687e-08,2.00504688e-01
-5.60029687e-08,2.00495313e-01
-5.59629687e-08,2.00504688e-01
-5.59229687e-08,2.00495313e-01
-5.58829687e-08,2.00504688e-01
-5.58429687e-08,2.00495313e-01
-5.58029687e-08,2.00504688e-01
-5.57629687e-08,2.00495313e-01
-5.57229687e-08,2.00506250e-01
-5.56829687e-08,2.00493750e-01
-5.56429687e-08,2.00506250e-01
-5.56029687e-08,2.00493750e-01
-5.55629687e-08,2.00506250e-01
-5.55229687e-08,2.00493750e-01
-5.54829687e-08,2.00506250e-01
-5.54429687e-08,2.00493750e-01
-5.54029687e-08,2.00507812e-01
-5.53629687e-08,2.00492188e-01
-5.53229687e-08,2.00507812e-01
-5.52829687e-08,2.00490625e-01
-5.52429687e-08,2.00509375e-01
-5.52029687e-08,2.00489063e-01
-5.51629687e-08,2.00512500e-01
-5.51229687e-08,2.00485938e-01
-5.50829687e-08,2.00517187e-01
-5.50429687e-08,2.00478125e-01
-5.50029687e-08,2.00531250e-01
-5.49629687e-08,2.00443750e-01
-5.49229687e-08,2.00709375e-01
-5.48829687e-08,2.00953125e-01
-5.48429687e-08,2.00870313e-01
-5.48029687e-08,2.00920313e-01
-5.47629687e-08,2.00884375e-01
-5.47229687e-08,2.00912500e-01
-5.46829687e-08,2.00889062e-01
-5.46429687e-08,2.00909375e-01
-5.46029687e-08,2.00890625e-01
-5.45629687e-08,2.00907813e-01
-5.45229687e-08,2.00892188e-01
-5.44829687e-08,2.00907813e-01
-5.44429687e-08,2.00890625e-01
-5.44029687e-08,2.00909375e-01
-5.43629687e-08,2.00889062e-01
-5.43229687e-08,2.00914063e-01
-5.42829687e-08,2.00881250e-01
-5.42429687e-08,2.00928125e-01
-5.42029687e-08,2.00848438e-01
-5.41629687e-08,2.01104688e-01
-5.41229687e-08,2.01357813e-01
-5.40829687e-08,2.01265625e-01
-5.40429687e-08,2.01325000e-01
-5.40029687e-08,2.01279687e-01
-5.39629687e-08,2.01318750e-01
-5.39229687e-08,2.01282813e-01
-5.38829687e-08,2.01315625e-01
-5.38429687e-08,2.01284375e-01
-5.38029687e-08,2.01315625e-01
-5.37629687e-08,2.01284375e-01
-5.37229687e-08,2.01315625e-01
-5.36829687e-08,2.01282813e-01
-5.36429687e-08,2.01318750e-01
-5.36029687e-08,2.01279687e-01
-5.35629687e-08,2.01323438e-01
-5.35229687e-08,2.01271875e-01
-5.34829687e-08,2.01337500e-01
-5.34429687e-08,2.01237500e-01
-5.34029687e-08,2.01515625e-01
-5.33629687e-08,2.01746875e-01
-5.33229687e-08,2.01678125e-01
-5.32829687e-08,2.01712500e-01
-5.32429687e-08,2.01692188e-01
-5.32029687e-08,2.01703125e-01
-5.31629687e-08,2.01698437e-01
-5.31229687e-08,2.01700000e-01
-5.30829687e-08,2.01701563e-01
-5.30429687e-08,2.01695313e-01
-5.30029687e-08,2.01706250e-01
-5.29629687e-08,2.01692188e-01
-5.29229687e-08,2.01709375e-01
-5.28829687e-08,2.01687500e-01
-5.28429687e-08,2.01715625e-01
-5.28029687e-08,2.01679688e-01
-5.27629687e-08,2.01731250e-01
-5.27229687e-08,2.01643750e-01
-5.26829687e-08,2.01909375e-01
-5.26429687e-08,2.02151562e-01
-5.26029687e-08,2.02071875e-01
-5.25629687e-08,2.02118750e-01
-5.25229687e-08,2.02087500e-01
-5.24829687e-08,2.02109375e-01
-5.24429687e-08,2.02093750e-01
-5.24029687e-08,2.02104688e-01
-5.23629687e-08,2.02096875e-01
-5.23229687e-08,2.02101562e-01
-5.22829687e-08,2.02100000e-01
-5.22429687e-08,2.02098438e-01
-5.22029688e-08,2.02103125e-01
-5.21629687e-08,2.02095313e-01
-5.21229687e-08,2.02106250e-01
-5.20829687e-08,2.02090625e-01
-5.20429687e-08,2.02112500e-01
-5.20029687e-08,2.02081250e-01
-5.19629687e-08,2.02128125e-01
-5.19229687e-08,2.02046875e-01
-5.18829687e-08,2.02307813e-01
-5.18429687e-08,2.02554687e-01
-5.18029687e-08,2.02470312e-01
-5.17629687e-08,2.02520313e-01
-5.17229687e-08,2.02484375e-01
-5.16829687e-08,2.02510938e-01
-5.16429687e-08,2.02492188e-01
-5.16029687e-08,2.02506250e-01
-5.15629687e-08,2.02495312e-01
-5.15229687e-08,2.02501563e-01
-5.14829687e-08,2.02500000e-01
-5.14429687e-08,2.02498438e-01
-5.14029687e-08,2.02504688e-01
-5.13629687e-08,2.02492188e-01
-5.13229687e-08,2.02514063e-01
-5.12829687e-08,2.02475000e-01
-5.12429687e-08,2.02550000e-01
-5.12029687e-08,2.02296875e-01
-5.11629687e-08,2.02042187e-01
-5.11229687e-08,2.02134375e-01
-5.10829687e-08,2.02076563e-01
-5.10429687e-08,2.02118750e-01
-5.10029687e-08,2.02085938e-01
-5.09629687e-08,2.02110938e-01
-5.09229687e-08,2.02092188e-01
-5.08829687e-08,2.02104688e-01
-5.08429687e-08,2.02098438e-01
-5.08029687e-08,2.02098438e-01
-5.07629687e-08,2.02107813e-01
-5.07229687e-08,2.02081250e-01
-5.06829687e-08,2.02143750e-01
-5.06429687e-08,2.01901563e-01
-5.06029687e-08,2.01635938e-01
-5.05629687e-08,2.01739063e-01
-5.05229687e-08,2.01673437e-01
-5.04829687e-08,2.01720312e-01
-5.04429687e-08,2.01687500e-01
-5.04029687e-08,2.01701563e-01
-5.03629687e-08,2.01725000e-01
-5.03229687e-08,2.01523438e-01
-5.02829688e-08,2.01214063e-01
-5.02429687e-08,2.01364062e-01
-5.02029687e-08,2.01242188e-01
-5.01629687e-08,2.01357813e-01
-5.01229687e-08,2.01235938e-01
-5.00829687e-08,2.01387500e-01
-5.00429687e-08,2.01060938e-01
-5.00029688e-08,2.00876563e-01
-4.99629687e-08,2.00898437e-01
-4.99229687e-08,2.00912500e-01
-4.98829687e-08,2.00879688e-01
-4.98429687e-08,2.00928125e-01
-4.98029687e-08,2.00860938e-01
-4.97629687e-08,2.00965625e-01
-4.97229687e-08,2.00681250e-01
-4.96829687e-08,2.00457812e-01
-4.96429687e-08,2.00517187e-01
-4.96029687e-08,2.00493750e-01
-4.95629687e-08,2.00500000e-01
-4.95229687e-08,2.00503125e-01
-4.94829687e-08,2.00492188e-01
-4.94429687e-08,2.00510938e-01
-4.94029687e-08,2.00484375e-01
-4.93629687e-08,2.00521875e-01
-4.93229687e-08,2.00467188e-01
-4.92829687e-08,2.00557813e-01
-4.92429687e-08,2.00289063e-01
-4.92029687e-08,2.00050000e-01
-4.91629687e-08,2.00125000e-01
-4.91229687e-08,2.00084375e-01
-4.90829687e-08,2.00110938e-01
-4.90429687e-08,2.00093750e-01
-4.90029687e-08,2.00104688e-01
-4.89629687e-08,2.00098438e-01
-4.89229687e-08,2.00100000e-01
-4.88829687e-08,2.00101562e-01
-4.88429687e-08,2.00095313e-01
-4.88029687e-08,2.00106250e-01
-4.87629687e-08,2.00090625e-01
-4.87229687e-08,2.00112500e-01
-4.86829687e-08,2.00082813e-01
-4.86429688e-08,2.00128125e-01
-4.86029687e-08,2.00046875e-01
-4.85629687e-08,2.00306250e-01
-4.85229687e-08,2.00556250e-01
-4.84829687e-08,2.00468750e-01
-4.84429687e-08,2.00521875e-01
-4.84029687e-08,2.00482812e-01
-4.83629688e-08,2.00514063e-01
-4.83229687e-08,2.00489063e-01
-4.82829687e-08,2.00509375e-01
-4.82429687e-08,2.00490625e-01
-4.82029687e-08,2.00507812e-01
-4.81629687e-08,2.00493750e-01
-4.81229687e-08,2.00506250e-01
-4.80829688e-08,2.00493750e-01
-4.80429687e-08,2.00504688e-01
-4.80029687e-08,2.00495313e-01
-4.79629687e-08,2.00504688e-01
-4.79229687e-08,2.00495313e-01
-4.78829687e-08,2.00503125e-01
-4.78429687e-08,2.00496875e-01
-4.78029687e-08,2.00503125e-01
-4.77629687e-08,2.00496875e-01
-4.77229687e-08,2.00503125e-01
-4.76829687e-08,2.00496875e-01
-4.76429687e-08,2.00503125e-01
-4.76029687e-08,2.00496875e-01
-4.75629687e-08,2.00503125e-01
-4.75229687e-08,2.00496875e-01
-4.74829687e-08,2.00501563e-01
-4.74429687e-08,2.00498438e-01
-4.74029687e-08,2.00501563e-01
-4.73629687e-08,2.00498438e-01
-4.73229687e-08,2.00501563e-01
-4.72829687e-08,2.00498438e-01
-4.72429687e-08,2.00501563e-01
-4.72029687e-08,2.00498438e-01
-4.71629687e-08,2.00501563e-01
-4.71229687e-08,2.00498438e-01
-4.70829687e-08,2.00501563e-01
-4.70429687e-08,2.00498438e-01
-4.70029687e-08,2.00501563e-01
-4.69629687e-08,2.00498438e-01
-4.69229687e-08,2.00501563e-01
-4.68829687e-08,2.00498438e-01
-4.68429687e-08,2.00501563e-01
-4.68029687e-08,2.00498438e-01
-4.67629687e-08,2.00501563e-01
-4.67229688e-08,2.00498438e-01
-4.66829687e-08,2.00501563e-01
-4.66429687e-08,2.00498438e-01
-4.66029687e-08,2.00501563e-01
-4.65629687e-08,2.00498438e-01
-4.65229687e-08,2.00501563e-01
-4.64829687e-08,2.00496875e-01
-4.64429688e-08,2.00503125e-01
-4.64029687e-08,2.00496875e-01
-4.63629687e-08,2.00503125e-01
-4.63229687e-08,2.00496875e-01
-4.62829687e-08,2.00503125e-01
-4.62429687e-08,2.00496875e-01
-4.62029687e-08,2.00504688e-01
-4.61629688e-08,2.00495313e-01
-4.61229687e-08,2.00504688e-01
-4.60829687e-08,2.00493750e-01
-4.60429687e-08,2.00507812e-01
-4.60029687e-08,2.00490625e-01
-4.59629687e-08,2.00510938e-01
-4.59229687e-08,2.00485938e-01
-4.58829688e-08,2.00518750e-01
-4.58429687e-08,2.00471875e-01
-4.58029687e-08,2.00553125e-01
-4.57629687e-08,2.00293750e-01
-4.57229687e-08,2.00043750e-01
-4.56829687e-08,2.00132813e-01
-4.56429687e-08,2.00076562e-01
-4.56029687e-08,2.00118750e-01
-4.55629687e-08,2.00084375e-01
-4.55229687e-08,2.00112500e-01
-4.54829687e-08,2.00089062e-01
-4.54429687e-08,2.00110938e-01
-4.54029687e-08,2.00090625e-01
-4.53629687e-08,2.00109375e-01
-4.53229687e-08,2.00092188e-01
-4.52829687e-08,2.00107813e-01
-4.52429687e-08,2.00092188e-01
-4.52029687e-08,2.00107813e-01
-4.51629687e-08,2.00092188e-01
-4.51229687e-08,2.00107813e-01
-4.50829687e-08,2.00092188e-01
-4.50429687e-08,2.00106250e-01
-4.50029687e-08,2.00093750e-01
-4.49629687e-08,2.00106250e-01
-4.49229687e-08,2.00093750e-01
-4.48829687e-08,2.00106250e-01
-4.48429687e-08,2.00093750e-01
-4.48029688e-08,2.00106250e-01
-4.47629687e-08,2.00093750e-01
-4.47229687e-08,2.00106250e-01
-4.46829687e-08,2.00093750e-01
-4.46429687e-08,2.00106250e-01
-4.46029687e-08,2.00093750e-01
-4.45629687e-08,2.00107813e-01
-4.45229688e-08,2.00092188e-01
-4.44829687e-08,2.00107813e-01
-4.44429687e-08,2.00092188e-01
-4.44029687e-08,2.00107813e-01
-4.43629687e-08,2.00092188e-01
-4.43229687e-08,2.00107813e-01
-4.42829687e-08,2.00090625e-01
-4.42429688e-08,2.00109375e-01
-4.42029687e-08,2.00090625e-01
-4.41629687e-08,2.00109375e-01
-4.41229687e-08,2.00089062e-01
-4.40829687e-08,2.00112500e-01
-4.40429687e-08,2.00087500e-01
-4.40029687e-08,2.00114063e-01
-4.39629688e-08,2.00082813e-01
-4.39229687e-08,2.00120313e-01
-4.38829687e-08,2.00075000e-01
-4.38429687e-08,2.00134375e-01
-4.38029687e-08,2.00040625e-01
-4.37629687e-08,2.00312500e-01
-4.37229687e-08,2.00550000e-01
-4.36829688e-08,2.00475000e-01
-4.36429687e-08,2.00515625e-01
-4.36029687e-08,2.00489063e-01
-4.35629687e-08,2.00507812e-01
-4.35229687e-08,2.00493750e-01
-4.34829687e-08,2.00504688e-01
-4.34429687e-08,2.00496875e-01
-4.34029687e-08,2.00503125e-01
-4.33629687e-08,2.00498438e-01
-4.33229687e-08,2.00501563e-01
-4.32829687e-08,2.00500000e-01
-4.32429687e-08,2.00500000e-01
-4.32029687e-08,2.00500000e-01
-4.31629687e-08,2.00498438e-01
-4.31229687e-08,2.00501563e-01
-4.30829687e-08,2.00498438e-01
-4.30429687e-08,2.00503125e-01
-4.30029687e-08,2.00496875e-01
-4.29629687e-08,2.00503125e-01
-4.29229687e-08,2.00496875e-01
-4.28829688e-08,2.00504688e-01
-4.28429687e-08,2.00495313e-01
-4.28029687e-08,2.00504688e-01
-4.27629687e-08,2.00495313e-01
-4.27229687e-08,2.00506250e-01
-4.26829687e-08,2.00493750e-01
-4.26429687e-08,2.00507812e-01
-4.26029688e-08,2.00492188e-01
-4.25629687e-08,2.00509375e-01
-4.25229687e-08,2.00489063e-01
-4.24829687e-08,2.00512500e-01
-4.24429687e-08,2.00485938e-01
-4.24029687e-08,2.00517187e-01
-4.23629687e-08,2.00478125e-01
-4.23229688e-08,2.00532813e-01
-4.22829687e-08,2.00442188e-01
-4.22429687e-08,2.00710938e-01
-4.22029687e-08,2.00951563e-01
-4.21629687e-08,2.00871875e-01
-4.21229687e-08,2.00917188e-01
-4.20829687e-08,2.00887500e-01
-4.20429688e-08,2.00909375e-01
-4.20029687e-08,2.00892188e-01
-4.19629687e-08,2.00906250e-01
-4.19229687e-08,2.00895313e-01
-4.18829687e-08,2.00903125e-01
-4.18429687e-08,2.00898437e-01
-4.18029687e-08,2.00901563e-01
-4.17629688e-08,2.00900000e-01
-4.17229687e-08,2.00900000e-01
-4.16829687e-08,2.00901563e-01
-4.16429687e-08,2.00898437e-01
-4.16029687e-08,2.00903125e-01
-4.15629687e-08,2.00895313e-01
-4.15229687e-08,2.00904688e-01
-4.14829688e-08,2.00893750e-01
-4.14429687e-08,2.00907813e-01
-4.14029687e-08,2.00889062e-01
-4.13629687e-08,2.00914063e-01
-4.13229687e-08,2.00881250e-01
-4.12829687e-08,2.00929688e-01
-4.12429687e-08,2.00845313e-01
-4.12029687e-08,2.01107813e-01
-4.11629687e-08,2.01354688e-01
-4.11229687e-08,2.01270312e-01
-4.10829687e-08,2.01320313e-01
-4.10429687e-08,2.01284375e-01
-4.10029687e-08,2.01312500e-01
-4.09629688e-08,2.01290625e-01
-4.09229687e-08,2.01307813e-01
-4.08829687e-08,2.01293750e-01
-4.08429687e-08,2.01304687e-01
-4.08029687e-08,2.01295313e-01
-4.07629687e-08,2.01303125e-01
-4.07229687e-08,2.01298438e-01
-4.06829688e-08,2.01300000e-01
-4.06429687e-08,2.01301563e-01
-4.06029687e-08,2.01296875e-01
-4.05629687e-08,2.01304687e-01
-4.05229687e-08,2.01292187e-01
-4.04829687e-08,2.01314063e-01
-4.04429687e-08,2.01276563e-01
-4.04029688e-08,2.01348438e-01
-4.03629687e-08,2.01098438e-01
-4.03229687e-08,2.00839062e-01
-4.02829687e-08,2.00937500e-01
-4.02429687e-08,2.00871875e-01
-4.02029687e-08,2.00923437e-01
-4.01629687e-08,2.00879688e-01
-4.01229688e-08,2.00918750e-01
-4.00829687e-08,2.00881250e-01
-4.00429687e-08,2.00917188e-01
-4.00029687e-08,2.00881250e-01
-3.99629687e-08,2.00918750e-01
-3.99229687e-08,2.00878125e-01
-3.98829687e-08,2.00926563e-01
-3.98429688e-08,2.00865625e-01
-3.98029687e-08,2.00959375e-01
-3.97629687e-08,2.00689063e-01
-3.97229687e-08,2.00448438e-01
-3.96829687e-08,2.00528125e-01
-3.96429687e-08,2.00479688e-01
-3.96029687e-08,2.00515625e-01
-3.95629688e-08,2.00485938e-01
-3.95229687e-08,2.00512500e-01
-3.94829687e-08,2.00485938e-01
-3.94429687e-08,2.00514063e-01
-3.94029687e-08,2.00482812e-01
-3.93629687e-08,2.00521875e-01
-3.93229687e-08,2.00468750e-01
-3.92829688e-08,2.00554687e-01
-3.92429687e-08,2.00292187e-01
-3.92029687e-08,2.00045313e-01
-3.91629687e-08,2.00131250e-01
-3.91229687e-08,2.00078125e-01
-3.90829687e-08,2.00117188e-01
-3.90429688e-08,2.00085938e-01
-3.90029687e-08,2.00112500e-01
-3.89629687e-08,2.00089062e-01
-3.89229687e-08,2.00109375e-01
-3.88829687e-08,2.00092188e-01
-3.88429687e-08,2.00107813e-01
-3.88029687e-08,2.00092188e-01
-3.87629688e-08,2.00106250e-01
-3.87229687e-08,2.00093750e-01
-3.86829687e-08,2.00106250e-01
-3.86429687e-08,2.00093750e-01
-3.86029687e-08,2.00106250e-01
-3.85629687e-08,2.00093750e-01
-3.85229687e-08,2.00104688e-01
