trails/0bdfa5e45fec98341abdd20552c140b4/aes_ch1_20250507123145325.csv

Model,MSO66B
Label,
Waveform Type,ANALOG
Horizontal Units,s
Sample Interval,4.00000000e-11
Record Length,10000
Zero Index,1599.03906250
Vertical Units,A
ANALOG_Thumbnail,
yOffset,1.84500000e-01
yPosition,8.40000000e-01

Labels,
TIME,CH1
-6.39615625e-08,1.91273438e-01
-6.39215625e-08,1.91317188e-01
-6.38815625e-08,1.91289062e-01
-6.38415625e-08,1.91307813e-01
-6.38015625e-08,1.91293750e-01
-6.37615625e-08,1.91304688e-01
-6.37215625e-08,1.91296875e-01
-6.36815625e-08,1.91303125e-01
-6.36415625e-08,1.91298438e-01
-6.36015625e-08,1.91301563e-01
-6.35615625e-08,1.91300000e-01
-6.35215625e-08,1.91300000e-01
-6.34815625e-08,1.91300000e-01
-6.34415625e-08,1.91298438e-01
-6.34015625e-08,1.91301563e-01
-6.33615625e-08,1.91298438e-01
-6.33215625e-08,1.91301563e-01
-6.32815625e-08,1.91296875e-01
-6.32415625e-08,1.91303125e-01
-6.32015625e-08,1.91296875e-01
-6.31615625e-08,1.91303125e-01
-6.31215625e-08,1.91295313e-01
-6.30815625e-08,1.91304688e-01
-6.30415625e-08,1.91295313e-01
-6.30015625e-08,1.91304688e-01
-6.29615625e-08,1.91293750e-01
-6.29215625e-08,1.91306250e-01
-6.28815625e-08,1.91293750e-01
-6.28415625e-08,1.91307813e-01
-6.28015625e-08,1.91292188e-01
-6.27615625e-08,1.91307813e-01
-6.27215625e-08,1.91290625e-01
-6.26815625e-08,1.91309375e-01
-6.26415625e-08,1.91289062e-01
-6.26015625e-08,1.91312500e-01
-6.25615625e-08,1.91285938e-01
-6.25215625e-08,1.91317188e-01
-6.24815625e-08,1.91279688e-01
-6.24415625e-08,1.91325000e-01
-6.24015625e-08,1.91264062e-01
-6.23615625e-08,1.91360937e-01
-6.23215625e-08,1.91085937e-01
-6.22815625e-08,1.90853125e-01
-6.22415625e-08,1.90923438e-01
-6.22015625e-08,1.90887500e-01
-6.21615625e-08,1.90906250e-01
-6.21215625e-08,1.90896875e-01
-6.20815625e-08,1.90898438e-01
-6.20415625e-08,1.90904688e-01
-6.20015625e-08,1.90890625e-01
-6.19615625e-08,1.90915625e-01
-6.19215625e-08,1.90875000e-01
-6.18815625e-08,1.90951563e-01
-6.18415625e-08,1.90695313e-01
-6.18015625e-08,1.90442187e-01
-6.17615625e-08,1.90532813e-01
-6.17215625e-08,1.90476563e-01
-6.16815625e-08,1.90517188e-01
-6.16415625e-08,1.90485938e-01
-6.16015625e-08,1.90512500e-01
-6.15615625e-08,1.90489063e-01
-6.15215625e-08,1.90509375e-01
-6.14815625e-08,1.90492188e-01
-6.14415625e-08,1.90506250e-01
-6.14015625e-08,1.90493750e-01
-6.13615625e-08,1.90504688e-01
-6.13215625e-08,1.90495313e-01
-6.12815625e-08,1.90504688e-01
-6.12415625e-08,1.90496875e-01
-6.12015625e-08,1.90503125e-01
-6.11615625e-08,1.90496875e-01
-6.11215625e-08,1.90501562e-01
-6.10815625e-08,1.90498438e-01
-6.10415625e-08,1.90501562e-01
-6.10015625e-08,1.90500000e-01
-6.09615625e-08,1.90500000e-01
-6.09215625e-08,1.90500000e-01
-6.08815625e-08,1.90500000e-01
-6.08415625e-08,1.90501562e-01
-6.08015625e-08,1.90498438e-01
-6.07615625e-08,1.90503125e-01
-6.07215625e-08,1.90496875e-01
-6.06815625e-08,1.90504688e-01
-6.06415625e-08,1.90493750e-01
-6.06015625e-08,1.90507813e-01
-6.05615625e-08,1.90490625e-01
-6.05215625e-08,1.90512500e-01
-6.04815625e-08,1.90481250e-01
-6.04415625e-08,1.90528125e-01
-6.04015625e-08,1.90446875e-01
-6.03615625e-08,1.90706250e-01
-6.03215625e-08,1.90956250e-01
-6.02815625e-08,1.90867188e-01
-6.02415625e-08,1.90923438e-01
-6.02015625e-08,1.90882812e-01
-6.01615625e-08,1.90914063e-01
-6.01215625e-08,1.90887500e-01
-6.00815625e-08,1.90910938e-01
-6.00415625e-08,1.90890625e-01
-6.00015625e-08,1.90909375e-01
-5.99615625e-08,1.90892188e-01
-5.99215625e-08,1.90907812e-01
-5.98815625e-08,1.90893750e-01
-5.98415625e-08,1.90906250e-01
-5.98015625e-08,1.90893750e-01
-5.97615625e-08,1.90906250e-01
-5.97215625e-08,1.90895312e-01
-5.96815625e-08,1.90904688e-01
-5.96415625e-08,1.90895312e-01
-5.96015625e-08,1.90904688e-01
-5.95615625e-08,1.90895312e-01
-5.95215625e-08,1.90904688e-01
-5.94815625e-08,1.90896875e-01
-5.94415625e-08,1.90903125e-01
-5.94015625e-08,1.90896875e-01
-5.93615625e-08,1.90903125e-01
-5.93215625e-08,1.90896875e-01
-5.92815625e-08,1.90903125e-01
-5.92415625e-08,1.90896875e-01
-5.92015625e-08,1.90903125e-01
-5.91615625e-08,1.90896875e-01
-5.91215625e-08,1.90903125e-01
-5.90815625e-08,1.90896875e-01
-5.90415625e-08,1.90901563e-01
-5.90015625e-08,1.90898438e-01
-5.89615625e-08,1.90901563e-01
-5.89215625e-08,1.90898438e-01
-5.88815625e-08,1.90901563e-01
-5.88415625e-08,1.90898438e-01
-5.88015625e-08,1.90901563e-01
-5.87615625e-08,1.90898438e-01
-5.87215625e-08,1.90901563e-01
-5.86815625e-08,1.90898438e-01
-5.86415625e-08,1.90901563e-01
-5.86015625e-08,1.90898438e-01
-5.85615625e-08,1.90901563e-01
-5.85215625e-08,1.90898438e-01
-5.84815625e-08,1.90901563e-01
-5.84415625e-08,1.90898438e-01
-5.84015625e-08,1.90900000e-01
-5.83615625e-08,1.90900000e-01
-5.83215625e-08,1.90900000e-01
-5.82815625e-08,1.90900000e-01
-5.82415625e-08,1.90900000e-01
-5.82015625e-08,1.90900000e-01
-5.81615625e-08,1.90900000e-01
-5.81215625e-08,1.90900000e-01
-5.80815625e-08,1.90900000e-01
-5.80415625e-08,1.90900000e-01
-5.80015625e-08,1.90900000e-01
-5.79615625e-08,1.90900000e-01
-5.79215625e-08,1.90900000e-01
-5.78815625e-08,1.90900000e-01
-5.78415625e-08,1.90900000e-01
-5.78015625e-08,1.90901563e-01
-5.77615625e-08,1.90898438e-01
-5.77215625e-08,1.90901563e-01
-5.76815625e-08,1.90898438e-01
-5.76415625e-08,1.90901563e-01
-5.76015625e-08,1.90898438e-01
-5.75615625e-08,1.90901563e-01
-5.75215625e-08,1.90898438e-01
-5.74815625e-08,1.90903125e-01
-5.74415625e-08,1.90896875e-01
-5.74015625e-08,1.90903125e-01
-5.73615625e-08,1.90896875e-01
-5.73215625e-08,1.90904688e-01
-5.72815625e-08,1.90895312e-01
-5.72415625e-08,1.90906250e-01
-5.72015625e-08,1.90892188e-01
-5.71615625e-08,1.90907812e-01
-5.71215625e-08,1.90889063e-01
-5.70815625e-08,1.90914063e-01
-5.70415625e-08,1.90881250e-01
-5.70015625e-08,1.90928125e-01
-5.69615625e-08,1.90846875e-01
-5.69215625e-08,1.91106250e-01
-5.68815625e-08,1.91356250e-01
-5.68415625e-08,1.91267188e-01
-5.68015625e-08,1.91323437e-01
-5.67615625e-08,1.91281250e-01
-5.67215625e-08,1.91315625e-01
-5.66815625e-08,1.91285938e-01
-5.66415625e-08,1.91312500e-01
-5.66015625e-08,1.91287500e-01
-5.65615625e-08,1.91310938e-01
-5.65215625e-08,1.91289062e-01
-5.64815625e-08,1.91310938e-01
-5.64415625e-08,1.91287500e-01
-5.64015625e-08,1.91312500e-01
-5.63615625e-08,1.91285938e-01
-5.63215625e-08,1.91317188e-01
-5.62815625e-08,1.91278125e-01
-5.62415625e-08,1.91329688e-01
-5.62015625e-08,1.91245313e-01
-5.61615625e-08,1.91506250e-01
-5.61215625e-08,1.91756250e-01
-5.60815625e-08,1.91667188e-01
-5.60415625e-08,1.91725000e-01
-5.60015625e-08,1.91678125e-01
-5.59615625e-08,1.91721875e-01
-5.59215625e-08,1.91675000e-01
-5.58815625e-08,1.91732813e-01
-5.58415625e-08,1.91643750e-01
-5.58015625e-08,1.91907812e-01
-5.57615625e-08,1.92156250e-01
-5.57215625e-08,1.92065625e-01
-5.56815625e-08,1.92128125e-01
-5.56415625e-08,1.92071875e-01
-5.56015625e-08,1.92134375e-01
-5.55615625e-08,1.92042188e-01
-5.55215625e-08,1.92307813e-01
-5.54815625e-08,1.92556250e-01
-5.54415625e-08,1.92464063e-01
-5.54015625e-08,1.92529688e-01
-5.53615625e-08,1.92470313e-01
-5.53215625e-08,1.92535938e-01
-5.52815625e-08,1.92440625e-01
-5.52415625e-08,1.92710938e-01
-5.52015625e-08,1.92953125e-01
-5.51615625e-08,1.92870313e-01
-5.51215625e-08,1.92921875e-01
-5.50815625e-08,1.92881250e-01
-5.50415625e-08,1.92917188e-01
-5.50015625e-08,1.92882813e-01
-5.49615625e-08,1.92918750e-01
-5.49215625e-08,1.92876563e-01
-5.48815625e-08,1.92932812e-01
-5.48415625e-08,1.92843750e-01
-5.48015625e-08,1.93109375e-01
-5.47615625e-08,1.93354688e-01
-5.47215625e-08,1.93268750e-01
-5.46815625e-08,1.93321875e-01
-5.46415625e-08,1.93282813e-01
-5.46015625e-08,1.93314062e-01
-5.45615625e-08,1.93287500e-01
-5.45215625e-08,1.93312500e-01
-5.44815625e-08,1.93289062e-01
-5.44415625e-08,1.93310938e-01
-5.44015625e-08,1.93289062e-01
-5.43615625e-08,1.93310938e-01
-5.43215625e-08,1.93289062e-01
-5.42815625e-08,1.93310938e-01
-5.42415625e-08,1.93287500e-01
-5.42015625e-08,1.93312500e-01
-5.41615625e-08,1.93285938e-01
-5.41215625e-08,1.93315625e-01
-5.40815625e-08,1.93281250e-01
-5.40415625e-08,1.93323438e-01
-5.40015625e-08,1.93265625e-01
-5.39615625e-08,1.93359375e-01
-5.39215625e-08,1.93089063e-01
-5.38815625e-08,1.92850000e-01
-5.38415625e-08,1.92926563e-01
-5.38015625e-08,1.92882813e-01
-5.37615625e-08,1.92912500e-01
-5.37215625e-08,1.92890625e-01
-5.36815625e-08,1.92907812e-01
-5.36415625e-08,1.92893750e-01
-5.36015625e-08,1.92904688e-01
-5.35615625e-08,1.92896875e-01
-5.35215625e-08,1.92903125e-01
-5.34815625e-08,1.92896875e-01
-5.34415625e-08,1.92901563e-01
-5.34015625e-08,1.92898438e-01
-5.33615625e-08,1.92901563e-01
-5.33215625e-08,1.92898438e-01
-5.32815625e-08,1.92900000e-01
-5.32415625e-08,1.92900000e-01
-5.32015625e-08,1.92900000e-01
-5.31615625e-08,1.92900000e-01
-5.31215625e-08,1.92900000e-01
-5.30815625e-08,1.92901563e-01
-5.30415625e-08,1.92898438e-01
-5.30015625e-08,1.92901563e-01
-5.29615625e-08,1.92898438e-01
-5.29215625e-08,1.92901563e-01
-5.28815625e-08,1.92898438e-01
-5.28415625e-08,1.92901563e-01
-5.28015625e-08,1.92896875e-01
-5.27615625e-08,1.92903125e-01
-5.27215625e-08,1.92896875e-01
-5.26815625e-08,1.92903125e-01
-5.26415625e-08,1.92896875e-01
-5.26015625e-08,1.92903125e-01
-5.25615625e-08,1.92895312e-01
-5.25215625e-08,1.92904688e-01
-5.24815625e-08,1.92895312e-01
-5.24415625e-08,1.92904688e-01
-5.24015625e-08,1.92895312e-01
-5.23615625e-08,1.92906250e-01
-5.23215625e-08,1.92893750e-01
-5.22815625e-08,1.92906250e-01
-5.22415625e-08,1.92892188e-01
-5.22015625e-08,1.92907812e-01
-5.21615625e-08,1.92890625e-01
-5.21215625e-08,1.92910938e-01
-5.20815625e-08,1.92887500e-01
-5.20415625e-08,1.92914063e-01
-5.20015625e-08,1.92882813e-01
-5.19615625e-08,1.92923438e-01
-5.19215625e-08,1.92867188e-01
-5.18815625e-08,1.92957812e-01
-5.18415625e-08,1.92689063e-01
-5.18015625e-08,1.92450000e-01
-5.17615625e-08,1.92526562e-01
-5.17215625e-08,1.92482813e-01
-5.16815625e-08,1.92510938e-01
-5.16415625e-08,1.92492188e-01
-5.16015625e-08,1.92506250e-01
-5.15615625e-08,1.92496875e-01
-5.15215625e-08,1.92501563e-01
-5.14815625e-08,1.92500000e-01
-5.14415625e-08,1.92498438e-01
-5.14015625e-08,1.92503125e-01
-5.13615625e-08,1.92495313e-01
-5.13215625e-08,1.92507813e-01
-5.12815625e-08,1.92489063e-01
-5.12415625e-08,1.92515625e-01
-5.12015625e-08,1.92473438e-01
-5.11615625e-08,1.92551562e-01
-5.11215625e-08,1.92295313e-01
-5.10815625e-08,1.92042188e-01
-5.10415625e-08,1.92132812e-01
-5.10015625e-08,1.92076562e-01
-5.09615625e-08,1.92118750e-01
-5.09215625e-08,1.92084375e-01
-5.08815625e-08,1.92112500e-01
-5.08415625e-08,1.92089063e-01
-5.08015625e-08,1.92109375e-01
-5.07615625e-08,1.92090625e-01
-5.07215625e-08,1.92107813e-01
-5.06815625e-08,1.92092188e-01
-5.06415625e-08,1.92107813e-01
-5.06015625e-08,1.92093750e-01
-5.05615625e-08,1.92106250e-01
-5.05215625e-08,1.92093750e-01
-5.04815625e-08,1.92106250e-01
-5.04415625e-08,1.92095313e-01
-5.04015625e-08,1.92104688e-01
-5.03615625e-08,1.92095313e-01
-5.03215625e-08,1.92104688e-01
-5.02815625e-08,1.92095313e-01
-5.02415625e-08,1.92104688e-01
-5.02015625e-08,1.92095313e-01
-5.01615625e-08,1.92104688e-01
-5.01215625e-08,1.92095313e-01
-5.00815625e-08,1.92104688e-01
-5.00415625e-08,1.92095313e-01
-5.00015625e-08,1.92104688e-01
-4.99615625e-08,1.92095313e-01
-4.99215625e-08,1.92104688e-01
-4.98815625e-08,1.92095313e-01
-4.98415625e-08,1.92104688e-01
-4.98015625e-08,1.92095313e-01
-4.97615625e-08,1.92106250e-01
-4.97215625e-08,1.92092188e-01
-4.96815625e-08,1.92109375e-01
-4.96415625e-08,1.92089063e-01
-4.96015625e-08,1.92115625e-01
-4.95615625e-08,1.92075000e-01
-4.95215625e-08,1.92150000e-01
-4.94815625e-08,1.91898438e-01
-4.94415625e-08,1.91639063e-01
-4.94015625e-08,1.91739063e-01
-4.93615625e-08,1.91670312e-01
-4.93215625e-08,1.91726563e-01
-4.92815625e-08,1.91675000e-01
-4.92415625e-08,1.91726563e-01
-4.92015625e-08,1.91671875e-01
-4.91615625e-08,1.91732813e-01
-4.91215625e-08,1.91657812e-01
-4.90815625e-08,1.91767188e-01
-4.90415625e-08,1.91479687e-01
-4.90015625e-08,1.91257813e-01
-4.89615625e-08,1.91317188e-01
-4.89215625e-08,1.91293750e-01
-4.88815625e-08,1.91300000e-01
-4.88415625e-08,1.91304688e-01
-4.88015625e-08,1.91290625e-01
-4.87615625e-08,1.91317188e-01
-4.87215625e-08,1.91271875e-01
-4.86815625e-08,1.91353125e-01
-4.86415625e-08,1.91092188e-01
-4.86015625e-08,1.90846875e-01
-4.85615625e-08,1.90928125e-01
-4.85215625e-08,1.90882812e-01
-4.84815625e-08,1.90910938e-01
-4.84415625e-08,1.90893750e-01
-4.84015625e-08,1.90900000e-01
-4.83615625e-08,1.90906250e-01
-4.83215625e-08,1.90882812e-01
-4.82815625e-08,1.90942187e-01
-4.82415625e-08,1.90704687e-01
-4.82015625e-08,1.90434375e-01
-4.81615625e-08,1.90542188e-01
-4.81215625e-08,1.90467187e-01
-4.80815625e-08,1.90526562e-01
-4.80415625e-08,1.90476563e-01
-4.80015625e-08,1.90521875e-01
-4.79615625e-08,1.90478125e-01
-4.79215625e-08,1.90521875e-01
-4.78815625e-08,1.90478125e-01
-4.78415625e-08,1.90521875e-01
-4.78015625e-08,1.90475000e-01
-4.77615625e-08,1.90529688e-01
-4.77215625e-08,1.90462500e-01
-4.76815625e-08,1.90562500e-01
-4.76415625e-08,1.90284375e-01
-4.76015625e-08,1.90051562e-01
-4.75615625e-08,1.90125000e-01
-4.75215625e-08,1.90084375e-01
-4.74815625e-08,1.90110938e-01
-4.74415625e-08,1.90090625e-01
-4.74015625e-08,1.90107813e-01
-4.73615625e-08,1.90093750e-01
-4.73215625e-08,1.90106250e-01
-4.72815625e-08,1.90095313e-01
-4.72415625e-08,1.90106250e-01
-4.72015625e-08,1.90093750e-01
-4.71615625e-08,1.90106250e-01
-4.71215625e-08,1.90093750e-01
-4.70815625e-08,1.90107813e-01
-4.70415625e-08,1.90090625e-01
-4.70015625e-08,1.90112500e-01
-4.69615625e-08,1.90082813e-01
-4.69215625e-08,1.90126563e-01
-4.68815625e-08,1.90048438e-01
-4.68415625e-08,1.90304688e-01
-4.68015625e-08,1.90557813e-01
-4.67615625e-08,1.90465625e-01
-4.67215625e-08,1.90526562e-01
-4.66815625e-08,1.90478125e-01
-4.66415625e-08,1.90518750e-01
-4.66015625e-08,1.90482813e-01
-4.65615625e-08,1.90517188e-01
-4.65215625e-08,1.90481250e-01
-4.64815625e-08,1.90520313e-01
-4.64415625e-08,1.90475000e-01
-4.64015625e-08,1.90532813e-01
-4.63615625e-08,1.90442187e-01
-4.63215625e-08,1.90709375e-01
-4.62815625e-08,1.90954687e-01
-4.62415625e-08,1.90868750e-01
-4.62015625e-08,1.90923438e-01
-4.61615625e-08,1.90879688e-01
-4.61215625e-08,1.90920312e-01
-4.60815625e-08,1.90876563e-01
-4.60415625e-08,1.90931250e-01
-4.60015625e-08,1.90843750e-01
-4.59615625e-08,1.91107813e-01
-4.59215625e-08,1.91356250e-01
-4.58815625e-08,1.91265625e-01
-4.58415625e-08,1.91326563e-01
-4.58015625e-08,1.91276562e-01
-4.57615625e-08,1.91323437e-01
-4.57215625e-08,1.91273438e-01
-4.56815625e-08,1.91334375e-01
-4.56415625e-08,1.91242187e-01
-4.56015625e-08,1.91509375e-01
-4.55615625e-08,1.91754688e-01
-4.55215625e-08,1.91668750e-01
-4.54815625e-08,1.91723438e-01
-4.54415625e-08,1.91679688e-01
-4.54015625e-08,1.91718750e-01
-4.53615625e-08,1.91681250e-01
-4.53215625e-08,1.91720313e-01
-4.52815625e-08,1.91675000e-01
-4.52415625e-08,1.91734375e-01
-4.52015625e-08,1.91640625e-01
-4.51615625e-08,1.91910938e-01
-4.51215625e-08,1.92151563e-01
-4.50815625e-08,1.92071875e-01
-4.50415625e-08,1.92118750e-01
-4.50015625e-08,1.92085937e-01
-4.49615625e-08,1.92110937e-01
-4.49215625e-08,1.92092188e-01
-4.48815625e-08,1.92106250e-01
-4.48415625e-08,1.92093750e-01
-4.48015625e-08,1.92104688e-01
-4.47615625e-08,1.92095313e-01
-4.47215625e-08,1.92103125e-01
-4.46815625e-08,1.92096875e-01
-4.46415625e-08,1.92103125e-01
-4.46015625e-08,1.92098437e-01
-4.45615625e-08,1.92101563e-01
-4.45215625e-08,1.92098437e-01
-4.44815625e-08,1.92100000e-01
-4.44415625e-08,1.92100000e-01
-4.44015625e-08,1.92100000e-01
-4.43615625e-08,1.92101563e-01
-4.43215625e-08,1.92098437e-01
-4.42815625e-08,1.92103125e-01
-4.42415625e-08,1.92095313e-01
-4.42015625e-08,1.92104688e-01
-4.41615625e-08,1.92093750e-01
-4.41215625e-08,1.92109375e-01
-4.40815625e-08,1.92087500e-01
-4.40415625e-08,1.92117188e-01
-4.40015625e-08,1.92071875e-01
-4.39615625e-08,1.92153125e-01
-4.39215625e-08,1.91893750e-01
-4.38815625e-08,1.91643750e-01
-4.38415625e-08,1.91731250e-01
-4.38015625e-08,1.91678125e-01
-4.37615625e-08,1.91715625e-01
-4.37215625e-08,1.91687500e-01
-4.36815625e-08,1.91707813e-01
-4.36415625e-08,1.91695313e-01
-4.36015625e-08,1.91701563e-01
-4.35615625e-08,1.91704687e-01
-4.35215625e-08,1.91685938e-01
-4.34815625e-08,1.91739063e-01
-4.34415625e-08,1.91507813e-01
-4.34015625e-08,1.91229687e-01
-4.33615625e-08,1.91346875e-01
-4.33215625e-08,1.91262500e-01
-4.32815625e-08,1.91334375e-01
-4.32415625e-08,1.91267188e-01
-4.32015625e-08,1.91332813e-01
-4.31615625e-08,1.91265625e-01
-4.31215625e-08,1.91337500e-01
-4.30815625e-08,1.91253125e-01
-4.30415625e-08,1.91370313e-01
-4.30015625e-08,1.91076563e-01
-4.29615625e-08,1.90860937e-01
-4.29215625e-08,1.90915625e-01
-4.28815625e-08,1.90893750e-01
-4.28415625e-08,1.90900000e-01
-4.28015625e-08,1.90903125e-01
-4.27615625e-08,1.90895312e-01
-4.27215625e-08,1.90907812e-01
-4.26815625e-08,1.90890625e-01
-4.26415625e-08,1.90912500e-01
-4.26015625e-08,1.90884375e-01
-4.25615625e-08,1.90921875e-01
-4.25215625e-08,1.90868750e-01
-4.24815625e-08,1.90956250e-01
-4.24415625e-08,1.90690625e-01
-4.24015625e-08,1.90448438e-01
-4.23615625e-08,1.90528125e-01
-4.23215625e-08,1.90481250e-01
-4.22815625e-08,1.90514062e-01
-4.22415625e-08,1.90489063e-01
-4.22015625e-08,1.90507813e-01
-4.21615625e-08,1.90493750e-01
-4.21215625e-08,1.90506250e-01
-4.20815625e-08,1.90495313e-01
-4.20415625e-08,1.90504688e-01
-4.20015625e-08,1.90496875e-01
-4.19615625e-08,1.90503125e-01
-4.19215625e-08,1.90496875e-01
-4.18815625e-08,1.90501562e-01
-4.18415625e-08,1.90498438e-01
-4.18015625e-08,1.90501562e-01
-4.17615625e-08,1.90498438e-01
-4.17215625e-08,1.90501562e-01
-4.16815625e-08,1.90498438e-01
-4.16415625e-08,1.90501562e-01
-4.16015625e-08,1.90498438e-01
-4.15615625e-08,1.90500000e-01
-4.15215625e-08,1.90500000e-01
-4.14815625e-08,1.90500000e-01
-4.14415625e-08,1.90500000e-01
-4.14015625e-08,1.90500000e-01
-4.13615625e-08,1.90500000e-01
-4.13215625e-08,1.90500000e-01
-4.12815625e-08,1.90500000e-01
-4.12415625e-08,1.90500000e-01
-4.12015625e-08,1.90500000e-01
-4.11615625e-08,1.90500000e-01
-4.11215625e-08,1.90500000e-01
-4.10815625e-08,1.90500000e-01
-4.10415625e-08,1.90500000e-01
-4.10015625e-08,1.90500000e-01
-4.09615625e-08,1.90500000e-01
-4.09215625e-08,1.90500000e-01
-4.08815625e-08,1.90500000e-01
-4.08415625e-08,1.90500000e-01
-4.08015625e-08,1.90500000e-01
-4.07615625e-08,1.90500000e-01
-4.07215625e-08,1.90500000e-01
-4.06815625e-08,1.90500000e-01
-4.06415625e-08,1.90500000e-01
-4.06015625e-08,1.90500000e-01
-4.05615625e-08,1.90500000e-01
-4.05215625e-08,1.90500000e-01
-4.04815625e-08,1.90500000e-01
-4.04415625e-08,1.90500000e-01
-4.04015625e-08,1.90500000e-01
-4.03615625e-08,1.90500000e-01
-4.03215625e-08,1.90500000e-01
-4.02815625e-08,1.90500000e-01
-4.02415625e-08,1.90500000e-01
-4.02015625e-08,1.90500000e-01
-4.01615625e-08,1.90500000e-01
-4.01215625e-08,1.90500000e-01
-4.00815625e-08,1.90500000e-01
-4.00415625e-08,1.90500000e-01
-4.00015625e-08,1.90501562e-01
-3.99615625e-08,1.90498438e-01
-3.99215625e-08,1.90501562e-01
-3.98815625e-08,1.90498438e-01
-3.98415625e-08,1.90501562e-01
-3.98015625e-08,1.90498438e-01
-3.97615625e-08,1.90501562e-01
-3.97215625e-08,1.90498438e-01
-3.96815625e-08,1.90501562e-01
-3.96415625e-08,1.90498438e-01
-3.96015625e-08,1.90501562e-01
-3.95615625e-08,1.90498438e-01
-3.95215625e-08,1.90501562e-01
-3.94815625e-08,1.90498438e-01
-3.94415625e-08,1.90501562e-01
-3.94015625e-08,1.90498438e-01
-3.93615625e-08,1.90501562e-01
-3.93215625e-08,1.90498438e-01
-3.92815625e-08,1.90501562e-01
-3.92415625e-08,1.90498438e-01
-3.92015625e-08,1.90501562e-01
-3.91615625e-08,1.90498438e-01
-3.91215625e-08,1.90501562e-01
-3.90815625e-08,1.90498438e-01
-3.90415625e-08,1.90501562e-01
-3.90015625e-08,1.90498438e-01
-3.89615625e-08,1.90501562e-01
-3.89215625e-08,1.90498438e-01
-3.88815625e-08,1.90501562e-01
-3.88415625e-08,1.90498438e-01
-3.88015625e-08,1.90501562e-01
-3.87615625e-08,1.90498438e-01
-3.87215625e-08,1.90503125e-01
-3.86815625e-08,1.90496875e-01
-3.86415625e-08,1.90503125e-01
-3.86015625e-08,1.90496875e-01
-3.85615625e-08,1.90503125e-01
-3.85215625e-08,1.90495313e-01
