trails/0bdfa5e45fec98341abdd20552c140b4/aes_ch1_20250507120346269.csv

Model,MSO66B
Label,
Waveform Type,ANALOG
Horizontal Units,s
Sample Interval,4.00000000e-11
Record Length,10000
Zero Index,1599.10937500
Vertical Units,A
ANALOG_Thumbnail,
yOffset,1.84500000e-01
yPosition,8.40000000e-01

Labels,
TIME,CH1
-6.39643750e-08,1.92467187e-01
-6.39243750e-08,1.92557813e-01
-6.38843750e-08,1.92287500e-01
-6.38443750e-08,1.92050000e-01
-6.38043750e-08,1.92125000e-01
-6.37643750e-08,1.92085937e-01
-6.37243750e-08,1.92107813e-01
-6.36843750e-08,1.92096875e-01
-6.36443750e-08,1.92098437e-01
-6.36043750e-08,1.92106250e-01
-6.35643750e-08,1.92087500e-01
-6.35243750e-08,1.92123437e-01
-6.34843750e-08,1.92050000e-01
-6.34443750e-08,1.92303125e-01
-6.34043750e-08,1.92557813e-01
-6.33643750e-08,1.92467187e-01
-6.33243750e-08,1.92523438e-01
-6.32843750e-08,1.92482813e-01
-6.32443750e-08,1.92514062e-01
-6.32043750e-08,1.92489063e-01
-6.31643750e-08,1.92507813e-01
-6.31243750e-08,1.92495313e-01
-6.30843750e-08,1.92501563e-01
-6.30443750e-08,1.92501563e-01
-6.30043750e-08,1.92492188e-01
-6.29643750e-08,1.92517188e-01
-6.29243750e-08,1.92457812e-01
-6.28843750e-08,1.92695312e-01
-6.28443750e-08,1.92968750e-01
-6.28043750e-08,1.92854688e-01
-6.27643750e-08,1.92937500e-01
-6.27243750e-08,1.92862500e-01
-6.26843750e-08,1.92942188e-01
-6.26443750e-08,1.92835937e-01
-6.26043750e-08,1.93114063e-01
-6.25643750e-08,1.93351563e-01
-6.25243750e-08,1.93270313e-01
-6.24843750e-08,1.93325000e-01
-6.24443750e-08,1.93273438e-01
-6.24043750e-08,1.93334375e-01
-6.23643750e-08,1.93242187e-01
-6.23243750e-08,1.93510938e-01
-6.22843750e-08,1.93751563e-01
-6.22443750e-08,1.93673438e-01
-6.22043750e-08,1.93715625e-01
-6.21643750e-08,1.93692188e-01
-6.21243750e-08,1.93700000e-01
-6.20843750e-08,1.93710938e-01
-6.20443750e-08,1.93664063e-01
-6.20043750e-08,1.93890625e-01
-6.19643750e-08,1.94171875e-01
-6.19243750e-08,1.94051562e-01
-6.18843750e-08,1.94139063e-01
-6.18443750e-08,1.94065625e-01
-6.18043750e-08,1.94132813e-01
-6.17643750e-08,1.94067188e-01
-6.17243750e-08,1.94134375e-01
-6.16843750e-08,1.94062500e-01
-6.16443750e-08,1.94146875e-01
-6.16043750e-08,1.94029687e-01
-6.15643750e-08,1.94323438e-01
-6.15243750e-08,1.94540625e-01
-6.14843750e-08,1.94482813e-01
-6.14443750e-08,1.94507813e-01
-6.14043750e-08,1.94496875e-01
-6.13643750e-08,1.94500000e-01
-6.13243750e-08,1.94501563e-01
-6.12843750e-08,1.94496875e-01
-6.12443750e-08,1.94503125e-01
-6.12043750e-08,1.94495313e-01
-6.11643750e-08,1.94504687e-01
-6.11243750e-08,1.94495313e-01
-6.10843750e-08,1.94506250e-01
-6.10443750e-08,1.94493750e-01
-6.10043750e-08,1.94506250e-01
-6.09643750e-08,1.94492187e-01
-6.09243750e-08,1.94507813e-01
-6.08843750e-08,1.94492187e-01
-6.08443750e-08,1.94507813e-01
-6.08043750e-08,1.94490625e-01
-6.07643750e-08,1.94509375e-01
-6.07243750e-08,1.94489063e-01
-6.06843750e-08,1.94512500e-01
-6.06443750e-08,1.94485938e-01
-6.06043750e-08,1.94515625e-01
-6.05643750e-08,1.94481250e-01
-6.05243750e-08,1.94523438e-01
-6.04843750e-08,1.94467187e-01
-6.04443750e-08,1.94557813e-01
-6.04043750e-08,1.94289062e-01
-6.03643750e-08,1.94050000e-01
-6.03243750e-08,1.94126563e-01
-6.02843750e-08,1.94082813e-01
-6.02443750e-08,1.94112500e-01
-6.02043750e-08,1.94090625e-01
-6.01643750e-08,1.94106250e-01
-6.01243750e-08,1.94095313e-01
-6.00843750e-08,1.94104688e-01
-6.00443750e-08,1.94096875e-01
-6.00043750e-08,1.94101563e-01
-5.99643750e-08,1.94100000e-01
-5.99243750e-08,1.94100000e-01
-5.98843750e-08,1.94101563e-01
-5.98443750e-08,1.94096875e-01
-5.98043750e-08,1.94104688e-01
-5.97643750e-08,1.94092188e-01
-5.97243750e-08,1.94112500e-01
-5.96843750e-08,1.94078125e-01
-5.96443750e-08,1.94146875e-01
-5.96043750e-08,1.93901563e-01
-5.95643750e-08,1.93635938e-01
-5.95243750e-08,1.93742187e-01
-5.94843750e-08,1.93665625e-01
-5.94443750e-08,1.93731250e-01
-5.94043750e-08,1.93668750e-01
-5.93643750e-08,1.93734375e-01
-5.93243750e-08,1.93656250e-01
-5.92843750e-08,1.93767187e-01
-5.92443750e-08,1.93479687e-01
-5.92043750e-08,1.93257813e-01
-5.91643750e-08,1.93317188e-01
-5.91243750e-08,1.93293750e-01
-5.90843750e-08,1.93298438e-01
-5.90443750e-08,1.93307813e-01
-5.90043750e-08,1.93281250e-01
-5.89643750e-08,1.93345313e-01
-5.89243750e-08,1.93101563e-01
-5.88843750e-08,1.92835937e-01
-5.88443750e-08,1.92940625e-01
-5.88043750e-08,1.92867188e-01
-5.87643750e-08,1.92929688e-01
-5.87243750e-08,1.92870313e-01
-5.86843750e-08,1.92932812e-01
-5.86443750e-08,1.92859375e-01
-5.86043750e-08,1.92964063e-01
-5.85643750e-08,1.92684375e-01
-5.85243750e-08,1.92453125e-01
-5.84843750e-08,1.92523438e-01
-5.84443750e-08,1.92484375e-01
-5.84043750e-08,1.92510938e-01
-5.83643750e-08,1.92492188e-01
-5.83243750e-08,1.92506250e-01
-5.82843750e-08,1.92493750e-01
-5.82443750e-08,1.92504687e-01
-5.82043750e-08,1.92495313e-01
-5.81643750e-08,1.92504687e-01
-5.81243750e-08,1.92496875e-01
-5.80843750e-08,1.92503125e-01
-5.80443750e-08,1.92496875e-01
-5.80043750e-08,1.92503125e-01
-5.79643750e-08,1.92496875e-01
-5.79243750e-08,1.92503125e-01
-5.78843750e-08,1.92495313e-01
-5.78443750e-08,1.92504687e-01
-5.78043750e-08,1.92495313e-01
-5.77643750e-08,1.92504687e-01
-5.77243750e-08,1.92493750e-01
-5.76843750e-08,1.92506250e-01
-5.76443750e-08,1.92492188e-01
-5.76043750e-08,1.92507813e-01
-5.75643750e-08,1.92489063e-01
-5.75243750e-08,1.92514062e-01
-5.74843750e-08,1.92481250e-01
-5.74443750e-08,1.92528125e-01
-5.74043750e-08,1.92448438e-01
-5.73643750e-08,1.92704687e-01
-5.73243750e-08,1.92957812e-01
-5.72843750e-08,1.92865625e-01
-5.72443750e-08,1.92925000e-01
-5.72043750e-08,1.92879688e-01
-5.71643750e-08,1.92918750e-01
-5.71243750e-08,1.92882813e-01
-5.70843750e-08,1.92917188e-01
-5.70443750e-08,1.92881250e-01
-5.70043750e-08,1.92920312e-01
-5.69643750e-08,1.92875000e-01
-5.69243750e-08,1.92934375e-01
-5.68843750e-08,1.92842188e-01
-5.68443750e-08,1.93110937e-01
-5.68043750e-08,1.93351563e-01
-5.67643750e-08,1.93271875e-01
-5.67243750e-08,1.93320313e-01
-5.66843750e-08,1.93284375e-01
-5.66443750e-08,1.93312500e-01
-5.66043750e-08,1.93289062e-01
-5.65643750e-08,1.93309375e-01
-5.65243750e-08,1.93290625e-01
-5.64843750e-08,1.93309375e-01
-5.64443750e-08,1.93290625e-01
-5.64043750e-08,1.93309375e-01
-5.63643750e-08,1.93290625e-01
-5.63243750e-08,1.93309375e-01
-5.62843750e-08,1.93289062e-01
-5.62443750e-08,1.93312500e-01
-5.62043750e-08,1.93285938e-01
-5.61643750e-08,1.93317188e-01
-5.61243750e-08,1.93278125e-01
-5.60843750e-08,1.93331250e-01
-5.60443750e-08,1.93243750e-01
-5.60043750e-08,1.93509375e-01
-5.59643750e-08,1.93753125e-01
-5.59243750e-08,1.93671875e-01
-5.58843750e-08,1.93718750e-01
-5.58443750e-08,1.93685938e-01
-5.58043750e-08,1.93710938e-01
-5.57643750e-08,1.93690625e-01
-5.57243750e-08,1.93707813e-01
-5.56843750e-08,1.93693750e-01
-5.56443750e-08,1.93706250e-01
-5.56043750e-08,1.93695312e-01
-5.55643750e-08,1.93704688e-01
-5.55243750e-08,1.93696875e-01
-5.54843750e-08,1.93703125e-01
-5.54443750e-08,1.93696875e-01
-5.54043750e-08,1.93701563e-01
-5.53643750e-08,1.93698438e-01
-5.53243750e-08,1.93701563e-01
-5.52843750e-08,1.93700000e-01
-5.52443750e-08,1.93700000e-01
-5.52043750e-08,1.93701563e-01
-5.51643750e-08,1.93698438e-01
-5.51243750e-08,1.93703125e-01
-5.50843750e-08,1.93695312e-01
-5.50443750e-08,1.93706250e-01
-5.50043750e-08,1.93690625e-01
-5.49643750e-08,1.93714063e-01
-5.49243750e-08,1.93675000e-01
-5.48843750e-08,1.93748438e-01
-5.48443750e-08,1.93498438e-01
-5.48043750e-08,1.93239063e-01
-5.47643750e-08,1.93335937e-01
-5.47243750e-08,1.93273438e-01
-5.46843750e-08,1.93321875e-01
-5.46443750e-08,1.93279688e-01
-5.46043750e-08,1.93317188e-01
-5.45643750e-08,1.93282813e-01
-5.45243750e-08,1.93315625e-01
-5.44843750e-08,1.93284375e-01
-5.44443750e-08,1.93315625e-01
-5.44043750e-08,1.93284375e-01
-5.43643750e-08,1.93315625e-01
-5.43243750e-08,1.93284375e-01
-5.42843750e-08,1.93317188e-01
-5.42443750e-08,1.93281250e-01
-5.42043750e-08,1.93320313e-01
-5.41643750e-08,1.93276562e-01
-5.41243750e-08,1.93328125e-01
-5.40843750e-08,1.93260938e-01
-5.40443750e-08,1.93364063e-01
-5.40043750e-08,1.93082813e-01
-5.39643750e-08,1.92854688e-01
-5.39243750e-08,1.92921875e-01
-5.38843750e-08,1.92889063e-01
-5.38443750e-08,1.92906250e-01
-5.38043750e-08,1.92898438e-01
-5.37643750e-08,1.92898438e-01
-5.37243750e-08,1.92904688e-01
-5.36843750e-08,1.92890625e-01
-5.36443750e-08,1.92915625e-01
-5.36043750e-08,1.92875000e-01
-5.35643750e-08,1.92950000e-01
-5.35243750e-08,1.92696875e-01
-5.34843750e-08,1.92442188e-01
-5.34443750e-08,1.92534375e-01
-5.34043750e-08,1.92475000e-01
-5.33643750e-08,1.92520313e-01
-5.33243750e-08,1.92482813e-01
-5.32843750e-08,1.92514062e-01
-5.32443750e-08,1.92487500e-01
-5.32043750e-08,1.92512500e-01
-5.31643750e-08,1.92489063e-01
-5.31243750e-08,1.92510938e-01
-5.30843750e-08,1.92490625e-01
-5.30443750e-08,1.92509375e-01
-5.30043750e-08,1.92490625e-01
-5.29643750e-08,1.92509375e-01
-5.29243750e-08,1.92490625e-01
-5.28843750e-08,1.92509375e-01
-5.28443750e-08,1.92489063e-01
-5.28043750e-08,1.92510938e-01
-5.27643750e-08,1.92489063e-01
-5.27243750e-08,1.92512500e-01
-5.26843750e-08,1.92485938e-01
-5.26443750e-08,1.92517188e-01
-5.26043750e-08,1.92478125e-01
-5.25643750e-08,1.92531250e-01
-5.25243750e-08,1.92445313e-01
-5.24843750e-08,1.92707813e-01
-5.24443750e-08,1.92956250e-01
-5.24043750e-08,1.92865625e-01
-5.23643750e-08,1.92926563e-01
-5.23243750e-08,1.92873438e-01
-5.22843750e-08,1.92932812e-01
-5.22443750e-08,1.92845313e-01
-5.22043750e-08,1.93104688e-01
-5.21643750e-08,1.93360937e-01
-5.21243750e-08,1.93260938e-01
-5.20843750e-08,1.93334375e-01
-5.20443750e-08,1.93264063e-01
-5.20043750e-08,1.93343750e-01
-5.19643750e-08,1.93232813e-01
-5.19243750e-08,1.93520313e-01
-5.18843750e-08,1.93740625e-01
-5.18443750e-08,1.93684375e-01
-5.18043750e-08,1.93701563e-01
-5.17643750e-08,1.93710938e-01
-5.17243750e-08,1.93660938e-01
-5.16843750e-08,1.93892188e-01
-5.16443750e-08,1.94170312e-01
-5.16043750e-08,1.94053125e-01
-5.15643750e-08,1.94140625e-01
-5.15243750e-08,1.94059375e-01
-5.14843750e-08,1.94146875e-01
-5.14443750e-08,1.94031250e-01
-5.14043750e-08,1.94320313e-01
-5.13643750e-08,1.94543750e-01
-5.13243750e-08,1.94478125e-01
-5.12843750e-08,1.94512500e-01
-5.12443750e-08,1.94492187e-01
-5.12043750e-08,1.94506250e-01
-5.11643750e-08,1.94495313e-01
-5.11243750e-08,1.94503125e-01
-5.10843750e-08,1.94496875e-01
-5.10443750e-08,1.94503125e-01
-5.10043750e-08,1.94496875e-01
-5.09643750e-08,1.94501563e-01
-5.09243750e-08,1.94498438e-01
-5.08843750e-08,1.94501563e-01
-5.08443750e-08,1.94498438e-01
-5.08043750e-08,1.94501563e-01
-5.07643750e-08,1.94498438e-01
-5.07243750e-08,1.94501563e-01
-5.06843750e-08,1.94496875e-01
-5.06443750e-08,1.94503125e-01
-5.06043750e-08,1.94496875e-01
-5.05643750e-08,1.94503125e-01
-5.05243750e-08,1.94496875e-01
-5.04843750e-08,1.94504687e-01
-5.04443750e-08,1.94495313e-01
-5.04043750e-08,1.94506250e-01
-5.03643750e-08,1.94492187e-01
-5.03243750e-08,1.94509375e-01
-5.02843750e-08,1.94487500e-01
-5.02443750e-08,1.94517188e-01
-5.02043750e-08,1.94473438e-01
-5.01643750e-08,1.94551562e-01
-5.01243750e-08,1.94296875e-01
-5.00843750e-08,1.94040625e-01
-5.00443750e-08,1.94135938e-01
-5.00043750e-08,1.94071875e-01
-4.99643750e-08,1.94123437e-01
-4.99243750e-08,1.94078125e-01
-4.98843750e-08,1.94121875e-01
-4.98443750e-08,1.94076562e-01
-4.98043750e-08,1.94126563e-01
-4.97643750e-08,1.94064062e-01
-4.97243750e-08,1.94159375e-01
-4.96843750e-08,1.93887500e-01
-4.96443750e-08,1.93650000e-01
-4.96043750e-08,1.93728125e-01
-4.95643750e-08,1.93681250e-01
-4.95243750e-08,1.93714063e-01
-4.94843750e-08,1.93687500e-01
-4.94443750e-08,1.93710938e-01
-4.94043750e-08,1.93690625e-01
-4.93643750e-08,1.93709375e-01
-4.93243750e-08,1.93690625e-01
-4.92843750e-08,1.93709375e-01
-4.92443750e-08,1.93690625e-01
-4.92043750e-08,1.93710938e-01
-4.91643750e-08,1.93689063e-01
-4.91243750e-08,1.93714063e-01
-4.90843750e-08,1.93684375e-01
-4.90443750e-08,1.93721875e-01
-4.90043750e-08,1.93668750e-01
-4.89643750e-08,1.93756250e-01
-4.89243750e-08,1.93492187e-01
-4.88843750e-08,1.93246875e-01
-4.88443750e-08,1.93329688e-01
-4.88043750e-08,1.93279688e-01
-4.87643750e-08,1.93315625e-01
-4.87243750e-08,1.93287500e-01
-4.86843750e-08,1.93310938e-01
-4.86443750e-08,1.93290625e-01
-4.86043750e-08,1.93307813e-01
-4.85643750e-08,1.93292188e-01
-4.85243750e-08,1.93306250e-01
-4.84843750e-08,1.93293750e-01
-4.84443750e-08,1.93306250e-01
-4.84043750e-08,1.93295313e-01
-4.83643750e-08,1.93304688e-01
-4.83243750e-08,1.93295313e-01
-4.82843750e-08,1.93303125e-01
-4.82443750e-08,1.93296875e-01
-4.82043750e-08,1.93303125e-01
-4.81643750e-08,1.93296875e-01
-4.81243750e-08,1.93301562e-01
-4.80843750e-08,1.93298438e-01
-4.80443750e-08,1.93301562e-01
-4.80043750e-08,1.93300000e-01
-4.79643750e-08,1.93300000e-01
-4.79243750e-08,1.93301562e-01
-4.78843750e-08,1.93296875e-01
-4.78443750e-08,1.93304688e-01
-4.78043750e-08,1.93292188e-01
-4.77643750e-08,1.93312500e-01
-4.77243750e-08,1.93278125e-01
-4.76843750e-08,1.93346875e-01
-4.76443750e-08,1.93101563e-01
-4.76043750e-08,1.92835937e-01
-4.75643750e-08,1.92940625e-01
-4.75243750e-08,1.92868750e-01
-4.74843750e-08,1.92928125e-01
-4.74443750e-08,1.92875000e-01
-4.74043750e-08,1.92925000e-01
-4.73643750e-08,1.92875000e-01
-4.73243750e-08,1.92925000e-01
-4.72843750e-08,1.92871875e-01
-4.72443750e-08,1.92932812e-01
-4.72043750e-08,1.92859375e-01
-4.71643750e-08,1.92965625e-01
-4.71243750e-08,1.92681250e-01
-4.70843750e-08,1.92456250e-01
-4.70443750e-08,1.92520313e-01
-4.70043750e-08,1.92489063e-01
-4.69643750e-08,1.92506250e-01
-4.69243750e-08,1.92496875e-01
-4.68843750e-08,1.92501563e-01
-4.68443750e-08,1.92500000e-01
-4.68043750e-08,1.92498438e-01
-4.67643750e-08,1.92503125e-01
-4.67243750e-08,1.92496875e-01
-4.66843750e-08,1.92504687e-01
-4.66443750e-08,1.92493750e-01
-4.66043750e-08,1.92506250e-01
-4.65643750e-08,1.92492188e-01
-4.65243750e-08,1.92507813e-01
-4.64843750e-08,1.92490625e-01
-4.64443750e-08,1.92510938e-01
-4.64043750e-08,1.92485938e-01
-4.63643750e-08,1.92517188e-01
-4.63243750e-08,1.92478125e-01
-4.62843750e-08,1.92531250e-01
-4.62443750e-08,1.92443750e-01
-4.62043750e-08,1.92709375e-01
-4.61643750e-08,1.92953125e-01
-4.61243750e-08,1.92868750e-01
-4.60843750e-08,1.92921875e-01
-4.60443750e-08,1.92881250e-01
-4.60043750e-08,1.92917188e-01
-4.59643750e-08,1.92879688e-01
-4.59243750e-08,1.92926563e-01
-4.58843750e-08,1.92850000e-01
-4.58443750e-08,1.93100000e-01
-4.58043750e-08,1.93364063e-01
-4.57643750e-08,1.93256250e-01
-4.57243750e-08,1.93337500e-01
-4.56843750e-08,1.93260938e-01
-4.56443750e-08,1.93346875e-01
-4.56043750e-08,1.93228125e-01
-4.55643750e-08,1.93523438e-01
-4.55243750e-08,1.93737500e-01
-4.54843750e-08,1.93687500e-01
-4.54443750e-08,1.93701563e-01
-4.54043750e-08,1.93706250e-01
-4.53643750e-08,1.93685938e-01
-4.53243750e-08,1.93726563e-01
-4.52843750e-08,1.93648437e-01
-4.52443750e-08,1.93906250e-01
-4.52043750e-08,1.94154688e-01
-4.51643750e-08,1.94070313e-01
-4.51243750e-08,1.94120313e-01
-4.50843750e-08,1.94085937e-01
-4.50443750e-08,1.94109375e-01
-4.50043750e-08,1.94093750e-01
-4.49643750e-08,1.94104688e-01
-4.49243750e-08,1.94098437e-01
-4.48843750e-08,1.94100000e-01
-4.48443750e-08,1.94103125e-01
-4.48043750e-08,1.94093750e-01
-4.47643750e-08,1.94110937e-01
-4.47243750e-08,1.94084375e-01
-4.46843750e-08,1.94126563e-01
-4.46443750e-08,1.94046875e-01
-4.46043750e-08,1.94306250e-01
-4.45643750e-08,1.94554688e-01
-4.45243750e-08,1.94471875e-01
-4.44843750e-08,1.94517188e-01
-4.44443750e-08,1.94489063e-01
-4.44043750e-08,1.94504687e-01
-4.43643750e-08,1.94503125e-01
-4.43243750e-08,1.94485938e-01
-4.42843750e-08,1.94540625e-01
-4.42443750e-08,1.94304688e-01
-4.42043750e-08,1.94032813e-01
-4.41643750e-08,1.94142188e-01
-4.41243750e-08,1.94067188e-01
-4.40843750e-08,1.94126563e-01
-4.40443750e-08,1.94076562e-01
-4.40043750e-08,1.94120313e-01
-4.39643750e-08,1.94081250e-01
-4.39243750e-08,1.94117188e-01
-4.38843750e-08,1.94084375e-01
-4.38443750e-08,1.94115625e-01
-4.38043750e-08,1.94085937e-01
-4.37643750e-08,1.94112500e-01
-4.37243750e-08,1.94087500e-01
-4.36843750e-08,1.94110937e-01
-4.36443750e-08,1.94089063e-01
-4.36043750e-08,1.94109375e-01
-4.35643750e-08,1.94090625e-01
-4.35243750e-08,1.94107813e-01
-4.34843750e-08,1.94092188e-01
-4.34443750e-08,1.94106250e-01
-4.34043750e-08,1.94095313e-01
-4.33643750e-08,1.94103125e-01
-4.33243750e-08,1.94100000e-01
-4.32843750e-08,1.94093750e-01
-4.32443750e-08,1.94115625e-01
-4.32043750e-08,1.94059375e-01
-4.31643750e-08,1.94293750e-01
-4.31243750e-08,1.94568750e-01
-4.30843750e-08,1.94454688e-01
-4.30443750e-08,1.94535938e-01
-4.30043750e-08,1.94468750e-01
-4.29643750e-08,1.94529687e-01
-4.29243750e-08,1.94471875e-01
-4.28843750e-08,1.94526562e-01
-4.28443750e-08,1.94473438e-01
-4.28043750e-08,1.94526562e-01
-4.27643750e-08,1.94473438e-01
-4.27243750e-08,1.94526562e-01
-4.26843750e-08,1.94471875e-01
-4.26443750e-08,1.94529687e-01
-4.26043750e-08,1.94467187e-01
-4.25643750e-08,1.94537500e-01
-4.25243750e-08,1.94453125e-01
-4.24843750e-08,1.94571875e-01
-4.24443750e-08,1.94275000e-01
-4.24043750e-08,1.94062500e-01
-4.23643750e-08,1.94112500e-01
-4.23243750e-08,1.94096875e-01
-4.22843750e-08,1.94098437e-01
-4.22443750e-08,1.94104688e-01
-4.22043750e-08,1.94092188e-01
-4.21643750e-08,1.94109375e-01
-4.21243750e-08,1.94089063e-01
-4.20843750e-08,1.94112500e-01
-4.20443750e-08,1.94085937e-01
-4.20043750e-08,1.94115625e-01
-4.19643750e-08,1.94081250e-01
-4.19243750e-08,1.94120313e-01
-4.18843750e-08,1.94075000e-01
-4.18443750e-08,1.94129688e-01
-4.18043750e-08,1.94059375e-01
-4.17643750e-08,1.94165625e-01
-4.17243750e-08,1.93881250e-01
-4.16843750e-08,1.93657812e-01
-4.16443750e-08,1.93717187e-01
-4.16043750e-08,1.93692188e-01
-4.15643750e-08,1.93703125e-01
-4.15243750e-08,1.93701563e-01
-4.14843750e-08,1.93695312e-01
-4.14443750e-08,1.93706250e-01
-4.14043750e-08,1.93690625e-01
-4.13643750e-08,1.93710938e-01
-4.13243750e-08,1.93687500e-01
-4.12843750e-08,1.93715625e-01
-4.12443750e-08,1.93681250e-01
-4.12043750e-08,1.93721875e-01
-4.11643750e-08,1.93671875e-01
-4.11243750e-08,1.93739063e-01
-4.10843750e-08,1.93634375e-01
-4.10443750e-08,1.93918750e-01
-4.10043750e-08,1.94142188e-01
-4.09643750e-08,1.94082813e-01
-4.09243750e-08,1.94106250e-01
-4.08843750e-08,1.94101563e-01
-4.08443750e-08,1.94092188e-01
-4.08043750e-08,1.94112500e-01
-4.07643750e-08,1.94079688e-01
-4.07243750e-08,1.94131250e-01
-4.06843750e-08,1.94040625e-01
-4.06443750e-08,1.94314062e-01
-4.06043750e-08,1.94546875e-01
-4.05643750e-08,1.94479687e-01
-4.05243750e-08,1.94507813e-01
-4.04843750e-08,1.94500000e-01
-4.04443750e-08,1.94490625e-01
-4.04043750e-08,1.94521875e-01
-4.03643750e-08,1.94451563e-01
-4.03243750e-08,1.94704688e-01
-4.02843750e-08,1.94956250e-01
-4.02443750e-08,1.94868750e-01
-4.02043750e-08,1.94918750e-01
-4.01643750e-08,1.94887500e-01
-4.01243750e-08,1.94906250e-01
-4.00843750e-08,1.94898438e-01
-4.00443750e-08,1.94893750e-01
-4.00043750e-08,1.94917188e-01
-3.99643750e-08,1.94856250e-01
-3.99243750e-08,1.95096875e-01
-3.98843750e-08,1.95364063e-01
-3.98443750e-08,1.95260938e-01
-3.98043750e-08,1.95329688e-01
-3.97643750e-08,1.95276563e-01
-3.97243750e-08,1.95320313e-01
-3.96843750e-08,1.95282813e-01
-3.96443750e-08,1.95315625e-01
-3.96043750e-08,1.95285938e-01
-3.95643750e-08,1.95312500e-01
-3.95243750e-08,1.95287500e-01
-3.94843750e-08,1.95310938e-01
-3.94443750e-08,1.95290625e-01
-3.94043750e-08,1.95309375e-01
-3.93643750e-08,1.95290625e-01
-3.93243750e-08,1.95307813e-01
-3.92843750e-08,1.95292188e-01
-3.92443750e-08,1.95307813e-01
-3.92043750e-08,1.95293750e-01
-3.91643750e-08,1.95306250e-01
-3.91243750e-08,1.95293750e-01
-3.90843750e-08,1.95304688e-01
-3.90443750e-08,1.95295313e-01
-3.90043750e-08,1.95304688e-01
-3.89643750e-08,1.95295313e-01
-3.89243750e-08,1.95304688e-01
-3.88843750e-08,1.95296875e-01
-3.88443750e-08,1.95303125e-01
-3.88043750e-08,1.95296875e-01
-3.87643750e-08,1.95303125e-01
-3.87243750e-08,1.95298438e-01
-3.86843750e-08,1.95301562e-01
-3.86443750e-08,1.95298438e-01
-3.86043750e-08,1.95300000e-01
-3.85643750e-08,1.95300000e-01
-3.85243750e-08,1.95298438e-01
