trails/0bdfa5e45fec98341abdd20552c140b4/aes_ch1_20250507114555348.csv

Model,MSO66B
Label,
Waveform Type,ANALOG
Horizontal Units,s
Sample Interval,4.00000000e-11
Record Length,10000
Zero Index,1599.10937500
Vertical Units,A
ANALOG_Thumbnail,
yOffset,1.84500000e-01
yPosition,8.40000000e-01

Labels,
TIME,CH1
-6.39643750e-08,1.85735938e-01
-6.39243750e-08,1.85639063e-01
-6.38843750e-08,1.85914063e-01
-6.38443750e-08,1.86148438e-01
-6.38043750e-08,1.86075000e-01
-6.37643750e-08,1.86115625e-01
-6.37243750e-08,1.86089063e-01
-6.36843750e-08,1.86107812e-01
-6.36443750e-08,1.86093750e-01
-6.36043750e-08,1.86104688e-01
-6.35643750e-08,1.86095312e-01
-6.35243750e-08,1.86103125e-01
-6.34843750e-08,1.86096875e-01
-6.34443750e-08,1.86101563e-01
-6.34043750e-08,1.86098438e-01
-6.33643750e-08,1.86101563e-01
-6.33243750e-08,1.86098438e-01
-6.32843750e-08,1.86101563e-01
-6.32443750e-08,1.86100000e-01
-6.32043750e-08,1.86100000e-01
-6.31643750e-08,1.86100000e-01
-6.31243750e-08,1.86100000e-01
-6.30843750e-08,1.86100000e-01
-6.30443750e-08,1.86100000e-01
-6.30043750e-08,1.86100000e-01
-6.29643750e-08,1.86100000e-01
-6.29243750e-08,1.86100000e-01
-6.28843750e-08,1.86100000e-01
-6.28443750e-08,1.86100000e-01
-6.28043750e-08,1.86100000e-01
-6.27643750e-08,1.86100000e-01
-6.27243750e-08,1.86100000e-01
-6.26843750e-08,1.86100000e-01
-6.26443750e-08,1.86100000e-01
-6.26043750e-08,1.86100000e-01
-6.25643750e-08,1.86100000e-01
-6.25243750e-08,1.86100000e-01
-6.24843750e-08,1.86100000e-01
-6.24443750e-08,1.86101563e-01
-6.24043750e-08,1.86098438e-01
-6.23643750e-08,1.86101563e-01
-6.23243750e-08,1.86098438e-01
-6.22843750e-08,1.86101563e-01
-6.22443750e-08,1.86098438e-01
-6.22043750e-08,1.86101563e-01
-6.21643750e-08,1.86098438e-01
-6.21243750e-08,1.86101563e-01
-6.20843750e-08,1.86098438e-01
-6.20443750e-08,1.86101563e-01
-6.20043750e-08,1.86098438e-01
-6.19643750e-08,1.86101563e-01
-6.19243750e-08,1.86098438e-01
-6.18843750e-08,1.86101563e-01
-6.18443750e-08,1.86098438e-01
-6.18043750e-08,1.86101563e-01
-6.17643750e-08,1.86098438e-01
-6.17243750e-08,1.86101563e-01
-6.16843750e-08,1.86098438e-01
-6.16443750e-08,1.86101563e-01
-6.16043750e-08,1.86098438e-01
-6.15643750e-08,1.86101563e-01
-6.15243750e-08,1.86098438e-01
-6.14843750e-08,1.86101563e-01
-6.14443750e-08,1.86096875e-01
-6.14043750e-08,1.86103125e-01
-6.13643750e-08,1.86096875e-01
-6.13243750e-08,1.86103125e-01
-6.12843750e-08,1.86096875e-01
-6.12443750e-08,1.86103125e-01
-6.12043750e-08,1.86096875e-01
-6.11643750e-08,1.86104688e-01
-6.11243750e-08,1.86095312e-01
-6.10843750e-08,1.86104688e-01
-6.10443750e-08,1.86093750e-01
-6.10043750e-08,1.86106250e-01
-6.09643750e-08,1.86092188e-01
-6.09243750e-08,1.86109375e-01
-6.08843750e-08,1.86089063e-01
-6.08443750e-08,1.86114063e-01
-6.08043750e-08,1.86081250e-01
-6.07643750e-08,1.86129688e-01
-6.07243750e-08,1.86045313e-01
-6.06843750e-08,1.86307813e-01
-6.06443750e-08,1.86554688e-01
-6.06043750e-08,1.86468750e-01
-6.05643750e-08,1.86521875e-01
-6.05243750e-08,1.86482813e-01
-6.04843750e-08,1.86514062e-01
-6.04443750e-08,1.86487500e-01
-6.04043750e-08,1.86510938e-01
-6.03643750e-08,1.86490625e-01
-6.03243750e-08,1.86509375e-01
-6.02843750e-08,1.86492188e-01
-6.02443750e-08,1.86507813e-01
-6.02043750e-08,1.86492188e-01
-6.01643750e-08,1.86506250e-01
-6.01243750e-08,1.86493750e-01
-6.00843750e-08,1.86506250e-01
-6.00443750e-08,1.86493750e-01
-6.00043750e-08,1.86506250e-01
-5.99643750e-08,1.86493750e-01
-5.99243750e-08,1.86506250e-01
-5.98843750e-08,1.86493750e-01
-5.98443750e-08,1.86506250e-01
-5.98043750e-08,1.86493750e-01
-5.97643750e-08,1.86506250e-01
-5.97243750e-08,1.86493750e-01
-5.96843750e-08,1.86506250e-01
-5.96443750e-08,1.86493750e-01
-5.96043750e-08,1.86506250e-01
-5.95643750e-08,1.86493750e-01
-5.95243750e-08,1.86506250e-01
-5.94843750e-08,1.86493750e-01
-5.94443750e-08,1.86506250e-01
-5.94043750e-08,1.86493750e-01
-5.93643750e-08,1.86506250e-01
-5.93243750e-08,1.86492188e-01
-5.92843750e-08,1.86507813e-01
-5.92443750e-08,1.86492188e-01
-5.92043750e-08,1.86509375e-01
-5.91643750e-08,1.86490625e-01
-5.91243750e-08,1.86510938e-01
-5.90843750e-08,1.86489062e-01
-5.90443750e-08,1.86512500e-01
-5.90043750e-08,1.86484375e-01
-5.89643750e-08,1.86518750e-01
-5.89243750e-08,1.86476562e-01
-5.88843750e-08,1.86532813e-01
-5.88443750e-08,1.86442187e-01
-5.88043750e-08,1.86710938e-01
-5.87643750e-08,1.86950000e-01
-5.87243750e-08,1.86873438e-01
-5.86843750e-08,1.86917187e-01
-5.86443750e-08,1.86887500e-01
-5.86043750e-08,1.86907812e-01
-5.85643750e-08,1.86893750e-01
-5.85243750e-08,1.86904687e-01
-5.84843750e-08,1.86898438e-01
-5.84443750e-08,1.86900000e-01
-5.84043750e-08,1.86901563e-01
-5.83643750e-08,1.86895313e-01
-5.83243750e-08,1.86907812e-01
-5.82843750e-08,1.86887500e-01
-5.82443750e-08,1.86921875e-01
-5.82043750e-08,1.86853125e-01
-5.81643750e-08,1.87100000e-01
-5.81243750e-08,1.87362500e-01
-5.80843750e-08,1.87260938e-01
-5.80443750e-08,1.87329688e-01
-5.80043750e-08,1.87273438e-01
-5.79643750e-08,1.87323437e-01
-5.79243750e-08,1.87278125e-01
-5.78843750e-08,1.87321875e-01
-5.78443750e-08,1.87276563e-01
-5.78043750e-08,1.87326563e-01
-5.77643750e-08,1.87270313e-01
-5.77243750e-08,1.87339063e-01
-5.76843750e-08,1.87235938e-01
-5.76443750e-08,1.87517188e-01
-5.76043750e-08,1.87745313e-01
-5.75643750e-08,1.87678125e-01
-5.75243750e-08,1.87712500e-01
-5.74843750e-08,1.87692187e-01
-5.74443750e-08,1.87704687e-01
-5.74043750e-08,1.87696875e-01
-5.73643750e-08,1.87700000e-01
-5.73243750e-08,1.87700000e-01
-5.72843750e-08,1.87698438e-01
-5.72443750e-08,1.87703125e-01
-5.72043750e-08,1.87695313e-01
-5.71643750e-08,1.87706250e-01
-5.71243750e-08,1.87692187e-01
-5.70843750e-08,1.87709375e-01
-5.70443750e-08,1.87687500e-01
-5.70043750e-08,1.87717187e-01
-5.69643750e-08,1.87678125e-01
-5.69243750e-08,1.87732813e-01
-5.68843750e-08,1.87640625e-01
-5.68443750e-08,1.87914063e-01
-5.68043750e-08,1.88145312e-01
-5.67643750e-08,1.88084375e-01
-5.67243750e-08,1.88096875e-01
-5.66843750e-08,1.88132812e-01
-5.66443750e-08,1.87910938e-01
-5.66043750e-08,1.87628125e-01
-5.65643750e-08,1.87746875e-01
-5.65243750e-08,1.87664063e-01
-5.64843750e-08,1.87731250e-01
-5.64443750e-08,1.87671875e-01
-5.64043750e-08,1.87725000e-01
-5.63643750e-08,1.87676563e-01
-5.63243750e-08,1.87721875e-01
-5.62843750e-08,1.87678125e-01
-5.62443750e-08,1.87721875e-01
-5.62043750e-08,1.87678125e-01
-5.61643750e-08,1.87721875e-01
-5.61243750e-08,1.87678125e-01
-5.60843750e-08,1.87723438e-01
-5.60443750e-08,1.87675000e-01
-5.60043750e-08,1.87726562e-01
-5.59643750e-08,1.87670313e-01
-5.59243750e-08,1.87734375e-01
-5.58843750e-08,1.87656250e-01
-5.58443750e-08,1.87768750e-01
-5.58043750e-08,1.87478125e-01
-5.57643750e-08,1.87260938e-01
-5.57243750e-08,1.87315625e-01
-5.56843750e-08,1.87293750e-01
-5.56443750e-08,1.87300000e-01
-5.56043750e-08,1.87303125e-01
-5.55643750e-08,1.87293750e-01
-5.55243750e-08,1.87309375e-01
-5.54843750e-08,1.87287500e-01
-5.54443750e-08,1.87315625e-01
-5.54043750e-08,1.87281250e-01
-5.53643750e-08,1.87325000e-01
-5.53243750e-08,1.87264062e-01
-5.52843750e-08,1.87360938e-01
-5.52443750e-08,1.87084375e-01
-5.52043750e-08,1.86853125e-01
-5.51643750e-08,1.86921875e-01
-5.51243750e-08,1.86889063e-01
-5.50843750e-08,1.86904687e-01
-5.50443750e-08,1.86900000e-01
-5.50043750e-08,1.86896875e-01
-5.49643750e-08,1.86907812e-01
-5.49243750e-08,1.86887500e-01
-5.48843750e-08,1.86918750e-01
-5.48443750e-08,1.86870312e-01
-5.48043750e-08,1.86954687e-01
-5.47643750e-08,1.86690625e-01
-5.47243750e-08,1.86448438e-01
-5.46843750e-08,1.86526562e-01
-5.46443750e-08,1.86484375e-01
-5.46043750e-08,1.86507813e-01
-5.45643750e-08,1.86496875e-01
-5.45243750e-08,1.86496875e-01
-5.44843750e-08,1.86509375e-01
-5.44443750e-08,1.86479688e-01
-5.44043750e-08,1.86546875e-01
-5.43643750e-08,1.86298437e-01
-5.43243750e-08,1.86040625e-01
-5.42843750e-08,1.86132812e-01
-5.42443750e-08,1.86078125e-01
-5.42043750e-08,1.86114063e-01
-5.41643750e-08,1.86093750e-01
-5.41243750e-08,1.86093750e-01
-5.40843750e-08,1.86131250e-01
-5.40443750e-08,1.85914063e-01
-5.40043750e-08,1.85623438e-01
-5.39643750e-08,1.85753125e-01
-5.39243750e-08,1.85654687e-01
-5.38843750e-08,1.85742188e-01
-5.38443750e-08,1.85659375e-01
-5.38043750e-08,1.85743750e-01
-5.37643750e-08,1.85648438e-01
-5.37243750e-08,1.85776563e-01
-5.36843750e-08,1.85471875e-01
-5.36443750e-08,1.85265625e-01
-5.36043750e-08,1.85309375e-01
-5.35643750e-08,1.85300000e-01
-5.35243750e-08,1.85293750e-01
-5.34843750e-08,1.85309375e-01
-5.34443750e-08,1.85285937e-01
-5.34043750e-08,1.85320313e-01
-5.33643750e-08,1.85268750e-01
-5.33243750e-08,1.85356250e-01
-5.32843750e-08,1.85090625e-01
-5.32443750e-08,1.84848438e-01
-5.32043750e-08,1.84928125e-01
-5.31643750e-08,1.84881250e-01
-5.31243750e-08,1.84912500e-01
-5.30843750e-08,1.84890625e-01
-5.30443750e-08,1.84907813e-01
-5.30043750e-08,1.84893750e-01
-5.29643750e-08,1.84904687e-01
-5.29243750e-08,1.84895313e-01
-5.28843750e-08,1.84903125e-01
-5.28443750e-08,1.84896875e-01
-5.28043750e-08,1.84901563e-01
-5.27643750e-08,1.84898438e-01
-5.27243750e-08,1.84901563e-01
-5.26843750e-08,1.84900000e-01
-5.26443750e-08,1.84900000e-01
-5.26043750e-08,1.84900000e-01
-5.25643750e-08,1.84900000e-01
-5.25243750e-08,1.84901563e-01
-5.24843750e-08,1.84898438e-01
-5.24443750e-08,1.84903125e-01
-5.24043750e-08,1.84896875e-01
-5.23643750e-08,1.84904687e-01
-5.23243750e-08,1.84895313e-01
-5.22843750e-08,1.84906250e-01
-5.22443750e-08,1.84890625e-01
-5.22043750e-08,1.84912500e-01
-5.21643750e-08,1.84882812e-01
-5.21243750e-08,1.84926563e-01
-5.20843750e-08,1.84848438e-01
-5.20443750e-08,1.85104688e-01
-5.20043750e-08,1.85357812e-01
-5.19643750e-08,1.85265625e-01
-5.19243750e-08,1.85325000e-01
-5.18843750e-08,1.85279688e-01
-5.18443750e-08,1.85317188e-01
-5.18043750e-08,1.85284375e-01
-5.17643750e-08,1.85314063e-01
-5.17243750e-08,1.85287500e-01
-5.16843750e-08,1.85312500e-01
-5.16443750e-08,1.85287500e-01
-5.16043750e-08,1.85310937e-01
-5.15643750e-08,1.85289063e-01
-5.15243750e-08,1.85310937e-01
-5.14843750e-08,1.85289063e-01
-5.14443750e-08,1.85310937e-01
-5.14043750e-08,1.85289063e-01
-5.13643750e-08,1.85312500e-01
-5.13243750e-08,1.85287500e-01
-5.12843750e-08,1.85312500e-01
-5.12443750e-08,1.85285937e-01
-5.12043750e-08,1.85315625e-01
-5.11643750e-08,1.85282813e-01
-5.11243750e-08,1.85320313e-01
-5.10843750e-08,1.85275000e-01
-5.10443750e-08,1.85334375e-01
-5.10043750e-08,1.85240625e-01
-5.09643750e-08,1.85512500e-01
-5.09243750e-08,1.85750000e-01
-5.08843750e-08,1.85673438e-01
-5.08443750e-08,1.85717188e-01
-5.08043750e-08,1.85687500e-01
-5.07643750e-08,1.85709375e-01
-5.07243750e-08,1.85692187e-01
-5.06843750e-08,1.85707813e-01
-5.06443750e-08,1.85693750e-01
-5.06043750e-08,1.85707813e-01
-5.05643750e-08,1.85692187e-01
-5.05243750e-08,1.85709375e-01
-5.04843750e-08,1.85685938e-01
-5.04443750e-08,1.85721875e-01
-5.04043750e-08,1.85653125e-01
-5.03643750e-08,1.85898438e-01
-5.03243750e-08,1.86165625e-01
-5.02843750e-08,1.86056250e-01
-5.02443750e-08,1.86135938e-01
-5.02043750e-08,1.86065625e-01
-5.01643750e-08,1.86134375e-01
-5.01243750e-08,1.86062500e-01
-5.00843750e-08,1.86146875e-01
-5.00443750e-08,1.86028125e-01
-5.00043750e-08,1.86325000e-01
-4.99643750e-08,1.86535937e-01
-4.99243750e-08,1.86489062e-01
-4.98843750e-08,1.86500000e-01
-4.98443750e-08,1.86507813e-01
-4.98043750e-08,1.86484375e-01
-4.97643750e-08,1.86528125e-01
-4.97243750e-08,1.86446875e-01
-4.96843750e-08,1.86707813e-01
-4.96443750e-08,1.86953125e-01
-4.96043750e-08,1.86871875e-01
-4.95643750e-08,1.86917187e-01
-4.95243750e-08,1.86887500e-01
-4.94843750e-08,1.86907812e-01
-4.94443750e-08,1.86895313e-01
-4.94043750e-08,1.86901563e-01
-4.93643750e-08,1.86901563e-01
-4.93243750e-08,1.86895313e-01
-4.92843750e-08,1.86907812e-01
-4.92443750e-08,1.86885938e-01
-4.92043750e-08,1.86923438e-01
-4.91643750e-08,1.86850000e-01
-4.91243750e-08,1.87103125e-01
-4.90843750e-08,1.87359375e-01
-4.90443750e-08,1.87265625e-01
-4.90043750e-08,1.87325000e-01
-4.89643750e-08,1.87279688e-01
-4.89243750e-08,1.87315625e-01
-4.88843750e-08,1.87285937e-01
-4.88443750e-08,1.87312500e-01
-4.88043750e-08,1.87289063e-01
-4.87643750e-08,1.87309375e-01
-4.87243750e-08,1.87290625e-01
-4.86843750e-08,1.87307813e-01
-4.86443750e-08,1.87292188e-01
-4.86043750e-08,1.87307813e-01
-4.85643750e-08,1.87293750e-01
-4.85243750e-08,1.87306250e-01
-4.84843750e-08,1.87293750e-01
-4.84443750e-08,1.87306250e-01
-4.84043750e-08,1.87295313e-01
-4.83643750e-08,1.87304688e-01
-4.83243750e-08,1.87295313e-01
-4.82843750e-08,1.87304688e-01
-4.82443750e-08,1.87295313e-01
-4.82043750e-08,1.87304688e-01
-4.81643750e-08,1.87296875e-01
-4.81243750e-08,1.87303125e-01
-4.80843750e-08,1.87296875e-01
-4.80443750e-08,1.87303125e-01
-4.80043750e-08,1.87296875e-01
-4.79643750e-08,1.87303125e-01
-4.79243750e-08,1.87296875e-01
-4.78843750e-08,1.87303125e-01
-4.78443750e-08,1.87296875e-01
-4.78043750e-08,1.87301563e-01
-4.77643750e-08,1.87298437e-01
-4.77243750e-08,1.87301563e-01
-4.76843750e-08,1.87298437e-01
-4.76443750e-08,1.87301563e-01
-4.76043750e-08,1.87298437e-01
-4.75643750e-08,1.87301563e-01
-4.75243750e-08,1.87298437e-01
-4.74843750e-08,1.87301563e-01
-4.74443750e-08,1.87298437e-01
-4.74043750e-08,1.87301563e-01
-4.73643750e-08,1.87300000e-01
-4.73243750e-08,1.87300000e-01
-4.72843750e-08,1.87300000e-01
-4.72443750e-08,1.87300000e-01
-4.72043750e-08,1.87300000e-01
-4.71643750e-08,1.87300000e-01
-4.71243750e-08,1.87300000e-01
-4.70843750e-08,1.87300000e-01
-4.70443750e-08,1.87300000e-01
-4.70043750e-08,1.87298437e-01
-4.69643750e-08,1.87301563e-01
-4.69243750e-08,1.87298437e-01
-4.68843750e-08,1.87301563e-01
-4.68443750e-08,1.87298437e-01
-4.68043750e-08,1.87303125e-01
-4.67643750e-08,1.87296875e-01
-4.67243750e-08,1.87303125e-01
-4.66843750e-08,1.87295313e-01
-4.66443750e-08,1.87304688e-01
-4.66043750e-08,1.87293750e-01
-4.65643750e-08,1.87306250e-01
-4.65243750e-08,1.87292188e-01
-4.64843750e-08,1.87310937e-01
-4.64443750e-08,1.87285937e-01
-4.64043750e-08,1.87318750e-01
-4.63643750e-08,1.87271875e-01
-4.63243750e-08,1.87353125e-01
-4.62843750e-08,1.87093750e-01
-4.62443750e-08,1.86843750e-01
-4.62043750e-08,1.86931250e-01
-4.61643750e-08,1.86878125e-01
-4.61243750e-08,1.86917187e-01
-4.60843750e-08,1.86885938e-01
-4.60443750e-08,1.86912500e-01
-4.60043750e-08,1.86889063e-01
-4.59643750e-08,1.86909375e-01
-4.59243750e-08,1.86890625e-01
-4.58843750e-08,1.86907812e-01
-4.58443750e-08,1.86892188e-01
-4.58043750e-08,1.86906250e-01
-4.57643750e-08,1.86893750e-01
-4.57243750e-08,1.86906250e-01
-4.56843750e-08,1.86895313e-01
-4.56443750e-08,1.86904687e-01
-4.56043750e-08,1.86895313e-01
-4.55643750e-08,1.86904687e-01
-4.55243750e-08,1.86895313e-01
-4.54843750e-08,1.86903125e-01
-4.54443750e-08,1.86896875e-01
-4.54043750e-08,1.86903125e-01
-4.53643750e-08,1.86896875e-01
-4.53243750e-08,1.86901563e-01
-4.52843750e-08,1.86898438e-01
-4.52443750e-08,1.86900000e-01
-4.52043750e-08,1.86900000e-01
-4.51643750e-08,1.86898438e-01
-4.51243750e-08,1.86903125e-01
-4.50843750e-08,1.86893750e-01
-4.50443750e-08,1.86910938e-01
-4.50043750e-08,1.86879688e-01
-4.49643750e-08,1.86945313e-01
-4.49243750e-08,1.86701563e-01
-4.48843750e-08,1.86435938e-01
-4.48443750e-08,1.86540625e-01
-4.48043750e-08,1.86467188e-01
-4.47643750e-08,1.86528125e-01
-4.47243750e-08,1.86473438e-01
-4.46843750e-08,1.86526562e-01
-4.46443750e-08,1.86473438e-01
-4.46043750e-08,1.86526562e-01
-4.45643750e-08,1.86470313e-01
-4.45243750e-08,1.86534375e-01
-4.44843750e-08,1.86456250e-01
-4.44443750e-08,1.86568750e-01
-4.44043750e-08,1.86278125e-01
-4.43643750e-08,1.86060937e-01
-4.43243750e-08,1.86115625e-01
-4.42843750e-08,1.86095312e-01
-4.42443750e-08,1.86098438e-01
-4.42043750e-08,1.86106250e-01
-4.41643750e-08,1.86089063e-01
-4.41243750e-08,1.86117188e-01
-4.40843750e-08,1.86071875e-01
-4.40443750e-08,1.86154687e-01
-4.40043750e-08,1.85892188e-01
-4.39643750e-08,1.85646875e-01
-4.39243750e-08,1.85728125e-01
-4.38843750e-08,1.85681250e-01
-4.38443750e-08,1.85712500e-01
-4.38043750e-08,1.85690625e-01
-4.37643750e-08,1.85706250e-01
-4.37243750e-08,1.85696875e-01
-4.36843750e-08,1.85700000e-01
-4.36443750e-08,1.85701563e-01
-4.36043750e-08,1.85693750e-01
-4.35643750e-08,1.85710938e-01
-4.35243750e-08,1.85678125e-01
-4.34843750e-08,1.85746875e-01
-4.34443750e-08,1.85500000e-01
-4.34043750e-08,1.85237500e-01
-4.33643750e-08,1.85337500e-01
-4.33243750e-08,1.85271875e-01
-4.32843750e-08,1.85323438e-01
-4.32443750e-08,1.85279688e-01
-4.32043750e-08,1.85318750e-01
-4.31643750e-08,1.85282813e-01
-4.31243750e-08,1.85315625e-01
-4.30843750e-08,1.85284375e-01
-4.30443750e-08,1.85315625e-01
-4.30043750e-08,1.85284375e-01
-4.29643750e-08,1.85315625e-01
-4.29243750e-08,1.85284375e-01
-4.28843750e-08,1.85317188e-01
-4.28443750e-08,1.85282813e-01
-4.28043750e-08,1.85318750e-01
-4.27643750e-08,1.85278125e-01
-4.27243750e-08,1.85326563e-01
-4.26843750e-08,1.85264062e-01
-4.26443750e-08,1.85360938e-01
-4.26043750e-08,1.85085938e-01
-4.25643750e-08,1.84851563e-01
-4.25243750e-08,1.84925000e-01
-4.24843750e-08,1.84884375e-01
-4.24443750e-08,1.84910938e-01
-4.24043750e-08,1.84892187e-01
-4.23643750e-08,1.84906250e-01
-4.23243750e-08,1.84895313e-01
-4.22843750e-08,1.84903125e-01
-4.22443750e-08,1.84896875e-01
-4.22043750e-08,1.84901563e-01
-4.21643750e-08,1.84898438e-01
-4.21243750e-08,1.84901563e-01
-4.20843750e-08,1.84898438e-01
-4.20443750e-08,1.84900000e-01
-4.20043750e-08,1.84900000e-01
-4.19643750e-08,1.84900000e-01
-4.19243750e-08,1.84900000e-01
-4.18843750e-08,1.84900000e-01
-4.18443750e-08,1.84900000e-01
-4.18043750e-08,1.84900000e-01
-4.17643750e-08,1.84900000e-01
-4.17243750e-08,1.84900000e-01
-4.16843750e-08,1.84900000e-01
-4.16443750e-08,1.84900000e-01
-4.16043750e-08,1.84900000e-01
-4.15643750e-08,1.84901563e-01
-4.15243750e-08,1.84898438e-01
-4.14843750e-08,1.84901563e-01
-4.14443750e-08,1.84896875e-01
-4.14043750e-08,1.84903125e-01
-4.13643750e-08,1.84895313e-01
-4.13243750e-08,1.84907813e-01
-4.12843750e-08,1.84887500e-01
-4.12443750e-08,1.84921875e-01
-4.12043750e-08,1.84853125e-01
-4.11643750e-08,1.85098438e-01
-4.11243750e-08,1.85364063e-01
-4.10843750e-08,1.85257813e-01
-4.10443750e-08,1.85332812e-01
-4.10043750e-08,1.85270313e-01
-4.09643750e-08,1.85328125e-01
-4.09243750e-08,1.85271875e-01
-4.08843750e-08,1.85329688e-01
-4.08443750e-08,1.85265625e-01
-4.08043750e-08,1.85343750e-01
-4.07643750e-08,1.85231250e-01
-4.07243750e-08,1.85521875e-01
-4.06843750e-08,1.85740625e-01
-4.06443750e-08,1.85682813e-01
-4.06043750e-08,1.85706250e-01
-4.05643750e-08,1.85698438e-01
-4.05243750e-08,1.85696875e-01
-4.04843750e-08,1.85706250e-01
-4.04443750e-08,1.85690625e-01
-4.04043750e-08,1.85714062e-01
-4.03643750e-08,1.85679687e-01
-4.03243750e-08,1.85729688e-01
-4.02843750e-08,1.85645312e-01
-4.02443750e-08,1.85909375e-01
-4.02043750e-08,1.86153125e-01
-4.01643750e-08,1.86071875e-01
-4.01243750e-08,1.86118750e-01
-4.00843750e-08,1.86085938e-01
-4.00443750e-08,1.86110938e-01
-4.00043750e-08,1.86092188e-01
-3.99643750e-08,1.86106250e-01
-3.99243750e-08,1.86095312e-01
-3.98843750e-08,1.86103125e-01
-3.98443750e-08,1.86096875e-01
-3.98043750e-08,1.86101563e-01
-3.97643750e-08,1.86100000e-01
-3.97243750e-08,1.86100000e-01
-3.96843750e-08,1.86101563e-01
-3.96443750e-08,1.86098438e-01
-3.96043750e-08,1.86103125e-01
-3.95643750e-08,1.86096875e-01
-3.95243750e-08,1.86104688e-01
-3.94843750e-08,1.86093750e-01
-3.94443750e-08,1.86107812e-01
-3.94043750e-08,1.86090625e-01
-3.93643750e-08,1.86110938e-01
-3.93243750e-08,1.86085938e-01
-3.92843750e-08,1.86120312e-01
-3.92443750e-08,1.86070313e-01
-3.92043750e-08,1.86154687e-01
-3.91643750e-08,1.85892188e-01
-3.91243750e-08,1.85646875e-01
-3.90843750e-08,1.85729688e-01
-3.90443750e-08,1.85679687e-01
-3.90043750e-08,1.85714062e-01
-3.89643750e-08,1.85689063e-01
-3.89243750e-08,1.85707813e-01
-3.88843750e-08,1.85693750e-01
-3.88443750e-08,1.85704688e-01
-3.88043750e-08,1.85696875e-01
-3.87643750e-08,1.85701563e-01
-3.87243750e-08,1.85700000e-01
-3.86843750e-08,1.85698438e-01
-3.86443750e-08,1.85704688e-01
-3.86043750e-08,1.85692187e-01
-3.85643750e-08,1.85714062e-01
-3.85243750e-08,1.85676563e-01
