trails/0bdfa5e45fec98341abdd20552c140b4/aes_ch1_20250507120343396.csv

Model,MSO66B
Label,
Waveform Type,ANALOG
Horizontal Units,s
Sample Interval,4.00000000e-11
Record Length,10000
Zero Index,1599.09765625
Vertical Units,A
ANALOG_Thumbnail,
yOffset,1.84500000e-01
yPosition,8.40000000e-01

Labels,
TIME,CH1
-6.39639062e-08,1.97298438e-01
-6.39239063e-08,1.97301562e-01
-6.38839062e-08,1.97298438e-01
-6.38439062e-08,1.97301562e-01
-6.38039062e-08,1.97298438e-01
-6.37639062e-08,1.97301562e-01
-6.37239062e-08,1.97296875e-01
-6.36839062e-08,1.97303125e-01
-6.36439063e-08,1.97296875e-01
-6.36039062e-08,1.97303125e-01
-6.35639062e-08,1.97296875e-01
-6.35239062e-08,1.97304688e-01
-6.34839062e-08,1.97295313e-01
-6.34439062e-08,1.97304688e-01
-6.34039062e-08,1.97293750e-01
-6.33639063e-08,1.97306250e-01
-6.33239062e-08,1.97292187e-01
-6.32839062e-08,1.97307813e-01
-6.32439062e-08,1.97290625e-01
-6.32039062e-08,1.97312500e-01
-6.31639062e-08,1.97284375e-01
-6.31239062e-08,1.97320313e-01
-6.30839063e-08,1.97270313e-01
-6.30439062e-08,1.97354688e-01
-6.30039062e-08,1.97092188e-01
-6.29639062e-08,1.96845313e-01
-6.29239062e-08,1.96929688e-01
-6.28839062e-08,1.96879688e-01
-6.28439062e-08,1.96915625e-01
-6.28039063e-08,1.96887500e-01
-6.27639062e-08,1.96910937e-01
-6.27239062e-08,1.96890625e-01
-6.26839062e-08,1.96907813e-01
-6.26439062e-08,1.96893750e-01
-6.26039063e-08,1.96906250e-01
-6.25639062e-08,1.96895313e-01
-6.25239063e-08,1.96904688e-01
-6.24839062e-08,1.96895313e-01
-6.24439062e-08,1.96903125e-01
-6.24039062e-08,1.96896875e-01
-6.23639062e-08,1.96903125e-01
-6.23239063e-08,1.96896875e-01
-6.22839062e-08,1.96901563e-01
-6.22439063e-08,1.96898438e-01
-6.22039062e-08,1.96901563e-01
-6.21639062e-08,1.96898438e-01
-6.21239062e-08,1.96900000e-01
-6.20839062e-08,1.96900000e-01
-6.20439063e-08,1.96900000e-01
-6.20039062e-08,1.96900000e-01
-6.19639063e-08,1.96898438e-01
-6.19239062e-08,1.96901563e-01
-6.18839062e-08,1.96898438e-01
-6.18439062e-08,1.96903125e-01
-6.18039062e-08,1.96895313e-01
-6.17639063e-08,1.96904688e-01
-6.17239062e-08,1.96893750e-01
-6.16839063e-08,1.96909375e-01
-6.16439062e-08,1.96887500e-01
-6.16039062e-08,1.96917188e-01
-6.15639062e-08,1.96873437e-01
-6.15239062e-08,1.96951563e-01
-6.14839063e-08,1.96695312e-01
-6.14439062e-08,1.96443750e-01
-6.14039063e-08,1.96532813e-01
-6.13639062e-08,1.96476563e-01
-6.13239062e-08,1.96518750e-01
-6.12839062e-08,1.96484375e-01
-6.12439062e-08,1.96512500e-01
-6.12039063e-08,1.96489063e-01
-6.11639062e-08,1.96509375e-01
-6.11239063e-08,1.96490625e-01
-6.10839062e-08,1.96507813e-01
-6.10439062e-08,1.96493750e-01
-6.10039062e-08,1.96506250e-01
-6.09639062e-08,1.96495313e-01
-6.09239063e-08,1.96503125e-01
-6.08839062e-08,1.96498438e-01
-6.08439063e-08,1.96498438e-01
-6.08039062e-08,1.96506250e-01
-6.07639062e-08,1.96484375e-01
-6.07239062e-08,1.96540625e-01
-6.06839062e-08,1.96307813e-01
-6.06439063e-08,1.96029687e-01
-6.06039062e-08,1.96148437e-01
-6.05639063e-08,1.96059375e-01
-6.05239062e-08,1.96137500e-01
-6.04839062e-08,1.96060938e-01
-6.04439062e-08,1.96142188e-01
-6.04039062e-08,1.96050000e-01
-6.03639063e-08,1.96175000e-01
-6.03239062e-08,1.95871875e-01
-6.02839062e-08,1.95667188e-01
-6.02439062e-08,1.95709375e-01
-6.02039062e-08,1.95703125e-01
-6.01639062e-08,1.95689063e-01
-6.01239062e-08,1.95718750e-01
-6.00839063e-08,1.95670312e-01
-6.00439062e-08,1.95756250e-01
-6.00039062e-08,1.95489063e-01
-5.99639062e-08,1.95250000e-01
-5.99239062e-08,1.95323438e-01
-5.98839062e-08,1.95287500e-01
-5.98439062e-08,1.95304688e-01
-5.98039063e-08,1.95303125e-01
-5.97639062e-08,1.95285938e-01
-5.97239062e-08,1.95340625e-01
-5.96839062e-08,1.95106250e-01
-5.96439062e-08,1.94831250e-01
-5.96039062e-08,1.94945312e-01
-5.95639062e-08,1.94864063e-01
-5.95239062e-08,1.94932812e-01
-5.94839062e-08,1.94867188e-01
-5.94439062e-08,1.94934375e-01
-5.94039062e-08,1.94856250e-01
-5.93639062e-08,1.94967187e-01
-5.93239062e-08,1.94681250e-01
-5.92839062e-08,1.94456250e-01
-5.92439062e-08,1.94521875e-01
-5.92039062e-08,1.94487500e-01
-5.91639062e-08,1.94507813e-01
-5.91239062e-08,1.94495313e-01
-5.90839062e-08,1.94503125e-01
-5.90439062e-08,1.94496875e-01
-5.90039062e-08,1.94501563e-01
-5.89639062e-08,1.94500000e-01
-5.89239062e-08,1.94500000e-01
-5.88839062e-08,1.94500000e-01
-5.88439062e-08,1.94498438e-01
-5.88039062e-08,1.94501563e-01
-5.87639062e-08,1.94498438e-01
-5.87239062e-08,1.94501563e-01
-5.86839062e-08,1.94496875e-01
-5.86439062e-08,1.94503125e-01
-5.86039062e-08,1.94496875e-01
-5.85639062e-08,1.94504687e-01
-5.85239062e-08,1.94495313e-01
-5.84839062e-08,1.94506250e-01
-5.84439062e-08,1.94492187e-01
-5.84039062e-08,1.94509375e-01
-5.83639062e-08,1.94489063e-01
-5.83239062e-08,1.94514063e-01
-5.82839062e-08,1.94479687e-01
-5.82439062e-08,1.94529687e-01
-5.82039062e-08,1.94445313e-01
-5.81639062e-08,1.94707813e-01
-5.81239062e-08,1.94953125e-01
-5.80839062e-08,1.94870313e-01
-5.80439062e-08,1.94918750e-01
-5.80039062e-08,1.94887500e-01
-5.79639062e-08,1.94907812e-01
-5.79239062e-08,1.94896875e-01
-5.78839062e-08,1.94896875e-01
-5.78439062e-08,1.94912500e-01
-5.78039062e-08,1.94862500e-01
-5.77639062e-08,1.95090625e-01
-5.77239062e-08,1.95371875e-01
-5.76839062e-08,1.95251563e-01
-5.76439062e-08,1.95340625e-01
-5.76039062e-08,1.95262500e-01
-5.75639062e-08,1.95337500e-01
-5.75239062e-08,1.95259375e-01
-5.74839062e-08,1.95348437e-01
-5.74439062e-08,1.95228125e-01
-5.74039062e-08,1.95525000e-01
-5.73639062e-08,1.95737500e-01
-5.73239062e-08,1.95685938e-01
-5.72839062e-08,1.95704688e-01
-5.72439062e-08,1.95700000e-01
-5.72039062e-08,1.95696875e-01
-5.71639062e-08,1.95706250e-01
-5.71239062e-08,1.95692188e-01
-5.70839062e-08,1.95710938e-01
-5.70439062e-08,1.95687500e-01
-5.70039062e-08,1.95717188e-01
-5.69639062e-08,1.95678125e-01
-5.69239062e-08,1.95731250e-01
-5.68839062e-08,1.95642188e-01
-5.68439062e-08,1.95910937e-01
-5.68039062e-08,1.96151563e-01
-5.67639062e-08,1.96071875e-01
-5.67239062e-08,1.96118750e-01
-5.66839062e-08,1.96087500e-01
-5.66439062e-08,1.96109375e-01
-5.66039062e-08,1.96092188e-01
-5.65639062e-08,1.96106250e-01
-5.65239062e-08,1.96095313e-01
-5.64839062e-08,1.96104688e-01
-5.64439062e-08,1.96096875e-01
-5.64039062e-08,1.96103125e-01
-5.63639062e-08,1.96096875e-01
-5.63239062e-08,1.96101562e-01
-5.62839062e-08,1.96098438e-01
-5.62439062e-08,1.96101562e-01
-5.62039062e-08,1.96098438e-01
-5.61639062e-08,1.96100000e-01
-5.61239062e-08,1.96100000e-01
-5.60839062e-08,1.96100000e-01
-5.60439062e-08,1.96100000e-01
-5.60039062e-08,1.96100000e-01
-5.59639062e-08,1.96100000e-01
-5.59239062e-08,1.96098438e-01
-5.58839062e-08,1.96101562e-01
-5.58439062e-08,1.96098438e-01
-5.58039062e-08,1.96101562e-01
-5.57639062e-08,1.96098438e-01
-5.57239062e-08,1.96101562e-01
-5.56839062e-08,1.96098438e-01
-5.56439062e-08,1.96101562e-01
-5.56039062e-08,1.96096875e-01
-5.55639062e-08,1.96103125e-01
-5.55239062e-08,1.96096875e-01
-5.54839062e-08,1.96103125e-01
-5.54439062e-08,1.96096875e-01
-5.54039062e-08,1.96103125e-01
-5.53639062e-08,1.96095313e-01
-5.53239062e-08,1.96104688e-01
-5.52839062e-08,1.96095313e-01
-5.52439062e-08,1.96104688e-01
-5.52039062e-08,1.96093750e-01
-5.51639062e-08,1.96106250e-01
-5.51239062e-08,1.96093750e-01
-5.50839062e-08,1.96107813e-01
-5.50439062e-08,1.96090625e-01
-5.50039062e-08,1.96109375e-01
-5.49639062e-08,1.96089063e-01
-5.49239062e-08,1.96114063e-01
-5.48839062e-08,1.96082813e-01
-5.48439062e-08,1.96121875e-01
-5.48039062e-08,1.96068750e-01
-5.47639062e-08,1.96156250e-01
-5.47239062e-08,1.95890625e-01
-5.46839062e-08,1.95648437e-01
-5.46439062e-08,1.95728125e-01
-5.46039062e-08,1.95681250e-01
-5.45639062e-08,1.95714063e-01
-5.45239062e-08,1.95689063e-01
-5.44839062e-08,1.95707813e-01
-5.44439062e-08,1.95693750e-01
-5.44039062e-08,1.95704688e-01
-5.43639062e-08,1.95696875e-01
-5.43239062e-08,1.95703125e-01
-5.42839062e-08,1.95698438e-01
-5.42439062e-08,1.95700000e-01
-5.42039062e-08,1.95700000e-01
-5.41639062e-08,1.95698438e-01
-5.41239062e-08,1.95703125e-01
-5.40839062e-08,1.95695312e-01
-5.40439062e-08,1.95707813e-01
-5.40039062e-08,1.95689063e-01
-5.39639062e-08,1.95715625e-01
-5.39239062e-08,1.95675000e-01
-5.38839062e-08,1.95750000e-01
-5.38439062e-08,1.95495313e-01
-5.38039062e-08,1.95242187e-01
-5.37639062e-08,1.95334375e-01
-5.37239062e-08,1.95275000e-01
-5.36839062e-08,1.95320313e-01
-5.36439062e-08,1.95282813e-01
-5.36039062e-08,1.95314062e-01
-5.35639062e-08,1.95287500e-01
-5.35239062e-08,1.95312500e-01
-5.34839062e-08,1.95289062e-01
-5.34439062e-08,1.95310938e-01
-5.34039062e-08,1.95290625e-01
-5.33639062e-08,1.95309375e-01
-5.33239062e-08,1.95290625e-01
-5.32839062e-08,1.95307813e-01
-5.32439062e-08,1.95292188e-01
-5.32039062e-08,1.95307813e-01
-5.31639062e-08,1.95292188e-01
-5.31239062e-08,1.95307813e-01
-5.30839062e-08,1.95292188e-01
-5.30439062e-08,1.95306250e-01
-5.30039063e-08,1.95293750e-01
-5.29639062e-08,1.95306250e-01
-5.29239062e-08,1.95293750e-01
-5.28839062e-08,1.95306250e-01
-5.28439062e-08,1.95293750e-01
-5.28039062e-08,1.95306250e-01
-5.27639062e-08,1.95293750e-01
-5.27239062e-08,1.95306250e-01
-5.26839062e-08,1.95293750e-01
-5.26439062e-08,1.95306250e-01
-5.26039062e-08,1.95293750e-01
-5.25639062e-08,1.95306250e-01
-5.25239062e-08,1.95293750e-01
-5.24839062e-08,1.95306250e-01
-5.24439062e-08,1.95293750e-01
-5.24039062e-08,1.95306250e-01
-5.23639062e-08,1.95293750e-01
-5.23239062e-08,1.95307813e-01
-5.22839062e-08,1.95292188e-01
-5.22439062e-08,1.95307813e-01
-5.22039062e-08,1.95292188e-01
-5.21639062e-08,1.95307813e-01
-5.21239062e-08,1.95292188e-01
-5.20839062e-08,1.95309375e-01
-5.20439062e-08,1.95290625e-01
-5.20039062e-08,1.95309375e-01
-5.19639062e-08,1.95289062e-01
-5.19239062e-08,1.95310938e-01
-5.18839062e-08,1.95287500e-01
-5.18439062e-08,1.95312500e-01
-5.18039062e-08,1.95285938e-01
-5.17639062e-08,1.95317188e-01
-5.17239062e-08,1.95279688e-01
-5.16839062e-08,1.95325000e-01
-5.16439062e-08,1.95264063e-01
-5.16039062e-08,1.95360937e-01
-5.15639062e-08,1.95085938e-01
-5.15239062e-08,1.94851563e-01
-5.14839062e-08,1.94923438e-01
-5.14439062e-08,1.94885937e-01
-5.14039062e-08,1.94907812e-01
-5.13639062e-08,1.94895313e-01
-5.13239062e-08,1.94900000e-01
-5.12839062e-08,1.94903125e-01
-5.12439062e-08,1.94893750e-01
-5.12039062e-08,1.94912500e-01
-5.11639062e-08,1.94878125e-01
-5.11239062e-08,1.94946875e-01
-5.10839063e-08,1.94698438e-01
-5.10439062e-08,1.94439063e-01
-5.10039062e-08,1.94537500e-01
-5.09639062e-08,1.94471875e-01
-5.09239062e-08,1.94523438e-01
-5.08839062e-08,1.94478125e-01
-5.08439062e-08,1.94520313e-01
-5.08039063e-08,1.94479687e-01
-5.07639062e-08,1.94520313e-01
-5.07239062e-08,1.94476563e-01
-5.06839062e-08,1.94526562e-01
-5.06439062e-08,1.94464063e-01
-5.06039062e-08,1.94559375e-01
-5.05639062e-08,1.94287500e-01
-5.05239062e-08,1.94050000e-01
-5.04839062e-08,1.94126563e-01
-5.04439062e-08,1.94081250e-01
-5.04039062e-08,1.94114063e-01
-5.03639062e-08,1.94089063e-01
-5.03239062e-08,1.94109375e-01
-5.02839062e-08,1.94090625e-01
-5.02439062e-08,1.94109375e-01
-5.02039062e-08,1.94090625e-01
-5.01639062e-08,1.94109375e-01
-5.01239062e-08,1.94089063e-01
-5.00839062e-08,1.94112500e-01
-5.00439062e-08,1.94085937e-01
-5.00039062e-08,1.94118750e-01
-4.99639062e-08,1.94071875e-01
-4.99239062e-08,1.94153125e-01
-4.98839062e-08,1.93893750e-01
-4.98439062e-08,1.93643750e-01
-4.98039062e-08,1.93732813e-01
-4.97639062e-08,1.93676563e-01
-4.97239062e-08,1.93720313e-01
-4.96839062e-08,1.93682812e-01
-4.96439062e-08,1.93715625e-01
-4.96039062e-08,1.93685938e-01
-4.95639062e-08,1.93714063e-01
-4.95239062e-08,1.93685938e-01
-4.94839062e-08,1.93714063e-01
-4.94439062e-08,1.93684375e-01
-4.94039062e-08,1.93717187e-01
-4.93639062e-08,1.93679688e-01
-4.93239062e-08,1.93725000e-01
-4.92839062e-08,1.93665625e-01
-4.92439062e-08,1.93759375e-01
-4.92039062e-08,1.93487500e-01
-4.91639063e-08,1.93250000e-01
-4.91239062e-08,1.93326563e-01
-4.90839062e-08,1.93282813e-01
-4.90439062e-08,1.93312500e-01
-4.90039062e-08,1.93290625e-01
-4.89639062e-08,1.93307813e-01
-4.89239062e-08,1.93293750e-01
-4.88839063e-08,1.93304688e-01
-4.88439062e-08,1.93295313e-01
-4.88039062e-08,1.93303125e-01
-4.87639062e-08,1.93296875e-01
-4.87239062e-08,1.93303125e-01
-4.86839062e-08,1.93296875e-01
-4.86439062e-08,1.93301562e-01
-4.86039062e-08,1.93298438e-01
-4.85639062e-08,1.93301562e-01
-4.85239062e-08,1.93298438e-01
-4.84839062e-08,1.93301562e-01
-4.84439062e-08,1.93300000e-01
-4.84039062e-08,1.93300000e-01
-4.83639062e-08,1.93300000e-01
-4.83239062e-08,1.93300000e-01
-4.82839062e-08,1.93300000e-01
-4.82439062e-08,1.93300000e-01
-4.82039062e-08,1.93301562e-01
-4.81639062e-08,1.93298438e-01
-4.81239062e-08,1.93301562e-01
-4.80839062e-08,1.93298438e-01
-4.80439062e-08,1.93303125e-01
-4.80039062e-08,1.93296875e-01
-4.79639062e-08,1.93303125e-01
-4.79239062e-08,1.93295313e-01
-4.78839062e-08,1.93304688e-01
-4.78439062e-08,1.93293750e-01
-4.78039062e-08,1.93307813e-01
-4.77639062e-08,1.93289062e-01
-4.77239062e-08,1.93314062e-01
-4.76839062e-08,1.93281250e-01
-4.76439062e-08,1.93328125e-01
-4.76039062e-08,1.93246875e-01
-4.75639062e-08,1.93506250e-01
-4.75239062e-08,1.93756250e-01
-4.74839062e-08,1.93668750e-01
-4.74439062e-08,1.93721875e-01
-4.74039062e-08,1.93682812e-01
-4.73639062e-08,1.93712500e-01
-4.73239062e-08,1.93689063e-01
-4.72839062e-08,1.93707813e-01
-4.72439063e-08,1.93693750e-01
-4.72039062e-08,1.93703125e-01
-4.71639062e-08,1.93700000e-01
-4.71239062e-08,1.93693750e-01
-4.70839062e-08,1.93715625e-01
-4.70439062e-08,1.93660938e-01
-4.70039062e-08,1.93892188e-01
-4.69639063e-08,1.94170312e-01
-4.69239062e-08,1.94053125e-01
-4.68839062e-08,1.94139063e-01
-4.68439062e-08,1.94065625e-01
-4.68039062e-08,1.94132813e-01
-4.67639062e-08,1.94067188e-01
-4.67239062e-08,1.94135938e-01
-4.66839063e-08,1.94060938e-01
-4.66439062e-08,1.94148437e-01
-4.66039062e-08,1.94026562e-01
-4.65639062e-08,1.94326563e-01
-4.65239062e-08,1.94535938e-01
-4.64839062e-08,1.94489063e-01
-4.64439062e-08,1.94500000e-01
-4.64039062e-08,1.94506250e-01
-4.63639062e-08,1.94489063e-01
-4.63239062e-08,1.94515625e-01
-4.62839062e-08,1.94478125e-01
-4.62439062e-08,1.94532813e-01
-4.62039062e-08,1.94440625e-01
-4.61639062e-08,1.94714063e-01
-4.61239062e-08,1.94946875e-01
-4.60839062e-08,1.94878125e-01
-4.60439062e-08,1.94912500e-01
-4.60039062e-08,1.94895313e-01
-4.59639062e-08,1.94900000e-01
-4.59239062e-08,1.94904688e-01
-4.58839062e-08,1.94887500e-01
-4.58439062e-08,1.94923438e-01
-4.58039062e-08,1.94851563e-01
-4.57639062e-08,1.95103125e-01
-4.57239062e-08,1.95359375e-01
-4.56839062e-08,1.95265625e-01
-4.56439062e-08,1.95325000e-01
-4.56039062e-08,1.95279688e-01
-4.55639062e-08,1.95315625e-01
-4.55239062e-08,1.95285938e-01
-4.54839062e-08,1.95312500e-01
-4.54439062e-08,1.95289062e-01
-4.54039062e-08,1.95309375e-01
-4.53639062e-08,1.95290625e-01
-4.53239063e-08,1.95307813e-01
-4.52839062e-08,1.95292188e-01
-4.52439062e-08,1.95307813e-01
-4.52039062e-08,1.95293750e-01
-4.51639062e-08,1.95306250e-01
-4.51239062e-08,1.95293750e-01
-4.50839062e-08,1.95306250e-01
-4.50439063e-08,1.95293750e-01
-4.50039062e-08,1.95306250e-01
-4.49639062e-08,1.95295313e-01
-4.49239062e-08,1.95304688e-01
-4.48839062e-08,1.95295313e-01
-4.48439062e-08,1.95304688e-01
-4.48039062e-08,1.95295313e-01
-4.47639063e-08,1.95304688e-01
-4.47239062e-08,1.95295313e-01
-4.46839062e-08,1.95304688e-01
-4.46439062e-08,1.95295313e-01
-4.46039062e-08,1.95304688e-01
-4.45639062e-08,1.95295313e-01
-4.45239062e-08,1.95304688e-01
-4.44839063e-08,1.95293750e-01
-4.44439062e-08,1.95306250e-01
-4.44039062e-08,1.95293750e-01
-4.43639062e-08,1.95306250e-01
-4.43239062e-08,1.95292188e-01
-4.42839062e-08,1.95307813e-01
-4.42439062e-08,1.95290625e-01
-4.42039062e-08,1.95310938e-01
-4.41639062e-08,1.95287500e-01
-4.41239062e-08,1.95315625e-01
-4.40839062e-08,1.95279688e-01
-4.40439062e-08,1.95329688e-01
-4.40039062e-08,1.95245313e-01
-4.39639062e-08,1.95507813e-01
-4.39239062e-08,1.95754687e-01
-4.38839062e-08,1.95668750e-01
-4.38439062e-08,1.95721875e-01
-4.38039062e-08,1.95682812e-01
-4.37639062e-08,1.95714063e-01
-4.37239062e-08,1.95689063e-01
-4.36839063e-08,1.95710938e-01
-4.36439062e-08,1.95690625e-01
-4.36039062e-08,1.95707813e-01
-4.35639062e-08,1.95692188e-01
-4.35239062e-08,1.95707813e-01
-4.34839062e-08,1.95692188e-01
-4.34439062e-08,1.95706250e-01
-4.34039063e-08,1.95693750e-01
-4.33639062e-08,1.95706250e-01
-4.33239062e-08,1.95693750e-01
-4.32839062e-08,1.95706250e-01
-4.32439062e-08,1.95693750e-01
-4.32039062e-08,1.95706250e-01
-4.31639062e-08,1.95693750e-01
-4.31239063e-08,1.95706250e-01
-4.30839062e-08,1.95693750e-01
-4.30439062e-08,1.95706250e-01
-4.30039062e-08,1.95693750e-01
-4.29639062e-08,1.95706250e-01
-4.29239062e-08,1.95693750e-01
-4.28839062e-08,1.95706250e-01
-4.28439063e-08,1.95693750e-01
-4.28039062e-08,1.95706250e-01
-4.27639062e-08,1.95693750e-01
-4.27239062e-08,1.95706250e-01
-4.26839062e-08,1.95692188e-01
-4.26439062e-08,1.95707813e-01
-4.26039062e-08,1.95692188e-01
-4.25639063e-08,1.95707813e-01
-4.25239062e-08,1.95692188e-01
-4.24839062e-08,1.95709375e-01
-4.24439062e-08,1.95690625e-01
-4.24039062e-08,1.95709375e-01
-4.23639062e-08,1.95689063e-01
-4.23239062e-08,1.95712500e-01
-4.22839063e-08,1.95687500e-01
-4.22439062e-08,1.95714063e-01
-4.22039062e-08,1.95684375e-01
-4.21639062e-08,1.95718750e-01
-4.21239062e-08,1.95678125e-01
-4.20839062e-08,1.95726563e-01
-4.20439062e-08,1.95662500e-01
-4.20039062e-08,1.95762500e-01
-4.19639062e-08,1.95482813e-01
-4.19239062e-08,1.95254687e-01
-4.18839062e-08,1.95320313e-01
-4.18439062e-08,1.95290625e-01
-4.18039062e-08,1.95303125e-01
-4.17639063e-08,1.95303125e-01
-4.17239062e-08,1.95292188e-01
-4.16839062e-08,1.95314062e-01
-4.16439062e-08,1.95275000e-01
-4.16039062e-08,1.95351563e-01
-4.15639062e-08,1.95093750e-01
-4.15239062e-08,1.94845313e-01
-4.14839063e-08,1.94929688e-01
-4.14439062e-08,1.94881250e-01
-4.14039062e-08,1.94912500e-01
-4.13639062e-08,1.94892188e-01
-4.13239062e-08,1.94901563e-01
-4.12839062e-08,1.94904688e-01
-4.12439062e-08,1.94884375e-01
-4.12039063e-08,1.94940625e-01
-4.11639062e-08,1.94706250e-01
-4.11239062e-08,1.94431250e-01
-4.10839062e-08,1.94543750e-01
-4.10439062e-08,1.94465625e-01
-4.10039062e-08,1.94531250e-01
-4.09639062e-08,1.94471875e-01
-4.09239063e-08,1.94528125e-01
-4.08839062e-08,1.94470313e-01
-4.08439062e-08,1.94532813e-01
-4.08039062e-08,1.94459375e-01
-4.07639062e-08,1.94565625e-01
-4.07239062e-08,1.94282813e-01
-4.06839062e-08,1.94054688e-01
-4.06439063e-08,1.94123437e-01
-4.06039062e-08,1.94085937e-01
-4.05639062e-08,1.94109375e-01
-4.05239062e-08,1.94092188e-01
-4.04839062e-08,1.94106250e-01
-4.04439062e-08,1.94093750e-01
-4.04039062e-08,1.94106250e-01
-4.03639063e-08,1.94092188e-01
-4.03239062e-08,1.94109375e-01
-4.02839062e-08,1.94089063e-01
-4.02439062e-08,1.94115625e-01
-4.02039062e-08,1.94075000e-01
-4.01639062e-08,1.94150000e-01
-4.01239062e-08,1.93896875e-01
-4.00839063e-08,1.93640625e-01
-4.00439062e-08,1.93735938e-01
-4.00039062e-08,1.93671875e-01
-3.99639062e-08,1.93723438e-01
-3.99239062e-08,1.93679688e-01
-3.98839062e-08,1.93718750e-01
-3.98439063e-08,1.93681250e-01
-3.98039062e-08,1.93717187e-01
-3.97639062e-08,1.93682812e-01
-3.97239062e-08,1.93718750e-01
-3.96839062e-08,1.93681250e-01
-3.96439062e-08,1.93721875e-01
-3.96039062e-08,1.93676563e-01
-3.95639063e-08,1.93728125e-01
-3.95239062e-08,1.93662500e-01
-3.94839062e-08,1.93762500e-01
-3.94439062e-08,1.93484375e-01
-3.94039062e-08,1.93253125e-01
-3.93639062e-08,1.93323438e-01
-3.93239062e-08,1.93285938e-01
-3.92839063e-08,1.93307813e-01
-3.92439062e-08,1.93295313e-01
-3.92039062e-08,1.93303125e-01
-3.91639062e-08,1.93298438e-01
-3.91239062e-08,1.93300000e-01
-3.90839062e-08,1.93301562e-01
-3.90439062e-08,1.93298438e-01
-3.90039063e-08,1.93303125e-01
-3.89639062e-08,1.93296875e-01
-3.89239062e-08,1.93304688e-01
-3.88839062e-08,1.93293750e-01
-3.88439062e-08,1.93306250e-01
-3.88039062e-08,1.93292188e-01
-3.87639062e-08,1.93309375e-01
-3.87239063e-08,1.93287500e-01
-3.86839062e-08,1.93315625e-01
-3.86439062e-08,1.93279688e-01
-3.86039062e-08,1.93331250e-01
-3.85639062e-08,1.93243750e-01
-3.85239062e-08,1.93509375e-01
