trails/0bdfa5e45fec98341abdd20552c140b4/aes_ch1_20250507123808643.csv

Model,MSO66B
Label,
Waveform Type,ANALOG
Horizontal Units,s
Sample Interval,4.00000000e-11
Record Length,10000
Zero Index,1599.10156250
Vertical Units,A
ANALOG_Thumbnail,
yOffset,1.84500000e-01
yPosition,8.40000000e-01

Labels,
TIME,CH1
-6.39640625e-08,1.80442188e-01
-6.39240625e-08,1.80710938e-01
-6.38840625e-08,1.80951562e-01
-6.38440625e-08,1.80871875e-01
-6.38040625e-08,1.80918750e-01
-6.37640625e-08,1.80885938e-01
-6.37240625e-08,1.80910938e-01
-6.36840625e-08,1.80892187e-01
-6.36440625e-08,1.80907813e-01
-6.36040625e-08,1.80893750e-01
-6.35640625e-08,1.80904687e-01
-6.35240625e-08,1.80895313e-01
-6.34840625e-08,1.80903125e-01
-6.34440625e-08,1.80896875e-01
-6.34040625e-08,1.80903125e-01
-6.33640625e-08,1.80898438e-01
-6.33240625e-08,1.80901563e-01
-6.32840625e-08,1.80900000e-01
-6.32440625e-08,1.80900000e-01
-6.32040625e-08,1.80901563e-01
-6.31640625e-08,1.80898438e-01
-6.31240625e-08,1.80903125e-01
-6.30840625e-08,1.80895313e-01
-6.30440625e-08,1.80906250e-01
-6.30040625e-08,1.80890625e-01
-6.29640625e-08,1.80915625e-01
-6.29240625e-08,1.80875000e-01
-6.28840625e-08,1.80950000e-01
-6.28440625e-08,1.80696875e-01
-6.28040625e-08,1.80440625e-01
-6.27640625e-08,1.80535938e-01
-6.27240625e-08,1.80473438e-01
-6.26840625e-08,1.80521875e-01
-6.26440625e-08,1.80481250e-01
-6.26040625e-08,1.80517188e-01
-6.25640625e-08,1.80484375e-01
-6.25240625e-08,1.80514063e-01
-6.24840625e-08,1.80485937e-01
-6.24440625e-08,1.80512500e-01
-6.24040625e-08,1.80487500e-01
-6.23640625e-08,1.80512500e-01
-6.23240625e-08,1.80487500e-01
-6.22840625e-08,1.80512500e-01
-6.22440625e-08,1.80489063e-01
-6.22040625e-08,1.80510937e-01
-6.21640625e-08,1.80487500e-01
-6.21240625e-08,1.80512500e-01
-6.20840625e-08,1.80487500e-01
-6.20440625e-08,1.80512500e-01
-6.20040625e-08,1.80487500e-01
-6.19640625e-08,1.80514063e-01
-6.19240625e-08,1.80485937e-01
-6.18840625e-08,1.80515625e-01
-6.18440625e-08,1.80484375e-01
-6.18040625e-08,1.80517188e-01
-6.17640625e-08,1.80479688e-01
-6.17240625e-08,1.80523437e-01
-6.16840625e-08,1.80471875e-01
-6.16440625e-08,1.80537500e-01
-6.16040625e-08,1.80437500e-01
-6.15640625e-08,1.80715625e-01
-6.15240625e-08,1.80945313e-01
-6.14840625e-08,1.80878125e-01
-6.14440625e-08,1.80912500e-01
-6.14040625e-08,1.80893750e-01
-6.13640625e-08,1.80903125e-01
-6.13240625e-08,1.80900000e-01
-6.12840625e-08,1.80898438e-01
-6.12440625e-08,1.80904687e-01
-6.12040625e-08,1.80892187e-01
-6.11640625e-08,1.80910938e-01
-6.11240625e-08,1.80882813e-01
-6.10840625e-08,1.80926562e-01
-6.10440625e-08,1.80848438e-01
-6.10040625e-08,1.81104688e-01
-6.09640625e-08,1.81356250e-01
-6.09240625e-08,1.81267188e-01
-6.08840625e-08,1.81323438e-01
-6.08440625e-08,1.81281250e-01
-6.08040625e-08,1.81315625e-01
-6.07640625e-08,1.81285937e-01
-6.07240625e-08,1.81312500e-01
-6.06840625e-08,1.81289063e-01
-6.06440625e-08,1.81310938e-01
-6.06040625e-08,1.81289063e-01
-6.05640625e-08,1.81310938e-01
-6.05240625e-08,1.81289063e-01
-6.04840625e-08,1.81310938e-01
-6.04440625e-08,1.81289063e-01
-6.04040625e-08,1.81312500e-01
-6.03640625e-08,1.81287500e-01
-6.03240625e-08,1.81315625e-01
-6.02840625e-08,1.81282813e-01
-6.02440625e-08,1.81323438e-01
-6.02040625e-08,1.81267188e-01
-6.01640625e-08,1.81357812e-01
-6.01240625e-08,1.81089063e-01
-6.00840625e-08,1.80848438e-01
-6.00440625e-08,1.80928125e-01
-6.00040625e-08,1.80881250e-01
-5.99640625e-08,1.80912500e-01
-5.99240625e-08,1.80890625e-01
-5.98840625e-08,1.80906250e-01
-5.98440625e-08,1.80896875e-01
-5.98040625e-08,1.80900000e-01
-5.97640625e-08,1.80906250e-01
-5.97240625e-08,1.80884375e-01
-5.96840625e-08,1.80940625e-01
-5.96440625e-08,1.80706250e-01
-5.96040625e-08,1.80429688e-01
-5.95640625e-08,1.80546875e-01
-5.95240625e-08,1.80460938e-01
-5.94840625e-08,1.80535938e-01
-5.94440625e-08,1.80464062e-01
-5.94040625e-08,1.80540625e-01
-5.93640625e-08,1.80451562e-01
-5.93240625e-08,1.80571875e-01
-5.92840625e-08,1.80275000e-01
-5.92440625e-08,1.80062500e-01
-5.92040625e-08,1.80112500e-01
-5.91640625e-08,1.80096875e-01
-5.91240625e-08,1.80096875e-01
-5.90840625e-08,1.80107813e-01
-5.90440625e-08,1.80087500e-01
-5.90040625e-08,1.80118750e-01
-5.89640625e-08,1.80070312e-01
-5.89240625e-08,1.80154687e-01
-5.88840625e-08,1.79892187e-01
-5.88440625e-08,1.79646875e-01
-5.88040625e-08,1.79729688e-01
-5.87640625e-08,1.79679688e-01
-5.87240625e-08,1.79714062e-01
-5.86840625e-08,1.79689062e-01
-5.86440625e-08,1.79709375e-01
-5.86040625e-08,1.79692188e-01
-5.85640625e-08,1.79706250e-01
-5.85240625e-08,1.79693750e-01
-5.84840625e-08,1.79704688e-01
-5.84440625e-08,1.79695313e-01
-5.84040625e-08,1.79703125e-01
-5.83640625e-08,1.79696875e-01
-5.83240625e-08,1.79703125e-01
-5.82840625e-08,1.79696875e-01
-5.82440625e-08,1.79703125e-01
-5.82040625e-08,1.79696875e-01
-5.81640625e-08,1.79703125e-01
-5.81240625e-08,1.79696875e-01
-5.80840625e-08,1.79703125e-01
-5.80440625e-08,1.79696875e-01
-5.80040625e-08,1.79703125e-01
-5.79640625e-08,1.79696875e-01
-5.79240625e-08,1.79703125e-01
-5.78840625e-08,1.79695313e-01
-5.78440625e-08,1.79706250e-01
-5.78040625e-08,1.79692188e-01
-5.77640625e-08,1.79709375e-01
-5.77240625e-08,1.79685938e-01
-5.76840625e-08,1.79723437e-01
-5.76440625e-08,1.79651563e-01
-5.76040625e-08,1.79901563e-01
-5.75640625e-08,1.80162500e-01
-5.75240625e-08,1.80060938e-01
-5.74840625e-08,1.80129687e-01
-5.74440625e-08,1.80073438e-01
-5.74040625e-08,1.80125000e-01
-5.73640625e-08,1.80076563e-01
-5.73240625e-08,1.80123438e-01
-5.72840625e-08,1.80075000e-01
-5.72440625e-08,1.80128125e-01
-5.72040625e-08,1.80067188e-01
-5.71640625e-08,1.80142187e-01
-5.71240625e-08,1.80032813e-01
-5.70840625e-08,1.80320312e-01
-5.70440625e-08,1.80542188e-01
-5.70040625e-08,1.80481250e-01
-5.69640625e-08,1.80507813e-01
-5.69240625e-08,1.80496875e-01
-5.68840625e-08,1.80500000e-01
-5.68440625e-08,1.80503125e-01
-5.68040625e-08,1.80493750e-01
-5.67640625e-08,1.80509375e-01
-5.67240625e-08,1.80487500e-01
-5.66840625e-08,1.80515625e-01
-5.66440625e-08,1.80478125e-01
-5.66040625e-08,1.80532813e-01
-5.65640625e-08,1.80442188e-01
-5.65240625e-08,1.80710938e-01
-5.64840625e-08,1.80950000e-01
-5.64440625e-08,1.80875000e-01
-5.64040625e-08,1.80915625e-01
-5.63640625e-08,1.80890625e-01
-5.63240625e-08,1.80904687e-01
-5.62840625e-08,1.80898438e-01
-5.62440625e-08,1.80896875e-01
-5.62040625e-08,1.80906250e-01
-5.61640625e-08,1.80887500e-01
-5.61240625e-08,1.80923438e-01
-5.60840625e-08,1.80851563e-01
-5.60440625e-08,1.81103125e-01
-5.60040625e-08,1.81359375e-01
-5.59640625e-08,1.81265625e-01
-5.59240625e-08,1.81325000e-01
-5.58840625e-08,1.81279688e-01
-5.58440625e-08,1.81317188e-01
-5.58040625e-08,1.81285937e-01
-5.57640625e-08,1.81312500e-01
-5.57240625e-08,1.81289063e-01
-5.56840625e-08,1.81310938e-01
-5.56440625e-08,1.81290625e-01
-5.56040625e-08,1.81309375e-01
-5.55640625e-08,1.81292188e-01
-5.55240625e-08,1.81307812e-01
-5.54840625e-08,1.81292188e-01
-5.54440625e-08,1.81306250e-01
-5.54040625e-08,1.81293750e-01
-5.53640625e-08,1.81306250e-01
-5.53240625e-08,1.81293750e-01
-5.52840625e-08,1.81304688e-01
-5.52440625e-08,1.81295312e-01
-5.52040625e-08,1.81304688e-01
-5.51640625e-08,1.81295312e-01
-5.51240625e-08,1.81304688e-01
-5.50840625e-08,1.81295312e-01
-5.50440625e-08,1.81304688e-01
-5.50040625e-08,1.81295312e-01
-5.49640625e-08,1.81304688e-01
-5.49240625e-08,1.81296875e-01
-5.48840625e-08,1.81303125e-01
-5.48440625e-08,1.81296875e-01
-5.48040625e-08,1.81303125e-01
-5.47640625e-08,1.81296875e-01
-5.47240625e-08,1.81303125e-01
-5.46840625e-08,1.81296875e-01
-5.46440625e-08,1.81303125e-01
-5.46040625e-08,1.81296875e-01
-5.45640625e-08,1.81303125e-01
-5.45240625e-08,1.81296875e-01
-5.44840625e-08,1.81303125e-01
-5.44440625e-08,1.81296875e-01
-5.44040625e-08,1.81303125e-01
-5.43640625e-08,1.81296875e-01
-5.43240625e-08,1.81303125e-01
-5.42840625e-08,1.81296875e-01
-5.42440625e-08,1.81303125e-01
-5.42040625e-08,1.81296875e-01
-5.41640625e-08,1.81303125e-01
-5.41240625e-08,1.81296875e-01
-5.40840625e-08,1.81303125e-01
-5.40440625e-08,1.81296875e-01
-5.40040625e-08,1.81303125e-01
-5.39640625e-08,1.81295312e-01
-5.39240625e-08,1.81304688e-01
-5.38840625e-08,1.81295312e-01
-5.38440625e-08,1.81304688e-01
-5.38040625e-08,1.81293750e-01
-5.37640625e-08,1.81306250e-01
-5.37240625e-08,1.81292188e-01
-5.36840625e-08,1.81310938e-01
-5.36440625e-08,1.81287500e-01
-5.36040625e-08,1.81317188e-01
-5.35640625e-08,1.81273437e-01
-5.35240625e-08,1.81351563e-01
-5.34840625e-08,1.81095312e-01
-5.34440625e-08,1.80842188e-01
-5.34040625e-08,1.80934375e-01
-5.33640625e-08,1.80875000e-01
-5.33240625e-08,1.80920313e-01
-5.32840625e-08,1.80882813e-01
-5.32440625e-08,1.80915625e-01
-5.32040625e-08,1.80884375e-01
-5.31640625e-08,1.80915625e-01
-5.31240625e-08,1.80885938e-01
-5.30840625e-08,1.80915625e-01
-5.30440625e-08,1.80884375e-01
-5.30040625e-08,1.80915625e-01
-5.29640625e-08,1.80882813e-01
-5.29240625e-08,1.80920313e-01
-5.28840625e-08,1.80876563e-01
-5.28440625e-08,1.80928125e-01
-5.28040625e-08,1.80862500e-01
-5.27640625e-08,1.80962500e-01
-5.27240625e-08,1.80682813e-01
-5.26840625e-08,1.80454688e-01
-5.26440625e-08,1.80520313e-01
-5.26040625e-08,1.80489063e-01
-5.25640625e-08,1.80504688e-01
-5.25240625e-08,1.80501563e-01
-5.24840625e-08,1.80493750e-01
-5.24440625e-08,1.80512500e-01
-5.24040625e-08,1.80476562e-01
-5.23640625e-08,1.80548438e-01
-5.23240625e-08,1.80296875e-01
-5.22840625e-08,1.80040625e-01
-5.22440625e-08,1.80135938e-01
-5.22040625e-08,1.80075000e-01
-5.21640625e-08,1.80120313e-01
-5.21240625e-08,1.80082812e-01
-5.20840625e-08,1.80115625e-01
-5.20440625e-08,1.80085938e-01
-5.20040625e-08,1.80112500e-01
-5.19640625e-08,1.80089063e-01
-5.19240625e-08,1.80110938e-01
-5.18840625e-08,1.80090625e-01
-5.18440625e-08,1.80109375e-01
-5.18040625e-08,1.80090625e-01
-5.17640625e-08,1.80109375e-01
-5.17240625e-08,1.80090625e-01
-5.16840625e-08,1.80109375e-01
-5.16440625e-08,1.80090625e-01
-5.16040625e-08,1.80109375e-01
-5.15640625e-08,1.80090625e-01
-5.15240625e-08,1.80109375e-01
-5.14840625e-08,1.80089063e-01
-5.14440625e-08,1.80110938e-01
-5.14040625e-08,1.80087500e-01
-5.13640625e-08,1.80114063e-01
-5.13240625e-08,1.80084375e-01
-5.12840625e-08,1.80118750e-01
-5.12440625e-08,1.80075000e-01
-5.12040625e-08,1.80134375e-01
-5.11640625e-08,1.80039063e-01
-5.11240625e-08,1.80314063e-01
-5.10840625e-08,1.80546875e-01
-5.10440625e-08,1.80479688e-01
-5.10040625e-08,1.80506250e-01
-5.09640625e-08,1.80506250e-01
-5.09240625e-08,1.80465625e-01
-5.08840625e-08,1.80687500e-01
-5.08440625e-08,1.80975000e-01
-5.08040625e-08,1.80846875e-01
-5.07640625e-08,1.80945313e-01
-5.07240625e-08,1.80854687e-01
-5.06840625e-08,1.80953125e-01
-5.06440625e-08,1.80825000e-01
-5.06040625e-08,1.81128125e-01
-5.05640625e-08,1.81334375e-01
-5.05240625e-08,1.81289063e-01
-5.04840625e-08,1.81300000e-01
-5.04440625e-08,1.81306250e-01
-5.04040625e-08,1.81285937e-01
-5.03640625e-08,1.81325000e-01
-5.03240625e-08,1.81248437e-01
-5.02840625e-08,1.81504688e-01
-5.02440625e-08,1.81757813e-01
-5.02040625e-08,1.81667187e-01
-5.01640625e-08,1.81723438e-01
-5.01240625e-08,1.81681250e-01
-5.00840625e-08,1.81715625e-01
-5.00440625e-08,1.81685938e-01
-5.00040625e-08,1.81714062e-01
-4.99640625e-08,1.81687500e-01
-4.99240625e-08,1.81712500e-01
-4.98840625e-08,1.81685938e-01
-4.98440625e-08,1.81715625e-01
-4.98040625e-08,1.81682813e-01
-4.97640625e-08,1.81721875e-01
-4.97240625e-08,1.81668750e-01
-4.96840625e-08,1.81756250e-01
-4.96440625e-08,1.81492188e-01
-4.96040625e-08,1.81245313e-01
-4.95640625e-08,1.81331250e-01
-4.95240625e-08,1.81278125e-01
-4.94840625e-08,1.81317188e-01
-4.94440625e-08,1.81284375e-01
-4.94040625e-08,1.81314063e-01
-4.93640625e-08,1.81287500e-01
-4.93240625e-08,1.81312500e-01
-4.92840625e-08,1.81287500e-01
-4.92440625e-08,1.81312500e-01
-4.92040625e-08,1.81285937e-01
-4.91640625e-08,1.81315625e-01
-4.91240625e-08,1.81282813e-01
-4.90840625e-08,1.81321875e-01
-4.90440625e-08,1.81268750e-01
-4.90040625e-08,1.81354688e-01
-4.89640625e-08,1.81092188e-01
-4.89240625e-08,1.80843750e-01
-4.88840625e-08,1.80932813e-01
-4.88440625e-08,1.80875000e-01
-4.88040625e-08,1.80923438e-01
-4.87640625e-08,1.80875000e-01
-4.87240625e-08,1.80932813e-01
-4.86840625e-08,1.80843750e-01
-4.86440625e-08,1.81107813e-01
-4.86040625e-08,1.81356250e-01
-4.85640625e-08,1.81267188e-01
-4.85240625e-08,1.81325000e-01
-4.84840625e-08,1.81279688e-01
-4.84440625e-08,1.81318750e-01
-4.84040625e-08,1.81281250e-01
-4.83640625e-08,1.81317188e-01
-4.83240625e-08,1.81281250e-01
-4.82840625e-08,1.81318750e-01
-4.82440625e-08,1.81278125e-01
-4.82040625e-08,1.81325000e-01
-4.81640625e-08,1.81270313e-01
-4.81240625e-08,1.81339063e-01
-4.80840625e-08,1.81235937e-01
-4.80440625e-08,1.81517188e-01
-4.80040625e-08,1.81743750e-01
-4.79640625e-08,1.81679688e-01
-4.79240625e-08,1.81709375e-01
-4.78840625e-08,1.81695313e-01
-4.78440625e-08,1.81700000e-01
-4.78040625e-08,1.81703125e-01
-4.77640625e-08,1.81692188e-01
-4.77240625e-08,1.81710938e-01
-4.76840625e-08,1.81682813e-01
-4.76440625e-08,1.81728125e-01
-4.76040625e-08,1.81646875e-01
-4.75640625e-08,1.81906250e-01
-4.75240625e-08,1.82154687e-01
-4.74840625e-08,1.82070312e-01
-4.74440625e-08,1.82120313e-01
-4.74040625e-08,1.82084375e-01
-4.73640625e-08,1.82112500e-01
-4.73240625e-08,1.82090625e-01
-4.72840625e-08,1.82107812e-01
-4.72440625e-08,1.82093750e-01
-4.72040625e-08,1.82104688e-01
-4.71640625e-08,1.82096875e-01
-4.71240625e-08,1.82103125e-01
-4.70840625e-08,1.82098438e-01
-4.70440625e-08,1.82100000e-01
-4.70040625e-08,1.82100000e-01
-4.69640625e-08,1.82098438e-01
-4.69240625e-08,1.82103125e-01
-4.68840625e-08,1.82095312e-01
-4.68440625e-08,1.82104688e-01
-4.68040625e-08,1.82092188e-01
-4.67640625e-08,1.82109375e-01
-4.67240625e-08,1.82087500e-01
-4.66840625e-08,1.82118750e-01
-4.66440625e-08,1.82071875e-01
-4.66040625e-08,1.82153125e-01
-4.65640625e-08,1.81892187e-01
-4.65240625e-08,1.81645313e-01
-4.64840625e-08,1.81729688e-01
-4.64440625e-08,1.81679688e-01
-4.64040625e-08,1.81715625e-01
-4.63640625e-08,1.81689062e-01
-4.63240625e-08,1.81709375e-01
-4.62840625e-08,1.81693750e-01
-4.62440625e-08,1.81704688e-01
-4.62040625e-08,1.81698438e-01
-4.61640625e-08,1.81700000e-01
-4.61240625e-08,1.81703125e-01
-4.60840625e-08,1.81693750e-01
-4.60440625e-08,1.81712500e-01
-4.60040625e-08,1.81678125e-01
-4.59640625e-08,1.81746875e-01
-4.59240625e-08,1.81500000e-01
-4.58840625e-08,1.81239063e-01
-4.58440625e-08,1.81337500e-01
-4.58040625e-08,1.81271875e-01
-4.57640625e-08,1.81321875e-01
-4.57240625e-08,1.81281250e-01
-4.56840625e-08,1.81317188e-01
-4.56440625e-08,1.81284375e-01
-4.56040625e-08,1.81314063e-01
-4.55640625e-08,1.81287500e-01
-4.55240625e-08,1.81312500e-01
-4.54840625e-08,1.81289063e-01
-4.54440625e-08,1.81310938e-01
-4.54040625e-08,1.81289063e-01
-4.53640625e-08,1.81309375e-01
-4.53240625e-08,1.81290625e-01
-4.52840625e-08,1.81309375e-01
-4.52440625e-08,1.81290625e-01
-4.52040625e-08,1.81307812e-01
-4.51640625e-08,1.81292188e-01
-4.51240625e-08,1.81307812e-01
-4.50840625e-08,1.81292188e-01
-4.50440625e-08,1.81307812e-01
-4.50040625e-08,1.81292188e-01
-4.49640625e-08,1.81307812e-01
-4.49240625e-08,1.81292188e-01
-4.48840625e-08,1.81307812e-01
-4.48440625e-08,1.81293750e-01
-4.48040625e-08,1.81306250e-01
-4.47640625e-08,1.81293750e-01
-4.47240625e-08,1.81306250e-01
-4.46840625e-08,1.81293750e-01
-4.46440625e-08,1.81306250e-01
-4.46040625e-08,1.81293750e-01
-4.45640625e-08,1.81306250e-01
-4.45240625e-08,1.81293750e-01
-4.44840625e-08,1.81306250e-01
-4.44440625e-08,1.81293750e-01
-4.44040625e-08,1.81306250e-01
-4.43640625e-08,1.81293750e-01
-4.43240625e-08,1.81306250e-01
-4.42840625e-08,1.81293750e-01
-4.42440625e-08,1.81306250e-01
-4.42040625e-08,1.81293750e-01
-4.41640625e-08,1.81306250e-01
-4.41240625e-08,1.81293750e-01
-4.40840625e-08,1.81306250e-01
-4.40440625e-08,1.81293750e-01
-4.40040625e-08,1.81306250e-01
-4.39640625e-08,1.81293750e-01
-4.39240625e-08,1.81306250e-01
-4.38840625e-08,1.81293750e-01
-4.38440625e-08,1.81306250e-01
-4.38040625e-08,1.81293750e-01
-4.37640625e-08,1.81306250e-01
-4.37240625e-08,1.81293750e-01
-4.36840625e-08,1.81306250e-01
-4.36440625e-08,1.81293750e-01
-4.36040625e-08,1.81306250e-01
-4.35640625e-08,1.81293750e-01
-4.35240625e-08,1.81306250e-01
-4.34840625e-08,1.81293750e-01
-4.34440625e-08,1.81306250e-01
-4.34040625e-08,1.81293750e-01
-4.33640625e-08,1.81306250e-01
-4.33240625e-08,1.81292188e-01
-4.32840625e-08,1.81307812e-01
-4.32440625e-08,1.81292188e-01
-4.32040625e-08,1.81307812e-01
-4.31640625e-08,1.81292188e-01
-4.31240625e-08,1.81309375e-01
-4.30840625e-08,1.81290625e-01
-4.30440625e-08,1.81310938e-01
-4.30040625e-08,1.81289063e-01
-4.29640625e-08,1.81312500e-01
-4.29240625e-08,1.81284375e-01
-4.28840625e-08,1.81318750e-01
-4.28440625e-08,1.81276563e-01
-4.28040625e-08,1.81332812e-01
-4.27640625e-08,1.81242188e-01
-4.27240625e-08,1.81510937e-01
-4.26840625e-08,1.81751563e-01
-4.26440625e-08,1.81671875e-01
-4.26040625e-08,1.81718750e-01
-4.25640625e-08,1.81685938e-01
-4.25240625e-08,1.81710938e-01
-4.24840625e-08,1.81690625e-01
-4.24440625e-08,1.81707813e-01
-4.24040625e-08,1.81693750e-01
-4.23640625e-08,1.81706250e-01
-4.23240625e-08,1.81693750e-01
-4.22840625e-08,1.81704688e-01
-4.22440625e-08,1.81695313e-01
-4.22040625e-08,1.81704688e-01
-4.21640625e-08,1.81695313e-01
-4.21240625e-08,1.81704688e-01
-4.20840625e-08,1.81695313e-01
-4.20440625e-08,1.81706250e-01
-4.20040625e-08,1.81693750e-01
-4.19640625e-08,1.81707813e-01
-4.19240625e-08,1.81692188e-01
-4.18840625e-08,1.81710938e-01
-4.18440625e-08,1.81685938e-01
-4.18040625e-08,1.81718750e-01
-4.17640625e-08,1.81671875e-01
-4.17240625e-08,1.81751563e-01
-4.16840625e-08,1.81495313e-01
-4.16440625e-08,1.81242188e-01
-4.16040625e-08,1.81334375e-01
-4.15640625e-08,1.81275000e-01
-4.15240625e-08,1.81320312e-01
-4.14840625e-08,1.81282813e-01
-4.14440625e-08,1.81315625e-01
-4.14040625e-08,1.81285937e-01
-4.13640625e-08,1.81314063e-01
-4.13240625e-08,1.81287500e-01
-4.12840625e-08,1.81312500e-01
-4.12440625e-08,1.81287500e-01
-4.12040625e-08,1.81312500e-01
-4.11640625e-08,1.81287500e-01
-4.11240625e-08,1.81312500e-01
-4.10840625e-08,1.81285937e-01
-4.10440625e-08,1.81314063e-01
-4.10040625e-08,1.81284375e-01
-4.09640625e-08,1.81318750e-01
-4.09240625e-08,1.81279688e-01
-4.08840625e-08,1.81326563e-01
-4.08440625e-08,1.81264063e-01
-4.08040625e-08,1.81360938e-01
-4.07640625e-08,1.81085938e-01
-4.07240625e-08,1.80851563e-01
-4.06840625e-08,1.80925000e-01
-4.06440625e-08,1.80884375e-01
-4.06040625e-08,1.80910938e-01
-4.05640625e-08,1.80892187e-01
-4.05240625e-08,1.80904687e-01
-4.04840625e-08,1.80896875e-01
-4.04440625e-08,1.80903125e-01
-4.04040625e-08,1.80898438e-01
-4.03640625e-08,1.80901563e-01
-4.03240625e-08,1.80900000e-01
-4.02840625e-08,1.80900000e-01
-4.02440625e-08,1.80901563e-01
-4.02040625e-08,1.80898438e-01
-4.01640625e-08,1.80901563e-01
-4.01240625e-08,1.80898438e-01
-4.00840625e-08,1.80903125e-01
-4.00440625e-08,1.80896875e-01
-4.00040625e-08,1.80903125e-01
-3.99640625e-08,1.80895313e-01
-3.99240625e-08,1.80904687e-01
-3.98840625e-08,1.80895313e-01
-3.98440625e-08,1.80906250e-01
-3.98040625e-08,1.80893750e-01
-3.97640625e-08,1.80906250e-01
-3.97240625e-08,1.80892187e-01
-3.96840625e-08,1.80909375e-01
-3.96440625e-08,1.80889063e-01
-3.96040625e-08,1.80912500e-01
-3.95640625e-08,1.80885938e-01
-3.95240625e-08,1.80917188e-01
-3.94840625e-08,1.80876563e-01
-3.94440625e-08,1.80932813e-01
-3.94040625e-08,1.80842188e-01
-3.93640625e-08,1.81110938e-01
-3.93240625e-08,1.81350000e-01
-3.92840625e-08,1.81273437e-01
-3.92440625e-08,1.81315625e-01
-3.92040625e-08,1.81289063e-01
-3.91640625e-08,1.81306250e-01
-3.91240625e-08,1.81295312e-01
-3.90840625e-08,1.81301563e-01
-3.90440625e-08,1.81301563e-01
-3.90040625e-08,1.81295312e-01
-3.89640625e-08,1.81307812e-01
-3.89240625e-08,1.81285937e-01
-3.88840625e-08,1.81323438e-01
-3.88440625e-08,1.81251563e-01
-3.88040625e-08,1.81503125e-01
-3.87640625e-08,1.81759375e-01
-3.87240625e-08,1.81664063e-01
-3.86840625e-08,1.81725000e-01
-3.86440625e-08,1.81679688e-01
-3.86040625e-08,1.81717188e-01
-3.85640625e-08,1.81684375e-01
-3.85240625e-08,1.81714062e-01
