trails/0bdfa5e45fec98341abdd20552c140b4/aes_ch1_20250507115052790.csv

Model,MSO66B
Label,
Waveform Type,ANALOG
Horizontal Units,s
Sample Interval,4.00000000e-11
Record Length,10000
Zero Index,1599.04296875
Vertical Units,A
ANALOG_Thumbnail,
yOffset,1.84500000e-01
yPosition,8.40000000e-01

Labels,
TIME,CH1
-6.39617187e-08,1.91667188e-01
-6.39217187e-08,1.91757813e-01
-6.38817188e-08,1.91490625e-01
-6.38417187e-08,1.91246875e-01
-6.38017187e-08,1.91328125e-01
-6.37617187e-08,1.91281250e-01
-6.37217187e-08,1.91314062e-01
-6.36817187e-08,1.91287500e-01
-6.36417187e-08,1.91309375e-01
-6.36017188e-08,1.91292188e-01
-6.35617187e-08,1.91307813e-01
-6.35217187e-08,1.91293750e-01
-6.34817187e-08,1.91306250e-01
-6.34417187e-08,1.91293750e-01
-6.34017187e-08,1.91306250e-01
-6.33617187e-08,1.91295313e-01
-6.33217188e-08,1.91304688e-01
-6.32817187e-08,1.91295313e-01
-6.32417187e-08,1.91304688e-01
-6.32017187e-08,1.91295313e-01
-6.31617187e-08,1.91304688e-01
-6.31217187e-08,1.91295313e-01
-6.30817187e-08,1.91304688e-01
-6.30417188e-08,1.91295313e-01
-6.30017187e-08,1.91304688e-01
-6.29617187e-08,1.91295313e-01
-6.29217187e-08,1.91304688e-01
-6.28817187e-08,1.91293750e-01
-6.28417188e-08,1.91306250e-01
-6.28017187e-08,1.91293750e-01
-6.27617188e-08,1.91306250e-01
-6.27217187e-08,1.91293750e-01
-6.26817187e-08,1.91307813e-01
-6.26417187e-08,1.91292188e-01
-6.26017187e-08,1.91307813e-01
-6.25617188e-08,1.91290625e-01
-6.25217187e-08,1.91309375e-01
-6.24817188e-08,1.91289062e-01
-6.24417187e-08,1.91310938e-01
-6.24017187e-08,1.91287500e-01
-6.23617187e-08,1.91315625e-01
-6.23217187e-08,1.91281250e-01
-6.22817188e-08,1.91323437e-01
-6.22417187e-08,1.91267188e-01
-6.22017188e-08,1.91357813e-01
-6.21617187e-08,1.91087500e-01
-6.21217187e-08,1.90850000e-01
-6.20817187e-08,1.90926563e-01
-6.20417187e-08,1.90882812e-01
-6.20017188e-08,1.90910938e-01
-6.19617187e-08,1.90892188e-01
-6.19217188e-08,1.90906250e-01
-6.18817187e-08,1.90895312e-01
-6.18417187e-08,1.90903125e-01
-6.18017187e-08,1.90898438e-01
-6.17617187e-08,1.90900000e-01
-6.17217188e-08,1.90900000e-01
-6.16817187e-08,1.90898438e-01
-6.16417188e-08,1.90903125e-01
-6.16017187e-08,1.90895312e-01
-6.15617187e-08,1.90906250e-01
-6.15217187e-08,1.90892188e-01
-6.14817187e-08,1.90909375e-01
-6.14417188e-08,1.90887500e-01
-6.14017187e-08,1.90918750e-01
-6.13617188e-08,1.90871875e-01
-6.13217187e-08,1.90953125e-01
-6.12817187e-08,1.90693750e-01
-6.12417187e-08,1.90445313e-01
-6.12017187e-08,1.90531250e-01
-6.11617188e-08,1.90478125e-01
-6.11217187e-08,1.90517188e-01
-6.10817188e-08,1.90485938e-01
-6.10417187e-08,1.90510938e-01
-6.10017187e-08,1.90490625e-01
-6.09617187e-08,1.90507813e-01
-6.09217187e-08,1.90492188e-01
-6.08817188e-08,1.90506250e-01
-6.08417187e-08,1.90493750e-01
-6.08017188e-08,1.90504688e-01
-6.07617187e-08,1.90495313e-01
-6.07217187e-08,1.90504688e-01
-6.06817187e-08,1.90496875e-01
-6.06417187e-08,1.90503125e-01
-6.06017188e-08,1.90496875e-01
-6.05617187e-08,1.90503125e-01
-6.05217187e-08,1.90498438e-01
-6.04817187e-08,1.90501562e-01
-6.04417187e-08,1.90498438e-01
-6.04017187e-08,1.90501562e-01
-6.03617187e-08,1.90498438e-01
-6.03217188e-08,1.90500000e-01
-6.02817187e-08,1.90500000e-01
-6.02417187e-08,1.90500000e-01
-6.02017187e-08,1.90500000e-01
-6.01617187e-08,1.90500000e-01
-6.01217187e-08,1.90501562e-01
-6.00817187e-08,1.90498438e-01
-6.00417188e-08,1.90501562e-01
-6.00017187e-08,1.90498438e-01
-5.99617187e-08,1.90503125e-01
-5.99217187e-08,1.90496875e-01
-5.98817187e-08,1.90503125e-01
-5.98417187e-08,1.90495313e-01
-5.98017187e-08,1.90504688e-01
-5.97617188e-08,1.90495313e-01
-5.97217187e-08,1.90506250e-01
-5.96817187e-08,1.90492188e-01
-5.96417187e-08,1.90509375e-01
-5.96017187e-08,1.90489063e-01
-5.95617187e-08,1.90512500e-01
-5.95217187e-08,1.90484375e-01
-5.94817187e-08,1.90521875e-01
-5.94417187e-08,1.90468750e-01
-5.94017187e-08,1.90556250e-01
-5.93617187e-08,1.90290625e-01
-5.93217187e-08,1.90048438e-01
-5.92817187e-08,1.90128125e-01
-5.92417187e-08,1.90081250e-01
-5.92017187e-08,1.90112500e-01
-5.91617187e-08,1.90090625e-01
-5.91217187e-08,1.90106250e-01
-5.90817187e-08,1.90095313e-01
-5.90417187e-08,1.90103125e-01
-5.90017187e-08,1.90098437e-01
-5.89617187e-08,1.90100000e-01
-5.89217187e-08,1.90101563e-01
-5.88817187e-08,1.90095313e-01
-5.88417187e-08,1.90106250e-01
-5.88017187e-08,1.90089063e-01
-5.87617187e-08,1.90115625e-01
-5.87217187e-08,1.90075000e-01
-5.86817187e-08,1.90151563e-01
-5.86417187e-08,1.89895312e-01
-5.86017187e-08,1.89642188e-01
-5.85617187e-08,1.89732813e-01
-5.85217187e-08,1.89676563e-01
-5.84817187e-08,1.89718750e-01
-5.84417187e-08,1.89685938e-01
-5.84017187e-08,1.89712500e-01
-5.83617187e-08,1.89689063e-01
-5.83217187e-08,1.89709375e-01
-5.82817187e-08,1.89692187e-01
-5.82417187e-08,1.89706250e-01
-5.82017187e-08,1.89695313e-01
-5.81617187e-08,1.89703125e-01
-5.81217187e-08,1.89696875e-01
-5.80817187e-08,1.89701563e-01
-5.80417187e-08,1.89700000e-01
-5.80017187e-08,1.89698438e-01
-5.79617187e-08,1.89704687e-01
-5.79217187e-08,1.89692187e-01
-5.78817187e-08,1.89714063e-01
-5.78417187e-08,1.89676563e-01
-5.78017187e-08,1.89748438e-01
-5.77617187e-08,1.89498438e-01
-5.77217187e-08,1.89240625e-01
-5.76817187e-08,1.89335937e-01
-5.76417187e-08,1.89275000e-01
-5.76017187e-08,1.89320313e-01
-5.75617187e-08,1.89284375e-01
-5.75217187e-08,1.89312500e-01
-5.74817187e-08,1.89289062e-01
-5.74417187e-08,1.89307813e-01
-5.74017187e-08,1.89295313e-01
-5.73617187e-08,1.89301563e-01
-5.73217187e-08,1.89303125e-01
-5.72817187e-08,1.89285938e-01
-5.72417187e-08,1.89339063e-01
-5.72017187e-08,1.89107812e-01
-5.71617187e-08,1.88829688e-01
-5.71217187e-08,1.88946875e-01
-5.70817187e-08,1.88862500e-01
-5.70417187e-08,1.88932813e-01
-5.70017187e-08,1.88868750e-01
-5.69617187e-08,1.88929687e-01
-5.69217187e-08,1.88870312e-01
-5.68817187e-08,1.88931250e-01
-5.68417187e-08,1.88867188e-01
-5.68017187e-08,1.88937500e-01
-5.67617187e-08,1.88853125e-01
-5.67217187e-08,1.88970313e-01
-5.66817187e-08,1.88676563e-01
-5.66417187e-08,1.88460938e-01
-5.66017187e-08,1.88515625e-01
-5.65617187e-08,1.88493750e-01
-5.65217187e-08,1.88501562e-01
-5.64817187e-08,1.88501562e-01
-5.64417187e-08,1.88495313e-01
-5.64017187e-08,1.88506250e-01
-5.63617187e-08,1.88493750e-01
-5.63217187e-08,1.88507813e-01
-5.62817187e-08,1.88490625e-01
-5.62417187e-08,1.88509375e-01
-5.62017187e-08,1.88489062e-01
-5.61617187e-08,1.88512500e-01
-5.61217187e-08,1.88485938e-01
-5.60817187e-08,1.88515625e-01
-5.60417187e-08,1.88482813e-01
-5.60017187e-08,1.88520313e-01
-5.59617187e-08,1.88473438e-01
-5.59217187e-08,1.88535938e-01
-5.58817187e-08,1.88439063e-01
-5.58417187e-08,1.88714063e-01
-5.58017187e-08,1.88946875e-01
-5.57617187e-08,1.88876563e-01
-5.57217187e-08,1.88914063e-01
-5.56817187e-08,1.88890625e-01
-5.56417187e-08,1.88906250e-01
-5.56017187e-08,1.88896875e-01
-5.55617187e-08,1.88901563e-01
-5.55217187e-08,1.88900000e-01
-5.54817187e-08,1.88898438e-01
-5.54417187e-08,1.88901563e-01
-5.54017187e-08,1.88896875e-01
-5.53617187e-08,1.88904688e-01
-5.53217187e-08,1.88895312e-01
-5.52817187e-08,1.88906250e-01
-5.52417187e-08,1.88892188e-01
-5.52017187e-08,1.88909375e-01
-5.51617187e-08,1.88889063e-01
-5.51217187e-08,1.88912500e-01
-5.50817187e-08,1.88884375e-01
-5.50417187e-08,1.88918750e-01
-5.50017187e-08,1.88876563e-01
-5.49617187e-08,1.88934375e-01
-5.49217187e-08,1.88840625e-01
-5.48817187e-08,1.89114063e-01
-5.48417187e-08,1.89346875e-01
-5.48017187e-08,1.89278125e-01
-5.47617187e-08,1.89310937e-01
-5.47217187e-08,1.89295313e-01
-5.46817187e-08,1.89298437e-01
-5.46417187e-08,1.89309375e-01
-5.46017187e-08,1.89279688e-01
-5.45617187e-08,1.89346875e-01
-5.45217187e-08,1.89100000e-01
-5.44817187e-08,1.88839063e-01
-5.44417187e-08,1.88937500e-01
-5.44017187e-08,1.88873438e-01
-5.43617187e-08,1.88921875e-01
-5.43217187e-08,1.88881250e-01
-5.42817187e-08,1.88915625e-01
-5.42417187e-08,1.88885938e-01
-5.42017187e-08,1.88912500e-01
-5.41617187e-08,1.88889063e-01
-5.41217187e-08,1.88910938e-01
-5.40817187e-08,1.88890625e-01
-5.40417187e-08,1.88909375e-01
-5.40017187e-08,1.88892188e-01
-5.39617187e-08,1.88907812e-01
-5.39217187e-08,1.88892188e-01
-5.38817187e-08,1.88906250e-01
-5.38417187e-08,1.88893750e-01
-5.38017187e-08,1.88906250e-01
-5.37617187e-08,1.88895312e-01
-5.37217187e-08,1.88904688e-01
-5.36817187e-08,1.88895312e-01
-5.36417187e-08,1.88903125e-01
-5.36017187e-08,1.88896875e-01
-5.35617187e-08,1.88901563e-01
-5.35217187e-08,1.88900000e-01
-5.34817187e-08,1.88898438e-01
-5.34417187e-08,1.88904688e-01
-5.34017187e-08,1.88890625e-01
-5.33617187e-08,1.88918750e-01
-5.33217187e-08,1.88856250e-01
-5.32817187e-08,1.89096875e-01
-5.32417188e-08,1.89365625e-01
-5.32017187e-08,1.89257813e-01
-5.31617187e-08,1.89332813e-01
-5.31217187e-08,1.89270313e-01
-5.30817187e-08,1.89326563e-01
-5.30417187e-08,1.89275000e-01
-5.30017187e-08,1.89325000e-01
-5.29617187e-08,1.89275000e-01
-5.29217187e-08,1.89326563e-01
-5.28817187e-08,1.89271875e-01
-5.28417187e-08,1.89329688e-01
-5.28017187e-08,1.89265625e-01
-5.27617187e-08,1.89345313e-01
-5.27217187e-08,1.89229688e-01
-5.26817187e-08,1.89523438e-01
-5.26417187e-08,1.89739062e-01
-5.26017187e-08,1.89684375e-01
-5.25617187e-08,1.89704687e-01
-5.25217187e-08,1.89701563e-01
-5.24817187e-08,1.89695313e-01
-5.24417187e-08,1.89707813e-01
-5.24017187e-08,1.89687500e-01
-5.23617187e-08,1.89715625e-01
-5.23217187e-08,1.89678125e-01
-5.22817187e-08,1.89732813e-01
-5.22417187e-08,1.89642188e-01
-5.22017187e-08,1.89912500e-01
-5.21617187e-08,1.90150000e-01
-5.21217187e-08,1.90075000e-01
-5.20817187e-08,1.90115625e-01
-5.20417187e-08,1.90089063e-01
-5.20017187e-08,1.90106250e-01
-5.19617187e-08,1.90095313e-01
-5.19217187e-08,1.90101563e-01
-5.18817187e-08,1.90100000e-01
-5.18417187e-08,1.90098437e-01
-5.18017187e-08,1.90103125e-01
-5.17617187e-08,1.90095313e-01
-5.17217187e-08,1.90107813e-01
-5.16817187e-08,1.90090625e-01
-5.16417187e-08,1.90112500e-01
-5.16017187e-08,1.90081250e-01
-5.15617187e-08,1.90128125e-01
-5.15217187e-08,1.90045313e-01
-5.14817187e-08,1.90307813e-01
-5.14417187e-08,1.90554688e-01
-5.14017187e-08,1.90468750e-01
-5.13617187e-08,1.90520313e-01
-5.13217188e-08,1.90484375e-01
-5.12817187e-08,1.90512500e-01
-5.12417187e-08,1.90490625e-01
-5.12017187e-08,1.90507813e-01
-5.11617187e-08,1.90493750e-01
-5.11217187e-08,1.90506250e-01
-5.10817187e-08,1.90495313e-01
-5.10417187e-08,1.90504688e-01
-5.10017187e-08,1.90496875e-01
-5.09617187e-08,1.90503125e-01
-5.09217187e-08,1.90498438e-01
-5.08817187e-08,1.90501562e-01
-5.08417187e-08,1.90500000e-01
-5.08017187e-08,1.90500000e-01
-5.07617187e-08,1.90500000e-01
-5.07217187e-08,1.90498438e-01
-5.06817187e-08,1.90501562e-01
-5.06417187e-08,1.90496875e-01
-5.06017187e-08,1.90504688e-01
-5.05617187e-08,1.90495313e-01
-5.05217187e-08,1.90506250e-01
-5.04817187e-08,1.90490625e-01
-5.04417187e-08,1.90512500e-01
-5.04017187e-08,1.90482813e-01
-5.03617187e-08,1.90528125e-01
-5.03217187e-08,1.90446875e-01
-5.02817187e-08,1.90706250e-01
-5.02417187e-08,1.90956250e-01
-5.02017187e-08,1.90867188e-01
-5.01617187e-08,1.90923438e-01
-5.01217187e-08,1.90881250e-01
-5.00817187e-08,1.90915625e-01
-5.00417187e-08,1.90887500e-01
-5.00017187e-08,1.90910938e-01
-4.99617187e-08,1.90889063e-01
-4.99217187e-08,1.90909375e-01
-4.98817187e-08,1.90892188e-01
-4.98417187e-08,1.90907812e-01
-4.98017187e-08,1.90892188e-01
-4.97617187e-08,1.90906250e-01
-4.97217187e-08,1.90893750e-01
-4.96817187e-08,1.90906250e-01
-4.96417187e-08,1.90893750e-01
-4.96017187e-08,1.90906250e-01
-4.95617187e-08,1.90893750e-01
-4.95217187e-08,1.90906250e-01
-4.94817187e-08,1.90895312e-01
-4.94417187e-08,1.90904688e-01
-4.94017188e-08,1.90895312e-01
-4.93617187e-08,1.90906250e-01
-4.93217187e-08,1.90893750e-01
-4.92817187e-08,1.90906250e-01
-4.92417187e-08,1.90893750e-01
-4.92017187e-08,1.90907812e-01
-4.91617187e-08,1.90892188e-01
-4.91217188e-08,1.90910938e-01
-4.90817187e-08,1.90885938e-01
-4.90417187e-08,1.90921875e-01
-4.90017187e-08,1.90854688e-01
-4.89617187e-08,1.91095313e-01
-4.89217187e-08,1.91371875e-01
-4.88817187e-08,1.91242187e-01
-4.88417187e-08,1.91373438e-01
-4.88017187e-08,1.91078125e-01
-4.87617187e-08,1.90857813e-01
-4.87217187e-08,1.90920312e-01
-4.86817187e-08,1.90887500e-01
-4.86417187e-08,1.90909375e-01
-4.86017187e-08,1.90893750e-01
-4.85617187e-08,1.90904688e-01
-4.85217187e-08,1.90896875e-01
-4.84817187e-08,1.90903125e-01
-4.84417187e-08,1.90898438e-01
-4.84017187e-08,1.90901563e-01
-4.83617187e-08,1.90898438e-01
-4.83217187e-08,1.90900000e-01
-4.82817187e-08,1.90900000e-01
-4.82417187e-08,1.90898438e-01
-4.82017187e-08,1.90901563e-01
-4.81617187e-08,1.90896875e-01
-4.81217187e-08,1.90903125e-01
-4.80817187e-08,1.90895312e-01
-4.80417187e-08,1.90907812e-01
-4.80017187e-08,1.90889063e-01
-4.79617187e-08,1.90915625e-01
-4.79217187e-08,1.90875000e-01
-4.78817187e-08,1.90950000e-01
-4.78417187e-08,1.90698438e-01
-4.78017187e-08,1.90439063e-01
-4.77617187e-08,1.90535938e-01
-4.77217187e-08,1.90471875e-01
-4.76817187e-08,1.90523438e-01
-4.76417187e-08,1.90479687e-01
-4.76017187e-08,1.90518750e-01
-4.75617187e-08,1.90481250e-01
-4.75217187e-08,1.90518750e-01
-4.74817188e-08,1.90481250e-01
-4.74417187e-08,1.90520313e-01
-4.74017187e-08,1.90476563e-01
-4.73617187e-08,1.90528125e-01
-4.73217187e-08,1.90462500e-01
-4.72817187e-08,1.90560937e-01
-4.72417187e-08,1.90285938e-01
-4.72017188e-08,1.90051562e-01
-4.71617187e-08,1.90125000e-01
-4.71217187e-08,1.90084375e-01
-4.70817187e-08,1.90110938e-01
-4.70417187e-08,1.90092188e-01
-4.70017187e-08,1.90106250e-01
-4.69617187e-08,1.90095313e-01
-4.69217188e-08,1.90103125e-01
-4.68817187e-08,1.90096875e-01
-4.68417187e-08,1.90103125e-01
-4.68017187e-08,1.90098437e-01
-4.67617187e-08,1.90101563e-01
-4.67217187e-08,1.90098437e-01
-4.66817187e-08,1.90101563e-01
-4.66417187e-08,1.90100000e-01
-4.66017187e-08,1.90100000e-01
-4.65617187e-08,1.90100000e-01
-4.65217187e-08,1.90100000e-01
-4.64817187e-08,1.90100000e-01
-4.64417187e-08,1.90100000e-01
-4.64017187e-08,1.90100000e-01
-4.63617187e-08,1.90100000e-01
-4.63217187e-08,1.90101563e-01
-4.62817187e-08,1.90098437e-01
-4.62417187e-08,1.90101563e-01
-4.62017187e-08,1.90098437e-01
-4.61617187e-08,1.90101563e-01
-4.61217187e-08,1.90098437e-01
-4.60817187e-08,1.90101563e-01
-4.60417187e-08,1.90096875e-01
-4.60017187e-08,1.90103125e-01
-4.59617187e-08,1.90096875e-01
-4.59217187e-08,1.90103125e-01
-4.58817187e-08,1.90095313e-01
-4.58417187e-08,1.90104688e-01
-4.58017187e-08,1.90093750e-01
-4.57617187e-08,1.90107813e-01
-4.57217187e-08,1.90090625e-01
-4.56817187e-08,1.90112500e-01
-4.56417187e-08,1.90082813e-01
-4.56017187e-08,1.90128125e-01
-4.55617188e-08,1.90048438e-01
-4.55217187e-08,1.90304688e-01
-4.54817187e-08,1.90557813e-01
-4.54417187e-08,1.90467187e-01
-4.54017187e-08,1.90523438e-01
-4.53617187e-08,1.90481250e-01
-4.53217187e-08,1.90517188e-01
-4.52817188e-08,1.90485938e-01
-4.52417187e-08,1.90514062e-01
-4.52017187e-08,1.90487500e-01
-4.51617187e-08,1.90510938e-01
-4.51217187e-08,1.90489063e-01
-4.50817187e-08,1.90510938e-01
-4.50417187e-08,1.90489063e-01
-4.50017188e-08,1.90510938e-01
-4.49617187e-08,1.90489063e-01
-4.49217187e-08,1.90510938e-01
-4.48817187e-08,1.90489063e-01
-4.48417187e-08,1.90510938e-01
-4.48017187e-08,1.90487500e-01
-4.47617187e-08,1.90512500e-01
-4.47217188e-08,1.90485938e-01
-4.46817187e-08,1.90514062e-01
-4.46417187e-08,1.90484375e-01
-4.46017187e-08,1.90518750e-01
-4.45617187e-08,1.90478125e-01
-4.45217187e-08,1.90526562e-01
-4.44817187e-08,1.90464063e-01
-4.44417187e-08,1.90560937e-01
-4.44017187e-08,1.90284375e-01
-4.43617187e-08,1.90053125e-01
-4.43217187e-08,1.90121875e-01
-4.42817187e-08,1.90087500e-01
-4.42417187e-08,1.90106250e-01
-4.42017187e-08,1.90098437e-01
-4.41617187e-08,1.90095313e-01
-4.41217187e-08,1.90110938e-01
-4.40817187e-08,1.90079688e-01
-4.40417187e-08,1.90145312e-01
-4.40017187e-08,1.89901563e-01
-4.39617187e-08,1.89637500e-01
-4.39217188e-08,1.89739062e-01
-4.38817187e-08,1.89668750e-01
-4.38417187e-08,1.89726563e-01
-4.38017187e-08,1.89675000e-01
-4.37617187e-08,1.89725000e-01
-4.37217187e-08,1.89673438e-01
-4.36817187e-08,1.89729688e-01
-4.36417188e-08,1.89662500e-01
-4.36017187e-08,1.89762500e-01
-4.35617187e-08,1.89484375e-01
-4.35217187e-08,1.89251562e-01
-4.34817187e-08,1.89325000e-01
-4.34417187e-08,1.89284375e-01
-4.34017187e-08,1.89310937e-01
-4.33617188e-08,1.89292188e-01
-4.33217187e-08,1.89306250e-01
-4.32817187e-08,1.89295313e-01
-4.32417187e-08,1.89303125e-01
-4.32017187e-08,1.89296875e-01
-4.31617187e-08,1.89301563e-01
-4.31217187e-08,1.89298437e-01
-4.30817188e-08,1.89300000e-01
-4.30417187e-08,1.89300000e-01
-4.30017187e-08,1.89298437e-01
-4.29617187e-08,1.89303125e-01
-4.29217187e-08,1.89295313e-01
-4.28817187e-08,1.89307813e-01
-4.28417187e-08,1.89287500e-01
-4.28017188e-08,1.89321875e-01
-4.27617187e-08,1.89253125e-01
-4.27217187e-08,1.89498438e-01
-4.26817187e-08,1.89764062e-01
-4.26417187e-08,1.89659375e-01
-4.26017187e-08,1.89731250e-01
-4.25617187e-08,1.89671875e-01
-4.25217188e-08,1.89725000e-01
-4.24817187e-08,1.89675000e-01
-4.24417187e-08,1.89725000e-01
-4.24017187e-08,1.89673438e-01
-4.23617187e-08,1.89729688e-01
-4.23217187e-08,1.89665625e-01
-4.22817187e-08,1.89743750e-01
-4.22417187e-08,1.89631250e-01
-4.22017187e-08,1.89921875e-01
-4.21617187e-08,1.90140625e-01
-4.21217187e-08,1.90082813e-01
-4.20817187e-08,1.90106250e-01
-4.20417187e-08,1.90098437e-01
-4.20017188e-08,1.90096875e-01
-4.19617187e-08,1.90106250e-01
-4.19217187e-08,1.90090625e-01
-4.18817187e-08,1.90114063e-01
-4.18417187e-08,1.90079688e-01
-4.18017187e-08,1.90131250e-01
-4.17617187e-08,1.90043750e-01
-4.17217188e-08,1.90309375e-01
-4.16817187e-08,1.90551562e-01
-4.16417187e-08,1.90473438e-01
-4.16017187e-08,1.90517188e-01
-4.15617187e-08,1.90489063e-01
-4.15217187e-08,1.90507813e-01
-4.14817187e-08,1.90495313e-01
-4.14417188e-08,1.90503125e-01
-4.14017187e-08,1.90498438e-01
-4.13617187e-08,1.90498438e-01
-4.13217187e-08,1.90503125e-01
-4.12817187e-08,1.90493750e-01
-4.12417187e-08,1.90509375e-01
-4.12017187e-08,1.90484375e-01
-4.11617188e-08,1.90525000e-01
-4.11217187e-08,1.90448438e-01
-4.10817187e-08,1.90704687e-01
-4.10417187e-08,1.90957813e-01
-4.10017187e-08,1.90865625e-01
-4.09617187e-08,1.90923438e-01
-4.09217187e-08,1.90881250e-01
-4.08817188e-08,1.90915625e-01
-4.08417187e-08,1.90885938e-01
-4.08017187e-08,1.90910938e-01
-4.07617187e-08,1.90889063e-01
-4.07217187e-08,1.90909375e-01
-4.06817187e-08,1.90890625e-01
-4.06417187e-08,1.90907812e-01
-4.06017188e-08,1.90892188e-01
-4.05617187e-08,1.90906250e-01
-4.05217187e-08,1.90893750e-01
-4.04817187e-08,1.90906250e-01
-4.04417187e-08,1.90893750e-01
-4.04017187e-08,1.90904688e-01
-4.03617187e-08,1.90895312e-01
-4.03217188e-08,1.90904688e-01
-4.02817187e-08,1.90895312e-01
-4.02417187e-08,1.90904688e-01
-4.02017187e-08,1.90895312e-01
-4.01617187e-08,1.90903125e-01
-4.01217187e-08,1.90896875e-01
-4.00817188e-08,1.90903125e-01
-4.00417187e-08,1.90896875e-01
-4.00017187e-08,1.90903125e-01
-3.99617187e-08,1.90896875e-01
-3.99217187e-08,1.90903125e-01
-3.98817187e-08,1.90896875e-01
-3.98417187e-08,1.90903125e-01
-3.98017188e-08,1.90896875e-01
-3.97617187e-08,1.90903125e-01
-3.97217187e-08,1.90896875e-01
-3.96817187e-08,1.90901563e-01
-3.96417187e-08,1.90898438e-01
-3.96017187e-08,1.90901563e-01
-3.95617187e-08,1.90898438e-01
-3.95217188e-08,1.90901563e-01
-3.94817187e-08,1.90898438e-01
-3.94417187e-08,1.90901563e-01
-3.94017187e-08,1.90898438e-01
-3.93617187e-08,1.90901563e-01
-3.93217187e-08,1.90898438e-01
-3.92817187e-08,1.90901563e-01
-3.92417188e-08,1.90898438e-01
-3.92017187e-08,1.90901563e-01
-3.91617187e-08,1.90898438e-01
-3.91217187e-08,1.90901563e-01
-3.90817187e-08,1.90898438e-01
-3.90417187e-08,1.90901563e-01
-3.90017187e-08,1.90898438e-01
-3.89617188e-08,1.90901563e-01
-3.89217187e-08,1.90898438e-01
-3.88817187e-08,1.90901563e-01
-3.88417187e-08,1.90900000e-01
-3.88017187e-08,1.90900000e-01
-3.87617187e-08,1.90900000e-01
-3.87217187e-08,1.90900000e-01
-3.86817188e-08,1.90900000e-01
-3.86417187e-08,1.90900000e-01
-3.86017187e-08,1.90900000e-01
-3.85617187e-08,1.90900000e-01
-3.85217187e-08,1.90900000e-01
