trails/0bdfa5e45fec98341abdd20552c140b4/aes_ch1_20250507114911715.csv

Model,MSO66B
Label,
Waveform Type,ANALOG
Horizontal Units,s
Sample Interval,4.00000000e-11
Record Length,10000
Zero Index,1599.07421875
Vertical Units,A
ANALOG_Thumbnail,
yOffset,1.84500000e-01
yPosition,8.40000000e-01

Labels,
TIME,CH1
-6.39629687e-08,2.04895313e-01
-6.39229688e-08,2.04904688e-01
-6.38829687e-08,2.04896875e-01
-6.38429687e-08,2.04903125e-01
-6.38029687e-08,2.04896875e-01
-6.37629687e-08,2.04901563e-01
-6.37229688e-08,2.04898438e-01
-6.36829687e-08,2.04901563e-01
-6.36429688e-08,2.04900000e-01
-6.36029687e-08,2.04900000e-01
-6.35629687e-08,2.04901563e-01
-6.35229687e-08,2.04898438e-01
-6.34829687e-08,2.04903125e-01
-6.34429688e-08,2.04895313e-01
-6.34029687e-08,2.04906250e-01
-6.33629688e-08,2.04890625e-01
-6.33229687e-08,2.04914062e-01
-6.32829687e-08,2.04875000e-01
-6.32429687e-08,2.04948437e-01
-6.32029687e-08,2.04698437e-01
-6.31629688e-08,2.04439063e-01
-6.31229687e-08,2.04535938e-01
-6.30829688e-08,2.04471875e-01
-6.30429687e-08,2.04523438e-01
-6.30029687e-08,2.04479688e-01
-6.29629687e-08,2.04518750e-01
-6.29229687e-08,2.04482812e-01
-6.28829688e-08,2.04517188e-01
-6.28429687e-08,2.04482812e-01
-6.28029688e-08,2.04517188e-01
-6.27629687e-08,2.04481250e-01
-6.27229687e-08,2.04520313e-01
-6.26829687e-08,2.04478125e-01
-6.26429687e-08,2.04526563e-01
-6.26029688e-08,2.04464063e-01
-6.25629687e-08,2.04560938e-01
-6.25229688e-08,2.04287500e-01
-6.24829687e-08,2.04050000e-01
-6.24429687e-08,2.04125000e-01
-6.24029687e-08,2.04082813e-01
-6.23629687e-08,2.04112500e-01
-6.23229688e-08,2.04090625e-01
-6.22829687e-08,2.04107813e-01
-6.22429688e-08,2.04092188e-01
-6.22029687e-08,2.04106250e-01
-6.21629687e-08,2.04093750e-01
-6.21229687e-08,2.04106250e-01
-6.20829687e-08,2.04092188e-01
-6.20429688e-08,2.04109375e-01
-6.20029687e-08,2.04089063e-01
-6.19629688e-08,2.04115625e-01
-6.19229687e-08,2.04075000e-01
-6.18829687e-08,2.04150000e-01
-6.18429687e-08,2.03898438e-01
-6.18029687e-08,2.03639063e-01
-6.17629688e-08,2.03737500e-01
-6.17229687e-08,2.03670313e-01
-6.16829687e-08,2.03725000e-01
-6.16429687e-08,2.03676563e-01
-6.16029687e-08,2.03723437e-01
-6.15629687e-08,2.03676563e-01
-6.15229687e-08,2.03725000e-01
-6.14829688e-08,2.03671875e-01
-6.14429687e-08,2.03732812e-01
-6.14029687e-08,2.03657813e-01
-6.13629687e-08,2.03767188e-01
-6.13229687e-08,2.03479688e-01
-6.12829687e-08,2.03259375e-01
-6.12429687e-08,2.03317187e-01
-6.12029688e-08,2.03293750e-01
-6.11629687e-08,2.03300000e-01
-6.11229687e-08,2.03304687e-01
-6.10829687e-08,2.03289063e-01
-6.10429687e-08,2.03317187e-01
-6.10029687e-08,2.03271875e-01
-6.09629687e-08,2.03354688e-01
-6.09229688e-08,2.03092188e-01
-6.08829687e-08,2.02846875e-01
-6.08429687e-08,2.02928125e-01
-6.08029687e-08,2.02882813e-01
-6.07629687e-08,2.02910937e-01
-6.07229687e-08,2.02895313e-01
-6.06829687e-08,2.02900000e-01
-6.06429688e-08,2.02906250e-01
-6.06029687e-08,2.02882813e-01
-6.05629687e-08,2.02942188e-01
-6.05229687e-08,2.02703125e-01
-6.04829687e-08,2.02434375e-01
-6.04429687e-08,2.02540625e-01
-6.04029687e-08,2.02468750e-01
-6.03629688e-08,2.02526563e-01
-6.03229687e-08,2.02476563e-01
-6.02829687e-08,2.02521875e-01
-6.02429687e-08,2.02479688e-01
-6.02029687e-08,2.02520313e-01
-6.01629687e-08,2.02479688e-01
-6.01229687e-08,2.02520313e-01
-6.00829688e-08,2.02479688e-01
-6.00429687e-08,2.02521875e-01
-6.00029687e-08,2.02475000e-01
-5.99629687e-08,2.02529687e-01
-5.99229687e-08,2.02460937e-01
-5.98829688e-08,2.02562500e-01
-5.98429687e-08,2.02284375e-01
-5.98029688e-08,2.02053125e-01
-5.97629687e-08,2.02123438e-01
-5.97229687e-08,2.02085938e-01
-5.96829687e-08,2.02109375e-01
-5.96429687e-08,2.02093750e-01
-5.96029687e-08,2.02104688e-01
-5.95629687e-08,2.02096875e-01
-5.95229687e-08,2.02103125e-01
-5.94829687e-08,2.02098438e-01
-5.94429687e-08,2.02101562e-01
-5.94029687e-08,2.02100000e-01
-5.93629687e-08,2.02100000e-01
-5.93229687e-08,2.02100000e-01
-5.92829687e-08,2.02100000e-01
-5.92429687e-08,2.02100000e-01
-5.92029687e-08,2.02100000e-01
-5.91629687e-08,2.02100000e-01
-5.91229687e-08,2.02098438e-01
-5.90829687e-08,2.02101562e-01
-5.90429687e-08,2.02098438e-01
-5.90029687e-08,2.02101562e-01
-5.89629687e-08,2.02098438e-01
-5.89229687e-08,2.02101562e-01
-5.88829687e-08,2.02098438e-01
-5.88429687e-08,2.02101562e-01
-5.88029687e-08,2.02098438e-01
-5.87629687e-08,2.02101562e-01
-5.87229687e-08,2.02098438e-01
-5.86829687e-08,2.02101562e-01
-5.86429687e-08,2.02098438e-01
-5.86029687e-08,2.02101562e-01
-5.85629687e-08,2.02098438e-01
-5.85229687e-08,2.02101562e-01
-5.84829687e-08,2.02098438e-01
-5.84429687e-08,2.02101562e-01
-5.84029687e-08,2.02098438e-01
-5.83629687e-08,2.02101562e-01
-5.83229687e-08,2.02098438e-01
-5.82829687e-08,2.02101562e-01
-5.82429687e-08,2.02098438e-01
-5.82029687e-08,2.02101562e-01
-5.81629687e-08,2.02098438e-01
-5.81229687e-08,2.02101562e-01
-5.80829687e-08,2.02096875e-01
-5.80429687e-08,2.02103125e-01
-5.80029687e-08,2.02096875e-01
-5.79629687e-08,2.02103125e-01
-5.79229687e-08,2.02096875e-01
-5.78829687e-08,2.02103125e-01
-5.78429687e-08,2.02096875e-01
-5.78029687e-08,2.02103125e-01
-5.77629687e-08,2.02096875e-01
-5.77229687e-08,2.02103125e-01
-5.76829687e-08,2.02096875e-01
-5.76429687e-08,2.02103125e-01
-5.76029687e-08,2.02096875e-01
-5.75629687e-08,2.02103125e-01
-5.75229687e-08,2.02096875e-01
-5.74829687e-08,2.02104688e-01
-5.74429687e-08,2.02095313e-01
-5.74029687e-08,2.02104688e-01
-5.73629687e-08,2.02095313e-01
-5.73229687e-08,2.02104688e-01
-5.72829687e-08,2.02093750e-01
-5.72429687e-08,2.02106250e-01
-5.72029687e-08,2.02093750e-01
-5.71629687e-08,2.02107813e-01
-5.71229687e-08,2.02092188e-01
-5.70829687e-08,2.02109375e-01
-5.70429687e-08,2.02089062e-01
-5.70029687e-08,2.02112500e-01
-5.69629687e-08,2.02084375e-01
-5.69229687e-08,2.02120313e-01
-5.68829687e-08,2.02068750e-01
-5.68429687e-08,2.02156250e-01
-5.68029687e-08,2.01890625e-01
-5.67629687e-08,2.01646875e-01
-5.67229687e-08,2.01729688e-01
-5.66829687e-08,2.01679688e-01
-5.66429687e-08,2.01715625e-01
-5.66029687e-08,2.01687500e-01
-5.65629687e-08,2.01710938e-01
-5.65229687e-08,2.01690625e-01
-5.64829687e-08,2.01707812e-01
-5.64429687e-08,2.01693750e-01
-5.64029687e-08,2.01706250e-01
-5.63629687e-08,2.01693750e-01
-5.63229687e-08,2.01704688e-01
-5.62829687e-08,2.01695313e-01
-5.62429687e-08,2.01704688e-01
-5.62029687e-08,2.01695313e-01
-5.61629687e-08,2.01704688e-01
-5.61229687e-08,2.01696875e-01
-5.60829687e-08,2.01703125e-01
-5.60429687e-08,2.01696875e-01
-5.60029687e-08,2.01703125e-01
-5.59629687e-08,2.01696875e-01
-5.59229687e-08,2.01703125e-01
-5.58829687e-08,2.01696875e-01
-5.58429687e-08,2.01703125e-01
-5.58029687e-08,2.01696875e-01
-5.57629687e-08,2.01703125e-01
-5.57229687e-08,2.01696875e-01
-5.56829687e-08,2.01703125e-01
-5.56429687e-08,2.01696875e-01
-5.56029687e-08,2.01703125e-01
-5.55629687e-08,2.01696875e-01
-5.55229687e-08,2.01703125e-01
-5.54829687e-08,2.01696875e-01
-5.54429687e-08,2.01703125e-01
-5.54029687e-08,2.01696875e-01
-5.53629687e-08,2.01703125e-01
-5.53229687e-08,2.01696875e-01
-5.52829687e-08,2.01703125e-01
-5.52429687e-08,2.01696875e-01
-5.52029687e-08,2.01703125e-01
-5.51629687e-08,2.01696875e-01
-5.51229687e-08,2.01703125e-01
-5.50829687e-08,2.01695313e-01
-5.50429687e-08,2.01704688e-01
-5.50029687e-08,2.01695313e-01
-5.49629687e-08,2.01704688e-01
-5.49229687e-08,2.01693750e-01
-5.48829687e-08,2.01706250e-01
-5.48429687e-08,2.01692188e-01
-5.48029687e-08,2.01709375e-01
-5.47629687e-08,2.01689063e-01
-5.47229687e-08,2.01714063e-01
-5.46829687e-08,2.01681250e-01
-5.46429687e-08,2.01728125e-01
-5.46029687e-08,2.01646875e-01
-5.45629687e-08,2.01906250e-01
-5.45229687e-08,2.02156250e-01
-5.44829687e-08,2.02067188e-01
-5.44429687e-08,2.02125000e-01
-5.44029687e-08,2.02079687e-01
-5.43629687e-08,2.02118750e-01
-5.43229687e-08,2.02082813e-01
-5.42829687e-08,2.02117188e-01
-5.42429687e-08,2.02082813e-01
-5.42029687e-08,2.02120313e-01
-5.41629687e-08,2.02076563e-01
-5.41229687e-08,2.02132813e-01
-5.40829687e-08,2.02043750e-01
-5.40429687e-08,2.02307813e-01
-5.40029687e-08,2.02554687e-01
-5.39629687e-08,2.02468750e-01
-5.39229687e-08,2.02523438e-01
-5.38829687e-08,2.02478125e-01
-5.38429687e-08,2.02520313e-01
-5.38029687e-08,2.02476563e-01
-5.37629687e-08,2.02531250e-01
-5.37229687e-08,2.02445313e-01
-5.36829687e-08,2.02706250e-01
-5.36429687e-08,2.02957813e-01
-5.36029687e-08,2.02864062e-01
-5.35629687e-08,2.02929688e-01
-5.35229687e-08,2.02870313e-01
-5.34829687e-08,2.02935937e-01
-5.34429687e-08,2.02842187e-01
-5.34029687e-08,2.03109375e-01
-5.33629687e-08,2.03354688e-01
-5.33229687e-08,2.03265625e-01
-5.32829687e-08,2.03328125e-01
-5.32429687e-08,2.03271875e-01
-5.32029687e-08,2.03334375e-01
-5.31629687e-08,2.03242188e-01
-5.31229687e-08,2.03509375e-01
-5.30829687e-08,2.03754688e-01
-5.30429687e-08,2.03667188e-01
-5.30029687e-08,2.03723437e-01
-5.29629687e-08,2.03679688e-01
-5.29229687e-08,2.03718750e-01
-5.28829687e-08,2.03679688e-01
-5.28429687e-08,2.03721875e-01
-5.28029687e-08,2.03675000e-01
-5.27629687e-08,2.03734375e-01
-5.27229687e-08,2.03640625e-01
-5.26829687e-08,2.03910938e-01
-5.26429687e-08,2.04151562e-01
-5.26029687e-08,2.04071875e-01
-5.25629687e-08,2.04118750e-01
-5.25229687e-08,2.04085938e-01
-5.24829687e-08,2.04110938e-01
-5.24429687e-08,2.04090625e-01
-5.24029687e-08,2.04107813e-01
-5.23629687e-08,2.04093750e-01
-5.23229687e-08,2.04106250e-01
-5.22829687e-08,2.04093750e-01
-5.22429687e-08,2.04104687e-01
-5.22029688e-08,2.04095313e-01
-5.21629687e-08,2.04104687e-01
-5.21229687e-08,2.04095313e-01
-5.20829687e-08,2.04104687e-01
-5.20429687e-08,2.04095313e-01
-5.20029687e-08,2.04104687e-01
-5.19629687e-08,2.04095313e-01
-5.19229687e-08,2.04104687e-01
-5.18829687e-08,2.04095313e-01
-5.18429687e-08,2.04104687e-01
-5.18029687e-08,2.04095313e-01
-5.17629687e-08,2.04104687e-01
-5.17229687e-08,2.04095313e-01
-5.16829687e-08,2.04104687e-01
-5.16429687e-08,2.04095313e-01
-5.16029687e-08,2.04104687e-01
-5.15629687e-08,2.04093750e-01
-5.15229687e-08,2.04106250e-01
-5.14829687e-08,2.04093750e-01
-5.14429687e-08,2.04107813e-01
-5.14029687e-08,2.04092188e-01
-5.13629687e-08,2.04109375e-01
-5.13229687e-08,2.04089063e-01
-5.12829687e-08,2.04112500e-01
-5.12429687e-08,2.04084375e-01
-5.12029687e-08,2.04120313e-01
-5.11629687e-08,2.04070313e-01
-5.11229687e-08,2.04154688e-01
-5.10829687e-08,2.03892188e-01
-5.10429687e-08,2.03645313e-01
-5.10029687e-08,2.03729688e-01
-5.09629687e-08,2.03679688e-01
-5.09229687e-08,2.03715625e-01
-5.08829687e-08,2.03687500e-01
-5.08429687e-08,2.03710938e-01
-5.08029687e-08,2.03690625e-01
-5.07629687e-08,2.03707813e-01
-5.07229687e-08,2.03692188e-01
-5.06829687e-08,2.03706250e-01
-5.06429687e-08,2.03693750e-01
-5.06029687e-08,2.03706250e-01
-5.05629687e-08,2.03695313e-01
-5.05229687e-08,2.03704688e-01
-5.04829687e-08,2.03695313e-01
-5.04429687e-08,2.03704688e-01
-5.04029687e-08,2.03695313e-01
-5.03629687e-08,2.03704688e-01
-5.03229687e-08,2.03696875e-01
-5.02829688e-08,2.03703125e-01
-5.02429687e-08,2.03696875e-01
-5.02029687e-08,2.03703125e-01
-5.01629687e-08,2.03696875e-01
-5.01229687e-08,2.03703125e-01
-5.00829687e-08,2.03696875e-01
-5.00429687e-08,2.03703125e-01
-5.00029688e-08,2.03696875e-01
-4.99629687e-08,2.03703125e-01
-4.99229687e-08,2.03698437e-01
-4.98829687e-08,2.03701563e-01
-4.98429687e-08,2.03698437e-01
-4.98029687e-08,2.03701563e-01
-4.97629687e-08,2.03698437e-01
-4.97229687e-08,2.03701563e-01
-4.96829687e-08,2.03700000e-01
-4.96429687e-08,2.03700000e-01
-4.96029687e-08,2.03700000e-01
-4.95629687e-08,2.03698437e-01
-4.95229687e-08,2.03703125e-01
-4.94829687e-08,2.03695313e-01
-4.94429687e-08,2.03707813e-01
-4.94029687e-08,2.03687500e-01
-4.93629687e-08,2.03721875e-01
-4.93229687e-08,2.03654688e-01
-4.92829687e-08,2.03898438e-01
-4.92429687e-08,2.04165625e-01
-4.92029687e-08,2.04057813e-01
-4.91629687e-08,2.04134375e-01
-4.91229687e-08,2.04068750e-01
-4.90829687e-08,2.04131250e-01
-4.90429687e-08,2.04067187e-01
-4.90029687e-08,2.04140625e-01
-4.89629687e-08,2.04035938e-01
-4.89229687e-08,2.04315625e-01
-4.88829687e-08,2.04548438e-01
-4.88429687e-08,2.04473438e-01
-4.88029687e-08,2.04520313e-01
-4.87629687e-08,2.04481250e-01
-4.87229687e-08,2.04525000e-01
-4.86829687e-08,2.04453125e-01
-4.86429688e-08,2.04698437e-01
-4.86029687e-08,2.04967188e-01
-4.85629687e-08,2.04854688e-01
-4.85229687e-08,2.04940625e-01
-4.84829687e-08,2.04857813e-01
-4.84429687e-08,2.04948437e-01
-4.84029687e-08,2.04828125e-01
-4.83629688e-08,2.05125000e-01
-4.83229687e-08,2.05337500e-01
-4.82829687e-08,2.05285938e-01
-4.82429687e-08,2.05304687e-01
-4.82029687e-08,2.05301563e-01
-4.81629687e-08,2.05295312e-01
-4.81229687e-08,2.05309375e-01
-4.80829688e-08,2.05287500e-01
-4.80429687e-08,2.05317187e-01
-4.80029687e-08,2.05278125e-01
-4.79629687e-08,2.05332813e-01
-4.79229687e-08,2.05240625e-01
-4.78829687e-08,2.05512500e-01
-4.78429687e-08,2.05748438e-01
-4.78029687e-08,2.05676562e-01
-4.77629687e-08,2.05712500e-01
-4.77229687e-08,2.05693750e-01
-4.76829687e-08,2.05701563e-01
-4.76429687e-08,2.05703125e-01
-4.76029687e-08,2.05692188e-01
-4.75629687e-08,2.05714063e-01
-4.75229687e-08,2.05676562e-01
-4.74829687e-08,2.05750000e-01
-4.74429687e-08,2.05495312e-01
-4.74029687e-08,2.05242188e-01
-4.73629687e-08,2.05332813e-01
-4.73229687e-08,2.05276563e-01
-4.72829687e-08,2.05317187e-01
-4.72429687e-08,2.05285938e-01
-4.72029687e-08,2.05310938e-01
-4.71629687e-08,2.05290625e-01
-4.71229687e-08,2.05307813e-01
-4.70829687e-08,2.05293750e-01
-4.70429687e-08,2.05303125e-01
-4.70029687e-08,2.05298438e-01
-4.69629687e-08,2.05300000e-01
-4.69229687e-08,2.05303125e-01
-4.68829687e-08,2.05293750e-01
-4.68429687e-08,2.05310938e-01
-4.68029687e-08,2.05278125e-01
-4.67629687e-08,2.05346875e-01
-4.67229688e-08,2.05100000e-01
-4.66829687e-08,2.04837500e-01
-4.66429687e-08,2.04939063e-01
-4.66029687e-08,2.04871875e-01
-4.65629687e-08,2.04923437e-01
-4.65229687e-08,2.04879688e-01
-4.64829687e-08,2.04918750e-01
-4.64429688e-08,2.04882813e-01
-4.64029687e-08,2.04915625e-01
-4.63629687e-08,2.04884375e-01
-4.63229687e-08,2.04914062e-01
-4.62829687e-08,2.04885938e-01
-4.62429687e-08,2.04914062e-01
-4.62029687e-08,2.04885938e-01
-4.61629688e-08,2.04914062e-01
-4.61229687e-08,2.04885938e-01
-4.60829687e-08,2.04914062e-01
-4.60429687e-08,2.04884375e-01
-4.60029687e-08,2.04915625e-01
-4.59629687e-08,2.04882813e-01
-4.59229687e-08,2.04918750e-01
-4.58829688e-08,2.04878125e-01
-4.58429687e-08,2.04926563e-01
-4.58029687e-08,2.04864062e-01
-4.57629687e-08,2.04960937e-01
-4.57229687e-08,2.04685937e-01
-4.56829687e-08,2.04451563e-01
-4.56429687e-08,2.04525000e-01
-4.56029687e-08,2.04484375e-01
-4.55629687e-08,2.04510938e-01
-4.55229687e-08,2.04492188e-01
-4.54829687e-08,2.04504688e-01
-4.54429687e-08,2.04495312e-01
-4.54029687e-08,2.04503125e-01
-4.53629687e-08,2.04498438e-01
-4.53229687e-08,2.04501563e-01
-4.52829687e-08,2.04498438e-01
-4.52429687e-08,2.04500000e-01
-4.52029687e-08,2.04500000e-01
-4.51629687e-08,2.04500000e-01
-4.51229687e-08,2.04500000e-01
-4.50829687e-08,2.04500000e-01
-4.50429687e-08,2.04501563e-01
-4.50029687e-08,2.04498438e-01
-4.49629687e-08,2.04501563e-01
-4.49229687e-08,2.04498438e-01
-4.48829687e-08,2.04501563e-01
-4.48429687e-08,2.04498438e-01
-4.48029688e-08,2.04501563e-01
-4.47629687e-08,2.04498438e-01
-4.47229687e-08,2.04503125e-01
-4.46829687e-08,2.04496875e-01
-4.46429687e-08,2.04503125e-01
-4.46029687e-08,2.04496875e-01
-4.45629687e-08,2.04503125e-01
-4.45229688e-08,2.04496875e-01
-4.44829687e-08,2.04503125e-01
-4.44429687e-08,2.04496875e-01
-4.44029687e-08,2.04504688e-01
-4.43629687e-08,2.04495312e-01
-4.43229687e-08,2.04504688e-01
-4.42829687e-08,2.04495312e-01
-4.42429688e-08,2.04506250e-01
-4.42029687e-08,2.04493750e-01
-4.41629687e-08,2.04506250e-01
-4.41229687e-08,2.04492188e-01
-4.40829687e-08,2.04507812e-01
-4.40429687e-08,2.04490625e-01
-4.40029687e-08,2.04510938e-01
-4.39629688e-08,2.04485937e-01
-4.39229687e-08,2.04517188e-01
-4.38829687e-08,2.04478125e-01
-4.38429687e-08,2.04531250e-01
-4.38029687e-08,2.04443750e-01
-4.37629687e-08,2.04710938e-01
-4.37229687e-08,2.04951563e-01
-4.36829688e-08,2.04871875e-01
-4.36429687e-08,2.04917188e-01
-4.36029687e-08,2.04887500e-01
-4.35629687e-08,2.04907813e-01
-4.35229687e-08,2.04895313e-01
-4.34829687e-08,2.04901563e-01
-4.34429687e-08,2.04903125e-01
-4.34029687e-08,2.04892188e-01
-4.33629687e-08,2.04917188e-01
-4.33229687e-08,2.04856250e-01
-4.32829687e-08,2.05095313e-01
-4.32429687e-08,2.05367187e-01
-4.32029687e-08,2.05256250e-01
-4.31629687e-08,2.05334375e-01
-4.31229687e-08,2.05270312e-01
-4.30829687e-08,2.05328125e-01
-4.30429687e-08,2.05271875e-01
-4.30029687e-08,2.05329687e-01
-4.29629687e-08,2.05265625e-01
-4.29229687e-08,2.05342187e-01
-4.28829688e-08,2.05232813e-01
-4.28429687e-08,2.05518750e-01
-4.28029687e-08,2.05743750e-01
-4.27629687e-08,2.05679688e-01
-4.27229687e-08,2.05710937e-01
-4.26829687e-08,2.05693750e-01
-4.26429687e-08,2.05703125e-01
-4.26029688e-08,2.05698437e-01
-4.25629687e-08,2.05700000e-01
-4.25229687e-08,2.05701563e-01
-4.24829687e-08,2.05698437e-01
-4.24429687e-08,2.05703125e-01
-4.24029687e-08,2.05696875e-01
-4.23629687e-08,2.05704688e-01
-4.23229688e-08,2.05695313e-01
-4.22829687e-08,2.05706250e-01
-4.22429687e-08,2.05693750e-01
-4.22029687e-08,2.05707813e-01
-4.21629687e-08,2.05690625e-01
-4.21229687e-08,2.05710937e-01
-4.20829687e-08,2.05687500e-01
-4.20429688e-08,2.05715625e-01
-4.20029687e-08,2.05678125e-01
-4.19629687e-08,2.05731250e-01
-4.19229687e-08,2.05643750e-01
-4.18829687e-08,2.05909375e-01
-4.18429687e-08,2.06153125e-01
-4.18029687e-08,2.06071875e-01
-4.17629688e-08,2.06118750e-01
-4.17229687e-08,2.06085938e-01
-4.16829687e-08,2.06110938e-01
-4.16429687e-08,2.06090625e-01
-4.16029687e-08,2.06107813e-01
-4.15629687e-08,2.06093750e-01
-4.15229687e-08,2.06104687e-01
-4.14829688e-08,2.06095313e-01
-4.14429687e-08,2.06104687e-01
-4.14029687e-08,2.06096875e-01
-4.13629687e-08,2.06103125e-01
-4.13229687e-08,2.06096875e-01
-4.12829687e-08,2.06101563e-01
-4.12429687e-08,2.06098438e-01
-4.12029687e-08,2.06101563e-01
-4.11629687e-08,2.06098438e-01
-4.11229687e-08,2.06100000e-01
-4.10829687e-08,2.06100000e-01
-4.10429687e-08,2.06100000e-01
-4.10029687e-08,2.06100000e-01
-4.09629688e-08,2.06098438e-01
-4.09229687e-08,2.06101563e-01
-4.08829687e-08,2.06098438e-01
-4.08429687e-08,2.06101563e-01
-4.08029687e-08,2.06096875e-01
-4.07629687e-08,2.06103125e-01
-4.07229687e-08,2.06095313e-01
-4.06829688e-08,2.06104687e-01
-4.06429687e-08,2.06093750e-01
-4.06029687e-08,2.06107813e-01
-4.05629687e-08,2.06090625e-01
-4.05229687e-08,2.06112500e-01
-4.04829687e-08,2.06081250e-01
-4.04429687e-08,2.06128125e-01
-4.04029688e-08,2.06046875e-01
-4.03629687e-08,2.06306250e-01
-4.03229687e-08,2.06556250e-01
-4.02829687e-08,2.06467188e-01
-4.02429687e-08,2.06523438e-01
-4.02029687e-08,2.06482813e-01
-4.01629687e-08,2.06515625e-01
-4.01229688e-08,2.06487500e-01
-4.00829687e-08,2.06510938e-01
-4.00429687e-08,2.06490625e-01
-4.00029687e-08,2.06509375e-01
-3.99629687e-08,2.06492188e-01
-3.99229687e-08,2.06507812e-01
-3.98829687e-08,2.06492188e-01
-3.98429688e-08,2.06506250e-01
-3.98029687e-08,2.06493750e-01
-3.97629687e-08,2.06506250e-01
-3.97229687e-08,2.06493750e-01
-3.96829687e-08,2.06506250e-01
-3.96429687e-08,2.06493750e-01
-3.96029687e-08,2.06504688e-01
-3.95629688e-08,2.06495313e-01
-3.95229687e-08,2.06504688e-01
-3.94829687e-08,2.06495313e-01
-3.94429687e-08,2.06504688e-01
-3.94029687e-08,2.06495313e-01
-3.93629687e-08,2.06504688e-01
-3.93229687e-08,2.06495313e-01
-3.92829688e-08,2.06504688e-01
-3.92429687e-08,2.06495313e-01
-3.92029687e-08,2.06504688e-01
-3.91629687e-08,2.06495313e-01
-3.91229687e-08,2.06504688e-01
-3.90829687e-08,2.06495313e-01
-3.90429688e-08,2.06504688e-01
-3.90029687e-08,2.06496875e-01
-3.89629687e-08,2.06503125e-01
-3.89229687e-08,2.06496875e-01
-3.88829687e-08,2.06503125e-01
-3.88429687e-08,2.06496875e-01
-3.88029687e-08,2.06503125e-01
-3.87629688e-08,2.06496875e-01
-3.87229687e-08,2.06503125e-01
-3.86829687e-08,2.06496875e-01
-3.86429687e-08,2.06503125e-01
-3.86029687e-08,2.06496875e-01
-3.85629687e-08,2.06503125e-01
-3.85229687e-08,2.06496875e-01
