trails/0bdfa5e45fec98341abdd20552c140b4/aes_ch1_20250507121751138.csv

Model,MSO66B
Label,
Waveform Type,ANALOG
Horizontal Units,s
Sample Interval,4.00000000e-11
Record Length,10000
Zero Index,1599.05078125
Vertical Units,A
ANALOG_Thumbnail,
yOffset,1.84500000e-01
yPosition,8.40000000e-01

Labels,
TIME,CH1
-6.39620312e-08,1.88035937e-01
-6.39220313e-08,1.88317188e-01
-6.38820312e-08,1.88545313e-01
-6.38420312e-08,1.88479687e-01
-6.38020312e-08,1.88510938e-01
-6.37620312e-08,1.88495313e-01
-6.37220313e-08,1.88501562e-01
-6.36820312e-08,1.88501562e-01
-6.36420313e-08,1.88495313e-01
-6.36020312e-08,1.88507813e-01
-6.35620312e-08,1.88485938e-01
-6.35220312e-08,1.88523438e-01
-6.34820312e-08,1.88451563e-01
-6.34420313e-08,1.88701563e-01
-6.34020312e-08,1.88960938e-01
-6.33620313e-08,1.88862500e-01
-6.33220312e-08,1.88928125e-01
-6.32820312e-08,1.88875000e-01
-6.32420312e-08,1.88923438e-01
-6.32020312e-08,1.88876563e-01
-6.31620313e-08,1.88925000e-01
-6.31220312e-08,1.88871875e-01
-6.30820312e-08,1.88937500e-01
-6.30420312e-08,1.88839063e-01
-6.30020312e-08,1.89114063e-01
-6.29620312e-08,1.89348437e-01
-6.29220312e-08,1.89275000e-01
-6.28820313e-08,1.89315625e-01
-6.28420312e-08,1.89289062e-01
-6.28020312e-08,1.89307813e-01
-6.27620312e-08,1.89293750e-01
-6.27220312e-08,1.89304688e-01
-6.26820312e-08,1.89296875e-01
-6.26420312e-08,1.89303125e-01
-6.26020313e-08,1.89298437e-01
-6.25620312e-08,1.89300000e-01
-6.25220312e-08,1.89300000e-01
-6.24820312e-08,1.89298437e-01
-6.24420312e-08,1.89303125e-01
-6.24020312e-08,1.89293750e-01
-6.23620312e-08,1.89309375e-01
-6.23220313e-08,1.89285938e-01
-6.22820312e-08,1.89323437e-01
-6.22420312e-08,1.89251562e-01
-6.22020312e-08,1.89501562e-01
-6.21620312e-08,1.89760938e-01
-6.21220312e-08,1.89662500e-01
-6.20820312e-08,1.89728125e-01
-6.20420313e-08,1.89676563e-01
-6.20020312e-08,1.89721875e-01
-6.19620312e-08,1.89679687e-01
-6.19220312e-08,1.89718750e-01
-6.18820312e-08,1.89681250e-01
-6.18420312e-08,1.89718750e-01
-6.18020312e-08,1.89679687e-01
-6.17620313e-08,1.89720313e-01
-6.17220312e-08,1.89676563e-01
-6.16820312e-08,1.89728125e-01
-6.16420312e-08,1.89662500e-01
-6.16020312e-08,1.89762500e-01
-6.15620312e-08,1.89484375e-01
-6.15220312e-08,1.89253125e-01
-6.14820313e-08,1.89323437e-01
-6.14420312e-08,1.89285938e-01
-6.14020312e-08,1.89309375e-01
-6.13620312e-08,1.89292188e-01
-6.13220312e-08,1.89304688e-01
-6.12820312e-08,1.89295313e-01
-6.12420312e-08,1.89303125e-01
-6.12020313e-08,1.89296875e-01
-6.11620312e-08,1.89301563e-01
-6.11220312e-08,1.89298437e-01
-6.10820312e-08,1.89301563e-01
-6.10420312e-08,1.89298437e-01
-6.10020313e-08,1.89301563e-01
-6.09620312e-08,1.89298437e-01
-6.09220313e-08,1.89301563e-01
-6.08820312e-08,1.89298437e-01
-6.08420312e-08,1.89301563e-01
-6.08020312e-08,1.89296875e-01
-6.07620312e-08,1.89303125e-01
-6.07220313e-08,1.89295313e-01
-6.06820312e-08,1.89306250e-01
-6.06420313e-08,1.89290625e-01
-6.06020312e-08,1.89314063e-01
-6.05620312e-08,1.89276562e-01
-6.05220312e-08,1.89348437e-01
-6.04820312e-08,1.89098437e-01
-6.04420313e-08,1.88839063e-01
-6.04020312e-08,1.88939063e-01
-6.03620313e-08,1.88870312e-01
-6.03220312e-08,1.88925000e-01
-6.02820312e-08,1.88876563e-01
-6.02420312e-08,1.88921875e-01
-6.02020312e-08,1.88879688e-01
-6.01620313e-08,1.88920313e-01
-6.01220312e-08,1.88878125e-01
-6.00820313e-08,1.88923438e-01
-6.00420312e-08,1.88873438e-01
-6.00020312e-08,1.88931250e-01
-5.99620312e-08,1.88859375e-01
-5.99220312e-08,1.88964063e-01
-5.98820313e-08,1.88682813e-01
-5.98420312e-08,1.88454687e-01
-5.98020313e-08,1.88520313e-01
-5.97620312e-08,1.88489062e-01
-5.97220312e-08,1.88506250e-01
-5.96820312e-08,1.88496875e-01
-5.96420312e-08,1.88501562e-01
-5.96020312e-08,1.88500000e-01
-5.95620312e-08,1.88498438e-01
-5.95220312e-08,1.88501562e-01
-5.94820312e-08,1.88496875e-01
-5.94420312e-08,1.88503125e-01
-5.94020312e-08,1.88495313e-01
-5.93620312e-08,1.88504688e-01
-5.93220312e-08,1.88493750e-01
-5.92820312e-08,1.88506250e-01
-5.92420312e-08,1.88493750e-01
-5.92020312e-08,1.88507813e-01
-5.91620312e-08,1.88492188e-01
-5.91220312e-08,1.88509375e-01
-5.90820312e-08,1.88490625e-01
-5.90420312e-08,1.88510938e-01
-5.90020312e-08,1.88487500e-01
-5.89620312e-08,1.88512500e-01
-5.89220312e-08,1.88485938e-01
-5.88820312e-08,1.88515625e-01
-5.88420312e-08,1.88481250e-01
-5.88020312e-08,1.88521875e-01
-5.87620312e-08,1.88471875e-01
-5.87220312e-08,1.88537500e-01
-5.86820312e-08,1.88435938e-01
-5.86420312e-08,1.88717187e-01
-5.86020312e-08,1.88943750e-01
-5.85620312e-08,1.88881250e-01
-5.85220312e-08,1.88907812e-01
-5.84820312e-08,1.88898438e-01
-5.84420312e-08,1.88895312e-01
-5.84020312e-08,1.88909375e-01
-5.83620312e-08,1.88882812e-01
-5.83220312e-08,1.88928125e-01
-5.82820312e-08,1.88845313e-01
-5.82420312e-08,1.89107812e-01
-5.82020312e-08,1.89353125e-01
-5.81620312e-08,1.89273438e-01
-5.81220312e-08,1.89315625e-01
-5.80820312e-08,1.89290625e-01
-5.80420312e-08,1.89304688e-01
-5.80020312e-08,1.89301563e-01
-5.79620312e-08,1.89292188e-01
-5.79220312e-08,1.89318750e-01
-5.78820312e-08,1.89254688e-01
-5.78420312e-08,1.89498438e-01
-5.78020312e-08,1.89762500e-01
-5.77620312e-08,1.89662500e-01
-5.77220312e-08,1.89728125e-01
-5.76820312e-08,1.89676563e-01
-5.76420312e-08,1.89718750e-01
-5.76020312e-08,1.89682813e-01
-5.75620312e-08,1.89715625e-01
-5.75220312e-08,1.89685938e-01
-5.74820312e-08,1.89712500e-01
-5.74420312e-08,1.89689063e-01
-5.74020312e-08,1.89710938e-01
-5.73620312e-08,1.89690625e-01
-5.73220312e-08,1.89709375e-01
-5.72820312e-08,1.89690625e-01
-5.72420312e-08,1.89707813e-01
-5.72020312e-08,1.89692187e-01
-5.71620312e-08,1.89707813e-01
-5.71220312e-08,1.89692187e-01
-5.70820312e-08,1.89706250e-01
-5.70420312e-08,1.89693750e-01
-5.70020312e-08,1.89706250e-01
-5.69620312e-08,1.89693750e-01
-5.69220312e-08,1.89706250e-01
-5.68820312e-08,1.89693750e-01
-5.68420312e-08,1.89706250e-01
-5.68020312e-08,1.89695313e-01
-5.67620312e-08,1.89704687e-01
-5.67220312e-08,1.89695313e-01
-5.66820312e-08,1.89704687e-01
-5.66420312e-08,1.89695313e-01
-5.66020312e-08,1.89704687e-01
-5.65620312e-08,1.89695313e-01
-5.65220312e-08,1.89704687e-01
-5.64820312e-08,1.89695313e-01
-5.64420312e-08,1.89704687e-01
-5.64020312e-08,1.89696875e-01
-5.63620312e-08,1.89703125e-01
-5.63220312e-08,1.89696875e-01
-5.62820312e-08,1.89703125e-01
-5.62420312e-08,1.89696875e-01
-5.62020312e-08,1.89703125e-01
-5.61620312e-08,1.89696875e-01
-5.61220312e-08,1.89703125e-01
-5.60820312e-08,1.89696875e-01
-5.60420312e-08,1.89703125e-01
-5.60020312e-08,1.89696875e-01
-5.59620312e-08,1.89703125e-01
-5.59220312e-08,1.89696875e-01
-5.58820312e-08,1.89703125e-01
-5.58420312e-08,1.89696875e-01
-5.58020312e-08,1.89703125e-01
-5.57620312e-08,1.89696875e-01
-5.57220312e-08,1.89701563e-01
-5.56820312e-08,1.89698438e-01
-5.56420312e-08,1.89701563e-01
-5.56020312e-08,1.89698438e-01
-5.55620312e-08,1.89701563e-01
-5.55220312e-08,1.89698438e-01
-5.54820312e-08,1.89701563e-01
-5.54420312e-08,1.89698438e-01
-5.54020312e-08,1.89701563e-01
-5.53620312e-08,1.89698438e-01
-5.53220312e-08,1.89701563e-01
-5.52820312e-08,1.89698438e-01
-5.52420312e-08,1.89701563e-01
-5.52020312e-08,1.89698438e-01
-5.51620312e-08,1.89701563e-01
-5.51220312e-08,1.89698438e-01
-5.50820312e-08,1.89700000e-01
-5.50420312e-08,1.89700000e-01
-5.50020312e-08,1.89700000e-01
-5.49620312e-08,1.89700000e-01
-5.49220312e-08,1.89700000e-01
-5.48820312e-08,1.89700000e-01
-5.48420312e-08,1.89700000e-01
-5.48020312e-08,1.89700000e-01
-5.47620312e-08,1.89698438e-01
-5.47220312e-08,1.89701563e-01
-5.46820312e-08,1.89698438e-01
-5.46420312e-08,1.89701563e-01
-5.46020312e-08,1.89696875e-01
-5.45620312e-08,1.89703125e-01
-5.45220312e-08,1.89695313e-01
-5.44820312e-08,1.89706250e-01
-5.44420312e-08,1.89692187e-01
-5.44020312e-08,1.89709375e-01
-5.43620312e-08,1.89687500e-01
-5.43220312e-08,1.89717187e-01
-5.42820312e-08,1.89673438e-01
-5.42420312e-08,1.89751562e-01
-5.42020312e-08,1.89495313e-01
-5.41620312e-08,1.89242188e-01
-5.41220312e-08,1.89332813e-01
-5.40820312e-08,1.89276562e-01
-5.40420312e-08,1.89318750e-01
-5.40020312e-08,1.89284375e-01
-5.39620312e-08,1.89314063e-01
-5.39220312e-08,1.89287500e-01
-5.38820312e-08,1.89310937e-01
-5.38420312e-08,1.89289062e-01
-5.38020312e-08,1.89309375e-01
-5.37620312e-08,1.89290625e-01
-5.37220312e-08,1.89309375e-01
-5.36820312e-08,1.89290625e-01
-5.36420312e-08,1.89307813e-01
-5.36020313e-08,1.89292188e-01
-5.35620312e-08,1.89307813e-01
-5.35220312e-08,1.89292188e-01
-5.34820312e-08,1.89307813e-01
-5.34420312e-08,1.89292188e-01
-5.34020312e-08,1.89307813e-01
-5.33620312e-08,1.89292188e-01
-5.33220312e-08,1.89307813e-01
-5.32820312e-08,1.89292188e-01
-5.32420312e-08,1.89307813e-01
-5.32020312e-08,1.89292188e-01
-5.31620312e-08,1.89307813e-01
-5.31220312e-08,1.89292188e-01
-5.30820312e-08,1.89307813e-01
-5.30420312e-08,1.89292188e-01
-5.30020312e-08,1.89307813e-01
-5.29620312e-08,1.89292188e-01
-5.29220312e-08,1.89307813e-01
-5.28820312e-08,1.89292188e-01
-5.28420312e-08,1.89307813e-01
-5.28020312e-08,1.89292188e-01
-5.27620312e-08,1.89309375e-01
-5.27220312e-08,1.89290625e-01
-5.26820312e-08,1.89309375e-01
-5.26420312e-08,1.89290625e-01
-5.26020312e-08,1.89310937e-01
-5.25620312e-08,1.89289062e-01
-5.25220312e-08,1.89312500e-01
-5.24820312e-08,1.89287500e-01
-5.24420312e-08,1.89314063e-01
-5.24020312e-08,1.89282813e-01
-5.23620312e-08,1.89320313e-01
-5.23220312e-08,1.89275000e-01
-5.22820312e-08,1.89334375e-01
-5.22420312e-08,1.89240625e-01
-5.22020312e-08,1.89512500e-01
-5.21620312e-08,1.89748438e-01
-5.21220312e-08,1.89675000e-01
-5.20820312e-08,1.89715625e-01
-5.20420312e-08,1.89689063e-01
-5.20020312e-08,1.89707813e-01
-5.19620312e-08,1.89695313e-01
-5.19220312e-08,1.89703125e-01
-5.18820312e-08,1.89698438e-01
-5.18420312e-08,1.89700000e-01
-5.18020312e-08,1.89701563e-01
-5.17620312e-08,1.89696875e-01
-5.17220312e-08,1.89704687e-01
-5.16820313e-08,1.89692187e-01
-5.16420312e-08,1.89710938e-01
-5.16020312e-08,1.89684375e-01
-5.15620312e-08,1.89725000e-01
-5.15220312e-08,1.89650000e-01
-5.14820312e-08,1.89903125e-01
-5.14420312e-08,1.90159375e-01
-5.14020313e-08,1.90064063e-01
-5.13620312e-08,1.90126563e-01
-5.13220312e-08,1.90078125e-01
-5.12820312e-08,1.90120312e-01
-5.12420312e-08,1.90081250e-01
-5.12020312e-08,1.90117188e-01
-5.11620312e-08,1.90081250e-01
-5.11220312e-08,1.90118750e-01
-5.10820312e-08,1.90078125e-01
-5.10420312e-08,1.90126563e-01
-5.10020312e-08,1.90065625e-01
-5.09620312e-08,1.90159375e-01
-5.09220312e-08,1.89887500e-01
-5.08820312e-08,1.89650000e-01
-5.08420312e-08,1.89726563e-01
-5.08020312e-08,1.89682813e-01
-5.07620312e-08,1.89712500e-01
-5.07220312e-08,1.89689063e-01
-5.06820312e-08,1.89709375e-01
-5.06420312e-08,1.89692187e-01
-5.06020312e-08,1.89706250e-01
-5.05620312e-08,1.89693750e-01
-5.05220312e-08,1.89704687e-01
-5.04820312e-08,1.89695313e-01
-5.04420312e-08,1.89704687e-01
-5.04020312e-08,1.89695313e-01
-5.03620312e-08,1.89704687e-01
-5.03220312e-08,1.89696875e-01
-5.02820312e-08,1.89703125e-01
-5.02420312e-08,1.89696875e-01
-5.02020312e-08,1.89703125e-01
-5.01620312e-08,1.89696875e-01
-5.01220312e-08,1.89703125e-01
-5.00820312e-08,1.89696875e-01
-5.00420312e-08,1.89703125e-01
-5.00020312e-08,1.89696875e-01
-4.99620312e-08,1.89703125e-01
-4.99220312e-08,1.89696875e-01
-4.98820312e-08,1.89703125e-01
-4.98420312e-08,1.89696875e-01
-4.98020312e-08,1.89703125e-01
-4.97620313e-08,1.89695313e-01
-4.97220312e-08,1.89704687e-01
-4.96820312e-08,1.89695313e-01
-4.96420312e-08,1.89704687e-01
-4.96020312e-08,1.89695313e-01
-4.95620312e-08,1.89704687e-01
-4.95220312e-08,1.89695313e-01
-4.94820313e-08,1.89704687e-01
-4.94420312e-08,1.89693750e-01
-4.94020312e-08,1.89706250e-01
-4.93620312e-08,1.89693750e-01
-4.93220312e-08,1.89707813e-01
-4.92820312e-08,1.89692187e-01
-4.92420312e-08,1.89709375e-01
-4.92020313e-08,1.89689063e-01
-4.91620312e-08,1.89712500e-01
-4.91220312e-08,1.89684375e-01
-4.90820312e-08,1.89720313e-01
-4.90420312e-08,1.89670312e-01
-4.90020312e-08,1.89754688e-01
-4.89620312e-08,1.89492188e-01
-4.89220312e-08,1.89245313e-01
-4.88820312e-08,1.89329688e-01
-4.88420312e-08,1.89279688e-01
-4.88020312e-08,1.89315625e-01
-4.87620312e-08,1.89287500e-01
-4.87220312e-08,1.89310937e-01
-4.86820312e-08,1.89290625e-01
-4.86420312e-08,1.89309375e-01
-4.86020312e-08,1.89292188e-01
-4.85620312e-08,1.89307813e-01
-4.85220312e-08,1.89292188e-01
-4.84820312e-08,1.89306250e-01
-4.84420312e-08,1.89293750e-01
-4.84020312e-08,1.89306250e-01
-4.83620312e-08,1.89293750e-01
-4.83220312e-08,1.89307813e-01
-4.82820312e-08,1.89292188e-01
-4.82420312e-08,1.89307813e-01
-4.82020312e-08,1.89290625e-01
-4.81620312e-08,1.89309375e-01
-4.81220312e-08,1.89287500e-01
-4.80820312e-08,1.89314063e-01
-4.80420312e-08,1.89281250e-01
-4.80020312e-08,1.89328125e-01
-4.79620312e-08,1.89246875e-01
-4.79220312e-08,1.89506250e-01
-4.78820312e-08,1.89756250e-01
-4.78420313e-08,1.89667188e-01
-4.78020312e-08,1.89723438e-01
-4.77620312e-08,1.89681250e-01
-4.77220312e-08,1.89717187e-01
-4.76820312e-08,1.89684375e-01
-4.76420312e-08,1.89714063e-01
-4.76020312e-08,1.89685938e-01
-4.75620313e-08,1.89714063e-01
-4.75220312e-08,1.89684375e-01
-4.74820312e-08,1.89715625e-01
-4.74420312e-08,1.89682813e-01
-4.74020312e-08,1.89720313e-01
-4.73620312e-08,1.89675000e-01
-4.73220312e-08,1.89734375e-01
-4.72820313e-08,1.89640625e-01
-4.72420312e-08,1.89912500e-01
-4.72020312e-08,1.90150000e-01
-4.71620312e-08,1.90073437e-01
-4.71220312e-08,1.90117188e-01
-4.70820312e-08,1.90087500e-01
-4.70420312e-08,1.90109375e-01
-4.70020312e-08,1.90093750e-01
-4.69620312e-08,1.90104688e-01
-4.69220312e-08,1.90095313e-01
-4.68820312e-08,1.90103125e-01
-4.68420312e-08,1.90098437e-01
-4.68020312e-08,1.90101563e-01
-4.67620312e-08,1.90098437e-01
-4.67220312e-08,1.90100000e-01
-4.66820312e-08,1.90100000e-01
-4.66420312e-08,1.90098437e-01
-4.66020312e-08,1.90101563e-01
-4.65620312e-08,1.90096875e-01
-4.65220312e-08,1.90103125e-01
-4.64820312e-08,1.90095313e-01
-4.64420312e-08,1.90106250e-01
-4.64020312e-08,1.90092188e-01
-4.63620312e-08,1.90109375e-01
-4.63220312e-08,1.90087500e-01
-4.62820312e-08,1.90118750e-01
-4.62420312e-08,1.90071875e-01
-4.62020312e-08,1.90153125e-01
-4.61620312e-08,1.89893750e-01
-4.61220312e-08,1.89643750e-01
-4.60820312e-08,1.89731250e-01
-4.60420312e-08,1.89678125e-01
-4.60020312e-08,1.89717187e-01
-4.59620312e-08,1.89685938e-01
-4.59220313e-08,1.89710938e-01
-4.58820312e-08,1.89690625e-01
-4.58420312e-08,1.89707813e-01
-4.58020312e-08,1.89695313e-01
-4.57620312e-08,1.89703125e-01
-4.57220312e-08,1.89700000e-01
-4.56820312e-08,1.89693750e-01
-4.56420313e-08,1.89715625e-01
-4.56020312e-08,1.89660938e-01
-4.55620312e-08,1.89892188e-01
-4.55220312e-08,1.90170312e-01
-4.54820312e-08,1.90053125e-01
-4.54420312e-08,1.90139063e-01
-4.54020312e-08,1.90064063e-01
-4.53620313e-08,1.90134375e-01
-4.53220312e-08,1.90065625e-01
-4.52820312e-08,1.90137500e-01
-4.52420312e-08,1.90057813e-01
-4.52020312e-08,1.90151563e-01
-4.51620312e-08,1.90023438e-01
-4.51220312e-08,1.90331250e-01
-4.50820313e-08,1.90529688e-01
-4.50420312e-08,1.90496875e-01
-4.50020312e-08,1.90487500e-01
-4.49620312e-08,1.90526562e-01
-4.49220312e-08,1.90445313e-01
-4.48820312e-08,1.90710938e-01
-4.48420312e-08,1.90948438e-01
-4.48020312e-08,1.90879688e-01
-4.47620312e-08,1.90906250e-01
-4.47220312e-08,1.90907812e-01
-4.46820312e-08,1.90864063e-01
-4.46420312e-08,1.91089063e-01
-4.46020312e-08,1.91373438e-01
-4.45620312e-08,1.91246875e-01
-4.45220312e-08,1.91351563e-01
-4.44820312e-08,1.91229687e-01
-4.44420312e-08,1.91518750e-01
-4.44020312e-08,1.91748438e-01
-4.43620312e-08,1.91671875e-01
-4.43220312e-08,1.91723438e-01
-4.42820312e-08,1.91675000e-01
-4.42420312e-08,1.91732813e-01
-4.42020312e-08,1.91643750e-01
-4.41620312e-08,1.91907812e-01
-4.41220312e-08,1.92154688e-01
-4.40820312e-08,1.92068750e-01
-4.40420312e-08,1.92121875e-01
-4.40020313e-08,1.92082813e-01
-4.39620312e-08,1.92114063e-01
-4.39220312e-08,1.92087500e-01
-4.38820312e-08,1.92110937e-01
-4.38420312e-08,1.92090625e-01
-4.38020312e-08,1.92109375e-01
-4.37620312e-08,1.92092188e-01
-4.37220313e-08,1.92107813e-01
-4.36820312e-08,1.92092188e-01
-4.36420312e-08,1.92107813e-01
-4.36020312e-08,1.92093750e-01
-4.35620312e-08,1.92106250e-01
-4.35220312e-08,1.92093750e-01
-4.34820312e-08,1.92106250e-01
-4.34420313e-08,1.92093750e-01
-4.34020312e-08,1.92106250e-01
-4.33620312e-08,1.92093750e-01
-4.33220312e-08,1.92106250e-01
-4.32820312e-08,1.92093750e-01
-4.32420312e-08,1.92106250e-01
-4.32020312e-08,1.92093750e-01
-4.31620313e-08,1.92106250e-01
-4.31220312e-08,1.92092188e-01
-4.30820312e-08,1.92107813e-01
-4.30420312e-08,1.92092188e-01
-4.30020312e-08,1.92109375e-01
-4.29620312e-08,1.92089063e-01
-4.29220312e-08,1.92112500e-01
-4.28820313e-08,1.92085937e-01
-4.28420312e-08,1.92118750e-01
-4.28020312e-08,1.92071875e-01
-4.27620312e-08,1.92153125e-01
-4.27220312e-08,1.91893750e-01
-4.26820312e-08,1.91642188e-01
-4.26420312e-08,1.91734375e-01
-4.26020312e-08,1.91673438e-01
-4.25620312e-08,1.91721875e-01
-4.25220312e-08,1.91679688e-01
-4.24820312e-08,1.91720313e-01
-4.24420312e-08,1.91676563e-01
-4.24020312e-08,1.91726563e-01
-4.23620312e-08,1.91664063e-01
-4.23220312e-08,1.91760938e-01
-4.22820312e-08,1.91485938e-01
-4.22420312e-08,1.91251562e-01
-4.22020312e-08,1.91325000e-01
-4.21620312e-08,1.91284375e-01
-4.21220312e-08,1.91309375e-01
-4.20820313e-08,1.91295313e-01
-4.20420312e-08,1.91300000e-01
-4.20020312e-08,1.91306250e-01
-4.19620312e-08,1.91284375e-01
-4.19220312e-08,1.91340625e-01
-4.18820312e-08,1.91106250e-01
-4.18420312e-08,1.90831250e-01
-4.18020313e-08,1.90946875e-01
-4.17620312e-08,1.90860937e-01
-4.17220312e-08,1.90935938e-01
-4.16820312e-08,1.90864063e-01
-4.16420312e-08,1.90939063e-01
-4.16020312e-08,1.90853125e-01
-4.15620312e-08,1.90971875e-01
-4.15220313e-08,1.90675000e-01
-4.14820312e-08,1.90462500e-01
-4.14420312e-08,1.90512500e-01
-4.14020312e-08,1.90498438e-01
-4.13620312e-08,1.90495313e-01
-4.13220312e-08,1.90512500e-01
-4.12820312e-08,1.90476563e-01
-4.12420313e-08,1.90550000e-01
-4.12020312e-08,1.90296875e-01
-4.11620312e-08,1.90040625e-01
-4.11220312e-08,1.90135938e-01
-4.10820312e-08,1.90073437e-01
-4.10420312e-08,1.90121875e-01
-4.10020312e-08,1.90079688e-01
-4.09620313e-08,1.90120312e-01
-4.09220312e-08,1.90078125e-01
-4.08820312e-08,1.90125000e-01
-4.08420312e-08,1.90065625e-01
-4.08020312e-08,1.90157812e-01
-4.07620312e-08,1.89889063e-01
-4.07220312e-08,1.89646875e-01
-4.06820313e-08,1.89729688e-01
-4.06420312e-08,1.89679687e-01
-4.06020312e-08,1.89715625e-01
-4.05620312e-08,1.89685938e-01
-4.05220312e-08,1.89712500e-01
-4.04820312e-08,1.89689063e-01
-4.04420312e-08,1.89710938e-01
-4.04020312e-08,1.89690625e-01
-4.03620312e-08,1.89709375e-01
-4.03220312e-08,1.89690625e-01
-4.02820312e-08,1.89710938e-01
-4.02420312e-08,1.89689063e-01
-4.02020312e-08,1.89710938e-01
-4.01620313e-08,1.89689063e-01
-4.01220312e-08,1.89712500e-01
-4.00820312e-08,1.89685938e-01
-4.00420312e-08,1.89715625e-01
-4.00020312e-08,1.89681250e-01
-3.99620312e-08,1.89723438e-01
-3.99220312e-08,1.89665625e-01
-3.98820313e-08,1.89757813e-01
-3.98420312e-08,1.89489062e-01
-3.98020312e-08,1.89250000e-01
-3.97620312e-08,1.89326563e-01
-3.97220312e-08,1.89282813e-01
-3.96820312e-08,1.89312500e-01
-3.96420312e-08,1.89290625e-01
-3.96020313e-08,1.89307813e-01
-3.95620312e-08,1.89293750e-01
-3.95220312e-08,1.89304688e-01
-3.94820312e-08,1.89296875e-01
-3.94420312e-08,1.89303125e-01
-3.94020312e-08,1.89298437e-01
-3.93620312e-08,1.89301563e-01
-3.93220313e-08,1.89298437e-01
-3.92820312e-08,1.89301563e-01
-3.92420312e-08,1.89300000e-01
-3.92020312e-08,1.89300000e-01
-3.91620312e-08,1.89300000e-01
-3.91220312e-08,1.89300000e-01
-3.90820312e-08,1.89301563e-01
-3.90420313e-08,1.89298437e-01
-3.90020312e-08,1.89301563e-01
-3.89620312e-08,1.89298437e-01
-3.89220312e-08,1.89301563e-01
-3.88820312e-08,1.89296875e-01
-3.88420312e-08,1.89303125e-01
-3.88020312e-08,1.89296875e-01
-3.87620313e-08,1.89303125e-01
-3.87220312e-08,1.89295313e-01
-3.86820312e-08,1.89304688e-01
-3.86420312e-08,1.89295313e-01
-3.86020312e-08,1.89306250e-01
-3.85620312e-08,1.89293750e-01
-3.85220312e-08,1.89307813e-01
