trails/0bdfa5e45fec98341abdd20552c140b4/aes_ch1_20250507121824673.csv

Model,MSO66B
Label,
Waveform Type,ANALOG
Horizontal Units,s
Sample Interval,4.00000000e-11
Record Length,10000
Zero Index,1599.10937500
Vertical Units,A
ANALOG_Thumbnail,
yOffset,1.84500000e-01
yPosition,8.40000000e-01

Labels,
TIME,CH1
-6.39643750e-08,2.00495313e-01
-6.39243750e-08,2.00503125e-01
-6.38843750e-08,2.00500000e-01
-6.38443750e-08,2.00498438e-01
-6.38043750e-08,2.00506250e-01
-6.37643750e-08,2.00484375e-01
-6.37243750e-08,2.00540625e-01
-6.36843750e-08,2.00306250e-01
-6.36443750e-08,2.00029687e-01
-6.36043750e-08,2.00146875e-01
-6.35643750e-08,2.00062500e-01
-6.35243750e-08,2.00134375e-01
-6.34843750e-08,2.00067188e-01
-6.34443750e-08,2.00132813e-01
-6.34043750e-08,2.00065625e-01
-6.33643750e-08,2.00139063e-01
-6.33243750e-08,2.00051563e-01
-6.32843750e-08,2.00173437e-01
-6.32443750e-08,1.99873438e-01
-6.32043750e-08,1.99664063e-01
-6.31643750e-08,1.99712500e-01
-6.31243750e-08,1.99696875e-01
-6.30843750e-08,1.99696875e-01
-6.30443750e-08,1.99706250e-01
-6.30043750e-08,1.99690625e-01
-6.29643750e-08,1.99714063e-01
-6.29243750e-08,1.99682813e-01
-6.28843750e-08,1.99723438e-01
-6.28443750e-08,1.99667188e-01
-6.28043750e-08,1.99759375e-01
-6.27643750e-08,1.99487500e-01
-6.27243750e-08,1.99250000e-01
-6.26843750e-08,1.99325000e-01
-6.26443750e-08,1.99284375e-01
-6.26043750e-08,1.99310938e-01
-6.25643750e-08,1.99292187e-01
-6.25243750e-08,1.99304688e-01
-6.24843750e-08,1.99296875e-01
-6.24443750e-08,1.99301563e-01
-6.24043750e-08,1.99298438e-01
-6.23643750e-08,1.99300000e-01
-6.23243750e-08,1.99300000e-01
-6.22843750e-08,1.99298438e-01
-6.22443750e-08,1.99301563e-01
-6.22043750e-08,1.99298438e-01
-6.21643750e-08,1.99303125e-01
-6.21243750e-08,1.99296875e-01
-6.20843750e-08,1.99303125e-01
-6.20443750e-08,1.99296875e-01
-6.20043750e-08,1.99304688e-01
-6.19643750e-08,1.99295313e-01
-6.19243750e-08,1.99304688e-01
-6.18843750e-08,1.99295313e-01
-6.18443750e-08,1.99306250e-01
-6.18043750e-08,1.99293750e-01
-6.17643750e-08,1.99306250e-01
-6.17243750e-08,1.99293750e-01
-6.16843750e-08,1.99306250e-01
-6.16443750e-08,1.99292187e-01
-6.16043750e-08,1.99307813e-01
-6.15643750e-08,1.99292187e-01
-6.15243750e-08,1.99307813e-01
-6.14843750e-08,1.99290625e-01
-6.14443750e-08,1.99309375e-01
-6.14043750e-08,1.99290625e-01
-6.13643750e-08,1.99310938e-01
-6.13243750e-08,1.99289063e-01
-6.12843750e-08,1.99312500e-01
-6.12443750e-08,1.99287500e-01
-6.12043750e-08,1.99314062e-01
-6.11643750e-08,1.99284375e-01
-6.11243750e-08,1.99317187e-01
-6.10843750e-08,1.99281250e-01
-6.10443750e-08,1.99320313e-01
-6.10043750e-08,1.99275000e-01
-6.09643750e-08,1.99329688e-01
-6.09243750e-08,1.99259375e-01
-6.08843750e-08,1.99365625e-01
-6.08443750e-08,1.99079688e-01
-6.08043750e-08,1.98857813e-01
-6.07643750e-08,1.98917188e-01
-6.07243750e-08,1.98893750e-01
-6.06843750e-08,1.98898437e-01
-6.06443750e-08,1.98906250e-01
-6.06043750e-08,1.98887500e-01
-6.05643750e-08,1.98918750e-01
-6.05243750e-08,1.98870313e-01
-6.04843750e-08,1.98956250e-01
-6.04443750e-08,1.98689063e-01
-6.04043750e-08,1.98450000e-01
-6.03643750e-08,1.98525000e-01
-6.03243750e-08,1.98485938e-01
-6.02843750e-08,1.98506250e-01
-6.02443750e-08,1.98498438e-01
-6.02043750e-08,1.98495313e-01
-6.01643750e-08,1.98510938e-01
-6.01243750e-08,1.98478125e-01
-6.00843750e-08,1.98548438e-01
-6.00443750e-08,1.98296875e-01
-6.00043750e-08,1.98040625e-01
-5.99643750e-08,1.98134375e-01
-5.99243750e-08,1.98075000e-01
-5.98843750e-08,1.98118750e-01
-5.98443750e-08,1.98084375e-01
-5.98043750e-08,1.98112500e-01
-5.97643750e-08,1.98089062e-01
-5.97243750e-08,1.98109375e-01
-5.96843750e-08,1.98092188e-01
-5.96443750e-08,1.98106250e-01
-5.96043750e-08,1.98093750e-01
-5.95643750e-08,1.98104688e-01
-5.95243750e-08,1.98096875e-01
-5.94843750e-08,1.98103125e-01
-5.94443750e-08,1.98096875e-01
-5.94043750e-08,1.98101562e-01
-5.93643750e-08,1.98098438e-01
-5.93243750e-08,1.98100000e-01
-5.92843750e-08,1.98100000e-01
-5.92443750e-08,1.98098438e-01
-5.92043750e-08,1.98103125e-01
-5.91643750e-08,1.98096875e-01
-5.91243750e-08,1.98104688e-01
-5.90843750e-08,1.98093750e-01
-5.90443750e-08,1.98107813e-01
-5.90043750e-08,1.98089062e-01
-5.89643750e-08,1.98114063e-01
-5.89243750e-08,1.98081250e-01
-5.88843750e-08,1.98129688e-01
-5.88443750e-08,1.98045313e-01
-5.88043750e-08,1.98307813e-01
-5.87643750e-08,1.98554687e-01
-5.87243750e-08,1.98470312e-01
-5.86843750e-08,1.98520313e-01
-5.86443750e-08,1.98484375e-01
-5.86043750e-08,1.98510938e-01
-5.85643750e-08,1.98490625e-01
-5.85243750e-08,1.98507813e-01
-5.84843750e-08,1.98493750e-01
-5.84443750e-08,1.98504687e-01
-5.84043750e-08,1.98496875e-01
-5.83643750e-08,1.98501563e-01
-5.83243750e-08,1.98500000e-01
-5.82843750e-08,1.98498438e-01
-5.82443750e-08,1.98503125e-01
-5.82043750e-08,1.98493750e-01
-5.81643750e-08,1.98509375e-01
-5.81243750e-08,1.98484375e-01
-5.80843750e-08,1.98525000e-01
-5.80443750e-08,1.98450000e-01
-5.80043750e-08,1.98703125e-01
-5.79643750e-08,1.98957812e-01
-5.79243750e-08,1.98865625e-01
-5.78843750e-08,1.98925000e-01
-5.78443750e-08,1.98881250e-01
-5.78043750e-08,1.98915625e-01
-5.77643750e-08,1.98885937e-01
-5.77243750e-08,1.98912500e-01
-5.76843750e-08,1.98889063e-01
-5.76443750e-08,1.98909375e-01
-5.76043750e-08,1.98892188e-01
-5.75643750e-08,1.98907813e-01
-5.75243750e-08,1.98893750e-01
-5.74843750e-08,1.98906250e-01
-5.74443750e-08,1.98895313e-01
-5.74043750e-08,1.98904688e-01
-5.73643750e-08,1.98896875e-01
-5.73243750e-08,1.98903125e-01
-5.72843750e-08,1.98898437e-01
-5.72443750e-08,1.98901563e-01
-5.72043750e-08,1.98900000e-01
-5.71643750e-08,1.98898437e-01
-5.71243750e-08,1.98903125e-01
-5.70843750e-08,1.98895313e-01
-5.70443750e-08,1.98907813e-01
-5.70043750e-08,1.98885937e-01
-5.69643750e-08,1.98923438e-01
-5.69243750e-08,1.98851563e-01
-5.68843750e-08,1.99101562e-01
-5.68443750e-08,1.99360938e-01
-5.68043750e-08,1.99262500e-01
-5.67643750e-08,1.99328125e-01
-5.67243750e-08,1.99278125e-01
-5.66843750e-08,1.99318750e-01
-5.66443750e-08,1.99282813e-01
-5.66043750e-08,1.99315625e-01
-5.65643750e-08,1.99285938e-01
-5.65243750e-08,1.99314062e-01
-5.64843750e-08,1.99287500e-01
-5.64443750e-08,1.99312500e-01
-5.64043750e-08,1.99287500e-01
-5.63643750e-08,1.99312500e-01
-5.63243750e-08,1.99287500e-01
-5.62843750e-08,1.99310938e-01
-5.62443750e-08,1.99289063e-01
-5.62043750e-08,1.99312500e-01
-5.61643750e-08,1.99287500e-01
-5.61243750e-08,1.99312500e-01
-5.60843750e-08,1.99287500e-01
-5.60443750e-08,1.99312500e-01
-5.60043750e-08,1.99285938e-01
-5.59643750e-08,1.99315625e-01
-5.59243750e-08,1.99282813e-01
-5.58843750e-08,1.99320313e-01
-5.58443750e-08,1.99275000e-01
-5.58043750e-08,1.99334375e-01
-5.57643750e-08,1.99240625e-01
-5.57243750e-08,1.99512500e-01
-5.56843750e-08,1.99750000e-01
-5.56443750e-08,1.99673437e-01
-5.56043750e-08,1.99717188e-01
-5.55643750e-08,1.99687500e-01
-5.55243750e-08,1.99710938e-01
-5.54843750e-08,1.99692188e-01
-5.54443750e-08,1.99707812e-01
-5.54043750e-08,1.99693750e-01
-5.53643750e-08,1.99706250e-01
-5.53243750e-08,1.99695312e-01
-5.52843750e-08,1.99704688e-01
-5.52443750e-08,1.99695312e-01
-5.52043750e-08,1.99704688e-01
-5.51643750e-08,1.99695312e-01
-5.51243750e-08,1.99704688e-01
-5.50843750e-08,1.99693750e-01
-5.50443750e-08,1.99706250e-01
-5.50043750e-08,1.99693750e-01
-5.49643750e-08,1.99707812e-01
-5.49243750e-08,1.99692188e-01
-5.48843750e-08,1.99709375e-01
-5.48443750e-08,1.99687500e-01
-5.48043750e-08,1.99715625e-01
-5.47643750e-08,1.99679688e-01
-5.47243750e-08,1.99729688e-01
-5.46843750e-08,1.99645313e-01
-5.46443750e-08,1.99907813e-01
-5.46043750e-08,2.00154688e-01
-5.45643750e-08,2.00068750e-01
-5.45243750e-08,2.00121875e-01
-5.44843750e-08,2.00084375e-01
-5.44443750e-08,2.00112500e-01
-5.44043750e-08,2.00089062e-01
-5.43643750e-08,2.00109375e-01
-5.43243750e-08,2.00092188e-01
-5.42843750e-08,2.00106250e-01
-5.42443750e-08,2.00093750e-01
-5.42043750e-08,2.00104688e-01
-5.41643750e-08,2.00095313e-01
-5.41243750e-08,2.00104688e-01
-5.40843750e-08,2.00096875e-01
-5.40443750e-08,2.00103125e-01
-5.40043750e-08,2.00098438e-01
-5.39643750e-08,2.00101562e-01
-5.39243750e-08,2.00100000e-01
-5.38843750e-08,2.00100000e-01
-5.38443750e-08,2.00101562e-01
-5.38043750e-08,2.00096875e-01
-5.37643750e-08,2.00106250e-01
-5.37243750e-08,2.00090625e-01
-5.36843750e-08,2.00114063e-01
-5.36443750e-08,2.00076562e-01
-5.36043750e-08,2.00148437e-01
-5.35643750e-08,1.99898437e-01
-5.35243750e-08,1.99639063e-01
-5.34843750e-08,1.99735938e-01
-5.34443750e-08,1.99673437e-01
-5.34043750e-08,1.99721875e-01
-5.33643750e-08,1.99681250e-01
-5.33243750e-08,1.99717188e-01
-5.32843750e-08,1.99684375e-01
-5.32443750e-08,1.99714063e-01
-5.32043750e-08,1.99685938e-01
-5.31643750e-08,1.99712500e-01
-5.31243750e-08,1.99687500e-01
-5.30843750e-08,1.99712500e-01
-5.30443750e-08,1.99689063e-01
-5.30043750e-08,1.99710938e-01
-5.29643750e-08,1.99689063e-01
-5.29243750e-08,1.99710938e-01
-5.28843750e-08,1.99689063e-01
-5.28443750e-08,1.99710938e-01
-5.28043750e-08,1.99689063e-01
-5.27643750e-08,1.99710938e-01
-5.27243750e-08,1.99689063e-01
-5.26843750e-08,1.99710938e-01
-5.26443750e-08,1.99689063e-01
-5.26043750e-08,1.99710938e-01
-5.25643750e-08,1.99689063e-01
-5.25243750e-08,1.99710938e-01
-5.24843750e-08,1.99689063e-01
-5.24443750e-08,1.99710938e-01
-5.24043750e-08,1.99687500e-01
-5.23643750e-08,1.99712500e-01
-5.23243750e-08,1.99687500e-01
-5.22843750e-08,1.99714063e-01
-5.22443750e-08,1.99685938e-01
-5.22043750e-08,1.99715625e-01
-5.21643750e-08,1.99682813e-01
-5.21243750e-08,1.99718750e-01
-5.20843750e-08,1.99678125e-01
-5.20443750e-08,1.99728125e-01
-5.20043750e-08,1.99662500e-01
-5.19643750e-08,1.99762500e-01
-5.19243750e-08,1.99484375e-01
-5.18843750e-08,1.99253125e-01
-5.18443750e-08,1.99323438e-01
-5.18043750e-08,1.99285938e-01
-5.17643750e-08,1.99307813e-01
-5.17243750e-08,1.99295313e-01
-5.16843750e-08,1.99303125e-01
-5.16443750e-08,1.99298438e-01
-5.16043750e-08,1.99300000e-01
-5.15643750e-08,1.99301563e-01
-5.15243750e-08,1.99296875e-01
-5.14843750e-08,1.99304688e-01
-5.14443750e-08,1.99295313e-01
-5.14043750e-08,1.99306250e-01
-5.13643750e-08,1.99290625e-01
-5.13243750e-08,1.99310938e-01
-5.12843750e-08,1.99285938e-01
-5.12443750e-08,1.99318750e-01
-5.12043750e-08,1.99270313e-01
-5.11643750e-08,1.99354688e-01
-5.11243750e-08,1.99092188e-01
-5.10843750e-08,1.98845313e-01
-5.10443750e-08,1.98931250e-01
-5.10043750e-08,1.98878125e-01
-5.09643750e-08,1.98915625e-01
-5.09243750e-08,1.98885937e-01
-5.08843750e-08,1.98910937e-01
-5.08443750e-08,1.98890625e-01
-5.08043750e-08,1.98909375e-01
-5.07643750e-08,1.98892188e-01
-5.07243750e-08,1.98907813e-01
-5.06843750e-08,1.98893750e-01
-5.06443750e-08,1.98906250e-01
-5.06043750e-08,1.98893750e-01
-5.05643750e-08,1.98906250e-01
-5.05243750e-08,1.98895313e-01
-5.04843750e-08,1.98904688e-01
-5.04443750e-08,1.98895313e-01
-5.04043750e-08,1.98904688e-01
-5.03643750e-08,1.98895313e-01
-5.03243750e-08,1.98904688e-01
-5.02843750e-08,1.98895313e-01
-5.02443750e-08,1.98904688e-01
-5.02043750e-08,1.98895313e-01
-5.01643750e-08,1.98904688e-01
-5.01243750e-08,1.98895313e-01
-5.00843750e-08,1.98904688e-01
-5.00443750e-08,1.98893750e-01
-5.00043750e-08,1.98906250e-01
-4.99643750e-08,1.98893750e-01
-4.99243750e-08,1.98906250e-01
-4.98843750e-08,1.98892188e-01
-4.98443750e-08,1.98907813e-01
-4.98043750e-08,1.98890625e-01
-4.97643750e-08,1.98910937e-01
-4.97243750e-08,1.98887500e-01
-4.96843750e-08,1.98915625e-01
-4.96443750e-08,1.98878125e-01
-4.96043750e-08,1.98931250e-01
-4.95643750e-08,1.98843750e-01
-4.95243750e-08,1.99109375e-01
-4.94843750e-08,1.99353125e-01
-4.94443750e-08,1.99270313e-01
-4.94043750e-08,1.99320313e-01
-4.93643750e-08,1.99284375e-01
-4.93243750e-08,1.99312500e-01
-4.92843750e-08,1.99290625e-01
-4.92443750e-08,1.99307813e-01
-4.92043750e-08,1.99293750e-01
-4.91643750e-08,1.99306250e-01
-4.91243750e-08,1.99295313e-01
-4.90843750e-08,1.99304688e-01
-4.90443750e-08,1.99296875e-01
-4.90043750e-08,1.99303125e-01
-4.89643750e-08,1.99298438e-01
-4.89243750e-08,1.99301563e-01
-4.88843750e-08,1.99300000e-01
-4.88443750e-08,1.99300000e-01
-4.88043750e-08,1.99301563e-01
-4.87643750e-08,1.99296875e-01
-4.87243750e-08,1.99304688e-01
-4.86843750e-08,1.99293750e-01
-4.86443750e-08,1.99309375e-01
-4.86043750e-08,1.99285938e-01
-4.85643750e-08,1.99325000e-01
-4.85243750e-08,1.99250000e-01
-4.84843750e-08,1.99503125e-01
-4.84443750e-08,1.99759375e-01
-4.84043750e-08,1.99664063e-01
-4.83643750e-08,1.99726563e-01
-4.83243750e-08,1.99678125e-01
-4.82843750e-08,1.99718750e-01
-4.82443750e-08,1.99682813e-01
-4.82043750e-08,1.99715625e-01
-4.81643750e-08,1.99685938e-01
-4.81243750e-08,1.99712500e-01
-4.80843750e-08,1.99687500e-01
-4.80443750e-08,1.99712500e-01
-4.80043750e-08,1.99689063e-01
-4.79643750e-08,1.99710938e-01
-4.79243750e-08,1.99689063e-01
-4.78843750e-08,1.99710938e-01
-4.78443750e-08,1.99689063e-01
-4.78043750e-08,1.99710938e-01
-4.77643750e-08,1.99690625e-01
-4.77243750e-08,1.99709375e-01
-4.76843750e-08,1.99690625e-01
-4.76443750e-08,1.99709375e-01
-4.76043750e-08,1.99690625e-01
-4.75643750e-08,1.99709375e-01
-4.75243750e-08,1.99690625e-01
-4.74843750e-08,1.99709375e-01
-4.74443750e-08,1.99690625e-01
-4.74043750e-08,1.99710938e-01
-4.73643750e-08,1.99689063e-01
-4.73243750e-08,1.99710938e-01
-4.72843750e-08,1.99689063e-01
-4.72443750e-08,1.99710938e-01
-4.72043750e-08,1.99689063e-01
-4.71643750e-08,1.99710938e-01
-4.71243750e-08,1.99687500e-01
-4.70843750e-08,1.99712500e-01
-4.70443750e-08,1.99687500e-01
-4.70043750e-08,1.99714063e-01
-4.69643750e-08,1.99685938e-01
-4.69243750e-08,1.99715625e-01
-4.68843750e-08,1.99682813e-01
-4.68443750e-08,1.99720312e-01
-4.68043750e-08,1.99676563e-01
-4.67643750e-08,1.99728125e-01
-4.67243750e-08,1.99662500e-01
-4.66843750e-08,1.99762500e-01
-4.66443750e-08,1.99484375e-01
-4.66043750e-08,1.99254687e-01
-4.65643750e-08,1.99321875e-01
-4.65243750e-08,1.99287500e-01
-4.64843750e-08,1.99307813e-01
-4.64443750e-08,1.99295313e-01
-4.64043750e-08,1.99301563e-01
-4.63643750e-08,1.99300000e-01
-4.63243750e-08,1.99298438e-01
-4.62843750e-08,1.99303125e-01
-4.62443750e-08,1.99295313e-01
-4.62043750e-08,1.99306250e-01
-4.61643750e-08,1.99292187e-01
-4.61243750e-08,1.99309375e-01
-4.60843750e-08,1.99289063e-01
-4.60443750e-08,1.99312500e-01
-4.60043750e-08,1.99282813e-01
-4.59643750e-08,1.99321875e-01
-4.59243750e-08,1.99268750e-01
-4.58843750e-08,1.99357813e-01
-4.58443750e-08,1.99089062e-01
-4.58043750e-08,1.98848438e-01
-4.57643750e-08,1.98926563e-01
-4.57243750e-08,1.98882813e-01
-4.56843750e-08,1.98912500e-01
-4.56443750e-08,1.98890625e-01
-4.56043750e-08,1.98906250e-01
-4.55643750e-08,1.98895313e-01
-4.55243750e-08,1.98901563e-01
-4.54843750e-08,1.98900000e-01
-4.54443750e-08,1.98898437e-01
-4.54043750e-08,1.98904688e-01
-4.53643750e-08,1.98892188e-01
-4.53243750e-08,1.98912500e-01
-4.52843750e-08,1.98878125e-01
-4.52443750e-08,1.98946875e-01
-4.52043750e-08,1.98700000e-01
-4.51643750e-08,1.98437500e-01
-4.51243750e-08,1.98539063e-01
-4.50843750e-08,1.98468750e-01
-4.50443750e-08,1.98526563e-01
-4.50043750e-08,1.98475000e-01
-4.49643750e-08,1.98525000e-01
-4.49243750e-08,1.98473438e-01
-4.48843750e-08,1.98531250e-01
-4.48443750e-08,1.98460938e-01
-4.48043750e-08,1.98564062e-01
-4.47643750e-08,1.98284375e-01
-4.47243750e-08,1.98053125e-01
-4.46843750e-08,1.98123437e-01
-4.46443750e-08,1.98085938e-01
-4.46043750e-08,1.98107813e-01
-4.45643750e-08,1.98095313e-01
-4.45243750e-08,1.98103125e-01
-4.44843750e-08,1.98100000e-01
-4.44443750e-08,1.98098438e-01
-4.44043750e-08,1.98104688e-01
-4.43643750e-08,1.98092188e-01
-4.43243750e-08,1.98112500e-01
-4.42843750e-08,1.98076562e-01
-4.42443750e-08,1.98148437e-01
-4.42043750e-08,1.97898437e-01
-4.41643750e-08,1.97639063e-01
-4.41243750e-08,1.97737500e-01
-4.40843750e-08,1.97671875e-01
-4.40443750e-08,1.97723438e-01
-4.40043750e-08,1.97679688e-01
-4.39643750e-08,1.97718750e-01
-4.39243750e-08,1.97682812e-01
-4.38843750e-08,1.97717188e-01
-4.38443750e-08,1.97682812e-01
-4.38043750e-08,1.97715625e-01
-4.37643750e-08,1.97684375e-01
-4.37243750e-08,1.97717188e-01
-4.36843750e-08,1.97682812e-01
-4.36443750e-08,1.97717188e-01
-4.36043750e-08,1.97681250e-01
-4.35643750e-08,1.97720312e-01
-4.35243750e-08,1.97678125e-01
-4.34843750e-08,1.97725000e-01
-4.34443750e-08,1.97670313e-01
-4.34043750e-08,1.97740625e-01
-4.33643750e-08,1.97634375e-01
-4.33243750e-08,1.97918750e-01
-4.32843750e-08,1.98143750e-01
-4.32443750e-08,1.98081250e-01
-4.32043750e-08,1.98109375e-01
-4.31643750e-08,1.98096875e-01
-4.31243750e-08,1.98100000e-01
-4.30843750e-08,1.98103125e-01
-4.30443750e-08,1.98093750e-01
-4.30043750e-08,1.98107813e-01
-4.29643750e-08,1.98089062e-01
-4.29243750e-08,1.98115625e-01
-4.28843750e-08,1.98079688e-01
-4.28443750e-08,1.98131250e-01
-4.28043750e-08,1.98043750e-01
-4.27643750e-08,1.98310938e-01
-4.27243750e-08,1.98550000e-01
-4.26843750e-08,1.98473438e-01
-4.26443750e-08,1.98515625e-01
-4.26043750e-08,1.98490625e-01
-4.25643750e-08,1.98504687e-01
-4.25243750e-08,1.98501563e-01
-4.24843750e-08,1.98492188e-01
-4.24443750e-08,1.98517187e-01
-4.24043750e-08,1.98457812e-01
-4.23643750e-08,1.98695312e-01
-4.23243750e-08,1.98967188e-01
-4.22843750e-08,1.98856250e-01
-4.22443750e-08,1.98935937e-01
-4.22043750e-08,1.98867188e-01
-4.21643750e-08,1.98931250e-01
-4.21243750e-08,1.98865625e-01
-4.20843750e-08,1.98943750e-01
-4.20443750e-08,1.98832813e-01
-4.20043750e-08,1.99120313e-01
-4.19643750e-08,1.99342188e-01
-4.19243750e-08,1.99281250e-01
-4.18843750e-08,1.99307813e-01
-4.18443750e-08,1.99298438e-01
-4.18043750e-08,1.99293750e-01
-4.17643750e-08,1.99317187e-01
-4.17243750e-08,1.99257813e-01
-4.16843750e-08,1.99495313e-01
-4.16443750e-08,1.99767187e-01
-4.16043750e-08,1.99654688e-01
-4.15643750e-08,1.99737500e-01
-4.15243750e-08,1.99665625e-01
-4.14843750e-08,1.99734375e-01
-4.14443750e-08,1.99662500e-01
-4.14043750e-08,1.99745312e-01
-4.13643750e-08,1.99629688e-01
-4.13243750e-08,1.99921875e-01
-4.12843750e-08,2.00140625e-01
-4.12443750e-08,2.00084375e-01
-4.12043750e-08,2.00106250e-01
-4.11643750e-08,2.00098438e-01
-4.11243750e-08,2.00096875e-01
-4.10843750e-08,2.00106250e-01
-4.10443750e-08,2.00090625e-01
-4.10043750e-08,2.00114063e-01
-4.09643750e-08,2.00079688e-01
-4.09243750e-08,2.00129688e-01
-4.08843750e-08,2.00045313e-01
-4.08443750e-08,2.00309375e-01
-4.08043750e-08,2.00553125e-01
-4.07643750e-08,2.00471875e-01
-4.07243750e-08,2.00518750e-01
-4.06843750e-08,2.00485938e-01
-4.06443750e-08,2.00510938e-01
-4.06043750e-08,2.00492188e-01
-4.05643750e-08,2.00506250e-01
-4.05243750e-08,2.00495313e-01
-4.04843750e-08,2.00503125e-01
-4.04443750e-08,2.00496875e-01
-4.04043750e-08,2.00501563e-01
-4.03643750e-08,2.00500000e-01
-4.03243750e-08,2.00500000e-01
-4.02843750e-08,2.00501563e-01
-4.02443750e-08,2.00496875e-01
-4.02043750e-08,2.00504688e-01
-4.01643750e-08,2.00493750e-01
-4.01243750e-08,2.00507812e-01
-4.00843750e-08,2.00489063e-01
-4.00443750e-08,2.00517187e-01
-4.00043750e-08,2.00473438e-01
-3.99643750e-08,2.00551563e-01
-3.99243750e-08,2.00295313e-01
-3.98843750e-08,2.00042187e-01
-3.98443750e-08,2.00134375e-01
-3.98043750e-08,2.00075000e-01
-3.97643750e-08,2.00120313e-01
-3.97243750e-08,2.00081250e-01
-3.96843750e-08,2.00117188e-01
-3.96443750e-08,2.00082813e-01
-3.96043750e-08,2.00117188e-01
-3.95643750e-08,2.00081250e-01
-3.95243750e-08,2.00123438e-01
-3.94843750e-08,2.00068750e-01
-3.94443750e-08,2.00156250e-01
-3.94043750e-08,1.99892188e-01
-3.93643750e-08,1.99645313e-01
-3.93243750e-08,1.99732813e-01
-3.92843750e-08,1.99676563e-01
-3.92443750e-08,1.99720312e-01
-3.92043750e-08,1.99681250e-01
-3.91643750e-08,1.99717188e-01
-3.91243750e-08,1.99681250e-01
-3.90843750e-08,1.99718750e-01
-3.90443750e-08,1.99678125e-01
-3.90043750e-08,1.99726563e-01
-3.89643750e-08,1.99664063e-01
-3.89243750e-08,1.99760938e-01
-3.88843750e-08,1.99485938e-01
-3.88443750e-08,1.99251563e-01
-3.88043750e-08,1.99323438e-01
-3.87643750e-08,1.99285938e-01
-3.87243750e-08,1.99307813e-01
-3.86843750e-08,1.99295313e-01
-3.86443750e-08,1.99301563e-01
-3.86043750e-08,1.99301563e-01
-3.85643750e-08,1.99296875e-01
-3.85243750e-08,1.99306250e-01
