trails/0bdfa5e45fec98341abdd20552c140b4/aes_ch1_20250507114439914.csv

Model,MSO66B
Label,
Waveform Type,ANALOG
Horizontal Units,s
Sample Interval,4.00000000e-11
Record Length,10000
Zero Index,1599.12109375
Vertical Units,A
ANALOG_Thumbnail,
yOffset,1.84500000e-01
yPosition,8.40000000e-01

Labels,
TIME,CH1
-6.39648437e-08,1.90485938e-01
-6.39248438e-08,1.90515625e-01
-6.38848437e-08,1.90482813e-01
-6.38448438e-08,1.90520313e-01
-6.38048437e-08,1.90475000e-01
-6.37648437e-08,1.90534375e-01
-6.37248437e-08,1.90440625e-01
-6.36848437e-08,1.90712500e-01
-6.36448438e-08,1.90950000e-01
-6.36048437e-08,1.90875000e-01
-6.35648438e-08,1.90915625e-01
-6.35248437e-08,1.90890625e-01
-6.34848437e-08,1.90904688e-01
-6.34448437e-08,1.90900000e-01
-6.34048437e-08,1.90893750e-01
-6.33648438e-08,1.90915625e-01
-6.33248437e-08,1.90859375e-01
-6.32848437e-08,1.91093750e-01
-6.32448437e-08,1.91368750e-01
-6.32048437e-08,1.91253125e-01
-6.31648437e-08,1.91339063e-01
-6.31248437e-08,1.91264062e-01
-6.30848438e-08,1.91335937e-01
-6.30448437e-08,1.91260938e-01
-6.30048437e-08,1.91346875e-01
-6.29648437e-08,1.91228125e-01
-6.29248437e-08,1.91523438e-01
-6.28848437e-08,1.91739063e-01
-6.28448437e-08,1.91685938e-01
-6.28048438e-08,1.91704687e-01
-6.27648437e-08,1.91701563e-01
-6.27248437e-08,1.91693750e-01
-6.26848437e-08,1.91710938e-01
-6.26448437e-08,1.91682813e-01
-6.26048437e-08,1.91728125e-01
-6.25648437e-08,1.91646875e-01
-6.25248438e-08,1.91906250e-01
-6.24848437e-08,1.92154688e-01
-6.24448437e-08,1.92068750e-01
-6.24048437e-08,1.92121875e-01
-6.23648437e-08,1.92084375e-01
-6.23248437e-08,1.92112500e-01
-6.22848437e-08,1.92089063e-01
-6.22448438e-08,1.92109375e-01
-6.22048437e-08,1.92092188e-01
-6.21648437e-08,1.92106250e-01
-6.21248437e-08,1.92093750e-01
-6.20848437e-08,1.92104688e-01
-6.20448437e-08,1.92095313e-01
-6.20048437e-08,1.92104688e-01
-6.19648438e-08,1.92096875e-01
-6.19248437e-08,1.92103125e-01
-6.18848437e-08,1.92096875e-01
-6.18448437e-08,1.92101563e-01
-6.18048437e-08,1.92098437e-01
-6.17648437e-08,1.92101563e-01
-6.17248437e-08,1.92098437e-01
-6.16848438e-08,1.92100000e-01
-6.16448437e-08,1.92100000e-01
-6.16048437e-08,1.92100000e-01
-6.15648437e-08,1.92100000e-01
-6.15248437e-08,1.92098437e-01
-6.14848437e-08,1.92101563e-01
-6.14448437e-08,1.92096875e-01
-6.14048438e-08,1.92104688e-01
-6.13648437e-08,1.92095313e-01
-6.13248437e-08,1.92107813e-01
-6.12848437e-08,1.92089063e-01
-6.12448437e-08,1.92115625e-01
-6.12048438e-08,1.92075000e-01
-6.11648437e-08,1.92150000e-01
-6.11248438e-08,1.91896875e-01
-6.10848437e-08,1.91640625e-01
-6.10448437e-08,1.91735938e-01
-6.10048437e-08,1.91671875e-01
-6.09648437e-08,1.91723438e-01
-6.09248438e-08,1.91679688e-01
-6.08848437e-08,1.91720313e-01
-6.08448438e-08,1.91679688e-01
-6.08048437e-08,1.91720313e-01
-6.07648437e-08,1.91676563e-01
-6.07248437e-08,1.91726563e-01
-6.06848437e-08,1.91664063e-01
-6.06448438e-08,1.91760938e-01
-6.06048437e-08,1.91487500e-01
-6.05648438e-08,1.91250000e-01
-6.05248437e-08,1.91326563e-01
-6.04848437e-08,1.91282813e-01
-6.04448437e-08,1.91312500e-01
-6.04048437e-08,1.91289062e-01
-6.03648438e-08,1.91309375e-01
-6.03248437e-08,1.91292188e-01
-6.02848438e-08,1.91307813e-01
-6.02448437e-08,1.91293750e-01
-6.02048437e-08,1.91306250e-01
-6.01648437e-08,1.91293750e-01
-6.01248437e-08,1.91306250e-01
-6.00848438e-08,1.91293750e-01
-6.00448437e-08,1.91307813e-01
-6.00048438e-08,1.91292188e-01
-5.99648437e-08,1.91309375e-01
-5.99248437e-08,1.91290625e-01
-5.98848437e-08,1.91310938e-01
-5.98448437e-08,1.91285938e-01
-5.98048438e-08,1.91317188e-01
-5.97648437e-08,1.91278125e-01
-5.97248438e-08,1.91331250e-01
-5.96848437e-08,1.91243750e-01
-5.96448437e-08,1.91510938e-01
-5.96048437e-08,1.91751563e-01
-5.95648437e-08,1.91671875e-01
-5.95248437e-08,1.91717187e-01
-5.94848437e-08,1.91689063e-01
-5.94448437e-08,1.91707813e-01
-5.94048437e-08,1.91695313e-01
-5.93648437e-08,1.91700000e-01
-5.93248437e-08,1.91703125e-01
-5.92848437e-08,1.91690625e-01
-5.92448437e-08,1.91718750e-01
-5.92048437e-08,1.91654688e-01
-5.91648437e-08,1.91898438e-01
-5.91248437e-08,1.92164063e-01
-5.90848437e-08,1.92060938e-01
-5.90448437e-08,1.92129688e-01
-5.90048437e-08,1.92075000e-01
-5.89648437e-08,1.92121875e-01
-5.89248437e-08,1.92079688e-01
-5.88848437e-08,1.92118750e-01
-5.88448437e-08,1.92082813e-01
-5.88048437e-08,1.92115625e-01
-5.87648437e-08,1.92084375e-01
-5.87248437e-08,1.92115625e-01
-5.86848437e-08,1.92085937e-01
-5.86448437e-08,1.92114063e-01
-5.86048437e-08,1.92085937e-01
-5.85648437e-08,1.92114063e-01
-5.85248437e-08,1.92085937e-01
-5.84848437e-08,1.92114063e-01
-5.84448437e-08,1.92085937e-01
-5.84048437e-08,1.92114063e-01
-5.83648437e-08,1.92084375e-01
-5.83248437e-08,1.92115625e-01
-5.82848437e-08,1.92084375e-01
-5.82448437e-08,1.92117188e-01
-5.82048437e-08,1.92082813e-01
-5.81648437e-08,1.92118750e-01
-5.81248437e-08,1.92079688e-01
-5.80848437e-08,1.92121875e-01
-5.80448437e-08,1.92073437e-01
-5.80048437e-08,1.92131250e-01
-5.79648437e-08,1.92059375e-01
-5.79248437e-08,1.92167188e-01
-5.78848437e-08,1.91879688e-01
-5.78448437e-08,1.91659375e-01
-5.78048437e-08,1.91715625e-01
-5.77648437e-08,1.91695313e-01
-5.77248437e-08,1.91696875e-01
-5.76848437e-08,1.91710938e-01
-5.76448437e-08,1.91678125e-01
-5.76048437e-08,1.91746875e-01
-5.75648437e-08,1.91498438e-01
-5.75248437e-08,1.91239063e-01
-5.74848437e-08,1.91339063e-01
-5.74448437e-08,1.91268750e-01
-5.74048437e-08,1.91331250e-01
-5.73648437e-08,1.91264062e-01
-5.73248437e-08,1.91357813e-01
-5.72848437e-08,1.91090625e-01
-5.72448437e-08,1.90843750e-01
-5.72048437e-08,1.90934375e-01
-5.71648437e-08,1.90871875e-01
-5.71248437e-08,1.90925000e-01
-5.70848437e-08,1.90873438e-01
-5.70448437e-08,1.90929688e-01
-5.70048437e-08,1.90860937e-01
-5.69648437e-08,1.90964063e-01
-5.69248437e-08,1.90684375e-01
-5.68848437e-08,1.90454687e-01
-5.68448437e-08,1.90521875e-01
-5.68048437e-08,1.90487500e-01
-5.67648437e-08,1.90506250e-01
-5.67248437e-08,1.90496875e-01
-5.66848437e-08,1.90498438e-01
-5.66448437e-08,1.90504688e-01
-5.66048437e-08,1.90492188e-01
-5.65648437e-08,1.90514062e-01
-5.65248437e-08,1.90475000e-01
-5.64848437e-08,1.90550000e-01
-5.64448437e-08,1.90296875e-01
-5.64048437e-08,1.90040625e-01
-5.63648437e-08,1.90134375e-01
-5.63248437e-08,1.90075000e-01
-5.62848437e-08,1.90120312e-01
-5.62448437e-08,1.90082813e-01
-5.62048437e-08,1.90115625e-01
-5.61648437e-08,1.90085937e-01
-5.61248437e-08,1.90114063e-01
-5.60848437e-08,1.90085937e-01
-5.60448437e-08,1.90114063e-01
-5.60048437e-08,1.90085937e-01
-5.59648437e-08,1.90115625e-01
-5.59248437e-08,1.90082813e-01
-5.58848437e-08,1.90121875e-01
-5.58448437e-08,1.90068750e-01
-5.58048437e-08,1.90154688e-01
-5.57648437e-08,1.89892188e-01
-5.57248437e-08,1.89645312e-01
-5.56848437e-08,1.89732813e-01
-5.56448437e-08,1.89676563e-01
-5.56048437e-08,1.89720313e-01
-5.55648437e-08,1.89682813e-01
-5.55248437e-08,1.89717187e-01
-5.54848437e-08,1.89682813e-01
-5.54448437e-08,1.89718750e-01
-5.54048437e-08,1.89679687e-01
-5.53648437e-08,1.89725000e-01
-5.53248437e-08,1.89665625e-01
-5.52848437e-08,1.89759375e-01
-5.52448437e-08,1.89487500e-01
-5.52048437e-08,1.89250000e-01
-5.51648437e-08,1.89326563e-01
-5.51248437e-08,1.89282813e-01
-5.50848437e-08,1.89310937e-01
-5.50448437e-08,1.89292188e-01
-5.50048437e-08,1.89306250e-01
-5.49648437e-08,1.89295313e-01
-5.49248437e-08,1.89303125e-01
-5.48848437e-08,1.89298437e-01
-5.48448437e-08,1.89300000e-01
-5.48048437e-08,1.89301563e-01
-5.47648437e-08,1.89296875e-01
-5.47248437e-08,1.89306250e-01
-5.46848437e-08,1.89290625e-01
-5.46448437e-08,1.89314063e-01
-5.46048437e-08,1.89276562e-01
-5.45648437e-08,1.89348437e-01
-5.45248437e-08,1.89098437e-01
-5.44848437e-08,1.88839063e-01
-5.44448437e-08,1.88935938e-01
-5.44048437e-08,1.88873438e-01
-5.43648437e-08,1.88921875e-01
-5.43248437e-08,1.88881250e-01
-5.42848437e-08,1.88917188e-01
-5.42448437e-08,1.88884375e-01
-5.42048437e-08,1.88915625e-01
-5.41648437e-08,1.88884375e-01
-5.41248437e-08,1.88915625e-01
-5.40848437e-08,1.88884375e-01
-5.40448437e-08,1.88915625e-01
-5.40048437e-08,1.88884375e-01
-5.39648437e-08,1.88917188e-01
-5.39248437e-08,1.88881250e-01
-5.38848437e-08,1.88921875e-01
-5.38448437e-08,1.88873438e-01
-5.38048438e-08,1.88935938e-01
-5.37648437e-08,1.88839063e-01
-5.37248437e-08,1.89114063e-01
-5.36848437e-08,1.89348437e-01
-5.36448437e-08,1.89275000e-01
-5.36048437e-08,1.89315625e-01
-5.35648437e-08,1.89289062e-01
-5.35248437e-08,1.89307813e-01
-5.34848437e-08,1.89293750e-01
-5.34448437e-08,1.89304688e-01
-5.34048437e-08,1.89295313e-01
-5.33648437e-08,1.89303125e-01
-5.33248437e-08,1.89296875e-01
-5.32848437e-08,1.89301563e-01
-5.32448437e-08,1.89298437e-01
-5.32048437e-08,1.89301563e-01
-5.31648437e-08,1.89298437e-01
-5.31248437e-08,1.89300000e-01
-5.30848437e-08,1.89300000e-01
-5.30448437e-08,1.89300000e-01
-5.30048437e-08,1.89300000e-01
-5.29648437e-08,1.89300000e-01
-5.29248437e-08,1.89300000e-01
-5.28848437e-08,1.89300000e-01
-5.28448437e-08,1.89300000e-01
-5.28048437e-08,1.89300000e-01
-5.27648437e-08,1.89301563e-01
-5.27248437e-08,1.89298437e-01
-5.26848437e-08,1.89301563e-01
-5.26448437e-08,1.89298437e-01
-5.26048437e-08,1.89301563e-01
-5.25648437e-08,1.89298437e-01
-5.25248437e-08,1.89301563e-01
-5.24848437e-08,1.89296875e-01
-5.24448437e-08,1.89303125e-01
-5.24048437e-08,1.89296875e-01
-5.23648437e-08,1.89303125e-01
-5.23248437e-08,1.89295313e-01
-5.22848437e-08,1.89304688e-01
-5.22448437e-08,1.89293750e-01
-5.22048437e-08,1.89307813e-01
-5.21648437e-08,1.89290625e-01
-5.21248437e-08,1.89312500e-01
-5.20848437e-08,1.89282813e-01
-5.20448437e-08,1.89326563e-01
-5.20048437e-08,1.89248438e-01
-5.19648437e-08,1.89504688e-01
-5.19248437e-08,1.89757813e-01
-5.18848438e-08,1.89665625e-01
-5.18448437e-08,1.89726563e-01
-5.18048437e-08,1.89678125e-01
-5.17648437e-08,1.89718750e-01
-5.17248437e-08,1.89682813e-01
-5.16848437e-08,1.89717187e-01
-5.16448437e-08,1.89682813e-01
-5.16048438e-08,1.89717187e-01
-5.15648437e-08,1.89681250e-01
-5.15248437e-08,1.89721875e-01
-5.14848437e-08,1.89673438e-01
-5.14448437e-08,1.89735938e-01
-5.14048437e-08,1.89640625e-01
-5.13648437e-08,1.89912500e-01
-5.13248437e-08,1.90150000e-01
-5.12848437e-08,1.90073437e-01
-5.12448437e-08,1.90117188e-01
-5.12048437e-08,1.90087500e-01
-5.11648437e-08,1.90109375e-01
-5.11248437e-08,1.90092188e-01
-5.10848437e-08,1.90106250e-01
-5.10448437e-08,1.90095313e-01
-5.10048437e-08,1.90104688e-01
-5.09648437e-08,1.90096875e-01
-5.09248437e-08,1.90103125e-01
-5.08848437e-08,1.90096875e-01
-5.08448437e-08,1.90103125e-01
-5.08048437e-08,1.90098437e-01
-5.07648437e-08,1.90101563e-01
-5.07248437e-08,1.90098437e-01
-5.06848437e-08,1.90101563e-01
-5.06448437e-08,1.90098437e-01
-5.06048437e-08,1.90101563e-01
-5.05648437e-08,1.90100000e-01
-5.05248437e-08,1.90100000e-01
-5.04848437e-08,1.90100000e-01
-5.04448437e-08,1.90100000e-01
-5.04048437e-08,1.90100000e-01
-5.03648437e-08,1.90100000e-01
-5.03248437e-08,1.90101563e-01
-5.02848437e-08,1.90098437e-01
-5.02448437e-08,1.90101563e-01
-5.02048437e-08,1.90098437e-01
-5.01648437e-08,1.90103125e-01
-5.01248437e-08,1.90096875e-01
-5.00848437e-08,1.90104688e-01
-5.00448437e-08,1.90093750e-01
-5.00048437e-08,1.90107813e-01
-4.99648438e-08,1.90089063e-01
-4.99248437e-08,1.90115625e-01
-4.98848437e-08,1.90075000e-01
-4.98448437e-08,1.90150000e-01
-4.98048437e-08,1.89898438e-01
-4.97648437e-08,1.89639063e-01
-4.97248437e-08,1.89737500e-01
-4.96848438e-08,1.89671875e-01
-4.96448437e-08,1.89725000e-01
-4.96048437e-08,1.89678125e-01
-4.95648437e-08,1.89721875e-01
-4.95248437e-08,1.89678125e-01
-4.94848437e-08,1.89721875e-01
-4.94448437e-08,1.89675000e-01
-4.94048437e-08,1.89728125e-01
-4.93648437e-08,1.89662500e-01
-4.93248437e-08,1.89762500e-01
-4.92848437e-08,1.89484375e-01
-4.92448437e-08,1.89253125e-01
-4.92048437e-08,1.89323437e-01
-4.91648437e-08,1.89285938e-01
-4.91248437e-08,1.89309375e-01
-4.90848437e-08,1.89293750e-01
-4.90448437e-08,1.89304688e-01
-4.90048437e-08,1.89296875e-01
-4.89648437e-08,1.89301563e-01
-4.89248437e-08,1.89300000e-01
-4.88848437e-08,1.89300000e-01
-4.88448437e-08,1.89301563e-01
-4.88048437e-08,1.89298437e-01
-4.87648437e-08,1.89303125e-01
-4.87248437e-08,1.89296875e-01
-4.86848437e-08,1.89304688e-01
-4.86448437e-08,1.89293750e-01
-4.86048437e-08,1.89307813e-01
-4.85648437e-08,1.89289062e-01
-4.85248437e-08,1.89315625e-01
-4.84848437e-08,1.89275000e-01
-4.84448437e-08,1.89350000e-01
-4.84048437e-08,1.89096875e-01
-4.83648437e-08,1.88840625e-01
-4.83248437e-08,1.88937500e-01
-4.82848437e-08,1.88871875e-01
-4.82448437e-08,1.88925000e-01
-4.82048437e-08,1.88876563e-01
-4.81648437e-08,1.88925000e-01
-4.81248437e-08,1.88871875e-01
-4.80848437e-08,1.88935938e-01
-4.80448438e-08,1.88839063e-01
-4.80048437e-08,1.89112500e-01
-4.79648437e-08,1.89350000e-01
-4.79248437e-08,1.89273438e-01
-4.78848437e-08,1.89318750e-01
-4.78448437e-08,1.89285938e-01
-4.78048437e-08,1.89310937e-01
-4.77648438e-08,1.89290625e-01
-4.77248437e-08,1.89309375e-01
-4.76848437e-08,1.89292188e-01
-4.76448437e-08,1.89307813e-01
-4.76048437e-08,1.89292188e-01
-4.75648437e-08,1.89307813e-01
-4.75248437e-08,1.89292188e-01
-4.74848438e-08,1.89307813e-01
-4.74448437e-08,1.89292188e-01
-4.74048437e-08,1.89307813e-01
-4.73648437e-08,1.89290625e-01
-4.73248437e-08,1.89309375e-01
-4.72848437e-08,1.89289062e-01
-4.72448437e-08,1.89312500e-01
-4.72048437e-08,1.89285938e-01
-4.71648437e-08,1.89317188e-01
-4.71248437e-08,1.89276562e-01
-4.70848437e-08,1.89332813e-01
-4.70448437e-08,1.89242188e-01
-4.70048437e-08,1.89510938e-01
-4.69648437e-08,1.89751562e-01
-4.69248437e-08,1.89673438e-01
-4.68848437e-08,1.89717187e-01
-4.68448437e-08,1.89687500e-01
-4.68048437e-08,1.89709375e-01
-4.67648437e-08,1.89693750e-01
-4.67248437e-08,1.89704687e-01
-4.66848437e-08,1.89696875e-01
-4.66448437e-08,1.89701563e-01
-4.66048437e-08,1.89701563e-01
-4.65648437e-08,1.89696875e-01
-4.65248437e-08,1.89704687e-01
-4.64848437e-08,1.89690625e-01
-4.64448437e-08,1.89714063e-01
-4.64048437e-08,1.89676563e-01
-4.63648437e-08,1.89750000e-01
-4.63248437e-08,1.89496875e-01
-4.62848437e-08,1.89240625e-01
-4.62448437e-08,1.89335937e-01
-4.62048437e-08,1.89273438e-01
-4.61648437e-08,1.89320313e-01
-4.61248438e-08,1.89282813e-01
-4.60848437e-08,1.89315625e-01
-4.60448437e-08,1.89285938e-01
-4.60048437e-08,1.89312500e-01
-4.59648437e-08,1.89289062e-01
-4.59248437e-08,1.89310937e-01
-4.58848437e-08,1.89289062e-01
-4.58448438e-08,1.89309375e-01
-4.58048437e-08,1.89290625e-01
-4.57648437e-08,1.89309375e-01
-4.57248437e-08,1.89292188e-01
-4.56848437e-08,1.89307813e-01
-4.56448437e-08,1.89292188e-01
-4.56048437e-08,1.89307813e-01
-4.55648438e-08,1.89292188e-01
-4.55248437e-08,1.89306250e-01
-4.54848437e-08,1.89293750e-01
-4.54448437e-08,1.89306250e-01
-4.54048437e-08,1.89293750e-01
-4.53648437e-08,1.89306250e-01
-4.53248437e-08,1.89293750e-01
-4.52848438e-08,1.89304688e-01
-4.52448437e-08,1.89295313e-01
-4.52048437e-08,1.89304688e-01
-4.51648437e-08,1.89296875e-01
-4.51248437e-08,1.89301563e-01
-4.50848437e-08,1.89298437e-01
-4.50448437e-08,1.89300000e-01
-4.50048437e-08,1.89303125e-01
-4.49648437e-08,1.89292188e-01
-4.49248437e-08,1.89317188e-01
-4.48848437e-08,1.89257813e-01
-4.48448437e-08,1.89493750e-01
-4.48048437e-08,1.89768750e-01
-4.47648437e-08,1.89654688e-01
-4.47248437e-08,1.89737500e-01
-4.46848437e-08,1.89667188e-01
-4.46448437e-08,1.89732813e-01
-4.46048437e-08,1.89667188e-01
-4.45648437e-08,1.89734375e-01
-4.45248437e-08,1.89660938e-01
-4.44848437e-08,1.89746875e-01
-4.44448437e-08,1.89628125e-01
-4.44048437e-08,1.89925000e-01
-4.43648437e-08,1.90137500e-01
-4.43248437e-08,1.90087500e-01
-4.42848437e-08,1.90103125e-01
-4.42448437e-08,1.90103125e-01
-4.42048438e-08,1.90093750e-01
-4.41648437e-08,1.90109375e-01
-4.41248437e-08,1.90087500e-01
-4.40848437e-08,1.90117188e-01
-4.40448437e-08,1.90076563e-01
-4.40048437e-08,1.90132812e-01
-4.39648437e-08,1.90040625e-01
-4.39248438e-08,1.90312500e-01
-4.38848437e-08,1.90550000e-01
-4.38448437e-08,1.90475000e-01
-4.38048437e-08,1.90515625e-01
-4.37648437e-08,1.90489063e-01
-4.37248437e-08,1.90506250e-01
-4.36848437e-08,1.90495313e-01
-4.36448438e-08,1.90503125e-01
-4.36048437e-08,1.90498438e-01
-4.35648437e-08,1.90500000e-01
-4.35248437e-08,1.90501562e-01
-4.34848437e-08,1.90498438e-01
-4.34448437e-08,1.90503125e-01
-4.34048437e-08,1.90495313e-01
-4.33648438e-08,1.90504688e-01
-4.33248437e-08,1.90493750e-01
-4.32848437e-08,1.90507813e-01
-4.32448437e-08,1.90492188e-01
-4.32048437e-08,1.90509375e-01
-4.31648437e-08,1.90489063e-01
-4.31248437e-08,1.90514062e-01
-4.30848438e-08,1.90482813e-01
-4.30448437e-08,1.90523438e-01
-4.30048437e-08,1.90467187e-01
-4.29648437e-08,1.90557813e-01
-4.29248437e-08,1.90289062e-01
-4.28848437e-08,1.90050000e-01
-4.28448437e-08,1.90126563e-01
-4.28048437e-08,1.90082813e-01
-4.27648437e-08,1.90110938e-01
-4.27248437e-08,1.90092188e-01
-4.26848437e-08,1.90104688e-01
-4.26448437e-08,1.90096875e-01
-4.26048437e-08,1.90101563e-01
-4.25648437e-08,1.90100000e-01
-4.25248437e-08,1.90098437e-01
-4.24848437e-08,1.90103125e-01
-4.24448437e-08,1.90093750e-01
-4.24048437e-08,1.90107813e-01
-4.23648437e-08,1.90089063e-01
-4.23248437e-08,1.90117188e-01
-4.22848438e-08,1.90073437e-01
-4.22448437e-08,1.90151563e-01
-4.22048437e-08,1.89893750e-01
-4.21648437e-08,1.89643750e-01
-4.21248437e-08,1.89732813e-01
-4.20848437e-08,1.89676563e-01
-4.20448437e-08,1.89717187e-01
-4.20048438e-08,1.89685938e-01
-4.19648437e-08,1.89712500e-01
-4.19248437e-08,1.89689063e-01
-4.18848437e-08,1.89709375e-01
-4.18448437e-08,1.89692187e-01
-4.18048437e-08,1.89707813e-01
-4.17648437e-08,1.89693750e-01
-4.17248438e-08,1.89706250e-01
-4.16848437e-08,1.89695313e-01
-4.16448437e-08,1.89704687e-01
-4.16048437e-08,1.89695313e-01
-4.15648437e-08,1.89704687e-01
-4.15248437e-08,1.89696875e-01
-4.14848437e-08,1.89703125e-01
-4.14448438e-08,1.89696875e-01
-4.14048437e-08,1.89703125e-01
-4.13648437e-08,1.89696875e-01
-4.13248437e-08,1.89701563e-01
-4.12848437e-08,1.89698438e-01
-4.12448437e-08,1.89701563e-01
-4.12048437e-08,1.89698438e-01
-4.11648438e-08,1.89701563e-01
-4.11248437e-08,1.89698438e-01
-4.10848437e-08,1.89700000e-01
-4.10448437e-08,1.89700000e-01
-4.10048437e-08,1.89700000e-01
-4.09648437e-08,1.89700000e-01
-4.09248437e-08,1.89700000e-01
-4.08848438e-08,1.89700000e-01
-4.08448437e-08,1.89698438e-01
-4.08048437e-08,1.89701563e-01
-4.07648437e-08,1.89698438e-01
-4.07248437e-08,1.89701563e-01
-4.06848437e-08,1.89698438e-01
-4.06448437e-08,1.89703125e-01
-4.06048437e-08,1.89696875e-01
-4.05648437e-08,1.89704687e-01
-4.05248437e-08,1.89695313e-01
-4.04848437e-08,1.89706250e-01
-4.04448437e-08,1.89693750e-01
-4.04048437e-08,1.89707813e-01
-4.03648438e-08,1.89689063e-01
-4.03248437e-08,1.89714063e-01
-4.02848437e-08,1.89681250e-01
-4.02448437e-08,1.89728125e-01
-4.02048437e-08,1.89646875e-01
-4.01648437e-08,1.89906250e-01
-4.01248437e-08,1.90154688e-01
-4.00848438e-08,1.90068750e-01
-4.00448437e-08,1.90121875e-01
-4.00048437e-08,1.90082813e-01
-3.99648437e-08,1.90114063e-01
-3.99248437e-08,1.90087500e-01
-3.98848437e-08,1.90110938e-01
-3.98448437e-08,1.90090625e-01
-3.98048438e-08,1.90107813e-01
-3.97648437e-08,1.90092188e-01
-3.97248437e-08,1.90106250e-01
-3.96848437e-08,1.90093750e-01
-3.96448437e-08,1.90106250e-01
-3.96048437e-08,1.90095313e-01
-3.95648437e-08,1.90104688e-01
-3.95248438e-08,1.90095313e-01
-3.94848437e-08,1.90104688e-01
-3.94448437e-08,1.90095313e-01
-3.94048437e-08,1.90103125e-01
-3.93648437e-08,1.90096875e-01
-3.93248437e-08,1.90103125e-01
-3.92848437e-08,1.90096875e-01
-3.92448438e-08,1.90103125e-01
-3.92048437e-08,1.90096875e-01
-3.91648437e-08,1.90103125e-01
-3.91248437e-08,1.90098437e-01
-3.90848437e-08,1.90101563e-01
-3.90448437e-08,1.90098437e-01
-3.90048437e-08,1.90101563e-01
-3.89648438e-08,1.90098437e-01
-3.89248437e-08,1.90101563e-01
-3.88848437e-08,1.90100000e-01
-3.88448437e-08,1.90100000e-01
-3.88048437e-08,1.90100000e-01
-3.87648437e-08,1.90100000e-01
-3.87248437e-08,1.90101563e-01
-3.86848438e-08,1.90098437e-01
-3.86448437e-08,1.90101563e-01
-3.86048437e-08,1.90096875e-01
-3.85648437e-08,1.90104688e-01
-3.85248437e-08,1.90093750e-01
