trails/0bdfa5e45fec98341abdd20552c140b4/aes_ch1_20250507115424664.csv

Model,MSO66B
Label,
Waveform Type,ANALOG
Horizontal Units,s
Sample Interval,4.00000000e-11
Record Length,10000
Zero Index,1599.07031250
Vertical Units,A
ANALOG_Thumbnail,
yOffset,1.84500000e-01
yPosition,8.40000000e-01

Labels,
TIME,CH1
-6.39628125e-08,1.93295313e-01
-6.39228125e-08,1.93304688e-01
-6.38828125e-08,1.93295313e-01
-6.38428125e-08,1.93306250e-01
-6.38028125e-08,1.93292188e-01
-6.37628125e-08,1.93309375e-01
-6.37228125e-08,1.93289062e-01
-6.36828125e-08,1.93314062e-01
-6.36428125e-08,1.93281250e-01
-6.36028125e-08,1.93329688e-01
-6.35628125e-08,1.93246875e-01
-6.35228125e-08,1.93507813e-01
-6.34828125e-08,1.93754688e-01
-6.34428125e-08,1.93668750e-01
-6.34028125e-08,1.93721875e-01
-6.33628125e-08,1.93682812e-01
-6.33228125e-08,1.93712500e-01
-6.32828125e-08,1.93689063e-01
-6.32428125e-08,1.93709375e-01
-6.32028125e-08,1.93692188e-01
-6.31628125e-08,1.93706250e-01
-6.31228125e-08,1.93695312e-01
-6.30828125e-08,1.93703125e-01
-6.30428125e-08,1.93698438e-01
-6.30028125e-08,1.93700000e-01
-6.29628125e-08,1.93703125e-01
-6.29228125e-08,1.93692188e-01
-6.28828125e-08,1.93717187e-01
-6.28428125e-08,1.93657812e-01
-6.28028125e-08,1.93895312e-01
-6.27628125e-08,1.94167188e-01
-6.27228125e-08,1.94056250e-01
-6.26828125e-08,1.94135938e-01
-6.26428125e-08,1.94068750e-01
-6.26028125e-08,1.94129688e-01
-6.25628125e-08,1.94068750e-01
-6.25228125e-08,1.94132813e-01
-6.24828125e-08,1.94064062e-01
-6.24428125e-08,1.94145313e-01
-6.24028125e-08,1.94029687e-01
-6.23628125e-08,1.94323438e-01
-6.23228125e-08,1.94539062e-01
-6.22828125e-08,1.94484375e-01
-6.22428125e-08,1.94506250e-01
-6.22028125e-08,1.94500000e-01
-6.21628125e-08,1.94496875e-01
-6.21228125e-08,1.94506250e-01
-6.20828125e-08,1.94490625e-01
-6.20428125e-08,1.94514063e-01
-6.20028125e-08,1.94479687e-01
-6.19628125e-08,1.94529687e-01
-6.19228125e-08,1.94445313e-01
-6.18828125e-08,1.94707813e-01
-6.18428125e-08,1.94953125e-01
-6.18028125e-08,1.94870313e-01
-6.17628125e-08,1.94920312e-01
-6.17228125e-08,1.94884375e-01
-6.16828125e-08,1.94912500e-01
-6.16428125e-08,1.94890625e-01
-6.16028125e-08,1.94907812e-01
-6.15628125e-08,1.94892188e-01
-6.15228125e-08,1.94906250e-01
-6.14828125e-08,1.94893750e-01
-6.14428125e-08,1.94904688e-01
-6.14028125e-08,1.94895313e-01
-6.13628125e-08,1.94904688e-01
-6.13228125e-08,1.94895313e-01
-6.12828125e-08,1.94903125e-01
-6.12428125e-08,1.94896875e-01
-6.12028125e-08,1.94903125e-01
-6.11628125e-08,1.94896875e-01
-6.11228125e-08,1.94903125e-01
-6.10828125e-08,1.94896875e-01
-6.10428125e-08,1.94904688e-01
-6.10028125e-08,1.94895313e-01
-6.09628125e-08,1.94904688e-01
-6.09228125e-08,1.94895313e-01
-6.08828125e-08,1.94906250e-01
-6.08428125e-08,1.94892188e-01
-6.08028125e-08,1.94909375e-01
-6.07628125e-08,1.94887500e-01
-6.07228125e-08,1.94917188e-01
-6.06828125e-08,1.94873437e-01
-6.06428125e-08,1.94950000e-01
-6.06028125e-08,1.94696875e-01
-6.05628125e-08,1.94440625e-01
-6.05228125e-08,1.94535938e-01
-6.04828125e-08,1.94471875e-01
-6.04428125e-08,1.94523438e-01
-6.04028125e-08,1.94478125e-01
-6.03628125e-08,1.94521875e-01
-6.03228125e-08,1.94476563e-01
-6.02828125e-08,1.94528125e-01
-6.02428125e-08,1.94464063e-01
-6.02028125e-08,1.94559375e-01
-6.01628125e-08,1.94287500e-01
-6.01228125e-08,1.94048438e-01
-6.00828125e-08,1.94128125e-01
-6.00428125e-08,1.94079688e-01
-6.00028125e-08,1.94117188e-01
-5.99628125e-08,1.94084375e-01
-5.99228125e-08,1.94115625e-01
-5.98828125e-08,1.94082813e-01
-5.98428125e-08,1.94120313e-01
-5.98028125e-08,1.94070313e-01
-5.97628125e-08,1.94153125e-01
-5.97228125e-08,1.93893750e-01
-5.96828125e-08,1.93643750e-01
-5.96428125e-08,1.93732813e-01
-5.96028125e-08,1.93676563e-01
-5.95628125e-08,1.93718750e-01
-5.95228125e-08,1.93682812e-01
-5.94828125e-08,1.93715625e-01
-5.94428125e-08,1.93685938e-01
-5.94028125e-08,1.93712500e-01
-5.93628125e-08,1.93687500e-01
-5.93228125e-08,1.93712500e-01
-5.92828125e-08,1.93689063e-01
-5.92428125e-08,1.93710938e-01
-5.92028125e-08,1.93689063e-01
-5.91628125e-08,1.93710938e-01
-5.91228125e-08,1.93689063e-01
-5.90828125e-08,1.93710938e-01
-5.90428125e-08,1.93687500e-01
-5.90028125e-08,1.93712500e-01
-5.89628125e-08,1.93687500e-01
-5.89228125e-08,1.93712500e-01
-5.88828125e-08,1.93687500e-01
-5.88428125e-08,1.93714063e-01
-5.88028125e-08,1.93685938e-01
-5.87628125e-08,1.93715625e-01
-5.87228125e-08,1.93684375e-01
-5.86828125e-08,1.93717187e-01
-5.86428125e-08,1.93681250e-01
-5.86028125e-08,1.93720313e-01
-5.85628125e-08,1.93678125e-01
-5.85228125e-08,1.93726563e-01
-5.84828125e-08,1.93668750e-01
-5.84428125e-08,1.93742187e-01
-5.84028125e-08,1.93632813e-01
-5.83628125e-08,1.93920312e-01
-5.83228125e-08,1.94140625e-01
-5.82828125e-08,1.94084375e-01
-5.82428125e-08,1.94104688e-01
-5.82028125e-08,1.94101563e-01
-5.81628125e-08,1.94092188e-01
-5.81228125e-08,1.94112500e-01
-5.80828125e-08,1.94079688e-01
-5.80428125e-08,1.94131250e-01
-5.80028125e-08,1.94042188e-01
-5.79628125e-08,1.94310938e-01
-5.79228125e-08,1.94550000e-01
-5.78828125e-08,1.94475000e-01
-5.78428125e-08,1.94514063e-01
-5.78028125e-08,1.94493750e-01
-5.77628125e-08,1.94501563e-01
-5.77228125e-08,1.94504687e-01
-5.76828125e-08,1.94489063e-01
-5.76428125e-08,1.94521875e-01
-5.76028125e-08,1.94451563e-01
-5.75628125e-08,1.94701563e-01
-5.75228125e-08,1.94959375e-01
-5.74828125e-08,1.94865625e-01
-5.74428125e-08,1.94925000e-01
-5.74028125e-08,1.94881250e-01
-5.73628125e-08,1.94915625e-01
-5.73228125e-08,1.94885937e-01
-5.72828125e-08,1.94910937e-01
-5.72428125e-08,1.94889063e-01
-5.72028125e-08,1.94909375e-01
-5.71628125e-08,1.94892188e-01
-5.71228125e-08,1.94907812e-01
-5.70828125e-08,1.94893750e-01
-5.70428125e-08,1.94906250e-01
-5.70028125e-08,1.94895313e-01
-5.69628125e-08,1.94904688e-01
-5.69228125e-08,1.94895313e-01
-5.68828125e-08,1.94903125e-01
-5.68428125e-08,1.94896875e-01
-5.68028125e-08,1.94903125e-01
-5.67628125e-08,1.94898438e-01
-5.67228125e-08,1.94901563e-01
-5.66828125e-08,1.94898438e-01
-5.66428125e-08,1.94901563e-01
-5.66028125e-08,1.94900000e-01
-5.65628125e-08,1.94900000e-01
-5.65228125e-08,1.94900000e-01
-5.64828125e-08,1.94900000e-01
-5.64428125e-08,1.94901563e-01
-5.64028125e-08,1.94898438e-01
-5.63628125e-08,1.94903125e-01
-5.63228125e-08,1.94896875e-01
-5.62828125e-08,1.94904688e-01
-5.62428125e-08,1.94895313e-01
-5.62028125e-08,1.94906250e-01
-5.61628125e-08,1.94892188e-01
-5.61228125e-08,1.94909375e-01
-5.60828125e-08,1.94885937e-01
-5.60428125e-08,1.94918750e-01
-5.60028125e-08,1.94871875e-01
-5.59628125e-08,1.94953125e-01
-5.59228125e-08,1.94693750e-01
-5.58828125e-08,1.94443750e-01
-5.58428125e-08,1.94531250e-01
-5.58028125e-08,1.94478125e-01
-5.57628125e-08,1.94517188e-01
-5.57228125e-08,1.94485938e-01
-5.56828125e-08,1.94512500e-01
-5.56428125e-08,1.94489063e-01
-5.56028125e-08,1.94509375e-01
-5.55628125e-08,1.94492187e-01
-5.55228125e-08,1.94507813e-01
-5.54828125e-08,1.94493750e-01
-5.54428125e-08,1.94506250e-01
-5.54028125e-08,1.94493750e-01
-5.53628125e-08,1.94504687e-01
-5.53228125e-08,1.94495313e-01
-5.52828125e-08,1.94504687e-01
-5.52428125e-08,1.94495313e-01
-5.52028125e-08,1.94504687e-01
-5.51628125e-08,1.94496875e-01
-5.51228125e-08,1.94503125e-01
-5.50828125e-08,1.94496875e-01
-5.50428125e-08,1.94503125e-01
-5.50028125e-08,1.94496875e-01
-5.49628125e-08,1.94503125e-01
-5.49228125e-08,1.94496875e-01
-5.48828125e-08,1.94503125e-01
-5.48428125e-08,1.94498438e-01
-5.48028125e-08,1.94501563e-01
-5.47628125e-08,1.94498438e-01
-5.47228125e-08,1.94501563e-01
-5.46828125e-08,1.94498438e-01
-5.46428125e-08,1.94501563e-01
-5.46028125e-08,1.94498438e-01
-5.45628125e-08,1.94501563e-01
-5.45228125e-08,1.94498438e-01
-5.44828125e-08,1.94501563e-01
-5.44428125e-08,1.94500000e-01
-5.44028125e-08,1.94500000e-01
-5.43628125e-08,1.94500000e-01
-5.43228125e-08,1.94500000e-01
-5.42828125e-08,1.94500000e-01
-5.42428125e-08,1.94500000e-01
-5.42028125e-08,1.94500000e-01
-5.41628125e-08,1.94498438e-01
-5.41228125e-08,1.94501563e-01
-5.40828125e-08,1.94498438e-01
-5.40428125e-08,1.94501563e-01
-5.40028125e-08,1.94498438e-01
-5.39628125e-08,1.94503125e-01
-5.39228125e-08,1.94496875e-01
-5.38828125e-08,1.94503125e-01
-5.38428125e-08,1.94495313e-01
-5.38028125e-08,1.94504687e-01
-5.37628125e-08,1.94493750e-01
-5.37228125e-08,1.94507813e-01
-5.36828125e-08,1.94490625e-01
-5.36428125e-08,1.94512500e-01
-5.36028125e-08,1.94481250e-01
-5.35628125e-08,1.94528125e-01
-5.35228125e-08,1.94446875e-01
-5.34828125e-08,1.94706250e-01
-5.34428125e-08,1.94956250e-01
-5.34028125e-08,1.94867188e-01
-5.33628125e-08,1.94923438e-01
-5.33228125e-08,1.94881250e-01
-5.32828125e-08,1.94915625e-01
-5.32428125e-08,1.94885937e-01
-5.32028125e-08,1.94912500e-01
-5.31628125e-08,1.94889063e-01
-5.31228125e-08,1.94910937e-01
-5.30828125e-08,1.94889063e-01
-5.30428125e-08,1.94909375e-01
-5.30028125e-08,1.94890625e-01
-5.29628125e-08,1.94909375e-01
-5.29228125e-08,1.94890625e-01
-5.28828125e-08,1.94910937e-01
-5.28428125e-08,1.94889063e-01
-5.28028125e-08,1.94912500e-01
-5.27628125e-08,1.94887500e-01
-5.27228125e-08,1.94914063e-01
-5.26828125e-08,1.94882813e-01
-5.26428125e-08,1.94921875e-01
-5.26028125e-08,1.94868750e-01
-5.25628125e-08,1.94956250e-01
-5.25228125e-08,1.94690625e-01
-5.24828125e-08,1.94446875e-01
-5.24428125e-08,1.94529687e-01
-5.24028125e-08,1.94479687e-01
-5.23628125e-08,1.94515625e-01
-5.23228125e-08,1.94487500e-01
-5.22828125e-08,1.94510938e-01
-5.22428125e-08,1.94490625e-01
-5.22028125e-08,1.94509375e-01
-5.21628125e-08,1.94492187e-01
-5.21228125e-08,1.94507813e-01
-5.20828125e-08,1.94492187e-01
-5.20428125e-08,1.94507813e-01
-5.20028125e-08,1.94492187e-01
-5.19628125e-08,1.94507813e-01
-5.19228125e-08,1.94492187e-01
-5.18828125e-08,1.94507813e-01
-5.18428125e-08,1.94492187e-01
-5.18028125e-08,1.94507813e-01
-5.17628125e-08,1.94492187e-01
-5.17228125e-08,1.94509375e-01
-5.16828125e-08,1.94490625e-01
-5.16428125e-08,1.94510938e-01
-5.16028125e-08,1.94487500e-01
-5.15628125e-08,1.94514063e-01
-5.15228125e-08,1.94482813e-01
-5.14828125e-08,1.94521875e-01
-5.14428125e-08,1.94467187e-01
-5.14028125e-08,1.94557813e-01
-5.13628125e-08,1.94289062e-01
-5.13228125e-08,1.94048438e-01
-5.12828125e-08,1.94128125e-01
-5.12428125e-08,1.94081250e-01
-5.12028125e-08,1.94114063e-01
-5.11628125e-08,1.94089063e-01
-5.11228125e-08,1.94107813e-01
-5.10828125e-08,1.94093750e-01
-5.10428125e-08,1.94106250e-01
-5.10028125e-08,1.94095313e-01
-5.09628125e-08,1.94104688e-01
-5.09228125e-08,1.94096875e-01
-5.08828125e-08,1.94103125e-01
-5.08428125e-08,1.94096875e-01
-5.08028125e-08,1.94101563e-01
-5.07628125e-08,1.94098437e-01
-5.07228125e-08,1.94101563e-01
-5.06828125e-08,1.94098437e-01
-5.06428125e-08,1.94101563e-01
-5.06028125e-08,1.94100000e-01
-5.05628125e-08,1.94100000e-01
-5.05228125e-08,1.94100000e-01
-5.04828125e-08,1.94100000e-01
-5.04428125e-08,1.94100000e-01
-5.04028125e-08,1.94100000e-01
-5.03628125e-08,1.94101563e-01
-5.03228125e-08,1.94098437e-01
-5.02828125e-08,1.94101563e-01
-5.02428125e-08,1.94098437e-01
-5.02028125e-08,1.94101563e-01
-5.01628125e-08,1.94098437e-01
-5.01228125e-08,1.94103125e-01
-5.00828125e-08,1.94096875e-01
-5.00428125e-08,1.94103125e-01
-5.00028125e-08,1.94096875e-01
-4.99628125e-08,1.94103125e-01
-4.99228125e-08,1.94095313e-01
-4.98828125e-08,1.94104688e-01
-4.98428125e-08,1.94095313e-01
-4.98028125e-08,1.94106250e-01
-4.97628125e-08,1.94093750e-01
-4.97228125e-08,1.94106250e-01
-4.96828125e-08,1.94092188e-01
-4.96428125e-08,1.94109375e-01
-4.96028125e-08,1.94090625e-01
-4.95628125e-08,1.94110937e-01
-4.95228125e-08,1.94087500e-01
-4.94828125e-08,1.94115625e-01
-4.94428125e-08,1.94081250e-01
-4.94028125e-08,1.94123437e-01
-4.93628125e-08,1.94065625e-01
-4.93228125e-08,1.94159375e-01
-4.92828125e-08,1.93885937e-01
-4.92428125e-08,1.93651563e-01
-4.92028125e-08,1.93723438e-01
-4.91628125e-08,1.93685938e-01
-4.91228125e-08,1.93707813e-01
-4.90828125e-08,1.93696875e-01
-4.90428125e-08,1.93698438e-01
-4.90028125e-08,1.93704688e-01
-4.89628125e-08,1.93690625e-01
-4.89228125e-08,1.93715625e-01
-4.88828125e-08,1.93673438e-01
-4.88428125e-08,1.93751563e-01
-4.88028125e-08,1.93493750e-01
-4.87628125e-08,1.93245313e-01
-4.87228125e-08,1.93329688e-01
-4.86828125e-08,1.93281250e-01
-4.86428125e-08,1.93312500e-01
-4.86028125e-08,1.93293750e-01
-4.85628125e-08,1.93301562e-01
-4.85228125e-08,1.93304688e-01
-4.84828125e-08,1.93284375e-01
-4.84428125e-08,1.93342188e-01
-4.84028125e-08,1.93104688e-01
-4.83628125e-08,1.92834375e-01
-4.83228125e-08,1.92940625e-01
-4.82828125e-08,1.92868750e-01
-4.82428125e-08,1.92926563e-01
-4.82028125e-08,1.92878125e-01
-4.81628125e-08,1.92920312e-01
-4.81228125e-08,1.92881250e-01
-4.80828125e-08,1.92917188e-01
-4.80428125e-08,1.92884375e-01
-4.80028125e-08,1.92915625e-01
-4.79628125e-08,1.92885937e-01
-4.79228125e-08,1.92914063e-01
-4.78828125e-08,1.92885937e-01
-4.78428125e-08,1.92912500e-01
-4.78028125e-08,1.92887500e-01
-4.77628125e-08,1.92912500e-01
-4.77228125e-08,1.92887500e-01
-4.76828125e-08,1.92912500e-01
-4.76428125e-08,1.92889063e-01
-4.76028125e-08,1.92910938e-01
-4.75628125e-08,1.92889063e-01
-4.75228125e-08,1.92910938e-01
-4.74828125e-08,1.92889063e-01
-4.74428125e-08,1.92910938e-01
-4.74028125e-08,1.92889063e-01
-4.73628125e-08,1.92910938e-01
-4.73228125e-08,1.92887500e-01
-4.72828125e-08,1.92912500e-01
-4.72428125e-08,1.92887500e-01
-4.72028125e-08,1.92914063e-01
-4.71628125e-08,1.92885937e-01
-4.71228125e-08,1.92915625e-01
-4.70828125e-08,1.92882813e-01
-4.70428125e-08,1.92920312e-01
-4.70028125e-08,1.92875000e-01
-4.69628125e-08,1.92934375e-01
-4.69228125e-08,1.92840625e-01
-4.68828125e-08,1.93112500e-01
-4.68428125e-08,1.93350000e-01
-4.68028125e-08,1.93273438e-01
-4.67628125e-08,1.93317188e-01
-4.67228125e-08,1.93287500e-01
-4.66828125e-08,1.93309375e-01
-4.66428125e-08,1.93292188e-01
-4.66028125e-08,1.93307813e-01
-4.65628125e-08,1.93293750e-01
-4.65228125e-08,1.93306250e-01
-4.64828125e-08,1.93293750e-01
-4.64428125e-08,1.93306250e-01
-4.64028125e-08,1.93293750e-01
-4.63628125e-08,1.93306250e-01
-4.63228125e-08,1.93292188e-01
-4.62828125e-08,1.93309375e-01
-4.62428125e-08,1.93289062e-01
-4.62028125e-08,1.93314062e-01
-4.61628125e-08,1.93281250e-01
-4.61228125e-08,1.93328125e-01
-4.60828125e-08,1.93246875e-01
-4.60428125e-08,1.93504687e-01
-4.60028125e-08,1.93756250e-01
-4.59628125e-08,1.93667188e-01
-4.59228125e-08,1.93723438e-01
-4.58828125e-08,1.93681250e-01
-4.58428125e-08,1.93715625e-01
-4.58028125e-08,1.93685938e-01
-4.57628125e-08,1.93712500e-01
-4.57228125e-08,1.93687500e-01
-4.56828125e-08,1.93710938e-01
-4.56428125e-08,1.93689063e-01
-4.56028125e-08,1.93709375e-01
-4.55628125e-08,1.93690625e-01
-4.55228125e-08,1.93709375e-01
-4.54828125e-08,1.93690625e-01
-4.54428125e-08,1.93707813e-01
-4.54028125e-08,1.93692188e-01
-4.53628125e-08,1.93707813e-01
-4.53228125e-08,1.93692188e-01
-4.52828125e-08,1.93707813e-01
-4.52428125e-08,1.93692188e-01
-4.52028125e-08,1.93707813e-01
-4.51628125e-08,1.93692188e-01
-4.51228125e-08,1.93707813e-01
-4.50828125e-08,1.93692188e-01
-4.50428125e-08,1.93707813e-01
-4.50028125e-08,1.93692188e-01
-4.49628125e-08,1.93707813e-01
-4.49228125e-08,1.93692188e-01
-4.48828125e-08,1.93707813e-01
-4.48428125e-08,1.93692188e-01
-4.48028125e-08,1.93707813e-01
-4.47628125e-08,1.93692188e-01
-4.47228125e-08,1.93707813e-01
-4.46828125e-08,1.93692188e-01
-4.46428125e-08,1.93707813e-01
-4.46028125e-08,1.93692188e-01
-4.45628125e-08,1.93707813e-01
-4.45228125e-08,1.93692188e-01
-4.44828125e-08,1.93707813e-01
-4.44428125e-08,1.93690625e-01
-4.44028125e-08,1.93709375e-01
-4.43628125e-08,1.93690625e-01
-4.43228125e-08,1.93709375e-01
-4.42828125e-08,1.93690625e-01
-4.42428125e-08,1.93709375e-01
-4.42028125e-08,1.93690625e-01
-4.41628125e-08,1.93710938e-01
-4.41228125e-08,1.93689063e-01
-4.40828125e-08,1.93710938e-01
-4.40428125e-08,1.93689063e-01
-4.40028125e-08,1.93712500e-01
-4.39628125e-08,1.93687500e-01
-4.39228125e-08,1.93714063e-01
-4.38828125e-08,1.93685938e-01
-4.38428125e-08,1.93715625e-01
-4.38028125e-08,1.93682812e-01
-4.37628125e-08,1.93718750e-01
-4.37228125e-08,1.93679688e-01
-4.36828125e-08,1.93725000e-01
-4.36428125e-08,1.93670312e-01
-4.36028125e-08,1.93740625e-01
-4.35628125e-08,1.93634375e-01
-4.35228125e-08,1.93918750e-01
-4.34828125e-08,1.94142188e-01
-4.34428125e-08,1.94081250e-01
-4.34028125e-08,1.94107813e-01
-4.33628125e-08,1.94098437e-01
-4.33228125e-08,1.94096875e-01
-4.32828125e-08,1.94106250e-01
-4.32428125e-08,1.94089063e-01
-4.32028125e-08,1.94114063e-01
-4.31628125e-08,1.94079688e-01
-4.31228125e-08,1.94131250e-01
-4.30828125e-08,1.94042188e-01
-4.30428125e-08,1.94312500e-01
-4.30028125e-08,1.94548438e-01
-4.29628125e-08,1.94476563e-01
-4.29228125e-08,1.94512500e-01
-4.28828125e-08,1.94493750e-01
-4.28428125e-08,1.94500000e-01
-4.28028125e-08,1.94504687e-01
-4.27628125e-08,1.94487500e-01
-4.27228125e-08,1.94523438e-01
-4.26828125e-08,1.94451563e-01
-4.26428125e-08,1.94703125e-01
-4.26028125e-08,1.94957812e-01
-4.25628125e-08,1.94867188e-01
-4.25228125e-08,1.94921875e-01
-4.24828125e-08,1.94884375e-01
-4.24428125e-08,1.94912500e-01
-4.24028125e-08,1.94892188e-01
-4.23628125e-08,1.94904688e-01
-4.23228125e-08,1.94900000e-01
-4.22828125e-08,1.94893750e-01
-4.22428125e-08,1.94917188e-01
-4.22028125e-08,1.94857813e-01
-4.21628125e-08,1.95095313e-01
-4.21228125e-08,1.95365625e-01
-4.20828125e-08,1.95257813e-01
-4.20428125e-08,1.95332813e-01
-4.20028125e-08,1.95271875e-01
-4.19628125e-08,1.95325000e-01
-4.19228125e-08,1.95278125e-01
-4.18828125e-08,1.95320313e-01
-4.18428125e-08,1.95279688e-01
-4.18028125e-08,1.95318750e-01
-4.17628125e-08,1.95281250e-01
-4.17228125e-08,1.95318750e-01
-4.16828125e-08,1.95281250e-01
-4.16428125e-08,1.95318750e-01
-4.16028125e-08,1.95279688e-01
-4.15628125e-08,1.95321875e-01
-4.15228125e-08,1.95276563e-01
-4.14828125e-08,1.95326563e-01
-4.14428125e-08,1.95268750e-01
-4.14028125e-08,1.95340625e-01
-4.13628125e-08,1.95234375e-01
-4.13228125e-08,1.95518750e-01
-4.12828125e-08,1.95743750e-01
-4.12428125e-08,1.95679688e-01
-4.12028125e-08,1.95709375e-01
-4.11628125e-08,1.95695312e-01
-4.11228125e-08,1.95701563e-01
-4.10828125e-08,1.95701563e-01
-4.10428125e-08,1.95696875e-01
-4.10028125e-08,1.95706250e-01
-4.09628125e-08,1.95692188e-01
-4.09228125e-08,1.95710938e-01
-4.08828125e-08,1.95685938e-01
-4.08428125e-08,1.95718750e-01
-4.08028125e-08,1.95670312e-01
-4.07628125e-08,1.95754687e-01
-4.07228125e-08,1.95492187e-01
-4.06828125e-08,1.95245313e-01
-4.06428125e-08,1.95329688e-01
-4.06028125e-08,1.95279688e-01
-4.05628125e-08,1.95315625e-01
-4.05228125e-08,1.95287500e-01
-4.04828125e-08,1.95310938e-01
-4.04428125e-08,1.95290625e-01
-4.04028125e-08,1.95307813e-01
-4.03628125e-08,1.95293750e-01
-4.03228125e-08,1.95306250e-01
-4.02828125e-08,1.95295313e-01
-4.02428125e-08,1.95304688e-01
-4.02028125e-08,1.95295313e-01
-4.01628125e-08,1.95304688e-01
-4.01228125e-08,1.95296875e-01
-4.00828125e-08,1.95303125e-01
-4.00428125e-08,1.95296875e-01
-4.00028125e-08,1.95303125e-01
-3.99628125e-08,1.95296875e-01
-3.99228125e-08,1.95303125e-01
-3.98828125e-08,1.95296875e-01
-3.98428125e-08,1.95301562e-01
-3.98028125e-08,1.95298438e-01
-3.97628125e-08,1.95301562e-01
-3.97228125e-08,1.95298438e-01
-3.96828125e-08,1.95301562e-01
-3.96428125e-08,1.95298438e-01
-3.96028125e-08,1.95301562e-01
-3.95628125e-08,1.95298438e-01
-3.95228125e-08,1.95301562e-01
-3.94828125e-08,1.95298438e-01
-3.94428125e-08,1.95301562e-01
-3.94028125e-08,1.95298438e-01
-3.93628125e-08,1.95300000e-01
-3.93228125e-08,1.95300000e-01
-3.92828125e-08,1.95300000e-01
-3.92428125e-08,1.95300000e-01
-3.92028125e-08,1.95300000e-01
-3.91628125e-08,1.95300000e-01
-3.91228125e-08,1.95300000e-01
-3.90828125e-08,1.95300000e-01
-3.90428125e-08,1.95300000e-01
-3.90028125e-08,1.95301562e-01
-3.89628125e-08,1.95298438e-01
-3.89228125e-08,1.95301562e-01
-3.88828125e-08,1.95298438e-01
-3.88428125e-08,1.95303125e-01
-3.88028125e-08,1.95296875e-01
-3.87628125e-08,1.95304688e-01
-3.87228125e-08,1.95295313e-01
-3.86828125e-08,1.95306250e-01
-3.86428125e-08,1.95292188e-01
-3.86028125e-08,1.95310938e-01
-3.85628125e-08,1.95284375e-01
-3.85228125e-08,1.95326563e-01
