trails/0bdfa5e45fec98341abdd20552c140b4/aes_ch1_20250507121603932.csv

Model,MSO66B
Label,
Waveform Type,ANALOG
Horizontal Units,s
Sample Interval,4.00000000e-11
Record Length,10000
Zero Index,1599.07421875
Vertical Units,A
ANALOG_Thumbnail,
yOffset,1.84500000e-01
yPosition,8.40000000e-01

Labels,
TIME,CH1
-6.39629687e-08,1.88489062e-01
-6.39229688e-08,1.88514062e-01
-6.38829687e-08,1.88481250e-01
-6.38429687e-08,1.88528125e-01
-6.38029687e-08,1.88446875e-01
-6.37629687e-08,1.88706250e-01
-6.37229688e-08,1.88956250e-01
-6.36829687e-08,1.88867188e-01
-6.36429688e-08,1.88923438e-01
-6.36029687e-08,1.88881250e-01
-6.35629687e-08,1.88915625e-01
-6.35229687e-08,1.88885938e-01
-6.34829687e-08,1.88912500e-01
-6.34429688e-08,1.88889063e-01
-6.34029687e-08,1.88910938e-01
-6.33629688e-08,1.88889063e-01
-6.33229687e-08,1.88909375e-01
-6.32829687e-08,1.88890625e-01
-6.32429687e-08,1.88909375e-01
-6.32029687e-08,1.88890625e-01
-6.31629688e-08,1.88909375e-01
-6.31229687e-08,1.88890625e-01
-6.30829688e-08,1.88909375e-01
-6.30429687e-08,1.88890625e-01
-6.30029687e-08,1.88910938e-01
-6.29629687e-08,1.88889063e-01
-6.29229687e-08,1.88910938e-01
-6.28829688e-08,1.88889063e-01
-6.28429687e-08,1.88912500e-01
-6.28029688e-08,1.88887500e-01
-6.27629687e-08,1.88914063e-01
-6.27229687e-08,1.88884375e-01
-6.26829687e-08,1.88917188e-01
-6.26429687e-08,1.88881250e-01
-6.26029688e-08,1.88921875e-01
-6.25629687e-08,1.88871875e-01
-6.25229688e-08,1.88937500e-01
-6.24829687e-08,1.88837500e-01
-6.24429687e-08,1.89117188e-01
-6.24029687e-08,1.89345313e-01
-6.23629687e-08,1.89279688e-01
-6.23229688e-08,1.89310937e-01
-6.22829687e-08,1.89295313e-01
-6.22429688e-08,1.89300000e-01
-6.22029687e-08,1.89303125e-01
-6.21629687e-08,1.89292188e-01
-6.21229687e-08,1.89310937e-01
-6.20829687e-08,1.89282813e-01
-6.20429688e-08,1.89328125e-01
-6.20029687e-08,1.89245313e-01
-6.19629688e-08,1.89507813e-01
-6.19229687e-08,1.89753125e-01
-6.18829687e-08,1.89671875e-01
-6.18429687e-08,1.89717187e-01
-6.18029687e-08,1.89689063e-01
-6.17629688e-08,1.89706250e-01
-6.17229687e-08,1.89698438e-01
-6.16829687e-08,1.89695313e-01
-6.16429687e-08,1.89715625e-01
-6.16029687e-08,1.89659375e-01
-6.15629687e-08,1.89893750e-01
-6.15229687e-08,1.90168750e-01
-6.14829688e-08,1.90054688e-01
-6.14429687e-08,1.90135938e-01
-6.14029687e-08,1.90067188e-01
-6.13629687e-08,1.90132812e-01
-6.13229687e-08,1.90065625e-01
-6.12829687e-08,1.90142188e-01
-6.12429687e-08,1.90034375e-01
-6.12029688e-08,1.90318750e-01
-6.11629687e-08,1.90545313e-01
-6.11229687e-08,1.90478125e-01
-6.10829687e-08,1.90514062e-01
-6.10429687e-08,1.90490625e-01
-6.10029687e-08,1.90506250e-01
-6.09629687e-08,1.90495313e-01
-6.09229688e-08,1.90504688e-01
-6.08829687e-08,1.90495313e-01
-6.08429687e-08,1.90504688e-01
-6.08029687e-08,1.90496875e-01
-6.07629687e-08,1.90504688e-01
-6.07229687e-08,1.90495313e-01
-6.06829687e-08,1.90504688e-01
-6.06429688e-08,1.90493750e-01
-6.06029687e-08,1.90509375e-01
-6.05629687e-08,1.90487500e-01
-6.05229687e-08,1.90520313e-01
-6.04829687e-08,1.90456250e-01
-6.04429687e-08,1.90693750e-01
-6.04029687e-08,1.90973438e-01
-6.03629688e-08,1.90840625e-01
-6.03229687e-08,1.90975000e-01
-6.02829687e-08,1.90678125e-01
-6.02429687e-08,1.90456250e-01
-6.02029687e-08,1.90521875e-01
-6.01629687e-08,1.90485938e-01
-6.01229687e-08,1.90509375e-01
-6.00829688e-08,1.90492188e-01
-6.00429687e-08,1.90506250e-01
-6.00029687e-08,1.90493750e-01
-5.99629687e-08,1.90506250e-01
-5.99229687e-08,1.90493750e-01
-5.98829688e-08,1.90506250e-01
-5.98429687e-08,1.90493750e-01
-5.98029688e-08,1.90506250e-01
-5.97629687e-08,1.90493750e-01
-5.97229687e-08,1.90507813e-01
-5.96829687e-08,1.90492188e-01
-5.96429687e-08,1.90509375e-01
-5.96029687e-08,1.90489063e-01
-5.95629687e-08,1.90512500e-01
-5.95229687e-08,1.90484375e-01
-5.94829687e-08,1.90521875e-01
-5.94429687e-08,1.90468750e-01
-5.94029687e-08,1.90556250e-01
-5.93629687e-08,1.90290625e-01
-5.93229687e-08,1.90046875e-01
-5.92829687e-08,1.90129688e-01
-5.92429687e-08,1.90079688e-01
-5.92029687e-08,1.90114063e-01
-5.91629687e-08,1.90089063e-01
-5.91229687e-08,1.90109375e-01
-5.90829687e-08,1.90092188e-01
-5.90429687e-08,1.90106250e-01
-5.90029687e-08,1.90095313e-01
-5.89629687e-08,1.90104688e-01
-5.89229687e-08,1.90096875e-01
-5.88829687e-08,1.90101563e-01
-5.88429687e-08,1.90098437e-01
-5.88029687e-08,1.90100000e-01
-5.87629687e-08,1.90100000e-01
-5.87229687e-08,1.90098437e-01
-5.86829687e-08,1.90103125e-01
-5.86429687e-08,1.90095313e-01
-5.86029687e-08,1.90106250e-01
-5.85629687e-08,1.90090625e-01
-5.85229687e-08,1.90115625e-01
-5.84829687e-08,1.90075000e-01
-5.84429687e-08,1.90150000e-01
-5.84029687e-08,1.89896875e-01
-5.83629687e-08,1.89640625e-01
-5.83229687e-08,1.89734375e-01
-5.82829687e-08,1.89675000e-01
-5.82429687e-08,1.89720313e-01
-5.82029687e-08,1.89682813e-01
-5.81629687e-08,1.89715625e-01
-5.81229687e-08,1.89685938e-01
-5.80829687e-08,1.89712500e-01
-5.80429687e-08,1.89687500e-01
-5.80029687e-08,1.89710938e-01
-5.79629687e-08,1.89689063e-01
-5.79229687e-08,1.89710938e-01
-5.78829687e-08,1.89690625e-01
-5.78429687e-08,1.89709375e-01
-5.78029687e-08,1.89690625e-01
-5.77629687e-08,1.89709375e-01
-5.77229687e-08,1.89690625e-01
-5.76829687e-08,1.89709375e-01
-5.76429687e-08,1.89690625e-01
-5.76029687e-08,1.89709375e-01
-5.75629687e-08,1.89692187e-01
-5.75229687e-08,1.89709375e-01
-5.74829687e-08,1.89690625e-01
-5.74429687e-08,1.89709375e-01
-5.74029687e-08,1.89690625e-01
-5.73629687e-08,1.89709375e-01
-5.73229687e-08,1.89690625e-01
-5.72829687e-08,1.89709375e-01
-5.72429687e-08,1.89690625e-01
-5.72029687e-08,1.89709375e-01
-5.71629687e-08,1.89689063e-01
-5.71229687e-08,1.89710938e-01
-5.70829687e-08,1.89687500e-01
-5.70429687e-08,1.89712500e-01
-5.70029687e-08,1.89685938e-01
-5.69629687e-08,1.89715625e-01
-5.69229687e-08,1.89681250e-01
-5.68829687e-08,1.89725000e-01
-5.68429687e-08,1.89665625e-01
-5.68029687e-08,1.89759375e-01
-5.67629687e-08,1.89487500e-01
-5.67229687e-08,1.89250000e-01
-5.66829687e-08,1.89326563e-01
-5.66429687e-08,1.89282813e-01
-5.66029687e-08,1.89312500e-01
-5.65629687e-08,1.89290625e-01
-5.65229687e-08,1.89307813e-01
-5.64829687e-08,1.89293750e-01
-5.64429687e-08,1.89304688e-01
-5.64029687e-08,1.89295313e-01
-5.63629687e-08,1.89303125e-01
-5.63229687e-08,1.89296875e-01
-5.62829687e-08,1.89303125e-01
-5.62429687e-08,1.89298437e-01
-5.62029687e-08,1.89301563e-01
-5.61629687e-08,1.89298437e-01
-5.61229687e-08,1.89301563e-01
-5.60829687e-08,1.89298437e-01
-5.60429687e-08,1.89301563e-01
-5.60029687e-08,1.89300000e-01
-5.59629687e-08,1.89300000e-01
-5.59229687e-08,1.89300000e-01
-5.58829687e-08,1.89300000e-01
-5.58429687e-08,1.89300000e-01
-5.58029687e-08,1.89300000e-01
-5.57629687e-08,1.89300000e-01
-5.57229687e-08,1.89300000e-01
-5.56829687e-08,1.89300000e-01
-5.56429687e-08,1.89300000e-01
-5.56029687e-08,1.89300000e-01
-5.55629687e-08,1.89300000e-01
-5.55229687e-08,1.89300000e-01
-5.54829687e-08,1.89300000e-01
-5.54429687e-08,1.89300000e-01
-5.54029687e-08,1.89300000e-01
-5.53629687e-08,1.89300000e-01
-5.53229687e-08,1.89300000e-01
-5.52829687e-08,1.89300000e-01
-5.52429687e-08,1.89298437e-01
-5.52029687e-08,1.89301563e-01
-5.51629687e-08,1.89298437e-01
-5.51229687e-08,1.89301563e-01
-5.50829687e-08,1.89298437e-01
-5.50429687e-08,1.89301563e-01
-5.50029687e-08,1.89298437e-01
-5.49629687e-08,1.89301563e-01
-5.49229687e-08,1.89298437e-01
-5.48829687e-08,1.89301563e-01
-5.48429687e-08,1.89298437e-01
-5.48029687e-08,1.89301563e-01
-5.47629687e-08,1.89298437e-01
-5.47229687e-08,1.89301563e-01
-5.46829687e-08,1.89298437e-01
-5.46429687e-08,1.89301563e-01
-5.46029687e-08,1.89298437e-01
-5.45629687e-08,1.89301563e-01
-5.45229687e-08,1.89298437e-01
-5.44829687e-08,1.89301563e-01
-5.44429687e-08,1.89298437e-01
-5.44029687e-08,1.89301563e-01
-5.43629687e-08,1.89298437e-01
-5.43229687e-08,1.89301563e-01
-5.42829687e-08,1.89298437e-01
-5.42429687e-08,1.89303125e-01
-5.42029687e-08,1.89296875e-01
-5.41629687e-08,1.89303125e-01
-5.41229687e-08,1.89296875e-01
-5.40829687e-08,1.89303125e-01
-5.40429687e-08,1.89296875e-01
-5.40029687e-08,1.89304688e-01
-5.39629687e-08,1.89295313e-01
-5.39229687e-08,1.89304688e-01
-5.38829687e-08,1.89293750e-01
-5.38429687e-08,1.89307813e-01
-5.38029687e-08,1.89290625e-01
-5.37629687e-08,1.89310937e-01
-5.37229687e-08,1.89285938e-01
-5.36829687e-08,1.89318750e-01
-5.36429687e-08,1.89271875e-01
-5.36029687e-08,1.89353125e-01
-5.35629687e-08,1.89093750e-01
-5.35229687e-08,1.88843750e-01
-5.34829687e-08,1.88932813e-01
-5.34429687e-08,1.88876563e-01
-5.34029687e-08,1.88918750e-01
-5.33629687e-08,1.88884375e-01
-5.33229687e-08,1.88914063e-01
-5.32829687e-08,1.88887500e-01
-5.32429687e-08,1.88912500e-01
-5.32029687e-08,1.88889063e-01
-5.31629687e-08,1.88910938e-01
-5.31229687e-08,1.88889063e-01
-5.30829687e-08,1.88910938e-01
-5.30429687e-08,1.88889063e-01
-5.30029687e-08,1.88910938e-01
-5.29629687e-08,1.88887500e-01
-5.29229687e-08,1.88912500e-01
-5.28829687e-08,1.88885938e-01
-5.28429687e-08,1.88915625e-01
-5.28029687e-08,1.88881250e-01
-5.27629687e-08,1.88925000e-01
-5.27229687e-08,1.88865625e-01
-5.26829687e-08,1.88957813e-01
-5.26429687e-08,1.88689063e-01
-5.26029687e-08,1.88450000e-01
-5.25629687e-08,1.88526562e-01
-5.25229687e-08,1.88482813e-01
-5.24829687e-08,1.88512500e-01
-5.24429687e-08,1.88490625e-01
-5.24029687e-08,1.88507813e-01
-5.23629687e-08,1.88493750e-01
-5.23229687e-08,1.88504688e-01
-5.22829687e-08,1.88495313e-01
-5.22429687e-08,1.88503125e-01
-5.22029688e-08,1.88496875e-01
-5.21629687e-08,1.88503125e-01
-5.21229687e-08,1.88498438e-01
-5.20829687e-08,1.88501562e-01
-5.20429687e-08,1.88498438e-01
-5.20029687e-08,1.88501562e-01
-5.19629687e-08,1.88500000e-01
-5.19229687e-08,1.88500000e-01
-5.18829687e-08,1.88500000e-01
-5.18429687e-08,1.88500000e-01
-5.18029687e-08,1.88500000e-01
-5.17629687e-08,1.88498438e-01
-5.17229687e-08,1.88501562e-01
-5.16829687e-08,1.88498438e-01
-5.16429687e-08,1.88501562e-01
-5.16029687e-08,1.88496875e-01
-5.15629687e-08,1.88503125e-01
-5.15229687e-08,1.88496875e-01
-5.14829687e-08,1.88504688e-01
-5.14429687e-08,1.88495313e-01
-5.14029687e-08,1.88506250e-01
-5.13629687e-08,1.88493750e-01
-5.13229687e-08,1.88507813e-01
-5.12829687e-08,1.88489062e-01
-5.12429687e-08,1.88514062e-01
-5.12029687e-08,1.88481250e-01
-5.11629687e-08,1.88528125e-01
-5.11229687e-08,1.88446875e-01
-5.10829687e-08,1.88706250e-01
-5.10429687e-08,1.88956250e-01
-5.10029687e-08,1.88867188e-01
-5.09629687e-08,1.88923438e-01
-5.09229687e-08,1.88881250e-01
-5.08829687e-08,1.88917188e-01
-5.08429687e-08,1.88884375e-01
-5.08029687e-08,1.88914063e-01
-5.07629687e-08,1.88885938e-01
-5.07229687e-08,1.88914063e-01
-5.06829687e-08,1.88884375e-01
-5.06429687e-08,1.88917188e-01
-5.06029687e-08,1.88878125e-01
-5.05629687e-08,1.88929687e-01
-5.05229687e-08,1.88845313e-01
-5.04829687e-08,1.89106250e-01
-5.04429687e-08,1.89356250e-01
-5.04029687e-08,1.89265625e-01
-5.03629687e-08,1.89326563e-01
-5.03229687e-08,1.89278125e-01
-5.02829688e-08,1.89321875e-01
-5.02429687e-08,1.89278125e-01
-5.02029687e-08,1.89323437e-01
-5.01629687e-08,1.89271875e-01
-5.01229687e-08,1.89337500e-01
-5.00829687e-08,1.89237500e-01
-5.00429687e-08,1.89515625e-01
-5.00029688e-08,1.89746875e-01
-4.99629687e-08,1.89676563e-01
-4.99229687e-08,1.89712500e-01
-4.98829687e-08,1.89692187e-01
-4.98429687e-08,1.89703125e-01
-4.98029687e-08,1.89700000e-01
-4.97629687e-08,1.89696875e-01
-4.97229687e-08,1.89707813e-01
-4.96829687e-08,1.89685938e-01
-4.96429687e-08,1.89723438e-01
-4.96029687e-08,1.89650000e-01
-4.95629687e-08,1.89903125e-01
-4.95229687e-08,1.90157812e-01
-4.94829687e-08,1.90065625e-01
-4.94429687e-08,1.90125000e-01
-4.94029687e-08,1.90081250e-01
-4.93629687e-08,1.90115625e-01
-4.93229687e-08,1.90087500e-01
-4.92829687e-08,1.90110938e-01
-4.92429687e-08,1.90090625e-01
-4.92029687e-08,1.90107813e-01
-4.91629687e-08,1.90093750e-01
-4.91229687e-08,1.90104688e-01
-4.90829687e-08,1.90098437e-01
-4.90429687e-08,1.90100000e-01
-4.90029687e-08,1.90103125e-01
-4.89629687e-08,1.90090625e-01
-4.89229687e-08,1.90118750e-01
-4.88829687e-08,1.90056250e-01
-4.88429687e-08,1.90296875e-01
-4.88029687e-08,1.90564063e-01
-4.87629687e-08,1.90459375e-01
-4.87229687e-08,1.90531250e-01
-4.86829687e-08,1.90473438e-01
-4.86429688e-08,1.90523438e-01
-4.86029687e-08,1.90478125e-01
-4.85629687e-08,1.90520313e-01
-4.85229687e-08,1.90481250e-01
-4.84829687e-08,1.90518750e-01
-4.84429687e-08,1.90482813e-01
-4.84029687e-08,1.90517188e-01
-4.83629688e-08,1.90482813e-01
-4.83229687e-08,1.90517188e-01
-4.82829687e-08,1.90484375e-01
-4.82429687e-08,1.90515625e-01
-4.82029687e-08,1.90482813e-01
-4.81629687e-08,1.90517188e-01
-4.81229687e-08,1.90482813e-01
-4.80829688e-08,1.90517188e-01
-4.80429687e-08,1.90481250e-01
-4.80029687e-08,1.90518750e-01
-4.79629687e-08,1.90479687e-01
-4.79229687e-08,1.90521875e-01
-4.78829687e-08,1.90475000e-01
-4.78429687e-08,1.90531250e-01
-4.78029687e-08,1.90459375e-01
-4.77629687e-08,1.90564063e-01
-4.77229687e-08,1.90281250e-01
-4.76829687e-08,1.90056250e-01
-4.76429687e-08,1.90120312e-01
-4.76029687e-08,1.90089063e-01
-4.75629687e-08,1.90106250e-01
-4.75229687e-08,1.90096875e-01
-4.74829687e-08,1.90101563e-01
-4.74429687e-08,1.90100000e-01
-4.74029687e-08,1.90098437e-01
-4.73629687e-08,1.90101563e-01
-4.73229687e-08,1.90096875e-01
-4.72829687e-08,1.90103125e-01
-4.72429687e-08,1.90095313e-01
-4.72029687e-08,1.90104688e-01
-4.71629687e-08,1.90095313e-01
-4.71229687e-08,1.90106250e-01
-4.70829687e-08,1.90093750e-01
-4.70429687e-08,1.90106250e-01
-4.70029687e-08,1.90093750e-01
-4.69629687e-08,1.90106250e-01
-4.69229687e-08,1.90092188e-01
-4.68829687e-08,1.90107813e-01
-4.68429687e-08,1.90092188e-01
-4.68029687e-08,1.90107813e-01
-4.67629687e-08,1.90090625e-01
-4.67229688e-08,1.90109375e-01
-4.66829687e-08,1.90090625e-01
-4.66429687e-08,1.90109375e-01
-4.66029687e-08,1.90089063e-01
-4.65629687e-08,1.90110938e-01
-4.65229687e-08,1.90087500e-01
-4.64829687e-08,1.90112500e-01
-4.64429688e-08,1.90085937e-01
-4.64029687e-08,1.90115625e-01
-4.63629687e-08,1.90081250e-01
-4.63229687e-08,1.90121875e-01
-4.62829687e-08,1.90073437e-01
-4.62429687e-08,1.90135938e-01
-4.62029687e-08,1.90039062e-01
-4.61629688e-08,1.90314063e-01
-4.61229687e-08,1.90548438e-01
-4.60829687e-08,1.90476563e-01
-4.60429687e-08,1.90514062e-01
-4.60029687e-08,1.90490625e-01
-4.59629687e-08,1.90506250e-01
-4.59229687e-08,1.90496875e-01
-4.58829688e-08,1.90501562e-01
-4.58429687e-08,1.90498438e-01
-4.58029687e-08,1.90500000e-01
-4.57629687e-08,1.90501562e-01
-4.57229687e-08,1.90498438e-01
-4.56829687e-08,1.90503125e-01
-4.56429687e-08,1.90496875e-01
-4.56029687e-08,1.90503125e-01
-4.55629687e-08,1.90495313e-01
-4.55229687e-08,1.90504688e-01
-4.54829687e-08,1.90495313e-01
-4.54429687e-08,1.90506250e-01
-4.54029687e-08,1.90493750e-01
-4.53629687e-08,1.90506250e-01
-4.53229687e-08,1.90492188e-01
-4.52829687e-08,1.90507813e-01
-4.52429687e-08,1.90490625e-01
-4.52029687e-08,1.90509375e-01
-4.51629687e-08,1.90489063e-01
-4.51229687e-08,1.90510938e-01
-4.50829687e-08,1.90487500e-01
-4.50429687e-08,1.90514062e-01
-4.50029687e-08,1.90484375e-01
-4.49629687e-08,1.90518750e-01
-4.49229687e-08,1.90478125e-01
-4.48829687e-08,1.90528125e-01
-4.48429687e-08,1.90462500e-01
-4.48029688e-08,1.90562500e-01
-4.47629687e-08,1.90282813e-01
-4.47229687e-08,1.90054688e-01
-4.46829687e-08,1.90120312e-01
-4.46429687e-08,1.90090625e-01
-4.46029687e-08,1.90103125e-01
-4.45629687e-08,1.90103125e-01
-4.45229688e-08,1.90092188e-01
-4.44829687e-08,1.90114063e-01
-4.44429687e-08,1.90075000e-01
-4.44029687e-08,1.90151563e-01
-4.43629687e-08,1.89895312e-01
-4.43229687e-08,1.89643750e-01
-4.42829687e-08,1.89731250e-01
-4.42429688e-08,1.89678125e-01
-4.42029687e-08,1.89717187e-01
-4.41629687e-08,1.89687500e-01
-4.41229687e-08,1.89710938e-01
-4.40829687e-08,1.89690625e-01
-4.40429687e-08,1.89707813e-01
-4.40029687e-08,1.89693750e-01
-4.39629688e-08,1.89704687e-01
-4.39229687e-08,1.89695313e-01
-4.38829687e-08,1.89703125e-01
-4.38429687e-08,1.89696875e-01
-4.38029687e-08,1.89703125e-01
-4.37629687e-08,1.89698438e-01
-4.37229687e-08,1.89701563e-01
-4.36829688e-08,1.89698438e-01
-4.36429687e-08,1.89700000e-01
-4.36029687e-08,1.89700000e-01
-4.35629687e-08,1.89700000e-01
-4.35229687e-08,1.89700000e-01
-4.34829687e-08,1.89698438e-01
-4.34429687e-08,1.89701563e-01
-4.34029687e-08,1.89698438e-01
-4.33629687e-08,1.89703125e-01
-4.33229687e-08,1.89696875e-01
-4.32829687e-08,1.89703125e-01
-4.32429687e-08,1.89695313e-01
-4.32029687e-08,1.89704687e-01
-4.31629687e-08,1.89693750e-01
-4.31229687e-08,1.89706250e-01
-4.30829687e-08,1.89692187e-01
-4.30429687e-08,1.89707813e-01
-4.30029687e-08,1.89690625e-01
-4.29629687e-08,1.89710938e-01
-4.29229687e-08,1.89685938e-01
-4.28829688e-08,1.89717187e-01
-4.28429687e-08,1.89678125e-01
-4.28029687e-08,1.89732813e-01
-4.27629687e-08,1.89642188e-01
-4.27229687e-08,1.89910938e-01
-4.26829687e-08,1.90151563e-01
-4.26429687e-08,1.90073437e-01
-4.26029688e-08,1.90117188e-01
-4.25629687e-08,1.90089063e-01
-4.25229687e-08,1.90107813e-01
-4.24829687e-08,1.90095313e-01
-4.24429687e-08,1.90103125e-01
-4.24029687e-08,1.90098437e-01
-4.23629687e-08,1.90100000e-01
-4.23229688e-08,1.90101563e-01
-4.22829687e-08,1.90096875e-01
-4.22429687e-08,1.90106250e-01
-4.22029687e-08,1.90090625e-01
-4.21629687e-08,1.90112500e-01
-4.21229687e-08,1.90082813e-01
-4.20829687e-08,1.90128125e-01
-4.20429688e-08,1.90046875e-01
-4.20029687e-08,1.90307813e-01
-4.19629687e-08,1.90554688e-01
-4.19229687e-08,1.90470313e-01
-4.18829687e-08,1.90520313e-01
-4.18429687e-08,1.90485938e-01
-4.18029687e-08,1.90509375e-01
-4.17629688e-08,1.90493750e-01
-4.17229687e-08,1.90503125e-01
-4.16829687e-08,1.90501562e-01
-4.16429687e-08,1.90492188e-01
-4.16029687e-08,1.90517188e-01
-4.15629687e-08,1.90457813e-01
-4.15229687e-08,1.90695313e-01
-4.14829688e-08,1.90965625e-01
-4.14429687e-08,1.90857813e-01
-4.14029687e-08,1.90934375e-01
-4.13629687e-08,1.90870313e-01
-4.13229687e-08,1.90928125e-01
-4.12829687e-08,1.90871875e-01
-4.12429687e-08,1.90928125e-01
-4.12029687e-08,1.90867188e-01
-4.11629687e-08,1.90940625e-01
-4.11229687e-08,1.90835937e-01
-4.10829687e-08,1.91117188e-01
-4.10429687e-08,1.91345313e-01
-4.10029687e-08,1.91276562e-01
-4.09629688e-08,1.91314062e-01
-4.09229687e-08,1.91290625e-01
-4.08829687e-08,1.91307813e-01
-4.08429687e-08,1.91293750e-01
-4.08029687e-08,1.91304688e-01
-4.07629687e-08,1.91296875e-01
-4.07229687e-08,1.91303125e-01
-4.06829688e-08,1.91296875e-01
-4.06429687e-08,1.91303125e-01
-4.06029687e-08,1.91296875e-01
-4.05629687e-08,1.91303125e-01
-4.05229687e-08,1.91296875e-01
-4.04829687e-08,1.91303125e-01
-4.04429687e-08,1.91296875e-01
-4.04029688e-08,1.91303125e-01
-4.03629687e-08,1.91296875e-01
-4.03229687e-08,1.91304688e-01
-4.02829687e-08,1.91295313e-01
-4.02429687e-08,1.91304688e-01
-4.02029687e-08,1.91293750e-01
-4.01629687e-08,1.91306250e-01
-4.01229688e-08,1.91292188e-01
-4.00829687e-08,1.91309375e-01
-4.00429687e-08,1.91289062e-01
-4.00029687e-08,1.91312500e-01
-3.99629687e-08,1.91284375e-01
-3.99229687e-08,1.91321875e-01
-3.98829687e-08,1.91268750e-01
-3.98429688e-08,1.91356250e-01
-3.98029687e-08,1.91090625e-01
-3.97629687e-08,1.90848437e-01
-3.97229687e-08,1.90928125e-01
-3.96829687e-08,1.90882812e-01
-3.96429687e-08,1.90912500e-01
-3.96029687e-08,1.90892188e-01
-3.95629688e-08,1.90904688e-01
-3.95229687e-08,1.90898438e-01
-3.94829687e-08,1.90896875e-01
-3.94429687e-08,1.90909375e-01
-3.94029687e-08,1.90881250e-01
-3.93629687e-08,1.90943750e-01
-3.93229687e-08,1.90703125e-01
-3.92829688e-08,1.90434375e-01
-3.92429687e-08,1.90542188e-01
-3.92029687e-08,1.90467187e-01
-3.91629687e-08,1.90528125e-01
-3.91229687e-08,1.90473438e-01
-3.90829687e-08,1.90526562e-01
-3.90429688e-08,1.90473438e-01
-3.90029687e-08,1.90531250e-01
-3.89629687e-08,1.90460938e-01
-3.89229687e-08,1.90562500e-01
-3.88829687e-08,1.90284375e-01
-3.88429687e-08,1.90051562e-01
-3.88029687e-08,1.90125000e-01
-3.87629688e-08,1.90082813e-01
-3.87229687e-08,1.90114063e-01
-3.86829687e-08,1.90089063e-01
-3.86429687e-08,1.90110938e-01
-3.86029687e-08,1.90089063e-01
-3.85629687e-08,1.90112500e-01
-3.85229687e-08,1.90085937e-01
