trails/0bdfa5e45fec98341abdd20552c140b4/aes_ch1_20250507123246911.csv

Model,MSO66B
Label,
Waveform Type,ANALOG
Horizontal Units,s
Sample Interval,4.00000000e-11
Record Length,10000
Zero Index,1599.03125000
Vertical Units,A
ANALOG_Thumbnail,
yOffset,1.84500000e-01
yPosition,8.40000000e-01

Labels,
TIME,CH1
-6.39612500e-08,1.87300000e-01
-6.39212500e-08,1.87296875e-01
-6.38812500e-08,1.87303125e-01
-6.38412500e-08,1.87295313e-01
-6.38012500e-08,1.87306250e-01
-6.37612500e-08,1.87293750e-01
-6.37212500e-08,1.87306250e-01
-6.36812500e-08,1.87292188e-01
-6.36412500e-08,1.87307813e-01
-6.36012500e-08,1.87292188e-01
-6.35612500e-08,1.87307813e-01
-6.35212500e-08,1.87290625e-01
-6.34812500e-08,1.87309375e-01
-6.34412500e-08,1.87290625e-01
-6.34012500e-08,1.87309375e-01
-6.33612500e-08,1.87289063e-01
-6.33212500e-08,1.87310937e-01
-6.32812500e-08,1.87289063e-01
-6.32412500e-08,1.87312500e-01
-6.32012500e-08,1.87287500e-01
-6.31612500e-08,1.87314063e-01
-6.31212500e-08,1.87285937e-01
-6.30812500e-08,1.87315625e-01
-6.30412500e-08,1.87282813e-01
-6.30012500e-08,1.87318750e-01
-6.29612500e-08,1.87278125e-01
-6.29212500e-08,1.87328125e-01
-6.28812500e-08,1.87262500e-01
-6.28412500e-08,1.87362500e-01
-6.28012500e-08,1.87084375e-01
-6.27612500e-08,1.86854688e-01
-6.27212500e-08,1.86921875e-01
-6.26812500e-08,1.86887500e-01
-6.26412500e-08,1.86906250e-01
-6.26012500e-08,1.86896875e-01
-6.25612500e-08,1.86901563e-01
-6.25212500e-08,1.86901563e-01
-6.24812500e-08,1.86896875e-01
-6.24412500e-08,1.86904687e-01
-6.24012500e-08,1.86892188e-01
-6.23612500e-08,1.86909375e-01
-6.23212500e-08,1.86887500e-01
-6.22812500e-08,1.86918750e-01
-6.22412500e-08,1.86871875e-01
-6.22012500e-08,1.86951563e-01
-6.21612500e-08,1.86695313e-01
-6.21212500e-08,1.86442187e-01
-6.20812500e-08,1.86535937e-01
-6.20412500e-08,1.86471875e-01
-6.20012500e-08,1.86528125e-01
-6.19612500e-08,1.86467188e-01
-6.19212500e-08,1.86554688e-01
-6.18812500e-08,1.86295313e-01
-6.18412500e-08,1.86040625e-01
-6.18012500e-08,1.86139063e-01
-6.17612500e-08,1.86065625e-01
-6.17212500e-08,1.86135938e-01
-6.16812500e-08,1.86056250e-01
-6.16412500e-08,1.86167187e-01
-6.16012500e-08,1.85879688e-01
-6.15612500e-08,1.85657813e-01
-6.15212500e-08,1.85717188e-01
-6.14812500e-08,1.85693750e-01
-6.14412500e-08,1.85698438e-01
-6.14012500e-08,1.85709375e-01
-6.13612500e-08,1.85679687e-01
-6.13212500e-08,1.85746875e-01
-6.12812500e-08,1.85500000e-01
-6.12412500e-08,1.85239062e-01
-6.12012500e-08,1.85335938e-01
-6.11612500e-08,1.85273437e-01
-6.11212500e-08,1.85321875e-01
-6.10812500e-08,1.85281250e-01
-6.10412500e-08,1.85315625e-01
-6.10012500e-08,1.85285937e-01
-6.09612500e-08,1.85314063e-01
-6.09212500e-08,1.85287500e-01
-6.08812500e-08,1.85312500e-01
-6.08412500e-08,1.85287500e-01
-6.08012500e-08,1.85312500e-01
-6.07612500e-08,1.85287500e-01
-6.07212500e-08,1.85312500e-01
-6.06812500e-08,1.85287500e-01
-6.06412500e-08,1.85312500e-01
-6.06012500e-08,1.85285937e-01
-6.05612500e-08,1.85315625e-01
-6.05212500e-08,1.85282813e-01
-6.04812500e-08,1.85320313e-01
-6.04412500e-08,1.85275000e-01
-6.04012500e-08,1.85334375e-01
-6.03612500e-08,1.85239062e-01
-6.03212500e-08,1.85514063e-01
-6.02812500e-08,1.85748438e-01
-6.02412500e-08,1.85676563e-01
-6.02012500e-08,1.85712500e-01
-6.01612500e-08,1.85695313e-01
-6.01212500e-08,1.85698438e-01
-6.00812500e-08,1.85712500e-01
-6.00412500e-08,1.85660938e-01
-6.00012500e-08,1.85890625e-01
-5.99612500e-08,1.86171875e-01
-5.99212500e-08,1.86050000e-01
-5.98812500e-08,1.86143750e-01
-5.98412500e-08,1.86056250e-01
-5.98012500e-08,1.86150000e-01
-5.97612500e-08,1.86026562e-01
-5.97212500e-08,1.86325000e-01
-5.96812500e-08,1.86537500e-01
-5.96412500e-08,1.86487500e-01
-5.96012500e-08,1.86503125e-01
-5.95612500e-08,1.86504688e-01
-5.95212500e-08,1.86489062e-01
-5.94812500e-08,1.86521875e-01
-5.94412500e-08,1.86451563e-01
-5.94012500e-08,1.86701563e-01
-5.93612500e-08,1.86960938e-01
-5.93212500e-08,1.86862500e-01
-5.92812500e-08,1.86929687e-01
-5.92412500e-08,1.86875000e-01
-5.92012500e-08,1.86923438e-01
-5.91612500e-08,1.86876563e-01
-5.91212500e-08,1.86925000e-01
-5.90812500e-08,1.86871875e-01
-5.90412500e-08,1.86937500e-01
-5.90012500e-08,1.86837500e-01
-5.89612500e-08,1.87115625e-01
-5.89212500e-08,1.87346875e-01
-5.88812500e-08,1.87276563e-01
-5.88412500e-08,1.87314063e-01
-5.88012500e-08,1.87292188e-01
-5.87612500e-08,1.87304688e-01
-5.87212500e-08,1.87298437e-01
-5.86812500e-08,1.87296875e-01
-5.86412500e-08,1.87309375e-01
-5.86012500e-08,1.87281250e-01
-5.85612500e-08,1.87343750e-01
-5.85212500e-08,1.87103125e-01
-5.84812500e-08,1.86834375e-01
-5.84412500e-08,1.86942187e-01
-5.84012500e-08,1.86865625e-01
-5.83612500e-08,1.86929687e-01
-5.83212500e-08,1.86870312e-01
-5.82812500e-08,1.86929687e-01
-5.82412500e-08,1.86868750e-01
-5.82012500e-08,1.86934375e-01
-5.81612500e-08,1.86856250e-01
-5.81212500e-08,1.86968750e-01
-5.80812500e-08,1.86678125e-01
-5.80412500e-08,1.86460938e-01
-5.80012500e-08,1.86515625e-01
-5.79612500e-08,1.86495313e-01
-5.79212500e-08,1.86496875e-01
-5.78812500e-08,1.86510938e-01
-5.78412500e-08,1.86478125e-01
-5.78012500e-08,1.86546875e-01
-5.77612500e-08,1.86300000e-01
-5.77212500e-08,1.86039063e-01
-5.76812500e-08,1.86139063e-01
-5.76412500e-08,1.86070313e-01
-5.76012500e-08,1.86126563e-01
-5.75612500e-08,1.86073437e-01
-5.75212500e-08,1.86129688e-01
-5.74812500e-08,1.86062500e-01
-5.74412500e-08,1.86160938e-01
-5.74012500e-08,1.85887500e-01
-5.73612500e-08,1.85650000e-01
-5.73212500e-08,1.85728125e-01
-5.72812500e-08,1.85681250e-01
-5.72412500e-08,1.85714062e-01
-5.72012500e-08,1.85687500e-01
-5.71612500e-08,1.85710938e-01
-5.71212500e-08,1.85690625e-01
-5.70812500e-08,1.85709375e-01
-5.70412500e-08,1.85692187e-01
-5.70012500e-08,1.85707813e-01
-5.69612500e-08,1.85692187e-01
-5.69212500e-08,1.85707813e-01
-5.68812500e-08,1.85692187e-01
-5.68412500e-08,1.85707813e-01
-5.68012500e-08,1.85690625e-01
-5.67612500e-08,1.85709375e-01
-5.67212500e-08,1.85690625e-01
-5.66812500e-08,1.85709375e-01
-5.66412500e-08,1.85689063e-01
-5.66012500e-08,1.85710938e-01
-5.65612500e-08,1.85687500e-01
-5.65212500e-08,1.85714062e-01
-5.64812500e-08,1.85682813e-01
-5.64412500e-08,1.85720313e-01
-5.64012500e-08,1.85675000e-01
-5.63612500e-08,1.85734375e-01
-5.63212500e-08,1.85639063e-01
-5.62812500e-08,1.85914063e-01
-5.62412500e-08,1.86148438e-01
-5.62012500e-08,1.86076563e-01
-5.61612500e-08,1.86114063e-01
-5.61212500e-08,1.86092188e-01
-5.60812500e-08,1.86104688e-01
-5.60412500e-08,1.86100000e-01
-5.60012500e-08,1.86096875e-01
-5.59612500e-08,1.86106250e-01
-5.59212500e-08,1.86087500e-01
-5.58812500e-08,1.86121875e-01
-5.58412500e-08,1.86051563e-01
-5.58012500e-08,1.86301563e-01
-5.57612500e-08,1.86560937e-01
-5.57212500e-08,1.86462500e-01
-5.56812500e-08,1.86528125e-01
-5.56412500e-08,1.86476562e-01
-5.56012500e-08,1.86520313e-01
-5.55612500e-08,1.86481250e-01
-5.55212500e-08,1.86517188e-01
-5.54812500e-08,1.86482813e-01
-5.54412500e-08,1.86517188e-01
-5.54012500e-08,1.86481250e-01
-5.53612500e-08,1.86521875e-01
-5.53212500e-08,1.86475000e-01
-5.52812500e-08,1.86534375e-01
-5.52412500e-08,1.86440625e-01
-5.52012500e-08,1.86712500e-01
-5.51612500e-08,1.86950000e-01
-5.51212500e-08,1.86873438e-01
-5.50812500e-08,1.86918750e-01
-5.50412500e-08,1.86885938e-01
-5.50012500e-08,1.86910938e-01
-5.49612500e-08,1.86890625e-01
-5.49212500e-08,1.86907812e-01
-5.48812500e-08,1.86892188e-01
-5.48412500e-08,1.86906250e-01
-5.48012500e-08,1.86893750e-01
-5.47612500e-08,1.86906250e-01
-5.47212500e-08,1.86893750e-01
-5.46812500e-08,1.86906250e-01
-5.46412500e-08,1.86893750e-01
-5.46012500e-08,1.86906250e-01
-5.45612500e-08,1.86892188e-01
-5.45212500e-08,1.86907812e-01
-5.44812500e-08,1.86892188e-01
-5.44412500e-08,1.86909375e-01
-5.44012500e-08,1.86889063e-01
-5.43612500e-08,1.86912500e-01
-5.43212500e-08,1.86884375e-01
-5.42812500e-08,1.86920313e-01
-5.42412500e-08,1.86870312e-01
-5.42012500e-08,1.86954687e-01
-5.41612500e-08,1.86692187e-01
-5.41212500e-08,1.86445313e-01
-5.40812500e-08,1.86531250e-01
-5.40412500e-08,1.86478125e-01
-5.40012500e-08,1.86517188e-01
-5.39612500e-08,1.86485938e-01
-5.39212500e-08,1.86512500e-01
-5.38812500e-08,1.86489062e-01
-5.38412500e-08,1.86510938e-01
-5.38012500e-08,1.86490625e-01
-5.37612500e-08,1.86509375e-01
-5.37212500e-08,1.86490625e-01
-5.36812500e-08,1.86509375e-01
-5.36412500e-08,1.86490625e-01
-5.36012500e-08,1.86510938e-01
-5.35612500e-08,1.86487500e-01
-5.35212500e-08,1.86514062e-01
-5.34812500e-08,1.86484375e-01
-5.34412500e-08,1.86520313e-01
-5.34012500e-08,1.86470313e-01
-5.33612500e-08,1.86554688e-01
-5.33212500e-08,1.86292188e-01
-5.32812500e-08,1.86045313e-01
-5.32412500e-08,1.86131250e-01
-5.32012500e-08,1.86078125e-01
-5.31612500e-08,1.86117188e-01
-5.31212500e-08,1.86084375e-01
-5.30812500e-08,1.86112500e-01
-5.30412500e-08,1.86087500e-01
-5.30012500e-08,1.86110938e-01
-5.29612500e-08,1.86089063e-01
-5.29212500e-08,1.86110938e-01
-5.28812500e-08,1.86089063e-01
-5.28412500e-08,1.86110938e-01
-5.28012500e-08,1.86087500e-01
-5.27612500e-08,1.86112500e-01
-5.27212500e-08,1.86085938e-01
-5.26812500e-08,1.86115625e-01
-5.26412500e-08,1.86081250e-01
-5.26012500e-08,1.86123438e-01
-5.25612500e-08,1.86067188e-01
-5.25212500e-08,1.86157813e-01
-5.24812500e-08,1.85889063e-01
-5.24412500e-08,1.85648438e-01
-5.24012500e-08,1.85728125e-01
-5.23612500e-08,1.85681250e-01
-5.23212500e-08,1.85714062e-01
-5.22812500e-08,1.85689063e-01
-5.22412500e-08,1.85707813e-01
-5.22012500e-08,1.85693750e-01
-5.21612500e-08,1.85706250e-01
-5.21212500e-08,1.85695313e-01
-5.20812500e-08,1.85704688e-01
-5.20412500e-08,1.85696875e-01
-5.20012500e-08,1.85703125e-01
-5.19612500e-08,1.85696875e-01
-5.19212500e-08,1.85703125e-01
-5.18812500e-08,1.85698438e-01
-5.18412500e-08,1.85701563e-01
-5.18012500e-08,1.85698438e-01
-5.17612500e-08,1.85701563e-01
-5.17212500e-08,1.85698438e-01
-5.16812500e-08,1.85701563e-01
-5.16412500e-08,1.85698438e-01
-5.16012500e-08,1.85701563e-01
-5.15612500e-08,1.85700000e-01
-5.15212500e-08,1.85700000e-01
-5.14812500e-08,1.85700000e-01
-5.14412500e-08,1.85700000e-01
-5.14012500e-08,1.85700000e-01
-5.13612500e-08,1.85700000e-01
-5.13212500e-08,1.85700000e-01
-5.12812500e-08,1.85700000e-01
-5.12412500e-08,1.85700000e-01
-5.12012500e-08,1.85700000e-01
-5.11612500e-08,1.85700000e-01
-5.11212500e-08,1.85700000e-01
-5.10812500e-08,1.85700000e-01
-5.10412500e-08,1.85700000e-01
-5.10012500e-08,1.85701563e-01
-5.09612500e-08,1.85698438e-01
-5.09212500e-08,1.85701563e-01
-5.08812500e-08,1.85698438e-01
-5.08412500e-08,1.85701563e-01
-5.08012500e-08,1.85698438e-01
-5.07612500e-08,1.85701563e-01
-5.07212500e-08,1.85698438e-01
-5.06812500e-08,1.85701563e-01
-5.06412500e-08,1.85698438e-01
-5.06012500e-08,1.85701563e-01
-5.05612500e-08,1.85698438e-01
-5.05212500e-08,1.85701563e-01
-5.04812500e-08,1.85698438e-01
-5.04412500e-08,1.85701563e-01
-5.04012500e-08,1.85698438e-01
-5.03612500e-08,1.85703125e-01
-5.03212500e-08,1.85696875e-01
-5.02812500e-08,1.85703125e-01
-5.02412500e-08,1.85696875e-01
-5.02012500e-08,1.85703125e-01
-5.01612500e-08,1.85696875e-01
-5.01212500e-08,1.85703125e-01
-5.00812500e-08,1.85696875e-01
-5.00412500e-08,1.85703125e-01
-5.00012500e-08,1.85696875e-01
-4.99612500e-08,1.85704688e-01
-4.99212500e-08,1.85695313e-01
-4.98812500e-08,1.85704688e-01
-4.98412500e-08,1.85695313e-01
-4.98012500e-08,1.85704688e-01
-4.97612500e-08,1.85693750e-01
-4.97212500e-08,1.85706250e-01
-4.96812500e-08,1.85693750e-01
-4.96412500e-08,1.85706250e-01
-4.96012500e-08,1.85692187e-01
-4.95612500e-08,1.85707813e-01
-4.95212500e-08,1.85690625e-01
-4.94812500e-08,1.85709375e-01
-4.94412500e-08,1.85689063e-01
-4.94012500e-08,1.85712500e-01
-4.93612500e-08,1.85684375e-01
-4.93212500e-08,1.85718750e-01
-4.92812500e-08,1.85676563e-01
-4.92412500e-08,1.85732813e-01
-4.92012500e-08,1.85642187e-01
-4.91612500e-08,1.85912500e-01
-4.91212500e-08,1.86150000e-01
-4.90812500e-08,1.86073437e-01
-4.90412500e-08,1.86117188e-01
-4.90012500e-08,1.86089063e-01
-4.89612500e-08,1.86107812e-01
-4.89212500e-08,1.86093750e-01
-4.88812500e-08,1.86103125e-01
-4.88412500e-08,1.86098438e-01
-4.88012500e-08,1.86100000e-01
-4.87612500e-08,1.86100000e-01
-4.87212500e-08,1.86098438e-01
-4.86812500e-08,1.86103125e-01
-4.86412500e-08,1.86095312e-01
-4.86012500e-08,1.86107812e-01
-4.85612500e-08,1.86090625e-01
-4.85212500e-08,1.86112500e-01
-4.84812500e-08,1.86081250e-01
-4.84412500e-08,1.86128125e-01
-4.84012500e-08,1.86045313e-01
-4.83612500e-08,1.86307813e-01
-4.83212500e-08,1.86554688e-01
-4.82812500e-08,1.86470313e-01
-4.82412500e-08,1.86520313e-01
-4.82012500e-08,1.86484375e-01
-4.81612500e-08,1.86510938e-01
-4.81212500e-08,1.86490625e-01
-4.80812500e-08,1.86506250e-01
-4.80412500e-08,1.86495313e-01
-4.80012500e-08,1.86503125e-01
-4.79612500e-08,1.86498438e-01
-4.79212500e-08,1.86500000e-01
-4.78812500e-08,1.86501562e-01
-4.78412500e-08,1.86495313e-01
-4.78012500e-08,1.86507813e-01
-4.77612500e-08,1.86485938e-01
-4.77212500e-08,1.86523438e-01
-4.76812500e-08,1.86451563e-01
-4.76412500e-08,1.86701563e-01
-4.76012500e-08,1.86959375e-01
-4.75612500e-08,1.86864063e-01
-4.75212500e-08,1.86926563e-01
-4.74812500e-08,1.86879688e-01
-4.74412500e-08,1.86917187e-01
-4.74012500e-08,1.86884375e-01
-4.73612500e-08,1.86914063e-01
-4.73212500e-08,1.86887500e-01
-4.72812500e-08,1.86910938e-01
-4.72412500e-08,1.86890625e-01
-4.72012500e-08,1.86909375e-01
-4.71612500e-08,1.86892188e-01
-4.71212500e-08,1.86907812e-01
-4.70812500e-08,1.86893750e-01
-4.70412500e-08,1.86906250e-01
-4.70012500e-08,1.86895313e-01
-4.69612500e-08,1.86904687e-01
-4.69212500e-08,1.86896875e-01
-4.68812500e-08,1.86901563e-01
-4.68412500e-08,1.86901563e-01
-4.68012500e-08,1.86896875e-01
-4.67612500e-08,1.86909375e-01
-4.67212500e-08,1.86881250e-01
-4.66812500e-08,1.86943750e-01
-4.66412500e-08,1.86704688e-01
-4.66012500e-08,1.86432813e-01
-4.65612500e-08,1.86543750e-01
-4.65212500e-08,1.86465625e-01
-4.64812500e-08,1.86531250e-01
-4.64412500e-08,1.86471875e-01
-4.64012500e-08,1.86528125e-01
-4.63612500e-08,1.86470313e-01
-4.63212500e-08,1.86534375e-01
-4.62812500e-08,1.86457813e-01
-4.62412500e-08,1.86565625e-01
-4.62012500e-08,1.86282813e-01
-4.61612500e-08,1.86054688e-01
-4.61212500e-08,1.86123438e-01
-4.60812500e-08,1.86084375e-01
-4.60412500e-08,1.86112500e-01
-4.60012500e-08,1.86087500e-01
-4.59612500e-08,1.86115625e-01
-4.59212500e-08,1.86076563e-01
-4.58812500e-08,1.86145312e-01
-4.58412500e-08,1.85903125e-01
-4.58012500e-08,1.85634375e-01
-4.57612500e-08,1.85743750e-01
-4.57212500e-08,1.85662500e-01
-4.56812500e-08,1.85734375e-01
-4.56412500e-08,1.85665625e-01
-4.56012500e-08,1.85739062e-01
-4.55612500e-08,1.85653125e-01
-4.55212500e-08,1.85771875e-01
-4.54812500e-08,1.85475000e-01
-4.54412500e-08,1.85262500e-01
-4.54012500e-08,1.85312500e-01
-4.53612500e-08,1.85298437e-01
-4.53212500e-08,1.85293750e-01
-4.52812500e-08,1.85314063e-01
-4.52412500e-08,1.85275000e-01
-4.52012500e-08,1.85351563e-01
-4.51612500e-08,1.85095312e-01
-4.51212500e-08,1.84842188e-01
-4.50812500e-08,1.84934375e-01
-4.50412500e-08,1.84875000e-01
-4.50012500e-08,1.84920313e-01
-4.49612500e-08,1.84881250e-01
-4.49212500e-08,1.84918750e-01
-4.48812500e-08,1.84881250e-01
-4.48412500e-08,1.84923438e-01
-4.48012500e-08,1.84868750e-01
-4.47612500e-08,1.84954687e-01
-4.47212500e-08,1.84692187e-01
-4.46812500e-08,1.84443750e-01
-4.46412500e-08,1.84532813e-01
-4.46012500e-08,1.84476562e-01
-4.45612500e-08,1.84520313e-01
-4.45212500e-08,1.84482813e-01
-4.44812500e-08,1.84515625e-01
-4.44412500e-08,1.84484375e-01
-4.44012500e-08,1.84515625e-01
-4.43612500e-08,1.84485938e-01
-4.43212500e-08,1.84515625e-01
-4.42812500e-08,1.84484375e-01
-4.42412500e-08,1.84515625e-01
-4.42012500e-08,1.84482813e-01
-4.41612500e-08,1.84518750e-01
-4.41212500e-08,1.84478125e-01
-4.40812500e-08,1.84525000e-01
-4.40412500e-08,1.84470313e-01
-4.40012500e-08,1.84540625e-01
-4.39612500e-08,1.84434375e-01
-4.39212500e-08,1.84718750e-01
-4.38812500e-08,1.84942188e-01
-4.38412500e-08,1.84882812e-01
-4.38012500e-08,1.84907813e-01
-4.37612500e-08,1.84900000e-01
-4.37212500e-08,1.84895313e-01
-4.36812500e-08,1.84909375e-01
-4.36412500e-08,1.84882812e-01
-4.36012500e-08,1.84928125e-01
-4.35612500e-08,1.84846875e-01
-4.35212500e-08,1.85107812e-01
-4.34812500e-08,1.85353125e-01
-4.34412500e-08,1.85271875e-01
-4.34012500e-08,1.85317188e-01
-4.33612500e-08,1.85289063e-01
-4.33212500e-08,1.85306250e-01
-4.32812500e-08,1.85300000e-01
-4.32412500e-08,1.85293750e-01
-4.32012500e-08,1.85317188e-01
-4.31612500e-08,1.85257813e-01
-4.31212500e-08,1.85495313e-01
-4.30812500e-08,1.85765625e-01
-4.30412500e-08,1.85657813e-01
-4.30012500e-08,1.85732813e-01
-4.29612500e-08,1.85670313e-01
-4.29212500e-08,1.85726562e-01
-4.28812500e-08,1.85673438e-01
-4.28412500e-08,1.85728125e-01
-4.28012500e-08,1.85668750e-01
-4.27612500e-08,1.85739062e-01
-4.27212500e-08,1.85635938e-01
-4.26812500e-08,1.85915625e-01
-4.26412500e-08,1.86146875e-01
-4.26012500e-08,1.86076563e-01
-4.25612500e-08,1.86115625e-01
-4.25212500e-08,1.86089063e-01
-4.24812500e-08,1.86107812e-01
-4.24412500e-08,1.86093750e-01
-4.24012500e-08,1.86106250e-01
-4.23612500e-08,1.86093750e-01
-4.23212500e-08,1.86104688e-01
-4.22812500e-08,1.86095312e-01
-4.22412500e-08,1.86106250e-01
-4.22012500e-08,1.86093750e-01
-4.21612500e-08,1.86106250e-01
-4.21212500e-08,1.86092188e-01
-4.20812500e-08,1.86109375e-01
-4.20412500e-08,1.86089063e-01
-4.20012500e-08,1.86114063e-01
-4.19612500e-08,1.86081250e-01
-4.19212500e-08,1.86128125e-01
-4.18812500e-08,1.86046875e-01
-4.18412500e-08,1.86306250e-01
-4.18012500e-08,1.86556250e-01
-4.17612500e-08,1.86467188e-01
-4.17212500e-08,1.86523438e-01
-4.16812500e-08,1.86481250e-01
-4.16412500e-08,1.86515625e-01
-4.16012500e-08,1.86485938e-01
-4.15612500e-08,1.86512500e-01
-4.15212500e-08,1.86489062e-01
-4.14812500e-08,1.86510938e-01
-4.14412500e-08,1.86490625e-01
-4.14012500e-08,1.86509375e-01
-4.13612500e-08,1.86490625e-01
-4.13212500e-08,1.86509375e-01
-4.12812500e-08,1.86490625e-01
-4.12412500e-08,1.86507813e-01
-4.12012500e-08,1.86490625e-01
-4.11612500e-08,1.86509375e-01
-4.11212500e-08,1.86490625e-01
-4.10812500e-08,1.86509375e-01
-4.10412500e-08,1.86490625e-01
-4.10012500e-08,1.86509375e-01
-4.09612500e-08,1.86490625e-01
-4.09212500e-08,1.86510938e-01
-4.08812500e-08,1.86489062e-01
-4.08412500e-08,1.86512500e-01
-4.08012500e-08,1.86485938e-01
-4.07612500e-08,1.86515625e-01
-4.07212500e-08,1.86481250e-01
-4.06812500e-08,1.86523438e-01
-4.06412500e-08,1.86467188e-01
-4.06012500e-08,1.86557813e-01
-4.05612500e-08,1.86289063e-01
-4.05212500e-08,1.86048437e-01
-4.04812500e-08,1.86128125e-01
-4.04412500e-08,1.86081250e-01
-4.04012500e-08,1.86112500e-01
-4.03612500e-08,1.86090625e-01
-4.03212500e-08,1.86107812e-01
-4.02812500e-08,1.86093750e-01
-4.02412500e-08,1.86106250e-01
-4.02012500e-08,1.86095312e-01
-4.01612500e-08,1.86104688e-01
-4.01212500e-08,1.86096875e-01
-4.00812500e-08,1.86103125e-01
-4.00412500e-08,1.86096875e-01
-4.00012500e-08,1.86103125e-01
-3.99612500e-08,1.86098438e-01
-3.99212500e-08,1.86101563e-01
-3.98812500e-08,1.86098438e-01
-3.98412500e-08,1.86101563e-01
-3.98012500e-08,1.86098438e-01
-3.97612500e-08,1.86101563e-01
-3.97212500e-08,1.86098438e-01
-3.96812500e-08,1.86101563e-01
-3.96412500e-08,1.86098438e-01
-3.96012500e-08,1.86100000e-01
-3.95612500e-08,1.86100000e-01
-3.95212500e-08,1.86100000e-01
-3.94812500e-08,1.86100000e-01
-3.94412500e-08,1.86100000e-01
-3.94012500e-08,1.86100000e-01
-3.93612500e-08,1.86100000e-01
-3.93212500e-08,1.86100000e-01
-3.92812500e-08,1.86100000e-01
-3.92412500e-08,1.86100000e-01
-3.92012500e-08,1.86100000e-01
-3.91612500e-08,1.86100000e-01
-3.91212500e-08,1.86100000e-01
-3.90812500e-08,1.86100000e-01
-3.90412500e-08,1.86100000e-01
-3.90012500e-08,1.86100000e-01
-3.89612500e-08,1.86098438e-01
-3.89212500e-08,1.86101563e-01
-3.88812500e-08,1.86098438e-01
-3.88412500e-08,1.86101563e-01
-3.88012500e-08,1.86098438e-01
-3.87612500e-08,1.86101563e-01
-3.87212500e-08,1.86098438e-01
-3.86812500e-08,1.86101563e-01
-3.86412500e-08,1.86098438e-01
-3.86012500e-08,1.86101563e-01
-3.85612500e-08,1.86098438e-01
-3.85212500e-08,1.86103125e-01
