trails/0bdfa5e45fec98341abdd20552c140b4/aes_ch1_20250507114707418.csv

Model,MSO66B
Label,
Waveform Type,ANALOG
Horizontal Units,s
Sample Interval,4.00000000e-11
Record Length,10000
Zero Index,1599.16796875
Vertical Units,A
ANALOG_Thumbnail,
yOffset,1.84500000e-01
yPosition,8.40000000e-01

Labels,
TIME,CH1
-6.39667187e-08,1.95692188e-01
-6.39267187e-08,1.95707813e-01
-6.38867187e-08,1.95693750e-01
-6.38467188e-08,1.95706250e-01
-6.38067187e-08,1.95693750e-01
-6.37667187e-08,1.95706250e-01
-6.37267187e-08,1.95693750e-01
-6.36867187e-08,1.95704688e-01
-6.36467187e-08,1.95695312e-01
-6.36067187e-08,1.95704688e-01
-6.35667188e-08,1.95695312e-01
-6.35267187e-08,1.95704688e-01
-6.34867187e-08,1.95695312e-01
-6.34467187e-08,1.95704688e-01
-6.34067187e-08,1.95693750e-01
-6.33667187e-08,1.95706250e-01
-6.33267187e-08,1.95693750e-01
-6.32867188e-08,1.95706250e-01
-6.32467187e-08,1.95693750e-01
-6.32067187e-08,1.95707813e-01
-6.31667187e-08,1.95690625e-01
-6.31267187e-08,1.95709375e-01
-6.30867187e-08,1.95687500e-01
-6.30467187e-08,1.95714063e-01
-6.30067188e-08,1.95681250e-01
-6.29667187e-08,1.95728125e-01
-6.29267187e-08,1.95646875e-01
-6.28867187e-08,1.95906250e-01
-6.28467187e-08,1.96156250e-01
-6.28067188e-08,1.96067188e-01
-6.27667187e-08,1.96123437e-01
-6.27267188e-08,1.96081250e-01
-6.26867187e-08,1.96117188e-01
-6.26467187e-08,1.96084375e-01
-6.26067187e-08,1.96114063e-01
-6.25667187e-08,1.96085938e-01
-6.25267188e-08,1.96114063e-01
-6.24867187e-08,1.96084375e-01
-6.24467188e-08,1.96117188e-01
-6.24067187e-08,1.96079688e-01
-6.23667187e-08,1.96123437e-01
-6.23267187e-08,1.96067188e-01
-6.22867187e-08,1.96157813e-01
-6.22467188e-08,1.95889063e-01
-6.22067187e-08,1.95648437e-01
-6.21667188e-08,1.95728125e-01
-6.21267187e-08,1.95681250e-01
-6.20867187e-08,1.95714063e-01
-6.20467187e-08,1.95689063e-01
-6.20067187e-08,1.95709375e-01
-6.19667188e-08,1.95692188e-01
-6.19267187e-08,1.95706250e-01
-6.18867188e-08,1.95693750e-01
-6.18467187e-08,1.95704688e-01
-6.18067187e-08,1.95695312e-01
-6.17667187e-08,1.95704688e-01
-6.17267187e-08,1.95695312e-01
-6.16867188e-08,1.95704688e-01
-6.16467187e-08,1.95695312e-01
-6.16067188e-08,1.95703125e-01
-6.15667187e-08,1.95695312e-01
-6.15267187e-08,1.95704688e-01
-6.14867187e-08,1.95695312e-01
-6.14467187e-08,1.95704688e-01
-6.14067188e-08,1.95695312e-01
-6.13667187e-08,1.95704688e-01
-6.13267188e-08,1.95693750e-01
-6.12867187e-08,1.95706250e-01
-6.12467187e-08,1.95692188e-01
-6.12067187e-08,1.95709375e-01
-6.11667187e-08,1.95687500e-01
-6.11267188e-08,1.95717188e-01
-6.10867187e-08,1.95673438e-01
-6.10467188e-08,1.95750000e-01
-6.10067187e-08,1.95496875e-01
-6.09667187e-08,1.95240625e-01
-6.09267187e-08,1.95335938e-01
-6.08867187e-08,1.95271875e-01
-6.08467188e-08,1.95323438e-01
-6.08067187e-08,1.95278125e-01
-6.07667188e-08,1.95321875e-01
-6.07267187e-08,1.95276563e-01
-6.06867187e-08,1.95328125e-01
-6.06467187e-08,1.95264063e-01
-6.06067187e-08,1.95359375e-01
-6.05667188e-08,1.95089063e-01
-6.05267187e-08,1.94848437e-01
-6.04867187e-08,1.94929688e-01
-6.04467187e-08,1.94876563e-01
-6.04067187e-08,1.94923438e-01
-6.03667187e-08,1.94870313e-01
-6.03267187e-08,1.94951563e-01
-6.02867188e-08,1.94698438e-01
-6.02467187e-08,1.94435938e-01
-6.02067187e-08,1.94543750e-01
-6.01667187e-08,1.94462500e-01
-6.01267187e-08,1.94539062e-01
-6.00867187e-08,1.94453125e-01
-6.00467187e-08,1.94570313e-01
-6.00067188e-08,1.94276562e-01
-5.99667187e-08,1.94060938e-01
-5.99267187e-08,1.94114063e-01
-5.98867187e-08,1.94096875e-01
-5.98467187e-08,1.94095313e-01
-5.98067187e-08,1.94112500e-01
-5.97667187e-08,1.94076562e-01
-5.97267188e-08,1.94150000e-01
-5.96867187e-08,1.93896875e-01
-5.96467187e-08,1.93642188e-01
-5.96067187e-08,1.93732813e-01
-5.95667187e-08,1.93676563e-01
-5.95267187e-08,1.93717187e-01
-5.94867187e-08,1.93685938e-01
-5.94467187e-08,1.93712500e-01
-5.94067187e-08,1.93689063e-01
-5.93667187e-08,1.93709375e-01
-5.93267187e-08,1.93692188e-01
-5.92867187e-08,1.93707813e-01
-5.92467187e-08,1.93693750e-01
-5.92067187e-08,1.93706250e-01
-5.91667187e-08,1.93695312e-01
-5.91267187e-08,1.93704688e-01
-5.90867187e-08,1.93695312e-01
-5.90467187e-08,1.93703125e-01
-5.90067187e-08,1.93696875e-01
-5.89667187e-08,1.93703125e-01
-5.89267187e-08,1.93696875e-01
-5.88867187e-08,1.93701563e-01
-5.88467187e-08,1.93698438e-01
-5.88067187e-08,1.93701563e-01
-5.87667187e-08,1.93698438e-01
-5.87267187e-08,1.93701563e-01
-5.86867187e-08,1.93700000e-01
-5.86467187e-08,1.93700000e-01
-5.86067187e-08,1.93700000e-01
-5.85667187e-08,1.93700000e-01
-5.85267187e-08,1.93701563e-01
-5.84867187e-08,1.93698438e-01
-5.84467187e-08,1.93701563e-01
-5.84067187e-08,1.93698438e-01
-5.83667187e-08,1.93703125e-01
-5.83267187e-08,1.93696875e-01
-5.82867187e-08,1.93704688e-01
-5.82467187e-08,1.93695312e-01
-5.82067187e-08,1.93706250e-01
-5.81667187e-08,1.93692188e-01
-5.81267187e-08,1.93709375e-01
-5.80867187e-08,1.93689063e-01
-5.80467187e-08,1.93714063e-01
-5.80067187e-08,1.93679688e-01
-5.79667187e-08,1.93729687e-01
-5.79267187e-08,1.93645312e-01
-5.78867187e-08,1.93909375e-01
-5.78467187e-08,1.94153125e-01
-5.78067187e-08,1.94071875e-01
-5.77667187e-08,1.94118750e-01
-5.77267187e-08,1.94085937e-01
-5.76867187e-08,1.94109375e-01
-5.76467187e-08,1.94093750e-01
-5.76067187e-08,1.94103125e-01
-5.75667187e-08,1.94100000e-01
-5.75267187e-08,1.94096875e-01
-5.74867187e-08,1.94109375e-01
-5.74467187e-08,1.94079688e-01
-5.74067187e-08,1.94145313e-01
-5.73667187e-08,1.93901563e-01
-5.73267187e-08,1.93635938e-01
-5.72867187e-08,1.93739063e-01
-5.72467187e-08,1.93670312e-01
-5.72067187e-08,1.93725000e-01
-5.71667187e-08,1.93678125e-01
-5.71267187e-08,1.93718750e-01
-5.70867187e-08,1.93682812e-01
-5.70467187e-08,1.93717187e-01
-5.70067187e-08,1.93684375e-01
-5.69667187e-08,1.93715625e-01
-5.69267187e-08,1.93685938e-01
-5.68867187e-08,1.93714063e-01
-5.68467187e-08,1.93685938e-01
-5.68067187e-08,1.93714063e-01
-5.67667187e-08,1.93685938e-01
-5.67267187e-08,1.93714063e-01
-5.66867187e-08,1.93685938e-01
-5.66467187e-08,1.93714063e-01
-5.66067187e-08,1.93685938e-01
-5.65667187e-08,1.93714063e-01
-5.65267187e-08,1.93684375e-01
-5.64867187e-08,1.93715625e-01
-5.64467187e-08,1.93682812e-01
-5.64067187e-08,1.93718750e-01
-5.63667187e-08,1.93679688e-01
-5.63267187e-08,1.93723438e-01
-5.62867187e-08,1.93671875e-01
-5.62467187e-08,1.93737500e-01
-5.62067187e-08,1.93637500e-01
-5.61667187e-08,1.93915625e-01
-5.61267187e-08,1.94146875e-01
-5.60867187e-08,1.94078125e-01
-5.60467187e-08,1.94112500e-01
-5.60067187e-08,1.94092188e-01
-5.59667187e-08,1.94104688e-01
-5.59267187e-08,1.94096875e-01
-5.58867187e-08,1.94100000e-01
-5.58467187e-08,1.94100000e-01
-5.58067187e-08,1.94098437e-01
-5.57667187e-08,1.94103125e-01
-5.57267187e-08,1.94095313e-01
-5.56867187e-08,1.94106250e-01
-5.56467187e-08,1.94092188e-01
-5.56067187e-08,1.94109375e-01
-5.55667187e-08,1.94089063e-01
-5.55267187e-08,1.94114063e-01
-5.54867187e-08,1.94081250e-01
-5.54467187e-08,1.94129688e-01
-5.54067187e-08,1.94045313e-01
-5.53667187e-08,1.94307813e-01
-5.53267187e-08,1.94554688e-01
-5.52867187e-08,1.94468750e-01
-5.52467187e-08,1.94521875e-01
-5.52067187e-08,1.94482813e-01
-5.51667187e-08,1.94514063e-01
-5.51267187e-08,1.94489063e-01
-5.50867187e-08,1.94509375e-01
-5.50467187e-08,1.94490625e-01
-5.50067187e-08,1.94507813e-01
-5.49667187e-08,1.94492187e-01
-5.49267187e-08,1.94506250e-01
-5.48867187e-08,1.94493750e-01
-5.48467187e-08,1.94506250e-01
-5.48067187e-08,1.94493750e-01
-5.47667187e-08,1.94506250e-01
-5.47267187e-08,1.94493750e-01
-5.46867187e-08,1.94506250e-01
-5.46467187e-08,1.94493750e-01
-5.46067187e-08,1.94506250e-01
-5.45667187e-08,1.94493750e-01
-5.45267187e-08,1.94506250e-01
-5.44867187e-08,1.94493750e-01
-5.44467187e-08,1.94506250e-01
-5.44067187e-08,1.94493750e-01
-5.43667187e-08,1.94507813e-01
-5.43267187e-08,1.94492187e-01
-5.42867187e-08,1.94509375e-01
-5.42467187e-08,1.94489063e-01
-5.42067187e-08,1.94512500e-01
-5.41667187e-08,1.94484375e-01
-5.41267187e-08,1.94520313e-01
-5.40867187e-08,1.94470313e-01
-5.40467187e-08,1.94554688e-01
-5.40067187e-08,1.94292188e-01
-5.39667187e-08,1.94045313e-01
-5.39267187e-08,1.94131250e-01
-5.38867187e-08,1.94078125e-01
-5.38467187e-08,1.94117188e-01
-5.38067187e-08,1.94084375e-01
-5.37667187e-08,1.94114063e-01
-5.37267187e-08,1.94087500e-01
-5.36867187e-08,1.94112500e-01
-5.36467187e-08,1.94087500e-01
-5.36067187e-08,1.94112500e-01
-5.35667187e-08,1.94087500e-01
-5.35267187e-08,1.94114063e-01
-5.34867187e-08,1.94082813e-01
-5.34467187e-08,1.94121875e-01
-5.34067187e-08,1.94068750e-01
-5.33667187e-08,1.94154688e-01
-5.33267187e-08,1.93892188e-01
-5.32867187e-08,1.93645312e-01
-5.32467187e-08,1.93731250e-01
-5.32067187e-08,1.93678125e-01
-5.31667187e-08,1.93717187e-01
-5.31267187e-08,1.93684375e-01
-5.30867187e-08,1.93714063e-01
-5.30467187e-08,1.93687500e-01
-5.30067187e-08,1.93712500e-01
-5.29667187e-08,1.93687500e-01
-5.29267187e-08,1.93712500e-01
-5.28867187e-08,1.93687500e-01
-5.28467187e-08,1.93714063e-01
-5.28067187e-08,1.93685938e-01
-5.27667187e-08,1.93715625e-01
-5.27267187e-08,1.93681250e-01
-5.26867187e-08,1.93721875e-01
-5.26467187e-08,1.93673438e-01
-5.26067187e-08,1.93735938e-01
-5.25667187e-08,1.93639063e-01
-5.25267187e-08,1.93915625e-01
-5.24867187e-08,1.94146875e-01
-5.24467187e-08,1.94078125e-01
-5.24067187e-08,1.94112500e-01
-5.23667187e-08,1.94093750e-01
-5.23267187e-08,1.94101563e-01
-5.22867187e-08,1.94101563e-01
-5.22467187e-08,1.94093750e-01
-5.22067187e-08,1.94110937e-01
-5.21667187e-08,1.94082813e-01
-5.21267187e-08,1.94128125e-01
-5.20867187e-08,1.94045313e-01
-5.20467187e-08,1.94307813e-01
-5.20067187e-08,1.94553125e-01
-5.19667187e-08,1.94473438e-01
-5.19267187e-08,1.94514063e-01
-5.18867187e-08,1.94493750e-01
-5.18467187e-08,1.94498438e-01
-5.18067187e-08,1.94514063e-01
-5.17667187e-08,1.94459375e-01
-5.17267187e-08,1.94696875e-01
-5.16867187e-08,1.94964063e-01
-5.16467187e-08,1.94860937e-01
-5.16067187e-08,1.94926563e-01
-5.15667187e-08,1.94881250e-01
-5.15267187e-08,1.94910937e-01
-5.14867187e-08,1.94900000e-01
-5.14467187e-08,1.94873437e-01
-5.14067187e-08,1.95079688e-01
-5.13667187e-08,1.95381250e-01
-5.13267187e-08,1.95242187e-01
-5.12867188e-08,1.95350000e-01
-5.12467187e-08,1.95253125e-01
-5.12067187e-08,1.95346875e-01
-5.11667187e-08,1.95250000e-01
-5.11267187e-08,1.95357813e-01
-5.10867187e-08,1.95218750e-01
-5.10467187e-08,1.95532813e-01
-5.10067187e-08,1.95729687e-01
-5.09667187e-08,1.95693750e-01
-5.09267187e-08,1.95696875e-01
-5.08867187e-08,1.95707813e-01
-5.08467187e-08,1.95689063e-01
-5.08067187e-08,1.95714063e-01
-5.07667187e-08,1.95684375e-01
-5.07267187e-08,1.95718750e-01
-5.06867187e-08,1.95679688e-01
-5.06467187e-08,1.95723438e-01
-5.06067187e-08,1.95673438e-01
-5.05667187e-08,1.95729687e-01
-5.05267187e-08,1.95664063e-01
-5.04867187e-08,1.95746875e-01
-5.04467187e-08,1.95626563e-01
-5.04067187e-08,1.95929688e-01
-5.03667187e-08,1.96129688e-01
-5.03267187e-08,1.96100000e-01
-5.02867187e-08,1.96081250e-01
-5.02467187e-08,1.96150000e-01
-5.02067187e-08,1.95893750e-01
-5.01667187e-08,1.95645313e-01
-5.01267187e-08,1.95728125e-01
-5.00867187e-08,1.95682812e-01
-5.00467187e-08,1.95710938e-01
-5.00067187e-08,1.95693750e-01
-4.99667187e-08,1.95701563e-01
-4.99267187e-08,1.95701563e-01
-4.98867187e-08,1.95695312e-01
-4.98467187e-08,1.95707813e-01
-4.98067187e-08,1.95687500e-01
-4.97667187e-08,1.95718750e-01
-4.97267187e-08,1.95670312e-01
-4.96867187e-08,1.95754687e-01
-4.96467187e-08,1.95490625e-01
-4.96067187e-08,1.95248438e-01
-4.95667187e-08,1.95326563e-01
-4.95267187e-08,1.95285938e-01
-4.94867187e-08,1.95306250e-01
-4.94467187e-08,1.95301562e-01
-4.94067187e-08,1.95287500e-01
-4.93667188e-08,1.95339062e-01
-4.93267187e-08,1.95107813e-01
-4.92867187e-08,1.94829688e-01
-4.92467187e-08,1.94948438e-01
-4.92067187e-08,1.94859375e-01
-4.91667187e-08,1.94939063e-01
-4.91267187e-08,1.94854688e-01
-4.90867188e-08,1.94967187e-01
-4.90467187e-08,1.94681250e-01
-4.90067187e-08,1.94454688e-01
-4.89667187e-08,1.94523438e-01
-4.89267187e-08,1.94484375e-01
-4.88867187e-08,1.94512500e-01
-4.88467187e-08,1.94487500e-01
-4.88067187e-08,1.94512500e-01
-4.87667187e-08,1.94484375e-01
-4.87267187e-08,1.94518750e-01
-4.86867187e-08,1.94471875e-01
-4.86467187e-08,1.94553125e-01
-4.86067187e-08,1.94295313e-01
-4.85667187e-08,1.94042188e-01
-4.85267187e-08,1.94134375e-01
-4.84867187e-08,1.94075000e-01
-4.84467187e-08,1.94120313e-01
-4.84067187e-08,1.94081250e-01
-4.83667187e-08,1.94117188e-01
-4.83267187e-08,1.94084375e-01
-4.82867187e-08,1.94117188e-01
-4.82467187e-08,1.94082813e-01
-4.82067187e-08,1.94120313e-01
-4.81667187e-08,1.94076562e-01
-4.81267187e-08,1.94132813e-01
-4.80867187e-08,1.94042188e-01
-4.80467187e-08,1.94309375e-01
-4.80067187e-08,1.94553125e-01
-4.79667187e-08,1.94470313e-01
-4.79267187e-08,1.94521875e-01
-4.78867187e-08,1.94482813e-01
-4.78467187e-08,1.94514063e-01
-4.78067187e-08,1.94485938e-01
-4.77667187e-08,1.94512500e-01
-4.77267187e-08,1.94485938e-01
-4.76867187e-08,1.94514063e-01
-4.76467187e-08,1.94484375e-01
-4.76067187e-08,1.94518750e-01
-4.75667187e-08,1.94476563e-01
-4.75267187e-08,1.94532813e-01
-4.74867187e-08,1.94442188e-01
-4.74467188e-08,1.94710938e-01
-4.74067187e-08,1.94951563e-01
-4.73667187e-08,1.94871875e-01
-4.73267187e-08,1.94918750e-01
-4.72867187e-08,1.94885937e-01
-4.72467187e-08,1.94910937e-01
-4.72067187e-08,1.94890625e-01
-4.71667188e-08,1.94907812e-01
-4.71267187e-08,1.94893750e-01
-4.70867187e-08,1.94906250e-01
-4.70467187e-08,1.94895313e-01
-4.70067187e-08,1.94904688e-01
-4.69667187e-08,1.94895313e-01
-4.69267187e-08,1.94903125e-01
-4.68867188e-08,1.94896875e-01
-4.68467187e-08,1.94903125e-01
-4.68067187e-08,1.94898438e-01
-4.67667187e-08,1.94901563e-01
-4.67267187e-08,1.94898438e-01
-4.66867187e-08,1.94901563e-01
-4.66467187e-08,1.94900000e-01
-4.66067187e-08,1.94900000e-01
-4.65667187e-08,1.94900000e-01
-4.65267187e-08,1.94900000e-01
-4.64867187e-08,1.94901563e-01
-4.64467187e-08,1.94898438e-01
-4.64067187e-08,1.94903125e-01
-4.63667187e-08,1.94895313e-01
-4.63267187e-08,1.94906250e-01
-4.62867187e-08,1.94890625e-01
-4.62467187e-08,1.94914063e-01
-4.62067187e-08,1.94876563e-01
-4.61667187e-08,1.94948438e-01
-4.61267187e-08,1.94698438e-01
-4.60867187e-08,1.94437500e-01
-4.60467187e-08,1.94539062e-01
-4.60067187e-08,1.94470313e-01
-4.59667187e-08,1.94526562e-01
-4.59267187e-08,1.94475000e-01
-4.58867187e-08,1.94525000e-01
-4.58467187e-08,1.94473438e-01
-4.58067188e-08,1.94529687e-01
-4.57667187e-08,1.94460938e-01
-4.57267187e-08,1.94562500e-01
-4.56867187e-08,1.94284375e-01
-4.56467187e-08,1.94051562e-01
-4.56067187e-08,1.94123437e-01
-4.55667187e-08,1.94084375e-01
-4.55267188e-08,1.94110937e-01
-4.54867187e-08,1.94092188e-01
-4.54467187e-08,1.94106250e-01
-4.54067187e-08,1.94095313e-01
-4.53667187e-08,1.94104688e-01
-4.53267187e-08,1.94096875e-01
-4.52867187e-08,1.94103125e-01
-4.52467188e-08,1.94096875e-01
-4.52067187e-08,1.94103125e-01
-4.51667187e-08,1.94098437e-01
-4.51267187e-08,1.94101563e-01
-4.50867187e-08,1.94098437e-01
-4.50467187e-08,1.94101563e-01
-4.50067187e-08,1.94098437e-01
-4.49667188e-08,1.94101563e-01
-4.49267187e-08,1.94098437e-01
-4.48867187e-08,1.94101563e-01
-4.48467187e-08,1.94098437e-01
-4.48067187e-08,1.94103125e-01
-4.47667187e-08,1.94096875e-01
-4.47267187e-08,1.94103125e-01
-4.46867188e-08,1.94096875e-01
-4.46467187e-08,1.94103125e-01
-4.46067187e-08,1.94095313e-01
-4.45667187e-08,1.94104688e-01
-4.45267187e-08,1.94093750e-01
-4.44867187e-08,1.94107813e-01
-4.44467187e-08,1.94090625e-01
-4.44067187e-08,1.94112500e-01
-4.43667187e-08,1.94082813e-01
-4.43267187e-08,1.94125000e-01
-4.42867187e-08,1.94050000e-01
-4.42467187e-08,1.94303125e-01
-4.42067187e-08,1.94560938e-01
-4.41667187e-08,1.94462500e-01
-4.41267187e-08,1.94529687e-01
-4.40867187e-08,1.94473438e-01
-4.40467187e-08,1.94526562e-01
-4.40067187e-08,1.94471875e-01
-4.39667187e-08,1.94535938e-01
-4.39267187e-08,1.94440625e-01
-4.38867188e-08,1.94710938e-01
-4.38467187e-08,1.94953125e-01
-4.38067187e-08,1.94867188e-01
-4.37667187e-08,1.94926563e-01
-4.37267187e-08,1.94873437e-01
-4.36867187e-08,1.94932812e-01
-4.36467187e-08,1.94845313e-01
-4.36067188e-08,1.95106250e-01
-4.35667187e-08,1.95359375e-01
-4.35267187e-08,1.95262500e-01
-4.34867187e-08,1.95331250e-01
-4.34467187e-08,1.95268750e-01
-4.34067187e-08,1.95337500e-01
-4.33667187e-08,1.95239063e-01
-4.33267188e-08,1.95510938e-01
-4.32867187e-08,1.95753125e-01
-4.32467187e-08,1.95668750e-01
-4.32067187e-08,1.95725000e-01
-4.31667187e-08,1.95673438e-01
-4.31267187e-08,1.95732813e-01
-4.30867187e-08,1.95645313e-01
-4.30467188e-08,1.95906250e-01
-4.30067187e-08,1.96157813e-01
-4.29667187e-08,1.96064062e-01
-4.29267187e-08,1.96128125e-01
-4.28867187e-08,1.96073438e-01
-4.28467187e-08,1.96126563e-01
-4.28067187e-08,1.96070313e-01
-4.27667188e-08,1.96139063e-01
-4.27267187e-08,1.96037500e-01
-4.26867187e-08,1.96315625e-01
-4.26467187e-08,1.96546875e-01
-4.26067187e-08,1.96476563e-01
-4.25667187e-08,1.96514063e-01
-4.25267187e-08,1.96492187e-01
-4.24867188e-08,1.96504687e-01
-4.24467187e-08,1.96498438e-01
-4.24067187e-08,1.96498438e-01
-4.23667187e-08,1.96504687e-01
-4.23267187e-08,1.96489063e-01
-4.22867187e-08,1.96520313e-01
-4.22467187e-08,1.96454688e-01
-4.22067187e-08,1.96698438e-01
-4.21667187e-08,1.96964063e-01
-4.21267187e-08,1.96859375e-01
-4.20867187e-08,1.96932812e-01
-4.20467187e-08,1.96871875e-01
-4.20067187e-08,1.96926563e-01
-4.19667188e-08,1.96873437e-01
-4.19267187e-08,1.96928125e-01
-4.18867187e-08,1.96867188e-01
-4.18467187e-08,1.96940625e-01
-4.18067187e-08,1.96834375e-01
-4.17667187e-08,1.97118750e-01
-4.17267187e-08,1.97343750e-01
-4.16867188e-08,1.97279688e-01
-4.16467187e-08,1.97310938e-01
-4.16067187e-08,1.97293750e-01
-4.15667187e-08,1.97303125e-01
-4.15267187e-08,1.97300000e-01
-4.14867187e-08,1.97298438e-01
-4.14467187e-08,1.97303125e-01
-4.14067188e-08,1.97293750e-01
-4.13667187e-08,1.97307813e-01
-4.13267187e-08,1.97289063e-01
-4.12867187e-08,1.97314062e-01
-4.12467187e-08,1.97281250e-01
-4.12067187e-08,1.97329688e-01
-4.11667187e-08,1.97245313e-01
-4.11267188e-08,1.97507813e-01
-4.10867187e-08,1.97753125e-01
-4.10467187e-08,1.97671875e-01
-4.10067187e-08,1.97718750e-01
-4.09667187e-08,1.97687500e-01
-4.09267187e-08,1.97707812e-01
-4.08867187e-08,1.97695312e-01
-4.08467188e-08,1.97700000e-01
-4.08067187e-08,1.97706250e-01
-4.07667187e-08,1.97684375e-01
-4.07267187e-08,1.97742187e-01
-4.06867187e-08,1.97504687e-01
-4.06467187e-08,1.97232813e-01
-4.06067187e-08,1.97343750e-01
-4.05667188e-08,1.97265625e-01
-4.05267187e-08,1.97329688e-01
-4.04867187e-08,1.97273438e-01
-4.04467187e-08,1.97325000e-01
-4.04067187e-08,1.97275000e-01
-4.03667187e-08,1.97325000e-01
-4.03267187e-08,1.97275000e-01
-4.02867188e-08,1.97326562e-01
-4.02467187e-08,1.97270313e-01
-4.02067187e-08,1.97334375e-01
-4.01667187e-08,1.97256250e-01
-4.01267187e-08,1.97368750e-01
-4.00867187e-08,1.97078125e-01
-4.00467188e-08,1.96859375e-01
-4.00067187e-08,1.96915625e-01
-3.99667187e-08,1.96893750e-01
-3.99267187e-08,1.96900000e-01
-3.98867187e-08,1.96903125e-01
-3.98467187e-08,1.96893750e-01
-3.98067187e-08,1.96910937e-01
-3.97667188e-08,1.96885937e-01
-3.97267187e-08,1.96920312e-01
-3.96867187e-08,1.96868750e-01
-3.96467187e-08,1.96956250e-01
-3.96067187e-08,1.96690625e-01
-3.95667187e-08,1.96448438e-01
-3.95267187e-08,1.96528125e-01
-3.94867188e-08,1.96482812e-01
-3.94467187e-08,1.96512500e-01
-3.94067187e-08,1.96490625e-01
-3.93667187e-08,1.96506250e-01
-3.93267187e-08,1.96496875e-01
-3.92867187e-08,1.96501563e-01
-3.92467187e-08,1.96500000e-01
-3.92067188e-08,1.96496875e-01
-3.91667187e-08,1.96504687e-01
-3.91267187e-08,1.96492187e-01
-3.90867187e-08,1.96514063e-01
-3.90467187e-08,1.96476563e-01
-3.90067187e-08,1.96548438e-01
-3.89667187e-08,1.96298438e-01
-3.89267188e-08,1.96040625e-01
-3.88867187e-08,1.96135937e-01
-3.88467187e-08,1.96073438e-01
-3.88067187e-08,1.96121875e-01
-3.87667187e-08,1.96081250e-01
-3.87267187e-08,1.96117188e-01
-3.86867187e-08,1.96084375e-01
-3.86467188e-08,1.96114063e-01
-3.86067187e-08,1.96085938e-01
-3.85667187e-08,1.96114063e-01
-3.85267187e-08,1.96087500e-01
