trails/0bdfa5e45fec98341abdd20552c140b4/aes_ch1_20250507120418487.csv

Model,MSO66B
Label,
Waveform Type,ANALOG
Horizontal Units,s
Sample Interval,4.00000000e-11
Record Length,10000
Zero Index,1599.09765625
Vertical Units,A
ANALOG_Thumbnail,
yOffset,1.84500000e-01
yPosition,8.40000000e-01

Labels,
TIME,CH1
-6.39639062e-08,1.79290625e-01
-6.39239063e-08,1.79309375e-01
-6.38839062e-08,1.79290625e-01
-6.38439062e-08,1.79309375e-01
-6.38039062e-08,1.79289063e-01
-6.37639062e-08,1.79314063e-01
-6.37239062e-08,1.79281250e-01
-6.36839062e-08,1.79328125e-01
-6.36439063e-08,1.79248437e-01
-6.36039062e-08,1.79504688e-01
-6.35639062e-08,1.79757813e-01
-6.35239062e-08,1.79664062e-01
-6.34839062e-08,1.79726563e-01
-6.34439062e-08,1.79678125e-01
-6.34039062e-08,1.79720313e-01
-6.33639063e-08,1.79681250e-01
-6.33239062e-08,1.79718750e-01
-6.32839062e-08,1.79679688e-01
-6.32439062e-08,1.79721875e-01
-6.32039062e-08,1.79676562e-01
-6.31639062e-08,1.79728125e-01
-6.31239062e-08,1.79662500e-01
-6.30839063e-08,1.79762500e-01
-6.30439062e-08,1.79484375e-01
-6.30039062e-08,1.79253125e-01
-6.29639062e-08,1.79321875e-01
-6.29239062e-08,1.79287500e-01
-6.28839062e-08,1.79307812e-01
-6.28439062e-08,1.79295312e-01
-6.28039063e-08,1.79301563e-01
-6.27639062e-08,1.79300000e-01
-6.27239062e-08,1.79298438e-01
-6.26839062e-08,1.79303125e-01
-6.26439062e-08,1.79293750e-01
-6.26039063e-08,1.79307812e-01
-6.25639062e-08,1.79289063e-01
-6.25239063e-08,1.79317188e-01
-6.24839062e-08,1.79273437e-01
-6.24439062e-08,1.79351563e-01
-6.24039062e-08,1.79095313e-01
-6.23639062e-08,1.78842187e-01
-6.23239063e-08,1.78934375e-01
-6.22839062e-08,1.78875000e-01
-6.22439063e-08,1.78920313e-01
-6.22039062e-08,1.78882813e-01
-6.21639062e-08,1.78915625e-01
-6.21239062e-08,1.78884375e-01
-6.20839062e-08,1.78915625e-01
-6.20439063e-08,1.78884375e-01
-6.20039062e-08,1.78917188e-01
-6.19639063e-08,1.78881250e-01
-6.19239062e-08,1.78923438e-01
-6.18839062e-08,1.78867187e-01
-6.18439062e-08,1.78956250e-01
-6.18039062e-08,1.78690625e-01
-6.17639063e-08,1.78446875e-01
-6.17239062e-08,1.78529688e-01
-6.16839063e-08,1.78478125e-01
-6.16439062e-08,1.78517188e-01
-6.16039062e-08,1.78485937e-01
-6.15639062e-08,1.78512500e-01
-6.15239062e-08,1.78489063e-01
-6.14839063e-08,1.78510937e-01
-6.14439062e-08,1.78489063e-01
-6.14039063e-08,1.78510937e-01
-6.13639062e-08,1.78489063e-01
-6.13239062e-08,1.78510937e-01
-6.12839062e-08,1.78487500e-01
-6.12439062e-08,1.78514063e-01
-6.12039063e-08,1.78484375e-01
-6.11639062e-08,1.78518750e-01
-6.11239063e-08,1.78476563e-01
-6.10839062e-08,1.78532812e-01
-6.10439062e-08,1.78442188e-01
-6.10039062e-08,1.78710938e-01
-6.09639062e-08,1.78951562e-01
-6.09239063e-08,1.78871875e-01
-6.08839062e-08,1.78918750e-01
-6.08439063e-08,1.78885938e-01
-6.08039062e-08,1.78910938e-01
-6.07639062e-08,1.78892187e-01
-6.07239062e-08,1.78906250e-01
-6.06839062e-08,1.78893750e-01
-6.06439063e-08,1.78904688e-01
-6.06039062e-08,1.78895313e-01
-6.05639063e-08,1.78903125e-01
-6.05239062e-08,1.78896875e-01
-6.04839062e-08,1.78903125e-01
-6.04439062e-08,1.78896875e-01
-6.04039062e-08,1.78901562e-01
-6.03639063e-08,1.78898438e-01
-6.03239062e-08,1.78901562e-01
-6.02839062e-08,1.78898438e-01
-6.02439062e-08,1.78901562e-01
-6.02039062e-08,1.78898438e-01
-6.01639062e-08,1.78901562e-01
-6.01239062e-08,1.78898438e-01
-6.00839063e-08,1.78901562e-01
-6.00439062e-08,1.78900000e-01
-6.00039062e-08,1.78900000e-01
-5.99639062e-08,1.78900000e-01
-5.99239062e-08,1.78900000e-01
-5.98839062e-08,1.78900000e-01
-5.98439062e-08,1.78900000e-01
-5.98039063e-08,1.78900000e-01
-5.97639062e-08,1.78900000e-01
-5.97239062e-08,1.78900000e-01
-5.96839062e-08,1.78900000e-01
-5.96439062e-08,1.78900000e-01
-5.96039062e-08,1.78900000e-01
-5.95639062e-08,1.78900000e-01
-5.95239062e-08,1.78900000e-01
-5.94839062e-08,1.78900000e-01
-5.94439062e-08,1.78900000e-01
-5.94039062e-08,1.78900000e-01
-5.93639062e-08,1.78900000e-01
-5.93239062e-08,1.78900000e-01
-5.92839062e-08,1.78900000e-01
-5.92439062e-08,1.78900000e-01
-5.92039062e-08,1.78900000e-01
-5.91639062e-08,1.78900000e-01
-5.91239062e-08,1.78900000e-01
-5.90839062e-08,1.78900000e-01
-5.90439062e-08,1.78900000e-01
-5.90039062e-08,1.78900000e-01
-5.89639062e-08,1.78901562e-01
-5.89239062e-08,1.78898438e-01
-5.88839062e-08,1.78901562e-01
-5.88439062e-08,1.78898438e-01
-5.88039062e-08,1.78903125e-01
-5.87639062e-08,1.78896875e-01
-5.87239062e-08,1.78904688e-01
-5.86839062e-08,1.78893750e-01
-5.86439062e-08,1.78907813e-01
-5.86039062e-08,1.78889063e-01
-5.85639062e-08,1.78915625e-01
-5.85239062e-08,1.78875000e-01
-5.84839062e-08,1.78950000e-01
-5.84439062e-08,1.78698438e-01
-5.84039062e-08,1.78439062e-01
-5.83639062e-08,1.78537500e-01
-5.83239062e-08,1.78471875e-01
-5.82839062e-08,1.78523437e-01
-5.82439062e-08,1.78479688e-01
-5.82039062e-08,1.78518750e-01
-5.81639062e-08,1.78482813e-01
-5.81239062e-08,1.78517188e-01
-5.80839062e-08,1.78482813e-01
-5.80439062e-08,1.78517188e-01
-5.80039062e-08,1.78482813e-01
-5.79639062e-08,1.78517188e-01
-5.79239062e-08,1.78481250e-01
-5.78839062e-08,1.78520313e-01
-5.78439062e-08,1.78478125e-01
-5.78039062e-08,1.78525000e-01
-5.77639062e-08,1.78470313e-01
-5.77239062e-08,1.78539063e-01
-5.76839062e-08,1.78435938e-01
-5.76439062e-08,1.78717188e-01
-5.76039062e-08,1.78943750e-01
-5.75639062e-08,1.78879687e-01
-5.75239062e-08,1.78910938e-01
-5.74839062e-08,1.78893750e-01
-5.74439062e-08,1.78903125e-01
-5.74039062e-08,1.78900000e-01
-5.73639062e-08,1.78898438e-01
-5.73239062e-08,1.78903125e-01
-5.72839062e-08,1.78895313e-01
-5.72439062e-08,1.78906250e-01
-5.72039062e-08,1.78892187e-01
-5.71639062e-08,1.78909375e-01
-5.71239062e-08,1.78889063e-01
-5.70839062e-08,1.78912500e-01
-5.70439062e-08,1.78885938e-01
-5.70039062e-08,1.78918750e-01
-5.69639062e-08,1.78876563e-01
-5.69239062e-08,1.78934375e-01
-5.68839062e-08,1.78840625e-01
-5.68439062e-08,1.79112500e-01
-5.68039062e-08,1.79350000e-01
-5.67639062e-08,1.79275000e-01
-5.67239062e-08,1.79315625e-01
-5.66839062e-08,1.79290625e-01
-5.66439062e-08,1.79306250e-01
-5.66039062e-08,1.79295312e-01
-5.65639062e-08,1.79301563e-01
-5.65239062e-08,1.79300000e-01
-5.64839062e-08,1.79298438e-01
-5.64439062e-08,1.79303125e-01
-5.64039062e-08,1.79295312e-01
-5.63639062e-08,1.79306250e-01
-5.63239062e-08,1.79292188e-01
-5.62839062e-08,1.79309375e-01
-5.62439062e-08,1.79287500e-01
-5.62039062e-08,1.79315625e-01
-5.61639062e-08,1.79278125e-01
-5.61239062e-08,1.79332812e-01
-5.60839062e-08,1.79242188e-01
-5.60439062e-08,1.79510937e-01
-5.60039062e-08,1.79750000e-01
-5.59639062e-08,1.79675000e-01
-5.59239062e-08,1.79714062e-01
-5.58839062e-08,1.79692188e-01
-5.58439062e-08,1.79703125e-01
-5.58039062e-08,1.79700000e-01
-5.57639062e-08,1.79693750e-01
-5.57239062e-08,1.79712500e-01
-5.56839062e-08,1.79676562e-01
-5.56439062e-08,1.79748437e-01
-5.56039062e-08,1.79496875e-01
-5.55639062e-08,1.79240625e-01
-5.55239062e-08,1.79334375e-01
-5.54839062e-08,1.79275000e-01
-5.54439062e-08,1.79318750e-01
-5.54039062e-08,1.79284375e-01
-5.53639062e-08,1.79312500e-01
-5.53239062e-08,1.79290625e-01
-5.52839062e-08,1.79307812e-01
-5.52439062e-08,1.79293750e-01
-5.52039062e-08,1.79303125e-01
-5.51639062e-08,1.79298438e-01
-5.51239062e-08,1.79298438e-01
-5.50839062e-08,1.79307812e-01
-5.50439062e-08,1.79282812e-01
-5.50039062e-08,1.79342187e-01
-5.49639062e-08,1.79104687e-01
-5.49239062e-08,1.78832812e-01
-5.48839062e-08,1.78943750e-01
-5.48439062e-08,1.78865625e-01
-5.48039062e-08,1.78931250e-01
-5.47639062e-08,1.78870313e-01
-5.47239062e-08,1.78928125e-01
-5.46839062e-08,1.78870313e-01
-5.46439062e-08,1.78934375e-01
-5.46039062e-08,1.78857813e-01
-5.45639062e-08,1.78967188e-01
-5.45239062e-08,1.78681250e-01
-5.44839062e-08,1.78456250e-01
-5.44439062e-08,1.78520313e-01
-5.44039062e-08,1.78489063e-01
-5.43639062e-08,1.78506250e-01
-5.43239062e-08,1.78496875e-01
-5.42839062e-08,1.78501563e-01
-5.42439062e-08,1.78500000e-01
-5.42039062e-08,1.78498437e-01
-5.41639062e-08,1.78503125e-01
-5.41239062e-08,1.78495313e-01
-5.40839062e-08,1.78506250e-01
-5.40439062e-08,1.78490625e-01
-5.40039062e-08,1.78514063e-01
-5.39639062e-08,1.78478125e-01
-5.39239062e-08,1.78546875e-01
-5.38839062e-08,1.78301563e-01
-5.38439062e-08,1.78034375e-01
-5.38039062e-08,1.78145313e-01
-5.37639062e-08,1.78059375e-01
-5.37239062e-08,1.78145313e-01
-5.36839062e-08,1.78032812e-01
-5.36439062e-08,1.78318750e-01
-5.36039062e-08,1.78545312e-01
-5.35639062e-08,1.78478125e-01
-5.35239062e-08,1.78512500e-01
-5.34839062e-08,1.78490625e-01
-5.34439062e-08,1.78506250e-01
-5.34039062e-08,1.78495313e-01
-5.33639062e-08,1.78503125e-01
-5.33239062e-08,1.78498437e-01
-5.32839062e-08,1.78501563e-01
-5.32439062e-08,1.78500000e-01
-5.32039062e-08,1.78500000e-01
-5.31639062e-08,1.78500000e-01
-5.31239062e-08,1.78498437e-01
-5.30839062e-08,1.78501563e-01
-5.30439062e-08,1.78496875e-01
-5.30039063e-08,1.78503125e-01
-5.29639062e-08,1.78495313e-01
-5.29239062e-08,1.78506250e-01
-5.28839062e-08,1.78492188e-01
-5.28439062e-08,1.78510937e-01
-5.28039062e-08,1.78484375e-01
-5.27639062e-08,1.78526563e-01
-5.27239062e-08,1.78450000e-01
-5.26839062e-08,1.78703125e-01
-5.26439062e-08,1.78959375e-01
-5.26039062e-08,1.78865625e-01
-5.25639062e-08,1.78926562e-01
-5.25239062e-08,1.78878125e-01
-5.24839062e-08,1.78918750e-01
-5.24439062e-08,1.78882813e-01
-5.24039062e-08,1.78917188e-01
-5.23639062e-08,1.78884375e-01
-5.23239062e-08,1.78917188e-01
-5.22839062e-08,1.78882813e-01
-5.22439062e-08,1.78918750e-01
-5.22039062e-08,1.78878125e-01
-5.21639062e-08,1.78926562e-01
-5.21239062e-08,1.78865625e-01
-5.20839062e-08,1.78959375e-01
-5.20439062e-08,1.78687500e-01
-5.20039062e-08,1.78450000e-01
-5.19639062e-08,1.78526563e-01
-5.19239062e-08,1.78482813e-01
-5.18839062e-08,1.78512500e-01
-5.18439062e-08,1.78490625e-01
-5.18039062e-08,1.78507813e-01
-5.17639062e-08,1.78493750e-01
-5.17239062e-08,1.78504688e-01
-5.16839062e-08,1.78495313e-01
-5.16439062e-08,1.78503125e-01
-5.16039062e-08,1.78496875e-01
-5.15639062e-08,1.78501563e-01
-5.15239062e-08,1.78498437e-01
-5.14839062e-08,1.78501563e-01
-5.14439062e-08,1.78500000e-01
-5.14039062e-08,1.78500000e-01
-5.13639062e-08,1.78501563e-01
-5.13239062e-08,1.78498437e-01
-5.12839062e-08,1.78503125e-01
-5.12439062e-08,1.78495313e-01
-5.12039062e-08,1.78507813e-01
-5.11639062e-08,1.78487500e-01
-5.11239062e-08,1.78521875e-01
-5.10839063e-08,1.78453125e-01
-5.10439062e-08,1.78700000e-01
-5.10039062e-08,1.78962500e-01
-5.09639062e-08,1.78860938e-01
-5.09239062e-08,1.78929688e-01
-5.08839062e-08,1.78873438e-01
-5.08439062e-08,1.78923438e-01
-5.08039063e-08,1.78878125e-01
-5.07639062e-08,1.78921875e-01
-5.07239062e-08,1.78878125e-01
-5.06839062e-08,1.78921875e-01
-5.06439062e-08,1.78876563e-01
-5.06039062e-08,1.78925000e-01
-5.05639062e-08,1.78871875e-01
-5.05239062e-08,1.78932813e-01
-5.04839062e-08,1.78856250e-01
-5.04439062e-08,1.78968750e-01
-5.04039062e-08,1.78678125e-01
-5.03639062e-08,1.78459375e-01
-5.03239062e-08,1.78515625e-01
-5.02839062e-08,1.78495313e-01
-5.02439062e-08,1.78498437e-01
-5.02039062e-08,1.78506250e-01
-5.01639062e-08,1.78489063e-01
-5.01239062e-08,1.78517188e-01
-5.00839062e-08,1.78471875e-01
-5.00439062e-08,1.78553125e-01
-5.00039062e-08,1.78293750e-01
-4.99639062e-08,1.78043750e-01
-4.99239062e-08,1.78132813e-01
-4.98839062e-08,1.78075000e-01
-4.98439062e-08,1.78123438e-01
-4.98039062e-08,1.78071875e-01
-4.97639062e-08,1.78148438e-01
-4.97239062e-08,1.77903125e-01
-4.96839062e-08,1.77629687e-01
-4.96439062e-08,1.77753125e-01
-4.96039062e-08,1.77643750e-01
-4.95639062e-08,1.77778125e-01
-4.95239062e-08,1.77470313e-01
-4.94839062e-08,1.77268750e-01
-4.94439062e-08,1.77304688e-01
-4.94039062e-08,1.77309375e-01
-4.93639062e-08,1.77275000e-01
-4.93239062e-08,1.77353125e-01
-4.92839062e-08,1.77090625e-01
-4.92439062e-08,1.76848438e-01
-4.92039062e-08,1.76925000e-01
-4.91639063e-08,1.76887500e-01
-4.91239062e-08,1.76903125e-01
-4.90839062e-08,1.76904688e-01
-4.90439062e-08,1.76882813e-01
-4.90039062e-08,1.76943750e-01
-4.89639062e-08,1.76700000e-01
-4.89239062e-08,1.76439062e-01
-4.88839063e-08,1.76535938e-01
-4.88439062e-08,1.76473437e-01
-4.88039062e-08,1.76520312e-01
-4.87639062e-08,1.76484375e-01
-4.87239062e-08,1.76512500e-01
-4.86839062e-08,1.76489063e-01
-4.86439062e-08,1.76507812e-01
-4.86039062e-08,1.76493750e-01
-4.85639062e-08,1.76503125e-01
-4.85239062e-08,1.76498437e-01
-4.84839062e-08,1.76498437e-01
-4.84439062e-08,1.76506250e-01
-4.84039062e-08,1.76489063e-01
-4.83639062e-08,1.76521875e-01
-4.83239062e-08,1.76453125e-01
-4.82839062e-08,1.76701563e-01
-4.82439062e-08,1.76960937e-01
-4.82039062e-08,1.76864063e-01
-4.81639062e-08,1.76926562e-01
-4.81239062e-08,1.76879687e-01
-4.80839062e-08,1.76917188e-01
-4.80439062e-08,1.76885938e-01
-4.80039062e-08,1.76912500e-01
-4.79639062e-08,1.76890625e-01
-4.79239062e-08,1.76907813e-01
-4.78839062e-08,1.76895313e-01
-4.78439062e-08,1.76903125e-01
-4.78039062e-08,1.76901562e-01
-4.77639062e-08,1.76893750e-01
-4.77239062e-08,1.76917188e-01
-4.76839062e-08,1.76857813e-01
-4.76439062e-08,1.77095313e-01
-4.76039062e-08,1.77367187e-01
-4.75639062e-08,1.77257813e-01
-4.75239062e-08,1.77332813e-01
-4.74839062e-08,1.77271875e-01
-4.74439062e-08,1.77325000e-01
-4.74039062e-08,1.77276563e-01
-4.73639062e-08,1.77321875e-01
-4.73239062e-08,1.77279688e-01
-4.72839062e-08,1.77318750e-01
-4.72439063e-08,1.77281250e-01
-4.72039062e-08,1.77318750e-01
-4.71639062e-08,1.77281250e-01
-4.71239062e-08,1.77317188e-01
-4.70839062e-08,1.77281250e-01
-4.70439062e-08,1.77318750e-01
-4.70039062e-08,1.77281250e-01
-4.69639063e-08,1.77318750e-01
-4.69239062e-08,1.77279688e-01
-4.68839062e-08,1.77321875e-01
-4.68439062e-08,1.77276563e-01
-4.68039062e-08,1.77326563e-01
-4.67639062e-08,1.77268750e-01
-4.67239062e-08,1.77340625e-01
-4.66839063e-08,1.77234375e-01
-4.66439062e-08,1.77518750e-01
-4.66039062e-08,1.77742188e-01
-4.65639062e-08,1.77681250e-01
-4.65239062e-08,1.77707813e-01
-4.64839062e-08,1.77696875e-01
-4.64439062e-08,1.77698438e-01
-4.64039062e-08,1.77706250e-01
-4.63639062e-08,1.77687500e-01
-4.63239062e-08,1.77721875e-01
-4.62839062e-08,1.77653125e-01
-4.62439062e-08,1.77900000e-01
-4.62039062e-08,1.78162500e-01
-4.61639062e-08,1.78060938e-01
-4.61239062e-08,1.78131250e-01
-4.60839062e-08,1.78071875e-01
-4.60439062e-08,1.78128125e-01
-4.60039062e-08,1.78068750e-01
-4.59639062e-08,1.78140625e-01
-4.59239062e-08,1.78035938e-01
-4.58839062e-08,1.78317188e-01
-4.58439062e-08,1.78545312e-01
-4.58039062e-08,1.78478125e-01
-4.57639062e-08,1.78512500e-01
-4.57239062e-08,1.78493750e-01
-4.56839062e-08,1.78503125e-01
-4.56439062e-08,1.78500000e-01
-4.56039062e-08,1.78496875e-01
-4.55639062e-08,1.78507813e-01
-4.55239062e-08,1.78487500e-01
-4.54839062e-08,1.78523437e-01
-4.54439062e-08,1.78451562e-01
-4.54039062e-08,1.78701562e-01
-4.53639062e-08,1.78959375e-01
-4.53239063e-08,1.78864063e-01
-4.52839062e-08,1.78926562e-01
-4.52439062e-08,1.78879687e-01
-4.52039062e-08,1.78917188e-01
-4.51639062e-08,1.78884375e-01
-4.51239062e-08,1.78912500e-01
-4.50839062e-08,1.78889063e-01
-4.50439063e-08,1.78910938e-01
-4.50039062e-08,1.78890625e-01
-4.49639062e-08,1.78907813e-01
-4.49239062e-08,1.78893750e-01
-4.48839062e-08,1.78904688e-01
-4.48439062e-08,1.78896875e-01
-4.48039062e-08,1.78901562e-01
-4.47639063e-08,1.78901562e-01
-4.47239062e-08,1.78892187e-01
-4.46839062e-08,1.78917188e-01
-4.46439062e-08,1.78857813e-01
-4.46039062e-08,1.79095313e-01
-4.45639062e-08,1.79367187e-01
-4.45239062e-08,1.79256250e-01
-4.44839063e-08,1.79334375e-01
-4.44439062e-08,1.79270313e-01
-4.44039062e-08,1.79326563e-01
-4.43639062e-08,1.79275000e-01
-4.43239062e-08,1.79323438e-01
-4.42839062e-08,1.79276563e-01
-4.42439062e-08,1.79323438e-01
-4.42039062e-08,1.79276563e-01
-4.41639062e-08,1.79323438e-01
-4.41239062e-08,1.79276563e-01
-4.40839062e-08,1.79325000e-01
-4.40439062e-08,1.79273437e-01
-4.40039062e-08,1.79329688e-01
-4.39639062e-08,1.79265625e-01
-4.39239062e-08,1.79343750e-01
-4.38839062e-08,1.79231250e-01
-4.38439062e-08,1.79521875e-01
-4.38039062e-08,1.79740625e-01
-4.37639062e-08,1.79682813e-01
-4.37239062e-08,1.79707813e-01
-4.36839063e-08,1.79698438e-01
-4.36439062e-08,1.79700000e-01
-4.36039062e-08,1.79703125e-01
-4.35639062e-08,1.79695313e-01
-4.35239062e-08,1.79706250e-01
-4.34839062e-08,1.79693750e-01
-4.34439062e-08,1.79707813e-01
-4.34039063e-08,1.79692188e-01
-4.33639062e-08,1.79709375e-01
-4.33239062e-08,1.79690625e-01
-4.32839062e-08,1.79710938e-01
-4.32439062e-08,1.79689062e-01
-4.32039062e-08,1.79712500e-01
-4.31639062e-08,1.79685938e-01
-4.31239063e-08,1.79714062e-01
-4.30839062e-08,1.79684375e-01
-4.30439062e-08,1.79718750e-01
-4.30039062e-08,1.79679688e-01
-4.29639062e-08,1.79723437e-01
-4.29239062e-08,1.79670313e-01
-4.28839062e-08,1.79739063e-01
-4.28439063e-08,1.79635938e-01
-4.28039062e-08,1.79917188e-01
-4.27639062e-08,1.80143750e-01
-4.27239062e-08,1.80079688e-01
-4.26839062e-08,1.80109375e-01
-4.26439062e-08,1.80095312e-01
-4.26039062e-08,1.80100000e-01
-4.25639063e-08,1.80101563e-01
-4.25239062e-08,1.80095312e-01
-4.24839062e-08,1.80107813e-01
-4.24439062e-08,1.80090625e-01
-4.24039062e-08,1.80112500e-01
-4.23639062e-08,1.80084375e-01
-4.23239062e-08,1.80121875e-01
-4.22839063e-08,1.80067188e-01
-4.22439062e-08,1.80157813e-01
-4.22039062e-08,1.79889063e-01
-4.21639062e-08,1.79650000e-01
-4.21239062e-08,1.79726563e-01
-4.20839062e-08,1.79682813e-01
-4.20439062e-08,1.79710938e-01
-4.20039062e-08,1.79692188e-01
-4.19639062e-08,1.79704688e-01
-4.19239062e-08,1.79696875e-01
-4.18839062e-08,1.79701562e-01
-4.18439062e-08,1.79700000e-01
-4.18039062e-08,1.79700000e-01
-4.17639063e-08,1.79701562e-01
-4.17239062e-08,1.79696875e-01
-4.16839062e-08,1.79704688e-01
-4.16439062e-08,1.79693750e-01
-4.16039062e-08,1.79707813e-01
-4.15639062e-08,1.79690625e-01
-4.15239062e-08,1.79710938e-01
-4.14839063e-08,1.79684375e-01
-4.14439062e-08,1.79720313e-01
-4.14039062e-08,1.79670313e-01
-4.13639062e-08,1.79754688e-01
-4.13239062e-08,1.79490625e-01
-4.12839062e-08,1.79246875e-01
-4.12439062e-08,1.79329688e-01
-4.12039063e-08,1.79281250e-01
-4.11639062e-08,1.79314063e-01
-4.11239062e-08,1.79289063e-01
-4.10839062e-08,1.79309375e-01
-4.10439062e-08,1.79293750e-01
-4.10039062e-08,1.79306250e-01
-4.09639062e-08,1.79295312e-01
-4.09239063e-08,1.79303125e-01
-4.08839062e-08,1.79296875e-01
-4.08439062e-08,1.79301563e-01
-4.08039062e-08,1.79298438e-01
-4.07639062e-08,1.79300000e-01
-4.07239062e-08,1.79300000e-01
-4.06839062e-08,1.79298438e-01
-4.06439063e-08,1.79303125e-01
-4.06039062e-08,1.79296875e-01
-4.05639062e-08,1.79304688e-01
-4.05239062e-08,1.79293750e-01
-4.04839062e-08,1.79307812e-01
-4.04439062e-08,1.79290625e-01
-4.04039062e-08,1.79312500e-01
-4.03639063e-08,1.79281250e-01
-4.03239062e-08,1.79328125e-01
-4.02839062e-08,1.79246875e-01
-4.02439062e-08,1.79506250e-01
-4.02039062e-08,1.79756250e-01
-4.01639062e-08,1.79668750e-01
-4.01239062e-08,1.79721875e-01
-4.00839063e-08,1.79682813e-01
-4.00439062e-08,1.79714062e-01
-4.00039062e-08,1.79687500e-01
-3.99639062e-08,1.79710938e-01
-3.99239062e-08,1.79690625e-01
-3.98839062e-08,1.79707813e-01
-3.98439063e-08,1.79692188e-01
-3.98039062e-08,1.79706250e-01
-3.97639062e-08,1.79693750e-01
-3.97239062e-08,1.79706250e-01
-3.96839062e-08,1.79693750e-01
-3.96439062e-08,1.79704688e-01
-3.96039062e-08,1.79695313e-01
-3.95639063e-08,1.79704688e-01
-3.95239062e-08,1.79695313e-01
-3.94839062e-08,1.79704688e-01
-3.94439062e-08,1.79695313e-01
-3.94039062e-08,1.79704688e-01
-3.93639062e-08,1.79695313e-01
-3.93239062e-08,1.79704688e-01
-3.92839063e-08,1.79695313e-01
-3.92439062e-08,1.79704688e-01
-3.92039062e-08,1.79695313e-01
-3.91639062e-08,1.79704688e-01
-3.91239062e-08,1.79695313e-01
-3.90839062e-08,1.79704688e-01
-3.90439062e-08,1.79693750e-01
-3.90039063e-08,1.79706250e-01
-3.89639062e-08,1.79692188e-01
-3.89239062e-08,1.79709375e-01
-3.88839062e-08,1.79687500e-01
-3.88439062e-08,1.79717188e-01
-3.88039062e-08,1.79673438e-01
-3.87639062e-08,1.79750000e-01
-3.87239063e-08,1.79496875e-01
-3.86839062e-08,1.79240625e-01
-3.86439062e-08,1.79335938e-01
-3.86039062e-08,1.79271875e-01
-3.85639062e-08,1.79323438e-01
-3.85239062e-08,1.79278125e-01
