trails/0bdfa5e45fec98341abdd20552c140b4/aes_ch1_20250507115541240.csv

Model,MSO66B
Label,
Waveform Type,ANALOG
Horizontal Units,s
Sample Interval,4.00000000e-11
Record Length,10000
Zero Index,1599.07421875
Vertical Units,A
ANALOG_Thumbnail,
yOffset,1.84500000e-01
yPosition,8.40000000e-01

Labels,
TIME,CH1
-6.39629687e-08,1.93275000e-01
-6.39229688e-08,1.93321875e-01
-6.38829687e-08,1.93279688e-01
-6.38429687e-08,1.93318750e-01
-6.38029687e-08,1.93281250e-01
-6.37629687e-08,1.93317188e-01
-6.37229688e-08,1.93282813e-01
-6.36829687e-08,1.93317188e-01
-6.36429688e-08,1.93282813e-01
-6.36029687e-08,1.93317188e-01
-6.35629687e-08,1.93281250e-01
-6.35229687e-08,1.93318750e-01
-6.34829687e-08,1.93279688e-01
-6.34429688e-08,1.93321875e-01
-6.34029687e-08,1.93275000e-01
-6.33629688e-08,1.93329688e-01
-6.33229687e-08,1.93259375e-01
-6.32829687e-08,1.93364063e-01
-6.32429687e-08,1.93082813e-01
-6.32029687e-08,1.92854688e-01
-6.31629688e-08,1.92920312e-01
-6.31229687e-08,1.92889063e-01
-6.30829688e-08,1.92906250e-01
-6.30429687e-08,1.92896875e-01
-6.30029687e-08,1.92901563e-01
-6.29629687e-08,1.92900000e-01
-6.29229687e-08,1.92898438e-01
-6.28829688e-08,1.92903125e-01
-6.28429687e-08,1.92896875e-01
-6.28029688e-08,1.92904688e-01
-6.27629687e-08,1.92895312e-01
-6.27229687e-08,1.92904688e-01
-6.26829687e-08,1.92893750e-01
-6.26429687e-08,1.92906250e-01
-6.26029688e-08,1.92892188e-01
-6.25629687e-08,1.92907812e-01
-6.25229688e-08,1.92890625e-01
-6.24829687e-08,1.92909375e-01
-6.24429687e-08,1.92889063e-01
-6.24029687e-08,1.92912500e-01
-6.23629687e-08,1.92884375e-01
-6.23229688e-08,1.92918750e-01
-6.22829687e-08,1.92876563e-01
-6.22429688e-08,1.92932812e-01
-6.22029687e-08,1.92842188e-01
-6.21629687e-08,1.93110937e-01
-6.21229687e-08,1.93351563e-01
-6.20829687e-08,1.93273438e-01
-6.20429688e-08,1.93317188e-01
-6.20029687e-08,1.93287500e-01
-6.19629688e-08,1.93309375e-01
-6.19229687e-08,1.93292188e-01
-6.18829687e-08,1.93306250e-01
-6.18429687e-08,1.93295313e-01
-6.18029687e-08,1.93303125e-01
-6.17629688e-08,1.93296875e-01
-6.17229687e-08,1.93301562e-01
-6.16829687e-08,1.93298438e-01
-6.16429687e-08,1.93301562e-01
-6.16029687e-08,1.93298438e-01
-6.15629687e-08,1.93300000e-01
-6.15229687e-08,1.93300000e-01
-6.14829688e-08,1.93300000e-01
-6.14429687e-08,1.93300000e-01
-6.14029687e-08,1.93300000e-01
-6.13629687e-08,1.93300000e-01
-6.13229687e-08,1.93298438e-01
-6.12829687e-08,1.93301562e-01
-6.12429687e-08,1.93298438e-01
-6.12029688e-08,1.93301562e-01
-6.11629687e-08,1.93298438e-01
-6.11229687e-08,1.93301562e-01
-6.10829687e-08,1.93298438e-01
-6.10429687e-08,1.93301562e-01
-6.10029687e-08,1.93298438e-01
-6.09629687e-08,1.93301562e-01
-6.09229688e-08,1.93298438e-01
-6.08829687e-08,1.93301562e-01
-6.08429687e-08,1.93296875e-01
-6.08029687e-08,1.93303125e-01
-6.07629687e-08,1.93296875e-01
-6.07229687e-08,1.93303125e-01
-6.06829687e-08,1.93296875e-01
-6.06429688e-08,1.93303125e-01
-6.06029687e-08,1.93296875e-01
-6.05629687e-08,1.93303125e-01
-6.05229687e-08,1.93296875e-01
-6.04829687e-08,1.93303125e-01
-6.04429687e-08,1.93296875e-01
-6.04029687e-08,1.93303125e-01
-6.03629688e-08,1.93296875e-01
-6.03229687e-08,1.93303125e-01
-6.02829687e-08,1.93296875e-01
-6.02429687e-08,1.93304688e-01
-6.02029687e-08,1.93295313e-01
-6.01629687e-08,1.93304688e-01
-6.01229687e-08,1.93295313e-01
-6.00829688e-08,1.93304688e-01
-6.00429687e-08,1.93295313e-01
-6.00029687e-08,1.93304688e-01
-5.99629687e-08,1.93295313e-01
-5.99229687e-08,1.93304688e-01
-5.98829688e-08,1.93295313e-01
-5.98429687e-08,1.93304688e-01
-5.98029688e-08,1.93295313e-01
-5.97629687e-08,1.93304688e-01
-5.97229687e-08,1.93293750e-01
-5.96829687e-08,1.93306250e-01
-5.96429687e-08,1.93293750e-01
-5.96029687e-08,1.93306250e-01
-5.95629687e-08,1.93293750e-01
-5.95229687e-08,1.93306250e-01
-5.94829687e-08,1.93293750e-01
-5.94429687e-08,1.93307813e-01
-5.94029687e-08,1.93292188e-01
-5.93629687e-08,1.93307813e-01
-5.93229687e-08,1.93292188e-01
-5.92829687e-08,1.93309375e-01
-5.92429687e-08,1.93290625e-01
-5.92029687e-08,1.93309375e-01
-5.91629687e-08,1.93289062e-01
-5.91229687e-08,1.93312500e-01
-5.90829687e-08,1.93287500e-01
-5.90429687e-08,1.93314062e-01
-5.90029687e-08,1.93282813e-01
-5.89629687e-08,1.93320313e-01
-5.89229687e-08,1.93275000e-01
-5.88829687e-08,1.93334375e-01
-5.88429687e-08,1.93240625e-01
-5.88029687e-08,1.93512500e-01
-5.87629687e-08,1.93750000e-01
-5.87229687e-08,1.93675000e-01
-5.86829687e-08,1.93715625e-01
-5.86429687e-08,1.93689063e-01
-5.86029687e-08,1.93707813e-01
-5.85629687e-08,1.93695312e-01
-5.85229687e-08,1.93703125e-01
-5.84829687e-08,1.93696875e-01
-5.84429687e-08,1.93701563e-01
-5.84029687e-08,1.93700000e-01
-5.83629687e-08,1.93700000e-01
-5.83229687e-08,1.93701563e-01
-5.82829687e-08,1.93698438e-01
-5.82429687e-08,1.93701563e-01
-5.82029687e-08,1.93696875e-01
-5.81629687e-08,1.93703125e-01
-5.81229687e-08,1.93696875e-01
-5.80829687e-08,1.93704688e-01
-5.80429687e-08,1.93695312e-01
-5.80029687e-08,1.93706250e-01
-5.79629687e-08,1.93693750e-01
-5.79229687e-08,1.93706250e-01
-5.78829687e-08,1.93692188e-01
-5.78429687e-08,1.93709375e-01
-5.78029687e-08,1.93690625e-01
-5.77629687e-08,1.93710938e-01
-5.77229687e-08,1.93687500e-01
-5.76829687e-08,1.93715625e-01
-5.76429687e-08,1.93681250e-01
-5.76029687e-08,1.93725000e-01
-5.75629687e-08,1.93665625e-01
-5.75229687e-08,1.93759375e-01
-5.74829687e-08,1.93487500e-01
-5.74429687e-08,1.93251563e-01
-5.74029687e-08,1.93325000e-01
-5.73629687e-08,1.93285938e-01
-5.73229687e-08,1.93309375e-01
-5.72829687e-08,1.93295313e-01
-5.72429687e-08,1.93301562e-01
-5.72029687e-08,1.93301562e-01
-5.71629687e-08,1.93295313e-01
-5.71229687e-08,1.93309375e-01
-5.70829687e-08,1.93285938e-01
-5.70429687e-08,1.93325000e-01
-5.70029687e-08,1.93250000e-01
-5.69629687e-08,1.93504687e-01
-5.69229687e-08,1.93757813e-01
-5.68829687e-08,1.93665625e-01
-5.68429687e-08,1.93723438e-01
-5.68029687e-08,1.93681250e-01
-5.67629687e-08,1.93715625e-01
-5.67229687e-08,1.93687500e-01
-5.66829687e-08,1.93710938e-01
-5.66429687e-08,1.93689063e-01
-5.66029687e-08,1.93709375e-01
-5.65629687e-08,1.93692188e-01
-5.65229687e-08,1.93707813e-01
-5.64829687e-08,1.93693750e-01
-5.64429687e-08,1.93706250e-01
-5.64029687e-08,1.93693750e-01
-5.63629687e-08,1.93706250e-01
-5.63229687e-08,1.93695312e-01
-5.62829687e-08,1.93704688e-01
-5.62429687e-08,1.93695312e-01
-5.62029687e-08,1.93704688e-01
-5.61629687e-08,1.93696875e-01
-5.61229687e-08,1.93703125e-01
-5.60829687e-08,1.93696875e-01
-5.60429687e-08,1.93703125e-01
-5.60029687e-08,1.93696875e-01
-5.59629687e-08,1.93703125e-01
-5.59229687e-08,1.93696875e-01
-5.58829687e-08,1.93703125e-01
-5.58429687e-08,1.93698438e-01
-5.58029687e-08,1.93701563e-01
-5.57629687e-08,1.93698438e-01
-5.57229687e-08,1.93701563e-01
-5.56829687e-08,1.93698438e-01
-5.56429687e-08,1.93701563e-01
-5.56029687e-08,1.93698438e-01
-5.55629687e-08,1.93701563e-01
-5.55229687e-08,1.93698438e-01
-5.54829687e-08,1.93701563e-01
-5.54429687e-08,1.93698438e-01
-5.54029687e-08,1.93701563e-01
-5.53629687e-08,1.93698438e-01
-5.53229687e-08,1.93700000e-01
-5.52829687e-08,1.93700000e-01
-5.52429687e-08,1.93700000e-01
-5.52029687e-08,1.93700000e-01
-5.51629687e-08,1.93700000e-01
-5.51229687e-08,1.93700000e-01
-5.50829687e-08,1.93700000e-01
-5.50429687e-08,1.93700000e-01
-5.50029687e-08,1.93700000e-01
-5.49629687e-08,1.93700000e-01
-5.49229687e-08,1.93700000e-01
-5.48829687e-08,1.93700000e-01
-5.48429687e-08,1.93700000e-01
-5.48029687e-08,1.93700000e-01
-5.47629687e-08,1.93700000e-01
-5.47229687e-08,1.93700000e-01
-5.46829687e-08,1.93698438e-01
-5.46429687e-08,1.93701563e-01
-5.46029687e-08,1.93698438e-01
-5.45629687e-08,1.93701563e-01
-5.45229687e-08,1.93698438e-01
-5.44829687e-08,1.93701563e-01
-5.44429687e-08,1.93698438e-01
-5.44029687e-08,1.93701563e-01
-5.43629687e-08,1.93698438e-01
-5.43229687e-08,1.93701563e-01
-5.42829687e-08,1.93698438e-01
-5.42429687e-08,1.93701563e-01
-5.42029687e-08,1.93698438e-01
-5.41629687e-08,1.93701563e-01
-5.41229687e-08,1.93698438e-01
-5.40829687e-08,1.93701563e-01
-5.40429687e-08,1.93696875e-01
-5.40029687e-08,1.93703125e-01
-5.39629687e-08,1.93696875e-01
-5.39229687e-08,1.93703125e-01
-5.38829687e-08,1.93696875e-01
-5.38429687e-08,1.93703125e-01
-5.38029687e-08,1.93696875e-01
-5.37629687e-08,1.93703125e-01
-5.37229687e-08,1.93696875e-01
-5.36829687e-08,1.93703125e-01
-5.36429687e-08,1.93696875e-01
-5.36029687e-08,1.93704688e-01
-5.35629687e-08,1.93695312e-01
-5.35229687e-08,1.93704688e-01
-5.34829687e-08,1.93695312e-01
-5.34429687e-08,1.93704688e-01
-5.34029687e-08,1.93695312e-01
-5.33629687e-08,1.93704688e-01
-5.33229687e-08,1.93693750e-01
-5.32829687e-08,1.93706250e-01
-5.32429687e-08,1.93693750e-01
-5.32029687e-08,1.93706250e-01
-5.31629687e-08,1.93692188e-01
-5.31229687e-08,1.93707813e-01
-5.30829687e-08,1.93690625e-01
-5.30429687e-08,1.93709375e-01
-5.30029687e-08,1.93689063e-01
-5.29629687e-08,1.93712500e-01
-5.29229687e-08,1.93685938e-01
-5.28829687e-08,1.93715625e-01
-5.28429687e-08,1.93681250e-01
-5.28029687e-08,1.93723438e-01
-5.27629687e-08,1.93665625e-01
-5.27229687e-08,1.93759375e-01
-5.26829687e-08,1.93487500e-01
-5.26429687e-08,1.93250000e-01
-5.26029687e-08,1.93325000e-01
-5.25629687e-08,1.93284375e-01
-5.25229687e-08,1.93310938e-01
-5.24829687e-08,1.93292188e-01
-5.24429687e-08,1.93304688e-01
-5.24029687e-08,1.93296875e-01
-5.23629687e-08,1.93301562e-01
-5.23229687e-08,1.93300000e-01
-5.22829687e-08,1.93298438e-01
-5.22429687e-08,1.93303125e-01
-5.22029688e-08,1.93295313e-01
-5.21629687e-08,1.93306250e-01
-5.21229687e-08,1.93292188e-01
-5.20829687e-08,1.93310938e-01
-5.20429687e-08,1.93285938e-01
-5.20029687e-08,1.93318750e-01
-5.19629687e-08,1.93270313e-01
-5.19229687e-08,1.93354688e-01
-5.18829687e-08,1.93092188e-01
-5.18429687e-08,1.92845313e-01
-5.18029687e-08,1.92929688e-01
-5.17629687e-08,1.92879688e-01
-5.17229687e-08,1.92915625e-01
-5.16829687e-08,1.92889063e-01
-5.16429687e-08,1.92909375e-01
-5.16029687e-08,1.92892188e-01
-5.15629687e-08,1.92906250e-01
-5.15229687e-08,1.92895312e-01
-5.14829687e-08,1.92903125e-01
-5.14429687e-08,1.92896875e-01
-5.14029687e-08,1.92901563e-01
-5.13629687e-08,1.92900000e-01
-5.13229687e-08,1.92900000e-01
-5.12829687e-08,1.92901563e-01
-5.12429687e-08,1.92896875e-01
-5.12029687e-08,1.92904688e-01
-5.11629687e-08,1.92893750e-01
-5.11229687e-08,1.92907812e-01
-5.10829687e-08,1.92889063e-01
-5.10429687e-08,1.92917188e-01
-5.10029687e-08,1.92873438e-01
-5.09629687e-08,1.92951563e-01
-5.09229687e-08,1.92695312e-01
-5.08829687e-08,1.92443750e-01
-5.08429687e-08,1.92532813e-01
-5.08029687e-08,1.92476563e-01
-5.07629687e-08,1.92518750e-01
-5.07229687e-08,1.92485938e-01
-5.06829687e-08,1.92512500e-01
-5.06429687e-08,1.92489063e-01
-5.06029687e-08,1.92509375e-01
-5.05629687e-08,1.92492188e-01
-5.05229687e-08,1.92507813e-01
-5.04829687e-08,1.92493750e-01
-5.04429687e-08,1.92506250e-01
-5.04029687e-08,1.92493750e-01
-5.03629687e-08,1.92504687e-01
-5.03229687e-08,1.92495313e-01
-5.02829688e-08,1.92504687e-01
-5.02429687e-08,1.92496875e-01
-5.02029687e-08,1.92503125e-01
-5.01629687e-08,1.92496875e-01
-5.01229687e-08,1.92501563e-01
-5.00829687e-08,1.92498438e-01
-5.00429687e-08,1.92501563e-01
-5.00029688e-08,1.92498438e-01
-4.99629687e-08,1.92500000e-01
-4.99229687e-08,1.92500000e-01
-4.98829687e-08,1.92498438e-01
-4.98429687e-08,1.92501563e-01
-4.98029687e-08,1.92496875e-01
-4.97629687e-08,1.92503125e-01
-4.97229687e-08,1.92495313e-01
-4.96829687e-08,1.92506250e-01
-4.96429687e-08,1.92490625e-01
-4.96029687e-08,1.92512500e-01
-4.95629687e-08,1.92482813e-01
-4.95229687e-08,1.92526562e-01
-4.94829687e-08,1.92448438e-01
-4.94429687e-08,1.92704687e-01
-4.94029687e-08,1.92956250e-01
-4.93629687e-08,1.92867188e-01
-4.93229687e-08,1.92923438e-01
-4.92829687e-08,1.92881250e-01
-4.92429687e-08,1.92914063e-01
-4.92029687e-08,1.92887500e-01
-4.91629687e-08,1.92910938e-01
-4.91229687e-08,1.92890625e-01
-4.90829687e-08,1.92907812e-01
-4.90429687e-08,1.92892188e-01
-4.90029687e-08,1.92906250e-01
-4.89629687e-08,1.92895312e-01
-4.89229687e-08,1.92904688e-01
-4.88829687e-08,1.92896875e-01
-4.88429687e-08,1.92901563e-01
-4.88029687e-08,1.92900000e-01
-4.87629687e-08,1.92898438e-01
-4.87229687e-08,1.92904688e-01
-4.86829687e-08,1.92889063e-01
-4.86429688e-08,1.92920312e-01
-4.86029687e-08,1.92854688e-01
-4.85629687e-08,1.93096875e-01
-4.85229687e-08,1.93365625e-01
-4.84829687e-08,1.93257813e-01
-4.84429687e-08,1.93332813e-01
-4.84029687e-08,1.93271875e-01
-4.83629688e-08,1.93326563e-01
-4.83229687e-08,1.93273438e-01
-4.82829687e-08,1.93328125e-01
-4.82429687e-08,1.93268750e-01
-4.82029687e-08,1.93339062e-01
-4.81629687e-08,1.93237500e-01
-4.81229687e-08,1.93515625e-01
-4.80829688e-08,1.93748438e-01
-4.80429687e-08,1.93673438e-01
-4.80029687e-08,1.93718750e-01
-4.79629687e-08,1.93684375e-01
-4.79229687e-08,1.93715625e-01
-4.78829687e-08,1.93681250e-01
-4.78429687e-08,1.93726563e-01
-4.78029687e-08,1.93650000e-01
-4.77629687e-08,1.93901563e-01
-4.77229687e-08,1.94160938e-01
-4.76829687e-08,1.94060938e-01
-4.76429687e-08,1.94129688e-01
-4.76029687e-08,1.94073438e-01
-4.75629687e-08,1.94125000e-01
-4.75229687e-08,1.94075000e-01
-4.74829687e-08,1.94126563e-01
-4.74429687e-08,1.94068750e-01
-4.74029687e-08,1.94140625e-01
-4.73629687e-08,1.94035938e-01
-4.73229687e-08,1.94317188e-01
-4.72829687e-08,1.94545313e-01
-4.72429687e-08,1.94478125e-01
-4.72029687e-08,1.94514063e-01
-4.71629687e-08,1.94490625e-01
-4.71229687e-08,1.94506250e-01
-4.70829687e-08,1.94495313e-01
-4.70429687e-08,1.94503125e-01
-4.70029687e-08,1.94498438e-01
-4.69629687e-08,1.94501563e-01
-4.69229687e-08,1.94500000e-01
-4.68829687e-08,1.94500000e-01
-4.68429687e-08,1.94500000e-01
-4.68029687e-08,1.94500000e-01
-4.67629687e-08,1.94500000e-01
-4.67229688e-08,1.94500000e-01
-4.66829687e-08,1.94501563e-01
-4.66429687e-08,1.94498438e-01
-4.66029687e-08,1.94501563e-01
-4.65629687e-08,1.94498438e-01
-4.65229687e-08,1.94501563e-01
-4.64829687e-08,1.94498438e-01
-4.64429688e-08,1.94501563e-01
-4.64029687e-08,1.94498438e-01
-4.63629687e-08,1.94501563e-01
-4.63229687e-08,1.94498438e-01
-4.62829687e-08,1.94501563e-01
-4.62429687e-08,1.94498438e-01
-4.62029687e-08,1.94501563e-01
-4.61629688e-08,1.94498438e-01
-4.61229687e-08,1.94500000e-01
-4.60829687e-08,1.94500000e-01
-4.60429687e-08,1.94500000e-01
-4.60029687e-08,1.94500000e-01
-4.59629687e-08,1.94500000e-01
-4.59229687e-08,1.94500000e-01
-4.58829688e-08,1.94498438e-01
-4.58429687e-08,1.94501563e-01
-4.58029687e-08,1.94496875e-01
-4.57629687e-08,1.94503125e-01
-4.57229687e-08,1.94495313e-01
-4.56829687e-08,1.94506250e-01
-4.56429687e-08,1.94490625e-01
-4.56029687e-08,1.94514063e-01
-4.55629687e-08,1.94476563e-01
-4.55229687e-08,1.94548438e-01
-4.54829687e-08,1.94298438e-01
-4.54429687e-08,1.94039062e-01
-4.54029687e-08,1.94137500e-01
-4.53629687e-08,1.94071875e-01
-4.53229687e-08,1.94123437e-01
-4.52829687e-08,1.94079688e-01
-4.52429687e-08,1.94118750e-01
-4.52029687e-08,1.94082813e-01
-4.51629687e-08,1.94117188e-01
-4.51229687e-08,1.94084375e-01
-4.50829687e-08,1.94115625e-01
-4.50429687e-08,1.94084375e-01
-4.50029687e-08,1.94115625e-01
-4.49629687e-08,1.94082813e-01
-4.49229687e-08,1.94117188e-01
-4.48829687e-08,1.94082813e-01
-4.48429687e-08,1.94118750e-01
-4.48029688e-08,1.94079688e-01
-4.47629687e-08,1.94121875e-01
-4.47229687e-08,1.94075000e-01
-4.46829687e-08,1.94131250e-01
-4.46429687e-08,1.94059375e-01
-4.46029687e-08,1.94165625e-01
-4.45629687e-08,1.93881250e-01
-4.45229688e-08,1.93657812e-01
-4.44829687e-08,1.93717187e-01
-4.44429687e-08,1.93692188e-01
-4.44029687e-08,1.93701563e-01
-4.43629687e-08,1.93701563e-01
-4.43229687e-08,1.93693750e-01
-4.42829687e-08,1.93709375e-01
-4.42429688e-08,1.93685938e-01
-4.42029687e-08,1.93720313e-01
-4.41629687e-08,1.93668750e-01
-4.41229687e-08,1.93756250e-01
-4.40829687e-08,1.93489063e-01
-4.40429687e-08,1.93248438e-01
-4.40029687e-08,1.93326563e-01
-4.39629688e-08,1.93284375e-01
-4.39229687e-08,1.93309375e-01
-4.38829687e-08,1.93296875e-01
-4.38429687e-08,1.93298438e-01
-4.38029687e-08,1.93307813e-01
-4.37629687e-08,1.93281250e-01
-4.37229687e-08,1.93343750e-01
-4.36829688e-08,1.93103125e-01
-4.36429687e-08,1.92835937e-01
-4.36029687e-08,1.92940625e-01
-4.35629687e-08,1.92868750e-01
-4.35229687e-08,1.92926563e-01
-4.34829687e-08,1.92875000e-01
-4.34429687e-08,1.92925000e-01
-4.34029687e-08,1.92873438e-01
-4.33629687e-08,1.92929688e-01
-4.33229687e-08,1.92862500e-01
-4.32829687e-08,1.92962500e-01
-4.32429687e-08,1.92685938e-01
-4.32029687e-08,1.92451563e-01
-4.31629687e-08,1.92526562e-01
-4.31229687e-08,1.92482813e-01
-4.30829687e-08,1.92514062e-01
-4.30429687e-08,1.92489063e-01
-4.30029687e-08,1.92509375e-01
-4.29629687e-08,1.92490625e-01
-4.29229687e-08,1.92509375e-01
-4.28829688e-08,1.92490625e-01
-4.28429687e-08,1.92509375e-01
-4.28029687e-08,1.92489063e-01
-4.27629687e-08,1.92512500e-01
-4.27229687e-08,1.92484375e-01
-4.26829687e-08,1.92520313e-01
-4.26429687e-08,1.92470313e-01
-4.26029688e-08,1.92554688e-01
-4.25629687e-08,1.92292188e-01
-4.25229687e-08,1.92045313e-01
-4.24829687e-08,1.92129688e-01
-4.24429687e-08,1.92079688e-01
-4.24029687e-08,1.92115625e-01
-4.23629687e-08,1.92087500e-01
-4.23229688e-08,1.92110937e-01
-4.22829687e-08,1.92090625e-01
-4.22429687e-08,1.92107813e-01
-4.22029687e-08,1.92093750e-01
-4.21629687e-08,1.92106250e-01
-4.21229687e-08,1.92093750e-01
-4.20829687e-08,1.92104688e-01
-4.20429688e-08,1.92095313e-01
-4.20029687e-08,1.92103125e-01
-4.19629687e-08,1.92096875e-01
-4.19229687e-08,1.92103125e-01
-4.18829687e-08,1.92098437e-01
-4.18429687e-08,1.92101563e-01
-4.18029687e-08,1.92098437e-01
-4.17629688e-08,1.92100000e-01
-4.17229687e-08,1.92101563e-01
-4.16829687e-08,1.92098437e-01
-4.16429687e-08,1.92103125e-01
-4.16029687e-08,1.92093750e-01
-4.15629687e-08,1.92109375e-01
-4.15229687e-08,1.92085937e-01
-4.14829688e-08,1.92123437e-01
-4.14429687e-08,1.92051562e-01
-4.14029687e-08,1.92301563e-01
-4.13629687e-08,1.92560938e-01
-4.13229687e-08,1.92462500e-01
-4.12829687e-08,1.92528125e-01
-4.12429687e-08,1.92476563e-01
-4.12029687e-08,1.92520313e-01
-4.11629687e-08,1.92481250e-01
-4.11229687e-08,1.92517188e-01
-4.10829687e-08,1.92484375e-01
-4.10429687e-08,1.92515625e-01
-4.10029687e-08,1.92485938e-01
-4.09629688e-08,1.92514062e-01
-4.09229687e-08,1.92485938e-01
-4.08829687e-08,1.92514062e-01
-4.08429687e-08,1.92485938e-01
-4.08029687e-08,1.92514062e-01
-4.07629687e-08,1.92485938e-01
-4.07229687e-08,1.92514062e-01
-4.06829688e-08,1.92485938e-01
-4.06429687e-08,1.92515625e-01
-4.06029687e-08,1.92484375e-01
-4.05629687e-08,1.92517188e-01
-4.05229687e-08,1.92482813e-01
-4.04829687e-08,1.92518750e-01
-4.04429687e-08,1.92478125e-01
-4.04029688e-08,1.92525000e-01
-4.03629687e-08,1.92470313e-01
-4.03229687e-08,1.92539062e-01
-4.02829687e-08,1.92435938e-01
-4.02429687e-08,1.92718750e-01
-4.02029687e-08,1.92943750e-01
-4.01629687e-08,1.92879688e-01
-4.01229688e-08,1.92909375e-01
-4.00829687e-08,1.92895312e-01
-4.00429687e-08,1.92901563e-01
-4.00029687e-08,1.92901563e-01
-3.99629687e-08,1.92895312e-01
-3.99229687e-08,1.92906250e-01
-3.98829687e-08,1.92890625e-01
-3.98429688e-08,1.92912500e-01
-3.98029687e-08,1.92884375e-01
-3.97629687e-08,1.92921875e-01
-3.97229687e-08,1.92868750e-01
-3.96829687e-08,1.92957812e-01
-3.96429687e-08,1.92689063e-01
-3.96029687e-08,1.92448438e-01
-3.95629688e-08,1.92526562e-01
-3.95229687e-08,1.92482813e-01
-3.94829687e-08,1.92510938e-01
-3.94429687e-08,1.92492188e-01
-3.94029687e-08,1.92504687e-01
-3.93629687e-08,1.92498438e-01
-3.93229687e-08,1.92500000e-01
-3.92829688e-08,1.92503125e-01
-3.92429687e-08,1.92495313e-01
-3.92029687e-08,1.92509375e-01
-3.91629687e-08,1.92485938e-01
-3.91229687e-08,1.92525000e-01
-3.90829687e-08,1.92450000e-01
-3.90429688e-08,1.92703125e-01
-3.90029687e-08,1.92957812e-01
-3.89629687e-08,1.92865625e-01
-3.89229687e-08,1.92925000e-01
-3.88829687e-08,1.92879688e-01
-3.88429687e-08,1.92915625e-01
-3.88029687e-08,1.92885937e-01
-3.87629688e-08,1.92912500e-01
-3.87229687e-08,1.92889063e-01
-3.86829687e-08,1.92910938e-01
-3.86429687e-08,1.92890625e-01
-3.86029687e-08,1.92909375e-01
-3.85629687e-08,1.92890625e-01
-3.85229687e-08,1.92907812e-01
