trails/0bdfa5e45fec98341abdd20552c140b4/aes_ch1_20250507115448098.csv

Model,MSO66B
Label,
Waveform Type,ANALOG
Horizontal Units,s
Sample Interval,4.00000000e-11
Record Length,10000
Zero Index,1599.05078125
Vertical Units,A
ANALOG_Thumbnail,
yOffset,1.84500000e-01
yPosition,8.40000000e-01

Labels,
TIME,CH1
-6.39620312e-08,1.84868750e-01
-6.39220313e-08,1.84956250e-01
-6.38820312e-08,1.84690625e-01
-6.38420312e-08,1.84446875e-01
-6.38020312e-08,1.84528125e-01
-6.37620312e-08,1.84481250e-01
-6.37220313e-08,1.84514063e-01
-6.36820312e-08,1.84489062e-01
-6.36420313e-08,1.84509375e-01
-6.36020312e-08,1.84492188e-01
-6.35620312e-08,1.84506250e-01
-6.35220312e-08,1.84493750e-01
-6.34820312e-08,1.84504688e-01
-6.34420313e-08,1.84495313e-01
-6.34020312e-08,1.84503125e-01
-6.33620313e-08,1.84496875e-01
-6.33220312e-08,1.84503125e-01
-6.32820312e-08,1.84496875e-01
-6.32420312e-08,1.84503125e-01
-6.32020312e-08,1.84498438e-01
-6.31620313e-08,1.84501562e-01
-6.31220312e-08,1.84498438e-01
-6.30820312e-08,1.84501562e-01
-6.30420312e-08,1.84498438e-01
-6.30020312e-08,1.84501562e-01
-6.29620312e-08,1.84498438e-01
-6.29220312e-08,1.84501562e-01
-6.28820313e-08,1.84498438e-01
-6.28420312e-08,1.84501562e-01
-6.28020312e-08,1.84498438e-01
-6.27620312e-08,1.84501562e-01
-6.27220312e-08,1.84498438e-01
-6.26820312e-08,1.84501562e-01
-6.26420312e-08,1.84498438e-01
-6.26020313e-08,1.84501562e-01
-6.25620312e-08,1.84498438e-01
-6.25220312e-08,1.84501562e-01
-6.24820312e-08,1.84498438e-01
-6.24420312e-08,1.84501562e-01
-6.24020312e-08,1.84498438e-01
-6.23620312e-08,1.84503125e-01
-6.23220313e-08,1.84496875e-01
-6.22820312e-08,1.84503125e-01
-6.22420312e-08,1.84496875e-01
-6.22020312e-08,1.84503125e-01
-6.21620312e-08,1.84495313e-01
-6.21220312e-08,1.84504688e-01
-6.20820312e-08,1.84493750e-01
-6.20420313e-08,1.84506250e-01
-6.20020312e-08,1.84492188e-01
-6.19620312e-08,1.84510937e-01
-6.19220312e-08,1.84485938e-01
-6.18820312e-08,1.84518750e-01
-6.18420312e-08,1.84471875e-01
-6.18020312e-08,1.84553125e-01
-6.17620313e-08,1.84293750e-01
-6.17220312e-08,1.84043750e-01
-6.16820312e-08,1.84132813e-01
-6.16420312e-08,1.84076563e-01
-6.16020312e-08,1.84118750e-01
-6.15620312e-08,1.84084375e-01
-6.15220312e-08,1.84114063e-01
-6.14820313e-08,1.84087500e-01
-6.14420312e-08,1.84110938e-01
-6.14020312e-08,1.84089063e-01
-6.13620312e-08,1.84109375e-01
-6.13220312e-08,1.84090625e-01
-6.12820312e-08,1.84109375e-01
-6.12420312e-08,1.84092188e-01
-6.12020313e-08,1.84107812e-01
-6.11620312e-08,1.84092188e-01
-6.11220312e-08,1.84107812e-01
-6.10820312e-08,1.84092188e-01
-6.10420312e-08,1.84107812e-01
-6.10020313e-08,1.84092188e-01
-6.09620312e-08,1.84107812e-01
-6.09220313e-08,1.84092188e-01
-6.08820312e-08,1.84107812e-01
-6.08420312e-08,1.84092188e-01
-6.08020312e-08,1.84107812e-01
-6.07620312e-08,1.84092188e-01
-6.07220313e-08,1.84107812e-01
-6.06820312e-08,1.84092188e-01
-6.06420313e-08,1.84107812e-01
-6.06020312e-08,1.84092188e-01
-6.05620312e-08,1.84107812e-01
-6.05220312e-08,1.84092188e-01
-6.04820312e-08,1.84107812e-01
-6.04420313e-08,1.84092188e-01
-6.04020312e-08,1.84107812e-01
-6.03620313e-08,1.84090625e-01
-6.03220312e-08,1.84109375e-01
-6.02820312e-08,1.84090625e-01
-6.02420312e-08,1.84109375e-01
-6.02020312e-08,1.84089063e-01
-6.01620313e-08,1.84110938e-01
-6.01220312e-08,1.84089063e-01
-6.00820313e-08,1.84112500e-01
-6.00420312e-08,1.84085938e-01
-6.00020312e-08,1.84115625e-01
-5.99620312e-08,1.84082812e-01
-5.99220312e-08,1.84118750e-01
-5.98820313e-08,1.84078125e-01
-5.98420312e-08,1.84128125e-01
-5.98020313e-08,1.84062500e-01
-5.97620312e-08,1.84162500e-01
-5.97220312e-08,1.83884375e-01
-5.96820312e-08,1.83654687e-01
-5.96420312e-08,1.83720313e-01
-5.96020312e-08,1.83689062e-01
-5.95620312e-08,1.83704688e-01
-5.95220312e-08,1.83700000e-01
-5.94820312e-08,1.83696875e-01
-5.94420312e-08,1.83706250e-01
-5.94020312e-08,1.83689062e-01
-5.93620312e-08,1.83717188e-01
-5.93220312e-08,1.83671875e-01
-5.92820312e-08,1.83753125e-01
-5.92420312e-08,1.83493750e-01
-5.92020312e-08,1.83245313e-01
-5.91620312e-08,1.83329688e-01
-5.91220312e-08,1.83279688e-01
-5.90820312e-08,1.83314063e-01
-5.90420312e-08,1.83289063e-01
-5.90020312e-08,1.83307813e-01
-5.89620312e-08,1.83295313e-01
-5.89220312e-08,1.83301563e-01
-5.88820312e-08,1.83301563e-01
-5.88420312e-08,1.83295313e-01
-5.88020312e-08,1.83310937e-01
-5.87620312e-08,1.83279688e-01
-5.87220312e-08,1.83345312e-01
-5.86820312e-08,1.83101563e-01
-5.86420312e-08,1.82837500e-01
-5.86020312e-08,1.82939062e-01
-5.85620312e-08,1.82870313e-01
-5.85220312e-08,1.82925000e-01
-5.84820312e-08,1.82878125e-01
-5.84420312e-08,1.82920313e-01
-5.84020312e-08,1.82881250e-01
-5.83620312e-08,1.82918750e-01
-5.83220312e-08,1.82882813e-01
-5.82820312e-08,1.82917187e-01
-5.82420312e-08,1.82881250e-01
-5.82020312e-08,1.82918750e-01
-5.81620312e-08,1.82879687e-01
-5.81220312e-08,1.82923438e-01
-5.80820312e-08,1.82871875e-01
-5.80420312e-08,1.82937500e-01
-5.80020312e-08,1.82837500e-01
-5.79620312e-08,1.83114063e-01
-5.79220312e-08,1.83348438e-01
-5.78820312e-08,1.83275000e-01
-5.78420312e-08,1.83315625e-01
-5.78020312e-08,1.83289063e-01
-5.77620312e-08,1.83307813e-01
-5.77220312e-08,1.83293750e-01
-5.76820312e-08,1.83304688e-01
-5.76420312e-08,1.83296875e-01
-5.76020312e-08,1.83303125e-01
-5.75620312e-08,1.83298437e-01
-5.75220312e-08,1.83301563e-01
-5.74820312e-08,1.83298437e-01
-5.74420312e-08,1.83301563e-01
-5.74020312e-08,1.83300000e-01
-5.73620312e-08,1.83300000e-01
-5.73220312e-08,1.83300000e-01
-5.72820312e-08,1.83300000e-01
-5.72420312e-08,1.83300000e-01
-5.72020312e-08,1.83300000e-01
-5.71620312e-08,1.83300000e-01
-5.71220312e-08,1.83300000e-01
-5.70820312e-08,1.83300000e-01
-5.70420312e-08,1.83300000e-01
-5.70020312e-08,1.83300000e-01
-5.69620312e-08,1.83300000e-01
-5.69220312e-08,1.83300000e-01
-5.68820312e-08,1.83300000e-01
-5.68420312e-08,1.83300000e-01
-5.68020312e-08,1.83300000e-01
-5.67620312e-08,1.83300000e-01
-5.67220312e-08,1.83300000e-01
-5.66820312e-08,1.83298437e-01
-5.66420312e-08,1.83301563e-01
-5.66020312e-08,1.83298437e-01
-5.65620312e-08,1.83301563e-01
-5.65220312e-08,1.83296875e-01
-5.64820312e-08,1.83304688e-01
-5.64420312e-08,1.83293750e-01
-5.64020312e-08,1.83309375e-01
-5.63620312e-08,1.83285937e-01
-5.63220312e-08,1.83321875e-01
-5.62820312e-08,1.83253125e-01
-5.62420312e-08,1.83500000e-01
-5.62020312e-08,1.83764063e-01
-5.61620312e-08,1.83659375e-01
-5.61220312e-08,1.83732813e-01
-5.60820312e-08,1.83671875e-01
-5.60420312e-08,1.83728125e-01
-5.60020312e-08,1.83671875e-01
-5.59620312e-08,1.83729688e-01
-5.59220312e-08,1.83665625e-01
-5.58820312e-08,1.83743750e-01
-5.58420312e-08,1.83631250e-01
-5.58020312e-08,1.83921875e-01
-5.57620312e-08,1.84140625e-01
-5.57220312e-08,1.84084375e-01
-5.56820312e-08,1.84106250e-01
-5.56420312e-08,1.84100000e-01
-5.56020312e-08,1.84095312e-01
-5.55620312e-08,1.84109375e-01
-5.55220312e-08,1.84082812e-01
-5.54820312e-08,1.84126563e-01
-5.54420312e-08,1.84046875e-01
-5.54020312e-08,1.84306250e-01
-5.53620312e-08,1.84554688e-01
-5.53220312e-08,1.84468750e-01
-5.52820312e-08,1.84520313e-01
-5.52420312e-08,1.84484375e-01
-5.52020312e-08,1.84512500e-01
-5.51620312e-08,1.84490625e-01
-5.51220312e-08,1.84507813e-01
-5.50820312e-08,1.84493750e-01
-5.50420312e-08,1.84504688e-01
-5.50020312e-08,1.84495313e-01
-5.49620312e-08,1.84503125e-01
-5.49220312e-08,1.84498438e-01
-5.48820312e-08,1.84501562e-01
-5.48420312e-08,1.84500000e-01
-5.48020312e-08,1.84498438e-01
-5.47620312e-08,1.84501562e-01
-5.47220312e-08,1.84496875e-01
-5.46820312e-08,1.84504688e-01
-5.46420312e-08,1.84493750e-01
-5.46020312e-08,1.84509375e-01
-5.45620312e-08,1.84487500e-01
-5.45220312e-08,1.84518750e-01
-5.44820312e-08,1.84471875e-01
-5.44420312e-08,1.84554688e-01
-5.44020312e-08,1.84292188e-01
-5.43620312e-08,1.84046875e-01
-5.43220312e-08,1.84128125e-01
-5.42820312e-08,1.84082812e-01
-5.42420312e-08,1.84109375e-01
-5.42020312e-08,1.84098438e-01
-5.41620312e-08,1.84090625e-01
-5.41220312e-08,1.84135938e-01
-5.40820312e-08,1.83910938e-01
-5.40420312e-08,1.83626563e-01
-5.40020312e-08,1.83751563e-01
-5.39620312e-08,1.83656250e-01
-5.39220312e-08,1.83743750e-01
-5.38820312e-08,1.83651563e-01
-5.38420312e-08,1.83770313e-01
-5.38020312e-08,1.83478125e-01
-5.37620312e-08,1.83257813e-01
-5.37220312e-08,1.83320312e-01
-5.36820312e-08,1.83285937e-01
-5.36420312e-08,1.83310937e-01
-5.36020313e-08,1.83287500e-01
-5.35620312e-08,1.83315625e-01
-5.35220312e-08,1.83276563e-01
-5.34820312e-08,1.83348438e-01
-5.34420312e-08,1.83100000e-01
-5.34020312e-08,1.82837500e-01
-5.33620312e-08,1.82939062e-01
-5.33220312e-08,1.82870313e-01
-5.32820312e-08,1.82925000e-01
-5.32420312e-08,1.82878125e-01
-5.32020312e-08,1.82920313e-01
-5.31620312e-08,1.82879687e-01
-5.31220312e-08,1.82918750e-01
-5.30820312e-08,1.82881250e-01
-5.30420312e-08,1.82918750e-01
-5.30020312e-08,1.82881250e-01
-5.29620312e-08,1.82918750e-01
-5.29220312e-08,1.82881250e-01
-5.28820312e-08,1.82920313e-01
-5.28420312e-08,1.82879687e-01
-5.28020312e-08,1.82921875e-01
-5.27620312e-08,1.82876563e-01
-5.27220312e-08,1.82926563e-01
-5.26820312e-08,1.82867188e-01
-5.26420312e-08,1.82942188e-01
-5.26020312e-08,1.82832812e-01
-5.25620312e-08,1.83120312e-01
-5.25220312e-08,1.83342188e-01
-5.24820312e-08,1.83281250e-01
-5.24420312e-08,1.83309375e-01
-5.24020312e-08,1.83296875e-01
-5.23620312e-08,1.83300000e-01
-5.23220312e-08,1.83301563e-01
-5.22820312e-08,1.83296875e-01
-5.22420312e-08,1.83304688e-01
-5.22020312e-08,1.83293750e-01
-5.21620312e-08,1.83306250e-01
-5.21220312e-08,1.83292188e-01
-5.20820312e-08,1.83309375e-01
-5.20420312e-08,1.83290625e-01
-5.20020312e-08,1.83310937e-01
-5.19620312e-08,1.83287500e-01
-5.19220312e-08,1.83314063e-01
-5.18820312e-08,1.83284375e-01
-5.18420312e-08,1.83317188e-01
-5.18020312e-08,1.83279688e-01
-5.17620312e-08,1.83323438e-01
-5.17220312e-08,1.83270313e-01
-5.16820313e-08,1.83340625e-01
-5.16420312e-08,1.83234375e-01
-5.16020312e-08,1.83520313e-01
-5.15620312e-08,1.83740625e-01
-5.15220312e-08,1.83685938e-01
-5.14820312e-08,1.83701562e-01
-5.14420312e-08,1.83709375e-01
-5.14020313e-08,1.83678125e-01
-5.13620312e-08,1.83748438e-01
-5.13220312e-08,1.83496875e-01
-5.12820312e-08,1.83242188e-01
-5.12420312e-08,1.83332812e-01
-5.12020312e-08,1.83276563e-01
-5.11620312e-08,1.83317188e-01
-5.11220312e-08,1.83285937e-01
-5.10820312e-08,1.83310937e-01
-5.10420312e-08,1.83290625e-01
-5.10020312e-08,1.83307813e-01
-5.09620312e-08,1.83293750e-01
-5.09220312e-08,1.83304688e-01
-5.08820312e-08,1.83295313e-01
-5.08420312e-08,1.83303125e-01
-5.08020312e-08,1.83296875e-01
-5.07620312e-08,1.83301563e-01
-5.07220312e-08,1.83298437e-01
-5.06820312e-08,1.83300000e-01
-5.06420312e-08,1.83300000e-01
-5.06020312e-08,1.83300000e-01
-5.05620312e-08,1.83301563e-01
-5.05220312e-08,1.83298437e-01
-5.04820312e-08,1.83303125e-01
-5.04420312e-08,1.83296875e-01
-5.04020312e-08,1.83303125e-01
-5.03620312e-08,1.83295313e-01
-5.03220312e-08,1.83306250e-01
-5.02820312e-08,1.83293750e-01
-5.02420312e-08,1.83307813e-01
-5.02020312e-08,1.83290625e-01
-5.01620312e-08,1.83312500e-01
-5.01220312e-08,1.83284375e-01
-5.00820312e-08,1.83320312e-01
-5.00420312e-08,1.83270313e-01
-5.00020312e-08,1.83354688e-01
-4.99620312e-08,1.83090625e-01
-4.99220312e-08,1.82846875e-01
-4.98820312e-08,1.82929687e-01
-4.98420312e-08,1.82879687e-01
-4.98020312e-08,1.82914063e-01
-4.97620313e-08,1.82889063e-01
-4.97220312e-08,1.82909375e-01
-4.96820312e-08,1.82892187e-01
-4.96420312e-08,1.82906250e-01
-4.96020312e-08,1.82895313e-01
-4.95620312e-08,1.82904687e-01
-4.95220312e-08,1.82896875e-01
-4.94820313e-08,1.82903125e-01
-4.94420312e-08,1.82898438e-01
-4.94020312e-08,1.82901563e-01
-4.93620312e-08,1.82898438e-01
-4.93220312e-08,1.82900000e-01
-4.92820312e-08,1.82900000e-01
-4.92420312e-08,1.82900000e-01
-4.92020313e-08,1.82901563e-01
-4.91620312e-08,1.82898438e-01
-4.91220312e-08,1.82903125e-01
-4.90820312e-08,1.82896875e-01
-4.90420312e-08,1.82903125e-01
-4.90020312e-08,1.82895313e-01
-4.89620312e-08,1.82904687e-01
-4.89220312e-08,1.82893750e-01
-4.88820312e-08,1.82907813e-01
-4.88420312e-08,1.82890625e-01
-4.88020312e-08,1.82910938e-01
-4.87620312e-08,1.82887500e-01
-4.87220312e-08,1.82915625e-01
-4.86820312e-08,1.82878125e-01
-4.86420312e-08,1.82931250e-01
-4.86020312e-08,1.82843750e-01
-4.85620312e-08,1.83110938e-01
-4.85220312e-08,1.83351563e-01
-4.84820312e-08,1.83271875e-01
-4.84420312e-08,1.83317188e-01
-4.84020312e-08,1.83287500e-01
-4.83620312e-08,1.83307813e-01
-4.83220312e-08,1.83293750e-01
-4.82820312e-08,1.83303125e-01
-4.82420312e-08,1.83298437e-01
-4.82020312e-08,1.83298437e-01
-4.81620312e-08,1.83303125e-01
-4.81220312e-08,1.83293750e-01
-4.80820312e-08,1.83309375e-01
-4.80420312e-08,1.83284375e-01
-4.80020312e-08,1.83325000e-01
-4.79620312e-08,1.83248437e-01
-4.79220312e-08,1.83504688e-01
-4.78820312e-08,1.83757813e-01
-4.78420313e-08,1.83667187e-01
-4.78020312e-08,1.83723438e-01
-4.77620312e-08,1.83682813e-01
-4.77220312e-08,1.83714062e-01
-4.76820312e-08,1.83687500e-01
-4.76420312e-08,1.83709375e-01
-4.76020312e-08,1.83692187e-01
-4.75620313e-08,1.83706250e-01
-4.75220312e-08,1.83695313e-01
-4.74820312e-08,1.83704688e-01
-4.74420312e-08,1.83696875e-01
-4.74020312e-08,1.83700000e-01
-4.73620312e-08,1.83701562e-01
-4.73220312e-08,1.83696875e-01
-4.72820313e-08,1.83707813e-01
-4.72420312e-08,1.83687500e-01
-4.72020312e-08,1.83721875e-01
-4.71620312e-08,1.83653125e-01
-4.71220312e-08,1.83901563e-01
-4.70820312e-08,1.84160938e-01
-4.70420312e-08,1.84062500e-01
-4.70020312e-08,1.84126563e-01
-4.69620312e-08,1.84078125e-01
-4.69220312e-08,1.84118750e-01
-4.68820312e-08,1.84082812e-01
-4.68420312e-08,1.84115625e-01
-4.68020312e-08,1.84085938e-01
-4.67620312e-08,1.84112500e-01
-4.67220312e-08,1.84087500e-01
-4.66820312e-08,1.84110938e-01
-4.66420312e-08,1.84089063e-01
-4.66020312e-08,1.84109375e-01
-4.65620312e-08,1.84090625e-01
-4.65220312e-08,1.84107812e-01
-4.64820312e-08,1.84092188e-01
-4.64420312e-08,1.84107812e-01
-4.64020312e-08,1.84093750e-01
-4.63620312e-08,1.84106250e-01
-4.63220312e-08,1.84093750e-01
-4.62820312e-08,1.84104688e-01
-4.62420312e-08,1.84095312e-01
-4.62020312e-08,1.84103125e-01
-4.61620312e-08,1.84098438e-01
-4.61220312e-08,1.84100000e-01
-4.60820312e-08,1.84101563e-01
-4.60420312e-08,1.84095312e-01
-4.60020312e-08,1.84109375e-01
-4.59620312e-08,1.84081250e-01
-4.59220313e-08,1.84143750e-01
-4.58820312e-08,1.83903125e-01
-4.58420312e-08,1.83634375e-01
-4.58020312e-08,1.83742188e-01
-4.57620312e-08,1.83667187e-01
-4.57220312e-08,1.83729688e-01
-4.56820312e-08,1.83673438e-01
-4.56420313e-08,1.83725000e-01
-4.56020312e-08,1.83675000e-01
-4.55620312e-08,1.83726562e-01
-4.55220312e-08,1.83671875e-01
-4.54820312e-08,1.83732813e-01
-4.54420312e-08,1.83659375e-01
-4.54020312e-08,1.83764063e-01
-4.53620313e-08,1.83482813e-01
-4.53220312e-08,1.83253125e-01
-4.52820312e-08,1.83323438e-01
-4.52420312e-08,1.83284375e-01
-4.52020312e-08,1.83312500e-01
-4.51620312e-08,1.83287500e-01
-4.51220312e-08,1.83315625e-01
-4.50820313e-08,1.83276563e-01
-4.50420312e-08,1.83346875e-01
-4.50020312e-08,1.83101563e-01
-4.49620312e-08,1.82835938e-01
-4.49220312e-08,1.82942188e-01
-4.48820312e-08,1.82865625e-01
-4.48420312e-08,1.82929687e-01
-4.48020312e-08,1.82870313e-01
-4.47620312e-08,1.82929687e-01
-4.47220312e-08,1.82868750e-01
-4.46820312e-08,1.82935938e-01
-4.46420312e-08,1.82854688e-01
-4.46020312e-08,1.82968750e-01
-4.45620312e-08,1.82678125e-01
-4.45220312e-08,1.82459375e-01
-4.44820312e-08,1.82515625e-01
-4.44420312e-08,1.82493750e-01
-4.44020312e-08,1.82501563e-01
-4.43620312e-08,1.82501563e-01
-4.43220312e-08,1.82495313e-01
-4.42820312e-08,1.82506250e-01
-4.42420312e-08,1.82490625e-01
-4.42020312e-08,1.82510937e-01
-4.41620312e-08,1.82485938e-01
-4.41220312e-08,1.82517188e-01
-4.40820312e-08,1.82478125e-01
-4.40420312e-08,1.82532813e-01
-4.40020313e-08,1.82442188e-01
-4.39620312e-08,1.82710938e-01
-4.39220312e-08,1.82951562e-01
-4.38820312e-08,1.82871875e-01
-4.38420312e-08,1.82918750e-01
-4.38020312e-08,1.82885938e-01
-4.37620312e-08,1.82912500e-01
-4.37220313e-08,1.82887500e-01
-4.36820312e-08,1.82912500e-01
-4.36420312e-08,1.82884375e-01
-4.36020312e-08,1.82923438e-01
-4.35620312e-08,1.82853125e-01
-4.35220312e-08,1.83096875e-01
-4.34820312e-08,1.83367188e-01
-4.34420313e-08,1.83253125e-01
-4.34020312e-08,1.83340625e-01
-4.33620312e-08,1.83257813e-01
-4.33220312e-08,1.83350000e-01
-4.32820312e-08,1.83226562e-01
-4.32420312e-08,1.83526563e-01
-4.32020312e-08,1.83735938e-01
-4.31620313e-08,1.83689062e-01
-4.31220312e-08,1.83700000e-01
-4.30820312e-08,1.83707813e-01
-4.30420312e-08,1.83682813e-01
-4.30020312e-08,1.83728125e-01
-4.29620312e-08,1.83645313e-01
-4.29220312e-08,1.83909375e-01
-4.28820313e-08,1.84150000e-01
-4.28420312e-08,1.84075000e-01
-4.28020312e-08,1.84112500e-01
-4.27620312e-08,1.84095312e-01
-4.27220312e-08,1.84096875e-01
-4.26820312e-08,1.84114063e-01
-4.26420312e-08,1.84059375e-01
-4.26020312e-08,1.84295313e-01
-4.25620312e-08,1.84567188e-01
-4.25220312e-08,1.84456250e-01
-4.24820312e-08,1.84534375e-01
-4.24420312e-08,1.84468750e-01
-4.24020312e-08,1.84529688e-01
-4.23620312e-08,1.84467188e-01
-4.23220312e-08,1.84540625e-01
-4.22820312e-08,1.84437500e-01
-4.22420312e-08,1.84714062e-01
-4.22020312e-08,1.84950000e-01
-4.21620312e-08,1.84873438e-01
-4.21220312e-08,1.84918750e-01
-4.20820313e-08,1.84884375e-01
-4.20420312e-08,1.84914063e-01
-4.20020312e-08,1.84884375e-01
-4.19620312e-08,1.84917187e-01
-4.19220312e-08,1.84878125e-01
-4.18820312e-08,1.84931250e-01
-4.18420312e-08,1.84845312e-01
-4.18020313e-08,1.85107812e-01
-4.17620312e-08,1.85354688e-01
-4.17220312e-08,1.85268750e-01
-4.16820312e-08,1.85321875e-01
-4.16420312e-08,1.85282813e-01
-4.16020312e-08,1.85314063e-01
-4.15620312e-08,1.85289063e-01
-4.15220313e-08,1.85310937e-01
-4.14820312e-08,1.85290625e-01
-4.14420312e-08,1.85307813e-01
-4.14020312e-08,1.85292188e-01
-4.13620312e-08,1.85306250e-01
-4.13220312e-08,1.85293750e-01
-4.12820312e-08,1.85306250e-01
-4.12420313e-08,1.85293750e-01
-4.12020312e-08,1.85304688e-01
-4.11620312e-08,1.85295313e-01
-4.11220312e-08,1.85304688e-01
-4.10820312e-08,1.85295313e-01
-4.10420312e-08,1.85304688e-01
-4.10020312e-08,1.85296875e-01
-4.09620313e-08,1.85303125e-01
-4.09220312e-08,1.85296875e-01
-4.08820312e-08,1.85303125e-01
-4.08420312e-08,1.85298437e-01
-4.08020312e-08,1.85301563e-01
-4.07620312e-08,1.85300000e-01
-4.07220312e-08,1.85300000e-01
-4.06820313e-08,1.85301563e-01
-4.06420312e-08,1.85295313e-01
-4.06020312e-08,1.85309375e-01
-4.05620312e-08,1.85281250e-01
-4.05220312e-08,1.85342188e-01
-4.04820312e-08,1.85104688e-01
-4.04420312e-08,1.84831250e-01
-4.04020312e-08,1.84946875e-01
-4.03620312e-08,1.84860938e-01
-4.03220312e-08,1.84935938e-01
-4.02820312e-08,1.84864063e-01
-4.02420312e-08,1.84940625e-01
-4.02020312e-08,1.84851563e-01
-4.01620313e-08,1.84973438e-01
-4.01220312e-08,1.84673438e-01
-4.00820312e-08,1.84465625e-01
-4.00420312e-08,1.84509375e-01
-4.00020312e-08,1.84501562e-01
-3.99620312e-08,1.84490625e-01
-3.99220312e-08,1.84518750e-01
-3.98820313e-08,1.84468750e-01
-3.98420312e-08,1.84557813e-01
-3.98020312e-08,1.84287500e-01
-3.97620312e-08,1.84053125e-01
-3.97220312e-08,1.84120312e-01
-3.96820312e-08,1.84095312e-01
-3.96420312e-08,1.84090625e-01
-3.96020313e-08,1.84137500e-01
-3.95620312e-08,1.83907813e-01
-3.95220312e-08,1.83629687e-01
-3.94820312e-08,1.83746875e-01
-3.94420312e-08,1.83660938e-01
-3.94020312e-08,1.83737500e-01
-3.93620312e-08,1.83657813e-01
-3.93220313e-08,1.83762500e-01
-3.92820312e-08,1.83489062e-01
-3.92420312e-08,1.83243750e-01
-3.92020312e-08,1.83339063e-01
-3.91620312e-08,1.83259375e-01
-3.91220312e-08,1.83362500e-01
-3.90820312e-08,1.83085938e-01
-3.90420313e-08,1.82851563e-01
-3.90020312e-08,1.82923438e-01
-3.89620312e-08,1.82890625e-01
-3.89220312e-08,1.82896875e-01
-3.88820312e-08,1.82929687e-01
-3.88420312e-08,1.82717188e-01
-3.88020312e-08,1.82420313e-01
-3.87620313e-08,1.82557812e-01
-3.87220312e-08,1.82450000e-01
-3.86820312e-08,1.82550000e-01
-3.86420312e-08,1.82442188e-01
-3.86020312e-08,1.82581250e-01
-3.85620312e-08,1.82267188e-01
-3.85220312e-08,1.82070312e-01
