trails/0bdfa5e45fec98341abdd20552c140b4/aes_ch1_20250507122034466.csv

Model,MSO66B
Label,
Waveform Type,ANALOG
Horizontal Units,s
Sample Interval,4.00000000e-11
Record Length,10000
Zero Index,1599.10937500
Vertical Units,A
ANALOG_Thumbnail,
yOffset,1.84500000e-01
yPosition,8.40000000e-01

Labels,
TIME,CH1
-6.39643750e-08,1.94081250e-01
-6.39243750e-08,1.94123437e-01
-6.38843750e-08,1.94067188e-01
-6.38443750e-08,1.94157812e-01
-6.38043750e-08,1.93889063e-01
-6.37643750e-08,1.93648437e-01
-6.37243750e-08,1.93726563e-01
-6.36843750e-08,1.93682812e-01
-6.36443750e-08,1.93712500e-01
-6.36043750e-08,1.93690625e-01
-6.35643750e-08,1.93707813e-01
-6.35243750e-08,1.93693750e-01
-6.34843750e-08,1.93704688e-01
-6.34443750e-08,1.93695312e-01
-6.34043750e-08,1.93703125e-01
-6.33643750e-08,1.93696875e-01
-6.33243750e-08,1.93703125e-01
-6.32843750e-08,1.93696875e-01
-6.32443750e-08,1.93701563e-01
-6.32043750e-08,1.93698438e-01
-6.31643750e-08,1.93701563e-01
-6.31243750e-08,1.93698438e-01
-6.30843750e-08,1.93701563e-01
-6.30443750e-08,1.93698438e-01
-6.30043750e-08,1.93701563e-01
-6.29643750e-08,1.93700000e-01
-6.29243750e-08,1.93700000e-01
-6.28843750e-08,1.93700000e-01
-6.28443750e-08,1.93700000e-01
-6.28043750e-08,1.93700000e-01
-6.27643750e-08,1.93700000e-01
-6.27243750e-08,1.93700000e-01
-6.26843750e-08,1.93700000e-01
-6.26443750e-08,1.93700000e-01
-6.26043750e-08,1.93700000e-01
-6.25643750e-08,1.93700000e-01
-6.25243750e-08,1.93700000e-01
-6.24843750e-08,1.93700000e-01
-6.24443750e-08,1.93700000e-01
-6.24043750e-08,1.93700000e-01
-6.23643750e-08,1.93700000e-01
-6.23243750e-08,1.93700000e-01
-6.22843750e-08,1.93700000e-01
-6.22443750e-08,1.93700000e-01
-6.22043750e-08,1.93700000e-01
-6.21643750e-08,1.93698438e-01
-6.21243750e-08,1.93701563e-01
-6.20843750e-08,1.93698438e-01
-6.20443750e-08,1.93701563e-01
-6.20043750e-08,1.93696875e-01
-6.19643750e-08,1.93703125e-01
-6.19243750e-08,1.93695312e-01
-6.18843750e-08,1.93706250e-01
-6.18443750e-08,1.93690625e-01
-6.18043750e-08,1.93714063e-01
-6.17643750e-08,1.93676563e-01
-6.17243750e-08,1.93746875e-01
-6.16843750e-08,1.93500000e-01
-6.16443750e-08,1.93237500e-01
-6.16043750e-08,1.93339062e-01
-6.15643750e-08,1.93268750e-01
-6.15243750e-08,1.93326563e-01
-6.14843750e-08,1.93275000e-01
-6.14443750e-08,1.93323438e-01
-6.14043750e-08,1.93275000e-01
-6.13643750e-08,1.93325000e-01
-6.13243750e-08,1.93271875e-01
-6.12843750e-08,1.93332813e-01
-6.12443750e-08,1.93257813e-01
-6.12043750e-08,1.93367188e-01
-6.11643750e-08,1.93079688e-01
-6.11243750e-08,1.92859375e-01
-6.10843750e-08,1.92915625e-01
-6.10443750e-08,1.92893750e-01
-6.10043750e-08,1.92900000e-01
-6.09643750e-08,1.92906250e-01
-6.09243750e-08,1.92889063e-01
-6.08843750e-08,1.92917188e-01
-6.08443750e-08,1.92871875e-01
-6.08043750e-08,1.92954687e-01
-6.07643750e-08,1.92690625e-01
-6.07243750e-08,1.92448438e-01
-6.06843750e-08,1.92526562e-01
-6.06443750e-08,1.92484375e-01
-6.06043750e-08,1.92507813e-01
-6.05643750e-08,1.92500000e-01
-6.05243750e-08,1.92487500e-01
-6.04843750e-08,1.92537500e-01
-6.04443750e-08,1.92307813e-01
-6.04043750e-08,1.92029688e-01
-6.03643750e-08,1.92146875e-01
-6.03243750e-08,1.92060938e-01
-6.02843750e-08,1.92135938e-01
-6.02443750e-08,1.92064063e-01
-6.02043750e-08,1.92137500e-01
-6.01643750e-08,1.92053125e-01
-6.01243750e-08,1.92170312e-01
-6.00843750e-08,1.91878125e-01
-6.00443750e-08,1.91659375e-01
-6.00043750e-08,1.91717187e-01
-5.99643750e-08,1.91692187e-01
-5.99243750e-08,1.91703125e-01
-5.98843750e-08,1.91700000e-01
-5.98443750e-08,1.91696875e-01
-5.98043750e-08,1.91704687e-01
-5.97643750e-08,1.91693750e-01
-5.97243750e-08,1.91709375e-01
-5.96843750e-08,1.91687500e-01
-5.96443750e-08,1.91718750e-01
-5.96043750e-08,1.91671875e-01
-5.95643750e-08,1.91753125e-01
-5.95243750e-08,1.91493750e-01
-5.94843750e-08,1.91243750e-01
-5.94443750e-08,1.91331250e-01
-5.94043750e-08,1.91278125e-01
-5.93643750e-08,1.91317188e-01
-5.93243750e-08,1.91285938e-01
-5.92843750e-08,1.91312500e-01
-5.92443750e-08,1.91289062e-01
-5.92043750e-08,1.91309375e-01
-5.91643750e-08,1.91290625e-01
-5.91243750e-08,1.91307813e-01
-5.90843750e-08,1.91292188e-01
-5.90443750e-08,1.91307813e-01
-5.90043750e-08,1.91293750e-01
-5.89643750e-08,1.91306250e-01
-5.89243750e-08,1.91293750e-01
-5.88843750e-08,1.91306250e-01
-5.88443750e-08,1.91293750e-01
-5.88043750e-08,1.91306250e-01
-5.87643750e-08,1.91293750e-01
-5.87243750e-08,1.91306250e-01
-5.86843750e-08,1.91293750e-01
-5.86443750e-08,1.91304688e-01
-5.86043750e-08,1.91295313e-01
-5.85643750e-08,1.91304688e-01
-5.85243750e-08,1.91295313e-01
-5.84843750e-08,1.91304688e-01
-5.84443750e-08,1.91295313e-01
-5.84043750e-08,1.91304688e-01
-5.83643750e-08,1.91295313e-01
-5.83243750e-08,1.91304688e-01
-5.82843750e-08,1.91295313e-01
-5.82443750e-08,1.91304688e-01
-5.82043750e-08,1.91295313e-01
-5.81643750e-08,1.91304688e-01
-5.81243750e-08,1.91295313e-01
-5.80843750e-08,1.91304688e-01
-5.80443750e-08,1.91295313e-01
-5.80043750e-08,1.91304688e-01
-5.79643750e-08,1.91295313e-01
-5.79243750e-08,1.91304688e-01
-5.78843750e-08,1.91295313e-01
-5.78443750e-08,1.91304688e-01
-5.78043750e-08,1.91295313e-01
-5.77643750e-08,1.91304688e-01
-5.77243750e-08,1.91295313e-01
-5.76843750e-08,1.91306250e-01
-5.76443750e-08,1.91293750e-01
-5.76043750e-08,1.91306250e-01
-5.75643750e-08,1.91293750e-01
-5.75243750e-08,1.91306250e-01
-5.74843750e-08,1.91293750e-01
-5.74443750e-08,1.91306250e-01
-5.74043750e-08,1.91293750e-01
-5.73643750e-08,1.91306250e-01
-5.73243750e-08,1.91293750e-01
-5.72843750e-08,1.91306250e-01
-5.72443750e-08,1.91293750e-01
-5.72043750e-08,1.91306250e-01
-5.71643750e-08,1.91293750e-01
-5.71243750e-08,1.91306250e-01
-5.70843750e-08,1.91293750e-01
-5.70443750e-08,1.91306250e-01
-5.70043750e-08,1.91293750e-01
-5.69643750e-08,1.91307813e-01
-5.69243750e-08,1.91292188e-01
-5.68843750e-08,1.91307813e-01
-5.68443750e-08,1.91292188e-01
-5.68043750e-08,1.91307813e-01
-5.67643750e-08,1.91292188e-01
-5.67243750e-08,1.91307813e-01
-5.66843750e-08,1.91292188e-01
-5.66443750e-08,1.91307813e-01
-5.66043750e-08,1.91290625e-01
-5.65643750e-08,1.91309375e-01
-5.65243750e-08,1.91290625e-01
-5.64843750e-08,1.91309375e-01
-5.64443750e-08,1.91290625e-01
-5.64043750e-08,1.91309375e-01
-5.63643750e-08,1.91289062e-01
-5.63243750e-08,1.91310938e-01
-5.62843750e-08,1.91289062e-01
-5.62443750e-08,1.91312500e-01
-5.62043750e-08,1.91287500e-01
-5.61643750e-08,1.91314062e-01
-5.61243750e-08,1.91285938e-01
-5.60843750e-08,1.91315625e-01
-5.60443750e-08,1.91282813e-01
-5.60043750e-08,1.91318750e-01
-5.59643750e-08,1.91279688e-01
-5.59243750e-08,1.91323437e-01
-5.58843750e-08,1.91270313e-01
-5.58443750e-08,1.91339063e-01
-5.58043750e-08,1.91235938e-01
-5.57643750e-08,1.91518750e-01
-5.57243750e-08,1.91743750e-01
-5.56843750e-08,1.91681250e-01
-5.56443750e-08,1.91709375e-01
-5.56043750e-08,1.91696875e-01
-5.55643750e-08,1.91700000e-01
-5.55243750e-08,1.91703125e-01
-5.54843750e-08,1.91693750e-01
-5.54443750e-08,1.91709375e-01
-5.54043750e-08,1.91687500e-01
-5.53643750e-08,1.91715625e-01
-5.53243750e-08,1.91678125e-01
-5.52843750e-08,1.91732813e-01
-5.52443750e-08,1.91642188e-01
-5.52043750e-08,1.91910938e-01
-5.51643750e-08,1.92150000e-01
-5.51243750e-08,1.92075000e-01
-5.50843750e-08,1.92115625e-01
-5.50443750e-08,1.92090625e-01
-5.50043750e-08,1.92106250e-01
-5.49643750e-08,1.92096875e-01
-5.49243750e-08,1.92101563e-01
-5.48843750e-08,1.92101563e-01
-5.48443750e-08,1.92096875e-01
-5.48043750e-08,1.92106250e-01
-5.47643750e-08,1.92090625e-01
-5.47243750e-08,1.92112500e-01
-5.46843750e-08,1.92081250e-01
-5.46443750e-08,1.92128125e-01
-5.46043750e-08,1.92046875e-01
-5.45643750e-08,1.92307813e-01
-5.45243750e-08,1.92554688e-01
-5.44843750e-08,1.92470313e-01
-5.44443750e-08,1.92520313e-01
-5.44043750e-08,1.92484375e-01
-5.43643750e-08,1.92510938e-01
-5.43243750e-08,1.92490625e-01
-5.42843750e-08,1.92507813e-01
-5.42443750e-08,1.92493750e-01
-5.42043750e-08,1.92504687e-01
-5.41643750e-08,1.92496875e-01
-5.41243750e-08,1.92503125e-01
-5.40843750e-08,1.92498438e-01
-5.40443750e-08,1.92500000e-01
-5.40043750e-08,1.92500000e-01
-5.39643750e-08,1.92498438e-01
-5.39243750e-08,1.92503125e-01
-5.38843750e-08,1.92495313e-01
-5.38443750e-08,1.92504687e-01
-5.38043750e-08,1.92492188e-01
-5.37643750e-08,1.92509375e-01
-5.37243750e-08,1.92487500e-01
-5.36843750e-08,1.92518750e-01
-5.36443750e-08,1.92471875e-01
-5.36043750e-08,1.92553125e-01
-5.35643750e-08,1.92293750e-01
-5.35243750e-08,1.92043750e-01
-5.34843750e-08,1.92131250e-01
-5.34443750e-08,1.92078125e-01
-5.34043750e-08,1.92117188e-01
-5.33643750e-08,1.92085937e-01
-5.33243750e-08,1.92110937e-01
-5.32843750e-08,1.92090625e-01
-5.32443750e-08,1.92107813e-01
-5.32043750e-08,1.92092188e-01
-5.31643750e-08,1.92106250e-01
-5.31243750e-08,1.92093750e-01
-5.30843750e-08,1.92104688e-01
-5.30443750e-08,1.92095313e-01
-5.30043750e-08,1.92103125e-01
-5.29643750e-08,1.92096875e-01
-5.29243750e-08,1.92103125e-01
-5.28843750e-08,1.92096875e-01
-5.28443750e-08,1.92101563e-01
-5.28043750e-08,1.92098437e-01
-5.27643750e-08,1.92101563e-01
-5.27243750e-08,1.92100000e-01
-5.26843750e-08,1.92100000e-01
-5.26443750e-08,1.92100000e-01
-5.26043750e-08,1.92098437e-01
-5.25643750e-08,1.92101563e-01
-5.25243750e-08,1.92096875e-01
-5.24843750e-08,1.92103125e-01
-5.24443750e-08,1.92095313e-01
-5.24043750e-08,1.92107813e-01
-5.23643750e-08,1.92090625e-01
-5.23243750e-08,1.92115625e-01
-5.22843750e-08,1.92075000e-01
-5.22443750e-08,1.92148438e-01
-5.22043750e-08,1.91898438e-01
-5.21643750e-08,1.91639063e-01
-5.21243750e-08,1.91737500e-01
-5.20843750e-08,1.91670312e-01
-5.20443750e-08,1.91725000e-01
-5.20043750e-08,1.91676563e-01
-5.19643750e-08,1.91723438e-01
-5.19243750e-08,1.91673438e-01
-5.18843750e-08,1.91729687e-01
-5.18443750e-08,1.91660938e-01
-5.18043750e-08,1.91764062e-01
-5.17643750e-08,1.91482813e-01
-5.17243750e-08,1.91254688e-01
-5.16843750e-08,1.91320313e-01
-5.16443750e-08,1.91289062e-01
-5.16043750e-08,1.91303125e-01
-5.15643750e-08,1.91304688e-01
-5.15243750e-08,1.91284375e-01
-5.14843750e-08,1.91340625e-01
-5.14443750e-08,1.91106250e-01
-5.14043750e-08,1.90831250e-01
-5.13643750e-08,1.90945313e-01
-5.13243750e-08,1.90862500e-01
-5.12843750e-08,1.90934375e-01
-5.12443750e-08,1.90865625e-01
-5.12043750e-08,1.90937500e-01
-5.11643750e-08,1.90854688e-01
-5.11243750e-08,1.90970313e-01
-5.10843750e-08,1.90678125e-01
-5.10443750e-08,1.90459375e-01
-5.10043750e-08,1.90517188e-01
-5.09643750e-08,1.90492188e-01
-5.09243750e-08,1.90503125e-01
-5.08843750e-08,1.90500000e-01
-5.08443750e-08,1.90496875e-01
-5.08043750e-08,1.90504688e-01
-5.07643750e-08,1.90493750e-01
-5.07243750e-08,1.90507813e-01
-5.06843750e-08,1.90490625e-01
-5.06443750e-08,1.90510938e-01
-5.06043750e-08,1.90487500e-01
-5.05643750e-08,1.90515625e-01
-5.05243750e-08,1.90481250e-01
-5.04843750e-08,1.90523438e-01
-5.04443750e-08,1.90465625e-01
-5.04043750e-08,1.90559375e-01
-5.03643750e-08,1.90287500e-01
-5.03243750e-08,1.90050000e-01
-5.02843750e-08,1.90125000e-01
-5.02443750e-08,1.90084375e-01
-5.02043750e-08,1.90110938e-01
-5.01643750e-08,1.90092188e-01
-5.01243750e-08,1.90104688e-01
-5.00843750e-08,1.90096875e-01
-5.00443750e-08,1.90101563e-01
-5.00043750e-08,1.90100000e-01
-4.99643750e-08,1.90098437e-01
-4.99243750e-08,1.90101563e-01
-4.98843750e-08,1.90096875e-01
-4.98443750e-08,1.90104688e-01
-4.98043750e-08,1.90095313e-01
-4.97643750e-08,1.90106250e-01
-4.97243750e-08,1.90092188e-01
-4.96843750e-08,1.90109375e-01
-4.96443750e-08,1.90089063e-01
-4.96043750e-08,1.90112500e-01
-4.95643750e-08,1.90084375e-01
-4.95243750e-08,1.90118750e-01
-4.94843750e-08,1.90076563e-01
-4.94443750e-08,1.90134375e-01
-4.94043750e-08,1.90040625e-01
-4.93643750e-08,1.90312500e-01
-4.93243750e-08,1.90548438e-01
-4.92843750e-08,1.90476563e-01
-4.92443750e-08,1.90514062e-01
-4.92043750e-08,1.90492188e-01
-4.91643750e-08,1.90503125e-01
-4.91243750e-08,1.90500000e-01
-4.90843750e-08,1.90496875e-01
-4.90443750e-08,1.90504688e-01
-4.90043750e-08,1.90490625e-01
-4.89643750e-08,1.90512500e-01
-4.89243750e-08,1.90481250e-01
-4.88843750e-08,1.90529688e-01
-4.88443750e-08,1.90443750e-01
-4.88043750e-08,1.90710938e-01
-4.87643750e-08,1.90950000e-01
-4.87243750e-08,1.90875000e-01
-4.86843750e-08,1.90914063e-01
-4.86443750e-08,1.90895312e-01
-4.86043750e-08,1.90896875e-01
-4.85643750e-08,1.90914063e-01
-4.85243750e-08,1.90859375e-01
-4.84843750e-08,1.91093750e-01
-4.84443750e-08,1.91368750e-01
-4.84043750e-08,1.91254688e-01
-4.83643750e-08,1.91337500e-01
-4.83243750e-08,1.91264062e-01
-4.82843750e-08,1.91340625e-01
-4.82443750e-08,1.91237500e-01
-4.82043750e-08,1.91512500e-01
-4.81643750e-08,1.91753125e-01
-4.81243750e-08,1.91667188e-01
-4.80843750e-08,1.91728125e-01
-4.80443750e-08,1.91670312e-01
-4.80043750e-08,1.91737500e-01
-4.79643750e-08,1.91637500e-01
-4.79243750e-08,1.91915625e-01
-4.78843750e-08,1.92146875e-01
-4.78443750e-08,1.92078125e-01
-4.78043750e-08,1.92110937e-01
-4.77643750e-08,1.92096875e-01
-4.77243750e-08,1.92095313e-01
-4.76843750e-08,1.92117188e-01
-4.76443750e-08,1.92056250e-01
-4.76043750e-08,1.92296875e-01
-4.75643750e-08,1.92564063e-01
-4.75243750e-08,1.92460938e-01
-4.74843750e-08,1.92529688e-01
-4.74443750e-08,1.92476563e-01
-4.74043750e-08,1.92520313e-01
-4.73643750e-08,1.92481250e-01
-4.73243750e-08,1.92517188e-01
-4.72843750e-08,1.92484375e-01
-4.72443750e-08,1.92514062e-01
-4.72043750e-08,1.92485938e-01
-4.71643750e-08,1.92512500e-01
-4.71243750e-08,1.92487500e-01
-4.70843750e-08,1.92512500e-01
-4.70443750e-08,1.92487500e-01
-4.70043750e-08,1.92514062e-01
-4.69643750e-08,1.92482813e-01
-4.69243750e-08,1.92521875e-01
-4.68843750e-08,1.92457812e-01
-4.68443750e-08,1.92684375e-01
-4.68043750e-08,1.93003125e-01
-4.67643750e-08,1.92668750e-01
-4.67243750e-08,1.92460938e-01
-4.66843750e-08,1.92520313e-01
-4.66443750e-08,1.92485938e-01
-4.66043750e-08,1.92510938e-01
-4.65643750e-08,1.92492188e-01
-4.65243750e-08,1.92507813e-01
-4.64843750e-08,1.92493750e-01
-4.64443750e-08,1.92506250e-01
-4.64043750e-08,1.92495313e-01
-4.63643750e-08,1.92504687e-01
-4.63243750e-08,1.92495313e-01
-4.62843750e-08,1.92503125e-01
-4.62443750e-08,1.92496875e-01
-4.62043750e-08,1.92503125e-01
-4.61643750e-08,1.92498438e-01
-4.61243750e-08,1.92501563e-01
-4.60843750e-08,1.92498438e-01
-4.60443750e-08,1.92501563e-01
-4.60043750e-08,1.92500000e-01
-4.59643750e-08,1.92500000e-01
-4.59243750e-08,1.92500000e-01
-4.58843750e-08,1.92498438e-01
-4.58443750e-08,1.92501563e-01
-4.58043750e-08,1.92496875e-01
-4.57643750e-08,1.92504687e-01
-4.57243750e-08,1.92493750e-01
-4.56843750e-08,1.92507813e-01
-4.56443750e-08,1.92489063e-01
-4.56043750e-08,1.92517188e-01
-4.55643750e-08,1.92473438e-01
-4.55243750e-08,1.92551562e-01
-4.54843750e-08,1.92295313e-01
-4.54443750e-08,1.92042188e-01
-4.54043750e-08,1.92132812e-01
-4.53643750e-08,1.92076562e-01
-4.53243750e-08,1.92118750e-01
-4.52843750e-08,1.92084375e-01
-4.52443750e-08,1.92112500e-01
-4.52043750e-08,1.92089063e-01
-4.51643750e-08,1.92109375e-01
-4.51243750e-08,1.92092188e-01
-4.50843750e-08,1.92107813e-01
-4.50443750e-08,1.92093750e-01
-4.50043750e-08,1.92104688e-01
-4.49643750e-08,1.92095313e-01
-4.49243750e-08,1.92103125e-01
-4.48843750e-08,1.92098437e-01
-4.48443750e-08,1.92100000e-01
-4.48043750e-08,1.92101563e-01
-4.47643750e-08,1.92093750e-01
-4.47243750e-08,1.92110937e-01
-4.46843750e-08,1.92079688e-01
-4.46443750e-08,1.92145312e-01
-4.46043750e-08,1.91901563e-01
-4.45643750e-08,1.91635938e-01
-4.45243750e-08,1.91740625e-01
-4.44843750e-08,1.91668750e-01
-4.44443750e-08,1.91726563e-01
-4.44043750e-08,1.91676563e-01
-4.43643750e-08,1.91721875e-01
-4.43243750e-08,1.91679688e-01
-4.42843750e-08,1.91720313e-01
-4.42443750e-08,1.91679688e-01
-4.42043750e-08,1.91720313e-01
-4.41643750e-08,1.91679688e-01
-4.41243750e-08,1.91721875e-01
-4.40843750e-08,1.91676563e-01
-4.40443750e-08,1.91726563e-01
-4.40043750e-08,1.91668750e-01
-4.39643750e-08,1.91740625e-01
-4.39243750e-08,1.91634375e-01
-4.38843750e-08,1.91917188e-01
-4.38443750e-08,1.92143750e-01
-4.38043750e-08,1.92079688e-01
-4.37643750e-08,1.92110937e-01
-4.37243750e-08,1.92095313e-01
-4.36843750e-08,1.92101563e-01
-4.36443750e-08,1.92101563e-01
-4.36043750e-08,1.92095313e-01
-4.35643750e-08,1.92107813e-01
-4.35243750e-08,1.92085937e-01
-4.34843750e-08,1.92123437e-01
-4.34443750e-08,1.92053125e-01
-4.34043750e-08,1.92300000e-01
-4.33643750e-08,1.92562500e-01
-4.33243750e-08,1.92459375e-01
-4.32843750e-08,1.92531250e-01
-4.32443750e-08,1.92470313e-01
-4.32043750e-08,1.92529688e-01
-4.31643750e-08,1.92467187e-01
-4.31243750e-08,1.92540625e-01
-4.30843750e-08,1.92434375e-01
-4.30443750e-08,1.92717187e-01
-4.30043750e-08,1.92945313e-01
-4.29643750e-08,1.92879688e-01
-4.29243750e-08,1.92910938e-01
-4.28843750e-08,1.92895312e-01
-4.28443750e-08,1.92900000e-01
-4.28043750e-08,1.92904688e-01
-4.27643750e-08,1.92889063e-01
-4.27243750e-08,1.92920312e-01
-4.26843750e-08,1.92853125e-01
-4.26443750e-08,1.93100000e-01
-4.26043750e-08,1.93362500e-01
-4.25643750e-08,1.93260938e-01
-4.25243750e-08,1.93329688e-01
-4.24843750e-08,1.93276562e-01
-4.24443750e-08,1.93321875e-01
-4.24043750e-08,1.93281250e-01
-4.23643750e-08,1.93318750e-01
-4.23243750e-08,1.93282813e-01
-4.22843750e-08,1.93317188e-01
-4.22443750e-08,1.93281250e-01
-4.22043750e-08,1.93318750e-01
-4.21643750e-08,1.93279688e-01
-4.21243750e-08,1.93323438e-01
-4.20843750e-08,1.93271875e-01
-4.20443750e-08,1.93337500e-01
-4.20043750e-08,1.93239063e-01
-4.19643750e-08,1.93514063e-01
-4.19243750e-08,1.93748438e-01
-4.18843750e-08,1.93675000e-01
-4.18443750e-08,1.93715625e-01
-4.18043750e-08,1.93689063e-01
-4.17643750e-08,1.93707813e-01
-4.17243750e-08,1.93693750e-01
-4.16843750e-08,1.93704688e-01
-4.16443750e-08,1.93696875e-01
-4.16043750e-08,1.93703125e-01
-4.15643750e-08,1.93696875e-01
-4.15243750e-08,1.93701563e-01
-4.14843750e-08,1.93698438e-01
-4.14443750e-08,1.93701563e-01
-4.14043750e-08,1.93698438e-01
-4.13643750e-08,1.93701563e-01
-4.13243750e-08,1.93698438e-01
-4.12843750e-08,1.93701563e-01
-4.12443750e-08,1.93698438e-01
-4.12043750e-08,1.93701563e-01
-4.11643750e-08,1.93698438e-01
-4.11243750e-08,1.93701563e-01
-4.10843750e-08,1.93698438e-01
-4.10443750e-08,1.93701563e-01
-4.10043750e-08,1.93698438e-01
-4.09643750e-08,1.93701563e-01
-4.09243750e-08,1.93698438e-01
-4.08843750e-08,1.93701563e-01
-4.08443750e-08,1.93698438e-01
-4.08043750e-08,1.93703125e-01
-4.07643750e-08,1.93696875e-01
-4.07243750e-08,1.93703125e-01
-4.06843750e-08,1.93696875e-01
-4.06443750e-08,1.93704688e-01
-4.06043750e-08,1.93695312e-01
-4.05643750e-08,1.93706250e-01
-4.05243750e-08,1.93693750e-01
-4.04843750e-08,1.93707813e-01
-4.04443750e-08,1.93690625e-01
-4.04043750e-08,1.93712500e-01
-4.03643750e-08,1.93681250e-01
-4.03243750e-08,1.93728125e-01
-4.02843750e-08,1.93646875e-01
-4.02443750e-08,1.93906250e-01
-4.02043750e-08,1.94156250e-01
-4.01643750e-08,1.94067188e-01
-4.01243750e-08,1.94123437e-01
-4.00843750e-08,1.94081250e-01
-4.00443750e-08,1.94115625e-01
-4.00043750e-08,1.94085937e-01
-3.99643750e-08,1.94112500e-01
-3.99243750e-08,1.94089063e-01
-3.98843750e-08,1.94110937e-01
-3.98443750e-08,1.94089063e-01
-3.98043750e-08,1.94109375e-01
-3.97643750e-08,1.94090625e-01
-3.97243750e-08,1.94109375e-01
-3.96843750e-08,1.94090625e-01
-3.96443750e-08,1.94109375e-01
-3.96043750e-08,1.94089063e-01
-3.95643750e-08,1.94110937e-01
-3.95243750e-08,1.94087500e-01
-3.94843750e-08,1.94114063e-01
-3.94443750e-08,1.94084375e-01
-3.94043750e-08,1.94120313e-01
-3.93643750e-08,1.94070313e-01
-3.93243750e-08,1.94154688e-01
-3.92843750e-08,1.93893750e-01
-3.92443750e-08,1.93643750e-01
-3.92043750e-08,1.93732813e-01
-3.91643750e-08,1.93675000e-01
-3.91243750e-08,1.93721875e-01
-3.90843750e-08,1.93679688e-01
-3.90443750e-08,1.93720313e-01
-3.90043750e-08,1.93678125e-01
-3.89643750e-08,1.93726563e-01
-3.89243750e-08,1.93664063e-01
-3.88843750e-08,1.93760938e-01
-3.88443750e-08,1.93485938e-01
-3.88043750e-08,1.93251563e-01
-3.87643750e-08,1.93323438e-01
-3.87243750e-08,1.93287500e-01
-3.86843750e-08,1.93304688e-01
-3.86443750e-08,1.93303125e-01
-3.86043750e-08,1.93285938e-01
-3.85643750e-08,1.93339062e-01
-3.85243750e-08,1.93107813e-01
