trails/0bdfa5e45fec98341abdd20552c140b4/aes_ch1_20250507120222945.csv

Model,MSO66B
Label,
Waveform Type,ANALOG
Horizontal Units,s
Sample Interval,4.00000000e-11
Record Length,10000
Zero Index,1599.10156250
Vertical Units,A
ANALOG_Thumbnail,
yOffset,1.84500000e-01
yPosition,8.40000000e-01

Labels,
TIME,CH1
-6.39640625e-08,1.93296875e-01
-6.39240625e-08,1.93303125e-01
-6.38840625e-08,1.93296875e-01
-6.38440625e-08,1.93303125e-01
-6.38040625e-08,1.93295313e-01
-6.37640625e-08,1.93304688e-01
-6.37240625e-08,1.93295313e-01
-6.36840625e-08,1.93306250e-01
-6.36440625e-08,1.93293750e-01
-6.36040625e-08,1.93307813e-01
-6.35640625e-08,1.93290625e-01
-6.35240625e-08,1.93310938e-01
-6.34840625e-08,1.93285938e-01
-6.34440625e-08,1.93318750e-01
-6.34040625e-08,1.93271875e-01
-6.33640625e-08,1.93353125e-01
-6.33240625e-08,1.93093750e-01
-6.32840625e-08,1.92843750e-01
-6.32440625e-08,1.92932812e-01
-6.32040625e-08,1.92876563e-01
-6.31640625e-08,1.92920312e-01
-6.31240625e-08,1.92882813e-01
-6.30840625e-08,1.92915625e-01
-6.30440625e-08,1.92885937e-01
-6.30040625e-08,1.92914063e-01
-6.29640625e-08,1.92885937e-01
-6.29240625e-08,1.92914063e-01
-6.28840625e-08,1.92884375e-01
-6.28440625e-08,1.92917188e-01
-6.28040625e-08,1.92879688e-01
-6.27640625e-08,1.92925000e-01
-6.27240625e-08,1.92865625e-01
-6.26840625e-08,1.92959375e-01
-6.26440625e-08,1.92689063e-01
-6.26040625e-08,1.92448438e-01
-6.25640625e-08,1.92526562e-01
-6.25240625e-08,1.92482813e-01
-6.24840625e-08,1.92512500e-01
-6.24440625e-08,1.92490625e-01
-6.24040625e-08,1.92507813e-01
-6.23640625e-08,1.92493750e-01
-6.23240625e-08,1.92504687e-01
-6.22840625e-08,1.92495313e-01
-6.22440625e-08,1.92503125e-01
-6.22040625e-08,1.92496875e-01
-6.21640625e-08,1.92501563e-01
-6.21240625e-08,1.92498438e-01
-6.20840625e-08,1.92500000e-01
-6.20440625e-08,1.92500000e-01
-6.20040625e-08,1.92498438e-01
-6.19640625e-08,1.92503125e-01
-6.19240625e-08,1.92495313e-01
-6.18840625e-08,1.92507813e-01
-6.18440625e-08,1.92487500e-01
-6.18040625e-08,1.92521875e-01
-6.17640625e-08,1.92453125e-01
-6.17240625e-08,1.92700000e-01
-6.16840625e-08,1.92964063e-01
-6.16440625e-08,1.92859375e-01
-6.16040625e-08,1.92931250e-01
-6.15640625e-08,1.92871875e-01
-6.15240625e-08,1.92926563e-01
-6.14840625e-08,1.92873438e-01
-6.14440625e-08,1.92928125e-01
-6.14040625e-08,1.92867188e-01
-6.13640625e-08,1.92942188e-01
-6.13240625e-08,1.92834375e-01
-6.12840625e-08,1.93118750e-01
-6.12440625e-08,1.93343750e-01
-6.12040625e-08,1.93279688e-01
-6.11640625e-08,1.93310938e-01
-6.11240625e-08,1.93295313e-01
-6.10840625e-08,1.93301562e-01
-6.10440625e-08,1.93300000e-01
-6.10040625e-08,1.93296875e-01
-6.09640625e-08,1.93304688e-01
-6.09240625e-08,1.93292188e-01
-6.08840625e-08,1.93310938e-01
-6.08440625e-08,1.93282813e-01
-6.08040625e-08,1.93326563e-01
-6.07640625e-08,1.93248438e-01
-6.07240625e-08,1.93504687e-01
-6.06840625e-08,1.93756250e-01
-6.06440625e-08,1.93667188e-01
-6.06040625e-08,1.93723438e-01
-6.05640625e-08,1.93681250e-01
-6.05240625e-08,1.93715625e-01
-6.04840625e-08,1.93685938e-01
-6.04440625e-08,1.93712500e-01
-6.04040625e-08,1.93689063e-01
-6.03640625e-08,1.93710938e-01
-6.03240625e-08,1.93690625e-01
-6.02840625e-08,1.93709375e-01
-6.02440625e-08,1.93690625e-01
-6.02040625e-08,1.93709375e-01
-6.01640625e-08,1.93690625e-01
-6.01240625e-08,1.93709375e-01
-6.00840625e-08,1.93690625e-01
-6.00440625e-08,1.93709375e-01
-6.00040625e-08,1.93689063e-01
-5.99640625e-08,1.93710938e-01
-5.99240625e-08,1.93687500e-01
-5.98840625e-08,1.93714063e-01
-5.98440625e-08,1.93682812e-01
-5.98040625e-08,1.93721875e-01
-5.97640625e-08,1.93668750e-01
-5.97240625e-08,1.93756250e-01
-5.96840625e-08,1.93490625e-01
-5.96440625e-08,1.93246875e-01
-5.96040625e-08,1.93329688e-01
-5.95640625e-08,1.93279688e-01
-5.95240625e-08,1.93315625e-01
-5.94840625e-08,1.93287500e-01
-5.94440625e-08,1.93310938e-01
-5.94040625e-08,1.93290625e-01
-5.93640625e-08,1.93309375e-01
-5.93240625e-08,1.93290625e-01
-5.92840625e-08,1.93309375e-01
-5.92440625e-08,1.93289062e-01
-5.92040625e-08,1.93310938e-01
-5.91640625e-08,1.93285938e-01
-5.91240625e-08,1.93318750e-01
-5.90840625e-08,1.93273438e-01
-5.90440625e-08,1.93351563e-01
-5.90040625e-08,1.93096875e-01
-5.89640625e-08,1.92840625e-01
-5.89240625e-08,1.92935938e-01
-5.88840625e-08,1.92871875e-01
-5.88440625e-08,1.92925000e-01
-5.88040625e-08,1.92876563e-01
-5.87640625e-08,1.92923438e-01
-5.87240625e-08,1.92873438e-01
-5.86840625e-08,1.92929688e-01
-5.86440625e-08,1.92860937e-01
-5.86040625e-08,1.92964063e-01
-5.85640625e-08,1.92682813e-01
-5.85240625e-08,1.92454687e-01
-5.84840625e-08,1.92520313e-01
-5.84440625e-08,1.92490625e-01
-5.84040625e-08,1.92503125e-01
-5.83640625e-08,1.92501563e-01
-5.83240625e-08,1.92493750e-01
-5.82840625e-08,1.92512500e-01
-5.82440625e-08,1.92476563e-01
-5.82040625e-08,1.92548438e-01
-5.81640625e-08,1.92296875e-01
-5.81240625e-08,1.92040625e-01
-5.80840625e-08,1.92134375e-01
-5.80440625e-08,1.92075000e-01
-5.80040625e-08,1.92120313e-01
-5.79640625e-08,1.92082813e-01
-5.79240625e-08,1.92114063e-01
-5.78840625e-08,1.92087500e-01
-5.78440625e-08,1.92110937e-01
-5.78040625e-08,1.92089063e-01
-5.77640625e-08,1.92109375e-01
-5.77240625e-08,1.92092188e-01
-5.76840625e-08,1.92107813e-01
-5.76440625e-08,1.92092188e-01
-5.76040625e-08,1.92106250e-01
-5.75640625e-08,1.92093750e-01
-5.75240625e-08,1.92104688e-01
-5.74840625e-08,1.92095313e-01
-5.74440625e-08,1.92103125e-01
-5.74040625e-08,1.92098437e-01
-5.73640625e-08,1.92100000e-01
-5.73240625e-08,1.92103125e-01
-5.72840625e-08,1.92092188e-01
-5.72440625e-08,1.92117188e-01
-5.72040625e-08,1.92057813e-01
-5.71640625e-08,1.92295313e-01
-5.71240625e-08,1.92568750e-01
-5.70840625e-08,1.92454687e-01
-5.70440625e-08,1.92535938e-01
-5.70040625e-08,1.92467187e-01
-5.69640625e-08,1.92531250e-01
-5.69240625e-08,1.92468750e-01
-5.68840625e-08,1.92532813e-01
-5.68440625e-08,1.92462500e-01
-5.68040625e-08,1.92546875e-01
-5.67640625e-08,1.92429688e-01
-5.67240625e-08,1.92723438e-01
-5.66840625e-08,1.92939063e-01
-5.66440625e-08,1.92884375e-01
-5.66040625e-08,1.92904688e-01
-5.65640625e-08,1.92900000e-01
-5.65240625e-08,1.92896875e-01
-5.64840625e-08,1.92906250e-01
-5.64440625e-08,1.92892188e-01
-5.64040625e-08,1.92910938e-01
-5.63640625e-08,1.92885937e-01
-5.63240625e-08,1.92917188e-01
-5.62840625e-08,1.92876563e-01
-5.62440625e-08,1.92932812e-01
-5.62040625e-08,1.92842188e-01
-5.61640625e-08,1.93110937e-01
-5.61240625e-08,1.93350000e-01
-5.60840625e-08,1.93273438e-01
-5.60440625e-08,1.93317188e-01
-5.60040625e-08,1.93289062e-01
-5.59640625e-08,1.93307813e-01
-5.59240625e-08,1.93293750e-01
-5.58840625e-08,1.93304688e-01
-5.58440625e-08,1.93296875e-01
-5.58040625e-08,1.93301562e-01
-5.57640625e-08,1.93300000e-01
-5.57240625e-08,1.93300000e-01
-5.56840625e-08,1.93301562e-01
-5.56440625e-08,1.93298438e-01
-5.56040625e-08,1.93303125e-01
-5.55640625e-08,1.93295313e-01
-5.55240625e-08,1.93304688e-01
-5.54840625e-08,1.93293750e-01
-5.54440625e-08,1.93307813e-01
-5.54040625e-08,1.93290625e-01
-5.53640625e-08,1.93310938e-01
-5.53240625e-08,1.93285938e-01
-5.52840625e-08,1.93320313e-01
-5.52440625e-08,1.93270313e-01
-5.52040625e-08,1.93354688e-01
-5.51640625e-08,1.93092188e-01
-5.51240625e-08,1.92846875e-01
-5.50840625e-08,1.92929688e-01
-5.50440625e-08,1.92879688e-01
-5.50040625e-08,1.92915625e-01
-5.49640625e-08,1.92887500e-01
-5.49240625e-08,1.92909375e-01
-5.48840625e-08,1.92892188e-01
-5.48440625e-08,1.92907812e-01
-5.48040625e-08,1.92893750e-01
-5.47640625e-08,1.92904688e-01
-5.47240625e-08,1.92895312e-01
-5.46840625e-08,1.92904688e-01
-5.46440625e-08,1.92896875e-01
-5.46040625e-08,1.92903125e-01
-5.45640625e-08,1.92896875e-01
-5.45240625e-08,1.92903125e-01
-5.44840625e-08,1.92898438e-01
-5.44440625e-08,1.92901563e-01
-5.44040625e-08,1.92898438e-01
-5.43640625e-08,1.92901563e-01
-5.43240625e-08,1.92900000e-01
-5.42840625e-08,1.92900000e-01
-5.42440625e-08,1.92900000e-01
-5.42040625e-08,1.92900000e-01
-5.41640625e-08,1.92900000e-01
-5.41240625e-08,1.92898438e-01
-5.40840625e-08,1.92901563e-01
-5.40440625e-08,1.92898438e-01
-5.40040625e-08,1.92901563e-01
-5.39640625e-08,1.92896875e-01
-5.39240625e-08,1.92903125e-01
-5.38840625e-08,1.92895312e-01
-5.38440625e-08,1.92904688e-01
-5.38040625e-08,1.92893750e-01
-5.37640625e-08,1.92907812e-01
-5.37240625e-08,1.92890625e-01
-5.36840625e-08,1.92912500e-01
-5.36440625e-08,1.92882813e-01
-5.36040625e-08,1.92926563e-01
-5.35640625e-08,1.92848437e-01
-5.35240625e-08,1.93104688e-01
-5.34840625e-08,1.93357813e-01
-5.34440625e-08,1.93265625e-01
-5.34040625e-08,1.93325000e-01
-5.33640625e-08,1.93279688e-01
-5.33240625e-08,1.93318750e-01
-5.32840625e-08,1.93282813e-01
-5.32440625e-08,1.93317188e-01
-5.32040625e-08,1.93282813e-01
-5.31640625e-08,1.93318750e-01
-5.31240625e-08,1.93276562e-01
-5.30840625e-08,1.93331250e-01
-5.30440625e-08,1.93243750e-01
-5.30040625e-08,1.93507813e-01
-5.29640625e-08,1.93756250e-01
-5.29240625e-08,1.93667188e-01
-5.28840625e-08,1.93725000e-01
-5.28440625e-08,1.93678125e-01
-5.28040625e-08,1.93720313e-01
-5.27640625e-08,1.93679688e-01
-5.27240625e-08,1.93721875e-01
-5.26840625e-08,1.93673438e-01
-5.26440625e-08,1.93735938e-01
-5.26040625e-08,1.93639063e-01
-5.25640625e-08,1.93914063e-01
-5.25240625e-08,1.94148437e-01
-5.24840625e-08,1.94076562e-01
-5.24440625e-08,1.94114063e-01
-5.24040625e-08,1.94092188e-01
-5.23640625e-08,1.94103125e-01
-5.23240625e-08,1.94101563e-01
-5.22840625e-08,1.94092188e-01
-5.22440625e-08,1.94118750e-01
-5.22040625e-08,1.94056250e-01
-5.21640625e-08,1.94296875e-01
-5.21240625e-08,1.94565625e-01
-5.20840625e-08,1.94459375e-01
-5.20440625e-08,1.94532813e-01
-5.20040625e-08,1.94471875e-01
-5.19640625e-08,1.94525000e-01
-5.19240625e-08,1.94476563e-01
-5.18840625e-08,1.94523438e-01
-5.18440625e-08,1.94475000e-01
-5.18040625e-08,1.94526562e-01
-5.17640625e-08,1.94468750e-01
-5.17240625e-08,1.94540625e-01
-5.16840625e-08,1.94435938e-01
-5.16440625e-08,1.94717187e-01
-5.16040625e-08,1.94945312e-01
-5.15640625e-08,1.94878125e-01
-5.15240625e-08,1.94912500e-01
-5.14840625e-08,1.94892188e-01
-5.14440625e-08,1.94904688e-01
-5.14040625e-08,1.94898438e-01
-5.13640625e-08,1.94900000e-01
-5.13240625e-08,1.94901563e-01
-5.12840625e-08,1.94896875e-01
-5.12440625e-08,1.94904688e-01
-5.12040625e-08,1.94892188e-01
-5.11640625e-08,1.94910937e-01
-5.11240625e-08,1.94884375e-01
-5.10840625e-08,1.94925000e-01
-5.10440625e-08,1.94850000e-01
-5.10040625e-08,1.95103125e-01
-5.09640625e-08,1.95359375e-01
-5.09240625e-08,1.95264063e-01
-5.08840625e-08,1.95326563e-01
-5.08440625e-08,1.95278125e-01
-5.08040625e-08,1.95320313e-01
-5.07640625e-08,1.95281250e-01
-5.07240625e-08,1.95318750e-01
-5.06840625e-08,1.95281250e-01
-5.06440625e-08,1.95318750e-01
-5.06040625e-08,1.95279688e-01
-5.05640625e-08,1.95323438e-01
-5.05240625e-08,1.95271875e-01
-5.04840625e-08,1.95337500e-01
-5.04440625e-08,1.95239063e-01
-5.04040625e-08,1.95514063e-01
-5.03640625e-08,1.95748438e-01
-5.03240625e-08,1.95676563e-01
-5.02840625e-08,1.95714063e-01
-5.02440625e-08,1.95690625e-01
-5.02040625e-08,1.95706250e-01
-5.01640625e-08,1.95695312e-01
-5.01240625e-08,1.95703125e-01
-5.00840625e-08,1.95698438e-01
-5.00440625e-08,1.95700000e-01
-5.00040625e-08,1.95700000e-01
-4.99640625e-08,1.95698438e-01
-4.99240625e-08,1.95703125e-01
-4.98840625e-08,1.95695312e-01
-4.98440625e-08,1.95704688e-01
-4.98040625e-08,1.95693750e-01
-4.97640625e-08,1.95709375e-01
-4.97240625e-08,1.95687500e-01
-4.96840625e-08,1.95717188e-01
-4.96440625e-08,1.95673438e-01
-4.96040625e-08,1.95751563e-01
-4.95640625e-08,1.95495313e-01
-4.95240625e-08,1.95242187e-01
-4.94840625e-08,1.95334375e-01
-4.94440625e-08,1.95273438e-01
-4.94040625e-08,1.95321875e-01
-4.93640625e-08,1.95278125e-01
-4.93240625e-08,1.95323438e-01
-4.92840625e-08,1.95268750e-01
-4.92440625e-08,1.95353125e-01
-4.92040625e-08,1.95095313e-01
-4.91640625e-08,1.94839062e-01
-4.91240625e-08,1.94940625e-01
-4.90840625e-08,1.94864063e-01
-4.90440625e-08,1.94935938e-01
-4.90040625e-08,1.94854688e-01
-4.89640625e-08,1.94968750e-01
-4.89240625e-08,1.94676563e-01
-4.88840625e-08,1.94462500e-01
-4.88440625e-08,1.94510938e-01
-4.88040625e-08,1.94503125e-01
-4.87640625e-08,1.94482813e-01
-4.87240625e-08,1.94545313e-01
-4.86840625e-08,1.94298438e-01
-4.86440625e-08,1.94040625e-01
-4.86040625e-08,1.94132813e-01
-4.85640625e-08,1.94079688e-01
-4.85240625e-08,1.94112500e-01
-4.84840625e-08,1.94095313e-01
-4.84440625e-08,1.94092188e-01
-4.84040625e-08,1.94134375e-01
-4.83640625e-08,1.93910938e-01
-4.83240625e-08,1.93626563e-01
-4.82840625e-08,1.93748438e-01
-4.82440625e-08,1.93660938e-01
-4.82040625e-08,1.93734375e-01
-4.81640625e-08,1.93668750e-01
-4.81240625e-08,1.93729687e-01
-4.80840625e-08,1.93670312e-01
-4.80440625e-08,1.93731250e-01
-4.80040625e-08,1.93667188e-01
-4.79640625e-08,1.93735938e-01
-4.79240625e-08,1.93654688e-01
-4.78840625e-08,1.93770313e-01
-4.78440625e-08,1.93478125e-01
-4.78040625e-08,1.93259375e-01
-4.77640625e-08,1.93317188e-01
-4.77240625e-08,1.93292188e-01
-4.76840625e-08,1.93303125e-01
-4.76440625e-08,1.93298438e-01
-4.76040625e-08,1.93298438e-01
-4.75640625e-08,1.93301562e-01
-4.75240625e-08,1.93296875e-01
-4.74840625e-08,1.93303125e-01
-4.74440625e-08,1.93295313e-01
-4.74040625e-08,1.93304688e-01
-4.73640625e-08,1.93295313e-01
-4.73240625e-08,1.93304688e-01
-4.72840625e-08,1.93295313e-01
-4.72440625e-08,1.93306250e-01
-4.72040625e-08,1.93293750e-01
-4.71640625e-08,1.93306250e-01
-4.71240625e-08,1.93293750e-01
-4.70840625e-08,1.93306250e-01
-4.70440625e-08,1.93293750e-01
-4.70040625e-08,1.93306250e-01
-4.69640625e-08,1.93293750e-01
-4.69240625e-08,1.93306250e-01
-4.68840625e-08,1.93293750e-01
-4.68440625e-08,1.93306250e-01
-4.68040625e-08,1.93293750e-01
-4.67640625e-08,1.93306250e-01
-4.67240625e-08,1.93293750e-01
-4.66840625e-08,1.93307813e-01
-4.66440625e-08,1.93292188e-01
-4.66040625e-08,1.93307813e-01
-4.65640625e-08,1.93292188e-01
-4.65240625e-08,1.93307813e-01
-4.64840625e-08,1.93292188e-01
-4.64440625e-08,1.93307813e-01
-4.64040625e-08,1.93292188e-01
-4.63640625e-08,1.93307813e-01
-4.63240625e-08,1.93292188e-01
-4.62840625e-08,1.93307813e-01
-4.62440625e-08,1.93290625e-01
-4.62040625e-08,1.93309375e-01
-4.61640625e-08,1.93290625e-01
-4.61240625e-08,1.93309375e-01
-4.60840625e-08,1.93290625e-01
-4.60440625e-08,1.93310938e-01
-4.60040625e-08,1.93289062e-01
-4.59640625e-08,1.93310938e-01
-4.59240625e-08,1.93287500e-01
-4.58840625e-08,1.93312500e-01
-4.58440625e-08,1.93285938e-01
-4.58040625e-08,1.93314062e-01
-4.57640625e-08,1.93284375e-01
-4.57240625e-08,1.93318750e-01
-4.56840625e-08,1.93278125e-01
-4.56440625e-08,1.93326563e-01
-4.56040625e-08,1.93264063e-01
-4.55640625e-08,1.93360937e-01
-4.55240625e-08,1.93085937e-01
-4.54840625e-08,1.92853125e-01
-4.54440625e-08,1.92923438e-01
-4.54040625e-08,1.92885937e-01
-4.53640625e-08,1.92909375e-01
-4.53240625e-08,1.92893750e-01
-4.52840625e-08,1.92903125e-01
-4.52440625e-08,1.92898438e-01
-4.52040625e-08,1.92900000e-01
-4.51640625e-08,1.92901563e-01
-4.51240625e-08,1.92898438e-01
-4.50840625e-08,1.92903125e-01
-4.50440625e-08,1.92896875e-01
-4.50040625e-08,1.92904688e-01
-4.49640625e-08,1.92895312e-01
-4.49240625e-08,1.92906250e-01
-4.48840625e-08,1.92893750e-01
-4.48440625e-08,1.92907812e-01
-4.48040625e-08,1.92890625e-01
-4.47640625e-08,1.92910938e-01
-4.47240625e-08,1.92887500e-01
-4.46840625e-08,1.92914063e-01
-4.46440625e-08,1.92882813e-01
-4.46040625e-08,1.92923438e-01
-4.45640625e-08,1.92867188e-01
-4.45240625e-08,1.92957812e-01
-4.44840625e-08,1.92689063e-01
-4.44440625e-08,1.92448438e-01
-4.44040625e-08,1.92526562e-01
-4.43640625e-08,1.92482813e-01
-4.43240625e-08,1.92512500e-01
-4.42840625e-08,1.92490625e-01
-4.42440625e-08,1.92506250e-01
-4.42040625e-08,1.92495313e-01
-4.41640625e-08,1.92503125e-01
-4.41240625e-08,1.92498438e-01
-4.40840625e-08,1.92501563e-01
-4.40440625e-08,1.92500000e-01
-4.40040625e-08,1.92498438e-01
-4.39640625e-08,1.92501563e-01
-4.39240625e-08,1.92496875e-01
-4.38840625e-08,1.92504687e-01
-4.38440625e-08,1.92495313e-01
-4.38040625e-08,1.92507813e-01
-4.37640625e-08,1.92490625e-01
-4.37240625e-08,1.92512500e-01
-4.36840625e-08,1.92482813e-01
-4.36440625e-08,1.92528125e-01
-4.36040625e-08,1.92448438e-01
-4.35640625e-08,1.92704687e-01
-4.35240625e-08,1.92956250e-01
-4.34840625e-08,1.92867188e-01
-4.34440625e-08,1.92923438e-01
-4.34040625e-08,1.92881250e-01
-4.33640625e-08,1.92917188e-01
-4.33240625e-08,1.92884375e-01
-4.32840625e-08,1.92914063e-01
-4.32440625e-08,1.92885937e-01
-4.32040625e-08,1.92914063e-01
-4.31640625e-08,1.92884375e-01
-4.31240625e-08,1.92917188e-01
-4.30840625e-08,1.92878125e-01
-4.30440625e-08,1.92931250e-01
-4.30040625e-08,1.92845313e-01
-4.29640625e-08,1.93107813e-01
-4.29240625e-08,1.93354688e-01
-4.28840625e-08,1.93267187e-01
-4.28440625e-08,1.93323438e-01
-4.28040625e-08,1.93281250e-01
-4.27640625e-08,1.93317188e-01
-4.27240625e-08,1.93284375e-01
-4.26840625e-08,1.93315625e-01
-4.26440625e-08,1.93284375e-01
-4.26040625e-08,1.93317188e-01
-4.25640625e-08,1.93281250e-01
-4.25240625e-08,1.93321875e-01
-4.24840625e-08,1.93273438e-01
-4.24440625e-08,1.93335937e-01
-4.24040625e-08,1.93239063e-01
-4.23640625e-08,1.93514063e-01
-4.23240625e-08,1.93748438e-01
-4.22840625e-08,1.93675000e-01
-4.22440625e-08,1.93715625e-01
-4.22040625e-08,1.93689063e-01
-4.21640625e-08,1.93706250e-01
-4.21240625e-08,1.93695312e-01
-4.20840625e-08,1.93703125e-01
-4.20440625e-08,1.93698438e-01
-4.20040625e-08,1.93700000e-01
-4.19640625e-08,1.93701563e-01
-4.19240625e-08,1.93696875e-01
-4.18840625e-08,1.93704688e-01
-4.18440625e-08,1.93693750e-01
-4.18040625e-08,1.93707813e-01
-4.17640625e-08,1.93687500e-01
-4.17240625e-08,1.93717187e-01
-4.16840625e-08,1.93673438e-01
-4.16440625e-08,1.93751563e-01
-4.16040625e-08,1.93495313e-01
-4.15640625e-08,1.93242187e-01
-4.15240625e-08,1.93332813e-01
-4.14840625e-08,1.93276562e-01
-4.14440625e-08,1.93318750e-01
-4.14040625e-08,1.93284375e-01
-4.13640625e-08,1.93314062e-01
-4.13240625e-08,1.93287500e-01
-4.12840625e-08,1.93312500e-01
-4.12440625e-08,1.93289062e-01
-4.12040625e-08,1.93310938e-01
-4.11640625e-08,1.93289062e-01
-4.11240625e-08,1.93310938e-01
-4.10840625e-08,1.93287500e-01
-4.10440625e-08,1.93314062e-01
-4.10040625e-08,1.93284375e-01
-4.09640625e-08,1.93320313e-01
-4.09240625e-08,1.93270313e-01
-4.08840625e-08,1.93353125e-01
-4.08440625e-08,1.93093750e-01
-4.08040625e-08,1.92843750e-01
-4.07640625e-08,1.92934375e-01
-4.07240625e-08,1.92875000e-01
-4.06840625e-08,1.92921875e-01
-4.06440625e-08,1.92879688e-01
-4.06040625e-08,1.92920312e-01
-4.05640625e-08,1.92879688e-01
-4.05240625e-08,1.92921875e-01
-4.04840625e-08,1.92873438e-01
-4.04440625e-08,1.92935938e-01
-4.04040625e-08,1.92839063e-01
-4.03640625e-08,1.93114063e-01
-4.03240625e-08,1.93348437e-01
-4.02840625e-08,1.93275000e-01
-4.02440625e-08,1.93315625e-01
-4.02040625e-08,1.93290625e-01
-4.01640625e-08,1.93306250e-01
-4.01240625e-08,1.93295313e-01
-4.00840625e-08,1.93303125e-01
-4.00440625e-08,1.93300000e-01
-4.00040625e-08,1.93298438e-01
-3.99640625e-08,1.93303125e-01
-3.99240625e-08,1.93293750e-01
-3.98840625e-08,1.93309375e-01
-3.98440625e-08,1.93285938e-01
-3.98040625e-08,1.93323438e-01
-3.97640625e-08,1.93251563e-01
-3.97240625e-08,1.93501563e-01
-3.96840625e-08,1.93760938e-01
-3.96440625e-08,1.93664063e-01
-3.96040625e-08,1.93728125e-01
-3.95640625e-08,1.93676563e-01
-3.95240625e-08,1.93720313e-01
-3.94840625e-08,1.93679688e-01
-3.94440625e-08,1.93718750e-01
-3.94040625e-08,1.93679688e-01
-3.93640625e-08,1.93721875e-01
-3.93240625e-08,1.93673438e-01
-3.92840625e-08,1.93734375e-01
-3.92440625e-08,1.93640625e-01
-3.92040625e-08,1.93910938e-01
-3.91640625e-08,1.94151563e-01
-3.91240625e-08,1.94071875e-01
-3.90840625e-08,1.94118750e-01
-3.90440625e-08,1.94084375e-01
-3.90040625e-08,1.94112500e-01
-3.89640625e-08,1.94089063e-01
-3.89240625e-08,1.94110937e-01
-3.88840625e-08,1.94089063e-01
-3.88440625e-08,1.94110937e-01
-3.88040625e-08,1.94089063e-01
-3.87640625e-08,1.94112500e-01
-3.87240625e-08,1.94085937e-01
-3.86840625e-08,1.94117188e-01
-3.86440625e-08,1.94078125e-01
-3.86040625e-08,1.94131250e-01
-3.85640625e-08,1.94043750e-01
-3.85240625e-08,1.94309375e-01
