trails/0bdfa5e45fec98341abdd20552c140b4/aes_ch1_20250507123500622.csv

Model,MSO66B
Label,
Waveform Type,ANALOG
Horizontal Units,s
Sample Interval,4.00000000e-11
Record Length,10000
Zero Index,1599.01953125
Vertical Units,A
ANALOG_Thumbnail,
yOffset,1.84500000e-01
yPosition,8.40000000e-01

Labels,
TIME,CH1
-6.39607813e-08,1.88492188e-01
-6.39207812e-08,1.88506250e-01
-6.38807813e-08,1.88495313e-01
-6.38407812e-08,1.88503125e-01
-6.38007812e-08,1.88498438e-01
-6.37607812e-08,1.88500000e-01
-6.37207812e-08,1.88501562e-01
-6.36807813e-08,1.88496875e-01
-6.36407812e-08,1.88506250e-01
-6.36007813e-08,1.88490625e-01
-6.35607812e-08,1.88514062e-01
-6.35207812e-08,1.88476562e-01
-6.34807812e-08,1.88548437e-01
-6.34407812e-08,1.88298437e-01
-6.34007813e-08,1.88039063e-01
-6.33607812e-08,1.88135938e-01
-6.33207813e-08,1.88073437e-01
-6.32807812e-08,1.88121875e-01
-6.32407812e-08,1.88081250e-01
-6.32007812e-08,1.88117188e-01
-6.31607812e-08,1.88084375e-01
-6.31207813e-08,1.88115625e-01
-6.30807812e-08,1.88085937e-01
-6.30407813e-08,1.88114063e-01
-6.30007812e-08,1.88085937e-01
-6.29607812e-08,1.88114063e-01
-6.29207812e-08,1.88085937e-01
-6.28807812e-08,1.88114063e-01
-6.28407813e-08,1.88085937e-01
-6.28007812e-08,1.88114063e-01
-6.27607813e-08,1.88084375e-01
-6.27207812e-08,1.88115625e-01
-6.26807812e-08,1.88082813e-01
-6.26407812e-08,1.88118750e-01
-6.26007812e-08,1.88079688e-01
-6.25607813e-08,1.88123438e-01
-6.25207812e-08,1.88071875e-01
-6.24807813e-08,1.88139063e-01
-6.24407812e-08,1.88035937e-01
-6.24007812e-08,1.88317188e-01
-6.23607812e-08,1.88545313e-01
-6.23207812e-08,1.88479687e-01
-6.22807813e-08,1.88509375e-01
-6.22407812e-08,1.88495313e-01
-6.22007813e-08,1.88500000e-01
-6.21607812e-08,1.88503125e-01
-6.21207812e-08,1.88492188e-01
-6.20807812e-08,1.88510938e-01
-6.20407812e-08,1.88482813e-01
-6.20007813e-08,1.88528125e-01
-6.19607812e-08,1.88446875e-01
-6.19207812e-08,1.88707813e-01
-6.18807812e-08,1.88954687e-01
-6.18407812e-08,1.88870312e-01
-6.18007812e-08,1.88918750e-01
-6.17607812e-08,1.88887500e-01
-6.17207813e-08,1.88907812e-01
-6.16807812e-08,1.88896875e-01
-6.16407812e-08,1.88896875e-01
-6.16007812e-08,1.88914063e-01
-6.15607812e-08,1.88860938e-01
-6.15207812e-08,1.89092188e-01
-6.14807812e-08,1.89370312e-01
-6.14407813e-08,1.89251562e-01
-6.14007812e-08,1.89339063e-01
-6.13607812e-08,1.89264062e-01
-6.13207812e-08,1.89335937e-01
-6.12807812e-08,1.89260938e-01
-6.12407812e-08,1.89348437e-01
-6.12007812e-08,1.89228125e-01
-6.11607813e-08,1.89525000e-01
-6.11207812e-08,1.89737500e-01
-6.10807812e-08,1.89685938e-01
-6.10407812e-08,1.89704687e-01
-6.10007812e-08,1.89701563e-01
-6.09607812e-08,1.89693750e-01
-6.09207812e-08,1.89710938e-01
-6.08807813e-08,1.89682813e-01
-6.08407812e-08,1.89728125e-01
-6.08007812e-08,1.89646875e-01
-6.07607812e-08,1.89906250e-01
-6.07207812e-08,1.90156250e-01
-6.06807812e-08,1.90068750e-01
-6.06407812e-08,1.90121875e-01
-6.06007813e-08,1.90082813e-01
-6.05607812e-08,1.90114063e-01
-6.05207812e-08,1.90087500e-01
-6.04807812e-08,1.90110938e-01
-6.04407812e-08,1.90090625e-01
-6.04007812e-08,1.90107813e-01
-6.03607812e-08,1.90092188e-01
-6.03207813e-08,1.90107813e-01
-6.02807812e-08,1.90093750e-01
-6.02407812e-08,1.90106250e-01
-6.02007812e-08,1.90093750e-01
-6.01607812e-08,1.90106250e-01
-6.01207813e-08,1.90093750e-01
-6.00807812e-08,1.90106250e-01
-6.00407813e-08,1.90093750e-01
-6.00007812e-08,1.90106250e-01
-5.99607812e-08,1.90093750e-01
-5.99207812e-08,1.90106250e-01
-5.98807812e-08,1.90093750e-01
-5.98407813e-08,1.90106250e-01
-5.98007812e-08,1.90093750e-01
-5.97607813e-08,1.90106250e-01
-5.97207812e-08,1.90092188e-01
-5.96807812e-08,1.90107813e-01
-5.96407812e-08,1.90090625e-01
-5.96007812e-08,1.90110938e-01
-5.95607812e-08,1.90085937e-01
-5.95207812e-08,1.90118750e-01
-5.94807812e-08,1.90071875e-01
-5.94407812e-08,1.90153125e-01
-5.94007812e-08,1.89895312e-01
-5.93607812e-08,1.89642188e-01
-5.93207812e-08,1.89734375e-01
-5.92807812e-08,1.89673438e-01
-5.92407812e-08,1.89723438e-01
-5.92007812e-08,1.89676563e-01
-5.91607812e-08,1.89726563e-01
-5.91207812e-08,1.89665625e-01
-5.90807812e-08,1.89757813e-01
-5.90407812e-08,1.89492188e-01
-5.90007812e-08,1.89243750e-01
-5.89607812e-08,1.89334375e-01
-5.89207812e-08,1.89271875e-01
-5.88807812e-08,1.89328125e-01
-5.88407812e-08,1.89265625e-01
-5.88007812e-08,1.89357813e-01
-5.87607812e-08,1.89092188e-01
-5.87207812e-08,1.88843750e-01
-5.86807812e-08,1.88932813e-01
-5.86407812e-08,1.88873438e-01
-5.86007812e-08,1.88923438e-01
-5.85607812e-08,1.88876563e-01
-5.85207812e-08,1.88928125e-01
-5.84807812e-08,1.88864063e-01
-5.84407812e-08,1.88959375e-01
-5.84007812e-08,1.88687500e-01
-5.83607812e-08,1.88450000e-01
-5.83207812e-08,1.88526562e-01
-5.82807812e-08,1.88481250e-01
-5.82407812e-08,1.88514062e-01
-5.82007812e-08,1.88489062e-01
-5.81607812e-08,1.88509375e-01
-5.81207812e-08,1.88492188e-01
-5.80807812e-08,1.88506250e-01
-5.80407812e-08,1.88493750e-01
-5.80007812e-08,1.88506250e-01
-5.79607812e-08,1.88495313e-01
-5.79207812e-08,1.88504688e-01
-5.78807812e-08,1.88495313e-01
-5.78407812e-08,1.88504688e-01
-5.78007812e-08,1.88495313e-01
-5.77607812e-08,1.88504688e-01
-5.77207812e-08,1.88496875e-01
-5.76807812e-08,1.88503125e-01
-5.76407812e-08,1.88496875e-01
-5.76007812e-08,1.88503125e-01
-5.75607812e-08,1.88496875e-01
-5.75207812e-08,1.88503125e-01
-5.74807812e-08,1.88496875e-01
-5.74407812e-08,1.88503125e-01
-5.74007812e-08,1.88496875e-01
-5.73607812e-08,1.88503125e-01
-5.73207812e-08,1.88496875e-01
-5.72807812e-08,1.88503125e-01
-5.72407812e-08,1.88496875e-01
-5.72007812e-08,1.88503125e-01
-5.71607812e-08,1.88496875e-01
-5.71207812e-08,1.88503125e-01
-5.70807812e-08,1.88496875e-01
-5.70407812e-08,1.88503125e-01
-5.70007812e-08,1.88496875e-01
-5.69607812e-08,1.88503125e-01
-5.69207812e-08,1.88496875e-01
-5.68807812e-08,1.88503125e-01
-5.68407812e-08,1.88496875e-01
-5.68007812e-08,1.88503125e-01
-5.67607812e-08,1.88496875e-01
-5.67207812e-08,1.88503125e-01
-5.66807812e-08,1.88496875e-01
-5.66407812e-08,1.88503125e-01
-5.66007812e-08,1.88496875e-01
-5.65607812e-08,1.88503125e-01
-5.65207812e-08,1.88495313e-01
-5.64807812e-08,1.88504688e-01
-5.64407812e-08,1.88495313e-01
-5.64007812e-08,1.88504688e-01
-5.63607812e-08,1.88495313e-01
-5.63207812e-08,1.88504688e-01
-5.62807812e-08,1.88495313e-01
-5.62407812e-08,1.88504688e-01
-5.62007812e-08,1.88495313e-01
-5.61607812e-08,1.88506250e-01
-5.61207812e-08,1.88493750e-01
-5.60807812e-08,1.88506250e-01
-5.60407812e-08,1.88493750e-01
-5.60007812e-08,1.88507813e-01
-5.59607812e-08,1.88492188e-01
-5.59207812e-08,1.88507813e-01
-5.58807812e-08,1.88490625e-01
-5.58407812e-08,1.88510938e-01
-5.58007812e-08,1.88487500e-01
-5.57607812e-08,1.88514062e-01
-5.57207812e-08,1.88482813e-01
-5.56807812e-08,1.88521875e-01
-5.56407812e-08,1.88467188e-01
-5.56007812e-08,1.88557813e-01
-5.55607812e-08,1.88289062e-01
-5.55207812e-08,1.88048437e-01
-5.54807812e-08,1.88128125e-01
-5.54407812e-08,1.88081250e-01
-5.54007812e-08,1.88112500e-01
-5.53607812e-08,1.88090625e-01
-5.53207812e-08,1.88107812e-01
-5.52807812e-08,1.88093750e-01
-5.52407812e-08,1.88104688e-01
-5.52007812e-08,1.88096875e-01
-5.51607812e-08,1.88101563e-01
-5.51207812e-08,1.88100000e-01
-5.50807812e-08,1.88098437e-01
-5.50407812e-08,1.88103125e-01
-5.50007812e-08,1.88095313e-01
-5.49607812e-08,1.88107812e-01
-5.49207812e-08,1.88087500e-01
-5.48807812e-08,1.88123438e-01
-5.48407812e-08,1.88053125e-01
-5.48007812e-08,1.88300000e-01
-5.47607812e-08,1.88562500e-01
-5.47207812e-08,1.88460938e-01
-5.46807812e-08,1.88529688e-01
-5.46407812e-08,1.88475000e-01
-5.46007812e-08,1.88521875e-01
-5.45607812e-08,1.88479687e-01
-5.45207812e-08,1.88520313e-01
-5.44807812e-08,1.88479687e-01
-5.44407812e-08,1.88520313e-01
-5.44007812e-08,1.88478125e-01
-5.43607812e-08,1.88525000e-01
-5.43207812e-08,1.88470313e-01
-5.42807812e-08,1.88539063e-01
-5.42407812e-08,1.88435938e-01
-5.42007812e-08,1.88717187e-01
-5.41607812e-08,1.88945313e-01
-5.41207812e-08,1.88879688e-01
-5.40807812e-08,1.88910938e-01
-5.40407812e-08,1.88895312e-01
-5.40007812e-08,1.88901563e-01
-5.39607812e-08,1.88901563e-01
-5.39207812e-08,1.88895312e-01
-5.38807812e-08,1.88909375e-01
-5.38407812e-08,1.88884375e-01
-5.38007812e-08,1.88925000e-01
-5.37607812e-08,1.88850000e-01
-5.37207812e-08,1.89103125e-01
-5.36807812e-08,1.89357813e-01
-5.36407812e-08,1.89265625e-01
-5.36007812e-08,1.89325000e-01
-5.35607812e-08,1.89279688e-01
-5.35207812e-08,1.89317188e-01
-5.34807812e-08,1.89285938e-01
-5.34407812e-08,1.89312500e-01
-5.34007812e-08,1.89287500e-01
-5.33607812e-08,1.89310937e-01
-5.33207812e-08,1.89289062e-01
-5.32807812e-08,1.89310937e-01
-5.32407812e-08,1.89290625e-01
-5.32007812e-08,1.89309375e-01
-5.31607812e-08,1.89290625e-01
-5.31207812e-08,1.89309375e-01
-5.30807812e-08,1.89290625e-01
-5.30407812e-08,1.89309375e-01
-5.30007812e-08,1.89290625e-01
-5.29607812e-08,1.89310937e-01
-5.29207812e-08,1.89289062e-01
-5.28807812e-08,1.89310937e-01
-5.28407812e-08,1.89287500e-01
-5.28007812e-08,1.89314063e-01
-5.27607812e-08,1.89284375e-01
-5.27207812e-08,1.89318750e-01
-5.26807812e-08,1.89276562e-01
-5.26407812e-08,1.89332813e-01
-5.26007812e-08,1.89242188e-01
-5.25607812e-08,1.89510938e-01
-5.25207812e-08,1.89751562e-01
-5.24807812e-08,1.89671875e-01
-5.24407813e-08,1.89718750e-01
-5.24007812e-08,1.89687500e-01
-5.23607812e-08,1.89710938e-01
-5.23207812e-08,1.89692187e-01
-5.22807812e-08,1.89706250e-01
-5.22407812e-08,1.89693750e-01
-5.22007812e-08,1.89704687e-01
-5.21607812e-08,1.89695313e-01
-5.21207812e-08,1.89703125e-01
-5.20807812e-08,1.89696875e-01
-5.20407812e-08,1.89703125e-01
-5.20007812e-08,1.89696875e-01
-5.19607812e-08,1.89703125e-01
-5.19207812e-08,1.89698438e-01
-5.18807812e-08,1.89701563e-01
-5.18407812e-08,1.89698438e-01
-5.18007812e-08,1.89701563e-01
-5.17607812e-08,1.89698438e-01
-5.17207812e-08,1.89701563e-01
-5.16807812e-08,1.89698438e-01
-5.16407812e-08,1.89701563e-01
-5.16007812e-08,1.89698438e-01
-5.15607812e-08,1.89701563e-01
-5.15207812e-08,1.89698438e-01
-5.14807812e-08,1.89701563e-01
-5.14407812e-08,1.89698438e-01
-5.14007812e-08,1.89701563e-01
-5.13607812e-08,1.89698438e-01
-5.13207812e-08,1.89701563e-01
-5.12807812e-08,1.89698438e-01
-5.12407812e-08,1.89701563e-01
-5.12007812e-08,1.89698438e-01
-5.11607812e-08,1.89701563e-01
-5.11207812e-08,1.89698438e-01
-5.10807812e-08,1.89701563e-01
-5.10407812e-08,1.89698438e-01
-5.10007812e-08,1.89701563e-01
-5.09607812e-08,1.89698438e-01
-5.09207812e-08,1.89701563e-01
-5.08807812e-08,1.89698438e-01
-5.08407812e-08,1.89701563e-01
-5.08007812e-08,1.89698438e-01
-5.07607812e-08,1.89701563e-01
-5.07207812e-08,1.89698438e-01
-5.06807812e-08,1.89701563e-01
-5.06407812e-08,1.89698438e-01
-5.06007812e-08,1.89701563e-01
-5.05607812e-08,1.89696875e-01
-5.05207813e-08,1.89703125e-01
-5.04807812e-08,1.89696875e-01
-5.04407812e-08,1.89703125e-01
-5.04007812e-08,1.89695313e-01
-5.03607812e-08,1.89704687e-01
-5.03207812e-08,1.89693750e-01
-5.02807812e-08,1.89707813e-01
-5.02407812e-08,1.89690625e-01
-5.02007812e-08,1.89712500e-01
-5.01607812e-08,1.89682813e-01
-5.01207812e-08,1.89728125e-01
-5.00807812e-08,1.89648438e-01
-5.00407812e-08,1.89904688e-01
-5.00007812e-08,1.90157812e-01
-4.99607812e-08,1.90067188e-01
-4.99207812e-08,1.90123438e-01
-4.98807812e-08,1.90081250e-01
-4.98407812e-08,1.90115625e-01
-4.98007812e-08,1.90085937e-01
-4.97607812e-08,1.90112500e-01
-4.97207812e-08,1.90087500e-01
-4.96807812e-08,1.90110938e-01
-4.96407812e-08,1.90089063e-01
-4.96007812e-08,1.90109375e-01
-4.95607812e-08,1.90090625e-01
-4.95207812e-08,1.90109375e-01
-4.94807812e-08,1.90090625e-01
-4.94407812e-08,1.90109375e-01
-4.94007812e-08,1.90090625e-01
-4.93607812e-08,1.90109375e-01
-4.93207812e-08,1.90090625e-01
-4.92807812e-08,1.90109375e-01
-4.92407812e-08,1.90090625e-01
-4.92007812e-08,1.90109375e-01
-4.91607812e-08,1.90090625e-01
-4.91207812e-08,1.90109375e-01
-4.90807812e-08,1.90090625e-01
-4.90407812e-08,1.90110938e-01
-4.90007812e-08,1.90089063e-01
-4.89607812e-08,1.90110938e-01
-4.89207812e-08,1.90089063e-01
-4.88807813e-08,1.90112500e-01
-4.88407812e-08,1.90087500e-01
-4.88007812e-08,1.90114063e-01
-4.87607812e-08,1.90085937e-01
-4.87207812e-08,1.90115625e-01
-4.86807812e-08,1.90082813e-01
-4.86407812e-08,1.90120312e-01
-4.86007813e-08,1.90076563e-01
-4.85607812e-08,1.90128125e-01
-4.85207812e-08,1.90060937e-01
-4.84807812e-08,1.90164063e-01
-4.84407812e-08,1.89881250e-01
-4.84007812e-08,1.89656250e-01
-4.83607812e-08,1.89718750e-01
-4.83207813e-08,1.89692187e-01
-4.82807812e-08,1.89701563e-01
-4.82407812e-08,1.89704687e-01
-4.82007812e-08,1.89690625e-01
-4.81607812e-08,1.89715625e-01
-4.81207812e-08,1.89671875e-01
-4.80807812e-08,1.89753125e-01
-4.80407812e-08,1.89492188e-01
-4.80007812e-08,1.89246875e-01
-4.79607812e-08,1.89326563e-01
-4.79207812e-08,1.89284375e-01
-4.78807812e-08,1.89307813e-01
-4.78407812e-08,1.89300000e-01
-4.78007812e-08,1.89289062e-01
-4.77607812e-08,1.89337500e-01
-4.77207812e-08,1.89109375e-01
-4.76807812e-08,1.88829688e-01
-4.76407812e-08,1.88946875e-01
-4.76007812e-08,1.88860938e-01
-4.75607812e-08,1.88935938e-01
-4.75207812e-08,1.88864063e-01
-4.74807812e-08,1.88937500e-01
-4.74407812e-08,1.88853125e-01
-4.74007812e-08,1.88970313e-01
-4.73607812e-08,1.88678125e-01
-4.73207812e-08,1.88459375e-01
-4.72807812e-08,1.88517188e-01
-4.72407812e-08,1.88492188e-01
-4.72007812e-08,1.88503125e-01
-4.71607812e-08,1.88501562e-01
-4.71207812e-08,1.88496875e-01
-4.70807812e-08,1.88506250e-01
-4.70407812e-08,1.88489062e-01
-4.70007812e-08,1.88515625e-01
-4.69607813e-08,1.88475000e-01
-4.69207812e-08,1.88550000e-01
-4.68807812e-08,1.88295313e-01
-4.68407812e-08,1.88042188e-01
-4.68007812e-08,1.88134375e-01
-4.67607812e-08,1.88075000e-01
-4.67207812e-08,1.88120312e-01
-4.66807813e-08,1.88082813e-01
-4.66407812e-08,1.88115625e-01
-4.66007812e-08,1.88085937e-01
-4.65607812e-08,1.88114063e-01
-4.65207812e-08,1.88087500e-01
-4.64807812e-08,1.88112500e-01
-4.64407812e-08,1.88087500e-01
-4.64007813e-08,1.88112500e-01
-4.63607812e-08,1.88087500e-01
-4.63207812e-08,1.88114063e-01
-4.62807812e-08,1.88085937e-01
-4.62407812e-08,1.88115625e-01
-4.62007812e-08,1.88084375e-01
-4.61607812e-08,1.88117188e-01
-4.61207813e-08,1.88081250e-01
-4.60807812e-08,1.88123438e-01
-4.60407812e-08,1.88071875e-01
-4.60007812e-08,1.88137500e-01
-4.59607812e-08,1.88037500e-01
-4.59207812e-08,1.88315625e-01
-4.58807812e-08,1.88545313e-01
-4.58407812e-08,1.88478125e-01
-4.58007812e-08,1.88512500e-01
-4.57607812e-08,1.88493750e-01
-4.57207812e-08,1.88503125e-01
-4.56807812e-08,1.88500000e-01
-4.56407812e-08,1.88498438e-01
-4.56007812e-08,1.88503125e-01
-4.55607812e-08,1.88493750e-01
-4.55207812e-08,1.88507813e-01
-4.54807812e-08,1.88489062e-01
-4.54407812e-08,1.88514062e-01
-4.54007812e-08,1.88479687e-01
-4.53607812e-08,1.88531250e-01
-4.53207812e-08,1.88443750e-01
-4.52807812e-08,1.88709375e-01
-4.52407812e-08,1.88951563e-01
-4.52007812e-08,1.88871875e-01
-4.51607812e-08,1.88917188e-01
-4.51207812e-08,1.88887500e-01
-4.50807812e-08,1.88909375e-01
-4.50407813e-08,1.88893750e-01
-4.50007812e-08,1.88904688e-01
-4.49607812e-08,1.88898438e-01
-4.49207812e-08,1.88900000e-01
-4.48807812e-08,1.88901563e-01
-4.48407812e-08,1.88896875e-01
-4.48007812e-08,1.88906250e-01
-4.47607813e-08,1.88892188e-01
-4.47207812e-08,1.88910938e-01
-4.46807812e-08,1.88885938e-01
-4.46407812e-08,1.88920313e-01
-4.46007812e-08,1.88871875e-01
-4.45607812e-08,1.88943750e-01
-4.45207812e-08,1.88821875e-01
-4.44807813e-08,1.89156250e-01
-4.44407812e-08,1.89153125e-01
-4.44007812e-08,1.88807813e-01
-4.43607812e-08,1.88957813e-01
-4.43207812e-08,1.88856250e-01
-4.42807812e-08,1.88935938e-01
-4.42407812e-08,1.88868750e-01
-4.42007813e-08,1.88928125e-01
-4.41607812e-08,1.88875000e-01
-4.41207812e-08,1.88923438e-01
-4.40807812e-08,1.88878125e-01
-4.40407812e-08,1.88921875e-01
-4.40007812e-08,1.88879688e-01
-4.39607812e-08,1.88920313e-01
-4.39207813e-08,1.88879688e-01
-4.38807812e-08,1.88920313e-01
-4.38407812e-08,1.88878125e-01
-4.38007812e-08,1.88923438e-01
-4.37607812e-08,1.88873438e-01
-4.37207812e-08,1.88931250e-01
-4.36807812e-08,1.88859375e-01
-4.36407812e-08,1.88964063e-01
-4.36007812e-08,1.88682813e-01
-4.35607812e-08,1.88454687e-01
-4.35207812e-08,1.88521875e-01
-4.34807812e-08,1.88487500e-01
-4.34407812e-08,1.88507813e-01
-4.34007812e-08,1.88495313e-01
-4.33607812e-08,1.88503125e-01
-4.33207812e-08,1.88498438e-01
-4.32807812e-08,1.88500000e-01
-4.32407812e-08,1.88500000e-01
-4.32007812e-08,1.88498438e-01
-4.31607812e-08,1.88501562e-01
-4.31207813e-08,1.88498438e-01
-4.30807812e-08,1.88503125e-01
-4.30407812e-08,1.88496875e-01
-4.30007812e-08,1.88503125e-01
-4.29607812e-08,1.88495313e-01
-4.29207812e-08,1.88504688e-01
-4.28807812e-08,1.88493750e-01
-4.28407813e-08,1.88507813e-01
-4.28007812e-08,1.88490625e-01
-4.27607812e-08,1.88512500e-01
-4.27207812e-08,1.88482813e-01
-4.26807812e-08,1.88526562e-01
-4.26407812e-08,1.88450000e-01
-4.26007812e-08,1.88703125e-01
-4.25607813e-08,1.88959375e-01
-4.25207812e-08,1.88862500e-01
-4.24807812e-08,1.88928125e-01
-4.24407812e-08,1.88875000e-01
-4.24007812e-08,1.88923438e-01
-4.23607812e-08,1.88876563e-01
-4.23207812e-08,1.88925000e-01
-4.22807813e-08,1.88870312e-01
-4.22407812e-08,1.88939063e-01
-4.22007812e-08,1.88837500e-01
-4.21607812e-08,1.89115625e-01
-4.21207812e-08,1.89345313e-01
-4.20807812e-08,1.89278125e-01
-4.20407812e-08,1.89312500e-01
-4.20007813e-08,1.89293750e-01
-4.19607812e-08,1.89303125e-01
-4.19207812e-08,1.89300000e-01
-4.18807812e-08,1.89296875e-01
-4.18407812e-08,1.89307813e-01
-4.18007812e-08,1.89285938e-01
-4.17607812e-08,1.89323437e-01
-4.17207813e-08,1.89251562e-01
-4.16807812e-08,1.89503125e-01
-4.16407812e-08,1.89759375e-01
-4.16007812e-08,1.89664063e-01
-4.15607812e-08,1.89726563e-01
-4.15207812e-08,1.89679687e-01
-4.14807812e-08,1.89717187e-01
-4.14407812e-08,1.89684375e-01
-4.14007812e-08,1.89714063e-01
-4.13607812e-08,1.89687500e-01
-4.13207812e-08,1.89712500e-01
-4.12807812e-08,1.89689063e-01
-4.12407812e-08,1.89710938e-01
-4.12007813e-08,1.89690625e-01
-4.11607812e-08,1.89709375e-01
-4.11207812e-08,1.89690625e-01
-4.10807812e-08,1.89709375e-01
-4.10407812e-08,1.89692187e-01
-4.10007812e-08,1.89707813e-01
-4.09607812e-08,1.89692187e-01
-4.09207813e-08,1.89707813e-01
-4.08807812e-08,1.89692187e-01
-4.08407812e-08,1.89707813e-01
-4.08007812e-08,1.89692187e-01
-4.07607812e-08,1.89707813e-01
-4.07207812e-08,1.89692187e-01
-4.06807812e-08,1.89707813e-01
-4.06407813e-08,1.89692187e-01
-4.06007812e-08,1.89707813e-01
-4.05607812e-08,1.89692187e-01
-4.05207812e-08,1.89707813e-01
-4.04807812e-08,1.89692187e-01
-4.04407812e-08,1.89707813e-01
-4.04007812e-08,1.89692187e-01
-4.03607813e-08,1.89707813e-01
-4.03207812e-08,1.89692187e-01
-4.02807812e-08,1.89707813e-01
-4.02407812e-08,1.89692187e-01
-4.02007812e-08,1.89707813e-01
-4.01607812e-08,1.89692187e-01
-4.01207812e-08,1.89707813e-01
-4.00807813e-08,1.89692187e-01
-4.00407812e-08,1.89707813e-01
-4.00007812e-08,1.89692187e-01
-3.99607812e-08,1.89707813e-01
-3.99207812e-08,1.89690625e-01
-3.98807812e-08,1.89709375e-01
-3.98407812e-08,1.89690625e-01
-3.98007813e-08,1.89709375e-01
-3.97607812e-08,1.89689063e-01
-3.97207812e-08,1.89710938e-01
-3.96807812e-08,1.89689063e-01
-3.96407812e-08,1.89712500e-01
-3.96007812e-08,1.89687500e-01
-3.95607812e-08,1.89714063e-01
-3.95207813e-08,1.89684375e-01
-3.94807812e-08,1.89718750e-01
-3.94407812e-08,1.89678125e-01
-3.94007812e-08,1.89726563e-01
-3.93607812e-08,1.89664063e-01
-3.93207812e-08,1.89760938e-01
-3.92807813e-08,1.89485938e-01
-3.92407812e-08,1.89253125e-01
-3.92007812e-08,1.89323437e-01
-3.91607812e-08,1.89285938e-01
-3.91207812e-08,1.89307813e-01
-3.90807812e-08,1.89295313e-01
-3.90407812e-08,1.89303125e-01
-3.90007813e-08,1.89300000e-01
-3.89607812e-08,1.89298437e-01
-3.89207812e-08,1.89303125e-01
-3.88807812e-08,1.89295313e-01
-3.88407812e-08,1.89306250e-01
-3.88007812e-08,1.89292188e-01
-3.87607812e-08,1.89310937e-01
-3.87207813e-08,1.89285938e-01
-3.86807812e-08,1.89320313e-01
-3.86407812e-08,1.89270313e-01
-3.86007812e-08,1.89356250e-01
-3.85607812e-08,1.89090625e-01
-3.85207812e-08,1.88846875e-01
