trails/0bdfa5e45fec98341abdd20552c140b4/aes_ch1_20250507114410914.csv

Model,MSO66B
Label,
Waveform Type,ANALOG
Horizontal Units,s
Sample Interval,4.00000000e-11
Record Length,10000
Zero Index,1599.18359375
Vertical Units,A
ANALOG_Thumbnail,
yOffset,1.84500000e-01
yPosition,8.40000000e-01

Labels,
TIME,CH1
-6.39673437e-08,1.98893750e-01
-6.39273437e-08,1.98906250e-01
-6.38873437e-08,1.98893750e-01
-6.38473437e-08,1.98906250e-01
-6.38073437e-08,1.98893750e-01
-6.37673437e-08,1.98906250e-01
-6.37273438e-08,1.98895313e-01
-6.36873437e-08,1.98904688e-01
-6.36473437e-08,1.98895313e-01
-6.36073437e-08,1.98904688e-01
-6.35673437e-08,1.98895313e-01
-6.35273437e-08,1.98904688e-01
-6.34873437e-08,1.98895313e-01
-6.34473438e-08,1.98904688e-01
-6.34073437e-08,1.98895313e-01
-6.33673437e-08,1.98904688e-01
-6.33273437e-08,1.98895313e-01
-6.32873437e-08,1.98904688e-01
-6.32473438e-08,1.98895313e-01
-6.32073437e-08,1.98904688e-01
-6.31673438e-08,1.98895313e-01
-6.31273437e-08,1.98904688e-01
-6.30873437e-08,1.98895313e-01
-6.30473437e-08,1.98904688e-01
-6.30073437e-08,1.98895313e-01
-6.29673438e-08,1.98904688e-01
-6.29273437e-08,1.98895313e-01
-6.28873438e-08,1.98904688e-01
-6.28473437e-08,1.98895313e-01
-6.28073437e-08,1.98904688e-01
-6.27673437e-08,1.98895313e-01
-6.27273437e-08,1.98904688e-01
-6.26873438e-08,1.98895313e-01
-6.26473437e-08,1.98904688e-01
-6.26073438e-08,1.98895313e-01
-6.25673437e-08,1.98904688e-01
-6.25273437e-08,1.98893750e-01
-6.24873437e-08,1.98906250e-01
-6.24473437e-08,1.98893750e-01
-6.24073438e-08,1.98906250e-01
-6.23673437e-08,1.98893750e-01
-6.23273438e-08,1.98906250e-01
-6.22873437e-08,1.98893750e-01
-6.22473437e-08,1.98906250e-01
-6.22073437e-08,1.98893750e-01
-6.21673437e-08,1.98907813e-01
-6.21273438e-08,1.98892188e-01
-6.20873437e-08,1.98907813e-01
-6.20473438e-08,1.98892188e-01
-6.20073437e-08,1.98909375e-01
-6.19673437e-08,1.98890625e-01
-6.19273437e-08,1.98909375e-01
-6.18873437e-08,1.98889063e-01
-6.18473438e-08,1.98912500e-01
-6.18073437e-08,1.98887500e-01
-6.17673438e-08,1.98914063e-01
-6.17273437e-08,1.98882813e-01
-6.16873437e-08,1.98920313e-01
-6.16473437e-08,1.98875000e-01
-6.16073437e-08,1.98934375e-01
-6.15673438e-08,1.98840625e-01
-6.15273437e-08,1.99114063e-01
-6.14873438e-08,1.99348438e-01
-6.14473437e-08,1.99275000e-01
-6.14073437e-08,1.99315625e-01
-6.13673437e-08,1.99290625e-01
-6.13273437e-08,1.99306250e-01
-6.12873438e-08,1.99296875e-01
-6.12473437e-08,1.99301563e-01
-6.12073437e-08,1.99300000e-01
-6.11673437e-08,1.99298438e-01
-6.11273437e-08,1.99301563e-01
-6.10873437e-08,1.99296875e-01
-6.10473437e-08,1.99304688e-01
-6.10073438e-08,1.99293750e-01
-6.09673437e-08,1.99307813e-01
-6.09273437e-08,1.99289063e-01
-6.08873437e-08,1.99314062e-01
-6.08473437e-08,1.99279687e-01
-6.08073437e-08,1.99329688e-01
-6.07673437e-08,1.99245312e-01
-6.07273438e-08,1.99507812e-01
-6.06873437e-08,1.99753125e-01
-6.06473437e-08,1.99670313e-01
-6.06073437e-08,1.99718750e-01
-6.05673437e-08,1.99685938e-01
-6.05273437e-08,1.99710938e-01
-6.04873437e-08,1.99692188e-01
-6.04473438e-08,1.99706250e-01
-6.04073437e-08,1.99695312e-01
-6.03673437e-08,1.99703125e-01
-6.03273437e-08,1.99698437e-01
-6.02873437e-08,1.99700000e-01
-6.02473437e-08,1.99701563e-01
-6.02073437e-08,1.99696875e-01
-6.01673438e-08,1.99704688e-01
-6.01273437e-08,1.99693750e-01
-6.00873437e-08,1.99710938e-01
-6.00473437e-08,1.99684375e-01
-6.00073437e-08,1.99725000e-01
-5.99673437e-08,1.99648437e-01
-5.99273437e-08,1.99904688e-01
-5.98873438e-08,2.00157813e-01
-5.98473437e-08,2.00065625e-01
-5.98073437e-08,2.00123438e-01
-5.97673437e-08,2.00081250e-01
-5.97273437e-08,2.00115625e-01
-5.96873437e-08,2.00085938e-01
-5.96473437e-08,2.00110938e-01
-5.96073438e-08,2.00089062e-01
-5.95673437e-08,2.00109375e-01
-5.95273437e-08,2.00092188e-01
-5.94873437e-08,2.00107813e-01
-5.94473437e-08,2.00093750e-01
-5.94073437e-08,2.00106250e-01
-5.93673437e-08,2.00095313e-01
-5.93273437e-08,2.00103125e-01
-5.92873437e-08,2.00096875e-01
-5.92473437e-08,2.00101562e-01
-5.92073437e-08,2.00100000e-01
-5.91673437e-08,2.00098438e-01
-5.91273437e-08,2.00103125e-01
-5.90873437e-08,2.00093750e-01
-5.90473437e-08,2.00110938e-01
-5.90073437e-08,2.00078125e-01
-5.89673437e-08,2.00146875e-01
-5.89273437e-08,1.99900000e-01
-5.88873437e-08,1.99637500e-01
-5.88473437e-08,1.99739063e-01
-5.88073437e-08,1.99670313e-01
-5.87673437e-08,1.99725000e-01
-5.87273437e-08,1.99678125e-01
-5.86873437e-08,1.99720312e-01
-5.86473437e-08,1.99681250e-01
-5.86073437e-08,1.99718750e-01
-5.85673437e-08,1.99682813e-01
-5.85273437e-08,1.99717188e-01
-5.84873437e-08,1.99682813e-01
-5.84473437e-08,1.99717188e-01
-5.84073437e-08,1.99682813e-01
-5.83673437e-08,1.99718750e-01
-5.83273437e-08,1.99681250e-01
-5.82873437e-08,1.99720312e-01
-5.82473437e-08,1.99676563e-01
-5.82073437e-08,1.99728125e-01
-5.81673437e-08,1.99662500e-01
-5.81273437e-08,1.99762500e-01
-5.80873437e-08,1.99485938e-01
-5.80473437e-08,1.99251563e-01
-5.80073437e-08,1.99325000e-01
-5.79673437e-08,1.99282813e-01
-5.79273437e-08,1.99314062e-01
-5.78873437e-08,1.99285938e-01
-5.78473437e-08,1.99315625e-01
-5.78073437e-08,1.99276563e-01
-5.77673437e-08,1.99345313e-01
-5.77273437e-08,1.99103125e-01
-5.76873437e-08,1.98831250e-01
-5.76473437e-08,1.98946875e-01
-5.76073437e-08,1.98857813e-01
-5.75673437e-08,1.98942188e-01
-5.75273437e-08,1.98850000e-01
-5.74873437e-08,1.98975000e-01
-5.74473437e-08,1.98671875e-01
-5.74073437e-08,1.98467188e-01
-5.73673437e-08,1.98507813e-01
-5.73273437e-08,1.98506250e-01
-5.72873437e-08,1.98479688e-01
-5.72473437e-08,1.98546875e-01
-5.72073437e-08,1.98298438e-01
-5.71673437e-08,1.98039063e-01
-5.71273437e-08,1.98137500e-01
-5.70873437e-08,1.98068750e-01
-5.70473437e-08,1.98129688e-01
-5.70073437e-08,1.98065625e-01
-5.69673437e-08,1.98156250e-01
-5.69273437e-08,1.97893750e-01
-5.68873437e-08,1.97640625e-01
-5.68473437e-08,1.97739063e-01
-5.68073437e-08,1.97667188e-01
-5.67673437e-08,1.97734375e-01
-5.67273437e-08,1.97657813e-01
-5.66873437e-08,1.97765625e-01
-5.66473437e-08,1.97481250e-01
-5.66073437e-08,1.97256250e-01
-5.65673437e-08,1.97320313e-01
-5.65273437e-08,1.97289063e-01
-5.64873437e-08,1.97304688e-01
-5.64473437e-08,1.97298438e-01
-5.64073437e-08,1.97298438e-01
-5.63673437e-08,1.97304688e-01
-5.63273437e-08,1.97290625e-01
-5.62873437e-08,1.97315625e-01
-5.62473437e-08,1.97275000e-01
-5.62073437e-08,1.97351563e-01
-5.61673437e-08,1.97095313e-01
-5.61273437e-08,1.96842188e-01
-5.60873437e-08,1.96932812e-01
-5.60473437e-08,1.96876563e-01
-5.60073437e-08,1.96918750e-01
-5.59673437e-08,1.96884375e-01
-5.59273437e-08,1.96912500e-01
-5.58873437e-08,1.96889063e-01
-5.58473437e-08,1.96910937e-01
-5.58073437e-08,1.96890625e-01
-5.57673437e-08,1.96907813e-01
-5.57273437e-08,1.96892188e-01
-5.56873437e-08,1.96907813e-01
-5.56473437e-08,1.96893750e-01
-5.56073437e-08,1.96906250e-01
-5.55673437e-08,1.96893750e-01
-5.55273437e-08,1.96906250e-01
-5.54873437e-08,1.96895313e-01
-5.54473437e-08,1.96904688e-01
-5.54073437e-08,1.96895313e-01
-5.53673437e-08,1.96904688e-01
-5.53273437e-08,1.96895313e-01
-5.52873437e-08,1.96904688e-01
-5.52473437e-08,1.96895313e-01
-5.52073437e-08,1.96904688e-01
-5.51673437e-08,1.96896875e-01
-5.51273437e-08,1.96903125e-01
-5.50873437e-08,1.96896875e-01
-5.50473437e-08,1.96903125e-01
-5.50073437e-08,1.96896875e-01
-5.49673437e-08,1.96903125e-01
-5.49273437e-08,1.96896875e-01
-5.48873437e-08,1.96903125e-01
-5.48473437e-08,1.96896875e-01
-5.48073437e-08,1.96903125e-01
-5.47673437e-08,1.96896875e-01
-5.47273437e-08,1.96903125e-01
-5.46873437e-08,1.96896875e-01
-5.46473437e-08,1.96903125e-01
-5.46073437e-08,1.96896875e-01
-5.45673437e-08,1.96903125e-01
-5.45273437e-08,1.96896875e-01
-5.44873437e-08,1.96903125e-01
-5.44473437e-08,1.96896875e-01
-5.44073437e-08,1.96904688e-01
-5.43673437e-08,1.96895313e-01
-5.43273437e-08,1.96904688e-01
-5.42873437e-08,1.96895313e-01
-5.42473437e-08,1.96906250e-01
-5.42073437e-08,1.96893750e-01
-5.41673437e-08,1.96907813e-01
-5.41273437e-08,1.96890625e-01
-5.40873437e-08,1.96912500e-01
-5.40473437e-08,1.96882813e-01
-5.40073437e-08,1.96926563e-01
-5.39673437e-08,1.96850000e-01
-5.39273437e-08,1.97103125e-01
-5.38873437e-08,1.97359375e-01
-5.38473437e-08,1.97264063e-01
-5.38073437e-08,1.97328125e-01
-5.37673437e-08,1.97276563e-01
-5.37273437e-08,1.97321875e-01
-5.36873437e-08,1.97278125e-01
-5.36473437e-08,1.97321875e-01
-5.36073437e-08,1.97276563e-01
-5.35673437e-08,1.97325000e-01
-5.35273437e-08,1.97268750e-01
-5.34873437e-08,1.97340625e-01
-5.34473437e-08,1.97234375e-01
-5.34073437e-08,1.97518750e-01
-5.33673437e-08,1.97742187e-01
-5.33273437e-08,1.97682812e-01
-5.32873437e-08,1.97704688e-01
-5.32473437e-08,1.97703125e-01
-5.32073437e-08,1.97689063e-01
-5.31673437e-08,1.97723438e-01
-5.31273437e-08,1.97650000e-01
-5.30873437e-08,1.97906250e-01
-5.30473437e-08,1.98154688e-01
-5.30073437e-08,1.98071875e-01
-5.29673437e-08,1.98112500e-01
-5.29273437e-08,1.98101562e-01
-5.28873437e-08,1.98071875e-01
-5.28473437e-08,1.98282813e-01
-5.28073437e-08,1.98579688e-01
-5.27673437e-08,1.98443750e-01
-5.27273437e-08,1.98550000e-01
-5.26873437e-08,1.98451563e-01
-5.26473437e-08,1.98554687e-01
-5.26073437e-08,1.98421875e-01
-5.25673437e-08,1.98729688e-01
-5.25273437e-08,1.98934375e-01
-5.24873437e-08,1.98889063e-01
-5.24473437e-08,1.98901563e-01
-5.24073437e-08,1.98903125e-01
-5.23673437e-08,1.98892188e-01
-5.23273437e-08,1.98910937e-01
-5.22873437e-08,1.98882813e-01
-5.22473437e-08,1.98926563e-01
-5.22073437e-08,1.98850000e-01
-5.21673437e-08,1.99103125e-01
-5.21273437e-08,1.99360938e-01
-5.20873437e-08,1.99259375e-01
-5.20473437e-08,1.99335938e-01
-5.20073437e-08,1.99259375e-01
-5.19673437e-08,1.99362500e-01
-5.19273437e-08,1.99085938e-01
-5.18873437e-08,1.98850000e-01
-5.18473437e-08,1.98926563e-01
-5.18073437e-08,1.98882813e-01
-5.17673437e-08,1.98912500e-01
-5.17273438e-08,1.98890625e-01
-5.16873437e-08,1.98904688e-01
-5.16473437e-08,1.98900000e-01
-5.16073437e-08,1.98892188e-01
-5.15673437e-08,1.98931250e-01
-5.15273437e-08,1.98717188e-01
-5.14873437e-08,1.98417188e-01
-5.14473437e-08,1.98565625e-01
-5.14073437e-08,1.98432812e-01
-5.13673437e-08,1.98587500e-01
-5.13273437e-08,1.98259375e-01
-5.12873437e-08,1.98081250e-01
-5.12473437e-08,1.98087500e-01
-5.12073437e-08,1.98145313e-01
-5.11673437e-08,1.97900000e-01
-5.11273437e-08,1.97639063e-01
-5.10873437e-08,1.97740625e-01
-5.10473437e-08,1.97662500e-01
-5.10073437e-08,1.97754687e-01
-5.09673437e-08,1.97496875e-01
-5.09273437e-08,1.97234375e-01
-5.08873437e-08,1.97350000e-01
-5.08473437e-08,1.97248438e-01
-5.08073437e-08,1.97373437e-01
-5.07673437e-08,1.97073438e-01
-5.07273437e-08,1.96865625e-01
-5.06873437e-08,1.96909375e-01
-5.06473437e-08,1.96904688e-01
-5.06073437e-08,1.96881250e-01
-5.05673437e-08,1.96946875e-01
-5.05273437e-08,1.96698438e-01
-5.04873437e-08,1.96440625e-01
-5.04473437e-08,1.96535938e-01
-5.04073437e-08,1.96475000e-01
-5.03673437e-08,1.96520313e-01
-5.03273437e-08,1.96484375e-01
-5.02873437e-08,1.96514063e-01
-5.02473437e-08,1.96487500e-01
-5.02073437e-08,1.96510938e-01
-5.01673437e-08,1.96489063e-01
-5.01273437e-08,1.96509375e-01
-5.00873437e-08,1.96490625e-01
-5.00473437e-08,1.96509375e-01
-5.00073437e-08,1.96490625e-01
-4.99673437e-08,1.96510938e-01
-4.99273437e-08,1.96489063e-01
-4.98873437e-08,1.96514063e-01
-4.98473437e-08,1.96482812e-01
-4.98073438e-08,1.96526563e-01
-4.97673437e-08,1.96450000e-01
-4.97273437e-08,1.96703125e-01
-4.96873437e-08,1.96960938e-01
-4.96473437e-08,1.96860937e-01
-4.96073437e-08,1.96931250e-01
-4.95673437e-08,1.96871875e-01
-4.95273438e-08,1.96929688e-01
-4.94873437e-08,1.96867188e-01
-4.94473437e-08,1.96942188e-01
-4.94073437e-08,1.96834375e-01
-4.93673437e-08,1.97118750e-01
-4.93273437e-08,1.97343750e-01
-4.92873437e-08,1.97281250e-01
-4.92473437e-08,1.97309375e-01
-4.92073437e-08,1.97296875e-01
-4.91673437e-08,1.97298438e-01
-4.91273437e-08,1.97306250e-01
-4.90873437e-08,1.97285938e-01
-4.90473437e-08,1.97323438e-01
-4.90073437e-08,1.97250000e-01
-4.89673437e-08,1.97503125e-01
-4.89273437e-08,1.97757813e-01
-4.88873437e-08,1.97665625e-01
-4.88473437e-08,1.97725000e-01
-4.88073437e-08,1.97681250e-01
-4.87673437e-08,1.97715625e-01
-4.87273437e-08,1.97685938e-01
-4.86873437e-08,1.97712500e-01
-4.86473437e-08,1.97689063e-01
-4.86073437e-08,1.97709375e-01
-4.85673437e-08,1.97690625e-01
-4.85273437e-08,1.97707812e-01
-4.84873437e-08,1.97692188e-01
-4.84473437e-08,1.97707812e-01
-4.84073437e-08,1.97693750e-01
-4.83673437e-08,1.97706250e-01
-4.83273437e-08,1.97693750e-01
-4.82873437e-08,1.97706250e-01
-4.82473437e-08,1.97695312e-01
-4.82073437e-08,1.97704688e-01
-4.81673438e-08,1.97695312e-01
-4.81273437e-08,1.97704688e-01
-4.80873437e-08,1.97695312e-01
-4.80473437e-08,1.97704688e-01
-4.80073437e-08,1.97695312e-01
-4.79673437e-08,1.97704688e-01
-4.79273437e-08,1.97696875e-01
-4.78873438e-08,1.97703125e-01
-4.78473437e-08,1.97696875e-01
-4.78073437e-08,1.97703125e-01
-4.77673437e-08,1.97696875e-01
-4.77273437e-08,1.97703125e-01
-4.76873437e-08,1.97696875e-01
-4.76473437e-08,1.97703125e-01
-4.76073438e-08,1.97696875e-01
-4.75673437e-08,1.97703125e-01
-4.75273437e-08,1.97696875e-01
-4.74873437e-08,1.97703125e-01
-4.74473437e-08,1.97696875e-01
-4.74073437e-08,1.97703125e-01
-4.73673437e-08,1.97698438e-01
-4.73273438e-08,1.97701563e-01
-4.72873437e-08,1.97698438e-01
-4.72473437e-08,1.97701563e-01
-4.72073437e-08,1.97698438e-01
-4.71673437e-08,1.97701563e-01
-4.71273437e-08,1.97698438e-01
-4.70873437e-08,1.97701563e-01
-4.70473437e-08,1.97698438e-01
-4.70073437e-08,1.97701563e-01
-4.69673437e-08,1.97698438e-01
-4.69273437e-08,1.97701563e-01
-4.68873437e-08,1.97698438e-01
-4.68473437e-08,1.97701563e-01
-4.68073437e-08,1.97698438e-01
-4.67673437e-08,1.97701563e-01
-4.67273437e-08,1.97700000e-01
-4.66873437e-08,1.97700000e-01
-4.66473437e-08,1.97700000e-01
-4.66073437e-08,1.97700000e-01
-4.65673437e-08,1.97700000e-01
-4.65273437e-08,1.97700000e-01
-4.64873437e-08,1.97700000e-01
-4.64473437e-08,1.97700000e-01
-4.64073437e-08,1.97700000e-01
-4.63673437e-08,1.97698438e-01
-4.63273437e-08,1.97701563e-01
-4.62873437e-08,1.97698438e-01
-4.62473438e-08,1.97701563e-01
-4.62073437e-08,1.97698438e-01
-4.61673437e-08,1.97703125e-01
-4.61273437e-08,1.97696875e-01
-4.60873437e-08,1.97703125e-01
-4.60473437e-08,1.97695312e-01
-4.60073437e-08,1.97704688e-01
-4.59673438e-08,1.97693750e-01
-4.59273437e-08,1.97707812e-01
-4.58873437e-08,1.97690625e-01
-4.58473437e-08,1.97712500e-01
-4.58073437e-08,1.97681250e-01
-4.57673437e-08,1.97728125e-01
-4.57273437e-08,1.97646875e-01
-4.56873438e-08,1.97906250e-01
-4.56473437e-08,1.98156250e-01
-4.56073437e-08,1.98067188e-01
-4.55673437e-08,1.98123437e-01
-4.55273437e-08,1.98081250e-01
-4.54873437e-08,1.98115625e-01
-4.54473437e-08,1.98087500e-01
-4.54073438e-08,1.98110938e-01
-4.53673437e-08,1.98089062e-01
-4.53273437e-08,1.98109375e-01
-4.52873437e-08,1.98090625e-01
-4.52473437e-08,1.98107813e-01
-4.52073437e-08,1.98092188e-01
-4.51673437e-08,1.98107813e-01
-4.51273437e-08,1.98093750e-01
-4.50873437e-08,1.98106250e-01
-4.50473437e-08,1.98093750e-01
-4.50073437e-08,1.98106250e-01
-4.49673437e-08,1.98093750e-01
-4.49273437e-08,1.98106250e-01
-4.48873437e-08,1.98095313e-01
-4.48473437e-08,1.98104688e-01
-4.48073437e-08,1.98095313e-01
-4.47673437e-08,1.98104688e-01
-4.47273437e-08,1.98095313e-01
-4.46873437e-08,1.98104688e-01
-4.46473437e-08,1.98095313e-01
-4.46073437e-08,1.98104688e-01
-4.45673437e-08,1.98095313e-01
-4.45273437e-08,1.98104688e-01
-4.44873437e-08,1.98096875e-01
-4.44473437e-08,1.98103125e-01
-4.44073437e-08,1.98096875e-01
-4.43673437e-08,1.98103125e-01
-4.43273438e-08,1.98096875e-01
-4.42873437e-08,1.98103125e-01
-4.42473437e-08,1.98096875e-01
-4.42073437e-08,1.98103125e-01
-4.41673437e-08,1.98098438e-01
-4.41273437e-08,1.98101562e-01
-4.40873437e-08,1.98098438e-01
-4.40473438e-08,1.98101562e-01
-4.40073437e-08,1.98100000e-01
-4.39673437e-08,1.98100000e-01
-4.39273437e-08,1.98101562e-01
-4.38873437e-08,1.98096875e-01
-4.38473437e-08,1.98104688e-01
-4.38073437e-08,1.98092188e-01
-4.37673438e-08,1.98112500e-01
-4.37273437e-08,1.98078125e-01
-4.36873437e-08,1.98146875e-01
-4.36473437e-08,1.97900000e-01
-4.36073437e-08,1.97637500e-01
-4.35673437e-08,1.97739063e-01
-4.35273437e-08,1.97668750e-01
-4.34873438e-08,1.97726563e-01
-4.34473437e-08,1.97676563e-01
-4.34073437e-08,1.97721875e-01
-4.33673437e-08,1.97678125e-01
-4.33273437e-08,1.97721875e-01
-4.32873437e-08,1.97678125e-01
-4.32473437e-08,1.97723438e-01
-4.32073438e-08,1.97673437e-01
-4.31673437e-08,1.97731250e-01
-4.31273437e-08,1.97659375e-01
-4.30873437e-08,1.97764063e-01
-4.30473437e-08,1.97482812e-01
-4.30073437e-08,1.97254687e-01
-4.29673437e-08,1.97321875e-01
-4.29273437e-08,1.97287500e-01
-4.28873437e-08,1.97307813e-01
-4.28473437e-08,1.97295313e-01
-4.28073437e-08,1.97303125e-01
-4.27673437e-08,1.97298438e-01
-4.27273437e-08,1.97300000e-01
-4.26873437e-08,1.97300000e-01
-4.26473437e-08,1.97298438e-01
-4.26073437e-08,1.97301562e-01
-4.25673437e-08,1.97298438e-01
-4.25273437e-08,1.97303125e-01
-4.24873437e-08,1.97296875e-01
-4.24473437e-08,1.97303125e-01
-4.24073438e-08,1.97296875e-01
-4.23673437e-08,1.97303125e-01
-4.23273437e-08,1.97296875e-01
-4.22873437e-08,1.97304688e-01
-4.22473437e-08,1.97295313e-01
-4.22073437e-08,1.97304688e-01
-4.21673437e-08,1.97295313e-01
-4.21273438e-08,1.97304688e-01
-4.20873437e-08,1.97295313e-01
-4.20473437e-08,1.97304688e-01
-4.20073437e-08,1.97295313e-01
-4.19673437e-08,1.97304688e-01
-4.19273437e-08,1.97295313e-01
-4.18873437e-08,1.97304688e-01
-4.18473438e-08,1.97293750e-01
-4.18073437e-08,1.97306250e-01
-4.17673437e-08,1.97293750e-01
-4.17273437e-08,1.97306250e-01
-4.16873437e-08,1.97293750e-01
-4.16473437e-08,1.97306250e-01
-4.16073437e-08,1.97293750e-01
-4.15673438e-08,1.97306250e-01
-4.15273437e-08,1.97293750e-01
-4.14873437e-08,1.97307813e-01
-4.14473437e-08,1.97292187e-01
-4.14073437e-08,1.97307813e-01
-4.13673437e-08,1.97292187e-01
-4.13273437e-08,1.97307813e-01
-4.12873438e-08,1.97292187e-01
-4.12473437e-08,1.97309375e-01
-4.12073437e-08,1.97290625e-01
-4.11673437e-08,1.97309375e-01
-4.11273437e-08,1.97290625e-01
-4.10873437e-08,1.97310938e-01
-4.10473437e-08,1.97289063e-01
-4.10073438e-08,1.97310938e-01
-4.09673437e-08,1.97287500e-01
-4.09273437e-08,1.97312500e-01
-4.08873437e-08,1.97285938e-01
-4.08473437e-08,1.97315625e-01
-4.08073437e-08,1.97284375e-01
-4.07673437e-08,1.97318750e-01
-4.07273437e-08,1.97279688e-01
-4.06873437e-08,1.97323438e-01
-4.06473437e-08,1.97270313e-01
-4.06073437e-08,1.97340625e-01
-4.05673437e-08,1.97234375e-01
-4.05273437e-08,1.97518750e-01
-4.04873438e-08,1.97742187e-01
-4.04473437e-08,1.97682812e-01
-4.04073437e-08,1.97706250e-01
-4.03673437e-08,1.97700000e-01
-4.03273437e-08,1.97693750e-01
-4.02873437e-08,1.97710938e-01
-4.02473437e-08,1.97682812e-01
-4.02073438e-08,1.97729688e-01
-4.01673437e-08,1.97643750e-01
-4.01273437e-08,1.97910937e-01
-4.00873437e-08,1.98150000e-01
-4.00473437e-08,1.98075000e-01
-4.00073437e-08,1.98112500e-01
-3.99673437e-08,1.98095313e-01
-3.99273438e-08,1.98096875e-01
-3.98873437e-08,1.98114063e-01
-3.98473437e-08,1.98059375e-01
-3.98073437e-08,1.98295313e-01
-3.97673437e-08,1.98567188e-01
-3.97273437e-08,1.98456250e-01
-3.96873437e-08,1.98534375e-01
-3.96473438e-08,1.98468750e-01
-3.96073437e-08,1.98529687e-01
-3.95673437e-08,1.98467188e-01
-3.95273437e-08,1.98539063e-01
-3.94873437e-08,1.98437500e-01
-3.94473437e-08,1.98714063e-01
-3.94073437e-08,1.98950000e-01
-3.93673438e-08,1.98871875e-01
-3.93273437e-08,1.98920313e-01
-3.92873437e-08,1.98884375e-01
-3.92473437e-08,1.98915625e-01
-3.92073437e-08,1.98884375e-01
-3.91673437e-08,1.98918750e-01
-3.91273437e-08,1.98878125e-01
-3.90873438e-08,1.98931250e-01
-3.90473437e-08,1.98843750e-01
-3.90073437e-08,1.99109375e-01
-3.89673437e-08,1.99353125e-01
-3.89273437e-08,1.99270313e-01
-3.88873437e-08,1.99320313e-01
-3.88473437e-08,1.99284375e-01
-3.88073438e-08,1.99312500e-01
-3.87673437e-08,1.99289063e-01
-3.87273437e-08,1.99309375e-01
-3.86873437e-08,1.99292187e-01
-3.86473437e-08,1.99307813e-01
-3.86073437e-08,1.99293750e-01
-3.85673438e-08,1.99306250e-01
-3.85273437e-08,1.99293750e-01
