trails/0bdfa5e45fec98341abdd20552c140b4/aes_ch1_20250507121142156.csv

Model,MSO66B
Label,
Waveform Type,ANALOG
Horizontal Units,s
Sample Interval,4.00000000e-11
Record Length,10000
Zero Index,1599.02343750
Vertical Units,A
ANALOG_Thumbnail,
yOffset,1.84500000e-01
yPosition,8.40000000e-01

Labels,
TIME,CH1
-6.39609375e-08,1.79362500e-01
-6.39209375e-08,1.79084375e-01
-6.38809375e-08,1.78853125e-01
-6.38409375e-08,1.78923438e-01
-6.38009375e-08,1.78885938e-01
-6.37609375e-08,1.78909375e-01
-6.37209375e-08,1.78893750e-01
-6.36809375e-08,1.78903125e-01
-6.36409375e-08,1.78898438e-01
-6.36009375e-08,1.78901562e-01
-6.35609375e-08,1.78900000e-01
-6.35209375e-08,1.78898438e-01
-6.34809375e-08,1.78901562e-01
-6.34409375e-08,1.78896875e-01
-6.34009375e-08,1.78903125e-01
-6.33609375e-08,1.78895313e-01
-6.33209375e-08,1.78906250e-01
-6.32809375e-08,1.78893750e-01
-6.32409375e-08,1.78909375e-01
-6.32009375e-08,1.78889063e-01
-6.31609375e-08,1.78914062e-01
-6.31209375e-08,1.78881250e-01
-6.30809375e-08,1.78928125e-01
-6.30409375e-08,1.78846875e-01
-6.30009375e-08,1.79106250e-01
-6.29609375e-08,1.79354687e-01
-6.29209375e-08,1.79268750e-01
-6.28809375e-08,1.79321875e-01
-6.28409375e-08,1.79282812e-01
-6.28009375e-08,1.79314063e-01
-6.27609375e-08,1.79287500e-01
-6.27209375e-08,1.79310938e-01
-6.26809375e-08,1.79290625e-01
-6.26409375e-08,1.79309375e-01
-6.26009375e-08,1.79292188e-01
-6.25609375e-08,1.79307812e-01
-6.25209375e-08,1.79292188e-01
-6.24809375e-08,1.79307812e-01
-6.24409375e-08,1.79292188e-01
-6.24009375e-08,1.79306250e-01
-6.23609375e-08,1.79292188e-01
-6.23209375e-08,1.79307812e-01
-6.22809375e-08,1.79292188e-01
-6.22409375e-08,1.79307812e-01
-6.22009375e-08,1.79292188e-01
-6.21609375e-08,1.79309375e-01
-6.21209375e-08,1.79290625e-01
-6.20809375e-08,1.79310938e-01
-6.20409375e-08,1.79287500e-01
-6.20009375e-08,1.79315625e-01
-6.19609375e-08,1.79279688e-01
-6.19209375e-08,1.79329688e-01
-6.18809375e-08,1.79245313e-01
-6.18409375e-08,1.79507813e-01
-6.18009375e-08,1.79754688e-01
-6.17609375e-08,1.79668750e-01
-6.17209375e-08,1.79721875e-01
-6.16809375e-08,1.79682813e-01
-6.16409375e-08,1.79714062e-01
-6.16009375e-08,1.79687500e-01
-6.15609375e-08,1.79710938e-01
-6.15209375e-08,1.79689062e-01
-6.14809375e-08,1.79710938e-01
-6.14409375e-08,1.79689062e-01
-6.14009375e-08,1.79710938e-01
-6.13609375e-08,1.79689062e-01
-6.13209375e-08,1.79710938e-01
-6.12809375e-08,1.79687500e-01
-6.12409375e-08,1.79712500e-01
-6.12009375e-08,1.79684375e-01
-6.11609375e-08,1.79717188e-01
-6.11209375e-08,1.79676562e-01
-6.10809375e-08,1.79732813e-01
-6.10409375e-08,1.79643750e-01
-6.10009375e-08,1.79909375e-01
-6.09609375e-08,1.80153125e-01
-6.09209375e-08,1.80071875e-01
-6.08809375e-08,1.80118750e-01
-6.08409375e-08,1.80085938e-01
-6.08009375e-08,1.80110938e-01
-6.07609375e-08,1.80090625e-01
-6.07209375e-08,1.80107813e-01
-6.06809375e-08,1.80092188e-01
-6.06409375e-08,1.80106250e-01
-6.06009375e-08,1.80093750e-01
-6.05609375e-08,1.80104687e-01
-6.05209375e-08,1.80095312e-01
-6.04809375e-08,1.80104687e-01
-6.04409375e-08,1.80095312e-01
-6.04009375e-08,1.80104687e-01
-6.03609375e-08,1.80095312e-01
-6.03209375e-08,1.80104687e-01
-6.02809375e-08,1.80096875e-01
-6.02409375e-08,1.80103125e-01
-6.02009375e-08,1.80096875e-01
-6.01609375e-08,1.80103125e-01
-6.01209375e-08,1.80096875e-01
-6.00809375e-08,1.80103125e-01
-6.00409375e-08,1.80096875e-01
-6.00009375e-08,1.80103125e-01
-5.99609375e-08,1.80096875e-01
-5.99209375e-08,1.80103125e-01
-5.98809375e-08,1.80095312e-01
-5.98409375e-08,1.80104687e-01
-5.98009375e-08,1.80095312e-01
-5.97609375e-08,1.80104687e-01
-5.97209375e-08,1.80095312e-01
-5.96809375e-08,1.80104687e-01
-5.96409375e-08,1.80093750e-01
-5.96009375e-08,1.80106250e-01
-5.95609375e-08,1.80092188e-01
-5.95209375e-08,1.80107813e-01
-5.94809375e-08,1.80090625e-01
-5.94409375e-08,1.80112500e-01
-5.94009375e-08,1.80085938e-01
-5.93609375e-08,1.80120313e-01
-5.93209375e-08,1.80070312e-01
-5.92809375e-08,1.80154687e-01
-5.92409375e-08,1.79892187e-01
-5.92009375e-08,1.79645313e-01
-5.91609375e-08,1.79731250e-01
-5.91209375e-08,1.79678125e-01
-5.90809375e-08,1.79717188e-01
-5.90409375e-08,1.79685938e-01
-5.90009375e-08,1.79712500e-01
-5.89609375e-08,1.79689062e-01
-5.89209375e-08,1.79709375e-01
-5.88809375e-08,1.79690625e-01
-5.88409375e-08,1.79709375e-01
-5.88009375e-08,1.79692188e-01
-5.87609375e-08,1.79707813e-01
-5.87209375e-08,1.79692188e-01
-5.86809375e-08,1.79707813e-01
-5.86409375e-08,1.79692188e-01
-5.86009375e-08,1.79707813e-01
-5.85609375e-08,1.79692188e-01
-5.85209375e-08,1.79707813e-01
-5.84809375e-08,1.79692188e-01
-5.84409375e-08,1.79707813e-01
-5.84009375e-08,1.79690625e-01
-5.83609375e-08,1.79709375e-01
-5.83209375e-08,1.79689062e-01
-5.82809375e-08,1.79712500e-01
-5.82409375e-08,1.79685938e-01
-5.82009375e-08,1.79717188e-01
-5.81609375e-08,1.79678125e-01
-5.81209375e-08,1.79731250e-01
-5.80809375e-08,1.79643750e-01
-5.80409375e-08,1.79907813e-01
-5.80009375e-08,1.80154687e-01
-5.79609375e-08,1.80068750e-01
-5.79209375e-08,1.80121875e-01
-5.78809375e-08,1.80082812e-01
-5.78409375e-08,1.80115625e-01
-5.78009375e-08,1.80085938e-01
-5.77609375e-08,1.80114063e-01
-5.77209375e-08,1.80085938e-01
-5.76809375e-08,1.80117187e-01
-5.76409375e-08,1.80079688e-01
-5.76009375e-08,1.80129687e-01
-5.75609375e-08,1.80046875e-01
-5.75209375e-08,1.80306250e-01
-5.74809375e-08,1.80557812e-01
-5.74409375e-08,1.80465625e-01
-5.74009375e-08,1.80526563e-01
-5.73609375e-08,1.80478125e-01
-5.73209375e-08,1.80521875e-01
-5.72809375e-08,1.80478125e-01
-5.72409375e-08,1.80523437e-01
-5.72009375e-08,1.80473438e-01
-5.71609375e-08,1.80535938e-01
-5.71209375e-08,1.80439062e-01
-5.70809375e-08,1.80712500e-01
-5.70409375e-08,1.80950000e-01
-5.70009375e-08,1.80873438e-01
-5.69609375e-08,1.80917188e-01
-5.69209375e-08,1.80887500e-01
-5.68809375e-08,1.80909375e-01
-5.68409375e-08,1.80892187e-01
-5.68009375e-08,1.80906250e-01
-5.67609375e-08,1.80895313e-01
-5.67209375e-08,1.80904687e-01
-5.66809375e-08,1.80896875e-01
-5.66409375e-08,1.80903125e-01
-5.66009375e-08,1.80896875e-01
-5.65609375e-08,1.80903125e-01
-5.65209375e-08,1.80898438e-01
-5.64809375e-08,1.80901563e-01
-5.64409375e-08,1.80898438e-01
-5.64009375e-08,1.80901563e-01
-5.63609375e-08,1.80898438e-01
-5.63209375e-08,1.80901563e-01
-5.62809375e-08,1.80898438e-01
-5.62409375e-08,1.80901563e-01
-5.62009375e-08,1.80898438e-01
-5.61609375e-08,1.80901563e-01
-5.61209375e-08,1.80900000e-01
-5.60809375e-08,1.80900000e-01
-5.60409375e-08,1.80900000e-01
-5.60009375e-08,1.80900000e-01
-5.59609375e-08,1.80900000e-01
-5.59209375e-08,1.80900000e-01
-5.58809375e-08,1.80900000e-01
-5.58409375e-08,1.80900000e-01
-5.58009375e-08,1.80900000e-01
-5.57609375e-08,1.80900000e-01
-5.57209375e-08,1.80900000e-01
-5.56809375e-08,1.80900000e-01
-5.56409375e-08,1.80900000e-01
-5.56009375e-08,1.80900000e-01
-5.55609375e-08,1.80900000e-01
-5.55209375e-08,1.80900000e-01
-5.54809375e-08,1.80900000e-01
-5.54409375e-08,1.80900000e-01
-5.54009375e-08,1.80900000e-01
-5.53609375e-08,1.80900000e-01
-5.53209375e-08,1.80900000e-01
-5.52809375e-08,1.80900000e-01
-5.52409375e-08,1.80900000e-01
-5.52009375e-08,1.80900000e-01
-5.51609375e-08,1.80900000e-01
-5.51209375e-08,1.80898438e-01
-5.50809375e-08,1.80901563e-01
-5.50409375e-08,1.80898438e-01
-5.50009375e-08,1.80901563e-01
-5.49609375e-08,1.80898438e-01
-5.49209375e-08,1.80901563e-01
-5.48809375e-08,1.80898438e-01
-5.48409375e-08,1.80901563e-01
-5.48009375e-08,1.80898438e-01
-5.47609375e-08,1.80901563e-01
-5.47209375e-08,1.80898438e-01
-5.46809375e-08,1.80901563e-01
-5.46409375e-08,1.80898438e-01
-5.46009375e-08,1.80903125e-01
-5.45609375e-08,1.80896875e-01
-5.45209375e-08,1.80903125e-01
-5.44809375e-08,1.80896875e-01
-5.44409375e-08,1.80903125e-01
-5.44009375e-08,1.80895313e-01
-5.43609375e-08,1.80904687e-01
-5.43209375e-08,1.80895313e-01
-5.42809375e-08,1.80906250e-01
-5.42409375e-08,1.80893750e-01
-5.42009375e-08,1.80907813e-01
-5.41609375e-08,1.80889063e-01
-5.41209375e-08,1.80914063e-01
-5.40809375e-08,1.80881250e-01
-5.40409375e-08,1.80928125e-01
-5.40009375e-08,1.80846875e-01
-5.39609375e-08,1.81106250e-01
-5.39209375e-08,1.81356250e-01
-5.38809375e-08,1.81267188e-01
-5.38409375e-08,1.81323438e-01
-5.38009375e-08,1.81281250e-01
-5.37609375e-08,1.81317188e-01
-5.37209375e-08,1.81285937e-01
-5.36809375e-08,1.81314063e-01
-5.36409375e-08,1.81287500e-01
-5.36009375e-08,1.81312500e-01
-5.35609375e-08,1.81287500e-01
-5.35209375e-08,1.81312500e-01
-5.34809375e-08,1.81287500e-01
-5.34409375e-08,1.81314063e-01
-5.34009375e-08,1.81285937e-01
-5.33609375e-08,1.81317188e-01
-5.33209375e-08,1.81281250e-01
-5.32809375e-08,1.81323438e-01
-5.32409375e-08,1.81265625e-01
-5.32009375e-08,1.81357812e-01
-5.31609375e-08,1.81089063e-01
-5.31209375e-08,1.80848438e-01
-5.30809375e-08,1.80928125e-01
-5.30409375e-08,1.80881250e-01
-5.30009375e-08,1.80912500e-01
-5.29609375e-08,1.80889063e-01
-5.29209375e-08,1.80907813e-01
-5.28809375e-08,1.80893750e-01
-5.28409375e-08,1.80906250e-01
-5.28009375e-08,1.80895313e-01
-5.27609375e-08,1.80904687e-01
-5.27209375e-08,1.80895313e-01
-5.26809375e-08,1.80903125e-01
-5.26409375e-08,1.80896875e-01
-5.26009375e-08,1.80903125e-01
-5.25609375e-08,1.80896875e-01
-5.25209375e-08,1.80903125e-01
-5.24809375e-08,1.80898438e-01
-5.24409375e-08,1.80901563e-01
-5.24009375e-08,1.80898438e-01
-5.23609375e-08,1.80901563e-01
-5.23209375e-08,1.80898438e-01
-5.22809375e-08,1.80901563e-01
-5.22409375e-08,1.80898438e-01
-5.22009375e-08,1.80901563e-01
-5.21609375e-08,1.80898438e-01
-5.21209375e-08,1.80901563e-01
-5.20809375e-08,1.80900000e-01
-5.20409375e-08,1.80900000e-01
-5.20009375e-08,1.80900000e-01
-5.19609375e-08,1.80900000e-01
-5.19209375e-08,1.80900000e-01
-5.18809375e-08,1.80900000e-01
-5.18409375e-08,1.80900000e-01
-5.18009375e-08,1.80900000e-01
-5.17609375e-08,1.80900000e-01
-5.17209375e-08,1.80898438e-01
-5.16809375e-08,1.80901563e-01
-5.16409375e-08,1.80898438e-01
-5.16009375e-08,1.80901563e-01
-5.15609375e-08,1.80896875e-01
-5.15209375e-08,1.80903125e-01
-5.14809375e-08,1.80896875e-01
-5.14409375e-08,1.80904687e-01
-5.14009375e-08,1.80893750e-01
-5.13609375e-08,1.80907813e-01
-5.13209375e-08,1.80890625e-01
-5.12809375e-08,1.80912500e-01
-5.12409375e-08,1.80882813e-01
-5.12009375e-08,1.80926562e-01
-5.11609375e-08,1.80848438e-01
-5.11209375e-08,1.81104688e-01
-5.10809375e-08,1.81357812e-01
-5.10409375e-08,1.81265625e-01
-5.10009375e-08,1.81325000e-01
-5.09609375e-08,1.81279688e-01
-5.09209375e-08,1.81317188e-01
-5.08809375e-08,1.81285937e-01
-5.08409375e-08,1.81312500e-01
-5.08009375e-08,1.81287500e-01
-5.07609375e-08,1.81310938e-01
-5.07209375e-08,1.81289063e-01
-5.06809375e-08,1.81310938e-01
-5.06409375e-08,1.81290625e-01
-5.06009375e-08,1.81309375e-01
-5.05609375e-08,1.81290625e-01
-5.05209375e-08,1.81309375e-01
-5.04809375e-08,1.81290625e-01
-5.04409375e-08,1.81309375e-01
-5.04009375e-08,1.81290625e-01
-5.03609375e-08,1.81309375e-01
-5.03209375e-08,1.81290625e-01
-5.02809375e-08,1.81309375e-01
-5.02409375e-08,1.81290625e-01
-5.02009375e-08,1.81309375e-01
-5.01609375e-08,1.81290625e-01
-5.01209375e-08,1.81309375e-01
-5.00809375e-08,1.81290625e-01
-5.00409375e-08,1.81309375e-01
-5.00009375e-08,1.81289063e-01
-4.99609375e-08,1.81310938e-01
-4.99209375e-08,1.81289063e-01
-4.98809375e-08,1.81310938e-01
-4.98409375e-08,1.81287500e-01
-4.98009375e-08,1.81312500e-01
-4.97609375e-08,1.81285937e-01
-4.97209375e-08,1.81315625e-01
-4.96809375e-08,1.81282813e-01
-4.96409375e-08,1.81318750e-01
-4.96009375e-08,1.81278125e-01
-4.95609375e-08,1.81326563e-01
-4.95209375e-08,1.81262500e-01
-4.94809375e-08,1.81362500e-01
-4.94409375e-08,1.81084375e-01
-4.94009375e-08,1.80853125e-01
-4.93609375e-08,1.80921875e-01
-4.93209375e-08,1.80887500e-01
-4.92809375e-08,1.80907813e-01
-4.92409375e-08,1.80896875e-01
-4.92009375e-08,1.80901563e-01
-4.91609375e-08,1.80901563e-01
-4.91209375e-08,1.80896875e-01
-4.90809375e-08,1.80904687e-01
-4.90409375e-08,1.80892187e-01
-4.90009375e-08,1.80909375e-01
-4.89609375e-08,1.80885938e-01
-4.89209375e-08,1.80918750e-01
-4.88809375e-08,1.80870313e-01
-4.88409375e-08,1.80954688e-01
-4.88009375e-08,1.80692188e-01
-4.87609375e-08,1.80445313e-01
-4.87209375e-08,1.80529688e-01
-4.86809375e-08,1.80479688e-01
-4.86409375e-08,1.80515625e-01
-4.86009375e-08,1.80487500e-01
-4.85609375e-08,1.80509375e-01
-4.85209375e-08,1.80492188e-01
-4.84809375e-08,1.80507813e-01
-4.84409375e-08,1.80493750e-01
-4.84009375e-08,1.80504688e-01
-4.83609375e-08,1.80495313e-01
-4.83209375e-08,1.80504688e-01
-4.82809375e-08,1.80496875e-01
-4.82409375e-08,1.80503125e-01
-4.82009375e-08,1.80496875e-01
-4.81609375e-08,1.80501563e-01
-4.81209375e-08,1.80498437e-01
-4.80809375e-08,1.80501563e-01
-4.80409375e-08,1.80498437e-01
-4.80009375e-08,1.80501563e-01
-4.79609375e-08,1.80500000e-01
-4.79209375e-08,1.80500000e-01
-4.78809375e-08,1.80500000e-01
-4.78409375e-08,1.80500000e-01
-4.78009375e-08,1.80500000e-01
-4.77609375e-08,1.80500000e-01
-4.77209375e-08,1.80501563e-01
-4.76809375e-08,1.80498437e-01
-4.76409375e-08,1.80501563e-01
-4.76009375e-08,1.80498437e-01
-4.75609375e-08,1.80501563e-01
-4.75209375e-08,1.80498437e-01
-4.74809375e-08,1.80503125e-01
-4.74409375e-08,1.80496875e-01
-4.74009375e-08,1.80503125e-01
-4.73609375e-08,1.80496875e-01
-4.73209375e-08,1.80504688e-01
-4.72809375e-08,1.80495313e-01
-4.72409375e-08,1.80504688e-01
-4.72009375e-08,1.80493750e-01
-4.71609375e-08,1.80506250e-01
-4.71209375e-08,1.80492188e-01
-4.70809375e-08,1.80509375e-01
-4.70409375e-08,1.80489063e-01
-4.70009375e-08,1.80512500e-01
-4.69609375e-08,1.80484375e-01
-4.69209375e-08,1.80521875e-01
-4.68809375e-08,1.80468750e-01
-4.68409375e-08,1.80556250e-01
-4.68009375e-08,1.80290625e-01
-4.67609375e-08,1.80046875e-01
-4.67209375e-08,1.80128125e-01
-4.66809375e-08,1.80081250e-01
-4.66409375e-08,1.80114063e-01
-4.66009375e-08,1.80090625e-01
-4.65609375e-08,1.80107813e-01
-4.65209375e-08,1.80093750e-01
-4.64809375e-08,1.80103125e-01
-4.64409375e-08,1.80098438e-01
-4.64009375e-08,1.80101563e-01
-4.63609375e-08,1.80101563e-01
-4.63209375e-08,1.80096875e-01
-4.62809375e-08,1.80104687e-01
-4.62409375e-08,1.80090625e-01
-4.62009375e-08,1.80114063e-01
-4.61609375e-08,1.80076563e-01
-4.61209375e-08,1.80148438e-01
-4.60809375e-08,1.79898438e-01
-4.60409375e-08,1.79640625e-01
-4.60009375e-08,1.79735937e-01
-4.59609375e-08,1.79673438e-01
-4.59209375e-08,1.79721875e-01
-4.58809375e-08,1.79681250e-01
-4.58409375e-08,1.79717188e-01
-4.58009375e-08,1.79684375e-01
-4.57609375e-08,1.79714062e-01
-4.57209375e-08,1.79685938e-01
-4.56809375e-08,1.79712500e-01
-4.56409375e-08,1.79687500e-01
-4.56009375e-08,1.79712500e-01
-4.55609375e-08,1.79687500e-01
-4.55209375e-08,1.79712500e-01
-4.54809375e-08,1.79687500e-01
-4.54409375e-08,1.79712500e-01
-4.54009375e-08,1.79687500e-01
-4.53609375e-08,1.79714062e-01
-4.53209375e-08,1.79684375e-01
-4.52809375e-08,1.79717188e-01
-4.52409375e-08,1.79679688e-01
-4.52009375e-08,1.79725000e-01
-4.51609375e-08,1.79665625e-01
-4.51209375e-08,1.79759375e-01
-4.50809375e-08,1.79487500e-01
-4.50409375e-08,1.79250000e-01
-4.50009375e-08,1.79326563e-01
-4.49609375e-08,1.79282812e-01
-4.49209375e-08,1.79312500e-01
-4.48809375e-08,1.79290625e-01
-4.48409375e-08,1.79307812e-01
-4.48009375e-08,1.79293750e-01
-4.47609375e-08,1.79304688e-01
-4.47209375e-08,1.79295312e-01
-4.46809375e-08,1.79304688e-01
-4.46409375e-08,1.79296875e-01
-4.46009375e-08,1.79303125e-01
-4.45609375e-08,1.79296875e-01
-4.45209375e-08,1.79303125e-01
-4.44809375e-08,1.79296875e-01
-4.44409375e-08,1.79301563e-01
-4.44009375e-08,1.79298438e-01
-4.43609375e-08,1.79301563e-01
-4.43209375e-08,1.79298438e-01
-4.42809375e-08,1.79301563e-01
-4.42409375e-08,1.79298438e-01
-4.42009375e-08,1.79301563e-01
-4.41609375e-08,1.79298438e-01
-4.41209375e-08,1.79301563e-01
-4.40809375e-08,1.79298438e-01
-4.40409375e-08,1.79301563e-01
-4.40009375e-08,1.79298438e-01
-4.39609375e-08,1.79301563e-01
-4.39209375e-08,1.79298438e-01
-4.38809375e-08,1.79301563e-01
-4.38409375e-08,1.79298438e-01
-4.38009375e-08,1.79301563e-01
-4.37609375e-08,1.79298438e-01
-4.37209375e-08,1.79301563e-01
-4.36809375e-08,1.79298438e-01
-4.36409375e-08,1.79301563e-01
-4.36009375e-08,1.79298438e-01
-4.35609375e-08,1.79303125e-01
-4.35209375e-08,1.79296875e-01
-4.34809375e-08,1.79303125e-01
-4.34409375e-08,1.79296875e-01
-4.34009375e-08,1.79303125e-01
-4.33609375e-08,1.79296875e-01
-4.33209375e-08,1.79303125e-01
-4.32809375e-08,1.79296875e-01
-4.32409375e-08,1.79304688e-01
-4.32009375e-08,1.79295312e-01
-4.31609375e-08,1.79304688e-01
-4.31209375e-08,1.79293750e-01
-4.30809375e-08,1.79306250e-01
-4.30409375e-08,1.79292188e-01
-4.30009375e-08,1.79309375e-01
-4.29609375e-08,1.79289063e-01
-4.29209375e-08,1.79314063e-01
-4.28809375e-08,1.79281250e-01
-4.28409375e-08,1.79328125e-01
-4.28009375e-08,1.79246875e-01
-4.27609375e-08,1.79506250e-01
-4.27209375e-08,1.79756250e-01
-4.26809375e-08,1.79667188e-01
-4.26409375e-08,1.79723437e-01
-4.26009375e-08,1.79681250e-01
-4.25609375e-08,1.79715625e-01
-4.25209375e-08,1.79685938e-01
-4.24809375e-08,1.79712500e-01
-4.24409375e-08,1.79687500e-01
-4.24009375e-08,1.79712500e-01
-4.23609375e-08,1.79687500e-01
-4.23209375e-08,1.79714062e-01
-4.22809375e-08,1.79684375e-01
-4.22409375e-08,1.79717188e-01
-4.22009375e-08,1.79678125e-01
-4.21609375e-08,1.79731250e-01
-4.21209375e-08,1.79643750e-01
-4.20809375e-08,1.79909375e-01
-4.20409375e-08,1.80154687e-01
-4.20009375e-08,1.80068750e-01
-4.19609375e-08,1.80121875e-01
-4.19209375e-08,1.80082812e-01
-4.18809375e-08,1.80114063e-01
-4.18409375e-08,1.80087500e-01
-4.18009375e-08,1.80112500e-01
-4.17609375e-08,1.80087500e-01
-4.17209375e-08,1.80112500e-01
-4.16809375e-08,1.80087500e-01
-4.16409375e-08,1.80114063e-01
-4.16009375e-08,1.80084375e-01
-4.15609375e-08,1.80118750e-01
-4.15209375e-08,1.80076563e-01
-4.14809375e-08,1.80132813e-01
-4.14409375e-08,1.80042188e-01
-4.14009375e-08,1.80309375e-01
-4.13609375e-08,1.80551563e-01
-4.13209375e-08,1.80471875e-01
-4.12809375e-08,1.80518750e-01
-4.12409375e-08,1.80485937e-01
-4.12009375e-08,1.80510937e-01
-4.11609375e-08,1.80490625e-01
-4.11209375e-08,1.80507813e-01
-4.10809375e-08,1.80492188e-01
-4.10409375e-08,1.80506250e-01
-4.10009375e-08,1.80493750e-01
-4.09609375e-08,1.80504688e-01
-4.09209375e-08,1.80495313e-01
-4.08809375e-08,1.80504688e-01
-4.08409375e-08,1.80495313e-01
-4.08009375e-08,1.80503125e-01
-4.07609375e-08,1.80496875e-01
-4.07209375e-08,1.80503125e-01
-4.06809375e-08,1.80496875e-01
-4.06409375e-08,1.80503125e-01
-4.06009375e-08,1.80496875e-01
-4.05609375e-08,1.80503125e-01
-4.05209375e-08,1.80496875e-01
-4.04809375e-08,1.80503125e-01
-4.04409375e-08,1.80496875e-01
-4.04009375e-08,1.80503125e-01
-4.03609375e-08,1.80496875e-01
-4.03209375e-08,1.80503125e-01
-4.02809375e-08,1.80496875e-01
-4.02409375e-08,1.80503125e-01
-4.02009375e-08,1.80496875e-01
-4.01609375e-08,1.80503125e-01
-4.01209375e-08,1.80496875e-01
-4.00809375e-08,1.80503125e-01
-4.00409375e-08,1.80496875e-01
-4.00009375e-08,1.80503125e-01
-3.99609375e-08,1.80496875e-01
-3.99209375e-08,1.80503125e-01
-3.98809375e-08,1.80496875e-01
-3.98409375e-08,1.80503125e-01
-3.98009375e-08,1.80496875e-01
-3.97609375e-08,1.80503125e-01
-3.97209375e-08,1.80496875e-01
-3.96809375e-08,1.80503125e-01
-3.96409375e-08,1.80496875e-01
-3.96009375e-08,1.80504688e-01
-3.95609375e-08,1.80495313e-01
-3.95209375e-08,1.80504688e-01
-3.94809375e-08,1.80493750e-01
-3.94409375e-08,1.80506250e-01
-3.94009375e-08,1.80492188e-01
-3.93609375e-08,1.80509375e-01
-3.93209375e-08,1.80489063e-01
-3.92809375e-08,1.80514063e-01
-3.92409375e-08,1.80481250e-01
-3.92009375e-08,1.80528125e-01
-3.91609375e-08,1.80446875e-01
-3.91209375e-08,1.80706250e-01
-3.90809375e-08,1.80956250e-01
-3.90409375e-08,1.80867187e-01
-3.90009375e-08,1.80923438e-01
-3.89609375e-08,1.80881250e-01
-3.89209375e-08,1.80915625e-01
-3.88809375e-08,1.80885938e-01
-3.88409375e-08,1.80914063e-01
-3.88009375e-08,1.80887500e-01
-3.87609375e-08,1.80912500e-01
-3.87209375e-08,1.80887500e-01
-3.86809375e-08,1.80912500e-01
-3.86409375e-08,1.80887500e-01
-3.86009375e-08,1.80912500e-01
-3.85609375e-08,1.80885938e-01
-3.85209375e-08,1.80914063e-01
