trails/0bdfa5e45fec98341abdd20552c140b4/aes_ch1_20250507120424131.csv

Model,MSO66B
Label,
Waveform Type,ANALOG
Horizontal Units,s
Sample Interval,4.00000000e-11
Record Length,10000
Zero Index,1599.84765625
Vertical Units,A
ANALOG_Thumbnail,
yOffset,1.84500000e-01
yPosition,8.40000000e-01

Labels,
TIME,CH1
-6.39939063e-08,1.94710938e-01
-6.39539062e-08,1.94951563e-01
-6.39139062e-08,1.94871875e-01
-6.38739062e-08,1.94918750e-01
-6.38339062e-08,1.94885937e-01
-6.37939062e-08,1.94910937e-01
-6.37539062e-08,1.94892188e-01
-6.37139063e-08,1.94906250e-01
-6.36739062e-08,1.94895313e-01
-6.36339062e-08,1.94904688e-01
-6.35939062e-08,1.94896875e-01
-6.35539062e-08,1.94903125e-01
-6.35139062e-08,1.94898438e-01
-6.34739062e-08,1.94901563e-01
-6.34339063e-08,1.94898438e-01
-6.33939062e-08,1.94900000e-01
-6.33539062e-08,1.94900000e-01
-6.33139062e-08,1.94898438e-01
-6.32739062e-08,1.94901563e-01
-6.32339062e-08,1.94898438e-01
-6.31939062e-08,1.94903125e-01
-6.31539063e-08,1.94896875e-01
-6.31139062e-08,1.94904688e-01
-6.30739062e-08,1.94893750e-01
-6.30339062e-08,1.94907812e-01
-6.29939062e-08,1.94890625e-01
-6.29539062e-08,1.94912500e-01
-6.29139062e-08,1.94882813e-01
-6.28739063e-08,1.94928125e-01
-6.28339062e-08,1.94846875e-01
-6.27939062e-08,1.95106250e-01
-6.27539062e-08,1.95356250e-01
-6.27139062e-08,1.95267187e-01
-6.26739062e-08,1.95323438e-01
-6.26339062e-08,1.95281250e-01
-6.25939063e-08,1.95315625e-01
-6.25539062e-08,1.95285938e-01
-6.25139062e-08,1.95312500e-01
-6.24739062e-08,1.95289062e-01
-6.24339062e-08,1.95310938e-01
-6.23939063e-08,1.95290625e-01
-6.23539062e-08,1.95309375e-01
-6.23139063e-08,1.95290625e-01
-6.22739062e-08,1.95309375e-01
-6.22339062e-08,1.95290625e-01
-6.21939062e-08,1.95309375e-01
-6.21539062e-08,1.95290625e-01
-6.21139063e-08,1.95310938e-01
-6.20739062e-08,1.95289062e-01
-6.20339063e-08,1.95312500e-01
-6.19939062e-08,1.95285938e-01
-6.19539062e-08,1.95317188e-01
-6.19139062e-08,1.95278125e-01
-6.18739062e-08,1.95331250e-01
-6.18339063e-08,1.95243750e-01
-6.17939062e-08,1.95507813e-01
-6.17539063e-08,1.95754687e-01
-6.17139062e-08,1.95668750e-01
-6.16739062e-08,1.95721875e-01
-6.16339062e-08,1.95682812e-01
-6.15939062e-08,1.95714063e-01
-6.15539063e-08,1.95687500e-01
-6.15139062e-08,1.95712500e-01
-6.14739063e-08,1.95689063e-01
-6.14339062e-08,1.95710938e-01
-6.13939062e-08,1.95689063e-01
-6.13539062e-08,1.95710938e-01
-6.13139062e-08,1.95687500e-01
-6.12739063e-08,1.95714063e-01
-6.12339062e-08,1.95684375e-01
-6.11939063e-08,1.95718750e-01
-6.11539062e-08,1.95676563e-01
-6.11139062e-08,1.95732813e-01
-6.10739062e-08,1.95643750e-01
-6.10339062e-08,1.95909375e-01
-6.09939063e-08,1.96151563e-01
-6.09539062e-08,1.96071875e-01
-6.09139063e-08,1.96118750e-01
-6.08739062e-08,1.96085938e-01
-6.08339062e-08,1.96110937e-01
-6.07939062e-08,1.96090625e-01
-6.07539062e-08,1.96107813e-01
-6.07139063e-08,1.96092188e-01
-6.06739062e-08,1.96106250e-01
-6.06339063e-08,1.96093750e-01
-6.05939062e-08,1.96104688e-01
-6.05539062e-08,1.96095313e-01
-6.05139062e-08,1.96104688e-01
-6.04739062e-08,1.96095313e-01
-6.04339063e-08,1.96103125e-01
-6.03939062e-08,1.96096875e-01
-6.03539062e-08,1.96103125e-01
-6.03139062e-08,1.96096875e-01
-6.02739062e-08,1.96103125e-01
-6.02339062e-08,1.96096875e-01
-6.01939062e-08,1.96103125e-01
-6.01539063e-08,1.96096875e-01
-6.01139062e-08,1.96103125e-01
-6.00739062e-08,1.96096875e-01
-6.00339062e-08,1.96103125e-01
-5.99939062e-08,1.96096875e-01
-5.99539062e-08,1.96103125e-01
-5.99139062e-08,1.96096875e-01
-5.98739063e-08,1.96103125e-01
-5.98339062e-08,1.96096875e-01
-5.97939062e-08,1.96103125e-01
-5.97539062e-08,1.96095313e-01
-5.97139062e-08,1.96104688e-01
-5.96739062e-08,1.96093750e-01
-5.96339062e-08,1.96106250e-01
-5.95939062e-08,1.96092188e-01
-5.95539062e-08,1.96109375e-01
-5.95139062e-08,1.96087500e-01
-5.94739062e-08,1.96117188e-01
-5.94339062e-08,1.96073438e-01
-5.93939062e-08,1.96151563e-01
-5.93539062e-08,1.95896875e-01
-5.93139062e-08,1.95640625e-01
-5.92739062e-08,1.95735938e-01
-5.92339062e-08,1.95673438e-01
-5.91939062e-08,1.95721875e-01
-5.91539062e-08,1.95679688e-01
-5.91139062e-08,1.95718750e-01
-5.90739062e-08,1.95681250e-01
-5.90339062e-08,1.95718750e-01
-5.89939062e-08,1.95681250e-01
-5.89539062e-08,1.95720312e-01
-5.89139062e-08,1.95676563e-01
-5.88739062e-08,1.95728125e-01
-5.88339062e-08,1.95662500e-01
-5.87939062e-08,1.95762500e-01
-5.87539062e-08,1.95484375e-01
-5.87139062e-08,1.95253125e-01
-5.86739062e-08,1.95323438e-01
-5.86339062e-08,1.95285938e-01
-5.85939062e-08,1.95307813e-01
-5.85539062e-08,1.95295313e-01
-5.85139062e-08,1.95303125e-01
-5.84739062e-08,1.95300000e-01
-5.84339062e-08,1.95298438e-01
-5.83939062e-08,1.95303125e-01
-5.83539062e-08,1.95295313e-01
-5.83139062e-08,1.95307813e-01
-5.82739062e-08,1.95289062e-01
-5.82339062e-08,1.95317188e-01
-5.81939062e-08,1.95273438e-01
-5.81539062e-08,1.95351563e-01
-5.81139062e-08,1.95095313e-01
-5.80739062e-08,1.94842188e-01
-5.80339062e-08,1.94932812e-01
-5.79939062e-08,1.94876563e-01
-5.79539062e-08,1.94918750e-01
-5.79139062e-08,1.94884375e-01
-5.78739062e-08,1.94914063e-01
-5.78339062e-08,1.94887500e-01
-5.77939062e-08,1.94910937e-01
-5.77539062e-08,1.94889063e-01
-5.77139062e-08,1.94910937e-01
-5.76739062e-08,1.94890625e-01
-5.76339062e-08,1.94909375e-01
-5.75939062e-08,1.94890625e-01
-5.75539062e-08,1.94910937e-01
-5.75139062e-08,1.94889063e-01
-5.74739062e-08,1.94910937e-01
-5.74339062e-08,1.94887500e-01
-5.73939062e-08,1.94914063e-01
-5.73539062e-08,1.94882813e-01
-5.73139062e-08,1.94921875e-01
-5.72739062e-08,1.94868750e-01
-5.72339062e-08,1.94956250e-01
-5.71939062e-08,1.94692188e-01
-5.71539062e-08,1.94445313e-01
-5.71139062e-08,1.94529687e-01
-5.70739062e-08,1.94478125e-01
-5.70339062e-08,1.94517188e-01
-5.69939062e-08,1.94485938e-01
-5.69539062e-08,1.94512500e-01
-5.69139062e-08,1.94489063e-01
-5.68739062e-08,1.94510938e-01
-5.68339062e-08,1.94490625e-01
-5.67939062e-08,1.94509375e-01
-5.67539062e-08,1.94490625e-01
-5.67139062e-08,1.94509375e-01
-5.66739062e-08,1.94490625e-01
-5.66339062e-08,1.94510938e-01
-5.65939062e-08,1.94489063e-01
-5.65539062e-08,1.94510938e-01
-5.65139062e-08,1.94487500e-01
-5.64739062e-08,1.94514063e-01
-5.64339062e-08,1.94484375e-01
-5.63939062e-08,1.94518750e-01
-5.63539062e-08,1.94475000e-01
-5.63139062e-08,1.94534375e-01
-5.62739062e-08,1.94440625e-01
-5.62339062e-08,1.94712500e-01
-5.61939062e-08,1.94948438e-01
-5.61539062e-08,1.94875000e-01
-5.61139062e-08,1.94915625e-01
-5.60739062e-08,1.94890625e-01
-5.60339062e-08,1.94904688e-01
-5.59939062e-08,1.94898438e-01
-5.59539062e-08,1.94898438e-01
-5.59139062e-08,1.94904688e-01
-5.58739062e-08,1.94889063e-01
-5.58339062e-08,1.94920312e-01
-5.57939062e-08,1.94854688e-01
-5.57539062e-08,1.95098437e-01
-5.57139062e-08,1.95362500e-01
-5.56739062e-08,1.95260938e-01
-5.56339062e-08,1.95331250e-01
-5.55939062e-08,1.95273438e-01
-5.55539062e-08,1.95325000e-01
-5.55139062e-08,1.95275000e-01
-5.54739062e-08,1.95326563e-01
-5.54339062e-08,1.95270313e-01
-5.53939062e-08,1.95337500e-01
-5.53539062e-08,1.95237500e-01
-5.53139062e-08,1.95514063e-01
-5.52739062e-08,1.95748438e-01
-5.52339062e-08,1.95675000e-01
-5.51939062e-08,1.95717188e-01
-5.51539062e-08,1.95687500e-01
-5.51139062e-08,1.95709375e-01
-5.50739062e-08,1.95692188e-01
-5.50339062e-08,1.95706250e-01
-5.49939062e-08,1.95693750e-01
-5.49539062e-08,1.95706250e-01
-5.49139062e-08,1.95693750e-01
-5.48739062e-08,1.95706250e-01
-5.48339062e-08,1.95693750e-01
-5.47939062e-08,1.95706250e-01
-5.47539062e-08,1.95693750e-01
-5.47139062e-08,1.95706250e-01
-5.46739062e-08,1.95692188e-01
-5.46339062e-08,1.95707813e-01
-5.45939062e-08,1.95690625e-01
-5.45539062e-08,1.95710938e-01
-5.45139062e-08,1.95687500e-01
-5.44739062e-08,1.95715625e-01
-5.44339062e-08,1.95679688e-01
-5.43939062e-08,1.95729687e-01
-5.43539062e-08,1.95645313e-01
-5.43139062e-08,1.95907813e-01
-5.42739062e-08,1.96154688e-01
-5.42339062e-08,1.96070313e-01
-5.41939062e-08,1.96120313e-01
-5.41539062e-08,1.96084375e-01
-5.41139062e-08,1.96112500e-01
-5.40739062e-08,1.96089063e-01
-5.40339062e-08,1.96109375e-01
-5.39939062e-08,1.96092188e-01
-5.39539062e-08,1.96107813e-01
-5.39139062e-08,1.96093750e-01
-5.38739062e-08,1.96106250e-01
-5.38339062e-08,1.96093750e-01
-5.37939062e-08,1.96104688e-01
-5.37539062e-08,1.96095313e-01
-5.37139062e-08,1.96104688e-01
-5.36739062e-08,1.96095313e-01
-5.36339062e-08,1.96104688e-01
-5.35939062e-08,1.96096875e-01
-5.35539062e-08,1.96103125e-01
-5.35139062e-08,1.96096875e-01
-5.34739062e-08,1.96103125e-01
-5.34339062e-08,1.96096875e-01
-5.33939062e-08,1.96103125e-01
-5.33539062e-08,1.96096875e-01
-5.33139062e-08,1.96103125e-01
-5.32739062e-08,1.96098438e-01
-5.32339062e-08,1.96101562e-01
-5.31939062e-08,1.96098438e-01
-5.31539062e-08,1.96101562e-01
-5.31139062e-08,1.96098438e-01
-5.30739063e-08,1.96101562e-01
-5.30339062e-08,1.96098438e-01
-5.29939062e-08,1.96101562e-01
-5.29539062e-08,1.96098438e-01
-5.29139062e-08,1.96101562e-01
-5.28739062e-08,1.96098438e-01
-5.28339062e-08,1.96101562e-01
-5.27939062e-08,1.96100000e-01
-5.27539062e-08,1.96100000e-01
-5.27139062e-08,1.96100000e-01
-5.26739062e-08,1.96100000e-01
-5.26339062e-08,1.96100000e-01
-5.25939062e-08,1.96100000e-01
-5.25539062e-08,1.96100000e-01
-5.25139062e-08,1.96098438e-01
-5.24739062e-08,1.96101562e-01
-5.24339062e-08,1.96098438e-01
-5.23939062e-08,1.96101562e-01
-5.23539062e-08,1.96096875e-01
-5.23139062e-08,1.96103125e-01
-5.22739062e-08,1.96096875e-01
-5.22339062e-08,1.96104688e-01
-5.21939062e-08,1.96093750e-01
-5.21539062e-08,1.96107813e-01
-5.21139062e-08,1.96090625e-01
-5.20739062e-08,1.96112500e-01
-5.20339062e-08,1.96082813e-01
-5.19939062e-08,1.96126563e-01
-5.19539062e-08,1.96048438e-01
-5.19139062e-08,1.96304688e-01
-5.18739062e-08,1.96557813e-01
-5.18339062e-08,1.96465625e-01
-5.17939062e-08,1.96525000e-01
-5.17539062e-08,1.96481250e-01
-5.17139062e-08,1.96517187e-01
-5.16739062e-08,1.96485938e-01
-5.16339062e-08,1.96514063e-01
-5.15939062e-08,1.96487500e-01
-5.15539062e-08,1.96512500e-01
-5.15139062e-08,1.96489063e-01
-5.14739062e-08,1.96510938e-01
-5.14339062e-08,1.96489063e-01
-5.13939062e-08,1.96510938e-01
-5.13539062e-08,1.96489063e-01
-5.13139062e-08,1.96510938e-01
-5.12739062e-08,1.96487500e-01
-5.12339062e-08,1.96512500e-01
-5.11939062e-08,1.96485938e-01
-5.11539063e-08,1.96515625e-01
-5.11139062e-08,1.96481250e-01
-5.10739062e-08,1.96523438e-01
-5.10339062e-08,1.96467188e-01
-5.09939062e-08,1.96557813e-01
-5.09539062e-08,1.96290625e-01
-5.09139062e-08,1.96046875e-01
-5.08739063e-08,1.96128125e-01
-5.08339062e-08,1.96079688e-01
-5.07939062e-08,1.96115625e-01
-5.07539062e-08,1.96087500e-01
-5.07139062e-08,1.96110937e-01
-5.06739062e-08,1.96090625e-01
-5.06339062e-08,1.96109375e-01
-5.05939062e-08,1.96092188e-01
-5.05539062e-08,1.96107813e-01
-5.05139062e-08,1.96092188e-01
-5.04739062e-08,1.96109375e-01
-5.04339062e-08,1.96090625e-01
-5.03939062e-08,1.96109375e-01
-5.03539062e-08,1.96089063e-01
-5.03139062e-08,1.96112500e-01
-5.02739062e-08,1.96084375e-01
-5.02339062e-08,1.96120313e-01
-5.01939062e-08,1.96068750e-01
-5.01539062e-08,1.96154688e-01
-5.01139062e-08,1.95892188e-01
-5.00739062e-08,1.95645313e-01
-5.00339062e-08,1.95729687e-01
-4.99939062e-08,1.95679688e-01
-4.99539062e-08,1.95715625e-01
-4.99139062e-08,1.95687500e-01
-4.98739062e-08,1.95710938e-01
-4.98339062e-08,1.95690625e-01
-4.97939062e-08,1.95707813e-01
-4.97539062e-08,1.95692188e-01
-4.97139062e-08,1.95707813e-01
-4.96739062e-08,1.95693750e-01
-4.96339062e-08,1.95706250e-01
-4.95939062e-08,1.95693750e-01
-4.95539062e-08,1.95704688e-01
-4.95139062e-08,1.95695312e-01
-4.94739062e-08,1.95704688e-01
-4.94339062e-08,1.95695312e-01
-4.93939062e-08,1.95704688e-01
-4.93539062e-08,1.95695312e-01
-4.93139062e-08,1.95704688e-01
-4.92739062e-08,1.95696875e-01
-4.92339063e-08,1.95703125e-01
-4.91939062e-08,1.95696875e-01
-4.91539062e-08,1.95703125e-01
-4.91139062e-08,1.95696875e-01
-4.90739062e-08,1.95703125e-01
-4.90339062e-08,1.95696875e-01
-4.89939062e-08,1.95703125e-01
-4.89539063e-08,1.95696875e-01
-4.89139062e-08,1.95703125e-01
-4.88739062e-08,1.95696875e-01
-4.88339062e-08,1.95703125e-01
-4.87939062e-08,1.95696875e-01
-4.87539062e-08,1.95703125e-01
-4.87139062e-08,1.95696875e-01
-4.86739063e-08,1.95703125e-01
-4.86339062e-08,1.95698438e-01
-4.85939062e-08,1.95701563e-01
-4.85539062e-08,1.95698438e-01
-4.85139062e-08,1.95701563e-01
-4.84739062e-08,1.95698438e-01
-4.84339062e-08,1.95701563e-01
-4.83939062e-08,1.95698438e-01
-4.83539062e-08,1.95701563e-01
-4.83139062e-08,1.95698438e-01
-4.82739062e-08,1.95701563e-01
-4.82339062e-08,1.95698438e-01
-4.81939062e-08,1.95701563e-01
-4.81539062e-08,1.95700000e-01
-4.81139062e-08,1.95700000e-01
-4.80739062e-08,1.95700000e-01
-4.80339062e-08,1.95700000e-01
-4.79939062e-08,1.95700000e-01
-4.79539062e-08,1.95698438e-01
-4.79139062e-08,1.95701563e-01
-4.78739062e-08,1.95698438e-01
-4.78339062e-08,1.95703125e-01
-4.77939062e-08,1.95695312e-01
-4.77539062e-08,1.95706250e-01
-4.77139062e-08,1.95692188e-01
-4.76739062e-08,1.95710938e-01
-4.76339062e-08,1.95684375e-01
-4.75939062e-08,1.95725000e-01
-4.75539062e-08,1.95650000e-01
-4.75139062e-08,1.95903125e-01
-4.74739062e-08,1.96159375e-01
-4.74339062e-08,1.96064062e-01
-4.73939062e-08,1.96126563e-01
-4.73539062e-08,1.96079688e-01
-4.73139063e-08,1.96118750e-01
-4.72739062e-08,1.96084375e-01
-4.72339062e-08,1.96114063e-01
-4.71939062e-08,1.96085938e-01
-4.71539062e-08,1.96112500e-01
-4.71139062e-08,1.96087500e-01
-4.70739062e-08,1.96112500e-01
-4.70339063e-08,1.96089063e-01
-4.69939062e-08,1.96110937e-01
-4.69539062e-08,1.96089063e-01
-4.69139062e-08,1.96110937e-01
-4.68739062e-08,1.96089063e-01
-4.68339062e-08,1.96110937e-01
-4.67939062e-08,1.96089063e-01
-4.67539063e-08,1.96110937e-01
-4.67139062e-08,1.96089063e-01
-4.66739062e-08,1.96110937e-01
-4.66339062e-08,1.96089063e-01
-4.65939062e-08,1.96110937e-01
-4.65539062e-08,1.96089063e-01
-4.65139062e-08,1.96110937e-01
-4.64739062e-08,1.96089063e-01
-4.64339062e-08,1.96110937e-01
-4.63939062e-08,1.96087500e-01
-4.63539062e-08,1.96112500e-01
-4.63139062e-08,1.96087500e-01
-4.62739062e-08,1.96112500e-01
-4.62339062e-08,1.96085938e-01
-4.61939062e-08,1.96114063e-01
-4.61539062e-08,1.96084375e-01
-4.61139062e-08,1.96115625e-01
-4.60739062e-08,1.96082813e-01
-4.60339062e-08,1.96118750e-01
-4.59939062e-08,1.96079688e-01
-4.59539062e-08,1.96123437e-01
-4.59139062e-08,1.96073438e-01
-4.58739062e-08,1.96132813e-01
-4.58339062e-08,1.96057813e-01
-4.57939062e-08,1.96168750e-01
-4.57539062e-08,1.95878125e-01
-4.57139062e-08,1.95660938e-01
-4.56739062e-08,1.95712500e-01
-4.56339062e-08,1.95698438e-01
-4.55939062e-08,1.95692188e-01
-4.55539062e-08,1.95715625e-01
-4.55139062e-08,1.95671875e-01
-4.54739062e-08,1.95754687e-01
-4.54339062e-08,1.95490625e-01
-4.53939063e-08,1.95248438e-01
-4.53539062e-08,1.95326563e-01
-4.53139062e-08,1.95284375e-01
-4.52739062e-08,1.95307813e-01
-4.52339062e-08,1.95296875e-01
-4.51939062e-08,1.95296875e-01
-4.51539062e-08,1.95309375e-01
-4.51139063e-08,1.95279688e-01
-4.50739062e-08,1.95346875e-01
-4.50339062e-08,1.95100000e-01
-4.49939062e-08,1.94839062e-01
-4.49539062e-08,1.94935938e-01
-4.49139062e-08,1.94873437e-01
-4.48739062e-08,1.94921875e-01
-4.48339063e-08,1.94882813e-01
-4.47939062e-08,1.94915625e-01
-4.47539062e-08,1.94885937e-01
-4.47139062e-08,1.94912500e-01
-4.46739062e-08,1.94887500e-01
-4.46339062e-08,1.94910937e-01
-4.45939062e-08,1.94889063e-01
-4.45539063e-08,1.94910937e-01
-4.45139062e-08,1.94890625e-01
-4.44739062e-08,1.94910937e-01
-4.44339062e-08,1.94889063e-01
-4.43939062e-08,1.94910937e-01
-4.43539062e-08,1.94887500e-01
-4.43139062e-08,1.94914063e-01
-4.42739062e-08,1.94881250e-01
-4.42339062e-08,1.94928125e-01
-4.41939062e-08,1.94848437e-01
-4.41539062e-08,1.95103125e-01
-4.41139062e-08,1.95359375e-01
-4.40739062e-08,1.95262500e-01
-4.40339062e-08,1.95329688e-01
-4.39939062e-08,1.95271875e-01
-4.39539062e-08,1.95328125e-01
-4.39139062e-08,1.95268750e-01
-4.38739062e-08,1.95340625e-01
-4.38339062e-08,1.95235938e-01
-4.37939062e-08,1.95517188e-01
-4.37539062e-08,1.95745313e-01
-4.37139062e-08,1.95679688e-01
-4.36739062e-08,1.95710938e-01
-4.36339062e-08,1.95695312e-01
-4.35939062e-08,1.95698438e-01
-4.35539062e-08,1.95706250e-01
-4.35139062e-08,1.95687500e-01
-4.34739063e-08,1.95723438e-01
-4.34339062e-08,1.95651563e-01
-4.33939062e-08,1.95901563e-01
-4.33539062e-08,1.96159375e-01
-4.33139062e-08,1.96064062e-01
-4.32739062e-08,1.96125000e-01
-4.32339062e-08,1.96079688e-01
-4.31939063e-08,1.96117188e-01
-4.31539062e-08,1.96084375e-01
-4.31139062e-08,1.96112500e-01
-4.30739062e-08,1.96087500e-01
-4.30339062e-08,1.96110937e-01
-4.29939062e-08,1.96090625e-01
-4.29539062e-08,1.96109375e-01
-4.29139063e-08,1.96092188e-01
-4.28739062e-08,1.96107813e-01
-4.28339062e-08,1.96092188e-01
-4.27939062e-08,1.96106250e-01
-4.27539062e-08,1.96093750e-01
-4.27139062e-08,1.96106250e-01
-4.26739062e-08,1.96093750e-01
-4.26339063e-08,1.96104688e-01
-4.25939062e-08,1.96095313e-01
-4.25539062e-08,1.96104688e-01
-4.25139062e-08,1.96096875e-01
-4.24739062e-08,1.96103125e-01
-4.24339062e-08,1.96096875e-01
-4.23939062e-08,1.96101562e-01
-4.23539063e-08,1.96100000e-01
-4.23139062e-08,1.96098438e-01
-4.22739062e-08,1.96103125e-01
-4.22339062e-08,1.96093750e-01
-4.21939062e-08,1.96110937e-01
-4.21539062e-08,1.96079688e-01
-4.21139062e-08,1.96145313e-01
-4.20739062e-08,1.95903125e-01
-4.20339062e-08,1.95634375e-01
-4.19939062e-08,1.95742187e-01
-4.19539062e-08,1.95667188e-01
-4.19139062e-08,1.95729687e-01
-4.18739062e-08,1.95673438e-01
-4.18339062e-08,1.95726563e-01
-4.17939062e-08,1.95673438e-01
-4.17539062e-08,1.95726563e-01
-4.17139062e-08,1.95670312e-01
-4.16739062e-08,1.95734375e-01
-4.16339062e-08,1.95656250e-01
-4.15939062e-08,1.95767187e-01
-4.15539063e-08,1.95479687e-01
-4.15139062e-08,1.95257813e-01
-4.14739062e-08,1.95318750e-01
-4.14339062e-08,1.95290625e-01
-4.13939062e-08,1.95303125e-01
-4.13539062e-08,1.95300000e-01
-4.13139062e-08,1.95298438e-01
-4.12739063e-08,1.95303125e-01
-4.12339062e-08,1.95295313e-01
-4.11939062e-08,1.95306250e-01
-4.11539062e-08,1.95292188e-01
-4.11139062e-08,1.95309375e-01
-4.10739062e-08,1.95287500e-01
-4.10339062e-08,1.95314062e-01
-4.09939063e-08,1.95282813e-01
-4.09539062e-08,1.95323438e-01
-4.09139062e-08,1.95267187e-01
-4.08739062e-08,1.95359375e-01
-4.08339062e-08,1.95087500e-01
-4.07939062e-08,1.94850000e-01
-4.07539062e-08,1.94925000e-01
-4.07139063e-08,1.94884375e-01
-4.06739062e-08,1.94909375e-01
-4.06339062e-08,1.94893750e-01
-4.05939062e-08,1.94903125e-01
-4.05539062e-08,1.94900000e-01
-4.05139062e-08,1.94896875e-01
-4.04739062e-08,1.94907812e-01
-4.04339063e-08,1.94887500e-01
-4.03939062e-08,1.94923438e-01
-4.03539062e-08,1.94851563e-01
-4.03139062e-08,1.95101562e-01
-4.02739062e-08,1.95360937e-01
-4.02339062e-08,1.95264063e-01
-4.01939062e-08,1.95326563e-01
-4.01539063e-08,1.95278125e-01
-4.01139062e-08,1.95318750e-01
-4.00739062e-08,1.95282813e-01
-4.00339062e-08,1.95315625e-01
-3.99939062e-08,1.95285938e-01
-3.99539062e-08,1.95314062e-01
-3.99139062e-08,1.95285938e-01
-3.98739062e-08,1.95314062e-01
-3.98339062e-08,1.95285938e-01
-3.97939062e-08,1.95314062e-01
-3.97539062e-08,1.95285938e-01
-3.97139062e-08,1.95315625e-01
-3.96739062e-08,1.95282813e-01
-3.96339063e-08,1.95320313e-01
-3.95939062e-08,1.95275000e-01
-3.95539062e-08,1.95334375e-01
-3.95139062e-08,1.95240625e-01
-3.94739062e-08,1.95512500e-01
-3.94339062e-08,1.95750000e-01
-3.93939062e-08,1.95673438e-01
-3.93539063e-08,1.95717188e-01
-3.93139062e-08,1.95687500e-01
-3.92739062e-08,1.95709375e-01
-3.92339062e-08,1.95692188e-01
-3.91939062e-08,1.95706250e-01
-3.91539062e-08,1.95695312e-01
-3.91139062e-08,1.95704688e-01
-3.90739063e-08,1.95696875e-01
-3.90339062e-08,1.95703125e-01
-3.89939062e-08,1.95696875e-01
-3.89539062e-08,1.95703125e-01
-3.89139062e-08,1.95698438e-01
-3.88739062e-08,1.95701563e-01
-3.88339062e-08,1.95698438e-01
-3.87939063e-08,1.95701563e-01
-3.87539062e-08,1.95698438e-01
-3.87139062e-08,1.95701563e-01
-3.86739062e-08,1.95698438e-01
-3.86339062e-08,1.95701563e-01
-3.85939062e-08,1.95698438e-01
-3.85539062e-08,1.95701563e-01
