trails/0bdfa5e45fec98341abdd20552c140b4/aes_ch1_20250507122142213.csv

Model,MSO66B
Label,
Waveform Type,ANALOG
Horizontal Units,s
Sample Interval,4.00000000e-11
Record Length,10000
Zero Index,1599.07421875
Vertical Units,A
ANALOG_Thumbnail,
yOffset,1.84500000e-01
yPosition,8.40000000e-01

Labels,
TIME,CH1
-6.39629687e-08,1.90107813e-01
-6.39229688e-08,1.90092188e-01
-6.38829687e-08,1.90109375e-01
-6.38429687e-08,1.90089063e-01
-6.38029687e-08,1.90112500e-01
-6.37629687e-08,1.90085937e-01
-6.37229688e-08,1.90117188e-01
-6.36829687e-08,1.90078125e-01
-6.36429688e-08,1.90132812e-01
-6.36029687e-08,1.90042188e-01
-6.35629687e-08,1.90310937e-01
-6.35229687e-08,1.90551562e-01
-6.34829687e-08,1.90473438e-01
-6.34429688e-08,1.90517188e-01
-6.34029687e-08,1.90489063e-01
-6.33629688e-08,1.90506250e-01
-6.33229687e-08,1.90498438e-01
-6.32829687e-08,1.90495313e-01
-6.32429687e-08,1.90514062e-01
-6.32029687e-08,1.90460938e-01
-6.31629688e-08,1.90692187e-01
-6.31229687e-08,1.90970313e-01
-6.30829688e-08,1.90853125e-01
-6.30429687e-08,1.90939063e-01
-6.30029687e-08,1.90864063e-01
-6.29629687e-08,1.90935938e-01
-6.29229687e-08,1.90860937e-01
-6.28829688e-08,1.90948438e-01
-6.28429687e-08,1.90828125e-01
-6.28029688e-08,1.91125000e-01
-6.27629687e-08,1.91337500e-01
-6.27229687e-08,1.91287500e-01
-6.26829687e-08,1.91303125e-01
-6.26429687e-08,1.91303125e-01
-6.26029688e-08,1.91292188e-01
-6.25629687e-08,1.91312500e-01
-6.25229688e-08,1.91281250e-01
-6.24829687e-08,1.91329688e-01
-6.24429687e-08,1.91245313e-01
-6.24029687e-08,1.91507813e-01
-6.23629687e-08,1.91753125e-01
-6.23229688e-08,1.91670312e-01
-6.22829687e-08,1.91720313e-01
-6.22429688e-08,1.91685938e-01
-6.22029687e-08,1.91710938e-01
-6.21629687e-08,1.91690625e-01
-6.21229687e-08,1.91707813e-01
-6.20829687e-08,1.91693750e-01
-6.20429688e-08,1.91704687e-01
-6.20029687e-08,1.91696875e-01
-6.19629688e-08,1.91703125e-01
-6.19229687e-08,1.91698438e-01
-6.18829687e-08,1.91701563e-01
-6.18429687e-08,1.91698438e-01
-6.18029687e-08,1.91700000e-01
-6.17629688e-08,1.91700000e-01
-6.17229687e-08,1.91700000e-01
-6.16829687e-08,1.91701563e-01
-6.16429687e-08,1.91698438e-01
-6.16029687e-08,1.91703125e-01
-6.15629687e-08,1.91696875e-01
-6.15229687e-08,1.91704687e-01
-6.14829688e-08,1.91693750e-01
-6.14429687e-08,1.91706250e-01
-6.14029687e-08,1.91690625e-01
-6.13629687e-08,1.91710938e-01
-6.13229687e-08,1.91685938e-01
-6.12829687e-08,1.91720313e-01
-6.12429687e-08,1.91670312e-01
-6.12029688e-08,1.91754688e-01
-6.11629687e-08,1.91492188e-01
-6.11229687e-08,1.91246875e-01
-6.10829687e-08,1.91328125e-01
-6.10429687e-08,1.91281250e-01
-6.10029687e-08,1.91312500e-01
-6.09629687e-08,1.91292188e-01
-6.09229688e-08,1.91303125e-01
-6.08829687e-08,1.91303125e-01
-6.08429687e-08,1.91285938e-01
-6.08029687e-08,1.91339063e-01
-6.07629687e-08,1.91107813e-01
-6.07229687e-08,1.90829688e-01
-6.06829687e-08,1.90946875e-01
-6.06429688e-08,1.90860937e-01
-6.06029687e-08,1.90935938e-01
-6.05629687e-08,1.90864063e-01
-6.05229687e-08,1.90939063e-01
-6.04829687e-08,1.90851563e-01
-6.04429687e-08,1.90971875e-01
-6.04029687e-08,1.90675000e-01
-6.03629688e-08,1.90462500e-01
-6.03229687e-08,1.90514062e-01
-6.02829687e-08,1.90496875e-01
-6.02429687e-08,1.90495313e-01
-6.02029687e-08,1.90510938e-01
-6.01629687e-08,1.90478125e-01
-6.01229687e-08,1.90548438e-01
-6.00829688e-08,1.90298438e-01
-6.00429687e-08,1.90039062e-01
-6.00029687e-08,1.90139063e-01
-5.99629687e-08,1.90070313e-01
-5.99229687e-08,1.90126563e-01
-5.98829688e-08,1.90073437e-01
-5.98429687e-08,1.90129688e-01
-5.98029688e-08,1.90062500e-01
-5.97629687e-08,1.90160938e-01
-5.97229687e-08,1.89885938e-01
-5.96829687e-08,1.89650000e-01
-5.96429687e-08,1.89726563e-01
-5.96029687e-08,1.89682813e-01
-5.95629687e-08,1.89712500e-01
-5.95229687e-08,1.89690625e-01
-5.94829687e-08,1.89707813e-01
-5.94429687e-08,1.89692187e-01
-5.94029687e-08,1.89706250e-01
-5.93629687e-08,1.89693750e-01
-5.93229687e-08,1.89704687e-01
-5.92829687e-08,1.89695313e-01
-5.92429687e-08,1.89704687e-01
-5.92029687e-08,1.89695313e-01
-5.91629687e-08,1.89704687e-01
-5.91229687e-08,1.89696875e-01
-5.90829687e-08,1.89703125e-01
-5.90429687e-08,1.89696875e-01
-5.90029687e-08,1.89703125e-01
-5.89629687e-08,1.89696875e-01
-5.89229687e-08,1.89703125e-01
-5.88829687e-08,1.89696875e-01
-5.88429687e-08,1.89703125e-01
-5.88029687e-08,1.89696875e-01
-5.87629687e-08,1.89703125e-01
-5.87229687e-08,1.89696875e-01
-5.86829687e-08,1.89703125e-01
-5.86429687e-08,1.89696875e-01
-5.86029687e-08,1.89703125e-01
-5.85629687e-08,1.89696875e-01
-5.85229687e-08,1.89703125e-01
-5.84829687e-08,1.89696875e-01
-5.84429687e-08,1.89703125e-01
-5.84029687e-08,1.89695313e-01
-5.83629687e-08,1.89704687e-01
-5.83229687e-08,1.89695313e-01
-5.82829687e-08,1.89704687e-01
-5.82429687e-08,1.89695313e-01
-5.82029687e-08,1.89704687e-01
-5.81629687e-08,1.89693750e-01
-5.81229687e-08,1.89706250e-01
-5.80829687e-08,1.89693750e-01
-5.80429687e-08,1.89707813e-01
-5.80029687e-08,1.89690625e-01
-5.79629687e-08,1.89710938e-01
-5.79229687e-08,1.89687500e-01
-5.78829687e-08,1.89715625e-01
-5.78429687e-08,1.89679687e-01
-5.78029687e-08,1.89729688e-01
-5.77629687e-08,1.89645312e-01
-5.77229687e-08,1.89907812e-01
-5.76829687e-08,1.90154688e-01
-5.76429687e-08,1.90068750e-01
-5.76029687e-08,1.90121875e-01
-5.75629687e-08,1.90082813e-01
-5.75229687e-08,1.90114063e-01
-5.74829687e-08,1.90089063e-01
-5.74429687e-08,1.90109375e-01
-5.74029687e-08,1.90090625e-01
-5.73629687e-08,1.90107813e-01
-5.73229687e-08,1.90092188e-01
-5.72829687e-08,1.90106250e-01
-5.72429687e-08,1.90093750e-01
-5.72029687e-08,1.90106250e-01
-5.71629687e-08,1.90093750e-01
-5.71229687e-08,1.90106250e-01
-5.70829687e-08,1.90093750e-01
-5.70429687e-08,1.90104688e-01
-5.70029687e-08,1.90095313e-01
-5.69629687e-08,1.90104688e-01
-5.69229687e-08,1.90095313e-01
-5.68829687e-08,1.90104688e-01
-5.68429687e-08,1.90095313e-01
-5.68029687e-08,1.90104688e-01
-5.67629687e-08,1.90095313e-01
-5.67229687e-08,1.90104688e-01
-5.66829687e-08,1.90095313e-01
-5.66429687e-08,1.90104688e-01
-5.66029687e-08,1.90095313e-01
-5.65629687e-08,1.90104688e-01
-5.65229687e-08,1.90093750e-01
-5.64829687e-08,1.90106250e-01
-5.64429687e-08,1.90093750e-01
-5.64029687e-08,1.90106250e-01
-5.63629687e-08,1.90093750e-01
-5.63229687e-08,1.90106250e-01
-5.62829687e-08,1.90093750e-01
-5.62429687e-08,1.90107813e-01
-5.62029687e-08,1.90092188e-01
-5.61629687e-08,1.90107813e-01
-5.61229687e-08,1.90090625e-01
-5.60829687e-08,1.90109375e-01
-5.60429687e-08,1.90089063e-01
-5.60029687e-08,1.90112500e-01
-5.59629687e-08,1.90084375e-01
-5.59229687e-08,1.90120312e-01
-5.58829687e-08,1.90070313e-01
-5.58429687e-08,1.90154688e-01
-5.58029687e-08,1.89892188e-01
-5.57629687e-08,1.89643750e-01
-5.57229687e-08,1.89732813e-01
-5.56829687e-08,1.89675000e-01
-5.56429687e-08,1.89721875e-01
-5.56029687e-08,1.89679687e-01
-5.55629687e-08,1.89723438e-01
-5.55229687e-08,1.89668750e-01
-5.54829687e-08,1.89754688e-01
-5.54429687e-08,1.89493750e-01
-5.54029687e-08,1.89242188e-01
-5.53629687e-08,1.89335937e-01
-5.53229687e-08,1.89271875e-01
-5.52829687e-08,1.89326563e-01
-5.52429687e-08,1.89273438e-01
-5.52029687e-08,1.89329688e-01
-5.51629687e-08,1.89260938e-01
-5.51229687e-08,1.89362500e-01
-5.50829687e-08,1.89084375e-01
-5.50429687e-08,1.88853125e-01
-5.50029687e-08,1.88923438e-01
-5.49629687e-08,1.88885938e-01
-5.49229687e-08,1.88909375e-01
-5.48829687e-08,1.88892188e-01
-5.48429687e-08,1.88904688e-01
-5.48029687e-08,1.88896875e-01
-5.47629687e-08,1.88903125e-01
-5.47229687e-08,1.88898438e-01
-5.46829687e-08,1.88901563e-01
-5.46429687e-08,1.88900000e-01
-5.46029687e-08,1.88900000e-01
-5.45629687e-08,1.88900000e-01
-5.45229687e-08,1.88898438e-01
-5.44829687e-08,1.88901563e-01
-5.44429687e-08,1.88898438e-01
-5.44029687e-08,1.88903125e-01
-5.43629687e-08,1.88896875e-01
-5.43229687e-08,1.88903125e-01
-5.42829687e-08,1.88895312e-01
-5.42429687e-08,1.88904688e-01
-5.42029687e-08,1.88895312e-01
-5.41629687e-08,1.88906250e-01
-5.41229687e-08,1.88893750e-01
-5.40829687e-08,1.88906250e-01
-5.40429687e-08,1.88892188e-01
-5.40029687e-08,1.88909375e-01
-5.39629687e-08,1.88889063e-01
-5.39229687e-08,1.88912500e-01
-5.38829687e-08,1.88885938e-01
-5.38429687e-08,1.88917188e-01
-5.38029687e-08,1.88876563e-01
-5.37629687e-08,1.88932813e-01
-5.37229687e-08,1.88842188e-01
-5.36829687e-08,1.89112500e-01
-5.36429687e-08,1.89350000e-01
-5.36029687e-08,1.89275000e-01
-5.35629687e-08,1.89315625e-01
-5.35229687e-08,1.89290625e-01
-5.34829687e-08,1.89304688e-01
-5.34429687e-08,1.89298437e-01
-5.34029687e-08,1.89298437e-01
-5.33629687e-08,1.89306250e-01
-5.33229687e-08,1.89289062e-01
-5.32829687e-08,1.89321875e-01
-5.32429687e-08,1.89253125e-01
-5.32029687e-08,1.89500000e-01
-5.31629687e-08,1.89762500e-01
-5.31229687e-08,1.89660938e-01
-5.30829687e-08,1.89729688e-01
-5.30429687e-08,1.89675000e-01
-5.30029687e-08,1.89723438e-01
-5.29629687e-08,1.89678125e-01
-5.29229687e-08,1.89723438e-01
-5.28829687e-08,1.89673438e-01
-5.28429687e-08,1.89734375e-01
-5.28029687e-08,1.89642188e-01
-5.27629687e-08,1.89910938e-01
-5.27229687e-08,1.90153125e-01
-5.26829687e-08,1.90068750e-01
-5.26429687e-08,1.90123438e-01
-5.26029687e-08,1.90081250e-01
-5.25629687e-08,1.90118750e-01
-5.25229687e-08,1.90081250e-01
-5.24829687e-08,1.90121875e-01
-5.24429687e-08,1.90075000e-01
-5.24029687e-08,1.90134375e-01
-5.23629687e-08,1.90040625e-01
-5.23229687e-08,1.90312500e-01
-5.22829687e-08,1.90548438e-01
-5.22429687e-08,1.90475000e-01
-5.22029688e-08,1.90515625e-01
-5.21629687e-08,1.90490625e-01
-5.21229687e-08,1.90504688e-01
-5.20829687e-08,1.90498438e-01
-5.20429687e-08,1.90498438e-01
-5.20029687e-08,1.90506250e-01
-5.19629687e-08,1.90489063e-01
-5.19229687e-08,1.90521875e-01
-5.18829687e-08,1.90453125e-01
-5.18429687e-08,1.90700000e-01
-5.18029687e-08,1.90960938e-01
-5.17629687e-08,1.90862500e-01
-5.17229687e-08,1.90928125e-01
-5.16829687e-08,1.90878125e-01
-5.16429687e-08,1.90918750e-01
-5.16029687e-08,1.90882812e-01
-5.15629687e-08,1.90915625e-01
-5.15229687e-08,1.90885938e-01
-5.14829687e-08,1.90914063e-01
-5.14429687e-08,1.90887500e-01
-5.14029687e-08,1.90912500e-01
-5.13629687e-08,1.90887500e-01
-5.13229687e-08,1.90912500e-01
-5.12829687e-08,1.90887500e-01
-5.12429687e-08,1.90912500e-01
-5.12029687e-08,1.90887500e-01
-5.11629687e-08,1.90912500e-01
-5.11229687e-08,1.90885938e-01
-5.10829687e-08,1.90915625e-01
-5.10429687e-08,1.90881250e-01
-5.10029687e-08,1.90923438e-01
-5.09629687e-08,1.90868750e-01
-5.09229687e-08,1.90956250e-01
-5.08829687e-08,1.90690625e-01
-5.08429687e-08,1.90445313e-01
-5.08029687e-08,1.90531250e-01
-5.07629687e-08,1.90478125e-01
-5.07229687e-08,1.90518750e-01
-5.06829687e-08,1.90482813e-01
-5.06429687e-08,1.90515625e-01
-5.06029687e-08,1.90484375e-01
-5.05629687e-08,1.90517188e-01
-5.05229687e-08,1.90479687e-01
-5.04829687e-08,1.90525000e-01
-5.04429687e-08,1.90465625e-01
-5.04029687e-08,1.90559375e-01
-5.03629687e-08,1.90287500e-01
-5.03229687e-08,1.90050000e-01
-5.02829688e-08,1.90125000e-01
-5.02429687e-08,1.90084375e-01
-5.02029687e-08,1.90109375e-01
-5.01629687e-08,1.90093750e-01
-5.01229687e-08,1.90103125e-01
-5.00829687e-08,1.90101563e-01
-5.00429687e-08,1.90095313e-01
-5.00029688e-08,1.90110938e-01
-4.99629687e-08,1.90078125e-01
-4.99229687e-08,1.90146875e-01
-4.98829687e-08,1.89898438e-01
-4.98429687e-08,1.89639063e-01
-4.98029687e-08,1.89735938e-01
-4.97629687e-08,1.89673438e-01
-4.97229687e-08,1.89720313e-01
-4.96829687e-08,1.89684375e-01
-4.96429687e-08,1.89712500e-01
-4.96029687e-08,1.89690625e-01
-4.95629687e-08,1.89706250e-01
-4.95229687e-08,1.89700000e-01
-4.94829687e-08,1.89690625e-01
-4.94429687e-08,1.89734375e-01
-4.94029687e-08,1.89512500e-01
-4.93629687e-08,1.89225000e-01
-4.93229687e-08,1.89351563e-01
-4.92829687e-08,1.89257813e-01
-4.92429687e-08,1.89339063e-01
-4.92029687e-08,1.89262500e-01
-4.91629687e-08,1.89337500e-01
-4.91229687e-08,1.89260938e-01
-4.90829687e-08,1.89343750e-01
-4.90429687e-08,1.89246875e-01
-4.90029687e-08,1.89376563e-01
-4.89629687e-08,1.89070313e-01
-4.89229687e-08,1.88868750e-01
-4.88829687e-08,1.88907812e-01
-4.88429687e-08,1.88903125e-01
-4.88029687e-08,1.88890625e-01
-4.87629687e-08,1.88914063e-01
-4.87229687e-08,1.88881250e-01
-4.86829687e-08,1.88925000e-01
-4.86429688e-08,1.88864063e-01
-4.86029687e-08,1.88962500e-01
-4.85629687e-08,1.88684375e-01
-4.85229687e-08,1.88454687e-01
-4.84829687e-08,1.88520313e-01
-4.84429687e-08,1.88489062e-01
-4.84029687e-08,1.88504688e-01
-4.83629688e-08,1.88500000e-01
-4.83229687e-08,1.88496875e-01
-4.82829687e-08,1.88507813e-01
-4.82429687e-08,1.88487500e-01
-4.82029687e-08,1.88517188e-01
-4.81629687e-08,1.88471875e-01
-4.81229687e-08,1.88553125e-01
-4.80829688e-08,1.88292188e-01
-4.80429687e-08,1.88045313e-01
-4.80029687e-08,1.88129688e-01
-4.79629687e-08,1.88079688e-01
-4.79229687e-08,1.88114063e-01
-4.78829687e-08,1.88089063e-01
-4.78429687e-08,1.88109375e-01
-4.78029687e-08,1.88092188e-01
-4.77629687e-08,1.88106250e-01
-4.77229687e-08,1.88095313e-01
-4.76829687e-08,1.88103125e-01
-4.76429687e-08,1.88096875e-01
-4.76029687e-08,1.88101563e-01
-4.75629687e-08,1.88098437e-01
-4.75229687e-08,1.88100000e-01
-4.74829687e-08,1.88100000e-01
-4.74429687e-08,1.88100000e-01
-4.74029687e-08,1.88101563e-01
-4.73629687e-08,1.88098437e-01
-4.73229687e-08,1.88103125e-01
-4.72829687e-08,1.88095313e-01
-4.72429687e-08,1.88104688e-01
-4.72029687e-08,1.88093750e-01
-4.71629687e-08,1.88107812e-01
-4.71229687e-08,1.88089063e-01
-4.70829687e-08,1.88114063e-01
-4.70429687e-08,1.88081250e-01
-4.70029687e-08,1.88128125e-01
-4.69629687e-08,1.88045313e-01
-4.69229687e-08,1.88307813e-01
-4.68829687e-08,1.88554688e-01
-4.68429687e-08,1.88470313e-01
-4.68029687e-08,1.88520313e-01
-4.67629687e-08,1.88485938e-01
-4.67229688e-08,1.88510938e-01
-4.66829687e-08,1.88492188e-01
-4.66429687e-08,1.88504688e-01
-4.66029687e-08,1.88500000e-01
-4.65629687e-08,1.88495313e-01
-4.65229687e-08,1.88514062e-01
-4.64829687e-08,1.88460938e-01
-4.64429688e-08,1.88692187e-01
-4.64029687e-08,1.88970313e-01
-4.63629687e-08,1.88853125e-01
-4.63229687e-08,1.88939063e-01
-4.62829687e-08,1.88864063e-01
-4.62429687e-08,1.88935938e-01
-4.62029687e-08,1.88860938e-01
-4.61629688e-08,1.88948438e-01
-4.61229687e-08,1.88828125e-01
-4.60829687e-08,1.89125000e-01
-4.60429687e-08,1.89337500e-01
-4.60029687e-08,1.89285938e-01
-4.59629687e-08,1.89304688e-01
-4.59229687e-08,1.89300000e-01
-4.58829688e-08,1.89295313e-01
-4.58429687e-08,1.89307813e-01
-4.58029687e-08,1.89289062e-01
-4.57629687e-08,1.89314063e-01
-4.57229687e-08,1.89279688e-01
-4.56829687e-08,1.89329688e-01
-4.56429687e-08,1.89243750e-01
-4.56029687e-08,1.89509375e-01
-4.55629687e-08,1.89753125e-01
-4.55229687e-08,1.89671875e-01
-4.54829687e-08,1.89718750e-01
-4.54429687e-08,1.89685938e-01
-4.54029687e-08,1.89710938e-01
-4.53629687e-08,1.89690625e-01
-4.53229687e-08,1.89707813e-01
-4.52829687e-08,1.89693750e-01
-4.52429687e-08,1.89704687e-01
-4.52029687e-08,1.89696875e-01
-4.51629687e-08,1.89703125e-01
-4.51229687e-08,1.89696875e-01
-4.50829687e-08,1.89701563e-01
-4.50429687e-08,1.89698438e-01
-4.50029687e-08,1.89701563e-01
-4.49629687e-08,1.89700000e-01
-4.49229687e-08,1.89700000e-01
-4.48829687e-08,1.89701563e-01
-4.48429687e-08,1.89698438e-01
-4.48029688e-08,1.89701563e-01
-4.47629687e-08,1.89696875e-01
-4.47229687e-08,1.89703125e-01
-4.46829687e-08,1.89695313e-01
-4.46429687e-08,1.89706250e-01
-4.46029687e-08,1.89692187e-01
-4.45629687e-08,1.89709375e-01
-4.45229688e-08,1.89687500e-01
-4.44829687e-08,1.89718750e-01
-4.44429687e-08,1.89671875e-01
-4.44029687e-08,1.89753125e-01
-4.43629687e-08,1.89493750e-01
-4.43229687e-08,1.89243750e-01
-4.42829687e-08,1.89332813e-01
-4.42429688e-08,1.89278125e-01
-4.42029687e-08,1.89317188e-01
-4.41629687e-08,1.89285938e-01
-4.41229687e-08,1.89312500e-01
-4.40829687e-08,1.89289062e-01
-4.40429687e-08,1.89309375e-01
-4.40029687e-08,1.89292188e-01
-4.39629688e-08,1.89307813e-01
-4.39229687e-08,1.89293750e-01
-4.38829687e-08,1.89306250e-01
-4.38429687e-08,1.89295313e-01
-4.38029687e-08,1.89304688e-01
-4.37629687e-08,1.89295313e-01
-4.37229687e-08,1.89303125e-01
-4.36829688e-08,1.89296875e-01
-4.36429687e-08,1.89301563e-01
-4.36029687e-08,1.89298437e-01
-4.35629687e-08,1.89300000e-01
-4.35229687e-08,1.89301563e-01
-4.34829687e-08,1.89296875e-01
-4.34429687e-08,1.89306250e-01
-4.34029687e-08,1.89289062e-01
-4.33629687e-08,1.89321875e-01
-4.33229687e-08,1.89254688e-01
-4.32829687e-08,1.89498438e-01
-4.32429687e-08,1.89764062e-01
-4.32029687e-08,1.89659375e-01
-4.31629687e-08,1.89731250e-01
-4.31229687e-08,1.89673438e-01
-4.30829687e-08,1.89723438e-01
-4.30429687e-08,1.89678125e-01
-4.30029687e-08,1.89721875e-01
-4.29629687e-08,1.89678125e-01
-4.29229687e-08,1.89721875e-01
-4.28829688e-08,1.89676563e-01
-4.28429687e-08,1.89726563e-01
-4.28029687e-08,1.89668750e-01
-4.27629687e-08,1.89739062e-01
-4.27229687e-08,1.89635938e-01
-4.26829687e-08,1.89917188e-01
-4.26429687e-08,1.90145312e-01
-4.26029688e-08,1.90078125e-01
-4.25629687e-08,1.90112500e-01
-4.25229687e-08,1.90092188e-01
-4.24829687e-08,1.90104688e-01
-4.24429687e-08,1.90096875e-01
-4.24029687e-08,1.90101563e-01
-4.23629687e-08,1.90098437e-01
-4.23229688e-08,1.90100000e-01
-4.22829687e-08,1.90100000e-01
-4.22429687e-08,1.90098437e-01
-4.22029687e-08,1.90101563e-01
-4.21629687e-08,1.90098437e-01
-4.21229687e-08,1.90101563e-01
-4.20829687e-08,1.90098437e-01
-4.20429688e-08,1.90103125e-01
-4.20029687e-08,1.90096875e-01
-4.19629687e-08,1.90103125e-01
-4.19229687e-08,1.90096875e-01
-4.18829687e-08,1.90103125e-01
-4.18429687e-08,1.90096875e-01
-4.18029687e-08,1.90103125e-01
-4.17629688e-08,1.90096875e-01
-4.17229687e-08,1.90103125e-01
-4.16829687e-08,1.90096875e-01
-4.16429687e-08,1.90103125e-01
-4.16029687e-08,1.90096875e-01
-4.15629687e-08,1.90103125e-01
-4.15229687e-08,1.90096875e-01
-4.14829688e-08,1.90103125e-01
-4.14429687e-08,1.90096875e-01
-4.14029687e-08,1.90103125e-01
-4.13629687e-08,1.90096875e-01
-4.13229687e-08,1.90103125e-01
-4.12829687e-08,1.90096875e-01
-4.12429687e-08,1.90103125e-01
-4.12029687e-08,1.90096875e-01
-4.11629687e-08,1.90103125e-01
-4.11229687e-08,1.90096875e-01
-4.10829687e-08,1.90103125e-01
-4.10429687e-08,1.90096875e-01
-4.10029687e-08,1.90103125e-01
-4.09629688e-08,1.90096875e-01
-4.09229687e-08,1.90103125e-01
-4.08829687e-08,1.90096875e-01
-4.08429687e-08,1.90103125e-01
-4.08029687e-08,1.90096875e-01
-4.07629687e-08,1.90103125e-01
-4.07229687e-08,1.90096875e-01
-4.06829688e-08,1.90103125e-01
-4.06429687e-08,1.90096875e-01
-4.06029687e-08,1.90103125e-01
-4.05629687e-08,1.90096875e-01
-4.05229687e-08,1.90101563e-01
-4.04829687e-08,1.90098437e-01
-4.04429687e-08,1.90101563e-01
-4.04029688e-08,1.90100000e-01
-4.03629687e-08,1.90098437e-01
-4.03229687e-08,1.90103125e-01
-4.02829687e-08,1.90095313e-01
-4.02429687e-08,1.90109375e-01
-4.02029687e-08,1.90081250e-01
-4.01629687e-08,1.90143750e-01
-4.01229688e-08,1.89903125e-01
-4.00829687e-08,1.89632812e-01
-4.00429687e-08,1.89743750e-01
-4.00029687e-08,1.89665625e-01
-3.99629687e-08,1.89731250e-01
-3.99229687e-08,1.89670312e-01
-3.98829687e-08,1.89728125e-01
-3.98429688e-08,1.89671875e-01
-3.98029687e-08,1.89729688e-01
-3.97629687e-08,1.89667188e-01
-3.97229687e-08,1.89737500e-01
-3.96829687e-08,1.89653125e-01
-3.96429687e-08,1.89771875e-01
-3.96029687e-08,1.89475000e-01
-3.95629688e-08,1.89264062e-01
-3.95229687e-08,1.89310937e-01
-3.94829687e-08,1.89298437e-01
-3.94429687e-08,1.89295313e-01
-3.94029687e-08,1.89310937e-01
-3.93629687e-08,1.89284375e-01
-3.93229687e-08,1.89321875e-01
-3.92829688e-08,1.89267188e-01
-3.92429687e-08,1.89359375e-01
-3.92029687e-08,1.89085937e-01
-3.91629687e-08,1.88853125e-01
-3.91229687e-08,1.88921875e-01
-3.90829687e-08,1.88889063e-01
-3.90429688e-08,1.88904688e-01
-3.90029687e-08,1.88900000e-01
-3.89629687e-08,1.88893750e-01
-3.89229687e-08,1.88912500e-01
-3.88829687e-08,1.88876563e-01
-3.88429687e-08,1.88948438e-01
-3.88029687e-08,1.88696875e-01
-3.87629688e-08,1.88440625e-01
-3.87229687e-08,1.88534375e-01
-3.86829687e-08,1.88475000e-01
-3.86429687e-08,1.88520313e-01
-3.86029687e-08,1.88482813e-01
-3.85629687e-08,1.88515625e-01
-3.85229687e-08,1.88485938e-01
