trails/0bdfa5e45fec98341abdd20552c140b4/aes_ch1_20250507121938643.csv

Model,MSO66B
Label,
Waveform Type,ANALOG
Horizontal Units,s
Sample Interval,4.00000000e-11
Record Length,10000
Zero Index,1599.03125000
Vertical Units,A
ANALOG_Thumbnail,
yOffset,1.84500000e-01
yPosition,8.40000000e-01

Labels,
TIME,CH1
-6.39612500e-08,1.92898438e-01
-6.39212500e-08,1.92900000e-01
-6.38812500e-08,1.92900000e-01
-6.38412500e-08,1.92900000e-01
-6.38012500e-08,1.92901563e-01
-6.37612500e-08,1.92898438e-01
-6.37212500e-08,1.92901563e-01
-6.36812500e-08,1.92896875e-01
-6.36412500e-08,1.92903125e-01
-6.36012500e-08,1.92896875e-01
-6.35612500e-08,1.92903125e-01
-6.35212500e-08,1.92895312e-01
-6.34812500e-08,1.92904688e-01
-6.34412500e-08,1.92895312e-01
-6.34012500e-08,1.92904688e-01
-6.33612500e-08,1.92893750e-01
-6.33212500e-08,1.92906250e-01
-6.32812500e-08,1.92893750e-01
-6.32412500e-08,1.92907812e-01
-6.32012500e-08,1.92892188e-01
-6.31612500e-08,1.92909375e-01
-6.31212500e-08,1.92889063e-01
-6.30812500e-08,1.92912500e-01
-6.30412500e-08,1.92885937e-01
-6.30012500e-08,1.92915625e-01
-6.29612500e-08,1.92881250e-01
-6.29212500e-08,1.92925000e-01
-6.28812500e-08,1.92865625e-01
-6.28412500e-08,1.92959375e-01
-6.28012500e-08,1.92687500e-01
-6.27612500e-08,1.92451563e-01
-6.27212500e-08,1.92525000e-01
-6.26812500e-08,1.92485938e-01
-6.26412500e-08,1.92509375e-01
-6.26012500e-08,1.92495313e-01
-6.25612500e-08,1.92503125e-01
-6.25212500e-08,1.92500000e-01
-6.24812500e-08,1.92496875e-01
-6.24412500e-08,1.92506250e-01
-6.24012500e-08,1.92490625e-01
-6.23612500e-08,1.92515625e-01
-6.23212500e-08,1.92475000e-01
-6.22812500e-08,1.92550000e-01
-6.22412500e-08,1.92296875e-01
-6.22012500e-08,1.92040625e-01
-6.21612500e-08,1.92135938e-01
-6.21212500e-08,1.92073437e-01
-6.20812500e-08,1.92121875e-01
-6.20412500e-08,1.92079688e-01
-6.20012500e-08,1.92118750e-01
-6.19612500e-08,1.92079688e-01
-6.19212500e-08,1.92123437e-01
-6.18812500e-08,1.92068750e-01
-6.18412500e-08,1.92154688e-01
-6.18012500e-08,1.91892188e-01
-6.17612500e-08,1.91643750e-01
-6.17212500e-08,1.91734375e-01
-6.16812500e-08,1.91673438e-01
-6.16412500e-08,1.91723438e-01
-6.16012500e-08,1.91678125e-01
-6.15612500e-08,1.91721875e-01
-6.15212500e-08,1.91675000e-01
-6.14812500e-08,1.91729687e-01
-6.14412500e-08,1.91660938e-01
-6.14012500e-08,1.91762500e-01
-6.13612500e-08,1.91484375e-01
-6.13212500e-08,1.91254688e-01
-6.12812500e-08,1.91321875e-01
-6.12412500e-08,1.91287500e-01
-6.12012500e-08,1.91306250e-01
-6.11612500e-08,1.91296875e-01
-6.11212500e-08,1.91300000e-01
-6.10812500e-08,1.91303125e-01
-6.10412500e-08,1.91293750e-01
-6.10012500e-08,1.91309375e-01
-6.09612500e-08,1.91287500e-01
-6.09212500e-08,1.91318750e-01
-6.08812500e-08,1.91271875e-01
-6.08412500e-08,1.91354688e-01
-6.08012500e-08,1.91092188e-01
-6.07612500e-08,1.90845313e-01
-6.07212500e-08,1.90929688e-01
-6.06812500e-08,1.90879688e-01
-6.06412500e-08,1.90914063e-01
-6.06012500e-08,1.90889063e-01
-6.05612500e-08,1.90907812e-01
-6.05212500e-08,1.90893750e-01
-6.04812500e-08,1.90903125e-01
-6.04412500e-08,1.90898438e-01
-6.04012500e-08,1.90900000e-01
-6.03612500e-08,1.90901563e-01
-6.03212500e-08,1.90896875e-01
-6.02812500e-08,1.90906250e-01
-6.02412500e-08,1.90890625e-01
-6.02012500e-08,1.90915625e-01
-6.01612500e-08,1.90875000e-01
-6.01212500e-08,1.90950000e-01
-6.00812500e-08,1.90696875e-01
-6.00412500e-08,1.90442187e-01
-6.00012500e-08,1.90534375e-01
-5.99612500e-08,1.90475000e-01
-5.99212500e-08,1.90520313e-01
-5.98812500e-08,1.90484375e-01
-5.98412500e-08,1.90514062e-01
-5.98012500e-08,1.90487500e-01
-5.97612500e-08,1.90512500e-01
-5.97212500e-08,1.90489063e-01
-5.96812500e-08,1.90510938e-01
-5.96412500e-08,1.90489063e-01
-5.96012500e-08,1.90510938e-01
-5.95612500e-08,1.90487500e-01
-5.95212500e-08,1.90514062e-01
-5.94812500e-08,1.90481250e-01
-5.94412500e-08,1.90528125e-01
-5.94012500e-08,1.90448438e-01
-5.93612500e-08,1.90703125e-01
-5.93212500e-08,1.90959375e-01
-5.92812500e-08,1.90862500e-01
-5.92412500e-08,1.90929688e-01
-5.92012500e-08,1.90873438e-01
-5.91612500e-08,1.90925000e-01
-5.91212500e-08,1.90873438e-01
-5.90812500e-08,1.90928125e-01
-5.90412500e-08,1.90865625e-01
-5.90012500e-08,1.90943750e-01
-5.89612500e-08,1.90831250e-01
-5.89212500e-08,1.91123437e-01
-5.88812500e-08,1.91337500e-01
-5.88412500e-08,1.91287500e-01
-5.88012500e-08,1.91301563e-01
-5.87612500e-08,1.91307813e-01
-5.87212500e-08,1.91284375e-01
-5.86812500e-08,1.91328125e-01
-5.86412500e-08,1.91243750e-01
-5.86012500e-08,1.91510938e-01
-5.85612500e-08,1.91748438e-01
-5.85212500e-08,1.91678125e-01
-5.84812500e-08,1.91709375e-01
-5.84412500e-08,1.91698438e-01
-5.84012500e-08,1.91692187e-01
-5.83612500e-08,1.91720313e-01
-5.83212500e-08,1.91651563e-01
-5.82812500e-08,1.91903125e-01
-5.82412500e-08,1.92156250e-01
-5.82012500e-08,1.92070313e-01
-5.81612500e-08,1.92117188e-01
-5.81212500e-08,1.92092188e-01
-5.80812500e-08,1.92100000e-01
-5.80412500e-08,1.92114063e-01
-5.80012500e-08,1.92059375e-01
-5.79612500e-08,1.92295313e-01
-5.79212500e-08,1.92564063e-01
-5.78812500e-08,1.92460938e-01
-5.78412500e-08,1.92528125e-01
-5.78012500e-08,1.92479687e-01
-5.77612500e-08,1.92514062e-01
-5.77212500e-08,1.92490625e-01
-5.76812500e-08,1.92501563e-01
-5.76412500e-08,1.92509375e-01
-5.76012500e-08,1.92465625e-01
-5.75612500e-08,1.92689063e-01
-5.75212500e-08,1.92971875e-01
-5.74812500e-08,1.92851563e-01
-5.74412500e-08,1.92937500e-01
-5.74012500e-08,1.92867188e-01
-5.73612500e-08,1.92929688e-01
-5.73212500e-08,1.92873438e-01
-5.72812500e-08,1.92925000e-01
-5.72412500e-08,1.92876563e-01
-5.72012500e-08,1.92921875e-01
-5.71612500e-08,1.92878125e-01
-5.71212500e-08,1.92921875e-01
-5.70812500e-08,1.92878125e-01
-5.70412500e-08,1.92921875e-01
-5.70012500e-08,1.92878125e-01
-5.69612500e-08,1.92921875e-01
-5.69212500e-08,1.92876563e-01
-5.68812500e-08,1.92925000e-01
-5.68412500e-08,1.92870313e-01
-5.68012500e-08,1.92939063e-01
-5.67612500e-08,1.92837500e-01
-5.67212500e-08,1.93114063e-01
-5.66812500e-08,1.93348437e-01
-5.66412500e-08,1.93273438e-01
-5.66012500e-08,1.93320313e-01
-5.65612500e-08,1.93281250e-01
-5.65212500e-08,1.93320313e-01
-5.64812500e-08,1.93271875e-01
-5.64412500e-08,1.93351563e-01
-5.64012500e-08,1.93096875e-01
-5.63612500e-08,1.92840625e-01
-5.63212500e-08,1.92935938e-01
-5.62812500e-08,1.92871875e-01
-5.62412500e-08,1.92923438e-01
-5.62012500e-08,1.92879688e-01
-5.61612500e-08,1.92918750e-01
-5.61212500e-08,1.92882813e-01
-5.60812500e-08,1.92917188e-01
-5.60412500e-08,1.92884375e-01
-5.60012500e-08,1.92915625e-01
-5.59612500e-08,1.92884375e-01
-5.59212500e-08,1.92915625e-01
-5.58812500e-08,1.92884375e-01
-5.58412500e-08,1.92915625e-01
-5.58012500e-08,1.92882813e-01
-5.57612500e-08,1.92917188e-01
-5.57212500e-08,1.92881250e-01
-5.56812500e-08,1.92920312e-01
-5.56412500e-08,1.92876563e-01
-5.56012500e-08,1.92928125e-01
-5.55612500e-08,1.92862500e-01
-5.55212500e-08,1.92962500e-01
-5.54812500e-08,1.92685938e-01
-5.54412500e-08,1.92451563e-01
-5.54012500e-08,1.92525000e-01
-5.53612500e-08,1.92484375e-01
-5.53212500e-08,1.92510938e-01
-5.52812500e-08,1.92490625e-01
-5.52412500e-08,1.92507813e-01
-5.52012500e-08,1.92492188e-01
-5.51612500e-08,1.92509375e-01
-5.51212500e-08,1.92489063e-01
-5.50812500e-08,1.92515625e-01
-5.50412500e-08,1.92475000e-01
-5.50012500e-08,1.92548438e-01
-5.49612500e-08,1.92298438e-01
-5.49212500e-08,1.92037500e-01
-5.48812500e-08,1.92139063e-01
-5.48412500e-08,1.92070313e-01
-5.48012500e-08,1.92126563e-01
-5.47612500e-08,1.92076562e-01
-5.47212500e-08,1.92123437e-01
-5.46812500e-08,1.92076562e-01
-5.46412500e-08,1.92125000e-01
-5.46012500e-08,1.92073437e-01
-5.45612500e-08,1.92131250e-01
-5.45212500e-08,1.92059375e-01
-5.44812500e-08,1.92165625e-01
-5.44412500e-08,1.91882812e-01
-5.44012500e-08,1.91654688e-01
-5.43612500e-08,1.91721875e-01
-5.43212500e-08,1.91687500e-01
-5.42812500e-08,1.91707813e-01
-5.42412500e-08,1.91695313e-01
-5.42012500e-08,1.91703125e-01
-5.41612500e-08,1.91698438e-01
-5.41212500e-08,1.91700000e-01
-5.40812500e-08,1.91700000e-01
-5.40412500e-08,1.91698438e-01
-5.40012500e-08,1.91701563e-01
-5.39612500e-08,1.91698438e-01
-5.39212500e-08,1.91703125e-01
-5.38812500e-08,1.91696875e-01
-5.38412500e-08,1.91703125e-01
-5.38012500e-08,1.91696875e-01
-5.37612500e-08,1.91703125e-01
-5.37212500e-08,1.91696875e-01
-5.36812500e-08,1.91703125e-01
-5.36412500e-08,1.91695313e-01
-5.36012500e-08,1.91704687e-01
-5.35612500e-08,1.91695313e-01
-5.35212500e-08,1.91704687e-01
-5.34812500e-08,1.91695313e-01
-5.34412500e-08,1.91704687e-01
-5.34012500e-08,1.91695313e-01
-5.33612500e-08,1.91704687e-01
-5.33212500e-08,1.91695313e-01
-5.32812500e-08,1.91704687e-01
-5.32412500e-08,1.91695313e-01
-5.32012500e-08,1.91704687e-01
-5.31612500e-08,1.91695313e-01
-5.31212500e-08,1.91704687e-01
-5.30812500e-08,1.91695313e-01
-5.30412500e-08,1.91704687e-01
-5.30012500e-08,1.91695313e-01
-5.29612500e-08,1.91704687e-01
-5.29212500e-08,1.91693750e-01
-5.28812500e-08,1.91706250e-01
-5.28412500e-08,1.91693750e-01
-5.28012500e-08,1.91706250e-01
-5.27612500e-08,1.91693750e-01
-5.27212500e-08,1.91706250e-01
-5.26812500e-08,1.91693750e-01
-5.26412500e-08,1.91706250e-01
-5.26012500e-08,1.91693750e-01
-5.25612500e-08,1.91706250e-01
-5.25212500e-08,1.91693750e-01
-5.24812500e-08,1.91706250e-01
-5.24412500e-08,1.91693750e-01
-5.24012500e-08,1.91706250e-01
-5.23612500e-08,1.91693750e-01
-5.23212500e-08,1.91706250e-01
-5.22812500e-08,1.91693750e-01
-5.22412500e-08,1.91707813e-01
-5.22012500e-08,1.91692187e-01
-5.21612500e-08,1.91707813e-01
-5.21212500e-08,1.91692187e-01
-5.20812500e-08,1.91707813e-01
-5.20412500e-08,1.91692187e-01
-5.20012500e-08,1.91707813e-01
-5.19612500e-08,1.91692187e-01
-5.19212500e-08,1.91709375e-01
-5.18812500e-08,1.91690625e-01
-5.18412500e-08,1.91709375e-01
-5.18012500e-08,1.91690625e-01
-5.17612500e-08,1.91710938e-01
-5.17212500e-08,1.91689063e-01
-5.16812500e-08,1.91710938e-01
-5.16412500e-08,1.91687500e-01
-5.16012500e-08,1.91712500e-01
-5.15612500e-08,1.91685938e-01
-5.15212500e-08,1.91715625e-01
-5.14812500e-08,1.91682813e-01
-5.14412500e-08,1.91718750e-01
-5.14012500e-08,1.91678125e-01
-5.13612500e-08,1.91728125e-01
-5.13212500e-08,1.91662500e-01
-5.12812500e-08,1.91762500e-01
-5.12412500e-08,1.91484375e-01
-5.12012500e-08,1.91253125e-01
-5.11612500e-08,1.91321875e-01
-5.11212500e-08,1.91287500e-01
-5.10812500e-08,1.91306250e-01
-5.10412500e-08,1.91296875e-01
-5.10012500e-08,1.91300000e-01
-5.09612500e-08,1.91301563e-01
-5.09212500e-08,1.91295313e-01
-5.08812500e-08,1.91306250e-01
-5.08412500e-08,1.91290625e-01
-5.08012500e-08,1.91312500e-01
-5.07612500e-08,1.91281250e-01
-5.07212500e-08,1.91328125e-01
-5.06812500e-08,1.91246875e-01
-5.06412500e-08,1.91507813e-01
-5.06012500e-08,1.91754688e-01
-5.05612500e-08,1.91668750e-01
-5.05212500e-08,1.91720313e-01
-5.04812500e-08,1.91684375e-01
-5.04412500e-08,1.91712500e-01
-5.04012500e-08,1.91689063e-01
-5.03612500e-08,1.91709375e-01
-5.03212500e-08,1.91692187e-01
-5.02812500e-08,1.91706250e-01
-5.02412500e-08,1.91693750e-01
-5.02012500e-08,1.91704687e-01
-5.01612500e-08,1.91695313e-01
-5.01212500e-08,1.91704687e-01
-5.00812500e-08,1.91696875e-01
-5.00412500e-08,1.91703125e-01
-5.00012500e-08,1.91696875e-01
-4.99612500e-08,1.91703125e-01
-4.99212500e-08,1.91698438e-01
-4.98812500e-08,1.91701563e-01
-4.98412500e-08,1.91698438e-01
-4.98012500e-08,1.91701563e-01
-4.97612500e-08,1.91698438e-01
-4.97212500e-08,1.91701563e-01
-4.96812500e-08,1.91698438e-01
-4.96412500e-08,1.91700000e-01
-4.96012500e-08,1.91700000e-01
-4.95612500e-08,1.91700000e-01
-4.95212500e-08,1.91700000e-01
-4.94812500e-08,1.91700000e-01
-4.94412500e-08,1.91700000e-01
-4.94012500e-08,1.91700000e-01
-4.93612500e-08,1.91700000e-01
-4.93212500e-08,1.91700000e-01
-4.92812500e-08,1.91700000e-01
-4.92412500e-08,1.91700000e-01
-4.92012500e-08,1.91700000e-01
-4.91612500e-08,1.91698438e-01
-4.91212500e-08,1.91701563e-01
-4.90812500e-08,1.91698438e-01
-4.90412500e-08,1.91701563e-01
-4.90012500e-08,1.91698438e-01
-4.89612500e-08,1.91701563e-01
-4.89212500e-08,1.91698438e-01
-4.88812500e-08,1.91701563e-01
-4.88412500e-08,1.91698438e-01
-4.88012500e-08,1.91701563e-01
-4.87612500e-08,1.91696875e-01
-4.87212500e-08,1.91703125e-01
-4.86812500e-08,1.91696875e-01
-4.86412500e-08,1.91703125e-01
-4.86012500e-08,1.91696875e-01
-4.85612500e-08,1.91703125e-01
-4.85212500e-08,1.91695313e-01
-4.84812500e-08,1.91704687e-01
-4.84412500e-08,1.91695313e-01
-4.84012500e-08,1.91706250e-01
-4.83612500e-08,1.91693750e-01
-4.83212500e-08,1.91707813e-01
-4.82812500e-08,1.91690625e-01
-4.82412500e-08,1.91710938e-01
-4.82012500e-08,1.91685938e-01
-4.81612500e-08,1.91718750e-01
-4.81212500e-08,1.91671875e-01
-4.80812500e-08,1.91753125e-01
-4.80412500e-08,1.91493750e-01
-4.80012500e-08,1.91243750e-01
-4.79612500e-08,1.91332813e-01
-4.79212500e-08,1.91276562e-01
-4.78812500e-08,1.91320313e-01
-4.78412500e-08,1.91282813e-01
-4.78012500e-08,1.91315625e-01
-4.77612500e-08,1.91284375e-01
-4.77212500e-08,1.91315625e-01
-4.76812500e-08,1.91282813e-01
-4.76412500e-08,1.91318750e-01
-4.76012500e-08,1.91276562e-01
-4.75612500e-08,1.91332813e-01
-4.75212500e-08,1.91243750e-01
-4.74812500e-08,1.91509375e-01
-4.74412500e-08,1.91754688e-01
-4.74012500e-08,1.91668750e-01
-4.73612500e-08,1.91721875e-01
-4.73212500e-08,1.91682813e-01
-4.72812500e-08,1.91715625e-01
-4.72412500e-08,1.91684375e-01
-4.72012500e-08,1.91715625e-01
-4.71612500e-08,1.91684375e-01
-4.71212500e-08,1.91717187e-01
-4.70812500e-08,1.91678125e-01
-4.70412500e-08,1.91731250e-01
-4.70012500e-08,1.91645312e-01
-4.69612500e-08,1.91907812e-01
-4.69212500e-08,1.92156250e-01
-4.68812500e-08,1.92067188e-01
-4.68412500e-08,1.92125000e-01
-4.68012500e-08,1.92076562e-01
-4.67612500e-08,1.92121875e-01
-4.67212500e-08,1.92075000e-01
-4.66812500e-08,1.92132812e-01
-4.66412500e-08,1.92043750e-01
-4.66012500e-08,1.92309375e-01
-4.65612500e-08,1.92554688e-01
-4.65212500e-08,1.92468750e-01
-4.64812500e-08,1.92523438e-01
-4.64412500e-08,1.92479687e-01
-4.64012500e-08,1.92518750e-01
-4.63612500e-08,1.92481250e-01
-4.63212500e-08,1.92520313e-01
-4.62812500e-08,1.92475000e-01
-4.62412500e-08,1.92534375e-01
-4.62012500e-08,1.92442188e-01
-4.61612500e-08,1.92710938e-01
-4.61212500e-08,1.92951563e-01
-4.60812500e-08,1.92871875e-01
-4.60412500e-08,1.92920312e-01
-4.60012500e-08,1.92884375e-01
-4.59612500e-08,1.92912500e-01
-4.59212500e-08,1.92889063e-01
-4.58812500e-08,1.92909375e-01
-4.58412500e-08,1.92890625e-01
-4.58012500e-08,1.92909375e-01
-4.57612500e-08,1.92890625e-01
-4.57212500e-08,1.92909375e-01
-4.56812500e-08,1.92890625e-01
-4.56412500e-08,1.92909375e-01
-4.56012500e-08,1.92889063e-01
-4.55612500e-08,1.92912500e-01
-4.55212500e-08,1.92885937e-01
-4.54812500e-08,1.92917188e-01
-4.54412500e-08,1.92878125e-01
-4.54012500e-08,1.92931250e-01
-4.53612500e-08,1.92843750e-01
-4.53212500e-08,1.93109375e-01
-4.52812500e-08,1.93353125e-01
-4.52412500e-08,1.93270313e-01
-4.52012500e-08,1.93320313e-01
-4.51612500e-08,1.93284375e-01
-4.51212500e-08,1.93312500e-01
-4.50812500e-08,1.93289062e-01
-4.50412500e-08,1.93309375e-01
-4.50012500e-08,1.93292188e-01
-4.49612500e-08,1.93307813e-01
-4.49212500e-08,1.93293750e-01
-4.48812500e-08,1.93306250e-01
-4.48412500e-08,1.93293750e-01
-4.48012500e-08,1.93304688e-01
-4.47612500e-08,1.93295313e-01
-4.47212500e-08,1.93304688e-01
-4.46812500e-08,1.93295313e-01
-4.46412500e-08,1.93304688e-01
-4.46012500e-08,1.93296875e-01
-4.45612500e-08,1.93303125e-01
-4.45212500e-08,1.93296875e-01
-4.44812500e-08,1.93303125e-01
-4.44412500e-08,1.93296875e-01
-4.44012500e-08,1.93303125e-01
-4.43612500e-08,1.93296875e-01
-4.43212500e-08,1.93303125e-01
-4.42812500e-08,1.93298438e-01
-4.42412500e-08,1.93301562e-01
-4.42012500e-08,1.93298438e-01
-4.41612500e-08,1.93301562e-01
-4.41212500e-08,1.93298438e-01
-4.40812500e-08,1.93301562e-01
-4.40412500e-08,1.93300000e-01
-4.40012500e-08,1.93300000e-01
-4.39612500e-08,1.93300000e-01
-4.39212500e-08,1.93300000e-01
-4.38812500e-08,1.93301562e-01
-4.38412500e-08,1.93298438e-01
-4.38012500e-08,1.93303125e-01
-4.37612500e-08,1.93295313e-01
-4.37212500e-08,1.93306250e-01
-4.36812500e-08,1.93290625e-01
-4.36412500e-08,1.93315625e-01
-4.36012500e-08,1.93275000e-01
-4.35612500e-08,1.93350000e-01
-4.35212500e-08,1.93096875e-01
-4.34812500e-08,1.92840625e-01
-4.34412500e-08,1.92935938e-01
-4.34012500e-08,1.92873438e-01
-4.33612500e-08,1.92921875e-01
-4.33212500e-08,1.92881250e-01
-4.32812500e-08,1.92917188e-01
-4.32412500e-08,1.92884375e-01
-4.32012500e-08,1.92914063e-01
-4.31612500e-08,1.92885937e-01
-4.31212500e-08,1.92912500e-01
-4.30812500e-08,1.92887500e-01
-4.30412500e-08,1.92912500e-01
-4.30012500e-08,1.92889063e-01
-4.29612500e-08,1.92910938e-01
-4.29212500e-08,1.92889063e-01
-4.28812500e-08,1.92910938e-01
-4.28412500e-08,1.92889063e-01
-4.28012500e-08,1.92910938e-01
-4.27612500e-08,1.92889063e-01
-4.27212500e-08,1.92910938e-01
-4.26812500e-08,1.92889063e-01
-4.26412500e-08,1.92910938e-01
-4.26012500e-08,1.92889063e-01
-4.25612500e-08,1.92909375e-01
-4.25212500e-08,1.92889063e-01
-4.24812500e-08,1.92909375e-01
-4.24412500e-08,1.92889063e-01
-4.24012500e-08,1.92910938e-01
-4.23612500e-08,1.92889063e-01
-4.23212500e-08,1.92910938e-01
-4.22812500e-08,1.92889063e-01
-4.22412500e-08,1.92910938e-01
-4.22012500e-08,1.92889063e-01
-4.21612500e-08,1.92910938e-01
-4.21212500e-08,1.92889063e-01
-4.20812500e-08,1.92910938e-01
-4.20412500e-08,1.92889063e-01
-4.20012500e-08,1.92910938e-01
-4.19612500e-08,1.92889063e-01
-4.19212500e-08,1.92910938e-01
-4.18812500e-08,1.92887500e-01
-4.18412500e-08,1.92912500e-01
-4.18012500e-08,1.92887500e-01
-4.17612500e-08,1.92912500e-01
-4.17212500e-08,1.92887500e-01
-4.16812500e-08,1.92914063e-01
-4.16412500e-08,1.92885937e-01
-4.16012500e-08,1.92914063e-01
-4.15612500e-08,1.92884375e-01
-4.15212500e-08,1.92915625e-01
-4.14812500e-08,1.92884375e-01
-4.14412500e-08,1.92917188e-01
-4.14012500e-08,1.92881250e-01
-4.13612500e-08,1.92918750e-01
-4.13212500e-08,1.92879688e-01
-4.12812500e-08,1.92923438e-01
-4.12412500e-08,1.92873438e-01
-4.12012500e-08,1.92931250e-01
-4.11612500e-08,1.92857813e-01
-4.11212500e-08,1.92967187e-01
-4.10812500e-08,1.92679688e-01
-4.10412500e-08,1.92457812e-01
-4.10012500e-08,1.92517188e-01
-4.09612500e-08,1.92492188e-01
-4.09212500e-08,1.92501563e-01
-4.08812500e-08,1.92501563e-01
-4.08412500e-08,1.92496875e-01
-4.08012500e-08,1.92506250e-01
-4.07612500e-08,1.92492188e-01
-4.07212500e-08,1.92509375e-01
-4.06812500e-08,1.92489063e-01
-4.06412500e-08,1.92512500e-01
-4.06012500e-08,1.92484375e-01
-4.05612500e-08,1.92517188e-01
-4.05212500e-08,1.92478125e-01
-4.04812500e-08,1.92526562e-01
-4.04412500e-08,1.92462500e-01
-4.04012500e-08,1.92562500e-01
-4.03612500e-08,1.92284375e-01
-4.03212500e-08,1.92054688e-01
-4.02812500e-08,1.92121875e-01
-4.02412500e-08,1.92089063e-01
-4.02012500e-08,1.92106250e-01
-4.01612500e-08,1.92096875e-01
-4.01212500e-08,1.92100000e-01
-4.00812500e-08,1.92101563e-01
-4.00412500e-08,1.92096875e-01
-4.00012500e-08,1.92104688e-01
-3.99612500e-08,1.92093750e-01
-3.99212500e-08,1.92107813e-01
-3.98812500e-08,1.92092188e-01
-3.98412500e-08,1.92109375e-01
-3.98012500e-08,1.92089063e-01
-3.97612500e-08,1.92112500e-01
-3.97212500e-08,1.92087500e-01
-3.96812500e-08,1.92114063e-01
-3.96412500e-08,1.92084375e-01
-3.96012500e-08,1.92117188e-01
-3.95612500e-08,1.92081250e-01
-3.95212500e-08,1.92121875e-01
-3.94812500e-08,1.92075000e-01
-3.94412500e-08,1.92128125e-01
-3.94012500e-08,1.92065625e-01
-3.93612500e-08,1.92145312e-01
-3.93212500e-08,1.92028125e-01
-3.92812500e-08,1.92326563e-01
-3.92412500e-08,1.92532813e-01
-3.92012500e-08,1.92492188e-01
-3.91612500e-08,1.92495313e-01
-3.91212500e-08,1.92514062e-01
-3.90812500e-08,1.92476563e-01
-3.90412500e-08,1.92537500e-01
-3.90012500e-08,1.92434375e-01
-3.89612500e-08,1.92721875e-01
-3.89212500e-08,1.92937500e-01
-3.88812500e-08,1.92892188e-01
-3.88412500e-08,1.92892188e-01
-3.88012500e-08,1.92925000e-01
-3.87612500e-08,1.92845313e-01
-3.87212500e-08,1.93112500e-01
-3.86812500e-08,1.93345313e-01
-3.86412500e-08,1.93284375e-01
-3.86012500e-08,1.93300000e-01
-3.85612500e-08,1.93317188e-01
-3.85212500e-08,1.93253125e-01
