trails/0bdfa5e45fec98341abdd20552c140b4/aes_ch1_20250507115240274.csv

Model,MSO66B
Label,
Waveform Type,ANALOG
Horizontal Units,s
Sample Interval,4.00000000e-11
Record Length,10000
Zero Index,1599.16406250
Vertical Units,A
ANALOG_Thumbnail,
yOffset,1.84500000e-01
yPosition,8.40000000e-01

Labels,
TIME,CH1
-6.39665625e-08,1.88895312e-01
-6.39265625e-08,1.88907812e-01
-6.38865625e-08,1.88890625e-01
-6.38465625e-08,1.88912500e-01
-6.38065625e-08,1.88885938e-01
-6.37665625e-08,1.88915625e-01
-6.37265625e-08,1.88882812e-01
-6.36865625e-08,1.88920313e-01
-6.36465625e-08,1.88875000e-01
-6.36065625e-08,1.88929687e-01
-6.35665625e-08,1.88859375e-01
-6.35265625e-08,1.88967187e-01
-6.34865625e-08,1.88679687e-01
-6.34465625e-08,1.88460938e-01
-6.34065625e-08,1.88514062e-01
-6.33665625e-08,1.88498438e-01
-6.33265625e-08,1.88493750e-01
-6.32865625e-08,1.88515625e-01
-6.32465625e-08,1.88471875e-01
-6.32065625e-08,1.88554688e-01
-6.31665625e-08,1.88290625e-01
-6.31265625e-08,1.88050000e-01
-6.30865625e-08,1.88123438e-01
-6.30465625e-08,1.88087500e-01
-6.30065625e-08,1.88103125e-01
-6.29665625e-08,1.88106250e-01
-6.29265625e-08,1.88082813e-01
-6.28865625e-08,1.88145312e-01
-6.28465625e-08,1.87900000e-01
-6.28065625e-08,1.87640625e-01
-6.27665625e-08,1.87734375e-01
-6.27265625e-08,1.87678125e-01
-6.26865625e-08,1.87714063e-01
-6.26465625e-08,1.87693750e-01
-6.26065625e-08,1.87693750e-01
-6.25665625e-08,1.87731250e-01
-6.25265625e-08,1.87514062e-01
-6.24865625e-08,1.87223438e-01
-6.24465625e-08,1.87353125e-01
-6.24065625e-08,1.87256250e-01
-6.23665625e-08,1.87340625e-01
-6.23265625e-08,1.87259375e-01
-6.22865625e-08,1.87343750e-01
-6.22465625e-08,1.87248438e-01
-6.22065625e-08,1.87375000e-01
-6.21665625e-08,1.87073437e-01
-6.21265625e-08,1.86864063e-01
-6.20865625e-08,1.86912500e-01
-6.20465625e-08,1.86896875e-01
-6.20065625e-08,1.86898438e-01
-6.19665625e-08,1.86904687e-01
-6.19265625e-08,1.86892188e-01
-6.18865625e-08,1.86909375e-01
-6.18465625e-08,1.86889063e-01
-6.18065625e-08,1.86914063e-01
-6.17665625e-08,1.86882812e-01
-6.17265625e-08,1.86923438e-01
-6.16865625e-08,1.86867188e-01
-6.16465625e-08,1.86957813e-01
-6.16065625e-08,1.86689063e-01
-6.15665625e-08,1.86450000e-01
-6.15265625e-08,1.86526562e-01
-6.14865625e-08,1.86482813e-01
-6.14465625e-08,1.86512500e-01
-6.14065625e-08,1.86490625e-01
-6.13665625e-08,1.86506250e-01
-6.13265625e-08,1.86495313e-01
-6.12865625e-08,1.86503125e-01
-6.12465625e-08,1.86498438e-01
-6.12065625e-08,1.86501562e-01
-6.11665625e-08,1.86500000e-01
-6.11265625e-08,1.86498438e-01
-6.10865625e-08,1.86501562e-01
-6.10465625e-08,1.86496875e-01
-6.10065625e-08,1.86504688e-01
-6.09665625e-08,1.86492188e-01
-6.09265625e-08,1.86510938e-01
-6.08865625e-08,1.86484375e-01
-6.08465625e-08,1.86526562e-01
-6.08065625e-08,1.86450000e-01
-6.07665625e-08,1.86704688e-01
-6.07265625e-08,1.86957813e-01
-6.06865625e-08,1.86865625e-01
-6.06465625e-08,1.86925000e-01
-6.06065625e-08,1.86879688e-01
-6.05665625e-08,1.86917187e-01
-6.05265625e-08,1.86884375e-01
-6.04865625e-08,1.86914063e-01
-6.04465625e-08,1.86887500e-01
-6.04065625e-08,1.86912500e-01
-6.03665625e-08,1.86889063e-01
-6.03265625e-08,1.86910938e-01
-6.02865625e-08,1.86889063e-01
-6.02465625e-08,1.86909375e-01
-6.02065625e-08,1.86890625e-01
-6.01665625e-08,1.86909375e-01
-6.01265625e-08,1.86890625e-01
-6.00865625e-08,1.86909375e-01
-6.00465625e-08,1.86890625e-01
-6.00065625e-08,1.86909375e-01
-5.99665625e-08,1.86890625e-01
-5.99265625e-08,1.86909375e-01
-5.98865625e-08,1.86890625e-01
-5.98465625e-08,1.86909375e-01
-5.98065625e-08,1.86890625e-01
-5.97665625e-08,1.86910938e-01
-5.97265625e-08,1.86889063e-01
-5.96865625e-08,1.86910938e-01
-5.96465625e-08,1.86889063e-01
-5.96065625e-08,1.86912500e-01
-5.95665625e-08,1.86887500e-01
-5.95265625e-08,1.86914063e-01
-5.94865625e-08,1.86885938e-01
-5.94465625e-08,1.86915625e-01
-5.94065625e-08,1.86881250e-01
-5.93665625e-08,1.86921875e-01
-5.93265625e-08,1.86873438e-01
-5.92865625e-08,1.86935938e-01
-5.92465625e-08,1.86839063e-01
-5.92065625e-08,1.87114063e-01
-5.91665625e-08,1.87346875e-01
-5.91265625e-08,1.87276563e-01
-5.90865625e-08,1.87314063e-01
-5.90465625e-08,1.87290625e-01
-5.90065625e-08,1.87304688e-01
-5.89665625e-08,1.87296875e-01
-5.89265625e-08,1.87301563e-01
-5.88865625e-08,1.87300000e-01
-5.88465625e-08,1.87298437e-01
-5.88065625e-08,1.87303125e-01
-5.87665625e-08,1.87296875e-01
-5.87265625e-08,1.87304688e-01
-5.86865625e-08,1.87293750e-01
-5.86465625e-08,1.87307813e-01
-5.86065625e-08,1.87292188e-01
-5.85665625e-08,1.87310937e-01
-5.85265625e-08,1.87287500e-01
-5.84865625e-08,1.87315625e-01
-5.84465625e-08,1.87278125e-01
-5.84065625e-08,1.87331250e-01
-5.83665625e-08,1.87243750e-01
-5.83265625e-08,1.87509375e-01
-5.82865625e-08,1.87751562e-01
-5.82465625e-08,1.87671875e-01
-5.82065625e-08,1.87718750e-01
-5.81665625e-08,1.87685938e-01
-5.81265625e-08,1.87710938e-01
-5.80865625e-08,1.87692187e-01
-5.80465625e-08,1.87706250e-01
-5.80065625e-08,1.87695313e-01
-5.79665625e-08,1.87703125e-01
-5.79265625e-08,1.87696875e-01
-5.78865625e-08,1.87701563e-01
-5.78465625e-08,1.87698438e-01
-5.78065625e-08,1.87700000e-01
-5.77665625e-08,1.87700000e-01
-5.77265625e-08,1.87698438e-01
-5.76865625e-08,1.87701563e-01
-5.76465625e-08,1.87696875e-01
-5.76065625e-08,1.87703125e-01
-5.75665625e-08,1.87695313e-01
-5.75265625e-08,1.87704687e-01
-5.74865625e-08,1.87693750e-01
-5.74465625e-08,1.87707813e-01
-5.74065625e-08,1.87689063e-01
-5.73665625e-08,1.87714063e-01
-5.73265625e-08,1.87681250e-01
-5.72865625e-08,1.87729688e-01
-5.72465625e-08,1.87645312e-01
-5.72065625e-08,1.87907812e-01
-5.71665625e-08,1.88154688e-01
-5.71265625e-08,1.88068750e-01
-5.70865625e-08,1.88120312e-01
-5.70465625e-08,1.88084375e-01
-5.70065625e-08,1.88112500e-01
-5.69665625e-08,1.88089063e-01
-5.69265625e-08,1.88109375e-01
-5.68865625e-08,1.88092188e-01
-5.68465625e-08,1.88106250e-01
-5.68065625e-08,1.88093750e-01
-5.67665625e-08,1.88104688e-01
-5.67265625e-08,1.88095313e-01
-5.66865625e-08,1.88104688e-01
-5.66465625e-08,1.88096875e-01
-5.66065625e-08,1.88103125e-01
-5.65665625e-08,1.88096875e-01
-5.65265625e-08,1.88101563e-01
-5.64865625e-08,1.88098437e-01
-5.64465625e-08,1.88101563e-01
-5.64065625e-08,1.88098437e-01
-5.63665625e-08,1.88101563e-01
-5.63265625e-08,1.88100000e-01
-5.62865625e-08,1.88100000e-01
-5.62465625e-08,1.88100000e-01
-5.62065625e-08,1.88100000e-01
-5.61665625e-08,1.88101563e-01
-5.61265625e-08,1.88098437e-01
-5.60865625e-08,1.88101563e-01
-5.60465625e-08,1.88098437e-01
-5.60065625e-08,1.88101563e-01
-5.59665625e-08,1.88096875e-01
-5.59265625e-08,1.88103125e-01
-5.58865625e-08,1.88096875e-01
-5.58465625e-08,1.88104688e-01
-5.58065625e-08,1.88095313e-01
-5.57665625e-08,1.88106250e-01
-5.57265625e-08,1.88093750e-01
-5.56865625e-08,1.88107812e-01
-5.56465625e-08,1.88092188e-01
-5.56065625e-08,1.88109375e-01
-5.55665625e-08,1.88087500e-01
-5.55265625e-08,1.88114063e-01
-5.54865625e-08,1.88082813e-01
-5.54465625e-08,1.88123438e-01
-5.54065625e-08,1.88067188e-01
-5.53665625e-08,1.88159375e-01
-5.53265625e-08,1.87887500e-01
-5.52865625e-08,1.87650000e-01
-5.52465625e-08,1.87725000e-01
-5.52065625e-08,1.87685938e-01
-5.51665625e-08,1.87707813e-01
-5.51265625e-08,1.87695313e-01
-5.50865625e-08,1.87700000e-01
-5.50465625e-08,1.87703125e-01
-5.50065625e-08,1.87692187e-01
-5.49665625e-08,1.87714063e-01
-5.49265625e-08,1.87675000e-01
-5.48865625e-08,1.87750000e-01
-5.48465625e-08,1.87495313e-01
-5.48065625e-08,1.87243750e-01
-5.47665625e-08,1.87331250e-01
-5.47265625e-08,1.87278125e-01
-5.46865625e-08,1.87315625e-01
-5.46465625e-08,1.87289063e-01
-5.46065625e-08,1.87307813e-01
-5.45665625e-08,1.87296875e-01
-5.45265625e-08,1.87298437e-01
-5.44865625e-08,1.87306250e-01
-5.44465625e-08,1.87282813e-01
-5.44065625e-08,1.87343750e-01
-5.43665625e-08,1.87103125e-01
-5.43265625e-08,1.86834375e-01
-5.42865625e-08,1.86940625e-01
-5.42465625e-08,1.86868750e-01
-5.42065625e-08,1.86925000e-01
-5.41665625e-08,1.86878125e-01
-5.41265625e-08,1.86920313e-01
-5.40865625e-08,1.86881250e-01
-5.40465625e-08,1.86917187e-01
-5.40065625e-08,1.86884375e-01
-5.39665625e-08,1.86915625e-01
-5.39265625e-08,1.86885938e-01
-5.38865625e-08,1.86914063e-01
-5.38465625e-08,1.86887500e-01
-5.38065625e-08,1.86912500e-01
-5.37665625e-08,1.86887500e-01
-5.37265625e-08,1.86912500e-01
-5.36865625e-08,1.86889063e-01
-5.36465625e-08,1.86910938e-01
-5.36065625e-08,1.86889063e-01
-5.35665625e-08,1.86910938e-01
-5.35265625e-08,1.86889063e-01
-5.34865625e-08,1.86910938e-01
-5.34465625e-08,1.86889063e-01
-5.34065625e-08,1.86910938e-01
-5.33665625e-08,1.86889063e-01
-5.33265625e-08,1.86910938e-01
-5.32865625e-08,1.86889063e-01
-5.32465625e-08,1.86909375e-01
-5.32065625e-08,1.86890625e-01
-5.31665625e-08,1.86910938e-01
-5.31265625e-08,1.86889063e-01
-5.30865625e-08,1.86910938e-01
-5.30465625e-08,1.86889063e-01
-5.30065625e-08,1.86910938e-01
-5.29665625e-08,1.86889063e-01
-5.29265625e-08,1.86910938e-01
-5.28865625e-08,1.86889063e-01
-5.28465625e-08,1.86910938e-01
-5.28065625e-08,1.86889063e-01
-5.27665625e-08,1.86912500e-01
-5.27265625e-08,1.86887500e-01
-5.26865625e-08,1.86914063e-01
-5.26465625e-08,1.86885938e-01
-5.26065625e-08,1.86915625e-01
-5.25665625e-08,1.86881250e-01
-5.25265625e-08,1.86921875e-01
-5.24865625e-08,1.86873438e-01
-5.24465625e-08,1.86935938e-01
-5.24065625e-08,1.86839063e-01
-5.23665625e-08,1.87114063e-01
-5.23265625e-08,1.87348438e-01
-5.22865625e-08,1.87275000e-01
-5.22465625e-08,1.87315625e-01
-5.22065625e-08,1.87289063e-01
-5.21665625e-08,1.87307813e-01
-5.21265625e-08,1.87293750e-01
-5.20865625e-08,1.87304688e-01
-5.20465625e-08,1.87296875e-01
-5.20065625e-08,1.87301563e-01
-5.19665625e-08,1.87298437e-01
-5.19265625e-08,1.87301563e-01
-5.18865625e-08,1.87300000e-01
-5.18465625e-08,1.87300000e-01
-5.18065625e-08,1.87300000e-01
-5.17665625e-08,1.87300000e-01
-5.17265625e-08,1.87300000e-01
-5.16865625e-08,1.87300000e-01
-5.16465625e-08,1.87301563e-01
-5.16065625e-08,1.87298437e-01
-5.15665625e-08,1.87301563e-01
-5.15265625e-08,1.87298437e-01
-5.14865625e-08,1.87301563e-01
-5.14465625e-08,1.87298437e-01
-5.14065625e-08,1.87301563e-01
-5.13665625e-08,1.87298437e-01
-5.13265625e-08,1.87301563e-01
-5.12865625e-08,1.87298437e-01
-5.12465625e-08,1.87301563e-01
-5.12065625e-08,1.87298437e-01
-5.11665625e-08,1.87301563e-01
-5.11265625e-08,1.87298437e-01
-5.10865625e-08,1.87301563e-01
-5.10465625e-08,1.87298437e-01
-5.10065625e-08,1.87301563e-01
-5.09665625e-08,1.87298437e-01
-5.09265625e-08,1.87301563e-01
-5.08865625e-08,1.87298437e-01
-5.08465625e-08,1.87301563e-01
-5.08065625e-08,1.87298437e-01
-5.07665625e-08,1.87301563e-01
-5.07265625e-08,1.87298437e-01
-5.06865625e-08,1.87301563e-01
-5.06465625e-08,1.87298437e-01
-5.06065625e-08,1.87301563e-01
-5.05665625e-08,1.87298437e-01
-5.05265625e-08,1.87301563e-01
-5.04865625e-08,1.87298437e-01
-5.04465625e-08,1.87301563e-01
-5.04065625e-08,1.87298437e-01
-5.03665625e-08,1.87301563e-01
-5.03265625e-08,1.87298437e-01
-5.02865625e-08,1.87300000e-01
-5.02465625e-08,1.87300000e-01
-5.02065625e-08,1.87300000e-01
-5.01665625e-08,1.87300000e-01
-5.01265625e-08,1.87300000e-01
-5.00865625e-08,1.87301563e-01
-5.00465625e-08,1.87298437e-01
-5.00065625e-08,1.87301563e-01
-4.99665625e-08,1.87296875e-01
-4.99265625e-08,1.87304688e-01
-4.98865625e-08,1.87293750e-01
-4.98465625e-08,1.87309375e-01
-4.98065625e-08,1.87285937e-01
-4.97665625e-08,1.87323437e-01
-4.97265625e-08,1.87251562e-01
-4.96865625e-08,1.87501562e-01
-4.96465625e-08,1.87760938e-01
-4.96065625e-08,1.87662500e-01
-4.95665625e-08,1.87728125e-01
-4.95265625e-08,1.87676563e-01
-4.94865625e-08,1.87721875e-01
-4.94465625e-08,1.87679687e-01
-4.94065625e-08,1.87718750e-01
-4.93665625e-08,1.87681250e-01
-4.93265625e-08,1.87718750e-01
-4.92865625e-08,1.87681250e-01
-4.92465625e-08,1.87720313e-01
-4.92065625e-08,1.87678125e-01
-4.91665625e-08,1.87723438e-01
-4.91265625e-08,1.87670313e-01
-4.90865625e-08,1.87739062e-01
-4.90465625e-08,1.87637500e-01
-4.90065625e-08,1.87915625e-01
-4.89665625e-08,1.88146875e-01
-4.89265625e-08,1.88076563e-01
-4.88865625e-08,1.88114063e-01
-4.88465625e-08,1.88090625e-01
-4.88065625e-08,1.88106250e-01
-4.87665625e-08,1.88096875e-01
-4.87265625e-08,1.88101563e-01
-4.86865625e-08,1.88098437e-01
-4.86465625e-08,1.88100000e-01
-4.86065625e-08,1.88100000e-01
-4.85665625e-08,1.88098437e-01
-4.85265625e-08,1.88101563e-01
-4.84865625e-08,1.88098437e-01
-4.84465625e-08,1.88101563e-01
-4.84065625e-08,1.88096875e-01
-4.83665625e-08,1.88103125e-01
-4.83265625e-08,1.88096875e-01
-4.82865625e-08,1.88103125e-01
-4.82465625e-08,1.88095313e-01
-4.82065625e-08,1.88104688e-01
-4.81665625e-08,1.88095313e-01
-4.81265625e-08,1.88104688e-01
-4.80865625e-08,1.88095313e-01
-4.80465625e-08,1.88106250e-01
-4.80065625e-08,1.88093750e-01
-4.79665625e-08,1.88106250e-01
-4.79265625e-08,1.88092188e-01
-4.78865625e-08,1.88107812e-01
-4.78465625e-08,1.88090625e-01
-4.78065625e-08,1.88109375e-01
-4.77665625e-08,1.88089063e-01
-4.77265625e-08,1.88114063e-01
-4.76865625e-08,1.88082813e-01
-4.76465625e-08,1.88121875e-01
-4.76065625e-08,1.88068750e-01
-4.75665625e-08,1.88156250e-01
-4.75265625e-08,1.87890625e-01
-4.74865625e-08,1.87646875e-01
-4.74465625e-08,1.87729688e-01
-4.74065625e-08,1.87679687e-01
-4.73665625e-08,1.87715625e-01
-4.73265625e-08,1.87687500e-01
-4.72865625e-08,1.87710938e-01
-4.72465625e-08,1.87690625e-01
-4.72065625e-08,1.87707813e-01
-4.71665625e-08,1.87692187e-01
-4.71265625e-08,1.87707813e-01
-4.70865625e-08,1.87693750e-01
-4.70465625e-08,1.87707813e-01
-4.70065625e-08,1.87692187e-01
-4.69665625e-08,1.87707813e-01
-4.69265625e-08,1.87690625e-01
-4.68865625e-08,1.87710938e-01
-4.68465625e-08,1.87685938e-01
-4.68065625e-08,1.87718750e-01
-4.67665625e-08,1.87673438e-01
-4.67265625e-08,1.87751562e-01
-4.66865625e-08,1.87495313e-01
-4.66465625e-08,1.87242188e-01
-4.66065625e-08,1.87334375e-01
-4.65665625e-08,1.87273438e-01
-4.65265625e-08,1.87321875e-01
-4.64865625e-08,1.87281250e-01
-4.64465625e-08,1.87317188e-01
-4.64065625e-08,1.87282813e-01
-4.63665625e-08,1.87317188e-01
-4.63265625e-08,1.87282813e-01
-4.62865625e-08,1.87317188e-01
-4.62465625e-08,1.87281250e-01
-4.62065625e-08,1.87320313e-01
-4.61665625e-08,1.87276563e-01
-4.61265625e-08,1.87328125e-01
-4.60865625e-08,1.87262500e-01
-4.60465625e-08,1.87362500e-01
-4.60065625e-08,1.87084375e-01
-4.59665625e-08,1.86853125e-01
-4.59265625e-08,1.86923438e-01
-4.58865625e-08,1.86885938e-01
-4.58465625e-08,1.86909375e-01
-4.58065625e-08,1.86893750e-01
-4.57665625e-08,1.86903125e-01
-4.57265625e-08,1.86898438e-01
-4.56865625e-08,1.86900000e-01
-4.56465625e-08,1.86900000e-01
-4.56065625e-08,1.86898438e-01
-4.55665625e-08,1.86901563e-01
-4.55265625e-08,1.86896875e-01
-4.54865625e-08,1.86903125e-01
-4.54465625e-08,1.86895313e-01
-4.54065625e-08,1.86904687e-01
-4.53665625e-08,1.86893750e-01
-4.53265625e-08,1.86906250e-01
-4.52865625e-08,1.86893750e-01
-4.52465625e-08,1.86907812e-01
-4.52065625e-08,1.86890625e-01
-4.51665625e-08,1.86909375e-01
-4.51265625e-08,1.86889063e-01
-4.50865625e-08,1.86912500e-01
-4.50465625e-08,1.86884375e-01
-4.50065625e-08,1.86918750e-01
-4.49665625e-08,1.86875000e-01
-4.49265625e-08,1.86934375e-01
-4.48865625e-08,1.86840625e-01
-4.48465625e-08,1.87114063e-01
-4.48065625e-08,1.87348438e-01
-4.47665625e-08,1.87276563e-01
-4.47265625e-08,1.87312500e-01
-4.46865625e-08,1.87293750e-01
-4.46465625e-08,1.87303125e-01
-4.46065625e-08,1.87301563e-01
-4.45665625e-08,1.87295313e-01
-4.45265625e-08,1.87309375e-01
-4.44865625e-08,1.87284375e-01
-4.44465625e-08,1.87326563e-01
-4.44065625e-08,1.87248438e-01
-4.43665625e-08,1.87506250e-01
-4.43265625e-08,1.87756250e-01
-4.42865625e-08,1.87668750e-01
-4.42465625e-08,1.87720313e-01
-4.42065625e-08,1.87685938e-01
-4.41665625e-08,1.87710938e-01
-4.41265625e-08,1.87693750e-01
-4.40865625e-08,1.87703125e-01
-4.40465625e-08,1.87701563e-01
-4.40065625e-08,1.87692187e-01
-4.39665625e-08,1.87717187e-01
-4.39265625e-08,1.87656250e-01
-4.38865625e-08,1.87896875e-01
-4.38465625e-08,1.88165625e-01
-4.38065625e-08,1.88059375e-01
-4.37665625e-08,1.88131250e-01
-4.37265625e-08,1.88073437e-01
-4.36865625e-08,1.88123438e-01
-4.36465625e-08,1.88078125e-01
-4.36065625e-08,1.88120312e-01
-4.35665625e-08,1.88079688e-01
-4.35265625e-08,1.88120312e-01
-4.34865625e-08,1.88079688e-01
-4.34465625e-08,1.88120312e-01
-4.34065625e-08,1.88078125e-01
-4.33665625e-08,1.88125000e-01
-4.33265625e-08,1.88070313e-01
-4.32865625e-08,1.88139063e-01
-4.32465625e-08,1.88037500e-01
-4.32065625e-08,1.88315625e-01
-4.31665625e-08,1.88546875e-01
-4.31265625e-08,1.88476562e-01
-4.30865625e-08,1.88514062e-01
-4.30465625e-08,1.88490625e-01
-4.30065625e-08,1.88506250e-01
-4.29665625e-08,1.88495313e-01
-4.29265625e-08,1.88503125e-01
-4.28865625e-08,1.88496875e-01
-4.28465625e-08,1.88501562e-01
-4.28065625e-08,1.88498438e-01
-4.27665625e-08,1.88500000e-01
-4.27265625e-08,1.88500000e-01
-4.26865625e-08,1.88500000e-01
-4.26465625e-08,1.88500000e-01
-4.26065625e-08,1.88500000e-01
-4.25665625e-08,1.88500000e-01
-4.25265625e-08,1.88500000e-01
-4.24865625e-08,1.88500000e-01
-4.24465625e-08,1.88500000e-01
-4.24065625e-08,1.88500000e-01
-4.23665625e-08,1.88500000e-01
-4.23265625e-08,1.88501562e-01
-4.22865625e-08,1.88498438e-01
-4.22465625e-08,1.88501562e-01
-4.22065625e-08,1.88498438e-01
-4.21665625e-08,1.88501562e-01
-4.21265625e-08,1.88498438e-01
-4.20865625e-08,1.88501562e-01
-4.20465625e-08,1.88498438e-01
-4.20065625e-08,1.88501562e-01
-4.19665625e-08,1.88498438e-01
-4.19265625e-08,1.88501562e-01
-4.18865625e-08,1.88498438e-01
-4.18465625e-08,1.88501562e-01
-4.18065625e-08,1.88498438e-01
-4.17665625e-08,1.88501562e-01
-4.17265625e-08,1.88498438e-01
-4.16865625e-08,1.88501562e-01
-4.16465625e-08,1.88498438e-01
-4.16065625e-08,1.88501562e-01
-4.15665625e-08,1.88498438e-01
-4.15265625e-08,1.88501562e-01
-4.14865625e-08,1.88500000e-01
-4.14465625e-08,1.88501562e-01
-4.14065625e-08,1.88498438e-01
-4.13665625e-08,1.88500000e-01
-4.13265625e-08,1.88500000e-01
-4.12865625e-08,1.88500000e-01
-4.12465625e-08,1.88500000e-01
-4.12065625e-08,1.88500000e-01
-4.11665625e-08,1.88500000e-01
-4.11265625e-08,1.88500000e-01
-4.10865625e-08,1.88500000e-01
-4.10465625e-08,1.88500000e-01
-4.10065625e-08,1.88500000e-01
-4.09665625e-08,1.88500000e-01
-4.09265625e-08,1.88500000e-01
-4.08865625e-08,1.88500000e-01
-4.08465625e-08,1.88500000e-01
-4.08065625e-08,1.88500000e-01
-4.07665625e-08,1.88500000e-01
-4.07265625e-08,1.88500000e-01
-4.06865625e-08,1.88500000e-01
-4.06465625e-08,1.88500000e-01
-4.06065625e-08,1.88500000e-01
-4.05665625e-08,1.88500000e-01
-4.05265625e-08,1.88500000e-01
-4.04865625e-08,1.88500000e-01
-4.04465625e-08,1.88500000e-01
-4.04065625e-08,1.88500000e-01
-4.03665625e-08,1.88500000e-01
-4.03265625e-08,1.88500000e-01
-4.02865625e-08,1.88500000e-01
-4.02465625e-08,1.88500000e-01
-4.02065625e-08,1.88500000e-01
-4.01665625e-08,1.88500000e-01
-4.01265625e-08,1.88500000e-01
-4.00865625e-08,1.88500000e-01
-4.00465625e-08,1.88500000e-01
-4.00065625e-08,1.88500000e-01
-3.99665625e-08,1.88500000e-01
-3.99265625e-08,1.88500000e-01
-3.98865625e-08,1.88500000e-01
-3.98465625e-08,1.88500000e-01
-3.98065625e-08,1.88500000e-01
-3.97665625e-08,1.88500000e-01
-3.97265625e-08,1.88500000e-01
-3.96865625e-08,1.88500000e-01
-3.96465625e-08,1.88500000e-01
-3.96065625e-08,1.88500000e-01
-3.95665625e-08,1.88501562e-01
-3.95265625e-08,1.88498438e-01
-3.94865625e-08,1.88501562e-01
-3.94465625e-08,1.88498438e-01
-3.94065625e-08,1.88501562e-01
-3.93665625e-08,1.88498438e-01
-3.93265625e-08,1.88501562e-01
-3.92865625e-08,1.88498438e-01
-3.92465625e-08,1.88501562e-01
-3.92065625e-08,1.88498438e-01
-3.91665625e-08,1.88501562e-01
-3.91265625e-08,1.88498438e-01
-3.90865625e-08,1.88503125e-01
-3.90465625e-08,1.88496875e-01
-3.90065625e-08,1.88503125e-01
-3.89665625e-08,1.88496875e-01
-3.89265625e-08,1.88503125e-01
-3.88865625e-08,1.88496875e-01
-3.88465625e-08,1.88504688e-01
-3.88065625e-08,1.88495313e-01
-3.87665625e-08,1.88504688e-01
-3.87265625e-08,1.88493750e-01
-3.86865625e-08,1.88506250e-01
-3.86465625e-08,1.88492188e-01
-3.86065625e-08,1.88509375e-01
-3.85665625e-08,1.88487500e-01
-3.85265625e-08,1.88514062e-01
