trails/0bdfa5e45fec98341abdd20552c140b4/aes_ch1_20250507121513572.csv

Model,MSO66B
Label,
Waveform Type,ANALOG
Horizontal Units,s
Sample Interval,4.00000000e-11
Record Length,10000
Zero Index,1599.08203125
Vertical Units,A
ANALOG_Thumbnail,
yOffset,1.84500000e-01
yPosition,8.40000000e-01

Labels,
TIME,CH1
-6.39632812e-08,1.84500000e-01
-6.39232812e-08,1.84501562e-01
-6.38832812e-08,1.84498438e-01
-6.38432812e-08,1.84501562e-01
-6.38032812e-08,1.84496875e-01
-6.37632813e-08,1.84503125e-01
-6.37232812e-08,1.84496875e-01
-6.36832812e-08,1.84503125e-01
-6.36432812e-08,1.84495313e-01
-6.36032812e-08,1.84504688e-01
-6.35632812e-08,1.84495313e-01
-6.35232812e-08,1.84504688e-01
-6.34832813e-08,1.84493750e-01
-6.34432812e-08,1.84506250e-01
-6.34032812e-08,1.84493750e-01
-6.33632812e-08,1.84507813e-01
-6.33232812e-08,1.84492188e-01
-6.32832812e-08,1.84507813e-01
-6.32432812e-08,1.84490625e-01
-6.32032813e-08,1.84510937e-01
-6.31632812e-08,1.84489062e-01
-6.31232812e-08,1.84512500e-01
-6.30832812e-08,1.84484375e-01
-6.30432812e-08,1.84518750e-01
-6.30032812e-08,1.84476562e-01
-6.29632812e-08,1.84534375e-01
-6.29232813e-08,1.84440625e-01
-6.28832812e-08,1.84712500e-01
-6.28432812e-08,1.84950000e-01
-6.28032812e-08,1.84873438e-01
-6.27632812e-08,1.84917187e-01
-6.27232812e-08,1.84889063e-01
-6.26832812e-08,1.84907813e-01
-6.26432813e-08,1.84893750e-01
-6.26032812e-08,1.84904687e-01
-6.25632812e-08,1.84896875e-01
-6.25232812e-08,1.84901563e-01
-6.24832812e-08,1.84900000e-01
-6.24432812e-08,1.84898438e-01
-6.24032812e-08,1.84901563e-01
-6.23632813e-08,1.84896875e-01
-6.23232812e-08,1.84904687e-01
-6.22832812e-08,1.84893750e-01
-6.22432812e-08,1.84907813e-01
-6.22032812e-08,1.84890625e-01
-6.21632812e-08,1.84914063e-01
-6.21232812e-08,1.84881250e-01
-6.20832813e-08,1.84928125e-01
-6.20432812e-08,1.84846875e-01
-6.20032812e-08,1.85106250e-01
-6.19632812e-08,1.85354688e-01
-6.19232812e-08,1.85268750e-01
-6.18832813e-08,1.85321875e-01
-6.18432812e-08,1.85284375e-01
-6.18032813e-08,1.85312500e-01
-6.17632812e-08,1.85289063e-01
-6.17232812e-08,1.85309375e-01
-6.16832812e-08,1.85292188e-01
-6.16432812e-08,1.85307813e-01
-6.16032813e-08,1.85293750e-01
-6.15632812e-08,1.85306250e-01
-6.15232813e-08,1.85295313e-01
-6.14832812e-08,1.85304688e-01
-6.14432812e-08,1.85296875e-01
-6.14032812e-08,1.85303125e-01
-6.13632812e-08,1.85296875e-01
-6.13232813e-08,1.85303125e-01
-6.12832812e-08,1.85298437e-01
-6.12432813e-08,1.85301563e-01
-6.12032812e-08,1.85298437e-01
-6.11632812e-08,1.85301563e-01
-6.11232812e-08,1.85300000e-01
-6.10832812e-08,1.85300000e-01
-6.10432813e-08,1.85300000e-01
-6.10032812e-08,1.85300000e-01
-6.09632813e-08,1.85301563e-01
-6.09232812e-08,1.85298437e-01
-6.08832812e-08,1.85303125e-01
-6.08432812e-08,1.85296875e-01
-6.08032812e-08,1.85303125e-01
-6.07632813e-08,1.85295313e-01
-6.07232812e-08,1.85306250e-01
-6.06832813e-08,1.85292188e-01
-6.06432812e-08,1.85309375e-01
-6.06032812e-08,1.85287500e-01
-6.05632812e-08,1.85318750e-01
-6.05232812e-08,1.85271875e-01
-6.04832813e-08,1.85353125e-01
-6.04432812e-08,1.85093750e-01
-6.04032813e-08,1.84843750e-01
-6.03632812e-08,1.84932813e-01
-6.03232812e-08,1.84878125e-01
-6.02832812e-08,1.84917187e-01
-6.02432812e-08,1.84885938e-01
-6.02032813e-08,1.84912500e-01
-6.01632812e-08,1.84889063e-01
-6.01232813e-08,1.84909375e-01
-6.00832812e-08,1.84890625e-01
-6.00432812e-08,1.84907813e-01
-6.00032812e-08,1.84892187e-01
-5.99632812e-08,1.84906250e-01
-5.99232813e-08,1.84893750e-01
-5.98832812e-08,1.84906250e-01
-5.98432812e-08,1.84895313e-01
-5.98032812e-08,1.84904687e-01
-5.97632812e-08,1.84895313e-01
-5.97232812e-08,1.84904687e-01
-5.96832812e-08,1.84896875e-01
-5.96432813e-08,1.84903125e-01
-5.96032812e-08,1.84896875e-01
-5.95632812e-08,1.84903125e-01
-5.95232812e-08,1.84896875e-01
-5.94832812e-08,1.84901563e-01
-5.94432812e-08,1.84898438e-01
-5.94032812e-08,1.84901563e-01
-5.93632812e-08,1.84898438e-01
-5.93232812e-08,1.84900000e-01
-5.92832812e-08,1.84900000e-01
-5.92432812e-08,1.84900000e-01
-5.92032812e-08,1.84900000e-01
-5.91632812e-08,1.84898438e-01
-5.91232812e-08,1.84901563e-01
-5.90832812e-08,1.84896875e-01
-5.90432812e-08,1.84904687e-01
-5.90032812e-08,1.84893750e-01
-5.89632812e-08,1.84907813e-01
-5.89232812e-08,1.84889063e-01
-5.88832812e-08,1.84915625e-01
-5.88432812e-08,1.84873438e-01
-5.88032812e-08,1.84951562e-01
-5.87632812e-08,1.84695313e-01
-5.87232812e-08,1.84442188e-01
-5.86832812e-08,1.84534375e-01
-5.86432812e-08,1.84475000e-01
-5.86032812e-08,1.84518750e-01
-5.85632812e-08,1.84484375e-01
-5.85232812e-08,1.84514063e-01
-5.84832812e-08,1.84487500e-01
-5.84432812e-08,1.84510937e-01
-5.84032812e-08,1.84490625e-01
-5.83632812e-08,1.84509375e-01
-5.83232812e-08,1.84492188e-01
-5.82832812e-08,1.84507813e-01
-5.82432812e-08,1.84493750e-01
-5.82032812e-08,1.84506250e-01
-5.81632812e-08,1.84495313e-01
-5.81232812e-08,1.84504688e-01
-5.80832812e-08,1.84496875e-01
-5.80432812e-08,1.84501562e-01
-5.80032812e-08,1.84500000e-01
-5.79632812e-08,1.84496875e-01
-5.79232812e-08,1.84507813e-01
-5.78832812e-08,1.84482813e-01
-5.78432812e-08,1.84542188e-01
-5.78032812e-08,1.84304688e-01
-5.77632812e-08,1.84032813e-01
-5.77232812e-08,1.84143750e-01
-5.76832812e-08,1.84064063e-01
-5.76432812e-08,1.84131250e-01
-5.76032812e-08,1.84070312e-01
-5.75632812e-08,1.84129687e-01
-5.75232812e-08,1.84070312e-01
-5.74832812e-08,1.84131250e-01
-5.74432812e-08,1.84064063e-01
-5.74032812e-08,1.84145313e-01
-5.73632812e-08,1.84029688e-01
-5.73232812e-08,1.84321875e-01
-5.72832812e-08,1.84540625e-01
-5.72432812e-08,1.84484375e-01
-5.72032812e-08,1.84506250e-01
-5.71632812e-08,1.84498438e-01
-5.71232812e-08,1.84498438e-01
-5.70832812e-08,1.84504688e-01
-5.70432812e-08,1.84493750e-01
-5.70032812e-08,1.84509375e-01
-5.69632812e-08,1.84489062e-01
-5.69232812e-08,1.84514063e-01
-5.68832812e-08,1.84479688e-01
-5.68432812e-08,1.84529688e-01
-5.68032812e-08,1.84446875e-01
-5.67632812e-08,1.84706250e-01
-5.67232812e-08,1.84956250e-01
-5.66832812e-08,1.84865625e-01
-5.66432812e-08,1.84928125e-01
-5.66032812e-08,1.84873438e-01
-5.65632812e-08,1.84932813e-01
-5.65232812e-08,1.84845312e-01
-5.64832812e-08,1.85104688e-01
-5.64432812e-08,1.85360938e-01
-5.64032812e-08,1.85259375e-01
-5.63632812e-08,1.85334375e-01
-5.63232812e-08,1.85264062e-01
-5.62832812e-08,1.85343750e-01
-5.62432812e-08,1.85232813e-01
-5.62032812e-08,1.85520313e-01
-5.61632812e-08,1.85740625e-01
-5.61232812e-08,1.85684375e-01
-5.60832812e-08,1.85701563e-01
-5.60432812e-08,1.85710938e-01
-5.60032812e-08,1.85662500e-01
-5.59632812e-08,1.85892188e-01
-5.59232812e-08,1.86170313e-01
-5.58832812e-08,1.86051563e-01
-5.58432812e-08,1.86142188e-01
-5.58032812e-08,1.86057813e-01
-5.57632812e-08,1.86148438e-01
-5.57232812e-08,1.86029688e-01
-5.56832812e-08,1.86323437e-01
-5.56432812e-08,1.86540625e-01
-5.56032812e-08,1.86482813e-01
-5.55632812e-08,1.86506250e-01
-5.55232812e-08,1.86498438e-01
-5.54832812e-08,1.86496875e-01
-5.54432812e-08,1.86507813e-01
-5.54032812e-08,1.86485938e-01
-5.53632812e-08,1.86525000e-01
-5.53232812e-08,1.86450000e-01
-5.52832812e-08,1.86703125e-01
-5.52432812e-08,1.86957813e-01
-5.52032812e-08,1.86865625e-01
-5.51632812e-08,1.86923438e-01
-5.51232812e-08,1.86881250e-01
-5.50832812e-08,1.86914063e-01
-5.50432812e-08,1.86887500e-01
-5.50032812e-08,1.86909375e-01
-5.49632812e-08,1.86893750e-01
-5.49232812e-08,1.86903125e-01
-5.48832812e-08,1.86903125e-01
-5.48432812e-08,1.86887500e-01
-5.48032812e-08,1.86937500e-01
-5.47632812e-08,1.86710938e-01
-5.47232812e-08,1.86426563e-01
-5.46832812e-08,1.86550000e-01
-5.46432812e-08,1.86459375e-01
-5.46032812e-08,1.86537500e-01
-5.45632812e-08,1.86464062e-01
-5.45232812e-08,1.86535937e-01
-5.44832812e-08,1.86460938e-01
-5.44432812e-08,1.86543750e-01
-5.44032812e-08,1.86446875e-01
-5.43632812e-08,1.86578125e-01
-5.43232812e-08,1.86268750e-01
-5.42832812e-08,1.86068750e-01
-5.42432812e-08,1.86106250e-01
-5.42032812e-08,1.86106250e-01
-5.41632812e-08,1.86085938e-01
-5.41232812e-08,1.86121875e-01
-5.40832812e-08,1.86065625e-01
-5.40432812e-08,1.86160938e-01
-5.40032812e-08,1.85884375e-01
-5.39632812e-08,1.85654687e-01
-5.39232812e-08,1.85720313e-01
-5.38832812e-08,1.85690625e-01
-5.38432812e-08,1.85703125e-01
-5.38032812e-08,1.85703125e-01
-5.37632812e-08,1.85692187e-01
-5.37232812e-08,1.85714062e-01
-5.36832812e-08,1.85675000e-01
-5.36432812e-08,1.85751562e-01
-5.36032812e-08,1.85495313e-01
-5.35632812e-08,1.85243750e-01
-5.35232812e-08,1.85331250e-01
-5.34832812e-08,1.85278125e-01
-5.34432812e-08,1.85317188e-01
-5.34032812e-08,1.85287500e-01
-5.33632812e-08,1.85310937e-01
-5.33232812e-08,1.85290625e-01
-5.32832812e-08,1.85307813e-01
-5.32432812e-08,1.85293750e-01
-5.32032812e-08,1.85306250e-01
-5.31632812e-08,1.85295313e-01
-5.31232812e-08,1.85304688e-01
-5.30832812e-08,1.85296875e-01
-5.30432812e-08,1.85303125e-01
-5.30032812e-08,1.85296875e-01
-5.29632812e-08,1.85301563e-01
-5.29232812e-08,1.85298437e-01
-5.28832812e-08,1.85301563e-01
-5.28432812e-08,1.85298437e-01
-5.28032812e-08,1.85301563e-01
-5.27632812e-08,1.85300000e-01
-5.27232812e-08,1.85300000e-01
-5.26832812e-08,1.85300000e-01
-5.26432812e-08,1.85300000e-01
-5.26032812e-08,1.85300000e-01
-5.25632813e-08,1.85300000e-01
-5.25232812e-08,1.85300000e-01
-5.24832812e-08,1.85298437e-01
-5.24432812e-08,1.85301563e-01
-5.24032812e-08,1.85298437e-01
-5.23632812e-08,1.85301563e-01
-5.23232812e-08,1.85298437e-01
-5.22832812e-08,1.85301563e-01
-5.22432812e-08,1.85298437e-01
-5.22032812e-08,1.85301563e-01
-5.21632812e-08,1.85296875e-01
-5.21232812e-08,1.85303125e-01
-5.20832812e-08,1.85296875e-01
-5.20432812e-08,1.85303125e-01
-5.20032812e-08,1.85296875e-01
-5.19632812e-08,1.85303125e-01
-5.19232812e-08,1.85296875e-01
-5.18832812e-08,1.85303125e-01
-5.18432812e-08,1.85295313e-01
-5.18032812e-08,1.85304688e-01
-5.17632812e-08,1.85295313e-01
-5.17232812e-08,1.85304688e-01
-5.16832812e-08,1.85293750e-01
-5.16432812e-08,1.85306250e-01
-5.16032812e-08,1.85293750e-01
-5.15632812e-08,1.85307813e-01
-5.15232812e-08,1.85292188e-01
-5.14832812e-08,1.85309375e-01
-5.14432812e-08,1.85289063e-01
-5.14032812e-08,1.85312500e-01
-5.13632812e-08,1.85284375e-01
-5.13232812e-08,1.85321875e-01
-5.12832812e-08,1.85268750e-01
-5.12432812e-08,1.85356250e-01
-5.12032812e-08,1.85090625e-01
-5.11632812e-08,1.84846875e-01
-5.11232812e-08,1.84929687e-01
-5.10832812e-08,1.84879688e-01
-5.10432812e-08,1.84915625e-01
-5.10032812e-08,1.84887500e-01
-5.09632812e-08,1.84910938e-01
-5.09232812e-08,1.84890625e-01
-5.08832812e-08,1.84907813e-01
-5.08432812e-08,1.84892187e-01
-5.08032812e-08,1.84907813e-01
-5.07632812e-08,1.84893750e-01
-5.07232812e-08,1.84906250e-01
-5.06832812e-08,1.84893750e-01
-5.06432813e-08,1.84906250e-01
-5.06032812e-08,1.84892187e-01
-5.05632812e-08,1.84907813e-01
-5.05232812e-08,1.84890625e-01
-5.04832812e-08,1.84910938e-01
-5.04432812e-08,1.84885938e-01
-5.04032812e-08,1.84918750e-01
-5.03632813e-08,1.84871875e-01
-5.03232812e-08,1.84953125e-01
-5.02832812e-08,1.84695313e-01
-5.02432812e-08,1.84442188e-01
-5.02032812e-08,1.84534375e-01
-5.01632812e-08,1.84475000e-01
-5.01232812e-08,1.84520313e-01
-5.00832812e-08,1.84482813e-01
-5.00432812e-08,1.84515625e-01
-5.00032812e-08,1.84485938e-01
-4.99632812e-08,1.84514063e-01
-4.99232812e-08,1.84487500e-01
-4.98832812e-08,1.84512500e-01
-4.98432812e-08,1.84487500e-01
-4.98032812e-08,1.84512500e-01
-4.97632812e-08,1.84487500e-01
-4.97232812e-08,1.84514063e-01
-4.96832812e-08,1.84485938e-01
-4.96432812e-08,1.84514063e-01
-4.96032812e-08,1.84484375e-01
-4.95632812e-08,1.84515625e-01
-4.95232812e-08,1.84482813e-01
-4.94832812e-08,1.84520313e-01
-4.94432812e-08,1.84476562e-01
-4.94032812e-08,1.84528125e-01
-4.93632812e-08,1.84462500e-01
-4.93232812e-08,1.84562500e-01
-4.92832812e-08,1.84282813e-01
-4.92432812e-08,1.84054688e-01
-4.92032812e-08,1.84121875e-01
-4.91632812e-08,1.84089063e-01
-4.91232812e-08,1.84106250e-01
-4.90832812e-08,1.84096875e-01
-4.90432812e-08,1.84100000e-01
-4.90032812e-08,1.84101563e-01
-4.89632812e-08,1.84095312e-01
-4.89232812e-08,1.84106250e-01
-4.88832812e-08,1.84092188e-01
-4.88432812e-08,1.84110938e-01
-4.88032812e-08,1.84084375e-01
-4.87632812e-08,1.84120312e-01
-4.87232813e-08,1.84070312e-01
-4.86832812e-08,1.84156250e-01
-4.86432812e-08,1.83890625e-01
-4.86032812e-08,1.83646875e-01
-4.85632812e-08,1.83728125e-01
-4.85232812e-08,1.83681250e-01
-4.84832812e-08,1.83714062e-01
-4.84432813e-08,1.83689062e-01
-4.84032812e-08,1.83707813e-01
-4.83632812e-08,1.83693750e-01
-4.83232812e-08,1.83704688e-01
-4.82832812e-08,1.83696875e-01
-4.82432812e-08,1.83703125e-01
-4.82032812e-08,1.83698438e-01
-4.81632813e-08,1.83700000e-01
-4.81232812e-08,1.83700000e-01
-4.80832812e-08,1.83698438e-01
-4.80432812e-08,1.83701562e-01
-4.80032812e-08,1.83696875e-01
-4.79632812e-08,1.83703125e-01
-4.79232812e-08,1.83695313e-01
-4.78832812e-08,1.83706250e-01
-4.78432812e-08,1.83692187e-01
-4.78032812e-08,1.83709375e-01
-4.77632812e-08,1.83689062e-01
-4.77232812e-08,1.83715625e-01
-4.76832812e-08,1.83679687e-01
-4.76432812e-08,1.83729688e-01
-4.76032812e-08,1.83643750e-01
-4.75632812e-08,1.83909375e-01
-4.75232812e-08,1.84151563e-01
-4.74832812e-08,1.84073437e-01
-4.74432812e-08,1.84115625e-01
-4.74032812e-08,1.84090625e-01
-4.73632812e-08,1.84101563e-01
-4.73232812e-08,1.84109375e-01
-4.72832812e-08,1.84065625e-01
-4.72432812e-08,1.84285937e-01
-4.72032812e-08,1.84579688e-01
-4.71632812e-08,1.84440625e-01
-4.71232812e-08,1.84560937e-01
-4.70832812e-08,1.84420313e-01
-4.70432812e-08,1.84731250e-01
-4.70032812e-08,1.84931250e-01
-4.69632812e-08,1.84892187e-01
-4.69232812e-08,1.84895313e-01
-4.68832812e-08,1.84917187e-01
-4.68432812e-08,1.84856250e-01
-4.68032813e-08,1.85096875e-01
-4.67632812e-08,1.85365625e-01
-4.67232812e-08,1.85256250e-01
-4.66832812e-08,1.85337500e-01
-4.66432812e-08,1.85262500e-01
-4.66032812e-08,1.85343750e-01
-4.65632812e-08,1.85232813e-01
-4.65232813e-08,1.85518750e-01
-4.64832812e-08,1.85745313e-01
-4.64432812e-08,1.85678125e-01
-4.64032812e-08,1.85714062e-01
-4.63632812e-08,1.85690625e-01
-4.63232812e-08,1.85706250e-01
-4.62832812e-08,1.85695313e-01
-4.62432813e-08,1.85703125e-01
-4.62032812e-08,1.85696875e-01
-4.61632812e-08,1.85701563e-01
-4.61232812e-08,1.85698438e-01
-4.60832812e-08,1.85700000e-01
-4.60432812e-08,1.85700000e-01
-4.60032812e-08,1.85700000e-01
-4.59632813e-08,1.85700000e-01
-4.59232812e-08,1.85698438e-01
-4.58832812e-08,1.85701563e-01
-4.58432812e-08,1.85698438e-01
-4.58032812e-08,1.85701563e-01
-4.57632812e-08,1.85698438e-01
-4.57232812e-08,1.85703125e-01
-4.56832812e-08,1.85696875e-01
-4.56432812e-08,1.85703125e-01
-4.56032812e-08,1.85696875e-01
-4.55632812e-08,1.85703125e-01
-4.55232812e-08,1.85695313e-01
-4.54832812e-08,1.85704688e-01
-4.54432812e-08,1.85695313e-01
-4.54032812e-08,1.85706250e-01
-4.53632812e-08,1.85693750e-01
-4.53232812e-08,1.85707813e-01
-4.52832812e-08,1.85692187e-01
-4.52432812e-08,1.85709375e-01
-4.52032812e-08,1.85689063e-01
-4.51632812e-08,1.85712500e-01
-4.51232812e-08,1.85684375e-01
-4.50832812e-08,1.85721875e-01
-4.50432812e-08,1.85668750e-01
-4.50032812e-08,1.85756250e-01
-4.49632812e-08,1.85490625e-01
-4.49232812e-08,1.85246875e-01
-4.48832813e-08,1.85329688e-01
-4.48432812e-08,1.85281250e-01
-4.48032812e-08,1.85314063e-01
-4.47632812e-08,1.85289063e-01
-4.47232812e-08,1.85309375e-01
-4.46832812e-08,1.85292188e-01
-4.46432812e-08,1.85306250e-01
-4.46032813e-08,1.85293750e-01
-4.45632812e-08,1.85304688e-01
-4.45232812e-08,1.85295313e-01
-4.44832812e-08,1.85303125e-01
-4.44432812e-08,1.85296875e-01
-4.44032812e-08,1.85303125e-01
-4.43632812e-08,1.85298437e-01
-4.43232813e-08,1.85301563e-01
-4.42832812e-08,1.85298437e-01
-4.42432812e-08,1.85301563e-01
-4.42032812e-08,1.85298437e-01
-4.41632812e-08,1.85301563e-01
-4.41232812e-08,1.85300000e-01
-4.40832812e-08,1.85300000e-01
-4.40432813e-08,1.85300000e-01
-4.40032812e-08,1.85300000e-01
-4.39632812e-08,1.85300000e-01
-4.39232812e-08,1.85300000e-01
-4.38832812e-08,1.85300000e-01
-4.38432812e-08,1.85298437e-01
-4.38032812e-08,1.85301563e-01
-4.37632812e-08,1.85298437e-01
-4.37232812e-08,1.85301563e-01
-4.36832812e-08,1.85298437e-01
-4.36432812e-08,1.85301563e-01
-4.36032812e-08,1.85298437e-01
-4.35632812e-08,1.85301563e-01
-4.35232812e-08,1.85298437e-01
-4.34832812e-08,1.85303125e-01
-4.34432812e-08,1.85296875e-01
-4.34032812e-08,1.85303125e-01
-4.33632812e-08,1.85296875e-01
-4.33232812e-08,1.85303125e-01
-4.32832812e-08,1.85296875e-01
-4.32432812e-08,1.85304688e-01
-4.32032812e-08,1.85295313e-01
-4.31632812e-08,1.85304688e-01
-4.31232812e-08,1.85295313e-01
-4.30832812e-08,1.85304688e-01
-4.30432812e-08,1.85293750e-01
-4.30032812e-08,1.85306250e-01
-4.29632813e-08,1.85293750e-01
-4.29232812e-08,1.85307813e-01
-4.28832812e-08,1.85292188e-01
-4.28432812e-08,1.85309375e-01
-4.28032812e-08,1.85289063e-01
-4.27632812e-08,1.85312500e-01
-4.27232812e-08,1.85285937e-01
-4.26832813e-08,1.85317188e-01
-4.26432812e-08,1.85276563e-01
-4.26032812e-08,1.85332812e-01
-4.25632812e-08,1.85242188e-01
-4.25232812e-08,1.85510938e-01
-4.24832812e-08,1.85751562e-01
-4.24432812e-08,1.85671875e-01
-4.24032813e-08,1.85717188e-01
-4.23632812e-08,1.85687500e-01
-4.23232812e-08,1.85709375e-01
-4.22832812e-08,1.85692187e-01
-4.22432812e-08,1.85706250e-01
-4.22032812e-08,1.85695313e-01
-4.21632812e-08,1.85703125e-01
-4.21232813e-08,1.85696875e-01
-4.20832812e-08,1.85701563e-01
-4.20432812e-08,1.85698438e-01
-4.20032812e-08,1.85700000e-01
-4.19632812e-08,1.85700000e-01
-4.19232812e-08,1.85698438e-01
-4.18832812e-08,1.85701563e-01
-4.18432813e-08,1.85696875e-01
-4.18032812e-08,1.85703125e-01
-4.17632812e-08,1.85695313e-01
-4.17232812e-08,1.85704688e-01
-4.16832812e-08,1.85693750e-01
-4.16432812e-08,1.85707813e-01
-4.16032812e-08,1.85690625e-01
-4.15632812e-08,1.85710938e-01
-4.15232812e-08,1.85685938e-01
-4.14832812e-08,1.85720313e-01
-4.14432812e-08,1.85670313e-01
-4.14032812e-08,1.85754688e-01
-4.13632812e-08,1.85492188e-01
-4.13232812e-08,1.85245313e-01
-4.12832812e-08,1.85329688e-01
-4.12432812e-08,1.85279688e-01
-4.12032812e-08,1.85315625e-01
-4.11632812e-08,1.85287500e-01
-4.11232812e-08,1.85310937e-01
-4.10832812e-08,1.85290625e-01
-4.10432813e-08,1.85307813e-01
-4.10032812e-08,1.85293750e-01
-4.09632812e-08,1.85306250e-01
-4.09232812e-08,1.85295313e-01
-4.08832812e-08,1.85304688e-01
-4.08432812e-08,1.85295313e-01
-4.08032812e-08,1.85303125e-01
-4.07632813e-08,1.85296875e-01
-4.07232812e-08,1.85303125e-01
-4.06832812e-08,1.85296875e-01
-4.06432812e-08,1.85303125e-01
-4.06032812e-08,1.85298437e-01
-4.05632812e-08,1.85301563e-01
-4.05232812e-08,1.85298437e-01
-4.04832813e-08,1.85301563e-01
-4.04432812e-08,1.85298437e-01
-4.04032812e-08,1.85301563e-01
-4.03632812e-08,1.85300000e-01
-4.03232812e-08,1.85300000e-01
-4.02832812e-08,1.85300000e-01
-4.02432812e-08,1.85300000e-01
-4.02032813e-08,1.85300000e-01
-4.01632812e-08,1.85300000e-01
-4.01232812e-08,1.85300000e-01
-4.00832812e-08,1.85300000e-01
-4.00432812e-08,1.85300000e-01
-4.00032812e-08,1.85300000e-01
-3.99632812e-08,1.85300000e-01
-3.99232813e-08,1.85298437e-01
-3.98832812e-08,1.85301563e-01
-3.98432812e-08,1.85298437e-01
-3.98032812e-08,1.85301563e-01
-3.97632812e-08,1.85298437e-01
-3.97232812e-08,1.85301563e-01
-3.96832812e-08,1.85298437e-01
-3.96432813e-08,1.85301563e-01
-3.96032812e-08,1.85298437e-01
-3.95632812e-08,1.85301563e-01
-3.95232812e-08,1.85300000e-01
-3.94832812e-08,1.85300000e-01
-3.94432812e-08,1.85300000e-01
-3.94032813e-08,1.85298437e-01
-3.93632812e-08,1.85303125e-01
-3.93232812e-08,1.85295313e-01
-3.92832812e-08,1.85309375e-01
-3.92432812e-08,1.85281250e-01
-3.92032812e-08,1.85342188e-01
-3.91632812e-08,1.85106250e-01
-3.91232813e-08,1.84831250e-01
-3.90832812e-08,1.84946875e-01
-3.90432812e-08,1.84860938e-01
-3.90032812e-08,1.84937500e-01
-3.89632812e-08,1.84862500e-01
-3.89232812e-08,1.84942188e-01
-3.88832812e-08,1.84848438e-01
-3.88432813e-08,1.84975000e-01
-3.88032812e-08,1.84670313e-01
-3.87632812e-08,1.84467188e-01
-3.87232812e-08,1.84507813e-01
-3.86832812e-08,1.84504688e-01
-3.86432812e-08,1.84487500e-01
-3.86032812e-08,1.84520313e-01
-3.85632813e-08,1.84467188e-01
-3.85232812e-08,1.84559375e-01
