trails/0bdfa5e45fec98341abdd20552c140b4/aes_ch1_20250507115942395.csv

Model,MSO66B
Label,
Waveform Type,ANALOG
Horizontal Units,s
Sample Interval,4.00000000e-11
Record Length,10000
Zero Index,1599.04687500
Vertical Units,A
ANALOG_Thumbnail,
yOffset,1.84500000e-01
yPosition,8.40000000e-01

Labels,
TIME,CH1
-6.39618750e-08,1.84129687e-01
-6.39218750e-08,1.84060938e-01
-6.38818750e-08,1.84162500e-01
-6.38418750e-08,1.83884375e-01
-6.38018750e-08,1.83651563e-01
-6.37618750e-08,1.83725000e-01
-6.37218750e-08,1.83684375e-01
-6.36818750e-08,1.83710938e-01
-6.36418750e-08,1.83692187e-01
-6.36018750e-08,1.83706250e-01
-6.35618750e-08,1.83693750e-01
-6.35218750e-08,1.83704688e-01
-6.34818750e-08,1.83695313e-01
-6.34418750e-08,1.83703125e-01
-6.34018750e-08,1.83696875e-01
-6.33618750e-08,1.83703125e-01
-6.33218750e-08,1.83696875e-01
-6.32818750e-08,1.83703125e-01
-6.32418750e-08,1.83696875e-01
-6.32018750e-08,1.83703125e-01
-6.31618750e-08,1.83696875e-01
-6.31218750e-08,1.83703125e-01
-6.30818750e-08,1.83696875e-01
-6.30418750e-08,1.83703125e-01
-6.30018750e-08,1.83696875e-01
-6.29618750e-08,1.83703125e-01
-6.29218750e-08,1.83696875e-01
-6.28818750e-08,1.83704688e-01
-6.28418750e-08,1.83695313e-01
-6.28018750e-08,1.83704688e-01
-6.27618750e-08,1.83693750e-01
-6.27218750e-08,1.83706250e-01
-6.26818750e-08,1.83692187e-01
-6.26418750e-08,1.83707813e-01
-6.26018750e-08,1.83689062e-01
-6.25618750e-08,1.83714062e-01
-6.25218750e-08,1.83681250e-01
-6.24818750e-08,1.83728125e-01
-6.24418750e-08,1.83648438e-01
-6.24018750e-08,1.83904687e-01
-6.23618750e-08,1.84157813e-01
-6.23218750e-08,1.84065625e-01
-6.22818750e-08,1.84126563e-01
-6.22418750e-08,1.84078125e-01
-6.22018750e-08,1.84120312e-01
-6.21618750e-08,1.84079688e-01
-6.21218750e-08,1.84121875e-01
-6.20818750e-08,1.84075000e-01
-6.20418750e-08,1.84134375e-01
-6.20018750e-08,1.84042188e-01
-6.19618750e-08,1.84310937e-01
-6.19218750e-08,1.84553125e-01
-6.18818750e-08,1.84470313e-01
-6.18418750e-08,1.84520313e-01
-6.18018750e-08,1.84482813e-01
-6.17618750e-08,1.84514063e-01
-6.17218750e-08,1.84485938e-01
-6.16818750e-08,1.84512500e-01
-6.16418750e-08,1.84485938e-01
-6.16018750e-08,1.84514063e-01
-6.15618750e-08,1.84484375e-01
-6.15218750e-08,1.84518750e-01
-6.14818750e-08,1.84476562e-01
-6.14418750e-08,1.84532813e-01
-6.14018750e-08,1.84442188e-01
-6.13618750e-08,1.84709375e-01
-6.13218750e-08,1.84953125e-01
-6.12818750e-08,1.84871875e-01
-6.12418750e-08,1.84918750e-01
-6.12018750e-08,1.84885938e-01
-6.11618750e-08,1.84910938e-01
-6.11218750e-08,1.84890625e-01
-6.10818750e-08,1.84907813e-01
-6.10418750e-08,1.84892187e-01
-6.10018750e-08,1.84906250e-01
-6.09618750e-08,1.84893750e-01
-6.09218750e-08,1.84904687e-01
-6.08818750e-08,1.84895313e-01
-6.08418750e-08,1.84904687e-01
-6.08018750e-08,1.84895313e-01
-6.07618750e-08,1.84903125e-01
-6.07218750e-08,1.84896875e-01
-6.06818750e-08,1.84903125e-01
-6.06418750e-08,1.84896875e-01
-6.06018750e-08,1.84903125e-01
-6.05618750e-08,1.84896875e-01
-6.05218750e-08,1.84903125e-01
-6.04818750e-08,1.84896875e-01
-6.04418750e-08,1.84903125e-01
-6.04018750e-08,1.84896875e-01
-6.03618750e-08,1.84903125e-01
-6.03218750e-08,1.84898438e-01
-6.02818750e-08,1.84901563e-01
-6.02418750e-08,1.84898438e-01
-6.02018750e-08,1.84901563e-01
-6.01618750e-08,1.84898438e-01
-6.01218750e-08,1.84901563e-01
-6.00818750e-08,1.84898438e-01
-6.00418750e-08,1.84901563e-01
-6.00018750e-08,1.84898438e-01
-5.99618750e-08,1.84901563e-01
-5.99218750e-08,1.84898438e-01
-5.98818750e-08,1.84901563e-01
-5.98418750e-08,1.84898438e-01
-5.98018750e-08,1.84901563e-01
-5.97618750e-08,1.84898438e-01
-5.97218750e-08,1.84901563e-01
-5.96818750e-08,1.84898438e-01
-5.96418750e-08,1.84901563e-01
-5.96018750e-08,1.84898438e-01
-5.95618750e-08,1.84901563e-01
-5.95218750e-08,1.84898438e-01
-5.94818750e-08,1.84901563e-01
-5.94418750e-08,1.84898438e-01
-5.94018750e-08,1.84901563e-01
-5.93618750e-08,1.84896875e-01
-5.93218750e-08,1.84903125e-01
-5.92818750e-08,1.84896875e-01
-5.92418750e-08,1.84903125e-01
-5.92018750e-08,1.84896875e-01
-5.91618750e-08,1.84904687e-01
-5.91218750e-08,1.84895313e-01
-5.90818750e-08,1.84906250e-01
-5.90418750e-08,1.84892187e-01
-5.90018750e-08,1.84909375e-01
-5.89618750e-08,1.84887500e-01
-5.89218750e-08,1.84917187e-01
-5.88818750e-08,1.84873438e-01
-5.88418750e-08,1.84950000e-01
-5.88018750e-08,1.84696875e-01
-5.87618750e-08,1.84440625e-01
-5.87218750e-08,1.84535937e-01
-5.86818750e-08,1.84473438e-01
-5.86418750e-08,1.84521875e-01
-5.86018750e-08,1.84479688e-01
-5.85618750e-08,1.84518750e-01
-5.85218750e-08,1.84481250e-01
-5.84818750e-08,1.84518750e-01
-5.84418750e-08,1.84479688e-01
-5.84018750e-08,1.84521875e-01
-5.83618750e-08,1.84476562e-01
-5.83218750e-08,1.84528125e-01
-5.82818750e-08,1.84462500e-01
-5.82418750e-08,1.84562500e-01
-5.82018750e-08,1.84284375e-01
-5.81618750e-08,1.84053125e-01
-5.81218750e-08,1.84121875e-01
-5.80818750e-08,1.84087500e-01
-5.80418750e-08,1.84107812e-01
-5.80018750e-08,1.84095312e-01
-5.79618750e-08,1.84101563e-01
-5.79218750e-08,1.84100000e-01
-5.78818750e-08,1.84096875e-01
-5.78418750e-08,1.84104688e-01
-5.78018750e-08,1.84093750e-01
-5.77618750e-08,1.84109375e-01
-5.77218750e-08,1.84087500e-01
-5.76818750e-08,1.84118750e-01
-5.76418750e-08,1.84071875e-01
-5.76018750e-08,1.84153125e-01
-5.75618750e-08,1.83892187e-01
-5.75218750e-08,1.83645313e-01
-5.74818750e-08,1.83729688e-01
-5.74418750e-08,1.83679687e-01
-5.74018750e-08,1.83715625e-01
-5.73618750e-08,1.83687500e-01
-5.73218750e-08,1.83709375e-01
-5.72818750e-08,1.83692187e-01
-5.72418750e-08,1.83704688e-01
-5.72018750e-08,1.83696875e-01
-5.71618750e-08,1.83701562e-01
-5.71218750e-08,1.83700000e-01
-5.70818750e-08,1.83696875e-01
-5.70418750e-08,1.83706250e-01
-5.70018750e-08,1.83689062e-01
-5.69618750e-08,1.83721875e-01
-5.69218750e-08,1.83653125e-01
-5.68818750e-08,1.83900000e-01
-5.68418750e-08,1.84162500e-01
-5.68018750e-08,1.84060938e-01
-5.67618750e-08,1.84129687e-01
-5.67218750e-08,1.84075000e-01
-5.66818750e-08,1.84121875e-01
-5.66418750e-08,1.84079688e-01
-5.66018750e-08,1.84120312e-01
-5.65618750e-08,1.84079688e-01
-5.65218750e-08,1.84120312e-01
-5.64818750e-08,1.84078125e-01
-5.64418750e-08,1.84123438e-01
-5.64018750e-08,1.84071875e-01
-5.63618750e-08,1.84137500e-01
-5.63218750e-08,1.84037500e-01
-5.62818750e-08,1.84314063e-01
-5.62418750e-08,1.84548437e-01
-5.62018750e-08,1.84475000e-01
-5.61618750e-08,1.84515625e-01
-5.61218750e-08,1.84489062e-01
-5.60818750e-08,1.84509375e-01
-5.60418750e-08,1.84492188e-01
-5.60018750e-08,1.84506250e-01
-5.59618750e-08,1.84493750e-01
-5.59218750e-08,1.84506250e-01
-5.58818750e-08,1.84493750e-01
-5.58418750e-08,1.84506250e-01
-5.58018750e-08,1.84492188e-01
-5.57618750e-08,1.84507813e-01
-5.57218750e-08,1.84489062e-01
-5.56818750e-08,1.84512500e-01
-5.56418750e-08,1.84482813e-01
-5.56018750e-08,1.84528125e-01
-5.55618750e-08,1.84448438e-01
-5.55218750e-08,1.84704688e-01
-5.54818750e-08,1.84957813e-01
-5.54418750e-08,1.84867188e-01
-5.54018750e-08,1.84925000e-01
-5.53618750e-08,1.84881250e-01
-5.53218750e-08,1.84917187e-01
-5.52818750e-08,1.84885938e-01
-5.52418750e-08,1.84914063e-01
-5.52018750e-08,1.84887500e-01
-5.51618750e-08,1.84912500e-01
-5.51218750e-08,1.84889063e-01
-5.50818750e-08,1.84910938e-01
-5.50418750e-08,1.84889063e-01
-5.50018750e-08,1.84910938e-01
-5.49618750e-08,1.84889063e-01
-5.49218750e-08,1.84909375e-01
-5.48818750e-08,1.84890625e-01
-5.48418750e-08,1.84909375e-01
-5.48018750e-08,1.84889063e-01
-5.47618750e-08,1.84910938e-01
-5.47218750e-08,1.84889063e-01
-5.46818750e-08,1.84910938e-01
-5.46418750e-08,1.84887500e-01
-5.46018750e-08,1.84912500e-01
-5.45618750e-08,1.84885938e-01
-5.45218750e-08,1.84915625e-01
-5.44818750e-08,1.84882812e-01
-5.44418750e-08,1.84920313e-01
-5.44018750e-08,1.84875000e-01
-5.43618750e-08,1.84934375e-01
-5.43218750e-08,1.84840625e-01
-5.42818750e-08,1.85112500e-01
-5.42418750e-08,1.85350000e-01
-5.42018750e-08,1.85273437e-01
-5.41618750e-08,1.85317188e-01
-5.41218750e-08,1.85287500e-01
-5.40818750e-08,1.85309375e-01
-5.40418750e-08,1.85293750e-01
-5.40018750e-08,1.85304688e-01
-5.39618750e-08,1.85295313e-01
-5.39218750e-08,1.85303125e-01
-5.38818750e-08,1.85296875e-01
-5.38418750e-08,1.85301563e-01
-5.38018750e-08,1.85298437e-01
-5.37618750e-08,1.85301563e-01
-5.37218750e-08,1.85298437e-01
-5.36818750e-08,1.85301563e-01
-5.36418750e-08,1.85300000e-01
-5.36018750e-08,1.85300000e-01
-5.35618750e-08,1.85300000e-01
-5.35218750e-08,1.85300000e-01
-5.34818750e-08,1.85300000e-01
-5.34418750e-08,1.85300000e-01
-5.34018750e-08,1.85300000e-01
-5.33618750e-08,1.85300000e-01
-5.33218750e-08,1.85300000e-01
-5.32818750e-08,1.85300000e-01
-5.32418750e-08,1.85300000e-01
-5.32018750e-08,1.85298437e-01
-5.31618750e-08,1.85301563e-01
-5.31218750e-08,1.85298437e-01
-5.30818750e-08,1.85301563e-01
-5.30418750e-08,1.85298437e-01
-5.30018750e-08,1.85301563e-01
-5.29618750e-08,1.85298437e-01
-5.29218750e-08,1.85301563e-01
-5.28818750e-08,1.85298437e-01
-5.28418750e-08,1.85301563e-01
-5.28018750e-08,1.85298437e-01
-5.27618750e-08,1.85301563e-01
-5.27218750e-08,1.85296875e-01
-5.26818750e-08,1.85303125e-01
-5.26418750e-08,1.85296875e-01
-5.26018750e-08,1.85303125e-01
-5.25618750e-08,1.85295313e-01
-5.25218750e-08,1.85304688e-01
-5.24818750e-08,1.85293750e-01
-5.24418750e-08,1.85307813e-01
-5.24018750e-08,1.85289063e-01
-5.23618750e-08,1.85315625e-01
-5.23218750e-08,1.85275000e-01
-5.22818750e-08,1.85348438e-01
-5.22418750e-08,1.85098438e-01
-5.22018750e-08,1.84839063e-01
-5.21618750e-08,1.84939063e-01
-5.21218750e-08,1.84870312e-01
-5.20818750e-08,1.84926563e-01
-5.20418750e-08,1.84875000e-01
-5.20018750e-08,1.84926563e-01
-5.19618750e-08,1.84871875e-01
-5.19218750e-08,1.84932813e-01
-5.18818750e-08,1.84857812e-01
-5.18418750e-08,1.84967188e-01
-5.18018750e-08,1.84679687e-01
-5.17618750e-08,1.84459375e-01
-5.17218750e-08,1.84515625e-01
-5.16818750e-08,1.84495313e-01
-5.16418750e-08,1.84496875e-01
-5.16018750e-08,1.84510937e-01
-5.15618750e-08,1.84476562e-01
-5.15218750e-08,1.84550000e-01
-5.14818750e-08,1.84295313e-01
-5.14418750e-08,1.84043750e-01
-5.14018750e-08,1.84131250e-01
-5.13618750e-08,1.84079688e-01
-5.13218750e-08,1.84114063e-01
-5.12818750e-08,1.84090625e-01
-5.12418750e-08,1.84103125e-01
-5.12018750e-08,1.84103125e-01
-5.11618750e-08,1.84085938e-01
-5.11218750e-08,1.84139063e-01
-5.10818750e-08,1.83906250e-01
-5.10418750e-08,1.83631250e-01
-5.10018750e-08,1.83745313e-01
-5.09618750e-08,1.83665625e-01
-5.09218750e-08,1.83729688e-01
-5.08818750e-08,1.83673438e-01
-5.08418750e-08,1.83725000e-01
-5.08018750e-08,1.83676563e-01
-5.07618750e-08,1.83723438e-01
-5.07218750e-08,1.83676563e-01
-5.06818750e-08,1.83723438e-01
-5.06418750e-08,1.83675000e-01
-5.06018750e-08,1.83726562e-01
-5.05618750e-08,1.83671875e-01
-5.05218750e-08,1.83732813e-01
-5.04818750e-08,1.83657813e-01
-5.04418750e-08,1.83767188e-01
-5.04018750e-08,1.83479688e-01
-5.03618750e-08,1.83257813e-01
-5.03218750e-08,1.83318750e-01
-5.02818750e-08,1.83290625e-01
-5.02418750e-08,1.83304688e-01
-5.02018750e-08,1.83298437e-01
-5.01618750e-08,1.83300000e-01
-5.01218750e-08,1.83301563e-01
-5.00818750e-08,1.83298437e-01
-5.00418750e-08,1.83303125e-01
-5.00018750e-08,1.83296875e-01
-4.99618750e-08,1.83304688e-01
-4.99218750e-08,1.83295313e-01
-4.98818750e-08,1.83304688e-01
-4.98418750e-08,1.83295313e-01
-4.98018750e-08,1.83306250e-01
-4.97618750e-08,1.83293750e-01
-4.97218750e-08,1.83306250e-01
-4.96818750e-08,1.83293750e-01
-4.96418750e-08,1.83306250e-01
-4.96018750e-08,1.83293750e-01
-4.95618750e-08,1.83307813e-01
-4.95218750e-08,1.83292188e-01
-4.94818750e-08,1.83307813e-01
-4.94418750e-08,1.83292188e-01
-4.94018750e-08,1.83307813e-01
-4.93618750e-08,1.83292188e-01
-4.93218750e-08,1.83309375e-01
-4.92818750e-08,1.83290625e-01
-4.92418750e-08,1.83309375e-01
-4.92018750e-08,1.83290625e-01
-4.91618750e-08,1.83309375e-01
-4.91218750e-08,1.83289063e-01
-4.90818750e-08,1.83310937e-01
-4.90418750e-08,1.83289063e-01
-4.90018750e-08,1.83310937e-01
-4.89618750e-08,1.83287500e-01
-4.89218750e-08,1.83312500e-01
-4.88818750e-08,1.83285937e-01
-4.88418750e-08,1.83315625e-01
-4.88018750e-08,1.83284375e-01
-4.87618750e-08,1.83317188e-01
-4.87218750e-08,1.83279688e-01
-4.86818750e-08,1.83323438e-01
-4.86418750e-08,1.83271875e-01
-4.86018750e-08,1.83339063e-01
-4.85618750e-08,1.83235938e-01
-4.85218750e-08,1.83517188e-01
-4.84818750e-08,1.83745313e-01
-4.84418750e-08,1.83679687e-01
-4.84018750e-08,1.83710938e-01
-4.83618750e-08,1.83695313e-01
-4.83218750e-08,1.83701562e-01
-4.82818750e-08,1.83700000e-01
-4.82418750e-08,1.83696875e-01
-4.82018750e-08,1.83704688e-01
-4.81618750e-08,1.83693750e-01
-4.81218750e-08,1.83707813e-01
-4.80818750e-08,1.83690625e-01
-4.80418750e-08,1.83712500e-01
-4.80018750e-08,1.83684375e-01
-4.79618750e-08,1.83718750e-01
-4.79218750e-08,1.83675000e-01
-4.78818750e-08,1.83734375e-01
-4.78418750e-08,1.83639063e-01
-4.78018750e-08,1.83914063e-01
-4.77618750e-08,1.84146875e-01
-4.77218750e-08,1.84078125e-01
-4.76818750e-08,1.84110938e-01
-4.76418750e-08,1.84095312e-01
-4.76018750e-08,1.84100000e-01
-4.75618750e-08,1.84104688e-01
-4.75218750e-08,1.84087500e-01
-4.74818750e-08,1.84121875e-01
-4.74418750e-08,1.84051563e-01
-4.74018750e-08,1.84301563e-01
-4.73618750e-08,1.84560937e-01
-4.73218750e-08,1.84462500e-01
-4.72818750e-08,1.84528125e-01
-4.72418750e-08,1.84476562e-01
-4.72018750e-08,1.84523437e-01
-4.71618750e-08,1.84475000e-01
-4.71218750e-08,1.84532813e-01
-4.70818750e-08,1.84445313e-01
-4.70418750e-08,1.84704688e-01
-4.70018750e-08,1.84959375e-01
-4.69618750e-08,1.84860938e-01
-4.69218750e-08,1.84934375e-01
-4.68818750e-08,1.84865625e-01
-4.68418750e-08,1.84942188e-01
-4.68018750e-08,1.84834375e-01
-4.67618750e-08,1.85118750e-01
-4.67218750e-08,1.85342188e-01
-4.66818750e-08,1.85281250e-01
-4.66418750e-08,1.85307813e-01
-4.66018750e-08,1.85300000e-01
-4.65618750e-08,1.85292188e-01
-4.65218750e-08,1.85318750e-01
-4.64818750e-08,1.85254688e-01
-4.64418750e-08,1.85498438e-01
-4.64018750e-08,1.85764062e-01
-4.63618750e-08,1.85659375e-01
-4.63218750e-08,1.85731250e-01
-4.62818750e-08,1.85671875e-01
-4.62418750e-08,1.85726562e-01
-4.62018750e-08,1.85670313e-01
-4.61618750e-08,1.85737500e-01
-4.61218750e-08,1.85640625e-01
-4.60818750e-08,1.85910938e-01
-4.60418750e-08,1.86151563e-01
-4.60018750e-08,1.86070313e-01
-4.59618750e-08,1.86121875e-01
-4.59218750e-08,1.86081250e-01
-4.58818750e-08,1.86117188e-01
-4.58418750e-08,1.86082812e-01
-4.58018750e-08,1.86117188e-01
-4.57618750e-08,1.86081250e-01
-4.57218750e-08,1.86121875e-01
-4.56818750e-08,1.86073437e-01
-4.56418750e-08,1.86135938e-01
-4.56018750e-08,1.86039063e-01
-4.55618750e-08,1.86315625e-01
-4.55218750e-08,1.86546875e-01
-4.54818750e-08,1.86478125e-01
-4.54418750e-08,1.86512500e-01
-4.54018750e-08,1.86493750e-01
-4.53618750e-08,1.86501562e-01
-4.53218750e-08,1.86503125e-01
-4.52818750e-08,1.86492188e-01
-4.52418750e-08,1.86514062e-01
-4.52018750e-08,1.86475000e-01
-4.51618750e-08,1.86550000e-01
-4.51218750e-08,1.86295313e-01
-4.50818750e-08,1.86042188e-01
-4.50418750e-08,1.86132812e-01
-4.50018750e-08,1.86078125e-01
-4.49618750e-08,1.86117188e-01
-4.49218750e-08,1.86087500e-01
-4.48818750e-08,1.86109375e-01
-4.48418750e-08,1.86092188e-01
-4.48018750e-08,1.86104688e-01
-4.47618750e-08,1.86098438e-01
-4.47218750e-08,1.86098438e-01
-4.46818750e-08,1.86107812e-01
-4.46418750e-08,1.86082812e-01
-4.46018750e-08,1.86142188e-01
-4.45618750e-08,1.85904687e-01
-4.45218750e-08,1.85632812e-01
-4.44818750e-08,1.85742188e-01
-4.44418750e-08,1.85665625e-01
-4.44018750e-08,1.85729688e-01
-4.43618750e-08,1.85671875e-01
-4.43218750e-08,1.85728125e-01
-4.42818750e-08,1.85671875e-01
-4.42418750e-08,1.85732813e-01
-4.42018750e-08,1.85659375e-01
-4.41618750e-08,1.85765625e-01
-4.41218750e-08,1.85482813e-01
-4.40818750e-08,1.85254688e-01
-4.40418750e-08,1.85321875e-01
-4.40018750e-08,1.85285937e-01
-4.39618750e-08,1.85309375e-01
-4.39218750e-08,1.85293750e-01
-4.38818750e-08,1.85304688e-01
-4.38418750e-08,1.85295313e-01
-4.38018750e-08,1.85303125e-01
-4.37618750e-08,1.85296875e-01
-4.37218750e-08,1.85303125e-01
-4.36818750e-08,1.85296875e-01
-4.36418750e-08,1.85303125e-01
-4.36018750e-08,1.85296875e-01
-4.35618750e-08,1.85303125e-01
-4.35218750e-08,1.85296875e-01
-4.34818750e-08,1.85303125e-01
-4.34418750e-08,1.85295313e-01
-4.34018750e-08,1.85304688e-01
-4.33618750e-08,1.85295313e-01
-4.33218750e-08,1.85306250e-01
-4.32818750e-08,1.85292188e-01
-4.32418750e-08,1.85309375e-01
-4.32018750e-08,1.85289063e-01
-4.31618750e-08,1.85314063e-01
-4.31218750e-08,1.85281250e-01
-4.30818750e-08,1.85328125e-01
-4.30418750e-08,1.85246875e-01
-4.30018750e-08,1.85507813e-01
-4.29618750e-08,1.85754688e-01
-4.29218750e-08,1.85668750e-01
-4.28818750e-08,1.85721875e-01
-4.28418750e-08,1.85682813e-01
-4.28018750e-08,1.85714062e-01
-4.27618750e-08,1.85689063e-01
-4.27218750e-08,1.85709375e-01
-4.26818750e-08,1.85690625e-01
-4.26418750e-08,1.85707813e-01
-4.26018750e-08,1.85693750e-01
-4.25618750e-08,1.85706250e-01
-4.25218750e-08,1.85695313e-01
-4.24818750e-08,1.85704688e-01
-4.24418750e-08,1.85695313e-01
-4.24018750e-08,1.85703125e-01
-4.23618750e-08,1.85696875e-01
-4.23218750e-08,1.85703125e-01
-4.22818750e-08,1.85698438e-01
-4.22418750e-08,1.85701563e-01
-4.22018750e-08,1.85700000e-01
-4.21618750e-08,1.85700000e-01
-4.21218750e-08,1.85701563e-01
-4.20818750e-08,1.85696875e-01
-4.20418750e-08,1.85704688e-01
-4.20018750e-08,1.85693750e-01
-4.19618750e-08,1.85709375e-01
-4.19218750e-08,1.85685938e-01
-4.18818750e-08,1.85723438e-01
-4.18418750e-08,1.85651563e-01
-4.18018750e-08,1.85901563e-01
-4.17618750e-08,1.86159375e-01
-4.17218750e-08,1.86064063e-01
-4.16818750e-08,1.86126563e-01
-4.16418750e-08,1.86078125e-01
-4.16018750e-08,1.86118750e-01
-4.15618750e-08,1.86082812e-01
-4.15218750e-08,1.86115625e-01
-4.14818750e-08,1.86085938e-01
-4.14418750e-08,1.86114063e-01
-4.14018750e-08,1.86087500e-01
-4.13618750e-08,1.86112500e-01
-4.13218750e-08,1.86087500e-01
-4.12818750e-08,1.86112500e-01
-4.12418750e-08,1.86087500e-01
-4.12018750e-08,1.86112500e-01
-4.11618750e-08,1.86087500e-01
-4.11218750e-08,1.86112500e-01
-4.10818750e-08,1.86087500e-01
-4.10418750e-08,1.86114063e-01
-4.10018750e-08,1.86085938e-01
-4.09618750e-08,1.86115625e-01
-4.09218750e-08,1.86082812e-01
-4.08818750e-08,1.86120312e-01
-4.08418750e-08,1.86075000e-01
-4.08018750e-08,1.86134375e-01
-4.07618750e-08,1.86040625e-01
-4.07218750e-08,1.86312500e-01
-4.06818750e-08,1.86550000e-01
-4.06418750e-08,1.86473438e-01
-4.06018750e-08,1.86517188e-01
-4.05618750e-08,1.86487500e-01
-4.05218750e-08,1.86509375e-01
-4.04818750e-08,1.86492188e-01
-4.04418750e-08,1.86506250e-01
-4.04018750e-08,1.86495313e-01
-4.03618750e-08,1.86504688e-01
-4.03218750e-08,1.86496875e-01
-4.02818750e-08,1.86503125e-01
-4.02418750e-08,1.86496875e-01
-4.02018750e-08,1.86503125e-01
-4.01618750e-08,1.86496875e-01
-4.01218750e-08,1.86503125e-01
-4.00818750e-08,1.86498438e-01
-4.00418750e-08,1.86501562e-01
-4.00018750e-08,1.86498438e-01
-3.99618750e-08,1.86501562e-01
-3.99218750e-08,1.86496875e-01
-3.98818750e-08,1.86503125e-01
-3.98418750e-08,1.86496875e-01
-3.98018750e-08,1.86503125e-01
-3.97618750e-08,1.86496875e-01
-3.97218750e-08,1.86503125e-01
-3.96818750e-08,1.86495313e-01
-3.96418750e-08,1.86504688e-01
-3.96018750e-08,1.86493750e-01
-3.95618750e-08,1.86506250e-01
-3.95218750e-08,1.86492188e-01
-3.94818750e-08,1.86510938e-01
-3.94418750e-08,1.86485938e-01
-3.94018750e-08,1.86518750e-01
-3.93618750e-08,1.86471875e-01
-3.93218750e-08,1.86553125e-01
-3.92818750e-08,1.86293750e-01
-3.92418750e-08,1.86043750e-01
-3.92018750e-08,1.86132812e-01
-3.91618750e-08,1.86076563e-01
-3.91218750e-08,1.86118750e-01
-3.90818750e-08,1.86084375e-01
-3.90418750e-08,1.86114063e-01
-3.90018750e-08,1.86087500e-01
-3.89618750e-08,1.86110938e-01
-3.89218750e-08,1.86090625e-01
-3.88818750e-08,1.86109375e-01
-3.88418750e-08,1.86090625e-01
-3.88018750e-08,1.86107812e-01
-3.87618750e-08,1.86092188e-01
-3.87218750e-08,1.86107812e-01
-3.86818750e-08,1.86092188e-01
-3.86418750e-08,1.86107812e-01
-3.86018750e-08,1.86092188e-01
-3.85618750e-08,1.86107812e-01
-3.85218750e-08,1.86093750e-01
