trails/0bdfa5e45fec98341abdd20552c140b4/aes_ch1_20250507121024639.csv

Model,MSO66B
Label,
Waveform Type,ANALOG
Horizontal Units,s
Sample Interval,4.00000000e-11
Record Length,10000
Zero Index,1599.04296875
Vertical Units,A
ANALOG_Thumbnail,
yOffset,1.84500000e-01
yPosition,8.40000000e-01

Labels,
TIME,CH1
-6.39617187e-08,1.83312500e-01
-6.39217187e-08,1.83289063e-01
-6.38817188e-08,1.83310937e-01
-6.38417187e-08,1.83289063e-01
-6.38017187e-08,1.83310937e-01
-6.37617187e-08,1.83289063e-01
-6.37217187e-08,1.83310937e-01
-6.36817187e-08,1.83289063e-01
-6.36417187e-08,1.83312500e-01
-6.36017188e-08,1.83287500e-01
-6.35617187e-08,1.83314063e-01
-6.35217187e-08,1.83282813e-01
-6.34817187e-08,1.83318750e-01
-6.34417187e-08,1.83275000e-01
-6.34017187e-08,1.83334375e-01
-6.33617187e-08,1.83240625e-01
-6.33217188e-08,1.83512500e-01
-6.32817187e-08,1.83750000e-01
-6.32417187e-08,1.83675000e-01
-6.32017187e-08,1.83715625e-01
-6.31617187e-08,1.83690625e-01
-6.31217187e-08,1.83704688e-01
-6.30817187e-08,1.83700000e-01
-6.30417188e-08,1.83693750e-01
-6.30017187e-08,1.83715625e-01
-6.29617187e-08,1.83659375e-01
-6.29217187e-08,1.83893750e-01
-6.28817187e-08,1.84168750e-01
-6.28417188e-08,1.84054688e-01
-6.28017187e-08,1.84137500e-01
-6.27617188e-08,1.84065625e-01
-6.27217187e-08,1.84134375e-01
-6.26817187e-08,1.84062500e-01
-6.26417187e-08,1.84146875e-01
-6.26017187e-08,1.84029688e-01
-6.25617188e-08,1.84323438e-01
-6.25217187e-08,1.84539063e-01
-6.24817188e-08,1.84484375e-01
-6.24417187e-08,1.84504688e-01
-6.24017187e-08,1.84500000e-01
-6.23617187e-08,1.84495313e-01
-6.23217187e-08,1.84510937e-01
-6.22817188e-08,1.84484375e-01
-6.22417187e-08,1.84526563e-01
-6.22017188e-08,1.84446875e-01
-6.21617187e-08,1.84706250e-01
-6.21217187e-08,1.84956250e-01
-6.20817187e-08,1.84868750e-01
-6.20417187e-08,1.84921875e-01
-6.20017188e-08,1.84882812e-01
-6.19617187e-08,1.84914063e-01
-6.19217188e-08,1.84889063e-01
-6.18817187e-08,1.84909375e-01
-6.18417187e-08,1.84890625e-01
-6.18017187e-08,1.84907813e-01
-6.17617187e-08,1.84892187e-01
-6.17217188e-08,1.84906250e-01
-6.16817187e-08,1.84893750e-01
-6.16417188e-08,1.84906250e-01
-6.16017187e-08,1.84895313e-01
-6.15617187e-08,1.84904687e-01
-6.15217187e-08,1.84895313e-01
-6.14817187e-08,1.84904687e-01
-6.14417188e-08,1.84895313e-01
-6.14017187e-08,1.84903125e-01
-6.13617188e-08,1.84896875e-01
-6.13217187e-08,1.84903125e-01
-6.12817187e-08,1.84896875e-01
-6.12417187e-08,1.84903125e-01
-6.12017187e-08,1.84896875e-01
-6.11617188e-08,1.84903125e-01
-6.11217187e-08,1.84896875e-01
-6.10817188e-08,1.84903125e-01
-6.10417187e-08,1.84896875e-01
-6.10017187e-08,1.84903125e-01
-6.09617187e-08,1.84898438e-01
-6.09217187e-08,1.84901563e-01
-6.08817188e-08,1.84898438e-01
-6.08417187e-08,1.84901563e-01
-6.08017188e-08,1.84898438e-01
-6.07617187e-08,1.84901563e-01
-6.07217187e-08,1.84898438e-01
-6.06817187e-08,1.84901563e-01
-6.06417187e-08,1.84898438e-01
-6.06017188e-08,1.84901563e-01
-6.05617187e-08,1.84898438e-01
-6.05217187e-08,1.84900000e-01
-6.04817187e-08,1.84900000e-01
-6.04417187e-08,1.84900000e-01
-6.04017187e-08,1.84900000e-01
-6.03617187e-08,1.84900000e-01
-6.03217188e-08,1.84900000e-01
-6.02817187e-08,1.84898438e-01
-6.02417187e-08,1.84901563e-01
-6.02017187e-08,1.84898438e-01
-6.01617187e-08,1.84903125e-01
-6.01217187e-08,1.84895313e-01
-6.00817187e-08,1.84904687e-01
-6.00417188e-08,1.84892187e-01
-6.00017187e-08,1.84910938e-01
-5.99617187e-08,1.84884375e-01
-5.99217187e-08,1.84925000e-01
-5.98817187e-08,1.84850000e-01
-5.98417187e-08,1.85101563e-01
-5.98017187e-08,1.85360938e-01
-5.97617188e-08,1.85264062e-01
-5.97217187e-08,1.85328125e-01
-5.96817187e-08,1.85276563e-01
-5.96417187e-08,1.85320313e-01
-5.96017187e-08,1.85281250e-01
-5.95617187e-08,1.85317188e-01
-5.95217187e-08,1.85282813e-01
-5.94817187e-08,1.85317188e-01
-5.94417187e-08,1.85281250e-01
-5.94017187e-08,1.85318750e-01
-5.93617187e-08,1.85279688e-01
-5.93217187e-08,1.85323438e-01
-5.92817187e-08,1.85271875e-01
-5.92417187e-08,1.85337500e-01
-5.92017187e-08,1.85237500e-01
-5.91617187e-08,1.85515625e-01
-5.91217187e-08,1.85746875e-01
-5.90817187e-08,1.85676563e-01
-5.90417187e-08,1.85714062e-01
-5.90017187e-08,1.85690625e-01
-5.89617187e-08,1.85706250e-01
-5.89217187e-08,1.85695313e-01
-5.88817187e-08,1.85703125e-01
-5.88417187e-08,1.85698438e-01
-5.88017187e-08,1.85701563e-01
-5.87617187e-08,1.85700000e-01
-5.87217187e-08,1.85700000e-01
-5.86817187e-08,1.85700000e-01
-5.86417187e-08,1.85698438e-01
-5.86017187e-08,1.85701563e-01
-5.85617187e-08,1.85698438e-01
-5.85217187e-08,1.85701563e-01
-5.84817187e-08,1.85696875e-01
-5.84417187e-08,1.85703125e-01
-5.84017187e-08,1.85696875e-01
-5.83617187e-08,1.85703125e-01
-5.83217187e-08,1.85695313e-01
-5.82817187e-08,1.85704688e-01
-5.82417187e-08,1.85695313e-01
-5.82017187e-08,1.85704688e-01
-5.81617187e-08,1.85693750e-01
-5.81217187e-08,1.85706250e-01
-5.80817187e-08,1.85692187e-01
-5.80417187e-08,1.85709375e-01
-5.80017187e-08,1.85689063e-01
-5.79617187e-08,1.85712500e-01
-5.79217187e-08,1.85684375e-01
-5.78817187e-08,1.85720313e-01
-5.78417187e-08,1.85670313e-01
-5.78017187e-08,1.85754688e-01
-5.77617187e-08,1.85492188e-01
-5.77217187e-08,1.85245313e-01
-5.76817187e-08,1.85331250e-01
-5.76417187e-08,1.85278125e-01
-5.76017187e-08,1.85315625e-01
-5.75617187e-08,1.85287500e-01
-5.75217187e-08,1.85310937e-01
-5.74817187e-08,1.85290625e-01
-5.74417187e-08,1.85309375e-01
-5.74017187e-08,1.85292188e-01
-5.73617187e-08,1.85307813e-01
-5.73217187e-08,1.85292188e-01
-5.72817187e-08,1.85307813e-01
-5.72417187e-08,1.85292188e-01
-5.72017187e-08,1.85307813e-01
-5.71617187e-08,1.85292188e-01
-5.71217187e-08,1.85307813e-01
-5.70817187e-08,1.85292188e-01
-5.70417187e-08,1.85309375e-01
-5.70017187e-08,1.85289063e-01
-5.69617187e-08,1.85312500e-01
-5.69217187e-08,1.85284375e-01
-5.68817187e-08,1.85320313e-01
-5.68417187e-08,1.85270313e-01
-5.68017187e-08,1.85353125e-01
-5.67617187e-08,1.85093750e-01
-5.67217187e-08,1.84843750e-01
-5.66817187e-08,1.84932813e-01
-5.66417187e-08,1.84876563e-01
-5.66017187e-08,1.84918750e-01
-5.65617187e-08,1.84884375e-01
-5.65217187e-08,1.84914063e-01
-5.64817187e-08,1.84887500e-01
-5.64417187e-08,1.84912500e-01
-5.64017187e-08,1.84889063e-01
-5.63617187e-08,1.84910938e-01
-5.63217187e-08,1.84889063e-01
-5.62817187e-08,1.84910938e-01
-5.62417187e-08,1.84889063e-01
-5.62017187e-08,1.84912500e-01
-5.61617187e-08,1.84887500e-01
-5.61217187e-08,1.84914063e-01
-5.60817187e-08,1.84884375e-01
-5.60417187e-08,1.84917187e-01
-5.60017187e-08,1.84879688e-01
-5.59617187e-08,1.84925000e-01
-5.59217187e-08,1.84865625e-01
-5.58817187e-08,1.84959375e-01
-5.58417187e-08,1.84687500e-01
-5.58017187e-08,1.84450000e-01
-5.57617187e-08,1.84525000e-01
-5.57217187e-08,1.84484375e-01
-5.56817187e-08,1.84510937e-01
-5.56417187e-08,1.84492188e-01
-5.56017187e-08,1.84506250e-01
-5.55617187e-08,1.84495313e-01
-5.55217187e-08,1.84503125e-01
-5.54817187e-08,1.84498438e-01
-5.54417187e-08,1.84501562e-01
-5.54017187e-08,1.84500000e-01
-5.53617187e-08,1.84500000e-01
-5.53217187e-08,1.84501562e-01
-5.52817187e-08,1.84498438e-01
-5.52417187e-08,1.84503125e-01
-5.52017187e-08,1.84496875e-01
-5.51617187e-08,1.84504688e-01
-5.51217187e-08,1.84493750e-01
-5.50817187e-08,1.84507813e-01
-5.50417187e-08,1.84490625e-01
-5.50017187e-08,1.84510937e-01
-5.49617187e-08,1.84485938e-01
-5.49217187e-08,1.84518750e-01
-5.48817187e-08,1.84470313e-01
-5.48417187e-08,1.84554688e-01
-5.48017187e-08,1.84292188e-01
-5.47617187e-08,1.84045313e-01
-5.47217187e-08,1.84131250e-01
-5.46817187e-08,1.84078125e-01
-5.46417187e-08,1.84115625e-01
-5.46017187e-08,1.84087500e-01
-5.45617187e-08,1.84110938e-01
-5.45217187e-08,1.84090625e-01
-5.44817187e-08,1.84107812e-01
-5.44417187e-08,1.84092188e-01
-5.44017187e-08,1.84106250e-01
-5.43617187e-08,1.84093750e-01
-5.43217187e-08,1.84104688e-01
-5.42817187e-08,1.84095312e-01
-5.42417187e-08,1.84104688e-01
-5.42017187e-08,1.84095312e-01
-5.41617187e-08,1.84103125e-01
-5.41217187e-08,1.84096875e-01
-5.40817187e-08,1.84103125e-01
-5.40417187e-08,1.84096875e-01
-5.40017187e-08,1.84103125e-01
-5.39617187e-08,1.84096875e-01
-5.39217187e-08,1.84101563e-01
-5.38817187e-08,1.84098438e-01
-5.38417187e-08,1.84101563e-01
-5.38017187e-08,1.84098438e-01
-5.37617187e-08,1.84101563e-01
-5.37217187e-08,1.84098438e-01
-5.36817187e-08,1.84101563e-01
-5.36417187e-08,1.84098438e-01
-5.36017187e-08,1.84100000e-01
-5.35617187e-08,1.84100000e-01
-5.35217187e-08,1.84100000e-01
-5.34817187e-08,1.84100000e-01
-5.34417187e-08,1.84100000e-01
-5.34017187e-08,1.84100000e-01
-5.33617187e-08,1.84100000e-01
-5.33217187e-08,1.84101563e-01
-5.32817187e-08,1.84098438e-01
-5.32417188e-08,1.84101563e-01
-5.32017187e-08,1.84098438e-01
-5.31617187e-08,1.84101563e-01
-5.31217187e-08,1.84096875e-01
-5.30817187e-08,1.84103125e-01
-5.30417187e-08,1.84096875e-01
-5.30017187e-08,1.84103125e-01
-5.29617187e-08,1.84095312e-01
-5.29217187e-08,1.84104688e-01
-5.28817187e-08,1.84093750e-01
-5.28417187e-08,1.84106250e-01
-5.28017187e-08,1.84092188e-01
-5.27617187e-08,1.84109375e-01
-5.27217187e-08,1.84087500e-01
-5.26817187e-08,1.84115625e-01
-5.26417187e-08,1.84079688e-01
-5.26017187e-08,1.84129687e-01
-5.25617187e-08,1.84045313e-01
-5.25217187e-08,1.84309375e-01
-5.24817187e-08,1.84553125e-01
-5.24417187e-08,1.84470313e-01
-5.24017187e-08,1.84518750e-01
-5.23617187e-08,1.84485938e-01
-5.23217187e-08,1.84510937e-01
-5.22817187e-08,1.84492188e-01
-5.22417187e-08,1.84506250e-01
-5.22017187e-08,1.84496875e-01
-5.21617187e-08,1.84501562e-01
-5.21217187e-08,1.84500000e-01
-5.20817187e-08,1.84496875e-01
-5.20417187e-08,1.84506250e-01
-5.20017187e-08,1.84487500e-01
-5.19617187e-08,1.84521875e-01
-5.19217187e-08,1.84453125e-01
-5.18817187e-08,1.84700000e-01
-5.18417187e-08,1.84960938e-01
-5.18017187e-08,1.84862500e-01
-5.17617187e-08,1.84928125e-01
-5.17217187e-08,1.84876563e-01
-5.16817187e-08,1.84920313e-01
-5.16417187e-08,1.84882812e-01
-5.16017187e-08,1.84915625e-01
-5.15617187e-08,1.84885938e-01
-5.15217187e-08,1.84914063e-01
-5.14817187e-08,1.84887500e-01
-5.14417187e-08,1.84912500e-01
-5.14017187e-08,1.84887500e-01
-5.13617187e-08,1.84910938e-01
-5.13217188e-08,1.84889063e-01
-5.12817187e-08,1.84910938e-01
-5.12417187e-08,1.84889063e-01
-5.12017187e-08,1.84910938e-01
-5.11617187e-08,1.84889063e-01
-5.11217187e-08,1.84910938e-01
-5.10817187e-08,1.84889063e-01
-5.10417187e-08,1.84910938e-01
-5.10017187e-08,1.84889063e-01
-5.09617187e-08,1.84910938e-01
-5.09217187e-08,1.84889063e-01
-5.08817187e-08,1.84910938e-01
-5.08417187e-08,1.84889063e-01
-5.08017187e-08,1.84910938e-01
-5.07617187e-08,1.84889063e-01
-5.07217187e-08,1.84912500e-01
-5.06817187e-08,1.84887500e-01
-5.06417187e-08,1.84912500e-01
-5.06017187e-08,1.84885938e-01
-5.05617187e-08,1.84915625e-01
-5.05217187e-08,1.84882812e-01
-5.04817187e-08,1.84920313e-01
-5.04417187e-08,1.84875000e-01
-5.04017187e-08,1.84935938e-01
-5.03617187e-08,1.84840625e-01
-5.03217187e-08,1.85112500e-01
-5.02817187e-08,1.85350000e-01
-5.02417187e-08,1.85275000e-01
-5.02017187e-08,1.85315625e-01
-5.01617187e-08,1.85289063e-01
-5.01217187e-08,1.85307813e-01
-5.00817187e-08,1.85293750e-01
-5.00417187e-08,1.85304688e-01
-5.00017187e-08,1.85295313e-01
-4.99617187e-08,1.85303125e-01
-4.99217187e-08,1.85296875e-01
-4.98817187e-08,1.85301563e-01
-4.98417187e-08,1.85298437e-01
-4.98017187e-08,1.85301563e-01
-4.97617187e-08,1.85298437e-01
-4.97217187e-08,1.85300000e-01
-4.96817187e-08,1.85300000e-01
-4.96417187e-08,1.85300000e-01
-4.96017187e-08,1.85300000e-01
-4.95617187e-08,1.85300000e-01
-4.95217187e-08,1.85300000e-01
-4.94817187e-08,1.85300000e-01
-4.94417187e-08,1.85300000e-01
-4.94017188e-08,1.85300000e-01
-4.93617187e-08,1.85300000e-01
-4.93217187e-08,1.85300000e-01
-4.92817187e-08,1.85300000e-01
-4.92417187e-08,1.85300000e-01
-4.92017187e-08,1.85300000e-01
-4.91617187e-08,1.85300000e-01
-4.91217188e-08,1.85300000e-01
-4.90817187e-08,1.85300000e-01
-4.90417187e-08,1.85298437e-01
-4.90017187e-08,1.85301563e-01
-4.89617187e-08,1.85298437e-01
-4.89217187e-08,1.85301563e-01
-4.88817187e-08,1.85296875e-01
-4.88417187e-08,1.85303125e-01
-4.88017187e-08,1.85295313e-01
-4.87617187e-08,1.85306250e-01
-4.87217187e-08,1.85292188e-01
-4.86817187e-08,1.85310937e-01
-4.86417187e-08,1.85284375e-01
-4.86017187e-08,1.85325000e-01
-4.85617187e-08,1.85250000e-01
-4.85217187e-08,1.85503125e-01
-4.84817187e-08,1.85759375e-01
-4.84417187e-08,1.85664063e-01
-4.84017187e-08,1.85726562e-01
-4.83617187e-08,1.85678125e-01
-4.83217187e-08,1.85718750e-01
-4.82817187e-08,1.85682813e-01
-4.82417187e-08,1.85715625e-01
-4.82017187e-08,1.85684375e-01
-4.81617187e-08,1.85714062e-01
-4.81217187e-08,1.85685938e-01
-4.80817187e-08,1.85714062e-01
-4.80417187e-08,1.85685938e-01
-4.80017187e-08,1.85714062e-01
-4.79617187e-08,1.85685938e-01
-4.79217187e-08,1.85715625e-01
-4.78817187e-08,1.85684375e-01
-4.78417187e-08,1.85717188e-01
-4.78017187e-08,1.85681250e-01
-4.77617187e-08,1.85721875e-01
-4.77217187e-08,1.85671875e-01
-4.76817187e-08,1.85737500e-01
-4.76417187e-08,1.85637500e-01
-4.76017187e-08,1.85914063e-01
-4.75617187e-08,1.86146875e-01
-4.75217187e-08,1.86076563e-01
-4.74817188e-08,1.86114063e-01
-4.74417187e-08,1.86090625e-01
-4.74017187e-08,1.86106250e-01
-4.73617187e-08,1.86095312e-01
-4.73217187e-08,1.86103125e-01
-4.72817187e-08,1.86098438e-01
-4.72417187e-08,1.86101563e-01
-4.72017188e-08,1.86100000e-01
-4.71617187e-08,1.86100000e-01
-4.71217187e-08,1.86100000e-01
-4.70817187e-08,1.86098438e-01
-4.70417187e-08,1.86101563e-01
-4.70017187e-08,1.86098438e-01
-4.69617187e-08,1.86101563e-01
-4.69217188e-08,1.86098438e-01
-4.68817187e-08,1.86103125e-01
-4.68417187e-08,1.86096875e-01
-4.68017187e-08,1.86103125e-01
-4.67617187e-08,1.86096875e-01
-4.67217187e-08,1.86103125e-01
-4.66817187e-08,1.86096875e-01
-4.66417187e-08,1.86104688e-01
-4.66017187e-08,1.86095312e-01
-4.65617187e-08,1.86104688e-01
-4.65217187e-08,1.86095312e-01
-4.64817187e-08,1.86104688e-01
-4.64417187e-08,1.86095312e-01
-4.64017187e-08,1.86104688e-01
-4.63617187e-08,1.86093750e-01
-4.63217187e-08,1.86106250e-01
-4.62817187e-08,1.86093750e-01
-4.62417187e-08,1.86106250e-01
-4.62017187e-08,1.86092188e-01
-4.61617187e-08,1.86107812e-01
-4.61217187e-08,1.86090625e-01
-4.60817187e-08,1.86109375e-01
-4.60417187e-08,1.86089063e-01
-4.60017187e-08,1.86112500e-01
-4.59617187e-08,1.86085938e-01
-4.59217187e-08,1.86117188e-01
-4.58817187e-08,1.86078125e-01
-4.58417187e-08,1.86132812e-01
-4.58017187e-08,1.86042188e-01
-4.57617187e-08,1.86309375e-01
-4.57217187e-08,1.86551563e-01
-4.56817187e-08,1.86471875e-01
-4.56417187e-08,1.86518750e-01
-4.56017187e-08,1.86485938e-01
-4.55617188e-08,1.86510938e-01
-4.55217187e-08,1.86490625e-01
-4.54817187e-08,1.86507813e-01
-4.54417187e-08,1.86493750e-01
-4.54017187e-08,1.86506250e-01
-4.53617187e-08,1.86493750e-01
-4.53217187e-08,1.86506250e-01
-4.52817188e-08,1.86493750e-01
-4.52417187e-08,1.86506250e-01
-4.52017187e-08,1.86493750e-01
-4.51617187e-08,1.86506250e-01
-4.51217187e-08,1.86492188e-01
-4.50817187e-08,1.86509375e-01
-4.50417187e-08,1.86487500e-01
-4.50017188e-08,1.86517188e-01
-4.49617187e-08,1.86473438e-01
-4.49217187e-08,1.86550000e-01
-4.48817187e-08,1.86296875e-01
-4.48417187e-08,1.86040625e-01
-4.48017187e-08,1.86135938e-01
-4.47617187e-08,1.86073437e-01
-4.47217188e-08,1.86121875e-01
-4.46817187e-08,1.86079688e-01
-4.46417187e-08,1.86118750e-01
-4.46017187e-08,1.86082812e-01
-4.45617187e-08,1.86117188e-01
-4.45217187e-08,1.86082812e-01
-4.44817187e-08,1.86117188e-01
-4.44417187e-08,1.86081250e-01
-4.44017187e-08,1.86120312e-01
-4.43617187e-08,1.86079688e-01
-4.43217187e-08,1.86123438e-01
-4.42817187e-08,1.86073437e-01
-4.42417187e-08,1.86132812e-01
-4.42017187e-08,1.86057813e-01
-4.41617187e-08,1.86167187e-01
-4.41217187e-08,1.85878125e-01
-4.40817187e-08,1.85660938e-01
-4.40417187e-08,1.85712500e-01
-4.40017187e-08,1.85700000e-01
-4.39617187e-08,1.85690625e-01
-4.39217188e-08,1.85721875e-01
-4.38817187e-08,1.85651563e-01
-4.38417187e-08,1.85903125e-01
-4.38017187e-08,1.86157813e-01
-4.37617187e-08,1.86065625e-01
-4.37217187e-08,1.86123438e-01
-4.36817187e-08,1.86081250e-01
-4.36417188e-08,1.86115625e-01
-4.36017187e-08,1.86085938e-01
-4.35617187e-08,1.86112500e-01
-4.35217187e-08,1.86089063e-01
-4.34817187e-08,1.86110938e-01
-4.34417187e-08,1.86087500e-01
-4.34017187e-08,1.86114063e-01
-4.33617188e-08,1.86082812e-01
-4.33217187e-08,1.86126563e-01
-4.32817187e-08,1.86050000e-01
-4.32417187e-08,1.86301563e-01
-4.32017187e-08,1.86562500e-01
-4.31617187e-08,1.86459375e-01
-4.31217187e-08,1.86532813e-01
-4.30817188e-08,1.86468750e-01
-4.30417187e-08,1.86531250e-01
-4.30017187e-08,1.86464062e-01
-4.29617187e-08,1.86545313e-01
-4.29217187e-08,1.86431250e-01
-4.28817187e-08,1.86723438e-01
-4.28417187e-08,1.86939063e-01
-4.28017188e-08,1.86885938e-01
-4.27617187e-08,1.86901563e-01
-4.27217187e-08,1.86906250e-01
-4.26817187e-08,1.86885938e-01
-4.26417187e-08,1.86925000e-01
-4.26017187e-08,1.86848438e-01
-4.25617187e-08,1.87106250e-01
-4.25217188e-08,1.87354688e-01
-4.24817187e-08,1.87270313e-01
-4.24417187e-08,1.87318750e-01
-4.24017187e-08,1.87287500e-01
-4.23617187e-08,1.87307813e-01
-4.23217187e-08,1.87295313e-01
-4.22817187e-08,1.87300000e-01
-4.22417187e-08,1.87303125e-01
-4.22017187e-08,1.87290625e-01
-4.21617187e-08,1.87320313e-01
-4.21217187e-08,1.87254688e-01
-4.20817187e-08,1.87500000e-01
-4.20417187e-08,1.87762500e-01
-4.20017188e-08,1.87660938e-01
-4.19617187e-08,1.87729688e-01
-4.19217187e-08,1.87676563e-01
-4.18817187e-08,1.87720313e-01
-4.18417187e-08,1.87681250e-01
-4.18017187e-08,1.87717187e-01
-4.17617187e-08,1.87682813e-01
-4.17217188e-08,1.87717187e-01
-4.16817187e-08,1.87682813e-01
-4.16417187e-08,1.87718750e-01
-4.16017187e-08,1.87679687e-01
-4.15617187e-08,1.87725000e-01
-4.15217187e-08,1.87665625e-01
-4.14817187e-08,1.87757813e-01
-4.14417188e-08,1.87489062e-01
-4.14017187e-08,1.87246875e-01
-4.13617187e-08,1.87329688e-01
-4.13217187e-08,1.87278125e-01
-4.12817187e-08,1.87318750e-01
-4.12417187e-08,1.87282813e-01
-4.12017187e-08,1.87317188e-01
-4.11617188e-08,1.87281250e-01
-4.11217187e-08,1.87321875e-01
-4.10817187e-08,1.87268750e-01
-4.10417187e-08,1.87354688e-01
-4.10017187e-08,1.87092188e-01
-4.09617187e-08,1.86843750e-01
-4.09217187e-08,1.86932813e-01
-4.08817188e-08,1.86875000e-01
-4.08417187e-08,1.86921875e-01
-4.08017187e-08,1.86878125e-01
-4.07617187e-08,1.86925000e-01
-4.07217187e-08,1.86868750e-01
-4.06817187e-08,1.86954687e-01
-4.06417187e-08,1.86693750e-01
-4.06017188e-08,1.86442187e-01
-4.05617187e-08,1.86535937e-01
-4.05217187e-08,1.86471875e-01
-4.04817187e-08,1.86525000e-01
-4.04417187e-08,1.86473438e-01
-4.04017187e-08,1.86529688e-01
-4.03617187e-08,1.86462500e-01
-4.03217188e-08,1.86562500e-01
-4.02817187e-08,1.86284375e-01
-4.02417187e-08,1.86053125e-01
-4.02017187e-08,1.86123438e-01
-4.01617187e-08,1.86085938e-01
-4.01217187e-08,1.86109375e-01
-4.00817188e-08,1.86093750e-01
-4.00417187e-08,1.86103125e-01
-4.00017187e-08,1.86098438e-01
-3.99617187e-08,1.86098438e-01
-3.99217187e-08,1.86103125e-01
-3.98817187e-08,1.86095312e-01
-3.98417187e-08,1.86107812e-01
-3.98017188e-08,1.86089063e-01
-3.97617187e-08,1.86117188e-01
-3.97217187e-08,1.86073437e-01
-3.96817187e-08,1.86151563e-01
-3.96417187e-08,1.85895313e-01
-3.96017187e-08,1.85643750e-01
-3.95617187e-08,1.85732813e-01
-3.95217188e-08,1.85676563e-01
-3.94817187e-08,1.85717188e-01
-3.94417187e-08,1.85685938e-01
-3.94017187e-08,1.85712500e-01
-3.93617187e-08,1.85689063e-01
-3.93217187e-08,1.85709375e-01
-3.92817187e-08,1.85692187e-01
-3.92417188e-08,1.85706250e-01
-3.92017187e-08,1.85693750e-01
-3.91617187e-08,1.85704688e-01
-3.91217187e-08,1.85695313e-01
-3.90817187e-08,1.85703125e-01
-3.90417187e-08,1.85696875e-01
-3.90017187e-08,1.85701563e-01
-3.89617188e-08,1.85698438e-01
-3.89217187e-08,1.85700000e-01
-3.88817187e-08,1.85700000e-01
-3.88417187e-08,1.85698438e-01
-3.88017187e-08,1.85703125e-01
-3.87617187e-08,1.85695313e-01
-3.87217187e-08,1.85706250e-01
-3.86817188e-08,1.85690625e-01
-3.86417187e-08,1.85715625e-01
-3.86017187e-08,1.85675000e-01
-3.85617187e-08,1.85750000e-01
-3.85217187e-08,1.85496875e-01
