trails/0bdfa5e45fec98341abdd20552c140b4/aes_ch1_20250507114030355.csv

Model,MSO66B
Label,
Waveform Type,ANALOG
Horizontal Units,s
Sample Interval,4.00000000e-11
Record Length,10000
Zero Index,1599.04296875
Vertical Units,A
ANALOG_Thumbnail,
yOffset,1.84500000e-01
yPosition,8.40000000e-01

Labels,
TIME,CH1
-6.39617187e-08,1.80501563e-01
-6.39217187e-08,1.80498437e-01
-6.38817188e-08,1.80501563e-01
-6.38417187e-08,1.80498437e-01
-6.38017187e-08,1.80501563e-01
-6.37617187e-08,1.80496875e-01
-6.37217187e-08,1.80503125e-01
-6.36817187e-08,1.80496875e-01
-6.36417187e-08,1.80503125e-01
-6.36017188e-08,1.80496875e-01
-6.35617187e-08,1.80503125e-01
-6.35217187e-08,1.80496875e-01
-6.34817187e-08,1.80503125e-01
-6.34417187e-08,1.80496875e-01
-6.34017187e-08,1.80503125e-01
-6.33617187e-08,1.80496875e-01
-6.33217188e-08,1.80504688e-01
-6.32817187e-08,1.80495313e-01
-6.32417187e-08,1.80504688e-01
-6.32017187e-08,1.80495313e-01
-6.31617187e-08,1.80504688e-01
-6.31217187e-08,1.80495313e-01
-6.30817187e-08,1.80504688e-01
-6.30417188e-08,1.80495313e-01
-6.30017187e-08,1.80506250e-01
-6.29617187e-08,1.80493750e-01
-6.29217187e-08,1.80506250e-01
-6.28817187e-08,1.80493750e-01
-6.28417188e-08,1.80506250e-01
-6.28017187e-08,1.80492188e-01
-6.27617188e-08,1.80507813e-01
-6.27217187e-08,1.80492188e-01
-6.26817187e-08,1.80509375e-01
-6.26417187e-08,1.80490625e-01
-6.26017187e-08,1.80510937e-01
-6.25617188e-08,1.80489063e-01
-6.25217187e-08,1.80514063e-01
-6.24817188e-08,1.80484375e-01
-6.24417187e-08,1.80518750e-01
-6.24017187e-08,1.80476562e-01
-6.23617187e-08,1.80534375e-01
-6.23217187e-08,1.80440625e-01
-6.22817188e-08,1.80712500e-01
-6.22417187e-08,1.80950000e-01
-6.22017188e-08,1.80875000e-01
-6.21617187e-08,1.80915625e-01
-6.21217187e-08,1.80890625e-01
-6.20817187e-08,1.80906250e-01
-6.20417187e-08,1.80898438e-01
-6.20017188e-08,1.80898438e-01
-6.19617187e-08,1.80904687e-01
-6.19217188e-08,1.80889063e-01
-6.18817187e-08,1.80920313e-01
-6.18417187e-08,1.80853125e-01
-6.18017187e-08,1.81100000e-01
-6.17617187e-08,1.81362500e-01
-6.17217188e-08,1.81260937e-01
-6.16817187e-08,1.81329688e-01
-6.16417188e-08,1.81275000e-01
-6.16017187e-08,1.81321875e-01
-6.15617187e-08,1.81279688e-01
-6.15217187e-08,1.81320312e-01
-6.14817187e-08,1.81279688e-01
-6.14417188e-08,1.81320312e-01
-6.14017187e-08,1.81278125e-01
-6.13617188e-08,1.81325000e-01
-6.13217187e-08,1.81270313e-01
-6.12817187e-08,1.81339063e-01
-6.12417187e-08,1.81235937e-01
-6.12017187e-08,1.81515625e-01
-6.11617188e-08,1.81745313e-01
-6.11217187e-08,1.81678125e-01
-6.10817188e-08,1.81712500e-01
-6.10417187e-08,1.81692188e-01
-6.10017187e-08,1.81704688e-01
-6.09617187e-08,1.81698438e-01
-6.09217187e-08,1.81700000e-01
-6.08817188e-08,1.81701562e-01
-6.08417187e-08,1.81696875e-01
-6.08017188e-08,1.81706250e-01
-6.07617187e-08,1.81692188e-01
-6.07217187e-08,1.81710938e-01
-6.06817187e-08,1.81682813e-01
-6.06417187e-08,1.81726562e-01
-6.06017188e-08,1.81648438e-01
-6.05617187e-08,1.81904687e-01
-6.05217187e-08,1.82156250e-01
-6.04817187e-08,1.82067188e-01
-6.04417187e-08,1.82123438e-01
-6.04017187e-08,1.82081250e-01
-6.03617187e-08,1.82115625e-01
-6.03217188e-08,1.82087500e-01
-6.02817187e-08,1.82112500e-01
-6.02417187e-08,1.82089063e-01
-6.02017187e-08,1.82109375e-01
-6.01617187e-08,1.82090625e-01
-6.01217187e-08,1.82107812e-01
-6.00817187e-08,1.82092188e-01
-6.00417188e-08,1.82107812e-01
-6.00017187e-08,1.82093750e-01
-5.99617187e-08,1.82106250e-01
-5.99217187e-08,1.82093750e-01
-5.98817187e-08,1.82106250e-01
-5.98417187e-08,1.82093750e-01
-5.98017187e-08,1.82106250e-01
-5.97617188e-08,1.82095312e-01
-5.97217187e-08,1.82104688e-01
-5.96817187e-08,1.82095312e-01
-5.96417187e-08,1.82104688e-01
-5.96017187e-08,1.82095312e-01
-5.95617187e-08,1.82104688e-01
-5.95217187e-08,1.82095312e-01
-5.94817187e-08,1.82104688e-01
-5.94417187e-08,1.82096875e-01
-5.94017187e-08,1.82103125e-01
-5.93617187e-08,1.82096875e-01
-5.93217187e-08,1.82103125e-01
-5.92817187e-08,1.82098438e-01
-5.92417187e-08,1.82101563e-01
-5.92017187e-08,1.82100000e-01
-5.91617187e-08,1.82098438e-01
-5.91217187e-08,1.82103125e-01
-5.90817187e-08,1.82095312e-01
-5.90417187e-08,1.82109375e-01
-5.90017187e-08,1.82081250e-01
-5.89617187e-08,1.82143750e-01
-5.89217187e-08,1.81903125e-01
-5.88817187e-08,1.81632813e-01
-5.88417187e-08,1.81743750e-01
-5.88017187e-08,1.81664063e-01
-5.87617187e-08,1.81731250e-01
-5.87217187e-08,1.81670313e-01
-5.86817187e-08,1.81729688e-01
-5.86417187e-08,1.81667187e-01
-5.86017187e-08,1.81735937e-01
-5.85617187e-08,1.81654687e-01
-5.85217187e-08,1.81770313e-01
-5.84817187e-08,1.81478125e-01
-5.84417187e-08,1.81260937e-01
-5.84017187e-08,1.81315625e-01
-5.83617187e-08,1.81293750e-01
-5.83217187e-08,1.81301563e-01
-5.82817187e-08,1.81303125e-01
-5.82417187e-08,1.81295312e-01
-5.82017187e-08,1.81307812e-01
-5.81617187e-08,1.81290625e-01
-5.81217187e-08,1.81312500e-01
-5.80817187e-08,1.81282813e-01
-5.80417187e-08,1.81321875e-01
-5.80017187e-08,1.81267188e-01
-5.79617187e-08,1.81357812e-01
-5.79217187e-08,1.81089063e-01
-5.78817187e-08,1.80848438e-01
-5.78417187e-08,1.80926562e-01
-5.78017187e-08,1.80882813e-01
-5.77617187e-08,1.80912500e-01
-5.77217187e-08,1.80890625e-01
-5.76817187e-08,1.80906250e-01
-5.76417187e-08,1.80895313e-01
-5.76017187e-08,1.80904687e-01
-5.75617187e-08,1.80896875e-01
-5.75217187e-08,1.80901563e-01
-5.74817187e-08,1.80898438e-01
-5.74417187e-08,1.80901563e-01
-5.74017187e-08,1.80900000e-01
-5.73617187e-08,1.80900000e-01
-5.73217187e-08,1.80901563e-01
-5.72817187e-08,1.80898438e-01
-5.72417187e-08,1.80901563e-01
-5.72017187e-08,1.80898438e-01
-5.71617187e-08,1.80903125e-01
-5.71217187e-08,1.80896875e-01
-5.70817187e-08,1.80903125e-01
-5.70417187e-08,1.80896875e-01
-5.70017187e-08,1.80904687e-01
-5.69617187e-08,1.80895313e-01
-5.69217187e-08,1.80904687e-01
-5.68817187e-08,1.80893750e-01
-5.68417187e-08,1.80906250e-01
-5.68017187e-08,1.80892187e-01
-5.67617187e-08,1.80909375e-01
-5.67217187e-08,1.80890625e-01
-5.66817187e-08,1.80910938e-01
-5.66417187e-08,1.80885938e-01
-5.66017187e-08,1.80917188e-01
-5.65617187e-08,1.80878125e-01
-5.65217187e-08,1.80932813e-01
-5.64817187e-08,1.80842188e-01
-5.64417187e-08,1.81110938e-01
-5.64017187e-08,1.81351563e-01
-5.63617187e-08,1.81273437e-01
-5.63217187e-08,1.81317188e-01
-5.62817187e-08,1.81287500e-01
-5.62417187e-08,1.81309375e-01
-5.62017187e-08,1.81293750e-01
-5.61617187e-08,1.81304688e-01
-5.61217187e-08,1.81296875e-01
-5.60817187e-08,1.81301563e-01
-5.60417187e-08,1.81300000e-01
-5.60017187e-08,1.81298438e-01
-5.59617187e-08,1.81303125e-01
-5.59217187e-08,1.81293750e-01
-5.58817187e-08,1.81309375e-01
-5.58417187e-08,1.81285937e-01
-5.58017187e-08,1.81325000e-01
-5.57617187e-08,1.81250000e-01
-5.57217187e-08,1.81503125e-01
-5.56817187e-08,1.81759375e-01
-5.56417187e-08,1.81664063e-01
-5.56017187e-08,1.81726562e-01
-5.55617187e-08,1.81678125e-01
-5.55217187e-08,1.81718750e-01
-5.54817187e-08,1.81682813e-01
-5.54417187e-08,1.81717188e-01
-5.54017187e-08,1.81682813e-01
-5.53617187e-08,1.81717188e-01
-5.53217187e-08,1.81681250e-01
-5.52817187e-08,1.81720313e-01
-5.52417187e-08,1.81675000e-01
-5.52017187e-08,1.81734375e-01
-5.51617187e-08,1.81642187e-01
-5.51217187e-08,1.81910938e-01
-5.50817187e-08,1.82151563e-01
-5.50417187e-08,1.82071875e-01
-5.50017187e-08,1.82118750e-01
-5.49617187e-08,1.82085938e-01
-5.49217187e-08,1.82112500e-01
-5.48817187e-08,1.82089063e-01
-5.48417187e-08,1.82109375e-01
-5.48017187e-08,1.82090625e-01
-5.47617187e-08,1.82109375e-01
-5.47217187e-08,1.82090625e-01
-5.46817187e-08,1.82109375e-01
-5.46417187e-08,1.82090625e-01
-5.46017187e-08,1.82109375e-01
-5.45617187e-08,1.82089063e-01
-5.45217187e-08,1.82112500e-01
-5.44817187e-08,1.82085938e-01
-5.44417187e-08,1.82117187e-01
-5.44017187e-08,1.82078125e-01
-5.43617187e-08,1.82131250e-01
-5.43217187e-08,1.82043750e-01
-5.42817187e-08,1.82309375e-01
-5.42417187e-08,1.82553125e-01
-5.42017187e-08,1.82471875e-01
-5.41617187e-08,1.82518750e-01
-5.41217187e-08,1.82485938e-01
-5.40817187e-08,1.82510937e-01
-5.40417187e-08,1.82490625e-01
-5.40017187e-08,1.82507813e-01
-5.39617187e-08,1.82493750e-01
-5.39217187e-08,1.82506250e-01
-5.38817187e-08,1.82495313e-01
-5.38417187e-08,1.82504688e-01
-5.38017187e-08,1.82495313e-01
-5.37617187e-08,1.82503125e-01
-5.37217187e-08,1.82496875e-01
-5.36817187e-08,1.82503125e-01
-5.36417187e-08,1.82496875e-01
-5.36017187e-08,1.82501563e-01
-5.35617187e-08,1.82498437e-01
-5.35217187e-08,1.82501563e-01
-5.34817187e-08,1.82498437e-01
-5.34417187e-08,1.82501563e-01
-5.34017187e-08,1.82500000e-01
-5.33617187e-08,1.82500000e-01
-5.33217187e-08,1.82500000e-01
-5.32817187e-08,1.82500000e-01
-5.32417188e-08,1.82500000e-01
-5.32017187e-08,1.82498437e-01
-5.31617187e-08,1.82501563e-01
-5.31217187e-08,1.82498437e-01
-5.30817187e-08,1.82501563e-01
-5.30417187e-08,1.82496875e-01
-5.30017187e-08,1.82503125e-01
-5.29617187e-08,1.82495313e-01
-5.29217187e-08,1.82504688e-01
-5.28817187e-08,1.82493750e-01
-5.28417187e-08,1.82507813e-01
-5.28017187e-08,1.82490625e-01
-5.27617187e-08,1.82512500e-01
-5.27217187e-08,1.82481250e-01
-5.26817187e-08,1.82528125e-01
-5.26417187e-08,1.82446875e-01
-5.26017187e-08,1.82706250e-01
-5.25617187e-08,1.82956250e-01
-5.25217187e-08,1.82867188e-01
-5.24817187e-08,1.82923438e-01
-5.24417187e-08,1.82882813e-01
-5.24017187e-08,1.82915625e-01
-5.23617187e-08,1.82887500e-01
-5.23217187e-08,1.82910938e-01
-5.22817187e-08,1.82890625e-01
-5.22417187e-08,1.82909375e-01
-5.22017187e-08,1.82892187e-01
-5.21617187e-08,1.82907813e-01
-5.21217187e-08,1.82893750e-01
-5.20817187e-08,1.82906250e-01
-5.20417187e-08,1.82893750e-01
-5.20017187e-08,1.82904687e-01
-5.19617187e-08,1.82895313e-01
-5.19217187e-08,1.82903125e-01
-5.18817187e-08,1.82896875e-01
-5.18417187e-08,1.82901563e-01
-5.18017187e-08,1.82900000e-01
-5.17617187e-08,1.82896875e-01
-5.17217187e-08,1.82907813e-01
-5.16817187e-08,1.82882813e-01
-5.16417187e-08,1.82940625e-01
-5.16017187e-08,1.82706250e-01
-5.15617187e-08,1.82429687e-01
-5.15217187e-08,1.82546875e-01
-5.14817187e-08,1.82460938e-01
-5.14417187e-08,1.82537500e-01
-5.14017187e-08,1.82462500e-01
-5.13617187e-08,1.82540625e-01
-5.13217188e-08,1.82450000e-01
-5.12817187e-08,1.82575000e-01
-5.12417187e-08,1.82271875e-01
-5.12017187e-08,1.82065625e-01
-5.11617187e-08,1.82109375e-01
-5.11217187e-08,1.82101563e-01
-5.10817187e-08,1.82089063e-01
-5.10417187e-08,1.82118750e-01
-5.10017187e-08,1.82070312e-01
-5.09617187e-08,1.82156250e-01
-5.09217187e-08,1.81889063e-01
-5.08817187e-08,1.81651563e-01
-5.08417187e-08,1.81723438e-01
-5.08017187e-08,1.81689062e-01
-5.07617187e-08,1.81703125e-01
-5.07217187e-08,1.81704688e-01
-5.06817187e-08,1.81682813e-01
-5.06417187e-08,1.81742188e-01
-5.06017187e-08,1.81503125e-01
-5.05617187e-08,1.81235937e-01
-5.05217187e-08,1.81340625e-01
-5.04817187e-08,1.81268750e-01
-5.04417187e-08,1.81325000e-01
-5.04017187e-08,1.81278125e-01
-5.03617187e-08,1.81320312e-01
-5.03217187e-08,1.81281250e-01
-5.02817187e-08,1.81318750e-01
-5.02417187e-08,1.81281250e-01
-5.02017187e-08,1.81320312e-01
-5.01617187e-08,1.81278125e-01
-5.01217187e-08,1.81326563e-01
-5.00817187e-08,1.81264063e-01
-5.00417187e-08,1.81359375e-01
-5.00017187e-08,1.81089063e-01
-4.99617187e-08,1.80848438e-01
-4.99217187e-08,1.80929688e-01
-4.98817187e-08,1.80879687e-01
-4.98417187e-08,1.80917188e-01
-4.98017187e-08,1.80882813e-01
-4.97617187e-08,1.80917188e-01
-4.97217187e-08,1.80878125e-01
-4.96817187e-08,1.80929688e-01
-4.96417187e-08,1.80845312e-01
-4.96017187e-08,1.81106250e-01
-4.95617187e-08,1.81356250e-01
-4.95217187e-08,1.81267188e-01
-4.94817187e-08,1.81323438e-01
-4.94417187e-08,1.81281250e-01
-4.94017188e-08,1.81317188e-01
-4.93617187e-08,1.81284375e-01
-4.93217187e-08,1.81314063e-01
-4.92817187e-08,1.81287500e-01
-4.92417187e-08,1.81312500e-01
-4.92017187e-08,1.81287500e-01
-4.91617187e-08,1.81312500e-01
-4.91217188e-08,1.81287500e-01
-4.90817187e-08,1.81312500e-01
-4.90417187e-08,1.81287500e-01
-4.90017187e-08,1.81312500e-01
-4.89617187e-08,1.81285937e-01
-4.89217187e-08,1.81314063e-01
-4.88817187e-08,1.81284375e-01
-4.88417187e-08,1.81317188e-01
-4.88017187e-08,1.81281250e-01
-4.87617187e-08,1.81321875e-01
-4.87217187e-08,1.81271875e-01
-4.86817187e-08,1.81337500e-01
-4.86417187e-08,1.81237500e-01
-4.86017187e-08,1.81515625e-01
-4.85617187e-08,1.81746875e-01
-4.85217187e-08,1.81678125e-01
-4.84817187e-08,1.81712500e-01
-4.84417187e-08,1.81692188e-01
-4.84017187e-08,1.81704688e-01
-4.83617187e-08,1.81698438e-01
-4.83217187e-08,1.81700000e-01
-4.82817187e-08,1.81701562e-01
-4.82417187e-08,1.81696875e-01
-4.82017187e-08,1.81703125e-01
-4.81617187e-08,1.81695313e-01
-4.81217187e-08,1.81706250e-01
-4.80817187e-08,1.81692188e-01
-4.80417187e-08,1.81709375e-01
-4.80017187e-08,1.81689062e-01
-4.79617187e-08,1.81714062e-01
-4.79217187e-08,1.81682813e-01
-4.78817187e-08,1.81721875e-01
-4.78417187e-08,1.81667187e-01
-4.78017187e-08,1.81757813e-01
-4.77617187e-08,1.81489063e-01
-4.77217187e-08,1.81250000e-01
-4.76817187e-08,1.81326563e-01
-4.76417187e-08,1.81284375e-01
-4.76017187e-08,1.81310938e-01
-4.75617187e-08,1.81293750e-01
-4.75217187e-08,1.81304688e-01
-4.74817188e-08,1.81298438e-01
-4.74417187e-08,1.81300000e-01
-4.74017187e-08,1.81303125e-01
-4.73617187e-08,1.81295312e-01
-4.73217187e-08,1.81307812e-01
-4.72817187e-08,1.81289063e-01
-4.72417187e-08,1.81317188e-01
-4.72017188e-08,1.81271875e-01
-4.71617187e-08,1.81353125e-01
-4.71217187e-08,1.81093750e-01
-4.70817187e-08,1.80845312e-01
-4.70417187e-08,1.80929688e-01
-4.70017187e-08,1.80879687e-01
-4.69617187e-08,1.80914063e-01
-4.69217188e-08,1.80889063e-01
-4.68817187e-08,1.80907813e-01
-4.68417187e-08,1.80895313e-01
-4.68017187e-08,1.80901563e-01
-4.67617187e-08,1.80901563e-01
-4.67217187e-08,1.80895313e-01
-4.66817187e-08,1.80910938e-01
-4.66417187e-08,1.80879687e-01
-4.66017187e-08,1.80946875e-01
-4.65617187e-08,1.80700000e-01
-4.65217187e-08,1.80437500e-01
-4.64817187e-08,1.80537500e-01
-4.64417187e-08,1.80471875e-01
-4.64017187e-08,1.80523437e-01
-4.63617187e-08,1.80479688e-01
-4.63217187e-08,1.80517188e-01
-4.62817187e-08,1.80484375e-01
-4.62417187e-08,1.80514063e-01
-4.62017187e-08,1.80485937e-01
-4.61617187e-08,1.80512500e-01
-4.61217187e-08,1.80487500e-01
-4.60817187e-08,1.80510937e-01
-4.60417187e-08,1.80489063e-01
-4.60017187e-08,1.80510937e-01
-4.59617187e-08,1.80490625e-01
-4.59217187e-08,1.80509375e-01
-4.58817187e-08,1.80490625e-01
-4.58417187e-08,1.80509375e-01
-4.58017187e-08,1.80492188e-01
-4.57617187e-08,1.80507813e-01
-4.57217187e-08,1.80492188e-01
-4.56817187e-08,1.80507813e-01
-4.56417187e-08,1.80492188e-01
-4.56017187e-08,1.80507813e-01
-4.55617188e-08,1.80492188e-01
-4.55217187e-08,1.80507813e-01
-4.54817187e-08,1.80492188e-01
-4.54417187e-08,1.80506250e-01
-4.54017187e-08,1.80493750e-01
-4.53617187e-08,1.80506250e-01
-4.53217187e-08,1.80493750e-01
-4.52817188e-08,1.80506250e-01
-4.52417187e-08,1.80493750e-01
-4.52017187e-08,1.80506250e-01
-4.51617187e-08,1.80493750e-01
-4.51217187e-08,1.80506250e-01
-4.50817187e-08,1.80493750e-01
-4.50417187e-08,1.80506250e-01
-4.50017188e-08,1.80493750e-01
-4.49617187e-08,1.80506250e-01
-4.49217187e-08,1.80493750e-01
-4.48817187e-08,1.80506250e-01
-4.48417187e-08,1.80493750e-01
-4.48017187e-08,1.80506250e-01
-4.47617187e-08,1.80493750e-01
-4.47217188e-08,1.80506250e-01
-4.46817187e-08,1.80493750e-01
-4.46417187e-08,1.80504688e-01
-4.46017187e-08,1.80495313e-01
-4.45617187e-08,1.80504688e-01
-4.45217187e-08,1.80495313e-01
-4.44817187e-08,1.80504688e-01
-4.44417187e-08,1.80495313e-01
-4.44017187e-08,1.80504688e-01
-4.43617187e-08,1.80495313e-01
-4.43217187e-08,1.80504688e-01
-4.42817187e-08,1.80495313e-01
-4.42417187e-08,1.80504688e-01
-4.42017187e-08,1.80495313e-01
-4.41617187e-08,1.80504688e-01
-4.41217187e-08,1.80495313e-01
-4.40817187e-08,1.80504688e-01
-4.40417187e-08,1.80495313e-01
-4.40017187e-08,1.80504688e-01
-4.39617187e-08,1.80495313e-01
-4.39217188e-08,1.80504688e-01
-4.38817187e-08,1.80495313e-01
-4.38417187e-08,1.80504688e-01
-4.38017187e-08,1.80495313e-01
-4.37617187e-08,1.80504688e-01
-4.37217187e-08,1.80495313e-01
-4.36817187e-08,1.80504688e-01
-4.36417188e-08,1.80495313e-01
-4.36017187e-08,1.80504688e-01
-4.35617187e-08,1.80495313e-01
-4.35217187e-08,1.80504688e-01
-4.34817187e-08,1.80495313e-01
-4.34417187e-08,1.80504688e-01
-4.34017187e-08,1.80495313e-01
-4.33617188e-08,1.80504688e-01
-4.33217187e-08,1.80495313e-01
-4.32817187e-08,1.80504688e-01
-4.32417187e-08,1.80493750e-01
-4.32017187e-08,1.80506250e-01
-4.31617187e-08,1.80493750e-01
-4.31217187e-08,1.80506250e-01
-4.30817188e-08,1.80493750e-01
-4.30417187e-08,1.80506250e-01
-4.30017187e-08,1.80493750e-01
-4.29617187e-08,1.80506250e-01
-4.29217187e-08,1.80493750e-01
-4.28817187e-08,1.80506250e-01
-4.28417187e-08,1.80493750e-01
-4.28017188e-08,1.80506250e-01
-4.27617187e-08,1.80493750e-01
-4.27217187e-08,1.80506250e-01
-4.26817187e-08,1.80493750e-01
-4.26417187e-08,1.80506250e-01
-4.26017187e-08,1.80492188e-01
-4.25617187e-08,1.80507813e-01
-4.25217188e-08,1.80492188e-01
-4.24817187e-08,1.80507813e-01
-4.24417187e-08,1.80492188e-01
-4.24017187e-08,1.80507813e-01
-4.23617187e-08,1.80490625e-01
-4.23217187e-08,1.80509375e-01
-4.22817187e-08,1.80490625e-01
-4.22417187e-08,1.80510937e-01
-4.22017187e-08,1.80489063e-01
-4.21617187e-08,1.80512500e-01
-4.21217187e-08,1.80487500e-01
-4.20817187e-08,1.80514063e-01
-4.20417187e-08,1.80482813e-01
-4.20017188e-08,1.80520313e-01
-4.19617187e-08,1.80475000e-01
-4.19217187e-08,1.80534375e-01
-4.18817187e-08,1.80440625e-01
-4.18417187e-08,1.80712500e-01
-4.18017187e-08,1.80950000e-01
-4.17617187e-08,1.80875000e-01
-4.17217188e-08,1.80915625e-01
-4.16817187e-08,1.80889063e-01
-4.16417187e-08,1.80907813e-01
-4.16017187e-08,1.80893750e-01
-4.15617187e-08,1.80904687e-01
-4.15217187e-08,1.80896875e-01
-4.14817187e-08,1.80901563e-01
-4.14417188e-08,1.80898438e-01
-4.14017187e-08,1.80901563e-01
-4.13617187e-08,1.80900000e-01
-4.13217187e-08,1.80900000e-01
-4.12817187e-08,1.80901563e-01
-4.12417187e-08,1.80898438e-01
-4.12017187e-08,1.80901563e-01
-4.11617188e-08,1.80898438e-01
-4.11217187e-08,1.80903125e-01
-4.10817187e-08,1.80896875e-01
-4.10417187e-08,1.80903125e-01
-4.10017187e-08,1.80895313e-01
-4.09617187e-08,1.80904687e-01
-4.09217187e-08,1.80895313e-01
-4.08817188e-08,1.80906250e-01
-4.08417187e-08,1.80893750e-01
-4.08017187e-08,1.80907813e-01
-4.07617187e-08,1.80890625e-01
-4.07217187e-08,1.80910938e-01
-4.06817187e-08,1.80887500e-01
-4.06417187e-08,1.80915625e-01
-4.06017188e-08,1.80879687e-01
-4.05617187e-08,1.80931250e-01
-4.05217187e-08,1.80843750e-01
-4.04817187e-08,1.81109375e-01
-4.04417187e-08,1.81353125e-01
-4.04017187e-08,1.81270313e-01
-4.03617187e-08,1.81320312e-01
-4.03217188e-08,1.81284375e-01
-4.02817187e-08,1.81312500e-01
-4.02417187e-08,1.81290625e-01
-4.02017187e-08,1.81307812e-01
-4.01617187e-08,1.81292188e-01
-4.01217187e-08,1.81306250e-01
-4.00817188e-08,1.81293750e-01
-4.00417187e-08,1.81304688e-01
-4.00017187e-08,1.81295312e-01
-3.99617187e-08,1.81304688e-01
-3.99217187e-08,1.81296875e-01
-3.98817187e-08,1.81303125e-01
-3.98417187e-08,1.81296875e-01
-3.98017188e-08,1.81303125e-01
-3.97617187e-08,1.81296875e-01
-3.97217187e-08,1.81303125e-01
-3.96817187e-08,1.81296875e-01
-3.96417187e-08,1.81301563e-01
-3.96017187e-08,1.81298438e-01
-3.95617187e-08,1.81301563e-01
-3.95217188e-08,1.81298438e-01
-3.94817187e-08,1.81301563e-01
-3.94417187e-08,1.81298438e-01
-3.94017187e-08,1.81301563e-01
-3.93617187e-08,1.81298438e-01
-3.93217187e-08,1.81301563e-01
-3.92817187e-08,1.81298438e-01
-3.92417188e-08,1.81301563e-01
-3.92017187e-08,1.81298438e-01
-3.91617187e-08,1.81301563e-01
-3.91217187e-08,1.81298438e-01
-3.90817187e-08,1.81301563e-01
-3.90417187e-08,1.81298438e-01
-3.90017187e-08,1.81301563e-01
-3.89617188e-08,1.81298438e-01
-3.89217187e-08,1.81301563e-01
-3.88817187e-08,1.81300000e-01
-3.88417187e-08,1.81300000e-01
-3.88017187e-08,1.81298438e-01
-3.87617187e-08,1.81300000e-01
-3.87217187e-08,1.81300000e-01
-3.86817188e-08,1.81300000e-01
-3.86417187e-08,1.81300000e-01
-3.86017187e-08,1.81301563e-01
-3.85617187e-08,1.81300000e-01
-3.85217187e-08,1.81301563e-01
