trails/0bdfa5e45fec98341abdd20552c140b4/aes_ch1_20250507114453894.csv

Model,MSO66B
Label,
Waveform Type,ANALOG
Horizontal Units,s
Sample Interval,4.00000000e-11
Record Length,10000
Zero Index,1599.10156250
Vertical Units,A
ANALOG_Thumbnail,
yOffset,1.84500000e-01
yPosition,8.40000000e-01

Labels,
TIME,CH1
-6.39640625e-08,1.98937500e-01
-6.39240625e-08,1.98837500e-01
-6.38840625e-08,1.99115625e-01
-6.38440625e-08,1.99346875e-01
-6.38040625e-08,1.99278125e-01
-6.37640625e-08,1.99312500e-01
-6.37240625e-08,1.99292187e-01
-6.36840625e-08,1.99304688e-01
-6.36440625e-08,1.99298438e-01
-6.36040625e-08,1.99300000e-01
-6.35640625e-08,1.99301563e-01
-6.35240625e-08,1.99295313e-01
-6.34840625e-08,1.99306250e-01
-6.34440625e-08,1.99292187e-01
-6.34040625e-08,1.99310938e-01
-6.33640625e-08,1.99285938e-01
-6.33240625e-08,1.99318750e-01
-6.32840625e-08,1.99270313e-01
-6.32440625e-08,1.99354688e-01
-6.32040625e-08,1.99092188e-01
-6.31640625e-08,1.98846875e-01
-6.31240625e-08,1.98929688e-01
-6.30840625e-08,1.98879688e-01
-6.30440625e-08,1.98914063e-01
-6.30040625e-08,1.98889063e-01
-6.29640625e-08,1.98907813e-01
-6.29240625e-08,1.98893750e-01
-6.28840625e-08,1.98904688e-01
-6.28440625e-08,1.98896875e-01
-6.28040625e-08,1.98901563e-01
-6.27640625e-08,1.98900000e-01
-6.27240625e-08,1.98896875e-01
-6.26840625e-08,1.98904688e-01
-6.26440625e-08,1.98892188e-01
-6.26040625e-08,1.98914063e-01
-6.25640625e-08,1.98876563e-01
-6.25240625e-08,1.98948438e-01
-6.24840625e-08,1.98698438e-01
-6.24440625e-08,1.98439063e-01
-6.24040625e-08,1.98535938e-01
-6.23640625e-08,1.98473438e-01
-6.23240625e-08,1.98521875e-01
-6.22840625e-08,1.98481250e-01
-6.22440625e-08,1.98517187e-01
-6.22040625e-08,1.98484375e-01
-6.21640625e-08,1.98514063e-01
-6.21240625e-08,1.98485938e-01
-6.20840625e-08,1.98512500e-01
-6.20440625e-08,1.98487500e-01
-6.20040625e-08,1.98512500e-01
-6.19640625e-08,1.98487500e-01
-6.19240625e-08,1.98512500e-01
-6.18840625e-08,1.98487500e-01
-6.18440625e-08,1.98512500e-01
-6.18040625e-08,1.98487500e-01
-6.17640625e-08,1.98512500e-01
-6.17240625e-08,1.98485938e-01
-6.16840625e-08,1.98515625e-01
-6.16440625e-08,1.98482812e-01
-6.16040625e-08,1.98520313e-01
-6.15640625e-08,1.98475000e-01
-6.15240625e-08,1.98534375e-01
-6.14840625e-08,1.98440625e-01
-6.14440625e-08,1.98712500e-01
-6.14040625e-08,1.98950000e-01
-6.13640625e-08,1.98873437e-01
-6.13240625e-08,1.98917188e-01
-6.12840625e-08,1.98887500e-01
-6.12440625e-08,1.98909375e-01
-6.12040625e-08,1.98892188e-01
-6.11640625e-08,1.98906250e-01
-6.11240625e-08,1.98895313e-01
-6.10840625e-08,1.98904688e-01
-6.10440625e-08,1.98896875e-01
-6.10040625e-08,1.98903125e-01
-6.09640625e-08,1.98896875e-01
-6.09240625e-08,1.98903125e-01
-6.08840625e-08,1.98898437e-01
-6.08440625e-08,1.98901563e-01
-6.08040625e-08,1.98898437e-01
-6.07640625e-08,1.98901563e-01
-6.07240625e-08,1.98898437e-01
-6.06840625e-08,1.98901563e-01
-6.06440625e-08,1.98898437e-01
-6.06040625e-08,1.98901563e-01
-6.05640625e-08,1.98898437e-01
-6.05240625e-08,1.98901563e-01
-6.04840625e-08,1.98898437e-01
-6.04440625e-08,1.98900000e-01
-6.04040625e-08,1.98900000e-01
-6.03640625e-08,1.98900000e-01
-6.03240625e-08,1.98900000e-01
-6.02840625e-08,1.98900000e-01
-6.02440625e-08,1.98900000e-01
-6.02040625e-08,1.98900000e-01
-6.01640625e-08,1.98900000e-01
-6.01240625e-08,1.98900000e-01
-6.00840625e-08,1.98901563e-01
-6.00440625e-08,1.98898437e-01
-6.00040625e-08,1.98903125e-01
-5.99640625e-08,1.98895313e-01
-5.99240625e-08,1.98906250e-01
-5.98840625e-08,1.98890625e-01
-5.98440625e-08,1.98918750e-01
-5.98040625e-08,1.98859375e-01
-5.97640625e-08,1.99090625e-01
-5.97240625e-08,1.99376563e-01
-5.96840625e-08,1.99237500e-01
-5.96440625e-08,1.99378125e-01
-5.96040625e-08,1.99073438e-01
-5.95640625e-08,1.98860938e-01
-5.95240625e-08,1.98917188e-01
-5.94840625e-08,1.98890625e-01
-5.94440625e-08,1.98904688e-01
-5.94040625e-08,1.98896875e-01
-5.93640625e-08,1.98900000e-01
-5.93240625e-08,1.98900000e-01
-5.92840625e-08,1.98898437e-01
-5.92440625e-08,1.98903125e-01
-5.92040625e-08,1.98896875e-01
-5.91640625e-08,1.98904688e-01
-5.91240625e-08,1.98895313e-01
-5.90840625e-08,1.98906250e-01
-5.90440625e-08,1.98892188e-01
-5.90040625e-08,1.98909375e-01
-5.89640625e-08,1.98887500e-01
-5.89240625e-08,1.98917188e-01
-5.88840625e-08,1.98873437e-01
-5.88440625e-08,1.98951563e-01
-5.88040625e-08,1.98695312e-01
-5.87640625e-08,1.98442188e-01
-5.87240625e-08,1.98535938e-01
-5.86840625e-08,1.98473438e-01
-5.86440625e-08,1.98523438e-01
-5.86040625e-08,1.98476563e-01
-5.85640625e-08,1.98526563e-01
-5.85240625e-08,1.98467188e-01
-5.84840625e-08,1.98556250e-01
-5.84440625e-08,1.98292187e-01
-5.84040625e-08,1.98043750e-01
-5.83640625e-08,1.98134375e-01
-5.83240625e-08,1.98073438e-01
-5.82840625e-08,1.98125000e-01
-5.82440625e-08,1.98075000e-01
-5.82040625e-08,1.98128125e-01
-5.81640625e-08,1.98062500e-01
-5.81240625e-08,1.98162500e-01
-5.80840625e-08,1.97885937e-01
-5.80440625e-08,1.97653125e-01
-5.80040625e-08,1.97723438e-01
-5.79640625e-08,1.97687500e-01
-5.79240625e-08,1.97706250e-01
-5.78840625e-08,1.97698438e-01
-5.78440625e-08,1.97696875e-01
-5.78040625e-08,1.97709375e-01
-5.77640625e-08,1.97681250e-01
-5.77240625e-08,1.97745312e-01
-5.76840625e-08,1.97501563e-01
-5.76440625e-08,1.97235938e-01
-5.76040625e-08,1.97339062e-01
-5.75640625e-08,1.97270313e-01
-5.75240625e-08,1.97325000e-01
-5.74840625e-08,1.97278125e-01
-5.74440625e-08,1.97320313e-01
-5.74040625e-08,1.97279688e-01
-5.73640625e-08,1.97318750e-01
-5.73240625e-08,1.97281250e-01
-5.72840625e-08,1.97318750e-01
-5.72440625e-08,1.97279688e-01
-5.72040625e-08,1.97321875e-01
-5.71640625e-08,1.97275000e-01
-5.71240625e-08,1.97329688e-01
-5.70840625e-08,1.97262500e-01
-5.70440625e-08,1.97362500e-01
-5.70040625e-08,1.97084375e-01
-5.69640625e-08,1.96853125e-01
-5.69240625e-08,1.96923438e-01
-5.68840625e-08,1.96885937e-01
-5.68440625e-08,1.96909375e-01
-5.68040625e-08,1.96893750e-01
-5.67640625e-08,1.96904688e-01
-5.67240625e-08,1.96896875e-01
-5.66840625e-08,1.96901563e-01
-5.66440625e-08,1.96898438e-01
-5.66040625e-08,1.96900000e-01
-5.65640625e-08,1.96900000e-01
-5.65240625e-08,1.96900000e-01
-5.64840625e-08,1.96900000e-01
-5.64440625e-08,1.96898438e-01
-5.64040625e-08,1.96901563e-01
-5.63640625e-08,1.96898438e-01
-5.63240625e-08,1.96901563e-01
-5.62840625e-08,1.96898438e-01
-5.62440625e-08,1.96901563e-01
-5.62040625e-08,1.96896875e-01
-5.61640625e-08,1.96903125e-01
-5.61240625e-08,1.96896875e-01
-5.60840625e-08,1.96903125e-01
-5.60440625e-08,1.96896875e-01
-5.60040625e-08,1.96903125e-01
-5.59640625e-08,1.96895313e-01
-5.59240625e-08,1.96904688e-01
-5.58840625e-08,1.96895313e-01
-5.58440625e-08,1.96906250e-01
-5.58040625e-08,1.96893750e-01
-5.57640625e-08,1.96906250e-01
-5.57240625e-08,1.96892188e-01
-5.56840625e-08,1.96909375e-01
-5.56440625e-08,1.96889063e-01
-5.56040625e-08,1.96914063e-01
-5.55640625e-08,1.96881250e-01
-5.55240625e-08,1.96929688e-01
-5.54840625e-08,1.96846875e-01
-5.54440625e-08,1.97106250e-01
-5.54040625e-08,1.97356250e-01
-5.53640625e-08,1.97267187e-01
-5.53240625e-08,1.97323438e-01
-5.52840625e-08,1.97281250e-01
-5.52440625e-08,1.97315625e-01
-5.52040625e-08,1.97285938e-01
-5.51640625e-08,1.97312500e-01
-5.51240625e-08,1.97287500e-01
-5.50840625e-08,1.97312500e-01
-5.50440625e-08,1.97287500e-01
-5.50040625e-08,1.97314062e-01
-5.49640625e-08,1.97284375e-01
-5.49240625e-08,1.97317188e-01
-5.48840625e-08,1.97278125e-01
-5.48440625e-08,1.97331250e-01
-5.48040625e-08,1.97243750e-01
-5.47640625e-08,1.97509375e-01
-5.47240625e-08,1.97753125e-01
-5.46840625e-08,1.97670313e-01
-5.46440625e-08,1.97720312e-01
-5.46040625e-08,1.97684375e-01
-5.45640625e-08,1.97714063e-01
-5.45240625e-08,1.97687500e-01
-5.44840625e-08,1.97710938e-01
-5.44440625e-08,1.97689063e-01
-5.44040625e-08,1.97709375e-01
-5.43640625e-08,1.97690625e-01
-5.43240625e-08,1.97709375e-01
-5.42840625e-08,1.97690625e-01
-5.42440625e-08,1.97710938e-01
-5.42040625e-08,1.97689063e-01
-5.41640625e-08,1.97712500e-01
-5.41240625e-08,1.97685938e-01
-5.40840625e-08,1.97717188e-01
-5.40440625e-08,1.97678125e-01
-5.40040625e-08,1.97731250e-01
-5.39640625e-08,1.97643750e-01
-5.39240625e-08,1.97909375e-01
-5.38840625e-08,1.98153125e-01
-5.38440625e-08,1.98070313e-01
-5.38040625e-08,1.98120313e-01
-5.37640625e-08,1.98084375e-01
-5.37240625e-08,1.98114063e-01
-5.36840625e-08,1.98089062e-01
-5.36440625e-08,1.98110938e-01
-5.36040625e-08,1.98090625e-01
-5.35640625e-08,1.98109375e-01
-5.35240625e-08,1.98090625e-01
-5.34840625e-08,1.98109375e-01
-5.34440625e-08,1.98089062e-01
-5.34040625e-08,1.98110938e-01
-5.33640625e-08,1.98087500e-01
-5.33240625e-08,1.98115625e-01
-5.32840625e-08,1.98079688e-01
-5.32440625e-08,1.98129688e-01
-5.32040625e-08,1.98046875e-01
-5.31640625e-08,1.98306250e-01
-5.31240625e-08,1.98556250e-01
-5.30840625e-08,1.98467188e-01
-5.30440625e-08,1.98523438e-01
-5.30040625e-08,1.98479688e-01
-5.29640625e-08,1.98517187e-01
-5.29240625e-08,1.98484375e-01
-5.28840625e-08,1.98515625e-01
-5.28440625e-08,1.98484375e-01
-5.28040625e-08,1.98515625e-01
-5.27640625e-08,1.98482812e-01
-5.27240625e-08,1.98520313e-01
-5.26840625e-08,1.98475000e-01
-5.26440625e-08,1.98534375e-01
-5.26040625e-08,1.98440625e-01
-5.25640625e-08,1.98710938e-01
-5.25240625e-08,1.98951563e-01
-5.24840625e-08,1.98873437e-01
-5.24440625e-08,1.98918750e-01
-5.24040625e-08,1.98887500e-01
-5.23640625e-08,1.98910937e-01
-5.23240625e-08,1.98892188e-01
-5.22840625e-08,1.98906250e-01
-5.22440625e-08,1.98893750e-01
-5.22040625e-08,1.98904688e-01
-5.21640625e-08,1.98895313e-01
-5.21240625e-08,1.98904688e-01
-5.20840625e-08,1.98896875e-01
-5.20440625e-08,1.98903125e-01
-5.20040625e-08,1.98896875e-01
-5.19640625e-08,1.98903125e-01
-5.19240625e-08,1.98896875e-01
-5.18840625e-08,1.98901563e-01
-5.18440625e-08,1.98898437e-01
-5.18040625e-08,1.98901563e-01
-5.17640625e-08,1.98898437e-01
-5.17240625e-08,1.98901563e-01
-5.16840625e-08,1.98898437e-01
-5.16440625e-08,1.98901563e-01
-5.16040625e-08,1.98898437e-01
-5.15640625e-08,1.98901563e-01
-5.15240625e-08,1.98898437e-01
-5.14840625e-08,1.98901563e-01
-5.14440625e-08,1.98898437e-01
-5.14040625e-08,1.98901563e-01
-5.13640625e-08,1.98898437e-01
-5.13240625e-08,1.98900000e-01
-5.12840625e-08,1.98900000e-01
-5.12440625e-08,1.98900000e-01
-5.12040625e-08,1.98900000e-01
-5.11640625e-08,1.98900000e-01
-5.11240625e-08,1.98900000e-01
-5.10840625e-08,1.98900000e-01
-5.10440625e-08,1.98900000e-01
-5.10040625e-08,1.98900000e-01
-5.09640625e-08,1.98900000e-01
-5.09240625e-08,1.98900000e-01
-5.08840625e-08,1.98900000e-01
-5.08440625e-08,1.98900000e-01
-5.08040625e-08,1.98900000e-01
-5.07640625e-08,1.98900000e-01
-5.07240625e-08,1.98900000e-01
-5.06840625e-08,1.98900000e-01
-5.06440625e-08,1.98900000e-01
-5.06040625e-08,1.98900000e-01
-5.05640625e-08,1.98900000e-01
-5.05240625e-08,1.98900000e-01
-5.04840625e-08,1.98900000e-01
-5.04440625e-08,1.98898437e-01
-5.04040625e-08,1.98901563e-01
-5.03640625e-08,1.98898437e-01
-5.03240625e-08,1.98901563e-01
-5.02840625e-08,1.98898437e-01
-5.02440625e-08,1.98901563e-01
-5.02040625e-08,1.98898437e-01
-5.01640625e-08,1.98901563e-01
-5.01240625e-08,1.98898437e-01
-5.00840625e-08,1.98901563e-01
-5.00440625e-08,1.98896875e-01
-5.00040625e-08,1.98903125e-01
-4.99640625e-08,1.98896875e-01
-4.99240625e-08,1.98903125e-01
-4.98840625e-08,1.98896875e-01
-4.98440625e-08,1.98904688e-01
-4.98040625e-08,1.98895313e-01
-4.97640625e-08,1.98906250e-01
-4.97240625e-08,1.98893750e-01
-4.96840625e-08,1.98907813e-01
-4.96440625e-08,1.98890625e-01
-4.96040625e-08,1.98910937e-01
-4.95640625e-08,1.98885937e-01
-4.95240625e-08,1.98920313e-01
-4.94840625e-08,1.98870313e-01
-4.94440625e-08,1.98954688e-01
-4.94040625e-08,1.98692188e-01
-4.93640625e-08,1.98445312e-01
-4.93240625e-08,1.98529687e-01
-4.92840625e-08,1.98479688e-01
-4.92440625e-08,1.98514063e-01
-4.92040625e-08,1.98489063e-01
-4.91640625e-08,1.98507813e-01
-4.91240625e-08,1.98493750e-01
-4.90840625e-08,1.98503125e-01
-4.90440625e-08,1.98498438e-01
-4.90040625e-08,1.98496875e-01
-4.89640625e-08,1.98507813e-01
-4.89240625e-08,1.98482812e-01
-4.88840625e-08,1.98542188e-01
-4.88440625e-08,1.98304688e-01
-4.88040625e-08,1.98032813e-01
-4.87640625e-08,1.98143750e-01
-4.87240625e-08,1.98065625e-01
-4.86840625e-08,1.98129688e-01
-4.86440625e-08,1.98071875e-01
-4.86040625e-08,1.98126563e-01
-4.85640625e-08,1.98073438e-01
-4.85240625e-08,1.98128125e-01
-4.84840625e-08,1.98070313e-01
-4.84440625e-08,1.98134375e-01
-4.84040625e-08,1.98056250e-01
-4.83640625e-08,1.98168750e-01
-4.83240625e-08,1.97878125e-01
-4.82840625e-08,1.97659375e-01
-4.82440625e-08,1.97717188e-01
-4.82040625e-08,1.97692188e-01
-4.81640625e-08,1.97703125e-01
-4.81240625e-08,1.97701563e-01
-4.80840625e-08,1.97696875e-01
-4.80440625e-08,1.97704688e-01
-4.80040625e-08,1.97692188e-01
-4.79640625e-08,1.97709375e-01
-4.79240625e-08,1.97689063e-01
-4.78840625e-08,1.97714063e-01
-4.78440625e-08,1.97682812e-01
-4.78040625e-08,1.97723438e-01
-4.77640625e-08,1.97667188e-01
-4.77240625e-08,1.97757813e-01
-4.76840625e-08,1.97487500e-01
-4.76440625e-08,1.97250000e-01
-4.76040625e-08,1.97326562e-01
-4.75640625e-08,1.97284375e-01
-4.75240625e-08,1.97310938e-01
-4.74840625e-08,1.97292187e-01
-4.74440625e-08,1.97304688e-01
-4.74040625e-08,1.97296875e-01
-4.73640625e-08,1.97301562e-01
-4.73240625e-08,1.97300000e-01
-4.72840625e-08,1.97298438e-01
-4.72440625e-08,1.97303125e-01
-4.72040625e-08,1.97295313e-01
-4.71640625e-08,1.97306250e-01
-4.71240625e-08,1.97292187e-01
-4.70840625e-08,1.97310938e-01
-4.70440625e-08,1.97285938e-01
-4.70040625e-08,1.97318750e-01
-4.69640625e-08,1.97270313e-01
-4.69240625e-08,1.97354688e-01
-4.68840625e-08,1.97092188e-01
-4.68440625e-08,1.96846875e-01
-4.68040625e-08,1.96929688e-01
-4.67640625e-08,1.96881250e-01
-4.67240625e-08,1.96914063e-01
-4.66840625e-08,1.96890625e-01
-4.66440625e-08,1.96907813e-01
-4.66040625e-08,1.96895313e-01
-4.65640625e-08,1.96901563e-01
-4.65240625e-08,1.96901563e-01
-4.64840625e-08,1.96895313e-01
-4.64440625e-08,1.96910937e-01
-4.64040625e-08,1.96879688e-01
-4.63640625e-08,1.96945312e-01
-4.63240625e-08,1.96700000e-01
-4.62840625e-08,1.96437500e-01
-4.62440625e-08,1.96539063e-01
-4.62040625e-08,1.96470313e-01
-4.61640625e-08,1.96523438e-01
-4.61240625e-08,1.96479687e-01
-4.60840625e-08,1.96518750e-01
-4.60440625e-08,1.96482812e-01
-4.60040625e-08,1.96515625e-01
-4.59640625e-08,1.96484375e-01
-4.59240625e-08,1.96514063e-01
-4.58840625e-08,1.96485938e-01
-4.58440625e-08,1.96514063e-01
-4.58040625e-08,1.96485938e-01
-4.57640625e-08,1.96512500e-01
-4.57240625e-08,1.96487500e-01
-4.56840625e-08,1.96512500e-01
-4.56440625e-08,1.96487500e-01
-4.56040625e-08,1.96512500e-01
-4.55640625e-08,1.96487500e-01
-4.55240625e-08,1.96514063e-01
-4.54840625e-08,1.96485938e-01
-4.54440625e-08,1.96514063e-01
-4.54040625e-08,1.96485938e-01
-4.53640625e-08,1.96515625e-01
-4.53240625e-08,1.96484375e-01
-4.52840625e-08,1.96517187e-01
-4.52440625e-08,1.96481250e-01
-4.52040625e-08,1.96520313e-01
-4.51640625e-08,1.96478125e-01
-4.51240625e-08,1.96525000e-01
-4.50840625e-08,1.96468750e-01
-4.50440625e-08,1.96540625e-01
-4.50040625e-08,1.96434375e-01
-4.49640625e-08,1.96720312e-01
-4.49240625e-08,1.96942188e-01
-4.48840625e-08,1.96882813e-01
-4.48440625e-08,1.96906250e-01
-4.48040625e-08,1.96900000e-01
-4.47640625e-08,1.96893750e-01
-4.47240625e-08,1.96910937e-01
-4.46840625e-08,1.96882813e-01
-4.46440625e-08,1.96928125e-01
-4.46040625e-08,1.96845313e-01
-4.45640625e-08,1.97109375e-01
-4.45240625e-08,1.97353125e-01
-4.44840625e-08,1.97271875e-01
-4.44440625e-08,1.97317188e-01
-4.44040625e-08,1.97289063e-01
-4.43640625e-08,1.97306250e-01
-4.43240625e-08,1.97296875e-01
-4.42840625e-08,1.97298438e-01
-4.42440625e-08,1.97304688e-01
-4.42040625e-08,1.97289063e-01
-4.41640625e-08,1.97321875e-01
-4.41240625e-08,1.97253125e-01
-4.40840625e-08,1.97501563e-01
-4.40440625e-08,1.97760938e-01
-4.40040625e-08,1.97664063e-01
-4.39640625e-08,1.97726563e-01
-4.39240625e-08,1.97678125e-01
-4.38840625e-08,1.97718750e-01
-4.38440625e-08,1.97684375e-01
-4.38040625e-08,1.97714063e-01
-4.37640625e-08,1.97687500e-01
-4.37240625e-08,1.97712500e-01
-4.36840625e-08,1.97689063e-01
-4.36440625e-08,1.97710938e-01
-4.36040625e-08,1.97690625e-01
-4.35640625e-08,1.97709375e-01
-4.35240625e-08,1.97690625e-01
-4.34840625e-08,1.97709375e-01
-4.34440625e-08,1.97690625e-01
-4.34040625e-08,1.97707812e-01
-4.33640625e-08,1.97692188e-01
-4.33240625e-08,1.97707812e-01
-4.32840625e-08,1.97692188e-01
-4.32440625e-08,1.97707812e-01
-4.32040625e-08,1.97692188e-01
-4.31640625e-08,1.97707812e-01
-4.31240625e-08,1.97692188e-01
-4.30840625e-08,1.97707812e-01
-4.30440625e-08,1.97692188e-01
-4.30040625e-08,1.97707812e-01
-4.29640625e-08,1.97690625e-01
-4.29240625e-08,1.97709375e-01
-4.28840625e-08,1.97690625e-01
-4.28440625e-08,1.97710938e-01
-4.28040625e-08,1.97687500e-01
-4.27640625e-08,1.97714063e-01
-4.27240625e-08,1.97682812e-01
-4.26840625e-08,1.97721875e-01
-4.26440625e-08,1.97668750e-01
-4.26040625e-08,1.97756250e-01
-4.25640625e-08,1.97492187e-01
-4.25240625e-08,1.97245313e-01
-4.24840625e-08,1.97331250e-01
-4.24440625e-08,1.97278125e-01
-4.24040625e-08,1.97317188e-01
-4.23640625e-08,1.97284375e-01
-4.23240625e-08,1.97314062e-01
-4.22840625e-08,1.97287500e-01
-4.22440625e-08,1.97314062e-01
-4.22040625e-08,1.97285938e-01
-4.21640625e-08,1.97315625e-01
-4.21240625e-08,1.97282813e-01
-4.20840625e-08,1.97321875e-01
-4.20440625e-08,1.97268750e-01
-4.20040625e-08,1.97356250e-01
-4.19640625e-08,1.97090625e-01
-4.19240625e-08,1.96846875e-01
-4.18840625e-08,1.96929688e-01
-4.18440625e-08,1.96879688e-01
-4.18040625e-08,1.96915625e-01
-4.17640625e-08,1.96887500e-01
-4.17240625e-08,1.96910937e-01
-4.16840625e-08,1.96890625e-01
-4.16440625e-08,1.96907813e-01
-4.16040625e-08,1.96892188e-01
-4.15640625e-08,1.96906250e-01
-4.15240625e-08,1.96893750e-01
-4.14840625e-08,1.96906250e-01
-4.14440625e-08,1.96895313e-01
-4.14040625e-08,1.96904688e-01
-4.13640625e-08,1.96895313e-01
-4.13240625e-08,1.96904688e-01
-4.12840625e-08,1.96895313e-01
-4.12440625e-08,1.96903125e-01
-4.12040625e-08,1.96896875e-01
-4.11640625e-08,1.96903125e-01
-4.11240625e-08,1.96896875e-01
-4.10840625e-08,1.96903125e-01
-4.10440625e-08,1.96898438e-01
-4.10040625e-08,1.96901563e-01
-4.09640625e-08,1.96898438e-01
-4.09240625e-08,1.96900000e-01
-4.08840625e-08,1.96900000e-01
-4.08440625e-08,1.96898438e-01
-4.08040625e-08,1.96903125e-01
-4.07640625e-08,1.96895313e-01
-4.07240625e-08,1.96907813e-01
-4.06840625e-08,1.96887500e-01
-4.06440625e-08,1.96921875e-01
-4.06040625e-08,1.96853125e-01
-4.05640625e-08,1.97100000e-01
-4.05240625e-08,1.97362500e-01
-4.04840625e-08,1.97260938e-01
-4.04440625e-08,1.97329688e-01
-4.04040625e-08,1.97275000e-01
-4.03640625e-08,1.97323438e-01
-4.03240625e-08,1.97278125e-01
-4.02840625e-08,1.97320313e-01
-4.02440625e-08,1.97279688e-01
-4.02040625e-08,1.97320313e-01
-4.01640625e-08,1.97279688e-01
-4.01240625e-08,1.97321875e-01
-4.00840625e-08,1.97276563e-01
-4.00440625e-08,1.97326562e-01
-4.00040625e-08,1.97268750e-01
-3.99640625e-08,1.97340625e-01
-3.99240625e-08,1.97234375e-01
-3.98840625e-08,1.97518750e-01
-3.98440625e-08,1.97743750e-01
-3.98040625e-08,1.97679688e-01
-3.97640625e-08,1.97710938e-01
-3.97240625e-08,1.97693750e-01
-3.96840625e-08,1.97703125e-01
-3.96440625e-08,1.97698438e-01
-3.96040625e-08,1.97700000e-01
-3.95640625e-08,1.97701563e-01
-3.95240625e-08,1.97696875e-01
-3.94840625e-08,1.97703125e-01
-3.94440625e-08,1.97696875e-01
-3.94040625e-08,1.97704688e-01
-3.93640625e-08,1.97695312e-01
-3.93240625e-08,1.97706250e-01
-3.92840625e-08,1.97693750e-01
-3.92440625e-08,1.97706250e-01
-3.92040625e-08,1.97692188e-01
-3.91640625e-08,1.97707812e-01
-3.91240625e-08,1.97690625e-01
-3.90840625e-08,1.97709375e-01
-3.90440625e-08,1.97689063e-01
-3.90040625e-08,1.97710938e-01
-3.89640625e-08,1.97687500e-01
-3.89240625e-08,1.97714063e-01
-3.88840625e-08,1.97682812e-01
-3.88440625e-08,1.97720312e-01
-3.88040625e-08,1.97675000e-01
-3.87640625e-08,1.97735938e-01
-3.87240625e-08,1.97639063e-01
-3.86840625e-08,1.97914063e-01
-3.86440625e-08,1.98148437e-01
-3.86040625e-08,1.98076562e-01
-3.85640625e-08,1.98114063e-01
-3.85240625e-08,1.98090625e-01
