trails/0bdfa5e45fec98341abdd20552c140b4/aes_ch1_20250507122355149.csv

Model,MSO66B
Label,
Waveform Type,ANALOG
Horizontal Units,s
Sample Interval,4.00000000e-11
Record Length,10000
Zero Index,1599.06250000
Vertical Units,A
ANALOG_Thumbnail,
yOffset,1.84500000e-01
yPosition,8.40000000e-01

Labels,
TIME,CH1
-6.39625000e-08,1.82500000e-01
-6.39225000e-08,1.82500000e-01
-6.38825000e-08,1.82500000e-01
-6.38425000e-08,1.82500000e-01
-6.38025000e-08,1.82500000e-01
-6.37625000e-08,1.82500000e-01
-6.37225000e-08,1.82500000e-01
-6.36825000e-08,1.82500000e-01
-6.36425000e-08,1.82500000e-01
-6.36025000e-08,1.82500000e-01
-6.35625000e-08,1.82500000e-01
-6.35225000e-08,1.82500000e-01
-6.34825000e-08,1.82500000e-01
-6.34425000e-08,1.82500000e-01
-6.34025000e-08,1.82500000e-01
-6.33625000e-08,1.82500000e-01
-6.33225000e-08,1.82500000e-01
-6.32825000e-08,1.82500000e-01
-6.32425000e-08,1.82500000e-01
-6.32025000e-08,1.82500000e-01
-6.31625000e-08,1.82500000e-01
-6.31225000e-08,1.82500000e-01
-6.30825000e-08,1.82500000e-01
-6.30425000e-08,1.82500000e-01
-6.30025000e-08,1.82500000e-01
-6.29625000e-08,1.82500000e-01
-6.29225000e-08,1.82500000e-01
-6.28825000e-08,1.82500000e-01
-6.28425000e-08,1.82500000e-01
-6.28025000e-08,1.82498437e-01
-6.27625000e-08,1.82500000e-01
-6.27225000e-08,1.82498437e-01
-6.26825000e-08,1.82500000e-01
-6.26425000e-08,1.82498437e-01
-6.26025000e-08,1.82500000e-01
-6.25625000e-08,1.82498437e-01
-6.25225000e-08,1.82501563e-01
-6.24825000e-08,1.82498437e-01
-6.24425000e-08,1.82501563e-01
-6.24025000e-08,1.82498437e-01
-6.23625000e-08,1.82501563e-01
-6.23225000e-08,1.82498437e-01
-6.22825000e-08,1.82501563e-01
-6.22425000e-08,1.82498437e-01
-6.22025000e-08,1.82501563e-01
-6.21625000e-08,1.82498437e-01
-6.21225000e-08,1.82501563e-01
-6.20825000e-08,1.82498437e-01
-6.20425000e-08,1.82501563e-01
-6.20025000e-08,1.82498437e-01
-6.19625000e-08,1.82501563e-01
-6.19225000e-08,1.82496875e-01
-6.18825000e-08,1.82503125e-01
-6.18425000e-08,1.82496875e-01
-6.18025000e-08,1.82504688e-01
-6.17625000e-08,1.82493750e-01
-6.17225000e-08,1.82509375e-01
-6.16825000e-08,1.82484375e-01
-6.16425000e-08,1.82535937e-01
-6.16025000e-08,1.82320312e-01
-6.15625000e-08,1.81992188e-01
-6.15225000e-08,1.82337500e-01
-6.14825000e-08,1.82534375e-01
-6.14425000e-08,1.82484375e-01
-6.14025000e-08,1.82509375e-01
-6.13625000e-08,1.82493750e-01
-6.13225000e-08,1.82504688e-01
-6.12825000e-08,1.82496875e-01
-6.12425000e-08,1.82503125e-01
-6.12025000e-08,1.82496875e-01
-6.11625000e-08,1.82503125e-01
-6.11225000e-08,1.82498437e-01
-6.10825000e-08,1.82501563e-01
-6.10425000e-08,1.82498437e-01
-6.10025000e-08,1.82501563e-01
-6.09625000e-08,1.82498437e-01
-6.09225000e-08,1.82501563e-01
-6.08825000e-08,1.82498437e-01
-6.08425000e-08,1.82501563e-01
-6.08025000e-08,1.82498437e-01
-6.07625000e-08,1.82501563e-01
-6.07225000e-08,1.82498437e-01
-6.06825000e-08,1.82501563e-01
-6.06425000e-08,1.82498437e-01
-6.06025000e-08,1.82501563e-01
-6.05625000e-08,1.82498437e-01
-6.05225000e-08,1.82501563e-01
-6.04825000e-08,1.82498437e-01
-6.04425000e-08,1.82501563e-01
-6.04025000e-08,1.82498437e-01
-6.03625000e-08,1.82503125e-01
-6.03225000e-08,1.82496875e-01
-6.02825000e-08,1.82503125e-01
-6.02425000e-08,1.82496875e-01
-6.02025000e-08,1.82503125e-01
-6.01625000e-08,1.82496875e-01
-6.01225000e-08,1.82503125e-01
-6.00825000e-08,1.82496875e-01
-6.00425000e-08,1.82503125e-01
-6.00025000e-08,1.82496875e-01
-5.99625000e-08,1.82504688e-01
-5.99225000e-08,1.82495313e-01
-5.98825000e-08,1.82504688e-01
-5.98425000e-08,1.82495313e-01
-5.98025000e-08,1.82506250e-01
-5.97625000e-08,1.82493750e-01
-5.97225000e-08,1.82506250e-01
-5.96825000e-08,1.82492188e-01
-5.96425000e-08,1.82509375e-01
-5.96025000e-08,1.82489063e-01
-5.95625000e-08,1.82512500e-01
-5.95225000e-08,1.82484375e-01
-5.94825000e-08,1.82520313e-01
-5.94425000e-08,1.82470313e-01
-5.94025000e-08,1.82554688e-01
-5.93625000e-08,1.82292188e-01
-5.93225000e-08,1.82045313e-01
-5.92825000e-08,1.82129687e-01
-5.92425000e-08,1.82079688e-01
-5.92025000e-08,1.82115625e-01
-5.91625000e-08,1.82087500e-01
-5.91225000e-08,1.82110938e-01
-5.90825000e-08,1.82090625e-01
-5.90425000e-08,1.82107812e-01
-5.90025000e-08,1.82092188e-01
-5.89625000e-08,1.82106250e-01
-5.89225000e-08,1.82093750e-01
-5.88825000e-08,1.82106250e-01
-5.88425000e-08,1.82095312e-01
-5.88025000e-08,1.82104688e-01
-5.87625000e-08,1.82095312e-01
-5.87225000e-08,1.82104688e-01
-5.86825000e-08,1.82096875e-01
-5.86425000e-08,1.82103125e-01
-5.86025000e-08,1.82096875e-01
-5.85625000e-08,1.82103125e-01
-5.85225000e-08,1.82096875e-01
-5.84825000e-08,1.82103125e-01
-5.84425000e-08,1.82096875e-01
-5.84025000e-08,1.82103125e-01
-5.83625000e-08,1.82098438e-01
-5.83225000e-08,1.82101563e-01
-5.82825000e-08,1.82098438e-01
-5.82425000e-08,1.82101563e-01
-5.82025000e-08,1.82098438e-01
-5.81625000e-08,1.82101563e-01
-5.81225000e-08,1.82100000e-01
-5.80825000e-08,1.82100000e-01
-5.80425000e-08,1.82100000e-01
-5.80025000e-08,1.82098438e-01
-5.79625000e-08,1.82101563e-01
-5.79225000e-08,1.82096875e-01
-5.78825000e-08,1.82104688e-01
-5.78425000e-08,1.82092188e-01
-5.78025000e-08,1.82112500e-01
-5.77625000e-08,1.82078125e-01
-5.77225000e-08,1.82146875e-01
-5.76825000e-08,1.81901563e-01
-5.76425000e-08,1.81635938e-01
-5.76025000e-08,1.81740625e-01
-5.75625000e-08,1.81667187e-01
-5.75225000e-08,1.81728125e-01
-5.74825000e-08,1.81673438e-01
-5.74425000e-08,1.81726562e-01
-5.74025000e-08,1.81670313e-01
-5.73625000e-08,1.81732813e-01
-5.73225000e-08,1.81657813e-01
-5.72825000e-08,1.81767188e-01
-5.72425000e-08,1.81479688e-01
-5.72025000e-08,1.81257813e-01
-5.71625000e-08,1.81318750e-01
-5.71225000e-08,1.81292188e-01
-5.70825000e-08,1.81301563e-01
-5.70425000e-08,1.81303125e-01
-5.70025000e-08,1.81292188e-01
-5.69625000e-08,1.81312500e-01
-5.69225000e-08,1.81276563e-01
-5.68825000e-08,1.81348438e-01
-5.68425000e-08,1.81098438e-01
-5.68025000e-08,1.80839063e-01
-5.67625000e-08,1.80937500e-01
-5.67225000e-08,1.80871875e-01
-5.66825000e-08,1.80925000e-01
-5.66425000e-08,1.80878125e-01
-5.66025000e-08,1.80921875e-01
-5.65625000e-08,1.80876563e-01
-5.65225000e-08,1.80928125e-01
-5.64825000e-08,1.80864063e-01
-5.64425000e-08,1.80960938e-01
-5.64025000e-08,1.80687500e-01
-5.63625000e-08,1.80450000e-01
-5.63225000e-08,1.80526563e-01
-5.62825000e-08,1.80482813e-01
-5.62425000e-08,1.80514063e-01
-5.62025000e-08,1.80489063e-01
-5.61625000e-08,1.80509375e-01
-5.61225000e-08,1.80492188e-01
-5.60825000e-08,1.80507813e-01
-5.60425000e-08,1.80493750e-01
-5.60025000e-08,1.80506250e-01
-5.59625000e-08,1.80493750e-01
-5.59225000e-08,1.80506250e-01
-5.58825000e-08,1.80493750e-01
-5.58425000e-08,1.80506250e-01
-5.58025000e-08,1.80493750e-01
-5.57625000e-08,1.80506250e-01
-5.57225000e-08,1.80493750e-01
-5.56825000e-08,1.80506250e-01
-5.56425000e-08,1.80493750e-01
-5.56025000e-08,1.80506250e-01
-5.55625000e-08,1.80492188e-01
-5.55225000e-08,1.80507813e-01
-5.54825000e-08,1.80490625e-01
-5.54425000e-08,1.80509375e-01
-5.54025000e-08,1.80487500e-01
-5.53625000e-08,1.80514063e-01
-5.53225000e-08,1.80481250e-01
-5.52825000e-08,1.80528125e-01
-5.52425000e-08,1.80446875e-01
-5.52025000e-08,1.80706250e-01
-5.51625000e-08,1.80957813e-01
-5.51225000e-08,1.80865625e-01
-5.50825000e-08,1.80926562e-01
-5.50425000e-08,1.80876563e-01
-5.50025000e-08,1.80923438e-01
-5.49625000e-08,1.80875000e-01
-5.49225000e-08,1.80932813e-01
-5.48825000e-08,1.80843750e-01
-5.48425000e-08,1.81107813e-01
-5.48025000e-08,1.81356250e-01
-5.47625000e-08,1.81264063e-01
-5.47225000e-08,1.81329688e-01
-5.46825000e-08,1.81270313e-01
-5.46425000e-08,1.81335938e-01
-5.46025000e-08,1.81242188e-01
-5.45625000e-08,1.81509375e-01
-5.45225000e-08,1.81754688e-01
-5.44825000e-08,1.81665625e-01
-5.44425000e-08,1.81728125e-01
-5.44025000e-08,1.81671875e-01
-5.43625000e-08,1.81734375e-01
-5.43225000e-08,1.81643750e-01
-5.42825000e-08,1.81907813e-01
-5.42425000e-08,1.82157813e-01
-5.42025000e-08,1.82064063e-01
-5.41625000e-08,1.82129687e-01
-5.41225000e-08,1.82070312e-01
-5.40825000e-08,1.82137500e-01
-5.40425000e-08,1.82040625e-01
-5.40025000e-08,1.82310938e-01
-5.39625000e-08,1.82553125e-01
-5.39225000e-08,1.82468750e-01
-5.38825000e-08,1.82523437e-01
-5.38425000e-08,1.82479688e-01
-5.38025000e-08,1.82520313e-01
-5.37625000e-08,1.82476562e-01
-5.37225000e-08,1.82531250e-01
-5.36825000e-08,1.82445313e-01
-5.36425000e-08,1.82707813e-01
-5.36025000e-08,1.82956250e-01
-5.35625000e-08,1.82867188e-01
-5.35225000e-08,1.82925000e-01
-5.34825000e-08,1.82879687e-01
-5.34425000e-08,1.82918750e-01
-5.34025000e-08,1.82881250e-01
-5.33625000e-08,1.82918750e-01
-5.33225000e-08,1.82881250e-01
-5.32825000e-08,1.82921875e-01
-5.32425000e-08,1.82873438e-01
-5.32025000e-08,1.82935938e-01
-5.31625000e-08,1.82839063e-01
-5.31225000e-08,1.83112500e-01
-5.30825000e-08,1.83350000e-01
-5.30425000e-08,1.83275000e-01
-5.30025000e-08,1.83315625e-01
-5.29625000e-08,1.83289063e-01
-5.29225000e-08,1.83307813e-01
-5.28825000e-08,1.83293750e-01
-5.28425000e-08,1.83304688e-01
-5.28025000e-08,1.83296875e-01
-5.27625000e-08,1.83303125e-01
-5.27225000e-08,1.83298437e-01
-5.26825000e-08,1.83301563e-01
-5.26425000e-08,1.83300000e-01
-5.26025000e-08,1.83300000e-01
-5.25625000e-08,1.83301563e-01
-5.25225000e-08,1.83298437e-01
-5.24825000e-08,1.83301563e-01
-5.24425000e-08,1.83296875e-01
-5.24025000e-08,1.83304688e-01
-5.23625000e-08,1.83295313e-01
-5.23225000e-08,1.83306250e-01
-5.22825000e-08,1.83290625e-01
-5.22425000e-08,1.83312500e-01
-5.22025000e-08,1.83282813e-01
-5.21625000e-08,1.83326563e-01
-5.21225000e-08,1.83248437e-01
-5.20825000e-08,1.83504688e-01
-5.20425000e-08,1.83757813e-01
-5.20025000e-08,1.83667187e-01
-5.19625000e-08,1.83723438e-01
-5.19225000e-08,1.83681250e-01
-5.18825000e-08,1.83715625e-01
-5.18425000e-08,1.83685938e-01
-5.18025000e-08,1.83712500e-01
-5.17625000e-08,1.83689062e-01
-5.17225000e-08,1.83710938e-01
-5.16825000e-08,1.83690625e-01
-5.16425000e-08,1.83709375e-01
-5.16025000e-08,1.83690625e-01
-5.15625000e-08,1.83709375e-01
-5.15225000e-08,1.83690625e-01
-5.14825000e-08,1.83709375e-01
-5.14425000e-08,1.83690625e-01
-5.14025000e-08,1.83709375e-01
-5.13625000e-08,1.83690625e-01
-5.13225000e-08,1.83709375e-01
-5.12825000e-08,1.83690625e-01
-5.12425000e-08,1.83709375e-01
-5.12025000e-08,1.83689062e-01
-5.11625000e-08,1.83710938e-01
-5.11225000e-08,1.83687500e-01
-5.10825000e-08,1.83712500e-01
-5.10425000e-08,1.83685938e-01
-5.10025000e-08,1.83717188e-01
-5.09625000e-08,1.83679687e-01
-5.09225000e-08,1.83725000e-01
-5.08825000e-08,1.83665625e-01
-5.08425000e-08,1.83759375e-01
-5.08025000e-08,1.83487500e-01
-5.07625000e-08,1.83251563e-01
-5.07225000e-08,1.83325000e-01
-5.06825000e-08,1.83284375e-01
-5.06425000e-08,1.83309375e-01
-5.06025000e-08,1.83295313e-01
-5.05625000e-08,1.83301563e-01
-5.05225000e-08,1.83301563e-01
-5.04825000e-08,1.83295313e-01
-5.04425000e-08,1.83310937e-01
-5.04025000e-08,1.83279688e-01
-5.03625000e-08,1.83346875e-01
-5.03225000e-08,1.83100000e-01
-5.02825000e-08,1.82837500e-01
-5.02425000e-08,1.82939062e-01
-5.02025000e-08,1.82870313e-01
-5.01625000e-08,1.82925000e-01
-5.01225000e-08,1.82878125e-01
-5.00825000e-08,1.82920313e-01
-5.00425000e-08,1.82879687e-01
-5.00025000e-08,1.82918750e-01
-4.99625000e-08,1.82879687e-01
-4.99225000e-08,1.82920313e-01
-4.98825000e-08,1.82878125e-01
-4.98425000e-08,1.82923438e-01
-4.98025000e-08,1.82873438e-01
-4.97625000e-08,1.82931250e-01
-4.97225000e-08,1.82859375e-01
-4.96825000e-08,1.82967188e-01
-4.96425000e-08,1.82679688e-01
-4.96025000e-08,1.82459375e-01
-4.95625000e-08,1.82514063e-01
-4.95225000e-08,1.82496875e-01
-4.94825000e-08,1.82492188e-01
-4.94425000e-08,1.82520313e-01
-4.94025000e-08,1.82453125e-01
-4.93625000e-08,1.82701562e-01
-4.93225000e-08,1.82960938e-01
-4.92825000e-08,1.82864063e-01
-4.92425000e-08,1.82926563e-01
-4.92025000e-08,1.82879687e-01
-4.91625000e-08,1.82917187e-01
-4.91225000e-08,1.82884375e-01
-4.90825000e-08,1.82914063e-01
-4.90425000e-08,1.82887500e-01
-4.90025000e-08,1.82912500e-01
-4.89625000e-08,1.82889063e-01
-4.89225000e-08,1.82910938e-01
-4.88825000e-08,1.82889063e-01
-4.88425000e-08,1.82910938e-01
-4.88025000e-08,1.82889063e-01
-4.87625000e-08,1.82910938e-01
-4.87225000e-08,1.82889063e-01
-4.86825000e-08,1.82912500e-01
-4.86425000e-08,1.82887500e-01
-4.86025000e-08,1.82914063e-01
-4.85625000e-08,1.82884375e-01
-4.85225000e-08,1.82918750e-01
-4.84825000e-08,1.82876563e-01
-4.84425000e-08,1.82932813e-01
-4.84025000e-08,1.82842188e-01
-4.83625000e-08,1.83110938e-01
-4.83225000e-08,1.83351563e-01
-4.82825000e-08,1.83271875e-01
-4.82425000e-08,1.83318750e-01
-4.82025000e-08,1.83285937e-01
-4.81625000e-08,1.83310937e-01
-4.81225000e-08,1.83290625e-01
-4.80825000e-08,1.83307813e-01
-4.80425000e-08,1.83293750e-01
-4.80025000e-08,1.83306250e-01
-4.79625000e-08,1.83295313e-01
-4.79225000e-08,1.83304688e-01
-4.78825000e-08,1.83295313e-01
-4.78425000e-08,1.83304688e-01
-4.78025000e-08,1.83296875e-01
-4.77625000e-08,1.83303125e-01
-4.77225000e-08,1.83296875e-01
-4.76825000e-08,1.83303125e-01
-4.76425000e-08,1.83296875e-01
-4.76025000e-08,1.83303125e-01
-4.75625000e-08,1.83296875e-01
-4.75225000e-08,1.83303125e-01
-4.74825000e-08,1.83296875e-01
-4.74425000e-08,1.83303125e-01
-4.74025000e-08,1.83296875e-01
-4.73625000e-08,1.83303125e-01
-4.73225000e-08,1.83296875e-01
-4.72825000e-08,1.83303125e-01
-4.72425000e-08,1.83296875e-01
-4.72025000e-08,1.83303125e-01
-4.71625000e-08,1.83296875e-01
-4.71225000e-08,1.83303125e-01
-4.70825000e-08,1.83296875e-01
-4.70425000e-08,1.83303125e-01
-4.70025000e-08,1.83296875e-01
-4.69625000e-08,1.83303125e-01
-4.69225000e-08,1.83296875e-01
-4.68825000e-08,1.83303125e-01
-4.68425000e-08,1.83296875e-01
-4.68025000e-08,1.83303125e-01
-4.67625000e-08,1.83296875e-01
-4.67225000e-08,1.83303125e-01
-4.66825000e-08,1.83296875e-01
-4.66425000e-08,1.83304688e-01
-4.66025000e-08,1.83295313e-01
-4.65625000e-08,1.83304688e-01
-4.65225000e-08,1.83295313e-01
-4.64825000e-08,1.83306250e-01
-4.64425000e-08,1.83293750e-01
-4.64025000e-08,1.83307813e-01
-4.63625000e-08,1.83290625e-01
-4.63225000e-08,1.83310937e-01
-4.62825000e-08,1.83285937e-01
-4.62425000e-08,1.83318750e-01
-4.62025000e-08,1.83271875e-01
-4.61625000e-08,1.83353125e-01
-4.61225000e-08,1.83095312e-01
-4.60825000e-08,1.82842188e-01
-4.60425000e-08,1.82934375e-01
-4.60025000e-08,1.82875000e-01
-4.59625000e-08,1.82920313e-01
-4.59225000e-08,1.82881250e-01
-4.58825000e-08,1.82917187e-01
-4.58425000e-08,1.82882813e-01
-4.58025000e-08,1.82918750e-01
-4.57625000e-08,1.82879687e-01
-4.57225000e-08,1.82925000e-01
-4.56825000e-08,1.82865625e-01
-4.56425000e-08,1.82957813e-01
-4.56025000e-08,1.82689062e-01
-4.55625000e-08,1.82448438e-01
-4.55225000e-08,1.82528125e-01
-4.54825000e-08,1.82481250e-01
-4.54425000e-08,1.82514063e-01
-4.54025000e-08,1.82487500e-01
-4.53625000e-08,1.82509375e-01
-4.53225000e-08,1.82490625e-01
-4.52825000e-08,1.82507813e-01
-4.52425000e-08,1.82492188e-01
-4.52025000e-08,1.82507813e-01
-4.51625000e-08,1.82492188e-01
-4.51225000e-08,1.82506250e-01
-4.50825000e-08,1.82492188e-01
-4.50425000e-08,1.82507813e-01
-4.50025000e-08,1.82492188e-01
-4.49625000e-08,1.82507813e-01
-4.49225000e-08,1.82490625e-01
-4.48825000e-08,1.82510937e-01
-4.48425000e-08,1.82487500e-01
-4.48025000e-08,1.82515625e-01
-4.47625000e-08,1.82479688e-01
-4.47225000e-08,1.82529688e-01
-4.46825000e-08,1.82446875e-01
-4.46425000e-08,1.82706250e-01
-4.46025000e-08,1.82956250e-01
-4.45625000e-08,1.82867188e-01
-4.45225000e-08,1.82923438e-01
-4.44825000e-08,1.82881250e-01
-4.44425000e-08,1.82915625e-01
-4.44025000e-08,1.82884375e-01
-4.43625000e-08,1.82914063e-01
-4.43225000e-08,1.82885938e-01
-4.42825000e-08,1.82914063e-01
-4.42425000e-08,1.82885938e-01
-4.42025000e-08,1.82915625e-01
-4.41625000e-08,1.82882813e-01
-4.41225000e-08,1.82920313e-01
-4.40825000e-08,1.82875000e-01
-4.40425000e-08,1.82934375e-01
-4.40025000e-08,1.82840625e-01
-4.39625000e-08,1.83112500e-01
-4.39225000e-08,1.83348438e-01
-4.38825000e-08,1.83275000e-01
-4.38425000e-08,1.83314063e-01
-4.38025000e-08,1.83292188e-01
-4.37625000e-08,1.83304688e-01
-4.37225000e-08,1.83300000e-01
-4.36825000e-08,1.83295313e-01
-4.36425000e-08,1.83310937e-01
-4.36025000e-08,1.83279688e-01
-4.35625000e-08,1.83346875e-01
-4.35225000e-08,1.83100000e-01
-4.34825000e-08,1.82837500e-01
-4.34425000e-08,1.82937500e-01
-4.34025000e-08,1.82871875e-01
-4.33625000e-08,1.82921875e-01
-4.33225000e-08,1.82881250e-01
-4.32825000e-08,1.82915625e-01
-4.32425000e-08,1.82887500e-01
-4.32025000e-08,1.82909375e-01
-4.31625000e-08,1.82895313e-01
-4.31225000e-08,1.82895313e-01
-4.30825000e-08,1.82929687e-01
-4.30425000e-08,1.82718750e-01
-4.30025000e-08,1.82417187e-01
-4.29625000e-08,1.82560938e-01
-4.29225000e-08,1.82443750e-01
-4.28825000e-08,1.82556250e-01
-4.28425000e-08,1.82435938e-01
-4.28025000e-08,1.82589063e-01
-4.27625000e-08,1.82257813e-01
-4.27225000e-08,1.82081250e-01
-4.26825000e-08,1.82092188e-01
-4.26425000e-08,1.82121875e-01
-4.26025000e-08,1.82062500e-01
-4.25625000e-08,1.82165625e-01
-4.25225000e-08,1.81876563e-01
-4.24825000e-08,1.81664063e-01
-4.24425000e-08,1.81707813e-01
-4.24025000e-08,1.81707813e-01
-4.23625000e-08,1.81676562e-01
-4.23225000e-08,1.81751563e-01
-4.22825000e-08,1.81490625e-01
-4.22425000e-08,1.81250000e-01
-4.22025000e-08,1.81323438e-01
-4.21625000e-08,1.81289063e-01
-4.21225000e-08,1.81303125e-01
-4.20825000e-08,1.81306250e-01
-4.20425000e-08,1.81281250e-01
-4.20025000e-08,1.81345312e-01
-4.19625000e-08,1.81100000e-01
-4.19225000e-08,1.80839063e-01
-4.18825000e-08,1.80934375e-01
-4.18425000e-08,1.80875000e-01
-4.18025000e-08,1.80918750e-01
-4.17625000e-08,1.80885938e-01
-4.17225000e-08,1.80912500e-01
-4.16825000e-08,1.80890625e-01
-4.16425000e-08,1.80907813e-01
-4.16025000e-08,1.80895313e-01
-4.15625000e-08,1.80903125e-01
-4.15225000e-08,1.80898438e-01
-4.14825000e-08,1.80900000e-01
-4.14425000e-08,1.80903125e-01
-4.14025000e-08,1.80895313e-01
-4.13625000e-08,1.80909375e-01
-4.13225000e-08,1.80884375e-01
-4.12825000e-08,1.80925000e-01
-4.12425000e-08,1.80848438e-01
-4.12025000e-08,1.81104688e-01
-4.11625000e-08,1.81356250e-01
-4.11225000e-08,1.81268750e-01
-4.10825000e-08,1.81321875e-01
-4.10425000e-08,1.81285937e-01
-4.10025000e-08,1.81309375e-01
-4.09625000e-08,1.81295312e-01
-4.09225000e-08,1.81298438e-01
-4.08825000e-08,1.81312500e-01
-4.08425000e-08,1.81262500e-01
-4.08025000e-08,1.81490625e-01
-4.07625000e-08,1.81771875e-01
-4.07225000e-08,1.81651563e-01
-4.06825000e-08,1.81739062e-01
-4.06425000e-08,1.81664063e-01
-4.06025000e-08,1.81735937e-01
-4.05625000e-08,1.81662500e-01
-4.05225000e-08,1.81745313e-01
-4.04825000e-08,1.81631250e-01
-4.04425000e-08,1.81920313e-01
-4.04025000e-08,1.82143750e-01
-4.03625000e-08,1.82079688e-01
-4.03225000e-08,1.82112500e-01
-4.02825000e-08,1.82090625e-01
-4.02425000e-08,1.82107812e-01
-4.02025000e-08,1.82093750e-01
-4.01625000e-08,1.82106250e-01
-4.01225000e-08,1.82092188e-01
-4.00825000e-08,1.82110938e-01
-4.00425000e-08,1.82084375e-01
-4.00025000e-08,1.82125000e-01
-3.99625000e-08,1.82051563e-01
-3.99225000e-08,1.82301563e-01
-3.98825000e-08,1.82560938e-01
-3.98425000e-08,1.82462500e-01
-3.98025000e-08,1.82528125e-01
-3.97625000e-08,1.82476562e-01
-3.97225000e-08,1.82520313e-01
-3.96825000e-08,1.82481250e-01
-3.96425000e-08,1.82518750e-01
-3.96025000e-08,1.82482813e-01
-3.95625000e-08,1.82517188e-01
-3.95225000e-08,1.82482813e-01
-3.94825000e-08,1.82518750e-01
-3.94425000e-08,1.82481250e-01
-3.94025000e-08,1.82520313e-01
-3.93625000e-08,1.82476562e-01
-3.93225000e-08,1.82528125e-01
-3.92825000e-08,1.82462500e-01
-3.92425000e-08,1.82560938e-01
-3.92025000e-08,1.82285937e-01
-3.91625000e-08,1.82051563e-01
-3.91225000e-08,1.82125000e-01
-3.90825000e-08,1.82084375e-01
-3.90425000e-08,1.82110938e-01
-3.90025000e-08,1.82090625e-01
-3.89625000e-08,1.82107812e-01
-3.89225000e-08,1.82093750e-01
-3.88825000e-08,1.82106250e-01
-3.88425000e-08,1.82093750e-01
-3.88025000e-08,1.82106250e-01
-3.87625000e-08,1.82092188e-01
-3.87225000e-08,1.82109375e-01
-3.86825000e-08,1.82089063e-01
-3.86425000e-08,1.82115625e-01
-3.86025000e-08,1.82075000e-01
-3.85625000e-08,1.82150000e-01
-3.85225000e-08,1.81896875e-01
