trails/0bdfa5e45fec98341abdd20552c140b4/aes_ch1_20250507122552926.csv

Model,MSO66B
Label,
Waveform Type,ANALOG
Horizontal Units,s
Sample Interval,4.00000000e-11
Record Length,10000
Zero Index,1599.10546875
Vertical Units,A
ANALOG_Thumbnail,
yOffset,1.84500000e-01
yPosition,8.40000000e-01

Labels,
TIME,CH1
-6.39642188e-08,2.01720312e-01
-6.39242187e-08,2.01678125e-01
-6.38842187e-08,2.01723438e-01
-6.38442187e-08,2.01673437e-01
-6.38042187e-08,2.01731250e-01
-6.37642188e-08,2.01659375e-01
-6.37242187e-08,2.01765625e-01
-6.36842188e-08,2.01481250e-01
-6.36442187e-08,2.01256250e-01
-6.36042187e-08,2.01320313e-01
-6.35642187e-08,2.01289063e-01
-6.35242187e-08,2.01304687e-01
-6.34842188e-08,2.01298438e-01
-6.34442187e-08,2.01300000e-01
-6.34042188e-08,2.01301563e-01
-6.33642187e-08,2.01296875e-01
-6.33242187e-08,2.01303125e-01
-6.32842187e-08,2.01295313e-01
-6.32442187e-08,2.01304687e-01
-6.32042188e-08,2.01293750e-01
-6.31642187e-08,2.01306250e-01
-6.31242188e-08,2.01293750e-01
-6.30842187e-08,2.01307813e-01
-6.30442187e-08,2.01292187e-01
-6.30042187e-08,2.01307813e-01
-6.29642187e-08,2.01290625e-01
-6.29242188e-08,2.01309375e-01
-6.28842187e-08,2.01289063e-01
-6.28442187e-08,2.01310938e-01
-6.28042187e-08,2.01289063e-01
-6.27642187e-08,2.01312500e-01
-6.27242187e-08,2.01285938e-01
-6.26842187e-08,2.01314063e-01
-6.26442188e-08,2.01284375e-01
-6.26042187e-08,2.01317187e-01
-6.25642187e-08,2.01279687e-01
-6.25242187e-08,2.01323438e-01
-6.24842187e-08,2.01270312e-01
-6.24442187e-08,2.01339062e-01
-6.24042187e-08,2.01235938e-01
-6.23642188e-08,2.01518750e-01
-6.23242187e-08,2.01743750e-01
-6.22842187e-08,2.01681250e-01
-6.22442187e-08,2.01707812e-01
-6.22042187e-08,2.01698437e-01
-6.21642187e-08,2.01698437e-01
-6.21242187e-08,2.01706250e-01
-6.20842188e-08,2.01690625e-01
-6.20442187e-08,2.01714063e-01
-6.20042187e-08,2.01679688e-01
-6.19642187e-08,2.01731250e-01
-6.19242187e-08,2.01642188e-01
-6.18842187e-08,2.01912500e-01
-6.18442187e-08,2.02150000e-01
-6.18042188e-08,2.02076563e-01
-6.17642187e-08,2.02114062e-01
-6.17242187e-08,2.02093750e-01
-6.16842187e-08,2.02101562e-01
-6.16442187e-08,2.02104688e-01
-6.16042187e-08,2.02089062e-01
-6.15642187e-08,2.02121875e-01
-6.15242188e-08,2.02051563e-01
-6.14842187e-08,2.02301563e-01
-6.14442187e-08,2.02559375e-01
-6.14042187e-08,2.02465625e-01
-6.13642187e-08,2.02525000e-01
-6.13242187e-08,2.02479688e-01
-6.12842187e-08,2.02515625e-01
-6.12442188e-08,2.02485938e-01
-6.12042187e-08,2.02512500e-01
-6.11642187e-08,2.02489063e-01
-6.11242187e-08,2.02509375e-01
-6.10842187e-08,2.02492188e-01
-6.10442187e-08,2.02507812e-01
-6.10042187e-08,2.02493750e-01
-6.09642188e-08,2.02506250e-01
-6.09242187e-08,2.02495312e-01
-6.08842187e-08,2.02504688e-01
-6.08442187e-08,2.02495312e-01
-6.08042187e-08,2.02503125e-01
-6.07642188e-08,2.02496875e-01
-6.07242187e-08,2.02503125e-01
-6.06842188e-08,2.02498438e-01
-6.06442187e-08,2.02501563e-01
-6.06042187e-08,2.02498438e-01
-6.05642187e-08,2.02500000e-01
-6.05242187e-08,2.02500000e-01
-6.04842188e-08,2.02500000e-01
-6.04442187e-08,2.02501563e-01
-6.04042188e-08,2.02498438e-01
-6.03642187e-08,2.02503125e-01
-6.03242187e-08,2.02496875e-01
-6.02842187e-08,2.02504688e-01
-6.02442187e-08,2.02493750e-01
-6.02042188e-08,2.02509375e-01
-6.01642187e-08,2.02487500e-01
-6.01242188e-08,2.02517188e-01
-6.00842187e-08,2.02473438e-01
-6.00442187e-08,2.02551563e-01
-6.00042187e-08,2.02295313e-01
-5.99642187e-08,2.02042187e-01
-5.99242188e-08,2.02132813e-01
-5.98842187e-08,2.02076563e-01
-5.98442188e-08,2.02118750e-01
-5.98042187e-08,2.02084375e-01
-5.97642187e-08,2.02114062e-01
-5.97242187e-08,2.02087500e-01
-5.96842187e-08,2.02110938e-01
-5.96442188e-08,2.02090625e-01
-5.96042187e-08,2.02109375e-01
-5.95642187e-08,2.02090625e-01
-5.95242187e-08,2.02107813e-01
-5.94842187e-08,2.02092188e-01
-5.94442187e-08,2.02107813e-01
-5.94042187e-08,2.02093750e-01
-5.93642187e-08,2.02106250e-01
-5.93242187e-08,2.02093750e-01
-5.92842187e-08,2.02106250e-01
-5.92442187e-08,2.02093750e-01
-5.92042187e-08,2.02106250e-01
-5.91642187e-08,2.02093750e-01
-5.91242187e-08,2.02106250e-01
-5.90842187e-08,2.02093750e-01
-5.90442187e-08,2.02106250e-01
-5.90042187e-08,2.02093750e-01
-5.89642187e-08,2.02106250e-01
-5.89242187e-08,2.02093750e-01
-5.88842187e-08,2.02106250e-01
-5.88442187e-08,2.02093750e-01
-5.88042187e-08,2.02106250e-01
-5.87642187e-08,2.02093750e-01
-5.87242187e-08,2.02106250e-01
-5.86842187e-08,2.02093750e-01
-5.86442187e-08,2.02107813e-01
-5.86042187e-08,2.02092188e-01
-5.85642187e-08,2.02107813e-01
-5.85242187e-08,2.02090625e-01
-5.84842187e-08,2.02109375e-01
-5.84442187e-08,2.02089062e-01
-5.84042187e-08,2.02114062e-01
-5.83642187e-08,2.02084375e-01
-5.83242187e-08,2.02121875e-01
-5.82842187e-08,2.02068750e-01
-5.82442187e-08,2.02156250e-01
-5.82042187e-08,2.01892188e-01
-5.81642187e-08,2.01646875e-01
-5.81242187e-08,2.01729688e-01
-5.80842187e-08,2.01679688e-01
-5.80442187e-08,2.01715625e-01
-5.80042187e-08,2.01687500e-01
-5.79642187e-08,2.01710938e-01
-5.79242187e-08,2.01690625e-01
-5.78842187e-08,2.01709375e-01
-5.78442187e-08,2.01692188e-01
-5.78042187e-08,2.01707812e-01
-5.77642187e-08,2.01693750e-01
-5.77242187e-08,2.01706250e-01
-5.76842187e-08,2.01693750e-01
-5.76442187e-08,2.01706250e-01
-5.76042187e-08,2.01693750e-01
-5.75642187e-08,2.01706250e-01
-5.75242187e-08,2.01693750e-01
-5.74842187e-08,2.01706250e-01
-5.74442187e-08,2.01693750e-01
-5.74042187e-08,2.01706250e-01
-5.73642187e-08,2.01693750e-01
-5.73242187e-08,2.01706250e-01
-5.72842187e-08,2.01693750e-01
-5.72442187e-08,2.01706250e-01
-5.72042187e-08,2.01693750e-01
-5.71642187e-08,2.01706250e-01
-5.71242187e-08,2.01693750e-01
-5.70842187e-08,2.01707812e-01
-5.70442187e-08,2.01692188e-01
-5.70042187e-08,2.01707812e-01
-5.69642187e-08,2.01690625e-01
-5.69242187e-08,2.01709375e-01
-5.68842187e-08,2.01689063e-01
-5.68442187e-08,2.01710938e-01
-5.68042187e-08,2.01687500e-01
-5.67642187e-08,2.01715625e-01
-5.67242187e-08,2.01681250e-01
-5.66842187e-08,2.01723438e-01
-5.66442187e-08,2.01667188e-01
-5.66042187e-08,2.01757813e-01
-5.65642187e-08,2.01489063e-01
-5.65242187e-08,2.01248438e-01
-5.64842187e-08,2.01326563e-01
-5.64442187e-08,2.01282813e-01
-5.64042187e-08,2.01312500e-01
-5.63642187e-08,2.01290625e-01
-5.63242187e-08,2.01307813e-01
-5.62842187e-08,2.01293750e-01
-5.62442187e-08,2.01304687e-01
-5.62042187e-08,2.01296875e-01
-5.61642187e-08,2.01303125e-01
-5.61242187e-08,2.01298438e-01
-5.60842187e-08,2.01301563e-01
-5.60442187e-08,2.01300000e-01
-5.60042187e-08,2.01300000e-01
-5.59642187e-08,2.01301563e-01
-5.59242187e-08,2.01298438e-01
-5.58842187e-08,2.01301563e-01
-5.58442187e-08,2.01296875e-01
-5.58042187e-08,2.01303125e-01
-5.57642187e-08,2.01295313e-01
-5.57242187e-08,2.01306250e-01
-5.56842187e-08,2.01293750e-01
-5.56442187e-08,2.01309375e-01
-5.56042187e-08,2.01289063e-01
-5.55642187e-08,2.01314063e-01
-5.55242187e-08,2.01281250e-01
-5.54842187e-08,2.01329688e-01
-5.54442187e-08,2.01245312e-01
-5.54042187e-08,2.01507812e-01
-5.53642187e-08,2.01754688e-01
-5.53242187e-08,2.01668750e-01
-5.52842187e-08,2.01721875e-01
-5.52442187e-08,2.01684375e-01
-5.52042187e-08,2.01712500e-01
-5.51642187e-08,2.01689063e-01
-5.51242187e-08,2.01709375e-01
-5.50842187e-08,2.01692188e-01
-5.50442187e-08,2.01706250e-01
-5.50042187e-08,2.01693750e-01
-5.49642187e-08,2.01704688e-01
-5.49242187e-08,2.01695313e-01
-5.48842187e-08,2.01704688e-01
-5.48442187e-08,2.01696875e-01
-5.48042187e-08,2.01703125e-01
-5.47642187e-08,2.01696875e-01
-5.47242187e-08,2.01701563e-01
-5.46842187e-08,2.01698437e-01
-5.46442187e-08,2.01700000e-01
-5.46042187e-08,2.01700000e-01
-5.45642187e-08,2.01698437e-01
-5.45242187e-08,2.01701563e-01
-5.44842187e-08,2.01696875e-01
-5.44442187e-08,2.01704688e-01
-5.44042187e-08,2.01693750e-01
-5.43642187e-08,2.01709375e-01
-5.43242187e-08,2.01684375e-01
-5.42842187e-08,2.01725000e-01
-5.42442187e-08,2.01650000e-01
-5.42042187e-08,2.01903125e-01
-5.41642187e-08,2.02159375e-01
-5.41242187e-08,2.02064063e-01
-5.40842187e-08,2.02126562e-01
-5.40442187e-08,2.02078125e-01
-5.40042187e-08,2.02118750e-01
-5.39642187e-08,2.02082813e-01
-5.39242187e-08,2.02115625e-01
-5.38842187e-08,2.02085938e-01
-5.38442187e-08,2.02114062e-01
-5.38042187e-08,2.02085938e-01
-5.37642187e-08,2.02112500e-01
-5.37242187e-08,2.02087500e-01
-5.36842187e-08,2.02112500e-01
-5.36442187e-08,2.02085938e-01
-5.36042187e-08,2.02114062e-01
-5.35642187e-08,2.02085938e-01
-5.35242187e-08,2.02115625e-01
-5.34842187e-08,2.02082813e-01
-5.34442187e-08,2.02120313e-01
-5.34042187e-08,2.02075000e-01
-5.33642188e-08,2.02134375e-01
-5.33242187e-08,2.02040625e-01
-5.32842187e-08,2.02312500e-01
-5.32442187e-08,2.02550000e-01
-5.32042187e-08,2.02473438e-01
-5.31642187e-08,2.02517188e-01
-5.31242187e-08,2.02487500e-01
-5.30842187e-08,2.02509375e-01
-5.30442187e-08,2.02492188e-01
-5.30042187e-08,2.02506250e-01
-5.29642187e-08,2.02495312e-01
-5.29242187e-08,2.02504688e-01
-5.28842187e-08,2.02496875e-01
-5.28442187e-08,2.02503125e-01
-5.28042187e-08,2.02496875e-01
-5.27642187e-08,2.02503125e-01
-5.27242187e-08,2.02496875e-01
-5.26842187e-08,2.02501563e-01
-5.26442187e-08,2.02498438e-01
-5.26042187e-08,2.02501563e-01
-5.25642187e-08,2.02498438e-01
-5.25242187e-08,2.02501563e-01
-5.24842187e-08,2.02498438e-01
-5.24442187e-08,2.02501563e-01
-5.24042187e-08,2.02498438e-01
-5.23642187e-08,2.02501563e-01
-5.23242187e-08,2.02498438e-01
-5.22842187e-08,2.02503125e-01
-5.22442187e-08,2.02496875e-01
-5.22042187e-08,2.02503125e-01
-5.21642187e-08,2.02496875e-01
-5.21242187e-08,2.02503125e-01
-5.20842187e-08,2.02496875e-01
-5.20442187e-08,2.02504688e-01
-5.20042187e-08,2.02495312e-01
-5.19642187e-08,2.02506250e-01
-5.19242187e-08,2.02493750e-01
-5.18842187e-08,2.02507812e-01
-5.18442187e-08,2.02490625e-01
-5.18042187e-08,2.02512500e-01
-5.17642187e-08,2.02481250e-01
-5.17242187e-08,2.02528125e-01
-5.16842187e-08,2.02448438e-01
-5.16442187e-08,2.02704688e-01
-5.16042187e-08,2.02957813e-01
-5.15642187e-08,2.02867188e-01
-5.15242187e-08,2.02923437e-01
-5.14842187e-08,2.02879688e-01
-5.14442188e-08,2.02917188e-01
-5.14042187e-08,2.02884375e-01
-5.13642187e-08,2.02914063e-01
-5.13242187e-08,2.02887500e-01
-5.12842187e-08,2.02912500e-01
-5.12442187e-08,2.02887500e-01
-5.12042187e-08,2.02912500e-01
-5.11642188e-08,2.02887500e-01
-5.11242187e-08,2.02912500e-01
-5.10842187e-08,2.02885938e-01
-5.10442187e-08,2.02914063e-01
-5.10042187e-08,2.02882813e-01
-5.09642187e-08,2.02918750e-01
-5.09242187e-08,2.02875000e-01
-5.08842187e-08,2.02934375e-01
-5.08442187e-08,2.02842187e-01
-5.08042187e-08,2.03110938e-01
-5.07642187e-08,2.03351562e-01
-5.07242187e-08,2.03271875e-01
-5.06842187e-08,2.03318750e-01
-5.06442187e-08,2.03287500e-01
-5.06042187e-08,2.03310938e-01
-5.05642187e-08,2.03292187e-01
-5.05242187e-08,2.03307813e-01
-5.04842187e-08,2.03293750e-01
-5.04442187e-08,2.03304687e-01
-5.04042187e-08,2.03295313e-01
-5.03642187e-08,2.03304687e-01
-5.03242187e-08,2.03295313e-01
-5.02842187e-08,2.03303125e-01
-5.02442187e-08,2.03296875e-01
-5.02042187e-08,2.03303125e-01
-5.01642187e-08,2.03296875e-01
-5.01242187e-08,2.03303125e-01
-5.00842187e-08,2.03296875e-01
-5.00442187e-08,2.03303125e-01
-5.00042187e-08,2.03296875e-01
-4.99642187e-08,2.03303125e-01
-4.99242187e-08,2.03296875e-01
-4.98842187e-08,2.03303125e-01
-4.98442187e-08,2.03296875e-01
-4.98042187e-08,2.03303125e-01
-4.97642187e-08,2.03296875e-01
-4.97242187e-08,2.03304687e-01
-4.96842187e-08,2.03295313e-01
-4.96442187e-08,2.03304687e-01
-4.96042187e-08,2.03293750e-01
-4.95642187e-08,2.03306250e-01
-4.95242188e-08,2.03292187e-01
-4.94842187e-08,2.03309375e-01
-4.94442187e-08,2.03287500e-01
-4.94042187e-08,2.03317187e-01
-4.93642187e-08,2.03273438e-01
-4.93242187e-08,2.03351562e-01
-4.92842187e-08,2.03095313e-01
-4.92442188e-08,2.02842187e-01
-4.92042187e-08,2.02934375e-01
-4.91642187e-08,2.02875000e-01
-4.91242187e-08,2.02921875e-01
-4.90842187e-08,2.02881250e-01
-4.90442187e-08,2.02918750e-01
-4.90042187e-08,2.02881250e-01
-4.89642188e-08,2.02918750e-01
-4.89242187e-08,2.02879688e-01
-4.88842187e-08,2.02925000e-01
-4.88442187e-08,2.02865625e-01
-4.88042187e-08,2.02957813e-01
-4.87642187e-08,2.02689063e-01
-4.87242187e-08,2.02448438e-01
-4.86842187e-08,2.02529687e-01
-4.86442187e-08,2.02479688e-01
-4.86042187e-08,2.02515625e-01
-4.85642187e-08,2.02485938e-01
-4.85242187e-08,2.02514063e-01
-4.84842187e-08,2.02485938e-01
-4.84442187e-08,2.02514063e-01
-4.84042187e-08,2.02482812e-01
-4.83642187e-08,2.02520313e-01
-4.83242187e-08,2.02470312e-01
-4.82842187e-08,2.02554687e-01
-4.82442187e-08,2.02292187e-01
-4.82042187e-08,2.02043750e-01
-4.81642187e-08,2.02132813e-01
-4.81242187e-08,2.02076563e-01
-4.80842187e-08,2.02118750e-01
-4.80442187e-08,2.02084375e-01
-4.80042187e-08,2.02114062e-01
-4.79642187e-08,2.02087500e-01
-4.79242187e-08,2.02112500e-01
-4.78842187e-08,2.02087500e-01
-4.78442187e-08,2.02112500e-01
-4.78042187e-08,2.02089062e-01
-4.77642187e-08,2.02112500e-01
-4.77242187e-08,2.02087500e-01
-4.76842187e-08,2.02112500e-01
-4.76442187e-08,2.02087500e-01
-4.76042188e-08,2.02114062e-01
-4.75642187e-08,2.02084375e-01
-4.75242187e-08,2.02117188e-01
-4.74842187e-08,2.02081250e-01
-4.74442187e-08,2.02121875e-01
-4.74042187e-08,2.02073438e-01
-4.73642187e-08,2.02137500e-01
-4.73242188e-08,2.02037500e-01
-4.72842187e-08,2.02315625e-01
-4.72442187e-08,2.02545313e-01
-4.72042187e-08,2.02478125e-01
-4.71642187e-08,2.02510938e-01
-4.71242187e-08,2.02495312e-01
-4.70842187e-08,2.02501563e-01
-4.70442188e-08,2.02503125e-01
-4.70042187e-08,2.02493750e-01
-4.69642187e-08,2.02510938e-01
-4.69242187e-08,2.02482812e-01
-4.68842187e-08,2.02526563e-01
-4.68442187e-08,2.02446875e-01
-4.68042187e-08,2.02706250e-01
-4.67642188e-08,2.02954688e-01
-4.67242187e-08,2.02870313e-01
-4.66842187e-08,2.02920313e-01
-4.66442187e-08,2.02885938e-01
-4.66042187e-08,2.02909375e-01
-4.65642187e-08,2.02893750e-01
-4.65242187e-08,2.02901563e-01
-4.64842187e-08,2.02901563e-01
-4.64442187e-08,2.02892188e-01
-4.64042187e-08,2.02918750e-01
-4.63642187e-08,2.02856250e-01
-4.63242187e-08,2.03096875e-01
-4.62842187e-08,2.03364062e-01
-4.62442187e-08,2.03259375e-01
-4.62042187e-08,2.03331250e-01
-4.61642187e-08,2.03275000e-01
-4.61242187e-08,2.03321875e-01
-4.60842187e-08,2.03279688e-01
-4.60442187e-08,2.03318750e-01
-4.60042187e-08,2.03282813e-01
-4.59642187e-08,2.03315625e-01
-4.59242187e-08,2.03284375e-01
-4.58842187e-08,2.03315625e-01
-4.58442187e-08,2.03285938e-01
-4.58042187e-08,2.03314063e-01
-4.57642187e-08,2.03285938e-01
-4.57242187e-08,2.03314063e-01
-4.56842188e-08,2.03285938e-01
-4.56442187e-08,2.03314063e-01
-4.56042187e-08,2.03285938e-01
-4.55642187e-08,2.03314063e-01
-4.55242187e-08,2.03285938e-01
-4.54842187e-08,2.03315625e-01
-4.54442187e-08,2.03284375e-01
-4.54042188e-08,2.03315625e-01
-4.53642187e-08,2.03282813e-01
-4.53242187e-08,2.03317187e-01
-4.52842187e-08,2.03281250e-01
-4.52442187e-08,2.03321875e-01
-4.52042187e-08,2.03275000e-01
-4.51642187e-08,2.03329688e-01
-4.51242188e-08,2.03260938e-01
-4.50842187e-08,2.03364062e-01
-4.50442187e-08,2.03081250e-01
-4.50042187e-08,2.02856250e-01
-4.49642187e-08,2.02920313e-01
-4.49242187e-08,2.02890625e-01
-4.48842187e-08,2.02904688e-01
-4.48442188e-08,2.02898438e-01
-4.48042187e-08,2.02898438e-01
-4.47642187e-08,2.02904688e-01
-4.47242187e-08,2.02893750e-01
-4.46842187e-08,2.02909375e-01
-4.46442187e-08,2.02885938e-01
-4.46042187e-08,2.02918750e-01
-4.45642187e-08,2.02870313e-01
-4.45242187e-08,2.02954688e-01
-4.44842187e-08,2.02692188e-01
-4.44442187e-08,2.02445313e-01
-4.44042187e-08,2.02529687e-01
-4.43642187e-08,2.02479688e-01
-4.43242187e-08,2.02515625e-01
-4.42842187e-08,2.02487500e-01
-4.42442187e-08,2.02509375e-01
-4.42042187e-08,2.02492188e-01
-4.41642187e-08,2.02507812e-01
-4.41242187e-08,2.02493750e-01
-4.40842187e-08,2.02506250e-01
-4.40442187e-08,2.02495312e-01
-4.40042187e-08,2.02504688e-01
-4.39642187e-08,2.02495312e-01
-4.39242187e-08,2.02504688e-01
-4.38842187e-08,2.02496875e-01
-4.38442187e-08,2.02503125e-01
-4.38042187e-08,2.02496875e-01
-4.37642188e-08,2.02503125e-01
-4.37242187e-08,2.02496875e-01
-4.36842187e-08,2.02503125e-01
-4.36442187e-08,2.02496875e-01
-4.36042187e-08,2.02503125e-01
-4.35642187e-08,2.02496875e-01
-4.35242187e-08,2.02504688e-01
-4.34842188e-08,2.02495312e-01
-4.34442187e-08,2.02506250e-01
-4.34042187e-08,2.02493750e-01
-4.33642187e-08,2.02509375e-01
-4.33242187e-08,2.02489063e-01
-4.32842187e-08,2.02515625e-01
-4.32442187e-08,2.02475000e-01
-4.32042188e-08,2.02550000e-01
-4.31642187e-08,2.02296875e-01
-4.31242187e-08,2.02040625e-01
-4.30842187e-08,2.02135938e-01
-4.30442187e-08,2.02071875e-01
-4.30042187e-08,2.02123438e-01
-4.29642187e-08,2.02078125e-01
-4.29242188e-08,2.02120313e-01
-4.28842187e-08,2.02079687e-01
-4.28442187e-08,2.02120313e-01
-4.28042187e-08,2.02079687e-01
-4.27642187e-08,2.02121875e-01
-4.27242187e-08,2.02075000e-01
-4.26842187e-08,2.02129688e-01
-4.26442188e-08,2.02060938e-01
-4.26042187e-08,2.02164063e-01
-4.25642187e-08,2.01881250e-01
-4.25242187e-08,2.01656250e-01
-4.24842187e-08,2.01718750e-01
-4.24442187e-08,2.01690625e-01
-4.24042187e-08,2.01703125e-01
-4.23642187e-08,2.01701563e-01
-4.23242187e-08,2.01693750e-01
-4.22842187e-08,2.01712500e-01
-4.22442187e-08,2.01676563e-01
-4.22042187e-08,2.01748438e-01
-4.21642187e-08,2.01498438e-01
-4.21242187e-08,2.01239063e-01
-4.20842187e-08,2.01337500e-01
-4.20442187e-08,2.01271875e-01
-4.20042187e-08,2.01323438e-01
-4.19642187e-08,2.01278125e-01
-4.19242187e-08,2.01321875e-01
-4.18842187e-08,2.01276563e-01
-4.18442188e-08,2.01326563e-01
-4.18042187e-08,2.01264063e-01
-4.17642187e-08,2.01359375e-01
-4.17242187e-08,2.01087500e-01
-4.16842187e-08,2.00848438e-01
-4.16442187e-08,2.00928125e-01
-4.16042187e-08,2.00881250e-01
-4.15642188e-08,2.00914063e-01
-4.15242187e-08,2.00887500e-01
-4.14842187e-08,2.00910937e-01
-4.14442187e-08,2.00890625e-01
-4.14042187e-08,2.00907813e-01
-4.13642187e-08,2.00892188e-01
-4.13242187e-08,2.00907813e-01
-4.12842188e-08,2.00892188e-01
-4.12442187e-08,2.00907813e-01
-4.12042187e-08,2.00893750e-01
-4.11642187e-08,2.00906250e-01
-4.11242187e-08,2.00893750e-01
-4.10842187e-08,2.00906250e-01
-4.10442187e-08,2.00892188e-01
-4.10042188e-08,2.00907813e-01
-4.09642187e-08,2.00892188e-01
-4.09242187e-08,2.00907813e-01
-4.08842187e-08,2.00892188e-01
-4.08442187e-08,2.00907813e-01
-4.08042187e-08,2.00892188e-01
-4.07642187e-08,2.00909375e-01
-4.07242188e-08,2.00890625e-01
-4.06842187e-08,2.00909375e-01
-4.06442187e-08,2.00890625e-01
-4.06042187e-08,2.00910937e-01
-4.05642187e-08,2.00889062e-01
-4.05242187e-08,2.00912500e-01
-4.04842187e-08,2.00887500e-01
-4.04442188e-08,2.00914063e-01
-4.04042187e-08,2.00884375e-01
-4.03642187e-08,2.00917188e-01
-4.03242187e-08,2.00881250e-01
-4.02842187e-08,2.00921875e-01
-4.02442187e-08,2.00871875e-01
-4.02042187e-08,2.00937500e-01
-4.01642187e-08,2.00837500e-01
-4.01242187e-08,2.01117188e-01
-4.00842187e-08,2.01345313e-01
-4.00442187e-08,2.01279687e-01
-4.00042187e-08,2.01310938e-01
-3.99642187e-08,2.01295313e-01
-3.99242188e-08,2.01301563e-01
-3.98842187e-08,2.01301563e-01
-3.98442187e-08,2.01295313e-01
-3.98042187e-08,2.01307813e-01
-3.97642187e-08,2.01289063e-01
-3.97242187e-08,2.01315625e-01
-3.96842187e-08,2.01278125e-01
-3.96442188e-08,2.01332813e-01
-3.96042187e-08,2.01242188e-01
-3.95642187e-08,2.01512500e-01
-3.95242187e-08,2.01748438e-01
-3.94842187e-08,2.01676563e-01
-3.94442187e-08,2.01712500e-01
-3.94042187e-08,2.01693750e-01
-3.93642188e-08,2.01700000e-01
-3.93242187e-08,2.01704688e-01
-3.92842187e-08,2.01687500e-01
-3.92442187e-08,2.01723438e-01
-3.92042187e-08,2.01650000e-01
-3.91642187e-08,2.01903125e-01
-3.91242187e-08,2.02157813e-01
-3.90842188e-08,2.02068750e-01
-3.90442187e-08,2.02120313e-01
-3.90042187e-08,2.02085938e-01
-3.89642187e-08,2.02109375e-01
-3.89242187e-08,2.02096875e-01
-3.88842187e-08,2.02096875e-01
-3.88442187e-08,2.02114062e-01
-3.88042188e-08,2.02060938e-01
-3.87642187e-08,2.02293750e-01
-3.87242187e-08,2.02568750e-01
-3.86842187e-08,2.02456250e-01
-3.86442187e-08,2.02534375e-01
-3.86042187e-08,2.02470312e-01
-3.85642187e-08,2.02528125e-01
-3.85242188e-08,2.02473438e-01
