trails/0bdfa5e45fec98341abdd20552c140b4/aes_ch1_20250507121010561.csv

Model,MSO66B
Label,
Waveform Type,ANALOG
Horizontal Units,s
Sample Interval,4.00000000e-11
Record Length,10000
Zero Index,1599.01562500
Vertical Units,A
ANALOG_Thumbnail,
yOffset,1.84500000e-01
yPosition,8.40000000e-01

Labels,
TIME,CH1
-6.39606250e-08,1.88307813e-01
-6.39206250e-08,1.88034375e-01
-6.38806250e-08,1.88137500e-01
-6.38406250e-08,1.88078125e-01
-6.38006250e-08,1.88107812e-01
-6.37606250e-08,1.88120312e-01
-6.37206250e-08,1.87925000e-01
-6.36806250e-08,1.87614063e-01
-6.36406250e-08,1.87762500e-01
-6.36006250e-08,1.87643750e-01
-6.35606250e-08,1.87754688e-01
-6.35206250e-08,1.87639063e-01
-6.34806250e-08,1.87782813e-01
-6.34406250e-08,1.87465625e-01
-6.34006250e-08,1.87270313e-01
-6.33606250e-08,1.87307813e-01
-6.33206250e-08,1.87301563e-01
-6.32806250e-08,1.87295313e-01
-6.32406250e-08,1.87307813e-01
-6.32006250e-08,1.87290625e-01
-6.31606250e-08,1.87310937e-01
-6.31206250e-08,1.87289063e-01
-6.30806250e-08,1.87312500e-01
-6.30406250e-08,1.87285937e-01
-6.30006250e-08,1.87315625e-01
-6.29606250e-08,1.87282813e-01
-6.29206250e-08,1.87320313e-01
-6.28806250e-08,1.87275000e-01
-6.28406250e-08,1.87332813e-01
-6.28006250e-08,1.87242188e-01
-6.27606250e-08,1.87509375e-01
-6.27206250e-08,1.87753125e-01
-6.26806250e-08,1.87668750e-01
-6.26406250e-08,1.87723438e-01
-6.26006250e-08,1.87679687e-01
-6.25606250e-08,1.87720313e-01
-6.25206250e-08,1.87676563e-01
-6.24806250e-08,1.87732813e-01
-6.24406250e-08,1.87643750e-01
-6.24006250e-08,1.87909375e-01
-6.23606250e-08,1.88153125e-01
-6.23206250e-08,1.88071875e-01
-6.22806250e-08,1.88117188e-01
-6.22406250e-08,1.88090625e-01
-6.22006250e-08,1.88103125e-01
-6.21606250e-08,1.88107812e-01
-6.21206250e-08,1.88065625e-01
-6.20806250e-08,1.88287500e-01
-6.20406250e-08,1.88575000e-01
-6.20006250e-08,1.88448438e-01
-6.19606250e-08,1.88542188e-01
-6.19206250e-08,1.88460938e-01
-6.18806250e-08,1.88535938e-01
-6.18406250e-08,1.88464063e-01
-6.18006250e-08,1.88535938e-01
-6.17606250e-08,1.88462500e-01
-6.17206250e-08,1.88540625e-01
-6.16806250e-08,1.88454687e-01
-6.16406250e-08,1.88556250e-01
-6.16006250e-08,1.88417187e-01
-6.15606250e-08,1.88737500e-01
-6.15206250e-08,1.88921875e-01
-6.14806250e-08,1.88906250e-01
-6.14406250e-08,1.88875000e-01
-6.14006250e-08,1.88956250e-01
-6.13606250e-08,1.88687500e-01
-6.13206250e-08,1.88451563e-01
-6.12806250e-08,1.88521875e-01
-6.12406250e-08,1.88489062e-01
-6.12006250e-08,1.88504688e-01
-6.11606250e-08,1.88500000e-01
-6.11206250e-08,1.88496875e-01
-6.10806250e-08,1.88506250e-01
-6.10406250e-08,1.88490625e-01
-6.10006250e-08,1.88512500e-01
-6.09606250e-08,1.88482813e-01
-6.09206250e-08,1.88523438e-01
-6.08806250e-08,1.88465625e-01
-6.08406250e-08,1.88559375e-01
-6.08006250e-08,1.88285938e-01
-6.07606250e-08,1.88053125e-01
-6.07206250e-08,1.88121875e-01
-6.06806250e-08,1.88089063e-01
-6.06406250e-08,1.88103125e-01
-6.06006250e-08,1.88101563e-01
-6.05606250e-08,1.88092188e-01
-6.05206250e-08,1.88114063e-01
-6.04806250e-08,1.88075000e-01
-6.04406250e-08,1.88151563e-01
-6.04006250e-08,1.87893750e-01
-6.03606250e-08,1.87645312e-01
-6.03206250e-08,1.87729688e-01
-6.02806250e-08,1.87679687e-01
-6.02406250e-08,1.87714063e-01
-6.02006250e-08,1.87690625e-01
-6.01606250e-08,1.87706250e-01
-6.01206250e-08,1.87698438e-01
-6.00806250e-08,1.87696875e-01
-6.00406250e-08,1.87707813e-01
-6.00006250e-08,1.87681250e-01
-5.99606250e-08,1.87743750e-01
-5.99206250e-08,1.87501562e-01
-5.98806250e-08,1.87235938e-01
-5.98406250e-08,1.87340625e-01
-5.98006250e-08,1.87268750e-01
-5.97606250e-08,1.87326563e-01
-5.97206250e-08,1.87276563e-01
-5.96806250e-08,1.87321875e-01
-5.96406250e-08,1.87278125e-01
-5.96006250e-08,1.87321875e-01
-5.95606250e-08,1.87276563e-01
-5.95206250e-08,1.87328125e-01
-5.94806250e-08,1.87264062e-01
-5.94406250e-08,1.87360938e-01
-5.94006250e-08,1.87087500e-01
-5.93606250e-08,1.86850000e-01
-5.93206250e-08,1.86928125e-01
-5.92806250e-08,1.86881250e-01
-5.92406250e-08,1.86915625e-01
-5.92006250e-08,1.86885938e-01
-5.91606250e-08,1.86912500e-01
-5.91206250e-08,1.86887500e-01
-5.90806250e-08,1.86914063e-01
-5.90406250e-08,1.86882812e-01
-5.90006250e-08,1.86921875e-01
-5.89606250e-08,1.86868750e-01
-5.89206250e-08,1.86954687e-01
-5.88806250e-08,1.86692187e-01
-5.88406250e-08,1.86445313e-01
-5.88006250e-08,1.86531250e-01
-5.87606250e-08,1.86478125e-01
-5.87206250e-08,1.86517188e-01
-5.86806250e-08,1.86485938e-01
-5.86406250e-08,1.86512500e-01
-5.86006250e-08,1.86489062e-01
-5.85606250e-08,1.86509375e-01
-5.85206250e-08,1.86490625e-01
-5.84806250e-08,1.86507813e-01
-5.84406250e-08,1.86492188e-01
-5.84006250e-08,1.86507813e-01
-5.83606250e-08,1.86493750e-01
-5.83206250e-08,1.86506250e-01
-5.82806250e-08,1.86493750e-01
-5.82406250e-08,1.86506250e-01
-5.82006250e-08,1.86493750e-01
-5.81606250e-08,1.86506250e-01
-5.81206250e-08,1.86493750e-01
-5.80806250e-08,1.86506250e-01
-5.80406250e-08,1.86493750e-01
-5.80006250e-08,1.86506250e-01
-5.79606250e-08,1.86493750e-01
-5.79206250e-08,1.86506250e-01
-5.78806250e-08,1.86493750e-01
-5.78406250e-08,1.86506250e-01
-5.78006250e-08,1.86493750e-01
-5.77606250e-08,1.86507813e-01
-5.77206250e-08,1.86492188e-01
-5.76806250e-08,1.86507813e-01
-5.76406250e-08,1.86492188e-01
-5.76006250e-08,1.86509375e-01
-5.75606250e-08,1.86489062e-01
-5.75206250e-08,1.86512500e-01
-5.74806250e-08,1.86485938e-01
-5.74406250e-08,1.86517188e-01
-5.74006250e-08,1.86478125e-01
-5.73606250e-08,1.86531250e-01
-5.73206250e-08,1.86443750e-01
-5.72806250e-08,1.86709375e-01
-5.72406250e-08,1.86953125e-01
-5.72006250e-08,1.86870312e-01
-5.71606250e-08,1.86920313e-01
-5.71206250e-08,1.86884375e-01
-5.70806250e-08,1.86912500e-01
-5.70406250e-08,1.86890625e-01
-5.70006250e-08,1.86909375e-01
-5.69606250e-08,1.86892188e-01
-5.69206250e-08,1.86906250e-01
-5.68806250e-08,1.86893750e-01
-5.68406250e-08,1.86906250e-01
-5.68006250e-08,1.86895313e-01
-5.67606250e-08,1.86904687e-01
-5.67206250e-08,1.86895313e-01
-5.66806250e-08,1.86904687e-01
-5.66406250e-08,1.86895313e-01
-5.66006250e-08,1.86904687e-01
-5.65606250e-08,1.86895313e-01
-5.65206250e-08,1.86903125e-01
-5.64806250e-08,1.86896875e-01
-5.64406250e-08,1.86903125e-01
-5.64006250e-08,1.86896875e-01
-5.63606250e-08,1.86903125e-01
-5.63206250e-08,1.86896875e-01
-5.62806250e-08,1.86903125e-01
-5.62406250e-08,1.86896875e-01
-5.62006250e-08,1.86903125e-01
-5.61606250e-08,1.86895313e-01
-5.61206250e-08,1.86904687e-01
-5.60806250e-08,1.86895313e-01
-5.60406250e-08,1.86904687e-01
-5.60006250e-08,1.86895313e-01
-5.59606250e-08,1.86904687e-01
-5.59206250e-08,1.86893750e-01
-5.58806250e-08,1.86906250e-01
-5.58406250e-08,1.86892188e-01
-5.58006250e-08,1.86909375e-01
-5.57606250e-08,1.86887500e-01
-5.57206250e-08,1.86917187e-01
-5.56806250e-08,1.86873438e-01
-5.56406250e-08,1.86950000e-01
-5.56006250e-08,1.86696875e-01
-5.55606250e-08,1.86439063e-01
-5.55206250e-08,1.86537500e-01
-5.54806250e-08,1.86470313e-01
-5.54406250e-08,1.86528125e-01
-5.54006250e-08,1.86471875e-01
-5.53606250e-08,1.86531250e-01
-5.53206250e-08,1.86460938e-01
-5.52806250e-08,1.86564063e-01
-5.52406250e-08,1.86282813e-01
-5.52006250e-08,1.86054688e-01
-5.51606250e-08,1.86120312e-01
-5.51206250e-08,1.86090625e-01
-5.50806250e-08,1.86103125e-01
-5.50406250e-08,1.86104688e-01
-5.50006250e-08,1.86084375e-01
-5.49606250e-08,1.86140625e-01
-5.49206250e-08,1.85906250e-01
-5.48806250e-08,1.85631250e-01
-5.48406250e-08,1.85745313e-01
-5.48006250e-08,1.85662500e-01
-5.47606250e-08,1.85734375e-01
-5.47206250e-08,1.85665625e-01
-5.46806250e-08,1.85735938e-01
-5.46406250e-08,1.85654687e-01
-5.46006250e-08,1.85768750e-01
-5.45606250e-08,1.85479688e-01
-5.45206250e-08,1.85257813e-01
-5.44806250e-08,1.85318750e-01
-5.44406250e-08,1.85290625e-01
-5.44006250e-08,1.85304688e-01
-5.43606250e-08,1.85298437e-01
-5.43206250e-08,1.85300000e-01
-5.42806250e-08,1.85301563e-01
-5.42406250e-08,1.85296875e-01
-5.42006250e-08,1.85304688e-01
-5.41606250e-08,1.85293750e-01
-5.41206250e-08,1.85307813e-01
-5.40806250e-08,1.85290625e-01
-5.40406250e-08,1.85310937e-01
-5.40006250e-08,1.85285937e-01
-5.39606250e-08,1.85320313e-01
-5.39206250e-08,1.85270313e-01
-5.38806250e-08,1.85354688e-01
-5.38406250e-08,1.85092188e-01
-5.38006250e-08,1.84845312e-01
-5.37606250e-08,1.84931250e-01
-5.37206250e-08,1.84878125e-01
-5.36806250e-08,1.84915625e-01
-5.36406250e-08,1.84887500e-01
-5.36006250e-08,1.84910938e-01
-5.35606250e-08,1.84890625e-01
-5.35206250e-08,1.84909375e-01
-5.34806250e-08,1.84892187e-01
-5.34406250e-08,1.84907813e-01
-5.34006250e-08,1.84893750e-01
-5.33606250e-08,1.84906250e-01
-5.33206250e-08,1.84893750e-01
-5.32806250e-08,1.84906250e-01
-5.32406250e-08,1.84893750e-01
-5.32006250e-08,1.84906250e-01
-5.31606250e-08,1.84893750e-01
-5.31206250e-08,1.84906250e-01
-5.30806250e-08,1.84893750e-01
-5.30406250e-08,1.84906250e-01
-5.30006250e-08,1.84893750e-01
-5.29606250e-08,1.84906250e-01
-5.29206250e-08,1.84892187e-01
-5.28806250e-08,1.84907813e-01
-5.28406250e-08,1.84892187e-01
-5.28006250e-08,1.84909375e-01
-5.27606250e-08,1.84889063e-01
-5.27206250e-08,1.84912500e-01
-5.26806250e-08,1.84884375e-01
-5.26406250e-08,1.84920313e-01
-5.26006250e-08,1.84868750e-01
-5.25606250e-08,1.84956250e-01
-5.25206250e-08,1.84690625e-01
-5.24806250e-08,1.84446875e-01
-5.24406250e-08,1.84529688e-01
-5.24006250e-08,1.84479688e-01
-5.23606250e-08,1.84515625e-01
-5.23206250e-08,1.84487500e-01
-5.22806250e-08,1.84509375e-01
-5.22406250e-08,1.84492188e-01
-5.22006250e-08,1.84506250e-01
-5.21606250e-08,1.84495313e-01
-5.21206250e-08,1.84503125e-01
-5.20806250e-08,1.84498438e-01
-5.20406250e-08,1.84498438e-01
-5.20006250e-08,1.84504688e-01
-5.19606250e-08,1.84490625e-01
-5.19206250e-08,1.84518750e-01
-5.18806250e-08,1.84456250e-01
-5.18406250e-08,1.84696875e-01
-5.18006250e-08,1.84965625e-01
-5.17606250e-08,1.84857812e-01
-5.17206250e-08,1.84932813e-01
-5.16806250e-08,1.84870312e-01
-5.16406250e-08,1.84926563e-01
-5.16006250e-08,1.84875000e-01
-5.15606250e-08,1.84925000e-01
-5.15206250e-08,1.84875000e-01
-5.14806250e-08,1.84926563e-01
-5.14406250e-08,1.84871875e-01
-5.14006250e-08,1.84931250e-01
-5.13606250e-08,1.84864063e-01
-5.13206250e-08,1.84945313e-01
-5.12806250e-08,1.84829688e-01
-5.12406250e-08,1.85123438e-01
-5.12006250e-08,1.85337500e-01
-5.11606250e-08,1.85287500e-01
-5.11206250e-08,1.85303125e-01
-5.10806250e-08,1.85303125e-01
-5.10406250e-08,1.85290625e-01
-5.10006250e-08,1.85314063e-01
-5.09606250e-08,1.85279688e-01
-5.09206250e-08,1.85331250e-01
-5.08806250e-08,1.85242188e-01
-5.08406250e-08,1.85512500e-01
-5.08006250e-08,1.85750000e-01
-5.07606250e-08,1.85675000e-01
-5.07206250e-08,1.85714062e-01
-5.06806250e-08,1.85692187e-01
-5.06406250e-08,1.85703125e-01
-5.06006250e-08,1.85700000e-01
-5.05606250e-08,1.85696875e-01
-5.05206250e-08,1.85707813e-01
-5.04806250e-08,1.85685938e-01
-5.04406250e-08,1.85725000e-01
-5.04006250e-08,1.85650000e-01
-5.03606250e-08,1.85904687e-01
-5.03206250e-08,1.86157813e-01
-5.02806250e-08,1.86067188e-01
-5.02406250e-08,1.86123438e-01
-5.02006250e-08,1.86081250e-01
-5.01606250e-08,1.86115625e-01
-5.01206250e-08,1.86087500e-01
-5.00806250e-08,1.86110938e-01
-5.00406250e-08,1.86090625e-01
-5.00006250e-08,1.86109375e-01
-4.99606250e-08,1.86092188e-01
-4.99206250e-08,1.86106250e-01
-4.98806250e-08,1.86093750e-01
-4.98406250e-08,1.86106250e-01
-4.98006250e-08,1.86095312e-01
-4.97606250e-08,1.86104688e-01
-4.97206250e-08,1.86095312e-01
-4.96806250e-08,1.86104688e-01
-4.96406250e-08,1.86096875e-01
-4.96006250e-08,1.86103125e-01
-4.95606250e-08,1.86096875e-01
-4.95206250e-08,1.86103125e-01
-4.94806250e-08,1.86096875e-01
-4.94406250e-08,1.86101563e-01
-4.94006250e-08,1.86098438e-01
-4.93606250e-08,1.86101563e-01
-4.93206250e-08,1.86098438e-01
-4.92806250e-08,1.86101563e-01
-4.92406250e-08,1.86098438e-01
-4.92006250e-08,1.86101563e-01
-4.91606250e-08,1.86100000e-01
-4.91206250e-08,1.86100000e-01
-4.90806250e-08,1.86100000e-01
-4.90406250e-08,1.86100000e-01
-4.90006250e-08,1.86100000e-01
-4.89606250e-08,1.86098438e-01
-4.89206250e-08,1.86101563e-01
-4.88806250e-08,1.86098438e-01
-4.88406250e-08,1.86101563e-01
-4.88006250e-08,1.86096875e-01
-4.87606250e-08,1.86103125e-01
-4.87206250e-08,1.86096875e-01
-4.86806250e-08,1.86104688e-01
-4.86406250e-08,1.86093750e-01
-4.86006250e-08,1.86107812e-01
-4.85606250e-08,1.86090625e-01
-4.85206250e-08,1.86112500e-01
-4.84806250e-08,1.86082812e-01
-4.84406250e-08,1.86126563e-01
-4.84006250e-08,1.86048437e-01
-4.83606250e-08,1.86304688e-01
-4.83206250e-08,1.86557813e-01
-4.82806250e-08,1.86465625e-01
-4.82406250e-08,1.86525000e-01
-4.82006250e-08,1.86479688e-01
-4.81606250e-08,1.86517188e-01
-4.81206250e-08,1.86484375e-01
-4.80806250e-08,1.86514062e-01
-4.80406250e-08,1.86485938e-01
-4.80006250e-08,1.86512500e-01
-4.79606250e-08,1.86487500e-01
-4.79206250e-08,1.86512500e-01
-4.78806250e-08,1.86485938e-01
-4.78406250e-08,1.86514062e-01
-4.78006250e-08,1.86482813e-01
-4.77606250e-08,1.86518750e-01
-4.77206250e-08,1.86476562e-01
-4.76806250e-08,1.86532813e-01
-4.76406250e-08,1.86442187e-01
-4.76006250e-08,1.86710938e-01
-4.75606250e-08,1.86951563e-01
-4.75206250e-08,1.86871875e-01
-4.74806250e-08,1.86918750e-01
-4.74406250e-08,1.86885938e-01
-4.74006250e-08,1.86910938e-01
-4.73606250e-08,1.86890625e-01
-4.73206250e-08,1.86907812e-01
-4.72806250e-08,1.86892188e-01
-4.72406250e-08,1.86906250e-01
-4.72006250e-08,1.86893750e-01
-4.71606250e-08,1.86906250e-01
-4.71206250e-08,1.86893750e-01
-4.70806250e-08,1.86906250e-01
-4.70406250e-08,1.86895313e-01
-4.70006250e-08,1.86904687e-01
-4.69606250e-08,1.86895313e-01
-4.69206250e-08,1.86904687e-01
-4.68806250e-08,1.86895313e-01
-4.68406250e-08,1.86906250e-01
-4.68006250e-08,1.86893750e-01
-4.67606250e-08,1.86906250e-01
-4.67206250e-08,1.86893750e-01
-4.66806250e-08,1.86906250e-01
-4.66406250e-08,1.86893750e-01
-4.66006250e-08,1.86907812e-01
-4.65606250e-08,1.86892188e-01
-4.65206250e-08,1.86909375e-01
-4.64806250e-08,1.86889063e-01
-4.64406250e-08,1.86910938e-01
-4.64006250e-08,1.86885938e-01
-4.63606250e-08,1.86917187e-01
-4.63206250e-08,1.86878125e-01
-4.62806250e-08,1.86931250e-01
-4.62406250e-08,1.86843750e-01
-4.62006250e-08,1.87109375e-01
-4.61606250e-08,1.87353125e-01
-4.61206250e-08,1.87271875e-01
-4.60806250e-08,1.87318750e-01
-4.60406250e-08,1.87285937e-01
-4.60006250e-08,1.87310937e-01
-4.59606250e-08,1.87290625e-01
-4.59206250e-08,1.87307813e-01
-4.58806250e-08,1.87293750e-01
-4.58406250e-08,1.87306250e-01
-4.58006250e-08,1.87295313e-01
-4.57606250e-08,1.87304688e-01
-4.57206250e-08,1.87295313e-01
-4.56806250e-08,1.87303125e-01
-4.56406250e-08,1.87296875e-01
-4.56006250e-08,1.87303125e-01
-4.55606250e-08,1.87296875e-01
-4.55206250e-08,1.87303125e-01
-4.54806250e-08,1.87298437e-01
-4.54406250e-08,1.87301563e-01
-4.54006250e-08,1.87298437e-01
-4.53606250e-08,1.87301563e-01
-4.53206250e-08,1.87298437e-01
-4.52806250e-08,1.87301563e-01
-4.52406250e-08,1.87298437e-01
-4.52006250e-08,1.87301563e-01
-4.51606250e-08,1.87300000e-01
-4.51206250e-08,1.87300000e-01
-4.50806250e-08,1.87300000e-01
-4.50406250e-08,1.87300000e-01
-4.50006250e-08,1.87300000e-01
-4.49606250e-08,1.87300000e-01
-4.49206250e-08,1.87300000e-01
-4.48806250e-08,1.87300000e-01
-4.48406250e-08,1.87300000e-01
-4.48006250e-08,1.87300000e-01
-4.47606250e-08,1.87300000e-01
-4.47206250e-08,1.87300000e-01
-4.46806250e-08,1.87300000e-01
-4.46406250e-08,1.87298437e-01
-4.46006250e-08,1.87301563e-01
-4.45606250e-08,1.87298437e-01
-4.45206250e-08,1.87301563e-01
-4.44806250e-08,1.87298437e-01
-4.44406250e-08,1.87301563e-01
-4.44006250e-08,1.87298437e-01
-4.43606250e-08,1.87301563e-01
-4.43206250e-08,1.87298437e-01
-4.42806250e-08,1.87301563e-01
-4.42406250e-08,1.87298437e-01
-4.42006250e-08,1.87301563e-01
-4.41606250e-08,1.87298437e-01
-4.41206250e-08,1.87303125e-01
-4.40806250e-08,1.87296875e-01
-4.40406250e-08,1.87303125e-01
-4.40006250e-08,1.87296875e-01
-4.39606250e-08,1.87303125e-01
-4.39206250e-08,1.87296875e-01
-4.38806250e-08,1.87303125e-01
-4.38406250e-08,1.87296875e-01
-4.38006250e-08,1.87304688e-01
-4.37606250e-08,1.87295313e-01
-4.37206250e-08,1.87304688e-01
-4.36806250e-08,1.87295313e-01
-4.36406250e-08,1.87304688e-01
-4.36006250e-08,1.87295313e-01
-4.35606250e-08,1.87306250e-01
-4.35206250e-08,1.87293750e-01
-4.34806250e-08,1.87306250e-01
-4.34406250e-08,1.87293750e-01
-4.34006250e-08,1.87307813e-01
-4.33606250e-08,1.87292188e-01
-4.33206250e-08,1.87309375e-01
-4.32806250e-08,1.87290625e-01
-4.32406250e-08,1.87310937e-01
-4.32006250e-08,1.87289063e-01
-4.31606250e-08,1.87312500e-01
-4.31206250e-08,1.87285937e-01
-4.30806250e-08,1.87317188e-01
-4.30406250e-08,1.87279688e-01
-4.30006250e-08,1.87326563e-01
-4.29606250e-08,1.87264062e-01
-4.29206250e-08,1.87360938e-01
-4.28806250e-08,1.87084375e-01
-4.28406250e-08,1.86853125e-01
-4.28006250e-08,1.86921875e-01
-4.27606250e-08,1.86889063e-01
-4.27206250e-08,1.86904687e-01
-4.26806250e-08,1.86900000e-01
-4.26406250e-08,1.86895313e-01
-4.26006250e-08,1.86910938e-01
-4.25606250e-08,1.86878125e-01
-4.25206250e-08,1.86946875e-01
-4.24806250e-08,1.86698438e-01
-4.24406250e-08,1.86437500e-01
-4.24006250e-08,1.86539063e-01
-4.23606250e-08,1.86468750e-01
-4.23206250e-08,1.86529688e-01
-4.22806250e-08,1.86464062e-01
-4.22406250e-08,1.86556250e-01
-4.22006250e-08,1.86293750e-01
-4.21606250e-08,1.86040625e-01
-4.21206250e-08,1.86139063e-01
-4.20806250e-08,1.86065625e-01
-4.20406250e-08,1.86135938e-01
-4.20006250e-08,1.86054688e-01
-4.19606250e-08,1.86168750e-01
-4.19206250e-08,1.85876563e-01
-4.18806250e-08,1.85662500e-01
-4.18406250e-08,1.85710938e-01
-4.18006250e-08,1.85704688e-01
-4.17606250e-08,1.85681250e-01
-4.17206250e-08,1.85748438e-01
-4.16806250e-08,1.85496875e-01
-4.16406250e-08,1.85243750e-01
-4.16006250e-08,1.85329688e-01
-4.15606250e-08,1.85282813e-01
-4.15206250e-08,1.85309375e-01
-4.14806250e-08,1.85300000e-01
-4.14406250e-08,1.85287500e-01
-4.14006250e-08,1.85339063e-01
-4.13606250e-08,1.85106250e-01
-4.13206250e-08,1.84832812e-01
-4.12806250e-08,1.84942188e-01
-4.12406250e-08,1.84867188e-01
-4.12006250e-08,1.84926563e-01
-4.11606250e-08,1.84876563e-01
-4.11206250e-08,1.84920313e-01
-4.10806250e-08,1.84881250e-01
-4.10406250e-08,1.84917187e-01
-4.10006250e-08,1.84884375e-01
-4.09606250e-08,1.84914063e-01
-4.09206250e-08,1.84887500e-01
-4.08806250e-08,1.84912500e-01
-4.08406250e-08,1.84889063e-01
-4.08006250e-08,1.84910938e-01
-4.07606250e-08,1.84890625e-01
-4.07206250e-08,1.84909375e-01
-4.06806250e-08,1.84892187e-01
-4.06406250e-08,1.84907813e-01
-4.06006250e-08,1.84893750e-01
-4.05606250e-08,1.84906250e-01
-4.05206250e-08,1.84895313e-01
-4.04806250e-08,1.84904687e-01
-4.04406250e-08,1.84896875e-01
-4.04006250e-08,1.84901563e-01
-4.03606250e-08,1.84900000e-01
-4.03206250e-08,1.84898438e-01
-4.02806250e-08,1.84904687e-01
-4.02406250e-08,1.84889063e-01
-4.02006250e-08,1.84920313e-01
-4.01606250e-08,1.84854688e-01
-4.01206250e-08,1.85098438e-01
-4.00806250e-08,1.85364063e-01
-4.00406250e-08,1.85260938e-01
-4.00006250e-08,1.85329688e-01
-3.99606250e-08,1.85275000e-01
-3.99206250e-08,1.85321875e-01
-3.98806250e-08,1.85279688e-01
-3.98406250e-08,1.85318750e-01
-3.98006250e-08,1.85282813e-01
-3.97606250e-08,1.85315625e-01
-3.97206250e-08,1.85284375e-01
-3.96806250e-08,1.85314063e-01
-3.96406250e-08,1.85285937e-01
-3.96006250e-08,1.85314063e-01
-3.95606250e-08,1.85285937e-01
-3.95206250e-08,1.85312500e-01
-3.94806250e-08,1.85287500e-01
-3.94406250e-08,1.85312500e-01
-3.94006250e-08,1.85287500e-01
-3.93606250e-08,1.85312500e-01
-3.93206250e-08,1.85287500e-01
-3.92806250e-08,1.85312500e-01
-3.92406250e-08,1.85289063e-01
-3.92006250e-08,1.85310937e-01
-3.91606250e-08,1.85289063e-01
-3.91206250e-08,1.85310937e-01
-3.90806250e-08,1.85289063e-01
-3.90406250e-08,1.85310937e-01
-3.90006250e-08,1.85289063e-01
-3.89606250e-08,1.85310937e-01
-3.89206250e-08,1.85289063e-01
-3.88806250e-08,1.85310937e-01
-3.88406250e-08,1.85289063e-01
-3.88006250e-08,1.85310937e-01
-3.87606250e-08,1.85289063e-01
-3.87206250e-08,1.85310937e-01
-3.86806250e-08,1.85289063e-01
-3.86406250e-08,1.85310937e-01
-3.86006250e-08,1.85289063e-01
-3.85606250e-08,1.85310937e-01
-3.85206250e-08,1.85289063e-01
