trails/0bdfa5e45fec98341abdd20552c140b4/aes_ch1_20250507114441313.csv

Model,MSO66B
Label,
Waveform Type,ANALOG
Horizontal Units,s
Sample Interval,4.00000000e-11
Record Length,10000
Zero Index,1599.05859375
Vertical Units,A
ANALOG_Thumbnail,
yOffset,1.84500000e-01
yPosition,8.40000000e-01

Labels,
TIME,CH1
-6.39623437e-08,1.96882813e-01
-6.39223437e-08,1.96915625e-01
-6.38823437e-08,1.96885937e-01
-6.38423437e-08,1.96912500e-01
-6.38023437e-08,1.96887500e-01
-6.37623438e-08,1.96912500e-01
-6.37223437e-08,1.96887500e-01
-6.36823437e-08,1.96914063e-01
-6.36423437e-08,1.96884375e-01
-6.36023437e-08,1.96917188e-01
-6.35623437e-08,1.96878125e-01
-6.35223437e-08,1.96931250e-01
-6.34823438e-08,1.96843750e-01
-6.34423437e-08,1.97107813e-01
-6.34023437e-08,1.97354688e-01
-6.33623437e-08,1.97268750e-01
-6.33223437e-08,1.97323438e-01
-6.32823438e-08,1.97281250e-01
-6.32423437e-08,1.97317188e-01
-6.32023438e-08,1.97282813e-01
-6.31623437e-08,1.97318750e-01
-6.31223437e-08,1.97276563e-01
-6.30823437e-08,1.97331250e-01
-6.30423437e-08,1.97243750e-01
-6.30023438e-08,1.97507813e-01
-6.29623437e-08,1.97756250e-01
-6.29223438e-08,1.97667188e-01
-6.28823437e-08,1.97725000e-01
-6.28423437e-08,1.97678125e-01
-6.28023437e-08,1.97721875e-01
-6.27623437e-08,1.97675000e-01
-6.27223438e-08,1.97732813e-01
-6.26823437e-08,1.97643750e-01
-6.26423438e-08,1.97907813e-01
-6.26023437e-08,1.98154688e-01
-6.25623437e-08,1.98067188e-01
-6.25223437e-08,1.98123437e-01
-6.24823437e-08,1.98079688e-01
-6.24423438e-08,1.98118750e-01
-6.24023437e-08,1.98082813e-01
-6.23623438e-08,1.98117188e-01
-6.23223437e-08,1.98082813e-01
-6.22823437e-08,1.98118750e-01
-6.22423437e-08,1.98078125e-01
-6.22023437e-08,1.98125000e-01
-6.21623438e-08,1.98070313e-01
-6.21223437e-08,1.98140625e-01
-6.20823438e-08,1.98032813e-01
-6.20423437e-08,1.98321875e-01
-6.20023437e-08,1.98537500e-01
-6.19623437e-08,1.98492188e-01
-6.19223437e-08,1.98489063e-01
-6.18823438e-08,1.98540625e-01
-6.18423437e-08,1.98303125e-01
-6.18023438e-08,1.98037500e-01
-6.17623437e-08,1.98137500e-01
-6.17223437e-08,1.98073438e-01
-6.16823437e-08,1.98120313e-01
-6.16423437e-08,1.98082813e-01
-6.16023438e-08,1.98114063e-01
-6.15623437e-08,1.98089062e-01
-6.15223438e-08,1.98109375e-01
-6.14823437e-08,1.98092188e-01
-6.14423437e-08,1.98106250e-01
-6.14023437e-08,1.98095313e-01
-6.13623437e-08,1.98101562e-01
-6.13223438e-08,1.98100000e-01
-6.12823437e-08,1.98095313e-01
-6.12423437e-08,1.98109375e-01
-6.12023437e-08,1.98081250e-01
-6.11623437e-08,1.98145313e-01
-6.11223437e-08,1.97901563e-01
-6.10823437e-08,1.97635937e-01
-6.10423438e-08,1.97740625e-01
-6.10023437e-08,1.97668750e-01
-6.09623437e-08,1.97725000e-01
-6.09223437e-08,1.97678125e-01
-6.08823437e-08,1.97720312e-01
-6.08423437e-08,1.97681250e-01
-6.08023437e-08,1.97718750e-01
-6.07623438e-08,1.97682812e-01
-6.07223437e-08,1.97717188e-01
-6.06823437e-08,1.97682812e-01
-6.06423437e-08,1.97717188e-01
-6.06023437e-08,1.97682812e-01
-6.05623437e-08,1.97717188e-01
-6.05223437e-08,1.97682812e-01
-6.04823438e-08,1.97718750e-01
-6.04423437e-08,1.97679688e-01
-6.04023437e-08,1.97721875e-01
-6.03623437e-08,1.97673437e-01
-6.03223437e-08,1.97735938e-01
-6.02823437e-08,1.97639063e-01
-6.02423437e-08,1.97912500e-01
-6.02023438e-08,1.98150000e-01
-6.01623437e-08,1.98071875e-01
-6.01223437e-08,1.98118750e-01
-6.00823437e-08,1.98084375e-01
-6.00423437e-08,1.98115625e-01
-6.00023437e-08,1.98081250e-01
-5.99623437e-08,1.98126563e-01
-5.99223438e-08,1.98050000e-01
-5.98823437e-08,1.98301563e-01
-5.98423437e-08,1.98562500e-01
-5.98023437e-08,1.98457812e-01
-5.97623437e-08,1.98535938e-01
-5.97223437e-08,1.98464063e-01
-5.96823437e-08,1.98542188e-01
-5.96423438e-08,1.98435937e-01
-5.96023437e-08,1.98715625e-01
-5.95623437e-08,1.98948438e-01
-5.95223437e-08,1.98873437e-01
-5.94823437e-08,1.98918750e-01
-5.94423437e-08,1.98884375e-01
-5.94023437e-08,1.98917188e-01
-5.93623437e-08,1.98879688e-01
-5.93223437e-08,1.98928125e-01
-5.92823437e-08,1.98848438e-01
-5.92423437e-08,1.99104688e-01
-5.92023437e-08,1.99359375e-01
-5.91623437e-08,1.99264063e-01
-5.91223437e-08,1.99326562e-01
-5.90823437e-08,1.99278125e-01
-5.90423437e-08,1.99320313e-01
-5.90023437e-08,1.99281250e-01
-5.89623437e-08,1.99317187e-01
-5.89223437e-08,1.99282813e-01
-5.88823437e-08,1.99317187e-01
-5.88423437e-08,1.99282813e-01
-5.88023437e-08,1.99317187e-01
-5.87623437e-08,1.99281250e-01
-5.87223437e-08,1.99318750e-01
-5.86823437e-08,1.99279687e-01
-5.86423437e-08,1.99323438e-01
-5.86023437e-08,1.99273438e-01
-5.85623437e-08,1.99331250e-01
-5.85223437e-08,1.99259375e-01
-5.84823437e-08,1.99365625e-01
-5.84423437e-08,1.99079688e-01
-5.84023437e-08,1.98859375e-01
-5.83623437e-08,1.98917188e-01
-5.83223437e-08,1.98895313e-01
-5.82823437e-08,1.98898437e-01
-5.82423437e-08,1.98909375e-01
-5.82023437e-08,1.98879688e-01
-5.81623437e-08,1.98945312e-01
-5.81223437e-08,1.98701563e-01
-5.80823437e-08,1.98435937e-01
-5.80423437e-08,1.98542188e-01
-5.80023437e-08,1.98465625e-01
-5.79623437e-08,1.98534375e-01
-5.79223437e-08,1.98459375e-01
-5.78823437e-08,1.98564062e-01
-5.78423437e-08,1.98284375e-01
-5.78023437e-08,1.98053125e-01
-5.77623437e-08,1.98121875e-01
-5.77223437e-08,1.98090625e-01
-5.76823437e-08,1.98096875e-01
-5.76423437e-08,1.98128125e-01
-5.76023437e-08,1.97918750e-01
-5.75623437e-08,1.97615625e-01
-5.75223437e-08,1.97765625e-01
-5.74823437e-08,1.97632813e-01
-5.74423437e-08,1.97787500e-01
-5.74023437e-08,1.97460938e-01
-5.73623437e-08,1.97276563e-01
-5.73223437e-08,1.97296875e-01
-5.72823437e-08,1.97317188e-01
-5.72423437e-08,1.97268750e-01
-5.72023437e-08,1.97359375e-01
-5.71623437e-08,1.97085938e-01
-5.71223437e-08,1.96854688e-01
-5.70823437e-08,1.96920312e-01
-5.70423437e-08,1.96892188e-01
-5.70023437e-08,1.96900000e-01
-5.69623437e-08,1.96909375e-01
-5.69223437e-08,1.96879688e-01
-5.68823437e-08,1.96946875e-01
-5.68423437e-08,1.96698438e-01
-5.68023437e-08,1.96440625e-01
-5.67623437e-08,1.96534375e-01
-5.67223437e-08,1.96475000e-01
-5.66823437e-08,1.96518750e-01
-5.66423437e-08,1.96484375e-01
-5.66023437e-08,1.96512500e-01
-5.65623437e-08,1.96489063e-01
-5.65223437e-08,1.96509375e-01
-5.64823437e-08,1.96492187e-01
-5.64423437e-08,1.96506250e-01
-5.64023437e-08,1.96493750e-01
-5.63623437e-08,1.96504687e-01
-5.63223437e-08,1.96495313e-01
-5.62823437e-08,1.96503125e-01
-5.62423437e-08,1.96496875e-01
-5.62023437e-08,1.96501563e-01
-5.61623437e-08,1.96498438e-01
-5.61223437e-08,1.96500000e-01
-5.60823437e-08,1.96500000e-01
-5.60423437e-08,1.96498438e-01
-5.60023437e-08,1.96503125e-01
-5.59623437e-08,1.96495313e-01
-5.59223437e-08,1.96507813e-01
-5.58823437e-08,1.96487500e-01
-5.58423437e-08,1.96523438e-01
-5.58023437e-08,1.96453125e-01
-5.57623437e-08,1.96700000e-01
-5.57223437e-08,1.96962500e-01
-5.56823437e-08,1.96860937e-01
-5.56423437e-08,1.96931250e-01
-5.56023437e-08,1.96873437e-01
-5.55623437e-08,1.96925000e-01
-5.55223437e-08,1.96875000e-01
-5.54823437e-08,1.96926563e-01
-5.54423437e-08,1.96870313e-01
-5.54023437e-08,1.96939063e-01
-5.53623437e-08,1.96837500e-01
-5.53223437e-08,1.97115625e-01
-5.52823437e-08,1.97346875e-01
-5.52423437e-08,1.97276563e-01
-5.52023437e-08,1.97315625e-01
-5.51623437e-08,1.97289063e-01
-5.51223437e-08,1.97307813e-01
-5.50823437e-08,1.97293750e-01
-5.50423437e-08,1.97304688e-01
-5.50023437e-08,1.97296875e-01
-5.49623437e-08,1.97303125e-01
-5.49223437e-08,1.97296875e-01
-5.48823437e-08,1.97303125e-01
-5.48423437e-08,1.97298438e-01
-5.48023437e-08,1.97301562e-01
-5.47623437e-08,1.97298438e-01
-5.47223437e-08,1.97301562e-01
-5.46823437e-08,1.97298438e-01
-5.46423437e-08,1.97301562e-01
-5.46023437e-08,1.97298438e-01
-5.45623437e-08,1.97301562e-01
-5.45223437e-08,1.97298438e-01
-5.44823437e-08,1.97301562e-01
-5.44423437e-08,1.97298438e-01
-5.44023437e-08,1.97301562e-01
-5.43623437e-08,1.97298438e-01
-5.43223437e-08,1.97301562e-01
-5.42823437e-08,1.97298438e-01
-5.42423437e-08,1.97301562e-01
-5.42023437e-08,1.97298438e-01
-5.41623437e-08,1.97301562e-01
-5.41223437e-08,1.97298438e-01
-5.40823437e-08,1.97301562e-01
-5.40423437e-08,1.97298438e-01
-5.40023437e-08,1.97301562e-01
-5.39623437e-08,1.97298438e-01
-5.39223437e-08,1.97301562e-01
-5.38823437e-08,1.97298438e-01
-5.38423437e-08,1.97301562e-01
-5.38023437e-08,1.97298438e-01
-5.37623437e-08,1.97301562e-01
-5.37223437e-08,1.97298438e-01
-5.36823437e-08,1.97301562e-01
-5.36423437e-08,1.97298438e-01
-5.36023437e-08,1.97301562e-01
-5.35623437e-08,1.97298438e-01
-5.35223437e-08,1.97301562e-01
-5.34823437e-08,1.97298438e-01
-5.34423437e-08,1.97301562e-01
-5.34023437e-08,1.97298438e-01
-5.33623437e-08,1.97303125e-01
-5.33223437e-08,1.97296875e-01
-5.32823437e-08,1.97303125e-01
-5.32423437e-08,1.97296875e-01
-5.32023437e-08,1.97303125e-01
-5.31623437e-08,1.97296875e-01
-5.31223437e-08,1.97303125e-01
-5.30823437e-08,1.97296875e-01
-5.30423437e-08,1.97304688e-01
-5.30023437e-08,1.97295313e-01
-5.29623437e-08,1.97304688e-01
-5.29223437e-08,1.97295313e-01
-5.28823437e-08,1.97306250e-01
-5.28423437e-08,1.97293750e-01
-5.28023437e-08,1.97306250e-01
-5.27623437e-08,1.97292187e-01
-5.27223437e-08,1.97309375e-01
-5.26823437e-08,1.97289063e-01
-5.26423437e-08,1.97312500e-01
-5.26023437e-08,1.97284375e-01
-5.25623437e-08,1.97320313e-01
-5.25223437e-08,1.97270313e-01
-5.24823437e-08,1.97354688e-01
-5.24423437e-08,1.97092188e-01
-5.24023437e-08,1.96846875e-01
-5.23623437e-08,1.96929688e-01
-5.23223437e-08,1.96879688e-01
-5.22823437e-08,1.96915625e-01
-5.22423437e-08,1.96887500e-01
-5.22023437e-08,1.96910937e-01
-5.21623437e-08,1.96890625e-01
-5.21223437e-08,1.96907813e-01
-5.20823437e-08,1.96893750e-01
-5.20423437e-08,1.96906250e-01
-5.20023437e-08,1.96895313e-01
-5.19623437e-08,1.96904688e-01
-5.19223437e-08,1.96896875e-01
-5.18823437e-08,1.96903125e-01
-5.18423437e-08,1.96896875e-01
-5.18023437e-08,1.96901563e-01
-5.17623438e-08,1.96898438e-01
-5.17223437e-08,1.96901563e-01
-5.16823437e-08,1.96900000e-01
-5.16423437e-08,1.96900000e-01
-5.16023437e-08,1.96901563e-01
-5.15623437e-08,1.96898438e-01
-5.15223437e-08,1.96903125e-01
-5.14823437e-08,1.96893750e-01
-5.14423437e-08,1.96907813e-01
-5.14023437e-08,1.96885937e-01
-5.13623437e-08,1.96923438e-01
-5.13223437e-08,1.96853125e-01
-5.12823437e-08,1.97100000e-01
-5.12423437e-08,1.97362500e-01
-5.12023437e-08,1.97260938e-01
-5.11623437e-08,1.97329688e-01
-5.11223437e-08,1.97275000e-01
-5.10823437e-08,1.97323438e-01
-5.10423437e-08,1.97278125e-01
-5.10023437e-08,1.97321875e-01
-5.09623437e-08,1.97276563e-01
-5.09223437e-08,1.97325000e-01
-5.08823437e-08,1.97270313e-01
-5.08423437e-08,1.97339062e-01
-5.08023437e-08,1.97235938e-01
-5.07623437e-08,1.97515625e-01
-5.07223437e-08,1.97746875e-01
-5.06823437e-08,1.97676563e-01
-5.06423437e-08,1.97714063e-01
-5.06023437e-08,1.97690625e-01
-5.05623437e-08,1.97706250e-01
-5.05223437e-08,1.97695312e-01
-5.04823437e-08,1.97703125e-01
-5.04423437e-08,1.97698438e-01
-5.04023437e-08,1.97701563e-01
-5.03623437e-08,1.97700000e-01
-5.03223437e-08,1.97700000e-01
-5.02823437e-08,1.97701563e-01
-5.02423437e-08,1.97698438e-01
-5.02023437e-08,1.97701563e-01
-5.01623437e-08,1.97698438e-01
-5.01223437e-08,1.97701563e-01
-5.00823437e-08,1.97696875e-01
-5.00423437e-08,1.97703125e-01
-5.00023437e-08,1.97696875e-01
-4.99623437e-08,1.97703125e-01
-4.99223437e-08,1.97695312e-01
-4.98823437e-08,1.97704688e-01
-4.98423438e-08,1.97695312e-01
-4.98023437e-08,1.97706250e-01
-4.97623437e-08,1.97693750e-01
-4.97223437e-08,1.97706250e-01
-4.96823437e-08,1.97692188e-01
-4.96423437e-08,1.97709375e-01
-4.96023437e-08,1.97689063e-01
-4.95623438e-08,1.97712500e-01
-4.95223437e-08,1.97684375e-01
-4.94823437e-08,1.97720312e-01
-4.94423437e-08,1.97668750e-01
-4.94023437e-08,1.97754687e-01
-4.93623437e-08,1.97490625e-01
-4.93223437e-08,1.97246875e-01
-4.92823437e-08,1.97329688e-01
-4.92423437e-08,1.97279688e-01
-4.92023437e-08,1.97315625e-01
-4.91623437e-08,1.97287500e-01
-4.91223437e-08,1.97310938e-01
-4.90823437e-08,1.97290625e-01
-4.90423437e-08,1.97307813e-01
-4.90023437e-08,1.97293750e-01
-4.89623437e-08,1.97306250e-01
-4.89223437e-08,1.97295313e-01
-4.88823437e-08,1.97304688e-01
-4.88423437e-08,1.97295313e-01
-4.88023437e-08,1.97303125e-01
-4.87623437e-08,1.97296875e-01
-4.87223437e-08,1.97303125e-01
-4.86823437e-08,1.97296875e-01
-4.86423437e-08,1.97303125e-01
-4.86023437e-08,1.97298438e-01
-4.85623437e-08,1.97301562e-01
-4.85223437e-08,1.97298438e-01
-4.84823437e-08,1.97301562e-01
-4.84423437e-08,1.97300000e-01
-4.84023437e-08,1.97300000e-01
-4.83623437e-08,1.97300000e-01
-4.83223437e-08,1.97300000e-01
-4.82823437e-08,1.97301562e-01
-4.82423437e-08,1.97298438e-01
-4.82023437e-08,1.97303125e-01
-4.81623437e-08,1.97296875e-01
-4.81223437e-08,1.97304688e-01
-4.80823437e-08,1.97292187e-01
-4.80423437e-08,1.97310938e-01
-4.80023437e-08,1.97284375e-01
-4.79623437e-08,1.97325000e-01
-4.79223438e-08,1.97250000e-01
-4.78823437e-08,1.97501563e-01
-4.78423437e-08,1.97760938e-01
-4.78023437e-08,1.97664063e-01
-4.77623437e-08,1.97728125e-01
-4.77223437e-08,1.97676563e-01
-4.76823437e-08,1.97720312e-01
-4.76423438e-08,1.97681250e-01
-4.76023437e-08,1.97718750e-01
-4.75623437e-08,1.97681250e-01
-4.75223437e-08,1.97718750e-01
-4.74823437e-08,1.97679688e-01
-4.74423437e-08,1.97721875e-01
-4.74023437e-08,1.97673437e-01
-4.73623438e-08,1.97735938e-01
-4.73223437e-08,1.97639063e-01
-4.72823437e-08,1.97912500e-01
-4.72423437e-08,1.98150000e-01
-4.72023437e-08,1.98073438e-01
-4.71623437e-08,1.98117188e-01
-4.71223437e-08,1.98085938e-01
-4.70823437e-08,1.98110938e-01
-4.70423437e-08,1.98090625e-01
-4.70023437e-08,1.98109375e-01
-4.69623437e-08,1.98090625e-01
-4.69223437e-08,1.98109375e-01
-4.68823437e-08,1.98089062e-01
-4.68423437e-08,1.98114063e-01
-4.68023437e-08,1.98081250e-01
-4.67623437e-08,1.98126563e-01
-4.67223437e-08,1.98048438e-01
-4.66823437e-08,1.98304688e-01
-4.66423437e-08,1.98557813e-01
-4.66023437e-08,1.98465625e-01
-4.65623437e-08,1.98526563e-01
-4.65223437e-08,1.98478125e-01
-4.64823437e-08,1.98518750e-01
-4.64423437e-08,1.98482812e-01
-4.64023437e-08,1.98515625e-01
-4.63623437e-08,1.98484375e-01
-4.63223437e-08,1.98515625e-01
-4.62823438e-08,1.98484375e-01
-4.62423437e-08,1.98515625e-01
-4.62023437e-08,1.98484375e-01
-4.61623437e-08,1.98515625e-01
-4.61223437e-08,1.98482812e-01
-4.60823437e-08,1.98518750e-01
-4.60423437e-08,1.98479688e-01
-4.60023438e-08,1.98523438e-01
-4.59623437e-08,1.98471875e-01
-4.59223437e-08,1.98537500e-01
-4.58823437e-08,1.98437500e-01
-4.58423437e-08,1.98715625e-01
-4.58023437e-08,1.98946875e-01
-4.57623437e-08,1.98878125e-01
-4.57223438e-08,1.98912500e-01
-4.56823437e-08,1.98892188e-01
-4.56423437e-08,1.98904688e-01
-4.56023437e-08,1.98896875e-01
-4.55623437e-08,1.98900000e-01
-4.55223437e-08,1.98900000e-01
-4.54823437e-08,1.98898437e-01
-4.54423438e-08,1.98903125e-01
-4.54023437e-08,1.98895313e-01
-4.53623437e-08,1.98904688e-01
-4.53223437e-08,1.98893750e-01
-4.52823437e-08,1.98906250e-01
-4.52423437e-08,1.98892188e-01
-4.52023437e-08,1.98909375e-01
-4.51623438e-08,1.98889063e-01
-4.51223437e-08,1.98914063e-01
-4.50823437e-08,1.98882813e-01
-4.50423437e-08,1.98921875e-01
-4.50023437e-08,1.98867188e-01
-4.49623437e-08,1.98957812e-01
-4.49223437e-08,1.98689063e-01
-4.48823437e-08,1.98448438e-01
-4.48423437e-08,1.98526563e-01
-4.48023437e-08,1.98482812e-01
-4.47623437e-08,1.98512500e-01
-4.47223437e-08,1.98490625e-01
-4.46823437e-08,1.98506250e-01
-4.46423437e-08,1.98495313e-01
-4.46023437e-08,1.98503125e-01
-4.45623437e-08,1.98498438e-01
-4.45223437e-08,1.98501563e-01
-4.44823437e-08,1.98500000e-01
-4.44423437e-08,1.98498438e-01
-4.44023437e-08,1.98501563e-01
-4.43623438e-08,1.98496875e-01
-4.43223437e-08,1.98504687e-01
-4.42823437e-08,1.98493750e-01
-4.42423437e-08,1.98506250e-01
-4.42023437e-08,1.98490625e-01
-4.41623437e-08,1.98510938e-01
-4.41223437e-08,1.98485938e-01
-4.40823438e-08,1.98520313e-01
-4.40423437e-08,1.98470312e-01
-4.40023437e-08,1.98554687e-01
-4.39623437e-08,1.98290625e-01
-4.39223437e-08,1.98046875e-01
-4.38823437e-08,1.98128125e-01
-4.38423437e-08,1.98081250e-01
-4.38023438e-08,1.98114063e-01
-4.37623437e-08,1.98090625e-01
-4.37223437e-08,1.98106250e-01
-4.36823437e-08,1.98095313e-01
-4.36423437e-08,1.98103125e-01
-4.36023437e-08,1.98100000e-01
-4.35623437e-08,1.98098438e-01
-4.35223438e-08,1.98104688e-01
-4.34823437e-08,1.98092188e-01
-4.34423437e-08,1.98114063e-01
-4.34023437e-08,1.98076562e-01
-4.33623437e-08,1.98148437e-01
-4.33223437e-08,1.97898437e-01
-4.32823437e-08,1.97640625e-01
-4.32423438e-08,1.97735938e-01
-4.32023437e-08,1.97673437e-01
-4.31623437e-08,1.97720312e-01
-4.31223437e-08,1.97682812e-01
-4.30823437e-08,1.97715625e-01
-4.30423437e-08,1.97685938e-01
-4.30023437e-08,1.97712500e-01
-4.29623437e-08,1.97689063e-01
-4.29223437e-08,1.97710938e-01
-4.28823437e-08,1.97690625e-01
-4.28423437e-08,1.97709375e-01
-4.28023437e-08,1.97692188e-01
-4.27623437e-08,1.97707812e-01
-4.27223437e-08,1.97692188e-01
-4.26823437e-08,1.97707812e-01
-4.26423437e-08,1.97693750e-01
-4.26023437e-08,1.97706250e-01
-4.25623437e-08,1.97693750e-01
-4.25223437e-08,1.97706250e-01
-4.24823437e-08,1.97693750e-01
-4.24423438e-08,1.97706250e-01
-4.24023437e-08,1.97695312e-01
-4.23623437e-08,1.97704688e-01
-4.23223437e-08,1.97695312e-01
-4.22823437e-08,1.97704688e-01
-4.22423437e-08,1.97695312e-01
-4.22023437e-08,1.97704688e-01
-4.21623438e-08,1.97695312e-01
-4.21223437e-08,1.97703125e-01
-4.20823437e-08,1.97696875e-01
-4.20423437e-08,1.97703125e-01
-4.20023437e-08,1.97696875e-01
-4.19623437e-08,1.97703125e-01
-4.19223437e-08,1.97696875e-01
-4.18823438e-08,1.97701563e-01
-4.18423437e-08,1.97698438e-01
-4.18023437e-08,1.97701563e-01
-4.17623437e-08,1.97698438e-01
-4.17223437e-08,1.97700000e-01
-4.16823437e-08,1.97700000e-01
-4.16423437e-08,1.97700000e-01
-4.16023438e-08,1.97701563e-01
-4.15623437e-08,1.97698438e-01
-4.15223437e-08,1.97703125e-01
-4.14823437e-08,1.97695312e-01
-4.14423437e-08,1.97706250e-01
-4.14023437e-08,1.97690625e-01
-4.13623437e-08,1.97715625e-01
-4.13223438e-08,1.97675000e-01
-4.12823437e-08,1.97750000e-01
-4.12423437e-08,1.97496875e-01
-4.12023437e-08,1.97240625e-01
-4.11623437e-08,1.97335938e-01
-4.11223437e-08,1.97273438e-01
-4.10823437e-08,1.97321875e-01
-4.10423438e-08,1.97281250e-01
-4.10023437e-08,1.97315625e-01
-4.09623437e-08,1.97285938e-01
-4.09223437e-08,1.97314062e-01
-4.08823437e-08,1.97287500e-01
-4.08423437e-08,1.97312500e-01
-4.08023437e-08,1.97289063e-01
-4.07623437e-08,1.97310938e-01
-4.07223437e-08,1.97289063e-01
-4.06823437e-08,1.97310938e-01
-4.06423437e-08,1.97289063e-01
-4.06023437e-08,1.97309375e-01
-4.05623437e-08,1.97290625e-01
-4.05223438e-08,1.97309375e-01
-4.04823437e-08,1.97290625e-01
-4.04423437e-08,1.97309375e-01
-4.04023437e-08,1.97290625e-01
-4.03623437e-08,1.97309375e-01
-4.03223437e-08,1.97290625e-01
-4.02823437e-08,1.97309375e-01
-4.02423438e-08,1.97290625e-01
-4.02023437e-08,1.97309375e-01
-4.01623437e-08,1.97290625e-01
-4.01223437e-08,1.97309375e-01
-4.00823437e-08,1.97290625e-01
-4.00423437e-08,1.97309375e-01
-4.00023437e-08,1.97289063e-01
-3.99623438e-08,1.97310938e-01
-3.99223437e-08,1.97289063e-01
-3.98823437e-08,1.97310938e-01
-3.98423437e-08,1.97287500e-01
-3.98023437e-08,1.97312500e-01
-3.97623437e-08,1.97285938e-01
-3.97223437e-08,1.97315625e-01
-3.96823438e-08,1.97282813e-01
-3.96423437e-08,1.97320313e-01
-3.96023437e-08,1.97275000e-01
-3.95623437e-08,1.97334375e-01
-3.95223437e-08,1.97240625e-01
-3.94823437e-08,1.97510938e-01
-3.94423437e-08,1.97751563e-01
-3.94023438e-08,1.97671875e-01
-3.93623437e-08,1.97718750e-01
-3.93223437e-08,1.97684375e-01
-3.92823437e-08,1.97714063e-01
-3.92423437e-08,1.97687500e-01
-3.92023437e-08,1.97714063e-01
-3.91623437e-08,1.97681250e-01
-3.91223438e-08,1.97726563e-01
-3.90823437e-08,1.97650000e-01
-3.90423437e-08,1.97903125e-01
-3.90023437e-08,1.98160938e-01
-3.89623437e-08,1.98062500e-01
-3.89223437e-08,1.98129688e-01
-3.88823437e-08,1.98075000e-01
-3.88423438e-08,1.98123437e-01
-3.88023437e-08,1.98076562e-01
-3.87623437e-08,1.98123437e-01
-3.87223437e-08,1.98075000e-01
-3.86823437e-08,1.98128125e-01
-3.86423437e-08,1.98067188e-01
-3.86023438e-08,1.98142188e-01
-3.85623437e-08,1.98034375e-01
-3.85223437e-08,1.98318750e-01
