trails/0bdfa5e45fec98341abdd20552c140b4/aes_ch1_20250507123748292.csv

Model,MSO66B
Label,
Waveform Type,ANALOG
Horizontal Units,s
Sample Interval,4.00000000e-11
Record Length,10000
Zero Index,1599.07031250
Vertical Units,A
ANALOG_Thumbnail,
yOffset,1.84500000e-01
yPosition,8.40000000e-01

Labels,
TIME,CH1
-6.39628125e-08,1.98090625e-01
-6.39228125e-08,1.98109375e-01
-6.38828125e-08,1.98092188e-01
-6.38428125e-08,1.98107813e-01
-6.38028125e-08,1.98092188e-01
-6.37628125e-08,1.98107813e-01
-6.37228125e-08,1.98092188e-01
-6.36828125e-08,1.98107813e-01
-6.36428125e-08,1.98092188e-01
-6.36028125e-08,1.98107813e-01
-6.35628125e-08,1.98092188e-01
-6.35228125e-08,1.98109375e-01
-6.34828125e-08,1.98090625e-01
-6.34428125e-08,1.98110938e-01
-6.34028125e-08,1.98087500e-01
-6.33628125e-08,1.98115625e-01
-6.33228125e-08,1.98079688e-01
-6.32828125e-08,1.98128125e-01
-6.32428125e-08,1.98046875e-01
-6.32028125e-08,1.98306250e-01
-6.31628125e-08,1.98556250e-01
-6.31228125e-08,1.98465625e-01
-6.30828125e-08,1.98525000e-01
-6.30428125e-08,1.98479688e-01
-6.30028125e-08,1.98518750e-01
-6.29628125e-08,1.98481250e-01
-6.29228125e-08,1.98518750e-01
-6.28828125e-08,1.98479688e-01
-6.28428125e-08,1.98521875e-01
-6.28028125e-08,1.98473438e-01
-6.27628125e-08,1.98535938e-01
-6.27228125e-08,1.98439063e-01
-6.26828125e-08,1.98714063e-01
-6.26428125e-08,1.98948438e-01
-6.26028125e-08,1.98875000e-01
-6.25628125e-08,1.98915625e-01
-6.25228125e-08,1.98889063e-01
-6.24828125e-08,1.98906250e-01
-6.24428125e-08,1.98895313e-01
-6.24028125e-08,1.98903125e-01
-6.23628125e-08,1.98898437e-01
-6.23228125e-08,1.98900000e-01
-6.22828125e-08,1.98901563e-01
-6.22428125e-08,1.98896875e-01
-6.22028125e-08,1.98906250e-01
-6.21628125e-08,1.98892188e-01
-6.21228125e-08,1.98910937e-01
-6.20828125e-08,1.98882813e-01
-6.20428125e-08,1.98926563e-01
-6.20028125e-08,1.98848438e-01
-6.19628125e-08,1.99104688e-01
-6.19228125e-08,1.99356250e-01
-6.18828125e-08,1.99267187e-01
-6.18428125e-08,1.99323438e-01
-6.18028125e-08,1.99281250e-01
-6.17628125e-08,1.99314062e-01
-6.17228125e-08,1.99287500e-01
-6.16828125e-08,1.99310938e-01
-6.16428125e-08,1.99290625e-01
-6.16028125e-08,1.99307813e-01
-6.15628125e-08,1.99292187e-01
-6.15228125e-08,1.99306250e-01
-6.14828125e-08,1.99293750e-01
-6.14428125e-08,1.99306250e-01
-6.14028125e-08,1.99295313e-01
-6.13628125e-08,1.99304688e-01
-6.13228125e-08,1.99296875e-01
-6.12828125e-08,1.99303125e-01
-6.12428125e-08,1.99296875e-01
-6.12028125e-08,1.99301563e-01
-6.11628125e-08,1.99298438e-01
-6.11228125e-08,1.99300000e-01
-6.10828125e-08,1.99301563e-01
-6.10428125e-08,1.99298438e-01
-6.10028125e-08,1.99303125e-01
-6.09628125e-08,1.99293750e-01
-6.09228125e-08,1.99309375e-01
-6.08828125e-08,1.99285938e-01
-6.08428125e-08,1.99323438e-01
-6.08028125e-08,1.99251563e-01
-6.07628125e-08,1.99501563e-01
-6.07228125e-08,1.99759375e-01
-6.06828125e-08,1.99664063e-01
-6.06428125e-08,1.99726563e-01
-6.06028125e-08,1.99678125e-01
-6.05628125e-08,1.99718750e-01
-6.05228125e-08,1.99682813e-01
-6.04828125e-08,1.99715625e-01
-6.04428125e-08,1.99685938e-01
-6.04028125e-08,1.99712500e-01
-6.03628125e-08,1.99687500e-01
-6.03228125e-08,1.99712500e-01
-6.02828125e-08,1.99689063e-01
-6.02428125e-08,1.99710938e-01
-6.02028125e-08,1.99689063e-01
-6.01628125e-08,1.99710938e-01
-6.01228125e-08,1.99689063e-01
-6.00828125e-08,1.99709375e-01
-6.00428125e-08,1.99690625e-01
-6.00028125e-08,1.99709375e-01
-5.99628125e-08,1.99690625e-01
-5.99228125e-08,1.99709375e-01
-5.98828125e-08,1.99690625e-01
-5.98428125e-08,1.99709375e-01
-5.98028125e-08,1.99690625e-01
-5.97628125e-08,1.99709375e-01
-5.97228125e-08,1.99690625e-01
-5.96828125e-08,1.99710938e-01
-5.96428125e-08,1.99689063e-01
-5.96028125e-08,1.99710938e-01
-5.95628125e-08,1.99689063e-01
-5.95228125e-08,1.99710938e-01
-5.94828125e-08,1.99687500e-01
-5.94428125e-08,1.99712500e-01
-5.94028125e-08,1.99685938e-01
-5.93628125e-08,1.99715625e-01
-5.93228125e-08,1.99682813e-01
-5.92828125e-08,1.99720312e-01
-5.92428125e-08,1.99675000e-01
-5.92028125e-08,1.99734375e-01
-5.91628125e-08,1.99640625e-01
-5.91228125e-08,1.99912500e-01
-5.90828125e-08,2.00150000e-01
-5.90428125e-08,2.00075000e-01
-5.90028125e-08,2.00115625e-01
-5.89628125e-08,2.00089062e-01
-5.89228125e-08,2.00107813e-01
-5.88828125e-08,2.00093750e-01
-5.88428125e-08,2.00104688e-01
-5.88028125e-08,2.00096875e-01
-5.87628125e-08,2.00103125e-01
-5.87228125e-08,2.00096875e-01
-5.86828125e-08,2.00101562e-01
-5.86428125e-08,2.00098438e-01
-5.86028125e-08,2.00101562e-01
-5.85628125e-08,2.00100000e-01
-5.85228125e-08,2.00100000e-01
-5.84828125e-08,2.00100000e-01
-5.84428125e-08,2.00100000e-01
-5.84028125e-08,2.00100000e-01
-5.83628125e-08,2.00100000e-01
-5.83228125e-08,2.00100000e-01
-5.82828125e-08,2.00100000e-01
-5.82428125e-08,2.00100000e-01
-5.82028125e-08,2.00100000e-01
-5.81628125e-08,2.00101562e-01
-5.81228125e-08,2.00098438e-01
-5.80828125e-08,2.00101562e-01
-5.80428125e-08,2.00098438e-01
-5.80028125e-08,2.00101562e-01
-5.79628125e-08,2.00098438e-01
-5.79228125e-08,2.00101562e-01
-5.78828125e-08,2.00098438e-01
-5.78428125e-08,2.00101562e-01
-5.78028125e-08,2.00098438e-01
-5.77628125e-08,2.00101562e-01
-5.77228125e-08,2.00098438e-01
-5.76828125e-08,2.00101562e-01
-5.76428125e-08,2.00098438e-01
-5.76028125e-08,2.00101562e-01
-5.75628125e-08,2.00098438e-01
-5.75228125e-08,2.00101562e-01
-5.74828125e-08,2.00098438e-01
-5.74428125e-08,2.00101562e-01
-5.74028125e-08,2.00098438e-01
-5.73628125e-08,2.00100000e-01
-5.73228125e-08,2.00100000e-01
-5.72828125e-08,2.00100000e-01
-5.72428125e-08,2.00100000e-01
-5.72028125e-08,2.00100000e-01
-5.71628125e-08,2.00100000e-01
-5.71228125e-08,2.00100000e-01
-5.70828125e-08,2.00101562e-01
-5.70428125e-08,2.00098438e-01
-5.70028125e-08,2.00103125e-01
-5.69628125e-08,2.00096875e-01
-5.69228125e-08,2.00106250e-01
-5.68828125e-08,2.00092188e-01
-5.68428125e-08,2.00112500e-01
-5.68028125e-08,2.00078125e-01
-5.67628125e-08,2.00146875e-01
-5.67228125e-08,1.99901563e-01
-5.66828125e-08,1.99635937e-01
-5.66428125e-08,1.99740625e-01
-5.66028125e-08,1.99667188e-01
-5.65628125e-08,1.99729688e-01
-5.65228125e-08,1.99670313e-01
-5.64828125e-08,1.99732813e-01
-5.64428125e-08,1.99659375e-01
-5.64028125e-08,1.99764063e-01
-5.63628125e-08,1.99484375e-01
-5.63228125e-08,1.99251563e-01
-5.62828125e-08,1.99326562e-01
-5.62428125e-08,1.99279687e-01
-5.62028125e-08,1.99320313e-01
-5.61628125e-08,1.99273438e-01
-5.61228125e-08,1.99348438e-01
-5.60828125e-08,1.99101562e-01
-5.60428125e-08,1.98832813e-01
-5.60028125e-08,1.98945312e-01
-5.59628125e-08,1.98859375e-01
-5.59228125e-08,1.98940625e-01
-5.58828125e-08,1.98851563e-01
-5.58428125e-08,1.98971875e-01
-5.58028125e-08,1.98675000e-01
-5.57628125e-08,1.98462500e-01
-5.57228125e-08,1.98512500e-01
-5.56828125e-08,1.98496875e-01
-5.56428125e-08,1.98496875e-01
-5.56028125e-08,1.98507813e-01
-5.55628125e-08,1.98487500e-01
-5.55228125e-08,1.98518750e-01
-5.54828125e-08,1.98470312e-01
-5.54428125e-08,1.98556250e-01
-5.54028125e-08,1.98290625e-01
-5.53628125e-08,1.98048438e-01
-5.53228125e-08,1.98126563e-01
-5.52828125e-08,1.98082813e-01
-5.52428125e-08,1.98110938e-01
-5.52028125e-08,1.98092188e-01
-5.51628125e-08,1.98104688e-01
-5.51228125e-08,1.98098438e-01
-5.50828125e-08,1.98100000e-01
-5.50428125e-08,1.98103125e-01
-5.50028125e-08,1.98093750e-01
-5.49628125e-08,1.98109375e-01
-5.49228125e-08,1.98084375e-01
-5.48828125e-08,1.98126563e-01
-5.48428125e-08,1.98048438e-01
-5.48028125e-08,1.98304688e-01
-5.47628125e-08,1.98556250e-01
-5.47228125e-08,1.98467188e-01
-5.46828125e-08,1.98521875e-01
-5.46428125e-08,1.98482812e-01
-5.46028125e-08,1.98514063e-01
-5.45628125e-08,1.98489063e-01
-5.45228125e-08,1.98509375e-01
-5.44828125e-08,1.98493750e-01
-5.44428125e-08,1.98504687e-01
-5.44028125e-08,1.98496875e-01
-5.43628125e-08,1.98501563e-01
-5.43228125e-08,1.98500000e-01
-5.42828125e-08,1.98496875e-01
-5.42428125e-08,1.98506250e-01
-5.42028125e-08,1.98489063e-01
-5.41628125e-08,1.98521875e-01
-5.41228125e-08,1.98453125e-01
-5.40828125e-08,1.98700000e-01
-5.40428125e-08,1.98962500e-01
-5.40028125e-08,1.98862500e-01
-5.39628125e-08,1.98928125e-01
-5.39228125e-08,1.98876563e-01
-5.38828125e-08,1.98920313e-01
-5.38428125e-08,1.98881250e-01
-5.38028125e-08,1.98917188e-01
-5.37628125e-08,1.98884375e-01
-5.37228125e-08,1.98914063e-01
-5.36828125e-08,1.98885937e-01
-5.36428125e-08,1.98912500e-01
-5.36028125e-08,1.98887500e-01
-5.35628125e-08,1.98912500e-01
-5.35228125e-08,1.98887500e-01
-5.34828125e-08,1.98910937e-01
-5.34428125e-08,1.98889063e-01
-5.34028125e-08,1.98910937e-01
-5.33628125e-08,1.98889063e-01
-5.33228125e-08,1.98910937e-01
-5.32828125e-08,1.98889063e-01
-5.32428125e-08,1.98910937e-01
-5.32028125e-08,1.98889063e-01
-5.31628125e-08,1.98910937e-01
-5.31228125e-08,1.98889063e-01
-5.30828125e-08,1.98910937e-01
-5.30428125e-08,1.98889063e-01
-5.30028125e-08,1.98910937e-01
-5.29628125e-08,1.98889063e-01
-5.29228125e-08,1.98910937e-01
-5.28828125e-08,1.98889063e-01
-5.28428125e-08,1.98910937e-01
-5.28028125e-08,1.98889063e-01
-5.27628125e-08,1.98910937e-01
-5.27228125e-08,1.98889063e-01
-5.26828125e-08,1.98912500e-01
-5.26428125e-08,1.98887500e-01
-5.26028125e-08,1.98912500e-01
-5.25628125e-08,1.98885937e-01
-5.25228125e-08,1.98914063e-01
-5.24828125e-08,1.98885937e-01
-5.24428125e-08,1.98915625e-01
-5.24028125e-08,1.98882813e-01
-5.23628125e-08,1.98918750e-01
-5.23228125e-08,1.98879688e-01
-5.22828125e-08,1.98923438e-01
-5.22428125e-08,1.98870313e-01
-5.22028125e-08,1.98939063e-01
-5.21628125e-08,1.98835938e-01
-5.21228125e-08,1.99117188e-01
-5.20828125e-08,1.99345313e-01
-5.20428125e-08,1.99279687e-01
-5.20028125e-08,1.99310938e-01
-5.19628125e-08,1.99293750e-01
-5.19228125e-08,1.99301563e-01
-5.18828125e-08,1.99300000e-01
-5.18428125e-08,1.99296875e-01
-5.18028125e-08,1.99304688e-01
-5.17628125e-08,1.99293750e-01
-5.17228125e-08,1.99307813e-01
-5.16828125e-08,1.99290625e-01
-5.16428125e-08,1.99310938e-01
-5.16028125e-08,1.99285938e-01
-5.15628125e-08,1.99317187e-01
-5.15228125e-08,1.99276563e-01
-5.14828125e-08,1.99332813e-01
-5.14428125e-08,1.99240625e-01
-5.14028125e-08,1.99512500e-01
-5.13628125e-08,1.99750000e-01
-5.13228125e-08,1.99675000e-01
-5.12828125e-08,1.99715625e-01
-5.12428125e-08,1.99690625e-01
-5.12028125e-08,1.99706250e-01
-5.11628125e-08,1.99696875e-01
-5.11228125e-08,1.99701563e-01
-5.10828125e-08,1.99701563e-01
-5.10428125e-08,1.99696875e-01
-5.10028125e-08,1.99706250e-01
-5.09628125e-08,1.99692188e-01
-5.09228125e-08,1.99712500e-01
-5.08828125e-08,1.99682813e-01
-5.08428125e-08,1.99728125e-01
-5.08028125e-08,1.99646875e-01
-5.07628125e-08,1.99906250e-01
-5.07228125e-08,2.00154688e-01
-5.06828125e-08,2.00068750e-01
-5.06428125e-08,2.00121875e-01
-5.06028125e-08,2.00084375e-01
-5.05628125e-08,2.00112500e-01
-5.05228125e-08,2.00089062e-01
-5.04828125e-08,2.00109375e-01
-5.04428125e-08,2.00092188e-01
-5.04028125e-08,2.00106250e-01
-5.03628125e-08,2.00095313e-01
-5.03228125e-08,2.00104688e-01
-5.02828125e-08,2.00096875e-01
-5.02428125e-08,2.00103125e-01
-5.02028125e-08,2.00098438e-01
-5.01628125e-08,2.00101562e-01
-5.01228125e-08,2.00100000e-01
-5.00828125e-08,2.00100000e-01
-5.00428125e-08,2.00101562e-01
-5.00028125e-08,2.00098438e-01
-4.99628125e-08,2.00103125e-01
-4.99228125e-08,2.00095313e-01
-4.98828125e-08,2.00106250e-01
-4.98428125e-08,2.00092188e-01
-4.98028125e-08,2.00109375e-01
-4.97628125e-08,2.00087500e-01
-4.97228125e-08,2.00118750e-01
-4.96828125e-08,2.00071875e-01
-4.96428125e-08,2.00153125e-01
-4.96028125e-08,1.99893750e-01
-4.95628125e-08,1.99643750e-01
-4.95228125e-08,1.99731250e-01
-4.94828125e-08,1.99678125e-01
-4.94428125e-08,1.99717188e-01
-4.94028125e-08,1.99685938e-01
-4.93628125e-08,1.99710938e-01
-4.93228125e-08,1.99690625e-01
-4.92828125e-08,1.99707812e-01
-4.92428125e-08,1.99693750e-01
-4.92028125e-08,1.99704688e-01
-4.91628125e-08,1.99695312e-01
-4.91228125e-08,1.99703125e-01
-4.90828125e-08,1.99698437e-01
-4.90428125e-08,1.99700000e-01
-4.90028125e-08,1.99700000e-01
-4.89628125e-08,1.99696875e-01
-4.89228125e-08,1.99704688e-01
-4.88828125e-08,1.99692188e-01
-4.88428125e-08,1.99714063e-01
-4.88028125e-08,1.99676563e-01
-4.87628125e-08,1.99748438e-01
-4.87228125e-08,1.99498438e-01
-4.86828125e-08,1.99239063e-01
-4.86428125e-08,1.99335938e-01
-4.86028125e-08,1.99273438e-01
-4.85628125e-08,1.99321875e-01
-4.85228125e-08,1.99281250e-01
-4.84828125e-08,1.99317187e-01
-4.84428125e-08,1.99284375e-01
-4.84028125e-08,1.99314062e-01
-4.83628125e-08,1.99285938e-01
-4.83228125e-08,1.99312500e-01
-4.82828125e-08,1.99287500e-01
-4.82428125e-08,1.99310938e-01
-4.82028125e-08,1.99289063e-01
-4.81628125e-08,1.99310938e-01
-4.81228125e-08,1.99289063e-01
-4.80828125e-08,1.99310938e-01
-4.80428125e-08,1.99289063e-01
-4.80028125e-08,1.99310938e-01
-4.79628125e-08,1.99289063e-01
-4.79228125e-08,1.99310938e-01
-4.78828125e-08,1.99289063e-01
-4.78428125e-08,1.99310938e-01
-4.78028125e-08,1.99289063e-01
-4.77628125e-08,1.99310938e-01
-4.77228125e-08,1.99289063e-01
-4.76828125e-08,1.99310938e-01
-4.76428125e-08,1.99287500e-01
-4.76028125e-08,1.99312500e-01
-4.75628125e-08,1.99285938e-01
-4.75228125e-08,1.99315625e-01
-4.74828125e-08,1.99282813e-01
-4.74428125e-08,1.99320313e-01
-4.74028125e-08,1.99275000e-01
-4.73628125e-08,1.99334375e-01
-4.73228125e-08,1.99240625e-01
-4.72828125e-08,1.99512500e-01
-4.72428125e-08,1.99750000e-01
-4.72028125e-08,1.99673437e-01
-4.71628125e-08,1.99717188e-01
-4.71228125e-08,1.99689063e-01
-4.70828125e-08,1.99709375e-01
-4.70428125e-08,1.99693750e-01
-4.70028125e-08,1.99704688e-01
-4.69628125e-08,1.99695312e-01
-4.69228125e-08,1.99703125e-01
-4.68828125e-08,1.99696875e-01
-4.68428125e-08,1.99701563e-01
-4.68028125e-08,1.99698437e-01
-4.67628125e-08,1.99701563e-01
-4.67228125e-08,1.99698437e-01
-4.66828125e-08,1.99701563e-01
-4.66428125e-08,1.99700000e-01
-4.66028125e-08,1.99700000e-01
-4.65628125e-08,1.99700000e-01
-4.65228125e-08,1.99700000e-01
-4.64828125e-08,1.99700000e-01
-4.64428125e-08,1.99700000e-01
-4.64028125e-08,1.99700000e-01
-4.63628125e-08,1.99700000e-01
-4.63228125e-08,1.99700000e-01
-4.62828125e-08,1.99700000e-01
-4.62428125e-08,1.99700000e-01
-4.62028125e-08,1.99700000e-01
-4.61628125e-08,1.99700000e-01
-4.61228125e-08,1.99700000e-01
-4.60828125e-08,1.99700000e-01
-4.60428125e-08,1.99700000e-01
-4.60028125e-08,1.99700000e-01
-4.59628125e-08,1.99700000e-01
-4.59228125e-08,1.99700000e-01
-4.58828125e-08,1.99700000e-01
-4.58428125e-08,1.99700000e-01
-4.58028125e-08,1.99700000e-01
-4.57628125e-08,1.99700000e-01
-4.57228125e-08,1.99700000e-01
-4.56828125e-08,1.99700000e-01
-4.56428125e-08,1.99700000e-01
-4.56028125e-08,1.99700000e-01
-4.55628125e-08,1.99700000e-01
-4.55228125e-08,1.99700000e-01
-4.54828125e-08,1.99700000e-01
-4.54428125e-08,1.99701563e-01
-4.54028125e-08,1.99700000e-01
-4.53628125e-08,1.99701563e-01
-4.53228125e-08,1.99700000e-01
-4.52828125e-08,1.99700000e-01
-4.52428125e-08,1.99700000e-01
-4.52028125e-08,1.99700000e-01
-4.51628125e-08,1.99700000e-01
-4.51228125e-08,1.99700000e-01
-4.50828125e-08,1.99700000e-01
-4.50428125e-08,1.99700000e-01
-4.50028125e-08,1.99700000e-01
-4.49628125e-08,1.99700000e-01
-4.49228125e-08,1.99700000e-01
-4.48828125e-08,1.99700000e-01
-4.48428125e-08,1.99700000e-01
-4.48028125e-08,1.99700000e-01
-4.47628125e-08,1.99700000e-01
-4.47228125e-08,1.99700000e-01
-4.46828125e-08,1.99700000e-01
-4.46428125e-08,1.99700000e-01
-4.46028125e-08,1.99700000e-01
-4.45628125e-08,1.99700000e-01
-4.45228125e-08,1.99700000e-01
-4.44828125e-08,1.99700000e-01
-4.44428125e-08,1.99700000e-01
-4.44028125e-08,1.99700000e-01
-4.43628125e-08,1.99700000e-01
-4.43228125e-08,1.99700000e-01
-4.42828125e-08,1.99700000e-01
-4.42428125e-08,1.99700000e-01
-4.42028125e-08,1.99700000e-01
-4.41628125e-08,1.99700000e-01
-4.41228125e-08,1.99700000e-01
-4.40828125e-08,1.99700000e-01
-4.40428125e-08,1.99700000e-01
-4.40028125e-08,1.99700000e-01
-4.39628125e-08,1.99700000e-01
-4.39228125e-08,1.99700000e-01
-4.38828125e-08,1.99700000e-01
-4.38428125e-08,1.99700000e-01
-4.38028125e-08,1.99701563e-01
-4.37628125e-08,1.99698437e-01
-4.37228125e-08,1.99701563e-01
-4.36828125e-08,1.99698437e-01
-4.36428125e-08,1.99701563e-01
-4.36028125e-08,1.99698437e-01
-4.35628125e-08,1.99701563e-01
-4.35228125e-08,1.99698437e-01
-4.34828125e-08,1.99703125e-01
-4.34428125e-08,1.99696875e-01
-4.34028125e-08,1.99703125e-01
-4.33628125e-08,1.99695312e-01
-4.33228125e-08,1.99704688e-01
-4.32828125e-08,1.99693750e-01
-4.32428125e-08,1.99707812e-01
-4.32028125e-08,1.99690625e-01
-4.31628125e-08,1.99710938e-01
-4.31228125e-08,1.99685938e-01
-4.30828125e-08,1.99718750e-01
-4.30428125e-08,1.99670313e-01
-4.30028125e-08,1.99754687e-01
-4.29628125e-08,1.99492188e-01
-4.29228125e-08,1.99245312e-01
-4.28828125e-08,1.99329688e-01
-4.28428125e-08,1.99279687e-01
-4.28028125e-08,1.99314062e-01
-4.27628125e-08,1.99290625e-01
-4.27228125e-08,1.99304688e-01
-4.26828125e-08,1.99301563e-01
-4.26428125e-08,1.99287500e-01
-4.26028125e-08,1.99337500e-01
-4.25628125e-08,1.99110938e-01
-4.25228125e-08,1.98826562e-01
-4.24828125e-08,1.98950000e-01
-4.24428125e-08,1.98857813e-01
-4.24028125e-08,1.98939063e-01
-4.23628125e-08,1.98860938e-01
-4.23228125e-08,1.98942188e-01
-4.22828125e-08,1.98848438e-01
-4.22428125e-08,1.98975000e-01
-4.22028125e-08,1.98671875e-01
-4.21628125e-08,1.98467188e-01
-4.21228125e-08,1.98509375e-01
-4.20828125e-08,1.98501563e-01
-4.20428125e-08,1.98490625e-01
-4.20028125e-08,1.98517187e-01
-4.19628125e-08,1.98471875e-01
-4.19228125e-08,1.98554687e-01
-4.18828125e-08,1.98292187e-01
-4.18428125e-08,1.98046875e-01
-4.18028125e-08,1.98128125e-01
-4.17628125e-08,1.98081250e-01
-4.17228125e-08,1.98114063e-01
-4.16828125e-08,1.98089062e-01
-4.16428125e-08,1.98107813e-01
-4.16028125e-08,1.98093750e-01
-4.15628125e-08,1.98104688e-01
-4.15228125e-08,1.98095313e-01
-4.14828125e-08,1.98103125e-01
-4.14428125e-08,1.98096875e-01
-4.14028125e-08,1.98101562e-01
-4.13628125e-08,1.98098438e-01
-4.13228125e-08,1.98101562e-01
-4.12828125e-08,1.98100000e-01
-4.12428125e-08,1.98100000e-01
-4.12028125e-08,1.98100000e-01
-4.11628125e-08,1.98100000e-01
-4.11228125e-08,1.98101562e-01
-4.10828125e-08,1.98098438e-01
-4.10428125e-08,1.98101562e-01
-4.10028125e-08,1.98096875e-01
-4.09628125e-08,1.98103125e-01
-4.09228125e-08,1.98096875e-01
-4.08828125e-08,1.98104688e-01
-4.08428125e-08,1.98093750e-01
-4.08028125e-08,1.98107813e-01
-4.07628125e-08,1.98090625e-01
-4.07228125e-08,1.98112500e-01
-4.06828125e-08,1.98082813e-01
-4.06428125e-08,1.98126563e-01
-4.06028125e-08,1.98048438e-01
-4.05628125e-08,1.98303125e-01
-4.05228125e-08,1.98559375e-01
-4.04828125e-08,1.98464063e-01
-4.04428125e-08,1.98528125e-01
-4.04028125e-08,1.98476563e-01
-4.03628125e-08,1.98521875e-01
-4.03228125e-08,1.98478125e-01
-4.02828125e-08,1.98523438e-01
-4.02428125e-08,1.98473438e-01
-4.02028125e-08,1.98535938e-01
-4.01628125e-08,1.98440625e-01
-4.01228125e-08,1.98712500e-01
-4.00828125e-08,1.98950000e-01
-4.00428125e-08,1.98873437e-01
-4.00028125e-08,1.98918750e-01
-3.99628125e-08,1.98885937e-01
-3.99228125e-08,1.98910937e-01
-3.98828125e-08,1.98890625e-01
-3.98428125e-08,1.98907813e-01
-3.98028125e-08,1.98893750e-01
-3.97628125e-08,1.98906250e-01
-3.97228125e-08,1.98893750e-01
-3.96828125e-08,1.98906250e-01
-3.96428125e-08,1.98893750e-01
-3.96028125e-08,1.98904688e-01
-3.95628125e-08,1.98895313e-01
-3.95228125e-08,1.98904688e-01
-3.94828125e-08,1.98895313e-01
-3.94428125e-08,1.98904688e-01
-3.94028125e-08,1.98893750e-01
-3.93628125e-08,1.98906250e-01
-3.93228125e-08,1.98893750e-01
-3.92828125e-08,1.98906250e-01
-3.92428125e-08,1.98893750e-01
-3.92028125e-08,1.98907813e-01
-3.91628125e-08,1.98892188e-01
-3.91228125e-08,1.98909375e-01
-3.90828125e-08,1.98889063e-01
-3.90428125e-08,1.98912500e-01
-3.90028125e-08,1.98884375e-01
-3.89628125e-08,1.98920313e-01
-3.89228125e-08,1.98870313e-01
-3.88828125e-08,1.98954688e-01
-3.88428125e-08,1.98692188e-01
-3.88028125e-08,1.98445312e-01
-3.87628125e-08,1.98531250e-01
-3.87228125e-08,1.98478125e-01
-3.86828125e-08,1.98517187e-01
-3.86428125e-08,1.98485938e-01
-3.86028125e-08,1.98512500e-01
-3.85628125e-08,1.98489063e-01
-3.85228125e-08,1.98510938e-01
