trails/0bdfa5e45fec98341abdd20552c140b4/aes_ch1_20250507115733120.csv

Model,MSO66B
Label,
Waveform Type,ANALOG
Horizontal Units,s
Sample Interval,4.00000000e-11
Record Length,10000
Zero Index,1599.06640625
Vertical Units,A
ANALOG_Thumbnail,
yOffset,1.84500000e-01
yPosition,8.40000000e-01

Labels,
TIME,CH1
-6.39626562e-08,1.90104688e-01
-6.39226562e-08,1.90095313e-01
-6.38826563e-08,1.90104688e-01
-6.38426562e-08,1.90096875e-01
-6.38026563e-08,1.90103125e-01
-6.37626562e-08,1.90096875e-01
-6.37226562e-08,1.90101563e-01
-6.36826562e-08,1.90098437e-01
-6.36426562e-08,1.90101563e-01
-6.36026563e-08,1.90098437e-01
-6.35626562e-08,1.90101563e-01
-6.35226562e-08,1.90100000e-01
-6.34826562e-08,1.90100000e-01
-6.34426562e-08,1.90100000e-01
-6.34026562e-08,1.90100000e-01
-6.33626562e-08,1.90100000e-01
-6.33226563e-08,1.90100000e-01
-6.32826562e-08,1.90101563e-01
-6.32426562e-08,1.90098437e-01
-6.32026562e-08,1.90101563e-01
-6.31626562e-08,1.90098437e-01
-6.31226562e-08,1.90101563e-01
-6.30826562e-08,1.90096875e-01
-6.30426563e-08,1.90103125e-01
-6.30026562e-08,1.90096875e-01
-6.29626562e-08,1.90103125e-01
-6.29226562e-08,1.90095313e-01
-6.28826562e-08,1.90104688e-01
-6.28426562e-08,1.90093750e-01
-6.28026562e-08,1.90106250e-01
-6.27626563e-08,1.90092188e-01
-6.27226562e-08,1.90109375e-01
-6.26826562e-08,1.90089063e-01
-6.26426562e-08,1.90112500e-01
-6.26026562e-08,1.90084375e-01
-6.25626562e-08,1.90121875e-01
-6.25226562e-08,1.90068750e-01
-6.24826563e-08,1.90156250e-01
-6.24426562e-08,1.89890625e-01
-6.24026562e-08,1.89648438e-01
-6.23626562e-08,1.89728125e-01
-6.23226562e-08,1.89682813e-01
-6.22826562e-08,1.89712500e-01
-6.22426562e-08,1.89692187e-01
-6.22026563e-08,1.89704687e-01
-6.21626562e-08,1.89698438e-01
-6.21226562e-08,1.89696875e-01
-6.20826562e-08,1.89707813e-01
-6.20426562e-08,1.89681250e-01
-6.20026562e-08,1.89743750e-01
-6.19626562e-08,1.89503125e-01
-6.19226563e-08,1.89234375e-01
-6.18826562e-08,1.89342188e-01
-6.18426562e-08,1.89267188e-01
-6.18026562e-08,1.89329688e-01
-6.17626562e-08,1.89273438e-01
-6.17226562e-08,1.89326563e-01
-6.16826562e-08,1.89271875e-01
-6.16426563e-08,1.89332813e-01
-6.16026562e-08,1.89259375e-01
-6.15626562e-08,1.89364063e-01
-6.15226562e-08,1.89082813e-01
-6.14826562e-08,1.88854688e-01
-6.14426563e-08,1.88921875e-01
-6.14026562e-08,1.88885938e-01
-6.13626563e-08,1.88909375e-01
-6.13226562e-08,1.88893750e-01
-6.12826562e-08,1.88904688e-01
-6.12426562e-08,1.88896875e-01
-6.12026562e-08,1.88903125e-01
-6.11626563e-08,1.88896875e-01
-6.11226562e-08,1.88901563e-01
-6.10826563e-08,1.88898438e-01
-6.10426562e-08,1.88901563e-01
-6.10026562e-08,1.88898438e-01
-6.09626562e-08,1.88901563e-01
-6.09226562e-08,1.88898438e-01
-6.08826563e-08,1.88901563e-01
-6.08426562e-08,1.88898438e-01
-6.08026563e-08,1.88901563e-01
-6.07626562e-08,1.88896875e-01
-6.07226562e-08,1.88903125e-01
-6.06826562e-08,1.88896875e-01
-6.06426562e-08,1.88903125e-01
-6.06026563e-08,1.88895312e-01
-6.05626562e-08,1.88904688e-01
-6.05226563e-08,1.88893750e-01
-6.04826562e-08,1.88907812e-01
-6.04426562e-08,1.88890625e-01
-6.04026562e-08,1.88912500e-01
-6.03626562e-08,1.88882812e-01
-6.03226563e-08,1.88926563e-01
-6.02826562e-08,1.88848438e-01
-6.02426563e-08,1.89104688e-01
-6.02026562e-08,1.89357813e-01
-6.01626562e-08,1.89267188e-01
-6.01226562e-08,1.89323437e-01
-6.00826562e-08,1.89281250e-01
-6.00426563e-08,1.89315625e-01
-6.00026562e-08,1.89285938e-01
-5.99626563e-08,1.89312500e-01
-5.99226562e-08,1.89289062e-01
-5.98826562e-08,1.89310937e-01
-5.98426562e-08,1.89289062e-01
-5.98026562e-08,1.89309375e-01
-5.97626563e-08,1.89290625e-01
-5.97226562e-08,1.89309375e-01
-5.96826563e-08,1.89290625e-01
-5.96426562e-08,1.89307813e-01
-5.96026562e-08,1.89292188e-01
-5.95626562e-08,1.89307813e-01
-5.95226562e-08,1.89292188e-01
-5.94826562e-08,1.89307813e-01
-5.94426562e-08,1.89292188e-01
-5.94026562e-08,1.89307813e-01
-5.93626562e-08,1.89292188e-01
-5.93226562e-08,1.89309375e-01
-5.92826562e-08,1.89290625e-01
-5.92426562e-08,1.89309375e-01
-5.92026562e-08,1.89290625e-01
-5.91626562e-08,1.89309375e-01
-5.91226562e-08,1.89289062e-01
-5.90826562e-08,1.89310937e-01
-5.90426562e-08,1.89287500e-01
-5.90026562e-08,1.89312500e-01
-5.89626562e-08,1.89285938e-01
-5.89226562e-08,1.89317188e-01
-5.88826562e-08,1.89279688e-01
-5.88426562e-08,1.89325000e-01
-5.88026562e-08,1.89265625e-01
-5.87626562e-08,1.89359375e-01
-5.87226562e-08,1.89087500e-01
-5.86826562e-08,1.88850000e-01
-5.86426562e-08,1.88926563e-01
-5.86026562e-08,1.88884375e-01
-5.85626562e-08,1.88910938e-01
-5.85226562e-08,1.88892188e-01
-5.84826562e-08,1.88906250e-01
-5.84426562e-08,1.88896875e-01
-5.84026562e-08,1.88903125e-01
-5.83626562e-08,1.88898438e-01
-5.83226562e-08,1.88900000e-01
-5.82826562e-08,1.88901563e-01
-5.82426562e-08,1.88896875e-01
-5.82026562e-08,1.88904688e-01
-5.81626562e-08,1.88893750e-01
-5.81226562e-08,1.88909375e-01
-5.80826562e-08,1.88884375e-01
-5.80426562e-08,1.88925000e-01
-5.80026562e-08,1.88850000e-01
-5.79626562e-08,1.89101563e-01
-5.79226562e-08,1.89359375e-01
-5.78826562e-08,1.89264062e-01
-5.78426562e-08,1.89328125e-01
-5.78026562e-08,1.89276562e-01
-5.77626562e-08,1.89320313e-01
-5.77226562e-08,1.89281250e-01
-5.76826562e-08,1.89318750e-01
-5.76426562e-08,1.89281250e-01
-5.76026562e-08,1.89318750e-01
-5.75626562e-08,1.89279688e-01
-5.75226562e-08,1.89323437e-01
-5.74826562e-08,1.89271875e-01
-5.74426562e-08,1.89337500e-01
-5.74026562e-08,1.89237500e-01
-5.73626562e-08,1.89515625e-01
-5.73226562e-08,1.89745313e-01
-5.72826562e-08,1.89678125e-01
-5.72426562e-08,1.89710938e-01
-5.72026562e-08,1.89693750e-01
-5.71626562e-08,1.89700000e-01
-5.71226562e-08,1.89704687e-01
-5.70826562e-08,1.89689063e-01
-5.70426562e-08,1.89720313e-01
-5.70026562e-08,1.89654688e-01
-5.69626562e-08,1.89900000e-01
-5.69226562e-08,1.90162500e-01
-5.68826562e-08,1.90060937e-01
-5.68426562e-08,1.90129688e-01
-5.68026562e-08,1.90075000e-01
-5.67626562e-08,1.90121875e-01
-5.67226562e-08,1.90079688e-01
-5.66826562e-08,1.90118750e-01
-5.66426562e-08,1.90081250e-01
-5.66026562e-08,1.90117188e-01
-5.65626562e-08,1.90082813e-01
-5.65226562e-08,1.90118750e-01
-5.64826562e-08,1.90081250e-01
-5.64426562e-08,1.90120312e-01
-5.64026562e-08,1.90078125e-01
-5.63626562e-08,1.90125000e-01
-5.63226562e-08,1.90070313e-01
-5.62826562e-08,1.90139063e-01
-5.62426562e-08,1.90034375e-01
-5.62026562e-08,1.90318750e-01
-5.61626562e-08,1.90543750e-01
-5.61226562e-08,1.90481250e-01
-5.60826562e-08,1.90509375e-01
-5.60426562e-08,1.90496875e-01
-5.60026562e-08,1.90500000e-01
-5.59626562e-08,1.90503125e-01
-5.59226562e-08,1.90493750e-01
-5.58826562e-08,1.90509375e-01
-5.58426562e-08,1.90485938e-01
-5.58026562e-08,1.90520313e-01
-5.57626562e-08,1.90470313e-01
-5.57226562e-08,1.90556250e-01
-5.56826562e-08,1.90290625e-01
-5.56426562e-08,1.90048438e-01
-5.56026562e-08,1.90126563e-01
-5.55626562e-08,1.90082813e-01
-5.55226562e-08,1.90110938e-01
-5.54826562e-08,1.90093750e-01
-5.54426562e-08,1.90101563e-01
-5.54026562e-08,1.90103125e-01
-5.53626562e-08,1.90090625e-01
-5.53226562e-08,1.90120312e-01
-5.52826562e-08,1.90054688e-01
-5.52426562e-08,1.90300000e-01
-5.52026562e-08,1.90562500e-01
-5.51626562e-08,1.90462500e-01
-5.51226562e-08,1.90528125e-01
-5.50826562e-08,1.90476563e-01
-5.50426562e-08,1.90520313e-01
-5.50026562e-08,1.90482813e-01
-5.49626562e-08,1.90515625e-01
-5.49226562e-08,1.90485938e-01
-5.48826562e-08,1.90514062e-01
-5.48426562e-08,1.90487500e-01
-5.48026562e-08,1.90512500e-01
-5.47626562e-08,1.90489063e-01
-5.47226562e-08,1.90510938e-01
-5.46826562e-08,1.90489063e-01
-5.46426562e-08,1.90510938e-01
-5.46026562e-08,1.90490625e-01
-5.45626562e-08,1.90509375e-01
-5.45226562e-08,1.90490625e-01
-5.44826562e-08,1.90509375e-01
-5.44426562e-08,1.90490625e-01
-5.44026562e-08,1.90509375e-01
-5.43626562e-08,1.90490625e-01
-5.43226562e-08,1.90507813e-01
-5.42826562e-08,1.90492188e-01
-5.42426562e-08,1.90507813e-01
-5.42026562e-08,1.90492188e-01
-5.41626562e-08,1.90507813e-01
-5.41226562e-08,1.90492188e-01
-5.40826562e-08,1.90507813e-01
-5.40426563e-08,1.90492188e-01
-5.40026562e-08,1.90507813e-01
-5.39626562e-08,1.90492188e-01
-5.39226562e-08,1.90507813e-01
-5.38826562e-08,1.90492188e-01
-5.38426562e-08,1.90507813e-01
-5.38026562e-08,1.90492188e-01
-5.37626562e-08,1.90507813e-01
-5.37226562e-08,1.90490625e-01
-5.36826562e-08,1.90509375e-01
-5.36426562e-08,1.90490625e-01
-5.36026562e-08,1.90509375e-01
-5.35626562e-08,1.90490625e-01
-5.35226562e-08,1.90509375e-01
-5.34826562e-08,1.90490625e-01
-5.34426562e-08,1.90509375e-01
-5.34026562e-08,1.90489063e-01
-5.33626562e-08,1.90510938e-01
-5.33226562e-08,1.90489063e-01
-5.32826562e-08,1.90512500e-01
-5.32426562e-08,1.90487500e-01
-5.32026562e-08,1.90514062e-01
-5.31626562e-08,1.90485938e-01
-5.31226562e-08,1.90515625e-01
-5.30826562e-08,1.90481250e-01
-5.30426562e-08,1.90521875e-01
-5.30026562e-08,1.90473438e-01
-5.29626562e-08,1.90535938e-01
-5.29226562e-08,1.90439063e-01
-5.28826562e-08,1.90714063e-01
-5.28426562e-08,1.90946875e-01
-5.28026562e-08,1.90876563e-01
-5.27626562e-08,1.90914063e-01
-5.27226562e-08,1.90890625e-01
-5.26826562e-08,1.90904688e-01
-5.26426562e-08,1.90896875e-01
-5.26026562e-08,1.90901563e-01
-5.25626562e-08,1.90900000e-01
-5.25226562e-08,1.90898438e-01
-5.24826562e-08,1.90903125e-01
-5.24426562e-08,1.90896875e-01
-5.24026562e-08,1.90904688e-01
-5.23626562e-08,1.90893750e-01
-5.23226562e-08,1.90906250e-01
-5.22826562e-08,1.90892188e-01
-5.22426562e-08,1.90909375e-01
-5.22026562e-08,1.90887500e-01
-5.21626562e-08,1.90915625e-01
-5.21226563e-08,1.90879688e-01
-5.20826562e-08,1.90931250e-01
-5.20426562e-08,1.90843750e-01
-5.20026562e-08,1.91109375e-01
-5.19626562e-08,1.91353125e-01
-5.19226562e-08,1.91270313e-01
-5.18826562e-08,1.91318750e-01
-5.18426562e-08,1.91285938e-01
-5.18026562e-08,1.91310938e-01
-5.17626562e-08,1.91290625e-01
-5.17226562e-08,1.91307813e-01
-5.16826562e-08,1.91293750e-01
-5.16426562e-08,1.91304688e-01
-5.16026562e-08,1.91295313e-01
-5.15626562e-08,1.91303125e-01
-5.15226562e-08,1.91296875e-01
-5.14826562e-08,1.91303125e-01
-5.14426562e-08,1.91298438e-01
-5.14026562e-08,1.91301563e-01
-5.13626562e-08,1.91298438e-01
-5.13226562e-08,1.91301563e-01
-5.12826562e-08,1.91300000e-01
-5.12426562e-08,1.91300000e-01
-5.12026562e-08,1.91300000e-01
-5.11626562e-08,1.91300000e-01
-5.11226562e-08,1.91300000e-01
-5.10826562e-08,1.91300000e-01
-5.10426562e-08,1.91301563e-01
-5.10026562e-08,1.91298438e-01
-5.09626562e-08,1.91301563e-01
-5.09226562e-08,1.91298438e-01
-5.08826562e-08,1.91301563e-01
-5.08426562e-08,1.91296875e-01
-5.08026562e-08,1.91303125e-01
-5.07626562e-08,1.91296875e-01
-5.07226562e-08,1.91303125e-01
-5.06826562e-08,1.91296875e-01
-5.06426562e-08,1.91304688e-01
-5.06026562e-08,1.91295313e-01
-5.05626562e-08,1.91304688e-01
-5.05226562e-08,1.91295313e-01
-5.04826562e-08,1.91306250e-01
-5.04426562e-08,1.91293750e-01
-5.04026562e-08,1.91307813e-01
-5.03626562e-08,1.91292188e-01
-5.03226562e-08,1.91309375e-01
-5.02826562e-08,1.91289062e-01
-5.02426562e-08,1.91314062e-01
-5.02026563e-08,1.91282813e-01
-5.01626562e-08,1.91321875e-01
-5.01226562e-08,1.91268750e-01
-5.00826562e-08,1.91356250e-01
-5.00426562e-08,1.91089063e-01
-5.00026562e-08,1.90848437e-01
-4.99626562e-08,1.90928125e-01
-4.99226563e-08,1.90881250e-01
-4.98826562e-08,1.90912500e-01
-4.98426562e-08,1.90890625e-01
-4.98026562e-08,1.90907812e-01
-4.97626562e-08,1.90893750e-01
-4.97226562e-08,1.90904688e-01
-4.96826562e-08,1.90896875e-01
-4.96426562e-08,1.90901563e-01
-4.96026562e-08,1.90898438e-01
-4.95626562e-08,1.90900000e-01
-4.95226562e-08,1.90901563e-01
-4.94826562e-08,1.90896875e-01
-4.94426562e-08,1.90904688e-01
-4.94026562e-08,1.90893750e-01
-4.93626562e-08,1.90907812e-01
-4.93226562e-08,1.90889063e-01
-4.92826562e-08,1.90917188e-01
-4.92426562e-08,1.90873438e-01
-4.92026562e-08,1.90951563e-01
-4.91626562e-08,1.90695313e-01
-4.91226562e-08,1.90442187e-01
-4.90826562e-08,1.90532813e-01
-4.90426562e-08,1.90476563e-01
-4.90026562e-08,1.90518750e-01
-4.89626562e-08,1.90484375e-01
-4.89226562e-08,1.90512500e-01
-4.88826562e-08,1.90489063e-01
-4.88426562e-08,1.90510938e-01
-4.88026562e-08,1.90490625e-01
-4.87626562e-08,1.90509375e-01
-4.87226562e-08,1.90492188e-01
-4.86826562e-08,1.90507813e-01
-4.86426562e-08,1.90493750e-01
-4.86026562e-08,1.90506250e-01
-4.85626562e-08,1.90493750e-01
-4.85226562e-08,1.90506250e-01
-4.84826562e-08,1.90495313e-01
-4.84426562e-08,1.90504688e-01
-4.84026562e-08,1.90495313e-01
-4.83626562e-08,1.90504688e-01
-4.83226562e-08,1.90495313e-01
-4.82826563e-08,1.90504688e-01
-4.82426562e-08,1.90495313e-01
-4.82026562e-08,1.90503125e-01
-4.81626562e-08,1.90496875e-01
-4.81226562e-08,1.90503125e-01
-4.80826562e-08,1.90496875e-01
-4.80426562e-08,1.90503125e-01
-4.80026563e-08,1.90496875e-01
-4.79626562e-08,1.90503125e-01
-4.79226562e-08,1.90496875e-01
-4.78826562e-08,1.90503125e-01
-4.78426562e-08,1.90498438e-01
-4.78026562e-08,1.90501562e-01
-4.77626562e-08,1.90498438e-01
-4.77226563e-08,1.90501562e-01
-4.76826562e-08,1.90498438e-01
-4.76426562e-08,1.90501562e-01
-4.76026562e-08,1.90498438e-01
-4.75626562e-08,1.90501562e-01
-4.75226562e-08,1.90500000e-01
-4.74826562e-08,1.90500000e-01
-4.74426562e-08,1.90500000e-01
-4.74026562e-08,1.90500000e-01
-4.73626562e-08,1.90501562e-01
-4.73226562e-08,1.90498438e-01
-4.72826562e-08,1.90503125e-01
-4.72426562e-08,1.90496875e-01
-4.72026562e-08,1.90504688e-01
-4.71626562e-08,1.90492188e-01
-4.71226562e-08,1.90509375e-01
-4.70826562e-08,1.90484375e-01
-4.70426562e-08,1.90525000e-01
-4.70026562e-08,1.90450000e-01
-4.69626562e-08,1.90703125e-01
-4.69226562e-08,1.90959375e-01
-4.68826562e-08,1.90864063e-01
-4.68426562e-08,1.90926563e-01
-4.68026562e-08,1.90878125e-01
-4.67626562e-08,1.90920312e-01
-4.67226562e-08,1.90881250e-01
-4.66826562e-08,1.90917188e-01
-4.66426562e-08,1.90884375e-01
-4.66026562e-08,1.90915625e-01
-4.65626562e-08,1.90884375e-01
-4.65226562e-08,1.90917188e-01
-4.64826562e-08,1.90882812e-01
-4.64426562e-08,1.90918750e-01
-4.64026562e-08,1.90879688e-01
-4.63626563e-08,1.90923438e-01
-4.63226562e-08,1.90871875e-01
-4.62826562e-08,1.90937500e-01
-4.62426562e-08,1.90837500e-01
-4.62026562e-08,1.91114063e-01
-4.61626562e-08,1.91346875e-01
-4.61226562e-08,1.91276562e-01
-4.60826563e-08,1.91314062e-01
-4.60426562e-08,1.91290625e-01
-4.60026562e-08,1.91306250e-01
-4.59626562e-08,1.91295313e-01
-4.59226562e-08,1.91303125e-01
-4.58826562e-08,1.91298438e-01
-4.58426562e-08,1.91300000e-01
-4.58026563e-08,1.91300000e-01
-4.57626562e-08,1.91298438e-01
-4.57226562e-08,1.91301563e-01
-4.56826562e-08,1.91298438e-01
-4.56426562e-08,1.91303125e-01
-4.56026562e-08,1.91296875e-01
-4.55626562e-08,1.91304688e-01
-4.55226563e-08,1.91295313e-01
-4.54826562e-08,1.91306250e-01
-4.54426562e-08,1.91292188e-01
-4.54026562e-08,1.91309375e-01
-4.53626562e-08,1.91289062e-01
-4.53226562e-08,1.91314062e-01
-4.52826562e-08,1.91281250e-01
-4.52426562e-08,1.91329688e-01
-4.52026562e-08,1.91245313e-01
-4.51626562e-08,1.91507813e-01
-4.51226562e-08,1.91754688e-01
-4.50826562e-08,1.91668750e-01
-4.50426562e-08,1.91721875e-01
-4.50026562e-08,1.91682813e-01
-4.49626562e-08,1.91714063e-01
-4.49226562e-08,1.91689063e-01
-4.48826562e-08,1.91709375e-01
-4.48426562e-08,1.91690625e-01
-4.48026562e-08,1.91707813e-01
-4.47626562e-08,1.91692187e-01
-4.47226562e-08,1.91706250e-01
-4.46826562e-08,1.91693750e-01
-4.46426562e-08,1.91706250e-01
-4.46026562e-08,1.91693750e-01
-4.45626562e-08,1.91704687e-01
-4.45226562e-08,1.91695313e-01
-4.44826562e-08,1.91704687e-01
-4.44426563e-08,1.91695313e-01
-4.44026562e-08,1.91704687e-01
-4.43626562e-08,1.91695313e-01
-4.43226562e-08,1.91703125e-01
-4.42826562e-08,1.91696875e-01
-4.42426562e-08,1.91703125e-01
-4.42026562e-08,1.91696875e-01
-4.41626563e-08,1.91703125e-01
-4.41226562e-08,1.91696875e-01
-4.40826562e-08,1.91703125e-01
-4.40426562e-08,1.91698438e-01
-4.40026562e-08,1.91701563e-01
-4.39626562e-08,1.91698438e-01
-4.39226562e-08,1.91701563e-01
-4.38826563e-08,1.91700000e-01
-4.38426562e-08,1.91698438e-01
-4.38026562e-08,1.91701563e-01
-4.37626562e-08,1.91696875e-01
-4.37226562e-08,1.91706250e-01
-4.36826562e-08,1.91689063e-01
-4.36426562e-08,1.91720313e-01
-4.36026563e-08,1.91654688e-01
-4.35626562e-08,1.91898438e-01
-4.35226562e-08,1.92165625e-01
-4.34826562e-08,1.92057813e-01
-4.34426562e-08,1.92132812e-01
-4.34026562e-08,1.92070313e-01
-4.33626562e-08,1.92126563e-01
-4.33226563e-08,1.92073437e-01
-4.32826562e-08,1.92126563e-01
-4.32426562e-08,1.92071875e-01
-4.32026562e-08,1.92131250e-01
-4.31626562e-08,1.92064063e-01
-4.31226562e-08,1.92145312e-01
-4.30826562e-08,1.92029688e-01
-4.30426562e-08,1.92323437e-01
-4.30026562e-08,1.92537500e-01
-4.29626562e-08,1.92485938e-01
-4.29226562e-08,1.92503125e-01
-4.28826562e-08,1.92503125e-01
-4.28426562e-08,1.92492188e-01
-4.28026562e-08,1.92514062e-01
-4.27626562e-08,1.92479687e-01
-4.27226562e-08,1.92531250e-01
-4.26826562e-08,1.92442188e-01
-4.26426562e-08,1.92710938e-01
-4.26026562e-08,1.92950000e-01
-4.25626562e-08,1.92875000e-01
-4.25226563e-08,1.92914063e-01
-4.24826562e-08,1.92890625e-01
-4.24426562e-08,1.92904688e-01
-4.24026562e-08,1.92900000e-01
-4.23626562e-08,1.92896875e-01
-4.23226562e-08,1.92907812e-01
-4.22826562e-08,1.92885937e-01
-4.22426563e-08,1.92925000e-01
-4.22026562e-08,1.92850000e-01
-4.21626562e-08,1.93104688e-01
-4.21226562e-08,1.93357813e-01
-4.20826562e-08,1.93267187e-01
-4.20426562e-08,1.93323438e-01
-4.20026562e-08,1.93282813e-01
-4.19626563e-08,1.93314062e-01
-4.19226562e-08,1.93289062e-01
-4.18826562e-08,1.93309375e-01
-4.18426562e-08,1.93292188e-01
-4.18026562e-08,1.93306250e-01
-4.17626562e-08,1.93296875e-01
-4.17226562e-08,1.93301562e-01
-4.16826563e-08,1.93301562e-01
-4.16426562e-08,1.93295313e-01
-4.16026562e-08,1.93309375e-01
-4.15626562e-08,1.93281250e-01
-4.15226562e-08,1.93343750e-01
-4.14826562e-08,1.93103125e-01
-4.14426562e-08,1.92834375e-01
-4.14026563e-08,1.92940625e-01
-4.13626562e-08,1.92868750e-01
-4.13226562e-08,1.92926563e-01
-4.12826562e-08,1.92875000e-01
-4.12426562e-08,1.92923438e-01
-4.12026562e-08,1.92878125e-01
-4.11626562e-08,1.92921875e-01
-4.11226563e-08,1.92876563e-01
-4.10826562e-08,1.92925000e-01
-4.10426562e-08,1.92873438e-01
-4.10026562e-08,1.92931250e-01
-4.09626562e-08,1.92859375e-01
-4.09226562e-08,1.92965625e-01
-4.08826562e-08,1.92681250e-01
-4.08426562e-08,1.92456250e-01
-4.08026562e-08,1.92520313e-01
-4.07626562e-08,1.92489063e-01
-4.07226562e-08,1.92506250e-01
-4.06826562e-08,1.92496875e-01
-4.06426562e-08,1.92500000e-01
-4.06026563e-08,1.92501563e-01
-4.05626562e-08,1.92496875e-01
-4.05226562e-08,1.92504687e-01
-4.04826562e-08,1.92492188e-01
-4.04426562e-08,1.92509375e-01
-4.04026562e-08,1.92487500e-01
-4.03626562e-08,1.92518750e-01
-4.03226563e-08,1.92471875e-01
-4.02826562e-08,1.92553125e-01
-4.02426562e-08,1.92293750e-01
-4.02026562e-08,1.92043750e-01
-4.01626562e-08,1.92132812e-01
-4.01226562e-08,1.92076562e-01
-4.00826562e-08,1.92117188e-01
-4.00426563e-08,1.92085937e-01
-4.00026562e-08,1.92112500e-01
-3.99626562e-08,1.92089063e-01
-3.99226562e-08,1.92110937e-01
-3.98826562e-08,1.92090625e-01
-3.98426562e-08,1.92109375e-01
-3.98026562e-08,1.92092188e-01
-3.97626563e-08,1.92107813e-01
-3.97226562e-08,1.92092188e-01
-3.96826562e-08,1.92107813e-01
-3.96426562e-08,1.92092188e-01
-3.96026562e-08,1.92107813e-01
-3.95626562e-08,1.92092188e-01
-3.95226562e-08,1.92107813e-01
-3.94826563e-08,1.92092188e-01
-3.94426562e-08,1.92107813e-01
-3.94026562e-08,1.92092188e-01
-3.93626562e-08,1.92109375e-01
-3.93226562e-08,1.92090625e-01
-3.92826562e-08,1.92109375e-01
-3.92426562e-08,1.92089063e-01
-3.92026563e-08,1.92112500e-01
-3.91626562e-08,1.92085937e-01
-3.91226562e-08,1.92115625e-01
-3.90826562e-08,1.92081250e-01
-3.90426562e-08,1.92123437e-01
-3.90026562e-08,1.92067188e-01
-3.89626562e-08,1.92157812e-01
-3.89226562e-08,1.91887500e-01
-3.88826562e-08,1.91650000e-01
-3.88426562e-08,1.91726563e-01
-3.88026562e-08,1.91682813e-01
-3.87626562e-08,1.91712500e-01
-3.87226562e-08,1.91692187e-01
-3.86826563e-08,1.91706250e-01
-3.86426562e-08,1.91695313e-01
-3.86026562e-08,1.91703125e-01
-3.85626562e-08,1.91698438e-01
-3.85226562e-08,1.91700000e-01
