trails/0bdfa5e45fec98341abdd20552c140b4/aes_ch1_20250507115635115.csv

Model,MSO66B
Label,
Waveform Type,ANALOG
Horizontal Units,s
Sample Interval,4.00000000e-11
Record Length,10000
Zero Index,1599.06250000
Vertical Units,A
ANALOG_Thumbnail,
yOffset,1.84500000e-01
yPosition,8.40000000e-01

Labels,
TIME,CH1
-6.39625000e-08,1.97292187e-01
-6.39225000e-08,1.97314062e-01
-6.38825000e-08,1.97276563e-01
-6.38425000e-08,1.97348438e-01
-6.38025000e-08,1.97098438e-01
-6.37625000e-08,1.96840625e-01
-6.37225000e-08,1.96935938e-01
-6.36825000e-08,1.96871875e-01
-6.36425000e-08,1.96923438e-01
-6.36025000e-08,1.96878125e-01
-6.35625000e-08,1.96920312e-01
-6.35225000e-08,1.96878125e-01
-6.34825000e-08,1.96925000e-01
-6.34425000e-08,1.96865625e-01
-6.34025000e-08,1.96957812e-01
-6.33625000e-08,1.96690625e-01
-6.33225000e-08,1.96446875e-01
-6.32825000e-08,1.96531250e-01
-6.32425000e-08,1.96476563e-01
-6.32025000e-08,1.96520313e-01
-6.31625000e-08,1.96481250e-01
-6.31225000e-08,1.96518750e-01
-6.30825000e-08,1.96479687e-01
-6.30425000e-08,1.96525000e-01
-6.30025000e-08,1.96465625e-01
-6.29625000e-08,1.96557813e-01
-6.29225000e-08,1.96289062e-01
-6.28825000e-08,1.96048438e-01
-6.28425000e-08,1.96128125e-01
-6.28025000e-08,1.96081250e-01
-6.27625000e-08,1.96114063e-01
-6.27225000e-08,1.96089063e-01
-6.26825000e-08,1.96109375e-01
-6.26425000e-08,1.96092188e-01
-6.26025000e-08,1.96107813e-01
-6.25625000e-08,1.96093750e-01
-6.25225000e-08,1.96106250e-01
-6.24825000e-08,1.96093750e-01
-6.24425000e-08,1.96104688e-01
-6.24025000e-08,1.96095313e-01
-6.23625000e-08,1.96104688e-01
-6.23225000e-08,1.96095313e-01
-6.22825000e-08,1.96104688e-01
-6.22425000e-08,1.96095313e-01
-6.22025000e-08,1.96104688e-01
-6.21625000e-08,1.96095313e-01
-6.21225000e-08,1.96104688e-01
-6.20825000e-08,1.96095313e-01
-6.20425000e-08,1.96104688e-01
-6.20025000e-08,1.96093750e-01
-6.19625000e-08,1.96106250e-01
-6.19225000e-08,1.96093750e-01
-6.18825000e-08,1.96107813e-01
-6.18425000e-08,1.96090625e-01
-6.18025000e-08,1.96112500e-01
-6.17625000e-08,1.96082813e-01
-6.17225000e-08,1.96126563e-01
-6.16825000e-08,1.96050000e-01
-6.16425000e-08,1.96303125e-01
-6.16025000e-08,1.96559375e-01
-6.15625000e-08,1.96462500e-01
-6.15225000e-08,1.96529687e-01
-6.14825000e-08,1.96473438e-01
-6.14425000e-08,1.96526563e-01
-6.14025000e-08,1.96470313e-01
-6.13625000e-08,1.96537500e-01
-6.13225000e-08,1.96439063e-01
-6.12825000e-08,1.96712500e-01
-6.12425000e-08,1.96951563e-01
-6.12025000e-08,1.96870313e-01
-6.11625000e-08,1.96921875e-01
-6.11225000e-08,1.96881250e-01
-6.10825000e-08,1.96918750e-01
-6.10425000e-08,1.96878125e-01
-6.10025000e-08,1.96929688e-01
-6.09625000e-08,1.96846875e-01
-6.09225000e-08,1.97104688e-01
-6.08825000e-08,1.97359375e-01
-6.08425000e-08,1.97264063e-01
-6.08025000e-08,1.97328125e-01
-6.07625000e-08,1.97275000e-01
-6.07225000e-08,1.97323438e-01
-6.06825000e-08,1.97276563e-01
-6.06425000e-08,1.97325000e-01
-6.06025000e-08,1.97270313e-01
-6.05625000e-08,1.97339062e-01
-6.05225000e-08,1.97237500e-01
-6.04825000e-08,1.97515625e-01
-6.04425000e-08,1.97746875e-01
-6.04025000e-08,1.97676563e-01
-6.03625000e-08,1.97714063e-01
-6.03225000e-08,1.97692188e-01
-6.02825000e-08,1.97706250e-01
-6.02425000e-08,1.97696875e-01
-6.02025000e-08,1.97701563e-01
-6.01625000e-08,1.97700000e-01
-6.01225000e-08,1.97700000e-01
-6.00825000e-08,1.97701563e-01
-6.00425000e-08,1.97698438e-01
-6.00025000e-08,1.97703125e-01
-5.99625000e-08,1.97696875e-01
-5.99225000e-08,1.97704688e-01
-5.98825000e-08,1.97695312e-01
-5.98425000e-08,1.97706250e-01
-5.98025000e-08,1.97692188e-01
-5.97625000e-08,1.97707812e-01
-5.97225000e-08,1.97690625e-01
-5.96825000e-08,1.97710938e-01
-5.96425000e-08,1.97685938e-01
-5.96025000e-08,1.97717188e-01
-5.95625000e-08,1.97676563e-01
-5.95225000e-08,1.97732813e-01
-5.94825000e-08,1.97642188e-01
-5.94425000e-08,1.97910937e-01
-5.94025000e-08,1.98150000e-01
-5.93625000e-08,1.98073438e-01
-5.93225000e-08,1.98115625e-01
-5.92825000e-08,1.98089062e-01
-5.92425000e-08,1.98106250e-01
-5.92025000e-08,1.98096875e-01
-5.91625000e-08,1.98101562e-01
-5.91225000e-08,1.98101562e-01
-5.90825000e-08,1.98096875e-01
-5.90425000e-08,1.98106250e-01
-5.90025000e-08,1.98089062e-01
-5.89625000e-08,1.98115625e-01
-5.89225000e-08,1.98073438e-01
-5.88825000e-08,1.98151563e-01
-5.88425000e-08,1.97895313e-01
-5.88025000e-08,1.97643750e-01
-5.87625000e-08,1.97732813e-01
-5.87225000e-08,1.97678125e-01
-5.86825000e-08,1.97717188e-01
-5.86425000e-08,1.97687500e-01
-5.86025000e-08,1.97710938e-01
-5.85625000e-08,1.97690625e-01
-5.85225000e-08,1.97706250e-01
-5.84825000e-08,1.97695312e-01
-5.84425000e-08,1.97703125e-01
-5.84025000e-08,1.97698438e-01
-5.83625000e-08,1.97700000e-01
-5.83225000e-08,1.97701563e-01
-5.82825000e-08,1.97696875e-01
-5.82425000e-08,1.97706250e-01
-5.82025000e-08,1.97690625e-01
-5.81625000e-08,1.97715625e-01
-5.81225000e-08,1.97675000e-01
-5.80825000e-08,1.97751563e-01
-5.80425000e-08,1.97495313e-01
-5.80025000e-08,1.97243750e-01
-5.79625000e-08,1.97331250e-01
-5.79225000e-08,1.97278125e-01
-5.78825000e-08,1.97315625e-01
-5.78425000e-08,1.97290625e-01
-5.78025000e-08,1.97304688e-01
-5.77625000e-08,1.97301562e-01
-5.77225000e-08,1.97287500e-01
-5.76825000e-08,1.97337500e-01
-5.76425000e-08,1.97107813e-01
-5.76025000e-08,1.96829688e-01
-5.75625000e-08,1.96946875e-01
-5.75225000e-08,1.96862500e-01
-5.74825000e-08,1.96932812e-01
-5.74425000e-08,1.96870313e-01
-5.74025000e-08,1.96928125e-01
-5.73625000e-08,1.96871875e-01
-5.73225000e-08,1.96929688e-01
-5.72825000e-08,1.96868750e-01
-5.72425000e-08,1.96934375e-01
-5.72025000e-08,1.96856250e-01
-5.71625000e-08,1.96968750e-01
-5.71225000e-08,1.96679688e-01
-5.70825000e-08,1.96457812e-01
-5.70425000e-08,1.96518750e-01
-5.70025000e-08,1.96490625e-01
-5.69625000e-08,1.96506250e-01
-5.69225000e-08,1.96496875e-01
-5.68825000e-08,1.96501563e-01
-5.68425000e-08,1.96500000e-01
-5.68025000e-08,1.96500000e-01
-5.67625000e-08,1.96501563e-01
-5.67225000e-08,1.96498438e-01
-5.66825000e-08,1.96501563e-01
-5.66425000e-08,1.96498438e-01
-5.66025000e-08,1.96501563e-01
-5.65625000e-08,1.96500000e-01
-5.65225000e-08,1.96500000e-01
-5.64825000e-08,1.96500000e-01
-5.64425000e-08,1.96498438e-01
-5.64025000e-08,1.96503125e-01
-5.63625000e-08,1.96495313e-01
-5.63225000e-08,1.96507813e-01
-5.62825000e-08,1.96487500e-01
-5.62425000e-08,1.96521875e-01
-5.62025000e-08,1.96453125e-01
-5.61625000e-08,1.96700000e-01
-5.61225000e-08,1.96962500e-01
-5.60825000e-08,1.96860937e-01
-5.60425000e-08,1.96931250e-01
-5.60025000e-08,1.96873437e-01
-5.59625000e-08,1.96923438e-01
-5.59225000e-08,1.96878125e-01
-5.58825000e-08,1.96921875e-01
-5.58425000e-08,1.96878125e-01
-5.58025000e-08,1.96921875e-01
-5.57625000e-08,1.96876563e-01
-5.57225000e-08,1.96925000e-01
-5.56825000e-08,1.96870313e-01
-5.56425000e-08,1.96939063e-01
-5.56025000e-08,1.96835938e-01
-5.55625000e-08,1.97115625e-01
-5.55225000e-08,1.97346875e-01
-5.54825000e-08,1.97276563e-01
-5.54425000e-08,1.97315625e-01
-5.54025000e-08,1.97289063e-01
-5.53625000e-08,1.97309375e-01
-5.53225000e-08,1.97290625e-01
-5.52825000e-08,1.97310938e-01
-5.52425000e-08,1.97284375e-01
-5.52025000e-08,1.97323438e-01
-5.51625000e-08,1.97251563e-01
-5.51225000e-08,1.97500000e-01
-5.50825000e-08,1.97762500e-01
-5.50425000e-08,1.97659375e-01
-5.50025000e-08,1.97731250e-01
-5.49625000e-08,1.97671875e-01
-5.49225000e-08,1.97725000e-01
-5.48825000e-08,1.97675000e-01
-5.48425000e-08,1.97725000e-01
-5.48025000e-08,1.97673437e-01
-5.47625000e-08,1.97728125e-01
-5.47225000e-08,1.97667188e-01
-5.46825000e-08,1.97742187e-01
-5.46425000e-08,1.97632813e-01
-5.46025000e-08,1.97920313e-01
-5.45625000e-08,1.98142188e-01
-5.45225000e-08,1.98081250e-01
-5.44825000e-08,1.98109375e-01
-5.44425000e-08,1.98095313e-01
-5.44025000e-08,1.98101562e-01
-5.43625000e-08,1.98101562e-01
-5.43225000e-08,1.98096875e-01
-5.42825000e-08,1.98104688e-01
-5.42425000e-08,1.98095313e-01
-5.42025000e-08,1.98106250e-01
-5.41625000e-08,1.98093750e-01
-5.41225000e-08,1.98107813e-01
-5.40825000e-08,1.98092188e-01
-5.40425000e-08,1.98109375e-01
-5.40025000e-08,1.98089062e-01
-5.39625000e-08,1.98110938e-01
-5.39225000e-08,1.98087500e-01
-5.38825000e-08,1.98114063e-01
-5.38425000e-08,1.98084375e-01
-5.38025000e-08,1.98117188e-01
-5.37625000e-08,1.98078125e-01
-5.37225000e-08,1.98126563e-01
-5.36825000e-08,1.98064062e-01
-5.36425000e-08,1.98160938e-01
-5.36025000e-08,1.97884375e-01
-5.35625000e-08,1.97653125e-01
-5.35225000e-08,1.97723438e-01
-5.34825000e-08,1.97687500e-01
-5.34425000e-08,1.97707812e-01
-5.34025000e-08,1.97695312e-01
-5.33625000e-08,1.97701563e-01
-5.33225000e-08,1.97700000e-01
-5.32825000e-08,1.97698438e-01
-5.32425000e-08,1.97703125e-01
-5.32025000e-08,1.97695312e-01
-5.31625000e-08,1.97706250e-01
-5.31225000e-08,1.97693750e-01
-5.30825000e-08,1.97709375e-01
-5.30425000e-08,1.97689063e-01
-5.30025000e-08,1.97712500e-01
-5.29625000e-08,1.97682812e-01
-5.29225000e-08,1.97721875e-01
-5.28825000e-08,1.97668750e-01
-5.28425000e-08,1.97757813e-01
-5.28025000e-08,1.97489063e-01
-5.27625000e-08,1.97248438e-01
-5.27225000e-08,1.97326562e-01
-5.26825000e-08,1.97282813e-01
-5.26425000e-08,1.97312500e-01
-5.26025000e-08,1.97290625e-01
-5.25625000e-08,1.97306250e-01
-5.25225000e-08,1.97295313e-01
-5.24825000e-08,1.97303125e-01
-5.24425000e-08,1.97298438e-01
-5.24025000e-08,1.97301562e-01
-5.23625000e-08,1.97300000e-01
-5.23225000e-08,1.97298438e-01
-5.22825000e-08,1.97301562e-01
-5.22425000e-08,1.97296875e-01
-5.22025000e-08,1.97304688e-01
-5.21625000e-08,1.97293750e-01
-5.21225000e-08,1.97307813e-01
-5.20825000e-08,1.97290625e-01
-5.20425000e-08,1.97314062e-01
-5.20025000e-08,1.97281250e-01
-5.19625000e-08,1.97328125e-01
-5.19225000e-08,1.97246875e-01
-5.18825000e-08,1.97506250e-01
-5.18425000e-08,1.97754687e-01
-5.18025000e-08,1.97668750e-01
-5.17625000e-08,1.97721875e-01
-5.17225000e-08,1.97682812e-01
-5.16825000e-08,1.97714063e-01
-5.16425000e-08,1.97689063e-01
-5.16025000e-08,1.97709375e-01
-5.15625000e-08,1.97692188e-01
-5.15225000e-08,1.97707812e-01
-5.14825000e-08,1.97693750e-01
-5.14425000e-08,1.97706250e-01
-5.14025000e-08,1.97695312e-01
-5.13625000e-08,1.97704688e-01
-5.13225000e-08,1.97695312e-01
-5.12825000e-08,1.97704688e-01
-5.12425000e-08,1.97696875e-01
-5.12025000e-08,1.97703125e-01
-5.11625000e-08,1.97696875e-01
-5.11225000e-08,1.97703125e-01
-5.10825000e-08,1.97696875e-01
-5.10425000e-08,1.97703125e-01
-5.10025000e-08,1.97698438e-01
-5.09625000e-08,1.97701563e-01
-5.09225000e-08,1.97698438e-01
-5.08825000e-08,1.97701563e-01
-5.08425000e-08,1.97698438e-01
-5.08025000e-08,1.97701563e-01
-5.07625000e-08,1.97698438e-01
-5.07225000e-08,1.97701563e-01
-5.06825000e-08,1.97698438e-01
-5.06425000e-08,1.97701563e-01
-5.06025000e-08,1.97698438e-01
-5.05625000e-08,1.97700000e-01
-5.05225000e-08,1.97700000e-01
-5.04825000e-08,1.97700000e-01
-5.04425000e-08,1.97700000e-01
-5.04025000e-08,1.97700000e-01
-5.03625000e-08,1.97700000e-01
-5.03225000e-08,1.97700000e-01
-5.02825000e-08,1.97700000e-01
-5.02425000e-08,1.97700000e-01
-5.02025000e-08,1.97700000e-01
-5.01625000e-08,1.97700000e-01
-5.01225000e-08,1.97700000e-01
-5.00825000e-08,1.97700000e-01
-5.00425000e-08,1.97700000e-01
-5.00025000e-08,1.97700000e-01
-4.99625000e-08,1.97700000e-01
-4.99225000e-08,1.97700000e-01
-4.98825000e-08,1.97700000e-01
-4.98425000e-08,1.97700000e-01
-4.98025000e-08,1.97700000e-01
-4.97625000e-08,1.97700000e-01
-4.97225000e-08,1.97700000e-01
-4.96825000e-08,1.97700000e-01
-4.96425000e-08,1.97700000e-01
-4.96025000e-08,1.97698438e-01
-4.95625000e-08,1.97701563e-01
-4.95225000e-08,1.97698438e-01
-4.94825000e-08,1.97701563e-01
-4.94425000e-08,1.97698438e-01
-4.94025000e-08,1.97701563e-01
-4.93625000e-08,1.97698438e-01
-4.93225000e-08,1.97701563e-01
-4.92825000e-08,1.97698438e-01
-4.92425000e-08,1.97701563e-01
-4.92025000e-08,1.97698438e-01
-4.91625000e-08,1.97701563e-01
-4.91225000e-08,1.97698438e-01
-4.90825000e-08,1.97701563e-01
-4.90425000e-08,1.97700000e-01
-4.90025000e-08,1.97700000e-01
-4.89625000e-08,1.97700000e-01
-4.89225000e-08,1.97700000e-01
-4.88825000e-08,1.97700000e-01
-4.88425000e-08,1.97700000e-01
-4.88025000e-08,1.97700000e-01
-4.87625000e-08,1.97700000e-01
-4.87225000e-08,1.97701563e-01
-4.86825000e-08,1.97698438e-01
-4.86425000e-08,1.97703125e-01
-4.86025000e-08,1.97695312e-01
-4.85625000e-08,1.97706250e-01
-4.85225000e-08,1.97692188e-01
-4.84825000e-08,1.97712500e-01
-4.84425000e-08,1.97678125e-01
-4.84025000e-08,1.97746875e-01
-4.83625000e-08,1.97500000e-01
-4.83225000e-08,1.97235938e-01
-4.82825000e-08,1.97340625e-01
-4.82425000e-08,1.97268750e-01
-4.82025000e-08,1.97328125e-01
-4.81625000e-08,1.97273438e-01
-4.81225000e-08,1.97326562e-01
-4.80825000e-08,1.97271875e-01
-4.80425000e-08,1.97331250e-01
-4.80025000e-08,1.97260938e-01
-4.79625000e-08,1.97364062e-01
-4.79225000e-08,1.97084375e-01
-4.78825000e-08,1.96851563e-01
-4.78425000e-08,1.96926563e-01
-4.78025000e-08,1.96881250e-01
-4.77625000e-08,1.96918750e-01
-4.77225000e-08,1.96875000e-01
-4.76825000e-08,1.96946875e-01
-4.76425000e-08,1.96703125e-01
-4.76025000e-08,1.96431250e-01
-4.75625000e-08,1.96546875e-01
-4.75225000e-08,1.96457812e-01
-4.74825000e-08,1.96543750e-01
-4.74425000e-08,1.96448438e-01
-4.74025000e-08,1.96575000e-01
-4.73625000e-08,1.96271875e-01
-4.73225000e-08,1.96065625e-01
-4.72825000e-08,1.96109375e-01
-4.72425000e-08,1.96101562e-01
-4.72025000e-08,1.96090625e-01
-4.71625000e-08,1.96117188e-01
-4.71225000e-08,1.96070313e-01
-4.70825000e-08,1.96156250e-01
-4.70425000e-08,1.95890625e-01
-4.70025000e-08,1.95648437e-01
-4.69625000e-08,1.95726563e-01
-4.69225000e-08,1.95682812e-01
-4.68825000e-08,1.95710938e-01
-4.68425000e-08,1.95692188e-01
-4.68025000e-08,1.95704688e-01
-4.67625000e-08,1.95696875e-01
-4.67225000e-08,1.95700000e-01
-4.66825000e-08,1.95701563e-01
-4.66425000e-08,1.95696875e-01
-4.66025000e-08,1.95704688e-01
-4.65625000e-08,1.95692188e-01
-4.65225000e-08,1.95709375e-01
-4.64825000e-08,1.95685938e-01
-4.64425000e-08,1.95718750e-01
-4.64025000e-08,1.95670312e-01
-4.63625000e-08,1.95754687e-01
-4.63225000e-08,1.95492187e-01
-4.62825000e-08,1.95245313e-01
-4.62425000e-08,1.95329688e-01
-4.62025000e-08,1.95279688e-01
-4.61625000e-08,1.95314062e-01
-4.61225000e-08,1.95289062e-01
-4.60825000e-08,1.95309375e-01
-4.60425000e-08,1.95292188e-01
-4.60025000e-08,1.95306250e-01
-4.59625000e-08,1.95295313e-01
-4.59225000e-08,1.95303125e-01
-4.58825000e-08,1.95296875e-01
-4.58425000e-08,1.95301562e-01
-4.58025000e-08,1.95300000e-01
-4.57625000e-08,1.95300000e-01
-4.57225000e-08,1.95301562e-01
-4.56825000e-08,1.95298438e-01
-4.56425000e-08,1.95303125e-01
-4.56025000e-08,1.95295313e-01
-4.55625000e-08,1.95306250e-01
-4.55225000e-08,1.95292188e-01
-4.54825000e-08,1.95309375e-01
-4.54425000e-08,1.95285938e-01
-4.54025000e-08,1.95318750e-01
-4.53625000e-08,1.95271875e-01
-4.53225000e-08,1.95353125e-01
-4.52825000e-08,1.95093750e-01
-4.52425000e-08,1.94845313e-01
-4.52025000e-08,1.94931250e-01
-4.51625000e-08,1.94878125e-01
-4.51225000e-08,1.94917188e-01
-4.50825000e-08,1.94887500e-01
-4.50425000e-08,1.94910937e-01
-4.50025000e-08,1.94890625e-01
-4.49625000e-08,1.94907812e-01
-4.49225000e-08,1.94892188e-01
-4.48825000e-08,1.94906250e-01
-4.48425000e-08,1.94895313e-01
-4.48025000e-08,1.94904688e-01
-4.47625000e-08,1.94895313e-01
-4.47225000e-08,1.94903125e-01
-4.46825000e-08,1.94896875e-01
-4.46425000e-08,1.94903125e-01
-4.46025000e-08,1.94896875e-01
-4.45625000e-08,1.94901563e-01
-4.45225000e-08,1.94898438e-01
-4.44825000e-08,1.94901563e-01
-4.44425000e-08,1.94898438e-01
-4.44025000e-08,1.94900000e-01
-4.43625000e-08,1.94900000e-01
-4.43225000e-08,1.94900000e-01
-4.42825000e-08,1.94900000e-01
-4.42425000e-08,1.94898438e-01
-4.42025000e-08,1.94901563e-01
-4.41625000e-08,1.94898438e-01
-4.41225000e-08,1.94901563e-01
-4.40825000e-08,1.94896875e-01
-4.40425000e-08,1.94903125e-01
-4.40025000e-08,1.94895313e-01
-4.39625000e-08,1.94904688e-01
-4.39225000e-08,1.94893750e-01
-4.38825000e-08,1.94906250e-01
-4.38425000e-08,1.94892188e-01
-4.38025000e-08,1.94909375e-01
-4.37625000e-08,1.94889063e-01
-4.37225000e-08,1.94915625e-01
-4.36825000e-08,1.94879688e-01
-4.36425000e-08,1.94929688e-01
-4.36025000e-08,1.94845313e-01
-4.35625000e-08,1.95107813e-01
-4.35225000e-08,1.95353125e-01
-4.34825000e-08,1.95270313e-01
-4.34425000e-08,1.95320313e-01
-4.34025000e-08,1.95284375e-01
-4.33625000e-08,1.95312500e-01
-4.33225000e-08,1.95290625e-01
-4.32825000e-08,1.95307813e-01
-4.32425000e-08,1.95293750e-01
-4.32025000e-08,1.95306250e-01
-4.31625000e-08,1.95295313e-01
-4.31225000e-08,1.95303125e-01
-4.30825000e-08,1.95296875e-01
-4.30425000e-08,1.95303125e-01
-4.30025000e-08,1.95298438e-01
-4.29625000e-08,1.95301562e-01
-4.29225000e-08,1.95300000e-01
-4.28825000e-08,1.95300000e-01
-4.28425000e-08,1.95301562e-01
-4.28025000e-08,1.95298438e-01
-4.27625000e-08,1.95303125e-01
-4.27225000e-08,1.95296875e-01
-4.26825000e-08,1.95304688e-01
-4.26425000e-08,1.95293750e-01
-4.26025000e-08,1.95309375e-01
-4.25625000e-08,1.95287500e-01
-4.25225000e-08,1.95317188e-01
-4.24825000e-08,1.95273438e-01
-4.24425000e-08,1.95351563e-01
-4.24025000e-08,1.95095313e-01
-4.23625000e-08,1.94843750e-01
-4.23225000e-08,1.94932812e-01
-4.22825000e-08,1.94876563e-01
-4.22425000e-08,1.94918750e-01
-4.22025000e-08,1.94884375e-01
-4.21625000e-08,1.94914063e-01
-4.21225000e-08,1.94887500e-01
-4.20825000e-08,1.94910937e-01
-4.20425000e-08,1.94889063e-01
-4.20025000e-08,1.94909375e-01
-4.19625000e-08,1.94890625e-01
-4.19225000e-08,1.94909375e-01
-4.18825000e-08,1.94890625e-01
-4.18425000e-08,1.94910937e-01
-4.18025000e-08,1.94889063e-01
-4.17625000e-08,1.94914063e-01
-4.17225000e-08,1.94882813e-01
-4.16825000e-08,1.94926563e-01
-4.16425000e-08,1.94850000e-01
-4.16025000e-08,1.95101562e-01
-4.15625000e-08,1.95360937e-01
-4.15225000e-08,1.95260938e-01
-4.14825000e-08,1.95332813e-01
-4.14425000e-08,1.95270313e-01
-4.14025000e-08,1.95331250e-01
-4.13625000e-08,1.95265625e-01
-4.13225000e-08,1.95343750e-01
-4.12825000e-08,1.95229687e-01
-4.12425000e-08,1.95523438e-01
-4.12025000e-08,1.95737500e-01
-4.11625000e-08,1.95690625e-01
-4.11225000e-08,1.95695312e-01
-4.10825000e-08,1.95720312e-01
-4.10425000e-08,1.95651563e-01
-4.10025000e-08,1.95904688e-01
-4.09625000e-08,1.96154688e-01
-4.09225000e-08,1.96071875e-01
-4.08825000e-08,1.96112500e-01
-4.08425000e-08,1.96101562e-01
-4.08025000e-08,1.96070313e-01
-4.07625000e-08,1.96282813e-01
-4.07225000e-08,1.96578125e-01
-4.06825000e-08,1.96445312e-01
-4.06425000e-08,1.96548438e-01
-4.06025000e-08,1.96453125e-01
-4.05625000e-08,1.96553125e-01
-4.05225000e-08,1.96425000e-01
-4.04825000e-08,1.96726563e-01
-4.04425000e-08,1.96937500e-01
-4.04025000e-08,1.96884375e-01
-4.03625000e-08,1.96907813e-01
-4.03225000e-08,1.96896875e-01
-4.02825000e-08,1.96901563e-01
-4.02425000e-08,1.96900000e-01
-4.02025000e-08,1.96898438e-01
-4.01625000e-08,1.96901563e-01
-4.01225000e-08,1.96898438e-01
-4.00825000e-08,1.96901563e-01
-4.00425000e-08,1.96898438e-01
-4.00025000e-08,1.96903125e-01
-3.99625000e-08,1.96896875e-01
-3.99225000e-08,1.96903125e-01
-3.98825000e-08,1.96896875e-01
-3.98425000e-08,1.96901563e-01
-3.98025000e-08,1.96898438e-01
-3.97625000e-08,1.96901563e-01
-3.97225000e-08,1.96898438e-01
-3.96825000e-08,1.96901563e-01
-3.96425000e-08,1.96898438e-01
-3.96025000e-08,1.96901563e-01
-3.95625000e-08,1.96898438e-01
-3.95225000e-08,1.96901563e-01
-3.94825000e-08,1.96900000e-01
-3.94425000e-08,1.96900000e-01
-3.94025000e-08,1.96900000e-01
-3.93625000e-08,1.96900000e-01
-3.93225000e-08,1.96900000e-01
-3.92825000e-08,1.96898438e-01
-3.92425000e-08,1.96901563e-01
-3.92025000e-08,1.96898438e-01
-3.91625000e-08,1.96903125e-01
-3.91225000e-08,1.96896875e-01
-3.90825000e-08,1.96904688e-01
-3.90425000e-08,1.96893750e-01
-3.90025000e-08,1.96909375e-01
-3.89625000e-08,1.96887500e-01
-3.89225000e-08,1.96917188e-01
-3.88825000e-08,1.96873437e-01
-3.88425000e-08,1.96951563e-01
-3.88025000e-08,1.96695312e-01
-3.87625000e-08,1.96442188e-01
-3.87225000e-08,1.96532813e-01
-3.86825000e-08,1.96476563e-01
-3.86425000e-08,1.96518750e-01
-3.86025000e-08,1.96484375e-01
-3.85625000e-08,1.96514063e-01
-3.85225000e-08,1.96487500e-01
