trails/0bdfa5e45fec98341abdd20552c140b4/aes_ch1_20250507122450706.csv

Model,MSO66B
Label,
Waveform Type,ANALOG
Horizontal Units,s
Sample Interval,4.00000000e-11
Record Length,10000
Zero Index,1599.03515625
Vertical Units,A
ANALOG_Thumbnail,
yOffset,1.84500000e-01
yPosition,8.40000000e-01

Labels,
TIME,CH1
-6.39614062e-08,1.95314062e-01
-6.39214062e-08,1.95285938e-01
-6.38814062e-08,1.95312500e-01
-6.38414063e-08,1.95287500e-01
-6.38014062e-08,1.95314062e-01
-6.37614063e-08,1.95285938e-01
-6.37214062e-08,1.95315625e-01
-6.36814062e-08,1.95281250e-01
-6.36414062e-08,1.95323438e-01
-6.36014062e-08,1.95267187e-01
-6.35614063e-08,1.95357813e-01
-6.35214062e-08,1.95089063e-01
-6.34814063e-08,1.94848437e-01
-6.34414062e-08,1.94928125e-01
-6.34014062e-08,1.94881250e-01
-6.33614062e-08,1.94914063e-01
-6.33214062e-08,1.94889063e-01
-6.32814063e-08,1.94909375e-01
-6.32414062e-08,1.94892188e-01
-6.32014063e-08,1.94906250e-01
-6.31614062e-08,1.94893750e-01
-6.31214062e-08,1.94904688e-01
-6.30814062e-08,1.94895313e-01
-6.30414062e-08,1.94904688e-01
-6.30014063e-08,1.94895313e-01
-6.29614062e-08,1.94904688e-01
-6.29214063e-08,1.94896875e-01
-6.28814062e-08,1.94903125e-01
-6.28414062e-08,1.94896875e-01
-6.28014062e-08,1.94903125e-01
-6.27614062e-08,1.94896875e-01
-6.27214063e-08,1.94903125e-01
-6.26814062e-08,1.94896875e-01
-6.26414062e-08,1.94903125e-01
-6.26014062e-08,1.94896875e-01
-6.25614062e-08,1.94903125e-01
-6.25214062e-08,1.94896875e-01
-6.24814062e-08,1.94903125e-01
-6.24414063e-08,1.94896875e-01
-6.24014062e-08,1.94903125e-01
-6.23614062e-08,1.94896875e-01
-6.23214062e-08,1.94903125e-01
-6.22814062e-08,1.94896875e-01
-6.22414062e-08,1.94903125e-01
-6.22014062e-08,1.94896875e-01
-6.21614063e-08,1.94903125e-01
-6.21214062e-08,1.94896875e-01
-6.20814062e-08,1.94903125e-01
-6.20414062e-08,1.94896875e-01
-6.20014062e-08,1.94904688e-01
-6.19614062e-08,1.94895313e-01
-6.19214062e-08,1.94904688e-01
-6.18814063e-08,1.94895313e-01
-6.18414062e-08,1.94906250e-01
-6.18014062e-08,1.94893750e-01
-6.17614062e-08,1.94907812e-01
-6.17214062e-08,1.94892188e-01
-6.16814062e-08,1.94909375e-01
-6.16414062e-08,1.94889063e-01
-6.16014063e-08,1.94914063e-01
-6.15614062e-08,1.94879688e-01
-6.15214062e-08,1.94929688e-01
-6.14814062e-08,1.94845313e-01
-6.14414062e-08,1.95107813e-01
-6.14014062e-08,1.95354688e-01
-6.13614062e-08,1.95268750e-01
-6.13214063e-08,1.95321875e-01
-6.12814062e-08,1.95282813e-01
-6.12414062e-08,1.95314062e-01
-6.12014062e-08,1.95287500e-01
-6.11614062e-08,1.95310938e-01
-6.11214062e-08,1.95290625e-01
-6.10814062e-08,1.95309375e-01
-6.10414063e-08,1.95292188e-01
-6.10014062e-08,1.95307813e-01
-6.09614062e-08,1.95292188e-01
-6.09214062e-08,1.95307813e-01
-6.08814062e-08,1.95293750e-01
-6.08414062e-08,1.95306250e-01
-6.08014062e-08,1.95293750e-01
-6.07614063e-08,1.95306250e-01
-6.07214062e-08,1.95293750e-01
-6.06814062e-08,1.95306250e-01
-6.06414062e-08,1.95293750e-01
-6.06014062e-08,1.95306250e-01
-6.05614063e-08,1.95293750e-01
-6.05214062e-08,1.95306250e-01
-6.04814063e-08,1.95293750e-01
-6.04414062e-08,1.95306250e-01
-6.04014062e-08,1.95292188e-01
-6.03614062e-08,1.95307813e-01
-6.03214062e-08,1.95292188e-01
-6.02814063e-08,1.95307813e-01
-6.02414062e-08,1.95292188e-01
-6.02014063e-08,1.95309375e-01
-6.01614062e-08,1.95290625e-01
-6.01214062e-08,1.95309375e-01
-6.00814062e-08,1.95289062e-01
-6.00414062e-08,1.95312500e-01
-6.00014063e-08,1.95285938e-01
-5.99614062e-08,1.95317188e-01
-5.99214063e-08,1.95278125e-01
-5.98814062e-08,1.95331250e-01
-5.98414062e-08,1.95243750e-01
-5.98014062e-08,1.95509375e-01
-5.97614062e-08,1.95753125e-01
-5.97214063e-08,1.95668750e-01
-5.96814062e-08,1.95721875e-01
-5.96414063e-08,1.95681250e-01
-5.96014062e-08,1.95718750e-01
-5.95614062e-08,1.95679688e-01
-5.95214062e-08,1.95728125e-01
-5.94814062e-08,1.95650000e-01
-5.94414062e-08,1.95901563e-01
-5.94014062e-08,1.96164063e-01
-5.93614062e-08,1.96057813e-01
-5.93214062e-08,1.96137500e-01
-5.92814062e-08,1.96062500e-01
-5.92414062e-08,1.96145313e-01
-5.92014062e-08,1.96031250e-01
-5.91614062e-08,1.96321875e-01
-5.91214062e-08,1.96539063e-01
-5.90814062e-08,1.96484375e-01
-5.90414062e-08,1.96504687e-01
-5.90014062e-08,1.96503125e-01
-5.89614062e-08,1.96489063e-01
-5.89214062e-08,1.96523438e-01
-5.88814062e-08,1.96451563e-01
-5.88414062e-08,1.96703125e-01
-5.88014062e-08,1.96957812e-01
-5.87614062e-08,1.96865625e-01
-5.87214062e-08,1.96923438e-01
-5.86814062e-08,1.96881250e-01
-5.86414062e-08,1.96915625e-01
-5.86014062e-08,1.96887500e-01
-5.85614062e-08,1.96910937e-01
-5.85214062e-08,1.96890625e-01
-5.84814062e-08,1.96909375e-01
-5.84414062e-08,1.96892188e-01
-5.84014062e-08,1.96906250e-01
-5.83614062e-08,1.96893750e-01
-5.83214062e-08,1.96906250e-01
-5.82814062e-08,1.96895313e-01
-5.82414062e-08,1.96904688e-01
-5.82014062e-08,1.96895313e-01
-5.81614062e-08,1.96903125e-01
-5.81214062e-08,1.96896875e-01
-5.80814062e-08,1.96903125e-01
-5.80414062e-08,1.96896875e-01
-5.80014062e-08,1.96901563e-01
-5.79614062e-08,1.96898438e-01
-5.79214062e-08,1.96901563e-01
-5.78814062e-08,1.96900000e-01
-5.78414062e-08,1.96900000e-01
-5.78014062e-08,1.96901563e-01
-5.77614062e-08,1.96898438e-01
-5.77214062e-08,1.96903125e-01
-5.76814062e-08,1.96895313e-01
-5.76414062e-08,1.96906250e-01
-5.76014062e-08,1.96890625e-01
-5.75614062e-08,1.96915625e-01
-5.75214062e-08,1.96875000e-01
-5.74814062e-08,1.96950000e-01
-5.74414062e-08,1.96696875e-01
-5.74014062e-08,1.96440625e-01
-5.73614062e-08,1.96535938e-01
-5.73214062e-08,1.96473438e-01
-5.72814062e-08,1.96521875e-01
-5.72414062e-08,1.96481250e-01
-5.72014062e-08,1.96515625e-01
-5.71614062e-08,1.96484375e-01
-5.71214062e-08,1.96514063e-01
-5.70814062e-08,1.96487500e-01
-5.70414062e-08,1.96512500e-01
-5.70014062e-08,1.96487500e-01
-5.69614062e-08,1.96512500e-01
-5.69214062e-08,1.96487500e-01
-5.68814062e-08,1.96512500e-01
-5.68414062e-08,1.96487500e-01
-5.68014062e-08,1.96512500e-01
-5.67614062e-08,1.96487500e-01
-5.67214062e-08,1.96512500e-01
-5.66814062e-08,1.96485938e-01
-5.66414062e-08,1.96514063e-01
-5.66014062e-08,1.96484375e-01
-5.65614062e-08,1.96517187e-01
-5.65214062e-08,1.96479687e-01
-5.64814062e-08,1.96525000e-01
-5.64414062e-08,1.96465625e-01
-5.64014062e-08,1.96559375e-01
-5.63614062e-08,1.96287500e-01
-5.63214062e-08,1.96050000e-01
-5.62814062e-08,1.96126563e-01
-5.62414062e-08,1.96082813e-01
-5.62014062e-08,1.96110937e-01
-5.61614062e-08,1.96090625e-01
-5.61214062e-08,1.96106250e-01
-5.60814062e-08,1.96095313e-01
-5.60414062e-08,1.96104688e-01
-5.60014062e-08,1.96096875e-01
-5.59614062e-08,1.96103125e-01
-5.59214062e-08,1.96096875e-01
-5.58814062e-08,1.96101562e-01
-5.58414062e-08,1.96098438e-01
-5.58014062e-08,1.96101562e-01
-5.57614062e-08,1.96098438e-01
-5.57214062e-08,1.96101562e-01
-5.56814062e-08,1.96098438e-01
-5.56414062e-08,1.96101562e-01
-5.56014062e-08,1.96098438e-01
-5.55614062e-08,1.96101562e-01
-5.55214062e-08,1.96098438e-01
-5.54814062e-08,1.96101562e-01
-5.54414062e-08,1.96098438e-01
-5.54014062e-08,1.96101562e-01
-5.53614062e-08,1.96098438e-01
-5.53214062e-08,1.96101562e-01
-5.52814062e-08,1.96098438e-01
-5.52414062e-08,1.96103125e-01
-5.52014062e-08,1.96096875e-01
-5.51614062e-08,1.96103125e-01
-5.51214062e-08,1.96095313e-01
-5.50814062e-08,1.96106250e-01
-5.50414062e-08,1.96092188e-01
-5.50014062e-08,1.96110937e-01
-5.49614062e-08,1.96084375e-01
-5.49214062e-08,1.96125000e-01
-5.48814062e-08,1.96050000e-01
-5.48414062e-08,1.96301562e-01
-5.48014062e-08,1.96560938e-01
-5.47614062e-08,1.96462500e-01
-5.47214062e-08,1.96528125e-01
-5.46814062e-08,1.96476563e-01
-5.46414062e-08,1.96521875e-01
-5.46014062e-08,1.96479687e-01
-5.45614062e-08,1.96520313e-01
-5.45214062e-08,1.96479687e-01
-5.44814062e-08,1.96520313e-01
-5.44414062e-08,1.96478125e-01
-5.44014062e-08,1.96525000e-01
-5.43614062e-08,1.96470313e-01
-5.43214062e-08,1.96539063e-01
-5.42814062e-08,1.96435938e-01
-5.42414062e-08,1.96717188e-01
-5.42014062e-08,1.96945312e-01
-5.41614062e-08,1.96879688e-01
-5.41214062e-08,1.96910937e-01
-5.40814062e-08,1.96893750e-01
-5.40414062e-08,1.96903125e-01
-5.40014062e-08,1.96900000e-01
-5.39614062e-08,1.96896875e-01
-5.39214062e-08,1.96904688e-01
-5.38814062e-08,1.96892188e-01
-5.38414062e-08,1.96910937e-01
-5.38014062e-08,1.96882813e-01
-5.37614062e-08,1.96926563e-01
-5.37214062e-08,1.96848438e-01
-5.36814062e-08,1.97106250e-01
-5.36414062e-08,1.97356250e-01
-5.36014062e-08,1.97267187e-01
-5.35614062e-08,1.97323438e-01
-5.35214062e-08,1.97282813e-01
-5.34814062e-08,1.97314062e-01
-5.34414062e-08,1.97287500e-01
-5.34014062e-08,1.97310938e-01
-5.33614062e-08,1.97290625e-01
-5.33214062e-08,1.97309375e-01
-5.32814062e-08,1.97292187e-01
-5.32414062e-08,1.97307813e-01
-5.32014062e-08,1.97292187e-01
-5.31614063e-08,1.97307813e-01
-5.31214062e-08,1.97293750e-01
-5.30814062e-08,1.97306250e-01
-5.30414062e-08,1.97293750e-01
-5.30014062e-08,1.97306250e-01
-5.29614062e-08,1.97293750e-01
-5.29214062e-08,1.97306250e-01
-5.28814062e-08,1.97293750e-01
-5.28414062e-08,1.97306250e-01
-5.28014062e-08,1.97292187e-01
-5.27614062e-08,1.97307813e-01
-5.27214062e-08,1.97292187e-01
-5.26814062e-08,1.97309375e-01
-5.26414062e-08,1.97290625e-01
-5.26014062e-08,1.97310938e-01
-5.25614062e-08,1.97289063e-01
-5.25214062e-08,1.97314062e-01
-5.24814062e-08,1.97282813e-01
-5.24414062e-08,1.97321875e-01
-5.24014062e-08,1.97268750e-01
-5.23614062e-08,1.97356250e-01
-5.23214062e-08,1.97090625e-01
-5.22814062e-08,1.96846875e-01
-5.22414062e-08,1.96929688e-01
-5.22014062e-08,1.96879688e-01
-5.21614062e-08,1.96915625e-01
-5.21214062e-08,1.96887500e-01
-5.20814062e-08,1.96909375e-01
-5.20414062e-08,1.96892188e-01
-5.20014062e-08,1.96907813e-01
-5.19614062e-08,1.96893750e-01
-5.19214062e-08,1.96906250e-01
-5.18814062e-08,1.96895313e-01
-5.18414062e-08,1.96904688e-01
-5.18014062e-08,1.96895313e-01
-5.17614062e-08,1.96904688e-01
-5.17214062e-08,1.96896875e-01
-5.16814062e-08,1.96903125e-01
-5.16414062e-08,1.96896875e-01
-5.16014062e-08,1.96903125e-01
-5.15614062e-08,1.96898438e-01
-5.15214062e-08,1.96901563e-01
-5.14814062e-08,1.96898438e-01
-5.14414062e-08,1.96901563e-01
-5.14014062e-08,1.96898438e-01
-5.13614062e-08,1.96900000e-01
-5.13214062e-08,1.96900000e-01
-5.12814062e-08,1.96898438e-01
-5.12414063e-08,1.96901563e-01
-5.12014062e-08,1.96896875e-01
-5.11614062e-08,1.96906250e-01
-5.11214062e-08,1.96892188e-01
-5.10814062e-08,1.96914063e-01
-5.10414062e-08,1.96876563e-01
-5.10014062e-08,1.96946875e-01
-5.09614063e-08,1.96700000e-01
-5.09214062e-08,1.96437500e-01
-5.08814062e-08,1.96539063e-01
-5.08414062e-08,1.96470313e-01
-5.08014062e-08,1.96525000e-01
-5.07614062e-08,1.96478125e-01
-5.07214062e-08,1.96520313e-01
-5.06814062e-08,1.96479687e-01
-5.06414062e-08,1.96520313e-01
-5.06014062e-08,1.96479687e-01
-5.05614062e-08,1.96520313e-01
-5.05214062e-08,1.96478125e-01
-5.04814062e-08,1.96523438e-01
-5.04414062e-08,1.96473438e-01
-5.04014062e-08,1.96531250e-01
-5.03614062e-08,1.96459375e-01
-5.03214062e-08,1.96565625e-01
-5.02814062e-08,1.96281250e-01
-5.02414062e-08,1.96056250e-01
-5.02014062e-08,1.96118750e-01
-5.01614062e-08,1.96090625e-01
-5.01214062e-08,1.96104688e-01
-5.00814062e-08,1.96100000e-01
-5.00414062e-08,1.96098438e-01
-5.00014062e-08,1.96104688e-01
-4.99614062e-08,1.96092188e-01
-4.99214062e-08,1.96110937e-01
-4.98814062e-08,1.96085938e-01
-4.98414062e-08,1.96120313e-01
-4.98014062e-08,1.96070313e-01
-4.97614062e-08,1.96154688e-01
-4.97214062e-08,1.95892188e-01
-4.96814062e-08,1.95646875e-01
-4.96414062e-08,1.95729687e-01
-4.96014062e-08,1.95679688e-01
-4.95614062e-08,1.95715625e-01
-4.95214062e-08,1.95689063e-01
-4.94814062e-08,1.95709375e-01
-4.94414062e-08,1.95692188e-01
-4.94014062e-08,1.95706250e-01
-4.93614062e-08,1.95693750e-01
-4.93214063e-08,1.95704688e-01
-4.92814062e-08,1.95695312e-01
-4.92414062e-08,1.95703125e-01
-4.92014062e-08,1.95696875e-01
-4.91614062e-08,1.95703125e-01
-4.91214062e-08,1.95698438e-01
-4.90814062e-08,1.95701563e-01
-4.90414063e-08,1.95698438e-01
-4.90014062e-08,1.95700000e-01
-4.89614062e-08,1.95700000e-01
-4.89214062e-08,1.95700000e-01
-4.88814062e-08,1.95700000e-01
-4.88414062e-08,1.95700000e-01
-4.88014062e-08,1.95701563e-01
-4.87614063e-08,1.95698438e-01
-4.87214062e-08,1.95701563e-01
-4.86814062e-08,1.95698438e-01
-4.86414062e-08,1.95703125e-01
-4.86014062e-08,1.95696875e-01
-4.85614062e-08,1.95704688e-01
-4.85214062e-08,1.95695312e-01
-4.84814062e-08,1.95704688e-01
-4.84414062e-08,1.95693750e-01
-4.84014062e-08,1.95707813e-01
-4.83614062e-08,1.95690625e-01
-4.83214062e-08,1.95710938e-01
-4.82814062e-08,1.95685938e-01
-4.82414062e-08,1.95720312e-01
-4.82014062e-08,1.95670312e-01
-4.81614062e-08,1.95754687e-01
-4.81214062e-08,1.95492187e-01
-4.80814062e-08,1.95245313e-01
-4.80414062e-08,1.95329688e-01
-4.80014062e-08,1.95279688e-01
-4.79614062e-08,1.95315625e-01
-4.79214062e-08,1.95287500e-01
-4.78814062e-08,1.95309375e-01
-4.78414062e-08,1.95292188e-01
-4.78014062e-08,1.95306250e-01
-4.77614062e-08,1.95295313e-01
-4.77214062e-08,1.95304688e-01
-4.76814062e-08,1.95296875e-01
-4.76414062e-08,1.95301562e-01
-4.76014062e-08,1.95301562e-01
-4.75614062e-08,1.95295313e-01
-4.75214062e-08,1.95309375e-01
-4.74814062e-08,1.95281250e-01
-4.74414062e-08,1.95342188e-01
-4.74014063e-08,1.95104688e-01
-4.73614062e-08,1.94832813e-01
-4.73214062e-08,1.94945312e-01
-4.72814062e-08,1.94862500e-01
-4.72414062e-08,1.94934375e-01
-4.72014062e-08,1.94865625e-01
-4.71614062e-08,1.94937500e-01
-4.71214063e-08,1.94854688e-01
-4.70814062e-08,1.94970313e-01
-4.70414062e-08,1.94676563e-01
-4.70014062e-08,1.94460938e-01
-4.69614062e-08,1.94515625e-01
-4.69214062e-08,1.94493750e-01
-4.68814062e-08,1.94500000e-01
-4.68414063e-08,1.94504687e-01
-4.68014062e-08,1.94490625e-01
-4.67614062e-08,1.94515625e-01
-4.67214062e-08,1.94473438e-01
-4.66814062e-08,1.94551562e-01
-4.66414062e-08,1.94295313e-01
-4.66014062e-08,1.94042188e-01
-4.65614063e-08,1.94132813e-01
-4.65214062e-08,1.94076562e-01
-4.64814062e-08,1.94118750e-01
-4.64414062e-08,1.94084375e-01
-4.64014062e-08,1.94114063e-01
-4.63614062e-08,1.94087500e-01
-4.63214062e-08,1.94110937e-01
-4.62814062e-08,1.94089063e-01
-4.62414062e-08,1.94110937e-01
-4.62014062e-08,1.94089063e-01
-4.61614062e-08,1.94110937e-01
-4.61214062e-08,1.94089063e-01
-4.60814062e-08,1.94110937e-01
-4.60414062e-08,1.94089063e-01
-4.60014062e-08,1.94110937e-01
-4.59614062e-08,1.94087500e-01
-4.59214062e-08,1.94114063e-01
-4.58814062e-08,1.94084375e-01
-4.58414062e-08,1.94118750e-01
-4.58014062e-08,1.94075000e-01
-4.57614062e-08,1.94134375e-01
-4.57214062e-08,1.94040625e-01
-4.56814062e-08,1.94312500e-01
-4.56414062e-08,1.94548438e-01
-4.56014062e-08,1.94476563e-01
-4.55614062e-08,1.94512500e-01
-4.55214062e-08,1.94493750e-01
-4.54814063e-08,1.94498438e-01
-4.54414062e-08,1.94512500e-01
-4.54014062e-08,1.94462500e-01
-4.53614062e-08,1.94690625e-01
-4.53214062e-08,1.94973438e-01
-4.52814062e-08,1.94850000e-01
-4.52414062e-08,1.94943750e-01
-4.52014063e-08,1.94856250e-01
-4.51614062e-08,1.94951563e-01
-4.51214062e-08,1.94826563e-01
-4.50814062e-08,1.95126563e-01
-4.50414062e-08,1.95335938e-01
-4.50014062e-08,1.95287500e-01
-4.49614062e-08,1.95301562e-01
-4.49214063e-08,1.95306250e-01
-4.48814062e-08,1.95287500e-01
-4.48414062e-08,1.95323438e-01
-4.48014062e-08,1.95250000e-01
-4.47614062e-08,1.95503125e-01
-4.47214062e-08,1.95757813e-01
-4.46814062e-08,1.95665625e-01
-4.46414063e-08,1.95725000e-01
-4.46014062e-08,1.95681250e-01
-4.45614062e-08,1.95717188e-01
-4.45214062e-08,1.95685938e-01
-4.44814062e-08,1.95712500e-01
-4.44414062e-08,1.95687500e-01
-4.44014062e-08,1.95710938e-01
-4.43614063e-08,1.95689063e-01
-4.43214062e-08,1.95710938e-01
-4.42814062e-08,1.95689063e-01
-4.42414062e-08,1.95710938e-01
-4.42014062e-08,1.95689063e-01
-4.41614062e-08,1.95710938e-01
-4.41214062e-08,1.95689063e-01
-4.40814062e-08,1.95712500e-01
-4.40414062e-08,1.95687500e-01
-4.40014062e-08,1.95714063e-01
-4.39614062e-08,1.95684375e-01
-4.39214062e-08,1.95717188e-01
-4.38814062e-08,1.95679688e-01
-4.38414062e-08,1.95726563e-01
-4.38014062e-08,1.95664063e-01
-4.37614062e-08,1.95760938e-01
-4.37214062e-08,1.95485938e-01
-4.36814062e-08,1.95253125e-01
-4.36414062e-08,1.95323438e-01
-4.36014062e-08,1.95287500e-01
-4.35614063e-08,1.95306250e-01
-4.35214062e-08,1.95298438e-01
-4.34814062e-08,1.95296875e-01
-4.34414062e-08,1.95309375e-01
-4.34014062e-08,1.95279688e-01
-4.33614062e-08,1.95345313e-01
-4.33214062e-08,1.95101562e-01
-4.32814063e-08,1.94837500e-01
-4.32414062e-08,1.94939063e-01
-4.32014062e-08,1.94870313e-01
-4.31614062e-08,1.94925000e-01
-4.31214062e-08,1.94878125e-01
-4.30814062e-08,1.94920312e-01
-4.30414062e-08,1.94879688e-01
-4.30014063e-08,1.94920312e-01
-4.29614062e-08,1.94879688e-01
-4.29214062e-08,1.94921875e-01
-4.28814062e-08,1.94876563e-01
-4.28414062e-08,1.94928125e-01
-4.28014062e-08,1.94862500e-01
-4.27614062e-08,1.94962500e-01
-4.27214063e-08,1.94684375e-01
-4.26814062e-08,1.94453125e-01
-4.26414062e-08,1.94523438e-01
-4.26014062e-08,1.94485938e-01
-4.25614062e-08,1.94509375e-01
-4.25214062e-08,1.94493750e-01
-4.24814062e-08,1.94503125e-01
-4.24414063e-08,1.94498438e-01
-4.24014062e-08,1.94500000e-01
-4.23614062e-08,1.94501563e-01
-4.23214062e-08,1.94496875e-01
-4.22814062e-08,1.94506250e-01
-4.22414062e-08,1.94490625e-01
-4.22014062e-08,1.94514063e-01
-4.21614062e-08,1.94476563e-01
-4.21214062e-08,1.94548438e-01
-4.20814062e-08,1.94298438e-01
-4.20414062e-08,1.94039062e-01
-4.20014062e-08,1.94137500e-01
-4.19614062e-08,1.94071875e-01
-4.19214062e-08,1.94125000e-01
-4.18814062e-08,1.94078125e-01
-4.18414062e-08,1.94121875e-01
-4.18014062e-08,1.94079688e-01
-4.17614062e-08,1.94121875e-01
-4.17214062e-08,1.94076562e-01
-4.16814062e-08,1.94128125e-01
-4.16414063e-08,1.94062500e-01
-4.16014062e-08,1.94162500e-01
-4.15614062e-08,1.93885937e-01
-4.15214062e-08,1.93651563e-01
-4.14814062e-08,1.93725000e-01
-4.14414062e-08,1.93684375e-01
-4.14014062e-08,1.93710938e-01
-4.13614063e-08,1.93692188e-01
-4.13214062e-08,1.93706250e-01
-4.12814062e-08,1.93695312e-01
-4.12414062e-08,1.93703125e-01
-4.12014062e-08,1.93696875e-01
-4.11614062e-08,1.93701563e-01
-4.11214062e-08,1.93698438e-01
-4.10814063e-08,1.93701563e-01
-4.10414062e-08,1.93698438e-01
-4.10014062e-08,1.93701563e-01
-4.09614062e-08,1.93698438e-01
-4.09214062e-08,1.93701563e-01
-4.08814062e-08,1.93698438e-01
-4.08414062e-08,1.93701563e-01
-4.08014063e-08,1.93698438e-01
-4.07614062e-08,1.93701563e-01
-4.07214062e-08,1.93696875e-01
-4.06814062e-08,1.93703125e-01
-4.06414062e-08,1.93695312e-01
-4.06014062e-08,1.93707813e-01
-4.05614062e-08,1.93687500e-01
-4.05214063e-08,1.93720313e-01
-4.04814062e-08,1.93654688e-01
-4.04414062e-08,1.93896875e-01
-4.04014062e-08,1.94167188e-01
-4.03614062e-08,1.94056250e-01
-4.03214062e-08,1.94135938e-01
-4.02814062e-08,1.94065625e-01
-4.02414063e-08,1.94134375e-01
-4.02014062e-08,1.94060938e-01
-4.01614062e-08,1.94146875e-01
-4.01214062e-08,1.94028125e-01
-4.00814062e-08,1.94325000e-01
-4.00414062e-08,1.94535938e-01
-4.00014062e-08,1.94489063e-01
-3.99614062e-08,1.94500000e-01
-3.99214062e-08,1.94507813e-01
-3.98814062e-08,1.94484375e-01
-3.98414062e-08,1.94528125e-01
-3.98014062e-08,1.94445313e-01
-3.97614062e-08,1.94709375e-01
-3.97214063e-08,1.94951563e-01
-3.96814062e-08,1.94873437e-01
-3.96414062e-08,1.94915625e-01
-3.96014062e-08,1.94890625e-01
-3.95614062e-08,1.94903125e-01
-3.95214062e-08,1.94901563e-01
-3.94814062e-08,1.94890625e-01
-3.94414063e-08,1.94920312e-01
-3.94014062e-08,1.94854688e-01
-3.93614062e-08,1.95100000e-01
-3.93214062e-08,1.95362500e-01
-3.92814062e-08,1.95262500e-01
-3.92414062e-08,1.95328125e-01
-3.92014062e-08,1.95278125e-01
-3.91614063e-08,1.95318750e-01
-3.91214062e-08,1.95282813e-01
-3.90814062e-08,1.95315625e-01
-3.90414062e-08,1.95285938e-01
-3.90014062e-08,1.95312500e-01
-3.89614062e-08,1.95287500e-01
-3.89214062e-08,1.95310938e-01
-3.88814063e-08,1.95289062e-01
-3.88414062e-08,1.95309375e-01
-3.88014062e-08,1.95290625e-01
-3.87614062e-08,1.95309375e-01
-3.87214062e-08,1.95290625e-01
-3.86814062e-08,1.95307813e-01
-3.86414062e-08,1.95292188e-01
-3.86014063e-08,1.95307813e-01
-3.85614062e-08,1.95292188e-01
-3.85214062e-08,1.95307813e-01
