trails/0bdfa5e45fec98341abdd20552c140b4/aes_ch1_20250507121316861.csv

Model,MSO66B
Label,
Waveform Type,ANALOG
Horizontal Units,s
Sample Interval,4.00000000e-11
Record Length,10000
Zero Index,1599.03515625
Vertical Units,A
ANALOG_Thumbnail,
yOffset,1.84500000e-01
yPosition,8.40000000e-01

Labels,
TIME,CH1
-6.39614062e-08,1.95707813e-01
-6.39214062e-08,1.95689063e-01
-6.38814062e-08,1.95717188e-01
-6.38414063e-08,1.95673438e-01
-6.38014062e-08,1.95751563e-01
-6.37614063e-08,1.95495313e-01
-6.37214062e-08,1.95242187e-01
-6.36814062e-08,1.95334375e-01
-6.36414062e-08,1.95275000e-01
-6.36014062e-08,1.95320313e-01
-6.35614063e-08,1.95282813e-01
-6.35214062e-08,1.95315625e-01
-6.34814063e-08,1.95285938e-01
-6.34414062e-08,1.95312500e-01
-6.34014062e-08,1.95287500e-01
-6.33614062e-08,1.95312500e-01
-6.33214062e-08,1.95289062e-01
-6.32814063e-08,1.95310938e-01
-6.32414062e-08,1.95289062e-01
-6.32014063e-08,1.95312500e-01
-6.31614062e-08,1.95287500e-01
-6.31214062e-08,1.95312500e-01
-6.30814062e-08,1.95285938e-01
-6.30414062e-08,1.95315625e-01
-6.30014063e-08,1.95281250e-01
-6.29614062e-08,1.95323438e-01
-6.29214063e-08,1.95267187e-01
-6.28814062e-08,1.95357813e-01
-6.28414062e-08,1.95089063e-01
-6.28014062e-08,1.94848437e-01
-6.27614062e-08,1.94928125e-01
-6.27214063e-08,1.94881250e-01
-6.26814062e-08,1.94914063e-01
-6.26414062e-08,1.94889063e-01
-6.26014062e-08,1.94909375e-01
-6.25614062e-08,1.94892188e-01
-6.25214062e-08,1.94906250e-01
-6.24814062e-08,1.94893750e-01
-6.24414063e-08,1.94904688e-01
-6.24014062e-08,1.94895313e-01
-6.23614062e-08,1.94904688e-01
-6.23214062e-08,1.94896875e-01
-6.22814062e-08,1.94903125e-01
-6.22414062e-08,1.94896875e-01
-6.22014062e-08,1.94903125e-01
-6.21614063e-08,1.94896875e-01
-6.21214062e-08,1.94903125e-01
-6.20814062e-08,1.94896875e-01
-6.20414062e-08,1.94903125e-01
-6.20014062e-08,1.94896875e-01
-6.19614062e-08,1.94903125e-01
-6.19214062e-08,1.94896875e-01
-6.18814063e-08,1.94903125e-01
-6.18414062e-08,1.94896875e-01
-6.18014062e-08,1.94903125e-01
-6.17614062e-08,1.94896875e-01
-6.17214062e-08,1.94903125e-01
-6.16814062e-08,1.94896875e-01
-6.16414062e-08,1.94903125e-01
-6.16014063e-08,1.94896875e-01
-6.15614062e-08,1.94903125e-01
-6.15214062e-08,1.94895313e-01
-6.14814062e-08,1.94904688e-01
-6.14414062e-08,1.94895313e-01
-6.14014062e-08,1.94904688e-01
-6.13614062e-08,1.94893750e-01
-6.13214063e-08,1.94906250e-01
-6.12814062e-08,1.94893750e-01
-6.12414062e-08,1.94907812e-01
-6.12014062e-08,1.94890625e-01
-6.11614062e-08,1.94910937e-01
-6.11214062e-08,1.94887500e-01
-6.10814062e-08,1.94915625e-01
-6.10414063e-08,1.94879688e-01
-6.10014062e-08,1.94929688e-01
-6.09614062e-08,1.94845313e-01
-6.09214062e-08,1.95107813e-01
-6.08814062e-08,1.95354688e-01
-6.08414062e-08,1.95270313e-01
-6.08014062e-08,1.95320313e-01
-6.07614063e-08,1.95284375e-01
-6.07214062e-08,1.95312500e-01
-6.06814062e-08,1.95289062e-01
-6.06414062e-08,1.95309375e-01
-6.06014062e-08,1.95292188e-01
-6.05614063e-08,1.95307813e-01
-6.05214062e-08,1.95293750e-01
-6.04814063e-08,1.95306250e-01
-6.04414062e-08,1.95293750e-01
-6.04014062e-08,1.95304688e-01
-6.03614062e-08,1.95295313e-01
-6.03214062e-08,1.95304688e-01
-6.02814063e-08,1.95295313e-01
-6.02414062e-08,1.95304688e-01
-6.02014063e-08,1.95295313e-01
-6.01614062e-08,1.95303125e-01
-6.01214062e-08,1.95296875e-01
-6.00814062e-08,1.95303125e-01
-6.00414062e-08,1.95296875e-01
-6.00014063e-08,1.95303125e-01
-5.99614062e-08,1.95296875e-01
-5.99214063e-08,1.95303125e-01
-5.98814062e-08,1.95296875e-01
-5.98414062e-08,1.95303125e-01
-5.98014062e-08,1.95296875e-01
-5.97614062e-08,1.95301562e-01
-5.97214063e-08,1.95298438e-01
-5.96814062e-08,1.95301562e-01
-5.96414063e-08,1.95298438e-01
-5.96014062e-08,1.95301562e-01
-5.95614062e-08,1.95298438e-01
-5.95214062e-08,1.95301562e-01
-5.94814062e-08,1.95298438e-01
-5.94414062e-08,1.95300000e-01
-5.94014062e-08,1.95300000e-01
-5.93614062e-08,1.95300000e-01
-5.93214062e-08,1.95300000e-01
-5.92814062e-08,1.95298438e-01
-5.92414062e-08,1.95301562e-01
-5.92014062e-08,1.95298438e-01
-5.91614062e-08,1.95303125e-01
-5.91214062e-08,1.95295313e-01
-5.90814062e-08,1.95306250e-01
-5.90414062e-08,1.95290625e-01
-5.90014062e-08,1.95314062e-01
-5.89614062e-08,1.95276563e-01
-5.89214062e-08,1.95348437e-01
-5.88814062e-08,1.95098437e-01
-5.88414062e-08,1.94839062e-01
-5.88014062e-08,1.94937500e-01
-5.87614062e-08,1.94871875e-01
-5.87214062e-08,1.94923438e-01
-5.86814062e-08,1.94879688e-01
-5.86414062e-08,1.94918750e-01
-5.86014062e-08,1.94882813e-01
-5.85614062e-08,1.94917188e-01
-5.85214062e-08,1.94882813e-01
-5.84814062e-08,1.94917188e-01
-5.84414062e-08,1.94882813e-01
-5.84014062e-08,1.94917188e-01
-5.83614062e-08,1.94881250e-01
-5.83214062e-08,1.94920312e-01
-5.82814062e-08,1.94878125e-01
-5.82414062e-08,1.94925000e-01
-5.82014062e-08,1.94870313e-01
-5.81614062e-08,1.94939063e-01
-5.81214062e-08,1.94835938e-01
-5.80814062e-08,1.95117188e-01
-5.80414062e-08,1.95345313e-01
-5.80014062e-08,1.95278125e-01
-5.79614062e-08,1.95310938e-01
-5.79214062e-08,1.95293750e-01
-5.78814062e-08,1.95303125e-01
-5.78414062e-08,1.95300000e-01
-5.78014062e-08,1.95298438e-01
-5.77614062e-08,1.95303125e-01
-5.77214062e-08,1.95295313e-01
-5.76814062e-08,1.95306250e-01
-5.76414062e-08,1.95292188e-01
-5.76014062e-08,1.95309375e-01
-5.75614062e-08,1.95287500e-01
-5.75214062e-08,1.95315625e-01
-5.74814062e-08,1.95279688e-01
-5.74414062e-08,1.95331250e-01
-5.74014062e-08,1.95243750e-01
-5.73614062e-08,1.95509375e-01
-5.73214062e-08,1.95753125e-01
-5.72814062e-08,1.95671875e-01
-5.72414062e-08,1.95718750e-01
-5.72014062e-08,1.95685938e-01
-5.71614062e-08,1.95710938e-01
-5.71214062e-08,1.95692188e-01
-5.70814062e-08,1.95706250e-01
-5.70414062e-08,1.95693750e-01
-5.70014062e-08,1.95704688e-01
-5.69614062e-08,1.95696875e-01
-5.69214062e-08,1.95703125e-01
-5.68814062e-08,1.95698438e-01
-5.68414062e-08,1.95701563e-01
-5.68014062e-08,1.95700000e-01
-5.67614062e-08,1.95700000e-01
-5.67214062e-08,1.95700000e-01
-5.66814062e-08,1.95698438e-01
-5.66414062e-08,1.95701563e-01
-5.66014062e-08,1.95696875e-01
-5.65614062e-08,1.95703125e-01
-5.65214062e-08,1.95695312e-01
-5.64814062e-08,1.95706250e-01
-5.64414062e-08,1.95692188e-01
-5.64014062e-08,1.95709375e-01
-5.63614062e-08,1.95687500e-01
-5.63214062e-08,1.95718750e-01
-5.62814062e-08,1.95671875e-01
-5.62414062e-08,1.95753125e-01
-5.62014062e-08,1.95493750e-01
-5.61614062e-08,1.95243750e-01
-5.61214062e-08,1.95331250e-01
-5.60814062e-08,1.95278125e-01
-5.60414062e-08,1.95317188e-01
-5.60014062e-08,1.95285938e-01
-5.59614062e-08,1.95312500e-01
-5.59214062e-08,1.95290625e-01
-5.58814062e-08,1.95309375e-01
-5.58414062e-08,1.95292188e-01
-5.58014062e-08,1.95307813e-01
-5.57614062e-08,1.95293750e-01
-5.57214062e-08,1.95306250e-01
-5.56814062e-08,1.95295313e-01
-5.56414062e-08,1.95304688e-01
-5.56014062e-08,1.95295313e-01
-5.55614062e-08,1.95303125e-01
-5.55214062e-08,1.95296875e-01
-5.54814062e-08,1.95303125e-01
-5.54414062e-08,1.95298438e-01
-5.54014062e-08,1.95301562e-01
-5.53614062e-08,1.95298438e-01
-5.53214062e-08,1.95300000e-01
-5.52814062e-08,1.95300000e-01
-5.52414062e-08,1.95298438e-01
-5.52014062e-08,1.95303125e-01
-5.51614062e-08,1.95295313e-01
-5.51214062e-08,1.95306250e-01
-5.50814062e-08,1.95290625e-01
-5.50414062e-08,1.95314062e-01
-5.50014062e-08,1.95276563e-01
-5.49614062e-08,1.95348437e-01
-5.49214062e-08,1.95098437e-01
-5.48814062e-08,1.94840625e-01
-5.48414062e-08,1.94935938e-01
-5.48014062e-08,1.94873437e-01
-5.47614062e-08,1.94921875e-01
-5.47214062e-08,1.94881250e-01
-5.46814062e-08,1.94917188e-01
-5.46414062e-08,1.94884375e-01
-5.46014062e-08,1.94914063e-01
-5.45614062e-08,1.94885937e-01
-5.45214062e-08,1.94914063e-01
-5.44814062e-08,1.94887500e-01
-5.44414062e-08,1.94912500e-01
-5.44014062e-08,1.94887500e-01
-5.43614062e-08,1.94912500e-01
-5.43214062e-08,1.94887500e-01
-5.42814062e-08,1.94912500e-01
-5.42414062e-08,1.94887500e-01
-5.42014062e-08,1.94912500e-01
-5.41614062e-08,1.94885937e-01
-5.41214062e-08,1.94914063e-01
-5.40814062e-08,1.94884375e-01
-5.40414062e-08,1.94917188e-01
-5.40014062e-08,1.94881250e-01
-5.39614062e-08,1.94921875e-01
-5.39214062e-08,1.94873437e-01
-5.38814062e-08,1.94935938e-01
-5.38414062e-08,1.94839062e-01
-5.38014062e-08,1.95114063e-01
-5.37614062e-08,1.95348437e-01
-5.37214062e-08,1.95275000e-01
-5.36814062e-08,1.95315625e-01
-5.36414062e-08,1.95289062e-01
-5.36014062e-08,1.95307813e-01
-5.35614062e-08,1.95295313e-01
-5.35214062e-08,1.95303125e-01
-5.34814062e-08,1.95296875e-01
-5.34414062e-08,1.95301562e-01
-5.34014062e-08,1.95298438e-01
-5.33614062e-08,1.95300000e-01
-5.33214062e-08,1.95300000e-01
-5.32814062e-08,1.95300000e-01
-5.32414062e-08,1.95300000e-01
-5.32014062e-08,1.95298438e-01
-5.31614063e-08,1.95301562e-01
-5.31214062e-08,1.95298438e-01
-5.30814062e-08,1.95301562e-01
-5.30414062e-08,1.95298438e-01
-5.30014062e-08,1.95301562e-01
-5.29614062e-08,1.95298438e-01
-5.29214062e-08,1.95303125e-01
-5.28814062e-08,1.95296875e-01
-5.28414062e-08,1.95303125e-01
-5.28014062e-08,1.95296875e-01
-5.27614062e-08,1.95303125e-01
-5.27214062e-08,1.95296875e-01
-5.26814062e-08,1.95303125e-01
-5.26414062e-08,1.95295313e-01
-5.26014062e-08,1.95304688e-01
-5.25614062e-08,1.95295313e-01
-5.25214062e-08,1.95304688e-01
-5.24814062e-08,1.95295313e-01
-5.24414062e-08,1.95306250e-01
-5.24014062e-08,1.95293750e-01
-5.23614062e-08,1.95306250e-01
-5.23214062e-08,1.95292188e-01
-5.22814062e-08,1.95307813e-01
-5.22414062e-08,1.95290625e-01
-5.22014062e-08,1.95309375e-01
-5.21614062e-08,1.95289062e-01
-5.21214062e-08,1.95314062e-01
-5.20814062e-08,1.95282813e-01
-5.20414062e-08,1.95321875e-01
-5.20014062e-08,1.95268750e-01
-5.19614062e-08,1.95356250e-01
-5.19214062e-08,1.95090625e-01
-5.18814062e-08,1.94846875e-01
-5.18414062e-08,1.94928125e-01
-5.18014062e-08,1.94881250e-01
-5.17614062e-08,1.94914063e-01
-5.17214062e-08,1.94889063e-01
-5.16814062e-08,1.94909375e-01
-5.16414062e-08,1.94892188e-01
-5.16014062e-08,1.94906250e-01
-5.15614062e-08,1.94895313e-01
-5.15214062e-08,1.94904688e-01
-5.14814062e-08,1.94895313e-01
-5.14414062e-08,1.94903125e-01
-5.14014062e-08,1.94896875e-01
-5.13614062e-08,1.94903125e-01
-5.13214062e-08,1.94898438e-01
-5.12814062e-08,1.94901563e-01
-5.12414063e-08,1.94898438e-01
-5.12014062e-08,1.94900000e-01
-5.11614062e-08,1.94900000e-01
-5.11214062e-08,1.94900000e-01
-5.10814062e-08,1.94901563e-01
-5.10414062e-08,1.94898438e-01
-5.10014062e-08,1.94903125e-01
-5.09614063e-08,1.94896875e-01
-5.09214062e-08,1.94904688e-01
-5.08814062e-08,1.94893750e-01
-5.08414062e-08,1.94909375e-01
-5.08014062e-08,1.94885937e-01
-5.07614062e-08,1.94923438e-01
-5.07214062e-08,1.94851563e-01
-5.06814062e-08,1.95101562e-01
-5.06414062e-08,1.95360937e-01
-5.06014062e-08,1.95262500e-01
-5.05614062e-08,1.95328125e-01
-5.05214062e-08,1.95275000e-01
-5.04814062e-08,1.95321875e-01
-5.04414062e-08,1.95278125e-01
-5.04014062e-08,1.95321875e-01
-5.03614062e-08,1.95278125e-01
-5.03214062e-08,1.95325000e-01
-5.02814062e-08,1.95270313e-01
-5.02414062e-08,1.95337500e-01
-5.02014062e-08,1.95237500e-01
-5.01614062e-08,1.95515625e-01
-5.01214062e-08,1.95746875e-01
-5.00814062e-08,1.95676563e-01
-5.00414062e-08,1.95714063e-01
-5.00014062e-08,1.95690625e-01
-4.99614062e-08,1.95706250e-01
-4.99214062e-08,1.95695312e-01
-4.98814062e-08,1.95703125e-01
-4.98414062e-08,1.95698438e-01
-4.98014062e-08,1.95701563e-01
-4.97614062e-08,1.95700000e-01
-4.97214062e-08,1.95700000e-01
-4.96814062e-08,1.95701563e-01
-4.96414062e-08,1.95698438e-01
-4.96014062e-08,1.95703125e-01
-4.95614062e-08,1.95696875e-01
-4.95214062e-08,1.95703125e-01
-4.94814062e-08,1.95695312e-01
-4.94414062e-08,1.95704688e-01
-4.94014062e-08,1.95693750e-01
-4.93614062e-08,1.95706250e-01
-4.93214063e-08,1.95692188e-01
-4.92814062e-08,1.95709375e-01
-4.92414062e-08,1.95689063e-01
-4.92014062e-08,1.95714063e-01
-4.91614062e-08,1.95682812e-01
-4.91214062e-08,1.95721875e-01
-4.90814062e-08,1.95667188e-01
-4.90414063e-08,1.95757813e-01
-4.90014062e-08,1.95487500e-01
-4.89614062e-08,1.95250000e-01
-4.89214062e-08,1.95325000e-01
-4.88814062e-08,1.95285938e-01
-4.88414062e-08,1.95307813e-01
-4.88014062e-08,1.95298438e-01
-4.87614063e-08,1.95296875e-01
-4.87214062e-08,1.95310938e-01
-4.86814062e-08,1.95278125e-01
-4.86414062e-08,1.95348437e-01
-4.86014062e-08,1.95096875e-01
-4.85614062e-08,1.94842188e-01
-4.85214062e-08,1.94932812e-01
-4.84814062e-08,1.94879688e-01
-4.84414062e-08,1.94912500e-01
-4.84014062e-08,1.94896875e-01
-4.83614062e-08,1.94890625e-01
-4.83214062e-08,1.94935938e-01
-4.82814062e-08,1.94709375e-01
-4.82414062e-08,1.94429688e-01
-4.82014062e-08,1.94542188e-01
-4.81614062e-08,1.94470313e-01
-4.81214062e-08,1.94515625e-01
-4.80814062e-08,1.94510938e-01
-4.80414062e-08,1.94337500e-01
-4.80014062e-08,1.93998438e-01
-4.79614062e-08,1.94182812e-01
-4.79214062e-08,1.94017188e-01
-4.78814062e-08,1.94203125e-01
-4.78414062e-08,1.93845313e-01
-4.78014062e-08,1.93692188e-01
-4.77614062e-08,1.93682812e-01
-4.77214062e-08,1.93731250e-01
-4.76814062e-08,1.93653125e-01
-4.76414062e-08,1.93775000e-01
-4.76014062e-08,1.93468750e-01
-4.75614062e-08,1.93271875e-01
-4.75214062e-08,1.93300000e-01
-4.74814062e-08,1.93314062e-01
-4.74414062e-08,1.93270313e-01
-4.74014063e-08,1.93359375e-01
-4.73614062e-08,1.93084375e-01
-4.73214062e-08,1.92854688e-01
-4.72814062e-08,1.92918750e-01
-4.72414062e-08,1.92893750e-01
-4.72014062e-08,1.92896875e-01
-4.71614062e-08,1.92912500e-01
-4.71214063e-08,1.92876563e-01
-4.70814062e-08,1.92951563e-01
-4.70414062e-08,1.92693750e-01
-4.70014062e-08,1.92445313e-01
-4.69614062e-08,1.92529688e-01
-4.69214062e-08,1.92479687e-01
-4.68814062e-08,1.92514062e-01
-4.68414063e-08,1.92489063e-01
-4.68014062e-08,1.92507813e-01
-4.67614062e-08,1.92493750e-01
-4.67214062e-08,1.92504687e-01
-4.66814062e-08,1.92496875e-01
-4.66414062e-08,1.92501563e-01
-4.66014062e-08,1.92500000e-01
-4.65614063e-08,1.92498438e-01
-4.65214062e-08,1.92501563e-01
-4.64814062e-08,1.92496875e-01
-4.64414062e-08,1.92504687e-01
-4.64014062e-08,1.92495313e-01
-4.63614062e-08,1.92506250e-01
-4.63214062e-08,1.92492188e-01
-4.62814062e-08,1.92509375e-01
-4.62414062e-08,1.92489063e-01
-4.62014062e-08,1.92512500e-01
-4.61614062e-08,1.92484375e-01
-4.61214062e-08,1.92518750e-01
-4.60814062e-08,1.92475000e-01
-4.60414062e-08,1.92534375e-01
-4.60014062e-08,1.92439063e-01
-4.59614062e-08,1.92714063e-01
-4.59214062e-08,1.92946875e-01
-4.58814062e-08,1.92878125e-01
-4.58414062e-08,1.92910938e-01
-4.58014062e-08,1.92895312e-01
-4.57614062e-08,1.92898438e-01
-4.57214062e-08,1.92906250e-01
-4.56814062e-08,1.92885937e-01
-4.56414062e-08,1.92925000e-01
-4.56014062e-08,1.92848437e-01
-4.55614062e-08,1.93106250e-01
-4.55214062e-08,1.93356250e-01
-4.54814063e-08,1.93268750e-01
-4.54414062e-08,1.93320313e-01
-4.54014062e-08,1.93285938e-01
-4.53614062e-08,1.93309375e-01
-4.53214062e-08,1.93293750e-01
-4.52814062e-08,1.93301562e-01
-4.52414062e-08,1.93303125e-01
-4.52014063e-08,1.93290625e-01
-4.51614062e-08,1.93318750e-01
-4.51214062e-08,1.93254688e-01
-4.50814062e-08,1.93498438e-01
-4.50414062e-08,1.93762500e-01
-4.50014062e-08,1.93660938e-01
-4.49614062e-08,1.93728125e-01
-4.49214063e-08,1.93676563e-01
-4.48814062e-08,1.93720313e-01
-4.48414062e-08,1.93682812e-01
-4.48014062e-08,1.93715625e-01
-4.47614062e-08,1.93685938e-01
-4.47214062e-08,1.93714063e-01
-4.46814062e-08,1.93687500e-01
-4.46414063e-08,1.93712500e-01
-4.46014062e-08,1.93689063e-01
-4.45614062e-08,1.93710938e-01
-4.45214062e-08,1.93689063e-01
-4.44814062e-08,1.93709375e-01
-4.44414062e-08,1.93690625e-01
-4.44014062e-08,1.93709375e-01
-4.43614063e-08,1.93690625e-01
-4.43214062e-08,1.93709375e-01
-4.42814062e-08,1.93690625e-01
-4.42414062e-08,1.93709375e-01
-4.42014062e-08,1.93690625e-01
-4.41614062e-08,1.93710938e-01
-4.41214062e-08,1.93689063e-01
-4.40814062e-08,1.93712500e-01
-4.40414062e-08,1.93685938e-01
-4.40014062e-08,1.93717187e-01
-4.39614062e-08,1.93678125e-01
-4.39214062e-08,1.93731250e-01
-4.38814062e-08,1.93645312e-01
-4.38414062e-08,1.93907812e-01
-4.38014062e-08,1.94154688e-01
-4.37614062e-08,1.94068750e-01
-4.37214062e-08,1.94123437e-01
-4.36814062e-08,1.94081250e-01
-4.36414062e-08,1.94115625e-01
-4.36014062e-08,1.94085937e-01
-4.35614063e-08,1.94114063e-01
-4.35214062e-08,1.94085937e-01
-4.34814062e-08,1.94114063e-01
-4.34414062e-08,1.94084375e-01
-4.34014062e-08,1.94115625e-01
-4.33614062e-08,1.94081250e-01
-4.33214062e-08,1.94121875e-01
-4.32814063e-08,1.94073438e-01
-4.32414062e-08,1.94135938e-01
-4.32014062e-08,1.94039062e-01
-4.31614062e-08,1.94314062e-01
-4.31214062e-08,1.94546875e-01
-4.30814062e-08,1.94478125e-01
-4.30414062e-08,1.94512500e-01
-4.30014063e-08,1.94493750e-01
-4.29614062e-08,1.94503125e-01
-4.29214062e-08,1.94501563e-01
-4.28814062e-08,1.94495313e-01
-4.28414062e-08,1.94509375e-01
-4.28014062e-08,1.94484375e-01
-4.27614062e-08,1.94525000e-01
-4.27214063e-08,1.94448438e-01
-4.26814062e-08,1.94704688e-01
-4.26414062e-08,1.94956250e-01
-4.26014062e-08,1.94868750e-01
-4.25614062e-08,1.94921875e-01
-4.25214062e-08,1.94884375e-01
-4.24814062e-08,1.94912500e-01
-4.24414063e-08,1.94890625e-01
-4.24014062e-08,1.94907812e-01
-4.23614062e-08,1.94893750e-01
-4.23214062e-08,1.94903125e-01
-4.22814062e-08,1.94898438e-01
-4.22414062e-08,1.94900000e-01
-4.22014062e-08,1.94903125e-01
-4.21614062e-08,1.94893750e-01
-4.21214062e-08,1.94909375e-01
-4.20814062e-08,1.94884375e-01
-4.20414062e-08,1.94926563e-01
-4.20014062e-08,1.94846875e-01
-4.19614062e-08,1.95106250e-01
-4.19214062e-08,1.95353125e-01
-4.18814062e-08,1.95271875e-01
-4.18414062e-08,1.95315625e-01
-4.18014062e-08,1.95295313e-01
-4.17614062e-08,1.95292188e-01
-4.17214062e-08,1.95334375e-01
-4.16814062e-08,1.95110937e-01
-4.16414063e-08,1.94828125e-01
-4.16014062e-08,1.94946875e-01
-4.15614062e-08,1.94864063e-01
-4.15214062e-08,1.94931250e-01
-4.14814062e-08,1.94871875e-01
-4.14414062e-08,1.94925000e-01
-4.14014062e-08,1.94876563e-01
-4.13614063e-08,1.94921875e-01
-4.13214062e-08,1.94879688e-01
-4.12814062e-08,1.94920312e-01
-4.12414062e-08,1.94881250e-01
-4.12014062e-08,1.94918750e-01
-4.11614062e-08,1.94882813e-01
-4.11214062e-08,1.94917188e-01
-4.10814063e-08,1.94882813e-01
-4.10414062e-08,1.94917188e-01
-4.10014062e-08,1.94884375e-01
-4.09614062e-08,1.94915625e-01
-4.09214062e-08,1.94884375e-01
-4.08814062e-08,1.94915625e-01
-4.08414062e-08,1.94884375e-01
-4.08014063e-08,1.94915625e-01
-4.07614062e-08,1.94884375e-01
-4.07214062e-08,1.94915625e-01
-4.06814062e-08,1.94884375e-01
-4.06414062e-08,1.94915625e-01
-4.06014062e-08,1.94884375e-01
-4.05614062e-08,1.94915625e-01
-4.05214063e-08,1.94884375e-01
-4.04814062e-08,1.94915625e-01
-4.04414062e-08,1.94882813e-01
-4.04014062e-08,1.94917188e-01
-4.03614062e-08,1.94882813e-01
-4.03214062e-08,1.94917188e-01
-4.02814062e-08,1.94881250e-01
-4.02414063e-08,1.94918750e-01
-4.02014062e-08,1.94881250e-01
-4.01614062e-08,1.94920312e-01
-4.01214062e-08,1.94878125e-01
-4.00814062e-08,1.94923438e-01
-4.00414062e-08,1.94875000e-01
-4.00014062e-08,1.94929688e-01
-3.99614062e-08,1.94865625e-01
-3.99214062e-08,1.94943750e-01
-3.98814062e-08,1.94829688e-01
-3.98414062e-08,1.95123437e-01
-3.98014062e-08,1.95339062e-01
-3.97614062e-08,1.95285938e-01
-3.97214063e-08,1.95303125e-01
-3.96814062e-08,1.95301562e-01
-3.96414062e-08,1.95293750e-01
-3.96014062e-08,1.95309375e-01
-3.95614062e-08,1.95285938e-01
-3.95214062e-08,1.95318750e-01
-3.94814062e-08,1.95276563e-01
-3.94414063e-08,1.95334375e-01
-3.94014062e-08,1.95239063e-01
-3.93614062e-08,1.95514063e-01
-3.93214062e-08,1.95746875e-01
-3.92814062e-08,1.95676563e-01
-3.92414062e-08,1.95712500e-01
-3.92014062e-08,1.95692188e-01
-3.91614063e-08,1.95703125e-01
-3.91214062e-08,1.95700000e-01
-3.90814062e-08,1.95698438e-01
-3.90414062e-08,1.95704688e-01
-3.90014062e-08,1.95693750e-01
-3.89614062e-08,1.95707813e-01
-3.89214062e-08,1.95689063e-01
-3.88814063e-08,1.95715625e-01
-3.88414062e-08,1.95679688e-01
-3.88014062e-08,1.95731250e-01
-3.87614062e-08,1.95643750e-01
-3.87214062e-08,1.95909375e-01
-3.86814062e-08,1.96151563e-01
-3.86414062e-08,1.96071875e-01
-3.86014063e-08,1.96117188e-01
-3.85614062e-08,1.96087500e-01
-3.85214062e-08,1.96109375e-01
