trails/0bdfa5e45fec98341abdd20552c140b4/aes_ch1_20250507122216918.csv

Model,MSO66B
Label,
Waveform Type,ANALOG
Horizontal Units,s
Sample Interval,4.00000000e-11
Record Length,10000
Zero Index,1599.05859375
Vertical Units,A
ANALOG_Thumbnail,
yOffset,1.84500000e-01
yPosition,8.40000000e-01

Labels,
TIME,CH1
-6.39623437e-08,1.82898438e-01
-6.39223437e-08,1.82900000e-01
-6.38823437e-08,1.82900000e-01
-6.38423437e-08,1.82900000e-01
-6.38023437e-08,1.82900000e-01
-6.37623438e-08,1.82900000e-01
-6.37223437e-08,1.82900000e-01
-6.36823437e-08,1.82900000e-01
-6.36423437e-08,1.82900000e-01
-6.36023437e-08,1.82900000e-01
-6.35623437e-08,1.82901563e-01
-6.35223437e-08,1.82898438e-01
-6.34823438e-08,1.82901563e-01
-6.34423437e-08,1.82898438e-01
-6.34023437e-08,1.82901563e-01
-6.33623437e-08,1.82898438e-01
-6.33223437e-08,1.82901563e-01
-6.32823438e-08,1.82898438e-01
-6.32423437e-08,1.82903125e-01
-6.32023438e-08,1.82896875e-01
-6.31623437e-08,1.82903125e-01
-6.31223437e-08,1.82896875e-01
-6.30823437e-08,1.82904687e-01
-6.30423437e-08,1.82895313e-01
-6.30023438e-08,1.82906250e-01
-6.29623437e-08,1.82892187e-01
-6.29223438e-08,1.82907813e-01
-6.28823437e-08,1.82889063e-01
-6.28423437e-08,1.82914063e-01
-6.28023437e-08,1.82881250e-01
-6.27623437e-08,1.82928125e-01
-6.27223438e-08,1.82846875e-01
-6.26823437e-08,1.83106250e-01
-6.26423438e-08,1.83356250e-01
-6.26023437e-08,1.83267188e-01
-6.25623437e-08,1.83323438e-01
-6.25223437e-08,1.83282813e-01
-6.24823437e-08,1.83315625e-01
-6.24423438e-08,1.83287500e-01
-6.24023437e-08,1.83310937e-01
-6.23623438e-08,1.83289063e-01
-6.23223437e-08,1.83309375e-01
-6.22823437e-08,1.83290625e-01
-6.22423437e-08,1.83307813e-01
-6.22023437e-08,1.83292188e-01
-6.21623438e-08,1.83307813e-01
-6.21223437e-08,1.83292188e-01
-6.20823438e-08,1.83307813e-01
-6.20423437e-08,1.83292188e-01
-6.20023437e-08,1.83307813e-01
-6.19623437e-08,1.83293750e-01
-6.19223437e-08,1.83306250e-01
-6.18823438e-08,1.83293750e-01
-6.18423437e-08,1.83306250e-01
-6.18023438e-08,1.83293750e-01
-6.17623437e-08,1.83306250e-01
-6.17223437e-08,1.83292188e-01
-6.16823437e-08,1.83307813e-01
-6.16423437e-08,1.83292188e-01
-6.16023438e-08,1.83307813e-01
-6.15623437e-08,1.83292188e-01
-6.15223438e-08,1.83307813e-01
-6.14823437e-08,1.83292188e-01
-6.14423437e-08,1.83309375e-01
-6.14023437e-08,1.83290625e-01
-6.13623437e-08,1.83310937e-01
-6.13223438e-08,1.83289063e-01
-6.12823437e-08,1.83312500e-01
-6.12423437e-08,1.83285937e-01
-6.12023437e-08,1.83315625e-01
-6.11623437e-08,1.83281250e-01
-6.11223437e-08,1.83323438e-01
-6.10823437e-08,1.83265625e-01
-6.10423438e-08,1.83359375e-01
-6.10023437e-08,1.83087500e-01
-6.09623437e-08,1.82850000e-01
-6.09223437e-08,1.82926563e-01
-6.08823437e-08,1.82882813e-01
-6.08423437e-08,1.82910938e-01
-6.08023437e-08,1.82892187e-01
-6.07623438e-08,1.82906250e-01
-6.07223437e-08,1.82896875e-01
-6.06823437e-08,1.82901563e-01
-6.06423437e-08,1.82900000e-01
-6.06023437e-08,1.82900000e-01
-6.05623437e-08,1.82901563e-01
-6.05223437e-08,1.82895313e-01
-6.04823438e-08,1.82906250e-01
-6.04423437e-08,1.82890625e-01
-6.04023437e-08,1.82915625e-01
-6.03623437e-08,1.82875000e-01
-6.03223437e-08,1.82950000e-01
-6.02823437e-08,1.82696875e-01
-6.02423437e-08,1.82440625e-01
-6.02023438e-08,1.82535937e-01
-6.01623437e-08,1.82473438e-01
-6.01223437e-08,1.82521875e-01
-6.00823437e-08,1.82479688e-01
-6.00423437e-08,1.82518750e-01
-6.00023437e-08,1.82482813e-01
-5.99623437e-08,1.82517188e-01
-5.99223438e-08,1.82482813e-01
-5.98823437e-08,1.82518750e-01
-5.98423437e-08,1.82478125e-01
-5.98023437e-08,1.82526563e-01
-5.97623437e-08,1.82465625e-01
-5.97223437e-08,1.82559375e-01
-5.96823437e-08,1.82287500e-01
-5.96423438e-08,1.82050000e-01
-5.96023437e-08,1.82126563e-01
-5.95623437e-08,1.82082812e-01
-5.95223437e-08,1.82112500e-01
-5.94823437e-08,1.82089063e-01
-5.94423437e-08,1.82109375e-01
-5.94023437e-08,1.82092188e-01
-5.93623437e-08,1.82106250e-01
-5.93223437e-08,1.82093750e-01
-5.92823437e-08,1.82104688e-01
-5.92423437e-08,1.82095312e-01
-5.92023437e-08,1.82104688e-01
-5.91623437e-08,1.82095312e-01
-5.91223437e-08,1.82104688e-01
-5.90823437e-08,1.82095312e-01
-5.90423437e-08,1.82104688e-01
-5.90023437e-08,1.82095312e-01
-5.89623437e-08,1.82104688e-01
-5.89223437e-08,1.82095312e-01
-5.88823437e-08,1.82106250e-01
-5.88423437e-08,1.82093750e-01
-5.88023437e-08,1.82106250e-01
-5.87623437e-08,1.82092188e-01
-5.87223437e-08,1.82107812e-01
-5.86823437e-08,1.82090625e-01
-5.86423437e-08,1.82110938e-01
-5.86023437e-08,1.82087500e-01
-5.85623437e-08,1.82115625e-01
-5.85223437e-08,1.82078125e-01
-5.84823437e-08,1.82131250e-01
-5.84423437e-08,1.82043750e-01
-5.84023437e-08,1.82309375e-01
-5.83623437e-08,1.82553125e-01
-5.83223437e-08,1.82470313e-01
-5.82823437e-08,1.82520313e-01
-5.82423437e-08,1.82485938e-01
-5.82023437e-08,1.82510937e-01
-5.81623437e-08,1.82490625e-01
-5.81223437e-08,1.82507813e-01
-5.80823437e-08,1.82493750e-01
-5.80423437e-08,1.82504688e-01
-5.80023437e-08,1.82496875e-01
-5.79623437e-08,1.82501563e-01
-5.79223437e-08,1.82500000e-01
-5.78823437e-08,1.82498437e-01
-5.78423437e-08,1.82504688e-01
-5.78023437e-08,1.82489063e-01
-5.77623437e-08,1.82520313e-01
-5.77223437e-08,1.82456250e-01
-5.76823437e-08,1.82696875e-01
-5.76423437e-08,1.82965625e-01
-5.76023437e-08,1.82857812e-01
-5.75623437e-08,1.82934375e-01
-5.75223437e-08,1.82868750e-01
-5.74823437e-08,1.82929687e-01
-5.74423437e-08,1.82868750e-01
-5.74023437e-08,1.82934375e-01
-5.73623437e-08,1.82856250e-01
-5.73223437e-08,1.82967188e-01
-5.72823437e-08,1.82679688e-01
-5.72423437e-08,1.82456250e-01
-5.72023437e-08,1.82520313e-01
-5.71623437e-08,1.82489063e-01
-5.71223437e-08,1.82506250e-01
-5.70823437e-08,1.82496875e-01
-5.70423437e-08,1.82500000e-01
-5.70023437e-08,1.82501563e-01
-5.69623437e-08,1.82496875e-01
-5.69223437e-08,1.82504688e-01
-5.68823437e-08,1.82493750e-01
-5.68423437e-08,1.82509375e-01
-5.68023437e-08,1.82487500e-01
-5.67623437e-08,1.82517188e-01
-5.67223437e-08,1.82473438e-01
-5.66823437e-08,1.82551563e-01
-5.66423437e-08,1.82295313e-01
-5.66023437e-08,1.82042188e-01
-5.65623437e-08,1.82134375e-01
-5.65223437e-08,1.82073438e-01
-5.64823437e-08,1.82121875e-01
-5.64423437e-08,1.82081250e-01
-5.64023437e-08,1.82118750e-01
-5.63623437e-08,1.82081250e-01
-5.63223437e-08,1.82118750e-01
-5.62823437e-08,1.82078125e-01
-5.62423437e-08,1.82126563e-01
-5.62023437e-08,1.82065625e-01
-5.61623437e-08,1.82159375e-01
-5.61223437e-08,1.81887500e-01
-5.60823437e-08,1.81650000e-01
-5.60423437e-08,1.81726562e-01
-5.60023437e-08,1.81682813e-01
-5.59623437e-08,1.81712500e-01
-5.59223437e-08,1.81690625e-01
-5.58823437e-08,1.81707813e-01
-5.58423437e-08,1.81693750e-01
-5.58023437e-08,1.81704688e-01
-5.57623437e-08,1.81695313e-01
-5.57223437e-08,1.81703125e-01
-5.56823437e-08,1.81696875e-01
-5.56423437e-08,1.81701562e-01
-5.56023437e-08,1.81698438e-01
-5.55623437e-08,1.81700000e-01
-5.55223437e-08,1.81700000e-01
-5.54823437e-08,1.81698438e-01
-5.54423437e-08,1.81703125e-01
-5.54023437e-08,1.81695313e-01
-5.53623437e-08,1.81707813e-01
-5.53223437e-08,1.81687500e-01
-5.52823437e-08,1.81721875e-01
-5.52423437e-08,1.81653125e-01
-5.52023437e-08,1.81900000e-01
-5.51623437e-08,1.82162500e-01
-5.51223437e-08,1.82060938e-01
-5.50823437e-08,1.82129687e-01
-5.50423437e-08,1.82073438e-01
-5.50023437e-08,1.82123438e-01
-5.49623437e-08,1.82078125e-01
-5.49223437e-08,1.82121875e-01
-5.48823437e-08,1.82078125e-01
-5.48423437e-08,1.82121875e-01
-5.48023437e-08,1.82076563e-01
-5.47623437e-08,1.82126563e-01
-5.47223437e-08,1.82068750e-01
-5.46823437e-08,1.82140625e-01
-5.46423437e-08,1.82034375e-01
-5.46023437e-08,1.82318750e-01
-5.45623437e-08,1.82543750e-01
-5.45223437e-08,1.82479688e-01
-5.44823437e-08,1.82509375e-01
-5.44423437e-08,1.82495313e-01
-5.44023437e-08,1.82501563e-01
-5.43623437e-08,1.82501563e-01
-5.43223437e-08,1.82496875e-01
-5.42823437e-08,1.82504688e-01
-5.42423437e-08,1.82493750e-01
-5.42023437e-08,1.82509375e-01
-5.41623437e-08,1.82489063e-01
-5.41223437e-08,1.82515625e-01
-5.40823437e-08,1.82479688e-01
-5.40423437e-08,1.82531250e-01
-5.40023437e-08,1.82443750e-01
-5.39623437e-08,1.82709375e-01
-5.39223437e-08,1.82953125e-01
-5.38823437e-08,1.82871875e-01
-5.38423437e-08,1.82918750e-01
-5.38023437e-08,1.82885938e-01
-5.37623437e-08,1.82910938e-01
-5.37223437e-08,1.82892187e-01
-5.36823437e-08,1.82906250e-01
-5.36423437e-08,1.82895313e-01
-5.36023437e-08,1.82903125e-01
-5.35623437e-08,1.82898438e-01
-5.35223437e-08,1.82901563e-01
-5.34823437e-08,1.82900000e-01
-5.34423437e-08,1.82898438e-01
-5.34023437e-08,1.82901563e-01
-5.33623437e-08,1.82896875e-01
-5.33223437e-08,1.82904687e-01
-5.32823437e-08,1.82892187e-01
-5.32423437e-08,1.82910938e-01
-5.32023437e-08,1.82884375e-01
-5.31623437e-08,1.82926563e-01
-5.31223437e-08,1.82848438e-01
-5.30823437e-08,1.83104688e-01
-5.30423437e-08,1.83357812e-01
-5.30023437e-08,1.83265625e-01
-5.29623437e-08,1.83325000e-01
-5.29223437e-08,1.83281250e-01
-5.28823437e-08,1.83315625e-01
-5.28423437e-08,1.83285937e-01
-5.28023437e-08,1.83312500e-01
-5.27623437e-08,1.83289063e-01
-5.27223437e-08,1.83310937e-01
-5.26823437e-08,1.83290625e-01
-5.26423437e-08,1.83309375e-01
-5.26023437e-08,1.83290625e-01
-5.25623437e-08,1.83307813e-01
-5.25223437e-08,1.83292188e-01
-5.24823437e-08,1.83307813e-01
-5.24423437e-08,1.83292188e-01
-5.24023437e-08,1.83307813e-01
-5.23623437e-08,1.83292188e-01
-5.23223437e-08,1.83306250e-01
-5.22823437e-08,1.83293750e-01
-5.22423437e-08,1.83306250e-01
-5.22023437e-08,1.83293750e-01
-5.21623437e-08,1.83306250e-01
-5.21223437e-08,1.83293750e-01
-5.20823437e-08,1.83306250e-01
-5.20423437e-08,1.83293750e-01
-5.20023437e-08,1.83306250e-01
-5.19623437e-08,1.83293750e-01
-5.19223437e-08,1.83307813e-01
-5.18823437e-08,1.83292188e-01
-5.18423437e-08,1.83307813e-01
-5.18023437e-08,1.83292188e-01
-5.17623438e-08,1.83307813e-01
-5.17223437e-08,1.83292188e-01
-5.16823437e-08,1.83309375e-01
-5.16423437e-08,1.83290625e-01
-5.16023437e-08,1.83309375e-01
-5.15623437e-08,1.83289063e-01
-5.15223437e-08,1.83312500e-01
-5.14823437e-08,1.83285937e-01
-5.14423437e-08,1.83315625e-01
-5.14023437e-08,1.83281250e-01
-5.13623437e-08,1.83323438e-01
-5.13223437e-08,1.83267188e-01
-5.12823437e-08,1.83357812e-01
-5.12423437e-08,1.83089063e-01
-5.12023437e-08,1.82848438e-01
-5.11623437e-08,1.82926563e-01
-5.11223437e-08,1.82882813e-01
-5.10823437e-08,1.82912500e-01
-5.10423437e-08,1.82890625e-01
-5.10023437e-08,1.82907813e-01
-5.09623437e-08,1.82895313e-01
-5.09223437e-08,1.82904687e-01
-5.08823437e-08,1.82896875e-01
-5.08423437e-08,1.82901563e-01
-5.08023437e-08,1.82898438e-01
-5.07623437e-08,1.82900000e-01
-5.07223437e-08,1.82901563e-01
-5.06823437e-08,1.82898438e-01
-5.06423437e-08,1.82903125e-01
-5.06023437e-08,1.82895313e-01
-5.05623437e-08,1.82906250e-01
-5.05223437e-08,1.82890625e-01
-5.04823437e-08,1.82915625e-01
-5.04423437e-08,1.82875000e-01
-5.04023437e-08,1.82950000e-01
-5.03623437e-08,1.82698438e-01
-5.03223437e-08,1.82439062e-01
-5.02823437e-08,1.82537500e-01
-5.02423437e-08,1.82471875e-01
-5.02023437e-08,1.82523437e-01
-5.01623437e-08,1.82478125e-01
-5.01223437e-08,1.82520313e-01
-5.00823437e-08,1.82479688e-01
-5.00423437e-08,1.82520313e-01
-5.00023437e-08,1.82476562e-01
-4.99623437e-08,1.82526563e-01
-4.99223437e-08,1.82464062e-01
-4.98823437e-08,1.82560938e-01
-4.98423438e-08,1.82287500e-01
-4.98023437e-08,1.82050000e-01
-4.97623437e-08,1.82126563e-01
-4.97223437e-08,1.82082812e-01
-4.96823437e-08,1.82114063e-01
-4.96423437e-08,1.82089063e-01
-4.96023437e-08,1.82109375e-01
-4.95623438e-08,1.82090625e-01
-4.95223437e-08,1.82107812e-01
-4.94823437e-08,1.82092188e-01
-4.94423437e-08,1.82109375e-01
-4.94023437e-08,1.82090625e-01
-4.93623437e-08,1.82110938e-01
-4.93223437e-08,1.82085938e-01
-4.92823437e-08,1.82118750e-01
-4.92423437e-08,1.82071875e-01
-4.92023437e-08,1.82153125e-01
-4.91623437e-08,1.81895313e-01
-4.91223437e-08,1.81642187e-01
-4.90823437e-08,1.81734375e-01
-4.90423437e-08,1.81675000e-01
-4.90023437e-08,1.81720313e-01
-4.89623437e-08,1.81682813e-01
-4.89223437e-08,1.81715625e-01
-4.88823437e-08,1.81684375e-01
-4.88423437e-08,1.81714062e-01
-4.88023437e-08,1.81685938e-01
-4.87623437e-08,1.81715625e-01
-4.87223437e-08,1.81684375e-01
-4.86823437e-08,1.81717188e-01
-4.86423437e-08,1.81679688e-01
-4.86023437e-08,1.81725000e-01
-4.85623437e-08,1.81665625e-01
-4.85223437e-08,1.81757813e-01
-4.84823437e-08,1.81489063e-01
-4.84423437e-08,1.81248437e-01
-4.84023437e-08,1.81328125e-01
-4.83623437e-08,1.81279688e-01
-4.83223437e-08,1.81315625e-01
-4.82823437e-08,1.81285937e-01
-4.82423437e-08,1.81314063e-01
-4.82023437e-08,1.81284375e-01
-4.81623437e-08,1.81320312e-01
-4.81223437e-08,1.81271875e-01
-4.80823437e-08,1.81351563e-01
-4.80423437e-08,1.81095312e-01
-4.80023437e-08,1.80840625e-01
-4.79623437e-08,1.80935938e-01
-4.79223438e-08,1.80873438e-01
-4.78823437e-08,1.80923438e-01
-4.78423437e-08,1.80879687e-01
-4.78023437e-08,1.80920313e-01
-4.77623437e-08,1.80879687e-01
-4.77223437e-08,1.80920313e-01
-4.76823437e-08,1.80879687e-01
-4.76423438e-08,1.80921875e-01
-4.76023437e-08,1.80876563e-01
-4.75623437e-08,1.80926562e-01
-4.75223437e-08,1.80870313e-01
-4.74823437e-08,1.80935938e-01
-4.74423437e-08,1.80851563e-01
-4.74023437e-08,1.80976562e-01
-4.73623438e-08,1.80665625e-01
-4.73223437e-08,1.80481250e-01
-4.72823437e-08,1.80470313e-01
-4.72423437e-08,1.80693750e-01
-4.72023437e-08,1.80964062e-01
-4.71623437e-08,1.80862500e-01
-4.71223437e-08,1.80925000e-01
-4.70823437e-08,1.80881250e-01
-4.70423437e-08,1.80914063e-01
-4.70023437e-08,1.80889063e-01
-4.69623437e-08,1.80907813e-01
-4.69223437e-08,1.80893750e-01
-4.68823437e-08,1.80904687e-01
-4.68423437e-08,1.80898438e-01
-4.68023437e-08,1.80900000e-01
-4.67623437e-08,1.80903125e-01
-4.67223437e-08,1.80895313e-01
-4.66823437e-08,1.80909375e-01
-4.66423437e-08,1.80885938e-01
-4.66023437e-08,1.80925000e-01
-4.65623437e-08,1.80850000e-01
-4.65223437e-08,1.81104688e-01
-4.64823437e-08,1.81357812e-01
-4.64423437e-08,1.81267188e-01
-4.64023437e-08,1.81323438e-01
-4.63623437e-08,1.81282813e-01
-4.63223437e-08,1.81314063e-01
-4.62823438e-08,1.81289063e-01
-4.62423437e-08,1.81307812e-01
-4.62023437e-08,1.81293750e-01
-4.61623437e-08,1.81303125e-01
-4.61223437e-08,1.81301563e-01
-4.60823437e-08,1.81293750e-01
-4.60423437e-08,1.81317188e-01
-4.60023438e-08,1.81257813e-01
-4.59623437e-08,1.81495313e-01
-4.59223437e-08,1.81767188e-01
-4.58823437e-08,1.81657813e-01
-4.58423437e-08,1.81732813e-01
-4.58023437e-08,1.81671875e-01
-4.57623437e-08,1.81725000e-01
-4.57223438e-08,1.81676562e-01
-4.56823437e-08,1.81721875e-01
-4.56423437e-08,1.81679688e-01
-4.56023437e-08,1.81720313e-01
-4.55623437e-08,1.81679688e-01
-4.55223437e-08,1.81718750e-01
-4.54823437e-08,1.81681250e-01
-4.54423438e-08,1.81720313e-01
-4.54023437e-08,1.81679688e-01
-4.53623437e-08,1.81720313e-01
-4.53223437e-08,1.81678125e-01
-4.52823437e-08,1.81723438e-01
-4.52423437e-08,1.81675000e-01
-4.52023437e-08,1.81728125e-01
-4.51623438e-08,1.81667187e-01
-4.51223437e-08,1.81742188e-01
-4.50823437e-08,1.81632813e-01
-4.50423437e-08,1.81920313e-01
-4.50023437e-08,1.82140625e-01
-4.49623437e-08,1.82082812e-01
-4.49223437e-08,1.82107812e-01
-4.48823437e-08,1.82098438e-01
-4.48423437e-08,1.82098438e-01
-4.48023437e-08,1.82104688e-01
-4.47623437e-08,1.82093750e-01
-4.47223437e-08,1.82107812e-01
-4.46823437e-08,1.82089063e-01
-4.46423437e-08,1.82112500e-01
-4.46023437e-08,1.82084375e-01
-4.45623437e-08,1.82118750e-01
-4.45223437e-08,1.82075000e-01
-4.44823437e-08,1.82135938e-01
-4.44423437e-08,1.82039063e-01
-4.44023437e-08,1.82315625e-01
-4.43623438e-08,1.82546875e-01
-4.43223437e-08,1.82478125e-01
-4.42823437e-08,1.82510937e-01
-4.42423437e-08,1.82495313e-01
-4.42023437e-08,1.82498437e-01
-4.41623437e-08,1.82506250e-01
-4.41223437e-08,1.82485938e-01
-4.40823438e-08,1.82525000e-01
-4.40423437e-08,1.82448438e-01
-4.40023437e-08,1.82704688e-01
-4.39623437e-08,1.82956250e-01
-4.39223437e-08,1.82870313e-01
-4.38823437e-08,1.82918750e-01
-4.38423437e-08,1.82889063e-01
-4.38023438e-08,1.82903125e-01
-4.37623437e-08,1.82907813e-01
-4.37223437e-08,1.82865625e-01
-4.36823437e-08,1.83087500e-01
-4.36423437e-08,1.83376563e-01
-4.36023437e-08,1.83246875e-01
-4.35623437e-08,1.83346875e-01
-4.35223438e-08,1.83253125e-01
-4.34823437e-08,1.83353125e-01
-4.34423437e-08,1.83223438e-01
-4.34023437e-08,1.83528125e-01
-4.33623437e-08,1.83734375e-01
-4.33223437e-08,1.83689062e-01
-4.32823437e-08,1.83700000e-01
-4.32423438e-08,1.83706250e-01
-4.32023437e-08,1.83685938e-01
-4.31623437e-08,1.83725000e-01
-4.31223437e-08,1.83650000e-01
-4.30823437e-08,1.83903125e-01
-4.30423437e-08,1.84159375e-01
-4.30023437e-08,1.84064063e-01
-4.29623437e-08,1.84126563e-01
-4.29223437e-08,1.84078125e-01
-4.28823437e-08,1.84120312e-01
-4.28423437e-08,1.84079688e-01
-4.28023437e-08,1.84121875e-01
-4.27623437e-08,1.84073437e-01
-4.27223437e-08,1.84134375e-01
-4.26823437e-08,1.84040625e-01
-4.26423437e-08,1.84310937e-01
-4.26023437e-08,1.84551563e-01
-4.25623437e-08,1.84471875e-01
-4.25223437e-08,1.84518750e-01
-4.24823437e-08,1.84485938e-01
-4.24423438e-08,1.84512500e-01
-4.24023437e-08,1.84489062e-01
-4.23623437e-08,1.84509375e-01
-4.23223437e-08,1.84492188e-01
-4.22823437e-08,1.84507813e-01
-4.22423437e-08,1.84492188e-01
-4.22023437e-08,1.84507813e-01
-4.21623438e-08,1.84492188e-01
-4.21223437e-08,1.84507813e-01
-4.20823437e-08,1.84490625e-01
-4.20423437e-08,1.84509375e-01
-4.20023437e-08,1.84489062e-01
-4.19623437e-08,1.84512500e-01
-4.19223437e-08,1.84484375e-01
-4.18823438e-08,1.84520313e-01
-4.18423437e-08,1.84470313e-01
-4.18023437e-08,1.84554688e-01
-4.17623437e-08,1.84292188e-01
-4.17223437e-08,1.84045313e-01
-4.16823437e-08,1.84131250e-01
-4.16423437e-08,1.84078125e-01
-4.16023438e-08,1.84117188e-01
-4.15623437e-08,1.84085938e-01
-4.15223437e-08,1.84112500e-01
-4.14823437e-08,1.84089063e-01
-4.14423437e-08,1.84110938e-01
-4.14023437e-08,1.84090625e-01
-4.13623437e-08,1.84109375e-01
-4.13223438e-08,1.84090625e-01
-4.12823437e-08,1.84109375e-01
-4.12423437e-08,1.84090625e-01
-4.12023437e-08,1.84109375e-01
-4.11623437e-08,1.84090625e-01
-4.11223437e-08,1.84109375e-01
-4.10823437e-08,1.84089063e-01
-4.10423438e-08,1.84110938e-01
-4.10023437e-08,1.84087500e-01
-4.09623437e-08,1.84112500e-01
-4.09223437e-08,1.84085938e-01
-4.08823437e-08,1.84117188e-01
-4.08423437e-08,1.84079688e-01
-4.08023437e-08,1.84125000e-01
-4.07623437e-08,1.84064063e-01
-4.07223437e-08,1.84160938e-01
-4.06823437e-08,1.83885938e-01
-4.06423437e-08,1.83651563e-01
-4.06023437e-08,1.83723438e-01
-4.05623437e-08,1.83685938e-01
-4.05223438e-08,1.83707813e-01
-4.04823437e-08,1.83696875e-01
-4.04423437e-08,1.83700000e-01
-4.04023437e-08,1.83703125e-01
-4.03623437e-08,1.83692187e-01
-4.03223437e-08,1.83714062e-01
-4.02823437e-08,1.83675000e-01
-4.02423438e-08,1.83750000e-01
-4.02023437e-08,1.83495313e-01
-4.01623437e-08,1.83243750e-01
-4.01223437e-08,1.83331250e-01
-4.00823437e-08,1.83279688e-01
-4.00423437e-08,1.83312500e-01
-4.00023437e-08,1.83295313e-01
-3.99623438e-08,1.83293750e-01
-3.99223437e-08,1.83331250e-01
-3.98823437e-08,1.83115625e-01
-3.98423437e-08,1.82821875e-01
-3.98023437e-08,1.82956250e-01
-3.97623437e-08,1.82850000e-01
-3.97223437e-08,1.82950000e-01
-3.96823438e-08,1.82843750e-01
-3.96423437e-08,1.82979688e-01
-3.96023437e-08,1.82667187e-01
-3.95623437e-08,1.82470313e-01
-3.95223437e-08,1.82506250e-01
-3.94823437e-08,1.82504688e-01
-3.94423437e-08,1.82489063e-01
-3.94023438e-08,1.82518750e-01
-3.93623437e-08,1.82470313e-01
-3.93223437e-08,1.82556250e-01
-3.92823437e-08,1.82290625e-01
-3.92423437e-08,1.82048437e-01
-3.92023437e-08,1.82128125e-01
-3.91623437e-08,1.82082812e-01
-3.91223438e-08,1.82112500e-01
-3.90823437e-08,1.82090625e-01
-3.90423437e-08,1.82107812e-01
-3.90023437e-08,1.82093750e-01
-3.89623437e-08,1.82104688e-01
-3.89223437e-08,1.82096875e-01
-3.88823437e-08,1.82103125e-01
-3.88423438e-08,1.82098438e-01
-3.88023437e-08,1.82101563e-01
-3.87623437e-08,1.82100000e-01
-3.87223437e-08,1.82100000e-01
-3.86823437e-08,1.82100000e-01
-3.86423437e-08,1.82098438e-01
-3.86023438e-08,1.82101563e-01
-3.85623437e-08,1.82096875e-01
-3.85223437e-08,1.82103125e-01
