trails/0bdfa5e45fec98341abdd20552c140b4/aes_ch1_20250507114845144.csv

Model,MSO66B
Label,
Waveform Type,ANALOG
Horizontal Units,s
Sample Interval,4.00000000e-11
Record Length,10000
Zero Index,1599.07421875
Vertical Units,A
ANALOG_Thumbnail,
yOffset,1.84500000e-01
yPosition,8.40000000e-01

Labels,
TIME,CH1
-6.39629687e-08,1.82282813e-01
-6.39229688e-08,1.82054688e-01
-6.38829687e-08,1.82120313e-01
-6.38429687e-08,1.82089063e-01
-6.38029687e-08,1.82106250e-01
-6.37629687e-08,1.82096875e-01
-6.37229688e-08,1.82100000e-01
-6.36829687e-08,1.82101563e-01
-6.36429688e-08,1.82096875e-01
-6.36029687e-08,1.82106250e-01
-6.35629687e-08,1.82092188e-01
-6.35229687e-08,1.82109375e-01
-6.34829687e-08,1.82087500e-01
-6.34429688e-08,1.82118750e-01
-6.34029687e-08,1.82071875e-01
-6.33629688e-08,1.82153125e-01
-6.33229687e-08,1.81893750e-01
-6.32829687e-08,1.81643750e-01
-6.32429687e-08,1.81732813e-01
-6.32029687e-08,1.81676562e-01
-6.31629688e-08,1.81718750e-01
-6.31229687e-08,1.81682813e-01
-6.30829688e-08,1.81715625e-01
-6.30429687e-08,1.81684375e-01
-6.30029687e-08,1.81715625e-01
-6.29629687e-08,1.81682813e-01
-6.29229687e-08,1.81721875e-01
-6.28829688e-08,1.81668750e-01
-6.28429687e-08,1.81754688e-01
-6.28029688e-08,1.81493750e-01
-6.27629687e-08,1.81243750e-01
-6.27229687e-08,1.81332812e-01
-6.26829687e-08,1.81275000e-01
-6.26429687e-08,1.81320312e-01
-6.26029688e-08,1.81281250e-01
-6.25629687e-08,1.81317188e-01
-6.25229688e-08,1.81281250e-01
-6.24829687e-08,1.81318750e-01
-6.24429687e-08,1.81278125e-01
-6.24029687e-08,1.81326563e-01
-6.23629687e-08,1.81264063e-01
-6.23229688e-08,1.81359375e-01
-6.22829687e-08,1.81087500e-01
-6.22429688e-08,1.80850000e-01
-6.22029687e-08,1.80926562e-01
-6.21629687e-08,1.80882813e-01
-6.21229687e-08,1.80912500e-01
-6.20829687e-08,1.80890625e-01
-6.20429688e-08,1.80907813e-01
-6.20029687e-08,1.80893750e-01
-6.19629688e-08,1.80904687e-01
-6.19229687e-08,1.80895313e-01
-6.18829687e-08,1.80903125e-01
-6.18429687e-08,1.80896875e-01
-6.18029687e-08,1.80903125e-01
-6.17629688e-08,1.80896875e-01
-6.17229687e-08,1.80901563e-01
-6.16829687e-08,1.80898438e-01
-6.16429687e-08,1.80901563e-01
-6.16029687e-08,1.80898438e-01
-6.15629687e-08,1.80901563e-01
-6.15229687e-08,1.80898438e-01
-6.14829688e-08,1.80901563e-01
-6.14429687e-08,1.80898438e-01
-6.14029687e-08,1.80901563e-01
-6.13629687e-08,1.80898438e-01
-6.13229687e-08,1.80900000e-01
-6.12829687e-08,1.80900000e-01
-6.12429687e-08,1.80900000e-01
-6.12029688e-08,1.80900000e-01
-6.11629687e-08,1.80900000e-01
-6.11229687e-08,1.80900000e-01
-6.10829687e-08,1.80900000e-01
-6.10429687e-08,1.80900000e-01
-6.10029687e-08,1.80900000e-01
-6.09629687e-08,1.80900000e-01
-6.09229688e-08,1.80900000e-01
-6.08829687e-08,1.80900000e-01
-6.08429687e-08,1.80900000e-01
-6.08029687e-08,1.80900000e-01
-6.07629687e-08,1.80900000e-01
-6.07229687e-08,1.80900000e-01
-6.06829687e-08,1.80900000e-01
-6.06429688e-08,1.80900000e-01
-6.06029687e-08,1.80900000e-01
-6.05629687e-08,1.80900000e-01
-6.05229687e-08,1.80900000e-01
-6.04829687e-08,1.80900000e-01
-6.04429687e-08,1.80900000e-01
-6.04029687e-08,1.80900000e-01
-6.03629688e-08,1.80900000e-01
-6.03229687e-08,1.80900000e-01
-6.02829687e-08,1.80900000e-01
-6.02429687e-08,1.80900000e-01
-6.02029687e-08,1.80900000e-01
-6.01629687e-08,1.80900000e-01
-6.01229687e-08,1.80900000e-01
-6.00829688e-08,1.80900000e-01
-6.00429687e-08,1.80900000e-01
-6.00029687e-08,1.80898438e-01
-5.99629687e-08,1.80901563e-01
-5.99229687e-08,1.80898438e-01
-5.98829688e-08,1.80901563e-01
-5.98429687e-08,1.80898438e-01
-5.98029688e-08,1.80901563e-01
-5.97629687e-08,1.80898438e-01
-5.97229687e-08,1.80901563e-01
-5.96829687e-08,1.80898438e-01
-5.96429687e-08,1.80901563e-01
-5.96029687e-08,1.80896875e-01
-5.95629687e-08,1.80903125e-01
-5.95229687e-08,1.80896875e-01
-5.94829687e-08,1.80903125e-01
-5.94429687e-08,1.80896875e-01
-5.94029687e-08,1.80904687e-01
-5.93629687e-08,1.80895313e-01
-5.93229687e-08,1.80906250e-01
-5.92829687e-08,1.80892187e-01
-5.92429687e-08,1.80909375e-01
-5.92029687e-08,1.80889063e-01
-5.91629687e-08,1.80914063e-01
-5.91229687e-08,1.80881250e-01
-5.90829687e-08,1.80928125e-01
-5.90429687e-08,1.80846875e-01
-5.90029687e-08,1.81106250e-01
-5.89629687e-08,1.81356250e-01
-5.89229687e-08,1.81268750e-01
-5.88829687e-08,1.81321875e-01
-5.88429687e-08,1.81282813e-01
-5.88029687e-08,1.81314063e-01
-5.87629687e-08,1.81287500e-01
-5.87229687e-08,1.81310938e-01
-5.86829687e-08,1.81290625e-01
-5.86429687e-08,1.81309375e-01
-5.86029687e-08,1.81292188e-01
-5.85629687e-08,1.81307812e-01
-5.85229687e-08,1.81293750e-01
-5.84829687e-08,1.81306250e-01
-5.84429687e-08,1.81293750e-01
-5.84029687e-08,1.81306250e-01
-5.83629687e-08,1.81295312e-01
-5.83229687e-08,1.81304688e-01
-5.82829687e-08,1.81295312e-01
-5.82429687e-08,1.81303125e-01
-5.82029687e-08,1.81296875e-01
-5.81629687e-08,1.81303125e-01
-5.81229687e-08,1.81298438e-01
-5.80829687e-08,1.81301563e-01
-5.80429687e-08,1.81300000e-01
-5.80029687e-08,1.81298438e-01
-5.79629687e-08,1.81303125e-01
-5.79229687e-08,1.81293750e-01
-5.78829687e-08,1.81310938e-01
-5.78429687e-08,1.81279688e-01
-5.78029687e-08,1.81345312e-01
-5.77629687e-08,1.81101563e-01
-5.77229687e-08,1.80835938e-01
-5.76829687e-08,1.80940625e-01
-5.76429687e-08,1.80868750e-01
-5.76029687e-08,1.80926562e-01
-5.75629687e-08,1.80875000e-01
-5.75229687e-08,1.80923438e-01
-5.74829687e-08,1.80878125e-01
-5.74429687e-08,1.80921875e-01
-5.74029687e-08,1.80878125e-01
-5.73629687e-08,1.80921875e-01
-5.73229687e-08,1.80878125e-01
-5.72829687e-08,1.80923438e-01
-5.72429687e-08,1.80875000e-01
-5.72029687e-08,1.80928125e-01
-5.71629687e-08,1.80867187e-01
-5.71229687e-08,1.80943750e-01
-5.70829687e-08,1.80831250e-01
-5.70429687e-08,1.81121875e-01
-5.70029687e-08,1.81340625e-01
-5.69629687e-08,1.81282813e-01
-5.69229687e-08,1.81307812e-01
-5.68829687e-08,1.81298438e-01
-5.68429687e-08,1.81298438e-01
-5.68029687e-08,1.81304688e-01
-5.67629687e-08,1.81293750e-01
-5.67229687e-08,1.81307812e-01
-5.66829687e-08,1.81290625e-01
-5.66429687e-08,1.81310938e-01
-5.66029687e-08,1.81287500e-01
-5.65629687e-08,1.81315625e-01
-5.65229687e-08,1.81281250e-01
-5.64829687e-08,1.81321875e-01
-5.64429687e-08,1.81271875e-01
-5.64029687e-08,1.81339063e-01
-5.63629687e-08,1.81235937e-01
-5.63229687e-08,1.81518750e-01
-5.62829687e-08,1.81742188e-01
-5.62429687e-08,1.81682813e-01
-5.62029687e-08,1.81706250e-01
-5.61629687e-08,1.81701562e-01
-5.61229687e-08,1.81692188e-01
-5.60829687e-08,1.81714062e-01
-5.60429687e-08,1.81673438e-01
-5.60029687e-08,1.81753125e-01
-5.59629687e-08,1.81492188e-01
-5.59229687e-08,1.81245313e-01
-5.58829687e-08,1.81329688e-01
-5.58429687e-08,1.81281250e-01
-5.58029687e-08,1.81312500e-01
-5.57629687e-08,1.81292188e-01
-5.57229687e-08,1.81304688e-01
-5.56829687e-08,1.81298438e-01
-5.56429687e-08,1.81298438e-01
-5.56029687e-08,1.81304688e-01
-5.55629687e-08,1.81290625e-01
-5.55229687e-08,1.81315625e-01
-5.54829687e-08,1.81275000e-01
-5.54429687e-08,1.81351563e-01
-5.54029687e-08,1.81093750e-01
-5.53629687e-08,1.80843750e-01
-5.53229687e-08,1.80931250e-01
-5.52829687e-08,1.80879687e-01
-5.52429687e-08,1.80912500e-01
-5.52029687e-08,1.80892187e-01
-5.51629687e-08,1.80903125e-01
-5.51229687e-08,1.80904687e-01
-5.50829687e-08,1.80885938e-01
-5.50429687e-08,1.80940625e-01
-5.50029687e-08,1.80706250e-01
-5.49629687e-08,1.80432813e-01
-5.49229687e-08,1.80543750e-01
-5.48829687e-08,1.80465625e-01
-5.48429687e-08,1.80528125e-01
-5.48029687e-08,1.80473438e-01
-5.47629687e-08,1.80523437e-01
-5.47229687e-08,1.80476562e-01
-5.46829687e-08,1.80523437e-01
-5.46429687e-08,1.80476562e-01
-5.46029687e-08,1.80523437e-01
-5.45629687e-08,1.80473438e-01
-5.45229687e-08,1.80531250e-01
-5.44829687e-08,1.80460938e-01
-5.44429687e-08,1.80564063e-01
-5.44029687e-08,1.80282813e-01
-5.43629687e-08,1.80053125e-01
-5.43229687e-08,1.80123438e-01
-5.42829687e-08,1.80085938e-01
-5.42429687e-08,1.80109375e-01
-5.42029687e-08,1.80093750e-01
-5.41629687e-08,1.80104687e-01
-5.41229687e-08,1.80095312e-01
-5.40829687e-08,1.80103125e-01
-5.40429687e-08,1.80096875e-01
-5.40029687e-08,1.80103125e-01
-5.39629687e-08,1.80096875e-01
-5.39229687e-08,1.80103125e-01
-5.38829687e-08,1.80096875e-01
-5.38429687e-08,1.80103125e-01
-5.38029687e-08,1.80095312e-01
-5.37629687e-08,1.80104687e-01
-5.37229687e-08,1.80093750e-01
-5.36829687e-08,1.80107813e-01
-5.36429687e-08,1.80090625e-01
-5.36029687e-08,1.80112500e-01
-5.35629687e-08,1.80082812e-01
-5.35229687e-08,1.80126563e-01
-5.34829687e-08,1.80048438e-01
-5.34429687e-08,1.80304688e-01
-5.34029687e-08,1.80557812e-01
-5.33629687e-08,1.80465625e-01
-5.33229687e-08,1.80525000e-01
-5.32829687e-08,1.80479688e-01
-5.32429687e-08,1.80517188e-01
-5.32029687e-08,1.80485937e-01
-5.31629687e-08,1.80514063e-01
-5.31229687e-08,1.80487500e-01
-5.30829687e-08,1.80510937e-01
-5.30429687e-08,1.80489063e-01
-5.30029687e-08,1.80510937e-01
-5.29629687e-08,1.80490625e-01
-5.29229687e-08,1.80509375e-01
-5.28829687e-08,1.80490625e-01
-5.28429687e-08,1.80509375e-01
-5.28029687e-08,1.80490625e-01
-5.27629687e-08,1.80509375e-01
-5.27229687e-08,1.80490625e-01
-5.26829687e-08,1.80509375e-01
-5.26429687e-08,1.80490625e-01
-5.26029687e-08,1.80509375e-01
-5.25629687e-08,1.80490625e-01
-5.25229687e-08,1.80509375e-01
-5.24829687e-08,1.80489063e-01
-5.24429687e-08,1.80510937e-01
-5.24029687e-08,1.80487500e-01
-5.23629687e-08,1.80512500e-01
-5.23229687e-08,1.80485937e-01
-5.22829687e-08,1.80515625e-01
-5.22429687e-08,1.80481250e-01
-5.22029688e-08,1.80523437e-01
-5.21629687e-08,1.80467188e-01
-5.21229687e-08,1.80557812e-01
-5.20829687e-08,1.80289063e-01
-5.20429687e-08,1.80048438e-01
-5.20029687e-08,1.80128125e-01
-5.19629687e-08,1.80081250e-01
-5.19229687e-08,1.80114063e-01
-5.18829687e-08,1.80089063e-01
-5.18429687e-08,1.80109375e-01
-5.18029687e-08,1.80092188e-01
-5.17629687e-08,1.80107813e-01
-5.17229687e-08,1.80093750e-01
-5.16829687e-08,1.80106250e-01
-5.16429687e-08,1.80093750e-01
-5.16029687e-08,1.80106250e-01
-5.15629687e-08,1.80092188e-01
-5.15229687e-08,1.80107813e-01
-5.14829687e-08,1.80090625e-01
-5.14429687e-08,1.80110938e-01
-5.14029687e-08,1.80085938e-01
-5.13629687e-08,1.80118750e-01
-5.13229687e-08,1.80071875e-01
-5.12829687e-08,1.80153125e-01
-5.12429687e-08,1.79893750e-01
-5.12029687e-08,1.79643750e-01
-5.11629687e-08,1.79732813e-01
-5.11229687e-08,1.79676562e-01
-5.10829687e-08,1.79718750e-01
-5.10429687e-08,1.79684375e-01
-5.10029687e-08,1.79714062e-01
-5.09629687e-08,1.79687500e-01
-5.09229687e-08,1.79712500e-01
-5.08829687e-08,1.79689062e-01
-5.08429687e-08,1.79710938e-01
-5.08029687e-08,1.79689062e-01
-5.07629687e-08,1.79710938e-01
-5.07229687e-08,1.79689062e-01
-5.06829687e-08,1.79710938e-01
-5.06429687e-08,1.79689062e-01
-5.06029687e-08,1.79710938e-01
-5.05629687e-08,1.79689062e-01
-5.05229687e-08,1.79710938e-01
-5.04829687e-08,1.79689062e-01
-5.04429687e-08,1.79710938e-01
-5.04029687e-08,1.79687500e-01
-5.03629687e-08,1.79712500e-01
-5.03229687e-08,1.79685938e-01
-5.02829688e-08,1.79715625e-01
-5.02429687e-08,1.79682813e-01
-5.02029687e-08,1.79720313e-01
-5.01629687e-08,1.79675000e-01
-5.01229687e-08,1.79734375e-01
-5.00829687e-08,1.79640625e-01
-5.00429687e-08,1.79912500e-01
-5.00029688e-08,1.80150000e-01
-4.99629687e-08,1.80075000e-01
-4.99229687e-08,1.80115625e-01
-4.98829687e-08,1.80089063e-01
-4.98429687e-08,1.80107813e-01
-4.98029687e-08,1.80093750e-01
-4.97629687e-08,1.80104687e-01
-4.97229687e-08,1.80096875e-01
-4.96829687e-08,1.80103125e-01
-4.96429687e-08,1.80098438e-01
-4.96029687e-08,1.80101563e-01
-4.95629687e-08,1.80098438e-01
-4.95229687e-08,1.80100000e-01
-4.94829687e-08,1.80100000e-01
-4.94429687e-08,1.80100000e-01
-4.94029687e-08,1.80100000e-01
-4.93629687e-08,1.80100000e-01
-4.93229687e-08,1.80101563e-01
-4.92829687e-08,1.80098438e-01
-4.92429687e-08,1.80101563e-01
-4.92029687e-08,1.80098438e-01
-4.91629687e-08,1.80101563e-01
-4.91229687e-08,1.80098438e-01
-4.90829687e-08,1.80101563e-01
-4.90429687e-08,1.80098438e-01
-4.90029687e-08,1.80101563e-01
-4.89629687e-08,1.80096875e-01
-4.89229687e-08,1.80103125e-01
-4.88829687e-08,1.80096875e-01
-4.88429687e-08,1.80103125e-01
-4.88029687e-08,1.80096875e-01
-4.87629687e-08,1.80103125e-01
-4.87229687e-08,1.80096875e-01
-4.86829687e-08,1.80103125e-01
-4.86429688e-08,1.80096875e-01
-4.86029687e-08,1.80104687e-01
-4.85629687e-08,1.80095312e-01
-4.85229687e-08,1.80104687e-01
-4.84829687e-08,1.80095312e-01
-4.84429687e-08,1.80104687e-01
-4.84029687e-08,1.80095312e-01
-4.83629688e-08,1.80104687e-01
-4.83229687e-08,1.80093750e-01
-4.82829687e-08,1.80106250e-01
-4.82429687e-08,1.80093750e-01
-4.82029687e-08,1.80106250e-01
-4.81629687e-08,1.80092188e-01
-4.81229687e-08,1.80107813e-01
-4.80829688e-08,1.80090625e-01
-4.80429687e-08,1.80109375e-01
-4.80029687e-08,1.80089063e-01
-4.79629687e-08,1.80112500e-01
-4.79229687e-08,1.80084375e-01
-4.78829687e-08,1.80118750e-01
-4.78429687e-08,1.80076563e-01
-4.78029687e-08,1.80132813e-01
-4.77629687e-08,1.80042188e-01
-4.77229687e-08,1.80310938e-01
-4.76829687e-08,1.80550000e-01
-4.76429687e-08,1.80473438e-01
-4.76029687e-08,1.80517188e-01
-4.75629687e-08,1.80489063e-01
-4.75229687e-08,1.80507813e-01
-4.74829687e-08,1.80493750e-01
-4.74429687e-08,1.80503125e-01
-4.74029687e-08,1.80498437e-01
-4.73629687e-08,1.80500000e-01
-4.73229687e-08,1.80501563e-01
-4.72829687e-08,1.80495313e-01
-4.72429687e-08,1.80507813e-01
-4.72029687e-08,1.80487500e-01
-4.71629687e-08,1.80521875e-01
-4.71229687e-08,1.80453125e-01
-4.70829687e-08,1.80700000e-01
-4.70429687e-08,1.80962500e-01
-4.70029687e-08,1.80860938e-01
-4.69629687e-08,1.80929688e-01
-4.69229687e-08,1.80873438e-01
-4.68829687e-08,1.80925000e-01
-4.68429687e-08,1.80875000e-01
-4.68029687e-08,1.80925000e-01
-4.67629687e-08,1.80870313e-01
-4.67229688e-08,1.80937500e-01
-4.66829687e-08,1.80837500e-01
-4.66429687e-08,1.81115625e-01
-4.66029687e-08,1.81348438e-01
-4.65629687e-08,1.81275000e-01
-4.65229687e-08,1.81315625e-01
-4.64829687e-08,1.81289063e-01
-4.64429688e-08,1.81307812e-01
-4.64029687e-08,1.81293750e-01
-4.63629687e-08,1.81304688e-01
-4.63229687e-08,1.81295312e-01
-4.62829687e-08,1.81303125e-01
-4.62429687e-08,1.81296875e-01
-4.62029687e-08,1.81303125e-01
-4.61629688e-08,1.81296875e-01
-4.61229687e-08,1.81301563e-01
-4.60829687e-08,1.81298438e-01
-4.60429687e-08,1.81301563e-01
-4.60029687e-08,1.81298438e-01
-4.59629687e-08,1.81301563e-01
-4.59229687e-08,1.81300000e-01
-4.58829688e-08,1.81300000e-01
-4.58429687e-08,1.81300000e-01
-4.58029687e-08,1.81298438e-01
-4.57629687e-08,1.81301563e-01
-4.57229687e-08,1.81296875e-01
-4.56829687e-08,1.81304688e-01
-4.56429687e-08,1.81292188e-01
-4.56029687e-08,1.81312500e-01
-4.55629687e-08,1.81279688e-01
-4.55229687e-08,1.81345312e-01
-4.54829687e-08,1.81103125e-01
-4.54429687e-08,1.80834375e-01
-4.54029687e-08,1.80943750e-01
-4.53629687e-08,1.80864063e-01
-4.53229687e-08,1.80932813e-01
-4.52829687e-08,1.80867187e-01
-4.52429687e-08,1.80937500e-01
-4.52029687e-08,1.80854687e-01
-4.51629687e-08,1.80970313e-01
-4.51229687e-08,1.80678125e-01
-4.50829687e-08,1.80460938e-01
-4.50429687e-08,1.80515625e-01
-4.50029687e-08,1.80493750e-01
-4.49629687e-08,1.80500000e-01
-4.49229687e-08,1.80504688e-01
-4.48829687e-08,1.80490625e-01
-4.48429687e-08,1.80515625e-01
-4.48029688e-08,1.80473438e-01
-4.47629687e-08,1.80553125e-01
-4.47229687e-08,1.80293750e-01
-4.46829687e-08,1.80043750e-01
-4.46429687e-08,1.80131250e-01
-4.46029687e-08,1.80078125e-01
-4.45629687e-08,1.80117187e-01
-4.45229688e-08,1.80085938e-01
-4.44829687e-08,1.80110938e-01
-4.44429687e-08,1.80090625e-01
-4.44029687e-08,1.80107813e-01
-4.43629687e-08,1.80092188e-01
-4.43229687e-08,1.80106250e-01
-4.42829687e-08,1.80093750e-01
-4.42429688e-08,1.80104687e-01
-4.42029687e-08,1.80095312e-01
-4.41629687e-08,1.80104687e-01
-4.41229687e-08,1.80095312e-01
-4.40829687e-08,1.80103125e-01
-4.40429687e-08,1.80096875e-01
-4.40029687e-08,1.80103125e-01
-4.39629688e-08,1.80096875e-01
-4.39229687e-08,1.80103125e-01
-4.38829687e-08,1.80096875e-01
-4.38429687e-08,1.80103125e-01
-4.38029687e-08,1.80098438e-01
-4.37629687e-08,1.80101563e-01
-4.37229687e-08,1.80098438e-01
-4.36829688e-08,1.80101563e-01
-4.36429687e-08,1.80098438e-01
-4.36029687e-08,1.80101563e-01
-4.35629687e-08,1.80098438e-01
-4.35229687e-08,1.80101563e-01
-4.34829687e-08,1.80098438e-01
-4.34429687e-08,1.80101563e-01
-4.34029687e-08,1.80098438e-01
-4.33629687e-08,1.80101563e-01
-4.33229687e-08,1.80098438e-01
-4.32829687e-08,1.80101563e-01
-4.32429687e-08,1.80100000e-01
-4.32029687e-08,1.80100000e-01
-4.31629687e-08,1.80100000e-01
-4.31229687e-08,1.80100000e-01
-4.30829687e-08,1.80100000e-01
-4.30429687e-08,1.80100000e-01
-4.30029687e-08,1.80100000e-01
-4.29629687e-08,1.80100000e-01
-4.29229687e-08,1.80100000e-01
-4.28829688e-08,1.80100000e-01
-4.28429687e-08,1.80100000e-01
-4.28029687e-08,1.80100000e-01
-4.27629687e-08,1.80100000e-01
-4.27229687e-08,1.80100000e-01
-4.26829687e-08,1.80100000e-01
-4.26429687e-08,1.80100000e-01
-4.26029688e-08,1.80100000e-01
-4.25629687e-08,1.80100000e-01
-4.25229687e-08,1.80100000e-01
-4.24829687e-08,1.80098438e-01
-4.24429687e-08,1.80101563e-01
-4.24029687e-08,1.80098438e-01
-4.23629687e-08,1.80101563e-01
-4.23229688e-08,1.80098438e-01
-4.22829687e-08,1.80101563e-01
-4.22429687e-08,1.80096875e-01
-4.22029687e-08,1.80103125e-01
-4.21629687e-08,1.80096875e-01
-4.21229687e-08,1.80104687e-01
-4.20829687e-08,1.80095312e-01
-4.20429688e-08,1.80106250e-01
-4.20029687e-08,1.80092188e-01
-4.19629687e-08,1.80110938e-01
-4.19229687e-08,1.80084375e-01
-4.18829687e-08,1.80125000e-01
-4.18429687e-08,1.80050000e-01
-4.18029687e-08,1.80301563e-01
-4.17629688e-08,1.80560938e-01
-4.17229687e-08,1.80462500e-01
-4.16829687e-08,1.80529688e-01
-4.16429687e-08,1.80475000e-01
-4.16029687e-08,1.80525000e-01
-4.15629687e-08,1.80475000e-01
-4.15229687e-08,1.80526563e-01
-4.14829688e-08,1.80470313e-01
-4.14429687e-08,1.80539063e-01
-4.14029687e-08,1.80435938e-01
-4.13629687e-08,1.80715625e-01
-4.13229687e-08,1.80946875e-01
-4.12829687e-08,1.80878125e-01
-4.12429687e-08,1.80912500e-01
-4.12029687e-08,1.80892187e-01
-4.11629687e-08,1.80904687e-01
-4.11229687e-08,1.80898438e-01
-4.10829687e-08,1.80900000e-01
-4.10429687e-08,1.80903125e-01
-4.10029687e-08,1.80893750e-01
-4.09629688e-08,1.80909375e-01
-4.09229687e-08,1.80885938e-01
-4.08829687e-08,1.80925000e-01
-4.08429687e-08,1.80850000e-01
-4.08029687e-08,1.81103125e-01
-4.07629687e-08,1.81359375e-01
-4.07229687e-08,1.81264063e-01
-4.06829688e-08,1.81326563e-01
-4.06429687e-08,1.81278125e-01
-4.06029687e-08,1.81318750e-01
-4.05629687e-08,1.81282813e-01
-4.05229687e-08,1.81315625e-01
-4.04829687e-08,1.81285937e-01
-4.04429687e-08,1.81314063e-01
-4.04029688e-08,1.81285937e-01
-4.03629687e-08,1.81314063e-01
-4.03229687e-08,1.81285937e-01
-4.02829687e-08,1.81315625e-01
-4.02429687e-08,1.81284375e-01
-4.02029687e-08,1.81317188e-01
-4.01629687e-08,1.81279688e-01
-4.01229688e-08,1.81325000e-01
-4.00829687e-08,1.81265625e-01
-4.00429687e-08,1.81359375e-01
-4.00029687e-08,1.81089063e-01
-3.99629687e-08,1.80848438e-01
-3.99229687e-08,1.80928125e-01
-3.98829687e-08,1.80881250e-01
-3.98429688e-08,1.80914063e-01
-3.98029687e-08,1.80887500e-01
-3.97629687e-08,1.80910938e-01
-3.97229687e-08,1.80890625e-01
-3.96829687e-08,1.80909375e-01
-3.96429687e-08,1.80889063e-01
-3.96029687e-08,1.80910938e-01
-3.95629688e-08,1.80885938e-01
-3.95229687e-08,1.80918750e-01
-3.94829687e-08,1.80873438e-01
-3.94429687e-08,1.80951562e-01
-3.94029687e-08,1.80695313e-01
-3.93629687e-08,1.80440625e-01
-3.93229687e-08,1.80535938e-01
-3.92829688e-08,1.80471875e-01
-3.92429687e-08,1.80523437e-01
-3.92029687e-08,1.80478125e-01
-3.91629687e-08,1.80521875e-01
-3.91229687e-08,1.80476562e-01
-3.90829687e-08,1.80528125e-01
-3.90429688e-08,1.80464062e-01
-3.90029687e-08,1.80560938e-01
-3.89629687e-08,1.80287500e-01
-3.89229687e-08,1.80050000e-01
-3.88829687e-08,1.80128125e-01
-3.88429687e-08,1.80081250e-01
-3.88029687e-08,1.80114063e-01
-3.87629688e-08,1.80087500e-01
-3.87229687e-08,1.80112500e-01
-3.86829687e-08,1.80087500e-01
-3.86429687e-08,1.80112500e-01
-3.86029687e-08,1.80084375e-01
-3.85629687e-08,1.80120313e-01
-3.85229687e-08,1.80071875e-01
