trails/0bdfa5e45fec98341abdd20552c140b4/aes_ch1_20250507122738682.csv

Model,MSO66B
Label,
Waveform Type,ANALOG
Horizontal Units,s
Sample Interval,4.00000000e-11
Record Length,10000
Zero Index,1599.08203125
Vertical Units,A
ANALOG_Thumbnail,
yOffset,1.84500000e-01
yPosition,8.40000000e-01

Labels,
TIME,CH1
-6.39632812e-08,2.00089062e-01
-6.39232812e-08,2.00109375e-01
-6.38832812e-08,2.00092188e-01
-6.38432812e-08,2.00106250e-01
-6.38032812e-08,2.00093750e-01
-6.37632813e-08,2.00104688e-01
-6.37232812e-08,2.00095313e-01
-6.36832812e-08,2.00104688e-01
-6.36432812e-08,2.00096875e-01
-6.36032812e-08,2.00103125e-01
-6.35632812e-08,2.00096875e-01
-6.35232812e-08,2.00103125e-01
-6.34832813e-08,2.00096875e-01
-6.34432812e-08,2.00101562e-01
-6.34032812e-08,2.00098438e-01
-6.33632812e-08,2.00101562e-01
-6.33232812e-08,2.00098438e-01
-6.32832812e-08,2.00101562e-01
-6.32432812e-08,2.00098438e-01
-6.32032813e-08,2.00101562e-01
-6.31632812e-08,2.00098438e-01
-6.31232812e-08,2.00101562e-01
-6.30832812e-08,2.00098438e-01
-6.30432812e-08,2.00100000e-01
-6.30032812e-08,2.00100000e-01
-6.29632812e-08,2.00100000e-01
-6.29232813e-08,2.00100000e-01
-6.28832812e-08,2.00100000e-01
-6.28432812e-08,2.00100000e-01
-6.28032812e-08,2.00100000e-01
-6.27632812e-08,2.00100000e-01
-6.27232812e-08,2.00100000e-01
-6.26832812e-08,2.00100000e-01
-6.26432813e-08,2.00100000e-01
-6.26032812e-08,2.00100000e-01
-6.25632812e-08,2.00100000e-01
-6.25232812e-08,2.00100000e-01
-6.24832812e-08,2.00100000e-01
-6.24432812e-08,2.00100000e-01
-6.24032812e-08,2.00100000e-01
-6.23632813e-08,2.00100000e-01
-6.23232812e-08,2.00100000e-01
-6.22832812e-08,2.00100000e-01
-6.22432812e-08,2.00100000e-01
-6.22032812e-08,2.00100000e-01
-6.21632812e-08,2.00100000e-01
-6.21232812e-08,2.00100000e-01
-6.20832813e-08,2.00100000e-01
-6.20432812e-08,2.00100000e-01
-6.20032812e-08,2.00100000e-01
-6.19632812e-08,2.00101562e-01
-6.19232812e-08,2.00098438e-01
-6.18832813e-08,2.00101562e-01
-6.18432812e-08,2.00098438e-01
-6.18032813e-08,2.00101562e-01
-6.17632812e-08,2.00098438e-01
-6.17232812e-08,2.00101562e-01
-6.16832812e-08,2.00098438e-01
-6.16432812e-08,2.00101562e-01
-6.16032813e-08,2.00098438e-01
-6.15632812e-08,2.00101562e-01
-6.15232813e-08,2.00098438e-01
-6.14832812e-08,2.00101562e-01
-6.14432812e-08,2.00098438e-01
-6.14032812e-08,2.00101562e-01
-6.13632812e-08,2.00098438e-01
-6.13232813e-08,2.00101562e-01
-6.12832812e-08,2.00098438e-01
-6.12432813e-08,2.00101562e-01
-6.12032812e-08,2.00098438e-01
-6.11632812e-08,2.00101562e-01
-6.11232812e-08,2.00098438e-01
-6.10832812e-08,2.00101562e-01
-6.10432813e-08,2.00098438e-01
-6.10032812e-08,2.00101562e-01
-6.09632813e-08,2.00098438e-01
-6.09232812e-08,2.00101562e-01
-6.08832812e-08,2.00098438e-01
-6.08432812e-08,2.00101562e-01
-6.08032812e-08,2.00098438e-01
-6.07632813e-08,2.00101562e-01
-6.07232812e-08,2.00098438e-01
-6.06832813e-08,2.00101562e-01
-6.06432812e-08,2.00098438e-01
-6.06032812e-08,2.00101562e-01
-6.05632812e-08,2.00098438e-01
-6.05232812e-08,2.00101562e-01
-6.04832813e-08,2.00098438e-01
-6.04432812e-08,2.00101562e-01
-6.04032813e-08,2.00098438e-01
-6.03632812e-08,2.00101562e-01
-6.03232812e-08,2.00098438e-01
-6.02832812e-08,2.00103125e-01
-6.02432812e-08,2.00096875e-01
-6.02032813e-08,2.00103125e-01
-6.01632812e-08,2.00096875e-01
-6.01232813e-08,2.00103125e-01
-6.00832812e-08,2.00096875e-01
-6.00432812e-08,2.00103125e-01
-6.00032812e-08,2.00096875e-01
-5.99632812e-08,2.00103125e-01
-5.99232813e-08,2.00096875e-01
-5.98832812e-08,2.00103125e-01
-5.98432812e-08,2.00096875e-01
-5.98032812e-08,2.00103125e-01
-5.97632812e-08,2.00096875e-01
-5.97232812e-08,2.00103125e-01
-5.96832812e-08,2.00096875e-01
-5.96432813e-08,2.00103125e-01
-5.96032812e-08,2.00096875e-01
-5.95632812e-08,2.00103125e-01
-5.95232812e-08,2.00096875e-01
-5.94832812e-08,2.00104688e-01
-5.94432812e-08,2.00095313e-01
-5.94032812e-08,2.00104688e-01
-5.93632812e-08,2.00095313e-01
-5.93232812e-08,2.00104688e-01
-5.92832812e-08,2.00095313e-01
-5.92432812e-08,2.00104688e-01
-5.92032812e-08,2.00095313e-01
-5.91632812e-08,2.00106250e-01
-5.91232812e-08,2.00093750e-01
-5.90832812e-08,2.00106250e-01
-5.90432812e-08,2.00093750e-01
-5.90032812e-08,2.00106250e-01
-5.89632812e-08,2.00092188e-01
-5.89232812e-08,2.00107813e-01
-5.88832812e-08,2.00090625e-01
-5.88432812e-08,2.00109375e-01
-5.88032812e-08,2.00089062e-01
-5.87632812e-08,2.00112500e-01
-5.87232812e-08,2.00085938e-01
-5.86832812e-08,2.00117188e-01
-5.86432812e-08,2.00078125e-01
-5.86032812e-08,2.00132813e-01
-5.85632812e-08,2.00042187e-01
-5.85232812e-08,2.00310938e-01
-5.84832812e-08,2.00551563e-01
-5.84432812e-08,2.00471875e-01
-5.84032812e-08,2.00518750e-01
-5.83632812e-08,2.00485938e-01
-5.83232812e-08,2.00510938e-01
-5.82832812e-08,2.00492188e-01
-5.82432812e-08,2.00506250e-01
-5.82032812e-08,2.00493750e-01
-5.81632812e-08,2.00504688e-01
-5.81232812e-08,2.00495313e-01
-5.80832812e-08,2.00503125e-01
-5.80432812e-08,2.00496875e-01
-5.80032812e-08,2.00503125e-01
-5.79632812e-08,2.00498438e-01
-5.79232812e-08,2.00501563e-01
-5.78832812e-08,2.00498438e-01
-5.78432812e-08,2.00501563e-01
-5.78032812e-08,2.00498438e-01
-5.77632812e-08,2.00501563e-01
-5.77232812e-08,2.00498438e-01
-5.76832812e-08,2.00500000e-01
-5.76432812e-08,2.00500000e-01
-5.76032812e-08,2.00500000e-01
-5.75632812e-08,2.00500000e-01
-5.75232812e-08,2.00500000e-01
-5.74832812e-08,2.00500000e-01
-5.74432812e-08,2.00500000e-01
-5.74032812e-08,2.00500000e-01
-5.73632812e-08,2.00500000e-01
-5.73232812e-08,2.00500000e-01
-5.72832812e-08,2.00500000e-01
-5.72432812e-08,2.00500000e-01
-5.72032812e-08,2.00500000e-01
-5.71632812e-08,2.00501563e-01
-5.71232812e-08,2.00498438e-01
-5.70832812e-08,2.00501563e-01
-5.70432812e-08,2.00498438e-01
-5.70032812e-08,2.00501563e-01
-5.69632812e-08,2.00498438e-01
-5.69232812e-08,2.00501563e-01
-5.68832812e-08,2.00498438e-01
-5.68432812e-08,2.00501563e-01
-5.68032812e-08,2.00498438e-01
-5.67632812e-08,2.00501563e-01
-5.67232812e-08,2.00498438e-01
-5.66832812e-08,2.00501563e-01
-5.66432812e-08,2.00498438e-01
-5.66032812e-08,2.00501563e-01
-5.65632812e-08,2.00498438e-01
-5.65232812e-08,2.00501563e-01
-5.64832812e-08,2.00498438e-01
-5.64432812e-08,2.00501563e-01
-5.64032812e-08,2.00498438e-01
-5.63632812e-08,2.00501563e-01
-5.63232812e-08,2.00498438e-01
-5.62832812e-08,2.00503125e-01
-5.62432812e-08,2.00496875e-01
-5.62032812e-08,2.00503125e-01
-5.61632812e-08,2.00496875e-01
-5.61232812e-08,2.00503125e-01
-5.60832812e-08,2.00496875e-01
-5.60432812e-08,2.00503125e-01
-5.60032812e-08,2.00496875e-01
-5.59632812e-08,2.00503125e-01
-5.59232812e-08,2.00496875e-01
-5.58832812e-08,2.00503125e-01
-5.58432812e-08,2.00496875e-01
-5.58032812e-08,2.00503125e-01
-5.57632812e-08,2.00496875e-01
-5.57232812e-08,2.00503125e-01
-5.56832812e-08,2.00496875e-01
-5.56432812e-08,2.00503125e-01
-5.56032812e-08,2.00496875e-01
-5.55632812e-08,2.00503125e-01
-5.55232812e-08,2.00496875e-01
-5.54832812e-08,2.00504688e-01
-5.54432812e-08,2.00495313e-01
-5.54032812e-08,2.00504688e-01
-5.53632812e-08,2.00495313e-01
-5.53232812e-08,2.00504688e-01
-5.52832812e-08,2.00495313e-01
-5.52432812e-08,2.00504688e-01
-5.52032812e-08,2.00495313e-01
-5.51632812e-08,2.00504688e-01
-5.51232812e-08,2.00495313e-01
-5.50832812e-08,2.00504688e-01
-5.50432812e-08,2.00495313e-01
-5.50032812e-08,2.00504688e-01
-5.49632812e-08,2.00493750e-01
-5.49232812e-08,2.00506250e-01
-5.48832812e-08,2.00493750e-01
-5.48432812e-08,2.00506250e-01
-5.48032812e-08,2.00493750e-01
-5.47632812e-08,2.00506250e-01
-5.47232812e-08,2.00493750e-01
-5.46832812e-08,2.00506250e-01
-5.46432812e-08,2.00492188e-01
-5.46032812e-08,2.00507812e-01
-5.45632812e-08,2.00492188e-01
-5.45232812e-08,2.00507812e-01
-5.44832812e-08,2.00492188e-01
-5.44432812e-08,2.00509375e-01
-5.44032812e-08,2.00490625e-01
-5.43632812e-08,2.00509375e-01
-5.43232812e-08,2.00489063e-01
-5.42832812e-08,2.00510938e-01
-5.42432812e-08,2.00487500e-01
-5.42032812e-08,2.00512500e-01
-5.41632812e-08,2.00485938e-01
-5.41232812e-08,2.00515625e-01
-5.40832812e-08,2.00481250e-01
-5.40432812e-08,2.00521875e-01
-5.40032812e-08,2.00473438e-01
-5.39632812e-08,2.00537500e-01
-5.39232812e-08,2.00437500e-01
-5.38832812e-08,2.00715625e-01
-5.38432812e-08,2.00946875e-01
-5.38032812e-08,2.00878125e-01
-5.37632812e-08,2.00912500e-01
-5.37232812e-08,2.00892188e-01
-5.36832812e-08,2.00903125e-01
-5.36432812e-08,2.00898437e-01
-5.36032812e-08,2.00900000e-01
-5.35632812e-08,2.00903125e-01
-5.35232812e-08,2.00895313e-01
-5.34832812e-08,2.00906250e-01
-5.34432812e-08,2.00892188e-01
-5.34032812e-08,2.00909375e-01
-5.33632812e-08,2.00887500e-01
-5.33232812e-08,2.00915625e-01
-5.32832812e-08,2.00878125e-01
-5.32432812e-08,2.00931250e-01
-5.32032812e-08,2.00843750e-01
-5.31632812e-08,2.01110938e-01
-5.31232812e-08,2.01351562e-01
-5.30832812e-08,2.01273438e-01
-5.30432812e-08,2.01317187e-01
-5.30032812e-08,2.01287500e-01
-5.29632812e-08,2.01307813e-01
-5.29232812e-08,2.01293750e-01
-5.28832812e-08,2.01304687e-01
-5.28432812e-08,2.01296875e-01
-5.28032812e-08,2.01301563e-01
-5.27632812e-08,2.01300000e-01
-5.27232812e-08,2.01298438e-01
-5.26832812e-08,2.01303125e-01
-5.26432812e-08,2.01295313e-01
-5.26032812e-08,2.01306250e-01
-5.25632813e-08,2.01292187e-01
-5.25232812e-08,2.01310938e-01
-5.24832812e-08,2.01285938e-01
-5.24432812e-08,2.01318750e-01
-5.24032812e-08,2.01270312e-01
-5.23632812e-08,2.01354688e-01
-5.23232812e-08,2.01092188e-01
-5.22832812e-08,2.00846875e-01
-5.22432812e-08,2.00929688e-01
-5.22032812e-08,2.00879688e-01
-5.21632812e-08,2.00914063e-01
-5.21232812e-08,2.00889062e-01
-5.20832812e-08,2.00909375e-01
-5.20432812e-08,2.00893750e-01
-5.20032812e-08,2.00904688e-01
-5.19632812e-08,2.00895313e-01
-5.19232812e-08,2.00903125e-01
-5.18832812e-08,2.00898437e-01
-5.18432812e-08,2.00900000e-01
-5.18032812e-08,2.00900000e-01
-5.17632812e-08,2.00898437e-01
-5.17232812e-08,2.00903125e-01
-5.16832812e-08,2.00895313e-01
-5.16432812e-08,2.00906250e-01
-5.16032812e-08,2.00892188e-01
-5.15632812e-08,2.00909375e-01
-5.15232812e-08,2.00887500e-01
-5.14832812e-08,2.00918750e-01
-5.14432812e-08,2.00871875e-01
-5.14032812e-08,2.00953125e-01
-5.13632812e-08,2.00692188e-01
-5.13232812e-08,2.00445313e-01
-5.12832812e-08,2.00529687e-01
-5.12432812e-08,2.00479688e-01
-5.12032812e-08,2.00515625e-01
-5.11632812e-08,2.00487500e-01
-5.11232812e-08,2.00509375e-01
-5.10832812e-08,2.00492188e-01
-5.10432812e-08,2.00506250e-01
-5.10032812e-08,2.00495313e-01
-5.09632812e-08,2.00503125e-01
-5.09232812e-08,2.00498438e-01
-5.08832812e-08,2.00500000e-01
-5.08432812e-08,2.00501563e-01
-5.08032812e-08,2.00496875e-01
-5.07632812e-08,2.00506250e-01
-5.07232812e-08,2.00490625e-01
-5.06832812e-08,2.00514063e-01
-5.06432813e-08,2.00475000e-01
-5.06032812e-08,2.00550000e-01
-5.05632812e-08,2.00296875e-01
-5.05232812e-08,2.00040625e-01
-5.04832812e-08,2.00134375e-01
-5.04432812e-08,2.00075000e-01
-5.04032812e-08,2.00120313e-01
-5.03632813e-08,2.00082813e-01
-5.03232812e-08,2.00114063e-01
-5.02832812e-08,2.00087500e-01
-5.02432812e-08,2.00110938e-01
-5.02032812e-08,2.00089062e-01
-5.01632812e-08,2.00109375e-01
-5.01232812e-08,2.00090625e-01
-5.00832812e-08,2.00107813e-01
-5.00432812e-08,2.00092188e-01
-5.00032812e-08,2.00107813e-01
-4.99632812e-08,2.00093750e-01
-4.99232812e-08,2.00106250e-01
-4.98832812e-08,2.00093750e-01
-4.98432812e-08,2.00106250e-01
-4.98032812e-08,2.00095313e-01
-4.97632812e-08,2.00104688e-01
-4.97232812e-08,2.00095313e-01
-4.96832812e-08,2.00104688e-01
-4.96432812e-08,2.00095313e-01
-4.96032812e-08,2.00104688e-01
-4.95632812e-08,2.00096875e-01
-4.95232812e-08,2.00103125e-01
-4.94832812e-08,2.00096875e-01
-4.94432812e-08,2.00103125e-01
-4.94032812e-08,2.00096875e-01
-4.93632812e-08,2.00103125e-01
-4.93232812e-08,2.00098438e-01
-4.92832812e-08,2.00101562e-01
-4.92432812e-08,2.00098438e-01
-4.92032812e-08,2.00101562e-01
-4.91632812e-08,2.00098438e-01
-4.91232812e-08,2.00101562e-01
-4.90832812e-08,2.00100000e-01
-4.90432812e-08,2.00100000e-01
-4.90032812e-08,2.00100000e-01
-4.89632812e-08,2.00100000e-01
-4.89232812e-08,2.00101562e-01
-4.88832812e-08,2.00098438e-01
-4.88432812e-08,2.00101562e-01
-4.88032812e-08,2.00096875e-01
-4.87632812e-08,2.00104688e-01
-4.87232813e-08,2.00095313e-01
-4.86832812e-08,2.00106250e-01
-4.86432812e-08,2.00090625e-01
-4.86032812e-08,2.00112500e-01
-4.85632812e-08,2.00082813e-01
-4.85232812e-08,2.00126562e-01
-4.84832812e-08,2.00048438e-01
-4.84432813e-08,2.00304688e-01
-4.84032812e-08,2.00557813e-01
-4.83632812e-08,2.00467188e-01
-4.83232812e-08,2.00523438e-01
-4.82832812e-08,2.00481250e-01
-4.82432812e-08,2.00515625e-01
-4.82032812e-08,2.00485938e-01
-4.81632813e-08,2.00512500e-01
-4.81232812e-08,2.00489063e-01
-4.80832812e-08,2.00509375e-01
-4.80432812e-08,2.00490625e-01
-4.80032812e-08,2.00509375e-01
-4.79632812e-08,2.00492188e-01
-4.79232812e-08,2.00507812e-01
-4.78832812e-08,2.00492188e-01
-4.78432812e-08,2.00506250e-01
-4.78032812e-08,2.00493750e-01
-4.77632812e-08,2.00506250e-01
-4.77232812e-08,2.00493750e-01
-4.76832812e-08,2.00506250e-01
-4.76432812e-08,2.00493750e-01
-4.76032812e-08,2.00504688e-01
-4.75632812e-08,2.00495313e-01
-4.75232812e-08,2.00504688e-01
-4.74832812e-08,2.00495313e-01
-4.74432812e-08,2.00504688e-01
-4.74032812e-08,2.00495313e-01
-4.73632812e-08,2.00504688e-01
-4.73232812e-08,2.00495313e-01
-4.72832812e-08,2.00504688e-01
-4.72432812e-08,2.00495313e-01
-4.72032812e-08,2.00504688e-01
-4.71632812e-08,2.00495313e-01
-4.71232812e-08,2.00504688e-01
-4.70832812e-08,2.00495313e-01
-4.70432812e-08,2.00504688e-01
-4.70032812e-08,2.00495313e-01
-4.69632812e-08,2.00503125e-01
-4.69232812e-08,2.00495313e-01
-4.68832812e-08,2.00503125e-01
-4.68432812e-08,2.00496875e-01
-4.68032813e-08,2.00503125e-01
-4.67632812e-08,2.00496875e-01
-4.67232812e-08,2.00503125e-01
-4.66832812e-08,2.00496875e-01
-4.66432812e-08,2.00503125e-01
-4.66032812e-08,2.00496875e-01
-4.65632812e-08,2.00504688e-01
-4.65232813e-08,2.00495313e-01
-4.64832812e-08,2.00504688e-01
-4.64432812e-08,2.00495313e-01
-4.64032812e-08,2.00504688e-01
-4.63632812e-08,2.00495313e-01
-4.63232812e-08,2.00504688e-01
-4.62832812e-08,2.00493750e-01
-4.62432813e-08,2.00506250e-01
-4.62032812e-08,2.00492188e-01
-4.61632812e-08,2.00509375e-01
-4.61232812e-08,2.00487500e-01
-4.60832812e-08,2.00517187e-01
-4.60432812e-08,2.00473438e-01
-4.60032812e-08,2.00550000e-01
-4.59632813e-08,2.00296875e-01
-4.59232812e-08,2.00039063e-01
-4.58832812e-08,2.00137500e-01
-4.58432812e-08,2.00070313e-01
-4.58032812e-08,2.00125000e-01
-4.57632812e-08,2.00075000e-01
-4.57232812e-08,2.00125000e-01
-4.56832812e-08,2.00073438e-01
-4.56432812e-08,2.00131250e-01
-4.56032812e-08,2.00059375e-01
-4.55632812e-08,2.00165625e-01
-4.55232812e-08,1.99879688e-01
-4.54832812e-08,1.99657813e-01
-4.54432812e-08,1.99717188e-01
-4.54032812e-08,1.99695312e-01
-4.53632812e-08,1.99696875e-01
-4.53232812e-08,1.99710938e-01
-4.52832812e-08,1.99676563e-01
-4.52432812e-08,1.99750000e-01
-4.52032812e-08,1.99495313e-01
-4.51632812e-08,1.99243750e-01
-4.51232812e-08,1.99331250e-01
-4.50832812e-08,1.99279687e-01
-4.50432812e-08,1.99310938e-01
-4.50032812e-08,1.99296875e-01
-4.49632812e-08,1.99292187e-01
-4.49232812e-08,1.99334375e-01
-4.48832813e-08,1.99112500e-01
-4.48432812e-08,1.98825000e-01
-4.48032812e-08,1.98951563e-01
-4.47632812e-08,1.98857813e-01
-4.47232812e-08,1.98939063e-01
-4.46832812e-08,1.98860938e-01
-4.46432812e-08,1.98942188e-01
-4.46032813e-08,1.98850000e-01
-4.45632812e-08,1.98973438e-01
-4.45232812e-08,1.98675000e-01
-4.44832812e-08,1.98462500e-01
-4.44432812e-08,1.98514063e-01
-4.44032812e-08,1.98495313e-01
-4.43632812e-08,1.98500000e-01
-4.43232813e-08,1.98501563e-01
-4.42832812e-08,1.98495313e-01
-4.42432812e-08,1.98506250e-01
-4.42032812e-08,1.98493750e-01
-4.41632812e-08,1.98507813e-01
-4.41232812e-08,1.98490625e-01
-4.40832812e-08,1.98509375e-01
-4.40432813e-08,1.98489063e-01
-4.40032812e-08,1.98512500e-01
-4.39632812e-08,1.98485938e-01
-4.39232812e-08,1.98515625e-01
-4.38832812e-08,1.98482812e-01
-4.38432812e-08,1.98521875e-01
-4.38032812e-08,1.98473438e-01
-4.37632812e-08,1.98537500e-01
-4.37232812e-08,1.98437500e-01
-4.36832812e-08,1.98715625e-01
-4.36432812e-08,1.98945312e-01
-4.36032812e-08,1.98879688e-01
-4.35632812e-08,1.98907813e-01
-4.35232812e-08,1.98900000e-01
-4.34832812e-08,1.98892188e-01
-4.34432812e-08,1.98918750e-01
-4.34032812e-08,1.98856250e-01
-4.33632812e-08,1.99098438e-01
-4.33232812e-08,1.99364062e-01
-4.32832812e-08,1.99259375e-01
-4.32432812e-08,1.99334375e-01
-4.32032812e-08,1.99267187e-01
-4.31632812e-08,1.99337500e-01
-4.31232812e-08,1.99242188e-01
-4.30832812e-08,1.99507812e-01
-4.30432812e-08,1.99759375e-01
-4.30032812e-08,1.99657813e-01
-4.29632813e-08,1.99743750e-01
-4.29232812e-08,1.99634375e-01
-4.28832812e-08,1.99917188e-01
-4.28432812e-08,2.00145313e-01
-4.28032812e-08,2.00079688e-01
-4.27632812e-08,2.00106250e-01
-4.27232812e-08,2.00106250e-01
-4.26832813e-08,2.00067188e-01
-4.26432812e-08,2.00287500e-01
-4.26032812e-08,2.00576562e-01
-4.25632812e-08,2.00446875e-01
-4.25232812e-08,2.00546875e-01
-4.24832812e-08,2.00453125e-01
-4.24432812e-08,2.00553125e-01
-4.24032813e-08,2.00425000e-01
-4.23632812e-08,2.00726563e-01
-4.23232812e-08,2.00935937e-01
-4.22832812e-08,2.00887500e-01
-4.22432812e-08,2.00904688e-01
-4.22032812e-08,2.00900000e-01
-4.21632812e-08,2.00896875e-01
-4.21232813e-08,2.00906250e-01
-4.20832812e-08,2.00892188e-01
-4.20432812e-08,2.00910937e-01
-4.20032812e-08,2.00887500e-01
-4.19632812e-08,2.00917188e-01
-4.19232812e-08,2.00878125e-01
-4.18832812e-08,2.00931250e-01
-4.18432813e-08,2.00843750e-01
-4.18032812e-08,2.01109375e-01
-4.17632812e-08,2.01351562e-01
-4.17232812e-08,2.01271875e-01
-4.16832812e-08,2.01318750e-01
-4.16432812e-08,2.01285938e-01
-4.16032812e-08,2.01310938e-01
-4.15632812e-08,2.01292187e-01
-4.15232812e-08,2.01306250e-01
-4.14832812e-08,2.01295313e-01
-4.14432812e-08,2.01304687e-01
-4.14032812e-08,2.01296875e-01
-4.13632812e-08,2.01303125e-01
-4.13232812e-08,2.01296875e-01
-4.12832812e-08,2.01301563e-01
-4.12432812e-08,2.01298438e-01
-4.12032812e-08,2.01301563e-01
-4.11632812e-08,2.01298438e-01
-4.11232812e-08,2.01300000e-01
-4.10832812e-08,2.01300000e-01
-4.10432813e-08,2.01300000e-01
-4.10032812e-08,2.01300000e-01
-4.09632812e-08,2.01298438e-01
-4.09232812e-08,2.01301563e-01
-4.08832812e-08,2.01298438e-01
-4.08432812e-08,2.01301563e-01
-4.08032812e-08,2.01296875e-01
-4.07632813e-08,2.01303125e-01
-4.07232812e-08,2.01295313e-01
-4.06832812e-08,2.01304687e-01
-4.06432812e-08,2.01293750e-01
-4.06032812e-08,2.01307813e-01
-4.05632812e-08,2.01290625e-01
-4.05232812e-08,2.01312500e-01
-4.04832813e-08,2.01282813e-01
-4.04432812e-08,2.01326563e-01
-4.04032812e-08,2.01248438e-01
-4.03632812e-08,2.01504688e-01
-4.03232812e-08,2.01757813e-01
-4.02832812e-08,2.01665625e-01
-4.02432812e-08,2.01726563e-01
-4.02032813e-08,2.01678125e-01
-4.01632812e-08,2.01720312e-01
-4.01232812e-08,2.01679688e-01
-4.00832812e-08,2.01721875e-01
-4.00432812e-08,2.01675000e-01
-4.00032812e-08,2.01732812e-01
-3.99632812e-08,2.01642188e-01
-3.99232813e-08,2.01909375e-01
-3.98832812e-08,2.02154688e-01
-3.98432812e-08,2.02068750e-01
-3.98032812e-08,2.02123438e-01
-3.97632812e-08,2.02079687e-01
-3.97232812e-08,2.02118750e-01
-3.96832812e-08,2.02081250e-01
-3.96432813e-08,2.02120313e-01
-3.96032812e-08,2.02075000e-01
-3.95632812e-08,2.02132813e-01
-3.95232812e-08,2.02042187e-01
-3.94832812e-08,2.02310938e-01
-3.94432812e-08,2.02551563e-01
-3.94032813e-08,2.02471875e-01
-3.93632812e-08,2.02518750e-01
-3.93232812e-08,2.02485938e-01
-3.92832812e-08,2.02510938e-01
-3.92432812e-08,2.02490625e-01
-3.92032812e-08,2.02507812e-01
-3.91632812e-08,2.02492188e-01
-3.91232813e-08,2.02506250e-01
-3.90832812e-08,2.02493750e-01
-3.90432812e-08,2.02506250e-01
-3.90032812e-08,2.02495312e-01
-3.89632812e-08,2.02504688e-01
-3.89232812e-08,2.02495312e-01
-3.88832812e-08,2.02504688e-01
-3.88432813e-08,2.02495312e-01
-3.88032812e-08,2.02504688e-01
-3.87632812e-08,2.02496875e-01
-3.87232812e-08,2.02503125e-01
-3.86832812e-08,2.02496875e-01
-3.86432812e-08,2.02503125e-01
-3.86032812e-08,2.02496875e-01
-3.85632813e-08,2.02503125e-01
-3.85232812e-08,2.02496875e-01
