trails/0bdfa5e45fec98341abdd20552c140b4/aes_ch1_20250507115233376.csv

Model,MSO66B
Label,
Waveform Type,ANALOG
Horizontal Units,s
Sample Interval,4.00000000e-11
Record Length,10000
Zero Index,1599.05078125
Vertical Units,A
ANALOG_Thumbnail,
yOffset,1.84500000e-01
yPosition,8.40000000e-01

Labels,
TIME,CH1
-6.39620312e-08,1.85723438e-01
-6.39220313e-08,1.85671875e-01
-6.38820312e-08,1.85739062e-01
-6.38420312e-08,1.85635938e-01
-6.38020312e-08,1.85917187e-01
-6.37620312e-08,1.86145312e-01
-6.37220313e-08,1.86079688e-01
-6.36820312e-08,1.86109375e-01
-6.36420313e-08,1.86095312e-01
-6.36020312e-08,1.86100000e-01
-6.35620312e-08,1.86104688e-01
-6.35220312e-08,1.86090625e-01
-6.34820312e-08,1.86115625e-01
-6.34420313e-08,1.86075000e-01
-6.34020312e-08,1.86150000e-01
-6.33620313e-08,1.85895313e-01
-6.33220312e-08,1.85642187e-01
-6.32820312e-08,1.85734375e-01
-6.32420312e-08,1.85676563e-01
-6.32020312e-08,1.85718750e-01
-6.31620313e-08,1.85684375e-01
-6.31220312e-08,1.85714062e-01
-6.30820312e-08,1.85687500e-01
-6.30420312e-08,1.85712500e-01
-6.30020312e-08,1.85689063e-01
-6.29620312e-08,1.85710938e-01
-6.29220312e-08,1.85689063e-01
-6.28820313e-08,1.85710938e-01
-6.28420312e-08,1.85687500e-01
-6.28020312e-08,1.85714062e-01
-6.27620312e-08,1.85682813e-01
-6.27220312e-08,1.85721875e-01
-6.26820312e-08,1.85670313e-01
-6.26420312e-08,1.85754688e-01
-6.26020313e-08,1.85492188e-01
-6.25620312e-08,1.85245313e-01
-6.25220312e-08,1.85331250e-01
-6.24820312e-08,1.85278125e-01
-6.24420312e-08,1.85317188e-01
-6.24020312e-08,1.85284375e-01
-6.23620312e-08,1.85314063e-01
-6.23220313e-08,1.85287500e-01
-6.22820312e-08,1.85310937e-01
-6.22420312e-08,1.85289063e-01
-6.22020312e-08,1.85310937e-01
-6.21620312e-08,1.85289063e-01
-6.21220312e-08,1.85310937e-01
-6.20820312e-08,1.85289063e-01
-6.20420313e-08,1.85310937e-01
-6.20020312e-08,1.85289063e-01
-6.19620312e-08,1.85310937e-01
-6.19220312e-08,1.85287500e-01
-6.18820312e-08,1.85312500e-01
-6.18420312e-08,1.85287500e-01
-6.18020312e-08,1.85314063e-01
-6.17620313e-08,1.85284375e-01
-6.17220312e-08,1.85317188e-01
-6.16820312e-08,1.85281250e-01
-6.16420312e-08,1.85323438e-01
-6.16020312e-08,1.85271875e-01
-6.15620312e-08,1.85337500e-01
-6.15220312e-08,1.85235938e-01
-6.14820313e-08,1.85517188e-01
-6.14420312e-08,1.85745313e-01
-6.14020312e-08,1.85679687e-01
-6.13620312e-08,1.85709375e-01
-6.13220312e-08,1.85695313e-01
-6.12820312e-08,1.85700000e-01
-6.12420312e-08,1.85703125e-01
-6.12020313e-08,1.85692187e-01
-6.11620312e-08,1.85712500e-01
-6.11220312e-08,1.85681250e-01
-6.10820312e-08,1.85729688e-01
-6.10420312e-08,1.85645312e-01
-6.10020313e-08,1.85909375e-01
-6.09620312e-08,1.86153125e-01
-6.09220313e-08,1.86071875e-01
-6.08820312e-08,1.86117188e-01
-6.08420312e-08,1.86089063e-01
-6.08020312e-08,1.86104688e-01
-6.07620312e-08,1.86100000e-01
-6.07220313e-08,1.86093750e-01
-6.06820312e-08,1.86117188e-01
-6.06420313e-08,1.86057813e-01
-6.06020312e-08,1.86296875e-01
-6.05620312e-08,1.86565625e-01
-6.05220312e-08,1.86457813e-01
-6.04820312e-08,1.86532813e-01
-6.04420313e-08,1.86471875e-01
-6.04020312e-08,1.86526562e-01
-6.03620313e-08,1.86473438e-01
-6.03220312e-08,1.86528125e-01
-6.02820312e-08,1.86468750e-01
-6.02420312e-08,1.86539063e-01
-6.02020312e-08,1.86437500e-01
-6.01620313e-08,1.86715625e-01
-6.01220312e-08,1.86946875e-01
-6.00820313e-08,1.86875000e-01
-6.00420312e-08,1.86915625e-01
-6.00020312e-08,1.86889063e-01
-5.99620312e-08,1.86909375e-01
-5.99220312e-08,1.86892188e-01
-5.98820313e-08,1.86906250e-01
-5.98420312e-08,1.86893750e-01
-5.98020313e-08,1.86904687e-01
-5.97620312e-08,1.86895313e-01
-5.97220312e-08,1.86904687e-01
-5.96820312e-08,1.86895313e-01
-5.96420312e-08,1.86904687e-01
-5.96020312e-08,1.86895313e-01
-5.95620312e-08,1.86904687e-01
-5.95220312e-08,1.86893750e-01
-5.94820312e-08,1.86906250e-01
-5.94420312e-08,1.86893750e-01
-5.94020312e-08,1.86907812e-01
-5.93620312e-08,1.86892188e-01
-5.93220312e-08,1.86909375e-01
-5.92820312e-08,1.86890625e-01
-5.92420312e-08,1.86910938e-01
-5.92020312e-08,1.86887500e-01
-5.91620312e-08,1.86914063e-01
-5.91220312e-08,1.86881250e-01
-5.90820312e-08,1.86923438e-01
-5.90420312e-08,1.86867188e-01
-5.90020312e-08,1.86957813e-01
-5.89620312e-08,1.86687500e-01
-5.89220312e-08,1.86450000e-01
-5.88820312e-08,1.86526562e-01
-5.88420312e-08,1.86484375e-01
-5.88020312e-08,1.86510938e-01
-5.87620312e-08,1.86493750e-01
-5.87220312e-08,1.86504688e-01
-5.86820312e-08,1.86498438e-01
-5.86420312e-08,1.86500000e-01
-5.86020312e-08,1.86503125e-01
-5.85620312e-08,1.86495313e-01
-5.85220312e-08,1.86507813e-01
-5.84820312e-08,1.86489062e-01
-5.84420312e-08,1.86517188e-01
-5.84020312e-08,1.86473438e-01
-5.83620312e-08,1.86553125e-01
-5.83220312e-08,1.86293750e-01
-5.82820312e-08,1.86043750e-01
-5.82420312e-08,1.86131250e-01
-5.82020312e-08,1.86078125e-01
-5.81620312e-08,1.86115625e-01
-5.81220312e-08,1.86087500e-01
-5.80820312e-08,1.86109375e-01
-5.80420312e-08,1.86093750e-01
-5.80020312e-08,1.86104688e-01
-5.79620312e-08,1.86096875e-01
-5.79220312e-08,1.86100000e-01
-5.78820312e-08,1.86103125e-01
-5.78420312e-08,1.86093750e-01
-5.78020312e-08,1.86112500e-01
-5.77620312e-08,1.86078125e-01
-5.77220312e-08,1.86146875e-01
-5.76820312e-08,1.85900000e-01
-5.76420312e-08,1.85639063e-01
-5.76020312e-08,1.85737500e-01
-5.75620312e-08,1.85673438e-01
-5.75220312e-08,1.85721875e-01
-5.74820312e-08,1.85681250e-01
-5.74420312e-08,1.85715625e-01
-5.74020312e-08,1.85685938e-01
-5.73620312e-08,1.85712500e-01
-5.73220312e-08,1.85687500e-01
-5.72820312e-08,1.85710938e-01
-5.72420312e-08,1.85689063e-01
-5.72020312e-08,1.85709375e-01
-5.71620312e-08,1.85690625e-01
-5.71220312e-08,1.85707813e-01
-5.70820312e-08,1.85692187e-01
-5.70420312e-08,1.85706250e-01
-5.70020312e-08,1.85693750e-01
-5.69620312e-08,1.85706250e-01
-5.69220312e-08,1.85695313e-01
-5.68820312e-08,1.85704688e-01
-5.68420312e-08,1.85696875e-01
-5.68020312e-08,1.85701563e-01
-5.67620312e-08,1.85700000e-01
-5.67220312e-08,1.85698438e-01
-5.66820312e-08,1.85704688e-01
-5.66420312e-08,1.85690625e-01
-5.66020312e-08,1.85718750e-01
-5.65620312e-08,1.85656250e-01
-5.65220312e-08,1.85896875e-01
-5.64820312e-08,1.86165625e-01
-5.64420312e-08,1.86057813e-01
-5.64020312e-08,1.86132812e-01
-5.63620312e-08,1.86071875e-01
-5.63220312e-08,1.86126563e-01
-5.62820312e-08,1.86075000e-01
-5.62420312e-08,1.86125000e-01
-5.62020312e-08,1.86075000e-01
-5.61620312e-08,1.86126563e-01
-5.61220312e-08,1.86068750e-01
-5.60820312e-08,1.86140625e-01
-5.60420312e-08,1.86035937e-01
-5.60020312e-08,1.86317188e-01
-5.59620312e-08,1.86546875e-01
-5.59220312e-08,1.86476562e-01
-5.58820312e-08,1.86515625e-01
-5.58420312e-08,1.86489062e-01
-5.58020312e-08,1.86509375e-01
-5.57620312e-08,1.86492188e-01
-5.57220312e-08,1.86507813e-01
-5.56820312e-08,1.86490625e-01
-5.56420312e-08,1.86510938e-01
-5.56020312e-08,1.86484375e-01
-5.55620312e-08,1.86525000e-01
-5.55220312e-08,1.86450000e-01
-5.54820312e-08,1.86703125e-01
-5.54420312e-08,1.86959375e-01
-5.54020312e-08,1.86864063e-01
-5.53620312e-08,1.86928125e-01
-5.53220312e-08,1.86876563e-01
-5.52820312e-08,1.86920313e-01
-5.52420312e-08,1.86881250e-01
-5.52020312e-08,1.86917187e-01
-5.51620312e-08,1.86884375e-01
-5.51220312e-08,1.86915625e-01
-5.50820312e-08,1.86884375e-01
-5.50420312e-08,1.86915625e-01
-5.50020312e-08,1.86884375e-01
-5.49620312e-08,1.86915625e-01
-5.49220312e-08,1.86884375e-01
-5.48820312e-08,1.86915625e-01
-5.48420312e-08,1.86884375e-01
-5.48020312e-08,1.86915625e-01
-5.47620312e-08,1.86882812e-01
-5.47220312e-08,1.86918750e-01
-5.46820312e-08,1.86879688e-01
-5.46420312e-08,1.86921875e-01
-5.46020312e-08,1.86875000e-01
-5.45620312e-08,1.86929687e-01
-5.45220312e-08,1.86860938e-01
-5.44820312e-08,1.86964063e-01
-5.44420312e-08,1.86682813e-01
-5.44020312e-08,1.86456250e-01
-5.43620312e-08,1.86520313e-01
-5.43220312e-08,1.86489062e-01
-5.42820312e-08,1.86504688e-01
-5.42420312e-08,1.86498438e-01
-5.42020312e-08,1.86498438e-01
-5.41620312e-08,1.86503125e-01
-5.41220312e-08,1.86493750e-01
-5.40820312e-08,1.86507813e-01
-5.40420312e-08,1.86487500e-01
-5.40020312e-08,1.86517188e-01
-5.39620312e-08,1.86473438e-01
-5.39220312e-08,1.86551563e-01
-5.38820312e-08,1.86295313e-01
-5.38420312e-08,1.86042188e-01
-5.38020312e-08,1.86134375e-01
-5.37620312e-08,1.86075000e-01
-5.37220312e-08,1.86121875e-01
-5.36820312e-08,1.86079688e-01
-5.36420312e-08,1.86120312e-01
-5.36020313e-08,1.86078125e-01
-5.35620312e-08,1.86125000e-01
-5.35220312e-08,1.86065625e-01
-5.34820312e-08,1.86157813e-01
-5.34420312e-08,1.85890625e-01
-5.34020312e-08,1.85646875e-01
-5.33620312e-08,1.85729688e-01
-5.33220312e-08,1.85679687e-01
-5.32820312e-08,1.85715625e-01
-5.32420312e-08,1.85687500e-01
-5.32020312e-08,1.85710938e-01
-5.31620312e-08,1.85690625e-01
-5.31220312e-08,1.85709375e-01
-5.30820312e-08,1.85690625e-01
-5.30420312e-08,1.85707813e-01
-5.30020312e-08,1.85692187e-01
-5.29620312e-08,1.85707813e-01
-5.29220312e-08,1.85692187e-01
-5.28820312e-08,1.85707813e-01
-5.28420312e-08,1.85693750e-01
-5.28020312e-08,1.85706250e-01
-5.27620312e-08,1.85693750e-01
-5.27220312e-08,1.85706250e-01
-5.26820312e-08,1.85693750e-01
-5.26420312e-08,1.85706250e-01
-5.26020312e-08,1.85693750e-01
-5.25620312e-08,1.85706250e-01
-5.25220312e-08,1.85693750e-01
-5.24820312e-08,1.85706250e-01
-5.24420312e-08,1.85693750e-01
-5.24020312e-08,1.85706250e-01
-5.23620312e-08,1.85693750e-01
-5.23220312e-08,1.85706250e-01
-5.22820312e-08,1.85693750e-01
-5.22420312e-08,1.85706250e-01
-5.22020312e-08,1.85693750e-01
-5.21620312e-08,1.85706250e-01
-5.21220312e-08,1.85692187e-01
-5.20820312e-08,1.85707813e-01
-5.20420312e-08,1.85692187e-01
-5.20020312e-08,1.85707813e-01
-5.19620312e-08,1.85692187e-01
-5.19220312e-08,1.85707813e-01
-5.18820312e-08,1.85692187e-01
-5.18420312e-08,1.85707813e-01
-5.18020312e-08,1.85692187e-01
-5.17620312e-08,1.85707813e-01
-5.17220312e-08,1.85692187e-01
-5.16820313e-08,1.85707813e-01
-5.16420312e-08,1.85692187e-01
-5.16020312e-08,1.85707813e-01
-5.15620312e-08,1.85692187e-01
-5.15220312e-08,1.85709375e-01
-5.14820312e-08,1.85690625e-01
-5.14420312e-08,1.85709375e-01
-5.14020313e-08,1.85690625e-01
-5.13620312e-08,1.85709375e-01
-5.13220312e-08,1.85690625e-01
-5.12820312e-08,1.85709375e-01
-5.12420312e-08,1.85690625e-01
-5.12020312e-08,1.85710938e-01
-5.11620312e-08,1.85689063e-01
-5.11220312e-08,1.85710938e-01
-5.10820312e-08,1.85689063e-01
-5.10420312e-08,1.85710938e-01
-5.10020312e-08,1.85687500e-01
-5.09620312e-08,1.85712500e-01
-5.09220312e-08,1.85687500e-01
-5.08820312e-08,1.85712500e-01
-5.08420312e-08,1.85685938e-01
-5.08020312e-08,1.85714062e-01
-5.07620312e-08,1.85685938e-01
-5.07220312e-08,1.85715625e-01
-5.06820312e-08,1.85684375e-01
-5.06420312e-08,1.85717188e-01
-5.06020312e-08,1.85682813e-01
-5.05620312e-08,1.85718750e-01
-5.05220312e-08,1.85679687e-01
-5.04820312e-08,1.85721875e-01
-5.04420312e-08,1.85676563e-01
-5.04020312e-08,1.85725000e-01
-5.03620312e-08,1.85671875e-01
-5.03220312e-08,1.85732813e-01
-5.02820312e-08,1.85660938e-01
-5.02420312e-08,1.85750000e-01
-5.02020312e-08,1.85623438e-01
-5.01620312e-08,1.85931250e-01
-5.01220312e-08,1.86128125e-01
-5.00820312e-08,1.86100000e-01
-5.00420312e-08,1.86084375e-01
-5.00020312e-08,1.86131250e-01
-4.99620312e-08,1.86039063e-01
-4.99220312e-08,1.86318750e-01
-4.98820312e-08,1.86539063e-01
-4.98420312e-08,1.86489062e-01
-4.98020312e-08,1.86493750e-01
-4.97620313e-08,1.86521875e-01
-4.97220312e-08,1.86448438e-01
-4.96820312e-08,1.86709375e-01
-4.96420312e-08,1.86948438e-01
-4.96020312e-08,1.86879688e-01
-4.95620312e-08,1.86903125e-01
-4.95220312e-08,1.86912500e-01
-4.94820313e-08,1.86857812e-01
-4.94420312e-08,1.87098438e-01
-4.94020312e-08,1.87360938e-01
-4.93620312e-08,1.87267188e-01
-4.93220312e-08,1.87320313e-01
-4.92820312e-08,1.87289063e-01
-4.92420312e-08,1.87301563e-01
-4.92020313e-08,1.87310937e-01
-4.91620312e-08,1.87262500e-01
-4.91220312e-08,1.87492188e-01
-4.90820312e-08,1.87768750e-01
-4.90420312e-08,1.87657813e-01
-4.90020312e-08,1.87732813e-01
-4.89620312e-08,1.87673438e-01
-4.89220312e-08,1.87721875e-01
-4.88820312e-08,1.87681250e-01
-4.88420312e-08,1.87717187e-01
-4.88020312e-08,1.87685938e-01
-4.87620312e-08,1.87712500e-01
-4.87220312e-08,1.87689063e-01
-4.86820312e-08,1.87707813e-01
-4.86420312e-08,1.87693750e-01
-4.86020312e-08,1.87703125e-01
-4.85620312e-08,1.87703125e-01
-4.85220312e-08,1.87687500e-01
-4.84820312e-08,1.87737500e-01
-4.84420312e-08,1.87509375e-01
-4.84020312e-08,1.87226562e-01
-4.83620312e-08,1.87350000e-01
-4.83220312e-08,1.87257813e-01
-4.82820312e-08,1.87339063e-01
-4.82420312e-08,1.87260938e-01
-4.82020312e-08,1.87342188e-01
-4.81620312e-08,1.87250000e-01
-4.81220312e-08,1.87373438e-01
-4.80820312e-08,1.87073437e-01
-4.80420312e-08,1.86864063e-01
-4.80020312e-08,1.86910938e-01
-4.79620312e-08,1.86898438e-01
-4.79220312e-08,1.86893750e-01
-4.78820312e-08,1.86914063e-01
-4.78420313e-08,1.86876563e-01
-4.78020312e-08,1.86950000e-01
-4.77620312e-08,1.86696875e-01
-4.77220312e-08,1.86440625e-01
-4.76820312e-08,1.86537500e-01
-4.76420312e-08,1.86471875e-01
-4.76020312e-08,1.86525000e-01
-4.75620313e-08,1.86475000e-01
-4.75220312e-08,1.86528125e-01
-4.74820312e-08,1.86464062e-01
-4.74420312e-08,1.86560937e-01
-4.74020312e-08,1.86287500e-01
-4.73620312e-08,1.86050000e-01
-4.73220312e-08,1.86126563e-01
-4.72820313e-08,1.86081250e-01
-4.72420312e-08,1.86114063e-01
-4.72020312e-08,1.86089063e-01
-4.71620312e-08,1.86109375e-01
-4.71220312e-08,1.86092188e-01
-4.70820312e-08,1.86106250e-01
-4.70420312e-08,1.86093750e-01
-4.70020312e-08,1.86106250e-01
-4.69620312e-08,1.86095312e-01
-4.69220312e-08,1.86104688e-01
-4.68820312e-08,1.86095312e-01
-4.68420312e-08,1.86104688e-01
-4.68020312e-08,1.86096875e-01
-4.67620312e-08,1.86103125e-01
-4.67220312e-08,1.86096875e-01
-4.66820312e-08,1.86103125e-01
-4.66420312e-08,1.86096875e-01
-4.66020312e-08,1.86103125e-01
-4.65620312e-08,1.86096875e-01
-4.65220312e-08,1.86103125e-01
-4.64820312e-08,1.86096875e-01
-4.64420312e-08,1.86103125e-01
-4.64020312e-08,1.86098438e-01
-4.63620312e-08,1.86101563e-01
-4.63220312e-08,1.86098438e-01
-4.62820312e-08,1.86101563e-01
-4.62420312e-08,1.86098438e-01
-4.62020312e-08,1.86101563e-01
-4.61620312e-08,1.86098438e-01
-4.61220312e-08,1.86101563e-01
-4.60820312e-08,1.86098438e-01
-4.60420312e-08,1.86101563e-01
-4.60020312e-08,1.86098438e-01
-4.59620312e-08,1.86101563e-01
-4.59220313e-08,1.86098438e-01
-4.58820312e-08,1.86101563e-01
-4.58420312e-08,1.86100000e-01
-4.58020312e-08,1.86100000e-01
-4.57620312e-08,1.86100000e-01
-4.57220312e-08,1.86100000e-01
-4.56820312e-08,1.86100000e-01
-4.56420313e-08,1.86100000e-01
-4.56020312e-08,1.86100000e-01
-4.55620312e-08,1.86100000e-01
-4.55220312e-08,1.86100000e-01
-4.54820312e-08,1.86100000e-01
-4.54420312e-08,1.86100000e-01
-4.54020312e-08,1.86100000e-01
-4.53620313e-08,1.86100000e-01
-4.53220312e-08,1.86100000e-01
-4.52820312e-08,1.86101563e-01
-4.52420312e-08,1.86098438e-01
-4.52020312e-08,1.86101563e-01
-4.51620312e-08,1.86098438e-01
-4.51220312e-08,1.86101563e-01
-4.50820313e-08,1.86098438e-01
-4.50420312e-08,1.86101563e-01
-4.50020312e-08,1.86098438e-01
-4.49620312e-08,1.86103125e-01
-4.49220312e-08,1.86096875e-01
-4.48820312e-08,1.86103125e-01
-4.48420312e-08,1.86096875e-01
-4.48020312e-08,1.86103125e-01
-4.47620312e-08,1.86096875e-01
-4.47220312e-08,1.86104688e-01
-4.46820312e-08,1.86095312e-01
-4.46420312e-08,1.86104688e-01
-4.46020312e-08,1.86093750e-01
-4.45620312e-08,1.86106250e-01
-4.45220312e-08,1.86092188e-01
-4.44820312e-08,1.86107812e-01
-4.44420312e-08,1.86090625e-01
-4.44020312e-08,1.86110938e-01
-4.43620312e-08,1.86085938e-01
-4.43220312e-08,1.86117188e-01
-4.42820312e-08,1.86078125e-01
-4.42420312e-08,1.86132812e-01
-4.42020312e-08,1.86042188e-01
-4.41620312e-08,1.86310937e-01
-4.41220312e-08,1.86551563e-01
-4.40820312e-08,1.86473438e-01
-4.40420312e-08,1.86517188e-01
-4.40020313e-08,1.86487500e-01
-4.39620312e-08,1.86507813e-01
-4.39220312e-08,1.86493750e-01
-4.38820312e-08,1.86503125e-01
-4.38420312e-08,1.86498438e-01
-4.38020312e-08,1.86498438e-01
-4.37620312e-08,1.86503125e-01
-4.37220313e-08,1.86493750e-01
-4.36820312e-08,1.86509375e-01
-4.36420312e-08,1.86484375e-01
-4.36020312e-08,1.86525000e-01
-4.35620312e-08,1.86448438e-01
-4.35220312e-08,1.86704688e-01
-4.34820312e-08,1.86957813e-01
-4.34420313e-08,1.86867188e-01
-4.34020312e-08,1.86923438e-01
-4.33620312e-08,1.86882812e-01
-4.33220312e-08,1.86914063e-01
-4.32820312e-08,1.86889063e-01
-4.32420312e-08,1.86909375e-01
-4.32020312e-08,1.86892188e-01
-4.31620313e-08,1.86906250e-01
-4.31220312e-08,1.86896875e-01
-4.30820312e-08,1.86901563e-01
-4.30420312e-08,1.86901563e-01
-4.30020312e-08,1.86895313e-01
-4.29620312e-08,1.86909375e-01
-4.29220312e-08,1.86879688e-01
-4.28820313e-08,1.86945313e-01
-4.28420312e-08,1.86701563e-01
-4.28020312e-08,1.86435938e-01
-4.27620312e-08,1.86539063e-01
-4.27220312e-08,1.86470313e-01
-4.26820312e-08,1.86525000e-01
-4.26420312e-08,1.86478125e-01
-4.26020312e-08,1.86518750e-01
-4.25620312e-08,1.86482813e-01
-4.25220312e-08,1.86515625e-01
-4.24820312e-08,1.86484375e-01
-4.24420312e-08,1.86514062e-01
-4.24020312e-08,1.86485938e-01
-4.23620312e-08,1.86514062e-01
-4.23220312e-08,1.86487500e-01
-4.22820312e-08,1.86512500e-01
-4.22420312e-08,1.86487500e-01
-4.22020312e-08,1.86512500e-01
-4.21620312e-08,1.86489062e-01
-4.21220312e-08,1.86510938e-01
-4.20820313e-08,1.86489062e-01
-4.20420312e-08,1.86510938e-01
-4.20020312e-08,1.86489062e-01
-4.19620312e-08,1.86510938e-01
-4.19220312e-08,1.86489062e-01
-4.18820312e-08,1.86510938e-01
-4.18420312e-08,1.86489062e-01
-4.18020313e-08,1.86510938e-01
-4.17620312e-08,1.86489062e-01
-4.17220312e-08,1.86509375e-01
-4.16820312e-08,1.86490625e-01
-4.16420312e-08,1.86509375e-01
-4.16020312e-08,1.86490625e-01
-4.15620312e-08,1.86509375e-01
-4.15220313e-08,1.86490625e-01
-4.14820312e-08,1.86509375e-01
-4.14420312e-08,1.86490625e-01
-4.14020312e-08,1.86509375e-01
-4.13620312e-08,1.86490625e-01
-4.13220312e-08,1.86509375e-01
-4.12820312e-08,1.86489062e-01
-4.12420313e-08,1.86510938e-01
-4.12020312e-08,1.86489062e-01
-4.11620312e-08,1.86510938e-01
-4.11220312e-08,1.86489062e-01
-4.10820312e-08,1.86510938e-01
-4.10420312e-08,1.86489062e-01
-4.10020312e-08,1.86510938e-01
-4.09620313e-08,1.86489062e-01
-4.09220312e-08,1.86510938e-01
-4.08820312e-08,1.86487500e-01
-4.08420312e-08,1.86512500e-01
-4.08020312e-08,1.86487500e-01
-4.07620312e-08,1.86512500e-01
-4.07220312e-08,1.86487500e-01
-4.06820313e-08,1.86514062e-01
-4.06420312e-08,1.86485938e-01
-4.06020312e-08,1.86515625e-01
-4.05620312e-08,1.86484375e-01
-4.05220312e-08,1.86517188e-01
-4.04820312e-08,1.86481250e-01
-4.04420312e-08,1.86521875e-01
-4.04020312e-08,1.86475000e-01
-4.03620312e-08,1.86529688e-01
-4.03220312e-08,1.86459375e-01
-4.02820312e-08,1.86565625e-01
-4.02420312e-08,1.86281250e-01
-4.02020312e-08,1.86056250e-01
-4.01620313e-08,1.86118750e-01
-4.01220312e-08,1.86090625e-01
-4.00820312e-08,1.86103125e-01
-4.00420312e-08,1.86100000e-01
-4.00020312e-08,1.86096875e-01
-3.99620312e-08,1.86106250e-01
-3.99220312e-08,1.86092188e-01
-3.98820313e-08,1.86110938e-01
-3.98420312e-08,1.86084375e-01
-3.98020312e-08,1.86120312e-01
-3.97620312e-08,1.86068750e-01
-3.97220312e-08,1.86156250e-01
-3.96820312e-08,1.85890625e-01
-3.96420312e-08,1.85648438e-01
-3.96020313e-08,1.85728125e-01
-3.95620312e-08,1.85681250e-01
-3.95220312e-08,1.85712500e-01
-3.94820312e-08,1.85690625e-01
-3.94420312e-08,1.85707813e-01
-3.94020312e-08,1.85693750e-01
-3.93620312e-08,1.85704688e-01
-3.93220313e-08,1.85696875e-01
-3.92820312e-08,1.85703125e-01
-3.92420312e-08,1.85698438e-01
-3.92020312e-08,1.85701563e-01
-3.91620312e-08,1.85700000e-01
-3.91220312e-08,1.85700000e-01
-3.90820312e-08,1.85700000e-01
-3.90420313e-08,1.85698438e-01
-3.90020312e-08,1.85701563e-01
-3.89620312e-08,1.85698438e-01
-3.89220312e-08,1.85701563e-01
-3.88820312e-08,1.85696875e-01
-3.88420312e-08,1.85703125e-01
-3.88020312e-08,1.85696875e-01
-3.87620313e-08,1.85704688e-01
-3.87220312e-08,1.85695313e-01
-3.86820312e-08,1.85704688e-01
-3.86420312e-08,1.85693750e-01
-3.86020312e-08,1.85706250e-01
-3.85620312e-08,1.85692187e-01
-3.85220312e-08,1.85707813e-01
