trails/0bdfa5e45fec98341abdd20552c140b4/aes_ch1_20250507121016169.csv

Model,MSO66B
Label,
Waveform Type,ANALOG
Horizontal Units,s
Sample Interval,4.00000000e-11
Record Length,10000
Zero Index,1599.18359375
Vertical Units,A
ANALOG_Thumbnail,
yOffset,1.84500000e-01
yPosition,8.40000000e-01

Labels,
TIME,CH1
-6.39673437e-08,1.86895313e-01
-6.39273437e-08,1.86904687e-01
-6.38873437e-08,1.86895313e-01
-6.38473437e-08,1.86904687e-01
-6.38073437e-08,1.86895313e-01
-6.37673437e-08,1.86904687e-01
-6.37273438e-08,1.86895313e-01
-6.36873437e-08,1.86904687e-01
-6.36473437e-08,1.86895313e-01
-6.36073437e-08,1.86904687e-01
-6.35673437e-08,1.86895313e-01
-6.35273437e-08,1.86904687e-01
-6.34873437e-08,1.86895313e-01
-6.34473438e-08,1.86904687e-01
-6.34073437e-08,1.86893750e-01
-6.33673437e-08,1.86906250e-01
-6.33273437e-08,1.86893750e-01
-6.32873437e-08,1.86907812e-01
-6.32473438e-08,1.86892188e-01
-6.32073437e-08,1.86910938e-01
-6.31673438e-08,1.86887500e-01
-6.31273437e-08,1.86917187e-01
-6.30873437e-08,1.86873438e-01
-6.30473437e-08,1.86951563e-01
-6.30073437e-08,1.86696875e-01
-6.29673438e-08,1.86440625e-01
-6.29273437e-08,1.86537500e-01
-6.28873438e-08,1.86470313e-01
-6.28473437e-08,1.86526562e-01
-6.28073437e-08,1.86473438e-01
-6.27673437e-08,1.86529688e-01
-6.27273437e-08,1.86462500e-01
-6.26873438e-08,1.86560937e-01
-6.26473437e-08,1.86287500e-01
-6.26073438e-08,1.86048437e-01
-6.25673437e-08,1.86129688e-01
-6.25273437e-08,1.86076563e-01
-6.24873437e-08,1.86123438e-01
-6.24473437e-08,1.86070313e-01
-6.24073438e-08,1.86151563e-01
-6.23673437e-08,1.85898438e-01
-6.23273438e-08,1.85635938e-01
-6.22873437e-08,1.85742188e-01
-6.22473437e-08,1.85662500e-01
-6.22073437e-08,1.85739062e-01
-6.21673437e-08,1.85653125e-01
-6.21273438e-08,1.85770313e-01
-6.20873437e-08,1.85476562e-01
-6.20473438e-08,1.85260938e-01
-6.20073437e-08,1.85314063e-01
-6.19673437e-08,1.85296875e-01
-6.19273437e-08,1.85295313e-01
-6.18873437e-08,1.85312500e-01
-6.18473438e-08,1.85276563e-01
-6.18073437e-08,1.85350000e-01
-6.17673438e-08,1.85095312e-01
-6.17273437e-08,1.84843750e-01
-6.16873437e-08,1.84931250e-01
-6.16473437e-08,1.84878125e-01
-6.16073437e-08,1.84915625e-01
-6.15673438e-08,1.84887500e-01
-6.15273437e-08,1.84909375e-01
-6.14873438e-08,1.84892187e-01
-6.14473437e-08,1.84904687e-01
-6.14073437e-08,1.84896875e-01
-6.13673437e-08,1.84901563e-01
-6.13273437e-08,1.84901563e-01
-6.12873438e-08,1.84895313e-01
-6.12473437e-08,1.84909375e-01
-6.12073437e-08,1.84881250e-01
-6.11673437e-08,1.84943750e-01
-6.11273437e-08,1.84703125e-01
-6.10873437e-08,1.84434375e-01
-6.10473437e-08,1.84543750e-01
-6.10073438e-08,1.84464062e-01
-6.09673437e-08,1.84532813e-01
-6.09273437e-08,1.84465625e-01
-6.08873437e-08,1.84542188e-01
-6.08473437e-08,1.84434375e-01
-6.08073437e-08,1.84717188e-01
-6.07673437e-08,1.84946875e-01
-6.07273438e-08,1.84875000e-01
-6.06873437e-08,1.84915625e-01
-6.06473437e-08,1.84887500e-01
-6.06073437e-08,1.84909375e-01
-6.05673437e-08,1.84890625e-01
-6.05273437e-08,1.84907813e-01
-6.04873437e-08,1.84892187e-01
-6.04473438e-08,1.84909375e-01
-6.04073437e-08,1.84890625e-01
-6.03673437e-08,1.84910938e-01
-6.03273437e-08,1.84887500e-01
-6.02873437e-08,1.84915625e-01
-6.02473437e-08,1.84878125e-01
-6.02073437e-08,1.84931250e-01
-6.01673438e-08,1.84843750e-01
-6.01273437e-08,1.85109375e-01
-6.00873437e-08,1.85353125e-01
-6.00473437e-08,1.85271875e-01
-6.00073437e-08,1.85318750e-01
-5.99673437e-08,1.85285937e-01
-5.99273437e-08,1.85309375e-01
-5.98873438e-08,1.85292188e-01
-5.98473437e-08,1.85304688e-01
-5.98073437e-08,1.85296875e-01
-5.97673437e-08,1.85301563e-01
-5.97273437e-08,1.85301563e-01
-5.96873437e-08,1.85296875e-01
-5.96473437e-08,1.85307813e-01
-5.96073438e-08,1.85287500e-01
-5.95673437e-08,1.85323438e-01
-5.95273437e-08,1.85251562e-01
-5.94873437e-08,1.85501562e-01
-5.94473437e-08,1.85760938e-01
-5.94073437e-08,1.85664063e-01
-5.93673437e-08,1.85726562e-01
-5.93273437e-08,1.85678125e-01
-5.92873437e-08,1.85718750e-01
-5.92473437e-08,1.85682813e-01
-5.92073437e-08,1.85715625e-01
-5.91673437e-08,1.85685938e-01
-5.91273437e-08,1.85712500e-01
-5.90873437e-08,1.85687500e-01
-5.90473437e-08,1.85710938e-01
-5.90073437e-08,1.85689063e-01
-5.89673437e-08,1.85709375e-01
-5.89273437e-08,1.85690625e-01
-5.88873437e-08,1.85709375e-01
-5.88473437e-08,1.85690625e-01
-5.88073437e-08,1.85709375e-01
-5.87673437e-08,1.85692187e-01
-5.87273437e-08,1.85707813e-01
-5.86873437e-08,1.85692187e-01
-5.86473437e-08,1.85707813e-01
-5.86073437e-08,1.85692187e-01
-5.85673437e-08,1.85707813e-01
-5.85273437e-08,1.85692187e-01
-5.84873437e-08,1.85706250e-01
-5.84473437e-08,1.85693750e-01
-5.84073437e-08,1.85706250e-01
-5.83673437e-08,1.85693750e-01
-5.83273437e-08,1.85706250e-01
-5.82873437e-08,1.85693750e-01
-5.82473437e-08,1.85706250e-01
-5.82073437e-08,1.85693750e-01
-5.81673437e-08,1.85706250e-01
-5.81273437e-08,1.85693750e-01
-5.80873437e-08,1.85706250e-01
-5.80473437e-08,1.85693750e-01
-5.80073437e-08,1.85706250e-01
-5.79673437e-08,1.85693750e-01
-5.79273437e-08,1.85704688e-01
-5.78873437e-08,1.85695313e-01
-5.78473437e-08,1.85704688e-01
-5.78073437e-08,1.85695313e-01
-5.77673437e-08,1.85704688e-01
-5.77273437e-08,1.85695313e-01
-5.76873437e-08,1.85704688e-01
-5.76473437e-08,1.85695313e-01
-5.76073437e-08,1.85704688e-01
-5.75673437e-08,1.85695313e-01
-5.75273437e-08,1.85704688e-01
-5.74873437e-08,1.85695313e-01
-5.74473437e-08,1.85704688e-01
-5.74073437e-08,1.85695313e-01
-5.73673437e-08,1.85704688e-01
-5.73273437e-08,1.85695313e-01
-5.72873437e-08,1.85704688e-01
-5.72473437e-08,1.85695313e-01
-5.72073437e-08,1.85704688e-01
-5.71673437e-08,1.85695313e-01
-5.71273437e-08,1.85704688e-01
-5.70873437e-08,1.85695313e-01
-5.70473437e-08,1.85704688e-01
-5.70073437e-08,1.85695313e-01
-5.69673437e-08,1.85704688e-01
-5.69273437e-08,1.85695313e-01
-5.68873437e-08,1.85704688e-01
-5.68473437e-08,1.85695313e-01
-5.68073437e-08,1.85704688e-01
-5.67673437e-08,1.85695313e-01
-5.67273437e-08,1.85704688e-01
-5.66873437e-08,1.85695313e-01
-5.66473437e-08,1.85704688e-01
-5.66073437e-08,1.85695313e-01
-5.65673437e-08,1.85704688e-01
-5.65273437e-08,1.85695313e-01
-5.64873437e-08,1.85704688e-01
-5.64473437e-08,1.85695313e-01
-5.64073437e-08,1.85704688e-01
-5.63673437e-08,1.85695313e-01
-5.63273437e-08,1.85704688e-01
-5.62873437e-08,1.85695313e-01
-5.62473437e-08,1.85704688e-01
-5.62073437e-08,1.85695313e-01
-5.61673437e-08,1.85704688e-01
-5.61273437e-08,1.85695313e-01
-5.60873437e-08,1.85704688e-01
-5.60473437e-08,1.85695313e-01
-5.60073437e-08,1.85704688e-01
-5.59673437e-08,1.85695313e-01
-5.59273437e-08,1.85704688e-01
-5.58873437e-08,1.85693750e-01
-5.58473437e-08,1.85706250e-01
-5.58073437e-08,1.85693750e-01
-5.57673437e-08,1.85706250e-01
-5.57273437e-08,1.85693750e-01
-5.56873437e-08,1.85707813e-01
-5.56473437e-08,1.85692187e-01
-5.56073437e-08,1.85707813e-01
-5.55673437e-08,1.85690625e-01
-5.55273437e-08,1.85710938e-01
-5.54873437e-08,1.85687500e-01
-5.54473437e-08,1.85715625e-01
-5.54073437e-08,1.85679687e-01
-5.53673437e-08,1.85729688e-01
-5.53273437e-08,1.85645312e-01
-5.52873437e-08,1.85907813e-01
-5.52473437e-08,1.86154687e-01
-5.52073437e-08,1.86068750e-01
-5.51673437e-08,1.86121875e-01
-5.51273437e-08,1.86081250e-01
-5.50873437e-08,1.86115625e-01
-5.50473437e-08,1.86085938e-01
-5.50073437e-08,1.86114063e-01
-5.49673437e-08,1.86087500e-01
-5.49273437e-08,1.86114063e-01
-5.48873437e-08,1.86085938e-01
-5.48473437e-08,1.86115625e-01
-5.48073437e-08,1.86081250e-01
-5.47673437e-08,1.86123438e-01
-5.47273437e-08,1.86067188e-01
-5.46873437e-08,1.86157813e-01
-5.46473437e-08,1.85889063e-01
-5.46073437e-08,1.85648438e-01
-5.45673437e-08,1.85728125e-01
-5.45273437e-08,1.85681250e-01
-5.44873437e-08,1.85714062e-01
-5.44473437e-08,1.85689063e-01
-5.44073437e-08,1.85709375e-01
-5.43673437e-08,1.85692187e-01
-5.43273437e-08,1.85706250e-01
-5.42873437e-08,1.85693750e-01
-5.42473437e-08,1.85704688e-01
-5.42073437e-08,1.85695313e-01
-5.41673437e-08,1.85703125e-01
-5.41273437e-08,1.85696875e-01
-5.40873437e-08,1.85701563e-01
-5.40473437e-08,1.85698438e-01
-5.40073437e-08,1.85701563e-01
-5.39673437e-08,1.85700000e-01
-5.39273437e-08,1.85700000e-01
-5.38873437e-08,1.85701563e-01
-5.38473437e-08,1.85696875e-01
-5.38073437e-08,1.85704688e-01
-5.37673437e-08,1.85693750e-01
-5.37273437e-08,1.85709375e-01
-5.36873437e-08,1.85685938e-01
-5.36473437e-08,1.85725000e-01
-5.36073437e-08,1.85650000e-01
-5.35673437e-08,1.85903125e-01
-5.35273437e-08,1.86159375e-01
-5.34873437e-08,1.86064063e-01
-5.34473437e-08,1.86126563e-01
-5.34073437e-08,1.86078125e-01
-5.33673437e-08,1.86118750e-01
-5.33273437e-08,1.86082812e-01
-5.32873437e-08,1.86115625e-01
-5.32473437e-08,1.86085938e-01
-5.32073437e-08,1.86112500e-01
-5.31673437e-08,1.86087500e-01
-5.31273437e-08,1.86112500e-01
-5.30873437e-08,1.86089063e-01
-5.30473437e-08,1.86110938e-01
-5.30073437e-08,1.86089063e-01
-5.29673437e-08,1.86110938e-01
-5.29273437e-08,1.86089063e-01
-5.28873437e-08,1.86109375e-01
-5.28473437e-08,1.86090625e-01
-5.28073437e-08,1.86109375e-01
-5.27673437e-08,1.86090625e-01
-5.27273437e-08,1.86109375e-01
-5.26873437e-08,1.86090625e-01
-5.26473437e-08,1.86109375e-01
-5.26073437e-08,1.86090625e-01
-5.25673437e-08,1.86109375e-01
-5.25273437e-08,1.86090625e-01
-5.24873437e-08,1.86109375e-01
-5.24473437e-08,1.86090625e-01
-5.24073437e-08,1.86109375e-01
-5.23673437e-08,1.86090625e-01
-5.23273437e-08,1.86109375e-01
-5.22873437e-08,1.86090625e-01
-5.22473437e-08,1.86109375e-01
-5.22073437e-08,1.86090625e-01
-5.21673437e-08,1.86110938e-01
-5.21273437e-08,1.86089063e-01
-5.20873437e-08,1.86110938e-01
-5.20473437e-08,1.86089063e-01
-5.20073437e-08,1.86110938e-01
-5.19673437e-08,1.86089063e-01
-5.19273437e-08,1.86110938e-01
-5.18873437e-08,1.86089063e-01
-5.18473437e-08,1.86112500e-01
-5.18073437e-08,1.86087500e-01
-5.17673437e-08,1.86112500e-01
-5.17273438e-08,1.86087500e-01
-5.16873437e-08,1.86114063e-01
-5.16473437e-08,1.86085938e-01
-5.16073437e-08,1.86114063e-01
-5.15673437e-08,1.86084375e-01
-5.15273437e-08,1.86115625e-01
-5.14873437e-08,1.86082812e-01
-5.14473437e-08,1.86117188e-01
-5.14073437e-08,1.86081250e-01
-5.13673437e-08,1.86120312e-01
-5.13273437e-08,1.86078125e-01
-5.12873437e-08,1.86123438e-01
-5.12473437e-08,1.86075000e-01
-5.12073437e-08,1.86128125e-01
-5.11673437e-08,1.86067188e-01
-5.11273437e-08,1.86140625e-01
-5.10873437e-08,1.86048437e-01
-5.10473437e-08,1.86179687e-01
-5.10073437e-08,1.85860938e-01
-5.09673437e-08,1.85687500e-01
-5.09273437e-08,1.85664063e-01
-5.08873437e-08,1.85900000e-01
-5.08473437e-08,1.86156250e-01
-5.08073437e-08,1.86071875e-01
-5.07673437e-08,1.86115625e-01
-5.07273437e-08,1.86093750e-01
-5.06873437e-08,1.86100000e-01
-5.06473437e-08,1.86107812e-01
-5.06073437e-08,1.86079688e-01
-5.05673437e-08,1.86146875e-01
-5.05273437e-08,1.85898438e-01
-5.04873437e-08,1.85640625e-01
-5.04473437e-08,1.85734375e-01
-5.04073437e-08,1.85676563e-01
-5.03673437e-08,1.85718750e-01
-5.03273437e-08,1.85685938e-01
-5.02873437e-08,1.85710938e-01
-5.02473437e-08,1.85690625e-01
-5.02073437e-08,1.85707813e-01
-5.01673437e-08,1.85693750e-01
-5.01273437e-08,1.85704688e-01
-5.00873437e-08,1.85696875e-01
-5.00473437e-08,1.85703125e-01
-5.00073437e-08,1.85698438e-01
-4.99673437e-08,1.85700000e-01
-4.99273437e-08,1.85701563e-01
-4.98873437e-08,1.85696875e-01
-4.98473437e-08,1.85704688e-01
-4.98073438e-08,1.85693750e-01
-4.97673437e-08,1.85709375e-01
-4.97273437e-08,1.85687500e-01
-4.96873437e-08,1.85718750e-01
-4.96473437e-08,1.85671875e-01
-4.96073437e-08,1.85753125e-01
-4.95673437e-08,1.85493750e-01
-4.95273438e-08,1.85245313e-01
-4.94873437e-08,1.85329688e-01
-4.94473437e-08,1.85279688e-01
-4.94073437e-08,1.85315625e-01
-4.93673437e-08,1.85289063e-01
-4.93273437e-08,1.85307813e-01
-4.92873437e-08,1.85293750e-01
-4.92473437e-08,1.85304688e-01
-4.92073437e-08,1.85298437e-01
-4.91673437e-08,1.85300000e-01
-4.91273437e-08,1.85303125e-01
-4.90873437e-08,1.85293750e-01
-4.90473437e-08,1.85312500e-01
-4.90073437e-08,1.85278125e-01
-4.89673437e-08,1.85348438e-01
-4.89273437e-08,1.85098438e-01
-4.88873437e-08,1.84839063e-01
-4.88473437e-08,1.84935938e-01
-4.88073437e-08,1.84873438e-01
-4.87673437e-08,1.84921875e-01
-4.87273437e-08,1.84881250e-01
-4.86873437e-08,1.84915625e-01
-4.86473437e-08,1.84885938e-01
-4.86073437e-08,1.84914063e-01
-4.85673437e-08,1.84887500e-01
-4.85273437e-08,1.84910938e-01
-4.84873437e-08,1.84889063e-01
-4.84473437e-08,1.84909375e-01
-4.84073437e-08,1.84890625e-01
-4.83673437e-08,1.84909375e-01
-4.83273437e-08,1.84890625e-01
-4.82873437e-08,1.84907813e-01
-4.82473437e-08,1.84892187e-01
-4.82073437e-08,1.84907813e-01
-4.81673438e-08,1.84892187e-01
-4.81273437e-08,1.84906250e-01
-4.80873437e-08,1.84893750e-01
-4.80473437e-08,1.84906250e-01
-4.80073437e-08,1.84893750e-01
-4.79673437e-08,1.84906250e-01
-4.79273437e-08,1.84893750e-01
-4.78873438e-08,1.84906250e-01
-4.78473437e-08,1.84895313e-01
-4.78073437e-08,1.84904687e-01
-4.77673437e-08,1.84895313e-01
-4.77273437e-08,1.84904687e-01
-4.76873437e-08,1.84895313e-01
-4.76473437e-08,1.84904687e-01
-4.76073438e-08,1.84895313e-01
-4.75673437e-08,1.84904687e-01
-4.75273437e-08,1.84895313e-01
-4.74873437e-08,1.84903125e-01
-4.74473437e-08,1.84896875e-01
-4.74073437e-08,1.84903125e-01
-4.73673437e-08,1.84896875e-01
-4.73273438e-08,1.84903125e-01
-4.72873437e-08,1.84896875e-01
-4.72473437e-08,1.84901563e-01
-4.72073437e-08,1.84898438e-01
-4.71673437e-08,1.84901563e-01
-4.71273437e-08,1.84898438e-01
-4.70873437e-08,1.84900000e-01
-4.70473437e-08,1.84900000e-01
-4.70073437e-08,1.84900000e-01
-4.69673437e-08,1.84901563e-01
-4.69273437e-08,1.84896875e-01
-4.68873437e-08,1.84904687e-01
-4.68473437e-08,1.84893750e-01
-4.68073437e-08,1.84909375e-01
-4.67673437e-08,1.84885938e-01
-4.67273437e-08,1.84923438e-01
-4.66873437e-08,1.84851563e-01
-4.66473437e-08,1.85101563e-01
-4.66073437e-08,1.85360938e-01
-4.65673437e-08,1.85262500e-01
-4.65273437e-08,1.85328125e-01
-4.64873437e-08,1.85276563e-01
-4.64473437e-08,1.85320313e-01
-4.64073437e-08,1.85282813e-01
-4.63673437e-08,1.85317188e-01
-4.63273437e-08,1.85284375e-01
-4.62873437e-08,1.85315625e-01
-4.62473438e-08,1.85285937e-01
-4.62073437e-08,1.85314063e-01
-4.61673437e-08,1.85285937e-01
-4.61273437e-08,1.85314063e-01
-4.60873437e-08,1.85285937e-01
-4.60473437e-08,1.85314063e-01
-4.60073437e-08,1.85285937e-01
-4.59673438e-08,1.85315625e-01
-4.59273437e-08,1.85284375e-01
-4.58873437e-08,1.85317188e-01
-4.58473437e-08,1.85279688e-01
-4.58073437e-08,1.85321875e-01
-4.57673437e-08,1.85271875e-01
-4.57273437e-08,1.85337500e-01
-4.56873438e-08,1.85239062e-01
-4.56473437e-08,1.85514063e-01
-4.56073437e-08,1.85746875e-01
-4.55673437e-08,1.85676563e-01
-4.55273437e-08,1.85714062e-01
-4.54873437e-08,1.85690625e-01
-4.54473437e-08,1.85706250e-01
-4.54073438e-08,1.85695313e-01
-4.53673437e-08,1.85703125e-01
-4.53273437e-08,1.85698438e-01
-4.52873437e-08,1.85701563e-01
-4.52473437e-08,1.85698438e-01
-4.52073437e-08,1.85700000e-01
-4.51673437e-08,1.85700000e-01
-4.51273437e-08,1.85700000e-01
-4.50873437e-08,1.85701563e-01
-4.50473437e-08,1.85698438e-01
-4.50073437e-08,1.85701563e-01
-4.49673437e-08,1.85698438e-01
-4.49273437e-08,1.85701563e-01
-4.48873437e-08,1.85698438e-01
-4.48473437e-08,1.85701563e-01
-4.48073437e-08,1.85698438e-01
-4.47673437e-08,1.85701563e-01
-4.47273437e-08,1.85696875e-01
-4.46873437e-08,1.85701563e-01
-4.46473437e-08,1.85696875e-01
-4.46073437e-08,1.85703125e-01
-4.45673437e-08,1.85696875e-01
-4.45273437e-08,1.85703125e-01
-4.44873437e-08,1.85696875e-01
-4.44473437e-08,1.85703125e-01
-4.44073437e-08,1.85696875e-01
-4.43673437e-08,1.85703125e-01
-4.43273438e-08,1.85696875e-01
-4.42873437e-08,1.85703125e-01
-4.42473437e-08,1.85696875e-01
-4.42073437e-08,1.85703125e-01
-4.41673437e-08,1.85696875e-01
-4.41273437e-08,1.85703125e-01
-4.40873437e-08,1.85696875e-01
-4.40473438e-08,1.85703125e-01
-4.40073437e-08,1.85696875e-01
-4.39673437e-08,1.85703125e-01
-4.39273437e-08,1.85696875e-01
-4.38873437e-08,1.85703125e-01
-4.38473437e-08,1.85696875e-01
-4.38073437e-08,1.85703125e-01
-4.37673438e-08,1.85696875e-01
-4.37273437e-08,1.85703125e-01
-4.36873437e-08,1.85696875e-01
-4.36473437e-08,1.85703125e-01
-4.36073437e-08,1.85695313e-01
-4.35673437e-08,1.85704688e-01
-4.35273437e-08,1.85695313e-01
-4.34873438e-08,1.85704688e-01
-4.34473437e-08,1.85695313e-01
-4.34073437e-08,1.85704688e-01
-4.33673437e-08,1.85695313e-01
-4.33273437e-08,1.85704688e-01
-4.32873437e-08,1.85695313e-01
-4.32473437e-08,1.85704688e-01
-4.32073438e-08,1.85695313e-01
-4.31673437e-08,1.85704688e-01
-4.31273437e-08,1.85695313e-01
-4.30873437e-08,1.85704688e-01
-4.30473437e-08,1.85695313e-01
-4.30073437e-08,1.85704688e-01
-4.29673437e-08,1.85695313e-01
-4.29273437e-08,1.85704688e-01
-4.28873437e-08,1.85695313e-01
-4.28473437e-08,1.85704688e-01
-4.28073437e-08,1.85693750e-01
-4.27673437e-08,1.85706250e-01
-4.27273437e-08,1.85693750e-01
-4.26873437e-08,1.85706250e-01
-4.26473437e-08,1.85693750e-01
-4.26073437e-08,1.85706250e-01
-4.25673437e-08,1.85693750e-01
-4.25273437e-08,1.85706250e-01
-4.24873437e-08,1.85692187e-01
-4.24473437e-08,1.85707813e-01
-4.24073438e-08,1.85692187e-01
-4.23673437e-08,1.85707813e-01
-4.23273437e-08,1.85690625e-01
-4.22873437e-08,1.85709375e-01
-4.22473437e-08,1.85689063e-01
-4.22073437e-08,1.85710938e-01
-4.21673437e-08,1.85687500e-01
-4.21273438e-08,1.85714062e-01
-4.20873437e-08,1.85684375e-01
-4.20473437e-08,1.85718750e-01
-4.20073437e-08,1.85676563e-01
-4.19673437e-08,1.85734375e-01
-4.19273437e-08,1.85640625e-01
-4.18873437e-08,1.85912500e-01
-4.18473438e-08,1.86150000e-01
-4.18073437e-08,1.86073437e-01
-4.17673437e-08,1.86117188e-01
-4.17273437e-08,1.86087500e-01
-4.16873437e-08,1.86109375e-01
-4.16473437e-08,1.86093750e-01
-4.16073437e-08,1.86104688e-01
-4.15673438e-08,1.86095312e-01
-4.15273437e-08,1.86103125e-01
-4.14873437e-08,1.86096875e-01
-4.14473437e-08,1.86101563e-01
-4.14073437e-08,1.86098438e-01
-4.13673437e-08,1.86101563e-01
-4.13273437e-08,1.86100000e-01
-4.12873438e-08,1.86100000e-01
-4.12473437e-08,1.86100000e-01
-4.12073437e-08,1.86100000e-01
-4.11673437e-08,1.86100000e-01
-4.11273437e-08,1.86098438e-01
-4.10873437e-08,1.86101563e-01
-4.10473437e-08,1.86098438e-01
-4.10073438e-08,1.86101563e-01
-4.09673437e-08,1.86098438e-01
-4.09273437e-08,1.86101563e-01
-4.08873437e-08,1.86098438e-01
-4.08473437e-08,1.86103125e-01
-4.08073437e-08,1.86096875e-01
-4.07673437e-08,1.86103125e-01
-4.07273437e-08,1.86096875e-01
-4.06873437e-08,1.86103125e-01
-4.06473437e-08,1.86096875e-01
-4.06073437e-08,1.86103125e-01
-4.05673437e-08,1.86096875e-01
-4.05273437e-08,1.86103125e-01
-4.04873438e-08,1.86095312e-01
-4.04473437e-08,1.86104688e-01
-4.04073437e-08,1.86095312e-01
-4.03673437e-08,1.86104688e-01
-4.03273437e-08,1.86095312e-01
-4.02873437e-08,1.86104688e-01
-4.02473437e-08,1.86095312e-01
-4.02073438e-08,1.86106250e-01
-4.01673437e-08,1.86093750e-01
-4.01273437e-08,1.86106250e-01
-4.00873437e-08,1.86093750e-01
-4.00473437e-08,1.86106250e-01
-4.00073437e-08,1.86092188e-01
-3.99673437e-08,1.86107812e-01
-3.99273438e-08,1.86092188e-01
-3.98873437e-08,1.86107812e-01
-3.98473437e-08,1.86090625e-01
-3.98073437e-08,1.86109375e-01
-3.97673437e-08,1.86089063e-01
-3.97273437e-08,1.86110938e-01
-3.96873437e-08,1.86087500e-01
-3.96473438e-08,1.86114063e-01
-3.96073437e-08,1.86084375e-01
-3.95673437e-08,1.86117188e-01
-3.95273437e-08,1.86078125e-01
-3.94873437e-08,1.86126563e-01
-3.94473437e-08,1.86064063e-01
-3.94073437e-08,1.86162500e-01
-3.93673438e-08,1.85884375e-01
-3.93273437e-08,1.85653125e-01
-3.92873437e-08,1.85721875e-01
-3.92473437e-08,1.85687500e-01
-3.92073437e-08,1.85706250e-01
-3.91673437e-08,1.85696875e-01
-3.91273437e-08,1.85700000e-01
-3.90873438e-08,1.85703125e-01
-3.90473437e-08,1.85693750e-01
-3.90073437e-08,1.85709375e-01
-3.89673437e-08,1.85687500e-01
-3.89273437e-08,1.85718750e-01
-3.88873437e-08,1.85670313e-01
-3.88473437e-08,1.85754688e-01
-3.88073438e-08,1.85490625e-01
-3.87673437e-08,1.85246875e-01
-3.87273437e-08,1.85328125e-01
-3.86873437e-08,1.85281250e-01
-3.86473437e-08,1.85312500e-01
-3.86073437e-08,1.85290625e-01
-3.85673438e-08,1.85306250e-01
-3.85273437e-08,1.85295313e-01
