trails/0bdfa5e45fec98341abdd20552c140b4/aes_ch1_20250507123629257.csv

Model,MSO66B
Label,
Waveform Type,ANALOG
Horizontal Units,s
Sample Interval,4.00000000e-11
Record Length,10000
Zero Index,1599.11328125
Vertical Units,A
ANALOG_Thumbnail,
yOffset,1.84500000e-01
yPosition,8.40000000e-01

Labels,
TIME,CH1
-6.39645312e-08,1.84495313e-01
-6.39245312e-08,1.84510937e-01
-6.38845312e-08,1.84478125e-01
-6.38445312e-08,1.84546875e-01
-6.38045313e-08,1.84298437e-01
-6.37645312e-08,1.84040625e-01
-6.37245312e-08,1.84135938e-01
-6.36845312e-08,1.84073437e-01
-6.36445312e-08,1.84120312e-01
-6.36045312e-08,1.84082812e-01
-6.35645312e-08,1.84114063e-01
-6.35245313e-08,1.84087500e-01
-6.34845312e-08,1.84110938e-01
-6.34445312e-08,1.84089063e-01
-6.34045312e-08,1.84109375e-01
-6.33645312e-08,1.84090625e-01
-6.33245312e-08,1.84109375e-01
-6.32845312e-08,1.84092188e-01
-6.32445313e-08,1.84107812e-01
-6.32045312e-08,1.84092188e-01
-6.31645312e-08,1.84107812e-01
-6.31245312e-08,1.84092188e-01
-6.30845312e-08,1.84107812e-01
-6.30445313e-08,1.84092188e-01
-6.30045312e-08,1.84107812e-01
-6.29645313e-08,1.84092188e-01
-6.29245312e-08,1.84107812e-01
-6.28845312e-08,1.84090625e-01
-6.28445312e-08,1.84109375e-01
-6.28045312e-08,1.84089063e-01
-6.27645313e-08,1.84110938e-01
-6.27245312e-08,1.84085938e-01
-6.26845313e-08,1.84117188e-01
-6.26445312e-08,1.84078125e-01
-6.26045312e-08,1.84131250e-01
-6.25645312e-08,1.84043750e-01
-6.25245312e-08,1.84309375e-01
-6.24845313e-08,1.84553125e-01
-6.24445312e-08,1.84470313e-01
-6.24045313e-08,1.84520313e-01
-6.23645312e-08,1.84484375e-01
-6.23245312e-08,1.84512500e-01
-6.22845312e-08,1.84489062e-01
-6.22445312e-08,1.84509375e-01
-6.22045313e-08,1.84492188e-01
-6.21645312e-08,1.84507813e-01
-6.21245313e-08,1.84493750e-01
-6.20845312e-08,1.84506250e-01
-6.20445312e-08,1.84493750e-01
-6.20045312e-08,1.84506250e-01
-6.19645312e-08,1.84495313e-01
-6.19245313e-08,1.84504688e-01
-6.18845312e-08,1.84495313e-01
-6.18445313e-08,1.84504688e-01
-6.18045312e-08,1.84495313e-01
-6.17645312e-08,1.84504688e-01
-6.17245312e-08,1.84496875e-01
-6.16845312e-08,1.84503125e-01
-6.16445313e-08,1.84496875e-01
-6.16045312e-08,1.84503125e-01
-6.15645313e-08,1.84496875e-01
-6.15245312e-08,1.84503125e-01
-6.14845312e-08,1.84498438e-01
-6.14445312e-08,1.84501562e-01
-6.14045312e-08,1.84498438e-01
-6.13645313e-08,1.84500000e-01
-6.13245312e-08,1.84500000e-01
-6.12845313e-08,1.84498438e-01
-6.12445312e-08,1.84503125e-01
-6.12045312e-08,1.84493750e-01
-6.11645312e-08,1.84510937e-01
-6.11245312e-08,1.84479688e-01
-6.10845313e-08,1.84545313e-01
-6.10445312e-08,1.84301563e-01
-6.10045312e-08,1.84035937e-01
-6.09645312e-08,1.84140625e-01
-6.09245312e-08,1.84067188e-01
-6.08845312e-08,1.84128125e-01
-6.08445312e-08,1.84073437e-01
-6.08045313e-08,1.84125000e-01
-6.07645312e-08,1.84075000e-01
-6.07245312e-08,1.84125000e-01
-6.06845312e-08,1.84073437e-01
-6.06445312e-08,1.84129687e-01
-6.06045312e-08,1.84065625e-01
-6.05645312e-08,1.84143750e-01
-6.05245313e-08,1.84031250e-01
-6.04845312e-08,1.84321875e-01
-6.04445312e-08,1.84540625e-01
-6.04045312e-08,1.84482813e-01
-6.03645312e-08,1.84506250e-01
-6.03245312e-08,1.84498438e-01
-6.02845312e-08,1.84498438e-01
-6.02445313e-08,1.84504688e-01
-6.02045312e-08,1.84492188e-01
-6.01645312e-08,1.84510937e-01
-6.01245312e-08,1.84487500e-01
-6.00845312e-08,1.84517188e-01
-6.00445312e-08,1.84478125e-01
-6.00045312e-08,1.84532813e-01
-5.99645313e-08,1.84442188e-01
-5.99245312e-08,1.84712500e-01
-5.98845312e-08,1.84950000e-01
-5.98445312e-08,1.84875000e-01
-5.98045312e-08,1.84915625e-01
-5.97645312e-08,1.84890625e-01
-5.97245312e-08,1.84906250e-01
-5.96845313e-08,1.84896875e-01
-5.96445312e-08,1.84900000e-01
-5.96045312e-08,1.84901563e-01
-5.95645312e-08,1.84895313e-01
-5.95245312e-08,1.84909375e-01
-5.94845312e-08,1.84885938e-01
-5.94445312e-08,1.84925000e-01
-5.94045312e-08,1.84850000e-01
-5.93645312e-08,1.85103125e-01
-5.93245312e-08,1.85359375e-01
-5.92845312e-08,1.85265625e-01
-5.92445312e-08,1.85325000e-01
-5.92045312e-08,1.85279688e-01
-5.91645312e-08,1.85317188e-01
-5.91245312e-08,1.85284375e-01
-5.90845312e-08,1.85314063e-01
-5.90445312e-08,1.85285937e-01
-5.90045312e-08,1.85314063e-01
-5.89645312e-08,1.85287500e-01
-5.89245312e-08,1.85314063e-01
-5.88845312e-08,1.85285937e-01
-5.88445312e-08,1.85315625e-01
-5.88045312e-08,1.85281250e-01
-5.87645312e-08,1.85323438e-01
-5.87245312e-08,1.85267188e-01
-5.86845312e-08,1.85356250e-01
-5.86445312e-08,1.85090625e-01
-5.86045312e-08,1.84846875e-01
-5.85645312e-08,1.84929687e-01
-5.85245312e-08,1.84879688e-01
-5.84845312e-08,1.84915625e-01
-5.84445312e-08,1.84887500e-01
-5.84045312e-08,1.84910938e-01
-5.83645312e-08,1.84890625e-01
-5.83245312e-08,1.84909375e-01
-5.82845312e-08,1.84892187e-01
-5.82445312e-08,1.84907813e-01
-5.82045312e-08,1.84892187e-01
-5.81645312e-08,1.84907813e-01
-5.81245312e-08,1.84892187e-01
-5.80845312e-08,1.84907813e-01
-5.80445312e-08,1.84892187e-01
-5.80045312e-08,1.84907813e-01
-5.79645312e-08,1.84892187e-01
-5.79245312e-08,1.84907813e-01
-5.78845312e-08,1.84892187e-01
-5.78445312e-08,1.84907813e-01
-5.78045312e-08,1.84892187e-01
-5.77645312e-08,1.84907813e-01
-5.77245312e-08,1.84892187e-01
-5.76845312e-08,1.84909375e-01
-5.76445312e-08,1.84890625e-01
-5.76045312e-08,1.84909375e-01
-5.75645312e-08,1.84890625e-01
-5.75245312e-08,1.84910938e-01
-5.74845312e-08,1.84889063e-01
-5.74445312e-08,1.84912500e-01
-5.74045312e-08,1.84885938e-01
-5.73645312e-08,1.84915625e-01
-5.73245312e-08,1.84882812e-01
-5.72845312e-08,1.84920313e-01
-5.72445312e-08,1.84873438e-01
-5.72045312e-08,1.84935938e-01
-5.71645312e-08,1.84839063e-01
-5.71245312e-08,1.85114063e-01
-5.70845312e-08,1.85346875e-01
-5.70445312e-08,1.85276563e-01
-5.70045312e-08,1.85312500e-01
-5.69645312e-08,1.85292188e-01
-5.69245312e-08,1.85304688e-01
-5.68845312e-08,1.85298437e-01
-5.68445312e-08,1.85298437e-01
-5.68045312e-08,1.85304688e-01
-5.67645312e-08,1.85292188e-01
-5.67245312e-08,1.85310937e-01
-5.66845312e-08,1.85282813e-01
-5.66445312e-08,1.85326563e-01
-5.66045312e-08,1.85248438e-01
-5.65645312e-08,1.85504688e-01
-5.65245312e-08,1.85756250e-01
-5.64845312e-08,1.85667187e-01
-5.64445312e-08,1.85723438e-01
-5.64045312e-08,1.85681250e-01
-5.63645312e-08,1.85715625e-01
-5.63245312e-08,1.85685938e-01
-5.62845312e-08,1.85712500e-01
-5.62445312e-08,1.85689063e-01
-5.62045312e-08,1.85710938e-01
-5.61645312e-08,1.85689063e-01
-5.61245312e-08,1.85710938e-01
-5.60845312e-08,1.85687500e-01
-5.60445312e-08,1.85715625e-01
-5.60045312e-08,1.85681250e-01
-5.59645312e-08,1.85728125e-01
-5.59245312e-08,1.85648438e-01
-5.58845312e-08,1.85904687e-01
-5.58445312e-08,1.86159375e-01
-5.58045312e-08,1.86064063e-01
-5.57645312e-08,1.86128125e-01
-5.57245312e-08,1.86076563e-01
-5.56845312e-08,1.86121875e-01
-5.56445312e-08,1.86078125e-01
-5.56045312e-08,1.86123438e-01
-5.55645312e-08,1.86073437e-01
-5.55245312e-08,1.86129688e-01
-5.54845312e-08,1.86060937e-01
-5.54445312e-08,1.86164063e-01
-5.54045312e-08,1.85882812e-01
-5.53645312e-08,1.85656250e-01
-5.53245312e-08,1.85720313e-01
-5.52845312e-08,1.85689063e-01
-5.52445312e-08,1.85704688e-01
-5.52045312e-08,1.85698438e-01
-5.51645312e-08,1.85698438e-01
-5.51245312e-08,1.85703125e-01
-5.50845312e-08,1.85693750e-01
-5.50445312e-08,1.85707813e-01
-5.50045312e-08,1.85689063e-01
-5.49645312e-08,1.85714062e-01
-5.49245312e-08,1.85682813e-01
-5.48845312e-08,1.85723438e-01
-5.48445312e-08,1.85665625e-01
-5.48045312e-08,1.85759375e-01
-5.47645312e-08,1.85485938e-01
-5.47245312e-08,1.85253125e-01
-5.46845312e-08,1.85321875e-01
-5.46445312e-08,1.85289063e-01
-5.46045312e-08,1.85304688e-01
-5.45645312e-08,1.85301563e-01
-5.45245312e-08,1.85293750e-01
-5.44845312e-08,1.85314063e-01
-5.44445312e-08,1.85275000e-01
-5.44045312e-08,1.85351563e-01
-5.43645312e-08,1.85093750e-01
-5.43245312e-08,1.84845312e-01
-5.42845312e-08,1.84928125e-01
-5.42445312e-08,1.84882812e-01
-5.42045312e-08,1.84910938e-01
-5.41645312e-08,1.84895313e-01
-5.41245312e-08,1.84898438e-01
-5.40845312e-08,1.84907813e-01
-5.40445312e-08,1.84881250e-01
-5.40045312e-08,1.84945313e-01
-5.39645312e-08,1.84700000e-01
-5.39245312e-08,1.84439063e-01
-5.38845312e-08,1.84535937e-01
-5.38445312e-08,1.84475000e-01
-5.38045312e-08,1.84518750e-01
-5.37645312e-08,1.84485938e-01
-5.37245312e-08,1.84510937e-01
-5.36845312e-08,1.84493750e-01
-5.36445312e-08,1.84501562e-01
-5.36045312e-08,1.84504688e-01
-5.35645312e-08,1.84484375e-01
-5.35245312e-08,1.84540625e-01
-5.34845312e-08,1.84306250e-01
-5.34445312e-08,1.84032813e-01
-5.34045312e-08,1.84142187e-01
-5.33645312e-08,1.84067188e-01
-5.33245312e-08,1.84128125e-01
-5.32845312e-08,1.84076563e-01
-5.32445312e-08,1.84121875e-01
-5.32045312e-08,1.84079688e-01
-5.31645312e-08,1.84118750e-01
-5.31245312e-08,1.84082812e-01
-5.30845312e-08,1.84115625e-01
-5.30445312e-08,1.84084375e-01
-5.30045312e-08,1.84114063e-01
-5.29645312e-08,1.84085938e-01
-5.29245312e-08,1.84112500e-01
-5.28845312e-08,1.84087500e-01
-5.28445312e-08,1.84110938e-01
-5.28045312e-08,1.84089063e-01
-5.27645312e-08,1.84110938e-01
-5.27245312e-08,1.84090625e-01
-5.26845312e-08,1.84109375e-01
-5.26445312e-08,1.84090625e-01
-5.26045312e-08,1.84107812e-01
-5.25645312e-08,1.84092188e-01
-5.25245312e-08,1.84106250e-01
-5.24845312e-08,1.84093750e-01
-5.24445312e-08,1.84104688e-01
-5.24045312e-08,1.84096875e-01
-5.23645312e-08,1.84100000e-01
-5.23245312e-08,1.84103125e-01
-5.22845312e-08,1.84092188e-01
-5.22445312e-08,1.84117188e-01
-5.22045312e-08,1.84057813e-01
-5.21645312e-08,1.84295313e-01
-5.21245312e-08,1.84567188e-01
-5.20845312e-08,1.84457813e-01
-5.20445312e-08,1.84532813e-01
-5.20045312e-08,1.84471875e-01
-5.19645312e-08,1.84525000e-01
-5.19245312e-08,1.84476562e-01
-5.18845312e-08,1.84521875e-01
-5.18445312e-08,1.84479688e-01
-5.18045312e-08,1.84520313e-01
-5.17645312e-08,1.84479688e-01
-5.17245312e-08,1.84518750e-01
-5.16845312e-08,1.84481250e-01
-5.16445312e-08,1.84518750e-01
-5.16045312e-08,1.84481250e-01
-5.15645312e-08,1.84518750e-01
-5.15245313e-08,1.84481250e-01
-5.14845312e-08,1.84518750e-01
-5.14445312e-08,1.84481250e-01
-5.14045312e-08,1.84518750e-01
-5.13645312e-08,1.84481250e-01
-5.13245312e-08,1.84518750e-01
-5.12845312e-08,1.84481250e-01
-5.12445312e-08,1.84518750e-01
-5.12045312e-08,1.84479688e-01
-5.11645312e-08,1.84520313e-01
-5.11245312e-08,1.84478125e-01
-5.10845312e-08,1.84521875e-01
-5.10445312e-08,1.84476562e-01
-5.10045312e-08,1.84525000e-01
-5.09645312e-08,1.84473438e-01
-5.09245312e-08,1.84528125e-01
-5.08845312e-08,1.84468750e-01
-5.08445312e-08,1.84537500e-01
-5.08045312e-08,1.84453125e-01
-5.07645312e-08,1.84573437e-01
-5.07245312e-08,1.84273437e-01
-5.06845312e-08,1.84065625e-01
-5.06445312e-08,1.84109375e-01
-5.06045312e-08,1.84100000e-01
-5.05645312e-08,1.84092188e-01
-5.05245312e-08,1.84112500e-01
-5.04845312e-08,1.84081250e-01
-5.04445312e-08,1.84125000e-01
-5.04045312e-08,1.84064063e-01
-5.03645312e-08,1.84162500e-01
-5.03245312e-08,1.83884375e-01
-5.02845312e-08,1.83654687e-01
-5.02445312e-08,1.83720313e-01
-5.02045312e-08,1.83690625e-01
-5.01645312e-08,1.83703125e-01
-5.01245312e-08,1.83701562e-01
-5.00845312e-08,1.83695313e-01
-5.00445312e-08,1.83709375e-01
-5.00045312e-08,1.83685938e-01
-4.99645312e-08,1.83720313e-01
-4.99245312e-08,1.83670313e-01
-4.98845312e-08,1.83756250e-01
-4.98445312e-08,1.83490625e-01
-4.98045312e-08,1.83248437e-01
-4.97645312e-08,1.83326563e-01
-4.97245312e-08,1.83282813e-01
-4.96845312e-08,1.83312500e-01
-4.96445312e-08,1.83292188e-01
-4.96045313e-08,1.83306250e-01
-4.95645312e-08,1.83296875e-01
-4.95245312e-08,1.83301563e-01
-4.94845312e-08,1.83300000e-01
-4.94445312e-08,1.83300000e-01
-4.94045312e-08,1.83301563e-01
-4.93645312e-08,1.83296875e-01
-4.93245313e-08,1.83304688e-01
-4.92845312e-08,1.83293750e-01
-4.92445312e-08,1.83306250e-01
-4.92045312e-08,1.83292188e-01
-4.91645312e-08,1.83310937e-01
-4.91245312e-08,1.83287500e-01
-4.90845312e-08,1.83315625e-01
-4.90445312e-08,1.83278125e-01
-4.90045312e-08,1.83331250e-01
-4.89645312e-08,1.83242188e-01
-4.89245312e-08,1.83510937e-01
-4.88845312e-08,1.83751563e-01
-4.88445312e-08,1.83673438e-01
-4.88045312e-08,1.83717188e-01
-4.87645312e-08,1.83687500e-01
-4.87245312e-08,1.83707813e-01
-4.86845312e-08,1.83693750e-01
-4.86445312e-08,1.83703125e-01
-4.86045312e-08,1.83698438e-01
-4.85645312e-08,1.83700000e-01
-4.85245312e-08,1.83701562e-01
-4.84845312e-08,1.83696875e-01
-4.84445312e-08,1.83704688e-01
-4.84045312e-08,1.83692187e-01
-4.83645312e-08,1.83710938e-01
-4.83245312e-08,1.83682813e-01
-4.82845312e-08,1.83726562e-01
-4.82445312e-08,1.83648438e-01
-4.82045312e-08,1.83904687e-01
-4.81645312e-08,1.84156250e-01
-4.81245312e-08,1.84067188e-01
-4.80845312e-08,1.84123438e-01
-4.80445312e-08,1.84081250e-01
-4.80045312e-08,1.84115625e-01
-4.79645312e-08,1.84087500e-01
-4.79245312e-08,1.84110938e-01
-4.78845312e-08,1.84090625e-01
-4.78445312e-08,1.84109375e-01
-4.78045312e-08,1.84092188e-01
-4.77645312e-08,1.84107812e-01
-4.77245312e-08,1.84092188e-01
-4.76845313e-08,1.84106250e-01
-4.76445312e-08,1.84093750e-01
-4.76045312e-08,1.84106250e-01
-4.75645312e-08,1.84093750e-01
-4.75245312e-08,1.84106250e-01
-4.74845312e-08,1.84093750e-01
-4.74445312e-08,1.84106250e-01
-4.74045313e-08,1.84093750e-01
-4.73645312e-08,1.84106250e-01
-4.73245312e-08,1.84092188e-01
-4.72845312e-08,1.84107812e-01
-4.72445312e-08,1.84090625e-01
-4.72045312e-08,1.84110938e-01
-4.71645312e-08,1.84085938e-01
-4.71245313e-08,1.84118750e-01
-4.70845312e-08,1.84071875e-01
-4.70445312e-08,1.84153125e-01
-4.70045312e-08,1.83893750e-01
-4.69645312e-08,1.83642187e-01
-4.69245312e-08,1.83732813e-01
-4.68845312e-08,1.83675000e-01
-4.68445312e-08,1.83720313e-01
-4.68045312e-08,1.83682813e-01
-4.67645312e-08,1.83715625e-01
-4.67245312e-08,1.83685938e-01
-4.66845312e-08,1.83714062e-01
-4.66445312e-08,1.83685938e-01
-4.66045312e-08,1.83714062e-01
-4.65645312e-08,1.83685938e-01
-4.65245312e-08,1.83714062e-01
-4.64845312e-08,1.83684375e-01
-4.64445312e-08,1.83715625e-01
-4.64045312e-08,1.83682813e-01
-4.63645312e-08,1.83718750e-01
-4.63245312e-08,1.83678125e-01
-4.62845312e-08,1.83728125e-01
-4.62445312e-08,1.83662500e-01
-4.62045312e-08,1.83762500e-01
-4.61645312e-08,1.83484375e-01
-4.61245312e-08,1.83253125e-01
-4.60845312e-08,1.83321875e-01
-4.60445313e-08,1.83287500e-01
-4.60045312e-08,1.83307813e-01
-4.59645312e-08,1.83295313e-01
-4.59245312e-08,1.83301563e-01
-4.58845312e-08,1.83300000e-01
-4.58445312e-08,1.83298437e-01
-4.58045312e-08,1.83303125e-01
-4.57645313e-08,1.83295313e-01
-4.57245312e-08,1.83306250e-01
-4.56845312e-08,1.83292188e-01
-4.56445312e-08,1.83309375e-01
-4.56045312e-08,1.83289063e-01
-4.55645312e-08,1.83314063e-01
-4.55245312e-08,1.83282813e-01
-4.54845313e-08,1.83321875e-01
-4.54445312e-08,1.83267188e-01
-4.54045312e-08,1.83357812e-01
-4.53645312e-08,1.83089063e-01
-4.53245312e-08,1.82850000e-01
-4.52845312e-08,1.82926563e-01
-4.52445312e-08,1.82884375e-01
-4.52045313e-08,1.82910938e-01
-4.51645312e-08,1.82893750e-01
-4.51245312e-08,1.82903125e-01
-4.50845312e-08,1.82898438e-01
-4.50445312e-08,1.82898438e-01
-4.50045312e-08,1.82903125e-01
-4.49645312e-08,1.82893750e-01
-4.49245313e-08,1.82910938e-01
-4.48845312e-08,1.82884375e-01
-4.48445312e-08,1.82926563e-01
-4.48045312e-08,1.82848438e-01
-4.47645312e-08,1.83104688e-01
-4.47245312e-08,1.83356250e-01
-4.46845312e-08,1.83267188e-01
-4.46445312e-08,1.83321875e-01
-4.46045312e-08,1.83282813e-01
-4.45645312e-08,1.83314063e-01
-4.45245312e-08,1.83289063e-01
-4.44845312e-08,1.83309375e-01
-4.44445312e-08,1.83292188e-01
-4.44045312e-08,1.83306250e-01
-4.43645312e-08,1.83295313e-01
-4.43245312e-08,1.83303125e-01
-4.42845312e-08,1.83296875e-01
-4.42445312e-08,1.83301563e-01
-4.42045312e-08,1.83300000e-01
-4.41645312e-08,1.83298437e-01
-4.41245313e-08,1.83303125e-01
-4.40845312e-08,1.83293750e-01
-4.40445312e-08,1.83309375e-01
-4.40045312e-08,1.83285937e-01
-4.39645312e-08,1.83325000e-01
-4.39245312e-08,1.83250000e-01
-4.38845312e-08,1.83503125e-01
-4.38445313e-08,1.83759375e-01
-4.38045312e-08,1.83665625e-01
-4.37645312e-08,1.83725000e-01
-4.37245312e-08,1.83679687e-01
-4.36845312e-08,1.83717188e-01
-4.36445312e-08,1.83684375e-01
-4.36045312e-08,1.83714062e-01
-4.35645313e-08,1.83687500e-01
-4.35245312e-08,1.83710938e-01
-4.34845312e-08,1.83689062e-01
-4.34445312e-08,1.83709375e-01
-4.34045312e-08,1.83690625e-01
-4.33645312e-08,1.83709375e-01
-4.33245312e-08,1.83692187e-01
-4.32845313e-08,1.83707813e-01
-4.32445312e-08,1.83692187e-01
-4.32045312e-08,1.83706250e-01
-4.31645312e-08,1.83693750e-01
-4.31245312e-08,1.83706250e-01
-4.30845312e-08,1.83693750e-01
-4.30445312e-08,1.83706250e-01
-4.30045313e-08,1.83693750e-01
-4.29645312e-08,1.83706250e-01
-4.29245312e-08,1.83695313e-01
-4.28845312e-08,1.83704688e-01
-4.28445312e-08,1.83695313e-01
-4.28045312e-08,1.83704688e-01
-4.27645312e-08,1.83695313e-01
-4.27245313e-08,1.83704688e-01
-4.26845312e-08,1.83695313e-01
-4.26445312e-08,1.83704688e-01
-4.26045312e-08,1.83695313e-01
-4.25645312e-08,1.83703125e-01
-4.25245312e-08,1.83696875e-01
-4.24845312e-08,1.83703125e-01
-4.24445312e-08,1.83696875e-01
-4.24045312e-08,1.83703125e-01
-4.23645312e-08,1.83696875e-01
-4.23245312e-08,1.83703125e-01
-4.22845312e-08,1.83696875e-01
-4.22445312e-08,1.83703125e-01
-4.22045313e-08,1.83698438e-01
-4.21645312e-08,1.83701562e-01
-4.21245312e-08,1.83698438e-01
-4.20845312e-08,1.83701562e-01
-4.20445312e-08,1.83698438e-01
-4.20045312e-08,1.83701562e-01
-4.19645312e-08,1.83700000e-01
-4.19245313e-08,1.83700000e-01
-4.18845312e-08,1.83700000e-01
-4.18445312e-08,1.83698438e-01
-4.18045312e-08,1.83701562e-01
-4.17645312e-08,1.83696875e-01
-4.17245312e-08,1.83704688e-01
-4.16845312e-08,1.83693750e-01
-4.16445313e-08,1.83709375e-01
-4.16045312e-08,1.83685938e-01
-4.15645312e-08,1.83723438e-01
-4.15245312e-08,1.83651563e-01
-4.14845312e-08,1.83901563e-01
-4.14445312e-08,1.84160938e-01
-4.14045312e-08,1.84062500e-01
-4.13645313e-08,1.84129687e-01
-4.13245312e-08,1.84075000e-01
-4.12845312e-08,1.84121875e-01
-4.12445312e-08,1.84078125e-01
-4.12045312e-08,1.84121875e-01
-4.11645312e-08,1.84078125e-01
-4.11245312e-08,1.84123438e-01
-4.10845313e-08,1.84071875e-01
-4.10445312e-08,1.84137500e-01
-4.10045312e-08,1.84039063e-01
-4.09645312e-08,1.84314063e-01
-4.09245312e-08,1.84550000e-01
-4.08845312e-08,1.84473438e-01
-4.08445312e-08,1.84518750e-01
-4.08045313e-08,1.84485938e-01
-4.07645312e-08,1.84512500e-01
-4.07245312e-08,1.84487500e-01
-4.06845312e-08,1.84514063e-01
-4.06445312e-08,1.84481250e-01
-4.06045312e-08,1.84526563e-01
-4.05645312e-08,1.84450000e-01
-4.05245312e-08,1.84703125e-01
-4.04845312e-08,1.84960938e-01
-4.04445312e-08,1.84862500e-01
-4.04045312e-08,1.84929687e-01
-4.03645312e-08,1.84875000e-01
-4.03245312e-08,1.84925000e-01
-4.02845313e-08,1.84875000e-01
-4.02445312e-08,1.84926563e-01
-4.02045312e-08,1.84870312e-01
-4.01645312e-08,1.84939063e-01
-4.01245312e-08,1.84835938e-01
-4.00845312e-08,1.85115625e-01
-4.00445312e-08,1.85346875e-01
-4.00045313e-08,1.85276563e-01
-3.99645312e-08,1.85314063e-01
-3.99245312e-08,1.85290625e-01
-3.98845312e-08,1.85306250e-01
-3.98445312e-08,1.85295313e-01
-3.98045312e-08,1.85303125e-01
-3.97645312e-08,1.85298437e-01
-3.97245313e-08,1.85301563e-01
-3.96845312e-08,1.85300000e-01
-3.96445312e-08,1.85300000e-01
-3.96045312e-08,1.85300000e-01
-3.95645312e-08,1.85298437e-01
-3.95245312e-08,1.85301563e-01
-3.94845312e-08,1.85298437e-01
-3.94445313e-08,1.85301563e-01
-3.94045312e-08,1.85298437e-01
-3.93645312e-08,1.85303125e-01
-3.93245312e-08,1.85296875e-01
-3.92845312e-08,1.85303125e-01
-3.92445312e-08,1.85296875e-01
-3.92045312e-08,1.85303125e-01
-3.91645313e-08,1.85296875e-01
-3.91245312e-08,1.85304688e-01
-3.90845312e-08,1.85295313e-01
-3.90445312e-08,1.85304688e-01
-3.90045312e-08,1.85295313e-01
-3.89645312e-08,1.85306250e-01
-3.89245312e-08,1.85293750e-01
-3.88845313e-08,1.85307813e-01
-3.88445312e-08,1.85292188e-01
-3.88045312e-08,1.85309375e-01
-3.87645312e-08,1.85289063e-01
-3.87245312e-08,1.85312500e-01
-3.86845312e-08,1.85284375e-01
-3.86445312e-08,1.85320313e-01
-3.86045313e-08,1.85268750e-01
-3.85645312e-08,1.85356250e-01
-3.85245312e-08,1.85090625e-01
