trails/0bdfa5e45fec98341abdd20552c140b4/aes_ch1_20250507120349765.csv

Model,MSO66B
Label,
Waveform Type,ANALOG
Horizontal Units,s
Sample Interval,4.00000000e-11
Record Length,10000
Zero Index,1599.19140625
Vertical Units,A
ANALOG_Thumbnail,
yOffset,1.84500000e-01
yPosition,8.40000000e-01

Labels,
TIME,CH1
-6.39676562e-08,1.96478125e-01
-6.39276562e-08,1.96545313e-01
-6.38876562e-08,1.96301562e-01
-6.38476563e-08,1.96035938e-01
-6.38076562e-08,1.96140625e-01
-6.37676563e-08,1.96068750e-01
-6.37276562e-08,1.96128125e-01
-6.36876562e-08,1.96073438e-01
-6.36476562e-08,1.96128125e-01
-6.36076562e-08,1.96068750e-01
-6.35676563e-08,1.96139063e-01
-6.35276562e-08,1.96037500e-01
-6.34876562e-08,1.96315625e-01
-6.34476562e-08,1.96548438e-01
-6.34076562e-08,1.96475000e-01
-6.33676562e-08,1.96515625e-01
-6.33276562e-08,1.96487500e-01
-6.32876563e-08,1.96509375e-01
-6.32476562e-08,1.96492187e-01
-6.32076562e-08,1.96507813e-01
-6.31676562e-08,1.96493750e-01
-6.31276562e-08,1.96506250e-01
-6.30876562e-08,1.96493750e-01
-6.30476562e-08,1.96506250e-01
-6.30076563e-08,1.96492187e-01
-6.29676562e-08,1.96507813e-01
-6.29276562e-08,1.96490625e-01
-6.28876562e-08,1.96510938e-01
-6.28476562e-08,1.96487500e-01
-6.28076562e-08,1.96515625e-01
-6.27676562e-08,1.96479687e-01
-6.27276563e-08,1.96529687e-01
-6.26876562e-08,1.96445312e-01
-6.26476562e-08,1.96707812e-01
-6.26076562e-08,1.96954688e-01
-6.25676562e-08,1.96870313e-01
-6.25276562e-08,1.96920312e-01
-6.24876562e-08,1.96884375e-01
-6.24476563e-08,1.96912500e-01
-6.24076562e-08,1.96889063e-01
-6.23676562e-08,1.96907813e-01
-6.23276562e-08,1.96892188e-01
-6.22876562e-08,1.96906250e-01
-6.22476562e-08,1.96895313e-01
-6.22076562e-08,1.96904688e-01
-6.21676563e-08,1.96896875e-01
-6.21276562e-08,1.96903125e-01
-6.20876562e-08,1.96896875e-01
-6.20476562e-08,1.96901563e-01
-6.20076562e-08,1.96898438e-01
-6.19676562e-08,1.96900000e-01
-6.19276562e-08,1.96900000e-01
-6.18876563e-08,1.96898438e-01
-6.18476562e-08,1.96903125e-01
-6.18076562e-08,1.96895313e-01
-6.17676562e-08,1.96906250e-01
-6.17276562e-08,1.96890625e-01
-6.16876562e-08,1.96915625e-01
-6.16476562e-08,1.96875000e-01
-6.16076563e-08,1.96950000e-01
-6.15676562e-08,1.96696875e-01
-6.15276562e-08,1.96440625e-01
-6.14876562e-08,1.96535938e-01
-6.14476562e-08,1.96475000e-01
-6.14076563e-08,1.96520313e-01
-6.13676562e-08,1.96482812e-01
-6.13276563e-08,1.96515625e-01
-6.12876562e-08,1.96485938e-01
-6.12476562e-08,1.96512500e-01
-6.12076562e-08,1.96487500e-01
-6.11676562e-08,1.96510938e-01
-6.11276563e-08,1.96489063e-01
-6.10876562e-08,1.96510938e-01
-6.10476563e-08,1.96490625e-01
-6.10076562e-08,1.96509375e-01
-6.09676562e-08,1.96490625e-01
-6.09276562e-08,1.96509375e-01
-6.08876562e-08,1.96490625e-01
-6.08476563e-08,1.96507813e-01
-6.08076562e-08,1.96492187e-01
-6.07676563e-08,1.96507813e-01
-6.07276562e-08,1.96492187e-01
-6.06876562e-08,1.96507813e-01
-6.06476562e-08,1.96492187e-01
-6.06076562e-08,1.96507813e-01
-6.05676563e-08,1.96492187e-01
-6.05276562e-08,1.96507813e-01
-6.04876563e-08,1.96492187e-01
-6.04476562e-08,1.96507813e-01
-6.04076562e-08,1.96492187e-01
-6.03676562e-08,1.96507813e-01
-6.03276562e-08,1.96492187e-01
-6.02876563e-08,1.96507813e-01
-6.02476562e-08,1.96492187e-01
-6.02076563e-08,1.96507813e-01
-6.01676562e-08,1.96492187e-01
-6.01276562e-08,1.96509375e-01
-6.00876562e-08,1.96490625e-01
-6.00476562e-08,1.96509375e-01
-6.00076563e-08,1.96490625e-01
-5.99676562e-08,1.96509375e-01
-5.99276563e-08,1.96489063e-01
-5.98876562e-08,1.96510938e-01
-5.98476562e-08,1.96487500e-01
-5.98076562e-08,1.96512500e-01
-5.97676562e-08,1.96485938e-01
-5.97276563e-08,1.96517187e-01
-5.96876562e-08,1.96481250e-01
-5.96476563e-08,1.96525000e-01
-5.96076562e-08,1.96465625e-01
-5.95676562e-08,1.96559375e-01
-5.95276562e-08,1.96287500e-01
-5.94876562e-08,1.96050000e-01
-5.94476562e-08,1.96126563e-01
-5.94076562e-08,1.96082813e-01
-5.93676562e-08,1.96112500e-01
-5.93276562e-08,1.96090625e-01
-5.92876562e-08,1.96106250e-01
-5.92476562e-08,1.96093750e-01
-5.92076562e-08,1.96104688e-01
-5.91676562e-08,1.96096875e-01
-5.91276562e-08,1.96103125e-01
-5.90876562e-08,1.96096875e-01
-5.90476562e-08,1.96101562e-01
-5.90076562e-08,1.96098438e-01
-5.89676562e-08,1.96101562e-01
-5.89276562e-08,1.96098438e-01
-5.88876562e-08,1.96100000e-01
-5.88476562e-08,1.96100000e-01
-5.88076562e-08,1.96100000e-01
-5.87676562e-08,1.96100000e-01
-5.87276562e-08,1.96100000e-01
-5.86876562e-08,1.96100000e-01
-5.86476562e-08,1.96100000e-01
-5.86076562e-08,1.96100000e-01
-5.85676562e-08,1.96100000e-01
-5.85276562e-08,1.96101562e-01
-5.84876562e-08,1.96098438e-01
-5.84476562e-08,1.96101562e-01
-5.84076562e-08,1.96098438e-01
-5.83676562e-08,1.96101562e-01
-5.83276562e-08,1.96098438e-01
-5.82876562e-08,1.96101562e-01
-5.82476562e-08,1.96098438e-01
-5.82076562e-08,1.96101562e-01
-5.81676562e-08,1.96098438e-01
-5.81276562e-08,1.96101562e-01
-5.80876562e-08,1.96098438e-01
-5.80476562e-08,1.96101562e-01
-5.80076562e-08,1.96098438e-01
-5.79676562e-08,1.96101562e-01
-5.79276562e-08,1.96096875e-01
-5.78876562e-08,1.96103125e-01
-5.78476562e-08,1.96096875e-01
-5.78076562e-08,1.96103125e-01
-5.77676562e-08,1.96096875e-01
-5.77276562e-08,1.96103125e-01
-5.76876562e-08,1.96096875e-01
-5.76476562e-08,1.96103125e-01
-5.76076562e-08,1.96095313e-01
-5.75676562e-08,1.96104688e-01
-5.75276562e-08,1.96095313e-01
-5.74876562e-08,1.96104688e-01
-5.74476562e-08,1.96095313e-01
-5.74076562e-08,1.96106250e-01
-5.73676562e-08,1.96093750e-01
-5.73276562e-08,1.96107813e-01
-5.72876562e-08,1.96092188e-01
-5.72476562e-08,1.96109375e-01
-5.72076562e-08,1.96089063e-01
-5.71676562e-08,1.96112500e-01
-5.71276562e-08,1.96084375e-01
-5.70876562e-08,1.96121875e-01
-5.70476562e-08,1.96068750e-01
-5.70076562e-08,1.96156250e-01
-5.69676562e-08,1.95890625e-01
-5.69276562e-08,1.95646875e-01
-5.68876562e-08,1.95729687e-01
-5.68476562e-08,1.95681250e-01
-5.68076562e-08,1.95714063e-01
-5.67676562e-08,1.95689063e-01
-5.67276562e-08,1.95707813e-01
-5.66876562e-08,1.95693750e-01
-5.66476562e-08,1.95704688e-01
-5.66076562e-08,1.95696875e-01
-5.65676562e-08,1.95701563e-01
-5.65276562e-08,1.95701563e-01
-5.64876562e-08,1.95695312e-01
-5.64476562e-08,1.95709375e-01
-5.64076562e-08,1.95681250e-01
-5.63676562e-08,1.95742187e-01
-5.63276562e-08,1.95504687e-01
-5.62876562e-08,1.95231250e-01
-5.62476562e-08,1.95345313e-01
-5.62076562e-08,1.95262500e-01
-5.61676562e-08,1.95335938e-01
-5.61276562e-08,1.95260938e-01
-5.60876562e-08,1.95345313e-01
-5.60476562e-08,1.95231250e-01
-5.60076562e-08,1.95521875e-01
-5.59676562e-08,1.95742187e-01
-5.59276562e-08,1.95681250e-01
-5.58876562e-08,1.95709375e-01
-5.58476562e-08,1.95695312e-01
-5.58076562e-08,1.95701563e-01
-5.57676562e-08,1.95700000e-01
-5.57276562e-08,1.95696875e-01
-5.56876562e-08,1.95704688e-01
-5.56476562e-08,1.95693750e-01
-5.56076562e-08,1.95707813e-01
-5.55676562e-08,1.95690625e-01
-5.55276562e-08,1.95712500e-01
-5.54876562e-08,1.95681250e-01
-5.54476562e-08,1.95728125e-01
-5.54076562e-08,1.95646875e-01
-5.53676562e-08,1.95906250e-01
-5.53276562e-08,1.96156250e-01
-5.52876562e-08,1.96067188e-01
-5.52476562e-08,1.96123437e-01
-5.52076562e-08,1.96081250e-01
-5.51676562e-08,1.96115625e-01
-5.51276562e-08,1.96085938e-01
-5.50876562e-08,1.96112500e-01
-5.50476562e-08,1.96087500e-01
-5.50076562e-08,1.96112500e-01
-5.49676562e-08,1.96087500e-01
-5.49276562e-08,1.96112500e-01
-5.48876562e-08,1.96087500e-01
-5.48476562e-08,1.96114063e-01
-5.48076562e-08,1.96084375e-01
-5.47676562e-08,1.96118750e-01
-5.47276562e-08,1.96076562e-01
-5.46876562e-08,1.96132813e-01
-5.46476562e-08,1.96042188e-01
-5.46076562e-08,1.96310938e-01
-5.45676562e-08,1.96551562e-01
-5.45276562e-08,1.96471875e-01
-5.44876562e-08,1.96518750e-01
-5.44476562e-08,1.96485938e-01
-5.44076562e-08,1.96510938e-01
-5.43676562e-08,1.96490625e-01
-5.43276562e-08,1.96507813e-01
-5.42876562e-08,1.96492187e-01
-5.42476562e-08,1.96506250e-01
-5.42076562e-08,1.96493750e-01
-5.41676562e-08,1.96504687e-01
-5.41276562e-08,1.96495313e-01
-5.40876562e-08,1.96504687e-01
-5.40476562e-08,1.96495313e-01
-5.40076562e-08,1.96504687e-01
-5.39676562e-08,1.96495313e-01
-5.39276562e-08,1.96503125e-01
-5.38876562e-08,1.96496875e-01
-5.38476562e-08,1.96503125e-01
-5.38076562e-08,1.96496875e-01
-5.37676562e-08,1.96503125e-01
-5.37276562e-08,1.96496875e-01
-5.36876562e-08,1.96503125e-01
-5.36476562e-08,1.96496875e-01
-5.36076562e-08,1.96503125e-01
-5.35676562e-08,1.96496875e-01
-5.35276562e-08,1.96503125e-01
-5.34876562e-08,1.96496875e-01
-5.34476562e-08,1.96503125e-01
-5.34076562e-08,1.96496875e-01
-5.33676562e-08,1.96503125e-01
-5.33276562e-08,1.96496875e-01
-5.32876562e-08,1.96503125e-01
-5.32476562e-08,1.96496875e-01
-5.32076562e-08,1.96503125e-01
-5.31676562e-08,1.96496875e-01
-5.31276562e-08,1.96503125e-01
-5.30876562e-08,1.96496875e-01
-5.30476562e-08,1.96503125e-01
-5.30076562e-08,1.96496875e-01
-5.29676562e-08,1.96503125e-01
-5.29276562e-08,1.96496875e-01
-5.28876562e-08,1.96503125e-01
-5.28476562e-08,1.96496875e-01
-5.28076562e-08,1.96503125e-01
-5.27676562e-08,1.96496875e-01
-5.27276562e-08,1.96503125e-01
-5.26876562e-08,1.96496875e-01
-5.26476562e-08,1.96503125e-01
-5.26076562e-08,1.96496875e-01
-5.25676562e-08,1.96503125e-01
-5.25276562e-08,1.96496875e-01
-5.24876562e-08,1.96503125e-01
-5.24476562e-08,1.96496875e-01
-5.24076562e-08,1.96504687e-01
-5.23676562e-08,1.96495313e-01
-5.23276562e-08,1.96504687e-01
-5.22876562e-08,1.96495313e-01
-5.22476562e-08,1.96504687e-01
-5.22076562e-08,1.96495313e-01
-5.21676562e-08,1.96504687e-01
-5.21276562e-08,1.96495313e-01
-5.20876563e-08,1.96504687e-01
-5.20476562e-08,1.96493750e-01
-5.20076562e-08,1.96506250e-01
-5.19676562e-08,1.96493750e-01
-5.19276562e-08,1.96506250e-01
-5.18876562e-08,1.96493750e-01
-5.18476562e-08,1.96507813e-01
-5.18076562e-08,1.96492187e-01
-5.17676562e-08,1.96509375e-01
-5.17276562e-08,1.96490625e-01
-5.16876562e-08,1.96510938e-01
-5.16476562e-08,1.96487500e-01
-5.16076562e-08,1.96514063e-01
-5.15676562e-08,1.96482812e-01
-5.15276562e-08,1.96521875e-01
-5.14876562e-08,1.96467188e-01
-5.14476562e-08,1.96557813e-01
-5.14076562e-08,1.96289062e-01
-5.13676562e-08,1.96048438e-01
-5.13276562e-08,1.96128125e-01
-5.12876562e-08,1.96081250e-01
-5.12476562e-08,1.96114063e-01
-5.12076562e-08,1.96089063e-01
-5.11676562e-08,1.96107813e-01
-5.11276562e-08,1.96093750e-01
-5.10876562e-08,1.96106250e-01
-5.10476562e-08,1.96095313e-01
-5.10076562e-08,1.96104688e-01
-5.09676562e-08,1.96096875e-01
-5.09276562e-08,1.96103125e-01
-5.08876562e-08,1.96096875e-01
-5.08476562e-08,1.96101562e-01
-5.08076562e-08,1.96098438e-01
-5.07676562e-08,1.96101562e-01
-5.07276562e-08,1.96098438e-01
-5.06876562e-08,1.96100000e-01
-5.06476562e-08,1.96100000e-01
-5.06076562e-08,1.96100000e-01
-5.05676562e-08,1.96100000e-01
-5.05276562e-08,1.96100000e-01
-5.04876562e-08,1.96100000e-01
-5.04476562e-08,1.96098438e-01
-5.04076562e-08,1.96101562e-01
-5.03676562e-08,1.96098438e-01
-5.03276562e-08,1.96101562e-01
-5.02876562e-08,1.96098438e-01
-5.02476562e-08,1.96103125e-01
-5.02076562e-08,1.96096875e-01
-5.01676563e-08,1.96103125e-01
-5.01276562e-08,1.96095313e-01
-5.00876562e-08,1.96104688e-01
-5.00476562e-08,1.96093750e-01
-5.00076562e-08,1.96107813e-01
-4.99676562e-08,1.96090625e-01
-4.99276562e-08,1.96112500e-01
-4.98876563e-08,1.96082813e-01
-4.98476562e-08,1.96126563e-01
-4.98076562e-08,1.96048438e-01
-4.97676562e-08,1.96304688e-01
-4.97276562e-08,1.96557813e-01
-4.96876562e-08,1.96465625e-01
-4.96476562e-08,1.96526563e-01
-4.96076562e-08,1.96478125e-01
-4.95676562e-08,1.96520313e-01
-4.95276562e-08,1.96479687e-01
-4.94876562e-08,1.96521875e-01
-4.94476562e-08,1.96475000e-01
-4.94076562e-08,1.96534375e-01
-4.93676562e-08,1.96442188e-01
-4.93276562e-08,1.96709375e-01
-4.92876562e-08,1.96953125e-01
-4.92476562e-08,1.96870313e-01
-4.92076562e-08,1.96921875e-01
-4.91676562e-08,1.96882813e-01
-4.91276562e-08,1.96915625e-01
-4.90876562e-08,1.96884375e-01
-4.90476562e-08,1.96915625e-01
-4.90076562e-08,1.96882813e-01
-4.89676562e-08,1.96918750e-01
-4.89276562e-08,1.96876563e-01
-4.88876562e-08,1.96932812e-01
-4.88476562e-08,1.96842188e-01
-4.88076562e-08,1.97110937e-01
-4.87676562e-08,1.97351563e-01
-4.87276562e-08,1.97271875e-01
-4.86876562e-08,1.97318750e-01
-4.86476562e-08,1.97285938e-01
-4.86076562e-08,1.97310938e-01
-4.85676562e-08,1.97290625e-01
-4.85276562e-08,1.97307813e-01
-4.84876562e-08,1.97293750e-01
-4.84476562e-08,1.97306250e-01
-4.84076562e-08,1.97295313e-01
-4.83676562e-08,1.97304688e-01
-4.83276562e-08,1.97295313e-01
-4.82876562e-08,1.97304688e-01
-4.82476563e-08,1.97296875e-01
-4.82076562e-08,1.97303125e-01
-4.81676562e-08,1.97296875e-01
-4.81276562e-08,1.97303125e-01
-4.80876562e-08,1.97296875e-01
-4.80476562e-08,1.97303125e-01
-4.80076562e-08,1.97296875e-01
-4.79676563e-08,1.97303125e-01
-4.79276562e-08,1.97298438e-01
-4.78876562e-08,1.97301562e-01
-4.78476562e-08,1.97298438e-01
-4.78076562e-08,1.97301562e-01
-4.77676562e-08,1.97298438e-01
-4.77276562e-08,1.97301562e-01
-4.76876563e-08,1.97298438e-01
-4.76476562e-08,1.97301562e-01
-4.76076562e-08,1.97298438e-01
-4.75676562e-08,1.97301562e-01
-4.75276562e-08,1.97298438e-01
-4.74876562e-08,1.97301562e-01
-4.74476562e-08,1.97298438e-01
-4.74076562e-08,1.97301562e-01
-4.73676562e-08,1.97298438e-01
-4.73276562e-08,1.97301562e-01
-4.72876562e-08,1.97296875e-01
-4.72476562e-08,1.97303125e-01
-4.72076562e-08,1.97296875e-01
-4.71676562e-08,1.97303125e-01
-4.71276562e-08,1.97295313e-01
-4.70876562e-08,1.97304688e-01
-4.70476562e-08,1.97293750e-01
-4.70076562e-08,1.97307813e-01
-4.69676562e-08,1.97289063e-01
-4.69276562e-08,1.97315625e-01
-4.68876562e-08,1.97276563e-01
-4.68476562e-08,1.97348438e-01
-4.68076562e-08,1.97098438e-01
-4.67676562e-08,1.96837500e-01
-4.67276562e-08,1.96939063e-01
-4.66876562e-08,1.96868750e-01
-4.66476562e-08,1.96926563e-01
-4.66076562e-08,1.96875000e-01
-4.65676562e-08,1.96926563e-01
-4.65276562e-08,1.96871875e-01
-4.64876562e-08,1.96932812e-01
-4.64476562e-08,1.96859375e-01
-4.64076562e-08,1.96965625e-01
-4.63676562e-08,1.96681250e-01
-4.63276563e-08,1.96456250e-01
-4.62876562e-08,1.96518750e-01
-4.62476562e-08,1.96490625e-01
-4.62076562e-08,1.96503125e-01
-4.61676562e-08,1.96500000e-01
-4.61276562e-08,1.96496875e-01
-4.60876562e-08,1.96506250e-01
-4.60476563e-08,1.96489063e-01
-4.60076562e-08,1.96517187e-01
-4.59676562e-08,1.96473438e-01
-4.59276562e-08,1.96553125e-01
-4.58876562e-08,1.96293750e-01
-4.58476562e-08,1.96043750e-01
-4.58076562e-08,1.96131250e-01
-4.57676563e-08,1.96078125e-01
-4.57276562e-08,1.96117188e-01
-4.56876562e-08,1.96085938e-01
-4.56476562e-08,1.96110937e-01
-4.56076562e-08,1.96090625e-01
-4.55676562e-08,1.96107813e-01
-4.55276562e-08,1.96092188e-01
-4.54876563e-08,1.96106250e-01
-4.54476562e-08,1.96093750e-01
-4.54076562e-08,1.96104688e-01
-4.53676562e-08,1.96095313e-01
-4.53276562e-08,1.96103125e-01
-4.52876562e-08,1.96096875e-01
-4.52476562e-08,1.96103125e-01
-4.52076562e-08,1.96096875e-01
-4.51676562e-08,1.96101562e-01
-4.51276562e-08,1.96098438e-01
-4.50876562e-08,1.96101562e-01
-4.50476562e-08,1.96100000e-01
-4.50076562e-08,1.96100000e-01
-4.49676562e-08,1.96100000e-01
-4.49276562e-08,1.96098438e-01
-4.48876562e-08,1.96101562e-01
-4.48476562e-08,1.96096875e-01
-4.48076562e-08,1.96103125e-01
-4.47676562e-08,1.96095313e-01
-4.47276562e-08,1.96106250e-01
-4.46876562e-08,1.96092188e-01
-4.46476562e-08,1.96109375e-01
-4.46076562e-08,1.96087500e-01
-4.45676562e-08,1.96118750e-01
-4.45276562e-08,1.96071875e-01
-4.44876562e-08,1.96153125e-01
-4.44476562e-08,1.95893750e-01
-4.44076563e-08,1.95643750e-01
-4.43676562e-08,1.95731250e-01
-4.43276562e-08,1.95678125e-01
-4.42876562e-08,1.95717188e-01
-4.42476562e-08,1.95685938e-01
-4.42076562e-08,1.95710938e-01
-4.41676562e-08,1.95690625e-01
-4.41276563e-08,1.95707813e-01
-4.40876562e-08,1.95693750e-01
-4.40476562e-08,1.95704688e-01
-4.40076562e-08,1.95696875e-01
-4.39676562e-08,1.95700000e-01
-4.39276562e-08,1.95701563e-01
-4.38876562e-08,1.95695312e-01
-4.38476563e-08,1.95710938e-01
-4.38076562e-08,1.95679688e-01
-4.37676562e-08,1.95745313e-01
-4.37276562e-08,1.95501563e-01
-4.36876562e-08,1.95235938e-01
-4.36476562e-08,1.95339062e-01
-4.36076562e-08,1.95270313e-01
-4.35676563e-08,1.95325000e-01
-4.35276562e-08,1.95278125e-01
-4.34876562e-08,1.95320313e-01
-4.34476562e-08,1.95281250e-01
-4.34076562e-08,1.95317188e-01
-4.33676562e-08,1.95282813e-01
-4.33276562e-08,1.95315625e-01
-4.32876563e-08,1.95284375e-01
-4.32476562e-08,1.95315625e-01
-4.32076562e-08,1.95284375e-01
-4.31676562e-08,1.95315625e-01
-4.31276562e-08,1.95284375e-01
-4.30876562e-08,1.95315625e-01
-4.30476562e-08,1.95284375e-01
-4.30076562e-08,1.95315625e-01
-4.29676562e-08,1.95282813e-01
-4.29276562e-08,1.95317188e-01
-4.28876562e-08,1.95281250e-01
-4.28476562e-08,1.95320313e-01
-4.28076562e-08,1.95278125e-01
-4.27676562e-08,1.95325000e-01
-4.27276562e-08,1.95270313e-01
-4.26876562e-08,1.95339062e-01
-4.26476562e-08,1.95235938e-01
-4.26076562e-08,1.95518750e-01
-4.25676562e-08,1.95743750e-01
-4.25276562e-08,1.95679688e-01
-4.24876563e-08,1.95710938e-01
-4.24476562e-08,1.95695312e-01
-4.24076562e-08,1.95701563e-01
-4.23676562e-08,1.95700000e-01
-4.23276562e-08,1.95698438e-01
-4.22876562e-08,1.95703125e-01
-4.22476562e-08,1.95695312e-01
-4.22076563e-08,1.95706250e-01
-4.21676562e-08,1.95692188e-01
-4.21276562e-08,1.95710938e-01
-4.20876562e-08,1.95687500e-01
-4.20476562e-08,1.95715625e-01
-4.20076562e-08,1.95678125e-01
-4.19676562e-08,1.95731250e-01
-4.19276563e-08,1.95643750e-01
-4.18876562e-08,1.95909375e-01
-4.18476562e-08,1.96151563e-01
-4.18076562e-08,1.96071875e-01
-4.17676562e-08,1.96118750e-01
-4.17276562e-08,1.96085938e-01
-4.16876562e-08,1.96110937e-01
-4.16476563e-08,1.96092188e-01
-4.16076562e-08,1.96106250e-01
-4.15676562e-08,1.96093750e-01
-4.15276562e-08,1.96104688e-01
-4.14876562e-08,1.96096875e-01
-4.14476562e-08,1.96103125e-01
-4.14076562e-08,1.96096875e-01
-4.13676563e-08,1.96101562e-01
-4.13276562e-08,1.96098438e-01
-4.12876562e-08,1.96101562e-01
-4.12476562e-08,1.96098438e-01
-4.12076562e-08,1.96100000e-01
-4.11676562e-08,1.96100000e-01
-4.11276562e-08,1.96100000e-01
-4.10876562e-08,1.96100000e-01
-4.10476562e-08,1.96100000e-01
-4.10076562e-08,1.96101562e-01
-4.09676562e-08,1.96098438e-01
-4.09276562e-08,1.96101562e-01
-4.08876562e-08,1.96098438e-01
-4.08476563e-08,1.96101562e-01
-4.08076562e-08,1.96098438e-01
-4.07676562e-08,1.96103125e-01
-4.07276562e-08,1.96096875e-01
-4.06876562e-08,1.96103125e-01
-4.06476562e-08,1.96096875e-01
-4.06076562e-08,1.96103125e-01
-4.05676563e-08,1.96096875e-01
-4.05276562e-08,1.96104688e-01
-4.04876562e-08,1.96095313e-01
-4.04476562e-08,1.96104688e-01
-4.04076562e-08,1.96095313e-01
-4.03676562e-08,1.96106250e-01
-4.03276562e-08,1.96093750e-01
-4.02876563e-08,1.96107813e-01
-4.02476562e-08,1.96092188e-01
-4.02076562e-08,1.96109375e-01
-4.01676562e-08,1.96089063e-01
-4.01276562e-08,1.96112500e-01
-4.00876562e-08,1.96085938e-01
-4.00476562e-08,1.96117188e-01
-4.00076563e-08,1.96078125e-01
-3.99676562e-08,1.96132813e-01
-3.99276562e-08,1.96042188e-01
-3.98876562e-08,1.96310938e-01
-3.98476562e-08,1.96551562e-01
-3.98076562e-08,1.96473438e-01
-3.97676562e-08,1.96517187e-01
-3.97276563e-08,1.96487500e-01
-3.96876562e-08,1.96507813e-01
-3.96476562e-08,1.96493750e-01
-3.96076562e-08,1.96503125e-01
-3.95676562e-08,1.96498438e-01
-3.95276562e-08,1.96500000e-01
-3.94876562e-08,1.96503125e-01
-3.94476563e-08,1.96495313e-01
-3.94076562e-08,1.96509375e-01
-3.93676562e-08,1.96485938e-01
-3.93276562e-08,1.96525000e-01
-3.92876562e-08,1.96450000e-01
-3.92476562e-08,1.96703125e-01
-3.92076562e-08,1.96959375e-01
-3.91676563e-08,1.96865625e-01
-3.91276562e-08,1.96925000e-01
-3.90876562e-08,1.96879688e-01
-3.90476562e-08,1.96917188e-01
-3.90076562e-08,1.96884375e-01
-3.89676562e-08,1.96914063e-01
-3.89276563e-08,1.96887500e-01
-3.88876562e-08,1.96910937e-01
-3.88476562e-08,1.96889063e-01
-3.88076562e-08,1.96909375e-01
-3.87676562e-08,1.96890625e-01
-3.87276562e-08,1.96909375e-01
-3.86876562e-08,1.96892188e-01
-3.86476563e-08,1.96907813e-01
-3.86076562e-08,1.96892188e-01
-3.85676562e-08,1.96907813e-01
-3.85276562e-08,1.96892188e-01
