trails/0bdfa5e45fec98341abdd20552c140b4/aes_ch1_20250507121835316.csv

Model,MSO66B
Label,
Waveform Type,ANALOG
Horizontal Units,s
Sample Interval,4.00000000e-11
Record Length,10000
Zero Index,1599.11328125
Vertical Units,A
ANALOG_Thumbnail,
yOffset,1.84500000e-01
yPosition,8.40000000e-01

Labels,
TIME,CH1
-6.39645312e-08,1.89289062e-01
-6.39245312e-08,1.89309375e-01
-6.38845312e-08,1.89290625e-01
-6.38445312e-08,1.89307813e-01
-6.38045313e-08,1.89292188e-01
-6.37645312e-08,1.89307813e-01
-6.37245312e-08,1.89292188e-01
-6.36845312e-08,1.89307813e-01
-6.36445312e-08,1.89292188e-01
-6.36045312e-08,1.89307813e-01
-6.35645312e-08,1.89292188e-01
-6.35245313e-08,1.89307813e-01
-6.34845312e-08,1.89290625e-01
-6.34445312e-08,1.89310937e-01
-6.34045312e-08,1.89287500e-01
-6.33645312e-08,1.89317188e-01
-6.33245312e-08,1.89273438e-01
-6.32845312e-08,1.89351563e-01
-6.32445313e-08,1.89096875e-01
-6.32045312e-08,1.88840625e-01
-6.31645312e-08,1.88937500e-01
-6.31245312e-08,1.88871875e-01
-6.30845312e-08,1.88925000e-01
-6.30445313e-08,1.88876563e-01
-6.30045312e-08,1.88925000e-01
-6.29645313e-08,1.88873438e-01
-6.29245312e-08,1.88931250e-01
-6.28845312e-08,1.88860938e-01
-6.28445312e-08,1.88964063e-01
-6.28045312e-08,1.88682813e-01
-6.27645313e-08,1.88454687e-01
-6.27245312e-08,1.88520313e-01
-6.26845313e-08,1.88489062e-01
-6.26445312e-08,1.88506250e-01
-6.26045312e-08,1.88496875e-01
-6.25645312e-08,1.88500000e-01
-6.25245312e-08,1.88503125e-01
-6.24845313e-08,1.88493750e-01
-6.24445312e-08,1.88507813e-01
-6.24045313e-08,1.88487500e-01
-6.23645312e-08,1.88517188e-01
-6.23245312e-08,1.88471875e-01
-6.22845312e-08,1.88553125e-01
-6.22445312e-08,1.88292188e-01
-6.22045313e-08,1.88045313e-01
-6.21645312e-08,1.88131250e-01
-6.21245313e-08,1.88079688e-01
-6.20845312e-08,1.88115625e-01
-6.20445312e-08,1.88089063e-01
-6.20045312e-08,1.88109375e-01
-6.19645312e-08,1.88093750e-01
-6.19245313e-08,1.88104688e-01
-6.18845312e-08,1.88096875e-01
-6.18445313e-08,1.88101563e-01
-6.18045312e-08,1.88100000e-01
-6.17645312e-08,1.88096875e-01
-6.17245312e-08,1.88106250e-01
-6.16845312e-08,1.88087500e-01
-6.16445313e-08,1.88121875e-01
-6.16045312e-08,1.88053125e-01
-6.15645313e-08,1.88300000e-01
-6.15245312e-08,1.88562500e-01
-6.14845312e-08,1.88460938e-01
-6.14445312e-08,1.88529688e-01
-6.14045312e-08,1.88475000e-01
-6.13645313e-08,1.88521875e-01
-6.13245312e-08,1.88479687e-01
-6.12845313e-08,1.88518750e-01
-6.12445312e-08,1.88481250e-01
-6.12045312e-08,1.88518750e-01
-6.11645312e-08,1.88481250e-01
-6.11245312e-08,1.88520313e-01
-6.10845313e-08,1.88479687e-01
-6.10445312e-08,1.88523438e-01
-6.10045312e-08,1.88471875e-01
-6.09645312e-08,1.88537500e-01
-6.09245312e-08,1.88437500e-01
-6.08845312e-08,1.88715625e-01
-6.08445312e-08,1.88946875e-01
-6.08045313e-08,1.88876563e-01
-6.07645312e-08,1.88914063e-01
-6.07245312e-08,1.88890625e-01
-6.06845312e-08,1.88904688e-01
-6.06445312e-08,1.88896875e-01
-6.06045312e-08,1.88901563e-01
-6.05645312e-08,1.88900000e-01
-6.05245313e-08,1.88898438e-01
-6.04845312e-08,1.88904688e-01
-6.04445312e-08,1.88893750e-01
-6.04045312e-08,1.88909375e-01
-6.03645312e-08,1.88885938e-01
-6.03245312e-08,1.88925000e-01
-6.02845312e-08,1.88850000e-01
-6.02445313e-08,1.89103125e-01
-6.02045312e-08,1.89359375e-01
-6.01645312e-08,1.89264062e-01
-6.01245312e-08,1.89326563e-01
-6.00845312e-08,1.89278125e-01
-6.00445312e-08,1.89318750e-01
-6.00045312e-08,1.89282813e-01
-5.99645313e-08,1.89317188e-01
-5.99245312e-08,1.89284375e-01
-5.98845312e-08,1.89315625e-01
-5.98445312e-08,1.89284375e-01
-5.98045312e-08,1.89315625e-01
-5.97645312e-08,1.89284375e-01
-5.97245312e-08,1.89315625e-01
-5.96845313e-08,1.89282813e-01
-5.96445312e-08,1.89318750e-01
-5.96045312e-08,1.89279688e-01
-5.95645312e-08,1.89323437e-01
-5.95245312e-08,1.89271875e-01
-5.94845312e-08,1.89339063e-01
-5.94445312e-08,1.89235938e-01
-5.94045312e-08,1.89517188e-01
-5.93645312e-08,1.89745313e-01
-5.93245312e-08,1.89678125e-01
-5.92845312e-08,1.89710938e-01
-5.92445312e-08,1.89693750e-01
-5.92045312e-08,1.89703125e-01
-5.91645312e-08,1.89700000e-01
-5.91245312e-08,1.89698438e-01
-5.90845312e-08,1.89704687e-01
-5.90445312e-08,1.89693750e-01
-5.90045312e-08,1.89707813e-01
-5.89645312e-08,1.89689063e-01
-5.89245312e-08,1.89714063e-01
-5.88845312e-08,1.89679687e-01
-5.88445312e-08,1.89729688e-01
-5.88045312e-08,1.89643750e-01
-5.87645312e-08,1.89909375e-01
-5.87245312e-08,1.90153125e-01
-5.86845312e-08,1.90071875e-01
-5.86445312e-08,1.90118750e-01
-5.86045312e-08,1.90085937e-01
-5.85645312e-08,1.90110938e-01
-5.85245312e-08,1.90092188e-01
-5.84845312e-08,1.90106250e-01
-5.84445312e-08,1.90095313e-01
-5.84045312e-08,1.90103125e-01
-5.83645312e-08,1.90096875e-01
-5.83245312e-08,1.90101563e-01
-5.82845312e-08,1.90098437e-01
-5.82445312e-08,1.90100000e-01
-5.82045312e-08,1.90100000e-01
-5.81645312e-08,1.90098437e-01
-5.81245312e-08,1.90101563e-01
-5.80845312e-08,1.90096875e-01
-5.80445312e-08,1.90103125e-01
-5.80045312e-08,1.90095313e-01
-5.79645312e-08,1.90106250e-01
-5.79245312e-08,1.90092188e-01
-5.78845312e-08,1.90109375e-01
-5.78445312e-08,1.90089063e-01
-5.78045312e-08,1.90112500e-01
-5.77645312e-08,1.90082813e-01
-5.77245312e-08,1.90121875e-01
-5.76845312e-08,1.90067188e-01
-5.76445312e-08,1.90157812e-01
-5.76045312e-08,1.89889063e-01
-5.75645312e-08,1.89650000e-01
-5.75245312e-08,1.89725000e-01
-5.74845312e-08,1.89684375e-01
-5.74445312e-08,1.89709375e-01
-5.74045312e-08,1.89695313e-01
-5.73645312e-08,1.89701563e-01
-5.73245312e-08,1.89703125e-01
-5.72845312e-08,1.89692187e-01
-5.72445312e-08,1.89712500e-01
-5.72045312e-08,1.89676563e-01
-5.71645312e-08,1.89750000e-01
-5.71245312e-08,1.89496875e-01
-5.70845312e-08,1.89242188e-01
-5.70445312e-08,1.89332813e-01
-5.70045312e-08,1.89278125e-01
-5.69645312e-08,1.89317188e-01
-5.69245312e-08,1.89287500e-01
-5.68845312e-08,1.89307813e-01
-5.68445312e-08,1.89295313e-01
-5.68045312e-08,1.89300000e-01
-5.67645312e-08,1.89304688e-01
-5.67245312e-08,1.89284375e-01
-5.66845312e-08,1.89340625e-01
-5.66445312e-08,1.89104688e-01
-5.66045312e-08,1.88832813e-01
-5.65645312e-08,1.88943750e-01
-5.65245312e-08,1.88865625e-01
-5.64845312e-08,1.88928125e-01
-5.64445312e-08,1.88875000e-01
-5.64045312e-08,1.88923438e-01
-5.63645312e-08,1.88876563e-01
-5.63245312e-08,1.88921875e-01
-5.62845312e-08,1.88878125e-01
-5.62445312e-08,1.88921875e-01
-5.62045312e-08,1.88876563e-01
-5.61645312e-08,1.88926563e-01
-5.61245312e-08,1.88870312e-01
-5.60845312e-08,1.88939063e-01
-5.60445312e-08,1.88835937e-01
-5.60045312e-08,1.89115625e-01
-5.59645312e-08,1.89346875e-01
-5.59245312e-08,1.89276562e-01
-5.58845312e-08,1.89315625e-01
-5.58445312e-08,1.89287500e-01
-5.58045312e-08,1.89309375e-01
-5.57645312e-08,1.89290625e-01
-5.57245312e-08,1.89310937e-01
-5.56845312e-08,1.89284375e-01
-5.56445312e-08,1.89323437e-01
-5.56045312e-08,1.89253125e-01
-5.55645312e-08,1.89498438e-01
-5.55245312e-08,1.89764062e-01
-5.54845312e-08,1.89657812e-01
-5.54445312e-08,1.89734375e-01
-5.54045312e-08,1.89668750e-01
-5.53645312e-08,1.89732813e-01
-5.53245312e-08,1.89664063e-01
-5.52845312e-08,1.89743750e-01
-5.52445312e-08,1.89631250e-01
-5.52045312e-08,1.89920313e-01
-5.51645312e-08,1.90142188e-01
-5.51245312e-08,1.90082813e-01
-5.50845312e-08,1.90107813e-01
-5.50445312e-08,1.90096875e-01
-5.50045312e-08,1.90098437e-01
-5.49645312e-08,1.90104688e-01
-5.49245312e-08,1.90092188e-01
-5.48845312e-08,1.90110938e-01
-5.48445312e-08,1.90082813e-01
-5.48045312e-08,1.90128125e-01
-5.47645312e-08,1.90046875e-01
-5.47245312e-08,1.90306250e-01
-5.46845312e-08,1.90556250e-01
-5.46445312e-08,1.90467187e-01
-5.46045312e-08,1.90521875e-01
-5.45645312e-08,1.90482813e-01
-5.45245312e-08,1.90514062e-01
-5.44845312e-08,1.90487500e-01
-5.44445312e-08,1.90510938e-01
-5.44045312e-08,1.90490625e-01
-5.43645312e-08,1.90509375e-01
-5.43245312e-08,1.90492188e-01
-5.42845312e-08,1.90507813e-01
-5.42445312e-08,1.90492188e-01
-5.42045312e-08,1.90506250e-01
-5.41645312e-08,1.90493750e-01
-5.41245312e-08,1.90506250e-01
-5.40845312e-08,1.90493750e-01
-5.40445312e-08,1.90506250e-01
-5.40045312e-08,1.90493750e-01
-5.39645312e-08,1.90506250e-01
-5.39245312e-08,1.90493750e-01
-5.38845312e-08,1.90506250e-01
-5.38445312e-08,1.90493750e-01
-5.38045312e-08,1.90506250e-01
-5.37645312e-08,1.90493750e-01
-5.37245312e-08,1.90506250e-01
-5.36845312e-08,1.90493750e-01
-5.36445312e-08,1.90506250e-01
-5.36045312e-08,1.90493750e-01
-5.35645312e-08,1.90507813e-01
-5.35245312e-08,1.90492188e-01
-5.34845312e-08,1.90507813e-01
-5.34445312e-08,1.90492188e-01
-5.34045312e-08,1.90507813e-01
-5.33645312e-08,1.90490625e-01
-5.33245312e-08,1.90509375e-01
-5.32845312e-08,1.90489063e-01
-5.32445312e-08,1.90510938e-01
-5.32045312e-08,1.90487500e-01
-5.31645312e-08,1.90514062e-01
-5.31245312e-08,1.90484375e-01
-5.30845312e-08,1.90517188e-01
-5.30445312e-08,1.90479687e-01
-5.30045312e-08,1.90526562e-01
-5.29645312e-08,1.90464063e-01
-5.29245312e-08,1.90560937e-01
-5.28845312e-08,1.90285938e-01
-5.28445312e-08,1.90053125e-01
-5.28045312e-08,1.90121875e-01
-5.27645312e-08,1.90087500e-01
-5.27245312e-08,1.90106250e-01
-5.26845312e-08,1.90096875e-01
-5.26445312e-08,1.90100000e-01
-5.26045312e-08,1.90103125e-01
-5.25645312e-08,1.90093750e-01
-5.25245312e-08,1.90109375e-01
-5.24845312e-08,1.90087500e-01
-5.24445312e-08,1.90118750e-01
-5.24045312e-08,1.90070313e-01
-5.23645312e-08,1.90156250e-01
-5.23245312e-08,1.89890625e-01
-5.22845312e-08,1.89648438e-01
-5.22445312e-08,1.89726563e-01
-5.22045312e-08,1.89684375e-01
-5.21645312e-08,1.89709375e-01
-5.21245312e-08,1.89696875e-01
-5.20845312e-08,1.89698438e-01
-5.20445312e-08,1.89709375e-01
-5.20045312e-08,1.89679687e-01
-5.19645312e-08,1.89746875e-01
-5.19245312e-08,1.89498438e-01
-5.18845312e-08,1.89240625e-01
-5.18445312e-08,1.89334375e-01
-5.18045312e-08,1.89278125e-01
-5.17645312e-08,1.89314063e-01
-5.17245312e-08,1.89293750e-01
-5.16845312e-08,1.89295313e-01
-5.16445312e-08,1.89331250e-01
-5.16045312e-08,1.89115625e-01
-5.15645312e-08,1.88823437e-01
-5.15245313e-08,1.88953125e-01
-5.14845312e-08,1.88854688e-01
-5.14445312e-08,1.88942187e-01
-5.14045312e-08,1.88857812e-01
-5.13645312e-08,1.88943750e-01
-5.13245312e-08,1.88846875e-01
-5.12845312e-08,1.88976563e-01
-5.12445312e-08,1.88671875e-01
-5.12045312e-08,1.88465625e-01
-5.11645312e-08,1.88510938e-01
-5.11245312e-08,1.88500000e-01
-5.10845312e-08,1.88495313e-01
-5.10445312e-08,1.88509375e-01
-5.10045312e-08,1.88485938e-01
-5.09645312e-08,1.88520313e-01
-5.09245312e-08,1.88470313e-01
-5.08845312e-08,1.88556250e-01
-5.08445312e-08,1.88290625e-01
-5.08045312e-08,1.88046875e-01
-5.07645312e-08,1.88129688e-01
-5.07245312e-08,1.88079688e-01
-5.06845312e-08,1.88115625e-01
-5.06445312e-08,1.88087500e-01
-5.06045312e-08,1.88110938e-01
-5.05645312e-08,1.88090625e-01
-5.05245312e-08,1.88109375e-01
-5.04845312e-08,1.88090625e-01
-5.04445312e-08,1.88109375e-01
-5.04045312e-08,1.88090625e-01
-5.03645312e-08,1.88109375e-01
-5.03245312e-08,1.88089063e-01
-5.02845312e-08,1.88112500e-01
-5.02445312e-08,1.88084375e-01
-5.02045312e-08,1.88120312e-01
-5.01645312e-08,1.88070313e-01
-5.01245312e-08,1.88154688e-01
-5.00845312e-08,1.87892188e-01
-5.00445312e-08,1.87645312e-01
-5.00045312e-08,1.87731250e-01
-4.99645312e-08,1.87678125e-01
-4.99245312e-08,1.87717187e-01
-4.98845312e-08,1.87685938e-01
-4.98445312e-08,1.87712500e-01
-4.98045312e-08,1.87689063e-01
-4.97645312e-08,1.87710938e-01
-4.97245312e-08,1.87690625e-01
-4.96845312e-08,1.87709375e-01
-4.96445312e-08,1.87692187e-01
-4.96045313e-08,1.87707813e-01
-4.95645312e-08,1.87692187e-01
-4.95245312e-08,1.87707813e-01
-4.94845312e-08,1.87692187e-01
-4.94445312e-08,1.87707813e-01
-4.94045312e-08,1.87692187e-01
-4.93645312e-08,1.87707813e-01
-4.93245313e-08,1.87693750e-01
-4.92845312e-08,1.87706250e-01
-4.92445312e-08,1.87692187e-01
-4.92045312e-08,1.87707813e-01
-4.91645312e-08,1.87692187e-01
-4.91245312e-08,1.87707813e-01
-4.90845312e-08,1.87692187e-01
-4.90445312e-08,1.87707813e-01
-4.90045312e-08,1.87690625e-01
-4.89645312e-08,1.87709375e-01
-4.89245312e-08,1.87689063e-01
-4.88845312e-08,1.87710938e-01
-4.88445312e-08,1.87685938e-01
-4.88045312e-08,1.87715625e-01
-4.87645312e-08,1.87679687e-01
-4.87245312e-08,1.87729688e-01
-4.86845312e-08,1.87645312e-01
-4.86445312e-08,1.87907812e-01
-4.86045312e-08,1.88156250e-01
-4.85645312e-08,1.88067188e-01
-4.85245312e-08,1.88123438e-01
-4.84845312e-08,1.88079688e-01
-4.84445312e-08,1.88118750e-01
-4.84045312e-08,1.88081250e-01
-4.83645312e-08,1.88118750e-01
-4.83245312e-08,1.88076563e-01
-4.82845312e-08,1.88131250e-01
-4.82445312e-08,1.88043750e-01
-4.82045312e-08,1.88307813e-01
-4.81645312e-08,1.88556250e-01
-4.81245312e-08,1.88467188e-01
-4.80845312e-08,1.88525000e-01
-4.80445312e-08,1.88478125e-01
-4.80045312e-08,1.88521875e-01
-4.79645312e-08,1.88475000e-01
-4.79245312e-08,1.88532813e-01
-4.78845312e-08,1.88443750e-01
-4.78445312e-08,1.88707813e-01
-4.78045312e-08,1.88956250e-01
-4.77645312e-08,1.88865625e-01
-4.77245312e-08,1.88926563e-01
-4.76845313e-08,1.88875000e-01
-4.76445312e-08,1.88925000e-01
-4.76045312e-08,1.88871875e-01
-4.75645312e-08,1.88937500e-01
-4.75245312e-08,1.88839063e-01
-4.74845312e-08,1.89114063e-01
-4.74445312e-08,1.89348437e-01
-4.74045313e-08,1.89275000e-01
-4.73645312e-08,1.89315625e-01
-4.73245312e-08,1.89290625e-01
-4.72845312e-08,1.89306250e-01
-4.72445312e-08,1.89296875e-01
-4.72045312e-08,1.89300000e-01
-4.71645312e-08,1.89304688e-01
-4.71245313e-08,1.89289062e-01
-4.70845312e-08,1.89320313e-01
-4.70445312e-08,1.89254688e-01
-4.70045312e-08,1.89498438e-01
-4.69645312e-08,1.89762500e-01
-4.69245312e-08,1.89660938e-01
-4.68845312e-08,1.89729688e-01
-4.68445312e-08,1.89675000e-01
-4.68045312e-08,1.89721875e-01
-4.67645312e-08,1.89679687e-01
-4.67245312e-08,1.89718750e-01
-4.66845312e-08,1.89682813e-01
-4.66445312e-08,1.89717187e-01
-4.66045312e-08,1.89684375e-01
-4.65645312e-08,1.89715625e-01
-4.65245312e-08,1.89684375e-01
-4.64845312e-08,1.89715625e-01
-4.64445312e-08,1.89684375e-01
-4.64045312e-08,1.89715625e-01
-4.63645312e-08,1.89684375e-01
-4.63245312e-08,1.89717187e-01
-4.62845312e-08,1.89682813e-01
-4.62445312e-08,1.89718750e-01
-4.62045312e-08,1.89681250e-01
-4.61645312e-08,1.89720313e-01
-4.61245312e-08,1.89676563e-01
-4.60845312e-08,1.89726563e-01
-4.60445313e-08,1.89668750e-01
-4.60045312e-08,1.89740625e-01
-4.59645312e-08,1.89634375e-01
-4.59245312e-08,1.89918750e-01
-4.58845312e-08,1.90142188e-01
-4.58445312e-08,1.90081250e-01
-4.58045312e-08,1.90109375e-01
-4.57645313e-08,1.90096875e-01
-4.57245312e-08,1.90100000e-01
-4.56845312e-08,1.90103125e-01
-4.56445312e-08,1.90093750e-01
-4.56045312e-08,1.90107813e-01
-4.55645312e-08,1.90089063e-01
-4.55245312e-08,1.90114063e-01
-4.54845313e-08,1.90082813e-01
-4.54445312e-08,1.90123438e-01
-4.54045312e-08,1.90067188e-01
-4.53645312e-08,1.90159375e-01
-4.53245312e-08,1.89887500e-01
-4.52845312e-08,1.89650000e-01
-4.52445312e-08,1.89725000e-01
-4.52045313e-08,1.89684375e-01
-4.51645312e-08,1.89709375e-01
-4.51245312e-08,1.89693750e-01
-4.50845312e-08,1.89703125e-01
-4.50445312e-08,1.89700000e-01
-4.50045312e-08,1.89698438e-01
-4.49645312e-08,1.89703125e-01
-4.49245313e-08,1.89693750e-01
-4.48845312e-08,1.89709375e-01
-4.48445312e-08,1.89687500e-01
-4.48045312e-08,1.89718750e-01
-4.47645312e-08,1.89670312e-01
-4.47245312e-08,1.89754688e-01
-4.46845312e-08,1.89492188e-01
-4.46445312e-08,1.89246875e-01
-4.46045312e-08,1.89328125e-01
-4.45645312e-08,1.89281250e-01
-4.45245312e-08,1.89312500e-01
-4.44845312e-08,1.89292188e-01
-4.44445312e-08,1.89304688e-01
-4.44045312e-08,1.89300000e-01
-4.43645312e-08,1.89296875e-01
-4.43245312e-08,1.89309375e-01
-4.42845312e-08,1.89279688e-01
-4.42445312e-08,1.89345313e-01
-4.42045312e-08,1.89101563e-01
-4.41645312e-08,1.88837500e-01
-4.41245313e-08,1.88939063e-01
-4.40845312e-08,1.88871875e-01
-4.40445312e-08,1.88923438e-01
-4.40045312e-08,1.88879688e-01
-4.39645312e-08,1.88918750e-01
-4.39245312e-08,1.88882812e-01
-4.38845312e-08,1.88915625e-01
-4.38445313e-08,1.88885938e-01
-4.38045312e-08,1.88914063e-01
-4.37645312e-08,1.88885938e-01
-4.37245312e-08,1.88912500e-01
-4.36845312e-08,1.88887500e-01
-4.36445312e-08,1.88912500e-01
-4.36045312e-08,1.88885938e-01
-4.35645313e-08,1.88914063e-01
-4.35245312e-08,1.88885938e-01
-4.34845312e-08,1.88915625e-01
-4.34445312e-08,1.88882812e-01
-4.34045312e-08,1.88920313e-01
-4.33645312e-08,1.88875000e-01
-4.33245312e-08,1.88934375e-01
-4.32845313e-08,1.88842188e-01
-4.32445312e-08,1.89110938e-01
-4.32045312e-08,1.89351563e-01
-4.31645312e-08,1.89271875e-01
-4.31245312e-08,1.89320313e-01
-4.30845312e-08,1.89284375e-01
-4.30445312e-08,1.89312500e-01
-4.30045313e-08,1.89289062e-01
-4.29645312e-08,1.89310937e-01
-4.29245312e-08,1.89289062e-01
-4.28845312e-08,1.89312500e-01
-4.28445312e-08,1.89285938e-01
-4.28045312e-08,1.89315625e-01
-4.27645312e-08,1.89279688e-01
-4.27245313e-08,1.89329688e-01
-4.26845312e-08,1.89245313e-01
-4.26445312e-08,1.89507813e-01
-4.26045312e-08,1.89754688e-01
-4.25645312e-08,1.89668750e-01
-4.25245312e-08,1.89721875e-01
-4.24845312e-08,1.89682813e-01
-4.24445312e-08,1.89714063e-01
-4.24045312e-08,1.89687500e-01
-4.23645312e-08,1.89710938e-01
-4.23245312e-08,1.89690625e-01
-4.22845312e-08,1.89709375e-01
-4.22445312e-08,1.89690625e-01
-4.22045313e-08,1.89707813e-01
-4.21645312e-08,1.89692187e-01
-4.21245312e-08,1.89707813e-01
-4.20845312e-08,1.89692187e-01
-4.20445312e-08,1.89706250e-01
-4.20045312e-08,1.89693750e-01
-4.19645312e-08,1.89706250e-01
-4.19245313e-08,1.89693750e-01
-4.18845312e-08,1.89706250e-01
-4.18445312e-08,1.89693750e-01
-4.18045312e-08,1.89706250e-01
-4.17645312e-08,1.89693750e-01
-4.17245312e-08,1.89706250e-01
-4.16845312e-08,1.89693750e-01
-4.16445313e-08,1.89706250e-01
-4.16045312e-08,1.89693750e-01
-4.15645312e-08,1.89706250e-01
-4.15245312e-08,1.89693750e-01
-4.14845312e-08,1.89706250e-01
-4.14445312e-08,1.89693750e-01
-4.14045312e-08,1.89706250e-01
-4.13645313e-08,1.89693750e-01
-4.13245312e-08,1.89706250e-01
-4.12845312e-08,1.89693750e-01
-4.12445312e-08,1.89706250e-01
-4.12045312e-08,1.89693750e-01
-4.11645312e-08,1.89706250e-01
-4.11245312e-08,1.89693750e-01
-4.10845313e-08,1.89706250e-01
-4.10445312e-08,1.89693750e-01
-4.10045312e-08,1.89706250e-01
-4.09645312e-08,1.89692187e-01
-4.09245312e-08,1.89707813e-01
-4.08845312e-08,1.89692187e-01
-4.08445312e-08,1.89707813e-01
-4.08045313e-08,1.89690625e-01
-4.07645312e-08,1.89709375e-01
-4.07245312e-08,1.89690625e-01
-4.06845312e-08,1.89710938e-01
-4.06445312e-08,1.89687500e-01
-4.06045312e-08,1.89712500e-01
-4.05645312e-08,1.89684375e-01
-4.05245312e-08,1.89718750e-01
-4.04845312e-08,1.89676563e-01
-4.04445312e-08,1.89732813e-01
-4.04045312e-08,1.89642188e-01
-4.03645312e-08,1.89910938e-01
-4.03245312e-08,1.90151563e-01
-4.02845313e-08,1.90071875e-01
-4.02445312e-08,1.90118750e-01
-4.02045312e-08,1.90085937e-01
-4.01645312e-08,1.90110938e-01
-4.01245312e-08,1.90092188e-01
-4.00845312e-08,1.90106250e-01
-4.00445312e-08,1.90093750e-01
-4.00045313e-08,1.90104688e-01
-3.99645312e-08,1.90095313e-01
-3.99245312e-08,1.90104688e-01
-3.98845312e-08,1.90096875e-01
-3.98445312e-08,1.90103125e-01
-3.98045312e-08,1.90096875e-01
-3.97645312e-08,1.90103125e-01
-3.97245313e-08,1.90096875e-01
-3.96845312e-08,1.90103125e-01
-3.96445312e-08,1.90096875e-01
-3.96045312e-08,1.90103125e-01
-3.95645312e-08,1.90096875e-01
-3.95245312e-08,1.90104688e-01
-3.94845312e-08,1.90095313e-01
-3.94445313e-08,1.90104688e-01
-3.94045312e-08,1.90093750e-01
-3.93645312e-08,1.90107813e-01
-3.93245312e-08,1.90090625e-01
-3.92845312e-08,1.90112500e-01
-3.92445312e-08,1.90082813e-01
-3.92045312e-08,1.90126563e-01
-3.91645313e-08,1.90048438e-01
-3.91245312e-08,1.90304688e-01
-3.90845312e-08,1.90557813e-01
-3.90445312e-08,1.90465625e-01
-3.90045312e-08,1.90525000e-01
-3.89645312e-08,1.90479687e-01
-3.89245312e-08,1.90517188e-01
-3.88845313e-08,1.90484375e-01
-3.88445312e-08,1.90514062e-01
-3.88045312e-08,1.90485938e-01
-3.87645312e-08,1.90512500e-01
-3.87245312e-08,1.90487500e-01
-3.86845312e-08,1.90512500e-01
-3.86445312e-08,1.90487500e-01
-3.86045313e-08,1.90510938e-01
-3.85645312e-08,1.90489063e-01
-3.85245312e-08,1.90510938e-01
