trails/0bdfa5e45fec98341abdd20552c140b4/aes_ch1_20250507121032290.csv

Model,MSO66B
Label,
Waveform Type,ANALOG
Horizontal Units,s
Sample Interval,4.00000000e-11
Record Length,10000
Zero Index,1599.03515625
Vertical Units,A
ANALOG_Thumbnail,
yOffset,1.84500000e-01
yPosition,8.40000000e-01

Labels,
TIME,CH1
-6.39614062e-08,1.87314063e-01
-6.39214062e-08,1.87287500e-01
-6.38814062e-08,1.87312500e-01
-6.38414063e-08,1.87287500e-01
-6.38014062e-08,1.87312500e-01
-6.37614063e-08,1.87287500e-01
-6.37214062e-08,1.87312500e-01
-6.36814062e-08,1.87287500e-01
-6.36414062e-08,1.87314063e-01
-6.36014062e-08,1.87284375e-01
-6.35614063e-08,1.87318750e-01
-6.35214062e-08,1.87276563e-01
-6.34814063e-08,1.87332813e-01
-6.34414062e-08,1.87242188e-01
-6.34014062e-08,1.87509375e-01
-6.33614062e-08,1.87753125e-01
-6.33214062e-08,1.87670313e-01
-6.32814063e-08,1.87720313e-01
-6.32414062e-08,1.87684375e-01
-6.32014063e-08,1.87712500e-01
-6.31614062e-08,1.87687500e-01
-6.31214062e-08,1.87710938e-01
-6.30814062e-08,1.87689063e-01
-6.30414062e-08,1.87710938e-01
-6.30014063e-08,1.87689063e-01
-6.29614062e-08,1.87710938e-01
-6.29214063e-08,1.87687500e-01
-6.28814062e-08,1.87714063e-01
-6.28414062e-08,1.87682813e-01
-6.28014062e-08,1.87721875e-01
-6.27614062e-08,1.87668750e-01
-6.27214063e-08,1.87756250e-01
-6.26814062e-08,1.87490625e-01
-6.26414062e-08,1.87246875e-01
-6.26014062e-08,1.87329688e-01
-6.25614062e-08,1.87279688e-01
-6.25214062e-08,1.87315625e-01
-6.24814062e-08,1.87287500e-01
-6.24414063e-08,1.87310937e-01
-6.24014062e-08,1.87290625e-01
-6.23614062e-08,1.87307813e-01
-6.23214062e-08,1.87292188e-01
-6.22814062e-08,1.87306250e-01
-6.22414062e-08,1.87293750e-01
-6.22014062e-08,1.87306250e-01
-6.21614063e-08,1.87293750e-01
-6.21214062e-08,1.87304688e-01
-6.20814062e-08,1.87295313e-01
-6.20414062e-08,1.87304688e-01
-6.20014062e-08,1.87295313e-01
-6.19614062e-08,1.87304688e-01
-6.19214062e-08,1.87295313e-01
-6.18814063e-08,1.87304688e-01
-6.18414062e-08,1.87295313e-01
-6.18014062e-08,1.87304688e-01
-6.17614062e-08,1.87296875e-01
-6.17214062e-08,1.87303125e-01
-6.16814062e-08,1.87296875e-01
-6.16414062e-08,1.87303125e-01
-6.16014063e-08,1.87296875e-01
-6.15614062e-08,1.87303125e-01
-6.15214062e-08,1.87296875e-01
-6.14814062e-08,1.87303125e-01
-6.14414062e-08,1.87296875e-01
-6.14014062e-08,1.87303125e-01
-6.13614062e-08,1.87296875e-01
-6.13214063e-08,1.87303125e-01
-6.12814062e-08,1.87296875e-01
-6.12414062e-08,1.87303125e-01
-6.12014062e-08,1.87296875e-01
-6.11614062e-08,1.87303125e-01
-6.11214062e-08,1.87296875e-01
-6.10814062e-08,1.87303125e-01
-6.10414063e-08,1.87296875e-01
-6.10014062e-08,1.87303125e-01
-6.09614062e-08,1.87296875e-01
-6.09214062e-08,1.87303125e-01
-6.08814062e-08,1.87296875e-01
-6.08414062e-08,1.87303125e-01
-6.08014062e-08,1.87296875e-01
-6.07614063e-08,1.87303125e-01
-6.07214062e-08,1.87296875e-01
-6.06814062e-08,1.87303125e-01
-6.06414062e-08,1.87296875e-01
-6.06014062e-08,1.87303125e-01
-6.05614063e-08,1.87296875e-01
-6.05214062e-08,1.87303125e-01
-6.04814063e-08,1.87296875e-01
-6.04414062e-08,1.87303125e-01
-6.04014062e-08,1.87296875e-01
-6.03614062e-08,1.87303125e-01
-6.03214062e-08,1.87296875e-01
-6.02814063e-08,1.87303125e-01
-6.02414062e-08,1.87298437e-01
-6.02014063e-08,1.87301563e-01
-6.01614062e-08,1.87298437e-01
-6.01214062e-08,1.87301563e-01
-6.00814062e-08,1.87298437e-01
-6.00414062e-08,1.87301563e-01
-6.00014063e-08,1.87298437e-01
-5.99614062e-08,1.87301563e-01
-5.99214063e-08,1.87298437e-01
-5.98814062e-08,1.87301563e-01
-5.98414062e-08,1.87298437e-01
-5.98014062e-08,1.87301563e-01
-5.97614062e-08,1.87298437e-01
-5.97214063e-08,1.87300000e-01
-5.96814062e-08,1.87300000e-01
-5.96414063e-08,1.87300000e-01
-5.96014062e-08,1.87300000e-01
-5.95614062e-08,1.87298437e-01
-5.95214062e-08,1.87303125e-01
-5.94814062e-08,1.87296875e-01
-5.94414062e-08,1.87306250e-01
-5.94014062e-08,1.87292188e-01
-5.93614062e-08,1.87314063e-01
-5.93214062e-08,1.87276563e-01
-5.92814062e-08,1.87346875e-01
-5.92414062e-08,1.87100000e-01
-5.92014062e-08,1.86837500e-01
-5.91614062e-08,1.86939063e-01
-5.91214062e-08,1.86870312e-01
-5.90814062e-08,1.86925000e-01
-5.90414062e-08,1.86876563e-01
-5.90014062e-08,1.86921875e-01
-5.89614062e-08,1.86879688e-01
-5.89214062e-08,1.86920313e-01
-5.88814062e-08,1.86879688e-01
-5.88414062e-08,1.86921875e-01
-5.88014062e-08,1.86878125e-01
-5.87614062e-08,1.86925000e-01
-5.87214062e-08,1.86873438e-01
-5.86814062e-08,1.86932813e-01
-5.86414062e-08,1.86857812e-01
-5.86014062e-08,1.86967188e-01
-5.85614062e-08,1.86679687e-01
-5.85214062e-08,1.86457813e-01
-5.84814062e-08,1.86517188e-01
-5.84414062e-08,1.86492188e-01
-5.84014062e-08,1.86503125e-01
-5.83614062e-08,1.86501562e-01
-5.83214062e-08,1.86495313e-01
-5.82814062e-08,1.86506250e-01
-5.82414062e-08,1.86490625e-01
-5.82014062e-08,1.86512500e-01
-5.81614062e-08,1.86484375e-01
-5.81214062e-08,1.86521875e-01
-5.80814062e-08,1.86467188e-01
-5.80414062e-08,1.86557813e-01
-5.80014062e-08,1.86289063e-01
-5.79614062e-08,1.86050000e-01
-5.79214062e-08,1.86126563e-01
-5.78814062e-08,1.86084375e-01
-5.78414062e-08,1.86109375e-01
-5.78014062e-08,1.86093750e-01
-5.77614062e-08,1.86103125e-01
-5.77214062e-08,1.86100000e-01
-5.76814062e-08,1.86098438e-01
-5.76414062e-08,1.86104688e-01
-5.76014062e-08,1.86090625e-01
-5.75614062e-08,1.86114063e-01
-5.75214062e-08,1.86075000e-01
-5.74814062e-08,1.86150000e-01
-5.74414062e-08,1.85896875e-01
-5.74014062e-08,1.85642187e-01
-5.73614062e-08,1.85734375e-01
-5.73214062e-08,1.85676563e-01
-5.72814062e-08,1.85718750e-01
-5.72414062e-08,1.85684375e-01
-5.72014062e-08,1.85714062e-01
-5.71614062e-08,1.85687500e-01
-5.71214062e-08,1.85710938e-01
-5.70814062e-08,1.85690625e-01
-5.70414062e-08,1.85709375e-01
-5.70014062e-08,1.85692187e-01
-5.69614062e-08,1.85707813e-01
-5.69214062e-08,1.85692187e-01
-5.68814062e-08,1.85706250e-01
-5.68414062e-08,1.85693750e-01
-5.68014062e-08,1.85706250e-01
-5.67614062e-08,1.85693750e-01
-5.67214062e-08,1.85704688e-01
-5.66814062e-08,1.85695313e-01
-5.66414062e-08,1.85704688e-01
-5.66014062e-08,1.85695313e-01
-5.65614062e-08,1.85704688e-01
-5.65214062e-08,1.85695313e-01
-5.64814062e-08,1.85704688e-01
-5.64414062e-08,1.85695313e-01
-5.64014062e-08,1.85704688e-01
-5.63614062e-08,1.85695313e-01
-5.63214062e-08,1.85704688e-01
-5.62814062e-08,1.85695313e-01
-5.62414062e-08,1.85704688e-01
-5.62014062e-08,1.85695313e-01
-5.61614062e-08,1.85704688e-01
-5.61214062e-08,1.85695313e-01
-5.60814062e-08,1.85704688e-01
-5.60414062e-08,1.85695313e-01
-5.60014062e-08,1.85706250e-01
-5.59614062e-08,1.85693750e-01
-5.59214062e-08,1.85706250e-01
-5.58814062e-08,1.85692187e-01
-5.58414062e-08,1.85709375e-01
-5.58014062e-08,1.85689063e-01
-5.57614062e-08,1.85714062e-01
-5.57214062e-08,1.85681250e-01
-5.56814062e-08,1.85728125e-01
-5.56414062e-08,1.85646875e-01
-5.56014062e-08,1.85906250e-01
-5.55614062e-08,1.86156250e-01
-5.55214062e-08,1.86067188e-01
-5.54814062e-08,1.86125000e-01
-5.54414062e-08,1.86079688e-01
-5.54014062e-08,1.86117188e-01
-5.53614062e-08,1.86084375e-01
-5.53214062e-08,1.86114063e-01
-5.52814062e-08,1.86085938e-01
-5.52414062e-08,1.86114063e-01
-5.52014062e-08,1.86085938e-01
-5.51614062e-08,1.86115625e-01
-5.51214062e-08,1.86084375e-01
-5.50814062e-08,1.86118750e-01
-5.50414062e-08,1.86079688e-01
-5.50014062e-08,1.86125000e-01
-5.49614062e-08,1.86064063e-01
-5.49214062e-08,1.86159375e-01
-5.48814062e-08,1.85887500e-01
-5.48414062e-08,1.85651563e-01
-5.48014062e-08,1.85725000e-01
-5.47614062e-08,1.85684375e-01
-5.47214062e-08,1.85710938e-01
-5.46814062e-08,1.85692187e-01
-5.46414062e-08,1.85706250e-01
-5.46014062e-08,1.85695313e-01
-5.45614062e-08,1.85703125e-01
-5.45214062e-08,1.85698438e-01
-5.44814062e-08,1.85700000e-01
-5.44414062e-08,1.85700000e-01
-5.44014062e-08,1.85698438e-01
-5.43614062e-08,1.85703125e-01
-5.43214062e-08,1.85696875e-01
-5.42814062e-08,1.85704688e-01
-5.42414062e-08,1.85693750e-01
-5.42014062e-08,1.85709375e-01
-5.41614062e-08,1.85687500e-01
-5.41214062e-08,1.85717188e-01
-5.40814062e-08,1.85673438e-01
-5.40414062e-08,1.85751562e-01
-5.40014062e-08,1.85495313e-01
-5.39614062e-08,1.85243750e-01
-5.39214062e-08,1.85332812e-01
-5.38814062e-08,1.85276563e-01
-5.38414062e-08,1.85318750e-01
-5.38014062e-08,1.85284375e-01
-5.37614062e-08,1.85314063e-01
-5.37214062e-08,1.85287500e-01
-5.36814062e-08,1.85310937e-01
-5.36414062e-08,1.85290625e-01
-5.36014062e-08,1.85309375e-01
-5.35614062e-08,1.85290625e-01
-5.35214062e-08,1.85307813e-01
-5.34814062e-08,1.85292188e-01
-5.34414062e-08,1.85307813e-01
-5.34014062e-08,1.85292188e-01
-5.33614062e-08,1.85307813e-01
-5.33214062e-08,1.85292188e-01
-5.32814062e-08,1.85307813e-01
-5.32414062e-08,1.85292188e-01
-5.32014062e-08,1.85307813e-01
-5.31614063e-08,1.85292188e-01
-5.31214062e-08,1.85309375e-01
-5.30814062e-08,1.85290625e-01
-5.30414062e-08,1.85309375e-01
-5.30014062e-08,1.85289063e-01
-5.29614062e-08,1.85312500e-01
-5.29214062e-08,1.85285937e-01
-5.28814062e-08,1.85317188e-01
-5.28414062e-08,1.85278125e-01
-5.28014062e-08,1.85331250e-01
-5.27614062e-08,1.85243750e-01
-5.27214062e-08,1.85509375e-01
-5.26814062e-08,1.85753125e-01
-5.26414062e-08,1.85670313e-01
-5.26014062e-08,1.85720313e-01
-5.25614062e-08,1.85684375e-01
-5.25214062e-08,1.85712500e-01
-5.24814062e-08,1.85689063e-01
-5.24414062e-08,1.85709375e-01
-5.24014062e-08,1.85690625e-01
-5.23614062e-08,1.85707813e-01
-5.23214062e-08,1.85692187e-01
-5.22814062e-08,1.85707813e-01
-5.22414062e-08,1.85692187e-01
-5.22014062e-08,1.85706250e-01
-5.21614062e-08,1.85693750e-01
-5.21214062e-08,1.85706250e-01
-5.20814062e-08,1.85692187e-01
-5.20414062e-08,1.85707813e-01
-5.20014062e-08,1.85692187e-01
-5.19614062e-08,1.85707813e-01
-5.19214062e-08,1.85690625e-01
-5.18814062e-08,1.85709375e-01
-5.18414062e-08,1.85689063e-01
-5.18014062e-08,1.85712500e-01
-5.17614062e-08,1.85685938e-01
-5.17214062e-08,1.85717188e-01
-5.16814062e-08,1.85678125e-01
-5.16414062e-08,1.85731250e-01
-5.16014062e-08,1.85643750e-01
-5.15614062e-08,1.85909375e-01
-5.15214062e-08,1.86153125e-01
-5.14814062e-08,1.86070313e-01
-5.14414062e-08,1.86120312e-01
-5.14014062e-08,1.86084375e-01
-5.13614062e-08,1.86112500e-01
-5.13214062e-08,1.86090625e-01
-5.12814062e-08,1.86107812e-01
-5.12414063e-08,1.86092188e-01
-5.12014062e-08,1.86106250e-01
-5.11614062e-08,1.86093750e-01
-5.11214062e-08,1.86104688e-01
-5.10814062e-08,1.86095312e-01
-5.10414062e-08,1.86104688e-01
-5.10014062e-08,1.86095312e-01
-5.09614063e-08,1.86103125e-01
-5.09214062e-08,1.86096875e-01
-5.08814062e-08,1.86103125e-01
-5.08414062e-08,1.86096875e-01
-5.08014062e-08,1.86103125e-01
-5.07614062e-08,1.86096875e-01
-5.07214062e-08,1.86103125e-01
-5.06814062e-08,1.86096875e-01
-5.06414062e-08,1.86103125e-01
-5.06014062e-08,1.86096875e-01
-5.05614062e-08,1.86103125e-01
-5.05214062e-08,1.86096875e-01
-5.04814062e-08,1.86101563e-01
-5.04414062e-08,1.86096875e-01
-5.04014062e-08,1.86101563e-01
-5.03614062e-08,1.86098438e-01
-5.03214062e-08,1.86103125e-01
-5.02814062e-08,1.86096875e-01
-5.02414062e-08,1.86103125e-01
-5.02014062e-08,1.86096875e-01
-5.01614062e-08,1.86103125e-01
-5.01214062e-08,1.86096875e-01
-5.00814062e-08,1.86103125e-01
-5.00414062e-08,1.86096875e-01
-5.00014062e-08,1.86103125e-01
-4.99614062e-08,1.86095312e-01
-4.99214062e-08,1.86104688e-01
-4.98814062e-08,1.86093750e-01
-4.98414062e-08,1.86106250e-01
-4.98014062e-08,1.86090625e-01
-4.97614062e-08,1.86110938e-01
-4.97214062e-08,1.86084375e-01
-4.96814062e-08,1.86125000e-01
-4.96414062e-08,1.86050000e-01
-4.96014062e-08,1.86303125e-01
-4.95614062e-08,1.86559375e-01
-4.95214062e-08,1.86462500e-01
-4.94814062e-08,1.86528125e-01
-4.94414062e-08,1.86476562e-01
-4.94014062e-08,1.86521875e-01
-4.93614062e-08,1.86478125e-01
-4.93214063e-08,1.86521875e-01
-4.92814062e-08,1.86476562e-01
-4.92414062e-08,1.86525000e-01
-4.92014062e-08,1.86470313e-01
-4.91614062e-08,1.86539063e-01
-4.91214062e-08,1.86435938e-01
-4.90814062e-08,1.86717187e-01
-4.90414063e-08,1.86945313e-01
-4.90014062e-08,1.86879688e-01
-4.89614062e-08,1.86910938e-01
-4.89214062e-08,1.86895313e-01
-4.88814062e-08,1.86901563e-01
-4.88414062e-08,1.86901563e-01
-4.88014062e-08,1.86893750e-01
-4.87614063e-08,1.86909375e-01
-4.87214062e-08,1.86884375e-01
-4.86814062e-08,1.86925000e-01
-4.86414062e-08,1.86848438e-01
-4.86014062e-08,1.87104688e-01
-4.85614062e-08,1.87357812e-01
-4.85214062e-08,1.87267188e-01
-4.84814062e-08,1.87323437e-01
-4.84414062e-08,1.87281250e-01
-4.84014062e-08,1.87315625e-01
-4.83614062e-08,1.87287500e-01
-4.83214062e-08,1.87310937e-01
-4.82814062e-08,1.87290625e-01
-4.82414062e-08,1.87309375e-01
-4.82014062e-08,1.87292188e-01
-4.81614062e-08,1.87307813e-01
-4.81214062e-08,1.87292188e-01
-4.80814062e-08,1.87306250e-01
-4.80414062e-08,1.87293750e-01
-4.80014062e-08,1.87306250e-01
-4.79614062e-08,1.87293750e-01
-4.79214062e-08,1.87304688e-01
-4.78814062e-08,1.87295313e-01
-4.78414062e-08,1.87304688e-01
-4.78014062e-08,1.87295313e-01
-4.77614062e-08,1.87304688e-01
-4.77214062e-08,1.87295313e-01
-4.76814062e-08,1.87304688e-01
-4.76414062e-08,1.87296875e-01
-4.76014062e-08,1.87303125e-01
-4.75614062e-08,1.87296875e-01
-4.75214062e-08,1.87303125e-01
-4.74814062e-08,1.87296875e-01
-4.74414062e-08,1.87303125e-01
-4.74014063e-08,1.87296875e-01
-4.73614062e-08,1.87303125e-01
-4.73214062e-08,1.87296875e-01
-4.72814062e-08,1.87303125e-01
-4.72414062e-08,1.87296875e-01
-4.72014062e-08,1.87303125e-01
-4.71614062e-08,1.87296875e-01
-4.71214063e-08,1.87303125e-01
-4.70814062e-08,1.87298437e-01
-4.70414062e-08,1.87301563e-01
-4.70014062e-08,1.87298437e-01
-4.69614062e-08,1.87301563e-01
-4.69214062e-08,1.87298437e-01
-4.68814062e-08,1.87301563e-01
-4.68414063e-08,1.87298437e-01
-4.68014062e-08,1.87301563e-01
-4.67614062e-08,1.87298437e-01
-4.67214062e-08,1.87301563e-01
-4.66814062e-08,1.87298437e-01
-4.66414062e-08,1.87301563e-01
-4.66014062e-08,1.87298437e-01
-4.65614063e-08,1.87301563e-01
-4.65214062e-08,1.87298437e-01
-4.64814062e-08,1.87301563e-01
-4.64414062e-08,1.87298437e-01
-4.64014062e-08,1.87301563e-01
-4.63614062e-08,1.87300000e-01
-4.63214062e-08,1.87300000e-01
-4.62814062e-08,1.87300000e-01
-4.62414062e-08,1.87300000e-01
-4.62014062e-08,1.87300000e-01
-4.61614062e-08,1.87300000e-01
-4.61214062e-08,1.87300000e-01
-4.60814062e-08,1.87300000e-01
-4.60414062e-08,1.87300000e-01
-4.60014062e-08,1.87300000e-01
-4.59614062e-08,1.87300000e-01
-4.59214062e-08,1.87298437e-01
-4.58814062e-08,1.87301563e-01
-4.58414062e-08,1.87298437e-01
-4.58014062e-08,1.87301563e-01
-4.57614062e-08,1.87298437e-01
-4.57214062e-08,1.87303125e-01
-4.56814062e-08,1.87296875e-01
-4.56414062e-08,1.87303125e-01
-4.56014062e-08,1.87295313e-01
-4.55614062e-08,1.87304688e-01
-4.55214062e-08,1.87293750e-01
-4.54814063e-08,1.87307813e-01
-4.54414062e-08,1.87290625e-01
-4.54014062e-08,1.87312500e-01
-4.53614062e-08,1.87281250e-01
-4.53214062e-08,1.87328125e-01
-4.52814062e-08,1.87246875e-01
-4.52414062e-08,1.87506250e-01
-4.52014063e-08,1.87756250e-01
-4.51614062e-08,1.87667187e-01
-4.51214062e-08,1.87723438e-01
-4.50814062e-08,1.87681250e-01
-4.50414062e-08,1.87715625e-01
-4.50014062e-08,1.87687500e-01
-4.49614062e-08,1.87710938e-01
-4.49214063e-08,1.87689063e-01
-4.48814062e-08,1.87709375e-01
-4.48414062e-08,1.87690625e-01
-4.48014062e-08,1.87707813e-01
-4.47614062e-08,1.87692187e-01
-4.47214062e-08,1.87707813e-01
-4.46814062e-08,1.87692187e-01
-4.46414063e-08,1.87706250e-01
-4.46014062e-08,1.87693750e-01
-4.45614062e-08,1.87706250e-01
-4.45214062e-08,1.87693750e-01
-4.44814062e-08,1.87706250e-01
-4.44414062e-08,1.87693750e-01
-4.44014062e-08,1.87706250e-01
-4.43614063e-08,1.87693750e-01
-4.43214062e-08,1.87704687e-01
-4.42814062e-08,1.87695313e-01
-4.42414062e-08,1.87704687e-01
-4.42014062e-08,1.87695313e-01
-4.41614062e-08,1.87704687e-01
-4.41214062e-08,1.87695313e-01
-4.40814062e-08,1.87704687e-01
-4.40414062e-08,1.87695313e-01
-4.40014062e-08,1.87704687e-01
-4.39614062e-08,1.87695313e-01
-4.39214062e-08,1.87704687e-01
-4.38814062e-08,1.87695313e-01
-4.38414062e-08,1.87704687e-01
-4.38014062e-08,1.87695313e-01
-4.37614062e-08,1.87704687e-01
-4.37214062e-08,1.87695313e-01
-4.36814062e-08,1.87704687e-01
-4.36414062e-08,1.87695313e-01
-4.36014062e-08,1.87704687e-01
-4.35614063e-08,1.87695313e-01
-4.35214062e-08,1.87704687e-01
-4.34814062e-08,1.87695313e-01
-4.34414062e-08,1.87704687e-01
-4.34014062e-08,1.87695313e-01
-4.33614062e-08,1.87704687e-01
-4.33214062e-08,1.87695313e-01
-4.32814063e-08,1.87704687e-01
-4.32414062e-08,1.87695313e-01
-4.32014062e-08,1.87704687e-01
-4.31614062e-08,1.87695313e-01
-4.31214062e-08,1.87704687e-01
-4.30814062e-08,1.87695313e-01
-4.30414062e-08,1.87704687e-01
-4.30014063e-08,1.87695313e-01
-4.29614062e-08,1.87704687e-01
-4.29214062e-08,1.87695313e-01
-4.28814062e-08,1.87704687e-01
-4.28414062e-08,1.87695313e-01
-4.28014062e-08,1.87704687e-01
-4.27614062e-08,1.87696875e-01
-4.27214063e-08,1.87704687e-01
-4.26814062e-08,1.87695313e-01
-4.26414062e-08,1.87704687e-01
-4.26014062e-08,1.87695313e-01
-4.25614062e-08,1.87704687e-01
-4.25214062e-08,1.87695313e-01
-4.24814062e-08,1.87704687e-01
-4.24414063e-08,1.87696875e-01
-4.24014062e-08,1.87704687e-01
-4.23614062e-08,1.87695313e-01
-4.23214062e-08,1.87704687e-01
-4.22814062e-08,1.87695313e-01
-4.22414062e-08,1.87704687e-01
-4.22014062e-08,1.87695313e-01
-4.21614062e-08,1.87704687e-01
-4.21214062e-08,1.87695313e-01
-4.20814062e-08,1.87704687e-01
-4.20414062e-08,1.87695313e-01
-4.20014062e-08,1.87704687e-01
-4.19614062e-08,1.87695313e-01
-4.19214062e-08,1.87704687e-01
-4.18814062e-08,1.87695313e-01
-4.18414062e-08,1.87704687e-01
-4.18014062e-08,1.87695313e-01
-4.17614062e-08,1.87704687e-01
-4.17214062e-08,1.87695313e-01
-4.16814062e-08,1.87704687e-01
-4.16414063e-08,1.87695313e-01
-4.16014062e-08,1.87704687e-01
-4.15614062e-08,1.87695313e-01
-4.15214062e-08,1.87704687e-01
-4.14814062e-08,1.87695313e-01
-4.14414062e-08,1.87704687e-01
-4.14014062e-08,1.87695313e-01
-4.13614063e-08,1.87704687e-01
-4.13214062e-08,1.87695313e-01
-4.12814062e-08,1.87704687e-01
-4.12414062e-08,1.87695313e-01
-4.12014062e-08,1.87704687e-01
-4.11614062e-08,1.87695313e-01
-4.11214062e-08,1.87704687e-01
-4.10814063e-08,1.87695313e-01
-4.10414062e-08,1.87704687e-01
-4.10014062e-08,1.87695313e-01
-4.09614062e-08,1.87704687e-01
-4.09214062e-08,1.87695313e-01
-4.08814062e-08,1.87704687e-01
-4.08414062e-08,1.87695313e-01
-4.08014063e-08,1.87704687e-01
-4.07614062e-08,1.87695313e-01
-4.07214062e-08,1.87704687e-01
-4.06814062e-08,1.87693750e-01
-4.06414062e-08,1.87706250e-01
-4.06014062e-08,1.87693750e-01
-4.05614062e-08,1.87706250e-01
-4.05214063e-08,1.87693750e-01
-4.04814062e-08,1.87706250e-01
-4.04414062e-08,1.87693750e-01
-4.04014062e-08,1.87706250e-01
-4.03614062e-08,1.87693750e-01
-4.03214062e-08,1.87706250e-01
-4.02814062e-08,1.87693750e-01
-4.02414063e-08,1.87706250e-01
-4.02014062e-08,1.87693750e-01
-4.01614062e-08,1.87707813e-01
-4.01214062e-08,1.87692187e-01
-4.00814062e-08,1.87707813e-01
-4.00414062e-08,1.87692187e-01
-4.00014062e-08,1.87707813e-01
-3.99614062e-08,1.87692187e-01
-3.99214062e-08,1.87709375e-01
-3.98814062e-08,1.87690625e-01
-3.98414062e-08,1.87709375e-01
-3.98014062e-08,1.87690625e-01
-3.97614062e-08,1.87710938e-01
-3.97214063e-08,1.87689063e-01
-3.96814062e-08,1.87712500e-01
-3.96414062e-08,1.87687500e-01
-3.96014062e-08,1.87714063e-01
-3.95614062e-08,1.87684375e-01
-3.95214062e-08,1.87717187e-01
-3.94814062e-08,1.87679687e-01
-3.94414063e-08,1.87726562e-01
-3.94014062e-08,1.87664063e-01
-3.93614062e-08,1.87760938e-01
-3.93214062e-08,1.87485938e-01
-3.92814062e-08,1.87251562e-01
-3.92414062e-08,1.87323437e-01
-3.92014062e-08,1.87285937e-01
-3.91614063e-08,1.87309375e-01
-3.91214062e-08,1.87293750e-01
-3.90814062e-08,1.87303125e-01
-3.90414062e-08,1.87298437e-01
-3.90014062e-08,1.87300000e-01
-3.89614062e-08,1.87301563e-01
-3.89214062e-08,1.87298437e-01
-3.88814063e-08,1.87303125e-01
-3.88414062e-08,1.87295313e-01
-3.88014062e-08,1.87304688e-01
-3.87614062e-08,1.87293750e-01
-3.87214062e-08,1.87307813e-01
-3.86814062e-08,1.87292188e-01
-3.86414062e-08,1.87309375e-01
-3.86014063e-08,1.87289063e-01
-3.85614062e-08,1.87314063e-01
-3.85214062e-08,1.87282813e-01
