trails/0bdfa5e45fec98341abdd20552c140b4/aes_ch1_20250507120246745.csv

Model,MSO66B
Label,
Waveform Type,ANALOG
Horizontal Units,s
Sample Interval,4.00000000e-11
Record Length,10000
Zero Index,1599.01953125
Vertical Units,A
ANALOG_Thumbnail,
yOffset,1.84500000e-01
yPosition,8.40000000e-01

Labels,
TIME,CH1
-6.39607813e-08,1.84081250e-01
-6.39207812e-08,1.84120312e-01
-6.38807813e-08,1.84073437e-01
-6.38407812e-08,1.84135938e-01
-6.38007812e-08,1.84039063e-01
-6.37607812e-08,1.84314063e-01
-6.37207812e-08,1.84548437e-01
-6.36807813e-08,1.84475000e-01
-6.36407812e-08,1.84514063e-01
-6.36007813e-08,1.84490625e-01
-6.35607812e-08,1.84506250e-01
-6.35207812e-08,1.84496875e-01
-6.34807812e-08,1.84501562e-01
-6.34407812e-08,1.84500000e-01
-6.34007813e-08,1.84496875e-01
-6.33607812e-08,1.84504688e-01
-6.33207813e-08,1.84492188e-01
-6.32807812e-08,1.84510937e-01
-6.32407812e-08,1.84482813e-01
-6.32007812e-08,1.84526563e-01
-6.31607812e-08,1.84448438e-01
-6.31207813e-08,1.84704688e-01
-6.30807812e-08,1.84956250e-01
-6.30407813e-08,1.84867188e-01
-6.30007812e-08,1.84921875e-01
-6.29607812e-08,1.84882812e-01
-6.29207812e-08,1.84914063e-01
-6.28807812e-08,1.84889063e-01
-6.28407813e-08,1.84909375e-01
-6.28007812e-08,1.84892187e-01
-6.27607813e-08,1.84906250e-01
-6.27207812e-08,1.84895313e-01
-6.26807812e-08,1.84901563e-01
-6.26407812e-08,1.84900000e-01
-6.26007812e-08,1.84896875e-01
-6.25607813e-08,1.84909375e-01
-6.25207812e-08,1.84881250e-01
-6.24807813e-08,1.84943750e-01
-6.24407812e-08,1.84703125e-01
-6.24007812e-08,1.84434375e-01
-6.23607812e-08,1.84540625e-01
-6.23207812e-08,1.84468750e-01
-6.22807813e-08,1.84526563e-01
-6.22407812e-08,1.84475000e-01
-6.22007813e-08,1.84521875e-01
-6.21607812e-08,1.84478125e-01
-6.21207812e-08,1.84520313e-01
-6.20807812e-08,1.84479688e-01
-6.20407812e-08,1.84520313e-01
-6.20007813e-08,1.84479688e-01
-6.19607812e-08,1.84520313e-01
-6.19207812e-08,1.84478125e-01
-6.18807812e-08,1.84523437e-01
-6.18407812e-08,1.84473438e-01
-6.18007812e-08,1.84531250e-01
-6.17607812e-08,1.84459375e-01
-6.17207813e-08,1.84565625e-01
-6.16807812e-08,1.84281250e-01
-6.16407812e-08,1.84056250e-01
-6.16007812e-08,1.84120312e-01
-6.15607812e-08,1.84089063e-01
-6.15207812e-08,1.84106250e-01
-6.14807812e-08,1.84096875e-01
-6.14407813e-08,1.84101563e-01
-6.14007812e-08,1.84100000e-01
-6.13607812e-08,1.84098438e-01
-6.13207812e-08,1.84101563e-01
-6.12807812e-08,1.84096875e-01
-6.12407812e-08,1.84103125e-01
-6.12007812e-08,1.84095312e-01
-6.11607813e-08,1.84104688e-01
-6.11207812e-08,1.84095312e-01
-6.10807812e-08,1.84104688e-01
-6.10407812e-08,1.84093750e-01
-6.10007812e-08,1.84106250e-01
-6.09607812e-08,1.84093750e-01
-6.09207812e-08,1.84106250e-01
-6.08807813e-08,1.84093750e-01
-6.08407812e-08,1.84107812e-01
-6.08007812e-08,1.84092188e-01
-6.07607812e-08,1.84107812e-01
-6.07207812e-08,1.84092188e-01
-6.06807812e-08,1.84109375e-01
-6.06407812e-08,1.84090625e-01
-6.06007813e-08,1.84109375e-01
-6.05607812e-08,1.84089063e-01
-6.05207812e-08,1.84110938e-01
-6.04807812e-08,1.84087500e-01
-6.04407812e-08,1.84112500e-01
-6.04007812e-08,1.84084375e-01
-6.03607812e-08,1.84117188e-01
-6.03207813e-08,1.84079688e-01
-6.02807812e-08,1.84125000e-01
-6.02407812e-08,1.84065625e-01
-6.02007812e-08,1.84159375e-01
-6.01607812e-08,1.83887500e-01
-6.01207813e-08,1.83651563e-01
-6.00807812e-08,1.83725000e-01
-6.00407813e-08,1.83684375e-01
-6.00007812e-08,1.83710938e-01
-5.99607812e-08,1.83692187e-01
-5.99207812e-08,1.83704688e-01
-5.98807812e-08,1.83696875e-01
-5.98407813e-08,1.83703125e-01
-5.98007812e-08,1.83698438e-01
-5.97607813e-08,1.83701562e-01
-5.97207812e-08,1.83700000e-01
-5.96807812e-08,1.83700000e-01
-5.96407812e-08,1.83701562e-01
-5.96007812e-08,1.83698438e-01
-5.95607812e-08,1.83701562e-01
-5.95207812e-08,1.83698438e-01
-5.94807812e-08,1.83701562e-01
-5.94407812e-08,1.83696875e-01
-5.94007812e-08,1.83703125e-01
-5.93607812e-08,1.83696875e-01
-5.93207812e-08,1.83703125e-01
-5.92807812e-08,1.83696875e-01
-5.92407812e-08,1.83704688e-01
-5.92007812e-08,1.83695313e-01
-5.91607812e-08,1.83704688e-01
-5.91207812e-08,1.83695313e-01
-5.90807812e-08,1.83704688e-01
-5.90407812e-08,1.83695313e-01
-5.90007812e-08,1.83706250e-01
-5.89607812e-08,1.83693750e-01
-5.89207812e-08,1.83706250e-01
-5.88807812e-08,1.83693750e-01
-5.88407812e-08,1.83706250e-01
-5.88007812e-08,1.83693750e-01
-5.87607812e-08,1.83707813e-01
-5.87207812e-08,1.83692187e-01
-5.86807812e-08,1.83707813e-01
-5.86407812e-08,1.83692187e-01
-5.86007812e-08,1.83709375e-01
-5.85607812e-08,1.83690625e-01
-5.85207812e-08,1.83709375e-01
-5.84807812e-08,1.83689062e-01
-5.84407812e-08,1.83710938e-01
-5.84007812e-08,1.83687500e-01
-5.83607812e-08,1.83712500e-01
-5.83207812e-08,1.83685938e-01
-5.82807812e-08,1.83715625e-01
-5.82407812e-08,1.83681250e-01
-5.82007812e-08,1.83721875e-01
-5.81607812e-08,1.83673438e-01
-5.81207812e-08,1.83737500e-01
-5.80807812e-08,1.83637500e-01
-5.80407812e-08,1.83915625e-01
-5.80007812e-08,1.84146875e-01
-5.79607812e-08,1.84078125e-01
-5.79207812e-08,1.84112500e-01
-5.78807812e-08,1.84092188e-01
-5.78407812e-08,1.84103125e-01
-5.78007812e-08,1.84098438e-01
-5.77607812e-08,1.84098438e-01
-5.77207812e-08,1.84103125e-01
-5.76807812e-08,1.84095312e-01
-5.76407812e-08,1.84106250e-01
-5.76007812e-08,1.84092188e-01
-5.75607812e-08,1.84110938e-01
-5.75207812e-08,1.84087500e-01
-5.74807812e-08,1.84115625e-01
-5.74407812e-08,1.84078125e-01
-5.74007812e-08,1.84132813e-01
-5.73607812e-08,1.84042188e-01
-5.73207812e-08,1.84310937e-01
-5.72807812e-08,1.84551563e-01
-5.72407812e-08,1.84473438e-01
-5.72007812e-08,1.84517188e-01
-5.71607812e-08,1.84489062e-01
-5.71207812e-08,1.84507813e-01
-5.70807812e-08,1.84495313e-01
-5.70407812e-08,1.84503125e-01
-5.70007812e-08,1.84498438e-01
-5.69607812e-08,1.84500000e-01
-5.69207812e-08,1.84501562e-01
-5.68807812e-08,1.84496875e-01
-5.68407812e-08,1.84504688e-01
-5.68007812e-08,1.84493750e-01
-5.67607812e-08,1.84507813e-01
-5.67207812e-08,1.84489062e-01
-5.66807812e-08,1.84514063e-01
-5.66407812e-08,1.84481250e-01
-5.66007812e-08,1.84529688e-01
-5.65607812e-08,1.84445313e-01
-5.65207812e-08,1.84707813e-01
-5.64807812e-08,1.84954687e-01
-5.64407812e-08,1.84870312e-01
-5.64007812e-08,1.84920313e-01
-5.63607812e-08,1.84884375e-01
-5.63207812e-08,1.84910938e-01
-5.62807812e-08,1.84890625e-01
-5.62407812e-08,1.84907813e-01
-5.62007812e-08,1.84893750e-01
-5.61607812e-08,1.84904687e-01
-5.61207812e-08,1.84895313e-01
-5.60807812e-08,1.84903125e-01
-5.60407812e-08,1.84896875e-01
-5.60007812e-08,1.84901563e-01
-5.59607812e-08,1.84898438e-01
-5.59207812e-08,1.84900000e-01
-5.58807812e-08,1.84900000e-01
-5.58407812e-08,1.84898438e-01
-5.58007812e-08,1.84901563e-01
-5.57607812e-08,1.84898438e-01
-5.57207812e-08,1.84903125e-01
-5.56807812e-08,1.84896875e-01
-5.56407812e-08,1.84904687e-01
-5.56007812e-08,1.84895313e-01
-5.55607812e-08,1.84906250e-01
-5.55207812e-08,1.84892187e-01
-5.54807812e-08,1.84909375e-01
-5.54407812e-08,1.84889063e-01
-5.54007812e-08,1.84912500e-01
-5.53607812e-08,1.84884375e-01
-5.53207812e-08,1.84921875e-01
-5.52807812e-08,1.84868750e-01
-5.52407812e-08,1.84956250e-01
-5.52007812e-08,1.84689063e-01
-5.51607812e-08,1.84448438e-01
-5.51207812e-08,1.84528125e-01
-5.50807812e-08,1.84482813e-01
-5.50407812e-08,1.84512500e-01
-5.50007812e-08,1.84490625e-01
-5.49607812e-08,1.84506250e-01
-5.49207812e-08,1.84495313e-01
-5.48807812e-08,1.84501562e-01
-5.48407812e-08,1.84500000e-01
-5.48007812e-08,1.84498438e-01
-5.47607812e-08,1.84503125e-01
-5.47207812e-08,1.84495313e-01
-5.46807812e-08,1.84507813e-01
-5.46407812e-08,1.84489062e-01
-5.46007812e-08,1.84517188e-01
-5.45607812e-08,1.84473438e-01
-5.45207812e-08,1.84553125e-01
-5.44807812e-08,1.84293750e-01
-5.44407812e-08,1.84043750e-01
-5.44007812e-08,1.84131250e-01
-5.43607812e-08,1.84078125e-01
-5.43207812e-08,1.84115625e-01
-5.42807812e-08,1.84087500e-01
-5.42407812e-08,1.84109375e-01
-5.42007812e-08,1.84092188e-01
-5.41607812e-08,1.84106250e-01
-5.41207812e-08,1.84096875e-01
-5.40807812e-08,1.84101563e-01
-5.40407812e-08,1.84100000e-01
-5.40007812e-08,1.84096875e-01
-5.39607812e-08,1.84106250e-01
-5.39207812e-08,1.84087500e-01
-5.38807812e-08,1.84121875e-01
-5.38407812e-08,1.84053125e-01
-5.38007812e-08,1.84300000e-01
-5.37607812e-08,1.84560937e-01
-5.37207812e-08,1.84462500e-01
-5.36807812e-08,1.84528125e-01
-5.36407812e-08,1.84476562e-01
-5.36007812e-08,1.84520313e-01
-5.35607812e-08,1.84482813e-01
-5.35207812e-08,1.84515625e-01
-5.34807812e-08,1.84484375e-01
-5.34407812e-08,1.84514063e-01
-5.34007812e-08,1.84485938e-01
-5.33607812e-08,1.84512500e-01
-5.33207812e-08,1.84487500e-01
-5.32807812e-08,1.84512500e-01
-5.32407812e-08,1.84487500e-01
-5.32007812e-08,1.84512500e-01
-5.31607812e-08,1.84487500e-01
-5.31207812e-08,1.84512500e-01
-5.30807812e-08,1.84487500e-01
-5.30407812e-08,1.84514063e-01
-5.30007812e-08,1.84484375e-01
-5.29607812e-08,1.84517188e-01
-5.29207812e-08,1.84479688e-01
-5.28807812e-08,1.84525000e-01
-5.28407812e-08,1.84465625e-01
-5.28007812e-08,1.84559375e-01
-5.27607812e-08,1.84289063e-01
-5.27207812e-08,1.84048437e-01
-5.26807812e-08,1.84128125e-01
-5.26407812e-08,1.84081250e-01
-5.26007812e-08,1.84114063e-01
-5.25607812e-08,1.84089063e-01
-5.25207812e-08,1.84109375e-01
-5.24807812e-08,1.84092188e-01
-5.24407813e-08,1.84106250e-01
-5.24007812e-08,1.84093750e-01
-5.23607812e-08,1.84106250e-01
-5.23207812e-08,1.84095312e-01
-5.22807812e-08,1.84104688e-01
-5.22407812e-08,1.84095312e-01
-5.22007812e-08,1.84104688e-01
-5.21607812e-08,1.84095312e-01
-5.21207812e-08,1.84104688e-01
-5.20807812e-08,1.84095312e-01
-5.20407812e-08,1.84104688e-01
-5.20007812e-08,1.84095312e-01
-5.19607812e-08,1.84104688e-01
-5.19207812e-08,1.84093750e-01
-5.18807812e-08,1.84106250e-01
-5.18407812e-08,1.84093750e-01
-5.18007812e-08,1.84106250e-01
-5.17607812e-08,1.84092188e-01
-5.17207812e-08,1.84107812e-01
-5.16807812e-08,1.84090625e-01
-5.16407812e-08,1.84109375e-01
-5.16007812e-08,1.84089063e-01
-5.15607812e-08,1.84114063e-01
-5.15207812e-08,1.84082812e-01
-5.14807812e-08,1.84121875e-01
-5.14407812e-08,1.84068750e-01
-5.14007812e-08,1.84156250e-01
-5.13607812e-08,1.83890625e-01
-5.13207812e-08,1.83648438e-01
-5.12807812e-08,1.83728125e-01
-5.12407812e-08,1.83681250e-01
-5.12007812e-08,1.83714062e-01
-5.11607812e-08,1.83689062e-01
-5.11207812e-08,1.83707813e-01
-5.10807812e-08,1.83693750e-01
-5.10407812e-08,1.83704688e-01
-5.10007812e-08,1.83695313e-01
-5.09607812e-08,1.83703125e-01
-5.09207812e-08,1.83698438e-01
-5.08807812e-08,1.83701562e-01
-5.08407812e-08,1.83700000e-01
-5.08007812e-08,1.83700000e-01
-5.07607812e-08,1.83701562e-01
-5.07207812e-08,1.83696875e-01
-5.06807812e-08,1.83704688e-01
-5.06407812e-08,1.83693750e-01
-5.06007812e-08,1.83707813e-01
-5.05607812e-08,1.83689062e-01
-5.05207813e-08,1.83717188e-01
-5.04807812e-08,1.83673438e-01
-5.04407812e-08,1.83751563e-01
-5.04007812e-08,1.83495313e-01
-5.03607812e-08,1.83242188e-01
-5.03207812e-08,1.83332812e-01
-5.02807812e-08,1.83276563e-01
-5.02407812e-08,1.83318750e-01
-5.02007812e-08,1.83284375e-01
-5.01607812e-08,1.83314063e-01
-5.01207812e-08,1.83287500e-01
-5.00807812e-08,1.83310937e-01
-5.00407812e-08,1.83289063e-01
-5.00007812e-08,1.83309375e-01
-4.99607812e-08,1.83290625e-01
-4.99207812e-08,1.83307813e-01
-4.98807812e-08,1.83292188e-01
-4.98407812e-08,1.83307813e-01
-4.98007812e-08,1.83292188e-01
-4.97607812e-08,1.83306250e-01
-4.97207812e-08,1.83293750e-01
-4.96807812e-08,1.83306250e-01
-4.96407812e-08,1.83293750e-01
-4.96007812e-08,1.83306250e-01
-4.95607812e-08,1.83293750e-01
-4.95207812e-08,1.83306250e-01
-4.94807812e-08,1.83293750e-01
-4.94407812e-08,1.83306250e-01
-4.94007812e-08,1.83293750e-01
-4.93607812e-08,1.83306250e-01
-4.93207812e-08,1.83293750e-01
-4.92807812e-08,1.83306250e-01
-4.92407812e-08,1.83293750e-01
-4.92007812e-08,1.83306250e-01
-4.91607812e-08,1.83292188e-01
-4.91207812e-08,1.83307813e-01
-4.90807812e-08,1.83292188e-01
-4.90407812e-08,1.83309375e-01
-4.90007812e-08,1.83290625e-01
-4.89607812e-08,1.83310937e-01
-4.89207812e-08,1.83287500e-01
-4.88807813e-08,1.83315625e-01
-4.88407812e-08,1.83279688e-01
-4.88007812e-08,1.83329688e-01
-4.87607812e-08,1.83245313e-01
-4.87207812e-08,1.83507813e-01
-4.86807812e-08,1.83754688e-01
-4.86407812e-08,1.83668750e-01
-4.86007813e-08,1.83721875e-01
-4.85607812e-08,1.83681250e-01
-4.85207812e-08,1.83715625e-01
-4.84807812e-08,1.83685938e-01
-4.84407812e-08,1.83714062e-01
-4.84007812e-08,1.83685938e-01
-4.83607812e-08,1.83714062e-01
-4.83207813e-08,1.83684375e-01
-4.82807812e-08,1.83717188e-01
-4.82407812e-08,1.83678125e-01
-4.82007812e-08,1.83731250e-01
-4.81607812e-08,1.83645313e-01
-4.81207812e-08,1.83907813e-01
-4.80807812e-08,1.84154687e-01
-4.80407812e-08,1.84067188e-01
-4.80007812e-08,1.84123438e-01
-4.79607812e-08,1.84079688e-01
-4.79207812e-08,1.84118750e-01
-4.78807812e-08,1.84081250e-01
-4.78407812e-08,1.84120312e-01
-4.78007812e-08,1.84075000e-01
-4.77607812e-08,1.84132813e-01
-4.77207812e-08,1.84042188e-01
-4.76807812e-08,1.84309375e-01
-4.76407812e-08,1.84553125e-01
-4.76007812e-08,1.84470313e-01
-4.75607812e-08,1.84520313e-01
-4.75207812e-08,1.84484375e-01
-4.74807812e-08,1.84512500e-01
-4.74407812e-08,1.84489062e-01
-4.74007812e-08,1.84510937e-01
-4.73607812e-08,1.84490625e-01
-4.73207812e-08,1.84509375e-01
-4.72807812e-08,1.84492188e-01
-4.72407812e-08,1.84507813e-01
-4.72007812e-08,1.84492188e-01
-4.71607812e-08,1.84507813e-01
-4.71207812e-08,1.84492188e-01
-4.70807812e-08,1.84507813e-01
-4.70407812e-08,1.84492188e-01
-4.70007812e-08,1.84509375e-01
-4.69607813e-08,1.84490625e-01
-4.69207812e-08,1.84509375e-01
-4.68807812e-08,1.84489062e-01
-4.68407812e-08,1.84510937e-01
-4.68007812e-08,1.84487500e-01
-4.67607812e-08,1.84514063e-01
-4.67207812e-08,1.84482813e-01
-4.66807813e-08,1.84521875e-01
-4.66407812e-08,1.84468750e-01
-4.66007812e-08,1.84556250e-01
-4.65607812e-08,1.84290625e-01
-4.65207812e-08,1.84045313e-01
-4.64807812e-08,1.84131250e-01
-4.64407812e-08,1.84076563e-01
-4.64007813e-08,1.84118750e-01
-4.63607812e-08,1.84081250e-01
-4.63207812e-08,1.84121875e-01
-4.62807812e-08,1.84070312e-01
-4.62407812e-08,1.84151563e-01
-4.62007812e-08,1.83896875e-01
-4.61607812e-08,1.83639063e-01
-4.61207813e-08,1.83739062e-01
-4.60807812e-08,1.83668750e-01
-4.60407812e-08,1.83729688e-01
-4.60007812e-08,1.83670313e-01
-4.59607812e-08,1.83734375e-01
-4.59207812e-08,1.83657813e-01
-4.58807812e-08,1.83767188e-01
-4.58407812e-08,1.83479688e-01
-4.58007812e-08,1.83257813e-01
-4.57607812e-08,1.83317188e-01
-4.57207812e-08,1.83292188e-01
-4.56807812e-08,1.83301563e-01
-4.56407812e-08,1.83304688e-01
-4.56007812e-08,1.83290625e-01
-4.55607812e-08,1.83315625e-01
-4.55207812e-08,1.83273437e-01
-4.54807812e-08,1.83351563e-01
-4.54407812e-08,1.83093750e-01
-4.54007812e-08,1.82843750e-01
-4.53607812e-08,1.82931250e-01
-4.53207812e-08,1.82878125e-01
-4.52807812e-08,1.82915625e-01
-4.52407812e-08,1.82887500e-01
-4.52007812e-08,1.82910938e-01
-4.51607812e-08,1.82892187e-01
-4.51207812e-08,1.82906250e-01
-4.50807812e-08,1.82893750e-01
-4.50407813e-08,1.82904687e-01
-4.50007812e-08,1.82896875e-01
-4.49607812e-08,1.82903125e-01
-4.49207812e-08,1.82898438e-01
-4.48807812e-08,1.82900000e-01
-4.48407812e-08,1.82900000e-01
-4.48007812e-08,1.82898438e-01
-4.47607813e-08,1.82903125e-01
-4.47207812e-08,1.82893750e-01
-4.46807812e-08,1.82909375e-01
-4.46407812e-08,1.82885938e-01
-4.46007812e-08,1.82923438e-01
-4.45607812e-08,1.82851563e-01
-4.45207812e-08,1.83101563e-01
-4.44807813e-08,1.83360938e-01
-4.44407812e-08,1.83262500e-01
-4.44007812e-08,1.83328125e-01
-4.43607812e-08,1.83276563e-01
-4.43207812e-08,1.83320312e-01
-4.42807812e-08,1.83279688e-01
-4.42407812e-08,1.83320312e-01
-4.42007813e-08,1.83279688e-01
-4.41607812e-08,1.83321875e-01
-4.41207812e-08,1.83273437e-01
-4.40807812e-08,1.83335938e-01
-4.40407812e-08,1.83240625e-01
-4.40007812e-08,1.83512500e-01
-4.39607812e-08,1.83751563e-01
-4.39207813e-08,1.83671875e-01
-4.38807812e-08,1.83718750e-01
-4.38407812e-08,1.83684375e-01
-4.38007812e-08,1.83712500e-01
-4.37607812e-08,1.83689062e-01
-4.37207812e-08,1.83710938e-01
-4.36807812e-08,1.83689062e-01
-4.36407812e-08,1.83710938e-01
-4.36007812e-08,1.83689062e-01
-4.35607812e-08,1.83712500e-01
-4.35207812e-08,1.83685938e-01
-4.34807812e-08,1.83717188e-01
-4.34407812e-08,1.83678125e-01
-4.34007812e-08,1.83731250e-01
-4.33607812e-08,1.83643750e-01
-4.33207812e-08,1.83909375e-01
-4.32807812e-08,1.84153125e-01
-4.32407812e-08,1.84070312e-01
-4.32007812e-08,1.84120312e-01
-4.31607812e-08,1.84084375e-01
-4.31207813e-08,1.84112500e-01
-4.30807812e-08,1.84089063e-01
-4.30407812e-08,1.84109375e-01
-4.30007812e-08,1.84092188e-01
-4.29607812e-08,1.84106250e-01
-4.29207812e-08,1.84093750e-01
-4.28807812e-08,1.84106250e-01
-4.28407813e-08,1.84095312e-01
-4.28007812e-08,1.84104688e-01
-4.27607812e-08,1.84095312e-01
-4.27207812e-08,1.84104688e-01
-4.26807812e-08,1.84096875e-01
-4.26407812e-08,1.84103125e-01
-4.26007812e-08,1.84096875e-01
-4.25607813e-08,1.84103125e-01
-4.25207812e-08,1.84096875e-01
-4.24807812e-08,1.84103125e-01
-4.24407812e-08,1.84096875e-01
-4.24007812e-08,1.84103125e-01
-4.23607812e-08,1.84098438e-01
-4.23207812e-08,1.84101563e-01
-4.22807813e-08,1.84098438e-01
-4.22407812e-08,1.84101563e-01
-4.22007812e-08,1.84098438e-01
-4.21607812e-08,1.84101563e-01
-4.21207812e-08,1.84098438e-01
-4.20807812e-08,1.84101563e-01
-4.20407812e-08,1.84098438e-01
-4.20007813e-08,1.84101563e-01
-4.19607812e-08,1.84098438e-01
-4.19207812e-08,1.84101563e-01
-4.18807812e-08,1.84098438e-01
-4.18407812e-08,1.84101563e-01
-4.18007812e-08,1.84098438e-01
-4.17607812e-08,1.84101563e-01
-4.17207813e-08,1.84098438e-01
-4.16807812e-08,1.84100000e-01
-4.16407812e-08,1.84100000e-01
-4.16007812e-08,1.84100000e-01
-4.15607812e-08,1.84100000e-01
-4.15207812e-08,1.84100000e-01
-4.14807812e-08,1.84100000e-01
-4.14407812e-08,1.84100000e-01
-4.14007812e-08,1.84100000e-01
-4.13607812e-08,1.84100000e-01
-4.13207812e-08,1.84100000e-01
-4.12807812e-08,1.84100000e-01
-4.12407812e-08,1.84100000e-01
-4.12007813e-08,1.84100000e-01
-4.11607812e-08,1.84100000e-01
-4.11207812e-08,1.84100000e-01
-4.10807812e-08,1.84100000e-01
-4.10407812e-08,1.84100000e-01
-4.10007812e-08,1.84100000e-01
-4.09607812e-08,1.84100000e-01
-4.09207813e-08,1.84100000e-01
-4.08807812e-08,1.84100000e-01
-4.08407812e-08,1.84100000e-01
-4.08007812e-08,1.84100000e-01
-4.07607812e-08,1.84100000e-01
-4.07207812e-08,1.84100000e-01
-4.06807812e-08,1.84101563e-01
-4.06407813e-08,1.84098438e-01
-4.06007812e-08,1.84101563e-01
-4.05607812e-08,1.84098438e-01
-4.05207812e-08,1.84101563e-01
-4.04807812e-08,1.84098438e-01
-4.04407812e-08,1.84101563e-01
-4.04007812e-08,1.84098438e-01
-4.03607813e-08,1.84101563e-01
-4.03207812e-08,1.84098438e-01
-4.02807812e-08,1.84101563e-01
-4.02407812e-08,1.84098438e-01
-4.02007812e-08,1.84101563e-01
-4.01607812e-08,1.84098438e-01
-4.01207812e-08,1.84101563e-01
-4.00807813e-08,1.84098438e-01
-4.00407812e-08,1.84101563e-01
-4.00007812e-08,1.84098438e-01
-3.99607812e-08,1.84101563e-01
-3.99207812e-08,1.84098438e-01
-3.98807812e-08,1.84101563e-01
-3.98407812e-08,1.84096875e-01
-3.98007813e-08,1.84103125e-01
-3.97607812e-08,1.84096875e-01
-3.97207812e-08,1.84103125e-01
-3.96807812e-08,1.84096875e-01
-3.96407812e-08,1.84103125e-01
-3.96007812e-08,1.84096875e-01
-3.95607812e-08,1.84103125e-01
-3.95207813e-08,1.84096875e-01
-3.94807812e-08,1.84103125e-01
-3.94407812e-08,1.84095312e-01
-3.94007812e-08,1.84104688e-01
-3.93607812e-08,1.84095312e-01
-3.93207812e-08,1.84104688e-01
-3.92807813e-08,1.84095312e-01
-3.92407812e-08,1.84106250e-01
-3.92007812e-08,1.84093750e-01
-3.91607812e-08,1.84106250e-01
-3.91207812e-08,1.84092188e-01
-3.90807812e-08,1.84109375e-01
-3.90407812e-08,1.84089063e-01
-3.90007813e-08,1.84112500e-01
-3.89607812e-08,1.84084375e-01
-3.89207812e-08,1.84120312e-01
-3.88807812e-08,1.84070312e-01
-3.88407812e-08,1.84154687e-01
-3.88007812e-08,1.83892187e-01
-3.87607812e-08,1.83645313e-01
-3.87207813e-08,1.83731250e-01
-3.86807812e-08,1.83678125e-01
-3.86407812e-08,1.83717188e-01
-3.86007812e-08,1.83684375e-01
-3.85607812e-08,1.83714062e-01
-3.85207812e-08,1.83687500e-01
