trails/0bdfa5e45fec98341abdd20552c140b4/aes_ch1_20250507120020328.csv

Model,MSO66B
Label,
Waveform Type,ANALOG
Horizontal Units,s
Sample Interval,4.00000000e-11
Record Length,10000
Zero Index,1599.04687500
Vertical Units,A
ANALOG_Thumbnail,
yOffset,1.84500000e-01
yPosition,8.40000000e-01

Labels,
TIME,CH1
-6.39618750e-08,1.93698438e-01
-6.39218750e-08,1.93701563e-01
-6.38818750e-08,1.93698438e-01
-6.38418750e-08,1.93701563e-01
-6.38018750e-08,1.93700000e-01
-6.37618750e-08,1.93700000e-01
-6.37218750e-08,1.93700000e-01
-6.36818750e-08,1.93700000e-01
-6.36418750e-08,1.93700000e-01
-6.36018750e-08,1.93700000e-01
-6.35618750e-08,1.93700000e-01
-6.35218750e-08,1.93700000e-01
-6.34818750e-08,1.93700000e-01
-6.34418750e-08,1.93700000e-01
-6.34018750e-08,1.93700000e-01
-6.33618750e-08,1.93700000e-01
-6.33218750e-08,1.93700000e-01
-6.32818750e-08,1.93700000e-01
-6.32418750e-08,1.93700000e-01
-6.32018750e-08,1.93700000e-01
-6.31618750e-08,1.93700000e-01
-6.31218750e-08,1.93700000e-01
-6.30818750e-08,1.93700000e-01
-6.30418750e-08,1.93700000e-01
-6.30018750e-08,1.93700000e-01
-6.29618750e-08,1.93700000e-01
-6.29218750e-08,1.93700000e-01
-6.28818750e-08,1.93700000e-01
-6.28418750e-08,1.93700000e-01
-6.28018750e-08,1.93700000e-01
-6.27618750e-08,1.93700000e-01
-6.27218750e-08,1.93700000e-01
-6.26818750e-08,1.93700000e-01
-6.26418750e-08,1.93700000e-01
-6.26018750e-08,1.93700000e-01
-6.25618750e-08,1.93700000e-01
-6.25218750e-08,1.93700000e-01
-6.24818750e-08,1.93700000e-01
-6.24418750e-08,1.93700000e-01
-6.24018750e-08,1.93700000e-01
-6.23618750e-08,1.93698438e-01
-6.23218750e-08,1.93701563e-01
-6.22818750e-08,1.93698438e-01
-6.22418750e-08,1.93701563e-01
-6.22018750e-08,1.93698438e-01
-6.21618750e-08,1.93701563e-01
-6.21218750e-08,1.93698438e-01
-6.20818750e-08,1.93701563e-01
-6.20418750e-08,1.93698438e-01
-6.20018750e-08,1.93701563e-01
-6.19618750e-08,1.93698438e-01
-6.19218750e-08,1.93703125e-01
-6.18818750e-08,1.93696875e-01
-6.18418750e-08,1.93703125e-01
-6.18018750e-08,1.93695312e-01
-6.17618750e-08,1.93704688e-01
-6.17218750e-08,1.93693750e-01
-6.16818750e-08,1.93707813e-01
-6.16418750e-08,1.93690625e-01
-6.16018750e-08,1.93712500e-01
-6.15618750e-08,1.93682812e-01
-6.15218750e-08,1.93726563e-01
-6.14818750e-08,1.93648437e-01
-6.14418750e-08,1.93904688e-01
-6.14018750e-08,1.94157812e-01
-6.13618750e-08,1.94065625e-01
-6.13218750e-08,1.94125000e-01
-6.12818750e-08,1.94079688e-01
-6.12418750e-08,1.94118750e-01
-6.12018750e-08,1.94082813e-01
-6.11618750e-08,1.94115625e-01
-6.11218750e-08,1.94084375e-01
-6.10818750e-08,1.94115625e-01
-6.10418750e-08,1.94084375e-01
-6.10018750e-08,1.94117188e-01
-6.09618750e-08,1.94081250e-01
-6.09218750e-08,1.94121875e-01
-6.08818750e-08,1.94073438e-01
-6.08418750e-08,1.94135938e-01
-6.08018750e-08,1.94039062e-01
-6.07618750e-08,1.94312500e-01
-6.07218750e-08,1.94550000e-01
-6.06818750e-08,1.94475000e-01
-6.06418750e-08,1.94515625e-01
-6.06018750e-08,1.94489063e-01
-6.05618750e-08,1.94507813e-01
-6.05218750e-08,1.94493750e-01
-6.04818750e-08,1.94504687e-01
-6.04418750e-08,1.94495313e-01
-6.04018750e-08,1.94503125e-01
-6.03618750e-08,1.94496875e-01
-6.03218750e-08,1.94501563e-01
-6.02818750e-08,1.94498438e-01
-6.02418750e-08,1.94501563e-01
-6.02018750e-08,1.94500000e-01
-6.01618750e-08,1.94500000e-01
-6.01218750e-08,1.94500000e-01
-6.00818750e-08,1.94500000e-01
-6.00418750e-08,1.94501563e-01
-6.00018750e-08,1.94498438e-01
-5.99618750e-08,1.94501563e-01
-5.99218750e-08,1.94496875e-01
-5.98818750e-08,1.94503125e-01
-5.98418750e-08,1.94496875e-01
-5.98018750e-08,1.94504687e-01
-5.97618750e-08,1.94493750e-01
-5.97218750e-08,1.94507813e-01
-5.96818750e-08,1.94490625e-01
-5.96418750e-08,1.94512500e-01
-5.96018750e-08,1.94482813e-01
-5.95618750e-08,1.94526562e-01
-5.95218750e-08,1.94448438e-01
-5.94818750e-08,1.94704688e-01
-5.94418750e-08,1.94957812e-01
-5.94018750e-08,1.94865625e-01
-5.93618750e-08,1.94925000e-01
-5.93218750e-08,1.94879688e-01
-5.92818750e-08,1.94917188e-01
-5.92418750e-08,1.94884375e-01
-5.92018750e-08,1.94914063e-01
-5.91618750e-08,1.94885937e-01
-5.91218750e-08,1.94914063e-01
-5.90818750e-08,1.94885937e-01
-5.90418750e-08,1.94914063e-01
-5.90018750e-08,1.94885937e-01
-5.89618750e-08,1.94915625e-01
-5.89218750e-08,1.94882813e-01
-5.88818750e-08,1.94920312e-01
-5.88418750e-08,1.94875000e-01
-5.88018750e-08,1.94934375e-01
-5.87618750e-08,1.94840625e-01
-5.87218750e-08,1.95112500e-01
-5.86818750e-08,1.95350000e-01
-5.86418750e-08,1.95273438e-01
-5.86018750e-08,1.95317188e-01
-5.85618750e-08,1.95287500e-01
-5.85218750e-08,1.95309375e-01
-5.84818750e-08,1.95292188e-01
-5.84418750e-08,1.95306250e-01
-5.84018750e-08,1.95293750e-01
-5.83618750e-08,1.95304688e-01
-5.83218750e-08,1.95295313e-01
-5.82818750e-08,1.95303125e-01
-5.82418750e-08,1.95296875e-01
-5.82018750e-08,1.95303125e-01
-5.81618750e-08,1.95296875e-01
-5.81218750e-08,1.95303125e-01
-5.80818750e-08,1.95296875e-01
-5.80418750e-08,1.95303125e-01
-5.80018750e-08,1.95296875e-01
-5.79618750e-08,1.95303125e-01
-5.79218750e-08,1.95296875e-01
-5.78818750e-08,1.95303125e-01
-5.78418750e-08,1.95296875e-01
-5.78018750e-08,1.95303125e-01
-5.77618750e-08,1.95295313e-01
-5.77218750e-08,1.95304688e-01
-5.76818750e-08,1.95293750e-01
-5.76418750e-08,1.95306250e-01
-5.76018750e-08,1.95290625e-01
-5.75618750e-08,1.95310938e-01
-5.75218750e-08,1.95282813e-01
-5.74818750e-08,1.95326563e-01
-5.74418750e-08,1.95250000e-01
-5.74018750e-08,1.95503125e-01
-5.73618750e-08,1.95759375e-01
-5.73218750e-08,1.95664063e-01
-5.72818750e-08,1.95726563e-01
-5.72418750e-08,1.95678125e-01
-5.72018750e-08,1.95720312e-01
-5.71618750e-08,1.95681250e-01
-5.71218750e-08,1.95717188e-01
-5.70818750e-08,1.95682812e-01
-5.70418750e-08,1.95717188e-01
-5.70018750e-08,1.95682812e-01
-5.69618750e-08,1.95717188e-01
-5.69218750e-08,1.95681250e-01
-5.68818750e-08,1.95720312e-01
-5.68418750e-08,1.95678125e-01
-5.68018750e-08,1.95726563e-01
-5.67618750e-08,1.95668750e-01
-5.67218750e-08,1.95742187e-01
-5.66818750e-08,1.95632813e-01
-5.66418750e-08,1.95921875e-01
-5.66018750e-08,1.96139063e-01
-5.65618750e-08,1.96085938e-01
-5.65218750e-08,1.96101562e-01
-5.64818750e-08,1.96109375e-01
-5.64418750e-08,1.96078125e-01
-5.64018750e-08,1.96148437e-01
-5.63618750e-08,1.95896875e-01
-5.63218750e-08,1.95642188e-01
-5.62818750e-08,1.95732813e-01
-5.62418750e-08,1.95678125e-01
-5.62018750e-08,1.95717188e-01
-5.61618750e-08,1.95687500e-01
-5.61218750e-08,1.95710938e-01
-5.60818750e-08,1.95692188e-01
-5.60418750e-08,1.95706250e-01
-5.60018750e-08,1.95695312e-01
-5.59618750e-08,1.95703125e-01
-5.59218750e-08,1.95700000e-01
-5.58818750e-08,1.95698438e-01
-5.58418750e-08,1.95704688e-01
-5.58018750e-08,1.95692188e-01
-5.57618750e-08,1.95712500e-01
-5.57218750e-08,1.95676563e-01
-5.56818750e-08,1.95748438e-01
-5.56418750e-08,1.95498438e-01
-5.56018750e-08,1.95239063e-01
-5.55618750e-08,1.95335938e-01
-5.55218750e-08,1.95273438e-01
-5.54818750e-08,1.95321875e-01
-5.54418750e-08,1.95281250e-01
-5.54018750e-08,1.95317188e-01
-5.53618750e-08,1.95284375e-01
-5.53218750e-08,1.95314062e-01
-5.52818750e-08,1.95287500e-01
-5.52418750e-08,1.95312500e-01
-5.52018750e-08,1.95289062e-01
-5.51618750e-08,1.95310938e-01
-5.51218750e-08,1.95289062e-01
-5.50818750e-08,1.95309375e-01
-5.50418750e-08,1.95290625e-01
-5.50018750e-08,1.95309375e-01
-5.49618750e-08,1.95290625e-01
-5.49218750e-08,1.95309375e-01
-5.48818750e-08,1.95290625e-01
-5.48418750e-08,1.95309375e-01
-5.48018750e-08,1.95292188e-01
-5.47618750e-08,1.95307813e-01
-5.47218750e-08,1.95292188e-01
-5.46818750e-08,1.95307813e-01
-5.46418750e-08,1.95292188e-01
-5.46018750e-08,1.95307813e-01
-5.45618750e-08,1.95292188e-01
-5.45218750e-08,1.95307813e-01
-5.44818750e-08,1.95292188e-01
-5.44418750e-08,1.95307813e-01
-5.44018750e-08,1.95292188e-01
-5.43618750e-08,1.95307813e-01
-5.43218750e-08,1.95292188e-01
-5.42818750e-08,1.95307813e-01
-5.42418750e-08,1.95290625e-01
-5.42018750e-08,1.95309375e-01
-5.41618750e-08,1.95290625e-01
-5.41218750e-08,1.95309375e-01
-5.40818750e-08,1.95290625e-01
-5.40418750e-08,1.95310938e-01
-5.40018750e-08,1.95289062e-01
-5.39618750e-08,1.95310938e-01
-5.39218750e-08,1.95287500e-01
-5.38818750e-08,1.95314062e-01
-5.38418750e-08,1.95284375e-01
-5.38018750e-08,1.95317188e-01
-5.37618750e-08,1.95279688e-01
-5.37218750e-08,1.95325000e-01
-5.36818750e-08,1.95265625e-01
-5.36418750e-08,1.95359375e-01
-5.36018750e-08,1.95087500e-01
-5.35618750e-08,1.94850000e-01
-5.35218750e-08,1.94925000e-01
-5.34818750e-08,1.94884375e-01
-5.34418750e-08,1.94910937e-01
-5.34018750e-08,1.94892188e-01
-5.33618750e-08,1.94906250e-01
-5.33218750e-08,1.94895313e-01
-5.32818750e-08,1.94903125e-01
-5.32418750e-08,1.94896875e-01
-5.32018750e-08,1.94901563e-01
-5.31618750e-08,1.94898438e-01
-5.31218750e-08,1.94900000e-01
-5.30818750e-08,1.94900000e-01
-5.30418750e-08,1.94900000e-01
-5.30018750e-08,1.94900000e-01
-5.29618750e-08,1.94900000e-01
-5.29218750e-08,1.94901563e-01
-5.28818750e-08,1.94898438e-01
-5.28418750e-08,1.94901563e-01
-5.28018750e-08,1.94898438e-01
-5.27618750e-08,1.94901563e-01
-5.27218750e-08,1.94896875e-01
-5.26818750e-08,1.94903125e-01
-5.26418750e-08,1.94896875e-01
-5.26018750e-08,1.94903125e-01
-5.25618750e-08,1.94896875e-01
-5.25218750e-08,1.94903125e-01
-5.24818750e-08,1.94895313e-01
-5.24418750e-08,1.94904688e-01
-5.24018750e-08,1.94895313e-01
-5.23618750e-08,1.94904688e-01
-5.23218750e-08,1.94893750e-01
-5.22818750e-08,1.94906250e-01
-5.22418750e-08,1.94892188e-01
-5.22018750e-08,1.94907812e-01
-5.21618750e-08,1.94890625e-01
-5.21218750e-08,1.94910937e-01
-5.20818750e-08,1.94887500e-01
-5.20418750e-08,1.94915625e-01
-5.20018750e-08,1.94878125e-01
-5.19618750e-08,1.94931250e-01
-5.19218750e-08,1.94843750e-01
-5.18818750e-08,1.95109375e-01
-5.18418750e-08,1.95353125e-01
-5.18018750e-08,1.95270313e-01
-5.17618750e-08,1.95320313e-01
-5.17218750e-08,1.95285938e-01
-5.16818750e-08,1.95310938e-01
-5.16418750e-08,1.95290625e-01
-5.16018750e-08,1.95307813e-01
-5.15618750e-08,1.95293750e-01
-5.15218750e-08,1.95306250e-01
-5.14818750e-08,1.95295313e-01
-5.14418750e-08,1.95304688e-01
-5.14018750e-08,1.95295313e-01
-5.13618750e-08,1.95303125e-01
-5.13218750e-08,1.95296875e-01
-5.12818750e-08,1.95303125e-01
-5.12418750e-08,1.95296875e-01
-5.12018750e-08,1.95301562e-01
-5.11618750e-08,1.95298438e-01
-5.11218750e-08,1.95301562e-01
-5.10818750e-08,1.95298438e-01
-5.10418750e-08,1.95301562e-01
-5.10018750e-08,1.95298438e-01
-5.09618750e-08,1.95300000e-01
-5.09218750e-08,1.95300000e-01
-5.08818750e-08,1.95300000e-01
-5.08418750e-08,1.95300000e-01
-5.08018750e-08,1.95300000e-01
-5.07618750e-08,1.95300000e-01
-5.07218750e-08,1.95300000e-01
-5.06818750e-08,1.95300000e-01
-5.06418750e-08,1.95298438e-01
-5.06018750e-08,1.95301562e-01
-5.05618750e-08,1.95298438e-01
-5.05218750e-08,1.95301562e-01
-5.04818750e-08,1.95298438e-01
-5.04418750e-08,1.95303125e-01
-5.04018750e-08,1.95296875e-01
-5.03618750e-08,1.95303125e-01
-5.03218750e-08,1.95295313e-01
-5.02818750e-08,1.95304688e-01
-5.02418750e-08,1.95293750e-01
-5.02018750e-08,1.95306250e-01
-5.01618750e-08,1.95292188e-01
-5.01218750e-08,1.95310938e-01
-5.00818750e-08,1.95285938e-01
-5.00418750e-08,1.95318750e-01
-5.00018750e-08,1.95271875e-01
-4.99618750e-08,1.95353125e-01
-4.99218750e-08,1.95093750e-01
-4.98818750e-08,1.94843750e-01
-4.98418750e-08,1.94931250e-01
-4.98018750e-08,1.94878125e-01
-4.97618750e-08,1.94917188e-01
-4.97218750e-08,1.94885937e-01
-4.96818750e-08,1.94912500e-01
-4.96418750e-08,1.94889063e-01
-4.96018750e-08,1.94909375e-01
-4.95618750e-08,1.94890625e-01
-4.95218750e-08,1.94907812e-01
-4.94818750e-08,1.94892188e-01
-4.94418750e-08,1.94907812e-01
-4.94018750e-08,1.94893750e-01
-4.93618750e-08,1.94906250e-01
-4.93218750e-08,1.94893750e-01
-4.92818750e-08,1.94906250e-01
-4.92418750e-08,1.94893750e-01
-4.92018750e-08,1.94906250e-01
-4.91618750e-08,1.94893750e-01
-4.91218750e-08,1.94904688e-01
-4.90818750e-08,1.94895313e-01
-4.90418750e-08,1.94904688e-01
-4.90018750e-08,1.94895313e-01
-4.89618750e-08,1.94904688e-01
-4.89218750e-08,1.94895313e-01
-4.88818750e-08,1.94904688e-01
-4.88418750e-08,1.94895313e-01
-4.88018750e-08,1.94904688e-01
-4.87618750e-08,1.94895313e-01
-4.87218750e-08,1.94904688e-01
-4.86818750e-08,1.94895313e-01
-4.86418750e-08,1.94904688e-01
-4.86018750e-08,1.94895313e-01
-4.85618750e-08,1.94904688e-01
-4.85218750e-08,1.94893750e-01
-4.84818750e-08,1.94906250e-01
-4.84418750e-08,1.94893750e-01
-4.84018750e-08,1.94906250e-01
-4.83618750e-08,1.94893750e-01
-4.83218750e-08,1.94906250e-01
-4.82818750e-08,1.94893750e-01
-4.82418750e-08,1.94907812e-01
-4.82018750e-08,1.94892188e-01
-4.81618750e-08,1.94909375e-01
-4.81218750e-08,1.94890625e-01
-4.80818750e-08,1.94910937e-01
-4.80418750e-08,1.94885937e-01
-4.80018750e-08,1.94917188e-01
-4.79618750e-08,1.94878125e-01
-4.79218750e-08,1.94931250e-01
-4.78818750e-08,1.94843750e-01
-4.78418750e-08,1.95109375e-01
-4.78018750e-08,1.95353125e-01
-4.77618750e-08,1.95270313e-01
-4.77218750e-08,1.95320313e-01
-4.76818750e-08,1.95284375e-01
-4.76418750e-08,1.95312500e-01
-4.76018750e-08,1.95289062e-01
-4.75618750e-08,1.95309375e-01
-4.75218750e-08,1.95292188e-01
-4.74818750e-08,1.95307813e-01
-4.74418750e-08,1.95292188e-01
-4.74018750e-08,1.95307813e-01
-4.73618750e-08,1.95293750e-01
-4.73218750e-08,1.95306250e-01
-4.72818750e-08,1.95293750e-01
-4.72418750e-08,1.95306250e-01
-4.72018750e-08,1.95292188e-01
-4.71618750e-08,1.95307813e-01
-4.71218750e-08,1.95292188e-01
-4.70818750e-08,1.95309375e-01
-4.70418750e-08,1.95290625e-01
-4.70018750e-08,1.95312500e-01
-4.69618750e-08,1.95285938e-01
-4.69218750e-08,1.95320313e-01
-4.68818750e-08,1.95271875e-01
-4.68418750e-08,1.95353125e-01
-4.68018750e-08,1.95093750e-01
-4.67618750e-08,1.94843750e-01
-4.67218750e-08,1.94932812e-01
-4.66818750e-08,1.94876563e-01
-4.66418750e-08,1.94920312e-01
-4.66018750e-08,1.94882813e-01
-4.65618750e-08,1.94915625e-01
-4.65218750e-08,1.94884375e-01
-4.64818750e-08,1.94915625e-01
-4.64418750e-08,1.94884375e-01
-4.64018750e-08,1.94917188e-01
-4.63618750e-08,1.94879688e-01
-4.63218750e-08,1.94925000e-01
-4.62818750e-08,1.94865625e-01
-4.62418750e-08,1.94957812e-01
-4.62018750e-08,1.94689063e-01
-4.61618750e-08,1.94448438e-01
-4.61218750e-08,1.94528125e-01
-4.60818750e-08,1.94481250e-01
-4.60418750e-08,1.94514063e-01
-4.60018750e-08,1.94489063e-01
-4.59618750e-08,1.94509375e-01
-4.59218750e-08,1.94492187e-01
-4.58818750e-08,1.94506250e-01
-4.58418750e-08,1.94493750e-01
-4.58018750e-08,1.94506250e-01
-4.57618750e-08,1.94495313e-01
-4.57218750e-08,1.94504687e-01
-4.56818750e-08,1.94495313e-01
-4.56418750e-08,1.94504687e-01
-4.56018750e-08,1.94495313e-01
-4.55618750e-08,1.94504687e-01
-4.55218750e-08,1.94495313e-01
-4.54818750e-08,1.94504687e-01
-4.54418750e-08,1.94495313e-01
-4.54018750e-08,1.94504687e-01
-4.53618750e-08,1.94495313e-01
-4.53218750e-08,1.94504687e-01
-4.52818750e-08,1.94495313e-01
-4.52418750e-08,1.94504687e-01
-4.52018750e-08,1.94495313e-01
-4.51618750e-08,1.94504687e-01
-4.51218750e-08,1.94493750e-01
-4.50818750e-08,1.94506250e-01
-4.50418750e-08,1.94493750e-01
-4.50018750e-08,1.94507813e-01
-4.49618750e-08,1.94492187e-01
-4.49218750e-08,1.94509375e-01
-4.48818750e-08,1.94489063e-01
-4.48418750e-08,1.94512500e-01
-4.48018750e-08,1.94484375e-01
-4.47618750e-08,1.94520313e-01
-4.47218750e-08,1.94470313e-01
-4.46818750e-08,1.94554688e-01
-4.46418750e-08,1.94292188e-01
-4.46018750e-08,1.94045313e-01
-4.45618750e-08,1.94129688e-01
-4.45218750e-08,1.94079688e-01
-4.44818750e-08,1.94115625e-01
-4.44418750e-08,1.94087500e-01
-4.44018750e-08,1.94110937e-01
-4.43618750e-08,1.94090625e-01
-4.43218750e-08,1.94107813e-01
-4.42818750e-08,1.94092188e-01
-4.42418750e-08,1.94106250e-01
-4.42018750e-08,1.94093750e-01
-4.41618750e-08,1.94106250e-01
-4.41218750e-08,1.94095313e-01
-4.40818750e-08,1.94104688e-01
-4.40418750e-08,1.94095313e-01
-4.40018750e-08,1.94104688e-01
-4.39618750e-08,1.94095313e-01
-4.39218750e-08,1.94104688e-01
-4.38818750e-08,1.94096875e-01
-4.38418750e-08,1.94103125e-01
-4.38018750e-08,1.94096875e-01
-4.37618750e-08,1.94103125e-01
-4.37218750e-08,1.94096875e-01
-4.36818750e-08,1.94103125e-01
-4.36418750e-08,1.94096875e-01
-4.36018750e-08,1.94103125e-01
-4.35618750e-08,1.94096875e-01
-4.35218750e-08,1.94103125e-01
-4.34818750e-08,1.94096875e-01
-4.34418750e-08,1.94103125e-01
-4.34018750e-08,1.94096875e-01
-4.33618750e-08,1.94103125e-01
-4.33218750e-08,1.94096875e-01
-4.32818750e-08,1.94103125e-01
-4.32418750e-08,1.94096875e-01
-4.32018750e-08,1.94103125e-01
-4.31618750e-08,1.94096875e-01
-4.31218750e-08,1.94103125e-01
-4.30818750e-08,1.94096875e-01
-4.30418750e-08,1.94103125e-01
-4.30018750e-08,1.94096875e-01
-4.29618750e-08,1.94103125e-01
-4.29218750e-08,1.94096875e-01
-4.28818750e-08,1.94103125e-01
-4.28418750e-08,1.94096875e-01
-4.28018750e-08,1.94101563e-01
-4.27618750e-08,1.94096875e-01
-4.27218750e-08,1.94103125e-01
-4.26818750e-08,1.94096875e-01
-4.26418750e-08,1.94103125e-01
-4.26018750e-08,1.94098437e-01
-4.25618750e-08,1.94103125e-01
-4.25218750e-08,1.94096875e-01
-4.24818750e-08,1.94101563e-01
-4.24418750e-08,1.94096875e-01
-4.24018750e-08,1.94103125e-01
-4.23618750e-08,1.94096875e-01
-4.23218750e-08,1.94101563e-01
-4.22818750e-08,1.94098437e-01
-4.22418750e-08,1.94103125e-01
-4.22018750e-08,1.94096875e-01
-4.21618750e-08,1.94103125e-01
-4.21218750e-08,1.94096875e-01
-4.20818750e-08,1.94103125e-01
-4.20418750e-08,1.94096875e-01
-4.20018750e-08,1.94103125e-01
-4.19618750e-08,1.94096875e-01
-4.19218750e-08,1.94103125e-01
-4.18818750e-08,1.94096875e-01
-4.18418750e-08,1.94103125e-01
-4.18018750e-08,1.94096875e-01
-4.17618750e-08,1.94103125e-01
-4.17218750e-08,1.94096875e-01
-4.16818750e-08,1.94103125e-01
-4.16418750e-08,1.94096875e-01
-4.16018750e-08,1.94103125e-01
-4.15618750e-08,1.94096875e-01
-4.15218750e-08,1.94103125e-01
-4.14818750e-08,1.94096875e-01
-4.14418750e-08,1.94103125e-01
-4.14018750e-08,1.94096875e-01
-4.13618750e-08,1.94103125e-01
-4.13218750e-08,1.94096875e-01
-4.12818750e-08,1.94103125e-01
-4.12418750e-08,1.94096875e-01
-4.12018750e-08,1.94103125e-01
-4.11618750e-08,1.94096875e-01
-4.11218750e-08,1.94103125e-01
-4.10818750e-08,1.94096875e-01
-4.10418750e-08,1.94103125e-01
-4.10018750e-08,1.94096875e-01
-4.09618750e-08,1.94103125e-01
-4.09218750e-08,1.94096875e-01
-4.08818750e-08,1.94103125e-01
-4.08418750e-08,1.94096875e-01
-4.08018750e-08,1.94104688e-01
-4.07618750e-08,1.94095313e-01
-4.07218750e-08,1.94104688e-01
-4.06818750e-08,1.94095313e-01
-4.06418750e-08,1.94104688e-01
-4.06018750e-08,1.94095313e-01
-4.05618750e-08,1.94104688e-01
-4.05218750e-08,1.94095313e-01
-4.04818750e-08,1.94104688e-01
-4.04418750e-08,1.94093750e-01
-4.04018750e-08,1.94106250e-01
-4.03618750e-08,1.94093750e-01
-4.03218750e-08,1.94106250e-01
-4.02818750e-08,1.94092188e-01
-4.02418750e-08,1.94107813e-01
-4.02018750e-08,1.94092188e-01
-4.01618750e-08,1.94109375e-01
-4.01218750e-08,1.94089063e-01
-4.00818750e-08,1.94112500e-01
-4.00418750e-08,1.94085937e-01
-4.00018750e-08,1.94117188e-01
-3.99618750e-08,1.94078125e-01
-3.99218750e-08,1.94132813e-01
-3.98818750e-08,1.94042188e-01
-3.98418750e-08,1.94310938e-01
-3.98018750e-08,1.94551562e-01
-3.97618750e-08,1.94471875e-01
-3.97218750e-08,1.94517188e-01
-3.96818750e-08,1.94487500e-01
-3.96418750e-08,1.94509375e-01
-3.96018750e-08,1.94493750e-01
-3.95618750e-08,1.94504687e-01
-3.95218750e-08,1.94496875e-01
-3.94818750e-08,1.94501563e-01
-3.94418750e-08,1.94500000e-01
-3.94018750e-08,1.94496875e-01
-3.93618750e-08,1.94506250e-01
-3.93218750e-08,1.94489063e-01
-3.92818750e-08,1.94520313e-01
-3.92418750e-08,1.94454688e-01
-3.92018750e-08,1.94696875e-01
-3.91618750e-08,1.94965625e-01
-3.91218750e-08,1.94857813e-01
-3.90818750e-08,1.94934375e-01
-3.90418750e-08,1.94867188e-01
-3.90018750e-08,1.94932812e-01
-3.89618750e-08,1.94864063e-01
-3.89218750e-08,1.94943750e-01
-3.88818750e-08,1.94831250e-01
-3.88418750e-08,1.95120313e-01
-3.88018750e-08,1.95340625e-01
-3.87618750e-08,1.95282813e-01
-3.87218750e-08,1.95306250e-01
-3.86818750e-08,1.95301562e-01
-3.86418750e-08,1.95292188e-01
-3.86018750e-08,1.95318750e-01
-3.85618750e-08,1.95256250e-01
-3.85218750e-08,1.95496875e-01
