trails/0bdfa5e45fec98341abdd20552c140b4/aes_ch1_20250507114914515.csv

Model,MSO66B
Label,
Waveform Type,ANALOG
Horizontal Units,s
Sample Interval,4.00000000e-11
Record Length,10000
Zero Index,1599.11328125
Vertical Units,A
ANALOG_Thumbnail,
yOffset,1.84500000e-01
yPosition,8.40000000e-01

Labels,
TIME,CH1
-6.39645312e-08,1.86089063e-01
-6.39245312e-08,1.86112500e-01
-6.38845312e-08,1.86085938e-01
-6.38445312e-08,1.86115625e-01
-6.38045313e-08,1.86081250e-01
-6.37645312e-08,1.86123438e-01
-6.37245312e-08,1.86067188e-01
-6.36845312e-08,1.86157813e-01
-6.36445312e-08,1.85889063e-01
-6.36045312e-08,1.85648438e-01
-6.35645312e-08,1.85728125e-01
-6.35245313e-08,1.85681250e-01
-6.34845312e-08,1.85714062e-01
-6.34445312e-08,1.85689063e-01
-6.34045312e-08,1.85709375e-01
-6.33645312e-08,1.85692187e-01
-6.33245312e-08,1.85706250e-01
-6.32845312e-08,1.85695313e-01
-6.32445313e-08,1.85704688e-01
-6.32045312e-08,1.85695313e-01
-6.31645312e-08,1.85703125e-01
-6.31245312e-08,1.85696875e-01
-6.30845312e-08,1.85703125e-01
-6.30445313e-08,1.85696875e-01
-6.30045312e-08,1.85703125e-01
-6.29645313e-08,1.85696875e-01
-6.29245312e-08,1.85701563e-01
-6.28845312e-08,1.85698438e-01
-6.28445312e-08,1.85701563e-01
-6.28045312e-08,1.85698438e-01
-6.27645313e-08,1.85701563e-01
-6.27245312e-08,1.85698438e-01
-6.26845313e-08,1.85701563e-01
-6.26445312e-08,1.85698438e-01
-6.26045312e-08,1.85701563e-01
-6.25645312e-08,1.85698438e-01
-6.25245312e-08,1.85701563e-01
-6.24845313e-08,1.85698438e-01
-6.24445312e-08,1.85700000e-01
-6.24045313e-08,1.85700000e-01
-6.23645312e-08,1.85700000e-01
-6.23245312e-08,1.85700000e-01
-6.22845312e-08,1.85700000e-01
-6.22445312e-08,1.85700000e-01
-6.22045313e-08,1.85700000e-01
-6.21645312e-08,1.85700000e-01
-6.21245313e-08,1.85700000e-01
-6.20845312e-08,1.85701563e-01
-6.20445312e-08,1.85698438e-01
-6.20045312e-08,1.85701563e-01
-6.19645312e-08,1.85698438e-01
-6.19245313e-08,1.85701563e-01
-6.18845312e-08,1.85696875e-01
-6.18445313e-08,1.85703125e-01
-6.18045312e-08,1.85695313e-01
-6.17645312e-08,1.85704688e-01
-6.17245312e-08,1.85693750e-01
-6.16845312e-08,1.85707813e-01
-6.16445313e-08,1.85690625e-01
-6.16045312e-08,1.85712500e-01
-6.15645313e-08,1.85681250e-01
-6.15245312e-08,1.85728125e-01
-6.14845312e-08,1.85646875e-01
-6.14445312e-08,1.85906250e-01
-6.14045312e-08,1.86154687e-01
-6.13645313e-08,1.86070313e-01
-6.13245312e-08,1.86118750e-01
-6.12845313e-08,1.86087500e-01
-6.12445312e-08,1.86104688e-01
-6.12045312e-08,1.86106250e-01
-6.11645312e-08,1.86068750e-01
-6.11245312e-08,1.86284375e-01
-6.10845313e-08,1.86579688e-01
-6.10445312e-08,1.86442187e-01
-6.10045312e-08,1.86551563e-01
-6.09645312e-08,1.86448438e-01
-6.09245312e-08,1.86557813e-01
-6.08845312e-08,1.86418750e-01
-6.08445312e-08,1.86734375e-01
-6.08045313e-08,1.86928125e-01
-6.07645312e-08,1.86895313e-01
-6.07245312e-08,1.86893750e-01
-6.06845312e-08,1.86914063e-01
-6.06445312e-08,1.86878125e-01
-6.06045312e-08,1.86932813e-01
-6.05645312e-08,1.86840625e-01
-6.05245313e-08,1.87114063e-01
-6.04845312e-08,1.87348438e-01
-6.04445312e-08,1.87276563e-01
-6.04045312e-08,1.87314063e-01
-6.03645312e-08,1.87292188e-01
-6.03245312e-08,1.87303125e-01
-6.02845312e-08,1.87298437e-01
-6.02445313e-08,1.87298437e-01
-6.02045312e-08,1.87303125e-01
-6.01645312e-08,1.87295313e-01
-6.01245312e-08,1.87307813e-01
-6.00845312e-08,1.87290625e-01
-6.00445312e-08,1.87312500e-01
-6.00045312e-08,1.87284375e-01
-5.99645313e-08,1.87320313e-01
-5.99245312e-08,1.87273438e-01
-5.98845312e-08,1.87339063e-01
-5.98445312e-08,1.87232813e-01
-5.98045312e-08,1.87526562e-01
-5.97645312e-08,1.87726562e-01
-5.97245312e-08,1.87721875e-01
-5.96845313e-08,1.87515625e-01
-5.96445312e-08,1.87228125e-01
-5.96045312e-08,1.87345312e-01
-5.95645312e-08,1.87265625e-01
-5.95245312e-08,1.87326563e-01
-5.94845312e-08,1.87276563e-01
-5.94445312e-08,1.87320313e-01
-5.94045312e-08,1.87282813e-01
-5.93645312e-08,1.87315625e-01
-5.93245312e-08,1.87285937e-01
-5.92845312e-08,1.87314063e-01
-5.92445312e-08,1.87287500e-01
-5.92045312e-08,1.87312500e-01
-5.91645312e-08,1.87289063e-01
-5.91245312e-08,1.87310937e-01
-5.90845312e-08,1.87290625e-01
-5.90445312e-08,1.87309375e-01
-5.90045312e-08,1.87290625e-01
-5.89645312e-08,1.87309375e-01
-5.89245312e-08,1.87292188e-01
-5.88845312e-08,1.87307813e-01
-5.88445312e-08,1.87292188e-01
-5.88045312e-08,1.87307813e-01
-5.87645312e-08,1.87292188e-01
-5.87245312e-08,1.87307813e-01
-5.86845312e-08,1.87292188e-01
-5.86445312e-08,1.87307813e-01
-5.86045312e-08,1.87292188e-01
-5.85645312e-08,1.87306250e-01
-5.85245312e-08,1.87293750e-01
-5.84845312e-08,1.87306250e-01
-5.84445312e-08,1.87293750e-01
-5.84045312e-08,1.87306250e-01
-5.83645312e-08,1.87293750e-01
-5.83245312e-08,1.87306250e-01
-5.82845312e-08,1.87293750e-01
-5.82445312e-08,1.87306250e-01
-5.82045312e-08,1.87293750e-01
-5.81645312e-08,1.87306250e-01
-5.81245312e-08,1.87293750e-01
-5.80845312e-08,1.87306250e-01
-5.80445312e-08,1.87292188e-01
-5.80045312e-08,1.87307813e-01
-5.79645312e-08,1.87292188e-01
-5.79245312e-08,1.87307813e-01
-5.78845312e-08,1.87292188e-01
-5.78445312e-08,1.87307813e-01
-5.78045312e-08,1.87290625e-01
-5.77645312e-08,1.87309375e-01
-5.77245312e-08,1.87290625e-01
-5.76845312e-08,1.87310937e-01
-5.76445312e-08,1.87289063e-01
-5.76045312e-08,1.87312500e-01
-5.75645312e-08,1.87285937e-01
-5.75245312e-08,1.87315625e-01
-5.74845312e-08,1.87281250e-01
-5.74445312e-08,1.87325000e-01
-5.74045312e-08,1.87265625e-01
-5.73645312e-08,1.87359375e-01
-5.73245312e-08,1.87087500e-01
-5.72845312e-08,1.86850000e-01
-5.72445312e-08,1.86926563e-01
-5.72045312e-08,1.86884375e-01
-5.71645312e-08,1.86910938e-01
-5.71245312e-08,1.86892188e-01
-5.70845312e-08,1.86904687e-01
-5.70445312e-08,1.86896875e-01
-5.70045312e-08,1.86901563e-01
-5.69645312e-08,1.86900000e-01
-5.69245312e-08,1.86896875e-01
-5.68845312e-08,1.86904687e-01
-5.68445312e-08,1.86892188e-01
-5.68045312e-08,1.86914063e-01
-5.67645312e-08,1.86876563e-01
-5.67245312e-08,1.86948438e-01
-5.66845312e-08,1.86698438e-01
-5.66445312e-08,1.86439063e-01
-5.66045312e-08,1.86535937e-01
-5.65645312e-08,1.86471875e-01
-5.65245312e-08,1.86523438e-01
-5.64845312e-08,1.86479688e-01
-5.64445312e-08,1.86518750e-01
-5.64045312e-08,1.86482813e-01
-5.63645312e-08,1.86515625e-01
-5.63245312e-08,1.86484375e-01
-5.62845312e-08,1.86515625e-01
-5.62445312e-08,1.86484375e-01
-5.62045312e-08,1.86517188e-01
-5.61645312e-08,1.86481250e-01
-5.61245312e-08,1.86520313e-01
-5.60845312e-08,1.86476562e-01
-5.60445312e-08,1.86528125e-01
-5.60045312e-08,1.86462500e-01
-5.59645312e-08,1.86562500e-01
-5.59245312e-08,1.86284375e-01
-5.58845312e-08,1.86053125e-01
-5.58445312e-08,1.86123438e-01
-5.58045312e-08,1.86085938e-01
-5.57645312e-08,1.86107812e-01
-5.57245312e-08,1.86095312e-01
-5.56845312e-08,1.86103125e-01
-5.56445312e-08,1.86100000e-01
-5.56045312e-08,1.86098438e-01
-5.55645312e-08,1.86103125e-01
-5.55245312e-08,1.86095312e-01
-5.54845312e-08,1.86106250e-01
-5.54445312e-08,1.86090625e-01
-5.54045312e-08,1.86112500e-01
-5.53645312e-08,1.86081250e-01
-5.53245312e-08,1.86128125e-01
-5.52845312e-08,1.86046875e-01
-5.52445312e-08,1.86306250e-01
-5.52045312e-08,1.86554688e-01
-5.51645312e-08,1.86468750e-01
-5.51245312e-08,1.86521875e-01
-5.50845312e-08,1.86484375e-01
-5.50445312e-08,1.86512500e-01
-5.50045312e-08,1.86490625e-01
-5.49645312e-08,1.86507813e-01
-5.49245312e-08,1.86493750e-01
-5.48845312e-08,1.86504688e-01
-5.48445312e-08,1.86498438e-01
-5.48045312e-08,1.86500000e-01
-5.47645312e-08,1.86503125e-01
-5.47245312e-08,1.86490625e-01
-5.46845312e-08,1.86518750e-01
-5.46445312e-08,1.86456250e-01
-5.46045312e-08,1.86696875e-01
-5.45645312e-08,1.86965625e-01
-5.45245312e-08,1.86857812e-01
-5.44845312e-08,1.86932813e-01
-5.44445312e-08,1.86870312e-01
-5.44045312e-08,1.86926563e-01
-5.43645312e-08,1.86873438e-01
-5.43245312e-08,1.86926563e-01
-5.42845312e-08,1.86873438e-01
-5.42445312e-08,1.86929687e-01
-5.42045312e-08,1.86867188e-01
-5.41645312e-08,1.86942187e-01
-5.41245312e-08,1.86832813e-01
-5.40845312e-08,1.87120312e-01
-5.40445312e-08,1.87342188e-01
-5.40045312e-08,1.87281250e-01
-5.39645312e-08,1.87309375e-01
-5.39245312e-08,1.87295313e-01
-5.38845312e-08,1.87301563e-01
-5.38445312e-08,1.87300000e-01
-5.38045312e-08,1.87298437e-01
-5.37645312e-08,1.87303125e-01
-5.37245312e-08,1.87295313e-01
-5.36845312e-08,1.87306250e-01
-5.36445312e-08,1.87293750e-01
-5.36045312e-08,1.87307813e-01
-5.35645312e-08,1.87290625e-01
-5.35245312e-08,1.87310937e-01
-5.34845312e-08,1.87287500e-01
-5.34445312e-08,1.87314063e-01
-5.34045312e-08,1.87282813e-01
-5.33645312e-08,1.87323437e-01
-5.33245312e-08,1.87267188e-01
-5.32845312e-08,1.87357812e-01
-5.32445312e-08,1.87087500e-01
-5.32045312e-08,1.86850000e-01
-5.31645312e-08,1.86926563e-01
-5.31245312e-08,1.86884375e-01
-5.30845312e-08,1.86910938e-01
-5.30445312e-08,1.86892188e-01
-5.30045312e-08,1.86904687e-01
-5.29645312e-08,1.86896875e-01
-5.29245312e-08,1.86900000e-01
-5.28845312e-08,1.86901563e-01
-5.28445312e-08,1.86896875e-01
-5.28045312e-08,1.86906250e-01
-5.27645312e-08,1.86890625e-01
-5.27245312e-08,1.86915625e-01
-5.26845312e-08,1.86875000e-01
-5.26445312e-08,1.86950000e-01
-5.26045312e-08,1.86696875e-01
-5.25645312e-08,1.86442187e-01
-5.25245312e-08,1.86534375e-01
-5.24845312e-08,1.86475000e-01
-5.24445312e-08,1.86520313e-01
-5.24045312e-08,1.86482813e-01
-5.23645312e-08,1.86514062e-01
-5.23245312e-08,1.86487500e-01
-5.22845312e-08,1.86510938e-01
-5.22445312e-08,1.86489062e-01
-5.22045312e-08,1.86509375e-01
-5.21645312e-08,1.86490625e-01
-5.21245312e-08,1.86509375e-01
-5.20845312e-08,1.86492188e-01
-5.20445312e-08,1.86507813e-01
-5.20045312e-08,1.86492188e-01
-5.19645312e-08,1.86507813e-01
-5.19245312e-08,1.86492188e-01
-5.18845312e-08,1.86507813e-01
-5.18445312e-08,1.86493750e-01
-5.18045312e-08,1.86506250e-01
-5.17645312e-08,1.86493750e-01
-5.17245312e-08,1.86506250e-01
-5.16845312e-08,1.86493750e-01
-5.16445312e-08,1.86506250e-01
-5.16045312e-08,1.86493750e-01
-5.15645312e-08,1.86506250e-01
-5.15245313e-08,1.86493750e-01
-5.14845312e-08,1.86506250e-01
-5.14445312e-08,1.86492188e-01
-5.14045312e-08,1.86507813e-01
-5.13645312e-08,1.86492188e-01
-5.13245312e-08,1.86507813e-01
-5.12845312e-08,1.86492188e-01
-5.12445312e-08,1.86509375e-01
-5.12045312e-08,1.86490625e-01
-5.11645312e-08,1.86510938e-01
-5.11245312e-08,1.86489062e-01
-5.10845312e-08,1.86512500e-01
-5.10445312e-08,1.86485938e-01
-5.10045312e-08,1.86517188e-01
-5.09645312e-08,1.86476562e-01
-5.09245312e-08,1.86532813e-01
-5.08845312e-08,1.86442187e-01
-5.08445312e-08,1.86710938e-01
-5.08045312e-08,1.86951563e-01
-5.07645312e-08,1.86871875e-01
-5.07245312e-08,1.86918750e-01
-5.06845312e-08,1.86885938e-01
-5.06445312e-08,1.86910938e-01
-5.06045312e-08,1.86890625e-01
-5.05645312e-08,1.86907812e-01
-5.05245312e-08,1.86893750e-01
-5.04845312e-08,1.86906250e-01
-5.04445312e-08,1.86895313e-01
-5.04045312e-08,1.86904687e-01
-5.03645312e-08,1.86895313e-01
-5.03245312e-08,1.86904687e-01
-5.02845312e-08,1.86896875e-01
-5.02445312e-08,1.86903125e-01
-5.02045312e-08,1.86896875e-01
-5.01645312e-08,1.86903125e-01
-5.01245312e-08,1.86896875e-01
-5.00845312e-08,1.86903125e-01
-5.00445312e-08,1.86896875e-01
-5.00045312e-08,1.86903125e-01
-4.99645312e-08,1.86896875e-01
-4.99245312e-08,1.86903125e-01
-4.98845312e-08,1.86896875e-01
-4.98445312e-08,1.86903125e-01
-4.98045312e-08,1.86896875e-01
-4.97645312e-08,1.86903125e-01
-4.97245312e-08,1.86896875e-01
-4.96845312e-08,1.86904687e-01
-4.96445312e-08,1.86895313e-01
-4.96045313e-08,1.86904687e-01
-4.95645312e-08,1.86893750e-01
-4.95245312e-08,1.86906250e-01
-4.94845312e-08,1.86892188e-01
-4.94445312e-08,1.86909375e-01
-4.94045312e-08,1.86887500e-01
-4.93645312e-08,1.86917187e-01
-4.93245313e-08,1.86873438e-01
-4.92845312e-08,1.86951563e-01
-4.92445312e-08,1.86696875e-01
-4.92045312e-08,1.86440625e-01
-4.91645312e-08,1.86535937e-01
-4.91245312e-08,1.86471875e-01
-4.90845312e-08,1.86525000e-01
-4.90445312e-08,1.86475000e-01
-4.90045312e-08,1.86528125e-01
-4.89645312e-08,1.86464062e-01
-4.89245312e-08,1.86559375e-01
-4.88845312e-08,1.86289063e-01
-4.88445312e-08,1.86046875e-01
-4.88045312e-08,1.86131250e-01
-4.87645312e-08,1.86076563e-01
-4.87245312e-08,1.86120312e-01
-4.86845312e-08,1.86078125e-01
-4.86445312e-08,1.86125000e-01
-4.86045312e-08,1.86067188e-01
-4.85645312e-08,1.86156250e-01
-4.85245312e-08,1.85890625e-01
-4.84845312e-08,1.85645312e-01
-4.84445312e-08,1.85731250e-01
-4.84045312e-08,1.85678125e-01
-4.83645312e-08,1.85717188e-01
-4.83245312e-08,1.85685938e-01
-4.82845312e-08,1.85712500e-01
-4.82445312e-08,1.85689063e-01
-4.82045312e-08,1.85710938e-01
-4.81645312e-08,1.85690625e-01
-4.81245312e-08,1.85709375e-01
-4.80845312e-08,1.85690625e-01
-4.80445312e-08,1.85709375e-01
-4.80045312e-08,1.85690625e-01
-4.79645312e-08,1.85709375e-01
-4.79245312e-08,1.85690625e-01
-4.78845312e-08,1.85709375e-01
-4.78445312e-08,1.85690625e-01
-4.78045312e-08,1.85709375e-01
-4.77645312e-08,1.85690625e-01
-4.77245312e-08,1.85710938e-01
-4.76845313e-08,1.85689063e-01
-4.76445312e-08,1.85710938e-01
-4.76045312e-08,1.85687500e-01
-4.75645312e-08,1.85712500e-01
-4.75245312e-08,1.85685938e-01
-4.74845312e-08,1.85715625e-01
-4.74445312e-08,1.85681250e-01
-4.74045313e-08,1.85721875e-01
-4.73645312e-08,1.85673438e-01
-4.73245312e-08,1.85735938e-01
-4.72845312e-08,1.85637500e-01
-4.72445312e-08,1.85915625e-01
-4.72045312e-08,1.86146875e-01
-4.71645312e-08,1.86078125e-01
-4.71245313e-08,1.86112500e-01
-4.70845312e-08,1.86093750e-01
-4.70445312e-08,1.86101563e-01
-4.70045312e-08,1.86101563e-01
-4.69645312e-08,1.86095312e-01
-4.69245312e-08,1.86109375e-01
-4.68845312e-08,1.86084375e-01
-4.68445312e-08,1.86125000e-01
-4.68045312e-08,1.86048437e-01
-4.67645312e-08,1.86304688e-01
-4.67245312e-08,1.86557813e-01
-4.66845312e-08,1.86467188e-01
-4.66445312e-08,1.86523438e-01
-4.66045312e-08,1.86481250e-01
-4.65645312e-08,1.86515625e-01
-4.65245312e-08,1.86487500e-01
-4.64845312e-08,1.86510938e-01
-4.64445312e-08,1.86490625e-01
-4.64045312e-08,1.86509375e-01
-4.63645312e-08,1.86492188e-01
-4.63245312e-08,1.86507813e-01
-4.62845312e-08,1.86493750e-01
-4.62445312e-08,1.86506250e-01
-4.62045312e-08,1.86493750e-01
-4.61645312e-08,1.86504688e-01
-4.61245312e-08,1.86495313e-01
-4.60845312e-08,1.86504688e-01
-4.60445313e-08,1.86495313e-01
-4.60045312e-08,1.86504688e-01
-4.59645312e-08,1.86495313e-01
-4.59245312e-08,1.86503125e-01
-4.58845312e-08,1.86496875e-01
-4.58445312e-08,1.86503125e-01
-4.58045312e-08,1.86496875e-01
-4.57645313e-08,1.86503125e-01
-4.57245312e-08,1.86496875e-01
-4.56845312e-08,1.86503125e-01
-4.56445312e-08,1.86496875e-01
-4.56045312e-08,1.86503125e-01
-4.55645312e-08,1.86498438e-01
-4.55245312e-08,1.86501562e-01
-4.54845313e-08,1.86498438e-01
-4.54445312e-08,1.86501562e-01
-4.54045312e-08,1.86498438e-01
-4.53645312e-08,1.86501562e-01
-4.53245312e-08,1.86498438e-01
-4.52845312e-08,1.86501562e-01
-4.52445312e-08,1.86498438e-01
-4.52045313e-08,1.86501562e-01
-4.51645312e-08,1.86500000e-01
-4.51245312e-08,1.86500000e-01
-4.50845312e-08,1.86500000e-01
-4.50445312e-08,1.86500000e-01
-4.50045312e-08,1.86500000e-01
-4.49645312e-08,1.86500000e-01
-4.49245313e-08,1.86501562e-01
-4.48845312e-08,1.86498438e-01
-4.48445312e-08,1.86501562e-01
-4.48045312e-08,1.86496875e-01
-4.47645312e-08,1.86503125e-01
-4.47245312e-08,1.86495313e-01
-4.46845312e-08,1.86504688e-01
-4.46445312e-08,1.86493750e-01
-4.46045312e-08,1.86509375e-01
-4.45645312e-08,1.86487500e-01
-4.45245312e-08,1.86517188e-01
-4.44845312e-08,1.86473438e-01
-4.44445312e-08,1.86551563e-01
-4.44045312e-08,1.86295313e-01
-4.43645312e-08,1.86042188e-01
-4.43245312e-08,1.86134375e-01
-4.42845312e-08,1.86075000e-01
-4.42445312e-08,1.86120312e-01
-4.42045312e-08,1.86082812e-01
-4.41645312e-08,1.86115625e-01
-4.41245313e-08,1.86085938e-01
-4.40845312e-08,1.86112500e-01
-4.40445312e-08,1.86087500e-01
-4.40045312e-08,1.86110938e-01
-4.39645312e-08,1.86089063e-01
-4.39245312e-08,1.86110938e-01
-4.38845312e-08,1.86089063e-01
-4.38445313e-08,1.86110938e-01
-4.38045312e-08,1.86089063e-01
-4.37645312e-08,1.86110938e-01
-4.37245312e-08,1.86089063e-01
-4.36845312e-08,1.86110938e-01
-4.36445312e-08,1.86089063e-01
-4.36045312e-08,1.86110938e-01
-4.35645313e-08,1.86089063e-01
-4.35245312e-08,1.86112500e-01
-4.34845312e-08,1.86087500e-01
-4.34445312e-08,1.86112500e-01
-4.34045312e-08,1.86085938e-01
-4.33645312e-08,1.86115625e-01
-4.33245312e-08,1.86084375e-01
-4.32845313e-08,1.86117188e-01
-4.32445312e-08,1.86079688e-01
-4.32045312e-08,1.86123438e-01
-4.31645312e-08,1.86073437e-01
-4.31245312e-08,1.86132812e-01
-4.30845312e-08,1.86054688e-01
-4.30445312e-08,1.86173438e-01
-4.30045313e-08,1.85868750e-01
-4.29645312e-08,1.85678125e-01
-4.29245312e-08,1.85673438e-01
-4.28845312e-08,1.85889063e-01
-4.28445312e-08,1.86167187e-01
-4.28045312e-08,1.86059375e-01
-4.27645312e-08,1.86129688e-01
-4.27245313e-08,1.86078125e-01
-4.26845312e-08,1.86118750e-01
-4.26445312e-08,1.86084375e-01
-4.26045312e-08,1.86112500e-01
-4.25645312e-08,1.86089063e-01
-4.25245312e-08,1.86109375e-01
-4.24845312e-08,1.86092188e-01
-4.24445312e-08,1.86106250e-01
-4.24045312e-08,1.86095312e-01
-4.23645312e-08,1.86101563e-01
-4.23245312e-08,1.86101563e-01
-4.22845312e-08,1.86093750e-01
-4.22445312e-08,1.86115625e-01
-4.22045313e-08,1.86059375e-01
-4.21645312e-08,1.86293750e-01
-4.21245312e-08,1.86570313e-01
-4.20845312e-08,1.86453125e-01
-4.20445312e-08,1.86539063e-01
-4.20045312e-08,1.86464062e-01
-4.19645312e-08,1.86535937e-01
-4.19245313e-08,1.86460938e-01
-4.18845312e-08,1.86548437e-01
-4.18445312e-08,1.86428125e-01
-4.18045312e-08,1.86725000e-01
-4.17645312e-08,1.86937500e-01
-4.17245312e-08,1.86885938e-01
-4.16845312e-08,1.86903125e-01
-4.16445313e-08,1.86903125e-01
-4.16045312e-08,1.86892188e-01
-4.15645312e-08,1.86912500e-01
-4.15245312e-08,1.86881250e-01
-4.14845312e-08,1.86928125e-01
-4.14445312e-08,1.86845312e-01
-4.14045312e-08,1.87107812e-01
-4.13645313e-08,1.87354688e-01
-4.13245312e-08,1.87270313e-01
-4.12845312e-08,1.87320313e-01
-4.12445312e-08,1.87284375e-01
-4.12045312e-08,1.87312500e-01
-4.11645312e-08,1.87290625e-01
-4.11245312e-08,1.87307813e-01
-4.10845313e-08,1.87293750e-01
-4.10445312e-08,1.87306250e-01
-4.10045312e-08,1.87295313e-01
-4.09645312e-08,1.87304688e-01
-4.09245312e-08,1.87295313e-01
-4.08845312e-08,1.87303125e-01
-4.08445312e-08,1.87296875e-01
-4.08045313e-08,1.87303125e-01
-4.07645312e-08,1.87296875e-01
-4.07245312e-08,1.87301563e-01
-4.06845312e-08,1.87298437e-01
-4.06445312e-08,1.87301563e-01
-4.06045312e-08,1.87298437e-01
-4.05645312e-08,1.87301563e-01
-4.05245312e-08,1.87298437e-01
-4.04845312e-08,1.87301563e-01
-4.04445312e-08,1.87300000e-01
-4.04045312e-08,1.87300000e-01
-4.03645312e-08,1.87300000e-01
-4.03245312e-08,1.87300000e-01
-4.02845313e-08,1.87300000e-01
-4.02445312e-08,1.87300000e-01
-4.02045312e-08,1.87300000e-01
-4.01645312e-08,1.87298437e-01
-4.01245312e-08,1.87301563e-01
-4.00845312e-08,1.87298437e-01
-4.00445312e-08,1.87301563e-01
-4.00045313e-08,1.87298437e-01
-3.99645312e-08,1.87303125e-01
-3.99245312e-08,1.87296875e-01
-3.98845312e-08,1.87304688e-01
-3.98445312e-08,1.87295313e-01
-3.98045312e-08,1.87306250e-01
-3.97645312e-08,1.87292188e-01
-3.97245313e-08,1.87309375e-01
-3.96845312e-08,1.87287500e-01
-3.96445312e-08,1.87317188e-01
-3.96045312e-08,1.87271875e-01
-3.95645312e-08,1.87351563e-01
-3.95245312e-08,1.87095312e-01
-3.94845312e-08,1.86842188e-01
-3.94445313e-08,1.86932813e-01
-3.94045312e-08,1.86876563e-01
-3.93645312e-08,1.86918750e-01
-3.93245312e-08,1.86884375e-01
-3.92845312e-08,1.86914063e-01
-3.92445312e-08,1.86887500e-01
-3.92045312e-08,1.86910938e-01
-3.91645313e-08,1.86889063e-01
-3.91245312e-08,1.86910938e-01
-3.90845312e-08,1.86890625e-01
-3.90445312e-08,1.86909375e-01
-3.90045312e-08,1.86890625e-01
-3.89645312e-08,1.86909375e-01
-3.89245312e-08,1.86890625e-01
-3.88845313e-08,1.86909375e-01
-3.88445312e-08,1.86890625e-01
-3.88045312e-08,1.86909375e-01
-3.87645312e-08,1.86890625e-01
-3.87245312e-08,1.86909375e-01
-3.86845312e-08,1.86890625e-01
-3.86445312e-08,1.86910938e-01
-3.86045313e-08,1.86889063e-01
-3.85645312e-08,1.86912500e-01
-3.85245312e-08,1.86887500e-01
