trails/0bdfa5e45fec98341abdd20552c140b4/aes_ch1_20250507122205120.csv

Model,MSO66B
Label,
Waveform Type,ANALOG
Horizontal Units,s
Sample Interval,4.00000000e-11
Record Length,10000
Zero Index,1599.07421875
Vertical Units,A
ANALOG_Thumbnail,
yOffset,1.84500000e-01
yPosition,8.40000000e-01

Labels,
TIME,CH1
-6.39629687e-08,1.99701563e-01
-6.39229688e-08,1.99698437e-01
-6.38829687e-08,1.99701563e-01
-6.38429687e-08,1.99698437e-01
-6.38029687e-08,1.99701563e-01
-6.37629687e-08,1.99698437e-01
-6.37229688e-08,1.99701563e-01
-6.36829687e-08,1.99698437e-01
-6.36429688e-08,1.99701563e-01
-6.36029687e-08,1.99698437e-01
-6.35629687e-08,1.99701563e-01
-6.35229687e-08,1.99698437e-01
-6.34829687e-08,1.99701563e-01
-6.34429688e-08,1.99698437e-01
-6.34029687e-08,1.99701563e-01
-6.33629688e-08,1.99698437e-01
-6.33229687e-08,1.99703125e-01
-6.32829687e-08,1.99696875e-01
-6.32429687e-08,1.99703125e-01
-6.32029687e-08,1.99696875e-01
-6.31629688e-08,1.99703125e-01
-6.31229687e-08,1.99696875e-01
-6.30829688e-08,1.99703125e-01
-6.30429687e-08,1.99696875e-01
-6.30029687e-08,1.99703125e-01
-6.29629687e-08,1.99696875e-01
-6.29229687e-08,1.99703125e-01
-6.28829688e-08,1.99696875e-01
-6.28429687e-08,1.99703125e-01
-6.28029688e-08,1.99696875e-01
-6.27629687e-08,1.99703125e-01
-6.27229687e-08,1.99696875e-01
-6.26829687e-08,1.99703125e-01
-6.26429687e-08,1.99696875e-01
-6.26029688e-08,1.99703125e-01
-6.25629687e-08,1.99696875e-01
-6.25229688e-08,1.99703125e-01
-6.24829687e-08,1.99696875e-01
-6.24429687e-08,1.99703125e-01
-6.24029687e-08,1.99695312e-01
-6.23629687e-08,1.99704688e-01
-6.23229688e-08,1.99695312e-01
-6.22829687e-08,1.99704688e-01
-6.22429688e-08,1.99695312e-01
-6.22029687e-08,1.99704688e-01
-6.21629687e-08,1.99695312e-01
-6.21229687e-08,1.99704688e-01
-6.20829687e-08,1.99695312e-01
-6.20429688e-08,1.99704688e-01
-6.20029687e-08,1.99695312e-01
-6.19629688e-08,1.99706250e-01
-6.19229687e-08,1.99693750e-01
-6.18829687e-08,1.99706250e-01
-6.18429687e-08,1.99693750e-01
-6.18029687e-08,1.99706250e-01
-6.17629688e-08,1.99693750e-01
-6.17229687e-08,1.99707812e-01
-6.16829687e-08,1.99692188e-01
-6.16429687e-08,1.99707812e-01
-6.16029687e-08,1.99690625e-01
-6.15629687e-08,1.99709375e-01
-6.15229687e-08,1.99689063e-01
-6.14829688e-08,1.99712500e-01
-6.14429687e-08,1.99685938e-01
-6.14029687e-08,1.99715625e-01
-6.13629687e-08,1.99681250e-01
-6.13229687e-08,1.99723438e-01
-6.12829687e-08,1.99667188e-01
-6.12429687e-08,1.99757813e-01
-6.12029688e-08,1.99487500e-01
-6.11629687e-08,1.99250000e-01
-6.11229687e-08,1.99326562e-01
-6.10829687e-08,1.99282813e-01
-6.10429687e-08,1.99312500e-01
-6.10029687e-08,1.99290625e-01
-6.09629687e-08,1.99306250e-01
-6.09229688e-08,1.99295313e-01
-6.08829687e-08,1.99303125e-01
-6.08429687e-08,1.99296875e-01
-6.08029687e-08,1.99301563e-01
-6.07629687e-08,1.99298438e-01
-6.07229687e-08,1.99300000e-01
-6.06829687e-08,1.99300000e-01
-6.06429688e-08,1.99298438e-01
-6.06029687e-08,1.99301563e-01
-6.05629687e-08,1.99296875e-01
-6.05229687e-08,1.99303125e-01
-6.04829687e-08,1.99295313e-01
-6.04429687e-08,1.99304688e-01
-6.04029687e-08,1.99293750e-01
-6.03629688e-08,1.99307813e-01
-6.03229687e-08,1.99290625e-01
-6.02829687e-08,1.99310938e-01
-6.02429687e-08,1.99285938e-01
-6.02029687e-08,1.99320313e-01
-6.01629687e-08,1.99270313e-01
-6.01229687e-08,1.99354688e-01
-6.00829688e-08,1.99092188e-01
-6.00429687e-08,1.98845313e-01
-6.00029687e-08,1.98929688e-01
-5.99629687e-08,1.98879688e-01
-5.99229687e-08,1.98915625e-01
-5.98829688e-08,1.98887500e-01
-5.98429687e-08,1.98910937e-01
-5.98029688e-08,1.98890625e-01
-5.97629687e-08,1.98907813e-01
-5.97229687e-08,1.98893750e-01
-5.96829687e-08,1.98906250e-01
-5.96429687e-08,1.98895313e-01
-5.96029687e-08,1.98904688e-01
-5.95629687e-08,1.98895313e-01
-5.95229687e-08,1.98904688e-01
-5.94829687e-08,1.98896875e-01
-5.94429687e-08,1.98903125e-01
-5.94029687e-08,1.98896875e-01
-5.93629687e-08,1.98903125e-01
-5.93229687e-08,1.98898437e-01
-5.92829687e-08,1.98901563e-01
-5.92429687e-08,1.98898437e-01
-5.92029687e-08,1.98901563e-01
-5.91629687e-08,1.98898437e-01
-5.91229687e-08,1.98901563e-01
-5.90829687e-08,1.98900000e-01
-5.90429687e-08,1.98900000e-01
-5.90029687e-08,1.98900000e-01
-5.89629687e-08,1.98900000e-01
-5.89229687e-08,1.98900000e-01
-5.88829687e-08,1.98900000e-01
-5.88429687e-08,1.98901563e-01
-5.88029687e-08,1.98898437e-01
-5.87629687e-08,1.98901563e-01
-5.87229687e-08,1.98898437e-01
-5.86829687e-08,1.98903125e-01
-5.86429687e-08,1.98896875e-01
-5.86029687e-08,1.98903125e-01
-5.85629687e-08,1.98895313e-01
-5.85229687e-08,1.98904688e-01
-5.84829687e-08,1.98893750e-01
-5.84429687e-08,1.98907813e-01
-5.84029687e-08,1.98890625e-01
-5.83629687e-08,1.98912500e-01
-5.83229687e-08,1.98881250e-01
-5.82829687e-08,1.98928125e-01
-5.82429687e-08,1.98846875e-01
-5.82029687e-08,1.99106250e-01
-5.81629687e-08,1.99356250e-01
-5.81229687e-08,1.99267187e-01
-5.80829687e-08,1.99323438e-01
-5.80429687e-08,1.99281250e-01
-5.80029687e-08,1.99315625e-01
-5.79629687e-08,1.99287500e-01
-5.79229687e-08,1.99310938e-01
-5.78829687e-08,1.99289063e-01
-5.78429687e-08,1.99309375e-01
-5.78029687e-08,1.99290625e-01
-5.77629687e-08,1.99309375e-01
-5.77229687e-08,1.99292187e-01
-5.76829687e-08,1.99307813e-01
-5.76429687e-08,1.99292187e-01
-5.76029687e-08,1.99307813e-01
-5.75629687e-08,1.99292187e-01
-5.75229687e-08,1.99307813e-01
-5.74829687e-08,1.99292187e-01
-5.74429687e-08,1.99307813e-01
-5.74029687e-08,1.99292187e-01
-5.73629687e-08,1.99307813e-01
-5.73229687e-08,1.99292187e-01
-5.72829687e-08,1.99309375e-01
-5.72429687e-08,1.99290625e-01
-5.72029687e-08,1.99310938e-01
-5.71629687e-08,1.99289063e-01
-5.71229687e-08,1.99314062e-01
-5.70829687e-08,1.99282813e-01
-5.70429687e-08,1.99321875e-01
-5.70029687e-08,1.99268750e-01
-5.69629687e-08,1.99356250e-01
-5.69229687e-08,1.99092188e-01
-5.68829687e-08,1.98845313e-01
-5.68429687e-08,1.98929688e-01
-5.68029687e-08,1.98879688e-01
-5.67629687e-08,1.98915625e-01
-5.67229687e-08,1.98885937e-01
-5.66829687e-08,1.98910937e-01
-5.66429687e-08,1.98889063e-01
-5.66029687e-08,1.98909375e-01
-5.65629687e-08,1.98890625e-01
-5.65229687e-08,1.98907813e-01
-5.64829687e-08,1.98892188e-01
-5.64429687e-08,1.98907813e-01
-5.64029687e-08,1.98892188e-01
-5.63629687e-08,1.98907813e-01
-5.63229687e-08,1.98892188e-01
-5.62829687e-08,1.98909375e-01
-5.62429687e-08,1.98890625e-01
-5.62029687e-08,1.98909375e-01
-5.61629687e-08,1.98889063e-01
-5.61229687e-08,1.98910937e-01
-5.60829687e-08,1.98887500e-01
-5.60429687e-08,1.98914063e-01
-5.60029687e-08,1.98882813e-01
-5.59629687e-08,1.98923438e-01
-5.59229687e-08,1.98867188e-01
-5.58829687e-08,1.98957812e-01
-5.58429687e-08,1.98689063e-01
-5.58029687e-08,1.98448438e-01
-5.57629687e-08,1.98528125e-01
-5.57229687e-08,1.98481250e-01
-5.56829687e-08,1.98514063e-01
-5.56429687e-08,1.98489063e-01
-5.56029687e-08,1.98507813e-01
-5.55629687e-08,1.98493750e-01
-5.55229687e-08,1.98506250e-01
-5.54829687e-08,1.98495313e-01
-5.54429687e-08,1.98504687e-01
-5.54029687e-08,1.98496875e-01
-5.53629687e-08,1.98503125e-01
-5.53229687e-08,1.98496875e-01
-5.52829687e-08,1.98501563e-01
-5.52429687e-08,1.98498438e-01
-5.52029687e-08,1.98501563e-01
-5.51629687e-08,1.98500000e-01
-5.51229687e-08,1.98500000e-01
-5.50829687e-08,1.98500000e-01
-5.50429687e-08,1.98500000e-01
-5.50029687e-08,1.98501563e-01
-5.49629687e-08,1.98498438e-01
-5.49229687e-08,1.98501563e-01
-5.48829687e-08,1.98496875e-01
-5.48429687e-08,1.98503125e-01
-5.48029687e-08,1.98496875e-01
-5.47629687e-08,1.98504687e-01
-5.47229687e-08,1.98493750e-01
-5.46829687e-08,1.98507813e-01
-5.46429687e-08,1.98490625e-01
-5.46029687e-08,1.98512500e-01
-5.45629687e-08,1.98482812e-01
-5.45229687e-08,1.98526563e-01
-5.44829687e-08,1.98448438e-01
-5.44429687e-08,1.98704688e-01
-5.44029687e-08,1.98959375e-01
-5.43629687e-08,1.98864062e-01
-5.43229687e-08,1.98926563e-01
-5.42829687e-08,1.98876563e-01
-5.42429687e-08,1.98923438e-01
-5.42029687e-08,1.98875000e-01
-5.41629687e-08,1.98932813e-01
-5.41229687e-08,1.98845313e-01
-5.40829687e-08,1.99106250e-01
-5.40429687e-08,1.99359375e-01
-5.40029687e-08,1.99262500e-01
-5.39629687e-08,1.99332813e-01
-5.39229687e-08,1.99267187e-01
-5.38829687e-08,1.99340625e-01
-5.38429687e-08,1.99235938e-01
-5.38029687e-08,1.99517187e-01
-5.37629687e-08,1.99745312e-01
-5.37229687e-08,1.99679688e-01
-5.36829687e-08,1.99709375e-01
-5.36429687e-08,1.99698437e-01
-5.36029687e-08,1.99693750e-01
-5.35629687e-08,1.99717188e-01
-5.35229687e-08,1.99656250e-01
-5.34829687e-08,1.99896875e-01
-5.34429687e-08,2.00164063e-01
-5.34029687e-08,2.00059375e-01
-5.33629687e-08,2.00129688e-01
-5.33229687e-08,2.00075000e-01
-5.32829687e-08,2.00121875e-01
-5.32429687e-08,2.00079688e-01
-5.32029687e-08,2.00118750e-01
-5.31629687e-08,2.00082813e-01
-5.31229687e-08,2.00117188e-01
-5.30829687e-08,2.00084375e-01
-5.30429687e-08,2.00115625e-01
-5.30029687e-08,2.00084375e-01
-5.29629687e-08,2.00115625e-01
-5.29229687e-08,2.00084375e-01
-5.28829687e-08,2.00115625e-01
-5.28429687e-08,2.00082813e-01
-5.28029687e-08,2.00117188e-01
-5.27629687e-08,2.00081250e-01
-5.27229687e-08,2.00120313e-01
-5.26829687e-08,2.00076562e-01
-5.26429687e-08,2.00129688e-01
-5.26029687e-08,2.00060938e-01
-5.25629687e-08,2.00164063e-01
-5.25229687e-08,1.99882813e-01
-5.24829687e-08,1.99654688e-01
-5.24429687e-08,1.99720312e-01
-5.24029687e-08,1.99689063e-01
-5.23629687e-08,1.99704688e-01
-5.23229687e-08,1.99700000e-01
-5.22829687e-08,1.99695312e-01
-5.22429687e-08,1.99710938e-01
-5.22029688e-08,1.99678125e-01
-5.21629687e-08,1.99746875e-01
-5.21229687e-08,1.99500000e-01
-5.20829687e-08,1.99237500e-01
-5.20429687e-08,1.99340625e-01
-5.20029687e-08,1.99268750e-01
-5.19629687e-08,1.99328125e-01
-5.19229687e-08,1.99271875e-01
-5.18829687e-08,1.99331250e-01
-5.18429687e-08,1.99260938e-01
-5.18029687e-08,1.99362500e-01
-5.17629687e-08,1.99084375e-01
-5.17229687e-08,1.98853125e-01
-5.16829687e-08,1.98925000e-01
-5.16429687e-08,1.98884375e-01
-5.16029687e-08,1.98910937e-01
-5.15629687e-08,1.98892188e-01
-5.15229687e-08,1.98906250e-01
-5.14829687e-08,1.98893750e-01
-5.14429687e-08,1.98904688e-01
-5.14029687e-08,1.98895313e-01
-5.13629687e-08,1.98903125e-01
-5.13229687e-08,1.98896875e-01
-5.12829687e-08,1.98903125e-01
-5.12429687e-08,1.98898437e-01
-5.12029687e-08,1.98901563e-01
-5.11629687e-08,1.98898437e-01
-5.11229687e-08,1.98901563e-01
-5.10829687e-08,1.98898437e-01
-5.10429687e-08,1.98901563e-01
-5.10029687e-08,1.98900000e-01
-5.09629687e-08,1.98900000e-01
-5.09229687e-08,1.98900000e-01
-5.08829687e-08,1.98900000e-01
-5.08429687e-08,1.98900000e-01
-5.08029687e-08,1.98898437e-01
-5.07629687e-08,1.98901563e-01
-5.07229687e-08,1.98898437e-01
-5.06829687e-08,1.98903125e-01
-5.06429687e-08,1.98895313e-01
-5.06029687e-08,1.98904688e-01
-5.05629687e-08,1.98892188e-01
-5.05229687e-08,1.98910937e-01
-5.04829687e-08,1.98884375e-01
-5.04429687e-08,1.98925000e-01
-5.04029687e-08,1.98850000e-01
-5.03629687e-08,1.99101562e-01
-5.03229687e-08,1.99360938e-01
-5.02829688e-08,1.99262500e-01
-5.02429687e-08,1.99328125e-01
-5.02029687e-08,1.99276563e-01
-5.01629687e-08,1.99320313e-01
-5.01229687e-08,1.99281250e-01
-5.00829687e-08,1.99318750e-01
-5.00429687e-08,1.99281250e-01
-5.00029688e-08,1.99320313e-01
-4.99629687e-08,1.99279687e-01
-4.99229687e-08,1.99323438e-01
-4.98829687e-08,1.99271875e-01
-4.98429687e-08,1.99337500e-01
-4.98029687e-08,1.99237500e-01
-4.97629687e-08,1.99514063e-01
-4.97229687e-08,1.99748438e-01
-4.96829687e-08,1.99675000e-01
-4.96429687e-08,1.99715625e-01
-4.96029687e-08,1.99689063e-01
-4.95629687e-08,1.99707812e-01
-4.95229687e-08,1.99693750e-01
-4.94829687e-08,1.99704688e-01
-4.94429687e-08,1.99696875e-01
-4.94029687e-08,1.99703125e-01
-4.93629687e-08,1.99698437e-01
-4.93229687e-08,1.99701563e-01
-4.92829687e-08,1.99698437e-01
-4.92429687e-08,1.99700000e-01
-4.92029687e-08,1.99700000e-01
-4.91629687e-08,1.99700000e-01
-4.91229687e-08,1.99700000e-01
-4.90829687e-08,1.99700000e-01
-4.90429687e-08,1.99700000e-01
-4.90029687e-08,1.99700000e-01
-4.89629687e-08,1.99700000e-01
-4.89229687e-08,1.99700000e-01
-4.88829687e-08,1.99700000e-01
-4.88429687e-08,1.99700000e-01
-4.88029687e-08,1.99701563e-01
-4.87629687e-08,1.99698437e-01
-4.87229687e-08,1.99701563e-01
-4.86829687e-08,1.99698437e-01
-4.86429688e-08,1.99701563e-01
-4.86029687e-08,1.99698437e-01
-4.85629687e-08,1.99701563e-01
-4.85229687e-08,1.99698437e-01
-4.84829687e-08,1.99701563e-01
-4.84429687e-08,1.99698437e-01
-4.84029687e-08,1.99701563e-01
-4.83629688e-08,1.99698437e-01
-4.83229687e-08,1.99701563e-01
-4.82829687e-08,1.99698437e-01
-4.82429687e-08,1.99701563e-01
-4.82029687e-08,1.99698437e-01
-4.81629687e-08,1.99701563e-01
-4.81229687e-08,1.99698437e-01
-4.80829688e-08,1.99701563e-01
-4.80429687e-08,1.99698437e-01
-4.80029687e-08,1.99701563e-01
-4.79629687e-08,1.99698437e-01
-4.79229687e-08,1.99701563e-01
-4.78829687e-08,1.99698437e-01
-4.78429687e-08,1.99701563e-01
-4.78029687e-08,1.99698437e-01
-4.77629687e-08,1.99701563e-01
-4.77229687e-08,1.99698437e-01
-4.76829687e-08,1.99701563e-01
-4.76429687e-08,1.99698437e-01
-4.76029687e-08,1.99701563e-01
-4.75629687e-08,1.99698437e-01
-4.75229687e-08,1.99701563e-01
-4.74829687e-08,1.99698437e-01
-4.74429687e-08,1.99701563e-01
-4.74029687e-08,1.99698437e-01
-4.73629687e-08,1.99701563e-01
-4.73229687e-08,1.99698437e-01
-4.72829687e-08,1.99701563e-01
-4.72429687e-08,1.99698437e-01
-4.72029687e-08,1.99701563e-01
-4.71629687e-08,1.99698437e-01
-4.71229687e-08,1.99701563e-01
-4.70829687e-08,1.99698437e-01
-4.70429687e-08,1.99701563e-01
-4.70029687e-08,1.99698437e-01
-4.69629687e-08,1.99701563e-01
-4.69229687e-08,1.99698437e-01
-4.68829687e-08,1.99701563e-01
-4.68429687e-08,1.99698437e-01
-4.68029687e-08,1.99701563e-01
-4.67629687e-08,1.99698437e-01
-4.67229688e-08,1.99701563e-01
-4.66829687e-08,1.99698437e-01
-4.66429687e-08,1.99701563e-01
-4.66029687e-08,1.99698437e-01
-4.65629687e-08,1.99701563e-01
-4.65229687e-08,1.99698437e-01
-4.64829687e-08,1.99701563e-01
-4.64429688e-08,1.99698437e-01
-4.64029687e-08,1.99701563e-01
-4.63629687e-08,1.99698437e-01
-4.63229687e-08,1.99701563e-01
-4.62829687e-08,1.99698437e-01
-4.62429687e-08,1.99701563e-01
-4.62029687e-08,1.99698437e-01
-4.61629688e-08,1.99701563e-01
-4.61229687e-08,1.99698437e-01
-4.60829687e-08,1.99701563e-01
-4.60429687e-08,1.99696875e-01
-4.60029687e-08,1.99703125e-01
-4.59629687e-08,1.99696875e-01
-4.59229687e-08,1.99703125e-01
-4.58829688e-08,1.99696875e-01
-4.58429687e-08,1.99703125e-01
-4.58029687e-08,1.99696875e-01
-4.57629687e-08,1.99703125e-01
-4.57229687e-08,1.99696875e-01
-4.56829687e-08,1.99703125e-01
-4.56429687e-08,1.99696875e-01
-4.56029687e-08,1.99703125e-01
-4.55629687e-08,1.99696875e-01
-4.55229687e-08,1.99703125e-01
-4.54829687e-08,1.99696875e-01
-4.54429687e-08,1.99703125e-01
-4.54029687e-08,1.99696875e-01
-4.53629687e-08,1.99703125e-01
-4.53229687e-08,1.99696875e-01
-4.52829687e-08,1.99703125e-01
-4.52429687e-08,1.99696875e-01
-4.52029687e-08,1.99703125e-01
-4.51629687e-08,1.99696875e-01
-4.51229687e-08,1.99703125e-01
-4.50829687e-08,1.99696875e-01
-4.50429687e-08,1.99704688e-01
-4.50029687e-08,1.99695312e-01
-4.49629687e-08,1.99704688e-01
-4.49229687e-08,1.99695312e-01
-4.48829687e-08,1.99704688e-01
-4.48429687e-08,1.99695312e-01
-4.48029688e-08,1.99704688e-01
-4.47629687e-08,1.99693750e-01
-4.47229687e-08,1.99706250e-01
-4.46829687e-08,1.99693750e-01
-4.46429687e-08,1.99707812e-01
-4.46029687e-08,1.99690625e-01
-4.45629687e-08,1.99709375e-01
-4.45229688e-08,1.99687500e-01
-4.44829687e-08,1.99715625e-01
-4.44429687e-08,1.99679688e-01
-4.44029687e-08,1.99729688e-01
-4.43629687e-08,1.99645313e-01
-4.43229687e-08,1.99906250e-01
-4.42829687e-08,2.00156250e-01
-4.42429688e-08,2.00067188e-01
-4.42029687e-08,2.00123438e-01
-4.41629687e-08,2.00081250e-01
-4.41229687e-08,2.00117188e-01
-4.40829687e-08,2.00084375e-01
-4.40429687e-08,2.00115625e-01
-4.40029687e-08,2.00082813e-01
-4.39629688e-08,2.00118750e-01
-4.39229687e-08,2.00076562e-01
-4.38829687e-08,2.00131250e-01
-4.38429687e-08,2.00043750e-01
-4.38029687e-08,2.00309375e-01
-4.37629687e-08,2.00554687e-01
-4.37229687e-08,2.00468750e-01
-4.36829688e-08,2.00521875e-01
-4.36429687e-08,2.00482812e-01
-4.36029687e-08,2.00515625e-01
-4.35629687e-08,2.00485938e-01
-4.35229687e-08,2.00512500e-01
-4.34829687e-08,2.00487500e-01
-4.34429687e-08,2.00512500e-01
-4.34029687e-08,2.00487500e-01
-4.33629687e-08,2.00514063e-01
-4.33229687e-08,2.00485938e-01
-4.32829687e-08,2.00517187e-01
-4.32429687e-08,2.00479688e-01
-4.32029687e-08,2.00525000e-01
-4.31629687e-08,2.00465625e-01
-4.31229687e-08,2.00559375e-01
-4.30829687e-08,2.00287500e-01
-4.30429687e-08,2.00050000e-01
-4.30029687e-08,2.00125000e-01
-4.29629687e-08,2.00084375e-01
-4.29229687e-08,2.00109375e-01
-4.28829688e-08,2.00095313e-01
-4.28429687e-08,2.00100000e-01
-4.28029687e-08,2.00104688e-01
-4.27629687e-08,2.00085938e-01
-4.27229687e-08,2.00139063e-01
-4.26829687e-08,1.99907813e-01
-4.26429687e-08,1.99628125e-01
-4.26029688e-08,1.99750000e-01
-4.25629687e-08,1.99656250e-01
-4.25229687e-08,1.99745312e-01
-4.24829687e-08,1.99648437e-01
-4.24429687e-08,1.99776563e-01
-4.24029687e-08,1.99470312e-01
-4.23629687e-08,1.99268750e-01
-4.23229688e-08,1.99306250e-01
-4.22829687e-08,1.99307813e-01
-4.22429687e-08,1.99278125e-01
-4.22029687e-08,1.99350000e-01
-4.21629687e-08,1.99093750e-01
-4.21229687e-08,1.98846875e-01
-4.20829687e-08,1.98926563e-01
-4.20429688e-08,1.98887500e-01
-4.20029687e-08,1.98898437e-01
-4.19629687e-08,1.98929688e-01
-4.19229687e-08,1.98717188e-01
-4.18829687e-08,1.98420313e-01
-4.18429687e-08,1.98556250e-01
-4.18029687e-08,1.98450000e-01
-4.17629688e-08,1.98548438e-01
-4.17229687e-08,1.98445312e-01
-4.16829687e-08,1.98578125e-01
-4.16429687e-08,1.98270313e-01
-4.16029687e-08,1.98065625e-01
-4.15629687e-08,1.98110938e-01
-4.15229687e-08,1.98098438e-01
-4.14829688e-08,1.98096875e-01
-4.14429687e-08,1.98107813e-01
-4.14029687e-08,1.98089062e-01
-4.13629687e-08,1.98114063e-01
-4.13229687e-08,1.98082813e-01
-4.12829687e-08,1.98123437e-01
-4.12429687e-08,1.98067188e-01
-4.12029687e-08,1.98159375e-01
-4.11629687e-08,1.97887500e-01
-4.11229687e-08,1.97650000e-01
-4.10829687e-08,1.97725000e-01
-4.10429687e-08,1.97684375e-01
-4.10029687e-08,1.97710938e-01
-4.09629688e-08,1.97693750e-01
-4.09229687e-08,1.97704688e-01
-4.08829687e-08,1.97698438e-01
-4.08429687e-08,1.97700000e-01
-4.08029687e-08,1.97703125e-01
-4.07629687e-08,1.97695312e-01
-4.07229687e-08,1.97707812e-01
-4.06829688e-08,1.97685938e-01
-4.06429687e-08,1.97723438e-01
-4.06029687e-08,1.97651563e-01
-4.05629687e-08,1.97901563e-01
-4.05229687e-08,1.98160938e-01
-4.04829687e-08,1.98062500e-01
-4.04429687e-08,1.98128125e-01
-4.04029688e-08,1.98076562e-01
-4.03629687e-08,1.98121875e-01
-4.03229687e-08,1.98079688e-01
-4.02829687e-08,1.98120313e-01
-4.02429687e-08,1.98078125e-01
-4.02029687e-08,1.98123437e-01
-4.01629687e-08,1.98071875e-01
-4.01229688e-08,1.98137500e-01
-4.00829687e-08,1.98037500e-01
-4.00429687e-08,1.98315625e-01
-4.00029687e-08,1.98546875e-01
-3.99629687e-08,1.98476563e-01
-3.99229687e-08,1.98514063e-01
-3.98829687e-08,1.98492188e-01
-3.98429688e-08,1.98504687e-01
-3.98029687e-08,1.98498438e-01
-3.97629687e-08,1.98498438e-01
-3.97229687e-08,1.98504687e-01
-3.96829687e-08,1.98489063e-01
-3.96429687e-08,1.98520313e-01
-3.96029687e-08,1.98454688e-01
-3.95629688e-08,1.98698438e-01
-3.95229687e-08,1.98964063e-01
-3.94829687e-08,1.98859375e-01
-3.94429687e-08,1.98931250e-01
-3.94029687e-08,1.98873437e-01
-3.93629687e-08,1.98925000e-01
-3.93229687e-08,1.98876563e-01
-3.92829688e-08,1.98923438e-01
-3.92429687e-08,1.98876563e-01
-3.92029687e-08,1.98925000e-01
-3.91629687e-08,1.98871875e-01
-3.91229687e-08,1.98932813e-01
-3.90829687e-08,1.98857813e-01
-3.90429688e-08,1.98967188e-01
-3.90029687e-08,1.98679688e-01
-3.89629687e-08,1.98457812e-01
-3.89229687e-08,1.98518750e-01
-3.88829687e-08,1.98492188e-01
-3.88429687e-08,1.98503125e-01
-3.88029687e-08,1.98501563e-01
-3.87629688e-08,1.98495313e-01
-3.87229687e-08,1.98507813e-01
-3.86829687e-08,1.98487500e-01
-3.86429687e-08,1.98518750e-01
-3.86029687e-08,1.98471875e-01
-3.85629687e-08,1.98553125e-01
-3.85229687e-08,1.98292187e-01
