trails/0bdfa5e45fec98341abdd20552c140b4/aes_ch1_20250507123024993.csv

Model,MSO66B
Label,
Waveform Type,ANALOG
Horizontal Units,s
Sample Interval,4.00000000e-11
Record Length,10000
Zero Index,1599.13281250
Vertical Units,A
ANALOG_Thumbnail,
yOffset,1.84500000e-01
yPosition,8.40000000e-01

Labels,
TIME,CH1
-6.39653125e-08,1.93762500e-01
-6.39253125e-08,1.93484375e-01
-6.38853125e-08,1.93253125e-01
-6.38453125e-08,1.93321875e-01
-6.38053125e-08,1.93287500e-01
-6.37653125e-08,1.93307813e-01
-6.37253125e-08,1.93295313e-01
-6.36853125e-08,1.93303125e-01
-6.36453125e-08,1.93298438e-01
-6.36053125e-08,1.93300000e-01
-6.35653125e-08,1.93301562e-01
-6.35253125e-08,1.93296875e-01
-6.34853125e-08,1.93303125e-01
-6.34453125e-08,1.93295313e-01
-6.34053125e-08,1.93306250e-01
-6.33653125e-08,1.93292188e-01
-6.33253125e-08,1.93309375e-01
-6.32853125e-08,1.93287500e-01
-6.32453125e-08,1.93318750e-01
-6.32053125e-08,1.93271875e-01
-6.31653125e-08,1.93353125e-01
-6.31253125e-08,1.93093750e-01
-6.30853125e-08,1.92843750e-01
-6.30453125e-08,1.92932812e-01
-6.30053125e-08,1.92876563e-01
-6.29653125e-08,1.92918750e-01
-6.29253125e-08,1.92882813e-01
-6.28853125e-08,1.92915625e-01
-6.28453125e-08,1.92885937e-01
-6.28053125e-08,1.92914063e-01
-6.27653125e-08,1.92885937e-01
-6.27253125e-08,1.92915625e-01
-6.26853125e-08,1.92882813e-01
-6.26453125e-08,1.92918750e-01
-6.26053125e-08,1.92876563e-01
-6.25653125e-08,1.92932812e-01
-6.25253125e-08,1.92842188e-01
-6.24853125e-08,1.93110937e-01
-6.24453125e-08,1.93351563e-01
-6.24053125e-08,1.93271875e-01
-6.23653125e-08,1.93318750e-01
-6.23253125e-08,1.93285938e-01
-6.22853125e-08,1.93310938e-01
-6.22453125e-08,1.93290625e-01
-6.22053125e-08,1.93307813e-01
-6.21653125e-08,1.93293750e-01
-6.21253125e-08,1.93306250e-01
-6.20853125e-08,1.93295313e-01
-6.20453125e-08,1.93304688e-01
-6.20053125e-08,1.93296875e-01
-6.19653125e-08,1.93303125e-01
-6.19253125e-08,1.93296875e-01
-6.18853125e-08,1.93303125e-01
-6.18453125e-08,1.93298438e-01
-6.18053125e-08,1.93301562e-01
-6.17653125e-08,1.93298438e-01
-6.17253125e-08,1.93300000e-01
-6.16853125e-08,1.93300000e-01
-6.16453125e-08,1.93300000e-01
-6.16053125e-08,1.93301562e-01
-6.15653125e-08,1.93298438e-01
-6.15253125e-08,1.93303125e-01
-6.14853125e-08,1.93295313e-01
-6.14453125e-08,1.93306250e-01
-6.14053125e-08,1.93290625e-01
-6.13653125e-08,1.93315625e-01
-6.13253125e-08,1.93275000e-01
-6.12853125e-08,1.93350000e-01
-6.12453125e-08,1.93096875e-01
-6.12053125e-08,1.92840625e-01
-6.11653125e-08,1.92935938e-01
-6.11253125e-08,1.92873438e-01
-6.10853125e-08,1.92921875e-01
-6.10453125e-08,1.92881250e-01
-6.10053125e-08,1.92915625e-01
-6.09653125e-08,1.92885937e-01
-6.09253125e-08,1.92914063e-01
-6.08853125e-08,1.92887500e-01
-6.08453125e-08,1.92912500e-01
-6.08053125e-08,1.92889063e-01
-6.07653125e-08,1.92910938e-01
-6.07253125e-08,1.92889063e-01
-6.06853125e-08,1.92909375e-01
-6.06453125e-08,1.92890625e-01
-6.06053125e-08,1.92909375e-01
-6.05653125e-08,1.92892188e-01
-6.05253125e-08,1.92907812e-01
-6.04853125e-08,1.92893750e-01
-6.04453125e-08,1.92906250e-01
-6.04053125e-08,1.92895312e-01
-6.03653125e-08,1.92901563e-01
-6.03253125e-08,1.92903125e-01
-6.02853125e-08,1.92887500e-01
-6.02453125e-08,1.92935938e-01
-6.02053125e-08,1.92712500e-01
-6.01653125e-08,1.92425000e-01
-6.01253125e-08,1.92553125e-01
-6.00853125e-08,1.92453125e-01
-6.00453125e-08,1.92543750e-01
-6.00053125e-08,1.92454687e-01
-5.99653125e-08,1.92548438e-01
-5.99253125e-08,1.92442188e-01
-5.98853125e-08,1.92582813e-01
-5.98453125e-08,1.92262500e-01
-5.98053125e-08,1.92078125e-01
-5.97653125e-08,1.92095313e-01
-5.97253125e-08,1.92118750e-01
-5.96853125e-08,1.92065625e-01
-5.96453125e-08,1.92164063e-01
-5.96053125e-08,1.91879688e-01
-5.95653125e-08,1.91660938e-01
-5.95253125e-08,1.91710938e-01
-5.94853125e-08,1.91704687e-01
-5.94453125e-08,1.91679688e-01
-5.94053125e-08,1.91750000e-01
-5.93653125e-08,1.91493750e-01
-5.93253125e-08,1.91246875e-01
-5.92853125e-08,1.91325000e-01
-5.92453125e-08,1.91290625e-01
-5.92053125e-08,1.91295313e-01
-5.91653125e-08,1.91332813e-01
-5.91253125e-08,1.91112500e-01
-5.90853125e-08,1.90825000e-01
-5.90453125e-08,1.90951563e-01
-5.90053125e-08,1.90856250e-01
-5.89653125e-08,1.90942187e-01
-5.89253125e-08,1.90851563e-01
-5.88853125e-08,1.90970313e-01
-5.88453125e-08,1.90678125e-01
-5.88053125e-08,1.90457813e-01
-5.87653125e-08,1.90518750e-01
-5.87253125e-08,1.90489063e-01
-5.86853125e-08,1.90506250e-01
-5.86453125e-08,1.90496875e-01
-5.86053125e-08,1.90500000e-01
-5.85653125e-08,1.90501562e-01
-5.85253125e-08,1.90495313e-01
-5.84853125e-08,1.90509375e-01
-5.84453125e-08,1.90481250e-01
-5.84053125e-08,1.90543750e-01
-5.83653125e-08,1.90304688e-01
-5.83253125e-08,1.90031250e-01
-5.82853125e-08,1.90145312e-01
-5.82453125e-08,1.90060937e-01
-5.82053125e-08,1.90137500e-01
-5.81653125e-08,1.90060937e-01
-5.81253125e-08,1.90146875e-01
-5.80853125e-08,1.90028125e-01
-5.80453125e-08,1.90323437e-01
-5.80053125e-08,1.90539062e-01
-5.79653125e-08,1.90484375e-01
-5.79253125e-08,1.90506250e-01
-5.78853125e-08,1.90500000e-01
-5.78453125e-08,1.90496875e-01
-5.78053125e-08,1.90506250e-01
-5.77653125e-08,1.90492188e-01
-5.77253125e-08,1.90510938e-01
-5.76853125e-08,1.90485938e-01
-5.76453125e-08,1.90517188e-01
-5.76053125e-08,1.90476563e-01
-5.75653125e-08,1.90534375e-01
-5.75253125e-08,1.90440625e-01
-5.74853125e-08,1.90714063e-01
-5.74453125e-08,1.90948438e-01
-5.74053125e-08,1.90876563e-01
-5.73653125e-08,1.90912500e-01
-5.73253125e-08,1.90893750e-01
-5.72853125e-08,1.90903125e-01
-5.72453125e-08,1.90901563e-01
-5.72053125e-08,1.90895312e-01
-5.71653125e-08,1.90909375e-01
-5.71253125e-08,1.90884375e-01
-5.70853125e-08,1.90925000e-01
-5.70453125e-08,1.90848437e-01
-5.70053125e-08,1.91104688e-01
-5.69653125e-08,1.91356250e-01
-5.69253125e-08,1.91267188e-01
-5.68853125e-08,1.91321875e-01
-5.68453125e-08,1.91282813e-01
-5.68053125e-08,1.91314062e-01
-5.67653125e-08,1.91289062e-01
-5.67253125e-08,1.91309375e-01
-5.66853125e-08,1.91292188e-01
-5.66453125e-08,1.91306250e-01
-5.66053125e-08,1.91293750e-01
-5.65653125e-08,1.91304688e-01
-5.65253125e-08,1.91295313e-01
-5.64853125e-08,1.91303125e-01
-5.64453125e-08,1.91296875e-01
-5.64053125e-08,1.91301563e-01
-5.63653125e-08,1.91298438e-01
-5.63253125e-08,1.91301563e-01
-5.62853125e-08,1.91300000e-01
-5.62453125e-08,1.91300000e-01
-5.62053125e-08,1.91301563e-01
-5.61653125e-08,1.91298438e-01
-5.61253125e-08,1.91301563e-01
-5.60853125e-08,1.91296875e-01
-5.60453125e-08,1.91304688e-01
-5.60053125e-08,1.91295313e-01
-5.59653125e-08,1.91306250e-01
-5.59253125e-08,1.91292188e-01
-5.58853125e-08,1.91310938e-01
-5.58453125e-08,1.91285938e-01
-5.58053125e-08,1.91318750e-01
-5.57653125e-08,1.91271875e-01
-5.57253125e-08,1.91353125e-01
-5.56853125e-08,1.91093750e-01
-5.56453125e-08,1.90845313e-01
-5.56053125e-08,1.90931250e-01
-5.55653125e-08,1.90878125e-01
-5.55253125e-08,1.90915625e-01
-5.54853125e-08,1.90887500e-01
-5.54453125e-08,1.90910938e-01
-5.54053125e-08,1.90890625e-01
-5.53653125e-08,1.90907812e-01
-5.53253125e-08,1.90893750e-01
-5.52853125e-08,1.90906250e-01
-5.52453125e-08,1.90895312e-01
-5.52053125e-08,1.90904688e-01
-5.51653125e-08,1.90895312e-01
-5.51253125e-08,1.90903125e-01
-5.50853125e-08,1.90896875e-01
-5.50453125e-08,1.90903125e-01
-5.50053125e-08,1.90898438e-01
-5.49653125e-08,1.90901563e-01
-5.49253125e-08,1.90898438e-01
-5.48853125e-08,1.90901563e-01
-5.48453125e-08,1.90900000e-01
-5.48053125e-08,1.90900000e-01
-5.47653125e-08,1.90900000e-01
-5.47253125e-08,1.90898438e-01
-5.46853125e-08,1.90901563e-01
-5.46453125e-08,1.90898438e-01
-5.46053125e-08,1.90901563e-01
-5.45653125e-08,1.90896875e-01
-5.45253125e-08,1.90903125e-01
-5.44853125e-08,1.90895312e-01
-5.44453125e-08,1.90904688e-01
-5.44053125e-08,1.90893750e-01
-5.43653125e-08,1.90907812e-01
-5.43253125e-08,1.90892188e-01
-5.42853125e-08,1.90910938e-01
-5.42453125e-08,1.90887500e-01
-5.42053125e-08,1.90915625e-01
-5.41653125e-08,1.90878125e-01
-5.41253125e-08,1.90931250e-01
-5.40853125e-08,1.90842188e-01
-5.40453125e-08,1.91110937e-01
-5.40053125e-08,1.91351563e-01
-5.39653125e-08,1.91273438e-01
-5.39253125e-08,1.91315625e-01
-5.38853125e-08,1.91289062e-01
-5.38453125e-08,1.91306250e-01
-5.38053125e-08,1.91298438e-01
-5.37653125e-08,1.91298438e-01
-5.37253125e-08,1.91306250e-01
-5.36853125e-08,1.91287500e-01
-5.36453125e-08,1.91323437e-01
-5.36053125e-08,1.91251562e-01
-5.35653125e-08,1.91503125e-01
-5.35253125e-08,1.91757813e-01
-5.34853125e-08,1.91665625e-01
-5.34453125e-08,1.91723438e-01
-5.34053125e-08,1.91682813e-01
-5.33653125e-08,1.91710938e-01
-5.33253125e-08,1.91693750e-01
-5.32853125e-08,1.91700000e-01
-5.32453125e-08,1.91709375e-01
-5.32053125e-08,1.91664063e-01
-5.31653125e-08,1.91889063e-01
-5.31253125e-08,1.92173438e-01
-5.30853125e-08,1.92050000e-01
-5.30453125e-08,1.92142188e-01
-5.30053125e-08,1.92060938e-01
-5.29653125e-08,1.92139063e-01
-5.29253125e-08,1.92057813e-01
-5.28853125e-08,1.92150000e-01
-5.28453125e-08,1.92026562e-01
-5.28053125e-08,1.92325000e-01
-5.27653125e-08,1.92537500e-01
-5.27253125e-08,1.92485938e-01
-5.26853125e-08,1.92504687e-01
-5.26453125e-08,1.92500000e-01
-5.26053125e-08,1.92495313e-01
-5.25653125e-08,1.92506250e-01
-5.25253125e-08,1.92490625e-01
-5.24853125e-08,1.92514062e-01
-5.24453125e-08,1.92481250e-01
-5.24053125e-08,1.92528125e-01
-5.23653125e-08,1.92446875e-01
-5.23253125e-08,1.92706250e-01
-5.22853125e-08,1.92956250e-01
-5.22453125e-08,1.92867188e-01
-5.22053125e-08,1.92923438e-01
-5.21653125e-08,1.92881250e-01
-5.21253125e-08,1.92917188e-01
-5.20853125e-08,1.92884375e-01
-5.20453125e-08,1.92915625e-01
-5.20053125e-08,1.92884375e-01
-5.19653125e-08,1.92917188e-01
-5.19253125e-08,1.92879688e-01
-5.18853125e-08,1.92925000e-01
-5.18453125e-08,1.92865625e-01
-5.18053125e-08,1.92959375e-01
-5.17653125e-08,1.92687500e-01
-5.17253125e-08,1.92450000e-01
-5.16853125e-08,1.92526562e-01
-5.16453125e-08,1.92484375e-01
-5.16053125e-08,1.92510938e-01
-5.15653125e-08,1.92493750e-01
-5.15253125e-08,1.92503125e-01
-5.14853125e-08,1.92500000e-01
-5.14453125e-08,1.92496875e-01
-5.14053125e-08,1.92509375e-01
-5.13653125e-08,1.92481250e-01
-5.13253125e-08,1.92543750e-01
-5.12853125e-08,1.92303125e-01
-5.12453125e-08,1.92034375e-01
-5.12053125e-08,1.92142188e-01
-5.11653125e-08,1.92065625e-01
-5.11253125e-08,1.92131250e-01
-5.10853125e-08,1.92068750e-01
-5.10453125e-08,1.92132812e-01
-5.10053125e-08,1.92059375e-01
-5.09653125e-08,1.92164063e-01
-5.09253125e-08,1.91884375e-01
-5.08853125e-08,1.91653125e-01
-5.08453125e-08,1.91725000e-01
-5.08053125e-08,1.91684375e-01
-5.07653125e-08,1.91712500e-01
-5.07253125e-08,1.91689063e-01
-5.06853125e-08,1.91709375e-01
-5.06453125e-08,1.91689063e-01
-5.06053125e-08,1.91710938e-01
-5.05653125e-08,1.91685938e-01
-5.05253125e-08,1.91718750e-01
-5.04853125e-08,1.91671875e-01
-5.04453125e-08,1.91753125e-01
-5.04053125e-08,1.91495313e-01
-5.03653125e-08,1.91242187e-01
-5.03253125e-08,1.91332813e-01
-5.02853125e-08,1.91275000e-01
-5.02453125e-08,1.91318750e-01
-5.02053125e-08,1.91282813e-01
-5.01653125e-08,1.91314062e-01
-5.01253125e-08,1.91287500e-01
-5.00853125e-08,1.91312500e-01
-5.00453125e-08,1.91289062e-01
-5.00053125e-08,1.91310938e-01
-4.99653125e-08,1.91289062e-01
-4.99253125e-08,1.91309375e-01
-4.98853125e-08,1.91290625e-01
-4.98453125e-08,1.91309375e-01
-4.98053125e-08,1.91290625e-01
-4.97653125e-08,1.91309375e-01
-4.97253125e-08,1.91290625e-01
-4.96853125e-08,1.91307813e-01
-4.96453125e-08,1.91292188e-01
-4.96053125e-08,1.91307813e-01
-4.95653125e-08,1.91292188e-01
-4.95253125e-08,1.91307813e-01
-4.94853125e-08,1.91292188e-01
-4.94453125e-08,1.91307813e-01
-4.94053125e-08,1.91292188e-01
-4.93653125e-08,1.91307813e-01
-4.93253125e-08,1.91290625e-01
-4.92853125e-08,1.91309375e-01
-4.92453125e-08,1.91290625e-01
-4.92053125e-08,1.91309375e-01
-4.91653125e-08,1.91290625e-01
-4.91253125e-08,1.91309375e-01
-4.90853125e-08,1.91290625e-01
-4.90453125e-08,1.91310938e-01
-4.90053125e-08,1.91289062e-01
-4.89653125e-08,1.91310938e-01
-4.89253125e-08,1.91287500e-01
-4.88853125e-08,1.91314062e-01
-4.88453125e-08,1.91284375e-01
-4.88053125e-08,1.91317188e-01
-4.87653125e-08,1.91279688e-01
-4.87253125e-08,1.91325000e-01
-4.86853125e-08,1.91265625e-01
-4.86453125e-08,1.91359375e-01
-4.86053125e-08,1.91087500e-01
-4.85653125e-08,1.90850000e-01
-4.85253125e-08,1.90926563e-01
-4.84853125e-08,1.90882812e-01
-4.84453125e-08,1.90910938e-01
-4.84053125e-08,1.90892188e-01
-4.83653125e-08,1.90906250e-01
-4.83253125e-08,1.90895312e-01
-4.82853125e-08,1.90904688e-01
-4.82453125e-08,1.90896875e-01
-4.82053125e-08,1.90903125e-01
-4.81653125e-08,1.90898438e-01
-4.81253125e-08,1.90901563e-01
-4.80853125e-08,1.90898438e-01
-4.80453125e-08,1.90901563e-01
-4.80053125e-08,1.90900000e-01
-4.79653125e-08,1.90900000e-01
-4.79253125e-08,1.90900000e-01
-4.78853125e-08,1.90900000e-01
-4.78453125e-08,1.90900000e-01
-4.78053125e-08,1.90900000e-01
-4.77653125e-08,1.90900000e-01
-4.77253125e-08,1.90900000e-01
-4.76853125e-08,1.90901563e-01
-4.76453125e-08,1.90898438e-01
-4.76053125e-08,1.90901563e-01
-4.75653125e-08,1.90898438e-01
-4.75253125e-08,1.90901563e-01
-4.74853125e-08,1.90898438e-01
-4.74453125e-08,1.90901563e-01
-4.74053125e-08,1.90898438e-01
-4.73653125e-08,1.90901563e-01
-4.73253125e-08,1.90898438e-01
-4.72853125e-08,1.90901563e-01
-4.72453125e-08,1.90898438e-01
-4.72053125e-08,1.90901563e-01
-4.71653125e-08,1.90898438e-01
-4.71253125e-08,1.90901563e-01
-4.70853125e-08,1.90898438e-01
-4.70453125e-08,1.90901563e-01
-4.70053125e-08,1.90898438e-01
-4.69653125e-08,1.90901563e-01
-4.69253125e-08,1.90898438e-01
-4.68853125e-08,1.90901563e-01
-4.68453125e-08,1.90898438e-01
-4.68053125e-08,1.90901563e-01
-4.67653125e-08,1.90898438e-01
-4.67253125e-08,1.90901563e-01
-4.66853125e-08,1.90896875e-01
-4.66453125e-08,1.90903125e-01
-4.66053125e-08,1.90896875e-01
-4.65653125e-08,1.90903125e-01
-4.65253125e-08,1.90896875e-01
-4.64853125e-08,1.90903125e-01
-4.64453125e-08,1.90896875e-01
-4.64053125e-08,1.90903125e-01
-4.63653125e-08,1.90896875e-01
-4.63253125e-08,1.90903125e-01
-4.62853125e-08,1.90896875e-01
-4.62453125e-08,1.90903125e-01
-4.62053125e-08,1.90896875e-01
-4.61653125e-08,1.90903125e-01
-4.61253125e-08,1.90896875e-01
-4.60853125e-08,1.90903125e-01
-4.60453125e-08,1.90896875e-01
-4.60053125e-08,1.90903125e-01
-4.59653125e-08,1.90895312e-01
-4.59253125e-08,1.90904688e-01
-4.58853125e-08,1.90895312e-01
-4.58453125e-08,1.90904688e-01
-4.58053125e-08,1.90895312e-01
-4.57653125e-08,1.90904688e-01
-4.57253125e-08,1.90893750e-01
-4.56853125e-08,1.90906250e-01
-4.56453125e-08,1.90893750e-01
-4.56053125e-08,1.90907812e-01
-4.55653125e-08,1.90892188e-01
-4.55253125e-08,1.90909375e-01
-4.54853125e-08,1.90889063e-01
-4.54453125e-08,1.90912500e-01
-4.54053125e-08,1.90884375e-01
-4.53653125e-08,1.90920312e-01
-4.53253125e-08,1.90870313e-01
-4.52853125e-08,1.90954687e-01
-4.52453125e-08,1.90692187e-01
-4.52053125e-08,1.90445313e-01
-4.51653125e-08,1.90531250e-01
-4.51253125e-08,1.90478125e-01
-4.50853125e-08,1.90515625e-01
-4.50453125e-08,1.90485938e-01
-4.50053125e-08,1.90510938e-01
-4.49653125e-08,1.90489063e-01
-4.49253125e-08,1.90509375e-01
-4.48853125e-08,1.90490625e-01
-4.48453125e-08,1.90507813e-01
-4.48053125e-08,1.90492188e-01
-4.47653125e-08,1.90507813e-01
-4.47253125e-08,1.90492188e-01
-4.46853125e-08,1.90507813e-01
-4.46453125e-08,1.90492188e-01
-4.46053125e-08,1.90509375e-01
-4.45653125e-08,1.90490625e-01
-4.45253125e-08,1.90510938e-01
-4.44853125e-08,1.90487500e-01
-4.44453125e-08,1.90515625e-01
-4.44053125e-08,1.90479687e-01
-4.43653125e-08,1.90529688e-01
-4.43253125e-08,1.90445313e-01
-4.42853125e-08,1.90707813e-01
-4.42453125e-08,1.90954687e-01
-4.42053125e-08,1.90868750e-01
-4.41653125e-08,1.90921875e-01
-4.41253125e-08,1.90881250e-01
-4.40853125e-08,1.90915625e-01
-4.40453125e-08,1.90885938e-01
-4.40053125e-08,1.90912500e-01
-4.39653125e-08,1.90887500e-01
-4.39253125e-08,1.90912500e-01
-4.38853125e-08,1.90887500e-01
-4.38453125e-08,1.90914063e-01
-4.38053125e-08,1.90884375e-01
-4.37653125e-08,1.90917188e-01
-4.37253125e-08,1.90878125e-01
-4.36853125e-08,1.90931250e-01
-4.36453125e-08,1.90843750e-01
-4.36053125e-08,1.91109375e-01
-4.35653125e-08,1.91354688e-01
-4.35253125e-08,1.91268750e-01
-4.34853125e-08,1.91321875e-01
-4.34453125e-08,1.91282813e-01
-4.34053125e-08,1.91314062e-01
-4.33653125e-08,1.91287500e-01
-4.33253125e-08,1.91312500e-01
-4.32853125e-08,1.91287500e-01
-4.32453125e-08,1.91312500e-01
-4.32053125e-08,1.91287500e-01
-4.31653125e-08,1.91314062e-01
-4.31253125e-08,1.91284375e-01
-4.30853125e-08,1.91318750e-01
-4.30453125e-08,1.91276562e-01
-4.30053125e-08,1.91332813e-01
-4.29653125e-08,1.91243750e-01
-4.29253125e-08,1.91509375e-01
-4.28853125e-08,1.91753125e-01
-4.28453125e-08,1.91670312e-01
-4.28053125e-08,1.91720313e-01
-4.27653125e-08,1.91685938e-01
-4.27253125e-08,1.91712500e-01
-4.26853125e-08,1.91690625e-01
-4.26453125e-08,1.91707813e-01
-4.26053125e-08,1.91692187e-01
-4.25653125e-08,1.91706250e-01
-4.25253125e-08,1.91693750e-01
-4.24853125e-08,1.91704687e-01
-4.24453125e-08,1.91695313e-01
-4.24053125e-08,1.91704687e-01
-4.23653125e-08,1.91695313e-01
-4.23253125e-08,1.91703125e-01
-4.22853125e-08,1.91696875e-01
-4.22453125e-08,1.91703125e-01
-4.22053125e-08,1.91696875e-01
-4.21653125e-08,1.91703125e-01
-4.21253125e-08,1.91698438e-01
-4.20853125e-08,1.91701563e-01
-4.20453125e-08,1.91698438e-01
-4.20053125e-08,1.91701563e-01
-4.19653125e-08,1.91698438e-01
-4.19253125e-08,1.91701563e-01
-4.18853125e-08,1.91700000e-01
-4.18453125e-08,1.91700000e-01
-4.18053125e-08,1.91700000e-01
-4.17653125e-08,1.91700000e-01
-4.17253125e-08,1.91701563e-01
-4.16853125e-08,1.91698438e-01
-4.16453125e-08,1.91701563e-01
-4.16053125e-08,1.91696875e-01
-4.15653125e-08,1.91703125e-01
-4.15253125e-08,1.91695313e-01
-4.14853125e-08,1.91706250e-01
-4.14453125e-08,1.91690625e-01
-4.14053125e-08,1.91712500e-01
-4.13653125e-08,1.91682813e-01
-4.13253125e-08,1.91726563e-01
-4.12853125e-08,1.91648438e-01
-4.12453125e-08,1.91904688e-01
-4.12053125e-08,1.92157812e-01
-4.11653125e-08,1.92067188e-01
-4.11253125e-08,1.92123437e-01
-4.10853125e-08,1.92081250e-01
-4.10453125e-08,1.92114063e-01
-4.10053125e-08,1.92087500e-01
-4.09653125e-08,1.92110937e-01
-4.09253125e-08,1.92092188e-01
-4.08853125e-08,1.92106250e-01
-4.08453125e-08,1.92095313e-01
-4.08053125e-08,1.92101563e-01
-4.07653125e-08,1.92101563e-01
-4.07253125e-08,1.92093750e-01
-4.06853125e-08,1.92115625e-01
-4.06453125e-08,1.92059375e-01
-4.06053125e-08,1.92293750e-01
-4.05653125e-08,1.92568750e-01
-4.05253125e-08,1.92454687e-01
-4.04853125e-08,1.92535938e-01
-4.04453125e-08,1.92468750e-01
-4.04053125e-08,1.92528125e-01
-4.03653125e-08,1.92473438e-01
-4.03253125e-08,1.92526562e-01
-4.02853125e-08,1.92473438e-01
-4.02453125e-08,1.92526562e-01
-4.02053125e-08,1.92471875e-01
-4.01653125e-08,1.92531250e-01
-4.01253125e-08,1.92464063e-01
-4.00853125e-08,1.92545313e-01
-4.00453125e-08,1.92429688e-01
-4.00053125e-08,1.92721875e-01
-3.99653125e-08,1.92939063e-01
-3.99253125e-08,1.92884375e-01
-3.98853125e-08,1.92906250e-01
-3.98453125e-08,1.92898438e-01
-3.98053125e-08,1.92898438e-01
-3.97653125e-08,1.92903125e-01
-3.97253125e-08,1.92895312e-01
-3.96853125e-08,1.92906250e-01
-3.96453125e-08,1.92893750e-01
-3.96053125e-08,1.92907812e-01
-3.95653125e-08,1.92890625e-01
-3.95253125e-08,1.92909375e-01
-3.94853125e-08,1.92890625e-01
-3.94453125e-08,1.92910938e-01
-3.94053125e-08,1.92889063e-01
-3.93653125e-08,1.92912500e-01
-3.93253125e-08,1.92887500e-01
-3.92853125e-08,1.92914063e-01
-3.92453125e-08,1.92884375e-01
-3.92053125e-08,1.92917188e-01
-3.91653125e-08,1.92881250e-01
-3.91253125e-08,1.92920312e-01
-3.90853125e-08,1.92876563e-01
-3.90453125e-08,1.92929688e-01
-3.90053125e-08,1.92860937e-01
-3.89653125e-08,1.92964063e-01
-3.89253125e-08,1.92682813e-01
-3.88853125e-08,1.92456250e-01
-3.88453125e-08,1.92520313e-01
-3.88053125e-08,1.92489063e-01
-3.87653125e-08,1.92504687e-01
-3.87253125e-08,1.92498438e-01
-3.86853125e-08,1.92498438e-01
-3.86453125e-08,1.92503125e-01
-3.86053125e-08,1.92495313e-01
-3.85653125e-08,1.92506250e-01
-3.85253125e-08,1.92492188e-01
