trails/0bdfa5e45fec98341abdd20552c140b4/aes_ch1_20250507123331027.csv

Model,MSO66B
Label,
Waveform Type,ANALOG
Horizontal Units,s
Sample Interval,4.00000000e-11
Record Length,10000
Zero Index,1599.01953125
Vertical Units,A
ANALOG_Thumbnail,
yOffset,1.84500000e-01
yPosition,8.40000000e-01

Labels,
TIME,CH1
-6.39607813e-08,1.90110938e-01
-6.39207812e-08,1.90087500e-01
-6.38807813e-08,1.90112500e-01
-6.38407812e-08,1.90087500e-01
-6.38007812e-08,1.90114063e-01
-6.37607812e-08,1.90084375e-01
-6.37207812e-08,1.90117188e-01
-6.36807813e-08,1.90081250e-01
-6.36407812e-08,1.90121875e-01
-6.36007813e-08,1.90073437e-01
-6.35607812e-08,1.90135938e-01
-6.35207812e-08,1.90039062e-01
-6.34807812e-08,1.90314063e-01
-6.34407812e-08,1.90548438e-01
-6.34007813e-08,1.90475000e-01
-6.33607812e-08,1.90517188e-01
-6.33207813e-08,1.90487500e-01
-6.32807812e-08,1.90510938e-01
-6.32407812e-08,1.90489063e-01
-6.32007812e-08,1.90510938e-01
-6.31607812e-08,1.90485938e-01
-6.31207813e-08,1.90523438e-01
-6.30807812e-08,1.90453125e-01
-6.30407813e-08,1.90698438e-01
-6.30007812e-08,1.90965625e-01
-6.29607812e-08,1.90856250e-01
-6.29207812e-08,1.90935938e-01
-6.28807812e-08,1.90865625e-01
-6.28407813e-08,1.90934375e-01
-6.28007812e-08,1.90860937e-01
-6.27607813e-08,1.90948438e-01
-6.27207812e-08,1.90828125e-01
-6.26807812e-08,1.91125000e-01
-6.26407812e-08,1.91335937e-01
-6.26007812e-08,1.91287500e-01
-6.25607813e-08,1.91301563e-01
-6.25207812e-08,1.91304688e-01
-6.24807813e-08,1.91290625e-01
-6.24407812e-08,1.91314062e-01
-6.24007812e-08,1.91279688e-01
-6.23607812e-08,1.91331250e-01
-6.23207812e-08,1.91242187e-01
-6.22807813e-08,1.91512500e-01
-6.22407812e-08,1.91750000e-01
-6.22007813e-08,1.91675000e-01
-6.21607812e-08,1.91715625e-01
-6.21207812e-08,1.91690625e-01
-6.20807812e-08,1.91704687e-01
-6.20407812e-08,1.91696875e-01
-6.20007813e-08,1.91700000e-01
-6.19607812e-08,1.91701563e-01
-6.19207812e-08,1.91695313e-01
-6.18807812e-08,1.91706250e-01
-6.18407812e-08,1.91690625e-01
-6.18007812e-08,1.91714063e-01
-6.17607812e-08,1.91681250e-01
-6.17207813e-08,1.91729687e-01
-6.16807812e-08,1.91645312e-01
-6.16407812e-08,1.91909375e-01
-6.16007812e-08,1.92153125e-01
-6.15607812e-08,1.92071875e-01
-6.15207812e-08,1.92118750e-01
-6.14807812e-08,1.92087500e-01
-6.14407813e-08,1.92109375e-01
-6.14007812e-08,1.92093750e-01
-6.13607812e-08,1.92103125e-01
-6.13207812e-08,1.92098437e-01
-6.12807812e-08,1.92098437e-01
-6.12407812e-08,1.92103125e-01
-6.12007812e-08,1.92092188e-01
-6.11607813e-08,1.92112500e-01
-6.11207812e-08,1.92076562e-01
-6.10807812e-08,1.92148438e-01
-6.10407812e-08,1.91898438e-01
-6.10007812e-08,1.91639063e-01
-6.09607812e-08,1.91735938e-01
-6.09207812e-08,1.91673438e-01
-6.08807813e-08,1.91721875e-01
-6.08407812e-08,1.91681250e-01
-6.08007812e-08,1.91717187e-01
-6.07607812e-08,1.91684375e-01
-6.07207812e-08,1.91714063e-01
-6.06807812e-08,1.91685938e-01
-6.06407812e-08,1.91714063e-01
-6.06007813e-08,1.91685938e-01
-6.05607812e-08,1.91714063e-01
-6.05207812e-08,1.91685938e-01
-6.04807812e-08,1.91715625e-01
-6.04407812e-08,1.91681250e-01
-6.04007812e-08,1.91723438e-01
-6.03607812e-08,1.91667188e-01
-6.03207813e-08,1.91756250e-01
-6.02807812e-08,1.91490625e-01
-6.02407812e-08,1.91245313e-01
-6.02007812e-08,1.91331250e-01
-6.01607812e-08,1.91278125e-01
-6.01207813e-08,1.91318750e-01
-6.00807812e-08,1.91284375e-01
-6.00407813e-08,1.91315625e-01
-6.00007812e-08,1.91284375e-01
-5.99607812e-08,1.91317188e-01
-5.99207812e-08,1.91281250e-01
-5.98807812e-08,1.91323437e-01
-5.98407813e-08,1.91267188e-01
-5.98007812e-08,1.91357813e-01
-5.97607813e-08,1.91090625e-01
-5.97207812e-08,1.90846875e-01
-5.96807812e-08,1.90928125e-01
-5.96407812e-08,1.90879688e-01
-5.96007812e-08,1.90915625e-01
-5.95607812e-08,1.90887500e-01
-5.95207812e-08,1.90909375e-01
-5.94807812e-08,1.90890625e-01
-5.94407812e-08,1.90907812e-01
-5.94007812e-08,1.90893750e-01
-5.93607812e-08,1.90906250e-01
-5.93207812e-08,1.90893750e-01
-5.92807812e-08,1.90904688e-01
-5.92407812e-08,1.90895312e-01
-5.92007812e-08,1.90904688e-01
-5.91607812e-08,1.90895312e-01
-5.91207812e-08,1.90904688e-01
-5.90807812e-08,1.90895312e-01
-5.90407812e-08,1.90904688e-01
-5.90007812e-08,1.90896875e-01
-5.89607812e-08,1.90903125e-01
-5.89207812e-08,1.90896875e-01
-5.88807812e-08,1.90903125e-01
-5.88407812e-08,1.90896875e-01
-5.88007812e-08,1.90903125e-01
-5.87607812e-08,1.90896875e-01
-5.87207812e-08,1.90903125e-01
-5.86807812e-08,1.90896875e-01
-5.86407812e-08,1.90903125e-01
-5.86007812e-08,1.90896875e-01
-5.85607812e-08,1.90903125e-01
-5.85207812e-08,1.90896875e-01
-5.84807812e-08,1.90903125e-01
-5.84407812e-08,1.90895312e-01
-5.84007812e-08,1.90904688e-01
-5.83607812e-08,1.90895312e-01
-5.83207812e-08,1.90904688e-01
-5.82807812e-08,1.90895312e-01
-5.82407812e-08,1.90904688e-01
-5.82007812e-08,1.90895312e-01
-5.81607812e-08,1.90906250e-01
-5.81207812e-08,1.90893750e-01
-5.80807812e-08,1.90906250e-01
-5.80407812e-08,1.90892188e-01
-5.80007812e-08,1.90907812e-01
-5.79607812e-08,1.90890625e-01
-5.79207812e-08,1.90910938e-01
-5.78807812e-08,1.90887500e-01
-5.78407812e-08,1.90915625e-01
-5.78007812e-08,1.90879688e-01
-5.77607812e-08,1.90931250e-01
-5.77207812e-08,1.90843750e-01
-5.76807812e-08,1.91109375e-01
-5.76407812e-08,1.91353125e-01
-5.76007812e-08,1.91270313e-01
-5.75607812e-08,1.91320313e-01
-5.75207812e-08,1.91285938e-01
-5.74807812e-08,1.91310938e-01
-5.74407812e-08,1.91290625e-01
-5.74007812e-08,1.91307813e-01
-5.73607812e-08,1.91293750e-01
-5.73207812e-08,1.91304688e-01
-5.72807812e-08,1.91296875e-01
-5.72407812e-08,1.91303125e-01
-5.72007812e-08,1.91298438e-01
-5.71607812e-08,1.91300000e-01
-5.71207812e-08,1.91301563e-01
-5.70807812e-08,1.91296875e-01
-5.70407812e-08,1.91307813e-01
-5.70007812e-08,1.91287500e-01
-5.69607812e-08,1.91321875e-01
-5.69207812e-08,1.91253125e-01
-5.68807812e-08,1.91500000e-01
-5.68407812e-08,1.91762500e-01
-5.68007812e-08,1.91660938e-01
-5.67607812e-08,1.91729687e-01
-5.67207812e-08,1.91675000e-01
-5.66807812e-08,1.91721875e-01
-5.66407812e-08,1.91681250e-01
-5.66007812e-08,1.91718750e-01
-5.65607812e-08,1.91682813e-01
-5.65207812e-08,1.91717187e-01
-5.64807812e-08,1.91684375e-01
-5.64407812e-08,1.91715625e-01
-5.64007812e-08,1.91684375e-01
-5.63607812e-08,1.91715625e-01
-5.63207812e-08,1.91684375e-01
-5.62807812e-08,1.91715625e-01
-5.62407812e-08,1.91684375e-01
-5.62007812e-08,1.91717187e-01
-5.61607812e-08,1.91682813e-01
-5.61207812e-08,1.91718750e-01
-5.60807812e-08,1.91681250e-01
-5.60407812e-08,1.91720313e-01
-5.60007812e-08,1.91676563e-01
-5.59607812e-08,1.91726563e-01
-5.59207812e-08,1.91668750e-01
-5.58807812e-08,1.91740625e-01
-5.58407812e-08,1.91634375e-01
-5.58007812e-08,1.91920312e-01
-5.57607812e-08,1.92142188e-01
-5.57207812e-08,1.92081250e-01
-5.56807812e-08,1.92107813e-01
-5.56407812e-08,1.92096875e-01
-5.56007812e-08,1.92100000e-01
-5.55607812e-08,1.92103125e-01
-5.55207812e-08,1.92093750e-01
-5.54807812e-08,1.92107813e-01
-5.54407812e-08,1.92090625e-01
-5.54007812e-08,1.92112500e-01
-5.53607812e-08,1.92084375e-01
-5.53207812e-08,1.92118750e-01
-5.52807812e-08,1.92075000e-01
-5.52407812e-08,1.92134375e-01
-5.52007812e-08,1.92040625e-01
-5.51607812e-08,1.92314062e-01
-5.51207812e-08,1.92548438e-01
-5.50807812e-08,1.92476563e-01
-5.50407812e-08,1.92512500e-01
-5.50007812e-08,1.92492188e-01
-5.49607812e-08,1.92503125e-01
-5.49207812e-08,1.92500000e-01
-5.48807812e-08,1.92496875e-01
-5.48407812e-08,1.92504687e-01
-5.48007812e-08,1.92492188e-01
-5.47607812e-08,1.92512500e-01
-5.47207812e-08,1.92481250e-01
-5.46807812e-08,1.92528125e-01
-5.46407812e-08,1.92445313e-01
-5.46007812e-08,1.92707813e-01
-5.45607812e-08,1.92953125e-01
-5.45207812e-08,1.92870313e-01
-5.44807812e-08,1.92918750e-01
-5.44407812e-08,1.92885937e-01
-5.44007812e-08,1.92910938e-01
-5.43607812e-08,1.92892188e-01
-5.43207812e-08,1.92904688e-01
-5.42807812e-08,1.92896875e-01
-5.42407812e-08,1.92901563e-01
-5.42007812e-08,1.92900000e-01
-5.41607812e-08,1.92898438e-01
-5.41207812e-08,1.92903125e-01
-5.40807812e-08,1.92895312e-01
-5.40407812e-08,1.92907812e-01
-5.40007812e-08,1.92889063e-01
-5.39607812e-08,1.92917188e-01
-5.39207812e-08,1.92873438e-01
-5.38807812e-08,1.92953125e-01
-5.38407812e-08,1.92693750e-01
-5.38007812e-08,1.92445313e-01
-5.37607812e-08,1.92531250e-01
-5.37207812e-08,1.92479687e-01
-5.36807812e-08,1.92515625e-01
-5.36407812e-08,1.92489063e-01
-5.36007812e-08,1.92507813e-01
-5.35607812e-08,1.92496875e-01
-5.35207812e-08,1.92500000e-01
-5.34807812e-08,1.92506250e-01
-5.34407812e-08,1.92484375e-01
-5.34007812e-08,1.92540625e-01
-5.33607812e-08,1.92306250e-01
-5.33207812e-08,1.92031250e-01
-5.32807812e-08,1.92145312e-01
-5.32407812e-08,1.92062500e-01
-5.32007812e-08,1.92134375e-01
-5.31607812e-08,1.92065625e-01
-5.31207812e-08,1.92135938e-01
-5.30807812e-08,1.92056250e-01
-5.30407812e-08,1.92168750e-01
-5.30007812e-08,1.91879688e-01
-5.29607812e-08,1.91656250e-01
-5.29207812e-08,1.91720313e-01
-5.28807812e-08,1.91689063e-01
-5.28407812e-08,1.91706250e-01
-5.28007812e-08,1.91695313e-01
-5.27607812e-08,1.91703125e-01
-5.27207812e-08,1.91698438e-01
-5.26807812e-08,1.91701563e-01
-5.26407812e-08,1.91700000e-01
-5.26007812e-08,1.91700000e-01
-5.25607812e-08,1.91700000e-01
-5.25207812e-08,1.91700000e-01
-5.24807812e-08,1.91701563e-01
-5.24407813e-08,1.91698438e-01
-5.24007812e-08,1.91701563e-01
-5.23607812e-08,1.91698438e-01
-5.23207812e-08,1.91701563e-01
-5.22807812e-08,1.91698438e-01
-5.22407812e-08,1.91701563e-01
-5.22007812e-08,1.91696875e-01
-5.21607812e-08,1.91703125e-01
-5.21207812e-08,1.91696875e-01
-5.20807812e-08,1.91704687e-01
-5.20407812e-08,1.91695313e-01
-5.20007812e-08,1.91706250e-01
-5.19607812e-08,1.91692187e-01
-5.19207812e-08,1.91710938e-01
-5.18807812e-08,1.91684375e-01
-5.18407812e-08,1.91725000e-01
-5.18007812e-08,1.91651563e-01
-5.17607812e-08,1.91901563e-01
-5.17207812e-08,1.92160938e-01
-5.16807812e-08,1.92060938e-01
-5.16407812e-08,1.92129688e-01
-5.16007812e-08,1.92073437e-01
-5.15607812e-08,1.92125000e-01
-5.15207812e-08,1.92075000e-01
-5.14807812e-08,1.92126563e-01
-5.14407812e-08,1.92068750e-01
-5.14007812e-08,1.92140625e-01
-5.13607812e-08,1.92035938e-01
-5.13207812e-08,1.92317188e-01
-5.12807812e-08,1.92545313e-01
-5.12407812e-08,1.92478125e-01
-5.12007812e-08,1.92512500e-01
-5.11607812e-08,1.92492188e-01
-5.11207812e-08,1.92504687e-01
-5.10807812e-08,1.92498438e-01
-5.10407812e-08,1.92500000e-01
-5.10007812e-08,1.92501563e-01
-5.09607812e-08,1.92496875e-01
-5.09207812e-08,1.92503125e-01
-5.08807812e-08,1.92495313e-01
-5.08407812e-08,1.92506250e-01
-5.08007812e-08,1.92493750e-01
-5.07607812e-08,1.92507813e-01
-5.07207812e-08,1.92490625e-01
-5.06807812e-08,1.92510938e-01
-5.06407812e-08,1.92487500e-01
-5.06007812e-08,1.92515625e-01
-5.05607812e-08,1.92481250e-01
-5.05207813e-08,1.92525000e-01
-5.04807812e-08,1.92464063e-01
-5.04407812e-08,1.92560938e-01
-5.04007812e-08,1.92284375e-01
-5.03607812e-08,1.92054688e-01
-5.03207812e-08,1.92118750e-01
-5.02807812e-08,1.92092188e-01
-5.02407812e-08,1.92100000e-01
-5.02007812e-08,1.92109375e-01
-5.01607812e-08,1.92078125e-01
-5.01207812e-08,1.92148438e-01
-5.00807812e-08,1.91896875e-01
-5.00407812e-08,1.91643750e-01
-5.00007812e-08,1.91731250e-01
-4.99607812e-08,1.91681250e-01
-4.99207812e-08,1.91710938e-01
-4.98807812e-08,1.91696875e-01
-4.98407812e-08,1.91690625e-01
-4.98007812e-08,1.91734375e-01
-4.97607812e-08,1.91510938e-01
-4.97207812e-08,1.91226563e-01
-4.96807812e-08,1.91350000e-01
-4.96407812e-08,1.91259375e-01
-4.96007812e-08,1.91337500e-01
-4.95607812e-08,1.91264062e-01
-4.95207812e-08,1.91339063e-01
-4.94807812e-08,1.91253125e-01
-4.94407812e-08,1.91370313e-01
-4.94007812e-08,1.91078125e-01
-4.93607812e-08,1.90857813e-01
-4.93207812e-08,1.90918750e-01
-4.92807812e-08,1.90889063e-01
-4.92407812e-08,1.90906250e-01
-4.92007812e-08,1.90896875e-01
-4.91607812e-08,1.90901563e-01
-4.91207812e-08,1.90898438e-01
-4.90807812e-08,1.90901563e-01
-4.90407812e-08,1.90900000e-01
-4.90007812e-08,1.90900000e-01
-4.89607812e-08,1.90900000e-01
-4.89207812e-08,1.90900000e-01
-4.88807813e-08,1.90900000e-01
-4.88407812e-08,1.90901563e-01
-4.88007812e-08,1.90898438e-01
-4.87607812e-08,1.90901563e-01
-4.87207812e-08,1.90896875e-01
-4.86807812e-08,1.90903125e-01
-4.86407812e-08,1.90895312e-01
-4.86007813e-08,1.90906250e-01
-4.85607812e-08,1.90892188e-01
-4.85207812e-08,1.90910938e-01
-4.84807812e-08,1.90884375e-01
-4.84407812e-08,1.90926563e-01
-4.84007812e-08,1.90848437e-01
-4.83607812e-08,1.91104688e-01
-4.83207813e-08,1.91357813e-01
-4.82807812e-08,1.91265625e-01
-4.82407812e-08,1.91325000e-01
-4.82007812e-08,1.91279688e-01
-4.81607812e-08,1.91317188e-01
-4.81207812e-08,1.91285938e-01
-4.80807812e-08,1.91312500e-01
-4.80407812e-08,1.91287500e-01
-4.80007812e-08,1.91310938e-01
-4.79607812e-08,1.91289062e-01
-4.79207812e-08,1.91309375e-01
-4.78807812e-08,1.91290625e-01
-4.78407812e-08,1.91309375e-01
-4.78007812e-08,1.91292188e-01
-4.77607812e-08,1.91307813e-01
-4.77207812e-08,1.91292188e-01
-4.76807812e-08,1.91307813e-01
-4.76407812e-08,1.91292188e-01
-4.76007812e-08,1.91307813e-01
-4.75607812e-08,1.91293750e-01
-4.75207812e-08,1.91306250e-01
-4.74807812e-08,1.91293750e-01
-4.74407812e-08,1.91306250e-01
-4.74007812e-08,1.91293750e-01
-4.73607812e-08,1.91306250e-01
-4.73207812e-08,1.91293750e-01
-4.72807812e-08,1.91306250e-01
-4.72407812e-08,1.91293750e-01
-4.72007812e-08,1.91306250e-01
-4.71607812e-08,1.91293750e-01
-4.71207812e-08,1.91306250e-01
-4.70807812e-08,1.91293750e-01
-4.70407812e-08,1.91306250e-01
-4.70007812e-08,1.91293750e-01
-4.69607813e-08,1.91306250e-01
-4.69207812e-08,1.91293750e-01
-4.68807812e-08,1.91306250e-01
-4.68407812e-08,1.91295313e-01
-4.68007812e-08,1.91304688e-01
-4.67607812e-08,1.91295313e-01
-4.67207812e-08,1.91304688e-01
-4.66807813e-08,1.91295313e-01
-4.66407812e-08,1.91304688e-01
-4.66007812e-08,1.91295313e-01
-4.65607812e-08,1.91304688e-01
-4.65207812e-08,1.91295313e-01
-4.64807812e-08,1.91304688e-01
-4.64407812e-08,1.91295313e-01
-4.64007813e-08,1.91304688e-01
-4.63607812e-08,1.91295313e-01
-4.63207812e-08,1.91304688e-01
-4.62807812e-08,1.91295313e-01
-4.62407812e-08,1.91304688e-01
-4.62007812e-08,1.91295313e-01
-4.61607812e-08,1.91304688e-01
-4.61207813e-08,1.91295313e-01
-4.60807812e-08,1.91304688e-01
-4.60407812e-08,1.91295313e-01
-4.60007812e-08,1.91304688e-01
-4.59607812e-08,1.91295313e-01
-4.59207812e-08,1.91304688e-01
-4.58807812e-08,1.91295313e-01
-4.58407812e-08,1.91304688e-01
-4.58007812e-08,1.91295313e-01
-4.57607812e-08,1.91304688e-01
-4.57207812e-08,1.91295313e-01
-4.56807812e-08,1.91304688e-01
-4.56407812e-08,1.91295313e-01
-4.56007812e-08,1.91304688e-01
-4.55607812e-08,1.91295313e-01
-4.55207812e-08,1.91306250e-01
-4.54807812e-08,1.91293750e-01
-4.54407812e-08,1.91306250e-01
-4.54007812e-08,1.91293750e-01
-4.53607812e-08,1.91306250e-01
-4.53207812e-08,1.91293750e-01
-4.52807812e-08,1.91306250e-01
-4.52407812e-08,1.91293750e-01
-4.52007812e-08,1.91306250e-01
-4.51607812e-08,1.91293750e-01
-4.51207812e-08,1.91306250e-01
-4.50807812e-08,1.91292188e-01
-4.50407813e-08,1.91307813e-01
-4.50007812e-08,1.91292188e-01
-4.49607812e-08,1.91307813e-01
-4.49207812e-08,1.91292188e-01
-4.48807812e-08,1.91309375e-01
-4.48407812e-08,1.91290625e-01
-4.48007812e-08,1.91310938e-01
-4.47607813e-08,1.91287500e-01
-4.47207812e-08,1.91312500e-01
-4.46807812e-08,1.91284375e-01
-4.46407812e-08,1.91318750e-01
-4.46007812e-08,1.91276562e-01
-4.45607812e-08,1.91332813e-01
-4.45207812e-08,1.91242187e-01
-4.44807813e-08,1.91510938e-01
-4.44407812e-08,1.91751563e-01
-4.44007812e-08,1.91671875e-01
-4.43607812e-08,1.91718750e-01
-4.43207812e-08,1.91687500e-01
-4.42807812e-08,1.91709375e-01
-4.42407812e-08,1.91692187e-01
-4.42007813e-08,1.91706250e-01
-4.41607812e-08,1.91693750e-01
-4.41207812e-08,1.91704687e-01
-4.40807812e-08,1.91695313e-01
-4.40407812e-08,1.91703125e-01
-4.40007812e-08,1.91696875e-01
-4.39607812e-08,1.91703125e-01
-4.39207813e-08,1.91696875e-01
-4.38807812e-08,1.91701563e-01
-4.38407812e-08,1.91698438e-01
-4.38007812e-08,1.91701563e-01
-4.37607812e-08,1.91698438e-01
-4.37207812e-08,1.91701563e-01
-4.36807812e-08,1.91698438e-01
-4.36407812e-08,1.91701563e-01
-4.36007812e-08,1.91698438e-01
-4.35607812e-08,1.91701563e-01
-4.35207812e-08,1.91698438e-01
-4.34807812e-08,1.91700000e-01
-4.34407812e-08,1.91700000e-01
-4.34007812e-08,1.91700000e-01
-4.33607812e-08,1.91700000e-01
-4.33207812e-08,1.91701563e-01
-4.32807812e-08,1.91700000e-01
-4.32407812e-08,1.91700000e-01
-4.32007812e-08,1.91698438e-01
-4.31607812e-08,1.91701563e-01
-4.31207813e-08,1.91698438e-01
-4.30807812e-08,1.91701563e-01
-4.30407812e-08,1.91698438e-01
-4.30007812e-08,1.91701563e-01
-4.29607812e-08,1.91698438e-01
-4.29207812e-08,1.91701563e-01
-4.28807812e-08,1.91698438e-01
-4.28407813e-08,1.91703125e-01
-4.28007812e-08,1.91696875e-01
-4.27607812e-08,1.91703125e-01
-4.27207812e-08,1.91695313e-01
-4.26807812e-08,1.91704687e-01
-4.26407812e-08,1.91693750e-01
-4.26007812e-08,1.91709375e-01
-4.25607813e-08,1.91689063e-01
-4.25207812e-08,1.91717187e-01
-4.24807812e-08,1.91673438e-01
-4.24407812e-08,1.91751563e-01
-4.24007812e-08,1.91496875e-01
-4.23607812e-08,1.91240625e-01
-4.23207812e-08,1.91334375e-01
-4.22807813e-08,1.91273438e-01
-4.22407812e-08,1.91321875e-01
-4.22007812e-08,1.91281250e-01
-4.21607812e-08,1.91317188e-01
-4.21207812e-08,1.91284375e-01
-4.20807812e-08,1.91314062e-01
-4.20407812e-08,1.91285938e-01
-4.20007813e-08,1.91314062e-01
-4.19607812e-08,1.91285938e-01
-4.19207812e-08,1.91314062e-01
-4.18807812e-08,1.91285938e-01
-4.18407812e-08,1.91315625e-01
-4.18007812e-08,1.91284375e-01
-4.17607812e-08,1.91317188e-01
-4.17207813e-08,1.91281250e-01
-4.16807812e-08,1.91321875e-01
-4.16407812e-08,1.91271875e-01
-4.16007812e-08,1.91337500e-01
-4.15607812e-08,1.91237500e-01
-4.15207812e-08,1.91515625e-01
-4.14807812e-08,1.91746875e-01
-4.14407812e-08,1.91678125e-01
-4.14007812e-08,1.91712500e-01
-4.13607812e-08,1.91692187e-01
-4.13207812e-08,1.91703125e-01
-4.12807812e-08,1.91700000e-01
-4.12407812e-08,1.91696875e-01
-4.12007813e-08,1.91706250e-01
-4.11607812e-08,1.91687500e-01
-4.11207812e-08,1.91721875e-01
-4.10807812e-08,1.91653125e-01
-4.10407812e-08,1.91900000e-01
-4.10007812e-08,1.92162500e-01
-4.09607812e-08,1.92059375e-01
-4.09207813e-08,1.92132812e-01
-4.08807812e-08,1.92070313e-01
-4.08407812e-08,1.92129688e-01
-4.08007812e-08,1.92067188e-01
-4.07607812e-08,1.92140625e-01
-4.07207812e-08,1.92035938e-01
-4.06807812e-08,1.92317188e-01
-4.06407813e-08,1.92545313e-01
-4.06007812e-08,1.92478125e-01
-4.05607812e-08,1.92512500e-01
-4.05207812e-08,1.92493750e-01
-4.04807812e-08,1.92501563e-01
-4.04407812e-08,1.92503125e-01
-4.04007812e-08,1.92492188e-01
-4.03607813e-08,1.92518750e-01
-4.03207812e-08,1.92456250e-01
-4.02807812e-08,1.92696875e-01
-4.02407812e-08,1.92965625e-01
-4.02007812e-08,1.92857813e-01
-4.01607812e-08,1.92932812e-01
-4.01207812e-08,1.92871875e-01
-4.00807813e-08,1.92925000e-01
-4.00407812e-08,1.92875000e-01
-4.00007812e-08,1.92923438e-01
-3.99607812e-08,1.92876563e-01
-3.99207812e-08,1.92923438e-01
-3.98807812e-08,1.92875000e-01
-3.98407812e-08,1.92926563e-01
-3.98007813e-08,1.92870313e-01
-3.97607812e-08,1.92935938e-01
-3.97207812e-08,1.92854688e-01
-3.96807812e-08,1.92970313e-01
-3.96407812e-08,1.92676563e-01
-3.96007812e-08,1.92462500e-01
-3.95607812e-08,1.92512500e-01
-3.95207813e-08,1.92498438e-01
-3.94807812e-08,1.92495313e-01
-3.94407812e-08,1.92509375e-01
-3.94007812e-08,1.92484375e-01
-3.93607812e-08,1.92521875e-01
-3.93207812e-08,1.92465625e-01
-3.92807813e-08,1.92560938e-01
-3.92407812e-08,1.92284375e-01
-3.92007812e-08,1.92054688e-01
-3.91607812e-08,1.92118750e-01
-3.91207812e-08,1.92092188e-01
-3.90807812e-08,1.92098437e-01
-3.90407812e-08,1.92109375e-01
-3.90007813e-08,1.92078125e-01
-3.89607812e-08,1.92150000e-01
-3.89207812e-08,1.91895312e-01
-3.88807812e-08,1.91643750e-01
-3.88407812e-08,1.91731250e-01
-3.88007812e-08,1.91679688e-01
-3.87607812e-08,1.91712500e-01
-3.87207813e-08,1.91692187e-01
-3.86807812e-08,1.91701563e-01
-3.86407812e-08,1.91704687e-01
-3.86007812e-08,1.91684375e-01
-3.85607812e-08,1.91742187e-01
-3.85207812e-08,1.91504687e-01
