trails/0bdfa5e45fec98341abdd20552c140b4/aes_ch1_20250507121249674.csv

Model,MSO66B
Label,
Waveform Type,ANALOG
Horizontal Units,s
Sample Interval,4.00000000e-11
Record Length,10000
Zero Index,1599.11718750
Vertical Units,A
ANALOG_Thumbnail,
yOffset,1.84500000e-01
yPosition,8.40000000e-01

Labels,
TIME,CH1
-6.39646875e-08,2.03701563e-01
-6.39246875e-08,2.03698437e-01
-6.38846875e-08,2.03701563e-01
-6.38446875e-08,2.03698437e-01
-6.38046875e-08,2.03700000e-01
-6.37646875e-08,2.03700000e-01
-6.37246875e-08,2.03700000e-01
-6.36846875e-08,2.03701563e-01
-6.36446875e-08,2.03698437e-01
-6.36046875e-08,2.03701563e-01
-6.35646875e-08,2.03696875e-01
-6.35246875e-08,2.03704688e-01
-6.34846875e-08,2.03695313e-01
-6.34446875e-08,2.03707813e-01
-6.34046875e-08,2.03689063e-01
-6.33646875e-08,2.03715625e-01
-6.33246875e-08,2.03675000e-01
-6.32846875e-08,2.03750000e-01
-6.32446875e-08,2.03496875e-01
-6.32046875e-08,2.03240625e-01
-6.31646875e-08,2.03335938e-01
-6.31246875e-08,2.03273438e-01
-6.30846875e-08,2.03321875e-01
-6.30446875e-08,2.03281250e-01
-6.30046875e-08,2.03317187e-01
-6.29646875e-08,2.03282813e-01
-6.29246875e-08,2.03315625e-01
-6.28846875e-08,2.03284375e-01
-6.28446875e-08,2.03317187e-01
-6.28046875e-08,2.03282813e-01
-6.27646875e-08,2.03318750e-01
-6.27246875e-08,2.03278125e-01
-6.26846875e-08,2.03326563e-01
-6.26446875e-08,2.03265625e-01
-6.26046875e-08,2.03359375e-01
-6.25646875e-08,2.03087500e-01
-6.25246875e-08,2.02850000e-01
-6.24846875e-08,2.02926563e-01
-6.24446875e-08,2.02881250e-01
-6.24046875e-08,2.02914063e-01
-6.23646875e-08,2.02889062e-01
-6.23246875e-08,2.02909375e-01
-6.22846875e-08,2.02890625e-01
-6.22446875e-08,2.02907813e-01
-6.22046875e-08,2.02892188e-01
-6.21646875e-08,2.02909375e-01
-6.21246875e-08,2.02890625e-01
-6.20846875e-08,2.02910937e-01
-6.20446875e-08,2.02885938e-01
-6.20046875e-08,2.02918750e-01
-6.19646875e-08,2.02871875e-01
-6.19246875e-08,2.02953125e-01
-6.18846875e-08,2.02693750e-01
-6.18446875e-08,2.02443750e-01
-6.18046875e-08,2.02532812e-01
-6.17646875e-08,2.02476563e-01
-6.17246875e-08,2.02518750e-01
-6.16846875e-08,2.02484375e-01
-6.16446875e-08,2.02514063e-01
-6.16046875e-08,2.02487500e-01
-6.15646875e-08,2.02512500e-01
-6.15246875e-08,2.02489063e-01
-6.14846875e-08,2.02510938e-01
-6.14446875e-08,2.02489063e-01
-6.14046875e-08,2.02509375e-01
-6.13646875e-08,2.02490625e-01
-6.13246875e-08,2.02509375e-01
-6.12846875e-08,2.02490625e-01
-6.12446875e-08,2.02509375e-01
-6.12046875e-08,2.02490625e-01
-6.11646875e-08,2.02509375e-01
-6.11246875e-08,2.02490625e-01
-6.10846875e-08,2.02509375e-01
-6.10446875e-08,2.02490625e-01
-6.10046875e-08,2.02509375e-01
-6.09646875e-08,2.02489063e-01
-6.09246875e-08,2.02510938e-01
-6.08846875e-08,2.02489063e-01
-6.08446875e-08,2.02510938e-01
-6.08046875e-08,2.02487500e-01
-6.07646875e-08,2.02512500e-01
-6.07246875e-08,2.02485938e-01
-6.06846875e-08,2.02515625e-01
-6.06446875e-08,2.02482812e-01
-6.06046875e-08,2.02520313e-01
-6.05646875e-08,2.02473438e-01
-6.05246875e-08,2.02535938e-01
-6.04846875e-08,2.02439063e-01
-6.04446875e-08,2.02714063e-01
-6.04046875e-08,2.02948438e-01
-6.03646875e-08,2.02875000e-01
-6.03246875e-08,2.02915625e-01
-6.02846875e-08,2.02890625e-01
-6.02446875e-08,2.02906250e-01
-6.02046875e-08,2.02895313e-01
-6.01646875e-08,2.02903125e-01
-6.01246875e-08,2.02898438e-01
-6.00846875e-08,2.02901563e-01
-6.00446875e-08,2.02900000e-01
-6.00046875e-08,2.02900000e-01
-5.99646875e-08,2.02901563e-01
-5.99246875e-08,2.02898438e-01
-5.98846875e-08,2.02901563e-01
-5.98446875e-08,2.02896875e-01
-5.98046875e-08,2.02903125e-01
-5.97646875e-08,2.02896875e-01
-5.97246875e-08,2.02903125e-01
-5.96846875e-08,2.02895313e-01
-5.96446875e-08,2.02904688e-01
-5.96046875e-08,2.02893750e-01
-5.95646875e-08,2.02906250e-01
-5.95246875e-08,2.02893750e-01
-5.94846875e-08,2.02907813e-01
-5.94446875e-08,2.02890625e-01
-5.94046875e-08,2.02909375e-01
-5.93646875e-08,2.02889062e-01
-5.93246875e-08,2.02914063e-01
-5.92846875e-08,2.02882813e-01
-5.92446875e-08,2.02921875e-01
-5.92046875e-08,2.02868750e-01
-5.91646875e-08,2.02956250e-01
-5.91246875e-08,2.02690625e-01
-5.90846875e-08,2.02448438e-01
-5.90446875e-08,2.02528125e-01
-5.90046875e-08,2.02481250e-01
-5.89646875e-08,2.02514063e-01
-5.89246875e-08,2.02489063e-01
-5.88846875e-08,2.02507812e-01
-5.88446875e-08,2.02493750e-01
-5.88046875e-08,2.02506250e-01
-5.87646875e-08,2.02495312e-01
-5.87246875e-08,2.02503125e-01
-5.86846875e-08,2.02496875e-01
-5.86446875e-08,2.02503125e-01
-5.86046875e-08,2.02498438e-01
-5.85646875e-08,2.02501563e-01
-5.85246875e-08,2.02498438e-01
-5.84846875e-08,2.02500000e-01
-5.84446875e-08,2.02500000e-01
-5.84046875e-08,2.02500000e-01
-5.83646875e-08,2.02500000e-01
-5.83246875e-08,2.02500000e-01
-5.82846875e-08,2.02501563e-01
-5.82446875e-08,2.02498438e-01
-5.82046875e-08,2.02501563e-01
-5.81646875e-08,2.02498438e-01
-5.81246875e-08,2.02501563e-01
-5.80846875e-08,2.02496875e-01
-5.80446875e-08,2.02503125e-01
-5.80046875e-08,2.02496875e-01
-5.79646875e-08,2.02504688e-01
-5.79246875e-08,2.02495312e-01
-5.78846875e-08,2.02504688e-01
-5.78446875e-08,2.02493750e-01
-5.78046875e-08,2.02506250e-01
-5.77646875e-08,2.02492188e-01
-5.77246875e-08,2.02507812e-01
-5.76846875e-08,2.02490625e-01
-5.76446875e-08,2.02510938e-01
-5.76046875e-08,2.02485938e-01
-5.75646875e-08,2.02517188e-01
-5.75246875e-08,2.02478125e-01
-5.74846875e-08,2.02531250e-01
-5.74446875e-08,2.02443750e-01
-5.74046875e-08,2.02710938e-01
-5.73646875e-08,2.02951563e-01
-5.73246875e-08,2.02871875e-01
-5.72846875e-08,2.02917188e-01
-5.72446875e-08,2.02887500e-01
-5.72046875e-08,2.02909375e-01
-5.71646875e-08,2.02893750e-01
-5.71246875e-08,2.02904688e-01
-5.70846875e-08,2.02896875e-01
-5.70446875e-08,2.02900000e-01
-5.70046875e-08,2.02901563e-01
-5.69646875e-08,2.02895313e-01
-5.69246875e-08,2.02907813e-01
-5.68846875e-08,2.02887500e-01
-5.68446875e-08,2.02923437e-01
-5.68046875e-08,2.02851562e-01
-5.67646875e-08,2.03101562e-01
-5.67246875e-08,2.03360938e-01
-5.66846875e-08,2.03262500e-01
-5.66446875e-08,2.03328125e-01
-5.66046875e-08,2.03276563e-01
-5.65646875e-08,2.03320313e-01
-5.65246875e-08,2.03281250e-01
-5.64846875e-08,2.03317187e-01
-5.64446875e-08,2.03282813e-01
-5.64046875e-08,2.03318750e-01
-5.63646875e-08,2.03281250e-01
-5.63246875e-08,2.03321875e-01
-5.62846875e-08,2.03275000e-01
-5.62446875e-08,2.03334375e-01
-5.62046875e-08,2.03240625e-01
-5.61646875e-08,2.03510938e-01
-5.61246875e-08,2.03751563e-01
-5.60846875e-08,2.03671875e-01
-5.60446875e-08,2.03720313e-01
-5.60046875e-08,2.03684375e-01
-5.59646875e-08,2.03712500e-01
-5.59246875e-08,2.03687500e-01
-5.58846875e-08,2.03710938e-01
-5.58446875e-08,2.03689063e-01
-5.58046875e-08,2.03712500e-01
-5.57646875e-08,2.03685937e-01
-5.57246875e-08,2.03717188e-01
-5.56846875e-08,2.03678125e-01
-5.56446875e-08,2.03731250e-01
-5.56046875e-08,2.03645313e-01
-5.55646875e-08,2.03907813e-01
-5.55246875e-08,2.04154688e-01
-5.54846875e-08,2.04070313e-01
-5.54446875e-08,2.04121875e-01
-5.54046875e-08,2.04084375e-01
-5.53646875e-08,2.04114062e-01
-5.53246875e-08,2.04089063e-01
-5.52846875e-08,2.04109375e-01
-5.52446875e-08,2.04090625e-01
-5.52046875e-08,2.04107813e-01
-5.51646875e-08,2.04092188e-01
-5.51246875e-08,2.04107813e-01
-5.50846875e-08,2.04093750e-01
-5.50446875e-08,2.04106250e-01
-5.50046875e-08,2.04093750e-01
-5.49646875e-08,2.04106250e-01
-5.49246875e-08,2.04093750e-01
-5.48846875e-08,2.04106250e-01
-5.48446875e-08,2.04093750e-01
-5.48046875e-08,2.04106250e-01
-5.47646875e-08,2.04093750e-01
-5.47246875e-08,2.04106250e-01
-5.46846875e-08,2.04092188e-01
-5.46446875e-08,2.04107813e-01
-5.46046875e-08,2.04090625e-01
-5.45646875e-08,2.04110938e-01
-5.45246875e-08,2.04085938e-01
-5.44846875e-08,2.04118750e-01
-5.44446875e-08,2.04073438e-01
-5.44046875e-08,2.04151562e-01
-5.43646875e-08,2.03895313e-01
-5.43246875e-08,2.03640625e-01
-5.42846875e-08,2.03735938e-01
-5.42446875e-08,2.03671875e-01
-5.42046875e-08,2.03723437e-01
-5.41646875e-08,2.03676563e-01
-5.41246875e-08,2.03723437e-01
-5.40846875e-08,2.03675000e-01
-5.40446875e-08,2.03729688e-01
-5.40046875e-08,2.03662500e-01
-5.39646875e-08,2.03762500e-01
-5.39246875e-08,2.03484375e-01
-5.38846875e-08,2.03253125e-01
-5.38446875e-08,2.03321875e-01
-5.38046875e-08,2.03287500e-01
-5.37646875e-08,2.03306250e-01
-5.37246875e-08,2.03296875e-01
-5.36846875e-08,2.03300000e-01
-5.36446875e-08,2.03303125e-01
-5.36046875e-08,2.03292187e-01
-5.35646875e-08,2.03314063e-01
-5.35246875e-08,2.03276563e-01
-5.34846875e-08,2.03348438e-01
-5.34446875e-08,2.03096875e-01
-5.34046875e-08,2.02840625e-01
-5.33646875e-08,2.02935937e-01
-5.33246875e-08,2.02875000e-01
-5.32846875e-08,2.02920313e-01
-5.32446875e-08,2.02882813e-01
-5.32046875e-08,2.02915625e-01
-5.31646875e-08,2.02885938e-01
-5.31246875e-08,2.02912500e-01
-5.30846875e-08,2.02889062e-01
-5.30446875e-08,2.02910937e-01
-5.30046875e-08,2.02890625e-01
-5.29646875e-08,2.02909375e-01
-5.29246875e-08,2.02892188e-01
-5.28846875e-08,2.02907813e-01
-5.28446875e-08,2.02892188e-01
-5.28046875e-08,2.02907813e-01
-5.27646875e-08,2.02893750e-01
-5.27246875e-08,2.02906250e-01
-5.26846875e-08,2.02893750e-01
-5.26446875e-08,2.02904688e-01
-5.26046875e-08,2.02895313e-01
-5.25646875e-08,2.02904688e-01
-5.25246875e-08,2.02896875e-01
-5.24846875e-08,2.02901563e-01
-5.24446875e-08,2.02898438e-01
-5.24046875e-08,2.02898438e-01
-5.23646875e-08,2.02904688e-01
-5.23246875e-08,2.02890625e-01
-5.22846875e-08,2.02918750e-01
-5.22446875e-08,2.02857813e-01
-5.22046875e-08,2.03095313e-01
-5.21646875e-08,2.03367188e-01
-5.21246875e-08,2.03256250e-01
-5.20846875e-08,2.03335938e-01
-5.20446875e-08,2.03268750e-01
-5.20046875e-08,2.03329688e-01
-5.19646875e-08,2.03271875e-01
-5.19246875e-08,2.03328125e-01
-5.18846875e-08,2.03270312e-01
-5.18446875e-08,2.03332813e-01
-5.18046875e-08,2.03262500e-01
-5.17646875e-08,2.03346875e-01
-5.17246875e-08,2.03228125e-01
-5.16846875e-08,2.03525000e-01
-5.16446875e-08,2.03737500e-01
-5.16046875e-08,2.03685937e-01
-5.15646875e-08,2.03703125e-01
-5.15246875e-08,2.03701563e-01
-5.14846875e-08,2.03693750e-01
-5.14446875e-08,2.03709375e-01
-5.14046875e-08,2.03685937e-01
-5.13646875e-08,2.03717188e-01
-5.13246875e-08,2.03676563e-01
-5.12846875e-08,2.03734375e-01
-5.12446875e-08,2.03640625e-01
-5.12046875e-08,2.03914062e-01
-5.11646875e-08,2.04148438e-01
-5.11246875e-08,2.04076563e-01
-5.10846875e-08,2.04112500e-01
-5.10446875e-08,2.04092188e-01
-5.10046875e-08,2.04103125e-01
-5.09646875e-08,2.04100000e-01
-5.09246875e-08,2.04098438e-01
-5.08846875e-08,2.04104687e-01
-5.08446875e-08,2.04092188e-01
-5.08046875e-08,2.04110938e-01
-5.07646875e-08,2.04085938e-01
-5.07246875e-08,2.04120313e-01
-5.06846875e-08,2.04068750e-01
-5.06446875e-08,2.04156250e-01
-5.06046875e-08,2.03889062e-01
-5.05646875e-08,2.03650000e-01
-5.05246875e-08,2.03725000e-01
-5.04846875e-08,2.03685937e-01
-5.04446875e-08,2.03707813e-01
-5.04046875e-08,2.03698437e-01
-5.03646875e-08,2.03696875e-01
-5.03246875e-08,2.03710938e-01
-5.02846875e-08,2.03678125e-01
-5.02446875e-08,2.03748438e-01
-5.02046875e-08,2.03495312e-01
-5.01646875e-08,2.03243750e-01
-5.01246875e-08,2.03328125e-01
-5.00846875e-08,2.03285938e-01
-5.00446875e-08,2.03300000e-01
-5.00046875e-08,2.03326563e-01
-4.99646875e-08,2.03118750e-01
-4.99246875e-08,2.02818750e-01
-4.98846875e-08,2.02957813e-01
-4.98446875e-08,2.02850000e-01
-4.98046875e-08,2.02950000e-01
-4.97646875e-08,2.02843750e-01
-4.97246875e-08,2.02978125e-01
-4.96846875e-08,2.02670313e-01
-4.96446875e-08,2.02465625e-01
-4.96046875e-08,2.02512500e-01
-4.95646875e-08,2.02496875e-01
-4.95246875e-08,2.02498438e-01
-4.94846875e-08,2.02503125e-01
-4.94446875e-08,2.02495312e-01
-4.94046875e-08,2.02506250e-01
-4.93646875e-08,2.02493750e-01
-4.93246875e-08,2.02507812e-01
-4.92846875e-08,2.02492188e-01
-4.92446875e-08,2.02509375e-01
-4.92046875e-08,2.02490625e-01
-4.91646875e-08,2.02509375e-01
-4.91246875e-08,2.02489063e-01
-4.90846875e-08,2.02510938e-01
-4.90446875e-08,2.02487500e-01
-4.90046875e-08,2.02514063e-01
-4.89646875e-08,2.02484375e-01
-4.89246875e-08,2.02517188e-01
-4.88846875e-08,2.02481250e-01
-4.88446875e-08,2.02523438e-01
-4.88046875e-08,2.02471875e-01
-4.87646875e-08,2.02539063e-01
-4.87246875e-08,2.02434375e-01
-4.86846875e-08,2.02720312e-01
-4.86446875e-08,2.02940625e-01
-4.86046875e-08,2.02885938e-01
-4.85646875e-08,2.02898438e-01
-4.85246875e-08,2.02915625e-01
-4.84846875e-08,2.02854688e-01
-4.84446875e-08,2.03100000e-01
-4.84046875e-08,2.03359375e-01
-4.83646875e-08,2.03267188e-01
-4.83246875e-08,2.03318750e-01
-4.82846875e-08,2.03295313e-01
-4.82446875e-08,2.03278125e-01
-4.82046875e-08,2.03475000e-01
-4.81646875e-08,2.03789063e-01
-4.81246875e-08,2.03629688e-01
-4.80846875e-08,2.03770312e-01
-4.80446875e-08,2.03609375e-01
-4.80046875e-08,2.03942188e-01
-4.79646875e-08,2.04120313e-01
-4.79246875e-08,2.04104687e-01
-4.78846875e-08,2.04082813e-01
-4.78446875e-08,2.04131250e-01
-4.78046875e-08,2.04040625e-01
-4.77646875e-08,2.04314063e-01
-4.77246875e-08,2.04546875e-01
-4.76846875e-08,2.04479688e-01
-4.76446875e-08,2.04509375e-01
-4.76046875e-08,2.04498438e-01
-4.75646875e-08,2.04493750e-01
-4.75246875e-08,2.04518750e-01
-4.74846875e-08,2.04454688e-01
-4.74446875e-08,2.04698437e-01
-4.74046875e-08,2.04962500e-01
-4.73646875e-08,2.04862500e-01
-4.73246875e-08,2.04928125e-01
-4.72846875e-08,2.04876562e-01
-4.72446875e-08,2.04920313e-01
-4.72046875e-08,2.04881250e-01
-4.71646875e-08,2.04917188e-01
-4.71246875e-08,2.04884375e-01
-4.70846875e-08,2.04915625e-01
-4.70446875e-08,2.04884375e-01
-4.70046875e-08,2.04915625e-01
-4.69646875e-08,2.04882813e-01
-4.69246875e-08,2.04917188e-01
-4.68846875e-08,2.04879688e-01
-4.68446875e-08,2.04925000e-01
-4.68046875e-08,2.04865625e-01
-4.67646875e-08,2.04957813e-01
-4.67246875e-08,2.04689063e-01
-4.66846875e-08,2.04446875e-01
-4.66446875e-08,2.04529688e-01
-4.66046875e-08,2.04478125e-01
-4.65646875e-08,2.04518750e-01
-4.65246875e-08,2.04481250e-01
-4.64846875e-08,2.04521875e-01
-4.64446875e-08,2.04470313e-01
-4.64046875e-08,2.04553125e-01
-4.63646875e-08,2.04295312e-01
-4.63246875e-08,2.04040625e-01
-4.62846875e-08,2.04137500e-01
-4.62446875e-08,2.04070313e-01
-4.62046875e-08,2.04126562e-01
-4.61646875e-08,2.04073438e-01
-4.61246875e-08,2.04129688e-01
-4.60846875e-08,2.04060938e-01
-4.60446875e-08,2.04162500e-01
-4.60046875e-08,2.03884375e-01
-4.59646875e-08,2.03651562e-01
-4.59246875e-08,2.03725000e-01
-4.58846875e-08,2.03684375e-01
-4.58446875e-08,2.03710938e-01
-4.58046875e-08,2.03692188e-01
-4.57646875e-08,2.03706250e-01
-4.57246875e-08,2.03695313e-01
-4.56846875e-08,2.03704688e-01
-4.56446875e-08,2.03696875e-01
-4.56046875e-08,2.03703125e-01
-4.55646875e-08,2.03698437e-01
-4.55246875e-08,2.03701563e-01
-4.54846875e-08,2.03698437e-01
-4.54446875e-08,2.03701563e-01
-4.54046875e-08,2.03698437e-01
-4.53646875e-08,2.03701563e-01
-4.53246875e-08,2.03700000e-01
-4.52846875e-08,2.03700000e-01
-4.52446875e-08,2.03700000e-01
-4.52046875e-08,2.03700000e-01
-4.51646875e-08,2.03700000e-01
-4.51246875e-08,2.03700000e-01
-4.50846875e-08,2.03700000e-01
-4.50446875e-08,2.03700000e-01
-4.50046875e-08,2.03700000e-01
-4.49646875e-08,2.03700000e-01
-4.49246875e-08,2.03700000e-01
-4.48846875e-08,2.03700000e-01
-4.48446875e-08,2.03700000e-01
-4.48046875e-08,2.03700000e-01
-4.47646875e-08,2.03700000e-01
-4.47246875e-08,2.03700000e-01
-4.46846875e-08,2.03700000e-01
-4.46446875e-08,2.03700000e-01
-4.46046875e-08,2.03700000e-01
-4.45646875e-08,2.03700000e-01
-4.45246875e-08,2.03700000e-01
-4.44846875e-08,2.03700000e-01
-4.44446875e-08,2.03700000e-01
-4.44046875e-08,2.03700000e-01
-4.43646875e-08,2.03700000e-01
-4.43246875e-08,2.03700000e-01
-4.42846875e-08,2.03700000e-01
-4.42446875e-08,2.03700000e-01
-4.42046875e-08,2.03700000e-01
-4.41646875e-08,2.03700000e-01
-4.41246875e-08,2.03700000e-01
-4.40846875e-08,2.03700000e-01
-4.40446875e-08,2.03700000e-01
-4.40046875e-08,2.03700000e-01
-4.39646875e-08,2.03700000e-01
-4.39246875e-08,2.03700000e-01
-4.38846875e-08,2.03700000e-01
-4.38446875e-08,2.03700000e-01
-4.38046875e-08,2.03700000e-01
-4.37646875e-08,2.03700000e-01
-4.37246875e-08,2.03700000e-01
-4.36846875e-08,2.03700000e-01
-4.36446875e-08,2.03700000e-01
-4.36046875e-08,2.03700000e-01
-4.35646875e-08,2.03700000e-01
-4.35246875e-08,2.03700000e-01
-4.34846875e-08,2.03698437e-01
-4.34446875e-08,2.03701563e-01
-4.34046875e-08,2.03698437e-01
-4.33646875e-08,2.03701563e-01
-4.33246875e-08,2.03696875e-01
-4.32846875e-08,2.03703125e-01
-4.32446875e-08,2.03695313e-01
-4.32046875e-08,2.03704688e-01
-4.31646875e-08,2.03692188e-01
-4.31246875e-08,2.03709375e-01
-4.30846875e-08,2.03685937e-01
-4.30446875e-08,2.03723437e-01
-4.30046875e-08,2.03651562e-01
-4.29646875e-08,2.03901563e-01
-4.29246875e-08,2.04160938e-01
-4.28846875e-08,2.04060938e-01
-4.28446875e-08,2.04129688e-01
-4.28046875e-08,2.04073438e-01
-4.27646875e-08,2.04125000e-01
-4.27246875e-08,2.04075000e-01
-4.26846875e-08,2.04126562e-01
-4.26446875e-08,2.04070313e-01
-4.26046875e-08,2.04139062e-01
-4.25646875e-08,2.04037500e-01
-4.25246875e-08,2.04315625e-01
-4.24846875e-08,2.04548438e-01
-4.24446875e-08,2.04475000e-01
-4.24046875e-08,2.04515625e-01
-4.23646875e-08,2.04489063e-01
-4.23246875e-08,2.04509375e-01
-4.22846875e-08,2.04492188e-01
-4.22446875e-08,2.04506250e-01
-4.22046875e-08,2.04493750e-01
-4.21646875e-08,2.04507812e-01
-4.21246875e-08,2.04490625e-01
-4.20846875e-08,2.04510938e-01
-4.20446875e-08,2.04484375e-01
-4.20046875e-08,2.04525000e-01
-4.19646875e-08,2.04451563e-01
-4.19246875e-08,2.04701563e-01
-4.18846875e-08,2.04962500e-01
-4.18446875e-08,2.04860938e-01
-4.18046875e-08,2.04931250e-01
-4.17646875e-08,2.04873438e-01
-4.17246875e-08,2.04925000e-01
-4.16846875e-08,2.04875000e-01
-4.16446875e-08,2.04926563e-01
-4.16046875e-08,2.04871875e-01
-4.15646875e-08,2.04932813e-01
-4.15246875e-08,2.04857813e-01
-4.14846875e-08,2.04967188e-01
-4.14446875e-08,2.04679688e-01
-4.14046875e-08,2.04457813e-01
-4.13646875e-08,2.04518750e-01
-4.13246875e-08,2.04490625e-01
-4.12846875e-08,2.04504688e-01
-4.12446875e-08,2.04500000e-01
-4.12046875e-08,2.04498438e-01
-4.11646875e-08,2.04504688e-01
-4.11246875e-08,2.04493750e-01
-4.10846875e-08,2.04507812e-01
-4.10446875e-08,2.04489063e-01
-4.10046875e-08,2.04514063e-01
-4.09646875e-08,2.04482812e-01
-4.09246875e-08,2.04523438e-01
-4.08846875e-08,2.04467188e-01
-4.08446875e-08,2.04557813e-01
-4.08046875e-08,2.04287500e-01
-4.07646875e-08,2.04050000e-01
-4.07246875e-08,2.04125000e-01
-4.06846875e-08,2.04085938e-01
-4.06446875e-08,2.04107813e-01
-4.06046875e-08,2.04095313e-01
-4.05646875e-08,2.04100000e-01
-4.05246875e-08,2.04103125e-01
-4.04846875e-08,2.04092188e-01
-4.04446875e-08,2.04114062e-01
-4.04046875e-08,2.04075000e-01
-4.03646875e-08,2.04150000e-01
-4.03246875e-08,2.03895313e-01
-4.02846875e-08,2.03643750e-01
-4.02446875e-08,2.03732812e-01
-4.02046875e-08,2.03678125e-01
-4.01646875e-08,2.03715625e-01
-4.01246875e-08,2.03689063e-01
-4.00846875e-08,2.03704688e-01
-4.00446875e-08,2.03701563e-01
-4.00046875e-08,2.03689063e-01
-3.99646875e-08,2.03735938e-01
-3.99246875e-08,2.03510938e-01
-3.98846875e-08,2.03226563e-01
-3.98446875e-08,2.03350000e-01
-3.98046875e-08,2.03257812e-01
-3.97646875e-08,2.03339063e-01
-3.97246875e-08,2.03260938e-01
-3.96846875e-08,2.03342187e-01
-3.96446875e-08,2.03250000e-01
-3.96046875e-08,2.03373438e-01
-3.95646875e-08,2.03073438e-01
-3.95246875e-08,2.02864062e-01
-3.94846875e-08,2.02912500e-01
-3.94446875e-08,2.02896875e-01
-3.94046875e-08,2.02896875e-01
-3.93646875e-08,2.02907813e-01
-3.93246875e-08,2.02887500e-01
-3.92846875e-08,2.02918750e-01
-3.92446875e-08,2.02870313e-01
-3.92046875e-08,2.02954688e-01
-3.91646875e-08,2.02692188e-01
-3.91246875e-08,2.02446875e-01
-3.90846875e-08,2.02529687e-01
-3.90446875e-08,2.02479688e-01
-3.90046875e-08,2.02515625e-01
-3.89646875e-08,2.02489063e-01
-3.89246875e-08,2.02509375e-01
-3.88846875e-08,2.02492188e-01
-3.88446875e-08,2.02506250e-01
-3.88046875e-08,2.02495312e-01
-3.87646875e-08,2.02504688e-01
-3.87246875e-08,2.02496875e-01
-3.86846875e-08,2.02503125e-01
-3.86446875e-08,2.02498438e-01
-3.86046875e-08,2.02501563e-01
-3.85646875e-08,2.02500000e-01
-3.85246875e-08,2.02498438e-01
