trails/0bdfa5e45fec98341abdd20552c140b4/aes_ch1_20250507115009006.csv

Model,MSO66B
Label,
Waveform Type,ANALOG
Horizontal Units,s
Sample Interval,4.00000000e-11
Record Length,10000
Zero Index,1599.05468750
Vertical Units,A
ANALOG_Thumbnail,
yOffset,1.84500000e-01
yPosition,8.40000000e-01

Labels,
TIME,CH1
-6.39621875e-08,1.93698438e-01
-6.39221875e-08,1.93701563e-01
-6.38821875e-08,1.93698438e-01
-6.38421875e-08,1.93701563e-01
-6.38021875e-08,1.93698438e-01
-6.37621875e-08,1.93701563e-01
-6.37221875e-08,1.93698438e-01
-6.36821875e-08,1.93701563e-01
-6.36421875e-08,1.93698438e-01
-6.36021875e-08,1.93701563e-01
-6.35621875e-08,1.93698438e-01
-6.35221875e-08,1.93701563e-01
-6.34821875e-08,1.93698438e-01
-6.34421875e-08,1.93701563e-01
-6.34021875e-08,1.93698438e-01
-6.33621875e-08,1.93701563e-01
-6.33221875e-08,1.93698438e-01
-6.32821875e-08,1.93701563e-01
-6.32421875e-08,1.93698438e-01
-6.32021875e-08,1.93701563e-01
-6.31621875e-08,1.93698438e-01
-6.31221875e-08,1.93701563e-01
-6.30821875e-08,1.93698438e-01
-6.30421875e-08,1.93701563e-01
-6.30021875e-08,1.93698438e-01
-6.29621875e-08,1.93701563e-01
-6.29221875e-08,1.93698438e-01
-6.28821875e-08,1.93701563e-01
-6.28421875e-08,1.93698438e-01
-6.28021875e-08,1.93701563e-01
-6.27621875e-08,1.93698438e-01
-6.27221875e-08,1.93701563e-01
-6.26821875e-08,1.93698438e-01
-6.26421875e-08,1.93701563e-01
-6.26021875e-08,1.93698438e-01
-6.25621875e-08,1.93701563e-01
-6.25221875e-08,1.93698438e-01
-6.24821875e-08,1.93701563e-01
-6.24421875e-08,1.93698438e-01
-6.24021875e-08,1.93701563e-01
-6.23621875e-08,1.93698438e-01
-6.23221875e-08,1.93701563e-01
-6.22821875e-08,1.93698438e-01
-6.22421875e-08,1.93701563e-01
-6.22021875e-08,1.93698438e-01
-6.21621875e-08,1.93701563e-01
-6.21221875e-08,1.93698438e-01
-6.20821875e-08,1.93701563e-01
-6.20421875e-08,1.93698438e-01
-6.20021875e-08,1.93701563e-01
-6.19621875e-08,1.93698438e-01
-6.19221875e-08,1.93701563e-01
-6.18821875e-08,1.93698438e-01
-6.18421875e-08,1.93700000e-01
-6.18021875e-08,1.93700000e-01
-6.17621875e-08,1.93700000e-01
-6.17221875e-08,1.93700000e-01
-6.16821875e-08,1.93700000e-01
-6.16421875e-08,1.93700000e-01
-6.16021875e-08,1.93700000e-01
-6.15621875e-08,1.93700000e-01
-6.15221875e-08,1.93698438e-01
-6.14821875e-08,1.93701563e-01
-6.14421875e-08,1.93698438e-01
-6.14021875e-08,1.93703125e-01
-6.13621875e-08,1.93696875e-01
-6.13221875e-08,1.93704688e-01
-6.12821875e-08,1.93693750e-01
-6.12421875e-08,1.93709375e-01
-6.12021875e-08,1.93685938e-01
-6.11621875e-08,1.93723438e-01
-6.11221875e-08,1.93651563e-01
-6.10821875e-08,1.93901563e-01
-6.10421875e-08,1.94162500e-01
-6.10021875e-08,1.94060938e-01
-6.09621875e-08,1.94129688e-01
-6.09221875e-08,1.94075000e-01
-6.08821875e-08,1.94123437e-01
-6.08421875e-08,1.94078125e-01
-6.08021875e-08,1.94121875e-01
-6.07621875e-08,1.94076562e-01
-6.07221875e-08,1.94126563e-01
-6.06821875e-08,1.94070313e-01
-6.06421875e-08,1.94139063e-01
-6.06021875e-08,1.94035938e-01
-6.05621875e-08,1.94317188e-01
-6.05221875e-08,1.94545313e-01
-6.04821875e-08,1.94478125e-01
-6.04421875e-08,1.94512500e-01
-6.04021875e-08,1.94492187e-01
-6.03621875e-08,1.94504687e-01
-6.03221875e-08,1.94496875e-01
-6.02821875e-08,1.94501563e-01
-6.02421875e-08,1.94498438e-01
-6.02021875e-08,1.94500000e-01
-6.01621875e-08,1.94500000e-01
-6.01221875e-08,1.94498438e-01
-6.00821875e-08,1.94501563e-01
-6.00421875e-08,1.94498438e-01
-6.00021875e-08,1.94501563e-01
-5.99621875e-08,1.94496875e-01
-5.99221875e-08,1.94503125e-01
-5.98821875e-08,1.94496875e-01
-5.98421875e-08,1.94503125e-01
-5.98021875e-08,1.94496875e-01
-5.97621875e-08,1.94503125e-01
-5.97221875e-08,1.94495313e-01
-5.96821875e-08,1.94504687e-01
-5.96421875e-08,1.94495313e-01
-5.96021875e-08,1.94504687e-01
-5.95621875e-08,1.94495313e-01
-5.95221875e-08,1.94504687e-01
-5.94821875e-08,1.94495313e-01
-5.94421875e-08,1.94506250e-01
-5.94021875e-08,1.94493750e-01
-5.93621875e-08,1.94506250e-01
-5.93221875e-08,1.94493750e-01
-5.92821875e-08,1.94506250e-01
-5.92421875e-08,1.94493750e-01
-5.92021875e-08,1.94506250e-01
-5.91621875e-08,1.94492187e-01
-5.91221875e-08,1.94507813e-01
-5.90821875e-08,1.94492187e-01
-5.90421875e-08,1.94507813e-01
-5.90021875e-08,1.94490625e-01
-5.89621875e-08,1.94509375e-01
-5.89221875e-08,1.94490625e-01
-5.88821875e-08,1.94510938e-01
-5.88421875e-08,1.94489063e-01
-5.88021875e-08,1.94512500e-01
-5.87621875e-08,1.94487500e-01
-5.87221875e-08,1.94514063e-01
-5.86821875e-08,1.94484375e-01
-5.86421875e-08,1.94517188e-01
-5.86021875e-08,1.94479687e-01
-5.85621875e-08,1.94523438e-01
-5.85221875e-08,1.94470313e-01
-5.84821875e-08,1.94539062e-01
-5.84421875e-08,1.94435938e-01
-5.84021875e-08,1.94718750e-01
-5.83621875e-08,1.94942188e-01
-5.83221875e-08,1.94882813e-01
-5.82821875e-08,1.94907812e-01
-5.82421875e-08,1.94900000e-01
-5.82021875e-08,1.94895313e-01
-5.81621875e-08,1.94910937e-01
-5.81221875e-08,1.94882813e-01
-5.80821875e-08,1.94928125e-01
-5.80421875e-08,1.94845313e-01
-5.80021875e-08,1.95109375e-01
-5.79621875e-08,1.95351563e-01
-5.79221875e-08,1.95275000e-01
-5.78821875e-08,1.95314062e-01
-5.78421875e-08,1.95295313e-01
-5.78021875e-08,1.95296875e-01
-5.77621875e-08,1.95314062e-01
-5.77221875e-08,1.95259375e-01
-5.76821875e-08,1.95493750e-01
-5.76421875e-08,1.95767187e-01
-5.76021875e-08,1.95656250e-01
-5.75621875e-08,1.95734375e-01
-5.75221875e-08,1.95668750e-01
-5.74821875e-08,1.95729687e-01
-5.74421875e-08,1.95667188e-01
-5.74021875e-08,1.95740625e-01
-5.73621875e-08,1.95637500e-01
-5.73221875e-08,1.95914063e-01
-5.72821875e-08,1.96148437e-01
-5.72421875e-08,1.96073438e-01
-5.72021875e-08,1.96118750e-01
-5.71621875e-08,1.96084375e-01
-5.71221875e-08,1.96114063e-01
-5.70821875e-08,1.96087500e-01
-5.70421875e-08,1.96114063e-01
-5.70021875e-08,1.96084375e-01
-5.69621875e-08,1.96117188e-01
-5.69221875e-08,1.96078125e-01
-5.68821875e-08,1.96131250e-01
-5.68421875e-08,1.96043750e-01
-5.68021875e-08,1.96309375e-01
-5.67621875e-08,1.96553125e-01
-5.67221875e-08,1.96471875e-01
-5.66821875e-08,1.96518750e-01
-5.66421875e-08,1.96485938e-01
-5.66021875e-08,1.96510938e-01
-5.65621875e-08,1.96490625e-01
-5.65221875e-08,1.96507813e-01
-5.64821875e-08,1.96493750e-01
-5.64421875e-08,1.96504687e-01
-5.64021875e-08,1.96496875e-01
-5.63621875e-08,1.96503125e-01
-5.63221875e-08,1.96498438e-01
-5.62821875e-08,1.96501563e-01
-5.62421875e-08,1.96500000e-01
-5.62021875e-08,1.96500000e-01
-5.61621875e-08,1.96501563e-01
-5.61221875e-08,1.96498438e-01
-5.60821875e-08,1.96503125e-01
-5.60421875e-08,1.96495313e-01
-5.60021875e-08,1.96504687e-01
-5.59621875e-08,1.96492187e-01
-5.59221875e-08,1.96509375e-01
-5.58821875e-08,1.96487500e-01
-5.58421875e-08,1.96517187e-01
-5.58021875e-08,1.96471875e-01
-5.57621875e-08,1.96553125e-01
-5.57221875e-08,1.96293750e-01
-5.56821875e-08,1.96043750e-01
-5.56421875e-08,1.96131250e-01
-5.56021875e-08,1.96078125e-01
-5.55621875e-08,1.96117188e-01
-5.55221875e-08,1.96085938e-01
-5.54821875e-08,1.96110937e-01
-5.54421875e-08,1.96090625e-01
-5.54021875e-08,1.96107813e-01
-5.53621875e-08,1.96092188e-01
-5.53221875e-08,1.96106250e-01
-5.52821875e-08,1.96095313e-01
-5.52421875e-08,1.96104688e-01
-5.52021875e-08,1.96096875e-01
-5.51621875e-08,1.96103125e-01
-5.51221875e-08,1.96098438e-01
-5.50821875e-08,1.96101562e-01
-5.50421875e-08,1.96100000e-01
-5.50021875e-08,1.96098438e-01
-5.49621875e-08,1.96104688e-01
-5.49221875e-08,1.96092188e-01
-5.48821875e-08,1.96112500e-01
-5.48421875e-08,1.96078125e-01
-5.48021875e-08,1.96146875e-01
-5.47621875e-08,1.95900000e-01
-5.47221875e-08,1.95637500e-01
-5.46821875e-08,1.95739063e-01
-5.46421875e-08,1.95670312e-01
-5.46021875e-08,1.95725000e-01
-5.45621875e-08,1.95678125e-01
-5.45221875e-08,1.95721875e-01
-5.44821875e-08,1.95679688e-01
-5.44421875e-08,1.95720312e-01
-5.44021875e-08,1.95678125e-01
-5.43621875e-08,1.95721875e-01
-5.43221875e-08,1.95675000e-01
-5.42821875e-08,1.95729687e-01
-5.42421875e-08,1.95660938e-01
-5.42021875e-08,1.95764063e-01
-5.41621875e-08,1.95482813e-01
-5.41221875e-08,1.95254687e-01
-5.40821875e-08,1.95320313e-01
-5.40421875e-08,1.95289062e-01
-5.40021875e-08,1.95304688e-01
-5.39621875e-08,1.95298438e-01
-5.39221875e-08,1.95296875e-01
-5.38821875e-08,1.95309375e-01
-5.38421875e-08,1.95281250e-01
-5.38021875e-08,1.95343750e-01
-5.37621875e-08,1.95103125e-01
-5.37221875e-08,1.94834375e-01
-5.36821875e-08,1.94943750e-01
-5.36421875e-08,1.94865625e-01
-5.36021875e-08,1.94932812e-01
-5.35621875e-08,1.94867188e-01
-5.35221875e-08,1.94935938e-01
-5.34821875e-08,1.94856250e-01
-5.34421875e-08,1.94968750e-01
-5.34021875e-08,1.94679688e-01
-5.33621875e-08,1.94459375e-01
-5.33221875e-08,1.94517188e-01
-5.32821875e-08,1.94492187e-01
-5.32421875e-08,1.94501563e-01
-5.32021875e-08,1.94503125e-01
-5.31621875e-08,1.94492187e-01
-5.31221875e-08,1.94514063e-01
-5.30821875e-08,1.94475000e-01
-5.30421875e-08,1.94550000e-01
-5.30021875e-08,1.94295313e-01
-5.29621875e-08,1.94042188e-01
-5.29221875e-08,1.94132813e-01
-5.28821875e-08,1.94076562e-01
-5.28421875e-08,1.94118750e-01
-5.28021875e-08,1.94084375e-01
-5.27621875e-08,1.94112500e-01
-5.27221875e-08,1.94089063e-01
-5.26821875e-08,1.94109375e-01
-5.26421875e-08,1.94090625e-01
-5.26021875e-08,1.94107813e-01
-5.25621875e-08,1.94092188e-01
-5.25221875e-08,1.94107813e-01
-5.24821875e-08,1.94093750e-01
-5.24421875e-08,1.94106250e-01
-5.24021875e-08,1.94093750e-01
-5.23621875e-08,1.94104688e-01
-5.23221875e-08,1.94095313e-01
-5.22821875e-08,1.94104688e-01
-5.22421875e-08,1.94095313e-01
-5.22021875e-08,1.94104688e-01
-5.21621875e-08,1.94095313e-01
-5.21221875e-08,1.94104688e-01
-5.20821875e-08,1.94096875e-01
-5.20421875e-08,1.94103125e-01
-5.20021875e-08,1.94096875e-01
-5.19621875e-08,1.94103125e-01
-5.19221875e-08,1.94096875e-01
-5.18821875e-08,1.94103125e-01
-5.18421875e-08,1.94096875e-01
-5.18021875e-08,1.94103125e-01
-5.17621875e-08,1.94096875e-01
-5.17221875e-08,1.94103125e-01
-5.16821875e-08,1.94096875e-01
-5.16421875e-08,1.94101563e-01
-5.16021875e-08,1.94098437e-01
-5.15621875e-08,1.94101563e-01
-5.15221875e-08,1.94098437e-01
-5.14821875e-08,1.94101563e-01
-5.14421875e-08,1.94098437e-01
-5.14021875e-08,1.94101563e-01
-5.13621875e-08,1.94098437e-01
-5.13221875e-08,1.94101563e-01
-5.12821875e-08,1.94098437e-01
-5.12421875e-08,1.94101563e-01
-5.12021875e-08,1.94098437e-01
-5.11621875e-08,1.94100000e-01
-5.11221875e-08,1.94100000e-01
-5.10821875e-08,1.94100000e-01
-5.10421875e-08,1.94100000e-01
-5.10021875e-08,1.94100000e-01
-5.09621875e-08,1.94100000e-01
-5.09221875e-08,1.94100000e-01
-5.08821875e-08,1.94100000e-01
-5.08421875e-08,1.94098437e-01
-5.08021875e-08,1.94101563e-01
-5.07621875e-08,1.94098437e-01
-5.07221875e-08,1.94101563e-01
-5.06821875e-08,1.94098437e-01
-5.06421875e-08,1.94103125e-01
-5.06021875e-08,1.94096875e-01
-5.05621875e-08,1.94103125e-01
-5.05221875e-08,1.94095313e-01
-5.04821875e-08,1.94104688e-01
-5.04421875e-08,1.94093750e-01
-5.04021875e-08,1.94107813e-01
-5.03621875e-08,1.94090625e-01
-5.03221875e-08,1.94112500e-01
-5.02821875e-08,1.94081250e-01
-5.02421875e-08,1.94128125e-01
-5.02021875e-08,1.94046875e-01
-5.01621875e-08,1.94306250e-01
-5.01221875e-08,1.94556250e-01
-5.00821875e-08,1.94467187e-01
-5.00421875e-08,1.94523438e-01
-5.00021875e-08,1.94482813e-01
-4.99621875e-08,1.94514063e-01
-4.99221875e-08,1.94487500e-01
-4.98821875e-08,1.94510938e-01
-4.98421875e-08,1.94490625e-01
-4.98021875e-08,1.94509375e-01
-4.97621875e-08,1.94492187e-01
-4.97221875e-08,1.94507813e-01
-4.96821875e-08,1.94492187e-01
-4.96421875e-08,1.94506250e-01
-4.96021875e-08,1.94493750e-01
-4.95621875e-08,1.94506250e-01
-4.95221875e-08,1.94493750e-01
-4.94821875e-08,1.94504687e-01
-4.94421875e-08,1.94495313e-01
-4.94021875e-08,1.94504687e-01
-4.93621875e-08,1.94495313e-01
-4.93221875e-08,1.94504687e-01
-4.92821875e-08,1.94495313e-01
-4.92421875e-08,1.94503125e-01
-4.92021875e-08,1.94496875e-01
-4.91621875e-08,1.94503125e-01
-4.91221875e-08,1.94496875e-01
-4.90821875e-08,1.94503125e-01
-4.90421875e-08,1.94498438e-01
-4.90021875e-08,1.94501563e-01
-4.89621875e-08,1.94498438e-01
-4.89221875e-08,1.94500000e-01
-4.88821875e-08,1.94500000e-01
-4.88421875e-08,1.94498438e-01
-4.88021875e-08,1.94503125e-01
-4.87621875e-08,1.94495313e-01
-4.87221875e-08,1.94507813e-01
-4.86821875e-08,1.94487500e-01
-4.86421875e-08,1.94521875e-01
-4.86021875e-08,1.94453125e-01
-4.85621875e-08,1.94700000e-01
-4.85221875e-08,1.94964063e-01
-4.84821875e-08,1.94860937e-01
-4.84421875e-08,1.94931250e-01
-4.84021875e-08,1.94873437e-01
-4.83621875e-08,1.94923438e-01
-4.83221875e-08,1.94876563e-01
-4.82821875e-08,1.94921875e-01
-4.82421875e-08,1.94878125e-01
-4.82021875e-08,1.94923438e-01
-4.81621875e-08,1.94875000e-01
-4.81221875e-08,1.94926563e-01
-4.80821875e-08,1.94868750e-01
-4.80421875e-08,1.94940625e-01
-4.80021875e-08,1.94834375e-01
-4.79621875e-08,1.95118750e-01
-4.79221875e-08,1.95343750e-01
-4.78821875e-08,1.95279688e-01
-4.78421875e-08,1.95309375e-01
-4.78021875e-08,1.95295313e-01
-4.77621875e-08,1.95301562e-01
-4.77221875e-08,1.95301562e-01
-4.76821875e-08,1.95296875e-01
-4.76421875e-08,1.95304688e-01
-4.76021875e-08,1.95293750e-01
-4.75621875e-08,1.95309375e-01
-4.75221875e-08,1.95289062e-01
-4.74821875e-08,1.95314062e-01
-4.74421875e-08,1.95279688e-01
-4.74021875e-08,1.95329688e-01
-4.73621875e-08,1.95245313e-01
-4.73221875e-08,1.95507813e-01
-4.72821875e-08,1.95753125e-01
-4.72421875e-08,1.95670312e-01
-4.72021875e-08,1.95720312e-01
-4.71621875e-08,1.95684375e-01
-4.71221875e-08,1.95712500e-01
-4.70821875e-08,1.95690625e-01
-4.70421875e-08,1.95707813e-01
-4.70021875e-08,1.95692188e-01
-4.69621875e-08,1.95706250e-01
-4.69221875e-08,1.95693750e-01
-4.68821875e-08,1.95704688e-01
-4.68421875e-08,1.95695312e-01
-4.68021875e-08,1.95704688e-01
-4.67621875e-08,1.95696875e-01
-4.67221875e-08,1.95703125e-01
-4.66821875e-08,1.95696875e-01
-4.66421875e-08,1.95703125e-01
-4.66021875e-08,1.95696875e-01
-4.65621875e-08,1.95703125e-01
-4.65221875e-08,1.95698438e-01
-4.64821875e-08,1.95701563e-01
-4.64421875e-08,1.95698438e-01
-4.64021875e-08,1.95701563e-01
-4.63621875e-08,1.95698438e-01
-4.63221875e-08,1.95701563e-01
-4.62821875e-08,1.95698438e-01
-4.62421875e-08,1.95701563e-01
-4.62021875e-08,1.95698438e-01
-4.61621875e-08,1.95701563e-01
-4.61221875e-08,1.95698438e-01
-4.60821875e-08,1.95701563e-01
-4.60421875e-08,1.95698438e-01
-4.60021875e-08,1.95701563e-01
-4.59621875e-08,1.95698438e-01
-4.59221875e-08,1.95701563e-01
-4.58821875e-08,1.95700000e-01
-4.58421875e-08,1.95700000e-01
-4.58021875e-08,1.95700000e-01
-4.57621875e-08,1.95700000e-01
-4.57221875e-08,1.95700000e-01
-4.56821875e-08,1.95700000e-01
-4.56421875e-08,1.95700000e-01
-4.56021875e-08,1.95700000e-01
-4.55621875e-08,1.95700000e-01
-4.55221875e-08,1.95700000e-01
-4.54821875e-08,1.95700000e-01
-4.54421875e-08,1.95700000e-01
-4.54021875e-08,1.95700000e-01
-4.53621875e-08,1.95700000e-01
-4.53221875e-08,1.95700000e-01
-4.52821875e-08,1.95700000e-01
-4.52421875e-08,1.95700000e-01
-4.52021875e-08,1.95700000e-01
-4.51621875e-08,1.95700000e-01
-4.51221875e-08,1.95700000e-01
-4.50821875e-08,1.95700000e-01
-4.50421875e-08,1.95700000e-01
-4.50021875e-08,1.95700000e-01
-4.49621875e-08,1.95700000e-01
-4.49221875e-08,1.95700000e-01
-4.48821875e-08,1.95700000e-01
-4.48421875e-08,1.95700000e-01
-4.48021875e-08,1.95700000e-01
-4.47621875e-08,1.95700000e-01
-4.47221875e-08,1.95700000e-01
-4.46821875e-08,1.95700000e-01
-4.46421875e-08,1.95700000e-01
-4.46021875e-08,1.95700000e-01
-4.45621875e-08,1.95700000e-01
-4.45221875e-08,1.95700000e-01
-4.44821875e-08,1.95700000e-01
-4.44421875e-08,1.95700000e-01
-4.44021875e-08,1.95700000e-01
-4.43621875e-08,1.95700000e-01
-4.43221875e-08,1.95700000e-01
-4.42821875e-08,1.95700000e-01
-4.42421875e-08,1.95700000e-01
-4.42021875e-08,1.95700000e-01
-4.41621875e-08,1.95700000e-01
-4.41221875e-08,1.95700000e-01
-4.40821875e-08,1.95700000e-01
-4.40421875e-08,1.95700000e-01
-4.40021875e-08,1.95700000e-01
-4.39621875e-08,1.95700000e-01
-4.39221875e-08,1.95700000e-01
-4.38821875e-08,1.95700000e-01
-4.38421875e-08,1.95698438e-01
-4.38021875e-08,1.95701563e-01
-4.37621875e-08,1.95698438e-01
-4.37221875e-08,1.95701563e-01
-4.36821875e-08,1.95698438e-01
-4.36421875e-08,1.95701563e-01
-4.36021875e-08,1.95698438e-01
-4.35621875e-08,1.95701563e-01
-4.35221875e-08,1.95698438e-01
-4.34821875e-08,1.95701563e-01
-4.34421875e-08,1.95698438e-01
-4.34021875e-08,1.95701563e-01
-4.33621875e-08,1.95698438e-01
-4.33221875e-08,1.95701563e-01
-4.32821875e-08,1.95698438e-01
-4.32421875e-08,1.95701563e-01
-4.32021875e-08,1.95698438e-01
-4.31621875e-08,1.95701563e-01
-4.31221875e-08,1.95698438e-01
-4.30821875e-08,1.95703125e-01
-4.30421875e-08,1.95696875e-01
-4.30021875e-08,1.95703125e-01
-4.29621875e-08,1.95696875e-01
-4.29221875e-08,1.95703125e-01
-4.28821875e-08,1.95696875e-01
-4.28421875e-08,1.95703125e-01
-4.28021875e-08,1.95695312e-01
-4.27621875e-08,1.95704688e-01
-4.27221875e-08,1.95695312e-01
-4.26821875e-08,1.95706250e-01
-4.26421875e-08,1.95693750e-01
-4.26021875e-08,1.95707813e-01
-4.25621875e-08,1.95690625e-01
-4.25221875e-08,1.95710938e-01
-4.24821875e-08,1.95685938e-01
-4.24421875e-08,1.95718750e-01
-4.24021875e-08,1.95671875e-01
-4.23621875e-08,1.95753125e-01
-4.23221875e-08,1.95493750e-01
-4.22821875e-08,1.95242187e-01
-4.22421875e-08,1.95334375e-01
-4.22021875e-08,1.95275000e-01
-4.21621875e-08,1.95321875e-01
-4.21221875e-08,1.95278125e-01
-4.20821875e-08,1.95323438e-01
-4.20421875e-08,1.95268750e-01
-4.20021875e-08,1.95353125e-01
-4.19621875e-08,1.95095313e-01
-4.19221875e-08,1.94840625e-01
-4.18821875e-08,1.94939063e-01
-4.18421875e-08,1.94865625e-01
-4.18021875e-08,1.94934375e-01
-4.17621875e-08,1.94857813e-01
-4.17221875e-08,1.94965625e-01
-4.16821875e-08,1.94681250e-01
-4.16421875e-08,1.94456250e-01
-4.16021875e-08,1.94518750e-01
-4.15621875e-08,1.94492187e-01
-4.15221875e-08,1.94500000e-01
-4.14821875e-08,1.94507813e-01
-4.14421875e-08,1.94481250e-01
-4.14021875e-08,1.94545313e-01
-4.13621875e-08,1.94300000e-01
-4.13221875e-08,1.94037500e-01
-4.12821875e-08,1.94137500e-01
-4.12421875e-08,1.94071875e-01
-4.12021875e-08,1.94123437e-01
-4.11621875e-08,1.94081250e-01
-4.11221875e-08,1.94117188e-01
-4.10821875e-08,1.94084375e-01
-4.10421875e-08,1.94114063e-01
-4.10021875e-08,1.94087500e-01
-4.09621875e-08,1.94112500e-01
-4.09221875e-08,1.94089063e-01
-4.08821875e-08,1.94110937e-01
-4.08421875e-08,1.94089063e-01
-4.08021875e-08,1.94109375e-01
-4.07621875e-08,1.94090625e-01
-4.07221875e-08,1.94109375e-01
-4.06821875e-08,1.94090625e-01
-4.06421875e-08,1.94109375e-01
-4.06021875e-08,1.94090625e-01
-4.05621875e-08,1.94107813e-01
-4.05221875e-08,1.94092188e-01
-4.04821875e-08,1.94107813e-01
-4.04421875e-08,1.94092188e-01
-4.04021875e-08,1.94107813e-01
-4.03621875e-08,1.94092188e-01
-4.03221875e-08,1.94107813e-01
-4.02821875e-08,1.94092188e-01
-4.02421875e-08,1.94107813e-01
-4.02021875e-08,1.94092188e-01
-4.01621875e-08,1.94107813e-01
-4.01221875e-08,1.94092188e-01
-4.00821875e-08,1.94107813e-01
-4.00421875e-08,1.94092188e-01
-4.00021875e-08,1.94107813e-01
-3.99621875e-08,1.94092188e-01
-3.99221875e-08,1.94107813e-01
-3.98821875e-08,1.94092188e-01
-3.98421875e-08,1.94107813e-01
-3.98021875e-08,1.94092188e-01
-3.97621875e-08,1.94107813e-01
-3.97221875e-08,1.94092188e-01
-3.96821875e-08,1.94107813e-01
-3.96421875e-08,1.94092188e-01
-3.96021875e-08,1.94107813e-01
-3.95621875e-08,1.94092188e-01
-3.95221875e-08,1.94107813e-01
-3.94821875e-08,1.94092188e-01
-3.94421875e-08,1.94107813e-01
-3.94021875e-08,1.94092188e-01
-3.93621875e-08,1.94107813e-01
-3.93221875e-08,1.94092188e-01
-3.92821875e-08,1.94107813e-01
-3.92421875e-08,1.94092188e-01
-3.92021875e-08,1.94107813e-01
-3.91621875e-08,1.94092188e-01
-3.91221875e-08,1.94107813e-01
-3.90821875e-08,1.94092188e-01
-3.90421875e-08,1.94107813e-01
-3.90021875e-08,1.94092188e-01
-3.89621875e-08,1.94107813e-01
-3.89221875e-08,1.94090625e-01
-3.88821875e-08,1.94109375e-01
-3.88421875e-08,1.94090625e-01
-3.88021875e-08,1.94109375e-01
-3.87621875e-08,1.94090625e-01
-3.87221875e-08,1.94109375e-01
-3.86821875e-08,1.94089063e-01
-3.86421875e-08,1.94110937e-01
-3.86021875e-08,1.94089063e-01
-3.85621875e-08,1.94112500e-01
-3.85221875e-08,1.94085937e-01
