trails/0bdfa5e45fec98341abdd20552c140b4/aes_ch1_20250507123049096.csv

Model,MSO66B
Label,
Waveform Type,ANALOG
Horizontal Units,s
Sample Interval,4.00000000e-11
Record Length,10000
Zero Index,1599.09765625
Vertical Units,A
ANALOG_Thumbnail,
yOffset,1.84500000e-01
yPosition,8.40000000e-01

Labels,
TIME,CH1
-6.39639062e-08,1.81704688e-01
-6.39239063e-08,1.81695313e-01
-6.38839062e-08,1.81706250e-01
-6.38439062e-08,1.81692188e-01
-6.38039062e-08,1.81709375e-01
-6.37639062e-08,1.81687500e-01
-6.37239062e-08,1.81718750e-01
-6.36839062e-08,1.81671875e-01
-6.36439063e-08,1.81753125e-01
-6.36039062e-08,1.81493750e-01
-6.35639062e-08,1.81245313e-01
-6.35239062e-08,1.81331250e-01
-6.34839062e-08,1.81278125e-01
-6.34439062e-08,1.81315625e-01
-6.34039062e-08,1.81289063e-01
-6.33639063e-08,1.81307812e-01
-6.33239062e-08,1.81295312e-01
-6.32839062e-08,1.81301563e-01
-6.32439062e-08,1.81304688e-01
-6.32039062e-08,1.81285937e-01
-6.31639062e-08,1.81339063e-01
-6.31239062e-08,1.81107813e-01
-6.30839063e-08,1.80829688e-01
-6.30439062e-08,1.80946875e-01
-6.30039062e-08,1.80862500e-01
-6.29639062e-08,1.80934375e-01
-6.29239062e-08,1.80867187e-01
-6.28839062e-08,1.80931250e-01
-6.28439062e-08,1.80867187e-01
-6.28039063e-08,1.80937500e-01
-6.27639062e-08,1.80854687e-01
-6.27239062e-08,1.80970313e-01
-6.26839062e-08,1.80678125e-01
-6.26439062e-08,1.80459375e-01
-6.26039063e-08,1.80517188e-01
-6.25639062e-08,1.80492188e-01
-6.25239063e-08,1.80503125e-01
-6.24839062e-08,1.80500000e-01
-6.24439062e-08,1.80498437e-01
-6.24039062e-08,1.80503125e-01
-6.23639062e-08,1.80496875e-01
-6.23239063e-08,1.80504688e-01
-6.22839062e-08,1.80495313e-01
-6.22439063e-08,1.80504688e-01
-6.22039062e-08,1.80493750e-01
-6.21639062e-08,1.80506250e-01
-6.21239062e-08,1.80493750e-01
-6.20839062e-08,1.80506250e-01
-6.20439063e-08,1.80492188e-01
-6.20039062e-08,1.80507813e-01
-6.19639063e-08,1.80492188e-01
-6.19239062e-08,1.80507813e-01
-6.18839062e-08,1.80492188e-01
-6.18439062e-08,1.80507813e-01
-6.18039062e-08,1.80490625e-01
-6.17639063e-08,1.80509375e-01
-6.17239062e-08,1.80490625e-01
-6.16839063e-08,1.80509375e-01
-6.16439062e-08,1.80490625e-01
-6.16039062e-08,1.80510937e-01
-6.15639062e-08,1.80489063e-01
-6.15239062e-08,1.80510937e-01
-6.14839063e-08,1.80489063e-01
-6.14439062e-08,1.80512500e-01
-6.14039063e-08,1.80487500e-01
-6.13639062e-08,1.80514063e-01
-6.13239062e-08,1.80484375e-01
-6.12839062e-08,1.80517188e-01
-6.12439062e-08,1.80481250e-01
-6.12039063e-08,1.80521875e-01
-6.11639062e-08,1.80471875e-01
-6.11239063e-08,1.80537500e-01
-6.10839062e-08,1.80437500e-01
-6.10439062e-08,1.80715625e-01
-6.10039062e-08,1.80946875e-01
-6.09639062e-08,1.80878125e-01
-6.09239063e-08,1.80912500e-01
-6.08839062e-08,1.80892187e-01
-6.08439063e-08,1.80904687e-01
-6.08039062e-08,1.80896875e-01
-6.07639062e-08,1.80900000e-01
-6.07239062e-08,1.80900000e-01
-6.06839062e-08,1.80898438e-01
-6.06439063e-08,1.80903125e-01
-6.06039062e-08,1.80896875e-01
-6.05639063e-08,1.80904687e-01
-6.05239062e-08,1.80893750e-01
-6.04839062e-08,1.80906250e-01
-6.04439062e-08,1.80892187e-01
-6.04039062e-08,1.80909375e-01
-6.03639063e-08,1.80889063e-01
-6.03239062e-08,1.80912500e-01
-6.02839062e-08,1.80885938e-01
-6.02439062e-08,1.80917188e-01
-6.02039062e-08,1.80876563e-01
-6.01639062e-08,1.80932813e-01
-6.01239062e-08,1.80842188e-01
-6.00839063e-08,1.81110938e-01
-6.00439062e-08,1.81351563e-01
-6.00039062e-08,1.81273437e-01
-5.99639062e-08,1.81317188e-01
-5.99239062e-08,1.81287500e-01
-5.98839062e-08,1.81309375e-01
-5.98439062e-08,1.81292188e-01
-5.98039063e-08,1.81306250e-01
-5.97639062e-08,1.81295312e-01
-5.97239062e-08,1.81303125e-01
-5.96839062e-08,1.81296875e-01
-5.96439062e-08,1.81301563e-01
-5.96039062e-08,1.81298438e-01
-5.95639062e-08,1.81300000e-01
-5.95239062e-08,1.81300000e-01
-5.94839062e-08,1.81300000e-01
-5.94439062e-08,1.81300000e-01
-5.94039062e-08,1.81298438e-01
-5.93639062e-08,1.81301563e-01
-5.93239062e-08,1.81298438e-01
-5.92839062e-08,1.81301563e-01
-5.92439062e-08,1.81298438e-01
-5.92039062e-08,1.81303125e-01
-5.91639062e-08,1.81296875e-01
-5.91239062e-08,1.81303125e-01
-5.90839062e-08,1.81296875e-01
-5.90439062e-08,1.81303125e-01
-5.90039062e-08,1.81295312e-01
-5.89639062e-08,1.81304688e-01
-5.89239062e-08,1.81295312e-01
-5.88839062e-08,1.81304688e-01
-5.88439062e-08,1.81295312e-01
-5.88039062e-08,1.81306250e-01
-5.87639062e-08,1.81293750e-01
-5.87239062e-08,1.81306250e-01
-5.86839062e-08,1.81293750e-01
-5.86439062e-08,1.81307812e-01
-5.86039062e-08,1.81292188e-01
-5.85639062e-08,1.81309375e-01
-5.85239062e-08,1.81290625e-01
-5.84839062e-08,1.81310938e-01
-5.84439062e-08,1.81287500e-01
-5.84039062e-08,1.81314063e-01
-5.83639062e-08,1.81284375e-01
-5.83239062e-08,1.81318750e-01
-5.82839062e-08,1.81275000e-01
-5.82439062e-08,1.81334375e-01
-5.82039062e-08,1.81240625e-01
-5.81639062e-08,1.81512500e-01
-5.81239062e-08,1.81750000e-01
-5.80839062e-08,1.81675000e-01
-5.80439062e-08,1.81715625e-01
-5.80039062e-08,1.81689062e-01
-5.79639062e-08,1.81706250e-01
-5.79239062e-08,1.81695313e-01
-5.78839062e-08,1.81701562e-01
-5.78439062e-08,1.81700000e-01
-5.78039062e-08,1.81698438e-01
-5.77639062e-08,1.81703125e-01
-5.77239062e-08,1.81695313e-01
-5.76839062e-08,1.81706250e-01
-5.76439062e-08,1.81690625e-01
-5.76039062e-08,1.81712500e-01
-5.75639062e-08,1.81682813e-01
-5.75239062e-08,1.81728125e-01
-5.74839062e-08,1.81646875e-01
-5.74439062e-08,1.81906250e-01
-5.74039062e-08,1.82156250e-01
-5.73639062e-08,1.82067188e-01
-5.73239062e-08,1.82123438e-01
-5.72839062e-08,1.82082812e-01
-5.72439062e-08,1.82114063e-01
-5.72039062e-08,1.82087500e-01
-5.71639062e-08,1.82110938e-01
-5.71239062e-08,1.82089063e-01
-5.70839062e-08,1.82109375e-01
-5.70439062e-08,1.82090625e-01
-5.70039062e-08,1.82109375e-01
-5.69639062e-08,1.82090625e-01
-5.69239062e-08,1.82109375e-01
-5.68839062e-08,1.82090625e-01
-5.68439062e-08,1.82109375e-01
-5.68039062e-08,1.82089063e-01
-5.67639062e-08,1.82112500e-01
-5.67239062e-08,1.82084375e-01
-5.66839062e-08,1.82118750e-01
-5.66439062e-08,1.82071875e-01
-5.66039062e-08,1.82153125e-01
-5.65639062e-08,1.81893750e-01
-5.65239062e-08,1.81642187e-01
-5.64839062e-08,1.81734375e-01
-5.64439062e-08,1.81675000e-01
-5.64039062e-08,1.81720313e-01
-5.63639062e-08,1.81681250e-01
-5.63239062e-08,1.81717188e-01
-5.62839062e-08,1.81682813e-01
-5.62439062e-08,1.81717188e-01
-5.62039062e-08,1.81682813e-01
-5.61639062e-08,1.81718750e-01
-5.61239062e-08,1.81678125e-01
-5.60839062e-08,1.81726562e-01
-5.60439062e-08,1.81664063e-01
-5.60039062e-08,1.81760937e-01
-5.59639062e-08,1.81485937e-01
-5.59239062e-08,1.81251563e-01
-5.58839062e-08,1.81325000e-01
-5.58439062e-08,1.81284375e-01
-5.58039062e-08,1.81310938e-01
-5.57639062e-08,1.81292188e-01
-5.57239062e-08,1.81306250e-01
-5.56839062e-08,1.81295312e-01
-5.56439062e-08,1.81303125e-01
-5.56039062e-08,1.81296875e-01
-5.55639062e-08,1.81301563e-01
-5.55239062e-08,1.81298438e-01
-5.54839062e-08,1.81300000e-01
-5.54439062e-08,1.81300000e-01
-5.54039062e-08,1.81300000e-01
-5.53639062e-08,1.81300000e-01
-5.53239062e-08,1.81298438e-01
-5.52839062e-08,1.81301563e-01
-5.52439062e-08,1.81298438e-01
-5.52039062e-08,1.81301563e-01
-5.51639062e-08,1.81298438e-01
-5.51239062e-08,1.81301563e-01
-5.50839062e-08,1.81296875e-01
-5.50439062e-08,1.81303125e-01
-5.50039062e-08,1.81296875e-01
-5.49639062e-08,1.81303125e-01
-5.49239062e-08,1.81296875e-01
-5.48839062e-08,1.81303125e-01
-5.48439062e-08,1.81296875e-01
-5.48039062e-08,1.81304688e-01
-5.47639062e-08,1.81295312e-01
-5.47239062e-08,1.81304688e-01
-5.46839062e-08,1.81295312e-01
-5.46439062e-08,1.81304688e-01
-5.46039062e-08,1.81295312e-01
-5.45639062e-08,1.81306250e-01
-5.45239062e-08,1.81293750e-01
-5.44839062e-08,1.81306250e-01
-5.44439062e-08,1.81293750e-01
-5.44039062e-08,1.81307812e-01
-5.43639062e-08,1.81292188e-01
-5.43239062e-08,1.81307812e-01
-5.42839062e-08,1.81290625e-01
-5.42439062e-08,1.81309375e-01
-5.42039062e-08,1.81289063e-01
-5.41639062e-08,1.81312500e-01
-5.41239062e-08,1.81285937e-01
-5.40839062e-08,1.81315625e-01
-5.40439062e-08,1.81281250e-01
-5.40039062e-08,1.81325000e-01
-5.39639062e-08,1.81265625e-01
-5.39239062e-08,1.81359375e-01
-5.38839062e-08,1.81087500e-01
-5.38439062e-08,1.80850000e-01
-5.38039062e-08,1.80925000e-01
-5.37639062e-08,1.80884375e-01
-5.37239062e-08,1.80910938e-01
-5.36839062e-08,1.80892187e-01
-5.36439062e-08,1.80904687e-01
-5.36039062e-08,1.80896875e-01
-5.35639062e-08,1.80901563e-01
-5.35239062e-08,1.80898438e-01
-5.34839062e-08,1.80900000e-01
-5.34439062e-08,1.80901563e-01
-5.34039062e-08,1.80898438e-01
-5.33639062e-08,1.80903125e-01
-5.33239062e-08,1.80896875e-01
-5.32839062e-08,1.80904687e-01
-5.32439062e-08,1.80895313e-01
-5.32039062e-08,1.80906250e-01
-5.31639062e-08,1.80893750e-01
-5.31239062e-08,1.80907813e-01
-5.30839062e-08,1.80890625e-01
-5.30439062e-08,1.80910938e-01
-5.30039063e-08,1.80885938e-01
-5.29639062e-08,1.80917188e-01
-5.29239062e-08,1.80878125e-01
-5.28839062e-08,1.80932813e-01
-5.28439062e-08,1.80842188e-01
-5.28039062e-08,1.81110938e-01
-5.27639062e-08,1.81351563e-01
-5.27239062e-08,1.81273437e-01
-5.26839062e-08,1.81317188e-01
-5.26439062e-08,1.81287500e-01
-5.26039062e-08,1.81309375e-01
-5.25639062e-08,1.81293750e-01
-5.25239062e-08,1.81304688e-01
-5.24839062e-08,1.81296875e-01
-5.24439062e-08,1.81301563e-01
-5.24039062e-08,1.81298438e-01
-5.23639062e-08,1.81300000e-01
-5.23239062e-08,1.81301563e-01
-5.22839062e-08,1.81298438e-01
-5.22439062e-08,1.81303125e-01
-5.22039062e-08,1.81295312e-01
-5.21639062e-08,1.81304688e-01
-5.21239062e-08,1.81293750e-01
-5.20839062e-08,1.81307812e-01
-5.20439062e-08,1.81289063e-01
-5.20039062e-08,1.81314063e-01
-5.19639062e-08,1.81279688e-01
-5.19239062e-08,1.81329688e-01
-5.18839062e-08,1.81245313e-01
-5.18439062e-08,1.81507813e-01
-5.18039062e-08,1.81754688e-01
-5.17639062e-08,1.81670313e-01
-5.17239062e-08,1.81720313e-01
-5.16839062e-08,1.81684375e-01
-5.16439062e-08,1.81712500e-01
-5.16039062e-08,1.81690625e-01
-5.15639062e-08,1.81707813e-01
-5.15239062e-08,1.81693750e-01
-5.14839062e-08,1.81706250e-01
-5.14439062e-08,1.81695313e-01
-5.14039062e-08,1.81703125e-01
-5.13639062e-08,1.81696875e-01
-5.13239062e-08,1.81703125e-01
-5.12839062e-08,1.81698438e-01
-5.12439062e-08,1.81701562e-01
-5.12039062e-08,1.81698438e-01
-5.11639062e-08,1.81700000e-01
-5.11239062e-08,1.81700000e-01
-5.10839063e-08,1.81700000e-01
-5.10439062e-08,1.81701562e-01
-5.10039062e-08,1.81698438e-01
-5.09639062e-08,1.81703125e-01
-5.09239062e-08,1.81696875e-01
-5.08839062e-08,1.81703125e-01
-5.08439062e-08,1.81695313e-01
-5.08039063e-08,1.81704688e-01
-5.07639062e-08,1.81693750e-01
-5.07239062e-08,1.81707813e-01
-5.06839062e-08,1.81690625e-01
-5.06439062e-08,1.81712500e-01
-5.06039062e-08,1.81684375e-01
-5.05639062e-08,1.81720313e-01
-5.05239062e-08,1.81670313e-01
-5.04839062e-08,1.81754688e-01
-5.04439062e-08,1.81492188e-01
-5.04039062e-08,1.81246875e-01
-5.03639062e-08,1.81329688e-01
-5.03239062e-08,1.81279688e-01
-5.02839062e-08,1.81315625e-01
-5.02439062e-08,1.81287500e-01
-5.02039062e-08,1.81309375e-01
-5.01639062e-08,1.81292188e-01
-5.01239062e-08,1.81306250e-01
-5.00839062e-08,1.81293750e-01
-5.00439062e-08,1.81304688e-01
-5.00039062e-08,1.81295312e-01
-4.99639062e-08,1.81303125e-01
-4.99239062e-08,1.81296875e-01
-4.98839062e-08,1.81301563e-01
-4.98439062e-08,1.81298438e-01
-4.98039062e-08,1.81301563e-01
-4.97639062e-08,1.81300000e-01
-4.97239062e-08,1.81300000e-01
-4.96839062e-08,1.81300000e-01
-4.96439062e-08,1.81300000e-01
-4.96039062e-08,1.81301563e-01
-4.95639062e-08,1.81298438e-01
-4.95239062e-08,1.81301563e-01
-4.94839062e-08,1.81296875e-01
-4.94439062e-08,1.81303125e-01
-4.94039062e-08,1.81296875e-01
-4.93639062e-08,1.81304688e-01
-4.93239062e-08,1.81295312e-01
-4.92839062e-08,1.81306250e-01
-4.92439062e-08,1.81293750e-01
-4.92039062e-08,1.81307812e-01
-4.91639063e-08,1.81290625e-01
-4.91239062e-08,1.81310938e-01
-4.90839062e-08,1.81287500e-01
-4.90439062e-08,1.81317188e-01
-4.90039062e-08,1.81278125e-01
-4.89639062e-08,1.81331250e-01
-4.89239062e-08,1.81243750e-01
-4.88839063e-08,1.81510937e-01
-4.88439062e-08,1.81751563e-01
-4.88039062e-08,1.81671875e-01
-4.87639062e-08,1.81717188e-01
-4.87239062e-08,1.81687500e-01
-4.86839062e-08,1.81709375e-01
-4.86439062e-08,1.81693750e-01
-4.86039062e-08,1.81704688e-01
-4.85639062e-08,1.81696875e-01
-4.85239062e-08,1.81701562e-01
-4.84839062e-08,1.81700000e-01
-4.84439062e-08,1.81698438e-01
-4.84039062e-08,1.81703125e-01
-4.83639062e-08,1.81695313e-01
-4.83239062e-08,1.81706250e-01
-4.82839062e-08,1.81690625e-01
-4.82439062e-08,1.81712500e-01
-4.82039062e-08,1.81681250e-01
-4.81639062e-08,1.81728125e-01
-4.81239062e-08,1.81646875e-01
-4.80839062e-08,1.81906250e-01
-4.80439062e-08,1.82154687e-01
-4.80039062e-08,1.82068750e-01
-4.79639062e-08,1.82121875e-01
-4.79239062e-08,1.82084375e-01
-4.78839062e-08,1.82112500e-01
-4.78439062e-08,1.82090625e-01
-4.78039062e-08,1.82107812e-01
-4.77639062e-08,1.82093750e-01
-4.77239062e-08,1.82104688e-01
-4.76839062e-08,1.82096875e-01
-4.76439062e-08,1.82103125e-01
-4.76039062e-08,1.82098438e-01
-4.75639062e-08,1.82100000e-01
-4.75239062e-08,1.82101563e-01
-4.74839062e-08,1.82096875e-01
-4.74439062e-08,1.82104688e-01
-4.74039062e-08,1.82092188e-01
-4.73639062e-08,1.82110938e-01
-4.73239062e-08,1.82084375e-01
-4.72839062e-08,1.82125000e-01
-4.72439063e-08,1.82048437e-01
-4.72039062e-08,1.82304688e-01
-4.71639062e-08,1.82557812e-01
-4.71239062e-08,1.82467188e-01
-4.70839062e-08,1.82523437e-01
-4.70439062e-08,1.82481250e-01
-4.70039062e-08,1.82515625e-01
-4.69639063e-08,1.82487500e-01
-4.69239062e-08,1.82510937e-01
-4.68839062e-08,1.82490625e-01
-4.68439062e-08,1.82509375e-01
-4.68039062e-08,1.82492188e-01
-4.67639062e-08,1.82507813e-01
-4.67239062e-08,1.82493750e-01
-4.66839063e-08,1.82506250e-01
-4.66439062e-08,1.82495313e-01
-4.66039062e-08,1.82504688e-01
-4.65639062e-08,1.82496875e-01
-4.65239062e-08,1.82503125e-01
-4.64839062e-08,1.82496875e-01
-4.64439062e-08,1.82501563e-01
-4.64039062e-08,1.82498437e-01
-4.63639062e-08,1.82500000e-01
-4.63239062e-08,1.82501563e-01
-4.62839062e-08,1.82498437e-01
-4.62439062e-08,1.82503125e-01
-4.62039062e-08,1.82495313e-01
-4.61639062e-08,1.82507813e-01
-4.61239062e-08,1.82489063e-01
-4.60839062e-08,1.82515625e-01
-4.60439062e-08,1.82475000e-01
-4.60039062e-08,1.82550000e-01
-4.59639062e-08,1.82296875e-01
-4.59239062e-08,1.82042188e-01
-4.58839062e-08,1.82134375e-01
-4.58439062e-08,1.82075000e-01
-4.58039062e-08,1.82120313e-01
-4.57639062e-08,1.82082812e-01
-4.57239062e-08,1.82114063e-01
-4.56839062e-08,1.82087500e-01
-4.56439062e-08,1.82110938e-01
-4.56039062e-08,1.82089063e-01
-4.55639062e-08,1.82109375e-01
-4.55239062e-08,1.82090625e-01
-4.54839062e-08,1.82107812e-01
-4.54439062e-08,1.82092188e-01
-4.54039062e-08,1.82107812e-01
-4.53639062e-08,1.82093750e-01
-4.53239063e-08,1.82106250e-01
-4.52839062e-08,1.82093750e-01
-4.52439062e-08,1.82106250e-01
-4.52039062e-08,1.82095312e-01
-4.51639062e-08,1.82104688e-01
-4.51239062e-08,1.82095312e-01
-4.50839062e-08,1.82104688e-01
-4.50439063e-08,1.82096875e-01
-4.50039062e-08,1.82103125e-01
-4.49639062e-08,1.82096875e-01
-4.49239062e-08,1.82103125e-01
-4.48839062e-08,1.82098438e-01
-4.48439062e-08,1.82101563e-01
-4.48039062e-08,1.82098438e-01
-4.47639063e-08,1.82100000e-01
-4.47239062e-08,1.82100000e-01
-4.46839062e-08,1.82098438e-01
-4.46439062e-08,1.82101563e-01
-4.46039062e-08,1.82096875e-01
-4.45639062e-08,1.82106250e-01
-4.45239062e-08,1.82090625e-01
-4.44839063e-08,1.82114063e-01
-4.44439062e-08,1.82076563e-01
-4.44039062e-08,1.82148438e-01
-4.43639062e-08,1.81898438e-01
-4.43239062e-08,1.81639063e-01
-4.42839062e-08,1.81737500e-01
-4.42439062e-08,1.81670313e-01
-4.42039062e-08,1.81725000e-01
-4.41639062e-08,1.81678125e-01
-4.41239062e-08,1.81721875e-01
-4.40839062e-08,1.81679688e-01
-4.40439062e-08,1.81721875e-01
-4.40039062e-08,1.81676562e-01
-4.39639062e-08,1.81728125e-01
-4.39239062e-08,1.81664063e-01
-4.38839062e-08,1.81760937e-01
-4.38439062e-08,1.81487500e-01
-4.38039062e-08,1.81250000e-01
-4.37639062e-08,1.81326563e-01
-4.37239062e-08,1.81281250e-01
-4.36839063e-08,1.81314063e-01
-4.36439062e-08,1.81289063e-01
-4.36039062e-08,1.81310938e-01
-4.35639062e-08,1.81289063e-01
-4.35239062e-08,1.81310938e-01
-4.34839062e-08,1.81289063e-01
-4.34439062e-08,1.81312500e-01
-4.34039063e-08,1.81284375e-01
-4.33639062e-08,1.81320312e-01
-4.33239062e-08,1.81270313e-01
-4.32839062e-08,1.81354688e-01
-4.32439062e-08,1.81092188e-01
-4.32039062e-08,1.80845312e-01
-4.31639062e-08,1.80931250e-01
-4.31239063e-08,1.80878125e-01
-4.30839062e-08,1.80917188e-01
-4.30439062e-08,1.80885938e-01
-4.30039062e-08,1.80912500e-01
-4.29639062e-08,1.80889063e-01
-4.29239062e-08,1.80909375e-01
-4.28839062e-08,1.80890625e-01
-4.28439063e-08,1.80907813e-01
-4.28039062e-08,1.80892187e-01
-4.27639062e-08,1.80906250e-01
-4.27239062e-08,1.80893750e-01
-4.26839062e-08,1.80906250e-01
-4.26439062e-08,1.80893750e-01
-4.26039062e-08,1.80904687e-01
-4.25639063e-08,1.80895313e-01
-4.25239062e-08,1.80904687e-01
-4.24839062e-08,1.80895313e-01
-4.24439062e-08,1.80904687e-01
-4.24039062e-08,1.80895313e-01
-4.23639062e-08,1.80903125e-01
-4.23239062e-08,1.80896875e-01
-4.22839063e-08,1.80903125e-01
-4.22439062e-08,1.80896875e-01
-4.22039062e-08,1.80903125e-01
-4.21639062e-08,1.80898438e-01
-4.21239062e-08,1.80901563e-01
-4.20839062e-08,1.80898438e-01
-4.20439062e-08,1.80901563e-01
-4.20039062e-08,1.80898438e-01
-4.19639062e-08,1.80900000e-01
-4.19239062e-08,1.80900000e-01
-4.18839062e-08,1.80900000e-01
-4.18439062e-08,1.80901563e-01
-4.18039062e-08,1.80898438e-01
-4.17639063e-08,1.80903125e-01
-4.17239062e-08,1.80895313e-01
-4.16839062e-08,1.80906250e-01
-4.16439062e-08,1.80892187e-01
-4.16039062e-08,1.80910938e-01
-4.15639062e-08,1.80882813e-01
-4.15239062e-08,1.80926562e-01
-4.14839063e-08,1.80848438e-01
-4.14439062e-08,1.81104688e-01
-4.14039062e-08,1.81357812e-01
-4.13639062e-08,1.81267188e-01
-4.13239062e-08,1.81323438e-01
-4.12839062e-08,1.81281250e-01
-4.12439062e-08,1.81314063e-01
-4.12039063e-08,1.81287500e-01
-4.11639062e-08,1.81309375e-01
-4.11239062e-08,1.81292188e-01
-4.10839062e-08,1.81304688e-01
-4.10439062e-08,1.81298438e-01
-4.10039062e-08,1.81295312e-01
-4.09639062e-08,1.81314063e-01
-4.09239063e-08,1.81260937e-01
-4.08839062e-08,1.81492188e-01
-4.08439062e-08,1.81770313e-01
-4.08039062e-08,1.81653125e-01
-4.07639062e-08,1.81739062e-01
-4.07239062e-08,1.81665625e-01
-4.06839062e-08,1.81732813e-01
-4.06439063e-08,1.81667187e-01
-4.06039062e-08,1.81734375e-01
-4.05639062e-08,1.81660938e-01
-4.05239062e-08,1.81748437e-01
-4.04839062e-08,1.81628125e-01
-4.04439062e-08,1.81925000e-01
-4.04039062e-08,1.82137500e-01
-4.03639063e-08,1.82085938e-01
-4.03239062e-08,1.82104688e-01
-4.02839062e-08,1.82101563e-01
-4.02439062e-08,1.82095312e-01
-4.02039062e-08,1.82106250e-01
-4.01639062e-08,1.82090625e-01
-4.01239062e-08,1.82110938e-01
-4.00839063e-08,1.82085938e-01
-4.00439062e-08,1.82117187e-01
-4.00039062e-08,1.82076563e-01
-3.99639062e-08,1.82132813e-01
-3.99239062e-08,1.82042188e-01
-3.98839062e-08,1.82312500e-01
-3.98439063e-08,1.82550000e-01
-3.98039062e-08,1.82473438e-01
-3.97639062e-08,1.82517188e-01
-3.97239062e-08,1.82487500e-01
-3.96839062e-08,1.82509375e-01
-3.96439062e-08,1.82493750e-01
-3.96039062e-08,1.82504688e-01
-3.95639063e-08,1.82496875e-01
-3.95239062e-08,1.82503125e-01
-3.94839062e-08,1.82498437e-01
-3.94439062e-08,1.82501563e-01
-3.94039062e-08,1.82498437e-01
-3.93639062e-08,1.82500000e-01
-3.93239062e-08,1.82500000e-01
-3.92839063e-08,1.82500000e-01
-3.92439062e-08,1.82500000e-01
-3.92039062e-08,1.82498437e-01
-3.91639062e-08,1.82501563e-01
-3.91239062e-08,1.82498437e-01
-3.90839062e-08,1.82501563e-01
-3.90439062e-08,1.82498437e-01
-3.90039063e-08,1.82501563e-01
-3.89639062e-08,1.82498437e-01
-3.89239062e-08,1.82503125e-01
-3.88839062e-08,1.82496875e-01
-3.88439062e-08,1.82503125e-01
-3.88039062e-08,1.82496875e-01
-3.87639062e-08,1.82503125e-01
-3.87239063e-08,1.82496875e-01
-3.86839062e-08,1.82503125e-01
-3.86439062e-08,1.82496875e-01
-3.86039062e-08,1.82503125e-01
-3.85639062e-08,1.82495313e-01
-3.85239062e-08,1.82504688e-01
