trails/0bdfa5e45fec98341abdd20552c140b4/aes_ch1_20250507114528807.csv

Model,MSO66B
Label,
Waveform Type,ANALOG
Horizontal Units,s
Sample Interval,4.00000000e-11
Record Length,10000
Zero Index,1599.07812500
Vertical Units,A
ANALOG_Thumbnail,
yOffset,1.84500000e-01
yPosition,8.40000000e-01

Labels,
TIME,CH1
-6.39631250e-08,1.81317188e-01
-6.39231250e-08,1.81276563e-01
-6.38831250e-08,1.81332812e-01
-6.38431250e-08,1.81242188e-01
-6.38031250e-08,1.81512500e-01
-6.37631250e-08,1.81750000e-01
-6.37231250e-08,1.81675000e-01
-6.36831250e-08,1.81715625e-01
-6.36431250e-08,1.81690625e-01
-6.36031250e-08,1.81706250e-01
-6.35631250e-08,1.81696875e-01
-6.35231250e-08,1.81700000e-01
-6.34831250e-08,1.81703125e-01
-6.34431250e-08,1.81693750e-01
-6.34031250e-08,1.81710938e-01
-6.33631250e-08,1.81684375e-01
-6.33231250e-08,1.81726562e-01
-6.32831250e-08,1.81646875e-01
-6.32431250e-08,1.81906250e-01
-6.32031250e-08,1.82156250e-01
-6.31631250e-08,1.82068750e-01
-6.31231250e-08,1.82120313e-01
-6.30831250e-08,1.82084375e-01
-6.30431250e-08,1.82110938e-01
-6.30031250e-08,1.82092188e-01
-6.29631250e-08,1.82106250e-01
-6.29231250e-08,1.82096875e-01
-6.28831250e-08,1.82101563e-01
-6.28431250e-08,1.82101563e-01
-6.28031250e-08,1.82096875e-01
-6.27631250e-08,1.82107812e-01
-6.27231250e-08,1.82085938e-01
-6.26831250e-08,1.82123438e-01
-6.26431250e-08,1.82050000e-01
-6.26031250e-08,1.82303125e-01
-6.25631250e-08,1.82557812e-01
-6.25231250e-08,1.82465625e-01
-6.24831250e-08,1.82523437e-01
-6.24431250e-08,1.82481250e-01
-6.24031250e-08,1.82514063e-01
-6.23631250e-08,1.82489063e-01
-6.23231250e-08,1.82509375e-01
-6.22831250e-08,1.82493750e-01
-6.22431250e-08,1.82504688e-01
-6.22031250e-08,1.82498437e-01
-6.21631250e-08,1.82496875e-01
-6.21231250e-08,1.82507813e-01
-6.20831250e-08,1.82481250e-01
-6.20431250e-08,1.82543750e-01
-6.20031250e-08,1.82303125e-01
-6.19631250e-08,1.82035937e-01
-6.19231250e-08,1.82140625e-01
-6.18831250e-08,1.82068750e-01
-6.18431250e-08,1.82125000e-01
-6.18031250e-08,1.82078125e-01
-6.17631250e-08,1.82120313e-01
-6.17231250e-08,1.82081250e-01
-6.16831250e-08,1.82117187e-01
-6.16431250e-08,1.82084375e-01
-6.16031250e-08,1.82115625e-01
-6.15631250e-08,1.82085938e-01
-6.15231250e-08,1.82114063e-01
-6.14831250e-08,1.82085938e-01
-6.14431250e-08,1.82112500e-01
-6.14031250e-08,1.82087500e-01
-6.13631250e-08,1.82112500e-01
-6.13231250e-08,1.82087500e-01
-6.12831250e-08,1.82110938e-01
-6.12431250e-08,1.82089063e-01
-6.12031250e-08,1.82110938e-01
-6.11631250e-08,1.82089063e-01
-6.11231250e-08,1.82110938e-01
-6.10831250e-08,1.82089063e-01
-6.10431250e-08,1.82110938e-01
-6.10031250e-08,1.82089063e-01
-6.09631250e-08,1.82109375e-01
-6.09231250e-08,1.82090625e-01
-6.08831250e-08,1.82109375e-01
-6.08431250e-08,1.82090625e-01
-6.08031250e-08,1.82109375e-01
-6.07631250e-08,1.82090625e-01
-6.07231250e-08,1.82109375e-01
-6.06831250e-08,1.82090625e-01
-6.06431250e-08,1.82109375e-01
-6.06031250e-08,1.82090625e-01
-6.05631250e-08,1.82109375e-01
-6.05231250e-08,1.82090625e-01
-6.04831250e-08,1.82109375e-01
-6.04431250e-08,1.82090625e-01
-6.04031250e-08,1.82109375e-01
-6.03631250e-08,1.82090625e-01
-6.03231250e-08,1.82109375e-01
-6.02831250e-08,1.82090625e-01
-6.02431250e-08,1.82109375e-01
-6.02031250e-08,1.82090625e-01
-6.01631250e-08,1.82109375e-01
-6.01231250e-08,1.82090625e-01
-6.00831250e-08,1.82109375e-01
-6.00431250e-08,1.82090625e-01
-6.00031250e-08,1.82109375e-01
-5.99631250e-08,1.82090625e-01
-5.99231250e-08,1.82109375e-01
-5.98831250e-08,1.82090625e-01
-5.98431250e-08,1.82109375e-01
-5.98031250e-08,1.82090625e-01
-5.97631250e-08,1.82109375e-01
-5.97231250e-08,1.82090625e-01
-5.96831250e-08,1.82109375e-01
-5.96431250e-08,1.82090625e-01
-5.96031250e-08,1.82109375e-01
-5.95631250e-08,1.82090625e-01
-5.95231250e-08,1.82109375e-01
-5.94831250e-08,1.82090625e-01
-5.94431250e-08,1.82109375e-01
-5.94031250e-08,1.82090625e-01
-5.93631250e-08,1.82109375e-01
-5.93231250e-08,1.82090625e-01
-5.92831250e-08,1.82109375e-01
-5.92431250e-08,1.82089063e-01
-5.92031250e-08,1.82110938e-01
-5.91631250e-08,1.82089063e-01
-5.91231250e-08,1.82110938e-01
-5.90831250e-08,1.82089063e-01
-5.90431250e-08,1.82110938e-01
-5.90031250e-08,1.82089063e-01
-5.89631250e-08,1.82112500e-01
-5.89231250e-08,1.82087500e-01
-5.88831250e-08,1.82112500e-01
-5.88431250e-08,1.82087500e-01
-5.88031250e-08,1.82114063e-01
-5.87631250e-08,1.82085938e-01
-5.87231250e-08,1.82114063e-01
-5.86831250e-08,1.82084375e-01
-5.86431250e-08,1.82117187e-01
-5.86031250e-08,1.82082812e-01
-5.85631250e-08,1.82118750e-01
-5.85231250e-08,1.82078125e-01
-5.84831250e-08,1.82125000e-01
-5.84431250e-08,1.82070312e-01
-5.84031250e-08,1.82140625e-01
-5.83631250e-08,1.82034375e-01
-5.83231250e-08,1.82318750e-01
-5.82831250e-08,1.82543750e-01
-5.82431250e-08,1.82481250e-01
-5.82031250e-08,1.82509375e-01
-5.81631250e-08,1.82495313e-01
-5.81231250e-08,1.82501563e-01
-5.80831250e-08,1.82501563e-01
-5.80431250e-08,1.82496875e-01
-5.80031250e-08,1.82504688e-01
-5.79631250e-08,1.82493750e-01
-5.79231250e-08,1.82507813e-01
-5.78831250e-08,1.82490625e-01
-5.78431250e-08,1.82510937e-01
-5.78031250e-08,1.82485938e-01
-5.77631250e-08,1.82515625e-01
-5.77231250e-08,1.82479688e-01
-5.76831250e-08,1.82525000e-01
-5.76431250e-08,1.82464062e-01
-5.76031250e-08,1.82560938e-01
-5.75631250e-08,1.82285937e-01
-5.75231250e-08,1.82053125e-01
-5.74831250e-08,1.82123438e-01
-5.74431250e-08,1.82087500e-01
-5.74031250e-08,1.82107812e-01
-5.73631250e-08,1.82096875e-01
-5.73231250e-08,1.82101563e-01
-5.72831250e-08,1.82101563e-01
-5.72431250e-08,1.82096875e-01
-5.72031250e-08,1.82106250e-01
-5.71631250e-08,1.82092188e-01
-5.71231250e-08,1.82110938e-01
-5.70831250e-08,1.82084375e-01
-5.70431250e-08,1.82120313e-01
-5.70031250e-08,1.82068750e-01
-5.69631250e-08,1.82156250e-01
-5.69231250e-08,1.81889063e-01
-5.68831250e-08,1.81650000e-01
-5.68431250e-08,1.81726562e-01
-5.68031250e-08,1.81684375e-01
-5.67631250e-08,1.81709375e-01
-5.67231250e-08,1.81695313e-01
-5.66831250e-08,1.81701562e-01
-5.66431250e-08,1.81701562e-01
-5.66031250e-08,1.81693750e-01
-5.65631250e-08,1.81712500e-01
-5.65231250e-08,1.81676562e-01
-5.64831250e-08,1.81748437e-01
-5.64431250e-08,1.81498437e-01
-5.64031250e-08,1.81240625e-01
-5.63631250e-08,1.81335938e-01
-5.63231250e-08,1.81275000e-01
-5.62831250e-08,1.81320312e-01
-5.62431250e-08,1.81282813e-01
-5.62031250e-08,1.81314063e-01
-5.61631250e-08,1.81287500e-01
-5.61231250e-08,1.81310938e-01
-5.60831250e-08,1.81289063e-01
-5.60431250e-08,1.81309375e-01
-5.60031250e-08,1.81290625e-01
-5.59631250e-08,1.81309375e-01
-5.59231250e-08,1.81292188e-01
-5.58831250e-08,1.81307812e-01
-5.58431250e-08,1.81292188e-01
-5.58031250e-08,1.81307812e-01
-5.57631250e-08,1.81293750e-01
-5.57231250e-08,1.81306250e-01
-5.56831250e-08,1.81293750e-01
-5.56431250e-08,1.81306250e-01
-5.56031250e-08,1.81293750e-01
-5.55631250e-08,1.81306250e-01
-5.55231250e-08,1.81293750e-01
-5.54831250e-08,1.81307812e-01
-5.54431250e-08,1.81292188e-01
-5.54031250e-08,1.81307812e-01
-5.53631250e-08,1.81290625e-01
-5.53231250e-08,1.81310938e-01
-5.52831250e-08,1.81287500e-01
-5.52431250e-08,1.81315625e-01
-5.52031250e-08,1.81279688e-01
-5.51631250e-08,1.81329688e-01
-5.51231250e-08,1.81246875e-01
-5.50831250e-08,1.81506250e-01
-5.50431250e-08,1.81756250e-01
-5.50031250e-08,1.81667187e-01
-5.49631250e-08,1.81723438e-01
-5.49231250e-08,1.81681250e-01
-5.48831250e-08,1.81717188e-01
-5.48431250e-08,1.81684375e-01
-5.48031250e-08,1.81714062e-01
-5.47631250e-08,1.81685938e-01
-5.47231250e-08,1.81712500e-01
-5.46831250e-08,1.81685938e-01
-5.46431250e-08,1.81714062e-01
-5.46031250e-08,1.81685938e-01
-5.45631250e-08,1.81715625e-01
-5.45231250e-08,1.81682813e-01
-5.44831250e-08,1.81720313e-01
-5.44431250e-08,1.81675000e-01
-5.44031250e-08,1.81734375e-01
-5.43631250e-08,1.81640625e-01
-5.43231250e-08,1.81912500e-01
-5.42831250e-08,1.82150000e-01
-5.42431250e-08,1.82075000e-01
-5.42031250e-08,1.82115625e-01
-5.41631250e-08,1.82089063e-01
-5.41231250e-08,1.82107812e-01
-5.40831250e-08,1.82093750e-01
-5.40431250e-08,1.82104688e-01
-5.40031250e-08,1.82096875e-01
-5.39631250e-08,1.82101563e-01
-5.39231250e-08,1.82098438e-01
-5.38831250e-08,1.82100000e-01
-5.38431250e-08,1.82100000e-01
-5.38031250e-08,1.82098438e-01
-5.37631250e-08,1.82101563e-01
-5.37231250e-08,1.82096875e-01
-5.36831250e-08,1.82103125e-01
-5.36431250e-08,1.82095312e-01
-5.36031250e-08,1.82106250e-01
-5.35631250e-08,1.82092188e-01
-5.35231250e-08,1.82109375e-01
-5.34831250e-08,1.82089063e-01
-5.34431250e-08,1.82114063e-01
-5.34031250e-08,1.82081250e-01
-5.33631250e-08,1.82129687e-01
-5.33231250e-08,1.82045313e-01
-5.32831250e-08,1.82307812e-01
-5.32431250e-08,1.82554688e-01
-5.32031250e-08,1.82468750e-01
-5.31631250e-08,1.82521875e-01
-5.31231250e-08,1.82484375e-01
-5.30831250e-08,1.82512500e-01
-5.30431250e-08,1.82489063e-01
-5.30031250e-08,1.82509375e-01
-5.29631250e-08,1.82492188e-01
-5.29231250e-08,1.82507813e-01
-5.28831250e-08,1.82493750e-01
-5.28431250e-08,1.82506250e-01
-5.28031250e-08,1.82495313e-01
-5.27631250e-08,1.82504688e-01
-5.27231250e-08,1.82495313e-01
-5.26831250e-08,1.82504688e-01
-5.26431250e-08,1.82496875e-01
-5.26031250e-08,1.82503125e-01
-5.25631250e-08,1.82496875e-01
-5.25231250e-08,1.82503125e-01
-5.24831250e-08,1.82496875e-01
-5.24431250e-08,1.82503125e-01
-5.24031250e-08,1.82498437e-01
-5.23631250e-08,1.82501563e-01
-5.23231250e-08,1.82498437e-01
-5.22831250e-08,1.82501563e-01
-5.22431250e-08,1.82498437e-01
-5.22031250e-08,1.82501563e-01
-5.21631250e-08,1.82498437e-01
-5.21231250e-08,1.82501563e-01
-5.20831250e-08,1.82500000e-01
-5.20431250e-08,1.82500000e-01
-5.20031250e-08,1.82500000e-01
-5.19631250e-08,1.82500000e-01
-5.19231250e-08,1.82500000e-01
-5.18831250e-08,1.82500000e-01
-5.18431250e-08,1.82500000e-01
-5.18031250e-08,1.82500000e-01
-5.17631250e-08,1.82500000e-01
-5.17231250e-08,1.82498437e-01
-5.16831250e-08,1.82501563e-01
-5.16431250e-08,1.82498437e-01
-5.16031250e-08,1.82501563e-01
-5.15631250e-08,1.82498437e-01
-5.15231250e-08,1.82501563e-01
-5.14831250e-08,1.82496875e-01
-5.14431250e-08,1.82503125e-01
-5.14031250e-08,1.82496875e-01
-5.13631250e-08,1.82504688e-01
-5.13231250e-08,1.82495313e-01
-5.12831250e-08,1.82504688e-01
-5.12431250e-08,1.82493750e-01
-5.12031250e-08,1.82507813e-01
-5.11631250e-08,1.82490625e-01
-5.11231250e-08,1.82510937e-01
-5.10831250e-08,1.82485938e-01
-5.10431250e-08,1.82518750e-01
-5.10031250e-08,1.82471875e-01
-5.09631250e-08,1.82553125e-01
-5.09231250e-08,1.82293750e-01
-5.08831250e-08,1.82045313e-01
-5.08431250e-08,1.82131250e-01
-5.08031250e-08,1.82078125e-01
-5.07631250e-08,1.82117187e-01
-5.07231250e-08,1.82085938e-01
-5.06831250e-08,1.82112500e-01
-5.06431250e-08,1.82089063e-01
-5.06031250e-08,1.82109375e-01
-5.05631250e-08,1.82092188e-01
-5.05231250e-08,1.82107812e-01
-5.04831250e-08,1.82092188e-01
-5.04431250e-08,1.82106250e-01
-5.04031250e-08,1.82093750e-01
-5.03631250e-08,1.82106250e-01
-5.03231250e-08,1.82093750e-01
-5.02831250e-08,1.82106250e-01
-5.02431250e-08,1.82095312e-01
-5.02031250e-08,1.82104688e-01
-5.01631250e-08,1.82095312e-01
-5.01231250e-08,1.82104688e-01
-5.00831250e-08,1.82095312e-01
-5.00431250e-08,1.82104688e-01
-5.00031250e-08,1.82095312e-01
-4.99631250e-08,1.82104688e-01
-4.99231250e-08,1.82095312e-01
-4.98831250e-08,1.82104688e-01
-4.98431250e-08,1.82093750e-01
-4.98031250e-08,1.82106250e-01
-4.97631250e-08,1.82093750e-01
-4.97231250e-08,1.82106250e-01
-4.96831250e-08,1.82092188e-01
-4.96431250e-08,1.82109375e-01
-4.96031250e-08,1.82089063e-01
-4.95631250e-08,1.82114063e-01
-4.95231250e-08,1.82081250e-01
-4.94831250e-08,1.82128125e-01
-4.94431250e-08,1.82048437e-01
-4.94031250e-08,1.82304688e-01
-4.93631250e-08,1.82557812e-01
-4.93231250e-08,1.82465625e-01
-4.92831250e-08,1.82526563e-01
-4.92431250e-08,1.82478125e-01
-4.92031250e-08,1.82520313e-01
-4.91631250e-08,1.82481250e-01
-4.91231250e-08,1.82518750e-01
-4.90831250e-08,1.82479688e-01
-4.90431250e-08,1.82521875e-01
-4.90031250e-08,1.82473438e-01
-4.89631250e-08,1.82535937e-01
-4.89231250e-08,1.82439062e-01
-4.88831250e-08,1.82714062e-01
-4.88431250e-08,1.82948438e-01
-4.88031250e-08,1.82875000e-01
-4.87631250e-08,1.82915625e-01
-4.87231250e-08,1.82889063e-01
-4.86831250e-08,1.82907813e-01
-4.86431250e-08,1.82893750e-01
-4.86031250e-08,1.82904687e-01
-4.85631250e-08,1.82896875e-01
-4.85231250e-08,1.82903125e-01
-4.84831250e-08,1.82898438e-01
-4.84431250e-08,1.82901563e-01
-4.84031250e-08,1.82898438e-01
-4.83631250e-08,1.82900000e-01
-4.83231250e-08,1.82900000e-01
-4.82831250e-08,1.82900000e-01
-4.82431250e-08,1.82900000e-01
-4.82031250e-08,1.82898438e-01
-4.81631250e-08,1.82901563e-01
-4.81231250e-08,1.82898438e-01
-4.80831250e-08,1.82903125e-01
-4.80431250e-08,1.82896875e-01
-4.80031250e-08,1.82903125e-01
-4.79631250e-08,1.82895313e-01
-4.79231250e-08,1.82904687e-01
-4.78831250e-08,1.82895313e-01
-4.78431250e-08,1.82906250e-01
-4.78031250e-08,1.82892187e-01
-4.77631250e-08,1.82909375e-01
-4.77231250e-08,1.82889063e-01
-4.76831250e-08,1.82912500e-01
-4.76431250e-08,1.82884375e-01
-4.76031250e-08,1.82921875e-01
-4.75631250e-08,1.82868750e-01
-4.75231250e-08,1.82956250e-01
-4.74831250e-08,1.82689062e-01
-4.74431250e-08,1.82448438e-01
-4.74031250e-08,1.82526563e-01
-4.73631250e-08,1.82484375e-01
-4.73231250e-08,1.82509375e-01
-4.72831250e-08,1.82495313e-01
-4.72431250e-08,1.82500000e-01
-4.72031250e-08,1.82506250e-01
-4.71631250e-08,1.82482813e-01
-4.71231250e-08,1.82542188e-01
-4.70831250e-08,1.82304688e-01
-4.70431250e-08,1.82032813e-01
-4.70031250e-08,1.82143750e-01
-4.69631250e-08,1.82065625e-01
-4.69231250e-08,1.82129687e-01
-4.68831250e-08,1.82071875e-01
-4.68431250e-08,1.82128125e-01
-4.68031250e-08,1.82071875e-01
-4.67631250e-08,1.82132813e-01
-4.67231250e-08,1.82059375e-01
-4.66831250e-08,1.82165625e-01
-4.66431250e-08,1.81882813e-01
-4.66031250e-08,1.81654687e-01
-4.65631250e-08,1.81721875e-01
-4.65231250e-08,1.81685938e-01
-4.64831250e-08,1.81709375e-01
-4.64431250e-08,1.81693750e-01
-4.64031250e-08,1.81704688e-01
-4.63631250e-08,1.81696875e-01
-4.63231250e-08,1.81703125e-01
-4.62831250e-08,1.81696875e-01
-4.62431250e-08,1.81701562e-01
-4.62031250e-08,1.81698438e-01
-4.61631250e-08,1.81701562e-01
-4.61231250e-08,1.81698438e-01
-4.60831250e-08,1.81701562e-01
-4.60431250e-08,1.81698438e-01
-4.60031250e-08,1.81701562e-01
-4.59631250e-08,1.81698438e-01
-4.59231250e-08,1.81701562e-01
-4.58831250e-08,1.81698438e-01
-4.58431250e-08,1.81703125e-01
-4.58031250e-08,1.81696875e-01
-4.57631250e-08,1.81703125e-01
-4.57231250e-08,1.81696875e-01
-4.56831250e-08,1.81703125e-01
-4.56431250e-08,1.81695313e-01
-4.56031250e-08,1.81704688e-01
-4.55631250e-08,1.81693750e-01
-4.55231250e-08,1.81706250e-01
-4.54831250e-08,1.81692188e-01
-4.54431250e-08,1.81709375e-01
-4.54031250e-08,1.81689062e-01
-4.53631250e-08,1.81714062e-01
-4.53231250e-08,1.81679688e-01
-4.52831250e-08,1.81729688e-01
-4.52431250e-08,1.81645313e-01
-4.52031250e-08,1.81907813e-01
-4.51631250e-08,1.82154687e-01
-4.51231250e-08,1.82070312e-01
-4.50831250e-08,1.82120313e-01
-4.50431250e-08,1.82084375e-01
-4.50031250e-08,1.82110938e-01
-4.49631250e-08,1.82090625e-01
-4.49231250e-08,1.82106250e-01
-4.48831250e-08,1.82095312e-01
-4.48431250e-08,1.82103125e-01
-4.48031250e-08,1.82098438e-01
-4.47631250e-08,1.82098438e-01
-4.47231250e-08,1.82104688e-01
-4.46831250e-08,1.82090625e-01
-4.46431250e-08,1.82120313e-01
-4.46031250e-08,1.82054688e-01
-4.45631250e-08,1.82298437e-01
-4.45231250e-08,1.82564063e-01
-4.44831250e-08,1.82459375e-01
-4.44431250e-08,1.82532813e-01
-4.44031250e-08,1.82471875e-01
-4.43631250e-08,1.82526563e-01
-4.43231250e-08,1.82473438e-01
-4.42831250e-08,1.82528125e-01
-4.42431250e-08,1.82468750e-01
-4.42031250e-08,1.82539063e-01
-4.41631250e-08,1.82437500e-01
-4.41231250e-08,1.82715625e-01
-4.40831250e-08,1.82948438e-01
-4.40431250e-08,1.82875000e-01
-4.40031250e-08,1.82917187e-01
-4.39631250e-08,1.82885938e-01
-4.39231250e-08,1.82912500e-01
-4.38831250e-08,1.82887500e-01
-4.38431250e-08,1.82915625e-01
-4.38031250e-08,1.82881250e-01
-4.37631250e-08,1.82928125e-01
-4.37231250e-08,1.82846875e-01
-4.36831250e-08,1.83104688e-01
-4.36431250e-08,1.83357812e-01
-4.36031250e-08,1.83265625e-01
-4.35631250e-08,1.83325000e-01
-4.35231250e-08,1.83279688e-01
-4.34831250e-08,1.83317188e-01
-4.34431250e-08,1.83284375e-01
-4.34031250e-08,1.83314063e-01
-4.33631250e-08,1.83287500e-01
-4.33231250e-08,1.83312500e-01
-4.32831250e-08,1.83287500e-01
-4.32431250e-08,1.83310937e-01
-4.32031250e-08,1.83289063e-01
-4.31631250e-08,1.83310937e-01
-4.31231250e-08,1.83289063e-01
-4.30831250e-08,1.83310937e-01
-4.30431250e-08,1.83289063e-01
-4.30031250e-08,1.83310937e-01
-4.29631250e-08,1.83289063e-01
-4.29231250e-08,1.83310937e-01
-4.28831250e-08,1.83289063e-01
-4.28431250e-08,1.83312500e-01
-4.28031250e-08,1.83287500e-01
-4.27631250e-08,1.83312500e-01
-4.27231250e-08,1.83285937e-01
-4.26831250e-08,1.83314063e-01
-4.26431250e-08,1.83284375e-01
-4.26031250e-08,1.83318750e-01
-4.25631250e-08,1.83278125e-01
-4.25231250e-08,1.83326563e-01
-4.24831250e-08,1.83264063e-01
-4.24431250e-08,1.83360938e-01
-4.24031250e-08,1.83085938e-01
-4.23631250e-08,1.82851563e-01
-4.23231250e-08,1.82925000e-01
-4.22831250e-08,1.82884375e-01
-4.22431250e-08,1.82910938e-01
-4.22031250e-08,1.82892187e-01
-4.21631250e-08,1.82906250e-01
-4.21231250e-08,1.82895313e-01
-4.20831250e-08,1.82903125e-01
-4.20431250e-08,1.82898438e-01
-4.20031250e-08,1.82901563e-01
-4.19631250e-08,1.82898438e-01
-4.19231250e-08,1.82900000e-01
-4.18831250e-08,1.82900000e-01
-4.18431250e-08,1.82900000e-01
-4.18031250e-08,1.82900000e-01
-4.17631250e-08,1.82900000e-01
-4.17231250e-08,1.82900000e-01
-4.16831250e-08,1.82900000e-01
-4.16431250e-08,1.82901563e-01
-4.16031250e-08,1.82898438e-01
-4.15631250e-08,1.82901563e-01
-4.15231250e-08,1.82898438e-01
-4.14831250e-08,1.82901563e-01
-4.14431250e-08,1.82898438e-01
-4.14031250e-08,1.82901563e-01
-4.13631250e-08,1.82898438e-01
-4.13231250e-08,1.82901563e-01
-4.12831250e-08,1.82898438e-01
-4.12431250e-08,1.82901563e-01
-4.12031250e-08,1.82898438e-01
-4.11631250e-08,1.82901563e-01
-4.11231250e-08,1.82898438e-01
-4.10831250e-08,1.82901563e-01
-4.10431250e-08,1.82898438e-01
-4.10031250e-08,1.82901563e-01
-4.09631250e-08,1.82898438e-01
-4.09231250e-08,1.82901563e-01
-4.08831250e-08,1.82898438e-01
-4.08431250e-08,1.82901563e-01
-4.08031250e-08,1.82898438e-01
-4.07631250e-08,1.82901563e-01
-4.07231250e-08,1.82898438e-01
-4.06831250e-08,1.82901563e-01
-4.06431250e-08,1.82898438e-01
-4.06031250e-08,1.82901563e-01
-4.05631250e-08,1.82898438e-01
-4.05231250e-08,1.82901563e-01
-4.04831250e-08,1.82898438e-01
-4.04431250e-08,1.82901563e-01
-4.04031250e-08,1.82900000e-01
-4.03631250e-08,1.82900000e-01
-4.03231250e-08,1.82900000e-01
-4.02831250e-08,1.82900000e-01
-4.02431250e-08,1.82900000e-01
-4.02031250e-08,1.82898438e-01
-4.01631250e-08,1.82901563e-01
-4.01231250e-08,1.82896875e-01
-4.00831250e-08,1.82903125e-01
-4.00431250e-08,1.82895313e-01
-4.00031250e-08,1.82906250e-01
-3.99631250e-08,1.82890625e-01
-3.99231250e-08,1.82914063e-01
-3.98831250e-08,1.82875000e-01
-3.98431250e-08,1.82950000e-01
-3.98031250e-08,1.82698438e-01
-3.97631250e-08,1.82440625e-01
-3.97231250e-08,1.82535937e-01
-3.96831250e-08,1.82473438e-01
-3.96431250e-08,1.82521875e-01
-3.96031250e-08,1.82479688e-01
-3.95631250e-08,1.82517188e-01
-3.95231250e-08,1.82484375e-01
-3.94831250e-08,1.82515625e-01
-3.94431250e-08,1.82485938e-01
-3.94031250e-08,1.82514063e-01
-3.93631250e-08,1.82485938e-01
-3.93231250e-08,1.82514063e-01
-3.92831250e-08,1.82485938e-01
-3.92431250e-08,1.82514063e-01
-3.92031250e-08,1.82485938e-01
-3.91631250e-08,1.82514063e-01
-3.91231250e-08,1.82485938e-01
-3.90831250e-08,1.82515625e-01
-3.90431250e-08,1.82484375e-01
-3.90031250e-08,1.82517188e-01
-3.89631250e-08,1.82481250e-01
-3.89231250e-08,1.82520313e-01
-3.88831250e-08,1.82476562e-01
-3.88431250e-08,1.82528125e-01
-3.88031250e-08,1.82462500e-01
-3.87631250e-08,1.82562500e-01
-3.87231250e-08,1.82284375e-01
-3.86831250e-08,1.82053125e-01
-3.86431250e-08,1.82121875e-01
-3.86031250e-08,1.82087500e-01
-3.85631250e-08,1.82107812e-01
-3.85231250e-08,1.82095312e-01
