trails/0bdfa5e45fec98341abdd20552c140b4/aes_ch1_20250507122432857.csv

Model,MSO66B
Label,
Waveform Type,ANALOG
Horizontal Units,s
Sample Interval,4.00000000e-11
Record Length,10000
Zero Index,1599.03515625
Vertical Units,A
ANALOG_Thumbnail,
yOffset,1.84500000e-01
yPosition,8.40000000e-01

Labels,
TIME,CH1
-6.39614062e-08,1.81698438e-01
-6.39214062e-08,1.81700000e-01
-6.38814062e-08,1.81701562e-01
-6.38414063e-08,1.81698438e-01
-6.38014062e-08,1.81703125e-01
-6.37614063e-08,1.81696875e-01
-6.37214062e-08,1.81704688e-01
-6.36814062e-08,1.81695313e-01
-6.36414062e-08,1.81706250e-01
-6.36014062e-08,1.81692188e-01
-6.35614063e-08,1.81709375e-01
-6.35214062e-08,1.81689062e-01
-6.34814063e-08,1.81712500e-01
-6.34414062e-08,1.81684375e-01
-6.34014062e-08,1.81721875e-01
-6.33614062e-08,1.81668750e-01
-6.33214062e-08,1.81756250e-01
-6.32814063e-08,1.81490625e-01
-6.32414062e-08,1.81246875e-01
-6.32014063e-08,1.81328125e-01
-6.31614062e-08,1.81281250e-01
-6.31214062e-08,1.81314063e-01
-6.30814062e-08,1.81289063e-01
-6.30414062e-08,1.81309375e-01
-6.30014063e-08,1.81292188e-01
-6.29614062e-08,1.81306250e-01
-6.29214063e-08,1.81295312e-01
-6.28814062e-08,1.81304688e-01
-6.28414062e-08,1.81296875e-01
-6.28014062e-08,1.81303125e-01
-6.27614062e-08,1.81298438e-01
-6.27214063e-08,1.81301563e-01
-6.26814062e-08,1.81298438e-01
-6.26414062e-08,1.81301563e-01
-6.26014062e-08,1.81300000e-01
-6.25614062e-08,1.81300000e-01
-6.25214062e-08,1.81300000e-01
-6.24814062e-08,1.81300000e-01
-6.24414063e-08,1.81300000e-01
-6.24014062e-08,1.81298438e-01
-6.23614062e-08,1.81301563e-01
-6.23214062e-08,1.81298438e-01
-6.22814062e-08,1.81301563e-01
-6.22414062e-08,1.81298438e-01
-6.22014062e-08,1.81301563e-01
-6.21614063e-08,1.81296875e-01
-6.21214062e-08,1.81303125e-01
-6.20814062e-08,1.81296875e-01
-6.20414062e-08,1.81303125e-01
-6.20014062e-08,1.81296875e-01
-6.19614062e-08,1.81303125e-01
-6.19214062e-08,1.81295312e-01
-6.18814063e-08,1.81304688e-01
-6.18414062e-08,1.81295312e-01
-6.18014062e-08,1.81304688e-01
-6.17614062e-08,1.81295312e-01
-6.17214062e-08,1.81306250e-01
-6.16814062e-08,1.81293750e-01
-6.16414062e-08,1.81306250e-01
-6.16014063e-08,1.81293750e-01
-6.15614062e-08,1.81307812e-01
-6.15214062e-08,1.81292188e-01
-6.14814062e-08,1.81307812e-01
-6.14414062e-08,1.81290625e-01
-6.14014062e-08,1.81309375e-01
-6.13614062e-08,1.81289063e-01
-6.13214063e-08,1.81310938e-01
-6.12814062e-08,1.81287500e-01
-6.12414062e-08,1.81314063e-01
-6.12014062e-08,1.81284375e-01
-6.11614062e-08,1.81317188e-01
-6.11214062e-08,1.81281250e-01
-6.10814062e-08,1.81323438e-01
-6.10414063e-08,1.81271875e-01
-6.10014062e-08,1.81339063e-01
-6.09614062e-08,1.81235937e-01
-6.09214062e-08,1.81518750e-01
-6.08814062e-08,1.81743750e-01
-6.08414062e-08,1.81681250e-01
-6.08014062e-08,1.81707813e-01
-6.07614063e-08,1.81700000e-01
-6.07214062e-08,1.81695313e-01
-6.06814062e-08,1.81710938e-01
-6.06414062e-08,1.81682813e-01
-6.06014062e-08,1.81729688e-01
-6.05614063e-08,1.81643750e-01
-6.05214062e-08,1.81910938e-01
-6.04814063e-08,1.82150000e-01
-6.04414062e-08,1.82075000e-01
-6.04014062e-08,1.82112500e-01
-6.03614062e-08,1.82095312e-01
-6.03214062e-08,1.82096875e-01
-6.02814063e-08,1.82115625e-01
-6.02414062e-08,1.82057812e-01
-6.02014063e-08,1.82295313e-01
-6.01614062e-08,1.82565625e-01
-6.01214062e-08,1.82457813e-01
-6.00814062e-08,1.82532813e-01
-6.00414062e-08,1.82470313e-01
-6.00014063e-08,1.82528125e-01
-5.99614062e-08,1.82470313e-01
-5.99214063e-08,1.82537500e-01
-5.98814062e-08,1.82440625e-01
-5.98414062e-08,1.82710938e-01
-5.98014062e-08,1.82953125e-01
-5.97614062e-08,1.82867188e-01
-5.97214063e-08,1.82925000e-01
-5.96814062e-08,1.82876563e-01
-5.96414063e-08,1.82925000e-01
-5.96014062e-08,1.82871875e-01
-5.95614062e-08,1.82937500e-01
-5.95214062e-08,1.82837500e-01
-5.94814062e-08,1.83115625e-01
-5.94414062e-08,1.83346875e-01
-5.94014062e-08,1.83278125e-01
-5.93614062e-08,1.83310937e-01
-5.93214062e-08,1.83295313e-01
-5.92814062e-08,1.83300000e-01
-5.92414062e-08,1.83304688e-01
-5.92014062e-08,1.83287500e-01
-5.91614062e-08,1.83323438e-01
-5.91214062e-08,1.83251563e-01
-5.90814062e-08,1.83503125e-01
-5.90414062e-08,1.83759375e-01
-5.90014062e-08,1.83665625e-01
-5.89614062e-08,1.83723438e-01
-5.89214062e-08,1.83681250e-01
-5.88814062e-08,1.83715625e-01
-5.88414062e-08,1.83687500e-01
-5.88014062e-08,1.83709375e-01
-5.87614062e-08,1.83692187e-01
-5.87214062e-08,1.83706250e-01
-5.86814062e-08,1.83695313e-01
-5.86414062e-08,1.83703125e-01
-5.86014062e-08,1.83698438e-01
-5.85614062e-08,1.83700000e-01
-5.85214062e-08,1.83701562e-01
-5.84814062e-08,1.83695313e-01
-5.84414062e-08,1.83707813e-01
-5.84014062e-08,1.83685938e-01
-5.83614062e-08,1.83723438e-01
-5.83214062e-08,1.83651563e-01
-5.82814062e-08,1.83903125e-01
-5.82414062e-08,1.84159375e-01
-5.82014062e-08,1.84065625e-01
-5.81614062e-08,1.84125000e-01
-5.81214062e-08,1.84079688e-01
-5.80814062e-08,1.84115625e-01
-5.80414062e-08,1.84085938e-01
-5.80014062e-08,1.84110938e-01
-5.79614062e-08,1.84090625e-01
-5.79214062e-08,1.84107812e-01
-5.78814062e-08,1.84093750e-01
-5.78414062e-08,1.84103125e-01
-5.78014062e-08,1.84100000e-01
-5.77614062e-08,1.84096875e-01
-5.77214062e-08,1.84107812e-01
-5.76814062e-08,1.84081250e-01
-5.76414062e-08,1.84143750e-01
-5.76014062e-08,1.83903125e-01
-5.75614062e-08,1.83634375e-01
-5.75214062e-08,1.83740625e-01
-5.74814062e-08,1.83668750e-01
-5.74414062e-08,1.83726562e-01
-5.74014062e-08,1.83676563e-01
-5.73614062e-08,1.83721875e-01
-5.73214062e-08,1.83679687e-01
-5.72814062e-08,1.83718750e-01
-5.72414062e-08,1.83681250e-01
-5.72014062e-08,1.83717188e-01
-5.71614062e-08,1.83682813e-01
-5.71214062e-08,1.83717188e-01
-5.70814062e-08,1.83684375e-01
-5.70414062e-08,1.83715625e-01
-5.70014062e-08,1.83684375e-01
-5.69614062e-08,1.83717188e-01
-5.69214062e-08,1.83682813e-01
-5.68814062e-08,1.83717188e-01
-5.68414062e-08,1.83681250e-01
-5.68014062e-08,1.83720313e-01
-5.67614062e-08,1.83678125e-01
-5.67214062e-08,1.83725000e-01
-5.66814062e-08,1.83670313e-01
-5.66414062e-08,1.83739062e-01
-5.66014062e-08,1.83635938e-01
-5.65614062e-08,1.83915625e-01
-5.65214062e-08,1.84146875e-01
-5.64814062e-08,1.84078125e-01
-5.64414062e-08,1.84112500e-01
-5.64014062e-08,1.84092188e-01
-5.63614062e-08,1.84106250e-01
-5.63214062e-08,1.84096875e-01
-5.62814062e-08,1.84101563e-01
-5.62414062e-08,1.84098438e-01
-5.62014062e-08,1.84100000e-01
-5.61614062e-08,1.84100000e-01
-5.61214062e-08,1.84100000e-01
-5.60814062e-08,1.84101563e-01
-5.60414062e-08,1.84098438e-01
-5.60014062e-08,1.84101563e-01
-5.59614062e-08,1.84098438e-01
-5.59214062e-08,1.84101563e-01
-5.58814062e-08,1.84098438e-01
-5.58414062e-08,1.84103125e-01
-5.58014062e-08,1.84096875e-01
-5.57614062e-08,1.84103125e-01
-5.57214062e-08,1.84096875e-01
-5.56814062e-08,1.84103125e-01
-5.56414062e-08,1.84096875e-01
-5.56014062e-08,1.84103125e-01
-5.55614062e-08,1.84096875e-01
-5.55214062e-08,1.84103125e-01
-5.54814062e-08,1.84096875e-01
-5.54414062e-08,1.84103125e-01
-5.54014062e-08,1.84096875e-01
-5.53614062e-08,1.84103125e-01
-5.53214062e-08,1.84096875e-01
-5.52814062e-08,1.84103125e-01
-5.52414062e-08,1.84096875e-01
-5.52014062e-08,1.84103125e-01
-5.51614062e-08,1.84096875e-01
-5.51214062e-08,1.84103125e-01
-5.50814062e-08,1.84096875e-01
-5.50414062e-08,1.84103125e-01
-5.50014062e-08,1.84096875e-01
-5.49614062e-08,1.84103125e-01
-5.49214062e-08,1.84096875e-01
-5.48814062e-08,1.84103125e-01
-5.48414062e-08,1.84096875e-01
-5.48014062e-08,1.84103125e-01
-5.47614062e-08,1.84096875e-01
-5.47214062e-08,1.84103125e-01
-5.46814062e-08,1.84096875e-01
-5.46414062e-08,1.84104688e-01
-5.46014062e-08,1.84095312e-01
-5.45614062e-08,1.84104688e-01
-5.45214062e-08,1.84095312e-01
-5.44814062e-08,1.84104688e-01
-5.44414062e-08,1.84095312e-01
-5.44014062e-08,1.84104688e-01
-5.43614062e-08,1.84095312e-01
-5.43214062e-08,1.84104688e-01
-5.42814062e-08,1.84095312e-01
-5.42414062e-08,1.84106250e-01
-5.42014062e-08,1.84093750e-01
-5.41614062e-08,1.84106250e-01
-5.41214062e-08,1.84093750e-01
-5.40814062e-08,1.84107812e-01
-5.40414062e-08,1.84092188e-01
-5.40014062e-08,1.84109375e-01
-5.39614062e-08,1.84089063e-01
-5.39214062e-08,1.84112500e-01
-5.38814062e-08,1.84084375e-01
-5.38414062e-08,1.84120312e-01
-5.38014062e-08,1.84070312e-01
-5.37614062e-08,1.84154687e-01
-5.37214062e-08,1.83892187e-01
-5.36814062e-08,1.83645313e-01
-5.36414062e-08,1.83731250e-01
-5.36014062e-08,1.83678125e-01
-5.35614062e-08,1.83717188e-01
-5.35214062e-08,1.83685938e-01
-5.34814062e-08,1.83712500e-01
-5.34414062e-08,1.83689062e-01
-5.34014062e-08,1.83710938e-01
-5.33614062e-08,1.83689062e-01
-5.33214062e-08,1.83710938e-01
-5.32814062e-08,1.83689062e-01
-5.32414062e-08,1.83710938e-01
-5.32014062e-08,1.83689062e-01
-5.31614063e-08,1.83712500e-01
-5.31214062e-08,1.83685938e-01
-5.30814062e-08,1.83715625e-01
-5.30414062e-08,1.83681250e-01
-5.30014062e-08,1.83723438e-01
-5.29614062e-08,1.83667187e-01
-5.29214062e-08,1.83757813e-01
-5.28814062e-08,1.83489062e-01
-5.28414062e-08,1.83248437e-01
-5.28014062e-08,1.83326563e-01
-5.27614062e-08,1.83282813e-01
-5.27214062e-08,1.83312500e-01
-5.26814062e-08,1.83290625e-01
-5.26414062e-08,1.83306250e-01
-5.26014062e-08,1.83295313e-01
-5.25614062e-08,1.83303125e-01
-5.25214062e-08,1.83298437e-01
-5.24814062e-08,1.83298437e-01
-5.24414062e-08,1.83303125e-01
-5.24014062e-08,1.83293750e-01
-5.23614062e-08,1.83312500e-01
-5.23214062e-08,1.83278125e-01
-5.22814062e-08,1.83346875e-01
-5.22414062e-08,1.83100000e-01
-5.22014062e-08,1.82837500e-01
-5.21614062e-08,1.82937500e-01
-5.21214062e-08,1.82871875e-01
-5.20814062e-08,1.82923438e-01
-5.20414062e-08,1.82879687e-01
-5.20014062e-08,1.82918750e-01
-5.19614062e-08,1.82882813e-01
-5.19214062e-08,1.82917187e-01
-5.18814062e-08,1.82884375e-01
-5.18414062e-08,1.82915625e-01
-5.18014062e-08,1.82884375e-01
-5.17614062e-08,1.82915625e-01
-5.17214062e-08,1.82884375e-01
-5.16814062e-08,1.82915625e-01
-5.16414062e-08,1.82884375e-01
-5.16014062e-08,1.82917187e-01
-5.15614062e-08,1.82882813e-01
-5.15214062e-08,1.82918750e-01
-5.14814062e-08,1.82879687e-01
-5.14414062e-08,1.82923438e-01
-5.14014062e-08,1.82870313e-01
-5.13614062e-08,1.82939062e-01
-5.13214062e-08,1.82835938e-01
-5.12814062e-08,1.83117188e-01
-5.12414063e-08,1.83345312e-01
-5.12014062e-08,1.83278125e-01
-5.11614062e-08,1.83312500e-01
-5.11214062e-08,1.83293750e-01
-5.10814062e-08,1.83303125e-01
-5.10414062e-08,1.83298437e-01
-5.10014062e-08,1.83298437e-01
-5.09614063e-08,1.83303125e-01
-5.09214062e-08,1.83295313e-01
-5.08814062e-08,1.83306250e-01
-5.08414062e-08,1.83292188e-01
-5.08014062e-08,1.83309375e-01
-5.07614062e-08,1.83289063e-01
-5.07214062e-08,1.83315625e-01
-5.06814062e-08,1.83279688e-01
-5.06414062e-08,1.83329688e-01
-5.06014062e-08,1.83245313e-01
-5.05614062e-08,1.83507813e-01
-5.05214062e-08,1.83753125e-01
-5.04814062e-08,1.83670313e-01
-5.04414062e-08,1.83720313e-01
-5.04014062e-08,1.83684375e-01
-5.03614062e-08,1.83712500e-01
-5.03214062e-08,1.83690625e-01
-5.02814062e-08,1.83707813e-01
-5.02414062e-08,1.83693750e-01
-5.02014062e-08,1.83706250e-01
-5.01614062e-08,1.83695313e-01
-5.01214062e-08,1.83704688e-01
-5.00814062e-08,1.83695313e-01
-5.00414062e-08,1.83703125e-01
-5.00014062e-08,1.83696875e-01
-4.99614062e-08,1.83703125e-01
-4.99214062e-08,1.83696875e-01
-4.98814062e-08,1.83701562e-01
-4.98414062e-08,1.83698438e-01
-4.98014062e-08,1.83701562e-01
-4.97614062e-08,1.83698438e-01
-4.97214062e-08,1.83701562e-01
-4.96814062e-08,1.83698438e-01
-4.96414062e-08,1.83701562e-01
-4.96014062e-08,1.83700000e-01
-4.95614062e-08,1.83700000e-01
-4.95214062e-08,1.83700000e-01
-4.94814062e-08,1.83700000e-01
-4.94414062e-08,1.83700000e-01
-4.94014062e-08,1.83700000e-01
-4.93614062e-08,1.83700000e-01
-4.93214063e-08,1.83700000e-01
-4.92814062e-08,1.83700000e-01
-4.92414062e-08,1.83698438e-01
-4.92014062e-08,1.83701562e-01
-4.91614062e-08,1.83698438e-01
-4.91214062e-08,1.83701562e-01
-4.90814062e-08,1.83698438e-01
-4.90414063e-08,1.83701562e-01
-4.90014062e-08,1.83698438e-01
-4.89614062e-08,1.83701562e-01
-4.89214062e-08,1.83698438e-01
-4.88814062e-08,1.83703125e-01
-4.88414062e-08,1.83696875e-01
-4.88014062e-08,1.83703125e-01
-4.87614063e-08,1.83696875e-01
-4.87214062e-08,1.83703125e-01
-4.86814062e-08,1.83695313e-01
-4.86414062e-08,1.83704688e-01
-4.86014062e-08,1.83695313e-01
-4.85614062e-08,1.83704688e-01
-4.85214062e-08,1.83693750e-01
-4.84814062e-08,1.83706250e-01
-4.84414062e-08,1.83692187e-01
-4.84014062e-08,1.83707813e-01
-4.83614062e-08,1.83690625e-01
-4.83214062e-08,1.83710938e-01
-4.82814062e-08,1.83687500e-01
-4.82414062e-08,1.83717188e-01
-4.82014062e-08,1.83678125e-01
-4.81614062e-08,1.83731250e-01
-4.81214062e-08,1.83643750e-01
-4.80814062e-08,1.83909375e-01
-4.80414062e-08,1.84151563e-01
-4.80014062e-08,1.84071875e-01
-4.79614062e-08,1.84118750e-01
-4.79214062e-08,1.84087500e-01
-4.78814062e-08,1.84109375e-01
-4.78414062e-08,1.84092188e-01
-4.78014062e-08,1.84106250e-01
-4.77614062e-08,1.84095312e-01
-4.77214062e-08,1.84103125e-01
-4.76814062e-08,1.84098438e-01
-4.76414062e-08,1.84100000e-01
-4.76014062e-08,1.84101563e-01
-4.75614062e-08,1.84096875e-01
-4.75214062e-08,1.84104688e-01
-4.74814062e-08,1.84092188e-01
-4.74414062e-08,1.84110938e-01
-4.74014063e-08,1.84084375e-01
-4.73614062e-08,1.84126563e-01
-4.73214062e-08,1.84048437e-01
-4.72814062e-08,1.84304688e-01
-4.72414062e-08,1.84557813e-01
-4.72014062e-08,1.84467188e-01
-4.71614062e-08,1.84523437e-01
-4.71214063e-08,1.84481250e-01
-4.70814062e-08,1.84515625e-01
-4.70414062e-08,1.84487500e-01
-4.70014062e-08,1.84510937e-01
-4.69614062e-08,1.84490625e-01
-4.69214062e-08,1.84507813e-01
-4.68814062e-08,1.84493750e-01
-4.68414063e-08,1.84504688e-01
-4.68014062e-08,1.84496875e-01
-4.67614062e-08,1.84501562e-01
-4.67214062e-08,1.84500000e-01
-4.66814062e-08,1.84498438e-01
-4.66414062e-08,1.84504688e-01
-4.66014062e-08,1.84489062e-01
-4.65614063e-08,1.84520313e-01
-4.65214062e-08,1.84454688e-01
-4.64814062e-08,1.84698438e-01
-4.64414062e-08,1.84964062e-01
-4.64014062e-08,1.84860938e-01
-4.63614062e-08,1.84929687e-01
-4.63214062e-08,1.84875000e-01
-4.62814062e-08,1.84921875e-01
-4.62414062e-08,1.84879688e-01
-4.62014062e-08,1.84918750e-01
-4.61614062e-08,1.84882812e-01
-4.61214062e-08,1.84915625e-01
-4.60814062e-08,1.84884375e-01
-4.60414062e-08,1.84914063e-01
-4.60014062e-08,1.84885938e-01
-4.59614062e-08,1.84914063e-01
-4.59214062e-08,1.84885938e-01
-4.58814062e-08,1.84914063e-01
-4.58414062e-08,1.84887500e-01
-4.58014062e-08,1.84912500e-01
-4.57614062e-08,1.84887500e-01
-4.57214062e-08,1.84912500e-01
-4.56814062e-08,1.84887500e-01
-4.56414062e-08,1.84912500e-01
-4.56014062e-08,1.84887500e-01
-4.55614062e-08,1.84912500e-01
-4.55214062e-08,1.84887500e-01
-4.54814063e-08,1.84912500e-01
-4.54414062e-08,1.84887500e-01
-4.54014062e-08,1.84912500e-01
-4.53614062e-08,1.84887500e-01
-4.53214062e-08,1.84912500e-01
-4.52814062e-08,1.84887500e-01
-4.52414062e-08,1.84912500e-01
-4.52014063e-08,1.84887500e-01
-4.51614062e-08,1.84912500e-01
-4.51214062e-08,1.84885938e-01
-4.50814062e-08,1.84914063e-01
-4.50414062e-08,1.84885938e-01
-4.50014062e-08,1.84914063e-01
-4.49614062e-08,1.84885938e-01
-4.49214063e-08,1.84914063e-01
-4.48814062e-08,1.84884375e-01
-4.48414062e-08,1.84915625e-01
-4.48014062e-08,1.84884375e-01
-4.47614062e-08,1.84915625e-01
-4.47214062e-08,1.84882812e-01
-4.46814062e-08,1.84917187e-01
-4.46414063e-08,1.84881250e-01
-4.46014062e-08,1.84918750e-01
-4.45614062e-08,1.84879688e-01
-4.45214062e-08,1.84920313e-01
-4.44814062e-08,1.84878125e-01
-4.44414062e-08,1.84923438e-01
-4.44014062e-08,1.84873438e-01
-4.43614063e-08,1.84928125e-01
-4.43214062e-08,1.84867188e-01
-4.42814062e-08,1.84939063e-01
-4.42414062e-08,1.84851563e-01
-4.42014062e-08,1.84975000e-01
-4.41614062e-08,1.84670313e-01
-4.41214062e-08,1.84468750e-01
-4.40814062e-08,1.84504688e-01
-4.40414062e-08,1.84507813e-01
-4.40014062e-08,1.84484375e-01
-4.39614062e-08,1.84525000e-01
-4.39214062e-08,1.84460938e-01
-4.38814062e-08,1.84567188e-01
-4.38414062e-08,1.84276563e-01
-4.38014062e-08,1.84064063e-01
-4.37614062e-08,1.84107812e-01
-4.37214062e-08,1.84107812e-01
-4.36814062e-08,1.84075000e-01
-4.36414062e-08,1.84154687e-01
-4.36014062e-08,1.83889063e-01
-4.35614063e-08,1.83653125e-01
-4.35214062e-08,1.83717188e-01
-4.34814062e-08,1.83698438e-01
-4.34414062e-08,1.83685938e-01
-4.34014062e-08,1.83743750e-01
-4.33614062e-08,1.83500000e-01
-4.33214062e-08,1.83242188e-01
-4.32814063e-08,1.83331250e-01
-4.32414062e-08,1.83281250e-01
-4.32014062e-08,1.83309375e-01
-4.31614062e-08,1.83300000e-01
-4.31214062e-08,1.83287500e-01
-4.30814062e-08,1.83339063e-01
-4.30414062e-08,1.83106250e-01
-4.30014063e-08,1.82832812e-01
-4.29614062e-08,1.82942188e-01
-4.29214062e-08,1.82868750e-01
-4.28814062e-08,1.82925000e-01
-4.28414062e-08,1.82878125e-01
-4.28014062e-08,1.82918750e-01
-4.27614062e-08,1.82882813e-01
-4.27214063e-08,1.82915625e-01
-4.26814062e-08,1.82885938e-01
-4.26414062e-08,1.82912500e-01
-4.26014062e-08,1.82887500e-01
-4.25614062e-08,1.82910938e-01
-4.25214062e-08,1.82890625e-01
-4.24814062e-08,1.82909375e-01
-4.24414063e-08,1.82890625e-01
-4.24014062e-08,1.82907813e-01
-4.23614062e-08,1.82892187e-01
-4.23214062e-08,1.82906250e-01
-4.22814062e-08,1.82893750e-01
-4.22414062e-08,1.82906250e-01
-4.22014062e-08,1.82893750e-01
-4.21614062e-08,1.82904687e-01
-4.21214062e-08,1.82895313e-01
-4.20814062e-08,1.82904687e-01
-4.20414062e-08,1.82896875e-01
-4.20014062e-08,1.82903125e-01
-4.19614062e-08,1.82896875e-01
-4.19214062e-08,1.82903125e-01
-4.18814062e-08,1.82898438e-01
-4.18414062e-08,1.82901563e-01
-4.18014062e-08,1.82898438e-01
-4.17614062e-08,1.82900000e-01
-4.17214062e-08,1.82900000e-01
-4.16814062e-08,1.82898438e-01
-4.16414063e-08,1.82903125e-01
-4.16014062e-08,1.82896875e-01
-4.15614062e-08,1.82904687e-01
-4.15214062e-08,1.82892187e-01
-4.14814062e-08,1.82910938e-01
-4.14414062e-08,1.82884375e-01
-4.14014062e-08,1.82925000e-01
-4.13614063e-08,1.82850000e-01
-4.13214062e-08,1.83104688e-01
-4.12814062e-08,1.83357812e-01
-4.12414062e-08,1.83265625e-01
-4.12014062e-08,1.83325000e-01
-4.11614062e-08,1.83279688e-01
-4.11214062e-08,1.83317188e-01
-4.10814063e-08,1.83285937e-01
-4.10414062e-08,1.83312500e-01
-4.10014062e-08,1.83287500e-01
-4.09614062e-08,1.83310937e-01
-4.09214062e-08,1.83290625e-01
-4.08814062e-08,1.83309375e-01
-4.08414062e-08,1.83290625e-01
-4.08014063e-08,1.83307813e-01
-4.07614062e-08,1.83292188e-01
-4.07214062e-08,1.83307813e-01
-4.06814062e-08,1.83292188e-01
-4.06414062e-08,1.83307813e-01
-4.06014062e-08,1.83293750e-01
-4.05614062e-08,1.83306250e-01
-4.05214063e-08,1.83293750e-01
-4.04814062e-08,1.83306250e-01
-4.04414062e-08,1.83293750e-01
-4.04014062e-08,1.83306250e-01
-4.03614062e-08,1.83293750e-01
-4.03214062e-08,1.83306250e-01
-4.02814062e-08,1.83293750e-01
-4.02414063e-08,1.83304688e-01
-4.02014062e-08,1.83295313e-01
-4.01614062e-08,1.83304688e-01
-4.01214062e-08,1.83295313e-01
-4.00814062e-08,1.83304688e-01
-4.00414062e-08,1.83295313e-01
-4.00014062e-08,1.83304688e-01
-3.99614062e-08,1.83295313e-01
-3.99214062e-08,1.83304688e-01
-3.98814062e-08,1.83295313e-01
-3.98414062e-08,1.83304688e-01
-3.98014062e-08,1.83295313e-01
-3.97614062e-08,1.83304688e-01
-3.97214063e-08,1.83295313e-01
-3.96814062e-08,1.83304688e-01
-3.96414062e-08,1.83295313e-01
-3.96014062e-08,1.83304688e-01
-3.95614062e-08,1.83295313e-01
-3.95214062e-08,1.83304688e-01
-3.94814062e-08,1.83295313e-01
-3.94414063e-08,1.83304688e-01
-3.94014062e-08,1.83295313e-01
-3.93614062e-08,1.83304688e-01
-3.93214062e-08,1.83295313e-01
-3.92814062e-08,1.83304688e-01
-3.92414062e-08,1.83295313e-01
-3.92014062e-08,1.83304688e-01
-3.91614063e-08,1.83295313e-01
-3.91214062e-08,1.83304688e-01
-3.90814062e-08,1.83295313e-01
-3.90414062e-08,1.83304688e-01
-3.90014062e-08,1.83295313e-01
-3.89614062e-08,1.83304688e-01
-3.89214062e-08,1.83295313e-01
-3.88814063e-08,1.83304688e-01
-3.88414062e-08,1.83295313e-01
-3.88014062e-08,1.83304688e-01
-3.87614062e-08,1.83295313e-01
-3.87214062e-08,1.83304688e-01
-3.86814062e-08,1.83295313e-01
-3.86414062e-08,1.83306250e-01
-3.86014063e-08,1.83293750e-01
-3.85614062e-08,1.83306250e-01
-3.85214062e-08,1.83293750e-01
