trails/0bdfa5e45fec98341abdd20552c140b4/aes_ch1_20250507120853626.csv

Model,MSO66B
Label,
Waveform Type,ANALOG
Horizontal Units,s
Sample Interval,4.00000000e-11
Record Length,10000
Zero Index,1599.07421875
Vertical Units,A
ANALOG_Thumbnail,
yOffset,1.84500000e-01
yPosition,8.40000000e-01

Labels,
TIME,CH1
-6.39629687e-08,1.93709375e-01
-6.39229688e-08,1.93693750e-01
-6.38829687e-08,1.93704688e-01
-6.38429687e-08,1.93696875e-01
-6.38029687e-08,1.93701563e-01
-6.37629687e-08,1.93698438e-01
-6.37229688e-08,1.93700000e-01
-6.36829687e-08,1.93700000e-01
-6.36429688e-08,1.93700000e-01
-6.36029687e-08,1.93701563e-01
-6.35629687e-08,1.93698438e-01
-6.35229687e-08,1.93701563e-01
-6.34829687e-08,1.93698438e-01
-6.34429688e-08,1.93701563e-01
-6.34029687e-08,1.93696875e-01
-6.33629688e-08,1.93703125e-01
-6.33229687e-08,1.93696875e-01
-6.32829687e-08,1.93703125e-01
-6.32429687e-08,1.93696875e-01
-6.32029687e-08,1.93703125e-01
-6.31629688e-08,1.93696875e-01
-6.31229687e-08,1.93703125e-01
-6.30829688e-08,1.93696875e-01
-6.30429687e-08,1.93704688e-01
-6.30029687e-08,1.93695312e-01
-6.29629687e-08,1.93704688e-01
-6.29229687e-08,1.93695312e-01
-6.28829688e-08,1.93704688e-01
-6.28429687e-08,1.93695312e-01
-6.28029688e-08,1.93704688e-01
-6.27629687e-08,1.93695312e-01
-6.27229687e-08,1.93704688e-01
-6.26829687e-08,1.93695312e-01
-6.26429687e-08,1.93706250e-01
-6.26029688e-08,1.93693750e-01
-6.25629687e-08,1.93706250e-01
-6.25229688e-08,1.93693750e-01
-6.24829687e-08,1.93706250e-01
-6.24429687e-08,1.93693750e-01
-6.24029687e-08,1.93706250e-01
-6.23629687e-08,1.93693750e-01
-6.23229688e-08,1.93707813e-01
-6.22829687e-08,1.93692188e-01
-6.22429688e-08,1.93707813e-01
-6.22029687e-08,1.93692188e-01
-6.21629687e-08,1.93707813e-01
-6.21229687e-08,1.93692188e-01
-6.20829687e-08,1.93709375e-01
-6.20429688e-08,1.93690625e-01
-6.20029687e-08,1.93709375e-01
-6.19629688e-08,1.93690625e-01
-6.19229687e-08,1.93710938e-01
-6.18829687e-08,1.93689063e-01
-6.18429687e-08,1.93712500e-01
-6.18029687e-08,1.93687500e-01
-6.17629688e-08,1.93714063e-01
-6.17229687e-08,1.93685938e-01
-6.16829687e-08,1.93715625e-01
-6.16429687e-08,1.93682812e-01
-6.16029687e-08,1.93718750e-01
-6.15629687e-08,1.93678125e-01
-6.15229687e-08,1.93725000e-01
-6.14829688e-08,1.93670312e-01
-6.14429687e-08,1.93740625e-01
-6.14029687e-08,1.93634375e-01
-6.13629687e-08,1.93918750e-01
-6.13229687e-08,1.94142188e-01
-6.12829687e-08,1.94082813e-01
-6.12429687e-08,1.94107813e-01
-6.12029688e-08,1.94098437e-01
-6.11629687e-08,1.94096875e-01
-6.11229687e-08,1.94107813e-01
-6.10829687e-08,1.94089063e-01
-6.10429687e-08,1.94115625e-01
-6.10029687e-08,1.94078125e-01
-6.09629687e-08,1.94132813e-01
-6.09229688e-08,1.94040625e-01
-6.08829687e-08,1.94314062e-01
-6.08429687e-08,1.94546875e-01
-6.08029687e-08,1.94478125e-01
-6.07629687e-08,1.94510938e-01
-6.07229687e-08,1.94495313e-01
-6.06829687e-08,1.94498438e-01
-6.06429688e-08,1.94507813e-01
-6.06029687e-08,1.94485938e-01
-6.05629687e-08,1.94525000e-01
-6.05229687e-08,1.94448438e-01
-6.04829687e-08,1.94706250e-01
-6.04429687e-08,1.94954688e-01
-6.04029687e-08,1.94870313e-01
-6.03629688e-08,1.94917188e-01
-6.03229687e-08,1.94889063e-01
-6.02829687e-08,1.94906250e-01
-6.02429687e-08,1.94900000e-01
-6.02029687e-08,1.94893750e-01
-6.01629687e-08,1.94917188e-01
-6.01229687e-08,1.94856250e-01
-6.00829688e-08,1.95098437e-01
-6.00429687e-08,1.95364063e-01
-6.00029687e-08,1.95260938e-01
-5.99629687e-08,1.95329688e-01
-5.99229687e-08,1.95276563e-01
-5.98829688e-08,1.95320313e-01
-5.98429687e-08,1.95282813e-01
-5.98029688e-08,1.95315625e-01
-5.97629687e-08,1.95285938e-01
-5.97229687e-08,1.95312500e-01
-5.96829687e-08,1.95287500e-01
-5.96429687e-08,1.95310938e-01
-5.96029687e-08,1.95289062e-01
-5.95629687e-08,1.95309375e-01
-5.95229687e-08,1.95290625e-01
-5.94829687e-08,1.95309375e-01
-5.94429687e-08,1.95292188e-01
-5.94029687e-08,1.95307813e-01
-5.93629687e-08,1.95292188e-01
-5.93229687e-08,1.95307813e-01
-5.92829687e-08,1.95292188e-01
-5.92429687e-08,1.95307813e-01
-5.92029687e-08,1.95293750e-01
-5.91629687e-08,1.95306250e-01
-5.91229687e-08,1.95293750e-01
-5.90829687e-08,1.95306250e-01
-5.90429687e-08,1.95293750e-01
-5.90029687e-08,1.95306250e-01
-5.89629687e-08,1.95293750e-01
-5.89229687e-08,1.95306250e-01
-5.88829687e-08,1.95293750e-01
-5.88429687e-08,1.95306250e-01
-5.88029687e-08,1.95293750e-01
-5.87629687e-08,1.95306250e-01
-5.87229687e-08,1.95293750e-01
-5.86829687e-08,1.95307813e-01
-5.86429687e-08,1.95292188e-01
-5.86029687e-08,1.95309375e-01
-5.85629687e-08,1.95290625e-01
-5.85229687e-08,1.95310938e-01
-5.84829687e-08,1.95285938e-01
-5.84429687e-08,1.95318750e-01
-5.84029687e-08,1.95271875e-01
-5.83629687e-08,1.95353125e-01
-5.83229687e-08,1.95093750e-01
-5.82829687e-08,1.94843750e-01
-5.82429687e-08,1.94934375e-01
-5.82029687e-08,1.94875000e-01
-5.81629687e-08,1.94920312e-01
-5.81229687e-08,1.94881250e-01
-5.80829687e-08,1.94917188e-01
-5.80429687e-08,1.94882813e-01
-5.80029687e-08,1.94917188e-01
-5.79629687e-08,1.94882813e-01
-5.79229687e-08,1.94918750e-01
-5.78829687e-08,1.94878125e-01
-5.78429687e-08,1.94926563e-01
-5.78029687e-08,1.94864063e-01
-5.77629687e-08,1.94960938e-01
-5.77229687e-08,1.94685938e-01
-5.76829687e-08,1.94451563e-01
-5.76429687e-08,1.94525000e-01
-5.76029687e-08,1.94484375e-01
-5.75629687e-08,1.94509375e-01
-5.75229687e-08,1.94493750e-01
-5.74829687e-08,1.94504687e-01
-5.74429687e-08,1.94496875e-01
-5.74029687e-08,1.94501563e-01
-5.73629687e-08,1.94500000e-01
-5.73229687e-08,1.94498438e-01
-5.72829687e-08,1.94503125e-01
-5.72429687e-08,1.94495313e-01
-5.72029687e-08,1.94506250e-01
-5.71629687e-08,1.94492187e-01
-5.71229687e-08,1.94510938e-01
-5.70829687e-08,1.94485938e-01
-5.70429687e-08,1.94518750e-01
-5.70029687e-08,1.94470313e-01
-5.69629687e-08,1.94554688e-01
-5.69229687e-08,1.94292188e-01
-5.68829687e-08,1.94045313e-01
-5.68429687e-08,1.94129688e-01
-5.68029687e-08,1.94079688e-01
-5.67629687e-08,1.94114063e-01
-5.67229687e-08,1.94089063e-01
-5.66829687e-08,1.94109375e-01
-5.66429687e-08,1.94093750e-01
-5.66029687e-08,1.94104688e-01
-5.65629687e-08,1.94096875e-01
-5.65229687e-08,1.94101563e-01
-5.64829687e-08,1.94100000e-01
-5.64429687e-08,1.94098437e-01
-5.64029687e-08,1.94104688e-01
-5.63629687e-08,1.94092188e-01
-5.63229687e-08,1.94114063e-01
-5.62829687e-08,1.94076562e-01
-5.62429687e-08,1.94148437e-01
-5.62029687e-08,1.93898438e-01
-5.61629687e-08,1.93640625e-01
-5.61229687e-08,1.93735938e-01
-5.60829687e-08,1.93673438e-01
-5.60429687e-08,1.93720313e-01
-5.60029687e-08,1.93682812e-01
-5.59629687e-08,1.93715625e-01
-5.59229687e-08,1.93685938e-01
-5.58829687e-08,1.93712500e-01
-5.58429687e-08,1.93689063e-01
-5.58029687e-08,1.93710938e-01
-5.57629687e-08,1.93690625e-01
-5.57229687e-08,1.93709375e-01
-5.56829687e-08,1.93690625e-01
-5.56429687e-08,1.93707813e-01
-5.56029687e-08,1.93692188e-01
-5.55629687e-08,1.93707813e-01
-5.55229687e-08,1.93693750e-01
-5.54829687e-08,1.93706250e-01
-5.54429687e-08,1.93693750e-01
-5.54029687e-08,1.93706250e-01
-5.53629687e-08,1.93695312e-01
-5.53229687e-08,1.93704688e-01
-5.52829687e-08,1.93695312e-01
-5.52429687e-08,1.93703125e-01
-5.52029687e-08,1.93696875e-01
-5.51629687e-08,1.93703125e-01
-5.51229687e-08,1.93698438e-01
-5.50829687e-08,1.93700000e-01
-5.50429687e-08,1.93701563e-01
-5.50029687e-08,1.93696875e-01
-5.49629687e-08,1.93706250e-01
-5.49229687e-08,1.93689063e-01
-5.48829687e-08,1.93720313e-01
-5.48429687e-08,1.93654688e-01
-5.48029687e-08,1.93898438e-01
-5.47629687e-08,1.94164063e-01
-5.47229687e-08,1.94059375e-01
-5.46829687e-08,1.94131250e-01
-5.46429687e-08,1.94073438e-01
-5.46029687e-08,1.94125000e-01
-5.45629687e-08,1.94076562e-01
-5.45229687e-08,1.94121875e-01
-5.44829687e-08,1.94078125e-01
-5.44429687e-08,1.94121875e-01
-5.44029687e-08,1.94078125e-01
-5.43629687e-08,1.94123437e-01
-5.43229687e-08,1.94075000e-01
-5.42829687e-08,1.94128125e-01
-5.42429687e-08,1.94067188e-01
-5.42029687e-08,1.94142188e-01
-5.41629687e-08,1.94032813e-01
-5.41229687e-08,1.94320313e-01
-5.40829687e-08,1.94542188e-01
-5.40429687e-08,1.94481250e-01
-5.40029687e-08,1.94509375e-01
-5.39629687e-08,1.94495313e-01
-5.39229687e-08,1.94501563e-01
-5.38829687e-08,1.94501563e-01
-5.38429687e-08,1.94496875e-01
-5.38029687e-08,1.94504687e-01
-5.37629687e-08,1.94495313e-01
-5.37229687e-08,1.94506250e-01
-5.36829687e-08,1.94492187e-01
-5.36429687e-08,1.94507813e-01
-5.36029687e-08,1.94490625e-01
-5.35629687e-08,1.94510938e-01
-5.35229687e-08,1.94487500e-01
-5.34829687e-08,1.94514063e-01
-5.34429687e-08,1.94482813e-01
-5.34029687e-08,1.94520313e-01
-5.33629687e-08,1.94475000e-01
-5.33229687e-08,1.94535938e-01
-5.32829687e-08,1.94439063e-01
-5.32429687e-08,1.94714063e-01
-5.32029687e-08,1.94946875e-01
-5.31629687e-08,1.94876563e-01
-5.31229687e-08,1.94912500e-01
-5.30829687e-08,1.94893750e-01
-5.30429687e-08,1.94903125e-01
-5.30029687e-08,1.94900000e-01
-5.29629687e-08,1.94896875e-01
-5.29229687e-08,1.94906250e-01
-5.28829687e-08,1.94889063e-01
-5.28429687e-08,1.94917188e-01
-5.28029687e-08,1.94873437e-01
-5.27629687e-08,1.94953125e-01
-5.27229687e-08,1.94693750e-01
-5.26829687e-08,1.94445313e-01
-5.26429687e-08,1.94531250e-01
-5.26029687e-08,1.94478125e-01
-5.25629687e-08,1.94515625e-01
-5.25229687e-08,1.94487500e-01
-5.24829687e-08,1.94509375e-01
-5.24429687e-08,1.94492187e-01
-5.24029687e-08,1.94506250e-01
-5.23629687e-08,1.94496875e-01
-5.23229687e-08,1.94501563e-01
-5.22829687e-08,1.94500000e-01
-5.22429687e-08,1.94498438e-01
-5.22029688e-08,1.94504687e-01
-5.21629687e-08,1.94492187e-01
-5.21229687e-08,1.94512500e-01
-5.20829687e-08,1.94476563e-01
-5.20429687e-08,1.94548438e-01
-5.20029687e-08,1.94298438e-01
-5.19629687e-08,1.94039062e-01
-5.19229687e-08,1.94135938e-01
-5.18829687e-08,1.94073438e-01
-5.18429687e-08,1.94121875e-01
-5.18029687e-08,1.94081250e-01
-5.17629687e-08,1.94115625e-01
-5.17229687e-08,1.94085937e-01
-5.16829687e-08,1.94114063e-01
-5.16429687e-08,1.94087500e-01
-5.16029687e-08,1.94110937e-01
-5.15629687e-08,1.94089063e-01
-5.15229687e-08,1.94110937e-01
-5.14829687e-08,1.94090625e-01
-5.14429687e-08,1.94109375e-01
-5.14029687e-08,1.94090625e-01
-5.13629687e-08,1.94109375e-01
-5.13229687e-08,1.94092188e-01
-5.12829687e-08,1.94107813e-01
-5.12429687e-08,1.94092188e-01
-5.12029687e-08,1.94107813e-01
-5.11629687e-08,1.94092188e-01
-5.11229687e-08,1.94106250e-01
-5.10829687e-08,1.94093750e-01
-5.10429687e-08,1.94106250e-01
-5.10029687e-08,1.94093750e-01
-5.09629687e-08,1.94104688e-01
-5.09229687e-08,1.94095313e-01
-5.08829687e-08,1.94104688e-01
-5.08429687e-08,1.94096875e-01
-5.08029687e-08,1.94103125e-01
-5.07629687e-08,1.94098437e-01
-5.07229687e-08,1.94100000e-01
-5.06829687e-08,1.94103125e-01
-5.06429687e-08,1.94092188e-01
-5.06029687e-08,1.94117188e-01
-5.05629687e-08,1.94057813e-01
-5.05229687e-08,1.94293750e-01
-5.04829687e-08,1.94568750e-01
-5.04429687e-08,1.94454688e-01
-5.04029687e-08,1.94537500e-01
-5.03629687e-08,1.94465625e-01
-5.03229687e-08,1.94532813e-01
-5.02829688e-08,1.94467187e-01
-5.02429687e-08,1.94534375e-01
-5.02029687e-08,1.94460938e-01
-5.01629687e-08,1.94546875e-01
-5.01229687e-08,1.94428125e-01
-5.00829687e-08,1.94725000e-01
-5.00429687e-08,1.94937500e-01
-5.00029688e-08,1.94885937e-01
-4.99629687e-08,1.94904688e-01
-4.99229687e-08,1.94901563e-01
-4.98829687e-08,1.94895313e-01
-4.98429687e-08,1.94907812e-01
-4.98029687e-08,1.94890625e-01
-4.97629687e-08,1.94912500e-01
-4.97229687e-08,1.94884375e-01
-4.96829687e-08,1.94918750e-01
-4.96429687e-08,1.94875000e-01
-4.96029687e-08,1.94934375e-01
-4.95629687e-08,1.94839062e-01
-4.95229687e-08,1.95114063e-01
-4.94829687e-08,1.95348437e-01
-4.94429687e-08,1.95276563e-01
-4.94029687e-08,1.95314062e-01
-4.93629687e-08,1.95292188e-01
-4.93229687e-08,1.95304688e-01
-4.92829687e-08,1.95296875e-01
-4.92429687e-08,1.95300000e-01
-4.92029687e-08,1.95301562e-01
-4.91629687e-08,1.95296875e-01
-4.91229687e-08,1.95304688e-01
-4.90829687e-08,1.95293750e-01
-4.90429687e-08,1.95307813e-01
-4.90029687e-08,1.95290625e-01
-4.89629687e-08,1.95312500e-01
-4.89229687e-08,1.95284375e-01
-4.88829687e-08,1.95320313e-01
-4.88429687e-08,1.95268750e-01
-4.88029687e-08,1.95356250e-01
-4.87629687e-08,1.95090625e-01
-4.87229687e-08,1.94846875e-01
-4.86829687e-08,1.94928125e-01
-4.86429688e-08,1.94881250e-01
-4.86029687e-08,1.94914063e-01
-4.85629687e-08,1.94889063e-01
-4.85229687e-08,1.94907812e-01
-4.84829687e-08,1.94893750e-01
-4.84429687e-08,1.94904688e-01
-4.84029687e-08,1.94895313e-01
-4.83629688e-08,1.94903125e-01
-4.83229687e-08,1.94896875e-01
-4.82829687e-08,1.94901563e-01
-4.82429687e-08,1.94898438e-01
-4.82029687e-08,1.94901563e-01
-4.81629687e-08,1.94900000e-01
-4.81229687e-08,1.94900000e-01
-4.80829688e-08,1.94900000e-01
-4.80429687e-08,1.94898438e-01
-4.80029687e-08,1.94901563e-01
-4.79629687e-08,1.94898438e-01
-4.79229687e-08,1.94901563e-01
-4.78829687e-08,1.94898438e-01
-4.78429687e-08,1.94903125e-01
-4.78029687e-08,1.94896875e-01
-4.77629687e-08,1.94903125e-01
-4.77229687e-08,1.94896875e-01
-4.76829687e-08,1.94904688e-01
-4.76429687e-08,1.94895313e-01
-4.76029687e-08,1.94904688e-01
-4.75629687e-08,1.94893750e-01
-4.75229687e-08,1.94906250e-01
-4.74829687e-08,1.94893750e-01
-4.74429687e-08,1.94907812e-01
-4.74029687e-08,1.94892188e-01
-4.73629687e-08,1.94909375e-01
-4.73229687e-08,1.94889063e-01
-4.72829687e-08,1.94912500e-01
-4.72429687e-08,1.94885937e-01
-4.72029687e-08,1.94915625e-01
-4.71629687e-08,1.94879688e-01
-4.71229687e-08,1.94925000e-01
-4.70829687e-08,1.94864063e-01
-4.70429687e-08,1.94960938e-01
-4.70029687e-08,1.94684375e-01
-4.69629687e-08,1.94453125e-01
-4.69229687e-08,1.94520313e-01
-4.68829687e-08,1.94490625e-01
-4.68429687e-08,1.94501563e-01
-4.68029687e-08,1.94506250e-01
-4.67629687e-08,1.94482813e-01
-4.67229688e-08,1.94542188e-01
-4.66829687e-08,1.94303125e-01
-4.66429687e-08,1.94034375e-01
-4.66029687e-08,1.94143750e-01
-4.65629687e-08,1.94064062e-01
-4.65229687e-08,1.94135938e-01
-4.64829687e-08,1.94059375e-01
-4.64429688e-08,1.94162500e-01
-4.64029687e-08,1.93885937e-01
-4.63629687e-08,1.93648437e-01
-4.63229687e-08,1.93729687e-01
-4.62829687e-08,1.93678125e-01
-4.62429687e-08,1.93720313e-01
-4.62029687e-08,1.93679688e-01
-4.61629688e-08,1.93725000e-01
-4.61229687e-08,1.93667188e-01
-4.60829687e-08,1.93757813e-01
-4.60429687e-08,1.93490625e-01
-4.60029687e-08,1.93246875e-01
-4.59629687e-08,1.93329688e-01
-4.59229687e-08,1.93279688e-01
-4.58829688e-08,1.93315625e-01
-4.58429687e-08,1.93285938e-01
-4.58029687e-08,1.93312500e-01
-4.57629687e-08,1.93287500e-01
-4.57229687e-08,1.93314062e-01
-4.56829687e-08,1.93281250e-01
-4.56429687e-08,1.93326563e-01
-4.56029687e-08,1.93250000e-01
-4.55629687e-08,1.93501563e-01
-4.55229687e-08,1.93762500e-01
-4.54829687e-08,1.93659375e-01
-4.54429687e-08,1.93734375e-01
-4.54029687e-08,1.93668750e-01
-4.53629687e-08,1.93732813e-01
-4.53229687e-08,1.93662500e-01
-4.52829687e-08,1.93746875e-01
-4.52429687e-08,1.93628125e-01
-4.52029687e-08,1.93926563e-01
-4.51629687e-08,1.94134375e-01
-4.51229687e-08,1.94092188e-01
-4.50829687e-08,1.94092188e-01
-4.50429687e-08,1.94123437e-01
-4.50029687e-08,1.94048438e-01
-4.49629687e-08,1.94307813e-01
-4.49229687e-08,1.94551562e-01
-4.48829687e-08,1.94476563e-01
-4.48429687e-08,1.94509375e-01
-4.48029688e-08,1.94506250e-01
-4.47629687e-08,1.94467187e-01
-4.47229687e-08,1.94687500e-01
-4.46829687e-08,1.94973438e-01
-4.46429687e-08,1.94850000e-01
-4.46029687e-08,1.94942188e-01
-4.45629687e-08,1.94859375e-01
-4.45229688e-08,1.94946875e-01
-4.44829687e-08,1.94831250e-01
-4.44429687e-08,1.95118750e-01
-4.44029687e-08,1.95345313e-01
-4.43629687e-08,1.95276563e-01
-4.43229687e-08,1.95315625e-01
-4.42829687e-08,1.95287500e-01
-4.42429688e-08,1.95312500e-01
-4.42029687e-08,1.95287500e-01
-4.41629687e-08,1.95312500e-01
-4.41229687e-08,1.95285938e-01
-4.40829687e-08,1.95317188e-01
-4.40429687e-08,1.95276563e-01
-4.40029687e-08,1.95332813e-01
-4.39629688e-08,1.95242187e-01
-4.39229687e-08,1.95512500e-01
-4.38829687e-08,1.95750000e-01
-4.38429687e-08,1.95675000e-01
-4.38029687e-08,1.95714063e-01
-4.37629687e-08,1.95693750e-01
-4.37229687e-08,1.95700000e-01
-4.36829688e-08,1.95707813e-01
-4.36429687e-08,1.95681250e-01
-4.36029687e-08,1.95743750e-01
-4.35629687e-08,1.95501563e-01
-4.35229687e-08,1.95237500e-01
-4.34829687e-08,1.95339062e-01
-4.34429687e-08,1.95271875e-01
-4.34029687e-08,1.95323438e-01
-4.33629687e-08,1.95281250e-01
-4.33229687e-08,1.95317188e-01
-4.32829687e-08,1.95285938e-01
-4.32429687e-08,1.95312500e-01
-4.32029687e-08,1.95287500e-01
-4.31629687e-08,1.95310938e-01
-4.31229687e-08,1.95290625e-01
-4.30829687e-08,1.95307813e-01
-4.30429687e-08,1.95292188e-01
-4.30029687e-08,1.95306250e-01
-4.29629687e-08,1.95295313e-01
-4.29229687e-08,1.95304688e-01
-4.28829688e-08,1.95296875e-01
-4.28429687e-08,1.95301562e-01
-4.28029687e-08,1.95301562e-01
-4.27629687e-08,1.95295313e-01
-4.27229687e-08,1.95309375e-01
-4.26829687e-08,1.95279688e-01
-4.26429687e-08,1.95345313e-01
-4.26029688e-08,1.95101562e-01
-4.25629687e-08,1.94835938e-01
-4.25229687e-08,1.94940625e-01
-4.24829687e-08,1.94868750e-01
-4.24429687e-08,1.94925000e-01
-4.24029687e-08,1.94878125e-01
-4.23629687e-08,1.94920312e-01
-4.23229688e-08,1.94881250e-01
-4.22829687e-08,1.94917188e-01
-4.22429687e-08,1.94882813e-01
-4.22029687e-08,1.94915625e-01
-4.21629687e-08,1.94884375e-01
-4.21229687e-08,1.94915625e-01
-4.20829687e-08,1.94884375e-01
-4.20429688e-08,1.94915625e-01
-4.20029687e-08,1.94884375e-01
-4.19629687e-08,1.94915625e-01
-4.19229687e-08,1.94884375e-01
-4.18829687e-08,1.94915625e-01
-4.18429687e-08,1.94884375e-01
-4.18029687e-08,1.94915625e-01
-4.17629688e-08,1.94882813e-01
-4.17229687e-08,1.94917188e-01
-4.16829687e-08,1.94881250e-01
-4.16429687e-08,1.94920312e-01
-4.16029687e-08,1.94876563e-01
-4.15629687e-08,1.94928125e-01
-4.15229687e-08,1.94860937e-01
-4.14829688e-08,1.94962500e-01
-4.14429687e-08,1.94684375e-01
-4.14029687e-08,1.94453125e-01
-4.13629687e-08,1.94521875e-01
-4.13229687e-08,1.94487500e-01
-4.12829687e-08,1.94507813e-01
-4.12429687e-08,1.94495313e-01
-4.12029687e-08,1.94503125e-01
-4.11629687e-08,1.94498438e-01
-4.11229687e-08,1.94500000e-01
-4.10829687e-08,1.94500000e-01
-4.10429687e-08,1.94498438e-01
-4.10029687e-08,1.94501563e-01
-4.09629688e-08,1.94498438e-01
-4.09229687e-08,1.94503125e-01
-4.08829687e-08,1.94496875e-01
-4.08429687e-08,1.94503125e-01
-4.08029687e-08,1.94496875e-01
-4.07629687e-08,1.94504687e-01
-4.07229687e-08,1.94495313e-01
-4.06829688e-08,1.94504687e-01
-4.06429687e-08,1.94493750e-01
-4.06029687e-08,1.94506250e-01
-4.05629687e-08,1.94492187e-01
-4.05229687e-08,1.94509375e-01
-4.04829687e-08,1.94489063e-01
-4.04429687e-08,1.94514063e-01
-4.04029688e-08,1.94481250e-01
-4.03629687e-08,1.94528125e-01
-4.03229687e-08,1.94446875e-01
-4.02829687e-08,1.94706250e-01
-4.02429687e-08,1.94957812e-01
-4.02029687e-08,1.94865625e-01
-4.01629687e-08,1.94925000e-01
-4.01229688e-08,1.94878125e-01
-4.00829687e-08,1.94918750e-01
-4.00429687e-08,1.94881250e-01
-4.00029687e-08,1.94918750e-01
-3.99629687e-08,1.94878125e-01
-3.99229687e-08,1.94925000e-01
-3.98829687e-08,1.94865625e-01
-3.98429688e-08,1.94959375e-01
-3.98029687e-08,1.94687500e-01
-3.97629687e-08,1.94448438e-01
-3.97229687e-08,1.94526562e-01
-3.96829687e-08,1.94481250e-01
-3.96429687e-08,1.94512500e-01
-3.96029687e-08,1.94489063e-01
-3.95629688e-08,1.94507813e-01
-3.95229687e-08,1.94493750e-01
-3.94829687e-08,1.94506250e-01
-3.94429687e-08,1.94495313e-01
-3.94029687e-08,1.94504687e-01
-3.93629687e-08,1.94496875e-01
-3.93229687e-08,1.94503125e-01
-3.92829688e-08,1.94498438e-01
-3.92429687e-08,1.94501563e-01
-3.92029687e-08,1.94500000e-01
-3.91629687e-08,1.94498438e-01
-3.91229687e-08,1.94501563e-01
-3.90829687e-08,1.94496875e-01
-3.90429688e-08,1.94506250e-01
-3.90029687e-08,1.94490625e-01
-3.89629687e-08,1.94514063e-01
-3.89229687e-08,1.94476563e-01
-3.88829687e-08,1.94548438e-01
-3.88429687e-08,1.94298438e-01
-3.88029687e-08,1.94039062e-01
-3.87629688e-08,1.94137500e-01
-3.87229687e-08,1.94071875e-01
-3.86829687e-08,1.94123437e-01
-3.86429687e-08,1.94079688e-01
-3.86029687e-08,1.94118750e-01
-3.85629687e-08,1.94082813e-01
-3.85229687e-08,1.94115625e-01
