trails/0bdfa5e45fec98341abdd20552c140b4/aes_ch1_20250507122758759.csv

Model,MSO66B
Label,
Waveform Type,ANALOG
Horizontal Units,s
Sample Interval,4.00000000e-11
Record Length,10000
Zero Index,1599.10156250
Vertical Units,A
ANALOG_Thumbnail,
yOffset,1.84500000e-01
yPosition,8.40000000e-01

Labels,
TIME,CH1
-6.39640625e-08,1.95356250e-01
-6.39240625e-08,1.95267187e-01
-6.38840625e-08,1.95323438e-01
-6.38440625e-08,1.95281250e-01
-6.38040625e-08,1.95315625e-01
-6.37640625e-08,1.95287500e-01
-6.37240625e-08,1.95310938e-01
-6.36840625e-08,1.95289062e-01
-6.36440625e-08,1.95309375e-01
-6.36040625e-08,1.95290625e-01
-6.35640625e-08,1.95307813e-01
-6.35240625e-08,1.95292188e-01
-6.34840625e-08,1.95307813e-01
-6.34440625e-08,1.95292188e-01
-6.34040625e-08,1.95307813e-01
-6.33640625e-08,1.95293750e-01
-6.33240625e-08,1.95306250e-01
-6.32840625e-08,1.95293750e-01
-6.32440625e-08,1.95306250e-01
-6.32040625e-08,1.95293750e-01
-6.31640625e-08,1.95306250e-01
-6.31240625e-08,1.95293750e-01
-6.30840625e-08,1.95306250e-01
-6.30440625e-08,1.95293750e-01
-6.30040625e-08,1.95306250e-01
-6.29640625e-08,1.95293750e-01
-6.29240625e-08,1.95306250e-01
-6.28840625e-08,1.95293750e-01
-6.28440625e-08,1.95306250e-01
-6.28040625e-08,1.95293750e-01
-6.27640625e-08,1.95306250e-01
-6.27240625e-08,1.95293750e-01
-6.26840625e-08,1.95304688e-01
-6.26440625e-08,1.95295313e-01
-6.26040625e-08,1.95304688e-01
-6.25640625e-08,1.95295313e-01
-6.25240625e-08,1.95304688e-01
-6.24840625e-08,1.95293750e-01
-6.24440625e-08,1.95306250e-01
-6.24040625e-08,1.95293750e-01
-6.23640625e-08,1.95306250e-01
-6.23240625e-08,1.95293750e-01
-6.22840625e-08,1.95306250e-01
-6.22440625e-08,1.95293750e-01
-6.22040625e-08,1.95306250e-01
-6.21640625e-08,1.95293750e-01
-6.21240625e-08,1.95306250e-01
-6.20840625e-08,1.95293750e-01
-6.20440625e-08,1.95306250e-01
-6.20040625e-08,1.95293750e-01
-6.19640625e-08,1.95306250e-01
-6.19240625e-08,1.95293750e-01
-6.18840625e-08,1.95306250e-01
-6.18440625e-08,1.95293750e-01
-6.18040625e-08,1.95306250e-01
-6.17640625e-08,1.95293750e-01
-6.17240625e-08,1.95306250e-01
-6.16840625e-08,1.95292188e-01
-6.16440625e-08,1.95307813e-01
-6.16040625e-08,1.95292188e-01
-6.15640625e-08,1.95307813e-01
-6.15240625e-08,1.95292188e-01
-6.14840625e-08,1.95307813e-01
-6.14440625e-08,1.95292188e-01
-6.14040625e-08,1.95309375e-01
-6.13640625e-08,1.95290625e-01
-6.13240625e-08,1.95309375e-01
-6.12840625e-08,1.95290625e-01
-6.12440625e-08,1.95310938e-01
-6.12040625e-08,1.95289062e-01
-6.11640625e-08,1.95312500e-01
-6.11240625e-08,1.95287500e-01
-6.10840625e-08,1.95314062e-01
-6.10440625e-08,1.95284375e-01
-6.10040625e-08,1.95318750e-01
-6.09640625e-08,1.95278125e-01
-6.09240625e-08,1.95326563e-01
-6.08840625e-08,1.95264063e-01
-6.08440625e-08,1.95360937e-01
-6.08040625e-08,1.95084375e-01
-6.07640625e-08,1.94853125e-01
-6.07240625e-08,1.94923438e-01
-6.06840625e-08,1.94887500e-01
-6.06440625e-08,1.94907812e-01
-6.06040625e-08,1.94895313e-01
-6.05640625e-08,1.94901563e-01
-6.05240625e-08,1.94900000e-01
-6.04840625e-08,1.94898438e-01
-6.04440625e-08,1.94903125e-01
-6.04040625e-08,1.94893750e-01
-6.03640625e-08,1.94907812e-01
-6.03240625e-08,1.94889063e-01
-6.02840625e-08,1.94914063e-01
-6.02440625e-08,1.94881250e-01
-6.02040625e-08,1.94929688e-01
-6.01640625e-08,1.94845313e-01
-6.01240625e-08,1.95107813e-01
-6.00840625e-08,1.95353125e-01
-6.00440625e-08,1.95270313e-01
-6.00040625e-08,1.95320313e-01
-5.99640625e-08,1.95285938e-01
-5.99240625e-08,1.95310938e-01
-5.98840625e-08,1.95290625e-01
-5.98440625e-08,1.95306250e-01
-5.98040625e-08,1.95295313e-01
-5.97640625e-08,1.95303125e-01
-5.97240625e-08,1.95298438e-01
-5.96840625e-08,1.95300000e-01
-5.96440625e-08,1.95301562e-01
-5.96040625e-08,1.95296875e-01
-5.95640625e-08,1.95306250e-01
-5.95240625e-08,1.95287500e-01
-5.94840625e-08,1.95321875e-01
-5.94440625e-08,1.95253125e-01
-5.94040625e-08,1.95498438e-01
-5.93640625e-08,1.95764063e-01
-5.93240625e-08,1.95659375e-01
-5.92840625e-08,1.95731250e-01
-5.92440625e-08,1.95671875e-01
-5.92040625e-08,1.95726563e-01
-5.91640625e-08,1.95673438e-01
-5.91240625e-08,1.95728125e-01
-5.90840625e-08,1.95668750e-01
-5.90440625e-08,1.95740625e-01
-5.90040625e-08,1.95634375e-01
-5.89640625e-08,1.95918750e-01
-5.89240625e-08,1.96143750e-01
-5.88840625e-08,1.96079688e-01
-5.88440625e-08,1.96110937e-01
-5.88040625e-08,1.96093750e-01
-5.87640625e-08,1.96101562e-01
-5.87240625e-08,1.96101562e-01
-5.86840625e-08,1.96095313e-01
-5.86440625e-08,1.96107813e-01
-5.86040625e-08,1.96085938e-01
-5.85640625e-08,1.96123437e-01
-5.85240625e-08,1.96050000e-01
-5.84840625e-08,1.96303125e-01
-5.84440625e-08,1.96559375e-01
-5.84040625e-08,1.96464063e-01
-5.83640625e-08,1.96526563e-01
-5.83240625e-08,1.96478125e-01
-5.82840625e-08,1.96518750e-01
-5.82440625e-08,1.96484375e-01
-5.82040625e-08,1.96515625e-01
-5.81640625e-08,1.96485938e-01
-5.81240625e-08,1.96512500e-01
-5.80840625e-08,1.96487500e-01
-5.80440625e-08,1.96512500e-01
-5.80040625e-08,1.96487500e-01
-5.79640625e-08,1.96512500e-01
-5.79240625e-08,1.96487500e-01
-5.78840625e-08,1.96512500e-01
-5.78440625e-08,1.96487500e-01
-5.78040625e-08,1.96512500e-01
-5.77640625e-08,1.96487500e-01
-5.77240625e-08,1.96512500e-01
-5.76840625e-08,1.96487500e-01
-5.76440625e-08,1.96514063e-01
-5.76040625e-08,1.96485938e-01
-5.75640625e-08,1.96514063e-01
-5.75240625e-08,1.96484375e-01
-5.74840625e-08,1.96517187e-01
-5.74440625e-08,1.96481250e-01
-5.74040625e-08,1.96520313e-01
-5.73640625e-08,1.96476563e-01
-5.73240625e-08,1.96529687e-01
-5.72840625e-08,1.96460938e-01
-5.72440625e-08,1.96564062e-01
-5.72040625e-08,1.96282813e-01
-5.71640625e-08,1.96056250e-01
-5.71240625e-08,1.96120313e-01
-5.70840625e-08,1.96089063e-01
-5.70440625e-08,1.96104688e-01
-5.70040625e-08,1.96098438e-01
-5.69640625e-08,1.96098438e-01
-5.69240625e-08,1.96104688e-01
-5.68840625e-08,1.96092188e-01
-5.68440625e-08,1.96110937e-01
-5.68040625e-08,1.96085938e-01
-5.67640625e-08,1.96120313e-01
-5.67240625e-08,1.96070313e-01
-5.66840625e-08,1.96154688e-01
-5.66440625e-08,1.95890625e-01
-5.66040625e-08,1.95646875e-01
-5.65640625e-08,1.95728125e-01
-5.65240625e-08,1.95681250e-01
-5.64840625e-08,1.95714063e-01
-5.64440625e-08,1.95689063e-01
-5.64040625e-08,1.95707813e-01
-5.63640625e-08,1.95693750e-01
-5.63240625e-08,1.95704688e-01
-5.62840625e-08,1.95696875e-01
-5.62440625e-08,1.95703125e-01
-5.62040625e-08,1.95698438e-01
-5.61640625e-08,1.95701563e-01
-5.61240625e-08,1.95700000e-01
-5.60840625e-08,1.95700000e-01
-5.60440625e-08,1.95701563e-01
-5.60040625e-08,1.95698438e-01
-5.59640625e-08,1.95701563e-01
-5.59240625e-08,1.95696875e-01
-5.58840625e-08,1.95703125e-01
-5.58440625e-08,1.95695312e-01
-5.58040625e-08,1.95704688e-01
-5.57640625e-08,1.95693750e-01
-5.57240625e-08,1.95706250e-01
-5.56840625e-08,1.95692188e-01
-5.56440625e-08,1.95709375e-01
-5.56040625e-08,1.95690625e-01
-5.55640625e-08,1.95712500e-01
-5.55240625e-08,1.95685938e-01
-5.54840625e-08,1.95717188e-01
-5.54440625e-08,1.95676563e-01
-5.54040625e-08,1.95732813e-01
-5.53640625e-08,1.95642188e-01
-5.53240625e-08,1.95910937e-01
-5.52840625e-08,1.96150000e-01
-5.52440625e-08,1.96073438e-01
-5.52040625e-08,1.96115625e-01
-5.51640625e-08,1.96089063e-01
-5.51240625e-08,1.96106250e-01
-5.50840625e-08,1.96095313e-01
-5.50440625e-08,1.96101562e-01
-5.50040625e-08,1.96100000e-01
-5.49640625e-08,1.96096875e-01
-5.49240625e-08,1.96104688e-01
-5.48840625e-08,1.96092188e-01
-5.48440625e-08,1.96110937e-01
-5.48040625e-08,1.96082813e-01
-5.47640625e-08,1.96126563e-01
-5.47240625e-08,1.96046875e-01
-5.46840625e-08,1.96306250e-01
-5.46440625e-08,1.96556250e-01
-5.46040625e-08,1.96468750e-01
-5.45640625e-08,1.96521875e-01
-5.45240625e-08,1.96484375e-01
-5.44840625e-08,1.96512500e-01
-5.44440625e-08,1.96490625e-01
-5.44040625e-08,1.96507813e-01
-5.43640625e-08,1.96493750e-01
-5.43240625e-08,1.96504687e-01
-5.42840625e-08,1.96496875e-01
-5.42440625e-08,1.96503125e-01
-5.42040625e-08,1.96498438e-01
-5.41640625e-08,1.96500000e-01
-5.41240625e-08,1.96501563e-01
-5.40840625e-08,1.96496875e-01
-5.40440625e-08,1.96506250e-01
-5.40040625e-08,1.96490625e-01
-5.39640625e-08,1.96515625e-01
-5.39240625e-08,1.96475000e-01
-5.38840625e-08,1.96550000e-01
-5.38440625e-08,1.96296875e-01
-5.38040625e-08,1.96042188e-01
-5.37640625e-08,1.96134375e-01
-5.37240625e-08,1.96075000e-01
-5.36840625e-08,1.96118750e-01
-5.36440625e-08,1.96084375e-01
-5.36040625e-08,1.96112500e-01
-5.35640625e-08,1.96089063e-01
-5.35240625e-08,1.96109375e-01
-5.34840625e-08,1.96090625e-01
-5.34440625e-08,1.96107813e-01
-5.34040625e-08,1.96093750e-01
-5.33640625e-08,1.96106250e-01
-5.33240625e-08,1.96095313e-01
-5.32840625e-08,1.96103125e-01
-5.32440625e-08,1.96098438e-01
-5.32040625e-08,1.96100000e-01
-5.31640625e-08,1.96101562e-01
-5.31240625e-08,1.96095313e-01
-5.30840625e-08,1.96110937e-01
-5.30440625e-08,1.96079688e-01
-5.30040625e-08,1.96145313e-01
-5.29640625e-08,1.95901563e-01
-5.29240625e-08,1.95635937e-01
-5.28840625e-08,1.95740625e-01
-5.28440625e-08,1.95668750e-01
-5.28040625e-08,1.95726563e-01
-5.27640625e-08,1.95675000e-01
-5.27240625e-08,1.95723438e-01
-5.26840625e-08,1.95676563e-01
-5.26440625e-08,1.95723438e-01
-5.26040625e-08,1.95676563e-01
-5.25640625e-08,1.95726563e-01
-5.25240625e-08,1.95668750e-01
-5.24840625e-08,1.95740625e-01
-5.24440625e-08,1.95635937e-01
-5.24040625e-08,1.95917188e-01
-5.23640625e-08,1.96145313e-01
-5.23240625e-08,1.96078125e-01
-5.22840625e-08,1.96112500e-01
-5.22440625e-08,1.96092188e-01
-5.22040625e-08,1.96106250e-01
-5.21640625e-08,1.96096875e-01
-5.21240625e-08,1.96103125e-01
-5.20840625e-08,1.96098438e-01
-5.20440625e-08,1.96101562e-01
-5.20040625e-08,1.96100000e-01
-5.19640625e-08,1.96100000e-01
-5.19240625e-08,1.96100000e-01
-5.18840625e-08,1.96100000e-01
-5.18440625e-08,1.96100000e-01
-5.18040625e-08,1.96100000e-01
-5.17640625e-08,1.96100000e-01
-5.17240625e-08,1.96098438e-01
-5.16840625e-08,1.96101562e-01
-5.16440625e-08,1.96098438e-01
-5.16040625e-08,1.96101562e-01
-5.15640625e-08,1.96098438e-01
-5.15240625e-08,1.96101562e-01
-5.14840625e-08,1.96098438e-01
-5.14440625e-08,1.96101562e-01
-5.14040625e-08,1.96098438e-01
-5.13640625e-08,1.96101562e-01
-5.13240625e-08,1.96098438e-01
-5.12840625e-08,1.96101562e-01
-5.12440625e-08,1.96098438e-01
-5.12040625e-08,1.96101562e-01
-5.11640625e-08,1.96098438e-01
-5.11240625e-08,1.96101562e-01
-5.10840625e-08,1.96098438e-01
-5.10440625e-08,1.96101562e-01
-5.10040625e-08,1.96098438e-01
-5.09640625e-08,1.96100000e-01
-5.09240625e-08,1.96100000e-01
-5.08840625e-08,1.96100000e-01
-5.08440625e-08,1.96100000e-01
-5.08040625e-08,1.96100000e-01
-5.07640625e-08,1.96100000e-01
-5.07240625e-08,1.96100000e-01
-5.06840625e-08,1.96100000e-01
-5.06440625e-08,1.96100000e-01
-5.06040625e-08,1.96100000e-01
-5.05640625e-08,1.96100000e-01
-5.05240625e-08,1.96100000e-01
-5.04840625e-08,1.96100000e-01
-5.04440625e-08,1.96100000e-01
-5.04040625e-08,1.96098438e-01
-5.03640625e-08,1.96101562e-01
-5.03240625e-08,1.96098438e-01
-5.02840625e-08,1.96101562e-01
-5.02440625e-08,1.96098438e-01
-5.02040625e-08,1.96103125e-01
-5.01640625e-08,1.96096875e-01
-5.01240625e-08,1.96104688e-01
-5.00840625e-08,1.96093750e-01
-5.00440625e-08,1.96107813e-01
-5.00040625e-08,1.96089063e-01
-4.99640625e-08,1.96115625e-01
-4.99240625e-08,1.96075000e-01
-4.98840625e-08,1.96148437e-01
-4.98440625e-08,1.95898438e-01
-4.98040625e-08,1.95639063e-01
-4.97640625e-08,1.95737500e-01
-4.97240625e-08,1.95670312e-01
-4.96840625e-08,1.95726563e-01
-4.96440625e-08,1.95675000e-01
-4.96040625e-08,1.95725000e-01
-4.95640625e-08,1.95673438e-01
-4.95240625e-08,1.95731250e-01
-4.94840625e-08,1.95660938e-01
-4.94440625e-08,1.95764063e-01
-4.94040625e-08,1.95482813e-01
-4.93640625e-08,1.95254687e-01
-4.93240625e-08,1.95320313e-01
-4.92840625e-08,1.95289062e-01
-4.92440625e-08,1.95304688e-01
-4.92040625e-08,1.95300000e-01
-4.91640625e-08,1.95295313e-01
-4.91240625e-08,1.95309375e-01
-4.90840625e-08,1.95279688e-01
-4.90440625e-08,1.95345313e-01
-4.90040625e-08,1.95101562e-01
-4.89640625e-08,1.94835938e-01
-4.89240625e-08,1.94940625e-01
-4.88840625e-08,1.94868750e-01
-4.88440625e-08,1.94926563e-01
-4.88040625e-08,1.94875000e-01
-4.87640625e-08,1.94923438e-01
-4.87240625e-08,1.94876563e-01
-4.86840625e-08,1.94925000e-01
-4.86440625e-08,1.94873437e-01
-4.86040625e-08,1.94931250e-01
-4.85640625e-08,1.94859375e-01
-4.85240625e-08,1.94965625e-01
-4.84840625e-08,1.94681250e-01
-4.84440625e-08,1.94456250e-01
-4.84040625e-08,1.94520313e-01
-4.83640625e-08,1.94489063e-01
-4.83240625e-08,1.94506250e-01
-4.82840625e-08,1.94498438e-01
-4.82440625e-08,1.94500000e-01
-4.82040625e-08,1.94501563e-01
-4.81640625e-08,1.94496875e-01
-4.81240625e-08,1.94504687e-01
-4.80840625e-08,1.94492187e-01
-4.80440625e-08,1.94509375e-01
-4.80040625e-08,1.94487500e-01
-4.79640625e-08,1.94515625e-01
-4.79240625e-08,1.94479687e-01
-4.78840625e-08,1.94531250e-01
-4.78440625e-08,1.94443750e-01
-4.78040625e-08,1.94709375e-01
-4.77640625e-08,1.94951563e-01
-4.77240625e-08,1.94871875e-01
-4.76840625e-08,1.94918750e-01
-4.76440625e-08,1.94887500e-01
-4.76040625e-08,1.94909375e-01
-4.75640625e-08,1.94893750e-01
-4.75240625e-08,1.94904688e-01
-4.74840625e-08,1.94896875e-01
-4.74440625e-08,1.94901563e-01
-4.74040625e-08,1.94900000e-01
-4.73640625e-08,1.94898438e-01
-4.73240625e-08,1.94904688e-01
-4.72840625e-08,1.94893750e-01
-4.72440625e-08,1.94910937e-01
-4.72040625e-08,1.94884375e-01
-4.71640625e-08,1.94926563e-01
-4.71240625e-08,1.94848437e-01
-4.70840625e-08,1.95104688e-01
-4.70440625e-08,1.95357813e-01
-4.70040625e-08,1.95267187e-01
-4.69640625e-08,1.95323438e-01
-4.69240625e-08,1.95281250e-01
-4.68840625e-08,1.95315625e-01
-4.68440625e-08,1.95287500e-01
-4.68040625e-08,1.95310938e-01
-4.67640625e-08,1.95290625e-01
-4.67240625e-08,1.95309375e-01
-4.66840625e-08,1.95292188e-01
-4.66440625e-08,1.95306250e-01
-4.66040625e-08,1.95293750e-01
-4.65640625e-08,1.95306250e-01
-4.65240625e-08,1.95295313e-01
-4.64840625e-08,1.95304688e-01
-4.64440625e-08,1.95296875e-01
-4.64040625e-08,1.95303125e-01
-4.63640625e-08,1.95296875e-01
-4.63240625e-08,1.95301562e-01
-4.62840625e-08,1.95298438e-01
-4.62440625e-08,1.95300000e-01
-4.62040625e-08,1.95300000e-01
-4.61640625e-08,1.95298438e-01
-4.61240625e-08,1.95301562e-01
-4.60840625e-08,1.95296875e-01
-4.60440625e-08,1.95304688e-01
-4.60040625e-08,1.95292188e-01
-4.59640625e-08,1.95310938e-01
-4.59240625e-08,1.95284375e-01
-4.58840625e-08,1.95325000e-01
-4.58440625e-08,1.95248438e-01
-4.58040625e-08,1.95504687e-01
-4.57640625e-08,1.95757813e-01
-4.57240625e-08,1.95665625e-01
-4.56840625e-08,1.95725000e-01
-4.56440625e-08,1.95681250e-01
-4.56040625e-08,1.95715625e-01
-4.55640625e-08,1.95685938e-01
-4.55240625e-08,1.95712500e-01
-4.54840625e-08,1.95689063e-01
-4.54440625e-08,1.95709375e-01
-4.54040625e-08,1.95692188e-01
-4.53640625e-08,1.95707813e-01
-4.53240625e-08,1.95693750e-01
-4.52840625e-08,1.95706250e-01
-4.52440625e-08,1.95695312e-01
-4.52040625e-08,1.95704688e-01
-4.51640625e-08,1.95696875e-01
-4.51240625e-08,1.95701563e-01
-4.50840625e-08,1.95700000e-01
-4.50440625e-08,1.95698438e-01
-4.50040625e-08,1.95704688e-01
-4.49640625e-08,1.95689063e-01
-4.49240625e-08,1.95720312e-01
-4.48840625e-08,1.95654688e-01
-4.48440625e-08,1.95898438e-01
-4.48040625e-08,1.96164063e-01
-4.47640625e-08,1.96059375e-01
-4.47240625e-08,1.96131250e-01
-4.46840625e-08,1.96071875e-01
-4.46440625e-08,1.96125000e-01
-4.46040625e-08,1.96076562e-01
-4.45640625e-08,1.96123437e-01
-4.45240625e-08,1.96075000e-01
-4.44840625e-08,1.96126563e-01
-4.44440625e-08,1.96068750e-01
-4.44040625e-08,1.96139063e-01
-4.43640625e-08,1.96035938e-01
-4.43240625e-08,1.96315625e-01
-4.42840625e-08,1.96546875e-01
-4.42440625e-08,1.96476563e-01
-4.42040625e-08,1.96515625e-01
-4.41640625e-08,1.96489063e-01
-4.41240625e-08,1.96509375e-01
-4.40840625e-08,1.96492187e-01
-4.40440625e-08,1.96506250e-01
-4.40040625e-08,1.96493750e-01
-4.39640625e-08,1.96506250e-01
-4.39240625e-08,1.96492187e-01
-4.38840625e-08,1.96509375e-01
-4.38440625e-08,1.96489063e-01
-4.38040625e-08,1.96514063e-01
-4.37640625e-08,1.96481250e-01
-4.37240625e-08,1.96528125e-01
-4.36840625e-08,1.96446875e-01
-4.36440625e-08,1.96707812e-01
-4.36040625e-08,1.96954688e-01
-4.35640625e-08,1.96870313e-01
-4.35240625e-08,1.96920312e-01
-4.34840625e-08,1.96885937e-01
-4.34440625e-08,1.96909375e-01
-4.34040625e-08,1.96893750e-01
-4.33640625e-08,1.96901563e-01
-4.33240625e-08,1.96904688e-01
-4.32840625e-08,1.96885937e-01
-4.32440625e-08,1.96939063e-01
-4.32040625e-08,1.96706250e-01
-4.31640625e-08,1.96431250e-01
-4.31240625e-08,1.96545313e-01
-4.30840625e-08,1.96464063e-01
-4.30440625e-08,1.96531250e-01
-4.30040625e-08,1.96471875e-01
-4.29640625e-08,1.96526563e-01
-4.29240625e-08,1.96473438e-01
-4.28840625e-08,1.96526563e-01
-4.28440625e-08,1.96471875e-01
-4.28040625e-08,1.96532813e-01
-4.27640625e-08,1.96459375e-01
-4.27240625e-08,1.96564062e-01
-4.26840625e-08,1.96284375e-01
-4.26440625e-08,1.96051562e-01
-4.26040625e-08,1.96128125e-01
-4.25640625e-08,1.96078125e-01
-4.25240625e-08,1.96123437e-01
-4.24840625e-08,1.96070313e-01
-4.24440625e-08,1.96153125e-01
-4.24040625e-08,1.95893750e-01
-4.23640625e-08,1.95645313e-01
-4.23240625e-08,1.95729687e-01
-4.22840625e-08,1.95682812e-01
-4.22440625e-08,1.95703125e-01
-4.22040625e-08,1.95721875e-01
-4.21640625e-08,1.95525000e-01
-4.21240625e-08,1.95212500e-01
-4.20840625e-08,1.95365625e-01
-4.20440625e-08,1.95240625e-01
-4.20040625e-08,1.95359375e-01
-4.19640625e-08,1.95232813e-01
-4.19240625e-08,1.95390625e-01
-4.18840625e-08,1.95056250e-01
-4.18440625e-08,1.94882813e-01
-4.18040625e-08,1.94892188e-01
-4.17640625e-08,1.94921875e-01
-4.17240625e-08,1.94862500e-01
-4.16840625e-08,1.94964063e-01
-4.16440625e-08,1.94679688e-01
-4.16040625e-08,1.94459375e-01
-4.15640625e-08,1.94515625e-01
-4.15240625e-08,1.94495313e-01
-4.14840625e-08,1.94496875e-01
-4.14440625e-08,1.94507813e-01
-4.14040625e-08,1.94485938e-01
-4.13640625e-08,1.94520313e-01
-4.13240625e-08,1.94468750e-01
-4.12840625e-08,1.94557813e-01
-4.12440625e-08,1.94289062e-01
-4.12040625e-08,1.94050000e-01
-4.11640625e-08,1.94125000e-01
-4.11240625e-08,1.94084375e-01
-4.10840625e-08,1.94110937e-01
-4.10440625e-08,1.94093750e-01
-4.10040625e-08,1.94104688e-01
-4.09640625e-08,1.94096875e-01
-4.09240625e-08,1.94101563e-01
-4.08840625e-08,1.94100000e-01
-4.08440625e-08,1.94098437e-01
-4.08040625e-08,1.94101563e-01
-4.07640625e-08,1.94096875e-01
-4.07240625e-08,1.94103125e-01
-4.06840625e-08,1.94095313e-01
-4.06440625e-08,1.94104688e-01
-4.06040625e-08,1.94093750e-01
-4.05640625e-08,1.94106250e-01
-4.05240625e-08,1.94093750e-01
-4.04840625e-08,1.94107813e-01
-4.04440625e-08,1.94092188e-01
-4.04040625e-08,1.94109375e-01
-4.03640625e-08,1.94090625e-01
-4.03240625e-08,1.94110937e-01
-4.02840625e-08,1.94089063e-01
-4.02440625e-08,1.94112500e-01
-4.02040625e-08,1.94087500e-01
-4.01640625e-08,1.94114063e-01
-4.01240625e-08,1.94084375e-01
-4.00840625e-08,1.94117188e-01
-4.00440625e-08,1.94079688e-01
-4.00040625e-08,1.94123437e-01
-3.99640625e-08,1.94070313e-01
-3.99240625e-08,1.94139063e-01
-3.98840625e-08,1.94035938e-01
-3.98440625e-08,1.94318750e-01
-3.98040625e-08,1.94543750e-01
-3.97640625e-08,1.94481250e-01
-3.97240625e-08,1.94507813e-01
-3.96840625e-08,1.94498438e-01
-3.96440625e-08,1.94496875e-01
-3.96040625e-08,1.94506250e-01
-3.95640625e-08,1.94490625e-01
-3.95240625e-08,1.94514063e-01
-3.94840625e-08,1.94479687e-01
-3.94440625e-08,1.94531250e-01
-3.94040625e-08,1.94442188e-01
-3.93640625e-08,1.94710938e-01
-3.93240625e-08,1.94950000e-01
-3.92840625e-08,1.94875000e-01
-3.92440625e-08,1.94914063e-01
-3.92040625e-08,1.94892188e-01
-3.91640625e-08,1.94903125e-01
-3.91240625e-08,1.94900000e-01
-3.90840625e-08,1.94895313e-01
-3.90440625e-08,1.94907812e-01
-3.90040625e-08,1.94885937e-01
-3.89640625e-08,1.94925000e-01
-3.89240625e-08,1.94848437e-01
-3.88840625e-08,1.95104688e-01
-3.88440625e-08,1.95356250e-01
-3.88040625e-08,1.95267187e-01
-3.87640625e-08,1.95323438e-01
-3.87240625e-08,1.95282813e-01
-3.86840625e-08,1.95314062e-01
-3.86440625e-08,1.95289062e-01
-3.86040625e-08,1.95309375e-01
-3.85640625e-08,1.95292188e-01
-3.85240625e-08,1.95306250e-01
