trails/0bdfa5e45fec98341abdd20552c140b4/aes_ch1_20250507114839473.csv

Model,MSO66B
Label,
Waveform Type,ANALOG
Horizontal Units,s
Sample Interval,4.00000000e-11
Record Length,10000
Zero Index,1599.04687500
Vertical Units,A
ANALOG_Thumbnail,
yOffset,1.84500000e-01
yPosition,8.40000000e-01

Labels,
TIME,CH1
-6.39618750e-08,1.90131250e-01
-6.39218750e-08,1.90071875e-01
-6.38818750e-08,1.90128125e-01
-6.38418750e-08,1.90068750e-01
-6.38018750e-08,1.90139063e-01
-6.37618750e-08,1.90037500e-01
-6.37218750e-08,1.90314063e-01
-6.36818750e-08,1.90550000e-01
-6.36418750e-08,1.90471875e-01
-6.36018750e-08,1.90520313e-01
-6.35618750e-08,1.90482813e-01
-6.35218750e-08,1.90517188e-01
-6.34818750e-08,1.90479687e-01
-6.34418750e-08,1.90528125e-01
-6.34018750e-08,1.90448438e-01
-6.33618750e-08,1.90704687e-01
-6.33218750e-08,1.90959375e-01
-6.32818750e-08,1.90864063e-01
-6.32418750e-08,1.90928125e-01
-6.32018750e-08,1.90876563e-01
-6.31618750e-08,1.90921875e-01
-6.31218750e-08,1.90879688e-01
-6.30818750e-08,1.90921875e-01
-6.30418750e-08,1.90878125e-01
-6.30018750e-08,1.90925000e-01
-6.29618750e-08,1.90870313e-01
-6.29218750e-08,1.90939063e-01
-6.28818750e-08,1.90835937e-01
-6.28418750e-08,1.91117188e-01
-6.28018750e-08,1.91345313e-01
-6.27618750e-08,1.91278125e-01
-6.27218750e-08,1.91312500e-01
-6.26818750e-08,1.91292188e-01
-6.26418750e-08,1.91303125e-01
-6.26018750e-08,1.91298438e-01
-6.25618750e-08,1.91298438e-01
-6.25218750e-08,1.91303125e-01
-6.24818750e-08,1.91295313e-01
-6.24418750e-08,1.91307813e-01
-6.24018750e-08,1.91289062e-01
-6.23618750e-08,1.91317188e-01
-6.23218750e-08,1.91273438e-01
-6.22818750e-08,1.91351563e-01
-6.22418750e-08,1.91095313e-01
-6.22018750e-08,1.90842188e-01
-6.21618750e-08,1.90932812e-01
-6.21218750e-08,1.90876563e-01
-6.20818750e-08,1.90918750e-01
-6.20418750e-08,1.90884375e-01
-6.20018750e-08,1.90914063e-01
-6.19618750e-08,1.90887500e-01
-6.19218750e-08,1.90910938e-01
-6.18818750e-08,1.90889063e-01
-6.18418750e-08,1.90909375e-01
-6.18018750e-08,1.90890625e-01
-6.17618750e-08,1.90909375e-01
-6.17218750e-08,1.90890625e-01
-6.16818750e-08,1.90909375e-01
-6.16418750e-08,1.90890625e-01
-6.16018750e-08,1.90909375e-01
-6.15618750e-08,1.90890625e-01
-6.15218750e-08,1.90909375e-01
-6.14818750e-08,1.90889063e-01
-6.14418750e-08,1.90910938e-01
-6.14018750e-08,1.90887500e-01
-6.13618750e-08,1.90914063e-01
-6.13218750e-08,1.90884375e-01
-6.12818750e-08,1.90918750e-01
-6.12418750e-08,1.90876563e-01
-6.12018750e-08,1.90932812e-01
-6.11618750e-08,1.90842188e-01
-6.11218750e-08,1.91110937e-01
-6.10818750e-08,1.91350000e-01
-6.10418750e-08,1.91273438e-01
-6.10018750e-08,1.91317188e-01
-6.09618750e-08,1.91289062e-01
-6.09218750e-08,1.91307813e-01
-6.08818750e-08,1.91295313e-01
-6.08418750e-08,1.91303125e-01
-6.08018750e-08,1.91300000e-01
-6.07618750e-08,1.91296875e-01
-6.07218750e-08,1.91306250e-01
-6.06818750e-08,1.91289062e-01
-6.06418750e-08,1.91320313e-01
-6.06018750e-08,1.91254688e-01
-6.05618750e-08,1.91498438e-01
-6.05218750e-08,1.91762500e-01
-6.04818750e-08,1.91660938e-01
-6.04418750e-08,1.91729687e-01
-6.04018750e-08,1.91673438e-01
-6.03618750e-08,1.91723438e-01
-6.03218750e-08,1.91678125e-01
-6.02818750e-08,1.91721875e-01
-6.02418750e-08,1.91678125e-01
-6.02018750e-08,1.91721875e-01
-6.01618750e-08,1.91676563e-01
-6.01218750e-08,1.91726563e-01
-6.00818750e-08,1.91668750e-01
-6.00418750e-08,1.91740625e-01
-6.00018750e-08,1.91635938e-01
-5.99618750e-08,1.91917188e-01
-5.99218750e-08,1.92145312e-01
-5.98818750e-08,1.92079688e-01
-5.98418750e-08,1.92110937e-01
-5.98018750e-08,1.92093750e-01
-5.97618750e-08,1.92103125e-01
-5.97218750e-08,1.92098437e-01
-5.96818750e-08,1.92100000e-01
-5.96418750e-08,1.92101563e-01
-5.96018750e-08,1.92096875e-01
-5.95618750e-08,1.92104688e-01
-5.95218750e-08,1.92093750e-01
-5.94818750e-08,1.92107813e-01
-5.94418750e-08,1.92090625e-01
-5.94018750e-08,1.92110937e-01
-5.93618750e-08,1.92084375e-01
-5.93218750e-08,1.92120313e-01
-5.92818750e-08,1.92070313e-01
-5.92418750e-08,1.92154688e-01
-5.92018750e-08,1.91892188e-01
-5.91618750e-08,1.91646875e-01
-5.91218750e-08,1.91729687e-01
-5.90818750e-08,1.91679688e-01
-5.90418750e-08,1.91715625e-01
-5.90018750e-08,1.91687500e-01
-5.89618750e-08,1.91709375e-01
-5.89218750e-08,1.91692187e-01
-5.88818750e-08,1.91706250e-01
-5.88418750e-08,1.91693750e-01
-5.88018750e-08,1.91704687e-01
-5.87618750e-08,1.91695313e-01
-5.87218750e-08,1.91703125e-01
-5.86818750e-08,1.91696875e-01
-5.86418750e-08,1.91703125e-01
-5.86018750e-08,1.91698438e-01
-5.85618750e-08,1.91701563e-01
-5.85218750e-08,1.91698438e-01
-5.84818750e-08,1.91701563e-01
-5.84418750e-08,1.91700000e-01
-5.84018750e-08,1.91700000e-01
-5.83618750e-08,1.91700000e-01
-5.83218750e-08,1.91698438e-01
-5.82818750e-08,1.91701563e-01
-5.82418750e-08,1.91696875e-01
-5.82018750e-08,1.91703125e-01
-5.81618750e-08,1.91695313e-01
-5.81218750e-08,1.91704687e-01
-5.80818750e-08,1.91693750e-01
-5.80418750e-08,1.91709375e-01
-5.80018750e-08,1.91687500e-01
-5.79618750e-08,1.91717187e-01
-5.79218750e-08,1.91673438e-01
-5.78818750e-08,1.91751563e-01
-5.78418750e-08,1.91495313e-01
-5.78018750e-08,1.91242187e-01
-5.77618750e-08,1.91332813e-01
-5.77218750e-08,1.91276562e-01
-5.76818750e-08,1.91318750e-01
-5.76418750e-08,1.91284375e-01
-5.76018750e-08,1.91314062e-01
-5.75618750e-08,1.91287500e-01
-5.75218750e-08,1.91310938e-01
-5.74818750e-08,1.91289062e-01
-5.74418750e-08,1.91309375e-01
-5.74018750e-08,1.91290625e-01
-5.73618750e-08,1.91309375e-01
-5.73218750e-08,1.91292188e-01
-5.72818750e-08,1.91307813e-01
-5.72418750e-08,1.91292188e-01
-5.72018750e-08,1.91307813e-01
-5.71618750e-08,1.91292188e-01
-5.71218750e-08,1.91307813e-01
-5.70818750e-08,1.91292188e-01
-5.70418750e-08,1.91306250e-01
-5.70018750e-08,1.91293750e-01
-5.69618750e-08,1.91306250e-01
-5.69218750e-08,1.91293750e-01
-5.68818750e-08,1.91306250e-01
-5.68418750e-08,1.91293750e-01
-5.68018750e-08,1.91307813e-01
-5.67618750e-08,1.91292188e-01
-5.67218750e-08,1.91307813e-01
-5.66818750e-08,1.91292188e-01
-5.66418750e-08,1.91307813e-01
-5.66018750e-08,1.91292188e-01
-5.65618750e-08,1.91307813e-01
-5.65218750e-08,1.91292188e-01
-5.64818750e-08,1.91309375e-01
-5.64418750e-08,1.91290625e-01
-5.64018750e-08,1.91310938e-01
-5.63618750e-08,1.91289062e-01
-5.63218750e-08,1.91312500e-01
-5.62818750e-08,1.91284375e-01
-5.62418750e-08,1.91318750e-01
-5.62018750e-08,1.91276562e-01
-5.61618750e-08,1.91332813e-01
-5.61218750e-08,1.91242187e-01
-5.60818750e-08,1.91510938e-01
-5.60418750e-08,1.91751563e-01
-5.60018750e-08,1.91671875e-01
-5.59618750e-08,1.91718750e-01
-5.59218750e-08,1.91685938e-01
-5.58818750e-08,1.91710938e-01
-5.58418750e-08,1.91690625e-01
-5.58018750e-08,1.91707813e-01
-5.57618750e-08,1.91693750e-01
-5.57218750e-08,1.91706250e-01
-5.56818750e-08,1.91695313e-01
-5.56418750e-08,1.91704687e-01
-5.56018750e-08,1.91695313e-01
-5.55618750e-08,1.91703125e-01
-5.55218750e-08,1.91696875e-01
-5.54818750e-08,1.91703125e-01
-5.54418750e-08,1.91696875e-01
-5.54018750e-08,1.91703125e-01
-5.53618750e-08,1.91696875e-01
-5.53218750e-08,1.91703125e-01
-5.52818750e-08,1.91696875e-01
-5.52418750e-08,1.91703125e-01
-5.52018750e-08,1.91696875e-01
-5.51618750e-08,1.91703125e-01
-5.51218750e-08,1.91696875e-01
-5.50818750e-08,1.91703125e-01
-5.50418750e-08,1.91696875e-01
-5.50018750e-08,1.91703125e-01
-5.49618750e-08,1.91696875e-01
-5.49218750e-08,1.91703125e-01
-5.48818750e-08,1.91695313e-01
-5.48418750e-08,1.91704687e-01
-5.48018750e-08,1.91695313e-01
-5.47618750e-08,1.91706250e-01
-5.47218750e-08,1.91692187e-01
-5.46818750e-08,1.91709375e-01
-5.46418750e-08,1.91687500e-01
-5.46018750e-08,1.91717187e-01
-5.45618750e-08,1.91673438e-01
-5.45218750e-08,1.91750000e-01
-5.44818750e-08,1.91496875e-01
-5.44418750e-08,1.91240625e-01
-5.44018750e-08,1.91337500e-01
-5.43618750e-08,1.91270313e-01
-5.43218750e-08,1.91326563e-01
-5.42818750e-08,1.91275000e-01
-5.42418750e-08,1.91328125e-01
-5.42018750e-08,1.91264062e-01
-5.41618750e-08,1.91359375e-01
-5.41218750e-08,1.91089063e-01
-5.40818750e-08,1.90845313e-01
-5.40418750e-08,1.90932812e-01
-5.40018750e-08,1.90873438e-01
-5.39618750e-08,1.90926563e-01
-5.39218750e-08,1.90867188e-01
-5.38818750e-08,1.90956250e-01
-5.38418750e-08,1.90692187e-01
-5.38018750e-08,1.90443750e-01
-5.37618750e-08,1.90532813e-01
-5.37218750e-08,1.90475000e-01
-5.36818750e-08,1.90521875e-01
-5.36418750e-08,1.90479687e-01
-5.36018750e-08,1.90520313e-01
-5.35618750e-08,1.90478125e-01
-5.35218750e-08,1.90526562e-01
-5.34818750e-08,1.90464063e-01
-5.34418750e-08,1.90559375e-01
-5.34018750e-08,1.90289062e-01
-5.33618750e-08,1.90048438e-01
-5.33218750e-08,1.90128125e-01
-5.32818750e-08,1.90079688e-01
-5.32418750e-08,1.90117188e-01
-5.32018750e-08,1.90084375e-01
-5.31618750e-08,1.90117188e-01
-5.31218750e-08,1.90079688e-01
-5.30818750e-08,1.90128125e-01
-5.30418750e-08,1.90048438e-01
-5.30018750e-08,1.90304688e-01
-5.29618750e-08,1.90559375e-01
-5.29218750e-08,1.90464063e-01
-5.28818750e-08,1.90528125e-01
-5.28418750e-08,1.90476563e-01
-5.28018750e-08,1.90521875e-01
-5.27618750e-08,1.90478125e-01
-5.27218750e-08,1.90521875e-01
-5.26818750e-08,1.90476563e-01
-5.26418750e-08,1.90526562e-01
-5.26018750e-08,1.90468750e-01
-5.25618750e-08,1.90540625e-01
-5.25218750e-08,1.90434375e-01
-5.24818750e-08,1.90720313e-01
-5.24418750e-08,1.90942187e-01
-5.24018750e-08,1.90882812e-01
-5.23618750e-08,1.90907812e-01
-5.23218750e-08,1.90898438e-01
-5.22818750e-08,1.90895312e-01
-5.22418750e-08,1.90909375e-01
-5.22018750e-08,1.90884375e-01
-5.21618750e-08,1.90926563e-01
-5.21218750e-08,1.90846875e-01
-5.20818750e-08,1.91106250e-01
-5.20418750e-08,1.91354688e-01
-5.20018750e-08,1.91268750e-01
-5.19618750e-08,1.91320313e-01
-5.19218750e-08,1.91284375e-01
-5.18818750e-08,1.91312500e-01
-5.18418750e-08,1.91290625e-01
-5.18018750e-08,1.91306250e-01
-5.17618750e-08,1.91295313e-01
-5.17218750e-08,1.91303125e-01
-5.16818750e-08,1.91298438e-01
-5.16418750e-08,1.91300000e-01
-5.16018750e-08,1.91301563e-01
-5.15618750e-08,1.91295313e-01
-5.15218750e-08,1.91307813e-01
-5.14818750e-08,1.91285938e-01
-5.14418750e-08,1.91323437e-01
-5.14018750e-08,1.91251562e-01
-5.13618750e-08,1.91501562e-01
-5.13218750e-08,1.91760938e-01
-5.12818750e-08,1.91664063e-01
-5.12418750e-08,1.91726563e-01
-5.12018750e-08,1.91678125e-01
-5.11618750e-08,1.91718750e-01
-5.11218750e-08,1.91682813e-01
-5.10818750e-08,1.91715625e-01
-5.10418750e-08,1.91685938e-01
-5.10018750e-08,1.91712500e-01
-5.09618750e-08,1.91687500e-01
-5.09218750e-08,1.91712500e-01
-5.08818750e-08,1.91689063e-01
-5.08418750e-08,1.91710938e-01
-5.08018750e-08,1.91689063e-01
-5.07618750e-08,1.91710938e-01
-5.07218750e-08,1.91689063e-01
-5.06818750e-08,1.91710938e-01
-5.06418750e-08,1.91689063e-01
-5.06018750e-08,1.91710938e-01
-5.05618750e-08,1.91689063e-01
-5.05218750e-08,1.91710938e-01
-5.04818750e-08,1.91687500e-01
-5.04418750e-08,1.91712500e-01
-5.04018750e-08,1.91685938e-01
-5.03618750e-08,1.91715625e-01
-5.03218750e-08,1.91681250e-01
-5.02818750e-08,1.91723438e-01
-5.02418750e-08,1.91667188e-01
-5.02018750e-08,1.91757813e-01
-5.01618750e-08,1.91489063e-01
-5.01218750e-08,1.91248438e-01
-5.00818750e-08,1.91328125e-01
-5.00418750e-08,1.91281250e-01
-5.00018750e-08,1.91314062e-01
-4.99618750e-08,1.91289062e-01
-4.99218750e-08,1.91309375e-01
-4.98818750e-08,1.91290625e-01
-4.98418750e-08,1.91307813e-01
-4.98018750e-08,1.91292188e-01
-4.97618750e-08,1.91307813e-01
-4.97218750e-08,1.91292188e-01
-4.96818750e-08,1.91307813e-01
-4.96418750e-08,1.91292188e-01
-4.96018750e-08,1.91309375e-01
-4.95618750e-08,1.91289062e-01
-4.95218750e-08,1.91312500e-01
-4.94818750e-08,1.91284375e-01
-4.94418750e-08,1.91320313e-01
-4.94018750e-08,1.91270313e-01
-4.93618750e-08,1.91354688e-01
-4.93218750e-08,1.91093750e-01
-4.92818750e-08,1.90845313e-01
-4.92418750e-08,1.90931250e-01
-4.92018750e-08,1.90878125e-01
-4.91618750e-08,1.90917188e-01
-4.91218750e-08,1.90885938e-01
-4.90818750e-08,1.90912500e-01
-4.90418750e-08,1.90889063e-01
-4.90018750e-08,1.90909375e-01
-4.89618750e-08,1.90890625e-01
-4.89218750e-08,1.90909375e-01
-4.88818750e-08,1.90892188e-01
-4.88418750e-08,1.90907812e-01
-4.88018750e-08,1.90892188e-01
-4.87618750e-08,1.90907812e-01
-4.87218750e-08,1.90893750e-01
-4.86818750e-08,1.90906250e-01
-4.86418750e-08,1.90893750e-01
-4.86018750e-08,1.90906250e-01
-4.85618750e-08,1.90893750e-01
-4.85218750e-08,1.90906250e-01
-4.84818750e-08,1.90893750e-01
-4.84418750e-08,1.90906250e-01
-4.84018750e-08,1.90893750e-01
-4.83618750e-08,1.90906250e-01
-4.83218750e-08,1.90893750e-01
-4.82818750e-08,1.90906250e-01
-4.82418750e-08,1.90893750e-01
-4.82018750e-08,1.90906250e-01
-4.81618750e-08,1.90893750e-01
-4.81218750e-08,1.90906250e-01
-4.80818750e-08,1.90893750e-01
-4.80418750e-08,1.90906250e-01
-4.80018750e-08,1.90893750e-01
-4.79618750e-08,1.90906250e-01
-4.79218750e-08,1.90893750e-01
-4.78818750e-08,1.90906250e-01
-4.78418750e-08,1.90893750e-01
-4.78018750e-08,1.90906250e-01
-4.77618750e-08,1.90893750e-01
-4.77218750e-08,1.90906250e-01
-4.76818750e-08,1.90893750e-01
-4.76418750e-08,1.90906250e-01
-4.76018750e-08,1.90893750e-01
-4.75618750e-08,1.90907812e-01
-4.75218750e-08,1.90892188e-01
-4.74818750e-08,1.90907812e-01
-4.74418750e-08,1.90892188e-01
-4.74018750e-08,1.90907812e-01
-4.73618750e-08,1.90890625e-01
-4.73218750e-08,1.90909375e-01
-4.72818750e-08,1.90890625e-01
-4.72418750e-08,1.90910938e-01
-4.72018750e-08,1.90889063e-01
-4.71618750e-08,1.90912500e-01
-4.71218750e-08,1.90887500e-01
-4.70818750e-08,1.90914063e-01
-4.70418750e-08,1.90882812e-01
-4.70018750e-08,1.90920312e-01
-4.69618750e-08,1.90875000e-01
-4.69218750e-08,1.90934375e-01
-4.68818750e-08,1.90840625e-01
-4.68418750e-08,1.91112500e-01
-4.68018750e-08,1.91348437e-01
-4.67618750e-08,1.91275000e-01
-4.67218750e-08,1.91315625e-01
-4.66818750e-08,1.91289062e-01
-4.66418750e-08,1.91307813e-01
-4.66018750e-08,1.91295313e-01
-4.65618750e-08,1.91303125e-01
-4.65218750e-08,1.91298438e-01
-4.64818750e-08,1.91300000e-01
-4.64418750e-08,1.91301563e-01
-4.64018750e-08,1.91298438e-01
-4.63618750e-08,1.91303125e-01
-4.63218750e-08,1.91295313e-01
-4.62818750e-08,1.91306250e-01
-4.62418750e-08,1.91290625e-01
-4.62018750e-08,1.91312500e-01
-4.61618750e-08,1.91282813e-01
-4.61218750e-08,1.91328125e-01
-4.60818750e-08,1.91246875e-01
-4.60418750e-08,1.91506250e-01
-4.60018750e-08,1.91756250e-01
-4.59618750e-08,1.91667188e-01
-4.59218750e-08,1.91723438e-01
-4.58818750e-08,1.91681250e-01
-4.58418750e-08,1.91715625e-01
-4.58018750e-08,1.91687500e-01
-4.57618750e-08,1.91712500e-01
-4.57218750e-08,1.91689063e-01
-4.56818750e-08,1.91709375e-01
-4.56418750e-08,1.91690625e-01
-4.56018750e-08,1.91709375e-01
-4.55618750e-08,1.91692187e-01
-4.55218750e-08,1.91707813e-01
-4.54818750e-08,1.91692187e-01
-4.54418750e-08,1.91707813e-01
-4.54018750e-08,1.91692187e-01
-4.53618750e-08,1.91709375e-01
-4.53218750e-08,1.91690625e-01
-4.52818750e-08,1.91709375e-01
-4.52418750e-08,1.91689063e-01
-4.52018750e-08,1.91712500e-01
-4.51618750e-08,1.91685938e-01
-4.51218750e-08,1.91717187e-01
-4.50818750e-08,1.91678125e-01
-4.50418750e-08,1.91731250e-01
-4.50018750e-08,1.91643750e-01
-4.49618750e-08,1.91909375e-01
-4.49218750e-08,1.92153125e-01
-4.48818750e-08,1.92070313e-01
-4.48418750e-08,1.92120313e-01
-4.48018750e-08,1.92084375e-01
-4.47618750e-08,1.92112500e-01
-4.47218750e-08,1.92089063e-01
-4.46818750e-08,1.92109375e-01
-4.46418750e-08,1.92092188e-01
-4.46018750e-08,1.92107813e-01
-4.45618750e-08,1.92093750e-01
-4.45218750e-08,1.92106250e-01
-4.44818750e-08,1.92093750e-01
-4.44418750e-08,1.92106250e-01
-4.44018750e-08,1.92093750e-01
-4.43618750e-08,1.92104688e-01
-4.43218750e-08,1.92095313e-01
-4.42818750e-08,1.92104688e-01
-4.42418750e-08,1.92095313e-01
-4.42018750e-08,1.92104688e-01
-4.41618750e-08,1.92095313e-01
-4.41218750e-08,1.92104688e-01
-4.40818750e-08,1.92095313e-01
-4.40418750e-08,1.92104688e-01
-4.40018750e-08,1.92095313e-01
-4.39618750e-08,1.92104688e-01
-4.39218750e-08,1.92095313e-01
-4.38818750e-08,1.92104688e-01
-4.38418750e-08,1.92095313e-01
-4.38018750e-08,1.92104688e-01
-4.37618750e-08,1.92095313e-01
-4.37218750e-08,1.92104688e-01
-4.36818750e-08,1.92095313e-01
-4.36418750e-08,1.92104688e-01
-4.36018750e-08,1.92095313e-01
-4.35618750e-08,1.92104688e-01
-4.35218750e-08,1.92095313e-01
-4.34818750e-08,1.92104688e-01
-4.34418750e-08,1.92093750e-01
-4.34018750e-08,1.92106250e-01
-4.33618750e-08,1.92093750e-01
-4.33218750e-08,1.92106250e-01
-4.32818750e-08,1.92093750e-01
-4.32418750e-08,1.92106250e-01
-4.32018750e-08,1.92093750e-01
-4.31618750e-08,1.92106250e-01
-4.31218750e-08,1.92092188e-01
-4.30818750e-08,1.92107813e-01
-4.30418750e-08,1.92092188e-01
-4.30018750e-08,1.92107813e-01
-4.29618750e-08,1.92090625e-01
-4.29218750e-08,1.92109375e-01
-4.28818750e-08,1.92090625e-01
-4.28418750e-08,1.92110937e-01
-4.28018750e-08,1.92087500e-01
-4.27618750e-08,1.92112500e-01
-4.27218750e-08,1.92085937e-01
-4.26818750e-08,1.92117188e-01
-4.26418750e-08,1.92079688e-01
-4.26018750e-08,1.92125000e-01
-4.25618750e-08,1.92065625e-01
-4.25218750e-08,1.92160938e-01
-4.24818750e-08,1.91885937e-01
-4.24418750e-08,1.91651563e-01
-4.24018750e-08,1.91723438e-01
-4.23618750e-08,1.91685938e-01
-4.23218750e-08,1.91709375e-01
-4.22818750e-08,1.91695313e-01
-4.22418750e-08,1.91701563e-01
-4.22018750e-08,1.91700000e-01
-4.21618750e-08,1.91696875e-01
-4.21218750e-08,1.91706250e-01
-4.20818750e-08,1.91690625e-01
-4.20418750e-08,1.91715625e-01
-4.20018750e-08,1.91675000e-01
-4.19618750e-08,1.91750000e-01
-4.19218750e-08,1.91496875e-01
-4.18818750e-08,1.91240625e-01
-4.18418750e-08,1.91334375e-01
-4.18018750e-08,1.91275000e-01
-4.17618750e-08,1.91320313e-01
-4.17218750e-08,1.91281250e-01
-4.16818750e-08,1.91317188e-01
-4.16418750e-08,1.91284375e-01
-4.16018750e-08,1.91315625e-01
-4.15618750e-08,1.91284375e-01
-4.15218750e-08,1.91317188e-01
-4.14818750e-08,1.91281250e-01
-4.14418750e-08,1.91323437e-01
-4.14018750e-08,1.91268750e-01
-4.13618750e-08,1.91356250e-01
-4.13218750e-08,1.91092188e-01
-4.12818750e-08,1.90845313e-01
-4.12418750e-08,1.90931250e-01
-4.12018750e-08,1.90876563e-01
-4.11618750e-08,1.90918750e-01
-4.11218750e-08,1.90882812e-01
-4.10818750e-08,1.90917188e-01
-4.10418750e-08,1.90882812e-01
-4.10018750e-08,1.90920312e-01
-4.09618750e-08,1.90876563e-01
-4.09218750e-08,1.90932812e-01
-4.08818750e-08,1.90842188e-01
-4.08418750e-08,1.91109375e-01
-4.08018750e-08,1.91353125e-01
-4.07618750e-08,1.91270313e-01
-4.07218750e-08,1.91321875e-01
-4.06818750e-08,1.91282813e-01
-4.06418750e-08,1.91315625e-01
-4.06018750e-08,1.91284375e-01
-4.05618750e-08,1.91317188e-01
-4.05218750e-08,1.91279688e-01
-4.04818750e-08,1.91328125e-01
-4.04418750e-08,1.91248438e-01
-4.04018750e-08,1.91504687e-01
-4.03618750e-08,1.91759375e-01
-4.03218750e-08,1.91662500e-01
-4.02818750e-08,1.91729687e-01
-4.02418750e-08,1.91671875e-01
-4.02018750e-08,1.91728125e-01
-4.01618750e-08,1.91668750e-01
-4.01218750e-08,1.91740625e-01
-4.00818750e-08,1.91634375e-01
-4.00418750e-08,1.91917188e-01
-4.00018750e-08,1.92143750e-01
-3.99618750e-08,1.92079688e-01
-3.99218750e-08,1.92109375e-01
-3.98818750e-08,1.92096875e-01
-3.98418750e-08,1.92098437e-01
-3.98018750e-08,1.92106250e-01
-3.97618750e-08,1.92087500e-01
-3.97218750e-08,1.92121875e-01
-3.96818750e-08,1.92051562e-01
-3.96418750e-08,1.92301563e-01
-3.96018750e-08,1.92560938e-01
-3.95618750e-08,1.92464063e-01
-3.95218750e-08,1.92526562e-01
-3.94818750e-08,1.92478125e-01
-3.94418750e-08,1.92518750e-01
-3.94018750e-08,1.92482813e-01
-3.93618750e-08,1.92515625e-01
-3.93218750e-08,1.92484375e-01
-3.92818750e-08,1.92515625e-01
-3.92418750e-08,1.92484375e-01
-3.92018750e-08,1.92515625e-01
-3.91618750e-08,1.92482813e-01
-3.91218750e-08,1.92518750e-01
-3.90818750e-08,1.92479687e-01
-3.90418750e-08,1.92526562e-01
-3.90018750e-08,1.92464063e-01
-3.89618750e-08,1.92559375e-01
-3.89218750e-08,1.92287500e-01
-3.88818750e-08,1.92050000e-01
-3.88418750e-08,1.92125000e-01
-3.88018750e-08,1.92084375e-01
-3.87618750e-08,1.92110937e-01
-3.87218750e-08,1.92093750e-01
-3.86818750e-08,1.92103125e-01
-3.86418750e-08,1.92100000e-01
-3.86018750e-08,1.92096875e-01
-3.85618750e-08,1.92107813e-01
-3.85218750e-08,1.92082813e-01
