trails/0bdfa5e45fec98341abdd20552c140b4/aes_ch1_20250507115357990.csv

Model,MSO66B
Label,
Waveform Type,ANALOG
Horizontal Units,s
Sample Interval,4.00000000e-11
Record Length,10000
Zero Index,1599.07812500
Vertical Units,A
ANALOG_Thumbnail,
yOffset,1.84500000e-01
yPosition,8.40000000e-01

Labels,
TIME,CH1
-6.39631250e-08,1.90529688e-01
-6.39231250e-08,1.90445313e-01
-6.38831250e-08,1.90707813e-01
-6.38431250e-08,1.90954687e-01
-6.38031250e-08,1.90870313e-01
-6.37631250e-08,1.90920312e-01
-6.37231250e-08,1.90884375e-01
-6.36831250e-08,1.90912500e-01
-6.36431250e-08,1.90890625e-01
-6.36031250e-08,1.90907812e-01
-6.35631250e-08,1.90893750e-01
-6.35231250e-08,1.90904688e-01
-6.34831250e-08,1.90896875e-01
-6.34431250e-08,1.90903125e-01
-6.34031250e-08,1.90898438e-01
-6.33631250e-08,1.90900000e-01
-6.33231250e-08,1.90900000e-01
-6.32831250e-08,1.90898438e-01
-6.32431250e-08,1.90903125e-01
-6.32031250e-08,1.90893750e-01
-6.31631250e-08,1.90909375e-01
-6.31231250e-08,1.90885938e-01
-6.30831250e-08,1.90925000e-01
-6.30431250e-08,1.90850000e-01
-6.30031250e-08,1.91103125e-01
-6.29631250e-08,1.91359375e-01
-6.29231250e-08,1.91264062e-01
-6.28831250e-08,1.91326563e-01
-6.28431250e-08,1.91279688e-01
-6.28031250e-08,1.91317188e-01
-6.27631250e-08,1.91284375e-01
-6.27231250e-08,1.91314062e-01
-6.26831250e-08,1.91287500e-01
-6.26431250e-08,1.91312500e-01
-6.26031250e-08,1.91289062e-01
-6.25631250e-08,1.91310938e-01
-6.25231250e-08,1.91290625e-01
-6.24831250e-08,1.91309375e-01
-6.24431250e-08,1.91290625e-01
-6.24031250e-08,1.91309375e-01
-6.23631250e-08,1.91290625e-01
-6.23231250e-08,1.91307813e-01
-6.22831250e-08,1.91292188e-01
-6.22431250e-08,1.91307813e-01
-6.22031250e-08,1.91292188e-01
-6.21631250e-08,1.91307813e-01
-6.21231250e-08,1.91292188e-01
-6.20831250e-08,1.91307813e-01
-6.20431250e-08,1.91292188e-01
-6.20031250e-08,1.91307813e-01
-6.19631250e-08,1.91292188e-01
-6.19231250e-08,1.91307813e-01
-6.18831250e-08,1.91292188e-01
-6.18431250e-08,1.91307813e-01
-6.18031250e-08,1.91292188e-01
-6.17631250e-08,1.91307813e-01
-6.17231250e-08,1.91292188e-01
-6.16831250e-08,1.91307813e-01
-6.16431250e-08,1.91292188e-01
-6.16031250e-08,1.91307813e-01
-6.15631250e-08,1.91292188e-01
-6.15231250e-08,1.91309375e-01
-6.14831250e-08,1.91290625e-01
-6.14431250e-08,1.91309375e-01
-6.14031250e-08,1.91290625e-01
-6.13631250e-08,1.91310938e-01
-6.13231250e-08,1.91289062e-01
-6.12831250e-08,1.91312500e-01
-6.12431250e-08,1.91285938e-01
-6.12031250e-08,1.91315625e-01
-6.11631250e-08,1.91281250e-01
-6.11231250e-08,1.91323437e-01
-6.10831250e-08,1.91267188e-01
-6.10431250e-08,1.91357813e-01
-6.10031250e-08,1.91089063e-01
-6.09631250e-08,1.90846875e-01
-6.09231250e-08,1.90929688e-01
-6.08831250e-08,1.90879688e-01
-6.08431250e-08,1.90917188e-01
-6.08031250e-08,1.90882812e-01
-6.07631250e-08,1.90918750e-01
-6.07231250e-08,1.90873438e-01
-6.06831250e-08,1.90948438e-01
-6.06431250e-08,1.90700000e-01
-6.06031250e-08,1.90434375e-01
-6.05631250e-08,1.90545313e-01
-6.05231250e-08,1.90460938e-01
-6.04831250e-08,1.90540625e-01
-6.04431250e-08,1.90451563e-01
-6.04031250e-08,1.90573437e-01
-6.03631250e-08,1.90273438e-01
-6.03231250e-08,1.90065625e-01
-6.02831250e-08,1.90107813e-01
-6.02431250e-08,1.90107813e-01
-6.02031250e-08,1.90078125e-01
-6.01631250e-08,1.90150000e-01
-6.01231250e-08,1.89893750e-01
-6.00831250e-08,1.89645312e-01
-6.00431250e-08,1.89728125e-01
-6.00031250e-08,1.89684375e-01
-5.99631250e-08,1.89707813e-01
-5.99231250e-08,1.89701563e-01
-5.98831250e-08,1.89687500e-01
-5.98431250e-08,1.89739062e-01
-5.98031250e-08,1.89506250e-01
-5.97631250e-08,1.89232813e-01
-5.97231250e-08,1.89343750e-01
-5.96831250e-08,1.89267188e-01
-5.96431250e-08,1.89328125e-01
-5.96031250e-08,1.89275000e-01
-5.95631250e-08,1.89321875e-01
-5.95231250e-08,1.89279688e-01
-5.94831250e-08,1.89318750e-01
-5.94431250e-08,1.89281250e-01
-5.94031250e-08,1.89317188e-01
-5.93631250e-08,1.89282813e-01
-5.93231250e-08,1.89317188e-01
-5.92831250e-08,1.89284375e-01
-5.92431250e-08,1.89315625e-01
-5.92031250e-08,1.89284375e-01
-5.91631250e-08,1.89317188e-01
-5.91231250e-08,1.89282813e-01
-5.90831250e-08,1.89317188e-01
-5.90431250e-08,1.89282813e-01
-5.90031250e-08,1.89318750e-01
-5.89631250e-08,1.89279688e-01
-5.89231250e-08,1.89321875e-01
-5.88831250e-08,1.89276562e-01
-5.88431250e-08,1.89326563e-01
-5.88031250e-08,1.89268750e-01
-5.87631250e-08,1.89342188e-01
-5.87231250e-08,1.89232813e-01
-5.86831250e-08,1.89520313e-01
-5.86431250e-08,1.89742187e-01
-5.86031250e-08,1.89682813e-01
-5.85631250e-08,1.89706250e-01
-5.85231250e-08,1.89700000e-01
-5.84831250e-08,1.89695313e-01
-5.84431250e-08,1.89709375e-01
-5.84031250e-08,1.89684375e-01
-5.83631250e-08,1.89725000e-01
-5.83231250e-08,1.89648438e-01
-5.82831250e-08,1.89903125e-01
-5.82431250e-08,1.90159375e-01
-5.82031250e-08,1.90064063e-01
-5.81631250e-08,1.90128125e-01
-5.81231250e-08,1.90071875e-01
-5.80831250e-08,1.90132812e-01
-5.80431250e-08,1.90045313e-01
-5.80031250e-08,1.90304688e-01
-5.79631250e-08,1.90560937e-01
-5.79231250e-08,1.90459375e-01
-5.78831250e-08,1.90534375e-01
-5.78431250e-08,1.90464063e-01
-5.78031250e-08,1.90543750e-01
-5.77631250e-08,1.90431250e-01
-5.77231250e-08,1.90721875e-01
-5.76831250e-08,1.90939063e-01
-5.76431250e-08,1.90887500e-01
-5.76031250e-08,1.90900000e-01
-5.75631250e-08,1.90914063e-01
-5.75231250e-08,1.90859375e-01
-5.74831250e-08,1.91095313e-01
-5.74431250e-08,1.91367188e-01
-5.74031250e-08,1.91256250e-01
-5.73631250e-08,1.91335937e-01
-5.73231250e-08,1.91264062e-01
-5.72831250e-08,1.91340625e-01
-5.72431250e-08,1.91237500e-01
-5.72031250e-08,1.91514062e-01
-5.71631250e-08,1.91750000e-01
-5.71231250e-08,1.91671875e-01
-5.70831250e-08,1.91720313e-01
-5.70431250e-08,1.91682813e-01
-5.70031250e-08,1.91717187e-01
-5.69631250e-08,1.91682813e-01
-5.69231250e-08,1.91720313e-01
-5.68831250e-08,1.91675000e-01
-5.68431250e-08,1.91734375e-01
-5.68031250e-08,1.91642188e-01
-5.67631250e-08,1.91910938e-01
-5.67231250e-08,1.92151563e-01
-5.66831250e-08,1.92073437e-01
-5.66431250e-08,1.92117188e-01
-5.66031250e-08,1.92087500e-01
-5.65631250e-08,1.92109375e-01
-5.65231250e-08,1.92092188e-01
-5.64831250e-08,1.92106250e-01
-5.64431250e-08,1.92095313e-01
-5.64031250e-08,1.92103125e-01
-5.63631250e-08,1.92098437e-01
-5.63231250e-08,1.92101563e-01
-5.62831250e-08,1.92100000e-01
-5.62431250e-08,1.92098437e-01
-5.62031250e-08,1.92101563e-01
-5.61631250e-08,1.92096875e-01
-5.61231250e-08,1.92104688e-01
-5.60831250e-08,1.92093750e-01
-5.60431250e-08,1.92109375e-01
-5.60031250e-08,1.92087500e-01
-5.59631250e-08,1.92117188e-01
-5.59231250e-08,1.92073437e-01
-5.58831250e-08,1.92153125e-01
-5.58431250e-08,1.91893750e-01
-5.58031250e-08,1.91643750e-01
-5.57631250e-08,1.91732813e-01
-5.57231250e-08,1.91676563e-01
-5.56831250e-08,1.91717187e-01
-5.56431250e-08,1.91685938e-01
-5.56031250e-08,1.91712500e-01
-5.55631250e-08,1.91689063e-01
-5.55231250e-08,1.91709375e-01
-5.54831250e-08,1.91692187e-01
-5.54431250e-08,1.91707813e-01
-5.54031250e-08,1.91693750e-01
-5.53631250e-08,1.91704687e-01
-5.53231250e-08,1.91695313e-01
-5.52831250e-08,1.91703125e-01
-5.52431250e-08,1.91696875e-01
-5.52031250e-08,1.91701563e-01
-5.51631250e-08,1.91700000e-01
-5.51231250e-08,1.91698438e-01
-5.50831250e-08,1.91703125e-01
-5.50431250e-08,1.91693750e-01
-5.50031250e-08,1.91710938e-01
-5.49631250e-08,1.91679688e-01
-5.49231250e-08,1.91745313e-01
-5.48831250e-08,1.91503125e-01
-5.48431250e-08,1.91234375e-01
-5.48031250e-08,1.91342188e-01
-5.47631250e-08,1.91265625e-01
-5.47231250e-08,1.91329688e-01
-5.46831250e-08,1.91270313e-01
-5.46431250e-08,1.91329688e-01
-5.46031250e-08,1.91267188e-01
-5.45631250e-08,1.91342188e-01
-5.45231250e-08,1.91234375e-01
-5.44831250e-08,1.91518750e-01
-5.44431250e-08,1.91745313e-01
-5.44031250e-08,1.91678125e-01
-5.43631250e-08,1.91712500e-01
-5.43231250e-08,1.91692187e-01
-5.42831250e-08,1.91706250e-01
-5.42431250e-08,1.91696875e-01
-5.42031250e-08,1.91703125e-01
-5.41631250e-08,1.91698438e-01
-5.41231250e-08,1.91701563e-01
-5.40831250e-08,1.91700000e-01
-5.40431250e-08,1.91700000e-01
-5.40031250e-08,1.91700000e-01
-5.39631250e-08,1.91700000e-01
-5.39231250e-08,1.91700000e-01
-5.38831250e-08,1.91700000e-01
-5.38431250e-08,1.91700000e-01
-5.38031250e-08,1.91700000e-01
-5.37631250e-08,1.91700000e-01
-5.37231250e-08,1.91700000e-01
-5.36831250e-08,1.91700000e-01
-5.36431250e-08,1.91700000e-01
-5.36031250e-08,1.91700000e-01
-5.35631250e-08,1.91700000e-01
-5.35231250e-08,1.91700000e-01
-5.34831250e-08,1.91700000e-01
-5.34431250e-08,1.91700000e-01
-5.34031250e-08,1.91700000e-01
-5.33631250e-08,1.91700000e-01
-5.33231250e-08,1.91701563e-01
-5.32831250e-08,1.91698438e-01
-5.32431250e-08,1.91701563e-01
-5.32031250e-08,1.91696875e-01
-5.31631250e-08,1.91703125e-01
-5.31231250e-08,1.91695313e-01
-5.30831250e-08,1.91706250e-01
-5.30431250e-08,1.91690625e-01
-5.30031250e-08,1.91714063e-01
-5.29631250e-08,1.91676563e-01
-5.29231250e-08,1.91746875e-01
-5.28831250e-08,1.91500000e-01
-5.28431250e-08,1.91237500e-01
-5.28031250e-08,1.91339063e-01
-5.27631250e-08,1.91268750e-01
-5.27231250e-08,1.91328125e-01
-5.26831250e-08,1.91273438e-01
-5.26431250e-08,1.91326563e-01
-5.26031250e-08,1.91271875e-01
-5.25631250e-08,1.91332813e-01
-5.25231250e-08,1.91257813e-01
-5.24831250e-08,1.91367188e-01
-5.24431250e-08,1.91079688e-01
-5.24031250e-08,1.90857813e-01
-5.23631250e-08,1.90917188e-01
-5.23231250e-08,1.90893750e-01
-5.22831250e-08,1.90898438e-01
-5.22431250e-08,1.90907812e-01
-5.22031250e-08,1.90881250e-01
-5.21631250e-08,1.90945313e-01
-5.21231250e-08,1.90703125e-01
-5.20831250e-08,1.90434375e-01
-5.20431250e-08,1.90542188e-01
-5.20031250e-08,1.90464063e-01
-5.19631250e-08,1.90534375e-01
-5.19231250e-08,1.90459375e-01
-5.18831250e-08,1.90562500e-01
-5.18431250e-08,1.90285938e-01
-5.18031250e-08,1.90050000e-01
-5.17631250e-08,1.90128125e-01
-5.17231250e-08,1.90078125e-01
-5.16831250e-08,1.90118750e-01
-5.16431250e-08,1.90079688e-01
-5.16031250e-08,1.90123438e-01
-5.15631250e-08,1.90068750e-01
-5.15231250e-08,1.90156250e-01
-5.14831250e-08,1.89892188e-01
-5.14431250e-08,1.89645312e-01
-5.14031250e-08,1.89731250e-01
-5.13631250e-08,1.89678125e-01
-5.13231250e-08,1.89717187e-01
-5.12831250e-08,1.89684375e-01
-5.12431250e-08,1.89714063e-01
-5.12031250e-08,1.89687500e-01
-5.11631250e-08,1.89710938e-01
-5.11231250e-08,1.89689063e-01
-5.10831250e-08,1.89710938e-01
-5.10431250e-08,1.89689063e-01
-5.10031250e-08,1.89709375e-01
-5.09631250e-08,1.89690625e-01
-5.09231250e-08,1.89709375e-01
-5.08831250e-08,1.89689063e-01
-5.08431250e-08,1.89710938e-01
-5.08031250e-08,1.89689063e-01
-5.07631250e-08,1.89710938e-01
-5.07231250e-08,1.89689063e-01
-5.06831250e-08,1.89712500e-01
-5.06431250e-08,1.89687500e-01
-5.06031250e-08,1.89712500e-01
-5.05631250e-08,1.89685938e-01
-5.05231250e-08,1.89715625e-01
-5.04831250e-08,1.89684375e-01
-5.04431250e-08,1.89718750e-01
-5.04031250e-08,1.89679687e-01
-5.03631250e-08,1.89723438e-01
-5.03231250e-08,1.89670312e-01
-5.02831250e-08,1.89739062e-01
-5.02431250e-08,1.89634375e-01
-5.02031250e-08,1.89918750e-01
-5.01631250e-08,1.90142188e-01
-5.01231250e-08,1.90082813e-01
-5.00831250e-08,1.90106250e-01
-5.00431250e-08,1.90100000e-01
-5.00031250e-08,1.90093750e-01
-4.99631250e-08,1.90110938e-01
-4.99231250e-08,1.90081250e-01
-4.98831250e-08,1.90129688e-01
-4.98431250e-08,1.90043750e-01
-4.98031250e-08,1.90310937e-01
-4.97631250e-08,1.90550000e-01
-4.97231250e-08,1.90475000e-01
-4.96831250e-08,1.90514062e-01
-4.96431250e-08,1.90493750e-01
-4.96031250e-08,1.90501562e-01
-4.95631250e-08,1.90504688e-01
-4.95231250e-08,1.90487500e-01
-4.94831250e-08,1.90523438e-01
-4.94431250e-08,1.90450000e-01
-4.94031250e-08,1.90704687e-01
-4.93631250e-08,1.90954687e-01
-4.93231250e-08,1.90870313e-01
-4.92831250e-08,1.90917188e-01
-4.92431250e-08,1.90892188e-01
-4.92031250e-08,1.90900000e-01
-4.91631250e-08,1.90912500e-01
-4.91231250e-08,1.90860937e-01
-4.90831250e-08,1.91095313e-01
-4.90431250e-08,1.91365625e-01
-4.90031250e-08,1.91259375e-01
-4.89631250e-08,1.91328125e-01
-4.89231250e-08,1.91279688e-01
-4.88831250e-08,1.91312500e-01
-4.88431250e-08,1.91298438e-01
-4.88031250e-08,1.91275000e-01
-4.87631250e-08,1.91478125e-01
-4.87231250e-08,1.91784375e-01
-4.86831250e-08,1.91637500e-01
-4.86431250e-08,1.91756250e-01
-4.86031250e-08,1.91643750e-01
-4.85631250e-08,1.91762500e-01
-4.85231250e-08,1.91614063e-01
-4.84831250e-08,1.91937500e-01
-4.84431250e-08,1.92123437e-01
-4.84031250e-08,1.92101563e-01
-4.83631250e-08,1.92085937e-01
-4.83231250e-08,1.92128125e-01
-4.82831250e-08,1.92045313e-01
-4.82431250e-08,1.92307813e-01
-4.82031250e-08,1.92554688e-01
-4.81631250e-08,1.92467187e-01
-4.81231250e-08,1.92525000e-01
-4.80831250e-08,1.92475000e-01
-4.80431250e-08,1.92529688e-01
-4.80031250e-08,1.92448438e-01
-4.79631250e-08,1.92703125e-01
-4.79231250e-08,1.92962500e-01
-4.78831250e-08,1.92859375e-01
-4.78431250e-08,1.92935938e-01
-4.78031250e-08,1.92864063e-01
-4.77631250e-08,1.92942188e-01
-4.77231250e-08,1.92834375e-01
-4.76831250e-08,1.93117188e-01
-4.76431250e-08,1.93346875e-01
-4.76031250e-08,1.93276562e-01
-4.75631250e-08,1.93315625e-01
-4.75231250e-08,1.93287500e-01
-4.74831250e-08,1.93310938e-01
-4.74431250e-08,1.93289062e-01
-4.74031250e-08,1.93312500e-01
-4.73631250e-08,1.93284375e-01
-4.73231250e-08,1.93325000e-01
-4.72831250e-08,1.93251563e-01
-4.72431250e-08,1.93501563e-01
-4.72031250e-08,1.93760938e-01
-4.71631250e-08,1.93660938e-01
-4.71231250e-08,1.93729687e-01
-4.70831250e-08,1.93675000e-01
-4.70431250e-08,1.93723438e-01
-4.70031250e-08,1.93678125e-01
-4.69631250e-08,1.93721875e-01
-4.69231250e-08,1.93676563e-01
-4.68831250e-08,1.93723438e-01
-4.68431250e-08,1.93673438e-01
-4.68031250e-08,1.93731250e-01
-4.67631250e-08,1.93659375e-01
-4.67231250e-08,1.93764063e-01
-4.66831250e-08,1.93482813e-01
-4.66431250e-08,1.93254688e-01
-4.66031250e-08,1.93321875e-01
-4.65631250e-08,1.93287500e-01
-4.65231250e-08,1.93309375e-01
-4.64831250e-08,1.93293750e-01
-4.64431250e-08,1.93306250e-01
-4.64031250e-08,1.93292188e-01
-4.63631250e-08,1.93310938e-01
-4.63231250e-08,1.93282813e-01
-4.62831250e-08,1.93340625e-01
-4.62431250e-08,1.93107813e-01
-4.62031250e-08,1.92826563e-01
-4.61631250e-08,1.92951563e-01
-4.61231250e-08,1.92853125e-01
-4.60831250e-08,1.92948438e-01
-4.60431250e-08,1.92843750e-01
-4.60031250e-08,1.92981250e-01
-4.59631250e-08,1.92665625e-01
-4.59231250e-08,1.92473438e-01
-4.58831250e-08,1.92498438e-01
-4.58431250e-08,1.92515625e-01
-4.58031250e-08,1.92468750e-01
-4.57631250e-08,1.92559375e-01
-4.57231250e-08,1.92284375e-01
-4.56831250e-08,1.92057813e-01
-4.56431250e-08,1.92114063e-01
-4.56031250e-08,1.92101563e-01
-4.55631250e-08,1.92082813e-01
-4.55231250e-08,1.92145312e-01
-4.54831250e-08,1.91896875e-01
-4.54431250e-08,1.91643750e-01
-4.54031250e-08,1.91728125e-01
-4.53631250e-08,1.91685938e-01
-4.53231250e-08,1.91698438e-01
-4.52831250e-08,1.91728125e-01
-4.52431250e-08,1.91517188e-01
-4.52031250e-08,1.91220313e-01
-4.51631250e-08,1.91356250e-01
-4.51231250e-08,1.91251562e-01
-4.50831250e-08,1.91348437e-01
-4.50431250e-08,1.91246875e-01
-4.50031250e-08,1.91376563e-01
-4.49631250e-08,1.91071875e-01
-4.49231250e-08,1.90864063e-01
-4.48831250e-08,1.90912500e-01
-4.48431250e-08,1.90896875e-01
-4.48031250e-08,1.90896875e-01
-4.47631250e-08,1.90906250e-01
-4.47231250e-08,1.90889063e-01
-4.46831250e-08,1.90917188e-01
-4.46431250e-08,1.90873438e-01
-4.46031250e-08,1.90951563e-01
-4.45631250e-08,1.90695313e-01
-4.45231250e-08,1.90442187e-01
-4.44831250e-08,1.90534375e-01
-4.44431250e-08,1.90475000e-01
-4.44031250e-08,1.90520313e-01
-4.43631250e-08,1.90482813e-01
-4.43231250e-08,1.90515625e-01
-4.42831250e-08,1.90485938e-01
-4.42431250e-08,1.90514062e-01
-4.42031250e-08,1.90487500e-01
-4.41631250e-08,1.90512500e-01
-4.41231250e-08,1.90485938e-01
-4.40831250e-08,1.90514062e-01
-4.40431250e-08,1.90485938e-01
-4.40031250e-08,1.90515625e-01
-4.39631250e-08,1.90482813e-01
-4.39231250e-08,1.90518750e-01
-4.38831250e-08,1.90478125e-01
-4.38431250e-08,1.90526562e-01
-4.38031250e-08,1.90464063e-01
-4.37631250e-08,1.90560937e-01
-4.37231250e-08,1.90285938e-01
-4.36831250e-08,1.90053125e-01
-4.36431250e-08,1.90123438e-01
-4.36031250e-08,1.90085937e-01
-4.35631250e-08,1.90107813e-01
-4.35231250e-08,1.90095313e-01
-4.34831250e-08,1.90103125e-01
-4.34431250e-08,1.90100000e-01
-4.34031250e-08,1.90098437e-01
-4.33631250e-08,1.90103125e-01
-4.33231250e-08,1.90095313e-01
-4.32831250e-08,1.90106250e-01
-4.32431250e-08,1.90090625e-01
-4.32031250e-08,1.90110938e-01
-4.31631250e-08,1.90084375e-01
-4.31231250e-08,1.90120312e-01
-4.30831250e-08,1.90068750e-01
-4.30431250e-08,1.90156250e-01
-4.30031250e-08,1.89890625e-01
-4.29631250e-08,1.89648438e-01
-4.29231250e-08,1.89726563e-01
-4.28831250e-08,1.89682813e-01
-4.28431250e-08,1.89710938e-01
-4.28031250e-08,1.89693750e-01
-4.27631250e-08,1.89703125e-01
-4.27231250e-08,1.89700000e-01
-4.26831250e-08,1.89695313e-01
-4.26431250e-08,1.89710938e-01
-4.26031250e-08,1.89678125e-01
-4.25631250e-08,1.89746875e-01
-4.25231250e-08,1.89500000e-01
-4.24831250e-08,1.89239062e-01
-4.24431250e-08,1.89337500e-01
-4.24031250e-08,1.89273438e-01
-4.23631250e-08,1.89321875e-01
-4.23231250e-08,1.89281250e-01
-4.22831250e-08,1.89315625e-01
-4.22431250e-08,1.89285938e-01
-4.22031250e-08,1.89312500e-01
-4.21631250e-08,1.89287500e-01
-4.21231250e-08,1.89310937e-01
-4.20831250e-08,1.89290625e-01
-4.20431250e-08,1.89309375e-01
-4.20031250e-08,1.89292188e-01
-4.19631250e-08,1.89306250e-01
-4.19231250e-08,1.89295313e-01
-4.18831250e-08,1.89303125e-01
-4.18431250e-08,1.89300000e-01
-4.18031250e-08,1.89295313e-01
-4.17631250e-08,1.89314063e-01
-4.17231250e-08,1.89260938e-01
-4.16831250e-08,1.89490625e-01
-4.16431250e-08,1.89773438e-01
-4.16031250e-08,1.89650000e-01
-4.15631250e-08,1.89742187e-01
-4.15231250e-08,1.89659375e-01
-4.14831250e-08,1.89740625e-01
-4.14431250e-08,1.89656250e-01
-4.14031250e-08,1.89753125e-01
-4.13631250e-08,1.89623438e-01
-4.13231250e-08,1.89929687e-01
-4.12831250e-08,1.90131250e-01
-4.12431250e-08,1.90093750e-01
-4.12031250e-08,1.90095313e-01
-4.11631250e-08,1.90112500e-01
-4.11231250e-08,1.90079688e-01
-4.10831250e-08,1.90132812e-01
-4.10431250e-08,1.90040625e-01
-4.10031250e-08,1.90314063e-01
-4.09631250e-08,1.90546875e-01
-4.09231250e-08,1.90479687e-01
-4.08831250e-08,1.90509375e-01
-4.08431250e-08,1.90500000e-01
-4.08031250e-08,1.90492188e-01
-4.07631250e-08,1.90518750e-01
-4.07231250e-08,1.90454687e-01
-4.06831250e-08,1.90700000e-01
-4.06431250e-08,1.90960938e-01
-4.06031250e-08,1.90864063e-01
-4.05631250e-08,1.90926563e-01
-4.05231250e-08,1.90878125e-01
-4.04831250e-08,1.90917188e-01
-4.04431250e-08,1.90884375e-01
-4.04031250e-08,1.90914063e-01
-4.03631250e-08,1.90887500e-01
-4.03231250e-08,1.90910938e-01
-4.02831250e-08,1.90889063e-01
-4.02431250e-08,1.90909375e-01
-4.02031250e-08,1.90890625e-01
-4.01631250e-08,1.90909375e-01
-4.01231250e-08,1.90892188e-01
-4.00831250e-08,1.90907812e-01
-4.00431250e-08,1.90892188e-01
-4.00031250e-08,1.90907812e-01
-3.99631250e-08,1.90892188e-01
-3.99231250e-08,1.90907812e-01
-3.98831250e-08,1.90892188e-01
-3.98431250e-08,1.90907812e-01
-3.98031250e-08,1.90892188e-01
-3.97631250e-08,1.90907812e-01
-3.97231250e-08,1.90892188e-01
-3.96831250e-08,1.90907812e-01
-3.96431250e-08,1.90892188e-01
-3.96031250e-08,1.90907812e-01
-3.95631250e-08,1.90892188e-01
-3.95231250e-08,1.90907812e-01
-3.94831250e-08,1.90890625e-01
-3.94431250e-08,1.90909375e-01
-3.94031250e-08,1.90889063e-01
-3.93631250e-08,1.90910938e-01
-3.93231250e-08,1.90887500e-01
-3.92831250e-08,1.90914063e-01
-3.92431250e-08,1.90882812e-01
-3.92031250e-08,1.90923438e-01
-3.91631250e-08,1.90867188e-01
-3.91231250e-08,1.90957813e-01
-3.90831250e-08,1.90689063e-01
-3.90431250e-08,1.90448438e-01
-3.90031250e-08,1.90528125e-01
-3.89631250e-08,1.90481250e-01
-3.89231250e-08,1.90514062e-01
-3.88831250e-08,1.90489063e-01
-3.88431250e-08,1.90509375e-01
-3.88031250e-08,1.90492188e-01
-3.87631250e-08,1.90506250e-01
-3.87231250e-08,1.90493750e-01
-3.86831250e-08,1.90504688e-01
-3.86431250e-08,1.90495313e-01
-3.86031250e-08,1.90504688e-01
-3.85631250e-08,1.90496875e-01
-3.85231250e-08,1.90503125e-01
