trails/0bdfa5e45fec98341abdd20552c140b4/aes_ch1_20250507114051513.csv

Model,MSO66B
Label,
Waveform Type,ANALOG
Horizontal Units,s
Sample Interval,4.00000000e-11
Record Length,10000
Zero Index,1599.03515625
Vertical Units,A
ANALOG_Thumbnail,
yOffset,1.84500000e-01
yPosition,8.40000000e-01

Labels,
TIME,CH1
-6.39614062e-08,1.89296875e-01
-6.39214062e-08,1.89301563e-01
-6.38814062e-08,1.89300000e-01
-6.38414063e-08,1.89298437e-01
-6.38014062e-08,1.89304688e-01
-6.37614063e-08,1.89290625e-01
-6.37214062e-08,1.89320313e-01
-6.36814062e-08,1.89256250e-01
-6.36414062e-08,1.89496875e-01
-6.36014062e-08,1.89765625e-01
-6.35614063e-08,1.89657812e-01
-6.35214062e-08,1.89732813e-01
-6.34814063e-08,1.89671875e-01
-6.34414062e-08,1.89726563e-01
-6.34014062e-08,1.89675000e-01
-6.33614062e-08,1.89725000e-01
-6.33214062e-08,1.89673438e-01
-6.32814063e-08,1.89728125e-01
-6.32414062e-08,1.89667188e-01
-6.32014063e-08,1.89740625e-01
-6.31614062e-08,1.89634375e-01
-6.31214062e-08,1.89918750e-01
-6.30814062e-08,1.90145312e-01
-6.30414062e-08,1.90078125e-01
-6.30014063e-08,1.90112500e-01
-6.29614062e-08,1.90092188e-01
-6.29214063e-08,1.90104688e-01
-6.28814062e-08,1.90096875e-01
-6.28414062e-08,1.90101563e-01
-6.28014062e-08,1.90098437e-01
-6.27614062e-08,1.90100000e-01
-6.27214063e-08,1.90100000e-01
-6.26814062e-08,1.90100000e-01
-6.26414062e-08,1.90100000e-01
-6.26014062e-08,1.90100000e-01
-6.25614062e-08,1.90100000e-01
-6.25214062e-08,1.90100000e-01
-6.24814062e-08,1.90100000e-01
-6.24414063e-08,1.90101563e-01
-6.24014062e-08,1.90098437e-01
-6.23614062e-08,1.90103125e-01
-6.23214062e-08,1.90093750e-01
-6.22814062e-08,1.90110938e-01
-6.22414062e-08,1.90081250e-01
-6.22014062e-08,1.90142188e-01
-6.21614063e-08,1.89904688e-01
-6.21214062e-08,1.89631250e-01
-6.20814062e-08,1.89748438e-01
-6.20414062e-08,1.89657812e-01
-6.20014062e-08,1.89742187e-01
-6.19614062e-08,1.89650000e-01
-6.19214062e-08,1.89773438e-01
-6.18814063e-08,1.89473438e-01
-6.18414062e-08,1.89264062e-01
-6.18014062e-08,1.89310937e-01
-6.17614062e-08,1.89303125e-01
-6.17214062e-08,1.89284375e-01
-6.16814062e-08,1.89342188e-01
-6.16414062e-08,1.89104688e-01
-6.16014063e-08,1.88831250e-01
-6.15614062e-08,1.88948438e-01
-6.15214062e-08,1.88851563e-01
-6.14814062e-08,1.88967187e-01
-6.14414062e-08,1.88684375e-01
-6.14014062e-08,1.88448438e-01
-6.13614062e-08,1.88534375e-01
-6.13214063e-08,1.88465625e-01
-6.12814062e-08,1.88553125e-01
-6.12414062e-08,1.88298437e-01
-6.12014062e-08,1.88034375e-01
-6.11614062e-08,1.88148438e-01
-6.11214062e-08,1.88050000e-01
-6.10814062e-08,1.88171875e-01
-6.10414063e-08,1.87876563e-01
-6.10014062e-08,1.87660938e-01
-6.09614062e-08,1.87714063e-01
-6.09214062e-08,1.87700000e-01
-6.08814062e-08,1.87685938e-01
-6.08414062e-08,1.87740625e-01
-6.08014062e-08,1.87504688e-01
-6.07614063e-08,1.87234375e-01
-6.07214062e-08,1.87342188e-01
-6.06814062e-08,1.87267188e-01
-6.06414062e-08,1.87326563e-01
-6.06014062e-08,1.87276563e-01
-6.05614063e-08,1.87321875e-01
-6.05214062e-08,1.87279688e-01
-6.04814063e-08,1.87318750e-01
-6.04414062e-08,1.87281250e-01
-6.04014062e-08,1.87318750e-01
-6.03614062e-08,1.87281250e-01
-6.03214062e-08,1.87318750e-01
-6.02814063e-08,1.87281250e-01
-6.02414062e-08,1.87318750e-01
-6.02014063e-08,1.87281250e-01
-6.01614062e-08,1.87318750e-01
-6.01214062e-08,1.87279688e-01
-6.00814062e-08,1.87321875e-01
-6.00414062e-08,1.87278125e-01
-6.00014063e-08,1.87325000e-01
-5.99614062e-08,1.87273438e-01
-5.99214063e-08,1.87329688e-01
-5.98814062e-08,1.87264062e-01
-5.98414062e-08,1.87346875e-01
-5.98014062e-08,1.87228125e-01
-5.97614062e-08,1.87526562e-01
-5.97214063e-08,1.87734375e-01
-5.96814062e-08,1.87690625e-01
-5.96414063e-08,1.87696875e-01
-5.96014062e-08,1.87710938e-01
-5.95614062e-08,1.87679687e-01
-5.95214062e-08,1.87732813e-01
-5.94814062e-08,1.87640625e-01
-5.94414062e-08,1.87914063e-01
-5.94014062e-08,1.88145312e-01
-5.93614062e-08,1.88081250e-01
-5.93214062e-08,1.88106250e-01
-5.92814062e-08,1.88101563e-01
-5.92414062e-08,1.88089063e-01
-5.92014062e-08,1.88123438e-01
-5.91614062e-08,1.88050000e-01
-5.91214062e-08,1.88304688e-01
-5.90814062e-08,1.88554688e-01
-5.90414062e-08,1.88470313e-01
-5.90014062e-08,1.88518750e-01
-5.89614062e-08,1.88489062e-01
-5.89214062e-08,1.88506250e-01
-5.88814062e-08,1.88500000e-01
-5.88414062e-08,1.88493750e-01
-5.88014062e-08,1.88517188e-01
-5.87614062e-08,1.88456250e-01
-5.87214062e-08,1.88698438e-01
-5.86814062e-08,1.88964063e-01
-5.86414062e-08,1.88860938e-01
-5.86014062e-08,1.88929687e-01
-5.85614062e-08,1.88876563e-01
-5.85214062e-08,1.88920313e-01
-5.84814062e-08,1.88882812e-01
-5.84414062e-08,1.88915625e-01
-5.84014062e-08,1.88885938e-01
-5.83614062e-08,1.88912500e-01
-5.83214062e-08,1.88887500e-01
-5.82814062e-08,1.88910938e-01
-5.82414062e-08,1.88889063e-01
-5.82014062e-08,1.88909375e-01
-5.81614062e-08,1.88890625e-01
-5.81214062e-08,1.88909375e-01
-5.80814062e-08,1.88892188e-01
-5.80414062e-08,1.88907812e-01
-5.80014062e-08,1.88892188e-01
-5.79614062e-08,1.88907812e-01
-5.79214062e-08,1.88892188e-01
-5.78814062e-08,1.88906250e-01
-5.78414062e-08,1.88893750e-01
-5.78014062e-08,1.88906250e-01
-5.77614062e-08,1.88893750e-01
-5.77214062e-08,1.88906250e-01
-5.76814062e-08,1.88893750e-01
-5.76414062e-08,1.88906250e-01
-5.76014062e-08,1.88895312e-01
-5.75614062e-08,1.88904688e-01
-5.75214062e-08,1.88895312e-01
-5.74814062e-08,1.88904688e-01
-5.74414062e-08,1.88895312e-01
-5.74014062e-08,1.88904688e-01
-5.73614062e-08,1.88895312e-01
-5.73214062e-08,1.88904688e-01
-5.72814062e-08,1.88895312e-01
-5.72414062e-08,1.88904688e-01
-5.72014062e-08,1.88895312e-01
-5.71614062e-08,1.88904688e-01
-5.71214062e-08,1.88895312e-01
-5.70814062e-08,1.88904688e-01
-5.70414062e-08,1.88895312e-01
-5.70014062e-08,1.88904688e-01
-5.69614062e-08,1.88895312e-01
-5.69214062e-08,1.88904688e-01
-5.68814062e-08,1.88895312e-01
-5.68414062e-08,1.88904688e-01
-5.68014062e-08,1.88895312e-01
-5.67614062e-08,1.88904688e-01
-5.67214062e-08,1.88893750e-01
-5.66814062e-08,1.88906250e-01
-5.66414062e-08,1.88893750e-01
-5.66014062e-08,1.88907812e-01
-5.65614062e-08,1.88889063e-01
-5.65214062e-08,1.88914063e-01
-5.64814062e-08,1.88878125e-01
-5.64414062e-08,1.88945313e-01
-5.64014062e-08,1.88704687e-01
-5.63614062e-08,1.88428125e-01
-5.63214062e-08,1.88557813e-01
-5.62814062e-08,1.88426563e-01
-5.62414062e-08,1.88721875e-01
-5.62014062e-08,1.88943750e-01
-5.61614062e-08,1.88878125e-01
-5.61214062e-08,1.88914063e-01
-5.60814062e-08,1.88890625e-01
-5.60414062e-08,1.88907812e-01
-5.60014062e-08,1.88893750e-01
-5.59614062e-08,1.88904688e-01
-5.59214062e-08,1.88895312e-01
-5.58814062e-08,1.88903125e-01
-5.58414062e-08,1.88896875e-01
-5.58014062e-08,1.88903125e-01
-5.57614062e-08,1.88898438e-01
-5.57214062e-08,1.88901563e-01
-5.56814062e-08,1.88898438e-01
-5.56414062e-08,1.88901563e-01
-5.56014062e-08,1.88898438e-01
-5.55614062e-08,1.88901563e-01
-5.55214062e-08,1.88900000e-01
-5.54814062e-08,1.88900000e-01
-5.54414062e-08,1.88900000e-01
-5.54014062e-08,1.88900000e-01
-5.53614062e-08,1.88900000e-01
-5.53214062e-08,1.88898438e-01
-5.52814062e-08,1.88901563e-01
-5.52414062e-08,1.88898438e-01
-5.52014062e-08,1.88903125e-01
-5.51614062e-08,1.88896875e-01
-5.51214062e-08,1.88904688e-01
-5.50814062e-08,1.88895312e-01
-5.50414062e-08,1.88906250e-01
-5.50014062e-08,1.88890625e-01
-5.49614062e-08,1.88912500e-01
-5.49214062e-08,1.88882812e-01
-5.48814062e-08,1.88926563e-01
-5.48414062e-08,1.88848438e-01
-5.48014062e-08,1.89104688e-01
-5.47614062e-08,1.89357813e-01
-5.47214062e-08,1.89267188e-01
-5.46814062e-08,1.89323437e-01
-5.46414062e-08,1.89281250e-01
-5.46014062e-08,1.89315625e-01
-5.45614062e-08,1.89285938e-01
-5.45214062e-08,1.89312500e-01
-5.44814062e-08,1.89289062e-01
-5.44414062e-08,1.89310937e-01
-5.44014062e-08,1.89290625e-01
-5.43614062e-08,1.89309375e-01
-5.43214062e-08,1.89290625e-01
-5.42814062e-08,1.89307813e-01
-5.42414062e-08,1.89292188e-01
-5.42014062e-08,1.89307813e-01
-5.41614062e-08,1.89292188e-01
-5.41214062e-08,1.89307813e-01
-5.40814062e-08,1.89292188e-01
-5.40414062e-08,1.89306250e-01
-5.40014062e-08,1.89293750e-01
-5.39614062e-08,1.89306250e-01
-5.39214062e-08,1.89293750e-01
-5.38814062e-08,1.89306250e-01
-5.38414062e-08,1.89293750e-01
-5.38014062e-08,1.89306250e-01
-5.37614062e-08,1.89293750e-01
-5.37214062e-08,1.89306250e-01
-5.36814062e-08,1.89293750e-01
-5.36414062e-08,1.89306250e-01
-5.36014062e-08,1.89293750e-01
-5.35614062e-08,1.89306250e-01
-5.35214062e-08,1.89293750e-01
-5.34814062e-08,1.89306250e-01
-5.34414062e-08,1.89293750e-01
-5.34014062e-08,1.89306250e-01
-5.33614062e-08,1.89293750e-01
-5.33214062e-08,1.89306250e-01
-5.32814062e-08,1.89293750e-01
-5.32414062e-08,1.89306250e-01
-5.32014062e-08,1.89293750e-01
-5.31614063e-08,1.89306250e-01
-5.31214062e-08,1.89295313e-01
-5.30814062e-08,1.89304688e-01
-5.30414062e-08,1.89295313e-01
-5.30014062e-08,1.89304688e-01
-5.29614062e-08,1.89295313e-01
-5.29214062e-08,1.89304688e-01
-5.28814062e-08,1.89295313e-01
-5.28414062e-08,1.89304688e-01
-5.28014062e-08,1.89295313e-01
-5.27614062e-08,1.89304688e-01
-5.27214062e-08,1.89295313e-01
-5.26814062e-08,1.89304688e-01
-5.26414062e-08,1.89295313e-01
-5.26014062e-08,1.89304688e-01
-5.25614062e-08,1.89295313e-01
-5.25214062e-08,1.89304688e-01
-5.24814062e-08,1.89295313e-01
-5.24414062e-08,1.89304688e-01
-5.24014062e-08,1.89293750e-01
-5.23614062e-08,1.89304688e-01
-5.23214062e-08,1.89293750e-01
-5.22814062e-08,1.89304688e-01
-5.22414062e-08,1.89293750e-01
-5.22014062e-08,1.89306250e-01
-5.21614062e-08,1.89293750e-01
-5.21214062e-08,1.89306250e-01
-5.20814062e-08,1.89293750e-01
-5.20414062e-08,1.89306250e-01
-5.20014062e-08,1.89293750e-01
-5.19614062e-08,1.89306250e-01
-5.19214062e-08,1.89293750e-01
-5.18814062e-08,1.89306250e-01
-5.18414062e-08,1.89293750e-01
-5.18014062e-08,1.89306250e-01
-5.17614062e-08,1.89293750e-01
-5.17214062e-08,1.89306250e-01
-5.16814062e-08,1.89293750e-01
-5.16414062e-08,1.89306250e-01
-5.16014062e-08,1.89293750e-01
-5.15614062e-08,1.89306250e-01
-5.15214062e-08,1.89293750e-01
-5.14814062e-08,1.89306250e-01
-5.14414062e-08,1.89293750e-01
-5.14014062e-08,1.89306250e-01
-5.13614062e-08,1.89293750e-01
-5.13214062e-08,1.89306250e-01
-5.12814062e-08,1.89295313e-01
-5.12414063e-08,1.89304688e-01
-5.12014062e-08,1.89295313e-01
-5.11614062e-08,1.89304688e-01
-5.11214062e-08,1.89295313e-01
-5.10814062e-08,1.89304688e-01
-5.10414062e-08,1.89296875e-01
-5.10014062e-08,1.89301563e-01
-5.09614063e-08,1.89300000e-01
-5.09214062e-08,1.89298437e-01
-5.08814062e-08,1.89306250e-01
-5.08414062e-08,1.89284375e-01
-5.08014062e-08,1.89339063e-01
-5.07614062e-08,1.89109375e-01
-5.07214062e-08,1.88828125e-01
-5.06814062e-08,1.88950000e-01
-5.06414062e-08,1.88857812e-01
-5.06014062e-08,1.88940625e-01
-5.05614062e-08,1.88859375e-01
-5.05214062e-08,1.88943750e-01
-5.04814062e-08,1.88846875e-01
-5.04414062e-08,1.88978125e-01
-5.04014062e-08,1.88668750e-01
-5.03614062e-08,1.88468750e-01
-5.03214062e-08,1.88506250e-01
-5.02814062e-08,1.88506250e-01
-5.02414062e-08,1.88485938e-01
-5.02014062e-08,1.88521875e-01
-5.01614062e-08,1.88465625e-01
-5.01214062e-08,1.88560937e-01
-5.00814062e-08,1.88284375e-01
-5.00414062e-08,1.88054688e-01
-5.00014062e-08,1.88120312e-01
-4.99614062e-08,1.88090625e-01
-4.99214062e-08,1.88103125e-01
-4.98814062e-08,1.88103125e-01
-4.98414062e-08,1.88092188e-01
-4.98014062e-08,1.88114063e-01
-4.97614062e-08,1.88073437e-01
-4.97214062e-08,1.88151563e-01
-4.96814062e-08,1.87893750e-01
-4.96414062e-08,1.87643750e-01
-4.96014062e-08,1.87731250e-01
-4.95614062e-08,1.87678125e-01
-4.95214062e-08,1.87715625e-01
-4.94814062e-08,1.87687500e-01
-4.94414062e-08,1.87709375e-01
-4.94014062e-08,1.87692187e-01
-4.93614062e-08,1.87706250e-01
-4.93214063e-08,1.87693750e-01
-4.92814062e-08,1.87704687e-01
-4.92414062e-08,1.87695313e-01
-4.92014062e-08,1.87703125e-01
-4.91614062e-08,1.87696875e-01
-4.91214062e-08,1.87701563e-01
-4.90814062e-08,1.87698438e-01
-4.90414063e-08,1.87701563e-01
-4.90014062e-08,1.87700000e-01
-4.89614062e-08,1.87700000e-01
-4.89214062e-08,1.87700000e-01
-4.88814062e-08,1.87700000e-01
-4.88414062e-08,1.87700000e-01
-4.88014062e-08,1.87698438e-01
-4.87614063e-08,1.87701563e-01
-4.87214062e-08,1.87698438e-01
-4.86814062e-08,1.87701563e-01
-4.86414062e-08,1.87698438e-01
-4.86014062e-08,1.87701563e-01
-4.85614062e-08,1.87696875e-01
-4.85214062e-08,1.87703125e-01
-4.84814062e-08,1.87696875e-01
-4.84414062e-08,1.87703125e-01
-4.84014062e-08,1.87696875e-01
-4.83614062e-08,1.87703125e-01
-4.83214062e-08,1.87695313e-01
-4.82814062e-08,1.87704687e-01
-4.82414062e-08,1.87695313e-01
-4.82014062e-08,1.87704687e-01
-4.81614062e-08,1.87695313e-01
-4.81214062e-08,1.87704687e-01
-4.80814062e-08,1.87695313e-01
-4.80414062e-08,1.87706250e-01
-4.80014062e-08,1.87693750e-01
-4.79614062e-08,1.87706250e-01
-4.79214062e-08,1.87693750e-01
-4.78814062e-08,1.87706250e-01
-4.78414062e-08,1.87692187e-01
-4.78014062e-08,1.87707813e-01
-4.77614062e-08,1.87692187e-01
-4.77214062e-08,1.87707813e-01
-4.76814062e-08,1.87690625e-01
-4.76414062e-08,1.87709375e-01
-4.76014062e-08,1.87690625e-01
-4.75614062e-08,1.87709375e-01
-4.75214062e-08,1.87689063e-01
-4.74814062e-08,1.87710938e-01
-4.74414062e-08,1.87687500e-01
-4.74014063e-08,1.87712500e-01
-4.73614062e-08,1.87685938e-01
-4.73214062e-08,1.87714063e-01
-4.72814062e-08,1.87684375e-01
-4.72414062e-08,1.87717187e-01
-4.72014062e-08,1.87681250e-01
-4.71614062e-08,1.87720313e-01
-4.71214063e-08,1.87676563e-01
-4.70814062e-08,1.87726562e-01
-4.70414062e-08,1.87667187e-01
-4.70014062e-08,1.87742188e-01
-4.69614062e-08,1.87631250e-01
-4.69214062e-08,1.87921875e-01
-4.68814062e-08,1.88139063e-01
-4.68414063e-08,1.88087500e-01
-4.68014062e-08,1.88101563e-01
-4.67614062e-08,1.88104688e-01
-4.67214062e-08,1.88089063e-01
-4.66814062e-08,1.88117188e-01
-4.66414062e-08,1.88076563e-01
-4.66014062e-08,1.88135938e-01
-4.65614063e-08,1.88037500e-01
-4.65214062e-08,1.88317188e-01
-4.64814062e-08,1.88542188e-01
-4.64414062e-08,1.88484375e-01
-4.64014062e-08,1.88503125e-01
-4.63614062e-08,1.88506250e-01
-4.63214062e-08,1.88484375e-01
-4.62814062e-08,1.88528125e-01
-4.62414062e-08,1.88443750e-01
-4.62014062e-08,1.88712500e-01
-4.61614062e-08,1.88945313e-01
-4.61214062e-08,1.88882812e-01
-4.60814062e-08,1.88901563e-01
-4.60414062e-08,1.88915625e-01
-4.60014062e-08,1.88856250e-01
-4.59614062e-08,1.89101563e-01
-4.59214062e-08,1.89356250e-01
-4.58814062e-08,1.89271875e-01
-4.58414062e-08,1.89314063e-01
-4.58014062e-08,1.89301563e-01
-4.57614062e-08,1.89270313e-01
-4.57214062e-08,1.89484375e-01
-4.56814062e-08,1.89778125e-01
-4.56414062e-08,1.89643750e-01
-4.56014062e-08,1.89753125e-01
-4.55614062e-08,1.89629688e-01
-4.55214062e-08,1.89917188e-01
-4.54814063e-08,1.90153125e-01
-4.54414062e-08,1.90064063e-01
-4.54014062e-08,1.90139063e-01
-4.53614062e-08,1.90037500e-01
-4.53214062e-08,1.90315625e-01
-4.52814062e-08,1.90545313e-01
-4.52414062e-08,1.90481250e-01
-4.52014063e-08,1.90504688e-01
-4.51614062e-08,1.90510938e-01
-4.51214062e-08,1.90460938e-01
-4.50814062e-08,1.90695313e-01
-4.50414062e-08,1.90964063e-01
-4.50014062e-08,1.90862500e-01
-4.49614062e-08,1.90925000e-01
-4.49214063e-08,1.90882812e-01
-4.48814062e-08,1.90907812e-01
-4.48414062e-08,1.90904688e-01
-4.48014062e-08,1.90868750e-01
-4.47614062e-08,1.91085937e-01
-4.47214062e-08,1.91376563e-01
-4.46814062e-08,1.91248438e-01
-4.46414063e-08,1.91340625e-01
-4.46014062e-08,1.91264062e-01
-4.45614062e-08,1.91331250e-01
-4.45214062e-08,1.91270313e-01
-4.44814062e-08,1.91328125e-01
-4.44414062e-08,1.91273438e-01
-4.44014062e-08,1.91325000e-01
-4.43614063e-08,1.91275000e-01
-4.43214062e-08,1.91323437e-01
-4.42814062e-08,1.91276562e-01
-4.42414062e-08,1.91323437e-01
-4.42014062e-08,1.91276562e-01
-4.41614062e-08,1.91323437e-01
-4.41214062e-08,1.91276562e-01
-4.40814062e-08,1.91323437e-01
-4.40414062e-08,1.91275000e-01
-4.40014062e-08,1.91325000e-01
-4.39614062e-08,1.91273438e-01
-4.39214062e-08,1.91328125e-01
-4.38814062e-08,1.91268750e-01
-4.38414062e-08,1.91335937e-01
-4.38014062e-08,1.91253125e-01
-4.37614062e-08,1.91371875e-01
-4.37214062e-08,1.91075000e-01
-4.36814062e-08,1.90862500e-01
-4.36414062e-08,1.90912500e-01
-4.36014062e-08,1.90896875e-01
-4.35614063e-08,1.90896875e-01
-4.35214062e-08,1.90907812e-01
-4.34814062e-08,1.90885938e-01
-4.34414062e-08,1.90918750e-01
-4.34014062e-08,1.90870313e-01
-4.33614062e-08,1.90954687e-01
-4.33214062e-08,1.90692187e-01
-4.32814063e-08,1.90445313e-01
-4.32414062e-08,1.90531250e-01
-4.32014062e-08,1.90478125e-01
-4.31614062e-08,1.90518750e-01
-4.31214062e-08,1.90481250e-01
-4.30814062e-08,1.90520313e-01
-4.30414062e-08,1.90471875e-01
-4.30014063e-08,1.90551562e-01
-4.29614062e-08,1.90296875e-01
-4.29214062e-08,1.90039062e-01
-4.28814062e-08,1.90139063e-01
-4.28414062e-08,1.90067188e-01
-4.28014062e-08,1.90129688e-01
-4.27614062e-08,1.90068750e-01
-4.27214063e-08,1.90134375e-01
-4.26814062e-08,1.90056250e-01
-4.26414062e-08,1.90167188e-01
-4.26014062e-08,1.89879688e-01
-4.25614062e-08,1.89657812e-01
-4.25214062e-08,1.89718750e-01
-4.24814062e-08,1.89690625e-01
-4.24414063e-08,1.89704687e-01
-4.24014062e-08,1.89700000e-01
-4.23614062e-08,1.89698438e-01
-4.23214062e-08,1.89704687e-01
-4.22814062e-08,1.89693750e-01
-4.22414062e-08,1.89707813e-01
-4.22014062e-08,1.89689063e-01
-4.21614062e-08,1.89712500e-01
-4.21214062e-08,1.89682813e-01
-4.20814062e-08,1.89721875e-01
-4.20414062e-08,1.89667188e-01
-4.20014062e-08,1.89757813e-01
-4.19614062e-08,1.89487500e-01
-4.19214062e-08,1.89250000e-01
-4.18814062e-08,1.89325000e-01
-4.18414062e-08,1.89285938e-01
-4.18014062e-08,1.89307813e-01
-4.17614062e-08,1.89296875e-01
-4.17214062e-08,1.89300000e-01
-4.16814062e-08,1.89304688e-01
-4.16414063e-08,1.89289062e-01
-4.16014062e-08,1.89321875e-01
-4.15614062e-08,1.89253125e-01
-4.15214062e-08,1.89501562e-01
-4.14814062e-08,1.89760938e-01
-4.14414062e-08,1.89664063e-01
-4.14014062e-08,1.89726563e-01
-4.13614063e-08,1.89678125e-01
-4.13214062e-08,1.89718750e-01
-4.12814062e-08,1.89684375e-01
-4.12414062e-08,1.89714063e-01
-4.12014062e-08,1.89685938e-01
-4.11614062e-08,1.89712500e-01
-4.11214062e-08,1.89689063e-01
-4.10814063e-08,1.89710938e-01
-4.10414062e-08,1.89689063e-01
-4.10014062e-08,1.89709375e-01
-4.09614062e-08,1.89690625e-01
-4.09214062e-08,1.89709375e-01
-4.08814062e-08,1.89690625e-01
-4.08414062e-08,1.89709375e-01
-4.08014063e-08,1.89690625e-01
-4.07614062e-08,1.89707813e-01
-4.07214062e-08,1.89692187e-01
-4.06814062e-08,1.89707813e-01
-4.06414062e-08,1.89692187e-01
-4.06014062e-08,1.89707813e-01
-4.05614062e-08,1.89692187e-01
-4.05214063e-08,1.89707813e-01
-4.04814062e-08,1.89692187e-01
-4.04414062e-08,1.89707813e-01
-4.04014062e-08,1.89692187e-01
-4.03614062e-08,1.89709375e-01
-4.03214062e-08,1.89690625e-01
-4.02814062e-08,1.89709375e-01
-4.02414063e-08,1.89690625e-01
-4.02014062e-08,1.89709375e-01
-4.01614062e-08,1.89690625e-01
-4.01214062e-08,1.89710938e-01
-4.00814062e-08,1.89689063e-01
-4.00414062e-08,1.89710938e-01
-4.00014062e-08,1.89689063e-01
-3.99614062e-08,1.89712500e-01
-3.99214062e-08,1.89687500e-01
-3.98814062e-08,1.89714063e-01
-3.98414062e-08,1.89684375e-01
-3.98014062e-08,1.89717187e-01
-3.97614062e-08,1.89681250e-01
-3.97214063e-08,1.89720313e-01
-3.96814062e-08,1.89676563e-01
-3.96414062e-08,1.89729688e-01
-3.96014062e-08,1.89660938e-01
-3.95614062e-08,1.89765625e-01
-3.95214062e-08,1.89481250e-01
-3.94814062e-08,1.89257813e-01
-3.94414063e-08,1.89317188e-01
-3.94014062e-08,1.89293750e-01
-3.93614062e-08,1.89300000e-01
-3.93214062e-08,1.89306250e-01
-3.92814062e-08,1.89289062e-01
-3.92414062e-08,1.89318750e-01
-3.92014062e-08,1.89270313e-01
-3.91614063e-08,1.89356250e-01
-3.91214062e-08,1.89089063e-01
-3.90814062e-08,1.88851563e-01
-3.90414062e-08,1.88923438e-01
-3.90014062e-08,1.88889063e-01
-3.89614062e-08,1.88903125e-01
-3.89214062e-08,1.88906250e-01
-3.88814063e-08,1.88881250e-01
-3.88414062e-08,1.88945313e-01
-3.88014062e-08,1.88700000e-01
-3.87614062e-08,1.88439063e-01
-3.87214062e-08,1.88535938e-01
-3.86814062e-08,1.88475000e-01
-3.86414062e-08,1.88517188e-01
-3.86014063e-08,1.88487500e-01
-3.85614062e-08,1.88506250e-01
-3.85214062e-08,1.88500000e-01
