trails/0bdfa5e45fec98341abdd20552c140b4/aes_ch1_20250507121703044.csv

Model,MSO66B
Label,
Waveform Type,ANALOG
Horizontal Units,s
Sample Interval,4.00000000e-11
Record Length,10000
Zero Index,1599.03515625
Vertical Units,A
ANALOG_Thumbnail,
yOffset,1.84500000e-01
yPosition,8.40000000e-01

Labels,
TIME,CH1
-6.39614062e-08,1.89264062e-01
-6.39214062e-08,1.89326563e-01
-6.38814062e-08,1.89278125e-01
-6.38414063e-08,1.89318750e-01
-6.38014062e-08,1.89284375e-01
-6.37614063e-08,1.89314063e-01
-6.37214062e-08,1.89287500e-01
-6.36814062e-08,1.89312500e-01
-6.36414062e-08,1.89289062e-01
-6.36014062e-08,1.89310937e-01
-6.35614063e-08,1.89289062e-01
-6.35214062e-08,1.89309375e-01
-6.34814063e-08,1.89290625e-01
-6.34414062e-08,1.89309375e-01
-6.34014062e-08,1.89290625e-01
-6.33614062e-08,1.89309375e-01
-6.33214062e-08,1.89290625e-01
-6.32814063e-08,1.89309375e-01
-6.32414062e-08,1.89290625e-01
-6.32014063e-08,1.89309375e-01
-6.31614062e-08,1.89290625e-01
-6.31214062e-08,1.89309375e-01
-6.30814062e-08,1.89290625e-01
-6.30414062e-08,1.89310937e-01
-6.30014063e-08,1.89289062e-01
-6.29614062e-08,1.89312500e-01
-6.29214063e-08,1.89287500e-01
-6.28814062e-08,1.89314063e-01
-6.28414062e-08,1.89282813e-01
-6.28014062e-08,1.89321875e-01
-6.27614062e-08,1.89268750e-01
-6.27214063e-08,1.89356250e-01
-6.26814062e-08,1.89090625e-01
-6.26414062e-08,1.88846875e-01
-6.26014062e-08,1.88929687e-01
-6.25614062e-08,1.88879688e-01
-6.25214062e-08,1.88915625e-01
-6.24814062e-08,1.88885938e-01
-6.24414063e-08,1.88912500e-01
-6.24014062e-08,1.88889063e-01
-6.23614062e-08,1.88910938e-01
-6.23214062e-08,1.88889063e-01
-6.22814062e-08,1.88910938e-01
-6.22414062e-08,1.88887500e-01
-6.22014062e-08,1.88912500e-01
-6.21614063e-08,1.88884375e-01
-6.21214062e-08,1.88917188e-01
-6.20814062e-08,1.88876563e-01
-6.20414062e-08,1.88932813e-01
-6.20014062e-08,1.88842188e-01
-6.19614062e-08,1.89110938e-01
-6.19214062e-08,1.89351563e-01
-6.18814063e-08,1.89271875e-01
-6.18414062e-08,1.89317188e-01
-6.18014062e-08,1.89287500e-01
-6.17614062e-08,1.89309375e-01
-6.17214062e-08,1.89293750e-01
-6.16814062e-08,1.89303125e-01
-6.16414062e-08,1.89298437e-01
-6.16014063e-08,1.89298437e-01
-6.15614062e-08,1.89304688e-01
-6.15214062e-08,1.89289062e-01
-6.14814062e-08,1.89320313e-01
-6.14414062e-08,1.89253125e-01
-6.14014062e-08,1.89500000e-01
-6.13614062e-08,1.89762500e-01
-6.13214063e-08,1.89660938e-01
-6.12814062e-08,1.89729688e-01
-6.12414062e-08,1.89676563e-01
-6.12014062e-08,1.89720313e-01
-6.11614062e-08,1.89681250e-01
-6.11214062e-08,1.89717187e-01
-6.10814062e-08,1.89682813e-01
-6.10414063e-08,1.89715625e-01
-6.10014062e-08,1.89684375e-01
-6.09614062e-08,1.89714063e-01
-6.09214062e-08,1.89685938e-01
-6.08814062e-08,1.89714063e-01
-6.08414062e-08,1.89685938e-01
-6.08014062e-08,1.89714063e-01
-6.07614063e-08,1.89685938e-01
-6.07214062e-08,1.89714063e-01
-6.06814062e-08,1.89685938e-01
-6.06414062e-08,1.89714063e-01
-6.06014062e-08,1.89684375e-01
-6.05614063e-08,1.89715625e-01
-6.05214062e-08,1.89682813e-01
-6.04814063e-08,1.89717187e-01
-6.04414062e-08,1.89681250e-01
-6.04014062e-08,1.89721875e-01
-6.03614062e-08,1.89675000e-01
-6.03214062e-08,1.89729688e-01
-6.02814063e-08,1.89659375e-01
-6.02414062e-08,1.89765625e-01
-6.02014063e-08,1.89481250e-01
-6.01614062e-08,1.89257813e-01
-6.01214062e-08,1.89317188e-01
-6.00814062e-08,1.89293750e-01
-6.00414062e-08,1.89298437e-01
-6.00014063e-08,1.89309375e-01
-5.99614062e-08,1.89279688e-01
-5.99214063e-08,1.89345313e-01
-5.98814062e-08,1.89100000e-01
-5.98414062e-08,1.88837500e-01
-5.98014062e-08,1.88939063e-01
-5.97614062e-08,1.88868750e-01
-5.97214063e-08,1.88928125e-01
-5.96814062e-08,1.88873438e-01
-5.96414063e-08,1.88929687e-01
-5.96014062e-08,1.88862500e-01
-5.95614062e-08,1.88960938e-01
-5.95214062e-08,1.88685938e-01
-5.94814062e-08,1.88450000e-01
-5.94414062e-08,1.88526562e-01
-5.94014062e-08,1.88482813e-01
-5.93614062e-08,1.88514062e-01
-5.93214062e-08,1.88489062e-01
-5.92814062e-08,1.88509375e-01
-5.92414062e-08,1.88492188e-01
-5.92014062e-08,1.88507813e-01
-5.91614062e-08,1.88493750e-01
-5.91214062e-08,1.88506250e-01
-5.90814062e-08,1.88493750e-01
-5.90414062e-08,1.88506250e-01
-5.90014062e-08,1.88493750e-01
-5.89614062e-08,1.88504688e-01
-5.89214062e-08,1.88495313e-01
-5.88814062e-08,1.88504688e-01
-5.88414062e-08,1.88495313e-01
-5.88014062e-08,1.88504688e-01
-5.87614062e-08,1.88495313e-01
-5.87214062e-08,1.88504688e-01
-5.86814062e-08,1.88495313e-01
-5.86414062e-08,1.88504688e-01
-5.86014062e-08,1.88495313e-01
-5.85614062e-08,1.88504688e-01
-5.85214062e-08,1.88495313e-01
-5.84814062e-08,1.88504688e-01
-5.84414062e-08,1.88495313e-01
-5.84014062e-08,1.88504688e-01
-5.83614062e-08,1.88495313e-01
-5.83214062e-08,1.88504688e-01
-5.82814062e-08,1.88495313e-01
-5.82414062e-08,1.88504688e-01
-5.82014062e-08,1.88493750e-01
-5.81614062e-08,1.88506250e-01
-5.81214062e-08,1.88493750e-01
-5.80814062e-08,1.88506250e-01
-5.80414062e-08,1.88493750e-01
-5.80014062e-08,1.88506250e-01
-5.79614062e-08,1.88493750e-01
-5.79214062e-08,1.88506250e-01
-5.78814062e-08,1.88493750e-01
-5.78414062e-08,1.88506250e-01
-5.78014062e-08,1.88493750e-01
-5.77614062e-08,1.88506250e-01
-5.77214062e-08,1.88493750e-01
-5.76814062e-08,1.88507813e-01
-5.76414062e-08,1.88492188e-01
-5.76014062e-08,1.88507813e-01
-5.75614062e-08,1.88492188e-01
-5.75214062e-08,1.88507813e-01
-5.74814062e-08,1.88492188e-01
-5.74414062e-08,1.88509375e-01
-5.74014062e-08,1.88490625e-01
-5.73614062e-08,1.88509375e-01
-5.73214062e-08,1.88489062e-01
-5.72814062e-08,1.88510938e-01
-5.72414062e-08,1.88489062e-01
-5.72014062e-08,1.88512500e-01
-5.71614062e-08,1.88485938e-01
-5.71214062e-08,1.88515625e-01
-5.70814062e-08,1.88482813e-01
-5.70414062e-08,1.88520313e-01
-5.70014062e-08,1.88473438e-01
-5.69614062e-08,1.88535938e-01
-5.69214062e-08,1.88439063e-01
-5.68814062e-08,1.88714063e-01
-5.68414062e-08,1.88946875e-01
-5.68014062e-08,1.88876563e-01
-5.67614062e-08,1.88914063e-01
-5.67214062e-08,1.88892188e-01
-5.66814062e-08,1.88904688e-01
-5.66414062e-08,1.88898438e-01
-5.66014062e-08,1.88900000e-01
-5.65614062e-08,1.88903125e-01
-5.65214062e-08,1.88893750e-01
-5.64814062e-08,1.88909375e-01
-5.64414062e-08,1.88884375e-01
-5.64014062e-08,1.88925000e-01
-5.63614062e-08,1.88850000e-01
-5.63214062e-08,1.89103125e-01
-5.62814062e-08,1.89359375e-01
-5.62414062e-08,1.89264062e-01
-5.62014062e-08,1.89328125e-01
-5.61614062e-08,1.89276562e-01
-5.61214062e-08,1.89321875e-01
-5.60814062e-08,1.89278125e-01
-5.60414062e-08,1.89323437e-01
-5.60014062e-08,1.89273438e-01
-5.59614062e-08,1.89335937e-01
-5.59214062e-08,1.89240625e-01
-5.58814062e-08,1.89510938e-01
-5.58414062e-08,1.89751562e-01
-5.58014062e-08,1.89671875e-01
-5.57614062e-08,1.89718750e-01
-5.57214062e-08,1.89685938e-01
-5.56814062e-08,1.89712500e-01
-5.56414062e-08,1.89689063e-01
-5.56014062e-08,1.89709375e-01
-5.55614062e-08,1.89690625e-01
-5.55214062e-08,1.89707813e-01
-5.54814062e-08,1.89692187e-01
-5.54414062e-08,1.89707813e-01
-5.54014062e-08,1.89692187e-01
-5.53614062e-08,1.89707813e-01
-5.53214062e-08,1.89692187e-01
-5.52814062e-08,1.89707813e-01
-5.52414062e-08,1.89692187e-01
-5.52014062e-08,1.89707813e-01
-5.51614062e-08,1.89692187e-01
-5.51214062e-08,1.89707813e-01
-5.50814062e-08,1.89692187e-01
-5.50414062e-08,1.89709375e-01
-5.50014062e-08,1.89690625e-01
-5.49614062e-08,1.89709375e-01
-5.49214062e-08,1.89690625e-01
-5.48814062e-08,1.89710938e-01
-5.48414062e-08,1.89687500e-01
-5.48014062e-08,1.89712500e-01
-5.47614062e-08,1.89685938e-01
-5.47214062e-08,1.89717187e-01
-5.46814062e-08,1.89679687e-01
-5.46414062e-08,1.89725000e-01
-5.46014062e-08,1.89665625e-01
-5.45614062e-08,1.89759375e-01
-5.45214062e-08,1.89487500e-01
-5.44814062e-08,1.89250000e-01
-5.44414062e-08,1.89325000e-01
-5.44014062e-08,1.89284375e-01
-5.43614062e-08,1.89310937e-01
-5.43214062e-08,1.89292188e-01
-5.42814062e-08,1.89306250e-01
-5.42414062e-08,1.89295313e-01
-5.42014062e-08,1.89303125e-01
-5.41614062e-08,1.89298437e-01
-5.41214062e-08,1.89301563e-01
-5.40814062e-08,1.89300000e-01
-5.40414062e-08,1.89300000e-01
-5.40014062e-08,1.89301563e-01
-5.39614062e-08,1.89298437e-01
-5.39214062e-08,1.89301563e-01
-5.38814062e-08,1.89296875e-01
-5.38414062e-08,1.89303125e-01
-5.38014062e-08,1.89295313e-01
-5.37614062e-08,1.89304688e-01
-5.37214062e-08,1.89295313e-01
-5.36814062e-08,1.89306250e-01
-5.36414062e-08,1.89293750e-01
-5.36014062e-08,1.89307813e-01
-5.35614062e-08,1.89290625e-01
-5.35214062e-08,1.89310937e-01
-5.34814062e-08,1.89287500e-01
-5.34414062e-08,1.89315625e-01
-5.34014062e-08,1.89279688e-01
-5.33614062e-08,1.89329688e-01
-5.33214062e-08,1.89245313e-01
-5.32814062e-08,1.89506250e-01
-5.32414062e-08,1.89756250e-01
-5.32014062e-08,1.89665625e-01
-5.31614063e-08,1.89726563e-01
-5.31214062e-08,1.89675000e-01
-5.30814062e-08,1.89731250e-01
-5.30414062e-08,1.89646875e-01
-5.30014062e-08,1.89903125e-01
-5.29614062e-08,1.90162500e-01
-5.29214062e-08,1.90057813e-01
-5.28814062e-08,1.90137500e-01
-5.28414062e-08,1.90060937e-01
-5.28014062e-08,1.90146875e-01
-5.27614062e-08,1.90028125e-01
-5.27214062e-08,1.90325000e-01
-5.26814062e-08,1.90535938e-01
-5.26414062e-08,1.90490625e-01
-5.26014062e-08,1.90493750e-01
-5.25614062e-08,1.90520313e-01
-5.25214062e-08,1.90451563e-01
-5.24814062e-08,1.90703125e-01
-5.24414062e-08,1.90956250e-01
-5.24014062e-08,1.90868750e-01
-5.23614062e-08,1.90920312e-01
-5.23214062e-08,1.90887500e-01
-5.22814062e-08,1.90907812e-01
-5.22414062e-08,1.90898438e-01
-5.22014062e-08,1.90895312e-01
-5.21614062e-08,1.90915625e-01
-5.21214062e-08,1.90857813e-01
-5.20814062e-08,1.91095313e-01
-5.20414062e-08,1.91365625e-01
-5.20014062e-08,1.91257813e-01
-5.19614062e-08,1.91332813e-01
-5.19214062e-08,1.91273438e-01
-5.18814062e-08,1.91323437e-01
-5.18414062e-08,1.91278125e-01
-5.18014062e-08,1.91320313e-01
-5.17614062e-08,1.91279688e-01
-5.17214062e-08,1.91320313e-01
-5.16814062e-08,1.91279688e-01
-5.16414062e-08,1.91320313e-01
-5.16014062e-08,1.91279688e-01
-5.15614062e-08,1.91321875e-01
-5.15214062e-08,1.91275000e-01
-5.14814062e-08,1.91329688e-01
-5.14414062e-08,1.91260938e-01
-5.14014062e-08,1.91364063e-01
-5.13614062e-08,1.91082813e-01
-5.13214062e-08,1.90854688e-01
-5.12814062e-08,1.90921875e-01
-5.12414063e-08,1.90887500e-01
-5.12014062e-08,1.90907812e-01
-5.11614062e-08,1.90896875e-01
-5.11214062e-08,1.90901563e-01
-5.10814062e-08,1.90901563e-01
-5.10414062e-08,1.90896875e-01
-5.10014062e-08,1.90906250e-01
-5.09614063e-08,1.90890625e-01
-5.09214062e-08,1.90914063e-01
-5.08814062e-08,1.90875000e-01
-5.08414062e-08,1.90950000e-01
-5.08014062e-08,1.90698438e-01
-5.07614062e-08,1.90439063e-01
-5.07214062e-08,1.90535938e-01
-5.06814062e-08,1.90471875e-01
-5.06414062e-08,1.90523438e-01
-5.06014062e-08,1.90479687e-01
-5.05614062e-08,1.90518750e-01
-5.05214062e-08,1.90481250e-01
-5.04814062e-08,1.90518750e-01
-5.04414062e-08,1.90481250e-01
-5.04014062e-08,1.90520313e-01
-5.03614062e-08,1.90476563e-01
-5.03214062e-08,1.90528125e-01
-5.02814062e-08,1.90462500e-01
-5.02414062e-08,1.90562500e-01
-5.02014062e-08,1.90285938e-01
-5.01614062e-08,1.90053125e-01
-5.01214062e-08,1.90123438e-01
-5.00814062e-08,1.90085937e-01
-5.00414062e-08,1.90109375e-01
-5.00014062e-08,1.90093750e-01
-4.99614062e-08,1.90104688e-01
-4.99214062e-08,1.90096875e-01
-4.98814062e-08,1.90101563e-01
-4.98414062e-08,1.90100000e-01
-4.98014062e-08,1.90100000e-01
-4.97614062e-08,1.90101563e-01
-4.97214062e-08,1.90098437e-01
-4.96814062e-08,1.90103125e-01
-4.96414062e-08,1.90096875e-01
-4.96014062e-08,1.90104688e-01
-4.95614062e-08,1.90093750e-01
-4.95214062e-08,1.90107813e-01
-4.94814062e-08,1.90090625e-01
-4.94414062e-08,1.90110938e-01
-4.94014062e-08,1.90085937e-01
-4.93614062e-08,1.90118750e-01
-4.93214063e-08,1.90070313e-01
-4.92814062e-08,1.90154688e-01
-4.92414062e-08,1.89892188e-01
-4.92014062e-08,1.89645312e-01
-4.91614062e-08,1.89731250e-01
-4.91214062e-08,1.89678125e-01
-4.90814062e-08,1.89717187e-01
-4.90414063e-08,1.89687500e-01
-4.90014062e-08,1.89710938e-01
-4.89614062e-08,1.89690625e-01
-4.89214062e-08,1.89707813e-01
-4.88814062e-08,1.89692187e-01
-4.88414062e-08,1.89706250e-01
-4.88014062e-08,1.89693750e-01
-4.87614063e-08,1.89706250e-01
-4.87214062e-08,1.89695313e-01
-4.86814062e-08,1.89704687e-01
-4.86414062e-08,1.89695313e-01
-4.86014062e-08,1.89704687e-01
-4.85614062e-08,1.89696875e-01
-4.85214062e-08,1.89703125e-01
-4.84814062e-08,1.89696875e-01
-4.84414062e-08,1.89703125e-01
-4.84014062e-08,1.89696875e-01
-4.83614062e-08,1.89703125e-01
-4.83214062e-08,1.89696875e-01
-4.82814062e-08,1.89703125e-01
-4.82414062e-08,1.89696875e-01
-4.82014062e-08,1.89701563e-01
-4.81614062e-08,1.89698438e-01
-4.81214062e-08,1.89701563e-01
-4.80814062e-08,1.89698438e-01
-4.80414062e-08,1.89701563e-01
-4.80014062e-08,1.89698438e-01
-4.79614062e-08,1.89701563e-01
-4.79214062e-08,1.89698438e-01
-4.78814062e-08,1.89701563e-01
-4.78414062e-08,1.89698438e-01
-4.78014062e-08,1.89701563e-01
-4.77614062e-08,1.89698438e-01
-4.77214062e-08,1.89701563e-01
-4.76814062e-08,1.89698438e-01
-4.76414062e-08,1.89701563e-01
-4.76014062e-08,1.89698438e-01
-4.75614062e-08,1.89701563e-01
-4.75214062e-08,1.89698438e-01
-4.74814062e-08,1.89700000e-01
-4.74414062e-08,1.89700000e-01
-4.74014063e-08,1.89700000e-01
-4.73614062e-08,1.89700000e-01
-4.73214062e-08,1.89700000e-01
-4.72814062e-08,1.89700000e-01
-4.72414062e-08,1.89700000e-01
-4.72014062e-08,1.89700000e-01
-4.71614062e-08,1.89700000e-01
-4.71214063e-08,1.89700000e-01
-4.70814062e-08,1.89700000e-01
-4.70414062e-08,1.89700000e-01
-4.70014062e-08,1.89700000e-01
-4.69614062e-08,1.89700000e-01
-4.69214062e-08,1.89700000e-01
-4.68814062e-08,1.89700000e-01
-4.68414063e-08,1.89700000e-01
-4.68014062e-08,1.89700000e-01
-4.67614062e-08,1.89700000e-01
-4.67214062e-08,1.89700000e-01
-4.66814062e-08,1.89700000e-01
-4.66414062e-08,1.89700000e-01
-4.66014062e-08,1.89700000e-01
-4.65614063e-08,1.89700000e-01
-4.65214062e-08,1.89700000e-01
-4.64814062e-08,1.89700000e-01
-4.64414062e-08,1.89700000e-01
-4.64014062e-08,1.89700000e-01
-4.63614062e-08,1.89700000e-01
-4.63214062e-08,1.89700000e-01
-4.62814062e-08,1.89700000e-01
-4.62414062e-08,1.89700000e-01
-4.62014062e-08,1.89700000e-01
-4.61614062e-08,1.89700000e-01
-4.61214062e-08,1.89700000e-01
-4.60814062e-08,1.89700000e-01
-4.60414062e-08,1.89700000e-01
-4.60014062e-08,1.89700000e-01
-4.59614062e-08,1.89698438e-01
-4.59214062e-08,1.89701563e-01
-4.58814062e-08,1.89698438e-01
-4.58414062e-08,1.89701563e-01
-4.58014062e-08,1.89698438e-01
-4.57614062e-08,1.89701563e-01
-4.57214062e-08,1.89698438e-01
-4.56814062e-08,1.89701563e-01
-4.56414062e-08,1.89698438e-01
-4.56014062e-08,1.89701563e-01
-4.55614062e-08,1.89698438e-01
-4.55214062e-08,1.89701563e-01
-4.54814063e-08,1.89698438e-01
-4.54414062e-08,1.89701563e-01
-4.54014062e-08,1.89698438e-01
-4.53614062e-08,1.89701563e-01
-4.53214062e-08,1.89698438e-01
-4.52814062e-08,1.89701563e-01
-4.52414062e-08,1.89698438e-01
-4.52014063e-08,1.89701563e-01
-4.51614062e-08,1.89698438e-01
-4.51214062e-08,1.89701563e-01
-4.50814062e-08,1.89698438e-01
-4.50414062e-08,1.89701563e-01
-4.50014062e-08,1.89698438e-01
-4.49614062e-08,1.89701563e-01
-4.49214063e-08,1.89698438e-01
-4.48814062e-08,1.89701563e-01
-4.48414062e-08,1.89698438e-01
-4.48014062e-08,1.89701563e-01
-4.47614062e-08,1.89698438e-01
-4.47214062e-08,1.89701563e-01
-4.46814062e-08,1.89698438e-01
-4.46414063e-08,1.89701563e-01
-4.46014062e-08,1.89698438e-01
-4.45614062e-08,1.89701563e-01
-4.45214062e-08,1.89698438e-01
-4.44814062e-08,1.89701563e-01
-4.44414062e-08,1.89700000e-01
-4.44014062e-08,1.89700000e-01
-4.43614063e-08,1.89700000e-01
-4.43214062e-08,1.89700000e-01
-4.42814062e-08,1.89700000e-01
-4.42414062e-08,1.89700000e-01
-4.42014062e-08,1.89701563e-01
-4.41614062e-08,1.89698438e-01
-4.41214062e-08,1.89703125e-01
-4.40814062e-08,1.89695313e-01
-4.40414062e-08,1.89706250e-01
-4.40014062e-08,1.89690625e-01
-4.39614062e-08,1.89714063e-01
-4.39214062e-08,1.89676563e-01
-4.38814062e-08,1.89748438e-01
-4.38414062e-08,1.89500000e-01
-4.38014062e-08,1.89237500e-01
-4.37614062e-08,1.89339063e-01
-4.37214062e-08,1.89270313e-01
-4.36814062e-08,1.89325000e-01
-4.36414062e-08,1.89276562e-01
-4.36014062e-08,1.89321875e-01
-4.35614063e-08,1.89279688e-01
-4.35214062e-08,1.89320313e-01
-4.34814062e-08,1.89279688e-01
-4.34414062e-08,1.89320313e-01
-4.34014062e-08,1.89278125e-01
-4.33614062e-08,1.89323437e-01
-4.33214062e-08,1.89273438e-01
-4.32814063e-08,1.89331250e-01
-4.32414062e-08,1.89259375e-01
-4.32014062e-08,1.89365625e-01
-4.31614062e-08,1.89081250e-01
-4.31214062e-08,1.88857812e-01
-4.30814062e-08,1.88918750e-01
-4.30414062e-08,1.88890625e-01
-4.30014063e-08,1.88904688e-01
-4.29614062e-08,1.88900000e-01
-4.29214062e-08,1.88898438e-01
-4.28814062e-08,1.88903125e-01
-4.28414062e-08,1.88893750e-01
-4.28014062e-08,1.88907812e-01
-4.27614062e-08,1.88890625e-01
-4.27214063e-08,1.88910938e-01
-4.26814062e-08,1.88887500e-01
-4.26414062e-08,1.88915625e-01
-4.26014062e-08,1.88881250e-01
-4.25614062e-08,1.88925000e-01
-4.25214062e-08,1.88865625e-01
-4.24814062e-08,1.88959375e-01
-4.24414063e-08,1.88685938e-01
-4.24014062e-08,1.88451563e-01
-4.23614062e-08,1.88523438e-01
-4.23214062e-08,1.88485938e-01
-4.22814062e-08,1.88507813e-01
-4.22414062e-08,1.88495313e-01
-4.22014062e-08,1.88501562e-01
-4.21614062e-08,1.88501562e-01
-4.21214062e-08,1.88495313e-01
-4.20814062e-08,1.88507813e-01
-4.20414062e-08,1.88489062e-01
-4.20014062e-08,1.88517188e-01
-4.19614062e-08,1.88471875e-01
-4.19214062e-08,1.88553125e-01
-4.18814062e-08,1.88293750e-01
-4.18414062e-08,1.88045313e-01
-4.18014062e-08,1.88131250e-01
-4.17614062e-08,1.88078125e-01
-4.17214062e-08,1.88115625e-01
-4.16814062e-08,1.88087500e-01
-4.16414063e-08,1.88110938e-01
-4.16014062e-08,1.88090625e-01
-4.15614062e-08,1.88107812e-01
-4.15214062e-08,1.88093750e-01
-4.14814062e-08,1.88104688e-01
-4.14414062e-08,1.88095313e-01
-4.14014062e-08,1.88103125e-01
-4.13614063e-08,1.88096875e-01
-4.13214062e-08,1.88103125e-01
-4.12814062e-08,1.88098437e-01
-4.12414062e-08,1.88101563e-01
-4.12014062e-08,1.88098437e-01
-4.11614062e-08,1.88100000e-01
-4.11214062e-08,1.88100000e-01
-4.10814063e-08,1.88100000e-01
-4.10414062e-08,1.88101563e-01
-4.10014062e-08,1.88098437e-01
-4.09614062e-08,1.88101563e-01
-4.09214062e-08,1.88096875e-01
-4.08814062e-08,1.88103125e-01
-4.08414062e-08,1.88095313e-01
-4.08014063e-08,1.88104688e-01
-4.07614062e-08,1.88093750e-01
-4.07214062e-08,1.88107812e-01
-4.06814062e-08,1.88090625e-01
-4.06414062e-08,1.88112500e-01
-4.06014062e-08,1.88082813e-01
-4.05614062e-08,1.88128125e-01
-4.05214063e-08,1.88048437e-01
-4.04814062e-08,1.88304688e-01
-4.04414062e-08,1.88557813e-01
-4.04014062e-08,1.88465625e-01
-4.03614062e-08,1.88526562e-01
-4.03214062e-08,1.88476562e-01
-4.02814062e-08,1.88521875e-01
-4.02414063e-08,1.88475000e-01
-4.02014062e-08,1.88532813e-01
-4.01614062e-08,1.88445313e-01
-4.01214062e-08,1.88706250e-01
-4.00814062e-08,1.88957813e-01
-4.00414062e-08,1.88862500e-01
-4.00014062e-08,1.88931250e-01
-3.99614062e-08,1.88868750e-01
-3.99214062e-08,1.88937500e-01
-3.98814062e-08,1.88839063e-01
-3.98414062e-08,1.89112500e-01
-3.98014062e-08,1.89351563e-01
-3.97614062e-08,1.89268750e-01
-3.97214063e-08,1.89323437e-01
-3.96814062e-08,1.89276562e-01
-3.96414062e-08,1.89329688e-01
-3.96014062e-08,1.89248438e-01
-3.95614062e-08,1.89501562e-01
-3.95214062e-08,1.89762500e-01
-3.94814062e-08,1.89657812e-01
-3.94414063e-08,1.89737500e-01
-3.94014062e-08,1.89662500e-01
-3.93614062e-08,1.89745313e-01
-3.93214062e-08,1.89631250e-01
-3.92814062e-08,1.89921875e-01
-3.92414062e-08,1.90140625e-01
-3.92014062e-08,1.90084375e-01
-3.91614063e-08,1.90106250e-01
-3.91214062e-08,1.90100000e-01
-3.90814062e-08,1.90095313e-01
-3.90414062e-08,1.90109375e-01
-3.90014062e-08,1.90084375e-01
-3.89614062e-08,1.90126563e-01
-3.89214062e-08,1.90046875e-01
-3.88814063e-08,1.90306250e-01
-3.88414062e-08,1.90554688e-01
-3.88014062e-08,1.90468750e-01
-3.87614062e-08,1.90520313e-01
-3.87214062e-08,1.90484375e-01
-3.86814062e-08,1.90512500e-01
-3.86414062e-08,1.90490625e-01
-3.86014063e-08,1.90507813e-01
-3.85614062e-08,1.90493750e-01
-3.85214062e-08,1.90504688e-01
