trails/0bdfa5e45fec98341abdd20552c140b4/aes_ch1_20250507121306487.csv

Model,MSO66B
Label,
Waveform Type,ANALOG
Horizontal Units,s
Sample Interval,4.00000000e-11
Record Length,10000
Zero Index,1599.10156250
Vertical Units,A
ANALOG_Thumbnail,
yOffset,1.84500000e-01
yPosition,8.40000000e-01

Labels,
TIME,CH1
-6.39640625e-08,1.88112500e-01
-6.39240625e-08,1.88089063e-01
-6.38840625e-08,1.88109375e-01
-6.38440625e-08,1.88092188e-01
-6.38040625e-08,1.88107812e-01
-6.37640625e-08,1.88093750e-01
-6.37240625e-08,1.88106250e-01
-6.36840625e-08,1.88093750e-01
-6.36440625e-08,1.88106250e-01
-6.36040625e-08,1.88095313e-01
-6.35640625e-08,1.88104688e-01
-6.35240625e-08,1.88095313e-01
-6.34840625e-08,1.88104688e-01
-6.34440625e-08,1.88095313e-01
-6.34040625e-08,1.88103125e-01
-6.33640625e-08,1.88096875e-01
-6.33240625e-08,1.88103125e-01
-6.32840625e-08,1.88096875e-01
-6.32440625e-08,1.88103125e-01
-6.32040625e-08,1.88096875e-01
-6.31640625e-08,1.88103125e-01
-6.31240625e-08,1.88096875e-01
-6.30840625e-08,1.88103125e-01
-6.30440625e-08,1.88098437e-01
-6.30040625e-08,1.88101563e-01
-6.29640625e-08,1.88098437e-01
-6.29240625e-08,1.88101563e-01
-6.28840625e-08,1.88098437e-01
-6.28440625e-08,1.88101563e-01
-6.28040625e-08,1.88098437e-01
-6.27640625e-08,1.88101563e-01
-6.27240625e-08,1.88100000e-01
-6.26840625e-08,1.88100000e-01
-6.26440625e-08,1.88100000e-01
-6.26040625e-08,1.88100000e-01
-6.25640625e-08,1.88101563e-01
-6.25240625e-08,1.88098437e-01
-6.24840625e-08,1.88103125e-01
-6.24440625e-08,1.88096875e-01
-6.24040625e-08,1.88104688e-01
-6.23640625e-08,1.88093750e-01
-6.23240625e-08,1.88109375e-01
-6.22840625e-08,1.88085937e-01
-6.22440625e-08,1.88123438e-01
-6.22040625e-08,1.88051563e-01
-6.21640625e-08,1.88301563e-01
-6.21240625e-08,1.88560937e-01
-6.20840625e-08,1.88462500e-01
-6.20440625e-08,1.88528125e-01
-6.20040625e-08,1.88476562e-01
-6.19640625e-08,1.88521875e-01
-6.19240625e-08,1.88479687e-01
-6.18840625e-08,1.88518750e-01
-6.18440625e-08,1.88481250e-01
-6.18040625e-08,1.88520313e-01
-6.17640625e-08,1.88478125e-01
-6.17240625e-08,1.88523438e-01
-6.16840625e-08,1.88471875e-01
-6.16440625e-08,1.88537500e-01
-6.16040625e-08,1.88437500e-01
-6.15640625e-08,1.88715625e-01
-6.15240625e-08,1.88946875e-01
-6.14840625e-08,1.88876563e-01
-6.14440625e-08,1.88914063e-01
-6.14040625e-08,1.88890625e-01
-6.13640625e-08,1.88906250e-01
-6.13240625e-08,1.88895312e-01
-6.12840625e-08,1.88903125e-01
-6.12440625e-08,1.88898438e-01
-6.12040625e-08,1.88900000e-01
-6.11640625e-08,1.88900000e-01
-6.11240625e-08,1.88898438e-01
-6.10840625e-08,1.88901563e-01
-6.10440625e-08,1.88898438e-01
-6.10040625e-08,1.88903125e-01
-6.09640625e-08,1.88896875e-01
-6.09240625e-08,1.88904688e-01
-6.08840625e-08,1.88895312e-01
-6.08440625e-08,1.88906250e-01
-6.08040625e-08,1.88892188e-01
-6.07640625e-08,1.88909375e-01
-6.07240625e-08,1.88889063e-01
-6.06840625e-08,1.88914063e-01
-6.06440625e-08,1.88881250e-01
-6.06040625e-08,1.88929687e-01
-6.05640625e-08,1.88846875e-01
-6.05240625e-08,1.89106250e-01
-6.04840625e-08,1.89354688e-01
-6.04440625e-08,1.89268750e-01
-6.04040625e-08,1.89321875e-01
-6.03640625e-08,1.89282813e-01
-6.03240625e-08,1.89314063e-01
-6.02840625e-08,1.89287500e-01
-6.02440625e-08,1.89310937e-01
-6.02040625e-08,1.89290625e-01
-6.01640625e-08,1.89309375e-01
-6.01240625e-08,1.89292188e-01
-6.00840625e-08,1.89307813e-01
-6.00440625e-08,1.89293750e-01
-6.00040625e-08,1.89306250e-01
-5.99640625e-08,1.89293750e-01
-5.99240625e-08,1.89306250e-01
-5.98840625e-08,1.89293750e-01
-5.98440625e-08,1.89306250e-01
-5.98040625e-08,1.89293750e-01
-5.97640625e-08,1.89304688e-01
-5.97240625e-08,1.89295313e-01
-5.96840625e-08,1.89304688e-01
-5.96440625e-08,1.89295313e-01
-5.96040625e-08,1.89304688e-01
-5.95640625e-08,1.89295313e-01
-5.95240625e-08,1.89304688e-01
-5.94840625e-08,1.89295313e-01
-5.94440625e-08,1.89304688e-01
-5.94040625e-08,1.89295313e-01
-5.93640625e-08,1.89304688e-01
-5.93240625e-08,1.89295313e-01
-5.92840625e-08,1.89306250e-01
-5.92440625e-08,1.89293750e-01
-5.92040625e-08,1.89306250e-01
-5.91640625e-08,1.89293750e-01
-5.91240625e-08,1.89306250e-01
-5.90840625e-08,1.89293750e-01
-5.90440625e-08,1.89307813e-01
-5.90040625e-08,1.89292188e-01
-5.89640625e-08,1.89307813e-01
-5.89240625e-08,1.89290625e-01
-5.88840625e-08,1.89309375e-01
-5.88440625e-08,1.89289062e-01
-5.88040625e-08,1.89314063e-01
-5.87640625e-08,1.89282813e-01
-5.87240625e-08,1.89321875e-01
-5.86840625e-08,1.89268750e-01
-5.86440625e-08,1.89356250e-01
-5.86040625e-08,1.89090625e-01
-5.85640625e-08,1.88846875e-01
-5.85240625e-08,1.88929687e-01
-5.84840625e-08,1.88879688e-01
-5.84440625e-08,1.88915625e-01
-5.84040625e-08,1.88887500e-01
-5.83640625e-08,1.88910938e-01
-5.83240625e-08,1.88890625e-01
-5.82840625e-08,1.88909375e-01
-5.82440625e-08,1.88892188e-01
-5.82040625e-08,1.88907812e-01
-5.81640625e-08,1.88892188e-01
-5.81240625e-08,1.88907812e-01
-5.80840625e-08,1.88892188e-01
-5.80440625e-08,1.88907812e-01
-5.80040625e-08,1.88892188e-01
-5.79640625e-08,1.88909375e-01
-5.79240625e-08,1.88890625e-01
-5.78840625e-08,1.88910938e-01
-5.78440625e-08,1.88887500e-01
-5.78040625e-08,1.88915625e-01
-5.77640625e-08,1.88879688e-01
-5.77240625e-08,1.88929687e-01
-5.76840625e-08,1.88845313e-01
-5.76440625e-08,1.89107812e-01
-5.76040625e-08,1.89354688e-01
-5.75640625e-08,1.89268750e-01
-5.75240625e-08,1.89321875e-01
-5.74840625e-08,1.89282813e-01
-5.74440625e-08,1.89314063e-01
-5.74040625e-08,1.89287500e-01
-5.73640625e-08,1.89310937e-01
-5.73240625e-08,1.89290625e-01
-5.72840625e-08,1.89309375e-01
-5.72440625e-08,1.89292188e-01
-5.72040625e-08,1.89307813e-01
-5.71640625e-08,1.89292188e-01
-5.71240625e-08,1.89307813e-01
-5.70840625e-08,1.89292188e-01
-5.70440625e-08,1.89307813e-01
-5.70040625e-08,1.89293750e-01
-5.69640625e-08,1.89306250e-01
-5.69240625e-08,1.89293750e-01
-5.68840625e-08,1.89306250e-01
-5.68440625e-08,1.89293750e-01
-5.68040625e-08,1.89306250e-01
-5.67640625e-08,1.89293750e-01
-5.67240625e-08,1.89306250e-01
-5.66840625e-08,1.89293750e-01
-5.66440625e-08,1.89306250e-01
-5.66040625e-08,1.89293750e-01
-5.65640625e-08,1.89306250e-01
-5.65240625e-08,1.89293750e-01
-5.64840625e-08,1.89307813e-01
-5.64440625e-08,1.89292188e-01
-5.64040625e-08,1.89307813e-01
-5.63640625e-08,1.89292188e-01
-5.63240625e-08,1.89307813e-01
-5.62840625e-08,1.89292188e-01
-5.62440625e-08,1.89307813e-01
-5.62040625e-08,1.89290625e-01
-5.61640625e-08,1.89309375e-01
-5.61240625e-08,1.89290625e-01
-5.60840625e-08,1.89309375e-01
-5.60440625e-08,1.89289062e-01
-5.60040625e-08,1.89310937e-01
-5.59640625e-08,1.89287500e-01
-5.59240625e-08,1.89312500e-01
-5.58840625e-08,1.89285938e-01
-5.58440625e-08,1.89315625e-01
-5.58040625e-08,1.89282813e-01
-5.57640625e-08,1.89321875e-01
-5.57240625e-08,1.89273438e-01
-5.56840625e-08,1.89335937e-01
-5.56440625e-08,1.89239062e-01
-5.56040625e-08,1.89514062e-01
-5.55640625e-08,1.89746875e-01
-5.55240625e-08,1.89676563e-01
-5.54840625e-08,1.89714063e-01
-5.54440625e-08,1.89692187e-01
-5.54040625e-08,1.89704687e-01
-5.53640625e-08,1.89698438e-01
-5.53240625e-08,1.89700000e-01
-5.52840625e-08,1.89701563e-01
-5.52440625e-08,1.89696875e-01
-5.52040625e-08,1.89706250e-01
-5.51640625e-08,1.89692187e-01
-5.51240625e-08,1.89712500e-01
-5.50840625e-08,1.89682813e-01
-5.50440625e-08,1.89726563e-01
-5.50040625e-08,1.89648438e-01
-5.49640625e-08,1.89904688e-01
-5.49240625e-08,1.90157812e-01
-5.48840625e-08,1.90065625e-01
-5.48440625e-08,1.90125000e-01
-5.48040625e-08,1.90079688e-01
-5.47640625e-08,1.90118750e-01
-5.47240625e-08,1.90081250e-01
-5.46840625e-08,1.90118750e-01
-5.46440625e-08,1.90078125e-01
-5.46040625e-08,1.90131250e-01
-5.45640625e-08,1.90045313e-01
-5.45240625e-08,1.90306250e-01
-5.44840625e-08,1.90557813e-01
-5.44440625e-08,1.90465625e-01
-5.44040625e-08,1.90526562e-01
-5.43640625e-08,1.90476563e-01
-5.43240625e-08,1.90523438e-01
-5.42840625e-08,1.90476563e-01
-5.42440625e-08,1.90525000e-01
-5.42040625e-08,1.90470313e-01
-5.41640625e-08,1.90539062e-01
-5.41240625e-08,1.90435938e-01
-5.40840625e-08,1.90717187e-01
-5.40440625e-08,1.90945313e-01
-5.40040625e-08,1.90879688e-01
-5.39640625e-08,1.90910938e-01
-5.39240625e-08,1.90895312e-01
-5.38840625e-08,1.90901563e-01
-5.38440625e-08,1.90903125e-01
-5.38040625e-08,1.90893750e-01
-5.37640625e-08,1.90910938e-01
-5.37240625e-08,1.90884375e-01
-5.36840625e-08,1.90926563e-01
-5.36440625e-08,1.90848437e-01
-5.36040625e-08,1.91106250e-01
-5.35640625e-08,1.91356250e-01
-5.35240625e-08,1.91268750e-01
-5.34840625e-08,1.91321875e-01
-5.34440625e-08,1.91282813e-01
-5.34040625e-08,1.91314062e-01
-5.33640625e-08,1.91289062e-01
-5.33240625e-08,1.91309375e-01
-5.32840625e-08,1.91292188e-01
-5.32440625e-08,1.91307813e-01
-5.32040625e-08,1.91293750e-01
-5.31640625e-08,1.91304688e-01
-5.31240625e-08,1.91295313e-01
-5.30840625e-08,1.91304688e-01
-5.30440625e-08,1.91296875e-01
-5.30040625e-08,1.91303125e-01
-5.29640625e-08,1.91296875e-01
-5.29240625e-08,1.91301563e-01
-5.28840625e-08,1.91298438e-01
-5.28440625e-08,1.91301563e-01
-5.28040625e-08,1.91300000e-01
-5.27640625e-08,1.91300000e-01
-5.27240625e-08,1.91300000e-01
-5.26840625e-08,1.91298438e-01
-5.26440625e-08,1.91301563e-01
-5.26040625e-08,1.91298438e-01
-5.25640625e-08,1.91301563e-01
-5.25240625e-08,1.91296875e-01
-5.24840625e-08,1.91303125e-01
-5.24440625e-08,1.91295313e-01
-5.24040625e-08,1.91304688e-01
-5.23640625e-08,1.91293750e-01
-5.23240625e-08,1.91307813e-01
-5.22840625e-08,1.91290625e-01
-5.22440625e-08,1.91312500e-01
-5.22040625e-08,1.91284375e-01
-5.21640625e-08,1.91320313e-01
-5.21240625e-08,1.91268750e-01
-5.20840625e-08,1.91356250e-01
-5.20440625e-08,1.91090625e-01
-5.20040625e-08,1.90848437e-01
-5.19640625e-08,1.90928125e-01
-5.19240625e-08,1.90881250e-01
-5.18840625e-08,1.90912500e-01
-5.18440625e-08,1.90892188e-01
-5.18040625e-08,1.90904688e-01
-5.17640625e-08,1.90898438e-01
-5.17240625e-08,1.90898438e-01
-5.16840625e-08,1.90904688e-01
-5.16440625e-08,1.90889063e-01
-5.16040625e-08,1.90920312e-01
-5.15640625e-08,1.90853125e-01
-5.15240625e-08,1.91100000e-01
-5.14840625e-08,1.91362500e-01
-5.14440625e-08,1.91262500e-01
-5.14040625e-08,1.91328125e-01
-5.13640625e-08,1.91276562e-01
-5.13240625e-08,1.91320313e-01
-5.12840625e-08,1.91282813e-01
-5.12440625e-08,1.91315625e-01
-5.12040625e-08,1.91285938e-01
-5.11640625e-08,1.91314062e-01
-5.11240625e-08,1.91287500e-01
-5.10840625e-08,1.91312500e-01
-5.10440625e-08,1.91287500e-01
-5.10040625e-08,1.91310938e-01
-5.09640625e-08,1.91289062e-01
-5.09240625e-08,1.91310938e-01
-5.08840625e-08,1.91289062e-01
-5.08440625e-08,1.91310938e-01
-5.08040625e-08,1.91289062e-01
-5.07640625e-08,1.91310938e-01
-5.07240625e-08,1.91289062e-01
-5.06840625e-08,1.91310938e-01
-5.06440625e-08,1.91287500e-01
-5.06040625e-08,1.91312500e-01
-5.05640625e-08,1.91287500e-01
-5.05240625e-08,1.91314062e-01
-5.04840625e-08,1.91284375e-01
-5.04440625e-08,1.91317188e-01
-5.04040625e-08,1.91279688e-01
-5.03640625e-08,1.91325000e-01
-5.03240625e-08,1.91264062e-01
-5.02840625e-08,1.91359375e-01
-5.02440625e-08,1.91085937e-01
-5.02040625e-08,1.90851563e-01
-5.01640625e-08,1.90925000e-01
-5.01240625e-08,1.90884375e-01
-5.00840625e-08,1.90909375e-01
-5.00440625e-08,1.90893750e-01
-5.00040625e-08,1.90903125e-01
-4.99640625e-08,1.90900000e-01
-4.99240625e-08,1.90895312e-01
-4.98840625e-08,1.90909375e-01
-4.98440625e-08,1.90881250e-01
-4.98040625e-08,1.90943750e-01
-4.97640625e-08,1.90703125e-01
-4.97240625e-08,1.90432812e-01
-4.96840625e-08,1.90543750e-01
-4.96440625e-08,1.90464063e-01
-4.96040625e-08,1.90532813e-01
-4.95640625e-08,1.90467187e-01
-4.95240625e-08,1.90537500e-01
-4.94840625e-08,1.90454687e-01
-4.94440625e-08,1.90568750e-01
-4.94040625e-08,1.90278125e-01
-4.93640625e-08,1.90059375e-01
-4.93240625e-08,1.90115625e-01
-4.92840625e-08,1.90093750e-01
-4.92440625e-08,1.90100000e-01
-4.92040625e-08,1.90104688e-01
-4.91640625e-08,1.90090625e-01
-4.91240625e-08,1.90115625e-01
-4.90840625e-08,1.90073437e-01
-4.90440625e-08,1.90151563e-01
-4.90040625e-08,1.89893750e-01
-4.89640625e-08,1.89643750e-01
-4.89240625e-08,1.89731250e-01
-4.88840625e-08,1.89678125e-01
-4.88440625e-08,1.89717187e-01
-4.88040625e-08,1.89687500e-01
-4.87640625e-08,1.89710938e-01
-4.87240625e-08,1.89690625e-01
-4.86840625e-08,1.89707813e-01
-4.86440625e-08,1.89693750e-01
-4.86040625e-08,1.89704687e-01
-4.85640625e-08,1.89696875e-01
-4.85240625e-08,1.89701563e-01
-4.84840625e-08,1.89700000e-01
-4.84440625e-08,1.89698438e-01
-4.84040625e-08,1.89704687e-01
-4.83640625e-08,1.89689063e-01
-4.83240625e-08,1.89720313e-01
-4.82840625e-08,1.89654688e-01
-4.82440625e-08,1.89896875e-01
-4.82040625e-08,1.90165625e-01
-4.81640625e-08,1.90057813e-01
-4.81240625e-08,1.90132812e-01
-4.80840625e-08,1.90070313e-01
-4.80440625e-08,1.90128125e-01
-4.80040625e-08,1.90071875e-01
-4.79640625e-08,1.90129688e-01
-4.79240625e-08,1.90065625e-01
-4.78840625e-08,1.90142188e-01
-4.78440625e-08,1.90032813e-01
-4.78040625e-08,1.90320313e-01
-4.77640625e-08,1.90542188e-01
-4.77240625e-08,1.90481250e-01
-4.76840625e-08,1.90507813e-01
-4.76440625e-08,1.90498438e-01
-4.76040625e-08,1.90496875e-01
-4.75640625e-08,1.90506250e-01
-4.75240625e-08,1.90487500e-01
-4.74840625e-08,1.90523438e-01
-4.74440625e-08,1.90451563e-01
-4.74040625e-08,1.90701563e-01
-4.73640625e-08,1.90960938e-01
-4.73240625e-08,1.90862500e-01
-4.72840625e-08,1.90928125e-01
-4.72440625e-08,1.90876563e-01
-4.72040625e-08,1.90920312e-01
-4.71640625e-08,1.90881250e-01
-4.71240625e-08,1.90918750e-01
-4.70840625e-08,1.90882812e-01
-4.70440625e-08,1.90918750e-01
-4.70040625e-08,1.90881250e-01
-4.69640625e-08,1.90920312e-01
-4.69240625e-08,1.90878125e-01
-4.68840625e-08,1.90926563e-01
-4.68440625e-08,1.90868750e-01
-4.68040625e-08,1.90942187e-01
-4.67640625e-08,1.90832813e-01
-4.67240625e-08,1.91123437e-01
-4.66840625e-08,1.91335937e-01
-4.66440625e-08,1.91292188e-01
-4.66040625e-08,1.91289062e-01
-4.65640625e-08,1.91340625e-01
-4.65240625e-08,1.91103125e-01
-4.64840625e-08,1.90835937e-01
-4.64440625e-08,1.90937500e-01
-4.64040625e-08,1.90871875e-01
-4.63640625e-08,1.90921875e-01
-4.63240625e-08,1.90881250e-01
-4.62840625e-08,1.90915625e-01
-4.62440625e-08,1.90885938e-01
-4.62040625e-08,1.90912500e-01
-4.61640625e-08,1.90889063e-01
-4.61240625e-08,1.90910938e-01
-4.60840625e-08,1.90890625e-01
-4.60440625e-08,1.90909375e-01
-4.60040625e-08,1.90892188e-01
-4.59640625e-08,1.90907812e-01
-4.59240625e-08,1.90892188e-01
-4.58840625e-08,1.90907812e-01
-4.58440625e-08,1.90893750e-01
-4.58040625e-08,1.90906250e-01
-4.57640625e-08,1.90893750e-01
-4.57240625e-08,1.90906250e-01
-4.56840625e-08,1.90893750e-01
-4.56440625e-08,1.90906250e-01
-4.56040625e-08,1.90893750e-01
-4.55640625e-08,1.90904688e-01
-4.55240625e-08,1.90895312e-01
-4.54840625e-08,1.90904688e-01
-4.54440625e-08,1.90895312e-01
-4.54040625e-08,1.90904688e-01
-4.53640625e-08,1.90895312e-01
-4.53240625e-08,1.90904688e-01
-4.52840625e-08,1.90895312e-01
-4.52440625e-08,1.90904688e-01
-4.52040625e-08,1.90895312e-01
-4.51640625e-08,1.90904688e-01
-4.51240625e-08,1.90895312e-01
-4.50840625e-08,1.90904688e-01
-4.50440625e-08,1.90895312e-01
-4.50040625e-08,1.90904688e-01
-4.49640625e-08,1.90896875e-01
-4.49240625e-08,1.90903125e-01
-4.48840625e-08,1.90896875e-01
-4.48440625e-08,1.90903125e-01
-4.48040625e-08,1.90896875e-01
-4.47640625e-08,1.90903125e-01
-4.47240625e-08,1.90896875e-01
-4.46840625e-08,1.90903125e-01
-4.46440625e-08,1.90896875e-01
-4.46040625e-08,1.90903125e-01
-4.45640625e-08,1.90896875e-01
-4.45240625e-08,1.90903125e-01
-4.44840625e-08,1.90896875e-01
-4.44440625e-08,1.90903125e-01
-4.44040625e-08,1.90896875e-01
-4.43640625e-08,1.90903125e-01
-4.43240625e-08,1.90896875e-01
-4.42840625e-08,1.90903125e-01
-4.42440625e-08,1.90896875e-01
-4.42040625e-08,1.90903125e-01
-4.41640625e-08,1.90896875e-01
-4.41240625e-08,1.90903125e-01
-4.40840625e-08,1.90896875e-01
-4.40440625e-08,1.90903125e-01
-4.40040625e-08,1.90896875e-01
-4.39640625e-08,1.90903125e-01
-4.39240625e-08,1.90896875e-01
-4.38840625e-08,1.90903125e-01
-4.38440625e-08,1.90896875e-01
-4.38040625e-08,1.90903125e-01
-4.37640625e-08,1.90896875e-01
-4.37240625e-08,1.90903125e-01
-4.36840625e-08,1.90896875e-01
-4.36440625e-08,1.90903125e-01
-4.36040625e-08,1.90896875e-01
-4.35640625e-08,1.90903125e-01
-4.35240625e-08,1.90896875e-01
-4.34840625e-08,1.90903125e-01
-4.34440625e-08,1.90896875e-01
-4.34040625e-08,1.90903125e-01
-4.33640625e-08,1.90896875e-01
-4.33240625e-08,1.90903125e-01
-4.32840625e-08,1.90896875e-01
-4.32440625e-08,1.90903125e-01
-4.32040625e-08,1.90896875e-01
-4.31640625e-08,1.90903125e-01
-4.31240625e-08,1.90896875e-01
-4.30840625e-08,1.90903125e-01
-4.30440625e-08,1.90896875e-01
-4.30040625e-08,1.90903125e-01
-4.29640625e-08,1.90896875e-01
-4.29240625e-08,1.90903125e-01
-4.28840625e-08,1.90896875e-01
-4.28440625e-08,1.90903125e-01
-4.28040625e-08,1.90896875e-01
-4.27640625e-08,1.90903125e-01
-4.27240625e-08,1.90896875e-01
-4.26840625e-08,1.90903125e-01
-4.26440625e-08,1.90896875e-01
-4.26040625e-08,1.90903125e-01
-4.25640625e-08,1.90896875e-01
-4.25240625e-08,1.90903125e-01
-4.24840625e-08,1.90896875e-01
-4.24440625e-08,1.90903125e-01
-4.24040625e-08,1.90896875e-01
-4.23640625e-08,1.90903125e-01
-4.23240625e-08,1.90896875e-01
-4.22840625e-08,1.90903125e-01
-4.22440625e-08,1.90895312e-01
-4.22040625e-08,1.90904688e-01
-4.21640625e-08,1.90895312e-01
-4.21240625e-08,1.90904688e-01
-4.20840625e-08,1.90895312e-01
-4.20440625e-08,1.90904688e-01
-4.20040625e-08,1.90895312e-01
-4.19640625e-08,1.90904688e-01
-4.19240625e-08,1.90893750e-01
-4.18840625e-08,1.90906250e-01
-4.18440625e-08,1.90893750e-01
-4.18040625e-08,1.90907812e-01
-4.17640625e-08,1.90892188e-01
-4.17240625e-08,1.90907812e-01
-4.16840625e-08,1.90890625e-01
-4.16440625e-08,1.90910938e-01
-4.16040625e-08,1.90887500e-01
-4.15640625e-08,1.90915625e-01
-4.15240625e-08,1.90878125e-01
-4.14840625e-08,1.90931250e-01
-4.14440625e-08,1.90843750e-01
-4.14040625e-08,1.91109375e-01
-4.13640625e-08,1.91353125e-01
-4.13240625e-08,1.91270313e-01
-4.12840625e-08,1.91320313e-01
-4.12440625e-08,1.91284375e-01
-4.12040625e-08,1.91312500e-01
-4.11640625e-08,1.91289062e-01
-4.11240625e-08,1.91309375e-01
-4.10840625e-08,1.91292188e-01
-4.10440625e-08,1.91307813e-01
-4.10040625e-08,1.91293750e-01
-4.09640625e-08,1.91306250e-01
-4.09240625e-08,1.91293750e-01
-4.08840625e-08,1.91306250e-01
-4.08440625e-08,1.91293750e-01
-4.08040625e-08,1.91304688e-01
-4.07640625e-08,1.91295313e-01
-4.07240625e-08,1.91304688e-01
-4.06840625e-08,1.91295313e-01
-4.06440625e-08,1.91306250e-01
-4.06040625e-08,1.91293750e-01
-4.05640625e-08,1.91306250e-01
-4.05240625e-08,1.91293750e-01
-4.04840625e-08,1.91306250e-01
-4.04440625e-08,1.91292188e-01
-4.04040625e-08,1.91307813e-01
-4.03640625e-08,1.91290625e-01
-4.03240625e-08,1.91310938e-01
-4.02840625e-08,1.91287500e-01
-4.02440625e-08,1.91315625e-01
-4.02040625e-08,1.91279688e-01
-4.01640625e-08,1.91331250e-01
-4.01240625e-08,1.91243750e-01
-4.00840625e-08,1.91509375e-01
-4.00440625e-08,1.91753125e-01
-4.00040625e-08,1.91670312e-01
-3.99640625e-08,1.91718750e-01
-3.99240625e-08,1.91685938e-01
-3.98840625e-08,1.91709375e-01
-3.98440625e-08,1.91693750e-01
-3.98040625e-08,1.91703125e-01
-3.97640625e-08,1.91700000e-01
-3.97240625e-08,1.91695313e-01
-3.96840625e-08,1.91715625e-01
-3.96440625e-08,1.91660938e-01
-3.96040625e-08,1.91892188e-01
-3.95640625e-08,1.92170312e-01
-3.95240625e-08,1.92051562e-01
-3.94840625e-08,1.92140625e-01
-3.94440625e-08,1.92062500e-01
-3.94040625e-08,1.92137500e-01
-3.93640625e-08,1.92059375e-01
-3.93240625e-08,1.92148438e-01
-3.92840625e-08,1.92026562e-01
-3.92440625e-08,1.92325000e-01
-3.92040625e-08,1.92537500e-01
-3.91640625e-08,1.92487500e-01
-3.91240625e-08,1.92503125e-01
-3.90840625e-08,1.92501563e-01
-3.90440625e-08,1.92493750e-01
-3.90040625e-08,1.92509375e-01
-3.89640625e-08,1.92487500e-01
-3.89240625e-08,1.92517188e-01
-3.88840625e-08,1.92476563e-01
-3.88440625e-08,1.92532813e-01
-3.88040625e-08,1.92442188e-01
-3.87640625e-08,1.92712500e-01
-3.87240625e-08,1.92950000e-01
-3.86840625e-08,1.92875000e-01
-3.86440625e-08,1.92915625e-01
-3.86040625e-08,1.92890625e-01
-3.85640625e-08,1.92906250e-01
-3.85240625e-08,1.92896875e-01
