trails/0bdfa5e45fec98341abdd20552c140b4/aes_ch1_20250507114313339.csv

Model,MSO66B
Label,
Waveform Type,ANALOG
Horizontal Units,s
Sample Interval,4.00000000e-11
Record Length,10000
Zero Index,1599.13281250
Vertical Units,A
ANALOG_Thumbnail,
yOffset,1.84500000e-01
yPosition,8.40000000e-01

Labels,
TIME,CH1
-6.39653125e-08,1.99492188e-01
-6.39253125e-08,1.99243750e-01
-6.38853125e-08,1.99332813e-01
-6.38453125e-08,1.99275000e-01
-6.38053125e-08,1.99321875e-01
-6.37653125e-08,1.99278125e-01
-6.37253125e-08,1.99325000e-01
-6.36853125e-08,1.99267187e-01
-6.36453125e-08,1.99356250e-01
-6.36053125e-08,1.99092188e-01
-6.35653125e-08,1.98843750e-01
-6.35253125e-08,1.98932813e-01
-6.34853125e-08,1.98875000e-01
-6.34453125e-08,1.98921875e-01
-6.34053125e-08,1.98879688e-01
-6.33653125e-08,1.98920313e-01
-6.33253125e-08,1.98876563e-01
-6.32853125e-08,1.98926563e-01
-6.32453125e-08,1.98864062e-01
-6.32053125e-08,1.98960938e-01
-6.31653125e-08,1.98685938e-01
-6.31253125e-08,1.98451563e-01
-6.30853125e-08,1.98525000e-01
-6.30453125e-08,1.98484375e-01
-6.30053125e-08,1.98510938e-01
-6.29653125e-08,1.98492188e-01
-6.29253125e-08,1.98504687e-01
-6.28853125e-08,1.98496875e-01
-6.28453125e-08,1.98500000e-01
-6.28053125e-08,1.98501563e-01
-6.27653125e-08,1.98496875e-01
-6.27253125e-08,1.98506250e-01
-6.26853125e-08,1.98490625e-01
-6.26453125e-08,1.98514063e-01
-6.26053125e-08,1.98475000e-01
-6.25653125e-08,1.98550000e-01
-6.25253125e-08,1.98296875e-01
-6.24853125e-08,1.98040625e-01
-6.24453125e-08,1.98135937e-01
-6.24053125e-08,1.98073438e-01
-6.23653125e-08,1.98120313e-01
-6.23253125e-08,1.98082813e-01
-6.22853125e-08,1.98115625e-01
-6.22453125e-08,1.98085938e-01
-6.22053125e-08,1.98112500e-01
-6.21653125e-08,1.98087500e-01
-6.21253125e-08,1.98110938e-01
-6.20853125e-08,1.98089062e-01
-6.20453125e-08,1.98110938e-01
-6.20053125e-08,1.98089062e-01
-6.19653125e-08,1.98109375e-01
-6.19253125e-08,1.98090625e-01
-6.18853125e-08,1.98109375e-01
-6.18453125e-08,1.98090625e-01
-6.18053125e-08,1.98109375e-01
-6.17653125e-08,1.98090625e-01
-6.17253125e-08,1.98109375e-01
-6.16853125e-08,1.98090625e-01
-6.16453125e-08,1.98109375e-01
-6.16053125e-08,1.98090625e-01
-6.15653125e-08,1.98109375e-01
-6.15253125e-08,1.98090625e-01
-6.14853125e-08,1.98110938e-01
-6.14453125e-08,1.98089062e-01
-6.14053125e-08,1.98110938e-01
-6.13653125e-08,1.98089062e-01
-6.13253125e-08,1.98112500e-01
-6.12853125e-08,1.98087500e-01
-6.12453125e-08,1.98114063e-01
-6.12053125e-08,1.98084375e-01
-6.11653125e-08,1.98117188e-01
-6.11253125e-08,1.98079688e-01
-6.10853125e-08,1.98126563e-01
-6.10453125e-08,1.98064062e-01
-6.10053125e-08,1.98160938e-01
-6.09653125e-08,1.97885937e-01
-6.09253125e-08,1.97651563e-01
-6.08853125e-08,1.97723438e-01
-6.08453125e-08,1.97685938e-01
-6.08053125e-08,1.97709375e-01
-6.07653125e-08,1.97693750e-01
-6.07253125e-08,1.97703125e-01
-6.06853125e-08,1.97698438e-01
-6.06453125e-08,1.97700000e-01
-6.06053125e-08,1.97703125e-01
-6.05653125e-08,1.97695312e-01
-6.05253125e-08,1.97706250e-01
-6.04853125e-08,1.97689063e-01
-6.04453125e-08,1.97715625e-01
-6.04053125e-08,1.97675000e-01
-6.03653125e-08,1.97750000e-01
-6.03253125e-08,1.97496875e-01
-6.02853125e-08,1.97240625e-01
-6.02453125e-08,1.97335938e-01
-6.02053125e-08,1.97273438e-01
-6.01653125e-08,1.97321875e-01
-6.01253125e-08,1.97279688e-01
-6.00853125e-08,1.97318750e-01
-6.00453125e-08,1.97281250e-01
-6.00053125e-08,1.97320313e-01
-5.99653125e-08,1.97278125e-01
-5.99253125e-08,1.97326562e-01
-5.98853125e-08,1.97265625e-01
-5.98453125e-08,1.97359375e-01
-5.98053125e-08,1.97087500e-01
-5.97653125e-08,1.96848438e-01
-5.97253125e-08,1.96926563e-01
-5.96853125e-08,1.96881250e-01
-5.96453125e-08,1.96914063e-01
-5.96053125e-08,1.96889063e-01
-5.95653125e-08,1.96909375e-01
-5.95253125e-08,1.96892188e-01
-5.94853125e-08,1.96906250e-01
-5.94453125e-08,1.96893750e-01
-5.94053125e-08,1.96906250e-01
-5.93653125e-08,1.96895313e-01
-5.93253125e-08,1.96904688e-01
-5.92853125e-08,1.96895313e-01
-5.92453125e-08,1.96904688e-01
-5.92053125e-08,1.96895313e-01
-5.91653125e-08,1.96904688e-01
-5.91253125e-08,1.96895313e-01
-5.90853125e-08,1.96904688e-01
-5.90453125e-08,1.96895313e-01
-5.90053125e-08,1.96904688e-01
-5.89653125e-08,1.96895313e-01
-5.89253125e-08,1.96904688e-01
-5.88853125e-08,1.96895313e-01
-5.88453125e-08,1.96904688e-01
-5.88053125e-08,1.96895313e-01
-5.87653125e-08,1.96904688e-01
-5.87253125e-08,1.96895313e-01
-5.86853125e-08,1.96904688e-01
-5.86453125e-08,1.96895313e-01
-5.86053125e-08,1.96904688e-01
-5.85653125e-08,1.96895313e-01
-5.85253125e-08,1.96904688e-01
-5.84853125e-08,1.96895313e-01
-5.84453125e-08,1.96904688e-01
-5.84053125e-08,1.96895313e-01
-5.83653125e-08,1.96906250e-01
-5.83253125e-08,1.96893750e-01
-5.82853125e-08,1.96906250e-01
-5.82453125e-08,1.96893750e-01
-5.82053125e-08,1.96906250e-01
-5.81653125e-08,1.96892188e-01
-5.81253125e-08,1.96907813e-01
-5.80853125e-08,1.96890625e-01
-5.80453125e-08,1.96909375e-01
-5.80053125e-08,1.96889063e-01
-5.79653125e-08,1.96912500e-01
-5.79253125e-08,1.96885937e-01
-5.78853125e-08,1.96917188e-01
-5.78453125e-08,1.96878125e-01
-5.78053125e-08,1.96931250e-01
-5.77653125e-08,1.96843750e-01
-5.77253125e-08,1.97109375e-01
-5.76853125e-08,1.97353125e-01
-5.76453125e-08,1.97270313e-01
-5.76053125e-08,1.97320313e-01
-5.75653125e-08,1.97284375e-01
-5.75253125e-08,1.97312500e-01
-5.74853125e-08,1.97289063e-01
-5.74453125e-08,1.97310938e-01
-5.74053125e-08,1.97289063e-01
-5.73653125e-08,1.97310938e-01
-5.73253125e-08,1.97287500e-01
-5.72853125e-08,1.97314062e-01
-5.72453125e-08,1.97281250e-01
-5.72053125e-08,1.97326562e-01
-5.71653125e-08,1.97248438e-01
-5.71253125e-08,1.97503125e-01
-5.70853125e-08,1.97759375e-01
-5.70453125e-08,1.97662500e-01
-5.70053125e-08,1.97729688e-01
-5.69653125e-08,1.97675000e-01
-5.69253125e-08,1.97725000e-01
-5.68853125e-08,1.97675000e-01
-5.68453125e-08,1.97726563e-01
-5.68053125e-08,1.97668750e-01
-5.67653125e-08,1.97740625e-01
-5.67253125e-08,1.97634375e-01
-5.66853125e-08,1.97918750e-01
-5.66453125e-08,1.98143750e-01
-5.66053125e-08,1.98079688e-01
-5.65653125e-08,1.98109375e-01
-5.65253125e-08,1.98096875e-01
-5.64853125e-08,1.98098438e-01
-5.64453125e-08,1.98106250e-01
-5.64053125e-08,1.98087500e-01
-5.63653125e-08,1.98121875e-01
-5.63253125e-08,1.98053125e-01
-5.62853125e-08,1.98300000e-01
-5.62453125e-08,1.98562500e-01
-5.62053125e-08,1.98460938e-01
-5.61653125e-08,1.98529687e-01
-5.61253125e-08,1.98473438e-01
-5.60853125e-08,1.98526563e-01
-5.60453125e-08,1.98470312e-01
-5.60053125e-08,1.98537500e-01
-5.59653125e-08,1.98439063e-01
-5.59253125e-08,1.98712500e-01
-5.58853125e-08,1.98951563e-01
-5.58453125e-08,1.98871875e-01
-5.58053125e-08,1.98920313e-01
-5.57653125e-08,1.98882813e-01
-5.57253125e-08,1.98915625e-01
-5.56853125e-08,1.98885937e-01
-5.56453125e-08,1.98914063e-01
-5.56053125e-08,1.98884375e-01
-5.55653125e-08,1.98918750e-01
-5.55253125e-08,1.98876563e-01
-5.54853125e-08,1.98932813e-01
-5.54453125e-08,1.98843750e-01
-5.54053125e-08,1.99109375e-01
-5.53653125e-08,1.99353125e-01
-5.53253125e-08,1.99270313e-01
-5.52853125e-08,1.99320313e-01
-5.52453125e-08,1.99284375e-01
-5.52053125e-08,1.99312500e-01
-5.51653125e-08,1.99289063e-01
-5.51253125e-08,1.99309375e-01
-5.50853125e-08,1.99292187e-01
-5.50453125e-08,1.99307813e-01
-5.50053125e-08,1.99292187e-01
-5.49653125e-08,1.99307813e-01
-5.49253125e-08,1.99293750e-01
-5.48853125e-08,1.99306250e-01
-5.48453125e-08,1.99292187e-01
-5.48053125e-08,1.99307813e-01
-5.47653125e-08,1.99292187e-01
-5.47253125e-08,1.99309375e-01
-5.46853125e-08,1.99290625e-01
-5.46453125e-08,1.99312500e-01
-5.46053125e-08,1.99285938e-01
-5.45653125e-08,1.99318750e-01
-5.45253125e-08,1.99271875e-01
-5.44853125e-08,1.99353125e-01
-5.44453125e-08,1.99093750e-01
-5.44053125e-08,1.98843750e-01
-5.43653125e-08,1.98932813e-01
-5.43253125e-08,1.98876563e-01
-5.42853125e-08,1.98918750e-01
-5.42453125e-08,1.98884375e-01
-5.42053125e-08,1.98914063e-01
-5.41653125e-08,1.98887500e-01
-5.41253125e-08,1.98912500e-01
-5.40853125e-08,1.98887500e-01
-5.40453125e-08,1.98910937e-01
-5.40053125e-08,1.98889063e-01
-5.39653125e-08,1.98910937e-01
-5.39253125e-08,1.98889063e-01
-5.38853125e-08,1.98912500e-01
-5.38453125e-08,1.98887500e-01
-5.38053125e-08,1.98912500e-01
-5.37653125e-08,1.98885937e-01
-5.37253125e-08,1.98915625e-01
-5.36853125e-08,1.98882813e-01
-5.36453125e-08,1.98920313e-01
-5.36053125e-08,1.98875000e-01
-5.35653125e-08,1.98935937e-01
-5.35253125e-08,1.98839062e-01
-5.34853125e-08,1.99114063e-01
-5.34453125e-08,1.99348438e-01
-5.34053125e-08,1.99275000e-01
-5.33653125e-08,1.99315625e-01
-5.33253125e-08,1.99289063e-01
-5.32853125e-08,1.99307813e-01
-5.32453125e-08,1.99295313e-01
-5.32053125e-08,1.99303125e-01
-5.31653125e-08,1.99296875e-01
-5.31253125e-08,1.99301563e-01
-5.30853125e-08,1.99298438e-01
-5.30453125e-08,1.99300000e-01
-5.30053125e-08,1.99300000e-01
-5.29653125e-08,1.99298438e-01
-5.29253125e-08,1.99301563e-01
-5.28853125e-08,1.99298438e-01
-5.28453125e-08,1.99303125e-01
-5.28053125e-08,1.99296875e-01
-5.27653125e-08,1.99303125e-01
-5.27253125e-08,1.99295313e-01
-5.26853125e-08,1.99304688e-01
-5.26453125e-08,1.99295313e-01
-5.26053125e-08,1.99306250e-01
-5.25653125e-08,1.99293750e-01
-5.25253125e-08,1.99307813e-01
-5.24853125e-08,1.99290625e-01
-5.24453125e-08,1.99309375e-01
-5.24053125e-08,1.99289063e-01
-5.23653125e-08,1.99314062e-01
-5.23253125e-08,1.99282813e-01
-5.22853125e-08,1.99321875e-01
-5.22453125e-08,1.99267187e-01
-5.22053125e-08,1.99357813e-01
-5.21653125e-08,1.99089062e-01
-5.21253125e-08,1.98848438e-01
-5.20853125e-08,1.98926563e-01
-5.20453125e-08,1.98882813e-01
-5.20053125e-08,1.98912500e-01
-5.19653125e-08,1.98890625e-01
-5.19253125e-08,1.98906250e-01
-5.18853125e-08,1.98895313e-01
-5.18453125e-08,1.98903125e-01
-5.18053125e-08,1.98898437e-01
-5.17653125e-08,1.98900000e-01
-5.17253125e-08,1.98901563e-01
-5.16853125e-08,1.98895313e-01
-5.16453125e-08,1.98906250e-01
-5.16053125e-08,1.98890625e-01
-5.15653125e-08,1.98915625e-01
-5.15253125e-08,1.98875000e-01
-5.14853125e-08,1.98950000e-01
-5.14453125e-08,1.98696875e-01
-5.14053125e-08,1.98440625e-01
-5.13653125e-08,1.98534375e-01
-5.13253125e-08,1.98475000e-01
-5.12853125e-08,1.98520313e-01
-5.12453125e-08,1.98482812e-01
-5.12053125e-08,1.98515625e-01
-5.11653125e-08,1.98485938e-01
-5.11253125e-08,1.98514063e-01
-5.10853125e-08,1.98487500e-01
-5.10453125e-08,1.98512500e-01
-5.10053125e-08,1.98487500e-01
-5.09653125e-08,1.98514063e-01
-5.09253125e-08,1.98485938e-01
-5.08853125e-08,1.98515625e-01
-5.08453125e-08,1.98481250e-01
-5.08053125e-08,1.98523438e-01
-5.07653125e-08,1.98467188e-01
-5.07253125e-08,1.98557813e-01
-5.06853125e-08,1.98290625e-01
-5.06453125e-08,1.98046875e-01
-5.06053125e-08,1.98129688e-01
-5.05653125e-08,1.98079688e-01
-5.05253125e-08,1.98115625e-01
-5.04853125e-08,1.98087500e-01
-5.04453125e-08,1.98110938e-01
-5.04053125e-08,1.98090625e-01
-5.03653125e-08,1.98109375e-01
-5.03253125e-08,1.98092188e-01
-5.02853125e-08,1.98107813e-01
-5.02453125e-08,1.98092188e-01
-5.02053125e-08,1.98107813e-01
-5.01653125e-08,1.98092188e-01
-5.01253125e-08,1.98107813e-01
-5.00853125e-08,1.98092188e-01
-5.00453125e-08,1.98107813e-01
-5.00053125e-08,1.98092188e-01
-4.99653125e-08,1.98109375e-01
-4.99253125e-08,1.98090625e-01
-4.98853125e-08,1.98110938e-01
-4.98453125e-08,1.98089062e-01
-4.98053125e-08,1.98112500e-01
-4.97653125e-08,1.98084375e-01
-4.97253125e-08,1.98118750e-01
-4.96853125e-08,1.98076562e-01
-4.96453125e-08,1.98132813e-01
-4.96053125e-08,1.98042188e-01
-4.95653125e-08,1.98310938e-01
-4.95253125e-08,1.98551563e-01
-4.94853125e-08,1.98471875e-01
-4.94453125e-08,1.98518750e-01
-4.94053125e-08,1.98487500e-01
-4.93653125e-08,1.98509375e-01
-4.93253125e-08,1.98492188e-01
-4.92853125e-08,1.98506250e-01
-4.92453125e-08,1.98495313e-01
-4.92053125e-08,1.98504687e-01
-4.91653125e-08,1.98496875e-01
-4.91253125e-08,1.98503125e-01
-4.90853125e-08,1.98498438e-01
-4.90453125e-08,1.98501563e-01
-4.90053125e-08,1.98498438e-01
-4.89653125e-08,1.98500000e-01
-4.89253125e-08,1.98500000e-01
-4.88853125e-08,1.98500000e-01
-4.88453125e-08,1.98500000e-01
-4.88053125e-08,1.98498438e-01
-4.87653125e-08,1.98501563e-01
-4.87253125e-08,1.98498438e-01
-4.86853125e-08,1.98501563e-01
-4.86453125e-08,1.98496875e-01
-4.86053125e-08,1.98503125e-01
-4.85653125e-08,1.98496875e-01
-4.85253125e-08,1.98504687e-01
-4.84853125e-08,1.98495313e-01
-4.84453125e-08,1.98504687e-01
-4.84053125e-08,1.98493750e-01
-4.83653125e-08,1.98507813e-01
-4.83253125e-08,1.98492188e-01
-4.82853125e-08,1.98509375e-01
-4.82453125e-08,1.98487500e-01
-4.82053125e-08,1.98515625e-01
-4.81653125e-08,1.98479688e-01
-4.81253125e-08,1.98529687e-01
-4.80853125e-08,1.98445312e-01
-4.80453125e-08,1.98707812e-01
-4.80053125e-08,1.98953125e-01
-4.79653125e-08,1.98870313e-01
-4.79253125e-08,1.98920313e-01
-4.78853125e-08,1.98884375e-01
-4.78453125e-08,1.98912500e-01
-4.78053125e-08,1.98890625e-01
-4.77653125e-08,1.98907813e-01
-4.77253125e-08,1.98893750e-01
-4.76853125e-08,1.98906250e-01
-4.76453125e-08,1.98895313e-01
-4.76053125e-08,1.98904688e-01
-4.75653125e-08,1.98896875e-01
-4.75253125e-08,1.98903125e-01
-4.74853125e-08,1.98896875e-01
-4.74453125e-08,1.98901563e-01
-4.74053125e-08,1.98898437e-01
-4.73653125e-08,1.98901563e-01
-4.73253125e-08,1.98900000e-01
-4.72853125e-08,1.98900000e-01
-4.72453125e-08,1.98900000e-01
-4.72053125e-08,1.98900000e-01
-4.71653125e-08,1.98901563e-01
-4.71253125e-08,1.98898437e-01
-4.70853125e-08,1.98903125e-01
-4.70453125e-08,1.98896875e-01
-4.70053125e-08,1.98904688e-01
-4.69653125e-08,1.98893750e-01
-4.69253125e-08,1.98907813e-01
-4.68853125e-08,1.98887500e-01
-4.68453125e-08,1.98917188e-01
-4.68053125e-08,1.98873437e-01
-4.67653125e-08,1.98951563e-01
-4.67253125e-08,1.98695312e-01
-4.66853125e-08,1.98442188e-01
-4.66453125e-08,1.98534375e-01
-4.66053125e-08,1.98475000e-01
-4.65653125e-08,1.98520313e-01
-4.65253125e-08,1.98481250e-01
-4.64853125e-08,1.98517187e-01
-4.64453125e-08,1.98484375e-01
-4.64053125e-08,1.98515625e-01
-4.63653125e-08,1.98484375e-01
-4.63253125e-08,1.98517187e-01
-4.62853125e-08,1.98481250e-01
-4.62453125e-08,1.98523438e-01
-4.62053125e-08,1.98467188e-01
-4.61653125e-08,1.98556250e-01
-4.61253125e-08,1.98290625e-01
-4.60853125e-08,1.98045313e-01
-4.60453125e-08,1.98131250e-01
-4.60053125e-08,1.98076562e-01
-4.59653125e-08,1.98118750e-01
-4.59253125e-08,1.98082813e-01
-4.58853125e-08,1.98117188e-01
-4.58453125e-08,1.98081250e-01
-4.58053125e-08,1.98123437e-01
-4.57653125e-08,1.98067188e-01
-4.57253125e-08,1.98156250e-01
-4.56853125e-08,1.97892188e-01
-4.56453125e-08,1.97645313e-01
-4.56053125e-08,1.97731250e-01
-4.55653125e-08,1.97678125e-01
-4.55253125e-08,1.97718750e-01
-4.54853125e-08,1.97684375e-01
-4.54453125e-08,1.97715625e-01
-4.54053125e-08,1.97684375e-01
-4.53653125e-08,1.97715625e-01
-4.53253125e-08,1.97681250e-01
-4.52853125e-08,1.97723438e-01
-4.52453125e-08,1.97668750e-01
-4.52053125e-08,1.97756250e-01
-4.51653125e-08,1.97490625e-01
-4.51253125e-08,1.97245313e-01
-4.50853125e-08,1.97331250e-01
-4.50453125e-08,1.97278125e-01
-4.50053125e-08,1.97317188e-01
-4.49653125e-08,1.97285938e-01
-4.49253125e-08,1.97312500e-01
-4.48853125e-08,1.97287500e-01
-4.48453125e-08,1.97310938e-01
-4.48053125e-08,1.97289063e-01
-4.47653125e-08,1.97310938e-01
-4.47253125e-08,1.97289063e-01
-4.46853125e-08,1.97310938e-01
-4.46453125e-08,1.97287500e-01
-4.46053125e-08,1.97312500e-01
-4.45653125e-08,1.97285938e-01
-4.45253125e-08,1.97315625e-01
-4.44853125e-08,1.97282813e-01
-4.44453125e-08,1.97320313e-01
-4.44053125e-08,1.97275000e-01
-4.43653125e-08,1.97335938e-01
-4.43253125e-08,1.97239063e-01
-4.42853125e-08,1.97514063e-01
-4.42453125e-08,1.97748438e-01
-4.42053125e-08,1.97676563e-01
-4.41653125e-08,1.97714063e-01
-4.41253125e-08,1.97692188e-01
-4.40853125e-08,1.97704688e-01
-4.40453125e-08,1.97700000e-01
-4.40053125e-08,1.97696875e-01
-4.39653125e-08,1.97706250e-01
-4.39253125e-08,1.97687500e-01
-4.38853125e-08,1.97721875e-01
-4.38453125e-08,1.97653125e-01
-4.38053125e-08,1.97900000e-01
-4.37653125e-08,1.98162500e-01
-4.37253125e-08,1.98060938e-01
-4.36853125e-08,1.98129688e-01
-4.36453125e-08,1.98073438e-01
-4.36053125e-08,1.98126563e-01
-4.35653125e-08,1.98071875e-01
-4.35253125e-08,1.98135937e-01
-4.34853125e-08,1.98040625e-01
-4.34453125e-08,1.98310938e-01
-4.34053125e-08,1.98553125e-01
-4.33653125e-08,1.98468750e-01
-4.33253125e-08,1.98523438e-01
-4.32853125e-08,1.98478125e-01
-4.32453125e-08,1.98521875e-01
-4.32053125e-08,1.98475000e-01
-4.31653125e-08,1.98534375e-01
-4.31253125e-08,1.98442188e-01
-4.30853125e-08,1.98710938e-01
-4.30453125e-08,1.98951563e-01
-4.30053125e-08,1.98871875e-01
-4.29653125e-08,1.98918750e-01
-4.29253125e-08,1.98885937e-01
-4.28853125e-08,1.98912500e-01
-4.28453125e-08,1.98890625e-01
-4.28053125e-08,1.98907813e-01
-4.27653125e-08,1.98892188e-01
-4.27253125e-08,1.98906250e-01
-4.26853125e-08,1.98893750e-01
-4.26453125e-08,1.98906250e-01
-4.26053125e-08,1.98895313e-01
-4.25653125e-08,1.98904688e-01
-4.25253125e-08,1.98895313e-01
-4.24853125e-08,1.98904688e-01
-4.24453125e-08,1.98895313e-01
-4.24053125e-08,1.98904688e-01
-4.23653125e-08,1.98895313e-01
-4.23253125e-08,1.98904688e-01
-4.22853125e-08,1.98895313e-01
-4.22453125e-08,1.98904688e-01
-4.22053125e-08,1.98895313e-01
-4.21653125e-08,1.98904688e-01
-4.21253125e-08,1.98895313e-01
-4.20853125e-08,1.98906250e-01
-4.20453125e-08,1.98893750e-01
-4.20053125e-08,1.98907813e-01
-4.19653125e-08,1.98889063e-01
-4.19253125e-08,1.98915625e-01
-4.18853125e-08,1.98875000e-01
-4.18453125e-08,1.98948438e-01
-4.18053125e-08,1.98700000e-01
-4.17653125e-08,1.98437500e-01
-4.17253125e-08,1.98540625e-01
-4.16853125e-08,1.98467188e-01
-4.16453125e-08,1.98529687e-01
-4.16053125e-08,1.98468750e-01
-4.15653125e-08,1.98534375e-01
-4.15253125e-08,1.98457812e-01
-4.14853125e-08,1.98567188e-01
-4.14453125e-08,1.98279687e-01
-4.14053125e-08,1.98057813e-01
-4.13653125e-08,1.98117188e-01
-4.13253125e-08,1.98093750e-01
-4.12853125e-08,1.98098438e-01
-4.12453125e-08,1.98109375e-01
-4.12053125e-08,1.98079688e-01
-4.11653125e-08,1.98145313e-01
-4.11253125e-08,1.97901563e-01
-4.10853125e-08,1.97637500e-01
-4.10453125e-08,1.97739063e-01
-4.10053125e-08,1.97668750e-01
-4.09653125e-08,1.97728125e-01
-4.09253125e-08,1.97673437e-01
-4.08853125e-08,1.97729688e-01
-4.08453125e-08,1.97662500e-01
-4.08053125e-08,1.97760938e-01
-4.07653125e-08,1.97487500e-01
-4.07253125e-08,1.97248438e-01
-4.06853125e-08,1.97328125e-01
-4.06453125e-08,1.97279688e-01
-4.06053125e-08,1.97317188e-01
-4.05653125e-08,1.97284375e-01
-4.05253125e-08,1.97314062e-01
-4.04853125e-08,1.97284375e-01
-4.04453125e-08,1.97315625e-01
-4.04053125e-08,1.97281250e-01
-4.03653125e-08,1.97323438e-01
-4.03253125e-08,1.97267187e-01
-4.02853125e-08,1.97357813e-01
-4.02453125e-08,1.97089063e-01
-4.02053125e-08,1.96848438e-01
-4.01653125e-08,1.96928125e-01
-4.01253125e-08,1.96881250e-01
-4.00853125e-08,1.96914063e-01
-4.00453125e-08,1.96889063e-01
-4.00053125e-08,1.96907813e-01
-3.99653125e-08,1.96893750e-01
-3.99253125e-08,1.96906250e-01
-3.98853125e-08,1.96895313e-01
-3.98453125e-08,1.96903125e-01
-3.98053125e-08,1.96896875e-01
-3.97653125e-08,1.96901563e-01
-3.97253125e-08,1.96898438e-01
-3.96853125e-08,1.96900000e-01
-3.96453125e-08,1.96900000e-01
-3.96053125e-08,1.96898438e-01
-3.95653125e-08,1.96903125e-01
-3.95253125e-08,1.96895313e-01
-3.94853125e-08,1.96906250e-01
-3.94453125e-08,1.96890625e-01
-3.94053125e-08,1.96915625e-01
-3.93653125e-08,1.96875000e-01
-3.93253125e-08,1.96950000e-01
-3.92853125e-08,1.96698438e-01
-3.92453125e-08,1.96440625e-01
-3.92053125e-08,1.96535938e-01
-3.91653125e-08,1.96473438e-01
-3.91253125e-08,1.96523438e-01
-3.90853125e-08,1.96479687e-01
-3.90453125e-08,1.96518750e-01
-3.90053125e-08,1.96482812e-01
-3.89653125e-08,1.96517187e-01
-3.89253125e-08,1.96482812e-01
-3.88853125e-08,1.96518750e-01
-3.88453125e-08,1.96479687e-01
-3.88053125e-08,1.96521875e-01
-3.87653125e-08,1.96473438e-01
-3.87253125e-08,1.96535938e-01
-3.86853125e-08,1.96439063e-01
-3.86453125e-08,1.96714063e-01
-3.86053125e-08,1.96948438e-01
-3.85653125e-08,1.96875000e-01
-3.85253125e-08,1.96915625e-01
