trails/0bdfa5e45fec98341abdd20552c140b4/aes_ch1_20250507120852927.csv

Model,MSO66B
Label,
Waveform Type,ANALOG
Horizontal Units,s
Sample Interval,4.00000000e-11
Record Length,10000
Zero Index,1599.06250000
Vertical Units,A
ANALOG_Thumbnail,
yOffset,1.84500000e-01
yPosition,8.40000000e-01

Labels,
TIME,CH1
-6.39625000e-08,1.90873438e-01
-6.39225000e-08,1.90932812e-01
-6.38825000e-08,1.90843750e-01
-6.38425000e-08,1.91107813e-01
-6.38025000e-08,1.91356250e-01
-6.37625000e-08,1.91265625e-01
-6.37225000e-08,1.91326563e-01
-6.36825000e-08,1.91275000e-01
-6.36425000e-08,1.91325000e-01
-6.36025000e-08,1.91270313e-01
-6.35625000e-08,1.91337500e-01
-6.35225000e-08,1.91237500e-01
-6.34825000e-08,1.91515625e-01
-6.34425000e-08,1.91746875e-01
-6.34025000e-08,1.91678125e-01
-6.33625000e-08,1.91712500e-01
-6.33225000e-08,1.91693750e-01
-6.32825000e-08,1.91701563e-01
-6.32425000e-08,1.91703125e-01
-6.32025000e-08,1.91689063e-01
-6.31625000e-08,1.91720313e-01
-6.31225000e-08,1.91653125e-01
-6.30825000e-08,1.91900000e-01
-6.30425000e-08,1.92160938e-01
-6.30025000e-08,1.92062500e-01
-6.29625000e-08,1.92128125e-01
-6.29225000e-08,1.92078125e-01
-6.28825000e-08,1.92118750e-01
-6.28425000e-08,1.92082813e-01
-6.28025000e-08,1.92115625e-01
-6.27625000e-08,1.92085937e-01
-6.27225000e-08,1.92112500e-01
-6.26825000e-08,1.92087500e-01
-6.26425000e-08,1.92110937e-01
-6.26025000e-08,1.92089063e-01
-6.25625000e-08,1.92110937e-01
-6.25225000e-08,1.92090625e-01
-6.24825000e-08,1.92109375e-01
-6.24425000e-08,1.92090625e-01
-6.24025000e-08,1.92109375e-01
-6.23625000e-08,1.92090625e-01
-6.23225000e-08,1.92109375e-01
-6.22825000e-08,1.92090625e-01
-6.22425000e-08,1.92109375e-01
-6.22025000e-08,1.92089063e-01
-6.21625000e-08,1.92110937e-01
-6.21225000e-08,1.92087500e-01
-6.20825000e-08,1.92114063e-01
-6.20425000e-08,1.92084375e-01
-6.20025000e-08,1.92120313e-01
-6.19625000e-08,1.92070313e-01
-6.19225000e-08,1.92153125e-01
-6.18825000e-08,1.91893750e-01
-6.18425000e-08,1.91642188e-01
-6.18025000e-08,1.91735938e-01
-6.17625000e-08,1.91671875e-01
-6.17225000e-08,1.91725000e-01
-6.16825000e-08,1.91675000e-01
-6.16425000e-08,1.91729687e-01
-6.16025000e-08,1.91662500e-01
-6.15625000e-08,1.91762500e-01
-6.15225000e-08,1.91484375e-01
-6.14825000e-08,1.91253125e-01
-6.14425000e-08,1.91321875e-01
-6.14025000e-08,1.91289062e-01
-6.13625000e-08,1.91303125e-01
-6.13225000e-08,1.91303125e-01
-6.12825000e-08,1.91284375e-01
-6.12425000e-08,1.91340625e-01
-6.12025000e-08,1.91106250e-01
-6.11625000e-08,1.90832813e-01
-6.11225000e-08,1.90943750e-01
-6.10825000e-08,1.90864063e-01
-6.10425000e-08,1.90931250e-01
-6.10025000e-08,1.90870313e-01
-6.09625000e-08,1.90929688e-01
-6.09225000e-08,1.90870313e-01
-6.08825000e-08,1.90934375e-01
-6.08425000e-08,1.90857813e-01
-6.08025000e-08,1.90967187e-01
-6.07625000e-08,1.90681250e-01
-6.07225000e-08,1.90456250e-01
-6.06825000e-08,1.90520313e-01
-6.06425000e-08,1.90489063e-01
-6.06025000e-08,1.90506250e-01
-6.05625000e-08,1.90495313e-01
-6.05225000e-08,1.90503125e-01
-6.04825000e-08,1.90498438e-01
-6.04425000e-08,1.90500000e-01
-6.04025000e-08,1.90500000e-01
-6.03625000e-08,1.90500000e-01
-6.03225000e-08,1.90501562e-01
-6.02825000e-08,1.90498438e-01
-6.02425000e-08,1.90501562e-01
-6.02025000e-08,1.90498438e-01
-6.01625000e-08,1.90501562e-01
-6.01225000e-08,1.90498438e-01
-6.00825000e-08,1.90501562e-01
-6.00425000e-08,1.90498438e-01
-6.00025000e-08,1.90503125e-01
-5.99625000e-08,1.90496875e-01
-5.99225000e-08,1.90503125e-01
-5.98825000e-08,1.90496875e-01
-5.98425000e-08,1.90503125e-01
-5.98025000e-08,1.90496875e-01
-5.97625000e-08,1.90503125e-01
-5.97225000e-08,1.90496875e-01
-5.96825000e-08,1.90503125e-01
-5.96425000e-08,1.90496875e-01
-5.96025000e-08,1.90503125e-01
-5.95625000e-08,1.90496875e-01
-5.95225000e-08,1.90503125e-01
-5.94825000e-08,1.90496875e-01
-5.94425000e-08,1.90503125e-01
-5.94025000e-08,1.90496875e-01
-5.93625000e-08,1.90503125e-01
-5.93225000e-08,1.90496875e-01
-5.92825000e-08,1.90503125e-01
-5.92425000e-08,1.90496875e-01
-5.92025000e-08,1.90503125e-01
-5.91625000e-08,1.90496875e-01
-5.91225000e-08,1.90503125e-01
-5.90825000e-08,1.90496875e-01
-5.90425000e-08,1.90503125e-01
-5.90025000e-08,1.90496875e-01
-5.89625000e-08,1.90503125e-01
-5.89225000e-08,1.90496875e-01
-5.88825000e-08,1.90503125e-01
-5.88425000e-08,1.90496875e-01
-5.88025000e-08,1.90503125e-01
-5.87625000e-08,1.90496875e-01
-5.87225000e-08,1.90503125e-01
-5.86825000e-08,1.90496875e-01
-5.86425000e-08,1.90503125e-01
-5.86025000e-08,1.90496875e-01
-5.85625000e-08,1.90503125e-01
-5.85225000e-08,1.90496875e-01
-5.84825000e-08,1.90503125e-01
-5.84425000e-08,1.90496875e-01
-5.84025000e-08,1.90503125e-01
-5.83625000e-08,1.90496875e-01
-5.83225000e-08,1.90503125e-01
-5.82825000e-08,1.90496875e-01
-5.82425000e-08,1.90503125e-01
-5.82025000e-08,1.90496875e-01
-5.81625000e-08,1.90503125e-01
-5.81225000e-08,1.90496875e-01
-5.80825000e-08,1.90503125e-01
-5.80425000e-08,1.90496875e-01
-5.80025000e-08,1.90504688e-01
-5.79625000e-08,1.90495313e-01
-5.79225000e-08,1.90504688e-01
-5.78825000e-08,1.90495313e-01
-5.78425000e-08,1.90504688e-01
-5.78025000e-08,1.90495313e-01
-5.77625000e-08,1.90504688e-01
-5.77225000e-08,1.90493750e-01
-5.76825000e-08,1.90506250e-01
-5.76425000e-08,1.90493750e-01
-5.76025000e-08,1.90506250e-01
-5.75625000e-08,1.90492188e-01
-5.75225000e-08,1.90509375e-01
-5.74825000e-08,1.90489063e-01
-5.74425000e-08,1.90512500e-01
-5.74025000e-08,1.90484375e-01
-5.73625000e-08,1.90520313e-01
-5.73225000e-08,1.90470313e-01
-5.72825000e-08,1.90554688e-01
-5.72425000e-08,1.90293750e-01
-5.72025000e-08,1.90043750e-01
-5.71625000e-08,1.90132812e-01
-5.71225000e-08,1.90076563e-01
-5.70825000e-08,1.90118750e-01
-5.70425000e-08,1.90084375e-01
-5.70025000e-08,1.90114063e-01
-5.69625000e-08,1.90085937e-01
-5.69225000e-08,1.90114063e-01
-5.68825000e-08,1.90085937e-01
-5.68425000e-08,1.90115625e-01
-5.68025000e-08,1.90081250e-01
-5.67625000e-08,1.90121875e-01
-5.67225000e-08,1.90068750e-01
-5.66825000e-08,1.90156250e-01
-5.66425000e-08,1.89890625e-01
-5.66025000e-08,1.89645312e-01
-5.65625000e-08,1.89731250e-01
-5.65225000e-08,1.89678125e-01
-5.64825000e-08,1.89717187e-01
-5.64425000e-08,1.89684375e-01
-5.64025000e-08,1.89714063e-01
-5.63625000e-08,1.89687500e-01
-5.63225000e-08,1.89712500e-01
-5.62825000e-08,1.89685938e-01
-5.62425000e-08,1.89715625e-01
-5.62025000e-08,1.89682813e-01
-5.61625000e-08,1.89721875e-01
-5.61225000e-08,1.89668750e-01
-5.60825000e-08,1.89756250e-01
-5.60425000e-08,1.89492188e-01
-5.60025000e-08,1.89245313e-01
-5.59625000e-08,1.89331250e-01
-5.59225000e-08,1.89278125e-01
-5.58825000e-08,1.89317188e-01
-5.58425000e-08,1.89285938e-01
-5.58025000e-08,1.89312500e-01
-5.57625000e-08,1.89287500e-01
-5.57225000e-08,1.89310937e-01
-5.56825000e-08,1.89289062e-01
-5.56425000e-08,1.89310937e-01
-5.56025000e-08,1.89289062e-01
-5.55625000e-08,1.89312500e-01
-5.55225000e-08,1.89287500e-01
-5.54825000e-08,1.89314063e-01
-5.54425000e-08,1.89284375e-01
-5.54025000e-08,1.89318750e-01
-5.53625000e-08,1.89275000e-01
-5.53225000e-08,1.89334375e-01
-5.52825000e-08,1.89240625e-01
-5.52425000e-08,1.89512500e-01
-5.52025000e-08,1.89750000e-01
-5.51625000e-08,1.89675000e-01
-5.51225000e-08,1.89715625e-01
-5.50825000e-08,1.89689063e-01
-5.50425000e-08,1.89707813e-01
-5.50025000e-08,1.89695313e-01
-5.49625000e-08,1.89703125e-01
-5.49225000e-08,1.89700000e-01
-5.48825000e-08,1.89698438e-01
-5.48425000e-08,1.89703125e-01
-5.48025000e-08,1.89693750e-01
-5.47625000e-08,1.89709375e-01
-5.47225000e-08,1.89684375e-01
-5.46825000e-08,1.89725000e-01
-5.46425000e-08,1.89650000e-01
-5.46025000e-08,1.89903125e-01
-5.45625000e-08,1.90157812e-01
-5.45225000e-08,1.90065625e-01
-5.44825000e-08,1.90125000e-01
-5.44425000e-08,1.90081250e-01
-5.44025000e-08,1.90115625e-01
-5.43625000e-08,1.90085937e-01
-5.43225000e-08,1.90112500e-01
-5.42825000e-08,1.90089063e-01
-5.42425000e-08,1.90109375e-01
-5.42025000e-08,1.90090625e-01
-5.41625000e-08,1.90107813e-01
-5.41225000e-08,1.90092188e-01
-5.40825000e-08,1.90106250e-01
-5.40425000e-08,1.90093750e-01
-5.40025000e-08,1.90104688e-01
-5.39625000e-08,1.90096875e-01
-5.39225000e-08,1.90103125e-01
-5.38825000e-08,1.90098437e-01
-5.38425000e-08,1.90100000e-01
-5.38025000e-08,1.90101563e-01
-5.37625000e-08,1.90095313e-01
-5.37225000e-08,1.90110938e-01
-5.36825000e-08,1.90079688e-01
-5.36425000e-08,1.90145312e-01
-5.36025000e-08,1.89901563e-01
-5.35625000e-08,1.89635938e-01
-5.35225000e-08,1.89740625e-01
-5.34825000e-08,1.89668750e-01
-5.34425000e-08,1.89728125e-01
-5.34025000e-08,1.89675000e-01
-5.33625000e-08,1.89723438e-01
-5.33225000e-08,1.89678125e-01
-5.32825000e-08,1.89721875e-01
-5.32425000e-08,1.89676563e-01
-5.32025000e-08,1.89723438e-01
-5.31625000e-08,1.89673438e-01
-5.31225000e-08,1.89731250e-01
-5.30825000e-08,1.89659375e-01
-5.30425000e-08,1.89764062e-01
-5.30025000e-08,1.89482813e-01
-5.29625000e-08,1.89254688e-01
-5.29225000e-08,1.89323437e-01
-5.28825000e-08,1.89285938e-01
-5.28425000e-08,1.89310937e-01
-5.28025000e-08,1.89292188e-01
-5.27625000e-08,1.89307813e-01
-5.27225000e-08,1.89292188e-01
-5.26825000e-08,1.89309375e-01
-5.26425000e-08,1.89285938e-01
-5.26025000e-08,1.89321875e-01
-5.25625000e-08,1.89253125e-01
-5.25225000e-08,1.89498438e-01
-5.24825000e-08,1.89765625e-01
-5.24425000e-08,1.89657812e-01
-5.24025000e-08,1.89734375e-01
-5.23625000e-08,1.89668750e-01
-5.23225000e-08,1.89729688e-01
-5.22825000e-08,1.89670312e-01
-5.22425000e-08,1.89731250e-01
-5.22025000e-08,1.89664063e-01
-5.21625000e-08,1.89745313e-01
-5.21225000e-08,1.89629688e-01
-5.20825000e-08,1.89923438e-01
-5.20425000e-08,1.90137500e-01
-5.20025000e-08,1.90087500e-01
-5.19625000e-08,1.90101563e-01
-5.19225000e-08,1.90104688e-01
-5.18825000e-08,1.90087500e-01
-5.18425000e-08,1.90123438e-01
-5.18025000e-08,1.90050000e-01
-5.17625000e-08,1.90303125e-01
-5.17225000e-08,1.90560937e-01
-5.16825000e-08,1.90462500e-01
-5.16425000e-08,1.90531250e-01
-5.16025000e-08,1.90470313e-01
-5.15625000e-08,1.90535938e-01
-5.15225000e-08,1.90442187e-01
-5.14825000e-08,1.90707813e-01
-5.14425000e-08,1.90956250e-01
-5.14025000e-08,1.90865625e-01
-5.13625000e-08,1.90926563e-01
-5.13225000e-08,1.90875000e-01
-5.12825000e-08,1.90925000e-01
-5.12425000e-08,1.90870313e-01
-5.12025000e-08,1.90937500e-01
-5.11625000e-08,1.90837500e-01
-5.11225000e-08,1.91114063e-01
-5.10825000e-08,1.91348437e-01
-5.10425000e-08,1.91275000e-01
-5.10025000e-08,1.91315625e-01
-5.09625000e-08,1.91289062e-01
-5.09225000e-08,1.91307813e-01
-5.08825000e-08,1.91293750e-01
-5.08425000e-08,1.91304688e-01
-5.08025000e-08,1.91296875e-01
-5.07625000e-08,1.91303125e-01
-5.07225000e-08,1.91298438e-01
-5.06825000e-08,1.91301563e-01
-5.06425000e-08,1.91298438e-01
-5.06025000e-08,1.91300000e-01
-5.05625000e-08,1.91300000e-01
-5.05225000e-08,1.91300000e-01
-5.04825000e-08,1.91300000e-01
-5.04425000e-08,1.91300000e-01
-5.04025000e-08,1.91300000e-01
-5.03625000e-08,1.91300000e-01
-5.03225000e-08,1.91300000e-01
-5.02825000e-08,1.91300000e-01
-5.02425000e-08,1.91301563e-01
-5.02025000e-08,1.91298438e-01
-5.01625000e-08,1.91301563e-01
-5.01225000e-08,1.91298438e-01
-5.00825000e-08,1.91301563e-01
-5.00425000e-08,1.91298438e-01
-5.00025000e-08,1.91301563e-01
-4.99625000e-08,1.91298438e-01
-4.99225000e-08,1.91300000e-01
-4.98825000e-08,1.91300000e-01
-4.98425000e-08,1.91300000e-01
-4.98025000e-08,1.91300000e-01
-4.97625000e-08,1.91300000e-01
-4.97225000e-08,1.91300000e-01
-4.96825000e-08,1.91298438e-01
-4.96425000e-08,1.91301563e-01
-4.96025000e-08,1.91296875e-01
-4.95625000e-08,1.91303125e-01
-4.95225000e-08,1.91293750e-01
-4.94825000e-08,1.91307813e-01
-4.94425000e-08,1.91287500e-01
-4.94025000e-08,1.91321875e-01
-4.93625000e-08,1.91253125e-01
-4.93225000e-08,1.91500000e-01
-4.92825000e-08,1.91762500e-01
-4.92425000e-08,1.91660938e-01
-4.92025000e-08,1.91731250e-01
-4.91625000e-08,1.91673438e-01
-4.91225000e-08,1.91725000e-01
-4.90825000e-08,1.91676563e-01
-4.90425000e-08,1.91723438e-01
-4.90025000e-08,1.91675000e-01
-4.89625000e-08,1.91726563e-01
-4.89225000e-08,1.91668750e-01
-4.88825000e-08,1.91740625e-01
-4.88425000e-08,1.91635938e-01
-4.88025000e-08,1.91917188e-01
-4.87625000e-08,1.92145312e-01
-4.87225000e-08,1.92078125e-01
-4.86825000e-08,1.92112500e-01
-4.86425000e-08,1.92092188e-01
-4.86025000e-08,1.92104688e-01
-4.85625000e-08,1.92096875e-01
-4.85225000e-08,1.92101563e-01
-4.84825000e-08,1.92098437e-01
-4.84425000e-08,1.92100000e-01
-4.84025000e-08,1.92100000e-01
-4.83625000e-08,1.92100000e-01
-4.83225000e-08,1.92100000e-01
-4.82825000e-08,1.92100000e-01
-4.82425000e-08,1.92100000e-01
-4.82025000e-08,1.92101563e-01
-4.81625000e-08,1.92098437e-01
-4.81225000e-08,1.92103125e-01
-4.80825000e-08,1.92093750e-01
-4.80425000e-08,1.92110937e-01
-4.80025000e-08,1.92079688e-01
-4.79625000e-08,1.92143750e-01
-4.79225000e-08,1.91903125e-01
-4.78825000e-08,1.91632812e-01
-4.78425000e-08,1.91743750e-01
-4.78025000e-08,1.91664063e-01
-4.77625000e-08,1.91732813e-01
-4.77225000e-08,1.91667188e-01
-4.76825000e-08,1.91735938e-01
-4.76425000e-08,1.91656250e-01
-4.76025000e-08,1.91767188e-01
-4.75625000e-08,1.91481250e-01
-4.75225000e-08,1.91256250e-01
-4.74825000e-08,1.91321875e-01
-4.74425000e-08,1.91284375e-01
-4.74025000e-08,1.91315625e-01
-4.73625000e-08,1.91278125e-01
-4.73225000e-08,1.91343750e-01
-4.72825000e-08,1.91106250e-01
-4.72425000e-08,1.90828125e-01
-4.72025000e-08,1.90950000e-01
-4.71625000e-08,1.90854688e-01
-4.71225000e-08,1.90946875e-01
-4.70825000e-08,1.90845313e-01
-4.70425000e-08,1.90978125e-01
-4.70025000e-08,1.90668750e-01
-4.69625000e-08,1.90468750e-01
-4.69225000e-08,1.90506250e-01
-4.68825000e-08,1.90504688e-01
-4.68425000e-08,1.90485938e-01
-4.68025000e-08,1.90521875e-01
-4.67625000e-08,1.90467187e-01
-4.67225000e-08,1.90559375e-01
-4.66825000e-08,1.90285938e-01
-4.66425000e-08,1.90053125e-01
-4.66025000e-08,1.90121875e-01
-4.65625000e-08,1.90087500e-01
-4.65225000e-08,1.90106250e-01
-4.64825000e-08,1.90098437e-01
-4.64425000e-08,1.90098437e-01
-4.64025000e-08,1.90104688e-01
-4.63625000e-08,1.90092188e-01
-4.63225000e-08,1.90110938e-01
-4.62825000e-08,1.90085937e-01
-4.62425000e-08,1.90120312e-01
-4.62025000e-08,1.90068750e-01
-4.61625000e-08,1.90156250e-01
-4.61225000e-08,1.89890625e-01
-4.60825000e-08,1.89648438e-01
-4.60425000e-08,1.89728125e-01
-4.60025000e-08,1.89682813e-01
-4.59625000e-08,1.89712500e-01
-4.59225000e-08,1.89690625e-01
-4.58825000e-08,1.89706250e-01
-4.58425000e-08,1.89695313e-01
-4.58025000e-08,1.89703125e-01
-4.57625000e-08,1.89698438e-01
-4.57225000e-08,1.89700000e-01
-4.56825000e-08,1.89701563e-01
-4.56425000e-08,1.89698438e-01
-4.56025000e-08,1.89703125e-01
-4.55625000e-08,1.89696875e-01
-4.55225000e-08,1.89704687e-01
-4.54825000e-08,1.89693750e-01
-4.54425000e-08,1.89707813e-01
-4.54025000e-08,1.89690625e-01
-4.53625000e-08,1.89710938e-01
-4.53225000e-08,1.89687500e-01
-4.52825000e-08,1.89715625e-01
-4.52425000e-08,1.89678125e-01
-4.52025000e-08,1.89731250e-01
-4.51625000e-08,1.89643750e-01
-4.51225000e-08,1.89910938e-01
-4.50825000e-08,1.90151563e-01
-4.50425000e-08,1.90071875e-01
-4.50025000e-08,1.90118750e-01
-4.49625000e-08,1.90087500e-01
-4.49225000e-08,1.90109375e-01
-4.48825000e-08,1.90092188e-01
-4.48425000e-08,1.90106250e-01
-4.48025000e-08,1.90095313e-01
-4.47625000e-08,1.90103125e-01
-4.47225000e-08,1.90096875e-01
-4.46825000e-08,1.90101563e-01
-4.46425000e-08,1.90098437e-01
-4.46025000e-08,1.90100000e-01
-4.45625000e-08,1.90100000e-01
-4.45225000e-08,1.90098437e-01
-4.44825000e-08,1.90101563e-01
-4.44425000e-08,1.90098437e-01
-4.44025000e-08,1.90103125e-01
-4.43625000e-08,1.90096875e-01
-4.43225000e-08,1.90103125e-01
-4.42825000e-08,1.90096875e-01
-4.42425000e-08,1.90104688e-01
-4.42025000e-08,1.90095313e-01
-4.41625000e-08,1.90104688e-01
-4.41225000e-08,1.90093750e-01
-4.40825000e-08,1.90106250e-01
-4.40425000e-08,1.90093750e-01
-4.40025000e-08,1.90107813e-01
-4.39625000e-08,1.90092188e-01
-4.39225000e-08,1.90107813e-01
-4.38825000e-08,1.90090625e-01
-4.38425000e-08,1.90110938e-01
-4.38025000e-08,1.90089063e-01
-4.37625000e-08,1.90112500e-01
-4.37225000e-08,1.90085937e-01
-4.36825000e-08,1.90115625e-01
-4.36425000e-08,1.90081250e-01
-4.36025000e-08,1.90121875e-01
-4.35625000e-08,1.90071875e-01
-4.35225000e-08,1.90137500e-01
-4.34825000e-08,1.90037500e-01
-4.34425000e-08,1.90317188e-01
-4.34025000e-08,1.90545313e-01
-4.33625000e-08,1.90479687e-01
-4.33225000e-08,1.90509375e-01
-4.32825000e-08,1.90496875e-01
-4.32425000e-08,1.90500000e-01
-4.32025000e-08,1.90504688e-01
-4.31625000e-08,1.90492188e-01
-4.31225000e-08,1.90512500e-01
-4.30825000e-08,1.90481250e-01
-4.30425000e-08,1.90529688e-01
-4.30025000e-08,1.90443750e-01
-4.29625000e-08,1.90710938e-01
-4.29225000e-08,1.90950000e-01
-4.28825000e-08,1.90875000e-01
-4.28425000e-08,1.90914063e-01
-4.28025000e-08,1.90892188e-01
-4.27625000e-08,1.90903125e-01
-4.27225000e-08,1.90903125e-01
-4.26825000e-08,1.90890625e-01
-4.26425000e-08,1.90920312e-01
-4.26025000e-08,1.90853125e-01
-4.25625000e-08,1.91101563e-01
-4.25225000e-08,1.91360937e-01
-4.24825000e-08,1.91264062e-01
-4.24425000e-08,1.91326563e-01
-4.24025000e-08,1.91279688e-01
-4.23625000e-08,1.91317188e-01
-4.23225000e-08,1.91284375e-01
-4.22825000e-08,1.91312500e-01
-4.22425000e-08,1.91289062e-01
-4.22025000e-08,1.91310938e-01
-4.21625000e-08,1.91290625e-01
-4.21225000e-08,1.91309375e-01
-4.20825000e-08,1.91292188e-01
-4.20425000e-08,1.91307813e-01
-4.20025000e-08,1.91293750e-01
-4.19625000e-08,1.91306250e-01
-4.19225000e-08,1.91293750e-01
-4.18825000e-08,1.91306250e-01
-4.18425000e-08,1.91295313e-01
-4.18025000e-08,1.91304688e-01
-4.17625000e-08,1.91295313e-01
-4.17225000e-08,1.91304688e-01
-4.16825000e-08,1.91295313e-01
-4.16425000e-08,1.91303125e-01
-4.16025000e-08,1.91296875e-01
-4.15625000e-08,1.91303125e-01
-4.15225000e-08,1.91296875e-01
-4.14825000e-08,1.91303125e-01
-4.14425000e-08,1.91296875e-01
-4.14025000e-08,1.91303125e-01
-4.13625000e-08,1.91296875e-01
-4.13225000e-08,1.91303125e-01
-4.12825000e-08,1.91296875e-01
-4.12425000e-08,1.91303125e-01
-4.12025000e-08,1.91296875e-01
-4.11625000e-08,1.91303125e-01
-4.11225000e-08,1.91296875e-01
-4.10825000e-08,1.91303125e-01
-4.10425000e-08,1.91296875e-01
-4.10025000e-08,1.91303125e-01
-4.09625000e-08,1.91296875e-01
-4.09225000e-08,1.91304688e-01
-4.08825000e-08,1.91295313e-01
-4.08425000e-08,1.91306250e-01
-4.08025000e-08,1.91292188e-01
-4.07625000e-08,1.91309375e-01
-4.07225000e-08,1.91287500e-01
-4.06825000e-08,1.91317188e-01
-4.06425000e-08,1.91273438e-01
-4.06025000e-08,1.91351563e-01
-4.05625000e-08,1.91096875e-01
-4.05225000e-08,1.90840625e-01
-4.04825000e-08,1.90934375e-01
-4.04425000e-08,1.90873438e-01
-4.04025000e-08,1.90921875e-01
-4.03625000e-08,1.90881250e-01
-4.03225000e-08,1.90917188e-01
-4.02825000e-08,1.90884375e-01
-4.02425000e-08,1.90914063e-01
-4.02025000e-08,1.90885938e-01
-4.01625000e-08,1.90914063e-01
-4.01225000e-08,1.90885938e-01
-4.00825000e-08,1.90914063e-01
-4.00425000e-08,1.90885938e-01
-4.00025000e-08,1.90914063e-01
-3.99625000e-08,1.90885938e-01
-3.99225000e-08,1.90914063e-01
-3.98825000e-08,1.90885938e-01
-3.98425000e-08,1.90914063e-01
-3.98025000e-08,1.90885938e-01
-3.97625000e-08,1.90915625e-01
-3.97225000e-08,1.90884375e-01
-3.96825000e-08,1.90917188e-01
-3.96425000e-08,1.90882812e-01
-3.96025000e-08,1.90918750e-01
-3.95625000e-08,1.90879688e-01
-3.95225000e-08,1.90921875e-01
-3.94825000e-08,1.90876563e-01
-3.94425000e-08,1.90926563e-01
-3.94025000e-08,1.90867188e-01
-3.93625000e-08,1.90942187e-01
-3.93225000e-08,1.90832813e-01
-3.92825000e-08,1.91121875e-01
-3.92425000e-08,1.91340625e-01
-3.92025000e-08,1.91284375e-01
-3.91625000e-08,1.91306250e-01
-3.91225000e-08,1.91300000e-01
-3.90825000e-08,1.91295313e-01
-3.90425000e-08,1.91307813e-01
-3.90025000e-08,1.91290625e-01
-3.89625000e-08,1.91312500e-01
-3.89225000e-08,1.91284375e-01
-3.88825000e-08,1.91320313e-01
-3.88425000e-08,1.91273438e-01
-3.88025000e-08,1.91337500e-01
-3.87625000e-08,1.91237500e-01
-3.87225000e-08,1.91517188e-01
-3.86825000e-08,1.91745313e-01
-3.86425000e-08,1.91679688e-01
-3.86025000e-08,1.91709375e-01
-3.85625000e-08,1.91696875e-01
-3.85225000e-08,1.91700000e-01
