trails/0bdfa5e45fec98341abdd20552c140b4/aes_ch1_20250507123137050.csv

Model,MSO66B
Label,
Waveform Type,ANALOG
Horizontal Units,s
Sample Interval,4.00000000e-11
Record Length,10000
Zero Index,1599.12109375
Vertical Units,A
ANALOG_Thumbnail,
yOffset,1.84500000e-01
yPosition,8.40000000e-01

Labels,
TIME,CH1
-6.39648437e-08,1.94125000e-01
-6.39248438e-08,1.94065625e-01
-6.38848437e-08,1.94159375e-01
-6.38448438e-08,1.93887500e-01
-6.38048437e-08,1.93650000e-01
-6.37648437e-08,1.93726563e-01
-6.37248437e-08,1.93682812e-01
-6.36848437e-08,1.93712500e-01
-6.36448438e-08,1.93690625e-01
-6.36048437e-08,1.93707813e-01
-6.35648438e-08,1.93693750e-01
-6.35248437e-08,1.93704688e-01
-6.34848437e-08,1.93695312e-01
-6.34448437e-08,1.93703125e-01
-6.34048437e-08,1.93696875e-01
-6.33648438e-08,1.93701563e-01
-6.33248437e-08,1.93698438e-01
-6.32848437e-08,1.93701563e-01
-6.32448437e-08,1.93698438e-01
-6.32048437e-08,1.93700000e-01
-6.31648437e-08,1.93700000e-01
-6.31248437e-08,1.93700000e-01
-6.30848438e-08,1.93700000e-01
-6.30448437e-08,1.93698438e-01
-6.30048437e-08,1.93701563e-01
-6.29648437e-08,1.93698438e-01
-6.29248437e-08,1.93701563e-01
-6.28848437e-08,1.93696875e-01
-6.28448437e-08,1.93703125e-01
-6.28048438e-08,1.93696875e-01
-6.27648437e-08,1.93704688e-01
-6.27248437e-08,1.93695312e-01
-6.26848437e-08,1.93704688e-01
-6.26448437e-08,1.93693750e-01
-6.26048437e-08,1.93707813e-01
-6.25648437e-08,1.93690625e-01
-6.25248438e-08,1.93710938e-01
-6.24848437e-08,1.93684375e-01
-6.24448437e-08,1.93720313e-01
-6.24048437e-08,1.93670312e-01
-6.23648437e-08,1.93754688e-01
-6.23248437e-08,1.93492187e-01
-6.22848437e-08,1.93246875e-01
-6.22448438e-08,1.93329688e-01
-6.22048437e-08,1.93279688e-01
-6.21648437e-08,1.93314062e-01
-6.21248437e-08,1.93289062e-01
-6.20848437e-08,1.93309375e-01
-6.20448437e-08,1.93292188e-01
-6.20048437e-08,1.93306250e-01
-6.19648438e-08,1.93295313e-01
-6.19248437e-08,1.93303125e-01
-6.18848437e-08,1.93300000e-01
-6.18448437e-08,1.93298438e-01
-6.18048437e-08,1.93303125e-01
-6.17648437e-08,1.93292188e-01
-6.17248437e-08,1.93312500e-01
-6.16848438e-08,1.93278125e-01
-6.16448437e-08,1.93346875e-01
-6.16048437e-08,1.93100000e-01
-6.15648437e-08,1.92839063e-01
-6.15248437e-08,1.92937500e-01
-6.14848437e-08,1.92871875e-01
-6.14448437e-08,1.92923438e-01
-6.14048438e-08,1.92879688e-01
-6.13648437e-08,1.92918750e-01
-6.13248437e-08,1.92882813e-01
-6.12848437e-08,1.92915625e-01
-6.12448437e-08,1.92885937e-01
-6.12048438e-08,1.92914063e-01
-6.11648437e-08,1.92885937e-01
-6.11248438e-08,1.92912500e-01
-6.10848437e-08,1.92887500e-01
-6.10448437e-08,1.92912500e-01
-6.10048437e-08,1.92887500e-01
-6.09648437e-08,1.92912500e-01
-6.09248438e-08,1.92887500e-01
-6.08848437e-08,1.92912500e-01
-6.08448438e-08,1.92887500e-01
-6.08048437e-08,1.92912500e-01
-6.07648437e-08,1.92887500e-01
-6.07248437e-08,1.92912500e-01
-6.06848437e-08,1.92885937e-01
-6.06448438e-08,1.92914063e-01
-6.06048437e-08,1.92884375e-01
-6.05648438e-08,1.92917188e-01
-6.05248437e-08,1.92881250e-01
-6.04848437e-08,1.92921875e-01
-6.04448437e-08,1.92873438e-01
-6.04048437e-08,1.92935938e-01
-6.03648438e-08,1.92839063e-01
-6.03248437e-08,1.93114063e-01
-6.02848438e-08,1.93348437e-01
-6.02448437e-08,1.93275000e-01
-6.02048437e-08,1.93315625e-01
-6.01648437e-08,1.93289062e-01
-6.01248437e-08,1.93307813e-01
-6.00848438e-08,1.93295313e-01
-6.00448437e-08,1.93304688e-01
-6.00048438e-08,1.93296875e-01
-5.99648437e-08,1.93301562e-01
-5.99248437e-08,1.93298438e-01
-5.98848437e-08,1.93301562e-01
-5.98448437e-08,1.93298438e-01
-5.98048438e-08,1.93300000e-01
-5.97648437e-08,1.93300000e-01
-5.97248438e-08,1.93300000e-01
-5.96848437e-08,1.93300000e-01
-5.96448437e-08,1.93300000e-01
-5.96048437e-08,1.93300000e-01
-5.95648437e-08,1.93300000e-01
-5.95248437e-08,1.93300000e-01
-5.94848437e-08,1.93300000e-01
-5.94448437e-08,1.93298438e-01
-5.94048437e-08,1.93301562e-01
-5.93648437e-08,1.93298438e-01
-5.93248437e-08,1.93303125e-01
-5.92848437e-08,1.93295313e-01
-5.92448437e-08,1.93306250e-01
-5.92048437e-08,1.93290625e-01
-5.91648437e-08,1.93314062e-01
-5.91248437e-08,1.93276562e-01
-5.90848437e-08,1.93346875e-01
-5.90448437e-08,1.93100000e-01
-5.90048437e-08,1.92837500e-01
-5.89648437e-08,1.92939063e-01
-5.89248437e-08,1.92868750e-01
-5.88848437e-08,1.92926563e-01
-5.88448437e-08,1.92875000e-01
-5.88048437e-08,1.92925000e-01
-5.87648437e-08,1.92873438e-01
-5.87248437e-08,1.92931250e-01
-5.86848437e-08,1.92860937e-01
-5.86448437e-08,1.92962500e-01
-5.86048437e-08,1.92684375e-01
-5.85648437e-08,1.92451563e-01
-5.85248437e-08,1.92526562e-01
-5.84848437e-08,1.92481250e-01
-5.84448437e-08,1.92515625e-01
-5.84048437e-08,1.92484375e-01
-5.83648437e-08,1.92518750e-01
-5.83248437e-08,1.92473438e-01
-5.82848437e-08,1.92550000e-01
-5.82448437e-08,1.92298438e-01
-5.82048437e-08,1.92037500e-01
-5.81648437e-08,1.92139063e-01
-5.81248437e-08,1.92068750e-01
-5.80848437e-08,1.92126563e-01
-5.80448437e-08,1.92075000e-01
-5.80048437e-08,1.92125000e-01
-5.79648437e-08,1.92075000e-01
-5.79248437e-08,1.92126563e-01
-5.78848437e-08,1.92071875e-01
-5.78448437e-08,1.92132812e-01
-5.78048437e-08,1.92057813e-01
-5.77648437e-08,1.92167188e-01
-5.77248437e-08,1.91879688e-01
-5.76848437e-08,1.91657812e-01
-5.76448437e-08,1.91718750e-01
-5.76048437e-08,1.91690625e-01
-5.75648437e-08,1.91703125e-01
-5.75248437e-08,1.91700000e-01
-5.74848437e-08,1.91698438e-01
-5.74448437e-08,1.91703125e-01
-5.74048437e-08,1.91695313e-01
-5.73648437e-08,1.91706250e-01
-5.73248437e-08,1.91692187e-01
-5.72848437e-08,1.91709375e-01
-5.72448437e-08,1.91689063e-01
-5.72048437e-08,1.91712500e-01
-5.71648437e-08,1.91684375e-01
-5.71248437e-08,1.91718750e-01
-5.70848437e-08,1.91676563e-01
-5.70448437e-08,1.91734375e-01
-5.70048437e-08,1.91640625e-01
-5.69648437e-08,1.91912500e-01
-5.69248437e-08,1.92150000e-01
-5.68848437e-08,1.92073437e-01
-5.68448437e-08,1.92117188e-01
-5.68048437e-08,1.92087500e-01
-5.67648437e-08,1.92110937e-01
-5.67248437e-08,1.92090625e-01
-5.66848437e-08,1.92110937e-01
-5.66448437e-08,1.92085937e-01
-5.66048437e-08,1.92120313e-01
-5.65648437e-08,1.92056250e-01
-5.65248437e-08,1.92295313e-01
-5.64848437e-08,1.92570313e-01
-5.64448437e-08,1.92450000e-01
-5.64048437e-08,1.92545313e-01
-5.63648437e-08,1.92453125e-01
-5.63248437e-08,1.92554688e-01
-5.62848437e-08,1.92420312e-01
-5.62448437e-08,1.92732813e-01
-5.62048437e-08,1.92928125e-01
-5.61648437e-08,1.92900000e-01
-5.61248437e-08,1.92885937e-01
-5.60848437e-08,1.92929688e-01
-5.60448437e-08,1.92840625e-01
-5.60048437e-08,1.93115625e-01
-5.59648437e-08,1.93343750e-01
-5.59248437e-08,1.93285938e-01
-5.58848437e-08,1.93298438e-01
-5.58448437e-08,1.93317188e-01
-5.58048437e-08,1.93253125e-01
-5.57648437e-08,1.93503125e-01
-5.57248437e-08,1.93756250e-01
-5.56848437e-08,1.93671875e-01
-5.56448437e-08,1.93712500e-01
-5.56048437e-08,1.93703125e-01
-5.55648437e-08,1.93668750e-01
-5.55248437e-08,1.93885937e-01
-5.54848437e-08,1.94175000e-01
-5.54448437e-08,1.94048438e-01
-5.54048437e-08,1.94142188e-01
-5.53648437e-08,1.94062500e-01
-5.53248437e-08,1.94135938e-01
-5.52848437e-08,1.94060938e-01
-5.52448437e-08,1.94146875e-01
-5.52048437e-08,1.94029687e-01
-5.51648437e-08,1.94321875e-01
-5.51248437e-08,1.94542188e-01
-5.50848437e-08,1.94479687e-01
-5.50448437e-08,1.94510938e-01
-5.50048437e-08,1.94493750e-01
-5.49648437e-08,1.94504687e-01
-5.49248437e-08,1.94496875e-01
-5.48848437e-08,1.94501563e-01
-5.48448437e-08,1.94498438e-01
-5.48048437e-08,1.94501563e-01
-5.47648437e-08,1.94498438e-01
-5.47248437e-08,1.94501563e-01
-5.46848437e-08,1.94498438e-01
-5.46448437e-08,1.94501563e-01
-5.46048437e-08,1.94498438e-01
-5.45648437e-08,1.94501563e-01
-5.45248437e-08,1.94498438e-01
-5.44848437e-08,1.94501563e-01
-5.44448437e-08,1.94498438e-01
-5.44048437e-08,1.94501563e-01
-5.43648437e-08,1.94498438e-01
-5.43248437e-08,1.94501563e-01
-5.42848437e-08,1.94498438e-01
-5.42448437e-08,1.94501563e-01
-5.42048437e-08,1.94496875e-01
-5.41648437e-08,1.94503125e-01
-5.41248437e-08,1.94496875e-01
-5.40848437e-08,1.94503125e-01
-5.40448437e-08,1.94496875e-01
-5.40048437e-08,1.94503125e-01
-5.39648437e-08,1.94495313e-01
-5.39248437e-08,1.94504687e-01
-5.38848437e-08,1.94495313e-01
-5.38448437e-08,1.94506250e-01
-5.38048438e-08,1.94493750e-01
-5.37648437e-08,1.94507813e-01
-5.37248437e-08,1.94492187e-01
-5.36848437e-08,1.94509375e-01
-5.36448437e-08,1.94489063e-01
-5.36048437e-08,1.94512500e-01
-5.35648437e-08,1.94484375e-01
-5.35248437e-08,1.94521875e-01
-5.34848437e-08,1.94468750e-01
-5.34448437e-08,1.94556250e-01
-5.34048437e-08,1.94290625e-01
-5.33648437e-08,1.94046875e-01
-5.33248437e-08,1.94129688e-01
-5.32848437e-08,1.94081250e-01
-5.32448437e-08,1.94114063e-01
-5.32048437e-08,1.94089063e-01
-5.31648437e-08,1.94109375e-01
-5.31248437e-08,1.94092188e-01
-5.30848437e-08,1.94106250e-01
-5.30448437e-08,1.94095313e-01
-5.30048437e-08,1.94104688e-01
-5.29648437e-08,1.94095313e-01
-5.29248437e-08,1.94103125e-01
-5.28848437e-08,1.94096875e-01
-5.28448437e-08,1.94103125e-01
-5.28048437e-08,1.94098437e-01
-5.27648437e-08,1.94101563e-01
-5.27248437e-08,1.94098437e-01
-5.26848437e-08,1.94101563e-01
-5.26448437e-08,1.94100000e-01
-5.26048437e-08,1.94100000e-01
-5.25648437e-08,1.94100000e-01
-5.25248437e-08,1.94100000e-01
-5.24848437e-08,1.94100000e-01
-5.24448437e-08,1.94100000e-01
-5.24048437e-08,1.94101563e-01
-5.23648437e-08,1.94098437e-01
-5.23248437e-08,1.94101563e-01
-5.22848437e-08,1.94098437e-01
-5.22448437e-08,1.94101563e-01
-5.22048437e-08,1.94098437e-01
-5.21648437e-08,1.94103125e-01
-5.21248437e-08,1.94096875e-01
-5.20848437e-08,1.94103125e-01
-5.20448437e-08,1.94096875e-01
-5.20048437e-08,1.94104688e-01
-5.19648437e-08,1.94095313e-01
-5.19248437e-08,1.94104688e-01
-5.18848438e-08,1.94093750e-01
-5.18448437e-08,1.94106250e-01
-5.18048437e-08,1.94093750e-01
-5.17648437e-08,1.94107813e-01
-5.17248437e-08,1.94090625e-01
-5.16848437e-08,1.94110937e-01
-5.16448437e-08,1.94087500e-01
-5.16048438e-08,1.94115625e-01
-5.15648437e-08,1.94078125e-01
-5.15248437e-08,1.94131250e-01
-5.14848437e-08,1.94043750e-01
-5.14448437e-08,1.94309375e-01
-5.14048437e-08,1.94553125e-01
-5.13648437e-08,1.94470313e-01
-5.13248437e-08,1.94518750e-01
-5.12848437e-08,1.94485938e-01
-5.12448437e-08,1.94510938e-01
-5.12048437e-08,1.94490625e-01
-5.11648437e-08,1.94507813e-01
-5.11248437e-08,1.94493750e-01
-5.10848437e-08,1.94504687e-01
-5.10448437e-08,1.94495313e-01
-5.10048437e-08,1.94503125e-01
-5.09648437e-08,1.94496875e-01
-5.09248437e-08,1.94503125e-01
-5.08848437e-08,1.94498438e-01
-5.08448437e-08,1.94501563e-01
-5.08048437e-08,1.94498438e-01
-5.07648437e-08,1.94501563e-01
-5.07248437e-08,1.94500000e-01
-5.06848437e-08,1.94500000e-01
-5.06448437e-08,1.94500000e-01
-5.06048437e-08,1.94500000e-01
-5.05648437e-08,1.94500000e-01
-5.05248437e-08,1.94500000e-01
-5.04848437e-08,1.94501563e-01
-5.04448437e-08,1.94498438e-01
-5.04048437e-08,1.94501563e-01
-5.03648437e-08,1.94498438e-01
-5.03248437e-08,1.94501563e-01
-5.02848437e-08,1.94498438e-01
-5.02448437e-08,1.94503125e-01
-5.02048437e-08,1.94496875e-01
-5.01648437e-08,1.94503125e-01
-5.01248437e-08,1.94496875e-01
-5.00848437e-08,1.94503125e-01
-5.00448437e-08,1.94495313e-01
-5.00048437e-08,1.94504687e-01
-4.99648438e-08,1.94495313e-01
-4.99248437e-08,1.94504687e-01
-4.98848437e-08,1.94493750e-01
-4.98448437e-08,1.94506250e-01
-4.98048437e-08,1.94492187e-01
-4.97648437e-08,1.94507813e-01
-4.97248437e-08,1.94490625e-01
-4.96848438e-08,1.94509375e-01
-4.96448437e-08,1.94489063e-01
-4.96048437e-08,1.94512500e-01
-4.95648437e-08,1.94485938e-01
-4.95248437e-08,1.94515625e-01
-4.94848437e-08,1.94479687e-01
-4.94448437e-08,1.94525000e-01
-4.94048437e-08,1.94464063e-01
-4.93648437e-08,1.94560938e-01
-4.93248437e-08,1.94285938e-01
-4.92848437e-08,1.94053125e-01
-4.92448437e-08,1.94121875e-01
-4.92048437e-08,1.94087500e-01
-4.91648437e-08,1.94106250e-01
-4.91248437e-08,1.94098437e-01
-4.90848437e-08,1.94096875e-01
-4.90448437e-08,1.94107813e-01
-4.90048437e-08,1.94085937e-01
-4.89648437e-08,1.94125000e-01
-4.89248437e-08,1.94050000e-01
-4.88848437e-08,1.94303125e-01
-4.88448437e-08,1.94557813e-01
-4.88048437e-08,1.94467187e-01
-4.87648437e-08,1.94523438e-01
-4.87248437e-08,1.94481250e-01
-4.86848437e-08,1.94514063e-01
-4.86448437e-08,1.94487500e-01
-4.86048437e-08,1.94510938e-01
-4.85648437e-08,1.94490625e-01
-4.85248437e-08,1.94507813e-01
-4.84848437e-08,1.94493750e-01
-4.84448437e-08,1.94506250e-01
-4.84048437e-08,1.94495313e-01
-4.83648437e-08,1.94504687e-01
-4.83248437e-08,1.94495313e-01
-4.82848437e-08,1.94503125e-01
-4.82448437e-08,1.94496875e-01
-4.82048437e-08,1.94501563e-01
-4.81648437e-08,1.94498438e-01
-4.81248437e-08,1.94501563e-01
-4.80848437e-08,1.94500000e-01
-4.80448438e-08,1.94500000e-01
-4.80048437e-08,1.94500000e-01
-4.79648437e-08,1.94498438e-01
-4.79248437e-08,1.94501563e-01
-4.78848437e-08,1.94496875e-01
-4.78448437e-08,1.94503125e-01
-4.78048437e-08,1.94495313e-01
-4.77648438e-08,1.94506250e-01
-4.77248437e-08,1.94493750e-01
-4.76848437e-08,1.94509375e-01
-4.76448437e-08,1.94489063e-01
-4.76048437e-08,1.94514063e-01
-4.75648437e-08,1.94479687e-01
-4.75248437e-08,1.94529687e-01
-4.74848438e-08,1.94445313e-01
-4.74448437e-08,1.94707813e-01
-4.74048437e-08,1.94953125e-01
-4.73648437e-08,1.94870313e-01
-4.73248437e-08,1.94920312e-01
-4.72848437e-08,1.94885937e-01
-4.72448437e-08,1.94910937e-01
-4.72048437e-08,1.94892188e-01
-4.71648437e-08,1.94906250e-01
-4.71248437e-08,1.94895313e-01
-4.70848437e-08,1.94903125e-01
-4.70448437e-08,1.94898438e-01
-4.70048437e-08,1.94900000e-01
-4.69648437e-08,1.94901563e-01
-4.69248437e-08,1.94895313e-01
-4.68848437e-08,1.94907812e-01
-4.68448437e-08,1.94885937e-01
-4.68048437e-08,1.94923438e-01
-4.67648437e-08,1.94851563e-01
-4.67248437e-08,1.95101562e-01
-4.66848437e-08,1.95360937e-01
-4.66448437e-08,1.95262500e-01
-4.66048437e-08,1.95328125e-01
-4.65648437e-08,1.95276563e-01
-4.65248437e-08,1.95321875e-01
-4.64848437e-08,1.95278125e-01
-4.64448437e-08,1.95321875e-01
-4.64048437e-08,1.95275000e-01
-4.63648437e-08,1.95332813e-01
-4.63248437e-08,1.95243750e-01
-4.62848437e-08,1.95507813e-01
-4.62448437e-08,1.95756250e-01
-4.62048437e-08,1.95665625e-01
-4.61648437e-08,1.95726563e-01
-4.61248438e-08,1.95675000e-01
-4.60848437e-08,1.95725000e-01
-4.60448437e-08,1.95671875e-01
-4.60048437e-08,1.95737500e-01
-4.59648437e-08,1.95637500e-01
-4.59248437e-08,1.95915625e-01
-4.58848437e-08,1.96146875e-01
-4.58448438e-08,1.96078125e-01
-4.58048437e-08,1.96110937e-01
-4.57648437e-08,1.96095313e-01
-4.57248437e-08,1.96100000e-01
-4.56848437e-08,1.96104688e-01
-4.56448437e-08,1.96089063e-01
-4.56048437e-08,1.96121875e-01
-4.55648438e-08,1.96051562e-01
-4.55248437e-08,1.96301562e-01
-4.54848437e-08,1.96559375e-01
-4.54448437e-08,1.96465625e-01
-4.54048437e-08,1.96525000e-01
-4.53648437e-08,1.96481250e-01
-4.53248437e-08,1.96515625e-01
-4.52848438e-08,1.96487500e-01
-4.52448437e-08,1.96510938e-01
-4.52048437e-08,1.96490625e-01
-4.51648437e-08,1.96506250e-01
-4.51248437e-08,1.96495313e-01
-4.50848437e-08,1.96503125e-01
-4.50448437e-08,1.96500000e-01
-4.50048437e-08,1.96496875e-01
-4.49648437e-08,1.96509375e-01
-4.49248437e-08,1.96481250e-01
-4.48848437e-08,1.96543750e-01
-4.48448437e-08,1.96303125e-01
-4.48048437e-08,1.96034375e-01
-4.47648437e-08,1.96142188e-01
-4.47248437e-08,1.96065625e-01
-4.46848437e-08,1.96129688e-01
-4.46448437e-08,1.96070313e-01
-4.46048437e-08,1.96131250e-01
-4.45648437e-08,1.96062500e-01
-4.45248437e-08,1.96160938e-01
-4.44848437e-08,1.95889063e-01
-4.44448437e-08,1.95645313e-01
-4.44048437e-08,1.95732813e-01
-4.43648437e-08,1.95671875e-01
-4.43248437e-08,1.95729687e-01
-4.42848437e-08,1.95662500e-01
-4.42448437e-08,1.95762500e-01
-4.42048438e-08,1.95484375e-01
-4.41648437e-08,1.95254687e-01
-4.41248437e-08,1.95318750e-01
-4.40848437e-08,1.95296875e-01
-4.40448437e-08,1.95289062e-01
-4.40048437e-08,1.95339062e-01
-4.39648437e-08,1.95104688e-01
-4.39248438e-08,1.94835938e-01
-4.38848437e-08,1.94935938e-01
-4.38448437e-08,1.94878125e-01
-4.38048437e-08,1.94906250e-01
-4.37648437e-08,1.94920312e-01
-4.37248437e-08,1.94725000e-01
-4.36848437e-08,1.94414063e-01
-4.36448438e-08,1.94562500e-01
-4.36048437e-08,1.94446875e-01
-4.35648437e-08,1.94550000e-01
-4.35248437e-08,1.94450000e-01
-4.34848437e-08,1.94551562e-01
-4.34448437e-08,1.94440625e-01
-4.34048437e-08,1.94584375e-01
-4.33648438e-08,1.94264063e-01
-4.33248437e-08,1.94073438e-01
-4.32848437e-08,1.94103125e-01
-4.32448437e-08,1.94106250e-01
-4.32048437e-08,1.94089063e-01
-4.31648437e-08,1.94115625e-01
-4.31248437e-08,1.94081250e-01
-4.30848438e-08,1.94121875e-01
-4.30448437e-08,1.94075000e-01
-4.30048437e-08,1.94131250e-01
-4.29648437e-08,1.94057813e-01
-4.29248437e-08,1.94167188e-01
-4.28848437e-08,1.93879688e-01
-4.28448437e-08,1.93659375e-01
-4.28048437e-08,1.93717187e-01
-4.27648437e-08,1.93692188e-01
-4.27248437e-08,1.93701563e-01
-4.26848437e-08,1.93701563e-01
-4.26448437e-08,1.93695312e-01
-4.26048437e-08,1.93707813e-01
-4.25648437e-08,1.93690625e-01
-4.25248437e-08,1.93710938e-01
-4.24848437e-08,1.93685938e-01
-4.24448437e-08,1.93717187e-01
-4.24048437e-08,1.93679688e-01
-4.23648437e-08,1.93726563e-01
-4.23248437e-08,1.93664063e-01
-4.22848438e-08,1.93760938e-01
-4.22448437e-08,1.93484375e-01
-4.22048437e-08,1.93253125e-01
-4.21648437e-08,1.93321875e-01
-4.21248437e-08,1.93287500e-01
-4.20848437e-08,1.93306250e-01
-4.20448437e-08,1.93298438e-01
-4.20048438e-08,1.93298438e-01
-4.19648437e-08,1.93303125e-01
-4.19248437e-08,1.93293750e-01
-4.18848437e-08,1.93309375e-01
-4.18448437e-08,1.93285938e-01
-4.18048437e-08,1.93318750e-01
-4.17648437e-08,1.93270313e-01
-4.17248438e-08,1.93354688e-01
-4.16848437e-08,1.93092188e-01
-4.16448437e-08,1.92846875e-01
-4.16048437e-08,1.92928125e-01
-4.15648437e-08,1.92881250e-01
-4.15248437e-08,1.92914063e-01
-4.14848437e-08,1.92890625e-01
-4.14448438e-08,1.92906250e-01
-4.14048437e-08,1.92895312e-01
-4.13648437e-08,1.92903125e-01
-4.13248437e-08,1.92900000e-01
-4.12848437e-08,1.92898438e-01
-4.12448437e-08,1.92904688e-01
-4.12048437e-08,1.92892188e-01
-4.11648438e-08,1.92912500e-01
-4.11248437e-08,1.92876563e-01
-4.10848437e-08,1.92948438e-01
-4.10448437e-08,1.92698438e-01
-4.10048437e-08,1.92439063e-01
-4.09648437e-08,1.92537500e-01
-4.09248437e-08,1.92471875e-01
-4.08848438e-08,1.92523438e-01
-4.08448437e-08,1.92479687e-01
-4.08048437e-08,1.92518750e-01
-4.07648437e-08,1.92481250e-01
-4.07248437e-08,1.92517188e-01
-4.06848437e-08,1.92482813e-01
-4.06448437e-08,1.92518750e-01
-4.06048437e-08,1.92479687e-01
-4.05648437e-08,1.92521875e-01
-4.05248437e-08,1.92473438e-01
-4.04848437e-08,1.92535938e-01
-4.04448437e-08,1.92439063e-01
-4.04048437e-08,1.92714063e-01
-4.03648438e-08,1.92948438e-01
-4.03248437e-08,1.92875000e-01
-4.02848437e-08,1.92915625e-01
-4.02448437e-08,1.92889063e-01
-4.02048437e-08,1.92907812e-01
-4.01648437e-08,1.92893750e-01
-4.01248437e-08,1.92904688e-01
-4.00848438e-08,1.92896875e-01
-4.00448437e-08,1.92901563e-01
-4.00048437e-08,1.92898438e-01
-3.99648437e-08,1.92900000e-01
-3.99248437e-08,1.92900000e-01
-3.98848437e-08,1.92898438e-01
-3.98448437e-08,1.92901563e-01
-3.98048438e-08,1.92896875e-01
-3.97648437e-08,1.92904688e-01
-3.97248437e-08,1.92893750e-01
-3.96848437e-08,1.92909375e-01
-3.96448437e-08,1.92884375e-01
-3.96048437e-08,1.92925000e-01
-3.95648437e-08,1.92850000e-01
-3.95248438e-08,1.93101563e-01
-3.94848437e-08,1.93360937e-01
-3.94448437e-08,1.93264063e-01
-3.94048437e-08,1.93328125e-01
-3.93648437e-08,1.93276562e-01
-3.93248437e-08,1.93320313e-01
-3.92848437e-08,1.93281250e-01
-3.92448438e-08,1.93317188e-01
-3.92048437e-08,1.93282813e-01
-3.91648437e-08,1.93317188e-01
-3.91248437e-08,1.93282813e-01
-3.90848437e-08,1.93317188e-01
-3.90448437e-08,1.93282813e-01
-3.90048437e-08,1.93318750e-01
-3.89648438e-08,1.93279688e-01
-3.89248437e-08,1.93323438e-01
-3.88848437e-08,1.93270313e-01
-3.88448437e-08,1.93339062e-01
-3.88048437e-08,1.93235938e-01
-3.87648437e-08,1.93517188e-01
-3.87248437e-08,1.93745313e-01
-3.86848438e-08,1.93679688e-01
-3.86448437e-08,1.93709375e-01
-3.86048437e-08,1.93695312e-01
-3.85648437e-08,1.93698438e-01
-3.85248437e-08,1.93706250e-01
