trails/0bdfa5e45fec98341abdd20552c140b4/aes_ch1_20250507123039260.csv

Model,MSO66B
Label,
Waveform Type,ANALOG
Horizontal Units,s
Sample Interval,4.00000000e-11
Record Length,10000
Zero Index,1599.09375000
Vertical Units,A
ANALOG_Thumbnail,
yOffset,1.84500000e-01
yPosition,8.40000000e-01

Labels,
TIME,CH1
-6.39637500e-08,1.93695312e-01
-6.39237500e-08,1.93729687e-01
-6.38837500e-08,1.93517188e-01
-6.38437500e-08,1.93218750e-01
-6.38037500e-08,1.93359375e-01
-6.37637500e-08,1.93248438e-01
-6.37237500e-08,1.93353125e-01
-6.36837500e-08,1.93240625e-01
-6.36437500e-08,1.93382813e-01
-6.36037500e-08,1.93064063e-01
-6.35637500e-08,1.92873438e-01
-6.35237500e-08,1.92900000e-01
-6.34837500e-08,1.92912500e-01
-6.34437500e-08,1.92873438e-01
-6.34037500e-08,1.92953125e-01
-6.33637500e-08,1.92692188e-01
-6.33237500e-08,1.92445313e-01
-6.32837500e-08,1.92529688e-01
-6.32437500e-08,1.92478125e-01
-6.32037500e-08,1.92518750e-01
-6.31637500e-08,1.92482813e-01
-6.31237500e-08,1.92520313e-01
-6.30837500e-08,1.92471875e-01
-6.30437500e-08,1.92550000e-01
-6.30037500e-08,1.92298438e-01
-6.29637500e-08,1.92039062e-01
-6.29237500e-08,1.92139063e-01
-6.28837500e-08,1.92068750e-01
-6.28437500e-08,1.92128125e-01
-6.28037500e-08,1.92073437e-01
-6.27637500e-08,1.92126563e-01
-6.27237500e-08,1.92071875e-01
-6.26837500e-08,1.92131250e-01
-6.26437500e-08,1.92064063e-01
-6.26037500e-08,1.92145312e-01
-6.25637500e-08,1.92028125e-01
-6.25237500e-08,1.92325000e-01
-6.24837500e-08,1.92535938e-01
-6.24437500e-08,1.92489063e-01
-6.24037500e-08,1.92498438e-01
-6.23637500e-08,1.92509375e-01
-6.23237500e-08,1.92482813e-01
-6.22837500e-08,1.92529688e-01
-6.22437500e-08,1.92442188e-01
-6.22037500e-08,1.92712500e-01
-6.21637500e-08,1.92946875e-01
-6.21237500e-08,1.92879688e-01
-6.20837500e-08,1.92906250e-01
-6.20437500e-08,1.92907812e-01
-6.20037500e-08,1.92864063e-01
-6.19637500e-08,1.93089063e-01
-6.19237500e-08,1.93373438e-01
-6.18837500e-08,1.93246875e-01
-6.18437500e-08,1.93351563e-01
-6.18037500e-08,1.93231250e-01
-6.17637500e-08,1.93517188e-01
-6.17237500e-08,1.93751563e-01
-6.16837500e-08,1.93667188e-01
-6.16437500e-08,1.93734375e-01
-6.16037500e-08,1.93645312e-01
-6.15637500e-08,1.93904688e-01
-6.15237500e-08,1.94162500e-01
-6.14837500e-08,1.94056250e-01
-6.14437500e-08,1.94143750e-01
-6.14037500e-08,1.94037500e-01
-6.13637500e-08,1.94312500e-01
-6.13237500e-08,1.94553125e-01
-6.12837500e-08,1.94467187e-01
-6.12437500e-08,1.94528125e-01
-6.12037500e-08,1.94470313e-01
-6.11637500e-08,1.94535938e-01
-6.11237500e-08,1.94440625e-01
-6.10837500e-08,1.94712500e-01
-6.10437500e-08,1.94951563e-01
-6.10037500e-08,1.94871875e-01
-6.09637500e-08,1.94918750e-01
-6.09237500e-08,1.94885937e-01
-6.08837500e-08,1.94910937e-01
-6.08437500e-08,1.94890625e-01
-6.08037500e-08,1.94907812e-01
-6.07637500e-08,1.94893750e-01
-6.07237500e-08,1.94906250e-01
-6.06837500e-08,1.94893750e-01
-6.06437500e-08,1.94904688e-01
-6.06037500e-08,1.94895313e-01
-6.05637500e-08,1.94904688e-01
-6.05237500e-08,1.94895313e-01
-6.04837500e-08,1.94903125e-01
-6.04437500e-08,1.94896875e-01
-6.04037500e-08,1.94903125e-01
-6.03637500e-08,1.94896875e-01
-6.03237500e-08,1.94903125e-01
-6.02837500e-08,1.94896875e-01
-6.02437500e-08,1.94903125e-01
-6.02037500e-08,1.94895313e-01
-6.01637500e-08,1.94904688e-01
-6.01237500e-08,1.94895313e-01
-6.00837500e-08,1.94906250e-01
-6.00437500e-08,1.94893750e-01
-6.00037500e-08,1.94907812e-01
-5.99637500e-08,1.94889063e-01
-5.99237500e-08,1.94915625e-01
-5.98837500e-08,1.94875000e-01
-5.98437500e-08,1.94948438e-01
-5.98037500e-08,1.94698438e-01
-5.97637500e-08,1.94437500e-01
-5.97237500e-08,1.94539062e-01
-5.96837500e-08,1.94468750e-01
-5.96437500e-08,1.94528125e-01
-5.96037500e-08,1.94471875e-01
-5.95637500e-08,1.94531250e-01
-5.95237500e-08,1.94460938e-01
-5.94837500e-08,1.94562500e-01
-5.94437500e-08,1.94285938e-01
-5.94037500e-08,1.94050000e-01
-5.93637500e-08,1.94128125e-01
-5.93237500e-08,1.94078125e-01
-5.92837500e-08,1.94120313e-01
-5.92437500e-08,1.94073438e-01
-5.92037500e-08,1.94148437e-01
-5.91637500e-08,1.93901563e-01
-5.91237500e-08,1.93634375e-01
-5.90837500e-08,1.93745313e-01
-5.90437500e-08,1.93659375e-01
-5.90037500e-08,1.93740625e-01
-5.89637500e-08,1.93651563e-01
-5.89237500e-08,1.93773438e-01
-5.88837500e-08,1.93473438e-01
-5.88437500e-08,1.93264063e-01
-5.88037500e-08,1.93310938e-01
-5.87637500e-08,1.93300000e-01
-5.87237500e-08,1.93292188e-01
-5.86837500e-08,1.93315625e-01
-5.86437500e-08,1.93271875e-01
-5.86037500e-08,1.93354688e-01
-5.85637500e-08,1.93090625e-01
-5.85237500e-08,1.92848437e-01
-5.84837500e-08,1.92926563e-01
-5.84437500e-08,1.92884375e-01
-5.84037500e-08,1.92909375e-01
-5.83637500e-08,1.92896875e-01
-5.83237500e-08,1.92898438e-01
-5.82837500e-08,1.92909375e-01
-5.82437500e-08,1.92879688e-01
-5.82037500e-08,1.92945313e-01
-5.81637500e-08,1.92700000e-01
-5.81237500e-08,1.92437500e-01
-5.80837500e-08,1.92537500e-01
-5.80437500e-08,1.92471875e-01
-5.80037500e-08,1.92521875e-01
-5.79637500e-08,1.92481250e-01
-5.79237500e-08,1.92515625e-01
-5.78837500e-08,1.92485938e-01
-5.78437500e-08,1.92512500e-01
-5.78037500e-08,1.92487500e-01
-5.77637500e-08,1.92510938e-01
-5.77237500e-08,1.92489063e-01
-5.76837500e-08,1.92509375e-01
-5.76437500e-08,1.92490625e-01
-5.76037500e-08,1.92507813e-01
-5.75637500e-08,1.92492188e-01
-5.75237500e-08,1.92507813e-01
-5.74837500e-08,1.92492188e-01
-5.74437500e-08,1.92507813e-01
-5.74037500e-08,1.92493750e-01
-5.73637500e-08,1.92506250e-01
-5.73237500e-08,1.92493750e-01
-5.72837500e-08,1.92506250e-01
-5.72437500e-08,1.92493750e-01
-5.72037500e-08,1.92506250e-01
-5.71637500e-08,1.92495313e-01
-5.71237500e-08,1.92504687e-01
-5.70837500e-08,1.92495313e-01
-5.70437500e-08,1.92504687e-01
-5.70037500e-08,1.92495313e-01
-5.69637500e-08,1.92504687e-01
-5.69237500e-08,1.92495313e-01
-5.68837500e-08,1.92504687e-01
-5.68437500e-08,1.92495313e-01
-5.68037500e-08,1.92504687e-01
-5.67637500e-08,1.92495313e-01
-5.67237500e-08,1.92504687e-01
-5.66837500e-08,1.92495313e-01
-5.66437500e-08,1.92504687e-01
-5.66037500e-08,1.92496875e-01
-5.65637500e-08,1.92503125e-01
-5.65237500e-08,1.92496875e-01
-5.64837500e-08,1.92503125e-01
-5.64437500e-08,1.92496875e-01
-5.64037500e-08,1.92503125e-01
-5.63637500e-08,1.92496875e-01
-5.63237500e-08,1.92503125e-01
-5.62837500e-08,1.92496875e-01
-5.62437500e-08,1.92503125e-01
-5.62037500e-08,1.92496875e-01
-5.61637500e-08,1.92503125e-01
-5.61237500e-08,1.92496875e-01
-5.60837500e-08,1.92503125e-01
-5.60437500e-08,1.92496875e-01
-5.60037500e-08,1.92503125e-01
-5.59637500e-08,1.92496875e-01
-5.59237500e-08,1.92503125e-01
-5.58837500e-08,1.92496875e-01
-5.58437500e-08,1.92503125e-01
-5.58037500e-08,1.92496875e-01
-5.57637500e-08,1.92503125e-01
-5.57237500e-08,1.92496875e-01
-5.56837500e-08,1.92503125e-01
-5.56437500e-08,1.92496875e-01
-5.56037500e-08,1.92503125e-01
-5.55637500e-08,1.92496875e-01
-5.55237500e-08,1.92503125e-01
-5.54837500e-08,1.92496875e-01
-5.54437500e-08,1.92504687e-01
-5.54037500e-08,1.92495313e-01
-5.53637500e-08,1.92504687e-01
-5.53237500e-08,1.92495313e-01
-5.52837500e-08,1.92504687e-01
-5.52437500e-08,1.92495313e-01
-5.52037500e-08,1.92506250e-01
-5.51637500e-08,1.92493750e-01
-5.51237500e-08,1.92506250e-01
-5.50837500e-08,1.92492188e-01
-5.50437500e-08,1.92509375e-01
-5.50037500e-08,1.92489063e-01
-5.49637500e-08,1.92514062e-01
-5.49237500e-08,1.92481250e-01
-5.48837500e-08,1.92528125e-01
-5.48437500e-08,1.92446875e-01
-5.48037500e-08,1.92706250e-01
-5.47637500e-08,1.92956250e-01
-5.47237500e-08,1.92867188e-01
-5.46837500e-08,1.92923438e-01
-5.46437500e-08,1.92881250e-01
-5.46037500e-08,1.92917188e-01
-5.45637500e-08,1.92884375e-01
-5.45237500e-08,1.92914063e-01
-5.44837500e-08,1.92885937e-01
-5.44437500e-08,1.92914063e-01
-5.44037500e-08,1.92884375e-01
-5.43637500e-08,1.92917188e-01
-5.43237500e-08,1.92879688e-01
-5.42837500e-08,1.92925000e-01
-5.42437500e-08,1.92865625e-01
-5.42037500e-08,1.92957812e-01
-5.41637500e-08,1.92689063e-01
-5.41237500e-08,1.92448438e-01
-5.40837500e-08,1.92528125e-01
-5.40437500e-08,1.92481250e-01
-5.40037500e-08,1.92514062e-01
-5.39637500e-08,1.92489063e-01
-5.39237500e-08,1.92509375e-01
-5.38837500e-08,1.92492188e-01
-5.38437500e-08,1.92506250e-01
-5.38037500e-08,1.92493750e-01
-5.37637500e-08,1.92504687e-01
-5.37237500e-08,1.92495313e-01
-5.36837500e-08,1.92504687e-01
-5.36437500e-08,1.92495313e-01
-5.36037500e-08,1.92503125e-01
-5.35637500e-08,1.92496875e-01
-5.35237500e-08,1.92503125e-01
-5.34837500e-08,1.92496875e-01
-5.34437500e-08,1.92503125e-01
-5.34037500e-08,1.92496875e-01
-5.33637500e-08,1.92503125e-01
-5.33237500e-08,1.92496875e-01
-5.32837500e-08,1.92503125e-01
-5.32437500e-08,1.92496875e-01
-5.32037500e-08,1.92503125e-01
-5.31637500e-08,1.92496875e-01
-5.31237500e-08,1.92503125e-01
-5.30837500e-08,1.92496875e-01
-5.30437500e-08,1.92503125e-01
-5.30037500e-08,1.92496875e-01
-5.29637500e-08,1.92503125e-01
-5.29237500e-08,1.92496875e-01
-5.28837500e-08,1.92503125e-01
-5.28437500e-08,1.92496875e-01
-5.28037500e-08,1.92504687e-01
-5.27637500e-08,1.92495313e-01
-5.27237500e-08,1.92504687e-01
-5.26837500e-08,1.92493750e-01
-5.26437500e-08,1.92507813e-01
-5.26037500e-08,1.92490625e-01
-5.25637500e-08,1.92510938e-01
-5.25237500e-08,1.92484375e-01
-5.24837500e-08,1.92525000e-01
-5.24437500e-08,1.92450000e-01
-5.24037500e-08,1.92701563e-01
-5.23637500e-08,1.92960938e-01
-5.23237500e-08,1.92860937e-01
-5.22837500e-08,1.92931250e-01
-5.22437500e-08,1.92870313e-01
-5.22037500e-08,1.92931250e-01
-5.21637500e-08,1.92860937e-01
-5.21237500e-08,1.92962500e-01
-5.20837500e-08,1.92685938e-01
-5.20437500e-08,1.92451563e-01
-5.20037500e-08,1.92525000e-01
-5.19637500e-08,1.92482813e-01
-5.19237500e-08,1.92512500e-01
-5.18837500e-08,1.92490625e-01
-5.18437500e-08,1.92507813e-01
-5.18037500e-08,1.92492188e-01
-5.17637500e-08,1.92506250e-01
-5.17237500e-08,1.92493750e-01
-5.16837500e-08,1.92506250e-01
-5.16437500e-08,1.92493750e-01
-5.16037500e-08,1.92506250e-01
-5.15637500e-08,1.92493750e-01
-5.15237500e-08,1.92507813e-01
-5.14837500e-08,1.92492188e-01
-5.14437500e-08,1.92509375e-01
-5.14037500e-08,1.92489063e-01
-5.13637500e-08,1.92514062e-01
-5.13237500e-08,1.92481250e-01
-5.12837500e-08,1.92528125e-01
-5.12437500e-08,1.92446875e-01
-5.12037500e-08,1.92706250e-01
-5.11637500e-08,1.92956250e-01
-5.11237500e-08,1.92867188e-01
-5.10837500e-08,1.92923438e-01
-5.10437500e-08,1.92881250e-01
-5.10037500e-08,1.92915625e-01
-5.09637500e-08,1.92885937e-01
-5.09237500e-08,1.92912500e-01
-5.08837500e-08,1.92887500e-01
-5.08437500e-08,1.92910938e-01
-5.08037500e-08,1.92889063e-01
-5.07637500e-08,1.92910938e-01
-5.07237500e-08,1.92889063e-01
-5.06837500e-08,1.92910938e-01
-5.06437500e-08,1.92889063e-01
-5.06037500e-08,1.92910938e-01
-5.05637500e-08,1.92889063e-01
-5.05237500e-08,1.92910938e-01
-5.04837500e-08,1.92889063e-01
-5.04437500e-08,1.92912500e-01
-5.04037500e-08,1.92887500e-01
-5.03637500e-08,1.92914063e-01
-5.03237500e-08,1.92884375e-01
-5.02837500e-08,1.92917188e-01
-5.02437500e-08,1.92881250e-01
-5.02037500e-08,1.92921875e-01
-5.01637500e-08,1.92873438e-01
-5.01237500e-08,1.92937500e-01
-5.00837500e-08,1.92837500e-01
-5.00437500e-08,1.93115625e-01
-5.00037500e-08,1.93346875e-01
-4.99637500e-08,1.93278125e-01
-4.99237500e-08,1.93312500e-01
-4.98837500e-08,1.93293750e-01
-4.98437500e-08,1.93303125e-01
-4.98037500e-08,1.93300000e-01
-4.97637500e-08,1.93296875e-01
-4.97237500e-08,1.93304688e-01
-4.96837500e-08,1.93292188e-01
-4.96437500e-08,1.93312500e-01
-4.96037500e-08,1.93282813e-01
-4.95637500e-08,1.93328125e-01
-4.95237500e-08,1.93246875e-01
-4.94837500e-08,1.93506250e-01
-4.94437500e-08,1.93756250e-01
-4.94037500e-08,1.93668750e-01
-4.93637500e-08,1.93721875e-01
-4.93237500e-08,1.93682812e-01
-4.92837500e-08,1.93714063e-01
-4.92437500e-08,1.93689063e-01
-4.92037500e-08,1.93709375e-01
-4.91637500e-08,1.93692188e-01
-4.91237500e-08,1.93706250e-01
-4.90837500e-08,1.93693750e-01
-4.90437500e-08,1.93704688e-01
-4.90037500e-08,1.93695312e-01
-4.89637500e-08,1.93704688e-01
-4.89237500e-08,1.93696875e-01
-4.88837500e-08,1.93703125e-01
-4.88437500e-08,1.93696875e-01
-4.88037500e-08,1.93701563e-01
-4.87637500e-08,1.93698438e-01
-4.87237500e-08,1.93701563e-01
-4.86837500e-08,1.93698438e-01
-4.86437500e-08,1.93700000e-01
-4.86037500e-08,1.93700000e-01
-4.85637500e-08,1.93700000e-01
-4.85237500e-08,1.93700000e-01
-4.84837500e-08,1.93698438e-01
-4.84437500e-08,1.93701563e-01
-4.84037500e-08,1.93698438e-01
-4.83637500e-08,1.93703125e-01
-4.83237500e-08,1.93696875e-01
-4.82837500e-08,1.93703125e-01
-4.82437500e-08,1.93695312e-01
-4.82037500e-08,1.93704688e-01
-4.81637500e-08,1.93693750e-01
-4.81237500e-08,1.93707813e-01
-4.80837500e-08,1.93690625e-01
-4.80437500e-08,1.93712500e-01
-4.80037500e-08,1.93684375e-01
-4.79637500e-08,1.93720313e-01
-4.79237500e-08,1.93670312e-01
-4.78837500e-08,1.93756250e-01
-4.78437500e-08,1.93490625e-01
-4.78037500e-08,1.93246875e-01
-4.77637500e-08,1.93328125e-01
-4.77237500e-08,1.93281250e-01
-4.76837500e-08,1.93314062e-01
-4.76437500e-08,1.93290625e-01
-4.76037500e-08,1.93307813e-01
-4.75637500e-08,1.93295313e-01
-4.75237500e-08,1.93303125e-01
-4.74837500e-08,1.93298438e-01
-4.74437500e-08,1.93298438e-01
-4.74037500e-08,1.93304688e-01
-4.73637500e-08,1.93292188e-01
-4.73237500e-08,1.93312500e-01
-4.72837500e-08,1.93276562e-01
-4.72437500e-08,1.93348437e-01
-4.72037500e-08,1.93098437e-01
-4.71637500e-08,1.92840625e-01
-4.71237500e-08,1.92935938e-01
-4.70837500e-08,1.92873438e-01
-4.70437500e-08,1.92920312e-01
-4.70037500e-08,1.92882813e-01
-4.69637500e-08,1.92915625e-01
-4.69237500e-08,1.92887500e-01
-4.68837500e-08,1.92910938e-01
-4.68437500e-08,1.92890625e-01
-4.68037500e-08,1.92909375e-01
-4.67637500e-08,1.92892188e-01
-4.67237500e-08,1.92906250e-01
-4.66837500e-08,1.92895312e-01
-4.66437500e-08,1.92903125e-01
-4.66037500e-08,1.92898438e-01
-4.65637500e-08,1.92896875e-01
-4.65237500e-08,1.92907812e-01
-4.64837500e-08,1.92882813e-01
-4.64437500e-08,1.92942188e-01
-4.64037500e-08,1.92704687e-01
-4.63637500e-08,1.92432812e-01
-4.63237500e-08,1.92543750e-01
-4.62837500e-08,1.92464063e-01
-4.62437500e-08,1.92531250e-01
-4.62037500e-08,1.92471875e-01
-4.61637500e-08,1.92528125e-01
-4.61237500e-08,1.92471875e-01
-4.60837500e-08,1.92528125e-01
-4.60437500e-08,1.92470313e-01
-4.60037500e-08,1.92534375e-01
-4.59637500e-08,1.92456250e-01
-4.59237500e-08,1.92568750e-01
-4.58837500e-08,1.92279688e-01
-4.58437500e-08,1.92057813e-01
-4.58037500e-08,1.92118750e-01
-4.57637500e-08,1.92090625e-01
-4.57237500e-08,1.92104688e-01
-4.56837500e-08,1.92098437e-01
-4.56437500e-08,1.92100000e-01
-4.56037500e-08,1.92101563e-01
-4.55637500e-08,1.92096875e-01
-4.55237500e-08,1.92103125e-01
-4.54837500e-08,1.92095313e-01
-4.54437500e-08,1.92104688e-01
-4.54037500e-08,1.92095313e-01
-4.53637500e-08,1.92106250e-01
-4.53237500e-08,1.92093750e-01
-4.52837500e-08,1.92106250e-01
-4.52437500e-08,1.92093750e-01
-4.52037500e-08,1.92106250e-01
-4.51637500e-08,1.92092188e-01
-4.51237500e-08,1.92107813e-01
-4.50837500e-08,1.92092188e-01
-4.50437500e-08,1.92107813e-01
-4.50037500e-08,1.92090625e-01
-4.49637500e-08,1.92109375e-01
-4.49237500e-08,1.92090625e-01
-4.48837500e-08,1.92110937e-01
-4.48437500e-08,1.92089063e-01
-4.48037500e-08,1.92112500e-01
-4.47637500e-08,1.92087500e-01
-4.47237500e-08,1.92114063e-01
-4.46837500e-08,1.92084375e-01
-4.46437500e-08,1.92117188e-01
-4.46037500e-08,1.92079688e-01
-4.45637500e-08,1.92123437e-01
-4.45237500e-08,1.92071875e-01
-4.44837500e-08,1.92139063e-01
-4.44437500e-08,1.92035938e-01
-4.44037500e-08,1.92318750e-01
-4.43637500e-08,1.92542188e-01
-4.43237500e-08,1.92482813e-01
-4.42837500e-08,1.92504687e-01
-4.42437500e-08,1.92503125e-01
-4.42037500e-08,1.92487500e-01
-4.41637500e-08,1.92523438e-01
-4.41237500e-08,1.92448438e-01
-4.40837500e-08,1.92706250e-01
-4.40437500e-08,1.92953125e-01
-4.40037500e-08,1.92873438e-01
-4.39637500e-08,1.92912500e-01
-4.39237500e-08,1.92901563e-01
-4.38837500e-08,1.92870313e-01
-4.38437500e-08,1.93082813e-01
-4.38037500e-08,1.93378125e-01
-4.37637500e-08,1.93243750e-01
-4.37237500e-08,1.93348437e-01
-4.36837500e-08,1.93251563e-01
-4.36437500e-08,1.93354688e-01
-4.36037500e-08,1.93221875e-01
-4.35637500e-08,1.93529688e-01
-4.35237500e-08,1.93732813e-01
-4.34837500e-08,1.93690625e-01
-4.34437500e-08,1.93698438e-01
-4.34037500e-08,1.93709375e-01
-4.33637500e-08,1.93684375e-01
-4.33237500e-08,1.93726563e-01
-4.32837500e-08,1.93646875e-01
-4.32437500e-08,1.93906250e-01
-4.32037500e-08,1.94154688e-01
-4.31637500e-08,1.94068750e-01
-4.31237500e-08,1.94121875e-01
-4.30837500e-08,1.94082813e-01
-4.30437500e-08,1.94114063e-01
-4.30037500e-08,1.94089063e-01
-4.29637500e-08,1.94109375e-01
-4.29237500e-08,1.94090625e-01
-4.28837500e-08,1.94107813e-01
-4.28437500e-08,1.94092188e-01
-4.28037500e-08,1.94106250e-01
-4.27637500e-08,1.94093750e-01
-4.27237500e-08,1.94106250e-01
-4.26837500e-08,1.94093750e-01
-4.26437500e-08,1.94106250e-01
-4.26037500e-08,1.94093750e-01
-4.25637500e-08,1.94106250e-01
-4.25237500e-08,1.94093750e-01
-4.24837500e-08,1.94106250e-01
-4.24437500e-08,1.94093750e-01
-4.24037500e-08,1.94106250e-01
-4.23637500e-08,1.94093750e-01
-4.23237500e-08,1.94106250e-01
-4.22837500e-08,1.94093750e-01
-4.22437500e-08,1.94106250e-01
-4.22037500e-08,1.94093750e-01
-4.21637500e-08,1.94106250e-01
-4.21237500e-08,1.94093750e-01
-4.20837500e-08,1.94107813e-01
-4.20437500e-08,1.94092188e-01
-4.20037500e-08,1.94107813e-01
-4.19637500e-08,1.94090625e-01
-4.19237500e-08,1.94110937e-01
-4.18837500e-08,1.94089063e-01
-4.18437500e-08,1.94114063e-01
-4.18037500e-08,1.94082813e-01
-4.17637500e-08,1.94121875e-01
-4.17237500e-08,1.94068750e-01
-4.16837500e-08,1.94156250e-01
-4.16437500e-08,1.93890625e-01
-4.16037500e-08,1.93646875e-01
-4.15637500e-08,1.93729687e-01
-4.15237500e-08,1.93679688e-01
-4.14837500e-08,1.93715625e-01
-4.14437500e-08,1.93687500e-01
-4.14037500e-08,1.93709375e-01
-4.13637500e-08,1.93692188e-01
-4.13237500e-08,1.93707813e-01
-4.12837500e-08,1.93693750e-01
-4.12437500e-08,1.93706250e-01
-4.12037500e-08,1.93695312e-01
-4.11637500e-08,1.93704688e-01
-4.11237500e-08,1.93695312e-01
-4.10837500e-08,1.93704688e-01
-4.10437500e-08,1.93695312e-01
-4.10037500e-08,1.93703125e-01
-4.09637500e-08,1.93696875e-01
-4.09237500e-08,1.93703125e-01
-4.08837500e-08,1.93696875e-01
-4.08437500e-08,1.93703125e-01
-4.08037500e-08,1.93696875e-01
-4.07637500e-08,1.93703125e-01
-4.07237500e-08,1.93696875e-01
-4.06837500e-08,1.93703125e-01
-4.06437500e-08,1.93696875e-01
-4.06037500e-08,1.93703125e-01
-4.05637500e-08,1.93696875e-01
-4.05237500e-08,1.93703125e-01
-4.04837500e-08,1.93696875e-01
-4.04437500e-08,1.93703125e-01
-4.04037500e-08,1.93695312e-01
-4.03637500e-08,1.93704688e-01
-4.03237500e-08,1.93695312e-01
-4.02837500e-08,1.93704688e-01
-4.02437500e-08,1.93695312e-01
-4.02037500e-08,1.93706250e-01
-4.01637500e-08,1.93693750e-01
-4.01237500e-08,1.93707813e-01
-4.00837500e-08,1.93690625e-01
-4.00437500e-08,1.93710938e-01
-4.00037500e-08,1.93685938e-01
-3.99637500e-08,1.93718750e-01
-3.99237500e-08,1.93671875e-01
-3.98837500e-08,1.93753125e-01
-3.98437500e-08,1.93493750e-01
-3.98037500e-08,1.93243750e-01
-3.97637500e-08,1.93332813e-01
-3.97237500e-08,1.93276562e-01
-3.96837500e-08,1.93318750e-01
-3.96437500e-08,1.93284375e-01
-3.96037500e-08,1.93314062e-01
-3.95637500e-08,1.93287500e-01
-3.95237500e-08,1.93312500e-01
-3.94837500e-08,1.93289062e-01
-3.94437500e-08,1.93310938e-01
-3.94037500e-08,1.93289062e-01
-3.93637500e-08,1.93312500e-01
-3.93237500e-08,1.93287500e-01
-3.92837500e-08,1.93314062e-01
-3.92437500e-08,1.93282813e-01
-3.92037500e-08,1.93321875e-01
-3.91637500e-08,1.93268750e-01
-3.91237500e-08,1.93356250e-01
-3.90837500e-08,1.93092188e-01
-3.90437500e-08,1.92845313e-01
-3.90037500e-08,1.92931250e-01
-3.89637500e-08,1.92878125e-01
-3.89237500e-08,1.92918750e-01
-3.88837500e-08,1.92884375e-01
-3.88437500e-08,1.92914063e-01
-3.88037500e-08,1.92885937e-01
-3.87637500e-08,1.92914063e-01
-3.87237500e-08,1.92884375e-01
-3.86837500e-08,1.92917188e-01
-3.86437500e-08,1.92881250e-01
-3.86037500e-08,1.92925000e-01
-3.85637500e-08,1.92865625e-01
-3.85237500e-08,1.92959375e-01
