trails/0bdfa5e45fec98341abdd20552c140b4/aes_ch1_20250507114942335.csv

Model,MSO66B
Label,
Waveform Type,ANALOG
Horizontal Units,s
Sample Interval,4.00000000e-11
Record Length,10000
Zero Index,1599.05078125
Vertical Units,A
ANALOG_Thumbnail,
yOffset,1.84500000e-01
yPosition,8.40000000e-01

Labels,
TIME,CH1
-6.39620312e-08,1.85303125e-01
-6.39220313e-08,1.85295313e-01
-6.38820312e-08,1.85304688e-01
-6.38420312e-08,1.85295313e-01
-6.38020312e-08,1.85304688e-01
-6.37620312e-08,1.85295313e-01
-6.37220313e-08,1.85306250e-01
-6.36820312e-08,1.85293750e-01
-6.36420313e-08,1.85307813e-01
-6.36020312e-08,1.85290625e-01
-6.35620312e-08,1.85310937e-01
-6.35220312e-08,1.85285937e-01
-6.34820312e-08,1.85318750e-01
-6.34420313e-08,1.85271875e-01
-6.34020312e-08,1.85353125e-01
-6.33620313e-08,1.85093750e-01
-6.33220312e-08,1.84843750e-01
-6.32820312e-08,1.84932813e-01
-6.32420312e-08,1.84876563e-01
-6.32020312e-08,1.84918750e-01
-6.31620313e-08,1.84884375e-01
-6.31220312e-08,1.84914063e-01
-6.30820312e-08,1.84887500e-01
-6.30420312e-08,1.84912500e-01
-6.30020312e-08,1.84889063e-01
-6.29620312e-08,1.84910938e-01
-6.29220312e-08,1.84889063e-01
-6.28820313e-08,1.84910938e-01
-6.28420312e-08,1.84887500e-01
-6.28020312e-08,1.84912500e-01
-6.27620312e-08,1.84885938e-01
-6.27220312e-08,1.84915625e-01
-6.26820312e-08,1.84881250e-01
-6.26420312e-08,1.84923438e-01
-6.26020313e-08,1.84867188e-01
-6.25620312e-08,1.84957813e-01
-6.25220312e-08,1.84689063e-01
-6.24820312e-08,1.84448438e-01
-6.24420312e-08,1.84528125e-01
-6.24020312e-08,1.84481250e-01
-6.23620312e-08,1.84514063e-01
-6.23220313e-08,1.84489062e-01
-6.22820312e-08,1.84509375e-01
-6.22420312e-08,1.84492188e-01
-6.22020312e-08,1.84506250e-01
-6.21620312e-08,1.84493750e-01
-6.21220312e-08,1.84506250e-01
-6.20820312e-08,1.84493750e-01
-6.20420313e-08,1.84504688e-01
-6.20020312e-08,1.84495313e-01
-6.19620312e-08,1.84504688e-01
-6.19220312e-08,1.84495313e-01
-6.18820312e-08,1.84504688e-01
-6.18420312e-08,1.84495313e-01
-6.18020312e-08,1.84504688e-01
-6.17620313e-08,1.84495313e-01
-6.17220312e-08,1.84506250e-01
-6.16820312e-08,1.84493750e-01
-6.16420312e-08,1.84506250e-01
-6.16020312e-08,1.84492188e-01
-6.15620312e-08,1.84507813e-01
-6.15220312e-08,1.84490625e-01
-6.14820313e-08,1.84510937e-01
-6.14420312e-08,1.84485938e-01
-6.14020312e-08,1.84518750e-01
-6.13620312e-08,1.84470313e-01
-6.13220312e-08,1.84553125e-01
-6.12820312e-08,1.84293750e-01
-6.12420312e-08,1.84043750e-01
-6.12020313e-08,1.84131250e-01
-6.11620312e-08,1.84078125e-01
-6.11220312e-08,1.84117188e-01
-6.10820312e-08,1.84085938e-01
-6.10420312e-08,1.84112500e-01
-6.10020313e-08,1.84089063e-01
-6.09620312e-08,1.84110938e-01
-6.09220313e-08,1.84090625e-01
-6.08820312e-08,1.84109375e-01
-6.08420312e-08,1.84090625e-01
-6.08020312e-08,1.84107812e-01
-6.07620312e-08,1.84092188e-01
-6.07220313e-08,1.84107812e-01
-6.06820312e-08,1.84092188e-01
-6.06420313e-08,1.84107812e-01
-6.06020312e-08,1.84092188e-01
-6.05620312e-08,1.84107812e-01
-6.05220312e-08,1.84092188e-01
-6.04820312e-08,1.84107812e-01
-6.04420313e-08,1.84092188e-01
-6.04020312e-08,1.84107812e-01
-6.03620313e-08,1.84092188e-01
-6.03220312e-08,1.84107812e-01
-6.02820312e-08,1.84092188e-01
-6.02420312e-08,1.84109375e-01
-6.02020312e-08,1.84090625e-01
-6.01620313e-08,1.84109375e-01
-6.01220312e-08,1.84090625e-01
-6.00820313e-08,1.84110938e-01
-6.00420312e-08,1.84089063e-01
-6.00020312e-08,1.84112500e-01
-5.99620312e-08,1.84087500e-01
-5.99220312e-08,1.84114063e-01
-5.98820313e-08,1.84084375e-01
-5.98420312e-08,1.84117188e-01
-5.98020313e-08,1.84079688e-01
-5.97620312e-08,1.84123438e-01
-5.97220312e-08,1.84070312e-01
-5.96820312e-08,1.84140625e-01
-5.96420312e-08,1.84032813e-01
-5.96020312e-08,1.84321875e-01
-5.95620312e-08,1.84537500e-01
-5.95220312e-08,1.84492188e-01
-5.94820312e-08,1.84489062e-01
-5.94420312e-08,1.84540625e-01
-5.94020312e-08,1.84303125e-01
-5.93620312e-08,1.84037500e-01
-5.93220312e-08,1.84137500e-01
-5.92820312e-08,1.84073437e-01
-5.92420312e-08,1.84120312e-01
-5.92020312e-08,1.84082812e-01
-5.91620312e-08,1.84114063e-01
-5.91220312e-08,1.84089063e-01
-5.90820312e-08,1.84109375e-01
-5.90420312e-08,1.84092188e-01
-5.90020312e-08,1.84106250e-01
-5.89620312e-08,1.84096875e-01
-5.89220312e-08,1.84100000e-01
-5.88820312e-08,1.84104688e-01
-5.88420312e-08,1.84085938e-01
-5.88020312e-08,1.84139063e-01
-5.87620312e-08,1.83907813e-01
-5.87220312e-08,1.83629687e-01
-5.86820312e-08,1.83748438e-01
-5.86420312e-08,1.83659375e-01
-5.86020312e-08,1.83737500e-01
-5.85620312e-08,1.83662500e-01
-5.85220312e-08,1.83740625e-01
-5.84820312e-08,1.83651563e-01
-5.84420312e-08,1.83773437e-01
-5.84020312e-08,1.83473438e-01
-5.83620312e-08,1.83264063e-01
-5.83220312e-08,1.83312500e-01
-5.82820312e-08,1.83296875e-01
-5.82420312e-08,1.83296875e-01
-5.82020312e-08,1.83307813e-01
-5.81620312e-08,1.83287500e-01
-5.81220312e-08,1.83318750e-01
-5.80820312e-08,1.83270313e-01
-5.80420312e-08,1.83356250e-01
-5.80020312e-08,1.83090625e-01
-5.79620312e-08,1.82846875e-01
-5.79220312e-08,1.82928125e-01
-5.78820312e-08,1.82881250e-01
-5.78420312e-08,1.82912500e-01
-5.78020312e-08,1.82890625e-01
-5.77620312e-08,1.82906250e-01
-5.77220312e-08,1.82895313e-01
-5.76820312e-08,1.82903125e-01
-5.76420312e-08,1.82898438e-01
-5.76020312e-08,1.82900000e-01
-5.75620312e-08,1.82901563e-01
-5.75220312e-08,1.82896875e-01
-5.74820312e-08,1.82904687e-01
-5.74420312e-08,1.82892187e-01
-5.74020312e-08,1.82910938e-01
-5.73620312e-08,1.82884375e-01
-5.73220312e-08,1.82926563e-01
-5.72820312e-08,1.82848438e-01
-5.72420312e-08,1.83104688e-01
-5.72020312e-08,1.83356250e-01
-5.71620312e-08,1.83267188e-01
-5.71220312e-08,1.83321875e-01
-5.70820312e-08,1.83284375e-01
-5.70420312e-08,1.83310937e-01
-5.70020312e-08,1.83293750e-01
-5.69620312e-08,1.83300000e-01
-5.69220312e-08,1.83309375e-01
-5.68820312e-08,1.83265625e-01
-5.68420312e-08,1.83487500e-01
-5.68020312e-08,1.83775000e-01
-5.67620312e-08,1.83648438e-01
-5.67220312e-08,1.83743750e-01
-5.66820312e-08,1.83659375e-01
-5.66420312e-08,1.83740625e-01
-5.66020312e-08,1.83656250e-01
-5.65620312e-08,1.83753125e-01
-5.65220312e-08,1.83623438e-01
-5.64820312e-08,1.83929687e-01
-5.64420312e-08,1.84132813e-01
-5.64020312e-08,1.84090625e-01
-5.63620312e-08,1.84098438e-01
-5.63220312e-08,1.84107812e-01
-5.62820312e-08,1.84087500e-01
-5.62420312e-08,1.84117188e-01
-5.62020312e-08,1.84076563e-01
-5.61620312e-08,1.84134375e-01
-5.61220312e-08,1.84040625e-01
-5.60820312e-08,1.84314063e-01
-5.60420312e-08,1.84548437e-01
-5.60020312e-08,1.84476562e-01
-5.59620312e-08,1.84512500e-01
-5.59220312e-08,1.84492188e-01
-5.58820312e-08,1.84503125e-01
-5.58420312e-08,1.84500000e-01
-5.58020312e-08,1.84496875e-01
-5.57620312e-08,1.84504688e-01
-5.57220312e-08,1.84492188e-01
-5.56820312e-08,1.84512500e-01
-5.56420312e-08,1.84481250e-01
-5.56020312e-08,1.84528125e-01
-5.55620312e-08,1.84446875e-01
-5.55220312e-08,1.84707813e-01
-5.54820312e-08,1.84954687e-01
-5.54420312e-08,1.84870312e-01
-5.54020312e-08,1.84920313e-01
-5.53620312e-08,1.84885938e-01
-5.53220312e-08,1.84910938e-01
-5.52820312e-08,1.84892187e-01
-5.52420312e-08,1.84906250e-01
-5.52020312e-08,1.84895313e-01
-5.51620312e-08,1.84903125e-01
-5.51220312e-08,1.84898438e-01
-5.50820312e-08,1.84900000e-01
-5.50420312e-08,1.84903125e-01
-5.50020312e-08,1.84895313e-01
-5.49620312e-08,1.84907813e-01
-5.49220312e-08,1.84885938e-01
-5.48820312e-08,1.84923438e-01
-5.48420312e-08,1.84851563e-01
-5.48020312e-08,1.85101563e-01
-5.47620312e-08,1.85359375e-01
-5.47220312e-08,1.85264062e-01
-5.46820312e-08,1.85326563e-01
-5.46420312e-08,1.85278125e-01
-5.46020312e-08,1.85318750e-01
-5.45620312e-08,1.85284375e-01
-5.45220312e-08,1.85314063e-01
-5.44820312e-08,1.85285937e-01
-5.44420312e-08,1.85312500e-01
-5.44020312e-08,1.85287500e-01
-5.43620312e-08,1.85310937e-01
-5.43220312e-08,1.85289063e-01
-5.42820312e-08,1.85310937e-01
-5.42420312e-08,1.85289063e-01
-5.42020312e-08,1.85310937e-01
-5.41620312e-08,1.85289063e-01
-5.41220312e-08,1.85310937e-01
-5.40820312e-08,1.85289063e-01
-5.40420312e-08,1.85310937e-01
-5.40020312e-08,1.85287500e-01
-5.39620312e-08,1.85312500e-01
-5.39220312e-08,1.85285937e-01
-5.38820312e-08,1.85315625e-01
-5.38420312e-08,1.85281250e-01
-5.38020312e-08,1.85323438e-01
-5.37620312e-08,1.85267188e-01
-5.37220312e-08,1.85357812e-01
-5.36820312e-08,1.85090625e-01
-5.36420312e-08,1.84846875e-01
-5.36020313e-08,1.84929687e-01
-5.35620312e-08,1.84879688e-01
-5.35220312e-08,1.84915625e-01
-5.34820312e-08,1.84887500e-01
-5.34420312e-08,1.84912500e-01
-5.34020312e-08,1.84889063e-01
-5.33620312e-08,1.84910938e-01
-5.33220312e-08,1.84889063e-01
-5.32820312e-08,1.84912500e-01
-5.32420312e-08,1.84884375e-01
-5.32020312e-08,1.84920313e-01
-5.31620312e-08,1.84871875e-01
-5.31220312e-08,1.84953125e-01
-5.30820312e-08,1.84693750e-01
-5.30420312e-08,1.84442188e-01
-5.30020312e-08,1.84534375e-01
-5.29620312e-08,1.84475000e-01
-5.29220312e-08,1.84521875e-01
-5.28820312e-08,1.84479688e-01
-5.28420312e-08,1.84520313e-01
-5.28020312e-08,1.84478125e-01
-5.27620312e-08,1.84525000e-01
-5.27220312e-08,1.84465625e-01
-5.26820312e-08,1.84557813e-01
-5.26420312e-08,1.84289063e-01
-5.26020312e-08,1.84046875e-01
-5.25620312e-08,1.84129687e-01
-5.25220312e-08,1.84078125e-01
-5.24820312e-08,1.84118750e-01
-5.24420312e-08,1.84082812e-01
-5.24020312e-08,1.84117188e-01
-5.23620312e-08,1.84081250e-01
-5.23220312e-08,1.84121875e-01
-5.22820312e-08,1.84068750e-01
-5.22420312e-08,1.84154687e-01
-5.22020312e-08,1.83892187e-01
-5.21620312e-08,1.83645313e-01
-5.21220312e-08,1.83731250e-01
-5.20820312e-08,1.83676563e-01
-5.20420312e-08,1.83718750e-01
-5.20020312e-08,1.83684375e-01
-5.19620312e-08,1.83714062e-01
-5.19220312e-08,1.83685938e-01
-5.18820312e-08,1.83714062e-01
-5.18420312e-08,1.83685938e-01
-5.18020312e-08,1.83714062e-01
-5.17620312e-08,1.83684375e-01
-5.17220312e-08,1.83717188e-01
-5.16820313e-08,1.83679687e-01
-5.16420312e-08,1.83725000e-01
-5.16020312e-08,1.83665625e-01
-5.15620312e-08,1.83757813e-01
-5.15220312e-08,1.83489062e-01
-5.14820312e-08,1.83248437e-01
-5.14420312e-08,1.83328125e-01
-5.14020313e-08,1.83281250e-01
-5.13620312e-08,1.83312500e-01
-5.13220312e-08,1.83289063e-01
-5.12820312e-08,1.83307813e-01
-5.12420312e-08,1.83293750e-01
-5.12020312e-08,1.83306250e-01
-5.11620312e-08,1.83295313e-01
-5.11220312e-08,1.83304688e-01
-5.10820312e-08,1.83295313e-01
-5.10420312e-08,1.83303125e-01
-5.10020312e-08,1.83296875e-01
-5.09620312e-08,1.83303125e-01
-5.09220312e-08,1.83296875e-01
-5.08820312e-08,1.83303125e-01
-5.08420312e-08,1.83296875e-01
-5.08020312e-08,1.83301563e-01
-5.07620312e-08,1.83298437e-01
-5.07220312e-08,1.83301563e-01
-5.06820312e-08,1.83298437e-01
-5.06420312e-08,1.83301563e-01
-5.06020312e-08,1.83298437e-01
-5.05620312e-08,1.83301563e-01
-5.05220312e-08,1.83298437e-01
-5.04820312e-08,1.83301563e-01
-5.04420312e-08,1.83298437e-01
-5.04020312e-08,1.83301563e-01
-5.03620312e-08,1.83298437e-01
-5.03220312e-08,1.83301563e-01
-5.02820312e-08,1.83298437e-01
-5.02420312e-08,1.83301563e-01
-5.02020312e-08,1.83298437e-01
-5.01620312e-08,1.83301563e-01
-5.01220312e-08,1.83298437e-01
-5.00820312e-08,1.83301563e-01
-5.00420312e-08,1.83298437e-01
-5.00020312e-08,1.83301563e-01
-4.99620312e-08,1.83298437e-01
-4.99220312e-08,1.83301563e-01
-4.98820312e-08,1.83298437e-01
-4.98420312e-08,1.83301563e-01
-4.98020312e-08,1.83298437e-01
-4.97620313e-08,1.83301563e-01
-4.97220312e-08,1.83298437e-01
-4.96820312e-08,1.83301563e-01
-4.96420312e-08,1.83298437e-01
-4.96020312e-08,1.83301563e-01
-4.95620312e-08,1.83298437e-01
-4.95220312e-08,1.83301563e-01
-4.94820313e-08,1.83298437e-01
-4.94420312e-08,1.83301563e-01
-4.94020312e-08,1.83298437e-01
-4.93620312e-08,1.83303125e-01
-4.93220312e-08,1.83296875e-01
-4.92820312e-08,1.83303125e-01
-4.92420312e-08,1.83296875e-01
-4.92020313e-08,1.83303125e-01
-4.91620312e-08,1.83296875e-01
-4.91220312e-08,1.83303125e-01
-4.90820312e-08,1.83296875e-01
-4.90420312e-08,1.83303125e-01
-4.90020312e-08,1.83296875e-01
-4.89620312e-08,1.83303125e-01
-4.89220312e-08,1.83295313e-01
-4.88820312e-08,1.83304688e-01
-4.88420312e-08,1.83295313e-01
-4.88020312e-08,1.83304688e-01
-4.87620312e-08,1.83295313e-01
-4.87220312e-08,1.83306250e-01
-4.86820312e-08,1.83293750e-01
-4.86420312e-08,1.83306250e-01
-4.86020312e-08,1.83292188e-01
-4.85620312e-08,1.83309375e-01
-4.85220312e-08,1.83290625e-01
-4.84820312e-08,1.83310937e-01
-4.84420312e-08,1.83285937e-01
-4.84020312e-08,1.83317188e-01
-4.83620312e-08,1.83278125e-01
-4.83220312e-08,1.83331250e-01
-4.82820312e-08,1.83243750e-01
-4.82420312e-08,1.83509375e-01
-4.82020312e-08,1.83751563e-01
-4.81620312e-08,1.83671875e-01
-4.81220312e-08,1.83718750e-01
-4.80820312e-08,1.83687500e-01
-4.80420312e-08,1.83709375e-01
-4.80020312e-08,1.83692187e-01
-4.79620312e-08,1.83706250e-01
-4.79220312e-08,1.83695313e-01
-4.78820312e-08,1.83703125e-01
-4.78420313e-08,1.83698438e-01
-4.78020312e-08,1.83700000e-01
-4.77620312e-08,1.83701562e-01
-4.77220312e-08,1.83696875e-01
-4.76820312e-08,1.83704688e-01
-4.76420312e-08,1.83693750e-01
-4.76020312e-08,1.83709375e-01
-4.75620313e-08,1.83684375e-01
-4.75220312e-08,1.83725000e-01
-4.74820312e-08,1.83650000e-01
-4.74420312e-08,1.83903125e-01
-4.74020312e-08,1.84157813e-01
-4.73620312e-08,1.84065625e-01
-4.73220312e-08,1.84125000e-01
-4.72820313e-08,1.84079688e-01
-4.72420312e-08,1.84117188e-01
-4.72020312e-08,1.84085938e-01
-4.71620312e-08,1.84112500e-01
-4.71220312e-08,1.84087500e-01
-4.70820312e-08,1.84110938e-01
-4.70420312e-08,1.84089063e-01
-4.70020312e-08,1.84109375e-01
-4.69620312e-08,1.84090625e-01
-4.69220312e-08,1.84109375e-01
-4.68820312e-08,1.84092188e-01
-4.68420312e-08,1.84107812e-01
-4.68020312e-08,1.84092188e-01
-4.67620312e-08,1.84107812e-01
-4.67220312e-08,1.84092188e-01
-4.66820312e-08,1.84106250e-01
-4.66420312e-08,1.84093750e-01
-4.66020312e-08,1.84106250e-01
-4.65620312e-08,1.84093750e-01
-4.65220312e-08,1.84106250e-01
-4.64820312e-08,1.84093750e-01
-4.64420312e-08,1.84106250e-01
-4.64020312e-08,1.84093750e-01
-4.63620312e-08,1.84106250e-01
-4.63220312e-08,1.84095312e-01
-4.62820312e-08,1.84104688e-01
-4.62420312e-08,1.84095312e-01
-4.62020312e-08,1.84104688e-01
-4.61620312e-08,1.84095312e-01
-4.61220312e-08,1.84104688e-01
-4.60820312e-08,1.84095312e-01
-4.60420312e-08,1.84104688e-01
-4.60020312e-08,1.84095312e-01
-4.59620312e-08,1.84104688e-01
-4.59220313e-08,1.84095312e-01
-4.58820312e-08,1.84103125e-01
-4.58420312e-08,1.84096875e-01
-4.58020312e-08,1.84103125e-01
-4.57620312e-08,1.84096875e-01
-4.57220312e-08,1.84103125e-01
-4.56820312e-08,1.84096875e-01
-4.56420313e-08,1.84103125e-01
-4.56020312e-08,1.84098438e-01
-4.55620312e-08,1.84101563e-01
-4.55220312e-08,1.84098438e-01
-4.54820312e-08,1.84100000e-01
-4.54420312e-08,1.84100000e-01
-4.54020312e-08,1.84098438e-01
-4.53620313e-08,1.84103125e-01
-4.53220312e-08,1.84095312e-01
-4.52820312e-08,1.84107812e-01
-4.52420312e-08,1.84087500e-01
-4.52020312e-08,1.84121875e-01
-4.51620312e-08,1.84053125e-01
-4.51220312e-08,1.84300000e-01
-4.50820313e-08,1.84562500e-01
-4.50420312e-08,1.84460938e-01
-4.50020312e-08,1.84529688e-01
-4.49620312e-08,1.84475000e-01
-4.49220312e-08,1.84521875e-01
-4.48820312e-08,1.84479688e-01
-4.48420312e-08,1.84518750e-01
-4.48020312e-08,1.84482813e-01
-4.47620312e-08,1.84517188e-01
-4.47220312e-08,1.84482813e-01
-4.46820312e-08,1.84515625e-01
-4.46420312e-08,1.84484375e-01
-4.46020312e-08,1.84515625e-01
-4.45620312e-08,1.84484375e-01
-4.45220312e-08,1.84515625e-01
-4.44820312e-08,1.84482813e-01
-4.44420312e-08,1.84517188e-01
-4.44020312e-08,1.84482813e-01
-4.43620312e-08,1.84518750e-01
-4.43220312e-08,1.84481250e-01
-4.42820312e-08,1.84520313e-01
-4.42420312e-08,1.84478125e-01
-4.42020312e-08,1.84525000e-01
-4.41620312e-08,1.84471875e-01
-4.41220312e-08,1.84532813e-01
-4.40820312e-08,1.84457813e-01
-4.40420312e-08,1.84568750e-01
-4.40020313e-08,1.84278125e-01
-4.39620312e-08,1.84059375e-01
-4.39220312e-08,1.84115625e-01
-4.38820312e-08,1.84093750e-01
-4.38420312e-08,1.84100000e-01
-4.38020312e-08,1.84104688e-01
-4.37620312e-08,1.84092188e-01
-4.37220313e-08,1.84112500e-01
-4.36820312e-08,1.84082812e-01
-4.36420312e-08,1.84123438e-01
-4.36020312e-08,1.84067188e-01
-4.35620312e-08,1.84159375e-01
-4.35220312e-08,1.83885938e-01
-4.34820312e-08,1.83651563e-01
-4.34420313e-08,1.83723438e-01
-4.34020312e-08,1.83687500e-01
-4.33620312e-08,1.83706250e-01
-4.33220312e-08,1.83700000e-01
-4.32820312e-08,1.83695313e-01
-4.32420312e-08,1.83710938e-01
-4.32020312e-08,1.83678125e-01
-4.31620313e-08,1.83748438e-01
-4.31220312e-08,1.83498438e-01
-4.30820312e-08,1.83239062e-01
-4.30420312e-08,1.83335938e-01
-4.30020312e-08,1.83273437e-01
-4.29620312e-08,1.83321875e-01
-4.29220312e-08,1.83281250e-01
-4.28820313e-08,1.83317188e-01
-4.28420312e-08,1.83282813e-01
-4.28020312e-08,1.83318750e-01
-4.27620312e-08,1.83279688e-01
-4.27220312e-08,1.83323438e-01
-4.26820312e-08,1.83267188e-01
-4.26420312e-08,1.83356250e-01
-4.26020312e-08,1.83092188e-01
-4.25620312e-08,1.82845312e-01
-4.25220312e-08,1.82931250e-01
-4.24820312e-08,1.82876563e-01
-4.24420312e-08,1.82918750e-01
-4.24020312e-08,1.82882813e-01
-4.23620312e-08,1.82917187e-01
-4.23220312e-08,1.82882813e-01
-4.22820312e-08,1.82917187e-01
-4.22420312e-08,1.82881250e-01
-4.22020312e-08,1.82921875e-01
-4.21620312e-08,1.82873438e-01
-4.21220312e-08,1.82935938e-01
-4.20820313e-08,1.82839063e-01
-4.20420312e-08,1.83114063e-01
-4.20020312e-08,1.83348438e-01
-4.19620312e-08,1.83275000e-01
-4.19220312e-08,1.83315625e-01
-4.18820312e-08,1.83289063e-01
-4.18420312e-08,1.83307813e-01
-4.18020313e-08,1.83295313e-01
-4.17620312e-08,1.83303125e-01
-4.17220312e-08,1.83298437e-01
-4.16820312e-08,1.83301563e-01
-4.16420312e-08,1.83300000e-01
-4.16020312e-08,1.83300000e-01
-4.15620312e-08,1.83301563e-01
-4.15220313e-08,1.83296875e-01
-4.14820312e-08,1.83303125e-01
-4.14420312e-08,1.83295313e-01
-4.14020312e-08,1.83306250e-01
-4.13620312e-08,1.83293750e-01
-4.13220312e-08,1.83309375e-01
-4.12820312e-08,1.83289063e-01
-4.12420313e-08,1.83314063e-01
-4.12020312e-08,1.83281250e-01
-4.11620312e-08,1.83329688e-01
-4.11220312e-08,1.83245313e-01
-4.10820312e-08,1.83507813e-01
-4.10420312e-08,1.83754688e-01
-4.10020312e-08,1.83668750e-01
-4.09620313e-08,1.83721875e-01
-4.09220312e-08,1.83684375e-01
-4.08820312e-08,1.83712500e-01
-4.08420312e-08,1.83689062e-01
-4.08020312e-08,1.83709375e-01
-4.07620312e-08,1.83692187e-01
-4.07220312e-08,1.83707813e-01
-4.06820313e-08,1.83693750e-01
-4.06420312e-08,1.83706250e-01
-4.06020312e-08,1.83695313e-01
-4.05620312e-08,1.83704688e-01
-4.05220312e-08,1.83695313e-01
-4.04820312e-08,1.83703125e-01
-4.04420312e-08,1.83696875e-01
-4.04020312e-08,1.83703125e-01
-4.03620312e-08,1.83696875e-01
-4.03220312e-08,1.83703125e-01
-4.02820312e-08,1.83696875e-01
-4.02420312e-08,1.83701562e-01
-4.02020312e-08,1.83698438e-01
-4.01620313e-08,1.83701562e-01
-4.01220312e-08,1.83698438e-01
-4.00820312e-08,1.83701562e-01
-4.00420312e-08,1.83698438e-01
-4.00020312e-08,1.83701562e-01
-3.99620312e-08,1.83698438e-01
-3.99220312e-08,1.83700000e-01
-3.98820313e-08,1.83700000e-01
-3.98420312e-08,1.83700000e-01
-3.98020312e-08,1.83700000e-01
-3.97620312e-08,1.83700000e-01
-3.97220312e-08,1.83700000e-01
-3.96820312e-08,1.83700000e-01
-3.96420312e-08,1.83700000e-01
-3.96020313e-08,1.83700000e-01
-3.95620312e-08,1.83700000e-01
-3.95220312e-08,1.83698438e-01
-3.94820312e-08,1.83701562e-01
-3.94420312e-08,1.83698438e-01
-3.94020312e-08,1.83701562e-01
-3.93620312e-08,1.83698438e-01
-3.93220313e-08,1.83701562e-01
-3.92820312e-08,1.83698438e-01
-3.92420312e-08,1.83701562e-01
-3.92020312e-08,1.83696875e-01
-3.91620312e-08,1.83703125e-01
-3.91220312e-08,1.83696875e-01
-3.90820312e-08,1.83703125e-01
-3.90420313e-08,1.83695313e-01
-3.90020312e-08,1.83704688e-01
-3.89620312e-08,1.83695313e-01
-3.89220312e-08,1.83706250e-01
-3.88820312e-08,1.83693750e-01
-3.88420312e-08,1.83707813e-01
-3.88020312e-08,1.83692187e-01
-3.87620313e-08,1.83709375e-01
-3.87220312e-08,1.83687500e-01
-3.86820312e-08,1.83715625e-01
-3.86420312e-08,1.83679687e-01
-3.86020312e-08,1.83729688e-01
-3.85620312e-08,1.83645313e-01
-3.85220312e-08,1.83907813e-01
