trails/0bdfa5e45fec98341abdd20552c140b4/aes_ch1_20250507120641383.csv

Model,MSO66B
Label,
Waveform Type,ANALOG
Horizontal Units,s
Sample Interval,4.00000000e-11
Record Length,10000
Zero Index,1599.06250000
Vertical Units,A
ANALOG_Thumbnail,
yOffset,1.84500000e-01
yPosition,8.40000000e-01

Labels,
TIME,CH1
-6.39625000e-08,1.89690625e-01
-6.39225000e-08,1.89704687e-01
-6.38825000e-08,1.89696875e-01
-6.38425000e-08,1.89700000e-01
-6.38025000e-08,1.89701563e-01
-6.37625000e-08,1.89695313e-01
-6.37225000e-08,1.89706250e-01
-6.36825000e-08,1.89690625e-01
-6.36425000e-08,1.89712500e-01
-6.36025000e-08,1.89684375e-01
-6.35625000e-08,1.89721875e-01
-6.35225000e-08,1.89667188e-01
-6.34825000e-08,1.89759375e-01
-6.34425000e-08,1.89487500e-01
-6.34025000e-08,1.89251562e-01
-6.33625000e-08,1.89323437e-01
-6.33225000e-08,1.89287500e-01
-6.32825000e-08,1.89306250e-01
-6.32425000e-08,1.89298437e-01
-6.32025000e-08,1.89296875e-01
-6.31625000e-08,1.89306250e-01
-6.31225000e-08,1.89287500e-01
-6.30825000e-08,1.89318750e-01
-6.30425000e-08,1.89270313e-01
-6.30025000e-08,1.89356250e-01
-6.29625000e-08,1.89089063e-01
-6.29225000e-08,1.88851563e-01
-6.28825000e-08,1.88923438e-01
-6.28425000e-08,1.88889063e-01
-6.28025000e-08,1.88901563e-01
-6.27625000e-08,1.88907812e-01
-6.27225000e-08,1.88879688e-01
-6.26825000e-08,1.88946875e-01
-6.26425000e-08,1.88696875e-01
-6.26025000e-08,1.88443750e-01
-6.25625000e-08,1.88529688e-01
-6.25225000e-08,1.88482813e-01
-6.24825000e-08,1.88509375e-01
-6.24425000e-08,1.88500000e-01
-6.24025000e-08,1.88487500e-01
-6.23625000e-08,1.88540625e-01
-6.23225000e-08,1.88304688e-01
-6.22825000e-08,1.88035937e-01
-6.22425000e-08,1.88139063e-01
-6.22025000e-08,1.88073437e-01
-6.21625000e-08,1.88117188e-01
-6.21225000e-08,1.88090625e-01
-6.20825000e-08,1.88096875e-01
-6.20425000e-08,1.88129688e-01
-6.20025000e-08,1.87917187e-01
-6.19625000e-08,1.87621875e-01
-6.19225000e-08,1.87754688e-01
-6.18825000e-08,1.87656250e-01
-6.18425000e-08,1.87740625e-01
-6.18025000e-08,1.87662500e-01
-6.17625000e-08,1.87737500e-01
-6.17225000e-08,1.87662500e-01
-6.16825000e-08,1.87742188e-01
-6.16425000e-08,1.87650000e-01
-6.16025000e-08,1.87773438e-01
-6.15625000e-08,1.87473438e-01
-6.15225000e-08,1.87262500e-01
-6.14825000e-08,1.87314063e-01
-6.14425000e-08,1.87295313e-01
-6.14025000e-08,1.87301563e-01
-6.13625000e-08,1.87301563e-01
-6.13225000e-08,1.87296875e-01
-6.12825000e-08,1.87304688e-01
-6.12425000e-08,1.87295313e-01
-6.12025000e-08,1.87306250e-01
-6.11625000e-08,1.87293750e-01
-6.11225000e-08,1.87306250e-01
-6.10825000e-08,1.87293750e-01
-6.10425000e-08,1.87307813e-01
-6.10025000e-08,1.87292188e-01
-6.09625000e-08,1.87307813e-01
-6.09225000e-08,1.87292188e-01
-6.08825000e-08,1.87307813e-01
-6.08425000e-08,1.87290625e-01
-6.08025000e-08,1.87309375e-01
-6.07625000e-08,1.87290625e-01
-6.07225000e-08,1.87310937e-01
-6.06825000e-08,1.87289063e-01
-6.06425000e-08,1.87312500e-01
-6.06025000e-08,1.87285937e-01
-6.05625000e-08,1.87317188e-01
-6.05225000e-08,1.87278125e-01
-6.04825000e-08,1.87331250e-01
-6.04425000e-08,1.87243750e-01
-6.04025000e-08,1.87507813e-01
-6.03625000e-08,1.87754688e-01
-6.03225000e-08,1.87668750e-01
-6.02825000e-08,1.87721875e-01
-6.02425000e-08,1.87681250e-01
-6.02025000e-08,1.87715625e-01
-6.01625000e-08,1.87684375e-01
-6.01225000e-08,1.87715625e-01
-6.00825000e-08,1.87684375e-01
-6.00425000e-08,1.87718750e-01
-6.00025000e-08,1.87676563e-01
-5.99625000e-08,1.87732813e-01
-5.99225000e-08,1.87643750e-01
-5.98825000e-08,1.87909375e-01
-5.98425000e-08,1.88153125e-01
-5.98025000e-08,1.88070313e-01
-5.97625000e-08,1.88120312e-01
-5.97225000e-08,1.88084375e-01
-5.96825000e-08,1.88112500e-01
-5.96425000e-08,1.88089063e-01
-5.96025000e-08,1.88109375e-01
-5.95625000e-08,1.88092188e-01
-5.95225000e-08,1.88106250e-01
-5.94825000e-08,1.88093750e-01
-5.94425000e-08,1.88106250e-01
-5.94025000e-08,1.88095313e-01
-5.93625000e-08,1.88104688e-01
-5.93225000e-08,1.88095313e-01
-5.92825000e-08,1.88103125e-01
-5.92425000e-08,1.88096875e-01
-5.92025000e-08,1.88103125e-01
-5.91625000e-08,1.88098437e-01
-5.91225000e-08,1.88101563e-01
-5.90825000e-08,1.88098437e-01
-5.90425000e-08,1.88100000e-01
-5.90025000e-08,1.88100000e-01
-5.89625000e-08,1.88098437e-01
-5.89225000e-08,1.88101563e-01
-5.88825000e-08,1.88096875e-01
-5.88425000e-08,1.88104688e-01
-5.88025000e-08,1.88092188e-01
-5.87625000e-08,1.88114063e-01
-5.87225000e-08,1.88076563e-01
-5.86825000e-08,1.88146875e-01
-5.86425000e-08,1.87900000e-01
-5.86025000e-08,1.87637500e-01
-5.85625000e-08,1.87739062e-01
-5.85225000e-08,1.87670313e-01
-5.84825000e-08,1.87726562e-01
-5.84425000e-08,1.87675000e-01
-5.84025000e-08,1.87725000e-01
-5.83625000e-08,1.87675000e-01
-5.83225000e-08,1.87729688e-01
-5.82825000e-08,1.87662500e-01
-5.82425000e-08,1.87760938e-01
-5.82025000e-08,1.87485938e-01
-5.81625000e-08,1.87250000e-01
-5.81225000e-08,1.87326563e-01
-5.80825000e-08,1.87281250e-01
-5.80425000e-08,1.87314063e-01
-5.80025000e-08,1.87287500e-01
-5.79625000e-08,1.87312500e-01
-5.79225000e-08,1.87287500e-01
-5.78825000e-08,1.87314063e-01
-5.78425000e-08,1.87284375e-01
-5.78025000e-08,1.87320313e-01
-5.77625000e-08,1.87270313e-01
-5.77225000e-08,1.87354688e-01
-5.76825000e-08,1.87092188e-01
-5.76425000e-08,1.86845312e-01
-5.76025000e-08,1.86931250e-01
-5.75625000e-08,1.86878125e-01
-5.75225000e-08,1.86915625e-01
-5.74825000e-08,1.86887500e-01
-5.74425000e-08,1.86910938e-01
-5.74025000e-08,1.86892188e-01
-5.73625000e-08,1.86906250e-01
-5.73225000e-08,1.86895313e-01
-5.72825000e-08,1.86901563e-01
-5.72425000e-08,1.86901563e-01
-5.72025000e-08,1.86892188e-01
-5.71625000e-08,1.86917187e-01
-5.71225000e-08,1.86857812e-01
-5.70825000e-08,1.87095312e-01
-5.70425000e-08,1.87367188e-01
-5.70025000e-08,1.87256250e-01
-5.69625000e-08,1.87334375e-01
-5.69225000e-08,1.87270313e-01
-5.68825000e-08,1.87328125e-01
-5.68425000e-08,1.87273438e-01
-5.68025000e-08,1.87325000e-01
-5.67625000e-08,1.87273438e-01
-5.67225000e-08,1.87326563e-01
-5.66825000e-08,1.87271875e-01
-5.66425000e-08,1.87331250e-01
-5.66025000e-08,1.87265625e-01
-5.65625000e-08,1.87345312e-01
-5.65225000e-08,1.87231250e-01
-5.64825000e-08,1.87521875e-01
-5.64425000e-08,1.87740625e-01
-5.64025000e-08,1.87684375e-01
-5.63625000e-08,1.87706250e-01
-5.63225000e-08,1.87698438e-01
-5.62825000e-08,1.87698438e-01
-5.62425000e-08,1.87704687e-01
-5.62025000e-08,1.87693750e-01
-5.61625000e-08,1.87707813e-01
-5.61225000e-08,1.87690625e-01
-5.60825000e-08,1.87712500e-01
-5.60425000e-08,1.87685938e-01
-5.60025000e-08,1.87718750e-01
-5.59625000e-08,1.87676563e-01
-5.59225000e-08,1.87732813e-01
-5.58825000e-08,1.87642188e-01
-5.58425000e-08,1.87912500e-01
-5.58025000e-08,1.88150000e-01
-5.57625000e-08,1.88073437e-01
-5.57225000e-08,1.88117188e-01
-5.56825000e-08,1.88089063e-01
-5.56425000e-08,1.88107812e-01
-5.56025000e-08,1.88093750e-01
-5.55625000e-08,1.88104688e-01
-5.55225000e-08,1.88096875e-01
-5.54825000e-08,1.88101563e-01
-5.54425000e-08,1.88098437e-01
-5.54025000e-08,1.88100000e-01
-5.53625000e-08,1.88100000e-01
-5.53225000e-08,1.88100000e-01
-5.52825000e-08,1.88101563e-01
-5.52425000e-08,1.88098437e-01
-5.52025000e-08,1.88101563e-01
-5.51625000e-08,1.88098437e-01
-5.51225000e-08,1.88103125e-01
-5.50825000e-08,1.88096875e-01
-5.50425000e-08,1.88103125e-01
-5.50025000e-08,1.88096875e-01
-5.49625000e-08,1.88104688e-01
-5.49225000e-08,1.88095313e-01
-5.48825000e-08,1.88104688e-01
-5.48425000e-08,1.88095313e-01
-5.48025000e-08,1.88106250e-01
-5.47625000e-08,1.88093750e-01
-5.47225000e-08,1.88106250e-01
-5.46825000e-08,1.88092188e-01
-5.46425000e-08,1.88107812e-01
-5.46025000e-08,1.88092188e-01
-5.45625000e-08,1.88109375e-01
-5.45225000e-08,1.88089063e-01
-5.44825000e-08,1.88110938e-01
-5.44425000e-08,1.88087500e-01
-5.44025000e-08,1.88114063e-01
-5.43625000e-08,1.88082813e-01
-5.43225000e-08,1.88120312e-01
-5.42825000e-08,1.88073437e-01
-5.42425000e-08,1.88137500e-01
-5.42025000e-08,1.88037500e-01
-5.41625000e-08,1.88317188e-01
-5.41225000e-08,1.88543750e-01
-5.40825000e-08,1.88482813e-01
-5.40425000e-08,1.88504688e-01
-5.40025000e-08,1.88504688e-01
-5.39625000e-08,1.88482813e-01
-5.39225000e-08,1.88543750e-01
-5.38825000e-08,1.88301563e-01
-5.38425000e-08,1.88037500e-01
-5.38025000e-08,1.88137500e-01
-5.37625000e-08,1.88071875e-01
-5.37225000e-08,1.88121875e-01
-5.36825000e-08,1.88081250e-01
-5.36425000e-08,1.88115625e-01
-5.36025000e-08,1.88085937e-01
-5.35625000e-08,1.88112500e-01
-5.35225000e-08,1.88089063e-01
-5.34825000e-08,1.88110938e-01
-5.34425000e-08,1.88090625e-01
-5.34025000e-08,1.88109375e-01
-5.33625000e-08,1.88090625e-01
-5.33225000e-08,1.88107812e-01
-5.32825000e-08,1.88092188e-01
-5.32425000e-08,1.88107812e-01
-5.32025000e-08,1.88092188e-01
-5.31625000e-08,1.88106250e-01
-5.31225000e-08,1.88093750e-01
-5.30825000e-08,1.88106250e-01
-5.30425000e-08,1.88093750e-01
-5.30025000e-08,1.88106250e-01
-5.29625000e-08,1.88093750e-01
-5.29225000e-08,1.88106250e-01
-5.28825000e-08,1.88093750e-01
-5.28425000e-08,1.88106250e-01
-5.28025000e-08,1.88095313e-01
-5.27625000e-08,1.88104688e-01
-5.27225000e-08,1.88095313e-01
-5.26825000e-08,1.88104688e-01
-5.26425000e-08,1.88095313e-01
-5.26025000e-08,1.88104688e-01
-5.25625000e-08,1.88095313e-01
-5.25225000e-08,1.88104688e-01
-5.24825000e-08,1.88095313e-01
-5.24425000e-08,1.88104688e-01
-5.24025000e-08,1.88095313e-01
-5.23625000e-08,1.88104688e-01
-5.23225000e-08,1.88095313e-01
-5.22825000e-08,1.88104688e-01
-5.22425000e-08,1.88095313e-01
-5.22025000e-08,1.88104688e-01
-5.21625000e-08,1.88095313e-01
-5.21225000e-08,1.88106250e-01
-5.20825000e-08,1.88093750e-01
-5.20425000e-08,1.88106250e-01
-5.20025000e-08,1.88093750e-01
-5.19625000e-08,1.88106250e-01
-5.19225000e-08,1.88093750e-01
-5.18825000e-08,1.88106250e-01
-5.18425000e-08,1.88093750e-01
-5.18025000e-08,1.88107812e-01
-5.17625000e-08,1.88092188e-01
-5.17225000e-08,1.88107812e-01
-5.16825000e-08,1.88092188e-01
-5.16425000e-08,1.88109375e-01
-5.16025000e-08,1.88090625e-01
-5.15625000e-08,1.88110938e-01
-5.15225000e-08,1.88087500e-01
-5.14825000e-08,1.88114063e-01
-5.14425000e-08,1.88084375e-01
-5.14025000e-08,1.88118750e-01
-5.13625000e-08,1.88076563e-01
-5.13225000e-08,1.88134375e-01
-5.12825000e-08,1.88040625e-01
-5.12425000e-08,1.88312500e-01
-5.12025000e-08,1.88550000e-01
-5.11625000e-08,1.88475000e-01
-5.11225000e-08,1.88515625e-01
-5.10825000e-08,1.88489062e-01
-5.10425000e-08,1.88507813e-01
-5.10025000e-08,1.88495313e-01
-5.09625000e-08,1.88503125e-01
-5.09225000e-08,1.88500000e-01
-5.08825000e-08,1.88498438e-01
-5.08425000e-08,1.88503125e-01
-5.08025000e-08,1.88493750e-01
-5.07625000e-08,1.88509375e-01
-5.07225000e-08,1.88484375e-01
-5.06825000e-08,1.88525000e-01
-5.06425000e-08,1.88450000e-01
-5.06025000e-08,1.88703125e-01
-5.05625000e-08,1.88959375e-01
-5.05225000e-08,1.88865625e-01
-5.04825000e-08,1.88925000e-01
-5.04425000e-08,1.88879688e-01
-5.04025000e-08,1.88917188e-01
-5.03625000e-08,1.88884375e-01
-5.03225000e-08,1.88914063e-01
-5.02825000e-08,1.88887500e-01
-5.02425000e-08,1.88912500e-01
-5.02025000e-08,1.88889063e-01
-5.01625000e-08,1.88910938e-01
-5.01225000e-08,1.88889063e-01
-5.00825000e-08,1.88910938e-01
-5.00425000e-08,1.88889063e-01
-5.00025000e-08,1.88910938e-01
-4.99625000e-08,1.88889063e-01
-4.99225000e-08,1.88912500e-01
-4.98825000e-08,1.88885938e-01
-4.98425000e-08,1.88915625e-01
-4.98025000e-08,1.88882812e-01
-4.97625000e-08,1.88921875e-01
-4.97225000e-08,1.88868750e-01
-4.96825000e-08,1.88956250e-01
-4.96425000e-08,1.88690625e-01
-4.96025000e-08,1.88445313e-01
-4.95625000e-08,1.88531250e-01
-4.95225000e-08,1.88478125e-01
-4.94825000e-08,1.88518750e-01
-4.94425000e-08,1.88482813e-01
-4.94025000e-08,1.88517188e-01
-4.93625000e-08,1.88481250e-01
-4.93225000e-08,1.88521875e-01
-4.92825000e-08,1.88468750e-01
-4.92425000e-08,1.88554688e-01
-4.92025000e-08,1.88293750e-01
-4.91625000e-08,1.88043750e-01
-4.91225000e-08,1.88134375e-01
-4.90825000e-08,1.88073437e-01
-4.90425000e-08,1.88123438e-01
-4.90025000e-08,1.88076563e-01
-4.89625000e-08,1.88126563e-01
-4.89225000e-08,1.88065625e-01
-4.88825000e-08,1.88157813e-01
-4.88425000e-08,1.87890625e-01
-4.88025000e-08,1.87645312e-01
-4.87625000e-08,1.87732813e-01
-4.87225000e-08,1.87675000e-01
-4.86825000e-08,1.87721875e-01
-4.86425000e-08,1.87676563e-01
-4.86025000e-08,1.87726562e-01
-4.85625000e-08,1.87665625e-01
-4.85225000e-08,1.87757813e-01
-4.84825000e-08,1.87489062e-01
-4.84425000e-08,1.87248438e-01
-4.84025000e-08,1.87329688e-01
-4.83625000e-08,1.87279688e-01
-4.83225000e-08,1.87315625e-01
-4.82825000e-08,1.87287500e-01
-4.82425000e-08,1.87310937e-01
-4.82025000e-08,1.87290625e-01
-4.81625000e-08,1.87309375e-01
-4.81225000e-08,1.87292188e-01
-4.80825000e-08,1.87307813e-01
-4.80425000e-08,1.87292188e-01
-4.80025000e-08,1.87306250e-01
-4.79625000e-08,1.87293750e-01
-4.79225000e-08,1.87306250e-01
-4.78825000e-08,1.87293750e-01
-4.78425000e-08,1.87306250e-01
-4.78025000e-08,1.87293750e-01
-4.77625000e-08,1.87306250e-01
-4.77225000e-08,1.87293750e-01
-4.76825000e-08,1.87306250e-01
-4.76425000e-08,1.87293750e-01
-4.76025000e-08,1.87306250e-01
-4.75625000e-08,1.87292188e-01
-4.75225000e-08,1.87307813e-01
-4.74825000e-08,1.87292188e-01
-4.74425000e-08,1.87309375e-01
-4.74025000e-08,1.87290625e-01
-4.73625000e-08,1.87310937e-01
-4.73225000e-08,1.87287500e-01
-4.72825000e-08,1.87315625e-01
-4.72425000e-08,1.87279688e-01
-4.72025000e-08,1.87329688e-01
-4.71625000e-08,1.87245313e-01
-4.71225000e-08,1.87506250e-01
-4.70825000e-08,1.87756250e-01
-4.70425000e-08,1.87667187e-01
-4.70025000e-08,1.87725000e-01
-4.69625000e-08,1.87679687e-01
-4.69225000e-08,1.87720313e-01
-4.68825000e-08,1.87679687e-01
-4.68425000e-08,1.87721875e-01
-4.68025000e-08,1.87675000e-01
-4.67625000e-08,1.87734375e-01
-4.67225000e-08,1.87640625e-01
-4.66825000e-08,1.87912500e-01
-4.66425000e-08,1.88150000e-01
-4.66025000e-08,1.88075000e-01
-4.65625000e-08,1.88114063e-01
-4.65225000e-08,1.88092188e-01
-4.64825000e-08,1.88100000e-01
-4.64425000e-08,1.88109375e-01
-4.64025000e-08,1.88065625e-01
-4.63625000e-08,1.88287500e-01
-4.63225000e-08,1.88576563e-01
-4.62825000e-08,1.88445313e-01
-4.62425000e-08,1.88548437e-01
-4.62025000e-08,1.88451563e-01
-4.61625000e-08,1.88554688e-01
-4.61225000e-08,1.88420313e-01
-4.60825000e-08,1.88731250e-01
-4.60425000e-08,1.88931250e-01
-4.60025000e-08,1.88893750e-01
-4.59625000e-08,1.88895312e-01
-4.59225000e-08,1.88912500e-01
-4.58825000e-08,1.88879688e-01
-4.58425000e-08,1.88932813e-01
-4.58025000e-08,1.88840625e-01
-4.57625000e-08,1.89114063e-01
-4.57225000e-08,1.89346875e-01
-4.56825000e-08,1.89278125e-01
-4.56425000e-08,1.89309375e-01
-4.56025000e-08,1.89298437e-01
-4.55625000e-08,1.89293750e-01
-4.55225000e-08,1.89318750e-01
-4.54825000e-08,1.89254688e-01
-4.54425000e-08,1.89500000e-01
-4.54025000e-08,1.89762500e-01
-4.53625000e-08,1.89662500e-01
-4.53225000e-08,1.89728125e-01
-4.52825000e-08,1.89678125e-01
-4.52425000e-08,1.89718750e-01
-4.52025000e-08,1.89684375e-01
-4.51625000e-08,1.89714063e-01
-4.51225000e-08,1.89685938e-01
-4.50825000e-08,1.89712500e-01
-4.50425000e-08,1.89689063e-01
-4.50025000e-08,1.89710938e-01
-4.49625000e-08,1.89689063e-01
-4.49225000e-08,1.89709375e-01
-4.48825000e-08,1.89690625e-01
-4.48425000e-08,1.89709375e-01
-4.48025000e-08,1.89690625e-01
-4.47625000e-08,1.89709375e-01
-4.47225000e-08,1.89690625e-01
-4.46825000e-08,1.89709375e-01
-4.46425000e-08,1.89690625e-01
-4.46025000e-08,1.89709375e-01
-4.45625000e-08,1.89690625e-01
-4.45225000e-08,1.89709375e-01
-4.44825000e-08,1.89689063e-01
-4.44425000e-08,1.89710938e-01
-4.44025000e-08,1.89689063e-01
-4.43625000e-08,1.89712500e-01
-4.43225000e-08,1.89685938e-01
-4.42825000e-08,1.89715625e-01
-4.42425000e-08,1.89681250e-01
-4.42025000e-08,1.89725000e-01
-4.41625000e-08,1.89665625e-01
-4.41225000e-08,1.89759375e-01
-4.40825000e-08,1.89487500e-01
-4.40425000e-08,1.89251562e-01
-4.40025000e-08,1.89325000e-01
-4.39625000e-08,1.89285938e-01
-4.39225000e-08,1.89307813e-01
-4.38825000e-08,1.89296875e-01
-4.38425000e-08,1.89298437e-01
-4.38025000e-08,1.89306250e-01
-4.37625000e-08,1.89282813e-01
-4.37225000e-08,1.89342188e-01
-4.36825000e-08,1.89104688e-01
-4.36425000e-08,1.88832813e-01
-4.36025000e-08,1.88945313e-01
-4.35625000e-08,1.88864063e-01
-4.35225000e-08,1.88932813e-01
-4.34825000e-08,1.88867188e-01
-4.34425000e-08,1.88935938e-01
-4.34025000e-08,1.88854688e-01
-4.33625000e-08,1.88968750e-01
-4.33225000e-08,1.88678125e-01
-4.32825000e-08,1.88459375e-01
-4.32425000e-08,1.88517188e-01
-4.32025000e-08,1.88492188e-01
-4.31625000e-08,1.88501562e-01
-4.31225000e-08,1.88503125e-01
-4.30825000e-08,1.88492188e-01
-4.30425000e-08,1.88512500e-01
-4.30025000e-08,1.88476562e-01
-4.29625000e-08,1.88548437e-01
-4.29225000e-08,1.88298437e-01
-4.28825000e-08,1.88039063e-01
-4.28425000e-08,1.88137500e-01
-4.28025000e-08,1.88071875e-01
-4.27625000e-08,1.88125000e-01
-4.27225000e-08,1.88076563e-01
-4.26825000e-08,1.88123438e-01
-4.26425000e-08,1.88075000e-01
-4.26025000e-08,1.88128125e-01
-4.25625000e-08,1.88062500e-01
-4.25225000e-08,1.88160938e-01
-4.24825000e-08,1.87885938e-01
-4.24425000e-08,1.87651563e-01
-4.24025000e-08,1.87725000e-01
-4.23625000e-08,1.87682813e-01
-4.23225000e-08,1.87712500e-01
-4.22825000e-08,1.87690625e-01
-4.22425000e-08,1.87707813e-01
-4.22025000e-08,1.87693750e-01
-4.21625000e-08,1.87704687e-01
-4.21225000e-08,1.87695313e-01
-4.20825000e-08,1.87703125e-01
-4.20425000e-08,1.87696875e-01
-4.20025000e-08,1.87703125e-01
-4.19625000e-08,1.87696875e-01
-4.19225000e-08,1.87703125e-01
-4.18825000e-08,1.87698438e-01
-4.18425000e-08,1.87701563e-01
-4.18025000e-08,1.87698438e-01
-4.17625000e-08,1.87701563e-01
-4.17225000e-08,1.87698438e-01
-4.16825000e-08,1.87701563e-01
-4.16425000e-08,1.87700000e-01
-4.16025000e-08,1.87700000e-01
-4.15625000e-08,1.87700000e-01
-4.15225000e-08,1.87700000e-01
-4.14825000e-08,1.87701563e-01
-4.14425000e-08,1.87698438e-01
-4.14025000e-08,1.87701563e-01
-4.13625000e-08,1.87696875e-01
-4.13225000e-08,1.87704687e-01
-4.12825000e-08,1.87693750e-01
-4.12425000e-08,1.87709375e-01
-4.12025000e-08,1.87685938e-01
-4.11625000e-08,1.87723438e-01
-4.11225000e-08,1.87651563e-01
-4.10825000e-08,1.87901563e-01
-4.10425000e-08,1.88160938e-01
-4.10025000e-08,1.88062500e-01
-4.09625000e-08,1.88128125e-01
-4.09225000e-08,1.88075000e-01
-4.08825000e-08,1.88121875e-01
-4.08425000e-08,1.88079688e-01
-4.08025000e-08,1.88120312e-01
-4.07625000e-08,1.88079688e-01
-4.07225000e-08,1.88120312e-01
-4.06825000e-08,1.88079688e-01
-4.06425000e-08,1.88121875e-01
-4.06025000e-08,1.88075000e-01
-4.05625000e-08,1.88129688e-01
-4.05225000e-08,1.88060937e-01
-4.04825000e-08,1.88164063e-01
-4.04425000e-08,1.87882812e-01
-4.04025000e-08,1.87654688e-01
-4.03625000e-08,1.87721875e-01
-4.03225000e-08,1.87687500e-01
-4.02825000e-08,1.87706250e-01
-4.02425000e-08,1.87696875e-01
-4.02025000e-08,1.87701563e-01
-4.01625000e-08,1.87700000e-01
-4.01225000e-08,1.87698438e-01
-4.00825000e-08,1.87703125e-01
-4.00425000e-08,1.87696875e-01
-4.00025000e-08,1.87704687e-01
-3.99625000e-08,1.87693750e-01
-3.99225000e-08,1.87706250e-01
-3.98825000e-08,1.87692187e-01
-3.98425000e-08,1.87709375e-01
-3.98025000e-08,1.87689063e-01
-3.97625000e-08,1.87714063e-01
-3.97225000e-08,1.87682813e-01
-3.96825000e-08,1.87721875e-01
-3.96425000e-08,1.87667187e-01
-3.96025000e-08,1.87757813e-01
-3.95625000e-08,1.87489062e-01
-3.95225000e-08,1.87248438e-01
-3.94825000e-08,1.87326563e-01
-3.94425000e-08,1.87282813e-01
-3.94025000e-08,1.87312500e-01
-3.93625000e-08,1.87290625e-01
-3.93225000e-08,1.87306250e-01
-3.92825000e-08,1.87295313e-01
-3.92425000e-08,1.87303125e-01
-3.92025000e-08,1.87298437e-01
-3.91625000e-08,1.87301563e-01
-3.91225000e-08,1.87300000e-01
-3.90825000e-08,1.87298437e-01
-3.90425000e-08,1.87301563e-01
-3.90025000e-08,1.87296875e-01
-3.89625000e-08,1.87304688e-01
-3.89225000e-08,1.87293750e-01
-3.88825000e-08,1.87307813e-01
-3.88425000e-08,1.87290625e-01
-3.88025000e-08,1.87314063e-01
-3.87625000e-08,1.87281250e-01
-3.87225000e-08,1.87328125e-01
-3.86825000e-08,1.87246875e-01
-3.86425000e-08,1.87507813e-01
-3.86025000e-08,1.87754688e-01
-3.85625000e-08,1.87668750e-01
-3.85225000e-08,1.87721875e-01
