trails/0bdfa5e45fec98341abdd20552c140b4/aes_ch1_20250507121918245.csv

Model,MSO66B
Label,
Waveform Type,ANALOG
Horizontal Units,s
Sample Interval,4.00000000e-11
Record Length,10000
Zero Index,1599.02343750
Vertical Units,A
ANALOG_Thumbnail,
yOffset,1.84500000e-01
yPosition,8.40000000e-01

Labels,
TIME,CH1
-6.39609375e-08,1.92489063e-01
-6.39209375e-08,1.92512500e-01
-6.38809375e-08,1.92484375e-01
-6.38409375e-08,1.92520313e-01
-6.38009375e-08,1.92470313e-01
-6.37609375e-08,1.92553125e-01
-6.37209375e-08,1.92293750e-01
-6.36809375e-08,1.92043750e-01
-6.36409375e-08,1.92132812e-01
-6.36009375e-08,1.92075000e-01
-6.35609375e-08,1.92120313e-01
-6.35209375e-08,1.92081250e-01
-6.34809375e-08,1.92118750e-01
-6.34409375e-08,1.92079688e-01
-6.34009375e-08,1.92125000e-01
-6.33609375e-08,1.92067188e-01
-6.33209375e-08,1.92156250e-01
-6.32809375e-08,1.91890625e-01
-6.32409375e-08,1.91645312e-01
-6.32009375e-08,1.91731250e-01
-6.31609375e-08,1.91676563e-01
-6.31209375e-08,1.91721875e-01
-6.30809375e-08,1.91678125e-01
-6.30409375e-08,1.91723438e-01
-6.30009375e-08,1.91668750e-01
-6.29609375e-08,1.91754688e-01
-6.29209375e-08,1.91492188e-01
-6.28809375e-08,1.91243750e-01
-6.28409375e-08,1.91332813e-01
-6.28009375e-08,1.91275000e-01
-6.27609375e-08,1.91321875e-01
-6.27209375e-08,1.91279688e-01
-6.26809375e-08,1.91321875e-01
-6.26409375e-08,1.91276562e-01
-6.26009375e-08,1.91326563e-01
-6.25609375e-08,1.91264062e-01
-6.25209375e-08,1.91360937e-01
-6.24809375e-08,1.91085937e-01
-6.24409375e-08,1.90851563e-01
-6.24009375e-08,1.90925000e-01
-6.23609375e-08,1.90884375e-01
-6.23209375e-08,1.90910938e-01
-6.22809375e-08,1.90892188e-01
-6.22409375e-08,1.90906250e-01
-6.22009375e-08,1.90895312e-01
-6.21609375e-08,1.90903125e-01
-6.21209375e-08,1.90896875e-01
-6.20809375e-08,1.90901563e-01
-6.20409375e-08,1.90898438e-01
-6.20009375e-08,1.90900000e-01
-6.19609375e-08,1.90900000e-01
-6.19209375e-08,1.90900000e-01
-6.18809375e-08,1.90901563e-01
-6.18409375e-08,1.90898438e-01
-6.18009375e-08,1.90903125e-01
-6.17609375e-08,1.90896875e-01
-6.17209375e-08,1.90904688e-01
-6.16809375e-08,1.90895312e-01
-6.16409375e-08,1.90906250e-01
-6.16009375e-08,1.90892188e-01
-6.15609375e-08,1.90909375e-01
-6.15209375e-08,1.90889063e-01
-6.14809375e-08,1.90914063e-01
-6.14409375e-08,1.90879688e-01
-6.14009375e-08,1.90929688e-01
-6.13609375e-08,1.90845313e-01
-6.13209375e-08,1.91107813e-01
-6.12809375e-08,1.91354688e-01
-6.12409375e-08,1.91270313e-01
-6.12009375e-08,1.91320313e-01
-6.11609375e-08,1.91284375e-01
-6.11209375e-08,1.91312500e-01
-6.10809375e-08,1.91290625e-01
-6.10409375e-08,1.91307813e-01
-6.10009375e-08,1.91293750e-01
-6.09609375e-08,1.91306250e-01
-6.09209375e-08,1.91295313e-01
-6.08809375e-08,1.91303125e-01
-6.08409375e-08,1.91296875e-01
-6.08009375e-08,1.91301563e-01
-6.07609375e-08,1.91300000e-01
-6.07209375e-08,1.91298438e-01
-6.06809375e-08,1.91303125e-01
-6.06409375e-08,1.91295313e-01
-6.06009375e-08,1.91307813e-01
-6.05609375e-08,1.91285938e-01
-6.05209375e-08,1.91323437e-01
-6.04809375e-08,1.91251562e-01
-6.04409375e-08,1.91501562e-01
-6.04009375e-08,1.91760938e-01
-6.03609375e-08,1.91662500e-01
-6.03209375e-08,1.91728125e-01
-6.02809375e-08,1.91678125e-01
-6.02409375e-08,1.91720313e-01
-6.02009375e-08,1.91682813e-01
-6.01609375e-08,1.91717187e-01
-6.01209375e-08,1.91684375e-01
-6.00809375e-08,1.91715625e-01
-6.00409375e-08,1.91685938e-01
-6.00009375e-08,1.91714063e-01
-5.99609375e-08,1.91685938e-01
-5.99209375e-08,1.91715625e-01
-5.98809375e-08,1.91684375e-01
-5.98409375e-08,1.91717187e-01
-5.98009375e-08,1.91681250e-01
-5.97609375e-08,1.91721875e-01
-5.97209375e-08,1.91673438e-01
-5.96809375e-08,1.91735938e-01
-5.96409375e-08,1.91639063e-01
-5.96009375e-08,1.91912500e-01
-5.95609375e-08,1.92150000e-01
-5.95209375e-08,1.92075000e-01
-5.94809375e-08,1.92117188e-01
-5.94409375e-08,1.92087500e-01
-5.94009375e-08,1.92109375e-01
-5.93609375e-08,1.92093750e-01
-5.93209375e-08,1.92106250e-01
-5.92809375e-08,1.92095313e-01
-5.92409375e-08,1.92104688e-01
-5.92009375e-08,1.92096875e-01
-5.91609375e-08,1.92103125e-01
-5.91209375e-08,1.92096875e-01
-5.90809375e-08,1.92103125e-01
-5.90409375e-08,1.92098437e-01
-5.90009375e-08,1.92101563e-01
-5.89609375e-08,1.92098437e-01
-5.89209375e-08,1.92101563e-01
-5.88809375e-08,1.92098437e-01
-5.88409375e-08,1.92101563e-01
-5.88009375e-08,1.92098437e-01
-5.87609375e-08,1.92101563e-01
-5.87209375e-08,1.92098437e-01
-5.86809375e-08,1.92101563e-01
-5.86409375e-08,1.92098437e-01
-5.86009375e-08,1.92101563e-01
-5.85609375e-08,1.92098437e-01
-5.85209375e-08,1.92103125e-01
-5.84809375e-08,1.92096875e-01
-5.84409375e-08,1.92103125e-01
-5.84009375e-08,1.92096875e-01
-5.83609375e-08,1.92103125e-01
-5.83209375e-08,1.92096875e-01
-5.82809375e-08,1.92103125e-01
-5.82409375e-08,1.92095313e-01
-5.82009375e-08,1.92104688e-01
-5.81609375e-08,1.92095313e-01
-5.81209375e-08,1.92106250e-01
-5.80809375e-08,1.92093750e-01
-5.80409375e-08,1.92107813e-01
-5.80009375e-08,1.92090625e-01
-5.79609375e-08,1.92110937e-01
-5.79209375e-08,1.92085937e-01
-5.78809375e-08,1.92120313e-01
-5.78409375e-08,1.92070313e-01
-5.78009375e-08,1.92154688e-01
-5.77609375e-08,1.91892188e-01
-5.77209375e-08,1.91645312e-01
-5.76809375e-08,1.91731250e-01
-5.76409375e-08,1.91678125e-01
-5.76009375e-08,1.91717187e-01
-5.75609375e-08,1.91685938e-01
-5.75209375e-08,1.91710938e-01
-5.74809375e-08,1.91690625e-01
-5.74409375e-08,1.91709375e-01
-5.74009375e-08,1.91692187e-01
-5.73609375e-08,1.91707813e-01
-5.73209375e-08,1.91693750e-01
-5.72809375e-08,1.91706250e-01
-5.72409375e-08,1.91693750e-01
-5.72009375e-08,1.91704687e-01
-5.71609375e-08,1.91695313e-01
-5.71209375e-08,1.91704687e-01
-5.70809375e-08,1.91695313e-01
-5.70409375e-08,1.91704687e-01
-5.70009375e-08,1.91695313e-01
-5.69609375e-08,1.91703125e-01
-5.69209375e-08,1.91696875e-01
-5.68809375e-08,1.91703125e-01
-5.68409375e-08,1.91696875e-01
-5.68009375e-08,1.91703125e-01
-5.67609375e-08,1.91696875e-01
-5.67209375e-08,1.91703125e-01
-5.66809375e-08,1.91696875e-01
-5.66409375e-08,1.91703125e-01
-5.66009375e-08,1.91698438e-01
-5.65609375e-08,1.91701563e-01
-5.65209375e-08,1.91698438e-01
-5.64809375e-08,1.91701563e-01
-5.64409375e-08,1.91698438e-01
-5.64009375e-08,1.91701563e-01
-5.63609375e-08,1.91700000e-01
-5.63209375e-08,1.91700000e-01
-5.62809375e-08,1.91700000e-01
-5.62409375e-08,1.91698438e-01
-5.62009375e-08,1.91701563e-01
-5.61609375e-08,1.91696875e-01
-5.61209375e-08,1.91704687e-01
-5.60809375e-08,1.91692187e-01
-5.60409375e-08,1.91712500e-01
-5.60009375e-08,1.91678125e-01
-5.59609375e-08,1.91745313e-01
-5.59209375e-08,1.91501562e-01
-5.58809375e-08,1.91234375e-01
-5.58409375e-08,1.91342188e-01
-5.58009375e-08,1.91265625e-01
-5.57609375e-08,1.91332813e-01
-5.57209375e-08,1.91267188e-01
-5.56809375e-08,1.91335937e-01
-5.56409375e-08,1.91256250e-01
-5.56009375e-08,1.91368750e-01
-5.55609375e-08,1.91078125e-01
-5.55209375e-08,1.90859375e-01
-5.54809375e-08,1.90915625e-01
-5.54409375e-08,1.90895312e-01
-5.54009375e-08,1.90898438e-01
-5.53609375e-08,1.90909375e-01
-5.53209375e-08,1.90879688e-01
-5.52809375e-08,1.90946875e-01
-5.52409375e-08,1.90700000e-01
-5.52009375e-08,1.90437500e-01
-5.51609375e-08,1.90539062e-01
-5.51209375e-08,1.90470313e-01
-5.50809375e-08,1.90526562e-01
-5.50409375e-08,1.90476563e-01
-5.50009375e-08,1.90523438e-01
-5.49609375e-08,1.90475000e-01
-5.49209375e-08,1.90529688e-01
-5.48809375e-08,1.90462500e-01
-5.48409375e-08,1.90562500e-01
-5.48009375e-08,1.90285938e-01
-5.47609375e-08,1.90051562e-01
-5.47209375e-08,1.90125000e-01
-5.46809375e-08,1.90084375e-01
-5.46409375e-08,1.90110938e-01
-5.46009375e-08,1.90092188e-01
-5.45609375e-08,1.90106250e-01
-5.45209375e-08,1.90095313e-01
-5.44809375e-08,1.90103125e-01
-5.44409375e-08,1.90096875e-01
-5.44009375e-08,1.90101563e-01
-5.43609375e-08,1.90098437e-01
-5.43209375e-08,1.90100000e-01
-5.42809375e-08,1.90100000e-01
-5.42409375e-08,1.90098437e-01
-5.42009375e-08,1.90101563e-01
-5.41609375e-08,1.90096875e-01
-5.41209375e-08,1.90104688e-01
-5.40809375e-08,1.90093750e-01
-5.40409375e-08,1.90109375e-01
-5.40009375e-08,1.90084375e-01
-5.39609375e-08,1.90125000e-01
-5.39209375e-08,1.90051562e-01
-5.38809375e-08,1.90301563e-01
-5.38409375e-08,1.90560937e-01
-5.38009375e-08,1.90462500e-01
-5.37609375e-08,1.90528125e-01
-5.37209375e-08,1.90476563e-01
-5.36809375e-08,1.90520313e-01
-5.36409375e-08,1.90479687e-01
-5.36009375e-08,1.90518750e-01
-5.35609375e-08,1.90481250e-01
-5.35209375e-08,1.90520313e-01
-5.34809375e-08,1.90478125e-01
-5.34409375e-08,1.90523438e-01
-5.34009375e-08,1.90471875e-01
-5.33609375e-08,1.90537500e-01
-5.33209375e-08,1.90437500e-01
-5.32809375e-08,1.90715625e-01
-5.32409375e-08,1.90946875e-01
-5.32009375e-08,1.90878125e-01
-5.31609375e-08,1.90912500e-01
-5.31209375e-08,1.90893750e-01
-5.30809375e-08,1.90903125e-01
-5.30409375e-08,1.90900000e-01
-5.30009375e-08,1.90896875e-01
-5.29609375e-08,1.90907812e-01
-5.29209375e-08,1.90887500e-01
-5.28809375e-08,1.90921875e-01
-5.28409375e-08,1.90853125e-01
-5.28009375e-08,1.91100000e-01
-5.27609375e-08,1.91360937e-01
-5.27209375e-08,1.91262500e-01
-5.26809375e-08,1.91329688e-01
-5.26409375e-08,1.91275000e-01
-5.26009375e-08,1.91321875e-01
-5.25609375e-08,1.91278125e-01
-5.25209375e-08,1.91321875e-01
-5.24809375e-08,1.91278125e-01
-5.24409375e-08,1.91325000e-01
-5.24009375e-08,1.91271875e-01
-5.23609375e-08,1.91337500e-01
-5.23209375e-08,1.91237500e-01
-5.22809375e-08,1.91515625e-01
-5.22409375e-08,1.91748438e-01
-5.22009375e-08,1.91676563e-01
-5.21609375e-08,1.91715625e-01
-5.21209375e-08,1.91690625e-01
-5.20809375e-08,1.91707813e-01
-5.20409375e-08,1.91695313e-01
-5.20009375e-08,1.91704687e-01
-5.19609375e-08,1.91696875e-01
-5.19209375e-08,1.91701563e-01
-5.18809375e-08,1.91698438e-01
-5.18409375e-08,1.91700000e-01
-5.18009375e-08,1.91700000e-01
-5.17609375e-08,1.91700000e-01
-5.17209375e-08,1.91700000e-01
-5.16809375e-08,1.91698438e-01
-5.16409375e-08,1.91701563e-01
-5.16009375e-08,1.91698438e-01
-5.15609375e-08,1.91703125e-01
-5.15209375e-08,1.91696875e-01
-5.14809375e-08,1.91703125e-01
-5.14409375e-08,1.91695313e-01
-5.14009375e-08,1.91704687e-01
-5.13609375e-08,1.91693750e-01
-5.13209375e-08,1.91707813e-01
-5.12809375e-08,1.91690625e-01
-5.12409375e-08,1.91710938e-01
-5.12009375e-08,1.91685938e-01
-5.11609375e-08,1.91718750e-01
-5.11209375e-08,1.91671875e-01
-5.10809375e-08,1.91753125e-01
-5.10409375e-08,1.91493750e-01
-5.10009375e-08,1.91245313e-01
-5.09609375e-08,1.91331250e-01
-5.09209375e-08,1.91278125e-01
-5.08809375e-08,1.91317188e-01
-5.08409375e-08,1.91285938e-01
-5.08009375e-08,1.91312500e-01
-5.07609375e-08,1.91289062e-01
-5.07209375e-08,1.91309375e-01
-5.06809375e-08,1.91292188e-01
-5.06409375e-08,1.91307813e-01
-5.06009375e-08,1.91293750e-01
-5.05609375e-08,1.91306250e-01
-5.05209375e-08,1.91293750e-01
-5.04809375e-08,1.91306250e-01
-5.04409375e-08,1.91295313e-01
-5.04009375e-08,1.91304688e-01
-5.03609375e-08,1.91295313e-01
-5.03209375e-08,1.91304688e-01
-5.02809375e-08,1.91295313e-01
-5.02409375e-08,1.91304688e-01
-5.02009375e-08,1.91295313e-01
-5.01609375e-08,1.91303125e-01
-5.01209375e-08,1.91296875e-01
-5.00809375e-08,1.91303125e-01
-5.00409375e-08,1.91296875e-01
-5.00009375e-08,1.91303125e-01
-4.99609375e-08,1.91296875e-01
-4.99209375e-08,1.91303125e-01
-4.98809375e-08,1.91296875e-01
-4.98409375e-08,1.91303125e-01
-4.98009375e-08,1.91296875e-01
-4.97609375e-08,1.91303125e-01
-4.97209375e-08,1.91296875e-01
-4.96809375e-08,1.91303125e-01
-4.96409375e-08,1.91296875e-01
-4.96009375e-08,1.91303125e-01
-4.95609375e-08,1.91296875e-01
-4.95209375e-08,1.91303125e-01
-4.94809375e-08,1.91298438e-01
-4.94409375e-08,1.91301563e-01
-4.94009375e-08,1.91298438e-01
-4.93609375e-08,1.91301563e-01
-4.93209375e-08,1.91298438e-01
-4.92809375e-08,1.91301563e-01
-4.92409375e-08,1.91298438e-01
-4.92009375e-08,1.91301563e-01
-4.91609375e-08,1.91298438e-01
-4.91209375e-08,1.91301563e-01
-4.90809375e-08,1.91298438e-01
-4.90409375e-08,1.91301563e-01
-4.90009375e-08,1.91298438e-01
-4.89609375e-08,1.91301563e-01
-4.89209375e-08,1.91298438e-01
-4.88809375e-08,1.91301563e-01
-4.88409375e-08,1.91298438e-01
-4.88009375e-08,1.91301563e-01
-4.87609375e-08,1.91300000e-01
-4.87209375e-08,1.91300000e-01
-4.86809375e-08,1.91300000e-01
-4.86409375e-08,1.91300000e-01
-4.86009375e-08,1.91300000e-01
-4.85609375e-08,1.91300000e-01
-4.85209375e-08,1.91301563e-01
-4.84809375e-08,1.91298438e-01
-4.84409375e-08,1.91301563e-01
-4.84009375e-08,1.91298438e-01
-4.83609375e-08,1.91303125e-01
-4.83209375e-08,1.91295313e-01
-4.82809375e-08,1.91304688e-01
-4.82409375e-08,1.91292188e-01
-4.82009375e-08,1.91310938e-01
-4.81609375e-08,1.91284375e-01
-4.81209375e-08,1.91325000e-01
-4.80809375e-08,1.91251562e-01
-4.80409375e-08,1.91501562e-01
-4.80009375e-08,1.91760938e-01
-4.79609375e-08,1.91662500e-01
-4.79209375e-08,1.91729687e-01
-4.78809375e-08,1.91675000e-01
-4.78409375e-08,1.91723438e-01
-4.78009375e-08,1.91676563e-01
-4.77609375e-08,1.91725000e-01
-4.77209375e-08,1.91671875e-01
-4.76809375e-08,1.91735938e-01
-4.76409375e-08,1.91639063e-01
-4.76009375e-08,1.91912500e-01
-4.75609375e-08,1.92151563e-01
-4.75209375e-08,1.92071875e-01
-4.74809375e-08,1.92120313e-01
-4.74409375e-08,1.92082813e-01
-4.74009375e-08,1.92117188e-01
-4.73609375e-08,1.92079688e-01
-4.73209375e-08,1.92129688e-01
-4.72809375e-08,1.92046875e-01
-4.72409375e-08,1.92304688e-01
-4.72009375e-08,1.92559375e-01
-4.71609375e-08,1.92464063e-01
-4.71209375e-08,1.92528125e-01
-4.70809375e-08,1.92475000e-01
-4.70409375e-08,1.92523438e-01
-4.70009375e-08,1.92476563e-01
-4.69609375e-08,1.92525000e-01
-4.69209375e-08,1.92470313e-01
-4.68809375e-08,1.92539062e-01
-4.68409375e-08,1.92437500e-01
-4.68009375e-08,1.92715625e-01
-4.67609375e-08,1.92946875e-01
-4.67209375e-08,1.92876563e-01
-4.66809375e-08,1.92914063e-01
-4.66409375e-08,1.92890625e-01
-4.66009375e-08,1.92906250e-01
-4.65609375e-08,1.92895312e-01
-4.65209375e-08,1.92903125e-01
-4.64809375e-08,1.92896875e-01
-4.64409375e-08,1.92901563e-01
-4.64009375e-08,1.92898438e-01
-4.63609375e-08,1.92900000e-01
-4.63209375e-08,1.92900000e-01
-4.62809375e-08,1.92900000e-01
-4.62409375e-08,1.92900000e-01
-4.62009375e-08,1.92900000e-01
-4.61609375e-08,1.92901563e-01
-4.61209375e-08,1.92898438e-01
-4.60809375e-08,1.92901563e-01
-4.60409375e-08,1.92898438e-01
-4.60009375e-08,1.92901563e-01
-4.59609375e-08,1.92898438e-01
-4.59209375e-08,1.92903125e-01
-4.58809375e-08,1.92896875e-01
-4.58409375e-08,1.92903125e-01
-4.58009375e-08,1.92896875e-01
-4.57609375e-08,1.92904688e-01
-4.57209375e-08,1.92895312e-01
-4.56809375e-08,1.92904688e-01
-4.56409375e-08,1.92893750e-01
-4.56009375e-08,1.92906250e-01
-4.55609375e-08,1.92892188e-01
-4.55209375e-08,1.92910938e-01
-4.54809375e-08,1.92887500e-01
-4.54409375e-08,1.92918750e-01
-4.54009375e-08,1.92871875e-01
-4.53609375e-08,1.92951563e-01
-4.53209375e-08,1.92695312e-01
-4.52809375e-08,1.92442188e-01
-4.52409375e-08,1.92534375e-01
-4.52009375e-08,1.92475000e-01
-4.51609375e-08,1.92520313e-01
-4.51209375e-08,1.92481250e-01
-4.50809375e-08,1.92517188e-01
-4.50409375e-08,1.92482813e-01
-4.50009375e-08,1.92518750e-01
-4.49609375e-08,1.92479687e-01
-4.49209375e-08,1.92525000e-01
-4.48809375e-08,1.92465625e-01
-4.48409375e-08,1.92559375e-01
-4.48009375e-08,1.92289062e-01
-4.47609375e-08,1.92048438e-01
-4.47209375e-08,1.92128125e-01
-4.46809375e-08,1.92081250e-01
-4.46409375e-08,1.92114063e-01
-4.46009375e-08,1.92089063e-01
-4.45609375e-08,1.92109375e-01
-4.45209375e-08,1.92092188e-01
-4.44809375e-08,1.92107813e-01
-4.44409375e-08,1.92093750e-01
-4.44009375e-08,1.92106250e-01
-4.43609375e-08,1.92093750e-01
-4.43209375e-08,1.92104688e-01
-4.42809375e-08,1.92095313e-01
-4.42409375e-08,1.92104688e-01
-4.42009375e-08,1.92095313e-01
-4.41609375e-08,1.92104688e-01
-4.41209375e-08,1.92095313e-01
-4.40809375e-08,1.92104688e-01
-4.40409375e-08,1.92095313e-01
-4.40009375e-08,1.92104688e-01
-4.39609375e-08,1.92095313e-01
-4.39209375e-08,1.92104688e-01
-4.38809375e-08,1.92095313e-01
-4.38409375e-08,1.92104688e-01
-4.38009375e-08,1.92095313e-01
-4.37609375e-08,1.92104688e-01
-4.37209375e-08,1.92095313e-01
-4.36809375e-08,1.92104688e-01
-4.36409375e-08,1.92093750e-01
-4.36009375e-08,1.92106250e-01
-4.35609375e-08,1.92093750e-01
-4.35209375e-08,1.92106250e-01
-4.34809375e-08,1.92093750e-01
-4.34409375e-08,1.92107813e-01
-4.34009375e-08,1.92092188e-01
-4.33609375e-08,1.92109375e-01
-4.33209375e-08,1.92089063e-01
-4.32809375e-08,1.92112500e-01
-4.32409375e-08,1.92085937e-01
-4.32009375e-08,1.92117188e-01
-4.31609375e-08,1.92078125e-01
-4.31209375e-08,1.92131250e-01
-4.30809375e-08,1.92043750e-01
-4.30409375e-08,1.92309375e-01
-4.30009375e-08,1.92553125e-01
-4.29609375e-08,1.92471875e-01
-4.29209375e-08,1.92518750e-01
-4.28809375e-08,1.92485938e-01
-4.28409375e-08,1.92510938e-01
-4.28009375e-08,1.92490625e-01
-4.27609375e-08,1.92507813e-01
-4.27209375e-08,1.92493750e-01
-4.26809375e-08,1.92506250e-01
-4.26409375e-08,1.92495313e-01
-4.26009375e-08,1.92504687e-01
-4.25609375e-08,1.92495313e-01
-4.25209375e-08,1.92503125e-01
-4.24809375e-08,1.92496875e-01
-4.24409375e-08,1.92503125e-01
-4.24009375e-08,1.92496875e-01
-4.23609375e-08,1.92503125e-01
-4.23209375e-08,1.92496875e-01
-4.22809375e-08,1.92501563e-01
-4.22409375e-08,1.92498438e-01
-4.22009375e-08,1.92501563e-01
-4.21609375e-08,1.92498438e-01
-4.21209375e-08,1.92501563e-01
-4.20809375e-08,1.92498438e-01
-4.20409375e-08,1.92501563e-01
-4.20009375e-08,1.92498438e-01
-4.19609375e-08,1.92501563e-01
-4.19209375e-08,1.92498438e-01
-4.18809375e-08,1.92501563e-01
-4.18409375e-08,1.92498438e-01
-4.18009375e-08,1.92500000e-01
-4.17609375e-08,1.92500000e-01
-4.17209375e-08,1.92500000e-01
-4.16809375e-08,1.92500000e-01
-4.16409375e-08,1.92500000e-01
-4.16009375e-08,1.92500000e-01
-4.15609375e-08,1.92500000e-01
-4.15209375e-08,1.92500000e-01
-4.14809375e-08,1.92500000e-01
-4.14409375e-08,1.92500000e-01
-4.14009375e-08,1.92500000e-01
-4.13609375e-08,1.92500000e-01
-4.13209375e-08,1.92500000e-01
-4.12809375e-08,1.92500000e-01
-4.12409375e-08,1.92500000e-01
-4.12009375e-08,1.92500000e-01
-4.11609375e-08,1.92500000e-01
-4.11209375e-08,1.92500000e-01
-4.10809375e-08,1.92498438e-01
-4.10409375e-08,1.92501563e-01
-4.10009375e-08,1.92498438e-01
-4.09609375e-08,1.92501563e-01
-4.09209375e-08,1.92498438e-01
-4.08809375e-08,1.92501563e-01
-4.08409375e-08,1.92498438e-01
-4.08009375e-08,1.92501563e-01
-4.07609375e-08,1.92498438e-01
-4.07209375e-08,1.92503125e-01
-4.06809375e-08,1.92496875e-01
-4.06409375e-08,1.92503125e-01
-4.06009375e-08,1.92496875e-01
-4.05609375e-08,1.92503125e-01
-4.05209375e-08,1.92495313e-01
-4.04809375e-08,1.92504687e-01
-4.04409375e-08,1.92493750e-01
-4.04009375e-08,1.92506250e-01
-4.03609375e-08,1.92492188e-01
-4.03209375e-08,1.92510938e-01
-4.02809375e-08,1.92485938e-01
-4.02409375e-08,1.92518750e-01
-4.02009375e-08,1.92471875e-01
-4.01609375e-08,1.92553125e-01
-4.01209375e-08,1.92293750e-01
-4.00809375e-08,1.92043750e-01
-4.00409375e-08,1.92132812e-01
-4.00009375e-08,1.92076562e-01
-3.99609375e-08,1.92118750e-01
-3.99209375e-08,1.92084375e-01
-3.98809375e-08,1.92114063e-01
-3.98409375e-08,1.92087500e-01
-3.98009375e-08,1.92110937e-01
-3.97609375e-08,1.92089063e-01
-3.97209375e-08,1.92110937e-01
-3.96809375e-08,1.92090625e-01
-3.96409375e-08,1.92109375e-01
-3.96009375e-08,1.92090625e-01
-3.95609375e-08,1.92109375e-01
-3.95209375e-08,1.92089063e-01
-3.94809375e-08,1.92110937e-01
-3.94409375e-08,1.92087500e-01
-3.94009375e-08,1.92112500e-01
-3.93609375e-08,1.92085937e-01
-3.93209375e-08,1.92117188e-01
-3.92809375e-08,1.92078125e-01
-3.92409375e-08,1.92131250e-01
-3.92009375e-08,1.92043750e-01
-3.91609375e-08,1.92309375e-01
-3.91209375e-08,1.92553125e-01
-3.90809375e-08,1.92470313e-01
-3.90409375e-08,1.92520313e-01
-3.90009375e-08,1.92484375e-01
-3.89609375e-08,1.92512500e-01
-3.89209375e-08,1.92489063e-01
-3.88809375e-08,1.92510938e-01
-3.88409375e-08,1.92490625e-01
-3.88009375e-08,1.92509375e-01
-3.87609375e-08,1.92490625e-01
-3.87209375e-08,1.92509375e-01
-3.86809375e-08,1.92489063e-01
-3.86409375e-08,1.92510938e-01
-3.86009375e-08,1.92485938e-01
-3.85609375e-08,1.92515625e-01
-3.85209375e-08,1.92479687e-01
