trails/00e0f0a1771ea1cc81b4999437018e02/aes_ch1_20250506172715189.csv

Model,MSO66B
Label,
Waveform Type,ANALOG
Horizontal Units,s
Sample Interval,4.00000000e-11
Record Length,10000
Zero Index,1599.02343750
Vertical Units,A
ANALOG_Thumbnail,
yOffset,1.84500000e-01
yPosition,8.40000000e-01

Labels,
TIME,CH1
-6.39609375e-08,1.89300000e-01
-6.39209375e-08,1.89300000e-01
-6.38809375e-08,1.89300000e-01
-6.38409375e-08,1.89300000e-01
-6.38009375e-08,1.89300000e-01
-6.37609375e-08,1.89300000e-01
-6.37209375e-08,1.89300000e-01
-6.36809375e-08,1.89300000e-01
-6.36409375e-08,1.89300000e-01
-6.36009375e-08,1.89300000e-01
-6.35609375e-08,1.89300000e-01
-6.35209375e-08,1.89300000e-01
-6.34809375e-08,1.89300000e-01
-6.34409375e-08,1.89300000e-01
-6.34009375e-08,1.89300000e-01
-6.33609375e-08,1.89300000e-01
-6.33209375e-08,1.89300000e-01
-6.32809375e-08,1.89300000e-01
-6.32409375e-08,1.89300000e-01
-6.32009375e-08,1.89300000e-01
-6.31609375e-08,1.89300000e-01
-6.31209375e-08,1.89300000e-01
-6.30809375e-08,1.89300000e-01
-6.30409375e-08,1.89300000e-01
-6.30009375e-08,1.89300000e-01
-6.29609375e-08,1.89300000e-01
-6.29209375e-08,1.89301563e-01
-6.28809375e-08,1.89298437e-01
-6.28409375e-08,1.89301563e-01
-6.28009375e-08,1.89298437e-01
-6.27609375e-08,1.89301563e-01
-6.27209375e-08,1.89298437e-01
-6.26809375e-08,1.89301563e-01
-6.26409375e-08,1.89298437e-01
-6.26009375e-08,1.89301563e-01
-6.25609375e-08,1.89298437e-01
-6.25209375e-08,1.89301563e-01
-6.24809375e-08,1.89298437e-01
-6.24409375e-08,1.89303125e-01
-6.24009375e-08,1.89296875e-01
-6.23609375e-08,1.89303125e-01
-6.23209375e-08,1.89296875e-01
-6.22809375e-08,1.89304688e-01
-6.22409375e-08,1.89295313e-01
-6.22009375e-08,1.89306250e-01
-6.21609375e-08,1.89292188e-01
-6.21209375e-08,1.89309375e-01
-6.20809375e-08,1.89287500e-01
-6.20409375e-08,1.89317188e-01
-6.20009375e-08,1.89273438e-01
-6.19609375e-08,1.89351563e-01
-6.19209375e-08,1.89095313e-01
-6.18809375e-08,1.88842188e-01
-6.18409375e-08,1.88932813e-01
-6.18009375e-08,1.88876563e-01
-6.17609375e-08,1.88918750e-01
-6.17209375e-08,1.88882812e-01
-6.16809375e-08,1.88914063e-01
-6.16409375e-08,1.88887500e-01
-6.16009375e-08,1.88912500e-01
-6.15609375e-08,1.88889063e-01
-6.15209375e-08,1.88910938e-01
-6.14809375e-08,1.88889063e-01
-6.14409375e-08,1.88910938e-01
-6.14009375e-08,1.88889063e-01
-6.13609375e-08,1.88910938e-01
-6.13209375e-08,1.88889063e-01
-6.12809375e-08,1.88910938e-01
-6.12409375e-08,1.88889063e-01
-6.12009375e-08,1.88910938e-01
-6.11609375e-08,1.88889063e-01
-6.11209375e-08,1.88910938e-01
-6.10809375e-08,1.88887500e-01
-6.10409375e-08,1.88912500e-01
-6.10009375e-08,1.88885938e-01
-6.09609375e-08,1.88914063e-01
-6.09209375e-08,1.88884375e-01
-6.08809375e-08,1.88918750e-01
-6.08409375e-08,1.88878125e-01
-6.08009375e-08,1.88926563e-01
-6.07609375e-08,1.88864063e-01
-6.07209375e-08,1.88960938e-01
-6.06809375e-08,1.88684375e-01
-6.06409375e-08,1.88453125e-01
-6.06009375e-08,1.88523438e-01
-6.05609375e-08,1.88487500e-01
-6.05209375e-08,1.88507813e-01
-6.04809375e-08,1.88495313e-01
-6.04409375e-08,1.88501562e-01
-6.04009375e-08,1.88500000e-01
-6.03609375e-08,1.88496875e-01
-6.03209375e-08,1.88504688e-01
-6.02809375e-08,1.88492188e-01
-6.02409375e-08,1.88509375e-01
-6.02009375e-08,1.88485938e-01
-6.01609375e-08,1.88518750e-01
-6.01209375e-08,1.88470313e-01
-6.00809375e-08,1.88554688e-01
-6.00409375e-08,1.88290625e-01
-6.00009375e-08,1.88046875e-01
-5.99609375e-08,1.88128125e-01
-5.99209375e-08,1.88081250e-01
-5.98809375e-08,1.88112500e-01
-5.98409375e-08,1.88092188e-01
-5.98009375e-08,1.88104688e-01
-5.97609375e-08,1.88098437e-01
-5.97209375e-08,1.88096875e-01
-5.96809375e-08,1.88109375e-01
-5.96409375e-08,1.88081250e-01
-5.96009375e-08,1.88143750e-01
-5.95609375e-08,1.87903125e-01
-5.95209375e-08,1.87635938e-01
-5.94809375e-08,1.87740625e-01
-5.94409375e-08,1.87668750e-01
-5.94009375e-08,1.87726562e-01
-5.93609375e-08,1.87675000e-01
-5.93209375e-08,1.87723438e-01
-5.92809375e-08,1.87676563e-01
-5.92409375e-08,1.87723438e-01
-5.92009375e-08,1.87675000e-01
-5.91609375e-08,1.87729688e-01
-5.91209375e-08,1.87662500e-01
-5.90809375e-08,1.87762500e-01
-5.90409375e-08,1.87485938e-01
-5.90009375e-08,1.87251562e-01
-5.89609375e-08,1.87325000e-01
-5.89209375e-08,1.87282813e-01
-5.88809375e-08,1.87312500e-01
-5.88409375e-08,1.87290625e-01
-5.88009375e-08,1.87309375e-01
-5.87609375e-08,1.87292188e-01
-5.87209375e-08,1.87309375e-01
-5.86809375e-08,1.87290625e-01
-5.86409375e-08,1.87310937e-01
-5.86009375e-08,1.87285937e-01
-5.85609375e-08,1.87318750e-01
-5.85209375e-08,1.87271875e-01
-5.84809375e-08,1.87351563e-01
-5.84409375e-08,1.87095312e-01
-5.84009375e-08,1.86842188e-01
-5.83609375e-08,1.86934375e-01
-5.83209375e-08,1.86875000e-01
-5.82809375e-08,1.86920313e-01
-5.82409375e-08,1.86882812e-01
-5.82009375e-08,1.86915625e-01
-5.81609375e-08,1.86885938e-01
-5.81209375e-08,1.86912500e-01
-5.80809375e-08,1.86887500e-01
-5.80409375e-08,1.86912500e-01
-5.80009375e-08,1.86887500e-01
-5.79609375e-08,1.86912500e-01
-5.79209375e-08,1.86887500e-01
-5.78809375e-08,1.86912500e-01
-5.78409375e-08,1.86887500e-01
-5.78009375e-08,1.86912500e-01
-5.77609375e-08,1.86885938e-01
-5.77209375e-08,1.86914063e-01
-5.76809375e-08,1.86884375e-01
-5.76409375e-08,1.86917187e-01
-5.76009375e-08,1.86879688e-01
-5.75609375e-08,1.86925000e-01
-5.75209375e-08,1.86864063e-01
-5.74809375e-08,1.86959375e-01
-5.74409375e-08,1.86687500e-01
-5.74009375e-08,1.86450000e-01
-5.73609375e-08,1.86525000e-01
-5.73209375e-08,1.86484375e-01
-5.72809375e-08,1.86510938e-01
-5.72409375e-08,1.86492188e-01
-5.72009375e-08,1.86506250e-01
-5.71609375e-08,1.86495313e-01
-5.71209375e-08,1.86503125e-01
-5.70809375e-08,1.86496875e-01
-5.70409375e-08,1.86501562e-01
-5.70009375e-08,1.86498438e-01
-5.69609375e-08,1.86501562e-01
-5.69209375e-08,1.86498438e-01
-5.68809375e-08,1.86500000e-01
-5.68409375e-08,1.86500000e-01
-5.68009375e-08,1.86500000e-01
-5.67609375e-08,1.86500000e-01
-5.67209375e-08,1.86500000e-01
-5.66809375e-08,1.86500000e-01
-5.66409375e-08,1.86500000e-01
-5.66009375e-08,1.86501562e-01
-5.65609375e-08,1.86498438e-01
-5.65209375e-08,1.86501562e-01
-5.64809375e-08,1.86498438e-01
-5.64409375e-08,1.86501562e-01
-5.64009375e-08,1.86498438e-01
-5.63609375e-08,1.86501562e-01
-5.63209375e-08,1.86498438e-01
-5.62809375e-08,1.86501562e-01
-5.62409375e-08,1.86498438e-01
-5.62009375e-08,1.86501562e-01
-5.61609375e-08,1.86496875e-01
-5.61209375e-08,1.86503125e-01
-5.60809375e-08,1.86496875e-01
-5.60409375e-08,1.86503125e-01
-5.60009375e-08,1.86496875e-01
-5.59609375e-08,1.86503125e-01
-5.59209375e-08,1.86496875e-01
-5.58809375e-08,1.86503125e-01
-5.58409375e-08,1.86496875e-01
-5.58009375e-08,1.86504688e-01
-5.57609375e-08,1.86495313e-01
-5.57209375e-08,1.86504688e-01
-5.56809375e-08,1.86495313e-01
-5.56409375e-08,1.86504688e-01
-5.56009375e-08,1.86493750e-01
-5.55609375e-08,1.86506250e-01
-5.55209375e-08,1.86493750e-01
-5.54809375e-08,1.86506250e-01
-5.54409375e-08,1.86492188e-01
-5.54009375e-08,1.86509375e-01
-5.53609375e-08,1.86490625e-01
-5.53209375e-08,1.86510938e-01
-5.52809375e-08,1.86485938e-01
-5.52409375e-08,1.86517188e-01
-5.52009375e-08,1.86478125e-01
-5.51609375e-08,1.86531250e-01
-5.51209375e-08,1.86443750e-01
-5.50809375e-08,1.86709375e-01
-5.50409375e-08,1.86953125e-01
-5.50009375e-08,1.86871875e-01
-5.49609375e-08,1.86918750e-01
-5.49209375e-08,1.86885938e-01
-5.48809375e-08,1.86910938e-01
-5.48409375e-08,1.86890625e-01
-5.48009375e-08,1.86907812e-01
-5.47609375e-08,1.86893750e-01
-5.47209375e-08,1.86906250e-01
-5.46809375e-08,1.86895313e-01
-5.46409375e-08,1.86904687e-01
-5.46009375e-08,1.86896875e-01
-5.45609375e-08,1.86903125e-01
-5.45209375e-08,1.86896875e-01
-5.44809375e-08,1.86901563e-01
-5.44409375e-08,1.86898438e-01
-5.44009375e-08,1.86901563e-01
-5.43609375e-08,1.86898438e-01
-5.43209375e-08,1.86900000e-01
-5.42809375e-08,1.86900000e-01
-5.42409375e-08,1.86900000e-01
-5.42009375e-08,1.86900000e-01
-5.41609375e-08,1.86898438e-01
-5.41209375e-08,1.86901563e-01
-5.40809375e-08,1.86898438e-01
-5.40409375e-08,1.86901563e-01
-5.40009375e-08,1.86896875e-01
-5.39609375e-08,1.86903125e-01
-5.39209375e-08,1.86895313e-01
-5.38809375e-08,1.86904687e-01
-5.38409375e-08,1.86893750e-01
-5.38009375e-08,1.86907812e-01
-5.37609375e-08,1.86889063e-01
-5.37209375e-08,1.86914063e-01
-5.36809375e-08,1.86881250e-01
-5.36409375e-08,1.86929687e-01
-5.36009375e-08,1.86845312e-01
-5.35609375e-08,1.87107812e-01
-5.35209375e-08,1.87353125e-01
-5.34809375e-08,1.87271875e-01
-5.34409375e-08,1.87317188e-01
-5.34009375e-08,1.87290625e-01
-5.33609375e-08,1.87301563e-01
-5.33209375e-08,1.87307813e-01
-5.32809375e-08,1.87265625e-01
-5.32409375e-08,1.87487500e-01
-5.32009375e-08,1.87776563e-01
-5.31609375e-08,1.87645312e-01
-5.31209375e-08,1.87746875e-01
-5.30809375e-08,1.87653125e-01
-5.30409375e-08,1.87754688e-01
-5.30009375e-08,1.87623438e-01
-5.29609375e-08,1.87929687e-01
-5.29209375e-08,1.88132812e-01
-5.28809375e-08,1.88090625e-01
-5.28409375e-08,1.88098437e-01
-5.28009375e-08,1.88107812e-01
-5.27609375e-08,1.88084375e-01
-5.27209375e-08,1.88126563e-01
-5.26809375e-08,1.88048437e-01
-5.26409375e-08,1.88306250e-01
-5.26009375e-08,1.88556250e-01
-5.25609375e-08,1.88467188e-01
-5.25209375e-08,1.88523438e-01
-5.24809375e-08,1.88481250e-01
-5.24409375e-08,1.88517188e-01
-5.24009375e-08,1.88484375e-01
-5.23609375e-08,1.88515625e-01
-5.23209375e-08,1.88484375e-01
-5.22809375e-08,1.88518750e-01
-5.22409375e-08,1.88478125e-01
-5.22009375e-08,1.88531250e-01
-5.21609375e-08,1.88443750e-01
-5.21209375e-08,1.88707813e-01
-5.20809375e-08,1.88954687e-01
-5.20409375e-08,1.88868750e-01
-5.20009375e-08,1.88921875e-01
-5.19609375e-08,1.88882812e-01
-5.19209375e-08,1.88915625e-01
-5.18809375e-08,1.88885938e-01
-5.18409375e-08,1.88912500e-01
-5.18009375e-08,1.88887500e-01
-5.17609375e-08,1.88912500e-01
-5.17209375e-08,1.88887500e-01
-5.16809375e-08,1.88912500e-01
-5.16409375e-08,1.88887500e-01
-5.16009375e-08,1.88914063e-01
-5.15609375e-08,1.88885938e-01
-5.15209375e-08,1.88917188e-01
-5.14809375e-08,1.88881250e-01
-5.14409375e-08,1.88925000e-01
-5.14009375e-08,1.88865625e-01
-5.13609375e-08,1.88957813e-01
-5.13209375e-08,1.88689063e-01
-5.12809375e-08,1.88448438e-01
-5.12409375e-08,1.88526562e-01
-5.12009375e-08,1.88482813e-01
-5.11609375e-08,1.88512500e-01
-5.11209375e-08,1.88490625e-01
-5.10809375e-08,1.88507813e-01
-5.10409375e-08,1.88493750e-01
-5.10009375e-08,1.88504688e-01
-5.09609375e-08,1.88495313e-01
-5.09209375e-08,1.88503125e-01
-5.08809375e-08,1.88496875e-01
-5.08409375e-08,1.88503125e-01
-5.08009375e-08,1.88496875e-01
-5.07609375e-08,1.88501562e-01
-5.07209375e-08,1.88498438e-01
-5.06809375e-08,1.88501562e-01
-5.06409375e-08,1.88498438e-01
-5.06009375e-08,1.88501562e-01
-5.05609375e-08,1.88498438e-01
-5.05209375e-08,1.88501562e-01
-5.04809375e-08,1.88500000e-01
-5.04409375e-08,1.88500000e-01
-5.04009375e-08,1.88500000e-01
-5.03609375e-08,1.88500000e-01
-5.03209375e-08,1.88500000e-01
-5.02809375e-08,1.88500000e-01
-5.02409375e-08,1.88500000e-01
-5.02009375e-08,1.88500000e-01
-5.01609375e-08,1.88500000e-01
-5.01209375e-08,1.88500000e-01
-5.00809375e-08,1.88500000e-01
-5.00409375e-08,1.88500000e-01
-5.00009375e-08,1.88500000e-01
-4.99609375e-08,1.88500000e-01
-4.99209375e-08,1.88500000e-01
-4.98809375e-08,1.88500000e-01
-4.98409375e-08,1.88501562e-01
-4.98009375e-08,1.88498438e-01
-4.97609375e-08,1.88501562e-01
-4.97209375e-08,1.88498438e-01
-4.96809375e-08,1.88501562e-01
-4.96409375e-08,1.88498438e-01
-4.96009375e-08,1.88501562e-01
-4.95609375e-08,1.88498438e-01
-4.95209375e-08,1.88501562e-01
-4.94809375e-08,1.88498438e-01
-4.94409375e-08,1.88501562e-01
-4.94009375e-08,1.88498438e-01
-4.93609375e-08,1.88501562e-01
-4.93209375e-08,1.88496875e-01
-4.92809375e-08,1.88503125e-01
-4.92409375e-08,1.88496875e-01
-4.92009375e-08,1.88503125e-01
-4.91609375e-08,1.88496875e-01
-4.91209375e-08,1.88504688e-01
-4.90809375e-08,1.88495313e-01
-4.90409375e-08,1.88504688e-01
-4.90009375e-08,1.88493750e-01
-4.89609375e-08,1.88506250e-01
-4.89209375e-08,1.88492188e-01
-4.88809375e-08,1.88509375e-01
-4.88409375e-08,1.88489062e-01
-4.88009375e-08,1.88514062e-01
-4.87609375e-08,1.88481250e-01
-4.87209375e-08,1.88528125e-01
-4.86809375e-08,1.88446875e-01
-4.86409375e-08,1.88706250e-01
-4.86009375e-08,1.88956250e-01
-4.85609375e-08,1.88868750e-01
-4.85209375e-08,1.88921875e-01
-4.84809375e-08,1.88882812e-01
-4.84409375e-08,1.88914063e-01
-4.84009375e-08,1.88887500e-01
-4.83609375e-08,1.88910938e-01
-4.83209375e-08,1.88889063e-01
-4.82809375e-08,1.88909375e-01
-4.82409375e-08,1.88890625e-01
-4.82009375e-08,1.88909375e-01
-4.81609375e-08,1.88890625e-01
-4.81209375e-08,1.88907812e-01
-4.80809375e-08,1.88892188e-01
-4.80409375e-08,1.88907812e-01
-4.80009375e-08,1.88890625e-01
-4.79609375e-08,1.88909375e-01
-4.79209375e-08,1.88890625e-01
-4.78809375e-08,1.88909375e-01
-4.78409375e-08,1.88889063e-01
-4.78009375e-08,1.88912500e-01
-4.77609375e-08,1.88885938e-01
-4.77209375e-08,1.88917188e-01
-4.76809375e-08,1.88878125e-01
-4.76409375e-08,1.88931250e-01
-4.76009375e-08,1.88843750e-01
-4.75609375e-08,1.89109375e-01
-4.75209375e-08,1.89353125e-01
-4.74809375e-08,1.89270313e-01
-4.74409375e-08,1.89320313e-01
-4.74009375e-08,1.89284375e-01
-4.73609375e-08,1.89312500e-01
-4.73209375e-08,1.89289062e-01
-4.72809375e-08,1.89309375e-01
-4.72409375e-08,1.89292188e-01
-4.72009375e-08,1.89307813e-01
-4.71609375e-08,1.89292188e-01
-4.71209375e-08,1.89306250e-01
-4.70809375e-08,1.89293750e-01
-4.70409375e-08,1.89306250e-01
-4.70009375e-08,1.89293750e-01
-4.69609375e-08,1.89306250e-01
-4.69209375e-08,1.89293750e-01
-4.68809375e-08,1.89306250e-01
-4.68409375e-08,1.89293750e-01
-4.68009375e-08,1.89307813e-01
-4.67609375e-08,1.89292188e-01
-4.67209375e-08,1.89307813e-01
-4.66809375e-08,1.89290625e-01
-4.66409375e-08,1.89309375e-01
-4.66009375e-08,1.89289062e-01
-4.65609375e-08,1.89314063e-01
-4.65209375e-08,1.89282813e-01
-4.64809375e-08,1.89321875e-01
-4.64409375e-08,1.89268750e-01
-4.64009375e-08,1.89356250e-01
-4.63609375e-08,1.89090625e-01
-4.63209375e-08,1.88846875e-01
-4.62809375e-08,1.88929687e-01
-4.62409375e-08,1.88879688e-01
-4.62009375e-08,1.88915625e-01
-4.61609375e-08,1.88887500e-01
-4.61209375e-08,1.88910938e-01
-4.60809375e-08,1.88890625e-01
-4.60409375e-08,1.88907812e-01
-4.60009375e-08,1.88893750e-01
-4.59609375e-08,1.88906250e-01
-4.59209375e-08,1.88893750e-01
-4.58809375e-08,1.88904688e-01
-4.58409375e-08,1.88895312e-01
-4.58009375e-08,1.88904688e-01
-4.57609375e-08,1.88895312e-01
-4.57209375e-08,1.88904688e-01
-4.56809375e-08,1.88896875e-01
-4.56409375e-08,1.88903125e-01
-4.56009375e-08,1.88896875e-01
-4.55609375e-08,1.88903125e-01
-4.55209375e-08,1.88896875e-01
-4.54809375e-08,1.88903125e-01
-4.54409375e-08,1.88896875e-01
-4.54009375e-08,1.88903125e-01
-4.53609375e-08,1.88896875e-01
-4.53209375e-08,1.88903125e-01
-4.52809375e-08,1.88896875e-01
-4.52409375e-08,1.88903125e-01
-4.52009375e-08,1.88898438e-01
-4.51609375e-08,1.88901563e-01
-4.51209375e-08,1.88898438e-01
-4.50809375e-08,1.88901563e-01
-4.50409375e-08,1.88898438e-01
-4.50009375e-08,1.88901563e-01
-4.49609375e-08,1.88898438e-01
-4.49209375e-08,1.88901563e-01
-4.48809375e-08,1.88898438e-01
-4.48409375e-08,1.88901563e-01
-4.48009375e-08,1.88898438e-01
-4.47609375e-08,1.88901563e-01
-4.47209375e-08,1.88898438e-01
-4.46809375e-08,1.88901563e-01
-4.46409375e-08,1.88898438e-01
-4.46009375e-08,1.88900000e-01
-4.45609375e-08,1.88900000e-01
-4.45209375e-08,1.88900000e-01
-4.44809375e-08,1.88900000e-01
-4.44409375e-08,1.88898438e-01
-4.44009375e-08,1.88901563e-01
-4.43609375e-08,1.88896875e-01
-4.43209375e-08,1.88903125e-01
-4.42809375e-08,1.88895312e-01
-4.42409375e-08,1.88907812e-01
-4.42009375e-08,1.88887500e-01
-4.41609375e-08,1.88921875e-01
-4.41209375e-08,1.88854688e-01
-4.40809375e-08,1.89098437e-01
-4.40409375e-08,1.89365625e-01
-4.40009375e-08,1.89257813e-01
-4.39609375e-08,1.89334375e-01
-4.39209375e-08,1.89267188e-01
-4.38809375e-08,1.89332813e-01
-4.38409375e-08,1.89264062e-01
-4.38009375e-08,1.89345313e-01
-4.37609375e-08,1.89231250e-01
-4.37209375e-08,1.89521875e-01
-4.36809375e-08,1.89740625e-01
-4.36409375e-08,1.89684375e-01
-4.36009375e-08,1.89704687e-01
-4.35609375e-08,1.89703125e-01
-4.35209375e-08,1.89689063e-01
-4.34809375e-08,1.89721875e-01
-4.34409375e-08,1.89653125e-01
-4.34009375e-08,1.89901563e-01
-4.33609375e-08,1.90160938e-01
-4.33209375e-08,1.90062500e-01
-4.32809375e-08,1.90128125e-01
-4.32409375e-08,1.90076563e-01
-4.32009375e-08,1.90120312e-01
-4.31609375e-08,1.90081250e-01
-4.31209375e-08,1.90118750e-01
-4.30809375e-08,1.90081250e-01
-4.30409375e-08,1.90118750e-01
-4.30009375e-08,1.90079688e-01
-4.29609375e-08,1.90123438e-01
-4.29209375e-08,1.90071875e-01
-4.28809375e-08,1.90137500e-01
-4.28409375e-08,1.90035938e-01
-4.28009375e-08,1.90317188e-01
-4.27609375e-08,1.90543750e-01
-4.27209375e-08,1.90481250e-01
-4.26809375e-08,1.90506250e-01
-4.26409375e-08,1.90503125e-01
-4.26009375e-08,1.90484375e-01
-4.25609375e-08,1.90542188e-01
-4.25209375e-08,1.90304688e-01
-4.24809375e-08,1.90034375e-01
-4.24409375e-08,1.90142188e-01
-4.24009375e-08,1.90067188e-01
-4.23609375e-08,1.90126563e-01
-4.23209375e-08,1.90075000e-01
-4.22809375e-08,1.90121875e-01
-4.22409375e-08,1.90078125e-01
-4.22009375e-08,1.90121875e-01
-4.21609375e-08,1.90078125e-01
-4.21209375e-08,1.90121875e-01
-4.20809375e-08,1.90078125e-01
-4.20409375e-08,1.90125000e-01
-4.20009375e-08,1.90073437e-01
-4.19609375e-08,1.90132812e-01
-4.19209375e-08,1.90057813e-01
-4.18809375e-08,1.90167188e-01
-4.18409375e-08,1.89879688e-01
-4.18009375e-08,1.89657812e-01
-4.17609375e-08,1.89717187e-01
-4.17209375e-08,1.89692187e-01
-4.16809375e-08,1.89701563e-01
-4.16409375e-08,1.89701563e-01
-4.16009375e-08,1.89693750e-01
-4.15609375e-08,1.89709375e-01
-4.15209375e-08,1.89685938e-01
-4.14809375e-08,1.89720313e-01
-4.14409375e-08,1.89670312e-01
-4.14009375e-08,1.89756250e-01
-4.13609375e-08,1.89490625e-01
-4.13209375e-08,1.89248438e-01
-4.12809375e-08,1.89326563e-01
-4.12409375e-08,1.89282813e-01
-4.12009375e-08,1.89310937e-01
-4.11609375e-08,1.89293750e-01
-4.11209375e-08,1.89303125e-01
-4.10809375e-08,1.89300000e-01
-4.10409375e-08,1.89295313e-01
-4.10009375e-08,1.89310937e-01
-4.09609375e-08,1.89279688e-01
-4.09209375e-08,1.89346875e-01
-4.08809375e-08,1.89100000e-01
-4.08409375e-08,1.88837500e-01
-4.08009375e-08,1.88937500e-01
-4.07609375e-08,1.88871875e-01
-4.07209375e-08,1.88923438e-01
-4.06809375e-08,1.88879688e-01
-4.06409375e-08,1.88917188e-01
-4.06009375e-08,1.88882812e-01
-4.05609375e-08,1.88915625e-01
-4.05209375e-08,1.88885938e-01
-4.04809375e-08,1.88914063e-01
-4.04409375e-08,1.88885938e-01
-4.04009375e-08,1.88914063e-01
-4.03609375e-08,1.88885938e-01
-4.03209375e-08,1.88914063e-01
-4.02809375e-08,1.88885938e-01
-4.02409375e-08,1.88915625e-01
-4.02009375e-08,1.88882812e-01
-4.01609375e-08,1.88918750e-01
-4.01209375e-08,1.88879688e-01
-4.00809375e-08,1.88926563e-01
-4.00409375e-08,1.88864063e-01
-4.00009375e-08,1.88959375e-01
-3.99609375e-08,1.88687500e-01
-3.99209375e-08,1.88450000e-01
-3.98809375e-08,1.88525000e-01
-3.98409375e-08,1.88482813e-01
-3.98009375e-08,1.88512500e-01
-3.97609375e-08,1.88490625e-01
-3.97209375e-08,1.88506250e-01
-3.96809375e-08,1.88493750e-01
-3.96409375e-08,1.88504688e-01
-3.96009375e-08,1.88496875e-01
-3.95609375e-08,1.88503125e-01
-3.95209375e-08,1.88496875e-01
-3.94809375e-08,1.88501562e-01
-3.94409375e-08,1.88498438e-01
-3.94009375e-08,1.88501562e-01
-3.93609375e-08,1.88498438e-01
-3.93209375e-08,1.88501562e-01
-3.92809375e-08,1.88498438e-01
-3.92409375e-08,1.88501562e-01
-3.92009375e-08,1.88498438e-01
-3.91609375e-08,1.88501562e-01
-3.91209375e-08,1.88500000e-01
-3.90809375e-08,1.88500000e-01
-3.90409375e-08,1.88500000e-01
-3.90009375e-08,1.88500000e-01
-3.89609375e-08,1.88500000e-01
-3.89209375e-08,1.88500000e-01
-3.88809375e-08,1.88500000e-01
-3.88409375e-08,1.88500000e-01
-3.88009375e-08,1.88500000e-01
-3.87609375e-08,1.88500000e-01
-3.87209375e-08,1.88500000e-01
-3.86809375e-08,1.88501562e-01
-3.86409375e-08,1.88498438e-01
-3.86009375e-08,1.88501562e-01
-3.85609375e-08,1.88498438e-01
-3.85209375e-08,1.88501562e-01
