trails/00e0f0a1771ea1cc81b4999437018e02/aes_ch1_20250506172325641.csv

Model,MSO66B
Label,
Waveform Type,ANALOG
Horizontal Units,s
Sample Interval,4.00000000e-11
Record Length,10000
Zero Index,1599.01953125
Vertical Units,A
ANALOG_Thumbnail,
yOffset,1.84500000e-01
yPosition,8.40000000e-01

Labels,
TIME,CH1
-6.39607813e-08,1.99328125e-01
-6.39207812e-08,1.99275000e-01
-6.38807813e-08,1.99323438e-01
-6.38407812e-08,1.99278125e-01
-6.38007812e-08,1.99321875e-01
-6.37607812e-08,1.99276563e-01
-6.37207812e-08,1.99326562e-01
-6.36807813e-08,1.99268750e-01
-6.36407812e-08,1.99340625e-01
-6.36007813e-08,1.99235938e-01
-6.35607812e-08,1.99517187e-01
-6.35207812e-08,1.99743750e-01
-6.34807812e-08,1.99679688e-01
-6.34407812e-08,1.99710938e-01
-6.34007813e-08,1.99693750e-01
-6.33607812e-08,1.99703125e-01
-6.33207813e-08,1.99700000e-01
-6.32807812e-08,1.99698437e-01
-6.32407812e-08,1.99704688e-01
-6.32007812e-08,1.99693750e-01
-6.31607812e-08,1.99707812e-01
-6.31207813e-08,1.99689063e-01
-6.30807812e-08,1.99714063e-01
-6.30407813e-08,1.99679688e-01
-6.30007812e-08,1.99729688e-01
-6.29607812e-08,1.99645313e-01
-6.29207812e-08,1.99907813e-01
-6.28807812e-08,2.00153125e-01
-6.28407813e-08,2.00070313e-01
-6.28007812e-08,2.00120313e-01
-6.27607813e-08,2.00085938e-01
-6.27207812e-08,2.00110938e-01
-6.26807812e-08,2.00090625e-01
-6.26407812e-08,2.00106250e-01
-6.26007812e-08,2.00095313e-01
-6.25607813e-08,2.00104688e-01
-6.25207812e-08,2.00096875e-01
-6.24807813e-08,2.00101562e-01
-6.24407812e-08,2.00100000e-01
-6.24007812e-08,2.00100000e-01
-6.23607812e-08,2.00101562e-01
-6.23207812e-08,2.00096875e-01
-6.22807813e-08,2.00106250e-01
-6.22407812e-08,2.00090625e-01
-6.22007813e-08,2.00114063e-01
-6.21607812e-08,2.00076562e-01
-6.21207812e-08,2.00148437e-01
-6.20807812e-08,1.99898437e-01
-6.20407812e-08,1.99639063e-01
-6.20007813e-08,1.99737500e-01
-6.19607812e-08,1.99671875e-01
-6.19207812e-08,1.99723438e-01
-6.18807812e-08,1.99679688e-01
-6.18407812e-08,1.99718750e-01
-6.18007812e-08,1.99681250e-01
-6.17607812e-08,1.99718750e-01
-6.17207813e-08,1.99679688e-01
-6.16807812e-08,1.99721875e-01
-6.16407812e-08,1.99673437e-01
-6.16007812e-08,1.99734375e-01
-6.15607812e-08,1.99640625e-01
-6.15207812e-08,1.99912500e-01
-6.14807812e-08,2.00151563e-01
-6.14407813e-08,2.00071875e-01
-6.14007812e-08,2.00118750e-01
-6.13607812e-08,2.00085938e-01
-6.13207812e-08,2.00112500e-01
-6.12807812e-08,2.00089062e-01
-6.12407812e-08,2.00109375e-01
-6.12007812e-08,2.00090625e-01
-6.11607813e-08,2.00109375e-01
-6.11207812e-08,2.00089062e-01
-6.10807812e-08,2.00110938e-01
-6.10407812e-08,2.00087500e-01
-6.10007812e-08,2.00115625e-01
-6.09607812e-08,2.00079688e-01
-6.09207812e-08,2.00129688e-01
-6.08807813e-08,2.00045313e-01
-6.08407812e-08,2.00307813e-01
-6.08007812e-08,2.00554687e-01
-6.07607812e-08,2.00468750e-01
-6.07207812e-08,2.00521875e-01
-6.06807812e-08,2.00482812e-01
-6.06407812e-08,2.00514063e-01
-6.06007813e-08,2.00489063e-01
-6.05607812e-08,2.00510938e-01
-6.05207812e-08,2.00490625e-01
-6.04807812e-08,2.00507812e-01
-6.04407812e-08,2.00492188e-01
-6.04007812e-08,2.00507812e-01
-6.03607812e-08,2.00493750e-01
-6.03207813e-08,2.00506250e-01
-6.02807812e-08,2.00493750e-01
-6.02407812e-08,2.00506250e-01
-6.02007812e-08,2.00493750e-01
-6.01607812e-08,2.00504688e-01
-6.01207813e-08,2.00495313e-01
-6.00807812e-08,2.00504688e-01
-6.00407813e-08,2.00495313e-01
-6.00007812e-08,2.00504688e-01
-5.99607812e-08,2.00495313e-01
-5.99207812e-08,2.00504688e-01
-5.98807812e-08,2.00495313e-01
-5.98407813e-08,2.00504688e-01
-5.98007812e-08,2.00495313e-01
-5.97607813e-08,2.00504688e-01
-5.97207812e-08,2.00495313e-01
-5.96807812e-08,2.00504688e-01
-5.96407812e-08,2.00495313e-01
-5.96007812e-08,2.00504688e-01
-5.95607812e-08,2.00495313e-01
-5.95207812e-08,2.00504688e-01
-5.94807812e-08,2.00495313e-01
-5.94407812e-08,2.00504688e-01
-5.94007812e-08,2.00493750e-01
-5.93607812e-08,2.00506250e-01
-5.93207812e-08,2.00493750e-01
-5.92807812e-08,2.00506250e-01
-5.92407812e-08,2.00493750e-01
-5.92007812e-08,2.00507812e-01
-5.91607812e-08,2.00492188e-01
-5.91207812e-08,2.00509375e-01
-5.90807812e-08,2.00489063e-01
-5.90407812e-08,2.00512500e-01
-5.90007812e-08,2.00484375e-01
-5.89607812e-08,2.00520313e-01
-5.89207812e-08,2.00470312e-01
-5.88807812e-08,2.00554687e-01
-5.88407812e-08,2.00292187e-01
-5.88007812e-08,2.00045313e-01
-5.87607812e-08,2.00131250e-01
-5.87207812e-08,2.00076562e-01
-5.86807812e-08,2.00118750e-01
-5.86407812e-08,2.00084375e-01
-5.86007812e-08,2.00114063e-01
-5.85607812e-08,2.00085938e-01
-5.85207812e-08,2.00114063e-01
-5.84807812e-08,2.00085938e-01
-5.84407812e-08,2.00115625e-01
-5.84007812e-08,2.00081250e-01
-5.83607812e-08,2.00123438e-01
-5.83207812e-08,2.00067188e-01
-5.82807812e-08,2.00156250e-01
-5.82407812e-08,1.99890625e-01
-5.82007812e-08,1.99646875e-01
-5.81607812e-08,1.99729688e-01
-5.81207812e-08,1.99679688e-01
-5.80807812e-08,1.99715625e-01
-5.80407812e-08,1.99687500e-01
-5.80007812e-08,1.99710938e-01
-5.79607812e-08,1.99690625e-01
-5.79207812e-08,1.99707812e-01
-5.78807812e-08,1.99692188e-01
-5.78407812e-08,1.99706250e-01
-5.78007812e-08,1.99693750e-01
-5.77607812e-08,1.99706250e-01
-5.77207812e-08,1.99695312e-01
-5.76807812e-08,1.99704688e-01
-5.76407812e-08,1.99695312e-01
-5.76007812e-08,1.99704688e-01
-5.75607812e-08,1.99696875e-01
-5.75207812e-08,1.99703125e-01
-5.74807812e-08,1.99696875e-01
-5.74407812e-08,1.99701563e-01
-5.74007812e-08,1.99700000e-01
-5.73607812e-08,1.99698437e-01
-5.73207812e-08,1.99703125e-01
-5.72807812e-08,1.99692188e-01
-5.72407812e-08,1.99717188e-01
-5.72007812e-08,1.99657813e-01
-5.71607812e-08,1.99893750e-01
-5.71207812e-08,2.00170313e-01
-5.70807812e-08,2.00053125e-01
-5.70407812e-08,2.00140625e-01
-5.70007812e-08,2.00062500e-01
-5.69607812e-08,2.00137500e-01
-5.69207812e-08,2.00057813e-01
-5.68807812e-08,2.00150000e-01
-5.68407812e-08,2.00025000e-01
-5.68007812e-08,2.00328125e-01
-5.67607812e-08,2.00532813e-01
-5.67207812e-08,2.00492188e-01
-5.66807812e-08,2.00496875e-01
-5.66407812e-08,2.00510938e-01
-5.66007812e-08,2.00481250e-01
-5.65607812e-08,2.00531250e-01
-5.65207812e-08,2.00442188e-01
-5.64807812e-08,2.00712500e-01
-5.64407812e-08,2.00948438e-01
-5.64007812e-08,2.00876563e-01
-5.63607812e-08,2.00912500e-01
-5.63207812e-08,2.00895313e-01
-5.62807812e-08,2.00900000e-01
-5.62407812e-08,2.00906250e-01
-5.62007812e-08,2.00887500e-01
-5.61607812e-08,2.00923437e-01
-5.61207812e-08,2.00850000e-01
-5.60807812e-08,2.01104688e-01
-5.60407812e-08,2.01357813e-01
-5.60007812e-08,2.01267187e-01
-5.59607812e-08,2.01321875e-01
-5.59207812e-08,2.01282813e-01
-5.58807812e-08,2.01312500e-01
-5.58407812e-08,2.01290625e-01
-5.58007812e-08,2.01307813e-01
-5.57607812e-08,2.01295313e-01
-5.57207812e-08,2.01303125e-01
-5.56807812e-08,2.01298438e-01
-5.56407812e-08,2.01298438e-01
-5.56007812e-08,2.01306250e-01
-5.55607812e-08,2.01289063e-01
-5.55207812e-08,2.01321875e-01
-5.54807812e-08,2.01253125e-01
-5.54407812e-08,2.01500000e-01
-5.54007812e-08,2.01762500e-01
-5.53607812e-08,2.01662500e-01
-5.53207812e-08,2.01728125e-01
-5.52807812e-08,2.01676563e-01
-5.52407812e-08,2.01720312e-01
-5.52007812e-08,2.01682813e-01
-5.51607812e-08,2.01715625e-01
-5.51207812e-08,2.01685938e-01
-5.50807812e-08,2.01714063e-01
-5.50407812e-08,2.01687500e-01
-5.50007812e-08,2.01712500e-01
-5.49607812e-08,2.01689063e-01
-5.49207812e-08,2.01710938e-01
-5.48807812e-08,2.01689063e-01
-5.48407812e-08,2.01709375e-01
-5.48007812e-08,2.01690625e-01
-5.47607812e-08,2.01709375e-01
-5.47207812e-08,2.01690625e-01
-5.46807812e-08,2.01709375e-01
-5.46407812e-08,2.01692188e-01
-5.46007812e-08,2.01707812e-01
-5.45607812e-08,2.01692188e-01
-5.45207812e-08,2.01707812e-01
-5.44807812e-08,2.01692188e-01
-5.44407812e-08,2.01706250e-01
-5.44007812e-08,2.01693750e-01
-5.43607812e-08,2.01706250e-01
-5.43207812e-08,2.01693750e-01
-5.42807812e-08,2.01704688e-01
-5.42407812e-08,2.01695313e-01
-5.42007812e-08,2.01703125e-01
-5.41607812e-08,2.01698437e-01
-5.41207812e-08,2.01698437e-01
-5.40807812e-08,2.01706250e-01
-5.40407812e-08,2.01685938e-01
-5.40007812e-08,2.01739063e-01
-5.39607812e-08,2.01509375e-01
-5.39207812e-08,2.01228125e-01
-5.38807812e-08,2.01350000e-01
-5.38407812e-08,2.01257813e-01
-5.38007812e-08,2.01339062e-01
-5.37607812e-08,2.01259375e-01
-5.37207812e-08,2.01343750e-01
-5.36807812e-08,2.01246875e-01
-5.36407812e-08,2.01378125e-01
-5.36007812e-08,2.01068750e-01
-5.35607812e-08,2.00868750e-01
-5.35207812e-08,2.00906250e-01
-5.34807812e-08,2.00904688e-01
-5.34407812e-08,2.00885938e-01
-5.34007812e-08,2.00921875e-01
-5.33607812e-08,2.00867188e-01
-5.33207812e-08,2.00960938e-01
-5.32807812e-08,2.00684375e-01
-5.32407812e-08,2.00454688e-01
-5.32007812e-08,2.00520313e-01
-5.31607812e-08,2.00492188e-01
-5.31207812e-08,2.00500000e-01
-5.30807812e-08,2.00509375e-01
-5.30407812e-08,2.00479688e-01
-5.30007812e-08,2.00546875e-01
-5.29607812e-08,2.00298438e-01
-5.29207812e-08,2.00040625e-01
-5.28807812e-08,2.00134375e-01
-5.28407812e-08,2.00075000e-01
-5.28007812e-08,2.00118750e-01
-5.27607812e-08,2.00084375e-01
-5.27207812e-08,2.00114063e-01
-5.26807812e-08,2.00089062e-01
-5.26407812e-08,2.00110938e-01
-5.26007812e-08,2.00090625e-01
-5.25607812e-08,2.00107813e-01
-5.25207812e-08,2.00092188e-01
-5.24807812e-08,2.00106250e-01
-5.24407813e-08,2.00093750e-01
-5.24007812e-08,2.00106250e-01
-5.23607812e-08,2.00095313e-01
-5.23207812e-08,2.00104688e-01
-5.22807812e-08,2.00095313e-01
-5.22407812e-08,2.00104688e-01
-5.22007812e-08,2.00095313e-01
-5.21607812e-08,2.00103125e-01
-5.21207812e-08,2.00096875e-01
-5.20807812e-08,2.00103125e-01
-5.20407812e-08,2.00096875e-01
-5.20007812e-08,2.00103125e-01
-5.19607812e-08,2.00096875e-01
-5.19207812e-08,2.00103125e-01
-5.18807812e-08,2.00096875e-01
-5.18407812e-08,2.00103125e-01
-5.18007812e-08,2.00096875e-01
-5.17607812e-08,2.00103125e-01
-5.17207812e-08,2.00098438e-01
-5.16807812e-08,2.00101562e-01
-5.16407812e-08,2.00098438e-01
-5.16007812e-08,2.00101562e-01
-5.15607812e-08,2.00098438e-01
-5.15207812e-08,2.00101562e-01
-5.14807812e-08,2.00098438e-01
-5.14407812e-08,2.00101562e-01
-5.14007812e-08,2.00098438e-01
-5.13607812e-08,2.00101562e-01
-5.13207812e-08,2.00098438e-01
-5.12807812e-08,2.00101562e-01
-5.12407812e-08,2.00098438e-01
-5.12007812e-08,2.00101562e-01
-5.11607812e-08,2.00098438e-01
-5.11207812e-08,2.00101562e-01
-5.10807812e-08,2.00098438e-01
-5.10407812e-08,2.00101562e-01
-5.10007812e-08,2.00098438e-01
-5.09607812e-08,2.00101562e-01
-5.09207812e-08,2.00098438e-01
-5.08807812e-08,2.00103125e-01
-5.08407812e-08,2.00096875e-01
-5.08007812e-08,2.00103125e-01
-5.07607812e-08,2.00096875e-01
-5.07207812e-08,2.00103125e-01
-5.06807812e-08,2.00096875e-01
-5.06407812e-08,2.00103125e-01
-5.06007812e-08,2.00096875e-01
-5.05607812e-08,2.00104688e-01
-5.05207813e-08,2.00095313e-01
-5.04807812e-08,2.00104688e-01
-5.04407812e-08,2.00093750e-01
-5.04007812e-08,2.00106250e-01
-5.03607812e-08,2.00092188e-01
-5.03207812e-08,2.00109375e-01
-5.02807812e-08,2.00089062e-01
-5.02407812e-08,2.00114063e-01
-5.02007812e-08,2.00079688e-01
-5.01607812e-08,2.00129688e-01
-5.01207812e-08,2.00045313e-01
-5.00807812e-08,2.00307813e-01
-5.00407812e-08,2.00554687e-01
-5.00007812e-08,2.00468750e-01
-4.99607812e-08,2.00521875e-01
-4.99207812e-08,2.00484375e-01
-4.98807812e-08,2.00512500e-01
-4.98407812e-08,2.00489063e-01
-4.98007812e-08,2.00509375e-01
-4.97607812e-08,2.00492188e-01
-4.97207812e-08,2.00506250e-01
-4.96807812e-08,2.00493750e-01
-4.96407812e-08,2.00504688e-01
-4.96007812e-08,2.00496875e-01
-4.95607812e-08,2.00501563e-01
-4.95207812e-08,2.00500000e-01
-4.94807812e-08,2.00498438e-01
-4.94407812e-08,2.00504688e-01
-4.94007812e-08,2.00490625e-01
-4.93607812e-08,2.00518750e-01
-4.93207812e-08,2.00456250e-01
-4.92807812e-08,2.00696875e-01
-4.92407812e-08,2.00965625e-01
-4.92007812e-08,2.00857813e-01
-4.91607812e-08,2.00932813e-01
-4.91207812e-08,2.00871875e-01
-4.90807812e-08,2.00926563e-01
-4.90407812e-08,2.00875000e-01
-4.90007812e-08,2.00925000e-01
-4.89607812e-08,2.00875000e-01
-4.89207812e-08,2.00925000e-01
-4.88807813e-08,2.00873438e-01
-4.88407812e-08,2.00929688e-01
-4.88007812e-08,2.00865625e-01
-4.87607812e-08,2.00943750e-01
-4.87207812e-08,2.00831250e-01
-4.86807812e-08,2.01123438e-01
-4.86407812e-08,2.01339062e-01
-4.86007813e-08,2.01284375e-01
-4.85607812e-08,2.01304687e-01
-4.85207812e-08,2.01300000e-01
-4.84807812e-08,2.01295313e-01
-4.84407812e-08,2.01307813e-01
-4.84007812e-08,2.01287500e-01
-4.83607812e-08,2.01315625e-01
-4.83207813e-08,2.01278125e-01
-4.82807812e-08,2.01332813e-01
-4.82407812e-08,2.01240625e-01
-4.82007812e-08,2.01512500e-01
-4.81607812e-08,2.01748438e-01
-4.81207812e-08,2.01676563e-01
-4.80807812e-08,2.01714063e-01
-4.80407812e-08,2.01693750e-01
-4.80007812e-08,2.01701563e-01
-4.79607812e-08,2.01703125e-01
-4.79207812e-08,2.01690625e-01
-4.78807812e-08,2.01720312e-01
-4.78407812e-08,2.01654688e-01
-4.78007812e-08,2.01898437e-01
-4.77607812e-08,2.02164063e-01
-4.77207812e-08,2.02059375e-01
-4.76807812e-08,2.02132813e-01
-4.76407812e-08,2.02071875e-01
-4.76007812e-08,2.02128125e-01
-4.75607812e-08,2.02068750e-01
-4.75207812e-08,2.02139063e-01
-4.74807812e-08,2.02037500e-01
-4.74407812e-08,2.02314063e-01
-4.74007812e-08,2.02548438e-01
-4.73607812e-08,2.02473438e-01
-4.73207812e-08,2.02517188e-01
-4.72807812e-08,2.02487500e-01
-4.72407812e-08,2.02510938e-01
-4.72007812e-08,2.02490625e-01
-4.71607812e-08,2.02507812e-01
-4.71207812e-08,2.02492188e-01
-4.70807812e-08,2.02507812e-01
-4.70407812e-08,2.02492188e-01
-4.70007812e-08,2.02507812e-01
-4.69607813e-08,2.02492188e-01
-4.69207812e-08,2.02509375e-01
-4.68807812e-08,2.02490625e-01
-4.68407812e-08,2.02510938e-01
-4.68007812e-08,2.02485938e-01
-4.67607812e-08,2.02521875e-01
-4.67207812e-08,2.02459375e-01
-4.66807813e-08,2.02684375e-01
-4.66407812e-08,2.03001563e-01
-4.66007812e-08,2.02668750e-01
-4.65607812e-08,2.02459375e-01
-4.65207812e-08,2.02521875e-01
-4.64807812e-08,2.02482812e-01
-4.64407812e-08,2.02514063e-01
-4.64007813e-08,2.02487500e-01
-4.63607812e-08,2.02512500e-01
-4.63207812e-08,2.02487500e-01
-4.62807812e-08,2.02512500e-01
-4.62407812e-08,2.02485938e-01
-4.62007812e-08,2.02514063e-01
-4.61607812e-08,2.02484375e-01
-4.61207813e-08,2.02517188e-01
-4.60807812e-08,2.02481250e-01
-4.60407812e-08,2.02520313e-01
-4.60007812e-08,2.02476563e-01
-4.59607812e-08,2.02529687e-01
-4.59207812e-08,2.02459375e-01
-4.58807812e-08,2.02565625e-01
-4.58407812e-08,2.02281250e-01
-4.58007812e-08,2.02057813e-01
-4.57607812e-08,2.02117188e-01
-4.57207812e-08,2.02093750e-01
-4.56807812e-08,2.02100000e-01
-4.56407812e-08,2.02106250e-01
-4.56007812e-08,2.02089062e-01
-4.55607812e-08,2.02118750e-01
-4.55207812e-08,2.02070313e-01
-4.54807812e-08,2.02156250e-01
-4.54407812e-08,2.01889062e-01
-4.54007812e-08,2.01650000e-01
-4.53607812e-08,2.01725000e-01
-4.53207812e-08,2.01685938e-01
-4.52807812e-08,2.01706250e-01
-4.52407812e-08,2.01700000e-01
-4.52007812e-08,2.01695313e-01
-4.51607812e-08,2.01712500e-01
-4.51207812e-08,2.01676563e-01
-4.50807812e-08,2.01750000e-01
-4.50407813e-08,2.01495312e-01
-4.50007812e-08,2.01243750e-01
-4.49607812e-08,2.01331250e-01
-4.49207812e-08,2.01279687e-01
-4.48807812e-08,2.01312500e-01
-4.48407812e-08,2.01292187e-01
-4.48007812e-08,2.01301563e-01
-4.47607813e-08,2.01304687e-01
-4.47207812e-08,2.01284375e-01
-4.46807812e-08,2.01342188e-01
-4.46407812e-08,2.01103125e-01
-4.46007812e-08,2.00834375e-01
-4.45607812e-08,2.00940625e-01
-4.45207812e-08,2.00870313e-01
-4.44807813e-08,2.00925000e-01
-4.44407812e-08,2.00878125e-01
-4.44007812e-08,2.00918750e-01
-4.43607812e-08,2.00882813e-01
-4.43207812e-08,2.00915625e-01
-4.42807812e-08,2.00885938e-01
-4.42407812e-08,2.00912500e-01
-4.42007813e-08,2.00887500e-01
-4.41607812e-08,2.00910937e-01
-4.41207812e-08,2.00889062e-01
-4.40807812e-08,2.00909375e-01
-4.40407812e-08,2.00890625e-01
-4.40007812e-08,2.00907813e-01
-4.39607812e-08,2.00892188e-01
-4.39207813e-08,2.00907813e-01
-4.38807812e-08,2.00893750e-01
-4.38407812e-08,2.00906250e-01
-4.38007812e-08,2.00895313e-01
-4.37607812e-08,2.00904688e-01
-4.37207812e-08,2.00896875e-01
-4.36807812e-08,2.00901563e-01
-4.36407812e-08,2.00900000e-01
-4.36007812e-08,2.00898437e-01
-4.35607812e-08,2.00904688e-01
-4.35207812e-08,2.00890625e-01
-4.34807812e-08,2.00920313e-01
-4.34407812e-08,2.00856250e-01
-4.34007812e-08,2.01096875e-01
-4.33607812e-08,2.01365625e-01
-4.33207812e-08,2.01257813e-01
-4.32807812e-08,2.01332813e-01
-4.32407812e-08,2.01271875e-01
-4.32007812e-08,2.01325000e-01
-4.31607812e-08,2.01275000e-01
-4.31207813e-08,2.01325000e-01
-4.30807812e-08,2.01275000e-01
-4.30407812e-08,2.01326563e-01
-4.30007812e-08,2.01268750e-01
-4.29607812e-08,2.01339062e-01
-4.29207812e-08,2.01235938e-01
-4.28807812e-08,2.01515625e-01
-4.28407813e-08,2.01746875e-01
-4.28007812e-08,2.01676563e-01
-4.27607812e-08,2.01715625e-01
-4.27207812e-08,2.01689063e-01
-4.26807812e-08,2.01709375e-01
-4.26407812e-08,2.01690625e-01
-4.26007812e-08,2.01709375e-01
-4.25607813e-08,2.01690625e-01
-4.25207812e-08,2.01712500e-01
-4.24807812e-08,2.01682813e-01
-4.24407812e-08,2.01726563e-01
-4.24007812e-08,2.01650000e-01
-4.23607812e-08,2.01903125e-01
-4.23207812e-08,2.02159375e-01
-4.22807813e-08,2.02064063e-01
-4.22407812e-08,2.02126562e-01
-4.22007812e-08,2.02078125e-01
-4.21607812e-08,2.02118750e-01
-4.21207812e-08,2.02082813e-01
-4.20807812e-08,2.02115625e-01
-4.20407812e-08,2.02084375e-01
-4.20007813e-08,2.02114062e-01
-4.19607812e-08,2.02085938e-01
-4.19207812e-08,2.02114062e-01
-4.18807812e-08,2.02087500e-01
-4.18407812e-08,2.02112500e-01
-4.18007812e-08,2.02087500e-01
-4.17607812e-08,2.02112500e-01
-4.17207813e-08,2.02087500e-01
-4.16807812e-08,2.02112500e-01
-4.16407812e-08,2.02087500e-01
-4.16007812e-08,2.02112500e-01
-4.15607812e-08,2.02087500e-01
-4.15207812e-08,2.02114062e-01
-4.14807812e-08,2.02085938e-01
-4.14407812e-08,2.02114062e-01
-4.14007812e-08,2.02085938e-01
-4.13607812e-08,2.02115625e-01
-4.13207812e-08,2.02084375e-01
-4.12807812e-08,2.02117188e-01
-4.12407812e-08,2.02081250e-01
-4.12007813e-08,2.02121875e-01
-4.11607812e-08,2.02075000e-01
-4.11207812e-08,2.02129688e-01
-4.10807812e-08,2.02060938e-01
-4.10407812e-08,2.02164063e-01
-4.10007812e-08,2.01882813e-01
-4.09607812e-08,2.01656250e-01
-4.09207813e-08,2.01720312e-01
-4.08807812e-08,2.01689063e-01
-4.08407812e-08,2.01704688e-01
-4.08007812e-08,2.01698437e-01
-4.07607812e-08,2.01700000e-01
-4.07207812e-08,2.01703125e-01
-4.06807812e-08,2.01695313e-01
-4.06407813e-08,2.01706250e-01
-4.06007812e-08,2.01690625e-01
-4.05607812e-08,2.01710938e-01
-4.05207812e-08,2.01684375e-01
-4.04807812e-08,2.01720312e-01
-4.04407812e-08,2.01670313e-01
-4.04007812e-08,2.01756250e-01
-4.03607813e-08,2.01490625e-01
-4.03207812e-08,2.01246875e-01
-4.02807812e-08,2.01329688e-01
-4.02407812e-08,2.01281250e-01
-4.02007812e-08,2.01314063e-01
-4.01607812e-08,2.01289063e-01
-4.01207812e-08,2.01309375e-01
-4.00807813e-08,2.01292187e-01
-4.00407812e-08,2.01306250e-01
-4.00007812e-08,2.01295313e-01
-3.99607812e-08,2.01304687e-01
-3.99207812e-08,2.01296875e-01
-3.98807812e-08,2.01303125e-01
-3.98407812e-08,2.01296875e-01
-3.98007813e-08,2.01303125e-01
-3.97607812e-08,2.01298438e-01
-3.97207812e-08,2.01301563e-01
-3.96807812e-08,2.01298438e-01
-3.96407812e-08,2.01301563e-01
-3.96007812e-08,2.01298438e-01
-3.95607812e-08,2.01301563e-01
-3.95207813e-08,2.01300000e-01
-3.94807812e-08,2.01300000e-01
-3.94407812e-08,2.01300000e-01
-3.94007812e-08,2.01300000e-01
-3.93607812e-08,2.01300000e-01
-3.93207812e-08,2.01300000e-01
-3.92807813e-08,2.01300000e-01
-3.92407812e-08,2.01300000e-01
-3.92007812e-08,2.01300000e-01
-3.91607812e-08,2.01300000e-01
-3.91207812e-08,2.01300000e-01
-3.90807812e-08,2.01298438e-01
-3.90407812e-08,2.01301563e-01
-3.90007813e-08,2.01298438e-01
-3.89607812e-08,2.01301563e-01
-3.89207812e-08,2.01298438e-01
-3.88807812e-08,2.01301563e-01
-3.88407812e-08,2.01298438e-01
-3.88007812e-08,2.01301563e-01
-3.87607812e-08,2.01298438e-01
-3.87207813e-08,2.01301563e-01
-3.86807812e-08,2.01298438e-01
-3.86407812e-08,2.01301563e-01
-3.86007812e-08,2.01298438e-01
-3.85607812e-08,2.01301563e-01
-3.85207812e-08,2.01298438e-01
