trails/00e0f0a1771ea1cc81b4999437018e02/aes_ch1_20250506172742750.csv

Model,MSO66B
Label,
Waveform Type,ANALOG
Horizontal Units,s
Sample Interval,4.00000000e-11
Record Length,10000
Zero Index,1599.08984375
Vertical Units,A
ANALOG_Thumbnail,
yOffset,1.84500000e-01
yPosition,8.40000000e-01

Labels,
TIME,CH1
-6.39635937e-08,1.80843750e-01
-6.39235937e-08,1.81109375e-01
-6.38835938e-08,1.81353125e-01
-6.38435937e-08,1.81270313e-01
-6.38035938e-08,1.81320312e-01
-6.37635937e-08,1.81284375e-01
-6.37235937e-08,1.81312500e-01
-6.36835937e-08,1.81289063e-01
-6.36435937e-08,1.81309375e-01
-6.36035938e-08,1.81292188e-01
-6.35635937e-08,1.81307812e-01
-6.35235938e-08,1.81292188e-01
-6.34835937e-08,1.81307812e-01
-6.34435937e-08,1.81292188e-01
-6.34035937e-08,1.81309375e-01
-6.33635937e-08,1.81290625e-01
-6.33235938e-08,1.81310938e-01
-6.32835937e-08,1.81287500e-01
-6.32435938e-08,1.81315625e-01
-6.32035937e-08,1.81279688e-01
-6.31635937e-08,1.81329688e-01
-6.31235937e-08,1.81245313e-01
-6.30835937e-08,1.81507813e-01
-6.30435938e-08,1.81753125e-01
-6.30035937e-08,1.81670313e-01
-6.29635938e-08,1.81718750e-01
-6.29235937e-08,1.81685938e-01
-6.28835937e-08,1.81709375e-01
-6.28435937e-08,1.81695313e-01
-6.28035937e-08,1.81698438e-01
-6.27635938e-08,1.81710938e-01
-6.27235937e-08,1.81664063e-01
-6.26835938e-08,1.81889063e-01
-6.26435937e-08,1.82173438e-01
-6.26035937e-08,1.82048437e-01
-6.25635937e-08,1.82143750e-01
-6.25235937e-08,1.82059375e-01
-6.24835938e-08,1.82140625e-01
-6.24435937e-08,1.82054688e-01
-6.24035938e-08,1.82153125e-01
-6.23635937e-08,1.82021875e-01
-6.23235937e-08,1.82331250e-01
-6.22835937e-08,1.82529688e-01
-6.22435937e-08,1.82495313e-01
-6.22035938e-08,1.82493750e-01
-6.21635937e-08,1.82514063e-01
-6.21235937e-08,1.82478125e-01
-6.20835937e-08,1.82534375e-01
-6.20435937e-08,1.82439062e-01
-6.20035937e-08,1.82715625e-01
-6.19635937e-08,1.82945313e-01
-6.19235938e-08,1.82879687e-01
-6.18835937e-08,1.82909375e-01
-6.18435937e-08,1.82896875e-01
-6.18035937e-08,1.82896875e-01
-6.17635937e-08,1.82907813e-01
-6.17235937e-08,1.82884375e-01
-6.16835937e-08,1.82926563e-01
-6.16435938e-08,1.82846875e-01
-6.16035937e-08,1.83106250e-01
-6.15635937e-08,1.83354688e-01
-6.15235937e-08,1.83270313e-01
-6.14835937e-08,1.83318750e-01
-6.14435937e-08,1.83285937e-01
-6.14035937e-08,1.83309375e-01
-6.13635938e-08,1.83293750e-01
-6.13235937e-08,1.83303125e-01
-6.12835937e-08,1.83300000e-01
-6.12435937e-08,1.83296875e-01
-6.12035937e-08,1.83306250e-01
-6.11635937e-08,1.83287500e-01
-6.11235937e-08,1.83323438e-01
-6.10835938e-08,1.83251563e-01
-6.10435937e-08,1.83501562e-01
-6.10035937e-08,1.83759375e-01
-6.09635937e-08,1.83664063e-01
-6.09235937e-08,1.83726562e-01
-6.08835937e-08,1.83679687e-01
-6.08435937e-08,1.83717188e-01
-6.08035938e-08,1.83684375e-01
-6.07635937e-08,1.83712500e-01
-6.07235937e-08,1.83687500e-01
-6.06835937e-08,1.83710938e-01
-6.06435937e-08,1.83690625e-01
-6.06035937e-08,1.83709375e-01
-6.05635937e-08,1.83692187e-01
-6.05235938e-08,1.83707813e-01
-6.04835937e-08,1.83692187e-01
-6.04435937e-08,1.83706250e-01
-6.04035937e-08,1.83693750e-01
-6.03635937e-08,1.83706250e-01
-6.03235938e-08,1.83693750e-01
-6.02835937e-08,1.83706250e-01
-6.02435938e-08,1.83695313e-01
-6.02035937e-08,1.83704688e-01
-6.01635937e-08,1.83695313e-01
-6.01235937e-08,1.83704688e-01
-6.00835937e-08,1.83695313e-01
-6.00435938e-08,1.83704688e-01
-6.00035937e-08,1.83696875e-01
-5.99635938e-08,1.83703125e-01
-5.99235937e-08,1.83696875e-01
-5.98835937e-08,1.83703125e-01
-5.98435937e-08,1.83696875e-01
-5.98035937e-08,1.83703125e-01
-5.97635938e-08,1.83698438e-01
-5.97235937e-08,1.83701562e-01
-5.96835938e-08,1.83698438e-01
-5.96435937e-08,1.83701562e-01
-5.96035937e-08,1.83698438e-01
-5.95635937e-08,1.83700000e-01
-5.95235937e-08,1.83700000e-01
-5.94835937e-08,1.83700000e-01
-5.94435937e-08,1.83700000e-01
-5.94035937e-08,1.83698438e-01
-5.93635937e-08,1.83701562e-01
-5.93235937e-08,1.83696875e-01
-5.92835937e-08,1.83704688e-01
-5.92435937e-08,1.83693750e-01
-5.92035937e-08,1.83707813e-01
-5.91635937e-08,1.83689062e-01
-5.91235937e-08,1.83715625e-01
-5.90835937e-08,1.83675000e-01
-5.90435937e-08,1.83750000e-01
-5.90035937e-08,1.83496875e-01
-5.89635937e-08,1.83240625e-01
-5.89235937e-08,1.83335938e-01
-5.88835937e-08,1.83273437e-01
-5.88435937e-08,1.83321875e-01
-5.88035937e-08,1.83281250e-01
-5.87635937e-08,1.83315625e-01
-5.87235937e-08,1.83284375e-01
-5.86835937e-08,1.83314063e-01
-5.86435937e-08,1.83285937e-01
-5.86035937e-08,1.83314063e-01
-5.85635937e-08,1.83287500e-01
-5.85235937e-08,1.83314063e-01
-5.84835937e-08,1.83285937e-01
-5.84435937e-08,1.83314063e-01
-5.84035937e-08,1.83284375e-01
-5.83635937e-08,1.83317188e-01
-5.83235937e-08,1.83279688e-01
-5.82835937e-08,1.83323438e-01
-5.82435937e-08,1.83267188e-01
-5.82035937e-08,1.83357812e-01
-5.81635937e-08,1.83089063e-01
-5.81235937e-08,1.82848438e-01
-5.80835937e-08,1.82929687e-01
-5.80435937e-08,1.82879687e-01
-5.80035937e-08,1.82915625e-01
-5.79635937e-08,1.82885938e-01
-5.79235937e-08,1.82912500e-01
-5.78835937e-08,1.82887500e-01
-5.78435937e-08,1.82914063e-01
-5.78035937e-08,1.82882813e-01
-5.77635937e-08,1.82920313e-01
-5.77235937e-08,1.82870313e-01
-5.76835937e-08,1.82954688e-01
-5.76435937e-08,1.82693750e-01
-5.76035937e-08,1.82443750e-01
-5.75635937e-08,1.82532813e-01
-5.75235937e-08,1.82476562e-01
-5.74835937e-08,1.82518750e-01
-5.74435937e-08,1.82484375e-01
-5.74035937e-08,1.82514063e-01
-5.73635937e-08,1.82487500e-01
-5.73235937e-08,1.82512500e-01
-5.72835937e-08,1.82489063e-01
-5.72435937e-08,1.82510937e-01
-5.72035937e-08,1.82489063e-01
-5.71635937e-08,1.82510937e-01
-5.71235937e-08,1.82489063e-01
-5.70835937e-08,1.82510937e-01
-5.70435937e-08,1.82489063e-01
-5.70035937e-08,1.82510937e-01
-5.69635937e-08,1.82487500e-01
-5.69235937e-08,1.82512500e-01
-5.68835937e-08,1.82485938e-01
-5.68435937e-08,1.82515625e-01
-5.68035937e-08,1.82482813e-01
-5.67635937e-08,1.82520313e-01
-5.67235937e-08,1.82475000e-01
-5.66835937e-08,1.82535937e-01
-5.66435937e-08,1.82439062e-01
-5.66035937e-08,1.82714062e-01
-5.65635937e-08,1.82948438e-01
-5.65235937e-08,1.82875000e-01
-5.64835937e-08,1.82915625e-01
-5.64435937e-08,1.82890625e-01
-5.64035937e-08,1.82906250e-01
-5.63635937e-08,1.82895313e-01
-5.63235937e-08,1.82901563e-01
-5.62835937e-08,1.82900000e-01
-5.62435937e-08,1.82898438e-01
-5.62035937e-08,1.82903125e-01
-5.61635937e-08,1.82893750e-01
-5.61235937e-08,1.82909375e-01
-5.60835937e-08,1.82885938e-01
-5.60435937e-08,1.82925000e-01
-5.60035937e-08,1.82850000e-01
-5.59635937e-08,1.83103125e-01
-5.59235937e-08,1.83359375e-01
-5.58835937e-08,1.83264063e-01
-5.58435937e-08,1.83326563e-01
-5.58035937e-08,1.83278125e-01
-5.57635937e-08,1.83318750e-01
-5.57235937e-08,1.83282813e-01
-5.56835937e-08,1.83317188e-01
-5.56435937e-08,1.83284375e-01
-5.56035937e-08,1.83315625e-01
-5.55635937e-08,1.83282813e-01
-5.55235937e-08,1.83317188e-01
-5.54835937e-08,1.83281250e-01
-5.54435937e-08,1.83321875e-01
-5.54035937e-08,1.83273437e-01
-5.53635937e-08,1.83335938e-01
-5.53235937e-08,1.83239062e-01
-5.52835937e-08,1.83512500e-01
-5.52435937e-08,1.83750000e-01
-5.52035937e-08,1.83675000e-01
-5.51635937e-08,1.83715625e-01
-5.51235937e-08,1.83689062e-01
-5.50835937e-08,1.83709375e-01
-5.50435937e-08,1.83693750e-01
-5.50035937e-08,1.83704688e-01
-5.49635937e-08,1.83695313e-01
-5.49235937e-08,1.83703125e-01
-5.48835937e-08,1.83696875e-01
-5.48435937e-08,1.83701562e-01
-5.48035937e-08,1.83698438e-01
-5.47635937e-08,1.83701562e-01
-5.47235937e-08,1.83698438e-01
-5.46835937e-08,1.83700000e-01
-5.46435937e-08,1.83700000e-01
-5.46035937e-08,1.83700000e-01
-5.45635937e-08,1.83700000e-01
-5.45235937e-08,1.83700000e-01
-5.44835937e-08,1.83700000e-01
-5.44435937e-08,1.83698438e-01
-5.44035937e-08,1.83701562e-01
-5.43635937e-08,1.83698438e-01
-5.43235937e-08,1.83701562e-01
-5.42835937e-08,1.83698438e-01
-5.42435937e-08,1.83701562e-01
-5.42035937e-08,1.83696875e-01
-5.41635937e-08,1.83703125e-01
-5.41235937e-08,1.83696875e-01
-5.40835937e-08,1.83703125e-01
-5.40435937e-08,1.83695313e-01
-5.40035937e-08,1.83704688e-01
-5.39635937e-08,1.83695313e-01
-5.39235937e-08,1.83706250e-01
-5.38835937e-08,1.83693750e-01
-5.38435937e-08,1.83707813e-01
-5.38035937e-08,1.83692187e-01
-5.37635937e-08,1.83709375e-01
-5.37235937e-08,1.83689062e-01
-5.36835937e-08,1.83714062e-01
-5.36435937e-08,1.83682813e-01
-5.36035937e-08,1.83721875e-01
-5.35635937e-08,1.83667187e-01
-5.35235937e-08,1.83757813e-01
-5.34835937e-08,1.83487500e-01
-5.34435937e-08,1.83250000e-01
-5.34035937e-08,1.83325000e-01
-5.33635937e-08,1.83285937e-01
-5.33235937e-08,1.83307813e-01
-5.32835937e-08,1.83296875e-01
-5.32435937e-08,1.83296875e-01
-5.32035937e-08,1.83309375e-01
-5.31635937e-08,1.83279688e-01
-5.31235937e-08,1.83346875e-01
-5.30835937e-08,1.83098438e-01
-5.30435937e-08,1.82840625e-01
-5.30035937e-08,1.82934375e-01
-5.29635937e-08,1.82878125e-01
-5.29235938e-08,1.82914063e-01
-5.28835937e-08,1.82893750e-01
-5.28435937e-08,1.82895313e-01
-5.28035937e-08,1.82929687e-01
-5.27635937e-08,1.82715625e-01
-5.27235937e-08,1.82421875e-01
-5.26835937e-08,1.82554688e-01
-5.26435937e-08,1.82453125e-01
-5.26035937e-08,1.82543750e-01
-5.25635937e-08,1.82456250e-01
-5.25235937e-08,1.82546875e-01
-5.24835937e-08,1.82445313e-01
-5.24435937e-08,1.82578125e-01
-5.24035937e-08,1.82270313e-01
-5.23635937e-08,1.82067188e-01
-5.23235937e-08,1.82107812e-01
-5.22835937e-08,1.82101563e-01
-5.22435937e-08,1.82093750e-01
-5.22035937e-08,1.82109375e-01
-5.21635937e-08,1.82085938e-01
-5.21235937e-08,1.82117187e-01
-5.20835937e-08,1.82079688e-01
-5.20435937e-08,1.82126563e-01
-5.20035937e-08,1.82062500e-01
-5.19635937e-08,1.82162500e-01
-5.19235937e-08,1.81884375e-01
-5.18835937e-08,1.81654687e-01
-5.18435937e-08,1.81721875e-01
-5.18035937e-08,1.81689062e-01
-5.17635937e-08,1.81706250e-01
-5.17235937e-08,1.81698438e-01
-5.16835937e-08,1.81698438e-01
-5.16435937e-08,1.81704688e-01
-5.16035937e-08,1.81692188e-01
-5.15635937e-08,1.81710938e-01
-5.15235937e-08,1.81682813e-01
-5.14835937e-08,1.81726562e-01
-5.14435937e-08,1.81648438e-01
-5.14035937e-08,1.81906250e-01
-5.13635937e-08,1.82156250e-01
-5.13235937e-08,1.82067188e-01
-5.12835937e-08,1.82123438e-01
-5.12435937e-08,1.82081250e-01
-5.12035937e-08,1.82115625e-01
-5.11635937e-08,1.82085938e-01
-5.11235937e-08,1.82112500e-01
-5.10835937e-08,1.82087500e-01
-5.10435937e-08,1.82112500e-01
-5.10035938e-08,1.82085938e-01
-5.09635937e-08,1.82115625e-01
-5.09235937e-08,1.82079688e-01
-5.08835937e-08,1.82129687e-01
-5.08435937e-08,1.82046875e-01
-5.08035937e-08,1.82306250e-01
-5.07635937e-08,1.82557812e-01
-5.07235938e-08,1.82465625e-01
-5.06835937e-08,1.82525000e-01
-5.06435937e-08,1.82478125e-01
-5.06035937e-08,1.82520313e-01
-5.05635937e-08,1.82481250e-01
-5.05235937e-08,1.82520313e-01
-5.04835937e-08,1.82479688e-01
-5.04435937e-08,1.82523437e-01
-5.04035937e-08,1.82471875e-01
-5.03635937e-08,1.82537500e-01
-5.03235937e-08,1.82437500e-01
-5.02835937e-08,1.82714062e-01
-5.02435937e-08,1.82946875e-01
-5.02035937e-08,1.82876563e-01
-5.01635937e-08,1.82914063e-01
-5.01235937e-08,1.82890625e-01
-5.00835937e-08,1.82906250e-01
-5.00435937e-08,1.82896875e-01
-5.00035937e-08,1.82901563e-01
-4.99635937e-08,1.82900000e-01
-4.99235937e-08,1.82900000e-01
-4.98835937e-08,1.82901563e-01
-4.98435937e-08,1.82896875e-01
-4.98035937e-08,1.82904687e-01
-4.97635937e-08,1.82893750e-01
-4.97235937e-08,1.82909375e-01
-4.96835937e-08,1.82887500e-01
-4.96435937e-08,1.82917187e-01
-4.96035937e-08,1.82873438e-01
-4.95635937e-08,1.82951562e-01
-4.95235937e-08,1.82695313e-01
-4.94835937e-08,1.82442188e-01
-4.94435937e-08,1.82534375e-01
-4.94035937e-08,1.82475000e-01
-4.93635937e-08,1.82520313e-01
-4.93235937e-08,1.82481250e-01
-4.92835937e-08,1.82518750e-01
-4.92435937e-08,1.82479688e-01
-4.92035937e-08,1.82523437e-01
-4.91635937e-08,1.82468750e-01
-4.91235937e-08,1.82554688e-01
-4.90835938e-08,1.82293750e-01
-4.90435937e-08,1.82042188e-01
-4.90035937e-08,1.82135938e-01
-4.89635937e-08,1.82071875e-01
-4.89235937e-08,1.82126563e-01
-4.88835937e-08,1.82073438e-01
-4.88435937e-08,1.82129687e-01
-4.88035938e-08,1.82060938e-01
-4.87635937e-08,1.82164063e-01
-4.87235937e-08,1.81884375e-01
-4.86835937e-08,1.81654687e-01
-4.86435937e-08,1.81721875e-01
-4.86035937e-08,1.81689062e-01
-4.85635937e-08,1.81704688e-01
-4.85235938e-08,1.81700000e-01
-4.84835937e-08,1.81695313e-01
-4.84435937e-08,1.81710938e-01
-4.84035937e-08,1.81678125e-01
-4.83635937e-08,1.81746875e-01
-4.83235937e-08,1.81500000e-01
-4.82835937e-08,1.81239063e-01
-4.82435937e-08,1.81337500e-01
-4.82035937e-08,1.81271875e-01
-4.81635937e-08,1.81321875e-01
-4.81235937e-08,1.81281250e-01
-4.80835937e-08,1.81317188e-01
-4.80435937e-08,1.81284375e-01
-4.80035937e-08,1.81314063e-01
-4.79635937e-08,1.81285937e-01
-4.79235937e-08,1.81312500e-01
-4.78835937e-08,1.81287500e-01
-4.78435937e-08,1.81312500e-01
-4.78035937e-08,1.81287500e-01
-4.77635937e-08,1.81314063e-01
-4.77235937e-08,1.81285937e-01
-4.76835937e-08,1.81315625e-01
-4.76435937e-08,1.81282813e-01
-4.76035937e-08,1.81318750e-01
-4.75635937e-08,1.81276563e-01
-4.75235937e-08,1.81332812e-01
-4.74835937e-08,1.81242188e-01
-4.74435937e-08,1.81510937e-01
-4.74035937e-08,1.81753125e-01
-4.73635937e-08,1.81670313e-01
-4.73235937e-08,1.81720313e-01
-4.72835937e-08,1.81684375e-01
-4.72435937e-08,1.81714062e-01
-4.72035937e-08,1.81685938e-01
-4.71635938e-08,1.81714062e-01
-4.71235937e-08,1.81685938e-01
-4.70835937e-08,1.81715625e-01
-4.70435937e-08,1.81679688e-01
-4.70035937e-08,1.81729688e-01
-4.69635937e-08,1.81646875e-01
-4.69235937e-08,1.81906250e-01
-4.68835938e-08,1.82156250e-01
-4.68435937e-08,1.82065625e-01
-4.68035937e-08,1.82125000e-01
-4.67635937e-08,1.82078125e-01
-4.67235937e-08,1.82120313e-01
-4.66835937e-08,1.82079688e-01
-4.66435937e-08,1.82121875e-01
-4.66035938e-08,1.82075000e-01
-4.65635937e-08,1.82134375e-01
-4.65235937e-08,1.82042188e-01
-4.64835937e-08,1.82309375e-01
-4.64435937e-08,1.82553125e-01
-4.64035937e-08,1.82470313e-01
-4.63635937e-08,1.82521875e-01
-4.63235938e-08,1.82482813e-01
-4.62835937e-08,1.82515625e-01
-4.62435937e-08,1.82485938e-01
-4.62035937e-08,1.82514063e-01
-4.61635937e-08,1.82484375e-01
-4.61235937e-08,1.82518750e-01
-4.60835937e-08,1.82476562e-01
-4.60435937e-08,1.82531250e-01
-4.60035937e-08,1.82443750e-01
-4.59635937e-08,1.82709375e-01
-4.59235937e-08,1.82953125e-01
-4.58835937e-08,1.82870313e-01
-4.58435937e-08,1.82920313e-01
-4.58035937e-08,1.82884375e-01
-4.57635937e-08,1.82912500e-01
-4.57235937e-08,1.82889063e-01
-4.56835937e-08,1.82909375e-01
-4.56435937e-08,1.82892187e-01
-4.56035937e-08,1.82907813e-01
-4.55635937e-08,1.82893750e-01
-4.55235937e-08,1.82906250e-01
-4.54835937e-08,1.82893750e-01
-4.54435937e-08,1.82906250e-01
-4.54035937e-08,1.82895313e-01
-4.53635937e-08,1.82904687e-01
-4.53235937e-08,1.82895313e-01
-4.52835937e-08,1.82904687e-01
-4.52435938e-08,1.82895313e-01
-4.52035937e-08,1.82904687e-01
-4.51635937e-08,1.82895313e-01
-4.51235937e-08,1.82904687e-01
-4.50835937e-08,1.82895313e-01
-4.50435937e-08,1.82904687e-01
-4.50035937e-08,1.82895313e-01
-4.49635938e-08,1.82903125e-01
-4.49235937e-08,1.82896875e-01
-4.48835937e-08,1.82903125e-01
-4.48435937e-08,1.82896875e-01
-4.48035937e-08,1.82903125e-01
-4.47635937e-08,1.82896875e-01
-4.47235937e-08,1.82903125e-01
-4.46835938e-08,1.82896875e-01
-4.46435937e-08,1.82903125e-01
-4.46035937e-08,1.82896875e-01
-4.45635937e-08,1.82903125e-01
-4.45235937e-08,1.82896875e-01
-4.44835937e-08,1.82903125e-01
-4.44435937e-08,1.82896875e-01
-4.44035938e-08,1.82903125e-01
-4.43635937e-08,1.82896875e-01
-4.43235937e-08,1.82903125e-01
-4.42835937e-08,1.82896875e-01
-4.42435937e-08,1.82903125e-01
-4.42035937e-08,1.82896875e-01
-4.41635937e-08,1.82903125e-01
-4.41235938e-08,1.82896875e-01
-4.40835937e-08,1.82903125e-01
-4.40435937e-08,1.82896875e-01
-4.40035937e-08,1.82903125e-01
-4.39635937e-08,1.82896875e-01
-4.39235937e-08,1.82903125e-01
-4.38835937e-08,1.82896875e-01
-4.38435937e-08,1.82903125e-01
-4.38035937e-08,1.82896875e-01
-4.37635937e-08,1.82903125e-01
-4.37235937e-08,1.82896875e-01
-4.36835937e-08,1.82903125e-01
-4.36435937e-08,1.82896875e-01
-4.36035937e-08,1.82903125e-01
-4.35635937e-08,1.82896875e-01
-4.35235937e-08,1.82903125e-01
-4.34835937e-08,1.82896875e-01
-4.34435937e-08,1.82903125e-01
-4.34035937e-08,1.82896875e-01
-4.33635937e-08,1.82903125e-01
-4.33235938e-08,1.82896875e-01
-4.32835937e-08,1.82903125e-01
-4.32435937e-08,1.82896875e-01
-4.32035937e-08,1.82903125e-01
-4.31635937e-08,1.82896875e-01
-4.31235937e-08,1.82904687e-01
-4.30835937e-08,1.82895313e-01
-4.30435938e-08,1.82904687e-01
-4.30035937e-08,1.82895313e-01
-4.29635937e-08,1.82904687e-01
-4.29235937e-08,1.82895313e-01
-4.28835937e-08,1.82904687e-01
-4.28435937e-08,1.82895313e-01
-4.28035937e-08,1.82904687e-01
-4.27635938e-08,1.82895313e-01
-4.27235937e-08,1.82904687e-01
-4.26835937e-08,1.82895313e-01
-4.26435937e-08,1.82904687e-01
-4.26035937e-08,1.82895313e-01
-4.25635937e-08,1.82906250e-01
-4.25235937e-08,1.82893750e-01
-4.24835938e-08,1.82906250e-01
-4.24435937e-08,1.82893750e-01
-4.24035937e-08,1.82906250e-01
-4.23635937e-08,1.82892187e-01
-4.23235937e-08,1.82907813e-01
-4.22835937e-08,1.82892187e-01
-4.22435937e-08,1.82909375e-01
-4.22035938e-08,1.82890625e-01
-4.21635937e-08,1.82910938e-01
-4.21235937e-08,1.82887500e-01
-4.20835937e-08,1.82914063e-01
-4.20435937e-08,1.82882813e-01
-4.20035937e-08,1.82921875e-01
-4.19635937e-08,1.82867188e-01
-4.19235938e-08,1.82957813e-01
-4.18835937e-08,1.82689062e-01
-4.18435937e-08,1.82448438e-01
-4.18035937e-08,1.82528125e-01
-4.17635937e-08,1.82481250e-01
-4.17235937e-08,1.82514063e-01
-4.16835937e-08,1.82489063e-01
-4.16435937e-08,1.82509375e-01
-4.16035937e-08,1.82492188e-01
-4.15635937e-08,1.82506250e-01
-4.15235937e-08,1.82495313e-01
-4.14835937e-08,1.82504688e-01
-4.14435937e-08,1.82496875e-01
-4.14035938e-08,1.82503125e-01
-4.13635937e-08,1.82496875e-01
-4.13235937e-08,1.82503125e-01
-4.12835937e-08,1.82498437e-01
-4.12435937e-08,1.82501563e-01
-4.12035937e-08,1.82498437e-01
-4.11635937e-08,1.82501563e-01
-4.11235938e-08,1.82498437e-01
-4.10835937e-08,1.82501563e-01
-4.10435937e-08,1.82500000e-01
-4.10035937e-08,1.82500000e-01
-4.09635937e-08,1.82500000e-01
-4.09235937e-08,1.82500000e-01
-4.08835937e-08,1.82500000e-01
-4.08435938e-08,1.82500000e-01
-4.08035937e-08,1.82500000e-01
-4.07635937e-08,1.82498437e-01
-4.07235937e-08,1.82501563e-01
-4.06835937e-08,1.82498437e-01
-4.06435937e-08,1.82501563e-01
-4.06035937e-08,1.82498437e-01
-4.05635938e-08,1.82503125e-01
-4.05235937e-08,1.82496875e-01
-4.04835937e-08,1.82504688e-01
-4.04435937e-08,1.82495313e-01
-4.04035937e-08,1.82506250e-01
-4.03635937e-08,1.82492188e-01
-4.03235937e-08,1.82510937e-01
-4.02835938e-08,1.82484375e-01
-4.02435937e-08,1.82525000e-01
-4.02035937e-08,1.82450000e-01
-4.01635937e-08,1.82703125e-01
-4.01235937e-08,1.82959375e-01
-4.00835937e-08,1.82864063e-01
-4.00435937e-08,1.82928125e-01
-4.00035938e-08,1.82876563e-01
-3.99635937e-08,1.82920313e-01
-3.99235937e-08,1.82879687e-01
-3.98835937e-08,1.82920313e-01
-3.98435937e-08,1.82879687e-01
-3.98035937e-08,1.82923438e-01
-3.97635937e-08,1.82871875e-01
-3.97235937e-08,1.82937500e-01
-3.96835937e-08,1.82839063e-01
-3.96435937e-08,1.83114063e-01
-3.96035937e-08,1.83348438e-01
-3.95635937e-08,1.83275000e-01
-3.95235937e-08,1.83315625e-01
-3.94835938e-08,1.83289063e-01
-3.94435937e-08,1.83307813e-01
-3.94035937e-08,1.83293750e-01
-3.93635937e-08,1.83304688e-01
-3.93235937e-08,1.83296875e-01
-3.92835937e-08,1.83303125e-01
-3.92435937e-08,1.83298437e-01
-3.92035938e-08,1.83301563e-01
-3.91635937e-08,1.83298437e-01
-3.91235937e-08,1.83300000e-01
-3.90835937e-08,1.83300000e-01
-3.90435937e-08,1.83300000e-01
-3.90035937e-08,1.83301563e-01
-3.89635937e-08,1.83298437e-01
-3.89235938e-08,1.83301563e-01
-3.88835937e-08,1.83296875e-01
-3.88435937e-08,1.83303125e-01
-3.88035937e-08,1.83295313e-01
-3.87635937e-08,1.83306250e-01
-3.87235937e-08,1.83292188e-01
-3.86835937e-08,1.83309375e-01
-3.86435938e-08,1.83287500e-01
-3.86035937e-08,1.83317188e-01
-3.85635937e-08,1.83273437e-01
-3.85235937e-08,1.83351563e-01
