trails/00e0f0a1771ea1cc81b4999437018e02/aes_ch1_20250506172515227.csv

Model,MSO66B
Label,
Waveform Type,ANALOG
Horizontal Units,s
Sample Interval,4.00000000e-11
Record Length,10000
Zero Index,1599.07421875
Vertical Units,A
ANALOG_Thumbnail,
yOffset,1.84500000e-01
yPosition,8.40000000e-01

Labels,
TIME,CH1
-6.39629687e-08,1.87285937e-01
-6.39229688e-08,1.87312500e-01
-6.38829687e-08,1.87287500e-01
-6.38429687e-08,1.87310937e-01
-6.38029687e-08,1.87289063e-01
-6.37629687e-08,1.87310937e-01
-6.37229688e-08,1.87289063e-01
-6.36829687e-08,1.87310937e-01
-6.36429688e-08,1.87289063e-01
-6.36029687e-08,1.87312500e-01
-6.35629687e-08,1.87287500e-01
-6.35229687e-08,1.87312500e-01
-6.34829687e-08,1.87285937e-01
-6.34429688e-08,1.87315625e-01
-6.34029687e-08,1.87282813e-01
-6.33629688e-08,1.87320313e-01
-6.33229687e-08,1.87275000e-01
-6.32829687e-08,1.87335937e-01
-6.32429687e-08,1.87239062e-01
-6.32029687e-08,1.87514062e-01
-6.31629688e-08,1.87748438e-01
-6.31229687e-08,1.87676563e-01
-6.30829688e-08,1.87714063e-01
-6.30429687e-08,1.87692187e-01
-6.30029687e-08,1.87703125e-01
-6.29629687e-08,1.87701563e-01
-6.29229687e-08,1.87692187e-01
-6.28829688e-08,1.87717187e-01
-6.28429687e-08,1.87657813e-01
-6.28029688e-08,1.87893750e-01
-6.27629687e-08,1.88168750e-01
-6.27229687e-08,1.88053125e-01
-6.26829687e-08,1.88140625e-01
-6.26429687e-08,1.88059375e-01
-6.26029688e-08,1.88148438e-01
-6.25629687e-08,1.88028125e-01
-6.25229688e-08,1.88323437e-01
-6.24829687e-08,1.88537500e-01
-6.24429687e-08,1.88487500e-01
-6.24029687e-08,1.88500000e-01
-6.23629687e-08,1.88514062e-01
-6.23229688e-08,1.88459375e-01
-6.22829687e-08,1.88693750e-01
-6.22429688e-08,1.88968750e-01
-6.22029687e-08,1.88853125e-01
-6.21629687e-08,1.88940625e-01
-6.21229687e-08,1.88859375e-01
-6.20829687e-08,1.88946875e-01
-6.20429688e-08,1.88831250e-01
-6.20029687e-08,1.89120312e-01
-6.19629688e-08,1.89342188e-01
-6.19229687e-08,1.89279688e-01
-6.18829687e-08,1.89310937e-01
-6.18429687e-08,1.89293750e-01
-6.18029687e-08,1.89304688e-01
-6.17629688e-08,1.89298437e-01
-6.17229687e-08,1.89301563e-01
-6.16829687e-08,1.89300000e-01
-6.16429687e-08,1.89298437e-01
-6.16029687e-08,1.89301563e-01
-6.15629687e-08,1.89296875e-01
-6.15229687e-08,1.89303125e-01
-6.14829688e-08,1.89296875e-01
-6.14429687e-08,1.89304688e-01
-6.14029687e-08,1.89295313e-01
-6.13629687e-08,1.89306250e-01
-6.13229687e-08,1.89292188e-01
-6.12829687e-08,1.89309375e-01
-6.12429687e-08,1.89289062e-01
-6.12029688e-08,1.89312500e-01
-6.11629687e-08,1.89282813e-01
-6.11229687e-08,1.89321875e-01
-6.10829687e-08,1.89268750e-01
-6.10429687e-08,1.89357813e-01
-6.10029687e-08,1.89089063e-01
-6.09629687e-08,1.88850000e-01
-6.09229688e-08,1.88925000e-01
-6.08829687e-08,1.88885938e-01
-6.08429687e-08,1.88906250e-01
-6.08029687e-08,1.88901563e-01
-6.07629687e-08,1.88887500e-01
-6.07229687e-08,1.88939063e-01
-6.06829687e-08,1.88707813e-01
-6.06429688e-08,1.88429687e-01
-6.06029687e-08,1.88546875e-01
-6.05629687e-08,1.88462500e-01
-6.05229687e-08,1.88534375e-01
-6.04829687e-08,1.88465625e-01
-6.04429687e-08,1.88537500e-01
-6.04029687e-08,1.88454687e-01
-6.03629688e-08,1.88568750e-01
-6.03229687e-08,1.88279688e-01
-6.02829687e-08,1.88057813e-01
-6.02429687e-08,1.88120312e-01
-6.02029687e-08,1.88089063e-01
-6.01629687e-08,1.88106250e-01
-6.01229687e-08,1.88095313e-01
-6.00829688e-08,1.88101563e-01
-6.00429687e-08,1.88098437e-01
-6.00029687e-08,1.88100000e-01
-5.99629687e-08,1.88100000e-01
-5.99229687e-08,1.88100000e-01
-5.98829688e-08,1.88101563e-01
-5.98429687e-08,1.88098437e-01
-5.98029688e-08,1.88101563e-01
-5.97629687e-08,1.88098437e-01
-5.97229687e-08,1.88101563e-01
-5.96829687e-08,1.88098437e-01
-5.96429687e-08,1.88101563e-01
-5.96029687e-08,1.88098437e-01
-5.95629687e-08,1.88101563e-01
-5.95229687e-08,1.88098437e-01
-5.94829687e-08,1.88101563e-01
-5.94429687e-08,1.88098437e-01
-5.94029687e-08,1.88101563e-01
-5.93629687e-08,1.88098437e-01
-5.93229687e-08,1.88101563e-01
-5.92829687e-08,1.88098437e-01
-5.92429687e-08,1.88101563e-01
-5.92029687e-08,1.88098437e-01
-5.91629687e-08,1.88101563e-01
-5.91229687e-08,1.88098437e-01
-5.90829687e-08,1.88101563e-01
-5.90429687e-08,1.88098437e-01
-5.90029687e-08,1.88101563e-01
-5.89629687e-08,1.88098437e-01
-5.89229687e-08,1.88101563e-01
-5.88829687e-08,1.88098437e-01
-5.88429687e-08,1.88101563e-01
-5.88029687e-08,1.88096875e-01
-5.87629687e-08,1.88101563e-01
-5.87229687e-08,1.88096875e-01
-5.86829687e-08,1.88103125e-01
-5.86429687e-08,1.88096875e-01
-5.86029687e-08,1.88103125e-01
-5.85629687e-08,1.88096875e-01
-5.85229687e-08,1.88103125e-01
-5.84829687e-08,1.88096875e-01
-5.84429687e-08,1.88103125e-01
-5.84029687e-08,1.88096875e-01
-5.83629687e-08,1.88103125e-01
-5.83229687e-08,1.88096875e-01
-5.82829687e-08,1.88103125e-01
-5.82429687e-08,1.88096875e-01
-5.82029687e-08,1.88103125e-01
-5.81629687e-08,1.88096875e-01
-5.81229687e-08,1.88103125e-01
-5.80829687e-08,1.88096875e-01
-5.80429687e-08,1.88103125e-01
-5.80029687e-08,1.88096875e-01
-5.79629687e-08,1.88103125e-01
-5.79229687e-08,1.88096875e-01
-5.78829687e-08,1.88103125e-01
-5.78429687e-08,1.88096875e-01
-5.78029687e-08,1.88104688e-01
-5.77629687e-08,1.88095313e-01
-5.77229687e-08,1.88104688e-01
-5.76829687e-08,1.88095313e-01
-5.76429687e-08,1.88106250e-01
-5.76029687e-08,1.88093750e-01
-5.75629687e-08,1.88107812e-01
-5.75229687e-08,1.88092188e-01
-5.74829687e-08,1.88110938e-01
-5.74429687e-08,1.88087500e-01
-5.74029687e-08,1.88117188e-01
-5.73629687e-08,1.88073437e-01
-5.73229687e-08,1.88151563e-01
-5.72829687e-08,1.87895312e-01
-5.72429687e-08,1.87640625e-01
-5.72029687e-08,1.87735938e-01
-5.71629687e-08,1.87671875e-01
-5.71229687e-08,1.87723438e-01
-5.70829687e-08,1.87678125e-01
-5.70429687e-08,1.87721875e-01
-5.70029687e-08,1.87675000e-01
-5.69629687e-08,1.87728125e-01
-5.69229687e-08,1.87662500e-01
-5.68829687e-08,1.87762500e-01
-5.68429687e-08,1.87484375e-01
-5.68029687e-08,1.87253125e-01
-5.67629687e-08,1.87323437e-01
-5.67229687e-08,1.87287500e-01
-5.66829687e-08,1.87306250e-01
-5.66429687e-08,1.87298437e-01
-5.66029687e-08,1.87296875e-01
-5.65629687e-08,1.87307813e-01
-5.65229687e-08,1.87281250e-01
-5.64829687e-08,1.87343750e-01
-5.64429687e-08,1.87103125e-01
-5.64029687e-08,1.86835937e-01
-5.63629687e-08,1.86940625e-01
-5.63229687e-08,1.86868750e-01
-5.62829687e-08,1.86926563e-01
-5.62429687e-08,1.86875000e-01
-5.62029687e-08,1.86923438e-01
-5.61629687e-08,1.86878125e-01
-5.61229687e-08,1.86921875e-01
-5.60829687e-08,1.86876563e-01
-5.60429687e-08,1.86923438e-01
-5.60029687e-08,1.86873438e-01
-5.59629687e-08,1.86931250e-01
-5.59229687e-08,1.86859375e-01
-5.58829687e-08,1.86965625e-01
-5.58429687e-08,1.86681250e-01
-5.58029687e-08,1.86456250e-01
-5.57629687e-08,1.86520313e-01
-5.57229687e-08,1.86489062e-01
-5.56829687e-08,1.86506250e-01
-5.56429687e-08,1.86496875e-01
-5.56029687e-08,1.86501562e-01
-5.55629687e-08,1.86500000e-01
-5.55229687e-08,1.86498438e-01
-5.54829687e-08,1.86503125e-01
-5.54429687e-08,1.86496875e-01
-5.54029687e-08,1.86504688e-01
-5.53629687e-08,1.86495313e-01
-5.53229687e-08,1.86506250e-01
-5.52829687e-08,1.86493750e-01
-5.52429687e-08,1.86507813e-01
-5.52029687e-08,1.86492188e-01
-5.51629687e-08,1.86509375e-01
-5.51229687e-08,1.86489062e-01
-5.50829687e-08,1.86512500e-01
-5.50429687e-08,1.86485938e-01
-5.50029687e-08,1.86518750e-01
-5.49629687e-08,1.86476562e-01
-5.49229687e-08,1.86532813e-01
-5.48829687e-08,1.86442187e-01
-5.48429687e-08,1.86710938e-01
-5.48029687e-08,1.86950000e-01
-5.47629687e-08,1.86873438e-01
-5.47229687e-08,1.86917187e-01
-5.46829687e-08,1.86889063e-01
-5.46429687e-08,1.86907812e-01
-5.46029687e-08,1.86893750e-01
-5.45629687e-08,1.86904687e-01
-5.45229687e-08,1.86896875e-01
-5.44829687e-08,1.86901563e-01
-5.44429687e-08,1.86900000e-01
-5.44029687e-08,1.86898438e-01
-5.43629687e-08,1.86901563e-01
-5.43229687e-08,1.86896875e-01
-5.42829687e-08,1.86904687e-01
-5.42429687e-08,1.86893750e-01
-5.42029687e-08,1.86907812e-01
-5.41629687e-08,1.86889063e-01
-5.41229687e-08,1.86914063e-01
-5.40829687e-08,1.86881250e-01
-5.40429687e-08,1.86929687e-01
-5.40029687e-08,1.86845312e-01
-5.39629687e-08,1.87107812e-01
-5.39229687e-08,1.87354688e-01
-5.38829687e-08,1.87270313e-01
-5.38429687e-08,1.87320313e-01
-5.38029687e-08,1.87284375e-01
-5.37629687e-08,1.87312500e-01
-5.37229687e-08,1.87290625e-01
-5.36829687e-08,1.87307813e-01
-5.36429687e-08,1.87293750e-01
-5.36029687e-08,1.87304688e-01
-5.35629687e-08,1.87296875e-01
-5.35229687e-08,1.87301563e-01
-5.34829687e-08,1.87298437e-01
-5.34429687e-08,1.87300000e-01
-5.34029687e-08,1.87303125e-01
-5.33629687e-08,1.87295313e-01
-5.33229687e-08,1.87307813e-01
-5.32829687e-08,1.87285937e-01
-5.32429687e-08,1.87323437e-01
-5.32029687e-08,1.87251562e-01
-5.31629687e-08,1.87501562e-01
-5.31229687e-08,1.87760938e-01
-5.30829687e-08,1.87662500e-01
-5.30429687e-08,1.87726562e-01
-5.30029687e-08,1.87678125e-01
-5.29629687e-08,1.87718750e-01
-5.29229687e-08,1.87682813e-01
-5.28829687e-08,1.87715625e-01
-5.28429687e-08,1.87684375e-01
-5.28029687e-08,1.87714063e-01
-5.27629687e-08,1.87685938e-01
-5.27229687e-08,1.87714063e-01
-5.26829687e-08,1.87687500e-01
-5.26429687e-08,1.87712500e-01
-5.26029687e-08,1.87685938e-01
-5.25629687e-08,1.87714063e-01
-5.25229687e-08,1.87685938e-01
-5.24829687e-08,1.87715625e-01
-5.24429687e-08,1.87684375e-01
-5.24029687e-08,1.87718750e-01
-5.23629687e-08,1.87679687e-01
-5.23229687e-08,1.87725000e-01
-5.22829687e-08,1.87665625e-01
-5.22429687e-08,1.87759375e-01
-5.22029688e-08,1.87487500e-01
-5.21629687e-08,1.87250000e-01
-5.21229687e-08,1.87326563e-01
-5.20829687e-08,1.87282813e-01
-5.20429687e-08,1.87312500e-01
-5.20029687e-08,1.87290625e-01
-5.19629687e-08,1.87307813e-01
-5.19229687e-08,1.87293750e-01
-5.18829687e-08,1.87304688e-01
-5.18429687e-08,1.87295313e-01
-5.18029687e-08,1.87303125e-01
-5.17629687e-08,1.87296875e-01
-5.17229687e-08,1.87303125e-01
-5.16829687e-08,1.87296875e-01
-5.16429687e-08,1.87301563e-01
-5.16029687e-08,1.87298437e-01
-5.15629687e-08,1.87301563e-01
-5.15229687e-08,1.87298437e-01
-5.14829687e-08,1.87301563e-01
-5.14429687e-08,1.87298437e-01
-5.14029687e-08,1.87301563e-01
-5.13629687e-08,1.87298437e-01
-5.13229687e-08,1.87301563e-01
-5.12829687e-08,1.87298437e-01
-5.12429687e-08,1.87301563e-01
-5.12029687e-08,1.87296875e-01
-5.11629687e-08,1.87303125e-01
-5.11229687e-08,1.87296875e-01
-5.10829687e-08,1.87303125e-01
-5.10429687e-08,1.87296875e-01
-5.10029687e-08,1.87304688e-01
-5.09629687e-08,1.87295313e-01
-5.09229687e-08,1.87306250e-01
-5.08829687e-08,1.87293750e-01
-5.08429687e-08,1.87307813e-01
-5.08029687e-08,1.87290625e-01
-5.07629687e-08,1.87312500e-01
-5.07229687e-08,1.87281250e-01
-5.06829687e-08,1.87328125e-01
-5.06429687e-08,1.87246875e-01
-5.06029687e-08,1.87506250e-01
-5.05629687e-08,1.87756250e-01
-5.05229687e-08,1.87667187e-01
-5.04829687e-08,1.87723438e-01
-5.04429687e-08,1.87681250e-01
-5.04029687e-08,1.87715625e-01
-5.03629687e-08,1.87685938e-01
-5.03229687e-08,1.87712500e-01
-5.02829688e-08,1.87689063e-01
-5.02429687e-08,1.87710938e-01
-5.02029687e-08,1.87689063e-01
-5.01629687e-08,1.87709375e-01
-5.01229687e-08,1.87690625e-01
-5.00829687e-08,1.87709375e-01
-5.00429687e-08,1.87690625e-01
-5.00029688e-08,1.87709375e-01
-4.99629687e-08,1.87690625e-01
-4.99229687e-08,1.87709375e-01
-4.98829687e-08,1.87690625e-01
-4.98429687e-08,1.87709375e-01
-4.98029687e-08,1.87690625e-01
-4.97629687e-08,1.87709375e-01
-4.97229687e-08,1.87690625e-01
-4.96829687e-08,1.87709375e-01
-4.96429687e-08,1.87690625e-01
-4.96029687e-08,1.87710938e-01
-4.95629687e-08,1.87689063e-01
-4.95229687e-08,1.87712500e-01
-4.94829687e-08,1.87687500e-01
-4.94429687e-08,1.87714063e-01
-4.94029687e-08,1.87684375e-01
-4.93629687e-08,1.87717187e-01
-4.93229687e-08,1.87679687e-01
-4.92829687e-08,1.87726562e-01
-4.92429687e-08,1.87664063e-01
-4.92029687e-08,1.87760938e-01
-4.91629687e-08,1.87485938e-01
-4.91229687e-08,1.87253125e-01
-4.90829687e-08,1.87323437e-01
-4.90429687e-08,1.87287500e-01
-4.90029687e-08,1.87307813e-01
-4.89629687e-08,1.87296875e-01
-4.89229687e-08,1.87300000e-01
-4.88829687e-08,1.87303125e-01
-4.88429687e-08,1.87292188e-01
-4.88029687e-08,1.87314063e-01
-4.87629687e-08,1.87276563e-01
-4.87229687e-08,1.87348438e-01
-4.86829687e-08,1.87098438e-01
-4.86429688e-08,1.86840625e-01
-4.86029687e-08,1.86935938e-01
-4.85629687e-08,1.86873438e-01
-4.85229687e-08,1.86921875e-01
-4.84829687e-08,1.86881250e-01
-4.84429687e-08,1.86917187e-01
-4.84029687e-08,1.86882812e-01
-4.83629688e-08,1.86917187e-01
-4.83229687e-08,1.86882812e-01
-4.82829687e-08,1.86920313e-01
-4.82429687e-08,1.86876563e-01
-4.82029687e-08,1.86932813e-01
-4.81629687e-08,1.86843750e-01
-4.81229687e-08,1.87109375e-01
-4.80829688e-08,1.87354688e-01
-4.80429687e-08,1.87268750e-01
-4.80029687e-08,1.87323437e-01
-4.79629687e-08,1.87279688e-01
-4.79229687e-08,1.87318750e-01
-4.78829687e-08,1.87281250e-01
-4.78429687e-08,1.87321875e-01
-4.78029687e-08,1.87273438e-01
-4.77629687e-08,1.87334375e-01
-4.77229687e-08,1.87240625e-01
-4.76829687e-08,1.87512500e-01
-4.76429687e-08,1.87750000e-01
-4.76029687e-08,1.87675000e-01
-4.75629687e-08,1.87715625e-01
-4.75229687e-08,1.87690625e-01
-4.74829687e-08,1.87704687e-01
-4.74429687e-08,1.87700000e-01
-4.74029687e-08,1.87693750e-01
-4.73629687e-08,1.87717187e-01
-4.73229687e-08,1.87657813e-01
-4.72829687e-08,1.87895312e-01
-4.72429687e-08,1.88165625e-01
-4.72029687e-08,1.88057813e-01
-4.71629687e-08,1.88132812e-01
-4.71229687e-08,1.88071875e-01
-4.70829687e-08,1.88125000e-01
-4.70429687e-08,1.88076563e-01
-4.70029687e-08,1.88123438e-01
-4.69629687e-08,1.88078125e-01
-4.69229687e-08,1.88121875e-01
-4.68829687e-08,1.88078125e-01
-4.68429687e-08,1.88123438e-01
-4.68029687e-08,1.88075000e-01
-4.67629687e-08,1.88126563e-01
-4.67229688e-08,1.88070313e-01
-4.66829687e-08,1.88134375e-01
-4.66429687e-08,1.88056250e-01
-4.66029687e-08,1.88170313e-01
-4.65629687e-08,1.87876563e-01
-4.65229687e-08,1.87662500e-01
-4.64829687e-08,1.87714063e-01
-4.64429688e-08,1.87696875e-01
-4.64029687e-08,1.87696875e-01
-4.63629687e-08,1.87709375e-01
-4.63229687e-08,1.87685938e-01
-4.62829687e-08,1.87721875e-01
-4.62429687e-08,1.87667187e-01
-4.62029687e-08,1.87759375e-01
-4.61629688e-08,1.87485938e-01
-4.61229687e-08,1.87253125e-01
-4.60829687e-08,1.87321875e-01
-4.60429687e-08,1.87290625e-01
-4.60029687e-08,1.87301563e-01
-4.59629687e-08,1.87306250e-01
-4.59229687e-08,1.87281250e-01
-4.58829688e-08,1.87345312e-01
-4.58429687e-08,1.87100000e-01
-4.58029687e-08,1.86839063e-01
-4.57629687e-08,1.86937500e-01
-4.57229687e-08,1.86873438e-01
-4.56829687e-08,1.86921875e-01
-4.56429687e-08,1.86882812e-01
-4.56029687e-08,1.86915625e-01
-4.55629687e-08,1.86887500e-01
-4.55229687e-08,1.86912500e-01
-4.54829687e-08,1.86889063e-01
-4.54429687e-08,1.86909375e-01
-4.54029687e-08,1.86890625e-01
-4.53629687e-08,1.86907812e-01
-4.53229687e-08,1.86892188e-01
-4.52829687e-08,1.86906250e-01
-4.52429687e-08,1.86893750e-01
-4.52029687e-08,1.86906250e-01
-4.51629687e-08,1.86893750e-01
-4.51229687e-08,1.86904687e-01
-4.50829687e-08,1.86895313e-01
-4.50429687e-08,1.86904687e-01
-4.50029687e-08,1.86895313e-01
-4.49629687e-08,1.86903125e-01
-4.49229687e-08,1.86896875e-01
-4.48829687e-08,1.86903125e-01
-4.48429687e-08,1.86896875e-01
-4.48029688e-08,1.86903125e-01
-4.47629687e-08,1.86898438e-01
-4.47229687e-08,1.86901563e-01
-4.46829687e-08,1.86898438e-01
-4.46429687e-08,1.86901563e-01
-4.46029687e-08,1.86898438e-01
-4.45629687e-08,1.86900000e-01
-4.45229688e-08,1.86900000e-01
-4.44829687e-08,1.86900000e-01
-4.44429687e-08,1.86901563e-01
-4.44029687e-08,1.86898438e-01
-4.43629687e-08,1.86901563e-01
-4.43229687e-08,1.86896875e-01
-4.42829687e-08,1.86904687e-01
-4.42429688e-08,1.86895313e-01
-4.42029687e-08,1.86906250e-01
-4.41629687e-08,1.86890625e-01
-4.41229687e-08,1.86912500e-01
-4.40829687e-08,1.86882812e-01
-4.40429687e-08,1.86928125e-01
-4.40029687e-08,1.86846875e-01
-4.39629688e-08,1.87106250e-01
-4.39229687e-08,1.87356250e-01
-4.38829687e-08,1.87267188e-01
-4.38429687e-08,1.87321875e-01
-4.38029687e-08,1.87282813e-01
-4.37629687e-08,1.87314063e-01
-4.37229687e-08,1.87289063e-01
-4.36829688e-08,1.87309375e-01
-4.36429687e-08,1.87292188e-01
-4.36029687e-08,1.87306250e-01
-4.35629687e-08,1.87295313e-01
-4.35229687e-08,1.87301563e-01
-4.34829687e-08,1.87300000e-01
-4.34429687e-08,1.87296875e-01
-4.34029687e-08,1.87309375e-01
-4.33629687e-08,1.87281250e-01
-4.33229687e-08,1.87343750e-01
-4.32829687e-08,1.87103125e-01
-4.32429687e-08,1.86835937e-01
-4.32029687e-08,1.86940625e-01
-4.31629687e-08,1.86868750e-01
-4.31229687e-08,1.86926563e-01
-4.30829687e-08,1.86876563e-01
-4.30429687e-08,1.86921875e-01
-4.30029687e-08,1.86879688e-01
-4.29629687e-08,1.86918750e-01
-4.29229687e-08,1.86881250e-01
-4.28829688e-08,1.86917187e-01
-4.28429687e-08,1.86882812e-01
-4.28029687e-08,1.86917187e-01
-4.27629687e-08,1.86882812e-01
-4.27229687e-08,1.86917187e-01
-4.26829687e-08,1.86882812e-01
-4.26429687e-08,1.86917187e-01
-4.26029688e-08,1.86882812e-01
-4.25629687e-08,1.86918750e-01
-4.25229687e-08,1.86881250e-01
-4.24829687e-08,1.86920313e-01
-4.24429687e-08,1.86878125e-01
-4.24029687e-08,1.86923438e-01
-4.23629687e-08,1.86873438e-01
-4.23229688e-08,1.86931250e-01
-4.22829687e-08,1.86857812e-01
-4.22429687e-08,1.86967188e-01
-4.22029687e-08,1.86679687e-01
-4.21629687e-08,1.86457813e-01
-4.21229687e-08,1.86518750e-01
-4.20829687e-08,1.86490625e-01
-4.20429688e-08,1.86503125e-01
-4.20029687e-08,1.86500000e-01
-4.19629687e-08,1.86496875e-01
-4.19229687e-08,1.86504688e-01
-4.18829687e-08,1.86493750e-01
-4.18429687e-08,1.86507813e-01
-4.18029687e-08,1.86490625e-01
-4.17629688e-08,1.86510938e-01
-4.17229687e-08,1.86485938e-01
-4.16829687e-08,1.86517188e-01
-4.16429687e-08,1.86476562e-01
-4.16029687e-08,1.86532813e-01
-4.15629687e-08,1.86442187e-01
-4.15229687e-08,1.86710938e-01
-4.14829688e-08,1.86950000e-01
-4.14429687e-08,1.86873438e-01
-4.14029687e-08,1.86917187e-01
-4.13629687e-08,1.86889063e-01
-4.13229687e-08,1.86907812e-01
-4.12829687e-08,1.86893750e-01
-4.12429687e-08,1.86904687e-01
-4.12029687e-08,1.86896875e-01
-4.11629687e-08,1.86901563e-01
-4.11229687e-08,1.86898438e-01
-4.10829687e-08,1.86900000e-01
-4.10429687e-08,1.86900000e-01
-4.10029687e-08,1.86898438e-01
-4.09629688e-08,1.86901563e-01
-4.09229687e-08,1.86896875e-01
-4.08829687e-08,1.86903125e-01
-4.08429687e-08,1.86895313e-01
-4.08029687e-08,1.86904687e-01
-4.07629687e-08,1.86893750e-01
-4.07229687e-08,1.86906250e-01
-4.06829688e-08,1.86892188e-01
-4.06429687e-08,1.86909375e-01
-4.06029687e-08,1.86887500e-01
-4.05629687e-08,1.86915625e-01
-4.05229687e-08,1.86879688e-01
-4.04829687e-08,1.86929687e-01
-4.04429687e-08,1.86845312e-01
-4.04029688e-08,1.87107812e-01
-4.03629687e-08,1.87353125e-01
-4.03229687e-08,1.87270313e-01
-4.02829687e-08,1.87320313e-01
-4.02429687e-08,1.87284375e-01
-4.02029687e-08,1.87312500e-01
-4.01629687e-08,1.87289063e-01
-4.01229688e-08,1.87309375e-01
-4.00829687e-08,1.87292188e-01
-4.00429687e-08,1.87306250e-01
-4.00029687e-08,1.87293750e-01
-3.99629687e-08,1.87306250e-01
-3.99229687e-08,1.87295313e-01
-3.98829687e-08,1.87304688e-01
-3.98429688e-08,1.87295313e-01
-3.98029687e-08,1.87304688e-01
-3.97629687e-08,1.87295313e-01
-3.97229687e-08,1.87304688e-01
-3.96829687e-08,1.87295313e-01
-3.96429687e-08,1.87304688e-01
-3.96029687e-08,1.87295313e-01
-3.95629688e-08,1.87304688e-01
-3.95229687e-08,1.87295313e-01
-3.94829687e-08,1.87304688e-01
-3.94429687e-08,1.87293750e-01
-3.94029687e-08,1.87306250e-01
-3.93629687e-08,1.87292188e-01
-3.93229687e-08,1.87309375e-01
-3.92829688e-08,1.87287500e-01
-3.92429687e-08,1.87317188e-01
-3.92029687e-08,1.87273438e-01
-3.91629687e-08,1.87351563e-01
-3.91229687e-08,1.87096875e-01
-3.90829687e-08,1.86840625e-01
-3.90429688e-08,1.86935938e-01
-3.90029687e-08,1.86873438e-01
-3.89629687e-08,1.86921875e-01
-3.89229687e-08,1.86879688e-01
-3.88829687e-08,1.86918750e-01
-3.88429687e-08,1.86881250e-01
-3.88029687e-08,1.86918750e-01
-3.87629688e-08,1.86881250e-01
-3.87229687e-08,1.86920313e-01
-3.86829687e-08,1.86876563e-01
-3.86429687e-08,1.86928125e-01
-3.86029687e-08,1.86862500e-01
-3.85629687e-08,1.86960938e-01
-3.85229687e-08,1.86685938e-01
