trails/00e0f0a1771ea1cc81b4999437018e02/aes_ch1_20250506172237809.csv

Model,MSO66B
Label,
Waveform Type,ANALOG
Horizontal Units,s
Sample Interval,4.00000000e-11
Record Length,10000
Zero Index,1599.07421875
Vertical Units,A
ANALOG_Thumbnail,
yOffset,1.84500000e-01
yPosition,8.40000000e-01

Labels,
TIME,CH1
-6.39629687e-08,1.78510937e-01
-6.39229688e-08,1.78489063e-01
-6.38829687e-08,1.78512500e-01
-6.38429687e-08,1.78487500e-01
-6.38029687e-08,1.78514063e-01
-6.37629687e-08,1.78484375e-01
-6.37229688e-08,1.78517188e-01
-6.36829687e-08,1.78479688e-01
-6.36429688e-08,1.78525000e-01
-6.36029687e-08,1.78464063e-01
-6.35629687e-08,1.78560938e-01
-6.35229687e-08,1.78285938e-01
-6.34829687e-08,1.78051563e-01
-6.34429688e-08,1.78123438e-01
-6.34029687e-08,1.78085938e-01
-6.33629688e-08,1.78107813e-01
-6.33229687e-08,1.78095313e-01
-6.32829687e-08,1.78100000e-01
-6.32429687e-08,1.78103125e-01
-6.32029687e-08,1.78093750e-01
-6.31629688e-08,1.78112500e-01
-6.31229687e-08,1.78076563e-01
-6.30829688e-08,1.78148438e-01
-6.30429687e-08,1.77898438e-01
-6.30029687e-08,1.77640625e-01
-6.29629687e-08,1.77735937e-01
-6.29229687e-08,1.77673438e-01
-6.28829688e-08,1.77721875e-01
-6.28429687e-08,1.77681250e-01
-6.28029688e-08,1.77715625e-01
-6.27629687e-08,1.77685938e-01
-6.27229687e-08,1.77714063e-01
-6.26829687e-08,1.77687500e-01
-6.26429687e-08,1.77712500e-01
-6.26029688e-08,1.77689062e-01
-6.25629687e-08,1.77710937e-01
-6.25229688e-08,1.77689062e-01
-6.24829687e-08,1.77710937e-01
-6.24429687e-08,1.77689062e-01
-6.24029687e-08,1.77710937e-01
-6.23629687e-08,1.77689062e-01
-6.23229688e-08,1.77710937e-01
-6.22829687e-08,1.77687500e-01
-6.22429688e-08,1.77714063e-01
-6.22029687e-08,1.77684375e-01
-6.21629687e-08,1.77717188e-01
-6.21229687e-08,1.77678125e-01
-6.20829687e-08,1.77731250e-01
-6.20429688e-08,1.77643750e-01
-6.20029687e-08,1.77909375e-01
-6.19629688e-08,1.78154688e-01
-6.19229687e-08,1.78068750e-01
-6.18829687e-08,1.78123438e-01
-6.18429687e-08,1.78081250e-01
-6.18029687e-08,1.78117187e-01
-6.17629688e-08,1.78082813e-01
-6.17229687e-08,1.78118750e-01
-6.16829687e-08,1.78076563e-01
-6.16429687e-08,1.78132813e-01
-6.16029687e-08,1.78043750e-01
-6.15629687e-08,1.78309375e-01
-6.15229687e-08,1.78553125e-01
-6.14829688e-08,1.78470313e-01
-6.14429687e-08,1.78521875e-01
-6.14029687e-08,1.78482813e-01
-6.13629687e-08,1.78514063e-01
-6.13229687e-08,1.78487500e-01
-6.12829687e-08,1.78510937e-01
-6.12429687e-08,1.78490625e-01
-6.12029688e-08,1.78509375e-01
-6.11629687e-08,1.78492188e-01
-6.11229687e-08,1.78507813e-01
-6.10829687e-08,1.78492188e-01
-6.10429687e-08,1.78507813e-01
-6.10029687e-08,1.78492188e-01
-6.09629687e-08,1.78506250e-01
-6.09229688e-08,1.78493750e-01
-6.08829687e-08,1.78506250e-01
-6.08429687e-08,1.78493750e-01
-6.08029687e-08,1.78506250e-01
-6.07629687e-08,1.78493750e-01
-6.07229687e-08,1.78506250e-01
-6.06829687e-08,1.78493750e-01
-6.06429688e-08,1.78506250e-01
-6.06029687e-08,1.78493750e-01
-6.05629687e-08,1.78506250e-01
-6.05229687e-08,1.78493750e-01
-6.04829687e-08,1.78506250e-01
-6.04429687e-08,1.78493750e-01
-6.04029687e-08,1.78506250e-01
-6.03629688e-08,1.78493750e-01
-6.03229687e-08,1.78506250e-01
-6.02829687e-08,1.78493750e-01
-6.02429687e-08,1.78506250e-01
-6.02029687e-08,1.78493750e-01
-6.01629687e-08,1.78506250e-01
-6.01229687e-08,1.78493750e-01
-6.00829688e-08,1.78506250e-01
-6.00429687e-08,1.78493750e-01
-6.00029687e-08,1.78506250e-01
-5.99629687e-08,1.78493750e-01
-5.99229687e-08,1.78506250e-01
-5.98829688e-08,1.78493750e-01
-5.98429687e-08,1.78506250e-01
-5.98029688e-08,1.78493750e-01
-5.97629687e-08,1.78506250e-01
-5.97229687e-08,1.78493750e-01
-5.96829687e-08,1.78506250e-01
-5.96429687e-08,1.78492188e-01
-5.96029687e-08,1.78507813e-01
-5.95629687e-08,1.78492188e-01
-5.95229687e-08,1.78507813e-01
-5.94829687e-08,1.78492188e-01
-5.94429687e-08,1.78507813e-01
-5.94029687e-08,1.78492188e-01
-5.93629687e-08,1.78507813e-01
-5.93229687e-08,1.78492188e-01
-5.92829687e-08,1.78509375e-01
-5.92429687e-08,1.78490625e-01
-5.92029687e-08,1.78509375e-01
-5.91629687e-08,1.78490625e-01
-5.91229687e-08,1.78510937e-01
-5.90829687e-08,1.78489063e-01
-5.90429687e-08,1.78510937e-01
-5.90029687e-08,1.78487500e-01
-5.89629687e-08,1.78514063e-01
-5.89229687e-08,1.78485937e-01
-5.88829687e-08,1.78515625e-01
-5.88429687e-08,1.78481250e-01
-5.88029687e-08,1.78521875e-01
-5.87629687e-08,1.78473437e-01
-5.87229687e-08,1.78535938e-01
-5.86829687e-08,1.78439062e-01
-5.86429687e-08,1.78715625e-01
-5.86029687e-08,1.78946875e-01
-5.85629687e-08,1.78876563e-01
-5.85229687e-08,1.78914062e-01
-5.84829687e-08,1.78892187e-01
-5.84429687e-08,1.78904688e-01
-5.84029687e-08,1.78896875e-01
-5.83629687e-08,1.78901562e-01
-5.83229687e-08,1.78900000e-01
-5.82829687e-08,1.78898438e-01
-5.82429687e-08,1.78903125e-01
-5.82029687e-08,1.78895313e-01
-5.81629687e-08,1.78906250e-01
-5.81229687e-08,1.78892187e-01
-5.80829687e-08,1.78909375e-01
-5.80429687e-08,1.78889063e-01
-5.80029687e-08,1.78912500e-01
-5.79629687e-08,1.78882813e-01
-5.79229687e-08,1.78921875e-01
-5.78829687e-08,1.78867187e-01
-5.78429687e-08,1.78957813e-01
-5.78029687e-08,1.78689062e-01
-5.77629687e-08,1.78450000e-01
-5.77229687e-08,1.78525000e-01
-5.76829687e-08,1.78484375e-01
-5.76429687e-08,1.78509375e-01
-5.76029687e-08,1.78496875e-01
-5.75629687e-08,1.78498437e-01
-5.75229687e-08,1.78507813e-01
-5.74829687e-08,1.78482813e-01
-5.74429687e-08,1.78542188e-01
-5.74029687e-08,1.78304688e-01
-5.73629687e-08,1.78034375e-01
-5.73229687e-08,1.78143750e-01
-5.72829687e-08,1.78065625e-01
-5.72429687e-08,1.78131250e-01
-5.72029687e-08,1.78068750e-01
-5.71629687e-08,1.78134375e-01
-5.71229687e-08,1.78057812e-01
-5.70829687e-08,1.78165625e-01
-5.70429687e-08,1.77882813e-01
-5.70029687e-08,1.77654688e-01
-5.69629687e-08,1.77721875e-01
-5.69229687e-08,1.77685938e-01
-5.68829687e-08,1.77709375e-01
-5.68429687e-08,1.77693750e-01
-5.68029687e-08,1.77704688e-01
-5.67629687e-08,1.77695313e-01
-5.67229687e-08,1.77703125e-01
-5.66829687e-08,1.77696875e-01
-5.66429687e-08,1.77701562e-01
-5.66029687e-08,1.77698438e-01
-5.65629687e-08,1.77701562e-01
-5.65229687e-08,1.77698438e-01
-5.64829687e-08,1.77701562e-01
-5.64429687e-08,1.77700000e-01
-5.64029687e-08,1.77700000e-01
-5.63629687e-08,1.77700000e-01
-5.63229687e-08,1.77700000e-01
-5.62829687e-08,1.77700000e-01
-5.62429687e-08,1.77698438e-01
-5.62029687e-08,1.77701562e-01
-5.61629687e-08,1.77698438e-01
-5.61229687e-08,1.77703125e-01
-5.60829687e-08,1.77696875e-01
-5.60429687e-08,1.77704688e-01
-5.60029687e-08,1.77693750e-01
-5.59629687e-08,1.77709375e-01
-5.59229687e-08,1.77685938e-01
-5.58829687e-08,1.77723437e-01
-5.58429687e-08,1.77651562e-01
-5.58029687e-08,1.77900000e-01
-5.57629687e-08,1.78162500e-01
-5.57229687e-08,1.78060938e-01
-5.56829687e-08,1.78131250e-01
-5.56429687e-08,1.78073438e-01
-5.56029687e-08,1.78125000e-01
-5.55629687e-08,1.78075000e-01
-5.55229687e-08,1.78126563e-01
-5.54829687e-08,1.78070312e-01
-5.54429687e-08,1.78139063e-01
-5.54029687e-08,1.78037500e-01
-5.53629687e-08,1.78315625e-01
-5.53229687e-08,1.78548438e-01
-5.52829687e-08,1.78475000e-01
-5.52429687e-08,1.78517188e-01
-5.52029687e-08,1.78487500e-01
-5.51629687e-08,1.78510937e-01
-5.51229687e-08,1.78489063e-01
-5.50829687e-08,1.78512500e-01
-5.50429687e-08,1.78482813e-01
-5.50029687e-08,1.78525000e-01
-5.49629687e-08,1.78451562e-01
-5.49229687e-08,1.78701562e-01
-5.48829687e-08,1.78962500e-01
-5.48429687e-08,1.78860938e-01
-5.48029687e-08,1.78931250e-01
-5.47629687e-08,1.78873438e-01
-5.47229687e-08,1.78925000e-01
-5.46829687e-08,1.78875000e-01
-5.46429687e-08,1.78925000e-01
-5.46029687e-08,1.78873438e-01
-5.45629687e-08,1.78928125e-01
-5.45229687e-08,1.78867187e-01
-5.44829687e-08,1.78942188e-01
-5.44429687e-08,1.78832812e-01
-5.44029687e-08,1.79120313e-01
-5.43629687e-08,1.79340625e-01
-5.43229687e-08,1.79282812e-01
-5.42829687e-08,1.79307812e-01
-5.42429687e-08,1.79298438e-01
-5.42029687e-08,1.79296875e-01
-5.41629687e-08,1.79306250e-01
-5.41229687e-08,1.79290625e-01
-5.40829687e-08,1.79312500e-01
-5.40429687e-08,1.79281250e-01
-5.40029687e-08,1.79329688e-01
-5.39629687e-08,1.79245313e-01
-5.39229687e-08,1.79507813e-01
-5.38829687e-08,1.79754688e-01
-5.38429687e-08,1.79668750e-01
-5.38029687e-08,1.79723437e-01
-5.37629687e-08,1.79679688e-01
-5.37229687e-08,1.79718750e-01
-5.36829687e-08,1.79678125e-01
-5.36429687e-08,1.79728125e-01
-5.36029687e-08,1.79648438e-01
-5.35629687e-08,1.79903125e-01
-5.35229687e-08,1.80160938e-01
-5.34829687e-08,1.80060938e-01
-5.34429687e-08,1.80132813e-01
-5.34029687e-08,1.80070312e-01
-5.33629687e-08,1.80131250e-01
-5.33229687e-08,1.80065625e-01
-5.32829687e-08,1.80143750e-01
-5.32429687e-08,1.80032813e-01
-5.32029687e-08,1.80320312e-01
-5.31629687e-08,1.80542188e-01
-5.31229687e-08,1.80482813e-01
-5.30829687e-08,1.80507813e-01
-5.30429687e-08,1.80496875e-01
-5.30029687e-08,1.80498437e-01
-5.29629687e-08,1.80504688e-01
-5.29229687e-08,1.80493750e-01
-5.28829687e-08,1.80507813e-01
-5.28429687e-08,1.80489063e-01
-5.28029687e-08,1.80512500e-01
-5.27629687e-08,1.80484375e-01
-5.27229687e-08,1.80518750e-01
-5.26829687e-08,1.80476562e-01
-5.26429687e-08,1.80528125e-01
-5.26029687e-08,1.80462500e-01
-5.25629687e-08,1.80551563e-01
-5.25229687e-08,1.80412500e-01
-5.24829687e-08,1.80765625e-01
-5.24429687e-08,1.80743750e-01
-5.24029687e-08,1.80418750e-01
-5.23629687e-08,1.80548438e-01
-5.23229687e-08,1.80467188e-01
-5.22829687e-08,1.80525000e-01
-5.22429687e-08,1.80481250e-01
-5.22029688e-08,1.80515625e-01
-5.21629687e-08,1.80487500e-01
-5.21229687e-08,1.80509375e-01
-5.20829687e-08,1.80493750e-01
-5.20429687e-08,1.80504688e-01
-5.20029687e-08,1.80496875e-01
-5.19629687e-08,1.80500000e-01
-5.19229687e-08,1.80503125e-01
-5.18829687e-08,1.80493750e-01
-5.18429687e-08,1.80512500e-01
-5.18029687e-08,1.80478125e-01
-5.17629687e-08,1.80548438e-01
-5.17229687e-08,1.80298438e-01
-5.16829687e-08,1.80039063e-01
-5.16429687e-08,1.80135938e-01
-5.16029687e-08,1.80073438e-01
-5.15629687e-08,1.80121875e-01
-5.15229687e-08,1.80081250e-01
-5.14829687e-08,1.80117187e-01
-5.14429687e-08,1.80084375e-01
-5.14029687e-08,1.80114063e-01
-5.13629687e-08,1.80085938e-01
-5.13229687e-08,1.80114063e-01
-5.12829687e-08,1.80085938e-01
-5.12429687e-08,1.80115625e-01
-5.12029687e-08,1.80082812e-01
-5.11629687e-08,1.80121875e-01
-5.11229687e-08,1.80068750e-01
-5.10829687e-08,1.80154687e-01
-5.10429687e-08,1.79893750e-01
-5.10029687e-08,1.79643750e-01
-5.09629687e-08,1.79732813e-01
-5.09229687e-08,1.79675000e-01
-5.08829687e-08,1.79721875e-01
-5.08429687e-08,1.79679688e-01
-5.08029687e-08,1.79720313e-01
-5.07629687e-08,1.79679688e-01
-5.07229687e-08,1.79723437e-01
-5.06829687e-08,1.79671875e-01
-5.06429687e-08,1.79737500e-01
-5.06029687e-08,1.79637500e-01
-5.05629687e-08,1.79915625e-01
-5.05229687e-08,1.80146875e-01
-5.04829687e-08,1.80076563e-01
-5.04429687e-08,1.80114063e-01
-5.04029687e-08,1.80092188e-01
-5.03629687e-08,1.80104687e-01
-5.03229687e-08,1.80098438e-01
-5.02829688e-08,1.80100000e-01
-5.02429687e-08,1.80101563e-01
-5.02029687e-08,1.80096875e-01
-5.01629687e-08,1.80104687e-01
-5.01229687e-08,1.80093750e-01
-5.00829687e-08,1.80109375e-01
-5.00429687e-08,1.80087500e-01
-5.00029688e-08,1.80115625e-01
-4.99629687e-08,1.80078125e-01
-4.99229687e-08,1.80131250e-01
-4.98829687e-08,1.80042188e-01
-4.98429687e-08,1.80310938e-01
-4.98029687e-08,1.80550000e-01
-4.97629687e-08,1.80475000e-01
-4.97229687e-08,1.80515625e-01
-4.96829687e-08,1.80490625e-01
-4.96429687e-08,1.80504688e-01
-4.96029687e-08,1.80500000e-01
-4.95629687e-08,1.80496875e-01
-4.95229687e-08,1.80507813e-01
-4.94829687e-08,1.80485937e-01
-4.94429687e-08,1.80525000e-01
-4.94029687e-08,1.80450000e-01
-4.93629687e-08,1.80704688e-01
-4.93229687e-08,1.80956250e-01
-4.92829687e-08,1.80867187e-01
-4.92429687e-08,1.80921875e-01
-4.92029687e-08,1.80884375e-01
-4.91629687e-08,1.80912500e-01
-4.91229687e-08,1.80890625e-01
-4.90829687e-08,1.80906250e-01
-4.90429687e-08,1.80895313e-01
-4.90029687e-08,1.80903125e-01
-4.89629687e-08,1.80898438e-01
-4.89229687e-08,1.80898438e-01
-4.88829687e-08,1.80904687e-01
-4.88429687e-08,1.80893750e-01
-4.88029687e-08,1.80910938e-01
-4.87629687e-08,1.80882813e-01
-4.87229687e-08,1.80928125e-01
-4.86829687e-08,1.80845312e-01
-4.86429688e-08,1.81109375e-01
-4.86029687e-08,1.81351563e-01
-4.85629687e-08,1.81275000e-01
-4.85229687e-08,1.81312500e-01
-4.84829687e-08,1.81298438e-01
-4.84429687e-08,1.81289063e-01
-4.84029687e-08,1.81337500e-01
-4.83629688e-08,1.81106250e-01
-4.83229687e-08,1.80832812e-01
-4.82829687e-08,1.80942188e-01
-4.82429687e-08,1.80867187e-01
-4.82029687e-08,1.80926562e-01
-4.81629687e-08,1.80878125e-01
-4.81229687e-08,1.80920313e-01
-4.80829688e-08,1.80882813e-01
-4.80429687e-08,1.80915625e-01
-4.80029687e-08,1.80885938e-01
-4.79629687e-08,1.80912500e-01
-4.79229687e-08,1.80889063e-01
-4.78829687e-08,1.80909375e-01
-4.78429687e-08,1.80892187e-01
-4.78029687e-08,1.80904687e-01
-4.77629687e-08,1.80896875e-01
-4.77229687e-08,1.80900000e-01
-4.76829687e-08,1.80906250e-01
-4.76429687e-08,1.80884375e-01
-4.76029687e-08,1.80940625e-01
-4.75629687e-08,1.80704688e-01
-4.75229687e-08,1.80432813e-01
-4.74829687e-08,1.80543750e-01
-4.74429687e-08,1.80465625e-01
-4.74029687e-08,1.80528125e-01
-4.73629687e-08,1.80475000e-01
-4.73229687e-08,1.80523437e-01
-4.72829687e-08,1.80478125e-01
-4.72429687e-08,1.80520313e-01
-4.72029687e-08,1.80481250e-01
-4.71629687e-08,1.80518750e-01
-4.71229687e-08,1.80481250e-01
-4.70829687e-08,1.80517188e-01
-4.70429687e-08,1.80482813e-01
-4.70029687e-08,1.80517188e-01
-4.69629687e-08,1.80482813e-01
-4.69229687e-08,1.80517188e-01
-4.68829687e-08,1.80482813e-01
-4.68429687e-08,1.80517188e-01
-4.68029687e-08,1.80482813e-01
-4.67629687e-08,1.80517188e-01
-4.67229688e-08,1.80482813e-01
-4.66829687e-08,1.80517188e-01
-4.66429687e-08,1.80482813e-01
-4.66029687e-08,1.80518750e-01
-4.65629687e-08,1.80481250e-01
-4.65229687e-08,1.80520313e-01
-4.64829687e-08,1.80476562e-01
-4.64429688e-08,1.80525000e-01
-4.64029687e-08,1.80468750e-01
-4.63629687e-08,1.80540625e-01
-4.63229687e-08,1.80434375e-01
-4.62829687e-08,1.80717188e-01
-4.62429687e-08,1.80943750e-01
-4.62029687e-08,1.80879687e-01
-4.61629688e-08,1.80910938e-01
-4.61229687e-08,1.80893750e-01
-4.60829687e-08,1.80903125e-01
-4.60429687e-08,1.80898438e-01
-4.60029687e-08,1.80900000e-01
-4.59629687e-08,1.80901563e-01
-4.59229687e-08,1.80898438e-01
-4.58829688e-08,1.80901563e-01
-4.58429687e-08,1.80896875e-01
-4.58029687e-08,1.80903125e-01
-4.57629687e-08,1.80896875e-01
-4.57229687e-08,1.80903125e-01
-4.56829687e-08,1.80895313e-01
-4.56429687e-08,1.80904687e-01
-4.56029687e-08,1.80895313e-01
-4.55629687e-08,1.80904687e-01
-4.55229687e-08,1.80895313e-01
-4.54829687e-08,1.80904687e-01
-4.54429687e-08,1.80895313e-01
-4.54029687e-08,1.80904687e-01
-4.53629687e-08,1.80895313e-01
-4.53229687e-08,1.80904687e-01
-4.52829687e-08,1.80895313e-01
-4.52429687e-08,1.80906250e-01
-4.52029687e-08,1.80893750e-01
-4.51629687e-08,1.80906250e-01
-4.51229687e-08,1.80893750e-01
-4.50829687e-08,1.80906250e-01
-4.50429687e-08,1.80893750e-01
-4.50029687e-08,1.80906250e-01
-4.49629687e-08,1.80893750e-01
-4.49229687e-08,1.80906250e-01
-4.48829687e-08,1.80893750e-01
-4.48429687e-08,1.80906250e-01
-4.48029688e-08,1.80893750e-01
-4.47629687e-08,1.80906250e-01
-4.47229687e-08,1.80893750e-01
-4.46829687e-08,1.80906250e-01
-4.46429687e-08,1.80893750e-01
-4.46029687e-08,1.80906250e-01
-4.45629687e-08,1.80893750e-01
-4.45229688e-08,1.80906250e-01
-4.44829687e-08,1.80892187e-01
-4.44429687e-08,1.80907813e-01
-4.44029687e-08,1.80892187e-01
-4.43629687e-08,1.80907813e-01
-4.43229687e-08,1.80892187e-01
-4.42829687e-08,1.80907813e-01
-4.42429688e-08,1.80892187e-01
-4.42029687e-08,1.80909375e-01
-4.41629687e-08,1.80890625e-01
-4.41229687e-08,1.80909375e-01
-4.40829687e-08,1.80890625e-01
-4.40429687e-08,1.80910938e-01
-4.40029687e-08,1.80889063e-01
-4.39629688e-08,1.80910938e-01
-4.39229687e-08,1.80887500e-01
-4.38829687e-08,1.80914063e-01
-4.38429687e-08,1.80884375e-01
-4.38029687e-08,1.80917188e-01
-4.37629687e-08,1.80879687e-01
-4.37229687e-08,1.80926562e-01
-4.36829688e-08,1.80864063e-01
-4.36429687e-08,1.80960938e-01
-4.36029687e-08,1.80685938e-01
-4.35629687e-08,1.80453125e-01
-4.35229687e-08,1.80521875e-01
-4.34829687e-08,1.80487500e-01
-4.34429687e-08,1.80506250e-01
-4.34029687e-08,1.80498437e-01
-4.33629687e-08,1.80496875e-01
-4.33229687e-08,1.80509375e-01
-4.32829687e-08,1.80481250e-01
-4.32429687e-08,1.80543750e-01
-4.32029687e-08,1.80303125e-01
-4.31629687e-08,1.80034375e-01
-4.31229687e-08,1.80142187e-01
-4.30829687e-08,1.80065625e-01
-4.30429687e-08,1.80131250e-01
-4.30029687e-08,1.80068750e-01
-4.29629687e-08,1.80134375e-01
-4.29229687e-08,1.80057812e-01
-4.28829688e-08,1.80165625e-01
-4.28429687e-08,1.79881250e-01
-4.28029687e-08,1.79656250e-01
-4.27629687e-08,1.79720313e-01
-4.27229687e-08,1.79689062e-01
-4.26829687e-08,1.79706250e-01
-4.26429687e-08,1.79698438e-01
-4.26029688e-08,1.79698438e-01
-4.25629687e-08,1.79704688e-01
-4.25229687e-08,1.79692188e-01
-4.24829687e-08,1.79714062e-01
-4.24429687e-08,1.79676562e-01
-4.24029687e-08,1.79748437e-01
-4.23629687e-08,1.79498437e-01
-4.23229688e-08,1.79240625e-01
-4.22829687e-08,1.79335938e-01
-4.22429687e-08,1.79273437e-01
-4.22029687e-08,1.79321875e-01
-4.21629687e-08,1.79281250e-01
-4.21229687e-08,1.79317188e-01
-4.20829687e-08,1.79284375e-01
-4.20429688e-08,1.79314063e-01
-4.20029687e-08,1.79287500e-01
-4.19629687e-08,1.79312500e-01
-4.19229687e-08,1.79287500e-01
-4.18829687e-08,1.79310938e-01
-4.18429687e-08,1.79289063e-01
-4.18029687e-08,1.79310938e-01
-4.17629688e-08,1.79289063e-01
-4.17229687e-08,1.79310938e-01
-4.16829687e-08,1.79289063e-01
-4.16429687e-08,1.79310938e-01
-4.16029687e-08,1.79290625e-01
-4.15629687e-08,1.79309375e-01
-4.15229687e-08,1.79290625e-01
-4.14829688e-08,1.79309375e-01
-4.14429687e-08,1.79290625e-01
-4.14029687e-08,1.79310938e-01
-4.13629687e-08,1.79289063e-01
-4.13229687e-08,1.79310938e-01
-4.12829687e-08,1.79289063e-01
-4.12429687e-08,1.79310938e-01
-4.12029687e-08,1.79289063e-01
-4.11629687e-08,1.79310938e-01
-4.11229687e-08,1.79289063e-01
-4.10829687e-08,1.79310938e-01
-4.10429687e-08,1.79287500e-01
-4.10029687e-08,1.79312500e-01
-4.09629688e-08,1.79287500e-01
-4.09229687e-08,1.79312500e-01
-4.08829687e-08,1.79285938e-01
-4.08429687e-08,1.79314063e-01
-4.08029687e-08,1.79284375e-01
-4.07629687e-08,1.79315625e-01
-4.07229687e-08,1.79282812e-01
-4.06829688e-08,1.79318750e-01
-4.06429687e-08,1.79278125e-01
-4.06029687e-08,1.79325000e-01
-4.05629687e-08,1.79270313e-01
-4.05229687e-08,1.79339063e-01
-4.04829687e-08,1.79235937e-01
-4.04429687e-08,1.79518750e-01
-4.04029688e-08,1.79743750e-01
-4.03629687e-08,1.79679688e-01
-4.03229687e-08,1.79709375e-01
-4.02829687e-08,1.79695313e-01
-4.02429687e-08,1.79701562e-01
-4.02029687e-08,1.79701562e-01
-4.01629687e-08,1.79695313e-01
-4.01229688e-08,1.79706250e-01
-4.00829687e-08,1.79692188e-01
-4.00429687e-08,1.79710938e-01
-4.00029687e-08,1.79687500e-01
-3.99629687e-08,1.79717188e-01
-3.99229687e-08,1.79678125e-01
-3.98829687e-08,1.79732813e-01
-3.98429688e-08,1.79642187e-01
-3.98029687e-08,1.79910938e-01
-3.97629687e-08,1.80150000e-01
-3.97229687e-08,1.80073438e-01
-3.96829687e-08,1.80117187e-01
-3.96429687e-08,1.80089063e-01
-3.96029687e-08,1.80107813e-01
-3.95629688e-08,1.80093750e-01
-3.95229687e-08,1.80104687e-01
-3.94829687e-08,1.80096875e-01
-3.94429687e-08,1.80101563e-01
-3.94029687e-08,1.80100000e-01
-3.93629687e-08,1.80098438e-01
-3.93229687e-08,1.80101563e-01
-3.92829688e-08,1.80096875e-01
-3.92429687e-08,1.80103125e-01
-3.92029687e-08,1.80095312e-01
-3.91629687e-08,1.80106250e-01
-3.91229687e-08,1.80093750e-01
-3.90829687e-08,1.80107813e-01
-3.90429688e-08,1.80090625e-01
-3.90029687e-08,1.80110938e-01
-3.89629687e-08,1.80085938e-01
-3.89229687e-08,1.80117187e-01
-3.88829687e-08,1.80078125e-01
-3.88429687e-08,1.80132813e-01
-3.88029687e-08,1.80042188e-01
-3.87629688e-08,1.80310938e-01
-3.87229687e-08,1.80551563e-01
-3.86829687e-08,1.80473438e-01
-3.86429687e-08,1.80517188e-01
-3.86029687e-08,1.80487500e-01
-3.85629687e-08,1.80507813e-01
-3.85229687e-08,1.80493750e-01
