trails/00e0f0a1771ea1cc81b4999437018e02/aes_ch1_20250506172119977.csv

Model,MSO66B
Label,
Waveform Type,ANALOG
Horizontal Units,s
Sample Interval,4.00000000e-11
Record Length,10000
Zero Index,1599.01953125
Vertical Units,A
ANALOG_Thumbnail,
yOffset,1.84500000e-01
yPosition,8.40000000e-01

Labels,
TIME,CH1
-6.39607813e-08,1.87304688e-01
-6.39207812e-08,1.87295313e-01
-6.38807813e-08,1.87304688e-01
-6.38407812e-08,1.87295313e-01
-6.38007812e-08,1.87304688e-01
-6.37607812e-08,1.87295313e-01
-6.37207812e-08,1.87306250e-01
-6.36807813e-08,1.87293750e-01
-6.36407812e-08,1.87306250e-01
-6.36007813e-08,1.87293750e-01
-6.35607812e-08,1.87306250e-01
-6.35207812e-08,1.87292188e-01
-6.34807812e-08,1.87307813e-01
-6.34407812e-08,1.87290625e-01
-6.34007813e-08,1.87310937e-01
-6.33607812e-08,1.87287500e-01
-6.33207813e-08,1.87315625e-01
-6.32807812e-08,1.87279688e-01
-6.32407812e-08,1.87329688e-01
-6.32007812e-08,1.87245313e-01
-6.31607812e-08,1.87507813e-01
-6.31207813e-08,1.87754688e-01
-6.30807812e-08,1.87670313e-01
-6.30407813e-08,1.87720313e-01
-6.30007812e-08,1.87684375e-01
-6.29607812e-08,1.87712500e-01
-6.29207812e-08,1.87689063e-01
-6.28807812e-08,1.87709375e-01
-6.28407813e-08,1.87690625e-01
-6.28007812e-08,1.87707813e-01
-6.27607813e-08,1.87692187e-01
-6.27207812e-08,1.87706250e-01
-6.26807812e-08,1.87693750e-01
-6.26407812e-08,1.87706250e-01
-6.26007812e-08,1.87693750e-01
-6.25607813e-08,1.87706250e-01
-6.25207812e-08,1.87695313e-01
-6.24807813e-08,1.87704687e-01
-6.24407812e-08,1.87695313e-01
-6.24007812e-08,1.87704687e-01
-6.23607812e-08,1.87695313e-01
-6.23207812e-08,1.87704687e-01
-6.22807813e-08,1.87695313e-01
-6.22407812e-08,1.87704687e-01
-6.22007813e-08,1.87695313e-01
-6.21607812e-08,1.87704687e-01
-6.21207812e-08,1.87695313e-01
-6.20807812e-08,1.87704687e-01
-6.20407812e-08,1.87695313e-01
-6.20007813e-08,1.87704687e-01
-6.19607812e-08,1.87695313e-01
-6.19207812e-08,1.87704687e-01
-6.18807812e-08,1.87695313e-01
-6.18407812e-08,1.87704687e-01
-6.18007812e-08,1.87695313e-01
-6.17607812e-08,1.87706250e-01
-6.17207813e-08,1.87693750e-01
-6.16807812e-08,1.87706250e-01
-6.16407812e-08,1.87693750e-01
-6.16007812e-08,1.87706250e-01
-6.15607812e-08,1.87693750e-01
-6.15207812e-08,1.87706250e-01
-6.14807812e-08,1.87693750e-01
-6.14407813e-08,1.87707813e-01
-6.14007812e-08,1.87692187e-01
-6.13607812e-08,1.87707813e-01
-6.13207812e-08,1.87690625e-01
-6.12807812e-08,1.87709375e-01
-6.12407812e-08,1.87690625e-01
-6.12007812e-08,1.87710938e-01
-6.11607813e-08,1.87687500e-01
-6.11207812e-08,1.87712500e-01
-6.10807812e-08,1.87685938e-01
-6.10407812e-08,1.87717187e-01
-6.10007812e-08,1.87679687e-01
-6.09607812e-08,1.87725000e-01
-6.09207812e-08,1.87664063e-01
-6.08807813e-08,1.87760938e-01
-6.08407812e-08,1.87485938e-01
-6.08007812e-08,1.87253125e-01
-6.07607812e-08,1.87321875e-01
-6.07207812e-08,1.87287500e-01
-6.06807812e-08,1.87306250e-01
-6.06407812e-08,1.87298437e-01
-6.06007813e-08,1.87296875e-01
-6.05607812e-08,1.87306250e-01
-6.05207812e-08,1.87287500e-01
-6.04807812e-08,1.87323437e-01
-6.04407812e-08,1.87250000e-01
-6.04007812e-08,1.87503125e-01
-6.03607812e-08,1.87759375e-01
-6.03207813e-08,1.87665625e-01
-6.02807812e-08,1.87725000e-01
-6.02407812e-08,1.87679687e-01
-6.02007812e-08,1.87717187e-01
-6.01607812e-08,1.87685938e-01
-6.01207813e-08,1.87712500e-01
-6.00807812e-08,1.87689063e-01
-6.00407813e-08,1.87710938e-01
-6.00007812e-08,1.87690625e-01
-5.99607812e-08,1.87709375e-01
-5.99207812e-08,1.87692187e-01
-5.98807812e-08,1.87707813e-01
-5.98407813e-08,1.87692187e-01
-5.98007812e-08,1.87707813e-01
-5.97607813e-08,1.87693750e-01
-5.97207812e-08,1.87706250e-01
-5.96807812e-08,1.87693750e-01
-5.96407812e-08,1.87706250e-01
-5.96007812e-08,1.87693750e-01
-5.95607812e-08,1.87706250e-01
-5.95207812e-08,1.87693750e-01
-5.94807812e-08,1.87706250e-01
-5.94407812e-08,1.87695313e-01
-5.94007812e-08,1.87704687e-01
-5.93607812e-08,1.87695313e-01
-5.93207812e-08,1.87704687e-01
-5.92807812e-08,1.87695313e-01
-5.92407812e-08,1.87704687e-01
-5.92007812e-08,1.87695313e-01
-5.91607812e-08,1.87706250e-01
-5.91207812e-08,1.87693750e-01
-5.90807812e-08,1.87706250e-01
-5.90407812e-08,1.87693750e-01
-5.90007812e-08,1.87706250e-01
-5.89607812e-08,1.87693750e-01
-5.89207812e-08,1.87706250e-01
-5.88807812e-08,1.87692187e-01
-5.88407812e-08,1.87707813e-01
-5.88007812e-08,1.87690625e-01
-5.87607812e-08,1.87709375e-01
-5.87207812e-08,1.87689063e-01
-5.86807812e-08,1.87714063e-01
-5.86407812e-08,1.87682813e-01
-5.86007812e-08,1.87721875e-01
-5.85607812e-08,1.87668750e-01
-5.85207812e-08,1.87756250e-01
-5.84807812e-08,1.87490625e-01
-5.84407812e-08,1.87246875e-01
-5.84007812e-08,1.87329688e-01
-5.83607812e-08,1.87279688e-01
-5.83207812e-08,1.87315625e-01
-5.82807812e-08,1.87287500e-01
-5.82407812e-08,1.87309375e-01
-5.82007812e-08,1.87292188e-01
-5.81607812e-08,1.87307813e-01
-5.81207812e-08,1.87293750e-01
-5.80807812e-08,1.87304688e-01
-5.80407812e-08,1.87295313e-01
-5.80007812e-08,1.87303125e-01
-5.79607812e-08,1.87296875e-01
-5.79207812e-08,1.87301563e-01
-5.78807812e-08,1.87298437e-01
-5.78407812e-08,1.87300000e-01
-5.78007812e-08,1.87301563e-01
-5.77607812e-08,1.87296875e-01
-5.77207812e-08,1.87306250e-01
-5.76807812e-08,1.87289063e-01
-5.76407812e-08,1.87320313e-01
-5.76007812e-08,1.87256250e-01
-5.75607812e-08,1.87496875e-01
-5.75207812e-08,1.87765625e-01
-5.74807812e-08,1.87657813e-01
-5.74407812e-08,1.87734375e-01
-5.74007812e-08,1.87668750e-01
-5.73607812e-08,1.87729688e-01
-5.73207812e-08,1.87670313e-01
-5.72807812e-08,1.87731250e-01
-5.72407812e-08,1.87664063e-01
-5.72007812e-08,1.87745313e-01
-5.71607812e-08,1.87629688e-01
-5.71207812e-08,1.87923438e-01
-5.70807812e-08,1.88139063e-01
-5.70407812e-08,1.88084375e-01
-5.70007812e-08,1.88104688e-01
-5.69607812e-08,1.88101563e-01
-5.69207812e-08,1.88093750e-01
-5.68807812e-08,1.88110938e-01
-5.68407812e-08,1.88082813e-01
-5.68007812e-08,1.88128125e-01
-5.67607812e-08,1.88046875e-01
-5.67207812e-08,1.88307813e-01
-5.66807812e-08,1.88554688e-01
-5.66407812e-08,1.88470313e-01
-5.66007812e-08,1.88520313e-01
-5.65607812e-08,1.88484375e-01
-5.65207812e-08,1.88512500e-01
-5.64807812e-08,1.88490625e-01
-5.64407812e-08,1.88507813e-01
-5.64007812e-08,1.88493750e-01
-5.63607812e-08,1.88506250e-01
-5.63207812e-08,1.88495313e-01
-5.62807812e-08,1.88504688e-01
-5.62407812e-08,1.88496875e-01
-5.62007812e-08,1.88503125e-01
-5.61607812e-08,1.88496875e-01
-5.61207812e-08,1.88501562e-01
-5.60807812e-08,1.88498438e-01
-5.60407812e-08,1.88501562e-01
-5.60007812e-08,1.88500000e-01
-5.59607812e-08,1.88500000e-01
-5.59207812e-08,1.88500000e-01
-5.58807812e-08,1.88500000e-01
-5.58407812e-08,1.88500000e-01
-5.58007812e-08,1.88498438e-01
-5.57607812e-08,1.88501562e-01
-5.57207812e-08,1.88498438e-01
-5.56807812e-08,1.88501562e-01
-5.56407812e-08,1.88498438e-01
-5.56007812e-08,1.88503125e-01
-5.55607812e-08,1.88496875e-01
-5.55207812e-08,1.88503125e-01
-5.54807812e-08,1.88495313e-01
-5.54407812e-08,1.88504688e-01
-5.54007812e-08,1.88493750e-01
-5.53607812e-08,1.88507813e-01
-5.53207812e-08,1.88490625e-01
-5.52807812e-08,1.88510938e-01
-5.52407812e-08,1.88485938e-01
-5.52007812e-08,1.88518750e-01
-5.51607812e-08,1.88471875e-01
-5.51207812e-08,1.88553125e-01
-5.50807812e-08,1.88293750e-01
-5.50407812e-08,1.88045313e-01
-5.50007812e-08,1.88131250e-01
-5.49607812e-08,1.88078125e-01
-5.49207812e-08,1.88117188e-01
-5.48807812e-08,1.88085937e-01
-5.48407812e-08,1.88112500e-01
-5.48007812e-08,1.88089063e-01
-5.47607812e-08,1.88109375e-01
-5.47207812e-08,1.88090625e-01
-5.46807812e-08,1.88107812e-01
-5.46407812e-08,1.88092188e-01
-5.46007812e-08,1.88107812e-01
-5.45607812e-08,1.88093750e-01
-5.45207812e-08,1.88106250e-01
-5.44807812e-08,1.88093750e-01
-5.44407812e-08,1.88106250e-01
-5.44007812e-08,1.88093750e-01
-5.43607812e-08,1.88106250e-01
-5.43207812e-08,1.88093750e-01
-5.42807812e-08,1.88106250e-01
-5.42407812e-08,1.88093750e-01
-5.42007812e-08,1.88106250e-01
-5.41607812e-08,1.88093750e-01
-5.41207812e-08,1.88107812e-01
-5.40807812e-08,1.88092188e-01
-5.40407812e-08,1.88109375e-01
-5.40007812e-08,1.88089063e-01
-5.39607812e-08,1.88112500e-01
-5.39207812e-08,1.88084375e-01
-5.38807812e-08,1.88120312e-01
-5.38407812e-08,1.88070313e-01
-5.38007812e-08,1.88153125e-01
-5.37607812e-08,1.87893750e-01
-5.37207812e-08,1.87643750e-01
-5.36807812e-08,1.87732813e-01
-5.36407812e-08,1.87676563e-01
-5.36007812e-08,1.87718750e-01
-5.35607812e-08,1.87682813e-01
-5.35207812e-08,1.87715625e-01
-5.34807812e-08,1.87685938e-01
-5.34407812e-08,1.87714063e-01
-5.34007812e-08,1.87684375e-01
-5.33607812e-08,1.87715625e-01
-5.33207812e-08,1.87681250e-01
-5.32807812e-08,1.87723438e-01
-5.32407812e-08,1.87667187e-01
-5.32007812e-08,1.87756250e-01
-5.31607812e-08,1.87490625e-01
-5.31207812e-08,1.87246875e-01
-5.30807812e-08,1.87331250e-01
-5.30407812e-08,1.87278125e-01
-5.30007812e-08,1.87317188e-01
-5.29607812e-08,1.87284375e-01
-5.29207812e-08,1.87314063e-01
-5.28807812e-08,1.87285937e-01
-5.28407812e-08,1.87315625e-01
-5.28007812e-08,1.87281250e-01
-5.27607812e-08,1.87321875e-01
-5.27207812e-08,1.87268750e-01
-5.26807812e-08,1.87356250e-01
-5.26407812e-08,1.87092188e-01
-5.26007812e-08,1.86845312e-01
-5.25607812e-08,1.86931250e-01
-5.25207812e-08,1.86878125e-01
-5.24807812e-08,1.86917187e-01
-5.24407813e-08,1.86885938e-01
-5.24007812e-08,1.86912500e-01
-5.23607812e-08,1.86889063e-01
-5.23207812e-08,1.86910938e-01
-5.22807812e-08,1.86890625e-01
-5.22407812e-08,1.86909375e-01
-5.22007812e-08,1.86890625e-01
-5.21607812e-08,1.86909375e-01
-5.21207812e-08,1.86890625e-01
-5.20807812e-08,1.86909375e-01
-5.20407812e-08,1.86890625e-01
-5.20007812e-08,1.86909375e-01
-5.19607812e-08,1.86890625e-01
-5.19207812e-08,1.86909375e-01
-5.18807812e-08,1.86889063e-01
-5.18407812e-08,1.86910938e-01
-5.18007812e-08,1.86887500e-01
-5.17607812e-08,1.86914063e-01
-5.17207812e-08,1.86884375e-01
-5.16807812e-08,1.86918750e-01
-5.16407812e-08,1.86876563e-01
-5.16007812e-08,1.86932813e-01
-5.15607812e-08,1.86842188e-01
-5.15207812e-08,1.87109375e-01
-5.14807812e-08,1.87353125e-01
-5.14407812e-08,1.87271875e-01
-5.14007812e-08,1.87320313e-01
-5.13607812e-08,1.87284375e-01
-5.13207812e-08,1.87312500e-01
-5.12807812e-08,1.87287500e-01
-5.12407812e-08,1.87312500e-01
-5.12007812e-08,1.87287500e-01
-5.11607812e-08,1.87314063e-01
-5.11207812e-08,1.87281250e-01
-5.10807812e-08,1.87328125e-01
-5.10407812e-08,1.87248438e-01
-5.10007812e-08,1.87503125e-01
-5.09607812e-08,1.87759375e-01
-5.09207812e-08,1.87664063e-01
-5.08807812e-08,1.87728125e-01
-5.08407812e-08,1.87676563e-01
-5.08007812e-08,1.87721875e-01
-5.07607812e-08,1.87679687e-01
-5.07207812e-08,1.87720313e-01
-5.06807812e-08,1.87679687e-01
-5.06407812e-08,1.87721875e-01
-5.06007812e-08,1.87676563e-01
-5.05607812e-08,1.87726562e-01
-5.05207813e-08,1.87668750e-01
-5.04807812e-08,1.87742188e-01
-5.04407812e-08,1.87632812e-01
-5.04007812e-08,1.87920313e-01
-5.03607812e-08,1.88140625e-01
-5.03207812e-08,1.88084375e-01
-5.02807812e-08,1.88106250e-01
-5.02407812e-08,1.88101563e-01
-5.02007812e-08,1.88092188e-01
-5.01607812e-08,1.88114063e-01
-5.01207812e-08,1.88075000e-01
-5.00807812e-08,1.88151563e-01
-5.00407812e-08,1.87895312e-01
-5.00007812e-08,1.87643750e-01
-4.99607812e-08,1.87732813e-01
-4.99207812e-08,1.87678125e-01
-4.98807812e-08,1.87717187e-01
-4.98407812e-08,1.87685938e-01
-4.98007812e-08,1.87712500e-01
-4.97607812e-08,1.87687500e-01
-4.97207812e-08,1.87712500e-01
-4.96807812e-08,1.87685938e-01
-4.96407812e-08,1.87717187e-01
-4.96007812e-08,1.87675000e-01
-4.95607812e-08,1.87748438e-01
-4.95207812e-08,1.87501562e-01
-4.94807812e-08,1.87234375e-01
-4.94407812e-08,1.87345312e-01
-4.94007812e-08,1.87259375e-01
-4.93607812e-08,1.87340625e-01
-4.93207812e-08,1.87250000e-01
-4.92807812e-08,1.87373438e-01
-4.92407812e-08,1.87071875e-01
-4.92007812e-08,1.86867188e-01
-4.91607812e-08,1.86906250e-01
-4.91207812e-08,1.86907812e-01
-4.90807812e-08,1.86876563e-01
-4.90407812e-08,1.86951563e-01
-4.90007812e-08,1.86692187e-01
-4.89607812e-08,1.86448438e-01
-4.89207812e-08,1.86523438e-01
-4.88807813e-08,1.86490625e-01
-4.88407812e-08,1.86495313e-01
-4.88007812e-08,1.86532813e-01
-4.87607812e-08,1.86312500e-01
-4.87207812e-08,1.86026562e-01
-4.86807812e-08,1.86151563e-01
-4.86407812e-08,1.86056250e-01
-4.86007813e-08,1.86142188e-01
-4.85607812e-08,1.86053125e-01
-4.85207812e-08,1.86168750e-01
-4.84807812e-08,1.85879688e-01
-4.84407812e-08,1.85656250e-01
-4.84007812e-08,1.85721875e-01
-4.83607812e-08,1.85685938e-01
-4.83207813e-08,1.85710938e-01
-4.82807812e-08,1.85689063e-01
-4.82407812e-08,1.85710938e-01
-4.82007812e-08,1.85685938e-01
-4.81607812e-08,1.85717188e-01
-4.81207812e-08,1.85673438e-01
-4.80807812e-08,1.85751562e-01
-4.80407812e-08,1.85496875e-01
-4.80007812e-08,1.85240625e-01
-4.79607812e-08,1.85335938e-01
-4.79207812e-08,1.85271875e-01
-4.78807812e-08,1.85323438e-01
-4.78407812e-08,1.85276563e-01
-4.78007812e-08,1.85323438e-01
-4.77607812e-08,1.85273437e-01
-4.77207812e-08,1.85334375e-01
-4.76807812e-08,1.85240625e-01
-4.76407812e-08,1.85510938e-01
-4.76007812e-08,1.85753125e-01
-4.75607812e-08,1.85670313e-01
-4.75207812e-08,1.85721875e-01
-4.74807812e-08,1.85682813e-01
-4.74407812e-08,1.85715625e-01
-4.74007812e-08,1.85684375e-01
-4.73607812e-08,1.85715625e-01
-4.73207812e-08,1.85682813e-01
-4.72807812e-08,1.85720313e-01
-4.72407812e-08,1.85675000e-01
-4.72007812e-08,1.85734375e-01
-4.71607812e-08,1.85640625e-01
-4.71207812e-08,1.85912500e-01
-4.70807812e-08,1.86148438e-01
-4.70407812e-08,1.86075000e-01
-4.70007812e-08,1.86114063e-01
-4.69607813e-08,1.86092188e-01
-4.69207812e-08,1.86103125e-01
-4.68807812e-08,1.86101563e-01
-4.68407812e-08,1.86092188e-01
-4.68007812e-08,1.86118750e-01
-4.67607812e-08,1.86056250e-01
-4.67207812e-08,1.86296875e-01
-4.66807813e-08,1.86565625e-01
-4.66407812e-08,1.86457813e-01
-4.66007812e-08,1.86534375e-01
-4.65607812e-08,1.86470313e-01
-4.65207812e-08,1.86529688e-01
-4.64807812e-08,1.86467188e-01
-4.64407812e-08,1.86540625e-01
-4.64007813e-08,1.86435938e-01
-4.63607812e-08,1.86715625e-01
-4.63207812e-08,1.86948438e-01
-4.62807812e-08,1.86873438e-01
-4.62407812e-08,1.86918750e-01
-4.62007812e-08,1.86884375e-01
-4.61607812e-08,1.86914063e-01
-4.61207813e-08,1.86885938e-01
-4.60807812e-08,1.86915625e-01
-4.60407812e-08,1.86879688e-01
-4.60007812e-08,1.86929687e-01
-4.59607812e-08,1.86846875e-01
-4.59207812e-08,1.87106250e-01
-4.58807812e-08,1.87356250e-01
-4.58407812e-08,1.87265625e-01
-4.58007812e-08,1.87325000e-01
-4.57607812e-08,1.87279688e-01
-4.57207812e-08,1.87318750e-01
-4.56807812e-08,1.87282813e-01
-4.56407812e-08,1.87317188e-01
-4.56007812e-08,1.87281250e-01
-4.55607812e-08,1.87320313e-01
-4.55207812e-08,1.87276563e-01
-4.54807812e-08,1.87332813e-01
-4.54407812e-08,1.87242188e-01
-4.54007812e-08,1.87509375e-01
-4.53607812e-08,1.87753125e-01
-4.53207812e-08,1.87670313e-01
-4.52807812e-08,1.87721875e-01
-4.52407812e-08,1.87682813e-01
-4.52007812e-08,1.87715625e-01
-4.51607812e-08,1.87685938e-01
-4.51207812e-08,1.87714063e-01
-4.50807812e-08,1.87685938e-01
-4.50407813e-08,1.87715625e-01
-4.50007812e-08,1.87682813e-01
-4.49607812e-08,1.87720313e-01
-4.49207812e-08,1.87675000e-01
-4.48807812e-08,1.87734375e-01
-4.48407812e-08,1.87640625e-01
-4.48007812e-08,1.87912500e-01
-4.47607813e-08,1.88150000e-01
-4.47207812e-08,1.88073437e-01
-4.46807812e-08,1.88117188e-01
-4.46407812e-08,1.88089063e-01
-4.46007812e-08,1.88107812e-01
-4.45607812e-08,1.88095313e-01
-4.45207812e-08,1.88103125e-01
-4.44807813e-08,1.88098437e-01
-4.44407812e-08,1.88100000e-01
-4.44007812e-08,1.88103125e-01
-4.43607812e-08,1.88095313e-01
-4.43207812e-08,1.88109375e-01
-4.42807812e-08,1.88085937e-01
-4.42407812e-08,1.88125000e-01
-4.42007813e-08,1.88050000e-01
-4.41607812e-08,1.88303125e-01
-4.41207812e-08,1.88559375e-01
-4.40807812e-08,1.88465625e-01
-4.40407812e-08,1.88525000e-01
-4.40007812e-08,1.88479687e-01
-4.39607812e-08,1.88517188e-01
-4.39207813e-08,1.88484375e-01
-4.38807812e-08,1.88514062e-01
-4.38407812e-08,1.88487500e-01
-4.38007812e-08,1.88510938e-01
-4.37607812e-08,1.88489062e-01
-4.37207812e-08,1.88509375e-01
-4.36807812e-08,1.88490625e-01
-4.36407812e-08,1.88507813e-01
-4.36007812e-08,1.88492188e-01
-4.35607812e-08,1.88507813e-01
-4.35207812e-08,1.88492188e-01
-4.34807812e-08,1.88507813e-01
-4.34407812e-08,1.88493750e-01
-4.34007812e-08,1.88506250e-01
-4.33607812e-08,1.88493750e-01
-4.33207812e-08,1.88506250e-01
-4.32807812e-08,1.88493750e-01
-4.32407812e-08,1.88506250e-01
-4.32007812e-08,1.88493750e-01
-4.31607812e-08,1.88504688e-01
-4.31207813e-08,1.88495313e-01
-4.30807812e-08,1.88504688e-01
-4.30407812e-08,1.88495313e-01
-4.30007812e-08,1.88504688e-01
-4.29607812e-08,1.88495313e-01
-4.29207812e-08,1.88504688e-01
-4.28807812e-08,1.88495313e-01
-4.28407813e-08,1.88504688e-01
-4.28007812e-08,1.88495313e-01
-4.27607812e-08,1.88504688e-01
-4.27207812e-08,1.88495313e-01
-4.26807812e-08,1.88504688e-01
-4.26407812e-08,1.88496875e-01
-4.26007812e-08,1.88503125e-01
-4.25607813e-08,1.88496875e-01
-4.25207812e-08,1.88503125e-01
-4.24807812e-08,1.88496875e-01
-4.24407812e-08,1.88503125e-01
-4.24007812e-08,1.88496875e-01
-4.23607812e-08,1.88503125e-01
-4.23207812e-08,1.88496875e-01
-4.22807813e-08,1.88503125e-01
-4.22407812e-08,1.88496875e-01
-4.22007812e-08,1.88503125e-01
-4.21607812e-08,1.88496875e-01
-4.21207812e-08,1.88503125e-01
-4.20807812e-08,1.88496875e-01
-4.20407812e-08,1.88503125e-01
-4.20007813e-08,1.88496875e-01
-4.19607812e-08,1.88503125e-01
-4.19207812e-08,1.88498438e-01
-4.18807812e-08,1.88501562e-01
-4.18407812e-08,1.88498438e-01
-4.18007812e-08,1.88501562e-01
-4.17607812e-08,1.88498438e-01
-4.17207813e-08,1.88501562e-01
-4.16807812e-08,1.88498438e-01
-4.16407812e-08,1.88501562e-01
-4.16007812e-08,1.88498438e-01
-4.15607812e-08,1.88501562e-01
-4.15207812e-08,1.88498438e-01
-4.14807812e-08,1.88500000e-01
-4.14407812e-08,1.88500000e-01
-4.14007812e-08,1.88500000e-01
-4.13607812e-08,1.88500000e-01
-4.13207812e-08,1.88500000e-01
-4.12807812e-08,1.88500000e-01
-4.12407812e-08,1.88500000e-01
-4.12007813e-08,1.88501562e-01
-4.11607812e-08,1.88498438e-01
-4.11207812e-08,1.88501562e-01
-4.10807812e-08,1.88496875e-01
-4.10407812e-08,1.88503125e-01
-4.10007812e-08,1.88495313e-01
-4.09607812e-08,1.88504688e-01
-4.09207813e-08,1.88493750e-01
-4.08807812e-08,1.88507813e-01
-4.08407812e-08,1.88490625e-01
-4.08007812e-08,1.88512500e-01
-4.07607812e-08,1.88481250e-01
-4.07207812e-08,1.88528125e-01
-4.06807812e-08,1.88446875e-01
-4.06407813e-08,1.88706250e-01
-4.06007812e-08,1.88954687e-01
-4.05607812e-08,1.88868750e-01
-4.05207812e-08,1.88920313e-01
-4.04807812e-08,1.88884375e-01
-4.04407812e-08,1.88912500e-01
-4.04007812e-08,1.88890625e-01
-4.03607813e-08,1.88906250e-01
-4.03207812e-08,1.88895312e-01
-4.02807812e-08,1.88901563e-01
-4.02407812e-08,1.88903125e-01
-4.02007812e-08,1.88892188e-01
-4.01607812e-08,1.88918750e-01
-4.01207812e-08,1.88856250e-01
-4.00807813e-08,1.89096875e-01
-4.00407812e-08,1.89365625e-01
-4.00007812e-08,1.89259375e-01
-3.99607812e-08,1.89331250e-01
-3.99207812e-08,1.89273438e-01
-3.98807812e-08,1.89323437e-01
-3.98407812e-08,1.89278125e-01
-3.98007813e-08,1.89320313e-01
-3.97607812e-08,1.89281250e-01
-3.97207812e-08,1.89318750e-01
-3.96807812e-08,1.89281250e-01
-3.96407812e-08,1.89317188e-01
-3.96007812e-08,1.89282813e-01
-3.95607812e-08,1.89317188e-01
-3.95207813e-08,1.89282813e-01
-3.94807812e-08,1.89317188e-01
-3.94407812e-08,1.89282813e-01
-3.94007812e-08,1.89317188e-01
-3.93607812e-08,1.89281250e-01
-3.93207812e-08,1.89318750e-01
-3.92807813e-08,1.89279688e-01
-3.92407812e-08,1.89320313e-01
-3.92007812e-08,1.89278125e-01
-3.91607812e-08,1.89325000e-01
-3.91207812e-08,1.89271875e-01
-3.90807812e-08,1.89332813e-01
-3.90407812e-08,1.89257813e-01
-3.90007813e-08,1.89367188e-01
-3.89607812e-08,1.89078125e-01
-3.89207812e-08,1.88859375e-01
-3.88807812e-08,1.88915625e-01
-3.88407812e-08,1.88893750e-01
-3.88007812e-08,1.88900000e-01
-3.87607812e-08,1.88906250e-01
-3.87207813e-08,1.88889063e-01
-3.86807812e-08,1.88917188e-01
-3.86407812e-08,1.88873438e-01
-3.86007812e-08,1.88951563e-01
-3.85607812e-08,1.88693750e-01
-3.85207812e-08,1.88443750e-01
