trails/00e0f0a1771ea1cc81b4999437018e02/aes_ch1_20250506172511152.csv

Model,MSO66B
Label,
Waveform Type,ANALOG
Horizontal Units,s
Sample Interval,4.00000000e-11
Record Length,10000
Zero Index,1599.05468750
Vertical Units,A
ANALOG_Thumbnail,
yOffset,1.84500000e-01
yPosition,8.40000000e-01

Labels,
TIME,CH1
-6.39621875e-08,1.82118750e-01
-6.39221875e-08,1.82081250e-01
-6.38821875e-08,1.82118750e-01
-6.38421875e-08,1.82079688e-01
-6.38021875e-08,1.82121875e-01
-6.37621875e-08,1.82073438e-01
-6.37221875e-08,1.82135938e-01
-6.36821875e-08,1.82040625e-01
-6.36421875e-08,1.82312500e-01
-6.36021875e-08,1.82550000e-01
-6.35621875e-08,1.82473438e-01
-6.35221875e-08,1.82517188e-01
-6.34821875e-08,1.82487500e-01
-6.34421875e-08,1.82509375e-01
-6.34021875e-08,1.82492188e-01
-6.33621875e-08,1.82507813e-01
-6.33221875e-08,1.82493750e-01
-6.32821875e-08,1.82506250e-01
-6.32421875e-08,1.82493750e-01
-6.32021875e-08,1.82506250e-01
-6.31621875e-08,1.82492188e-01
-6.31221875e-08,1.82507813e-01
-6.30821875e-08,1.82490625e-01
-6.30421875e-08,1.82512500e-01
-6.30021875e-08,1.82482813e-01
-6.29621875e-08,1.82526563e-01
-6.29221875e-08,1.82450000e-01
-6.28821875e-08,1.82703125e-01
-6.28421875e-08,1.82960938e-01
-6.28021875e-08,1.82862500e-01
-6.27621875e-08,1.82928125e-01
-6.27221875e-08,1.82875000e-01
-6.26821875e-08,1.82923438e-01
-6.26421875e-08,1.82876563e-01
-6.26021875e-08,1.82925000e-01
-6.25621875e-08,1.82870313e-01
-6.25221875e-08,1.82937500e-01
-6.24821875e-08,1.82837500e-01
-6.24421875e-08,1.83115625e-01
-6.24021875e-08,1.83348438e-01
-6.23621875e-08,1.83275000e-01
-6.23221875e-08,1.83315625e-01
-6.22821875e-08,1.83289063e-01
-6.22421875e-08,1.83307813e-01
-6.22021875e-08,1.83293750e-01
-6.21621875e-08,1.83304688e-01
-6.21221875e-08,1.83296875e-01
-6.20821875e-08,1.83303125e-01
-6.20421875e-08,1.83298437e-01
-6.20021875e-08,1.83301563e-01
-6.19621875e-08,1.83298437e-01
-6.19221875e-08,1.83301563e-01
-6.18821875e-08,1.83298437e-01
-6.18421875e-08,1.83300000e-01
-6.18021875e-08,1.83300000e-01
-6.17621875e-08,1.83300000e-01
-6.17221875e-08,1.83300000e-01
-6.16821875e-08,1.83300000e-01
-6.16421875e-08,1.83300000e-01
-6.16021875e-08,1.83300000e-01
-6.15621875e-08,1.83300000e-01
-6.15221875e-08,1.83300000e-01
-6.14821875e-08,1.83300000e-01
-6.14421875e-08,1.83300000e-01
-6.14021875e-08,1.83301563e-01
-6.13621875e-08,1.83298437e-01
-6.13221875e-08,1.83301563e-01
-6.12821875e-08,1.83298437e-01
-6.12421875e-08,1.83301563e-01
-6.12021875e-08,1.83298437e-01
-6.11621875e-08,1.83301563e-01
-6.11221875e-08,1.83298437e-01
-6.10821875e-08,1.83301563e-01
-6.10421875e-08,1.83298437e-01
-6.10021875e-08,1.83301563e-01
-6.09621875e-08,1.83298437e-01
-6.09221875e-08,1.83301563e-01
-6.08821875e-08,1.83298437e-01
-6.08421875e-08,1.83301563e-01
-6.08021875e-08,1.83298437e-01
-6.07621875e-08,1.83301563e-01
-6.07221875e-08,1.83298437e-01
-6.06821875e-08,1.83301563e-01
-6.06421875e-08,1.83298437e-01
-6.06021875e-08,1.83301563e-01
-6.05621875e-08,1.83298437e-01
-6.05221875e-08,1.83301563e-01
-6.04821875e-08,1.83298437e-01
-6.04421875e-08,1.83301563e-01
-6.04021875e-08,1.83298437e-01
-6.03621875e-08,1.83301563e-01
-6.03221875e-08,1.83298437e-01
-6.02821875e-08,1.83301563e-01
-6.02421875e-08,1.83298437e-01
-6.02021875e-08,1.83301563e-01
-6.01621875e-08,1.83298437e-01
-6.01221875e-08,1.83301563e-01
-6.00821875e-08,1.83298437e-01
-6.00421875e-08,1.83301563e-01
-6.00021875e-08,1.83298437e-01
-5.99621875e-08,1.83301563e-01
-5.99221875e-08,1.83298437e-01
-5.98821875e-08,1.83301563e-01
-5.98421875e-08,1.83296875e-01
-5.98021875e-08,1.83303125e-01
-5.97621875e-08,1.83296875e-01
-5.97221875e-08,1.83303125e-01
-5.96821875e-08,1.83296875e-01
-5.96421875e-08,1.83303125e-01
-5.96021875e-08,1.83296875e-01
-5.95621875e-08,1.83303125e-01
-5.95221875e-08,1.83296875e-01
-5.94821875e-08,1.83303125e-01
-5.94421875e-08,1.83296875e-01
-5.94021875e-08,1.83303125e-01
-5.93621875e-08,1.83296875e-01
-5.93221875e-08,1.83303125e-01
-5.92821875e-08,1.83296875e-01
-5.92421875e-08,1.83303125e-01
-5.92021875e-08,1.83296875e-01
-5.91621875e-08,1.83303125e-01
-5.91221875e-08,1.83296875e-01
-5.90821875e-08,1.83303125e-01
-5.90421875e-08,1.83296875e-01
-5.90021875e-08,1.83303125e-01
-5.89621875e-08,1.83296875e-01
-5.89221875e-08,1.83303125e-01
-5.88821875e-08,1.83295313e-01
-5.88421875e-08,1.83304688e-01
-5.88021875e-08,1.83295313e-01
-5.87621875e-08,1.83304688e-01
-5.87221875e-08,1.83295313e-01
-5.86821875e-08,1.83304688e-01
-5.86421875e-08,1.83295313e-01
-5.86021875e-08,1.83304688e-01
-5.85621875e-08,1.83295313e-01
-5.85221875e-08,1.83304688e-01
-5.84821875e-08,1.83293750e-01
-5.84421875e-08,1.83306250e-01
-5.84021875e-08,1.83293750e-01
-5.83621875e-08,1.83306250e-01
-5.83221875e-08,1.83293750e-01
-5.82821875e-08,1.83306250e-01
-5.82421875e-08,1.83292188e-01
-5.82021875e-08,1.83307813e-01
-5.81621875e-08,1.83292188e-01
-5.81221875e-08,1.83309375e-01
-5.80821875e-08,1.83290625e-01
-5.80421875e-08,1.83310937e-01
-5.80021875e-08,1.83289063e-01
-5.79621875e-08,1.83312500e-01
-5.79221875e-08,1.83285937e-01
-5.78821875e-08,1.83315625e-01
-5.78421875e-08,1.83279688e-01
-5.78021875e-08,1.83325000e-01
-5.77621875e-08,1.83265625e-01
-5.77221875e-08,1.83359375e-01
-5.76821875e-08,1.83087500e-01
-5.76421875e-08,1.82851563e-01
-5.76021875e-08,1.82925000e-01
-5.75621875e-08,1.82884375e-01
-5.75221875e-08,1.82909375e-01
-5.74821875e-08,1.82893750e-01
-5.74421875e-08,1.82903125e-01
-5.74021875e-08,1.82898438e-01
-5.73621875e-08,1.82898438e-01
-5.73221875e-08,1.82903125e-01
-5.72821875e-08,1.82895313e-01
-5.72421875e-08,1.82907813e-01
-5.72021875e-08,1.82889063e-01
-5.71621875e-08,1.82917187e-01
-5.71221875e-08,1.82873438e-01
-5.70821875e-08,1.82951562e-01
-5.70421875e-08,1.82695313e-01
-5.70021875e-08,1.82443750e-01
-5.69621875e-08,1.82532813e-01
-5.69221875e-08,1.82476562e-01
-5.68821875e-08,1.82517188e-01
-5.68421875e-08,1.82485938e-01
-5.68021875e-08,1.82512500e-01
-5.67621875e-08,1.82489063e-01
-5.67221875e-08,1.82509375e-01
-5.66821875e-08,1.82492188e-01
-5.66421875e-08,1.82507813e-01
-5.66021875e-08,1.82493750e-01
-5.65621875e-08,1.82506250e-01
-5.65221875e-08,1.82493750e-01
-5.64821875e-08,1.82504688e-01
-5.64421875e-08,1.82495313e-01
-5.64021875e-08,1.82504688e-01
-5.63621875e-08,1.82495313e-01
-5.63221875e-08,1.82503125e-01
-5.62821875e-08,1.82496875e-01
-5.62421875e-08,1.82503125e-01
-5.62021875e-08,1.82496875e-01
-5.61621875e-08,1.82503125e-01
-5.61221875e-08,1.82498437e-01
-5.60821875e-08,1.82501563e-01
-5.60421875e-08,1.82498437e-01
-5.60021875e-08,1.82501563e-01
-5.59621875e-08,1.82498437e-01
-5.59221875e-08,1.82500000e-01
-5.58821875e-08,1.82500000e-01
-5.58421875e-08,1.82500000e-01
-5.58021875e-08,1.82501563e-01
-5.57621875e-08,1.82498437e-01
-5.57221875e-08,1.82503125e-01
-5.56821875e-08,1.82496875e-01
-5.56421875e-08,1.82504688e-01
-5.56021875e-08,1.82492188e-01
-5.55621875e-08,1.82509375e-01
-5.55221875e-08,1.82484375e-01
-5.54821875e-08,1.82525000e-01
-5.54421875e-08,1.82450000e-01
-5.54021875e-08,1.82701562e-01
-5.53621875e-08,1.82960938e-01
-5.53221875e-08,1.82862500e-01
-5.52821875e-08,1.82928125e-01
-5.52421875e-08,1.82876563e-01
-5.52021875e-08,1.82920313e-01
-5.51621875e-08,1.82881250e-01
-5.51221875e-08,1.82918750e-01
-5.50821875e-08,1.82881250e-01
-5.50421875e-08,1.82918750e-01
-5.50021875e-08,1.82879687e-01
-5.49621875e-08,1.82923438e-01
-5.49221875e-08,1.82871875e-01
-5.48821875e-08,1.82937500e-01
-5.48421875e-08,1.82839063e-01
-5.48021875e-08,1.83114063e-01
-5.47621875e-08,1.83348438e-01
-5.47221875e-08,1.83275000e-01
-5.46821875e-08,1.83315625e-01
-5.46421875e-08,1.83289063e-01
-5.46021875e-08,1.83307813e-01
-5.45621875e-08,1.83293750e-01
-5.45221875e-08,1.83304688e-01
-5.44821875e-08,1.83295313e-01
-5.44421875e-08,1.83303125e-01
-5.44021875e-08,1.83296875e-01
-5.43621875e-08,1.83301563e-01
-5.43221875e-08,1.83298437e-01
-5.42821875e-08,1.83301563e-01
-5.42421875e-08,1.83298437e-01
-5.42021875e-08,1.83301563e-01
-5.41621875e-08,1.83300000e-01
-5.41221875e-08,1.83300000e-01
-5.40821875e-08,1.83300000e-01
-5.40421875e-08,1.83300000e-01
-5.40021875e-08,1.83300000e-01
-5.39621875e-08,1.83300000e-01
-5.39221875e-08,1.83300000e-01
-5.38821875e-08,1.83300000e-01
-5.38421875e-08,1.83300000e-01
-5.38021875e-08,1.83300000e-01
-5.37621875e-08,1.83300000e-01
-5.37221875e-08,1.83300000e-01
-5.36821875e-08,1.83300000e-01
-5.36421875e-08,1.83300000e-01
-5.36021875e-08,1.83301563e-01
-5.35621875e-08,1.83298437e-01
-5.35221875e-08,1.83301563e-01
-5.34821875e-08,1.83298437e-01
-5.34421875e-08,1.83301563e-01
-5.34021875e-08,1.83298437e-01
-5.33621875e-08,1.83301563e-01
-5.33221875e-08,1.83296875e-01
-5.32821875e-08,1.83303125e-01
-5.32421875e-08,1.83296875e-01
-5.32021875e-08,1.83304688e-01
-5.31621875e-08,1.83293750e-01
-5.31221875e-08,1.83307813e-01
-5.30821875e-08,1.83289063e-01
-5.30421875e-08,1.83315625e-01
-5.30021875e-08,1.83275000e-01
-5.29621875e-08,1.83348438e-01
-5.29221875e-08,1.83098438e-01
-5.28821875e-08,1.82839063e-01
-5.28421875e-08,1.82939062e-01
-5.28021875e-08,1.82870313e-01
-5.27621875e-08,1.82926563e-01
-5.27221875e-08,1.82875000e-01
-5.26821875e-08,1.82925000e-01
-5.26421875e-08,1.82873438e-01
-5.26021875e-08,1.82931250e-01
-5.25621875e-08,1.82859375e-01
-5.25221875e-08,1.82965625e-01
-5.24821875e-08,1.82682813e-01
-5.24421875e-08,1.82456250e-01
-5.24021875e-08,1.82520313e-01
-5.23621875e-08,1.82490625e-01
-5.23221875e-08,1.82504688e-01
-5.22821875e-08,1.82500000e-01
-5.22421875e-08,1.82495313e-01
-5.22021875e-08,1.82510937e-01
-5.21621875e-08,1.82478125e-01
-5.21221875e-08,1.82546875e-01
-5.20821875e-08,1.82300000e-01
-5.20421875e-08,1.82037500e-01
-5.20021875e-08,1.82139063e-01
-5.19621875e-08,1.82070312e-01
-5.19221875e-08,1.82126563e-01
-5.18821875e-08,1.82076563e-01
-5.18421875e-08,1.82123438e-01
-5.18021875e-08,1.82075000e-01
-5.17621875e-08,1.82129687e-01
-5.17221875e-08,1.82062500e-01
-5.16821875e-08,1.82160938e-01
-5.16421875e-08,1.81885938e-01
-5.16021875e-08,1.81651563e-01
-5.15621875e-08,1.81725000e-01
-5.15221875e-08,1.81682813e-01
-5.14821875e-08,1.81712500e-01
-5.14421875e-08,1.81690625e-01
-5.14021875e-08,1.81707813e-01
-5.13621875e-08,1.81692188e-01
-5.13221875e-08,1.81706250e-01
-5.12821875e-08,1.81693750e-01
-5.12421875e-08,1.81706250e-01
-5.12021875e-08,1.81693750e-01
-5.11621875e-08,1.81706250e-01
-5.11221875e-08,1.81693750e-01
-5.10821875e-08,1.81706250e-01
-5.10421875e-08,1.81693750e-01
-5.10021875e-08,1.81707813e-01
-5.09621875e-08,1.81690625e-01
-5.09221875e-08,1.81710938e-01
-5.08821875e-08,1.81685938e-01
-5.08421875e-08,1.81718750e-01
-5.08021875e-08,1.81671875e-01
-5.07621875e-08,1.81753125e-01
-5.07221875e-08,1.81493750e-01
-5.06821875e-08,1.81243750e-01
-5.06421875e-08,1.81332812e-01
-5.06021875e-08,1.81276563e-01
-5.05621875e-08,1.81318750e-01
-5.05221875e-08,1.81282813e-01
-5.04821875e-08,1.81315625e-01
-5.04421875e-08,1.81285937e-01
-5.04021875e-08,1.81312500e-01
-5.03621875e-08,1.81287500e-01
-5.03221875e-08,1.81312500e-01
-5.02821875e-08,1.81287500e-01
-5.02421875e-08,1.81312500e-01
-5.02021875e-08,1.81285937e-01
-5.01621875e-08,1.81314063e-01
-5.01221875e-08,1.81284375e-01
-5.00821875e-08,1.81317188e-01
-5.00421875e-08,1.81279688e-01
-5.00021875e-08,1.81326563e-01
-4.99621875e-08,1.81264063e-01
-4.99221875e-08,1.81360938e-01
-4.98821875e-08,1.81085938e-01
-4.98421875e-08,1.80851563e-01
-4.98021875e-08,1.80925000e-01
-4.97621875e-08,1.80884375e-01
-4.97221875e-08,1.80909375e-01
-4.96821875e-08,1.80893750e-01
-4.96421875e-08,1.80903125e-01
-4.96021875e-08,1.80898438e-01
-4.95621875e-08,1.80900000e-01
-4.95221875e-08,1.80903125e-01
-4.94821875e-08,1.80895313e-01
-4.94421875e-08,1.80907813e-01
-4.94021875e-08,1.80889063e-01
-4.93621875e-08,1.80915625e-01
-4.93221875e-08,1.80873438e-01
-4.92821875e-08,1.80951562e-01
-4.92421875e-08,1.80695313e-01
-4.92021875e-08,1.80442188e-01
-4.91621875e-08,1.80532813e-01
-4.91221875e-08,1.80476562e-01
-4.90821875e-08,1.80518750e-01
-4.90421875e-08,1.80484375e-01
-4.90021875e-08,1.80512500e-01
-4.89621875e-08,1.80489063e-01
-4.89221875e-08,1.80509375e-01
-4.88821875e-08,1.80492188e-01
-4.88421875e-08,1.80506250e-01
-4.88021875e-08,1.80493750e-01
-4.87621875e-08,1.80504688e-01
-4.87221875e-08,1.80496875e-01
-4.86821875e-08,1.80501563e-01
-4.86421875e-08,1.80501563e-01
-4.86021875e-08,1.80495313e-01
-4.85621875e-08,1.80509375e-01
-4.85221875e-08,1.80481250e-01
-4.84821875e-08,1.80543750e-01
-4.84421875e-08,1.80303125e-01
-4.84021875e-08,1.80034375e-01
-4.83621875e-08,1.80140625e-01
-4.83221875e-08,1.80068750e-01
-4.82821875e-08,1.80126563e-01
-4.82421875e-08,1.80075000e-01
-4.82021875e-08,1.80121875e-01
-4.81621875e-08,1.80078125e-01
-4.81221875e-08,1.80120313e-01
-4.80821875e-08,1.80079688e-01
-4.80421875e-08,1.80118750e-01
-4.80021875e-08,1.80081250e-01
-4.79621875e-08,1.80118750e-01
-4.79221875e-08,1.80081250e-01
-4.78821875e-08,1.80118750e-01
-4.78421875e-08,1.80081250e-01
-4.78021875e-08,1.80120313e-01
-4.77621875e-08,1.80079688e-01
-4.77221875e-08,1.80121875e-01
-4.76821875e-08,1.80078125e-01
-4.76421875e-08,1.80123438e-01
-4.76021875e-08,1.80075000e-01
-4.75621875e-08,1.80126563e-01
-4.75221875e-08,1.80070312e-01
-4.74821875e-08,1.80132813e-01
-4.74421875e-08,1.80060938e-01
-4.74021875e-08,1.80148438e-01
-4.73621875e-08,1.80025000e-01
-4.73221875e-08,1.80329688e-01
-4.72821875e-08,1.80531250e-01
-4.72421875e-08,1.80495313e-01
-4.72021875e-08,1.80493750e-01
-4.71621875e-08,1.80515625e-01
-4.71221875e-08,1.80475000e-01
-4.70821875e-08,1.80537500e-01
-4.70421875e-08,1.80434375e-01
-4.70021875e-08,1.80721875e-01
-4.69621875e-08,1.80937500e-01
-4.69221875e-08,1.80892187e-01
-4.68821875e-08,1.80892187e-01
-4.68421875e-08,1.80923438e-01
-4.68021875e-08,1.80846875e-01
-4.67621875e-08,1.81110938e-01
-4.67221875e-08,1.81346875e-01
-4.66821875e-08,1.81281250e-01
-4.66421875e-08,1.81303125e-01
-4.66021875e-08,1.81314063e-01
-4.65621875e-08,1.81257813e-01
-4.65221875e-08,1.81500000e-01
-4.64821875e-08,1.81757813e-01
-4.64421875e-08,1.81670313e-01
-4.64021875e-08,1.81715625e-01
-4.63621875e-08,1.81700000e-01
-4.63221875e-08,1.81671875e-01
-4.62821875e-08,1.81882813e-01
-4.62421875e-08,1.82178125e-01
-4.62021875e-08,1.82045313e-01
-4.61621875e-08,1.82146875e-01
-4.61221875e-08,1.82054688e-01
-4.60821875e-08,1.82150000e-01
-4.60421875e-08,1.82028125e-01
-4.60021875e-08,1.82321875e-01
-4.59621875e-08,1.82543750e-01
-4.59221875e-08,1.82478125e-01
-4.58821875e-08,1.82515625e-01
-4.58421875e-08,1.82485938e-01
-4.58021875e-08,1.82514063e-01
-4.57621875e-08,1.82481250e-01
-4.57221875e-08,1.82526563e-01
-4.56821875e-08,1.82448438e-01
-4.56421875e-08,1.82704688e-01
-4.56021875e-08,1.82957813e-01
-4.55621875e-08,1.82865625e-01
-4.55221875e-08,1.82925000e-01
-4.54821875e-08,1.82879687e-01
-4.54421875e-08,1.82917187e-01
-4.54021875e-08,1.82884375e-01
-4.53621875e-08,1.82914063e-01
-4.53221875e-08,1.82887500e-01
-4.52821875e-08,1.82910938e-01
-4.52421875e-08,1.82889063e-01
-4.52021875e-08,1.82910938e-01
-4.51621875e-08,1.82890625e-01
-4.51221875e-08,1.82909375e-01
-4.50821875e-08,1.82890625e-01
-4.50421875e-08,1.82907813e-01
-4.50021875e-08,1.82892187e-01
-4.49621875e-08,1.82907813e-01
-4.49221875e-08,1.82892187e-01
-4.48821875e-08,1.82907813e-01
-4.48421875e-08,1.82892187e-01
-4.48021875e-08,1.82906250e-01
-4.47621875e-08,1.82893750e-01
-4.47221875e-08,1.82906250e-01
-4.46821875e-08,1.82893750e-01
-4.46421875e-08,1.82906250e-01
-4.46021875e-08,1.82893750e-01
-4.45621875e-08,1.82906250e-01
-4.45221875e-08,1.82893750e-01
-4.44821875e-08,1.82906250e-01
-4.44421875e-08,1.82893750e-01
-4.44021875e-08,1.82906250e-01
-4.43621875e-08,1.82893750e-01
-4.43221875e-08,1.82904687e-01
-4.42821875e-08,1.82895313e-01
-4.42421875e-08,1.82904687e-01
-4.42021875e-08,1.82895313e-01
-4.41621875e-08,1.82904687e-01
-4.41221875e-08,1.82895313e-01
-4.40821875e-08,1.82904687e-01
-4.40421875e-08,1.82895313e-01
-4.40021875e-08,1.82904687e-01
-4.39621875e-08,1.82895313e-01
-4.39221875e-08,1.82904687e-01
-4.38821875e-08,1.82895313e-01
-4.38421875e-08,1.82904687e-01
-4.38021875e-08,1.82895313e-01
-4.37621875e-08,1.82904687e-01
-4.37221875e-08,1.82895313e-01
-4.36821875e-08,1.82904687e-01
-4.36421875e-08,1.82895313e-01
-4.36021875e-08,1.82904687e-01
-4.35621875e-08,1.82895313e-01
-4.35221875e-08,1.82904687e-01
-4.34821875e-08,1.82895313e-01
-4.34421875e-08,1.82906250e-01
-4.34021875e-08,1.82893750e-01
-4.33621875e-08,1.82906250e-01
-4.33221875e-08,1.82893750e-01
-4.32821875e-08,1.82906250e-01
-4.32421875e-08,1.82893750e-01
-4.32021875e-08,1.82907813e-01
-4.31621875e-08,1.82892187e-01
-4.31221875e-08,1.82909375e-01
-4.30821875e-08,1.82890625e-01
-4.30421875e-08,1.82910938e-01
-4.30021875e-08,1.82887500e-01
-4.29621875e-08,1.82915625e-01
-4.29221875e-08,1.82879687e-01
-4.28821875e-08,1.82929687e-01
-4.28421875e-08,1.82845312e-01
-4.28021875e-08,1.83107812e-01
-4.27621875e-08,1.83354688e-01
-4.27221875e-08,1.83268750e-01
-4.26821875e-08,1.83321875e-01
-4.26421875e-08,1.83282813e-01
-4.26021875e-08,1.83314063e-01
-4.25621875e-08,1.83287500e-01
-4.25221875e-08,1.83310937e-01
-4.24821875e-08,1.83289063e-01
-4.24421875e-08,1.83310937e-01
-4.24021875e-08,1.83289063e-01
-4.23621875e-08,1.83310937e-01
-4.23221875e-08,1.83289063e-01
-4.22821875e-08,1.83310937e-01
-4.22421875e-08,1.83287500e-01
-4.22021875e-08,1.83314063e-01
-4.21621875e-08,1.83282813e-01
-4.21221875e-08,1.83321875e-01
-4.20821875e-08,1.83268750e-01
-4.20421875e-08,1.83356250e-01
-4.20021875e-08,1.83090625e-01
-4.19621875e-08,1.82846875e-01
-4.19221875e-08,1.82928125e-01
-4.18821875e-08,1.82881250e-01
-4.18421875e-08,1.82914063e-01
-4.18021875e-08,1.82889063e-01
-4.17621875e-08,1.82909375e-01
-4.17221875e-08,1.82892187e-01
-4.16821875e-08,1.82906250e-01
-4.16421875e-08,1.82895313e-01
-4.16021875e-08,1.82903125e-01
-4.15621875e-08,1.82898438e-01
-4.15221875e-08,1.82900000e-01
-4.14821875e-08,1.82901563e-01
-4.14421875e-08,1.82895313e-01
-4.14021875e-08,1.82909375e-01
-4.13621875e-08,1.82881250e-01
-4.13221875e-08,1.82943750e-01
-4.12821875e-08,1.82703125e-01
-4.12421875e-08,1.82434375e-01
-4.12021875e-08,1.82543750e-01
-4.11621875e-08,1.82465625e-01
-4.11221875e-08,1.82531250e-01
-4.10821875e-08,1.82470313e-01
-4.10421875e-08,1.82529688e-01
-4.10021875e-08,1.82468750e-01
-4.09621875e-08,1.82535937e-01
-4.09221875e-08,1.82454688e-01
-4.08821875e-08,1.82570312e-01
-4.08421875e-08,1.82276563e-01
-4.08021875e-08,1.82060938e-01
-4.07621875e-08,1.82114063e-01
-4.07221875e-08,1.82096875e-01
-4.06821875e-08,1.82095312e-01
-4.06421875e-08,1.82112500e-01
-4.06021875e-08,1.82076563e-01
-4.05621875e-08,1.82148438e-01
-4.05221875e-08,1.81898438e-01
-4.04821875e-08,1.81639063e-01
-4.04421875e-08,1.81737500e-01
-4.04021875e-08,1.81668750e-01
-4.03621875e-08,1.81729688e-01
-4.03221875e-08,1.81664063e-01
-4.02821875e-08,1.81756250e-01
-4.02421875e-08,1.81493750e-01
-4.02021875e-08,1.81242188e-01
-4.01621875e-08,1.81337500e-01
-4.01221875e-08,1.81267188e-01
-4.00821875e-08,1.81332812e-01
-4.00421875e-08,1.81259375e-01
-4.00021875e-08,1.81364063e-01
-3.99621875e-08,1.81082812e-01
-3.99221875e-08,1.80854687e-01
-3.98821875e-08,1.80920313e-01
-3.98421875e-08,1.80889063e-01
-3.98021875e-08,1.80904687e-01
-3.97621875e-08,1.80900000e-01
-3.97221875e-08,1.80895313e-01
-3.96821875e-08,1.80910938e-01
-3.96421875e-08,1.80878125e-01
-3.96021875e-08,1.80948438e-01
-3.95621875e-08,1.80698438e-01
-3.95221875e-08,1.80439062e-01
-3.94821875e-08,1.80535938e-01
-3.94421875e-08,1.80473438e-01
-3.94021875e-08,1.80520313e-01
-3.93621875e-08,1.80482813e-01
-3.93221875e-08,1.80514063e-01
-3.92821875e-08,1.80487500e-01
-3.92421875e-08,1.80510937e-01
-3.92021875e-08,1.80490625e-01
-3.91621875e-08,1.80507813e-01
-3.91221875e-08,1.80493750e-01
-3.90821875e-08,1.80504688e-01
-3.90421875e-08,1.80498437e-01
-3.90021875e-08,1.80495313e-01
-3.89621875e-08,1.80514063e-01
-3.89221875e-08,1.80462500e-01
-3.88821875e-08,1.80690625e-01
-3.88421875e-08,1.80971875e-01
-3.88021875e-08,1.80851563e-01
-3.87621875e-08,1.80940625e-01
-3.87221875e-08,1.80862500e-01
-3.86821875e-08,1.80935938e-01
-3.86421875e-08,1.80864063e-01
-3.86021875e-08,1.80939062e-01
-3.85621875e-08,1.80857812e-01
-3.85221875e-08,1.80953125e-01
