trails/00e0f0a1771ea1cc81b4999437018e02/aes_ch1_20250506173023476.csv

Model,MSO66B
Label,
Waveform Type,ANALOG
Horizontal Units,s
Sample Interval,4.00000000e-11
Record Length,10000
Zero Index,1599.07812500
Vertical Units,A
ANALOG_Thumbnail,
yOffset,1.84500000e-01
yPosition,8.40000000e-01

Labels,
TIME,CH1
-6.39631250e-08,1.98325000e-01
-6.39231250e-08,1.98535938e-01
-6.38831250e-08,1.98489063e-01
-6.38431250e-08,1.98501563e-01
-6.38031250e-08,1.98504687e-01
-6.37631250e-08,1.98490625e-01
-6.37231250e-08,1.98514063e-01
-6.36831250e-08,1.98482812e-01
-6.36431250e-08,1.98521875e-01
-6.36031250e-08,1.98470312e-01
-6.35631250e-08,1.98540625e-01
-6.35231250e-08,1.98432812e-01
-6.34831250e-08,1.98721875e-01
-6.34431250e-08,1.98939063e-01
-6.34031250e-08,1.98887500e-01
-6.33631250e-08,1.98901563e-01
-6.33231250e-08,1.98907813e-01
-6.32831250e-08,1.98882813e-01
-6.32431250e-08,1.98929688e-01
-6.32031250e-08,1.98843750e-01
-6.31631250e-08,1.99112500e-01
-6.31231250e-08,1.99348438e-01
-6.30831250e-08,1.99278125e-01
-6.30431250e-08,1.99309375e-01
-6.30031250e-08,1.99298438e-01
-6.29631250e-08,1.99292187e-01
-6.29231250e-08,1.99320313e-01
-6.28831250e-08,1.99253125e-01
-6.28431250e-08,1.99501563e-01
-6.28031250e-08,1.99759375e-01
-6.27631250e-08,1.99665625e-01
-6.27231250e-08,1.99723438e-01
-6.26831250e-08,1.99681250e-01
-6.26431250e-08,1.99714063e-01
-6.26031250e-08,1.99689063e-01
-6.25631250e-08,1.99709375e-01
-6.25231250e-08,1.99692188e-01
-6.24831250e-08,1.99706250e-01
-6.24431250e-08,1.99695312e-01
-6.24031250e-08,1.99703125e-01
-6.23631250e-08,1.99696875e-01
-6.23231250e-08,1.99701563e-01
-6.22831250e-08,1.99700000e-01
-6.22431250e-08,1.99700000e-01
-6.22031250e-08,1.99701563e-01
-6.21631250e-08,1.99696875e-01
-6.21231250e-08,1.99704688e-01
-6.20831250e-08,1.99693750e-01
-6.20431250e-08,1.99707812e-01
-6.20031250e-08,1.99690625e-01
-6.19631250e-08,1.99712500e-01
-6.19231250e-08,1.99684375e-01
-6.18831250e-08,1.99721875e-01
-6.18431250e-08,1.99668750e-01
-6.18031250e-08,1.99757813e-01
-6.17631250e-08,1.99489063e-01
-6.17231250e-08,1.99250000e-01
-6.16831250e-08,1.99325000e-01
-6.16431250e-08,1.99287500e-01
-6.16031250e-08,1.99304688e-01
-6.15631250e-08,1.99303125e-01
-6.15231250e-08,1.99285938e-01
-6.14831250e-08,1.99339062e-01
-6.14431250e-08,1.99106250e-01
-6.14031250e-08,1.98831250e-01
-6.13631250e-08,1.98946875e-01
-6.13231250e-08,1.98860938e-01
-6.12831250e-08,1.98939063e-01
-6.12431250e-08,1.98856250e-01
-6.12031250e-08,1.98965625e-01
-6.11631250e-08,1.98682813e-01
-6.11231250e-08,1.98453125e-01
-6.10831250e-08,1.98525000e-01
-6.10431250e-08,1.98481250e-01
-6.10031250e-08,1.98515625e-01
-6.09631250e-08,1.98485938e-01
-6.09231250e-08,1.98515625e-01
-6.08831250e-08,1.98482812e-01
-6.08431250e-08,1.98521875e-01
-6.08031250e-08,1.98468750e-01
-6.07631250e-08,1.98556250e-01
-6.07231250e-08,1.98290625e-01
-6.06831250e-08,1.98046875e-01
-6.06431250e-08,1.98128125e-01
-6.06031250e-08,1.98081250e-01
-6.05631250e-08,1.98114063e-01
-6.05231250e-08,1.98089062e-01
-6.04831250e-08,1.98107813e-01
-6.04431250e-08,1.98093750e-01
-6.04031250e-08,1.98104688e-01
-6.03631250e-08,1.98096875e-01
-6.03231250e-08,1.98101562e-01
-6.02831250e-08,1.98100000e-01
-6.02431250e-08,1.98098438e-01
-6.02031250e-08,1.98104688e-01
-6.01631250e-08,1.98092188e-01
-6.01231250e-08,1.98114063e-01
-6.00831250e-08,1.98076562e-01
-6.00431250e-08,1.98148437e-01
-6.00031250e-08,1.97898437e-01
-5.99631250e-08,1.97639063e-01
-5.99231250e-08,1.97735938e-01
-5.98831250e-08,1.97673437e-01
-5.98431250e-08,1.97721875e-01
-5.98031250e-08,1.97681250e-01
-5.97631250e-08,1.97715625e-01
-5.97231250e-08,1.97685938e-01
-5.96831250e-08,1.97714063e-01
-5.96431250e-08,1.97687500e-01
-5.96031250e-08,1.97712500e-01
-5.95631250e-08,1.97689063e-01
-5.95231250e-08,1.97710938e-01
-5.94831250e-08,1.97689063e-01
-5.94431250e-08,1.97709375e-01
-5.94031250e-08,1.97690625e-01
-5.93631250e-08,1.97709375e-01
-5.93231250e-08,1.97690625e-01
-5.92831250e-08,1.97709375e-01
-5.92431250e-08,1.97690625e-01
-5.92031250e-08,1.97709375e-01
-5.91631250e-08,1.97690625e-01
-5.91231250e-08,1.97709375e-01
-5.90831250e-08,1.97690625e-01
-5.90431250e-08,1.97710938e-01
-5.90031250e-08,1.97689063e-01
-5.89631250e-08,1.97710938e-01
-5.89231250e-08,1.97687500e-01
-5.88831250e-08,1.97714063e-01
-5.88431250e-08,1.97684375e-01
-5.88031250e-08,1.97718750e-01
-5.87631250e-08,1.97676563e-01
-5.87231250e-08,1.97732813e-01
-5.86831250e-08,1.97642188e-01
-5.86431250e-08,1.97910937e-01
-5.86031250e-08,1.98151563e-01
-5.85631250e-08,1.98071875e-01
-5.85231250e-08,1.98118750e-01
-5.84831250e-08,1.98085938e-01
-5.84431250e-08,1.98110938e-01
-5.84031250e-08,1.98090625e-01
-5.83631250e-08,1.98107813e-01
-5.83231250e-08,1.98093750e-01
-5.82831250e-08,1.98106250e-01
-5.82431250e-08,1.98093750e-01
-5.82031250e-08,1.98104688e-01
-5.81631250e-08,1.98095313e-01
-5.81231250e-08,1.98104688e-01
-5.80831250e-08,1.98095313e-01
-5.80431250e-08,1.98104688e-01
-5.80031250e-08,1.98095313e-01
-5.79631250e-08,1.98103125e-01
-5.79231250e-08,1.98096875e-01
-5.78831250e-08,1.98104688e-01
-5.78431250e-08,1.98096875e-01
-5.78031250e-08,1.98104688e-01
-5.77631250e-08,1.98095313e-01
-5.77231250e-08,1.98104688e-01
-5.76831250e-08,1.98095313e-01
-5.76431250e-08,1.98104688e-01
-5.76031250e-08,1.98095313e-01
-5.75631250e-08,1.98104688e-01
-5.75231250e-08,1.98095313e-01
-5.74831250e-08,1.98104688e-01
-5.74431250e-08,1.98095313e-01
-5.74031250e-08,1.98106250e-01
-5.73631250e-08,1.98093750e-01
-5.73231250e-08,1.98106250e-01
-5.72831250e-08,1.98093750e-01
-5.72431250e-08,1.98107813e-01
-5.72031250e-08,1.98092188e-01
-5.71631250e-08,1.98107813e-01
-5.71231250e-08,1.98090625e-01
-5.70831250e-08,1.98109375e-01
-5.70431250e-08,1.98089062e-01
-5.70031250e-08,1.98112500e-01
-5.69631250e-08,1.98085938e-01
-5.69231250e-08,1.98117188e-01
-5.68831250e-08,1.98079688e-01
-5.68431250e-08,1.98125000e-01
-5.68031250e-08,1.98064062e-01
-5.67631250e-08,1.98160938e-01
-5.67231250e-08,1.97884375e-01
-5.66831250e-08,1.97653125e-01
-5.66431250e-08,1.97721875e-01
-5.66031250e-08,1.97690625e-01
-5.65631250e-08,1.97703125e-01
-5.65231250e-08,1.97703125e-01
-5.64831250e-08,1.97689063e-01
-5.64431250e-08,1.97721875e-01
-5.64031250e-08,1.97651563e-01
-5.63631250e-08,1.97901563e-01
-5.63231250e-08,1.98159375e-01
-5.62831250e-08,1.98065625e-01
-5.62431250e-08,1.98125000e-01
-5.62031250e-08,1.98081250e-01
-5.61631250e-08,1.98114063e-01
-5.61231250e-08,1.98089062e-01
-5.60831250e-08,1.98109375e-01
-5.60431250e-08,1.98093750e-01
-5.60031250e-08,1.98103125e-01
-5.59631250e-08,1.98100000e-01
-5.59231250e-08,1.98093750e-01
-5.58831250e-08,1.98115625e-01
-5.58431250e-08,1.98059375e-01
-5.58031250e-08,1.98293750e-01
-5.57631250e-08,1.98568750e-01
-5.57231250e-08,1.98453125e-01
-5.56831250e-08,1.98537500e-01
-5.56431250e-08,1.98465625e-01
-5.56031250e-08,1.98534375e-01
-5.55631250e-08,1.98462500e-01
-5.55231250e-08,1.98545313e-01
-5.54831250e-08,1.98431250e-01
-5.54431250e-08,1.98720312e-01
-5.54031250e-08,1.98942188e-01
-5.53631250e-08,1.98881250e-01
-5.53231250e-08,1.98910937e-01
-5.52831250e-08,1.98893750e-01
-5.52431250e-08,1.98903125e-01
-5.52031250e-08,1.98898437e-01
-5.51631250e-08,1.98901563e-01
-5.51231250e-08,1.98900000e-01
-5.50831250e-08,1.98900000e-01
-5.50431250e-08,1.98900000e-01
-5.50031250e-08,1.98900000e-01
-5.49631250e-08,1.98900000e-01
-5.49231250e-08,1.98900000e-01
-5.48831250e-08,1.98900000e-01
-5.48431250e-08,1.98900000e-01
-5.48031250e-08,1.98900000e-01
-5.47631250e-08,1.98900000e-01
-5.47231250e-08,1.98900000e-01
-5.46831250e-08,1.98900000e-01
-5.46431250e-08,1.98900000e-01
-5.46031250e-08,1.98901563e-01
-5.45631250e-08,1.98898437e-01
-5.45231250e-08,1.98903125e-01
-5.44831250e-08,1.98895313e-01
-5.44431250e-08,1.98906250e-01
-5.44031250e-08,1.98890625e-01
-5.43631250e-08,1.98912500e-01
-5.43231250e-08,1.98878125e-01
-5.42831250e-08,1.98946875e-01
-5.42431250e-08,1.98701563e-01
-5.42031250e-08,1.98435937e-01
-5.41631250e-08,1.98542188e-01
-5.41231250e-08,1.98464063e-01
-5.40831250e-08,1.98535938e-01
-5.40431250e-08,1.98457812e-01
-5.40031250e-08,1.98564062e-01
-5.39631250e-08,1.98285938e-01
-5.39231250e-08,1.98050000e-01
-5.38831250e-08,1.98129688e-01
-5.38431250e-08,1.98076562e-01
-5.38031250e-08,1.98123437e-01
-5.37631250e-08,1.98068750e-01
-5.37231250e-08,1.98154688e-01
-5.36831250e-08,1.97893750e-01
-5.36431250e-08,1.97642188e-01
-5.36031250e-08,1.97734375e-01
-5.35631250e-08,1.97673437e-01
-5.35231250e-08,1.97723438e-01
-5.34831250e-08,1.97678125e-01
-5.34431250e-08,1.97721875e-01
-5.34031250e-08,1.97676563e-01
-5.33631250e-08,1.97726563e-01
-5.33231250e-08,1.97664063e-01
-5.32831250e-08,1.97759375e-01
-5.32431250e-08,1.97489063e-01
-5.32031250e-08,1.97246875e-01
-5.31631250e-08,1.97329688e-01
-5.31231250e-08,1.97276563e-01
-5.30831250e-08,1.97321875e-01
-5.30431250e-08,1.97276563e-01
-5.30031250e-08,1.97331250e-01
-5.29631250e-08,1.97245313e-01
-5.29231250e-08,1.97506250e-01
-5.28831250e-08,1.97757813e-01
-5.28431250e-08,1.97665625e-01
-5.28031250e-08,1.97726563e-01
-5.27631250e-08,1.97676563e-01
-5.27231250e-08,1.97721875e-01
-5.26831250e-08,1.97678125e-01
-5.26431250e-08,1.97723438e-01
-5.26031250e-08,1.97673437e-01
-5.25631250e-08,1.97734375e-01
-5.25231250e-08,1.97640625e-01
-5.24831250e-08,1.97910937e-01
-5.24431250e-08,1.98153125e-01
-5.24031250e-08,1.98068750e-01
-5.23631250e-08,1.98125000e-01
-5.23231250e-08,1.98075000e-01
-5.22831250e-08,1.98131250e-01
-5.22431250e-08,1.98046875e-01
-5.22031250e-08,1.98304688e-01
-5.21631250e-08,1.98559375e-01
-5.21231250e-08,1.98462500e-01
-5.20831250e-08,1.98529687e-01
-5.20431250e-08,1.98471875e-01
-5.20031250e-08,1.98528125e-01
-5.19631250e-08,1.98468750e-01
-5.19231250e-08,1.98540625e-01
-5.18831250e-08,1.98435937e-01
-5.18431250e-08,1.98717188e-01
-5.18031250e-08,1.98945312e-01
-5.17631250e-08,1.98878125e-01
-5.17231250e-08,1.98912500e-01
-5.16831250e-08,1.98892188e-01
-5.16431250e-08,1.98906250e-01
-5.16031250e-08,1.98896875e-01
-5.15631250e-08,1.98901563e-01
-5.15231250e-08,1.98898437e-01
-5.14831250e-08,1.98900000e-01
-5.14431250e-08,1.98900000e-01
-5.14031250e-08,1.98898437e-01
-5.13631250e-08,1.98901563e-01
-5.13231250e-08,1.98896875e-01
-5.12831250e-08,1.98903125e-01
-5.12431250e-08,1.98895313e-01
-5.12031250e-08,1.98904688e-01
-5.11631250e-08,1.98893750e-01
-5.11231250e-08,1.98906250e-01
-5.10831250e-08,1.98892188e-01
-5.10431250e-08,1.98910937e-01
-5.10031250e-08,1.98885937e-01
-5.09631250e-08,1.98918750e-01
-5.09231250e-08,1.98871875e-01
-5.08831250e-08,1.98953125e-01
-5.08431250e-08,1.98693750e-01
-5.08031250e-08,1.98443750e-01
-5.07631250e-08,1.98532813e-01
-5.07231250e-08,1.98476563e-01
-5.06831250e-08,1.98520313e-01
-5.06431250e-08,1.98482812e-01
-5.06031250e-08,1.98515625e-01
-5.05631250e-08,1.98484375e-01
-5.05231250e-08,1.98514063e-01
-5.04831250e-08,1.98484375e-01
-5.04431250e-08,1.98517187e-01
-5.04031250e-08,1.98481250e-01
-5.03631250e-08,1.98523438e-01
-5.03231250e-08,1.98467188e-01
-5.02831250e-08,1.98557813e-01
-5.02431250e-08,1.98289063e-01
-5.02031250e-08,1.98046875e-01
-5.01631250e-08,1.98129688e-01
-5.01231250e-08,1.98079688e-01
-5.00831250e-08,1.98115625e-01
-5.00431250e-08,1.98087500e-01
-5.00031250e-08,1.98110938e-01
-4.99631250e-08,1.98090625e-01
-4.99231250e-08,1.98107813e-01
-4.98831250e-08,1.98092188e-01
-4.98431250e-08,1.98107813e-01
-4.98031250e-08,1.98093750e-01
-4.97631250e-08,1.98106250e-01
-4.97231250e-08,1.98093750e-01
-4.96831250e-08,1.98106250e-01
-4.96431250e-08,1.98093750e-01
-4.96031250e-08,1.98106250e-01
-4.95631250e-08,1.98093750e-01
-4.95231250e-08,1.98106250e-01
-4.94831250e-08,1.98093750e-01
-4.94431250e-08,1.98106250e-01
-4.94031250e-08,1.98092188e-01
-4.93631250e-08,1.98107813e-01
-4.93231250e-08,1.98092188e-01
-4.92831250e-08,1.98109375e-01
-4.92431250e-08,1.98090625e-01
-4.92031250e-08,1.98110938e-01
-4.91631250e-08,1.98087500e-01
-4.91231250e-08,1.98114063e-01
-4.90831250e-08,1.98082813e-01
-4.90431250e-08,1.98121875e-01
-4.90031250e-08,1.98068750e-01
-4.89631250e-08,1.98156250e-01
-4.89231250e-08,1.97890625e-01
-4.88831250e-08,1.97646875e-01
-4.88431250e-08,1.97729688e-01
-4.88031250e-08,1.97679688e-01
-4.87631250e-08,1.97714063e-01
-4.87231250e-08,1.97689063e-01
-4.86831250e-08,1.97709375e-01
-4.86431250e-08,1.97692188e-01
-4.86031250e-08,1.97707812e-01
-4.85631250e-08,1.97693750e-01
-4.85231250e-08,1.97706250e-01
-4.84831250e-08,1.97695312e-01
-4.84431250e-08,1.97704688e-01
-4.84031250e-08,1.97695312e-01
-4.83631250e-08,1.97704688e-01
-4.83231250e-08,1.97695312e-01
-4.82831250e-08,1.97703125e-01
-4.82431250e-08,1.97696875e-01
-4.82031250e-08,1.97703125e-01
-4.81631250e-08,1.97696875e-01
-4.81231250e-08,1.97703125e-01
-4.80831250e-08,1.97696875e-01
-4.80431250e-08,1.97703125e-01
-4.80031250e-08,1.97696875e-01
-4.79631250e-08,1.97703125e-01
-4.79231250e-08,1.97696875e-01
-4.78831250e-08,1.97703125e-01
-4.78431250e-08,1.97696875e-01
-4.78031250e-08,1.97703125e-01
-4.77631250e-08,1.97696875e-01
-4.77231250e-08,1.97703125e-01
-4.76831250e-08,1.97696875e-01
-4.76431250e-08,1.97703125e-01
-4.76031250e-08,1.97696875e-01
-4.75631250e-08,1.97703125e-01
-4.75231250e-08,1.97695312e-01
-4.74831250e-08,1.97704688e-01
-4.74431250e-08,1.97695312e-01
-4.74031250e-08,1.97704688e-01
-4.73631250e-08,1.97695312e-01
-4.73231250e-08,1.97706250e-01
-4.72831250e-08,1.97693750e-01
-4.72431250e-08,1.97706250e-01
-4.72031250e-08,1.97692188e-01
-4.71631250e-08,1.97709375e-01
-4.71231250e-08,1.97689063e-01
-4.70831250e-08,1.97712500e-01
-4.70431250e-08,1.97684375e-01
-4.70031250e-08,1.97720312e-01
-4.69631250e-08,1.97670313e-01
-4.69231250e-08,1.97754687e-01
-4.68831250e-08,1.97492187e-01
-4.68431250e-08,1.97246875e-01
-4.68031250e-08,1.97329688e-01
-4.67631250e-08,1.97279688e-01
-4.67231250e-08,1.97315625e-01
-4.66831250e-08,1.97287500e-01
-4.66431250e-08,1.97309375e-01
-4.66031250e-08,1.97292187e-01
-4.65631250e-08,1.97307813e-01
-4.65231250e-08,1.97293750e-01
-4.64831250e-08,1.97306250e-01
-4.64431250e-08,1.97295313e-01
-4.64031250e-08,1.97304688e-01
-4.63631250e-08,1.97296875e-01
-4.63231250e-08,1.97303125e-01
-4.62831250e-08,1.97298438e-01
-4.62431250e-08,1.97301562e-01
-4.62031250e-08,1.97300000e-01
-4.61631250e-08,1.97300000e-01
-4.61231250e-08,1.97301562e-01
-4.60831250e-08,1.97296875e-01
-4.60431250e-08,1.97304688e-01
-4.60031250e-08,1.97293750e-01
-4.59631250e-08,1.97309375e-01
-4.59231250e-08,1.97285938e-01
-4.58831250e-08,1.97323438e-01
-4.58431250e-08,1.97251563e-01
-4.58031250e-08,1.97501563e-01
-4.57631250e-08,1.97760938e-01
-4.57231250e-08,1.97664063e-01
-4.56831250e-08,1.97726563e-01
-4.56431250e-08,1.97678125e-01
-4.56031250e-08,1.97718750e-01
-4.55631250e-08,1.97682812e-01
-4.55231250e-08,1.97715625e-01
-4.54831250e-08,1.97685938e-01
-4.54431250e-08,1.97714063e-01
-4.54031250e-08,1.97687500e-01
-4.53631250e-08,1.97712500e-01
-4.53231250e-08,1.97687500e-01
-4.52831250e-08,1.97712500e-01
-4.52431250e-08,1.97687500e-01
-4.52031250e-08,1.97710938e-01
-4.51631250e-08,1.97689063e-01
-4.51231250e-08,1.97710938e-01
-4.50831250e-08,1.97689063e-01
-4.50431250e-08,1.97710938e-01
-4.50031250e-08,1.97687500e-01
-4.49631250e-08,1.97712500e-01
-4.49231250e-08,1.97687500e-01
-4.48831250e-08,1.97712500e-01
-4.48431250e-08,1.97687500e-01
-4.48031250e-08,1.97714063e-01
-4.47631250e-08,1.97685938e-01
-4.47231250e-08,1.97715625e-01
-4.46831250e-08,1.97682812e-01
-4.46431250e-08,1.97718750e-01
-4.46031250e-08,1.97678125e-01
-4.45631250e-08,1.97726563e-01
-4.45231250e-08,1.97664063e-01
-4.44831250e-08,1.97759375e-01
-4.44431250e-08,1.97487500e-01
-4.44031250e-08,1.97250000e-01
-4.43631250e-08,1.97326562e-01
-4.43231250e-08,1.97281250e-01
-4.42831250e-08,1.97315625e-01
-4.42431250e-08,1.97284375e-01
-4.42031250e-08,1.97317188e-01
-4.41631250e-08,1.97275000e-01
-4.41231250e-08,1.97348438e-01
-4.40831250e-08,1.97100000e-01
-4.40431250e-08,1.96835938e-01
-4.40031250e-08,1.96942188e-01
-4.39631250e-08,1.96865625e-01
-4.39231250e-08,1.96932812e-01
-4.38831250e-08,1.96867188e-01
-4.38431250e-08,1.96937500e-01
-4.38031250e-08,1.96854688e-01
-4.37631250e-08,1.96970313e-01
-4.37231250e-08,1.96676563e-01
-4.36831250e-08,1.96460938e-01
-4.36431250e-08,1.96515625e-01
-4.36031250e-08,1.96493750e-01
-4.35631250e-08,1.96500000e-01
-4.35231250e-08,1.96503125e-01
-4.34831250e-08,1.96493750e-01
-4.34431250e-08,1.96509375e-01
-4.34031250e-08,1.96489063e-01
-4.33631250e-08,1.96514063e-01
-4.33231250e-08,1.96481250e-01
-4.32831250e-08,1.96525000e-01
-4.32431250e-08,1.96464063e-01
-4.32031250e-08,1.96560938e-01
-4.31631250e-08,1.96284375e-01
-4.31231250e-08,1.96054688e-01
-4.30831250e-08,1.96120313e-01
-4.30431250e-08,1.96090625e-01
-4.30031250e-08,1.96101562e-01
-4.29631250e-08,1.96104688e-01
-4.29231250e-08,1.96089063e-01
-4.28831250e-08,1.96123437e-01
-4.28431250e-08,1.96051562e-01
-4.28031250e-08,1.96303125e-01
-4.27631250e-08,1.96557813e-01
-4.27231250e-08,1.96465625e-01
-4.26831250e-08,1.96523438e-01
-4.26431250e-08,1.96481250e-01
-4.26031250e-08,1.96514063e-01
-4.25631250e-08,1.96489063e-01
-4.25231250e-08,1.96509375e-01
-4.24831250e-08,1.96492187e-01
-4.24431250e-08,1.96506250e-01
-4.24031250e-08,1.96495313e-01
-4.23631250e-08,1.96503125e-01
-4.23231250e-08,1.96498438e-01
-4.22831250e-08,1.96500000e-01
-4.22431250e-08,1.96501563e-01
-4.22031250e-08,1.96496875e-01
-4.21631250e-08,1.96507813e-01
-4.21231250e-08,1.96487500e-01
-4.20831250e-08,1.96521875e-01
-4.20431250e-08,1.96453125e-01
-4.20031250e-08,1.96700000e-01
-4.19631250e-08,1.96962500e-01
-4.19231250e-08,1.96862500e-01
-4.18831250e-08,1.96928125e-01
-4.18431250e-08,1.96876563e-01
-4.18031250e-08,1.96921875e-01
-4.17631250e-08,1.96879688e-01
-4.17231250e-08,1.96918750e-01
-4.16831250e-08,1.96881250e-01
-4.16431250e-08,1.96918750e-01
-4.16031250e-08,1.96881250e-01
-4.15631250e-08,1.96918750e-01
-4.15231250e-08,1.96879688e-01
-4.14831250e-08,1.96923438e-01
-4.14431250e-08,1.96871875e-01
-4.14031250e-08,1.96937500e-01
-4.13631250e-08,1.96837500e-01
-4.13231250e-08,1.97115625e-01
-4.12831250e-08,1.97346875e-01
-4.12431250e-08,1.97276563e-01
-4.12031250e-08,1.97314062e-01
-4.11631250e-08,1.97290625e-01
-4.11231250e-08,1.97306250e-01
-4.10831250e-08,1.97295313e-01
-4.10431250e-08,1.97301562e-01
-4.10031250e-08,1.97298438e-01
-4.09631250e-08,1.97300000e-01
-4.09231250e-08,1.97301562e-01
-4.08831250e-08,1.97296875e-01
-4.08431250e-08,1.97304688e-01
-4.08031250e-08,1.97292187e-01
-4.07631250e-08,1.97310938e-01
-4.07231250e-08,1.97284375e-01
-4.06831250e-08,1.97325000e-01
-4.06431250e-08,1.97250000e-01
-4.06031250e-08,1.97503125e-01
-4.05631250e-08,1.97759375e-01
-4.05231250e-08,1.97664063e-01
-4.04831250e-08,1.97726563e-01
-4.04431250e-08,1.97678125e-01
-4.04031250e-08,1.97720312e-01
-4.03631250e-08,1.97681250e-01
-4.03231250e-08,1.97717188e-01
-4.02831250e-08,1.97682812e-01
-4.02431250e-08,1.97717188e-01
-4.02031250e-08,1.97682812e-01
-4.01631250e-08,1.97718750e-01
-4.01231250e-08,1.97679688e-01
-4.00831250e-08,1.97721875e-01
-4.00431250e-08,1.97673437e-01
-4.00031250e-08,1.97737500e-01
-3.99631250e-08,1.97639063e-01
-3.99231250e-08,1.97914063e-01
-3.98831250e-08,1.98148437e-01
-3.98431250e-08,1.98075000e-01
-3.98031250e-08,1.98115625e-01
-3.97631250e-08,1.98090625e-01
-3.97231250e-08,1.98107813e-01
-3.96831250e-08,1.98095313e-01
-3.96431250e-08,1.98103125e-01
-3.96031250e-08,1.98096875e-01
-3.95631250e-08,1.98101562e-01
-3.95231250e-08,1.98100000e-01
-3.94831250e-08,1.98100000e-01
-3.94431250e-08,1.98100000e-01
-3.94031250e-08,1.98098438e-01
-3.93631250e-08,1.98101562e-01
-3.93231250e-08,1.98098438e-01
-3.92831250e-08,1.98103125e-01
-3.92431250e-08,1.98096875e-01
-3.92031250e-08,1.98104688e-01
-3.91631250e-08,1.98095313e-01
-3.91231250e-08,1.98106250e-01
-3.90831250e-08,1.98092188e-01
-3.90431250e-08,1.98109375e-01
-3.90031250e-08,1.98089062e-01
-3.89631250e-08,1.98114063e-01
-3.89231250e-08,1.98081250e-01
-3.88831250e-08,1.98128125e-01
-3.88431250e-08,1.98046875e-01
-3.88031250e-08,1.98306250e-01
-3.87631250e-08,1.98556250e-01
-3.87231250e-08,1.98468750e-01
-3.86831250e-08,1.98521875e-01
-3.86431250e-08,1.98482812e-01
-3.86031250e-08,1.98514063e-01
-3.85631250e-08,1.98487500e-01
-3.85231250e-08,1.98510938e-01
