trails/00e0f0a1771ea1cc81b4999437018e02/aes_ch1_20250506172614279.csv

Model,MSO66B
Label,
Waveform Type,ANALOG
Horizontal Units,s
Sample Interval,4.00000000e-11
Record Length,10000
Zero Index,1599.09375000
Vertical Units,A
ANALOG_Thumbnail,
yOffset,1.84500000e-01
yPosition,8.40000000e-01

Labels,
TIME,CH1
-6.39637500e-08,1.93293750e-01
-6.39237500e-08,1.93304688e-01
-6.38837500e-08,1.93295313e-01
-6.38437500e-08,1.93304688e-01
-6.38037500e-08,1.93295313e-01
-6.37637500e-08,1.93304688e-01
-6.37237500e-08,1.93295313e-01
-6.36837500e-08,1.93304688e-01
-6.36437500e-08,1.93295313e-01
-6.36037500e-08,1.93304688e-01
-6.35637500e-08,1.93295313e-01
-6.35237500e-08,1.93304688e-01
-6.34837500e-08,1.93295313e-01
-6.34437500e-08,1.93304688e-01
-6.34037500e-08,1.93295313e-01
-6.33637500e-08,1.93304688e-01
-6.33237500e-08,1.93295313e-01
-6.32837500e-08,1.93306250e-01
-6.32437500e-08,1.93293750e-01
-6.32037500e-08,1.93306250e-01
-6.31637500e-08,1.93293750e-01
-6.31237500e-08,1.93306250e-01
-6.30837500e-08,1.93292188e-01
-6.30437500e-08,1.93307813e-01
-6.30037500e-08,1.93290625e-01
-6.29637500e-08,1.93309375e-01
-6.29237500e-08,1.93289062e-01
-6.28837500e-08,1.93314062e-01
-6.28437500e-08,1.93282813e-01
-6.28037500e-08,1.93321875e-01
-6.27637500e-08,1.93268750e-01
-6.27237500e-08,1.93356250e-01
-6.26837500e-08,1.93090625e-01
-6.26437500e-08,1.92846875e-01
-6.26037500e-08,1.92929688e-01
-6.25637500e-08,1.92879688e-01
-6.25237500e-08,1.92915625e-01
-6.24837500e-08,1.92887500e-01
-6.24437500e-08,1.92909375e-01
-6.24037500e-08,1.92892188e-01
-6.23637500e-08,1.92907812e-01
-6.23237500e-08,1.92893750e-01
-6.22837500e-08,1.92906250e-01
-6.22437500e-08,1.92895312e-01
-6.22037500e-08,1.92904688e-01
-6.21637500e-08,1.92895312e-01
-6.21237500e-08,1.92904688e-01
-6.20837500e-08,1.92896875e-01
-6.20437500e-08,1.92903125e-01
-6.20037500e-08,1.92896875e-01
-6.19637500e-08,1.92903125e-01
-6.19237500e-08,1.92896875e-01
-6.18837500e-08,1.92903125e-01
-6.18437500e-08,1.92896875e-01
-6.18037500e-08,1.92903125e-01
-6.17637500e-08,1.92896875e-01
-6.17237500e-08,1.92903125e-01
-6.16837500e-08,1.92898438e-01
-6.16437500e-08,1.92901563e-01
-6.16037500e-08,1.92898438e-01
-6.15637500e-08,1.92901563e-01
-6.15237500e-08,1.92898438e-01
-6.14837500e-08,1.92901563e-01
-6.14437500e-08,1.92898438e-01
-6.14037500e-08,1.92901563e-01
-6.13637500e-08,1.92898438e-01
-6.13237500e-08,1.92901563e-01
-6.12837500e-08,1.92898438e-01
-6.12437500e-08,1.92901563e-01
-6.12037500e-08,1.92898438e-01
-6.11637500e-08,1.92901563e-01
-6.11237500e-08,1.92898438e-01
-6.10837500e-08,1.92901563e-01
-6.10437500e-08,1.92898438e-01
-6.10037500e-08,1.92901563e-01
-6.09637500e-08,1.92898438e-01
-6.09237500e-08,1.92901563e-01
-6.08837500e-08,1.92898438e-01
-6.08437500e-08,1.92901563e-01
-6.08037500e-08,1.92898438e-01
-6.07637500e-08,1.92901563e-01
-6.07237500e-08,1.92898438e-01
-6.06837500e-08,1.92901563e-01
-6.06437500e-08,1.92898438e-01
-6.06037500e-08,1.92901563e-01
-6.05637500e-08,1.92898438e-01
-6.05237500e-08,1.92901563e-01
-6.04837500e-08,1.92898438e-01
-6.04437500e-08,1.92901563e-01
-6.04037500e-08,1.92898438e-01
-6.03637500e-08,1.92901563e-01
-6.03237500e-08,1.92898438e-01
-6.02837500e-08,1.92901563e-01
-6.02437500e-08,1.92898438e-01
-6.02037500e-08,1.92901563e-01
-6.01637500e-08,1.92898438e-01
-6.01237500e-08,1.92901563e-01
-6.00837500e-08,1.92898438e-01
-6.00437500e-08,1.92901563e-01
-6.00037500e-08,1.92898438e-01
-5.99637500e-08,1.92901563e-01
-5.99237500e-08,1.92898438e-01
-5.98837500e-08,1.92901563e-01
-5.98437500e-08,1.92898438e-01
-5.98037500e-08,1.92901563e-01
-5.97637500e-08,1.92898438e-01
-5.97237500e-08,1.92901563e-01
-5.96837500e-08,1.92898438e-01
-5.96437500e-08,1.92901563e-01
-5.96037500e-08,1.92898438e-01
-5.95637500e-08,1.92901563e-01
-5.95237500e-08,1.92898438e-01
-5.94837500e-08,1.92901563e-01
-5.94437500e-08,1.92898438e-01
-5.94037500e-08,1.92901563e-01
-5.93637500e-08,1.92898438e-01
-5.93237500e-08,1.92901563e-01
-5.92837500e-08,1.92898438e-01
-5.92437500e-08,1.92901563e-01
-5.92037500e-08,1.92898438e-01
-5.91637500e-08,1.92901563e-01
-5.91237500e-08,1.92898438e-01
-5.90837500e-08,1.92901563e-01
-5.90437500e-08,1.92898438e-01
-5.90037500e-08,1.92903125e-01
-5.89637500e-08,1.92896875e-01
-5.89237500e-08,1.92903125e-01
-5.88837500e-08,1.92896875e-01
-5.88437500e-08,1.92903125e-01
-5.88037500e-08,1.92896875e-01
-5.87637500e-08,1.92903125e-01
-5.87237500e-08,1.92895312e-01
-5.86837500e-08,1.92904688e-01
-5.86437500e-08,1.92895312e-01
-5.86037500e-08,1.92906250e-01
-5.85637500e-08,1.92893750e-01
-5.85237500e-08,1.92907812e-01
-5.84837500e-08,1.92889063e-01
-5.84437500e-08,1.92912500e-01
-5.84037500e-08,1.92881250e-01
-5.83637500e-08,1.92928125e-01
-5.83237500e-08,1.92848437e-01
-5.82837500e-08,1.93104688e-01
-5.82437500e-08,1.93357813e-01
-5.82037500e-08,1.93265625e-01
-5.81637500e-08,1.93325000e-01
-5.81237500e-08,1.93279688e-01
-5.80837500e-08,1.93317188e-01
-5.80437500e-08,1.93284375e-01
-5.80037500e-08,1.93315625e-01
-5.79637500e-08,1.93285938e-01
-5.79237500e-08,1.93315625e-01
-5.78837500e-08,1.93284375e-01
-5.78437500e-08,1.93315625e-01
-5.78037500e-08,1.93281250e-01
-5.77637500e-08,1.93320313e-01
-5.77237500e-08,1.93275000e-01
-5.76837500e-08,1.93334375e-01
-5.76437500e-08,1.93240625e-01
-5.76037500e-08,1.93512500e-01
-5.75637500e-08,1.93750000e-01
-5.75237500e-08,1.93673438e-01
-5.74837500e-08,1.93717187e-01
-5.74437500e-08,1.93689063e-01
-5.74037500e-08,1.93707813e-01
-5.73637500e-08,1.93693750e-01
-5.73237500e-08,1.93704688e-01
-5.72837500e-08,1.93696875e-01
-5.72437500e-08,1.93701563e-01
-5.72037500e-08,1.93698438e-01
-5.71637500e-08,1.93700000e-01
-5.71237500e-08,1.93701563e-01
-5.70837500e-08,1.93698438e-01
-5.70437500e-08,1.93703125e-01
-5.70037500e-08,1.93695312e-01
-5.69637500e-08,1.93707813e-01
-5.69237500e-08,1.93689063e-01
-5.68837500e-08,1.93715625e-01
-5.68437500e-08,1.93675000e-01
-5.68037500e-08,1.93750000e-01
-5.67637500e-08,1.93496875e-01
-5.67237500e-08,1.93240625e-01
-5.66837500e-08,1.93335937e-01
-5.66437500e-08,1.93273438e-01
-5.66037500e-08,1.93321875e-01
-5.65637500e-08,1.93281250e-01
-5.65237500e-08,1.93317188e-01
-5.64837500e-08,1.93284375e-01
-5.64437500e-08,1.93315625e-01
-5.64037500e-08,1.93285938e-01
-5.63637500e-08,1.93314062e-01
-5.63237500e-08,1.93285938e-01
-5.62837500e-08,1.93315625e-01
-5.62437500e-08,1.93284375e-01
-5.62037500e-08,1.93317188e-01
-5.61637500e-08,1.93279688e-01
-5.61237500e-08,1.93325000e-01
-5.60837500e-08,1.93265625e-01
-5.60437500e-08,1.93359375e-01
-5.60037500e-08,1.93087500e-01
-5.59637500e-08,1.92850000e-01
-5.59237500e-08,1.92926563e-01
-5.58837500e-08,1.92882813e-01
-5.58437500e-08,1.92912500e-01
-5.58037500e-08,1.92889063e-01
-5.57637500e-08,1.92909375e-01
-5.57237500e-08,1.92892188e-01
-5.56837500e-08,1.92906250e-01
-5.56437500e-08,1.92893750e-01
-5.56037500e-08,1.92906250e-01
-5.55637500e-08,1.92893750e-01
-5.55237500e-08,1.92906250e-01
-5.54837500e-08,1.92893750e-01
-5.54437500e-08,1.92906250e-01
-5.54037500e-08,1.92892188e-01
-5.53637500e-08,1.92907812e-01
-5.53237500e-08,1.92890625e-01
-5.52837500e-08,1.92912500e-01
-5.52437500e-08,1.92884375e-01
-5.52037500e-08,1.92920312e-01
-5.51637500e-08,1.92870313e-01
-5.51237500e-08,1.92954687e-01
-5.50837500e-08,1.92692188e-01
-5.50437500e-08,1.92445313e-01
-5.50037500e-08,1.92529688e-01
-5.49637500e-08,1.92479687e-01
-5.49237500e-08,1.92514062e-01
-5.48837500e-08,1.92489063e-01
-5.48437500e-08,1.92507813e-01
-5.48037500e-08,1.92495313e-01
-5.47637500e-08,1.92500000e-01
-5.47237500e-08,1.92504687e-01
-5.46837500e-08,1.92485938e-01
-5.46437500e-08,1.92539062e-01
-5.46037500e-08,1.92307813e-01
-5.45637500e-08,1.92029688e-01
-5.45237500e-08,1.92146875e-01
-5.44837500e-08,1.92060938e-01
-5.44437500e-08,1.92134375e-01
-5.44037500e-08,1.92067188e-01
-5.43637500e-08,1.92132812e-01
-5.43237500e-08,1.92065625e-01
-5.42837500e-08,1.92139063e-01
-5.42437500e-08,1.92051562e-01
-5.42037500e-08,1.92171875e-01
-5.41637500e-08,1.91875000e-01
-5.41237500e-08,1.91662500e-01
-5.40837500e-08,1.91712500e-01
-5.40437500e-08,1.91696875e-01
-5.40037500e-08,1.91696875e-01
-5.39637500e-08,1.91706250e-01
-5.39237500e-08,1.91690625e-01
-5.38837500e-08,1.91712500e-01
-5.38437500e-08,1.91682813e-01
-5.38037500e-08,1.91723438e-01
-5.37637500e-08,1.91667188e-01
-5.37237500e-08,1.91759375e-01
-5.36837500e-08,1.91487500e-01
-5.36437500e-08,1.91250000e-01
-5.36037500e-08,1.91325000e-01
-5.35637500e-08,1.91284375e-01
-5.35237500e-08,1.91310938e-01
-5.34837500e-08,1.91293750e-01
-5.34437500e-08,1.91304688e-01
-5.34037500e-08,1.91296875e-01
-5.33637500e-08,1.91301563e-01
-5.33237500e-08,1.91300000e-01
-5.32837500e-08,1.91298438e-01
-5.32437500e-08,1.91303125e-01
-5.32037500e-08,1.91295313e-01
-5.31637500e-08,1.91306250e-01
-5.31237500e-08,1.91292188e-01
-5.30837500e-08,1.91310938e-01
-5.30437500e-08,1.91285938e-01
-5.30037500e-08,1.91318750e-01
-5.29637500e-08,1.91270313e-01
-5.29237500e-08,1.91354688e-01
-5.28837500e-08,1.91092188e-01
-5.28437500e-08,1.90845313e-01
-5.28037500e-08,1.90931250e-01
-5.27637500e-08,1.90879688e-01
-5.27237500e-08,1.90915625e-01
-5.26837500e-08,1.90887500e-01
-5.26437500e-08,1.90910938e-01
-5.26037500e-08,1.90890625e-01
-5.25637500e-08,1.90907812e-01
-5.25237500e-08,1.90893750e-01
-5.24837500e-08,1.90906250e-01
-5.24437500e-08,1.90893750e-01
-5.24037500e-08,1.90904688e-01
-5.23637500e-08,1.90895312e-01
-5.23237500e-08,1.90904688e-01
-5.22837500e-08,1.90896875e-01
-5.22437500e-08,1.90903125e-01
-5.22037500e-08,1.90896875e-01
-5.21637500e-08,1.90903125e-01
-5.21237500e-08,1.90896875e-01
-5.20837500e-08,1.90903125e-01
-5.20437500e-08,1.90896875e-01
-5.20037500e-08,1.90901563e-01
-5.19637500e-08,1.90898438e-01
-5.19237500e-08,1.90901563e-01
-5.18837500e-08,1.90898438e-01
-5.18437500e-08,1.90901563e-01
-5.18037500e-08,1.90898438e-01
-5.17637500e-08,1.90901563e-01
-5.17237500e-08,1.90898438e-01
-5.16837500e-08,1.90901563e-01
-5.16437500e-08,1.90898438e-01
-5.16037500e-08,1.90901563e-01
-5.15637500e-08,1.90898438e-01
-5.15237500e-08,1.90901563e-01
-5.14837500e-08,1.90898438e-01
-5.14437500e-08,1.90901563e-01
-5.14037500e-08,1.90898438e-01
-5.13637500e-08,1.90901563e-01
-5.13237500e-08,1.90896875e-01
-5.12837500e-08,1.90903125e-01
-5.12437500e-08,1.90896875e-01
-5.12037500e-08,1.90904688e-01
-5.11637500e-08,1.90895312e-01
-5.11237500e-08,1.90906250e-01
-5.10837500e-08,1.90892188e-01
-5.10437500e-08,1.90910938e-01
-5.10037500e-08,1.90884375e-01
-5.09637500e-08,1.90925000e-01
-5.09237500e-08,1.90850000e-01
-5.08837500e-08,1.91101563e-01
-5.08437500e-08,1.91360937e-01
-5.08037500e-08,1.91262500e-01
-5.07637500e-08,1.91328125e-01
-5.07237500e-08,1.91275000e-01
-5.06837500e-08,1.91321875e-01
-5.06437500e-08,1.91278125e-01
-5.06037500e-08,1.91321875e-01
-5.05637500e-08,1.91276562e-01
-5.05237500e-08,1.91325000e-01
-5.04837500e-08,1.91270313e-01
-5.04437500e-08,1.91339063e-01
-5.04037500e-08,1.91237500e-01
-5.03637500e-08,1.91515625e-01
-5.03237500e-08,1.91746875e-01
-5.02837500e-08,1.91676563e-01
-5.02437500e-08,1.91714063e-01
-5.02037500e-08,1.91690625e-01
-5.01637500e-08,1.91706250e-01
-5.01237500e-08,1.91696875e-01
-5.00837500e-08,1.91701563e-01
-5.00437500e-08,1.91698438e-01
-5.00037500e-08,1.91700000e-01
-4.99637500e-08,1.91700000e-01
-4.99237500e-08,1.91698438e-01
-4.98837500e-08,1.91701563e-01
-4.98437500e-08,1.91698438e-01
-4.98037500e-08,1.91703125e-01
-4.97637500e-08,1.91696875e-01
-4.97237500e-08,1.91703125e-01
-4.96837500e-08,1.91696875e-01
-4.96437500e-08,1.91704687e-01
-4.96037500e-08,1.91695313e-01
-4.95637500e-08,1.91704687e-01
-4.95237500e-08,1.91695313e-01
-4.94837500e-08,1.91706250e-01
-4.94437500e-08,1.91693750e-01
-4.94037500e-08,1.91706250e-01
-4.93637500e-08,1.91692187e-01
-4.93237500e-08,1.91707813e-01
-4.92837500e-08,1.91690625e-01
-4.92437500e-08,1.91709375e-01
-4.92037500e-08,1.91689063e-01
-4.91637500e-08,1.91712500e-01
-4.91237500e-08,1.91685938e-01
-4.90837500e-08,1.91717187e-01
-4.90437500e-08,1.91679688e-01
-4.90037500e-08,1.91725000e-01
-4.89637500e-08,1.91664063e-01
-4.89237500e-08,1.91760938e-01
-4.88837500e-08,1.91485938e-01
-4.88437500e-08,1.91253125e-01
-4.88037500e-08,1.91321875e-01
-4.87637500e-08,1.91289062e-01
-4.87237500e-08,1.91304688e-01
-4.86837500e-08,1.91300000e-01
-4.86437500e-08,1.91295313e-01
-4.86037500e-08,1.91310938e-01
-4.85637500e-08,1.91278125e-01
-4.85237500e-08,1.91348437e-01
-4.84837500e-08,1.91098437e-01
-4.84437500e-08,1.90840625e-01
-4.84037500e-08,1.90935938e-01
-4.83637500e-08,1.90875000e-01
-4.83237500e-08,1.90920312e-01
-4.82837500e-08,1.90882812e-01
-4.82437500e-08,1.90914063e-01
-4.82037500e-08,1.90887500e-01
-4.81637500e-08,1.90912500e-01
-4.81237500e-08,1.90889063e-01
-4.80837500e-08,1.90909375e-01
-4.80437500e-08,1.90890625e-01
-4.80037500e-08,1.90909375e-01
-4.79637500e-08,1.90892188e-01
-4.79237500e-08,1.90907812e-01
-4.78837500e-08,1.90892188e-01
-4.78437500e-08,1.90907812e-01
-4.78037500e-08,1.90893750e-01
-4.77637500e-08,1.90906250e-01
-4.77237500e-08,1.90893750e-01
-4.76837500e-08,1.90906250e-01
-4.76437500e-08,1.90893750e-01
-4.76037500e-08,1.90906250e-01
-4.75637500e-08,1.90893750e-01
-4.75237500e-08,1.90906250e-01
-4.74837500e-08,1.90893750e-01
-4.74437500e-08,1.90906250e-01
-4.74037500e-08,1.90892188e-01
-4.73637500e-08,1.90907812e-01
-4.73237500e-08,1.90892188e-01
-4.72837500e-08,1.90909375e-01
-4.72437500e-08,1.90890625e-01
-4.72037500e-08,1.90910938e-01
-4.71637500e-08,1.90887500e-01
-4.71237500e-08,1.90915625e-01
-4.70837500e-08,1.90879688e-01
-4.70437500e-08,1.90931250e-01
-4.70037500e-08,1.90845313e-01
-4.69637500e-08,1.91107813e-01
-4.69237500e-08,1.91354688e-01
-4.68837500e-08,1.91270313e-01
-4.68437500e-08,1.91321875e-01
-4.68037500e-08,1.91284375e-01
-4.67637500e-08,1.91314062e-01
-4.67237500e-08,1.91289062e-01
-4.66837500e-08,1.91309375e-01
-4.66437500e-08,1.91290625e-01
-4.66037500e-08,1.91307813e-01
-4.65637500e-08,1.91292188e-01
-4.65237500e-08,1.91307813e-01
-4.64837500e-08,1.91293750e-01
-4.64437500e-08,1.91306250e-01
-4.64037500e-08,1.91293750e-01
-4.63637500e-08,1.91306250e-01
-4.63237500e-08,1.91293750e-01
-4.62837500e-08,1.91306250e-01
-4.62437500e-08,1.91293750e-01
-4.62037500e-08,1.91306250e-01
-4.61637500e-08,1.91293750e-01
-4.61237500e-08,1.91306250e-01
-4.60837500e-08,1.91293750e-01
-4.60437500e-08,1.91306250e-01
-4.60037500e-08,1.91293750e-01
-4.59637500e-08,1.91306250e-01
-4.59237500e-08,1.91293750e-01
-4.58837500e-08,1.91306250e-01
-4.58437500e-08,1.91293750e-01
-4.58037500e-08,1.91306250e-01
-4.57637500e-08,1.91293750e-01
-4.57237500e-08,1.91306250e-01
-4.56837500e-08,1.91293750e-01
-4.56437500e-08,1.91306250e-01
-4.56037500e-08,1.91292188e-01
-4.55637500e-08,1.91307813e-01
-4.55237500e-08,1.91292188e-01
-4.54837500e-08,1.91307813e-01
-4.54437500e-08,1.91292188e-01
-4.54037500e-08,1.91307813e-01
-4.53637500e-08,1.91290625e-01
-4.53237500e-08,1.91309375e-01
-4.52837500e-08,1.91290625e-01
-4.52437500e-08,1.91310938e-01
-4.52037500e-08,1.91289062e-01
-4.51637500e-08,1.91310938e-01
-4.51237500e-08,1.91287500e-01
-4.50837500e-08,1.91314062e-01
-4.50437500e-08,1.91284375e-01
-4.50037500e-08,1.91317188e-01
-4.49637500e-08,1.91281250e-01
-4.49237500e-08,1.91321875e-01
-4.48837500e-08,1.91271875e-01
-4.48437500e-08,1.91337500e-01
-4.48037500e-08,1.91237500e-01
-4.47637500e-08,1.91515625e-01
-4.47237500e-08,1.91745313e-01
-4.46837500e-08,1.91678125e-01
-4.46437500e-08,1.91710938e-01
-4.46037500e-08,1.91693750e-01
-4.45637500e-08,1.91701563e-01
-4.45237500e-08,1.91701563e-01
-4.44837500e-08,1.91695313e-01
-4.44437500e-08,1.91707813e-01
-4.44037500e-08,1.91690625e-01
-4.43637500e-08,1.91714063e-01
-4.43237500e-08,1.91679688e-01
-4.42837500e-08,1.91729687e-01
-4.42437500e-08,1.91643750e-01
-4.42037500e-08,1.91909375e-01
-4.41637500e-08,1.92151563e-01
-4.41237500e-08,1.92073437e-01
-4.40837500e-08,1.92117188e-01
-4.40437500e-08,1.92089063e-01
-4.40037500e-08,1.92107813e-01
-4.39637500e-08,1.92095313e-01
-4.39237500e-08,1.92101563e-01
-4.38837500e-08,1.92101563e-01
-4.38437500e-08,1.92095313e-01
-4.38037500e-08,1.92107813e-01
-4.37637500e-08,1.92085937e-01
-4.37237500e-08,1.92125000e-01
-4.36837500e-08,1.92050000e-01
-4.36437500e-08,1.92303125e-01
-4.36037500e-08,1.92557813e-01
-4.35637500e-08,1.92465625e-01
-4.35237500e-08,1.92525000e-01
-4.34837500e-08,1.92481250e-01
-4.34437500e-08,1.92515625e-01
-4.34037500e-08,1.92485938e-01
-4.33637500e-08,1.92512500e-01
-4.33237500e-08,1.92489063e-01
-4.32837500e-08,1.92509375e-01
-4.32437500e-08,1.92492188e-01
-4.32037500e-08,1.92507813e-01
-4.31637500e-08,1.92492188e-01
-4.31237500e-08,1.92506250e-01
-4.30837500e-08,1.92493750e-01
-4.30437500e-08,1.92506250e-01
-4.30037500e-08,1.92495313e-01
-4.29637500e-08,1.92504687e-01
-4.29237500e-08,1.92495313e-01
-4.28837500e-08,1.92503125e-01
-4.28437500e-08,1.92496875e-01
-4.28037500e-08,1.92503125e-01
-4.27637500e-08,1.92496875e-01
-4.27237500e-08,1.92503125e-01
-4.26837500e-08,1.92498438e-01
-4.26437500e-08,1.92501563e-01
-4.26037500e-08,1.92498438e-01
-4.25637500e-08,1.92501563e-01
-4.25237500e-08,1.92498438e-01
-4.24837500e-08,1.92500000e-01
-4.24437500e-08,1.92500000e-01
-4.24037500e-08,1.92500000e-01
-4.23637500e-08,1.92501563e-01
-4.23237500e-08,1.92498438e-01
-4.22837500e-08,1.92501563e-01
-4.22437500e-08,1.92496875e-01
-4.22037500e-08,1.92504687e-01
-4.21637500e-08,1.92495313e-01
-4.21237500e-08,1.92507813e-01
-4.20837500e-08,1.92489063e-01
-4.20437500e-08,1.92515625e-01
-4.20037500e-08,1.92475000e-01
-4.19637500e-08,1.92548438e-01
-4.19237500e-08,1.92298438e-01
-4.18837500e-08,1.92039062e-01
-4.18437500e-08,1.92137500e-01
-4.18037500e-08,1.92070313e-01
-4.17637500e-08,1.92125000e-01
-4.17237500e-08,1.92076562e-01
-4.16837500e-08,1.92123437e-01
-4.16437500e-08,1.92075000e-01
-4.16037500e-08,1.92129688e-01
-4.15637500e-08,1.92060938e-01
-4.15237500e-08,1.92162500e-01
-4.14837500e-08,1.91884375e-01
-4.14437500e-08,1.91654688e-01
-4.14037500e-08,1.91721875e-01
-4.13637500e-08,1.91689063e-01
-4.13237500e-08,1.91703125e-01
-4.12837500e-08,1.91703125e-01
-4.12437500e-08,1.91685938e-01
-4.12037500e-08,1.91739063e-01
-4.11637500e-08,1.91507813e-01
-4.11237500e-08,1.91229687e-01
-4.10837500e-08,1.91348437e-01
-4.10437500e-08,1.91259375e-01
-4.10037500e-08,1.91337500e-01
-4.09637500e-08,1.91262500e-01
-4.09237500e-08,1.91340625e-01
-4.08837500e-08,1.91250000e-01
-4.08437500e-08,1.91375000e-01
-4.08037500e-08,1.91071875e-01
-4.07637500e-08,1.90865625e-01
-4.07237500e-08,1.90909375e-01
-4.06837500e-08,1.90903125e-01
-4.06437500e-08,1.90889063e-01
-4.06037500e-08,1.90918750e-01
-4.05637500e-08,1.90870313e-01
-4.05237500e-08,1.90957813e-01
-4.04837500e-08,1.90687500e-01
-4.04437500e-08,1.90451563e-01
-4.04037500e-08,1.90523438e-01
-4.03637500e-08,1.90487500e-01
-4.03237500e-08,1.90506250e-01
-4.02837500e-08,1.90500000e-01
-4.02437500e-08,1.90493750e-01
-4.02037500e-08,1.90512500e-01
-4.01637500e-08,1.90476563e-01
-4.01237500e-08,1.90550000e-01
-4.00837500e-08,1.90295313e-01
-4.00437500e-08,1.90042188e-01
-4.00037500e-08,1.90132812e-01
-3.99637500e-08,1.90078125e-01
-3.99237500e-08,1.90115625e-01
-3.98837500e-08,1.90089063e-01
-3.98437500e-08,1.90107813e-01
-3.98037500e-08,1.90095313e-01
-3.97637500e-08,1.90103125e-01
-3.97237500e-08,1.90101563e-01
-3.96837500e-08,1.90095313e-01
-3.96437500e-08,1.90110938e-01
-3.96037500e-08,1.90078125e-01
-3.95637500e-08,1.90146875e-01
-3.95237500e-08,1.89898438e-01
-3.94837500e-08,1.89639063e-01
-3.94437500e-08,1.89735938e-01
-3.94037500e-08,1.89673438e-01
-3.93637500e-08,1.89720313e-01
-3.93237500e-08,1.89682813e-01
-3.92837500e-08,1.89714063e-01
-3.92437500e-08,1.89689063e-01
-3.92037500e-08,1.89709375e-01
-3.91637500e-08,1.89693750e-01
-3.91237500e-08,1.89703125e-01
-3.90837500e-08,1.89700000e-01
-3.90437500e-08,1.89695313e-01
-3.90037500e-08,1.89715625e-01
-3.89637500e-08,1.89659375e-01
-3.89237500e-08,1.89893750e-01
-3.88837500e-08,1.90168750e-01
-3.88437500e-08,1.90056250e-01
-3.88037500e-08,1.90134375e-01
-3.87637500e-08,1.90070313e-01
-3.87237500e-08,1.90126563e-01
-3.86837500e-08,1.90075000e-01
-3.86437500e-08,1.90125000e-01
-3.86037500e-08,1.90076563e-01
-3.85637500e-08,1.90123438e-01
-3.85237500e-08,1.90076563e-01
