trails/0a4d6f8107274375cf0a549995fe79f0/aes_ch1_20250506175019508.csv

Model,MSO66B
Label,
Waveform Type,ANALOG
Horizontal Units,s
Sample Interval,4.00000000e-11
Record Length,10000
Zero Index,1599.07812500
Vertical Units,A
ANALOG_Thumbnail,
yOffset,1.84500000e-01
yPosition,8.40000000e-01

Labels,
TIME,CH1
-6.39631250e-08,1.86531250e-01
-6.39231250e-08,1.86478125e-01
-6.38831250e-08,1.86517188e-01
-6.38431250e-08,1.86485938e-01
-6.38031250e-08,1.86512500e-01
-6.37631250e-08,1.86489062e-01
-6.37231250e-08,1.86510938e-01
-6.36831250e-08,1.86489062e-01
-6.36431250e-08,1.86510938e-01
-6.36031250e-08,1.86489062e-01
-6.35631250e-08,1.86510938e-01
-6.35231250e-08,1.86489062e-01
-6.34831250e-08,1.86512500e-01
-6.34431250e-08,1.86487500e-01
-6.34031250e-08,1.86514062e-01
-6.33631250e-08,1.86482813e-01
-6.33231250e-08,1.86521875e-01
-6.32831250e-08,1.86468750e-01
-6.32431250e-08,1.86556250e-01
-6.32031250e-08,1.86290625e-01
-6.31631250e-08,1.86046875e-01
-6.31231250e-08,1.86129688e-01
-6.30831250e-08,1.86079688e-01
-6.30431250e-08,1.86115625e-01
-6.30031250e-08,1.86087500e-01
-6.29631250e-08,1.86110938e-01
-6.29231250e-08,1.86090625e-01
-6.28831250e-08,1.86109375e-01
-6.28431250e-08,1.86092188e-01
-6.28031250e-08,1.86107812e-01
-6.27631250e-08,1.86092188e-01
-6.27231250e-08,1.86107812e-01
-6.26831250e-08,1.86092188e-01
-6.26431250e-08,1.86107812e-01
-6.26031250e-08,1.86092188e-01
-6.25631250e-08,1.86107812e-01
-6.25231250e-08,1.86090625e-01
-6.24831250e-08,1.86109375e-01
-6.24431250e-08,1.86089063e-01
-6.24031250e-08,1.86112500e-01
-6.23631250e-08,1.86084375e-01
-6.23231250e-08,1.86121875e-01
-6.22831250e-08,1.86068750e-01
-6.22431250e-08,1.86154687e-01
-6.22031250e-08,1.85892188e-01
-6.21631250e-08,1.85645312e-01
-6.21231250e-08,1.85729688e-01
-6.20831250e-08,1.85679687e-01
-6.20431250e-08,1.85715625e-01
-6.20031250e-08,1.85685938e-01
-6.19631250e-08,1.85710938e-01
-6.19231250e-08,1.85689063e-01
-6.18831250e-08,1.85709375e-01
-6.18431250e-08,1.85692187e-01
-6.18031250e-08,1.85707813e-01
-6.17631250e-08,1.85692187e-01
-6.17231250e-08,1.85707813e-01
-6.16831250e-08,1.85692187e-01
-6.16431250e-08,1.85707813e-01
-6.16031250e-08,1.85692187e-01
-6.15631250e-08,1.85707813e-01
-6.15231250e-08,1.85692187e-01
-6.14831250e-08,1.85707813e-01
-6.14431250e-08,1.85692187e-01
-6.14031250e-08,1.85709375e-01
-6.13631250e-08,1.85690625e-01
-6.13231250e-08,1.85710938e-01
-6.12831250e-08,1.85685938e-01
-6.12431250e-08,1.85715625e-01
-6.12031250e-08,1.85678125e-01
-6.11631250e-08,1.85731250e-01
-6.11231250e-08,1.85643750e-01
-6.10831250e-08,1.85907813e-01
-6.10431250e-08,1.86154687e-01
-6.10031250e-08,1.86070313e-01
-6.09631250e-08,1.86120312e-01
-6.09231250e-08,1.86084375e-01
-6.08831250e-08,1.86112500e-01
-6.08431250e-08,1.86089063e-01
-6.08031250e-08,1.86109375e-01
-6.07631250e-08,1.86090625e-01
-6.07231250e-08,1.86107812e-01
-6.06831250e-08,1.86092188e-01
-6.06431250e-08,1.86107812e-01
-6.06031250e-08,1.86093750e-01
-6.05631250e-08,1.86106250e-01
-6.05231250e-08,1.86093750e-01
-6.04831250e-08,1.86106250e-01
-6.04431250e-08,1.86093750e-01
-6.04031250e-08,1.86106250e-01
-6.03631250e-08,1.86093750e-01
-6.03231250e-08,1.86106250e-01
-6.02831250e-08,1.86093750e-01
-6.02431250e-08,1.86106250e-01
-6.02031250e-08,1.86093750e-01
-6.01631250e-08,1.86106250e-01
-6.01231250e-08,1.86093750e-01
-6.00831250e-08,1.86106250e-01
-6.00431250e-08,1.86093750e-01
-6.00031250e-08,1.86106250e-01
-5.99631250e-08,1.86092188e-01
-5.99231250e-08,1.86107812e-01
-5.98831250e-08,1.86092188e-01
-5.98431250e-08,1.86109375e-01
-5.98031250e-08,1.86090625e-01
-5.97631250e-08,1.86109375e-01
-5.97231250e-08,1.86089063e-01
-5.96831250e-08,1.86112500e-01
-5.96431250e-08,1.86085938e-01
-5.96031250e-08,1.86115625e-01
-5.95631250e-08,1.86081250e-01
-5.95231250e-08,1.86125000e-01
-5.94831250e-08,1.86065625e-01
-5.94431250e-08,1.86159375e-01
-5.94031250e-08,1.85887500e-01
-5.93631250e-08,1.85651563e-01
-5.93231250e-08,1.85725000e-01
-5.92831250e-08,1.85685938e-01
-5.92431250e-08,1.85709375e-01
-5.92031250e-08,1.85695313e-01
-5.91631250e-08,1.85701563e-01
-5.91231250e-08,1.85701563e-01
-5.90831250e-08,1.85693750e-01
-5.90431250e-08,1.85712500e-01
-5.90031250e-08,1.85678125e-01
-5.89631250e-08,1.85746875e-01
-5.89231250e-08,1.85500000e-01
-5.88831250e-08,1.85237500e-01
-5.88431250e-08,1.85339063e-01
-5.88031250e-08,1.85270313e-01
-5.87631250e-08,1.85325000e-01
-5.87231250e-08,1.85276563e-01
-5.86831250e-08,1.85323438e-01
-5.86431250e-08,1.85275000e-01
-5.86031250e-08,1.85328125e-01
-5.85631250e-08,1.85264062e-01
-5.85231250e-08,1.85360938e-01
-5.84831250e-08,1.85087500e-01
-5.84431250e-08,1.84850000e-01
-5.84031250e-08,1.84928125e-01
-5.83631250e-08,1.84881250e-01
-5.83231250e-08,1.84915625e-01
-5.82831250e-08,1.84887500e-01
-5.82431250e-08,1.84912500e-01
-5.82031250e-08,1.84889063e-01
-5.81631250e-08,1.84912500e-01
-5.81231250e-08,1.84887500e-01
-5.80831250e-08,1.84914063e-01
-5.80431250e-08,1.84882812e-01
-5.80031250e-08,1.84921875e-01
-5.79631250e-08,1.84868750e-01
-5.79231250e-08,1.84956250e-01
-5.78831250e-08,1.84690625e-01
-5.78431250e-08,1.84446875e-01
-5.78031250e-08,1.84529688e-01
-5.77631250e-08,1.84479688e-01
-5.77231250e-08,1.84515625e-01
-5.76831250e-08,1.84487500e-01
-5.76431250e-08,1.84510937e-01
-5.76031250e-08,1.84490625e-01
-5.75631250e-08,1.84507813e-01
-5.75231250e-08,1.84493750e-01
-5.74831250e-08,1.84506250e-01
-5.74431250e-08,1.84493750e-01
-5.74031250e-08,1.84504688e-01
-5.73631250e-08,1.84495313e-01
-5.73231250e-08,1.84504688e-01
-5.72831250e-08,1.84496875e-01
-5.72431250e-08,1.84503125e-01
-5.72031250e-08,1.84496875e-01
-5.71631250e-08,1.84503125e-01
-5.71231250e-08,1.84496875e-01
-5.70831250e-08,1.84503125e-01
-5.70431250e-08,1.84498438e-01
-5.70031250e-08,1.84501562e-01
-5.69631250e-08,1.84498438e-01
-5.69231250e-08,1.84501562e-01
-5.68831250e-08,1.84498438e-01
-5.68431250e-08,1.84501562e-01
-5.68031250e-08,1.84500000e-01
-5.67631250e-08,1.84500000e-01
-5.67231250e-08,1.84500000e-01
-5.66831250e-08,1.84500000e-01
-5.66431250e-08,1.84501562e-01
-5.66031250e-08,1.84498438e-01
-5.65631250e-08,1.84501562e-01
-5.65231250e-08,1.84496875e-01
-5.64831250e-08,1.84503125e-01
-5.64431250e-08,1.84495313e-01
-5.64031250e-08,1.84506250e-01
-5.63631250e-08,1.84492188e-01
-5.63231250e-08,1.84510937e-01
-5.62831250e-08,1.84482813e-01
-5.62431250e-08,1.84526563e-01
-5.62031250e-08,1.84448438e-01
-5.61631250e-08,1.84704688e-01
-5.61231250e-08,1.84957813e-01
-5.60831250e-08,1.84865625e-01
-5.60431250e-08,1.84925000e-01
-5.60031250e-08,1.84879688e-01
-5.59631250e-08,1.84917187e-01
-5.59231250e-08,1.84885938e-01
-5.58831250e-08,1.84914063e-01
-5.58431250e-08,1.84887500e-01
-5.58031250e-08,1.84910938e-01
-5.57631250e-08,1.84889063e-01
-5.57231250e-08,1.84910938e-01
-5.56831250e-08,1.84890625e-01
-5.56431250e-08,1.84909375e-01
-5.56031250e-08,1.84890625e-01
-5.55631250e-08,1.84909375e-01
-5.55231250e-08,1.84890625e-01
-5.54831250e-08,1.84909375e-01
-5.54431250e-08,1.84890625e-01
-5.54031250e-08,1.84909375e-01
-5.53631250e-08,1.84889063e-01
-5.53231250e-08,1.84910938e-01
-5.52831250e-08,1.84889063e-01
-5.52431250e-08,1.84912500e-01
-5.52031250e-08,1.84885938e-01
-5.51631250e-08,1.84915625e-01
-5.51231250e-08,1.84881250e-01
-5.50831250e-08,1.84923438e-01
-5.50431250e-08,1.84867188e-01
-5.50031250e-08,1.84957813e-01
-5.49631250e-08,1.84690625e-01
-5.49231250e-08,1.84448438e-01
-5.48831250e-08,1.84528125e-01
-5.48431250e-08,1.84479688e-01
-5.48031250e-08,1.84514063e-01
-5.47631250e-08,1.84487500e-01
-5.47231250e-08,1.84510937e-01
-5.46831250e-08,1.84490625e-01
-5.46431250e-08,1.84509375e-01
-5.46031250e-08,1.84492188e-01
-5.45631250e-08,1.84507813e-01
-5.45231250e-08,1.84492188e-01
-5.44831250e-08,1.84509375e-01
-5.44431250e-08,1.84490625e-01
-5.44031250e-08,1.84510937e-01
-5.43631250e-08,1.84487500e-01
-5.43231250e-08,1.84515625e-01
-5.42831250e-08,1.84479688e-01
-5.42431250e-08,1.84529688e-01
-5.42031250e-08,1.84445313e-01
-5.41631250e-08,1.84707813e-01
-5.41231250e-08,1.84954687e-01
-5.40831250e-08,1.84868750e-01
-5.40431250e-08,1.84921875e-01
-5.40031250e-08,1.84882812e-01
-5.39631250e-08,1.84914063e-01
-5.39231250e-08,1.84887500e-01
-5.38831250e-08,1.84910938e-01
-5.38431250e-08,1.84890625e-01
-5.38031250e-08,1.84909375e-01
-5.37631250e-08,1.84892187e-01
-5.37231250e-08,1.84907813e-01
-5.36831250e-08,1.84892187e-01
-5.36431250e-08,1.84907813e-01
-5.36031250e-08,1.84893750e-01
-5.35631250e-08,1.84906250e-01
-5.35231250e-08,1.84893750e-01
-5.34831250e-08,1.84906250e-01
-5.34431250e-08,1.84893750e-01
-5.34031250e-08,1.84906250e-01
-5.33631250e-08,1.84893750e-01
-5.33231250e-08,1.84906250e-01
-5.32831250e-08,1.84893750e-01
-5.32431250e-08,1.84906250e-01
-5.32031250e-08,1.84893750e-01
-5.31631250e-08,1.84906250e-01
-5.31231250e-08,1.84893750e-01
-5.30831250e-08,1.84906250e-01
-5.30431250e-08,1.84893750e-01
-5.30031250e-08,1.84906250e-01
-5.29631250e-08,1.84892187e-01
-5.29231250e-08,1.84907813e-01
-5.28831250e-08,1.84892187e-01
-5.28431250e-08,1.84907813e-01
-5.28031250e-08,1.84890625e-01
-5.27631250e-08,1.84910938e-01
-5.27231250e-08,1.84889063e-01
-5.26831250e-08,1.84914063e-01
-5.26431250e-08,1.84882812e-01
-5.26031250e-08,1.84921875e-01
-5.25631250e-08,1.84868750e-01
-5.25231250e-08,1.84954687e-01
-5.24831250e-08,1.84692187e-01
-5.24431250e-08,1.84445313e-01
-5.24031250e-08,1.84531250e-01
-5.23631250e-08,1.84478125e-01
-5.23231250e-08,1.84517188e-01
-5.22831250e-08,1.84484375e-01
-5.22431250e-08,1.84514063e-01
-5.22031250e-08,1.84487500e-01
-5.21631250e-08,1.84512500e-01
-5.21231250e-08,1.84485938e-01
-5.20831250e-08,1.84515625e-01
-5.20431250e-08,1.84482813e-01
-5.20031250e-08,1.84521875e-01
-5.19631250e-08,1.84468750e-01
-5.19231250e-08,1.84556250e-01
-5.18831250e-08,1.84290625e-01
-5.18431250e-08,1.84046875e-01
-5.18031250e-08,1.84129687e-01
-5.17631250e-08,1.84079688e-01
-5.17231250e-08,1.84115625e-01
-5.16831250e-08,1.84085938e-01
-5.16431250e-08,1.84110938e-01
-5.16031250e-08,1.84089063e-01
-5.15631250e-08,1.84109375e-01
-5.15231250e-08,1.84090625e-01
-5.14831250e-08,1.84107812e-01
-5.14431250e-08,1.84092188e-01
-5.14031250e-08,1.84107812e-01
-5.13631250e-08,1.84093750e-01
-5.13231250e-08,1.84106250e-01
-5.12831250e-08,1.84093750e-01
-5.12431250e-08,1.84106250e-01
-5.12031250e-08,1.84093750e-01
-5.11631250e-08,1.84106250e-01
-5.11231250e-08,1.84093750e-01
-5.10831250e-08,1.84106250e-01
-5.10431250e-08,1.84093750e-01
-5.10031250e-08,1.84106250e-01
-5.09631250e-08,1.84093750e-01
-5.09231250e-08,1.84106250e-01
-5.08831250e-08,1.84093750e-01
-5.08431250e-08,1.84106250e-01
-5.08031250e-08,1.84093750e-01
-5.07631250e-08,1.84106250e-01
-5.07231250e-08,1.84093750e-01
-5.06831250e-08,1.84106250e-01
-5.06431250e-08,1.84092188e-01
-5.06031250e-08,1.84107812e-01
-5.05631250e-08,1.84092188e-01
-5.05231250e-08,1.84107812e-01
-5.04831250e-08,1.84090625e-01
-5.04431250e-08,1.84109375e-01
-5.04031250e-08,1.84089063e-01
-5.03631250e-08,1.84110938e-01
-5.03231250e-08,1.84087500e-01
-5.02831250e-08,1.84114063e-01
-5.02431250e-08,1.84082812e-01
-5.02031250e-08,1.84121875e-01
-5.01631250e-08,1.84067188e-01
-5.01231250e-08,1.84156250e-01
-5.00831250e-08,1.83890625e-01
-5.00431250e-08,1.83646875e-01
-5.00031250e-08,1.83729688e-01
-4.99631250e-08,1.83679687e-01
-4.99231250e-08,1.83715625e-01
-4.98831250e-08,1.83687500e-01
-4.98431250e-08,1.83710938e-01
-4.98031250e-08,1.83690625e-01
-4.97631250e-08,1.83709375e-01
-4.97231250e-08,1.83690625e-01
-4.96831250e-08,1.83709375e-01
-4.96431250e-08,1.83689062e-01
-4.96031250e-08,1.83710938e-01
-4.95631250e-08,1.83685938e-01
-4.95231250e-08,1.83718750e-01
-4.94831250e-08,1.83671875e-01
-4.94431250e-08,1.83751563e-01
-4.94031250e-08,1.83495313e-01
-4.93631250e-08,1.83242188e-01
-4.93231250e-08,1.83334375e-01
-4.92831250e-08,1.83273437e-01
-4.92431250e-08,1.83321875e-01
-4.92031250e-08,1.83281250e-01
-4.91631250e-08,1.83317188e-01
-4.91231250e-08,1.83282813e-01
-4.90831250e-08,1.83317188e-01
-4.90431250e-08,1.83281250e-01
-4.90031250e-08,1.83320312e-01
-4.89631250e-08,1.83278125e-01
-4.89231250e-08,1.83326563e-01
-4.88831250e-08,1.83264063e-01
-4.88431250e-08,1.83360938e-01
-4.88031250e-08,1.83085938e-01
-4.87631250e-08,1.82850000e-01
-4.87231250e-08,1.82926563e-01
-4.86831250e-08,1.82882813e-01
-4.86431250e-08,1.82912500e-01
-4.86031250e-08,1.82890625e-01
-4.85631250e-08,1.82907813e-01
-4.85231250e-08,1.82892187e-01
-4.84831250e-08,1.82907813e-01
-4.84431250e-08,1.82892187e-01
-4.84031250e-08,1.82909375e-01
-4.83631250e-08,1.82889063e-01
-4.83231250e-08,1.82915625e-01
-4.82831250e-08,1.82876563e-01
-4.82431250e-08,1.82948438e-01
-4.82031250e-08,1.82700000e-01
-4.81631250e-08,1.82437500e-01
-4.81231250e-08,1.82540625e-01
-4.80831250e-08,1.82467188e-01
-4.80431250e-08,1.82529688e-01
-4.80031250e-08,1.82471875e-01
-4.79631250e-08,1.82528125e-01
-4.79231250e-08,1.82470313e-01
-4.78831250e-08,1.82534375e-01
-4.78431250e-08,1.82456250e-01
-4.78031250e-08,1.82568750e-01
-4.77631250e-08,1.82278125e-01
-4.77231250e-08,1.82060938e-01
-4.76831250e-08,1.82114063e-01
-4.76431250e-08,1.82095312e-01
-4.76031250e-08,1.82098438e-01
-4.75631250e-08,1.82107812e-01
-4.75231250e-08,1.82087500e-01
-4.74831250e-08,1.82118750e-01
-4.74431250e-08,1.82070312e-01
-4.74031250e-08,1.82156250e-01
-4.73631250e-08,1.81890625e-01
-4.73231250e-08,1.81648438e-01
-4.72831250e-08,1.81726562e-01
-4.72431250e-08,1.81684375e-01
-4.72031250e-08,1.81709375e-01
-4.71631250e-08,1.81693750e-01
-4.71231250e-08,1.81701562e-01
-4.70831250e-08,1.81701562e-01
-4.70431250e-08,1.81693750e-01
-4.70031250e-08,1.81712500e-01
-4.69631250e-08,1.81678125e-01
-4.69231250e-08,1.81748437e-01
-4.68831250e-08,1.81498437e-01
-4.68431250e-08,1.81240625e-01
-4.68031250e-08,1.81335938e-01
-4.67631250e-08,1.81273437e-01
-4.67231250e-08,1.81320312e-01
-4.66831250e-08,1.81282813e-01
-4.66431250e-08,1.81315625e-01
-4.66031250e-08,1.81285937e-01
-4.65631250e-08,1.81312500e-01
-4.65231250e-08,1.81289063e-01
-4.64831250e-08,1.81310938e-01
-4.64431250e-08,1.81289063e-01
-4.64031250e-08,1.81309375e-01
-4.63631250e-08,1.81290625e-01
-4.63231250e-08,1.81309375e-01
-4.62831250e-08,1.81290625e-01
-4.62431250e-08,1.81309375e-01
-4.62031250e-08,1.81290625e-01
-4.61631250e-08,1.81309375e-01
-4.61231250e-08,1.81290625e-01
-4.60831250e-08,1.81310938e-01
-4.60431250e-08,1.81289063e-01
-4.60031250e-08,1.81314063e-01
-4.59631250e-08,1.81284375e-01
-4.59231250e-08,1.81320312e-01
-4.58831250e-08,1.81270313e-01
-4.58431250e-08,1.81354688e-01
-4.58031250e-08,1.81093750e-01
-4.57631250e-08,1.80843750e-01
-4.57231250e-08,1.80932813e-01
-4.56831250e-08,1.80876563e-01
-4.56431250e-08,1.80918750e-01
-4.56031250e-08,1.80882813e-01
-4.55631250e-08,1.80915625e-01
-4.55231250e-08,1.80884375e-01
-4.54831250e-08,1.80915625e-01
-4.54431250e-08,1.80882813e-01
-4.54031250e-08,1.80918750e-01
-4.53631250e-08,1.80878125e-01
-4.53231250e-08,1.80926562e-01
-4.52831250e-08,1.80864063e-01
-4.52431250e-08,1.80960938e-01
-4.52031250e-08,1.80685938e-01
-4.51631250e-08,1.80451562e-01
-4.51231250e-08,1.80523437e-01
-4.50831250e-08,1.80487500e-01
-4.50431250e-08,1.80506250e-01
-4.50031250e-08,1.80498437e-01
-4.49631250e-08,1.80496875e-01
-4.49231250e-08,1.80509375e-01
-4.48831250e-08,1.80481250e-01
-4.48431250e-08,1.80543750e-01
-4.48031250e-08,1.80301563e-01
-4.47631250e-08,1.80035938e-01
-4.47231250e-08,1.80140625e-01
-4.46831250e-08,1.80068750e-01
-4.46431250e-08,1.80128125e-01
-4.46031250e-08,1.80073438e-01
-4.45631250e-08,1.80125000e-01
-4.45231250e-08,1.80073438e-01
-4.44831250e-08,1.80131250e-01
-4.44431250e-08,1.80060938e-01
-4.44031250e-08,1.80164062e-01
-4.43631250e-08,1.79884375e-01
-4.43231250e-08,1.79653125e-01
-4.42831250e-08,1.79723437e-01
-4.42431250e-08,1.79684375e-01
-4.42031250e-08,1.79710938e-01
-4.41631250e-08,1.79692188e-01
-4.41231250e-08,1.79706250e-01
-4.40831250e-08,1.79693750e-01
-4.40431250e-08,1.79704688e-01
-4.40031250e-08,1.79695313e-01
-4.39631250e-08,1.79704688e-01
-4.39231250e-08,1.79695313e-01
-4.38831250e-08,1.79704688e-01
-4.38431250e-08,1.79695313e-01
-4.38031250e-08,1.79706250e-01
-4.37631250e-08,1.79692188e-01
-4.37231250e-08,1.79710938e-01
-4.36831250e-08,1.79684375e-01
-4.36431250e-08,1.79723437e-01
-4.36031250e-08,1.79651563e-01
-4.35631250e-08,1.79900000e-01
-4.35231250e-08,1.80164062e-01
-4.34831250e-08,1.80059375e-01
-4.34431250e-08,1.80132813e-01
-4.34031250e-08,1.80068750e-01
-4.33631250e-08,1.80131250e-01
-4.33231250e-08,1.80064063e-01
-4.32831250e-08,1.80143750e-01
-4.32431250e-08,1.80031250e-01
-4.32031250e-08,1.80323438e-01
-4.31631250e-08,1.80537500e-01
-4.31231250e-08,1.80489063e-01
-4.30831250e-08,1.80496875e-01
-4.30431250e-08,1.80517188e-01
-4.30031250e-08,1.80454688e-01
-4.29631250e-08,1.80700000e-01
-4.29231250e-08,1.80959375e-01
-4.28831250e-08,1.80867187e-01
-4.28431250e-08,1.80918750e-01
-4.28031250e-08,1.80895313e-01
-4.27631250e-08,1.80879687e-01
-4.27231250e-08,1.81073438e-01
-4.26831250e-08,1.81390625e-01
-4.26431250e-08,1.81228125e-01
-4.26031250e-08,1.81371875e-01
-4.25631250e-08,1.81207813e-01
-4.25231250e-08,1.81543750e-01
-4.24831250e-08,1.81718750e-01
-4.24431250e-08,1.81706250e-01
-4.24031250e-08,1.81679688e-01
-4.23631250e-08,1.81734375e-01
-4.23231250e-08,1.81637500e-01
-4.22831250e-08,1.81917187e-01
-4.22431250e-08,1.82142187e-01
-4.22031250e-08,1.82082812e-01
-4.21631250e-08,1.82104688e-01
-4.21231250e-08,1.82103125e-01
-4.20831250e-08,1.82087500e-01
-4.20431250e-08,1.82125000e-01
-4.20031250e-08,1.82048437e-01
-4.19631250e-08,1.82306250e-01
-4.19231250e-08,1.82554688e-01
-4.18831250e-08,1.82470313e-01
-4.18431250e-08,1.82518750e-01
-4.18031250e-08,1.82487500e-01
-4.17631250e-08,1.82507813e-01
-4.17231250e-08,1.82495313e-01
-4.16831250e-08,1.82500000e-01
-4.16431250e-08,1.82503125e-01
-4.16031250e-08,1.82490625e-01
-4.15631250e-08,1.82520313e-01
-4.15231250e-08,1.82454688e-01
-4.14831250e-08,1.82700000e-01
-4.14431250e-08,1.82962500e-01
-4.14031250e-08,1.82862500e-01
-4.13631250e-08,1.82928125e-01
-4.13231250e-08,1.82878125e-01
-4.12831250e-08,1.82918750e-01
-4.12431250e-08,1.82882813e-01
-4.12031250e-08,1.82915625e-01
-4.11631250e-08,1.82885938e-01
-4.11231250e-08,1.82912500e-01
-4.10831250e-08,1.82887500e-01
-4.10431250e-08,1.82910938e-01
-4.10031250e-08,1.82889063e-01
-4.09631250e-08,1.82910938e-01
-4.09231250e-08,1.82890625e-01
-4.08831250e-08,1.82909375e-01
-4.08431250e-08,1.82890625e-01
-4.08031250e-08,1.82909375e-01
-4.07631250e-08,1.82892187e-01
-4.07231250e-08,1.82907813e-01
-4.06831250e-08,1.82892187e-01
-4.06431250e-08,1.82907813e-01
-4.06031250e-08,1.82892187e-01
-4.05631250e-08,1.82907813e-01
-4.05231250e-08,1.82892187e-01
-4.04831250e-08,1.82907813e-01
-4.04431250e-08,1.82892187e-01
-4.04031250e-08,1.82907813e-01
-4.03631250e-08,1.82892187e-01
-4.03231250e-08,1.82907813e-01
-4.02831250e-08,1.82892187e-01
-4.02431250e-08,1.82907813e-01
-4.02031250e-08,1.82892187e-01
-4.01631250e-08,1.82907813e-01
-4.01231250e-08,1.82892187e-01
-4.00831250e-08,1.82907813e-01
-4.00431250e-08,1.82890625e-01
-4.00031250e-08,1.82909375e-01
-3.99631250e-08,1.82890625e-01
-3.99231250e-08,1.82910938e-01
-3.98831250e-08,1.82889063e-01
-3.98431250e-08,1.82912500e-01
-3.98031250e-08,1.82885938e-01
-3.97631250e-08,1.82917187e-01
-3.97231250e-08,1.82878125e-01
-3.96831250e-08,1.82931250e-01
-3.96431250e-08,1.82843750e-01
-3.96031250e-08,1.83109375e-01
-3.95631250e-08,1.83353125e-01
-3.95231250e-08,1.83270313e-01
-3.94831250e-08,1.83320312e-01
-3.94431250e-08,1.83284375e-01
-3.94031250e-08,1.83312500e-01
-3.93631250e-08,1.83289063e-01
-3.93231250e-08,1.83309375e-01
-3.92831250e-08,1.83292188e-01
-3.92431250e-08,1.83307813e-01
-3.92031250e-08,1.83292188e-01
-3.91631250e-08,1.83307813e-01
-3.91231250e-08,1.83292188e-01
-3.90831250e-08,1.83307813e-01
-3.90431250e-08,1.83292188e-01
-3.90031250e-08,1.83307813e-01
-3.89631250e-08,1.83292188e-01
-3.89231250e-08,1.83309375e-01
-3.88831250e-08,1.83289063e-01
-3.88431250e-08,1.83310937e-01
-3.88031250e-08,1.83285937e-01
-3.87631250e-08,1.83317188e-01
-3.87231250e-08,1.83278125e-01
-3.86831250e-08,1.83331250e-01
-3.86431250e-08,1.83243750e-01
-3.86031250e-08,1.83509375e-01
-3.85631250e-08,1.83751563e-01
-3.85231250e-08,1.83671875e-01
