trails/0a4d6f8107274375cf0a549995fe79f0/aes_ch1_20250506175359184.csv

Model,MSO66B
Label,
Waveform Type,ANALOG
Horizontal Units,s
Sample Interval,4.00000000e-11
Record Length,10000
Zero Index,1599.08203125
Vertical Units,A
ANALOG_Thumbnail,
yOffset,1.84500000e-01
yPosition,8.40000000e-01

Labels,
TIME,CH1
-6.39632812e-08,1.81248437e-01
-6.39232812e-08,1.81328125e-01
-6.38832812e-08,1.81282813e-01
-6.38432812e-08,1.81312500e-01
-6.38032812e-08,1.81292188e-01
-6.37632813e-08,1.81303125e-01
-6.37232812e-08,1.81303125e-01
-6.36832812e-08,1.81285937e-01
-6.36432812e-08,1.81339063e-01
-6.36032812e-08,1.81107813e-01
-6.35632812e-08,1.80829688e-01
-6.35232812e-08,1.80946875e-01
-6.34832813e-08,1.80860938e-01
-6.34432812e-08,1.80935938e-01
-6.34032812e-08,1.80864063e-01
-6.33632812e-08,1.80937500e-01
-6.33232812e-08,1.80854687e-01
-6.32832812e-08,1.80968750e-01
-6.32432812e-08,1.80679688e-01
-6.32032813e-08,1.80456250e-01
-6.31632812e-08,1.80520313e-01
-6.31232812e-08,1.80487500e-01
-6.30832812e-08,1.80510937e-01
-6.30432812e-08,1.80489063e-01
-6.30032812e-08,1.80512500e-01
-6.29632812e-08,1.80479688e-01
-6.29232813e-08,1.80543750e-01
-6.28832812e-08,1.80304688e-01
-6.28432812e-08,1.80032813e-01
-6.28032812e-08,1.80145313e-01
-6.27632812e-08,1.80060938e-01
-6.27232812e-08,1.80135938e-01
-6.26832812e-08,1.80062500e-01
-6.26432813e-08,1.80140625e-01
-6.26032812e-08,1.80050000e-01
-6.25632812e-08,1.80173438e-01
-6.25232812e-08,1.79871875e-01
-6.24832812e-08,1.79665625e-01
-6.24432812e-08,1.79709375e-01
-6.24032812e-08,1.79701562e-01
-6.23632813e-08,1.79690625e-01
-6.23232812e-08,1.79717188e-01
-6.22832812e-08,1.79671875e-01
-6.22432812e-08,1.79754688e-01
-6.22032812e-08,1.79490625e-01
-6.21632812e-08,1.79248437e-01
-6.21232812e-08,1.79326563e-01
-6.20832813e-08,1.79282812e-01
-6.20432812e-08,1.79310938e-01
-6.20032812e-08,1.79292188e-01
-6.19632812e-08,1.79304688e-01
-6.19232812e-08,1.79298438e-01
-6.18832813e-08,1.79300000e-01
-6.18432812e-08,1.79303125e-01
-6.18032813e-08,1.79292188e-01
-6.17632812e-08,1.79312500e-01
-6.17232812e-08,1.79278125e-01
-6.16832812e-08,1.79346875e-01
-6.16432812e-08,1.79100000e-01
-6.16032813e-08,1.78837500e-01
-6.15632812e-08,1.78939062e-01
-6.15232813e-08,1.78870313e-01
-6.14832812e-08,1.78926562e-01
-6.14432812e-08,1.78875000e-01
-6.14032812e-08,1.78926562e-01
-6.13632812e-08,1.78870313e-01
-6.13232813e-08,1.78937500e-01
-6.12832812e-08,1.78839063e-01
-6.12432813e-08,1.79112500e-01
-6.12032812e-08,1.79350000e-01
-6.11632812e-08,1.79273437e-01
-6.11232812e-08,1.79318750e-01
-6.10832812e-08,1.79285938e-01
-6.10432813e-08,1.79312500e-01
-6.10032812e-08,1.79287500e-01
-6.09632813e-08,1.79312500e-01
-6.09232812e-08,1.79287500e-01
-6.08832812e-08,1.79315625e-01
-6.08432812e-08,1.79279688e-01
-6.08032812e-08,1.79328125e-01
-6.07632813e-08,1.79246875e-01
-6.07232812e-08,1.79504688e-01
-6.06832813e-08,1.79757813e-01
-6.06432812e-08,1.79664062e-01
-6.06032812e-08,1.79728125e-01
-6.05632812e-08,1.79675000e-01
-6.05232812e-08,1.79725000e-01
-6.04832813e-08,1.79671875e-01
-6.04432812e-08,1.79735937e-01
-6.04032813e-08,1.79640625e-01
-6.03632812e-08,1.79910938e-01
-6.03232812e-08,1.80153125e-01
-6.02832812e-08,1.80070312e-01
-6.02432812e-08,1.80121875e-01
-6.02032813e-08,1.80081250e-01
-6.01632812e-08,1.80117187e-01
-6.01232813e-08,1.80082812e-01
-6.00832812e-08,1.80118750e-01
-6.00432812e-08,1.80076563e-01
-6.00032812e-08,1.80132813e-01
-5.99632812e-08,1.80043750e-01
-5.99232813e-08,1.80309375e-01
-5.98832812e-08,1.80553125e-01
-5.98432812e-08,1.80470313e-01
-5.98032812e-08,1.80521875e-01
-5.97632812e-08,1.80482813e-01
-5.97232812e-08,1.80514063e-01
-5.96832812e-08,1.80487500e-01
-5.96432813e-08,1.80510937e-01
-5.96032812e-08,1.80489063e-01
-5.95632812e-08,1.80509375e-01
-5.95232812e-08,1.80490625e-01
-5.94832812e-08,1.80509375e-01
-5.94432812e-08,1.80490625e-01
-5.94032812e-08,1.80509375e-01
-5.93632812e-08,1.80489063e-01
-5.93232812e-08,1.80510937e-01
-5.92832812e-08,1.80487500e-01
-5.92432812e-08,1.80514063e-01
-5.92032812e-08,1.80482813e-01
-5.91632812e-08,1.80521875e-01
-5.91232812e-08,1.80468750e-01
-5.90832812e-08,1.80556250e-01
-5.90432812e-08,1.80290625e-01
-5.90032812e-08,1.80046875e-01
-5.89632812e-08,1.80129687e-01
-5.89232812e-08,1.80078125e-01
-5.88832812e-08,1.80117187e-01
-5.88432812e-08,1.80085938e-01
-5.88032812e-08,1.80112500e-01
-5.87632812e-08,1.80087500e-01
-5.87232812e-08,1.80112500e-01
-5.86832812e-08,1.80087500e-01
-5.86432812e-08,1.80114063e-01
-5.86032812e-08,1.80082812e-01
-5.85632812e-08,1.80120313e-01
-5.85232812e-08,1.80070312e-01
-5.84832812e-08,1.80154687e-01
-5.84432812e-08,1.79892187e-01
-5.84032812e-08,1.79643750e-01
-5.83632812e-08,1.79732813e-01
-5.83232812e-08,1.79676562e-01
-5.82832812e-08,1.79718750e-01
-5.82432812e-08,1.79682813e-01
-5.82032812e-08,1.79715625e-01
-5.81632812e-08,1.79685938e-01
-5.81232812e-08,1.79714062e-01
-5.80832812e-08,1.79685938e-01
-5.80432812e-08,1.79715625e-01
-5.80032812e-08,1.79682813e-01
-5.79632812e-08,1.79718750e-01
-5.79232812e-08,1.79676562e-01
-5.78832812e-08,1.79732813e-01
-5.78432812e-08,1.79642187e-01
-5.78032812e-08,1.79910938e-01
-5.77632812e-08,1.80151563e-01
-5.77232812e-08,1.80070312e-01
-5.76832812e-08,1.80120313e-01
-5.76432812e-08,1.80084375e-01
-5.76032812e-08,1.80114063e-01
-5.75632812e-08,1.80087500e-01
-5.75232812e-08,1.80112500e-01
-5.74832812e-08,1.80087500e-01
-5.74432812e-08,1.80115625e-01
-5.74032812e-08,1.80081250e-01
-5.73632812e-08,1.80128125e-01
-5.73232812e-08,1.80048438e-01
-5.72832812e-08,1.80304688e-01
-5.72432812e-08,1.80559375e-01
-5.72032812e-08,1.80464062e-01
-5.71632812e-08,1.80528125e-01
-5.71232812e-08,1.80475000e-01
-5.70832812e-08,1.80523437e-01
-5.70432812e-08,1.80476562e-01
-5.70032812e-08,1.80525000e-01
-5.69632812e-08,1.80470313e-01
-5.69232812e-08,1.80539063e-01
-5.68832812e-08,1.80435938e-01
-5.68432812e-08,1.80715625e-01
-5.68032812e-08,1.80945313e-01
-5.67632812e-08,1.80878125e-01
-5.67232812e-08,1.80912500e-01
-5.66832812e-08,1.80892187e-01
-5.66432812e-08,1.80904687e-01
-5.66032812e-08,1.80898438e-01
-5.65632812e-08,1.80900000e-01
-5.65232812e-08,1.80901563e-01
-5.64832812e-08,1.80896875e-01
-5.64432812e-08,1.80906250e-01
-5.64032812e-08,1.80892187e-01
-5.63632812e-08,1.80912500e-01
-5.63232812e-08,1.80882813e-01
-5.62832812e-08,1.80926562e-01
-5.62432812e-08,1.80848438e-01
-5.62032812e-08,1.81104688e-01
-5.61632812e-08,1.81356250e-01
-5.61232812e-08,1.81267188e-01
-5.60832812e-08,1.81323438e-01
-5.60432812e-08,1.81281250e-01
-5.60032812e-08,1.81315625e-01
-5.59632812e-08,1.81285937e-01
-5.59232812e-08,1.81312500e-01
-5.58832812e-08,1.81289063e-01
-5.58432812e-08,1.81310938e-01
-5.58032812e-08,1.81290625e-01
-5.57632812e-08,1.81309375e-01
-5.57232812e-08,1.81290625e-01
-5.56832812e-08,1.81309375e-01
-5.56432812e-08,1.81290625e-01
-5.56032812e-08,1.81310938e-01
-5.55632812e-08,1.81287500e-01
-5.55232812e-08,1.81314063e-01
-5.54832812e-08,1.81284375e-01
-5.54432812e-08,1.81320312e-01
-5.54032812e-08,1.81270313e-01
-5.53632812e-08,1.81354688e-01
-5.53232812e-08,1.81092188e-01
-5.52832812e-08,1.80843750e-01
-5.52432812e-08,1.80932813e-01
-5.52032812e-08,1.80876563e-01
-5.51632812e-08,1.80918750e-01
-5.51232812e-08,1.80882813e-01
-5.50832812e-08,1.80915625e-01
-5.50432812e-08,1.80884375e-01
-5.50032812e-08,1.80915625e-01
-5.49632812e-08,1.80884375e-01
-5.49232812e-08,1.80917188e-01
-5.48832812e-08,1.80879687e-01
-5.48432812e-08,1.80925000e-01
-5.48032812e-08,1.80865625e-01
-5.47632812e-08,1.80959375e-01
-5.47232812e-08,1.80687500e-01
-5.46832812e-08,1.80450000e-01
-5.46432812e-08,1.80526563e-01
-5.46032812e-08,1.80482813e-01
-5.45632812e-08,1.80512500e-01
-5.45232812e-08,1.80490625e-01
-5.44832812e-08,1.80507813e-01
-5.44432812e-08,1.80493750e-01
-5.44032812e-08,1.80504688e-01
-5.43632812e-08,1.80495313e-01
-5.43232812e-08,1.80503125e-01
-5.42832812e-08,1.80496875e-01
-5.42432812e-08,1.80503125e-01
-5.42032812e-08,1.80498437e-01
-5.41632812e-08,1.80501563e-01
-5.41232812e-08,1.80498437e-01
-5.40832812e-08,1.80501563e-01
-5.40432812e-08,1.80498437e-01
-5.40032812e-08,1.80500000e-01
-5.39632812e-08,1.80500000e-01
-5.39232812e-08,1.80500000e-01
-5.38832812e-08,1.80500000e-01
-5.38432812e-08,1.80500000e-01
-5.38032812e-08,1.80501563e-01
-5.37632812e-08,1.80498437e-01
-5.37232812e-08,1.80501563e-01
-5.36832812e-08,1.80498437e-01
-5.36432812e-08,1.80501563e-01
-5.36032812e-08,1.80496875e-01
-5.35632812e-08,1.80503125e-01
-5.35232812e-08,1.80496875e-01
-5.34832812e-08,1.80503125e-01
-5.34432812e-08,1.80495313e-01
-5.34032812e-08,1.80504688e-01
-5.33632812e-08,1.80493750e-01
-5.33232812e-08,1.80506250e-01
-5.32832812e-08,1.80492188e-01
-5.32432812e-08,1.80509375e-01
-5.32032812e-08,1.80489063e-01
-5.31632812e-08,1.80514063e-01
-5.31232812e-08,1.80479688e-01
-5.30832812e-08,1.80529688e-01
-5.30432812e-08,1.80445313e-01
-5.30032812e-08,1.80707813e-01
-5.29632812e-08,1.80954688e-01
-5.29232812e-08,1.80868750e-01
-5.28832812e-08,1.80921875e-01
-5.28432812e-08,1.80884375e-01
-5.28032812e-08,1.80912500e-01
-5.27632812e-08,1.80889063e-01
-5.27232812e-08,1.80909375e-01
-5.26832812e-08,1.80892187e-01
-5.26432812e-08,1.80907813e-01
-5.26032812e-08,1.80893750e-01
-5.25632813e-08,1.80906250e-01
-5.25232812e-08,1.80895313e-01
-5.24832812e-08,1.80904687e-01
-5.24432812e-08,1.80895313e-01
-5.24032812e-08,1.80904687e-01
-5.23632812e-08,1.80896875e-01
-5.23232812e-08,1.80903125e-01
-5.22832812e-08,1.80896875e-01
-5.22432812e-08,1.80903125e-01
-5.22032812e-08,1.80896875e-01
-5.21632812e-08,1.80901563e-01
-5.21232812e-08,1.80898438e-01
-5.20832812e-08,1.80901563e-01
-5.20432812e-08,1.80898438e-01
-5.20032812e-08,1.80901563e-01
-5.19632812e-08,1.80900000e-01
-5.19232812e-08,1.80900000e-01
-5.18832812e-08,1.80900000e-01
-5.18432812e-08,1.80900000e-01
-5.18032812e-08,1.80901563e-01
-5.17632812e-08,1.80898438e-01
-5.17232812e-08,1.80901563e-01
-5.16832812e-08,1.80896875e-01
-5.16432812e-08,1.80903125e-01
-5.16032812e-08,1.80895313e-01
-5.15632812e-08,1.80906250e-01
-5.15232812e-08,1.80892187e-01
-5.14832812e-08,1.80910938e-01
-5.14432812e-08,1.80882813e-01
-5.14032812e-08,1.80926562e-01
-5.13632812e-08,1.80848438e-01
-5.13232812e-08,1.81104688e-01
-5.12832812e-08,1.81357812e-01
-5.12432812e-08,1.81265625e-01
-5.12032812e-08,1.81325000e-01
-5.11632812e-08,1.81279688e-01
-5.11232812e-08,1.81317188e-01
-5.10832812e-08,1.81284375e-01
-5.10432812e-08,1.81314063e-01
-5.10032812e-08,1.81287500e-01
-5.09632812e-08,1.81310938e-01
-5.09232812e-08,1.81289063e-01
-5.08832812e-08,1.81310938e-01
-5.08432812e-08,1.81289063e-01
-5.08032812e-08,1.81309375e-01
-5.07632812e-08,1.81290625e-01
-5.07232812e-08,1.81309375e-01
-5.06832812e-08,1.81290625e-01
-5.06432813e-08,1.81309375e-01
-5.06032812e-08,1.81290625e-01
-5.05632812e-08,1.81309375e-01
-5.05232812e-08,1.81290625e-01
-5.04832812e-08,1.81310938e-01
-5.04432812e-08,1.81289063e-01
-5.04032812e-08,1.81310938e-01
-5.03632813e-08,1.81287500e-01
-5.03232812e-08,1.81312500e-01
-5.02832812e-08,1.81285937e-01
-5.02432812e-08,1.81317188e-01
-5.02032812e-08,1.81279688e-01
-5.01632812e-08,1.81325000e-01
-5.01232812e-08,1.81265625e-01
-5.00832812e-08,1.81359375e-01
-5.00432812e-08,1.81087500e-01
-5.00032812e-08,1.80850000e-01
-4.99632812e-08,1.80925000e-01
-4.99232812e-08,1.80884375e-01
-4.98832812e-08,1.80910938e-01
-4.98432812e-08,1.80892187e-01
-4.98032812e-08,1.80904687e-01
-4.97632812e-08,1.80896875e-01
-4.97232812e-08,1.80901563e-01
-4.96832812e-08,1.80900000e-01
-4.96432812e-08,1.80898438e-01
-4.96032812e-08,1.80904687e-01
-4.95632812e-08,1.80892187e-01
-4.95232812e-08,1.80912500e-01
-4.94832812e-08,1.80878125e-01
-4.94432812e-08,1.80946875e-01
-4.94032812e-08,1.80700000e-01
-4.93632812e-08,1.80437500e-01
-4.93232812e-08,1.80539063e-01
-4.92832812e-08,1.80470313e-01
-4.92432812e-08,1.80525000e-01
-4.92032812e-08,1.80476562e-01
-4.91632812e-08,1.80521875e-01
-4.91232812e-08,1.80478125e-01
-4.90832812e-08,1.80523437e-01
-4.90432812e-08,1.80475000e-01
-4.90032812e-08,1.80529688e-01
-4.89632812e-08,1.80460938e-01
-4.89232812e-08,1.80564063e-01
-4.88832812e-08,1.80282813e-01
-4.88432812e-08,1.80054688e-01
-4.88032812e-08,1.80121875e-01
-4.87632812e-08,1.80087500e-01
-4.87232813e-08,1.80107813e-01
-4.86832812e-08,1.80095312e-01
-4.86432812e-08,1.80103125e-01
-4.86032812e-08,1.80098438e-01
-4.85632812e-08,1.80100000e-01
-4.85232812e-08,1.80101563e-01
-4.84832812e-08,1.80098438e-01
-4.84432813e-08,1.80103125e-01
-4.84032812e-08,1.80095312e-01
-4.83632812e-08,1.80104687e-01
-4.83232812e-08,1.80093750e-01
-4.82832812e-08,1.80107813e-01
-4.82432812e-08,1.80090625e-01
-4.82032812e-08,1.80112500e-01
-4.81632813e-08,1.80084375e-01
-4.81232812e-08,1.80120313e-01
-4.80832812e-08,1.80070312e-01
-4.80432812e-08,1.80154687e-01
-4.80032812e-08,1.79892187e-01
-4.79632812e-08,1.79646875e-01
-4.79232812e-08,1.79729688e-01
-4.78832812e-08,1.79679688e-01
-4.78432812e-08,1.79715625e-01
-4.78032812e-08,1.79689062e-01
-4.77632812e-08,1.79709375e-01
-4.77232812e-08,1.79692188e-01
-4.76832812e-08,1.79706250e-01
-4.76432812e-08,1.79695313e-01
-4.76032812e-08,1.79704688e-01
-4.75632812e-08,1.79696875e-01
-4.75232812e-08,1.79703125e-01
-4.74832812e-08,1.79698438e-01
-4.74432812e-08,1.79701562e-01
-4.74032812e-08,1.79700000e-01
-4.73632812e-08,1.79698438e-01
-4.73232812e-08,1.79701562e-01
-4.72832812e-08,1.79696875e-01
-4.72432812e-08,1.79704688e-01
-4.72032812e-08,1.79693750e-01
-4.71632812e-08,1.79709375e-01
-4.71232812e-08,1.79687500e-01
-4.70832812e-08,1.79717188e-01
-4.70432812e-08,1.79671875e-01
-4.70032812e-08,1.79753125e-01
-4.69632812e-08,1.79493750e-01
-4.69232812e-08,1.79243750e-01
-4.68832812e-08,1.79331250e-01
-4.68432812e-08,1.79278125e-01
-4.68032813e-08,1.79315625e-01
-4.67632812e-08,1.79289063e-01
-4.67232812e-08,1.79307812e-01
-4.66832812e-08,1.79295312e-01
-4.66432812e-08,1.79300000e-01
-4.66032812e-08,1.79304688e-01
-4.65632812e-08,1.79284375e-01
-4.65232813e-08,1.79340625e-01
-4.64832812e-08,1.79106250e-01
-4.64432812e-08,1.78831250e-01
-4.64032812e-08,1.78945313e-01
-4.63632812e-08,1.78864063e-01
-4.63232812e-08,1.78931250e-01
-4.62832812e-08,1.78871875e-01
-4.62432813e-08,1.78928125e-01
-4.62032812e-08,1.78873438e-01
-4.61632812e-08,1.78928125e-01
-4.61232812e-08,1.78870313e-01
-4.60832812e-08,1.78934375e-01
-4.60432812e-08,1.78856250e-01
-4.60032812e-08,1.78967188e-01
-4.59632813e-08,1.78679688e-01
-4.59232812e-08,1.78457813e-01
-4.58832812e-08,1.78518750e-01
-4.58432812e-08,1.78490625e-01
-4.58032812e-08,1.78504688e-01
-4.57632812e-08,1.78498437e-01
-4.57232812e-08,1.78500000e-01
-4.56832812e-08,1.78501563e-01
-4.56432812e-08,1.78496875e-01
-4.56032812e-08,1.78503125e-01
-4.55632812e-08,1.78495313e-01
-4.55232812e-08,1.78504688e-01
-4.54832812e-08,1.78495313e-01
-4.54432812e-08,1.78506250e-01
-4.54032812e-08,1.78493750e-01
-4.53632812e-08,1.78507813e-01
-4.53232812e-08,1.78492188e-01
-4.52832812e-08,1.78509375e-01
-4.52432812e-08,1.78487500e-01
-4.52032812e-08,1.78514063e-01
-4.51632812e-08,1.78481250e-01
-4.51232812e-08,1.78528125e-01
-4.50832812e-08,1.78446875e-01
-4.50432812e-08,1.78704688e-01
-4.50032812e-08,1.78957813e-01
-4.49632812e-08,1.78864063e-01
-4.49232812e-08,1.78928125e-01
-4.48832813e-08,1.78875000e-01
-4.48432812e-08,1.78925000e-01
-4.48032812e-08,1.78871875e-01
-4.47632812e-08,1.78937500e-01
-4.47232812e-08,1.78839063e-01
-4.46832812e-08,1.79114063e-01
-4.46432812e-08,1.79346875e-01
-4.46032813e-08,1.79278125e-01
-4.45632812e-08,1.79309375e-01
-4.45232812e-08,1.79303125e-01
-4.44832812e-08,1.79270313e-01
-4.44432812e-08,1.79481250e-01
-4.44032812e-08,1.79782812e-01
-4.43632812e-08,1.79635938e-01
-4.43232813e-08,1.79764063e-01
-4.42832812e-08,1.79615625e-01
-4.42432812e-08,1.79934375e-01
-4.42032812e-08,1.80128125e-01
-4.41632812e-08,1.80096875e-01
-4.41232812e-08,1.80090625e-01
-4.40832812e-08,1.80123438e-01
-4.40432813e-08,1.80051563e-01
-4.40032812e-08,1.80303125e-01
-4.39632812e-08,1.80559375e-01
-4.39232812e-08,1.80462500e-01
-4.38832812e-08,1.80529688e-01
-4.38432812e-08,1.80470313e-01
-4.38032812e-08,1.80535938e-01
-4.37632812e-08,1.80442188e-01
-4.37232812e-08,1.80709375e-01
-4.36832812e-08,1.80954688e-01
-4.36432812e-08,1.80867187e-01
-4.36032812e-08,1.80925000e-01
-4.35632812e-08,1.80878125e-01
-4.35232812e-08,1.80920313e-01
-4.34832812e-08,1.80878125e-01
-4.34432812e-08,1.80923438e-01
-4.34032812e-08,1.80871875e-01
-4.33632812e-08,1.80935938e-01
-4.33232812e-08,1.80839063e-01
-4.32832812e-08,1.81114063e-01
-4.32432812e-08,1.81348438e-01
-4.32032812e-08,1.81275000e-01
-4.31632812e-08,1.81315625e-01
-4.31232812e-08,1.81289063e-01
-4.30832812e-08,1.81307812e-01
-4.30432812e-08,1.81293750e-01
-4.30032812e-08,1.81304688e-01
-4.29632813e-08,1.81295312e-01
-4.29232812e-08,1.81303125e-01
-4.28832812e-08,1.81296875e-01
-4.28432812e-08,1.81303125e-01
-4.28032812e-08,1.81298438e-01
-4.27632812e-08,1.81301563e-01
-4.27232812e-08,1.81298438e-01
-4.26832813e-08,1.81301563e-01
-4.26432812e-08,1.81298438e-01
-4.26032812e-08,1.81301563e-01
-4.25632812e-08,1.81298438e-01
-4.25232812e-08,1.81303125e-01
-4.24832812e-08,1.81296875e-01
-4.24432812e-08,1.81304688e-01
-4.24032813e-08,1.81295312e-01
-4.23632812e-08,1.81306250e-01
-4.23232812e-08,1.81290625e-01
-4.22832812e-08,1.81314063e-01
-4.22432812e-08,1.81276563e-01
-4.22032812e-08,1.81348438e-01
-4.21632812e-08,1.81098438e-01
-4.21232813e-08,1.80839063e-01
-4.20832812e-08,1.80937500e-01
-4.20432812e-08,1.80870313e-01
-4.20032812e-08,1.80925000e-01
-4.19632812e-08,1.80878125e-01
-4.19232812e-08,1.80920313e-01
-4.18832812e-08,1.80879687e-01
-4.18432813e-08,1.80920313e-01
-4.18032812e-08,1.80879687e-01
-4.17632812e-08,1.80920313e-01
-4.17232812e-08,1.80879687e-01
-4.16832812e-08,1.80921875e-01
-4.16432812e-08,1.80876563e-01
-4.16032812e-08,1.80925000e-01
-4.15632812e-08,1.80871875e-01
-4.15232812e-08,1.80934375e-01
-4.14832812e-08,1.80856250e-01
-4.14432812e-08,1.80970313e-01
-4.14032812e-08,1.80676562e-01
-4.13632812e-08,1.80462500e-01
-4.13232812e-08,1.80512500e-01
-4.12832812e-08,1.80496875e-01
-4.12432812e-08,1.80495313e-01
-4.12032812e-08,1.80509375e-01
-4.11632812e-08,1.80484375e-01
-4.11232812e-08,1.80521875e-01
-4.10832812e-08,1.80465625e-01
-4.10432813e-08,1.80560938e-01
-4.10032812e-08,1.80284375e-01
-4.09632812e-08,1.80054688e-01
-4.09232812e-08,1.80118750e-01
-4.08832812e-08,1.80093750e-01
-4.08432812e-08,1.80098438e-01
-4.08032812e-08,1.80110938e-01
-4.07632813e-08,1.80076563e-01
-4.07232812e-08,1.80150000e-01
-4.06832812e-08,1.79895313e-01
-4.06432812e-08,1.79643750e-01
-4.06032812e-08,1.79729688e-01
-4.05632812e-08,1.79681250e-01
-4.05232812e-08,1.79712500e-01
-4.04832813e-08,1.79693750e-01
-4.04432812e-08,1.79700000e-01
-4.04032812e-08,1.79706250e-01
-4.03632812e-08,1.79682813e-01
-4.03232812e-08,1.79743750e-01
-4.02832812e-08,1.79503125e-01
-4.02432812e-08,1.79235937e-01
-4.02032813e-08,1.79339063e-01
-4.01632812e-08,1.79270313e-01
-4.01232812e-08,1.79323438e-01
-4.00832812e-08,1.79279688e-01
-4.00432812e-08,1.79317188e-01
-4.00032812e-08,1.79284375e-01
-3.99632812e-08,1.79314063e-01
-3.99232813e-08,1.79287500e-01
-3.98832812e-08,1.79312500e-01
-3.98432812e-08,1.79289063e-01
-3.98032812e-08,1.79310938e-01
-3.97632812e-08,1.79290625e-01
-3.97232812e-08,1.79309375e-01
-3.96832812e-08,1.79290625e-01
-3.96432813e-08,1.79307812e-01
-3.96032812e-08,1.79292188e-01
-3.95632812e-08,1.79307812e-01
-3.95232812e-08,1.79293750e-01
-3.94832812e-08,1.79306250e-01
-3.94432812e-08,1.79293750e-01
-3.94032813e-08,1.79306250e-01
-3.93632812e-08,1.79293750e-01
-3.93232812e-08,1.79304688e-01
-3.92832812e-08,1.79295312e-01
-3.92432812e-08,1.79304688e-01
-3.92032812e-08,1.79295312e-01
-3.91632812e-08,1.79303125e-01
-3.91232813e-08,1.79296875e-01
-3.90832812e-08,1.79303125e-01
-3.90432812e-08,1.79298438e-01
-3.90032812e-08,1.79301563e-01
-3.89632812e-08,1.79298438e-01
-3.89232812e-08,1.79300000e-01
-3.88832812e-08,1.79300000e-01
-3.88432813e-08,1.79298438e-01
-3.88032812e-08,1.79303125e-01
-3.87632812e-08,1.79295312e-01
-3.87232812e-08,1.79309375e-01
-3.86832812e-08,1.79285938e-01
-3.86432812e-08,1.79323438e-01
-3.86032812e-08,1.79251563e-01
-3.85632813e-08,1.79501563e-01
-3.85232812e-08,1.79760937e-01
