trails/0a4d6f8107274375cf0a549995fe79f0/aes_ch1_20250506174906397.csv

Model,MSO66B
Label,
Waveform Type,ANALOG
Horizontal Units,s
Sample Interval,4.00000000e-11
Record Length,10000
Zero Index,1599.08593750
Vertical Units,A
ANALOG_Thumbnail,
yOffset,1.84500000e-01
yPosition,8.40000000e-01

Labels,
TIME,CH1
-6.39634375e-08,1.85690625e-01
-6.39234375e-08,1.85710938e-01
-6.38834375e-08,1.85689063e-01
-6.38434375e-08,1.85712500e-01
-6.38034375e-08,1.85685938e-01
-6.37634375e-08,1.85715625e-01
-6.37234375e-08,1.85679687e-01
-6.36834375e-08,1.85729688e-01
-6.36434375e-08,1.85646875e-01
-6.36034375e-08,1.85906250e-01
-6.35634375e-08,1.86157813e-01
-6.35234375e-08,1.86065625e-01
-6.34834375e-08,1.86128125e-01
-6.34434375e-08,1.86075000e-01
-6.34034375e-08,1.86128125e-01
-6.33634375e-08,1.86064063e-01
-6.33234375e-08,1.86159375e-01
-6.32834375e-08,1.85889063e-01
-6.32434375e-08,1.85646875e-01
-6.32034375e-08,1.85729688e-01
-6.31634375e-08,1.85678125e-01
-6.31234375e-08,1.85717188e-01
-6.30834375e-08,1.85685938e-01
-6.30434375e-08,1.85714062e-01
-6.30034375e-08,1.85687500e-01
-6.29634375e-08,1.85712500e-01
-6.29234375e-08,1.85687500e-01
-6.28834375e-08,1.85714062e-01
-6.28434375e-08,1.85682813e-01
-6.28034375e-08,1.85720313e-01
-6.27634375e-08,1.85670313e-01
-6.27234375e-08,1.85753125e-01
-6.26834375e-08,1.85493750e-01
-6.26434375e-08,1.85242188e-01
-6.26034375e-08,1.85334375e-01
-6.25634375e-08,1.85271875e-01
-6.25234375e-08,1.85325000e-01
-6.24834375e-08,1.85275000e-01
-6.24434375e-08,1.85328125e-01
-6.24034375e-08,1.85262500e-01
-6.23634375e-08,1.85360938e-01
-6.23234375e-08,1.85085938e-01
-6.22834375e-08,1.84851563e-01
-6.22434375e-08,1.84923438e-01
-6.22034375e-08,1.84885938e-01
-6.21634375e-08,1.84907813e-01
-6.21234375e-08,1.84896875e-01
-6.20834375e-08,1.84898438e-01
-6.20434375e-08,1.84907813e-01
-6.20034375e-08,1.84881250e-01
-6.19634375e-08,1.84943750e-01
-6.19234375e-08,1.84703125e-01
-6.18834375e-08,1.84434375e-01
-6.18434375e-08,1.84540625e-01
-6.18034375e-08,1.84468750e-01
-6.17634375e-08,1.84526563e-01
-6.17234375e-08,1.84476562e-01
-6.16834375e-08,1.84521875e-01
-6.16434375e-08,1.84479688e-01
-6.16034375e-08,1.84518750e-01
-6.15634375e-08,1.84481250e-01
-6.15234375e-08,1.84518750e-01
-6.14834375e-08,1.84482813e-01
-6.14434375e-08,1.84517188e-01
-6.14034375e-08,1.84482813e-01
-6.13634375e-08,1.84517188e-01
-6.13234375e-08,1.84481250e-01
-6.12834375e-08,1.84518750e-01
-6.12434375e-08,1.84481250e-01
-6.12034375e-08,1.84520313e-01
-6.11634375e-08,1.84478125e-01
-6.11234375e-08,1.84523437e-01
-6.10834375e-08,1.84475000e-01
-6.10434375e-08,1.84528125e-01
-6.10034375e-08,1.84465625e-01
-6.09634375e-08,1.84543750e-01
-6.09234375e-08,1.84431250e-01
-6.08834375e-08,1.84723438e-01
-6.08434375e-08,1.84939063e-01
-6.08034375e-08,1.84887500e-01
-6.07634375e-08,1.84901563e-01
-6.07234375e-08,1.84906250e-01
-6.06834375e-08,1.84885938e-01
-6.06434375e-08,1.84925000e-01
-6.06034375e-08,1.84850000e-01
-6.05634375e-08,1.85104688e-01
-6.05234375e-08,1.85357812e-01
-6.04834375e-08,1.85264062e-01
-6.04434375e-08,1.85328125e-01
-6.04034375e-08,1.85273437e-01
-6.03634375e-08,1.85331250e-01
-6.03234375e-08,1.85246875e-01
-6.02834375e-08,1.85503125e-01
-6.02434375e-08,1.85762500e-01
-6.02034375e-08,1.85657813e-01
-6.01634375e-08,1.85737500e-01
-6.01234375e-08,1.85662500e-01
-6.00834375e-08,1.85745313e-01
-6.00434375e-08,1.85629688e-01
-6.00034375e-08,1.85923438e-01
-5.99634375e-08,1.86139063e-01
-5.99234375e-08,1.86085938e-01
-5.98834375e-08,1.86103125e-01
-5.98434375e-08,1.86104688e-01
-5.98034375e-08,1.86087500e-01
-5.97634375e-08,1.86125000e-01
-5.97234375e-08,1.86048437e-01
-5.96834375e-08,1.86304688e-01
-5.96434375e-08,1.86556250e-01
-5.96034375e-08,1.86468750e-01
-5.95634375e-08,1.86521875e-01
-5.95234375e-08,1.86482813e-01
-5.94834375e-08,1.86512500e-01
-5.94434375e-08,1.86489062e-01
-5.94034375e-08,1.86507813e-01
-5.93634375e-08,1.86492188e-01
-5.93234375e-08,1.86506250e-01
-5.92834375e-08,1.86495313e-01
-5.92434375e-08,1.86504688e-01
-5.92034375e-08,1.86496875e-01
-5.91634375e-08,1.86503125e-01
-5.91234375e-08,1.86498438e-01
-5.90834375e-08,1.86501562e-01
-5.90434375e-08,1.86500000e-01
-5.90034375e-08,1.86500000e-01
-5.89634375e-08,1.86500000e-01
-5.89234375e-08,1.86498438e-01
-5.88834375e-08,1.86501562e-01
-5.88434375e-08,1.86496875e-01
-5.88034375e-08,1.86503125e-01
-5.87634375e-08,1.86495313e-01
-5.87234375e-08,1.86506250e-01
-5.86834375e-08,1.86492188e-01
-5.86434375e-08,1.86509375e-01
-5.86034375e-08,1.86487500e-01
-5.85634375e-08,1.86517188e-01
-5.85234375e-08,1.86473438e-01
-5.84834375e-08,1.86551563e-01
-5.84434375e-08,1.86295313e-01
-5.84034375e-08,1.86042188e-01
-5.83634375e-08,1.86132812e-01
-5.83234375e-08,1.86075000e-01
-5.82834375e-08,1.86120312e-01
-5.82434375e-08,1.86082812e-01
-5.82034375e-08,1.86115625e-01
-5.81634375e-08,1.86085938e-01
-5.81234375e-08,1.86114063e-01
-5.80834375e-08,1.86084375e-01
-5.80434375e-08,1.86115625e-01
-5.80034375e-08,1.86081250e-01
-5.79634375e-08,1.86123438e-01
-5.79234375e-08,1.86068750e-01
-5.78834375e-08,1.86156250e-01
-5.78434375e-08,1.85890625e-01
-5.78034375e-08,1.85645312e-01
-5.77634375e-08,1.85731250e-01
-5.77234375e-08,1.85678125e-01
-5.76834375e-08,1.85717188e-01
-5.76434375e-08,1.85685938e-01
-5.76034375e-08,1.85712500e-01
-5.75634375e-08,1.85687500e-01
-5.75234375e-08,1.85710938e-01
-5.74834375e-08,1.85689063e-01
-5.74434375e-08,1.85710938e-01
-5.74034375e-08,1.85689063e-01
-5.73634375e-08,1.85710938e-01
-5.73234375e-08,1.85689063e-01
-5.72834375e-08,1.85712500e-01
-5.72434375e-08,1.85687500e-01
-5.72034375e-08,1.85714062e-01
-5.71634375e-08,1.85684375e-01
-5.71234375e-08,1.85715625e-01
-5.70834375e-08,1.85681250e-01
-5.70434375e-08,1.85721875e-01
-5.70034375e-08,1.85673438e-01
-5.69634375e-08,1.85737500e-01
-5.69234375e-08,1.85637500e-01
-5.68834375e-08,1.85915625e-01
-5.68434375e-08,1.86145312e-01
-5.68034375e-08,1.86078125e-01
-5.67634375e-08,1.86112500e-01
-5.67234375e-08,1.86093750e-01
-5.66834375e-08,1.86101563e-01
-5.66434375e-08,1.86101563e-01
-5.66034375e-08,1.86096875e-01
-5.65634375e-08,1.86106250e-01
-5.65234375e-08,1.86090625e-01
-5.64834375e-08,1.86114063e-01
-5.64434375e-08,1.86081250e-01
-5.64034375e-08,1.86129688e-01
-5.63634375e-08,1.86045313e-01
-5.63234375e-08,1.86309375e-01
-5.62834375e-08,1.86553125e-01
-5.62434375e-08,1.86471875e-01
-5.62034375e-08,1.86517188e-01
-5.61634375e-08,1.86487500e-01
-5.61234375e-08,1.86507813e-01
-5.60834375e-08,1.86495313e-01
-5.60434375e-08,1.86501562e-01
-5.60034375e-08,1.86500000e-01
-5.59634375e-08,1.86496875e-01
-5.59234375e-08,1.86507813e-01
-5.58834375e-08,1.86485938e-01
-5.58434375e-08,1.86523438e-01
-5.58034375e-08,1.86450000e-01
-5.57634375e-08,1.86703125e-01
-5.57234375e-08,1.86959375e-01
-5.56834375e-08,1.86865625e-01
-5.56434375e-08,1.86925000e-01
-5.56034375e-08,1.86881250e-01
-5.55634375e-08,1.86915625e-01
-5.55234375e-08,1.86885938e-01
-5.54834375e-08,1.86912500e-01
-5.54434375e-08,1.86889063e-01
-5.54034375e-08,1.86909375e-01
-5.53634375e-08,1.86892188e-01
-5.53234375e-08,1.86907812e-01
-5.52834375e-08,1.86893750e-01
-5.52434375e-08,1.86906250e-01
-5.52034375e-08,1.86895313e-01
-5.51634375e-08,1.86903125e-01
-5.51234375e-08,1.86896875e-01
-5.50834375e-08,1.86901563e-01
-5.50434375e-08,1.86898438e-01
-5.50034375e-08,1.86900000e-01
-5.49634375e-08,1.86901563e-01
-5.49234375e-08,1.86896875e-01
-5.48834375e-08,1.86904687e-01
-5.48434375e-08,1.86892188e-01
-5.48034375e-08,1.86914063e-01
-5.47634375e-08,1.86876563e-01
-5.47234375e-08,1.86948438e-01
-5.46834375e-08,1.86698438e-01
-5.46434375e-08,1.86439063e-01
-5.46034375e-08,1.86535937e-01
-5.45634375e-08,1.86473438e-01
-5.45234375e-08,1.86521875e-01
-5.44834375e-08,1.86481250e-01
-5.44434375e-08,1.86517188e-01
-5.44034375e-08,1.86484375e-01
-5.43634375e-08,1.86514062e-01
-5.43234375e-08,1.86487500e-01
-5.42834375e-08,1.86512500e-01
-5.42434375e-08,1.86489062e-01
-5.42034375e-08,1.86510938e-01
-5.41634375e-08,1.86489062e-01
-5.41234375e-08,1.86510938e-01
-5.40834375e-08,1.86490625e-01
-5.40434375e-08,1.86509375e-01
-5.40034375e-08,1.86490625e-01
-5.39634375e-08,1.86509375e-01
-5.39234375e-08,1.86490625e-01
-5.38834375e-08,1.86509375e-01
-5.38434375e-08,1.86490625e-01
-5.38034375e-08,1.86509375e-01
-5.37634375e-08,1.86490625e-01
-5.37234375e-08,1.86509375e-01
-5.36834375e-08,1.86490625e-01
-5.36434375e-08,1.86509375e-01
-5.36034375e-08,1.86490625e-01
-5.35634375e-08,1.86509375e-01
-5.35234375e-08,1.86490625e-01
-5.34834375e-08,1.86509375e-01
-5.34434375e-08,1.86489062e-01
-5.34034375e-08,1.86510938e-01
-5.33634375e-08,1.86489062e-01
-5.33234375e-08,1.86512500e-01
-5.32834375e-08,1.86487500e-01
-5.32434375e-08,1.86514062e-01
-5.32034375e-08,1.86482813e-01
-5.31634375e-08,1.86518750e-01
-5.31234375e-08,1.86475000e-01
-5.30834375e-08,1.86534375e-01
-5.30434375e-08,1.86440625e-01
-5.30034375e-08,1.86712500e-01
-5.29634375e-08,1.86950000e-01
-5.29234375e-08,1.86873438e-01
-5.28834375e-08,1.86917187e-01
-5.28434375e-08,1.86887500e-01
-5.28034375e-08,1.86909375e-01
-5.27634375e-08,1.86892188e-01
-5.27234375e-08,1.86906250e-01
-5.26834375e-08,1.86895313e-01
-5.26434375e-08,1.86904687e-01
-5.26034375e-08,1.86896875e-01
-5.25634375e-08,1.86903125e-01
-5.25234375e-08,1.86896875e-01
-5.24834375e-08,1.86903125e-01
-5.24434375e-08,1.86898438e-01
-5.24034375e-08,1.86901563e-01
-5.23634375e-08,1.86898438e-01
-5.23234375e-08,1.86901563e-01
-5.22834375e-08,1.86898438e-01
-5.22434375e-08,1.86901563e-01
-5.22034375e-08,1.86898438e-01
-5.21634375e-08,1.86901563e-01
-5.21234375e-08,1.86898438e-01
-5.20834375e-08,1.86901563e-01
-5.20434375e-08,1.86898438e-01
-5.20034375e-08,1.86901563e-01
-5.19634375e-08,1.86898438e-01
-5.19234375e-08,1.86901563e-01
-5.18834375e-08,1.86898438e-01
-5.18434375e-08,1.86901563e-01
-5.18034375e-08,1.86898438e-01
-5.17634375e-08,1.86901563e-01
-5.17234375e-08,1.86898438e-01
-5.16834375e-08,1.86901563e-01
-5.16434375e-08,1.86898438e-01
-5.16034375e-08,1.86903125e-01
-5.15634375e-08,1.86896875e-01
-5.15234375e-08,1.86903125e-01
-5.14834375e-08,1.86895313e-01
-5.14434375e-08,1.86904687e-01
-5.14034375e-08,1.86893750e-01
-5.13634375e-08,1.86909375e-01
-5.13234375e-08,1.86885938e-01
-5.12834375e-08,1.86921875e-01
-5.12434375e-08,1.86853125e-01
-5.12034375e-08,1.87098438e-01
-5.11634375e-08,1.87365625e-01
-5.11234375e-08,1.87254688e-01
-5.10834375e-08,1.87340625e-01
-5.10434375e-08,1.87254688e-01
-5.10034375e-08,1.87367188e-01
-5.09634375e-08,1.87081250e-01
-5.09234375e-08,1.86854688e-01
-5.08834375e-08,1.86921875e-01
-5.08434375e-08,1.86885938e-01
-5.08034375e-08,1.86909375e-01
-5.07634375e-08,1.86892188e-01
-5.07234375e-08,1.86906250e-01
-5.06834375e-08,1.86895313e-01
-5.06434375e-08,1.86904687e-01
-5.06034375e-08,1.86895313e-01
-5.05634375e-08,1.86903125e-01
-5.05234375e-08,1.86896875e-01
-5.04834375e-08,1.86903125e-01
-5.04434375e-08,1.86896875e-01
-5.04034375e-08,1.86903125e-01
-5.03634375e-08,1.86895313e-01
-5.03234375e-08,1.86904687e-01
-5.02834375e-08,1.86895313e-01
-5.02434375e-08,1.86906250e-01
-5.02034375e-08,1.86892188e-01
-5.01634375e-08,1.86909375e-01
-5.01234375e-08,1.86887500e-01
-5.00834375e-08,1.86917187e-01
-5.00434375e-08,1.86873438e-01
-5.00034375e-08,1.86951563e-01
-4.99634375e-08,1.86696875e-01
-4.99234375e-08,1.86440625e-01
-4.98834375e-08,1.86535937e-01
-4.98434375e-08,1.86473438e-01
-4.98034375e-08,1.86521875e-01
-4.97634375e-08,1.86479688e-01
-4.97234375e-08,1.86518750e-01
-4.96834375e-08,1.86481250e-01
-4.96434375e-08,1.86518750e-01
-4.96034375e-08,1.86481250e-01
-4.95634375e-08,1.86520313e-01
-4.95234375e-08,1.86476562e-01
-4.94834375e-08,1.86528125e-01
-4.94434375e-08,1.86462500e-01
-4.94034375e-08,1.86560937e-01
-4.93634375e-08,1.86285937e-01
-4.93234375e-08,1.86051563e-01
-4.92834375e-08,1.86123438e-01
-4.92434375e-08,1.86085938e-01
-4.92034375e-08,1.86109375e-01
-4.91634375e-08,1.86093750e-01
-4.91234375e-08,1.86104688e-01
-4.90834375e-08,1.86096875e-01
-4.90434375e-08,1.86101563e-01
-4.90034375e-08,1.86100000e-01
-4.89634375e-08,1.86098438e-01
-4.89234375e-08,1.86101563e-01
-4.88834375e-08,1.86096875e-01
-4.88434375e-08,1.86104688e-01
-4.88034375e-08,1.86093750e-01
-4.87634375e-08,1.86107812e-01
-4.87234375e-08,1.86087500e-01
-4.86834375e-08,1.86117188e-01
-4.86434375e-08,1.86073437e-01
-4.86034375e-08,1.86151563e-01
-4.85634375e-08,1.85895313e-01
-4.85234375e-08,1.85642187e-01
-4.84834375e-08,1.85732813e-01
-4.84434375e-08,1.85675000e-01
-4.84034375e-08,1.85718750e-01
-4.83634375e-08,1.85684375e-01
-4.83234375e-08,1.85714062e-01
-4.82834375e-08,1.85687500e-01
-4.82434375e-08,1.85712500e-01
-4.82034375e-08,1.85689063e-01
-4.81634375e-08,1.85710938e-01
-4.81234375e-08,1.85689063e-01
-4.80834375e-08,1.85709375e-01
-4.80434375e-08,1.85690625e-01
-4.80034375e-08,1.85709375e-01
-4.79634375e-08,1.85690625e-01
-4.79234375e-08,1.85710938e-01
-4.78834375e-08,1.85689063e-01
-4.78434375e-08,1.85710938e-01
-4.78034375e-08,1.85687500e-01
-4.77634375e-08,1.85714062e-01
-4.77234375e-08,1.85684375e-01
-4.76834375e-08,1.85718750e-01
-4.76434375e-08,1.85676563e-01
-4.76034375e-08,1.85732813e-01
-4.75634375e-08,1.85642187e-01
-4.75234375e-08,1.85909375e-01
-4.74834375e-08,1.86153125e-01
-4.74434375e-08,1.86071875e-01
-4.74034375e-08,1.86120312e-01
-4.73634375e-08,1.86084375e-01
-4.73234375e-08,1.86112500e-01
-4.72834375e-08,1.86089063e-01
-4.72434375e-08,1.86109375e-01
-4.72034375e-08,1.86090625e-01
-4.71634375e-08,1.86109375e-01
-4.71234375e-08,1.86090625e-01
-4.70834375e-08,1.86109375e-01
-4.70434375e-08,1.86090625e-01
-4.70034375e-08,1.86110938e-01
-4.69634375e-08,1.86087500e-01
-4.69234375e-08,1.86115625e-01
-4.68834375e-08,1.86079688e-01
-4.68434375e-08,1.86129688e-01
-4.68034375e-08,1.86046875e-01
-4.67634375e-08,1.86306250e-01
-4.67234375e-08,1.86556250e-01
-4.66834375e-08,1.86467188e-01
-4.66434375e-08,1.86523438e-01
-4.66034375e-08,1.86481250e-01
-4.65634375e-08,1.86515625e-01
-4.65234375e-08,1.86485938e-01
-4.64834375e-08,1.86514062e-01
-4.64434375e-08,1.86487500e-01
-4.64034375e-08,1.86512500e-01
-4.63634375e-08,1.86487500e-01
-4.63234375e-08,1.86512500e-01
-4.62834375e-08,1.86487500e-01
-4.62434375e-08,1.86512500e-01
-4.62034375e-08,1.86485938e-01
-4.61634375e-08,1.86515625e-01
-4.61234375e-08,1.86482813e-01
-4.60834375e-08,1.86520313e-01
-4.60434375e-08,1.86475000e-01
-4.60034375e-08,1.86534375e-01
-4.59634375e-08,1.86440625e-01
-4.59234375e-08,1.86712500e-01
-4.58834375e-08,1.86950000e-01
-4.58434375e-08,1.86873438e-01
-4.58034375e-08,1.86917187e-01
-4.57634375e-08,1.86887500e-01
-4.57234375e-08,1.86909375e-01
-4.56834375e-08,1.86892188e-01
-4.56434375e-08,1.86906250e-01
-4.56034375e-08,1.86895313e-01
-4.55634375e-08,1.86904687e-01
-4.55234375e-08,1.86896875e-01
-4.54834375e-08,1.86903125e-01
-4.54434375e-08,1.86896875e-01
-4.54034375e-08,1.86901563e-01
-4.53634375e-08,1.86898438e-01
-4.53234375e-08,1.86901563e-01
-4.52834375e-08,1.86898438e-01
-4.52434375e-08,1.86901563e-01
-4.52034375e-08,1.86898438e-01
-4.51634375e-08,1.86901563e-01
-4.51234375e-08,1.86900000e-01
-4.50834375e-08,1.86900000e-01
-4.50434375e-08,1.86900000e-01
-4.50034375e-08,1.86900000e-01
-4.49634375e-08,1.86900000e-01
-4.49234375e-08,1.86900000e-01
-4.48834375e-08,1.86900000e-01
-4.48434375e-08,1.86900000e-01
-4.48034375e-08,1.86900000e-01
-4.47634375e-08,1.86900000e-01
-4.47234375e-08,1.86900000e-01
-4.46834375e-08,1.86900000e-01
-4.46434375e-08,1.86900000e-01
-4.46034375e-08,1.86900000e-01
-4.45634375e-08,1.86900000e-01
-4.45234375e-08,1.86900000e-01
-4.44834375e-08,1.86900000e-01
-4.44434375e-08,1.86900000e-01
-4.44034375e-08,1.86900000e-01
-4.43634375e-08,1.86900000e-01
-4.43234375e-08,1.86900000e-01
-4.42834375e-08,1.86900000e-01
-4.42434375e-08,1.86900000e-01
-4.42034375e-08,1.86900000e-01
-4.41634375e-08,1.86900000e-01
-4.41234375e-08,1.86900000e-01
-4.40834375e-08,1.86900000e-01
-4.40434375e-08,1.86900000e-01
-4.40034375e-08,1.86900000e-01
-4.39634375e-08,1.86900000e-01
-4.39234375e-08,1.86900000e-01
-4.38834375e-08,1.86900000e-01
-4.38434375e-08,1.86900000e-01
-4.38034375e-08,1.86900000e-01
-4.37634375e-08,1.86898438e-01
-4.37234375e-08,1.86901563e-01
-4.36834375e-08,1.86898438e-01
-4.36434375e-08,1.86901563e-01
-4.36034375e-08,1.86896875e-01
-4.35634375e-08,1.86903125e-01
-4.35234375e-08,1.86895313e-01
-4.34834375e-08,1.86906250e-01
-4.34434375e-08,1.86892188e-01
-4.34034375e-08,1.86910938e-01
-4.33634375e-08,1.86884375e-01
-4.33234375e-08,1.86925000e-01
-4.32834375e-08,1.86850000e-01
-4.32434375e-08,1.87103125e-01
-4.32034375e-08,1.87359375e-01
-4.31634375e-08,1.87264062e-01
-4.31234375e-08,1.87326563e-01
-4.30834375e-08,1.87278125e-01
-4.30434375e-08,1.87318750e-01
-4.30034375e-08,1.87282813e-01
-4.29634375e-08,1.87315625e-01
-4.29234375e-08,1.87284375e-01
-4.28834375e-08,1.87314063e-01
-4.28434375e-08,1.87285937e-01
-4.28034375e-08,1.87314063e-01
-4.27634375e-08,1.87285937e-01
-4.27234375e-08,1.87314063e-01
-4.26834375e-08,1.87285937e-01
-4.26434375e-08,1.87315625e-01
-4.26034375e-08,1.87284375e-01
-4.25634375e-08,1.87317188e-01
-4.25234375e-08,1.87282813e-01
-4.24834375e-08,1.87320313e-01
-4.24434375e-08,1.87278125e-01
-4.24034375e-08,1.87328125e-01
-4.23634375e-08,1.87262500e-01
-4.23234375e-08,1.87360938e-01
-4.22834375e-08,1.87085938e-01
-4.22434375e-08,1.86851563e-01
-4.22034375e-08,1.86925000e-01
-4.21634375e-08,1.86884375e-01
-4.21234375e-08,1.86912500e-01
-4.20834375e-08,1.86890625e-01
-4.20434375e-08,1.86909375e-01
-4.20034375e-08,1.86889063e-01
-4.19634375e-08,1.86914063e-01
-4.19234375e-08,1.86878125e-01
-4.18834375e-08,1.86945313e-01
-4.18434375e-08,1.86703125e-01
-4.18034375e-08,1.86432813e-01
-4.17634375e-08,1.86545313e-01
-4.17234375e-08,1.86462500e-01
-4.16834375e-08,1.86535937e-01
-4.16434375e-08,1.86462500e-01
-4.16034375e-08,1.86540625e-01
-4.15634375e-08,1.86450000e-01
-4.15234375e-08,1.86575000e-01
-4.14834375e-08,1.86271875e-01
-4.14434375e-08,1.86067188e-01
-4.14034375e-08,1.86107812e-01
-4.13634375e-08,1.86104688e-01
-4.13234375e-08,1.86087500e-01
-4.12834375e-08,1.86120312e-01
-4.12434375e-08,1.86067188e-01
-4.12034375e-08,1.86159375e-01
-4.11634375e-08,1.85885938e-01
-4.11234375e-08,1.85653125e-01
-4.10834375e-08,1.85720313e-01
-4.10434375e-08,1.85690625e-01
-4.10034375e-08,1.85703125e-01
-4.09634375e-08,1.85703125e-01
-4.09234375e-08,1.85690625e-01
-4.08834375e-08,1.85715625e-01
-4.08434375e-08,1.85671875e-01
-4.08034375e-08,1.85754688e-01
-4.07634375e-08,1.85490625e-01
-4.07234375e-08,1.85248438e-01
-4.06834375e-08,1.85326563e-01
-4.06434375e-08,1.85284375e-01
-4.06034375e-08,1.85307813e-01
-4.05634375e-08,1.85298437e-01
-4.05234375e-08,1.85296875e-01
-4.04834375e-08,1.85310937e-01
-4.04434375e-08,1.85278125e-01
-4.04034375e-08,1.85348438e-01
-4.03634375e-08,1.85096875e-01
-4.03234375e-08,1.84842188e-01
-4.02834375e-08,1.84932813e-01
-4.02434375e-08,1.84878125e-01
-4.02034375e-08,1.84914063e-01
-4.01634375e-08,1.84890625e-01
-4.01234375e-08,1.84904687e-01
-4.00834375e-08,1.84903125e-01
-4.00434375e-08,1.84885938e-01
-4.00034375e-08,1.84939063e-01
-3.99634375e-08,1.84706250e-01
-3.99234375e-08,1.84431250e-01
-3.98834375e-08,1.84543750e-01
-3.98434375e-08,1.84465625e-01
-3.98034375e-08,1.84529688e-01
-3.97634375e-08,1.84473438e-01
-3.97234375e-08,1.84526563e-01
-3.96834375e-08,1.84475000e-01
-3.96434375e-08,1.84526563e-01
-3.96034375e-08,1.84471875e-01
-3.95634375e-08,1.84531250e-01
-3.95234375e-08,1.84459375e-01
-3.94834375e-08,1.84564063e-01
-3.94434375e-08,1.84282813e-01
-3.94034375e-08,1.84053125e-01
-3.93634375e-08,1.84123438e-01
-3.93234375e-08,1.84085938e-01
-3.92834375e-08,1.84109375e-01
-3.92434375e-08,1.84092188e-01
-3.92034375e-08,1.84106250e-01
-3.91634375e-08,1.84095312e-01
-3.91234375e-08,1.84104688e-01
-3.90834375e-08,1.84095312e-01
-3.90434375e-08,1.84104688e-01
-3.90034375e-08,1.84095312e-01
-3.89634375e-08,1.84104688e-01
-3.89234375e-08,1.84095312e-01
-3.88834375e-08,1.84106250e-01
-3.88434375e-08,1.84092188e-01
-3.88034375e-08,1.84107812e-01
-3.87634375e-08,1.84089063e-01
-3.87234375e-08,1.84114063e-01
-3.86834375e-08,1.84081250e-01
-3.86434375e-08,1.84128125e-01
-3.86034375e-08,1.84046875e-01
-3.85634375e-08,1.84306250e-01
-3.85234375e-08,1.84556250e-01
