trails/0bbf0cf1bfcc3246d9e376b62f80622a/aes_ch1_20250507112347246.csv

Model,MSO66B
Label,
Waveform Type,ANALOG
Horizontal Units,s
Sample Interval,4.00000000e-11
Record Length,10000
Zero Index,1599.03906250
Vertical Units,A
ANALOG_Thumbnail,
yOffset,1.84500000e-01
yPosition,8.40000000e-01

Labels,
TIME,CH1
-6.39615625e-08,1.89300000e-01
-6.39215625e-08,1.89300000e-01
-6.38815625e-08,1.89300000e-01
-6.38415625e-08,1.89300000e-01
-6.38015625e-08,1.89300000e-01
-6.37615625e-08,1.89300000e-01
-6.37215625e-08,1.89300000e-01
-6.36815625e-08,1.89300000e-01
-6.36415625e-08,1.89300000e-01
-6.36015625e-08,1.89300000e-01
-6.35615625e-08,1.89300000e-01
-6.35215625e-08,1.89300000e-01
-6.34815625e-08,1.89300000e-01
-6.34415625e-08,1.89300000e-01
-6.34015625e-08,1.89300000e-01
-6.33615625e-08,1.89300000e-01
-6.33215625e-08,1.89300000e-01
-6.32815625e-08,1.89300000e-01
-6.32415625e-08,1.89300000e-01
-6.32015625e-08,1.89300000e-01
-6.31615625e-08,1.89300000e-01
-6.31215625e-08,1.89300000e-01
-6.30815625e-08,1.89300000e-01
-6.30415625e-08,1.89300000e-01
-6.30015625e-08,1.89300000e-01
-6.29615625e-08,1.89300000e-01
-6.29215625e-08,1.89300000e-01
-6.28815625e-08,1.89300000e-01
-6.28415625e-08,1.89301563e-01
-6.28015625e-08,1.89298437e-01
-6.27615625e-08,1.89301563e-01
-6.27215625e-08,1.89298437e-01
-6.26815625e-08,1.89301563e-01
-6.26415625e-08,1.89298437e-01
-6.26015625e-08,1.89301563e-01
-6.25615625e-08,1.89298437e-01
-6.25215625e-08,1.89301563e-01
-6.24815625e-08,1.89298437e-01
-6.24415625e-08,1.89301563e-01
-6.24015625e-08,1.89298437e-01
-6.23615625e-08,1.89301563e-01
-6.23215625e-08,1.89298437e-01
-6.22815625e-08,1.89301563e-01
-6.22415625e-08,1.89298437e-01
-6.22015625e-08,1.89303125e-01
-6.21615625e-08,1.89296875e-01
-6.21215625e-08,1.89303125e-01
-6.20815625e-08,1.89296875e-01
-6.20415625e-08,1.89303125e-01
-6.20015625e-08,1.89296875e-01
-6.19615625e-08,1.89303125e-01
-6.19215625e-08,1.89295313e-01
-6.18815625e-08,1.89304688e-01
-6.18415625e-08,1.89295313e-01
-6.18015625e-08,1.89306250e-01
-6.17615625e-08,1.89293750e-01
-6.17215625e-08,1.89307813e-01
-6.16815625e-08,1.89290625e-01
-6.16415625e-08,1.89310937e-01
-6.16015625e-08,1.89285938e-01
-6.15615625e-08,1.89320313e-01
-6.15215625e-08,1.89270313e-01
-6.14815625e-08,1.89354688e-01
-6.14415625e-08,1.89092188e-01
-6.14015625e-08,1.88845313e-01
-6.13615625e-08,1.88931250e-01
-6.13215625e-08,1.88878125e-01
-6.12815625e-08,1.88917188e-01
-6.12415625e-08,1.88885938e-01
-6.12015625e-08,1.88912500e-01
-6.11615625e-08,1.88889063e-01
-6.11215625e-08,1.88909375e-01
-6.10815625e-08,1.88892188e-01
-6.10415625e-08,1.88907812e-01
-6.10015625e-08,1.88892188e-01
-6.09615625e-08,1.88906250e-01
-6.09215625e-08,1.88893750e-01
-6.08815625e-08,1.88906250e-01
-6.08415625e-08,1.88893750e-01
-6.08015625e-08,1.88906250e-01
-6.07615625e-08,1.88893750e-01
-6.07215625e-08,1.88906250e-01
-6.06815625e-08,1.88895312e-01
-6.06415625e-08,1.88904688e-01
-6.06015625e-08,1.88895312e-01
-6.05615625e-08,1.88904688e-01
-6.05215625e-08,1.88895312e-01
-6.04815625e-08,1.88904688e-01
-6.04415625e-08,1.88895312e-01
-6.04015625e-08,1.88904688e-01
-6.03615625e-08,1.88895312e-01
-6.03215625e-08,1.88904688e-01
-6.02815625e-08,1.88895312e-01
-6.02415625e-08,1.88904688e-01
-6.02015625e-08,1.88895312e-01
-6.01615625e-08,1.88904688e-01
-6.01215625e-08,1.88893750e-01
-6.00815625e-08,1.88906250e-01
-6.00415625e-08,1.88893750e-01
-6.00015625e-08,1.88906250e-01
-5.99615625e-08,1.88893750e-01
-5.99215625e-08,1.88906250e-01
-5.98815625e-08,1.88893750e-01
-5.98415625e-08,1.88907812e-01
-5.98015625e-08,1.88892188e-01
-5.97615625e-08,1.88909375e-01
-5.97215625e-08,1.88890625e-01
-5.96815625e-08,1.88910938e-01
-5.96415625e-08,1.88887500e-01
-5.96015625e-08,1.88914063e-01
-5.95615625e-08,1.88882812e-01
-5.95215625e-08,1.88921875e-01
-5.94815625e-08,1.88868750e-01
-5.94415625e-08,1.88956250e-01
-5.94015625e-08,1.88690625e-01
-5.93615625e-08,1.88446875e-01
-5.93215625e-08,1.88528125e-01
-5.92815625e-08,1.88481250e-01
-5.92415625e-08,1.88514062e-01
-5.92015625e-08,1.88489062e-01
-5.91615625e-08,1.88509375e-01
-5.91215625e-08,1.88492188e-01
-5.90815625e-08,1.88506250e-01
-5.90415625e-08,1.88493750e-01
-5.90015625e-08,1.88504688e-01
-5.89615625e-08,1.88495313e-01
-5.89215625e-08,1.88504688e-01
-5.88815625e-08,1.88496875e-01
-5.88415625e-08,1.88503125e-01
-5.88015625e-08,1.88496875e-01
-5.87615625e-08,1.88503125e-01
-5.87215625e-08,1.88496875e-01
-5.86815625e-08,1.88503125e-01
-5.86415625e-08,1.88498438e-01
-5.86015625e-08,1.88501562e-01
-5.85615625e-08,1.88498438e-01
-5.85215625e-08,1.88501562e-01
-5.84815625e-08,1.88498438e-01
-5.84415625e-08,1.88501562e-01
-5.84015625e-08,1.88498438e-01
-5.83615625e-08,1.88501562e-01
-5.83215625e-08,1.88498438e-01
-5.82815625e-08,1.88501562e-01
-5.82415625e-08,1.88498438e-01
-5.82015625e-08,1.88501562e-01
-5.81615625e-08,1.88498438e-01
-5.81215625e-08,1.88501562e-01
-5.80815625e-08,1.88498438e-01
-5.80415625e-08,1.88501562e-01
-5.80015625e-08,1.88498438e-01
-5.79615625e-08,1.88500000e-01
-5.79215625e-08,1.88500000e-01
-5.78815625e-08,1.88500000e-01
-5.78415625e-08,1.88500000e-01
-5.78015625e-08,1.88500000e-01
-5.77615625e-08,1.88500000e-01
-5.77215625e-08,1.88500000e-01
-5.76815625e-08,1.88500000e-01
-5.76415625e-08,1.88500000e-01
-5.76015625e-08,1.88500000e-01
-5.75615625e-08,1.88500000e-01
-5.75215625e-08,1.88500000e-01
-5.74815625e-08,1.88500000e-01
-5.74415625e-08,1.88500000e-01
-5.74015625e-08,1.88500000e-01
-5.73615625e-08,1.88500000e-01
-5.73215625e-08,1.88500000e-01
-5.72815625e-08,1.88500000e-01
-5.72415625e-08,1.88500000e-01
-5.72015625e-08,1.88500000e-01
-5.71615625e-08,1.88500000e-01
-5.71215625e-08,1.88500000e-01
-5.70815625e-08,1.88500000e-01
-5.70415625e-08,1.88500000e-01
-5.70015625e-08,1.88500000e-01
-5.69615625e-08,1.88500000e-01
-5.69215625e-08,1.88500000e-01
-5.68815625e-08,1.88500000e-01
-5.68415625e-08,1.88500000e-01
-5.68015625e-08,1.88500000e-01
-5.67615625e-08,1.88500000e-01
-5.67215625e-08,1.88500000e-01
-5.66815625e-08,1.88500000e-01
-5.66415625e-08,1.88500000e-01
-5.66015625e-08,1.88500000e-01
-5.65615625e-08,1.88500000e-01
-5.65215625e-08,1.88498438e-01
-5.64815625e-08,1.88501562e-01
-5.64415625e-08,1.88498438e-01
-5.64015625e-08,1.88501562e-01
-5.63615625e-08,1.88498438e-01
-5.63215625e-08,1.88501562e-01
-5.62815625e-08,1.88498438e-01
-5.62415625e-08,1.88501562e-01
-5.62015625e-08,1.88498438e-01
-5.61615625e-08,1.88501562e-01
-5.61215625e-08,1.88498438e-01
-5.60815625e-08,1.88501562e-01
-5.60415625e-08,1.88498438e-01
-5.60015625e-08,1.88501562e-01
-5.59615625e-08,1.88498438e-01
-5.59215625e-08,1.88503125e-01
-5.58815625e-08,1.88496875e-01
-5.58415625e-08,1.88503125e-01
-5.58015625e-08,1.88496875e-01
-5.57615625e-08,1.88503125e-01
-5.57215625e-08,1.88495313e-01
-5.56815625e-08,1.88504688e-01
-5.56415625e-08,1.88495313e-01
-5.56015625e-08,1.88506250e-01
-5.55615625e-08,1.88493750e-01
-5.55215625e-08,1.88507813e-01
-5.54815625e-08,1.88490625e-01
-5.54415625e-08,1.88510938e-01
-5.54015625e-08,1.88485938e-01
-5.53615625e-08,1.88518750e-01
-5.53215625e-08,1.88470313e-01
-5.52815625e-08,1.88554688e-01
-5.52415625e-08,1.88292188e-01
-5.52015625e-08,1.88045313e-01
-5.51615625e-08,1.88131250e-01
-5.51215625e-08,1.88078125e-01
-5.50815625e-08,1.88117188e-01
-5.50415625e-08,1.88085937e-01
-5.50015625e-08,1.88112500e-01
-5.49615625e-08,1.88089063e-01
-5.49215625e-08,1.88109375e-01
-5.48815625e-08,1.88092188e-01
-5.48415625e-08,1.88107812e-01
-5.48015625e-08,1.88092188e-01
-5.47615625e-08,1.88106250e-01
-5.47215625e-08,1.88093750e-01
-5.46815625e-08,1.88106250e-01
-5.46415625e-08,1.88093750e-01
-5.46015625e-08,1.88104688e-01
-5.45615625e-08,1.88095313e-01
-5.45215625e-08,1.88104688e-01
-5.44815625e-08,1.88095313e-01
-5.44415625e-08,1.88104688e-01
-5.44015625e-08,1.88095313e-01
-5.43615625e-08,1.88104688e-01
-5.43215625e-08,1.88095313e-01
-5.42815625e-08,1.88104688e-01
-5.42415625e-08,1.88095313e-01
-5.42015625e-08,1.88104688e-01
-5.41615625e-08,1.88095313e-01
-5.41215625e-08,1.88104688e-01
-5.40815625e-08,1.88095313e-01
-5.40415625e-08,1.88103125e-01
-5.40015625e-08,1.88096875e-01
-5.39615625e-08,1.88103125e-01
-5.39215625e-08,1.88096875e-01
-5.38815625e-08,1.88103125e-01
-5.38415625e-08,1.88096875e-01
-5.38015625e-08,1.88103125e-01
-5.37615625e-08,1.88096875e-01
-5.37215625e-08,1.88103125e-01
-5.36815625e-08,1.88096875e-01
-5.36415625e-08,1.88103125e-01
-5.36015625e-08,1.88096875e-01
-5.35615625e-08,1.88103125e-01
-5.35215625e-08,1.88096875e-01
-5.34815625e-08,1.88103125e-01
-5.34415625e-08,1.88096875e-01
-5.34015625e-08,1.88103125e-01
-5.33615625e-08,1.88096875e-01
-5.33215625e-08,1.88103125e-01
-5.32815625e-08,1.88096875e-01
-5.32415625e-08,1.88103125e-01
-5.32015625e-08,1.88096875e-01
-5.31615625e-08,1.88103125e-01
-5.31215625e-08,1.88096875e-01
-5.30815625e-08,1.88103125e-01
-5.30415625e-08,1.88095313e-01
-5.30015625e-08,1.88104688e-01
-5.29615625e-08,1.88095313e-01
-5.29215625e-08,1.88104688e-01
-5.28815625e-08,1.88095313e-01
-5.28415625e-08,1.88104688e-01
-5.28015625e-08,1.88095313e-01
-5.27615625e-08,1.88104688e-01
-5.27215625e-08,1.88095313e-01
-5.26815625e-08,1.88104688e-01
-5.26415625e-08,1.88095313e-01
-5.26015625e-08,1.88104688e-01
-5.25615625e-08,1.88095313e-01
-5.25215625e-08,1.88104688e-01
-5.24815625e-08,1.88095313e-01
-5.24415625e-08,1.88106250e-01
-5.24015625e-08,1.88093750e-01
-5.23615625e-08,1.88106250e-01
-5.23215625e-08,1.88093750e-01
-5.22815625e-08,1.88106250e-01
-5.22415625e-08,1.88093750e-01
-5.22015625e-08,1.88107812e-01
-5.21615625e-08,1.88092188e-01
-5.21215625e-08,1.88107812e-01
-5.20815625e-08,1.88090625e-01
-5.20415625e-08,1.88110938e-01
-5.20015625e-08,1.88089063e-01
-5.19615625e-08,1.88112500e-01
-5.19215625e-08,1.88084375e-01
-5.18815625e-08,1.88118750e-01
-5.18415625e-08,1.88076563e-01
-5.18015625e-08,1.88132812e-01
-5.17615625e-08,1.88042188e-01
-5.17215625e-08,1.88310937e-01
-5.16815625e-08,1.88551563e-01
-5.16415625e-08,1.88473438e-01
-5.16015625e-08,1.88517188e-01
-5.15615625e-08,1.88487500e-01
-5.15215625e-08,1.88509375e-01
-5.14815625e-08,1.88492188e-01
-5.14415625e-08,1.88506250e-01
-5.14015625e-08,1.88495313e-01
-5.13615625e-08,1.88503125e-01
-5.13215625e-08,1.88496875e-01
-5.12815625e-08,1.88501562e-01
-5.12415625e-08,1.88498438e-01
-5.12015625e-08,1.88501562e-01
-5.11615625e-08,1.88500000e-01
-5.11215625e-08,1.88500000e-01
-5.10815625e-08,1.88500000e-01
-5.10415625e-08,1.88498438e-01
-5.10015625e-08,1.88501562e-01
-5.09615625e-08,1.88498438e-01
-5.09215625e-08,1.88503125e-01
-5.08815625e-08,1.88496875e-01
-5.08415625e-08,1.88503125e-01
-5.08015625e-08,1.88495313e-01
-5.07615625e-08,1.88506250e-01
-5.07215625e-08,1.88493750e-01
-5.06815625e-08,1.88507813e-01
-5.06415625e-08,1.88489062e-01
-5.06015625e-08,1.88514062e-01
-5.05615625e-08,1.88481250e-01
-5.05215625e-08,1.88528125e-01
-5.04815625e-08,1.88446875e-01
-5.04415625e-08,1.88706250e-01
-5.04015625e-08,1.88954687e-01
-5.03615625e-08,1.88868750e-01
-5.03215625e-08,1.88921875e-01
-5.02815625e-08,1.88882812e-01
-5.02415625e-08,1.88914063e-01
-5.02015625e-08,1.88887500e-01
-5.01615625e-08,1.88910938e-01
-5.01215625e-08,1.88890625e-01
-5.00815625e-08,1.88907812e-01
-5.00415625e-08,1.88892188e-01
-5.00015625e-08,1.88907812e-01
-4.99615625e-08,1.88893750e-01
-4.99215625e-08,1.88906250e-01
-4.98815625e-08,1.88893750e-01
-4.98415625e-08,1.88904688e-01
-4.98015625e-08,1.88895312e-01
-4.97615625e-08,1.88904688e-01
-4.97215625e-08,1.88895312e-01
-4.96815625e-08,1.88904688e-01
-4.96415625e-08,1.88895312e-01
-4.96015625e-08,1.88904688e-01
-4.95615625e-08,1.88895312e-01
-4.95215625e-08,1.88903125e-01
-4.94815625e-08,1.88896875e-01
-4.94415625e-08,1.88903125e-01
-4.94015625e-08,1.88896875e-01
-4.93615625e-08,1.88903125e-01
-4.93215625e-08,1.88896875e-01
-4.92815625e-08,1.88903125e-01
-4.92415625e-08,1.88896875e-01
-4.92015625e-08,1.88903125e-01
-4.91615625e-08,1.88896875e-01
-4.91215625e-08,1.88903125e-01
-4.90815625e-08,1.88896875e-01
-4.90415625e-08,1.88903125e-01
-4.90015625e-08,1.88896875e-01
-4.89615625e-08,1.88903125e-01
-4.89215625e-08,1.88896875e-01
-4.88815625e-08,1.88903125e-01
-4.88415625e-08,1.88896875e-01
-4.88015625e-08,1.88903125e-01
-4.87615625e-08,1.88898438e-01
-4.87215625e-08,1.88901563e-01
-4.86815625e-08,1.88898438e-01
-4.86415625e-08,1.88901563e-01
-4.86015625e-08,1.88898438e-01
-4.85615625e-08,1.88901563e-01
-4.85215625e-08,1.88898438e-01
-4.84815625e-08,1.88901563e-01
-4.84415625e-08,1.88898438e-01
-4.84015625e-08,1.88901563e-01
-4.83615625e-08,1.88898438e-01
-4.83215625e-08,1.88901563e-01
-4.82815625e-08,1.88898438e-01
-4.82415625e-08,1.88901563e-01
-4.82015625e-08,1.88898438e-01
-4.81615625e-08,1.88901563e-01
-4.81215625e-08,1.88898438e-01
-4.80815625e-08,1.88901563e-01
-4.80415625e-08,1.88898438e-01
-4.80015625e-08,1.88901563e-01
-4.79615625e-08,1.88898438e-01
-4.79215625e-08,1.88901563e-01
-4.78815625e-08,1.88898438e-01
-4.78415625e-08,1.88901563e-01
-4.78015625e-08,1.88898438e-01
-4.77615625e-08,1.88901563e-01
-4.77215625e-08,1.88898438e-01
-4.76815625e-08,1.88901563e-01
-4.76415625e-08,1.88898438e-01
-4.76015625e-08,1.88901563e-01
-4.75615625e-08,1.88898438e-01
-4.75215625e-08,1.88901563e-01
-4.74815625e-08,1.88898438e-01
-4.74415625e-08,1.88901563e-01
-4.74015625e-08,1.88898438e-01
-4.73615625e-08,1.88901563e-01
-4.73215625e-08,1.88898438e-01
-4.72815625e-08,1.88901563e-01
-4.72415625e-08,1.88898438e-01
-4.72015625e-08,1.88901563e-01
-4.71615625e-08,1.88898438e-01
-4.71215625e-08,1.88901563e-01
-4.70815625e-08,1.88898438e-01
-4.70415625e-08,1.88901563e-01
-4.70015625e-08,1.88898438e-01
-4.69615625e-08,1.88901563e-01
-4.69215625e-08,1.88898438e-01
-4.68815625e-08,1.88901563e-01
-4.68415625e-08,1.88898438e-01
-4.68015625e-08,1.88901563e-01
-4.67615625e-08,1.88898438e-01
-4.67215625e-08,1.88901563e-01
-4.66815625e-08,1.88898438e-01
-4.66415625e-08,1.88901563e-01
-4.66015625e-08,1.88898438e-01
-4.65615625e-08,1.88901563e-01
-4.65215625e-08,1.88898438e-01
-4.64815625e-08,1.88901563e-01
-4.64415625e-08,1.88898438e-01
-4.64015625e-08,1.88901563e-01
-4.63615625e-08,1.88898438e-01
-4.63215625e-08,1.88901563e-01
-4.62815625e-08,1.88898438e-01
-4.62415625e-08,1.88901563e-01
-4.62015625e-08,1.88898438e-01
-4.61615625e-08,1.88901563e-01
-4.61215625e-08,1.88898438e-01
-4.60815625e-08,1.88900000e-01
-4.60415625e-08,1.88900000e-01
-4.60015625e-08,1.88900000e-01
-4.59615625e-08,1.88900000e-01
-4.59215625e-08,1.88900000e-01
-4.58815625e-08,1.88900000e-01
-4.58415625e-08,1.88900000e-01
-4.58015625e-08,1.88900000e-01
-4.57615625e-08,1.88900000e-01
-4.57215625e-08,1.88900000e-01
-4.56815625e-08,1.88898438e-01
-4.56415625e-08,1.88901563e-01
-4.56015625e-08,1.88898438e-01
-4.55615625e-08,1.88903125e-01
-4.55215625e-08,1.88896875e-01
-4.54815625e-08,1.88904688e-01
-4.54415625e-08,1.88893750e-01
-4.54015625e-08,1.88909375e-01
-4.53615625e-08,1.88885938e-01
-4.53215625e-08,1.88923438e-01
-4.52815625e-08,1.88851563e-01
-4.52415625e-08,1.89101563e-01
-4.52015625e-08,1.89360937e-01
-4.51615625e-08,1.89262500e-01
-4.51215625e-08,1.89328125e-01
-4.50815625e-08,1.89275000e-01
-4.50415625e-08,1.89321875e-01
-4.50015625e-08,1.89279688e-01
-4.49615625e-08,1.89320313e-01
-4.49215625e-08,1.89279688e-01
-4.48815625e-08,1.89320313e-01
-4.48415625e-08,1.89278125e-01
-4.48015625e-08,1.89325000e-01
-4.47615625e-08,1.89270313e-01
-4.47215625e-08,1.89339063e-01
-4.46815625e-08,1.89235938e-01
-4.46415625e-08,1.89517188e-01
-4.46015625e-08,1.89745313e-01
-4.45615625e-08,1.89678125e-01
-4.45215625e-08,1.89712500e-01
-4.44815625e-08,1.89692187e-01
-4.44415625e-08,1.89704687e-01
-4.44015625e-08,1.89698438e-01
-4.43615625e-08,1.89700000e-01
-4.43215625e-08,1.89701563e-01
-4.42815625e-08,1.89698438e-01
-4.42415625e-08,1.89703125e-01
-4.42015625e-08,1.89695313e-01
-4.41615625e-08,1.89704687e-01
-4.41215625e-08,1.89693750e-01
-4.40815625e-08,1.89706250e-01
-4.40415625e-08,1.89692187e-01
-4.40015625e-08,1.89709375e-01
-4.39615625e-08,1.89689063e-01
-4.39215625e-08,1.89714063e-01
-4.38815625e-08,1.89682813e-01
-4.38415625e-08,1.89721875e-01
-4.38015625e-08,1.89667188e-01
-4.37615625e-08,1.89757813e-01
-4.37215625e-08,1.89489062e-01
-4.36815625e-08,1.89250000e-01
-4.36415625e-08,1.89326563e-01
-4.36015625e-08,1.89284375e-01
-4.35615625e-08,1.89310937e-01
-4.35215625e-08,1.89293750e-01
-4.34815625e-08,1.89304688e-01
-4.34415625e-08,1.89298437e-01
-4.34015625e-08,1.89298437e-01
-4.33615625e-08,1.89304688e-01
-4.33215625e-08,1.89292188e-01
-4.32815625e-08,1.89314063e-01
-4.32415625e-08,1.89276562e-01
-4.32015625e-08,1.89348437e-01
-4.31615625e-08,1.89096875e-01
-4.31215625e-08,1.88840625e-01
-4.30815625e-08,1.88934375e-01
-4.30415625e-08,1.88875000e-01
-4.30015625e-08,1.88920313e-01
-4.29615625e-08,1.88882812e-01
-4.29215625e-08,1.88914063e-01
-4.28815625e-08,1.88887500e-01
-4.28415625e-08,1.88912500e-01
-4.28015625e-08,1.88889063e-01
-4.27615625e-08,1.88909375e-01
-4.27215625e-08,1.88890625e-01
-4.26815625e-08,1.88907812e-01
-4.26415625e-08,1.88892188e-01
-4.26015625e-08,1.88906250e-01
-4.25615625e-08,1.88893750e-01
-4.25215625e-08,1.88904688e-01
-4.24815625e-08,1.88895312e-01
-4.24415625e-08,1.88901563e-01
-4.24015625e-08,1.88901563e-01
-4.23615625e-08,1.88892188e-01
-4.23215625e-08,1.88928125e-01
-4.22815625e-08,1.88728125e-01
-4.22415625e-08,1.88384375e-01
-4.22015625e-08,1.88745313e-01
-4.21615625e-08,1.88926563e-01
-4.21215625e-08,1.88892188e-01
-4.20815625e-08,1.88901563e-01
-4.20415625e-08,1.88901563e-01
-4.20015625e-08,1.88896875e-01
-4.19615625e-08,1.88903125e-01
-4.19215625e-08,1.88896875e-01
-4.18815625e-08,1.88904688e-01
-4.18415625e-08,1.88895312e-01
-4.18015625e-08,1.88904688e-01
-4.17615625e-08,1.88895312e-01
-4.17215625e-08,1.88904688e-01
-4.16815625e-08,1.88895312e-01
-4.16415625e-08,1.88904688e-01
-4.16015625e-08,1.88895312e-01
-4.15615625e-08,1.88906250e-01
-4.15215625e-08,1.88893750e-01
-4.14815625e-08,1.88906250e-01
-4.14415625e-08,1.88893750e-01
-4.14015625e-08,1.88906250e-01
-4.13615625e-08,1.88893750e-01
-4.13215625e-08,1.88906250e-01
-4.12815625e-08,1.88893750e-01
-4.12415625e-08,1.88906250e-01
-4.12015625e-08,1.88893750e-01
-4.11615625e-08,1.88907812e-01
-4.11215625e-08,1.88892188e-01
-4.10815625e-08,1.88907812e-01
-4.10415625e-08,1.88892188e-01
-4.10015625e-08,1.88909375e-01
-4.09615625e-08,1.88890625e-01
-4.09215625e-08,1.88909375e-01
-4.08815625e-08,1.88889063e-01
-4.08415625e-08,1.88912500e-01
-4.08015625e-08,1.88885938e-01
-4.07615625e-08,1.88915625e-01
-4.07215625e-08,1.88881250e-01
-4.06815625e-08,1.88923438e-01
-4.06415625e-08,1.88865625e-01
-4.06015625e-08,1.88957813e-01
-4.05615625e-08,1.88687500e-01
-4.05215625e-08,1.88450000e-01
-4.04815625e-08,1.88526562e-01
-4.04415625e-08,1.88482813e-01
-4.04015625e-08,1.88512500e-01
-4.03615625e-08,1.88490625e-01
-4.03215625e-08,1.88506250e-01
-4.02815625e-08,1.88495313e-01
-4.02415625e-08,1.88504688e-01
-4.02015625e-08,1.88496875e-01
-4.01615625e-08,1.88501562e-01
-4.01215625e-08,1.88498438e-01
-4.00815625e-08,1.88501562e-01
-4.00415625e-08,1.88500000e-01
-4.00015625e-08,1.88500000e-01
-3.99615625e-08,1.88501562e-01
-3.99215625e-08,1.88498438e-01
-3.98815625e-08,1.88501562e-01
-3.98415625e-08,1.88496875e-01
-3.98015625e-08,1.88503125e-01
-3.97615625e-08,1.88496875e-01
-3.97215625e-08,1.88504688e-01
-3.96815625e-08,1.88493750e-01
-3.96415625e-08,1.88506250e-01
-3.96015625e-08,1.88492188e-01
-3.95615625e-08,1.88510938e-01
-3.95215625e-08,1.88485938e-01
-3.94815625e-08,1.88518750e-01
-3.94415625e-08,1.88471875e-01
-3.94015625e-08,1.88553125e-01
-3.93615625e-08,1.88293750e-01
-3.93215625e-08,1.88045313e-01
-3.92815625e-08,1.88131250e-01
-3.92415625e-08,1.88078125e-01
-3.92015625e-08,1.88117188e-01
-3.91615625e-08,1.88085937e-01
-3.91215625e-08,1.88112500e-01
-3.90815625e-08,1.88089063e-01
-3.90415625e-08,1.88109375e-01
-3.90015625e-08,1.88092188e-01
-3.89615625e-08,1.88107812e-01
-3.89215625e-08,1.88093750e-01
-3.88815625e-08,1.88106250e-01
-3.88415625e-08,1.88093750e-01
-3.88015625e-08,1.88106250e-01
-3.87615625e-08,1.88095313e-01
-3.87215625e-08,1.88104688e-01
-3.86815625e-08,1.88095313e-01
-3.86415625e-08,1.88104688e-01
-3.86015625e-08,1.88095313e-01
-3.85615625e-08,1.88104688e-01
-3.85215625e-08,1.88095313e-01
