trails/0bbf0cf1bfcc3246d9e376b62f80622a/aes_ch1_20250507113257659.csv

Model,MSO66B
Label,
Waveform Type,ANALOG
Horizontal Units,s
Sample Interval,4.00000000e-11
Record Length,10000
Zero Index,1599.11718750
Vertical Units,A
ANALOG_Thumbnail,
yOffset,1.84500000e-01
yPosition,8.40000000e-01

Labels,
TIME,CH1
-6.39646875e-08,1.93275000e-01
-6.39246875e-08,1.93325000e-01
-6.38846875e-08,1.93275000e-01
-6.38446875e-08,1.93323438e-01
-6.38046875e-08,1.93276562e-01
-6.37646875e-08,1.93323438e-01
-6.37246875e-08,1.93276562e-01
-6.36846875e-08,1.93325000e-01
-6.36446875e-08,1.93275000e-01
-6.36046875e-08,1.93325000e-01
-6.35646875e-08,1.93273438e-01
-6.35246875e-08,1.93326563e-01
-6.34846875e-08,1.93271875e-01
-6.34446875e-08,1.93331250e-01
-6.34046875e-08,1.93265625e-01
-6.33646875e-08,1.93339062e-01
-6.33246875e-08,1.93251563e-01
-6.32846875e-08,1.93375000e-01
-6.32446875e-08,1.93071875e-01
-6.32046875e-08,1.92865625e-01
-6.31646875e-08,1.92909375e-01
-6.31246875e-08,1.92901563e-01
-6.30846875e-08,1.92893750e-01
-6.30446875e-08,1.92910938e-01
-6.30046875e-08,1.92885937e-01
-6.29646875e-08,1.92918750e-01
-6.29246875e-08,1.92876563e-01
-6.28846875e-08,1.92928125e-01
-6.28446875e-08,1.92860937e-01
-6.28046875e-08,1.92965625e-01
-6.27646875e-08,1.92681250e-01
-6.27246875e-08,1.92457812e-01
-6.26846875e-08,1.92518750e-01
-6.26446875e-08,1.92492188e-01
-6.26046875e-08,1.92503125e-01
-6.25646875e-08,1.92501563e-01
-6.25246875e-08,1.92495313e-01
-6.24846875e-08,1.92506250e-01
-6.24446875e-08,1.92490625e-01
-6.24046875e-08,1.92510938e-01
-6.23646875e-08,1.92487500e-01
-6.23246875e-08,1.92515625e-01
-6.22846875e-08,1.92482813e-01
-6.22446875e-08,1.92520313e-01
-6.22046875e-08,1.92475000e-01
-6.21646875e-08,1.92531250e-01
-6.21246875e-08,1.92457812e-01
-6.20846875e-08,1.92570313e-01
-6.20446875e-08,1.92275000e-01
-6.20046875e-08,1.92065625e-01
-6.19646875e-08,1.92104688e-01
-6.19246875e-08,1.92115625e-01
-6.18846875e-08,1.92054688e-01
-6.18446875e-08,1.92301563e-01
-6.18046875e-08,1.92557813e-01
-6.17646875e-08,1.92467187e-01
-6.17246875e-08,1.92521875e-01
-6.16846875e-08,1.92484375e-01
-6.16446875e-08,1.92510938e-01
-6.16046875e-08,1.92490625e-01
-6.15646875e-08,1.92506250e-01
-6.15246875e-08,1.92495313e-01
-6.14846875e-08,1.92503125e-01
-6.14446875e-08,1.92498438e-01
-6.14046875e-08,1.92500000e-01
-6.13646875e-08,1.92501563e-01
-6.13246875e-08,1.92496875e-01
-6.12846875e-08,1.92504687e-01
-6.12446875e-08,1.92493750e-01
-6.12046875e-08,1.92507813e-01
-6.11646875e-08,1.92489063e-01
-6.11246875e-08,1.92514062e-01
-6.10846875e-08,1.92479687e-01
-6.10446875e-08,1.92529688e-01
-6.10046875e-08,1.92445313e-01
-6.09646875e-08,1.92707813e-01
-6.09246875e-08,1.92953125e-01
-6.08846875e-08,1.92870313e-01
-6.08446875e-08,1.92920312e-01
-6.08046875e-08,1.92885937e-01
-6.07646875e-08,1.92910938e-01
-6.07246875e-08,1.92890625e-01
-6.06846875e-08,1.92906250e-01
-6.06446875e-08,1.92893750e-01
-6.06046875e-08,1.92904688e-01
-6.05646875e-08,1.92896875e-01
-6.05246875e-08,1.92903125e-01
-6.04846875e-08,1.92898438e-01
-6.04446875e-08,1.92901563e-01
-6.04046875e-08,1.92898438e-01
-6.03646875e-08,1.92900000e-01
-6.03246875e-08,1.92900000e-01
-6.02846875e-08,1.92900000e-01
-6.02446875e-08,1.92901563e-01
-6.02046875e-08,1.92898438e-01
-6.01646875e-08,1.92901563e-01
-6.01246875e-08,1.92898438e-01
-6.00846875e-08,1.92903125e-01
-6.00446875e-08,1.92896875e-01
-6.00046875e-08,1.92903125e-01
-5.99646875e-08,1.92896875e-01
-5.99246875e-08,1.92904688e-01
-5.98846875e-08,1.92895312e-01
-5.98446875e-08,1.92904688e-01
-5.98046875e-08,1.92895312e-01
-5.97646875e-08,1.92904688e-01
-5.97246875e-08,1.92893750e-01
-5.96846875e-08,1.92906250e-01
-5.96446875e-08,1.92893750e-01
-5.96046875e-08,1.92907812e-01
-5.95646875e-08,1.92892188e-01
-5.95246875e-08,1.92907812e-01
-5.94846875e-08,1.92890625e-01
-5.94446875e-08,1.92909375e-01
-5.94046875e-08,1.92890625e-01
-5.93646875e-08,1.92910938e-01
-5.93246875e-08,1.92889063e-01
-5.92846875e-08,1.92912500e-01
-5.92446875e-08,1.92885937e-01
-5.92046875e-08,1.92914063e-01
-5.91646875e-08,1.92884375e-01
-5.91246875e-08,1.92918750e-01
-5.90846875e-08,1.92879688e-01
-5.90446875e-08,1.92925000e-01
-5.90046875e-08,1.92870313e-01
-5.89646875e-08,1.92940625e-01
-5.89246875e-08,1.92834375e-01
-5.88846875e-08,1.93120313e-01
-5.88446875e-08,1.93342188e-01
-5.88046875e-08,1.93282813e-01
-5.87646875e-08,1.93306250e-01
-5.87246875e-08,1.93300000e-01
-5.86846875e-08,1.93295313e-01
-5.86446875e-08,1.93307813e-01
-5.86046875e-08,1.93287500e-01
-5.85646875e-08,1.93317188e-01
-5.85246875e-08,1.93276562e-01
-5.84846875e-08,1.93335937e-01
-5.84446875e-08,1.93237500e-01
-5.84046875e-08,1.93517188e-01
-5.83646875e-08,1.93743750e-01
-5.83246875e-08,1.93682812e-01
-5.82846875e-08,1.93706250e-01
-5.82446875e-08,1.93703125e-01
-5.82046875e-08,1.93687500e-01
-5.81646875e-08,1.93725000e-01
-5.81246875e-08,1.93648437e-01
-5.80846875e-08,1.93906250e-01
-5.80446875e-08,1.94153125e-01
-5.80046875e-08,1.94071875e-01
-5.79646875e-08,1.94115625e-01
-5.79246875e-08,1.94090625e-01
-5.78846875e-08,1.94103125e-01
-5.78446875e-08,1.94103125e-01
-5.78046875e-08,1.94090625e-01
-5.77646875e-08,1.94121875e-01
-5.77246875e-08,1.94053125e-01
-5.76846875e-08,1.94301562e-01
-5.76446875e-08,1.94559375e-01
-5.76046875e-08,1.94465625e-01
-5.75646875e-08,1.94523438e-01
-5.75246875e-08,1.94482813e-01
-5.74846875e-08,1.94514063e-01
-5.74446875e-08,1.94489063e-01
-5.74046875e-08,1.94507813e-01
-5.73646875e-08,1.94493750e-01
-5.73246875e-08,1.94504687e-01
-5.72846875e-08,1.94498438e-01
-5.72446875e-08,1.94500000e-01
-5.72046875e-08,1.94501563e-01
-5.71646875e-08,1.94495313e-01
-5.71246875e-08,1.94507813e-01
-5.70846875e-08,1.94487500e-01
-5.70446875e-08,1.94517188e-01
-5.70046875e-08,1.94471875e-01
-5.69646875e-08,1.94554688e-01
-5.69246875e-08,1.94290625e-01
-5.68846875e-08,1.94048438e-01
-5.68446875e-08,1.94126563e-01
-5.68046875e-08,1.94084375e-01
-5.67646875e-08,1.94109375e-01
-5.67246875e-08,1.94096875e-01
-5.66846875e-08,1.94096875e-01
-5.66446875e-08,1.94110937e-01
-5.66046875e-08,1.94078125e-01
-5.65646875e-08,1.94148437e-01
-5.65246875e-08,1.93895312e-01
-5.64846875e-08,1.93643750e-01
-5.64446875e-08,1.93729687e-01
-5.64046875e-08,1.93682812e-01
-5.63646875e-08,1.93709375e-01
-5.63246875e-08,1.93700000e-01
-5.62846875e-08,1.93687500e-01
-5.62446875e-08,1.93740625e-01
-5.62046875e-08,1.93504687e-01
-5.61646875e-08,1.93235938e-01
-5.61246875e-08,1.93339062e-01
-5.60846875e-08,1.93273438e-01
-5.60446875e-08,1.93317188e-01
-5.60046875e-08,1.93290625e-01
-5.59646875e-08,1.93296875e-01
-5.59246875e-08,1.93329688e-01
-5.58846875e-08,1.93115625e-01
-5.58446875e-08,1.92823438e-01
-5.58046875e-08,1.92951563e-01
-5.57646875e-08,1.92859375e-01
-5.57246875e-08,1.92935938e-01
-5.56846875e-08,1.92867188e-01
-5.56446875e-08,1.92929688e-01
-5.56046875e-08,1.92871875e-01
-5.55646875e-08,1.92926563e-01
-5.55246875e-08,1.92875000e-01
-5.54846875e-08,1.92925000e-01
-5.54446875e-08,1.92876563e-01
-5.54046875e-08,1.92923438e-01
-5.53646875e-08,1.92878125e-01
-5.53246875e-08,1.92921875e-01
-5.52846875e-08,1.92878125e-01
-5.52446875e-08,1.92921875e-01
-5.52046875e-08,1.92878125e-01
-5.51646875e-08,1.92921875e-01
-5.51246875e-08,1.92878125e-01
-5.50846875e-08,1.92921875e-01
-5.50446875e-08,1.92878125e-01
-5.50046875e-08,1.92921875e-01
-5.49646875e-08,1.92878125e-01
-5.49246875e-08,1.92923438e-01
-5.48846875e-08,1.92876563e-01
-5.48446875e-08,1.92925000e-01
-5.48046875e-08,1.92875000e-01
-5.47646875e-08,1.92926563e-01
-5.47246875e-08,1.92870313e-01
-5.46846875e-08,1.92932812e-01
-5.46446875e-08,1.92862500e-01
-5.46046875e-08,1.92948438e-01
-5.45646875e-08,1.92826563e-01
-5.45246875e-08,1.93126563e-01
-5.44846875e-08,1.93334375e-01
-5.44446875e-08,1.93290625e-01
-5.44046875e-08,1.93298438e-01
-5.43646875e-08,1.93307813e-01
-5.43246875e-08,1.93287500e-01
-5.42846875e-08,1.93318750e-01
-5.42446875e-08,1.93275000e-01
-5.42046875e-08,1.93335937e-01
-5.41646875e-08,1.93237500e-01
-5.41246875e-08,1.93517188e-01
-5.40846875e-08,1.93743750e-01
-5.40446875e-08,1.93681250e-01
-5.40046875e-08,1.93707813e-01
-5.39646875e-08,1.93698438e-01
-5.39246875e-08,1.93695312e-01
-5.38846875e-08,1.93709375e-01
-5.38446875e-08,1.93682812e-01
-5.38046875e-08,1.93728125e-01
-5.37646875e-08,1.93646875e-01
-5.37246875e-08,1.93907812e-01
-5.36846875e-08,1.94153125e-01
-5.36446875e-08,1.94071875e-01
-5.36046875e-08,1.94118750e-01
-5.35646875e-08,1.94087500e-01
-5.35246875e-08,1.94107813e-01
-5.34846875e-08,1.94095313e-01
-5.34446875e-08,1.94103125e-01
-5.34046875e-08,1.94100000e-01
-5.33646875e-08,1.94096875e-01
-5.33246875e-08,1.94107813e-01
-5.32846875e-08,1.94087500e-01
-5.32446875e-08,1.94123437e-01
-5.32046875e-08,1.94051562e-01
-5.31646875e-08,1.94301562e-01
-5.31246875e-08,1.94559375e-01
-5.30846875e-08,1.94464063e-01
-5.30446875e-08,1.94526562e-01
-5.30046875e-08,1.94479687e-01
-5.29646875e-08,1.94517188e-01
-5.29246875e-08,1.94484375e-01
-5.28846875e-08,1.94514063e-01
-5.28446875e-08,1.94487500e-01
-5.28046875e-08,1.94510938e-01
-5.27646875e-08,1.94489063e-01
-5.27246875e-08,1.94510938e-01
-5.26846875e-08,1.94490625e-01
-5.26446875e-08,1.94509375e-01
-5.26046875e-08,1.94490625e-01
-5.25646875e-08,1.94509375e-01
-5.25246875e-08,1.94490625e-01
-5.24846875e-08,1.94509375e-01
-5.24446875e-08,1.94490625e-01
-5.24046875e-08,1.94509375e-01
-5.23646875e-08,1.94490625e-01
-5.23246875e-08,1.94509375e-01
-5.22846875e-08,1.94490625e-01
-5.22446875e-08,1.94510938e-01
-5.22046875e-08,1.94489063e-01
-5.21646875e-08,1.94512500e-01
-5.21246875e-08,1.94487500e-01
-5.20846875e-08,1.94515625e-01
-5.20446875e-08,1.94481250e-01
-5.20046875e-08,1.94523438e-01
-5.19646875e-08,1.94467187e-01
-5.19246875e-08,1.94557813e-01
-5.18846875e-08,1.94290625e-01
-5.18446875e-08,1.94048438e-01
-5.18046875e-08,1.94128125e-01
-5.17646875e-08,1.94081250e-01
-5.17246875e-08,1.94114063e-01
-5.16846875e-08,1.94089063e-01
-5.16446875e-08,1.94109375e-01
-5.16046875e-08,1.94092188e-01
-5.15646875e-08,1.94107813e-01
-5.15246875e-08,1.94093750e-01
-5.14846875e-08,1.94106250e-01
-5.14446875e-08,1.94093750e-01
-5.14046875e-08,1.94106250e-01
-5.13646875e-08,1.94095313e-01
-5.13246875e-08,1.94104688e-01
-5.12846875e-08,1.94095313e-01
-5.12446875e-08,1.94104688e-01
-5.12046875e-08,1.94093750e-01
-5.11646875e-08,1.94106250e-01
-5.11246875e-08,1.94093750e-01
-5.10846875e-08,1.94106250e-01
-5.10446875e-08,1.94092188e-01
-5.10046875e-08,1.94109375e-01
-5.09646875e-08,1.94089063e-01
-5.09246875e-08,1.94114063e-01
-5.08846875e-08,1.94081250e-01
-5.08446875e-08,1.94128125e-01
-5.08046875e-08,1.94048438e-01
-5.07646875e-08,1.94304688e-01
-5.07246875e-08,1.94557813e-01
-5.06846875e-08,1.94464063e-01
-5.06446875e-08,1.94526562e-01
-5.06046875e-08,1.94476563e-01
-5.05646875e-08,1.94523438e-01
-5.05246875e-08,1.94473438e-01
-5.04846875e-08,1.94532813e-01
-5.04446875e-08,1.94443750e-01
-5.04046875e-08,1.94707813e-01
-5.03646875e-08,1.94957812e-01
-5.03246875e-08,1.94864063e-01
-5.02846875e-08,1.94931250e-01
-5.02446875e-08,1.94868750e-01
-5.02046875e-08,1.94939063e-01
-5.01646875e-08,1.94837500e-01
-5.01246875e-08,1.95115625e-01
-5.00846875e-08,1.95346875e-01
-5.00446875e-08,1.95279688e-01
-5.00046875e-08,1.95307813e-01
-4.99646875e-08,1.95306250e-01
-4.99246875e-08,1.95267187e-01
-4.98846875e-08,1.95485938e-01
-4.98446875e-08,1.95776563e-01
-4.98046875e-08,1.95645313e-01
-4.97646875e-08,1.95748438e-01
-4.97246875e-08,1.95651563e-01
-4.96846875e-08,1.95754687e-01
-4.96446875e-08,1.95621875e-01
-4.96046875e-08,1.95929688e-01
-4.95646875e-08,1.96132813e-01
-4.95246875e-08,1.96090625e-01
-4.94846875e-08,1.96100000e-01
-4.94446875e-08,1.96106250e-01
-4.94046875e-08,1.96089063e-01
-4.93646875e-08,1.96115625e-01
-4.93246875e-08,1.96078125e-01
-4.92846875e-08,1.96132813e-01
-4.92446875e-08,1.96042188e-01
-4.92046875e-08,1.96310938e-01
-4.91646875e-08,1.96550000e-01
-4.91246875e-08,1.96473438e-01
-4.90846875e-08,1.96517187e-01
-4.90446875e-08,1.96489063e-01
-4.90046875e-08,1.96507813e-01
-4.89646875e-08,1.96493750e-01
-4.89246875e-08,1.96504687e-01
-4.88846875e-08,1.96496875e-01
-4.88446875e-08,1.96501563e-01
-4.88046875e-08,1.96500000e-01
-4.87646875e-08,1.96500000e-01
-4.87246875e-08,1.96501563e-01
-4.86846875e-08,1.96498438e-01
-4.86446875e-08,1.96503125e-01
-4.86046875e-08,1.96496875e-01
-4.85646875e-08,1.96504687e-01
-4.85246875e-08,1.96495313e-01
-4.84846875e-08,1.96506250e-01
-4.84446875e-08,1.96492187e-01
-4.84046875e-08,1.96507813e-01
-4.83646875e-08,1.96489063e-01
-4.83246875e-08,1.96512500e-01
-4.82846875e-08,1.96484375e-01
-4.82446875e-08,1.96521875e-01
-4.82046875e-08,1.96468750e-01
-4.81646875e-08,1.96556250e-01
-4.81246875e-08,1.96290625e-01
-4.80846875e-08,1.96046875e-01
-4.80446875e-08,1.96128125e-01
-4.80046875e-08,1.96081250e-01
-4.79646875e-08,1.96114063e-01
-4.79246875e-08,1.96089063e-01
-4.78846875e-08,1.96107813e-01
-4.78446875e-08,1.96093750e-01
-4.78046875e-08,1.96104688e-01
-4.77646875e-08,1.96096875e-01
-4.77246875e-08,1.96103125e-01
-4.76846875e-08,1.96098438e-01
-4.76446875e-08,1.96101562e-01
-4.76046875e-08,1.96100000e-01
-4.75646875e-08,1.96100000e-01
-4.75246875e-08,1.96101562e-01
-4.74846875e-08,1.96096875e-01
-4.74446875e-08,1.96103125e-01
-4.74046875e-08,1.96095313e-01
-4.73646875e-08,1.96106250e-01
-4.73246875e-08,1.96092188e-01
-4.72846875e-08,1.96110937e-01
-4.72446875e-08,1.96085938e-01
-4.72046875e-08,1.96118750e-01
-4.71646875e-08,1.96070313e-01
-4.71246875e-08,1.96154688e-01
-4.70846875e-08,1.95892188e-01
-4.70446875e-08,1.95645313e-01
-4.70046875e-08,1.95729687e-01
-4.69646875e-08,1.95679688e-01
-4.69246875e-08,1.95714063e-01
-4.68846875e-08,1.95689063e-01
-4.68446875e-08,1.95709375e-01
-4.68046875e-08,1.95693750e-01
-4.67646875e-08,1.95704688e-01
-4.67246875e-08,1.95696875e-01
-4.66846875e-08,1.95700000e-01
-4.66446875e-08,1.95701563e-01
-4.66046875e-08,1.95693750e-01
-4.65646875e-08,1.95710938e-01
-4.65246875e-08,1.95679688e-01
-4.64846875e-08,1.95745313e-01
-4.64446875e-08,1.95501563e-01
-4.64046875e-08,1.95235938e-01
-4.63646875e-08,1.95340625e-01
-4.63246875e-08,1.95268750e-01
-4.62846875e-08,1.95326563e-01
-4.62446875e-08,1.95275000e-01
-4.62046875e-08,1.95325000e-01
-4.61646875e-08,1.95275000e-01
-4.61246875e-08,1.95329688e-01
-4.60846875e-08,1.95262500e-01
-4.60446875e-08,1.95360937e-01
-4.60046875e-08,1.95087500e-01
-4.59646875e-08,1.94850000e-01
-4.59246875e-08,1.94928125e-01
-4.58846875e-08,1.94879688e-01
-4.58446875e-08,1.94915625e-01
-4.58046875e-08,1.94884375e-01
-4.57646875e-08,1.94915625e-01
-4.57246875e-08,1.94882813e-01
-4.56846875e-08,1.94921875e-01
-4.56446875e-08,1.94870313e-01
-4.56046875e-08,1.94954688e-01
-4.55646875e-08,1.94692188e-01
-4.55246875e-08,1.94445313e-01
-4.54846875e-08,1.94531250e-01
-4.54446875e-08,1.94478125e-01
-4.54046875e-08,1.94517188e-01
-4.53646875e-08,1.94485938e-01
-4.53246875e-08,1.94512500e-01
-4.52846875e-08,1.94489063e-01
-4.52446875e-08,1.94509375e-01
-4.52046875e-08,1.94490625e-01
-4.51646875e-08,1.94507813e-01
-4.51246875e-08,1.94492187e-01
-4.50846875e-08,1.94507813e-01
-4.50446875e-08,1.94492187e-01
-4.50046875e-08,1.94506250e-01
-4.49646875e-08,1.94493750e-01
-4.49246875e-08,1.94506250e-01
-4.48846875e-08,1.94493750e-01
-4.48446875e-08,1.94506250e-01
-4.48046875e-08,1.94493750e-01
-4.47646875e-08,1.94506250e-01
-4.47246875e-08,1.94495313e-01
-4.46846875e-08,1.94504687e-01
-4.46446875e-08,1.94495313e-01
-4.46046875e-08,1.94504687e-01
-4.45646875e-08,1.94495313e-01
-4.45246875e-08,1.94504687e-01
-4.44846875e-08,1.94495313e-01
-4.44446875e-08,1.94504687e-01
-4.44046875e-08,1.94495313e-01
-4.43646875e-08,1.94504687e-01
-4.43246875e-08,1.94495313e-01
-4.42846875e-08,1.94504687e-01
-4.42446875e-08,1.94495313e-01
-4.42046875e-08,1.94504687e-01
-4.41646875e-08,1.94495313e-01
-4.41246875e-08,1.94504687e-01
-4.40846875e-08,1.94495313e-01
-4.40446875e-08,1.94503125e-01
-4.40046875e-08,1.94496875e-01
-4.39646875e-08,1.94503125e-01
-4.39246875e-08,1.94496875e-01
-4.38846875e-08,1.94503125e-01
-4.38446875e-08,1.94496875e-01
-4.38046875e-08,1.94503125e-01
-4.37646875e-08,1.94496875e-01
-4.37246875e-08,1.94503125e-01
-4.36846875e-08,1.94496875e-01
-4.36446875e-08,1.94503125e-01
-4.36046875e-08,1.94496875e-01
-4.35646875e-08,1.94503125e-01
-4.35246875e-08,1.94496875e-01
-4.34846875e-08,1.94503125e-01
-4.34446875e-08,1.94496875e-01
-4.34046875e-08,1.94503125e-01
-4.33646875e-08,1.94496875e-01
-4.33246875e-08,1.94503125e-01
-4.32846875e-08,1.94496875e-01
-4.32446875e-08,1.94503125e-01
-4.32046875e-08,1.94496875e-01
-4.31646875e-08,1.94503125e-01
-4.31246875e-08,1.94496875e-01
-4.30846875e-08,1.94503125e-01
-4.30446875e-08,1.94496875e-01
-4.30046875e-08,1.94503125e-01
-4.29646875e-08,1.94496875e-01
-4.29246875e-08,1.94503125e-01
-4.28846875e-08,1.94496875e-01
-4.28446875e-08,1.94503125e-01
-4.28046875e-08,1.94496875e-01
-4.27646875e-08,1.94503125e-01
-4.27246875e-08,1.94496875e-01
-4.26846875e-08,1.94503125e-01
-4.26446875e-08,1.94496875e-01
-4.26046875e-08,1.94503125e-01
-4.25646875e-08,1.94496875e-01
-4.25246875e-08,1.94503125e-01
-4.24846875e-08,1.94496875e-01
-4.24446875e-08,1.94503125e-01
-4.24046875e-08,1.94496875e-01
-4.23646875e-08,1.94503125e-01
-4.23246875e-08,1.94496875e-01
-4.22846875e-08,1.94503125e-01
-4.22446875e-08,1.94496875e-01
-4.22046875e-08,1.94503125e-01
-4.21646875e-08,1.94496875e-01
-4.21246875e-08,1.94503125e-01
-4.20846875e-08,1.94496875e-01
-4.20446875e-08,1.94503125e-01
-4.20046875e-08,1.94495313e-01
-4.19646875e-08,1.94504687e-01
-4.19246875e-08,1.94495313e-01
-4.18846875e-08,1.94504687e-01
-4.18446875e-08,1.94495313e-01
-4.18046875e-08,1.94504687e-01
-4.17646875e-08,1.94495313e-01
-4.17246875e-08,1.94504687e-01
-4.16846875e-08,1.94495313e-01
-4.16446875e-08,1.94504687e-01
-4.16046875e-08,1.94495313e-01
-4.15646875e-08,1.94504687e-01
-4.15246875e-08,1.94495313e-01
-4.14846875e-08,1.94506250e-01
-4.14446875e-08,1.94493750e-01
-4.14046875e-08,1.94506250e-01
-4.13646875e-08,1.94493750e-01
-4.13246875e-08,1.94507813e-01
-4.12846875e-08,1.94492187e-01
-4.12446875e-08,1.94507813e-01
-4.12046875e-08,1.94490625e-01
-4.11646875e-08,1.94509375e-01
-4.11246875e-08,1.94489063e-01
-4.10846875e-08,1.94510938e-01
-4.10446875e-08,1.94487500e-01
-4.10046875e-08,1.94514063e-01
-4.09646875e-08,1.94484375e-01
-4.09246875e-08,1.94518750e-01
-4.08846875e-08,1.94476563e-01
-4.08446875e-08,1.94529687e-01
-4.08046875e-08,1.94457812e-01
-4.07646875e-08,1.94570313e-01
-4.07246875e-08,1.94271875e-01
-4.06846875e-08,1.94075000e-01
-4.06446875e-08,1.94076562e-01
-4.06046875e-08,1.94285938e-01
-4.05646875e-08,1.94571875e-01
-4.05246875e-08,1.94454688e-01
-4.04846875e-08,1.94532813e-01
-4.04446875e-08,1.94473438e-01
-4.04046875e-08,1.94523438e-01
-4.03646875e-08,1.94479687e-01
-4.03246875e-08,1.94517188e-01
-4.02846875e-08,1.94482813e-01
-4.02446875e-08,1.94515625e-01
-4.02046875e-08,1.94485938e-01
-4.01646875e-08,1.94514063e-01
-4.01246875e-08,1.94487500e-01
-4.00846875e-08,1.94512500e-01
-4.00446875e-08,1.94487500e-01
-4.00046875e-08,1.94510938e-01
-3.99646875e-08,1.94489063e-01
-3.99246875e-08,1.94510938e-01
-3.98846875e-08,1.94489063e-01
-3.98446875e-08,1.94510938e-01
-3.98046875e-08,1.94489063e-01
-3.97646875e-08,1.94510938e-01
-3.97246875e-08,1.94489063e-01
-3.96846875e-08,1.94510938e-01
-3.96446875e-08,1.94489063e-01
-3.96046875e-08,1.94512500e-01
-3.95646875e-08,1.94487500e-01
-3.95246875e-08,1.94512500e-01
-3.94846875e-08,1.94487500e-01
-3.94446875e-08,1.94514063e-01
-3.94046875e-08,1.94484375e-01
-3.93646875e-08,1.94515625e-01
-3.93246875e-08,1.94482813e-01
-3.92846875e-08,1.94520313e-01
-3.92446875e-08,1.94476563e-01
-3.92046875e-08,1.94528125e-01
-3.91646875e-08,1.94460938e-01
-3.91246875e-08,1.94564062e-01
-3.90846875e-08,1.94282813e-01
-3.90446875e-08,1.94056250e-01
-3.90046875e-08,1.94120313e-01
-3.89646875e-08,1.94090625e-01
-3.89246875e-08,1.94104688e-01
-3.88846875e-08,1.94100000e-01
-3.88446875e-08,1.94096875e-01
-3.88046875e-08,1.94107813e-01
-3.87646875e-08,1.94089063e-01
-3.87246875e-08,1.94117188e-01
-3.86846875e-08,1.94071875e-01
-3.86446875e-08,1.94153125e-01
-3.86046875e-08,1.93892188e-01
-3.85646875e-08,1.93646875e-01
-3.85246875e-08,1.93729687e-01
