trails/0bbf0cf1bfcc3246d9e376b62f80622a/aes_ch1_20250507113144404.csv

Model,MSO66B
Label,
Waveform Type,ANALOG
Horizontal Units,s
Sample Interval,4.00000000e-11
Record Length,10000
Zero Index,1599.02343750
Vertical Units,A
ANALOG_Thumbnail,
yOffset,1.84500000e-01
yPosition,8.40000000e-01

Labels,
TIME,CH1
-6.39609375e-08,1.96903125e-01
-6.39209375e-08,1.96895313e-01
-6.38809375e-08,1.96904688e-01
-6.38409375e-08,1.96895313e-01
-6.38009375e-08,1.96904688e-01
-6.37609375e-08,1.96895313e-01
-6.37209375e-08,1.96904688e-01
-6.36809375e-08,1.96895313e-01
-6.36409375e-08,1.96904688e-01
-6.36009375e-08,1.96895313e-01
-6.35609375e-08,1.96904688e-01
-6.35209375e-08,1.96895313e-01
-6.34809375e-08,1.96904688e-01
-6.34409375e-08,1.96895313e-01
-6.34009375e-08,1.96904688e-01
-6.33609375e-08,1.96895313e-01
-6.33209375e-08,1.96906250e-01
-6.32809375e-08,1.96893750e-01
-6.32409375e-08,1.96906250e-01
-6.32009375e-08,1.96893750e-01
-6.31609375e-08,1.96906250e-01
-6.31209375e-08,1.96893750e-01
-6.30809375e-08,1.96906250e-01
-6.30409375e-08,1.96892188e-01
-6.30009375e-08,1.96907813e-01
-6.29609375e-08,1.96892188e-01
-6.29209375e-08,1.96907813e-01
-6.28809375e-08,1.96890625e-01
-6.28409375e-08,1.96909375e-01
-6.28009375e-08,1.96889063e-01
-6.27609375e-08,1.96910937e-01
-6.27209375e-08,1.96887500e-01
-6.26809375e-08,1.96914063e-01
-6.26409375e-08,1.96882813e-01
-6.26009375e-08,1.96920312e-01
-6.25609375e-08,1.96875000e-01
-6.25209375e-08,1.96934375e-01
-6.24809375e-08,1.96840625e-01
-6.24409375e-08,1.97112500e-01
-6.24009375e-08,1.97348438e-01
-6.23609375e-08,1.97275000e-01
-6.23209375e-08,1.97315625e-01
-6.22809375e-08,1.97289063e-01
-6.22409375e-08,1.97306250e-01
-6.22009375e-08,1.97295313e-01
-6.21609375e-08,1.97303125e-01
-6.21209375e-08,1.97298438e-01
-6.20809375e-08,1.97300000e-01
-6.20409375e-08,1.97301562e-01
-6.20009375e-08,1.97298438e-01
-6.19609375e-08,1.97303125e-01
-6.19209375e-08,1.97295313e-01
-6.18809375e-08,1.97306250e-01
-6.18409375e-08,1.97292187e-01
-6.18009375e-08,1.97309375e-01
-6.17609375e-08,1.97289063e-01
-6.17209375e-08,1.97315625e-01
-6.16809375e-08,1.97279688e-01
-6.16409375e-08,1.97329688e-01
-6.16009375e-08,1.97243750e-01
-6.15609375e-08,1.97509375e-01
-6.15209375e-08,1.97753125e-01
-6.14809375e-08,1.97671875e-01
-6.14409375e-08,1.97718750e-01
-6.14009375e-08,1.97685938e-01
-6.13609375e-08,1.97710938e-01
-6.13209375e-08,1.97692188e-01
-6.12809375e-08,1.97706250e-01
-6.12409375e-08,1.97696875e-01
-6.12009375e-08,1.97701563e-01
-6.11609375e-08,1.97700000e-01
-6.11209375e-08,1.97698438e-01
-6.10809375e-08,1.97703125e-01
-6.10409375e-08,1.97693750e-01
-6.10009375e-08,1.97709375e-01
-6.09609375e-08,1.97685938e-01
-6.09209375e-08,1.97725000e-01
-6.08809375e-08,1.97650000e-01
-6.08409375e-08,1.97903125e-01
-6.08009375e-08,1.98159375e-01
-6.07609375e-08,1.98065625e-01
-6.07209375e-08,1.98125000e-01
-6.06809375e-08,1.98079688e-01
-6.06409375e-08,1.98117188e-01
-6.06009375e-08,1.98084375e-01
-6.05609375e-08,1.98114063e-01
-6.05209375e-08,1.98087500e-01
-6.04809375e-08,1.98110938e-01
-6.04409375e-08,1.98089062e-01
-6.04009375e-08,1.98109375e-01
-6.03609375e-08,1.98090625e-01
-6.03209375e-08,1.98109375e-01
-6.02809375e-08,1.98092188e-01
-6.02409375e-08,1.98107813e-01
-6.02009375e-08,1.98092188e-01
-6.01609375e-08,1.98107813e-01
-6.01209375e-08,1.98093750e-01
-6.00809375e-08,1.98106250e-01
-6.00409375e-08,1.98093750e-01
-6.00009375e-08,1.98106250e-01
-5.99609375e-08,1.98093750e-01
-5.99209375e-08,1.98106250e-01
-5.98809375e-08,1.98093750e-01
-5.98409375e-08,1.98106250e-01
-5.98009375e-08,1.98093750e-01
-5.97609375e-08,1.98106250e-01
-5.97209375e-08,1.98095313e-01
-5.96809375e-08,1.98104688e-01
-5.96409375e-08,1.98095313e-01
-5.96009375e-08,1.98104688e-01
-5.95609375e-08,1.98095313e-01
-5.95209375e-08,1.98104688e-01
-5.94809375e-08,1.98095313e-01
-5.94409375e-08,1.98104688e-01
-5.94009375e-08,1.98095313e-01
-5.93609375e-08,1.98104688e-01
-5.93209375e-08,1.98095313e-01
-5.92809375e-08,1.98104688e-01
-5.92409375e-08,1.98095313e-01
-5.92009375e-08,1.98104688e-01
-5.91609375e-08,1.98095313e-01
-5.91209375e-08,1.98104688e-01
-5.90809375e-08,1.98095313e-01
-5.90409375e-08,1.98104688e-01
-5.90009375e-08,1.98095313e-01
-5.89609375e-08,1.98104688e-01
-5.89209375e-08,1.98095313e-01
-5.88809375e-08,1.98104688e-01
-5.88409375e-08,1.98095313e-01
-5.88009375e-08,1.98104688e-01
-5.87609375e-08,1.98095313e-01
-5.87209375e-08,1.98104688e-01
-5.86809375e-08,1.98095313e-01
-5.86409375e-08,1.98104688e-01
-5.86009375e-08,1.98095313e-01
-5.85609375e-08,1.98104688e-01
-5.85209375e-08,1.98095313e-01
-5.84809375e-08,1.98104688e-01
-5.84409375e-08,1.98095313e-01
-5.84009375e-08,1.98104688e-01
-5.83609375e-08,1.98095313e-01
-5.83209375e-08,1.98104688e-01
-5.82809375e-08,1.98093750e-01
-5.82409375e-08,1.98106250e-01
-5.82009375e-08,1.98093750e-01
-5.81609375e-08,1.98106250e-01
-5.81209375e-08,1.98093750e-01
-5.80809375e-08,1.98106250e-01
-5.80409375e-08,1.98093750e-01
-5.80009375e-08,1.98106250e-01
-5.79609375e-08,1.98092188e-01
-5.79209375e-08,1.98107813e-01
-5.78809375e-08,1.98092188e-01
-5.78409375e-08,1.98109375e-01
-5.78009375e-08,1.98090625e-01
-5.77609375e-08,1.98110938e-01
-5.77209375e-08,1.98089062e-01
-5.76809375e-08,1.98112500e-01
-5.76409375e-08,1.98084375e-01
-5.76009375e-08,1.98118750e-01
-5.75609375e-08,1.98076562e-01
-5.75209375e-08,1.98132813e-01
-5.74809375e-08,1.98042188e-01
-5.74409375e-08,1.98310938e-01
-5.74009375e-08,1.98551563e-01
-5.73609375e-08,1.98473438e-01
-5.73209375e-08,1.98517187e-01
-5.72809375e-08,1.98487500e-01
-5.72409375e-08,1.98509375e-01
-5.72009375e-08,1.98492188e-01
-5.71609375e-08,1.98506250e-01
-5.71209375e-08,1.98495313e-01
-5.70809375e-08,1.98503125e-01
-5.70409375e-08,1.98496875e-01
-5.70009375e-08,1.98503125e-01
-5.69609375e-08,1.98498438e-01
-5.69209375e-08,1.98501563e-01
-5.68809375e-08,1.98498438e-01
-5.68409375e-08,1.98500000e-01
-5.68009375e-08,1.98500000e-01
-5.67609375e-08,1.98500000e-01
-5.67209375e-08,1.98501563e-01
-5.66809375e-08,1.98498438e-01
-5.66409375e-08,1.98501563e-01
-5.66009375e-08,1.98498438e-01
-5.65609375e-08,1.98503125e-01
-5.65209375e-08,1.98496875e-01
-5.64809375e-08,1.98504687e-01
-5.64409375e-08,1.98495313e-01
-5.64009375e-08,1.98506250e-01
-5.63609375e-08,1.98493750e-01
-5.63209375e-08,1.98507813e-01
-5.62809375e-08,1.98490625e-01
-5.62409375e-08,1.98512500e-01
-5.62009375e-08,1.98484375e-01
-5.61609375e-08,1.98520313e-01
-5.61209375e-08,1.98470312e-01
-5.60809375e-08,1.98554687e-01
-5.60409375e-08,1.98290625e-01
-5.60009375e-08,1.98046875e-01
-5.59609375e-08,1.98128125e-01
-5.59209375e-08,1.98081250e-01
-5.58809375e-08,1.98112500e-01
-5.58409375e-08,1.98090625e-01
-5.58009375e-08,1.98106250e-01
-5.57609375e-08,1.98098438e-01
-5.57209375e-08,1.98098438e-01
-5.56809375e-08,1.98107813e-01
-5.56409375e-08,1.98082813e-01
-5.56009375e-08,1.98142188e-01
-5.55609375e-08,1.97904688e-01
-5.55209375e-08,1.97632813e-01
-5.54809375e-08,1.97742187e-01
-5.54409375e-08,1.97665625e-01
-5.54009375e-08,1.97729688e-01
-5.53609375e-08,1.97673437e-01
-5.53209375e-08,1.97726563e-01
-5.52809375e-08,1.97675000e-01
-5.52409375e-08,1.97726563e-01
-5.52009375e-08,1.97671875e-01
-5.51609375e-08,1.97732813e-01
-5.51209375e-08,1.97657813e-01
-5.50809375e-08,1.97765625e-01
-5.50409375e-08,1.97481250e-01
-5.50009375e-08,1.97256250e-01
-5.49609375e-08,1.97320313e-01
-5.49209375e-08,1.97289063e-01
-5.48809375e-08,1.97306250e-01
-5.48409375e-08,1.97296875e-01
-5.48009375e-08,1.97301562e-01
-5.47609375e-08,1.97300000e-01
-5.47209375e-08,1.97298438e-01
-5.46809375e-08,1.97303125e-01
-5.46409375e-08,1.97296875e-01
-5.46009375e-08,1.97303125e-01
-5.45609375e-08,1.97295313e-01
-5.45209375e-08,1.97304688e-01
-5.44809375e-08,1.97293750e-01
-5.44409375e-08,1.97306250e-01
-5.44009375e-08,1.97292187e-01
-5.43609375e-08,1.97307813e-01
-5.43209375e-08,1.97290625e-01
-5.42809375e-08,1.97310938e-01
-5.42409375e-08,1.97285938e-01
-5.42009375e-08,1.97317188e-01
-5.41609375e-08,1.97278125e-01
-5.41209375e-08,1.97331250e-01
-5.40809375e-08,1.97243750e-01
-5.40409375e-08,1.97509375e-01
-5.40009375e-08,1.97753125e-01
-5.39609375e-08,1.97671875e-01
-5.39209375e-08,1.97718750e-01
-5.38809375e-08,1.97685938e-01
-5.38409375e-08,1.97710938e-01
-5.38009375e-08,1.97690625e-01
-5.37609375e-08,1.97707812e-01
-5.37209375e-08,1.97693750e-01
-5.36809375e-08,1.97704688e-01
-5.36409375e-08,1.97695312e-01
-5.36009375e-08,1.97703125e-01
-5.35609375e-08,1.97696875e-01
-5.35209375e-08,1.97703125e-01
-5.34809375e-08,1.97696875e-01
-5.34409375e-08,1.97701563e-01
-5.34009375e-08,1.97698438e-01
-5.33609375e-08,1.97701563e-01
-5.33209375e-08,1.97698438e-01
-5.32809375e-08,1.97701563e-01
-5.32409375e-08,1.97700000e-01
-5.32009375e-08,1.97700000e-01
-5.31609375e-08,1.97700000e-01
-5.31209375e-08,1.97700000e-01
-5.30809375e-08,1.97700000e-01
-5.30409375e-08,1.97700000e-01
-5.30009375e-08,1.97701563e-01
-5.29609375e-08,1.97698438e-01
-5.29209375e-08,1.97701563e-01
-5.28809375e-08,1.97698438e-01
-5.28409375e-08,1.97701563e-01
-5.28009375e-08,1.97696875e-01
-5.27609375e-08,1.97703125e-01
-5.27209375e-08,1.97696875e-01
-5.26809375e-08,1.97704688e-01
-5.26409375e-08,1.97695312e-01
-5.26009375e-08,1.97706250e-01
-5.25609375e-08,1.97692188e-01
-5.25209375e-08,1.97709375e-01
-5.24809375e-08,1.97687500e-01
-5.24409375e-08,1.97717188e-01
-5.24009375e-08,1.97671875e-01
-5.23609375e-08,1.97751563e-01
-5.23209375e-08,1.97495313e-01
-5.22809375e-08,1.97242187e-01
-5.22409375e-08,1.97332813e-01
-5.22009375e-08,1.97275000e-01
-5.21609375e-08,1.97320313e-01
-5.21209375e-08,1.97282813e-01
-5.20809375e-08,1.97315625e-01
-5.20409375e-08,1.97285938e-01
-5.20009375e-08,1.97314062e-01
-5.19609375e-08,1.97287500e-01
-5.19209375e-08,1.97314062e-01
-5.18809375e-08,1.97285938e-01
-5.18409375e-08,1.97314062e-01
-5.18009375e-08,1.97284375e-01
-5.17609375e-08,1.97318750e-01
-5.17209375e-08,1.97276563e-01
-5.16809375e-08,1.97332813e-01
-5.16409375e-08,1.97242187e-01
-5.16009375e-08,1.97510938e-01
-5.15609375e-08,1.97751563e-01
-5.15209375e-08,1.97671875e-01
-5.14809375e-08,1.97720312e-01
-5.14409375e-08,1.97684375e-01
-5.14009375e-08,1.97712500e-01
-5.13609375e-08,1.97689063e-01
-5.13209375e-08,1.97709375e-01
-5.12809375e-08,1.97692188e-01
-5.12409375e-08,1.97707812e-01
-5.12009375e-08,1.97692188e-01
-5.11609375e-08,1.97707812e-01
-5.11209375e-08,1.97692188e-01
-5.10809375e-08,1.97707812e-01
-5.10409375e-08,1.97692188e-01
-5.10009375e-08,1.97707812e-01
-5.09609375e-08,1.97692188e-01
-5.09209375e-08,1.97707812e-01
-5.08809375e-08,1.97692188e-01
-5.08409375e-08,1.97709375e-01
-5.08009375e-08,1.97690625e-01
-5.07609375e-08,1.97710938e-01
-5.07209375e-08,1.97687500e-01
-5.06809375e-08,1.97714063e-01
-5.06409375e-08,1.97682812e-01
-5.06009375e-08,1.97723438e-01
-5.05609375e-08,1.97667188e-01
-5.05209375e-08,1.97757813e-01
-5.04809375e-08,1.97489063e-01
-5.04409375e-08,1.97248438e-01
-5.04009375e-08,1.97326562e-01
-5.03609375e-08,1.97282813e-01
-5.03209375e-08,1.97312500e-01
-5.02809375e-08,1.97290625e-01
-5.02409375e-08,1.97306250e-01
-5.02009375e-08,1.97295313e-01
-5.01609375e-08,1.97303125e-01
-5.01209375e-08,1.97298438e-01
-5.00809375e-08,1.97300000e-01
-5.00409375e-08,1.97301562e-01
-5.00009375e-08,1.97296875e-01
-4.99609375e-08,1.97306250e-01
-4.99209375e-08,1.97290625e-01
-4.98809375e-08,1.97314062e-01
-4.98409375e-08,1.97275000e-01
-4.98009375e-08,1.97350000e-01
-4.97609375e-08,1.97096875e-01
-4.97209375e-08,1.96840625e-01
-4.96809375e-08,1.96935938e-01
-4.96409375e-08,1.96875000e-01
-4.96009375e-08,1.96920312e-01
-4.95609375e-08,1.96882813e-01
-4.95209375e-08,1.96915625e-01
-4.94809375e-08,1.96885937e-01
-4.94409375e-08,1.96912500e-01
-4.94009375e-08,1.96887500e-01
-4.93609375e-08,1.96910937e-01
-4.93209375e-08,1.96889063e-01
-4.92809375e-08,1.96909375e-01
-4.92409375e-08,1.96890625e-01
-4.92009375e-08,1.96909375e-01
-4.91609375e-08,1.96890625e-01
-4.91209375e-08,1.96909375e-01
-4.90809375e-08,1.96892188e-01
-4.90409375e-08,1.96907813e-01
-4.90009375e-08,1.96892188e-01
-4.89609375e-08,1.96907813e-01
-4.89209375e-08,1.96892188e-01
-4.88809375e-08,1.96907813e-01
-4.88409375e-08,1.96892188e-01
-4.88009375e-08,1.96907813e-01
-4.87609375e-08,1.96892188e-01
-4.87209375e-08,1.96907813e-01
-4.86809375e-08,1.96892188e-01
-4.86409375e-08,1.96907813e-01
-4.86009375e-08,1.96892188e-01
-4.85609375e-08,1.96907813e-01
-4.85209375e-08,1.96892188e-01
-4.84809375e-08,1.96907813e-01
-4.84409375e-08,1.96892188e-01
-4.84009375e-08,1.96907813e-01
-4.83609375e-08,1.96890625e-01
-4.83209375e-08,1.96909375e-01
-4.82809375e-08,1.96890625e-01
-4.82409375e-08,1.96909375e-01
-4.82009375e-08,1.96890625e-01
-4.81609375e-08,1.96910937e-01
-4.81209375e-08,1.96889063e-01
-4.80809375e-08,1.96912500e-01
-4.80409375e-08,1.96887500e-01
-4.80009375e-08,1.96914063e-01
-4.79609375e-08,1.96882813e-01
-4.79209375e-08,1.96920312e-01
-4.78809375e-08,1.96875000e-01
-4.78409375e-08,1.96934375e-01
-4.78009375e-08,1.96840625e-01
-4.77609375e-08,1.97112500e-01
-4.77209375e-08,1.97350000e-01
-4.76809375e-08,1.97275000e-01
-4.76409375e-08,1.97315625e-01
-4.76009375e-08,1.97289063e-01
-4.75609375e-08,1.97307813e-01
-4.75209375e-08,1.97293750e-01
-4.74809375e-08,1.97304688e-01
-4.74409375e-08,1.97296875e-01
-4.74009375e-08,1.97301562e-01
-4.73609375e-08,1.97298438e-01
-4.73209375e-08,1.97300000e-01
-4.72809375e-08,1.97300000e-01
-4.72409375e-08,1.97298438e-01
-4.72009375e-08,1.97303125e-01
-4.71609375e-08,1.97296875e-01
-4.71209375e-08,1.97304688e-01
-4.70809375e-08,1.97293750e-01
-4.70409375e-08,1.97307813e-01
-4.70009375e-08,1.97289063e-01
-4.69609375e-08,1.97315625e-01
-4.69209375e-08,1.97273438e-01
-4.68809375e-08,1.97350000e-01
-4.68409375e-08,1.97096875e-01
-4.68009375e-08,1.96840625e-01
-4.67609375e-08,1.96935938e-01
-4.67209375e-08,1.96873437e-01
-4.66809375e-08,1.96921875e-01
-4.66409375e-08,1.96881250e-01
-4.66009375e-08,1.96918750e-01
-4.65609375e-08,1.96882813e-01
-4.65209375e-08,1.96917188e-01
-4.64809375e-08,1.96881250e-01
-4.64409375e-08,1.96920312e-01
-4.64009375e-08,1.96878125e-01
-4.63609375e-08,1.96926563e-01
-4.63209375e-08,1.96864062e-01
-4.62809375e-08,1.96960938e-01
-4.62409375e-08,1.96685938e-01
-4.62009375e-08,1.96451563e-01
-4.61609375e-08,1.96523438e-01
-4.61209375e-08,1.96485938e-01
-4.60809375e-08,1.96509375e-01
-4.60409375e-08,1.96493750e-01
-4.60009375e-08,1.96503125e-01
-4.59609375e-08,1.96500000e-01
-4.59209375e-08,1.96498438e-01
-4.58809375e-08,1.96504687e-01
-4.58409375e-08,1.96492187e-01
-4.58009375e-08,1.96514063e-01
-4.57609375e-08,1.96476563e-01
-4.57209375e-08,1.96548438e-01
-4.56809375e-08,1.96298438e-01
-4.56409375e-08,1.96039062e-01
-4.56009375e-08,1.96135937e-01
-4.55609375e-08,1.96073438e-01
-4.55209375e-08,1.96121875e-01
-4.54809375e-08,1.96081250e-01
-4.54409375e-08,1.96117188e-01
-4.54009375e-08,1.96084375e-01
-4.53609375e-08,1.96114063e-01
-4.53209375e-08,1.96085938e-01
-4.52809375e-08,1.96112500e-01
-4.52409375e-08,1.96087500e-01
-4.52009375e-08,1.96112500e-01
-4.51609375e-08,1.96087500e-01
-4.51209375e-08,1.96112500e-01
-4.50809375e-08,1.96087500e-01
-4.50409375e-08,1.96112500e-01
-4.50009375e-08,1.96087500e-01
-4.49609375e-08,1.96112500e-01
-4.49209375e-08,1.96087500e-01
-4.48809375e-08,1.96114063e-01
-4.48409375e-08,1.96085938e-01
-4.48009375e-08,1.96115625e-01
-4.47609375e-08,1.96084375e-01
-4.47209375e-08,1.96117188e-01
-4.46809375e-08,1.96079688e-01
-4.46409375e-08,1.96123437e-01
-4.46009375e-08,1.96071875e-01
-4.45609375e-08,1.96137500e-01
-4.45209375e-08,1.96037500e-01
-4.44809375e-08,1.96315625e-01
-4.44409375e-08,1.96545313e-01
-4.44009375e-08,1.96478125e-01
-4.43609375e-08,1.96510938e-01
-4.43209375e-08,1.96493750e-01
-4.42809375e-08,1.96501563e-01
-4.42409375e-08,1.96501563e-01
-4.42009375e-08,1.96495313e-01
-4.41609375e-08,1.96509375e-01
-4.41209375e-08,1.96485938e-01
-4.40809375e-08,1.96525000e-01
-4.40409375e-08,1.96450000e-01
-4.40009375e-08,1.96703125e-01
-4.39609375e-08,1.96959375e-01
-4.39209375e-08,1.96864062e-01
-4.38809375e-08,1.96928125e-01
-4.38409375e-08,1.96876563e-01
-4.38009375e-08,1.96921875e-01
-4.37609375e-08,1.96878125e-01
-4.37209375e-08,1.96923438e-01
-4.36809375e-08,1.96873437e-01
-4.36409375e-08,1.96935938e-01
-4.36009375e-08,1.96840625e-01
-4.35609375e-08,1.97110937e-01
-4.35209375e-08,1.97351563e-01
-4.34809375e-08,1.97271875e-01
-4.34409375e-08,1.97318750e-01
-4.34009375e-08,1.97285938e-01
-4.33609375e-08,1.97312500e-01
-4.33209375e-08,1.97289063e-01
-4.32809375e-08,1.97309375e-01
-4.32409375e-08,1.97292187e-01
-4.32009375e-08,1.97307813e-01
-4.31609375e-08,1.97292187e-01
-4.31209375e-08,1.97307813e-01
-4.30809375e-08,1.97292187e-01
-4.30409375e-08,1.97307813e-01
-4.30009375e-08,1.97293750e-01
-4.29609375e-08,1.97306250e-01
-4.29209375e-08,1.97292187e-01
-4.28809375e-08,1.97307813e-01
-4.28409375e-08,1.97292187e-01
-4.28009375e-08,1.97307813e-01
-4.27609375e-08,1.97292187e-01
-4.27209375e-08,1.97307813e-01
-4.26809375e-08,1.97292187e-01
-4.26409375e-08,1.97309375e-01
-4.26009375e-08,1.97290625e-01
-4.25609375e-08,1.97309375e-01
-4.25209375e-08,1.97289063e-01
-4.24809375e-08,1.97310938e-01
-4.24409375e-08,1.97287500e-01
-4.24009375e-08,1.97312500e-01
-4.23609375e-08,1.97284375e-01
-4.23209375e-08,1.97317188e-01
-4.22809375e-08,1.97279688e-01
-4.22409375e-08,1.97325000e-01
-4.22009375e-08,1.97264063e-01
-4.21609375e-08,1.97360937e-01
-4.21209375e-08,1.97085938e-01
-4.20809375e-08,1.96851563e-01
-4.20409375e-08,1.96925000e-01
-4.20009375e-08,1.96885937e-01
-4.19609375e-08,1.96909375e-01
-4.19209375e-08,1.96893750e-01
-4.18809375e-08,1.96903125e-01
-4.18409375e-08,1.96898438e-01
-4.18009375e-08,1.96900000e-01
-4.17609375e-08,1.96901563e-01
-4.17209375e-08,1.96896875e-01
-4.16809375e-08,1.96904688e-01
-4.16409375e-08,1.96893750e-01
-4.16009375e-08,1.96907813e-01
-4.15609375e-08,1.96889063e-01
-4.15209375e-08,1.96914063e-01
-4.14809375e-08,1.96879688e-01
-4.14409375e-08,1.96929688e-01
-4.14009375e-08,1.96843750e-01
-4.13609375e-08,1.97109375e-01
-4.13209375e-08,1.97353125e-01
-4.12809375e-08,1.97271875e-01
-4.12409375e-08,1.97318750e-01
-4.12009375e-08,1.97287500e-01
-4.11609375e-08,1.97307813e-01
-4.11209375e-08,1.97295313e-01
-4.10809375e-08,1.97301562e-01
-4.10409375e-08,1.97303125e-01
-4.10009375e-08,1.97290625e-01
-4.09609375e-08,1.97318750e-01
-4.09209375e-08,1.97256250e-01
-4.08809375e-08,1.97496875e-01
-4.08409375e-08,1.97765625e-01
-4.08009375e-08,1.97657813e-01
-4.07609375e-08,1.97732813e-01
-4.07209375e-08,1.97671875e-01
-4.06809375e-08,1.97726563e-01
-4.06409375e-08,1.97673437e-01
-4.06009375e-08,1.97728125e-01
-4.05609375e-08,1.97668750e-01
-4.05209375e-08,1.97740625e-01
-4.04809375e-08,1.97635937e-01
-4.04409375e-08,1.97915625e-01
-4.04009375e-08,1.98146875e-01
-4.03609375e-08,1.98076562e-01
-4.03209375e-08,1.98114063e-01
-4.02809375e-08,1.98090625e-01
-4.02409375e-08,1.98107813e-01
-4.02009375e-08,1.98093750e-01
-4.01609375e-08,1.98104688e-01
-4.01209375e-08,1.98096875e-01
-4.00809375e-08,1.98103125e-01
-4.00409375e-08,1.98096875e-01
-4.00009375e-08,1.98103125e-01
-3.99609375e-08,1.98096875e-01
-3.99209375e-08,1.98103125e-01
-3.98809375e-08,1.98098438e-01
-3.98409375e-08,1.98101562e-01
-3.98009375e-08,1.98098438e-01
-3.97609375e-08,1.98103125e-01
-3.97209375e-08,1.98096875e-01
-3.96809375e-08,1.98103125e-01
-3.96409375e-08,1.98096875e-01
-3.96009375e-08,1.98103125e-01
-3.95609375e-08,1.98096875e-01
-3.95209375e-08,1.98103125e-01
-3.94809375e-08,1.98096875e-01
-3.94409375e-08,1.98104688e-01
-3.94009375e-08,1.98095313e-01
-3.93609375e-08,1.98104688e-01
-3.93209375e-08,1.98093750e-01
-3.92809375e-08,1.98106250e-01
-3.92409375e-08,1.98092188e-01
-3.92009375e-08,1.98109375e-01
-3.91609375e-08,1.98089062e-01
-3.91209375e-08,1.98112500e-01
-3.90809375e-08,1.98084375e-01
-3.90409375e-08,1.98120313e-01
-3.90009375e-08,1.98068750e-01
-3.89609375e-08,1.98156250e-01
-3.89209375e-08,1.97890625e-01
-3.88809375e-08,1.97646875e-01
-3.88409375e-08,1.97728125e-01
-3.88009375e-08,1.97681250e-01
-3.87609375e-08,1.97712500e-01
-3.87209375e-08,1.97690625e-01
-3.86809375e-08,1.97706250e-01
-3.86409375e-08,1.97696875e-01
-3.86009375e-08,1.97698438e-01
-3.85609375e-08,1.97706250e-01
-3.85209375e-08,1.97682812e-01
