trails/0bbf0cf1bfcc3246d9e376b62f80622a/aes_ch1_20250507113137646.csv

Model,MSO66B
Label,
Waveform Type,ANALOG
Horizontal Units,s
Sample Interval,4.00000000e-11
Record Length,10000
Zero Index,1599.05468750
Vertical Units,A
ANALOG_Thumbnail,
yOffset,1.84500000e-01
yPosition,8.40000000e-01

Labels,
TIME,CH1
-6.39621875e-08,1.84512500e-01
-6.39221875e-08,1.84487500e-01
-6.38821875e-08,1.84510937e-01
-6.38421875e-08,1.84489062e-01
-6.38021875e-08,1.84512500e-01
-6.37621875e-08,1.84485938e-01
-6.37221875e-08,1.84515625e-01
-6.36821875e-08,1.84479688e-01
-6.36421875e-08,1.84529688e-01
-6.36021875e-08,1.84445313e-01
-6.35621875e-08,1.84707813e-01
-6.35221875e-08,1.84954687e-01
-6.34821875e-08,1.84868750e-01
-6.34421875e-08,1.84923438e-01
-6.34021875e-08,1.84881250e-01
-6.33621875e-08,1.84915625e-01
-6.33221875e-08,1.84885938e-01
-6.32821875e-08,1.84912500e-01
-6.32421875e-08,1.84889063e-01
-6.32021875e-08,1.84910938e-01
-6.31621875e-08,1.84889063e-01
-6.31221875e-08,1.84910938e-01
-6.30821875e-08,1.84890625e-01
-6.30421875e-08,1.84909375e-01
-6.30021875e-08,1.84890625e-01
-6.29621875e-08,1.84910938e-01
-6.29221875e-08,1.84889063e-01
-6.28821875e-08,1.84910938e-01
-6.28421875e-08,1.84889063e-01
-6.28021875e-08,1.84912500e-01
-6.27621875e-08,1.84887500e-01
-6.27221875e-08,1.84914063e-01
-6.26821875e-08,1.84884375e-01
-6.26421875e-08,1.84918750e-01
-6.26021875e-08,1.84878125e-01
-6.25621875e-08,1.84926563e-01
-6.25221875e-08,1.84864063e-01
-6.24821875e-08,1.84962500e-01
-6.24421875e-08,1.84684375e-01
-6.24021875e-08,1.84453125e-01
-6.23621875e-08,1.84521875e-01
-6.23221875e-08,1.84487500e-01
-6.22821875e-08,1.84506250e-01
-6.22421875e-08,1.84498438e-01
-6.22021875e-08,1.84498438e-01
-6.21621875e-08,1.84506250e-01
-6.21221875e-08,1.84489062e-01
-6.20821875e-08,1.84515625e-01
-6.20421875e-08,1.84473438e-01
-6.20021875e-08,1.84553125e-01
-6.19621875e-08,1.84292188e-01
-6.19221875e-08,1.84046875e-01
-6.18821875e-08,1.84128125e-01
-6.18421875e-08,1.84082812e-01
-6.18021875e-08,1.84109375e-01
-6.17621875e-08,1.84100000e-01
-6.17221875e-08,1.84089063e-01
-6.16821875e-08,1.84137500e-01
-6.16421875e-08,1.83909375e-01
-6.16021875e-08,1.83629687e-01
-6.15621875e-08,1.83746875e-01
-6.15221875e-08,1.83662500e-01
-6.14821875e-08,1.83734375e-01
-6.14421875e-08,1.83668750e-01
-6.14021875e-08,1.83731250e-01
-6.13621875e-08,1.83667187e-01
-6.13221875e-08,1.83735938e-01
-6.12821875e-08,1.83654687e-01
-6.12421875e-08,1.83768750e-01
-6.12021875e-08,1.83479688e-01
-6.11621875e-08,1.83257813e-01
-6.11221875e-08,1.83318750e-01
-6.10821875e-08,1.83290625e-01
-6.10421875e-08,1.83304688e-01
-6.10021875e-08,1.83296875e-01
-6.09621875e-08,1.83301563e-01
-6.09221875e-08,1.83300000e-01
-6.08821875e-08,1.83300000e-01
-6.08421875e-08,1.83301563e-01
-6.08021875e-08,1.83298437e-01
-6.07621875e-08,1.83301563e-01
-6.07221875e-08,1.83298437e-01
-6.06821875e-08,1.83301563e-01
-6.06421875e-08,1.83298437e-01
-6.06021875e-08,1.83301563e-01
-6.05621875e-08,1.83298437e-01
-6.05221875e-08,1.83300000e-01
-6.04821875e-08,1.83301563e-01
-6.04421875e-08,1.83296875e-01
-6.04021875e-08,1.83304688e-01
-6.03621875e-08,1.83290625e-01
-6.03221875e-08,1.83318750e-01
-6.02821875e-08,1.83256250e-01
-6.02421875e-08,1.83495313e-01
-6.02021875e-08,1.83767188e-01
-6.01621875e-08,1.83654687e-01
-6.01221875e-08,1.83735938e-01
-6.00821875e-08,1.83667187e-01
-6.00421875e-08,1.83731250e-01
-6.00021875e-08,1.83667187e-01
-5.99621875e-08,1.83734375e-01
-5.99221875e-08,1.83660938e-01
-5.98821875e-08,1.83748438e-01
-5.98421875e-08,1.83626563e-01
-5.98021875e-08,1.83926563e-01
-5.97621875e-08,1.84135938e-01
-5.97221875e-08,1.84089063e-01
-5.96821875e-08,1.84100000e-01
-5.96421875e-08,1.84106250e-01
-5.96021875e-08,1.84089063e-01
-5.95621875e-08,1.84115625e-01
-5.95221875e-08,1.84076563e-01
-5.94821875e-08,1.84134375e-01
-5.94421875e-08,1.84039063e-01
-5.94021875e-08,1.84314063e-01
-5.93621875e-08,1.84546875e-01
-5.93221875e-08,1.84478125e-01
-5.92821875e-08,1.84510937e-01
-5.92421875e-08,1.84495313e-01
-5.92021875e-08,1.84498438e-01
-5.91621875e-08,1.84506250e-01
-5.91221875e-08,1.84485938e-01
-5.90821875e-08,1.84525000e-01
-5.90421875e-08,1.84450000e-01
-5.90021875e-08,1.84704688e-01
-5.89621875e-08,1.84956250e-01
-5.89221875e-08,1.84867188e-01
-5.88821875e-08,1.84921875e-01
-5.88421875e-08,1.84882812e-01
-5.88021875e-08,1.84914063e-01
-5.87621875e-08,1.84889063e-01
-5.87221875e-08,1.84909375e-01
-5.86821875e-08,1.84892187e-01
-5.86421875e-08,1.84906250e-01
-5.86021875e-08,1.84895313e-01
-5.85621875e-08,1.84904687e-01
-5.85221875e-08,1.84896875e-01
-5.84821875e-08,1.84903125e-01
-5.84421875e-08,1.84898438e-01
-5.84021875e-08,1.84901563e-01
-5.83621875e-08,1.84900000e-01
-5.83221875e-08,1.84900000e-01
-5.82821875e-08,1.84901563e-01
-5.82421875e-08,1.84898438e-01
-5.82021875e-08,1.84903125e-01
-5.81621875e-08,1.84896875e-01
-5.81221875e-08,1.84904687e-01
-5.80821875e-08,1.84893750e-01
-5.80421875e-08,1.84907813e-01
-5.80021875e-08,1.84890625e-01
-5.79621875e-08,1.84910938e-01
-5.79221875e-08,1.84885938e-01
-5.78821875e-08,1.84920313e-01
-5.78421875e-08,1.84870312e-01
-5.78021875e-08,1.84956250e-01
-5.77621875e-08,1.84690625e-01
-5.77221875e-08,1.84446875e-01
-5.76821875e-08,1.84528125e-01
-5.76421875e-08,1.84481250e-01
-5.76021875e-08,1.84512500e-01
-5.75621875e-08,1.84490625e-01
-5.75221875e-08,1.84506250e-01
-5.74821875e-08,1.84496875e-01
-5.74421875e-08,1.84500000e-01
-5.74021875e-08,1.84503125e-01
-5.73621875e-08,1.84493750e-01
-5.73221875e-08,1.84512500e-01
-5.72821875e-08,1.84478125e-01
-5.72421875e-08,1.84546875e-01
-5.72021875e-08,1.84298437e-01
-5.71621875e-08,1.84039063e-01
-5.71221875e-08,1.84137500e-01
-5.70821875e-08,1.84073437e-01
-5.70421875e-08,1.84121875e-01
-5.70021875e-08,1.84081250e-01
-5.69621875e-08,1.84115625e-01
-5.69221875e-08,1.84085938e-01
-5.68821875e-08,1.84114063e-01
-5.68421875e-08,1.84087500e-01
-5.68021875e-08,1.84110938e-01
-5.67621875e-08,1.84089063e-01
-5.67221875e-08,1.84109375e-01
-5.66821875e-08,1.84090625e-01
-5.66421875e-08,1.84109375e-01
-5.66021875e-08,1.84090625e-01
-5.65621875e-08,1.84107812e-01
-5.65221875e-08,1.84092188e-01
-5.64821875e-08,1.84107812e-01
-5.64421875e-08,1.84092188e-01
-5.64021875e-08,1.84107812e-01
-5.63621875e-08,1.84093750e-01
-5.63221875e-08,1.84106250e-01
-5.62821875e-08,1.84093750e-01
-5.62421875e-08,1.84106250e-01
-5.62021875e-08,1.84093750e-01
-5.61621875e-08,1.84106250e-01
-5.61221875e-08,1.84093750e-01
-5.60821875e-08,1.84106250e-01
-5.60421875e-08,1.84095312e-01
-5.60021875e-08,1.84104688e-01
-5.59621875e-08,1.84095312e-01
-5.59221875e-08,1.84104688e-01
-5.58821875e-08,1.84095312e-01
-5.58421875e-08,1.84104688e-01
-5.58021875e-08,1.84095312e-01
-5.57621875e-08,1.84104688e-01
-5.57221875e-08,1.84095312e-01
-5.56821875e-08,1.84104688e-01
-5.56421875e-08,1.84095312e-01
-5.56021875e-08,1.84104688e-01
-5.55621875e-08,1.84096875e-01
-5.55221875e-08,1.84103125e-01
-5.54821875e-08,1.84096875e-01
-5.54421875e-08,1.84103125e-01
-5.54021875e-08,1.84096875e-01
-5.53621875e-08,1.84103125e-01
-5.53221875e-08,1.84096875e-01
-5.52821875e-08,1.84103125e-01
-5.52421875e-08,1.84096875e-01
-5.52021875e-08,1.84103125e-01
-5.51621875e-08,1.84098438e-01
-5.51221875e-08,1.84101563e-01
-5.50821875e-08,1.84098438e-01
-5.50421875e-08,1.84101563e-01
-5.50021875e-08,1.84098438e-01
-5.49621875e-08,1.84100000e-01
-5.49221875e-08,1.84100000e-01
-5.48821875e-08,1.84098438e-01
-5.48421875e-08,1.84101563e-01
-5.48021875e-08,1.84096875e-01
-5.47621875e-08,1.84104688e-01
-5.47221875e-08,1.84093750e-01
-5.46821875e-08,1.84109375e-01
-5.46421875e-08,1.84085938e-01
-5.46021875e-08,1.84123438e-01
-5.45621875e-08,1.84051563e-01
-5.45221875e-08,1.84301563e-01
-5.44821875e-08,1.84560937e-01
-5.44421875e-08,1.84462500e-01
-5.44021875e-08,1.84528125e-01
-5.43621875e-08,1.84478125e-01
-5.43221875e-08,1.84520313e-01
-5.42821875e-08,1.84482813e-01
-5.42421875e-08,1.84515625e-01
-5.42021875e-08,1.84484375e-01
-5.41621875e-08,1.84514063e-01
-5.41221875e-08,1.84485938e-01
-5.40821875e-08,1.84514063e-01
-5.40421875e-08,1.84485938e-01
-5.40021875e-08,1.84512500e-01
-5.39621875e-08,1.84487500e-01
-5.39221875e-08,1.84512500e-01
-5.38821875e-08,1.84485938e-01
-5.38421875e-08,1.84514063e-01
-5.38021875e-08,1.84485938e-01
-5.37621875e-08,1.84514063e-01
-5.37221875e-08,1.84485938e-01
-5.36821875e-08,1.84515625e-01
-5.36421875e-08,1.84484375e-01
-5.36021875e-08,1.84517188e-01
-5.35621875e-08,1.84482813e-01
-5.35221875e-08,1.84518750e-01
-5.34821875e-08,1.84478125e-01
-5.34421875e-08,1.84525000e-01
-5.34021875e-08,1.84470313e-01
-5.33621875e-08,1.84539063e-01
-5.33221875e-08,1.84435938e-01
-5.32821875e-08,1.84717188e-01
-5.32421875e-08,1.84943750e-01
-5.32021875e-08,1.84879688e-01
-5.31621875e-08,1.84909375e-01
-5.31221875e-08,1.84895313e-01
-5.30821875e-08,1.84901563e-01
-5.30421875e-08,1.84901563e-01
-5.30021875e-08,1.84895313e-01
-5.29621875e-08,1.84907813e-01
-5.29221875e-08,1.84890625e-01
-5.28821875e-08,1.84914063e-01
-5.28421875e-08,1.84881250e-01
-5.28021875e-08,1.84929687e-01
-5.27621875e-08,1.84845312e-01
-5.27221875e-08,1.85107812e-01
-5.26821875e-08,1.85353125e-01
-5.26421875e-08,1.85270313e-01
-5.26021875e-08,1.85320313e-01
-5.25621875e-08,1.85285937e-01
-5.25221875e-08,1.85310937e-01
-5.24821875e-08,1.85290625e-01
-5.24421875e-08,1.85307813e-01
-5.24021875e-08,1.85293750e-01
-5.23621875e-08,1.85304688e-01
-5.23221875e-08,1.85295313e-01
-5.22821875e-08,1.85303125e-01
-5.22421875e-08,1.85296875e-01
-5.22021875e-08,1.85301563e-01
-5.21621875e-08,1.85298437e-01
-5.21221875e-08,1.85301563e-01
-5.20821875e-08,1.85300000e-01
-5.20421875e-08,1.85300000e-01
-5.20021875e-08,1.85300000e-01
-5.19621875e-08,1.85298437e-01
-5.19221875e-08,1.85301563e-01
-5.18821875e-08,1.85298437e-01
-5.18421875e-08,1.85303125e-01
-5.18021875e-08,1.85295313e-01
-5.17621875e-08,1.85304688e-01
-5.17221875e-08,1.85293750e-01
-5.16821875e-08,1.85309375e-01
-5.16421875e-08,1.85287500e-01
-5.16021875e-08,1.85317188e-01
-5.15621875e-08,1.85273437e-01
-5.15221875e-08,1.85351563e-01
-5.14821875e-08,1.85095312e-01
-5.14421875e-08,1.84842188e-01
-5.14021875e-08,1.84934375e-01
-5.13621875e-08,1.84873438e-01
-5.13221875e-08,1.84921875e-01
-5.12821875e-08,1.84881250e-01
-5.12421875e-08,1.84917187e-01
-5.12021875e-08,1.84882812e-01
-5.11621875e-08,1.84918750e-01
-5.11221875e-08,1.84879688e-01
-5.10821875e-08,1.84925000e-01
-5.10421875e-08,1.84867188e-01
-5.10021875e-08,1.84957813e-01
-5.09621875e-08,1.84690625e-01
-5.09221875e-08,1.84446875e-01
-5.08821875e-08,1.84531250e-01
-5.08421875e-08,1.84478125e-01
-5.08021875e-08,1.84518750e-01
-5.07621875e-08,1.84482813e-01
-5.07221875e-08,1.84517188e-01
-5.06821875e-08,1.84481250e-01
-5.06421875e-08,1.84523437e-01
-5.06021875e-08,1.84467188e-01
-5.05621875e-08,1.84556250e-01
-5.05221875e-08,1.84290625e-01
-5.04821875e-08,1.84046875e-01
-5.04421875e-08,1.84129687e-01
-5.04021875e-08,1.84079688e-01
-5.03621875e-08,1.84115625e-01
-5.03221875e-08,1.84085938e-01
-5.02821875e-08,1.84110938e-01
-5.02421875e-08,1.84089063e-01
-5.02021875e-08,1.84109375e-01
-5.01621875e-08,1.84090625e-01
-5.01221875e-08,1.84109375e-01
-5.00821875e-08,1.84092188e-01
-5.00421875e-08,1.84107812e-01
-5.00021875e-08,1.84092188e-01
-4.99621875e-08,1.84107812e-01
-4.99221875e-08,1.84092188e-01
-4.98821875e-08,1.84107812e-01
-4.98421875e-08,1.84090625e-01
-4.98021875e-08,1.84109375e-01
-4.97621875e-08,1.84090625e-01
-4.97221875e-08,1.84109375e-01
-4.96821875e-08,1.84089063e-01
-4.96421875e-08,1.84112500e-01
-4.96021875e-08,1.84085938e-01
-4.95621875e-08,1.84115625e-01
-4.95221875e-08,1.84081250e-01
-4.94821875e-08,1.84123438e-01
-4.94421875e-08,1.84065625e-01
-4.94021875e-08,1.84159375e-01
-4.93621875e-08,1.83887500e-01
-4.93221875e-08,1.83650000e-01
-4.92821875e-08,1.83725000e-01
-4.92421875e-08,1.83684375e-01
-4.92021875e-08,1.83710938e-01
-4.91621875e-08,1.83693750e-01
-4.91221875e-08,1.83703125e-01
-4.90821875e-08,1.83700000e-01
-4.90421875e-08,1.83696875e-01
-4.90021875e-08,1.83706250e-01
-4.89621875e-08,1.83687500e-01
-4.89221875e-08,1.83721875e-01
-4.88821875e-08,1.83653125e-01
-4.88421875e-08,1.83900000e-01
-4.88021875e-08,1.84160938e-01
-4.87621875e-08,1.84062500e-01
-4.87221875e-08,1.84128125e-01
-4.86821875e-08,1.84076563e-01
-4.86421875e-08,1.84120312e-01
-4.86021875e-08,1.84081250e-01
-4.85621875e-08,1.84117188e-01
-4.85221875e-08,1.84084375e-01
-4.84821875e-08,1.84115625e-01
-4.84421875e-08,1.84084375e-01
-4.84021875e-08,1.84115625e-01
-4.83621875e-08,1.84084375e-01
-4.83221875e-08,1.84115625e-01
-4.82821875e-08,1.84084375e-01
-4.82421875e-08,1.84115625e-01
-4.82021875e-08,1.84082812e-01
-4.81621875e-08,1.84118750e-01
-4.81221875e-08,1.84079688e-01
-4.80821875e-08,1.84123438e-01
-4.80421875e-08,1.84071875e-01
-4.80021875e-08,1.84137500e-01
-4.79621875e-08,1.84037500e-01
-4.79221875e-08,1.84315625e-01
-4.78821875e-08,1.84546875e-01
-4.78421875e-08,1.84478125e-01
-4.78021875e-08,1.84512500e-01
-4.77621875e-08,1.84492188e-01
-4.77221875e-08,1.84504688e-01
-4.76821875e-08,1.84498438e-01
-4.76421875e-08,1.84500000e-01
-4.76021875e-08,1.84503125e-01
-4.75621875e-08,1.84495313e-01
-4.75221875e-08,1.84506250e-01
-4.74821875e-08,1.84490625e-01
-4.74421875e-08,1.84512500e-01
-4.74021875e-08,1.84482813e-01
-4.73621875e-08,1.84528125e-01
-4.73221875e-08,1.84446875e-01
-4.72821875e-08,1.84706250e-01
-4.72421875e-08,1.84956250e-01
-4.72021875e-08,1.84868750e-01
-4.71621875e-08,1.84921875e-01
-4.71221875e-08,1.84882812e-01
-4.70821875e-08,1.84914063e-01
-4.70421875e-08,1.84887500e-01
-4.70021875e-08,1.84910938e-01
-4.69621875e-08,1.84890625e-01
-4.69221875e-08,1.84909375e-01
-4.68821875e-08,1.84892187e-01
-4.68421875e-08,1.84907813e-01
-4.68021875e-08,1.84892187e-01
-4.67621875e-08,1.84906250e-01
-4.67221875e-08,1.84893750e-01
-4.66821875e-08,1.84906250e-01
-4.66421875e-08,1.84893750e-01
-4.66021875e-08,1.84906250e-01
-4.65621875e-08,1.84893750e-01
-4.65221875e-08,1.84906250e-01
-4.64821875e-08,1.84893750e-01
-4.64421875e-08,1.84906250e-01
-4.64021875e-08,1.84893750e-01
-4.63621875e-08,1.84906250e-01
-4.63221875e-08,1.84893750e-01
-4.62821875e-08,1.84906250e-01
-4.62421875e-08,1.84893750e-01
-4.62021875e-08,1.84906250e-01
-4.61621875e-08,1.84892187e-01
-4.61221875e-08,1.84907813e-01
-4.60821875e-08,1.84890625e-01
-4.60421875e-08,1.84909375e-01
-4.60021875e-08,1.84889063e-01
-4.59621875e-08,1.84912500e-01
-4.59221875e-08,1.84884375e-01
-4.58821875e-08,1.84921875e-01
-4.58421875e-08,1.84868750e-01
-4.58021875e-08,1.84956250e-01
-4.57621875e-08,1.84692187e-01
-4.57221875e-08,1.84446875e-01
-4.56821875e-08,1.84529688e-01
-4.56421875e-08,1.84479688e-01
-4.56021875e-08,1.84515625e-01
-4.55621875e-08,1.84487500e-01
-4.55221875e-08,1.84510937e-01
-4.54821875e-08,1.84490625e-01
-4.54421875e-08,1.84507813e-01
-4.54021875e-08,1.84492188e-01
-4.53621875e-08,1.84506250e-01
-4.53221875e-08,1.84493750e-01
-4.52821875e-08,1.84506250e-01
-4.52421875e-08,1.84493750e-01
-4.52021875e-08,1.84504688e-01
-4.51621875e-08,1.84495313e-01
-4.51221875e-08,1.84504688e-01
-4.50821875e-08,1.84495313e-01
-4.50421875e-08,1.84504688e-01
-4.50021875e-08,1.84495313e-01
-4.49621875e-08,1.84504688e-01
-4.49221875e-08,1.84495313e-01
-4.48821875e-08,1.84504688e-01
-4.48421875e-08,1.84496875e-01
-4.48021875e-08,1.84503125e-01
-4.47621875e-08,1.84496875e-01
-4.47221875e-08,1.84503125e-01
-4.46821875e-08,1.84496875e-01
-4.46421875e-08,1.84503125e-01
-4.46021875e-08,1.84496875e-01
-4.45621875e-08,1.84503125e-01
-4.45221875e-08,1.84496875e-01
-4.44821875e-08,1.84503125e-01
-4.44421875e-08,1.84496875e-01
-4.44021875e-08,1.84503125e-01
-4.43621875e-08,1.84496875e-01
-4.43221875e-08,1.84503125e-01
-4.42821875e-08,1.84496875e-01
-4.42421875e-08,1.84503125e-01
-4.42021875e-08,1.84496875e-01
-4.41621875e-08,1.84503125e-01
-4.41221875e-08,1.84496875e-01
-4.40821875e-08,1.84503125e-01
-4.40421875e-08,1.84495313e-01
-4.40021875e-08,1.84504688e-01
-4.39621875e-08,1.84495313e-01
-4.39221875e-08,1.84504688e-01
-4.38821875e-08,1.84495313e-01
-4.38421875e-08,1.84504688e-01
-4.38021875e-08,1.84495313e-01
-4.37621875e-08,1.84504688e-01
-4.37221875e-08,1.84495313e-01
-4.36821875e-08,1.84504688e-01
-4.36421875e-08,1.84495313e-01
-4.36021875e-08,1.84504688e-01
-4.35621875e-08,1.84495313e-01
-4.35221875e-08,1.84504688e-01
-4.34821875e-08,1.84493750e-01
-4.34421875e-08,1.84506250e-01
-4.34021875e-08,1.84493750e-01
-4.33621875e-08,1.84506250e-01
-4.33221875e-08,1.84493750e-01
-4.32821875e-08,1.84507813e-01
-4.32421875e-08,1.84492188e-01
-4.32021875e-08,1.84507813e-01
-4.31621875e-08,1.84490625e-01
-4.31221875e-08,1.84509375e-01
-4.30821875e-08,1.84489062e-01
-4.30421875e-08,1.84512500e-01
-4.30021875e-08,1.84485938e-01
-4.29621875e-08,1.84517188e-01
-4.29221875e-08,1.84476562e-01
-4.28821875e-08,1.84532813e-01
-4.28421875e-08,1.84442188e-01
-4.28021875e-08,1.84710938e-01
-4.27621875e-08,1.84951562e-01
-4.27221875e-08,1.84871875e-01
-4.26821875e-08,1.84918750e-01
-4.26421875e-08,1.84885938e-01
-4.26021875e-08,1.84910938e-01
-4.25621875e-08,1.84892187e-01
-4.25221875e-08,1.84906250e-01
-4.24821875e-08,1.84893750e-01
-4.24421875e-08,1.84904687e-01
-4.24021875e-08,1.84895313e-01
-4.23621875e-08,1.84903125e-01
-4.23221875e-08,1.84896875e-01
-4.22821875e-08,1.84903125e-01
-4.22421875e-08,1.84898438e-01
-4.22021875e-08,1.84901563e-01
-4.21621875e-08,1.84898438e-01
-4.21221875e-08,1.84901563e-01
-4.20821875e-08,1.84900000e-01
-4.20421875e-08,1.84900000e-01
-4.20021875e-08,1.84900000e-01
-4.19621875e-08,1.84900000e-01
-4.19221875e-08,1.84900000e-01
-4.18821875e-08,1.84900000e-01
-4.18421875e-08,1.84900000e-01
-4.18021875e-08,1.84900000e-01
-4.17621875e-08,1.84901563e-01
-4.17221875e-08,1.84898438e-01
-4.16821875e-08,1.84901563e-01
-4.16421875e-08,1.84898438e-01
-4.16021875e-08,1.84901563e-01
-4.15621875e-08,1.84898438e-01
-4.15221875e-08,1.84901563e-01
-4.14821875e-08,1.84896875e-01
-4.14421875e-08,1.84903125e-01
-4.14021875e-08,1.84896875e-01
-4.13621875e-08,1.84903125e-01
-4.13221875e-08,1.84896875e-01
-4.12821875e-08,1.84904687e-01
-4.12421875e-08,1.84895313e-01
-4.12021875e-08,1.84904687e-01
-4.11621875e-08,1.84895313e-01
-4.11221875e-08,1.84906250e-01
-4.10821875e-08,1.84893750e-01
-4.10421875e-08,1.84907813e-01
-4.10021875e-08,1.84892187e-01
-4.09621875e-08,1.84909375e-01
-4.09221875e-08,1.84889063e-01
-4.08821875e-08,1.84914063e-01
-4.08421875e-08,1.84882812e-01
-4.08021875e-08,1.84921875e-01
-4.07621875e-08,1.84868750e-01
-4.07221875e-08,1.84957813e-01
-4.06821875e-08,1.84689063e-01
-4.06421875e-08,1.84448438e-01
-4.06021875e-08,1.84526563e-01
-4.05621875e-08,1.84482813e-01
-4.05221875e-08,1.84510937e-01
-4.04821875e-08,1.84492188e-01
-4.04421875e-08,1.84503125e-01
-4.04021875e-08,1.84500000e-01
-4.03621875e-08,1.84496875e-01
-4.03221875e-08,1.84509375e-01
-4.02821875e-08,1.84481250e-01
-4.02421875e-08,1.84545313e-01
-4.02021875e-08,1.84301563e-01
-4.01621875e-08,1.84035937e-01
-4.01221875e-08,1.84140625e-01
-4.00821875e-08,1.84068750e-01
-4.00421875e-08,1.84126563e-01
-4.00021875e-08,1.84075000e-01
-3.99621875e-08,1.84123438e-01
-3.99221875e-08,1.84076563e-01
-3.98821875e-08,1.84123438e-01
-3.98421875e-08,1.84073437e-01
-3.98021875e-08,1.84131250e-01
-3.97621875e-08,1.84060938e-01
-3.97221875e-08,1.84164063e-01
-3.96821875e-08,1.83882813e-01
-3.96421875e-08,1.83653125e-01
-3.96021875e-08,1.83723438e-01
-3.95621875e-08,1.83685938e-01
-3.95221875e-08,1.83709375e-01
-3.94821875e-08,1.83693750e-01
-3.94421875e-08,1.83704688e-01
-3.94021875e-08,1.83696875e-01
-3.93621875e-08,1.83701562e-01
-3.93221875e-08,1.83698438e-01
-3.92821875e-08,1.83700000e-01
-3.92421875e-08,1.83700000e-01
-3.92021875e-08,1.83700000e-01
-3.91621875e-08,1.83700000e-01
-3.91221875e-08,1.83698438e-01
-3.90821875e-08,1.83701562e-01
-3.90421875e-08,1.83698438e-01
-3.90021875e-08,1.83701562e-01
-3.89621875e-08,1.83696875e-01
-3.89221875e-08,1.83703125e-01
-3.88821875e-08,1.83695313e-01
-3.88421875e-08,1.83704688e-01
-3.88021875e-08,1.83693750e-01
-3.87621875e-08,1.83707813e-01
-3.87221875e-08,1.83690625e-01
-3.86821875e-08,1.83712500e-01
-3.86421875e-08,1.83682813e-01
-3.86021875e-08,1.83726562e-01
-3.85621875e-08,1.83648438e-01
-3.85221875e-08,1.83904687e-01
