trails/0bbf0cf1bfcc3246d9e376b62f80622a/aes_ch1_20250507112756958.csv

Model,MSO66B
Label,
Waveform Type,ANALOG
Horizontal Units,s
Sample Interval,4.00000000e-11
Record Length,10000
Zero Index,1599.08593750
Vertical Units,A
ANALOG_Thumbnail,
yOffset,1.84500000e-01
yPosition,8.40000000e-01

Labels,
TIME,CH1
-6.39634375e-08,1.83245313e-01
-6.39234375e-08,1.83507813e-01
-6.38834375e-08,1.83754688e-01
-6.38434375e-08,1.83670313e-01
-6.38034375e-08,1.83720313e-01
-6.37634375e-08,1.83684375e-01
-6.37234375e-08,1.83712500e-01
-6.36834375e-08,1.83690625e-01
-6.36434375e-08,1.83709375e-01
-6.36034375e-08,1.83692187e-01
-6.35634375e-08,1.83706250e-01
-6.35234375e-08,1.83693750e-01
-6.34834375e-08,1.83704688e-01
-6.34434375e-08,1.83695313e-01
-6.34034375e-08,1.83704688e-01
-6.33634375e-08,1.83696875e-01
-6.33234375e-08,1.83703125e-01
-6.32834375e-08,1.83696875e-01
-6.32434375e-08,1.83703125e-01
-6.32034375e-08,1.83696875e-01
-6.31634375e-08,1.83703125e-01
-6.31234375e-08,1.83698438e-01
-6.30834375e-08,1.83701562e-01
-6.30434375e-08,1.83698438e-01
-6.30034375e-08,1.83701562e-01
-6.29634375e-08,1.83698438e-01
-6.29234375e-08,1.83701562e-01
-6.28834375e-08,1.83698438e-01
-6.28434375e-08,1.83701562e-01
-6.28034375e-08,1.83698438e-01
-6.27634375e-08,1.83701562e-01
-6.27234375e-08,1.83698438e-01
-6.26834375e-08,1.83701562e-01
-6.26434375e-08,1.83698438e-01
-6.26034375e-08,1.83700000e-01
-6.25634375e-08,1.83700000e-01
-6.25234375e-08,1.83700000e-01
-6.24834375e-08,1.83700000e-01
-6.24434375e-08,1.83700000e-01
-6.24034375e-08,1.83700000e-01
-6.23634375e-08,1.83700000e-01
-6.23234375e-08,1.83700000e-01
-6.22834375e-08,1.83700000e-01
-6.22434375e-08,1.83700000e-01
-6.22034375e-08,1.83700000e-01
-6.21634375e-08,1.83700000e-01
-6.21234375e-08,1.83700000e-01
-6.20834375e-08,1.83700000e-01
-6.20434375e-08,1.83700000e-01
-6.20034375e-08,1.83700000e-01
-6.19634375e-08,1.83700000e-01
-6.19234375e-08,1.83700000e-01
-6.18834375e-08,1.83700000e-01
-6.18434375e-08,1.83700000e-01
-6.18034375e-08,1.83700000e-01
-6.17634375e-08,1.83700000e-01
-6.17234375e-08,1.83700000e-01
-6.16834375e-08,1.83700000e-01
-6.16434375e-08,1.83700000e-01
-6.16034375e-08,1.83700000e-01
-6.15634375e-08,1.83700000e-01
-6.15234375e-08,1.83700000e-01
-6.14834375e-08,1.83700000e-01
-6.14434375e-08,1.83700000e-01
-6.14034375e-08,1.83700000e-01
-6.13634375e-08,1.83700000e-01
-6.13234375e-08,1.83700000e-01
-6.12834375e-08,1.83700000e-01
-6.12434375e-08,1.83700000e-01
-6.12034375e-08,1.83700000e-01
-6.11634375e-08,1.83700000e-01
-6.11234375e-08,1.83700000e-01
-6.10834375e-08,1.83700000e-01
-6.10434375e-08,1.83700000e-01
-6.10034375e-08,1.83700000e-01
-6.09634375e-08,1.83700000e-01
-6.09234375e-08,1.83700000e-01
-6.08834375e-08,1.83700000e-01
-6.08434375e-08,1.83700000e-01
-6.08034375e-08,1.83700000e-01
-6.07634375e-08,1.83700000e-01
-6.07234375e-08,1.83700000e-01
-6.06834375e-08,1.83700000e-01
-6.06434375e-08,1.83700000e-01
-6.06034375e-08,1.83700000e-01
-6.05634375e-08,1.83700000e-01
-6.05234375e-08,1.83700000e-01
-6.04834375e-08,1.83700000e-01
-6.04434375e-08,1.83700000e-01
-6.04034375e-08,1.83698438e-01
-6.03634375e-08,1.83701562e-01
-6.03234375e-08,1.83698438e-01
-6.02834375e-08,1.83701562e-01
-6.02434375e-08,1.83698438e-01
-6.02034375e-08,1.83701562e-01
-6.01634375e-08,1.83698438e-01
-6.01234375e-08,1.83701562e-01
-6.00834375e-08,1.83698438e-01
-6.00434375e-08,1.83703125e-01
-6.00034375e-08,1.83696875e-01
-5.99634375e-08,1.83703125e-01
-5.99234375e-08,1.83696875e-01
-5.98834375e-08,1.83704688e-01
-5.98434375e-08,1.83695313e-01
-5.98034375e-08,1.83706250e-01
-5.97634375e-08,1.83692187e-01
-5.97234375e-08,1.83709375e-01
-5.96834375e-08,1.83687500e-01
-5.96434375e-08,1.83717188e-01
-5.96034375e-08,1.83673438e-01
-5.95634375e-08,1.83751563e-01
-5.95234375e-08,1.83495313e-01
-5.94834375e-08,1.83242188e-01
-5.94434375e-08,1.83334375e-01
-5.94034375e-08,1.83275000e-01
-5.93634375e-08,1.83320312e-01
-5.93234375e-08,1.83281250e-01
-5.92834375e-08,1.83317188e-01
-5.92434375e-08,1.83284375e-01
-5.92034375e-08,1.83315625e-01
-5.91634375e-08,1.83284375e-01
-5.91234375e-08,1.83315625e-01
-5.90834375e-08,1.83282813e-01
-5.90434375e-08,1.83318750e-01
-5.90034375e-08,1.83279688e-01
-5.89634375e-08,1.83325000e-01
-5.89234375e-08,1.83265625e-01
-5.88834375e-08,1.83359375e-01
-5.88434375e-08,1.83087500e-01
-5.88034375e-08,1.82850000e-01
-5.87634375e-08,1.82926563e-01
-5.87234375e-08,1.82882813e-01
-5.86834375e-08,1.82912500e-01
-5.86434375e-08,1.82890625e-01
-5.86034375e-08,1.82907813e-01
-5.85634375e-08,1.82893750e-01
-5.85234375e-08,1.82904687e-01
-5.84834375e-08,1.82895313e-01
-5.84434375e-08,1.82904687e-01
-5.84034375e-08,1.82896875e-01
-5.83634375e-08,1.82903125e-01
-5.83234375e-08,1.82896875e-01
-5.82834375e-08,1.82903125e-01
-5.82434375e-08,1.82896875e-01
-5.82034375e-08,1.82903125e-01
-5.81634375e-08,1.82898438e-01
-5.81234375e-08,1.82901563e-01
-5.80834375e-08,1.82898438e-01
-5.80434375e-08,1.82901563e-01
-5.80034375e-08,1.82898438e-01
-5.79634375e-08,1.82901563e-01
-5.79234375e-08,1.82898438e-01
-5.78834375e-08,1.82901563e-01
-5.78434375e-08,1.82898438e-01
-5.78034375e-08,1.82901563e-01
-5.77634375e-08,1.82898438e-01
-5.77234375e-08,1.82901563e-01
-5.76834375e-08,1.82896875e-01
-5.76434375e-08,1.82903125e-01
-5.76034375e-08,1.82896875e-01
-5.75634375e-08,1.82903125e-01
-5.75234375e-08,1.82896875e-01
-5.74834375e-08,1.82903125e-01
-5.74434375e-08,1.82896875e-01
-5.74034375e-08,1.82903125e-01
-5.73634375e-08,1.82895313e-01
-5.73234375e-08,1.82904687e-01
-5.72834375e-08,1.82895313e-01
-5.72434375e-08,1.82906250e-01
-5.72034375e-08,1.82893750e-01
-5.71634375e-08,1.82907813e-01
-5.71234375e-08,1.82892187e-01
-5.70834375e-08,1.82909375e-01
-5.70434375e-08,1.82887500e-01
-5.70034375e-08,1.82915625e-01
-5.69634375e-08,1.82879687e-01
-5.69234375e-08,1.82929687e-01
-5.68834375e-08,1.82845312e-01
-5.68434375e-08,1.83109375e-01
-5.68034375e-08,1.83353125e-01
-5.67634375e-08,1.83270313e-01
-5.67234375e-08,1.83318750e-01
-5.66834375e-08,1.83285937e-01
-5.66434375e-08,1.83309375e-01
-5.66034375e-08,1.83293750e-01
-5.65634375e-08,1.83303125e-01
-5.65234375e-08,1.83300000e-01
-5.64834375e-08,1.83293750e-01
-5.64434375e-08,1.83315625e-01
-5.64034375e-08,1.83259375e-01
-5.63634375e-08,1.83493750e-01
-5.63234375e-08,1.83768750e-01
-5.62834375e-08,1.83654687e-01
-5.62434375e-08,1.83735938e-01
-5.62034375e-08,1.83667187e-01
-5.61634375e-08,1.83731250e-01
-5.61234375e-08,1.83668750e-01
-5.60834375e-08,1.83732813e-01
-5.60434375e-08,1.83662500e-01
-5.60034375e-08,1.83746875e-01
-5.59634375e-08,1.83629687e-01
-5.59234375e-08,1.83923438e-01
-5.58834375e-08,1.84139063e-01
-5.58434375e-08,1.84085938e-01
-5.58034375e-08,1.84104688e-01
-5.57634375e-08,1.84101563e-01
-5.57234375e-08,1.84093750e-01
-5.56834375e-08,1.84110938e-01
-5.56434375e-08,1.84082812e-01
-5.56034375e-08,1.84128125e-01
-5.55634375e-08,1.84046875e-01
-5.55234375e-08,1.84307813e-01
-5.54834375e-08,1.84554688e-01
-5.54434375e-08,1.84468750e-01
-5.54034375e-08,1.84520313e-01
-5.53634375e-08,1.84484375e-01
-5.53234375e-08,1.84512500e-01
-5.52834375e-08,1.84489062e-01
-5.52434375e-08,1.84509375e-01
-5.52034375e-08,1.84492188e-01
-5.51634375e-08,1.84506250e-01
-5.51234375e-08,1.84493750e-01
-5.50834375e-08,1.84506250e-01
-5.50434375e-08,1.84495313e-01
-5.50034375e-08,1.84504688e-01
-5.49634375e-08,1.84495313e-01
-5.49234375e-08,1.84504688e-01
-5.48834375e-08,1.84495313e-01
-5.48434375e-08,1.84504688e-01
-5.48034375e-08,1.84495313e-01
-5.47634375e-08,1.84504688e-01
-5.47234375e-08,1.84495313e-01
-5.46834375e-08,1.84504688e-01
-5.46434375e-08,1.84495313e-01
-5.46034375e-08,1.84504688e-01
-5.45634375e-08,1.84495313e-01
-5.45234375e-08,1.84504688e-01
-5.44834375e-08,1.84495313e-01
-5.44434375e-08,1.84504688e-01
-5.44034375e-08,1.84493750e-01
-5.43634375e-08,1.84506250e-01
-5.43234375e-08,1.84493750e-01
-5.42834375e-08,1.84507813e-01
-5.42434375e-08,1.84490625e-01
-5.42034375e-08,1.84510937e-01
-5.41634375e-08,1.84485938e-01
-5.41234375e-08,1.84518750e-01
-5.40834375e-08,1.84470313e-01
-5.40434375e-08,1.84553125e-01
-5.40034375e-08,1.84293750e-01
-5.39634375e-08,1.84045313e-01
-5.39234375e-08,1.84131250e-01
-5.38834375e-08,1.84078125e-01
-5.38434375e-08,1.84117188e-01
-5.38034375e-08,1.84085938e-01
-5.37634375e-08,1.84112500e-01
-5.37234375e-08,1.84089063e-01
-5.36834375e-08,1.84109375e-01
-5.36434375e-08,1.84090625e-01
-5.36034375e-08,1.84107812e-01
-5.35634375e-08,1.84092188e-01
-5.35234375e-08,1.84107812e-01
-5.34834375e-08,1.84092188e-01
-5.34434375e-08,1.84107812e-01
-5.34034375e-08,1.84093750e-01
-5.33634375e-08,1.84106250e-01
-5.33234375e-08,1.84093750e-01
-5.32834375e-08,1.84106250e-01
-5.32434375e-08,1.84093750e-01
-5.32034375e-08,1.84106250e-01
-5.31634375e-08,1.84093750e-01
-5.31234375e-08,1.84106250e-01
-5.30834375e-08,1.84093750e-01
-5.30434375e-08,1.84106250e-01
-5.30034375e-08,1.84093750e-01
-5.29634375e-08,1.84106250e-01
-5.29234375e-08,1.84093750e-01
-5.28834375e-08,1.84106250e-01
-5.28434375e-08,1.84093750e-01
-5.28034375e-08,1.84106250e-01
-5.27634375e-08,1.84093750e-01
-5.27234375e-08,1.84106250e-01
-5.26834375e-08,1.84093750e-01
-5.26434375e-08,1.84106250e-01
-5.26034375e-08,1.84093750e-01
-5.25634375e-08,1.84106250e-01
-5.25234375e-08,1.84093750e-01
-5.24834375e-08,1.84106250e-01
-5.24434375e-08,1.84092188e-01
-5.24034375e-08,1.84107812e-01
-5.23634375e-08,1.84092188e-01
-5.23234375e-08,1.84107812e-01
-5.22834375e-08,1.84092188e-01
-5.22434375e-08,1.84109375e-01
-5.22034375e-08,1.84090625e-01
-5.21634375e-08,1.84109375e-01
-5.21234375e-08,1.84089063e-01
-5.20834375e-08,1.84110938e-01
-5.20434375e-08,1.84087500e-01
-5.20034375e-08,1.84114063e-01
-5.19634375e-08,1.84084375e-01
-5.19234375e-08,1.84118750e-01
-5.18834375e-08,1.84075000e-01
-5.18434375e-08,1.84134375e-01
-5.18034375e-08,1.84040625e-01
-5.17634375e-08,1.84312500e-01
-5.17234375e-08,1.84550000e-01
-5.16834375e-08,1.84473438e-01
-5.16434375e-08,1.84517188e-01
-5.16034375e-08,1.84487500e-01
-5.15634375e-08,1.84509375e-01
-5.15234375e-08,1.84493750e-01
-5.14834375e-08,1.84504688e-01
-5.14434375e-08,1.84496875e-01
-5.14034375e-08,1.84503125e-01
-5.13634375e-08,1.84498438e-01
-5.13234375e-08,1.84501562e-01
-5.12834375e-08,1.84498438e-01
-5.12434375e-08,1.84500000e-01
-5.12034375e-08,1.84500000e-01
-5.11634375e-08,1.84500000e-01
-5.11234375e-08,1.84501562e-01
-5.10834375e-08,1.84498438e-01
-5.10434375e-08,1.84501562e-01
-5.10034375e-08,1.84498438e-01
-5.09634375e-08,1.84503125e-01
-5.09234375e-08,1.84496875e-01
-5.08834375e-08,1.84503125e-01
-5.08434375e-08,1.84495313e-01
-5.08034375e-08,1.84504688e-01
-5.07634375e-08,1.84495313e-01
-5.07234375e-08,1.84506250e-01
-5.06834375e-08,1.84493750e-01
-5.06434375e-08,1.84507813e-01
-5.06034375e-08,1.84490625e-01
-5.05634375e-08,1.84510937e-01
-5.05234375e-08,1.84485938e-01
-5.04834375e-08,1.84520313e-01
-5.04434375e-08,1.84470313e-01
-5.04034375e-08,1.84554688e-01
-5.03634375e-08,1.84292188e-01
-5.03234375e-08,1.84045313e-01
-5.02834375e-08,1.84131250e-01
-5.02434375e-08,1.84078125e-01
-5.02034375e-08,1.84117188e-01
-5.01634375e-08,1.84085938e-01
-5.01234375e-08,1.84112500e-01
-5.00834375e-08,1.84089063e-01
-5.00434375e-08,1.84110938e-01
-5.00034375e-08,1.84089063e-01
-4.99634375e-08,1.84110938e-01
-4.99234375e-08,1.84087500e-01
-4.98834375e-08,1.84112500e-01
-4.98434375e-08,1.84084375e-01
-4.98034375e-08,1.84120312e-01
-4.97634375e-08,1.84070312e-01
-4.97234375e-08,1.84153125e-01
-4.96834375e-08,1.83893750e-01
-4.96434375e-08,1.83643750e-01
-4.96034375e-08,1.83734375e-01
-4.95634375e-08,1.83675000e-01
-4.95234375e-08,1.83720313e-01
-4.94834375e-08,1.83681250e-01
-4.94434375e-08,1.83717188e-01
-4.94034375e-08,1.83682813e-01
-4.93634375e-08,1.83717188e-01
-4.93234375e-08,1.83681250e-01
-4.92834375e-08,1.83720313e-01
-4.92434375e-08,1.83678125e-01
-4.92034375e-08,1.83728125e-01
-4.91634375e-08,1.83662500e-01
-4.91234375e-08,1.83762500e-01
-4.90834375e-08,1.83484375e-01
-4.90434375e-08,1.83253125e-01
-4.90034375e-08,1.83323438e-01
-4.89634375e-08,1.83285937e-01
-4.89234375e-08,1.83309375e-01
-4.88834375e-08,1.83295313e-01
-4.88434375e-08,1.83303125e-01
-4.88034375e-08,1.83298437e-01
-4.87634375e-08,1.83300000e-01
-4.87234375e-08,1.83301563e-01
-4.86834375e-08,1.83295313e-01
-4.86434375e-08,1.83306250e-01
-4.86034375e-08,1.83292188e-01
-4.85634375e-08,1.83310937e-01
-4.85234375e-08,1.83285937e-01
-4.84834375e-08,1.83318750e-01
-4.84434375e-08,1.83270313e-01
-4.84034375e-08,1.83354688e-01
-4.83634375e-08,1.83092188e-01
-4.83234375e-08,1.82846875e-01
-4.82834375e-08,1.82929687e-01
-4.82434375e-08,1.82881250e-01
-4.82034375e-08,1.82914063e-01
-4.81634375e-08,1.82890625e-01
-4.81234375e-08,1.82906250e-01
-4.80834375e-08,1.82896875e-01
-4.80434375e-08,1.82900000e-01
-4.80034375e-08,1.82903125e-01
-4.79634375e-08,1.82890625e-01
-4.79234375e-08,1.82920313e-01
-4.78834375e-08,1.82854688e-01
-4.78434375e-08,1.83098438e-01
-4.78034375e-08,1.83364063e-01
-4.77634375e-08,1.83260937e-01
-4.77234375e-08,1.83329688e-01
-4.76834375e-08,1.83275000e-01
-4.76434375e-08,1.83321875e-01
-4.76034375e-08,1.83279688e-01
-4.75634375e-08,1.83318750e-01
-4.75234375e-08,1.83281250e-01
-4.74834375e-08,1.83318750e-01
-4.74434375e-08,1.83281250e-01
-4.74034375e-08,1.83318750e-01
-4.73634375e-08,1.83281250e-01
-4.73234375e-08,1.83320312e-01
-4.72834375e-08,1.83278125e-01
-4.72434375e-08,1.83325000e-01
-4.72034375e-08,1.83270313e-01
-4.71634375e-08,1.83339063e-01
-4.71234375e-08,1.83235938e-01
-4.70834375e-08,1.83515625e-01
-4.70434375e-08,1.83745313e-01
-4.70034375e-08,1.83678125e-01
-4.69634375e-08,1.83712500e-01
-4.69234375e-08,1.83692187e-01
-4.68834375e-08,1.83704688e-01
-4.68434375e-08,1.83698438e-01
-4.68034375e-08,1.83700000e-01
-4.67634375e-08,1.83701562e-01
-4.67234375e-08,1.83698438e-01
-4.66834375e-08,1.83703125e-01
-4.66434375e-08,1.83695313e-01
-4.66034375e-08,1.83706250e-01
-4.65634375e-08,1.83690625e-01
-4.65234375e-08,1.83712500e-01
-4.64834375e-08,1.83682813e-01
-4.64434375e-08,1.83728125e-01
-4.64034375e-08,1.83646875e-01
-4.63634375e-08,1.83906250e-01
-4.63234375e-08,1.84156250e-01
-4.62834375e-08,1.84067188e-01
-4.62434375e-08,1.84123438e-01
-4.62034375e-08,1.84081250e-01
-4.61634375e-08,1.84115625e-01
-4.61234375e-08,1.84085938e-01
-4.60834375e-08,1.84112500e-01
-4.60434375e-08,1.84089063e-01
-4.60034375e-08,1.84110938e-01
-4.59634375e-08,1.84089063e-01
-4.59234375e-08,1.84109375e-01
-4.58834375e-08,1.84090625e-01
-4.58434375e-08,1.84109375e-01
-4.58034375e-08,1.84089063e-01
-4.57634375e-08,1.84110938e-01
-4.57234375e-08,1.84089063e-01
-4.56834375e-08,1.84112500e-01
-4.56434375e-08,1.84087500e-01
-4.56034375e-08,1.84115625e-01
-4.55634375e-08,1.84082812e-01
-4.55234375e-08,1.84123438e-01
-4.54834375e-08,1.84067188e-01
-4.54434375e-08,1.84156250e-01
-4.54034375e-08,1.83890625e-01
-4.53634375e-08,1.83646875e-01
-4.53234375e-08,1.83729688e-01
-4.52834375e-08,1.83679687e-01
-4.52434375e-08,1.83717188e-01
-4.52034375e-08,1.83685938e-01
-4.51634375e-08,1.83712500e-01
-4.51234375e-08,1.83687500e-01
-4.50834375e-08,1.83714062e-01
-4.50434375e-08,1.83684375e-01
-4.50034375e-08,1.83720313e-01
-4.49634375e-08,1.83671875e-01
-4.49234375e-08,1.83751563e-01
-4.48834375e-08,1.83495313e-01
-4.48434375e-08,1.83240625e-01
-4.48034375e-08,1.83335938e-01
-4.47634375e-08,1.83271875e-01
-4.47234375e-08,1.83325000e-01
-4.46834375e-08,1.83276563e-01
-4.46434375e-08,1.83323438e-01
-4.46034375e-08,1.83275000e-01
-4.45634375e-08,1.83329688e-01
-4.45234375e-08,1.83260937e-01
-4.44834375e-08,1.83364063e-01
-4.44434375e-08,1.83082812e-01
-4.44034375e-08,1.82854688e-01
-4.43634375e-08,1.82921875e-01
-4.43234375e-08,1.82887500e-01
-4.42834375e-08,1.82906250e-01
-4.42434375e-08,1.82896875e-01
-4.42034375e-08,1.82898438e-01
-4.41634375e-08,1.82904687e-01
-4.41234375e-08,1.82892187e-01
-4.40834375e-08,1.82914063e-01
-4.40434375e-08,1.82876563e-01
-4.40034375e-08,1.82950000e-01
-4.39634375e-08,1.82696875e-01
-4.39234375e-08,1.82440625e-01
-4.38834375e-08,1.82535937e-01
-4.38434375e-08,1.82473438e-01
-4.38034375e-08,1.82520313e-01
-4.37634375e-08,1.82482813e-01
-4.37234375e-08,1.82515625e-01
-4.36834375e-08,1.82485938e-01
-4.36434375e-08,1.82514063e-01
-4.36034375e-08,1.82485938e-01
-4.35634375e-08,1.82514063e-01
-4.35234375e-08,1.82485938e-01
-4.34834375e-08,1.82514063e-01
-4.34434375e-08,1.82485938e-01
-4.34034375e-08,1.82515625e-01
-4.33634375e-08,1.82481250e-01
-4.33234375e-08,1.82523437e-01
-4.32834375e-08,1.82467188e-01
-4.32434375e-08,1.82557812e-01
-4.32034375e-08,1.82290625e-01
-4.31634375e-08,1.82046875e-01
-4.31234375e-08,1.82129687e-01
-4.30834375e-08,1.82079688e-01
-4.30434375e-08,1.82115625e-01
-4.30034375e-08,1.82085938e-01
-4.29634375e-08,1.82112500e-01
-4.29234375e-08,1.82089063e-01
-4.28834375e-08,1.82110938e-01
-4.28434375e-08,1.82089063e-01
-4.28034375e-08,1.82110938e-01
-4.27634375e-08,1.82087500e-01
-4.27234375e-08,1.82114063e-01
-4.26834375e-08,1.82082812e-01
-4.26434375e-08,1.82121875e-01
-4.26034375e-08,1.82068750e-01
-4.25634375e-08,1.82156250e-01
-4.25234375e-08,1.81892187e-01
-4.24834375e-08,1.81645313e-01
-4.24434375e-08,1.81729688e-01
-4.24034375e-08,1.81678125e-01
-4.23634375e-08,1.81715625e-01
-4.23234375e-08,1.81685938e-01
-4.22834375e-08,1.81710938e-01
-4.22434375e-08,1.81689062e-01
-4.22034375e-08,1.81709375e-01
-4.21634375e-08,1.81690625e-01
-4.21234375e-08,1.81707813e-01
-4.20834375e-08,1.81692188e-01
-4.20434375e-08,1.81707813e-01
-4.20034375e-08,1.81692188e-01
-4.19634375e-08,1.81707813e-01
-4.19234375e-08,1.81693750e-01
-4.18834375e-08,1.81706250e-01
-4.18434375e-08,1.81693750e-01
-4.18034375e-08,1.81706250e-01
-4.17634375e-08,1.81692188e-01
-4.17234375e-08,1.81707813e-01
-4.16834375e-08,1.81692188e-01
-4.16434375e-08,1.81707813e-01
-4.16034375e-08,1.81692188e-01
-4.15634375e-08,1.81709375e-01
-4.15234375e-08,1.81690625e-01
-4.14834375e-08,1.81710938e-01
-4.14434375e-08,1.81689062e-01
-4.14034375e-08,1.81712500e-01
-4.13634375e-08,1.81684375e-01
-4.13234375e-08,1.81718750e-01
-4.12834375e-08,1.81676562e-01
-4.12434375e-08,1.81734375e-01
-4.12034375e-08,1.81640625e-01
-4.11634375e-08,1.81912500e-01
-4.11234375e-08,1.82150000e-01
-4.10834375e-08,1.82075000e-01
-4.10434375e-08,1.82114063e-01
-4.10034375e-08,1.82092188e-01
-4.09634375e-08,1.82103125e-01
-4.09234375e-08,1.82101563e-01
-4.08834375e-08,1.82092188e-01
-4.08434375e-08,1.82117187e-01
-4.08034375e-08,1.82057812e-01
-4.07634375e-08,1.82295313e-01
-4.07234375e-08,1.82567188e-01
-4.06834375e-08,1.82456250e-01
-4.06434375e-08,1.82534375e-01
-4.06034375e-08,1.82468750e-01
-4.05634375e-08,1.82531250e-01
-4.05234375e-08,1.82465625e-01
-4.04834375e-08,1.82542188e-01
-4.04434375e-08,1.82434375e-01
-4.04034375e-08,1.82717188e-01
-4.03634375e-08,1.82946875e-01
-4.03234375e-08,1.82876563e-01
-4.02834375e-08,1.82915625e-01
-4.02434375e-08,1.82887500e-01
-4.02034375e-08,1.82910938e-01
-4.01634375e-08,1.82889063e-01
-4.01234375e-08,1.82912500e-01
-4.00834375e-08,1.82882813e-01
-4.00434375e-08,1.82926563e-01
-4.00034375e-08,1.82850000e-01
-3.99634375e-08,1.83101563e-01
-3.99234375e-08,1.83360938e-01
-3.98834375e-08,1.83262500e-01
-3.98434375e-08,1.83329688e-01
-3.98034375e-08,1.83275000e-01
-3.97634375e-08,1.83323438e-01
-3.97234375e-08,1.83278125e-01
-3.96834375e-08,1.83323438e-01
-3.96434375e-08,1.83276563e-01
-3.96034375e-08,1.83326563e-01
-3.95634375e-08,1.83268750e-01
-3.95234375e-08,1.83340625e-01
-3.94834375e-08,1.83235938e-01
-3.94434375e-08,1.83517188e-01
-3.94034375e-08,1.83745313e-01
-3.93634375e-08,1.83679687e-01
-3.93234375e-08,1.83710938e-01
-3.92834375e-08,1.83693750e-01
-3.92434375e-08,1.83703125e-01
-3.92034375e-08,1.83698438e-01
-3.91634375e-08,1.83698438e-01
-3.91234375e-08,1.83703125e-01
-3.90834375e-08,1.83695313e-01
-3.90434375e-08,1.83706250e-01
-3.90034375e-08,1.83692187e-01
-3.89634375e-08,1.83709375e-01
-3.89234375e-08,1.83689062e-01
-3.88834375e-08,1.83714062e-01
-3.88434375e-08,1.83679687e-01
-3.88034375e-08,1.83729688e-01
-3.87634375e-08,1.83645313e-01
-3.87234375e-08,1.83907813e-01
-3.86834375e-08,1.84154687e-01
-3.86434375e-08,1.84070312e-01
-3.86034375e-08,1.84120312e-01
-3.85634375e-08,1.84084375e-01
-3.85234375e-08,1.84112500e-01
