trails/0bbf0cf1bfcc3246d9e376b62f80622a/aes_ch1_20250507112406083.csv

Model,MSO66B
Label,
Waveform Type,ANALOG
Horizontal Units,s
Sample Interval,4.00000000e-11
Record Length,10000
Zero Index,1599.04296875
Vertical Units,A
ANALOG_Thumbnail,
yOffset,1.84500000e-01
yPosition,8.40000000e-01

Labels,
TIME,CH1
-6.39617187e-08,1.91292188e-01
-6.39217187e-08,1.91310938e-01
-6.38817188e-08,1.91282813e-01
-6.38417187e-08,1.91328125e-01
-6.38017187e-08,1.91246875e-01
-6.37617187e-08,1.91506250e-01
-6.37217187e-08,1.91754688e-01
-6.36817187e-08,1.91668750e-01
-6.36417187e-08,1.91720313e-01
-6.36017188e-08,1.91685938e-01
-6.35617187e-08,1.91710938e-01
-6.35217187e-08,1.91692187e-01
-6.34817187e-08,1.91704687e-01
-6.34417187e-08,1.91698438e-01
-6.34017187e-08,1.91698438e-01
-6.33617187e-08,1.91704687e-01
-6.33217188e-08,1.91689063e-01
-6.32817187e-08,1.91720313e-01
-6.32417187e-08,1.91653125e-01
-6.32017187e-08,1.91900000e-01
-6.31617187e-08,1.92162500e-01
-6.31217187e-08,1.92062500e-01
-6.30817187e-08,1.92128125e-01
-6.30417188e-08,1.92078125e-01
-6.30017187e-08,1.92118750e-01
-6.29617187e-08,1.92082813e-01
-6.29217187e-08,1.92115625e-01
-6.28817187e-08,1.92085937e-01
-6.28417188e-08,1.92112500e-01
-6.28017187e-08,1.92087500e-01
-6.27617188e-08,1.92110937e-01
-6.27217187e-08,1.92089063e-01
-6.26817187e-08,1.92109375e-01
-6.26417187e-08,1.92090625e-01
-6.26017187e-08,1.92107813e-01
-6.25617188e-08,1.92092188e-01
-6.25217187e-08,1.92107813e-01
-6.24817188e-08,1.92092188e-01
-6.24417187e-08,1.92106250e-01
-6.24017187e-08,1.92093750e-01
-6.23617187e-08,1.92106250e-01
-6.23217187e-08,1.92093750e-01
-6.22817188e-08,1.92106250e-01
-6.22417187e-08,1.92095313e-01
-6.22017188e-08,1.92104688e-01
-6.21617187e-08,1.92095313e-01
-6.21217187e-08,1.92103125e-01
-6.20817187e-08,1.92096875e-01
-6.20417187e-08,1.92103125e-01
-6.20017188e-08,1.92098437e-01
-6.19617187e-08,1.92101563e-01
-6.19217188e-08,1.92098437e-01
-6.18817187e-08,1.92100000e-01
-6.18417187e-08,1.92101563e-01
-6.18017187e-08,1.92096875e-01
-6.17617187e-08,1.92104688e-01
-6.17217188e-08,1.92092188e-01
-6.16817187e-08,1.92112500e-01
-6.16417188e-08,1.92076562e-01
-6.16017187e-08,1.92148438e-01
-6.15617187e-08,1.91898438e-01
-6.15217187e-08,1.91639063e-01
-6.14817187e-08,1.91737500e-01
-6.14417188e-08,1.91671875e-01
-6.14017187e-08,1.91723438e-01
-6.13617188e-08,1.91679688e-01
-6.13217187e-08,1.91717187e-01
-6.12817187e-08,1.91684375e-01
-6.12417187e-08,1.91715625e-01
-6.12017187e-08,1.91685938e-01
-6.11617188e-08,1.91714063e-01
-6.11217187e-08,1.91687500e-01
-6.10817188e-08,1.91712500e-01
-6.10417187e-08,1.91687500e-01
-6.10017187e-08,1.91712500e-01
-6.09617187e-08,1.91687500e-01
-6.09217187e-08,1.91710938e-01
-6.08817188e-08,1.91689063e-01
-6.08417187e-08,1.91710938e-01
-6.08017188e-08,1.91689063e-01
-6.07617187e-08,1.91710938e-01
-6.07217187e-08,1.91689063e-01
-6.06817187e-08,1.91710938e-01
-6.06417187e-08,1.91689063e-01
-6.06017188e-08,1.91710938e-01
-6.05617187e-08,1.91689063e-01
-6.05217187e-08,1.91710938e-01
-6.04817187e-08,1.91687500e-01
-6.04417187e-08,1.91712500e-01
-6.04017187e-08,1.91687500e-01
-6.03617187e-08,1.91712500e-01
-6.03217188e-08,1.91687500e-01
-6.02817187e-08,1.91714063e-01
-6.02417187e-08,1.91685938e-01
-6.02017187e-08,1.91715625e-01
-6.01617187e-08,1.91684375e-01
-6.01217187e-08,1.91717187e-01
-6.00817187e-08,1.91679688e-01
-6.00417188e-08,1.91723438e-01
-6.00017187e-08,1.91671875e-01
-5.99617187e-08,1.91737500e-01
-5.99217187e-08,1.91637500e-01
-5.98817187e-08,1.91915625e-01
-5.98417187e-08,1.92146875e-01
-5.98017187e-08,1.92078125e-01
-5.97617188e-08,1.92112500e-01
-5.97217187e-08,1.92092188e-01
-5.96817187e-08,1.92104688e-01
-5.96417187e-08,1.92096875e-01
-5.96017187e-08,1.92101563e-01
-5.95617187e-08,1.92100000e-01
-5.95217187e-08,1.92098437e-01
-5.94817187e-08,1.92103125e-01
-5.94417187e-08,1.92096875e-01
-5.94017187e-08,1.92104688e-01
-5.93617187e-08,1.92095313e-01
-5.93217187e-08,1.92106250e-01
-5.92817187e-08,1.92093750e-01
-5.92417187e-08,1.92107813e-01
-5.92017187e-08,1.92092188e-01
-5.91617187e-08,1.92109375e-01
-5.91217187e-08,1.92089063e-01
-5.90817187e-08,1.92112500e-01
-5.90417187e-08,1.92085937e-01
-5.90017187e-08,1.92118750e-01
-5.89617187e-08,1.92076562e-01
-5.89217187e-08,1.92132812e-01
-5.88817187e-08,1.92042188e-01
-5.88417187e-08,1.92310938e-01
-5.88017187e-08,1.92550000e-01
-5.87617187e-08,1.92473438e-01
-5.87217187e-08,1.92517188e-01
-5.86817187e-08,1.92489063e-01
-5.86417187e-08,1.92507813e-01
-5.86017187e-08,1.92493750e-01
-5.85617187e-08,1.92504687e-01
-5.85217187e-08,1.92496875e-01
-5.84817187e-08,1.92501563e-01
-5.84417187e-08,1.92500000e-01
-5.84017187e-08,1.92498438e-01
-5.83617187e-08,1.92503125e-01
-5.83217187e-08,1.92495313e-01
-5.82817187e-08,1.92506250e-01
-5.82417187e-08,1.92492188e-01
-5.82017187e-08,1.92509375e-01
-5.81617187e-08,1.92485938e-01
-5.81217187e-08,1.92518750e-01
-5.80817187e-08,1.92471875e-01
-5.80417187e-08,1.92554688e-01
-5.80017187e-08,1.92292188e-01
-5.79617187e-08,1.92045313e-01
-5.79217187e-08,1.92129688e-01
-5.78817187e-08,1.92079688e-01
-5.78417187e-08,1.92114063e-01
-5.78017187e-08,1.92089063e-01
-5.77617187e-08,1.92107813e-01
-5.77217187e-08,1.92093750e-01
-5.76817187e-08,1.92103125e-01
-5.76417187e-08,1.92100000e-01
-5.76017187e-08,1.92096875e-01
-5.75617187e-08,1.92109375e-01
-5.75217187e-08,1.92081250e-01
-5.74817187e-08,1.92143750e-01
-5.74417187e-08,1.91903125e-01
-5.74017187e-08,1.91634375e-01
-5.73617187e-08,1.91742187e-01
-5.73217187e-08,1.91667188e-01
-5.72817187e-08,1.91728125e-01
-5.72417187e-08,1.91673438e-01
-5.72017187e-08,1.91725000e-01
-5.71617187e-08,1.91675000e-01
-5.71217187e-08,1.91726563e-01
-5.70817187e-08,1.91671875e-01
-5.70417187e-08,1.91732813e-01
-5.70017187e-08,1.91657812e-01
-5.69617187e-08,1.91765625e-01
-5.69217187e-08,1.91481250e-01
-5.68817187e-08,1.91256250e-01
-5.68417187e-08,1.91320313e-01
-5.68017187e-08,1.91289062e-01
-5.67617187e-08,1.91306250e-01
-5.67217187e-08,1.91296875e-01
-5.66817187e-08,1.91301563e-01
-5.66417187e-08,1.91300000e-01
-5.66017187e-08,1.91300000e-01
-5.65617187e-08,1.91301563e-01
-5.65217187e-08,1.91298438e-01
-5.64817187e-08,1.91303125e-01
-5.64417187e-08,1.91296875e-01
-5.64017187e-08,1.91304688e-01
-5.63617187e-08,1.91295313e-01
-5.63217187e-08,1.91304688e-01
-5.62817187e-08,1.91293750e-01
-5.62417187e-08,1.91306250e-01
-5.62017187e-08,1.91292188e-01
-5.61617187e-08,1.91307813e-01
-5.61217187e-08,1.91290625e-01
-5.60817187e-08,1.91310938e-01
-5.60417187e-08,1.91285938e-01
-5.60017187e-08,1.91317188e-01
-5.59617187e-08,1.91278125e-01
-5.59217187e-08,1.91331250e-01
-5.58817187e-08,1.91243750e-01
-5.58417187e-08,1.91509375e-01
-5.58017187e-08,1.91753125e-01
-5.57617187e-08,1.91671875e-01
-5.57217187e-08,1.91718750e-01
-5.56817187e-08,1.91685938e-01
-5.56417187e-08,1.91710938e-01
-5.56017187e-08,1.91690625e-01
-5.55617187e-08,1.91707813e-01
-5.55217187e-08,1.91693750e-01
-5.54817187e-08,1.91706250e-01
-5.54417187e-08,1.91695313e-01
-5.54017187e-08,1.91704687e-01
-5.53617187e-08,1.91696875e-01
-5.53217187e-08,1.91703125e-01
-5.52817187e-08,1.91696875e-01
-5.52417187e-08,1.91703125e-01
-5.52017187e-08,1.91698438e-01
-5.51617187e-08,1.91701563e-01
-5.51217187e-08,1.91698438e-01
-5.50817187e-08,1.91701563e-01
-5.50417187e-08,1.91698438e-01
-5.50017187e-08,1.91700000e-01
-5.49617187e-08,1.91700000e-01
-5.49217187e-08,1.91700000e-01
-5.48817187e-08,1.91700000e-01
-5.48417187e-08,1.91700000e-01
-5.48017187e-08,1.91701563e-01
-5.47617187e-08,1.91698438e-01
-5.47217187e-08,1.91701563e-01
-5.46817187e-08,1.91698438e-01
-5.46417187e-08,1.91703125e-01
-5.46017187e-08,1.91696875e-01
-5.45617187e-08,1.91703125e-01
-5.45217187e-08,1.91695313e-01
-5.44817187e-08,1.91704687e-01
-5.44417187e-08,1.91693750e-01
-5.44017187e-08,1.91706250e-01
-5.43617187e-08,1.91692187e-01
-5.43217187e-08,1.91710938e-01
-5.42817187e-08,1.91685938e-01
-5.42417187e-08,1.91718750e-01
-5.42017187e-08,1.91671875e-01
-5.41617187e-08,1.91753125e-01
-5.41217187e-08,1.91493750e-01
-5.40817187e-08,1.91245313e-01
-5.40417187e-08,1.91331250e-01
-5.40017187e-08,1.91278125e-01
-5.39617187e-08,1.91317188e-01
-5.39217187e-08,1.91285938e-01
-5.38817187e-08,1.91310938e-01
-5.38417187e-08,1.91290625e-01
-5.38017187e-08,1.91309375e-01
-5.37617187e-08,1.91292188e-01
-5.37217187e-08,1.91306250e-01
-5.36817187e-08,1.91293750e-01
-5.36417187e-08,1.91306250e-01
-5.36017187e-08,1.91295313e-01
-5.35617187e-08,1.91304688e-01
-5.35217187e-08,1.91295313e-01
-5.34817187e-08,1.91303125e-01
-5.34417187e-08,1.91296875e-01
-5.34017187e-08,1.91301563e-01
-5.33617187e-08,1.91298438e-01
-5.33217187e-08,1.91300000e-01
-5.32817187e-08,1.91300000e-01
-5.32417188e-08,1.91298438e-01
-5.32017187e-08,1.91303125e-01
-5.31617187e-08,1.91295313e-01
-5.31217187e-08,1.91307813e-01
-5.30817187e-08,1.91287500e-01
-5.30417187e-08,1.91321875e-01
-5.30017187e-08,1.91253125e-01
-5.29617187e-08,1.91500000e-01
-5.29217187e-08,1.91762500e-01
-5.28817187e-08,1.91660938e-01
-5.28417187e-08,1.91729687e-01
-5.28017187e-08,1.91675000e-01
-5.27617187e-08,1.91721875e-01
-5.27217187e-08,1.91679688e-01
-5.26817187e-08,1.91718750e-01
-5.26417187e-08,1.91681250e-01
-5.26017187e-08,1.91718750e-01
-5.25617187e-08,1.91681250e-01
-5.25217187e-08,1.91720313e-01
-5.24817187e-08,1.91678125e-01
-5.24417187e-08,1.91725000e-01
-5.24017187e-08,1.91670312e-01
-5.23617187e-08,1.91739063e-01
-5.23217187e-08,1.91637500e-01
-5.22817187e-08,1.91915625e-01
-5.22417187e-08,1.92146875e-01
-5.22017187e-08,1.92076562e-01
-5.21617187e-08,1.92114063e-01
-5.21217187e-08,1.92090625e-01
-5.20817187e-08,1.92106250e-01
-5.20417187e-08,1.92095313e-01
-5.20017187e-08,1.92103125e-01
-5.19617187e-08,1.92098437e-01
-5.19217187e-08,1.92101563e-01
-5.18817187e-08,1.92100000e-01
-5.18417187e-08,1.92100000e-01
-5.18017187e-08,1.92100000e-01
-5.17617187e-08,1.92100000e-01
-5.17217187e-08,1.92101563e-01
-5.16817187e-08,1.92098437e-01
-5.16417187e-08,1.92101563e-01
-5.16017187e-08,1.92098437e-01
-5.15617187e-08,1.92101563e-01
-5.15217187e-08,1.92098437e-01
-5.14817187e-08,1.92101563e-01
-5.14417187e-08,1.92098437e-01
-5.14017187e-08,1.92101563e-01
-5.13617187e-08,1.92098437e-01
-5.13217188e-08,1.92101563e-01
-5.12817187e-08,1.92098437e-01
-5.12417187e-08,1.92101563e-01
-5.12017187e-08,1.92098437e-01
-5.11617187e-08,1.92101563e-01
-5.11217187e-08,1.92096875e-01
-5.10817187e-08,1.92103125e-01
-5.10417187e-08,1.92096875e-01
-5.10017187e-08,1.92103125e-01
-5.09617187e-08,1.92096875e-01
-5.09217187e-08,1.92103125e-01
-5.08817187e-08,1.92096875e-01
-5.08417187e-08,1.92103125e-01
-5.08017187e-08,1.92096875e-01
-5.07617187e-08,1.92103125e-01
-5.07217187e-08,1.92096875e-01
-5.06817187e-08,1.92103125e-01
-5.06417187e-08,1.92096875e-01
-5.06017187e-08,1.92103125e-01
-5.05617187e-08,1.92096875e-01
-5.05217187e-08,1.92103125e-01
-5.04817187e-08,1.92096875e-01
-5.04417187e-08,1.92103125e-01
-5.04017187e-08,1.92098437e-01
-5.03617187e-08,1.92101563e-01
-5.03217187e-08,1.92098437e-01
-5.02817187e-08,1.92101563e-01
-5.02417187e-08,1.92098437e-01
-5.02017187e-08,1.92101563e-01
-5.01617187e-08,1.92098437e-01
-5.01217187e-08,1.92101563e-01
-5.00817187e-08,1.92098437e-01
-5.00417187e-08,1.92101563e-01
-5.00017187e-08,1.92100000e-01
-4.99617187e-08,1.92100000e-01
-4.99217187e-08,1.92101563e-01
-4.98817187e-08,1.92098437e-01
-4.98417187e-08,1.92103125e-01
-4.98017187e-08,1.92095313e-01
-4.97617187e-08,1.92107813e-01
-4.97217187e-08,1.92087500e-01
-4.96817187e-08,1.92121875e-01
-4.96417187e-08,1.92053125e-01
-4.96017187e-08,1.92298438e-01
-4.95617187e-08,1.92564063e-01
-4.95217187e-08,1.92459375e-01
-4.94817187e-08,1.92531250e-01
-4.94417187e-08,1.92473438e-01
-4.94017188e-08,1.92525000e-01
-4.93617187e-08,1.92476563e-01
-4.93217187e-08,1.92523438e-01
-4.92817187e-08,1.92476563e-01
-4.92417187e-08,1.92525000e-01
-4.92017187e-08,1.92471875e-01
-4.91617187e-08,1.92532813e-01
-4.91217188e-08,1.92457812e-01
-4.90817187e-08,1.92567188e-01
-4.90417187e-08,1.92279688e-01
-4.90017187e-08,1.92057813e-01
-4.89617187e-08,1.92118750e-01
-4.89217187e-08,1.92090625e-01
-4.88817187e-08,1.92103125e-01
-4.88417187e-08,1.92100000e-01
-4.88017187e-08,1.92098437e-01
-4.87617187e-08,1.92104688e-01
-4.87217187e-08,1.92093750e-01
-4.86817187e-08,1.92107813e-01
-4.86417187e-08,1.92090625e-01
-4.86017187e-08,1.92112500e-01
-4.85617187e-08,1.92084375e-01
-4.85217187e-08,1.92121875e-01
-4.84817187e-08,1.92068750e-01
-4.84417187e-08,1.92156250e-01
-4.84017187e-08,1.91890625e-01
-4.83617187e-08,1.91648438e-01
-4.83217187e-08,1.91728125e-01
-4.82817187e-08,1.91681250e-01
-4.82417187e-08,1.91714063e-01
-4.82017187e-08,1.91689063e-01
-4.81617187e-08,1.91707813e-01
-4.81217187e-08,1.91693750e-01
-4.80817187e-08,1.91704687e-01
-4.80417187e-08,1.91695313e-01
-4.80017187e-08,1.91703125e-01
-4.79617187e-08,1.91696875e-01
-4.79217187e-08,1.91701563e-01
-4.78817187e-08,1.91698438e-01
-4.78417187e-08,1.91701563e-01
-4.78017187e-08,1.91698438e-01
-4.77617187e-08,1.91700000e-01
-4.77217187e-08,1.91700000e-01
-4.76817187e-08,1.91700000e-01
-4.76417187e-08,1.91700000e-01
-4.76017187e-08,1.91700000e-01
-4.75617187e-08,1.91700000e-01
-4.75217187e-08,1.91698438e-01
-4.74817188e-08,1.91701563e-01
-4.74417187e-08,1.91698438e-01
-4.74017187e-08,1.91701563e-01
-4.73617187e-08,1.91698438e-01
-4.73217187e-08,1.91701563e-01
-4.72817187e-08,1.91698438e-01
-4.72417187e-08,1.91701563e-01
-4.72017188e-08,1.91698438e-01
-4.71617187e-08,1.91703125e-01
-4.71217187e-08,1.91696875e-01
-4.70817187e-08,1.91703125e-01
-4.70417187e-08,1.91696875e-01
-4.70017187e-08,1.91703125e-01
-4.69617187e-08,1.91696875e-01
-4.69217188e-08,1.91703125e-01
-4.68817187e-08,1.91696875e-01
-4.68417187e-08,1.91703125e-01
-4.68017187e-08,1.91696875e-01
-4.67617187e-08,1.91704687e-01
-4.67217187e-08,1.91695313e-01
-4.66817187e-08,1.91704687e-01
-4.66417187e-08,1.91695313e-01
-4.66017187e-08,1.91704687e-01
-4.65617187e-08,1.91695313e-01
-4.65217187e-08,1.91704687e-01
-4.64817187e-08,1.91695313e-01
-4.64417187e-08,1.91704687e-01
-4.64017187e-08,1.91693750e-01
-4.63617187e-08,1.91706250e-01
-4.63217187e-08,1.91693750e-01
-4.62817187e-08,1.91706250e-01
-4.62417187e-08,1.91693750e-01
-4.62017187e-08,1.91706250e-01
-4.61617187e-08,1.91692187e-01
-4.61217187e-08,1.91707813e-01
-4.60817187e-08,1.91692187e-01
-4.60417187e-08,1.91707813e-01
-4.60017187e-08,1.91692187e-01
-4.59617187e-08,1.91709375e-01
-4.59217187e-08,1.91690625e-01
-4.58817187e-08,1.91709375e-01
-4.58417187e-08,1.91689063e-01
-4.58017187e-08,1.91710938e-01
-4.57617187e-08,1.91687500e-01
-4.57217187e-08,1.91714063e-01
-4.56817187e-08,1.91685938e-01
-4.56417187e-08,1.91715625e-01
-4.56017187e-08,1.91682813e-01
-4.55617188e-08,1.91720313e-01
-4.55217187e-08,1.91676563e-01
-4.54817187e-08,1.91729687e-01
-4.54417187e-08,1.91660938e-01
-4.54017187e-08,1.91765625e-01
-4.53617187e-08,1.91481250e-01
-4.53217187e-08,1.91257813e-01
-4.52817188e-08,1.91317188e-01
-4.52417187e-08,1.91293750e-01
-4.52017187e-08,1.91298438e-01
-4.51617187e-08,1.91307813e-01
-4.51217187e-08,1.91284375e-01
-4.50817187e-08,1.91326563e-01
-4.50417187e-08,1.91246875e-01
-4.50017188e-08,1.91507813e-01
-4.49617187e-08,1.91753125e-01
-4.49217187e-08,1.91670312e-01
-4.48817187e-08,1.91718750e-01
-4.48417187e-08,1.91687500e-01
-4.48017187e-08,1.91709375e-01
-4.47617187e-08,1.91693750e-01
-4.47217188e-08,1.91703125e-01
-4.46817187e-08,1.91700000e-01
-4.46417187e-08,1.91698438e-01
-4.46017187e-08,1.91704687e-01
-4.45617187e-08,1.91692187e-01
-4.45217187e-08,1.91710938e-01
-4.44817187e-08,1.91682813e-01
-4.44417187e-08,1.91728125e-01
-4.44017187e-08,1.91646875e-01
-4.43617187e-08,1.91907812e-01
-4.43217187e-08,1.92153125e-01
-4.42817187e-08,1.92071875e-01
-4.42417187e-08,1.92117188e-01
-4.42017187e-08,1.92089063e-01
-4.41617187e-08,1.92106250e-01
-4.41217187e-08,1.92100000e-01
-4.40817187e-08,1.92093750e-01
-4.40417187e-08,1.92117188e-01
-4.40017187e-08,1.92056250e-01
-4.39617187e-08,1.92296875e-01
-4.39217188e-08,1.92564063e-01
-4.38817187e-08,1.92459375e-01
-4.38417187e-08,1.92529688e-01
-4.38017187e-08,1.92475000e-01
-4.37617187e-08,1.92521875e-01
-4.37217187e-08,1.92481250e-01
-4.36817187e-08,1.92517188e-01
-4.36417188e-08,1.92484375e-01
-4.36017187e-08,1.92514062e-01
-4.35617187e-08,1.92485938e-01
-4.35217187e-08,1.92512500e-01
-4.34817187e-08,1.92487500e-01
-4.34417187e-08,1.92512500e-01
-4.34017187e-08,1.92489063e-01
-4.33617188e-08,1.92510938e-01
-4.33217187e-08,1.92489063e-01
-4.32817187e-08,1.92510938e-01
-4.32417187e-08,1.92489063e-01
-4.32017187e-08,1.92510938e-01
-4.31617187e-08,1.92489063e-01
-4.31217187e-08,1.92510938e-01
-4.30817188e-08,1.92489063e-01
-4.30417187e-08,1.92512500e-01
-4.30017187e-08,1.92485938e-01
-4.29617187e-08,1.92515625e-01
-4.29217187e-08,1.92482813e-01
-4.28817187e-08,1.92521875e-01
-4.28417187e-08,1.92468750e-01
-4.28017188e-08,1.92556250e-01
-4.27617187e-08,1.92292188e-01
-4.27217187e-08,1.92045313e-01
-4.26817187e-08,1.92131250e-01
-4.26417187e-08,1.92076562e-01
-4.26017187e-08,1.92120313e-01
-4.25617187e-08,1.92081250e-01
-4.25217188e-08,1.92118750e-01
-4.24817187e-08,1.92079688e-01
-4.24417187e-08,1.92123437e-01
-4.24017187e-08,1.92067188e-01
-4.23617187e-08,1.92157812e-01
-4.23217187e-08,1.91890625e-01
-4.22817187e-08,1.91646875e-01
-4.22417187e-08,1.91729687e-01
-4.22017187e-08,1.91679688e-01
-4.21617187e-08,1.91715625e-01
-4.21217187e-08,1.91687500e-01
-4.20817187e-08,1.91710938e-01
-4.20417187e-08,1.91690625e-01
-4.20017188e-08,1.91707813e-01
-4.19617187e-08,1.91692187e-01
-4.19217187e-08,1.91706250e-01
-4.18817187e-08,1.91693750e-01
-4.18417187e-08,1.91706250e-01
-4.18017187e-08,1.91695313e-01
-4.17617187e-08,1.91704687e-01
-4.17217188e-08,1.91695313e-01
-4.16817187e-08,1.91704687e-01
-4.16417187e-08,1.91695313e-01
-4.16017187e-08,1.91703125e-01
-4.15617187e-08,1.91696875e-01
-4.15217187e-08,1.91703125e-01
-4.14817187e-08,1.91696875e-01
-4.14417188e-08,1.91703125e-01
-4.14017187e-08,1.91696875e-01
-4.13617187e-08,1.91703125e-01
-4.13217187e-08,1.91696875e-01
-4.12817187e-08,1.91703125e-01
-4.12417187e-08,1.91696875e-01
-4.12017187e-08,1.91703125e-01
-4.11617188e-08,1.91698438e-01
-4.11217187e-08,1.91701563e-01
-4.10817187e-08,1.91698438e-01
-4.10417187e-08,1.91701563e-01
-4.10017187e-08,1.91698438e-01
-4.09617187e-08,1.91701563e-01
-4.09217187e-08,1.91698438e-01
-4.08817188e-08,1.91701563e-01
-4.08417187e-08,1.91698438e-01
-4.08017187e-08,1.91701563e-01
-4.07617187e-08,1.91698438e-01
-4.07217187e-08,1.91700000e-01
-4.06817187e-08,1.91700000e-01
-4.06417187e-08,1.91700000e-01
-4.06017188e-08,1.91700000e-01
-4.05617187e-08,1.91700000e-01
-4.05217187e-08,1.91700000e-01
-4.04817187e-08,1.91700000e-01
-4.04417187e-08,1.91701563e-01
-4.04017187e-08,1.91698438e-01
-4.03617187e-08,1.91701563e-01
-4.03217188e-08,1.91698438e-01
-4.02817187e-08,1.91703125e-01
-4.02417187e-08,1.91696875e-01
-4.02017187e-08,1.91704687e-01
-4.01617187e-08,1.91695313e-01
-4.01217187e-08,1.91706250e-01
-4.00817188e-08,1.91692187e-01
-4.00417187e-08,1.91709375e-01
-4.00017187e-08,1.91687500e-01
-3.99617187e-08,1.91718750e-01
-3.99217187e-08,1.91671875e-01
-3.98817187e-08,1.91753125e-01
-3.98417187e-08,1.91493750e-01
-3.98017188e-08,1.91243750e-01
-3.97617187e-08,1.91332813e-01
-3.97217187e-08,1.91276562e-01
-3.96817187e-08,1.91317188e-01
-3.96417187e-08,1.91285938e-01
-3.96017187e-08,1.91312500e-01
-3.95617187e-08,1.91289062e-01
-3.95217188e-08,1.91309375e-01
-3.94817187e-08,1.91290625e-01
-3.94417187e-08,1.91307813e-01
-3.94017187e-08,1.91292188e-01
-3.93617187e-08,1.91306250e-01
-3.93217187e-08,1.91293750e-01
-3.92817187e-08,1.91304688e-01
-3.92417188e-08,1.91295313e-01
-3.92017187e-08,1.91303125e-01
-3.91617187e-08,1.91296875e-01
-3.91217187e-08,1.91301563e-01
-3.90817187e-08,1.91298438e-01
-3.90417187e-08,1.91300000e-01
-3.90017187e-08,1.91303125e-01
-3.89617188e-08,1.91293750e-01
-3.89217187e-08,1.91310938e-01
-3.88817187e-08,1.91279688e-01
-3.88417187e-08,1.91345313e-01
-3.88017187e-08,1.91101563e-01
-3.87617187e-08,1.90835937e-01
-3.87217187e-08,1.90940625e-01
-3.86817188e-08,1.90868750e-01
-3.86417187e-08,1.90926563e-01
-3.86017187e-08,1.90875000e-01
-3.85617187e-08,1.90923438e-01
-3.85217187e-08,1.90878125e-01
