trails/0bbf0cf1bfcc3246d9e376b62f80622a/aes_ch1_20250507112922310.csv

Model,MSO66B
Label,
Waveform Type,ANALOG
Horizontal Units,s
Sample Interval,4.00000000e-11
Record Length,10000
Zero Index,1599.03515625
Vertical Units,A
ANALOG_Thumbnail,
yOffset,1.84500000e-01
yPosition,8.40000000e-01

Labels,
TIME,CH1
-6.39614062e-08,1.92910938e-01
-6.39214062e-08,1.92890625e-01
-6.38814062e-08,1.92909375e-01
-6.38414063e-08,1.92892188e-01
-6.38014062e-08,1.92907812e-01
-6.37614063e-08,1.92893750e-01
-6.37214062e-08,1.92906250e-01
-6.36814062e-08,1.92893750e-01
-6.36414062e-08,1.92906250e-01
-6.36014062e-08,1.92895312e-01
-6.35614063e-08,1.92904688e-01
-6.35214062e-08,1.92895312e-01
-6.34814063e-08,1.92903125e-01
-6.34414062e-08,1.92896875e-01
-6.34014062e-08,1.92903125e-01
-6.33614062e-08,1.92898438e-01
-6.33214062e-08,1.92901563e-01
-6.32814063e-08,1.92898438e-01
-6.32414062e-08,1.92900000e-01
-6.32014063e-08,1.92901563e-01
-6.31614062e-08,1.92898438e-01
-6.31214062e-08,1.92903125e-01
-6.30814062e-08,1.92895312e-01
-6.30414062e-08,1.92907812e-01
-6.30014063e-08,1.92889063e-01
-6.29614062e-08,1.92915625e-01
-6.29214063e-08,1.92873438e-01
-6.28814062e-08,1.92951563e-01
-6.28414062e-08,1.92695312e-01
-6.28014062e-08,1.92443750e-01
-6.27614062e-08,1.92531250e-01
-6.27214063e-08,1.92478125e-01
-6.26814062e-08,1.92515625e-01
-6.26414062e-08,1.92489063e-01
-6.26014062e-08,1.92507813e-01
-6.25614062e-08,1.92495313e-01
-6.25214062e-08,1.92500000e-01
-6.24814062e-08,1.92506250e-01
-6.24414063e-08,1.92482813e-01
-6.24014062e-08,1.92542188e-01
-6.23614062e-08,1.92303125e-01
-6.23214062e-08,1.92034375e-01
-6.22814062e-08,1.92140625e-01
-6.22414062e-08,1.92070313e-01
-6.22014062e-08,1.92125000e-01
-6.21614063e-08,1.92079688e-01
-6.21214062e-08,1.92117188e-01
-6.20814062e-08,1.92084375e-01
-6.20414062e-08,1.92112500e-01
-6.20014062e-08,1.92090625e-01
-6.19614062e-08,1.92104688e-01
-6.19214062e-08,1.92100000e-01
-6.18814063e-08,1.92089063e-01
-6.18414062e-08,1.92135938e-01
-6.18014062e-08,1.91910938e-01
-6.17614062e-08,1.91626563e-01
-6.17214062e-08,1.91748438e-01
-6.16814062e-08,1.91660938e-01
-6.16414062e-08,1.91734375e-01
-6.16014063e-08,1.91668750e-01
-6.15614062e-08,1.91729687e-01
-6.15214062e-08,1.91671875e-01
-6.14814062e-08,1.91726563e-01
-6.14414062e-08,1.91673438e-01
-6.14014062e-08,1.91725000e-01
-6.13614062e-08,1.91675000e-01
-6.13214063e-08,1.91725000e-01
-6.12814062e-08,1.91675000e-01
-6.12414062e-08,1.91725000e-01
-6.12014062e-08,1.91673438e-01
-6.11614062e-08,1.91726563e-01
-6.11214062e-08,1.91671875e-01
-6.10814062e-08,1.91729687e-01
-6.10414063e-08,1.91667188e-01
-6.10014062e-08,1.91737500e-01
-6.09614062e-08,1.91653125e-01
-6.09214062e-08,1.91771875e-01
-6.08814062e-08,1.91476563e-01
-6.08414062e-08,1.91260938e-01
-6.08014062e-08,1.91315625e-01
-6.07614063e-08,1.91293750e-01
-6.07214062e-08,1.91303125e-01
-6.06814062e-08,1.91300000e-01
-6.06414062e-08,1.91300000e-01
-6.06014062e-08,1.91298438e-01
-6.05614063e-08,1.91304688e-01
-6.05214062e-08,1.91287500e-01
-6.04814063e-08,1.91335937e-01
-6.04414062e-08,1.91112500e-01
-6.04014062e-08,1.90823437e-01
-6.03614062e-08,1.90953125e-01
-6.03214062e-08,1.90853125e-01
-6.02814063e-08,1.90943750e-01
-6.02414062e-08,1.90854688e-01
-6.02014063e-08,1.90948438e-01
-6.01614062e-08,1.90842188e-01
-6.01214062e-08,1.90982813e-01
-6.00814062e-08,1.90664063e-01
-6.00414062e-08,1.90473438e-01
-6.00014063e-08,1.90501562e-01
-5.99614062e-08,1.90507813e-01
-5.99214063e-08,1.90484375e-01
-5.98814062e-08,1.90520313e-01
-5.98414062e-08,1.90475000e-01
-5.98014062e-08,1.90532813e-01
-5.97614062e-08,1.90456250e-01
-5.97214063e-08,1.90568750e-01
-5.96814062e-08,1.90276562e-01
-5.96414063e-08,1.90062500e-01
-5.96014062e-08,1.90112500e-01
-5.95614062e-08,1.90098437e-01
-5.95214062e-08,1.90095313e-01
-5.94814062e-08,1.90109375e-01
-5.94414062e-08,1.90087500e-01
-5.94014062e-08,1.90115625e-01
-5.93614062e-08,1.90079688e-01
-5.93214062e-08,1.90125000e-01
-5.92814062e-08,1.90068750e-01
-5.92414062e-08,1.90142188e-01
-5.92014062e-08,1.90032813e-01
-5.91614062e-08,1.90321875e-01
-5.91214062e-08,1.90539062e-01
-5.90814062e-08,1.90487500e-01
-5.90414062e-08,1.90501562e-01
-5.90014062e-08,1.90504688e-01
-5.89614062e-08,1.90489063e-01
-5.89214062e-08,1.90517188e-01
-5.88814062e-08,1.90475000e-01
-5.88414062e-08,1.90535938e-01
-5.88014062e-08,1.90437500e-01
-5.87614062e-08,1.90718750e-01
-5.87214062e-08,1.90942187e-01
-5.86814062e-08,1.90884375e-01
-5.86414062e-08,1.90903125e-01
-5.86014062e-08,1.90904688e-01
-5.85614062e-08,1.90885938e-01
-5.85214062e-08,1.90926563e-01
-5.84814062e-08,1.90845313e-01
-5.84414062e-08,1.91109375e-01
-5.84014062e-08,1.91351563e-01
-5.83614062e-08,1.91275000e-01
-5.83214062e-08,1.91314062e-01
-5.82814062e-08,1.91293750e-01
-5.82414062e-08,1.91301563e-01
-5.82014062e-08,1.91304688e-01
-5.81614062e-08,1.91289062e-01
-5.81214062e-08,1.91323437e-01
-5.80814062e-08,1.91251562e-01
-5.80414062e-08,1.91503125e-01
-5.80014062e-08,1.91757813e-01
-5.79614062e-08,1.91667188e-01
-5.79214062e-08,1.91723438e-01
-5.78814062e-08,1.91682813e-01
-5.78414062e-08,1.91714063e-01
-5.78014062e-08,1.91689063e-01
-5.77614062e-08,1.91709375e-01
-5.77214062e-08,1.91692187e-01
-5.76814062e-08,1.91706250e-01
-5.76414062e-08,1.91693750e-01
-5.76014062e-08,1.91704687e-01
-5.75614062e-08,1.91696875e-01
-5.75214062e-08,1.91703125e-01
-5.74814062e-08,1.91698438e-01
-5.74414062e-08,1.91701563e-01
-5.74014062e-08,1.91698438e-01
-5.73614062e-08,1.91700000e-01
-5.73214062e-08,1.91700000e-01
-5.72814062e-08,1.91700000e-01
-5.72414062e-08,1.91701563e-01
-5.72014062e-08,1.91698438e-01
-5.71614062e-08,1.91701563e-01
-5.71214062e-08,1.91698438e-01
-5.70814062e-08,1.91703125e-01
-5.70414062e-08,1.91696875e-01
-5.70014062e-08,1.91703125e-01
-5.69614062e-08,1.91696875e-01
-5.69214062e-08,1.91704687e-01
-5.68814062e-08,1.91695313e-01
-5.68414062e-08,1.91704687e-01
-5.68014062e-08,1.91695313e-01
-5.67614062e-08,1.91706250e-01
-5.67214062e-08,1.91693750e-01
-5.66814062e-08,1.91706250e-01
-5.66414062e-08,1.91693750e-01
-5.66014062e-08,1.91707813e-01
-5.65614062e-08,1.91692187e-01
-5.65214062e-08,1.91707813e-01
-5.64814062e-08,1.91690625e-01
-5.64414062e-08,1.91709375e-01
-5.64014062e-08,1.91689063e-01
-5.63614062e-08,1.91710938e-01
-5.63214062e-08,1.91687500e-01
-5.62814062e-08,1.91714063e-01
-5.62414062e-08,1.91684375e-01
-5.62014062e-08,1.91717187e-01
-5.61614062e-08,1.91678125e-01
-5.61214062e-08,1.91726563e-01
-5.60814062e-08,1.91664063e-01
-5.60414062e-08,1.91760938e-01
-5.60014062e-08,1.91485938e-01
-5.59614062e-08,1.91253125e-01
-5.59214062e-08,1.91323437e-01
-5.58814062e-08,1.91285938e-01
-5.58414062e-08,1.91307813e-01
-5.58014062e-08,1.91295313e-01
-5.57614062e-08,1.91303125e-01
-5.57214062e-08,1.91298438e-01
-5.56814062e-08,1.91300000e-01
-5.56414062e-08,1.91301563e-01
-5.56014062e-08,1.91296875e-01
-5.55614062e-08,1.91303125e-01
-5.55214062e-08,1.91295313e-01
-5.54814062e-08,1.91304688e-01
-5.54414062e-08,1.91295313e-01
-5.54014062e-08,1.91306250e-01
-5.53614062e-08,1.91293750e-01
-5.53214062e-08,1.91307813e-01
-5.52814062e-08,1.91292188e-01
-5.52414062e-08,1.91307813e-01
-5.52014062e-08,1.91290625e-01
-5.51614062e-08,1.91309375e-01
-5.51214062e-08,1.91290625e-01
-5.50814062e-08,1.91310938e-01
-5.50414062e-08,1.91289062e-01
-5.50014062e-08,1.91312500e-01
-5.49614062e-08,1.91287500e-01
-5.49214062e-08,1.91312500e-01
-5.48814062e-08,1.91285938e-01
-5.48414062e-08,1.91315625e-01
-5.48014062e-08,1.91284375e-01
-5.47614062e-08,1.91317188e-01
-5.47214062e-08,1.91281250e-01
-5.46814062e-08,1.91320313e-01
-5.46414062e-08,1.91278125e-01
-5.46014062e-08,1.91323437e-01
-5.45614062e-08,1.91273438e-01
-5.45214062e-08,1.91329688e-01
-5.44814062e-08,1.91264062e-01
-5.44414062e-08,1.91346875e-01
-5.44014062e-08,1.91228125e-01
-5.43614062e-08,1.91526562e-01
-5.43214062e-08,1.91734375e-01
-5.42814062e-08,1.91690625e-01
-5.42414062e-08,1.91698438e-01
-5.42014062e-08,1.91709375e-01
-5.41614062e-08,1.91684375e-01
-5.41214062e-08,1.91721875e-01
-5.40814062e-08,1.91671875e-01
-5.40414062e-08,1.91740625e-01
-5.40014062e-08,1.91632812e-01
-5.39614062e-08,1.91923438e-01
-5.39214062e-08,1.92135938e-01
-5.38814062e-08,1.92090625e-01
-5.38414062e-08,1.92096875e-01
-5.38014062e-08,1.92112500e-01
-5.37614062e-08,1.92078125e-01
-5.37214062e-08,1.92135938e-01
-5.36814062e-08,1.92035938e-01
-5.36414062e-08,1.92320313e-01
-5.36014062e-08,1.92537500e-01
-5.35614062e-08,1.92492188e-01
-5.35214062e-08,1.92492188e-01
-5.34814062e-08,1.92525000e-01
-5.34414062e-08,1.92445313e-01
-5.34014062e-08,1.92712500e-01
-5.33614062e-08,1.92945313e-01
-5.33214062e-08,1.92884375e-01
-5.32814062e-08,1.92898438e-01
-5.32414062e-08,1.92917188e-01
-5.32014062e-08,1.92851563e-01
-5.31614063e-08,1.93106250e-01
-5.31214062e-08,1.93351563e-01
-5.30814062e-08,1.93278125e-01
-5.30414062e-08,1.93306250e-01
-5.30014062e-08,1.93310938e-01
-5.29614062e-08,1.93259375e-01
-5.29214062e-08,1.93496875e-01
-5.28814062e-08,1.93760938e-01
-5.28414062e-08,1.93665625e-01
-5.28014062e-08,1.93721875e-01
-5.27614062e-08,1.93689063e-01
-5.27214062e-08,1.93701563e-01
-5.26814062e-08,1.93710938e-01
-5.26414062e-08,1.93662500e-01
-5.26014062e-08,1.93893750e-01
-5.25614062e-08,1.94167188e-01
-5.25214062e-08,1.94057813e-01
-5.24814062e-08,1.94131250e-01
-5.24414062e-08,1.94075000e-01
-5.24014062e-08,1.94120313e-01
-5.23614062e-08,1.94082813e-01
-5.23214062e-08,1.94115625e-01
-5.22814062e-08,1.94087500e-01
-5.22414062e-08,1.94110937e-01
-5.22014062e-08,1.94090625e-01
-5.21614062e-08,1.94107813e-01
-5.21214062e-08,1.94093750e-01
-5.20814062e-08,1.94104688e-01
-5.20414062e-08,1.94096875e-01
-5.20014062e-08,1.94100000e-01
-5.19614062e-08,1.94101563e-01
-5.19214062e-08,1.94096875e-01
-5.18814062e-08,1.94106250e-01
-5.18414062e-08,1.94089063e-01
-5.18014062e-08,1.94117188e-01
-5.17614062e-08,1.94071875e-01
-5.17214062e-08,1.94153125e-01
-5.16814062e-08,1.93892188e-01
-5.16414062e-08,1.93646875e-01
-5.16014062e-08,1.93728125e-01
-5.15614062e-08,1.93682812e-01
-5.15214062e-08,1.93709375e-01
-5.14814062e-08,1.93695312e-01
-5.14414062e-08,1.93698438e-01
-5.14014062e-08,1.93709375e-01
-5.13614062e-08,1.93679688e-01
-5.13214062e-08,1.93746875e-01
-5.12814062e-08,1.93498438e-01
-5.12414063e-08,1.93240625e-01
-5.12014062e-08,1.93334375e-01
-5.11614062e-08,1.93278125e-01
-5.11214062e-08,1.93315625e-01
-5.10814062e-08,1.93290625e-01
-5.10414062e-08,1.93303125e-01
-5.10014062e-08,1.93303125e-01
-5.09614063e-08,1.93284375e-01
-5.09214062e-08,1.93340625e-01
-5.08814062e-08,1.93104688e-01
-5.08414062e-08,1.92834375e-01
-5.08014062e-08,1.92940625e-01
-5.07614062e-08,1.92870313e-01
-5.07214062e-08,1.92923438e-01
-5.06814062e-08,1.92881250e-01
-5.06414062e-08,1.92914063e-01
-5.06014062e-08,1.92889063e-01
-5.05614062e-08,1.92906250e-01
-5.05214062e-08,1.92900000e-01
-5.04814062e-08,1.92889063e-01
-5.04414062e-08,1.92935938e-01
-5.04014062e-08,1.92709375e-01
-5.03614062e-08,1.92428125e-01
-5.03214062e-08,1.92546875e-01
-5.02814062e-08,1.92462500e-01
-5.02414062e-08,1.92531250e-01
-5.02014062e-08,1.92471875e-01
-5.01614062e-08,1.92526562e-01
-5.01214062e-08,1.92475000e-01
-5.00814062e-08,1.92523438e-01
-5.00414062e-08,1.92478125e-01
-5.00014062e-08,1.92521875e-01
-4.99614062e-08,1.92479687e-01
-4.99214062e-08,1.92520313e-01
-4.98814062e-08,1.92479687e-01
-4.98414062e-08,1.92520313e-01
-4.98014062e-08,1.92479687e-01
-4.97614062e-08,1.92521875e-01
-4.97214062e-08,1.92478125e-01
-4.96814062e-08,1.92523438e-01
-4.96414062e-08,1.92473438e-01
-4.96014062e-08,1.92531250e-01
-4.95614062e-08,1.92459375e-01
-4.95214062e-08,1.92565625e-01
-4.94814062e-08,1.92281250e-01
-4.94414062e-08,1.92054688e-01
-4.94014062e-08,1.92121875e-01
-4.93614062e-08,1.92087500e-01
-4.93214063e-08,1.92107813e-01
-4.92814062e-08,1.92095313e-01
-4.92414062e-08,1.92103125e-01
-4.92014062e-08,1.92098437e-01
-4.91614062e-08,1.92101563e-01
-4.91214062e-08,1.92100000e-01
-4.90814062e-08,1.92100000e-01
-4.90414063e-08,1.92100000e-01
-4.90014062e-08,1.92100000e-01
-4.89614062e-08,1.92100000e-01
-4.89214062e-08,1.92100000e-01
-4.88814062e-08,1.92100000e-01
-4.88414062e-08,1.92100000e-01
-4.88014062e-08,1.92098437e-01
-4.87614063e-08,1.92101563e-01
-4.87214062e-08,1.92098437e-01
-4.86814062e-08,1.92103125e-01
-4.86414062e-08,1.92095313e-01
-4.86014062e-08,1.92106250e-01
-4.85614062e-08,1.92090625e-01
-4.85214062e-08,1.92114063e-01
-4.84814062e-08,1.92076562e-01
-4.84414062e-08,1.92148438e-01
-4.84014062e-08,1.91898438e-01
-4.83614062e-08,1.91639063e-01
-4.83214062e-08,1.91737500e-01
-4.82814062e-08,1.91671875e-01
-4.82414062e-08,1.91725000e-01
-4.82014062e-08,1.91678125e-01
-4.81614062e-08,1.91720313e-01
-4.81214062e-08,1.91679688e-01
-4.80814062e-08,1.91721875e-01
-4.80414062e-08,1.91676563e-01
-4.80014062e-08,1.91728125e-01
-4.79614062e-08,1.91664063e-01
-4.79214062e-08,1.91760938e-01
-4.78814062e-08,1.91487500e-01
-4.78414062e-08,1.91250000e-01
-4.78014062e-08,1.91326563e-01
-4.77614062e-08,1.91281250e-01
-4.77214062e-08,1.91314062e-01
-4.76814062e-08,1.91287500e-01
-4.76414062e-08,1.91312500e-01
-4.76014062e-08,1.91287500e-01
-4.75614062e-08,1.91314062e-01
-4.75214062e-08,1.91284375e-01
-4.74814062e-08,1.91320313e-01
-4.74414062e-08,1.91270313e-01
-4.74014063e-08,1.91354688e-01
-4.73614062e-08,1.91092188e-01
-4.73214062e-08,1.90843750e-01
-4.72814062e-08,1.90931250e-01
-4.72414062e-08,1.90878125e-01
-4.72014062e-08,1.90917188e-01
-4.71614062e-08,1.90885938e-01
-4.71214063e-08,1.90912500e-01
-4.70814062e-08,1.90889063e-01
-4.70414062e-08,1.90910938e-01
-4.70014062e-08,1.90890625e-01
-4.69614062e-08,1.90909375e-01
-4.69214062e-08,1.90892188e-01
-4.68814062e-08,1.90907812e-01
-4.68414063e-08,1.90892188e-01
-4.68014062e-08,1.90907812e-01
-4.67614062e-08,1.90892188e-01
-4.67214062e-08,1.90906250e-01
-4.66814062e-08,1.90893750e-01
-4.66414062e-08,1.90906250e-01
-4.66014062e-08,1.90893750e-01
-4.65614063e-08,1.90906250e-01
-4.65214062e-08,1.90893750e-01
-4.64814062e-08,1.90906250e-01
-4.64414062e-08,1.90893750e-01
-4.64014062e-08,1.90906250e-01
-4.63614062e-08,1.90893750e-01
-4.63214062e-08,1.90906250e-01
-4.62814062e-08,1.90893750e-01
-4.62414062e-08,1.90906250e-01
-4.62014062e-08,1.90893750e-01
-4.61614062e-08,1.90906250e-01
-4.61214062e-08,1.90893750e-01
-4.60814062e-08,1.90906250e-01
-4.60414062e-08,1.90893750e-01
-4.60014062e-08,1.90906250e-01
-4.59614062e-08,1.90893750e-01
-4.59214062e-08,1.90906250e-01
-4.58814062e-08,1.90893750e-01
-4.58414062e-08,1.90906250e-01
-4.58014062e-08,1.90893750e-01
-4.57614062e-08,1.90906250e-01
-4.57214062e-08,1.90893750e-01
-4.56814062e-08,1.90907812e-01
-4.56414062e-08,1.90892188e-01
-4.56014062e-08,1.90907812e-01
-4.55614062e-08,1.90890625e-01
-4.55214062e-08,1.90909375e-01
-4.54814063e-08,1.90889063e-01
-4.54414062e-08,1.90912500e-01
-4.54014062e-08,1.90885938e-01
-4.53614062e-08,1.90917188e-01
-4.53214062e-08,1.90878125e-01
-4.52814062e-08,1.90931250e-01
-4.52414062e-08,1.90843750e-01
-4.52014063e-08,1.91109375e-01
-4.51614062e-08,1.91353125e-01
-4.51214062e-08,1.91271875e-01
-4.50814062e-08,1.91320313e-01
-4.50414062e-08,1.91285938e-01
-4.50014062e-08,1.91312500e-01
-4.49614062e-08,1.91290625e-01
-4.49214063e-08,1.91307813e-01
-4.48814062e-08,1.91292188e-01
-4.48414062e-08,1.91306250e-01
-4.48014062e-08,1.91293750e-01
-4.47614062e-08,1.91304688e-01
-4.47214062e-08,1.91295313e-01
-4.46814062e-08,1.91304688e-01
-4.46414063e-08,1.91295313e-01
-4.46014062e-08,1.91303125e-01
-4.45614062e-08,1.91296875e-01
-4.45214062e-08,1.91303125e-01
-4.44814062e-08,1.91296875e-01
-4.44414062e-08,1.91303125e-01
-4.44014062e-08,1.91296875e-01
-4.43614063e-08,1.91303125e-01
-4.43214062e-08,1.91296875e-01
-4.42814062e-08,1.91303125e-01
-4.42414062e-08,1.91298438e-01
-4.42014062e-08,1.91301563e-01
-4.41614062e-08,1.91298438e-01
-4.41214062e-08,1.91301563e-01
-4.40814062e-08,1.91298438e-01
-4.40414062e-08,1.91300000e-01
-4.40014062e-08,1.91300000e-01
-4.39614062e-08,1.91298438e-01
-4.39214062e-08,1.91301563e-01
-4.38814062e-08,1.91295313e-01
-4.38414062e-08,1.91306250e-01
-4.38014062e-08,1.91289062e-01
-4.37614062e-08,1.91320313e-01
-4.37214062e-08,1.91254688e-01
-4.36814062e-08,1.91498438e-01
-4.36414062e-08,1.91765625e-01
-4.36014062e-08,1.91657812e-01
-4.35614063e-08,1.91732813e-01
-4.35214062e-08,1.91670312e-01
-4.34814062e-08,1.91728125e-01
-4.34414062e-08,1.91673438e-01
-4.34014062e-08,1.91728125e-01
-4.33614062e-08,1.91670312e-01
-4.33214062e-08,1.91731250e-01
-4.32814063e-08,1.91662500e-01
-4.32414062e-08,1.91746875e-01
-4.32014062e-08,1.91628125e-01
-4.31614062e-08,1.91926563e-01
-4.31214062e-08,1.92135938e-01
-4.30814062e-08,1.92090625e-01
-4.30414062e-08,1.92098437e-01
-4.30014063e-08,1.92109375e-01
-4.29614062e-08,1.92081250e-01
-4.29214062e-08,1.92131250e-01
-4.28814062e-08,1.92042188e-01
-4.28414062e-08,1.92312500e-01
-4.28014062e-08,1.92548438e-01
-4.27614062e-08,1.92478125e-01
-4.27214063e-08,1.92509375e-01
-4.26814062e-08,1.92498438e-01
-4.26414062e-08,1.92493750e-01
-4.26014062e-08,1.92518750e-01
-4.25614062e-08,1.92454687e-01
-4.25214062e-08,1.92700000e-01
-4.24814062e-08,1.92960938e-01
-4.24414063e-08,1.92864063e-01
-4.24014062e-08,1.92926563e-01
-4.23614062e-08,1.92879688e-01
-4.23214062e-08,1.92917188e-01
-4.22814062e-08,1.92885937e-01
-4.22414062e-08,1.92912500e-01
-4.22014062e-08,1.92889063e-01
-4.21614062e-08,1.92909375e-01
-4.21214062e-08,1.92890625e-01
-4.20814062e-08,1.92907812e-01
-4.20414062e-08,1.92892188e-01
-4.20014062e-08,1.92906250e-01
-4.19614062e-08,1.92893750e-01
-4.19214062e-08,1.92904688e-01
-4.18814062e-08,1.92895312e-01
-4.18414062e-08,1.92904688e-01
-4.18014062e-08,1.92895312e-01
-4.17614062e-08,1.92903125e-01
-4.17214062e-08,1.92896875e-01
-4.16814062e-08,1.92903125e-01
-4.16414063e-08,1.92896875e-01
-4.16014062e-08,1.92901563e-01
-4.15614062e-08,1.92898438e-01
-4.15214062e-08,1.92901563e-01
-4.14814062e-08,1.92898438e-01
-4.14414062e-08,1.92900000e-01
-4.14014062e-08,1.92900000e-01
-4.13614063e-08,1.92900000e-01
-4.13214062e-08,1.92901563e-01
-4.12814062e-08,1.92898438e-01
-4.12414062e-08,1.92903125e-01
-4.12014062e-08,1.92896875e-01
-4.11614062e-08,1.92904688e-01
-4.11214062e-08,1.92893750e-01
-4.10814063e-08,1.92907812e-01
-4.10414062e-08,1.92889063e-01
-4.10014062e-08,1.92915625e-01
-4.09614062e-08,1.92875000e-01
-4.09214062e-08,1.92950000e-01
-4.08814062e-08,1.92696875e-01
-4.08414062e-08,1.92440625e-01
-4.08014063e-08,1.92535938e-01
-4.07614062e-08,1.92473438e-01
-4.07214062e-08,1.92521875e-01
-4.06814062e-08,1.92481250e-01
-4.06414062e-08,1.92518750e-01
-4.06014062e-08,1.92482813e-01
-4.05614062e-08,1.92518750e-01
-4.05214063e-08,1.92481250e-01
-4.04814062e-08,1.92521875e-01
-4.04414062e-08,1.92475000e-01
-4.04014062e-08,1.92534375e-01
-4.03614062e-08,1.92440625e-01
-4.03214062e-08,1.92712500e-01
-4.02814062e-08,1.92951563e-01
-4.02414063e-08,1.92871875e-01
-4.02014062e-08,1.92918750e-01
-4.01614062e-08,1.92885937e-01
-4.01214062e-08,1.92910938e-01
-4.00814062e-08,1.92890625e-01
-4.00414062e-08,1.92907812e-01
-4.00014062e-08,1.92892188e-01
-3.99614062e-08,1.92906250e-01
-3.99214062e-08,1.92893750e-01
-3.98814062e-08,1.92906250e-01
-3.98414062e-08,1.92893750e-01
-3.98014062e-08,1.92906250e-01
-3.97614062e-08,1.92893750e-01
-3.97214063e-08,1.92906250e-01
-3.96814062e-08,1.92893750e-01
-3.96414062e-08,1.92906250e-01
-3.96014062e-08,1.92893750e-01
-3.95614062e-08,1.92906250e-01
-3.95214062e-08,1.92893750e-01
-3.94814062e-08,1.92907812e-01
-3.94414063e-08,1.92892188e-01
-3.94014062e-08,1.92907812e-01
-3.93614062e-08,1.92892188e-01
-3.93214062e-08,1.92909375e-01
-3.92814062e-08,1.92889063e-01
-3.92414062e-08,1.92910938e-01
-3.92014062e-08,1.92887500e-01
-3.91614063e-08,1.92915625e-01
-3.91214062e-08,1.92881250e-01
-3.90814062e-08,1.92923438e-01
-3.90414062e-08,1.92867188e-01
-3.90014062e-08,1.92957812e-01
-3.89614062e-08,1.92689063e-01
-3.89214062e-08,1.92448438e-01
-3.88814063e-08,1.92526562e-01
-3.88414062e-08,1.92482813e-01
-3.88014062e-08,1.92512500e-01
-3.87614062e-08,1.92490625e-01
-3.87214062e-08,1.92507813e-01
-3.86814062e-08,1.92493750e-01
-3.86414062e-08,1.92504687e-01
-3.86014063e-08,1.92496875e-01
-3.85614062e-08,1.92503125e-01
-3.85214062e-08,1.92498438e-01
