trails/0bbf0cf1bfcc3246d9e376b62f80622a/aes_ch1_20250507113108665.csv

Model,MSO66B
Label,
Waveform Type,ANALOG
Horizontal Units,s
Sample Interval,4.00000000e-11
Record Length,10000
Zero Index,1599.11718750
Vertical Units,A
ANALOG_Thumbnail,
yOffset,1.84500000e-01
yPosition,8.40000000e-01

Labels,
TIME,CH1
-6.39646875e-08,1.86500000e-01
-6.39246875e-08,1.86498438e-01
-6.38846875e-08,1.86503125e-01
-6.38446875e-08,1.86493750e-01
-6.38046875e-08,1.86509375e-01
-6.37646875e-08,1.86487500e-01
-6.37246875e-08,1.86518750e-01
-6.36846875e-08,1.86471875e-01
-6.36446875e-08,1.86553125e-01
-6.36046875e-08,1.86292188e-01
-6.35646875e-08,1.86045313e-01
-6.35246875e-08,1.86129688e-01
-6.34846875e-08,1.86079688e-01
-6.34446875e-08,1.86115625e-01
-6.34046875e-08,1.86089063e-01
-6.33646875e-08,1.86109375e-01
-6.33246875e-08,1.86092188e-01
-6.32846875e-08,1.86106250e-01
-6.32446875e-08,1.86095312e-01
-6.32046875e-08,1.86103125e-01
-6.31646875e-08,1.86098438e-01
-6.31246875e-08,1.86100000e-01
-6.30846875e-08,1.86100000e-01
-6.30446875e-08,1.86098438e-01
-6.30046875e-08,1.86103125e-01
-6.29646875e-08,1.86095312e-01
-6.29246875e-08,1.86106250e-01
-6.28846875e-08,1.86090625e-01
-6.28446875e-08,1.86112500e-01
-6.28046875e-08,1.86081250e-01
-6.27646875e-08,1.86128125e-01
-6.27246875e-08,1.86045313e-01
-6.26846875e-08,1.86307813e-01
-6.26446875e-08,1.86553125e-01
-6.26046875e-08,1.86470313e-01
-6.25646875e-08,1.86518750e-01
-6.25246875e-08,1.86487500e-01
-6.24846875e-08,1.86507813e-01
-6.24446875e-08,1.86495313e-01
-6.24046875e-08,1.86501562e-01
-6.23646875e-08,1.86503125e-01
-6.23246875e-08,1.86490625e-01
-6.22846875e-08,1.86520313e-01
-6.22446875e-08,1.86454687e-01
-6.22046875e-08,1.86698438e-01
-6.21646875e-08,1.86962500e-01
-6.21246875e-08,1.86860938e-01
-6.20846875e-08,1.86928125e-01
-6.20446875e-08,1.86876563e-01
-6.20046875e-08,1.86920313e-01
-6.19646875e-08,1.86882812e-01
-6.19246875e-08,1.86915625e-01
-6.18846875e-08,1.86885938e-01
-6.18446875e-08,1.86914063e-01
-6.18046875e-08,1.86887500e-01
-6.17646875e-08,1.86912500e-01
-6.17246875e-08,1.86889063e-01
-6.16846875e-08,1.86910938e-01
-6.16446875e-08,1.86890625e-01
-6.16046875e-08,1.86909375e-01
-6.15646875e-08,1.86890625e-01
-6.15246875e-08,1.86909375e-01
-6.14846875e-08,1.86892188e-01
-6.14446875e-08,1.86907812e-01
-6.14046875e-08,1.86892188e-01
-6.13646875e-08,1.86907812e-01
-6.13246875e-08,1.86893750e-01
-6.12846875e-08,1.86906250e-01
-6.12446875e-08,1.86893750e-01
-6.12046875e-08,1.86906250e-01
-6.11646875e-08,1.86895313e-01
-6.11246875e-08,1.86904687e-01
-6.10846875e-08,1.86895313e-01
-6.10446875e-08,1.86903125e-01
-6.10046875e-08,1.86896875e-01
-6.09646875e-08,1.86901563e-01
-6.09246875e-08,1.86898438e-01
-6.08846875e-08,1.86900000e-01
-6.08446875e-08,1.86903125e-01
-6.08046875e-08,1.86895313e-01
-6.07646875e-08,1.86910938e-01
-6.07246875e-08,1.86879688e-01
-6.06846875e-08,1.86945313e-01
-6.06446875e-08,1.86703125e-01
-6.06046875e-08,1.86434375e-01
-6.05646875e-08,1.86540625e-01
-6.05246875e-08,1.86467188e-01
-6.04846875e-08,1.86528125e-01
-6.04446875e-08,1.86475000e-01
-6.04046875e-08,1.86523438e-01
-6.03646875e-08,1.86476562e-01
-6.03246875e-08,1.86523438e-01
-6.02846875e-08,1.86476562e-01
-6.02446875e-08,1.86525000e-01
-6.02046875e-08,1.86471875e-01
-6.01646875e-08,1.86532813e-01
-6.01246875e-08,1.86457813e-01
-6.00846875e-08,1.86565625e-01
-6.00446875e-08,1.86281250e-01
-6.00046875e-08,1.86056250e-01
-5.99646875e-08,1.86120312e-01
-5.99246875e-08,1.86089063e-01
-5.98846875e-08,1.86106250e-01
-5.98446875e-08,1.86096875e-01
-5.98046875e-08,1.86101563e-01
-5.97646875e-08,1.86100000e-01
-5.97246875e-08,1.86098438e-01
-5.96846875e-08,1.86101563e-01
-5.96446875e-08,1.86096875e-01
-5.96046875e-08,1.86103125e-01
-5.95646875e-08,1.86096875e-01
-5.95246875e-08,1.86104688e-01
-5.94846875e-08,1.86095312e-01
-5.94446875e-08,1.86104688e-01
-5.94046875e-08,1.86095312e-01
-5.93646875e-08,1.86104688e-01
-5.93246875e-08,1.86095312e-01
-5.92846875e-08,1.86106250e-01
-5.92446875e-08,1.86093750e-01
-5.92046875e-08,1.86106250e-01
-5.91646875e-08,1.86093750e-01
-5.91246875e-08,1.86106250e-01
-5.90846875e-08,1.86093750e-01
-5.90446875e-08,1.86107812e-01
-5.90046875e-08,1.86092188e-01
-5.89646875e-08,1.86107812e-01
-5.89246875e-08,1.86092188e-01
-5.88846875e-08,1.86107812e-01
-5.88446875e-08,1.86090625e-01
-5.88046875e-08,1.86109375e-01
-5.87646875e-08,1.86090625e-01
-5.87246875e-08,1.86110938e-01
-5.86846875e-08,1.86087500e-01
-5.86446875e-08,1.86112500e-01
-5.86046875e-08,1.86085938e-01
-5.85646875e-08,1.86117188e-01
-5.85246875e-08,1.86079688e-01
-5.84846875e-08,1.86125000e-01
-5.84446875e-08,1.86065625e-01
-5.84046875e-08,1.86159375e-01
-5.83646875e-08,1.85887500e-01
-5.83246875e-08,1.85651563e-01
-5.82846875e-08,1.85725000e-01
-5.82446875e-08,1.85684375e-01
-5.82046875e-08,1.85710938e-01
-5.81646875e-08,1.85692187e-01
-5.81246875e-08,1.85704688e-01
-5.80846875e-08,1.85696875e-01
-5.80446875e-08,1.85701563e-01
-5.80046875e-08,1.85698438e-01
-5.79646875e-08,1.85700000e-01
-5.79246875e-08,1.85700000e-01
-5.78846875e-08,1.85698438e-01
-5.78446875e-08,1.85701563e-01
-5.78046875e-08,1.85696875e-01
-5.77646875e-08,1.85703125e-01
-5.77246875e-08,1.85696875e-01
-5.76846875e-08,1.85704688e-01
-5.76446875e-08,1.85693750e-01
-5.76046875e-08,1.85706250e-01
-5.75646875e-08,1.85692187e-01
-5.75246875e-08,1.85709375e-01
-5.74846875e-08,1.85689063e-01
-5.74446875e-08,1.85712500e-01
-5.74046875e-08,1.85684375e-01
-5.73646875e-08,1.85721875e-01
-5.73246875e-08,1.85668750e-01
-5.72846875e-08,1.85756250e-01
-5.72446875e-08,1.85490625e-01
-5.72046875e-08,1.85248438e-01
-5.71646875e-08,1.85328125e-01
-5.71246875e-08,1.85281250e-01
-5.70846875e-08,1.85312500e-01
-5.70446875e-08,1.85290625e-01
-5.70046875e-08,1.85306250e-01
-5.69646875e-08,1.85295313e-01
-5.69246875e-08,1.85301563e-01
-5.68846875e-08,1.85300000e-01
-5.68446875e-08,1.85296875e-01
-5.68046875e-08,1.85306250e-01
-5.67646875e-08,1.85287500e-01
-5.67246875e-08,1.85321875e-01
-5.66846875e-08,1.85253125e-01
-5.66446875e-08,1.85500000e-01
-5.66046875e-08,1.85762500e-01
-5.65646875e-08,1.85660938e-01
-5.65246875e-08,1.85729688e-01
-5.64846875e-08,1.85675000e-01
-5.64446875e-08,1.85721875e-01
-5.64046875e-08,1.85679687e-01
-5.63646875e-08,1.85720313e-01
-5.63246875e-08,1.85679687e-01
-5.62846875e-08,1.85720313e-01
-5.62446875e-08,1.85678125e-01
-5.62046875e-08,1.85723438e-01
-5.61646875e-08,1.85671875e-01
-5.61246875e-08,1.85737500e-01
-5.60846875e-08,1.85637500e-01
-5.60446875e-08,1.85914063e-01
-5.60046875e-08,1.86148438e-01
-5.59646875e-08,1.86075000e-01
-5.59246875e-08,1.86115625e-01
-5.58846875e-08,1.86089063e-01
-5.58446875e-08,1.86107812e-01
-5.58046875e-08,1.86093750e-01
-5.57646875e-08,1.86104688e-01
-5.57246875e-08,1.86096875e-01
-5.56846875e-08,1.86103125e-01
-5.56446875e-08,1.86098438e-01
-5.56046875e-08,1.86101563e-01
-5.55646875e-08,1.86098438e-01
-5.55246875e-08,1.86101563e-01
-5.54846875e-08,1.86098438e-01
-5.54446875e-08,1.86100000e-01
-5.54046875e-08,1.86100000e-01
-5.53646875e-08,1.86100000e-01
-5.53246875e-08,1.86100000e-01
-5.52846875e-08,1.86100000e-01
-5.52446875e-08,1.86100000e-01
-5.52046875e-08,1.86100000e-01
-5.51646875e-08,1.86100000e-01
-5.51246875e-08,1.86100000e-01
-5.50846875e-08,1.86100000e-01
-5.50446875e-08,1.86100000e-01
-5.50046875e-08,1.86100000e-01
-5.49646875e-08,1.86100000e-01
-5.49246875e-08,1.86100000e-01
-5.48846875e-08,1.86100000e-01
-5.48446875e-08,1.86100000e-01
-5.48046875e-08,1.86100000e-01
-5.47646875e-08,1.86100000e-01
-5.47246875e-08,1.86100000e-01
-5.46846875e-08,1.86100000e-01
-5.46446875e-08,1.86100000e-01
-5.46046875e-08,1.86100000e-01
-5.45646875e-08,1.86100000e-01
-5.45246875e-08,1.86100000e-01
-5.44846875e-08,1.86100000e-01
-5.44446875e-08,1.86100000e-01
-5.44046875e-08,1.86100000e-01
-5.43646875e-08,1.86098438e-01
-5.43246875e-08,1.86101563e-01
-5.42846875e-08,1.86098438e-01
-5.42446875e-08,1.86101563e-01
-5.42046875e-08,1.86096875e-01
-5.41646875e-08,1.86104688e-01
-5.41246875e-08,1.86093750e-01
-5.40846875e-08,1.86107812e-01
-5.40446875e-08,1.86087500e-01
-5.40046875e-08,1.86121875e-01
-5.39646875e-08,1.86053125e-01
-5.39246875e-08,1.86298437e-01
-5.38846875e-08,1.86564063e-01
-5.38446875e-08,1.86459375e-01
-5.38046875e-08,1.86532813e-01
-5.37646875e-08,1.86470313e-01
-5.37246875e-08,1.86528125e-01
-5.36846875e-08,1.86470313e-01
-5.36446875e-08,1.86531250e-01
-5.36046875e-08,1.86464062e-01
-5.35646875e-08,1.86545313e-01
-5.35246875e-08,1.86429687e-01
-5.34846875e-08,1.86723438e-01
-5.34446875e-08,1.86937500e-01
-5.34046875e-08,1.86887500e-01
-5.33646875e-08,1.86901563e-01
-5.33246875e-08,1.86907812e-01
-5.32846875e-08,1.86884375e-01
-5.32446875e-08,1.86928125e-01
-5.32046875e-08,1.86845312e-01
-5.31646875e-08,1.87109375e-01
-5.31246875e-08,1.87351563e-01
-5.30846875e-08,1.87275000e-01
-5.30446875e-08,1.87314063e-01
-5.30046875e-08,1.87295313e-01
-5.29646875e-08,1.87296875e-01
-5.29246875e-08,1.87315625e-01
-5.28846875e-08,1.87257813e-01
-5.28446875e-08,1.87495313e-01
-5.28046875e-08,1.87765625e-01
-5.27646875e-08,1.87659375e-01
-5.27246875e-08,1.87731250e-01
-5.26846875e-08,1.87675000e-01
-5.26446875e-08,1.87721875e-01
-5.26046875e-08,1.87681250e-01
-5.25646875e-08,1.87717187e-01
-5.25246875e-08,1.87684375e-01
-5.24846875e-08,1.87715625e-01
-5.24446875e-08,1.87685938e-01
-5.24046875e-08,1.87714063e-01
-5.23646875e-08,1.87685938e-01
-5.23246875e-08,1.87712500e-01
-5.22846875e-08,1.87687500e-01
-5.22446875e-08,1.87712500e-01
-5.22046875e-08,1.87687500e-01
-5.21646875e-08,1.87712500e-01
-5.21246875e-08,1.87687500e-01
-5.20846875e-08,1.87712500e-01
-5.20446875e-08,1.87687500e-01
-5.20046875e-08,1.87712500e-01
-5.19646875e-08,1.87687500e-01
-5.19246875e-08,1.87714063e-01
-5.18846875e-08,1.87684375e-01
-5.18446875e-08,1.87717187e-01
-5.18046875e-08,1.87681250e-01
-5.17646875e-08,1.87723438e-01
-5.17246875e-08,1.87667187e-01
-5.16846875e-08,1.87756250e-01
-5.16446875e-08,1.87490625e-01
-5.16046875e-08,1.87245313e-01
-5.15646875e-08,1.87332813e-01
-5.15246875e-08,1.87273438e-01
-5.14846875e-08,1.87325000e-01
-5.14446875e-08,1.87268750e-01
-5.14046875e-08,1.87353125e-01
-5.13646875e-08,1.87095312e-01
-5.13246875e-08,1.86840625e-01
-5.12846875e-08,1.86939063e-01
-5.12446875e-08,1.86867188e-01
-5.12046875e-08,1.86932813e-01
-5.11646875e-08,1.86860938e-01
-5.11246875e-08,1.86962500e-01
-5.10846875e-08,1.86687500e-01
-5.10446875e-08,1.86448438e-01
-5.10046875e-08,1.86529688e-01
-5.09646875e-08,1.86476562e-01
-5.09246875e-08,1.86523438e-01
-5.08846875e-08,1.86470313e-01
-5.08446875e-08,1.86553125e-01
-5.08046875e-08,1.86296875e-01
-5.07646875e-08,1.86039063e-01
-5.07246875e-08,1.86139063e-01
-5.06846875e-08,1.86068750e-01
-5.06446875e-08,1.86128125e-01
-5.06046875e-08,1.86070313e-01
-5.05646875e-08,1.86132812e-01
-5.05246875e-08,1.86059375e-01
-5.04846875e-08,1.86165625e-01
-5.04446875e-08,1.85881250e-01
-5.04046875e-08,1.85654687e-01
-5.03646875e-08,1.85721875e-01
-5.03246875e-08,1.85687500e-01
-5.02846875e-08,1.85707813e-01
-5.02446875e-08,1.85695313e-01
-5.02046875e-08,1.85701563e-01
-5.01646875e-08,1.85700000e-01
-5.01246875e-08,1.85700000e-01
-5.00846875e-08,1.85701563e-01
-5.00446875e-08,1.85698438e-01
-5.00046875e-08,1.85703125e-01
-4.99646875e-08,1.85696875e-01
-4.99246875e-08,1.85704688e-01
-4.98846875e-08,1.85695313e-01
-4.98446875e-08,1.85706250e-01
-4.98046875e-08,1.85692187e-01
-4.97646875e-08,1.85707813e-01
-4.97246875e-08,1.85690625e-01
-4.96846875e-08,1.85710938e-01
-4.96446875e-08,1.85685938e-01
-4.96046875e-08,1.85717188e-01
-4.95646875e-08,1.85678125e-01
-4.95246875e-08,1.85732813e-01
-4.94846875e-08,1.85642187e-01
-4.94446875e-08,1.85910938e-01
-4.94046875e-08,1.86151563e-01
-4.93646875e-08,1.86073437e-01
-4.93246875e-08,1.86117188e-01
-4.92846875e-08,1.86089063e-01
-4.92446875e-08,1.86107812e-01
-4.92046875e-08,1.86095312e-01
-4.91646875e-08,1.86103125e-01
-4.91246875e-08,1.86100000e-01
-4.90846875e-08,1.86096875e-01
-4.90446875e-08,1.86106250e-01
-4.90046875e-08,1.86089063e-01
-4.89646875e-08,1.86121875e-01
-4.89246875e-08,1.86053125e-01
-4.88846875e-08,1.86300000e-01
-4.88446875e-08,1.86562500e-01
-4.88046875e-08,1.86460938e-01
-4.87646875e-08,1.86529688e-01
-4.87246875e-08,1.86475000e-01
-4.86846875e-08,1.86521875e-01
-4.86446875e-08,1.86479688e-01
-4.86046875e-08,1.86520313e-01
-4.85646875e-08,1.86479688e-01
-4.85246875e-08,1.86520313e-01
-4.84846875e-08,1.86478125e-01
-4.84446875e-08,1.86525000e-01
-4.84046875e-08,1.86470313e-01
-4.83646875e-08,1.86539063e-01
-4.83246875e-08,1.86435938e-01
-4.82846875e-08,1.86715625e-01
-4.82446875e-08,1.86945313e-01
-4.82046875e-08,1.86878125e-01
-4.81646875e-08,1.86912500e-01
-4.81246875e-08,1.86892188e-01
-4.80846875e-08,1.86904687e-01
-4.80446875e-08,1.86898438e-01
-4.80046875e-08,1.86900000e-01
-4.79646875e-08,1.86901563e-01
-4.79246875e-08,1.86896875e-01
-4.78846875e-08,1.86906250e-01
-4.78446875e-08,1.86892188e-01
-4.78046875e-08,1.86910938e-01
-4.77646875e-08,1.86882812e-01
-4.77246875e-08,1.86926563e-01
-4.76846875e-08,1.86848438e-01
-4.76446875e-08,1.87104688e-01
-4.76046875e-08,1.87357812e-01
-4.75646875e-08,1.87267188e-01
-4.75246875e-08,1.87323437e-01
-4.74846875e-08,1.87281250e-01
-4.74446875e-08,1.87315625e-01
-4.74046875e-08,1.87285937e-01
-4.73646875e-08,1.87312500e-01
-4.73246875e-08,1.87289063e-01
-4.72846875e-08,1.87309375e-01
-4.72446875e-08,1.87290625e-01
-4.72046875e-08,1.87309375e-01
-4.71646875e-08,1.87292188e-01
-4.71246875e-08,1.87307813e-01
-4.70846875e-08,1.87292188e-01
-4.70446875e-08,1.87307813e-01
-4.70046875e-08,1.87293750e-01
-4.69646875e-08,1.87306250e-01
-4.69246875e-08,1.87293750e-01
-4.68846875e-08,1.87306250e-01
-4.68446875e-08,1.87293750e-01
-4.68046875e-08,1.87306250e-01
-4.67646875e-08,1.87293750e-01
-4.67246875e-08,1.87304688e-01
-4.66846875e-08,1.87295313e-01
-4.66446875e-08,1.87304688e-01
-4.66046875e-08,1.87295313e-01
-4.65646875e-08,1.87304688e-01
-4.65246875e-08,1.87295313e-01
-4.64846875e-08,1.87304688e-01
-4.64446875e-08,1.87295313e-01
-4.64046875e-08,1.87303125e-01
-4.63646875e-08,1.87296875e-01
-4.63246875e-08,1.87301563e-01
-4.62846875e-08,1.87298437e-01
-4.62446875e-08,1.87300000e-01
-4.62046875e-08,1.87301563e-01
-4.61646875e-08,1.87295313e-01
-4.61246875e-08,1.87309375e-01
-4.60846875e-08,1.87281250e-01
-4.60446875e-08,1.87342188e-01
-4.60046875e-08,1.87104688e-01
-4.59646875e-08,1.86831250e-01
-4.59246875e-08,1.86945313e-01
-4.58846875e-08,1.86862500e-01
-4.58446875e-08,1.86932813e-01
-4.58046875e-08,1.86868750e-01
-4.57646875e-08,1.86931250e-01
-4.57246875e-08,1.86865625e-01
-4.56846875e-08,1.86937500e-01
-4.56446875e-08,1.86853125e-01
-4.56046875e-08,1.86971875e-01
-4.55646875e-08,1.86675000e-01
-4.55246875e-08,1.86462500e-01
-4.54846875e-08,1.86512500e-01
-4.54446875e-08,1.86496875e-01
-4.54046875e-08,1.86498438e-01
-4.53646875e-08,1.86506250e-01
-4.53246875e-08,1.86492188e-01
-4.52846875e-08,1.86510938e-01
-4.52446875e-08,1.86485938e-01
-4.52046875e-08,1.86517188e-01
-4.51646875e-08,1.86478125e-01
-4.51246875e-08,1.86526562e-01
-4.50846875e-08,1.86462500e-01
-4.50446875e-08,1.86564063e-01
-4.50046875e-08,1.86282813e-01
-4.49646875e-08,1.86056250e-01
-4.49246875e-08,1.86118750e-01
-4.48846875e-08,1.86093750e-01
-4.48446875e-08,1.86100000e-01
-4.48046875e-08,1.86106250e-01
-4.47646875e-08,1.86085938e-01
-4.47246875e-08,1.86125000e-01
-4.46846875e-08,1.86048437e-01
-4.46446875e-08,1.86306250e-01
-4.46046875e-08,1.86554688e-01
-4.45646875e-08,1.86470313e-01
-4.45246875e-08,1.86520313e-01
-4.44846875e-08,1.86485938e-01
-4.44446875e-08,1.86510938e-01
-4.44046875e-08,1.86492188e-01
-4.43646875e-08,1.86504688e-01
-4.43246875e-08,1.86496875e-01
-4.42846875e-08,1.86500000e-01
-4.42446875e-08,1.86501562e-01
-4.42046875e-08,1.86495313e-01
-4.41646875e-08,1.86509375e-01
-4.41246875e-08,1.86485938e-01
-4.40846875e-08,1.86525000e-01
-4.40446875e-08,1.86450000e-01
-4.40046875e-08,1.86703125e-01
-4.39646875e-08,1.86957813e-01
-4.39246875e-08,1.86865625e-01
-4.38846875e-08,1.86925000e-01
-4.38446875e-08,1.86881250e-01
-4.38046875e-08,1.86915625e-01
-4.37646875e-08,1.86885938e-01
-4.37246875e-08,1.86912500e-01
-4.36846875e-08,1.86889063e-01
-4.36446875e-08,1.86909375e-01
-4.36046875e-08,1.86890625e-01
-4.35646875e-08,1.86907812e-01
-4.35246875e-08,1.86892188e-01
-4.34846875e-08,1.86907812e-01
-4.34446875e-08,1.86893750e-01
-4.34046875e-08,1.86906250e-01
-4.33646875e-08,1.86893750e-01
-4.33246875e-08,1.86904687e-01
-4.32846875e-08,1.86895313e-01
-4.32446875e-08,1.86904687e-01
-4.32046875e-08,1.86895313e-01
-4.31646875e-08,1.86904687e-01
-4.31246875e-08,1.86895313e-01
-4.30846875e-08,1.86903125e-01
-4.30446875e-08,1.86896875e-01
-4.30046875e-08,1.86903125e-01
-4.29646875e-08,1.86896875e-01
-4.29246875e-08,1.86903125e-01
-4.28846875e-08,1.86896875e-01
-4.28446875e-08,1.86903125e-01
-4.28046875e-08,1.86896875e-01
-4.27646875e-08,1.86903125e-01
-4.27246875e-08,1.86896875e-01
-4.26846875e-08,1.86901563e-01
-4.26446875e-08,1.86898438e-01
-4.26046875e-08,1.86901563e-01
-4.25646875e-08,1.86898438e-01
-4.25246875e-08,1.86901563e-01
-4.24846875e-08,1.86898438e-01
-4.24446875e-08,1.86901563e-01
-4.24046875e-08,1.86898438e-01
-4.23646875e-08,1.86901563e-01
-4.23246875e-08,1.86898438e-01
-4.22846875e-08,1.86901563e-01
-4.22446875e-08,1.86898438e-01
-4.22046875e-08,1.86901563e-01
-4.21646875e-08,1.86900000e-01
-4.21246875e-08,1.86900000e-01
-4.20846875e-08,1.86900000e-01
-4.20446875e-08,1.86900000e-01
-4.20046875e-08,1.86900000e-01
-4.19646875e-08,1.86900000e-01
-4.19246875e-08,1.86900000e-01
-4.18846875e-08,1.86900000e-01
-4.18446875e-08,1.86900000e-01
-4.18046875e-08,1.86900000e-01
-4.17646875e-08,1.86900000e-01
-4.17246875e-08,1.86900000e-01
-4.16846875e-08,1.86900000e-01
-4.16446875e-08,1.86900000e-01
-4.16046875e-08,1.86900000e-01
-4.15646875e-08,1.86898438e-01
-4.15246875e-08,1.86901563e-01
-4.14846875e-08,1.86898438e-01
-4.14446875e-08,1.86901563e-01
-4.14046875e-08,1.86898438e-01
-4.13646875e-08,1.86901563e-01
-4.13246875e-08,1.86898438e-01
-4.12846875e-08,1.86901563e-01
-4.12446875e-08,1.86898438e-01
-4.12046875e-08,1.86903125e-01
-4.11646875e-08,1.86896875e-01
-4.11246875e-08,1.86903125e-01
-4.10846875e-08,1.86896875e-01
-4.10446875e-08,1.86903125e-01
-4.10046875e-08,1.86896875e-01
-4.09646875e-08,1.86904687e-01
-4.09246875e-08,1.86895313e-01
-4.08846875e-08,1.86904687e-01
-4.08446875e-08,1.86893750e-01
-4.08046875e-08,1.86906250e-01
-4.07646875e-08,1.86892188e-01
-4.07246875e-08,1.86909375e-01
-4.06846875e-08,1.86889063e-01
-4.06446875e-08,1.86912500e-01
-4.06046875e-08,1.86884375e-01
-4.05646875e-08,1.86920313e-01
-4.05246875e-08,1.86870312e-01
-4.04846875e-08,1.86954687e-01
-4.04446875e-08,1.86692187e-01
-4.04046875e-08,1.86446875e-01
-4.03646875e-08,1.86529688e-01
-4.03246875e-08,1.86479688e-01
-4.02846875e-08,1.86515625e-01
-4.02446875e-08,1.86487500e-01
-4.02046875e-08,1.86510938e-01
-4.01646875e-08,1.86490625e-01
-4.01246875e-08,1.86507813e-01
-4.00846875e-08,1.86493750e-01
-4.00446875e-08,1.86506250e-01
-4.00046875e-08,1.86495313e-01
-3.99646875e-08,1.86504688e-01
-3.99246875e-08,1.86495313e-01
-3.98846875e-08,1.86503125e-01
-3.98446875e-08,1.86496875e-01
-3.98046875e-08,1.86503125e-01
-3.97646875e-08,1.86496875e-01
-3.97246875e-08,1.86503125e-01
-3.96846875e-08,1.86498438e-01
-3.96446875e-08,1.86501562e-01
-3.96046875e-08,1.86498438e-01
-3.95646875e-08,1.86501562e-01
-3.95246875e-08,1.86498438e-01
-3.94846875e-08,1.86501562e-01
-3.94446875e-08,1.86500000e-01
-3.94046875e-08,1.86500000e-01
-3.93646875e-08,1.86500000e-01
-3.93246875e-08,1.86500000e-01
-3.92846875e-08,1.86500000e-01
-3.92446875e-08,1.86500000e-01
-3.92046875e-08,1.86500000e-01
-3.91646875e-08,1.86498438e-01
-3.91246875e-08,1.86501562e-01
-3.90846875e-08,1.86498438e-01
-3.90446875e-08,1.86501562e-01
-3.90046875e-08,1.86496875e-01
-3.89646875e-08,1.86503125e-01
-3.89246875e-08,1.86496875e-01
-3.88846875e-08,1.86504688e-01
-3.88446875e-08,1.86495313e-01
-3.88046875e-08,1.86506250e-01
-3.87646875e-08,1.86493750e-01
-3.87246875e-08,1.86507813e-01
-3.86846875e-08,1.86489062e-01
-3.86446875e-08,1.86514062e-01
-3.86046875e-08,1.86481250e-01
-3.85646875e-08,1.86528125e-01
-3.85246875e-08,1.86446875e-01
