trails/0bbf0cf1bfcc3246d9e376b62f80622a/aes_ch1_20250507113053178.csv

Model,MSO66B
Label,
Waveform Type,ANALOG
Horizontal Units,s
Sample Interval,4.00000000e-11
Record Length,10000
Zero Index,1599.16015625
Vertical Units,A
ANALOG_Thumbnail,
yOffset,1.84500000e-01
yPosition,8.40000000e-01

Labels,
TIME,CH1
-6.39664062e-08,1.84493750e-01
-6.39264062e-08,1.84506250e-01
-6.38864062e-08,1.84493750e-01
-6.38464062e-08,1.84507813e-01
-6.38064063e-08,1.84492188e-01
-6.37664062e-08,1.84509375e-01
-6.37264063e-08,1.84489062e-01
-6.36864062e-08,1.84512500e-01
-6.36464062e-08,1.84485938e-01
-6.36064062e-08,1.84517188e-01
-6.35664062e-08,1.84476562e-01
-6.35264063e-08,1.84532813e-01
-6.34864062e-08,1.84442188e-01
-6.34464063e-08,1.84710938e-01
-6.34064062e-08,1.84950000e-01
-6.33664062e-08,1.84875000e-01
-6.33264062e-08,1.84915625e-01
-6.32864062e-08,1.84892187e-01
-6.32464063e-08,1.84903125e-01
-6.32064062e-08,1.84901563e-01
-6.31664063e-08,1.84892187e-01
-6.31264062e-08,1.84918750e-01
-6.30864062e-08,1.84856250e-01
-6.30464062e-08,1.85096875e-01
-6.30064062e-08,1.85365625e-01
-6.29664063e-08,1.85257813e-01
-6.29264062e-08,1.85332812e-01
-6.28864063e-08,1.85270313e-01
-6.28464062e-08,1.85329688e-01
-6.28064062e-08,1.85268750e-01
-6.27664062e-08,1.85339063e-01
-6.27264062e-08,1.85239062e-01
-6.26864063e-08,1.85512500e-01
-6.26464062e-08,1.85751562e-01
-6.26064062e-08,1.85670313e-01
-6.25664062e-08,1.85721875e-01
-6.25264062e-08,1.85679687e-01
-6.24864062e-08,1.85720313e-01
-6.24464062e-08,1.85675000e-01
-6.24064063e-08,1.85732813e-01
-6.23664062e-08,1.85642187e-01
-6.23264062e-08,1.85910938e-01
-6.22864062e-08,1.86151563e-01
-6.22464062e-08,1.86073437e-01
-6.22064062e-08,1.86115625e-01
-6.21664062e-08,1.86089063e-01
-6.21264063e-08,1.86104688e-01
-6.20864062e-08,1.86100000e-01
-6.20464062e-08,1.86093750e-01
-6.20064062e-08,1.86117188e-01
-6.19664062e-08,1.86057813e-01
-6.19264062e-08,1.86295313e-01
-6.18864062e-08,1.86565625e-01
-6.18464063e-08,1.86457813e-01
-6.18064062e-08,1.86532813e-01
-6.17664062e-08,1.86473438e-01
-6.17264062e-08,1.86523438e-01
-6.16864062e-08,1.86478125e-01
-6.16464062e-08,1.86520313e-01
-6.16064062e-08,1.86481250e-01
-6.15664063e-08,1.86518750e-01
-6.15264062e-08,1.86482813e-01
-6.14864062e-08,1.86517188e-01
-6.14464062e-08,1.86482813e-01
-6.14064062e-08,1.86517188e-01
-6.13664062e-08,1.86482813e-01
-6.13264062e-08,1.86517188e-01
-6.12864063e-08,1.86482813e-01
-6.12464062e-08,1.86517188e-01
-6.12064062e-08,1.86482813e-01
-6.11664062e-08,1.86518750e-01
-6.11264062e-08,1.86481250e-01
-6.10864062e-08,1.86520313e-01
-6.10464062e-08,1.86478125e-01
-6.10064063e-08,1.86523438e-01
-6.09664062e-08,1.86473438e-01
-6.09264062e-08,1.86532813e-01
-6.08864062e-08,1.86457813e-01
-6.08464062e-08,1.86567188e-01
-6.08064062e-08,1.86279688e-01
-6.07664062e-08,1.86059375e-01
-6.07264063e-08,1.86115625e-01
-6.06864062e-08,1.86093750e-01
-6.06464062e-08,1.86100000e-01
-6.06064062e-08,1.86104688e-01
-6.05664062e-08,1.86090625e-01
-6.05264063e-08,1.86115625e-01
-6.04864062e-08,1.86073437e-01
-6.04464063e-08,1.86151563e-01
-6.04064062e-08,1.85895313e-01
-6.03664062e-08,1.85642187e-01
-6.03264062e-08,1.85732813e-01
-6.02864062e-08,1.85675000e-01
-6.02464063e-08,1.85721875e-01
-6.02064062e-08,1.85679687e-01
-6.01664063e-08,1.85723438e-01
-6.01264062e-08,1.85668750e-01
-6.00864062e-08,1.85753125e-01
-6.00464062e-08,1.85495313e-01
-6.00064062e-08,1.85240625e-01
-5.99664063e-08,1.85337500e-01
-5.99264062e-08,1.85268750e-01
-5.98864063e-08,1.85328125e-01
-5.98464062e-08,1.85270313e-01
-5.98064062e-08,1.85332812e-01
-5.97664062e-08,1.85257813e-01
-5.97264062e-08,1.85365625e-01
-5.96864063e-08,1.85081250e-01
-5.96464062e-08,1.84857812e-01
-5.96064063e-08,1.84918750e-01
-5.95664062e-08,1.84892187e-01
-5.95264062e-08,1.84901563e-01
-5.94864062e-08,1.84903125e-01
-5.94464062e-08,1.84892187e-01
-5.94064062e-08,1.84914063e-01
-5.93664062e-08,1.84875000e-01
-5.93264062e-08,1.84950000e-01
-5.92864062e-08,1.84695313e-01
-5.92464062e-08,1.84442188e-01
-5.92064062e-08,1.84532813e-01
-5.91664062e-08,1.84476562e-01
-5.91264062e-08,1.84518750e-01
-5.90864062e-08,1.84484375e-01
-5.90464062e-08,1.84512500e-01
-5.90064062e-08,1.84489062e-01
-5.89664062e-08,1.84509375e-01
-5.89264062e-08,1.84490625e-01
-5.88864062e-08,1.84507813e-01
-5.88464062e-08,1.84492188e-01
-5.88064062e-08,1.84506250e-01
-5.87664062e-08,1.84493750e-01
-5.87264062e-08,1.84506250e-01
-5.86864062e-08,1.84493750e-01
-5.86464062e-08,1.84506250e-01
-5.86064062e-08,1.84495313e-01
-5.85664062e-08,1.84504688e-01
-5.85264062e-08,1.84495313e-01
-5.84864062e-08,1.84504688e-01
-5.84464062e-08,1.84495313e-01
-5.84064062e-08,1.84504688e-01
-5.83664062e-08,1.84495313e-01
-5.83264062e-08,1.84504688e-01
-5.82864062e-08,1.84495313e-01
-5.82464062e-08,1.84504688e-01
-5.82064062e-08,1.84495313e-01
-5.81664062e-08,1.84504688e-01
-5.81264062e-08,1.84495313e-01
-5.80864062e-08,1.84504688e-01
-5.80464062e-08,1.84495313e-01
-5.80064062e-08,1.84504688e-01
-5.79664062e-08,1.84495313e-01
-5.79264062e-08,1.84506250e-01
-5.78864062e-08,1.84493750e-01
-5.78464062e-08,1.84507813e-01
-5.78064062e-08,1.84492188e-01
-5.77664062e-08,1.84509375e-01
-5.77264062e-08,1.84489062e-01
-5.76864062e-08,1.84514063e-01
-5.76464062e-08,1.84481250e-01
-5.76064062e-08,1.84528125e-01
-5.75664062e-08,1.84446875e-01
-5.75264062e-08,1.84704688e-01
-5.74864062e-08,1.84957813e-01
-5.74464062e-08,1.84865625e-01
-5.74064062e-08,1.84925000e-01
-5.73664062e-08,1.84878125e-01
-5.73264062e-08,1.84920313e-01
-5.72864062e-08,1.84879688e-01
-5.72464062e-08,1.84920313e-01
-5.72064062e-08,1.84875000e-01
-5.71664062e-08,1.84932813e-01
-5.71264062e-08,1.84842188e-01
-5.70864062e-08,1.85109375e-01
-5.70464062e-08,1.85354688e-01
-5.70064062e-08,1.85268750e-01
-5.69664062e-08,1.85323438e-01
-5.69264062e-08,1.85281250e-01
-5.68864062e-08,1.85318750e-01
-5.68464062e-08,1.85281250e-01
-5.68064062e-08,1.85320313e-01
-5.67664062e-08,1.85276563e-01
-5.67264062e-08,1.85332812e-01
-5.66864062e-08,1.85242188e-01
-5.66464062e-08,1.85509375e-01
-5.66064062e-08,1.85753125e-01
-5.65664062e-08,1.85670313e-01
-5.65264062e-08,1.85720313e-01
-5.64864062e-08,1.85684375e-01
-5.64464062e-08,1.85712500e-01
-5.64064062e-08,1.85689063e-01
-5.63664062e-08,1.85709375e-01
-5.63264062e-08,1.85690625e-01
-5.62864062e-08,1.85707813e-01
-5.62464062e-08,1.85692187e-01
-5.62064062e-08,1.85706250e-01
-5.61664062e-08,1.85693750e-01
-5.61264062e-08,1.85706250e-01
-5.60864062e-08,1.85693750e-01
-5.60464062e-08,1.85706250e-01
-5.60064062e-08,1.85693750e-01
-5.59664062e-08,1.85706250e-01
-5.59264062e-08,1.85693750e-01
-5.58864062e-08,1.85706250e-01
-5.58464062e-08,1.85693750e-01
-5.58064062e-08,1.85706250e-01
-5.57664062e-08,1.85693750e-01
-5.57264062e-08,1.85706250e-01
-5.56864062e-08,1.85692187e-01
-5.56464062e-08,1.85707813e-01
-5.56064062e-08,1.85692187e-01
-5.55664062e-08,1.85707813e-01
-5.55264062e-08,1.85690625e-01
-5.54864062e-08,1.85710938e-01
-5.54464062e-08,1.85687500e-01
-5.54064062e-08,1.85714062e-01
-5.53664062e-08,1.85682813e-01
-5.53264062e-08,1.85721875e-01
-5.52864062e-08,1.85668750e-01
-5.52464062e-08,1.85756250e-01
-5.52064062e-08,1.85490625e-01
-5.51664062e-08,1.85246875e-01
-5.51264062e-08,1.85329688e-01
-5.50864062e-08,1.85279688e-01
-5.50464062e-08,1.85315625e-01
-5.50064062e-08,1.85287500e-01
-5.49664062e-08,1.85310937e-01
-5.49264062e-08,1.85290625e-01
-5.48864062e-08,1.85307813e-01
-5.48464062e-08,1.85292188e-01
-5.48064062e-08,1.85306250e-01
-5.47664062e-08,1.85293750e-01
-5.47264062e-08,1.85306250e-01
-5.46864062e-08,1.85293750e-01
-5.46464062e-08,1.85306250e-01
-5.46064062e-08,1.85295313e-01
-5.45664062e-08,1.85304688e-01
-5.45264062e-08,1.85295313e-01
-5.44864062e-08,1.85304688e-01
-5.44464062e-08,1.85293750e-01
-5.44064062e-08,1.85306250e-01
-5.43664062e-08,1.85293750e-01
-5.43264062e-08,1.85306250e-01
-5.42864062e-08,1.85293750e-01
-5.42464062e-08,1.85307813e-01
-5.42064062e-08,1.85292188e-01
-5.41664062e-08,1.85309375e-01
-5.41264062e-08,1.85290625e-01
-5.40864062e-08,1.85310937e-01
-5.40464062e-08,1.85285937e-01
-5.40064062e-08,1.85317188e-01
-5.39664062e-08,1.85278125e-01
-5.39264062e-08,1.85331250e-01
-5.38864062e-08,1.85243750e-01
-5.38464062e-08,1.85509375e-01
-5.38064062e-08,1.85753125e-01
-5.37664062e-08,1.85671875e-01
-5.37264062e-08,1.85718750e-01
-5.36864062e-08,1.85685938e-01
-5.36464062e-08,1.85709375e-01
-5.36064062e-08,1.85692187e-01
-5.35664062e-08,1.85704688e-01
-5.35264062e-08,1.85696875e-01
-5.34864062e-08,1.85701563e-01
-5.34464062e-08,1.85700000e-01
-5.34064062e-08,1.85696875e-01
-5.33664062e-08,1.85706250e-01
-5.33264062e-08,1.85689063e-01
-5.32864062e-08,1.85721875e-01
-5.32464062e-08,1.85653125e-01
-5.32064062e-08,1.85900000e-01
-5.31664062e-08,1.86162500e-01
-5.31264063e-08,1.86060937e-01
-5.30864062e-08,1.86129688e-01
-5.30464062e-08,1.86076563e-01
-5.30064062e-08,1.86120312e-01
-5.29664062e-08,1.86081250e-01
-5.29264062e-08,1.86117188e-01
-5.28864062e-08,1.86082812e-01
-5.28464062e-08,1.86115625e-01
-5.28064062e-08,1.86084375e-01
-5.27664062e-08,1.86115625e-01
-5.27264062e-08,1.86085938e-01
-5.26864062e-08,1.86114063e-01
-5.26464062e-08,1.86085938e-01
-5.26064062e-08,1.86114063e-01
-5.25664062e-08,1.86084375e-01
-5.25264062e-08,1.86115625e-01
-5.24864062e-08,1.86084375e-01
-5.24464062e-08,1.86117188e-01
-5.24064062e-08,1.86082812e-01
-5.23664062e-08,1.86118750e-01
-5.23264062e-08,1.86079688e-01
-5.22864062e-08,1.86123438e-01
-5.22464062e-08,1.86071875e-01
-5.22064062e-08,1.86139063e-01
-5.21664062e-08,1.86035937e-01
-5.21264062e-08,1.86315625e-01
-5.20864062e-08,1.86545313e-01
-5.20464062e-08,1.86478125e-01
-5.20064062e-08,1.86512500e-01
-5.19664062e-08,1.86492188e-01
-5.19264062e-08,1.86504688e-01
-5.18864062e-08,1.86496875e-01
-5.18464062e-08,1.86501562e-01
-5.18064062e-08,1.86500000e-01
-5.17664062e-08,1.86498438e-01
-5.17264062e-08,1.86501562e-01
-5.16864062e-08,1.86496875e-01
-5.16464062e-08,1.86503125e-01
-5.16064062e-08,1.86496875e-01
-5.15664062e-08,1.86504688e-01
-5.15264062e-08,1.86495313e-01
-5.14864062e-08,1.86504688e-01
-5.14464062e-08,1.86495313e-01
-5.14064062e-08,1.86506250e-01
-5.13664062e-08,1.86493750e-01
-5.13264062e-08,1.86506250e-01
-5.12864062e-08,1.86492188e-01
-5.12464062e-08,1.86507813e-01
-5.12064063e-08,1.86492188e-01
-5.11664062e-08,1.86509375e-01
-5.11264062e-08,1.86490625e-01
-5.10864062e-08,1.86509375e-01
-5.10464062e-08,1.86489062e-01
-5.10064062e-08,1.86510938e-01
-5.09664062e-08,1.86487500e-01
-5.09264063e-08,1.86514062e-01
-5.08864062e-08,1.86484375e-01
-5.08464062e-08,1.86518750e-01
-5.08064062e-08,1.86478125e-01
-5.07664062e-08,1.86526562e-01
-5.07264062e-08,1.86462500e-01
-5.06864062e-08,1.86562500e-01
-5.06464062e-08,1.86284375e-01
-5.06064062e-08,1.86054688e-01
-5.05664062e-08,1.86121875e-01
-5.05264062e-08,1.86089063e-01
-5.04864062e-08,1.86104688e-01
-5.04464062e-08,1.86100000e-01
-5.04064062e-08,1.86096875e-01
-5.03664062e-08,1.86106250e-01
-5.03264062e-08,1.86089063e-01
-5.02864062e-08,1.86117188e-01
-5.02464062e-08,1.86071875e-01
-5.02064062e-08,1.86153125e-01
-5.01664062e-08,1.85893750e-01
-5.01264062e-08,1.85645312e-01
-5.00864062e-08,1.85729688e-01
-5.00464062e-08,1.85679687e-01
-5.00064062e-08,1.85714062e-01
-4.99664062e-08,1.85689063e-01
-4.99264062e-08,1.85707813e-01
-4.98864062e-08,1.85693750e-01
-4.98464062e-08,1.85704688e-01
-4.98064062e-08,1.85698438e-01
-4.97664062e-08,1.85700000e-01
-4.97264062e-08,1.85703125e-01
-4.96864062e-08,1.85693750e-01
-4.96464062e-08,1.85712500e-01
-4.96064062e-08,1.85678125e-01
-4.95664062e-08,1.85746875e-01
-4.95264062e-08,1.85500000e-01
-4.94864062e-08,1.85237500e-01
-4.94464062e-08,1.85339063e-01
-4.94064062e-08,1.85270313e-01
-4.93664062e-08,1.85325000e-01
-4.93264062e-08,1.85278125e-01
-4.92864063e-08,1.85320313e-01
-4.92464062e-08,1.85279688e-01
-4.92064062e-08,1.85320313e-01
-4.91664062e-08,1.85278125e-01
-4.91264062e-08,1.85323438e-01
-4.90864062e-08,1.85271875e-01
-4.90464062e-08,1.85337500e-01
-4.90064063e-08,1.85239062e-01
-4.89664062e-08,1.85514063e-01
-4.89264062e-08,1.85748438e-01
-4.88864062e-08,1.85675000e-01
-4.88464062e-08,1.85715625e-01
-4.88064062e-08,1.85689063e-01
-4.87664062e-08,1.85709375e-01
-4.87264063e-08,1.85693750e-01
-4.86864062e-08,1.85706250e-01
-4.86464062e-08,1.85695313e-01
-4.86064062e-08,1.85704688e-01
-4.85664062e-08,1.85696875e-01
-4.85264062e-08,1.85703125e-01
-4.84864062e-08,1.85696875e-01
-4.84464062e-08,1.85703125e-01
-4.84064062e-08,1.85696875e-01
-4.83664062e-08,1.85703125e-01
-4.83264062e-08,1.85696875e-01
-4.82864062e-08,1.85703125e-01
-4.82464062e-08,1.85696875e-01
-4.82064062e-08,1.85701563e-01
-4.81664062e-08,1.85698438e-01
-4.81264062e-08,1.85701563e-01
-4.80864062e-08,1.85698438e-01
-4.80464062e-08,1.85701563e-01
-4.80064062e-08,1.85696875e-01
-4.79664062e-08,1.85703125e-01
-4.79264062e-08,1.85696875e-01
-4.78864062e-08,1.85703125e-01
-4.78464062e-08,1.85696875e-01
-4.78064062e-08,1.85703125e-01
-4.77664062e-08,1.85696875e-01
-4.77264062e-08,1.85703125e-01
-4.76864062e-08,1.85696875e-01
-4.76464062e-08,1.85703125e-01
-4.76064062e-08,1.85696875e-01
-4.75664062e-08,1.85703125e-01
-4.75264062e-08,1.85696875e-01
-4.74864062e-08,1.85703125e-01
-4.74464062e-08,1.85695313e-01
-4.74064062e-08,1.85704688e-01
-4.73664063e-08,1.85695313e-01
-4.73264062e-08,1.85704688e-01
-4.72864062e-08,1.85693750e-01
-4.72464062e-08,1.85706250e-01
-4.72064062e-08,1.85692187e-01
-4.71664062e-08,1.85707813e-01
-4.71264062e-08,1.85690625e-01
-4.70864063e-08,1.85710938e-01
-4.70464062e-08,1.85685938e-01
-4.70064062e-08,1.85718750e-01
-4.69664062e-08,1.85671875e-01
-4.69264062e-08,1.85753125e-01
-4.68864062e-08,1.85493750e-01
-4.68464062e-08,1.85243750e-01
-4.68064063e-08,1.85332812e-01
-4.67664062e-08,1.85276563e-01
-4.67264062e-08,1.85318750e-01
-4.66864062e-08,1.85282813e-01
-4.66464062e-08,1.85315625e-01
-4.66064062e-08,1.85285937e-01
-4.65664062e-08,1.85314063e-01
-4.65264063e-08,1.85284375e-01
-4.64864062e-08,1.85315625e-01
-4.64464062e-08,1.85281250e-01
-4.64064062e-08,1.85323438e-01
-4.63664062e-08,1.85267188e-01
-4.63264062e-08,1.85356250e-01
-4.62864062e-08,1.85090625e-01
-4.62464062e-08,1.84846875e-01
-4.62064062e-08,1.84929687e-01
-4.61664062e-08,1.84879688e-01
-4.61264062e-08,1.84915625e-01
-4.60864062e-08,1.84887500e-01
-4.60464062e-08,1.84910938e-01
-4.60064062e-08,1.84890625e-01
-4.59664062e-08,1.84909375e-01
-4.59264062e-08,1.84892187e-01
-4.58864062e-08,1.84907813e-01
-4.58464062e-08,1.84892187e-01
-4.58064062e-08,1.84906250e-01
-4.57664062e-08,1.84893750e-01
-4.57264062e-08,1.84906250e-01
-4.56864062e-08,1.84893750e-01
-4.56464062e-08,1.84906250e-01
-4.56064062e-08,1.84893750e-01
-4.55664062e-08,1.84906250e-01
-4.55264062e-08,1.84893750e-01
-4.54864062e-08,1.84906250e-01
-4.54464063e-08,1.84892187e-01
-4.54064062e-08,1.84907813e-01
-4.53664062e-08,1.84892187e-01
-4.53264062e-08,1.84907813e-01
-4.52864062e-08,1.84890625e-01
-4.52464062e-08,1.84909375e-01
-4.52064062e-08,1.84889063e-01
-4.51664063e-08,1.84912500e-01
-4.51264062e-08,1.84885938e-01
-4.50864062e-08,1.84917187e-01
-4.50464062e-08,1.84878125e-01
-4.50064062e-08,1.84931250e-01
-4.49664062e-08,1.84845312e-01
-4.49264062e-08,1.85107812e-01
-4.48864063e-08,1.85354688e-01
-4.48464062e-08,1.85268750e-01
-4.48064062e-08,1.85321875e-01
-4.47664062e-08,1.85281250e-01
-4.47264062e-08,1.85317188e-01
-4.46864062e-08,1.85282813e-01
-4.46464062e-08,1.85318750e-01
-4.46064063e-08,1.85278125e-01
-4.45664062e-08,1.85329688e-01
-4.45264062e-08,1.85246875e-01
-4.44864062e-08,1.85506250e-01
-4.44464062e-08,1.85757813e-01
-4.44064062e-08,1.85664063e-01
-4.43664062e-08,1.85728125e-01
-4.43264062e-08,1.85675000e-01
-4.42864062e-08,1.85725000e-01
-4.42464062e-08,1.85671875e-01
-4.42064062e-08,1.85735938e-01
-4.41664062e-08,1.85640625e-01
-4.41264062e-08,1.85910938e-01
-4.40864062e-08,1.86151563e-01
-4.40464062e-08,1.86070313e-01
-4.40064062e-08,1.86120312e-01
-4.39664062e-08,1.86082812e-01
-4.39264062e-08,1.86115625e-01
-4.38864062e-08,1.86084375e-01
-4.38464062e-08,1.86117188e-01
-4.38064062e-08,1.86078125e-01
-4.37664062e-08,1.86131250e-01
-4.37264062e-08,1.86045313e-01
-4.36864062e-08,1.86307813e-01
-4.36464062e-08,1.86554688e-01
-4.36064062e-08,1.86468750e-01
-4.35664062e-08,1.86523438e-01
-4.35264063e-08,1.86481250e-01
-4.34864062e-08,1.86515625e-01
-4.34464062e-08,1.86485938e-01
-4.34064062e-08,1.86512500e-01
-4.33664062e-08,1.86489062e-01
-4.33264062e-08,1.86510938e-01
-4.32864062e-08,1.86489062e-01
-4.32464063e-08,1.86509375e-01
-4.32064062e-08,1.86490625e-01
-4.31664062e-08,1.86509375e-01
-4.31264062e-08,1.86490625e-01
-4.30864062e-08,1.86509375e-01
-4.30464062e-08,1.86490625e-01
-4.30064062e-08,1.86509375e-01
-4.29664063e-08,1.86490625e-01
-4.29264062e-08,1.86507813e-01
-4.28864062e-08,1.86492188e-01
-4.28464062e-08,1.86507813e-01
-4.28064062e-08,1.86492188e-01
-4.27664062e-08,1.86507813e-01
-4.27264062e-08,1.86493750e-01
-4.26864063e-08,1.86506250e-01
-4.26464062e-08,1.86495313e-01
-4.26064062e-08,1.86501562e-01
-4.25664062e-08,1.86503125e-01
-4.25264062e-08,1.86489062e-01
-4.24864062e-08,1.86534375e-01
-4.24464062e-08,1.86312500e-01
-4.24064063e-08,1.86023437e-01
-4.23664062e-08,1.86154687e-01
-4.23264062e-08,1.86053125e-01
-4.22864062e-08,1.86145312e-01
-4.22464062e-08,1.86053125e-01
-4.22064062e-08,1.86150000e-01
-4.21664062e-08,1.86039063e-01
-4.21264062e-08,1.86185938e-01
-4.20864062e-08,1.85859375e-01
-4.20464062e-08,1.85679687e-01
-4.20064062e-08,1.85692187e-01
-4.19664062e-08,1.85721875e-01
-4.19264062e-08,1.85662500e-01
-4.18864062e-08,1.85767188e-01
-4.18464062e-08,1.85475000e-01
-4.18064062e-08,1.85265625e-01
-4.17664062e-08,1.85304688e-01
-4.17264062e-08,1.85310937e-01
-4.16864062e-08,1.85273437e-01
-4.16464062e-08,1.85356250e-01
-4.16064063e-08,1.85085938e-01
-4.15664062e-08,1.84856250e-01
-4.15264062e-08,1.84915625e-01
-4.14864062e-08,1.84901563e-01
-4.14464062e-08,1.84882812e-01
-4.14064062e-08,1.84946875e-01
-4.13664062e-08,1.84696875e-01
-4.13264063e-08,1.84443750e-01
-4.12864062e-08,1.84529688e-01
-4.12464062e-08,1.84484375e-01
-4.12064062e-08,1.84507813e-01
-4.11664062e-08,1.84501562e-01
-4.11264062e-08,1.84485938e-01
-4.10864062e-08,1.84542188e-01
-4.10464063e-08,1.84303125e-01
-4.10064062e-08,1.84035937e-01
-4.09664062e-08,1.84139063e-01
-4.09264062e-08,1.84071875e-01
-4.08864062e-08,1.84123438e-01
-4.08464062e-08,1.84081250e-01
-4.08064062e-08,1.84115625e-01
-4.07664063e-08,1.84085938e-01
-4.07264062e-08,1.84112500e-01
-4.06864062e-08,1.84089063e-01
-4.06464062e-08,1.84109375e-01
-4.06064062e-08,1.84092188e-01
-4.05664062e-08,1.84107812e-01
-4.05264062e-08,1.84093750e-01
-4.04864063e-08,1.84106250e-01
-4.04464062e-08,1.84095312e-01
-4.04064062e-08,1.84104688e-01
-4.03664062e-08,1.84096875e-01
-4.03264062e-08,1.84103125e-01
-4.02864062e-08,1.84098438e-01
-4.02464062e-08,1.84101563e-01
-4.02064063e-08,1.84100000e-01
-4.01664062e-08,1.84098438e-01
-4.01264062e-08,1.84101563e-01
-4.00864062e-08,1.84096875e-01
-4.00464062e-08,1.84104688e-01
-4.00064062e-08,1.84092188e-01
-3.99664062e-08,1.84110938e-01
-3.99264062e-08,1.84084375e-01
-3.98864062e-08,1.84126563e-01
-3.98464062e-08,1.84048437e-01
-3.98064062e-08,1.84304688e-01
-3.97664062e-08,1.84557813e-01
-3.97264062e-08,1.84467188e-01
-3.96864063e-08,1.84523437e-01
-3.96464062e-08,1.84481250e-01
-3.96064062e-08,1.84515625e-01
-3.95664062e-08,1.84487500e-01
-3.95264062e-08,1.84510937e-01
-3.94864062e-08,1.84489062e-01
-3.94464062e-08,1.84509375e-01
-3.94064063e-08,1.84492188e-01
-3.93664062e-08,1.84507813e-01
-3.93264062e-08,1.84492188e-01
-3.92864062e-08,1.84506250e-01
-3.92464062e-08,1.84493750e-01
-3.92064062e-08,1.84506250e-01
-3.91664062e-08,1.84495313e-01
-3.91264063e-08,1.84504688e-01
-3.90864062e-08,1.84495313e-01
-3.90464062e-08,1.84504688e-01
-3.90064062e-08,1.84495313e-01
-3.89664062e-08,1.84503125e-01
-3.89264062e-08,1.84496875e-01
-3.88864062e-08,1.84503125e-01
-3.88464063e-08,1.84496875e-01
-3.88064062e-08,1.84503125e-01
-3.87664062e-08,1.84496875e-01
-3.87264062e-08,1.84503125e-01
-3.86864062e-08,1.84498438e-01
-3.86464062e-08,1.84501562e-01
-3.86064062e-08,1.84498438e-01
-3.85664063e-08,1.84501562e-01
-3.85264062e-08,1.84498438e-01
