trails/0bbf0cf1bfcc3246d9e376b62f80622a/aes_ch1_20250507113328727.csv

Model,MSO66B
Label,
Waveform Type,ANALOG
Horizontal Units,s
Sample Interval,4.00000000e-11
Record Length,10000
Zero Index,1599.18750000
Vertical Units,A
ANALOG_Thumbnail,
yOffset,1.84500000e-01
yPosition,8.40000000e-01

Labels,
TIME,CH1
-6.39675000e-08,1.92521875e-01
-6.39275000e-08,1.92468750e-01
-6.38875000e-08,1.92556250e-01
-6.38475000e-08,1.92292188e-01
-6.38075000e-08,1.92045313e-01
-6.37675000e-08,1.92131250e-01
-6.37275000e-08,1.92078125e-01
-6.36875000e-08,1.92117188e-01
-6.36475000e-08,1.92085937e-01
-6.36075000e-08,1.92112500e-01
-6.35675000e-08,1.92089063e-01
-6.35275000e-08,1.92110937e-01
-6.34875000e-08,1.92090625e-01
-6.34475000e-08,1.92109375e-01
-6.34075000e-08,1.92092188e-01
-6.33675000e-08,1.92107813e-01
-6.33275000e-08,1.92092188e-01
-6.32875000e-08,1.92107813e-01
-6.32475000e-08,1.92092188e-01
-6.32075000e-08,1.92107813e-01
-6.31675000e-08,1.92092188e-01
-6.31275000e-08,1.92107813e-01
-6.30875000e-08,1.92092188e-01
-6.30475000e-08,1.92107813e-01
-6.30075000e-08,1.92092188e-01
-6.29675000e-08,1.92107813e-01
-6.29275000e-08,1.92092188e-01
-6.28875000e-08,1.92107813e-01
-6.28475000e-08,1.92092188e-01
-6.28075000e-08,1.92107813e-01
-6.27675000e-08,1.92092188e-01
-6.27275000e-08,1.92107813e-01
-6.26875000e-08,1.92092188e-01
-6.26475000e-08,1.92107813e-01
-6.26075000e-08,1.92090625e-01
-6.25675000e-08,1.92109375e-01
-6.25275000e-08,1.92090625e-01
-6.24875000e-08,1.92109375e-01
-6.24475000e-08,1.92089063e-01
-6.24075000e-08,1.92112500e-01
-6.23675000e-08,1.92087500e-01
-6.23275000e-08,1.92114063e-01
-6.22875000e-08,1.92082813e-01
-6.22475000e-08,1.92120313e-01
-6.22075000e-08,1.92075000e-01
-6.21675000e-08,1.92134375e-01
-6.21275000e-08,1.92040625e-01
-6.20875000e-08,1.92312500e-01
-6.20475000e-08,1.92548438e-01
-6.20075000e-08,1.92475000e-01
-6.19675000e-08,1.92514062e-01
-6.19275000e-08,1.92490625e-01
-6.18875000e-08,1.92506250e-01
-6.18475000e-08,1.92496875e-01
-6.18075000e-08,1.92500000e-01
-6.17675000e-08,1.92501563e-01
-6.17275000e-08,1.92495313e-01
-6.16875000e-08,1.92509375e-01
-6.16475000e-08,1.92485938e-01
-6.16075000e-08,1.92523438e-01
-6.15675000e-08,1.92450000e-01
-6.15275000e-08,1.92703125e-01
-6.14875000e-08,1.92959375e-01
-6.14475000e-08,1.92864063e-01
-6.14075000e-08,1.92926563e-01
-6.13675000e-08,1.92878125e-01
-6.13275000e-08,1.92918750e-01
-6.12875000e-08,1.92884375e-01
-6.12475000e-08,1.92915625e-01
-6.12075000e-08,1.92885937e-01
-6.11675000e-08,1.92914063e-01
-6.11275000e-08,1.92887500e-01
-6.10875000e-08,1.92912500e-01
-6.10475000e-08,1.92887500e-01
-6.10075000e-08,1.92912500e-01
-6.09675000e-08,1.92887500e-01
-6.09275000e-08,1.92914063e-01
-6.08875000e-08,1.92885937e-01
-6.08475000e-08,1.92915625e-01
-6.08075000e-08,1.92882813e-01
-6.07675000e-08,1.92920312e-01
-6.07275000e-08,1.92875000e-01
-6.06875000e-08,1.92934375e-01
-6.06475000e-08,1.92840625e-01
-6.06075000e-08,1.93112500e-01
-6.05675000e-08,1.93350000e-01
-6.05275000e-08,1.93273438e-01
-6.04875000e-08,1.93317188e-01
-6.04475000e-08,1.93287500e-01
-6.04075000e-08,1.93309375e-01
-6.03675000e-08,1.93293750e-01
-6.03275000e-08,1.93306250e-01
-6.02875000e-08,1.93295313e-01
-6.02475000e-08,1.93303125e-01
-6.02075000e-08,1.93296875e-01
-6.01675000e-08,1.93303125e-01
-6.01275000e-08,1.93298438e-01
-6.00875000e-08,1.93301562e-01
-6.00475000e-08,1.93298438e-01
-6.00075000e-08,1.93301562e-01
-5.99675000e-08,1.93300000e-01
-5.99275000e-08,1.93300000e-01
-5.98875000e-08,1.93300000e-01
-5.98475000e-08,1.93300000e-01
-5.98075000e-08,1.93300000e-01
-5.97675000e-08,1.93298438e-01
-5.97275000e-08,1.93301562e-01
-5.96875000e-08,1.93298438e-01
-5.96475000e-08,1.93301562e-01
-5.96075000e-08,1.93296875e-01
-5.95675000e-08,1.93303125e-01
-5.95275000e-08,1.93296875e-01
-5.94875000e-08,1.93303125e-01
-5.94475000e-08,1.93295313e-01
-5.94075000e-08,1.93306250e-01
-5.93675000e-08,1.93293750e-01
-5.93275000e-08,1.93307813e-01
-5.92875000e-08,1.93289062e-01
-5.92475000e-08,1.93314062e-01
-5.92075000e-08,1.93281250e-01
-5.91675000e-08,1.93328125e-01
-5.91275000e-08,1.93246875e-01
-5.90875000e-08,1.93506250e-01
-5.90475000e-08,1.93756250e-01
-5.90075000e-08,1.93667188e-01
-5.89675000e-08,1.93723438e-01
-5.89275000e-08,1.93681250e-01
-5.88875000e-08,1.93715625e-01
-5.88475000e-08,1.93685938e-01
-5.88075000e-08,1.93712500e-01
-5.87675000e-08,1.93689063e-01
-5.87275000e-08,1.93710938e-01
-5.86875000e-08,1.93690625e-01
-5.86475000e-08,1.93709375e-01
-5.86075000e-08,1.93690625e-01
-5.85675000e-08,1.93709375e-01
-5.85275000e-08,1.93692188e-01
-5.84875000e-08,1.93707813e-01
-5.84475000e-08,1.93692188e-01
-5.84075000e-08,1.93707813e-01
-5.83675000e-08,1.93692188e-01
-5.83275000e-08,1.93709375e-01
-5.82875000e-08,1.93690625e-01
-5.82475000e-08,1.93709375e-01
-5.82075000e-08,1.93690625e-01
-5.81675000e-08,1.93710938e-01
-5.81275000e-08,1.93689063e-01
-5.80875000e-08,1.93712500e-01
-5.80475000e-08,1.93684375e-01
-5.80075000e-08,1.93718750e-01
-5.79675000e-08,1.93676563e-01
-5.79275000e-08,1.93732813e-01
-5.78875000e-08,1.93642188e-01
-5.78475000e-08,1.93910938e-01
-5.78075000e-08,1.94151563e-01
-5.77675000e-08,1.94071875e-01
-5.77275000e-08,1.94118750e-01
-5.76875000e-08,1.94085937e-01
-5.76475000e-08,1.94110937e-01
-5.76075000e-08,1.94090625e-01
-5.75675000e-08,1.94107813e-01
-5.75275000e-08,1.94093750e-01
-5.74875000e-08,1.94106250e-01
-5.74475000e-08,1.94095313e-01
-5.74075000e-08,1.94104688e-01
-5.73675000e-08,1.94095313e-01
-5.73275000e-08,1.94104688e-01
-5.72875000e-08,1.94095313e-01
-5.72475000e-08,1.94104688e-01
-5.72075000e-08,1.94096875e-01
-5.71675000e-08,1.94103125e-01
-5.71275000e-08,1.94096875e-01
-5.70875000e-08,1.94103125e-01
-5.70475000e-08,1.94095313e-01
-5.70075000e-08,1.94104688e-01
-5.69675000e-08,1.94095313e-01
-5.69275000e-08,1.94104688e-01
-5.68875000e-08,1.94095313e-01
-5.68475000e-08,1.94104688e-01
-5.68075000e-08,1.94093750e-01
-5.67675000e-08,1.94106250e-01
-5.67275000e-08,1.94092188e-01
-5.66875000e-08,1.94109375e-01
-5.66475000e-08,1.94087500e-01
-5.66075000e-08,1.94117188e-01
-5.65675000e-08,1.94073438e-01
-5.65275000e-08,1.94151563e-01
-5.64875000e-08,1.93895312e-01
-5.64475000e-08,1.93642188e-01
-5.64075000e-08,1.93734375e-01
-5.63675000e-08,1.93673438e-01
-5.63275000e-08,1.93721875e-01
-5.62875000e-08,1.93679688e-01
-5.62475000e-08,1.93718750e-01
-5.62075000e-08,1.93681250e-01
-5.61675000e-08,1.93720313e-01
-5.61275000e-08,1.93678125e-01
-5.60875000e-08,1.93726563e-01
-5.60475000e-08,1.93664063e-01
-5.60075000e-08,1.93760938e-01
-5.59675000e-08,1.93487500e-01
-5.59275000e-08,1.93250000e-01
-5.58875000e-08,1.93326563e-01
-5.58475000e-08,1.93282813e-01
-5.58075000e-08,1.93312500e-01
-5.57675000e-08,1.93290625e-01
-5.57275000e-08,1.93307813e-01
-5.56875000e-08,1.93293750e-01
-5.56475000e-08,1.93304688e-01
-5.56075000e-08,1.93295313e-01
-5.55675000e-08,1.93303125e-01
-5.55275000e-08,1.93296875e-01
-5.54875000e-08,1.93303125e-01
-5.54475000e-08,1.93298438e-01
-5.54075000e-08,1.93301562e-01
-5.53675000e-08,1.93298438e-01
-5.53275000e-08,1.93301562e-01
-5.52875000e-08,1.93298438e-01
-5.52475000e-08,1.93301562e-01
-5.52075000e-08,1.93298438e-01
-5.51675000e-08,1.93300000e-01
-5.51275000e-08,1.93300000e-01
-5.50875000e-08,1.93300000e-01
-5.50475000e-08,1.93300000e-01
-5.50075000e-08,1.93300000e-01
-5.49675000e-08,1.93300000e-01
-5.49275000e-08,1.93300000e-01
-5.48875000e-08,1.93300000e-01
-5.48475000e-08,1.93300000e-01
-5.48075000e-08,1.93300000e-01
-5.47675000e-08,1.93298438e-01
-5.47275000e-08,1.93301562e-01
-5.46875000e-08,1.93298438e-01
-5.46475000e-08,1.93301562e-01
-5.46075000e-08,1.93298438e-01
-5.45675000e-08,1.93303125e-01
-5.45275000e-08,1.93296875e-01
-5.44875000e-08,1.93303125e-01
-5.44475000e-08,1.93295313e-01
-5.44075000e-08,1.93304688e-01
-5.43675000e-08,1.93293750e-01
-5.43275000e-08,1.93307813e-01
-5.42875000e-08,1.93290625e-01
-5.42475000e-08,1.93312500e-01
-5.42075000e-08,1.93282813e-01
-5.41675000e-08,1.93326563e-01
-5.41275000e-08,1.93248438e-01
-5.40875000e-08,1.93504687e-01
-5.40475000e-08,1.93757813e-01
-5.40075000e-08,1.93665625e-01
-5.39675000e-08,1.93725000e-01
-5.39275000e-08,1.93679688e-01
-5.38875000e-08,1.93717187e-01
-5.38475000e-08,1.93684375e-01
-5.38075000e-08,1.93714063e-01
-5.37675000e-08,1.93687500e-01
-5.37275000e-08,1.93712500e-01
-5.36875000e-08,1.93689063e-01
-5.36475000e-08,1.93710938e-01
-5.36075000e-08,1.93689063e-01
-5.35675000e-08,1.93710938e-01
-5.35275000e-08,1.93689063e-01
-5.34875000e-08,1.93710938e-01
-5.34475000e-08,1.93687500e-01
-5.34075000e-08,1.93712500e-01
-5.33675000e-08,1.93685938e-01
-5.33275000e-08,1.93715625e-01
-5.32875000e-08,1.93682812e-01
-5.32475000e-08,1.93720313e-01
-5.32075000e-08,1.93675000e-01
-5.31675000e-08,1.93734375e-01
-5.31275000e-08,1.93640625e-01
-5.30875000e-08,1.93912500e-01
-5.30475000e-08,1.94150000e-01
-5.30075000e-08,1.94073438e-01
-5.29675000e-08,1.94117188e-01
-5.29275000e-08,1.94087500e-01
-5.28875000e-08,1.94109375e-01
-5.28475000e-08,1.94092188e-01
-5.28075000e-08,1.94106250e-01
-5.27675000e-08,1.94095313e-01
-5.27275000e-08,1.94103125e-01
-5.26875000e-08,1.94096875e-01
-5.26475000e-08,1.94103125e-01
-5.26075000e-08,1.94098437e-01
-5.25675000e-08,1.94101563e-01
-5.25275000e-08,1.94098437e-01
-5.24875000e-08,1.94101563e-01
-5.24475000e-08,1.94098437e-01
-5.24075000e-08,1.94100000e-01
-5.23675000e-08,1.94100000e-01
-5.23275000e-08,1.94100000e-01
-5.22875000e-08,1.94100000e-01
-5.22475000e-08,1.94100000e-01
-5.22075000e-08,1.94100000e-01
-5.21675000e-08,1.94100000e-01
-5.21275000e-08,1.94100000e-01
-5.20875000e-08,1.94100000e-01
-5.20475000e-08,1.94100000e-01
-5.20075000e-08,1.94100000e-01
-5.19675000e-08,1.94101563e-01
-5.19275000e-08,1.94098437e-01
-5.18875000e-08,1.94101563e-01
-5.18475000e-08,1.94098437e-01
-5.18075000e-08,1.94101563e-01
-5.17675000e-08,1.94098437e-01
-5.17275000e-08,1.94101563e-01
-5.16875000e-08,1.94098437e-01
-5.16475000e-08,1.94101563e-01
-5.16075000e-08,1.94098437e-01
-5.15675000e-08,1.94101563e-01
-5.15275000e-08,1.94098437e-01
-5.14875000e-08,1.94101563e-01
-5.14475000e-08,1.94098437e-01
-5.14075000e-08,1.94101563e-01
-5.13675000e-08,1.94098437e-01
-5.13275000e-08,1.94103125e-01
-5.12875000e-08,1.94096875e-01
-5.12475000e-08,1.94103125e-01
-5.12075000e-08,1.94096875e-01
-5.11675000e-08,1.94103125e-01
-5.11275000e-08,1.94096875e-01
-5.10875000e-08,1.94103125e-01
-5.10475000e-08,1.94096875e-01
-5.10075000e-08,1.94103125e-01
-5.09675000e-08,1.94095313e-01
-5.09275000e-08,1.94104688e-01
-5.08875000e-08,1.94095313e-01
-5.08475000e-08,1.94104688e-01
-5.08075000e-08,1.94095313e-01
-5.07675000e-08,1.94106250e-01
-5.07275000e-08,1.94093750e-01
-5.06875000e-08,1.94106250e-01
-5.06475000e-08,1.94092188e-01
-5.06075000e-08,1.94107813e-01
-5.05675000e-08,1.94090625e-01
-5.05275000e-08,1.94110937e-01
-5.04875000e-08,1.94087500e-01
-5.04475000e-08,1.94114063e-01
-5.04075000e-08,1.94082813e-01
-5.03675000e-08,1.94123437e-01
-5.03275000e-08,1.94067188e-01
-5.02875000e-08,1.94157812e-01
-5.02475000e-08,1.93887500e-01
-5.02075000e-08,1.93650000e-01
-5.01675000e-08,1.93725000e-01
-5.01275000e-08,1.93685938e-01
-5.00875000e-08,1.93707813e-01
-5.00475000e-08,1.93696875e-01
-5.00075000e-08,1.93698438e-01
-4.99675000e-08,1.93707813e-01
-4.99275000e-08,1.93681250e-01
-4.98875000e-08,1.93743750e-01
-4.98475000e-08,1.93503125e-01
-4.98075000e-08,1.93234375e-01
-4.97675000e-08,1.93342188e-01
-4.97275000e-08,1.93267187e-01
-4.96875000e-08,1.93328125e-01
-4.96475000e-08,1.93273438e-01
-4.96075000e-08,1.93326563e-01
-4.95675000e-08,1.93271875e-01
-4.95275000e-08,1.93331250e-01
-4.94875000e-08,1.93259375e-01
-4.94475000e-08,1.93364063e-01
-4.94075000e-08,1.93082813e-01
-4.93675000e-08,1.92853125e-01
-4.93275000e-08,1.92923438e-01
-4.92875000e-08,1.92885937e-01
-4.92475000e-08,1.92909375e-01
-4.92075000e-08,1.92892188e-01
-4.91675000e-08,1.92906250e-01
-4.91275000e-08,1.92895312e-01
-4.90875000e-08,1.92903125e-01
-4.90475000e-08,1.92896875e-01
-4.90075000e-08,1.92903125e-01
-4.89675000e-08,1.92896875e-01
-4.89275000e-08,1.92901563e-01
-4.88875000e-08,1.92898438e-01
-4.88475000e-08,1.92901563e-01
-4.88075000e-08,1.92898438e-01
-4.87675000e-08,1.92901563e-01
-4.87275000e-08,1.92896875e-01
-4.86875000e-08,1.92903125e-01
-4.86475000e-08,1.92896875e-01
-4.86075000e-08,1.92903125e-01
-4.85675000e-08,1.92896875e-01
-4.85275000e-08,1.92904688e-01
-4.84875000e-08,1.92895312e-01
-4.84475000e-08,1.92904688e-01
-4.84075000e-08,1.92893750e-01
-4.83675000e-08,1.92907812e-01
-4.83275000e-08,1.92890625e-01
-4.82875000e-08,1.92912500e-01
-4.82475000e-08,1.92882813e-01
-4.82075000e-08,1.92926563e-01
-4.81675000e-08,1.92848437e-01
-4.81275000e-08,1.93104688e-01
-4.80875000e-08,1.93357813e-01
-4.80475000e-08,1.93265625e-01
-4.80075000e-08,1.93325000e-01
-4.79675000e-08,1.93279688e-01
-4.79275000e-08,1.93317188e-01
-4.78875000e-08,1.93284375e-01
-4.78475000e-08,1.93315625e-01
-4.78075000e-08,1.93285938e-01
-4.77675000e-08,1.93314062e-01
-4.77275000e-08,1.93285938e-01
-4.76875000e-08,1.93315625e-01
-4.76475000e-08,1.93282813e-01
-4.76075000e-08,1.93320313e-01
-4.75675000e-08,1.93275000e-01
-4.75275000e-08,1.93332813e-01
-4.74875000e-08,1.93242187e-01
-4.74475000e-08,1.93510938e-01
-4.74075000e-08,1.93751563e-01
-4.73675000e-08,1.93671875e-01
-4.73275000e-08,1.93718750e-01
-4.72875000e-08,1.93684375e-01
-4.72475000e-08,1.93712500e-01
-4.72075000e-08,1.93689063e-01
-4.71675000e-08,1.93709375e-01
-4.71275000e-08,1.93690625e-01
-4.70875000e-08,1.93709375e-01
-4.70475000e-08,1.93690625e-01
-4.70075000e-08,1.93709375e-01
-4.69675000e-08,1.93689063e-01
-4.69275000e-08,1.93710938e-01
-4.68875000e-08,1.93687500e-01
-4.68475000e-08,1.93715625e-01
-4.68075000e-08,1.93679688e-01
-4.67675000e-08,1.93729687e-01
-4.67275000e-08,1.93645312e-01
-4.66875000e-08,1.93907812e-01
-4.66475000e-08,1.94154688e-01
-4.66075000e-08,1.94068750e-01
-4.65675000e-08,1.94121875e-01
-4.65275000e-08,1.94082813e-01
-4.64875000e-08,1.94114063e-01
-4.64475000e-08,1.94087500e-01
-4.64075000e-08,1.94110937e-01
-4.63675000e-08,1.94090625e-01
-4.63275000e-08,1.94109375e-01
-4.62875000e-08,1.94092188e-01
-4.62475000e-08,1.94107813e-01
-4.62075000e-08,1.94092188e-01
-4.61675000e-08,1.94106250e-01
-4.61275000e-08,1.94093750e-01
-4.60875000e-08,1.94106250e-01
-4.60475000e-08,1.94093750e-01
-4.60075000e-08,1.94106250e-01
-4.59675000e-08,1.94093750e-01
-4.59275000e-08,1.94106250e-01
-4.58875000e-08,1.94093750e-01
-4.58475000e-08,1.94106250e-01
-4.58075000e-08,1.94093750e-01
-4.57675000e-08,1.94106250e-01
-4.57275000e-08,1.94093750e-01
-4.56875000e-08,1.94106250e-01
-4.56475000e-08,1.94093750e-01
-4.56075000e-08,1.94106250e-01
-4.55675000e-08,1.94093750e-01
-4.55275000e-08,1.94106250e-01
-4.54875000e-08,1.94093750e-01
-4.54475000e-08,1.94107813e-01
-4.54075000e-08,1.94092188e-01
-4.53675000e-08,1.94107813e-01
-4.53275000e-08,1.94092188e-01
-4.52875000e-08,1.94109375e-01
-4.52475000e-08,1.94090625e-01
-4.52075000e-08,1.94110937e-01
-4.51675000e-08,1.94089063e-01
-4.51275000e-08,1.94112500e-01
-4.50875000e-08,1.94084375e-01
-4.50475000e-08,1.94118750e-01
-4.50075000e-08,1.94076562e-01
-4.49675000e-08,1.94132813e-01
-4.49275000e-08,1.94042188e-01
-4.48875000e-08,1.94310938e-01
-4.48475000e-08,1.94551562e-01
-4.48075000e-08,1.94471875e-01
-4.47675000e-08,1.94518750e-01
-4.47275000e-08,1.94485938e-01
-4.46875000e-08,1.94510938e-01
-4.46475000e-08,1.94492187e-01
-4.46075000e-08,1.94506250e-01
-4.45675000e-08,1.94493750e-01
-4.45275000e-08,1.94504687e-01
-4.44875000e-08,1.94495313e-01
-4.44475000e-08,1.94503125e-01
-4.44075000e-08,1.94496875e-01
-4.43675000e-08,1.94503125e-01
-4.43275000e-08,1.94498438e-01
-4.42875000e-08,1.94501563e-01
-4.42475000e-08,1.94498438e-01
-4.42075000e-08,1.94501563e-01
-4.41675000e-08,1.94500000e-01
-4.41275000e-08,1.94500000e-01
-4.40875000e-08,1.94500000e-01
-4.40475000e-08,1.94500000e-01
-4.40075000e-08,1.94500000e-01
-4.39675000e-08,1.94500000e-01
-4.39275000e-08,1.94501563e-01
-4.38875000e-08,1.94498438e-01
-4.38475000e-08,1.94501563e-01
-4.38075000e-08,1.94498438e-01
-4.37675000e-08,1.94503125e-01
-4.37275000e-08,1.94496875e-01
-4.36875000e-08,1.94503125e-01
-4.36475000e-08,1.94495313e-01
-4.36075000e-08,1.94506250e-01
-4.35675000e-08,1.94493750e-01
-4.35275000e-08,1.94509375e-01
-4.34875000e-08,1.94487500e-01
-4.34475000e-08,1.94517188e-01
-4.34075000e-08,1.94473438e-01
-4.33675000e-08,1.94551562e-01
-4.33275000e-08,1.94296875e-01
-4.32875000e-08,1.94040625e-01
-4.32475000e-08,1.94135938e-01
-4.32075000e-08,1.94073438e-01
-4.31675000e-08,1.94121875e-01
-4.31275000e-08,1.94079688e-01
-4.30875000e-08,1.94118750e-01
-4.30475000e-08,1.94081250e-01
-4.30075000e-08,1.94120313e-01
-4.29675000e-08,1.94078125e-01
-4.29275000e-08,1.94126563e-01
-4.28875000e-08,1.94065625e-01
-4.28475000e-08,1.94159375e-01
-4.28075000e-08,1.93887500e-01
-4.27675000e-08,1.93650000e-01
-4.27275000e-08,1.93726563e-01
-4.26875000e-08,1.93681250e-01
-4.26475000e-08,1.93714063e-01
-4.26075000e-08,1.93689063e-01
-4.25675000e-08,1.93709375e-01
-4.25275000e-08,1.93692188e-01
-4.24875000e-08,1.93707813e-01
-4.24475000e-08,1.93692188e-01
-4.24075000e-08,1.93706250e-01
-4.23675000e-08,1.93693750e-01
-4.23275000e-08,1.93706250e-01
-4.22875000e-08,1.93692188e-01
-4.22475000e-08,1.93707813e-01
-4.22075000e-08,1.93692188e-01
-4.21675000e-08,1.93709375e-01
-4.21275000e-08,1.93689063e-01
-4.20875000e-08,1.93712500e-01
-4.20475000e-08,1.93684375e-01
-4.20075000e-08,1.93720313e-01
-4.19675000e-08,1.93670312e-01
-4.19275000e-08,1.93754688e-01
-4.18875000e-08,1.93492187e-01
-4.18475000e-08,1.93245313e-01
-4.18075000e-08,1.93331250e-01
-4.17675000e-08,1.93278125e-01
-4.17275000e-08,1.93317188e-01
-4.16875000e-08,1.93285938e-01
-4.16475000e-08,1.93312500e-01
-4.16075000e-08,1.93289062e-01
-4.15675000e-08,1.93309375e-01
-4.15275000e-08,1.93290625e-01
-4.14875000e-08,1.93309375e-01
-4.14475000e-08,1.93292188e-01
-4.14075000e-08,1.93307813e-01
-4.13675000e-08,1.93292188e-01
-4.13275000e-08,1.93307813e-01
-4.12875000e-08,1.93292188e-01
-4.12475000e-08,1.93307813e-01
-4.12075000e-08,1.93292188e-01
-4.11675000e-08,1.93307813e-01
-4.11275000e-08,1.93292188e-01
-4.10875000e-08,1.93307813e-01
-4.10475000e-08,1.93292188e-01
-4.10075000e-08,1.93307813e-01
-4.09675000e-08,1.93290625e-01
-4.09275000e-08,1.93309375e-01
-4.08875000e-08,1.93289062e-01
-4.08475000e-08,1.93310938e-01
-4.08075000e-08,1.93287500e-01
-4.07675000e-08,1.93314062e-01
-4.07275000e-08,1.93282813e-01
-4.06875000e-08,1.93323438e-01
-4.06475000e-08,1.93267187e-01
-4.06075000e-08,1.93357813e-01
-4.05675000e-08,1.93089063e-01
-4.05275000e-08,1.92848437e-01
-4.04875000e-08,1.92928125e-01
-4.04475000e-08,1.92881250e-01
-4.04075000e-08,1.92914063e-01
-4.03675000e-08,1.92889063e-01
-4.03275000e-08,1.92909375e-01
-4.02875000e-08,1.92892188e-01
-4.02475000e-08,1.92906250e-01
-4.02075000e-08,1.92893750e-01
-4.01675000e-08,1.92904688e-01
-4.01275000e-08,1.92895312e-01
-4.00875000e-08,1.92904688e-01
-4.00475000e-08,1.92896875e-01
-4.00075000e-08,1.92903125e-01
-3.99675000e-08,1.92896875e-01
-3.99275000e-08,1.92903125e-01
-3.98875000e-08,1.92896875e-01
-3.98475000e-08,1.92903125e-01
-3.98075000e-08,1.92898438e-01
-3.97675000e-08,1.92901563e-01
-3.97275000e-08,1.92898438e-01
-3.96875000e-08,1.92901563e-01
-3.96475000e-08,1.92898438e-01
-3.96075000e-08,1.92901563e-01
-3.95675000e-08,1.92898438e-01
-3.95275000e-08,1.92901563e-01
-3.94875000e-08,1.92898438e-01
-3.94475000e-08,1.92901563e-01
-3.94075000e-08,1.92898438e-01
-3.93675000e-08,1.92901563e-01
-3.93275000e-08,1.92898438e-01
-3.92875000e-08,1.92901563e-01
-3.92475000e-08,1.92898438e-01
-3.92075000e-08,1.92901563e-01
-3.91675000e-08,1.92898438e-01
-3.91275000e-08,1.92901563e-01
-3.90875000e-08,1.92898438e-01
-3.90475000e-08,1.92901563e-01
-3.90075000e-08,1.92898438e-01
-3.89675000e-08,1.92901563e-01
-3.89275000e-08,1.92898438e-01
-3.88875000e-08,1.92901563e-01
-3.88475000e-08,1.92898438e-01
-3.88075000e-08,1.92901563e-01
-3.87675000e-08,1.92898438e-01
-3.87275000e-08,1.92901563e-01
-3.86875000e-08,1.92898438e-01
-3.86475000e-08,1.92901563e-01
-3.86075000e-08,1.92898438e-01
-3.85675000e-08,1.92901563e-01
-3.85275000e-08,1.92898438e-01
