trails/0bbf0cf1bfcc3246d9e376b62f80622a/aes_ch1_20250507113332775.csv

Model,MSO66B
Label,
Waveform Type,ANALOG
Horizontal Units,s
Sample Interval,4.00000000e-11
Record Length,10000
Zero Index,1599.05468750
Vertical Units,A
ANALOG_Thumbnail,
yOffset,1.84500000e-01
yPosition,8.40000000e-01

Labels,
TIME,CH1
-6.39621875e-08,1.82089063e-01
-6.39221875e-08,1.82110938e-01
-6.38821875e-08,1.82089063e-01
-6.38421875e-08,1.82112500e-01
-6.38021875e-08,1.82085938e-01
-6.37621875e-08,1.82115625e-01
-6.37221875e-08,1.82079688e-01
-6.36821875e-08,1.82129687e-01
-6.36421875e-08,1.82045313e-01
-6.36021875e-08,1.82307812e-01
-6.35621875e-08,1.82554688e-01
-6.35221875e-08,1.82468750e-01
-6.34821875e-08,1.82521875e-01
-6.34421875e-08,1.82482813e-01
-6.34021875e-08,1.82515625e-01
-6.33621875e-08,1.82485938e-01
-6.33221875e-08,1.82512500e-01
-6.32821875e-08,1.82489063e-01
-6.32421875e-08,1.82510937e-01
-6.32021875e-08,1.82489063e-01
-6.31621875e-08,1.82510937e-01
-6.31221875e-08,1.82487500e-01
-6.30821875e-08,1.82512500e-01
-6.30421875e-08,1.82485938e-01
-6.30021875e-08,1.82515625e-01
-6.29621875e-08,1.82481250e-01
-6.29221875e-08,1.82523437e-01
-6.28821875e-08,1.82467188e-01
-6.28421875e-08,1.82557812e-01
-6.28021875e-08,1.82289063e-01
-6.27621875e-08,1.82048437e-01
-6.27221875e-08,1.82128125e-01
-6.26821875e-08,1.82081250e-01
-6.26421875e-08,1.82114063e-01
-6.26021875e-08,1.82087500e-01
-6.25621875e-08,1.82109375e-01
-6.25221875e-08,1.82090625e-01
-6.24821875e-08,1.82107812e-01
-6.24421875e-08,1.82092188e-01
-6.24021875e-08,1.82106250e-01
-6.23621875e-08,1.82093750e-01
-6.23221875e-08,1.82106250e-01
-6.22821875e-08,1.82093750e-01
-6.22421875e-08,1.82107812e-01
-6.22021875e-08,1.82092188e-01
-6.21621875e-08,1.82107812e-01
-6.21221875e-08,1.82090625e-01
-6.20821875e-08,1.82110938e-01
-6.20421875e-08,1.82085938e-01
-6.20021875e-08,1.82118750e-01
-6.19621875e-08,1.82071875e-01
-6.19221875e-08,1.82153125e-01
-6.18821875e-08,1.81895313e-01
-6.18421875e-08,1.81642187e-01
-6.18021875e-08,1.81734375e-01
-6.17621875e-08,1.81675000e-01
-6.17221875e-08,1.81720313e-01
-6.16821875e-08,1.81681250e-01
-6.16421875e-08,1.81717188e-01
-6.16021875e-08,1.81682813e-01
-6.15621875e-08,1.81718750e-01
-6.15221875e-08,1.81679688e-01
-6.14821875e-08,1.81725000e-01
-6.14421875e-08,1.81667187e-01
-6.14021875e-08,1.81757813e-01
-6.13621875e-08,1.81490625e-01
-6.13221875e-08,1.81246875e-01
-6.12821875e-08,1.81329688e-01
-6.12421875e-08,1.81278125e-01
-6.12021875e-08,1.81317188e-01
-6.11621875e-08,1.81282813e-01
-6.11221875e-08,1.81317188e-01
-6.10821875e-08,1.81281250e-01
-6.10421875e-08,1.81321875e-01
-6.10021875e-08,1.81268750e-01
-6.09621875e-08,1.81354688e-01
-6.09221875e-08,1.81092188e-01
-6.08821875e-08,1.80843750e-01
-6.08421875e-08,1.80932813e-01
-6.08021875e-08,1.80876563e-01
-6.07621875e-08,1.80920313e-01
-6.07221875e-08,1.80882813e-01
-6.06821875e-08,1.80915625e-01
-6.06421875e-08,1.80884375e-01
-6.06021875e-08,1.80915625e-01
-6.05621875e-08,1.80882813e-01
-6.05221875e-08,1.80918750e-01
-6.04821875e-08,1.80879687e-01
-6.04421875e-08,1.80925000e-01
-6.04021875e-08,1.80865625e-01
-6.03621875e-08,1.80959375e-01
-6.03221875e-08,1.80687500e-01
-6.02821875e-08,1.80450000e-01
-6.02421875e-08,1.80526563e-01
-6.02021875e-08,1.80482813e-01
-6.01621875e-08,1.80512500e-01
-6.01221875e-08,1.80490625e-01
-6.00821875e-08,1.80507813e-01
-6.00421875e-08,1.80493750e-01
-6.00021875e-08,1.80504688e-01
-5.99621875e-08,1.80495313e-01
-5.99221875e-08,1.80503125e-01
-5.98821875e-08,1.80496875e-01
-5.98421875e-08,1.80501563e-01
-5.98021875e-08,1.80498437e-01
-5.97621875e-08,1.80501563e-01
-5.97221875e-08,1.80498437e-01
-5.96821875e-08,1.80501563e-01
-5.96421875e-08,1.80498437e-01
-5.96021875e-08,1.80500000e-01
-5.95621875e-08,1.80500000e-01
-5.95221875e-08,1.80500000e-01
-5.94821875e-08,1.80500000e-01
-5.94421875e-08,1.80500000e-01
-5.94021875e-08,1.80500000e-01
-5.93621875e-08,1.80500000e-01
-5.93221875e-08,1.80500000e-01
-5.92821875e-08,1.80498437e-01
-5.92421875e-08,1.80501563e-01
-5.92021875e-08,1.80498437e-01
-5.91621875e-08,1.80501563e-01
-5.91221875e-08,1.80498437e-01
-5.90821875e-08,1.80503125e-01
-5.90421875e-08,1.80496875e-01
-5.90021875e-08,1.80503125e-01
-5.89621875e-08,1.80495313e-01
-5.89221875e-08,1.80504688e-01
-5.88821875e-08,1.80493750e-01
-5.88421875e-08,1.80507813e-01
-5.88021875e-08,1.80490625e-01
-5.87621875e-08,1.80512500e-01
-5.87221875e-08,1.80482813e-01
-5.86821875e-08,1.80526563e-01
-5.86421875e-08,1.80448438e-01
-5.86021875e-08,1.80704688e-01
-5.85621875e-08,1.80957813e-01
-5.85221875e-08,1.80865625e-01
-5.84821875e-08,1.80925000e-01
-5.84421875e-08,1.80878125e-01
-5.84021875e-08,1.80918750e-01
-5.83621875e-08,1.80882813e-01
-5.83221875e-08,1.80915625e-01
-5.82821875e-08,1.80884375e-01
-5.82421875e-08,1.80915625e-01
-5.82021875e-08,1.80884375e-01
-5.81621875e-08,1.80917188e-01
-5.81221875e-08,1.80881250e-01
-5.80821875e-08,1.80921875e-01
-5.80421875e-08,1.80873438e-01
-5.80021875e-08,1.80935938e-01
-5.79621875e-08,1.80839063e-01
-5.79221875e-08,1.81114063e-01
-5.78821875e-08,1.81348438e-01
-5.78421875e-08,1.81275000e-01
-5.78021875e-08,1.81315625e-01
-5.77621875e-08,1.81289063e-01
-5.77221875e-08,1.81307812e-01
-5.76821875e-08,1.81295312e-01
-5.76421875e-08,1.81303125e-01
-5.76021875e-08,1.81298438e-01
-5.75621875e-08,1.81300000e-01
-5.75221875e-08,1.81300000e-01
-5.74821875e-08,1.81298438e-01
-5.74421875e-08,1.81303125e-01
-5.74021875e-08,1.81295312e-01
-5.73621875e-08,1.81306250e-01
-5.73221875e-08,1.81292188e-01
-5.72821875e-08,1.81312500e-01
-5.72421875e-08,1.81282813e-01
-5.72021875e-08,1.81326563e-01
-5.71621875e-08,1.81248437e-01
-5.71221875e-08,1.81504688e-01
-5.70821875e-08,1.81757813e-01
-5.70421875e-08,1.81667187e-01
-5.70021875e-08,1.81723438e-01
-5.69621875e-08,1.81681250e-01
-5.69221875e-08,1.81715625e-01
-5.68821875e-08,1.81685938e-01
-5.68421875e-08,1.81712500e-01
-5.68021875e-08,1.81689062e-01
-5.67621875e-08,1.81709375e-01
-5.67221875e-08,1.81690625e-01
-5.66821875e-08,1.81707813e-01
-5.66421875e-08,1.81692188e-01
-5.66021875e-08,1.81707813e-01
-5.65621875e-08,1.81693750e-01
-5.65221875e-08,1.81706250e-01
-5.64821875e-08,1.81693750e-01
-5.64421875e-08,1.81706250e-01
-5.64021875e-08,1.81693750e-01
-5.63621875e-08,1.81704688e-01
-5.63221875e-08,1.81695313e-01
-5.62821875e-08,1.81704688e-01
-5.62421875e-08,1.81695313e-01
-5.62021875e-08,1.81704688e-01
-5.61621875e-08,1.81696875e-01
-5.61221875e-08,1.81703125e-01
-5.60821875e-08,1.81696875e-01
-5.60421875e-08,1.81703125e-01
-5.60021875e-08,1.81698438e-01
-5.59621875e-08,1.81701562e-01
-5.59221875e-08,1.81700000e-01
-5.58821875e-08,1.81698438e-01
-5.58421875e-08,1.81703125e-01
-5.58021875e-08,1.81693750e-01
-5.57621875e-08,1.81710938e-01
-5.57221875e-08,1.81679688e-01
-5.56821875e-08,1.81745313e-01
-5.56421875e-08,1.81501563e-01
-5.56021875e-08,1.81234375e-01
-5.55621875e-08,1.81342188e-01
-5.55221875e-08,1.81267188e-01
-5.54821875e-08,1.81328125e-01
-5.54421875e-08,1.81273437e-01
-5.54021875e-08,1.81325000e-01
-5.53621875e-08,1.81275000e-01
-5.53221875e-08,1.81325000e-01
-5.52821875e-08,1.81273437e-01
-5.52421875e-08,1.81329688e-01
-5.52021875e-08,1.81267188e-01
-5.51621875e-08,1.81342188e-01
-5.51221875e-08,1.81232813e-01
-5.50821875e-08,1.81520313e-01
-5.50421875e-08,1.81742188e-01
-5.50021875e-08,1.81681250e-01
-5.49621875e-08,1.81709375e-01
-5.49221875e-08,1.81695313e-01
-5.48821875e-08,1.81701562e-01
-5.48421875e-08,1.81701562e-01
-5.48021875e-08,1.81696875e-01
-5.47621875e-08,1.81704688e-01
-5.47221875e-08,1.81695313e-01
-5.46821875e-08,1.81706250e-01
-5.46421875e-08,1.81693750e-01
-5.46021875e-08,1.81707813e-01
-5.45621875e-08,1.81690625e-01
-5.45221875e-08,1.81709375e-01
-5.44821875e-08,1.81689062e-01
-5.44421875e-08,1.81712500e-01
-5.44021875e-08,1.81685938e-01
-5.43621875e-08,1.81715625e-01
-5.43221875e-08,1.81682813e-01
-5.42821875e-08,1.81720313e-01
-5.42421875e-08,1.81673438e-01
-5.42021875e-08,1.81735937e-01
-5.41621875e-08,1.81637500e-01
-5.41221875e-08,1.81915625e-01
-5.40821875e-08,1.82146875e-01
-5.40421875e-08,1.82078125e-01
-5.40021875e-08,1.82112500e-01
-5.39621875e-08,1.82093750e-01
-5.39221875e-08,1.82103125e-01
-5.38821875e-08,1.82100000e-01
-5.38421875e-08,1.82096875e-01
-5.38021875e-08,1.82106250e-01
-5.37621875e-08,1.82090625e-01
-5.37221875e-08,1.82112500e-01
-5.36821875e-08,1.82081250e-01
-5.36421875e-08,1.82129687e-01
-5.36021875e-08,1.82045313e-01
-5.35621875e-08,1.82307812e-01
-5.35221875e-08,1.82553125e-01
-5.34821875e-08,1.82470313e-01
-5.34421875e-08,1.82518750e-01
-5.34021875e-08,1.82485938e-01
-5.33621875e-08,1.82509375e-01
-5.33221875e-08,1.82492188e-01
-5.32821875e-08,1.82504688e-01
-5.32421875e-08,1.82496875e-01
-5.32021875e-08,1.82500000e-01
-5.31621875e-08,1.82501563e-01
-5.31221875e-08,1.82495313e-01
-5.30821875e-08,1.82507813e-01
-5.30421875e-08,1.82487500e-01
-5.30021875e-08,1.82523437e-01
-5.29621875e-08,1.82451562e-01
-5.29221875e-08,1.82701562e-01
-5.28821875e-08,1.82960938e-01
-5.28421875e-08,1.82864063e-01
-5.28021875e-08,1.82926563e-01
-5.27621875e-08,1.82878125e-01
-5.27221875e-08,1.82918750e-01
-5.26821875e-08,1.82882813e-01
-5.26421875e-08,1.82915625e-01
-5.26021875e-08,1.82885938e-01
-5.25621875e-08,1.82914063e-01
-5.25221875e-08,1.82887500e-01
-5.24821875e-08,1.82912500e-01
-5.24421875e-08,1.82887500e-01
-5.24021875e-08,1.82912500e-01
-5.23621875e-08,1.82887500e-01
-5.23221875e-08,1.82912500e-01
-5.22821875e-08,1.82887500e-01
-5.22421875e-08,1.82914063e-01
-5.22021875e-08,1.82884375e-01
-5.21621875e-08,1.82917187e-01
-5.21221875e-08,1.82879687e-01
-5.20821875e-08,1.82925000e-01
-5.20421875e-08,1.82865625e-01
-5.20021875e-08,1.82959375e-01
-5.19621875e-08,1.82687500e-01
-5.19221875e-08,1.82450000e-01
-5.18821875e-08,1.82526563e-01
-5.18421875e-08,1.82482813e-01
-5.18021875e-08,1.82512500e-01
-5.17621875e-08,1.82490625e-01
-5.17221875e-08,1.82507813e-01
-5.16821875e-08,1.82493750e-01
-5.16421875e-08,1.82504688e-01
-5.16021875e-08,1.82496875e-01
-5.15621875e-08,1.82503125e-01
-5.15221875e-08,1.82496875e-01
-5.14821875e-08,1.82501563e-01
-5.14421875e-08,1.82498437e-01
-5.14021875e-08,1.82500000e-01
-5.13621875e-08,1.82500000e-01
-5.13221875e-08,1.82498437e-01
-5.12821875e-08,1.82503125e-01
-5.12421875e-08,1.82495313e-01
-5.12021875e-08,1.82506250e-01
-5.11621875e-08,1.82490625e-01
-5.11221875e-08,1.82514063e-01
-5.10821875e-08,1.82476562e-01
-5.10421875e-08,1.82548437e-01
-5.10021875e-08,1.82298437e-01
-5.09621875e-08,1.82039063e-01
-5.09221875e-08,1.82137500e-01
-5.08821875e-08,1.82070312e-01
-5.08421875e-08,1.82125000e-01
-5.08021875e-08,1.82078125e-01
-5.07621875e-08,1.82120313e-01
-5.07221875e-08,1.82079688e-01
-5.06821875e-08,1.82120313e-01
-5.06421875e-08,1.82079688e-01
-5.06021875e-08,1.82120313e-01
-5.05621875e-08,1.82076563e-01
-5.05221875e-08,1.82125000e-01
-5.04821875e-08,1.82070312e-01
-5.04421875e-08,1.82140625e-01
-5.04021875e-08,1.82035937e-01
-5.03621875e-08,1.82317188e-01
-5.03221875e-08,1.82543750e-01
-5.02821875e-08,1.82479688e-01
-5.02421875e-08,1.82510937e-01
-5.02021875e-08,1.82495313e-01
-5.01621875e-08,1.82501563e-01
-5.01221875e-08,1.82501563e-01
-5.00821875e-08,1.82495313e-01
-5.00421875e-08,1.82509375e-01
-5.00021875e-08,1.82485938e-01
-4.99621875e-08,1.82525000e-01
-4.99221875e-08,1.82450000e-01
-4.98821875e-08,1.82701562e-01
-4.98421875e-08,1.82960938e-01
-4.98021875e-08,1.82862500e-01
-4.97621875e-08,1.82929687e-01
-4.97221875e-08,1.82873438e-01
-4.96821875e-08,1.82925000e-01
-4.96421875e-08,1.82871875e-01
-4.96021875e-08,1.82935938e-01
-4.95621875e-08,1.82840625e-01
-4.95221875e-08,1.83112500e-01
-4.94821875e-08,1.83351563e-01
-4.94421875e-08,1.83271875e-01
-4.94021875e-08,1.83320312e-01
-4.93621875e-08,1.83284375e-01
-4.93221875e-08,1.83312500e-01
-4.92821875e-08,1.83289063e-01
-4.92421875e-08,1.83310937e-01
-4.92021875e-08,1.83290625e-01
-4.91621875e-08,1.83309375e-01
-4.91221875e-08,1.83290625e-01
-4.90821875e-08,1.83309375e-01
-4.90421875e-08,1.83290625e-01
-4.90021875e-08,1.83309375e-01
-4.89621875e-08,1.83290625e-01
-4.89221875e-08,1.83310937e-01
-4.88821875e-08,1.83289063e-01
-4.88421875e-08,1.83312500e-01
-4.88021875e-08,1.83287500e-01
-4.87621875e-08,1.83314063e-01
-4.87221875e-08,1.83284375e-01
-4.86821875e-08,1.83317188e-01
-4.86421875e-08,1.83278125e-01
-4.86021875e-08,1.83326563e-01
-4.85621875e-08,1.83264063e-01
-4.85221875e-08,1.83362500e-01
-4.84821875e-08,1.83084375e-01
-4.84421875e-08,1.82854688e-01
-4.84021875e-08,1.82920313e-01
-4.83621875e-08,1.82890625e-01
-4.83221875e-08,1.82901563e-01
-4.82821875e-08,1.82906250e-01
-4.82421875e-08,1.82882813e-01
-4.82021875e-08,1.82943750e-01
-4.81621875e-08,1.82703125e-01
-4.81221875e-08,1.82434375e-01
-4.80821875e-08,1.82542188e-01
-4.80421875e-08,1.82467188e-01
-4.80021875e-08,1.82529688e-01
-4.79621875e-08,1.82470313e-01
-4.79221875e-08,1.82531250e-01
-4.78821875e-08,1.82460938e-01
-4.78421875e-08,1.82562500e-01
-4.78021875e-08,1.82284375e-01
-4.77621875e-08,1.82051563e-01
-4.77221875e-08,1.82125000e-01
-4.76821875e-08,1.82082812e-01
-4.76421875e-08,1.82112500e-01
-4.76021875e-08,1.82090625e-01
-4.75621875e-08,1.82107812e-01
-4.75221875e-08,1.82092188e-01
-4.74821875e-08,1.82106250e-01
-4.74421875e-08,1.82093750e-01
-4.74021875e-08,1.82106250e-01
-4.73621875e-08,1.82093750e-01
-4.73221875e-08,1.82106250e-01
-4.72821875e-08,1.82093750e-01
-4.72421875e-08,1.82106250e-01
-4.72021875e-08,1.82093750e-01
-4.71621875e-08,1.82106250e-01
-4.71221875e-08,1.82093750e-01
-4.70821875e-08,1.82107812e-01
-4.70421875e-08,1.82092188e-01
-4.70021875e-08,1.82107812e-01
-4.69621875e-08,1.82090625e-01
-4.69221875e-08,1.82109375e-01
-4.68821875e-08,1.82089063e-01
-4.68421875e-08,1.82112500e-01
-4.68021875e-08,1.82085938e-01
-4.67621875e-08,1.82117187e-01
-4.67221875e-08,1.82076563e-01
-4.66821875e-08,1.82132813e-01
-4.66421875e-08,1.82042188e-01
-4.66021875e-08,1.82310938e-01
-4.65621875e-08,1.82551563e-01
-4.65221875e-08,1.82471875e-01
-4.64821875e-08,1.82518750e-01
-4.64421875e-08,1.82487500e-01
-4.64021875e-08,1.82510937e-01
-4.63621875e-08,1.82492188e-01
-4.63221875e-08,1.82506250e-01
-4.62821875e-08,1.82495313e-01
-4.62421875e-08,1.82504688e-01
-4.62021875e-08,1.82496875e-01
-4.61621875e-08,1.82503125e-01
-4.61221875e-08,1.82496875e-01
-4.60821875e-08,1.82501563e-01
-4.60421875e-08,1.82498437e-01
-4.60021875e-08,1.82501563e-01
-4.59621875e-08,1.82498437e-01
-4.59221875e-08,1.82500000e-01
-4.58821875e-08,1.82500000e-01
-4.58421875e-08,1.82500000e-01
-4.58021875e-08,1.82500000e-01
-4.57621875e-08,1.82500000e-01
-4.57221875e-08,1.82500000e-01
-4.56821875e-08,1.82500000e-01
-4.56421875e-08,1.82501563e-01
-4.56021875e-08,1.82498437e-01
-4.55621875e-08,1.82501563e-01
-4.55221875e-08,1.82498437e-01
-4.54821875e-08,1.82501563e-01
-4.54421875e-08,1.82498437e-01
-4.54021875e-08,1.82501563e-01
-4.53621875e-08,1.82498437e-01
-4.53221875e-08,1.82503125e-01
-4.52821875e-08,1.82496875e-01
-4.52421875e-08,1.82503125e-01
-4.52021875e-08,1.82496875e-01
-4.51621875e-08,1.82503125e-01
-4.51221875e-08,1.82496875e-01
-4.50821875e-08,1.82503125e-01
-4.50421875e-08,1.82496875e-01
-4.50021875e-08,1.82504688e-01
-4.49621875e-08,1.82495313e-01
-4.49221875e-08,1.82504688e-01
-4.48821875e-08,1.82495313e-01
-4.48421875e-08,1.82504688e-01
-4.48021875e-08,1.82495313e-01
-4.47621875e-08,1.82504688e-01
-4.47221875e-08,1.82493750e-01
-4.46821875e-08,1.82506250e-01
-4.46421875e-08,1.82493750e-01
-4.46021875e-08,1.82506250e-01
-4.45621875e-08,1.82492188e-01
-4.45221875e-08,1.82507813e-01
-4.44821875e-08,1.82492188e-01
-4.44421875e-08,1.82509375e-01
-4.44021875e-08,1.82490625e-01
-4.43621875e-08,1.82510937e-01
-4.43221875e-08,1.82489063e-01
-4.42821875e-08,1.82512500e-01
-4.42421875e-08,1.82485938e-01
-4.42021875e-08,1.82517188e-01
-4.41621875e-08,1.82479688e-01
-4.41221875e-08,1.82525000e-01
-4.40821875e-08,1.82464062e-01
-4.40421875e-08,1.82560938e-01
-4.40021875e-08,1.82285937e-01
-4.39621875e-08,1.82051563e-01
-4.39221875e-08,1.82123438e-01
-4.38821875e-08,1.82085938e-01
-4.38421875e-08,1.82109375e-01
-4.38021875e-08,1.82095312e-01
-4.37621875e-08,1.82103125e-01
-4.37221875e-08,1.82100000e-01
-4.36821875e-08,1.82098438e-01
-4.36421875e-08,1.82104688e-01
-4.36021875e-08,1.82093750e-01
-4.35621875e-08,1.82109375e-01
-4.35221875e-08,1.82087500e-01
-4.34821875e-08,1.82118750e-01
-4.34421875e-08,1.82071875e-01
-4.34021875e-08,1.82153125e-01
-4.33621875e-08,1.81893750e-01
-4.33221875e-08,1.81645313e-01
-4.32821875e-08,1.81731250e-01
-4.32421875e-08,1.81678125e-01
-4.32021875e-08,1.81715625e-01
-4.31621875e-08,1.81687500e-01
-4.31221875e-08,1.81710938e-01
-4.30821875e-08,1.81692188e-01
-4.30421875e-08,1.81707813e-01
-4.30021875e-08,1.81693750e-01
-4.29621875e-08,1.81704688e-01
-4.29221875e-08,1.81695313e-01
-4.28821875e-08,1.81703125e-01
-4.28421875e-08,1.81696875e-01
-4.28021875e-08,1.81701562e-01
-4.27621875e-08,1.81698438e-01
-4.27221875e-08,1.81701562e-01
-4.26821875e-08,1.81700000e-01
-4.26421875e-08,1.81700000e-01
-4.26021875e-08,1.81700000e-01
-4.25621875e-08,1.81698438e-01
-4.25221875e-08,1.81701562e-01
-4.24821875e-08,1.81696875e-01
-4.24421875e-08,1.81704688e-01
-4.24021875e-08,1.81695313e-01
-4.23621875e-08,1.81706250e-01
-4.23221875e-08,1.81690625e-01
-4.22821875e-08,1.81712500e-01
-4.22421875e-08,1.81682813e-01
-4.22021875e-08,1.81726562e-01
-4.21621875e-08,1.81648438e-01
-4.21221875e-08,1.81904687e-01
-4.20821875e-08,1.82157813e-01
-4.20421875e-08,1.82065625e-01
-4.20021875e-08,1.82126563e-01
-4.19621875e-08,1.82078125e-01
-4.19221875e-08,1.82120313e-01
-4.18821875e-08,1.82079688e-01
-4.18421875e-08,1.82120313e-01
-4.18021875e-08,1.82075000e-01
-4.17621875e-08,1.82132813e-01
-4.17221875e-08,1.82043750e-01
-4.16821875e-08,1.82307812e-01
-4.16421875e-08,1.82554688e-01
-4.16021875e-08,1.82467188e-01
-4.15621875e-08,1.82525000e-01
-4.15221875e-08,1.82479688e-01
-4.14821875e-08,1.82520313e-01
-4.14421875e-08,1.82479688e-01
-4.14021875e-08,1.82521875e-01
-4.13621875e-08,1.82473438e-01
-4.13221875e-08,1.82535937e-01
-4.12821875e-08,1.82440625e-01
-4.12421875e-08,1.82712500e-01
-4.12021875e-08,1.82950000e-01
-4.11621875e-08,1.82873438e-01
-4.11221875e-08,1.82917187e-01
-4.10821875e-08,1.82889063e-01
-4.10421875e-08,1.82907813e-01
-4.10021875e-08,1.82893750e-01
-4.09621875e-08,1.82904687e-01
-4.09221875e-08,1.82896875e-01
-4.08821875e-08,1.82903125e-01
-4.08421875e-08,1.82898438e-01
-4.08021875e-08,1.82901563e-01
-4.07621875e-08,1.82900000e-01
-4.07221875e-08,1.82898438e-01
-4.06821875e-08,1.82901563e-01
-4.06421875e-08,1.82896875e-01
-4.06021875e-08,1.82903125e-01
-4.05621875e-08,1.82895313e-01
-4.05221875e-08,1.82906250e-01
-4.04821875e-08,1.82892187e-01
-4.04421875e-08,1.82909375e-01
-4.04021875e-08,1.82887500e-01
-4.03621875e-08,1.82917187e-01
-4.03221875e-08,1.82873438e-01
-4.02821875e-08,1.82951562e-01
-4.02421875e-08,1.82695313e-01
-4.02021875e-08,1.82442188e-01
-4.01621875e-08,1.82534375e-01
-4.01221875e-08,1.82475000e-01
-4.00821875e-08,1.82521875e-01
-4.00421875e-08,1.82481250e-01
-4.00021875e-08,1.82518750e-01
-3.99621875e-08,1.82479688e-01
-3.99221875e-08,1.82523437e-01
-3.98821875e-08,1.82468750e-01
-3.98421875e-08,1.82554688e-01
-3.98021875e-08,1.82293750e-01
-3.97621875e-08,1.82043750e-01
-3.97221875e-08,1.82134375e-01
-3.96821875e-08,1.82073438e-01
-3.96421875e-08,1.82125000e-01
-3.96021875e-08,1.82075000e-01
-3.95621875e-08,1.82128125e-01
-3.95221875e-08,1.82062500e-01
-3.94821875e-08,1.82160938e-01
-3.94421875e-08,1.81887500e-01
-3.94021875e-08,1.81650000e-01
-3.93621875e-08,1.81726562e-01
-3.93221875e-08,1.81682813e-01
-3.92821875e-08,1.81712500e-01
-3.92421875e-08,1.81689062e-01
-3.92021875e-08,1.81709375e-01
-3.91621875e-08,1.81690625e-01
-3.91221875e-08,1.81709375e-01
-3.90821875e-08,1.81689062e-01
-3.90421875e-08,1.81714062e-01
-3.90021875e-08,1.81678125e-01
-3.89621875e-08,1.81745313e-01
-3.89221875e-08,1.81504688e-01
-3.88821875e-08,1.81231250e-01
-3.88421875e-08,1.81348438e-01
-3.88021875e-08,1.81254688e-01
-3.87621875e-08,1.81351563e-01
-3.87221875e-08,1.81226562e-01
-3.86821875e-08,1.81525000e-01
-3.86421875e-08,1.81737500e-01
-3.86021875e-08,1.81685938e-01
-3.85621875e-08,1.81704688e-01
-3.85221875e-08,1.81701562e-01
