trails/0bbf0cf1bfcc3246d9e376b62f80622a/aes_ch1_20250507112652473.csv

Model,MSO66B
Label,
Waveform Type,ANALOG
Horizontal Units,s
Sample Interval,4.00000000e-11
Record Length,10000
Zero Index,1599.01562500
Vertical Units,A
ANALOG_Thumbnail,
yOffset,1.84500000e-01
yPosition,8.40000000e-01

Labels,
TIME,CH1
-6.39606250e-08,1.87703125e-01
-6.39206250e-08,1.87696875e-01
-6.38806250e-08,1.87703125e-01
-6.38406250e-08,1.87696875e-01
-6.38006250e-08,1.87703125e-01
-6.37606250e-08,1.87696875e-01
-6.37206250e-08,1.87703125e-01
-6.36806250e-08,1.87696875e-01
-6.36406250e-08,1.87703125e-01
-6.36006250e-08,1.87696875e-01
-6.35606250e-08,1.87703125e-01
-6.35206250e-08,1.87696875e-01
-6.34806250e-08,1.87703125e-01
-6.34406250e-08,1.87696875e-01
-6.34006250e-08,1.87703125e-01
-6.33606250e-08,1.87696875e-01
-6.33206250e-08,1.87703125e-01
-6.32806250e-08,1.87696875e-01
-6.32406250e-08,1.87703125e-01
-6.32006250e-08,1.87696875e-01
-6.31606250e-08,1.87703125e-01
-6.31206250e-08,1.87696875e-01
-6.30806250e-08,1.87703125e-01
-6.30406250e-08,1.87696875e-01
-6.30006250e-08,1.87703125e-01
-6.29606250e-08,1.87695313e-01
-6.29206250e-08,1.87704687e-01
-6.28806250e-08,1.87695313e-01
-6.28406250e-08,1.87704687e-01
-6.28006250e-08,1.87695313e-01
-6.27606250e-08,1.87704687e-01
-6.27206250e-08,1.87695313e-01
-6.26806250e-08,1.87704687e-01
-6.26406250e-08,1.87695313e-01
-6.26006250e-08,1.87704687e-01
-6.25606250e-08,1.87695313e-01
-6.25206250e-08,1.87704687e-01
-6.24806250e-08,1.87695313e-01
-6.24406250e-08,1.87704687e-01
-6.24006250e-08,1.87693750e-01
-6.23606250e-08,1.87706250e-01
-6.23206250e-08,1.87693750e-01
-6.22806250e-08,1.87706250e-01
-6.22406250e-08,1.87693750e-01
-6.22006250e-08,1.87707813e-01
-6.21606250e-08,1.87692187e-01
-6.21206250e-08,1.87709375e-01
-6.20806250e-08,1.87690625e-01
-6.20406250e-08,1.87710938e-01
-6.20006250e-08,1.87685938e-01
-6.19606250e-08,1.87715625e-01
-6.19206250e-08,1.87678125e-01
-6.18806250e-08,1.87731250e-01
-6.18406250e-08,1.87643750e-01
-6.18006250e-08,1.87907812e-01
-6.17606250e-08,1.88154688e-01
-6.17206250e-08,1.88068750e-01
-6.16806250e-08,1.88121875e-01
-6.16406250e-08,1.88082813e-01
-6.16006250e-08,1.88114063e-01
-6.15606250e-08,1.88087500e-01
-6.15206250e-08,1.88112500e-01
-6.14806250e-08,1.88087500e-01
-6.14406250e-08,1.88112500e-01
-6.14006250e-08,1.88085937e-01
-6.13606250e-08,1.88117188e-01
-6.13206250e-08,1.88078125e-01
-6.12806250e-08,1.88129688e-01
-6.12406250e-08,1.88045313e-01
-6.12006250e-08,1.88307813e-01
-6.11606250e-08,1.88554688e-01
-6.11206250e-08,1.88468750e-01
-6.10806250e-08,1.88521875e-01
-6.10406250e-08,1.88482813e-01
-6.10006250e-08,1.88515625e-01
-6.09606250e-08,1.88487500e-01
-6.09206250e-08,1.88512500e-01
-6.08806250e-08,1.88489062e-01
-6.08406250e-08,1.88510938e-01
-6.08006250e-08,1.88490625e-01
-6.07606250e-08,1.88509375e-01
-6.07206250e-08,1.88490625e-01
-6.06806250e-08,1.88509375e-01
-6.06406250e-08,1.88490625e-01
-6.06006250e-08,1.88509375e-01
-6.05606250e-08,1.88490625e-01
-6.05206250e-08,1.88509375e-01
-6.04806250e-08,1.88490625e-01
-6.04406250e-08,1.88509375e-01
-6.04006250e-08,1.88490625e-01
-6.03606250e-08,1.88509375e-01
-6.03206250e-08,1.88490625e-01
-6.02806250e-08,1.88510938e-01
-6.02406250e-08,1.88489062e-01
-6.02006250e-08,1.88510938e-01
-6.01606250e-08,1.88489062e-01
-6.01206250e-08,1.88512500e-01
-6.00806250e-08,1.88487500e-01
-6.00406250e-08,1.88514062e-01
-6.00006250e-08,1.88485938e-01
-5.99606250e-08,1.88515625e-01
-5.99206250e-08,1.88482813e-01
-5.98806250e-08,1.88520313e-01
-5.98406250e-08,1.88476562e-01
-5.98006250e-08,1.88528125e-01
-5.97606250e-08,1.88462500e-01
-5.97206250e-08,1.88562500e-01
-5.96806250e-08,1.88284375e-01
-5.96406250e-08,1.88054688e-01
-5.96006250e-08,1.88121875e-01
-5.95606250e-08,1.88089063e-01
-5.95206250e-08,1.88106250e-01
-5.94806250e-08,1.88096875e-01
-5.94406250e-08,1.88100000e-01
-5.94006250e-08,1.88103125e-01
-5.93606250e-08,1.88095313e-01
-5.93206250e-08,1.88106250e-01
-5.92806250e-08,1.88090625e-01
-5.92406250e-08,1.88110938e-01
-5.92006250e-08,1.88084375e-01
-5.91606250e-08,1.88120312e-01
-5.91206250e-08,1.88068750e-01
-5.90806250e-08,1.88156250e-01
-5.90406250e-08,1.87890625e-01
-5.90006250e-08,1.87648438e-01
-5.89606250e-08,1.87728125e-01
-5.89206250e-08,1.87681250e-01
-5.88806250e-08,1.87712500e-01
-5.88406250e-08,1.87690625e-01
-5.88006250e-08,1.87706250e-01
-5.87606250e-08,1.87695313e-01
-5.87206250e-08,1.87703125e-01
-5.86806250e-08,1.87698438e-01
-5.86406250e-08,1.87700000e-01
-5.86006250e-08,1.87701563e-01
-5.85606250e-08,1.87698438e-01
-5.85206250e-08,1.87703125e-01
-5.84806250e-08,1.87695313e-01
-5.84406250e-08,1.87706250e-01
-5.84006250e-08,1.87690625e-01
-5.83606250e-08,1.87712500e-01
-5.83206250e-08,1.87681250e-01
-5.82806250e-08,1.87728125e-01
-5.82406250e-08,1.87646875e-01
-5.82006250e-08,1.87906250e-01
-5.81606250e-08,1.88154688e-01
-5.81206250e-08,1.88068750e-01
-5.80806250e-08,1.88121875e-01
-5.80406250e-08,1.88082813e-01
-5.80006250e-08,1.88114063e-01
-5.79606250e-08,1.88089063e-01
-5.79206250e-08,1.88109375e-01
-5.78806250e-08,1.88092188e-01
-5.78406250e-08,1.88107812e-01
-5.78006250e-08,1.88093750e-01
-5.77606250e-08,1.88106250e-01
-5.77206250e-08,1.88095313e-01
-5.76806250e-08,1.88104688e-01
-5.76406250e-08,1.88095313e-01
-5.76006250e-08,1.88103125e-01
-5.75606250e-08,1.88096875e-01
-5.75206250e-08,1.88103125e-01
-5.74806250e-08,1.88096875e-01
-5.74406250e-08,1.88101563e-01
-5.74006250e-08,1.88098437e-01
-5.73606250e-08,1.88101563e-01
-5.73206250e-08,1.88098437e-01
-5.72806250e-08,1.88101563e-01
-5.72406250e-08,1.88098437e-01
-5.72006250e-08,1.88100000e-01
-5.71606250e-08,1.88100000e-01
-5.71206250e-08,1.88100000e-01
-5.70806250e-08,1.88100000e-01
-5.70406250e-08,1.88100000e-01
-5.70006250e-08,1.88100000e-01
-5.69606250e-08,1.88098437e-01
-5.69206250e-08,1.88101563e-01
-5.68806250e-08,1.88098437e-01
-5.68406250e-08,1.88101563e-01
-5.68006250e-08,1.88098437e-01
-5.67606250e-08,1.88101563e-01
-5.67206250e-08,1.88096875e-01
-5.66806250e-08,1.88103125e-01
-5.66406250e-08,1.88096875e-01
-5.66006250e-08,1.88103125e-01
-5.65606250e-08,1.88096875e-01
-5.65206250e-08,1.88104688e-01
-5.64806250e-08,1.88095313e-01
-5.64406250e-08,1.88104688e-01
-5.64006250e-08,1.88093750e-01
-5.63606250e-08,1.88106250e-01
-5.63206250e-08,1.88092188e-01
-5.62806250e-08,1.88107812e-01
-5.62406250e-08,1.88090625e-01
-5.62006250e-08,1.88110938e-01
-5.61606250e-08,1.88087500e-01
-5.61206250e-08,1.88114063e-01
-5.60806250e-08,1.88081250e-01
-5.60406250e-08,1.88123438e-01
-5.60006250e-08,1.88065625e-01
-5.59606250e-08,1.88159375e-01
-5.59206250e-08,1.87887500e-01
-5.58806250e-08,1.87651563e-01
-5.58406250e-08,1.87725000e-01
-5.58006250e-08,1.87685938e-01
-5.57606250e-08,1.87707813e-01
-5.57206250e-08,1.87696875e-01
-5.56806250e-08,1.87700000e-01
-5.56406250e-08,1.87704687e-01
-5.56006250e-08,1.87689063e-01
-5.55606250e-08,1.87721875e-01
-5.55206250e-08,1.87651563e-01
-5.54806250e-08,1.87901563e-01
-5.54406250e-08,1.88160938e-01
-5.54006250e-08,1.88064063e-01
-5.53606250e-08,1.88126563e-01
-5.53206250e-08,1.88079688e-01
-5.52806250e-08,1.88117188e-01
-5.52406250e-08,1.88084375e-01
-5.52006250e-08,1.88114063e-01
-5.51606250e-08,1.88087500e-01
-5.51206250e-08,1.88110938e-01
-5.50806250e-08,1.88089063e-01
-5.50406250e-08,1.88109375e-01
-5.50006250e-08,1.88090625e-01
-5.49606250e-08,1.88107812e-01
-5.49206250e-08,1.88092188e-01
-5.48806250e-08,1.88107812e-01
-5.48406250e-08,1.88092188e-01
-5.48006250e-08,1.88106250e-01
-5.47606250e-08,1.88093750e-01
-5.47206250e-08,1.88106250e-01
-5.46806250e-08,1.88093750e-01
-5.46406250e-08,1.88106250e-01
-5.46006250e-08,1.88093750e-01
-5.45606250e-08,1.88106250e-01
-5.45206250e-08,1.88093750e-01
-5.44806250e-08,1.88106250e-01
-5.44406250e-08,1.88093750e-01
-5.44006250e-08,1.88106250e-01
-5.43606250e-08,1.88093750e-01
-5.43206250e-08,1.88106250e-01
-5.42806250e-08,1.88093750e-01
-5.42406250e-08,1.88106250e-01
-5.42006250e-08,1.88093750e-01
-5.41606250e-08,1.88106250e-01
-5.41206250e-08,1.88092188e-01
-5.40806250e-08,1.88107812e-01
-5.40406250e-08,1.88090625e-01
-5.40006250e-08,1.88110938e-01
-5.39606250e-08,1.88085937e-01
-5.39206250e-08,1.88118750e-01
-5.38806250e-08,1.88071875e-01
-5.38406250e-08,1.88151563e-01
-5.38006250e-08,1.87895312e-01
-5.37606250e-08,1.87642188e-01
-5.37206250e-08,1.87734375e-01
-5.36806250e-08,1.87673438e-01
-5.36406250e-08,1.87721875e-01
-5.36006250e-08,1.87679687e-01
-5.35606250e-08,1.87720313e-01
-5.35206250e-08,1.87678125e-01
-5.34806250e-08,1.87726562e-01
-5.34406250e-08,1.87665625e-01
-5.34006250e-08,1.87757813e-01
-5.33606250e-08,1.87489062e-01
-5.33206250e-08,1.87246875e-01
-5.32806250e-08,1.87331250e-01
-5.32406250e-08,1.87275000e-01
-5.32006250e-08,1.87323437e-01
-5.31606250e-08,1.87270313e-01
-5.31206250e-08,1.87351563e-01
-5.30806250e-08,1.87098438e-01
-5.30406250e-08,1.86837500e-01
-5.30006250e-08,1.86942187e-01
-5.29606250e-08,1.86862500e-01
-5.29206250e-08,1.86937500e-01
-5.28806250e-08,1.86854688e-01
-5.28406250e-08,1.86970313e-01
-5.28006250e-08,1.86676563e-01
-5.27606250e-08,1.86460938e-01
-5.27206250e-08,1.86514062e-01
-5.26806250e-08,1.86496875e-01
-5.26406250e-08,1.86495313e-01
-5.26006250e-08,1.86512500e-01
-5.25606250e-08,1.86476562e-01
-5.25206250e-08,1.86550000e-01
-5.24806250e-08,1.86295313e-01
-5.24406250e-08,1.86043750e-01
-5.24006250e-08,1.86131250e-01
-5.23606250e-08,1.86078125e-01
-5.23206250e-08,1.86115625e-01
-5.22806250e-08,1.86089063e-01
-5.22406250e-08,1.86107812e-01
-5.22006250e-08,1.86096875e-01
-5.21606250e-08,1.86100000e-01
-5.21206250e-08,1.86106250e-01
-5.20806250e-08,1.86084375e-01
-5.20406250e-08,1.86140625e-01
-5.20006250e-08,1.85906250e-01
-5.19606250e-08,1.85631250e-01
-5.19206250e-08,1.85746875e-01
-5.18806250e-08,1.85660938e-01
-5.18406250e-08,1.85735938e-01
-5.18006250e-08,1.85662500e-01
-5.17606250e-08,1.85745313e-01
-5.17206250e-08,1.85631250e-01
-5.16806250e-08,1.85920313e-01
-5.16406250e-08,1.86142188e-01
-5.16006250e-08,1.86079688e-01
-5.15606250e-08,1.86110938e-01
-5.15206250e-08,1.86093750e-01
-5.14806250e-08,1.86103125e-01
-5.14406250e-08,1.86100000e-01
-5.14006250e-08,1.86098438e-01
-5.13606250e-08,1.86104688e-01
-5.13206250e-08,1.86090625e-01
-5.12806250e-08,1.86118750e-01
-5.12406250e-08,1.86057813e-01
-5.12006250e-08,1.86293750e-01
-5.11606250e-08,1.86570313e-01
-5.11206250e-08,1.86450000e-01
-5.10806250e-08,1.86543750e-01
-5.10406250e-08,1.86454687e-01
-5.10006250e-08,1.86553125e-01
-5.09606250e-08,1.86423438e-01
-5.09206250e-08,1.86731250e-01
-5.08806250e-08,1.86929687e-01
-5.08406250e-08,1.86896875e-01
-5.08006250e-08,1.86889063e-01
-5.07606250e-08,1.86926563e-01
-5.07206250e-08,1.86845312e-01
-5.06806250e-08,1.87110938e-01
-5.06406250e-08,1.87346875e-01
-5.06006250e-08,1.87281250e-01
-5.05606250e-08,1.87303125e-01
-5.05206250e-08,1.87312500e-01
-5.04806250e-08,1.87259375e-01
-5.04406250e-08,1.87496875e-01
-5.04006250e-08,1.87762500e-01
-5.03606250e-08,1.87664063e-01
-5.03206250e-08,1.87723438e-01
-5.02806250e-08,1.87685938e-01
-5.02406250e-08,1.87706250e-01
-5.02006250e-08,1.87706250e-01
-5.01606250e-08,1.87667187e-01
-5.01206250e-08,1.87887500e-01
-5.00806250e-08,1.88173438e-01
-5.00406250e-08,1.88051563e-01
-5.00006250e-08,1.88139063e-01
-4.99606250e-08,1.88067188e-01
-4.99206250e-08,1.88129688e-01
-4.98806250e-08,1.88071875e-01
-4.98406250e-08,1.88126563e-01
-4.98006250e-08,1.88075000e-01
-4.97606250e-08,1.88123438e-01
-4.97206250e-08,1.88076563e-01
-4.96806250e-08,1.88123438e-01
-4.96406250e-08,1.88078125e-01
-4.96006250e-08,1.88121875e-01
-4.95606250e-08,1.88078125e-01
-4.95206250e-08,1.88123438e-01
-4.94806250e-08,1.88076563e-01
-4.94406250e-08,1.88125000e-01
-4.94006250e-08,1.88073437e-01
-4.93606250e-08,1.88128125e-01
-4.93206250e-08,1.88068750e-01
-4.92806250e-08,1.88135938e-01
-4.92406250e-08,1.88054688e-01
-4.92006250e-08,1.88170313e-01
-4.91606250e-08,1.87875000e-01
-4.91206250e-08,1.87662500e-01
-4.90806250e-08,1.87712500e-01
-4.90406250e-08,1.87696875e-01
-4.90006250e-08,1.87696875e-01
-4.89606250e-08,1.87709375e-01
-4.89206250e-08,1.87685938e-01
-4.88806250e-08,1.87720313e-01
-4.88406250e-08,1.87668750e-01
-4.88006250e-08,1.87756250e-01
-4.87606250e-08,1.87489062e-01
-4.87206250e-08,1.87248438e-01
-4.86806250e-08,1.87326563e-01
-4.86406250e-08,1.87282813e-01
-4.86006250e-08,1.87310937e-01
-4.85606250e-08,1.87292188e-01
-4.85206250e-08,1.87306250e-01
-4.84806250e-08,1.87296875e-01
-4.84406250e-08,1.87301563e-01
-4.84006250e-08,1.87300000e-01
-4.83606250e-08,1.87298437e-01
-4.83206250e-08,1.87304688e-01
-4.82806250e-08,1.87292188e-01
-4.82406250e-08,1.87312500e-01
-4.82006250e-08,1.87279688e-01
-4.81606250e-08,1.87345312e-01
-4.81206250e-08,1.87103125e-01
-4.80806250e-08,1.86832813e-01
-4.80406250e-08,1.86945313e-01
-4.80006250e-08,1.86857812e-01
-4.79606250e-08,1.86946875e-01
-4.79206250e-08,1.86832813e-01
-4.78806250e-08,1.87118750e-01
-4.78406250e-08,1.87345312e-01
-4.78006250e-08,1.87278125e-01
-4.77606250e-08,1.87314063e-01
-4.77206250e-08,1.87290625e-01
-4.76806250e-08,1.87307813e-01
-4.76406250e-08,1.87293750e-01
-4.76006250e-08,1.87304688e-01
-4.75606250e-08,1.87295313e-01
-4.75206250e-08,1.87303125e-01
-4.74806250e-08,1.87296875e-01
-4.74406250e-08,1.87303125e-01
-4.74006250e-08,1.87298437e-01
-4.73606250e-08,1.87301563e-01
-4.73206250e-08,1.87298437e-01
-4.72806250e-08,1.87301563e-01
-4.72406250e-08,1.87298437e-01
-4.72006250e-08,1.87301563e-01
-4.71606250e-08,1.87300000e-01
-4.71206250e-08,1.87300000e-01
-4.70806250e-08,1.87300000e-01
-4.70406250e-08,1.87300000e-01
-4.70006250e-08,1.87301563e-01
-4.69606250e-08,1.87298437e-01
-4.69206250e-08,1.87303125e-01
-4.68806250e-08,1.87296875e-01
-4.68406250e-08,1.87304688e-01
-4.68006250e-08,1.87293750e-01
-4.67606250e-08,1.87309375e-01
-4.67206250e-08,1.87285937e-01
-4.66806250e-08,1.87323437e-01
-4.66406250e-08,1.87251562e-01
-4.66006250e-08,1.87501562e-01
-4.65606250e-08,1.87760938e-01
-4.65206250e-08,1.87662500e-01
-4.64806250e-08,1.87728125e-01
-4.64406250e-08,1.87676563e-01
-4.64006250e-08,1.87721875e-01
-4.63606250e-08,1.87679687e-01
-4.63206250e-08,1.87718750e-01
-4.62806250e-08,1.87681250e-01
-4.62406250e-08,1.87720313e-01
-4.62006250e-08,1.87679687e-01
-4.61606250e-08,1.87723438e-01
-4.61206250e-08,1.87671875e-01
-4.60806250e-08,1.87735938e-01
-4.60406250e-08,1.87639063e-01
-4.60006250e-08,1.87912500e-01
-4.59606250e-08,1.88150000e-01
-4.59206250e-08,1.88073437e-01
-4.58806250e-08,1.88118750e-01
-4.58406250e-08,1.88084375e-01
-4.58006250e-08,1.88115625e-01
-4.57606250e-08,1.88081250e-01
-4.57206250e-08,1.88126563e-01
-4.56806250e-08,1.88050000e-01
-4.56406250e-08,1.88301563e-01
-4.56006250e-08,1.88562500e-01
-4.55606250e-08,1.88459375e-01
-4.55206250e-08,1.88532813e-01
-4.54806250e-08,1.88468750e-01
-4.54406250e-08,1.88531250e-01
-4.54006250e-08,1.88465625e-01
-4.53606250e-08,1.88543750e-01
-4.53206250e-08,1.88432813e-01
-4.52806250e-08,1.88720313e-01
-4.52406250e-08,1.88942187e-01
-4.52006250e-08,1.88881250e-01
-4.51606250e-08,1.88909375e-01
-4.51206250e-08,1.88896875e-01
-4.50806250e-08,1.88900000e-01
-4.50406250e-08,1.88903125e-01
-4.50006250e-08,1.88895312e-01
-4.49606250e-08,1.88907812e-01
-4.49206250e-08,1.88889063e-01
-4.48806250e-08,1.88914063e-01
-4.48406250e-08,1.88879688e-01
-4.48006250e-08,1.88929687e-01
-4.47606250e-08,1.88845313e-01
-4.47206250e-08,1.89107812e-01
-4.46806250e-08,1.89353125e-01
-4.46406250e-08,1.89270313e-01
-4.46006250e-08,1.89320313e-01
-4.45606250e-08,1.89284375e-01
-4.45206250e-08,1.89312500e-01
-4.44806250e-08,1.89290625e-01
-4.44406250e-08,1.89307813e-01
-4.44006250e-08,1.89293750e-01
-4.43606250e-08,1.89306250e-01
-4.43206250e-08,1.89295313e-01
-4.42806250e-08,1.89304688e-01
-4.42406250e-08,1.89295313e-01
-4.42006250e-08,1.89303125e-01
-4.41606250e-08,1.89296875e-01
-4.41206250e-08,1.89303125e-01
-4.40806250e-08,1.89296875e-01
-4.40406250e-08,1.89301563e-01
-4.40006250e-08,1.89298437e-01
-4.39606250e-08,1.89301563e-01
-4.39206250e-08,1.89298437e-01
-4.38806250e-08,1.89301563e-01
-4.38406250e-08,1.89298437e-01
-4.38006250e-08,1.89300000e-01
-4.37606250e-08,1.89300000e-01
-4.37206250e-08,1.89300000e-01
-4.36806250e-08,1.89300000e-01
-4.36406250e-08,1.89300000e-01
-4.36006250e-08,1.89300000e-01
-4.35606250e-08,1.89300000e-01
-4.35206250e-08,1.89300000e-01
-4.34806250e-08,1.89300000e-01
-4.34406250e-08,1.89300000e-01
-4.34006250e-08,1.89298437e-01
-4.33606250e-08,1.89301563e-01
-4.33206250e-08,1.89298437e-01
-4.32806250e-08,1.89301563e-01
-4.32406250e-08,1.89298437e-01
-4.32006250e-08,1.89301563e-01
-4.31606250e-08,1.89298437e-01
-4.31206250e-08,1.89301563e-01
-4.30806250e-08,1.89298437e-01
-4.30406250e-08,1.89301563e-01
-4.30006250e-08,1.89296875e-01
-4.29606250e-08,1.89303125e-01
-4.29206250e-08,1.89296875e-01
-4.28806250e-08,1.89303125e-01
-4.28406250e-08,1.89296875e-01
-4.28006250e-08,1.89304688e-01
-4.27606250e-08,1.89295313e-01
-4.27206250e-08,1.89304688e-01
-4.26806250e-08,1.89293750e-01
-4.26406250e-08,1.89306250e-01
-4.26006250e-08,1.89292188e-01
-4.25606250e-08,1.89307813e-01
-4.25206250e-08,1.89290625e-01
-4.24806250e-08,1.89312500e-01
-4.24406250e-08,1.89284375e-01
-4.24006250e-08,1.89320313e-01
-4.23606250e-08,1.89270313e-01
-4.23206250e-08,1.89354688e-01
-4.22806250e-08,1.89092188e-01
-4.22406250e-08,1.88845313e-01
-4.22006250e-08,1.88931250e-01
-4.21606250e-08,1.88878125e-01
-4.21206250e-08,1.88917188e-01
-4.20806250e-08,1.88885938e-01
-4.20406250e-08,1.88910938e-01
-4.20006250e-08,1.88890625e-01
-4.19606250e-08,1.88909375e-01
-4.19206250e-08,1.88892188e-01
-4.18806250e-08,1.88907812e-01
-4.18406250e-08,1.88893750e-01
-4.18006250e-08,1.88906250e-01
-4.17606250e-08,1.88893750e-01
-4.17206250e-08,1.88906250e-01
-4.16806250e-08,1.88893750e-01
-4.16406250e-08,1.88906250e-01
-4.16006250e-08,1.88893750e-01
-4.15606250e-08,1.88906250e-01
-4.15206250e-08,1.88893750e-01
-4.14806250e-08,1.88906250e-01
-4.14406250e-08,1.88893750e-01
-4.14006250e-08,1.88906250e-01
-4.13606250e-08,1.88893750e-01
-4.13206250e-08,1.88907812e-01
-4.12806250e-08,1.88892188e-01
-4.12406250e-08,1.88909375e-01
-4.12006250e-08,1.88889063e-01
-4.11606250e-08,1.88912500e-01
-4.11206250e-08,1.88884375e-01
-4.10806250e-08,1.88920313e-01
-4.10406250e-08,1.88870312e-01
-4.10006250e-08,1.88954687e-01
-4.09606250e-08,1.88693750e-01
-4.09206250e-08,1.88443750e-01
-4.08806250e-08,1.88531250e-01
-4.08406250e-08,1.88476562e-01
-4.08006250e-08,1.88518750e-01
-4.07606250e-08,1.88484375e-01
-4.07206250e-08,1.88514062e-01
-4.06806250e-08,1.88487500e-01
-4.06406250e-08,1.88512500e-01
-4.06006250e-08,1.88489062e-01
-4.05606250e-08,1.88510938e-01
-4.05206250e-08,1.88489062e-01
-4.04806250e-08,1.88510938e-01
-4.04406250e-08,1.88487500e-01
-4.04006250e-08,1.88512500e-01
-4.03606250e-08,1.88485938e-01
-4.03206250e-08,1.88515625e-01
-4.02806250e-08,1.88481250e-01
-4.02406250e-08,1.88523438e-01
-4.02006250e-08,1.88467188e-01
-4.01606250e-08,1.88557813e-01
-4.01206250e-08,1.88289062e-01
-4.00806250e-08,1.88048437e-01
-4.00406250e-08,1.88128125e-01
-4.00006250e-08,1.88081250e-01
-3.99606250e-08,1.88114063e-01
-3.99206250e-08,1.88089063e-01
-3.98806250e-08,1.88109375e-01
-3.98406250e-08,1.88092188e-01
-3.98006250e-08,1.88106250e-01
-3.97606250e-08,1.88093750e-01
-3.97206250e-08,1.88104688e-01
-3.96806250e-08,1.88095313e-01
-3.96406250e-08,1.88104688e-01
-3.96006250e-08,1.88095313e-01
-3.95606250e-08,1.88104688e-01
-3.95206250e-08,1.88095313e-01
-3.94806250e-08,1.88104688e-01
-3.94406250e-08,1.88095313e-01
-3.94006250e-08,1.88104688e-01
-3.93606250e-08,1.88093750e-01
-3.93206250e-08,1.88106250e-01
-3.92806250e-08,1.88092188e-01
-3.92406250e-08,1.88110938e-01
-3.92006250e-08,1.88084375e-01
-3.91606250e-08,1.88125000e-01
-3.91206250e-08,1.88051563e-01
-3.90806250e-08,1.88301563e-01
-3.90406250e-08,1.88562500e-01
-3.90006250e-08,1.88460938e-01
-3.89606250e-08,1.88531250e-01
-3.89206250e-08,1.88471875e-01
-3.88806250e-08,1.88526562e-01
-3.88406250e-08,1.88473438e-01
-3.88006250e-08,1.88528125e-01
-3.87606250e-08,1.88467188e-01
-3.87206250e-08,1.88542188e-01
-3.86806250e-08,1.88432813e-01
-3.86406250e-08,1.88720313e-01
-3.86006250e-08,1.88942187e-01
-3.85606250e-08,1.88882812e-01
-3.85206250e-08,1.88906250e-01
