trails/0bbf0cf1bfcc3246d9e376b62f80622a/aes_ch1_20250507112358706.csv

Model,MSO66B
Label,
Waveform Type,ANALOG
Horizontal Units,s
Sample Interval,4.00000000e-11
Record Length,10000
Zero Index,1599.06640625
Vertical Units,A
ANALOG_Thumbnail,
yOffset,1.84500000e-01
yPosition,8.40000000e-01

Labels,
TIME,CH1
-6.39626562e-08,1.92123437e-01
-6.39226562e-08,1.92085937e-01
-6.38826563e-08,1.92109375e-01
-6.38426562e-08,1.92092188e-01
-6.38026563e-08,1.92106250e-01
-6.37626562e-08,1.92093750e-01
-6.37226562e-08,1.92104688e-01
-6.36826562e-08,1.92095313e-01
-6.36426562e-08,1.92104688e-01
-6.36026563e-08,1.92095313e-01
-6.35626562e-08,1.92104688e-01
-6.35226562e-08,1.92093750e-01
-6.34826562e-08,1.92106250e-01
-6.34426562e-08,1.92093750e-01
-6.34026562e-08,1.92107813e-01
-6.33626562e-08,1.92089063e-01
-6.33226563e-08,1.92112500e-01
-6.32826562e-08,1.92082813e-01
-6.32426562e-08,1.92126563e-01
-6.32026562e-08,1.92048438e-01
-6.31626562e-08,1.92304688e-01
-6.31226562e-08,1.92557813e-01
-6.30826562e-08,1.92465625e-01
-6.30426563e-08,1.92525000e-01
-6.30026562e-08,1.92478125e-01
-6.29626562e-08,1.92518750e-01
-6.29226562e-08,1.92481250e-01
-6.28826562e-08,1.92518750e-01
-6.28426562e-08,1.92481250e-01
-6.28026562e-08,1.92521875e-01
-6.27626563e-08,1.92475000e-01
-6.27226562e-08,1.92534375e-01
-6.26826562e-08,1.92440625e-01
-6.26426562e-08,1.92710938e-01
-6.26026562e-08,1.92951563e-01
-6.25626562e-08,1.92871875e-01
-6.25226562e-08,1.92918750e-01
-6.24826563e-08,1.92885937e-01
-6.24426562e-08,1.92910938e-01
-6.24026562e-08,1.92890625e-01
-6.23626562e-08,1.92907812e-01
-6.23226562e-08,1.92892188e-01
-6.22826562e-08,1.92906250e-01
-6.22426562e-08,1.92893750e-01
-6.22026563e-08,1.92906250e-01
-6.21626562e-08,1.92893750e-01
-6.21226562e-08,1.92904688e-01
-6.20826562e-08,1.92895312e-01
-6.20426562e-08,1.92904688e-01
-6.20026562e-08,1.92895312e-01
-6.19626562e-08,1.92904688e-01
-6.19226563e-08,1.92895312e-01
-6.18826562e-08,1.92904688e-01
-6.18426562e-08,1.92895312e-01
-6.18026562e-08,1.92904688e-01
-6.17626562e-08,1.92895312e-01
-6.17226562e-08,1.92906250e-01
-6.16826562e-08,1.92893750e-01
-6.16426563e-08,1.92906250e-01
-6.16026562e-08,1.92893750e-01
-6.15626562e-08,1.92906250e-01
-6.15226562e-08,1.92893750e-01
-6.14826562e-08,1.92906250e-01
-6.14426563e-08,1.92892188e-01
-6.14026562e-08,1.92907812e-01
-6.13626563e-08,1.92892188e-01
-6.13226562e-08,1.92909375e-01
-6.12826562e-08,1.92890625e-01
-6.12426562e-08,1.92910938e-01
-6.12026562e-08,1.92889063e-01
-6.11626563e-08,1.92912500e-01
-6.11226562e-08,1.92885937e-01
-6.10826563e-08,1.92917188e-01
-6.10426562e-08,1.92879688e-01
-6.10026562e-08,1.92925000e-01
-6.09626562e-08,1.92864063e-01
-6.09226562e-08,1.92960938e-01
-6.08826563e-08,1.92685938e-01
-6.08426562e-08,1.92451563e-01
-6.08026563e-08,1.92523438e-01
-6.07626562e-08,1.92487500e-01
-6.07226562e-08,1.92507813e-01
-6.06826562e-08,1.92496875e-01
-6.06426562e-08,1.92500000e-01
-6.06026563e-08,1.92504687e-01
-6.05626562e-08,1.92492188e-01
-6.05226563e-08,1.92514062e-01
-6.04826562e-08,1.92475000e-01
-6.04426562e-08,1.92550000e-01
-6.04026562e-08,1.92296875e-01
-6.03626562e-08,1.92042188e-01
-6.03226563e-08,1.92134375e-01
-6.02826562e-08,1.92075000e-01
-6.02426563e-08,1.92118750e-01
-6.02026562e-08,1.92084375e-01
-6.01626562e-08,1.92114063e-01
-6.01226562e-08,1.92089063e-01
-6.00826562e-08,1.92110937e-01
-6.00426563e-08,1.92090625e-01
-6.00026562e-08,1.92107813e-01
-5.99626563e-08,1.92092188e-01
-5.99226562e-08,1.92107813e-01
-5.98826562e-08,1.92093750e-01
-5.98426562e-08,1.92106250e-01
-5.98026562e-08,1.92093750e-01
-5.97626563e-08,1.92104688e-01
-5.97226562e-08,1.92095313e-01
-5.96826563e-08,1.92104688e-01
-5.96426562e-08,1.92095313e-01
-5.96026562e-08,1.92104688e-01
-5.95626562e-08,1.92096875e-01
-5.95226562e-08,1.92103125e-01
-5.94826562e-08,1.92096875e-01
-5.94426562e-08,1.92103125e-01
-5.94026562e-08,1.92096875e-01
-5.93626562e-08,1.92103125e-01
-5.93226562e-08,1.92096875e-01
-5.92826562e-08,1.92101563e-01
-5.92426562e-08,1.92098437e-01
-5.92026562e-08,1.92101563e-01
-5.91626562e-08,1.92098437e-01
-5.91226562e-08,1.92101563e-01
-5.90826562e-08,1.92098437e-01
-5.90426562e-08,1.92101563e-01
-5.90026562e-08,1.92100000e-01
-5.89626562e-08,1.92100000e-01
-5.89226562e-08,1.92100000e-01
-5.88826562e-08,1.92100000e-01
-5.88426562e-08,1.92100000e-01
-5.88026562e-08,1.92098437e-01
-5.87626562e-08,1.92101563e-01
-5.87226562e-08,1.92098437e-01
-5.86826562e-08,1.92103125e-01
-5.86426562e-08,1.92096875e-01
-5.86026562e-08,1.92103125e-01
-5.85626562e-08,1.92095313e-01
-5.85226562e-08,1.92106250e-01
-5.84826562e-08,1.92092188e-01
-5.84426562e-08,1.92109375e-01
-5.84026562e-08,1.92087500e-01
-5.83626562e-08,1.92117188e-01
-5.83226562e-08,1.92071875e-01
-5.82826562e-08,1.92151563e-01
-5.82426562e-08,1.91893750e-01
-5.82026562e-08,1.91643750e-01
-5.81626562e-08,1.91732813e-01
-5.81226562e-08,1.91676563e-01
-5.80826562e-08,1.91718750e-01
-5.80426562e-08,1.91684375e-01
-5.80026562e-08,1.91714063e-01
-5.79626562e-08,1.91687500e-01
-5.79226562e-08,1.91710938e-01
-5.78826562e-08,1.91690625e-01
-5.78426562e-08,1.91709375e-01
-5.78026562e-08,1.91692187e-01
-5.77626562e-08,1.91707813e-01
-5.77226562e-08,1.91692187e-01
-5.76826562e-08,1.91707813e-01
-5.76426562e-08,1.91693750e-01
-5.76026562e-08,1.91706250e-01
-5.75626562e-08,1.91693750e-01
-5.75226562e-08,1.91706250e-01
-5.74826562e-08,1.91693750e-01
-5.74426562e-08,1.91706250e-01
-5.74026562e-08,1.91693750e-01
-5.73626562e-08,1.91704687e-01
-5.73226562e-08,1.91695313e-01
-5.72826562e-08,1.91704687e-01
-5.72426562e-08,1.91695313e-01
-5.72026562e-08,1.91704687e-01
-5.71626562e-08,1.91695313e-01
-5.71226562e-08,1.91704687e-01
-5.70826562e-08,1.91695313e-01
-5.70426562e-08,1.91704687e-01
-5.70026562e-08,1.91695313e-01
-5.69626562e-08,1.91704687e-01
-5.69226562e-08,1.91695313e-01
-5.68826562e-08,1.91704687e-01
-5.68426562e-08,1.91695313e-01
-5.68026562e-08,1.91704687e-01
-5.67626562e-08,1.91695313e-01
-5.67226562e-08,1.91704687e-01
-5.66826562e-08,1.91695313e-01
-5.66426562e-08,1.91704687e-01
-5.66026562e-08,1.91695313e-01
-5.65626562e-08,1.91704687e-01
-5.65226562e-08,1.91695313e-01
-5.64826562e-08,1.91704687e-01
-5.64426562e-08,1.91695313e-01
-5.64026562e-08,1.91704687e-01
-5.63626562e-08,1.91695313e-01
-5.63226562e-08,1.91706250e-01
-5.62826562e-08,1.91693750e-01
-5.62426562e-08,1.91706250e-01
-5.62026562e-08,1.91692187e-01
-5.61626562e-08,1.91707813e-01
-5.61226562e-08,1.91690625e-01
-5.60826562e-08,1.91712500e-01
-5.60426562e-08,1.91682813e-01
-5.60026562e-08,1.91725000e-01
-5.59626562e-08,1.91651563e-01
-5.59226562e-08,1.91900000e-01
-5.58826562e-08,1.92164063e-01
-5.58426562e-08,1.92056250e-01
-5.58026562e-08,1.92139063e-01
-5.57626562e-08,1.92056250e-01
-5.57226562e-08,1.92165625e-01
-5.56826562e-08,1.91882812e-01
-5.56426562e-08,1.91653125e-01
-5.56026562e-08,1.91723438e-01
-5.55626562e-08,1.91684375e-01
-5.55226562e-08,1.91710938e-01
-5.54826562e-08,1.91692187e-01
-5.54426562e-08,1.91706250e-01
-5.54026562e-08,1.91695313e-01
-5.53626562e-08,1.91703125e-01
-5.53226562e-08,1.91696875e-01
-5.52826562e-08,1.91701563e-01
-5.52426562e-08,1.91700000e-01
-5.52026562e-08,1.91698438e-01
-5.51626562e-08,1.91703125e-01
-5.51226562e-08,1.91693750e-01
-5.50826562e-08,1.91710938e-01
-5.50426562e-08,1.91679688e-01
-5.50026562e-08,1.91745313e-01
-5.49626562e-08,1.91501562e-01
-5.49226562e-08,1.91235938e-01
-5.48826562e-08,1.91340625e-01
-5.48426562e-08,1.91268750e-01
-5.48026562e-08,1.91328125e-01
-5.47626562e-08,1.91275000e-01
-5.47226562e-08,1.91325000e-01
-5.46826562e-08,1.91275000e-01
-5.46426562e-08,1.91326563e-01
-5.46026562e-08,1.91271875e-01
-5.45626562e-08,1.91332813e-01
-5.45226562e-08,1.91257813e-01
-5.44826562e-08,1.91367188e-01
-5.44426562e-08,1.91079688e-01
-5.44026562e-08,1.90857813e-01
-5.43626562e-08,1.90918750e-01
-5.43226562e-08,1.90890625e-01
-5.42826562e-08,1.90903125e-01
-5.42426562e-08,1.90900000e-01
-5.42026562e-08,1.90898438e-01
-5.41626562e-08,1.90904688e-01
-5.41226562e-08,1.90893750e-01
-5.40826562e-08,1.90909375e-01
-5.40426563e-08,1.90889063e-01
-5.40026562e-08,1.90915625e-01
-5.39626562e-08,1.90879688e-01
-5.39226562e-08,1.90931250e-01
-5.38826562e-08,1.90843750e-01
-5.38426562e-08,1.91109375e-01
-5.38026562e-08,1.91351563e-01
-5.37626562e-08,1.91271875e-01
-5.37226562e-08,1.91317188e-01
-5.36826562e-08,1.91287500e-01
-5.36426562e-08,1.91309375e-01
-5.36026562e-08,1.91293750e-01
-5.35626562e-08,1.91303125e-01
-5.35226562e-08,1.91298438e-01
-5.34826562e-08,1.91298438e-01
-5.34426562e-08,1.91306250e-01
-5.34026562e-08,1.91289062e-01
-5.33626562e-08,1.91320313e-01
-5.33226562e-08,1.91254688e-01
-5.32826562e-08,1.91498438e-01
-5.32426562e-08,1.91764062e-01
-5.32026562e-08,1.91659375e-01
-5.31626562e-08,1.91731250e-01
-5.31226562e-08,1.91673438e-01
-5.30826562e-08,1.91725000e-01
-5.30426562e-08,1.91676563e-01
-5.30026562e-08,1.91723438e-01
-5.29626562e-08,1.91676563e-01
-5.29226562e-08,1.91726563e-01
-5.28826562e-08,1.91668750e-01
-5.28426562e-08,1.91739063e-01
-5.28026562e-08,1.91635938e-01
-5.27626562e-08,1.91917188e-01
-5.27226562e-08,1.92145312e-01
-5.26826562e-08,1.92078125e-01
-5.26426562e-08,1.92112500e-01
-5.26026562e-08,1.92092188e-01
-5.25626562e-08,1.92104688e-01
-5.25226562e-08,1.92098437e-01
-5.24826562e-08,1.92100000e-01
-5.24426562e-08,1.92101563e-01
-5.24026562e-08,1.92096875e-01
-5.23626562e-08,1.92104688e-01
-5.23226562e-08,1.92092188e-01
-5.22826562e-08,1.92110937e-01
-5.22426562e-08,1.92084375e-01
-5.22026562e-08,1.92126563e-01
-5.21626562e-08,1.92050000e-01
-5.21226563e-08,1.92303125e-01
-5.20826562e-08,1.92557813e-01
-5.20426562e-08,1.92465625e-01
-5.20026562e-08,1.92525000e-01
-5.19626562e-08,1.92479687e-01
-5.19226562e-08,1.92517188e-01
-5.18826562e-08,1.92484375e-01
-5.18426562e-08,1.92515625e-01
-5.18026562e-08,1.92485938e-01
-5.17626562e-08,1.92514062e-01
-5.17226562e-08,1.92485938e-01
-5.16826562e-08,1.92514062e-01
-5.16426562e-08,1.92484375e-01
-5.16026562e-08,1.92515625e-01
-5.15626562e-08,1.92482813e-01
-5.15226562e-08,1.92520313e-01
-5.14826562e-08,1.92475000e-01
-5.14426562e-08,1.92534375e-01
-5.14026562e-08,1.92440625e-01
-5.13626562e-08,1.92712500e-01
-5.13226562e-08,1.92950000e-01
-5.12826562e-08,1.92873438e-01
-5.12426562e-08,1.92917188e-01
-5.12026562e-08,1.92887500e-01
-5.11626562e-08,1.92909375e-01
-5.11226562e-08,1.92892188e-01
-5.10826562e-08,1.92906250e-01
-5.10426562e-08,1.92895312e-01
-5.10026562e-08,1.92903125e-01
-5.09626562e-08,1.92896875e-01
-5.09226562e-08,1.92903125e-01
-5.08826562e-08,1.92898438e-01
-5.08426562e-08,1.92901563e-01
-5.08026562e-08,1.92898438e-01
-5.07626562e-08,1.92901563e-01
-5.07226562e-08,1.92900000e-01
-5.06826562e-08,1.92900000e-01
-5.06426562e-08,1.92900000e-01
-5.06026562e-08,1.92900000e-01
-5.05626562e-08,1.92900000e-01
-5.05226562e-08,1.92898438e-01
-5.04826562e-08,1.92901563e-01
-5.04426562e-08,1.92898438e-01
-5.04026562e-08,1.92901563e-01
-5.03626562e-08,1.92896875e-01
-5.03226562e-08,1.92903125e-01
-5.02826562e-08,1.92896875e-01
-5.02426562e-08,1.92904688e-01
-5.02026563e-08,1.92893750e-01
-5.01626562e-08,1.92907812e-01
-5.01226562e-08,1.92890625e-01
-5.00826562e-08,1.92912500e-01
-5.00426562e-08,1.92882813e-01
-5.00026562e-08,1.92926563e-01
-4.99626562e-08,1.92848437e-01
-4.99226563e-08,1.93104688e-01
-4.98826562e-08,1.93357813e-01
-4.98426562e-08,1.93265625e-01
-4.98026562e-08,1.93325000e-01
-4.97626562e-08,1.93279688e-01
-4.97226562e-08,1.93317188e-01
-4.96826562e-08,1.93284375e-01
-4.96426562e-08,1.93314062e-01
-4.96026562e-08,1.93285938e-01
-4.95626562e-08,1.93314062e-01
-4.95226562e-08,1.93287500e-01
-4.94826562e-08,1.93314062e-01
-4.94426562e-08,1.93285938e-01
-4.94026562e-08,1.93314062e-01
-4.93626562e-08,1.93284375e-01
-4.93226562e-08,1.93315625e-01
-4.92826562e-08,1.93281250e-01
-4.92426562e-08,1.93320313e-01
-4.92026562e-08,1.93273438e-01
-4.91626562e-08,1.93335937e-01
-4.91226562e-08,1.93239063e-01
-4.90826562e-08,1.93514063e-01
-4.90426562e-08,1.93748438e-01
-4.90026562e-08,1.93675000e-01
-4.89626562e-08,1.93715625e-01
-4.89226562e-08,1.93690625e-01
-4.88826562e-08,1.93706250e-01
-4.88426562e-08,1.93696875e-01
-4.88026562e-08,1.93701563e-01
-4.87626562e-08,1.93700000e-01
-4.87226562e-08,1.93696875e-01
-4.86826562e-08,1.93704688e-01
-4.86426562e-08,1.93692188e-01
-4.86026562e-08,1.93714063e-01
-4.85626562e-08,1.93676563e-01
-4.85226562e-08,1.93748438e-01
-4.84826562e-08,1.93498438e-01
-4.84426562e-08,1.93239063e-01
-4.84026562e-08,1.93337500e-01
-4.83626562e-08,1.93271875e-01
-4.83226562e-08,1.93323438e-01
-4.82826563e-08,1.93278125e-01
-4.82426562e-08,1.93320313e-01
-4.82026562e-08,1.93281250e-01
-4.81626562e-08,1.93318750e-01
-4.81226562e-08,1.93279688e-01
-4.80826562e-08,1.93321875e-01
-4.80426562e-08,1.93276562e-01
-4.80026563e-08,1.93328125e-01
-4.79626562e-08,1.93262500e-01
-4.79226562e-08,1.93362500e-01
-4.78826562e-08,1.93084375e-01
-4.78426562e-08,1.92853125e-01
-4.78026562e-08,1.92921875e-01
-4.77626562e-08,1.92887500e-01
-4.77226563e-08,1.92906250e-01
-4.76826562e-08,1.92896875e-01
-4.76426562e-08,1.92900000e-01
-4.76026562e-08,1.92903125e-01
-4.75626562e-08,1.92892188e-01
-4.75226562e-08,1.92912500e-01
-4.74826562e-08,1.92876563e-01
-4.74426562e-08,1.92948438e-01
-4.74026562e-08,1.92698438e-01
-4.73626562e-08,1.92439063e-01
-4.73226562e-08,1.92535938e-01
-4.72826562e-08,1.92473438e-01
-4.72426562e-08,1.92521875e-01
-4.72026562e-08,1.92479687e-01
-4.71626562e-08,1.92517188e-01
-4.71226562e-08,1.92482813e-01
-4.70826562e-08,1.92515625e-01
-4.70426562e-08,1.92484375e-01
-4.70026562e-08,1.92515625e-01
-4.69626562e-08,1.92484375e-01
-4.69226562e-08,1.92517188e-01
-4.68826562e-08,1.92482813e-01
-4.68426562e-08,1.92520313e-01
-4.68026562e-08,1.92478125e-01
-4.67626562e-08,1.92526562e-01
-4.67226562e-08,1.92464063e-01
-4.66826562e-08,1.92560938e-01
-4.66426562e-08,1.92285938e-01
-4.66026562e-08,1.92051562e-01
-4.65626562e-08,1.92123437e-01
-4.65226562e-08,1.92085937e-01
-4.64826562e-08,1.92109375e-01
-4.64426562e-08,1.92093750e-01
-4.64026562e-08,1.92104688e-01
-4.63626563e-08,1.92096875e-01
-4.63226562e-08,1.92101563e-01
-4.62826562e-08,1.92100000e-01
-4.62426562e-08,1.92100000e-01
-4.62026562e-08,1.92101563e-01
-4.61626562e-08,1.92098437e-01
-4.61226562e-08,1.92103125e-01
-4.60826563e-08,1.92095313e-01
-4.60426562e-08,1.92104688e-01
-4.60026562e-08,1.92093750e-01
-4.59626562e-08,1.92107813e-01
-4.59226562e-08,1.92089063e-01
-4.58826562e-08,1.92114063e-01
-4.58426562e-08,1.92081250e-01
-4.58026563e-08,1.92128125e-01
-4.57626562e-08,1.92046875e-01
-4.57226562e-08,1.92307813e-01
-4.56826562e-08,1.92554688e-01
-4.56426562e-08,1.92468750e-01
-4.56026562e-08,1.92521875e-01
-4.55626562e-08,1.92482813e-01
-4.55226563e-08,1.92514062e-01
-4.54826562e-08,1.92489063e-01
-4.54426562e-08,1.92509375e-01
-4.54026562e-08,1.92492188e-01
-4.53626562e-08,1.92507813e-01
-4.53226562e-08,1.92493750e-01
-4.52826562e-08,1.92506250e-01
-4.52426562e-08,1.92495313e-01
-4.52026562e-08,1.92504687e-01
-4.51626562e-08,1.92495313e-01
-4.51226562e-08,1.92504687e-01
-4.50826562e-08,1.92496875e-01
-4.50426562e-08,1.92503125e-01
-4.50026562e-08,1.92496875e-01
-4.49626562e-08,1.92501563e-01
-4.49226562e-08,1.92498438e-01
-4.48826562e-08,1.92501563e-01
-4.48426562e-08,1.92500000e-01
-4.48026562e-08,1.92500000e-01
-4.47626562e-08,1.92501563e-01
-4.47226562e-08,1.92498438e-01
-4.46826562e-08,1.92503125e-01
-4.46426562e-08,1.92495313e-01
-4.46026562e-08,1.92506250e-01
-4.45626562e-08,1.92490625e-01
-4.45226562e-08,1.92514062e-01
-4.44826562e-08,1.92475000e-01
-4.44426563e-08,1.92548438e-01
-4.44026562e-08,1.92298438e-01
-4.43626562e-08,1.92040625e-01
-4.43226562e-08,1.92135938e-01
-4.42826562e-08,1.92073437e-01
-4.42426562e-08,1.92121875e-01
-4.42026562e-08,1.92081250e-01
-4.41626563e-08,1.92117188e-01
-4.41226562e-08,1.92084375e-01
-4.40826562e-08,1.92114063e-01
-4.40426562e-08,1.92085937e-01
-4.40026562e-08,1.92114063e-01
-4.39626562e-08,1.92087500e-01
-4.39226562e-08,1.92112500e-01
-4.38826563e-08,1.92087500e-01
-4.38426562e-08,1.92112500e-01
-4.38026562e-08,1.92087500e-01
-4.37626562e-08,1.92112500e-01
-4.37226562e-08,1.92087500e-01
-4.36826562e-08,1.92112500e-01
-4.36426562e-08,1.92087500e-01
-4.36026563e-08,1.92114063e-01
-4.35626562e-08,1.92085937e-01
-4.35226562e-08,1.92114063e-01
-4.34826562e-08,1.92084375e-01
-4.34426562e-08,1.92115625e-01
-4.34026562e-08,1.92082813e-01
-4.33626562e-08,1.92118750e-01
-4.33226563e-08,1.92078125e-01
-4.32826562e-08,1.92125000e-01
-4.32426562e-08,1.92070313e-01
-4.32026562e-08,1.92139063e-01
-4.31626562e-08,1.92034375e-01
-4.31226562e-08,1.92318750e-01
-4.30826562e-08,1.92543750e-01
-4.30426562e-08,1.92481250e-01
-4.30026562e-08,1.92507813e-01
-4.29626562e-08,1.92498438e-01
-4.29226562e-08,1.92496875e-01
-4.28826562e-08,1.92507813e-01
-4.28426562e-08,1.92485938e-01
-4.28026562e-08,1.92525000e-01
-4.27626562e-08,1.92450000e-01
-4.27226562e-08,1.92703125e-01
-4.26826562e-08,1.92959375e-01
-4.26426562e-08,1.92862500e-01
-4.26026562e-08,1.92929688e-01
-4.25626562e-08,1.92870313e-01
-4.25226563e-08,1.92934375e-01
-4.24826562e-08,1.92843750e-01
-4.24426562e-08,1.93106250e-01
-4.24026562e-08,1.93359375e-01
-4.23626562e-08,1.93260938e-01
-4.23226562e-08,1.93334375e-01
-4.22826562e-08,1.93264063e-01
-4.22426563e-08,1.93342188e-01
-4.22026562e-08,1.93232813e-01
-4.21626562e-08,1.93520313e-01
-4.21226562e-08,1.93742187e-01
-4.20826562e-08,1.93682812e-01
-4.20426562e-08,1.93706250e-01
-4.20026562e-08,1.93701563e-01
-4.19626563e-08,1.93690625e-01
-4.19226562e-08,1.93721875e-01
-4.18826562e-08,1.93653125e-01
-4.18426562e-08,1.93901563e-01
-4.18026562e-08,1.94159375e-01
-4.17626562e-08,1.94064062e-01
-4.17226562e-08,1.94125000e-01
-4.16826563e-08,1.94079688e-01
-4.16426562e-08,1.94117188e-01
-4.16026562e-08,1.94085937e-01
-4.15626562e-08,1.94112500e-01
-4.15226562e-08,1.94089063e-01
-4.14826562e-08,1.94109375e-01
-4.14426562e-08,1.94090625e-01
-4.14026563e-08,1.94107813e-01
-4.13626562e-08,1.94092188e-01
-4.13226562e-08,1.94106250e-01
-4.12826562e-08,1.94093750e-01
-4.12426562e-08,1.94104688e-01
-4.12026562e-08,1.94095313e-01
-4.11626562e-08,1.94103125e-01
-4.11226563e-08,1.94096875e-01
-4.10826562e-08,1.94101563e-01
-4.10426562e-08,1.94100000e-01
-4.10026562e-08,1.94098437e-01
-4.09626562e-08,1.94103125e-01
-4.09226562e-08,1.94093750e-01
-4.08826562e-08,1.94110937e-01
-4.08426562e-08,1.94079688e-01
-4.08026562e-08,1.94145313e-01
-4.07626562e-08,1.93903125e-01
-4.07226562e-08,1.93634375e-01
-4.06826562e-08,1.93742187e-01
-4.06426562e-08,1.93667188e-01
-4.06026563e-08,1.93729687e-01
-4.05626562e-08,1.93671875e-01
-4.05226562e-08,1.93728125e-01
-4.04826562e-08,1.93670312e-01
-4.04426562e-08,1.93734375e-01
-4.04026562e-08,1.93657812e-01
-4.03626562e-08,1.93767187e-01
-4.03226563e-08,1.93479687e-01
-4.02826562e-08,1.93257813e-01
-4.02426562e-08,1.93318750e-01
-4.02026562e-08,1.93290625e-01
-4.01626562e-08,1.93304688e-01
-4.01226562e-08,1.93298438e-01
-4.00826562e-08,1.93298438e-01
-4.00426563e-08,1.93303125e-01
-4.00026562e-08,1.93293750e-01
-3.99626562e-08,1.93307813e-01
-3.99226562e-08,1.93289062e-01
-3.98826562e-08,1.93317188e-01
-3.98426562e-08,1.93273438e-01
-3.98026562e-08,1.93351563e-01
-3.97626563e-08,1.93095313e-01
-3.97226562e-08,1.92842188e-01
-3.96826562e-08,1.92934375e-01
-3.96426562e-08,1.92875000e-01
-3.96026562e-08,1.92920312e-01
-3.95626562e-08,1.92881250e-01
-3.95226562e-08,1.92917188e-01
-3.94826563e-08,1.92884375e-01
-3.94426562e-08,1.92915625e-01
-3.94026562e-08,1.92882813e-01
-3.93626562e-08,1.92918750e-01
-3.93226562e-08,1.92878125e-01
-3.92826562e-08,1.92926563e-01
-3.92426562e-08,1.92864063e-01
-3.92026563e-08,1.92959375e-01
-3.91626562e-08,1.92687500e-01
-3.91226562e-08,1.92450000e-01
-3.90826562e-08,1.92525000e-01
-3.90426562e-08,1.92484375e-01
-3.90026562e-08,1.92510938e-01
-3.89626562e-08,1.92492188e-01
-3.89226562e-08,1.92504687e-01
-3.88826562e-08,1.92498438e-01
-3.88426562e-08,1.92500000e-01
-3.88026562e-08,1.92503125e-01
-3.87626562e-08,1.92493750e-01
-3.87226562e-08,1.92510938e-01
-3.86826563e-08,1.92478125e-01
-3.86426562e-08,1.92546875e-01
-3.86026562e-08,1.92300000e-01
-3.85626562e-08,1.92037500e-01
-3.85226562e-08,1.92139063e-01
