trails/0bbf0cf1bfcc3246d9e376b62f80622a/aes_ch1_20250507112609861.csv

Model,MSO66B
Label,
Waveform Type,ANALOG
Horizontal Units,s
Sample Interval,4.00000000e-11
Record Length,10000
Zero Index,1599.11328125
Vertical Units,A
ANALOG_Thumbnail,
yOffset,1.84500000e-01
yPosition,8.40000000e-01

Labels,
TIME,CH1
-6.39645312e-08,1.92498438e-01
-6.39245312e-08,1.92501563e-01
-6.38845312e-08,1.92498438e-01
-6.38445312e-08,1.92501563e-01
-6.38045313e-08,1.92498438e-01
-6.37645312e-08,1.92501563e-01
-6.37245312e-08,1.92498438e-01
-6.36845312e-08,1.92501563e-01
-6.36445312e-08,1.92498438e-01
-6.36045312e-08,1.92501563e-01
-6.35645312e-08,1.92498438e-01
-6.35245313e-08,1.92501563e-01
-6.34845312e-08,1.92498438e-01
-6.34445312e-08,1.92501563e-01
-6.34045312e-08,1.92498438e-01
-6.33645312e-08,1.92501563e-01
-6.33245312e-08,1.92498438e-01
-6.32845312e-08,1.92501563e-01
-6.32445313e-08,1.92498438e-01
-6.32045312e-08,1.92501563e-01
-6.31645312e-08,1.92498438e-01
-6.31245312e-08,1.92501563e-01
-6.30845312e-08,1.92498438e-01
-6.30445313e-08,1.92501563e-01
-6.30045312e-08,1.92498438e-01
-6.29645313e-08,1.92501563e-01
-6.29245312e-08,1.92498438e-01
-6.28845312e-08,1.92503125e-01
-6.28445312e-08,1.92496875e-01
-6.28045312e-08,1.92503125e-01
-6.27645313e-08,1.92496875e-01
-6.27245312e-08,1.92503125e-01
-6.26845313e-08,1.92496875e-01
-6.26445312e-08,1.92503125e-01
-6.26045312e-08,1.92496875e-01
-6.25645312e-08,1.92503125e-01
-6.25245312e-08,1.92496875e-01
-6.24845313e-08,1.92503125e-01
-6.24445312e-08,1.92496875e-01
-6.24045313e-08,1.92503125e-01
-6.23645312e-08,1.92496875e-01
-6.23245312e-08,1.92503125e-01
-6.22845312e-08,1.92496875e-01
-6.22445312e-08,1.92503125e-01
-6.22045313e-08,1.92496875e-01
-6.21645312e-08,1.92503125e-01
-6.21245313e-08,1.92496875e-01
-6.20845312e-08,1.92501563e-01
-6.20445312e-08,1.92498438e-01
-6.20045312e-08,1.92501563e-01
-6.19645312e-08,1.92498438e-01
-6.19245313e-08,1.92501563e-01
-6.18845312e-08,1.92500000e-01
-6.18445313e-08,1.92500000e-01
-6.18045312e-08,1.92501563e-01
-6.17645312e-08,1.92496875e-01
-6.17245312e-08,1.92506250e-01
-6.16845312e-08,1.92489063e-01
-6.16445313e-08,1.92520313e-01
-6.16045312e-08,1.92456250e-01
-6.15645313e-08,1.92696875e-01
-6.15245312e-08,1.92965625e-01
-6.14845312e-08,1.92856250e-01
-6.14445312e-08,1.92934375e-01
-6.14045312e-08,1.92868750e-01
-6.13645313e-08,1.92929688e-01
-6.13245312e-08,1.92870313e-01
-6.12845313e-08,1.92929688e-01
-6.12445312e-08,1.92867188e-01
-6.12045312e-08,1.92937500e-01
-6.11645312e-08,1.92853125e-01
-6.11245312e-08,1.92970313e-01
-6.10845313e-08,1.92676563e-01
-6.10445312e-08,1.92462500e-01
-6.10045312e-08,1.92514062e-01
-6.09645312e-08,1.92495313e-01
-6.09245312e-08,1.92498438e-01
-6.08845312e-08,1.92504687e-01
-6.08445312e-08,1.92492188e-01
-6.08045313e-08,1.92510938e-01
-6.07645312e-08,1.92485938e-01
-6.07245312e-08,1.92517188e-01
-6.06845312e-08,1.92478125e-01
-6.06445312e-08,1.92528125e-01
-6.06045312e-08,1.92460938e-01
-6.05645312e-08,1.92564063e-01
-6.05245313e-08,1.92281250e-01
-6.04845312e-08,1.92057813e-01
-6.04445312e-08,1.92115625e-01
-6.04045312e-08,1.92096875e-01
-6.03645312e-08,1.92095313e-01
-6.03245312e-08,1.92114063e-01
-6.02845312e-08,1.92073437e-01
-6.02445313e-08,1.92153125e-01
-6.02045312e-08,1.91892188e-01
-6.01645312e-08,1.91648438e-01
-6.01245312e-08,1.91726563e-01
-6.00845312e-08,1.91685938e-01
-6.00445312e-08,1.91706250e-01
-6.00045312e-08,1.91701563e-01
-5.99645313e-08,1.91685938e-01
-5.99245312e-08,1.91740625e-01
-5.98845312e-08,1.91506250e-01
-5.98445312e-08,1.91231250e-01
-5.98045312e-08,1.91345313e-01
-5.97645312e-08,1.91262500e-01
-5.97245312e-08,1.91337500e-01
-5.96845313e-08,1.91257813e-01
-5.96445312e-08,1.91364063e-01
-5.96045312e-08,1.91085937e-01
-5.95645312e-08,1.90850000e-01
-5.95245312e-08,1.90929688e-01
-5.94845312e-08,1.90878125e-01
-5.94445312e-08,1.90920312e-01
-5.94045312e-08,1.90878125e-01
-5.93645312e-08,1.90925000e-01
-5.93245312e-08,1.90865625e-01
-5.92845312e-08,1.90959375e-01
-5.92445312e-08,1.90687500e-01
-5.92045312e-08,1.90450000e-01
-5.91645312e-08,1.90525000e-01
-5.91245312e-08,1.90484375e-01
-5.90845312e-08,1.90509375e-01
-5.90445312e-08,1.90495313e-01
-5.90045312e-08,1.90501562e-01
-5.89645312e-08,1.90501562e-01
-5.89245312e-08,1.90493750e-01
-5.88845312e-08,1.90512500e-01
-5.88445312e-08,1.90478125e-01
-5.88045312e-08,1.90548438e-01
-5.87645312e-08,1.90298438e-01
-5.87245312e-08,1.90039062e-01
-5.86845312e-08,1.90135938e-01
-5.86445312e-08,1.90073437e-01
-5.86045312e-08,1.90121875e-01
-5.85645312e-08,1.90081250e-01
-5.85245312e-08,1.90115625e-01
-5.84845312e-08,1.90085937e-01
-5.84445312e-08,1.90112500e-01
-5.84045312e-08,1.90089063e-01
-5.83645312e-08,1.90110938e-01
-5.83245312e-08,1.90090625e-01
-5.82845312e-08,1.90109375e-01
-5.82445312e-08,1.90090625e-01
-5.82045312e-08,1.90107813e-01
-5.81645312e-08,1.90092188e-01
-5.81245312e-08,1.90107813e-01
-5.80845312e-08,1.90092188e-01
-5.80445312e-08,1.90106250e-01
-5.80045312e-08,1.90093750e-01
-5.79645312e-08,1.90106250e-01
-5.79245312e-08,1.90093750e-01
-5.78845312e-08,1.90106250e-01
-5.78445312e-08,1.90093750e-01
-5.78045312e-08,1.90106250e-01
-5.77645312e-08,1.90095313e-01
-5.77245312e-08,1.90104688e-01
-5.76845312e-08,1.90095313e-01
-5.76445312e-08,1.90104688e-01
-5.76045312e-08,1.90095313e-01
-5.75645312e-08,1.90104688e-01
-5.75245312e-08,1.90095313e-01
-5.74845312e-08,1.90104688e-01
-5.74445312e-08,1.90095313e-01
-5.74045312e-08,1.90104688e-01
-5.73645312e-08,1.90095313e-01
-5.73245312e-08,1.90104688e-01
-5.72845312e-08,1.90095313e-01
-5.72445312e-08,1.90104688e-01
-5.72045312e-08,1.90095313e-01
-5.71645312e-08,1.90106250e-01
-5.71245312e-08,1.90093750e-01
-5.70845312e-08,1.90106250e-01
-5.70445312e-08,1.90092188e-01
-5.70045312e-08,1.90109375e-01
-5.69645312e-08,1.90089063e-01
-5.69245312e-08,1.90114063e-01
-5.68845312e-08,1.90081250e-01
-5.68445312e-08,1.90128125e-01
-5.68045312e-08,1.90048438e-01
-5.67645312e-08,1.90304688e-01
-5.67245312e-08,1.90557813e-01
-5.66845312e-08,1.90465625e-01
-5.66445312e-08,1.90525000e-01
-5.66045312e-08,1.90478125e-01
-5.65645312e-08,1.90518750e-01
-5.65245312e-08,1.90482813e-01
-5.64845312e-08,1.90517188e-01
-5.64445312e-08,1.90482813e-01
-5.64045312e-08,1.90517188e-01
-5.63645312e-08,1.90482813e-01
-5.63245312e-08,1.90518750e-01
-5.62845312e-08,1.90478125e-01
-5.62445312e-08,1.90525000e-01
-5.62045312e-08,1.90470313e-01
-5.61645312e-08,1.90539062e-01
-5.61245312e-08,1.90435938e-01
-5.60845312e-08,1.90718750e-01
-5.60445312e-08,1.90943750e-01
-5.60045312e-08,1.90881250e-01
-5.59645312e-08,1.90907812e-01
-5.59245312e-08,1.90898438e-01
-5.58845312e-08,1.90895312e-01
-5.58445312e-08,1.90909375e-01
-5.58045312e-08,1.90882812e-01
-5.57645312e-08,1.90928125e-01
-5.57245312e-08,1.90845313e-01
-5.56845312e-08,1.91107813e-01
-5.56445312e-08,1.91351563e-01
-5.56045312e-08,1.91273438e-01
-5.55645312e-08,1.91315625e-01
-5.55245312e-08,1.91293750e-01
-5.54845312e-08,1.91298438e-01
-5.54445312e-08,1.91312500e-01
-5.54045312e-08,1.91260938e-01
-5.53645312e-08,1.91492188e-01
-5.53245312e-08,1.91768750e-01
-5.52845312e-08,1.91654688e-01
-5.52445312e-08,1.91735938e-01
-5.52045312e-08,1.91667188e-01
-5.51645312e-08,1.91731250e-01
-5.51245312e-08,1.91665625e-01
-5.50845312e-08,1.91742187e-01
-5.50445312e-08,1.91635938e-01
-5.50045312e-08,1.91915625e-01
-5.49645312e-08,1.92148438e-01
-5.49245312e-08,1.92075000e-01
-5.48845312e-08,1.92117188e-01
-5.48445312e-08,1.92085937e-01
-5.48045312e-08,1.92114063e-01
-5.47645312e-08,1.92085937e-01
-5.47245312e-08,1.92115625e-01
-5.46845312e-08,1.92079688e-01
-5.46445312e-08,1.92129688e-01
-5.46045312e-08,1.92045313e-01
-5.45645312e-08,1.92307813e-01
-5.45245312e-08,1.92554688e-01
-5.44845312e-08,1.92468750e-01
-5.44445312e-08,1.92521875e-01
-5.44045312e-08,1.92482813e-01
-5.43645312e-08,1.92514062e-01
-5.43245312e-08,1.92487500e-01
-5.42845312e-08,1.92510938e-01
-5.42445312e-08,1.92490625e-01
-5.42045312e-08,1.92507813e-01
-5.41645312e-08,1.92492188e-01
-5.41245312e-08,1.92506250e-01
-5.40845312e-08,1.92493750e-01
-5.40445312e-08,1.92506250e-01
-5.40045312e-08,1.92495313e-01
-5.39645312e-08,1.92504687e-01
-5.39245312e-08,1.92495313e-01
-5.38845312e-08,1.92503125e-01
-5.38445312e-08,1.92496875e-01
-5.38045312e-08,1.92503125e-01
-5.37645312e-08,1.92496875e-01
-5.37245312e-08,1.92501563e-01
-5.36845312e-08,1.92498438e-01
-5.36445312e-08,1.92500000e-01
-5.36045312e-08,1.92500000e-01
-5.35645312e-08,1.92500000e-01
-5.35245312e-08,1.92501563e-01
-5.34845312e-08,1.92496875e-01
-5.34445312e-08,1.92503125e-01
-5.34045312e-08,1.92493750e-01
-5.33645312e-08,1.92507813e-01
-5.33245312e-08,1.92489063e-01
-5.32845312e-08,1.92515625e-01
-5.32445312e-08,1.92473438e-01
-5.32045312e-08,1.92551562e-01
-5.31645312e-08,1.92295313e-01
-5.31245312e-08,1.92042188e-01
-5.30845312e-08,1.92134375e-01
-5.30445312e-08,1.92076562e-01
-5.30045312e-08,1.92118750e-01
-5.29645312e-08,1.92084375e-01
-5.29245312e-08,1.92112500e-01
-5.28845312e-08,1.92089063e-01
-5.28445312e-08,1.92109375e-01
-5.28045312e-08,1.92090625e-01
-5.27645312e-08,1.92107813e-01
-5.27245312e-08,1.92093750e-01
-5.26845312e-08,1.92106250e-01
-5.26445312e-08,1.92095313e-01
-5.26045312e-08,1.92103125e-01
-5.25645312e-08,1.92098437e-01
-5.25245312e-08,1.92100000e-01
-5.24845312e-08,1.92101563e-01
-5.24445312e-08,1.92093750e-01
-5.24045312e-08,1.92110937e-01
-5.23645312e-08,1.92079688e-01
-5.23245312e-08,1.92145312e-01
-5.22845312e-08,1.91901563e-01
-5.22445312e-08,1.91637500e-01
-5.22045312e-08,1.91739063e-01
-5.21645312e-08,1.91670312e-01
-5.21245312e-08,1.91725000e-01
-5.20845312e-08,1.91678125e-01
-5.20445312e-08,1.91718750e-01
-5.20045312e-08,1.91682813e-01
-5.19645312e-08,1.91715625e-01
-5.19245312e-08,1.91684375e-01
-5.18845312e-08,1.91714063e-01
-5.18445312e-08,1.91687500e-01
-5.18045312e-08,1.91712500e-01
-5.17645312e-08,1.91689063e-01
-5.17245312e-08,1.91709375e-01
-5.16845312e-08,1.91692187e-01
-5.16445312e-08,1.91706250e-01
-5.16045312e-08,1.91698438e-01
-5.15645312e-08,1.91693750e-01
-5.15245313e-08,1.91729687e-01
-5.14845312e-08,1.91520313e-01
-5.14445312e-08,1.91210938e-01
-5.14045312e-08,1.91373438e-01
-5.13645312e-08,1.91210938e-01
-5.13245312e-08,1.91537500e-01
-5.12845312e-08,1.91726563e-01
-5.12445312e-08,1.91695313e-01
-5.12045312e-08,1.91696875e-01
-5.11645312e-08,1.91707813e-01
-5.11245312e-08,1.91690625e-01
-5.10845312e-08,1.91712500e-01
-5.10445312e-08,1.91685938e-01
-5.10045312e-08,1.91715625e-01
-5.09645312e-08,1.91682813e-01
-5.09245312e-08,1.91718750e-01
-5.08845312e-08,1.91678125e-01
-5.08445312e-08,1.91725000e-01
-5.08045312e-08,1.91670312e-01
-5.07645312e-08,1.91740625e-01
-5.07245312e-08,1.91634375e-01
-5.06845312e-08,1.91918750e-01
-5.06445312e-08,1.92142188e-01
-5.06045312e-08,1.92081250e-01
-5.05645312e-08,1.92107813e-01
-5.05245312e-08,1.92096875e-01
-5.04845312e-08,1.92098437e-01
-5.04445312e-08,1.92104688e-01
-5.04045312e-08,1.92090625e-01
-5.03645312e-08,1.92112500e-01
-5.03245312e-08,1.92081250e-01
-5.02845312e-08,1.92129688e-01
-5.02445312e-08,1.92045313e-01
-5.02045312e-08,1.92307813e-01
-5.01645312e-08,1.92554688e-01
-5.01245312e-08,1.92470313e-01
-5.00845312e-08,1.92520313e-01
-5.00445312e-08,1.92484375e-01
-5.00045312e-08,1.92512500e-01
-4.99645312e-08,1.92489063e-01
-4.99245312e-08,1.92509375e-01
-4.98845312e-08,1.92492188e-01
-4.98445312e-08,1.92507813e-01
-4.98045312e-08,1.92492188e-01
-4.97645312e-08,1.92507813e-01
-4.97245312e-08,1.92492188e-01
-4.96845312e-08,1.92509375e-01
-4.96445312e-08,1.92487500e-01
-4.96045313e-08,1.92515625e-01
-4.95645312e-08,1.92475000e-01
-4.95245312e-08,1.92548438e-01
-4.94845312e-08,1.92298438e-01
-4.94445312e-08,1.92037500e-01
-4.94045312e-08,1.92139063e-01
-4.93645312e-08,1.92068750e-01
-4.93245313e-08,1.92128125e-01
-4.92845312e-08,1.92073437e-01
-4.92445312e-08,1.92126563e-01
-4.92045312e-08,1.92071875e-01
-4.91645312e-08,1.92132812e-01
-4.91245312e-08,1.92057813e-01
-4.90845312e-08,1.92167188e-01
-4.90445312e-08,1.91879688e-01
-4.90045312e-08,1.91659375e-01
-4.89645312e-08,1.91717187e-01
-4.89245312e-08,1.91693750e-01
-4.88845312e-08,1.91700000e-01
-4.88445312e-08,1.91704687e-01
-4.88045312e-08,1.91690625e-01
-4.87645312e-08,1.91715625e-01
-4.87245312e-08,1.91673438e-01
-4.86845312e-08,1.91751563e-01
-4.86445312e-08,1.91493750e-01
-4.86045312e-08,1.91243750e-01
-4.85645312e-08,1.91331250e-01
-4.85245312e-08,1.91278125e-01
-4.84845312e-08,1.91317188e-01
-4.84445312e-08,1.91287500e-01
-4.84045312e-08,1.91310938e-01
-4.83645312e-08,1.91290625e-01
-4.83245312e-08,1.91307813e-01
-4.82845312e-08,1.91293750e-01
-4.82445312e-08,1.91306250e-01
-4.82045312e-08,1.91295313e-01
-4.81645312e-08,1.91304688e-01
-4.81245312e-08,1.91295313e-01
-4.80845312e-08,1.91303125e-01
-4.80445312e-08,1.91296875e-01
-4.80045312e-08,1.91303125e-01
-4.79645312e-08,1.91296875e-01
-4.79245312e-08,1.91303125e-01
-4.78845312e-08,1.91298438e-01
-4.78445312e-08,1.91301563e-01
-4.78045312e-08,1.91298438e-01
-4.77645312e-08,1.91301563e-01
-4.77245312e-08,1.91298438e-01
-4.76845313e-08,1.91301563e-01
-4.76445312e-08,1.91300000e-01
-4.76045312e-08,1.91300000e-01
-4.75645312e-08,1.91300000e-01
-4.75245312e-08,1.91300000e-01
-4.74845312e-08,1.91300000e-01
-4.74445312e-08,1.91300000e-01
-4.74045313e-08,1.91300000e-01
-4.73645312e-08,1.91300000e-01
-4.73245312e-08,1.91301563e-01
-4.72845312e-08,1.91298438e-01
-4.72445312e-08,1.91301563e-01
-4.72045312e-08,1.91298438e-01
-4.71645312e-08,1.91303125e-01
-4.71245313e-08,1.91296875e-01
-4.70845312e-08,1.91303125e-01
-4.70445312e-08,1.91295313e-01
-4.70045312e-08,1.91304688e-01
-4.69645312e-08,1.91293750e-01
-4.69245312e-08,1.91307813e-01
-4.68845312e-08,1.91290625e-01
-4.68445312e-08,1.91312500e-01
-4.68045312e-08,1.91282813e-01
-4.67645312e-08,1.91326563e-01
-4.67245312e-08,1.91248438e-01
-4.66845312e-08,1.91504687e-01
-4.66445312e-08,1.91757813e-01
-4.66045312e-08,1.91665625e-01
-4.65645312e-08,1.91725000e-01
-4.65245312e-08,1.91679688e-01
-4.64845312e-08,1.91718750e-01
-4.64445312e-08,1.91682813e-01
-4.64045312e-08,1.91715625e-01
-4.63645312e-08,1.91684375e-01
-4.63245312e-08,1.91717187e-01
-4.62845312e-08,1.91682813e-01
-4.62445312e-08,1.91720313e-01
-4.62045312e-08,1.91675000e-01
-4.61645312e-08,1.91732813e-01
-4.61245312e-08,1.91642188e-01
-4.60845312e-08,1.91909375e-01
-4.60445313e-08,1.92153125e-01
-4.60045312e-08,1.92070313e-01
-4.59645312e-08,1.92121875e-01
-4.59245312e-08,1.92082813e-01
-4.58845312e-08,1.92115625e-01
-4.58445312e-08,1.92084375e-01
-4.58045312e-08,1.92117188e-01
-4.57645313e-08,1.92079688e-01
-4.57245312e-08,1.92129688e-01
-4.56845312e-08,1.92046875e-01
-4.56445312e-08,1.92306250e-01
-4.56045312e-08,1.92557813e-01
-4.55645312e-08,1.92465625e-01
-4.55245312e-08,1.92526562e-01
-4.54845313e-08,1.92476563e-01
-4.54445312e-08,1.92521875e-01
-4.54045312e-08,1.92478125e-01
-4.53645312e-08,1.92523438e-01
-4.53245312e-08,1.92471875e-01
-4.52845312e-08,1.92537500e-01
-4.52445312e-08,1.92439063e-01
-4.52045313e-08,1.92714063e-01
-4.51645312e-08,1.92948438e-01
-4.51245312e-08,1.92875000e-01
-4.50845312e-08,1.92915625e-01
-4.50445312e-08,1.92889063e-01
-4.50045312e-08,1.92907812e-01
-4.49645312e-08,1.92893750e-01
-4.49245313e-08,1.92904688e-01
-4.48845312e-08,1.92896875e-01
-4.48445312e-08,1.92903125e-01
-4.48045312e-08,1.92898438e-01
-4.47645312e-08,1.92901563e-01
-4.47245312e-08,1.92900000e-01
-4.46845312e-08,1.92900000e-01
-4.46445312e-08,1.92900000e-01
-4.46045312e-08,1.92898438e-01
-4.45645312e-08,1.92901563e-01
-4.45245312e-08,1.92898438e-01
-4.44845312e-08,1.92903125e-01
-4.44445312e-08,1.92896875e-01
-4.44045312e-08,1.92904688e-01
-4.43645312e-08,1.92895312e-01
-4.43245312e-08,1.92906250e-01
-4.42845312e-08,1.92893750e-01
-4.42445312e-08,1.92907812e-01
-4.42045312e-08,1.92890625e-01
-4.41645312e-08,1.92912500e-01
-4.41245313e-08,1.92884375e-01
-4.40845312e-08,1.92921875e-01
-4.40445312e-08,1.92868750e-01
-4.40045312e-08,1.92956250e-01
-4.39645312e-08,1.92690625e-01
-4.39245312e-08,1.92448438e-01
-4.38845312e-08,1.92526562e-01
-4.38445313e-08,1.92482813e-01
-4.38045312e-08,1.92510938e-01
-4.37645312e-08,1.92493750e-01
-4.37245312e-08,1.92503125e-01
-4.36845312e-08,1.92500000e-01
-4.36445312e-08,1.92495313e-01
-4.36045312e-08,1.92510938e-01
-4.35645313e-08,1.92478125e-01
-4.35245312e-08,1.92546875e-01
-4.34845312e-08,1.92298438e-01
-4.34445312e-08,1.92039062e-01
-4.34045312e-08,1.92135938e-01
-4.33645312e-08,1.92073437e-01
-4.33245312e-08,1.92120313e-01
-4.32845313e-08,1.92084375e-01
-4.32445312e-08,1.92112500e-01
-4.32045312e-08,1.92090625e-01
-4.31645312e-08,1.92104688e-01
-4.31245312e-08,1.92100000e-01
-4.30845312e-08,1.92089063e-01
-4.30445312e-08,1.92135938e-01
-4.30045313e-08,1.91910938e-01
-4.29645312e-08,1.91626563e-01
-4.29245312e-08,1.91750000e-01
-4.28845312e-08,1.91659375e-01
-4.28445312e-08,1.91737500e-01
-4.28045312e-08,1.91664063e-01
-4.27645312e-08,1.91735938e-01
-4.27245313e-08,1.91662500e-01
-4.26845312e-08,1.91740625e-01
-4.26445312e-08,1.91650000e-01
-4.26045312e-08,1.91775000e-01
-4.25645312e-08,1.91473438e-01
-4.25245312e-08,1.91264062e-01
-4.24845312e-08,1.91310938e-01
-4.24445312e-08,1.91298438e-01
-4.24045312e-08,1.91296875e-01
-4.23645312e-08,1.91307813e-01
-4.23245312e-08,1.91289062e-01
-4.22845312e-08,1.91314062e-01
-4.22445312e-08,1.91282813e-01
-4.22045313e-08,1.91323437e-01
-4.21645312e-08,1.91267188e-01
-4.21245312e-08,1.91357813e-01
-4.20845312e-08,1.91089063e-01
-4.20445312e-08,1.90850000e-01
-4.20045312e-08,1.90926563e-01
-4.19645312e-08,1.90882812e-01
-4.19245313e-08,1.90912500e-01
-4.18845312e-08,1.90890625e-01
-4.18445312e-08,1.90907812e-01
-4.18045312e-08,1.90893750e-01
-4.17645312e-08,1.90904688e-01
-4.17245312e-08,1.90895312e-01
-4.16845312e-08,1.90904688e-01
-4.16445313e-08,1.90895312e-01
-4.16045312e-08,1.90904688e-01
-4.15645312e-08,1.90895312e-01
-4.15245312e-08,1.90906250e-01
-4.14845312e-08,1.90893750e-01
-4.14445312e-08,1.90907812e-01
-4.14045312e-08,1.90889063e-01
-4.13645313e-08,1.90915625e-01
-4.13245312e-08,1.90875000e-01
-4.12845312e-08,1.90950000e-01
-4.12445312e-08,1.90696875e-01
-4.12045312e-08,1.90440625e-01
-4.11645312e-08,1.90535938e-01
-4.11245312e-08,1.90473438e-01
-4.10845313e-08,1.90521875e-01
-4.10445312e-08,1.90481250e-01
-4.10045312e-08,1.90517188e-01
-4.09645312e-08,1.90484375e-01
-4.09245312e-08,1.90515625e-01
-4.08845312e-08,1.90485938e-01
-4.08445312e-08,1.90514062e-01
-4.08045313e-08,1.90485938e-01
-4.07645312e-08,1.90512500e-01
-4.07245312e-08,1.90487500e-01
-4.06845312e-08,1.90512500e-01
-4.06445312e-08,1.90487500e-01
-4.06045312e-08,1.90512500e-01
-4.05645312e-08,1.90487500e-01
-4.05245312e-08,1.90512500e-01
-4.04845312e-08,1.90487500e-01
-4.04445312e-08,1.90512500e-01
-4.04045312e-08,1.90487500e-01
-4.03645312e-08,1.90512500e-01
-4.03245312e-08,1.90487500e-01
-4.02845313e-08,1.90512500e-01
-4.02445312e-08,1.90485938e-01
-4.02045312e-08,1.90514062e-01
-4.01645312e-08,1.90485938e-01
-4.01245312e-08,1.90514062e-01
-4.00845312e-08,1.90485938e-01
-4.00445312e-08,1.90515625e-01
-4.00045313e-08,1.90484375e-01
-3.99645312e-08,1.90515625e-01
-3.99245312e-08,1.90482813e-01
-3.98845312e-08,1.90517188e-01
-3.98445312e-08,1.90481250e-01
-3.98045312e-08,1.90520313e-01
-3.97645312e-08,1.90478125e-01
-3.97245313e-08,1.90523438e-01
-3.96845312e-08,1.90473438e-01
-3.96445312e-08,1.90532813e-01
-3.96045312e-08,1.90457813e-01
-3.95645312e-08,1.90567188e-01
-3.95245312e-08,1.90279688e-01
-3.94845312e-08,1.90059375e-01
-3.94445313e-08,1.90117188e-01
-3.94045312e-08,1.90092188e-01
-3.93645312e-08,1.90101563e-01
-3.93245312e-08,1.90101563e-01
-3.92845312e-08,1.90095313e-01
-3.92445312e-08,1.90106250e-01
-3.92045312e-08,1.90092188e-01
-3.91645313e-08,1.90109375e-01
-3.91245312e-08,1.90089063e-01
-3.90845312e-08,1.90112500e-01
-3.90445312e-08,1.90085937e-01
-3.90045312e-08,1.90117188e-01
-3.89645312e-08,1.90081250e-01
-3.89245312e-08,1.90123438e-01
-3.88845313e-08,1.90071875e-01
-3.88445312e-08,1.90139063e-01
-3.88045312e-08,1.90035938e-01
-3.87645312e-08,1.90317188e-01
-3.87245312e-08,1.90543750e-01
-3.86845312e-08,1.90479687e-01
-3.86445312e-08,1.90509375e-01
-3.86045313e-08,1.90495313e-01
-3.85645312e-08,1.90500000e-01
-3.85245312e-08,1.90501562e-01
