trails/0bbf0cf1bfcc3246d9e376b62f80622a/aes_ch1_20250507113003976.csv

Model,MSO66B
Label,
Waveform Type,ANALOG
Horizontal Units,s
Sample Interval,4.00000000e-11
Record Length,10000
Zero Index,1599.05859375
Vertical Units,A
ANALOG_Thumbnail,
yOffset,1.84500000e-01
yPosition,8.40000000e-01

Labels,
TIME,CH1
-6.39623437e-08,1.85512500e-01
-6.39223437e-08,1.85751562e-01
-6.38823437e-08,1.85668750e-01
-6.38423437e-08,1.85725000e-01
-6.38023437e-08,1.85676563e-01
-6.37623438e-08,1.85729688e-01
-6.37223437e-08,1.85646875e-01
-6.36823437e-08,1.85903125e-01
-6.36423437e-08,1.86160938e-01
-6.36023437e-08,1.86059375e-01
-6.35623437e-08,1.86134375e-01
-6.35223437e-08,1.86064063e-01
-6.34823438e-08,1.86142188e-01
-6.34423437e-08,1.86034375e-01
-6.34023437e-08,1.86318750e-01
-6.33623437e-08,1.86543750e-01
-6.33223437e-08,1.86479688e-01
-6.32823438e-08,1.86510938e-01
-6.32423437e-08,1.86495313e-01
-6.32023438e-08,1.86500000e-01
-6.31623437e-08,1.86504688e-01
-6.31223437e-08,1.86489062e-01
-6.30823437e-08,1.86521875e-01
-6.30423437e-08,1.86453125e-01
-6.30023438e-08,1.86700000e-01
-6.29623437e-08,1.86962500e-01
-6.29223438e-08,1.86862500e-01
-6.28823437e-08,1.86928125e-01
-6.28423437e-08,1.86876563e-01
-6.28023437e-08,1.86920313e-01
-6.27623437e-08,1.86881250e-01
-6.27223438e-08,1.86917187e-01
-6.26823437e-08,1.86884375e-01
-6.26423438e-08,1.86915625e-01
-6.26023437e-08,1.86884375e-01
-6.25623437e-08,1.86915625e-01
-6.25223437e-08,1.86884375e-01
-6.24823437e-08,1.86915625e-01
-6.24423438e-08,1.86884375e-01
-6.24023437e-08,1.86915625e-01
-6.23623438e-08,1.86884375e-01
-6.23223437e-08,1.86917187e-01
-6.22823437e-08,1.86882812e-01
-6.22423437e-08,1.86918750e-01
-6.22023437e-08,1.86879688e-01
-6.21623438e-08,1.86923438e-01
-6.21223437e-08,1.86873438e-01
-6.20823438e-08,1.86931250e-01
-6.20423437e-08,1.86857812e-01
-6.20023437e-08,1.86967188e-01
-6.19623437e-08,1.86678125e-01
-6.19223437e-08,1.86459375e-01
-6.18823438e-08,1.86515625e-01
-6.18423437e-08,1.86495313e-01
-6.18023438e-08,1.86498438e-01
-6.17623437e-08,1.86507813e-01
-6.17223437e-08,1.86485938e-01
-6.16823437e-08,1.86520313e-01
-6.16423437e-08,1.86468750e-01
-6.16023438e-08,1.86557813e-01
-6.15623437e-08,1.86287500e-01
-6.15223438e-08,1.86053125e-01
-6.14823437e-08,1.86121875e-01
-6.14423437e-08,1.86090625e-01
-6.14023437e-08,1.86100000e-01
-6.13623437e-08,1.86107812e-01
-6.13223438e-08,1.86079688e-01
-6.12823437e-08,1.86146875e-01
-6.12423437e-08,1.85896875e-01
-6.12023437e-08,1.85642187e-01
-6.11623437e-08,1.85731250e-01
-6.11223437e-08,1.85679687e-01
-6.10823437e-08,1.85710938e-01
-6.10423438e-08,1.85696875e-01
-6.10023437e-08,1.85692187e-01
-6.09623437e-08,1.85734375e-01
-6.09223437e-08,1.85510938e-01
-6.08823437e-08,1.85226562e-01
-6.08423437e-08,1.85350000e-01
-6.08023437e-08,1.85259375e-01
-6.07623438e-08,1.85337500e-01
-6.07223437e-08,1.85264062e-01
-6.06823437e-08,1.85339063e-01
-6.06423437e-08,1.85254688e-01
-6.06023437e-08,1.85368750e-01
-6.05623437e-08,1.85079688e-01
-6.05223437e-08,1.84856250e-01
-6.04823438e-08,1.84920313e-01
-6.04423437e-08,1.84887500e-01
-6.04023437e-08,1.84909375e-01
-6.03623437e-08,1.84892187e-01
-6.03223437e-08,1.84907813e-01
-6.02823437e-08,1.84890625e-01
-6.02423437e-08,1.84914063e-01
-6.02023438e-08,1.84876563e-01
-6.01623437e-08,1.84946875e-01
-6.01223437e-08,1.84701562e-01
-6.00823437e-08,1.84435938e-01
-6.00423437e-08,1.84540625e-01
-6.00023437e-08,1.84467188e-01
-5.99623437e-08,1.84529688e-01
-5.99223438e-08,1.84471875e-01
-5.98823437e-08,1.84528125e-01
-5.98423437e-08,1.84470313e-01
-5.98023437e-08,1.84534375e-01
-5.97623437e-08,1.84456250e-01
-5.97223437e-08,1.84567188e-01
-5.96823437e-08,1.84279688e-01
-5.96423438e-08,1.84057813e-01
-5.96023437e-08,1.84117188e-01
-5.95623437e-08,1.84092188e-01
-5.95223437e-08,1.84103125e-01
-5.94823437e-08,1.84101563e-01
-5.94423437e-08,1.84095312e-01
-5.94023437e-08,1.84107812e-01
-5.93623437e-08,1.84089063e-01
-5.93223437e-08,1.84117188e-01
-5.92823437e-08,1.84071875e-01
-5.92423437e-08,1.84153125e-01
-5.92023437e-08,1.83893750e-01
-5.91623437e-08,1.83643750e-01
-5.91223437e-08,1.83731250e-01
-5.90823437e-08,1.83678125e-01
-5.90423437e-08,1.83717188e-01
-5.90023437e-08,1.83685938e-01
-5.89623437e-08,1.83712500e-01
-5.89223437e-08,1.83689062e-01
-5.88823437e-08,1.83709375e-01
-5.88423437e-08,1.83690625e-01
-5.88023437e-08,1.83707813e-01
-5.87623437e-08,1.83692187e-01
-5.87223437e-08,1.83707813e-01
-5.86823437e-08,1.83693750e-01
-5.86423437e-08,1.83706250e-01
-5.86023437e-08,1.83693750e-01
-5.85623437e-08,1.83706250e-01
-5.85223437e-08,1.83693750e-01
-5.84823437e-08,1.83706250e-01
-5.84423437e-08,1.83693750e-01
-5.84023437e-08,1.83706250e-01
-5.83623437e-08,1.83693750e-01
-5.83223437e-08,1.83706250e-01
-5.82823437e-08,1.83693750e-01
-5.82423437e-08,1.83706250e-01
-5.82023437e-08,1.83693750e-01
-5.81623437e-08,1.83707813e-01
-5.81223437e-08,1.83692187e-01
-5.80823437e-08,1.83707813e-01
-5.80423437e-08,1.83690625e-01
-5.80023437e-08,1.83709375e-01
-5.79623437e-08,1.83689062e-01
-5.79223437e-08,1.83712500e-01
-5.78823437e-08,1.83685938e-01
-5.78423437e-08,1.83717188e-01
-5.78023437e-08,1.83678125e-01
-5.77623437e-08,1.83732813e-01
-5.77223437e-08,1.83643750e-01
-5.76823437e-08,1.83909375e-01
-5.76423437e-08,1.84151563e-01
-5.76023437e-08,1.84071875e-01
-5.75623437e-08,1.84118750e-01
-5.75223437e-08,1.84085938e-01
-5.74823437e-08,1.84110938e-01
-5.74423437e-08,1.84090625e-01
-5.74023437e-08,1.84107812e-01
-5.73623437e-08,1.84093750e-01
-5.73223437e-08,1.84104688e-01
-5.72823437e-08,1.84095312e-01
-5.72423437e-08,1.84104688e-01
-5.72023437e-08,1.84096875e-01
-5.71623437e-08,1.84103125e-01
-5.71223437e-08,1.84096875e-01
-5.70823437e-08,1.84103125e-01
-5.70423437e-08,1.84098438e-01
-5.70023437e-08,1.84101563e-01
-5.69623437e-08,1.84098438e-01
-5.69223437e-08,1.84101563e-01
-5.68823437e-08,1.84098438e-01
-5.68423437e-08,1.84101563e-01
-5.68023437e-08,1.84098438e-01
-5.67623437e-08,1.84100000e-01
-5.67223437e-08,1.84100000e-01
-5.66823437e-08,1.84100000e-01
-5.66423437e-08,1.84100000e-01
-5.66023437e-08,1.84100000e-01
-5.65623437e-08,1.84100000e-01
-5.65223437e-08,1.84100000e-01
-5.64823437e-08,1.84100000e-01
-5.64423437e-08,1.84100000e-01
-5.64023437e-08,1.84101563e-01
-5.63623437e-08,1.84098438e-01
-5.63223437e-08,1.84101563e-01
-5.62823437e-08,1.84098438e-01
-5.62423437e-08,1.84101563e-01
-5.62023437e-08,1.84098438e-01
-5.61623437e-08,1.84101563e-01
-5.61223437e-08,1.84098438e-01
-5.60823437e-08,1.84103125e-01
-5.60423437e-08,1.84096875e-01
-5.60023437e-08,1.84103125e-01
-5.59623437e-08,1.84096875e-01
-5.59223437e-08,1.84104688e-01
-5.58823437e-08,1.84095312e-01
-5.58423437e-08,1.84104688e-01
-5.58023437e-08,1.84093750e-01
-5.57623437e-08,1.84106250e-01
-5.57223437e-08,1.84092188e-01
-5.56823437e-08,1.84107812e-01
-5.56423437e-08,1.84090625e-01
-5.56023437e-08,1.84112500e-01
-5.55623437e-08,1.84084375e-01
-5.55223437e-08,1.84120312e-01
-5.54823437e-08,1.84070312e-01
-5.54423437e-08,1.84154687e-01
-5.54023437e-08,1.83892187e-01
-5.53623437e-08,1.83645313e-01
-5.53223437e-08,1.83729688e-01
-5.52823437e-08,1.83679687e-01
-5.52423437e-08,1.83715625e-01
-5.52023437e-08,1.83687500e-01
-5.51623437e-08,1.83710938e-01
-5.51223437e-08,1.83690625e-01
-5.50823437e-08,1.83707813e-01
-5.50423437e-08,1.83693750e-01
-5.50023437e-08,1.83706250e-01
-5.49623437e-08,1.83695313e-01
-5.49223437e-08,1.83704688e-01
-5.48823437e-08,1.83695313e-01
-5.48423437e-08,1.83704688e-01
-5.48023437e-08,1.83696875e-01
-5.47623437e-08,1.83703125e-01
-5.47223437e-08,1.83696875e-01
-5.46823437e-08,1.83703125e-01
-5.46423437e-08,1.83698438e-01
-5.46023437e-08,1.83701562e-01
-5.45623437e-08,1.83698438e-01
-5.45223437e-08,1.83701562e-01
-5.44823437e-08,1.83698438e-01
-5.44423437e-08,1.83701562e-01
-5.44023437e-08,1.83700000e-01
-5.43623437e-08,1.83700000e-01
-5.43223437e-08,1.83700000e-01
-5.42823437e-08,1.83700000e-01
-5.42423437e-08,1.83700000e-01
-5.42023437e-08,1.83698438e-01
-5.41623437e-08,1.83701562e-01
-5.41223437e-08,1.83698438e-01
-5.40823437e-08,1.83701562e-01
-5.40423437e-08,1.83696875e-01
-5.40023437e-08,1.83703125e-01
-5.39623437e-08,1.83695313e-01
-5.39223437e-08,1.83706250e-01
-5.38823437e-08,1.83693750e-01
-5.38423437e-08,1.83709375e-01
-5.38023437e-08,1.83687500e-01
-5.37623437e-08,1.83717188e-01
-5.37223437e-08,1.83673438e-01
-5.36823437e-08,1.83751563e-01
-5.36423437e-08,1.83495313e-01
-5.36023437e-08,1.83242188e-01
-5.35623437e-08,1.83334375e-01
-5.35223437e-08,1.83273437e-01
-5.34823437e-08,1.83321875e-01
-5.34423437e-08,1.83279688e-01
-5.34023437e-08,1.83320312e-01
-5.33623437e-08,1.83279688e-01
-5.33223437e-08,1.83323438e-01
-5.32823437e-08,1.83267188e-01
-5.32423437e-08,1.83356250e-01
-5.32023437e-08,1.83092188e-01
-5.31623437e-08,1.82843750e-01
-5.31223437e-08,1.82934375e-01
-5.30823437e-08,1.82873438e-01
-5.30423437e-08,1.82925000e-01
-5.30023437e-08,1.82875000e-01
-5.29623437e-08,1.82928125e-01
-5.29223437e-08,1.82862500e-01
-5.28823437e-08,1.82960938e-01
-5.28423437e-08,1.82685938e-01
-5.28023437e-08,1.82451562e-01
-5.27623437e-08,1.82523437e-01
-5.27223437e-08,1.82485938e-01
-5.26823437e-08,1.82509375e-01
-5.26423437e-08,1.82495313e-01
-5.26023437e-08,1.82501563e-01
-5.25623437e-08,1.82501563e-01
-5.25223437e-08,1.82493750e-01
-5.24823437e-08,1.82512500e-01
-5.24423437e-08,1.82478125e-01
-5.24023437e-08,1.82546875e-01
-5.23623437e-08,1.82298437e-01
-5.23223437e-08,1.82039063e-01
-5.22823437e-08,1.82135938e-01
-5.22423437e-08,1.82073438e-01
-5.22023437e-08,1.82121875e-01
-5.21623437e-08,1.82081250e-01
-5.21223437e-08,1.82115625e-01
-5.20823437e-08,1.82085938e-01
-5.20423437e-08,1.82112500e-01
-5.20023437e-08,1.82089063e-01
-5.19623437e-08,1.82110938e-01
-5.19223437e-08,1.82090625e-01
-5.18823437e-08,1.82107812e-01
-5.18423437e-08,1.82092188e-01
-5.18023437e-08,1.82106250e-01
-5.17623438e-08,1.82095312e-01
-5.17223437e-08,1.82103125e-01
-5.16823437e-08,1.82100000e-01
-5.16423437e-08,1.82095312e-01
-5.16023437e-08,1.82114063e-01
-5.15623437e-08,1.82060938e-01
-5.15223437e-08,1.82292188e-01
-5.14823437e-08,1.82570312e-01
-5.14423437e-08,1.82451562e-01
-5.14023437e-08,1.82539063e-01
-5.13623437e-08,1.82464062e-01
-5.13223437e-08,1.82534375e-01
-5.12823437e-08,1.82465625e-01
-5.12423437e-08,1.82537500e-01
-5.12023437e-08,1.82459375e-01
-5.11623437e-08,1.82550000e-01
-5.11223437e-08,1.82425000e-01
-5.10823437e-08,1.82729688e-01
-5.10423437e-08,1.82932813e-01
-5.10023437e-08,1.82892187e-01
-5.09623437e-08,1.82896875e-01
-5.09223437e-08,1.82912500e-01
-5.08823437e-08,1.82879687e-01
-5.08423437e-08,1.82931250e-01
-5.08023437e-08,1.82842188e-01
-5.07623437e-08,1.83112500e-01
-5.07223437e-08,1.83348438e-01
-5.06823437e-08,1.83278125e-01
-5.06423437e-08,1.83310937e-01
-5.06023437e-08,1.83296875e-01
-5.05623437e-08,1.83293750e-01
-5.05223437e-08,1.83317188e-01
-5.04823437e-08,1.83257813e-01
-5.04423437e-08,1.83496875e-01
-5.04023437e-08,1.83765625e-01
-5.03623437e-08,1.83657813e-01
-5.03223437e-08,1.83732813e-01
-5.02823437e-08,1.83670313e-01
-5.02423437e-08,1.83729688e-01
-5.02023437e-08,1.83667187e-01
-5.01623437e-08,1.83740625e-01
-5.01223437e-08,1.83635938e-01
-5.00823437e-08,1.83915625e-01
-5.00423437e-08,1.84148438e-01
-5.00023437e-08,1.84075000e-01
-4.99623437e-08,1.84115625e-01
-4.99223437e-08,1.84089063e-01
-4.98823437e-08,1.84109375e-01
-4.98423438e-08,1.84092188e-01
-4.98023437e-08,1.84106250e-01
-4.97623437e-08,1.84093750e-01
-4.97223437e-08,1.84104688e-01
-4.96823437e-08,1.84095312e-01
-4.96423437e-08,1.84104688e-01
-4.96023437e-08,1.84095312e-01
-4.95623438e-08,1.84104688e-01
-4.95223437e-08,1.84095312e-01
-4.94823437e-08,1.84104688e-01
-4.94423437e-08,1.84095312e-01
-4.94023437e-08,1.84104688e-01
-4.93623437e-08,1.84095312e-01
-4.93223437e-08,1.84104688e-01
-4.92823437e-08,1.84095312e-01
-4.92423437e-08,1.84104688e-01
-4.92023437e-08,1.84095312e-01
-4.91623437e-08,1.84104688e-01
-4.91223437e-08,1.84095312e-01
-4.90823437e-08,1.84104688e-01
-4.90423437e-08,1.84093750e-01
-4.90023437e-08,1.84106250e-01
-4.89623437e-08,1.84093750e-01
-4.89223437e-08,1.84106250e-01
-4.88823437e-08,1.84092188e-01
-4.88423437e-08,1.84107812e-01
-4.88023437e-08,1.84090625e-01
-4.87623437e-08,1.84109375e-01
-4.87223437e-08,1.84089063e-01
-4.86823437e-08,1.84114063e-01
-4.86423437e-08,1.84082812e-01
-4.86023437e-08,1.84121875e-01
-4.85623437e-08,1.84068750e-01
-4.85223437e-08,1.84156250e-01
-4.84823437e-08,1.83890625e-01
-4.84423437e-08,1.83646875e-01
-4.84023437e-08,1.83729688e-01
-4.83623437e-08,1.83679687e-01
-4.83223437e-08,1.83714062e-01
-4.82823437e-08,1.83687500e-01
-4.82423437e-08,1.83709375e-01
-4.82023437e-08,1.83692187e-01
-4.81623437e-08,1.83707813e-01
-4.81223437e-08,1.83693750e-01
-4.80823437e-08,1.83706250e-01
-4.80423437e-08,1.83695313e-01
-4.80023437e-08,1.83704688e-01
-4.79623437e-08,1.83695313e-01
-4.79223438e-08,1.83703125e-01
-4.78823437e-08,1.83696875e-01
-4.78423437e-08,1.83703125e-01
-4.78023437e-08,1.83696875e-01
-4.77623437e-08,1.83703125e-01
-4.77223437e-08,1.83696875e-01
-4.76823437e-08,1.83703125e-01
-4.76423438e-08,1.83696875e-01
-4.76023437e-08,1.83703125e-01
-4.75623437e-08,1.83696875e-01
-4.75223437e-08,1.83703125e-01
-4.74823437e-08,1.83696875e-01
-4.74423437e-08,1.83703125e-01
-4.74023437e-08,1.83696875e-01
-4.73623438e-08,1.83703125e-01
-4.73223437e-08,1.83696875e-01
-4.72823437e-08,1.83703125e-01
-4.72423437e-08,1.83696875e-01
-4.72023437e-08,1.83703125e-01
-4.71623437e-08,1.83696875e-01
-4.71223437e-08,1.83703125e-01
-4.70823437e-08,1.83696875e-01
-4.70423437e-08,1.83703125e-01
-4.70023437e-08,1.83695313e-01
-4.69623437e-08,1.83704688e-01
-4.69223437e-08,1.83695313e-01
-4.68823437e-08,1.83706250e-01
-4.68423437e-08,1.83692187e-01
-4.68023437e-08,1.83709375e-01
-4.67623437e-08,1.83687500e-01
-4.67223437e-08,1.83717188e-01
-4.66823437e-08,1.83675000e-01
-4.66423437e-08,1.83750000e-01
-4.66023437e-08,1.83496875e-01
-4.65623437e-08,1.83239062e-01
-4.65223437e-08,1.83337500e-01
-4.64823437e-08,1.83270313e-01
-4.64423437e-08,1.83326563e-01
-4.64023437e-08,1.83273437e-01
-4.63623437e-08,1.83329688e-01
-4.63223437e-08,1.83262500e-01
-4.62823438e-08,1.83360938e-01
-4.62423437e-08,1.83087500e-01
-4.62023437e-08,1.82848438e-01
-4.61623437e-08,1.82929687e-01
-4.61223437e-08,1.82878125e-01
-4.60823437e-08,1.82918750e-01
-4.60423437e-08,1.82881250e-01
-4.60023438e-08,1.82921875e-01
-4.59623437e-08,1.82870313e-01
-4.59223437e-08,1.82953125e-01
-4.58823437e-08,1.82693750e-01
-4.58423437e-08,1.82442188e-01
-4.58023437e-08,1.82534375e-01
-4.57623437e-08,1.82473438e-01
-4.57223438e-08,1.82523437e-01
-4.56823437e-08,1.82479688e-01
-4.56423437e-08,1.82520313e-01
-4.56023437e-08,1.82479688e-01
-4.55623437e-08,1.82521875e-01
-4.55223437e-08,1.82475000e-01
-4.54823437e-08,1.82529688e-01
-4.54423438e-08,1.82460938e-01
-4.54023437e-08,1.82564063e-01
-4.53623437e-08,1.82282813e-01
-4.53223437e-08,1.82056250e-01
-4.52823437e-08,1.82118750e-01
-4.52423437e-08,1.82090625e-01
-4.52023437e-08,1.82101563e-01
-4.51623438e-08,1.82103125e-01
-4.51223437e-08,1.82089063e-01
-4.50823437e-08,1.82121875e-01
-4.50423437e-08,1.82053125e-01
-4.50023437e-08,1.82301563e-01
-4.49623437e-08,1.82560938e-01
-4.49223437e-08,1.82462500e-01
-4.48823437e-08,1.82528125e-01
-4.48423437e-08,1.82478125e-01
-4.48023437e-08,1.82520313e-01
-4.47623437e-08,1.82481250e-01
-4.47223437e-08,1.82517188e-01
-4.46823437e-08,1.82482813e-01
-4.46423437e-08,1.82517188e-01
-4.46023437e-08,1.82481250e-01
-4.45623437e-08,1.82520313e-01
-4.45223437e-08,1.82475000e-01
-4.44823437e-08,1.82534375e-01
-4.44423437e-08,1.82442188e-01
-4.44023437e-08,1.82710938e-01
-4.43623438e-08,1.82951562e-01
-4.43223437e-08,1.82870313e-01
-4.42823437e-08,1.82920313e-01
-4.42423437e-08,1.82884375e-01
-4.42023437e-08,1.82914063e-01
-4.41623437e-08,1.82887500e-01
-4.41223437e-08,1.82912500e-01
-4.40823438e-08,1.82887500e-01
-4.40423437e-08,1.82912500e-01
-4.40023437e-08,1.82885938e-01
-4.39623437e-08,1.82917187e-01
-4.39223437e-08,1.82878125e-01
-4.38823437e-08,1.82931250e-01
-4.38423437e-08,1.82843750e-01
-4.38023438e-08,1.83109375e-01
-4.37623437e-08,1.83353125e-01
-4.37223437e-08,1.83270313e-01
-4.36823437e-08,1.83320312e-01
-4.36423437e-08,1.83284375e-01
-4.36023437e-08,1.83312500e-01
-4.35623437e-08,1.83289063e-01
-4.35223438e-08,1.83309375e-01
-4.34823437e-08,1.83290625e-01
-4.34423437e-08,1.83307813e-01
-4.34023437e-08,1.83292188e-01
-4.33623437e-08,1.83306250e-01
-4.33223437e-08,1.83293750e-01
-4.32823437e-08,1.83306250e-01
-4.32423438e-08,1.83293750e-01
-4.32023437e-08,1.83306250e-01
-4.31623437e-08,1.83295313e-01
-4.31223437e-08,1.83304688e-01
-4.30823437e-08,1.83295313e-01
-4.30423437e-08,1.83304688e-01
-4.30023437e-08,1.83295313e-01
-4.29623437e-08,1.83304688e-01
-4.29223437e-08,1.83295313e-01
-4.28823437e-08,1.83304688e-01
-4.28423437e-08,1.83295313e-01
-4.28023437e-08,1.83304688e-01
-4.27623437e-08,1.83295313e-01
-4.27223437e-08,1.83304688e-01
-4.26823437e-08,1.83295313e-01
-4.26423437e-08,1.83304688e-01
-4.26023437e-08,1.83295313e-01
-4.25623437e-08,1.83304688e-01
-4.25223437e-08,1.83295313e-01
-4.24823437e-08,1.83304688e-01
-4.24423438e-08,1.83295313e-01
-4.24023437e-08,1.83304688e-01
-4.23623437e-08,1.83293750e-01
-4.23223437e-08,1.83306250e-01
-4.22823437e-08,1.83293750e-01
-4.22423437e-08,1.83306250e-01
-4.22023437e-08,1.83293750e-01
-4.21623438e-08,1.83306250e-01
-4.21223437e-08,1.83292188e-01
-4.20823437e-08,1.83307813e-01
-4.20423437e-08,1.83292188e-01
-4.20023437e-08,1.83309375e-01
-4.19623437e-08,1.83290625e-01
-4.19223437e-08,1.83310937e-01
-4.18823438e-08,1.83287500e-01
-4.18423437e-08,1.83315625e-01
-4.18023437e-08,1.83281250e-01
-4.17623437e-08,1.83323438e-01
-4.17223437e-08,1.83267188e-01
-4.16823437e-08,1.83357812e-01
-4.16423437e-08,1.83089063e-01
-4.16023438e-08,1.82848438e-01
-4.15623437e-08,1.82926563e-01
-4.15223437e-08,1.82882813e-01
-4.14823437e-08,1.82912500e-01
-4.14423437e-08,1.82890625e-01
-4.14023437e-08,1.82906250e-01
-4.13623437e-08,1.82895313e-01
-4.13223438e-08,1.82903125e-01
-4.12823437e-08,1.82898438e-01
-4.12423437e-08,1.82900000e-01
-4.12023437e-08,1.82901563e-01
-4.11623437e-08,1.82896875e-01
-4.11223437e-08,1.82906250e-01
-4.10823437e-08,1.82890625e-01
-4.10423438e-08,1.82914063e-01
-4.10023437e-08,1.82875000e-01
-4.09623437e-08,1.82950000e-01
-4.09223437e-08,1.82696875e-01
-4.08823437e-08,1.82440625e-01
-4.08423437e-08,1.82535937e-01
-4.08023437e-08,1.82473438e-01
-4.07623437e-08,1.82521875e-01
-4.07223437e-08,1.82481250e-01
-4.06823437e-08,1.82515625e-01
-4.06423437e-08,1.82484375e-01
-4.06023437e-08,1.82514063e-01
-4.05623437e-08,1.82487500e-01
-4.05223438e-08,1.82512500e-01
-4.04823437e-08,1.82487500e-01
-4.04423437e-08,1.82512500e-01
-4.04023437e-08,1.82487500e-01
-4.03623437e-08,1.82512500e-01
-4.03223437e-08,1.82487500e-01
-4.02823437e-08,1.82512500e-01
-4.02423438e-08,1.82485938e-01
-4.02023437e-08,1.82514063e-01
-4.01623437e-08,1.82484375e-01
-4.01223437e-08,1.82517188e-01
-4.00823437e-08,1.82479688e-01
-4.00423437e-08,1.82525000e-01
-4.00023437e-08,1.82465625e-01
-3.99623438e-08,1.82559375e-01
-3.99223437e-08,1.82287500e-01
-3.98823437e-08,1.82050000e-01
-3.98423437e-08,1.82126563e-01
-3.98023437e-08,1.82082812e-01
-3.97623437e-08,1.82112500e-01
-3.97223437e-08,1.82090625e-01
-3.96823438e-08,1.82106250e-01
-3.96423437e-08,1.82093750e-01
-3.96023437e-08,1.82104688e-01
-3.95623437e-08,1.82096875e-01
-3.95223437e-08,1.82103125e-01
-3.94823437e-08,1.82096875e-01
-3.94423437e-08,1.82101563e-01
-3.94023438e-08,1.82098438e-01
-3.93623437e-08,1.82101563e-01
-3.93223437e-08,1.82098438e-01
-3.92823437e-08,1.82101563e-01
-3.92423437e-08,1.82098438e-01
-3.92023437e-08,1.82100000e-01
-3.91623437e-08,1.82100000e-01
-3.91223438e-08,1.82100000e-01
-3.90823437e-08,1.82100000e-01
-3.90423437e-08,1.82100000e-01
-3.90023437e-08,1.82100000e-01
-3.89623437e-08,1.82100000e-01
-3.89223437e-08,1.82100000e-01
-3.88823437e-08,1.82100000e-01
-3.88423438e-08,1.82100000e-01
-3.88023437e-08,1.82100000e-01
-3.87623437e-08,1.82100000e-01
-3.87223437e-08,1.82100000e-01
-3.86823437e-08,1.82100000e-01
-3.86423437e-08,1.82100000e-01
-3.86023438e-08,1.82098438e-01
-3.85623437e-08,1.82101563e-01
-3.85223437e-08,1.82098438e-01
