trails/0bbf0cf1bfcc3246d9e376b62f80622a/aes_ch1_20250507112316361.csv

Model,MSO66B
Label,
Waveform Type,ANALOG
Horizontal Units,s
Sample Interval,4.00000000e-11
Record Length,10000
Zero Index,1599.07031250
Vertical Units,A
ANALOG_Thumbnail,
yOffset,1.84500000e-01
yPosition,8.40000000e-01

Labels,
TIME,CH1
-6.39628125e-08,1.92910938e-01
-6.39228125e-08,1.92889063e-01
-6.38828125e-08,1.92909375e-01
-6.38428125e-08,1.92890625e-01
-6.38028125e-08,1.92909375e-01
-6.37628125e-08,1.92892188e-01
-6.37228125e-08,1.92907812e-01
-6.36828125e-08,1.92892188e-01
-6.36428125e-08,1.92907812e-01
-6.36028125e-08,1.92892188e-01
-6.35628125e-08,1.92906250e-01
-6.35228125e-08,1.92893750e-01
-6.34828125e-08,1.92906250e-01
-6.34428125e-08,1.92893750e-01
-6.34028125e-08,1.92906250e-01
-6.33628125e-08,1.92895312e-01
-6.33228125e-08,1.92904688e-01
-6.32828125e-08,1.92895312e-01
-6.32428125e-08,1.92904688e-01
-6.32028125e-08,1.92896875e-01
-6.31628125e-08,1.92903125e-01
-6.31228125e-08,1.92896875e-01
-6.30828125e-08,1.92901563e-01
-6.30428125e-08,1.92898438e-01
-6.30028125e-08,1.92901563e-01
-6.29628125e-08,1.92900000e-01
-6.29228125e-08,1.92898438e-01
-6.28828125e-08,1.92903125e-01
-6.28428125e-08,1.92895312e-01
-6.28028125e-08,1.92907812e-01
-6.27628125e-08,1.92887500e-01
-6.27228125e-08,1.92921875e-01
-6.26828125e-08,1.92853125e-01
-6.26428125e-08,1.93100000e-01
-6.26028125e-08,1.93362500e-01
-6.25628125e-08,1.93260938e-01
-6.25228125e-08,1.93329688e-01
-6.24828125e-08,1.93275000e-01
-6.24428125e-08,1.93321875e-01
-6.24028125e-08,1.93279688e-01
-6.23628125e-08,1.93320313e-01
-6.23228125e-08,1.93279688e-01
-6.22828125e-08,1.93320313e-01
-6.22428125e-08,1.93278125e-01
-6.22028125e-08,1.93323438e-01
-6.21628125e-08,1.93271875e-01
-6.21228125e-08,1.93337500e-01
-6.20828125e-08,1.93237500e-01
-6.20428125e-08,1.93514063e-01
-6.20028125e-08,1.93748438e-01
-6.19628125e-08,1.93675000e-01
-6.19228125e-08,1.93715625e-01
-6.18828125e-08,1.93689063e-01
-6.18428125e-08,1.93709375e-01
-6.18028125e-08,1.93692188e-01
-6.17628125e-08,1.93706250e-01
-6.17228125e-08,1.93693750e-01
-6.16828125e-08,1.93706250e-01
-6.16428125e-08,1.93693750e-01
-6.16028125e-08,1.93706250e-01
-6.15628125e-08,1.93692188e-01
-6.15228125e-08,1.93709375e-01
-6.14828125e-08,1.93687500e-01
-6.14428125e-08,1.93717187e-01
-6.14028125e-08,1.93673438e-01
-6.13628125e-08,1.93750000e-01
-6.13228125e-08,1.93496875e-01
-6.12828125e-08,1.93240625e-01
-6.12428125e-08,1.93335937e-01
-6.12028125e-08,1.93271875e-01
-6.11628125e-08,1.93323438e-01
-6.11228125e-08,1.93278125e-01
-6.10828125e-08,1.93321875e-01
-6.10428125e-08,1.93276562e-01
-6.10028125e-08,1.93326563e-01
-6.09628125e-08,1.93265625e-01
-6.09228125e-08,1.93357813e-01
-6.08828125e-08,1.93090625e-01
-6.08428125e-08,1.92845313e-01
-6.08028125e-08,1.92932812e-01
-6.07628125e-08,1.92873438e-01
-6.07228125e-08,1.92926563e-01
-6.06828125e-08,1.92867188e-01
-6.06428125e-08,1.92956250e-01
-6.06028125e-08,1.92693750e-01
-6.05628125e-08,1.92442188e-01
-6.05228125e-08,1.92535938e-01
-6.04828125e-08,1.92470313e-01
-6.04428125e-08,1.92529688e-01
-6.04028125e-08,1.92465625e-01
-6.03628125e-08,1.92556250e-01
-6.03228125e-08,1.92293750e-01
-6.02828125e-08,1.92039062e-01
-6.02428125e-08,1.92142188e-01
-6.02028125e-08,1.92056250e-01
-6.01628125e-08,1.92165625e-01
-6.01228125e-08,1.91882812e-01
-6.00828125e-08,1.91654688e-01
-6.00428125e-08,1.91720313e-01
-6.00028125e-08,1.91692187e-01
-5.99628125e-08,1.91695313e-01
-5.99228125e-08,1.91731250e-01
-5.98828125e-08,1.91515625e-01
-5.98428125e-08,1.91221875e-01
-5.98028125e-08,1.91356250e-01
-5.97628125e-08,1.91250000e-01
-5.97228125e-08,1.91350000e-01
-5.96828125e-08,1.91242187e-01
-5.96428125e-08,1.91381250e-01
-5.96028125e-08,1.91067188e-01
-5.95628125e-08,1.90870313e-01
-5.95228125e-08,1.90904688e-01
-5.94828125e-08,1.90906250e-01
-5.94428125e-08,1.90885938e-01
-5.94028125e-08,1.90920312e-01
-5.93628125e-08,1.90867188e-01
-5.93228125e-08,1.90959375e-01
-5.92828125e-08,1.90687500e-01
-5.92428125e-08,1.90451563e-01
-5.92028125e-08,1.90523438e-01
-5.91628125e-08,1.90485938e-01
-5.91228125e-08,1.90507813e-01
-5.90828125e-08,1.90496875e-01
-5.90428125e-08,1.90500000e-01
-5.90028125e-08,1.90503125e-01
-5.89628125e-08,1.90495313e-01
-5.89228125e-08,1.90507813e-01
-5.88828125e-08,1.90487500e-01
-5.88428125e-08,1.90518750e-01
-5.88028125e-08,1.90470313e-01
-5.87628125e-08,1.90554688e-01
-5.87228125e-08,1.90290625e-01
-5.86828125e-08,1.90046875e-01
-5.86428125e-08,1.90126563e-01
-5.86028125e-08,1.90084375e-01
-5.85628125e-08,1.90109375e-01
-5.85228125e-08,1.90096875e-01
-5.84828125e-08,1.90096875e-01
-5.84428125e-08,1.90115625e-01
-5.84028125e-08,1.90059375e-01
-5.83628125e-08,1.90295313e-01
-5.83228125e-08,1.90567188e-01
-5.82828125e-08,1.90456250e-01
-5.82428125e-08,1.90534375e-01
-5.82028125e-08,1.90471875e-01
-5.81628125e-08,1.90526562e-01
-5.81228125e-08,1.90475000e-01
-5.80828125e-08,1.90523438e-01
-5.80428125e-08,1.90476563e-01
-5.80028125e-08,1.90523438e-01
-5.79628125e-08,1.90475000e-01
-5.79228125e-08,1.90528125e-01
-5.78828125e-08,1.90467187e-01
-5.78428125e-08,1.90542188e-01
-5.78028125e-08,1.90432812e-01
-5.77628125e-08,1.90720313e-01
-5.77228125e-08,1.90942187e-01
-5.76828125e-08,1.90881250e-01
-5.76428125e-08,1.90907812e-01
-5.76028125e-08,1.90896875e-01
-5.75628125e-08,1.90898438e-01
-5.75228125e-08,1.90906250e-01
-5.74828125e-08,1.90887500e-01
-5.74428125e-08,1.90923438e-01
-5.74028125e-08,1.90851563e-01
-5.73628125e-08,1.91101563e-01
-5.73228125e-08,1.91360937e-01
-5.72828125e-08,1.91262500e-01
-5.72428125e-08,1.91329688e-01
-5.72028125e-08,1.91275000e-01
-5.71628125e-08,1.91323437e-01
-5.71228125e-08,1.91276562e-01
-5.70828125e-08,1.91325000e-01
-5.70428125e-08,1.91270313e-01
-5.70028125e-08,1.91339063e-01
-5.69628125e-08,1.91237500e-01
-5.69228125e-08,1.91515625e-01
-5.68828125e-08,1.91746875e-01
-5.68428125e-08,1.91676563e-01
-5.68028125e-08,1.91712500e-01
-5.67628125e-08,1.91692187e-01
-5.67228125e-08,1.91704687e-01
-5.66828125e-08,1.91698438e-01
-5.66428125e-08,1.91696875e-01
-5.66028125e-08,1.91706250e-01
-5.65628125e-08,1.91687500e-01
-5.65228125e-08,1.91721875e-01
-5.64828125e-08,1.91653125e-01
-5.64428125e-08,1.91900000e-01
-5.64028125e-08,1.92160938e-01
-5.63628125e-08,1.92062500e-01
-5.63228125e-08,1.92128125e-01
-5.62828125e-08,1.92076562e-01
-5.62428125e-08,1.92120313e-01
-5.62028125e-08,1.92081250e-01
-5.61628125e-08,1.92117188e-01
-5.61228125e-08,1.92084375e-01
-5.60828125e-08,1.92115625e-01
-5.60428125e-08,1.92085937e-01
-5.60028125e-08,1.92114063e-01
-5.59628125e-08,1.92085937e-01
-5.59228125e-08,1.92114063e-01
-5.58828125e-08,1.92085937e-01
-5.58428125e-08,1.92114063e-01
-5.58028125e-08,1.92085937e-01
-5.57628125e-08,1.92114063e-01
-5.57228125e-08,1.92085937e-01
-5.56828125e-08,1.92114063e-01
-5.56428125e-08,1.92084375e-01
-5.56028125e-08,1.92115625e-01
-5.55628125e-08,1.92082813e-01
-5.55228125e-08,1.92118750e-01
-5.54828125e-08,1.92079688e-01
-5.54428125e-08,1.92121875e-01
-5.54028125e-08,1.92075000e-01
-5.53628125e-08,1.92129688e-01
-5.53228125e-08,1.92059375e-01
-5.52828125e-08,1.92165625e-01
-5.52428125e-08,1.91881250e-01
-5.52028125e-08,1.91657812e-01
-5.51628125e-08,1.91718750e-01
-5.51228125e-08,1.91692187e-01
-5.50828125e-08,1.91703125e-01
-5.50428125e-08,1.91701563e-01
-5.50028125e-08,1.91695313e-01
-5.49628125e-08,1.91709375e-01
-5.49228125e-08,1.91687500e-01
-5.48828125e-08,1.91718750e-01
-5.48428125e-08,1.91670312e-01
-5.48028125e-08,1.91754688e-01
-5.47628125e-08,1.91492188e-01
-5.47228125e-08,1.91246875e-01
-5.46828125e-08,1.91329688e-01
-5.46428125e-08,1.91281250e-01
-5.46028125e-08,1.91314062e-01
-5.45628125e-08,1.91289062e-01
-5.45228125e-08,1.91307813e-01
-5.44828125e-08,1.91293750e-01
-5.44428125e-08,1.91306250e-01
-5.44028125e-08,1.91295313e-01
-5.43628125e-08,1.91303125e-01
-5.43228125e-08,1.91296875e-01
-5.42828125e-08,1.91301563e-01
-5.42428125e-08,1.91298438e-01
-5.42028125e-08,1.91301563e-01
-5.41628125e-08,1.91300000e-01
-5.41228125e-08,1.91300000e-01
-5.40828125e-08,1.91300000e-01
-5.40428125e-08,1.91298438e-01
-5.40028125e-08,1.91301563e-01
-5.39628125e-08,1.91298438e-01
-5.39228125e-08,1.91301563e-01
-5.38828125e-08,1.91296875e-01
-5.38428125e-08,1.91303125e-01
-5.38028125e-08,1.91296875e-01
-5.37628125e-08,1.91304688e-01
-5.37228125e-08,1.91295313e-01
-5.36828125e-08,1.91304688e-01
-5.36428125e-08,1.91293750e-01
-5.36028125e-08,1.91306250e-01
-5.35628125e-08,1.91293750e-01
-5.35228125e-08,1.91307813e-01
-5.34828125e-08,1.91292188e-01
-5.34428125e-08,1.91309375e-01
-5.34028125e-08,1.91289062e-01
-5.33628125e-08,1.91312500e-01
-5.33228125e-08,1.91284375e-01
-5.32828125e-08,1.91318750e-01
-5.32428125e-08,1.91276562e-01
-5.32028125e-08,1.91334375e-01
-5.31628125e-08,1.91240625e-01
-5.31228125e-08,1.91512500e-01
-5.30828125e-08,1.91748438e-01
-5.30428125e-08,1.91675000e-01
-5.30028125e-08,1.91714063e-01
-5.29628125e-08,1.91690625e-01
-5.29228125e-08,1.91704687e-01
-5.28828125e-08,1.91698438e-01
-5.28428125e-08,1.91698438e-01
-5.28028125e-08,1.91706250e-01
-5.27628125e-08,1.91687500e-01
-5.27228125e-08,1.91721875e-01
-5.26828125e-08,1.91653125e-01
-5.26428125e-08,1.91900000e-01
-5.26028125e-08,1.92162500e-01
-5.25628125e-08,1.92060938e-01
-5.25228125e-08,1.92129688e-01
-5.24828125e-08,1.92073437e-01
-5.24428125e-08,1.92126563e-01
-5.24028125e-08,1.92071875e-01
-5.23628125e-08,1.92135938e-01
-5.23228125e-08,1.92040625e-01
-5.22828125e-08,1.92309375e-01
-5.22428125e-08,1.92554688e-01
-5.22028125e-08,1.92467187e-01
-5.21628125e-08,1.92525000e-01
-5.21228125e-08,1.92478125e-01
-5.20828125e-08,1.92523438e-01
-5.20428125e-08,1.92473438e-01
-5.20028125e-08,1.92534375e-01
-5.19628125e-08,1.92440625e-01
-5.19228125e-08,1.92712500e-01
-5.18828125e-08,1.92950000e-01
-5.18428125e-08,1.92873438e-01
-5.18028125e-08,1.92917188e-01
-5.17628125e-08,1.92887500e-01
-5.17228125e-08,1.92909375e-01
-5.16828125e-08,1.92892188e-01
-5.16428125e-08,1.92906250e-01
-5.16028125e-08,1.92895312e-01
-5.15628125e-08,1.92904688e-01
-5.15228125e-08,1.92896875e-01
-5.14828125e-08,1.92903125e-01
-5.14428125e-08,1.92898438e-01
-5.14028125e-08,1.92901563e-01
-5.13628125e-08,1.92898438e-01
-5.13228125e-08,1.92900000e-01
-5.12828125e-08,1.92900000e-01
-5.12428125e-08,1.92900000e-01
-5.12028125e-08,1.92901563e-01
-5.11628125e-08,1.92898438e-01
-5.11228125e-08,1.92901563e-01
-5.10828125e-08,1.92896875e-01
-5.10428125e-08,1.92903125e-01
-5.10028125e-08,1.92896875e-01
-5.09628125e-08,1.92904688e-01
-5.09228125e-08,1.92893750e-01
-5.08828125e-08,1.92906250e-01
-5.08428125e-08,1.92892188e-01
-5.08028125e-08,1.92909375e-01
-5.07628125e-08,1.92889063e-01
-5.07228125e-08,1.92912500e-01
-5.06828125e-08,1.92884375e-01
-5.06428125e-08,1.92921875e-01
-5.06028125e-08,1.92868750e-01
-5.05628125e-08,1.92956250e-01
-5.05228125e-08,1.92689063e-01
-5.04828125e-08,1.92448438e-01
-5.04428125e-08,1.92526562e-01
-5.04028125e-08,1.92482813e-01
-5.03628125e-08,1.92510938e-01
-5.03228125e-08,1.92492188e-01
-5.02828125e-08,1.92504687e-01
-5.02428125e-08,1.92498438e-01
-5.02028125e-08,1.92498438e-01
-5.01628125e-08,1.92503125e-01
-5.01228125e-08,1.92492188e-01
-5.00828125e-08,1.92514062e-01
-5.00428125e-08,1.92476563e-01
-5.00028125e-08,1.92548438e-01
-4.99628125e-08,1.92296875e-01
-4.99228125e-08,1.92040625e-01
-4.98828125e-08,1.92134375e-01
-4.98428125e-08,1.92075000e-01
-4.98028125e-08,1.92120313e-01
-4.97628125e-08,1.92082813e-01
-4.97228125e-08,1.92114063e-01
-4.96828125e-08,1.92087500e-01
-4.96428125e-08,1.92110937e-01
-4.96028125e-08,1.92090625e-01
-4.95628125e-08,1.92109375e-01
-4.95228125e-08,1.92092188e-01
-4.94828125e-08,1.92107813e-01
-4.94428125e-08,1.92093750e-01
-4.94028125e-08,1.92106250e-01
-4.93628125e-08,1.92093750e-01
-4.93228125e-08,1.92104688e-01
-4.92828125e-08,1.92095313e-01
-4.92428125e-08,1.92104688e-01
-4.92028125e-08,1.92096875e-01
-4.91628125e-08,1.92103125e-01
-4.91228125e-08,1.92098437e-01
-4.90828125e-08,1.92101563e-01
-4.90428125e-08,1.92100000e-01
-4.90028125e-08,1.92100000e-01
-4.89628125e-08,1.92101563e-01
-4.89228125e-08,1.92096875e-01
-4.88828125e-08,1.92104688e-01
-4.88428125e-08,1.92093750e-01
-4.88028125e-08,1.92109375e-01
-4.87628125e-08,1.92085937e-01
-4.87228125e-08,1.92125000e-01
-4.86828125e-08,1.92050000e-01
-4.86428125e-08,1.92303125e-01
-4.86028125e-08,1.92559375e-01
-4.85628125e-08,1.92464063e-01
-4.85228125e-08,1.92526562e-01
-4.84828125e-08,1.92479687e-01
-4.84428125e-08,1.92518750e-01
-4.84028125e-08,1.92484375e-01
-4.83628125e-08,1.92514062e-01
-4.83228125e-08,1.92487500e-01
-4.82828125e-08,1.92512500e-01
-4.82428125e-08,1.92489063e-01
-4.82028125e-08,1.92510938e-01
-4.81628125e-08,1.92489063e-01
-4.81228125e-08,1.92509375e-01
-4.80828125e-08,1.92490625e-01
-4.80428125e-08,1.92509375e-01
-4.80028125e-08,1.92490625e-01
-4.79628125e-08,1.92509375e-01
-4.79228125e-08,1.92492188e-01
-4.78828125e-08,1.92507813e-01
-4.78428125e-08,1.92492188e-01
-4.78028125e-08,1.92507813e-01
-4.77628125e-08,1.92492188e-01
-4.77228125e-08,1.92507813e-01
-4.76828125e-08,1.92492188e-01
-4.76428125e-08,1.92507813e-01
-4.76028125e-08,1.92492188e-01
-4.75628125e-08,1.92507813e-01
-4.75228125e-08,1.92492188e-01
-4.74828125e-08,1.92507813e-01
-4.74428125e-08,1.92492188e-01
-4.74028125e-08,1.92507813e-01
-4.73628125e-08,1.92492188e-01
-4.73228125e-08,1.92507813e-01
-4.72828125e-08,1.92492188e-01
-4.72428125e-08,1.92507813e-01
-4.72028125e-08,1.92492188e-01
-4.71628125e-08,1.92507813e-01
-4.71228125e-08,1.92492188e-01
-4.70828125e-08,1.92507813e-01
-4.70428125e-08,1.92492188e-01
-4.70028125e-08,1.92507813e-01
-4.69628125e-08,1.92492188e-01
-4.69228125e-08,1.92507813e-01
-4.68828125e-08,1.92490625e-01
-4.68428125e-08,1.92509375e-01
-4.68028125e-08,1.92490625e-01
-4.67628125e-08,1.92510938e-01
-4.67228125e-08,1.92487500e-01
-4.66828125e-08,1.92512500e-01
-4.66428125e-08,1.92484375e-01
-4.66028125e-08,1.92518750e-01
-4.65628125e-08,1.92476563e-01
-4.65228125e-08,1.92532813e-01
-4.64828125e-08,1.92442188e-01
-4.64428125e-08,1.92710938e-01
-4.64028125e-08,1.92951563e-01
-4.63628125e-08,1.92871875e-01
-4.63228125e-08,1.92918750e-01
-4.62828125e-08,1.92885937e-01
-4.62428125e-08,1.92910938e-01
-4.62028125e-08,1.92890625e-01
-4.61628125e-08,1.92907812e-01
-4.61228125e-08,1.92893750e-01
-4.60828125e-08,1.92906250e-01
-4.60428125e-08,1.92895312e-01
-4.60028125e-08,1.92904688e-01
-4.59628125e-08,1.92895312e-01
-4.59228125e-08,1.92904688e-01
-4.58828125e-08,1.92895312e-01
-4.58428125e-08,1.92903125e-01
-4.58028125e-08,1.92896875e-01
-4.57628125e-08,1.92903125e-01
-4.57228125e-08,1.92896875e-01
-4.56828125e-08,1.92903125e-01
-4.56428125e-08,1.92896875e-01
-4.56028125e-08,1.92903125e-01
-4.55628125e-08,1.92896875e-01
-4.55228125e-08,1.92904688e-01
-4.54828125e-08,1.92895312e-01
-4.54428125e-08,1.92904688e-01
-4.54028125e-08,1.92895312e-01
-4.53628125e-08,1.92904688e-01
-4.53228125e-08,1.92895312e-01
-4.52828125e-08,1.92906250e-01
-4.52428125e-08,1.92893750e-01
-4.52028125e-08,1.92907812e-01
-4.51628125e-08,1.92892188e-01
-4.51228125e-08,1.92909375e-01
-4.50828125e-08,1.92889063e-01
-4.50428125e-08,1.92912500e-01
-4.50028125e-08,1.92884375e-01
-4.49628125e-08,1.92921875e-01
-4.49228125e-08,1.92868750e-01
-4.48828125e-08,1.92956250e-01
-4.48428125e-08,1.92690625e-01
-4.48028125e-08,1.92446875e-01
-4.47628125e-08,1.92528125e-01
-4.47228125e-08,1.92481250e-01
-4.46828125e-08,1.92514062e-01
-4.46428125e-08,1.92489063e-01
-4.46028125e-08,1.92507813e-01
-4.45628125e-08,1.92493750e-01
-4.45228125e-08,1.92503125e-01
-4.44828125e-08,1.92498438e-01
-4.44428125e-08,1.92500000e-01
-4.44028125e-08,1.92503125e-01
-4.43628125e-08,1.92493750e-01
-4.43228125e-08,1.92510938e-01
-4.42828125e-08,1.92478125e-01
-4.42428125e-08,1.92545313e-01
-4.42028125e-08,1.92300000e-01
-4.41628125e-08,1.92037500e-01
-4.41228125e-08,1.92139063e-01
-4.40828125e-08,1.92070313e-01
-4.40428125e-08,1.92125000e-01
-4.40028125e-08,1.92078125e-01
-4.39628125e-08,1.92120313e-01
-4.39228125e-08,1.92079688e-01
-4.38828125e-08,1.92120313e-01
-4.38428125e-08,1.92079688e-01
-4.38028125e-08,1.92120313e-01
-4.37628125e-08,1.92078125e-01
-4.37228125e-08,1.92125000e-01
-4.36828125e-08,1.92071875e-01
-4.36428125e-08,1.92137500e-01
-4.36028125e-08,1.92037500e-01
-4.35628125e-08,1.92315625e-01
-4.35228125e-08,1.92546875e-01
-4.34828125e-08,1.92476563e-01
-4.34428125e-08,1.92514062e-01
-4.34028125e-08,1.92490625e-01
-4.33628125e-08,1.92507813e-01
-4.33228125e-08,1.92493750e-01
-4.32828125e-08,1.92504687e-01
-4.32428125e-08,1.92496875e-01
-4.32028125e-08,1.92503125e-01
-4.31628125e-08,1.92498438e-01
-4.31228125e-08,1.92501563e-01
-4.30828125e-08,1.92498438e-01
-4.30428125e-08,1.92501563e-01
-4.30028125e-08,1.92498438e-01
-4.29628125e-08,1.92501563e-01
-4.29228125e-08,1.92498438e-01
-4.28828125e-08,1.92501563e-01
-4.28428125e-08,1.92498438e-01
-4.28028125e-08,1.92503125e-01
-4.27628125e-08,1.92496875e-01
-4.27228125e-08,1.92504687e-01
-4.26828125e-08,1.92495313e-01
-4.26428125e-08,1.92506250e-01
-4.26028125e-08,1.92492188e-01
-4.25628125e-08,1.92510938e-01
-4.25228125e-08,1.92484375e-01
-4.24828125e-08,1.92525000e-01
-4.24428125e-08,1.92450000e-01
-4.24028125e-08,1.92703125e-01
-4.23628125e-08,1.92959375e-01
-4.23228125e-08,1.92864063e-01
-4.22828125e-08,1.92926563e-01
-4.22428125e-08,1.92878125e-01
-4.22028125e-08,1.92918750e-01
-4.21628125e-08,1.92882813e-01
-4.21228125e-08,1.92915625e-01
-4.20828125e-08,1.92885937e-01
-4.20428125e-08,1.92914063e-01
-4.20028125e-08,1.92885937e-01
-4.19628125e-08,1.92914063e-01
-4.19228125e-08,1.92885937e-01
-4.18828125e-08,1.92914063e-01
-4.18428125e-08,1.92885937e-01
-4.18028125e-08,1.92914063e-01
-4.17628125e-08,1.92884375e-01
-4.17228125e-08,1.92917188e-01
-4.16828125e-08,1.92881250e-01
-4.16428125e-08,1.92921875e-01
-4.16028125e-08,1.92873438e-01
-4.15628125e-08,1.92935938e-01
-4.15228125e-08,1.92839063e-01
-4.14828125e-08,1.93114063e-01
-4.14428125e-08,1.93348437e-01
-4.14028125e-08,1.93275000e-01
-4.13628125e-08,1.93315625e-01
-4.13228125e-08,1.93289062e-01
-4.12828125e-08,1.93307813e-01
-4.12428125e-08,1.93295313e-01
-4.12028125e-08,1.93303125e-01
-4.11628125e-08,1.93296875e-01
-4.11228125e-08,1.93301562e-01
-4.10828125e-08,1.93298438e-01
-4.10428125e-08,1.93300000e-01
-4.10028125e-08,1.93300000e-01
-4.09628125e-08,1.93300000e-01
-4.09228125e-08,1.93301562e-01
-4.08828125e-08,1.93298438e-01
-4.08428125e-08,1.93301562e-01
-4.08028125e-08,1.93296875e-01
-4.07628125e-08,1.93303125e-01
-4.07228125e-08,1.93296875e-01
-4.06828125e-08,1.93303125e-01
-4.06428125e-08,1.93295313e-01
-4.06028125e-08,1.93304688e-01
-4.05628125e-08,1.93293750e-01
-4.05228125e-08,1.93307813e-01
-4.04828125e-08,1.93292188e-01
-4.04428125e-08,1.93310938e-01
-4.04028125e-08,1.93285938e-01
-4.03628125e-08,1.93318750e-01
-4.03228125e-08,1.93271875e-01
-4.02828125e-08,1.93353125e-01
-4.02428125e-08,1.93093750e-01
-4.02028125e-08,1.92843750e-01
-4.01628125e-08,1.92932812e-01
-4.01228125e-08,1.92876563e-01
-4.00828125e-08,1.92918750e-01
-4.00428125e-08,1.92882813e-01
-4.00028125e-08,1.92915625e-01
-3.99628125e-08,1.92885937e-01
-3.99228125e-08,1.92914063e-01
-3.98828125e-08,1.92885937e-01
-3.98428125e-08,1.92914063e-01
-3.98028125e-08,1.92884375e-01
-3.97628125e-08,1.92917188e-01
-3.97228125e-08,1.92879688e-01
-3.96828125e-08,1.92925000e-01
-3.96428125e-08,1.92865625e-01
-3.96028125e-08,1.92957812e-01
-3.95628125e-08,1.92689063e-01
-3.95228125e-08,1.92448438e-01
-3.94828125e-08,1.92528125e-01
-3.94428125e-08,1.92481250e-01
-3.94028125e-08,1.92512500e-01
-3.93628125e-08,1.92489063e-01
-3.93228125e-08,1.92507813e-01
-3.92828125e-08,1.92493750e-01
-3.92428125e-08,1.92506250e-01
-3.92028125e-08,1.92495313e-01
-3.91628125e-08,1.92504687e-01
-3.91228125e-08,1.92496875e-01
-3.90828125e-08,1.92503125e-01
-3.90428125e-08,1.92498438e-01
-3.90028125e-08,1.92501563e-01
-3.89628125e-08,1.92498438e-01
-3.89228125e-08,1.92500000e-01
-3.88828125e-08,1.92500000e-01
-3.88428125e-08,1.92500000e-01
-3.88028125e-08,1.92501563e-01
-3.87628125e-08,1.92498438e-01
-3.87228125e-08,1.92503125e-01
-3.86828125e-08,1.92495313e-01
-3.86428125e-08,1.92506250e-01
-3.86028125e-08,1.92492188e-01
-3.85628125e-08,1.92510938e-01
-3.85228125e-08,1.92484375e-01
