trails/0bbf0cf1bfcc3246d9e376b62f80622a/aes_ch1_20250507112826559.csv

Model,MSO66B
Label,
Waveform Type,ANALOG
Horizontal Units,s
Sample Interval,4.00000000e-11
Record Length,10000
Zero Index,1599.17968750
Vertical Units,A
ANALOG_Thumbnail,
yOffset,1.84500000e-01
yPosition,8.40000000e-01

Labels,
TIME,CH1
-6.39671875e-08,1.88503125e-01
-6.39271875e-08,1.88496875e-01
-6.38871875e-08,1.88503125e-01
-6.38471875e-08,1.88496875e-01
-6.38071875e-08,1.88503125e-01
-6.37671875e-08,1.88496875e-01
-6.37271875e-08,1.88503125e-01
-6.36871875e-08,1.88496875e-01
-6.36471875e-08,1.88503125e-01
-6.36071875e-08,1.88496875e-01
-6.35671875e-08,1.88503125e-01
-6.35271875e-08,1.88495313e-01
-6.34871875e-08,1.88504688e-01
-6.34471875e-08,1.88495313e-01
-6.34071875e-08,1.88504688e-01
-6.33671875e-08,1.88495313e-01
-6.33271875e-08,1.88504688e-01
-6.32871875e-08,1.88495313e-01
-6.32471875e-08,1.88504688e-01
-6.32071875e-08,1.88493750e-01
-6.31671875e-08,1.88506250e-01
-6.31271875e-08,1.88493750e-01
-6.30871875e-08,1.88506250e-01
-6.30471875e-08,1.88493750e-01
-6.30071875e-08,1.88507813e-01
-6.29671875e-08,1.88492188e-01
-6.29271875e-08,1.88507813e-01
-6.28871875e-08,1.88490625e-01
-6.28471875e-08,1.88509375e-01
-6.28071875e-08,1.88489062e-01
-6.27671875e-08,1.88510938e-01
-6.27271875e-08,1.88487500e-01
-6.26871875e-08,1.88514062e-01
-6.26471875e-08,1.88482813e-01
-6.26071875e-08,1.88520313e-01
-6.25671875e-08,1.88475000e-01
-6.25271875e-08,1.88534375e-01
-6.24871875e-08,1.88439063e-01
-6.24471875e-08,1.88714063e-01
-6.24071875e-08,1.88948438e-01
-6.23671875e-08,1.88876563e-01
-6.23271875e-08,1.88914063e-01
-6.22871875e-08,1.88892188e-01
-6.22471875e-08,1.88904688e-01
-6.22071875e-08,1.88898438e-01
-6.21671875e-08,1.88898438e-01
-6.21271875e-08,1.88903125e-01
-6.20871875e-08,1.88893750e-01
-6.20471875e-08,1.88910938e-01
-6.20071875e-08,1.88882812e-01
-6.19671875e-08,1.88926563e-01
-6.19271875e-08,1.88846875e-01
-6.18871875e-08,1.89106250e-01
-6.18471875e-08,1.89354688e-01
-6.18071875e-08,1.89270313e-01
-6.17671875e-08,1.89320313e-01
-6.17271875e-08,1.89285938e-01
-6.16871875e-08,1.89307813e-01
-6.16471875e-08,1.89296875e-01
-6.16071875e-08,1.89296875e-01
-6.15671875e-08,1.89312500e-01
-6.15271875e-08,1.89262500e-01
-6.14871875e-08,1.89490625e-01
-6.14471875e-08,1.89771875e-01
-6.14071875e-08,1.89651563e-01
-6.13671875e-08,1.89740625e-01
-6.13271875e-08,1.89662500e-01
-6.12871875e-08,1.89737500e-01
-6.12471875e-08,1.89659375e-01
-6.12071875e-08,1.89748438e-01
-6.11671875e-08,1.89628125e-01
-6.11271875e-08,1.89925000e-01
-6.10871875e-08,1.90137500e-01
-6.10471875e-08,1.90085937e-01
-6.10071875e-08,1.90104688e-01
-6.09671875e-08,1.90101563e-01
-6.09271875e-08,1.90093750e-01
-6.08871875e-08,1.90110938e-01
-6.08471875e-08,1.90082813e-01
-6.08071875e-08,1.90128125e-01
-6.07671875e-08,1.90046875e-01
-6.07271875e-08,1.90306250e-01
-6.06871875e-08,1.90556250e-01
-6.06471875e-08,1.90468750e-01
-6.06071875e-08,1.90521875e-01
-6.05671875e-08,1.90482813e-01
-6.05271875e-08,1.90514062e-01
-6.04871875e-08,1.90487500e-01
-6.04471875e-08,1.90510938e-01
-6.04071875e-08,1.90490625e-01
-6.03671875e-08,1.90509375e-01
-6.03271875e-08,1.90492188e-01
-6.02871875e-08,1.90507813e-01
-6.02471875e-08,1.90492188e-01
-6.02071875e-08,1.90506250e-01
-6.01671875e-08,1.90493750e-01
-6.01271875e-08,1.90506250e-01
-6.00871875e-08,1.90493750e-01
-6.00471875e-08,1.90506250e-01
-6.00071875e-08,1.90493750e-01
-5.99671875e-08,1.90506250e-01
-5.99271875e-08,1.90493750e-01
-5.98871875e-08,1.90506250e-01
-5.98471875e-08,1.90493750e-01
-5.98071875e-08,1.90506250e-01
-5.97671875e-08,1.90493750e-01
-5.97271875e-08,1.90507813e-01
-5.96871875e-08,1.90492188e-01
-5.96471875e-08,1.90507813e-01
-5.96071875e-08,1.90492188e-01
-5.95671875e-08,1.90509375e-01
-5.95271875e-08,1.90490625e-01
-5.94871875e-08,1.90509375e-01
-5.94471875e-08,1.90489063e-01
-5.94071875e-08,1.90512500e-01
-5.93671875e-08,1.90485938e-01
-5.93271875e-08,1.90515625e-01
-5.92871875e-08,1.90481250e-01
-5.92471875e-08,1.90523438e-01
-5.92071875e-08,1.90467187e-01
-5.91671875e-08,1.90557813e-01
-5.91271875e-08,1.90289062e-01
-5.90871875e-08,1.90050000e-01
-5.90471875e-08,1.90126563e-01
-5.90071875e-08,1.90082813e-01
-5.89671875e-08,1.90112500e-01
-5.89271875e-08,1.90090625e-01
-5.88871875e-08,1.90106250e-01
-5.88471875e-08,1.90095313e-01
-5.88071875e-08,1.90103125e-01
-5.87671875e-08,1.90096875e-01
-5.87271875e-08,1.90101563e-01
-5.86871875e-08,1.90098437e-01
-5.86471875e-08,1.90100000e-01
-5.86071875e-08,1.90100000e-01
-5.85671875e-08,1.90100000e-01
-5.85271875e-08,1.90101563e-01
-5.84871875e-08,1.90098437e-01
-5.84471875e-08,1.90103125e-01
-5.84071875e-08,1.90096875e-01
-5.83671875e-08,1.90103125e-01
-5.83271875e-08,1.90095313e-01
-5.82871875e-08,1.90104688e-01
-5.82471875e-08,1.90093750e-01
-5.82071875e-08,1.90107813e-01
-5.81671875e-08,1.90090625e-01
-5.81271875e-08,1.90110938e-01
-5.80871875e-08,1.90087500e-01
-5.80471875e-08,1.90115625e-01
-5.80071875e-08,1.90078125e-01
-5.79671875e-08,1.90131250e-01
-5.79271875e-08,1.90043750e-01
-5.78871875e-08,1.90309375e-01
-5.78471875e-08,1.90551562e-01
-5.78071875e-08,1.90471875e-01
-5.77671875e-08,1.90518750e-01
-5.77271875e-08,1.90487500e-01
-5.76871875e-08,1.90509375e-01
-5.76471875e-08,1.90493750e-01
-5.76071875e-08,1.90504688e-01
-5.75671875e-08,1.90496875e-01
-5.75271875e-08,1.90501562e-01
-5.74871875e-08,1.90500000e-01
-5.74471875e-08,1.90498438e-01
-5.74071875e-08,1.90503125e-01
-5.73671875e-08,1.90493750e-01
-5.73271875e-08,1.90509375e-01
-5.72871875e-08,1.90484375e-01
-5.72471875e-08,1.90525000e-01
-5.72071875e-08,1.90450000e-01
-5.71671875e-08,1.90703125e-01
-5.71271875e-08,1.90957813e-01
-5.70871875e-08,1.90865625e-01
-5.70471875e-08,1.90925000e-01
-5.70071875e-08,1.90881250e-01
-5.69671875e-08,1.90915625e-01
-5.69271875e-08,1.90885938e-01
-5.68871875e-08,1.90912500e-01
-5.68471875e-08,1.90889063e-01
-5.68071875e-08,1.90909375e-01
-5.67671875e-08,1.90890625e-01
-5.67271875e-08,1.90907812e-01
-5.66871875e-08,1.90892188e-01
-5.66471875e-08,1.90907812e-01
-5.66071875e-08,1.90893750e-01
-5.65671875e-08,1.90906250e-01
-5.65271875e-08,1.90893750e-01
-5.64871875e-08,1.90904688e-01
-5.64471875e-08,1.90895312e-01
-5.64071875e-08,1.90904688e-01
-5.63671875e-08,1.90895312e-01
-5.63271875e-08,1.90903125e-01
-5.62871875e-08,1.90896875e-01
-5.62471875e-08,1.90903125e-01
-5.62071875e-08,1.90898438e-01
-5.61671875e-08,1.90901563e-01
-5.61271875e-08,1.90898438e-01
-5.60871875e-08,1.90900000e-01
-5.60471875e-08,1.90900000e-01
-5.60071875e-08,1.90898438e-01
-5.59671875e-08,1.90901563e-01
-5.59271875e-08,1.90896875e-01
-5.58871875e-08,1.90904688e-01
-5.58471875e-08,1.90893750e-01
-5.58071875e-08,1.90909375e-01
-5.57671875e-08,1.90884375e-01
-5.57271875e-08,1.90925000e-01
-5.56871875e-08,1.90850000e-01
-5.56471875e-08,1.91103125e-01
-5.56071875e-08,1.91359375e-01
-5.55671875e-08,1.91264062e-01
-5.55271875e-08,1.91326563e-01
-5.54871875e-08,1.91279688e-01
-5.54471875e-08,1.91317188e-01
-5.54071875e-08,1.91284375e-01
-5.53671875e-08,1.91314062e-01
-5.53271875e-08,1.91287500e-01
-5.52871875e-08,1.91312500e-01
-5.52471875e-08,1.91289062e-01
-5.52071875e-08,1.91310938e-01
-5.51671875e-08,1.91289062e-01
-5.51271875e-08,1.91309375e-01
-5.50871875e-08,1.91290625e-01
-5.50471875e-08,1.91309375e-01
-5.50071875e-08,1.91290625e-01
-5.49671875e-08,1.91309375e-01
-5.49271875e-08,1.91292188e-01
-5.48871875e-08,1.91307813e-01
-5.48471875e-08,1.91292188e-01
-5.48071875e-08,1.91307813e-01
-5.47671875e-08,1.91292188e-01
-5.47271875e-08,1.91307813e-01
-5.46871875e-08,1.91292188e-01
-5.46471875e-08,1.91307813e-01
-5.46071875e-08,1.91292188e-01
-5.45671875e-08,1.91307813e-01
-5.45271875e-08,1.91292188e-01
-5.44871875e-08,1.91307813e-01
-5.44471875e-08,1.91292188e-01
-5.44071875e-08,1.91307813e-01
-5.43671875e-08,1.91292188e-01
-5.43271875e-08,1.91307813e-01
-5.42871875e-08,1.91293750e-01
-5.42471875e-08,1.91307813e-01
-5.42071875e-08,1.91293750e-01
-5.41671875e-08,1.91306250e-01
-5.41271875e-08,1.91293750e-01
-5.40871875e-08,1.91306250e-01
-5.40471875e-08,1.91293750e-01
-5.40071875e-08,1.91306250e-01
-5.39671875e-08,1.91293750e-01
-5.39271875e-08,1.91306250e-01
-5.38871875e-08,1.91293750e-01
-5.38471875e-08,1.91307813e-01
-5.38071875e-08,1.91292188e-01
-5.37671875e-08,1.91307813e-01
-5.37271875e-08,1.91292188e-01
-5.36871875e-08,1.91307813e-01
-5.36471875e-08,1.91292188e-01
-5.36071875e-08,1.91307813e-01
-5.35671875e-08,1.91292188e-01
-5.35271875e-08,1.91307813e-01
-5.34871875e-08,1.91292188e-01
-5.34471875e-08,1.91307813e-01
-5.34071875e-08,1.91292188e-01
-5.33671875e-08,1.91307813e-01
-5.33271875e-08,1.91292188e-01
-5.32871875e-08,1.91307813e-01
-5.32471875e-08,1.91290625e-01
-5.32071875e-08,1.91309375e-01
-5.31671875e-08,1.91290625e-01
-5.31271875e-08,1.91309375e-01
-5.30871875e-08,1.91290625e-01
-5.30471875e-08,1.91309375e-01
-5.30071875e-08,1.91289062e-01
-5.29671875e-08,1.91310938e-01
-5.29271875e-08,1.91289062e-01
-5.28871875e-08,1.91312500e-01
-5.28471875e-08,1.91287500e-01
-5.28071875e-08,1.91314062e-01
-5.27671875e-08,1.91284375e-01
-5.27271875e-08,1.91318750e-01
-5.26871875e-08,1.91278125e-01
-5.26471875e-08,1.91326563e-01
-5.26071875e-08,1.91264062e-01
-5.25671875e-08,1.91360937e-01
-5.25271875e-08,1.91085937e-01
-5.24871875e-08,1.90851563e-01
-5.24471875e-08,1.90923438e-01
-5.24071875e-08,1.90885938e-01
-5.23671875e-08,1.90909375e-01
-5.23271875e-08,1.90893750e-01
-5.22871875e-08,1.90904688e-01
-5.22471875e-08,1.90896875e-01
-5.22071875e-08,1.90901563e-01
-5.21671875e-08,1.90900000e-01
-5.21271875e-08,1.90898438e-01
-5.20871875e-08,1.90901563e-01
-5.20471875e-08,1.90896875e-01
-5.20071875e-08,1.90903125e-01
-5.19671875e-08,1.90896875e-01
-5.19271875e-08,1.90904688e-01
-5.18871875e-08,1.90895312e-01
-5.18471875e-08,1.90906250e-01
-5.18071875e-08,1.90893750e-01
-5.17671875e-08,1.90907812e-01
-5.17271875e-08,1.90890625e-01
-5.16871875e-08,1.90910938e-01
-5.16471875e-08,1.90887500e-01
-5.16071875e-08,1.90914063e-01
-5.15671875e-08,1.90882812e-01
-5.15271875e-08,1.90923438e-01
-5.14871875e-08,1.90867188e-01
-5.14471875e-08,1.90957813e-01
-5.14071875e-08,1.90689063e-01
-5.13671875e-08,1.90450000e-01
-5.13271875e-08,1.90526562e-01
-5.12871875e-08,1.90482813e-01
-5.12471875e-08,1.90510938e-01
-5.12071875e-08,1.90492188e-01
-5.11671875e-08,1.90506250e-01
-5.11271875e-08,1.90496875e-01
-5.10871875e-08,1.90501562e-01
-5.10471875e-08,1.90500000e-01
-5.10071875e-08,1.90498438e-01
-5.09671875e-08,1.90503125e-01
-5.09271875e-08,1.90495313e-01
-5.08871875e-08,1.90507813e-01
-5.08471875e-08,1.90489063e-01
-5.08071875e-08,1.90517188e-01
-5.07671875e-08,1.90473438e-01
-5.07271875e-08,1.90551562e-01
-5.06871875e-08,1.90295313e-01
-5.06471875e-08,1.90042188e-01
-5.06071875e-08,1.90132812e-01
-5.05671875e-08,1.90076563e-01
-5.05271875e-08,1.90118750e-01
-5.04871875e-08,1.90084375e-01
-5.04471875e-08,1.90112500e-01
-5.04071875e-08,1.90089063e-01
-5.03671875e-08,1.90110938e-01
-5.03271875e-08,1.90090625e-01
-5.02871875e-08,1.90107813e-01
-5.02471875e-08,1.90092188e-01
-5.02071875e-08,1.90107813e-01
-5.01671875e-08,1.90093750e-01
-5.01271875e-08,1.90106250e-01
-5.00871875e-08,1.90093750e-01
-5.00471875e-08,1.90104688e-01
-5.00071875e-08,1.90095313e-01
-4.99671875e-08,1.90104688e-01
-4.99271875e-08,1.90095313e-01
-4.98871875e-08,1.90104688e-01
-4.98471875e-08,1.90096875e-01
-4.98071875e-08,1.90103125e-01
-4.97671875e-08,1.90096875e-01
-4.97271875e-08,1.90103125e-01
-4.96871875e-08,1.90098437e-01
-4.96471875e-08,1.90101563e-01
-4.96071875e-08,1.90100000e-01
-4.95671875e-08,1.90100000e-01
-4.95271875e-08,1.90101563e-01
-4.94871875e-08,1.90096875e-01
-4.94471875e-08,1.90106250e-01
-4.94071875e-08,1.90089063e-01
-4.93671875e-08,1.90120312e-01
-4.93271875e-08,1.90054688e-01
-4.92871875e-08,1.90296875e-01
-4.92471875e-08,1.90565625e-01
-4.92071875e-08,1.90457813e-01
-4.91671875e-08,1.90534375e-01
-4.91271875e-08,1.90468750e-01
-4.90871875e-08,1.90529688e-01
-4.90471875e-08,1.90470313e-01
-4.90071875e-08,1.90531250e-01
-4.89671875e-08,1.90464063e-01
-4.89271875e-08,1.90545313e-01
-4.88871875e-08,1.90429688e-01
-4.88471875e-08,1.90723438e-01
-4.88071875e-08,1.90939063e-01
-4.87671875e-08,1.90885938e-01
-4.87271875e-08,1.90904688e-01
-4.86871875e-08,1.90901563e-01
-4.86471875e-08,1.90892188e-01
-4.86071875e-08,1.90912500e-01
-4.85671875e-08,1.90881250e-01
-4.85271875e-08,1.90929688e-01
-4.84871875e-08,1.90843750e-01
-4.84471875e-08,1.91109375e-01
-4.84071875e-08,1.91351563e-01
-4.83671875e-08,1.91273438e-01
-4.83271875e-08,1.91315625e-01
-4.82871875e-08,1.91290625e-01
-4.82471875e-08,1.91303125e-01
-4.82071875e-08,1.91301563e-01
-4.81671875e-08,1.91292188e-01
-4.81271875e-08,1.91318750e-01
-4.80871875e-08,1.91256250e-01
-4.80471875e-08,1.91498438e-01
-4.80071875e-08,1.91764062e-01
-4.79671875e-08,1.91660938e-01
-4.79271875e-08,1.91729687e-01
-4.78871875e-08,1.91675000e-01
-4.78471875e-08,1.91720313e-01
-4.78071875e-08,1.91681250e-01
-4.77671875e-08,1.91717187e-01
-4.77271875e-08,1.91684375e-01
-4.76871875e-08,1.91715625e-01
-4.76471875e-08,1.91685938e-01
-4.76071875e-08,1.91714063e-01
-4.75671875e-08,1.91685938e-01
-4.75271875e-08,1.91712500e-01
-4.74871875e-08,1.91687500e-01
-4.74471875e-08,1.91712500e-01
-4.74071875e-08,1.91687500e-01
-4.73671875e-08,1.91712500e-01
-4.73271875e-08,1.91687500e-01
-4.72871875e-08,1.91712500e-01
-4.72471875e-08,1.91687500e-01
-4.72071875e-08,1.91714063e-01
-4.71671875e-08,1.91685938e-01
-4.71271875e-08,1.91714063e-01
-4.70871875e-08,1.91685938e-01
-4.70471875e-08,1.91715625e-01
-4.70071875e-08,1.91684375e-01
-4.69671875e-08,1.91717187e-01
-4.69271875e-08,1.91681250e-01
-4.68871875e-08,1.91721875e-01
-4.68471875e-08,1.91675000e-01
-4.68071875e-08,1.91729687e-01
-4.67671875e-08,1.91660938e-01
-4.67271875e-08,1.91764062e-01
-4.66871875e-08,1.91481250e-01
-4.66471875e-08,1.91256250e-01
-4.66071875e-08,1.91318750e-01
-4.65671875e-08,1.91290625e-01
-4.65271875e-08,1.91304688e-01
-4.64871875e-08,1.91300000e-01
-4.64471875e-08,1.91296875e-01
-4.64071875e-08,1.91306250e-01
-4.63671875e-08,1.91292188e-01
-4.63271875e-08,1.91310938e-01
-4.62871875e-08,1.91284375e-01
-4.62471875e-08,1.91321875e-01
-4.62071875e-08,1.91268750e-01
-4.61671875e-08,1.91357813e-01
-4.61271875e-08,1.91089063e-01
-4.60871875e-08,1.90850000e-01
-4.60471875e-08,1.90926563e-01
-4.60071875e-08,1.90884375e-01
-4.59671875e-08,1.90909375e-01
-4.59271875e-08,1.90893750e-01
-4.58871875e-08,1.90903125e-01
-4.58471875e-08,1.90900000e-01
-4.58071875e-08,1.90896875e-01
-4.57671875e-08,1.90906250e-01
-4.57271875e-08,1.90890625e-01
-4.56871875e-08,1.90915625e-01
-4.56471875e-08,1.90873438e-01
-4.56071875e-08,1.90951563e-01
-4.55671875e-08,1.90693750e-01
-4.55271875e-08,1.90443750e-01
-4.54871875e-08,1.90531250e-01
-4.54471875e-08,1.90479687e-01
-4.54071875e-08,1.90514062e-01
-4.53671875e-08,1.90489063e-01
-4.53271875e-08,1.90506250e-01
-4.52871875e-08,1.90496875e-01
-4.52471875e-08,1.90498438e-01
-4.52071875e-08,1.90506250e-01
-4.51671875e-08,1.90482813e-01
-4.51271875e-08,1.90542188e-01
-4.50871875e-08,1.90304688e-01
-4.50471875e-08,1.90034375e-01
-4.50071875e-08,1.90142188e-01
-4.49671875e-08,1.90067188e-01
-4.49271875e-08,1.90128125e-01
-4.48871875e-08,1.90075000e-01
-4.48471875e-08,1.90123438e-01
-4.48071875e-08,1.90078125e-01
-4.47671875e-08,1.90121875e-01
-4.47271875e-08,1.90076563e-01
-4.46871875e-08,1.90123438e-01
-4.46471875e-08,1.90073437e-01
-4.46071875e-08,1.90131250e-01
-4.45671875e-08,1.90060937e-01
-4.45271875e-08,1.90164063e-01
-4.44871875e-08,1.89882812e-01
-4.44471875e-08,1.89654688e-01
-4.44071875e-08,1.89721875e-01
-4.43671875e-08,1.89685938e-01
-4.43271875e-08,1.89709375e-01
-4.42871875e-08,1.89693750e-01
-4.42471875e-08,1.89704687e-01
-4.42071875e-08,1.89696875e-01
-4.41671875e-08,1.89701563e-01
-4.41271875e-08,1.89698438e-01
-4.40871875e-08,1.89701563e-01
-4.40471875e-08,1.89700000e-01
-4.40071875e-08,1.89700000e-01
-4.39671875e-08,1.89700000e-01
-4.39271875e-08,1.89700000e-01
-4.38871875e-08,1.89700000e-01
-4.38471875e-08,1.89700000e-01
-4.38071875e-08,1.89700000e-01
-4.37671875e-08,1.89700000e-01
-4.37271875e-08,1.89700000e-01
-4.36871875e-08,1.89700000e-01
-4.36471875e-08,1.89700000e-01
-4.36071875e-08,1.89700000e-01
-4.35671875e-08,1.89700000e-01
-4.35271875e-08,1.89700000e-01
-4.34871875e-08,1.89698438e-01
-4.34471875e-08,1.89701563e-01
-4.34071875e-08,1.89698438e-01
-4.33671875e-08,1.89701563e-01
-4.33271875e-08,1.89696875e-01
-4.32871875e-08,1.89703125e-01
-4.32471875e-08,1.89695313e-01
-4.32071875e-08,1.89706250e-01
-4.31671875e-08,1.89692187e-01
-4.31271875e-08,1.89710938e-01
-4.30871875e-08,1.89684375e-01
-4.30471875e-08,1.89725000e-01
-4.30071875e-08,1.89650000e-01
-4.29671875e-08,1.89903125e-01
-4.29271875e-08,1.90159375e-01
-4.28871875e-08,1.90064063e-01
-4.28471875e-08,1.90126563e-01
-4.28071875e-08,1.90078125e-01
-4.27671875e-08,1.90118750e-01
-4.27271875e-08,1.90082813e-01
-4.26871875e-08,1.90115625e-01
-4.26471875e-08,1.90085937e-01
-4.26071875e-08,1.90114063e-01
-4.25671875e-08,1.90085937e-01
-4.25271875e-08,1.90114063e-01
-4.24871875e-08,1.90085937e-01
-4.24471875e-08,1.90114063e-01
-4.24071875e-08,1.90085937e-01
-4.23671875e-08,1.90114063e-01
-4.23271875e-08,1.90084375e-01
-4.22871875e-08,1.90117188e-01
-4.22471875e-08,1.90081250e-01
-4.22071875e-08,1.90121875e-01
-4.21671875e-08,1.90073437e-01
-4.21271875e-08,1.90135938e-01
-4.20871875e-08,1.90039062e-01
-4.20471875e-08,1.90314063e-01
-4.20071875e-08,1.90548438e-01
-4.19671875e-08,1.90475000e-01
-4.19271875e-08,1.90515625e-01
-4.18871875e-08,1.90489063e-01
-4.18471875e-08,1.90507813e-01
-4.18071875e-08,1.90495313e-01
-4.17671875e-08,1.90504688e-01
-4.17271875e-08,1.90496875e-01
-4.16871875e-08,1.90501562e-01
-4.16471875e-08,1.90498438e-01
-4.16071875e-08,1.90500000e-01
-4.15671875e-08,1.90500000e-01
-4.15271875e-08,1.90500000e-01
-4.14871875e-08,1.90500000e-01
-4.14471875e-08,1.90498438e-01
-4.14071875e-08,1.90501562e-01
-4.13671875e-08,1.90498438e-01
-4.13271875e-08,1.90501562e-01
-4.12871875e-08,1.90498438e-01
-4.12471875e-08,1.90501562e-01
-4.12071875e-08,1.90496875e-01
-4.11671875e-08,1.90503125e-01
-4.11271875e-08,1.90496875e-01
-4.10871875e-08,1.90503125e-01
-4.10471875e-08,1.90496875e-01
-4.10071875e-08,1.90503125e-01
-4.09671875e-08,1.90495313e-01
-4.09271875e-08,1.90504688e-01
-4.08871875e-08,1.90495313e-01
-4.08471875e-08,1.90504688e-01
-4.08071875e-08,1.90493750e-01
-4.07671875e-08,1.90506250e-01
-4.07271875e-08,1.90493750e-01
-4.06871875e-08,1.90507813e-01
-4.06471875e-08,1.90492188e-01
-4.06071875e-08,1.90509375e-01
-4.05671875e-08,1.90489063e-01
-4.05271875e-08,1.90512500e-01
-4.04871875e-08,1.90484375e-01
-4.04471875e-08,1.90521875e-01
-4.04071875e-08,1.90468750e-01
-4.03671875e-08,1.90556250e-01
-4.03271875e-08,1.90290625e-01
-4.02871875e-08,1.90046875e-01
-4.02471875e-08,1.90129688e-01
-4.02071875e-08,1.90079688e-01
-4.01671875e-08,1.90115625e-01
-4.01271875e-08,1.90087500e-01
-4.00871875e-08,1.90109375e-01
-4.00471875e-08,1.90092188e-01
-4.00071875e-08,1.90107813e-01
-3.99671875e-08,1.90093750e-01
-3.99271875e-08,1.90106250e-01
-3.98871875e-08,1.90095313e-01
-3.98471875e-08,1.90104688e-01
-3.98071875e-08,1.90095313e-01
-3.97671875e-08,1.90103125e-01
-3.97271875e-08,1.90096875e-01
-3.96871875e-08,1.90103125e-01
-3.96471875e-08,1.90096875e-01
-3.96071875e-08,1.90103125e-01
-3.95671875e-08,1.90096875e-01
-3.95271875e-08,1.90101563e-01
-3.94871875e-08,1.90098437e-01
-3.94471875e-08,1.90101563e-01
-3.94071875e-08,1.90098437e-01
-3.93671875e-08,1.90101563e-01
-3.93271875e-08,1.90098437e-01
-3.92871875e-08,1.90101563e-01
-3.92471875e-08,1.90098437e-01
-3.92071875e-08,1.90101563e-01
-3.91671875e-08,1.90098437e-01
-3.91271875e-08,1.90100000e-01
-3.90871875e-08,1.90100000e-01
-3.90471875e-08,1.90100000e-01
-3.90071875e-08,1.90100000e-01
-3.89671875e-08,1.90100000e-01
-3.89271875e-08,1.90100000e-01
-3.88871875e-08,1.90100000e-01
-3.88471875e-08,1.90100000e-01
-3.88071875e-08,1.90100000e-01
-3.87671875e-08,1.90100000e-01
-3.87271875e-08,1.90098437e-01
-3.86871875e-08,1.90101563e-01
-3.86471875e-08,1.90098437e-01
-3.86071875e-08,1.90101563e-01
-3.85671875e-08,1.90098437e-01
-3.85271875e-08,1.90103125e-01
