trails/0bbf0cf1bfcc3246d9e376b62f80622a/aes_ch1_20250507112920948.csv

Model,MSO66B
Label,
Waveform Type,ANALOG
Horizontal Units,s
Sample Interval,4.00000000e-11
Record Length,10000
Zero Index,1599.07031250
Vertical Units,A
ANALOG_Thumbnail,
yOffset,1.84500000e-01
yPosition,8.40000000e-01

Labels,
TIME,CH1
-6.39628125e-08,1.84156250e-01
-6.39228125e-08,1.83890625e-01
-6.38828125e-08,1.83646875e-01
-6.38428125e-08,1.83729688e-01
-6.38028125e-08,1.83678125e-01
-6.37628125e-08,1.83717188e-01
-6.37228125e-08,1.83685938e-01
-6.36828125e-08,1.83712500e-01
-6.36428125e-08,1.83689062e-01
-6.36028125e-08,1.83710938e-01
-6.35628125e-08,1.83690625e-01
-6.35228125e-08,1.83709375e-01
-6.34828125e-08,1.83690625e-01
-6.34428125e-08,1.83709375e-01
-6.34028125e-08,1.83690625e-01
-6.33628125e-08,1.83709375e-01
-6.33228125e-08,1.83690625e-01
-6.32828125e-08,1.83710938e-01
-6.32428125e-08,1.83689062e-01
-6.32028125e-08,1.83712500e-01
-6.31628125e-08,1.83687500e-01
-6.31228125e-08,1.83714062e-01
-6.30828125e-08,1.83684375e-01
-6.30428125e-08,1.83718750e-01
-6.30028125e-08,1.83675000e-01
-6.29628125e-08,1.83734375e-01
-6.29228125e-08,1.83640625e-01
-6.28828125e-08,1.83912500e-01
-6.28428125e-08,1.84150000e-01
-6.28028125e-08,1.84073437e-01
-6.27628125e-08,1.84117188e-01
-6.27228125e-08,1.84089063e-01
-6.26828125e-08,1.84107812e-01
-6.26428125e-08,1.84093750e-01
-6.26028125e-08,1.84104688e-01
-6.25628125e-08,1.84096875e-01
-6.25228125e-08,1.84101563e-01
-6.24828125e-08,1.84098438e-01
-6.24428125e-08,1.84100000e-01
-6.24028125e-08,1.84100000e-01
-6.23628125e-08,1.84100000e-01
-6.23228125e-08,1.84101563e-01
-6.22828125e-08,1.84098438e-01
-6.22428125e-08,1.84103125e-01
-6.22028125e-08,1.84096875e-01
-6.21628125e-08,1.84104688e-01
-6.21228125e-08,1.84095312e-01
-6.20828125e-08,1.84106250e-01
-6.20428125e-08,1.84093750e-01
-6.20028125e-08,1.84107812e-01
-6.19628125e-08,1.84090625e-01
-6.19228125e-08,1.84112500e-01
-6.18828125e-08,1.84084375e-01
-6.18428125e-08,1.84120312e-01
-6.18028125e-08,1.84070312e-01
-6.17628125e-08,1.84154687e-01
-6.17228125e-08,1.83892187e-01
-6.16828125e-08,1.83646875e-01
-6.16428125e-08,1.83729688e-01
-6.16028125e-08,1.83679687e-01
-6.15628125e-08,1.83715625e-01
-6.15228125e-08,1.83687500e-01
-6.14828125e-08,1.83709375e-01
-6.14428125e-08,1.83692187e-01
-6.14028125e-08,1.83706250e-01
-6.13628125e-08,1.83693750e-01
-6.13228125e-08,1.83704688e-01
-6.12828125e-08,1.83695313e-01
-6.12428125e-08,1.83703125e-01
-6.12028125e-08,1.83696875e-01
-6.11628125e-08,1.83703125e-01
-6.11228125e-08,1.83698438e-01
-6.10828125e-08,1.83701562e-01
-6.10428125e-08,1.83698438e-01
-6.10028125e-08,1.83701562e-01
-6.09628125e-08,1.83700000e-01
-6.09228125e-08,1.83700000e-01
-6.08828125e-08,1.83700000e-01
-6.08428125e-08,1.83698438e-01
-6.08028125e-08,1.83701562e-01
-6.07628125e-08,1.83698438e-01
-6.07228125e-08,1.83703125e-01
-6.06828125e-08,1.83696875e-01
-6.06428125e-08,1.83704688e-01
-6.06028125e-08,1.83693750e-01
-6.05628125e-08,1.83707813e-01
-6.05228125e-08,1.83690625e-01
-6.04828125e-08,1.83712500e-01
-6.04428125e-08,1.83682813e-01
-6.04028125e-08,1.83728125e-01
-6.03628125e-08,1.83648438e-01
-6.03228125e-08,1.83906250e-01
-6.02828125e-08,1.84156250e-01
-6.02428125e-08,1.84067188e-01
-6.02028125e-08,1.84123438e-01
-6.01628125e-08,1.84081250e-01
-6.01228125e-08,1.84115625e-01
-6.00828125e-08,1.84085938e-01
-6.00428125e-08,1.84112500e-01
-6.00028125e-08,1.84087500e-01
-5.99628125e-08,1.84110938e-01
-5.99228125e-08,1.84089063e-01
-5.98828125e-08,1.84110938e-01
-5.98428125e-08,1.84087500e-01
-5.98028125e-08,1.84112500e-01
-5.97628125e-08,1.84085938e-01
-5.97228125e-08,1.84117188e-01
-5.96828125e-08,1.84078125e-01
-5.96428125e-08,1.84131250e-01
-5.96028125e-08,1.84045313e-01
-5.95628125e-08,1.84307813e-01
-5.95228125e-08,1.84554688e-01
-5.94828125e-08,1.84468750e-01
-5.94428125e-08,1.84523437e-01
-5.94028125e-08,1.84481250e-01
-5.93628125e-08,1.84515625e-01
-5.93228125e-08,1.84485938e-01
-5.92828125e-08,1.84514063e-01
-5.92428125e-08,1.84487500e-01
-5.92028125e-08,1.84514063e-01
-5.91628125e-08,1.84485938e-01
-5.91228125e-08,1.84514063e-01
-5.90828125e-08,1.84484375e-01
-5.90428125e-08,1.84517188e-01
-5.90028125e-08,1.84481250e-01
-5.89628125e-08,1.84521875e-01
-5.89228125e-08,1.84473438e-01
-5.88828125e-08,1.84537500e-01
-5.88428125e-08,1.84437500e-01
-5.88028125e-08,1.84715625e-01
-5.87628125e-08,1.84945313e-01
-5.87228125e-08,1.84878125e-01
-5.86828125e-08,1.84910938e-01
-5.86428125e-08,1.84893750e-01
-5.86028125e-08,1.84901563e-01
-5.85628125e-08,1.84903125e-01
-5.85228125e-08,1.84893750e-01
-5.84828125e-08,1.84910938e-01
-5.84428125e-08,1.84882812e-01
-5.84028125e-08,1.84926563e-01
-5.83628125e-08,1.84846875e-01
-5.83228125e-08,1.85106250e-01
-5.82828125e-08,1.85354688e-01
-5.82428125e-08,1.85270313e-01
-5.82028125e-08,1.85318750e-01
-5.81628125e-08,1.85287500e-01
-5.81228125e-08,1.85309375e-01
-5.80828125e-08,1.85295313e-01
-5.80428125e-08,1.85301563e-01
-5.80028125e-08,1.85303125e-01
-5.79628125e-08,1.85290625e-01
-5.79228125e-08,1.85320313e-01
-5.78828125e-08,1.85254688e-01
-5.78428125e-08,1.85498438e-01
-5.78028125e-08,1.85762500e-01
-5.77628125e-08,1.85660938e-01
-5.77228125e-08,1.85728125e-01
-5.76828125e-08,1.85676563e-01
-5.76428125e-08,1.85720313e-01
-5.76028125e-08,1.85682813e-01
-5.75628125e-08,1.85715625e-01
-5.75228125e-08,1.85685938e-01
-5.74828125e-08,1.85714062e-01
-5.74428125e-08,1.85687500e-01
-5.74028125e-08,1.85712500e-01
-5.73628125e-08,1.85689063e-01
-5.73228125e-08,1.85710938e-01
-5.72828125e-08,1.85689063e-01
-5.72428125e-08,1.85709375e-01
-5.72028125e-08,1.85690625e-01
-5.71628125e-08,1.85709375e-01
-5.71228125e-08,1.85690625e-01
-5.70828125e-08,1.85709375e-01
-5.70428125e-08,1.85692187e-01
-5.70028125e-08,1.85707813e-01
-5.69628125e-08,1.85692187e-01
-5.69228125e-08,1.85707813e-01
-5.68828125e-08,1.85692187e-01
-5.68428125e-08,1.85707813e-01
-5.68028125e-08,1.85692187e-01
-5.67628125e-08,1.85706250e-01
-5.67228125e-08,1.85693750e-01
-5.66828125e-08,1.85706250e-01
-5.66428125e-08,1.85693750e-01
-5.66028125e-08,1.85706250e-01
-5.65628125e-08,1.85693750e-01
-5.65228125e-08,1.85706250e-01
-5.64828125e-08,1.85693750e-01
-5.64428125e-08,1.85706250e-01
-5.64028125e-08,1.85693750e-01
-5.63628125e-08,1.85706250e-01
-5.63228125e-08,1.85693750e-01
-5.62828125e-08,1.85706250e-01
-5.62428125e-08,1.85693750e-01
-5.62028125e-08,1.85704688e-01
-5.61628125e-08,1.85695313e-01
-5.61228125e-08,1.85704688e-01
-5.60828125e-08,1.85695313e-01
-5.60428125e-08,1.85704688e-01
-5.60028125e-08,1.85695313e-01
-5.59628125e-08,1.85704688e-01
-5.59228125e-08,1.85695313e-01
-5.58828125e-08,1.85704688e-01
-5.58428125e-08,1.85695313e-01
-5.58028125e-08,1.85704688e-01
-5.57628125e-08,1.85695313e-01
-5.57228125e-08,1.85704688e-01
-5.56828125e-08,1.85695313e-01
-5.56428125e-08,1.85704688e-01
-5.56028125e-08,1.85695313e-01
-5.55628125e-08,1.85704688e-01
-5.55228125e-08,1.85695313e-01
-5.54828125e-08,1.85704688e-01
-5.54428125e-08,1.85695313e-01
-5.54028125e-08,1.85704688e-01
-5.53628125e-08,1.85695313e-01
-5.53228125e-08,1.85704688e-01
-5.52828125e-08,1.85695313e-01
-5.52428125e-08,1.85704688e-01
-5.52028125e-08,1.85695313e-01
-5.51628125e-08,1.85703125e-01
-5.51228125e-08,1.85696875e-01
-5.50828125e-08,1.85703125e-01
-5.50428125e-08,1.85696875e-01
-5.50028125e-08,1.85703125e-01
-5.49628125e-08,1.85696875e-01
-5.49228125e-08,1.85703125e-01
-5.48828125e-08,1.85696875e-01
-5.48428125e-08,1.85703125e-01
-5.48028125e-08,1.85696875e-01
-5.47628125e-08,1.85703125e-01
-5.47228125e-08,1.85696875e-01
-5.46828125e-08,1.85703125e-01
-5.46428125e-08,1.85696875e-01
-5.46028125e-08,1.85703125e-01
-5.45628125e-08,1.85696875e-01
-5.45228125e-08,1.85703125e-01
-5.44828125e-08,1.85696875e-01
-5.44428125e-08,1.85703125e-01
-5.44028125e-08,1.85698438e-01
-5.43628125e-08,1.85701563e-01
-5.43228125e-08,1.85698438e-01
-5.42828125e-08,1.85701563e-01
-5.42428125e-08,1.85698438e-01
-5.42028125e-08,1.85701563e-01
-5.41628125e-08,1.85698438e-01
-5.41228125e-08,1.85701563e-01
-5.40828125e-08,1.85698438e-01
-5.40428125e-08,1.85700000e-01
-5.40028125e-08,1.85700000e-01
-5.39628125e-08,1.85700000e-01
-5.39228125e-08,1.85700000e-01
-5.38828125e-08,1.85698438e-01
-5.38428125e-08,1.85701563e-01
-5.38028125e-08,1.85696875e-01
-5.37628125e-08,1.85704688e-01
-5.37228125e-08,1.85693750e-01
-5.36828125e-08,1.85707813e-01
-5.36428125e-08,1.85689063e-01
-5.36028125e-08,1.85715625e-01
-5.35628125e-08,1.85675000e-01
-5.35228125e-08,1.85750000e-01
-5.34828125e-08,1.85496875e-01
-5.34428125e-08,1.85242188e-01
-5.34028125e-08,1.85334375e-01
-5.33628125e-08,1.85275000e-01
-5.33228125e-08,1.85320313e-01
-5.32828125e-08,1.85282813e-01
-5.32428125e-08,1.85314063e-01
-5.32028125e-08,1.85287500e-01
-5.31628125e-08,1.85310937e-01
-5.31228125e-08,1.85290625e-01
-5.30828125e-08,1.85307813e-01
-5.30428125e-08,1.85293750e-01
-5.30028125e-08,1.85304688e-01
-5.29628125e-08,1.85296875e-01
-5.29228125e-08,1.85300000e-01
-5.28828125e-08,1.85304688e-01
-5.28428125e-08,1.85285937e-01
-5.28028125e-08,1.85339063e-01
-5.27628125e-08,1.85107812e-01
-5.27228125e-08,1.84829688e-01
-5.26828125e-08,1.84948438e-01
-5.26428125e-08,1.84860938e-01
-5.26028125e-08,1.84935938e-01
-5.25628125e-08,1.84865625e-01
-5.25228125e-08,1.84934375e-01
-5.24828125e-08,1.84864063e-01
-5.24428125e-08,1.84940625e-01
-5.24028125e-08,1.84850000e-01
-5.23628125e-08,1.84973438e-01
-5.23228125e-08,1.84673438e-01
-5.22828125e-08,1.84464062e-01
-5.22428125e-08,1.84510937e-01
-5.22028125e-08,1.84498438e-01
-5.21628125e-08,1.84495313e-01
-5.21228125e-08,1.84509375e-01
-5.20828125e-08,1.84485938e-01
-5.20428125e-08,1.84520313e-01
-5.20028125e-08,1.84468750e-01
-5.19628125e-08,1.84556250e-01
-5.19228125e-08,1.84290625e-01
-5.18828125e-08,1.84046875e-01
-5.18428125e-08,1.84129687e-01
-5.18028125e-08,1.84079688e-01
-5.17628125e-08,1.84115625e-01
-5.17228125e-08,1.84085938e-01
-5.16828125e-08,1.84114063e-01
-5.16428125e-08,1.84085938e-01
-5.16028125e-08,1.84118750e-01
-5.15628125e-08,1.84073437e-01
-5.15228125e-08,1.84150000e-01
-5.14828125e-08,1.83898438e-01
-5.14428125e-08,1.83639063e-01
-5.14028125e-08,1.83737500e-01
-5.13628125e-08,1.83670313e-01
-5.13228125e-08,1.83726562e-01
-5.12828125e-08,1.83676563e-01
-5.12428125e-08,1.83723438e-01
-5.12028125e-08,1.83676563e-01
-5.11628125e-08,1.83725000e-01
-5.11228125e-08,1.83673438e-01
-5.10828125e-08,1.83729688e-01
-5.10428125e-08,1.83665625e-01
-5.10028125e-08,1.83743750e-01
-5.09628125e-08,1.83631250e-01
-5.09228125e-08,1.83923438e-01
-5.08828125e-08,1.84139063e-01
-5.08428125e-08,1.84085938e-01
-5.08028125e-08,1.84103125e-01
-5.07628125e-08,1.84103125e-01
-5.07228125e-08,1.84092188e-01
-5.06828125e-08,1.84114063e-01
-5.06428125e-08,1.84079688e-01
-5.06028125e-08,1.84131250e-01
-5.05628125e-08,1.84042188e-01
-5.05228125e-08,1.84312500e-01
-5.04828125e-08,1.84548437e-01
-5.04428125e-08,1.84476562e-01
-5.04028125e-08,1.84510937e-01
-5.03628125e-08,1.84496875e-01
-5.03228125e-08,1.84495313e-01
-5.02828125e-08,1.84515625e-01
-5.02428125e-08,1.84457813e-01
-5.02028125e-08,1.84695313e-01
-5.01628125e-08,1.84967188e-01
-5.01228125e-08,1.84856250e-01
-5.00828125e-08,1.84937500e-01
-5.00428125e-08,1.84864063e-01
-5.00028125e-08,1.84942188e-01
-4.99628125e-08,1.84835938e-01
-4.99228125e-08,1.85114063e-01
-4.98828125e-08,1.85350000e-01
-4.98428125e-08,1.85271875e-01
-4.98028125e-08,1.85320313e-01
-4.97628125e-08,1.85282813e-01
-4.97228125e-08,1.85317188e-01
-4.96828125e-08,1.85282813e-01
-4.96428125e-08,1.85318750e-01
-4.96028125e-08,1.85276563e-01
-4.95628125e-08,1.85332812e-01
-4.95228125e-08,1.85242188e-01
-4.94828125e-08,1.85510938e-01
-4.94428125e-08,1.85751562e-01
-4.94028125e-08,1.85671875e-01
-4.93628125e-08,1.85718750e-01
-4.93228125e-08,1.85685938e-01
-4.92828125e-08,1.85710938e-01
-4.92428125e-08,1.85690625e-01
-4.92028125e-08,1.85707813e-01
-4.91628125e-08,1.85693750e-01
-4.91228125e-08,1.85706250e-01
-4.90828125e-08,1.85695313e-01
-4.90428125e-08,1.85704688e-01
-4.90028125e-08,1.85696875e-01
-4.89628125e-08,1.85703125e-01
-4.89228125e-08,1.85696875e-01
-4.88828125e-08,1.85703125e-01
-4.88428125e-08,1.85698438e-01
-4.88028125e-08,1.85701563e-01
-4.87628125e-08,1.85698438e-01
-4.87228125e-08,1.85701563e-01
-4.86828125e-08,1.85698438e-01
-4.86428125e-08,1.85701563e-01
-4.86028125e-08,1.85698438e-01
-4.85628125e-08,1.85700000e-01
-4.85228125e-08,1.85700000e-01
-4.84828125e-08,1.85700000e-01
-4.84428125e-08,1.85700000e-01
-4.84028125e-08,1.85700000e-01
-4.83628125e-08,1.85700000e-01
-4.83228125e-08,1.85700000e-01
-4.82828125e-08,1.85700000e-01
-4.82428125e-08,1.85700000e-01
-4.82028125e-08,1.85700000e-01
-4.81628125e-08,1.85700000e-01
-4.81228125e-08,1.85700000e-01
-4.80828125e-08,1.85700000e-01
-4.80428125e-08,1.85701563e-01
-4.80028125e-08,1.85698438e-01
-4.79628125e-08,1.85701563e-01
-4.79228125e-08,1.85698438e-01
-4.78828125e-08,1.85701563e-01
-4.78428125e-08,1.85698438e-01
-4.78028125e-08,1.85701563e-01
-4.77628125e-08,1.85698438e-01
-4.77228125e-08,1.85701563e-01
-4.76828125e-08,1.85698438e-01
-4.76428125e-08,1.85701563e-01
-4.76028125e-08,1.85698438e-01
-4.75628125e-08,1.85701563e-01
-4.75228125e-08,1.85698438e-01
-4.74828125e-08,1.85701563e-01
-4.74428125e-08,1.85698438e-01
-4.74028125e-08,1.85701563e-01
-4.73628125e-08,1.85698438e-01
-4.73228125e-08,1.85703125e-01
-4.72828125e-08,1.85696875e-01
-4.72428125e-08,1.85703125e-01
-4.72028125e-08,1.85696875e-01
-4.71628125e-08,1.85703125e-01
-4.71228125e-08,1.85696875e-01
-4.70828125e-08,1.85703125e-01
-4.70428125e-08,1.85696875e-01
-4.70028125e-08,1.85703125e-01
-4.69628125e-08,1.85696875e-01
-4.69228125e-08,1.85703125e-01
-4.68828125e-08,1.85696875e-01
-4.68428125e-08,1.85703125e-01
-4.68028125e-08,1.85696875e-01
-4.67628125e-08,1.85703125e-01
-4.67228125e-08,1.85696875e-01
-4.66828125e-08,1.85704688e-01
-4.66428125e-08,1.85695313e-01
-4.66028125e-08,1.85704688e-01
-4.65628125e-08,1.85695313e-01
-4.65228125e-08,1.85704688e-01
-4.64828125e-08,1.85695313e-01
-4.64428125e-08,1.85704688e-01
-4.64028125e-08,1.85695313e-01
-4.63628125e-08,1.85704688e-01
-4.63228125e-08,1.85695313e-01
-4.62828125e-08,1.85704688e-01
-4.62428125e-08,1.85693750e-01
-4.62028125e-08,1.85706250e-01
-4.61628125e-08,1.85693750e-01
-4.61228125e-08,1.85706250e-01
-4.60828125e-08,1.85693750e-01
-4.60428125e-08,1.85706250e-01
-4.60028125e-08,1.85692187e-01
-4.59628125e-08,1.85707813e-01
-4.59228125e-08,1.85692187e-01
-4.58828125e-08,1.85707813e-01
-4.58428125e-08,1.85690625e-01
-4.58028125e-08,1.85709375e-01
-4.57628125e-08,1.85689063e-01
-4.57228125e-08,1.85710938e-01
-4.56828125e-08,1.85687500e-01
-4.56428125e-08,1.85712500e-01
-4.56028125e-08,1.85684375e-01
-4.55628125e-08,1.85717188e-01
-4.55228125e-08,1.85679687e-01
-4.54828125e-08,1.85725000e-01
-4.54428125e-08,1.85664063e-01
-4.54028125e-08,1.85760938e-01
-4.53628125e-08,1.85485938e-01
-4.53228125e-08,1.85251562e-01
-4.52828125e-08,1.85323438e-01
-4.52428125e-08,1.85285937e-01
-4.52028125e-08,1.85309375e-01
-4.51628125e-08,1.85293750e-01
-4.51228125e-08,1.85303125e-01
-4.50828125e-08,1.85298437e-01
-4.50428125e-08,1.85300000e-01
-4.50028125e-08,1.85301563e-01
-4.49628125e-08,1.85296875e-01
-4.49228125e-08,1.85306250e-01
-4.48828125e-08,1.85292188e-01
-4.48428125e-08,1.85309375e-01
-4.48028125e-08,1.85285937e-01
-4.47628125e-08,1.85318750e-01
-4.47228125e-08,1.85270313e-01
-4.46828125e-08,1.85354688e-01
-4.46428125e-08,1.85092188e-01
-4.46028125e-08,1.84845312e-01
-4.45628125e-08,1.84929687e-01
-4.45228125e-08,1.84879688e-01
-4.44828125e-08,1.84915625e-01
-4.44428125e-08,1.84887500e-01
-4.44028125e-08,1.84910938e-01
-4.43628125e-08,1.84890625e-01
-4.43228125e-08,1.84907813e-01
-4.42828125e-08,1.84893750e-01
-4.42428125e-08,1.84906250e-01
-4.42028125e-08,1.84895313e-01
-4.41628125e-08,1.84904687e-01
-4.41228125e-08,1.84896875e-01
-4.40828125e-08,1.84903125e-01
-4.40428125e-08,1.84896875e-01
-4.40028125e-08,1.84901563e-01
-4.39628125e-08,1.84898438e-01
-4.39228125e-08,1.84901563e-01
-4.38828125e-08,1.84898438e-01
-4.38428125e-08,1.84901563e-01
-4.38028125e-08,1.84898438e-01
-4.37628125e-08,1.84900000e-01
-4.37228125e-08,1.84900000e-01
-4.36828125e-08,1.84900000e-01
-4.36428125e-08,1.84900000e-01
-4.36028125e-08,1.84900000e-01
-4.35628125e-08,1.84900000e-01
-4.35228125e-08,1.84898438e-01
-4.34828125e-08,1.84901563e-01
-4.34428125e-08,1.84898438e-01
-4.34028125e-08,1.84901563e-01
-4.33628125e-08,1.84898438e-01
-4.33228125e-08,1.84901563e-01
-4.32828125e-08,1.84898438e-01
-4.32428125e-08,1.84901563e-01
-4.32028125e-08,1.84896875e-01
-4.31628125e-08,1.84903125e-01
-4.31228125e-08,1.84896875e-01
-4.30828125e-08,1.84903125e-01
-4.30428125e-08,1.84896875e-01
-4.30028125e-08,1.84903125e-01
-4.29628125e-08,1.84896875e-01
-4.29228125e-08,1.84904687e-01
-4.28828125e-08,1.84895313e-01
-4.28428125e-08,1.84904687e-01
-4.28028125e-08,1.84895313e-01
-4.27628125e-08,1.84904687e-01
-4.27228125e-08,1.84893750e-01
-4.26828125e-08,1.84906250e-01
-4.26428125e-08,1.84893750e-01
-4.26028125e-08,1.84906250e-01
-4.25628125e-08,1.84892187e-01
-4.25228125e-08,1.84907813e-01
-4.24828125e-08,1.84892187e-01
-4.24428125e-08,1.84909375e-01
-4.24028125e-08,1.84890625e-01
-4.23628125e-08,1.84910938e-01
-4.23228125e-08,1.84889063e-01
-4.22828125e-08,1.84912500e-01
-4.22428125e-08,1.84885938e-01
-4.22028125e-08,1.84917187e-01
-4.21628125e-08,1.84879688e-01
-4.21228125e-08,1.84926563e-01
-4.20828125e-08,1.84864063e-01
-4.20428125e-08,1.84960938e-01
-4.20028125e-08,1.84685938e-01
-4.19628125e-08,1.84453125e-01
-4.19228125e-08,1.84523437e-01
-4.18828125e-08,1.84487500e-01
-4.18428125e-08,1.84507813e-01
-4.18028125e-08,1.84495313e-01
-4.17628125e-08,1.84501562e-01
-4.17228125e-08,1.84501562e-01
-4.16828125e-08,1.84496875e-01
-4.16428125e-08,1.84506250e-01
-4.16028125e-08,1.84492188e-01
-4.15628125e-08,1.84510937e-01
-4.15228125e-08,1.84485938e-01
-4.14828125e-08,1.84520313e-01
-4.14428125e-08,1.84468750e-01
-4.14028125e-08,1.84556250e-01
-4.13628125e-08,1.84290625e-01
-4.13228125e-08,1.84048437e-01
-4.12828125e-08,1.84126563e-01
-4.12428125e-08,1.84082812e-01
-4.12028125e-08,1.84110938e-01
-4.11628125e-08,1.84092188e-01
-4.11228125e-08,1.84104688e-01
-4.10828125e-08,1.84098438e-01
-4.10428125e-08,1.84100000e-01
-4.10028125e-08,1.84103125e-01
-4.09628125e-08,1.84095312e-01
-4.09228125e-08,1.84107812e-01
-4.08828125e-08,1.84087500e-01
-4.08428125e-08,1.84117188e-01
-4.08028125e-08,1.84071875e-01
-4.07628125e-08,1.84153125e-01
-4.07228125e-08,1.83892187e-01
-4.06828125e-08,1.83645313e-01
-4.06428125e-08,1.83729688e-01
-4.06028125e-08,1.83681250e-01
-4.05628125e-08,1.83714062e-01
-4.05228125e-08,1.83690625e-01
-4.04828125e-08,1.83706250e-01
-4.04428125e-08,1.83696875e-01
-4.04028125e-08,1.83700000e-01
-4.03628125e-08,1.83703125e-01
-4.03228125e-08,1.83692187e-01
-4.02828125e-08,1.83712500e-01
-4.02428125e-08,1.83676563e-01
-4.02028125e-08,1.83750000e-01
-4.01628125e-08,1.83496875e-01
-4.01228125e-08,1.83242188e-01
-4.00828125e-08,1.83334375e-01
-4.00428125e-08,1.83276563e-01
-4.00028125e-08,1.83317188e-01
-3.99628125e-08,1.83285937e-01
-3.99228125e-08,1.83310937e-01
-3.98828125e-08,1.83292188e-01
-3.98428125e-08,1.83304688e-01
-3.98028125e-08,1.83298437e-01
-3.97628125e-08,1.83298437e-01
-3.97228125e-08,1.83307813e-01
-3.96828125e-08,1.83281250e-01
-3.96428125e-08,1.83343750e-01
-3.96028125e-08,1.83103125e-01
-3.95628125e-08,1.82835938e-01
-3.95228125e-08,1.82940625e-01
-3.94828125e-08,1.82868750e-01
-3.94428125e-08,1.82925000e-01
-3.94028125e-08,1.82878125e-01
-3.93628125e-08,1.82920313e-01
-3.93228125e-08,1.82881250e-01
-3.92828125e-08,1.82917187e-01
-3.92428125e-08,1.82884375e-01
-3.92028125e-08,1.82914063e-01
-3.91628125e-08,1.82885938e-01
-3.91228125e-08,1.82914063e-01
-3.90828125e-08,1.82887500e-01
-3.90428125e-08,1.82912500e-01
-3.90028125e-08,1.82887500e-01
-3.89628125e-08,1.82910938e-01
-3.89228125e-08,1.82889063e-01
-3.88828125e-08,1.82910938e-01
-3.88428125e-08,1.82889063e-01
-3.88028125e-08,1.82910938e-01
-3.87628125e-08,1.82889063e-01
-3.87228125e-08,1.82910938e-01
-3.86828125e-08,1.82889063e-01
-3.86428125e-08,1.82910938e-01
-3.86028125e-08,1.82889063e-01
-3.85628125e-08,1.82910938e-01
-3.85228125e-08,1.82889063e-01
