trails/0bbf0cf1bfcc3246d9e376b62f80622a/aes_ch1_20250507113321369.csv

Model,MSO66B
Label,
Waveform Type,ANALOG
Horizontal Units,s
Sample Interval,4.00000000e-11
Record Length,10000
Zero Index,1599.08203125
Vertical Units,A
ANALOG_Thumbnail,
yOffset,1.84500000e-01
yPosition,8.40000000e-01

Labels,
TIME,CH1
-6.39632812e-08,1.92531250e-01
-6.39232812e-08,1.92445313e-01
-6.38832812e-08,1.92707813e-01
-6.38432812e-08,1.92954687e-01
-6.38032812e-08,1.92868750e-01
-6.37632813e-08,1.92921875e-01
-6.37232812e-08,1.92881250e-01
-6.36832812e-08,1.92915625e-01
-6.36432812e-08,1.92884375e-01
-6.36032812e-08,1.92915625e-01
-6.35632812e-08,1.92884375e-01
-6.35232812e-08,1.92917188e-01
-6.34832813e-08,1.92878125e-01
-6.34432812e-08,1.92931250e-01
-6.34032812e-08,1.92845313e-01
-6.33632812e-08,1.93107813e-01
-6.33232812e-08,1.93356250e-01
-6.32832812e-08,1.93267187e-01
-6.32432812e-08,1.93325000e-01
-6.32032813e-08,1.93279688e-01
-6.31632812e-08,1.93318750e-01
-6.31232812e-08,1.93281250e-01
-6.30832812e-08,1.93320313e-01
-6.30432812e-08,1.93275000e-01
-6.30032812e-08,1.93334375e-01
-6.29632812e-08,1.93242187e-01
-6.29232813e-08,1.93510938e-01
-6.28832812e-08,1.93751563e-01
-6.28432812e-08,1.93671875e-01
-6.28032812e-08,1.93720313e-01
-6.27632812e-08,1.93684375e-01
-6.27232812e-08,1.93712500e-01
-6.26832812e-08,1.93689063e-01
-6.26432813e-08,1.93709375e-01
-6.26032812e-08,1.93692188e-01
-6.25632812e-08,1.93707813e-01
-6.25232812e-08,1.93692188e-01
-6.24832812e-08,1.93706250e-01
-6.24432812e-08,1.93693750e-01
-6.24032812e-08,1.93706250e-01
-6.23632813e-08,1.93693750e-01
-6.23232812e-08,1.93706250e-01
-6.22832812e-08,1.93693750e-01
-6.22432812e-08,1.93706250e-01
-6.22032812e-08,1.93693750e-01
-6.21632812e-08,1.93706250e-01
-6.21232812e-08,1.93693750e-01
-6.20832813e-08,1.93706250e-01
-6.20432812e-08,1.93693750e-01
-6.20032812e-08,1.93706250e-01
-6.19632812e-08,1.93693750e-01
-6.19232812e-08,1.93706250e-01
-6.18832813e-08,1.93693750e-01
-6.18432812e-08,1.93706250e-01
-6.18032813e-08,1.93692188e-01
-6.17632812e-08,1.93707813e-01
-6.17232812e-08,1.93692188e-01
-6.16832812e-08,1.93707813e-01
-6.16432812e-08,1.93690625e-01
-6.16032813e-08,1.93709375e-01
-6.15632812e-08,1.93690625e-01
-6.15232813e-08,1.93710938e-01
-6.14832812e-08,1.93689063e-01
-6.14432812e-08,1.93712500e-01
-6.14032812e-08,1.93685938e-01
-6.13632812e-08,1.93717187e-01
-6.13232813e-08,1.93679688e-01
-6.12832812e-08,1.93725000e-01
-6.12432813e-08,1.93665625e-01
-6.12032812e-08,1.93759375e-01
-6.11632812e-08,1.93487500e-01
-6.11232812e-08,1.93251563e-01
-6.10832812e-08,1.93325000e-01
-6.10432813e-08,1.93284375e-01
-6.10032812e-08,1.93310938e-01
-6.09632813e-08,1.93292188e-01
-6.09232812e-08,1.93304688e-01
-6.08832812e-08,1.93296875e-01
-6.08432812e-08,1.93301562e-01
-6.08032812e-08,1.93300000e-01
-6.07632813e-08,1.93300000e-01
-6.07232812e-08,1.93301562e-01
-6.06832813e-08,1.93298438e-01
-6.06432812e-08,1.93303125e-01
-6.06032812e-08,1.93295313e-01
-6.05632812e-08,1.93304688e-01
-6.05232812e-08,1.93293750e-01
-6.04832813e-08,1.93307813e-01
-6.04432812e-08,1.93290625e-01
-6.04032813e-08,1.93312500e-01
-6.03632812e-08,1.93284375e-01
-6.03232812e-08,1.93320313e-01
-6.02832812e-08,1.93268750e-01
-6.02432812e-08,1.93356250e-01
-6.02032813e-08,1.93090625e-01
-6.01632812e-08,1.92846875e-01
-6.01232813e-08,1.92929688e-01
-6.00832812e-08,1.92881250e-01
-6.00432812e-08,1.92914063e-01
-6.00032812e-08,1.92889063e-01
-5.99632812e-08,1.92909375e-01
-5.99232813e-08,1.92892188e-01
-5.98832812e-08,1.92906250e-01
-5.98432812e-08,1.92895312e-01
-5.98032812e-08,1.92903125e-01
-5.97632812e-08,1.92896875e-01
-5.97232812e-08,1.92901563e-01
-5.96832812e-08,1.92898438e-01
-5.96432813e-08,1.92900000e-01
-5.96032812e-08,1.92900000e-01
-5.95632812e-08,1.92898438e-01
-5.95232812e-08,1.92901563e-01
-5.94832812e-08,1.92896875e-01
-5.94432812e-08,1.92903125e-01
-5.94032812e-08,1.92895312e-01
-5.93632812e-08,1.92906250e-01
-5.93232812e-08,1.92892188e-01
-5.92832812e-08,1.92909375e-01
-5.92432812e-08,1.92885937e-01
-5.92032812e-08,1.92918750e-01
-5.91632812e-08,1.92871875e-01
-5.91232812e-08,1.92953125e-01
-5.90832812e-08,1.92693750e-01
-5.90432812e-08,1.92445313e-01
-5.90032812e-08,1.92531250e-01
-5.89632812e-08,1.92478125e-01
-5.89232812e-08,1.92517188e-01
-5.88832812e-08,1.92485938e-01
-5.88432812e-08,1.92510938e-01
-5.88032812e-08,1.92490625e-01
-5.87632812e-08,1.92507813e-01
-5.87232812e-08,1.92492188e-01
-5.86832812e-08,1.92506250e-01
-5.86432812e-08,1.92493750e-01
-5.86032812e-08,1.92504687e-01
-5.85632812e-08,1.92495313e-01
-5.85232812e-08,1.92504687e-01
-5.84832812e-08,1.92496875e-01
-5.84432812e-08,1.92503125e-01
-5.84032812e-08,1.92496875e-01
-5.83632812e-08,1.92503125e-01
-5.83232812e-08,1.92498438e-01
-5.82832812e-08,1.92501563e-01
-5.82432812e-08,1.92498438e-01
-5.82032812e-08,1.92501563e-01
-5.81632812e-08,1.92498438e-01
-5.81232812e-08,1.92500000e-01
-5.80832812e-08,1.92500000e-01
-5.80432812e-08,1.92500000e-01
-5.80032812e-08,1.92500000e-01
-5.79632812e-08,1.92500000e-01
-5.79232812e-08,1.92501563e-01
-5.78832812e-08,1.92498438e-01
-5.78432812e-08,1.92501563e-01
-5.78032812e-08,1.92498438e-01
-5.77632812e-08,1.92503125e-01
-5.77232812e-08,1.92496875e-01
-5.76832812e-08,1.92503125e-01
-5.76432812e-08,1.92495313e-01
-5.76032812e-08,1.92504687e-01
-5.75632812e-08,1.92493750e-01
-5.75232812e-08,1.92506250e-01
-5.74832812e-08,1.92492188e-01
-5.74432812e-08,1.92509375e-01
-5.74032812e-08,1.92487500e-01
-5.73632812e-08,1.92515625e-01
-5.73232812e-08,1.92479687e-01
-5.72832812e-08,1.92531250e-01
-5.72432812e-08,1.92443750e-01
-5.72032812e-08,1.92709375e-01
-5.71632812e-08,1.92953125e-01
-5.71232812e-08,1.92871875e-01
-5.70832812e-08,1.92918750e-01
-5.70432812e-08,1.92885937e-01
-5.70032812e-08,1.92909375e-01
-5.69632812e-08,1.92892188e-01
-5.69232812e-08,1.92906250e-01
-5.68832812e-08,1.92895312e-01
-5.68432812e-08,1.92901563e-01
-5.68032812e-08,1.92900000e-01
-5.67632812e-08,1.92898438e-01
-5.67232812e-08,1.92903125e-01
-5.66832812e-08,1.92895312e-01
-5.66432812e-08,1.92907812e-01
-5.66032812e-08,1.92889063e-01
-5.65632812e-08,1.92915625e-01
-5.65232812e-08,1.92873438e-01
-5.64832812e-08,1.92951563e-01
-5.64432812e-08,1.92695312e-01
-5.64032812e-08,1.92443750e-01
-5.63632812e-08,1.92531250e-01
-5.63232812e-08,1.92478125e-01
-5.62832812e-08,1.92515625e-01
-5.62432812e-08,1.92487500e-01
-5.62032812e-08,1.92509375e-01
-5.61632812e-08,1.92493750e-01
-5.61232812e-08,1.92504687e-01
-5.60832812e-08,1.92498438e-01
-5.60432812e-08,1.92496875e-01
-5.60032812e-08,1.92507813e-01
-5.59632812e-08,1.92481250e-01
-5.59232812e-08,1.92543750e-01
-5.58832812e-08,1.92303125e-01
-5.58432812e-08,1.92035938e-01
-5.58032812e-08,1.92140625e-01
-5.57632812e-08,1.92068750e-01
-5.57232812e-08,1.92125000e-01
-5.56832812e-08,1.92078125e-01
-5.56432812e-08,1.92120313e-01
-5.56032812e-08,1.92081250e-01
-5.55632812e-08,1.92117188e-01
-5.55232812e-08,1.92082813e-01
-5.54832812e-08,1.92115625e-01
-5.54432812e-08,1.92084375e-01
-5.54032812e-08,1.92115625e-01
-5.53632812e-08,1.92085937e-01
-5.53232812e-08,1.92114063e-01
-5.52832812e-08,1.92085937e-01
-5.52432812e-08,1.92114063e-01
-5.52032812e-08,1.92085937e-01
-5.51632812e-08,1.92114063e-01
-5.51232812e-08,1.92085937e-01
-5.50832812e-08,1.92115625e-01
-5.50432812e-08,1.92084375e-01
-5.50032812e-08,1.92117188e-01
-5.49632812e-08,1.92081250e-01
-5.49232812e-08,1.92121875e-01
-5.48832812e-08,1.92073437e-01
-5.48432812e-08,1.92135938e-01
-5.48032812e-08,1.92040625e-01
-5.47632812e-08,1.92312500e-01
-5.47232812e-08,1.92550000e-01
-5.46832812e-08,1.92473438e-01
-5.46432812e-08,1.92518750e-01
-5.46032812e-08,1.92485938e-01
-5.45632812e-08,1.92512500e-01
-5.45232812e-08,1.92487500e-01
-5.44832812e-08,1.92514062e-01
-5.44432812e-08,1.92481250e-01
-5.44032812e-08,1.92526562e-01
-5.43632812e-08,1.92450000e-01
-5.43232812e-08,1.92703125e-01
-5.42832812e-08,1.92960938e-01
-5.42432812e-08,1.92862500e-01
-5.42032812e-08,1.92929688e-01
-5.41632812e-08,1.92873438e-01
-5.41232812e-08,1.92925000e-01
-5.40832812e-08,1.92875000e-01
-5.40432812e-08,1.92926563e-01
-5.40032812e-08,1.92868750e-01
-5.39632812e-08,1.92939063e-01
-5.39232812e-08,1.92835937e-01
-5.38832812e-08,1.93115625e-01
-5.38432812e-08,1.93346875e-01
-5.38032812e-08,1.93276562e-01
-5.37632812e-08,1.93314062e-01
-5.37232812e-08,1.93290625e-01
-5.36832812e-08,1.93306250e-01
-5.36432812e-08,1.93295313e-01
-5.36032812e-08,1.93303125e-01
-5.35632812e-08,1.93298438e-01
-5.35232812e-08,1.93301562e-01
-5.34832812e-08,1.93300000e-01
-5.34432812e-08,1.93300000e-01
-5.34032812e-08,1.93300000e-01
-5.33632812e-08,1.93300000e-01
-5.33232812e-08,1.93300000e-01
-5.32832812e-08,1.93298438e-01
-5.32432812e-08,1.93301562e-01
-5.32032812e-08,1.93298438e-01
-5.31632812e-08,1.93301562e-01
-5.31232812e-08,1.93298438e-01
-5.30832812e-08,1.93301562e-01
-5.30432812e-08,1.93298438e-01
-5.30032812e-08,1.93301562e-01
-5.29632812e-08,1.93298438e-01
-5.29232812e-08,1.93301562e-01
-5.28832812e-08,1.93298438e-01
-5.28432812e-08,1.93301562e-01
-5.28032812e-08,1.93298438e-01
-5.27632812e-08,1.93301562e-01
-5.27232812e-08,1.93298438e-01
-5.26832812e-08,1.93301562e-01
-5.26432812e-08,1.93298438e-01
-5.26032812e-08,1.93301562e-01
-5.25632813e-08,1.93298438e-01
-5.25232812e-08,1.93301562e-01
-5.24832812e-08,1.93298438e-01
-5.24432812e-08,1.93301562e-01
-5.24032812e-08,1.93298438e-01
-5.23632812e-08,1.93301562e-01
-5.23232812e-08,1.93298438e-01
-5.22832812e-08,1.93301562e-01
-5.22432812e-08,1.93298438e-01
-5.22032812e-08,1.93301562e-01
-5.21632812e-08,1.93298438e-01
-5.21232812e-08,1.93303125e-01
-5.20832812e-08,1.93298438e-01
-5.20432812e-08,1.93301562e-01
-5.20032812e-08,1.93298438e-01
-5.19632812e-08,1.93301562e-01
-5.19232812e-08,1.93298438e-01
-5.18832812e-08,1.93301562e-01
-5.18432812e-08,1.93298438e-01
-5.18032812e-08,1.93301562e-01
-5.17632812e-08,1.93298438e-01
-5.17232812e-08,1.93301562e-01
-5.16832812e-08,1.93298438e-01
-5.16432812e-08,1.93301562e-01
-5.16032812e-08,1.93298438e-01
-5.15632812e-08,1.93301562e-01
-5.15232812e-08,1.93298438e-01
-5.14832812e-08,1.93301562e-01
-5.14432812e-08,1.93298438e-01
-5.14032812e-08,1.93301562e-01
-5.13632812e-08,1.93298438e-01
-5.13232812e-08,1.93301562e-01
-5.12832812e-08,1.93298438e-01
-5.12432812e-08,1.93301562e-01
-5.12032812e-08,1.93298438e-01
-5.11632812e-08,1.93300000e-01
-5.11232812e-08,1.93300000e-01
-5.10832812e-08,1.93300000e-01
-5.10432812e-08,1.93300000e-01
-5.10032812e-08,1.93298438e-01
-5.09632812e-08,1.93301562e-01
-5.09232812e-08,1.93296875e-01
-5.08832812e-08,1.93304688e-01
-5.08432812e-08,1.93292188e-01
-5.08032812e-08,1.93312500e-01
-5.07632812e-08,1.93278125e-01
-5.07232812e-08,1.93346875e-01
-5.06832812e-08,1.93100000e-01
-5.06432813e-08,1.92837500e-01
-5.06032812e-08,1.92940625e-01
-5.05632812e-08,1.92868750e-01
-5.05232812e-08,1.92926563e-01
-5.04832812e-08,1.92875000e-01
-5.04432812e-08,1.92925000e-01
-5.04032812e-08,1.92875000e-01
-5.03632813e-08,1.92925000e-01
-5.03232812e-08,1.92871875e-01
-5.02832812e-08,1.92932812e-01
-5.02432812e-08,1.92857813e-01
-5.02032812e-08,1.92967187e-01
-5.01632812e-08,1.92679688e-01
-5.01232812e-08,1.92457812e-01
-5.00832812e-08,1.92518750e-01
-5.00432812e-08,1.92492188e-01
-5.00032812e-08,1.92503125e-01
-4.99632812e-08,1.92501563e-01
-4.99232812e-08,1.92495313e-01
-4.98832812e-08,1.92507813e-01
-4.98432812e-08,1.92489063e-01
-4.98032812e-08,1.92517188e-01
-4.97632812e-08,1.92473438e-01
-4.97232812e-08,1.92551562e-01
-4.96832812e-08,1.92293750e-01
-4.96432812e-08,1.92043750e-01
-4.96032812e-08,1.92132812e-01
-4.95632812e-08,1.92076562e-01
-4.95232812e-08,1.92118750e-01
-4.94832812e-08,1.92082813e-01
-4.94432812e-08,1.92115625e-01
-4.94032812e-08,1.92084375e-01
-4.93632812e-08,1.92115625e-01
-4.93232812e-08,1.92082813e-01
-4.92832812e-08,1.92121875e-01
-4.92432812e-08,1.92070313e-01
-4.92032812e-08,1.92154688e-01
-4.91632812e-08,1.91893750e-01
-4.91232812e-08,1.91643750e-01
-4.90832812e-08,1.91732813e-01
-4.90432812e-08,1.91675000e-01
-4.90032812e-08,1.91721875e-01
-4.89632812e-08,1.91681250e-01
-4.89232812e-08,1.91718750e-01
-4.88832812e-08,1.91681250e-01
-4.88432812e-08,1.91720313e-01
-4.88032812e-08,1.91676563e-01
-4.87632812e-08,1.91728125e-01
-4.87232813e-08,1.91662500e-01
-4.86832812e-08,1.91762500e-01
-4.86432812e-08,1.91484375e-01
-4.86032812e-08,1.91253125e-01
-4.85632812e-08,1.91323437e-01
-4.85232812e-08,1.91285938e-01
-4.84832812e-08,1.91307813e-01
-4.84432813e-08,1.91295313e-01
-4.84032812e-08,1.91301563e-01
-4.83632812e-08,1.91300000e-01
-4.83232812e-08,1.91296875e-01
-4.82832812e-08,1.91306250e-01
-4.82432812e-08,1.91290625e-01
-4.82032812e-08,1.91315625e-01
-4.81632813e-08,1.91275000e-01
-4.81232812e-08,1.91350000e-01
-4.80832812e-08,1.91096875e-01
-4.80432812e-08,1.90840625e-01
-4.80032812e-08,1.90934375e-01
-4.79632812e-08,1.90875000e-01
-4.79232812e-08,1.90920312e-01
-4.78832812e-08,1.90882812e-01
-4.78432812e-08,1.90915625e-01
-4.78032812e-08,1.90885938e-01
-4.77632812e-08,1.90912500e-01
-4.77232812e-08,1.90887500e-01
-4.76832812e-08,1.90910938e-01
-4.76432812e-08,1.90889063e-01
-4.76032812e-08,1.90910938e-01
-4.75632812e-08,1.90889063e-01
-4.75232812e-08,1.90912500e-01
-4.74832812e-08,1.90887500e-01
-4.74432812e-08,1.90914063e-01
-4.74032812e-08,1.90884375e-01
-4.73632812e-08,1.90918750e-01
-4.73232812e-08,1.90876563e-01
-4.72832812e-08,1.90931250e-01
-4.72432812e-08,1.90843750e-01
-4.72032812e-08,1.91109375e-01
-4.71632812e-08,1.91354688e-01
-4.71232812e-08,1.91268750e-01
-4.70832812e-08,1.91321875e-01
-4.70432812e-08,1.91281250e-01
-4.70032812e-08,1.91317188e-01
-4.69632812e-08,1.91284375e-01
-4.69232812e-08,1.91317188e-01
-4.68832812e-08,1.91278125e-01
-4.68432812e-08,1.91329688e-01
-4.68032813e-08,1.91246875e-01
-4.67632812e-08,1.91504687e-01
-4.67232812e-08,1.91757813e-01
-4.66832812e-08,1.91664063e-01
-4.66432812e-08,1.91728125e-01
-4.66032812e-08,1.91675000e-01
-4.65632812e-08,1.91725000e-01
-4.65232813e-08,1.91670312e-01
-4.64832812e-08,1.91737500e-01
-4.64432812e-08,1.91639063e-01
-4.64032812e-08,1.91914063e-01
-4.63632812e-08,1.92148438e-01
-4.63232812e-08,1.92075000e-01
-4.62832812e-08,1.92117188e-01
-4.62432813e-08,1.92087500e-01
-4.62032812e-08,1.92109375e-01
-4.61632812e-08,1.92092188e-01
-4.61232812e-08,1.92106250e-01
-4.60832812e-08,1.92095313e-01
-4.60432812e-08,1.92104688e-01
-4.60032812e-08,1.92096875e-01
-4.59632813e-08,1.92103125e-01
-4.59232812e-08,1.92096875e-01
-4.58832812e-08,1.92103125e-01
-4.58432812e-08,1.92098437e-01
-4.58032812e-08,1.92101563e-01
-4.57632812e-08,1.92098437e-01
-4.57232812e-08,1.92100000e-01
-4.56832812e-08,1.92100000e-01
-4.56432812e-08,1.92100000e-01
-4.56032812e-08,1.92101563e-01
-4.55632812e-08,1.92098437e-01
-4.55232812e-08,1.92103125e-01
-4.54832812e-08,1.92095313e-01
-4.54432812e-08,1.92106250e-01
-4.54032812e-08,1.92090625e-01
-4.53632812e-08,1.92114063e-01
-4.53232812e-08,1.92076562e-01
-4.52832812e-08,1.92146875e-01
-4.52432812e-08,1.91900000e-01
-4.52032812e-08,1.91637500e-01
-4.51632812e-08,1.91739063e-01
-4.51232812e-08,1.91668750e-01
-4.50832812e-08,1.91728125e-01
-4.50432812e-08,1.91673438e-01
-4.50032812e-08,1.91726563e-01
-4.49632812e-08,1.91671875e-01
-4.49232812e-08,1.91731250e-01
-4.48832813e-08,1.91659375e-01
-4.48432812e-08,1.91764062e-01
-4.48032812e-08,1.91482813e-01
-4.47632812e-08,1.91254688e-01
-4.47232812e-08,1.91321875e-01
-4.46832812e-08,1.91287500e-01
-4.46432812e-08,1.91307813e-01
-4.46032813e-08,1.91295313e-01
-4.45632812e-08,1.91303125e-01
-4.45232812e-08,1.91298438e-01
-4.44832812e-08,1.91300000e-01
-4.44432812e-08,1.91300000e-01
-4.44032812e-08,1.91298438e-01
-4.43632812e-08,1.91301563e-01
-4.43232813e-08,1.91298438e-01
-4.42832812e-08,1.91303125e-01
-4.42432812e-08,1.91296875e-01
-4.42032812e-08,1.91303125e-01
-4.41632812e-08,1.91295313e-01
-4.41232812e-08,1.91304688e-01
-4.40832812e-08,1.91295313e-01
-4.40432813e-08,1.91306250e-01
-4.40032812e-08,1.91293750e-01
-4.39632812e-08,1.91306250e-01
-4.39232812e-08,1.91292188e-01
-4.38832812e-08,1.91309375e-01
-4.38432812e-08,1.91290625e-01
-4.38032812e-08,1.91312500e-01
-4.37632812e-08,1.91285938e-01
-4.37232812e-08,1.91317188e-01
-4.36832812e-08,1.91278125e-01
-4.36432812e-08,1.91332813e-01
-4.36032812e-08,1.91242187e-01
-4.35632812e-08,1.91510938e-01
-4.35232812e-08,1.91751563e-01
-4.34832812e-08,1.91671875e-01
-4.34432812e-08,1.91717187e-01
-4.34032812e-08,1.91687500e-01
-4.33632812e-08,1.91709375e-01
-4.33232812e-08,1.91693750e-01
-4.32832812e-08,1.91704687e-01
-4.32432812e-08,1.91696875e-01
-4.32032812e-08,1.91701563e-01
-4.31632812e-08,1.91700000e-01
-4.31232812e-08,1.91698438e-01
-4.30832812e-08,1.91703125e-01
-4.30432812e-08,1.91693750e-01
-4.30032812e-08,1.91709375e-01
-4.29632813e-08,1.91684375e-01
-4.29232812e-08,1.91725000e-01
-4.28832812e-08,1.91650000e-01
-4.28432812e-08,1.91903125e-01
-4.28032812e-08,1.92159375e-01
-4.27632812e-08,1.92065625e-01
-4.27232812e-08,1.92125000e-01
-4.26832813e-08,1.92079688e-01
-4.26432812e-08,1.92117188e-01
-4.26032812e-08,1.92084375e-01
-4.25632812e-08,1.92114063e-01
-4.25232812e-08,1.92087500e-01
-4.24832812e-08,1.92110937e-01
-4.24432812e-08,1.92089063e-01
-4.24032813e-08,1.92110937e-01
-4.23632812e-08,1.92090625e-01
-4.23232812e-08,1.92109375e-01
-4.22832812e-08,1.92090625e-01
-4.22432812e-08,1.92109375e-01
-4.22032812e-08,1.92090625e-01
-4.21632812e-08,1.92109375e-01
-4.21232813e-08,1.92092188e-01
-4.20832812e-08,1.92107813e-01
-4.20432812e-08,1.92092188e-01
-4.20032812e-08,1.92107813e-01
-4.19632812e-08,1.92092188e-01
-4.19232812e-08,1.92109375e-01
-4.18832812e-08,1.92090625e-01
-4.18432813e-08,1.92109375e-01
-4.18032812e-08,1.92090625e-01
-4.17632812e-08,1.92109375e-01
-4.17232812e-08,1.92090625e-01
-4.16832812e-08,1.92110937e-01
-4.16432812e-08,1.92089063e-01
-4.16032812e-08,1.92112500e-01
-4.15632812e-08,1.92085937e-01
-4.15232812e-08,1.92115625e-01
-4.14832812e-08,1.92081250e-01
-4.14432812e-08,1.92123437e-01
-4.14032812e-08,1.92067188e-01
-4.13632812e-08,1.92157812e-01
-4.13232812e-08,1.91889063e-01
-4.12832812e-08,1.91648438e-01
-4.12432812e-08,1.91726563e-01
-4.12032812e-08,1.91682813e-01
-4.11632812e-08,1.91712500e-01
-4.11232812e-08,1.91690625e-01
-4.10832812e-08,1.91707813e-01
-4.10432813e-08,1.91693750e-01
-4.10032812e-08,1.91706250e-01
-4.09632812e-08,1.91695313e-01
-4.09232812e-08,1.91704687e-01
-4.08832812e-08,1.91696875e-01
-4.08432812e-08,1.91703125e-01
-4.08032812e-08,1.91696875e-01
-4.07632813e-08,1.91703125e-01
-4.07232812e-08,1.91696875e-01
-4.06832812e-08,1.91701563e-01
-4.06432812e-08,1.91698438e-01
-4.06032812e-08,1.91701563e-01
-4.05632812e-08,1.91698438e-01
-4.05232812e-08,1.91701563e-01
-4.04832813e-08,1.91696875e-01
-4.04432812e-08,1.91703125e-01
-4.04032812e-08,1.91696875e-01
-4.03632812e-08,1.91703125e-01
-4.03232812e-08,1.91695313e-01
-4.02832812e-08,1.91704687e-01
-4.02432812e-08,1.91693750e-01
-4.02032813e-08,1.91709375e-01
-4.01632812e-08,1.91685938e-01
-4.01232812e-08,1.91723438e-01
-4.00832812e-08,1.91653125e-01
-4.00432812e-08,1.91898438e-01
-4.00032812e-08,1.92164063e-01
-3.99632812e-08,1.92057813e-01
-3.99232813e-08,1.92135938e-01
-3.98832812e-08,1.92067188e-01
-3.98432812e-08,1.92135938e-01
-3.98032812e-08,1.92056250e-01
-3.97632812e-08,1.92167188e-01
-3.97232812e-08,1.91881250e-01
-3.96832812e-08,1.91656250e-01
-3.96432813e-08,1.91720313e-01
-3.96032812e-08,1.91689063e-01
-3.95632812e-08,1.91706250e-01
-3.95232812e-08,1.91696875e-01
-3.94832812e-08,1.91701563e-01
-3.94432812e-08,1.91700000e-01
-3.94032813e-08,1.91698438e-01
-3.93632812e-08,1.91703125e-01
-3.93232812e-08,1.91695313e-01
-3.92832812e-08,1.91704687e-01
-3.92432812e-08,1.91693750e-01
-3.92032812e-08,1.91707813e-01
-3.91632812e-08,1.91689063e-01
-3.91232813e-08,1.91712500e-01
-3.90832812e-08,1.91684375e-01
-3.90432812e-08,1.91721875e-01
-3.90032812e-08,1.91668750e-01
-3.89632812e-08,1.91756250e-01
-3.89232812e-08,1.91489063e-01
-3.88832812e-08,1.91248438e-01
-3.88432813e-08,1.91326563e-01
-3.88032812e-08,1.91282813e-01
-3.87632812e-08,1.91310938e-01
-3.87232812e-08,1.91293750e-01
-3.86832812e-08,1.91303125e-01
-3.86432812e-08,1.91300000e-01
-3.86032812e-08,1.91295313e-01
-3.85632813e-08,1.91310938e-01
-3.85232812e-08,1.91279688e-01
