trails/0bbf0cf1bfcc3246d9e376b62f80622a/aes_ch1_20250507112454640.csv

Model,MSO66B
Label,
Waveform Type,ANALOG
Horizontal Units,s
Sample Interval,4.00000000e-11
Record Length,10000
Zero Index,1599.10937500
Vertical Units,A
ANALOG_Thumbnail,
yOffset,1.84500000e-01
yPosition,8.40000000e-01

Labels,
TIME,CH1
-6.39643750e-08,1.87690625e-01
-6.39243750e-08,1.87709375e-01
-6.38843750e-08,1.87689063e-01
-6.38443750e-08,1.87710938e-01
-6.38043750e-08,1.87687500e-01
-6.37643750e-08,1.87714063e-01
-6.37243750e-08,1.87684375e-01
-6.36843750e-08,1.87718750e-01
-6.36443750e-08,1.87675000e-01
-6.36043750e-08,1.87734375e-01
-6.35643750e-08,1.87640625e-01
-6.35243750e-08,1.87912500e-01
-6.34843750e-08,1.88150000e-01
-6.34443750e-08,1.88075000e-01
-6.34043750e-08,1.88115625e-01
-6.33643750e-08,1.88089063e-01
-6.33243750e-08,1.88107812e-01
-6.32843750e-08,1.88093750e-01
-6.32443750e-08,1.88104688e-01
-6.32043750e-08,1.88096875e-01
-6.31643750e-08,1.88101563e-01
-6.31243750e-08,1.88100000e-01
-6.30843750e-08,1.88100000e-01
-6.30443750e-08,1.88101563e-01
-6.30043750e-08,1.88096875e-01
-6.29643750e-08,1.88103125e-01
-6.29243750e-08,1.88095313e-01
-6.28843750e-08,1.88106250e-01
-6.28443750e-08,1.88093750e-01
-6.28043750e-08,1.88109375e-01
-6.27643750e-08,1.88089063e-01
-6.27243750e-08,1.88114063e-01
-6.26843750e-08,1.88079688e-01
-6.26443750e-08,1.88129688e-01
-6.26043750e-08,1.88045313e-01
-6.25643750e-08,1.88307813e-01
-6.25243750e-08,1.88554688e-01
-6.24843750e-08,1.88470313e-01
-6.24443750e-08,1.88520313e-01
-6.24043750e-08,1.88484375e-01
-6.23643750e-08,1.88512500e-01
-6.23243750e-08,1.88490625e-01
-6.22843750e-08,1.88507813e-01
-6.22443750e-08,1.88493750e-01
-6.22043750e-08,1.88506250e-01
-6.21643750e-08,1.88495313e-01
-6.21243750e-08,1.88503125e-01
-6.20843750e-08,1.88496875e-01
-6.20443750e-08,1.88503125e-01
-6.20043750e-08,1.88498438e-01
-6.19643750e-08,1.88501562e-01
-6.19243750e-08,1.88500000e-01
-6.18843750e-08,1.88500000e-01
-6.18443750e-08,1.88501562e-01
-6.18043750e-08,1.88498438e-01
-6.17643750e-08,1.88503125e-01
-6.17243750e-08,1.88496875e-01
-6.16843750e-08,1.88504688e-01
-6.16443750e-08,1.88493750e-01
-6.16043750e-08,1.88507813e-01
-6.15643750e-08,1.88490625e-01
-6.15243750e-08,1.88512500e-01
-6.14843750e-08,1.88481250e-01
-6.14443750e-08,1.88528125e-01
-6.14043750e-08,1.88446875e-01
-6.13643750e-08,1.88707813e-01
-6.13243750e-08,1.88954687e-01
-6.12843750e-08,1.88868750e-01
-6.12443750e-08,1.88920313e-01
-6.12043750e-08,1.88884375e-01
-6.11643750e-08,1.88912500e-01
-6.11243750e-08,1.88890625e-01
-6.10843750e-08,1.88907812e-01
-6.10443750e-08,1.88895312e-01
-6.10043750e-08,1.88903125e-01
-6.09643750e-08,1.88898438e-01
-6.09243750e-08,1.88898438e-01
-6.08843750e-08,1.88904688e-01
-6.08443750e-08,1.88890625e-01
-6.08043750e-08,1.88920313e-01
-6.07643750e-08,1.88854688e-01
-6.07243750e-08,1.89098437e-01
-6.06843750e-08,1.89364063e-01
-6.06443750e-08,1.89259375e-01
-6.06043750e-08,1.89331250e-01
-6.05643750e-08,1.89273438e-01
-6.05243750e-08,1.89325000e-01
-6.04843750e-08,1.89276562e-01
-6.04443750e-08,1.89323437e-01
-6.04043750e-08,1.89276562e-01
-6.03643750e-08,1.89326563e-01
-6.03243750e-08,1.89270313e-01
-6.02843750e-08,1.89339063e-01
-6.02443750e-08,1.89237500e-01
-6.02043750e-08,1.89515625e-01
-6.01643750e-08,1.89746875e-01
-6.01243750e-08,1.89676563e-01
-6.00843750e-08,1.89715625e-01
-6.00443750e-08,1.89689063e-01
-6.00043750e-08,1.89709375e-01
-5.99643750e-08,1.89692187e-01
-5.99243750e-08,1.89706250e-01
-5.98843750e-08,1.89693750e-01
-5.98443750e-08,1.89706250e-01
-5.98043750e-08,1.89693750e-01
-5.97643750e-08,1.89707813e-01
-5.97243750e-08,1.89690625e-01
-5.96843750e-08,1.89712500e-01
-5.96443750e-08,1.89682813e-01
-5.96043750e-08,1.89726563e-01
-5.95643750e-08,1.89648438e-01
-5.95243750e-08,1.89904688e-01
-5.94843750e-08,1.90157812e-01
-5.94443750e-08,1.90065625e-01
-5.94043750e-08,1.90125000e-01
-5.93643750e-08,1.90079688e-01
-5.93243750e-08,1.90117188e-01
-5.92843750e-08,1.90084375e-01
-5.92443750e-08,1.90115625e-01
-5.92043750e-08,1.90085937e-01
-5.91643750e-08,1.90114063e-01
-5.91243750e-08,1.90087500e-01
-5.90843750e-08,1.90112500e-01
-5.90443750e-08,1.90087500e-01
-5.90043750e-08,1.90112500e-01
-5.89643750e-08,1.90085937e-01
-5.89243750e-08,1.90114063e-01
-5.88843750e-08,1.90085937e-01
-5.88443750e-08,1.90115625e-01
-5.88043750e-08,1.90082813e-01
-5.87643750e-08,1.90118750e-01
-5.87243750e-08,1.90078125e-01
-5.86843750e-08,1.90126563e-01
-5.86443750e-08,1.90064063e-01
-5.86043750e-08,1.90160938e-01
-5.85643750e-08,1.89885938e-01
-5.85243750e-08,1.89651563e-01
-5.84843750e-08,1.89723438e-01
-5.84443750e-08,1.89685938e-01
-5.84043750e-08,1.89709375e-01
-5.83643750e-08,1.89693750e-01
-5.83243750e-08,1.89704687e-01
-5.82843750e-08,1.89698438e-01
-5.82443750e-08,1.89700000e-01
-5.82043750e-08,1.89700000e-01
-5.81643750e-08,1.89698438e-01
-5.81243750e-08,1.89703125e-01
-5.80843750e-08,1.89695313e-01
-5.80443750e-08,1.89707813e-01
-5.80043750e-08,1.89689063e-01
-5.79643750e-08,1.89715625e-01
-5.79243750e-08,1.89675000e-01
-5.78843750e-08,1.89750000e-01
-5.78443750e-08,1.89496875e-01
-5.78043750e-08,1.89240625e-01
-5.77643750e-08,1.89335937e-01
-5.77243750e-08,1.89273438e-01
-5.76843750e-08,1.89321875e-01
-5.76443750e-08,1.89281250e-01
-5.76043750e-08,1.89317188e-01
-5.75643750e-08,1.89282813e-01
-5.75243750e-08,1.89317188e-01
-5.74843750e-08,1.89282813e-01
-5.74443750e-08,1.89318750e-01
-5.74043750e-08,1.89278125e-01
-5.73643750e-08,1.89326563e-01
-5.73243750e-08,1.89265625e-01
-5.72843750e-08,1.89359375e-01
-5.72443750e-08,1.89087500e-01
-5.72043750e-08,1.88850000e-01
-5.71643750e-08,1.88926563e-01
-5.71243750e-08,1.88882812e-01
-5.70843750e-08,1.88912500e-01
-5.70443750e-08,1.88890625e-01
-5.70043750e-08,1.88907812e-01
-5.69643750e-08,1.88893750e-01
-5.69243750e-08,1.88906250e-01
-5.68843750e-08,1.88895312e-01
-5.68443750e-08,1.88904688e-01
-5.68043750e-08,1.88895312e-01
-5.67643750e-08,1.88903125e-01
-5.67243750e-08,1.88896875e-01
-5.66843750e-08,1.88903125e-01
-5.66443750e-08,1.88896875e-01
-5.66043750e-08,1.88903125e-01
-5.65643750e-08,1.88896875e-01
-5.65243750e-08,1.88903125e-01
-5.64843750e-08,1.88896875e-01
-5.64443750e-08,1.88903125e-01
-5.64043750e-08,1.88896875e-01
-5.63643750e-08,1.88903125e-01
-5.63243750e-08,1.88896875e-01
-5.62843750e-08,1.88903125e-01
-5.62443750e-08,1.88896875e-01
-5.62043750e-08,1.88903125e-01
-5.61643750e-08,1.88896875e-01
-5.61243750e-08,1.88903125e-01
-5.60843750e-08,1.88896875e-01
-5.60443750e-08,1.88904688e-01
-5.60043750e-08,1.88895312e-01
-5.59643750e-08,1.88904688e-01
-5.59243750e-08,1.88893750e-01
-5.58843750e-08,1.88907812e-01
-5.58443750e-08,1.88890625e-01
-5.58043750e-08,1.88912500e-01
-5.57643750e-08,1.88882812e-01
-5.57243750e-08,1.88926563e-01
-5.56843750e-08,1.88850000e-01
-5.56443750e-08,1.89103125e-01
-5.56043750e-08,1.89359375e-01
-5.55643750e-08,1.89262500e-01
-5.55243750e-08,1.89328125e-01
-5.54843750e-08,1.89275000e-01
-5.54443750e-08,1.89323437e-01
-5.54043750e-08,1.89275000e-01
-5.53643750e-08,1.89328125e-01
-5.53243750e-08,1.89262500e-01
-5.52843750e-08,1.89360937e-01
-5.52443750e-08,1.89085937e-01
-5.52043750e-08,1.88850000e-01
-5.51643750e-08,1.88926563e-01
-5.51243750e-08,1.88882812e-01
-5.50843750e-08,1.88914063e-01
-5.50443750e-08,1.88889063e-01
-5.50043750e-08,1.88909375e-01
-5.49643750e-08,1.88890625e-01
-5.49243750e-08,1.88909375e-01
-5.48843750e-08,1.88890625e-01
-5.48443750e-08,1.88910938e-01
-5.48043750e-08,1.88885938e-01
-5.47643750e-08,1.88917188e-01
-5.47243750e-08,1.88873438e-01
-5.46843750e-08,1.88950000e-01
-5.46443750e-08,1.88696875e-01
-5.46043750e-08,1.88439063e-01
-5.45643750e-08,1.88537500e-01
-5.45243750e-08,1.88470313e-01
-5.44843750e-08,1.88526562e-01
-5.44443750e-08,1.88473438e-01
-5.44043750e-08,1.88529688e-01
-5.43643750e-08,1.88462500e-01
-5.43243750e-08,1.88560937e-01
-5.42843750e-08,1.88287500e-01
-5.42443750e-08,1.88050000e-01
-5.42043750e-08,1.88128125e-01
-5.41643750e-08,1.88079688e-01
-5.41243750e-08,1.88117188e-01
-5.40843750e-08,1.88082813e-01
-5.40443750e-08,1.88120312e-01
-5.40043750e-08,1.88071875e-01
-5.39643750e-08,1.88151563e-01
-5.39243750e-08,1.87896875e-01
-5.38843750e-08,1.87639063e-01
-5.38443750e-08,1.87737500e-01
-5.38043750e-08,1.87670313e-01
-5.37643750e-08,1.87726562e-01
-5.37243750e-08,1.87675000e-01
-5.36843750e-08,1.87726562e-01
-5.36443750e-08,1.87671875e-01
-5.36043750e-08,1.87732813e-01
-5.35643750e-08,1.87657813e-01
-5.35243750e-08,1.87765625e-01
-5.34843750e-08,1.87481250e-01
-5.34443750e-08,1.87257813e-01
-5.34043750e-08,1.87318750e-01
-5.33643750e-08,1.87290625e-01
-5.33243750e-08,1.87303125e-01
-5.32843750e-08,1.87301563e-01
-5.32443750e-08,1.87295313e-01
-5.32043750e-08,1.87307813e-01
-5.31643750e-08,1.87287500e-01
-5.31243750e-08,1.87318750e-01
-5.30843750e-08,1.87271875e-01
-5.30443750e-08,1.87354688e-01
-5.30043750e-08,1.87092188e-01
-5.29643750e-08,1.86845312e-01
-5.29243750e-08,1.86929687e-01
-5.28843750e-08,1.86879688e-01
-5.28443750e-08,1.86915625e-01
-5.28043750e-08,1.86889063e-01
-5.27643750e-08,1.86909375e-01
-5.27243750e-08,1.86892188e-01
-5.26843750e-08,1.86906250e-01
-5.26443750e-08,1.86895313e-01
-5.26043750e-08,1.86903125e-01
-5.25643750e-08,1.86896875e-01
-5.25243750e-08,1.86901563e-01
-5.24843750e-08,1.86898438e-01
-5.24443750e-08,1.86900000e-01
-5.24043750e-08,1.86900000e-01
-5.23643750e-08,1.86898438e-01
-5.23243750e-08,1.86901563e-01
-5.22843750e-08,1.86896875e-01
-5.22443750e-08,1.86903125e-01
-5.22043750e-08,1.86895313e-01
-5.21643750e-08,1.86906250e-01
-5.21243750e-08,1.86892188e-01
-5.20843750e-08,1.86909375e-01
-5.20443750e-08,1.86887500e-01
-5.20043750e-08,1.86915625e-01
-5.19643750e-08,1.86878125e-01
-5.19243750e-08,1.86931250e-01
-5.18843750e-08,1.86842188e-01
-5.18443750e-08,1.87110938e-01
-5.18043750e-08,1.87350000e-01
-5.17643750e-08,1.87275000e-01
-5.17243750e-08,1.87314063e-01
-5.16843750e-08,1.87293750e-01
-5.16443750e-08,1.87298437e-01
-5.16043750e-08,1.87314063e-01
-5.15643750e-08,1.87260938e-01
-5.15243750e-08,1.87492188e-01
-5.14843750e-08,1.87768750e-01
-5.14443750e-08,1.87653125e-01
-5.14043750e-08,1.87739062e-01
-5.13643750e-08,1.87662500e-01
-5.13243750e-08,1.87743750e-01
-5.12843750e-08,1.87635938e-01
-5.12443750e-08,1.87914063e-01
-5.12043750e-08,1.88150000e-01
-5.11643750e-08,1.88070313e-01
-5.11243750e-08,1.88125000e-01
-5.10843750e-08,1.88073437e-01
-5.10443750e-08,1.88134375e-01
-5.10043750e-08,1.88042188e-01
-5.09643750e-08,1.88310937e-01
-5.09243750e-08,1.88551563e-01
-5.08843750e-08,1.88471875e-01
-5.08443750e-08,1.88517188e-01
-5.08043750e-08,1.88487500e-01
-5.07643750e-08,1.88507813e-01
-5.07243750e-08,1.88498438e-01
-5.06843750e-08,1.88496875e-01
-5.06443750e-08,1.88514062e-01
-5.06043750e-08,1.88460938e-01
-5.05643750e-08,1.88693750e-01
-5.05243750e-08,1.88968750e-01
-5.04843750e-08,1.88854688e-01
-5.04443750e-08,1.88935938e-01
-5.04043750e-08,1.88868750e-01
-5.03643750e-08,1.88928125e-01
-5.03243750e-08,1.88873438e-01
-5.02843750e-08,1.88925000e-01
-5.02443750e-08,1.88875000e-01
-5.02043750e-08,1.88926563e-01
-5.01643750e-08,1.88873438e-01
-5.01243750e-08,1.88929687e-01
-5.00843750e-08,1.88865625e-01
-5.00443750e-08,1.88943750e-01
-5.00043750e-08,1.88832813e-01
-4.99643750e-08,1.89120312e-01
-4.99243750e-08,1.89342188e-01
-4.98843750e-08,1.89281250e-01
-4.98443750e-08,1.89309375e-01
-4.98043750e-08,1.89295313e-01
-4.97643750e-08,1.89301563e-01
-4.97243750e-08,1.89300000e-01
-4.96843750e-08,1.89298437e-01
-4.96443750e-08,1.89303125e-01
-4.96043750e-08,1.89296875e-01
-4.95643750e-08,1.89303125e-01
-4.95243750e-08,1.89295313e-01
-4.94843750e-08,1.89304688e-01
-4.94443750e-08,1.89295313e-01
-4.94043750e-08,1.89306250e-01
-4.93643750e-08,1.89293750e-01
-4.93243750e-08,1.89306250e-01
-4.92843750e-08,1.89293750e-01
-4.92443750e-08,1.89307813e-01
-4.92043750e-08,1.89292188e-01
-4.91643750e-08,1.89307813e-01
-4.91243750e-08,1.89290625e-01
-4.90843750e-08,1.89309375e-01
-4.90443750e-08,1.89289062e-01
-4.90043750e-08,1.89312500e-01
-4.89643750e-08,1.89285938e-01
-4.89243750e-08,1.89315625e-01
-4.88843750e-08,1.89281250e-01
-4.88443750e-08,1.89323437e-01
-4.88043750e-08,1.89267188e-01
-4.87643750e-08,1.89357813e-01
-4.87243750e-08,1.89089063e-01
-4.86843750e-08,1.88850000e-01
-4.86443750e-08,1.88926563e-01
-4.86043750e-08,1.88882812e-01
-4.85643750e-08,1.88912500e-01
-4.85243750e-08,1.88890625e-01
-4.84843750e-08,1.88907812e-01
-4.84443750e-08,1.88893750e-01
-4.84043750e-08,1.88904688e-01
-4.83643750e-08,1.88895312e-01
-4.83243750e-08,1.88903125e-01
-4.82843750e-08,1.88896875e-01
-4.82443750e-08,1.88901563e-01
-4.82043750e-08,1.88898438e-01
-4.81643750e-08,1.88901563e-01
-4.81243750e-08,1.88898438e-01
-4.80843750e-08,1.88901563e-01
-4.80443750e-08,1.88900000e-01
-4.80043750e-08,1.88900000e-01
-4.79643750e-08,1.88900000e-01
-4.79243750e-08,1.88900000e-01
-4.78843750e-08,1.88900000e-01
-4.78443750e-08,1.88900000e-01
-4.78043750e-08,1.88900000e-01
-4.77643750e-08,1.88900000e-01
-4.77243750e-08,1.88900000e-01
-4.76843750e-08,1.88900000e-01
-4.76443750e-08,1.88900000e-01
-4.76043750e-08,1.88900000e-01
-4.75643750e-08,1.88900000e-01
-4.75243750e-08,1.88898438e-01
-4.74843750e-08,1.88901563e-01
-4.74443750e-08,1.88898438e-01
-4.74043750e-08,1.88901563e-01
-4.73643750e-08,1.88898438e-01
-4.73243750e-08,1.88901563e-01
-4.72843750e-08,1.88898438e-01
-4.72443750e-08,1.88901563e-01
-4.72043750e-08,1.88898438e-01
-4.71643750e-08,1.88901563e-01
-4.71243750e-08,1.88898438e-01
-4.70843750e-08,1.88901563e-01
-4.70443750e-08,1.88898438e-01
-4.70043750e-08,1.88901563e-01
-4.69643750e-08,1.88898438e-01
-4.69243750e-08,1.88901563e-01
-4.68843750e-08,1.88898438e-01
-4.68443750e-08,1.88901563e-01
-4.68043750e-08,1.88898438e-01
-4.67643750e-08,1.88901563e-01
-4.67243750e-08,1.88898438e-01
-4.66843750e-08,1.88901563e-01
-4.66443750e-08,1.88898438e-01
-4.66043750e-08,1.88901563e-01
-4.65643750e-08,1.88898438e-01
-4.65243750e-08,1.88901563e-01
-4.64843750e-08,1.88898438e-01
-4.64443750e-08,1.88901563e-01
-4.64043750e-08,1.88898438e-01
-4.63643750e-08,1.88901563e-01
-4.63243750e-08,1.88898438e-01
-4.62843750e-08,1.88901563e-01
-4.62443750e-08,1.88898438e-01
-4.62043750e-08,1.88901563e-01
-4.61643750e-08,1.88898438e-01
-4.61243750e-08,1.88903125e-01
-4.60843750e-08,1.88896875e-01
-4.60443750e-08,1.88903125e-01
-4.60043750e-08,1.88896875e-01
-4.59643750e-08,1.88903125e-01
-4.59243750e-08,1.88896875e-01
-4.58843750e-08,1.88903125e-01
-4.58443750e-08,1.88896875e-01
-4.58043750e-08,1.88903125e-01
-4.57643750e-08,1.88896875e-01
-4.57243750e-08,1.88903125e-01
-4.56843750e-08,1.88896875e-01
-4.56443750e-08,1.88903125e-01
-4.56043750e-08,1.88896875e-01
-4.55643750e-08,1.88903125e-01
-4.55243750e-08,1.88896875e-01
-4.54843750e-08,1.88903125e-01
-4.54443750e-08,1.88896875e-01
-4.54043750e-08,1.88903125e-01
-4.53643750e-08,1.88896875e-01
-4.53243750e-08,1.88903125e-01
-4.52843750e-08,1.88896875e-01
-4.52443750e-08,1.88903125e-01
-4.52043750e-08,1.88896875e-01
-4.51643750e-08,1.88904688e-01
-4.51243750e-08,1.88895312e-01
-4.50843750e-08,1.88904688e-01
-4.50443750e-08,1.88895312e-01
-4.50043750e-08,1.88904688e-01
-4.49643750e-08,1.88895312e-01
-4.49243750e-08,1.88904688e-01
-4.48843750e-08,1.88895312e-01
-4.48443750e-08,1.88906250e-01
-4.48043750e-08,1.88893750e-01
-4.47643750e-08,1.88906250e-01
-4.47243750e-08,1.88893750e-01
-4.46843750e-08,1.88906250e-01
-4.46443750e-08,1.88892188e-01
-4.46043750e-08,1.88907812e-01
-4.45643750e-08,1.88890625e-01
-4.45243750e-08,1.88909375e-01
-4.44843750e-08,1.88889063e-01
-4.44443750e-08,1.88912500e-01
-4.44043750e-08,1.88885938e-01
-4.43643750e-08,1.88917188e-01
-4.43243750e-08,1.88876563e-01
-4.42843750e-08,1.88932813e-01
-4.42443750e-08,1.88842188e-01
-4.42043750e-08,1.89110938e-01
-4.41643750e-08,1.89351563e-01
-4.41243750e-08,1.89271875e-01
-4.40843750e-08,1.89318750e-01
-4.40443750e-08,1.89287500e-01
-4.40043750e-08,1.89309375e-01
-4.39643750e-08,1.89292188e-01
-4.39243750e-08,1.89306250e-01
-4.38843750e-08,1.89295313e-01
-4.38443750e-08,1.89303125e-01
-4.38043750e-08,1.89296875e-01
-4.37643750e-08,1.89301563e-01
-4.37243750e-08,1.89298437e-01
-4.36843750e-08,1.89301563e-01
-4.36443750e-08,1.89300000e-01
-4.36043750e-08,1.89300000e-01
-4.35643750e-08,1.89300000e-01
-4.35243750e-08,1.89298437e-01
-4.34843750e-08,1.89301563e-01
-4.34443750e-08,1.89296875e-01
-4.34043750e-08,1.89303125e-01
-4.33643750e-08,1.89295313e-01
-4.33243750e-08,1.89304688e-01
-4.32843750e-08,1.89293750e-01
-4.32443750e-08,1.89307813e-01
-4.32043750e-08,1.89289062e-01
-4.31643750e-08,1.89314063e-01
-4.31243750e-08,1.89281250e-01
-4.30843750e-08,1.89328125e-01
-4.30443750e-08,1.89246875e-01
-4.30043750e-08,1.89506250e-01
-4.29643750e-08,1.89756250e-01
-4.29243750e-08,1.89668750e-01
-4.28843750e-08,1.89721875e-01
-4.28443750e-08,1.89682813e-01
-4.28043750e-08,1.89714063e-01
-4.27643750e-08,1.89687500e-01
-4.27243750e-08,1.89710938e-01
-4.26843750e-08,1.89690625e-01
-4.26443750e-08,1.89707813e-01
-4.26043750e-08,1.89692187e-01
-4.25643750e-08,1.89707813e-01
-4.25243750e-08,1.89693750e-01
-4.24843750e-08,1.89706250e-01
-4.24443750e-08,1.89693750e-01
-4.24043750e-08,1.89706250e-01
-4.23643750e-08,1.89695313e-01
-4.23243750e-08,1.89704687e-01
-4.22843750e-08,1.89695313e-01
-4.22443750e-08,1.89704687e-01
-4.22043750e-08,1.89695313e-01
-4.21643750e-08,1.89704687e-01
-4.21243750e-08,1.89696875e-01
-4.20843750e-08,1.89703125e-01
-4.20443750e-08,1.89696875e-01
-4.20043750e-08,1.89703125e-01
-4.19643750e-08,1.89696875e-01
-4.19243750e-08,1.89703125e-01
-4.18843750e-08,1.89696875e-01
-4.18443750e-08,1.89703125e-01
-4.18043750e-08,1.89696875e-01
-4.17643750e-08,1.89703125e-01
-4.17243750e-08,1.89698438e-01
-4.16843750e-08,1.89701563e-01
-4.16443750e-08,1.89698438e-01
-4.16043750e-08,1.89701563e-01
-4.15643750e-08,1.89698438e-01
-4.15243750e-08,1.89701563e-01
-4.14843750e-08,1.89698438e-01
-4.14443750e-08,1.89701563e-01
-4.14043750e-08,1.89698438e-01
-4.13643750e-08,1.89700000e-01
-4.13243750e-08,1.89700000e-01
-4.12843750e-08,1.89700000e-01
-4.12443750e-08,1.89700000e-01
-4.12043750e-08,1.89698438e-01
-4.11643750e-08,1.89701563e-01
-4.11243750e-08,1.89696875e-01
-4.10843750e-08,1.89703125e-01
-4.10443750e-08,1.89695313e-01
-4.10043750e-08,1.89706250e-01
-4.09643750e-08,1.89690625e-01
-4.09243750e-08,1.89714063e-01
-4.08843750e-08,1.89675000e-01
-4.08443750e-08,1.89748438e-01
-4.08043750e-08,1.89498438e-01
-4.07643750e-08,1.89239062e-01
-4.07243750e-08,1.89337500e-01
-4.06843750e-08,1.89271875e-01
-4.06443750e-08,1.89323437e-01
-4.06043750e-08,1.89279688e-01
-4.05643750e-08,1.89318750e-01
-4.05243750e-08,1.89282813e-01
-4.04843750e-08,1.89317188e-01
-4.04443750e-08,1.89282813e-01
-4.04043750e-08,1.89317188e-01
-4.03643750e-08,1.89282813e-01
-4.03243750e-08,1.89318750e-01
-4.02843750e-08,1.89281250e-01
-4.02443750e-08,1.89320313e-01
-4.02043750e-08,1.89276562e-01
-4.01643750e-08,1.89328125e-01
-4.01243750e-08,1.89260938e-01
-4.00843750e-08,1.89364063e-01
-4.00443750e-08,1.89084375e-01
-4.00043750e-08,1.88854688e-01
-3.99643750e-08,1.88921875e-01
-3.99243750e-08,1.88887500e-01
-3.98843750e-08,1.88907812e-01
-3.98443750e-08,1.88896875e-01
-3.98043750e-08,1.88901563e-01
-3.97643750e-08,1.88900000e-01
-3.97243750e-08,1.88896875e-01
-3.96843750e-08,1.88904688e-01
-3.96443750e-08,1.88893750e-01
-3.96043750e-08,1.88909375e-01
-3.95643750e-08,1.88887500e-01
-3.95243750e-08,1.88917188e-01
-3.94843750e-08,1.88871875e-01
-3.94443750e-08,1.88953125e-01
-3.94043750e-08,1.88693750e-01
-3.93643750e-08,1.88443750e-01
-3.93243750e-08,1.88532813e-01
-3.92843750e-08,1.88476562e-01
-3.92443750e-08,1.88518750e-01
-3.92043750e-08,1.88484375e-01
-3.91643750e-08,1.88514062e-01
-3.91243750e-08,1.88487500e-01
-3.90843750e-08,1.88510938e-01
-3.90443750e-08,1.88489062e-01
-3.90043750e-08,1.88510938e-01
-3.89643750e-08,1.88489062e-01
-3.89243750e-08,1.88510938e-01
-3.88843750e-08,1.88489062e-01
-3.88443750e-08,1.88510938e-01
-3.88043750e-08,1.88487500e-01
-3.87643750e-08,1.88514062e-01
-3.87243750e-08,1.88482813e-01
-3.86843750e-08,1.88521875e-01
-3.86443750e-08,1.88468750e-01
-3.86043750e-08,1.88556250e-01
-3.85643750e-08,1.88290625e-01
-3.85243750e-08,1.88046875e-01
