trails/0bbf0cf1bfcc3246d9e376b62f80622a/aes_ch1_20250507112931798.csv

Model,MSO66B
Label,
Waveform Type,ANALOG
Horizontal Units,s
Sample Interval,4.00000000e-11
Record Length,10000
Zero Index,1599.17968750
Vertical Units,A
ANALOG_Thumbnail,
yOffset,1.84500000e-01
yPosition,8.40000000e-01

Labels,
TIME,CH1
-6.39671875e-08,1.84903125e-01
-6.39271875e-08,1.84900000e-01
-6.38871875e-08,1.84898438e-01
-6.38471875e-08,1.84904687e-01
-6.38071875e-08,1.84893750e-01
-6.37671875e-08,1.84909375e-01
-6.37271875e-08,1.84889063e-01
-6.36871875e-08,1.84915625e-01
-6.36471875e-08,1.84878125e-01
-6.36071875e-08,1.84931250e-01
-6.35671875e-08,1.84842188e-01
-6.35271875e-08,1.85110938e-01
-6.34871875e-08,1.85350000e-01
-6.34471875e-08,1.85275000e-01
-6.34071875e-08,1.85314063e-01
-6.33671875e-08,1.85292188e-01
-6.33271875e-08,1.85303125e-01
-6.32871875e-08,1.85300000e-01
-6.32471875e-08,1.85295313e-01
-6.32071875e-08,1.85309375e-01
-6.31671875e-08,1.85284375e-01
-6.31271875e-08,1.85326563e-01
-6.30871875e-08,1.85248438e-01
-6.30471875e-08,1.85506250e-01
-6.30071875e-08,1.85754688e-01
-6.29671875e-08,1.85670313e-01
-6.29271875e-08,1.85720313e-01
-6.28871875e-08,1.85687500e-01
-6.28471875e-08,1.85707813e-01
-6.28071875e-08,1.85695313e-01
-6.27671875e-08,1.85700000e-01
-6.27271875e-08,1.85704688e-01
-6.26871875e-08,1.85689063e-01
-6.26471875e-08,1.85721875e-01
-6.26071875e-08,1.85653125e-01
-6.25671875e-08,1.85901563e-01
-6.25271875e-08,1.86159375e-01
-6.24871875e-08,1.86064063e-01
-6.24471875e-08,1.86125000e-01
-6.24071875e-08,1.86081250e-01
-6.23671875e-08,1.86114063e-01
-6.23271875e-08,1.86090625e-01
-6.22871875e-08,1.86104688e-01
-6.22471875e-08,1.86101563e-01
-6.22071875e-08,1.86089063e-01
-6.21671875e-08,1.86137500e-01
-6.21271875e-08,1.85909375e-01
-6.20871875e-08,1.85628125e-01
-6.20471875e-08,1.85750000e-01
-6.20071875e-08,1.85659375e-01
-6.19671875e-08,1.85737500e-01
-6.19271875e-08,1.85662500e-01
-6.18871875e-08,1.85740625e-01
-6.18471875e-08,1.85651563e-01
-6.18071875e-08,1.85771875e-01
-6.17671875e-08,1.85475000e-01
-6.17271875e-08,1.85262500e-01
-6.16871875e-08,1.85312500e-01
-6.16471875e-08,1.85300000e-01
-6.16071875e-08,1.85287500e-01
-6.15671875e-08,1.85337500e-01
-6.15271875e-08,1.85109375e-01
-6.14871875e-08,1.84825000e-01
-6.14471875e-08,1.84956250e-01
-6.14071875e-08,1.84843750e-01
-6.13671875e-08,1.84978125e-01
-6.13271875e-08,1.84670313e-01
-6.12871875e-08,1.84467188e-01
-6.12471875e-08,1.84506250e-01
-6.12071875e-08,1.84507813e-01
-6.11671875e-08,1.84478125e-01
-6.11271875e-08,1.84550000e-01
-6.10871875e-08,1.84293750e-01
-6.10471875e-08,1.84046875e-01
-6.10071875e-08,1.84125000e-01
-6.09671875e-08,1.84089063e-01
-6.09271875e-08,1.84095312e-01
-6.08871875e-08,1.84132813e-01
-6.08471875e-08,1.83912500e-01
-6.08071875e-08,1.83626563e-01
-6.07671875e-08,1.83748438e-01
-6.07271875e-08,1.83662500e-01
-6.06871875e-08,1.83732813e-01
-6.06471875e-08,1.83671875e-01
-6.06071875e-08,1.83726562e-01
-6.05671875e-08,1.83675000e-01
-6.05271875e-08,1.83723438e-01
-6.04871875e-08,1.83678125e-01
-6.04471875e-08,1.83721875e-01
-6.04071875e-08,1.83678125e-01
-6.03671875e-08,1.83720313e-01
-6.03271875e-08,1.83679687e-01
-6.02871875e-08,1.83720313e-01
-6.02471875e-08,1.83679687e-01
-6.02071875e-08,1.83720313e-01
-6.01671875e-08,1.83678125e-01
-6.01271875e-08,1.83721875e-01
-6.00871875e-08,1.83676563e-01
-6.00471875e-08,1.83725000e-01
-6.00071875e-08,1.83673438e-01
-5.99671875e-08,1.83729688e-01
-5.99271875e-08,1.83665625e-01
-5.98871875e-08,1.83745313e-01
-5.98471875e-08,1.83629687e-01
-5.98071875e-08,1.83923438e-01
-5.97671875e-08,1.84137500e-01
-5.97271875e-08,1.84085938e-01
-5.96871875e-08,1.84103125e-01
-5.96471875e-08,1.84103125e-01
-5.96071875e-08,1.84092188e-01
-5.95671875e-08,1.84112500e-01
-5.95271875e-08,1.84081250e-01
-5.94871875e-08,1.84129687e-01
-5.94471875e-08,1.84043750e-01
-5.94071875e-08,1.84309375e-01
-5.93671875e-08,1.84551563e-01
-5.93271875e-08,1.84471875e-01
-5.92871875e-08,1.84518750e-01
-5.92471875e-08,1.84487500e-01
-5.92071875e-08,1.84509375e-01
-5.91671875e-08,1.84492188e-01
-5.91271875e-08,1.84506250e-01
-5.90871875e-08,1.84495313e-01
-5.90471875e-08,1.84503125e-01
-5.90071875e-08,1.84496875e-01
-5.89671875e-08,1.84503125e-01
-5.89271875e-08,1.84498438e-01
-5.88871875e-08,1.84501562e-01
-5.88471875e-08,1.84498438e-01
-5.88071875e-08,1.84500000e-01
-5.87671875e-08,1.84500000e-01
-5.87271875e-08,1.84500000e-01
-5.86871875e-08,1.84500000e-01
-5.86471875e-08,1.84500000e-01
-5.86071875e-08,1.84500000e-01
-5.85671875e-08,1.84498438e-01
-5.85271875e-08,1.84501562e-01
-5.84871875e-08,1.84498438e-01
-5.84471875e-08,1.84501562e-01
-5.84071875e-08,1.84498438e-01
-5.83671875e-08,1.84501562e-01
-5.83271875e-08,1.84498438e-01
-5.82871875e-08,1.84501562e-01
-5.82471875e-08,1.84498438e-01
-5.82071875e-08,1.84501562e-01
-5.81671875e-08,1.84498438e-01
-5.81271875e-08,1.84501562e-01
-5.80871875e-08,1.84498438e-01
-5.80471875e-08,1.84501562e-01
-5.80071875e-08,1.84496875e-01
-5.79671875e-08,1.84503125e-01
-5.79271875e-08,1.84496875e-01
-5.78871875e-08,1.84503125e-01
-5.78471875e-08,1.84496875e-01
-5.78071875e-08,1.84503125e-01
-5.77671875e-08,1.84496875e-01
-5.77271875e-08,1.84503125e-01
-5.76871875e-08,1.84496875e-01
-5.76471875e-08,1.84503125e-01
-5.76071875e-08,1.84496875e-01
-5.75671875e-08,1.84503125e-01
-5.75271875e-08,1.84496875e-01
-5.74871875e-08,1.84503125e-01
-5.74471875e-08,1.84496875e-01
-5.74071875e-08,1.84503125e-01
-5.73671875e-08,1.84496875e-01
-5.73271875e-08,1.84503125e-01
-5.72871875e-08,1.84496875e-01
-5.72471875e-08,1.84503125e-01
-5.72071875e-08,1.84496875e-01
-5.71671875e-08,1.84503125e-01
-5.71271875e-08,1.84496875e-01
-5.70871875e-08,1.84503125e-01
-5.70471875e-08,1.84496875e-01
-5.70071875e-08,1.84503125e-01
-5.69671875e-08,1.84496875e-01
-5.69271875e-08,1.84504688e-01
-5.68871875e-08,1.84495313e-01
-5.68471875e-08,1.84504688e-01
-5.68071875e-08,1.84495313e-01
-5.67671875e-08,1.84504688e-01
-5.67271875e-08,1.84495313e-01
-5.66871875e-08,1.84504688e-01
-5.66471875e-08,1.84495313e-01
-5.66071875e-08,1.84504688e-01
-5.65671875e-08,1.84495313e-01
-5.65271875e-08,1.84504688e-01
-5.64871875e-08,1.84495313e-01
-5.64471875e-08,1.84504688e-01
-5.64071875e-08,1.84495313e-01
-5.63671875e-08,1.84504688e-01
-5.63271875e-08,1.84493750e-01
-5.62871875e-08,1.84506250e-01
-5.62471875e-08,1.84493750e-01
-5.62071875e-08,1.84506250e-01
-5.61671875e-08,1.84493750e-01
-5.61271875e-08,1.84506250e-01
-5.60871875e-08,1.84493750e-01
-5.60471875e-08,1.84507813e-01
-5.60071875e-08,1.84492188e-01
-5.59671875e-08,1.84507813e-01
-5.59271875e-08,1.84492188e-01
-5.58871875e-08,1.84509375e-01
-5.58471875e-08,1.84490625e-01
-5.58071875e-08,1.84509375e-01
-5.57671875e-08,1.84489062e-01
-5.57271875e-08,1.84512500e-01
-5.56871875e-08,1.84487500e-01
-5.56471875e-08,1.84514063e-01
-5.56071875e-08,1.84482813e-01
-5.55671875e-08,1.84520313e-01
-5.55271875e-08,1.84475000e-01
-5.54871875e-08,1.84535937e-01
-5.54471875e-08,1.84439063e-01
-5.54071875e-08,1.84714062e-01
-5.53671875e-08,1.84948438e-01
-5.53271875e-08,1.84876563e-01
-5.52871875e-08,1.84914063e-01
-5.52471875e-08,1.84892187e-01
-5.52071875e-08,1.84903125e-01
-5.51671875e-08,1.84900000e-01
-5.51271875e-08,1.84896875e-01
-5.50871875e-08,1.84907813e-01
-5.50471875e-08,1.84887500e-01
-5.50071875e-08,1.84923438e-01
-5.49671875e-08,1.84851563e-01
-5.49271875e-08,1.85101563e-01
-5.48871875e-08,1.85360938e-01
-5.48471875e-08,1.85262500e-01
-5.48071875e-08,1.85328125e-01
-5.47671875e-08,1.85275000e-01
-5.47271875e-08,1.85321875e-01
-5.46871875e-08,1.85278125e-01
-5.46471875e-08,1.85323438e-01
-5.46071875e-08,1.85273437e-01
-5.45671875e-08,1.85335938e-01
-5.45271875e-08,1.85240625e-01
-5.44871875e-08,1.85512500e-01
-5.44471875e-08,1.85751562e-01
-5.44071875e-08,1.85671875e-01
-5.43671875e-08,1.85718750e-01
-5.43271875e-08,1.85684375e-01
-5.42871875e-08,1.85712500e-01
-5.42471875e-08,1.85689063e-01
-5.42071875e-08,1.85709375e-01
-5.41671875e-08,1.85690625e-01
-5.41271875e-08,1.85709375e-01
-5.40871875e-08,1.85690625e-01
-5.40471875e-08,1.85709375e-01
-5.40071875e-08,1.85689063e-01
-5.39671875e-08,1.85710938e-01
-5.39271875e-08,1.85687500e-01
-5.38871875e-08,1.85712500e-01
-5.38471875e-08,1.85684375e-01
-5.38071875e-08,1.85718750e-01
-5.37671875e-08,1.85676563e-01
-5.37271875e-08,1.85732813e-01
-5.36871875e-08,1.85642187e-01
-5.36471875e-08,1.85910938e-01
-5.36071875e-08,1.86151563e-01
-5.35671875e-08,1.86073437e-01
-5.35271875e-08,1.86117188e-01
-5.34871875e-08,1.86087500e-01
-5.34471875e-08,1.86109375e-01
-5.34071875e-08,1.86092188e-01
-5.33671875e-08,1.86106250e-01
-5.33271875e-08,1.86095312e-01
-5.32871875e-08,1.86103125e-01
-5.32471875e-08,1.86096875e-01
-5.32071875e-08,1.86101563e-01
-5.31671875e-08,1.86098438e-01
-5.31271875e-08,1.86100000e-01
-5.30871875e-08,1.86100000e-01
-5.30471875e-08,1.86098438e-01
-5.30071875e-08,1.86101563e-01
-5.29671875e-08,1.86096875e-01
-5.29271875e-08,1.86104688e-01
-5.28871875e-08,1.86093750e-01
-5.28471875e-08,1.86107812e-01
-5.28071875e-08,1.86090625e-01
-5.27671875e-08,1.86112500e-01
-5.27271875e-08,1.86081250e-01
-5.26871875e-08,1.86128125e-01
-5.26471875e-08,1.86046875e-01
-5.26071875e-08,1.86306250e-01
-5.25671875e-08,1.86556250e-01
-5.25271875e-08,1.86467188e-01
-5.24871875e-08,1.86523438e-01
-5.24471875e-08,1.86482813e-01
-5.24071875e-08,1.86514062e-01
-5.23671875e-08,1.86487500e-01
-5.23271875e-08,1.86510938e-01
-5.22871875e-08,1.86490625e-01
-5.22471875e-08,1.86509375e-01
-5.22071875e-08,1.86492188e-01
-5.21671875e-08,1.86507813e-01
-5.21271875e-08,1.86493750e-01
-5.20871875e-08,1.86506250e-01
-5.20471875e-08,1.86493750e-01
-5.20071875e-08,1.86504688e-01
-5.19671875e-08,1.86495313e-01
-5.19271875e-08,1.86504688e-01
-5.18871875e-08,1.86495313e-01
-5.18471875e-08,1.86503125e-01
-5.18071875e-08,1.86496875e-01
-5.17671875e-08,1.86503125e-01
-5.17271875e-08,1.86496875e-01
-5.16871875e-08,1.86501562e-01
-5.16471875e-08,1.86498438e-01
-5.16071875e-08,1.86501562e-01
-5.15671875e-08,1.86500000e-01
-5.15271875e-08,1.86500000e-01
-5.14871875e-08,1.86501562e-01
-5.14471875e-08,1.86496875e-01
-5.14071875e-08,1.86504688e-01
-5.13671875e-08,1.86492188e-01
-5.13271875e-08,1.86512500e-01
-5.12871875e-08,1.86478125e-01
-5.12471875e-08,1.86546875e-01
-5.12071875e-08,1.86300000e-01
-5.11671875e-08,1.86037500e-01
-5.11271875e-08,1.86139063e-01
-5.10871875e-08,1.86070313e-01
-5.10471875e-08,1.86125000e-01
-5.10071875e-08,1.86076563e-01
-5.09671875e-08,1.86120312e-01
-5.09271875e-08,1.86079688e-01
-5.08871875e-08,1.86120312e-01
-5.08471875e-08,1.86079688e-01
-5.08071875e-08,1.86120312e-01
-5.07671875e-08,1.86078125e-01
-5.07271875e-08,1.86123438e-01
-5.06871875e-08,1.86073437e-01
-5.06471875e-08,1.86131250e-01
-5.06071875e-08,1.86059375e-01
-5.05671875e-08,1.86165625e-01
-5.05271875e-08,1.85881250e-01
-5.04871875e-08,1.85656250e-01
-5.04471875e-08,1.85720313e-01
-5.04071875e-08,1.85690625e-01
-5.03671875e-08,1.85704688e-01
-5.03271875e-08,1.85698438e-01
-5.02871875e-08,1.85698438e-01
-5.02471875e-08,1.85703125e-01
-5.02071875e-08,1.85695313e-01
-5.01671875e-08,1.85707813e-01
-5.01271875e-08,1.85690625e-01
-5.00871875e-08,1.85712500e-01
-5.00471875e-08,1.85684375e-01
-5.00071875e-08,1.85721875e-01
-4.99671875e-08,1.85668750e-01
-4.99271875e-08,1.85756250e-01
-4.98871875e-08,1.85489062e-01
-4.98471875e-08,1.85248438e-01
-4.98071875e-08,1.85326563e-01
-4.97671875e-08,1.85282813e-01
-4.97271875e-08,1.85312500e-01
-4.96871875e-08,1.85292188e-01
-4.96471875e-08,1.85306250e-01
-4.96071875e-08,1.85296875e-01
-4.95671875e-08,1.85301563e-01
-4.95271875e-08,1.85301563e-01
-4.94871875e-08,1.85296875e-01
-4.94471875e-08,1.85306250e-01
-4.94071875e-08,1.85290625e-01
-4.93671875e-08,1.85315625e-01
-4.93271875e-08,1.85275000e-01
-4.92871875e-08,1.85350000e-01
-4.92471875e-08,1.85095312e-01
-4.92071875e-08,1.84842188e-01
-4.91671875e-08,1.84934375e-01
-4.91271875e-08,1.84876563e-01
-4.90871875e-08,1.84918750e-01
-4.90471875e-08,1.84884375e-01
-4.90071875e-08,1.84912500e-01
-4.89671875e-08,1.84889063e-01
-4.89271875e-08,1.84909375e-01
-4.88871875e-08,1.84892187e-01
-4.88471875e-08,1.84906250e-01
-4.88071875e-08,1.84895313e-01
-4.87671875e-08,1.84901563e-01
-4.87271875e-08,1.84900000e-01
-4.86871875e-08,1.84896875e-01
-4.86471875e-08,1.84909375e-01
-4.86071875e-08,1.84881250e-01
-4.85671875e-08,1.84943750e-01
-4.85271875e-08,1.84703125e-01
-4.84871875e-08,1.84434375e-01
-4.84471875e-08,1.84542188e-01
-4.84071875e-08,1.84467188e-01
-4.83671875e-08,1.84528125e-01
-4.83271875e-08,1.84475000e-01
-4.82871875e-08,1.84523437e-01
-4.82471875e-08,1.84478125e-01
-4.82071875e-08,1.84521875e-01
-4.81671875e-08,1.84478125e-01
-4.81271875e-08,1.84521875e-01
-4.80871875e-08,1.84478125e-01
-4.80471875e-08,1.84523437e-01
-4.80071875e-08,1.84476562e-01
-4.79671875e-08,1.84526563e-01
-4.79271875e-08,1.84471875e-01
-4.78871875e-08,1.84534375e-01
-4.78471875e-08,1.84456250e-01
-4.78071875e-08,1.84568750e-01
-4.77671875e-08,1.84278125e-01
-4.77271875e-08,1.84059375e-01
-4.76871875e-08,1.84115625e-01
-4.76471875e-08,1.84093750e-01
-4.76071875e-08,1.84101563e-01
-4.75671875e-08,1.84103125e-01
-4.75271875e-08,1.84093750e-01
-4.74871875e-08,1.84107812e-01
-4.74471875e-08,1.84089063e-01
-4.74071875e-08,1.84114063e-01
-4.73671875e-08,1.84082812e-01
-4.73271875e-08,1.84123438e-01
-4.72871875e-08,1.84065625e-01
-4.72471875e-08,1.84159375e-01
-4.72071875e-08,1.83887500e-01
-4.71671875e-08,1.83651563e-01
-4.71271875e-08,1.83725000e-01
-4.70871875e-08,1.83685938e-01
-4.70471875e-08,1.83709375e-01
-4.70071875e-08,1.83695313e-01
-4.69671875e-08,1.83701562e-01
-4.69271875e-08,1.83701562e-01
-4.68871875e-08,1.83696875e-01
-4.68471875e-08,1.83706250e-01
-4.68071875e-08,1.83689062e-01
-4.67671875e-08,1.83715625e-01
-4.67271875e-08,1.83673438e-01
-4.66871875e-08,1.83751563e-01
-4.66471875e-08,1.83495313e-01
-4.66071875e-08,1.83243750e-01
-4.65671875e-08,1.83332812e-01
-4.65271875e-08,1.83276563e-01
-4.64871875e-08,1.83317188e-01
-4.64471875e-08,1.83285937e-01
-4.64071875e-08,1.83312500e-01
-4.63671875e-08,1.83289063e-01
-4.63271875e-08,1.83309375e-01
-4.62871875e-08,1.83292188e-01
-4.62471875e-08,1.83307813e-01
-4.62071875e-08,1.83293750e-01
-4.61671875e-08,1.83306250e-01
-4.61271875e-08,1.83293750e-01
-4.60871875e-08,1.83304688e-01
-4.60471875e-08,1.83295313e-01
-4.60071875e-08,1.83304688e-01
-4.59671875e-08,1.83295313e-01
-4.59271875e-08,1.83303125e-01
-4.58871875e-08,1.83296875e-01
-4.58471875e-08,1.83303125e-01
-4.58071875e-08,1.83296875e-01
-4.57671875e-08,1.83303125e-01
-4.57271875e-08,1.83296875e-01
-4.56871875e-08,1.83303125e-01
-4.56471875e-08,1.83298437e-01
-4.56071875e-08,1.83301563e-01
-4.55671875e-08,1.83298437e-01
-4.55271875e-08,1.83301563e-01
-4.54871875e-08,1.83298437e-01
-4.54471875e-08,1.83301563e-01
-4.54071875e-08,1.83298437e-01
-4.53671875e-08,1.83301563e-01
-4.53271875e-08,1.83298437e-01
-4.52871875e-08,1.83301563e-01
-4.52471875e-08,1.83298437e-01
-4.52071875e-08,1.83300000e-01
-4.51671875e-08,1.83300000e-01
-4.51271875e-08,1.83300000e-01
-4.50871875e-08,1.83300000e-01
-4.50471875e-08,1.83300000e-01
-4.50071875e-08,1.83300000e-01
-4.49671875e-08,1.83300000e-01
-4.49271875e-08,1.83300000e-01
-4.48871875e-08,1.83300000e-01
-4.48471875e-08,1.83300000e-01
-4.48071875e-08,1.83300000e-01
-4.47671875e-08,1.83300000e-01
-4.47271875e-08,1.83300000e-01
-4.46871875e-08,1.83301563e-01
-4.46471875e-08,1.83298437e-01
-4.46071875e-08,1.83301563e-01
-4.45671875e-08,1.83298437e-01
-4.45271875e-08,1.83301563e-01
-4.44871875e-08,1.83298437e-01
-4.44471875e-08,1.83301563e-01
-4.44071875e-08,1.83296875e-01
-4.43671875e-08,1.83303125e-01
-4.43271875e-08,1.83296875e-01
-4.42871875e-08,1.83303125e-01
-4.42471875e-08,1.83295313e-01
-4.42071875e-08,1.83304688e-01
-4.41671875e-08,1.83293750e-01
-4.41271875e-08,1.83307813e-01
-4.40871875e-08,1.83290625e-01
-4.40471875e-08,1.83312500e-01
-4.40071875e-08,1.83282813e-01
-4.39671875e-08,1.83326563e-01
-4.39271875e-08,1.83248437e-01
-4.38871875e-08,1.83504688e-01
-4.38471875e-08,1.83757813e-01
-4.38071875e-08,1.83665625e-01
-4.37671875e-08,1.83725000e-01
-4.37271875e-08,1.83679687e-01
-4.36871875e-08,1.83718750e-01
-4.36471875e-08,1.83682813e-01
-4.36071875e-08,1.83715625e-01
-4.35671875e-08,1.83684375e-01
-4.35271875e-08,1.83717188e-01
-4.34871875e-08,1.83681250e-01
-4.34471875e-08,1.83720313e-01
-4.34071875e-08,1.83675000e-01
-4.33671875e-08,1.83734375e-01
-4.33271875e-08,1.83640625e-01
-4.32871875e-08,1.83910938e-01
-4.32471875e-08,1.84151563e-01
-4.32071875e-08,1.84071875e-01
-4.31671875e-08,1.84118750e-01
-4.31271875e-08,1.84085938e-01
-4.30871875e-08,1.84110938e-01
-4.30471875e-08,1.84090625e-01
-4.30071875e-08,1.84107812e-01
-4.29671875e-08,1.84093750e-01
-4.29271875e-08,1.84106250e-01
-4.28871875e-08,1.84093750e-01
-4.28471875e-08,1.84104688e-01
-4.28071875e-08,1.84095312e-01
-4.27671875e-08,1.84104688e-01
-4.27271875e-08,1.84095312e-01
-4.26871875e-08,1.84104688e-01
-4.26471875e-08,1.84095312e-01
-4.26071875e-08,1.84104688e-01
-4.25671875e-08,1.84095312e-01
-4.25271875e-08,1.84104688e-01
-4.24871875e-08,1.84095312e-01
-4.24471875e-08,1.84104688e-01
-4.24071875e-08,1.84095312e-01
-4.23671875e-08,1.84104688e-01
-4.23271875e-08,1.84095312e-01
-4.22871875e-08,1.84104688e-01
-4.22471875e-08,1.84095312e-01
-4.22071875e-08,1.84104688e-01
-4.21671875e-08,1.84095312e-01
-4.21271875e-08,1.84104688e-01
-4.20871875e-08,1.84095312e-01
-4.20471875e-08,1.84106250e-01
-4.20071875e-08,1.84093750e-01
-4.19671875e-08,1.84106250e-01
-4.19271875e-08,1.84093750e-01
-4.18871875e-08,1.84106250e-01
-4.18471875e-08,1.84092188e-01
-4.18071875e-08,1.84107812e-01
-4.17671875e-08,1.84090625e-01
-4.17271875e-08,1.84109375e-01
-4.16871875e-08,1.84089063e-01
-4.16471875e-08,1.84112500e-01
-4.16071875e-08,1.84085938e-01
-4.15671875e-08,1.84117188e-01
-4.15271875e-08,1.84076563e-01
-4.14871875e-08,1.84132813e-01
-4.14471875e-08,1.84042188e-01
-4.14071875e-08,1.84310937e-01
-4.13671875e-08,1.84551563e-01
-4.13271875e-08,1.84473438e-01
-4.12871875e-08,1.84517188e-01
-4.12471875e-08,1.84487500e-01
-4.12071875e-08,1.84509375e-01
-4.11671875e-08,1.84493750e-01
-4.11271875e-08,1.84504688e-01
-4.10871875e-08,1.84496875e-01
-4.10471875e-08,1.84501562e-01
-4.10071875e-08,1.84498438e-01
-4.09671875e-08,1.84500000e-01
-4.09271875e-08,1.84501562e-01
-4.08871875e-08,1.84498438e-01
-4.08471875e-08,1.84503125e-01
-4.08071875e-08,1.84495313e-01
-4.07671875e-08,1.84506250e-01
-4.07271875e-08,1.84490625e-01
-4.06871875e-08,1.84512500e-01
-4.06471875e-08,1.84481250e-01
-4.06071875e-08,1.84528125e-01
-4.05671875e-08,1.84446875e-01
-4.05271875e-08,1.84706250e-01
-4.04871875e-08,1.84954687e-01
-4.04471875e-08,1.84870312e-01
-4.04071875e-08,1.84920313e-01
-4.03671875e-08,1.84885938e-01
-4.03271875e-08,1.84909375e-01
-4.02871875e-08,1.84895313e-01
-4.02471875e-08,1.84898438e-01
-4.02071875e-08,1.84912500e-01
-4.01671875e-08,1.84862500e-01
-4.01271875e-08,1.85090625e-01
-4.00871875e-08,1.85371875e-01
-4.00471875e-08,1.85251562e-01
-4.00071875e-08,1.85340625e-01
-3.99671875e-08,1.85262500e-01
-3.99271875e-08,1.85337500e-01
-3.98871875e-08,1.85259375e-01
-3.98471875e-08,1.85350000e-01
-3.98071875e-08,1.85226562e-01
-3.97671875e-08,1.85526563e-01
-3.97271875e-08,1.85735938e-01
-3.96871875e-08,1.85687500e-01
-3.96471875e-08,1.85703125e-01
-3.96071875e-08,1.85703125e-01
-3.95671875e-08,1.85692187e-01
-3.95271875e-08,1.85712500e-01
-3.94871875e-08,1.85681250e-01
-3.94471875e-08,1.85729688e-01
-3.94071875e-08,1.85645312e-01
-3.93671875e-08,1.85907813e-01
-3.93271875e-08,1.86154687e-01
-3.92871875e-08,1.86070313e-01
-3.92471875e-08,1.86120312e-01
-3.92071875e-08,1.86084375e-01
-3.91671875e-08,1.86112500e-01
-3.91271875e-08,1.86090625e-01
-3.90871875e-08,1.86107812e-01
-3.90471875e-08,1.86092188e-01
-3.90071875e-08,1.86106250e-01
-3.89671875e-08,1.86093750e-01
-3.89271875e-08,1.86104688e-01
-3.88871875e-08,1.86095312e-01
-3.88471875e-08,1.86104688e-01
-3.88071875e-08,1.86096875e-01
-3.87671875e-08,1.86103125e-01
-3.87271875e-08,1.86096875e-01
-3.86871875e-08,1.86103125e-01
-3.86471875e-08,1.86096875e-01
-3.86071875e-08,1.86103125e-01
-3.85671875e-08,1.86096875e-01
-3.85271875e-08,1.86103125e-01
