trails/0bbf0cf1bfcc3246d9e376b62f80622a/aes_ch1_20250507113250352.csv

Model,MSO66B
Label,
Waveform Type,ANALOG
Horizontal Units,s
Sample Interval,4.00000000e-11
Record Length,10000
Zero Index,1599.05468750
Vertical Units,A
ANALOG_Thumbnail,
yOffset,1.84500000e-01
yPosition,8.40000000e-01

Labels,
TIME,CH1
-6.39621875e-08,2.03282813e-01
-6.39221875e-08,2.03318750e-01
-6.38821875e-08,2.03278125e-01
-6.38421875e-08,2.03328125e-01
-6.38021875e-08,2.03262500e-01
-6.37621875e-08,2.03362500e-01
-6.37221875e-08,2.03084375e-01
-6.36821875e-08,2.02853125e-01
-6.36421875e-08,2.02921875e-01
-6.36021875e-08,2.02887500e-01
-6.35621875e-08,2.02907813e-01
-6.35221875e-08,2.02895313e-01
-6.34821875e-08,2.02901563e-01
-6.34421875e-08,2.02900000e-01
-6.34021875e-08,2.02898438e-01
-6.33621875e-08,2.02903125e-01
-6.33221875e-08,2.02895313e-01
-6.32821875e-08,2.02906250e-01
-6.32421875e-08,2.02892188e-01
-6.32021875e-08,2.02909375e-01
-6.31621875e-08,2.02889062e-01
-6.31221875e-08,2.02914063e-01
-6.30821875e-08,2.02881250e-01
-6.30421875e-08,2.02923437e-01
-6.30021875e-08,2.02865625e-01
-6.29621875e-08,2.02959375e-01
-6.29221875e-08,2.02685937e-01
-6.28821875e-08,2.02453125e-01
-6.28421875e-08,2.02521875e-01
-6.28021875e-08,2.02489063e-01
-6.27621875e-08,2.02504688e-01
-6.27221875e-08,2.02501563e-01
-6.26821875e-08,2.02490625e-01
-6.26421875e-08,2.02520313e-01
-6.26021875e-08,2.02453125e-01
-6.25621875e-08,2.02700000e-01
-6.25221875e-08,2.02960937e-01
-6.24821875e-08,2.02864062e-01
-6.24421875e-08,2.02926563e-01
-6.24021875e-08,2.02879688e-01
-6.23621875e-08,2.02917188e-01
-6.23221875e-08,2.02884375e-01
-6.22821875e-08,2.02912500e-01
-6.22421875e-08,2.02889062e-01
-6.22021875e-08,2.02910937e-01
-6.21621875e-08,2.02890625e-01
-6.21221875e-08,2.02907813e-01
-6.20821875e-08,2.02892188e-01
-6.20421875e-08,2.02907813e-01
-6.20021875e-08,2.02893750e-01
-6.19621875e-08,2.02906250e-01
-6.19221875e-08,2.02895313e-01
-6.18821875e-08,2.02904688e-01
-6.18421875e-08,2.02896875e-01
-6.18021875e-08,2.02903125e-01
-6.17621875e-08,2.02896875e-01
-6.17221875e-08,2.02901563e-01
-6.16821875e-08,2.02900000e-01
-6.16421875e-08,2.02900000e-01
-6.16021875e-08,2.02901563e-01
-6.15621875e-08,2.02895313e-01
-6.15221875e-08,2.02907813e-01
-6.14821875e-08,2.02887500e-01
-6.14421875e-08,2.02921875e-01
-6.14021875e-08,2.02853125e-01
-6.13621875e-08,2.03100000e-01
-6.13221875e-08,2.03362500e-01
-6.12821875e-08,2.03260938e-01
-6.12421875e-08,2.03329688e-01
-6.12021875e-08,2.03273438e-01
-6.11621875e-08,2.03323438e-01
-6.11221875e-08,2.03278125e-01
-6.10821875e-08,2.03321875e-01
-6.10421875e-08,2.03278125e-01
-6.10021875e-08,2.03323438e-01
-6.09621875e-08,2.03275000e-01
-6.09221875e-08,2.03329688e-01
-6.08821875e-08,2.03260938e-01
-6.08421875e-08,2.03364062e-01
-6.08021875e-08,2.03084375e-01
-6.07621875e-08,2.02853125e-01
-6.07221875e-08,2.02923437e-01
-6.06821875e-08,2.02885938e-01
-6.06421875e-08,2.02909375e-01
-6.06021875e-08,2.02893750e-01
-6.05621875e-08,2.02904688e-01
-6.05221875e-08,2.02896875e-01
-6.04821875e-08,2.02903125e-01
-6.04421875e-08,2.02898438e-01
-6.04021875e-08,2.02901563e-01
-6.03621875e-08,2.02898438e-01
-6.03221875e-08,2.02900000e-01
-6.02821875e-08,2.02900000e-01
-6.02421875e-08,2.02900000e-01
-6.02021875e-08,2.02900000e-01
-6.01621875e-08,2.02900000e-01
-6.01221875e-08,2.02900000e-01
-6.00821875e-08,2.02900000e-01
-6.00421875e-08,2.02900000e-01
-6.00021875e-08,2.02900000e-01
-5.99621875e-08,2.02900000e-01
-5.99221875e-08,2.02900000e-01
-5.98821875e-08,2.02900000e-01
-5.98421875e-08,2.02900000e-01
-5.98021875e-08,2.02900000e-01
-5.97621875e-08,2.02900000e-01
-5.97221875e-08,2.02900000e-01
-5.96821875e-08,2.02900000e-01
-5.96421875e-08,2.02900000e-01
-5.96021875e-08,2.02900000e-01
-5.95621875e-08,2.02900000e-01
-5.95221875e-08,2.02900000e-01
-5.94821875e-08,2.02900000e-01
-5.94421875e-08,2.02900000e-01
-5.94021875e-08,2.02898438e-01
-5.93621875e-08,2.02901563e-01
-5.93221875e-08,2.02898438e-01
-5.92821875e-08,2.02901563e-01
-5.92421875e-08,2.02896875e-01
-5.92021875e-08,2.02903125e-01
-5.91621875e-08,2.02895313e-01
-5.91221875e-08,2.02904688e-01
-5.90821875e-08,2.02893750e-01
-5.90421875e-08,2.02909375e-01
-5.90021875e-08,2.02887500e-01
-5.89621875e-08,2.02917188e-01
-5.89221875e-08,2.02873438e-01
-5.88821875e-08,2.02951563e-01
-5.88421875e-08,2.02695313e-01
-5.88021875e-08,2.02442188e-01
-5.87621875e-08,2.02534375e-01
-5.87221875e-08,2.02475000e-01
-5.86821875e-08,2.02520313e-01
-5.86421875e-08,2.02482812e-01
-5.86021875e-08,2.02515625e-01
-5.85621875e-08,2.02485938e-01
-5.85221875e-08,2.02512500e-01
-5.84821875e-08,2.02487500e-01
-5.84421875e-08,2.02510938e-01
-5.84021875e-08,2.02489063e-01
-5.83621875e-08,2.02510938e-01
-5.83221875e-08,2.02490625e-01
-5.82821875e-08,2.02509375e-01
-5.82421875e-08,2.02490625e-01
-5.82021875e-08,2.02509375e-01
-5.81621875e-08,2.02490625e-01
-5.81221875e-08,2.02509375e-01
-5.80821875e-08,2.02490625e-01
-5.80421875e-08,2.02509375e-01
-5.80021875e-08,2.02490625e-01
-5.79621875e-08,2.02509375e-01
-5.79221875e-08,2.02490625e-01
-5.78821875e-08,2.02509375e-01
-5.78421875e-08,2.02490625e-01
-5.78021875e-08,2.02510938e-01
-5.77621875e-08,2.02489063e-01
-5.77221875e-08,2.02510938e-01
-5.76821875e-08,2.02489063e-01
-5.76421875e-08,2.02512500e-01
-5.76021875e-08,2.02485938e-01
-5.75621875e-08,2.02514063e-01
-5.75221875e-08,2.02482812e-01
-5.74821875e-08,2.02520313e-01
-5.74421875e-08,2.02475000e-01
-5.74021875e-08,2.02534375e-01
-5.73621875e-08,2.02440625e-01
-5.73221875e-08,2.02712500e-01
-5.72821875e-08,2.02951563e-01
-5.72421875e-08,2.02873438e-01
-5.72021875e-08,2.02918750e-01
-5.71621875e-08,2.02885938e-01
-5.71221875e-08,2.02910937e-01
-5.70821875e-08,2.02889062e-01
-5.70421875e-08,2.02909375e-01
-5.70021875e-08,2.02889062e-01
-5.69621875e-08,2.02912500e-01
-5.69221875e-08,2.02882813e-01
-5.68821875e-08,2.02925000e-01
-5.68421875e-08,2.02850000e-01
-5.68021875e-08,2.03101562e-01
-5.67621875e-08,2.03362500e-01
-5.67221875e-08,2.03260938e-01
-5.66821875e-08,2.03331250e-01
-5.66421875e-08,2.03271875e-01
-5.66021875e-08,2.03326563e-01
-5.65621875e-08,2.03273438e-01
-5.65221875e-08,2.03328125e-01
-5.64821875e-08,2.03267188e-01
-5.64421875e-08,2.03342187e-01
-5.64021875e-08,2.03232812e-01
-5.63621875e-08,2.03520313e-01
-5.63221875e-08,2.03742188e-01
-5.62821875e-08,2.03681250e-01
-5.62421875e-08,2.03709375e-01
-5.62021875e-08,2.03696875e-01
-5.61621875e-08,2.03700000e-01
-5.61221875e-08,2.03703125e-01
-5.60821875e-08,2.03693750e-01
-5.60421875e-08,2.03707813e-01
-5.60021875e-08,2.03689063e-01
-5.59621875e-08,2.03715625e-01
-5.59221875e-08,2.03679688e-01
-5.58821875e-08,2.03731250e-01
-5.58421875e-08,2.03643750e-01
-5.58021875e-08,2.03909375e-01
-5.57621875e-08,2.04151562e-01
-5.57221875e-08,2.04071875e-01
-5.56821875e-08,2.04118750e-01
-5.56421875e-08,2.04087500e-01
-5.56021875e-08,2.04109375e-01
-5.55621875e-08,2.04093750e-01
-5.55221875e-08,2.04104687e-01
-5.54821875e-08,2.04096875e-01
-5.54421875e-08,2.04101562e-01
-5.54021875e-08,2.04100000e-01
-5.53621875e-08,2.04098438e-01
-5.53221875e-08,2.04101562e-01
-5.52821875e-08,2.04095313e-01
-5.52421875e-08,2.04106250e-01
-5.52021875e-08,2.04092188e-01
-5.51621875e-08,2.04110938e-01
-5.51221875e-08,2.04082813e-01
-5.50821875e-08,2.04126562e-01
-5.50421875e-08,2.04048438e-01
-5.50021875e-08,2.04304687e-01
-5.49621875e-08,2.04556250e-01
-5.49221875e-08,2.04467188e-01
-5.48821875e-08,2.04523438e-01
-5.48421875e-08,2.04481250e-01
-5.48021875e-08,2.04514063e-01
-5.47621875e-08,2.04487500e-01
-5.47221875e-08,2.04510938e-01
-5.46821875e-08,2.04490625e-01
-5.46421875e-08,2.04509375e-01
-5.46021875e-08,2.04492188e-01
-5.45621875e-08,2.04507812e-01
-5.45221875e-08,2.04493750e-01
-5.44821875e-08,2.04506250e-01
-5.44421875e-08,2.04493750e-01
-5.44021875e-08,2.04506250e-01
-5.43621875e-08,2.04495312e-01
-5.43221875e-08,2.04504688e-01
-5.42821875e-08,2.04495312e-01
-5.42421875e-08,2.04504688e-01
-5.42021875e-08,2.04495312e-01
-5.41621875e-08,2.04504688e-01
-5.41221875e-08,2.04496875e-01
-5.40821875e-08,2.04503125e-01
-5.40421875e-08,2.04496875e-01
-5.40021875e-08,2.04503125e-01
-5.39621875e-08,2.04496875e-01
-5.39221875e-08,2.04503125e-01
-5.38821875e-08,2.04496875e-01
-5.38421875e-08,2.04503125e-01
-5.38021875e-08,2.04496875e-01
-5.37621875e-08,2.04503125e-01
-5.37221875e-08,2.04498438e-01
-5.36821875e-08,2.04501563e-01
-5.36421875e-08,2.04498438e-01
-5.36021875e-08,2.04501563e-01
-5.35621875e-08,2.04498438e-01
-5.35221875e-08,2.04501563e-01
-5.34821875e-08,2.04498438e-01
-5.34421875e-08,2.04501563e-01
-5.34021875e-08,2.04498438e-01
-5.33621875e-08,2.04501563e-01
-5.33221875e-08,2.04498438e-01
-5.32821875e-08,2.04501563e-01
-5.32421875e-08,2.04498438e-01
-5.32021875e-08,2.04501563e-01
-5.31621875e-08,2.04498438e-01
-5.31221875e-08,2.04501563e-01
-5.30821875e-08,2.04500000e-01
-5.30421875e-08,2.04500000e-01
-5.30021875e-08,2.04500000e-01
-5.29621875e-08,2.04500000e-01
-5.29221875e-08,2.04500000e-01
-5.28821875e-08,2.04500000e-01
-5.28421875e-08,2.04500000e-01
-5.28021875e-08,2.04500000e-01
-5.27621875e-08,2.04500000e-01
-5.27221875e-08,2.04500000e-01
-5.26821875e-08,2.04500000e-01
-5.26421875e-08,2.04500000e-01
-5.26021875e-08,2.04501563e-01
-5.25621875e-08,2.04498438e-01
-5.25221875e-08,2.04501563e-01
-5.24821875e-08,2.04498438e-01
-5.24421875e-08,2.04501563e-01
-5.24021875e-08,2.04496875e-01
-5.23621875e-08,2.04503125e-01
-5.23221875e-08,2.04496875e-01
-5.22821875e-08,2.04504688e-01
-5.22421875e-08,2.04495312e-01
-5.22021875e-08,2.04506250e-01
-5.21621875e-08,2.04492188e-01
-5.21221875e-08,2.04509375e-01
-5.20821875e-08,2.04487500e-01
-5.20421875e-08,2.04517188e-01
-5.20021875e-08,2.04473438e-01
-5.19621875e-08,2.04551563e-01
-5.19221875e-08,2.04295312e-01
-5.18821875e-08,2.04042187e-01
-5.18421875e-08,2.04134375e-01
-5.18021875e-08,2.04075000e-01
-5.17621875e-08,2.04120313e-01
-5.17221875e-08,2.04082813e-01
-5.16821875e-08,2.04115625e-01
-5.16421875e-08,2.04084375e-01
-5.16021875e-08,2.04114062e-01
-5.15621875e-08,2.04085938e-01
-5.15221875e-08,2.04115625e-01
-5.14821875e-08,2.04084375e-01
-5.14421875e-08,2.04117188e-01
-5.14021875e-08,2.04079687e-01
-5.13621875e-08,2.04125000e-01
-5.13221875e-08,2.04065625e-01
-5.12821875e-08,2.04157813e-01
-5.12421875e-08,2.03889062e-01
-5.12021875e-08,2.03648438e-01
-5.11621875e-08,2.03728125e-01
-5.11221875e-08,2.03681250e-01
-5.10821875e-08,2.03714063e-01
-5.10421875e-08,2.03687500e-01
-5.10021875e-08,2.03709375e-01
-5.09621875e-08,2.03690625e-01
-5.09221875e-08,2.03707813e-01
-5.08821875e-08,2.03692188e-01
-5.08421875e-08,2.03707813e-01
-5.08021875e-08,2.03692188e-01
-5.07621875e-08,2.03707813e-01
-5.07221875e-08,2.03690625e-01
-5.06821875e-08,2.03709375e-01
-5.06421875e-08,2.03689063e-01
-5.06021875e-08,2.03712500e-01
-5.05621875e-08,2.03684375e-01
-5.05221875e-08,2.03720313e-01
-5.04821875e-08,2.03670313e-01
-5.04421875e-08,2.03754688e-01
-5.04021875e-08,2.03492188e-01
-5.03621875e-08,2.03245312e-01
-5.03221875e-08,2.03331250e-01
-5.02821875e-08,2.03278125e-01
-5.02421875e-08,2.03317187e-01
-5.02021875e-08,2.03284375e-01
-5.01621875e-08,2.03312500e-01
-5.01221875e-08,2.03287500e-01
-5.00821875e-08,2.03310938e-01
-5.00421875e-08,2.03289063e-01
-5.00021875e-08,2.03310938e-01
-4.99621875e-08,2.03289063e-01
-4.99221875e-08,2.03310938e-01
-4.98821875e-08,2.03289063e-01
-4.98421875e-08,2.03312500e-01
-4.98021875e-08,2.03287500e-01
-4.97621875e-08,2.03314063e-01
-4.97221875e-08,2.03282813e-01
-4.96821875e-08,2.03321875e-01
-4.96421875e-08,2.03268750e-01
-4.96021875e-08,2.03356250e-01
-4.95621875e-08,2.03090625e-01
-4.95221875e-08,2.02846875e-01
-4.94821875e-08,2.02929688e-01
-4.94421875e-08,2.02879688e-01
-4.94021875e-08,2.02915625e-01
-4.93621875e-08,2.02887500e-01
-4.93221875e-08,2.02910937e-01
-4.92821875e-08,2.02889062e-01
-4.92421875e-08,2.02909375e-01
-4.92021875e-08,2.02890625e-01
-4.91621875e-08,2.02907813e-01
-4.91221875e-08,2.02892188e-01
-4.90821875e-08,2.02907813e-01
-4.90421875e-08,2.02890625e-01
-4.90021875e-08,2.02909375e-01
-4.89621875e-08,2.02890625e-01
-4.89221875e-08,2.02910937e-01
-4.88821875e-08,2.02889062e-01
-4.88421875e-08,2.02912500e-01
-4.88021875e-08,2.02885938e-01
-4.87621875e-08,2.02917188e-01
-4.87221875e-08,2.02878125e-01
-4.86821875e-08,2.02932813e-01
-4.86421875e-08,2.02842187e-01
-4.86021875e-08,2.03110938e-01
-4.85621875e-08,2.03351562e-01
-4.85221875e-08,2.03271875e-01
-4.84821875e-08,2.03318750e-01
-4.84421875e-08,2.03287500e-01
-4.84021875e-08,2.03309375e-01
-4.83621875e-08,2.03292187e-01
-4.83221875e-08,2.03306250e-01
-4.82821875e-08,2.03295313e-01
-4.82421875e-08,2.03303125e-01
-4.82021875e-08,2.03298438e-01
-4.81621875e-08,2.03300000e-01
-4.81221875e-08,2.03301563e-01
-4.80821875e-08,2.03295313e-01
-4.80421875e-08,2.03307813e-01
-4.80021875e-08,2.03287500e-01
-4.79621875e-08,2.03321875e-01
-4.79221875e-08,2.03253125e-01
-4.78821875e-08,2.03500000e-01
-4.78421875e-08,2.03762500e-01
-4.78021875e-08,2.03660937e-01
-4.77621875e-08,2.03729688e-01
-4.77221875e-08,2.03675000e-01
-4.76821875e-08,2.03721875e-01
-4.76421875e-08,2.03678125e-01
-4.76021875e-08,2.03720313e-01
-4.75621875e-08,2.03679688e-01
-4.75221875e-08,2.03720313e-01
-4.74821875e-08,2.03678125e-01
-4.74421875e-08,2.03725000e-01
-4.74021875e-08,2.03670313e-01
-4.73621875e-08,2.03739063e-01
-4.73221875e-08,2.03637500e-01
-4.72821875e-08,2.03915625e-01
-4.72421875e-08,2.04146875e-01
-4.72021875e-08,2.04076563e-01
-4.71621875e-08,2.04114062e-01
-4.71221875e-08,2.04090625e-01
-4.70821875e-08,2.04106250e-01
-4.70421875e-08,2.04095313e-01
-4.70021875e-08,2.04103125e-01
-4.69621875e-08,2.04098438e-01
-4.69221875e-08,2.04101562e-01
-4.68821875e-08,2.04100000e-01
-4.68421875e-08,2.04100000e-01
-4.68021875e-08,2.04100000e-01
-4.67621875e-08,2.04098438e-01
-4.67221875e-08,2.04101562e-01
-4.66821875e-08,2.04098438e-01
-4.66421875e-08,2.04101562e-01
-4.66021875e-08,2.04098438e-01
-4.65621875e-08,2.04103125e-01
-4.65221875e-08,2.04096875e-01
-4.64821875e-08,2.04103125e-01
-4.64421875e-08,2.04096875e-01
-4.64021875e-08,2.04104687e-01
-4.63621875e-08,2.04095313e-01
-4.63221875e-08,2.04104687e-01
-4.62821875e-08,2.04095313e-01
-4.62421875e-08,2.04106250e-01
-4.62021875e-08,2.04093750e-01
-4.61621875e-08,2.04107813e-01
-4.61221875e-08,2.04090625e-01
-4.60821875e-08,2.04110938e-01
-4.60421875e-08,2.04085938e-01
-4.60021875e-08,2.04118750e-01
-4.59621875e-08,2.04070313e-01
-4.59221875e-08,2.04153125e-01
-4.58821875e-08,2.03893750e-01
-4.58421875e-08,2.03643750e-01
-4.58021875e-08,2.03732812e-01
-4.57621875e-08,2.03676563e-01
-4.57221875e-08,2.03718750e-01
-4.56821875e-08,2.03684375e-01
-4.56421875e-08,2.03714063e-01
-4.56021875e-08,2.03687500e-01
-4.55621875e-08,2.03712500e-01
-4.55221875e-08,2.03689063e-01
-4.54821875e-08,2.03710938e-01
-4.54421875e-08,2.03687500e-01
-4.54021875e-08,2.03712500e-01
-4.53621875e-08,2.03685937e-01
-4.53221875e-08,2.03715625e-01
-4.52821875e-08,2.03681250e-01
-4.52421875e-08,2.03723437e-01
-4.52021875e-08,2.03667188e-01
-4.51621875e-08,2.03756250e-01
-4.51221875e-08,2.03490625e-01
-4.50821875e-08,2.03246875e-01
-4.50421875e-08,2.03329688e-01
-4.50021875e-08,2.03279688e-01
-4.49621875e-08,2.03315625e-01
-4.49221875e-08,2.03287500e-01
-4.48821875e-08,2.03310938e-01
-4.48421875e-08,2.03290625e-01
-4.48021875e-08,2.03307813e-01
-4.47621875e-08,2.03292187e-01
-4.47221875e-08,2.03306250e-01
-4.46821875e-08,2.03293750e-01
-4.46421875e-08,2.03306250e-01
-4.46021875e-08,2.03295313e-01
-4.45621875e-08,2.03304687e-01
-4.45221875e-08,2.03295313e-01
-4.44821875e-08,2.03304687e-01
-4.44421875e-08,2.03295313e-01
-4.44021875e-08,2.03304687e-01
-4.43621875e-08,2.03295313e-01
-4.43221875e-08,2.03304687e-01
-4.42821875e-08,2.03295313e-01
-4.42421875e-08,2.03304687e-01
-4.42021875e-08,2.03295313e-01
-4.41621875e-08,2.03304687e-01
-4.41221875e-08,2.03295313e-01
-4.40821875e-08,2.03304687e-01
-4.40421875e-08,2.03295313e-01
-4.40021875e-08,2.03304687e-01
-4.39621875e-08,2.03295313e-01
-4.39221875e-08,2.03304687e-01
-4.38821875e-08,2.03295313e-01
-4.38421875e-08,2.03304687e-01
-4.38021875e-08,2.03295313e-01
-4.37621875e-08,2.03306250e-01
-4.37221875e-08,2.03293750e-01
-4.36821875e-08,2.03306250e-01
-4.36421875e-08,2.03293750e-01
-4.36021875e-08,2.03306250e-01
-4.35621875e-08,2.03293750e-01
-4.35221875e-08,2.03307813e-01
-4.34821875e-08,2.03292187e-01
-4.34421875e-08,2.03307813e-01
-4.34021875e-08,2.03292187e-01
-4.33621875e-08,2.03309375e-01
-4.33221875e-08,2.03290625e-01
-4.32821875e-08,2.03310938e-01
-4.32421875e-08,2.03287500e-01
-4.32021875e-08,2.03314063e-01
-4.31621875e-08,2.03284375e-01
-4.31221875e-08,2.03318750e-01
-4.30821875e-08,2.03275000e-01
-4.30421875e-08,2.03334375e-01
-4.30021875e-08,2.03240625e-01
-4.29621875e-08,2.03514063e-01
-4.29221875e-08,2.03748438e-01
-4.28821875e-08,2.03676563e-01
-4.28421875e-08,2.03714063e-01
-4.28021875e-08,2.03692188e-01
-4.27621875e-08,2.03703125e-01
-4.27221875e-08,2.03700000e-01
-4.26821875e-08,2.03696875e-01
-4.26421875e-08,2.03707813e-01
-4.26021875e-08,2.03685937e-01
-4.25621875e-08,2.03723437e-01
-4.25221875e-08,2.03650000e-01
-4.24821875e-08,2.03903125e-01
-4.24421875e-08,2.04159375e-01
-4.24021875e-08,2.04065625e-01
-4.23621875e-08,2.04125000e-01
-4.23221875e-08,2.04079687e-01
-4.22821875e-08,2.04115625e-01
-4.22421875e-08,2.04085938e-01
-4.22021875e-08,2.04112500e-01
-4.21621875e-08,2.04089063e-01
-4.21221875e-08,2.04109375e-01
-4.20821875e-08,2.04092188e-01
-4.20421875e-08,2.04106250e-01
-4.20021875e-08,2.04095313e-01
-4.19621875e-08,2.04103125e-01
-4.19221875e-08,2.04100000e-01
-4.18821875e-08,2.04096875e-01
-4.18421875e-08,2.04112500e-01
-4.18021875e-08,2.04065625e-01
-4.17621875e-08,2.04285938e-01
-4.17221875e-08,2.04581250e-01
-4.16821875e-08,2.04432813e-01
-4.16421875e-08,2.04582813e-01
-4.16021875e-08,2.04268750e-01
-4.15621875e-08,2.04065625e-01
-4.15221875e-08,2.04112500e-01
-4.14821875e-08,2.04095313e-01
-4.14421875e-08,2.04100000e-01
-4.14021875e-08,2.04101562e-01
-4.13621875e-08,2.04096875e-01
-4.13221875e-08,2.04103125e-01
-4.12821875e-08,2.04095313e-01
-4.12421875e-08,2.04104687e-01
-4.12021875e-08,2.04093750e-01
-4.11621875e-08,2.04106250e-01
-4.11221875e-08,2.04093750e-01
-4.10821875e-08,2.04106250e-01
-4.10421875e-08,2.04092188e-01
-4.10021875e-08,2.04107813e-01
-4.09621875e-08,2.04092188e-01
-4.09221875e-08,2.04109375e-01
-4.08821875e-08,2.04090625e-01
-4.08421875e-08,2.04110938e-01
-4.08021875e-08,2.04087500e-01
-4.07621875e-08,2.04114062e-01
-4.07221875e-08,2.04082813e-01
-4.06821875e-08,2.04123438e-01
-4.06421875e-08,2.04067187e-01
-4.06021875e-08,2.04157813e-01
-4.05621875e-08,2.03889062e-01
-4.05221875e-08,2.03648438e-01
-4.04821875e-08,2.03728125e-01
-4.04421875e-08,2.03681250e-01
-4.04021875e-08,2.03714063e-01
-4.03621875e-08,2.03689063e-01
-4.03221875e-08,2.03707813e-01
-4.02821875e-08,2.03693750e-01
-4.02421875e-08,2.03706250e-01
-4.02021875e-08,2.03695313e-01
-4.01621875e-08,2.03704688e-01
-4.01221875e-08,2.03696875e-01
-4.00821875e-08,2.03703125e-01
-4.00421875e-08,2.03696875e-01
-4.00021875e-08,2.03701563e-01
-3.99621875e-08,2.03698437e-01
-3.99221875e-08,2.03701563e-01
-3.98821875e-08,2.03698437e-01
-3.98421875e-08,2.03701563e-01
-3.98021875e-08,2.03698437e-01
-3.97621875e-08,2.03701563e-01
-3.97221875e-08,2.03700000e-01
-3.96821875e-08,2.03700000e-01
-3.96421875e-08,2.03700000e-01
-3.96021875e-08,2.03700000e-01
-3.95621875e-08,2.03700000e-01
-3.95221875e-08,2.03700000e-01
-3.94821875e-08,2.03700000e-01
-3.94421875e-08,2.03700000e-01
-3.94021875e-08,2.03700000e-01
-3.93621875e-08,2.03700000e-01
-3.93221875e-08,2.03701563e-01
-3.92821875e-08,2.03698437e-01
-3.92421875e-08,2.03701563e-01
-3.92021875e-08,2.03698437e-01
-3.91621875e-08,2.03701563e-01
-3.91221875e-08,2.03698437e-01
-3.90821875e-08,2.03701563e-01
-3.90421875e-08,2.03698437e-01
-3.90021875e-08,2.03701563e-01
-3.89621875e-08,2.03698437e-01
-3.89221875e-08,2.03703125e-01
-3.88821875e-08,2.03696875e-01
-3.88421875e-08,2.03703125e-01
-3.88021875e-08,2.03696875e-01
-3.87621875e-08,2.03704688e-01
-3.87221875e-08,2.03695313e-01
-3.86821875e-08,2.03706250e-01
-3.86421875e-08,2.03693750e-01
-3.86021875e-08,2.03707813e-01
-3.85621875e-08,2.03690625e-01
-3.85221875e-08,2.03712500e-01
