trails/0bbf0cf1bfcc3246d9e376b62f80622a/aes_ch1_20250507112452624.csv

Model,MSO66B
Label,
Waveform Type,ANALOG
Horizontal Units,s
Sample Interval,4.00000000e-11
Record Length,10000
Zero Index,1599.10156250
Vertical Units,A
ANALOG_Thumbnail,
yOffset,1.84500000e-01
yPosition,8.40000000e-01

Labels,
TIME,CH1
-6.39640625e-08,1.90453125e-01
-6.39240625e-08,1.90700000e-01
-6.38840625e-08,1.90962500e-01
-6.38440625e-08,1.90862500e-01
-6.38040625e-08,1.90928125e-01
-6.37640625e-08,1.90876563e-01
-6.37240625e-08,1.90920312e-01
-6.36840625e-08,1.90882812e-01
-6.36440625e-08,1.90915625e-01
-6.36040625e-08,1.90885938e-01
-6.35640625e-08,1.90914063e-01
-6.35240625e-08,1.90887500e-01
-6.34840625e-08,1.90912500e-01
-6.34440625e-08,1.90887500e-01
-6.34040625e-08,1.90912500e-01
-6.33640625e-08,1.90887500e-01
-6.33240625e-08,1.90910938e-01
-6.32840625e-08,1.90889063e-01
-6.32440625e-08,1.90912500e-01
-6.32040625e-08,1.90887500e-01
-6.31640625e-08,1.90912500e-01
-6.31240625e-08,1.90887500e-01
-6.30840625e-08,1.90912500e-01
-6.30440625e-08,1.90885938e-01
-6.30040625e-08,1.90915625e-01
-6.29640625e-08,1.90882812e-01
-6.29240625e-08,1.90918750e-01
-6.28840625e-08,1.90878125e-01
-6.28440625e-08,1.90926563e-01
-6.28040625e-08,1.90862500e-01
-6.27640625e-08,1.90962500e-01
-6.27240625e-08,1.90684375e-01
-6.26840625e-08,1.90454687e-01
-6.26440625e-08,1.90520313e-01
-6.26040625e-08,1.90490625e-01
-6.25640625e-08,1.90503125e-01
-6.25240625e-08,1.90504688e-01
-6.24840625e-08,1.90484375e-01
-6.24440625e-08,1.90540625e-01
-6.24040625e-08,1.90306250e-01
-6.23640625e-08,1.90031250e-01
-6.23240625e-08,1.90146875e-01
-6.22840625e-08,1.90060937e-01
-6.22440625e-08,1.90139063e-01
-6.22040625e-08,1.90054688e-01
-6.21640625e-08,1.90168750e-01
-6.21240625e-08,1.89879688e-01
-6.20840625e-08,1.89656250e-01
-6.20440625e-08,1.89720313e-01
-6.20040625e-08,1.89687500e-01
-6.19640625e-08,1.89707813e-01
-6.19240625e-08,1.89695313e-01
-6.18840625e-08,1.89703125e-01
-6.18440625e-08,1.89696875e-01
-6.18040625e-08,1.89701563e-01
-6.17640625e-08,1.89698438e-01
-6.17240625e-08,1.89700000e-01
-6.16840625e-08,1.89700000e-01
-6.16440625e-08,1.89700000e-01
-6.16040625e-08,1.89700000e-01
-6.15640625e-08,1.89698438e-01
-6.15240625e-08,1.89701563e-01
-6.14840625e-08,1.89698438e-01
-6.14440625e-08,1.89701563e-01
-6.14040625e-08,1.89696875e-01
-6.13640625e-08,1.89703125e-01
-6.13240625e-08,1.89696875e-01
-6.12840625e-08,1.89704687e-01
-6.12440625e-08,1.89693750e-01
-6.12040625e-08,1.89706250e-01
-6.11640625e-08,1.89690625e-01
-6.11240625e-08,1.89710938e-01
-6.10840625e-08,1.89684375e-01
-6.10440625e-08,1.89725000e-01
-6.10040625e-08,1.89650000e-01
-6.09640625e-08,1.89903125e-01
-6.09240625e-08,1.90160938e-01
-6.08840625e-08,1.90060937e-01
-6.08440625e-08,1.90131250e-01
-6.08040625e-08,1.90068750e-01
-6.07640625e-08,1.90137500e-01
-6.07240625e-08,1.90040625e-01
-6.06840625e-08,1.90309375e-01
-6.06440625e-08,1.90556250e-01
-6.06040625e-08,1.90464063e-01
-6.05640625e-08,1.90529688e-01
-6.05240625e-08,1.90468750e-01
-6.04840625e-08,1.90539062e-01
-6.04440625e-08,1.90437500e-01
-6.04040625e-08,1.90715625e-01
-6.03640625e-08,1.90945313e-01
-6.03240625e-08,1.90881250e-01
-6.02840625e-08,1.90906250e-01
-6.02440625e-08,1.90907812e-01
-6.02040625e-08,1.90865625e-01
-6.01640625e-08,1.91089063e-01
-6.01240625e-08,1.91373438e-01
-6.00840625e-08,1.91248438e-01
-6.00440625e-08,1.91343750e-01
-6.00040625e-08,1.91256250e-01
-5.99640625e-08,1.91350000e-01
-5.99240625e-08,1.91228125e-01
-5.98840625e-08,1.91523438e-01
-5.98440625e-08,1.91740625e-01
-5.98040625e-08,1.91681250e-01
-5.97640625e-08,1.91710938e-01
-5.97240625e-08,1.91692187e-01
-5.96840625e-08,1.91706250e-01
-5.96440625e-08,1.91693750e-01
-5.96040625e-08,1.91709375e-01
-5.95640625e-08,1.91687500e-01
-5.95240625e-08,1.91721875e-01
-5.94840625e-08,1.91654688e-01
-5.94440625e-08,1.91898438e-01
-5.94040625e-08,1.92165625e-01
-5.93640625e-08,1.92057813e-01
-5.93240625e-08,1.92134375e-01
-5.92840625e-08,1.92070313e-01
-5.92440625e-08,1.92128125e-01
-5.92040625e-08,1.92073437e-01
-5.91640625e-08,1.92126563e-01
-5.91240625e-08,1.92071875e-01
-5.90840625e-08,1.92129688e-01
-5.90440625e-08,1.92067188e-01
-5.90040625e-08,1.92137500e-01
-5.89640625e-08,1.92053125e-01
-5.89240625e-08,1.92173438e-01
-5.88840625e-08,1.91873438e-01
-5.88440625e-08,1.91665625e-01
-5.88040625e-08,1.91709375e-01
-5.87640625e-08,1.91701563e-01
-5.87240625e-08,1.91692187e-01
-5.86840625e-08,1.91714063e-01
-5.86440625e-08,1.91681250e-01
-5.86040625e-08,1.91726563e-01
-5.85640625e-08,1.91660938e-01
-5.85240625e-08,1.91765625e-01
-5.84840625e-08,1.91479687e-01
-5.84440625e-08,1.91262500e-01
-5.84040625e-08,1.91309375e-01
-5.83640625e-08,1.91304688e-01
-5.83240625e-08,1.91278125e-01
-5.82840625e-08,1.91350000e-01
-5.82440625e-08,1.91092188e-01
-5.82040625e-08,1.90850000e-01
-5.81640625e-08,1.90921875e-01
-5.81240625e-08,1.90893750e-01
-5.80840625e-08,1.90890625e-01
-5.80440625e-08,1.90939063e-01
-5.80040625e-08,1.90704687e-01
-5.79640625e-08,1.90437500e-01
-5.79240625e-08,1.90534375e-01
-5.78840625e-08,1.90479687e-01
-5.78440625e-08,1.90504688e-01
-5.78040625e-08,1.90523438e-01
-5.77640625e-08,1.90321875e-01
-5.77240625e-08,1.90015625e-01
-5.76840625e-08,1.90160938e-01
-5.76440625e-08,1.90046875e-01
-5.76040625e-08,1.90153125e-01
-5.75640625e-08,1.90040625e-01
-5.75240625e-08,1.90181250e-01
-5.74840625e-08,1.89867188e-01
-5.74440625e-08,1.89668750e-01
-5.74040625e-08,1.89709375e-01
-5.73640625e-08,1.89700000e-01
-5.73240625e-08,1.89695313e-01
-5.72840625e-08,1.89706250e-01
-5.72440625e-08,1.89690625e-01
-5.72040625e-08,1.89710938e-01
-5.71640625e-08,1.89687500e-01
-5.71240625e-08,1.89715625e-01
-5.70840625e-08,1.89681250e-01
-5.70440625e-08,1.89723438e-01
-5.70040625e-08,1.89667188e-01
-5.69640625e-08,1.89756250e-01
-5.69240625e-08,1.89490625e-01
-5.68840625e-08,1.89246875e-01
-5.68440625e-08,1.89329688e-01
-5.68040625e-08,1.89278125e-01
-5.67640625e-08,1.89318750e-01
-5.67240625e-08,1.89282813e-01
-5.66840625e-08,1.89318750e-01
-5.66440625e-08,1.89278125e-01
-5.66040625e-08,1.89329688e-01
-5.65640625e-08,1.89246875e-01
-5.65240625e-08,1.89506250e-01
-5.64840625e-08,1.89757813e-01
-5.64440625e-08,1.89665625e-01
-5.64040625e-08,1.89725000e-01
-5.63640625e-08,1.89678125e-01
-5.63240625e-08,1.89718750e-01
-5.62840625e-08,1.89682813e-01
-5.62440625e-08,1.89717187e-01
-5.62040625e-08,1.89682813e-01
-5.61640625e-08,1.89717187e-01
-5.61240625e-08,1.89682813e-01
-5.60840625e-08,1.89718750e-01
-5.60440625e-08,1.89679687e-01
-5.60040625e-08,1.89723438e-01
-5.59640625e-08,1.89670312e-01
-5.59240625e-08,1.89739062e-01
-5.58840625e-08,1.89635938e-01
-5.58440625e-08,1.89917188e-01
-5.58040625e-08,1.90145312e-01
-5.57640625e-08,1.90079688e-01
-5.57240625e-08,1.90110938e-01
-5.56840625e-08,1.90095313e-01
-5.56440625e-08,1.90100000e-01
-5.56040625e-08,1.90103125e-01
-5.55640625e-08,1.90093750e-01
-5.55240625e-08,1.90110938e-01
-5.54840625e-08,1.90084375e-01
-5.54440625e-08,1.90126563e-01
-5.54040625e-08,1.90048438e-01
-5.53640625e-08,1.90304688e-01
-5.53240625e-08,1.90556250e-01
-5.52840625e-08,1.90467187e-01
-5.52440625e-08,1.90523438e-01
-5.52040625e-08,1.90482813e-01
-5.51640625e-08,1.90514062e-01
-5.51240625e-08,1.90487500e-01
-5.50840625e-08,1.90510938e-01
-5.50440625e-08,1.90490625e-01
-5.50040625e-08,1.90507813e-01
-5.49640625e-08,1.90492188e-01
-5.49240625e-08,1.90506250e-01
-5.48840625e-08,1.90493750e-01
-5.48440625e-08,1.90506250e-01
-5.48040625e-08,1.90495313e-01
-5.47640625e-08,1.90504688e-01
-5.47240625e-08,1.90495313e-01
-5.46840625e-08,1.90504688e-01
-5.46440625e-08,1.90495313e-01
-5.46040625e-08,1.90504688e-01
-5.45640625e-08,1.90495313e-01
-5.45240625e-08,1.90503125e-01
-5.44840625e-08,1.90496875e-01
-5.44440625e-08,1.90503125e-01
-5.44040625e-08,1.90496875e-01
-5.43640625e-08,1.90503125e-01
-5.43240625e-08,1.90496875e-01
-5.42840625e-08,1.90503125e-01
-5.42440625e-08,1.90496875e-01
-5.42040625e-08,1.90503125e-01
-5.41640625e-08,1.90496875e-01
-5.41240625e-08,1.90503125e-01
-5.40840625e-08,1.90498438e-01
-5.40440625e-08,1.90501562e-01
-5.40040625e-08,1.90498438e-01
-5.39640625e-08,1.90501562e-01
-5.39240625e-08,1.90498438e-01
-5.38840625e-08,1.90501562e-01
-5.38440625e-08,1.90498438e-01
-5.38040625e-08,1.90501562e-01
-5.37640625e-08,1.90498438e-01
-5.37240625e-08,1.90501562e-01
-5.36840625e-08,1.90498438e-01
-5.36440625e-08,1.90501562e-01
-5.36040625e-08,1.90498438e-01
-5.35640625e-08,1.90501562e-01
-5.35240625e-08,1.90498438e-01
-5.34840625e-08,1.90501562e-01
-5.34440625e-08,1.90498438e-01
-5.34040625e-08,1.90500000e-01
-5.33640625e-08,1.90500000e-01
-5.33240625e-08,1.90500000e-01
-5.32840625e-08,1.90500000e-01
-5.32440625e-08,1.90500000e-01
-5.32040625e-08,1.90500000e-01
-5.31640625e-08,1.90498438e-01
-5.31240625e-08,1.90501562e-01
-5.30840625e-08,1.90496875e-01
-5.30440625e-08,1.90504688e-01
-5.30040625e-08,1.90493750e-01
-5.29640625e-08,1.90509375e-01
-5.29240625e-08,1.90485938e-01
-5.28840625e-08,1.90523438e-01
-5.28440625e-08,1.90453125e-01
-5.28040625e-08,1.90700000e-01
-5.27640625e-08,1.90962500e-01
-5.27240625e-08,1.90860937e-01
-5.26840625e-08,1.90931250e-01
-5.26440625e-08,1.90873438e-01
-5.26040625e-08,1.90925000e-01
-5.25640625e-08,1.90875000e-01
-5.25240625e-08,1.90925000e-01
-5.24840625e-08,1.90873438e-01
-5.24440625e-08,1.90928125e-01
-5.24040625e-08,1.90867188e-01
-5.23640625e-08,1.90942187e-01
-5.23240625e-08,1.90831250e-01
-5.22840625e-08,1.91121875e-01
-5.22440625e-08,1.91340625e-01
-5.22040625e-08,1.91284375e-01
-5.21640625e-08,1.91304688e-01
-5.21240625e-08,1.91301563e-01
-5.20840625e-08,1.91293750e-01
-5.20440625e-08,1.91310938e-01
-5.20040625e-08,1.91282813e-01
-5.19640625e-08,1.91329688e-01
-5.19240625e-08,1.91245313e-01
-5.18840625e-08,1.91509375e-01
-5.18440625e-08,1.91751563e-01
-5.18040625e-08,1.91673438e-01
-5.17640625e-08,1.91715625e-01
-5.17240625e-08,1.91690625e-01
-5.16840625e-08,1.91704687e-01
-5.16440625e-08,1.91701563e-01
-5.16040625e-08,1.91692187e-01
-5.15640625e-08,1.91718750e-01
-5.15240625e-08,1.91656250e-01
-5.14840625e-08,1.91898438e-01
-5.14440625e-08,1.92164063e-01
-5.14040625e-08,1.92060938e-01
-5.13640625e-08,1.92129688e-01
-5.13240625e-08,1.92076562e-01
-5.12840625e-08,1.92120313e-01
-5.12440625e-08,1.92081250e-01
-5.12040625e-08,1.92117188e-01
-5.11640625e-08,1.92084375e-01
-5.11240625e-08,1.92114063e-01
-5.10840625e-08,1.92085937e-01
-5.10440625e-08,1.92112500e-01
-5.10040625e-08,1.92087500e-01
-5.09640625e-08,1.92112500e-01
-5.09240625e-08,1.92087500e-01
-5.08840625e-08,1.92112500e-01
-5.08440625e-08,1.92089063e-01
-5.08040625e-08,1.92110937e-01
-5.07640625e-08,1.92089063e-01
-5.07240625e-08,1.92110937e-01
-5.06840625e-08,1.92089063e-01
-5.06440625e-08,1.92110937e-01
-5.06040625e-08,1.92087500e-01
-5.05640625e-08,1.92112500e-01
-5.05240625e-08,1.92087500e-01
-5.04840625e-08,1.92112500e-01
-5.04440625e-08,1.92087500e-01
-5.04040625e-08,1.92114063e-01
-5.03640625e-08,1.92085937e-01
-5.03240625e-08,1.92115625e-01
-5.02840625e-08,1.92082813e-01
-5.02440625e-08,1.92118750e-01
-5.02040625e-08,1.92078125e-01
-5.01640625e-08,1.92128125e-01
-5.01240625e-08,1.92062500e-01
-5.00840625e-08,1.92162500e-01
-5.00440625e-08,1.91884375e-01
-5.00040625e-08,1.91653125e-01
-4.99640625e-08,1.91721875e-01
-4.99240625e-08,1.91687500e-01
-4.98840625e-08,1.91707813e-01
-4.98440625e-08,1.91696875e-01
-4.98040625e-08,1.91701563e-01
-4.97640625e-08,1.91701563e-01
-4.97240625e-08,1.91696875e-01
-4.96840625e-08,1.91704687e-01
-4.96440625e-08,1.91692187e-01
-4.96040625e-08,1.91709375e-01
-4.95640625e-08,1.91685938e-01
-4.95240625e-08,1.91718750e-01
-4.94840625e-08,1.91670312e-01
-4.94440625e-08,1.91754688e-01
-4.94040625e-08,1.91492188e-01
-4.93640625e-08,1.91246875e-01
-4.93240625e-08,1.91329688e-01
-4.92840625e-08,1.91281250e-01
-4.92440625e-08,1.91314062e-01
-4.92040625e-08,1.91290625e-01
-4.91640625e-08,1.91306250e-01
-4.91240625e-08,1.91296875e-01
-4.90840625e-08,1.91298438e-01
-4.90440625e-08,1.91306250e-01
-4.90040625e-08,1.91284375e-01
-4.89640625e-08,1.91340625e-01
-4.89240625e-08,1.91106250e-01
-4.88840625e-08,1.90831250e-01
-4.88440625e-08,1.90945313e-01
-4.88040625e-08,1.90862500e-01
-4.87640625e-08,1.90934375e-01
-4.87240625e-08,1.90865625e-01
-4.86840625e-08,1.90937500e-01
-4.86440625e-08,1.90853125e-01
-4.86040625e-08,1.90970313e-01
-4.85640625e-08,1.90676563e-01
-4.85240625e-08,1.90460938e-01
-4.84840625e-08,1.90514062e-01
-4.84440625e-08,1.90496875e-01
-4.84040625e-08,1.90496875e-01
-4.83640625e-08,1.90510938e-01
-4.83240625e-08,1.90478125e-01
-4.82840625e-08,1.90548438e-01
-4.82440625e-08,1.90298438e-01
-4.82040625e-08,1.90039062e-01
-4.81640625e-08,1.90137500e-01
-4.81240625e-08,1.90071875e-01
-4.80840625e-08,1.90123438e-01
-4.80440625e-08,1.90078125e-01
-4.80040625e-08,1.90121875e-01
-4.79640625e-08,1.90076563e-01
-4.79240625e-08,1.90128125e-01
-4.78840625e-08,1.90064063e-01
-4.78440625e-08,1.90160938e-01
-4.78040625e-08,1.89887500e-01
-4.77640625e-08,1.89650000e-01
-4.77240625e-08,1.89726563e-01
-4.76840625e-08,1.89682813e-01
-4.76440625e-08,1.89714063e-01
-4.76040625e-08,1.89689063e-01
-4.75640625e-08,1.89709375e-01
-4.75240625e-08,1.89692187e-01
-4.74840625e-08,1.89707813e-01
-4.74440625e-08,1.89693750e-01
-4.74040625e-08,1.89706250e-01
-4.73640625e-08,1.89693750e-01
-4.73240625e-08,1.89706250e-01
-4.72840625e-08,1.89693750e-01
-4.72440625e-08,1.89706250e-01
-4.72040625e-08,1.89693750e-01
-4.71640625e-08,1.89706250e-01
-4.71240625e-08,1.89693750e-01
-4.70840625e-08,1.89706250e-01
-4.70440625e-08,1.89693750e-01
-4.70040625e-08,1.89707813e-01
-4.69640625e-08,1.89692187e-01
-4.69240625e-08,1.89709375e-01
-4.68840625e-08,1.89690625e-01
-4.68440625e-08,1.89710938e-01
-4.68040625e-08,1.89685938e-01
-4.67640625e-08,1.89717187e-01
-4.67240625e-08,1.89678125e-01
-4.66840625e-08,1.89731250e-01
-4.66440625e-08,1.89643750e-01
-4.66040625e-08,1.89909375e-01
-4.65640625e-08,1.90153125e-01
-4.65240625e-08,1.90071875e-01
-4.64840625e-08,1.90118750e-01
-4.64440625e-08,1.90085937e-01
-4.64040625e-08,1.90110938e-01
-4.63640625e-08,1.90092188e-01
-4.63240625e-08,1.90106250e-01
-4.62840625e-08,1.90095313e-01
-4.62440625e-08,1.90104688e-01
-4.62040625e-08,1.90096875e-01
-4.61640625e-08,1.90101563e-01
-4.61240625e-08,1.90100000e-01
-4.60840625e-08,1.90098437e-01
-4.60440625e-08,1.90103125e-01
-4.60040625e-08,1.90095313e-01
-4.59640625e-08,1.90107813e-01
-4.59240625e-08,1.90085937e-01
-4.58840625e-08,1.90123438e-01
-4.58440625e-08,1.90051562e-01
-4.58040625e-08,1.90301563e-01
-4.57640625e-08,1.90560937e-01
-4.57240625e-08,1.90464063e-01
-4.56840625e-08,1.90526562e-01
-4.56440625e-08,1.90478125e-01
-4.56040625e-08,1.90518750e-01
-4.55640625e-08,1.90482813e-01
-4.55240625e-08,1.90515625e-01
-4.54840625e-08,1.90485938e-01
-4.54440625e-08,1.90514062e-01
-4.54040625e-08,1.90487500e-01
-4.53640625e-08,1.90512500e-01
-4.53240625e-08,1.90487500e-01
-4.52840625e-08,1.90512500e-01
-4.52440625e-08,1.90487500e-01
-4.52040625e-08,1.90510938e-01
-4.51640625e-08,1.90489063e-01
-4.51240625e-08,1.90510938e-01
-4.50840625e-08,1.90489063e-01
-4.50440625e-08,1.90510938e-01
-4.50040625e-08,1.90489063e-01
-4.49640625e-08,1.90512500e-01
-4.49240625e-08,1.90487500e-01
-4.48840625e-08,1.90512500e-01
-4.48440625e-08,1.90487500e-01
-4.48040625e-08,1.90512500e-01
-4.47640625e-08,1.90485938e-01
-4.47240625e-08,1.90514062e-01
-4.46840625e-08,1.90484375e-01
-4.46440625e-08,1.90515625e-01
-4.46040625e-08,1.90482813e-01
-4.45640625e-08,1.90520313e-01
-4.45240625e-08,1.90476563e-01
-4.44840625e-08,1.90528125e-01
-4.44440625e-08,1.90462500e-01
-4.44040625e-08,1.90562500e-01
-4.43640625e-08,1.90284375e-01
-4.43240625e-08,1.90053125e-01
-4.42840625e-08,1.90123438e-01
-4.42440625e-08,1.90087500e-01
-4.42040625e-08,1.90107813e-01
-4.41640625e-08,1.90095313e-01
-4.41240625e-08,1.90103125e-01
-4.40840625e-08,1.90098437e-01
-4.40440625e-08,1.90100000e-01
-4.40040625e-08,1.90101563e-01
-4.39640625e-08,1.90098437e-01
-4.39240625e-08,1.90103125e-01
-4.38840625e-08,1.90096875e-01
-4.38440625e-08,1.90104688e-01
-4.38040625e-08,1.90095313e-01
-4.37640625e-08,1.90104688e-01
-4.37240625e-08,1.90093750e-01
-4.36840625e-08,1.90106250e-01
-4.36440625e-08,1.90092188e-01
-4.36040625e-08,1.90107813e-01
-4.35640625e-08,1.90090625e-01
-4.35240625e-08,1.90110938e-01
-4.34840625e-08,1.90087500e-01
-4.34440625e-08,1.90115625e-01
-4.34040625e-08,1.90081250e-01
-4.33640625e-08,1.90123438e-01
-4.33240625e-08,1.90067188e-01
-4.32840625e-08,1.90157812e-01
-4.32440625e-08,1.89889063e-01
-4.32040625e-08,1.89650000e-01
-4.31640625e-08,1.89726563e-01
-4.31240625e-08,1.89682813e-01
-4.30840625e-08,1.89712500e-01
-4.30440625e-08,1.89690625e-01
-4.30040625e-08,1.89706250e-01
-4.29640625e-08,1.89695313e-01
-4.29240625e-08,1.89703125e-01
-4.28840625e-08,1.89696875e-01
-4.28440625e-08,1.89701563e-01
-4.28040625e-08,1.89698438e-01
-4.27640625e-08,1.89700000e-01
-4.27240625e-08,1.89700000e-01
-4.26840625e-08,1.89700000e-01
-4.26440625e-08,1.89701563e-01
-4.26040625e-08,1.89698438e-01
-4.25640625e-08,1.89701563e-01
-4.25240625e-08,1.89696875e-01
-4.24840625e-08,1.89703125e-01
-4.24440625e-08,1.89696875e-01
-4.24040625e-08,1.89704687e-01
-4.23640625e-08,1.89695313e-01
-4.23240625e-08,1.89704687e-01
-4.22840625e-08,1.89695313e-01
-4.22440625e-08,1.89706250e-01
-4.22040625e-08,1.89693750e-01
-4.21640625e-08,1.89707813e-01
-4.21240625e-08,1.89692187e-01
-4.20840625e-08,1.89709375e-01
-4.20440625e-08,1.89690625e-01
-4.20040625e-08,1.89710938e-01
-4.19640625e-08,1.89687500e-01
-4.19240625e-08,1.89714063e-01
-4.18840625e-08,1.89682813e-01
-4.18440625e-08,1.89720313e-01
-4.18040625e-08,1.89675000e-01
-4.17640625e-08,1.89735938e-01
-4.17240625e-08,1.89639063e-01
-4.16840625e-08,1.89914063e-01
-4.16440625e-08,1.90146875e-01
-4.16040625e-08,1.90078125e-01
-4.15640625e-08,1.90112500e-01
-4.15240625e-08,1.90093750e-01
-4.14840625e-08,1.90101563e-01
-4.14440625e-08,1.90101563e-01
-4.14040625e-08,1.90093750e-01
-4.13640625e-08,1.90109375e-01
-4.13240625e-08,1.90084375e-01
-4.12840625e-08,1.90126563e-01
-4.12440625e-08,1.90048438e-01
-4.12040625e-08,1.90306250e-01
-4.11640625e-08,1.90554688e-01
-4.11240625e-08,1.90468750e-01
-4.10840625e-08,1.90520313e-01
-4.10440625e-08,1.90484375e-01
-4.10040625e-08,1.90510938e-01
-4.09640625e-08,1.90492188e-01
-4.09240625e-08,1.90506250e-01
-4.08840625e-08,1.90496875e-01
-4.08440625e-08,1.90501562e-01
-4.08040625e-08,1.90500000e-01
-4.07640625e-08,1.90496875e-01
-4.07240625e-08,1.90507813e-01
-4.06840625e-08,1.90487500e-01
-4.06440625e-08,1.90523438e-01
-4.06040625e-08,1.90451563e-01
-4.05640625e-08,1.90701563e-01
-4.05240625e-08,1.90959375e-01
-4.04840625e-08,1.90864063e-01
-4.04440625e-08,1.90926563e-01
-4.04040625e-08,1.90879688e-01
-4.03640625e-08,1.90917188e-01
-4.03240625e-08,1.90884375e-01
-4.02840625e-08,1.90914063e-01
-4.02440625e-08,1.90887500e-01
-4.02040625e-08,1.90910938e-01
-4.01640625e-08,1.90889063e-01
-4.01240625e-08,1.90909375e-01
-4.00840625e-08,1.90890625e-01
-4.00440625e-08,1.90907812e-01
-4.00040625e-08,1.90892188e-01
-3.99640625e-08,1.90907812e-01
-3.99240625e-08,1.90893750e-01
-3.98840625e-08,1.90906250e-01
-3.98440625e-08,1.90893750e-01
-3.98040625e-08,1.90906250e-01
-3.97640625e-08,1.90893750e-01
-3.97240625e-08,1.90904688e-01
-3.96840625e-08,1.90895312e-01
-3.96440625e-08,1.90904688e-01
-3.96040625e-08,1.90895312e-01
-3.95640625e-08,1.90904688e-01
-3.95240625e-08,1.90896875e-01
-3.94840625e-08,1.90903125e-01
-3.94440625e-08,1.90896875e-01
-3.94040625e-08,1.90903125e-01
-3.93640625e-08,1.90896875e-01
-3.93240625e-08,1.90901563e-01
-3.92840625e-08,1.90898438e-01
-3.92440625e-08,1.90901563e-01
-3.92040625e-08,1.90900000e-01
-3.91640625e-08,1.90900000e-01
-3.91240625e-08,1.90901563e-01
-3.90840625e-08,1.90898438e-01
-3.90440625e-08,1.90903125e-01
-3.90040625e-08,1.90895312e-01
-3.89640625e-08,1.90906250e-01
-3.89240625e-08,1.90890625e-01
-3.88840625e-08,1.90914063e-01
-3.88440625e-08,1.90875000e-01
-3.88040625e-08,1.90948438e-01
-3.87640625e-08,1.90698438e-01
-3.87240625e-08,1.90440625e-01
-3.86840625e-08,1.90535938e-01
-3.86440625e-08,1.90473438e-01
-3.86040625e-08,1.90521875e-01
-3.85640625e-08,1.90481250e-01
-3.85240625e-08,1.90517188e-01
