trails/0bbf0cf1bfcc3246d9e376b62f80622a/aes_ch1_20250507113228778.csv

Model,MSO66B
Label,
Waveform Type,ANALOG
Horizontal Units,s
Sample Interval,4.00000000e-11
Record Length,10000
Zero Index,1599.11718750
Vertical Units,A
ANALOG_Thumbnail,
yOffset,1.84500000e-01
yPosition,8.40000000e-01

Labels,
TIME,CH1
-6.39646875e-08,1.89717187e-01
-6.39246875e-08,1.89676563e-01
-6.38846875e-08,1.89732813e-01
-6.38446875e-08,1.89640625e-01
-6.38046875e-08,1.89915625e-01
-6.37646875e-08,1.90143750e-01
-6.37246875e-08,1.90084375e-01
-6.36846875e-08,1.90096875e-01
-6.36446875e-08,1.90132812e-01
-6.36046875e-08,1.89910938e-01
-6.35646875e-08,1.89629688e-01
-6.35246875e-08,1.89745313e-01
-6.34846875e-08,1.89664063e-01
-6.34446875e-08,1.89729688e-01
-6.34046875e-08,1.89673438e-01
-6.33646875e-08,1.89723438e-01
-6.33246875e-08,1.89678125e-01
-6.32846875e-08,1.89720313e-01
-6.32446875e-08,1.89679687e-01
-6.32046875e-08,1.89718750e-01
-6.31646875e-08,1.89681250e-01
-6.31246875e-08,1.89718750e-01
-6.30846875e-08,1.89681250e-01
-6.30446875e-08,1.89718750e-01
-6.30046875e-08,1.89679687e-01
-6.29646875e-08,1.89721875e-01
-6.29246875e-08,1.89676563e-01
-6.28846875e-08,1.89726563e-01
-6.28446875e-08,1.89668750e-01
-6.28046875e-08,1.89740625e-01
-6.27646875e-08,1.89634375e-01
-6.27246875e-08,1.89918750e-01
-6.26846875e-08,1.90143750e-01
-6.26446875e-08,1.90079688e-01
-6.26046875e-08,1.90110938e-01
-6.25646875e-08,1.90093750e-01
-6.25246875e-08,1.90103125e-01
-6.24846875e-08,1.90100000e-01
-6.24446875e-08,1.90098437e-01
-6.24046875e-08,1.90103125e-01
-6.23646875e-08,1.90095313e-01
-6.23246875e-08,1.90106250e-01
-6.22846875e-08,1.90092188e-01
-6.22446875e-08,1.90109375e-01
-6.22046875e-08,1.90087500e-01
-6.21646875e-08,1.90115625e-01
-6.21246875e-08,1.90079688e-01
-6.20846875e-08,1.90129688e-01
-6.20446875e-08,1.90045313e-01
-6.20046875e-08,1.90307813e-01
-6.19646875e-08,1.90553125e-01
-6.19246875e-08,1.90470313e-01
-6.18846875e-08,1.90520313e-01
-6.18446875e-08,1.90484375e-01
-6.18046875e-08,1.90512500e-01
-6.17646875e-08,1.90490625e-01
-6.17246875e-08,1.90507813e-01
-6.16846875e-08,1.90492188e-01
-6.16446875e-08,1.90506250e-01
-6.16046875e-08,1.90493750e-01
-6.15646875e-08,1.90504688e-01
-6.15246875e-08,1.90495313e-01
-6.14846875e-08,1.90504688e-01
-6.14446875e-08,1.90495313e-01
-6.14046875e-08,1.90503125e-01
-6.13646875e-08,1.90496875e-01
-6.13246875e-08,1.90503125e-01
-6.12846875e-08,1.90496875e-01
-6.12446875e-08,1.90503125e-01
-6.12046875e-08,1.90496875e-01
-6.11646875e-08,1.90503125e-01
-6.11246875e-08,1.90496875e-01
-6.10846875e-08,1.90503125e-01
-6.10446875e-08,1.90496875e-01
-6.10046875e-08,1.90503125e-01
-6.09646875e-08,1.90496875e-01
-6.09246875e-08,1.90503125e-01
-6.08846875e-08,1.90496875e-01
-6.08446875e-08,1.90503125e-01
-6.08046875e-08,1.90496875e-01
-6.07646875e-08,1.90503125e-01
-6.07246875e-08,1.90496875e-01
-6.06846875e-08,1.90503125e-01
-6.06446875e-08,1.90496875e-01
-6.06046875e-08,1.90503125e-01
-6.05646875e-08,1.90496875e-01
-6.05246875e-08,1.90503125e-01
-6.04846875e-08,1.90496875e-01
-6.04446875e-08,1.90503125e-01
-6.04046875e-08,1.90496875e-01
-6.03646875e-08,1.90504688e-01
-6.03246875e-08,1.90495313e-01
-6.02846875e-08,1.90504688e-01
-6.02446875e-08,1.90493750e-01
-6.02046875e-08,1.90506250e-01
-6.01646875e-08,1.90492188e-01
-6.01246875e-08,1.90507813e-01
-6.00846875e-08,1.90490625e-01
-6.00446875e-08,1.90510938e-01
-6.00046875e-08,1.90485938e-01
-5.99646875e-08,1.90520313e-01
-5.99246875e-08,1.90470313e-01
-5.98846875e-08,1.90554688e-01
-5.98446875e-08,1.90292188e-01
-5.98046875e-08,1.90045313e-01
-5.97646875e-08,1.90131250e-01
-5.97246875e-08,1.90078125e-01
-5.96846875e-08,1.90117188e-01
-5.96446875e-08,1.90085937e-01
-5.96046875e-08,1.90110938e-01
-5.95646875e-08,1.90090625e-01
-5.95246875e-08,1.90109375e-01
-5.94846875e-08,1.90092188e-01
-5.94446875e-08,1.90107813e-01
-5.94046875e-08,1.90093750e-01
-5.93646875e-08,1.90106250e-01
-5.93246875e-08,1.90093750e-01
-5.92846875e-08,1.90104688e-01
-5.92446875e-08,1.90095313e-01
-5.92046875e-08,1.90104688e-01
-5.91646875e-08,1.90095313e-01
-5.91246875e-08,1.90103125e-01
-5.90846875e-08,1.90096875e-01
-5.90446875e-08,1.90103125e-01
-5.90046875e-08,1.90098437e-01
-5.89646875e-08,1.90101563e-01
-5.89246875e-08,1.90098437e-01
-5.88846875e-08,1.90100000e-01
-5.88446875e-08,1.90101563e-01
-5.88046875e-08,1.90098437e-01
-5.87646875e-08,1.90104688e-01
-5.87246875e-08,1.90092188e-01
-5.86846875e-08,1.90112500e-01
-5.86446875e-08,1.90078125e-01
-5.86046875e-08,1.90145312e-01
-5.85646875e-08,1.89901563e-01
-5.85246875e-08,1.89635938e-01
-5.84846875e-08,1.89740625e-01
-5.84446875e-08,1.89668750e-01
-5.84046875e-08,1.89726563e-01
-5.83646875e-08,1.89675000e-01
-5.83246875e-08,1.89723438e-01
-5.82846875e-08,1.89676563e-01
-5.82446875e-08,1.89723438e-01
-5.82046875e-08,1.89676563e-01
-5.81646875e-08,1.89725000e-01
-5.81246875e-08,1.89671875e-01
-5.80846875e-08,1.89732813e-01
-5.80446875e-08,1.89657812e-01
-5.80046875e-08,1.89767188e-01
-5.79646875e-08,1.89479687e-01
-5.79246875e-08,1.89257813e-01
-5.78846875e-08,1.89318750e-01
-5.78446875e-08,1.89290625e-01
-5.78046875e-08,1.89303125e-01
-5.77646875e-08,1.89300000e-01
-5.77246875e-08,1.89298437e-01
-5.76846875e-08,1.89304688e-01
-5.76446875e-08,1.89293750e-01
-5.76046875e-08,1.89307813e-01
-5.75646875e-08,1.89290625e-01
-5.75246875e-08,1.89312500e-01
-5.74846875e-08,1.89284375e-01
-5.74446875e-08,1.89321875e-01
-5.74046875e-08,1.89268750e-01
-5.73646875e-08,1.89356250e-01
-5.73246875e-08,1.89090625e-01
-5.72846875e-08,1.88848438e-01
-5.72446875e-08,1.88928125e-01
-5.72046875e-08,1.88881250e-01
-5.71646875e-08,1.88914063e-01
-5.71246875e-08,1.88889063e-01
-5.70846875e-08,1.88907812e-01
-5.70446875e-08,1.88893750e-01
-5.70046875e-08,1.88904688e-01
-5.69646875e-08,1.88895312e-01
-5.69246875e-08,1.88903125e-01
-5.68846875e-08,1.88896875e-01
-5.68446875e-08,1.88901563e-01
-5.68046875e-08,1.88898438e-01
-5.67646875e-08,1.88901563e-01
-5.67246875e-08,1.88900000e-01
-5.66846875e-08,1.88900000e-01
-5.66446875e-08,1.88900000e-01
-5.66046875e-08,1.88898438e-01
-5.65646875e-08,1.88901563e-01
-5.65246875e-08,1.88898438e-01
-5.64846875e-08,1.88901563e-01
-5.64446875e-08,1.88896875e-01
-5.64046875e-08,1.88903125e-01
-5.63646875e-08,1.88896875e-01
-5.63246875e-08,1.88903125e-01
-5.62846875e-08,1.88895312e-01
-5.62446875e-08,1.88904688e-01
-5.62046875e-08,1.88893750e-01
-5.61646875e-08,1.88906250e-01
-5.61246875e-08,1.88892188e-01
-5.60846875e-08,1.88909375e-01
-5.60446875e-08,1.88889063e-01
-5.60046875e-08,1.88912500e-01
-5.59646875e-08,1.88884375e-01
-5.59246875e-08,1.88921875e-01
-5.58846875e-08,1.88868750e-01
-5.58446875e-08,1.88956250e-01
-5.58046875e-08,1.88690625e-01
-5.57646875e-08,1.88446875e-01
-5.57246875e-08,1.88528125e-01
-5.56846875e-08,1.88481250e-01
-5.56446875e-08,1.88512500e-01
-5.56046875e-08,1.88490625e-01
-5.55646875e-08,1.88506250e-01
-5.55246875e-08,1.88495313e-01
-5.54846875e-08,1.88503125e-01
-5.54446875e-08,1.88500000e-01
-5.54046875e-08,1.88496875e-01
-5.53646875e-08,1.88506250e-01
-5.53246875e-08,1.88489062e-01
-5.52846875e-08,1.88521875e-01
-5.52446875e-08,1.88453125e-01
-5.52046875e-08,1.88700000e-01
-5.51646875e-08,1.88962500e-01
-5.51246875e-08,1.88860938e-01
-5.50846875e-08,1.88929687e-01
-5.50446875e-08,1.88875000e-01
-5.50046875e-08,1.88921875e-01
-5.49646875e-08,1.88879688e-01
-5.49246875e-08,1.88918750e-01
-5.48846875e-08,1.88881250e-01
-5.48446875e-08,1.88918750e-01
-5.48046875e-08,1.88881250e-01
-5.47646875e-08,1.88920313e-01
-5.47246875e-08,1.88878125e-01
-5.46846875e-08,1.88925000e-01
-5.46446875e-08,1.88870312e-01
-5.46046875e-08,1.88939063e-01
-5.45646875e-08,1.88835937e-01
-5.45246875e-08,1.89117188e-01
-5.44846875e-08,1.89343750e-01
-5.44446875e-08,1.89279688e-01
-5.44046875e-08,1.89309375e-01
-5.43646875e-08,1.89295313e-01
-5.43246875e-08,1.89300000e-01
-5.42846875e-08,1.89304688e-01
-5.42446875e-08,1.89289062e-01
-5.42046875e-08,1.89321875e-01
-5.41646875e-08,1.89253125e-01
-5.41246875e-08,1.89500000e-01
-5.40846875e-08,1.89762500e-01
-5.40446875e-08,1.89660938e-01
-5.40046875e-08,1.89731250e-01
-5.39646875e-08,1.89671875e-01
-5.39246875e-08,1.89728125e-01
-5.38846875e-08,1.89670312e-01
-5.38446875e-08,1.89737500e-01
-5.38046875e-08,1.89639063e-01
-5.37646875e-08,1.89912500e-01
-5.37246875e-08,1.90150000e-01
-5.36846875e-08,1.90071875e-01
-5.36446875e-08,1.90118750e-01
-5.36046875e-08,1.90084375e-01
-5.35646875e-08,1.90114063e-01
-5.35246875e-08,1.90084375e-01
-5.34846875e-08,1.90117188e-01
-5.34446875e-08,1.90079688e-01
-5.34046875e-08,1.90129688e-01
-5.33646875e-08,1.90046875e-01
-5.33246875e-08,1.90306250e-01
-5.32846875e-08,1.90556250e-01
-5.32446875e-08,1.90465625e-01
-5.32046875e-08,1.90525000e-01
-5.31646875e-08,1.90479687e-01
-5.31246875e-08,1.90518750e-01
-5.30846875e-08,1.90482813e-01
-5.30446875e-08,1.90517188e-01
-5.30046875e-08,1.90482813e-01
-5.29646875e-08,1.90517188e-01
-5.29246875e-08,1.90481250e-01
-5.28846875e-08,1.90521875e-01
-5.28446875e-08,1.90473438e-01
-5.28046875e-08,1.90535938e-01
-5.27646875e-08,1.90439063e-01
-5.27246875e-08,1.90714063e-01
-5.26846875e-08,1.90948438e-01
-5.26446875e-08,1.90875000e-01
-5.26046875e-08,1.90915625e-01
-5.25646875e-08,1.90889063e-01
-5.25246875e-08,1.90907812e-01
-5.24846875e-08,1.90895312e-01
-5.24446875e-08,1.90903125e-01
-5.24046875e-08,1.90898438e-01
-5.23646875e-08,1.90901563e-01
-5.23246875e-08,1.90900000e-01
-5.22846875e-08,1.90898438e-01
-5.22446875e-08,1.90903125e-01
-5.22046875e-08,1.90895312e-01
-5.21646875e-08,1.90906250e-01
-5.21246875e-08,1.90892188e-01
-5.20846875e-08,1.90910938e-01
-5.20446875e-08,1.90884375e-01
-5.20046875e-08,1.90926563e-01
-5.19646875e-08,1.90848437e-01
-5.19246875e-08,1.91104688e-01
-5.18846875e-08,1.91357813e-01
-5.18446875e-08,1.91265625e-01
-5.18046875e-08,1.91325000e-01
-5.17646875e-08,1.91279688e-01
-5.17246875e-08,1.91317188e-01
-5.16846875e-08,1.91284375e-01
-5.16446875e-08,1.91314062e-01
-5.16046875e-08,1.91285938e-01
-5.15646875e-08,1.91312500e-01
-5.15246875e-08,1.91287500e-01
-5.14846875e-08,1.91312500e-01
-5.14446875e-08,1.91287500e-01
-5.14046875e-08,1.91312500e-01
-5.13646875e-08,1.91285938e-01
-5.13246875e-08,1.91314062e-01
-5.12846875e-08,1.91284375e-01
-5.12446875e-08,1.91317188e-01
-5.12046875e-08,1.91279688e-01
-5.11646875e-08,1.91326563e-01
-5.11246875e-08,1.91264062e-01
-5.10846875e-08,1.91360937e-01
-5.10446875e-08,1.91085937e-01
-5.10046875e-08,1.90851563e-01
-5.09646875e-08,1.90925000e-01
-5.09246875e-08,1.90885938e-01
-5.08846875e-08,1.90909375e-01
-5.08446875e-08,1.90895312e-01
-5.08046875e-08,1.90901563e-01
-5.07646875e-08,1.90901563e-01
-5.07246875e-08,1.90895312e-01
-5.06846875e-08,1.90910938e-01
-5.06446875e-08,1.90879688e-01
-5.06046875e-08,1.90945313e-01
-5.05646875e-08,1.90701563e-01
-5.05246875e-08,1.90435938e-01
-5.04846875e-08,1.90540625e-01
-5.04446875e-08,1.90467187e-01
-5.04046875e-08,1.90529688e-01
-5.03646875e-08,1.90470313e-01
-5.03246875e-08,1.90531250e-01
-5.02846875e-08,1.90460938e-01
-5.02446875e-08,1.90562500e-01
-5.02046875e-08,1.90285938e-01
-5.01646875e-08,1.90050000e-01
-5.01246875e-08,1.90129688e-01
-5.00846875e-08,1.90076563e-01
-5.00446875e-08,1.90123438e-01
-5.00046875e-08,1.90070313e-01
-4.99646875e-08,1.90151563e-01
-4.99246875e-08,1.89896875e-01
-4.98846875e-08,1.89639063e-01
-4.98446875e-08,1.89739062e-01
-4.98046875e-08,1.89668750e-01
-4.97646875e-08,1.89729688e-01
-4.97246875e-08,1.89670312e-01
-4.96846875e-08,1.89732813e-01
-4.96446875e-08,1.89657812e-01
-4.96046875e-08,1.89767188e-01
-4.95646875e-08,1.89481250e-01
-4.95246875e-08,1.89256250e-01
-4.94846875e-08,1.89318750e-01
-4.94446875e-08,1.89290625e-01
-4.94046875e-08,1.89304688e-01
-4.93646875e-08,1.89300000e-01
-4.93246875e-08,1.89296875e-01
-4.92846875e-08,1.89306250e-01
-4.92446875e-08,1.89289062e-01
-4.92046875e-08,1.89315625e-01
-4.91646875e-08,1.89273438e-01
-4.91246875e-08,1.89351563e-01
-4.90846875e-08,1.89095313e-01
-4.90446875e-08,1.88842188e-01
-4.90046875e-08,1.88932813e-01
-4.89646875e-08,1.88876563e-01
-4.89246875e-08,1.88918750e-01
-4.88846875e-08,1.88884375e-01
-4.88446875e-08,1.88912500e-01
-4.88046875e-08,1.88889063e-01
-4.87646875e-08,1.88910938e-01
-4.87246875e-08,1.88890625e-01
-4.86846875e-08,1.88909375e-01
-4.86446875e-08,1.88892188e-01
-4.86046875e-08,1.88907812e-01
-4.85646875e-08,1.88892188e-01
-4.85246875e-08,1.88907812e-01
-4.84846875e-08,1.88893750e-01
-4.84446875e-08,1.88906250e-01
-4.84046875e-08,1.88893750e-01
-4.83646875e-08,1.88906250e-01
-4.83246875e-08,1.88893750e-01
-4.82846875e-08,1.88906250e-01
-4.82446875e-08,1.88893750e-01
-4.82046875e-08,1.88906250e-01
-4.81646875e-08,1.88893750e-01
-4.81246875e-08,1.88907812e-01
-4.80846875e-08,1.88892188e-01
-4.80446875e-08,1.88907812e-01
-4.80046875e-08,1.88890625e-01
-4.79646875e-08,1.88909375e-01
-4.79246875e-08,1.88889063e-01
-4.78846875e-08,1.88912500e-01
-4.78446875e-08,1.88885938e-01
-4.78046875e-08,1.88917188e-01
-4.77646875e-08,1.88878125e-01
-4.77246875e-08,1.88931250e-01
-4.76846875e-08,1.88843750e-01
-4.76446875e-08,1.89109375e-01
-4.76046875e-08,1.89353125e-01
-4.75646875e-08,1.89270313e-01
-4.75246875e-08,1.89320313e-01
-4.74846875e-08,1.89284375e-01
-4.74446875e-08,1.89312500e-01
-4.74046875e-08,1.89290625e-01
-4.73646875e-08,1.89307813e-01
-4.73246875e-08,1.89292188e-01
-4.72846875e-08,1.89306250e-01
-4.72446875e-08,1.89293750e-01
-4.72046875e-08,1.89304688e-01
-4.71646875e-08,1.89295313e-01
-4.71246875e-08,1.89304688e-01
-4.70846875e-08,1.89295313e-01
-4.70446875e-08,1.89304688e-01
-4.70046875e-08,1.89296875e-01
-4.69646875e-08,1.89303125e-01
-4.69246875e-08,1.89296875e-01
-4.68846875e-08,1.89303125e-01
-4.68446875e-08,1.89296875e-01
-4.68046875e-08,1.89303125e-01
-4.67646875e-08,1.89296875e-01
-4.67246875e-08,1.89303125e-01
-4.66846875e-08,1.89298437e-01
-4.66446875e-08,1.89301563e-01
-4.66046875e-08,1.89298437e-01
-4.65646875e-08,1.89301563e-01
-4.65246875e-08,1.89298437e-01
-4.64846875e-08,1.89301563e-01
-4.64446875e-08,1.89298437e-01
-4.64046875e-08,1.89301563e-01
-4.63646875e-08,1.89298437e-01
-4.63246875e-08,1.89301563e-01
-4.62846875e-08,1.89300000e-01
-4.62446875e-08,1.89300000e-01
-4.62046875e-08,1.89300000e-01
-4.61646875e-08,1.89300000e-01
-4.61246875e-08,1.89301563e-01
-4.60846875e-08,1.89298437e-01
-4.60446875e-08,1.89301563e-01
-4.60046875e-08,1.89296875e-01
-4.59646875e-08,1.89304688e-01
-4.59246875e-08,1.89295313e-01
-4.58846875e-08,1.89307813e-01
-4.58446875e-08,1.89289062e-01
-4.58046875e-08,1.89315625e-01
-4.57646875e-08,1.89275000e-01
-4.57246875e-08,1.89350000e-01
-4.56846875e-08,1.89096875e-01
-4.56446875e-08,1.88840625e-01
-4.56046875e-08,1.88935938e-01
-4.55646875e-08,1.88873438e-01
-4.55246875e-08,1.88921875e-01
-4.54846875e-08,1.88881250e-01
-4.54446875e-08,1.88917188e-01
-4.54046875e-08,1.88884375e-01
-4.53646875e-08,1.88914063e-01
-4.53246875e-08,1.88885938e-01
-4.52846875e-08,1.88914063e-01
-4.52446875e-08,1.88887500e-01
-4.52046875e-08,1.88912500e-01
-4.51646875e-08,1.88887500e-01
-4.51246875e-08,1.88912500e-01
-4.50846875e-08,1.88887500e-01
-4.50446875e-08,1.88912500e-01
-4.50046875e-08,1.88887500e-01
-4.49646875e-08,1.88912500e-01
-4.49246875e-08,1.88887500e-01
-4.48846875e-08,1.88912500e-01
-4.48446875e-08,1.88885938e-01
-4.48046875e-08,1.88914063e-01
-4.47646875e-08,1.88885938e-01
-4.47246875e-08,1.88915625e-01
-4.46846875e-08,1.88884375e-01
-4.46446875e-08,1.88917188e-01
-4.46046875e-08,1.88881250e-01
-4.45646875e-08,1.88920313e-01
-4.45246875e-08,1.88878125e-01
-4.44846875e-08,1.88925000e-01
-4.44446875e-08,1.88868750e-01
-4.44046875e-08,1.88940625e-01
-4.43646875e-08,1.88834375e-01
-4.43246875e-08,1.89118750e-01
-4.42846875e-08,1.89342188e-01
-4.42446875e-08,1.89281250e-01
-4.42046875e-08,1.89307813e-01
-4.41646875e-08,1.89296875e-01
-4.41246875e-08,1.89298437e-01
-4.40846875e-08,1.89304688e-01
-4.40446875e-08,1.89293750e-01
-4.40046875e-08,1.89309375e-01
-4.39646875e-08,1.89287500e-01
-4.39246875e-08,1.89317188e-01
-4.38846875e-08,1.89276562e-01
-4.38446875e-08,1.89332813e-01
-4.38046875e-08,1.89240625e-01
-4.37646875e-08,1.89512500e-01
-4.37246875e-08,1.89748438e-01
-4.36846875e-08,1.89676563e-01
-4.36446875e-08,1.89714063e-01
-4.36046875e-08,1.89692187e-01
-4.35646875e-08,1.89703125e-01
-4.35246875e-08,1.89700000e-01
-4.34846875e-08,1.89695313e-01
-4.34446875e-08,1.89709375e-01
-4.34046875e-08,1.89684375e-01
-4.33646875e-08,1.89725000e-01
-4.33246875e-08,1.89648438e-01
-4.32846875e-08,1.89904688e-01
-4.32446875e-08,1.90156250e-01
-4.32046875e-08,1.90067188e-01
-4.31646875e-08,1.90121875e-01
-4.31246875e-08,1.90082813e-01
-4.30846875e-08,1.90114063e-01
-4.30446875e-08,1.90089063e-01
-4.30046875e-08,1.90109375e-01
-4.29646875e-08,1.90092188e-01
-4.29246875e-08,1.90106250e-01
-4.28846875e-08,1.90095313e-01
-4.28446875e-08,1.90104688e-01
-4.28046875e-08,1.90096875e-01
-4.27646875e-08,1.90103125e-01
-4.27246875e-08,1.90098437e-01
-4.26846875e-08,1.90101563e-01
-4.26446875e-08,1.90100000e-01
-4.26046875e-08,1.90098437e-01
-4.25646875e-08,1.90101563e-01
-4.25246875e-08,1.90096875e-01
-4.24846875e-08,1.90104688e-01
-4.24446875e-08,1.90093750e-01
-4.24046875e-08,1.90107813e-01
-4.23646875e-08,1.90087500e-01
-4.23246875e-08,1.90117188e-01
-4.22846875e-08,1.90073437e-01
-4.22446875e-08,1.90151563e-01
-4.22046875e-08,1.89895312e-01
-4.21646875e-08,1.89643750e-01
-4.21246875e-08,1.89732813e-01
-4.20846875e-08,1.89676563e-01
-4.20446875e-08,1.89718750e-01
-4.20046875e-08,1.89684375e-01
-4.19646875e-08,1.89712500e-01
-4.19246875e-08,1.89689063e-01
-4.18846875e-08,1.89709375e-01
-4.18446875e-08,1.89690625e-01
-4.18046875e-08,1.89707813e-01
-4.17646875e-08,1.89692187e-01
-4.17246875e-08,1.89706250e-01
-4.16846875e-08,1.89693750e-01
-4.16446875e-08,1.89706250e-01
-4.16046875e-08,1.89693750e-01
-4.15646875e-08,1.89704687e-01
-4.15246875e-08,1.89695313e-01
-4.14846875e-08,1.89704687e-01
-4.14446875e-08,1.89695313e-01
-4.14046875e-08,1.89704687e-01
-4.13646875e-08,1.89696875e-01
-4.13246875e-08,1.89703125e-01
-4.12846875e-08,1.89696875e-01
-4.12446875e-08,1.89703125e-01
-4.12046875e-08,1.89696875e-01
-4.11646875e-08,1.89703125e-01
-4.11246875e-08,1.89696875e-01
-4.10846875e-08,1.89703125e-01
-4.10446875e-08,1.89698438e-01
-4.10046875e-08,1.89701563e-01
-4.09646875e-08,1.89698438e-01
-4.09246875e-08,1.89701563e-01
-4.08846875e-08,1.89698438e-01
-4.08446875e-08,1.89701563e-01
-4.08046875e-08,1.89698438e-01
-4.07646875e-08,1.89701563e-01
-4.07246875e-08,1.89698438e-01
-4.06846875e-08,1.89701563e-01
-4.06446875e-08,1.89700000e-01
-4.06046875e-08,1.89700000e-01
-4.05646875e-08,1.89700000e-01
-4.05246875e-08,1.89700000e-01
-4.04846875e-08,1.89700000e-01
-4.04446875e-08,1.89700000e-01
-4.04046875e-08,1.89700000e-01
-4.03646875e-08,1.89700000e-01
-4.03246875e-08,1.89700000e-01
-4.02846875e-08,1.89698438e-01
-4.02446875e-08,1.89701563e-01
-4.02046875e-08,1.89698438e-01
-4.01646875e-08,1.89701563e-01
-4.01246875e-08,1.89698438e-01
-4.00846875e-08,1.89701563e-01
-4.00446875e-08,1.89698438e-01
-4.00046875e-08,1.89703125e-01
-3.99646875e-08,1.89696875e-01
-3.99246875e-08,1.89703125e-01
-3.98846875e-08,1.89696875e-01
-3.98446875e-08,1.89704687e-01
-3.98046875e-08,1.89695313e-01
-3.97646875e-08,1.89704687e-01
-3.97246875e-08,1.89693750e-01
-3.96846875e-08,1.89706250e-01
-3.96446875e-08,1.89693750e-01
-3.96046875e-08,1.89707813e-01
-3.95646875e-08,1.89690625e-01
-3.95246875e-08,1.89709375e-01
-3.94846875e-08,1.89689063e-01
-3.94446875e-08,1.89712500e-01
-3.94046875e-08,1.89684375e-01
-3.93646875e-08,1.89718750e-01
-3.93246875e-08,1.89675000e-01
-3.92846875e-08,1.89735938e-01
-3.92446875e-08,1.89639063e-01
-3.92046875e-08,1.89915625e-01
-3.91646875e-08,1.90143750e-01
-3.91246875e-08,1.90082813e-01
-3.90846875e-08,1.90103125e-01
-3.90446875e-08,1.90110938e-01
-3.90046875e-08,1.90062500e-01
-3.89646875e-08,1.90292188e-01
-3.89246875e-08,1.90571875e-01
-3.88846875e-08,1.90450000e-01
-3.88446875e-08,1.90548438e-01
-3.88046875e-08,1.90434375e-01
-3.87646875e-08,1.90712500e-01
-3.87246875e-08,1.90956250e-01
-3.86846875e-08,1.90860937e-01
-3.86446875e-08,1.90942187e-01
-3.86046875e-08,1.90835937e-01
-3.85646875e-08,1.91117188e-01
-3.85246875e-08,1.91345313e-01
