trails/0bbf0cf1bfcc3246d9e376b62f80622a/aes_ch1_20250507113243602.csv

Model,MSO66B
Label,
Waveform Type,ANALOG
Horizontal Units,s
Sample Interval,4.00000000e-11
Record Length,10000
Zero Index,1599.05078125
Vertical Units,A
ANALOG_Thumbnail,
yOffset,1.84500000e-01
yPosition,8.40000000e-01

Labels,
TIME,CH1
-6.39620312e-08,1.93289062e-01
-6.39220313e-08,1.93314062e-01
-6.38820312e-08,1.93279688e-01
-6.38420312e-08,1.93329688e-01
-6.38020312e-08,1.93243750e-01
-6.37620312e-08,1.93509375e-01
-6.37220313e-08,1.93753125e-01
-6.36820312e-08,1.93670312e-01
-6.36420313e-08,1.93720313e-01
-6.36020312e-08,1.93685938e-01
-6.35620312e-08,1.93710938e-01
-6.35220312e-08,1.93690625e-01
-6.34820312e-08,1.93707813e-01
-6.34420313e-08,1.93693750e-01
-6.34020312e-08,1.93706250e-01
-6.33620313e-08,1.93695312e-01
-6.33220312e-08,1.93704688e-01
-6.32820312e-08,1.93696875e-01
-6.32420312e-08,1.93703125e-01
-6.32020312e-08,1.93696875e-01
-6.31620313e-08,1.93703125e-01
-6.31220312e-08,1.93698438e-01
-6.30820312e-08,1.93701563e-01
-6.30420312e-08,1.93698438e-01
-6.30020312e-08,1.93701563e-01
-6.29620312e-08,1.93698438e-01
-6.29220312e-08,1.93701563e-01
-6.28820313e-08,1.93698438e-01
-6.28420312e-08,1.93700000e-01
-6.28020312e-08,1.93700000e-01
-6.27620312e-08,1.93700000e-01
-6.27220312e-08,1.93700000e-01
-6.26820312e-08,1.93700000e-01
-6.26420312e-08,1.93700000e-01
-6.26020313e-08,1.93700000e-01
-6.25620312e-08,1.93700000e-01
-6.25220312e-08,1.93700000e-01
-6.24820312e-08,1.93700000e-01
-6.24420312e-08,1.93698438e-01
-6.24020312e-08,1.93701563e-01
-6.23620312e-08,1.93698438e-01
-6.23220313e-08,1.93701563e-01
-6.22820312e-08,1.93698438e-01
-6.22420312e-08,1.93701563e-01
-6.22020312e-08,1.93698438e-01
-6.21620312e-08,1.93701563e-01
-6.21220312e-08,1.93696875e-01
-6.20820312e-08,1.93703125e-01
-6.20420313e-08,1.93696875e-01
-6.20020312e-08,1.93703125e-01
-6.19620312e-08,1.93695312e-01
-6.19220312e-08,1.93704688e-01
-6.18820312e-08,1.93695312e-01
-6.18420312e-08,1.93706250e-01
-6.18020312e-08,1.93692188e-01
-6.17620313e-08,1.93707813e-01
-6.17220312e-08,1.93690625e-01
-6.16820312e-08,1.93712500e-01
-6.16420312e-08,1.93684375e-01
-6.16020312e-08,1.93720313e-01
-6.15620312e-08,1.93668750e-01
-6.15220312e-08,1.93756250e-01
-6.14820313e-08,1.93490625e-01
-6.14420312e-08,1.93246875e-01
-6.14020312e-08,1.93328125e-01
-6.13620312e-08,1.93281250e-01
-6.13220312e-08,1.93312500e-01
-6.12820312e-08,1.93290625e-01
-6.12420312e-08,1.93306250e-01
-6.12020313e-08,1.93296875e-01
-6.11620312e-08,1.93298438e-01
-6.11220312e-08,1.93306250e-01
-6.10820312e-08,1.93282813e-01
-6.10420312e-08,1.93342188e-01
-6.10020313e-08,1.93106250e-01
-6.09620312e-08,1.92831250e-01
-6.09220313e-08,1.92945313e-01
-6.08820312e-08,1.92862500e-01
-6.08420312e-08,1.92934375e-01
-6.08020312e-08,1.92865625e-01
-6.07620312e-08,1.92937500e-01
-6.07220313e-08,1.92854688e-01
-6.06820312e-08,1.92968750e-01
-6.06420313e-08,1.92679688e-01
-6.06020312e-08,1.92457812e-01
-6.05620312e-08,1.92518750e-01
-6.05220312e-08,1.92489063e-01
-6.04820312e-08,1.92506250e-01
-6.04420313e-08,1.92496875e-01
-6.04020312e-08,1.92501563e-01
-6.03620313e-08,1.92500000e-01
-6.03220312e-08,1.92500000e-01
-6.02820312e-08,1.92501563e-01
-6.02420312e-08,1.92498438e-01
-6.02020312e-08,1.92501563e-01
-6.01620313e-08,1.92498438e-01
-6.01220312e-08,1.92503125e-01
-6.00820313e-08,1.92496875e-01
-6.00420312e-08,1.92503125e-01
-6.00020312e-08,1.92496875e-01
-5.99620312e-08,1.92503125e-01
-5.99220312e-08,1.92496875e-01
-5.98820313e-08,1.92504687e-01
-5.98420312e-08,1.92495313e-01
-5.98020313e-08,1.92504687e-01
-5.97620312e-08,1.92495313e-01
-5.97220312e-08,1.92504687e-01
-5.96820312e-08,1.92495313e-01
-5.96420312e-08,1.92506250e-01
-5.96020312e-08,1.92493750e-01
-5.95620312e-08,1.92506250e-01
-5.95220312e-08,1.92492188e-01
-5.94820312e-08,1.92507813e-01
-5.94420312e-08,1.92490625e-01
-5.94020312e-08,1.92510938e-01
-5.93620312e-08,1.92487500e-01
-5.93220312e-08,1.92515625e-01
-5.92820312e-08,1.92478125e-01
-5.92420312e-08,1.92531250e-01
-5.92020312e-08,1.92443750e-01
-5.91620312e-08,1.92707813e-01
-5.91220312e-08,1.92953125e-01
-5.90820312e-08,1.92870313e-01
-5.90420312e-08,1.92920312e-01
-5.90020312e-08,1.92884375e-01
-5.89620312e-08,1.92912500e-01
-5.89220312e-08,1.92889063e-01
-5.88820312e-08,1.92909375e-01
-5.88420312e-08,1.92892188e-01
-5.88020312e-08,1.92907812e-01
-5.87620312e-08,1.92892188e-01
-5.87220312e-08,1.92906250e-01
-5.86820312e-08,1.92893750e-01
-5.86420312e-08,1.92906250e-01
-5.86020312e-08,1.92893750e-01
-5.85620312e-08,1.92906250e-01
-5.85220312e-08,1.92893750e-01
-5.84820312e-08,1.92907812e-01
-5.84420312e-08,1.92892188e-01
-5.84020312e-08,1.92907812e-01
-5.83620312e-08,1.92890625e-01
-5.83220312e-08,1.92910938e-01
-5.82820312e-08,1.92885937e-01
-5.82420312e-08,1.92918750e-01
-5.82020312e-08,1.92871875e-01
-5.81620312e-08,1.92953125e-01
-5.81220312e-08,1.92695312e-01
-5.80820312e-08,1.92442188e-01
-5.80420312e-08,1.92534375e-01
-5.80020312e-08,1.92475000e-01
-5.79620312e-08,1.92521875e-01
-5.79220312e-08,1.92481250e-01
-5.78820312e-08,1.92518750e-01
-5.78420312e-08,1.92481250e-01
-5.78020312e-08,1.92518750e-01
-5.77620312e-08,1.92478125e-01
-5.77220312e-08,1.92526562e-01
-5.76820312e-08,1.92465625e-01
-5.76420312e-08,1.92559375e-01
-5.76020312e-08,1.92287500e-01
-5.75620312e-08,1.92050000e-01
-5.75220312e-08,1.92126563e-01
-5.74820312e-08,1.92082813e-01
-5.74420312e-08,1.92112500e-01
-5.74020312e-08,1.92090625e-01
-5.73620312e-08,1.92107813e-01
-5.73220312e-08,1.92093750e-01
-5.72820312e-08,1.92106250e-01
-5.72420312e-08,1.92095313e-01
-5.72020312e-08,1.92104688e-01
-5.71620312e-08,1.92096875e-01
-5.71220312e-08,1.92103125e-01
-5.70820312e-08,1.92096875e-01
-5.70420312e-08,1.92103125e-01
-5.70020312e-08,1.92098437e-01
-5.69620312e-08,1.92101563e-01
-5.69220312e-08,1.92098437e-01
-5.68820312e-08,1.92101563e-01
-5.68420312e-08,1.92098437e-01
-5.68020312e-08,1.92101563e-01
-5.67620312e-08,1.92098437e-01
-5.67220312e-08,1.92101563e-01
-5.66820312e-08,1.92098437e-01
-5.66420312e-08,1.92100000e-01
-5.66020312e-08,1.92100000e-01
-5.65620312e-08,1.92100000e-01
-5.65220312e-08,1.92100000e-01
-5.64820312e-08,1.92100000e-01
-5.64420312e-08,1.92100000e-01
-5.64020312e-08,1.92100000e-01
-5.63620312e-08,1.92100000e-01
-5.63220312e-08,1.92098437e-01
-5.62820312e-08,1.92101563e-01
-5.62420312e-08,1.92098437e-01
-5.62020312e-08,1.92101563e-01
-5.61620312e-08,1.92096875e-01
-5.61220312e-08,1.92103125e-01
-5.60820312e-08,1.92096875e-01
-5.60420312e-08,1.92104688e-01
-5.60020312e-08,1.92093750e-01
-5.59620312e-08,1.92106250e-01
-5.59220312e-08,1.92090625e-01
-5.58820312e-08,1.92112500e-01
-5.58420312e-08,1.92082813e-01
-5.58020312e-08,1.92126563e-01
-5.57620312e-08,1.92048438e-01
-5.57220312e-08,1.92304688e-01
-5.56820312e-08,1.92557813e-01
-5.56420312e-08,1.92465625e-01
-5.56020312e-08,1.92525000e-01
-5.55620312e-08,1.92479687e-01
-5.55220312e-08,1.92517188e-01
-5.54820312e-08,1.92484375e-01
-5.54420312e-08,1.92514062e-01
-5.54020312e-08,1.92485938e-01
-5.53620312e-08,1.92512500e-01
-5.53220312e-08,1.92487500e-01
-5.52820312e-08,1.92512500e-01
-5.52420312e-08,1.92487500e-01
-5.52020312e-08,1.92514062e-01
-5.51620312e-08,1.92485938e-01
-5.51220312e-08,1.92515625e-01
-5.50820312e-08,1.92482813e-01
-5.50420312e-08,1.92520313e-01
-5.50020312e-08,1.92475000e-01
-5.49620312e-08,1.92534375e-01
-5.49220312e-08,1.92442188e-01
-5.48820312e-08,1.92710938e-01
-5.48420312e-08,1.92951563e-01
-5.48020312e-08,1.92871875e-01
-5.47620312e-08,1.92918750e-01
-5.47220312e-08,1.92885937e-01
-5.46820312e-08,1.92910938e-01
-5.46420312e-08,1.92890625e-01
-5.46020312e-08,1.92909375e-01
-5.45620312e-08,1.92892188e-01
-5.45220312e-08,1.92907812e-01
-5.44820312e-08,1.92890625e-01
-5.44420312e-08,1.92909375e-01
-5.44020312e-08,1.92889063e-01
-5.43620312e-08,1.92914063e-01
-5.43220312e-08,1.92881250e-01
-5.42820312e-08,1.92928125e-01
-5.42420312e-08,1.92848437e-01
-5.42020312e-08,1.93104688e-01
-5.41620312e-08,1.93357813e-01
-5.41220312e-08,1.93265625e-01
-5.40820312e-08,1.93325000e-01
-5.40420312e-08,1.93279688e-01
-5.40020312e-08,1.93317188e-01
-5.39620312e-08,1.93284375e-01
-5.39220312e-08,1.93315625e-01
-5.38820312e-08,1.93285938e-01
-5.38420312e-08,1.93314062e-01
-5.38020312e-08,1.93285938e-01
-5.37620312e-08,1.93314062e-01
-5.37220312e-08,1.93285938e-01
-5.36820312e-08,1.93314062e-01
-5.36420312e-08,1.93285938e-01
-5.36020313e-08,1.93315625e-01
-5.35620312e-08,1.93284375e-01
-5.35220312e-08,1.93317188e-01
-5.34820312e-08,1.93281250e-01
-5.34420312e-08,1.93320313e-01
-5.34020312e-08,1.93276562e-01
-5.33620312e-08,1.93329688e-01
-5.33220312e-08,1.93260938e-01
-5.32820312e-08,1.93364063e-01
-5.32420312e-08,1.93082813e-01
-5.32020312e-08,1.92856250e-01
-5.31620312e-08,1.92918750e-01
-5.31220312e-08,1.92890625e-01
-5.30820312e-08,1.92903125e-01
-5.30420312e-08,1.92901563e-01
-5.30020312e-08,1.92895312e-01
-5.29620312e-08,1.92907812e-01
-5.29220312e-08,1.92887500e-01
-5.28820312e-08,1.92918750e-01
-5.28420312e-08,1.92870313e-01
-5.28020312e-08,1.92954687e-01
-5.27620312e-08,1.92690625e-01
-5.27220312e-08,1.92448438e-01
-5.26820312e-08,1.92526562e-01
-5.26420312e-08,1.92484375e-01
-5.26020312e-08,1.92509375e-01
-5.25620312e-08,1.92495313e-01
-5.25220312e-08,1.92500000e-01
-5.24820312e-08,1.92507813e-01
-5.24420312e-08,1.92482813e-01
-5.24020312e-08,1.92543750e-01
-5.23620312e-08,1.92303125e-01
-5.23220312e-08,1.92035938e-01
-5.22820312e-08,1.92140625e-01
-5.22420312e-08,1.92068750e-01
-5.22020312e-08,1.92126563e-01
-5.21620312e-08,1.92076562e-01
-5.21220312e-08,1.92123437e-01
-5.20820312e-08,1.92078125e-01
-5.20420312e-08,1.92123437e-01
-5.20020312e-08,1.92075000e-01
-5.19620312e-08,1.92129688e-01
-5.19220312e-08,1.92062500e-01
-5.18820312e-08,1.92162500e-01
-5.18420312e-08,1.91885937e-01
-5.18020312e-08,1.91651563e-01
-5.17620312e-08,1.91725000e-01
-5.17220312e-08,1.91682813e-01
-5.16820313e-08,1.91712500e-01
-5.16420312e-08,1.91690625e-01
-5.16020312e-08,1.91707813e-01
-5.15620312e-08,1.91692187e-01
-5.15220312e-08,1.91706250e-01
-5.14820312e-08,1.91693750e-01
-5.14420312e-08,1.91706250e-01
-5.14020313e-08,1.91692187e-01
-5.13620312e-08,1.91707813e-01
-5.13220312e-08,1.91690625e-01
-5.12820312e-08,1.91710938e-01
-5.12420312e-08,1.91685938e-01
-5.12020312e-08,1.91718750e-01
-5.11620312e-08,1.91671875e-01
-5.11220312e-08,1.91753125e-01
-5.10820312e-08,1.91493750e-01
-5.10420312e-08,1.91243750e-01
-5.10020312e-08,1.91332813e-01
-5.09620312e-08,1.91276562e-01
-5.09220312e-08,1.91318750e-01
-5.08820312e-08,1.91284375e-01
-5.08420312e-08,1.91314062e-01
-5.08020312e-08,1.91285938e-01
-5.07620312e-08,1.91312500e-01
-5.07220312e-08,1.91287500e-01
-5.06820312e-08,1.91312500e-01
-5.06420312e-08,1.91287500e-01
-5.06020312e-08,1.91312500e-01
-5.05620312e-08,1.91287500e-01
-5.05220312e-08,1.91312500e-01
-5.04820312e-08,1.91285938e-01
-5.04420312e-08,1.91315625e-01
-5.04020312e-08,1.91281250e-01
-5.03620312e-08,1.91323437e-01
-5.03220312e-08,1.91267188e-01
-5.02820312e-08,1.91357813e-01
-5.02420312e-08,1.91089063e-01
-5.02020312e-08,1.90848437e-01
-5.01620312e-08,1.90928125e-01
-5.01220312e-08,1.90881250e-01
-5.00820312e-08,1.90914063e-01
-5.00420312e-08,1.90889063e-01
-5.00020312e-08,1.90909375e-01
-4.99620312e-08,1.90892188e-01
-4.99220312e-08,1.90906250e-01
-4.98820312e-08,1.90893750e-01
-4.98420312e-08,1.90904688e-01
-4.98020312e-08,1.90895312e-01
-4.97620313e-08,1.90904688e-01
-4.97220312e-08,1.90896875e-01
-4.96820312e-08,1.90903125e-01
-4.96420312e-08,1.90896875e-01
-4.96020312e-08,1.90903125e-01
-4.95620312e-08,1.90896875e-01
-4.95220312e-08,1.90903125e-01
-4.94820313e-08,1.90896875e-01
-4.94420312e-08,1.90903125e-01
-4.94020312e-08,1.90896875e-01
-4.93620312e-08,1.90903125e-01
-4.93220312e-08,1.90898438e-01
-4.92820312e-08,1.90901563e-01
-4.92420312e-08,1.90898438e-01
-4.92020313e-08,1.90901563e-01
-4.91620312e-08,1.90898438e-01
-4.91220312e-08,1.90901563e-01
-4.90820312e-08,1.90898438e-01
-4.90420312e-08,1.90901563e-01
-4.90020312e-08,1.90898438e-01
-4.89620312e-08,1.90901563e-01
-4.89220312e-08,1.90898438e-01
-4.88820312e-08,1.90901563e-01
-4.88420312e-08,1.90898438e-01
-4.88020312e-08,1.90901563e-01
-4.87620312e-08,1.90898438e-01
-4.87220312e-08,1.90900000e-01
-4.86820312e-08,1.90900000e-01
-4.86420312e-08,1.90900000e-01
-4.86020312e-08,1.90901563e-01
-4.85620312e-08,1.90898438e-01
-4.85220312e-08,1.90903125e-01
-4.84820312e-08,1.90895312e-01
-4.84420312e-08,1.90907812e-01
-4.84020312e-08,1.90887500e-01
-4.83620312e-08,1.90921875e-01
-4.83220312e-08,1.90854688e-01
-4.82820312e-08,1.91098437e-01
-4.82420312e-08,1.91365625e-01
-4.82020312e-08,1.91257813e-01
-4.81620312e-08,1.91334375e-01
-4.81220312e-08,1.91268750e-01
-4.80820312e-08,1.91329688e-01
-4.80420312e-08,1.91270313e-01
-4.80020312e-08,1.91331250e-01
-4.79620312e-08,1.91264062e-01
-4.79220312e-08,1.91345313e-01
-4.78820312e-08,1.91229687e-01
-4.78420313e-08,1.91523438e-01
-4.78020312e-08,1.91739063e-01
-4.77620312e-08,1.91685938e-01
-4.77220312e-08,1.91703125e-01
-4.76820312e-08,1.91703125e-01
-4.76420312e-08,1.91692187e-01
-4.76020312e-08,1.91712500e-01
-4.75620313e-08,1.91679688e-01
-4.75220312e-08,1.91731250e-01
-4.74820312e-08,1.91643750e-01
-4.74420312e-08,1.91910938e-01
-4.74020312e-08,1.92150000e-01
-4.73620312e-08,1.92075000e-01
-4.73220312e-08,1.92114063e-01
-4.72820313e-08,1.92092188e-01
-4.72420312e-08,1.92101563e-01
-4.72020312e-08,1.92103125e-01
-4.71620312e-08,1.92090625e-01
-4.71220312e-08,1.92120313e-01
-4.70820312e-08,1.92053125e-01
-4.70420312e-08,1.92300000e-01
-4.70020312e-08,1.92560938e-01
-4.69620312e-08,1.92464063e-01
-4.69220312e-08,1.92526562e-01
-4.68820312e-08,1.92478125e-01
-4.68420312e-08,1.92517188e-01
-4.68020312e-08,1.92484375e-01
-4.67620312e-08,1.92514062e-01
-4.67220312e-08,1.92487500e-01
-4.66820312e-08,1.92510938e-01
-4.66420312e-08,1.92489063e-01
-4.66020312e-08,1.92509375e-01
-4.65620312e-08,1.92490625e-01
-4.65220312e-08,1.92509375e-01
-4.64820312e-08,1.92492188e-01
-4.64420312e-08,1.92507813e-01
-4.64020312e-08,1.92492188e-01
-4.63620312e-08,1.92507813e-01
-4.63220312e-08,1.92493750e-01
-4.62820312e-08,1.92506250e-01
-4.62420312e-08,1.92493750e-01
-4.62020312e-08,1.92506250e-01
-4.61620312e-08,1.92493750e-01
-4.61220312e-08,1.92506250e-01
-4.60820312e-08,1.92493750e-01
-4.60420312e-08,1.92506250e-01
-4.60020312e-08,1.92493750e-01
-4.59620312e-08,1.92506250e-01
-4.59220313e-08,1.92493750e-01
-4.58820312e-08,1.92506250e-01
-4.58420312e-08,1.92493750e-01
-4.58020312e-08,1.92506250e-01
-4.57620312e-08,1.92493750e-01
-4.57220312e-08,1.92506250e-01
-4.56820312e-08,1.92493750e-01
-4.56420313e-08,1.92507813e-01
-4.56020312e-08,1.92492188e-01
-4.55620312e-08,1.92507813e-01
-4.55220312e-08,1.92490625e-01
-4.54820312e-08,1.92510938e-01
-4.54420312e-08,1.92485938e-01
-4.54020312e-08,1.92518750e-01
-4.53620313e-08,1.92471875e-01
-4.53220312e-08,1.92553125e-01
-4.52820312e-08,1.92293750e-01
-4.52420312e-08,1.92042188e-01
-4.52020312e-08,1.92134375e-01
-4.51620312e-08,1.92075000e-01
-4.51220312e-08,1.92121875e-01
-4.50820313e-08,1.92081250e-01
-4.50420312e-08,1.92118750e-01
-4.50020312e-08,1.92081250e-01
-4.49620312e-08,1.92120313e-01
-4.49220312e-08,1.92078125e-01
-4.48820312e-08,1.92126563e-01
-4.48420312e-08,1.92064063e-01
-4.48020312e-08,1.92160938e-01
-4.47620312e-08,1.91885937e-01
-4.47220312e-08,1.91651563e-01
-4.46820312e-08,1.91725000e-01
-4.46420312e-08,1.91684375e-01
-4.46020312e-08,1.91710938e-01
-4.45620312e-08,1.91692187e-01
-4.45220312e-08,1.91704687e-01
-4.44820312e-08,1.91696875e-01
-4.44420312e-08,1.91701563e-01
-4.44020312e-08,1.91700000e-01
-4.43620312e-08,1.91696875e-01
-4.43220312e-08,1.91704687e-01
-4.42820312e-08,1.91692187e-01
-4.42420312e-08,1.91714063e-01
-4.42020312e-08,1.91676563e-01
-4.41620312e-08,1.91748438e-01
-4.41220312e-08,1.91498438e-01
-4.40820312e-08,1.91239063e-01
-4.40420312e-08,1.91337500e-01
-4.40020313e-08,1.91271875e-01
-4.39620312e-08,1.91323437e-01
-4.39220312e-08,1.91279688e-01
-4.38820312e-08,1.91320313e-01
-4.38420312e-08,1.91281250e-01
-4.38020312e-08,1.91318750e-01
-4.37620312e-08,1.91279688e-01
-4.37220313e-08,1.91321875e-01
-4.36820312e-08,1.91273438e-01
-4.36420312e-08,1.91335937e-01
-4.36020312e-08,1.91240625e-01
-4.35620312e-08,1.91512500e-01
-4.35220312e-08,1.91750000e-01
-4.34820312e-08,1.91673438e-01
-4.34420313e-08,1.91718750e-01
-4.34020312e-08,1.91685938e-01
-4.33620312e-08,1.91712500e-01
-4.33220312e-08,1.91689063e-01
-4.32820312e-08,1.91709375e-01
-4.32420312e-08,1.91690625e-01
-4.32020312e-08,1.91710938e-01
-4.31620313e-08,1.91687500e-01
-4.31220312e-08,1.91714063e-01
-4.30820312e-08,1.91681250e-01
-4.30420312e-08,1.91728125e-01
-4.30020312e-08,1.91646875e-01
-4.29620312e-08,1.91904688e-01
-4.29220312e-08,1.92157812e-01
-4.28820313e-08,1.92064063e-01
-4.28420312e-08,1.92126563e-01
-4.28020312e-08,1.92075000e-01
-4.27620312e-08,1.92123437e-01
-4.27220312e-08,1.92073437e-01
-4.26820312e-08,1.92134375e-01
-4.26420312e-08,1.92042188e-01
-4.26020312e-08,1.92309375e-01
-4.25620312e-08,1.92554688e-01
-4.25220312e-08,1.92467187e-01
-4.24820312e-08,1.92525000e-01
-4.24420312e-08,1.92476563e-01
-4.24020312e-08,1.92523438e-01
-4.23620312e-08,1.92473438e-01
-4.23220312e-08,1.92535938e-01
-4.22820312e-08,1.92440625e-01
-4.22420312e-08,1.92712500e-01
-4.22020312e-08,1.92950000e-01
-4.21620312e-08,1.92873438e-01
-4.21220312e-08,1.92915625e-01
-4.20820313e-08,1.92889063e-01
-4.20420312e-08,1.92906250e-01
-4.20020312e-08,1.92896875e-01
-4.19620312e-08,1.92900000e-01
-4.19220312e-08,1.92903125e-01
-4.18820312e-08,1.92890625e-01
-4.18420312e-08,1.92918750e-01
-4.18020313e-08,1.92856250e-01
-4.17620312e-08,1.93096875e-01
-4.17220312e-08,1.93364063e-01
-4.16820312e-08,1.93259375e-01
-4.16420312e-08,1.93331250e-01
-4.16020312e-08,1.93273438e-01
-4.15620312e-08,1.93323438e-01
-4.15220313e-08,1.93278125e-01
-4.14820312e-08,1.93320313e-01
-4.14420312e-08,1.93279688e-01
-4.14020312e-08,1.93320313e-01
-4.13620312e-08,1.93279688e-01
-4.13220312e-08,1.93320313e-01
-4.12820312e-08,1.93278125e-01
-4.12420313e-08,1.93323438e-01
-4.12020312e-08,1.93273438e-01
-4.11620312e-08,1.93331250e-01
-4.11220312e-08,1.93259375e-01
-4.10820312e-08,1.93365625e-01
-4.10420312e-08,1.93081250e-01
-4.10020312e-08,1.92856250e-01
-4.09620313e-08,1.92920312e-01
-4.09220312e-08,1.92889063e-01
-4.08820312e-08,1.92906250e-01
-4.08420312e-08,1.92896875e-01
-4.08020312e-08,1.92901563e-01
-4.07620312e-08,1.92900000e-01
-4.07220312e-08,1.92898438e-01
-4.06820313e-08,1.92901563e-01
-4.06420312e-08,1.92896875e-01
-4.06020312e-08,1.92903125e-01
-4.05620312e-08,1.92895312e-01
-4.05220312e-08,1.92904688e-01
-4.04820312e-08,1.92895312e-01
-4.04420312e-08,1.92906250e-01
-4.04020312e-08,1.92893750e-01
-4.03620312e-08,1.92906250e-01
-4.03220312e-08,1.92892188e-01
-4.02820312e-08,1.92907812e-01
-4.02420312e-08,1.92890625e-01
-4.02020312e-08,1.92909375e-01
-4.01620313e-08,1.92889063e-01
-4.01220312e-08,1.92910938e-01
-4.00820312e-08,1.92887500e-01
-4.00420312e-08,1.92914063e-01
-4.00020312e-08,1.92882813e-01
-3.99620312e-08,1.92920312e-01
-3.99220312e-08,1.92875000e-01
-3.98820313e-08,1.92935938e-01
-3.98420312e-08,1.92839063e-01
-3.98020312e-08,1.93114063e-01
-3.97620312e-08,1.93346875e-01
-3.97220312e-08,1.93276562e-01
-3.96820312e-08,1.93312500e-01
-3.96420312e-08,1.93292188e-01
-3.96020313e-08,1.93303125e-01
-3.95620312e-08,1.93298438e-01
-3.95220312e-08,1.93298438e-01
-3.94820312e-08,1.93304688e-01
-3.94420312e-08,1.93292188e-01
-3.94020312e-08,1.93310938e-01
-3.93620312e-08,1.93282813e-01
-3.93220313e-08,1.93326563e-01
-3.92820312e-08,1.93246875e-01
-3.92420312e-08,1.93506250e-01
-3.92020312e-08,1.93756250e-01
-3.91620312e-08,1.93668750e-01
-3.91220312e-08,1.93721875e-01
-3.90820312e-08,1.93684375e-01
-3.90420313e-08,1.93712500e-01
-3.90020312e-08,1.93689063e-01
-3.89620312e-08,1.93709375e-01
-3.89220312e-08,1.93692188e-01
-3.88820312e-08,1.93706250e-01
-3.88420312e-08,1.93695312e-01
-3.88020312e-08,1.93703125e-01
-3.87620313e-08,1.93696875e-01
-3.87220312e-08,1.93701563e-01
-3.86820312e-08,1.93700000e-01
-3.86420312e-08,1.93698438e-01
-3.86020312e-08,1.93703125e-01
-3.85620312e-08,1.93693750e-01
-3.85220312e-08,1.93709375e-01
