trails/0bbf0cf1bfcc3246d9e376b62f80622a/aes_ch1_20250507112736746.csv

Model,MSO66B
Label,
Waveform Type,ANALOG
Horizontal Units,s
Sample Interval,4.00000000e-11
Record Length,10000
Zero Index,1599.07031250
Vertical Units,A
ANALOG_Thumbnail,
yOffset,1.84500000e-01
yPosition,8.40000000e-01

Labels,
TIME,CH1
-6.39628125e-08,1.89682813e-01
-6.39228125e-08,1.89714063e-01
-6.38828125e-08,1.89689063e-01
-6.38428125e-08,1.89709375e-01
-6.38028125e-08,1.89692187e-01
-6.37628125e-08,1.89706250e-01
-6.37228125e-08,1.89695313e-01
-6.36828125e-08,1.89703125e-01
-6.36428125e-08,1.89698438e-01
-6.36028125e-08,1.89698438e-01
-6.35628125e-08,1.89703125e-01
-6.35228125e-08,1.89692187e-01
-6.34828125e-08,1.89712500e-01
-6.34428125e-08,1.89678125e-01
-6.34028125e-08,1.89746875e-01
-6.33628125e-08,1.89498438e-01
-6.33228125e-08,1.89239062e-01
-6.32828125e-08,1.89337500e-01
-6.32428125e-08,1.89271875e-01
-6.32028125e-08,1.89321875e-01
-6.31628125e-08,1.89281250e-01
-6.31228125e-08,1.89317188e-01
-6.30828125e-08,1.89284375e-01
-6.30428125e-08,1.89314063e-01
-6.30028125e-08,1.89285938e-01
-6.29628125e-08,1.89312500e-01
-6.29228125e-08,1.89287500e-01
-6.28828125e-08,1.89312500e-01
-6.28428125e-08,1.89287500e-01
-6.28028125e-08,1.89312500e-01
-6.27628125e-08,1.89287500e-01
-6.27228125e-08,1.89312500e-01
-6.26828125e-08,1.89287500e-01
-6.26428125e-08,1.89312500e-01
-6.26028125e-08,1.89285938e-01
-6.25628125e-08,1.89314063e-01
-6.25228125e-08,1.89284375e-01
-6.24828125e-08,1.89317188e-01
-6.24428125e-08,1.89279688e-01
-6.24028125e-08,1.89325000e-01
-6.23628125e-08,1.89265625e-01
-6.23228125e-08,1.89359375e-01
-6.22828125e-08,1.89087500e-01
-6.22428125e-08,1.88850000e-01
-6.22028125e-08,1.88926563e-01
-6.21628125e-08,1.88882812e-01
-6.21228125e-08,1.88912500e-01
-6.20828125e-08,1.88890625e-01
-6.20428125e-08,1.88907812e-01
-6.20028125e-08,1.88893750e-01
-6.19628125e-08,1.88906250e-01
-6.19228125e-08,1.88895312e-01
-6.18828125e-08,1.88904688e-01
-6.18428125e-08,1.88896875e-01
-6.18028125e-08,1.88903125e-01
-6.17628125e-08,1.88896875e-01
-6.17228125e-08,1.88903125e-01
-6.16828125e-08,1.88896875e-01
-6.16428125e-08,1.88903125e-01
-6.16028125e-08,1.88898438e-01
-6.15628125e-08,1.88901563e-01
-6.15228125e-08,1.88898438e-01
-6.14828125e-08,1.88901563e-01
-6.14428125e-08,1.88898438e-01
-6.14028125e-08,1.88901563e-01
-6.13628125e-08,1.88898438e-01
-6.13228125e-08,1.88901563e-01
-6.12828125e-08,1.88898438e-01
-6.12428125e-08,1.88901563e-01
-6.12028125e-08,1.88898438e-01
-6.11628125e-08,1.88901563e-01
-6.11228125e-08,1.88898438e-01
-6.10828125e-08,1.88901563e-01
-6.10428125e-08,1.88898438e-01
-6.10028125e-08,1.88901563e-01
-6.09628125e-08,1.88898438e-01
-6.09228125e-08,1.88901563e-01
-6.08828125e-08,1.88898438e-01
-6.08428125e-08,1.88901563e-01
-6.08028125e-08,1.88898438e-01
-6.07628125e-08,1.88903125e-01
-6.07228125e-08,1.88896875e-01
-6.06828125e-08,1.88903125e-01
-6.06428125e-08,1.88896875e-01
-6.06028125e-08,1.88903125e-01
-6.05628125e-08,1.88896875e-01
-6.05228125e-08,1.88903125e-01
-6.04828125e-08,1.88896875e-01
-6.04428125e-08,1.88903125e-01
-6.04028125e-08,1.88896875e-01
-6.03628125e-08,1.88903125e-01
-6.03228125e-08,1.88896875e-01
-6.02828125e-08,1.88903125e-01
-6.02428125e-08,1.88895312e-01
-6.02028125e-08,1.88904688e-01
-6.01628125e-08,1.88895312e-01
-6.01228125e-08,1.88904688e-01
-6.00828125e-08,1.88895312e-01
-6.00428125e-08,1.88906250e-01
-6.00028125e-08,1.88893750e-01
-5.99628125e-08,1.88906250e-01
-5.99228125e-08,1.88892188e-01
-5.98828125e-08,1.88907812e-01
-5.98428125e-08,1.88890625e-01
-5.98028125e-08,1.88909375e-01
-5.97628125e-08,1.88889063e-01
-5.97228125e-08,1.88914063e-01
-5.96828125e-08,1.88882812e-01
-5.96428125e-08,1.88921875e-01
-5.96028125e-08,1.88868750e-01
-5.95628125e-08,1.88956250e-01
-5.95228125e-08,1.88690625e-01
-5.94828125e-08,1.88446875e-01
-5.94428125e-08,1.88529688e-01
-5.94028125e-08,1.88479687e-01
-5.93628125e-08,1.88514062e-01
-5.93228125e-08,1.88489062e-01
-5.92828125e-08,1.88509375e-01
-5.92428125e-08,1.88492188e-01
-5.92028125e-08,1.88506250e-01
-5.91628125e-08,1.88493750e-01
-5.91228125e-08,1.88504688e-01
-5.90828125e-08,1.88495313e-01
-5.90428125e-08,1.88504688e-01
-5.90028125e-08,1.88495313e-01
-5.89628125e-08,1.88503125e-01
-5.89228125e-08,1.88496875e-01
-5.88828125e-08,1.88503125e-01
-5.88428125e-08,1.88496875e-01
-5.88028125e-08,1.88503125e-01
-5.87628125e-08,1.88496875e-01
-5.87228125e-08,1.88503125e-01
-5.86828125e-08,1.88496875e-01
-5.86428125e-08,1.88504688e-01
-5.86028125e-08,1.88495313e-01
-5.85628125e-08,1.88506250e-01
-5.85228125e-08,1.88492188e-01
-5.84828125e-08,1.88509375e-01
-5.84428125e-08,1.88485938e-01
-5.84028125e-08,1.88523438e-01
-5.83628125e-08,1.88453125e-01
-5.83228125e-08,1.88698438e-01
-5.82828125e-08,1.88964063e-01
-5.82428125e-08,1.88857812e-01
-5.82028125e-08,1.88934375e-01
-5.81628125e-08,1.88867188e-01
-5.81228125e-08,1.88932813e-01
-5.80828125e-08,1.88864063e-01
-5.80428125e-08,1.88945313e-01
-5.80028125e-08,1.88829688e-01
-5.79628125e-08,1.89123438e-01
-5.79228125e-08,1.89339063e-01
-5.78828125e-08,1.89285938e-01
-5.78428125e-08,1.89303125e-01
-5.78028125e-08,1.89304688e-01
-5.77628125e-08,1.89287500e-01
-5.77228125e-08,1.89323437e-01
-5.76828125e-08,1.89250000e-01
-5.76428125e-08,1.89504688e-01
-5.76028125e-08,1.89757813e-01
-5.75628125e-08,1.89667188e-01
-5.75228125e-08,1.89723438e-01
-5.74828125e-08,1.89682813e-01
-5.74428125e-08,1.89714063e-01
-5.74028125e-08,1.89689063e-01
-5.73628125e-08,1.89709375e-01
-5.73228125e-08,1.89692187e-01
-5.72828125e-08,1.89707813e-01
-5.72428125e-08,1.89693750e-01
-5.72028125e-08,1.89706250e-01
-5.71628125e-08,1.89695313e-01
-5.71228125e-08,1.89704687e-01
-5.70828125e-08,1.89696875e-01
-5.70428125e-08,1.89703125e-01
-5.70028125e-08,1.89698438e-01
-5.69628125e-08,1.89701563e-01
-5.69228125e-08,1.89698438e-01
-5.68828125e-08,1.89700000e-01
-5.68428125e-08,1.89700000e-01
-5.68028125e-08,1.89698438e-01
-5.67628125e-08,1.89703125e-01
-5.67228125e-08,1.89695313e-01
-5.66828125e-08,1.89706250e-01
-5.66428125e-08,1.89690625e-01
-5.66028125e-08,1.89714063e-01
-5.65628125e-08,1.89676563e-01
-5.65228125e-08,1.89748438e-01
-5.64828125e-08,1.89498438e-01
-5.64428125e-08,1.89239062e-01
-5.64028125e-08,1.89337500e-01
-5.63628125e-08,1.89270313e-01
-5.63228125e-08,1.89325000e-01
-5.62828125e-08,1.89276562e-01
-5.62428125e-08,1.89323437e-01
-5.62028125e-08,1.89275000e-01
-5.61628125e-08,1.89328125e-01
-5.61228125e-08,1.89264062e-01
-5.60828125e-08,1.89360937e-01
-5.60428125e-08,1.89087500e-01
-5.60028125e-08,1.88850000e-01
-5.59628125e-08,1.88928125e-01
-5.59228125e-08,1.88881250e-01
-5.58828125e-08,1.88915625e-01
-5.58428125e-08,1.88887500e-01
-5.58028125e-08,1.88912500e-01
-5.57628125e-08,1.88887500e-01
-5.57228125e-08,1.88914063e-01
-5.56828125e-08,1.88884375e-01
-5.56428125e-08,1.88920313e-01
-5.56028125e-08,1.88870312e-01
-5.55628125e-08,1.88954687e-01
-5.55228125e-08,1.88693750e-01
-5.54828125e-08,1.88443750e-01
-5.54428125e-08,1.88532813e-01
-5.54028125e-08,1.88476562e-01
-5.53628125e-08,1.88518750e-01
-5.53228125e-08,1.88484375e-01
-5.52828125e-08,1.88514062e-01
-5.52428125e-08,1.88485938e-01
-5.52028125e-08,1.88512500e-01
-5.51628125e-08,1.88487500e-01
-5.51228125e-08,1.88512500e-01
-5.50828125e-08,1.88487500e-01
-5.50428125e-08,1.88514062e-01
-5.50028125e-08,1.88485938e-01
-5.49628125e-08,1.88517188e-01
-5.49228125e-08,1.88481250e-01
-5.48828125e-08,1.88523438e-01
-5.48428125e-08,1.88467188e-01
-5.48028125e-08,1.88557813e-01
-5.47628125e-08,1.88289062e-01
-5.47228125e-08,1.88048437e-01
-5.46828125e-08,1.88128125e-01
-5.46428125e-08,1.88081250e-01
-5.46028125e-08,1.88114063e-01
-5.45628125e-08,1.88089063e-01
-5.45228125e-08,1.88109375e-01
-5.44828125e-08,1.88092188e-01
-5.44428125e-08,1.88106250e-01
-5.44028125e-08,1.88095313e-01
-5.43628125e-08,1.88104688e-01
-5.43228125e-08,1.88096875e-01
-5.42828125e-08,1.88103125e-01
-5.42428125e-08,1.88096875e-01
-5.42028125e-08,1.88101563e-01
-5.41628125e-08,1.88098437e-01
-5.41228125e-08,1.88101563e-01
-5.40828125e-08,1.88100000e-01
-5.40428125e-08,1.88098437e-01
-5.40028125e-08,1.88103125e-01
-5.39628125e-08,1.88095313e-01
-5.39228125e-08,1.88109375e-01
-5.38828125e-08,1.88081250e-01
-5.38428125e-08,1.88142188e-01
-5.38028125e-08,1.87906250e-01
-5.37628125e-08,1.87629688e-01
-5.37228125e-08,1.87750000e-01
-5.36828125e-08,1.87654688e-01
-5.36428125e-08,1.87750000e-01
-5.36028125e-08,1.87628125e-01
-5.35628125e-08,1.87923438e-01
-5.35228125e-08,1.88140625e-01
-5.34828125e-08,1.88082813e-01
-5.34428125e-08,1.88107812e-01
-5.34028125e-08,1.88095313e-01
-5.33628125e-08,1.88101563e-01
-5.33228125e-08,1.88100000e-01
-5.32828125e-08,1.88098437e-01
-5.32428125e-08,1.88103125e-01
-5.32028125e-08,1.88096875e-01
-5.31628125e-08,1.88104688e-01
-5.31228125e-08,1.88095313e-01
-5.30828125e-08,1.88106250e-01
-5.30428125e-08,1.88093750e-01
-5.30028125e-08,1.88107812e-01
-5.29628125e-08,1.88092188e-01
-5.29228125e-08,1.88109375e-01
-5.28828125e-08,1.88089063e-01
-5.28428125e-08,1.88112500e-01
-5.28028125e-08,1.88085937e-01
-5.27628125e-08,1.88117188e-01
-5.27228125e-08,1.88076563e-01
-5.26828125e-08,1.88132812e-01
-5.26428125e-08,1.88042188e-01
-5.26028125e-08,1.88310937e-01
-5.25628125e-08,1.88551563e-01
-5.25228125e-08,1.88473438e-01
-5.24828125e-08,1.88517188e-01
-5.24428125e-08,1.88487500e-01
-5.24028125e-08,1.88509375e-01
-5.23628125e-08,1.88493750e-01
-5.23228125e-08,1.88504688e-01
-5.22828125e-08,1.88496875e-01
-5.22428125e-08,1.88503125e-01
-5.22028125e-08,1.88498438e-01
-5.21628125e-08,1.88501562e-01
-5.21228125e-08,1.88500000e-01
-5.20828125e-08,1.88500000e-01
-5.20428125e-08,1.88501562e-01
-5.20028125e-08,1.88498438e-01
-5.19628125e-08,1.88503125e-01
-5.19228125e-08,1.88496875e-01
-5.18828125e-08,1.88504688e-01
-5.18428125e-08,1.88495313e-01
-5.18028125e-08,1.88506250e-01
-5.17628125e-08,1.88492188e-01
-5.17228125e-08,1.88509375e-01
-5.16828125e-08,1.88489062e-01
-5.16428125e-08,1.88512500e-01
-5.16028125e-08,1.88484375e-01
-5.15628125e-08,1.88521875e-01
-5.15228125e-08,1.88468750e-01
-5.14828125e-08,1.88556250e-01
-5.14428125e-08,1.88289062e-01
-5.14028125e-08,1.88048437e-01
-5.13628125e-08,1.88128125e-01
-5.13228125e-08,1.88082813e-01
-5.12828125e-08,1.88112500e-01
-5.12428125e-08,1.88090625e-01
-5.12028125e-08,1.88106250e-01
-5.11628125e-08,1.88096875e-01
-5.11228125e-08,1.88101563e-01
-5.10828125e-08,1.88100000e-01
-5.10428125e-08,1.88096875e-01
-5.10028125e-08,1.88104688e-01
-5.09628125e-08,1.88090625e-01
-5.09228125e-08,1.88114063e-01
-5.08828125e-08,1.88075000e-01
-5.08428125e-08,1.88150000e-01
-5.08028125e-08,1.87896875e-01
-5.07628125e-08,1.87640625e-01
-5.07228125e-08,1.87735938e-01
-5.06828125e-08,1.87675000e-01
-5.06428125e-08,1.87720313e-01
-5.06028125e-08,1.87682813e-01
-5.05628125e-08,1.87715625e-01
-5.05228125e-08,1.87685938e-01
-5.04828125e-08,1.87714063e-01
-5.04428125e-08,1.87685938e-01
-5.04028125e-08,1.87714063e-01
-5.03628125e-08,1.87684375e-01
-5.03228125e-08,1.87717187e-01
-5.02828125e-08,1.87678125e-01
-5.02428125e-08,1.87729688e-01
-5.02028125e-08,1.87646875e-01
-5.01628125e-08,1.87906250e-01
-5.01228125e-08,1.88157813e-01
-5.00828125e-08,1.88065625e-01
-5.00428125e-08,1.88126563e-01
-5.00028125e-08,1.88076563e-01
-4.99628125e-08,1.88123438e-01
-4.99228125e-08,1.88076563e-01
-4.98828125e-08,1.88126563e-01
-4.98428125e-08,1.88068750e-01
-4.98028125e-08,1.88140625e-01
-4.97628125e-08,1.88034375e-01
-4.97228125e-08,1.88318750e-01
-4.96828125e-08,1.88542188e-01
-4.96428125e-08,1.88482813e-01
-4.96028125e-08,1.88504688e-01
-4.95628125e-08,1.88503125e-01
-4.95228125e-08,1.88489062e-01
-4.94828125e-08,1.88523438e-01
-4.94428125e-08,1.88450000e-01
-4.94028125e-08,1.88704687e-01
-4.93628125e-08,1.88956250e-01
-4.93228125e-08,1.88870312e-01
-4.92828125e-08,1.88918750e-01
-4.92428125e-08,1.88887500e-01
-4.92028125e-08,1.88906250e-01
-4.91628125e-08,1.88898438e-01
-4.91228125e-08,1.88893750e-01
-4.90828125e-08,1.88917188e-01
-4.90428125e-08,1.88857812e-01
-4.90028125e-08,1.89096875e-01
-4.89628125e-08,1.89364063e-01
-4.89228125e-08,1.89259375e-01
-4.88828125e-08,1.89329688e-01
-4.88428125e-08,1.89275000e-01
-4.88028125e-08,1.89320313e-01
-4.87628125e-08,1.89281250e-01
-4.87228125e-08,1.89315625e-01
-4.86828125e-08,1.89285938e-01
-4.86428125e-08,1.89312500e-01
-4.86028125e-08,1.89289062e-01
-4.85628125e-08,1.89310937e-01
-4.85228125e-08,1.89290625e-01
-4.84828125e-08,1.89307813e-01
-4.84428125e-08,1.89293750e-01
-4.84028125e-08,1.89304688e-01
-4.83628125e-08,1.89296875e-01
-4.83228125e-08,1.89301563e-01
-4.82828125e-08,1.89301563e-01
-4.82428125e-08,1.89292188e-01
-4.82028125e-08,1.89317188e-01
-4.81628125e-08,1.89257813e-01
-4.81228125e-08,1.89495313e-01
-4.80828125e-08,1.89767188e-01
-4.80428125e-08,1.89657812e-01
-4.80028125e-08,1.89732813e-01
-4.79628125e-08,1.89671875e-01
-4.79228125e-08,1.89725000e-01
-4.78828125e-08,1.89676563e-01
-4.78428125e-08,1.89721875e-01
-4.78028125e-08,1.89679687e-01
-4.77628125e-08,1.89720313e-01
-4.77228125e-08,1.89679687e-01
-4.76828125e-08,1.89718750e-01
-4.76428125e-08,1.89681250e-01
-4.76028125e-08,1.89718750e-01
-4.75628125e-08,1.89679687e-01
-4.75228125e-08,1.89720313e-01
-4.74828125e-08,1.89679687e-01
-4.74428125e-08,1.89721875e-01
-4.74028125e-08,1.89676563e-01
-4.73628125e-08,1.89726563e-01
-4.73228125e-08,1.89668750e-01
-4.72828125e-08,1.89740625e-01
-4.72428125e-08,1.89634375e-01
-4.72028125e-08,1.89918750e-01
-4.71628125e-08,1.90143750e-01
-4.71228125e-08,1.90079688e-01
-4.70828125e-08,1.90110938e-01
-4.70428125e-08,1.90093750e-01
-4.70028125e-08,1.90103125e-01
-4.69628125e-08,1.90098437e-01
-4.69228125e-08,1.90100000e-01
-4.68828125e-08,1.90101563e-01
-4.68428125e-08,1.90098437e-01
-4.68028125e-08,1.90101563e-01
-4.67628125e-08,1.90096875e-01
-4.67228125e-08,1.90103125e-01
-4.66828125e-08,1.90096875e-01
-4.66428125e-08,1.90103125e-01
-4.66028125e-08,1.90096875e-01
-4.65628125e-08,1.90103125e-01
-4.65228125e-08,1.90096875e-01
-4.64828125e-08,1.90103125e-01
-4.64428125e-08,1.90096875e-01
-4.64028125e-08,1.90103125e-01
-4.63628125e-08,1.90096875e-01
-4.63228125e-08,1.90103125e-01
-4.62828125e-08,1.90096875e-01
-4.62428125e-08,1.90101563e-01
-4.62028125e-08,1.90098437e-01
-4.61628125e-08,1.90100000e-01
-4.61228125e-08,1.90101563e-01
-4.60828125e-08,1.90095313e-01
-4.60428125e-08,1.90109375e-01
-4.60028125e-08,1.90081250e-01
-4.59628125e-08,1.90143750e-01
-4.59228125e-08,1.89904688e-01
-4.58828125e-08,1.89632812e-01
-4.58428125e-08,1.89743750e-01
-4.58028125e-08,1.89664063e-01
-4.57628125e-08,1.89731250e-01
-4.57228125e-08,1.89670312e-01
-4.56828125e-08,1.89728125e-01
-4.56428125e-08,1.89671875e-01
-4.56028125e-08,1.89729688e-01
-4.55628125e-08,1.89667188e-01
-4.55228125e-08,1.89737500e-01
-4.54828125e-08,1.89653125e-01
-4.54428125e-08,1.89771875e-01
-4.54028125e-08,1.89475000e-01
-4.53628125e-08,1.89262500e-01
-4.53228125e-08,1.89314063e-01
-4.52828125e-08,1.89295313e-01
-4.52428125e-08,1.89298437e-01
-4.52028125e-08,1.89304688e-01
-4.51628125e-08,1.89292188e-01
-4.51228125e-08,1.89310937e-01
-4.50828125e-08,1.89287500e-01
-4.50428125e-08,1.89315625e-01
-4.50028125e-08,1.89279688e-01
-4.49628125e-08,1.89325000e-01
-4.49228125e-08,1.89264062e-01
-4.48828125e-08,1.89360937e-01
-4.48428125e-08,1.89084375e-01
-4.48028125e-08,1.88853125e-01
-4.47628125e-08,1.88923438e-01
-4.47228125e-08,1.88887500e-01
-4.46828125e-08,1.88907812e-01
-4.46428125e-08,1.88895312e-01
-4.46028125e-08,1.88901563e-01
-4.45628125e-08,1.88900000e-01
-4.45228125e-08,1.88898438e-01
-4.44828125e-08,1.88903125e-01
-4.44428125e-08,1.88895312e-01
-4.44028125e-08,1.88906250e-01
-4.43628125e-08,1.88892188e-01
-4.43228125e-08,1.88909375e-01
-4.42828125e-08,1.88890625e-01
-4.42428125e-08,1.88910938e-01
-4.42028125e-08,1.88887500e-01
-4.41628125e-08,1.88915625e-01
-4.41228125e-08,1.88882812e-01
-4.40828125e-08,1.88920313e-01
-4.40428125e-08,1.88875000e-01
-4.40028125e-08,1.88932813e-01
-4.39628125e-08,1.88856250e-01
-4.39228125e-08,1.88971875e-01
-4.38828125e-08,1.88668750e-01
-4.38428125e-08,1.88478125e-01
-4.38028125e-08,1.88471875e-01
-4.37628125e-08,1.88690625e-01
-4.37228125e-08,1.88967187e-01
-4.36828125e-08,1.88860938e-01
-4.36428125e-08,1.88928125e-01
-4.36028125e-08,1.88879688e-01
-4.35628125e-08,1.88917188e-01
-4.35228125e-08,1.88887500e-01
-4.34828125e-08,1.88910938e-01
-4.34428125e-08,1.88890625e-01
-4.34028125e-08,1.88906250e-01
-4.33628125e-08,1.88895312e-01
-4.33228125e-08,1.88903125e-01
-4.32828125e-08,1.88898438e-01
-4.32428125e-08,1.88901563e-01
-4.32028125e-08,1.88900000e-01
-4.31628125e-08,1.88896875e-01
-4.31228125e-08,1.88904688e-01
-4.30828125e-08,1.88892188e-01
-4.30428125e-08,1.88910938e-01
-4.30028125e-08,1.88884375e-01
-4.29628125e-08,1.88926563e-01
-4.29228125e-08,1.88848438e-01
-4.28828125e-08,1.89106250e-01
-4.28428125e-08,1.89356250e-01
-4.28028125e-08,1.89268750e-01
-4.27628125e-08,1.89321875e-01
-4.27228125e-08,1.89282813e-01
-4.26828125e-08,1.89312500e-01
-4.26428125e-08,1.89289062e-01
-4.26028125e-08,1.89307813e-01
-4.25628125e-08,1.89293750e-01
-4.25228125e-08,1.89303125e-01
-4.24828125e-08,1.89298437e-01
-4.24428125e-08,1.89298437e-01
-4.24028125e-08,1.89304688e-01
-4.23628125e-08,1.89289062e-01
-4.23228125e-08,1.89320313e-01
-4.22828125e-08,1.89254688e-01
-4.22428125e-08,1.89498438e-01
-4.22028125e-08,1.89764062e-01
-4.21628125e-08,1.89660938e-01
-4.21228125e-08,1.89729688e-01
-4.20828125e-08,1.89675000e-01
-4.20428125e-08,1.89721875e-01
-4.20028125e-08,1.89679687e-01
-4.19628125e-08,1.89718750e-01
-4.19228125e-08,1.89682813e-01
-4.18828125e-08,1.89717187e-01
-4.18428125e-08,1.89682813e-01
-4.18028125e-08,1.89717187e-01
-4.17628125e-08,1.89682813e-01
-4.17228125e-08,1.89717187e-01
-4.16828125e-08,1.89681250e-01
-4.16428125e-08,1.89720313e-01
-4.16028125e-08,1.89678125e-01
-4.15628125e-08,1.89726563e-01
-4.15228125e-08,1.89664063e-01
-4.14828125e-08,1.89760938e-01
-4.14428125e-08,1.89485938e-01
-4.14028125e-08,1.89251562e-01
-4.13628125e-08,1.89325000e-01
-4.13228125e-08,1.89284375e-01
-4.12828125e-08,1.89310937e-01
-4.12428125e-08,1.89290625e-01
-4.12028125e-08,1.89307813e-01
-4.11628125e-08,1.89293750e-01
-4.11228125e-08,1.89304688e-01
-4.10828125e-08,1.89295313e-01
-4.10428125e-08,1.89304688e-01
-4.10028125e-08,1.89295313e-01
-4.09628125e-08,1.89304688e-01
-4.09228125e-08,1.89295313e-01
-4.08828125e-08,1.89304688e-01
-4.08428125e-08,1.89295313e-01
-4.08028125e-08,1.89304688e-01
-4.07628125e-08,1.89293750e-01
-4.07228125e-08,1.89307813e-01
-4.06828125e-08,1.89292188e-01
-4.06428125e-08,1.89310937e-01
-4.06028125e-08,1.89285938e-01
-4.05628125e-08,1.89318750e-01
-4.05228125e-08,1.89271875e-01
-4.04828125e-08,1.89353125e-01
-4.04428125e-08,1.89093750e-01
-4.04028125e-08,1.88843750e-01
-4.03628125e-08,1.88932813e-01
-4.03228125e-08,1.88876563e-01
-4.02828125e-08,1.88918750e-01
-4.02428125e-08,1.88884375e-01
-4.02028125e-08,1.88914063e-01
-4.01628125e-08,1.88887500e-01
-4.01228125e-08,1.88910938e-01
-4.00828125e-08,1.88890625e-01
-4.00428125e-08,1.88909375e-01
-4.00028125e-08,1.88890625e-01
-3.99628125e-08,1.88907812e-01
-3.99228125e-08,1.88892188e-01
-3.98828125e-08,1.88907812e-01
-3.98428125e-08,1.88892188e-01
-3.98028125e-08,1.88907812e-01
-3.97628125e-08,1.88893750e-01
-3.97228125e-08,1.88906250e-01
-3.96828125e-08,1.88893750e-01
-3.96428125e-08,1.88906250e-01
-3.96028125e-08,1.88893750e-01
-3.95628125e-08,1.88906250e-01
-3.95228125e-08,1.88893750e-01
-3.94828125e-08,1.88906250e-01
-3.94428125e-08,1.88893750e-01
-3.94028125e-08,1.88906250e-01
-3.93628125e-08,1.88893750e-01
-3.93228125e-08,1.88906250e-01
-3.92828125e-08,1.88893750e-01
-3.92428125e-08,1.88906250e-01
-3.92028125e-08,1.88893750e-01
-3.91628125e-08,1.88906250e-01
-3.91228125e-08,1.88893750e-01
-3.90828125e-08,1.88906250e-01
-3.90428125e-08,1.88893750e-01
-3.90028125e-08,1.88906250e-01
-3.89628125e-08,1.88893750e-01
-3.89228125e-08,1.88906250e-01
-3.88828125e-08,1.88893750e-01
-3.88428125e-08,1.88906250e-01
-3.88028125e-08,1.88893750e-01
-3.87628125e-08,1.88906250e-01
-3.87228125e-08,1.88893750e-01
-3.86828125e-08,1.88906250e-01
-3.86428125e-08,1.88893750e-01
-3.86028125e-08,1.88906250e-01
-3.85628125e-08,1.88893750e-01
-3.85228125e-08,1.88906250e-01
