trails/0bbf0cf1bfcc3246d9e376b62f80622a/aes_ch1_20250507113328045.csv

Model,MSO66B
Label,
Waveform Type,ANALOG
Horizontal Units,s
Sample Interval,4.00000000e-11
Record Length,10000
Zero Index,1599.08203125
Vertical Units,A
ANALOG_Thumbnail,
yOffset,1.84500000e-01
yPosition,8.40000000e-01

Labels,
TIME,CH1
-6.39632812e-08,1.87287500e-01
-6.39232812e-08,1.87317188e-01
-6.38832812e-08,1.87273438e-01
-6.38432812e-08,1.87350000e-01
-6.38032812e-08,1.87096875e-01
-6.37632813e-08,1.86840625e-01
-6.37232812e-08,1.86935938e-01
-6.36832812e-08,1.86873438e-01
-6.36432812e-08,1.86923438e-01
-6.36032812e-08,1.86879688e-01
-6.35632812e-08,1.86918750e-01
-6.35232812e-08,1.86881250e-01
-6.34832813e-08,1.86918750e-01
-6.34432812e-08,1.86881250e-01
-6.34032812e-08,1.86918750e-01
-6.33632812e-08,1.86879688e-01
-6.33232812e-08,1.86921875e-01
-6.32832812e-08,1.86875000e-01
-6.32432812e-08,1.86929687e-01
-6.32032813e-08,1.86860938e-01
-6.31632812e-08,1.86964063e-01
-6.31232812e-08,1.86682813e-01
-6.30832812e-08,1.86454687e-01
-6.30432812e-08,1.86521875e-01
-6.30032812e-08,1.86487500e-01
-6.29632812e-08,1.86506250e-01
-6.29232813e-08,1.86496875e-01
-6.28832812e-08,1.86501562e-01
-6.28432812e-08,1.86500000e-01
-6.28032812e-08,1.86498438e-01
-6.27632812e-08,1.86501562e-01
-6.27232812e-08,1.86496875e-01
-6.26832812e-08,1.86504688e-01
-6.26432813e-08,1.86495313e-01
-6.26032812e-08,1.86506250e-01
-6.25632812e-08,1.86493750e-01
-6.25232812e-08,1.86507813e-01
-6.24832812e-08,1.86492188e-01
-6.24432812e-08,1.86509375e-01
-6.24032812e-08,1.86489062e-01
-6.23632813e-08,1.86512500e-01
-6.23232812e-08,1.86485938e-01
-6.22832812e-08,1.86515625e-01
-6.22432812e-08,1.86481250e-01
-6.22032812e-08,1.86525000e-01
-6.21632812e-08,1.86465625e-01
-6.21232812e-08,1.86559375e-01
-6.20832813e-08,1.86287500e-01
-6.20432812e-08,1.86051563e-01
-6.20032812e-08,1.86125000e-01
-6.19632812e-08,1.86084375e-01
-6.19232812e-08,1.86109375e-01
-6.18832813e-08,1.86093750e-01
-6.18432812e-08,1.86104688e-01
-6.18032813e-08,1.86098438e-01
-6.17632812e-08,1.86100000e-01
-6.17232812e-08,1.86100000e-01
-6.16832812e-08,1.86098438e-01
-6.16432812e-08,1.86103125e-01
-6.16032813e-08,1.86095312e-01
-6.15632812e-08,1.86104688e-01
-6.15232813e-08,1.86093750e-01
-6.14832812e-08,1.86107812e-01
-6.14432812e-08,1.86090625e-01
-6.14032812e-08,1.86110938e-01
-6.13632812e-08,1.86087500e-01
-6.13232813e-08,1.86114063e-01
-6.12832812e-08,1.86082812e-01
-6.12432813e-08,1.86121875e-01
-6.12032812e-08,1.86071875e-01
-6.11632812e-08,1.86139063e-01
-6.11232812e-08,1.86034375e-01
-6.10832812e-08,1.86320313e-01
-6.10432813e-08,1.86539063e-01
-6.10032812e-08,1.86490625e-01
-6.09632813e-08,1.86490625e-01
-6.09232812e-08,1.86540625e-01
-6.08832812e-08,1.86303125e-01
-6.08432812e-08,1.86035937e-01
-6.08032812e-08,1.86137500e-01
-6.07632813e-08,1.86073437e-01
-6.07232812e-08,1.86120312e-01
-6.06832813e-08,1.86082812e-01
-6.06432812e-08,1.86114063e-01
-6.06032812e-08,1.86087500e-01
-6.05632812e-08,1.86109375e-01
-6.05232812e-08,1.86092188e-01
-6.04832813e-08,1.86106250e-01
-6.04432812e-08,1.86095312e-01
-6.04032813e-08,1.86104688e-01
-6.03632812e-08,1.86096875e-01
-6.03232812e-08,1.86101563e-01
-6.02832812e-08,1.86100000e-01
-6.02432812e-08,1.86096875e-01
-6.02032813e-08,1.86104688e-01
-6.01632812e-08,1.86092188e-01
-6.01232813e-08,1.86114063e-01
-6.00832812e-08,1.86076563e-01
-6.00432812e-08,1.86148438e-01
-6.00032812e-08,1.85898438e-01
-5.99632812e-08,1.85640625e-01
-5.99232813e-08,1.85735938e-01
-5.98832812e-08,1.85673438e-01
-5.98432812e-08,1.85720313e-01
-5.98032812e-08,1.85682813e-01
-5.97632812e-08,1.85715625e-01
-5.97232812e-08,1.85685938e-01
-5.96832812e-08,1.85712500e-01
-5.96432813e-08,1.85689063e-01
-5.96032812e-08,1.85710938e-01
-5.95632812e-08,1.85690625e-01
-5.95232812e-08,1.85709375e-01
-5.94832812e-08,1.85692187e-01
-5.94432812e-08,1.85707813e-01
-5.94032812e-08,1.85692187e-01
-5.93632812e-08,1.85707813e-01
-5.93232812e-08,1.85693750e-01
-5.92832812e-08,1.85706250e-01
-5.92432812e-08,1.85693750e-01
-5.92032812e-08,1.85706250e-01
-5.91632812e-08,1.85695313e-01
-5.91232812e-08,1.85704688e-01
-5.90832812e-08,1.85695313e-01
-5.90432812e-08,1.85704688e-01
-5.90032812e-08,1.85695313e-01
-5.89632812e-08,1.85703125e-01
-5.89232812e-08,1.85696875e-01
-5.88832812e-08,1.85703125e-01
-5.88432812e-08,1.85698438e-01
-5.88032812e-08,1.85701563e-01
-5.87632812e-08,1.85700000e-01
-5.87232812e-08,1.85700000e-01
-5.86832812e-08,1.85701563e-01
-5.86432812e-08,1.85696875e-01
-5.86032812e-08,1.85706250e-01
-5.85632812e-08,1.85689063e-01
-5.85232812e-08,1.85720313e-01
-5.84832812e-08,1.85654687e-01
-5.84432812e-08,1.85898438e-01
-5.84032812e-08,1.86164063e-01
-5.83632812e-08,1.86057813e-01
-5.83232812e-08,1.86132812e-01
-5.82832812e-08,1.86070313e-01
-5.82432812e-08,1.86128125e-01
-5.82032812e-08,1.86071875e-01
-5.81632812e-08,1.86129688e-01
-5.81232812e-08,1.86067188e-01
-5.80832812e-08,1.86142188e-01
-5.80432812e-08,1.86032813e-01
-5.80032812e-08,1.86318750e-01
-5.79632812e-08,1.86543750e-01
-5.79232812e-08,1.86481250e-01
-5.78832812e-08,1.86509375e-01
-5.78432812e-08,1.86495313e-01
-5.78032812e-08,1.86500000e-01
-5.77632812e-08,1.86501562e-01
-5.77232812e-08,1.86495313e-01
-5.76832812e-08,1.86509375e-01
-5.76432812e-08,1.86485938e-01
-5.76032812e-08,1.86525000e-01
-5.75632812e-08,1.86450000e-01
-5.75232812e-08,1.86701563e-01
-5.74832812e-08,1.86959375e-01
-5.74432812e-08,1.86864063e-01
-5.74032812e-08,1.86928125e-01
-5.73632812e-08,1.86876563e-01
-5.73232812e-08,1.86921875e-01
-5.72832812e-08,1.86879688e-01
-5.72432812e-08,1.86920313e-01
-5.72032812e-08,1.86878125e-01
-5.71632812e-08,1.86923438e-01
-5.71232812e-08,1.86871875e-01
-5.70832812e-08,1.86937500e-01
-5.70432812e-08,1.86837500e-01
-5.70032812e-08,1.87115625e-01
-5.69632812e-08,1.87346875e-01
-5.69232812e-08,1.87276563e-01
-5.68832812e-08,1.87314063e-01
-5.68432812e-08,1.87290625e-01
-5.68032812e-08,1.87306250e-01
-5.67632812e-08,1.87296875e-01
-5.67232812e-08,1.87301563e-01
-5.66832812e-08,1.87301563e-01
-5.66432812e-08,1.87296875e-01
-5.66032812e-08,1.87304688e-01
-5.65632812e-08,1.87292188e-01
-5.65232812e-08,1.87310937e-01
-5.64832812e-08,1.87284375e-01
-5.64432812e-08,1.87326563e-01
-5.64032812e-08,1.87248438e-01
-5.63632812e-08,1.87504688e-01
-5.63232812e-08,1.87757813e-01
-5.62832812e-08,1.87667187e-01
-5.62432812e-08,1.87723438e-01
-5.62032812e-08,1.87681250e-01
-5.61632812e-08,1.87715625e-01
-5.61232812e-08,1.87685938e-01
-5.60832812e-08,1.87712500e-01
-5.60432812e-08,1.87689063e-01
-5.60032812e-08,1.87709375e-01
-5.59632812e-08,1.87690625e-01
-5.59232812e-08,1.87707813e-01
-5.58832812e-08,1.87692187e-01
-5.58432812e-08,1.87707813e-01
-5.58032812e-08,1.87693750e-01
-5.57632812e-08,1.87706250e-01
-5.57232812e-08,1.87693750e-01
-5.56832812e-08,1.87706250e-01
-5.56432812e-08,1.87693750e-01
-5.56032812e-08,1.87704687e-01
-5.55632812e-08,1.87695313e-01
-5.55232812e-08,1.87704687e-01
-5.54832812e-08,1.87695313e-01
-5.54432812e-08,1.87704687e-01
-5.54032812e-08,1.87695313e-01
-5.53632812e-08,1.87703125e-01
-5.53232812e-08,1.87696875e-01
-5.52832812e-08,1.87703125e-01
-5.52432812e-08,1.87696875e-01
-5.52032812e-08,1.87703125e-01
-5.51632812e-08,1.87696875e-01
-5.51232812e-08,1.87701563e-01
-5.50832812e-08,1.87698438e-01
-5.50432812e-08,1.87701563e-01
-5.50032812e-08,1.87698438e-01
-5.49632812e-08,1.87700000e-01
-5.49232812e-08,1.87700000e-01
-5.48832812e-08,1.87698438e-01
-5.48432812e-08,1.87703125e-01
-5.48032812e-08,1.87696875e-01
-5.47632812e-08,1.87706250e-01
-5.47232812e-08,1.87690625e-01
-5.46832812e-08,1.87714063e-01
-5.46432812e-08,1.87676563e-01
-5.46032812e-08,1.87748438e-01
-5.45632812e-08,1.87498438e-01
-5.45232812e-08,1.87239062e-01
-5.44832812e-08,1.87337500e-01
-5.44432812e-08,1.87271875e-01
-5.44032812e-08,1.87323437e-01
-5.43632812e-08,1.87279688e-01
-5.43232812e-08,1.87318750e-01
-5.42832812e-08,1.87282813e-01
-5.42432812e-08,1.87317188e-01
-5.42032812e-08,1.87284375e-01
-5.41632812e-08,1.87315625e-01
-5.41232812e-08,1.87284375e-01
-5.40832812e-08,1.87315625e-01
-5.40432812e-08,1.87284375e-01
-5.40032812e-08,1.87317188e-01
-5.39632812e-08,1.87282813e-01
-5.39232812e-08,1.87318750e-01
-5.38832812e-08,1.87279688e-01
-5.38432812e-08,1.87323437e-01
-5.38032812e-08,1.87271875e-01
-5.37632812e-08,1.87337500e-01
-5.37232812e-08,1.87237500e-01
-5.36832812e-08,1.87515625e-01
-5.36432812e-08,1.87746875e-01
-5.36032812e-08,1.87676563e-01
-5.35632812e-08,1.87714063e-01
-5.35232812e-08,1.87690625e-01
-5.34832812e-08,1.87706250e-01
-5.34432812e-08,1.87695313e-01
-5.34032812e-08,1.87703125e-01
-5.33632812e-08,1.87698438e-01
-5.33232812e-08,1.87700000e-01
-5.32832812e-08,1.87700000e-01
-5.32432812e-08,1.87698438e-01
-5.32032812e-08,1.87701563e-01
-5.31632812e-08,1.87698438e-01
-5.31232812e-08,1.87703125e-01
-5.30832812e-08,1.87696875e-01
-5.30432812e-08,1.87703125e-01
-5.30032812e-08,1.87696875e-01
-5.29632812e-08,1.87704687e-01
-5.29232812e-08,1.87695313e-01
-5.28832812e-08,1.87704687e-01
-5.28432812e-08,1.87693750e-01
-5.28032812e-08,1.87706250e-01
-5.27632812e-08,1.87692187e-01
-5.27232812e-08,1.87707813e-01
-5.26832812e-08,1.87690625e-01
-5.26432812e-08,1.87710938e-01
-5.26032812e-08,1.87685938e-01
-5.25632813e-08,1.87718750e-01
-5.25232812e-08,1.87670313e-01
-5.24832812e-08,1.87753125e-01
-5.24432812e-08,1.87493750e-01
-5.24032812e-08,1.87243750e-01
-5.23632812e-08,1.87332813e-01
-5.23232812e-08,1.87275000e-01
-5.22832812e-08,1.87320313e-01
-5.22432812e-08,1.87281250e-01
-5.22032812e-08,1.87318750e-01
-5.21632812e-08,1.87279688e-01
-5.21232812e-08,1.87323437e-01
-5.20832812e-08,1.87268750e-01
-5.20432812e-08,1.87356250e-01
-5.20032812e-08,1.87092188e-01
-5.19632812e-08,1.86843750e-01
-5.19232812e-08,1.86932813e-01
-5.18832812e-08,1.86875000e-01
-5.18432812e-08,1.86921875e-01
-5.18032812e-08,1.86879688e-01
-5.17632812e-08,1.86920313e-01
-5.17232812e-08,1.86878125e-01
-5.16832812e-08,1.86926563e-01
-5.16432812e-08,1.86865625e-01
-5.16032812e-08,1.86959375e-01
-5.15632812e-08,1.86687500e-01
-5.15232812e-08,1.86448438e-01
-5.14832812e-08,1.86526562e-01
-5.14432812e-08,1.86481250e-01
-5.14032812e-08,1.86514062e-01
-5.13632812e-08,1.86489062e-01
-5.13232812e-08,1.86509375e-01
-5.12832812e-08,1.86492188e-01
-5.12432812e-08,1.86506250e-01
-5.12032812e-08,1.86493750e-01
-5.11632812e-08,1.86504688e-01
-5.11232812e-08,1.86495313e-01
-5.10832812e-08,1.86504688e-01
-5.10432812e-08,1.86495313e-01
-5.10032812e-08,1.86504688e-01
-5.09632812e-08,1.86495313e-01
-5.09232812e-08,1.86504688e-01
-5.08832812e-08,1.86496875e-01
-5.08432812e-08,1.86503125e-01
-5.08032812e-08,1.86496875e-01
-5.07632812e-08,1.86504688e-01
-5.07232812e-08,1.86495313e-01
-5.06832812e-08,1.86504688e-01
-5.06432813e-08,1.86495313e-01
-5.06032812e-08,1.86504688e-01
-5.05632812e-08,1.86495313e-01
-5.05232812e-08,1.86504688e-01
-5.04832812e-08,1.86493750e-01
-5.04432812e-08,1.86506250e-01
-5.04032812e-08,1.86492188e-01
-5.03632813e-08,1.86507813e-01
-5.03232812e-08,1.86490625e-01
-5.02832812e-08,1.86512500e-01
-5.02432812e-08,1.86485938e-01
-5.02032812e-08,1.86520313e-01
-5.01632812e-08,1.86470313e-01
-5.01232812e-08,1.86554688e-01
-5.00832812e-08,1.86292188e-01
-5.00432812e-08,1.86045313e-01
-5.00032812e-08,1.86131250e-01
-4.99632812e-08,1.86078125e-01
-4.99232812e-08,1.86117188e-01
-4.98832812e-08,1.86085938e-01
-4.98432812e-08,1.86112500e-01
-4.98032812e-08,1.86089063e-01
-4.97632812e-08,1.86109375e-01
-4.97232812e-08,1.86090625e-01
-4.96832812e-08,1.86107812e-01
-4.96432812e-08,1.86092188e-01
-4.96032812e-08,1.86106250e-01
-4.95632812e-08,1.86093750e-01
-4.95232812e-08,1.86106250e-01
-4.94832812e-08,1.86093750e-01
-4.94432812e-08,1.86106250e-01
-4.94032812e-08,1.86093750e-01
-4.93632812e-08,1.86106250e-01
-4.93232812e-08,1.86095312e-01
-4.92832812e-08,1.86104688e-01
-4.92432812e-08,1.86095312e-01
-4.92032812e-08,1.86104688e-01
-4.91632812e-08,1.86095312e-01
-4.91232812e-08,1.86104688e-01
-4.90832812e-08,1.86095312e-01
-4.90432812e-08,1.86104688e-01
-4.90032812e-08,1.86095312e-01
-4.89632812e-08,1.86104688e-01
-4.89232812e-08,1.86095312e-01
-4.88832812e-08,1.86104688e-01
-4.88432812e-08,1.86095312e-01
-4.88032812e-08,1.86104688e-01
-4.87632812e-08,1.86095312e-01
-4.87232813e-08,1.86104688e-01
-4.86832812e-08,1.86095312e-01
-4.86432812e-08,1.86104688e-01
-4.86032812e-08,1.86095312e-01
-4.85632812e-08,1.86104688e-01
-4.85232812e-08,1.86095312e-01
-4.84832812e-08,1.86104688e-01
-4.84432813e-08,1.86095312e-01
-4.84032812e-08,1.86104688e-01
-4.83632812e-08,1.86095312e-01
-4.83232812e-08,1.86104688e-01
-4.82832812e-08,1.86095312e-01
-4.82432812e-08,1.86104688e-01
-4.82032812e-08,1.86095312e-01
-4.81632813e-08,1.86104688e-01
-4.81232812e-08,1.86095312e-01
-4.80832812e-08,1.86104688e-01
-4.80432812e-08,1.86095312e-01
-4.80032812e-08,1.86106250e-01
-4.79632812e-08,1.86093750e-01
-4.79232812e-08,1.86106250e-01
-4.78832812e-08,1.86093750e-01
-4.78432812e-08,1.86106250e-01
-4.78032812e-08,1.86093750e-01
-4.77632812e-08,1.86106250e-01
-4.77232812e-08,1.86093750e-01
-4.76832812e-08,1.86107812e-01
-4.76432812e-08,1.86092188e-01
-4.76032812e-08,1.86107812e-01
-4.75632812e-08,1.86092188e-01
-4.75232812e-08,1.86109375e-01
-4.74832812e-08,1.86090625e-01
-4.74432812e-08,1.86110938e-01
-4.74032812e-08,1.86089063e-01
-4.73632812e-08,1.86112500e-01
-4.73232812e-08,1.86085938e-01
-4.72832812e-08,1.86117188e-01
-4.72432812e-08,1.86076563e-01
-4.72032812e-08,1.86132812e-01
-4.71632812e-08,1.86043750e-01
-4.71232812e-08,1.86309375e-01
-4.70832812e-08,1.86553125e-01
-4.70432812e-08,1.86470313e-01
-4.70032812e-08,1.86520313e-01
-4.69632812e-08,1.86484375e-01
-4.69232812e-08,1.86514062e-01
-4.68832812e-08,1.86485938e-01
-4.68432812e-08,1.86514062e-01
-4.68032813e-08,1.86482813e-01
-4.67632812e-08,1.86525000e-01
-4.67232812e-08,1.86451563e-01
-4.66832812e-08,1.86700000e-01
-4.66432812e-08,1.86964063e-01
-4.66032812e-08,1.86856250e-01
-4.65632812e-08,1.86937500e-01
-4.65232813e-08,1.86860938e-01
-4.64832812e-08,1.86946875e-01
-4.64432812e-08,1.86829688e-01
-4.64032812e-08,1.87123438e-01
-4.63632812e-08,1.87337500e-01
-4.63232812e-08,1.87289063e-01
-4.62832812e-08,1.87298437e-01
-4.62432813e-08,1.87315625e-01
-4.62032812e-08,1.87257813e-01
-4.61632812e-08,1.87496875e-01
-4.61232812e-08,1.87765625e-01
-4.60832812e-08,1.87657813e-01
-4.60432812e-08,1.87735938e-01
-4.60032812e-08,1.87665625e-01
-4.59632813e-08,1.87740625e-01
-4.59232812e-08,1.87637500e-01
-4.58832812e-08,1.87914063e-01
-4.58432812e-08,1.88151563e-01
-4.58032812e-08,1.88071875e-01
-4.57632812e-08,1.88121875e-01
-4.57232812e-08,1.88081250e-01
-4.56832812e-08,1.88117188e-01
-4.56432812e-08,1.88081250e-01
-4.56032812e-08,1.88120312e-01
-4.55632812e-08,1.88075000e-01
-4.55232812e-08,1.88134375e-01
-4.54832812e-08,1.88040625e-01
-4.54432812e-08,1.88312500e-01
-4.54032812e-08,1.88550000e-01
-4.53632812e-08,1.88475000e-01
-4.53232812e-08,1.88515625e-01
-4.52832812e-08,1.88490625e-01
-4.52432812e-08,1.88506250e-01
-4.52032812e-08,1.88498438e-01
-4.51632812e-08,1.88496875e-01
-4.51232812e-08,1.88507813e-01
-4.50832812e-08,1.88481250e-01
-4.50432812e-08,1.88543750e-01
-4.50032812e-08,1.88303125e-01
-4.49632812e-08,1.88034375e-01
-4.49232812e-08,1.88142188e-01
-4.48832813e-08,1.88067188e-01
-4.48432812e-08,1.88129688e-01
-4.48032812e-08,1.88073437e-01
-4.47632812e-08,1.88126563e-01
-4.47232812e-08,1.88071875e-01
-4.46832812e-08,1.88131250e-01
-4.46432812e-08,1.88059375e-01
-4.46032813e-08,1.88164063e-01
-4.45632812e-08,1.87884375e-01
-4.45232812e-08,1.87651563e-01
-4.44832812e-08,1.87726562e-01
-4.44432812e-08,1.87681250e-01
-4.44032812e-08,1.87718750e-01
-4.43632812e-08,1.87676563e-01
-4.43232813e-08,1.87745313e-01
-4.42832812e-08,1.87506250e-01
-4.42432812e-08,1.87226562e-01
-4.42032812e-08,1.87354688e-01
-4.41632812e-08,1.87242188e-01
-4.41232812e-08,1.87378125e-01
-4.40832812e-08,1.87068750e-01
-4.40432813e-08,1.86868750e-01
-4.40032812e-08,1.86904687e-01
-4.39632812e-08,1.86909375e-01
-4.39232812e-08,1.86876563e-01
-4.38832812e-08,1.86951563e-01
-4.38432812e-08,1.86692187e-01
-4.38032812e-08,1.86448438e-01
-4.37632812e-08,1.86525000e-01
-4.37232812e-08,1.86489062e-01
-4.36832812e-08,1.86496875e-01
-4.36432812e-08,1.86531250e-01
-4.36032812e-08,1.86314063e-01
-4.35632812e-08,1.86023437e-01
-4.35232812e-08,1.86153125e-01
-4.34832812e-08,1.86053125e-01
-4.34432812e-08,1.86145312e-01
-4.34032812e-08,1.86048437e-01
-4.33632812e-08,1.86173438e-01
-4.33232812e-08,1.85875000e-01
-4.32832812e-08,1.85662500e-01
-4.32432812e-08,1.85715625e-01
-4.32032812e-08,1.85692187e-01
-4.31632812e-08,1.85703125e-01
-4.31232812e-08,1.85700000e-01
-4.30832812e-08,1.85698438e-01
-4.30432812e-08,1.85701563e-01
-4.30032812e-08,1.85696875e-01
-4.29632813e-08,1.85703125e-01
-4.29232812e-08,1.85696875e-01
-4.28832812e-08,1.85704688e-01
-4.28432812e-08,1.85695313e-01
-4.28032812e-08,1.85704688e-01
-4.27632812e-08,1.85695313e-01
-4.27232812e-08,1.85706250e-01
-4.26832813e-08,1.85693750e-01
-4.26432812e-08,1.85706250e-01
-4.26032812e-08,1.85693750e-01
-4.25632812e-08,1.85707813e-01
-4.25232812e-08,1.85692187e-01
-4.24832812e-08,1.85709375e-01
-4.24432812e-08,1.85690625e-01
-4.24032813e-08,1.85710938e-01
-4.23632812e-08,1.85687500e-01
-4.23232812e-08,1.85715625e-01
-4.22832812e-08,1.85679687e-01
-4.22432812e-08,1.85729688e-01
-4.22032812e-08,1.85645312e-01
-4.21632812e-08,1.85906250e-01
-4.21232813e-08,1.86156250e-01
-4.20832812e-08,1.86067188e-01
-4.20432812e-08,1.86125000e-01
-4.20032812e-08,1.86078125e-01
-4.19632812e-08,1.86121875e-01
-4.19232812e-08,1.86075000e-01
-4.18832812e-08,1.86132812e-01
-4.18432813e-08,1.86045313e-01
-4.18032812e-08,1.86306250e-01
-4.17632812e-08,1.86556250e-01
-4.17232812e-08,1.86465625e-01
-4.16832812e-08,1.86526562e-01
-4.16432812e-08,1.86475000e-01
-4.16032812e-08,1.86525000e-01
-4.15632812e-08,1.86471875e-01
-4.15232812e-08,1.86535937e-01
-4.14832812e-08,1.86440625e-01
-4.14432812e-08,1.86710938e-01
-4.14032812e-08,1.86951563e-01
-4.13632812e-08,1.86871875e-01
-4.13232812e-08,1.86920313e-01
-4.12832812e-08,1.86882812e-01
-4.12432812e-08,1.86915625e-01
-4.12032812e-08,1.86884375e-01
-4.11632812e-08,1.86917187e-01
-4.11232812e-08,1.86879688e-01
-4.10832812e-08,1.86929687e-01
-4.10432813e-08,1.86846875e-01
-4.10032812e-08,1.87106250e-01
-4.09632812e-08,1.87357812e-01
-4.09232812e-08,1.87265625e-01
-4.08832812e-08,1.87325000e-01
-4.08432812e-08,1.87279688e-01
-4.08032812e-08,1.87318750e-01
-4.07632813e-08,1.87282813e-01
-4.07232812e-08,1.87317188e-01
-4.06832812e-08,1.87284375e-01
-4.06432812e-08,1.87315625e-01
-4.06032812e-08,1.87282813e-01
-4.05632812e-08,1.87317188e-01
-4.05232812e-08,1.87281250e-01
-4.04832813e-08,1.87320313e-01
-4.04432812e-08,1.87276563e-01
-4.04032812e-08,1.87328125e-01
-4.03632812e-08,1.87260938e-01
-4.03232812e-08,1.87364063e-01
-4.02832812e-08,1.87082813e-01
-4.02432812e-08,1.86854688e-01
-4.02032813e-08,1.86921875e-01
-4.01632812e-08,1.86889063e-01
-4.01232812e-08,1.86906250e-01
-4.00832812e-08,1.86896875e-01
-4.00432812e-08,1.86900000e-01
-4.00032812e-08,1.86901563e-01
-3.99632812e-08,1.86895313e-01
-3.99232813e-08,1.86906250e-01
-3.98832812e-08,1.86892188e-01
-3.98432812e-08,1.86910938e-01
-3.98032812e-08,1.86885938e-01
-3.97632812e-08,1.86920313e-01
-3.97232812e-08,1.86870312e-01
-3.96832812e-08,1.86956250e-01
-3.96432813e-08,1.86690625e-01
-3.96032812e-08,1.86446875e-01
-3.95632812e-08,1.86528125e-01
-3.95232812e-08,1.86481250e-01
-3.94832812e-08,1.86514062e-01
-3.94432812e-08,1.86490625e-01
-3.94032813e-08,1.86507813e-01
-3.93632812e-08,1.86493750e-01
-3.93232812e-08,1.86504688e-01
-3.92832812e-08,1.86496875e-01
-3.92432812e-08,1.86501562e-01
-3.92032812e-08,1.86500000e-01
-3.91632812e-08,1.86498438e-01
-3.91232813e-08,1.86503125e-01
-3.90832812e-08,1.86495313e-01
-3.90432812e-08,1.86506250e-01
-3.90032812e-08,1.86492188e-01
-3.89632812e-08,1.86510938e-01
-3.89232812e-08,1.86482813e-01
-3.88832812e-08,1.86526562e-01
-3.88432813e-08,1.86448438e-01
-3.88032812e-08,1.86704688e-01
-3.87632812e-08,1.86956250e-01
-3.87232812e-08,1.86867188e-01
-3.86832812e-08,1.86923438e-01
-3.86432812e-08,1.86881250e-01
-3.86032812e-08,1.86914063e-01
-3.85632813e-08,1.86887500e-01
-3.85232812e-08,1.86910938e-01
