trails/0ad503bf4c7e473689fcee6623a13564/aes_ch1_20250507104828057.csv

Model,MSO66B
Label,
Waveform Type,ANALOG
Horizontal Units,s
Sample Interval,4.00000000e-11
Record Length,10000
Zero Index,1599.09765625
Vertical Units,A
ANALOG_Thumbnail,
yOffset,1.84500000e-01
yPosition,8.40000000e-01

Labels,
TIME,CH1
-6.39639062e-08,2.00503125e-01
-6.39239063e-08,2.00503125e-01
-6.38839062e-08,2.00492188e-01
-6.38439062e-08,2.00515625e-01
-6.38039062e-08,2.00473438e-01
-6.37639062e-08,2.00553125e-01
-6.37239062e-08,2.00290625e-01
-6.36839062e-08,2.00048438e-01
-6.36439063e-08,2.00125000e-01
-6.36039062e-08,2.00087500e-01
-6.35639062e-08,2.00104688e-01
-6.35239062e-08,2.00104688e-01
-6.34839062e-08,2.00082813e-01
-6.34439062e-08,2.00143750e-01
-6.34039062e-08,1.99900000e-01
-6.33639063e-08,1.99639063e-01
-6.33239062e-08,1.99734375e-01
-6.32839062e-08,1.99678125e-01
-6.32439062e-08,1.99714063e-01
-6.32039062e-08,1.99695312e-01
-6.31639062e-08,1.99692188e-01
-6.31239062e-08,1.99734375e-01
-6.30839063e-08,1.99510938e-01
-6.30439062e-08,1.99226563e-01
-6.30039062e-08,1.99348438e-01
-6.29639062e-08,1.99262500e-01
-6.29239062e-08,1.99332813e-01
-6.28839062e-08,1.99271875e-01
-6.28439062e-08,1.99326562e-01
-6.28039063e-08,1.99275000e-01
-6.27639062e-08,1.99323438e-01
-6.27239062e-08,1.99278125e-01
-6.26839062e-08,1.99320313e-01
-6.26439062e-08,1.99279687e-01
-6.26039063e-08,1.99318750e-01
-6.25639062e-08,1.99281250e-01
-6.25239063e-08,1.99318750e-01
-6.24839062e-08,1.99281250e-01
-6.24439062e-08,1.99318750e-01
-6.24039062e-08,1.99281250e-01
-6.23639062e-08,1.99317187e-01
-6.23239063e-08,1.99282813e-01
-6.22839062e-08,1.99318750e-01
-6.22439063e-08,1.99281250e-01
-6.22039062e-08,1.99318750e-01
-6.21639062e-08,1.99281250e-01
-6.21239062e-08,1.99320313e-01
-6.20839062e-08,1.99279687e-01
-6.20439063e-08,1.99321875e-01
-6.20039062e-08,1.99276563e-01
-6.19639063e-08,1.99326562e-01
-6.19239062e-08,1.99268750e-01
-6.18839062e-08,1.99340625e-01
-6.18439062e-08,1.99234375e-01
-6.18039062e-08,1.99518750e-01
-6.17639063e-08,1.99743750e-01
-6.17239062e-08,1.99681250e-01
-6.16839063e-08,1.99709375e-01
-6.16439062e-08,1.99695312e-01
-6.16039062e-08,1.99701563e-01
-6.15639062e-08,1.99700000e-01
-6.15239062e-08,1.99698437e-01
-6.14839063e-08,1.99703125e-01
-6.14439062e-08,1.99696875e-01
-6.14039063e-08,1.99704688e-01
-6.13639062e-08,1.99695312e-01
-6.13239062e-08,1.99706250e-01
-6.12839062e-08,1.99693750e-01
-6.12439062e-08,1.99706250e-01
-6.12039063e-08,1.99692188e-01
-6.11639062e-08,1.99707812e-01
-6.11239063e-08,1.99692188e-01
-6.10839062e-08,1.99709375e-01
-6.10439062e-08,1.99690625e-01
-6.10039062e-08,1.99710938e-01
-6.09639062e-08,1.99689063e-01
-6.09239063e-08,1.99712500e-01
-6.08839062e-08,1.99687500e-01
-6.08439063e-08,1.99714063e-01
-6.08039062e-08,1.99684375e-01
-6.07639062e-08,1.99718750e-01
-6.07239062e-08,1.99678125e-01
-6.06839062e-08,1.99726563e-01
-6.06439063e-08,1.99664063e-01
-6.06039062e-08,1.99762500e-01
-6.05639063e-08,1.99484375e-01
-6.05239062e-08,1.99253125e-01
-6.04839062e-08,1.99321875e-01
-6.04439062e-08,1.99287500e-01
-6.04039062e-08,1.99307813e-01
-6.03639063e-08,1.99296875e-01
-6.03239062e-08,1.99300000e-01
-6.02839062e-08,1.99301563e-01
-6.02439062e-08,1.99295313e-01
-6.02039062e-08,1.99307813e-01
-6.01639062e-08,1.99289063e-01
-6.01239062e-08,1.99317187e-01
-6.00839063e-08,1.99273438e-01
-6.00439062e-08,1.99351562e-01
-6.00039062e-08,1.99095313e-01
-5.99639062e-08,1.98843750e-01
-5.99239062e-08,1.98932813e-01
-5.98839062e-08,1.98876563e-01
-5.98439062e-08,1.98918750e-01
-5.98039063e-08,1.98884375e-01
-5.97639062e-08,1.98914063e-01
-5.97239062e-08,1.98887500e-01
-5.96839062e-08,1.98912500e-01
-5.96439062e-08,1.98887500e-01
-5.96039062e-08,1.98914063e-01
-5.95639062e-08,1.98885937e-01
-5.95239062e-08,1.98917188e-01
-5.94839062e-08,1.98878125e-01
-5.94439062e-08,1.98929688e-01
-5.94039062e-08,1.98845313e-01
-5.93639062e-08,1.99107813e-01
-5.93239062e-08,1.99356250e-01
-5.92839062e-08,1.99267187e-01
-5.92439062e-08,1.99323438e-01
-5.92039062e-08,1.99281250e-01
-5.91639062e-08,1.99317187e-01
-5.91239062e-08,1.99284375e-01
-5.90839062e-08,1.99315625e-01
-5.90439062e-08,1.99285938e-01
-5.90039062e-08,1.99315625e-01
-5.89639062e-08,1.99284375e-01
-5.89239062e-08,1.99317187e-01
-5.88839062e-08,1.99281250e-01
-5.88439062e-08,1.99321875e-01
-5.88039062e-08,1.99273438e-01
-5.87639062e-08,1.99335938e-01
-5.87239062e-08,1.99239063e-01
-5.86839062e-08,1.99514063e-01
-5.86439062e-08,1.99748438e-01
-5.86039062e-08,1.99676563e-01
-5.85639062e-08,1.99714063e-01
-5.85239062e-08,1.99690625e-01
-5.84839062e-08,1.99706250e-01
-5.84439062e-08,1.99696875e-01
-5.84039062e-08,1.99701563e-01
-5.83639062e-08,1.99700000e-01
-5.83239062e-08,1.99698437e-01
-5.82839062e-08,1.99703125e-01
-5.82439062e-08,1.99695312e-01
-5.82039062e-08,1.99706250e-01
-5.81639062e-08,1.99690625e-01
-5.81239062e-08,1.99712500e-01
-5.80839062e-08,1.99682813e-01
-5.80439062e-08,1.99728125e-01
-5.80039062e-08,1.99646875e-01
-5.79639062e-08,1.99906250e-01
-5.79239062e-08,2.00156250e-01
-5.78839062e-08,2.00067188e-01
-5.78439062e-08,2.00123438e-01
-5.78039062e-08,2.00082813e-01
-5.77639062e-08,2.00114063e-01
-5.77239062e-08,2.00087500e-01
-5.76839062e-08,2.00110938e-01
-5.76439062e-08,2.00090625e-01
-5.76039062e-08,2.00109375e-01
-5.75639062e-08,2.00092188e-01
-5.75239062e-08,2.00107813e-01
-5.74839062e-08,2.00093750e-01
-5.74439062e-08,2.00106250e-01
-5.74039062e-08,2.00093750e-01
-5.73639062e-08,2.00106250e-01
-5.73239062e-08,2.00095313e-01
-5.72839062e-08,2.00104688e-01
-5.72439062e-08,2.00095313e-01
-5.72039062e-08,2.00104688e-01
-5.71639062e-08,2.00095313e-01
-5.71239062e-08,2.00104688e-01
-5.70839062e-08,2.00095313e-01
-5.70439062e-08,2.00103125e-01
-5.70039062e-08,2.00096875e-01
-5.69639062e-08,2.00103125e-01
-5.69239062e-08,2.00096875e-01
-5.68839062e-08,2.00103125e-01
-5.68439062e-08,2.00096875e-01
-5.68039062e-08,2.00103125e-01
-5.67639062e-08,2.00096875e-01
-5.67239062e-08,2.00103125e-01
-5.66839062e-08,2.00096875e-01
-5.66439062e-08,2.00103125e-01
-5.66039062e-08,2.00096875e-01
-5.65639062e-08,2.00103125e-01
-5.65239062e-08,2.00096875e-01
-5.64839062e-08,2.00103125e-01
-5.64439062e-08,2.00096875e-01
-5.64039062e-08,2.00103125e-01
-5.63639062e-08,2.00096875e-01
-5.63239062e-08,2.00103125e-01
-5.62839062e-08,2.00096875e-01
-5.62439062e-08,2.00103125e-01
-5.62039062e-08,2.00096875e-01
-5.61639062e-08,2.00103125e-01
-5.61239062e-08,2.00096875e-01
-5.60839062e-08,2.00103125e-01
-5.60439062e-08,2.00096875e-01
-5.60039062e-08,2.00103125e-01
-5.59639062e-08,2.00096875e-01
-5.59239062e-08,2.00103125e-01
-5.58839062e-08,2.00096875e-01
-5.58439062e-08,2.00103125e-01
-5.58039062e-08,2.00096875e-01
-5.57639062e-08,2.00103125e-01
-5.57239062e-08,2.00096875e-01
-5.56839062e-08,2.00103125e-01
-5.56439062e-08,2.00096875e-01
-5.56039062e-08,2.00103125e-01
-5.55639062e-08,2.00096875e-01
-5.55239062e-08,2.00103125e-01
-5.54839062e-08,2.00096875e-01
-5.54439062e-08,2.00103125e-01
-5.54039062e-08,2.00096875e-01
-5.53639062e-08,2.00103125e-01
-5.53239062e-08,2.00095313e-01
-5.52839062e-08,2.00104688e-01
-5.52439062e-08,2.00095313e-01
-5.52039062e-08,2.00104688e-01
-5.51639062e-08,2.00095313e-01
-5.51239062e-08,2.00106250e-01
-5.50839062e-08,2.00093750e-01
-5.50439062e-08,2.00107813e-01
-5.50039062e-08,2.00092188e-01
-5.49639062e-08,2.00109375e-01
-5.49239062e-08,2.00089062e-01
-5.48839062e-08,2.00112500e-01
-5.48439062e-08,2.00084375e-01
-5.48039062e-08,2.00120313e-01
-5.47639062e-08,2.00070313e-01
-5.47239062e-08,2.00154688e-01
-5.46839062e-08,1.99892188e-01
-5.46439062e-08,1.99645313e-01
-5.46039062e-08,1.99729688e-01
-5.45639062e-08,1.99679688e-01
-5.45239062e-08,1.99715625e-01
-5.44839062e-08,1.99687500e-01
-5.44439062e-08,1.99710938e-01
-5.44039062e-08,1.99690625e-01
-5.43639062e-08,1.99707812e-01
-5.43239062e-08,1.99692188e-01
-5.42839062e-08,1.99706250e-01
-5.42439062e-08,1.99693750e-01
-5.42039062e-08,1.99706250e-01
-5.41639062e-08,1.99695312e-01
-5.41239062e-08,1.99704688e-01
-5.40839062e-08,1.99695312e-01
-5.40439062e-08,1.99704688e-01
-5.40039062e-08,1.99695312e-01
-5.39639062e-08,1.99703125e-01
-5.39239062e-08,1.99696875e-01
-5.38839062e-08,1.99703125e-01
-5.38439062e-08,1.99696875e-01
-5.38039062e-08,1.99703125e-01
-5.37639062e-08,1.99696875e-01
-5.37239062e-08,1.99703125e-01
-5.36839062e-08,1.99696875e-01
-5.36439062e-08,1.99701563e-01
-5.36039062e-08,1.99698437e-01
-5.35639062e-08,1.99701563e-01
-5.35239062e-08,1.99698437e-01
-5.34839062e-08,1.99701563e-01
-5.34439062e-08,1.99698437e-01
-5.34039062e-08,1.99700000e-01
-5.33639062e-08,1.99700000e-01
-5.33239062e-08,1.99700000e-01
-5.32839062e-08,1.99701563e-01
-5.32439062e-08,1.99698437e-01
-5.32039062e-08,1.99703125e-01
-5.31639062e-08,1.99695312e-01
-5.31239062e-08,1.99707812e-01
-5.30839062e-08,1.99687500e-01
-5.30439062e-08,1.99721875e-01
-5.30039063e-08,1.99653125e-01
-5.29639062e-08,1.99900000e-01
-5.29239062e-08,2.00164063e-01
-5.28839062e-08,2.00059375e-01
-5.28439062e-08,2.00131250e-01
-5.28039062e-08,2.00073438e-01
-5.27639062e-08,2.00125000e-01
-5.27239062e-08,2.00075000e-01
-5.26839062e-08,2.00125000e-01
-5.26439062e-08,2.00075000e-01
-5.26039062e-08,2.00128125e-01
-5.25639062e-08,2.00067188e-01
-5.25239062e-08,2.00142188e-01
-5.24839062e-08,2.00032813e-01
-5.24439062e-08,2.00320313e-01
-5.24039062e-08,2.00542187e-01
-5.23639062e-08,2.00481250e-01
-5.23239062e-08,2.00509375e-01
-5.22839062e-08,2.00496875e-01
-5.22439062e-08,2.00500000e-01
-5.22039062e-08,2.00503125e-01
-5.21639062e-08,2.00493750e-01
-5.21239062e-08,2.00507812e-01
-5.20839062e-08,2.00489063e-01
-5.20439062e-08,2.00515625e-01
-5.20039062e-08,2.00479688e-01
-5.19639062e-08,2.00531250e-01
-5.19239062e-08,2.00443750e-01
-5.18839062e-08,2.00709375e-01
-5.18439062e-08,2.00951563e-01
-5.18039062e-08,2.00871875e-01
-5.17639062e-08,2.00917188e-01
-5.17239062e-08,2.00887500e-01
-5.16839062e-08,2.00907813e-01
-5.16439062e-08,2.00893750e-01
-5.16039062e-08,2.00903125e-01
-5.15639062e-08,2.00900000e-01
-5.15239062e-08,2.00896875e-01
-5.14839062e-08,2.00906250e-01
-5.14439062e-08,2.00889062e-01
-5.14039062e-08,2.00921875e-01
-5.13639062e-08,2.00853125e-01
-5.13239062e-08,2.01100000e-01
-5.12839062e-08,2.01362500e-01
-5.12439062e-08,2.01260938e-01
-5.12039062e-08,2.01329688e-01
-5.11639062e-08,2.01275000e-01
-5.11239062e-08,2.01321875e-01
-5.10839063e-08,2.01279687e-01
-5.10439062e-08,2.01318750e-01
-5.10039062e-08,2.01281250e-01
-5.09639062e-08,2.01320313e-01
-5.09239062e-08,2.01279687e-01
-5.08839062e-08,2.01323438e-01
-5.08439062e-08,2.01271875e-01
-5.08039063e-08,2.01337500e-01
-5.07639062e-08,2.01239063e-01
-5.07239062e-08,2.01514063e-01
-5.06839062e-08,2.01748438e-01
-5.06439062e-08,2.01675000e-01
-5.06039062e-08,2.01715625e-01
-5.05639062e-08,2.01689063e-01
-5.05239062e-08,2.01707812e-01
-5.04839062e-08,2.01693750e-01
-5.04439062e-08,2.01704688e-01
-5.04039062e-08,2.01695313e-01
-5.03639062e-08,2.01703125e-01
-5.03239062e-08,2.01696875e-01
-5.02839062e-08,2.01703125e-01
-5.02439062e-08,2.01696875e-01
-5.02039062e-08,2.01701563e-01
-5.01639062e-08,2.01698437e-01
-5.01239062e-08,2.01701563e-01
-5.00839062e-08,2.01698437e-01
-5.00439062e-08,2.01701563e-01
-5.00039062e-08,2.01698437e-01
-4.99639062e-08,2.01701563e-01
-4.99239062e-08,2.01698437e-01
-4.98839062e-08,2.01701563e-01
-4.98439062e-08,2.01698437e-01
-4.98039062e-08,2.01701563e-01
-4.97639062e-08,2.01698437e-01
-4.97239062e-08,2.01701563e-01
-4.96839062e-08,2.01698437e-01
-4.96439062e-08,2.01701563e-01
-4.96039062e-08,2.01698437e-01
-4.95639062e-08,2.01701563e-01
-4.95239062e-08,2.01698437e-01
-4.94839062e-08,2.01701563e-01
-4.94439062e-08,2.01698437e-01
-4.94039062e-08,2.01701563e-01
-4.93639062e-08,2.01696875e-01
-4.93239062e-08,2.01703125e-01
-4.92839062e-08,2.01696875e-01
-4.92439062e-08,2.01703125e-01
-4.92039062e-08,2.01696875e-01
-4.91639063e-08,2.01703125e-01
-4.91239062e-08,2.01695313e-01
-4.90839062e-08,2.01704688e-01
-4.90439062e-08,2.01693750e-01
-4.90039062e-08,2.01706250e-01
-4.89639062e-08,2.01692188e-01
-4.89239062e-08,2.01710938e-01
-4.88839063e-08,2.01687500e-01
-4.88439062e-08,2.01718750e-01
-4.88039062e-08,2.01671875e-01
-4.87639062e-08,2.01753125e-01
-4.87239062e-08,2.01495312e-01
-4.86839062e-08,2.01243750e-01
-4.86439062e-08,2.01332813e-01
-4.86039062e-08,2.01276563e-01
-4.85639062e-08,2.01318750e-01
-4.85239062e-08,2.01282813e-01
-4.84839062e-08,2.01315625e-01
-4.84439062e-08,2.01285938e-01
-4.84039062e-08,2.01312500e-01
-4.83639062e-08,2.01287500e-01
-4.83239062e-08,2.01312500e-01
-4.82839062e-08,2.01287500e-01
-4.82439062e-08,2.01314063e-01
-4.82039062e-08,2.01285938e-01
-4.81639062e-08,2.01315625e-01
-4.81239062e-08,2.01281250e-01
-4.80839062e-08,2.01323438e-01
-4.80439062e-08,2.01267187e-01
-4.80039062e-08,2.01357813e-01
-4.79639062e-08,2.01090625e-01
-4.79239062e-08,2.00846875e-01
-4.78839062e-08,2.00929688e-01
-4.78439062e-08,2.00878125e-01
-4.78039062e-08,2.00917188e-01
-4.77639062e-08,2.00884375e-01
-4.77239062e-08,2.00915625e-01
-4.76839062e-08,2.00882813e-01
-4.76439062e-08,2.00920313e-01
-4.76039062e-08,2.00870313e-01
-4.75639062e-08,2.00953125e-01
-4.75239062e-08,2.00695313e-01
-4.74839062e-08,2.00442188e-01
-4.74439062e-08,2.00535938e-01
-4.74039062e-08,2.00471875e-01
-4.73639062e-08,2.00525000e-01
-4.73239062e-08,2.00476563e-01
-4.72839062e-08,2.00523438e-01
-4.72439063e-08,2.00475000e-01
-4.72039062e-08,2.00529687e-01
-4.71639062e-08,2.00460938e-01
-4.71239062e-08,2.00564063e-01
-4.70839062e-08,2.00282813e-01
-4.70439062e-08,2.00054687e-01
-4.70039062e-08,2.00121875e-01
-4.69639063e-08,2.00087500e-01
-4.69239062e-08,2.00106250e-01
-4.68839062e-08,2.00096875e-01
-4.68439062e-08,2.00100000e-01
-4.68039062e-08,2.00101562e-01
-4.67639062e-08,2.00095313e-01
-4.67239062e-08,2.00107813e-01
-4.66839063e-08,2.00089062e-01
-4.66439062e-08,2.00117188e-01
-4.66039062e-08,2.00073438e-01
-4.65639062e-08,2.00153125e-01
-4.65239062e-08,1.99893750e-01
-4.64839062e-08,1.99643750e-01
-4.64439062e-08,1.99731250e-01
-4.64039062e-08,1.99678125e-01
-4.63639062e-08,1.99715625e-01
-4.63239062e-08,1.99687500e-01
-4.62839062e-08,1.99709375e-01
-4.62439062e-08,1.99693750e-01
-4.62039062e-08,1.99703125e-01
-4.61639062e-08,1.99701563e-01
-4.61239062e-08,1.99693750e-01
-4.60839062e-08,1.99715625e-01
-4.60439062e-08,1.99657813e-01
-4.60039062e-08,1.99895313e-01
-4.59639062e-08,2.00167188e-01
-4.59239062e-08,2.00056250e-01
-4.58839062e-08,2.00135937e-01
-4.58439062e-08,2.00068750e-01
-4.58039062e-08,2.00128125e-01
-4.57639062e-08,2.00071875e-01
-4.57239062e-08,2.00128125e-01
-4.56839062e-08,2.00071875e-01
-4.56439062e-08,2.00131250e-01
-4.56039062e-08,2.00064063e-01
-4.55639062e-08,2.00145313e-01
-4.55239062e-08,2.00031250e-01
-4.54839062e-08,2.00321875e-01
-4.54439062e-08,2.00539063e-01
-4.54039062e-08,2.00484375e-01
-4.53639062e-08,2.00504688e-01
-4.53239063e-08,2.00501563e-01
-4.52839062e-08,2.00493750e-01
-4.52439062e-08,2.00510938e-01
-4.52039062e-08,2.00482812e-01
-4.51639062e-08,2.00526563e-01
-4.51239062e-08,2.00448438e-01
-4.50839062e-08,2.00706250e-01
-4.50439063e-08,2.00956250e-01
-4.50039062e-08,2.00867188e-01
-4.49639062e-08,2.00923437e-01
-4.49239062e-08,2.00881250e-01
-4.48839062e-08,2.00915625e-01
-4.48439062e-08,2.00885938e-01
-4.48039062e-08,2.00914063e-01
-4.47639063e-08,2.00885938e-01
-4.47239062e-08,2.00914063e-01
-4.46839062e-08,2.00884375e-01
-4.46439062e-08,2.00917188e-01
-4.46039062e-08,2.00878125e-01
-4.45639062e-08,2.00931250e-01
-4.45239062e-08,2.00843750e-01
-4.44839063e-08,2.01107813e-01
-4.44439062e-08,2.01354688e-01
-4.44039062e-08,2.01268750e-01
-4.43639062e-08,2.01321875e-01
-4.43239062e-08,2.01282813e-01
-4.42839062e-08,2.01314063e-01
-4.42439062e-08,2.01287500e-01
-4.42039062e-08,2.01310938e-01
-4.41639062e-08,2.01289063e-01
-4.41239062e-08,2.01309375e-01
-4.40839062e-08,2.01290625e-01
-4.40439062e-08,2.01309375e-01
-4.40039062e-08,2.01290625e-01
-4.39639062e-08,2.01307813e-01
-4.39239062e-08,2.01290625e-01
-4.38839062e-08,2.01307813e-01
-4.38439062e-08,2.01292187e-01
-4.38039062e-08,2.01309375e-01
-4.37639062e-08,2.01290625e-01
-4.37239062e-08,2.01309375e-01
-4.36839063e-08,2.01290625e-01
-4.36439062e-08,2.01309375e-01
-4.36039062e-08,2.01290625e-01
-4.35639062e-08,2.01310938e-01
-4.35239062e-08,2.01289063e-01
-4.34839062e-08,2.01312500e-01
-4.34439062e-08,2.01285938e-01
-4.34039063e-08,2.01314063e-01
-4.33639062e-08,2.01282813e-01
-4.33239062e-08,2.01320313e-01
-4.32839062e-08,2.01275000e-01
-4.32439062e-08,2.01334375e-01
-4.32039062e-08,2.01240625e-01
-4.31639062e-08,2.01512500e-01
-4.31239063e-08,2.01750000e-01
-4.30839062e-08,2.01675000e-01
-4.30439062e-08,2.01715625e-01
-4.30039062e-08,2.01689063e-01
-4.29639062e-08,2.01707812e-01
-4.29239062e-08,2.01693750e-01
-4.28839062e-08,2.01704688e-01
-4.28439063e-08,2.01696875e-01
-4.28039062e-08,2.01701563e-01
-4.27639062e-08,2.01698437e-01
-4.27239062e-08,2.01700000e-01
-4.26839062e-08,2.01700000e-01
-4.26439062e-08,2.01700000e-01
-4.26039062e-08,2.01701563e-01
-4.25639063e-08,2.01698437e-01
-4.25239062e-08,2.01703125e-01
-4.24839062e-08,2.01696875e-01
-4.24439062e-08,2.01703125e-01
-4.24039062e-08,2.01695313e-01
-4.23639062e-08,2.01704688e-01
-4.23239062e-08,2.01693750e-01
-4.22839063e-08,2.01707812e-01
-4.22439062e-08,2.01690625e-01
-4.22039062e-08,2.01710938e-01
-4.21639062e-08,2.01685938e-01
-4.21239062e-08,2.01718750e-01
-4.20839062e-08,2.01671875e-01
-4.20439062e-08,2.01753125e-01
-4.20039062e-08,2.01493750e-01
-4.19639062e-08,2.01243750e-01
-4.19239062e-08,2.01332813e-01
-4.18839062e-08,2.01276563e-01
-4.18439062e-08,2.01318750e-01
-4.18039062e-08,2.01284375e-01
-4.17639063e-08,2.01314063e-01
-4.17239062e-08,2.01285938e-01
-4.16839062e-08,2.01314063e-01
-4.16439062e-08,2.01285938e-01
-4.16039062e-08,2.01315625e-01
-4.15639062e-08,2.01282813e-01
-4.15239062e-08,2.01321875e-01
-4.14839063e-08,2.01268750e-01
-4.14439062e-08,2.01354688e-01
-4.14039062e-08,2.01092188e-01
-4.13639062e-08,2.00845313e-01
-4.13239062e-08,2.00931250e-01
-4.12839062e-08,2.00876563e-01
-4.12439062e-08,2.00918750e-01
-4.12039063e-08,2.00882813e-01
-4.11639062e-08,2.00915625e-01
-4.11239062e-08,2.00885938e-01
-4.10839062e-08,2.00915625e-01
-4.10439062e-08,2.00884375e-01
-4.10039062e-08,2.00917188e-01
-4.09639062e-08,2.00881250e-01
-4.09239063e-08,2.00923437e-01
-4.08839062e-08,2.00867188e-01
-4.08439062e-08,2.00957812e-01
-4.08039062e-08,2.00689063e-01
-4.07639062e-08,2.00448438e-01
-4.07239062e-08,2.00528125e-01
-4.06839062e-08,2.00479688e-01
-4.06439063e-08,2.00515625e-01
-4.06039062e-08,2.00485938e-01
-4.05639062e-08,2.00512500e-01
-4.05239062e-08,2.00487500e-01
-4.04839062e-08,2.00512500e-01
-4.04439062e-08,2.00484375e-01
-4.04039062e-08,2.00518750e-01
-4.03639063e-08,2.00471875e-01
-4.03239062e-08,2.00553125e-01
-4.02839062e-08,2.00295313e-01
-4.02439062e-08,2.00042187e-01
-4.02039062e-08,2.00134375e-01
-4.01639062e-08,2.00073438e-01
-4.01239062e-08,2.00121875e-01
-4.00839063e-08,2.00079688e-01
-4.00439062e-08,2.00118750e-01
-4.00039062e-08,2.00082813e-01
-3.99639062e-08,2.00117188e-01
-3.99239062e-08,2.00081250e-01
-3.98839062e-08,2.00118750e-01
-3.98439063e-08,2.00079688e-01
-3.98039062e-08,2.00121875e-01
-3.97639062e-08,2.00075000e-01
-3.97239062e-08,2.00131250e-01
-3.96839062e-08,2.00059375e-01
-3.96439062e-08,2.00165625e-01
-3.96039062e-08,1.99879688e-01
-3.95639063e-08,1.99657813e-01
-3.95239062e-08,1.99717188e-01
-3.94839062e-08,1.99693750e-01
-3.94439062e-08,1.99698437e-01
-3.94039062e-08,1.99707812e-01
-3.93639062e-08,1.99685938e-01
-3.93239062e-08,1.99725000e-01
-3.92839063e-08,1.99648437e-01
-3.92439062e-08,1.99906250e-01
-3.92039062e-08,2.00156250e-01
-3.91639062e-08,2.00068750e-01
-3.91239062e-08,2.00121875e-01
-3.90839062e-08,2.00084375e-01
-3.90439062e-08,2.00112500e-01
-3.90039063e-08,2.00089062e-01
-3.89639062e-08,2.00107813e-01
-3.89239062e-08,2.00092188e-01
-3.88839062e-08,2.00106250e-01
-3.88439062e-08,2.00095313e-01
-3.88039062e-08,2.00104688e-01
-3.87639062e-08,2.00096875e-01
-3.87239063e-08,2.00103125e-01
-3.86839062e-08,2.00098438e-01
-3.86439062e-08,2.00101562e-01
-3.86039062e-08,2.00098438e-01
-3.85639062e-08,2.00100000e-01
-3.85239062e-08,2.00100000e-01
