trails/0ad503bf4c7e473689fcee6623a13564/aes_ch1_20250507104922484.csv

Model,MSO66B
Label,
Waveform Type,ANALOG
Horizontal Units,s
Sample Interval,4.00000000e-11
Record Length,10000
Zero Index,1599.11718750
Vertical Units,A
ANALOG_Thumbnail,
yOffset,1.84500000e-01
yPosition,8.40000000e-01

Labels,
TIME,CH1
-6.39646875e-08,1.80889063e-01
-6.39246875e-08,1.80910938e-01
-6.38846875e-08,1.80889063e-01
-6.38446875e-08,1.80910938e-01
-6.38046875e-08,1.80889063e-01
-6.37646875e-08,1.80910938e-01
-6.37246875e-08,1.80889063e-01
-6.36846875e-08,1.80910938e-01
-6.36446875e-08,1.80889063e-01
-6.36046875e-08,1.80910938e-01
-6.35646875e-08,1.80889063e-01
-6.35246875e-08,1.80910938e-01
-6.34846875e-08,1.80889063e-01
-6.34446875e-08,1.80910938e-01
-6.34046875e-08,1.80889063e-01
-6.33646875e-08,1.80910938e-01
-6.33246875e-08,1.80889063e-01
-6.32846875e-08,1.80910938e-01
-6.32446875e-08,1.80887500e-01
-6.32046875e-08,1.80912500e-01
-6.31646875e-08,1.80887500e-01
-6.31246875e-08,1.80914063e-01
-6.30846875e-08,1.80885938e-01
-6.30446875e-08,1.80915625e-01
-6.30046875e-08,1.80882813e-01
-6.29646875e-08,1.80918750e-01
-6.29246875e-08,1.80878125e-01
-6.28846875e-08,1.80926562e-01
-6.28446875e-08,1.80864063e-01
-6.28046875e-08,1.80960938e-01
-6.27646875e-08,1.80685938e-01
-6.27246875e-08,1.80451562e-01
-6.26846875e-08,1.80525000e-01
-6.26446875e-08,1.80484375e-01
-6.26046875e-08,1.80510937e-01
-6.25646875e-08,1.80492188e-01
-6.25246875e-08,1.80506250e-01
-6.24846875e-08,1.80495313e-01
-6.24446875e-08,1.80503125e-01
-6.24046875e-08,1.80496875e-01
-6.23646875e-08,1.80501563e-01
-6.23246875e-08,1.80498437e-01
-6.22846875e-08,1.80501563e-01
-6.22446875e-08,1.80500000e-01
-6.22046875e-08,1.80500000e-01
-6.21646875e-08,1.80500000e-01
-6.21246875e-08,1.80500000e-01
-6.20846875e-08,1.80500000e-01
-6.20446875e-08,1.80500000e-01
-6.20046875e-08,1.80500000e-01
-6.19646875e-08,1.80500000e-01
-6.19246875e-08,1.80500000e-01
-6.18846875e-08,1.80500000e-01
-6.18446875e-08,1.80500000e-01
-6.18046875e-08,1.80500000e-01
-6.17646875e-08,1.80498437e-01
-6.17246875e-08,1.80501563e-01
-6.16846875e-08,1.80498437e-01
-6.16446875e-08,1.80503125e-01
-6.16046875e-08,1.80496875e-01
-6.15646875e-08,1.80504688e-01
-6.15246875e-08,1.80493750e-01
-6.14846875e-08,1.80509375e-01
-6.14446875e-08,1.80485937e-01
-6.14046875e-08,1.80523437e-01
-6.13646875e-08,1.80451562e-01
-6.13246875e-08,1.80701562e-01
-6.12846875e-08,1.80960938e-01
-6.12446875e-08,1.80862500e-01
-6.12046875e-08,1.80929688e-01
-6.11646875e-08,1.80875000e-01
-6.11246875e-08,1.80923438e-01
-6.10846875e-08,1.80878125e-01
-6.10446875e-08,1.80921875e-01
-6.10046875e-08,1.80876563e-01
-6.09646875e-08,1.80925000e-01
-6.09246875e-08,1.80870313e-01
-6.08846875e-08,1.80939062e-01
-6.08446875e-08,1.80837500e-01
-6.08046875e-08,1.81115625e-01
-6.07646875e-08,1.81346875e-01
-6.07246875e-08,1.81276563e-01
-6.06846875e-08,1.81314063e-01
-6.06446875e-08,1.81290625e-01
-6.06046875e-08,1.81306250e-01
-6.05646875e-08,1.81295312e-01
-6.05246875e-08,1.81303125e-01
-6.04846875e-08,1.81296875e-01
-6.04446875e-08,1.81301563e-01
-6.04046875e-08,1.81298438e-01
-6.03646875e-08,1.81300000e-01
-6.03246875e-08,1.81300000e-01
-6.02846875e-08,1.81300000e-01
-6.02446875e-08,1.81300000e-01
-6.02046875e-08,1.81300000e-01
-6.01646875e-08,1.81300000e-01
-6.01246875e-08,1.81300000e-01
-6.00846875e-08,1.81300000e-01
-6.00446875e-08,1.81298438e-01
-6.00046875e-08,1.81301563e-01
-5.99646875e-08,1.81298438e-01
-5.99246875e-08,1.81301563e-01
-5.98846875e-08,1.81298438e-01
-5.98446875e-08,1.81301563e-01
-5.98046875e-08,1.81298438e-01
-5.97646875e-08,1.81301563e-01
-5.97246875e-08,1.81298438e-01
-5.96846875e-08,1.81301563e-01
-5.96446875e-08,1.81298438e-01
-5.96046875e-08,1.81301563e-01
-5.95646875e-08,1.81298438e-01
-5.95246875e-08,1.81301563e-01
-5.94846875e-08,1.81298438e-01
-5.94446875e-08,1.81300000e-01
-5.94046875e-08,1.81300000e-01
-5.93646875e-08,1.81300000e-01
-5.93246875e-08,1.81300000e-01
-5.92846875e-08,1.81300000e-01
-5.92446875e-08,1.81300000e-01
-5.92046875e-08,1.81300000e-01
-5.91646875e-08,1.81300000e-01
-5.91246875e-08,1.81300000e-01
-5.90846875e-08,1.81300000e-01
-5.90446875e-08,1.81298438e-01
-5.90046875e-08,1.81301563e-01
-5.89646875e-08,1.81298438e-01
-5.89246875e-08,1.81303125e-01
-5.88846875e-08,1.81296875e-01
-5.88446875e-08,1.81304688e-01
-5.88046875e-08,1.81293750e-01
-5.87646875e-08,1.81307812e-01
-5.87246875e-08,1.81289063e-01
-5.86846875e-08,1.81315625e-01
-5.86446875e-08,1.81275000e-01
-5.86046875e-08,1.81350000e-01
-5.85646875e-08,1.81096875e-01
-5.85246875e-08,1.80840625e-01
-5.84846875e-08,1.80935938e-01
-5.84446875e-08,1.80873438e-01
-5.84046875e-08,1.80921875e-01
-5.83646875e-08,1.80881250e-01
-5.83246875e-08,1.80917188e-01
-5.82846875e-08,1.80884375e-01
-5.82446875e-08,1.80914063e-01
-5.82046875e-08,1.80885938e-01
-5.81646875e-08,1.80914063e-01
-5.81246875e-08,1.80885938e-01
-5.80846875e-08,1.80914063e-01
-5.80446875e-08,1.80885938e-01
-5.80046875e-08,1.80914063e-01
-5.79646875e-08,1.80885938e-01
-5.79246875e-08,1.80915625e-01
-5.78846875e-08,1.80882813e-01
-5.78446875e-08,1.80918750e-01
-5.78046875e-08,1.80878125e-01
-5.77646875e-08,1.80926562e-01
-5.77246875e-08,1.80864063e-01
-5.76846875e-08,1.80960938e-01
-5.76446875e-08,1.80685938e-01
-5.76046875e-08,1.80451562e-01
-5.75646875e-08,1.80525000e-01
-5.75246875e-08,1.80484375e-01
-5.74846875e-08,1.80510937e-01
-5.74446875e-08,1.80492188e-01
-5.74046875e-08,1.80506250e-01
-5.73646875e-08,1.80495313e-01
-5.73246875e-08,1.80503125e-01
-5.72846875e-08,1.80496875e-01
-5.72446875e-08,1.80501563e-01
-5.72046875e-08,1.80498437e-01
-5.71646875e-08,1.80501563e-01
-5.71246875e-08,1.80500000e-01
-5.70846875e-08,1.80500000e-01
-5.70446875e-08,1.80500000e-01
-5.70046875e-08,1.80500000e-01
-5.69646875e-08,1.80500000e-01
-5.69246875e-08,1.80500000e-01
-5.68846875e-08,1.80500000e-01
-5.68446875e-08,1.80498437e-01
-5.68046875e-08,1.80501563e-01
-5.67646875e-08,1.80498437e-01
-5.67246875e-08,1.80501563e-01
-5.66846875e-08,1.80498437e-01
-5.66446875e-08,1.80501563e-01
-5.66046875e-08,1.80498437e-01
-5.65646875e-08,1.80501563e-01
-5.65246875e-08,1.80498437e-01
-5.64846875e-08,1.80501563e-01
-5.64446875e-08,1.80498437e-01
-5.64046875e-08,1.80501563e-01
-5.63646875e-08,1.80498437e-01
-5.63246875e-08,1.80501563e-01
-5.62846875e-08,1.80498437e-01
-5.62446875e-08,1.80501563e-01
-5.62046875e-08,1.80498437e-01
-5.61646875e-08,1.80501563e-01
-5.61246875e-08,1.80498437e-01
-5.60846875e-08,1.80501563e-01
-5.60446875e-08,1.80498437e-01
-5.60046875e-08,1.80501563e-01
-5.59646875e-08,1.80498437e-01
-5.59246875e-08,1.80501563e-01
-5.58846875e-08,1.80498437e-01
-5.58446875e-08,1.80501563e-01
-5.58046875e-08,1.80498437e-01
-5.57646875e-08,1.80501563e-01
-5.57246875e-08,1.80498437e-01
-5.56846875e-08,1.80501563e-01
-5.56446875e-08,1.80498437e-01
-5.56046875e-08,1.80501563e-01
-5.55646875e-08,1.80498437e-01
-5.55246875e-08,1.80501563e-01
-5.54846875e-08,1.80498437e-01
-5.54446875e-08,1.80501563e-01
-5.54046875e-08,1.80498437e-01
-5.53646875e-08,1.80501563e-01
-5.53246875e-08,1.80498437e-01
-5.52846875e-08,1.80501563e-01
-5.52446875e-08,1.80498437e-01
-5.52046875e-08,1.80501563e-01
-5.51646875e-08,1.80498437e-01
-5.51246875e-08,1.80501563e-01
-5.50846875e-08,1.80498437e-01
-5.50446875e-08,1.80501563e-01
-5.50046875e-08,1.80498437e-01
-5.49646875e-08,1.80501563e-01
-5.49246875e-08,1.80500000e-01
-5.48846875e-08,1.80500000e-01
-5.48446875e-08,1.80500000e-01
-5.48046875e-08,1.80500000e-01
-5.47646875e-08,1.80500000e-01
-5.47246875e-08,1.80500000e-01
-5.46846875e-08,1.80501563e-01
-5.46446875e-08,1.80498437e-01
-5.46046875e-08,1.80503125e-01
-5.45646875e-08,1.80496875e-01
-5.45246875e-08,1.80504688e-01
-5.44846875e-08,1.80493750e-01
-5.44446875e-08,1.80509375e-01
-5.44046875e-08,1.80485937e-01
-5.43646875e-08,1.80523437e-01
-5.43246875e-08,1.80451562e-01
-5.42846875e-08,1.80701562e-01
-5.42446875e-08,1.80960938e-01
-5.42046875e-08,1.80862500e-01
-5.41646875e-08,1.80928125e-01
-5.41246875e-08,1.80876563e-01
-5.40846875e-08,1.80921875e-01
-5.40446875e-08,1.80879687e-01
-5.40046875e-08,1.80918750e-01
-5.39646875e-08,1.80881250e-01
-5.39246875e-08,1.80918750e-01
-5.38846875e-08,1.80879687e-01
-5.38446875e-08,1.80921875e-01
-5.38046875e-08,1.80875000e-01
-5.37646875e-08,1.80929688e-01
-5.37246875e-08,1.80860938e-01
-5.36846875e-08,1.80962500e-01
-5.36446875e-08,1.80684375e-01
-5.36046875e-08,1.80453125e-01
-5.35646875e-08,1.80521875e-01
-5.35246875e-08,1.80485937e-01
-5.34846875e-08,1.80509375e-01
-5.34446875e-08,1.80493750e-01
-5.34046875e-08,1.80503125e-01
-5.33646875e-08,1.80498437e-01
-5.33246875e-08,1.80501563e-01
-5.32846875e-08,1.80500000e-01
-5.32446875e-08,1.80500000e-01
-5.32046875e-08,1.80501563e-01
-5.31646875e-08,1.80498437e-01
-5.31246875e-08,1.80501563e-01
-5.30846875e-08,1.80498437e-01
-5.30446875e-08,1.80503125e-01
-5.30046875e-08,1.80496875e-01
-5.29646875e-08,1.80503125e-01
-5.29246875e-08,1.80496875e-01
-5.28846875e-08,1.80503125e-01
-5.28446875e-08,1.80496875e-01
-5.28046875e-08,1.80504688e-01
-5.27646875e-08,1.80495313e-01
-5.27246875e-08,1.80504688e-01
-5.26846875e-08,1.80495313e-01
-5.26446875e-08,1.80504688e-01
-5.26046875e-08,1.80495313e-01
-5.25646875e-08,1.80506250e-01
-5.25246875e-08,1.80493750e-01
-5.24846875e-08,1.80506250e-01
-5.24446875e-08,1.80493750e-01
-5.24046875e-08,1.80507813e-01
-5.23646875e-08,1.80492188e-01
-5.23246875e-08,1.80509375e-01
-5.22846875e-08,1.80490625e-01
-5.22446875e-08,1.80510937e-01
-5.22046875e-08,1.80487500e-01
-5.21646875e-08,1.80515625e-01
-5.21246875e-08,1.80479688e-01
-5.20846875e-08,1.80529688e-01
-5.20446875e-08,1.80445313e-01
-5.20046875e-08,1.80707813e-01
-5.19646875e-08,1.80954688e-01
-5.19246875e-08,1.80867187e-01
-5.18846875e-08,1.80925000e-01
-5.18446875e-08,1.80879687e-01
-5.18046875e-08,1.80920313e-01
-5.17646875e-08,1.80876563e-01
-5.17246875e-08,1.80931250e-01
-5.16846875e-08,1.80845312e-01
-5.16446875e-08,1.81106250e-01
-5.16046875e-08,1.81357812e-01
-5.15646875e-08,1.81265625e-01
-5.15246875e-08,1.81326563e-01
-5.14846875e-08,1.81276563e-01
-5.14446875e-08,1.81323438e-01
-5.14046875e-08,1.81276563e-01
-5.13646875e-08,1.81325000e-01
-5.13246875e-08,1.81270313e-01
-5.12846875e-08,1.81339063e-01
-5.12446875e-08,1.81235937e-01
-5.12046875e-08,1.81515625e-01
-5.11646875e-08,1.81745313e-01
-5.11246875e-08,1.81678125e-01
-5.10846875e-08,1.81712500e-01
-5.10446875e-08,1.81692188e-01
-5.10046875e-08,1.81703125e-01
-5.09646875e-08,1.81698438e-01
-5.09246875e-08,1.81698438e-01
-5.08846875e-08,1.81703125e-01
-5.08446875e-08,1.81695313e-01
-5.08046875e-08,1.81707813e-01
-5.07646875e-08,1.81689062e-01
-5.07246875e-08,1.81717188e-01
-5.06846875e-08,1.81673438e-01
-5.06446875e-08,1.81751563e-01
-5.06046875e-08,1.81495313e-01
-5.05646875e-08,1.81242188e-01
-5.05246875e-08,1.81334375e-01
-5.04846875e-08,1.81275000e-01
-5.04446875e-08,1.81320312e-01
-5.04046875e-08,1.81282813e-01
-5.03646875e-08,1.81315625e-01
-5.03246875e-08,1.81285937e-01
-5.02846875e-08,1.81314063e-01
-5.02446875e-08,1.81284375e-01
-5.02046875e-08,1.81315625e-01
-5.01646875e-08,1.81281250e-01
-5.01246875e-08,1.81323438e-01
-5.00846875e-08,1.81268750e-01
-5.00446875e-08,1.81356250e-01
-5.00046875e-08,1.81090625e-01
-4.99646875e-08,1.80846875e-01
-4.99246875e-08,1.80929688e-01
-4.98846875e-08,1.80878125e-01
-4.98446875e-08,1.80917188e-01
-4.98046875e-08,1.80885938e-01
-4.97646875e-08,1.80912500e-01
-4.97246875e-08,1.80889063e-01
-4.96846875e-08,1.80910938e-01
-4.96446875e-08,1.80889063e-01
-4.96046875e-08,1.80910938e-01
-4.95646875e-08,1.80889063e-01
-4.95246875e-08,1.80910938e-01
-4.94846875e-08,1.80889063e-01
-4.94446875e-08,1.80910938e-01
-4.94046875e-08,1.80887500e-01
-4.93646875e-08,1.80914063e-01
-4.93246875e-08,1.80885938e-01
-4.92846875e-08,1.80917188e-01
-4.92446875e-08,1.80879687e-01
-4.92046875e-08,1.80925000e-01
-4.91646875e-08,1.80865625e-01
-4.91246875e-08,1.80959375e-01
-4.90846875e-08,1.80687500e-01
-4.90446875e-08,1.80450000e-01
-4.90046875e-08,1.80525000e-01
-4.89646875e-08,1.80484375e-01
-4.89246875e-08,1.80510937e-01
-4.88846875e-08,1.80492188e-01
-4.88446875e-08,1.80506250e-01
-4.88046875e-08,1.80495313e-01
-4.87646875e-08,1.80503125e-01
-4.87246875e-08,1.80498437e-01
-4.86846875e-08,1.80501563e-01
-4.86446875e-08,1.80500000e-01
-4.86046875e-08,1.80500000e-01
-4.85646875e-08,1.80501563e-01
-4.85246875e-08,1.80498437e-01
-4.84846875e-08,1.80501563e-01
-4.84446875e-08,1.80496875e-01
-4.84046875e-08,1.80503125e-01
-4.83646875e-08,1.80496875e-01
-4.83246875e-08,1.80504688e-01
-4.82846875e-08,1.80495313e-01
-4.82446875e-08,1.80506250e-01
-4.82046875e-08,1.80493750e-01
-4.81646875e-08,1.80507813e-01
-4.81246875e-08,1.80492188e-01
-4.80846875e-08,1.80509375e-01
-4.80446875e-08,1.80489063e-01
-4.80046875e-08,1.80514063e-01
-4.79646875e-08,1.80482813e-01
-4.79246875e-08,1.80521875e-01
-4.78846875e-08,1.80467188e-01
-4.78446875e-08,1.80557812e-01
-4.78046875e-08,1.80289063e-01
-4.77646875e-08,1.80048438e-01
-4.77246875e-08,1.80126563e-01
-4.76846875e-08,1.80082812e-01
-4.76446875e-08,1.80112500e-01
-4.76046875e-08,1.80090625e-01
-4.75646875e-08,1.80106250e-01
-4.75246875e-08,1.80095312e-01
-4.74846875e-08,1.80103125e-01
-4.74446875e-08,1.80098438e-01
-4.74046875e-08,1.80100000e-01
-4.73646875e-08,1.80101563e-01
-4.73246875e-08,1.80096875e-01
-4.72846875e-08,1.80104687e-01
-4.72446875e-08,1.80093750e-01
-4.72046875e-08,1.80109375e-01
-4.71646875e-08,1.80087500e-01
-4.71246875e-08,1.80117187e-01
-4.70846875e-08,1.80071875e-01
-4.70446875e-08,1.80153125e-01
-4.70046875e-08,1.79893750e-01
-4.69646875e-08,1.79645313e-01
-4.69246875e-08,1.79731250e-01
-4.68846875e-08,1.79678125e-01
-4.68446875e-08,1.79715625e-01
-4.68046875e-08,1.79687500e-01
-4.67646875e-08,1.79710938e-01
-4.67246875e-08,1.79692188e-01
-4.66846875e-08,1.79706250e-01
-4.66446875e-08,1.79695313e-01
-4.66046875e-08,1.79703125e-01
-4.65646875e-08,1.79698438e-01
-4.65246875e-08,1.79701562e-01
-4.64846875e-08,1.79701562e-01
-4.64446875e-08,1.79696875e-01
-4.64046875e-08,1.79706250e-01
-4.63646875e-08,1.79687500e-01
-4.63246875e-08,1.79721875e-01
-4.62846875e-08,1.79653125e-01
-4.62446875e-08,1.79900000e-01
-4.62046875e-08,1.80162500e-01
-4.61646875e-08,1.80062500e-01
-4.61246875e-08,1.80128125e-01
-4.60846875e-08,1.80076563e-01
-4.60446875e-08,1.80121875e-01
-4.60046875e-08,1.80081250e-01
-4.59646875e-08,1.80118750e-01
-4.59246875e-08,1.80082812e-01
-4.58846875e-08,1.80117187e-01
-4.58446875e-08,1.80082812e-01
-4.58046875e-08,1.80118750e-01
-4.57646875e-08,1.80079688e-01
-4.57246875e-08,1.80121875e-01
-4.56846875e-08,1.80073438e-01
-4.56446875e-08,1.80135938e-01
-4.56046875e-08,1.80040625e-01
-4.55646875e-08,1.80312500e-01
-4.55246875e-08,1.80550000e-01
-4.54846875e-08,1.80473438e-01
-4.54446875e-08,1.80518750e-01
-4.54046875e-08,1.80485937e-01
-4.53646875e-08,1.80510937e-01
-4.53246875e-08,1.80489063e-01
-4.52846875e-08,1.80509375e-01
-4.52446875e-08,1.80490625e-01
-4.52046875e-08,1.80510937e-01
-4.51646875e-08,1.80487500e-01
-4.51246875e-08,1.80514063e-01
-4.50846875e-08,1.80481250e-01
-4.50446875e-08,1.80528125e-01
-4.50046875e-08,1.80446875e-01
-4.49646875e-08,1.80706250e-01
-4.49246875e-08,1.80956250e-01
-4.48846875e-08,1.80867187e-01
-4.48446875e-08,1.80923438e-01
-4.48046875e-08,1.80881250e-01
-4.47646875e-08,1.80917188e-01
-4.47246875e-08,1.80885938e-01
-4.46846875e-08,1.80914063e-01
-4.46446875e-08,1.80887500e-01
-4.46046875e-08,1.80912500e-01
-4.45646875e-08,1.80887500e-01
-4.45246875e-08,1.80910938e-01
-4.44846875e-08,1.80887500e-01
-4.44446875e-08,1.80912500e-01
-4.44046875e-08,1.80887500e-01
-4.43646875e-08,1.80912500e-01
-4.43246875e-08,1.80885938e-01
-4.42846875e-08,1.80915625e-01
-4.42446875e-08,1.80882813e-01
-4.42046875e-08,1.80920313e-01
-4.41646875e-08,1.80875000e-01
-4.41246875e-08,1.80934375e-01
-4.40846875e-08,1.80840625e-01
-4.40446875e-08,1.81112500e-01
-4.40046875e-08,1.81350000e-01
-4.39646875e-08,1.81273437e-01
-4.39246875e-08,1.81317188e-01
-4.38846875e-08,1.81287500e-01
-4.38446875e-08,1.81309375e-01
-4.38046875e-08,1.81293750e-01
-4.37646875e-08,1.81304688e-01
-4.37246875e-08,1.81296875e-01
-4.36846875e-08,1.81303125e-01
-4.36446875e-08,1.81298438e-01
-4.36046875e-08,1.81301563e-01
-4.35646875e-08,1.81300000e-01
-4.35246875e-08,1.81298438e-01
-4.34846875e-08,1.81301563e-01
-4.34446875e-08,1.81296875e-01
-4.34046875e-08,1.81304688e-01
-4.33646875e-08,1.81293750e-01
-4.33246875e-08,1.81309375e-01
-4.32846875e-08,1.81285937e-01
-4.32446875e-08,1.81325000e-01
-4.32046875e-08,1.81251563e-01
-4.31646875e-08,1.81501563e-01
-4.31246875e-08,1.81760937e-01
-4.30846875e-08,1.81662500e-01
-4.30446875e-08,1.81728125e-01
-4.30046875e-08,1.81676562e-01
-4.29646875e-08,1.81720313e-01
-4.29246875e-08,1.81681250e-01
-4.28846875e-08,1.81718750e-01
-4.28446875e-08,1.81681250e-01
-4.28046875e-08,1.81718750e-01
-4.27646875e-08,1.81681250e-01
-4.27246875e-08,1.81720313e-01
-4.26846875e-08,1.81678125e-01
-4.26446875e-08,1.81725000e-01
-4.26046875e-08,1.81670313e-01
-4.25646875e-08,1.81739062e-01
-4.25246875e-08,1.81635938e-01
-4.24846875e-08,1.81917187e-01
-4.24446875e-08,1.82145313e-01
-4.24046875e-08,1.82078125e-01
-4.23646875e-08,1.82112500e-01
-4.23246875e-08,1.82093750e-01
-4.22846875e-08,1.82103125e-01
-4.22446875e-08,1.82100000e-01
-4.22046875e-08,1.82098438e-01
-4.21646875e-08,1.82103125e-01
-4.21246875e-08,1.82095312e-01
-4.20846875e-08,1.82107812e-01
-4.20446875e-08,1.82089063e-01
-4.20046875e-08,1.82114063e-01
-4.19646875e-08,1.82081250e-01
-4.19246875e-08,1.82129687e-01
-4.18846875e-08,1.82045313e-01
-4.18446875e-08,1.82307812e-01
-4.18046875e-08,1.82554688e-01
-4.17646875e-08,1.82470313e-01
-4.17246875e-08,1.82520313e-01
-4.16846875e-08,1.82484375e-01
-4.16446875e-08,1.82512500e-01
-4.16046875e-08,1.82490625e-01
-4.15646875e-08,1.82507813e-01
-4.15246875e-08,1.82493750e-01
-4.14846875e-08,1.82504688e-01
-4.14446875e-08,1.82495313e-01
-4.14046875e-08,1.82503125e-01
-4.13646875e-08,1.82496875e-01
-4.13246875e-08,1.82501563e-01
-4.12846875e-08,1.82500000e-01
-4.12446875e-08,1.82500000e-01
-4.12046875e-08,1.82501563e-01
-4.11646875e-08,1.82496875e-01
-4.11246875e-08,1.82503125e-01
-4.10846875e-08,1.82493750e-01
-4.10446875e-08,1.82507813e-01
-4.10046875e-08,1.82489063e-01
-4.09646875e-08,1.82515625e-01
-4.09246875e-08,1.82473438e-01
-4.08846875e-08,1.82551563e-01
-4.08446875e-08,1.82295313e-01
-4.08046875e-08,1.82042188e-01
-4.07646875e-08,1.82134375e-01
-4.07246875e-08,1.82075000e-01
-4.06846875e-08,1.82118750e-01
-4.06446875e-08,1.82084375e-01
-4.06046875e-08,1.82114063e-01
-4.05646875e-08,1.82087500e-01
-4.05246875e-08,1.82110938e-01
-4.04846875e-08,1.82090625e-01
-4.04446875e-08,1.82109375e-01
-4.04046875e-08,1.82090625e-01
-4.03646875e-08,1.82107812e-01
-4.03246875e-08,1.82092188e-01
-4.02846875e-08,1.82107812e-01
-4.02446875e-08,1.82093750e-01
-4.02046875e-08,1.82106250e-01
-4.01646875e-08,1.82093750e-01
-4.01246875e-08,1.82106250e-01
-4.00846875e-08,1.82093750e-01
-4.00446875e-08,1.82106250e-01
-4.00046875e-08,1.82095312e-01
-3.99646875e-08,1.82104688e-01
-3.99246875e-08,1.82095312e-01
-3.98846875e-08,1.82104688e-01
-3.98446875e-08,1.82095312e-01
-3.98046875e-08,1.82104688e-01
-3.97646875e-08,1.82095312e-01
-3.97246875e-08,1.82103125e-01
-3.96846875e-08,1.82096875e-01
-3.96446875e-08,1.82103125e-01
-3.96046875e-08,1.82096875e-01
-3.95646875e-08,1.82103125e-01
-3.95246875e-08,1.82096875e-01
-3.94846875e-08,1.82103125e-01
-3.94446875e-08,1.82096875e-01
-3.94046875e-08,1.82101563e-01
-3.93646875e-08,1.82098438e-01
-3.93246875e-08,1.82101563e-01
-3.92846875e-08,1.82098438e-01
-3.92446875e-08,1.82100000e-01
-3.92046875e-08,1.82100000e-01
-3.91646875e-08,1.82098438e-01
-3.91246875e-08,1.82101563e-01
-3.90846875e-08,1.82096875e-01
-3.90446875e-08,1.82106250e-01
-3.90046875e-08,1.82092188e-01
-3.89646875e-08,1.82114063e-01
-3.89246875e-08,1.82076563e-01
-3.88846875e-08,1.82148438e-01
-3.88446875e-08,1.81900000e-01
-3.88046875e-08,1.81637500e-01
-3.87646875e-08,1.81739062e-01
-3.87246875e-08,1.81670313e-01
-3.86846875e-08,1.81725000e-01
-3.86446875e-08,1.81678125e-01
-3.86046875e-08,1.81720313e-01
-3.85646875e-08,1.81679688e-01
-3.85246875e-08,1.81718750e-01
