trails/0ad503bf4c7e473689fcee6623a13564/aes_ch1_20250507104739554.csv

Model,MSO66B
Label,
Waveform Type,ANALOG
Horizontal Units,s
Sample Interval,4.00000000e-11
Record Length,10000
Zero Index,1599.14843750
Vertical Units,A
ANALOG_Thumbnail,
yOffset,1.84500000e-01
yPosition,8.40000000e-01

Labels,
TIME,CH1
-6.39659375e-08,1.93712500e-01
-6.39259375e-08,1.93685938e-01
-6.38859375e-08,1.93717187e-01
-6.38459375e-08,1.93678125e-01
-6.38059375e-08,1.93731250e-01
-6.37659375e-08,1.93643750e-01
-6.37259375e-08,1.93909375e-01
-6.36859375e-08,1.94153125e-01
-6.36459375e-08,1.94070313e-01
-6.36059375e-08,1.94120313e-01
-6.35659375e-08,1.94084375e-01
-6.35259375e-08,1.94112500e-01
-6.34859375e-08,1.94089063e-01
-6.34459375e-08,1.94109375e-01
-6.34059375e-08,1.94090625e-01
-6.33659375e-08,1.94107813e-01
-6.33259375e-08,1.94092188e-01
-6.32859375e-08,1.94107813e-01
-6.32459375e-08,1.94092188e-01
-6.32059375e-08,1.94106250e-01
-6.31659375e-08,1.94093750e-01
-6.31259375e-08,1.94106250e-01
-6.30859375e-08,1.94092188e-01
-6.30459375e-08,1.94107813e-01
-6.30059375e-08,1.94092188e-01
-6.29659375e-08,1.94107813e-01
-6.29259375e-08,1.94092188e-01
-6.28859375e-08,1.94109375e-01
-6.28459375e-08,1.94090625e-01
-6.28059375e-08,1.94109375e-01
-6.27659375e-08,1.94089063e-01
-6.27259375e-08,1.94112500e-01
-6.26859375e-08,1.94085937e-01
-6.26459375e-08,1.94115625e-01
-6.26059375e-08,1.94081250e-01
-6.25659375e-08,1.94125000e-01
-6.25259375e-08,1.94065625e-01
-6.24859375e-08,1.94159375e-01
-6.24459375e-08,1.93885937e-01
-6.24059375e-08,1.93651563e-01
-6.23659375e-08,1.93723438e-01
-6.23259375e-08,1.93685938e-01
-6.22859375e-08,1.93707813e-01
-6.22459375e-08,1.93696875e-01
-6.22059375e-08,1.93696875e-01
-6.21659375e-08,1.93709375e-01
-6.21259375e-08,1.93681250e-01
-6.20859375e-08,1.93743750e-01
-6.20459375e-08,1.93503125e-01
-6.20059375e-08,1.93234375e-01
-6.19659375e-08,1.93342188e-01
-6.19259375e-08,1.93267187e-01
-6.18859375e-08,1.93329688e-01
-6.18459375e-08,1.93270313e-01
-6.18059375e-08,1.93332813e-01
-6.17659375e-08,1.93259375e-01
-6.17259375e-08,1.93364063e-01
-6.16859375e-08,1.93084375e-01
-6.16459375e-08,1.92851563e-01
-6.16059375e-08,1.92925000e-01
-6.15659375e-08,1.92882813e-01
-6.15259375e-08,1.92912500e-01
-6.14859375e-08,1.92890625e-01
-6.14459375e-08,1.92907812e-01
-6.14059375e-08,1.92892188e-01
-6.13659375e-08,1.92907812e-01
-6.13259375e-08,1.92892188e-01
-6.12859375e-08,1.92907812e-01
-6.12459375e-08,1.92892188e-01
-6.12059375e-08,1.92907812e-01
-6.11659375e-08,1.92892188e-01
-6.11259375e-08,1.92907812e-01
-6.10859375e-08,1.92890625e-01
-6.10459375e-08,1.92910938e-01
-6.10059375e-08,1.92889063e-01
-6.09659375e-08,1.92912500e-01
-6.09259375e-08,1.92884375e-01
-6.08859375e-08,1.92918750e-01
-6.08459375e-08,1.92876563e-01
-6.08059375e-08,1.92934375e-01
-6.07659375e-08,1.92840625e-01
-6.07259375e-08,1.93114063e-01
-6.06859375e-08,1.93348437e-01
-6.06459375e-08,1.93276562e-01
-6.06059375e-08,1.93312500e-01
-6.05659375e-08,1.93293750e-01
-6.05259375e-08,1.93301562e-01
-6.04859375e-08,1.93303125e-01
-6.04459375e-08,1.93289062e-01
-6.04059375e-08,1.93321875e-01
-6.03659375e-08,1.93253125e-01
-6.03259375e-08,1.93500000e-01
-6.02859375e-08,1.93760938e-01
-6.02459375e-08,1.93664063e-01
-6.02059375e-08,1.93726563e-01
-6.01659375e-08,1.93678125e-01
-6.01259375e-08,1.93718750e-01
-6.00859375e-08,1.93684375e-01
-6.00459375e-08,1.93714063e-01
-6.00059375e-08,1.93687500e-01
-5.99659375e-08,1.93710938e-01
-5.99259375e-08,1.93689063e-01
-5.98859375e-08,1.93709375e-01
-5.98459375e-08,1.93690625e-01
-5.98059375e-08,1.93707813e-01
-5.97659375e-08,1.93692188e-01
-5.97259375e-08,1.93707813e-01
-5.96859375e-08,1.93692188e-01
-5.96459375e-08,1.93706250e-01
-5.96059375e-08,1.93693750e-01
-5.95659375e-08,1.93706250e-01
-5.95259375e-08,1.93693750e-01
-5.94859375e-08,1.93706250e-01
-5.94459375e-08,1.93693750e-01
-5.94059375e-08,1.93704688e-01
-5.93659375e-08,1.93695312e-01
-5.93259375e-08,1.93704688e-01
-5.92859375e-08,1.93695312e-01
-5.92459375e-08,1.93704688e-01
-5.92059375e-08,1.93695312e-01
-5.91659375e-08,1.93704688e-01
-5.91259375e-08,1.93695312e-01
-5.90859375e-08,1.93703125e-01
-5.90459375e-08,1.93696875e-01
-5.90059375e-08,1.93703125e-01
-5.89659375e-08,1.93696875e-01
-5.89259375e-08,1.93703125e-01
-5.88859375e-08,1.93696875e-01
-5.88459375e-08,1.93703125e-01
-5.88059375e-08,1.93696875e-01
-5.87659375e-08,1.93701563e-01
-5.87259375e-08,1.93698438e-01
-5.86859375e-08,1.93701563e-01
-5.86459375e-08,1.93698438e-01
-5.86059375e-08,1.93701563e-01
-5.85659375e-08,1.93698438e-01
-5.85259375e-08,1.93701563e-01
-5.84859375e-08,1.93700000e-01
-5.84459375e-08,1.93700000e-01
-5.84059375e-08,1.93700000e-01
-5.83659375e-08,1.93700000e-01
-5.83259375e-08,1.93701563e-01
-5.82859375e-08,1.93698438e-01
-5.82459375e-08,1.93701563e-01
-5.82059375e-08,1.93696875e-01
-5.81659375e-08,1.93703125e-01
-5.81259375e-08,1.93695312e-01
-5.80859375e-08,1.93706250e-01
-5.80459375e-08,1.93692188e-01
-5.80059375e-08,1.93710938e-01
-5.79659375e-08,1.93682812e-01
-5.79259375e-08,1.93726563e-01
-5.78859375e-08,1.93648437e-01
-5.78459375e-08,1.93904688e-01
-5.78059375e-08,1.94157812e-01
-5.77659375e-08,1.94065625e-01
-5.77259375e-08,1.94125000e-01
-5.76859375e-08,1.94079688e-01
-5.76459375e-08,1.94117188e-01
-5.76059375e-08,1.94085937e-01
-5.75659375e-08,1.94112500e-01
-5.75259375e-08,1.94087500e-01
-5.74859375e-08,1.94110937e-01
-5.74459375e-08,1.94089063e-01
-5.74059375e-08,1.94109375e-01
-5.73659375e-08,1.94090625e-01
-5.73259375e-08,1.94109375e-01
-5.72859375e-08,1.94092188e-01
-5.72459375e-08,1.94107813e-01
-5.72059375e-08,1.94092188e-01
-5.71659375e-08,1.94107813e-01
-5.71259375e-08,1.94092188e-01
-5.70859375e-08,1.94107813e-01
-5.70459375e-08,1.94092188e-01
-5.70059375e-08,1.94107813e-01
-5.69659375e-08,1.94092188e-01
-5.69259375e-08,1.94107813e-01
-5.68859375e-08,1.94092188e-01
-5.68459375e-08,1.94107813e-01
-5.68059375e-08,1.94092188e-01
-5.67659375e-08,1.94107813e-01
-5.67259375e-08,1.94092188e-01
-5.66859375e-08,1.94107813e-01
-5.66459375e-08,1.94092188e-01
-5.66059375e-08,1.94107813e-01
-5.65659375e-08,1.94090625e-01
-5.65259375e-08,1.94109375e-01
-5.64859375e-08,1.94089063e-01
-5.64459375e-08,1.94112500e-01
-5.64059375e-08,1.94085937e-01
-5.63659375e-08,1.94117188e-01
-5.63259375e-08,1.94078125e-01
-5.62859375e-08,1.94131250e-01
-5.62459375e-08,1.94045313e-01
-5.62059375e-08,1.94307813e-01
-5.61659375e-08,1.94554688e-01
-5.61259375e-08,1.94468750e-01
-5.60859375e-08,1.94521875e-01
-5.60459375e-08,1.94481250e-01
-5.60059375e-08,1.94515625e-01
-5.59659375e-08,1.94485938e-01
-5.59259375e-08,1.94514063e-01
-5.58859375e-08,1.94484375e-01
-5.58459375e-08,1.94515625e-01
-5.58059375e-08,1.94481250e-01
-5.57659375e-08,1.94523438e-01
-5.57259375e-08,1.94467187e-01
-5.56859375e-08,1.94557813e-01
-5.56459375e-08,1.94290625e-01
-5.56059375e-08,1.94046875e-01
-5.55659375e-08,1.94129688e-01
-5.55259375e-08,1.94079688e-01
-5.54859375e-08,1.94114063e-01
-5.54459375e-08,1.94087500e-01
-5.54059375e-08,1.94109375e-01
-5.53659375e-08,1.94092188e-01
-5.53259375e-08,1.94107813e-01
-5.52859375e-08,1.94093750e-01
-5.52459375e-08,1.94106250e-01
-5.52059375e-08,1.94095313e-01
-5.51659375e-08,1.94104688e-01
-5.51259375e-08,1.94095313e-01
-5.50859375e-08,1.94103125e-01
-5.50459375e-08,1.94096875e-01
-5.50059375e-08,1.94103125e-01
-5.49659375e-08,1.94096875e-01
-5.49259375e-08,1.94101563e-01
-5.48859375e-08,1.94098437e-01
-5.48459375e-08,1.94101563e-01
-5.48059375e-08,1.94100000e-01
-5.47659375e-08,1.94100000e-01
-5.47259375e-08,1.94101563e-01
-5.46859375e-08,1.94098437e-01
-5.46459375e-08,1.94103125e-01
-5.46059375e-08,1.94095313e-01
-5.45659375e-08,1.94106250e-01
-5.45259375e-08,1.94090625e-01
-5.44859375e-08,1.94114063e-01
-5.44459375e-08,1.94075000e-01
-5.44059375e-08,1.94148437e-01
-5.43659375e-08,1.93898438e-01
-5.43259375e-08,1.93640625e-01
-5.42859375e-08,1.93735938e-01
-5.42459375e-08,1.93673438e-01
-5.42059375e-08,1.93721875e-01
-5.41659375e-08,1.93681250e-01
-5.41259375e-08,1.93717187e-01
-5.40859375e-08,1.93684375e-01
-5.40459375e-08,1.93714063e-01
-5.40059375e-08,1.93685938e-01
-5.39659375e-08,1.93714063e-01
-5.39259375e-08,1.93687500e-01
-5.38859375e-08,1.93712500e-01
-5.38459375e-08,1.93687500e-01
-5.38059375e-08,1.93712500e-01
-5.37659375e-08,1.93687500e-01
-5.37259375e-08,1.93712500e-01
-5.36859375e-08,1.93687500e-01
-5.36459375e-08,1.93712500e-01
-5.36059375e-08,1.93687500e-01
-5.35659375e-08,1.93712500e-01
-5.35259375e-08,1.93685938e-01
-5.34859375e-08,1.93714063e-01
-5.34459375e-08,1.93684375e-01
-5.34059375e-08,1.93717187e-01
-5.33659375e-08,1.93681250e-01
-5.33259375e-08,1.93721875e-01
-5.32859375e-08,1.93673438e-01
-5.32459375e-08,1.93735938e-01
-5.32059375e-08,1.93639063e-01
-5.31659375e-08,1.93914063e-01
-5.31259375e-08,1.94148437e-01
-5.30859375e-08,1.94075000e-01
-5.30459375e-08,1.94115625e-01
-5.30059375e-08,1.94090625e-01
-5.29659375e-08,1.94107813e-01
-5.29259375e-08,1.94095313e-01
-5.28859375e-08,1.94103125e-01
-5.28459375e-08,1.94096875e-01
-5.28059375e-08,1.94101563e-01
-5.27659375e-08,1.94098437e-01
-5.27259375e-08,1.94100000e-01
-5.26859375e-08,1.94100000e-01
-5.26459375e-08,1.94100000e-01
-5.26059375e-08,1.94100000e-01
-5.25659375e-08,1.94098437e-01
-5.25259375e-08,1.94101563e-01
-5.24859375e-08,1.94098437e-01
-5.24459375e-08,1.94101563e-01
-5.24059375e-08,1.94098437e-01
-5.23659375e-08,1.94101563e-01
-5.23259375e-08,1.94098437e-01
-5.22859375e-08,1.94101563e-01
-5.22459375e-08,1.94098437e-01
-5.22059375e-08,1.94101563e-01
-5.21659375e-08,1.94098437e-01
-5.21259375e-08,1.94103125e-01
-5.20859375e-08,1.94096875e-01
-5.20459375e-08,1.94103125e-01
-5.20059375e-08,1.94096875e-01
-5.19659375e-08,1.94103125e-01
-5.19259375e-08,1.94096875e-01
-5.18859375e-08,1.94103125e-01
-5.18459375e-08,1.94096875e-01
-5.18059375e-08,1.94103125e-01
-5.17659375e-08,1.94096875e-01
-5.17259375e-08,1.94103125e-01
-5.16859375e-08,1.94096875e-01
-5.16459375e-08,1.94103125e-01
-5.16059375e-08,1.94096875e-01
-5.15659375e-08,1.94103125e-01
-5.15259375e-08,1.94096875e-01
-5.14859375e-08,1.94103125e-01
-5.14459375e-08,1.94096875e-01
-5.14059375e-08,1.94103125e-01
-5.13659375e-08,1.94096875e-01
-5.13259375e-08,1.94103125e-01
-5.12859375e-08,1.94096875e-01
-5.12459375e-08,1.94104688e-01
-5.12059375e-08,1.94095313e-01
-5.11659375e-08,1.94104688e-01
-5.11259375e-08,1.94095313e-01
-5.10859375e-08,1.94104688e-01
-5.10459375e-08,1.94095313e-01
-5.10059375e-08,1.94104688e-01
-5.09659375e-08,1.94095313e-01
-5.09259375e-08,1.94104688e-01
-5.08859375e-08,1.94095313e-01
-5.08459375e-08,1.94104688e-01
-5.08059375e-08,1.94095313e-01
-5.07659375e-08,1.94104688e-01
-5.07259375e-08,1.94095313e-01
-5.06859375e-08,1.94106250e-01
-5.06459375e-08,1.94093750e-01
-5.06059375e-08,1.94106250e-01
-5.05659375e-08,1.94093750e-01
-5.05259375e-08,1.94106250e-01
-5.04859375e-08,1.94093750e-01
-5.04459375e-08,1.94107813e-01
-5.04059375e-08,1.94092188e-01
-5.03659375e-08,1.94107813e-01
-5.03259375e-08,1.94090625e-01
-5.02859375e-08,1.94109375e-01
-5.02459375e-08,1.94089063e-01
-5.02059375e-08,1.94110937e-01
-5.01659375e-08,1.94087500e-01
-5.01259375e-08,1.94115625e-01
-5.00859375e-08,1.94081250e-01
-5.00459375e-08,1.94123437e-01
-5.00059375e-08,1.94067188e-01
-4.99659375e-08,1.94157812e-01
-4.99259375e-08,1.93889063e-01
-4.98859375e-08,1.93648437e-01
-4.98459375e-08,1.93726563e-01
-4.98059375e-08,1.93682812e-01
-4.97659375e-08,1.93712500e-01
-4.97259375e-08,1.93690625e-01
-4.96859375e-08,1.93707813e-01
-4.96459375e-08,1.93693750e-01
-4.96059375e-08,1.93704688e-01
-4.95659375e-08,1.93696875e-01
-4.95259375e-08,1.93703125e-01
-4.94859375e-08,1.93698438e-01
-4.94459375e-08,1.93701563e-01
-4.94059375e-08,1.93698438e-01
-4.93659375e-08,1.93700000e-01
-4.93259375e-08,1.93700000e-01
-4.92859375e-08,1.93700000e-01
-4.92459375e-08,1.93701563e-01
-4.92059375e-08,1.93698438e-01
-4.91659375e-08,1.93703125e-01
-4.91259375e-08,1.93696875e-01
-4.90859375e-08,1.93704688e-01
-4.90459375e-08,1.93693750e-01
-4.90059375e-08,1.93707813e-01
-4.89659375e-08,1.93689063e-01
-4.89259375e-08,1.93715625e-01
-4.88859375e-08,1.93675000e-01
-4.88459375e-08,1.93750000e-01
-4.88059375e-08,1.93496875e-01
-4.87659375e-08,1.93240625e-01
-4.87259375e-08,1.93335937e-01
-4.86859375e-08,1.93273438e-01
-4.86459375e-08,1.93321875e-01
-4.86059375e-08,1.93279688e-01
-4.85659375e-08,1.93318750e-01
-4.85259375e-08,1.93281250e-01
-4.84859375e-08,1.93318750e-01
-4.84459375e-08,1.93281250e-01
-4.84059375e-08,1.93320313e-01
-4.83659375e-08,1.93276562e-01
-4.83259375e-08,1.93328125e-01
-4.82859375e-08,1.93262500e-01
-4.82459375e-08,1.93362500e-01
-4.82059375e-08,1.93084375e-01
-4.81659375e-08,1.92853125e-01
-4.81259375e-08,1.92921875e-01
-4.80859375e-08,1.92887500e-01
-4.80459375e-08,1.92906250e-01
-4.80059375e-08,1.92896875e-01
-4.79659375e-08,1.92900000e-01
-4.79259375e-08,1.92904688e-01
-4.78859375e-08,1.92892188e-01
-4.78459375e-08,1.92914063e-01
-4.78059375e-08,1.92876563e-01
-4.77659375e-08,1.92950000e-01
-4.77259375e-08,1.92696875e-01
-4.76859375e-08,1.92440625e-01
-4.76459375e-08,1.92535938e-01
-4.76059375e-08,1.92475000e-01
-4.75659375e-08,1.92520313e-01
-4.75259375e-08,1.92482813e-01
-4.74859375e-08,1.92515625e-01
-4.74459375e-08,1.92485938e-01
-4.74059375e-08,1.92512500e-01
-4.73659375e-08,1.92489063e-01
-4.73259375e-08,1.92510938e-01
-4.72859375e-08,1.92489063e-01
-4.72459375e-08,1.92509375e-01
-4.72059375e-08,1.92490625e-01
-4.71659375e-08,1.92509375e-01
-4.71259375e-08,1.92490625e-01
-4.70859375e-08,1.92507813e-01
-4.70459375e-08,1.92492188e-01
-4.70059375e-08,1.92507813e-01
-4.69659375e-08,1.92492188e-01
-4.69259375e-08,1.92507813e-01
-4.68859375e-08,1.92492188e-01
-4.68459375e-08,1.92507813e-01
-4.68059375e-08,1.92492188e-01
-4.67659375e-08,1.92507813e-01
-4.67259375e-08,1.92492188e-01
-4.66859375e-08,1.92506250e-01
-4.66459375e-08,1.92493750e-01
-4.66059375e-08,1.92506250e-01
-4.65659375e-08,1.92493750e-01
-4.65259375e-08,1.92506250e-01
-4.64859375e-08,1.92493750e-01
-4.64459375e-08,1.92506250e-01
-4.64059375e-08,1.92493750e-01
-4.63659375e-08,1.92506250e-01
-4.63259375e-08,1.92493750e-01
-4.62859375e-08,1.92506250e-01
-4.62459375e-08,1.92493750e-01
-4.62059375e-08,1.92506250e-01
-4.61659375e-08,1.92493750e-01
-4.61259375e-08,1.92506250e-01
-4.60859375e-08,1.92493750e-01
-4.60459375e-08,1.92506250e-01
-4.60059375e-08,1.92493750e-01
-4.59659375e-08,1.92507813e-01
-4.59259375e-08,1.92492188e-01
-4.58859375e-08,1.92507813e-01
-4.58459375e-08,1.92492188e-01
-4.58059375e-08,1.92507813e-01
-4.57659375e-08,1.92492188e-01
-4.57259375e-08,1.92507813e-01
-4.56859375e-08,1.92492188e-01
-4.56459375e-08,1.92507813e-01
-4.56059375e-08,1.92492188e-01
-4.55659375e-08,1.92507813e-01
-4.55259375e-08,1.92492188e-01
-4.54859375e-08,1.92507813e-01
-4.54459375e-08,1.92492188e-01
-4.54059375e-08,1.92507813e-01
-4.53659375e-08,1.92490625e-01
-4.53259375e-08,1.92509375e-01
-4.52859375e-08,1.92490625e-01
-4.52459375e-08,1.92509375e-01
-4.52059375e-08,1.92490625e-01
-4.51659375e-08,1.92509375e-01
-4.51259375e-08,1.92489063e-01
-4.50859375e-08,1.92510938e-01
-4.50459375e-08,1.92489063e-01
-4.50059375e-08,1.92512500e-01
-4.49659375e-08,1.92487500e-01
-4.49259375e-08,1.92514062e-01
-4.48859375e-08,1.92484375e-01
-4.48459375e-08,1.92517188e-01
-4.48059375e-08,1.92481250e-01
-4.47659375e-08,1.92521875e-01
-4.47259375e-08,1.92473438e-01
-4.46859375e-08,1.92535938e-01
-4.46459375e-08,1.92439063e-01
-4.46059375e-08,1.92714063e-01
-4.45659375e-08,1.92946875e-01
-4.45259375e-08,1.92876563e-01
-4.44859375e-08,1.92914063e-01
-4.44459375e-08,1.92890625e-01
-4.44059375e-08,1.92906250e-01
-4.43659375e-08,1.92896875e-01
-4.43259375e-08,1.92901563e-01
-4.42859375e-08,1.92898438e-01
-4.42459375e-08,1.92900000e-01
-4.42059375e-08,1.92900000e-01
-4.41659375e-08,1.92898438e-01
-4.41259375e-08,1.92901563e-01
-4.40859375e-08,1.92896875e-01
-4.40459375e-08,1.92903125e-01
-4.40059375e-08,1.92896875e-01
-4.39659375e-08,1.92903125e-01
-4.39259375e-08,1.92895312e-01
-4.38859375e-08,1.92904688e-01
-4.38459375e-08,1.92895312e-01
-4.38059375e-08,1.92904688e-01
-4.37659375e-08,1.92893750e-01
-4.37259375e-08,1.92906250e-01
-4.36859375e-08,1.92893750e-01
-4.36459375e-08,1.92906250e-01
-4.36059375e-08,1.92893750e-01
-4.35659375e-08,1.92907812e-01
-4.35259375e-08,1.92892188e-01
-4.34859375e-08,1.92907812e-01
-4.34459375e-08,1.92892188e-01
-4.34059375e-08,1.92907812e-01
-4.33659375e-08,1.92890625e-01
-4.33259375e-08,1.92909375e-01
-4.32859375e-08,1.92890625e-01
-4.32459375e-08,1.92910938e-01
-4.32059375e-08,1.92889063e-01
-4.31659375e-08,1.92910938e-01
-4.31259375e-08,1.92887500e-01
-4.30859375e-08,1.92912500e-01
-4.30459375e-08,1.92885937e-01
-4.30059375e-08,1.92915625e-01
-4.29659375e-08,1.92882813e-01
-4.29259375e-08,1.92918750e-01
-4.28859375e-08,1.92879688e-01
-4.28459375e-08,1.92925000e-01
-4.28059375e-08,1.92870313e-01
-4.27659375e-08,1.92939063e-01
-4.27259375e-08,1.92834375e-01
-4.26859375e-08,1.93118750e-01
-4.26459375e-08,1.93342188e-01
-4.26059375e-08,1.93281250e-01
-4.25659375e-08,1.93307813e-01
-4.25259375e-08,1.93296875e-01
-4.24859375e-08,1.93298438e-01
-4.24459375e-08,1.93304688e-01
-4.24059375e-08,1.93292188e-01
-4.23659375e-08,1.93310938e-01
-4.23259375e-08,1.93285938e-01
-4.22859375e-08,1.93317188e-01
-4.22459375e-08,1.93276562e-01
-4.22059375e-08,1.93334375e-01
-4.21659375e-08,1.93239063e-01
-4.21259375e-08,1.93514063e-01
-4.20859375e-08,1.93746875e-01
-4.20459375e-08,1.93678125e-01
-4.20059375e-08,1.93710938e-01
-4.19659375e-08,1.93695312e-01
-4.19259375e-08,1.93700000e-01
-4.18859375e-08,1.93703125e-01
-4.18459375e-08,1.93692188e-01
-4.18059375e-08,1.93712500e-01
-4.17659375e-08,1.93681250e-01
-4.17259375e-08,1.93729687e-01
-4.16859375e-08,1.93645312e-01
-4.16459375e-08,1.93909375e-01
-4.16059375e-08,1.94151563e-01
-4.15659375e-08,1.94073438e-01
-4.15259375e-08,1.94115625e-01
-4.14859375e-08,1.94090625e-01
-4.14459375e-08,1.94104688e-01
-4.14059375e-08,1.94098437e-01
-4.13659375e-08,1.94096875e-01
-4.13259375e-08,1.94107813e-01
-4.12859375e-08,1.94085937e-01
-4.12459375e-08,1.94125000e-01
-4.12059375e-08,1.94050000e-01
-4.11659375e-08,1.94304688e-01
-4.11259375e-08,1.94557813e-01
-4.10859375e-08,1.94467187e-01
-4.10459375e-08,1.94521875e-01
-4.10059375e-08,1.94482813e-01
-4.09659375e-08,1.94512500e-01
-4.09259375e-08,1.94490625e-01
-4.08859375e-08,1.94507813e-01
-4.08459375e-08,1.94495313e-01
-4.08059375e-08,1.94503125e-01
-4.07659375e-08,1.94500000e-01
-4.07259375e-08,1.94496875e-01
-4.06859375e-08,1.94506250e-01
-4.06459375e-08,1.94487500e-01
-4.06059375e-08,1.94521875e-01
-4.05659375e-08,1.94451563e-01
-4.05259375e-08,1.94701563e-01
-4.04859375e-08,1.94960938e-01
-4.04459375e-08,1.94864063e-01
-4.04059375e-08,1.94926563e-01
-4.03659375e-08,1.94878125e-01
-4.03259375e-08,1.94918750e-01
-4.02859375e-08,1.94884375e-01
-4.02459375e-08,1.94914063e-01
-4.02059375e-08,1.94887500e-01
-4.01659375e-08,1.94910937e-01
-4.01259375e-08,1.94889063e-01
-4.00859375e-08,1.94909375e-01
-4.00459375e-08,1.94890625e-01
-4.00059375e-08,1.94907812e-01
-3.99659375e-08,1.94892188e-01
-3.99259375e-08,1.94907812e-01
-3.98859375e-08,1.94893750e-01
-3.98459375e-08,1.94906250e-01
-3.98059375e-08,1.94893750e-01
-3.97659375e-08,1.94906250e-01
-3.97259375e-08,1.94895313e-01
-3.96859375e-08,1.94904688e-01
-3.96459375e-08,1.94895313e-01
-3.96059375e-08,1.94904688e-01
-3.95659375e-08,1.94895313e-01
-3.95259375e-08,1.94903125e-01
-3.94859375e-08,1.94896875e-01
-3.94459375e-08,1.94903125e-01
-3.94059375e-08,1.94896875e-01
-3.93659375e-08,1.94903125e-01
-3.93259375e-08,1.94898438e-01
-3.92859375e-08,1.94901563e-01
-3.92459375e-08,1.94898438e-01
-3.92059375e-08,1.94901563e-01
-3.91659375e-08,1.94900000e-01
-3.91259375e-08,1.94900000e-01
-3.90859375e-08,1.94901563e-01
-3.90459375e-08,1.94898438e-01
-3.90059375e-08,1.94903125e-01
-3.89659375e-08,1.94895313e-01
-3.89259375e-08,1.94906250e-01
-3.88859375e-08,1.94890625e-01
-3.88459375e-08,1.94914063e-01
-3.88059375e-08,1.94876563e-01
-3.87659375e-08,1.94948438e-01
-3.87259375e-08,1.94698438e-01
-3.86859375e-08,1.94439063e-01
-3.86459375e-08,1.94537500e-01
-3.86059375e-08,1.94470313e-01
-3.85659375e-08,1.94525000e-01
-3.85259375e-08,1.94478125e-01
