trails/0ad503bf4c7e473689fcee6623a13564/aes_ch1_20250507104716679.csv

Model,MSO66B
Label,
Waveform Type,ANALOG
Horizontal Units,s
Sample Interval,4.00000000e-11
Record Length,10000
Zero Index,1599.06250000
Vertical Units,A
ANALOG_Thumbnail,
yOffset,1.84500000e-01
yPosition,8.40000000e-01

Labels,
TIME,CH1
-6.39625000e-08,2.02887500e-01
-6.39225000e-08,2.02912500e-01
-6.38825000e-08,2.02885938e-01
-6.38425000e-08,2.02917188e-01
-6.38025000e-08,2.02878125e-01
-6.37625000e-08,2.02931250e-01
-6.37225000e-08,2.02843750e-01
-6.36825000e-08,2.03107813e-01
-6.36425000e-08,2.03354688e-01
-6.36025000e-08,2.03268750e-01
-6.35625000e-08,2.03321875e-01
-6.35225000e-08,2.03281250e-01
-6.34825000e-08,2.03315625e-01
-6.34425000e-08,2.03285938e-01
-6.34025000e-08,2.03314063e-01
-6.33625000e-08,2.03285938e-01
-6.33225000e-08,2.03315625e-01
-6.32825000e-08,2.03284375e-01
-6.32425000e-08,2.03318750e-01
-6.32025000e-08,2.03276563e-01
-6.31625000e-08,2.03332813e-01
-6.31225000e-08,2.03242188e-01
-6.30825000e-08,2.03510938e-01
-6.30425000e-08,2.03751563e-01
-6.30025000e-08,2.03671875e-01
-6.29625000e-08,2.03718750e-01
-6.29225000e-08,2.03685937e-01
-6.28825000e-08,2.03710938e-01
-6.28425000e-08,2.03690625e-01
-6.28025000e-08,2.03707813e-01
-6.27625000e-08,2.03693750e-01
-6.27225000e-08,2.03706250e-01
-6.26825000e-08,2.03693750e-01
-6.26425000e-08,2.03704688e-01
-6.26025000e-08,2.03695313e-01
-6.25625000e-08,2.03704688e-01
-6.25225000e-08,2.03695313e-01
-6.24825000e-08,2.03703125e-01
-6.24425000e-08,2.03696875e-01
-6.24025000e-08,2.03703125e-01
-6.23625000e-08,2.03696875e-01
-6.23225000e-08,2.03703125e-01
-6.22825000e-08,2.03696875e-01
-6.22425000e-08,2.03703125e-01
-6.22025000e-08,2.03696875e-01
-6.21625000e-08,2.03703125e-01
-6.21225000e-08,2.03696875e-01
-6.20825000e-08,2.03703125e-01
-6.20425000e-08,2.03696875e-01
-6.20025000e-08,2.03703125e-01
-6.19625000e-08,2.03696875e-01
-6.19225000e-08,2.03703125e-01
-6.18825000e-08,2.03696875e-01
-6.18425000e-08,2.03703125e-01
-6.18025000e-08,2.03696875e-01
-6.17625000e-08,2.03703125e-01
-6.17225000e-08,2.03696875e-01
-6.16825000e-08,2.03703125e-01
-6.16425000e-08,2.03696875e-01
-6.16025000e-08,2.03704688e-01
-6.15625000e-08,2.03695313e-01
-6.15225000e-08,2.03704688e-01
-6.14825000e-08,2.03693750e-01
-6.14425000e-08,2.03706250e-01
-6.14025000e-08,2.03692188e-01
-6.13625000e-08,2.03709375e-01
-6.13225000e-08,2.03689063e-01
-6.12825000e-08,2.03714063e-01
-6.12425000e-08,2.03681250e-01
-6.12025000e-08,2.03728125e-01
-6.11625000e-08,2.03646875e-01
-6.11225000e-08,2.03906250e-01
-6.10825000e-08,2.04156250e-01
-6.10425000e-08,2.04067187e-01
-6.10025000e-08,2.04123438e-01
-6.09625000e-08,2.04081250e-01
-6.09225000e-08,2.04115625e-01
-6.08825000e-08,2.04085938e-01
-6.08425000e-08,2.04112500e-01
-6.08025000e-08,2.04089063e-01
-6.07625000e-08,2.04110938e-01
-6.07225000e-08,2.04089063e-01
-6.06825000e-08,2.04110938e-01
-6.06425000e-08,2.04090625e-01
-6.06025000e-08,2.04109375e-01
-6.05625000e-08,2.04090625e-01
-6.05225000e-08,2.04109375e-01
-6.04825000e-08,2.04089063e-01
-6.04425000e-08,2.04110938e-01
-6.04025000e-08,2.04089063e-01
-6.03625000e-08,2.04110938e-01
-6.03225000e-08,2.04087500e-01
-6.02825000e-08,2.04114062e-01
-6.02425000e-08,2.04085938e-01
-6.02025000e-08,2.04117188e-01
-6.01625000e-08,2.04079687e-01
-6.01225000e-08,2.04125000e-01
-6.00825000e-08,2.04065625e-01
-6.00425000e-08,2.04159375e-01
-6.00025000e-08,2.03887500e-01
-5.99625000e-08,2.03650000e-01
-5.99225000e-08,2.03726563e-01
-5.98825000e-08,2.03682813e-01
-5.98425000e-08,2.03710938e-01
-5.98025000e-08,2.03692188e-01
-5.97625000e-08,2.03706250e-01
-5.97225000e-08,2.03695313e-01
-5.96825000e-08,2.03703125e-01
-5.96425000e-08,2.03696875e-01
-5.96025000e-08,2.03701563e-01
-5.95625000e-08,2.03698437e-01
-5.95225000e-08,2.03701563e-01
-5.94825000e-08,2.03700000e-01
-5.94425000e-08,2.03700000e-01
-5.94025000e-08,2.03700000e-01
-5.93625000e-08,2.03698437e-01
-5.93225000e-08,2.03701563e-01
-5.92825000e-08,2.03698437e-01
-5.92425000e-08,2.03701563e-01
-5.92025000e-08,2.03698437e-01
-5.91625000e-08,2.03703125e-01
-5.91225000e-08,2.03696875e-01
-5.90825000e-08,2.03703125e-01
-5.90425000e-08,2.03696875e-01
-5.90025000e-08,2.03704688e-01
-5.89625000e-08,2.03695313e-01
-5.89225000e-08,2.03704688e-01
-5.88825000e-08,2.03695313e-01
-5.88425000e-08,2.03706250e-01
-5.88025000e-08,2.03693750e-01
-5.87625000e-08,2.03706250e-01
-5.87225000e-08,2.03692188e-01
-5.86825000e-08,2.03707813e-01
-5.86425000e-08,2.03690625e-01
-5.86025000e-08,2.03709375e-01
-5.85625000e-08,2.03689063e-01
-5.85225000e-08,2.03712500e-01
-5.84825000e-08,2.03685937e-01
-5.84425000e-08,2.03717188e-01
-5.84025000e-08,2.03679688e-01
-5.83625000e-08,2.03725000e-01
-5.83225000e-08,2.03664063e-01
-5.82825000e-08,2.03760938e-01
-5.82425000e-08,2.03484375e-01
-5.82025000e-08,2.03253125e-01
-5.81625000e-08,2.03321875e-01
-5.81225000e-08,2.03290625e-01
-5.80825000e-08,2.03303125e-01
-5.80425000e-08,2.03303125e-01
-5.80025000e-08,2.03289063e-01
-5.79625000e-08,2.03321875e-01
-5.79225000e-08,2.03251563e-01
-5.78825000e-08,2.03501563e-01
-5.78425000e-08,2.03759375e-01
-5.78025000e-08,2.03665625e-01
-5.77625000e-08,2.03725000e-01
-5.77225000e-08,2.03679688e-01
-5.76825000e-08,2.03715625e-01
-5.76425000e-08,2.03685937e-01
-5.76025000e-08,2.03710938e-01
-5.75625000e-08,2.03689063e-01
-5.75225000e-08,2.03709375e-01
-5.74825000e-08,2.03692188e-01
-5.74425000e-08,2.03706250e-01
-5.74025000e-08,2.03693750e-01
-5.73625000e-08,2.03704688e-01
-5.73225000e-08,2.03695313e-01
-5.72825000e-08,2.03703125e-01
-5.72425000e-08,2.03696875e-01
-5.72025000e-08,2.03701563e-01
-5.71625000e-08,2.03700000e-01
-5.71225000e-08,2.03700000e-01
-5.70825000e-08,2.03701563e-01
-5.70425000e-08,2.03696875e-01
-5.70025000e-08,2.03706250e-01
-5.69625000e-08,2.03690625e-01
-5.69225000e-08,2.03714063e-01
-5.68825000e-08,2.03676563e-01
-5.68425000e-08,2.03748438e-01
-5.68025000e-08,2.03498438e-01
-5.67625000e-08,2.03240625e-01
-5.67225000e-08,2.03335938e-01
-5.66825000e-08,2.03273438e-01
-5.66425000e-08,2.03321875e-01
-5.66025000e-08,2.03281250e-01
-5.65625000e-08,2.03315625e-01
-5.65225000e-08,2.03285938e-01
-5.64825000e-08,2.03314063e-01
-5.64425000e-08,2.03287500e-01
-5.64025000e-08,2.03312500e-01
-5.63625000e-08,2.03289063e-01
-5.63225000e-08,2.03310938e-01
-5.62825000e-08,2.03289063e-01
-5.62425000e-08,2.03309375e-01
-5.62025000e-08,2.03290625e-01
-5.61625000e-08,2.03309375e-01
-5.61225000e-08,2.03290625e-01
-5.60825000e-08,2.03309375e-01
-5.60425000e-08,2.03290625e-01
-5.60025000e-08,2.03307813e-01
-5.59625000e-08,2.03292187e-01
-5.59225000e-08,2.03307813e-01
-5.58825000e-08,2.03292187e-01
-5.58425000e-08,2.03307813e-01
-5.58025000e-08,2.03292187e-01
-5.57625000e-08,2.03307813e-01
-5.57225000e-08,2.03292187e-01
-5.56825000e-08,2.03307813e-01
-5.56425000e-08,2.03292187e-01
-5.56025000e-08,2.03307813e-01
-5.55625000e-08,2.03292187e-01
-5.55225000e-08,2.03309375e-01
-5.54825000e-08,2.03290625e-01
-5.54425000e-08,2.03309375e-01
-5.54025000e-08,2.03290625e-01
-5.53625000e-08,2.03309375e-01
-5.53225000e-08,2.03289063e-01
-5.52825000e-08,2.03310938e-01
-5.52425000e-08,2.03287500e-01
-5.52025000e-08,2.03314063e-01
-5.51625000e-08,2.03284375e-01
-5.51225000e-08,2.03318750e-01
-5.50825000e-08,2.03276563e-01
-5.50425000e-08,2.03332813e-01
-5.50025000e-08,2.03242188e-01
-5.49625000e-08,2.03510938e-01
-5.49225000e-08,2.03751563e-01
-5.48825000e-08,2.03673437e-01
-5.48425000e-08,2.03717188e-01
-5.48025000e-08,2.03687500e-01
-5.47625000e-08,2.03709375e-01
-5.47225000e-08,2.03692188e-01
-5.46825000e-08,2.03706250e-01
-5.46425000e-08,2.03693750e-01
-5.46025000e-08,2.03704688e-01
-5.45625000e-08,2.03695313e-01
-5.45225000e-08,2.03703125e-01
-5.44825000e-08,2.03696875e-01
-5.44425000e-08,2.03703125e-01
-5.44025000e-08,2.03696875e-01
-5.43625000e-08,2.03703125e-01
-5.43225000e-08,2.03696875e-01
-5.42825000e-08,2.03703125e-01
-5.42425000e-08,2.03696875e-01
-5.42025000e-08,2.03703125e-01
-5.41625000e-08,2.03696875e-01
-5.41225000e-08,2.03703125e-01
-5.40825000e-08,2.03696875e-01
-5.40425000e-08,2.03703125e-01
-5.40025000e-08,2.03696875e-01
-5.39625000e-08,2.03703125e-01
-5.39225000e-08,2.03696875e-01
-5.38825000e-08,2.03704688e-01
-5.38425000e-08,2.03695313e-01
-5.38025000e-08,2.03706250e-01
-5.37625000e-08,2.03693750e-01
-5.37225000e-08,2.03707813e-01
-5.36825000e-08,2.03690625e-01
-5.36425000e-08,2.03712500e-01
-5.36025000e-08,2.03682813e-01
-5.35625000e-08,2.03726563e-01
-5.35225000e-08,2.03648438e-01
-5.34825000e-08,2.03904688e-01
-5.34425000e-08,2.04157813e-01
-5.34025000e-08,2.04065625e-01
-5.33625000e-08,2.04125000e-01
-5.33225000e-08,2.04079687e-01
-5.32825000e-08,2.04117188e-01
-5.32425000e-08,2.04084375e-01
-5.32025000e-08,2.04114062e-01
-5.31625000e-08,2.04085938e-01
-5.31225000e-08,2.04112500e-01
-5.30825000e-08,2.04087500e-01
-5.30425000e-08,2.04112500e-01
-5.30025000e-08,2.04087500e-01
-5.29625000e-08,2.04114062e-01
-5.29225000e-08,2.04085938e-01
-5.28825000e-08,2.04115625e-01
-5.28425000e-08,2.04082813e-01
-5.28025000e-08,2.04120313e-01
-5.27625000e-08,2.04075000e-01
-5.27225000e-08,2.04134375e-01
-5.26825000e-08,2.04040625e-01
-5.26425000e-08,2.04312500e-01
-5.26025000e-08,2.04550000e-01
-5.25625000e-08,2.04473438e-01
-5.25225000e-08,2.04517188e-01
-5.24825000e-08,2.04487500e-01
-5.24425000e-08,2.04509375e-01
-5.24025000e-08,2.04492188e-01
-5.23625000e-08,2.04506250e-01
-5.23225000e-08,2.04493750e-01
-5.22825000e-08,2.04504688e-01
-5.22425000e-08,2.04495312e-01
-5.22025000e-08,2.04504688e-01
-5.21625000e-08,2.04496875e-01
-5.21225000e-08,2.04503125e-01
-5.20825000e-08,2.04496875e-01
-5.20425000e-08,2.04503125e-01
-5.20025000e-08,2.04496875e-01
-5.19625000e-08,2.04503125e-01
-5.19225000e-08,2.04496875e-01
-5.18825000e-08,2.04503125e-01
-5.18425000e-08,2.04495312e-01
-5.18025000e-08,2.04504688e-01
-5.17625000e-08,2.04495312e-01
-5.17225000e-08,2.04506250e-01
-5.16825000e-08,2.04492188e-01
-5.16425000e-08,2.04509375e-01
-5.16025000e-08,2.04487500e-01
-5.15625000e-08,2.04517188e-01
-5.15225000e-08,2.04473438e-01
-5.14825000e-08,2.04550000e-01
-5.14425000e-08,2.04296875e-01
-5.14025000e-08,2.04040625e-01
-5.13625000e-08,2.04135938e-01
-5.13225000e-08,2.04073438e-01
-5.12825000e-08,2.04123438e-01
-5.12425000e-08,2.04079687e-01
-5.12025000e-08,2.04118750e-01
-5.11625000e-08,2.04081250e-01
-5.11225000e-08,2.04118750e-01
-5.10825000e-08,2.04079687e-01
-5.10425000e-08,2.04120313e-01
-5.10025000e-08,2.04076563e-01
-5.09625000e-08,2.04128125e-01
-5.09225000e-08,2.04062500e-01
-5.08825000e-08,2.04162500e-01
-5.08425000e-08,2.03884375e-01
-5.08025000e-08,2.03653125e-01
-5.07625000e-08,2.03721875e-01
-5.07225000e-08,2.03687500e-01
-5.06825000e-08,2.03707813e-01
-5.06425000e-08,2.03696875e-01
-5.06025000e-08,2.03701563e-01
-5.05625000e-08,2.03701563e-01
-5.05225000e-08,2.03696875e-01
-5.04825000e-08,2.03706250e-01
-5.04425000e-08,2.03689063e-01
-5.04025000e-08,2.03715625e-01
-5.03625000e-08,2.03673437e-01
-5.03225000e-08,2.03751563e-01
-5.02825000e-08,2.03495312e-01
-5.02425000e-08,2.03242188e-01
-5.02025000e-08,2.03334375e-01
-5.01625000e-08,2.03275000e-01
-5.01225000e-08,2.03318750e-01
-5.00825000e-08,2.03284375e-01
-5.00425000e-08,2.03314063e-01
-5.00025000e-08,2.03287500e-01
-4.99625000e-08,2.03310938e-01
-4.99225000e-08,2.03289063e-01
-4.98825000e-08,2.03309375e-01
-4.98425000e-08,2.03290625e-01
-4.98025000e-08,2.03309375e-01
-4.97625000e-08,2.03290625e-01
-4.97225000e-08,2.03309375e-01
-4.96825000e-08,2.03292187e-01
-4.96425000e-08,2.03307813e-01
-4.96025000e-08,2.03292187e-01
-4.95625000e-08,2.03307813e-01
-4.95225000e-08,2.03292187e-01
-4.94825000e-08,2.03307813e-01
-4.94425000e-08,2.03292187e-01
-4.94025000e-08,2.03309375e-01
-4.93625000e-08,2.03290625e-01
-4.93225000e-08,2.03309375e-01
-4.92825000e-08,2.03290625e-01
-4.92425000e-08,2.03309375e-01
-4.92025000e-08,2.03289063e-01
-4.91625000e-08,2.03310938e-01
-4.91225000e-08,2.03287500e-01
-4.90825000e-08,2.03312500e-01
-4.90425000e-08,2.03285938e-01
-4.90025000e-08,2.03315625e-01
-4.89625000e-08,2.03281250e-01
-4.89225000e-08,2.03321875e-01
-4.88825000e-08,2.03271875e-01
-4.88425000e-08,2.03337500e-01
-4.88025000e-08,2.03235938e-01
-4.87625000e-08,2.03517188e-01
-4.87225000e-08,2.03743750e-01
-4.86825000e-08,2.03681250e-01
-4.86425000e-08,2.03706250e-01
-4.86025000e-08,2.03701563e-01
-4.85625000e-08,2.03690625e-01
-4.85225000e-08,2.03721875e-01
-4.84825000e-08,2.03651562e-01
-4.84425000e-08,2.03903125e-01
-4.84025000e-08,2.04157813e-01
-4.83625000e-08,2.04068750e-01
-4.83225000e-08,2.04120313e-01
-4.82825000e-08,2.04087500e-01
-4.82425000e-08,2.04104687e-01
-4.82025000e-08,2.04107813e-01
-4.81625000e-08,2.04067187e-01
-4.81225000e-08,2.04285938e-01
-4.80825000e-08,2.04576563e-01
-4.80425000e-08,2.04445313e-01
-4.80025000e-08,2.04546875e-01
-4.79625000e-08,2.04453125e-01
-4.79225000e-08,2.04553125e-01
-4.78825000e-08,2.04425000e-01
-4.78425000e-08,2.04726563e-01
-4.78025000e-08,2.04937500e-01
-4.77625000e-08,2.04885938e-01
-4.77225000e-08,2.04906250e-01
-4.76825000e-08,2.04898438e-01
-4.76425000e-08,2.04898438e-01
-4.76025000e-08,2.04903125e-01
-4.75625000e-08,2.04896875e-01
-4.75225000e-08,2.04904688e-01
-4.74825000e-08,2.04895313e-01
-4.74425000e-08,2.04906250e-01
-4.74025000e-08,2.04893750e-01
-4.73625000e-08,2.04906250e-01
-4.73225000e-08,2.04892188e-01
-4.72825000e-08,2.04907813e-01
-4.72425000e-08,2.04892188e-01
-4.72025000e-08,2.04909375e-01
-4.71625000e-08,2.04890625e-01
-4.71225000e-08,2.04910938e-01
-4.70825000e-08,2.04889062e-01
-4.70425000e-08,2.04912500e-01
-4.70025000e-08,2.04885938e-01
-4.69625000e-08,2.04917188e-01
-4.69225000e-08,2.04879688e-01
-4.68825000e-08,2.04926563e-01
-4.68425000e-08,2.04864062e-01
-4.68025000e-08,2.04962500e-01
-4.67625000e-08,2.04684375e-01
-4.67225000e-08,2.04454688e-01
-4.66825000e-08,2.04518750e-01
-4.66425000e-08,2.04495312e-01
-4.66025000e-08,2.04490625e-01
-4.65625000e-08,2.04535938e-01
-4.65225000e-08,2.04310938e-01
-4.64825000e-08,2.04025000e-01
-4.64425000e-08,2.04154688e-01
-4.64025000e-08,2.04046875e-01
-4.63625000e-08,2.04171875e-01
-4.63225000e-08,2.03879688e-01
-4.62825000e-08,2.03653125e-01
-4.62425000e-08,2.03729688e-01
-4.62025000e-08,2.03670313e-01
-4.61625000e-08,2.03748438e-01
-4.61225000e-08,2.03501563e-01
-4.60825000e-08,2.03231250e-01
-4.60425000e-08,2.03351562e-01
-4.60025000e-08,2.03246875e-01
-4.59625000e-08,2.03375000e-01
-4.59225000e-08,2.03073438e-01
-4.58825000e-08,2.02864062e-01
-4.58425000e-08,2.02910937e-01
-4.58025000e-08,2.02901563e-01
-4.57625000e-08,2.02884375e-01
-4.57225000e-08,2.02942188e-01
-4.56825000e-08,2.02704688e-01
-4.56425000e-08,2.02434375e-01
-4.56025000e-08,2.02542187e-01
-4.55625000e-08,2.02465625e-01
-4.55225000e-08,2.02531250e-01
-4.54825000e-08,2.02468750e-01
-4.54425000e-08,2.02532812e-01
-4.54025000e-08,2.02457813e-01
-4.53625000e-08,2.02565625e-01
-4.53225000e-08,2.02282813e-01
-4.52825000e-08,2.02054687e-01
-4.52425000e-08,2.02121875e-01
-4.52025000e-08,2.02085938e-01
-4.51625000e-08,2.02109375e-01
-4.51225000e-08,2.02093750e-01
-4.50825000e-08,2.02104688e-01
-4.50425000e-08,2.02096875e-01
-4.50025000e-08,2.02103125e-01
-4.49625000e-08,2.02098438e-01
-4.49225000e-08,2.02101562e-01
-4.48825000e-08,2.02098438e-01
-4.48425000e-08,2.02100000e-01
-4.48025000e-08,2.02100000e-01
-4.47625000e-08,2.02100000e-01
-4.47225000e-08,2.02100000e-01
-4.46825000e-08,2.02100000e-01
-4.46425000e-08,2.02100000e-01
-4.46025000e-08,2.02100000e-01
-4.45625000e-08,2.02100000e-01
-4.45225000e-08,2.02098438e-01
-4.44825000e-08,2.02101562e-01
-4.44425000e-08,2.02098438e-01
-4.44025000e-08,2.02101562e-01
-4.43625000e-08,2.02098438e-01
-4.43225000e-08,2.02101562e-01
-4.42825000e-08,2.02098438e-01
-4.42425000e-08,2.02101562e-01
-4.42025000e-08,2.02098438e-01
-4.41625000e-08,2.02101562e-01
-4.41225000e-08,2.02098438e-01
-4.40825000e-08,2.02101562e-01
-4.40425000e-08,2.02098438e-01
-4.40025000e-08,2.02103125e-01
-4.39625000e-08,2.02096875e-01
-4.39225000e-08,2.02103125e-01
-4.38825000e-08,2.02096875e-01
-4.38425000e-08,2.02103125e-01
-4.38025000e-08,2.02096875e-01
-4.37625000e-08,2.02103125e-01
-4.37225000e-08,2.02096875e-01
-4.36825000e-08,2.02104688e-01
-4.36425000e-08,2.02095313e-01
-4.36025000e-08,2.02104688e-01
-4.35625000e-08,2.02095313e-01
-4.35225000e-08,2.02106250e-01
-4.34825000e-08,2.02093750e-01
-4.34425000e-08,2.02107813e-01
-4.34025000e-08,2.02092188e-01
-4.33625000e-08,2.02109375e-01
-4.33225000e-08,2.02087500e-01
-4.32825000e-08,2.02115625e-01
-4.32425000e-08,2.02079687e-01
-4.32025000e-08,2.02129688e-01
-4.31625000e-08,2.02045313e-01
-4.31225000e-08,2.02307813e-01
-4.30825000e-08,2.02554687e-01
-4.30425000e-08,2.02468750e-01
-4.30025000e-08,2.02523438e-01
-4.29625000e-08,2.02481250e-01
-4.29225000e-08,2.02515625e-01
-4.28825000e-08,2.02485938e-01
-4.28425000e-08,2.02514063e-01
-4.28025000e-08,2.02485938e-01
-4.27625000e-08,2.02517188e-01
-4.27225000e-08,2.02479688e-01
-4.26825000e-08,2.02529687e-01
-4.26425000e-08,2.02446875e-01
-4.26025000e-08,2.02704688e-01
-4.25625000e-08,2.02959375e-01
-4.25225000e-08,2.02862500e-01
-4.24825000e-08,2.02929688e-01
-4.24425000e-08,2.02873438e-01
-4.24025000e-08,2.02928125e-01
-4.23625000e-08,2.02868750e-01
-4.23225000e-08,2.02939063e-01
-4.22825000e-08,2.02835938e-01
-4.22425000e-08,2.03117188e-01
-4.22025000e-08,2.03345313e-01
-4.21625000e-08,2.03279688e-01
-4.21225000e-08,2.03310938e-01
-4.20825000e-08,2.03295313e-01
-4.20425000e-08,2.03300000e-01
-4.20025000e-08,2.03304687e-01
-4.19625000e-08,2.03289063e-01
-4.19225000e-08,2.03321875e-01
-4.18825000e-08,2.03253125e-01
-4.18425000e-08,2.03500000e-01
-4.18025000e-08,2.03760938e-01
-4.17625000e-08,2.03662500e-01
-4.17225000e-08,2.03728125e-01
-4.16825000e-08,2.03676563e-01
-4.16425000e-08,2.03720313e-01
-4.16025000e-08,2.03681250e-01
-4.15625000e-08,2.03717188e-01
-4.15225000e-08,2.03684375e-01
-4.14825000e-08,2.03715625e-01
-4.14425000e-08,2.03684375e-01
-4.14025000e-08,2.03717188e-01
-4.13625000e-08,2.03682813e-01
-4.13225000e-08,2.03720313e-01
-4.12825000e-08,2.03675000e-01
-4.12425000e-08,2.03732812e-01
-4.12025000e-08,2.03642188e-01
-4.11625000e-08,2.03909375e-01
-4.11225000e-08,2.04153125e-01
-4.10825000e-08,2.04068750e-01
-4.10425000e-08,2.04121875e-01
-4.10025000e-08,2.04081250e-01
-4.09625000e-08,2.04118750e-01
-4.09225000e-08,2.04081250e-01
-4.08825000e-08,2.04123438e-01
-4.08425000e-08,2.04068750e-01
-4.08025000e-08,2.04156250e-01
-4.07625000e-08,2.03892188e-01
-4.07225000e-08,2.03645313e-01
-4.06825000e-08,2.03731250e-01
-4.06425000e-08,2.03678125e-01
-4.06025000e-08,2.03717188e-01
-4.05625000e-08,2.03684375e-01
-4.05225000e-08,2.03712500e-01
-4.04825000e-08,2.03687500e-01
-4.04425000e-08,2.03710938e-01
-4.04025000e-08,2.03689063e-01
-4.03625000e-08,2.03710938e-01
-4.03225000e-08,2.03690625e-01
-4.02825000e-08,2.03709375e-01
-4.02425000e-08,2.03690625e-01
-4.02025000e-08,2.03709375e-01
-4.01625000e-08,2.03690625e-01
-4.01225000e-08,2.03710938e-01
-4.00825000e-08,2.03689063e-01
-4.00425000e-08,2.03710938e-01
-4.00025000e-08,2.03687500e-01
-3.99625000e-08,2.03712500e-01
-3.99225000e-08,2.03685937e-01
-3.98825000e-08,2.03715625e-01
-3.98425000e-08,2.03681250e-01
-3.98025000e-08,2.03725000e-01
-3.97625000e-08,2.03665625e-01
-3.97225000e-08,2.03759375e-01
-3.96825000e-08,2.03487500e-01
-3.96425000e-08,2.03250000e-01
-3.96025000e-08,2.03326563e-01
-3.95625000e-08,2.03282813e-01
-3.95225000e-08,2.03312500e-01
-3.94825000e-08,2.03290625e-01
-3.94425000e-08,2.03307813e-01
-3.94025000e-08,2.03293750e-01
-3.93625000e-08,2.03304687e-01
-3.93225000e-08,2.03295313e-01
-3.92825000e-08,2.03303125e-01
-3.92425000e-08,2.03296875e-01
-3.92025000e-08,2.03303125e-01
-3.91625000e-08,2.03298438e-01
-3.91225000e-08,2.03301563e-01
-3.90825000e-08,2.03298438e-01
-3.90425000e-08,2.03301563e-01
-3.90025000e-08,2.03298438e-01
-3.89625000e-08,2.03300000e-01
-3.89225000e-08,2.03300000e-01
-3.88825000e-08,2.03300000e-01
-3.88425000e-08,2.03300000e-01
-3.88025000e-08,2.03300000e-01
-3.87625000e-08,2.03300000e-01
-3.87225000e-08,2.03300000e-01
-3.86825000e-08,2.03300000e-01
-3.86425000e-08,2.03300000e-01
-3.86025000e-08,2.03301563e-01
-3.85625000e-08,2.03298438e-01
-3.85225000e-08,2.03301563e-01
