trails/0ad503bf4c7e473689fcee6623a13564/aes_ch1_20250507105418142.csv

Model,MSO66B
Label,
Waveform Type,ANALOG
Horizontal Units,s
Sample Interval,4.00000000e-11
Record Length,10000
Zero Index,1599.13281250
Vertical Units,A
ANALOG_Thumbnail,
yOffset,1.84500000e-01
yPosition,8.40000000e-01

Labels,
TIME,CH1
-6.39653125e-08,2.00487500e-01
-6.39253125e-08,2.00521875e-01
-6.38853125e-08,2.00453125e-01
-6.38453125e-08,2.00700000e-01
-6.38053125e-08,2.00962500e-01
-6.37653125e-08,2.00859375e-01
-6.37253125e-08,2.00931250e-01
-6.36853125e-08,2.00871875e-01
-6.36453125e-08,2.00926563e-01
-6.36053125e-08,2.00873438e-01
-6.35653125e-08,2.00928125e-01
-6.35253125e-08,2.00867188e-01
-6.34853125e-08,2.00940625e-01
-6.34453125e-08,2.00834375e-01
-6.34053125e-08,2.01118750e-01
-6.33653125e-08,2.01343750e-01
-6.33253125e-08,2.01279687e-01
-6.32853125e-08,2.01310938e-01
-6.32453125e-08,2.01293750e-01
-6.32053125e-08,2.01303125e-01
-6.31653125e-08,2.01300000e-01
-6.31253125e-08,2.01298438e-01
-6.30853125e-08,2.01304687e-01
-6.30453125e-08,2.01292187e-01
-6.30053125e-08,2.01310938e-01
-6.29653125e-08,2.01284375e-01
-6.29253125e-08,2.01326563e-01
-6.28853125e-08,2.01248438e-01
-6.28453125e-08,2.01504688e-01
-6.28053125e-08,2.01757813e-01
-6.27653125e-08,2.01665625e-01
-6.27253125e-08,2.01725000e-01
-6.26853125e-08,2.01679688e-01
-6.26453125e-08,2.01717188e-01
-6.26053125e-08,2.01684375e-01
-6.25653125e-08,2.01715625e-01
-6.25253125e-08,2.01685938e-01
-6.24853125e-08,2.01714063e-01
-6.24453125e-08,2.01685938e-01
-6.24053125e-08,2.01715625e-01
-6.23653125e-08,2.01684375e-01
-6.23253125e-08,2.01717188e-01
-6.22853125e-08,2.01679688e-01
-6.22453125e-08,2.01725000e-01
-6.22053125e-08,2.01665625e-01
-6.21653125e-08,2.01759375e-01
-6.21253125e-08,2.01487500e-01
-6.20853125e-08,2.01250000e-01
-6.20453125e-08,2.01326563e-01
-6.20053125e-08,2.01282813e-01
-6.19653125e-08,2.01312500e-01
-6.19253125e-08,2.01290625e-01
-6.18853125e-08,2.01307813e-01
-6.18453125e-08,2.01293750e-01
-6.18053125e-08,2.01304687e-01
-6.17653125e-08,2.01295313e-01
-6.17253125e-08,2.01304687e-01
-6.16853125e-08,2.01296875e-01
-6.16453125e-08,2.01303125e-01
-6.16053125e-08,2.01296875e-01
-6.15653125e-08,2.01301563e-01
-6.15253125e-08,2.01298438e-01
-6.14853125e-08,2.01301563e-01
-6.14453125e-08,2.01298438e-01
-6.14053125e-08,2.01301563e-01
-6.13653125e-08,2.01298438e-01
-6.13253125e-08,2.01301563e-01
-6.12853125e-08,2.01298438e-01
-6.12453125e-08,2.01301563e-01
-6.12053125e-08,2.01300000e-01
-6.11653125e-08,2.01300000e-01
-6.11253125e-08,2.01300000e-01
-6.10853125e-08,2.01300000e-01
-6.10453125e-08,2.01300000e-01
-6.10053125e-08,2.01300000e-01
-6.09653125e-08,2.01300000e-01
-6.09253125e-08,2.01300000e-01
-6.08853125e-08,2.01300000e-01
-6.08453125e-08,2.01300000e-01
-6.08053125e-08,2.01300000e-01
-6.07653125e-08,2.01300000e-01
-6.07253125e-08,2.01300000e-01
-6.06853125e-08,2.01300000e-01
-6.06453125e-08,2.01300000e-01
-6.06053125e-08,2.01300000e-01
-6.05653125e-08,2.01300000e-01
-6.05253125e-08,2.01300000e-01
-6.04853125e-08,2.01300000e-01
-6.04453125e-08,2.01300000e-01
-6.04053125e-08,2.01300000e-01
-6.03653125e-08,2.01300000e-01
-6.03253125e-08,2.01300000e-01
-6.02853125e-08,2.01298438e-01
-6.02453125e-08,2.01301563e-01
-6.02053125e-08,2.01298438e-01
-6.01653125e-08,2.01301563e-01
-6.01253125e-08,2.01298438e-01
-6.00853125e-08,2.01301563e-01
-6.00453125e-08,2.01298438e-01
-6.00053125e-08,2.01301563e-01
-5.99653125e-08,2.01298438e-01
-5.99253125e-08,2.01301563e-01
-5.98853125e-08,2.01298438e-01
-5.98453125e-08,2.01301563e-01
-5.98053125e-08,2.01298438e-01
-5.97653125e-08,2.01301563e-01
-5.97253125e-08,2.01298438e-01
-5.96853125e-08,2.01301563e-01
-5.96453125e-08,2.01298438e-01
-5.96053125e-08,2.01301563e-01
-5.95653125e-08,2.01298438e-01
-5.95253125e-08,2.01303125e-01
-5.94853125e-08,2.01296875e-01
-5.94453125e-08,2.01303125e-01
-5.94053125e-08,2.01296875e-01
-5.93653125e-08,2.01303125e-01
-5.93253125e-08,2.01296875e-01
-5.92853125e-08,2.01303125e-01
-5.92453125e-08,2.01296875e-01
-5.92053125e-08,2.01303125e-01
-5.91653125e-08,2.01295313e-01
-5.91253125e-08,2.01304687e-01
-5.90853125e-08,2.01295313e-01
-5.90453125e-08,2.01304687e-01
-5.90053125e-08,2.01295313e-01
-5.89653125e-08,2.01306250e-01
-5.89253125e-08,2.01293750e-01
-5.88853125e-08,2.01307813e-01
-5.88453125e-08,2.01292187e-01
-5.88053125e-08,2.01309375e-01
-5.87653125e-08,2.01289063e-01
-5.87253125e-08,2.01312500e-01
-5.86853125e-08,2.01284375e-01
-5.86453125e-08,2.01320313e-01
-5.86053125e-08,2.01268750e-01
-5.85653125e-08,2.01356250e-01
-5.85253125e-08,2.01090625e-01
-5.84853125e-08,2.00846875e-01
-5.84453125e-08,2.00929688e-01
-5.84053125e-08,2.00879688e-01
-5.83653125e-08,2.00915625e-01
-5.83253125e-08,2.00887500e-01
-5.82853125e-08,2.00909375e-01
-5.82453125e-08,2.00892188e-01
-5.82053125e-08,2.00907813e-01
-5.81653125e-08,2.00893750e-01
-5.81253125e-08,2.00906250e-01
-5.80853125e-08,2.00895313e-01
-5.80453125e-08,2.00904688e-01
-5.80053125e-08,2.00895313e-01
-5.79653125e-08,2.00903125e-01
-5.79253125e-08,2.00896875e-01
-5.78853125e-08,2.00903125e-01
-5.78453125e-08,2.00896875e-01
-5.78053125e-08,2.00903125e-01
-5.77653125e-08,2.00896875e-01
-5.77253125e-08,2.00901563e-01
-5.76853125e-08,2.00898437e-01
-5.76453125e-08,2.00901563e-01
-5.76053125e-08,2.00898437e-01
-5.75653125e-08,2.00901563e-01
-5.75253125e-08,2.00898437e-01
-5.74853125e-08,2.00901563e-01
-5.74453125e-08,2.00898437e-01
-5.74053125e-08,2.00900000e-01
-5.73653125e-08,2.00900000e-01
-5.73253125e-08,2.00900000e-01
-5.72853125e-08,2.00900000e-01
-5.72453125e-08,2.00900000e-01
-5.72053125e-08,2.00900000e-01
-5.71653125e-08,2.00900000e-01
-5.71253125e-08,2.00901563e-01
-5.70853125e-08,2.00898437e-01
-5.70453125e-08,2.00901563e-01
-5.70053125e-08,2.00898437e-01
-5.69653125e-08,2.00903125e-01
-5.69253125e-08,2.00896875e-01
-5.68853125e-08,2.00904688e-01
-5.68453125e-08,2.00895313e-01
-5.68053125e-08,2.00906250e-01
-5.67653125e-08,2.00892188e-01
-5.67253125e-08,2.00910937e-01
-5.66853125e-08,2.00884375e-01
-5.66453125e-08,2.00925000e-01
-5.66053125e-08,2.00850000e-01
-5.65653125e-08,2.01103125e-01
-5.65253125e-08,2.01359375e-01
-5.64853125e-08,2.01264063e-01
-5.64453125e-08,2.01326563e-01
-5.64053125e-08,2.01276563e-01
-5.63653125e-08,2.01320313e-01
-5.63253125e-08,2.01279687e-01
-5.62853125e-08,2.01320313e-01
-5.62453125e-08,2.01279687e-01
-5.62053125e-08,2.01323438e-01
-5.61653125e-08,2.01273438e-01
-5.61253125e-08,2.01335938e-01
-5.60853125e-08,2.01239063e-01
-5.60453125e-08,2.01514063e-01
-5.60053125e-08,2.01748438e-01
-5.59653125e-08,2.01675000e-01
-5.59253125e-08,2.01717188e-01
-5.58853125e-08,2.01687500e-01
-5.58453125e-08,2.01709375e-01
-5.58053125e-08,2.01692188e-01
-5.57653125e-08,2.01706250e-01
-5.57253125e-08,2.01695313e-01
-5.56853125e-08,2.01704688e-01
-5.56453125e-08,2.01696875e-01
-5.56053125e-08,2.01703125e-01
-5.55653125e-08,2.01696875e-01
-5.55253125e-08,2.01703125e-01
-5.54853125e-08,2.01698437e-01
-5.54453125e-08,2.01701563e-01
-5.54053125e-08,2.01698437e-01
-5.53653125e-08,2.01701563e-01
-5.53253125e-08,2.01698437e-01
-5.52853125e-08,2.01701563e-01
-5.52453125e-08,2.01698437e-01
-5.52053125e-08,2.01701563e-01
-5.51653125e-08,2.01700000e-01
-5.51253125e-08,2.01700000e-01
-5.50853125e-08,2.01700000e-01
-5.50453125e-08,2.01700000e-01
-5.50053125e-08,2.01700000e-01
-5.49653125e-08,2.01700000e-01
-5.49253125e-08,2.01700000e-01
-5.48853125e-08,2.01700000e-01
-5.48453125e-08,2.01700000e-01
-5.48053125e-08,2.01698437e-01
-5.47653125e-08,2.01701563e-01
-5.47253125e-08,2.01698437e-01
-5.46853125e-08,2.01701563e-01
-5.46453125e-08,2.01696875e-01
-5.46053125e-08,2.01703125e-01
-5.45653125e-08,2.01696875e-01
-5.45253125e-08,2.01704688e-01
-5.44853125e-08,2.01693750e-01
-5.44453125e-08,2.01707812e-01
-5.44053125e-08,2.01689063e-01
-5.43653125e-08,2.01715625e-01
-5.43253125e-08,2.01673437e-01
-5.42853125e-08,2.01750000e-01
-5.42453125e-08,2.01496875e-01
-5.42053125e-08,2.01240625e-01
-5.41653125e-08,2.01334375e-01
-5.41253125e-08,2.01275000e-01
-5.40853125e-08,2.01320313e-01
-5.40453125e-08,2.01282813e-01
-5.40053125e-08,2.01315625e-01
-5.39653125e-08,2.01285938e-01
-5.39253125e-08,2.01314063e-01
-5.38853125e-08,2.01287500e-01
-5.38453125e-08,2.01312500e-01
-5.38053125e-08,2.01287500e-01
-5.37653125e-08,2.01312500e-01
-5.37253125e-08,2.01287500e-01
-5.36853125e-08,2.01310938e-01
-5.36453125e-08,2.01289063e-01
-5.36053125e-08,2.01310938e-01
-5.35653125e-08,2.01289063e-01
-5.35253125e-08,2.01312500e-01
-5.34853125e-08,2.01287500e-01
-5.34453125e-08,2.01312500e-01
-5.34053125e-08,2.01287500e-01
-5.33653125e-08,2.01314063e-01
-5.33253125e-08,2.01285938e-01
-5.32853125e-08,2.01314063e-01
-5.32453125e-08,2.01284375e-01
-5.32053125e-08,2.01317187e-01
-5.31653125e-08,2.01281250e-01
-5.31253125e-08,2.01320313e-01
-5.30853125e-08,2.01276563e-01
-5.30453125e-08,2.01328125e-01
-5.30053125e-08,2.01260938e-01
-5.29653125e-08,2.01364062e-01
-5.29253125e-08,2.01082813e-01
-5.28853125e-08,2.00854688e-01
-5.28453125e-08,2.00920313e-01
-5.28053125e-08,2.00889062e-01
-5.27653125e-08,2.00906250e-01
-5.27253125e-08,2.00896875e-01
-5.26853125e-08,2.00900000e-01
-5.26453125e-08,2.00901563e-01
-5.26053125e-08,2.00896875e-01
-5.25653125e-08,2.00904688e-01
-5.25253125e-08,2.00893750e-01
-5.24853125e-08,2.00907813e-01
-5.24453125e-08,2.00890625e-01
-5.24053125e-08,2.00910937e-01
-5.23653125e-08,2.00887500e-01
-5.23253125e-08,2.00915625e-01
-5.22853125e-08,2.00881250e-01
-5.22453125e-08,2.00925000e-01
-5.22053125e-08,2.00864062e-01
-5.21653125e-08,2.00960938e-01
-5.21253125e-08,2.00685938e-01
-5.20853125e-08,2.00453125e-01
-5.20453125e-08,2.00521875e-01
-5.20053125e-08,2.00487500e-01
-5.19653125e-08,2.00506250e-01
-5.19253125e-08,2.00498438e-01
-5.18853125e-08,2.00498438e-01
-5.18453125e-08,2.00506250e-01
-5.18053125e-08,2.00489063e-01
-5.17653125e-08,2.00517187e-01
-5.17253125e-08,2.00471875e-01
-5.16853125e-08,2.00553125e-01
-5.16453125e-08,2.00292187e-01
-5.16053125e-08,2.00045313e-01
-5.15653125e-08,2.00129688e-01
-5.15253125e-08,2.00081250e-01
-5.14853125e-08,2.00114063e-01
-5.14453125e-08,2.00090625e-01
-5.14053125e-08,2.00106250e-01
-5.13653125e-08,2.00096875e-01
-5.13253125e-08,2.00100000e-01
-5.12853125e-08,2.00103125e-01
-5.12453125e-08,2.00093750e-01
-5.12053125e-08,2.00112500e-01
-5.11653125e-08,2.00076562e-01
-5.11253125e-08,2.00148437e-01
-5.10853125e-08,1.99898437e-01
-5.10453125e-08,1.99640625e-01
-5.10053125e-08,1.99735938e-01
-5.09653125e-08,1.99673437e-01
-5.09253125e-08,1.99720312e-01
-5.08853125e-08,1.99682813e-01
-5.08453125e-08,1.99715625e-01
-5.08053125e-08,1.99685938e-01
-5.07653125e-08,1.99712500e-01
-5.07253125e-08,1.99689063e-01
-5.06853125e-08,1.99709375e-01
-5.06453125e-08,1.99690625e-01
-5.06053125e-08,1.99709375e-01
-5.05653125e-08,1.99692188e-01
-5.05253125e-08,1.99707812e-01
-5.04853125e-08,1.99692188e-01
-5.04453125e-08,1.99706250e-01
-5.04053125e-08,1.99693750e-01
-5.03653125e-08,1.99706250e-01
-5.03253125e-08,1.99693750e-01
-5.02853125e-08,1.99704688e-01
-5.02453125e-08,1.99695312e-01
-5.02053125e-08,1.99704688e-01
-5.01653125e-08,1.99695312e-01
-5.01253125e-08,1.99704688e-01
-5.00853125e-08,1.99695312e-01
-5.00453125e-08,1.99703125e-01
-5.00053125e-08,1.99696875e-01
-4.99653125e-08,1.99703125e-01
-4.99253125e-08,1.99696875e-01
-4.98853125e-08,1.99703125e-01
-4.98453125e-08,1.99696875e-01
-4.98053125e-08,1.99703125e-01
-4.97653125e-08,1.99696875e-01
-4.97253125e-08,1.99701563e-01
-4.96853125e-08,1.99698437e-01
-4.96453125e-08,1.99701563e-01
-4.96053125e-08,1.99698437e-01
-4.95653125e-08,1.99701563e-01
-4.95253125e-08,1.99698437e-01
-4.94853125e-08,1.99701563e-01
-4.94453125e-08,1.99700000e-01
-4.94053125e-08,1.99700000e-01
-4.93653125e-08,1.99700000e-01
-4.93253125e-08,1.99700000e-01
-4.92853125e-08,1.99700000e-01
-4.92453125e-08,1.99698437e-01
-4.92053125e-08,1.99701563e-01
-4.91653125e-08,1.99698437e-01
-4.91253125e-08,1.99701563e-01
-4.90853125e-08,1.99696875e-01
-4.90453125e-08,1.99703125e-01
-4.90053125e-08,1.99695312e-01
-4.89653125e-08,1.99706250e-01
-4.89253125e-08,1.99692188e-01
-4.88853125e-08,1.99709375e-01
-4.88453125e-08,1.99687500e-01
-4.88053125e-08,1.99717188e-01
-4.87653125e-08,1.99671875e-01
-4.87253125e-08,1.99753125e-01
-4.86853125e-08,1.99493750e-01
-4.86453125e-08,1.99243750e-01
-4.86053125e-08,1.99332813e-01
-4.85653125e-08,1.99276563e-01
-4.85253125e-08,1.99318750e-01
-4.84853125e-08,1.99284375e-01
-4.84453125e-08,1.99312500e-01
-4.84053125e-08,1.99289063e-01
-4.83653125e-08,1.99310938e-01
-4.83253125e-08,1.99290625e-01
-4.82853125e-08,1.99309375e-01
-4.82453125e-08,1.99292187e-01
-4.82053125e-08,1.99307813e-01
-4.81653125e-08,1.99292187e-01
-4.81253125e-08,1.99306250e-01
-4.80853125e-08,1.99293750e-01
-4.80453125e-08,1.99306250e-01
-4.80053125e-08,1.99293750e-01
-4.79653125e-08,1.99306250e-01
-4.79253125e-08,1.99293750e-01
-4.78853125e-08,1.99306250e-01
-4.78453125e-08,1.99295313e-01
-4.78053125e-08,1.99304688e-01
-4.77653125e-08,1.99295313e-01
-4.77253125e-08,1.99304688e-01
-4.76853125e-08,1.99295313e-01
-4.76453125e-08,1.99304688e-01
-4.76053125e-08,1.99295313e-01
-4.75653125e-08,1.99304688e-01
-4.75253125e-08,1.99295313e-01
-4.74853125e-08,1.99304688e-01
-4.74453125e-08,1.99295313e-01
-4.74053125e-08,1.99304688e-01
-4.73653125e-08,1.99295313e-01
-4.73253125e-08,1.99304688e-01
-4.72853125e-08,1.99295313e-01
-4.72453125e-08,1.99304688e-01
-4.72053125e-08,1.99295313e-01
-4.71653125e-08,1.99304688e-01
-4.71253125e-08,1.99295313e-01
-4.70853125e-08,1.99304688e-01
-4.70453125e-08,1.99295313e-01
-4.70053125e-08,1.99304688e-01
-4.69653125e-08,1.99295313e-01
-4.69253125e-08,1.99304688e-01
-4.68853125e-08,1.99295313e-01
-4.68453125e-08,1.99306250e-01
-4.68053125e-08,1.99293750e-01
-4.67653125e-08,1.99306250e-01
-4.67253125e-08,1.99293750e-01
-4.66853125e-08,1.99307813e-01
-4.66453125e-08,1.99292187e-01
-4.66053125e-08,1.99309375e-01
-4.65653125e-08,1.99290625e-01
-4.65253125e-08,1.99310938e-01
-4.64853125e-08,1.99287500e-01
-4.64453125e-08,1.99315625e-01
-4.64053125e-08,1.99278125e-01
-4.63653125e-08,1.99331250e-01
-4.63253125e-08,1.99243750e-01
-4.62853125e-08,1.99509375e-01
-4.62453125e-08,1.99753125e-01
-4.62053125e-08,1.99670313e-01
-4.61653125e-08,1.99720312e-01
-4.61253125e-08,1.99684375e-01
-4.60853125e-08,1.99712500e-01
-4.60453125e-08,1.99689063e-01
-4.60053125e-08,1.99709375e-01
-4.59653125e-08,1.99692188e-01
-4.59253125e-08,1.99707812e-01
-4.58853125e-08,1.99693750e-01
-4.58453125e-08,1.99706250e-01
-4.58053125e-08,1.99693750e-01
-4.57653125e-08,1.99706250e-01
-4.57253125e-08,1.99695312e-01
-4.56853125e-08,1.99704688e-01
-4.56453125e-08,1.99695312e-01
-4.56053125e-08,1.99704688e-01
-4.55653125e-08,1.99695312e-01
-4.55253125e-08,1.99704688e-01
-4.54853125e-08,1.99695312e-01
-4.54453125e-08,1.99704688e-01
-4.54053125e-08,1.99695312e-01
-4.53653125e-08,1.99704688e-01
-4.53253125e-08,1.99695312e-01
-4.52853125e-08,1.99704688e-01
-4.52453125e-08,1.99695312e-01
-4.52053125e-08,1.99704688e-01
-4.51653125e-08,1.99695312e-01
-4.51253125e-08,1.99704688e-01
-4.50853125e-08,1.99695312e-01
-4.50453125e-08,1.99704688e-01
-4.50053125e-08,1.99695312e-01
-4.49653125e-08,1.99704688e-01
-4.49253125e-08,1.99693750e-01
-4.48853125e-08,1.99706250e-01
-4.48453125e-08,1.99693750e-01
-4.48053125e-08,1.99706250e-01
-4.47653125e-08,1.99693750e-01
-4.47253125e-08,1.99706250e-01
-4.46853125e-08,1.99692188e-01
-4.46453125e-08,1.99707812e-01
-4.46053125e-08,1.99692188e-01
-4.45653125e-08,1.99709375e-01
-4.45253125e-08,1.99690625e-01
-4.44853125e-08,1.99710938e-01
-4.44453125e-08,1.99689063e-01
-4.44053125e-08,1.99712500e-01
-4.43653125e-08,1.99684375e-01
-4.43253125e-08,1.99718750e-01
-4.42853125e-08,1.99676563e-01
-4.42453125e-08,1.99732813e-01
-4.42053125e-08,1.99642188e-01
-4.41653125e-08,1.99912500e-01
-4.41253125e-08,2.00150000e-01
-4.40853125e-08,2.00073438e-01
-4.40453125e-08,2.00117188e-01
-4.40053125e-08,2.00089062e-01
-4.39653125e-08,2.00107813e-01
-4.39253125e-08,2.00093750e-01
-4.38853125e-08,2.00104688e-01
-4.38453125e-08,2.00096875e-01
-4.38053125e-08,2.00101562e-01
-4.37653125e-08,2.00100000e-01
-4.37253125e-08,2.00098438e-01
-4.36853125e-08,2.00103125e-01
-4.36453125e-08,2.00095313e-01
-4.36053125e-08,2.00106250e-01
-4.35653125e-08,2.00092188e-01
-4.35253125e-08,2.00112500e-01
-4.34853125e-08,2.00082813e-01
-4.34453125e-08,2.00126562e-01
-4.34053125e-08,2.00048438e-01
-4.33653125e-08,2.00304688e-01
-4.33253125e-08,2.00556250e-01
-4.32853125e-08,2.00467188e-01
-4.32453125e-08,2.00523438e-01
-4.32053125e-08,2.00481250e-01
-4.31653125e-08,2.00515625e-01
-4.31253125e-08,2.00487500e-01
-4.30853125e-08,2.00510938e-01
-4.30453125e-08,2.00490625e-01
-4.30053125e-08,2.00509375e-01
-4.29653125e-08,2.00492188e-01
-4.29253125e-08,2.00507812e-01
-4.28853125e-08,2.00492188e-01
-4.28453125e-08,2.00506250e-01
-4.28053125e-08,2.00493750e-01
-4.27653125e-08,2.00506250e-01
-4.27253125e-08,2.00493750e-01
-4.26853125e-08,2.00504688e-01
-4.26453125e-08,2.00495313e-01
-4.26053125e-08,2.00504688e-01
-4.25653125e-08,2.00495313e-01
-4.25253125e-08,2.00504688e-01
-4.24853125e-08,2.00495313e-01
-4.24453125e-08,2.00504688e-01
-4.24053125e-08,2.00495313e-01
-4.23653125e-08,2.00503125e-01
-4.23253125e-08,2.00496875e-01
-4.22853125e-08,2.00503125e-01
-4.22453125e-08,2.00496875e-01
-4.22053125e-08,2.00503125e-01
-4.21653125e-08,2.00496875e-01
-4.21253125e-08,2.00503125e-01
-4.20853125e-08,2.00496875e-01
-4.20453125e-08,2.00503125e-01
-4.20053125e-08,2.00496875e-01
-4.19653125e-08,2.00503125e-01
-4.19253125e-08,2.00496875e-01
-4.18853125e-08,2.00503125e-01
-4.18453125e-08,2.00496875e-01
-4.18053125e-08,2.00503125e-01
-4.17653125e-08,2.00496875e-01
-4.17253125e-08,2.00503125e-01
-4.16853125e-08,2.00496875e-01
-4.16453125e-08,2.00503125e-01
-4.16053125e-08,2.00496875e-01
-4.15653125e-08,2.00503125e-01
-4.15253125e-08,2.00496875e-01
-4.14853125e-08,2.00503125e-01
-4.14453125e-08,2.00496875e-01
-4.14053125e-08,2.00503125e-01
-4.13653125e-08,2.00496875e-01
-4.13253125e-08,2.00503125e-01
-4.12853125e-08,2.00496875e-01
-4.12453125e-08,2.00503125e-01
-4.12053125e-08,2.00496875e-01
-4.11653125e-08,2.00503125e-01
-4.11253125e-08,2.00496875e-01
-4.10853125e-08,2.00503125e-01
-4.10453125e-08,2.00496875e-01
-4.10053125e-08,2.00503125e-01
-4.09653125e-08,2.00495313e-01
-4.09253125e-08,2.00504688e-01
-4.08853125e-08,2.00495313e-01
-4.08453125e-08,2.00506250e-01
-4.08053125e-08,2.00493750e-01
-4.07653125e-08,2.00507812e-01
-4.07253125e-08,2.00492188e-01
-4.06853125e-08,2.00510938e-01
-4.06453125e-08,2.00485938e-01
-4.06053125e-08,2.00518750e-01
-4.05653125e-08,2.00471875e-01
-4.05253125e-08,2.00551563e-01
-4.04853125e-08,2.00295313e-01
-4.04453125e-08,2.00042187e-01
-4.04053125e-08,2.00134375e-01
-4.03653125e-08,2.00075000e-01
-4.03253125e-08,2.00120313e-01
-4.02853125e-08,2.00081250e-01
-4.02453125e-08,2.00117188e-01
-4.02053125e-08,2.00084375e-01
-4.01653125e-08,2.00115625e-01
-4.01253125e-08,2.00082813e-01
-4.00853125e-08,2.00118750e-01
-4.00453125e-08,2.00079688e-01
-4.00053125e-08,2.00125000e-01
-3.99653125e-08,2.00065625e-01
-3.99253125e-08,2.00159375e-01
-3.98853125e-08,1.99887500e-01
-3.98453125e-08,1.99650000e-01
-3.98053125e-08,1.99726563e-01
-3.97653125e-08,1.99682813e-01
-3.97253125e-08,1.99712500e-01
-3.96853125e-08,1.99690625e-01
-3.96453125e-08,1.99707812e-01
-3.96053125e-08,1.99693750e-01
-3.95653125e-08,1.99706250e-01
-3.95253125e-08,1.99695312e-01
-3.94853125e-08,1.99704688e-01
-3.94453125e-08,1.99696875e-01
-3.94053125e-08,1.99703125e-01
-3.93653125e-08,1.99696875e-01
-3.93253125e-08,1.99703125e-01
-3.92853125e-08,1.99696875e-01
-3.92453125e-08,1.99703125e-01
-3.92053125e-08,1.99696875e-01
-3.91653125e-08,1.99701563e-01
-3.91253125e-08,1.99698437e-01
-3.90853125e-08,1.99701563e-01
-3.90453125e-08,1.99698437e-01
-3.90053125e-08,1.99701563e-01
-3.89653125e-08,1.99698437e-01
-3.89253125e-08,1.99701563e-01
-3.88853125e-08,1.99698437e-01
-3.88453125e-08,1.99701563e-01
-3.88053125e-08,1.99698437e-01
-3.87653125e-08,1.99701563e-01
-3.87253125e-08,1.99698437e-01
-3.86853125e-08,1.99701563e-01
-3.86453125e-08,1.99698437e-01
-3.86053125e-08,1.99701563e-01
-3.85653125e-08,1.99698437e-01
-3.85253125e-08,1.99701563e-01
