trails/0ad503bf4c7e473689fcee6623a13564/aes_ch1_20250507104841484.csv

Model,MSO66B
Label,
Waveform Type,ANALOG
Horizontal Units,s
Sample Interval,4.00000000e-11
Record Length,10000
Zero Index,1599.11328125
Vertical Units,A
ANALOG_Thumbnail,
yOffset,1.84500000e-01
yPosition,8.40000000e-01

Labels,
TIME,CH1
-6.39645312e-08,1.92545313e-01
-6.39245312e-08,1.92301563e-01
-6.38845312e-08,1.92035938e-01
-6.38445312e-08,1.92142188e-01
-6.38045313e-08,1.92064063e-01
-6.37645312e-08,1.92135938e-01
-6.37245312e-08,1.92057813e-01
-6.36845312e-08,1.92165625e-01
-6.36445312e-08,1.91882812e-01
-6.36045312e-08,1.91653125e-01
-6.35645312e-08,1.91723438e-01
-6.35245313e-08,1.91684375e-01
-6.34845312e-08,1.91710938e-01
-6.34445312e-08,1.91692187e-01
-6.34045312e-08,1.91706250e-01
-6.33645312e-08,1.91695313e-01
-6.33245312e-08,1.91703125e-01
-6.32845312e-08,1.91698438e-01
-6.32445313e-08,1.91700000e-01
-6.32045312e-08,1.91701563e-01
-6.31645312e-08,1.91695313e-01
-6.31245312e-08,1.91707813e-01
-6.30845312e-08,1.91682813e-01
-6.30445313e-08,1.91739063e-01
-6.30045312e-08,1.91510938e-01
-6.29645313e-08,1.91221875e-01
-6.29245312e-08,1.91364063e-01
-6.28845312e-08,1.91220313e-01
-6.28445312e-08,1.91526562e-01
-6.28045312e-08,1.91739063e-01
-6.27645313e-08,1.91682813e-01
-6.27245312e-08,1.91707813e-01
-6.26845313e-08,1.91695313e-01
-6.26445312e-08,1.91703125e-01
-6.26045312e-08,1.91698438e-01
-6.25645312e-08,1.91700000e-01
-6.25245312e-08,1.91700000e-01
-6.24845313e-08,1.91698438e-01
-6.24445312e-08,1.91701563e-01
-6.24045313e-08,1.91698438e-01
-6.23645312e-08,1.91703125e-01
-6.23245312e-08,1.91696875e-01
-6.22845312e-08,1.91703125e-01
-6.22445312e-08,1.91696875e-01
-6.22045313e-08,1.91704687e-01
-6.21645312e-08,1.91695313e-01
-6.21245313e-08,1.91706250e-01
-6.20845312e-08,1.91693750e-01
-6.20445312e-08,1.91707813e-01
-6.20045312e-08,1.91692187e-01
-6.19645312e-08,1.91709375e-01
-6.19245313e-08,1.91687500e-01
-6.18845312e-08,1.91715625e-01
-6.18445313e-08,1.91679688e-01
-6.18045312e-08,1.91729687e-01
-6.17645312e-08,1.91645312e-01
-6.17245312e-08,1.91907812e-01
-6.16845312e-08,1.92154688e-01
-6.16445313e-08,1.92070313e-01
-6.16045312e-08,1.92120313e-01
-6.15645313e-08,1.92084375e-01
-6.15245312e-08,1.92112500e-01
-6.14845312e-08,1.92089063e-01
-6.14445312e-08,1.92109375e-01
-6.14045312e-08,1.92092188e-01
-6.13645313e-08,1.92106250e-01
-6.13245312e-08,1.92095313e-01
-6.12845313e-08,1.92104688e-01
-6.12445312e-08,1.92096875e-01
-6.12045312e-08,1.92101563e-01
-6.11645312e-08,1.92100000e-01
-6.11245312e-08,1.92098437e-01
-6.10845313e-08,1.92104688e-01
-6.10445312e-08,1.92089063e-01
-6.10045312e-08,1.92120313e-01
-6.09645312e-08,1.92056250e-01
-6.09245312e-08,1.92296875e-01
-6.08845312e-08,1.92565625e-01
-6.08445312e-08,1.92457812e-01
-6.08045313e-08,1.92532813e-01
-6.07645312e-08,1.92470313e-01
-6.07245312e-08,1.92526562e-01
-6.06845312e-08,1.92473438e-01
-6.06445312e-08,1.92526562e-01
-6.06045312e-08,1.92471875e-01
-6.05645312e-08,1.92529688e-01
-6.05245313e-08,1.92465625e-01
-6.04845312e-08,1.92543750e-01
-6.04445312e-08,1.92431250e-01
-6.04045312e-08,1.92721875e-01
-6.03645312e-08,1.92940625e-01
-6.03245312e-08,1.92884375e-01
-6.02845312e-08,1.92906250e-01
-6.02445313e-08,1.92898438e-01
-6.02045312e-08,1.92896875e-01
-6.01645312e-08,1.92906250e-01
-6.01245312e-08,1.92890625e-01
-6.00845312e-08,1.92914063e-01
-6.00445312e-08,1.92879688e-01
-6.00045312e-08,1.92929688e-01
-5.99645313e-08,1.92845313e-01
-5.99245312e-08,1.93109375e-01
-5.98845312e-08,1.93353125e-01
-5.98445312e-08,1.93271875e-01
-5.98045312e-08,1.93318750e-01
-5.97645312e-08,1.93285938e-01
-5.97245312e-08,1.93310938e-01
-5.96845313e-08,1.93292188e-01
-5.96445312e-08,1.93306250e-01
-5.96045312e-08,1.93295313e-01
-5.95645312e-08,1.93304688e-01
-5.95245312e-08,1.93296875e-01
-5.94845312e-08,1.93303125e-01
-5.94445312e-08,1.93298438e-01
-5.94045312e-08,1.93301562e-01
-5.93645312e-08,1.93298438e-01
-5.93245312e-08,1.93300000e-01
-5.92845312e-08,1.93300000e-01
-5.92445312e-08,1.93300000e-01
-5.92045312e-08,1.93301562e-01
-5.91645312e-08,1.93298438e-01
-5.91245312e-08,1.93301562e-01
-5.90845312e-08,1.93298438e-01
-5.90445312e-08,1.93303125e-01
-5.90045312e-08,1.93296875e-01
-5.89645312e-08,1.93303125e-01
-5.89245312e-08,1.93295313e-01
-5.88845312e-08,1.93304688e-01
-5.88445312e-08,1.93293750e-01
-5.88045312e-08,1.93306250e-01
-5.87645312e-08,1.93292188e-01
-5.87245312e-08,1.93307813e-01
-5.86845312e-08,1.93290625e-01
-5.86445312e-08,1.93310938e-01
-5.86045312e-08,1.93287500e-01
-5.85645312e-08,1.93315625e-01
-5.85245312e-08,1.93281250e-01
-5.84845312e-08,1.93323438e-01
-5.84445312e-08,1.93265625e-01
-5.84045312e-08,1.93359375e-01
-5.83645312e-08,1.93085937e-01
-5.83245312e-08,1.92851563e-01
-5.82845312e-08,1.92923438e-01
-5.82445312e-08,1.92887500e-01
-5.82045312e-08,1.92904688e-01
-5.81645312e-08,1.92900000e-01
-5.81245312e-08,1.92893750e-01
-5.80845312e-08,1.92912500e-01
-5.80445312e-08,1.92876563e-01
-5.80045312e-08,1.92950000e-01
-5.79645312e-08,1.92695312e-01
-5.79245312e-08,1.92443750e-01
-5.78845312e-08,1.92531250e-01
-5.78445312e-08,1.92479687e-01
-5.78045312e-08,1.92514062e-01
-5.77645312e-08,1.92490625e-01
-5.77245312e-08,1.92503125e-01
-5.76845312e-08,1.92503125e-01
-5.76445312e-08,1.92485938e-01
-5.76045312e-08,1.92540625e-01
-5.75645312e-08,1.92306250e-01
-5.75245312e-08,1.92032813e-01
-5.74845312e-08,1.92143750e-01
-5.74445312e-08,1.92067188e-01
-5.74045312e-08,1.92128125e-01
-5.73645312e-08,1.92075000e-01
-5.73245312e-08,1.92121875e-01
-5.72845312e-08,1.92079688e-01
-5.72445312e-08,1.92118750e-01
-5.72045312e-08,1.92081250e-01
-5.71645312e-08,1.92117188e-01
-5.71245312e-08,1.92082813e-01
-5.70845312e-08,1.92115625e-01
-5.70445312e-08,1.92084375e-01
-5.70045312e-08,1.92115625e-01
-5.69645312e-08,1.92084375e-01
-5.69245312e-08,1.92115625e-01
-5.68845312e-08,1.92084375e-01
-5.68445312e-08,1.92114063e-01
-5.68045312e-08,1.92084375e-01
-5.67645312e-08,1.92114063e-01
-5.67245312e-08,1.92084375e-01
-5.66845312e-08,1.92115625e-01
-5.66445312e-08,1.92084375e-01
-5.66045312e-08,1.92115625e-01
-5.65645312e-08,1.92084375e-01
-5.65245312e-08,1.92117188e-01
-5.64845312e-08,1.92082813e-01
-5.64445312e-08,1.92118750e-01
-5.64045312e-08,1.92081250e-01
-5.63645312e-08,1.92120313e-01
-5.63245312e-08,1.92076562e-01
-5.62845312e-08,1.92126563e-01
-5.62445312e-08,1.92068750e-01
-5.62045312e-08,1.92140625e-01
-5.61645312e-08,1.92034375e-01
-5.61245312e-08,1.92320313e-01
-5.60845312e-08,1.92542188e-01
-5.60445312e-08,1.92481250e-01
-5.60045312e-08,1.92507813e-01
-5.59645312e-08,1.92496875e-01
-5.59245312e-08,1.92498438e-01
-5.58845312e-08,1.92504687e-01
-5.58445312e-08,1.92492188e-01
-5.58045312e-08,1.92510938e-01
-5.57645312e-08,1.92485938e-01
-5.57245312e-08,1.92520313e-01
-5.56845312e-08,1.92470313e-01
-5.56445312e-08,1.92556250e-01
-5.56045312e-08,1.92290625e-01
-5.55645312e-08,1.92046875e-01
-5.55245312e-08,1.92128125e-01
-5.54845312e-08,1.92081250e-01
-5.54445312e-08,1.92114063e-01
-5.54045312e-08,1.92089063e-01
-5.53645312e-08,1.92107813e-01
-5.53245312e-08,1.92093750e-01
-5.52845312e-08,1.92106250e-01
-5.52445312e-08,1.92095313e-01
-5.52045312e-08,1.92103125e-01
-5.51645312e-08,1.92096875e-01
-5.51245312e-08,1.92101563e-01
-5.50845312e-08,1.92098437e-01
-5.50445312e-08,1.92101563e-01
-5.50045312e-08,1.92098437e-01
-5.49645312e-08,1.92100000e-01
-5.49245312e-08,1.92100000e-01
-5.48845312e-08,1.92100000e-01
-5.48445312e-08,1.92100000e-01
-5.48045312e-08,1.92100000e-01
-5.47645312e-08,1.92101563e-01
-5.47245312e-08,1.92098437e-01
-5.46845312e-08,1.92101563e-01
-5.46445312e-08,1.92098437e-01
-5.46045312e-08,1.92101563e-01
-5.45645312e-08,1.92098437e-01
-5.45245312e-08,1.92103125e-01
-5.44845312e-08,1.92096875e-01
-5.44445312e-08,1.92103125e-01
-5.44045312e-08,1.92096875e-01
-5.43645312e-08,1.92103125e-01
-5.43245312e-08,1.92096875e-01
-5.42845312e-08,1.92104688e-01
-5.42445312e-08,1.92095313e-01
-5.42045312e-08,1.92104688e-01
-5.41645312e-08,1.92095313e-01
-5.41245312e-08,1.92106250e-01
-5.40845312e-08,1.92093750e-01
-5.40445312e-08,1.92106250e-01
-5.40045312e-08,1.92092188e-01
-5.39645312e-08,1.92107813e-01
-5.39245312e-08,1.92090625e-01
-5.38845312e-08,1.92110937e-01
-5.38445312e-08,1.92085937e-01
-5.38045312e-08,1.92117188e-01
-5.37645312e-08,1.92078125e-01
-5.37245312e-08,1.92131250e-01
-5.36845312e-08,1.92043750e-01
-5.36445312e-08,1.92309375e-01
-5.36045312e-08,1.92553125e-01
-5.35645312e-08,1.92471875e-01
-5.35245312e-08,1.92518750e-01
-5.34845312e-08,1.92485938e-01
-5.34445312e-08,1.92510938e-01
-5.34045312e-08,1.92490625e-01
-5.33645312e-08,1.92507813e-01
-5.33245312e-08,1.92493750e-01
-5.32845312e-08,1.92506250e-01
-5.32445312e-08,1.92495313e-01
-5.32045312e-08,1.92504687e-01
-5.31645312e-08,1.92496875e-01
-5.31245312e-08,1.92503125e-01
-5.30845312e-08,1.92496875e-01
-5.30445312e-08,1.92501563e-01
-5.30045312e-08,1.92498438e-01
-5.29645312e-08,1.92501563e-01
-5.29245312e-08,1.92498438e-01
-5.28845312e-08,1.92501563e-01
-5.28445312e-08,1.92498438e-01
-5.28045312e-08,1.92500000e-01
-5.27645312e-08,1.92500000e-01
-5.27245312e-08,1.92500000e-01
-5.26845312e-08,1.92500000e-01
-5.26445312e-08,1.92500000e-01
-5.26045312e-08,1.92500000e-01
-5.25645312e-08,1.92498438e-01
-5.25245312e-08,1.92501563e-01
-5.24845312e-08,1.92498438e-01
-5.24445312e-08,1.92501563e-01
-5.24045312e-08,1.92498438e-01
-5.23645312e-08,1.92501563e-01
-5.23245312e-08,1.92496875e-01
-5.22845312e-08,1.92503125e-01
-5.22445312e-08,1.92496875e-01
-5.22045312e-08,1.92504687e-01
-5.21645312e-08,1.92495313e-01
-5.21245312e-08,1.92504687e-01
-5.20845312e-08,1.92493750e-01
-5.20445312e-08,1.92506250e-01
-5.20045312e-08,1.92492188e-01
-5.19645312e-08,1.92509375e-01
-5.19245312e-08,1.92489063e-01
-5.18845312e-08,1.92514062e-01
-5.18445312e-08,1.92479687e-01
-5.18045312e-08,1.92529688e-01
-5.17645312e-08,1.92445313e-01
-5.17245312e-08,1.92707813e-01
-5.16845312e-08,1.92954687e-01
-5.16445312e-08,1.92868750e-01
-5.16045312e-08,1.92920312e-01
-5.15645312e-08,1.92884375e-01
-5.15245313e-08,1.92912500e-01
-5.14845312e-08,1.92889063e-01
-5.14445312e-08,1.92909375e-01
-5.14045312e-08,1.92892188e-01
-5.13645312e-08,1.92907812e-01
-5.13245312e-08,1.92893750e-01
-5.12845312e-08,1.92906250e-01
-5.12445312e-08,1.92895312e-01
-5.12045312e-08,1.92904688e-01
-5.11645312e-08,1.92895312e-01
-5.11245312e-08,1.92904688e-01
-5.10845312e-08,1.92896875e-01
-5.10445312e-08,1.92903125e-01
-5.10045312e-08,1.92896875e-01
-5.09645312e-08,1.92903125e-01
-5.09245312e-08,1.92896875e-01
-5.08845312e-08,1.92901563e-01
-5.08445312e-08,1.92898438e-01
-5.08045312e-08,1.92901563e-01
-5.07645312e-08,1.92898438e-01
-5.07245312e-08,1.92901563e-01
-5.06845312e-08,1.92898438e-01
-5.06445312e-08,1.92900000e-01
-5.06045312e-08,1.92900000e-01
-5.05645312e-08,1.92900000e-01
-5.05245312e-08,1.92900000e-01
-5.04845312e-08,1.92898438e-01
-5.04445312e-08,1.92901563e-01
-5.04045312e-08,1.92898438e-01
-5.03645312e-08,1.92903125e-01
-5.03245312e-08,1.92896875e-01
-5.02845312e-08,1.92904688e-01
-5.02445312e-08,1.92893750e-01
-5.02045312e-08,1.92907812e-01
-5.01645312e-08,1.92890625e-01
-5.01245312e-08,1.92912500e-01
-5.00845312e-08,1.92882813e-01
-5.00445312e-08,1.92928125e-01
-5.00045312e-08,1.92846875e-01
-4.99645312e-08,1.93106250e-01
-4.99245312e-08,1.93356250e-01
-4.98845312e-08,1.93267187e-01
-4.98445312e-08,1.93321875e-01
-4.98045312e-08,1.93282813e-01
-4.97645312e-08,1.93314062e-01
-4.97245312e-08,1.93289062e-01
-4.96845312e-08,1.93309375e-01
-4.96445312e-08,1.93293750e-01
-4.96045313e-08,1.93304688e-01
-4.95645312e-08,1.93300000e-01
-4.95245312e-08,1.93295313e-01
-4.94845312e-08,1.93314062e-01
-4.94445312e-08,1.93260938e-01
-4.94045312e-08,1.93490625e-01
-4.93645312e-08,1.93771875e-01
-4.93245313e-08,1.93651563e-01
-4.92845312e-08,1.93740625e-01
-4.92445312e-08,1.93662500e-01
-4.92045312e-08,1.93739063e-01
-4.91645312e-08,1.93657812e-01
-4.91245312e-08,1.93750000e-01
-4.90845312e-08,1.93625000e-01
-4.90445312e-08,1.93926563e-01
-4.90045312e-08,1.94135938e-01
-4.89645312e-08,1.94089063e-01
-4.89245312e-08,1.94101563e-01
-4.88845312e-08,1.94104688e-01
-4.88445312e-08,1.94090625e-01
-4.88045312e-08,1.94114063e-01
-4.87645312e-08,1.94079688e-01
-4.87245312e-08,1.94131250e-01
-4.86845312e-08,1.94043750e-01
-4.86445312e-08,1.94309375e-01
-4.86045312e-08,1.94551562e-01
-4.85645312e-08,1.94471875e-01
-4.85245312e-08,1.94518750e-01
-4.84845312e-08,1.94487500e-01
-4.84445312e-08,1.94509375e-01
-4.84045312e-08,1.94492187e-01
-4.83645312e-08,1.94506250e-01
-4.83245312e-08,1.94495313e-01
-4.82845312e-08,1.94503125e-01
-4.82445312e-08,1.94496875e-01
-4.82045312e-08,1.94501563e-01
-4.81645312e-08,1.94498438e-01
-4.81245312e-08,1.94500000e-01
-4.80845312e-08,1.94500000e-01
-4.80445312e-08,1.94500000e-01
-4.80045312e-08,1.94501563e-01
-4.79645312e-08,1.94498438e-01
-4.79245312e-08,1.94501563e-01
-4.78845312e-08,1.94496875e-01
-4.78445312e-08,1.94503125e-01
-4.78045312e-08,1.94496875e-01
-4.77645312e-08,1.94504687e-01
-4.77245312e-08,1.94495313e-01
-4.76845313e-08,1.94506250e-01
-4.76445312e-08,1.94493750e-01
-4.76045312e-08,1.94507813e-01
-4.75645312e-08,1.94490625e-01
-4.75245312e-08,1.94512500e-01
-4.74845312e-08,1.94484375e-01
-4.74445312e-08,1.94520313e-01
-4.74045313e-08,1.94468750e-01
-4.73645312e-08,1.94556250e-01
-4.73245312e-08,1.94290625e-01
-4.72845312e-08,1.94046875e-01
-4.72445312e-08,1.94128125e-01
-4.72045312e-08,1.94081250e-01
-4.71645312e-08,1.94112500e-01
-4.71245313e-08,1.94092188e-01
-4.70845312e-08,1.94104688e-01
-4.70445312e-08,1.94098437e-01
-4.70045312e-08,1.94096875e-01
-4.69645312e-08,1.94107813e-01
-4.69245312e-08,1.94081250e-01
-4.68845312e-08,1.94143750e-01
-4.68445312e-08,1.93903125e-01
-4.68045312e-08,1.93634375e-01
-4.67645312e-08,1.93742187e-01
-4.67245312e-08,1.93667188e-01
-4.66845312e-08,1.93728125e-01
-4.66445312e-08,1.93675000e-01
-4.66045312e-08,1.93723438e-01
-4.65645312e-08,1.93678125e-01
-4.65245312e-08,1.93721875e-01
-4.64845312e-08,1.93678125e-01
-4.64445312e-08,1.93721875e-01
-4.64045312e-08,1.93676563e-01
-4.63645312e-08,1.93725000e-01
-4.63245312e-08,1.93671875e-01
-4.62845312e-08,1.93732813e-01
-4.62445312e-08,1.93657812e-01
-4.62045312e-08,1.93768750e-01
-4.61645312e-08,1.93478125e-01
-4.61245312e-08,1.93259375e-01
-4.60845312e-08,1.93315625e-01
-4.60445313e-08,1.93295313e-01
-4.60045312e-08,1.93298438e-01
-4.59645312e-08,1.93307813e-01
-4.59245312e-08,1.93284375e-01
-4.58845312e-08,1.93326563e-01
-4.58445312e-08,1.93248438e-01
-4.58045312e-08,1.93506250e-01
-4.57645313e-08,1.93756250e-01
-4.57245312e-08,1.93668750e-01
-4.56845312e-08,1.93721875e-01
-4.56445312e-08,1.93682812e-01
-4.56045312e-08,1.93712500e-01
-4.55645312e-08,1.93689063e-01
-4.55245312e-08,1.93709375e-01
-4.54845313e-08,1.93692188e-01
-4.54445312e-08,1.93706250e-01
-4.54045312e-08,1.93693750e-01
-4.53645312e-08,1.93706250e-01
-4.53245312e-08,1.93695312e-01
-4.52845312e-08,1.93704688e-01
-4.52445312e-08,1.93695312e-01
-4.52045313e-08,1.93703125e-01
-4.51645312e-08,1.93696875e-01
-4.51245312e-08,1.93703125e-01
-4.50845312e-08,1.93696875e-01
-4.50445312e-08,1.93703125e-01
-4.50045312e-08,1.93696875e-01
-4.49645312e-08,1.93703125e-01
-4.49245313e-08,1.93696875e-01
-4.48845312e-08,1.93703125e-01
-4.48445312e-08,1.93696875e-01
-4.48045312e-08,1.93704688e-01
-4.47645312e-08,1.93695312e-01
-4.47245312e-08,1.93706250e-01
-4.46845312e-08,1.93690625e-01
-4.46445312e-08,1.93712500e-01
-4.46045312e-08,1.93678125e-01
-4.45645312e-08,1.93745313e-01
-4.45245312e-08,1.93501563e-01
-4.44845312e-08,1.93234375e-01
-4.44445312e-08,1.93343750e-01
-4.44045312e-08,1.93264063e-01
-4.43645312e-08,1.93334375e-01
-4.43245312e-08,1.93264063e-01
-4.42845312e-08,1.93339062e-01
-4.42445312e-08,1.93251563e-01
-4.42045312e-08,1.93373438e-01
-4.41645312e-08,1.93071875e-01
-4.41245313e-08,1.92868750e-01
-4.40845312e-08,1.92904688e-01
-4.40445312e-08,1.92909375e-01
-4.40045312e-08,1.92875000e-01
-4.39645312e-08,1.92954687e-01
-4.39245312e-08,1.92689063e-01
-4.38845312e-08,1.92451563e-01
-4.38445313e-08,1.92520313e-01
-4.38045312e-08,1.92495313e-01
-4.37645312e-08,1.92489063e-01
-4.37245312e-08,1.92540625e-01
-4.36845312e-08,1.92303125e-01
-4.36445312e-08,1.92039062e-01
-4.36045312e-08,1.92134375e-01
-4.35645313e-08,1.92081250e-01
-4.35245312e-08,1.92104688e-01
-4.34845312e-08,1.92123437e-01
-4.34445312e-08,1.91921875e-01
-4.34045312e-08,1.91615625e-01
-4.33645312e-08,1.91760938e-01
-4.33245312e-08,1.91646875e-01
-4.32845313e-08,1.91751563e-01
-4.32445312e-08,1.91642188e-01
-4.32045312e-08,1.91779688e-01
-4.31645312e-08,1.91468750e-01
-4.31245312e-08,1.91267188e-01
-4.30845312e-08,1.91309375e-01
-4.30445312e-08,1.91298438e-01
-4.30045313e-08,1.91298438e-01
-4.29645312e-08,1.91304688e-01
-4.29245312e-08,1.91293750e-01
-4.28845312e-08,1.91307813e-01
-4.28445312e-08,1.91292188e-01
-4.28045312e-08,1.91307813e-01
-4.27645312e-08,1.91290625e-01
-4.27245313e-08,1.91309375e-01
-4.26845312e-08,1.91290625e-01
-4.26445312e-08,1.91309375e-01
-4.26045312e-08,1.91290625e-01
-4.25645312e-08,1.91309375e-01
-4.25245312e-08,1.91290625e-01
-4.24845312e-08,1.91310938e-01
-4.24445312e-08,1.91289062e-01
-4.24045312e-08,1.91310938e-01
-4.23645312e-08,1.91289062e-01
-4.23245312e-08,1.91310938e-01
-4.22845312e-08,1.91287500e-01
-4.22445312e-08,1.91312500e-01
-4.22045313e-08,1.91287500e-01
-4.21645312e-08,1.91314062e-01
-4.21245312e-08,1.91285938e-01
-4.20845312e-08,1.91315625e-01
-4.20445312e-08,1.91282813e-01
-4.20045312e-08,1.91318750e-01
-4.19645312e-08,1.91279688e-01
-4.19245313e-08,1.91323437e-01
-4.18845312e-08,1.91270313e-01
-4.18445312e-08,1.91339063e-01
-4.18045312e-08,1.91235938e-01
-4.17645312e-08,1.91517188e-01
-4.17245312e-08,1.91743750e-01
-4.16845312e-08,1.91679688e-01
-4.16445313e-08,1.91709375e-01
-4.16045312e-08,1.91695313e-01
-4.15645312e-08,1.91700000e-01
-4.15245312e-08,1.91701563e-01
-4.14845312e-08,1.91695313e-01
-4.14445312e-08,1.91707813e-01
-4.14045312e-08,1.91689063e-01
-4.13645313e-08,1.91714063e-01
-4.13245312e-08,1.91679688e-01
-4.12845312e-08,1.91731250e-01
-4.12445312e-08,1.91643750e-01
-4.12045312e-08,1.91909375e-01
-4.11645312e-08,1.92151563e-01
-4.11245312e-08,1.92073437e-01
-4.10845313e-08,1.92117188e-01
-4.10445312e-08,1.92089063e-01
-4.10045312e-08,1.92106250e-01
-4.09645312e-08,1.92096875e-01
-4.09245312e-08,1.92100000e-01
-4.08845312e-08,1.92104688e-01
-4.08445312e-08,1.92090625e-01
-4.08045313e-08,1.92120313e-01
-4.07645312e-08,1.92054688e-01
-4.07245312e-08,1.92298438e-01
-4.06845312e-08,1.92564063e-01
-4.06445312e-08,1.92459375e-01
-4.06045312e-08,1.92532813e-01
-4.05645312e-08,1.92470313e-01
-4.05245312e-08,1.92529688e-01
-4.04845312e-08,1.92468750e-01
-4.04445312e-08,1.92539062e-01
-4.04045312e-08,1.92437500e-01
-4.03645312e-08,1.92714063e-01
-4.03245312e-08,1.92950000e-01
-4.02845313e-08,1.92871875e-01
-4.02445312e-08,1.92920312e-01
-4.02045312e-08,1.92882813e-01
-4.01645312e-08,1.92917188e-01
-4.01245312e-08,1.92879688e-01
-4.00845312e-08,1.92928125e-01
-4.00445312e-08,1.92846875e-01
-4.00045313e-08,1.93104688e-01
-3.99645312e-08,1.93359375e-01
-3.99245312e-08,1.93262500e-01
-3.98845312e-08,1.93329688e-01
-3.98445312e-08,1.93273438e-01
-3.98045312e-08,1.93326563e-01
-3.97645312e-08,1.93270313e-01
-3.97245313e-08,1.93337500e-01
-3.96845312e-08,1.93237500e-01
-3.96445312e-08,1.93514063e-01
-3.96045312e-08,1.93748438e-01
-3.95645312e-08,1.93675000e-01
-3.95245312e-08,1.93715625e-01
-3.94845312e-08,1.93687500e-01
-3.94445313e-08,1.93709375e-01
-3.94045312e-08,1.93692188e-01
-3.93645312e-08,1.93706250e-01
-3.93245312e-08,1.93695312e-01
-3.92845312e-08,1.93704688e-01
-3.92445312e-08,1.93696875e-01
-3.92045312e-08,1.93703125e-01
-3.91645313e-08,1.93696875e-01
-3.91245312e-08,1.93703125e-01
-3.90845312e-08,1.93696875e-01
-3.90445312e-08,1.93701563e-01
-3.90045312e-08,1.93698438e-01
-3.89645312e-08,1.93701563e-01
-3.89245312e-08,1.93698438e-01
-3.88845313e-08,1.93701563e-01
-3.88445312e-08,1.93698438e-01
-3.88045312e-08,1.93701563e-01
-3.87645312e-08,1.93698438e-01
-3.87245312e-08,1.93701563e-01
-3.86845312e-08,1.93698438e-01
-3.86445312e-08,1.93701563e-01
-3.86045313e-08,1.93700000e-01
-3.85645312e-08,1.93700000e-01
-3.85245312e-08,1.93700000e-01
