trails/0ad503bf4c7e473689fcee6623a13564/aes_ch1_20250507104727465.csv

Model,MSO66B
Label,
Waveform Type,ANALOG
Horizontal Units,s
Sample Interval,4.00000000e-11
Record Length,10000
Zero Index,1599.03125000
Vertical Units,A
ANALOG_Thumbnail,
yOffset,1.84500000e-01
yPosition,8.40000000e-01

Labels,
TIME,CH1
-6.39612500e-08,1.83706250e-01
-6.39212500e-08,1.83693750e-01
-6.38812500e-08,1.83704688e-01
-6.38412500e-08,1.83695313e-01
-6.38012500e-08,1.83704688e-01
-6.37612500e-08,1.83696875e-01
-6.37212500e-08,1.83703125e-01
-6.36812500e-08,1.83696875e-01
-6.36412500e-08,1.83701562e-01
-6.36012500e-08,1.83698438e-01
-6.35612500e-08,1.83700000e-01
-6.35212500e-08,1.83701562e-01
-6.34812500e-08,1.83695313e-01
-6.34412500e-08,1.83709375e-01
-6.34012500e-08,1.83681250e-01
-6.33612500e-08,1.83742188e-01
-6.33212500e-08,1.83504688e-01
-6.32812500e-08,1.83231250e-01
-6.32412500e-08,1.83345312e-01
-6.32012500e-08,1.83262500e-01
-6.31612500e-08,1.83335938e-01
-6.31212500e-08,1.83264063e-01
-6.30812500e-08,1.83339063e-01
-6.30412500e-08,1.83253125e-01
-6.30012500e-08,1.83371875e-01
-6.29612500e-08,1.83075000e-01
-6.29212500e-08,1.82862500e-01
-6.28812500e-08,1.82912500e-01
-6.28412500e-08,1.82898438e-01
-6.28012500e-08,1.82895313e-01
-6.27612500e-08,1.82912500e-01
-6.27212500e-08,1.82876563e-01
-6.26812500e-08,1.82950000e-01
-6.26412500e-08,1.82696875e-01
-6.26012500e-08,1.82440625e-01
-6.25612500e-08,1.82535937e-01
-6.25212500e-08,1.82471875e-01
-6.24812500e-08,1.82525000e-01
-6.24412500e-08,1.82476562e-01
-6.24012500e-08,1.82526563e-01
-6.23612500e-08,1.82465625e-01
-6.23212500e-08,1.82557812e-01
-6.22812500e-08,1.82290625e-01
-6.22412500e-08,1.82046875e-01
-6.22012500e-08,1.82131250e-01
-6.21612500e-08,1.82078125e-01
-6.21212500e-08,1.82118750e-01
-6.20812500e-08,1.82082812e-01
-6.20412500e-08,1.82115625e-01
-6.20012500e-08,1.82084375e-01
-6.19612500e-08,1.82115625e-01
-6.19212500e-08,1.82082812e-01
-6.18812500e-08,1.82118750e-01
-6.18412500e-08,1.82079688e-01
-6.18012500e-08,1.82126563e-01
-6.17612500e-08,1.82064063e-01
-6.17212500e-08,1.82159375e-01
-6.16812500e-08,1.81887500e-01
-6.16412500e-08,1.81650000e-01
-6.16012500e-08,1.81725000e-01
-6.15612500e-08,1.81684375e-01
-6.15212500e-08,1.81710938e-01
-6.14812500e-08,1.81692188e-01
-6.14412500e-08,1.81706250e-01
-6.14012500e-08,1.81695313e-01
-6.13612500e-08,1.81703125e-01
-6.13212500e-08,1.81696875e-01
-6.12812500e-08,1.81701562e-01
-6.12412500e-08,1.81698438e-01
-6.12012500e-08,1.81700000e-01
-6.11612500e-08,1.81700000e-01
-6.11212500e-08,1.81700000e-01
-6.10812500e-08,1.81701562e-01
-6.10412500e-08,1.81698438e-01
-6.10012500e-08,1.81701562e-01
-6.09612500e-08,1.81696875e-01
-6.09212500e-08,1.81703125e-01
-6.08812500e-08,1.81696875e-01
-6.08412500e-08,1.81704688e-01
-6.08012500e-08,1.81695313e-01
-6.07612500e-08,1.81704688e-01
-6.07212500e-08,1.81693750e-01
-6.06812500e-08,1.81707813e-01
-6.06412500e-08,1.81692188e-01
-6.06012500e-08,1.81709375e-01
-6.05612500e-08,1.81687500e-01
-6.05212500e-08,1.81715625e-01
-6.04812500e-08,1.81679688e-01
-6.04412500e-08,1.81731250e-01
-6.04012500e-08,1.81643750e-01
-6.03612500e-08,1.81909375e-01
-6.03212500e-08,1.82153125e-01
-6.02812500e-08,1.82070312e-01
-6.02412500e-08,1.82120313e-01
-6.02012500e-08,1.82085938e-01
-6.01612500e-08,1.82110938e-01
-6.01212500e-08,1.82090625e-01
-6.00812500e-08,1.82107812e-01
-6.00412500e-08,1.82093750e-01
-6.00012500e-08,1.82104688e-01
-5.99612500e-08,1.82096875e-01
-5.99212500e-08,1.82101563e-01
-5.98812500e-08,1.82098438e-01
-5.98412500e-08,1.82100000e-01
-5.98012500e-08,1.82101563e-01
-5.97612500e-08,1.82095312e-01
-5.97212500e-08,1.82107812e-01
-5.96812500e-08,1.82087500e-01
-5.96412500e-08,1.82121875e-01
-5.96012500e-08,1.82053125e-01
-5.95612500e-08,1.82300000e-01
-5.95212500e-08,1.82562500e-01
-5.94812500e-08,1.82460938e-01
-5.94412500e-08,1.82529688e-01
-5.94012500e-08,1.82475000e-01
-5.93612500e-08,1.82523437e-01
-5.93212500e-08,1.82478125e-01
-5.92812500e-08,1.82521875e-01
-5.92412500e-08,1.82476562e-01
-5.92012500e-08,1.82525000e-01
-5.91612500e-08,1.82470313e-01
-5.91212500e-08,1.82539063e-01
-5.90812500e-08,1.82437500e-01
-5.90412500e-08,1.82715625e-01
-5.90012500e-08,1.82946875e-01
-5.89612500e-08,1.82876563e-01
-5.89212500e-08,1.82914063e-01
-5.88812500e-08,1.82890625e-01
-5.88412500e-08,1.82907813e-01
-5.88012500e-08,1.82895313e-01
-5.87612500e-08,1.82904687e-01
-5.87212500e-08,1.82896875e-01
-5.86812500e-08,1.82903125e-01
-5.86412500e-08,1.82898438e-01
-5.86012500e-08,1.82901563e-01
-5.85612500e-08,1.82898438e-01
-5.85212500e-08,1.82901563e-01
-5.84812500e-08,1.82900000e-01
-5.84412500e-08,1.82900000e-01
-5.84012500e-08,1.82900000e-01
-5.83612500e-08,1.82900000e-01
-5.83212500e-08,1.82900000e-01
-5.82812500e-08,1.82900000e-01
-5.82412500e-08,1.82900000e-01
-5.82012500e-08,1.82900000e-01
-5.81612500e-08,1.82900000e-01
-5.81212500e-08,1.82900000e-01
-5.80812500e-08,1.82900000e-01
-5.80412500e-08,1.82900000e-01
-5.80012500e-08,1.82900000e-01
-5.79612500e-08,1.82900000e-01
-5.79212500e-08,1.82900000e-01
-5.78812500e-08,1.82900000e-01
-5.78412500e-08,1.82900000e-01
-5.78012500e-08,1.82900000e-01
-5.77612500e-08,1.82900000e-01
-5.77212500e-08,1.82900000e-01
-5.76812500e-08,1.82900000e-01
-5.76412500e-08,1.82900000e-01
-5.76012500e-08,1.82900000e-01
-5.75612500e-08,1.82900000e-01
-5.75212500e-08,1.82900000e-01
-5.74812500e-08,1.82900000e-01
-5.74412500e-08,1.82900000e-01
-5.74012500e-08,1.82898438e-01
-5.73612500e-08,1.82900000e-01
-5.73212500e-08,1.82898438e-01
-5.72812500e-08,1.82901563e-01
-5.72412500e-08,1.82898438e-01
-5.72012500e-08,1.82901563e-01
-5.71612500e-08,1.82898438e-01
-5.71212500e-08,1.82901563e-01
-5.70812500e-08,1.82898438e-01
-5.70412500e-08,1.82901563e-01
-5.70012500e-08,1.82898438e-01
-5.69612500e-08,1.82901563e-01
-5.69212500e-08,1.82898438e-01
-5.68812500e-08,1.82901563e-01
-5.68412500e-08,1.82898438e-01
-5.68012500e-08,1.82901563e-01
-5.67612500e-08,1.82898438e-01
-5.67212500e-08,1.82901563e-01
-5.66812500e-08,1.82898438e-01
-5.66412500e-08,1.82901563e-01
-5.66012500e-08,1.82898438e-01
-5.65612500e-08,1.82901563e-01
-5.65212500e-08,1.82898438e-01
-5.64812500e-08,1.82901563e-01
-5.64412500e-08,1.82898438e-01
-5.64012500e-08,1.82901563e-01
-5.63612500e-08,1.82898438e-01
-5.63212500e-08,1.82903125e-01
-5.62812500e-08,1.82896875e-01
-5.62412500e-08,1.82903125e-01
-5.62012500e-08,1.82896875e-01
-5.61612500e-08,1.82903125e-01
-5.61212500e-08,1.82896875e-01
-5.60812500e-08,1.82904687e-01
-5.60412500e-08,1.82895313e-01
-5.60012500e-08,1.82906250e-01
-5.59612500e-08,1.82893750e-01
-5.59212500e-08,1.82907813e-01
-5.58812500e-08,1.82890625e-01
-5.58412500e-08,1.82912500e-01
-5.58012500e-08,1.82882813e-01
-5.57612500e-08,1.82926563e-01
-5.57212500e-08,1.82848438e-01
-5.56812500e-08,1.83104688e-01
-5.56412500e-08,1.83357812e-01
-5.56012500e-08,1.83265625e-01
-5.55612500e-08,1.83326563e-01
-5.55212500e-08,1.83278125e-01
-5.54812500e-08,1.83320312e-01
-5.54412500e-08,1.83279688e-01
-5.54012500e-08,1.83321875e-01
-5.53612500e-08,1.83275000e-01
-5.53212500e-08,1.83334375e-01
-5.52812500e-08,1.83242188e-01
-5.52412500e-08,1.83509375e-01
-5.52012500e-08,1.83753125e-01
-5.51612500e-08,1.83668750e-01
-5.51212500e-08,1.83721875e-01
-5.50812500e-08,1.83681250e-01
-5.50412500e-08,1.83717188e-01
-5.50012500e-08,1.83682813e-01
-5.49612500e-08,1.83720313e-01
-5.49212500e-08,1.83676563e-01
-5.48812500e-08,1.83732813e-01
-5.48412500e-08,1.83643750e-01
-5.48012500e-08,1.83909375e-01
-5.47612500e-08,1.84153125e-01
-5.47212500e-08,1.84070312e-01
-5.46812500e-08,1.84120312e-01
-5.46412500e-08,1.84084375e-01
-5.46012500e-08,1.84112500e-01
-5.45612500e-08,1.84089063e-01
-5.45212500e-08,1.84109375e-01
-5.44812500e-08,1.84090625e-01
-5.44412500e-08,1.84107812e-01
-5.44012500e-08,1.84092188e-01
-5.43612500e-08,1.84106250e-01
-5.43212500e-08,1.84093750e-01
-5.42812500e-08,1.84106250e-01
-5.42412500e-08,1.84093750e-01
-5.42012500e-08,1.84106250e-01
-5.41612500e-08,1.84093750e-01
-5.41212500e-08,1.84106250e-01
-5.40812500e-08,1.84095312e-01
-5.40412500e-08,1.84104688e-01
-5.40012500e-08,1.84095312e-01
-5.39612500e-08,1.84104688e-01
-5.39212500e-08,1.84095312e-01
-5.38812500e-08,1.84104688e-01
-5.38412500e-08,1.84095312e-01
-5.38012500e-08,1.84104688e-01
-5.37612500e-08,1.84095312e-01
-5.37212500e-08,1.84104688e-01
-5.36812500e-08,1.84095312e-01
-5.36412500e-08,1.84104688e-01
-5.36012500e-08,1.84095312e-01
-5.35612500e-08,1.84104688e-01
-5.35212500e-08,1.84095312e-01
-5.34812500e-08,1.84104688e-01
-5.34412500e-08,1.84095312e-01
-5.34012500e-08,1.84104688e-01
-5.33612500e-08,1.84095312e-01
-5.33212500e-08,1.84104688e-01
-5.32812500e-08,1.84095312e-01
-5.32412500e-08,1.84104688e-01
-5.32012500e-08,1.84093750e-01
-5.31612500e-08,1.84106250e-01
-5.31212500e-08,1.84093750e-01
-5.30812500e-08,1.84106250e-01
-5.30412500e-08,1.84093750e-01
-5.30012500e-08,1.84106250e-01
-5.29612500e-08,1.84093750e-01
-5.29212500e-08,1.84106250e-01
-5.28812500e-08,1.84093750e-01
-5.28412500e-08,1.84106250e-01
-5.28012500e-08,1.84092188e-01
-5.27612500e-08,1.84107812e-01
-5.27212500e-08,1.84092188e-01
-5.26812500e-08,1.84107812e-01
-5.26412500e-08,1.84090625e-01
-5.26012500e-08,1.84109375e-01
-5.25612500e-08,1.84090625e-01
-5.25212500e-08,1.84110938e-01
-5.24812500e-08,1.84089063e-01
-5.24412500e-08,1.84112500e-01
-5.24012500e-08,1.84085938e-01
-5.23612500e-08,1.84115625e-01
-5.23212500e-08,1.84081250e-01
-5.22812500e-08,1.84125000e-01
-5.22412500e-08,1.84065625e-01
-5.22012500e-08,1.84159375e-01
-5.21612500e-08,1.83887500e-01
-5.21212500e-08,1.83650000e-01
-5.20812500e-08,1.83725000e-01
-5.20412500e-08,1.83684375e-01
-5.20012500e-08,1.83710938e-01
-5.19612500e-08,1.83692187e-01
-5.19212500e-08,1.83706250e-01
-5.18812500e-08,1.83695313e-01
-5.18412500e-08,1.83703125e-01
-5.18012500e-08,1.83698438e-01
-5.17612500e-08,1.83700000e-01
-5.17212500e-08,1.83700000e-01
-5.16812500e-08,1.83698438e-01
-5.16412500e-08,1.83701562e-01
-5.16012500e-08,1.83696875e-01
-5.15612500e-08,1.83704688e-01
-5.15212500e-08,1.83695313e-01
-5.14812500e-08,1.83706250e-01
-5.14412500e-08,1.83692187e-01
-5.14012500e-08,1.83710938e-01
-5.13612500e-08,1.83685938e-01
-5.13212500e-08,1.83718750e-01
-5.12812500e-08,1.83671875e-01
-5.12412500e-08,1.83753125e-01
-5.12012500e-08,1.83493750e-01
-5.11612500e-08,1.83243750e-01
-5.11212500e-08,1.83332812e-01
-5.10812500e-08,1.83276563e-01
-5.10412500e-08,1.83320312e-01
-5.10012500e-08,1.83281250e-01
-5.09612500e-08,1.83317188e-01
-5.09212500e-08,1.83281250e-01
-5.08812500e-08,1.83321875e-01
-5.08412500e-08,1.83270313e-01
-5.08012500e-08,1.83353125e-01
-5.07612500e-08,1.83095312e-01
-5.07212500e-08,1.82842188e-01
-5.06812500e-08,1.82935938e-01
-5.06412500e-08,1.82870313e-01
-5.06012500e-08,1.82926563e-01
-5.05612500e-08,1.82871875e-01
-5.05212500e-08,1.82931250e-01
-5.04812500e-08,1.82860938e-01
-5.04412500e-08,1.82964062e-01
-5.04012500e-08,1.82682813e-01
-5.03612500e-08,1.82454688e-01
-5.03212500e-08,1.82520313e-01
-5.02812500e-08,1.82489063e-01
-5.02412500e-08,1.82506250e-01
-5.02012500e-08,1.82498437e-01
-5.01612500e-08,1.82498437e-01
-5.01212500e-08,1.82504688e-01
-5.00812500e-08,1.82490625e-01
-5.00412500e-08,1.82515625e-01
-5.00012500e-08,1.82475000e-01
-4.99612500e-08,1.82551563e-01
-4.99212500e-08,1.82295313e-01
-4.98812500e-08,1.82043750e-01
-4.98412500e-08,1.82132813e-01
-4.98012500e-08,1.82076563e-01
-4.97612500e-08,1.82117187e-01
-4.97212500e-08,1.82085938e-01
-4.96812500e-08,1.82110938e-01
-4.96412500e-08,1.82090625e-01
-4.96012500e-08,1.82107812e-01
-4.95612500e-08,1.82095312e-01
-4.95212500e-08,1.82103125e-01
-4.94812500e-08,1.82098438e-01
-4.94412500e-08,1.82098438e-01
-4.94012500e-08,1.82104688e-01
-4.93612500e-08,1.82090625e-01
-4.93212500e-08,1.82118750e-01
-4.92812500e-08,1.82056250e-01
-4.92412500e-08,1.82296875e-01
-4.92012500e-08,1.82564063e-01
-4.91612500e-08,1.82459375e-01
-4.91212500e-08,1.82531250e-01
-4.90812500e-08,1.82473438e-01
-4.90412500e-08,1.82523437e-01
-4.90012500e-08,1.82478125e-01
-4.89612500e-08,1.82521875e-01
-4.89212500e-08,1.82479688e-01
-4.88812500e-08,1.82520313e-01
-4.88412500e-08,1.82478125e-01
-4.88012500e-08,1.82521875e-01
-4.87612500e-08,1.82476562e-01
-4.87212500e-08,1.82526563e-01
-4.86812500e-08,1.82468750e-01
-4.86412500e-08,1.82540625e-01
-4.86012500e-08,1.82434375e-01
-4.85612500e-08,1.82718750e-01
-4.85212500e-08,1.82943750e-01
-4.84812500e-08,1.82879687e-01
-4.84412500e-08,1.82910938e-01
-4.84012500e-08,1.82893750e-01
-4.83612500e-08,1.82903125e-01
-4.83212500e-08,1.82900000e-01
-4.82812500e-08,1.82898438e-01
-4.82412500e-08,1.82903125e-01
-4.82012500e-08,1.82895313e-01
-4.81612500e-08,1.82906250e-01
-4.81212500e-08,1.82892187e-01
-4.80812500e-08,1.82909375e-01
-4.80412500e-08,1.82887500e-01
-4.80012500e-08,1.82915625e-01
-4.79612500e-08,1.82879687e-01
-4.79212500e-08,1.82931250e-01
-4.78812500e-08,1.82843750e-01
-4.78412500e-08,1.83109375e-01
-4.78012500e-08,1.83353125e-01
-4.77612500e-08,1.83270313e-01
-4.77212500e-08,1.83318750e-01
-4.76812500e-08,1.83285937e-01
-4.76412500e-08,1.83310937e-01
-4.76012500e-08,1.83290625e-01
-4.75612500e-08,1.83307813e-01
-4.75212500e-08,1.83293750e-01
-4.74812500e-08,1.83304688e-01
-4.74412500e-08,1.83296875e-01
-4.74012500e-08,1.83303125e-01
-4.73612500e-08,1.83298437e-01
-4.73212500e-08,1.83300000e-01
-4.72812500e-08,1.83300000e-01
-4.72412500e-08,1.83298437e-01
-4.72012500e-08,1.83303125e-01
-4.71612500e-08,1.83293750e-01
-4.71212500e-08,1.83309375e-01
-4.70812500e-08,1.83285937e-01
-4.70412500e-08,1.83323438e-01
-4.70012500e-08,1.83251563e-01
-4.69612500e-08,1.83501562e-01
-4.69212500e-08,1.83760937e-01
-4.68812500e-08,1.83664063e-01
-4.68412500e-08,1.83726562e-01
-4.68012500e-08,1.83678125e-01
-4.67612500e-08,1.83718750e-01
-4.67212500e-08,1.83682813e-01
-4.66812500e-08,1.83715625e-01
-4.66412500e-08,1.83684375e-01
-4.66012500e-08,1.83714062e-01
-4.65612500e-08,1.83685938e-01
-4.65212500e-08,1.83714062e-01
-4.64812500e-08,1.83687500e-01
-4.64412500e-08,1.83712500e-01
-4.64012500e-08,1.83687500e-01
-4.63612500e-08,1.83712500e-01
-4.63212500e-08,1.83687500e-01
-4.62812500e-08,1.83712500e-01
-4.62412500e-08,1.83685938e-01
-4.62012500e-08,1.83714062e-01
-4.61612500e-08,1.83685938e-01
-4.61212500e-08,1.83714062e-01
-4.60812500e-08,1.83684375e-01
-4.60412500e-08,1.83715625e-01
-4.60012500e-08,1.83682813e-01
-4.59612500e-08,1.83718750e-01
-4.59212500e-08,1.83679687e-01
-4.58812500e-08,1.83721875e-01
-4.58412500e-08,1.83675000e-01
-4.58012500e-08,1.83729688e-01
-4.57612500e-08,1.83664063e-01
-4.57212500e-08,1.83746875e-01
-4.56812500e-08,1.83625000e-01
-4.56412500e-08,1.83932813e-01
-4.56012500e-08,1.84118750e-01
-4.55612500e-08,1.84129687e-01
-4.55212500e-08,1.83907813e-01
-4.54812500e-08,1.83634375e-01
-4.54412500e-08,1.83737500e-01
-4.54012500e-08,1.83673438e-01
-4.53612500e-08,1.83720313e-01
-4.53212500e-08,1.83684375e-01
-4.52812500e-08,1.83712500e-01
-4.52412500e-08,1.83689062e-01
-4.52012500e-08,1.83709375e-01
-4.51612500e-08,1.83692187e-01
-4.51212500e-08,1.83706250e-01
-4.50812500e-08,1.83693750e-01
-4.50412500e-08,1.83704688e-01
-4.50012500e-08,1.83695313e-01
-4.49612500e-08,1.83703125e-01
-4.49212500e-08,1.83696875e-01
-4.48812500e-08,1.83701562e-01
-4.48412500e-08,1.83698438e-01
-4.48012500e-08,1.83701562e-01
-4.47612500e-08,1.83700000e-01
-4.47212500e-08,1.83700000e-01
-4.46812500e-08,1.83700000e-01
-4.46412500e-08,1.83700000e-01
-4.46012500e-08,1.83701562e-01
-4.45612500e-08,1.83698438e-01
-4.45212500e-08,1.83701562e-01
-4.44812500e-08,1.83696875e-01
-4.44412500e-08,1.83703125e-01
-4.44012500e-08,1.83696875e-01
-4.43612500e-08,1.83704688e-01
-4.43212500e-08,1.83695313e-01
-4.42812500e-08,1.83704688e-01
-4.42412500e-08,1.83693750e-01
-4.42012500e-08,1.83707813e-01
-4.41612500e-08,1.83692187e-01
-4.41212500e-08,1.83709375e-01
-4.40812500e-08,1.83689062e-01
-4.40412500e-08,1.83714062e-01
-4.40012500e-08,1.83682813e-01
-4.39612500e-08,1.83721875e-01
-4.39212500e-08,1.83667187e-01
-4.38812500e-08,1.83757813e-01
-4.38412500e-08,1.83489062e-01
-4.38012500e-08,1.83248437e-01
-4.37612500e-08,1.83326563e-01
-4.37212500e-08,1.83282813e-01
-4.36812500e-08,1.83310937e-01
-4.36412500e-08,1.83292188e-01
-4.36012500e-08,1.83304688e-01
-4.35612500e-08,1.83296875e-01
-4.35212500e-08,1.83300000e-01
-4.34812500e-08,1.83301563e-01
-4.34412500e-08,1.83295313e-01
-4.34012500e-08,1.83307813e-01
-4.33612500e-08,1.83289063e-01
-4.33212500e-08,1.83317188e-01
-4.32812500e-08,1.83273437e-01
-4.32412500e-08,1.83353125e-01
-4.32012500e-08,1.83093750e-01
-4.31612500e-08,1.82845312e-01
-4.31212500e-08,1.82931250e-01
-4.30812500e-08,1.82879687e-01
-4.30412500e-08,1.82915625e-01
-4.30012500e-08,1.82889063e-01
-4.29612500e-08,1.82907813e-01
-4.29212500e-08,1.82895313e-01
-4.28812500e-08,1.82903125e-01
-4.28412500e-08,1.82900000e-01
-4.28012500e-08,1.82895313e-01
-4.27612500e-08,1.82910938e-01
-4.27212500e-08,1.82879687e-01
-4.26812500e-08,1.82945313e-01
-4.26412500e-08,1.82700000e-01
-4.26012500e-08,1.82437500e-01
-4.25612500e-08,1.82537500e-01
-4.25212500e-08,1.82471875e-01
-4.24812500e-08,1.82523437e-01
-4.24412500e-08,1.82479688e-01
-4.24012500e-08,1.82517188e-01
-4.23612500e-08,1.82484375e-01
-4.23212500e-08,1.82514063e-01
-4.22812500e-08,1.82487500e-01
-4.22412500e-08,1.82512500e-01
-4.22012500e-08,1.82489063e-01
-4.21612500e-08,1.82509375e-01
-4.21212500e-08,1.82490625e-01
-4.20812500e-08,1.82507813e-01
-4.20412500e-08,1.82492188e-01
-4.20012500e-08,1.82507813e-01
-4.19612500e-08,1.82493750e-01
-4.19212500e-08,1.82504688e-01
-4.18812500e-08,1.82495313e-01
-4.18412500e-08,1.82503125e-01
-4.18012500e-08,1.82498437e-01
-4.17612500e-08,1.82500000e-01
-4.17212500e-08,1.82503125e-01
-4.16812500e-08,1.82490625e-01
-4.16412500e-08,1.82518750e-01
-4.16012500e-08,1.82456250e-01
-4.15612500e-08,1.82696875e-01
-4.15212500e-08,1.82965625e-01
-4.14812500e-08,1.82857812e-01
-4.14412500e-08,1.82932813e-01
-4.14012500e-08,1.82871875e-01
-4.13612500e-08,1.82925000e-01
-4.13212500e-08,1.82876563e-01
-4.12812500e-08,1.82923438e-01
-4.12412500e-08,1.82878125e-01
-4.12012500e-08,1.82921875e-01
-4.11612500e-08,1.82876563e-01
-4.11212500e-08,1.82923438e-01
-4.10812500e-08,1.82875000e-01
-4.10412500e-08,1.82928125e-01
-4.10012500e-08,1.82867188e-01
-4.09612500e-08,1.82942188e-01
-4.09212500e-08,1.82834375e-01
-4.08812500e-08,1.83118750e-01
-4.08412500e-08,1.83343750e-01
-4.08012500e-08,1.83279688e-01
-4.07612500e-08,1.83310937e-01
-4.07212500e-08,1.83293750e-01
-4.06812500e-08,1.83303125e-01
-4.06412500e-08,1.83298437e-01
-4.06012500e-08,1.83300000e-01
-4.05612500e-08,1.83301563e-01
-4.05212500e-08,1.83298437e-01
-4.04812500e-08,1.83303125e-01
-4.04412500e-08,1.83296875e-01
-4.04012500e-08,1.83303125e-01
-4.03612500e-08,1.83295313e-01
-4.03212500e-08,1.83304688e-01
-4.02812500e-08,1.83295313e-01
-4.02412500e-08,1.83304688e-01
-4.02012500e-08,1.83295313e-01
-4.01612500e-08,1.83304688e-01
-4.01212500e-08,1.83295313e-01
-4.00812500e-08,1.83304688e-01
-4.00412500e-08,1.83295313e-01
-4.00012500e-08,1.83306250e-01
-3.99612500e-08,1.83293750e-01
-3.99212500e-08,1.83306250e-01
-3.98812500e-08,1.83293750e-01
-3.98412500e-08,1.83306250e-01
-3.98012500e-08,1.83293750e-01
-3.97612500e-08,1.83306250e-01
-3.97212500e-08,1.83293750e-01
-3.96812500e-08,1.83306250e-01
-3.96412500e-08,1.83293750e-01
-3.96012500e-08,1.83306250e-01
-3.95612500e-08,1.83293750e-01
-3.95212500e-08,1.83306250e-01
-3.94812500e-08,1.83293750e-01
-3.94412500e-08,1.83307813e-01
-3.94012500e-08,1.83292188e-01
-3.93612500e-08,1.83307813e-01
-3.93212500e-08,1.83292188e-01
-3.92812500e-08,1.83307813e-01
-3.92412500e-08,1.83292188e-01
-3.92012500e-08,1.83307813e-01
-3.91612500e-08,1.83292188e-01
-3.91212500e-08,1.83307813e-01
-3.90812500e-08,1.83290625e-01
-3.90412500e-08,1.83309375e-01
-3.90012500e-08,1.83290625e-01
-3.89612500e-08,1.83309375e-01
-3.89212500e-08,1.83289063e-01
-3.88812500e-08,1.83310937e-01
-3.88412500e-08,1.83287500e-01
-3.88012500e-08,1.83312500e-01
-3.87612500e-08,1.83285937e-01
-3.87212500e-08,1.83315625e-01
-3.86812500e-08,1.83282813e-01
-3.86412500e-08,1.83320312e-01
-3.86012500e-08,1.83275000e-01
-3.85612500e-08,1.83335938e-01
-3.85212500e-08,1.83239062e-01
