trails/0ad503bf4c7e473689fcee6623a13564/aes_ch1_20250507105556831.csv

Model,MSO66B
Label,
Waveform Type,ANALOG
Horizontal Units,s
Sample Interval,4.00000000e-11
Record Length,10000
Zero Index,1599.12109375
Vertical Units,A
ANALOG_Thumbnail,
yOffset,1.84500000e-01
yPosition,8.40000000e-01

Labels,
TIME,CH1
-6.39648437e-08,1.86445313e-01
-6.39248438e-08,1.86709375e-01
-6.38848437e-08,1.86953125e-01
-6.38448438e-08,1.86870312e-01
-6.38048437e-08,1.86920313e-01
-6.37648437e-08,1.86884375e-01
-6.37248437e-08,1.86912500e-01
-6.36848437e-08,1.86890625e-01
-6.36448438e-08,1.86907812e-01
-6.36048437e-08,1.86893750e-01
-6.35648438e-08,1.86906250e-01
-6.35248437e-08,1.86895313e-01
-6.34848437e-08,1.86904687e-01
-6.34448437e-08,1.86895313e-01
-6.34048437e-08,1.86903125e-01
-6.33648438e-08,1.86896875e-01
-6.33248437e-08,1.86903125e-01
-6.32848437e-08,1.86898438e-01
-6.32448437e-08,1.86901563e-01
-6.32048437e-08,1.86898438e-01
-6.31648437e-08,1.86901563e-01
-6.31248437e-08,1.86898438e-01
-6.30848438e-08,1.86900000e-01
-6.30448437e-08,1.86900000e-01
-6.30048437e-08,1.86900000e-01
-6.29648437e-08,1.86900000e-01
-6.29248437e-08,1.86898438e-01
-6.28848437e-08,1.86901563e-01
-6.28448437e-08,1.86898438e-01
-6.28048438e-08,1.86903125e-01
-6.27648437e-08,1.86896875e-01
-6.27248437e-08,1.86904687e-01
-6.26848437e-08,1.86895313e-01
-6.26448437e-08,1.86906250e-01
-6.26048437e-08,1.86892188e-01
-6.25648437e-08,1.86909375e-01
-6.25248438e-08,1.86887500e-01
-6.24848437e-08,1.86918750e-01
-6.24448437e-08,1.86871875e-01
-6.24048437e-08,1.86953125e-01
-6.23648437e-08,1.86693750e-01
-6.23248437e-08,1.86443750e-01
-6.22848437e-08,1.86532813e-01
-6.22448438e-08,1.86476562e-01
-6.22048437e-08,1.86517188e-01
-6.21648437e-08,1.86485938e-01
-6.21248437e-08,1.86512500e-01
-6.20848437e-08,1.86489062e-01
-6.20448437e-08,1.86509375e-01
-6.20048437e-08,1.86490625e-01
-6.19648438e-08,1.86507813e-01
-6.19248437e-08,1.86492188e-01
-6.18848437e-08,1.86507813e-01
-6.18448437e-08,1.86493750e-01
-6.18048437e-08,1.86506250e-01
-6.17648437e-08,1.86493750e-01
-6.17248437e-08,1.86506250e-01
-6.16848438e-08,1.86495313e-01
-6.16448437e-08,1.86504688e-01
-6.16048437e-08,1.86495313e-01
-6.15648437e-08,1.86504688e-01
-6.15248437e-08,1.86495313e-01
-6.14848437e-08,1.86503125e-01
-6.14448437e-08,1.86496875e-01
-6.14048438e-08,1.86503125e-01
-6.13648437e-08,1.86496875e-01
-6.13248437e-08,1.86503125e-01
-6.12848437e-08,1.86498438e-01
-6.12448437e-08,1.86501562e-01
-6.12048438e-08,1.86498438e-01
-6.11648437e-08,1.86500000e-01
-6.11248438e-08,1.86500000e-01
-6.10848437e-08,1.86498438e-01
-6.10448437e-08,1.86503125e-01
-6.10048437e-08,1.86495313e-01
-6.09648437e-08,1.86507813e-01
-6.09248438e-08,1.86487500e-01
-6.08848437e-08,1.86521875e-01
-6.08448438e-08,1.86453125e-01
-6.08048437e-08,1.86700000e-01
-6.07648437e-08,1.86962500e-01
-6.07248437e-08,1.86860938e-01
-6.06848437e-08,1.86931250e-01
-6.06448438e-08,1.86873438e-01
-6.06048437e-08,1.86923438e-01
-6.05648438e-08,1.86878125e-01
-6.05248437e-08,1.86921875e-01
-6.04848437e-08,1.86878125e-01
-6.04448437e-08,1.86921875e-01
-6.04048437e-08,1.86878125e-01
-6.03648438e-08,1.86923438e-01
-6.03248437e-08,1.86873438e-01
-6.02848438e-08,1.86931250e-01
-6.02448437e-08,1.86859375e-01
-6.02048437e-08,1.86965625e-01
-6.01648437e-08,1.86681250e-01
-6.01248437e-08,1.86457813e-01
-6.00848438e-08,1.86518750e-01
-6.00448437e-08,1.86490625e-01
-6.00048438e-08,1.86503125e-01
-5.99648437e-08,1.86500000e-01
-5.99248437e-08,1.86495313e-01
-5.98848437e-08,1.86507813e-01
-5.98448437e-08,1.86489062e-01
-5.98048438e-08,1.86517188e-01
-5.97648437e-08,1.86473438e-01
-5.97248438e-08,1.86551563e-01
-5.96848437e-08,1.86295313e-01
-5.96448437e-08,1.86042188e-01
-5.96048437e-08,1.86134375e-01
-5.95648437e-08,1.86073437e-01
-5.95248437e-08,1.86123438e-01
-5.94848437e-08,1.86078125e-01
-5.94448437e-08,1.86125000e-01
-5.94048437e-08,1.86067188e-01
-5.93648437e-08,1.86154687e-01
-5.93248437e-08,1.85893750e-01
-5.92848437e-08,1.85642187e-01
-5.92448437e-08,1.85735938e-01
-5.92048437e-08,1.85671875e-01
-5.91648437e-08,1.85725000e-01
-5.91248437e-08,1.85673438e-01
-5.90848437e-08,1.85729688e-01
-5.90448437e-08,1.85660938e-01
-5.90048437e-08,1.85762500e-01
-5.89648437e-08,1.85484375e-01
-5.89248437e-08,1.85253125e-01
-5.88848437e-08,1.85323438e-01
-5.88448437e-08,1.85285937e-01
-5.88048437e-08,1.85309375e-01
-5.87648437e-08,1.85293750e-01
-5.87248437e-08,1.85303125e-01
-5.86848437e-08,1.85298437e-01
-5.86448437e-08,1.85300000e-01
-5.86048437e-08,1.85303125e-01
-5.85648437e-08,1.85295313e-01
-5.85248437e-08,1.85307813e-01
-5.84848437e-08,1.85289063e-01
-5.84448437e-08,1.85315625e-01
-5.84048437e-08,1.85273437e-01
-5.83648437e-08,1.85351563e-01
-5.83248437e-08,1.85095312e-01
-5.82848437e-08,1.84842188e-01
-5.82448437e-08,1.84934375e-01
-5.82048437e-08,1.84875000e-01
-5.81648437e-08,1.84918750e-01
-5.81248437e-08,1.84882812e-01
-5.80848437e-08,1.84914063e-01
-5.80448437e-08,1.84887500e-01
-5.80048437e-08,1.84912500e-01
-5.79648437e-08,1.84889063e-01
-5.79248437e-08,1.84910938e-01
-5.78848437e-08,1.84890625e-01
-5.78448437e-08,1.84909375e-01
-5.78048437e-08,1.84890625e-01
-5.77648437e-08,1.84909375e-01
-5.77248437e-08,1.84890625e-01
-5.76848437e-08,1.84909375e-01
-5.76448437e-08,1.84890625e-01
-5.76048437e-08,1.84909375e-01
-5.75648437e-08,1.84890625e-01
-5.75248437e-08,1.84909375e-01
-5.74848437e-08,1.84890625e-01
-5.74448437e-08,1.84910938e-01
-5.74048437e-08,1.84889063e-01
-5.73648437e-08,1.84912500e-01
-5.73248437e-08,1.84885938e-01
-5.72848437e-08,1.84917187e-01
-5.72448437e-08,1.84878125e-01
-5.72048437e-08,1.84931250e-01
-5.71648437e-08,1.84843750e-01
-5.71248437e-08,1.85109375e-01
-5.70848437e-08,1.85353125e-01
-5.70448437e-08,1.85270313e-01
-5.70048437e-08,1.85321875e-01
-5.69648437e-08,1.85282813e-01
-5.69248437e-08,1.85315625e-01
-5.68848437e-08,1.85284375e-01
-5.68448437e-08,1.85315625e-01
-5.68048437e-08,1.85279688e-01
-5.67648437e-08,1.85328125e-01
-5.67248437e-08,1.85250000e-01
-5.66848437e-08,1.85501562e-01
-5.66448437e-08,1.85762500e-01
-5.66048437e-08,1.85659375e-01
-5.65648437e-08,1.85735938e-01
-5.65248437e-08,1.85664063e-01
-5.64848437e-08,1.85743750e-01
-5.64448437e-08,1.85631250e-01
-5.64048437e-08,1.85920313e-01
-5.63648437e-08,1.86140625e-01
-5.63248437e-08,1.86085938e-01
-5.62848437e-08,1.86101563e-01
-5.62448437e-08,1.86112500e-01
-5.62048437e-08,1.86060937e-01
-5.61648437e-08,1.86292188e-01
-5.61248437e-08,1.86568750e-01
-5.60848437e-08,1.86453125e-01
-5.60448437e-08,1.86539063e-01
-5.60048437e-08,1.86460938e-01
-5.59648437e-08,1.86543750e-01
-5.59248437e-08,1.86434375e-01
-5.58848437e-08,1.86717187e-01
-5.58448437e-08,1.86948438e-01
-5.58048437e-08,1.86873438e-01
-5.57648437e-08,1.86920313e-01
-5.57248437e-08,1.86878125e-01
-5.56848437e-08,1.86928125e-01
-5.56448437e-08,1.86850000e-01
-5.56048437e-08,1.87101563e-01
-5.55648437e-08,1.87362500e-01
-5.55248437e-08,1.87259375e-01
-5.54848437e-08,1.87332813e-01
-5.54448437e-08,1.87270313e-01
-5.54048437e-08,1.87331250e-01
-5.53648437e-08,1.87265625e-01
-5.53248437e-08,1.87342188e-01
-5.52848437e-08,1.87232813e-01
-5.52448437e-08,1.87518750e-01
-5.52048437e-08,1.87743750e-01
-5.51648437e-08,1.87681250e-01
-5.51248437e-08,1.87709375e-01
-5.50848437e-08,1.87695313e-01
-5.50448437e-08,1.87701563e-01
-5.50048437e-08,1.87701563e-01
-5.49648437e-08,1.87696875e-01
-5.49248437e-08,1.87706250e-01
-5.48848437e-08,1.87690625e-01
-5.48448437e-08,1.87712500e-01
-5.48048437e-08,1.87681250e-01
-5.47648437e-08,1.87728125e-01
-5.47248437e-08,1.87646875e-01
-5.46848437e-08,1.87906250e-01
-5.46448437e-08,1.88154688e-01
-5.46048437e-08,1.88068750e-01
-5.45648437e-08,1.88121875e-01
-5.45248437e-08,1.88082813e-01
-5.44848437e-08,1.88114063e-01
-5.44448437e-08,1.88089063e-01
-5.44048437e-08,1.88109375e-01
-5.43648437e-08,1.88092188e-01
-5.43248437e-08,1.88107812e-01
-5.42848437e-08,1.88093750e-01
-5.42448437e-08,1.88106250e-01
-5.42048437e-08,1.88095313e-01
-5.41648437e-08,1.88104688e-01
-5.41248437e-08,1.88095313e-01
-5.40848437e-08,1.88104688e-01
-5.40448437e-08,1.88096875e-01
-5.40048437e-08,1.88103125e-01
-5.39648437e-08,1.88096875e-01
-5.39248437e-08,1.88101563e-01
-5.38848437e-08,1.88098437e-01
-5.38448437e-08,1.88101563e-01
-5.38048438e-08,1.88100000e-01
-5.37648437e-08,1.88100000e-01
-5.37248437e-08,1.88101563e-01
-5.36848437e-08,1.88096875e-01
-5.36448437e-08,1.88104688e-01
-5.36048437e-08,1.88092188e-01
-5.35648437e-08,1.88112500e-01
-5.35248437e-08,1.88078125e-01
-5.34848437e-08,1.88146875e-01
-5.34448437e-08,1.87900000e-01
-5.34048437e-08,1.87637500e-01
-5.33648437e-08,1.87739062e-01
-5.33248437e-08,1.87668750e-01
-5.32848437e-08,1.87726562e-01
-5.32448437e-08,1.87675000e-01
-5.32048437e-08,1.87723438e-01
-5.31648437e-08,1.87676563e-01
-5.31248437e-08,1.87725000e-01
-5.30848437e-08,1.87671875e-01
-5.30448437e-08,1.87731250e-01
-5.30048437e-08,1.87659375e-01
-5.29648437e-08,1.87765625e-01
-5.29248437e-08,1.87481250e-01
-5.28848437e-08,1.87256250e-01
-5.28448437e-08,1.87320313e-01
-5.28048437e-08,1.87290625e-01
-5.27648437e-08,1.87304688e-01
-5.27248437e-08,1.87298437e-01
-5.26848437e-08,1.87298437e-01
-5.26448437e-08,1.87303125e-01
-5.26048437e-08,1.87293750e-01
-5.25648437e-08,1.87309375e-01
-5.25248437e-08,1.87287500e-01
-5.24848437e-08,1.87318750e-01
-5.24448437e-08,1.87271875e-01
-5.24048437e-08,1.87353125e-01
-5.23648437e-08,1.87093750e-01
-5.23248437e-08,1.86843750e-01
-5.22848437e-08,1.86931250e-01
-5.22448437e-08,1.86878125e-01
-5.22048437e-08,1.86917187e-01
-5.21648437e-08,1.86885938e-01
-5.21248437e-08,1.86910938e-01
-5.20848437e-08,1.86890625e-01
-5.20448437e-08,1.86909375e-01
-5.20048437e-08,1.86892188e-01
-5.19648437e-08,1.86907812e-01
-5.19248437e-08,1.86893750e-01
-5.18848438e-08,1.86906250e-01
-5.18448437e-08,1.86893750e-01
-5.18048437e-08,1.86906250e-01
-5.17648437e-08,1.86895313e-01
-5.17248437e-08,1.86904687e-01
-5.16848437e-08,1.86895313e-01
-5.16448437e-08,1.86904687e-01
-5.16048438e-08,1.86895313e-01
-5.15648437e-08,1.86904687e-01
-5.15248437e-08,1.86895313e-01
-5.14848437e-08,1.86904687e-01
-5.14448437e-08,1.86895313e-01
-5.14048437e-08,1.86904687e-01
-5.13648437e-08,1.86896875e-01
-5.13248437e-08,1.86903125e-01
-5.12848437e-08,1.86896875e-01
-5.12448437e-08,1.86903125e-01
-5.12048437e-08,1.86896875e-01
-5.11648437e-08,1.86903125e-01
-5.11248437e-08,1.86896875e-01
-5.10848437e-08,1.86903125e-01
-5.10448437e-08,1.86895313e-01
-5.10048437e-08,1.86904687e-01
-5.09648437e-08,1.86895313e-01
-5.09248437e-08,1.86904687e-01
-5.08848437e-08,1.86895313e-01
-5.08448437e-08,1.86904687e-01
-5.08048437e-08,1.86895313e-01
-5.07648437e-08,1.86904687e-01
-5.07248437e-08,1.86895313e-01
-5.06848437e-08,1.86906250e-01
-5.06448437e-08,1.86893750e-01
-5.06048437e-08,1.86906250e-01
-5.05648437e-08,1.86892188e-01
-5.05248437e-08,1.86909375e-01
-5.04848437e-08,1.86890625e-01
-5.04448437e-08,1.86912500e-01
-5.04048437e-08,1.86884375e-01
-5.03648437e-08,1.86920313e-01
-5.03248437e-08,1.86870312e-01
-5.02848437e-08,1.86954687e-01
-5.02448437e-08,1.86692187e-01
-5.02048437e-08,1.86445313e-01
-5.01648437e-08,1.86531250e-01
-5.01248437e-08,1.86478125e-01
-5.00848437e-08,1.86517188e-01
-5.00448437e-08,1.86485938e-01
-5.00048437e-08,1.86512500e-01
-4.99648438e-08,1.86487500e-01
-4.99248437e-08,1.86510938e-01
-4.98848437e-08,1.86489062e-01
-4.98448437e-08,1.86510938e-01
-4.98048437e-08,1.86489062e-01
-4.97648437e-08,1.86510938e-01
-4.97248437e-08,1.86489062e-01
-4.96848438e-08,1.86512500e-01
-4.96448437e-08,1.86485938e-01
-4.96048437e-08,1.86517188e-01
-4.95648437e-08,1.86478125e-01
-4.95248437e-08,1.86531250e-01
-4.94848437e-08,1.86443750e-01
-4.94448437e-08,1.86709375e-01
-4.94048437e-08,1.86954687e-01
-4.93648437e-08,1.86870312e-01
-4.93248437e-08,1.86921875e-01
-4.92848437e-08,1.86882812e-01
-4.92448437e-08,1.86914063e-01
-4.92048437e-08,1.86887500e-01
-4.91648437e-08,1.86910938e-01
-4.91248437e-08,1.86889063e-01
-4.90848437e-08,1.86909375e-01
-4.90448437e-08,1.86890625e-01
-4.90048437e-08,1.86909375e-01
-4.89648437e-08,1.86890625e-01
-4.89248437e-08,1.86910938e-01
-4.88848437e-08,1.86889063e-01
-4.88448437e-08,1.86912500e-01
-4.88048437e-08,1.86885938e-01
-4.87648437e-08,1.86917187e-01
-4.87248437e-08,1.86878125e-01
-4.86848437e-08,1.86931250e-01
-4.86448437e-08,1.86843750e-01
-4.86048437e-08,1.87109375e-01
-4.85648437e-08,1.87353125e-01
-4.85248437e-08,1.87270313e-01
-4.84848437e-08,1.87320313e-01
-4.84448437e-08,1.87284375e-01
-4.84048437e-08,1.87312500e-01
-4.83648437e-08,1.87289063e-01
-4.83248437e-08,1.87309375e-01
-4.82848437e-08,1.87292188e-01
-4.82448437e-08,1.87307813e-01
-4.82048437e-08,1.87293750e-01
-4.81648437e-08,1.87306250e-01
-4.81248437e-08,1.87293750e-01
-4.80848437e-08,1.87304688e-01
-4.80448438e-08,1.87295313e-01
-4.80048437e-08,1.87304688e-01
-4.79648437e-08,1.87295313e-01
-4.79248437e-08,1.87304688e-01
-4.78848437e-08,1.87295313e-01
-4.78448437e-08,1.87304688e-01
-4.78048437e-08,1.87295313e-01
-4.77648438e-08,1.87304688e-01
-4.77248437e-08,1.87295313e-01
-4.76848437e-08,1.87304688e-01
-4.76448437e-08,1.87295313e-01
-4.76048437e-08,1.87304688e-01
-4.75648437e-08,1.87295313e-01
-4.75248437e-08,1.87304688e-01
-4.74848438e-08,1.87295313e-01
-4.74448437e-08,1.87304688e-01
-4.74048437e-08,1.87295313e-01
-4.73648437e-08,1.87304688e-01
-4.73248437e-08,1.87295313e-01
-4.72848437e-08,1.87304688e-01
-4.72448437e-08,1.87295313e-01
-4.72048437e-08,1.87304688e-01
-4.71648437e-08,1.87295313e-01
-4.71248437e-08,1.87304688e-01
-4.70848437e-08,1.87295313e-01
-4.70448437e-08,1.87306250e-01
-4.70048437e-08,1.87293750e-01
-4.69648437e-08,1.87306250e-01
-4.69248437e-08,1.87293750e-01
-4.68848437e-08,1.87307813e-01
-4.68448437e-08,1.87292188e-01
-4.68048437e-08,1.87309375e-01
-4.67648437e-08,1.87290625e-01
-4.67248437e-08,1.87310937e-01
-4.66848437e-08,1.87287500e-01
-4.66448437e-08,1.87314063e-01
-4.66048437e-08,1.87282813e-01
-4.65648437e-08,1.87323437e-01
-4.65248437e-08,1.87267188e-01
-4.64848437e-08,1.87357812e-01
-4.64448437e-08,1.87089063e-01
-4.64048437e-08,1.86848438e-01
-4.63648437e-08,1.86928125e-01
-4.63248437e-08,1.86882812e-01
-4.62848437e-08,1.86912500e-01
-4.62448437e-08,1.86890625e-01
-4.62048437e-08,1.86907812e-01
-4.61648437e-08,1.86895313e-01
-4.61248438e-08,1.86903125e-01
-4.60848437e-08,1.86896875e-01
-4.60448437e-08,1.86901563e-01
-4.60048437e-08,1.86900000e-01
-4.59648437e-08,1.86898438e-01
-4.59248437e-08,1.86903125e-01
-4.58848437e-08,1.86895313e-01
-4.58448438e-08,1.86906250e-01
-4.58048437e-08,1.86889063e-01
-4.57648437e-08,1.86915625e-01
-4.57248437e-08,1.86875000e-01
-4.56848437e-08,1.86950000e-01
-4.56448437e-08,1.86696875e-01
-4.56048437e-08,1.86442187e-01
-4.55648438e-08,1.86534375e-01
-4.55248437e-08,1.86475000e-01
-4.54848437e-08,1.86520313e-01
-4.54448437e-08,1.86482813e-01
-4.54048437e-08,1.86514062e-01
-4.53648437e-08,1.86487500e-01
-4.53248437e-08,1.86512500e-01
-4.52848438e-08,1.86489062e-01
-4.52448437e-08,1.86510938e-01
-4.52048437e-08,1.86490625e-01
-4.51648437e-08,1.86509375e-01
-4.51248437e-08,1.86490625e-01
-4.50848437e-08,1.86509375e-01
-4.50448437e-08,1.86492188e-01
-4.50048437e-08,1.86507813e-01
-4.49648437e-08,1.86492188e-01
-4.49248437e-08,1.86507813e-01
-4.48848437e-08,1.86492188e-01
-4.48448437e-08,1.86507813e-01
-4.48048437e-08,1.86492188e-01
-4.47648437e-08,1.86507813e-01
-4.47248437e-08,1.86493750e-01
-4.46848437e-08,1.86506250e-01
-4.46448437e-08,1.86493750e-01
-4.46048437e-08,1.86506250e-01
-4.45648437e-08,1.86493750e-01
-4.45248437e-08,1.86506250e-01
-4.44848437e-08,1.86493750e-01
-4.44448437e-08,1.86506250e-01
-4.44048437e-08,1.86493750e-01
-4.43648437e-08,1.86506250e-01
-4.43248437e-08,1.86493750e-01
-4.42848437e-08,1.86506250e-01
-4.42448437e-08,1.86493750e-01
-4.42048438e-08,1.86507813e-01
-4.41648437e-08,1.86492188e-01
-4.41248437e-08,1.86507813e-01
-4.40848437e-08,1.86492188e-01
-4.40448437e-08,1.86507813e-01
-4.40048437e-08,1.86492188e-01
-4.39648437e-08,1.86507813e-01
-4.39248438e-08,1.86492188e-01
-4.38848437e-08,1.86507813e-01
-4.38448437e-08,1.86490625e-01
-4.38048437e-08,1.86509375e-01
-4.37648437e-08,1.86490625e-01
-4.37248437e-08,1.86510938e-01
-4.36848437e-08,1.86489062e-01
-4.36448438e-08,1.86510938e-01
-4.36048437e-08,1.86487500e-01
-4.35648437e-08,1.86514062e-01
-4.35248437e-08,1.86484375e-01
-4.34848437e-08,1.86517188e-01
-4.34448437e-08,1.86479688e-01
-4.34048437e-08,1.86526562e-01
-4.33648438e-08,1.86464062e-01
-4.33248437e-08,1.86560937e-01
-4.32848437e-08,1.86285937e-01
-4.32448437e-08,1.86053125e-01
-4.32048437e-08,1.86123438e-01
-4.31648437e-08,1.86087500e-01
-4.31248437e-08,1.86107812e-01
-4.30848438e-08,1.86096875e-01
-4.30448437e-08,1.86100000e-01
-4.30048437e-08,1.86103125e-01
-4.29648437e-08,1.86092188e-01
-4.29248437e-08,1.86112500e-01
-4.28848437e-08,1.86076563e-01
-4.28448437e-08,1.86148438e-01
-4.28048437e-08,1.85898438e-01
-4.27648437e-08,1.85639063e-01
-4.27248437e-08,1.85737500e-01
-4.26848437e-08,1.85671875e-01
-4.26448437e-08,1.85723438e-01
-4.26048437e-08,1.85679687e-01
-4.25648437e-08,1.85718750e-01
-4.25248437e-08,1.85681250e-01
-4.24848437e-08,1.85720313e-01
-4.24448437e-08,1.85678125e-01
-4.24048437e-08,1.85726562e-01
-4.23648437e-08,1.85665625e-01
-4.23248437e-08,1.85759375e-01
-4.22848438e-08,1.85487500e-01
-4.22448437e-08,1.85248438e-01
-4.22048437e-08,1.85328125e-01
-4.21648437e-08,1.85281250e-01
-4.21248437e-08,1.85314063e-01
-4.20848437e-08,1.85287500e-01
-4.20448437e-08,1.85310937e-01
-4.20048438e-08,1.85290625e-01
-4.19648437e-08,1.85307813e-01
-4.19248437e-08,1.85292188e-01
-4.18848437e-08,1.85307813e-01
-4.18448437e-08,1.85292188e-01
-4.18048437e-08,1.85307813e-01
-4.17648437e-08,1.85290625e-01
-4.17248438e-08,1.85309375e-01
-4.16848437e-08,1.85289063e-01
-4.16448437e-08,1.85310937e-01
-4.16048437e-08,1.85285937e-01
-4.15648437e-08,1.85315625e-01
-4.15248437e-08,1.85278125e-01
-4.14848437e-08,1.85331250e-01
-4.14448438e-08,1.85243750e-01
-4.14048437e-08,1.85509375e-01
-4.13648437e-08,1.85753125e-01
-4.13248437e-08,1.85670313e-01
-4.12848437e-08,1.85720313e-01
-4.12448437e-08,1.85684375e-01
-4.12048437e-08,1.85712500e-01
-4.11648438e-08,1.85689063e-01
-4.11248437e-08,1.85709375e-01
-4.10848437e-08,1.85692187e-01
-4.10448437e-08,1.85707813e-01
-4.10048437e-08,1.85692187e-01
-4.09648437e-08,1.85706250e-01
-4.09248437e-08,1.85693750e-01
-4.08848438e-08,1.85706250e-01
-4.08448437e-08,1.85693750e-01
-4.08048437e-08,1.85706250e-01
-4.07648437e-08,1.85693750e-01
-4.07248437e-08,1.85706250e-01
-4.06848437e-08,1.85693750e-01
-4.06448437e-08,1.85706250e-01
-4.06048437e-08,1.85693750e-01
-4.05648437e-08,1.85706250e-01
-4.05248437e-08,1.85693750e-01
-4.04848437e-08,1.85706250e-01
-4.04448437e-08,1.85693750e-01
-4.04048437e-08,1.85706250e-01
-4.03648438e-08,1.85692187e-01
-4.03248437e-08,1.85707813e-01
-4.02848437e-08,1.85690625e-01
-4.02448437e-08,1.85709375e-01
-4.02048437e-08,1.85689063e-01
-4.01648437e-08,1.85712500e-01
-4.01248437e-08,1.85685938e-01
-4.00848438e-08,1.85717188e-01
-4.00448437e-08,1.85676563e-01
-4.00048437e-08,1.85732813e-01
-3.99648437e-08,1.85642187e-01
-3.99248437e-08,1.85910938e-01
-3.98848437e-08,1.86151563e-01
-3.98448437e-08,1.86073437e-01
-3.98048438e-08,1.86117188e-01
-3.97648437e-08,1.86089063e-01
-3.97248437e-08,1.86107812e-01
-3.96848437e-08,1.86095312e-01
-3.96448437e-08,1.86101563e-01
-3.96048437e-08,1.86100000e-01
-3.95648437e-08,1.86096875e-01
-3.95248438e-08,1.86107812e-01
-3.94848437e-08,1.86087500e-01
-3.94448437e-08,1.86123438e-01
-3.94048437e-08,1.86051563e-01
-3.93648437e-08,1.86303125e-01
-3.93248437e-08,1.86557813e-01
-3.92848437e-08,1.86467188e-01
-3.92448438e-08,1.86521875e-01
-3.92048437e-08,1.86484375e-01
-3.91648437e-08,1.86507813e-01
-3.91248437e-08,1.86503125e-01
-3.90848437e-08,1.86471875e-01
-3.90448437e-08,1.86681250e-01
-3.90048437e-08,1.86981250e-01
-3.89648438e-08,1.86840625e-01
-3.89248437e-08,1.86953125e-01
-3.88848437e-08,1.86846875e-01
-3.88448437e-08,1.86959375e-01
-3.88048437e-08,1.86817188e-01
-3.87648437e-08,1.87135938e-01
-3.87248437e-08,1.87326563e-01
-3.86848438e-08,1.87296875e-01
-3.86448437e-08,1.87292188e-01
-3.86048437e-08,1.87315625e-01
-3.85648437e-08,1.87276563e-01
-3.85248437e-08,1.87334375e-01
