trails/0ad503bf4c7e473689fcee6623a13564/aes_ch1_20250507104603594.csv

Model,MSO66B
Label,
Waveform Type,ANALOG
Horizontal Units,s
Sample Interval,4.00000000e-11
Record Length,10000
Zero Index,1599.12109375
Vertical Units,A
ANALOG_Thumbnail,
yOffset,1.84500000e-01
yPosition,8.40000000e-01

Labels,
TIME,CH1
-6.39648437e-08,1.90515625e-01
-6.39248438e-08,1.90485938e-01
-6.38848437e-08,1.90514062e-01
-6.38448438e-08,1.90487500e-01
-6.38048437e-08,1.90512500e-01
-6.37648437e-08,1.90487500e-01
-6.37248437e-08,1.90514062e-01
-6.36848437e-08,1.90485938e-01
-6.36448438e-08,1.90515625e-01
-6.36048437e-08,1.90482813e-01
-6.35648438e-08,1.90520313e-01
-6.35248437e-08,1.90475000e-01
-6.34848437e-08,1.90534375e-01
-6.34448437e-08,1.90442187e-01
-6.34048437e-08,1.90710938e-01
-6.33648438e-08,1.90951563e-01
-6.33248437e-08,1.90873438e-01
-6.32848437e-08,1.90918750e-01
-6.32448437e-08,1.90887500e-01
-6.32048437e-08,1.90910938e-01
-6.31648437e-08,1.90892188e-01
-6.31248437e-08,1.90906250e-01
-6.30848438e-08,1.90893750e-01
-6.30448437e-08,1.90904688e-01
-6.30048437e-08,1.90895312e-01
-6.29648437e-08,1.90903125e-01
-6.29248437e-08,1.90896875e-01
-6.28848437e-08,1.90903125e-01
-6.28448437e-08,1.90896875e-01
-6.28048438e-08,1.90901563e-01
-6.27648437e-08,1.90898438e-01
-6.27248437e-08,1.90901563e-01
-6.26848437e-08,1.90900000e-01
-6.26448437e-08,1.90900000e-01
-6.26048437e-08,1.90900000e-01
-6.25648437e-08,1.90898438e-01
-6.25248438e-08,1.90901563e-01
-6.24848437e-08,1.90896875e-01
-6.24448437e-08,1.90904688e-01
-6.24048437e-08,1.90892188e-01
-6.23648437e-08,1.90912500e-01
-6.23248437e-08,1.90878125e-01
-6.22848437e-08,1.90946875e-01
-6.22448438e-08,1.90700000e-01
-6.22048437e-08,1.90437500e-01
-6.21648437e-08,1.90539062e-01
-6.21248437e-08,1.90468750e-01
-6.20848437e-08,1.90526562e-01
-6.20448437e-08,1.90475000e-01
-6.20048437e-08,1.90523438e-01
-6.19648438e-08,1.90475000e-01
-6.19248437e-08,1.90525000e-01
-6.18848437e-08,1.90471875e-01
-6.18448437e-08,1.90532813e-01
-6.18048437e-08,1.90457813e-01
-6.17648437e-08,1.90567188e-01
-6.17248437e-08,1.90279688e-01
-6.16848438e-08,1.90057813e-01
-6.16448437e-08,1.90118750e-01
-6.16048437e-08,1.90092188e-01
-6.15648437e-08,1.90103125e-01
-6.15248437e-08,1.90101563e-01
-6.14848437e-08,1.90095313e-01
-6.14448437e-08,1.90107813e-01
-6.14048438e-08,1.90087500e-01
-6.13648437e-08,1.90118750e-01
-6.13248437e-08,1.90071875e-01
-6.12848437e-08,1.90154688e-01
-6.12448437e-08,1.89892188e-01
-6.12048438e-08,1.89645312e-01
-6.11648437e-08,1.89729688e-01
-6.11248438e-08,1.89679687e-01
-6.10848437e-08,1.89715625e-01
-6.10448437e-08,1.89687500e-01
-6.10048437e-08,1.89709375e-01
-6.09648437e-08,1.89692187e-01
-6.09248438e-08,1.89706250e-01
-6.08848437e-08,1.89695313e-01
-6.08448438e-08,1.89703125e-01
-6.08048437e-08,1.89696875e-01
-6.07648437e-08,1.89701563e-01
-6.07248437e-08,1.89698438e-01
-6.06848437e-08,1.89700000e-01
-6.06448438e-08,1.89701563e-01
-6.06048437e-08,1.89696875e-01
-6.05648438e-08,1.89704687e-01
-6.05248437e-08,1.89693750e-01
-6.04848437e-08,1.89709375e-01
-6.04448437e-08,1.89685938e-01
-6.04048437e-08,1.89723438e-01
-6.03648438e-08,1.89651563e-01
-6.03248437e-08,1.89901563e-01
-6.02848438e-08,1.90160938e-01
-6.02448437e-08,1.90062500e-01
-6.02048437e-08,1.90128125e-01
-6.01648437e-08,1.90075000e-01
-6.01248437e-08,1.90123438e-01
-6.00848438e-08,1.90078125e-01
-6.00448437e-08,1.90123438e-01
-6.00048438e-08,1.90073437e-01
-5.99648437e-08,1.90135938e-01
-5.99248437e-08,1.90040625e-01
-5.98848437e-08,1.90310937e-01
-5.98448437e-08,1.90551562e-01
-5.98048438e-08,1.90470313e-01
-5.97648437e-08,1.90521875e-01
-5.97248438e-08,1.90482813e-01
-5.96848437e-08,1.90515625e-01
-5.96448437e-08,1.90482813e-01
-5.96048437e-08,1.90518750e-01
-5.95648437e-08,1.90476563e-01
-5.95248437e-08,1.90531250e-01
-5.94848437e-08,1.90443750e-01
-5.94448437e-08,1.90709375e-01
-5.94048437e-08,1.90953125e-01
-5.93648437e-08,1.90870313e-01
-5.93248437e-08,1.90920312e-01
-5.92848437e-08,1.90884375e-01
-5.92448437e-08,1.90914063e-01
-5.92048437e-08,1.90889063e-01
-5.91648437e-08,1.90909375e-01
-5.91248437e-08,1.90890625e-01
-5.90848437e-08,1.90907812e-01
-5.90448437e-08,1.90892188e-01
-5.90048437e-08,1.90907812e-01
-5.89648437e-08,1.90893750e-01
-5.89248437e-08,1.90906250e-01
-5.88848437e-08,1.90893750e-01
-5.88448437e-08,1.90906250e-01
-5.88048437e-08,1.90893750e-01
-5.87648437e-08,1.90904688e-01
-5.87248437e-08,1.90895312e-01
-5.86848437e-08,1.90904688e-01
-5.86448437e-08,1.90895312e-01
-5.86048437e-08,1.90904688e-01
-5.85648437e-08,1.90895312e-01
-5.85248437e-08,1.90904688e-01
-5.84848437e-08,1.90895312e-01
-5.84448437e-08,1.90904688e-01
-5.84048437e-08,1.90895312e-01
-5.83648437e-08,1.90904688e-01
-5.83248437e-08,1.90895312e-01
-5.82848437e-08,1.90904688e-01
-5.82448437e-08,1.90895312e-01
-5.82048437e-08,1.90904688e-01
-5.81648437e-08,1.90895312e-01
-5.81248437e-08,1.90904688e-01
-5.80848437e-08,1.90896875e-01
-5.80448437e-08,1.90903125e-01
-5.80048437e-08,1.90896875e-01
-5.79648437e-08,1.90903125e-01
-5.79248437e-08,1.90896875e-01
-5.78848437e-08,1.90903125e-01
-5.78448437e-08,1.90896875e-01
-5.78048437e-08,1.90903125e-01
-5.77648437e-08,1.90896875e-01
-5.77248437e-08,1.90903125e-01
-5.76848437e-08,1.90896875e-01
-5.76448437e-08,1.90903125e-01
-5.76048437e-08,1.90896875e-01
-5.75648437e-08,1.90903125e-01
-5.75248437e-08,1.90896875e-01
-5.74848437e-08,1.90903125e-01
-5.74448437e-08,1.90896875e-01
-5.74048437e-08,1.90903125e-01
-5.73648437e-08,1.90896875e-01
-5.73248437e-08,1.90903125e-01
-5.72848437e-08,1.90896875e-01
-5.72448437e-08,1.90903125e-01
-5.72048437e-08,1.90896875e-01
-5.71648437e-08,1.90903125e-01
-5.71248437e-08,1.90896875e-01
-5.70848437e-08,1.90903125e-01
-5.70448437e-08,1.90896875e-01
-5.70048437e-08,1.90903125e-01
-5.69648437e-08,1.90895312e-01
-5.69248437e-08,1.90904688e-01
-5.68848437e-08,1.90895312e-01
-5.68448437e-08,1.90904688e-01
-5.68048437e-08,1.90895312e-01
-5.67648437e-08,1.90904688e-01
-5.67248437e-08,1.90895312e-01
-5.66848437e-08,1.90904688e-01
-5.66448437e-08,1.90895312e-01
-5.66048437e-08,1.90904688e-01
-5.65648437e-08,1.90895312e-01
-5.65248437e-08,1.90904688e-01
-5.64848437e-08,1.90895312e-01
-5.64448437e-08,1.90904688e-01
-5.64048437e-08,1.90895312e-01
-5.63648437e-08,1.90904688e-01
-5.63248437e-08,1.90895312e-01
-5.62848437e-08,1.90904688e-01
-5.62448437e-08,1.90895312e-01
-5.62048437e-08,1.90906250e-01
-5.61648437e-08,1.90893750e-01
-5.61248437e-08,1.90906250e-01
-5.60848437e-08,1.90893750e-01
-5.60448437e-08,1.90906250e-01
-5.60048437e-08,1.90893750e-01
-5.59648437e-08,1.90907812e-01
-5.59248437e-08,1.90892188e-01
-5.58848437e-08,1.90907812e-01
-5.58448437e-08,1.90890625e-01
-5.58048437e-08,1.90910938e-01
-5.57648437e-08,1.90889063e-01
-5.57248437e-08,1.90914063e-01
-5.56848437e-08,1.90882812e-01
-5.56448437e-08,1.90921875e-01
-5.56048437e-08,1.90868750e-01
-5.55648437e-08,1.90956250e-01
-5.55248437e-08,1.90692187e-01
-5.54848437e-08,1.90445313e-01
-5.54448437e-08,1.90531250e-01
-5.54048437e-08,1.90478125e-01
-5.53648437e-08,1.90518750e-01
-5.53248437e-08,1.90484375e-01
-5.52848437e-08,1.90515625e-01
-5.52448437e-08,1.90482813e-01
-5.52048437e-08,1.90520313e-01
-5.51648437e-08,1.90470313e-01
-5.51248437e-08,1.90553125e-01
-5.50848437e-08,1.90295313e-01
-5.50448437e-08,1.90040625e-01
-5.50048437e-08,1.90137500e-01
-5.49648437e-08,1.90070313e-01
-5.49248437e-08,1.90126563e-01
-5.48848437e-08,1.90073437e-01
-5.48448437e-08,1.90131250e-01
-5.48048437e-08,1.90060937e-01
-5.47648437e-08,1.90162500e-01
-5.47248437e-08,1.89884375e-01
-5.46848437e-08,1.89653125e-01
-5.46448437e-08,1.89723438e-01
-5.46048437e-08,1.89685938e-01
-5.45648437e-08,1.89709375e-01
-5.45248437e-08,1.89692187e-01
-5.44848437e-08,1.89704687e-01
-5.44448437e-08,1.89696875e-01
-5.44048437e-08,1.89703125e-01
-5.43648437e-08,1.89698438e-01
-5.43248437e-08,1.89701563e-01
-5.42848437e-08,1.89700000e-01
-5.42448437e-08,1.89700000e-01
-5.42048437e-08,1.89700000e-01
-5.41648437e-08,1.89698438e-01
-5.41248437e-08,1.89701563e-01
-5.40848437e-08,1.89698438e-01
-5.40448437e-08,1.89703125e-01
-5.40048437e-08,1.89696875e-01
-5.39648437e-08,1.89703125e-01
-5.39248437e-08,1.89695313e-01
-5.38848437e-08,1.89706250e-01
-5.38448437e-08,1.89693750e-01
-5.38048438e-08,1.89707813e-01
-5.37648437e-08,1.89690625e-01
-5.37248437e-08,1.89712500e-01
-5.36848437e-08,1.89682813e-01
-5.36448437e-08,1.89726563e-01
-5.36048437e-08,1.89648438e-01
-5.35648437e-08,1.89904688e-01
-5.35248437e-08,1.90157812e-01
-5.34848437e-08,1.90064063e-01
-5.34448437e-08,1.90126563e-01
-5.34048437e-08,1.90076563e-01
-5.33648437e-08,1.90123438e-01
-5.33248437e-08,1.90073437e-01
-5.32848437e-08,1.90134375e-01
-5.32448437e-08,1.90043750e-01
-5.32048437e-08,1.90307813e-01
-5.31648437e-08,1.90554688e-01
-5.31248437e-08,1.90467187e-01
-5.30848437e-08,1.90526562e-01
-5.30448437e-08,1.90476563e-01
-5.30048437e-08,1.90523438e-01
-5.29648437e-08,1.90473438e-01
-5.29248437e-08,1.90535938e-01
-5.28848437e-08,1.90440625e-01
-5.28448437e-08,1.90712500e-01
-5.28048437e-08,1.90950000e-01
-5.27648437e-08,1.90873438e-01
-5.27248437e-08,1.90917188e-01
-5.26848437e-08,1.90887500e-01
-5.26448437e-08,1.90910938e-01
-5.26048437e-08,1.90892188e-01
-5.25648437e-08,1.90906250e-01
-5.25248437e-08,1.90893750e-01
-5.24848437e-08,1.90904688e-01
-5.24448437e-08,1.90895312e-01
-5.24048437e-08,1.90903125e-01
-5.23648437e-08,1.90896875e-01
-5.23248437e-08,1.90903125e-01
-5.22848437e-08,1.90896875e-01
-5.22448437e-08,1.90903125e-01
-5.22048437e-08,1.90898438e-01
-5.21648437e-08,1.90901563e-01
-5.21248437e-08,1.90898438e-01
-5.20848437e-08,1.90901563e-01
-5.20448437e-08,1.90898438e-01
-5.20048437e-08,1.90901563e-01
-5.19648437e-08,1.90898438e-01
-5.19248437e-08,1.90900000e-01
-5.18848438e-08,1.90900000e-01
-5.18448437e-08,1.90900000e-01
-5.18048437e-08,1.90900000e-01
-5.17648437e-08,1.90900000e-01
-5.17248437e-08,1.90900000e-01
-5.16848437e-08,1.90900000e-01
-5.16448437e-08,1.90900000e-01
-5.16048438e-08,1.90900000e-01
-5.15648437e-08,1.90901563e-01
-5.15248437e-08,1.90898438e-01
-5.14848437e-08,1.90901563e-01
-5.14448437e-08,1.90898438e-01
-5.14048437e-08,1.90901563e-01
-5.13648437e-08,1.90898438e-01
-5.13248437e-08,1.90901563e-01
-5.12848437e-08,1.90896875e-01
-5.12448437e-08,1.90903125e-01
-5.12048437e-08,1.90896875e-01
-5.11648437e-08,1.90904688e-01
-5.11248437e-08,1.90895312e-01
-5.10848437e-08,1.90904688e-01
-5.10448437e-08,1.90893750e-01
-5.10048437e-08,1.90907812e-01
-5.09648437e-08,1.90890625e-01
-5.09248437e-08,1.90910938e-01
-5.08848437e-08,1.90885938e-01
-5.08448437e-08,1.90918750e-01
-5.08048437e-08,1.90871875e-01
-5.07648437e-08,1.90953125e-01
-5.07248437e-08,1.90693750e-01
-5.06848437e-08,1.90443750e-01
-5.06448437e-08,1.90531250e-01
-5.06048437e-08,1.90478125e-01
-5.05648437e-08,1.90517188e-01
-5.05248437e-08,1.90485938e-01
-5.04848437e-08,1.90512500e-01
-5.04448437e-08,1.90489063e-01
-5.04048437e-08,1.90509375e-01
-5.03648437e-08,1.90490625e-01
-5.03248437e-08,1.90507813e-01
-5.02848437e-08,1.90492188e-01
-5.02448437e-08,1.90507813e-01
-5.02048437e-08,1.90493750e-01
-5.01648437e-08,1.90506250e-01
-5.01248437e-08,1.90493750e-01
-5.00848437e-08,1.90506250e-01
-5.00448437e-08,1.90493750e-01
-5.00048437e-08,1.90506250e-01
-4.99648438e-08,1.90495313e-01
-4.99248437e-08,1.90504688e-01
-4.98848437e-08,1.90495313e-01
-4.98448437e-08,1.90504688e-01
-4.98048437e-08,1.90495313e-01
-4.97648437e-08,1.90504688e-01
-4.97248437e-08,1.90495313e-01
-4.96848438e-08,1.90504688e-01
-4.96448437e-08,1.90495313e-01
-4.96048437e-08,1.90504688e-01
-4.95648437e-08,1.90495313e-01
-4.95248437e-08,1.90504688e-01
-4.94848437e-08,1.90493750e-01
-4.94448437e-08,1.90506250e-01
-4.94048437e-08,1.90493750e-01
-4.93648437e-08,1.90506250e-01
-4.93248437e-08,1.90493750e-01
-4.92848437e-08,1.90507813e-01
-4.92448437e-08,1.90492188e-01
-4.92048437e-08,1.90509375e-01
-4.91648437e-08,1.90489063e-01
-4.91248437e-08,1.90512500e-01
-4.90848437e-08,1.90484375e-01
-4.90448437e-08,1.90520313e-01
-4.90048437e-08,1.90470313e-01
-4.89648437e-08,1.90554688e-01
-4.89248437e-08,1.90292188e-01
-4.88848437e-08,1.90045313e-01
-4.88448437e-08,1.90131250e-01
-4.88048437e-08,1.90078125e-01
-4.87648437e-08,1.90117188e-01
-4.87248437e-08,1.90085937e-01
-4.86848437e-08,1.90112500e-01
-4.86448437e-08,1.90089063e-01
-4.86048437e-08,1.90109375e-01
-4.85648437e-08,1.90090625e-01
-4.85248437e-08,1.90109375e-01
-4.84848437e-08,1.90092188e-01
-4.84448437e-08,1.90107813e-01
-4.84048437e-08,1.90092188e-01
-4.83648437e-08,1.90107813e-01
-4.83248437e-08,1.90092188e-01
-4.82848437e-08,1.90107813e-01
-4.82448437e-08,1.90092188e-01
-4.82048437e-08,1.90109375e-01
-4.81648437e-08,1.90090625e-01
-4.81248437e-08,1.90109375e-01
-4.80848437e-08,1.90089063e-01
-4.80448438e-08,1.90110938e-01
-4.80048437e-08,1.90087500e-01
-4.79648437e-08,1.90114063e-01
-4.79248437e-08,1.90084375e-01
-4.78848437e-08,1.90118750e-01
-4.78448437e-08,1.90075000e-01
-4.78048437e-08,1.90134375e-01
-4.77648438e-08,1.90040625e-01
-4.77248437e-08,1.90312500e-01
-4.76848437e-08,1.90548438e-01
-4.76448437e-08,1.90475000e-01
-4.76048437e-08,1.90514062e-01
-4.75648437e-08,1.90490625e-01
-4.75248437e-08,1.90504688e-01
-4.74848438e-08,1.90498438e-01
-4.74448437e-08,1.90496875e-01
-4.74048437e-08,1.90506250e-01
-4.73648437e-08,1.90487500e-01
-4.73248437e-08,1.90521875e-01
-4.72848437e-08,1.90451563e-01
-4.72448437e-08,1.90701563e-01
-4.72048437e-08,1.90960938e-01
-4.71648437e-08,1.90864063e-01
-4.71248437e-08,1.90926563e-01
-4.70848437e-08,1.90878125e-01
-4.70448437e-08,1.90918750e-01
-4.70048437e-08,1.90884375e-01
-4.69648437e-08,1.90914063e-01
-4.69248437e-08,1.90885938e-01
-4.68848437e-08,1.90912500e-01
-4.68448437e-08,1.90887500e-01
-4.68048437e-08,1.90910938e-01
-4.67648437e-08,1.90889063e-01
-4.67248437e-08,1.90910938e-01
-4.66848437e-08,1.90889063e-01
-4.66448437e-08,1.90910938e-01
-4.66048437e-08,1.90889063e-01
-4.65648437e-08,1.90910938e-01
-4.65248437e-08,1.90889063e-01
-4.64848437e-08,1.90910938e-01
-4.64448437e-08,1.90889063e-01
-4.64048437e-08,1.90912500e-01
-4.63648437e-08,1.90887500e-01
-4.63248437e-08,1.90914063e-01
-4.62848437e-08,1.90885938e-01
-4.62448437e-08,1.90917188e-01
-4.62048437e-08,1.90881250e-01
-4.61648437e-08,1.90925000e-01
-4.61248438e-08,1.90865625e-01
-4.60848437e-08,1.90959375e-01
-4.60448437e-08,1.90687500e-01
-4.60048437e-08,1.90450000e-01
-4.59648437e-08,1.90526562e-01
-4.59248437e-08,1.90482813e-01
-4.58848437e-08,1.90512500e-01
-4.58448438e-08,1.90490625e-01
-4.58048437e-08,1.90507813e-01
-4.57648437e-08,1.90493750e-01
-4.57248437e-08,1.90504688e-01
-4.56848437e-08,1.90495313e-01
-4.56448437e-08,1.90504688e-01
-4.56048437e-08,1.90496875e-01
-4.55648438e-08,1.90503125e-01
-4.55248437e-08,1.90496875e-01
-4.54848437e-08,1.90503125e-01
-4.54448437e-08,1.90498438e-01
-4.54048437e-08,1.90501562e-01
-4.53648437e-08,1.90498438e-01
-4.53248437e-08,1.90501562e-01
-4.52848438e-08,1.90498438e-01
-4.52448437e-08,1.90501562e-01
-4.52048437e-08,1.90498438e-01
-4.51648437e-08,1.90501562e-01
-4.51248437e-08,1.90498438e-01
-4.50848437e-08,1.90501562e-01
-4.50448437e-08,1.90498438e-01
-4.50048437e-08,1.90501562e-01
-4.49648437e-08,1.90498438e-01
-4.49248437e-08,1.90501562e-01
-4.48848437e-08,1.90498438e-01
-4.48448437e-08,1.90501562e-01
-4.48048437e-08,1.90498438e-01
-4.47648437e-08,1.90501562e-01
-4.47248437e-08,1.90498438e-01
-4.46848437e-08,1.90501562e-01
-4.46448437e-08,1.90498438e-01
-4.46048437e-08,1.90501562e-01
-4.45648437e-08,1.90498438e-01
-4.45248437e-08,1.90501562e-01
-4.44848437e-08,1.90498438e-01
-4.44448437e-08,1.90501562e-01
-4.44048437e-08,1.90498438e-01
-4.43648437e-08,1.90501562e-01
-4.43248437e-08,1.90498438e-01
-4.42848437e-08,1.90501562e-01
-4.42448437e-08,1.90498438e-01
-4.42048438e-08,1.90501562e-01
-4.41648437e-08,1.90496875e-01
-4.41248437e-08,1.90503125e-01
-4.40848437e-08,1.90496875e-01
-4.40448437e-08,1.90503125e-01
-4.40048437e-08,1.90496875e-01
-4.39648437e-08,1.90503125e-01
-4.39248438e-08,1.90496875e-01
-4.38848437e-08,1.90504688e-01
-4.38448437e-08,1.90495313e-01
-4.38048437e-08,1.90504688e-01
-4.37648437e-08,1.90495313e-01
-4.37248437e-08,1.90506250e-01
-4.36848437e-08,1.90493750e-01
-4.36448438e-08,1.90507813e-01
-4.36048437e-08,1.90492188e-01
-4.35648437e-08,1.90509375e-01
-4.35248437e-08,1.90489063e-01
-4.34848437e-08,1.90512500e-01
-4.34448437e-08,1.90482813e-01
-4.34048437e-08,1.90521875e-01
-4.33648438e-08,1.90468750e-01
-4.33248437e-08,1.90556250e-01
-4.32848437e-08,1.90290625e-01
-4.32448437e-08,1.90048438e-01
-4.32048437e-08,1.90128125e-01
-4.31648437e-08,1.90081250e-01
-4.31248437e-08,1.90112500e-01
-4.30848438e-08,1.90090625e-01
-4.30448437e-08,1.90106250e-01
-4.30048437e-08,1.90095313e-01
-4.29648437e-08,1.90101563e-01
-4.29248437e-08,1.90100000e-01
-4.28848437e-08,1.90098437e-01
-4.28448437e-08,1.90104688e-01
-4.28048437e-08,1.90092188e-01
-4.27648437e-08,1.90114063e-01
-4.27248437e-08,1.90075000e-01
-4.26848437e-08,1.90150000e-01
-4.26448437e-08,1.89896875e-01
-4.26048437e-08,1.89642188e-01
-4.25648437e-08,1.89734375e-01
-4.25248437e-08,1.89676563e-01
-4.24848437e-08,1.89718750e-01
-4.24448437e-08,1.89685938e-01
-4.24048437e-08,1.89710938e-01
-4.23648437e-08,1.89693750e-01
-4.23248437e-08,1.89703125e-01
-4.22848438e-08,1.89703125e-01
-4.22448437e-08,1.89687500e-01
-4.22048437e-08,1.89737500e-01
-4.21648437e-08,1.89509375e-01
-4.21248437e-08,1.89228125e-01
-4.20848437e-08,1.89346875e-01
-4.20448437e-08,1.89260938e-01
-4.20048438e-08,1.89334375e-01
-4.19648437e-08,1.89268750e-01
-4.19248437e-08,1.89331250e-01
-4.18848437e-08,1.89268750e-01
-4.18448437e-08,1.89331250e-01
-4.18048437e-08,1.89265625e-01
-4.17648437e-08,1.89337500e-01
-4.17248438e-08,1.89253125e-01
-4.16848437e-08,1.89371875e-01
-4.16448437e-08,1.89075000e-01
-4.16048437e-08,1.88862500e-01
-4.15648437e-08,1.88914063e-01
-4.15248437e-08,1.88895312e-01
-4.14848437e-08,1.88900000e-01
-4.14448438e-08,1.88903125e-01
-4.14048437e-08,1.88893750e-01
-4.13648437e-08,1.88907812e-01
-4.13248437e-08,1.88890625e-01
-4.12848437e-08,1.88912500e-01
-4.12448437e-08,1.88885938e-01
-4.12048437e-08,1.88917188e-01
-4.11648438e-08,1.88879688e-01
-4.11248437e-08,1.88925000e-01
-4.10848437e-08,1.88864063e-01
-4.10448437e-08,1.88960938e-01
-4.10048437e-08,1.88685938e-01
-4.09648437e-08,1.88451563e-01
-4.09248437e-08,1.88523438e-01
-4.08848438e-08,1.88485938e-01
-4.08448437e-08,1.88509375e-01
-4.08048437e-08,1.88493750e-01
-4.07648437e-08,1.88503125e-01
-4.07248437e-08,1.88498438e-01
-4.06848437e-08,1.88501562e-01
-4.06448437e-08,1.88500000e-01
-4.06048437e-08,1.88498438e-01
-4.05648437e-08,1.88501562e-01
-4.05248437e-08,1.88496875e-01
-4.04848437e-08,1.88503125e-01
-4.04448437e-08,1.88495313e-01
-4.04048437e-08,1.88504688e-01
-4.03648438e-08,1.88493750e-01
-4.03248437e-08,1.88506250e-01
-4.02848437e-08,1.88492188e-01
-4.02448437e-08,1.88507813e-01
-4.02048437e-08,1.88490625e-01
-4.01648437e-08,1.88510938e-01
-4.01248437e-08,1.88489062e-01
-4.00848438e-08,1.88514062e-01
-4.00448437e-08,1.88484375e-01
-4.00048437e-08,1.88518750e-01
-3.99648437e-08,1.88475000e-01
-3.99248437e-08,1.88534375e-01
-3.98848437e-08,1.88439063e-01
-3.98448437e-08,1.88714063e-01
-3.98048438e-08,1.88946875e-01
-3.97648437e-08,1.88876563e-01
-3.97248437e-08,1.88912500e-01
-3.96848437e-08,1.88893750e-01
-3.96448437e-08,1.88901563e-01
-3.96048437e-08,1.88901563e-01
-3.95648437e-08,1.88893750e-01
-3.95248438e-08,1.88912500e-01
-3.94848437e-08,1.88876563e-01
-3.94448437e-08,1.88948438e-01
-3.94048437e-08,1.88696875e-01
-3.93648437e-08,1.88440625e-01
-3.93248437e-08,1.88534375e-01
-3.92848437e-08,1.88475000e-01
-3.92448438e-08,1.88520313e-01
-3.92048437e-08,1.88484375e-01
-3.91648437e-08,1.88514062e-01
-3.91248437e-08,1.88487500e-01
-3.90848437e-08,1.88510938e-01
-3.90448437e-08,1.88490625e-01
-3.90048437e-08,1.88509375e-01
-3.89648438e-08,1.88492188e-01
-3.89248437e-08,1.88507813e-01
-3.88848437e-08,1.88492188e-01
-3.88448437e-08,1.88506250e-01
-3.88048437e-08,1.88493750e-01
-3.87648437e-08,1.88506250e-01
-3.87248437e-08,1.88493750e-01
-3.86848438e-08,1.88504688e-01
-3.86448437e-08,1.88495313e-01
-3.86048437e-08,1.88504688e-01
-3.85648437e-08,1.88495313e-01
-3.85248437e-08,1.88504688e-01
