trails/0ad503bf4c7e473689fcee6623a13564/aes_ch1_20250507105251635.csv

Model,MSO66B
Label,
Waveform Type,ANALOG
Horizontal Units,s
Sample Interval,4.00000000e-11
Record Length,10000
Zero Index,1599.12109375
Vertical Units,A
ANALOG_Thumbnail,
yOffset,1.84500000e-01
yPosition,8.40000000e-01

Labels,
TIME,CH1
-6.39648437e-08,1.83109375e-01
-6.39248438e-08,1.83351563e-01
-6.38848437e-08,1.83271875e-01
-6.38448438e-08,1.83317188e-01
-6.38048437e-08,1.83287500e-01
-6.37648437e-08,1.83307813e-01
-6.37248437e-08,1.83295313e-01
-6.36848437e-08,1.83301563e-01
-6.36448438e-08,1.83301563e-01
-6.36048437e-08,1.83292188e-01
-6.35648438e-08,1.83317188e-01
-6.35248437e-08,1.83257813e-01
-6.34848437e-08,1.83495313e-01
-6.34448437e-08,1.83767188e-01
-6.34048437e-08,1.83656250e-01
-6.33648438e-08,1.83735938e-01
-6.33248437e-08,1.83667187e-01
-6.32848437e-08,1.83732813e-01
-6.32448437e-08,1.83664063e-01
-6.32048437e-08,1.83743750e-01
-6.31648437e-08,1.83631250e-01
-6.31248437e-08,1.83920313e-01
-6.30848438e-08,1.84140625e-01
-6.30448437e-08,1.84082812e-01
-6.30048437e-08,1.84106250e-01
-6.29648437e-08,1.84100000e-01
-6.29248437e-08,1.84093750e-01
-6.28848437e-08,1.84117188e-01
-6.28448437e-08,1.84057813e-01
-6.28048438e-08,1.84295313e-01
-6.27648437e-08,1.84568750e-01
-6.27248437e-08,1.84453125e-01
-6.26848437e-08,1.84540625e-01
-6.26448437e-08,1.84459375e-01
-6.26048437e-08,1.84548437e-01
-6.25648437e-08,1.84428125e-01
-6.25248438e-08,1.84723438e-01
-6.24848437e-08,1.84939063e-01
-6.24448437e-08,1.84885938e-01
-6.24048437e-08,1.84903125e-01
-6.23648437e-08,1.84904687e-01
-6.23248437e-08,1.84889063e-01
-6.22848437e-08,1.84923438e-01
-6.22448438e-08,1.84851563e-01
-6.22048437e-08,1.85103125e-01
-6.21648437e-08,1.85359375e-01
-6.21248437e-08,1.85265625e-01
-6.20848437e-08,1.85325000e-01
-6.20448437e-08,1.85281250e-01
-6.20048437e-08,1.85315625e-01
-6.19648438e-08,1.85285937e-01
-6.19248437e-08,1.85312500e-01
-6.18848437e-08,1.85289063e-01
-6.18448437e-08,1.85309375e-01
-6.18048437e-08,1.85290625e-01
-6.17648437e-08,1.85307813e-01
-6.17248437e-08,1.85292188e-01
-6.16848438e-08,1.85307813e-01
-6.16448437e-08,1.85293750e-01
-6.16048437e-08,1.85306250e-01
-6.15648437e-08,1.85293750e-01
-6.15248437e-08,1.85306250e-01
-6.14848437e-08,1.85295313e-01
-6.14448437e-08,1.85304688e-01
-6.14048438e-08,1.85295313e-01
-6.13648437e-08,1.85304688e-01
-6.13248437e-08,1.85295313e-01
-6.12848437e-08,1.85303125e-01
-6.12448437e-08,1.85296875e-01
-6.12048438e-08,1.85303125e-01
-6.11648437e-08,1.85296875e-01
-6.11248438e-08,1.85301563e-01
-6.10848437e-08,1.85298437e-01
-6.10448437e-08,1.85301563e-01
-6.10048437e-08,1.85300000e-01
-6.09648437e-08,1.85300000e-01
-6.09248438e-08,1.85301563e-01
-6.08848437e-08,1.85296875e-01
-6.08448438e-08,1.85304688e-01
-6.08048437e-08,1.85292188e-01
-6.07648437e-08,1.85312500e-01
-6.07248437e-08,1.85278125e-01
-6.06848437e-08,1.85346875e-01
-6.06448438e-08,1.85100000e-01
-6.06048437e-08,1.84837500e-01
-6.05648438e-08,1.84939063e-01
-6.05248437e-08,1.84870312e-01
-6.04848437e-08,1.84925000e-01
-6.04448437e-08,1.84876563e-01
-6.04048437e-08,1.84921875e-01
-6.03648438e-08,1.84879688e-01
-6.03248437e-08,1.84920313e-01
-6.02848438e-08,1.84879688e-01
-6.02448437e-08,1.84921875e-01
-6.02048437e-08,1.84876563e-01
-6.01648437e-08,1.84925000e-01
-6.01248437e-08,1.84870312e-01
-6.00848438e-08,1.84939063e-01
-6.00448437e-08,1.84835938e-01
-6.00048438e-08,1.85117188e-01
-5.99648437e-08,1.85345312e-01
-5.99248437e-08,1.85278125e-01
-5.98848437e-08,1.85312500e-01
-5.98448437e-08,1.85292188e-01
-5.98048438e-08,1.85304688e-01
-5.97648437e-08,1.85296875e-01
-5.97248438e-08,1.85301563e-01
-5.96848437e-08,1.85300000e-01
-5.96448437e-08,1.85300000e-01
-5.96048437e-08,1.85301563e-01
-5.95648437e-08,1.85298437e-01
-5.95248437e-08,1.85301563e-01
-5.94848437e-08,1.85298437e-01
-5.94448437e-08,1.85303125e-01
-5.94048437e-08,1.85296875e-01
-5.93648437e-08,1.85303125e-01
-5.93248437e-08,1.85296875e-01
-5.92848437e-08,1.85304688e-01
-5.92448437e-08,1.85295313e-01
-5.92048437e-08,1.85304688e-01
-5.91648437e-08,1.85295313e-01
-5.91248437e-08,1.85304688e-01
-5.90848437e-08,1.85293750e-01
-5.90448437e-08,1.85306250e-01
-5.90048437e-08,1.85293750e-01
-5.89648437e-08,1.85307813e-01
-5.89248437e-08,1.85292188e-01
-5.88848437e-08,1.85309375e-01
-5.88448437e-08,1.85289063e-01
-5.88048437e-08,1.85312500e-01
-5.87648437e-08,1.85284375e-01
-5.87248437e-08,1.85320313e-01
-5.86848437e-08,1.85270313e-01
-5.86448437e-08,1.85354688e-01
-5.86048437e-08,1.85092188e-01
-5.85648437e-08,1.84845312e-01
-5.85248437e-08,1.84931250e-01
-5.84848437e-08,1.84876563e-01
-5.84448437e-08,1.84918750e-01
-5.84048437e-08,1.84882812e-01
-5.83648437e-08,1.84917187e-01
-5.83248437e-08,1.84881250e-01
-5.82848437e-08,1.84921875e-01
-5.82448437e-08,1.84870312e-01
-5.82048437e-08,1.84954687e-01
-5.81648437e-08,1.84693750e-01
-5.81248437e-08,1.84442188e-01
-5.80848437e-08,1.84534375e-01
-5.80448437e-08,1.84473438e-01
-5.80048437e-08,1.84523437e-01
-5.79648437e-08,1.84478125e-01
-5.79248437e-08,1.84521875e-01
-5.78848437e-08,1.84476562e-01
-5.78448437e-08,1.84528125e-01
-5.78048437e-08,1.84462500e-01
-5.77648437e-08,1.84560937e-01
-5.77248437e-08,1.84285937e-01
-5.76848437e-08,1.84051563e-01
-5.76448437e-08,1.84125000e-01
-5.76048437e-08,1.84084375e-01
-5.75648437e-08,1.84110938e-01
-5.75248437e-08,1.84092188e-01
-5.74848437e-08,1.84106250e-01
-5.74448437e-08,1.84095312e-01
-5.74048437e-08,1.84103125e-01
-5.73648437e-08,1.84098438e-01
-5.73248437e-08,1.84101563e-01
-5.72848437e-08,1.84098438e-01
-5.72448437e-08,1.84100000e-01
-5.72048437e-08,1.84100000e-01
-5.71648437e-08,1.84098438e-01
-5.71248437e-08,1.84101563e-01
-5.70848437e-08,1.84098438e-01
-5.70448437e-08,1.84103125e-01
-5.70048437e-08,1.84096875e-01
-5.69648437e-08,1.84104688e-01
-5.69248437e-08,1.84095312e-01
-5.68848437e-08,1.84106250e-01
-5.68448437e-08,1.84092188e-01
-5.68048437e-08,1.84110938e-01
-5.67648437e-08,1.84085938e-01
-5.67248437e-08,1.84118750e-01
-5.66848437e-08,1.84071875e-01
-5.66448437e-08,1.84153125e-01
-5.66048437e-08,1.83893750e-01
-5.65648437e-08,1.83643750e-01
-5.65248437e-08,1.83732813e-01
-5.64848437e-08,1.83676563e-01
-5.64448437e-08,1.83717188e-01
-5.64048437e-08,1.83685938e-01
-5.63648437e-08,1.83712500e-01
-5.63248437e-08,1.83689062e-01
-5.62848437e-08,1.83710938e-01
-5.62448437e-08,1.83690625e-01
-5.62048437e-08,1.83709375e-01
-5.61648437e-08,1.83692187e-01
-5.61248437e-08,1.83707813e-01
-5.60848437e-08,1.83692187e-01
-5.60448437e-08,1.83707813e-01
-5.60048437e-08,1.83692187e-01
-5.59648437e-08,1.83706250e-01
-5.59248437e-08,1.83693750e-01
-5.58848437e-08,1.83706250e-01
-5.58448437e-08,1.83693750e-01
-5.58048437e-08,1.83706250e-01
-5.57648437e-08,1.83693750e-01
-5.57248437e-08,1.83707813e-01
-5.56848437e-08,1.83692187e-01
-5.56448437e-08,1.83707813e-01
-5.56048437e-08,1.83692187e-01
-5.55648437e-08,1.83709375e-01
-5.55248437e-08,1.83690625e-01
-5.54848437e-08,1.83710938e-01
-5.54448437e-08,1.83687500e-01
-5.54048437e-08,1.83714062e-01
-5.53648437e-08,1.83682813e-01
-5.53248437e-08,1.83721875e-01
-5.52848437e-08,1.83668750e-01
-5.52448437e-08,1.83756250e-01
-5.52048437e-08,1.83490625e-01
-5.51648437e-08,1.83246875e-01
-5.51248437e-08,1.83329688e-01
-5.50848437e-08,1.83279688e-01
-5.50448437e-08,1.83315625e-01
-5.50048437e-08,1.83287500e-01
-5.49648437e-08,1.83310937e-01
-5.49248437e-08,1.83290625e-01
-5.48848437e-08,1.83307813e-01
-5.48448437e-08,1.83292188e-01
-5.48048437e-08,1.83306250e-01
-5.47648437e-08,1.83293750e-01
-5.47248437e-08,1.83306250e-01
-5.46848437e-08,1.83293750e-01
-5.46448437e-08,1.83306250e-01
-5.46048437e-08,1.83293750e-01
-5.45648437e-08,1.83306250e-01
-5.45248437e-08,1.83293750e-01
-5.44848437e-08,1.83306250e-01
-5.44448437e-08,1.83293750e-01
-5.44048437e-08,1.83306250e-01
-5.43648437e-08,1.83293750e-01
-5.43248437e-08,1.83307813e-01
-5.42848437e-08,1.83292188e-01
-5.42448437e-08,1.83309375e-01
-5.42048437e-08,1.83289063e-01
-5.41648437e-08,1.83312500e-01
-5.41248437e-08,1.83284375e-01
-5.40848437e-08,1.83320312e-01
-5.40448437e-08,1.83270313e-01
-5.40048437e-08,1.83354688e-01
-5.39648437e-08,1.83092188e-01
-5.39248437e-08,1.82845312e-01
-5.38848437e-08,1.82931250e-01
-5.38448437e-08,1.82878125e-01
-5.38048438e-08,1.82917187e-01
-5.37648437e-08,1.82885938e-01
-5.37248437e-08,1.82910938e-01
-5.36848437e-08,1.82889063e-01
-5.36448437e-08,1.82909375e-01
-5.36048437e-08,1.82892187e-01
-5.35648437e-08,1.82907813e-01
-5.35248437e-08,1.82892187e-01
-5.34848437e-08,1.82907813e-01
-5.34448437e-08,1.82893750e-01
-5.34048437e-08,1.82906250e-01
-5.33648437e-08,1.82893750e-01
-5.33248437e-08,1.82906250e-01
-5.32848437e-08,1.82893750e-01
-5.32448437e-08,1.82906250e-01
-5.32048437e-08,1.82893750e-01
-5.31648437e-08,1.82906250e-01
-5.31248437e-08,1.82893750e-01
-5.30848437e-08,1.82906250e-01
-5.30448437e-08,1.82893750e-01
-5.30048437e-08,1.82906250e-01
-5.29648437e-08,1.82892187e-01
-5.29248437e-08,1.82907813e-01
-5.28848437e-08,1.82892187e-01
-5.28448437e-08,1.82907813e-01
-5.28048437e-08,1.82890625e-01
-5.27648437e-08,1.82909375e-01
-5.27248437e-08,1.82889063e-01
-5.26848437e-08,1.82910938e-01
-5.26448437e-08,1.82887500e-01
-5.26048437e-08,1.82914063e-01
-5.25648437e-08,1.82884375e-01
-5.25248437e-08,1.82920313e-01
-5.24848437e-08,1.82875000e-01
-5.24448437e-08,1.82934375e-01
-5.24048437e-08,1.82840625e-01
-5.23648437e-08,1.83114063e-01
-5.23248437e-08,1.83348438e-01
-5.22848437e-08,1.83276563e-01
-5.22448437e-08,1.83314063e-01
-5.22048437e-08,1.83292188e-01
-5.21648437e-08,1.83303125e-01
-5.21248437e-08,1.83300000e-01
-5.20848437e-08,1.83296875e-01
-5.20448437e-08,1.83307813e-01
-5.20048437e-08,1.83285937e-01
-5.19648437e-08,1.83325000e-01
-5.19248437e-08,1.83250000e-01
-5.18848438e-08,1.83504688e-01
-5.18448437e-08,1.83757813e-01
-5.18048437e-08,1.83667187e-01
-5.17648437e-08,1.83721875e-01
-5.17248437e-08,1.83684375e-01
-5.16848437e-08,1.83710938e-01
-5.16448437e-08,1.83693750e-01
-5.16048438e-08,1.83700000e-01
-5.15648437e-08,1.83710938e-01
-5.15248437e-08,1.83664063e-01
-5.14848437e-08,1.83889063e-01
-5.14448437e-08,1.84173438e-01
-5.14048437e-08,1.84048437e-01
-5.13648437e-08,1.84142187e-01
-5.13248437e-08,1.84059375e-01
-5.12848437e-08,1.84140625e-01
-5.12448437e-08,1.84056250e-01
-5.12048437e-08,1.84151563e-01
-5.11648437e-08,1.84025000e-01
-5.11248437e-08,1.84328125e-01
-5.10848437e-08,1.84534375e-01
-5.10448437e-08,1.84489062e-01
-5.10048437e-08,1.84500000e-01
-5.09648437e-08,1.84506250e-01
-5.09248437e-08,1.84489062e-01
-5.08848437e-08,1.84515625e-01
-5.08448437e-08,1.84478125e-01
-5.08048437e-08,1.84532813e-01
-5.07648437e-08,1.84442188e-01
-5.07248437e-08,1.84710938e-01
-5.06848437e-08,1.84950000e-01
-5.06448437e-08,1.84875000e-01
-5.06048437e-08,1.84915625e-01
-5.05648437e-08,1.84890625e-01
-5.05248437e-08,1.84906250e-01
-5.04848437e-08,1.84896875e-01
-5.04448437e-08,1.84901563e-01
-5.04048437e-08,1.84901563e-01
-5.03648437e-08,1.84895313e-01
-5.03248437e-08,1.84907813e-01
-5.02848437e-08,1.84885938e-01
-5.02448437e-08,1.84923438e-01
-5.02048437e-08,1.84851563e-01
-5.01648437e-08,1.85101563e-01
-5.01248437e-08,1.85359375e-01
-5.00848437e-08,1.85264062e-01
-5.00448437e-08,1.85326563e-01
-5.00048437e-08,1.85278125e-01
-4.99648438e-08,1.85318750e-01
-4.99248437e-08,1.85282813e-01
-4.98848437e-08,1.85315625e-01
-4.98448437e-08,1.85285937e-01
-4.98048437e-08,1.85314063e-01
-4.97648437e-08,1.85285937e-01
-4.97248437e-08,1.85314063e-01
-4.96848438e-08,1.85285937e-01
-4.96448437e-08,1.85315625e-01
-4.96048437e-08,1.85284375e-01
-4.95648437e-08,1.85317188e-01
-4.95248437e-08,1.85279688e-01
-4.94848437e-08,1.85325000e-01
-4.94448437e-08,1.85265625e-01
-4.94048437e-08,1.85359375e-01
-4.93648437e-08,1.85087500e-01
-4.93248437e-08,1.84848438e-01
-4.92848437e-08,1.84928125e-01
-4.92448437e-08,1.84881250e-01
-4.92048437e-08,1.84914063e-01
-4.91648437e-08,1.84887500e-01
-4.91248437e-08,1.84912500e-01
-4.90848437e-08,1.84887500e-01
-4.90448437e-08,1.84915625e-01
-4.90048437e-08,1.84876563e-01
-4.89648437e-08,1.84946875e-01
-4.89248437e-08,1.84701562e-01
-4.88848437e-08,1.84432813e-01
-4.88448437e-08,1.84545313e-01
-4.88048437e-08,1.84459375e-01
-4.87648437e-08,1.84542188e-01
-4.87248437e-08,1.84450000e-01
-4.86848437e-08,1.84575000e-01
-4.86448437e-08,1.84271875e-01
-4.86048437e-08,1.84067188e-01
-4.85648437e-08,1.84106250e-01
-4.85248437e-08,1.84109375e-01
-4.84848437e-08,1.84076563e-01
-4.84448437e-08,1.84153125e-01
-4.84048437e-08,1.83890625e-01
-4.83648437e-08,1.83650000e-01
-4.83248437e-08,1.83721875e-01
-4.82848437e-08,1.83693750e-01
-4.82448437e-08,1.83690625e-01
-4.82048437e-08,1.83737500e-01
-4.81648437e-08,1.83504688e-01
-4.81248437e-08,1.83235938e-01
-4.80848437e-08,1.83335938e-01
-4.80448438e-08,1.83278125e-01
-4.80048437e-08,1.83307813e-01
-4.79648437e-08,1.83320312e-01
-4.79248437e-08,1.83125000e-01
-4.78848437e-08,1.82812500e-01
-4.78448437e-08,1.82964062e-01
-4.78048437e-08,1.82842188e-01
-4.77648438e-08,1.82956250e-01
-4.77248437e-08,1.82835938e-01
-4.76848437e-08,1.82985938e-01
-4.76448437e-08,1.82662500e-01
-4.76048437e-08,1.82475000e-01
-4.75648437e-08,1.82501563e-01
-4.75248437e-08,1.82507813e-01
-4.74848438e-08,1.82485938e-01
-4.74448437e-08,1.82517188e-01
-4.74048437e-08,1.82478125e-01
-4.73648437e-08,1.82528125e-01
-4.73248437e-08,1.82460938e-01
-4.72848437e-08,1.82564063e-01
-4.72448437e-08,1.82281250e-01
-4.72048437e-08,1.82056250e-01
-4.71648437e-08,1.82120313e-01
-4.71248437e-08,1.82090625e-01
-4.70848437e-08,1.82104688e-01
-4.70448437e-08,1.82098438e-01
-4.70048437e-08,1.82098438e-01
-4.69648437e-08,1.82103125e-01
-4.69248437e-08,1.82095312e-01
-4.68848437e-08,1.82106250e-01
-4.68448437e-08,1.82092188e-01
-4.68048437e-08,1.82109375e-01
-4.67648437e-08,1.82087500e-01
-4.67248437e-08,1.82114063e-01
-4.66848437e-08,1.82082812e-01
-4.66448437e-08,1.82120313e-01
-4.66048437e-08,1.82073438e-01
-4.65648437e-08,1.82135938e-01
-4.65248437e-08,1.82039063e-01
-4.64848437e-08,1.82315625e-01
-4.64448437e-08,1.82546875e-01
-4.64048437e-08,1.82478125e-01
-4.63648437e-08,1.82510937e-01
-4.63248437e-08,1.82495313e-01
-4.62848437e-08,1.82500000e-01
-4.62448437e-08,1.82503125e-01
-4.62048437e-08,1.82493750e-01
-4.61648437e-08,1.82510937e-01
-4.61248438e-08,1.82482813e-01
-4.60848437e-08,1.82528125e-01
-4.60448437e-08,1.82445313e-01
-4.60048437e-08,1.82707813e-01
-4.59648437e-08,1.82953125e-01
-4.59248437e-08,1.82871875e-01
-4.58848437e-08,1.82917187e-01
-4.58448438e-08,1.82889063e-01
-4.58048437e-08,1.82906250e-01
-4.57648437e-08,1.82900000e-01
-4.57248437e-08,1.82893750e-01
-4.56848437e-08,1.82917187e-01
-4.56448437e-08,1.82857812e-01
-4.56048437e-08,1.83095312e-01
-4.55648438e-08,1.83367188e-01
-4.55248437e-08,1.83256250e-01
-4.54848437e-08,1.83334375e-01
-4.54448437e-08,1.83268750e-01
-4.54048437e-08,1.83331250e-01
-4.53648437e-08,1.83267188e-01
-4.53248437e-08,1.83340625e-01
-4.52848438e-08,1.83235938e-01
-4.52448437e-08,1.83515625e-01
-4.52048437e-08,1.83748438e-01
-4.51648437e-08,1.83675000e-01
-4.51248437e-08,1.83717188e-01
-4.50848437e-08,1.83685938e-01
-4.50448437e-08,1.83712500e-01
-4.50048437e-08,1.83687500e-01
-4.49648437e-08,1.83712500e-01
-4.49248437e-08,1.83685938e-01
-4.48848437e-08,1.83715625e-01
-4.48448437e-08,1.83679687e-01
-4.48048437e-08,1.83729688e-01
-4.47648437e-08,1.83645313e-01
-4.47248437e-08,1.83907813e-01
-4.46848437e-08,1.84154687e-01
-4.46448437e-08,1.84070312e-01
-4.46048437e-08,1.84120312e-01
-4.45648437e-08,1.84084375e-01
-4.45248437e-08,1.84112500e-01
-4.44848437e-08,1.84089063e-01
-4.44448437e-08,1.84107812e-01
-4.44048437e-08,1.84092188e-01
-4.43648437e-08,1.84106250e-01
-4.43248437e-08,1.84095312e-01
-4.42848437e-08,1.84103125e-01
-4.42448437e-08,1.84096875e-01
-4.42048438e-08,1.84101563e-01
-4.41648437e-08,1.84100000e-01
-4.41248437e-08,1.84098438e-01
-4.40848437e-08,1.84103125e-01
-4.40448437e-08,1.84093750e-01
-4.40048437e-08,1.84112500e-01
-4.39648437e-08,1.84078125e-01
-4.39248438e-08,1.84146875e-01
-4.38848437e-08,1.83900000e-01
-4.38448437e-08,1.83637500e-01
-4.38048437e-08,1.83739062e-01
-4.37648437e-08,1.83670313e-01
-4.37248437e-08,1.83725000e-01
-4.36848437e-08,1.83678125e-01
-4.36448438e-08,1.83720313e-01
-4.36048437e-08,1.83681250e-01
-4.35648437e-08,1.83717188e-01
-4.35248437e-08,1.83682813e-01
-4.34848437e-08,1.83717188e-01
-4.34448437e-08,1.83682813e-01
-4.34048437e-08,1.83717188e-01
-4.33648438e-08,1.83682813e-01
-4.33248437e-08,1.83717188e-01
-4.32848437e-08,1.83682813e-01
-4.32448437e-08,1.83718750e-01
-4.32048437e-08,1.83681250e-01
-4.31648437e-08,1.83720313e-01
-4.31248437e-08,1.83676563e-01
-4.30848438e-08,1.83725000e-01
-4.30448437e-08,1.83670313e-01
-4.30048437e-08,1.83735938e-01
-4.29648437e-08,1.83653125e-01
-4.29248437e-08,1.83775000e-01
-4.28848437e-08,1.83467188e-01
-4.28448437e-08,1.83281250e-01
-4.28048437e-08,1.83270313e-01
-4.27648437e-08,1.83492188e-01
-4.27248437e-08,1.83765625e-01
-4.26848437e-08,1.83660938e-01
-4.26448437e-08,1.83728125e-01
-4.26048437e-08,1.83678125e-01
-4.25648437e-08,1.83717188e-01
-4.25248437e-08,1.83685938e-01
-4.24848437e-08,1.83712500e-01
-4.24448437e-08,1.83689062e-01
-4.24048437e-08,1.83709375e-01
-4.23648437e-08,1.83692187e-01
-4.23248437e-08,1.83707813e-01
-4.22848438e-08,1.83692187e-01
-4.22448437e-08,1.83706250e-01
-4.22048437e-08,1.83693750e-01
-4.21648437e-08,1.83706250e-01
-4.21248437e-08,1.83695313e-01
-4.20848437e-08,1.83704688e-01
-4.20448437e-08,1.83695313e-01
-4.20048438e-08,1.83704688e-01
-4.19648437e-08,1.83695313e-01
-4.19248437e-08,1.83704688e-01
-4.18848437e-08,1.83695313e-01
-4.18448437e-08,1.83703125e-01
-4.18048437e-08,1.83696875e-01
-4.17648437e-08,1.83703125e-01
-4.17248438e-08,1.83696875e-01
-4.16848437e-08,1.83703125e-01
-4.16448437e-08,1.83696875e-01
-4.16048437e-08,1.83703125e-01
-4.15648437e-08,1.83696875e-01
-4.15248437e-08,1.83703125e-01
-4.14848437e-08,1.83695313e-01
-4.14448438e-08,1.83704688e-01
-4.14048437e-08,1.83695313e-01
-4.13648437e-08,1.83704688e-01
-4.13248437e-08,1.83695313e-01
-4.12848437e-08,1.83704688e-01
-4.12448437e-08,1.83693750e-01
-4.12048437e-08,1.83706250e-01
-4.11648438e-08,1.83693750e-01
-4.11248437e-08,1.83707813e-01
-4.10848437e-08,1.83690625e-01
-4.10448437e-08,1.83710938e-01
-4.10048437e-08,1.83685938e-01
-4.09648437e-08,1.83718750e-01
-4.09248437e-08,1.83671875e-01
-4.08848438e-08,1.83753125e-01
-4.08448437e-08,1.83493750e-01
-4.08048437e-08,1.83243750e-01
-4.07648437e-08,1.83332812e-01
-4.07248437e-08,1.83276563e-01
-4.06848437e-08,1.83318750e-01
-4.06448437e-08,1.83284375e-01
-4.06048437e-08,1.83314063e-01
-4.05648437e-08,1.83287500e-01
-4.05248437e-08,1.83310937e-01
-4.04848437e-08,1.83289063e-01
-4.04448437e-08,1.83310937e-01
-4.04048437e-08,1.83290625e-01
-4.03648438e-08,1.83309375e-01
-4.03248437e-08,1.83290625e-01
-4.02848437e-08,1.83309375e-01
-4.02448437e-08,1.83290625e-01
-4.02048437e-08,1.83310937e-01
-4.01648437e-08,1.83289063e-01
-4.01248437e-08,1.83310937e-01
-4.00848438e-08,1.83287500e-01
-4.00448437e-08,1.83312500e-01
-4.00048437e-08,1.83285937e-01
-3.99648437e-08,1.83315625e-01
-3.99248437e-08,1.83282813e-01
-3.98848437e-08,1.83320312e-01
-3.98448437e-08,1.83273437e-01
-3.98048438e-08,1.83335938e-01
-3.97648437e-08,1.83239062e-01
-3.97248437e-08,1.83515625e-01
-3.96848437e-08,1.83746875e-01
-3.96448437e-08,1.83678125e-01
-3.96048437e-08,1.83712500e-01
-3.95648437e-08,1.83693750e-01
-3.95248438e-08,1.83701562e-01
-3.94848437e-08,1.83701562e-01
-3.94448437e-08,1.83695313e-01
-3.94048437e-08,1.83709375e-01
-3.93648437e-08,1.83684375e-01
-3.93248437e-08,1.83726562e-01
-3.92848437e-08,1.83648438e-01
-3.92448438e-08,1.83906250e-01
-3.92048437e-08,1.84156250e-01
-3.91648437e-08,1.84068750e-01
-3.91248437e-08,1.84120312e-01
-3.90848437e-08,1.84085938e-01
-3.90448437e-08,1.84107812e-01
-3.90048437e-08,1.84096875e-01
-3.89648438e-08,1.84096875e-01
-3.89248437e-08,1.84114063e-01
-3.88848437e-08,1.84060938e-01
-3.88448437e-08,1.84292188e-01
-3.88048437e-08,1.84570312e-01
-3.87648437e-08,1.84453125e-01
-3.87248437e-08,1.84537500e-01
-3.86848438e-08,1.84467188e-01
-3.86448437e-08,1.84531250e-01
-3.86048437e-08,1.84468750e-01
-3.85648437e-08,1.84531250e-01
-3.85248437e-08,1.84464062e-01
