trails/0ad503bf4c7e473689fcee6623a13564/aes_ch1_20250507104514179.csv

Model,MSO66B
Label,
Waveform Type,ANALOG
Horizontal Units,s
Sample Interval,4.00000000e-11
Record Length,10000
Zero Index,1599.01953125
Vertical Units,A
ANALOG_Thumbnail,
yOffset,1.84500000e-01
yPosition,8.40000000e-01

Labels,
TIME,CH1
-6.39607813e-08,1.95750000e-01
-6.39207812e-08,1.95673438e-01
-6.38807813e-08,1.95717188e-01
-6.38407812e-08,1.95687500e-01
-6.38007812e-08,1.95709375e-01
-6.37607812e-08,1.95692188e-01
-6.37207812e-08,1.95706250e-01
-6.36807813e-08,1.95695312e-01
-6.36407812e-08,1.95703125e-01
-6.36007813e-08,1.95696875e-01
-6.35607812e-08,1.95703125e-01
-6.35207812e-08,1.95698438e-01
-6.34807812e-08,1.95701563e-01
-6.34407812e-08,1.95698438e-01
-6.34007813e-08,1.95701563e-01
-6.33607812e-08,1.95698438e-01
-6.33207813e-08,1.95700000e-01
-6.32807812e-08,1.95700000e-01
-6.32407812e-08,1.95700000e-01
-6.32007812e-08,1.95700000e-01
-6.31607812e-08,1.95700000e-01
-6.31207813e-08,1.95700000e-01
-6.30807812e-08,1.95700000e-01
-6.30407813e-08,1.95700000e-01
-6.30007812e-08,1.95700000e-01
-6.29607812e-08,1.95700000e-01
-6.29207812e-08,1.95700000e-01
-6.28807812e-08,1.95700000e-01
-6.28407813e-08,1.95700000e-01
-6.28007812e-08,1.95700000e-01
-6.27607813e-08,1.95698438e-01
-6.27207812e-08,1.95701563e-01
-6.26807812e-08,1.95698438e-01
-6.26407812e-08,1.95701563e-01
-6.26007812e-08,1.95698438e-01
-6.25607813e-08,1.95701563e-01
-6.25207812e-08,1.95698438e-01
-6.24807813e-08,1.95701563e-01
-6.24407812e-08,1.95698438e-01
-6.24007812e-08,1.95701563e-01
-6.23607812e-08,1.95698438e-01
-6.23207812e-08,1.95701563e-01
-6.22807813e-08,1.95698438e-01
-6.22407812e-08,1.95701563e-01
-6.22007813e-08,1.95698438e-01
-6.21607812e-08,1.95701563e-01
-6.21207812e-08,1.95698438e-01
-6.20807812e-08,1.95701563e-01
-6.20407812e-08,1.95698438e-01
-6.20007813e-08,1.95701563e-01
-6.19607812e-08,1.95698438e-01
-6.19207812e-08,1.95701563e-01
-6.18807812e-08,1.95698438e-01
-6.18407812e-08,1.95701563e-01
-6.18007812e-08,1.95698438e-01
-6.17607812e-08,1.95701563e-01
-6.17207813e-08,1.95698438e-01
-6.16807812e-08,1.95701563e-01
-6.16407812e-08,1.95698438e-01
-6.16007812e-08,1.95701563e-01
-6.15607812e-08,1.95698438e-01
-6.15207812e-08,1.95701563e-01
-6.14807812e-08,1.95698438e-01
-6.14407813e-08,1.95701563e-01
-6.14007812e-08,1.95698438e-01
-6.13607812e-08,1.95703125e-01
-6.13207812e-08,1.95696875e-01
-6.12807812e-08,1.95703125e-01
-6.12407812e-08,1.95696875e-01
-6.12007812e-08,1.95703125e-01
-6.11607813e-08,1.95696875e-01
-6.11207812e-08,1.95703125e-01
-6.10807812e-08,1.95696875e-01
-6.10407812e-08,1.95703125e-01
-6.10007812e-08,1.95696875e-01
-6.09607812e-08,1.95703125e-01
-6.09207812e-08,1.95696875e-01
-6.08807813e-08,1.95703125e-01
-6.08407812e-08,1.95696875e-01
-6.08007812e-08,1.95703125e-01
-6.07607812e-08,1.95696875e-01
-6.07207812e-08,1.95703125e-01
-6.06807812e-08,1.95696875e-01
-6.06407812e-08,1.95704688e-01
-6.06007813e-08,1.95695312e-01
-6.05607812e-08,1.95704688e-01
-6.05207812e-08,1.95695312e-01
-6.04807812e-08,1.95704688e-01
-6.04407812e-08,1.95693750e-01
-6.04007812e-08,1.95706250e-01
-6.03607812e-08,1.95693750e-01
-6.03207813e-08,1.95707813e-01
-6.02807812e-08,1.95690625e-01
-6.02407812e-08,1.95710938e-01
-6.02007812e-08,1.95685938e-01
-6.01607812e-08,1.95718750e-01
-6.01207813e-08,1.95673438e-01
-6.00807812e-08,1.95751563e-01
-6.00407813e-08,1.95495313e-01
-6.00007812e-08,1.95240625e-01
-5.99607812e-08,1.95335938e-01
-5.99207812e-08,1.95271875e-01
-5.98807812e-08,1.95326563e-01
-5.98407813e-08,1.95273438e-01
-5.98007812e-08,1.95329688e-01
-5.97607813e-08,1.95260938e-01
-5.97207812e-08,1.95362500e-01
-5.96807812e-08,1.95084375e-01
-5.96407812e-08,1.94854688e-01
-5.96007812e-08,1.94920312e-01
-5.95607812e-08,1.94893750e-01
-5.95207812e-08,1.94893750e-01
-5.94807812e-08,1.94932812e-01
-5.94407812e-08,1.94714063e-01
-5.94007812e-08,1.94423438e-01
-5.93607812e-08,1.94554688e-01
-5.93207812e-08,1.94453125e-01
-5.92807812e-08,1.94548438e-01
-5.92407812e-08,1.94445313e-01
-5.92007812e-08,1.94578125e-01
-5.91607812e-08,1.94270313e-01
-5.91207812e-08,1.94067188e-01
-5.90807812e-08,1.94107813e-01
-5.90407812e-08,1.94103125e-01
-5.90007812e-08,1.94089063e-01
-5.89607812e-08,1.94117188e-01
-5.89207812e-08,1.94070313e-01
-5.88807812e-08,1.94154688e-01
-5.88407812e-08,1.93890625e-01
-5.88007812e-08,1.93646875e-01
-5.87607812e-08,1.93728125e-01
-5.87207812e-08,1.93681250e-01
-5.86807812e-08,1.93712500e-01
-5.86407812e-08,1.93690625e-01
-5.86007812e-08,1.93706250e-01
-5.85607812e-08,1.93695312e-01
-5.85207812e-08,1.93703125e-01
-5.84807812e-08,1.93698438e-01
-5.84407812e-08,1.93701563e-01
-5.84007812e-08,1.93700000e-01
-5.83607812e-08,1.93698438e-01
-5.83207812e-08,1.93701563e-01
-5.82807812e-08,1.93696875e-01
-5.82407812e-08,1.93704688e-01
-5.82007812e-08,1.93692188e-01
-5.81607812e-08,1.93710938e-01
-5.81207812e-08,1.93684375e-01
-5.80807812e-08,1.93725000e-01
-5.80407812e-08,1.93650000e-01
-5.80007812e-08,1.93903125e-01
-5.79607812e-08,1.94159375e-01
-5.79207812e-08,1.94062500e-01
-5.78807812e-08,1.94128125e-01
-5.78407812e-08,1.94075000e-01
-5.78007812e-08,1.94125000e-01
-5.77607812e-08,1.94073438e-01
-5.77207812e-08,1.94134375e-01
-5.76807812e-08,1.94042188e-01
-5.76407812e-08,1.94309375e-01
-5.76007812e-08,1.94554688e-01
-5.75607812e-08,1.94465625e-01
-5.75207812e-08,1.94528125e-01
-5.74807812e-08,1.94471875e-01
-5.74407812e-08,1.94534375e-01
-5.74007812e-08,1.94442188e-01
-5.73607812e-08,1.94707813e-01
-5.73207812e-08,1.94956250e-01
-5.72807812e-08,1.94865625e-01
-5.72407812e-08,1.94928125e-01
-5.72007812e-08,1.94871875e-01
-5.71607812e-08,1.94934375e-01
-5.71207812e-08,1.94842188e-01
-5.70807812e-08,1.95107813e-01
-5.70407812e-08,1.95356250e-01
-5.70007812e-08,1.95265625e-01
-5.69607812e-08,1.95326563e-01
-5.69207812e-08,1.95276563e-01
-5.68807812e-08,1.95325000e-01
-5.68407812e-08,1.95271875e-01
-5.68007812e-08,1.95335938e-01
-5.67607812e-08,1.95239063e-01
-5.67207812e-08,1.95512500e-01
-5.66807812e-08,1.95750000e-01
-5.66407812e-08,1.95673438e-01
-5.66007812e-08,1.95717188e-01
-5.65607812e-08,1.95687500e-01
-5.65207812e-08,1.95709375e-01
-5.64807812e-08,1.95692188e-01
-5.64407812e-08,1.95706250e-01
-5.64007812e-08,1.95695312e-01
-5.63607812e-08,1.95704688e-01
-5.63207812e-08,1.95696875e-01
-5.62807812e-08,1.95703125e-01
-5.62407812e-08,1.95696875e-01
-5.62007812e-08,1.95701563e-01
-5.61607812e-08,1.95698438e-01
-5.61207812e-08,1.95701563e-01
-5.60807812e-08,1.95698438e-01
-5.60407812e-08,1.95701563e-01
-5.60007812e-08,1.95700000e-01
-5.59607812e-08,1.95700000e-01
-5.59207812e-08,1.95700000e-01
-5.58807812e-08,1.95700000e-01
-5.58407812e-08,1.95700000e-01
-5.58007812e-08,1.95700000e-01
-5.57607812e-08,1.95700000e-01
-5.57207812e-08,1.95700000e-01
-5.56807812e-08,1.95701563e-01
-5.56407812e-08,1.95698438e-01
-5.56007812e-08,1.95701563e-01
-5.55607812e-08,1.95698438e-01
-5.55207812e-08,1.95701563e-01
-5.54807812e-08,1.95698438e-01
-5.54407812e-08,1.95701563e-01
-5.54007812e-08,1.95698438e-01
-5.53607812e-08,1.95703125e-01
-5.53207812e-08,1.95696875e-01
-5.52807812e-08,1.95703125e-01
-5.52407812e-08,1.95696875e-01
-5.52007812e-08,1.95703125e-01
-5.51607812e-08,1.95696875e-01
-5.51207812e-08,1.95704688e-01
-5.50807812e-08,1.95695312e-01
-5.50407812e-08,1.95704688e-01
-5.50007812e-08,1.95695312e-01
-5.49607812e-08,1.95706250e-01
-5.49207812e-08,1.95693750e-01
-5.48807812e-08,1.95707813e-01
-5.48407812e-08,1.95692188e-01
-5.48007812e-08,1.95709375e-01
-5.47607812e-08,1.95689063e-01
-5.47207812e-08,1.95712500e-01
-5.46807812e-08,1.95685938e-01
-5.46407812e-08,1.95717188e-01
-5.46007812e-08,1.95678125e-01
-5.45607812e-08,1.95732813e-01
-5.45207812e-08,1.95642188e-01
-5.44807812e-08,1.95910937e-01
-5.44407812e-08,1.96151563e-01
-5.44007812e-08,1.96071875e-01
-5.43607812e-08,1.96117188e-01
-5.43207812e-08,1.96087500e-01
-5.42807812e-08,1.96109375e-01
-5.42407812e-08,1.96093750e-01
-5.42007812e-08,1.96104688e-01
-5.41607812e-08,1.96096875e-01
-5.41207812e-08,1.96101562e-01
-5.40807812e-08,1.96098438e-01
-5.40407812e-08,1.96100000e-01
-5.40007812e-08,1.96101562e-01
-5.39607812e-08,1.96096875e-01
-5.39207812e-08,1.96104688e-01
-5.38807812e-08,1.96093750e-01
-5.38407812e-08,1.96107813e-01
-5.38007812e-08,1.96090625e-01
-5.37607812e-08,1.96114063e-01
-5.37207812e-08,1.96081250e-01
-5.36807812e-08,1.96129688e-01
-5.36407812e-08,1.96045313e-01
-5.36007812e-08,1.96307813e-01
-5.35607812e-08,1.96553125e-01
-5.35207812e-08,1.96470313e-01
-5.34807812e-08,1.96518750e-01
-5.34407812e-08,1.96487500e-01
-5.34007812e-08,1.96507813e-01
-5.33607812e-08,1.96495313e-01
-5.33207812e-08,1.96501563e-01
-5.32807812e-08,1.96503125e-01
-5.32407812e-08,1.96490625e-01
-5.32007812e-08,1.96518750e-01
-5.31607812e-08,1.96454688e-01
-5.31207812e-08,1.96698438e-01
-5.30807812e-08,1.96964063e-01
-5.30407812e-08,1.96860937e-01
-5.30007812e-08,1.96929688e-01
-5.29607812e-08,1.96875000e-01
-5.29207812e-08,1.96920312e-01
-5.28807812e-08,1.96881250e-01
-5.28407812e-08,1.96917188e-01
-5.28007812e-08,1.96884375e-01
-5.27607812e-08,1.96914063e-01
-5.27207812e-08,1.96885937e-01
-5.26807812e-08,1.96912500e-01
-5.26407812e-08,1.96887500e-01
-5.26007812e-08,1.96912500e-01
-5.25607812e-08,1.96889063e-01
-5.25207812e-08,1.96910937e-01
-5.24807812e-08,1.96889063e-01
-5.24407813e-08,1.96909375e-01
-5.24007812e-08,1.96890625e-01
-5.23607812e-08,1.96907813e-01
-5.23207812e-08,1.96892188e-01
-5.22807812e-08,1.96906250e-01
-5.22407812e-08,1.96895313e-01
-5.22007812e-08,1.96903125e-01
-5.21607812e-08,1.96901563e-01
-5.21207812e-08,1.96889063e-01
-5.20807812e-08,1.96934375e-01
-5.20407812e-08,1.96714063e-01
-5.20007812e-08,1.96421875e-01
-5.19607812e-08,1.96557813e-01
-5.19207812e-08,1.96448438e-01
-5.18807812e-08,1.96553125e-01
-5.18407812e-08,1.96439063e-01
-5.18007812e-08,1.96584375e-01
-5.17607812e-08,1.96262500e-01
-5.17207812e-08,1.96076562e-01
-5.16807812e-08,1.96096875e-01
-5.16407812e-08,1.96118750e-01
-5.16007812e-08,1.96067188e-01
-5.15607812e-08,1.96162500e-01
-5.15207812e-08,1.95881250e-01
-5.14807812e-08,1.95659375e-01
-5.14407812e-08,1.95712500e-01
-5.14007812e-08,1.95703125e-01
-5.13607812e-08,1.95681250e-01
-5.13207812e-08,1.95748438e-01
-5.12807812e-08,1.95495313e-01
-5.12407812e-08,1.95245313e-01
-5.12007812e-08,1.95326563e-01
-5.11607812e-08,1.95287500e-01
-5.11207812e-08,1.95296875e-01
-5.10807812e-08,1.95329688e-01
-5.10407812e-08,1.95115625e-01
-5.10007812e-08,1.94823438e-01
-5.09607812e-08,1.94954688e-01
-5.09207812e-08,1.94853125e-01
-5.08807812e-08,1.94945312e-01
-5.08407812e-08,1.94848437e-01
-5.08007812e-08,1.94973438e-01
-5.07607812e-08,1.94675000e-01
-5.07207812e-08,1.94460938e-01
-5.06807812e-08,1.94515625e-01
-5.06407812e-08,1.94492187e-01
-5.06007812e-08,1.94503125e-01
-5.05607812e-08,1.94498438e-01
-5.05207813e-08,1.94500000e-01
-5.04807812e-08,1.94501563e-01
-5.04407812e-08,1.94498438e-01
-5.04007812e-08,1.94503125e-01
-5.03607812e-08,1.94496875e-01
-5.03207812e-08,1.94503125e-01
-5.02807812e-08,1.94496875e-01
-5.02407812e-08,1.94503125e-01
-5.02007812e-08,1.94496875e-01
-5.01607812e-08,1.94504687e-01
-5.01207812e-08,1.94495313e-01
-5.00807812e-08,1.94504687e-01
-5.00407812e-08,1.94495313e-01
-5.00007812e-08,1.94504687e-01
-4.99607812e-08,1.94495313e-01
-4.99207812e-08,1.94506250e-01
-4.98807812e-08,1.94493750e-01
-4.98407812e-08,1.94506250e-01
-4.98007812e-08,1.94492187e-01
-4.97607812e-08,1.94507813e-01
-4.97207812e-08,1.94492187e-01
-4.96807812e-08,1.94509375e-01
-4.96407812e-08,1.94489063e-01
-4.96007812e-08,1.94512500e-01
-4.95607812e-08,1.94485938e-01
-4.95207812e-08,1.94517188e-01
-4.94807812e-08,1.94476563e-01
-4.94407812e-08,1.94532813e-01
-4.94007812e-08,1.94442188e-01
-4.93607812e-08,1.94710938e-01
-4.93207812e-08,1.94951563e-01
-4.92807812e-08,1.94873437e-01
-4.92407812e-08,1.94917188e-01
-4.92007812e-08,1.94889063e-01
-4.91607812e-08,1.94907812e-01
-4.91207812e-08,1.94895313e-01
-4.90807812e-08,1.94901563e-01
-4.90407812e-08,1.94900000e-01
-4.90007812e-08,1.94896875e-01
-4.89607812e-08,1.94906250e-01
-4.89207812e-08,1.94887500e-01
-4.88807813e-08,1.94921875e-01
-4.88407812e-08,1.94853125e-01
-4.88007812e-08,1.95101562e-01
-4.87607812e-08,1.95360937e-01
-4.87207812e-08,1.95262500e-01
-4.86807812e-08,1.95328125e-01
-4.86407812e-08,1.95278125e-01
-4.86007813e-08,1.95320313e-01
-4.85607812e-08,1.95282813e-01
-4.85207812e-08,1.95315625e-01
-4.84807812e-08,1.95284375e-01
-4.84407812e-08,1.95314062e-01
-4.84007812e-08,1.95285938e-01
-4.83607812e-08,1.95312500e-01
-4.83207813e-08,1.95287500e-01
-4.82807812e-08,1.95312500e-01
-4.82407812e-08,1.95287500e-01
-4.82007812e-08,1.95312500e-01
-4.81607812e-08,1.95287500e-01
-4.81207812e-08,1.95312500e-01
-4.80807812e-08,1.95285938e-01
-4.80407812e-08,1.95314062e-01
-4.80007812e-08,1.95284375e-01
-4.79607812e-08,1.95317188e-01
-4.79207812e-08,1.95281250e-01
-4.78807812e-08,1.95321875e-01
-4.78407812e-08,1.95273438e-01
-4.78007812e-08,1.95335938e-01
-4.77607812e-08,1.95239063e-01
-4.77207812e-08,1.95514063e-01
-4.76807812e-08,1.95748438e-01
-4.76407812e-08,1.95675000e-01
-4.76007812e-08,1.95715625e-01
-4.75607812e-08,1.95689063e-01
-4.75207812e-08,1.95707813e-01
-4.74807812e-08,1.95693750e-01
-4.74407812e-08,1.95704688e-01
-4.74007812e-08,1.95696875e-01
-4.73607812e-08,1.95701563e-01
-4.73207812e-08,1.95698438e-01
-4.72807812e-08,1.95700000e-01
-4.72407812e-08,1.95700000e-01
-4.72007812e-08,1.95700000e-01
-4.71607812e-08,1.95700000e-01
-4.71207812e-08,1.95698438e-01
-4.70807812e-08,1.95701563e-01
-4.70407812e-08,1.95698438e-01
-4.70007812e-08,1.95701563e-01
-4.69607813e-08,1.95698438e-01
-4.69207812e-08,1.95703125e-01
-4.68807812e-08,1.95696875e-01
-4.68407812e-08,1.95703125e-01
-4.68007812e-08,1.95696875e-01
-4.67607812e-08,1.95704688e-01
-4.67207812e-08,1.95695312e-01
-4.66807813e-08,1.95704688e-01
-4.66407812e-08,1.95693750e-01
-4.66007812e-08,1.95706250e-01
-4.65607812e-08,1.95692188e-01
-4.65207812e-08,1.95707813e-01
-4.64807812e-08,1.95690625e-01
-4.64407812e-08,1.95712500e-01
-4.64007813e-08,1.95684375e-01
-4.63607812e-08,1.95720312e-01
-4.63207812e-08,1.95670312e-01
-4.62807812e-08,1.95754687e-01
-4.62407812e-08,1.95492187e-01
-4.62007812e-08,1.95245313e-01
-4.61607812e-08,1.95329688e-01
-4.61207813e-08,1.95279688e-01
-4.60807812e-08,1.95315625e-01
-4.60407812e-08,1.95287500e-01
-4.60007812e-08,1.95310938e-01
-4.59607812e-08,1.95290625e-01
-4.59207812e-08,1.95307813e-01
-4.58807812e-08,1.95292188e-01
-4.58407812e-08,1.95306250e-01
-4.58007812e-08,1.95293750e-01
-4.57607812e-08,1.95306250e-01
-4.57207812e-08,1.95295313e-01
-4.56807812e-08,1.95304688e-01
-4.56407812e-08,1.95295313e-01
-4.56007812e-08,1.95304688e-01
-4.55607812e-08,1.95295313e-01
-4.55207812e-08,1.95304688e-01
-4.54807812e-08,1.95296875e-01
-4.54407812e-08,1.95303125e-01
-4.54007812e-08,1.95296875e-01
-4.53607812e-08,1.95303125e-01
-4.53207812e-08,1.95296875e-01
-4.52807812e-08,1.95303125e-01
-4.52407812e-08,1.95296875e-01
-4.52007812e-08,1.95303125e-01
-4.51607812e-08,1.95296875e-01
-4.51207812e-08,1.95303125e-01
-4.50807812e-08,1.95296875e-01
-4.50407813e-08,1.95303125e-01
-4.50007812e-08,1.95296875e-01
-4.49607812e-08,1.95303125e-01
-4.49207812e-08,1.95296875e-01
-4.48807812e-08,1.95303125e-01
-4.48407812e-08,1.95296875e-01
-4.48007812e-08,1.95303125e-01
-4.47607813e-08,1.95296875e-01
-4.47207812e-08,1.95303125e-01
-4.46807812e-08,1.95296875e-01
-4.46407812e-08,1.95303125e-01
-4.46007812e-08,1.95296875e-01
-4.45607812e-08,1.95303125e-01
-4.45207812e-08,1.95296875e-01
-4.44807813e-08,1.95303125e-01
-4.44407812e-08,1.95296875e-01
-4.44007812e-08,1.95303125e-01
-4.43607812e-08,1.95296875e-01
-4.43207812e-08,1.95303125e-01
-4.42807812e-08,1.95296875e-01
-4.42407812e-08,1.95303125e-01
-4.42007813e-08,1.95296875e-01
-4.41607812e-08,1.95303125e-01
-4.41207812e-08,1.95296875e-01
-4.40807812e-08,1.95303125e-01
-4.40407812e-08,1.95296875e-01
-4.40007812e-08,1.95303125e-01
-4.39607812e-08,1.95296875e-01
-4.39207813e-08,1.95303125e-01
-4.38807812e-08,1.95296875e-01
-4.38407812e-08,1.95303125e-01
-4.38007812e-08,1.95296875e-01
-4.37607812e-08,1.95303125e-01
-4.37207812e-08,1.95296875e-01
-4.36807812e-08,1.95303125e-01
-4.36407812e-08,1.95296875e-01
-4.36007812e-08,1.95303125e-01
-4.35607812e-08,1.95296875e-01
-4.35207812e-08,1.95304688e-01
-4.34807812e-08,1.95295313e-01
-4.34407812e-08,1.95304688e-01
-4.34007812e-08,1.95295313e-01
-4.33607812e-08,1.95304688e-01
-4.33207812e-08,1.95295313e-01
-4.32807812e-08,1.95304688e-01
-4.32407812e-08,1.95293750e-01
-4.32007812e-08,1.95306250e-01
-4.31607812e-08,1.95293750e-01
-4.31207813e-08,1.95307813e-01
-4.30807812e-08,1.95292188e-01
-4.30407812e-08,1.95309375e-01
-4.30007812e-08,1.95290625e-01
-4.29607812e-08,1.95310938e-01
-4.29207812e-08,1.95285938e-01
-4.28807812e-08,1.95317188e-01
-4.28407813e-08,1.95278125e-01
-4.28007812e-08,1.95331250e-01
-4.27607812e-08,1.95243750e-01
-4.27207812e-08,1.95509375e-01
-4.26807812e-08,1.95753125e-01
-4.26407812e-08,1.95671875e-01
-4.26007812e-08,1.95718750e-01
-4.25607813e-08,1.95685938e-01
-4.25207812e-08,1.95710938e-01
-4.24807812e-08,1.95690625e-01
-4.24407812e-08,1.95707813e-01
-4.24007812e-08,1.95693750e-01
-4.23607812e-08,1.95704688e-01
-4.23207812e-08,1.95695312e-01
-4.22807813e-08,1.95703125e-01
-4.22407812e-08,1.95696875e-01
-4.22007812e-08,1.95701563e-01
-4.21607812e-08,1.95698438e-01
-4.21207812e-08,1.95701563e-01
-4.20807812e-08,1.95700000e-01
-4.20407812e-08,1.95700000e-01
-4.20007813e-08,1.95701563e-01
-4.19607812e-08,1.95698438e-01
-4.19207812e-08,1.95701563e-01
-4.18807812e-08,1.95696875e-01
-4.18407812e-08,1.95704688e-01
-4.18007812e-08,1.95693750e-01
-4.17607812e-08,1.95707813e-01
-4.17207813e-08,1.95689063e-01
-4.16807812e-08,1.95717188e-01
-4.16407812e-08,1.95673438e-01
-4.16007812e-08,1.95751563e-01
-4.15607812e-08,1.95495313e-01
-4.15207812e-08,1.95242187e-01
-4.14807812e-08,1.95334375e-01
-4.14407812e-08,1.95275000e-01
-4.14007812e-08,1.95320313e-01
-4.13607812e-08,1.95282813e-01
-4.13207812e-08,1.95314062e-01
-4.12807812e-08,1.95287500e-01
-4.12407812e-08,1.95312500e-01
-4.12007813e-08,1.95289062e-01
-4.11607812e-08,1.95310938e-01
-4.11207812e-08,1.95290625e-01
-4.10807812e-08,1.95309375e-01
-4.10407812e-08,1.95290625e-01
-4.10007812e-08,1.95309375e-01
-4.09607812e-08,1.95290625e-01
-4.09207813e-08,1.95309375e-01
-4.08807812e-08,1.95292188e-01
-4.08407812e-08,1.95307813e-01
-4.08007812e-08,1.95292188e-01
-4.07607812e-08,1.95307813e-01
-4.07207812e-08,1.95292188e-01
-4.06807812e-08,1.95307813e-01
-4.06407813e-08,1.95292188e-01
-4.06007812e-08,1.95307813e-01
-4.05607812e-08,1.95292188e-01
-4.05207812e-08,1.95309375e-01
-4.04807812e-08,1.95290625e-01
-4.04407812e-08,1.95309375e-01
-4.04007812e-08,1.95290625e-01
-4.03607813e-08,1.95309375e-01
-4.03207812e-08,1.95289062e-01
-4.02807812e-08,1.95310938e-01
-4.02407812e-08,1.95289062e-01
-4.02007812e-08,1.95312500e-01
-4.01607812e-08,1.95285938e-01
-4.01207812e-08,1.95315625e-01
-4.00807813e-08,1.95282813e-01
-4.00407812e-08,1.95320313e-01
-4.00007812e-08,1.95275000e-01
-3.99607812e-08,1.95334375e-01
-3.99207812e-08,1.95240625e-01
-3.98807812e-08,1.95514063e-01
-3.98407812e-08,1.95748438e-01
-3.98007813e-08,1.95675000e-01
-3.97607812e-08,1.95715625e-01
-3.97207812e-08,1.95689063e-01
-3.96807812e-08,1.95706250e-01
-3.96407812e-08,1.95695312e-01
-3.96007812e-08,1.95703125e-01
-3.95607812e-08,1.95698438e-01
-3.95207813e-08,1.95700000e-01
-3.94807812e-08,1.95701563e-01
-3.94407812e-08,1.95698438e-01
-3.94007812e-08,1.95703125e-01
-3.93607812e-08,1.95695312e-01
-3.93207812e-08,1.95706250e-01
-3.92807813e-08,1.95692188e-01
-3.92407812e-08,1.95709375e-01
-3.92007812e-08,1.95687500e-01
-3.91607812e-08,1.95718750e-01
-3.91207812e-08,1.95671875e-01
-3.90807812e-08,1.95753125e-01
-3.90407812e-08,1.95493750e-01
-3.90007813e-08,1.95243750e-01
-3.89607812e-08,1.95331250e-01
-3.89207812e-08,1.95278125e-01
-3.88807812e-08,1.95317188e-01
-3.88407812e-08,1.95285938e-01
-3.88007812e-08,1.95312500e-01
-3.87607812e-08,1.95289062e-01
-3.87207813e-08,1.95309375e-01
-3.86807812e-08,1.95292188e-01
-3.86407812e-08,1.95307813e-01
-3.86007812e-08,1.95293750e-01
-3.85607812e-08,1.95306250e-01
-3.85207812e-08,1.95293750e-01
