trails/0ad503bf4c7e473689fcee6623a13564/aes_ch1_20250507104948201.csv

Model,MSO66B
Label,
Waveform Type,ANALOG
Horizontal Units,s
Sample Interval,4.00000000e-11
Record Length,10000
Zero Index,1599.13281250
Vertical Units,A
ANALOG_Thumbnail,
yOffset,1.84500000e-01
yPosition,8.40000000e-01

Labels,
TIME,CH1
-6.39653125e-08,1.89684375e-01
-6.39253125e-08,1.89715625e-01
-6.38853125e-08,1.89682813e-01
-6.38453125e-08,1.89718750e-01
-6.38053125e-08,1.89678125e-01
-6.37653125e-08,1.89726563e-01
-6.37253125e-08,1.89664063e-01
-6.36853125e-08,1.89759375e-01
-6.36453125e-08,1.89487500e-01
-6.36053125e-08,1.89250000e-01
-6.35653125e-08,1.89326563e-01
-6.35253125e-08,1.89282813e-01
-6.34853125e-08,1.89312500e-01
-6.34453125e-08,1.89290625e-01
-6.34053125e-08,1.89307813e-01
-6.33653125e-08,1.89293750e-01
-6.33253125e-08,1.89306250e-01
-6.32853125e-08,1.89295313e-01
-6.32453125e-08,1.89304688e-01
-6.32053125e-08,1.89295313e-01
-6.31653125e-08,1.89304688e-01
-6.31253125e-08,1.89295313e-01
-6.30853125e-08,1.89304688e-01
-6.30453125e-08,1.89295313e-01
-6.30053125e-08,1.89304688e-01
-6.29653125e-08,1.89295313e-01
-6.29253125e-08,1.89304688e-01
-6.28853125e-08,1.89295313e-01
-6.28453125e-08,1.89304688e-01
-6.28053125e-08,1.89293750e-01
-6.27653125e-08,1.89306250e-01
-6.27253125e-08,1.89292188e-01
-6.26853125e-08,1.89307813e-01
-6.26453125e-08,1.89290625e-01
-6.26053125e-08,1.89312500e-01
-6.25653125e-08,1.89284375e-01
-6.25253125e-08,1.89320313e-01
-6.24853125e-08,1.89270313e-01
-6.24453125e-08,1.89354688e-01
-6.24053125e-08,1.89092188e-01
-6.23653125e-08,1.88845313e-01
-6.23253125e-08,1.88929687e-01
-6.22853125e-08,1.88879688e-01
-6.22453125e-08,1.88915625e-01
-6.22053125e-08,1.88887500e-01
-6.21653125e-08,1.88909375e-01
-6.21253125e-08,1.88892188e-01
-6.20853125e-08,1.88906250e-01
-6.20453125e-08,1.88895312e-01
-6.20053125e-08,1.88903125e-01
-6.19653125e-08,1.88900000e-01
-6.19253125e-08,1.88896875e-01
-6.18853125e-08,1.88907812e-01
-6.18453125e-08,1.88882812e-01
-6.18053125e-08,1.88942187e-01
-6.17653125e-08,1.88706250e-01
-6.17253125e-08,1.88431250e-01
-6.16853125e-08,1.88546875e-01
-6.16453125e-08,1.88460938e-01
-6.16053125e-08,1.88535938e-01
-6.15653125e-08,1.88464063e-01
-6.15253125e-08,1.88539063e-01
-6.14853125e-08,1.88451563e-01
-6.14453125e-08,1.88571875e-01
-6.14053125e-08,1.88275000e-01
-6.13653125e-08,1.88064063e-01
-6.13253125e-08,1.88112500e-01
-6.12853125e-08,1.88098437e-01
-6.12453125e-08,1.88093750e-01
-6.12053125e-08,1.88114063e-01
-6.11653125e-08,1.88075000e-01
-6.11253125e-08,1.88151563e-01
-6.10853125e-08,1.87895312e-01
-6.10453125e-08,1.87643750e-01
-6.10053125e-08,1.87732813e-01
-6.09653125e-08,1.87678125e-01
-6.09253125e-08,1.87717187e-01
-6.08853125e-08,1.87685938e-01
-6.08453125e-08,1.87712500e-01
-6.08053125e-08,1.87689063e-01
-6.07653125e-08,1.87709375e-01
-6.07253125e-08,1.87690625e-01
-6.06853125e-08,1.87707813e-01
-6.06453125e-08,1.87692187e-01
-6.06053125e-08,1.87707813e-01
-6.05653125e-08,1.87693750e-01
-6.05253125e-08,1.87706250e-01
-6.04853125e-08,1.87693750e-01
-6.04453125e-08,1.87706250e-01
-6.04053125e-08,1.87693750e-01
-6.03653125e-08,1.87706250e-01
-6.03253125e-08,1.87693750e-01
-6.02853125e-08,1.87707813e-01
-6.02453125e-08,1.87692187e-01
-6.02053125e-08,1.87707813e-01
-6.01653125e-08,1.87690625e-01
-6.01253125e-08,1.87710938e-01
-6.00853125e-08,1.87687500e-01
-6.00453125e-08,1.87714063e-01
-6.00053125e-08,1.87681250e-01
-5.99653125e-08,1.87728125e-01
-5.99253125e-08,1.87646875e-01
-5.98853125e-08,1.87906250e-01
-5.98453125e-08,1.88157813e-01
-5.98053125e-08,1.88065625e-01
-5.97653125e-08,1.88126563e-01
-5.97253125e-08,1.88076563e-01
-5.96853125e-08,1.88123438e-01
-5.96453125e-08,1.88075000e-01
-5.96053125e-08,1.88132812e-01
-5.95653125e-08,1.88043750e-01
-5.95253125e-08,1.88307813e-01
-5.94853125e-08,1.88554688e-01
-5.94453125e-08,1.88467188e-01
-5.94053125e-08,1.88525000e-01
-5.93653125e-08,1.88476562e-01
-5.93253125e-08,1.88523438e-01
-5.92853125e-08,1.88473438e-01
-5.92453125e-08,1.88534375e-01
-5.92053125e-08,1.88442187e-01
-5.91653125e-08,1.88709375e-01
-5.91253125e-08,1.88953125e-01
-5.90853125e-08,1.88868750e-01
-5.90453125e-08,1.88923438e-01
-5.90053125e-08,1.88879688e-01
-5.89653125e-08,1.88920313e-01
-5.89253125e-08,1.88876563e-01
-5.88853125e-08,1.88929687e-01
-5.88453125e-08,1.88846875e-01
-5.88053125e-08,1.89104688e-01
-5.87653125e-08,1.89359375e-01
-5.87253125e-08,1.89264062e-01
-5.86853125e-08,1.89329688e-01
-5.86453125e-08,1.89273438e-01
-5.86053125e-08,1.89328125e-01
-5.85653125e-08,1.89268750e-01
-5.85253125e-08,1.89340625e-01
-5.84853125e-08,1.89235938e-01
-5.84453125e-08,1.89517188e-01
-5.84053125e-08,1.89745313e-01
-5.83653125e-08,1.89679687e-01
-5.83253125e-08,1.89710938e-01
-5.82853125e-08,1.89695313e-01
-5.82453125e-08,1.89700000e-01
-5.82053125e-08,1.89704687e-01
-5.81653125e-08,1.89689063e-01
-5.81253125e-08,1.89721875e-01
-5.80853125e-08,1.89651563e-01
-5.80453125e-08,1.89901563e-01
-5.80053125e-08,1.90160938e-01
-5.79653125e-08,1.90064063e-01
-5.79253125e-08,1.90126563e-01
-5.78853125e-08,1.90078125e-01
-5.78453125e-08,1.90118750e-01
-5.78053125e-08,1.90084375e-01
-5.77653125e-08,1.90114063e-01
-5.77253125e-08,1.90085937e-01
-5.76853125e-08,1.90112500e-01
-5.76453125e-08,1.90087500e-01
-5.76053125e-08,1.90110938e-01
-5.75653125e-08,1.90089063e-01
-5.75253125e-08,1.90110938e-01
-5.74853125e-08,1.90090625e-01
-5.74453125e-08,1.90109375e-01
-5.74053125e-08,1.90090625e-01
-5.73653125e-08,1.90109375e-01
-5.73253125e-08,1.90090625e-01
-5.72853125e-08,1.90109375e-01
-5.72453125e-08,1.90090625e-01
-5.72053125e-08,1.90109375e-01
-5.71653125e-08,1.90090625e-01
-5.71253125e-08,1.90109375e-01
-5.70853125e-08,1.90089063e-01
-5.70453125e-08,1.90110938e-01
-5.70053125e-08,1.90089063e-01
-5.69653125e-08,1.90112500e-01
-5.69253125e-08,1.90087500e-01
-5.68853125e-08,1.90114063e-01
-5.68453125e-08,1.90084375e-01
-5.68053125e-08,1.90117188e-01
-5.67653125e-08,1.90079688e-01
-5.67253125e-08,1.90126563e-01
-5.66853125e-08,1.90064063e-01
-5.66453125e-08,1.90160938e-01
-5.66053125e-08,1.89885938e-01
-5.65653125e-08,1.89651563e-01
-5.65253125e-08,1.89723438e-01
-5.64853125e-08,1.89685938e-01
-5.64453125e-08,1.89707813e-01
-5.64053125e-08,1.89695313e-01
-5.63653125e-08,1.89700000e-01
-5.63253125e-08,1.89703125e-01
-5.62853125e-08,1.89693750e-01
-5.62453125e-08,1.89712500e-01
-5.62053125e-08,1.89678125e-01
-5.61653125e-08,1.89748438e-01
-5.61253125e-08,1.89498438e-01
-5.60853125e-08,1.89239062e-01
-5.60453125e-08,1.89337500e-01
-5.60053125e-08,1.89271875e-01
-5.59653125e-08,1.89323437e-01
-5.59253125e-08,1.89279688e-01
-5.58853125e-08,1.89318750e-01
-5.58453125e-08,1.89281250e-01
-5.58053125e-08,1.89317188e-01
-5.57653125e-08,1.89282813e-01
-5.57253125e-08,1.89318750e-01
-5.56853125e-08,1.89281250e-01
-5.56453125e-08,1.89320313e-01
-5.56053125e-08,1.89276562e-01
-5.55653125e-08,1.89328125e-01
-5.55253125e-08,1.89260938e-01
-5.54853125e-08,1.89364063e-01
-5.54453125e-08,1.89082813e-01
-5.54053125e-08,1.88854688e-01
-5.53653125e-08,1.88920313e-01
-5.53253125e-08,1.88890625e-01
-5.52853125e-08,1.88903125e-01
-5.52453125e-08,1.88903125e-01
-5.52053125e-08,1.88890625e-01
-5.51653125e-08,1.88920313e-01
-5.51253125e-08,1.88853125e-01
-5.50853125e-08,1.89100000e-01
-5.50453125e-08,1.89360937e-01
-5.50053125e-08,1.89262500e-01
-5.49653125e-08,1.89328125e-01
-5.49253125e-08,1.89276562e-01
-5.48853125e-08,1.89320313e-01
-5.48453125e-08,1.89282813e-01
-5.48053125e-08,1.89317188e-01
-5.47653125e-08,1.89284375e-01
-5.47253125e-08,1.89315625e-01
-5.46853125e-08,1.89284375e-01
-5.46453125e-08,1.89314063e-01
-5.46053125e-08,1.89284375e-01
-5.45653125e-08,1.89315625e-01
-5.45253125e-08,1.89284375e-01
-5.44853125e-08,1.89317188e-01
-5.44453125e-08,1.89281250e-01
-5.44053125e-08,1.89321875e-01
-5.43653125e-08,1.89273438e-01
-5.43253125e-08,1.89335937e-01
-5.42853125e-08,1.89239062e-01
-5.42453125e-08,1.89514062e-01
-5.42053125e-08,1.89748438e-01
-5.41653125e-08,1.89676563e-01
-5.41253125e-08,1.89714063e-01
-5.40853125e-08,1.89690625e-01
-5.40453125e-08,1.89706250e-01
-5.40053125e-08,1.89695313e-01
-5.39653125e-08,1.89703125e-01
-5.39253125e-08,1.89698438e-01
-5.38853125e-08,1.89700000e-01
-5.38453125e-08,1.89701563e-01
-5.38053125e-08,1.89698438e-01
-5.37653125e-08,1.89703125e-01
-5.37253125e-08,1.89695313e-01
-5.36853125e-08,1.89706250e-01
-5.36453125e-08,1.89692187e-01
-5.36053125e-08,1.89709375e-01
-5.35653125e-08,1.89687500e-01
-5.35253125e-08,1.89718750e-01
-5.34853125e-08,1.89671875e-01
-5.34453125e-08,1.89753125e-01
-5.34053125e-08,1.89493750e-01
-5.33653125e-08,1.89243750e-01
-5.33253125e-08,1.89332813e-01
-5.32853125e-08,1.89276562e-01
-5.32453125e-08,1.89317188e-01
-5.32053125e-08,1.89285938e-01
-5.31653125e-08,1.89312500e-01
-5.31253125e-08,1.89289062e-01
-5.30853125e-08,1.89309375e-01
-5.30453125e-08,1.89290625e-01
-5.30053125e-08,1.89307813e-01
-5.29653125e-08,1.89292188e-01
-5.29253125e-08,1.89307813e-01
-5.28853125e-08,1.89292188e-01
-5.28453125e-08,1.89306250e-01
-5.28053125e-08,1.89293750e-01
-5.27653125e-08,1.89306250e-01
-5.27253125e-08,1.89293750e-01
-5.26853125e-08,1.89306250e-01
-5.26453125e-08,1.89293750e-01
-5.26053125e-08,1.89306250e-01
-5.25653125e-08,1.89293750e-01
-5.25253125e-08,1.89304688e-01
-5.24853125e-08,1.89295313e-01
-5.24453125e-08,1.89304688e-01
-5.24053125e-08,1.89295313e-01
-5.23653125e-08,1.89304688e-01
-5.23253125e-08,1.89295313e-01
-5.22853125e-08,1.89304688e-01
-5.22453125e-08,1.89295313e-01
-5.22053125e-08,1.89304688e-01
-5.21653125e-08,1.89295313e-01
-5.21253125e-08,1.89304688e-01
-5.20853125e-08,1.89295313e-01
-5.20453125e-08,1.89304688e-01
-5.20053125e-08,1.89293750e-01
-5.19653125e-08,1.89306250e-01
-5.19253125e-08,1.89293750e-01
-5.18853125e-08,1.89306250e-01
-5.18453125e-08,1.89293750e-01
-5.18053125e-08,1.89306250e-01
-5.17653125e-08,1.89293750e-01
-5.17253125e-08,1.89306250e-01
-5.16853125e-08,1.89292188e-01
-5.16453125e-08,1.89307813e-01
-5.16053125e-08,1.89292188e-01
-5.15653125e-08,1.89307813e-01
-5.15253125e-08,1.89290625e-01
-5.14853125e-08,1.89309375e-01
-5.14453125e-08,1.89289062e-01
-5.14053125e-08,1.89310937e-01
-5.13653125e-08,1.89287500e-01
-5.13253125e-08,1.89315625e-01
-5.12853125e-08,1.89281250e-01
-5.12453125e-08,1.89323437e-01
-5.12053125e-08,1.89267188e-01
-5.11653125e-08,1.89357813e-01
-5.11253125e-08,1.89089063e-01
-5.10853125e-08,1.88850000e-01
-5.10453125e-08,1.88926563e-01
-5.10053125e-08,1.88882812e-01
-5.09653125e-08,1.88912500e-01
-5.09253125e-08,1.88890625e-01
-5.08853125e-08,1.88906250e-01
-5.08453125e-08,1.88895312e-01
-5.08053125e-08,1.88903125e-01
-5.07653125e-08,1.88898438e-01
-5.07253125e-08,1.88901563e-01
-5.06853125e-08,1.88900000e-01
-5.06453125e-08,1.88898438e-01
-5.06053125e-08,1.88901563e-01
-5.05653125e-08,1.88896875e-01
-5.05253125e-08,1.88904688e-01
-5.04853125e-08,1.88892188e-01
-5.04453125e-08,1.88910938e-01
-5.04053125e-08,1.88884375e-01
-5.03653125e-08,1.88925000e-01
-5.03253125e-08,1.88850000e-01
-5.02853125e-08,1.89103125e-01
-5.02453125e-08,1.89359375e-01
-5.02053125e-08,1.89265625e-01
-5.01653125e-08,1.89325000e-01
-5.01253125e-08,1.89279688e-01
-5.00853125e-08,1.89318750e-01
-5.00453125e-08,1.89282813e-01
-5.00053125e-08,1.89315625e-01
-4.99653125e-08,1.89284375e-01
-4.99253125e-08,1.89315625e-01
-4.98853125e-08,1.89282813e-01
-4.98453125e-08,1.89318750e-01
-4.98053125e-08,1.89276562e-01
-4.97653125e-08,1.89332813e-01
-4.97253125e-08,1.89243750e-01
-4.96853125e-08,1.89509375e-01
-4.96453125e-08,1.89754688e-01
-4.96053125e-08,1.89668750e-01
-4.95653125e-08,1.89723438e-01
-4.95253125e-08,1.89681250e-01
-4.94853125e-08,1.89717187e-01
-4.94453125e-08,1.89681250e-01
-4.94053125e-08,1.89720313e-01
-4.93653125e-08,1.89676563e-01
-4.93253125e-08,1.89732813e-01
-4.92853125e-08,1.89643750e-01
-4.92453125e-08,1.89909375e-01
-4.92053125e-08,1.90153125e-01
-4.91653125e-08,1.90070313e-01
-4.91253125e-08,1.90120312e-01
-4.90853125e-08,1.90084375e-01
-4.90453125e-08,1.90112500e-01
-4.90053125e-08,1.90089063e-01
-4.89653125e-08,1.90109375e-01
-4.89253125e-08,1.90090625e-01
-4.88853125e-08,1.90107813e-01
-4.88453125e-08,1.90092188e-01
-4.88053125e-08,1.90107813e-01
-4.87653125e-08,1.90092188e-01
-4.87253125e-08,1.90107813e-01
-4.86853125e-08,1.90092188e-01
-4.86453125e-08,1.90107813e-01
-4.86053125e-08,1.90092188e-01
-4.85653125e-08,1.90107813e-01
-4.85253125e-08,1.90092188e-01
-4.84853125e-08,1.90109375e-01
-4.84453125e-08,1.90089063e-01
-4.84053125e-08,1.90112500e-01
-4.83653125e-08,1.90085937e-01
-4.83253125e-08,1.90118750e-01
-4.82853125e-08,1.90071875e-01
-4.82453125e-08,1.90151563e-01
-4.82053125e-08,1.89895312e-01
-4.81653125e-08,1.89640625e-01
-4.81253125e-08,1.89737500e-01
-4.80853125e-08,1.89670312e-01
-4.80453125e-08,1.89729688e-01
-4.80053125e-08,1.89664063e-01
-4.79653125e-08,1.89757813e-01
-4.79253125e-08,1.89492188e-01
-4.78853125e-08,1.89242188e-01
-4.78453125e-08,1.89339063e-01
-4.78053125e-08,1.89260938e-01
-4.77653125e-08,1.89357813e-01
-4.77253125e-08,1.89092188e-01
-4.76853125e-08,1.88840625e-01
-4.76453125e-08,1.88942187e-01
-4.76053125e-08,1.88857812e-01
-4.75653125e-08,1.88960938e-01
-4.75253125e-08,1.88689063e-01
-4.74853125e-08,1.88445313e-01
-4.74453125e-08,1.88537500e-01
-4.74053125e-08,1.88464063e-01
-4.73653125e-08,1.88554688e-01
-4.73253125e-08,1.88296875e-01
-4.72853125e-08,1.88035937e-01
-4.72453125e-08,1.88146875e-01
-4.72053125e-08,1.88051563e-01
-4.71653125e-08,1.88170313e-01
-4.71253125e-08,1.87878125e-01
-4.70853125e-08,1.87659375e-01
-4.70453125e-08,1.87715625e-01
-4.70053125e-08,1.87698438e-01
-4.69653125e-08,1.87689063e-01
-4.69253125e-08,1.87737500e-01
-4.68853125e-08,1.87507813e-01
-4.68453125e-08,1.87229688e-01
-4.68053125e-08,1.87346875e-01
-4.67653125e-08,1.87262500e-01
-4.67253125e-08,1.87334375e-01
-4.66853125e-08,1.87265625e-01
-4.66453125e-08,1.87337500e-01
-4.66053125e-08,1.87254688e-01
-4.65653125e-08,1.87368750e-01
-4.65253125e-08,1.87079688e-01
-4.64853125e-08,1.86857812e-01
-4.64453125e-08,1.86918750e-01
-4.64053125e-08,1.86889063e-01
-4.63653125e-08,1.86906250e-01
-4.63253125e-08,1.86896875e-01
-4.62853125e-08,1.86901563e-01
-4.62453125e-08,1.86900000e-01
-4.62053125e-08,1.86900000e-01
-4.61653125e-08,1.86901563e-01
-4.61253125e-08,1.86898438e-01
-4.60853125e-08,1.86903125e-01
-4.60453125e-08,1.86896875e-01
-4.60053125e-08,1.86903125e-01
-4.59653125e-08,1.86896875e-01
-4.59253125e-08,1.86904687e-01
-4.58853125e-08,1.86895313e-01
-4.58453125e-08,1.86904687e-01
-4.58053125e-08,1.86895313e-01
-4.57653125e-08,1.86906250e-01
-4.57253125e-08,1.86893750e-01
-4.56853125e-08,1.86906250e-01
-4.56453125e-08,1.86893750e-01
-4.56053125e-08,1.86907812e-01
-4.55653125e-08,1.86892188e-01
-4.55253125e-08,1.86909375e-01
-4.54853125e-08,1.86889063e-01
-4.54453125e-08,1.86912500e-01
-4.54053125e-08,1.86885938e-01
-4.53653125e-08,1.86917187e-01
-4.53253125e-08,1.86878125e-01
-4.52853125e-08,1.86931250e-01
-4.52453125e-08,1.86843750e-01
-4.52053125e-08,1.87109375e-01
-4.51653125e-08,1.87353125e-01
-4.51253125e-08,1.87268750e-01
-4.50853125e-08,1.87321875e-01
-4.50453125e-08,1.87281250e-01
-4.50053125e-08,1.87317188e-01
-4.49653125e-08,1.87279688e-01
-4.49253125e-08,1.87326563e-01
-4.48853125e-08,1.87250000e-01
-4.48453125e-08,1.87500000e-01
-4.48053125e-08,1.87765625e-01
-4.47653125e-08,1.87656250e-01
-4.47253125e-08,1.87739062e-01
-4.46853125e-08,1.87659375e-01
-4.46453125e-08,1.87748438e-01
-4.46053125e-08,1.87626563e-01
-4.45653125e-08,1.87928125e-01
-4.45253125e-08,1.88132812e-01
-4.44853125e-08,1.88093750e-01
-4.44453125e-08,1.88092188e-01
-4.44053125e-08,1.88123438e-01
-4.43653125e-08,1.88046875e-01
-4.43253125e-08,1.88309375e-01
-4.42853125e-08,1.88550000e-01
-4.42453125e-08,1.88478125e-01
-4.42053125e-08,1.88506250e-01
-4.41653125e-08,1.88509375e-01
-4.41253125e-08,1.88460938e-01
-4.40853125e-08,1.88695313e-01
-4.40453125e-08,1.88964063e-01
-4.40053125e-08,1.88864063e-01
-4.39653125e-08,1.88921875e-01
-4.39253125e-08,1.88893750e-01
-4.38853125e-08,1.88879688e-01
-4.38453125e-08,1.89075000e-01
-4.38053125e-08,1.89385938e-01
-4.37653125e-08,1.89235938e-01
-4.37253125e-08,1.89356250e-01
-4.36853125e-08,1.89243750e-01
-4.36453125e-08,1.89362500e-01
-4.36053125e-08,1.89215625e-01
-4.35653125e-08,1.89535938e-01
-4.35253125e-08,1.89726563e-01
-4.34853125e-08,1.89696875e-01
-4.34453125e-08,1.89693750e-01
-4.34053125e-08,1.89710938e-01
-4.33653125e-08,1.89684375e-01
-4.33253125e-08,1.89720313e-01
-4.32853125e-08,1.89673438e-01
-4.32453125e-08,1.89735938e-01
-4.32053125e-08,1.89639063e-01
-4.31653125e-08,1.89915625e-01
-4.31253125e-08,1.90146875e-01
-4.30853125e-08,1.90076563e-01
-4.30453125e-08,1.90114063e-01
-4.30053125e-08,1.90092188e-01
-4.29653125e-08,1.90104688e-01
-4.29253125e-08,1.90096875e-01
-4.28853125e-08,1.90101563e-01
-4.28453125e-08,1.90100000e-01
-4.28053125e-08,1.90100000e-01
-4.27653125e-08,1.90101563e-01
-4.27253125e-08,1.90098437e-01
-4.26853125e-08,1.90103125e-01
-4.26453125e-08,1.90096875e-01
-4.26053125e-08,1.90103125e-01
-4.25653125e-08,1.90095313e-01
-4.25253125e-08,1.90104688e-01
-4.24853125e-08,1.90095313e-01
-4.24453125e-08,1.90104688e-01
-4.24053125e-08,1.90093750e-01
-4.23653125e-08,1.90106250e-01
-4.23253125e-08,1.90093750e-01
-4.22853125e-08,1.90107813e-01
-4.22453125e-08,1.90092188e-01
-4.22053125e-08,1.90109375e-01
-4.21653125e-08,1.90090625e-01
-4.21253125e-08,1.90110938e-01
-4.20853125e-08,1.90087500e-01
-4.20453125e-08,1.90114063e-01
-4.20053125e-08,1.90081250e-01
-4.19653125e-08,1.90123438e-01
-4.19253125e-08,1.90067188e-01
-4.18853125e-08,1.90157812e-01
-4.18453125e-08,1.89889063e-01
-4.18053125e-08,1.89648438e-01
-4.17653125e-08,1.89726563e-01
-4.17253125e-08,1.89682813e-01
-4.16853125e-08,1.89712500e-01
-4.16453125e-08,1.89690625e-01
-4.16053125e-08,1.89707813e-01
-4.15653125e-08,1.89693750e-01
-4.15253125e-08,1.89704687e-01
-4.14853125e-08,1.89696875e-01
-4.14453125e-08,1.89703125e-01
-4.14053125e-08,1.89696875e-01
-4.13653125e-08,1.89701563e-01
-4.13253125e-08,1.89698438e-01
-4.12853125e-08,1.89701563e-01
-4.12453125e-08,1.89700000e-01
-4.12053125e-08,1.89700000e-01
-4.11653125e-08,1.89700000e-01
-4.11253125e-08,1.89700000e-01
-4.10853125e-08,1.89701563e-01
-4.10453125e-08,1.89698438e-01
-4.10053125e-08,1.89701563e-01
-4.09653125e-08,1.89698438e-01
-4.09253125e-08,1.89703125e-01
-4.08853125e-08,1.89696875e-01
-4.08453125e-08,1.89703125e-01
-4.08053125e-08,1.89696875e-01
-4.07653125e-08,1.89704687e-01
-4.07253125e-08,1.89695313e-01
-4.06853125e-08,1.89704687e-01
-4.06453125e-08,1.89693750e-01
-4.06053125e-08,1.89706250e-01
-4.05653125e-08,1.89692187e-01
-4.05253125e-08,1.89709375e-01
-4.04853125e-08,1.89689063e-01
-4.04453125e-08,1.89712500e-01
-4.04053125e-08,1.89684375e-01
-4.03653125e-08,1.89720313e-01
-4.03253125e-08,1.89668750e-01
-4.02853125e-08,1.89756250e-01
-4.02453125e-08,1.89490625e-01
-4.02053125e-08,1.89246875e-01
-4.01653125e-08,1.89329688e-01
-4.01253125e-08,1.89279688e-01
-4.00853125e-08,1.89314063e-01
-4.00453125e-08,1.89289062e-01
-4.00053125e-08,1.89309375e-01
-3.99653125e-08,1.89292188e-01
-3.99253125e-08,1.89306250e-01
-3.98853125e-08,1.89295313e-01
-3.98453125e-08,1.89304688e-01
-3.98053125e-08,1.89296875e-01
-3.97653125e-08,1.89303125e-01
-3.97253125e-08,1.89296875e-01
-3.96853125e-08,1.89301563e-01
-3.96453125e-08,1.89298437e-01
-3.96053125e-08,1.89301563e-01
-3.95653125e-08,1.89300000e-01
-3.95253125e-08,1.89300000e-01
-3.94853125e-08,1.89300000e-01
-3.94453125e-08,1.89298437e-01
-3.94053125e-08,1.89301563e-01
-3.93653125e-08,1.89296875e-01
-3.93253125e-08,1.89304688e-01
-3.92853125e-08,1.89295313e-01
-3.92453125e-08,1.89306250e-01
-3.92053125e-08,1.89290625e-01
-3.91653125e-08,1.89312500e-01
-3.91253125e-08,1.89282813e-01
-3.90853125e-08,1.89326563e-01
-3.90453125e-08,1.89248438e-01
-3.90053125e-08,1.89504688e-01
-3.89653125e-08,1.89756250e-01
-3.89253125e-08,1.89667188e-01
-3.88853125e-08,1.89723438e-01
-3.88453125e-08,1.89681250e-01
-3.88053125e-08,1.89715625e-01
-3.87653125e-08,1.89685938e-01
-3.87253125e-08,1.89712500e-01
-3.86853125e-08,1.89689063e-01
-3.86453125e-08,1.89709375e-01
-3.86053125e-08,1.89690625e-01
-3.85653125e-08,1.89709375e-01
-3.85253125e-08,1.89692187e-01
