trails/0ad503bf4c7e473689fcee6623a13564/aes_ch1_20250507105312361.csv

Model,MSO66B
Label,
Waveform Type,ANALOG
Horizontal Units,s
Sample Interval,4.00000000e-11
Record Length,10000
Zero Index,1599.13281250
Vertical Units,A
ANALOG_Thumbnail,
yOffset,1.84500000e-01
yPosition,8.40000000e-01

Labels,
TIME,CH1
-6.39653125e-08,1.87254688e-01
-6.39253125e-08,1.87370312e-01
-6.38853125e-08,1.87076563e-01
-6.38453125e-08,1.86860938e-01
-6.38053125e-08,1.86915625e-01
-6.37653125e-08,1.86895313e-01
-6.37253125e-08,1.86898438e-01
-6.36853125e-08,1.86906250e-01
-6.36453125e-08,1.86889063e-01
-6.36053125e-08,1.86917187e-01
-6.35653125e-08,1.86871875e-01
-6.35253125e-08,1.86953125e-01
-6.34853125e-08,1.86693750e-01
-6.34453125e-08,1.86445313e-01
-6.34053125e-08,1.86531250e-01
-6.33653125e-08,1.86478125e-01
-6.33253125e-08,1.86515625e-01
-6.32853125e-08,1.86487500e-01
-6.32453125e-08,1.86510938e-01
-6.32053125e-08,1.86490625e-01
-6.31653125e-08,1.86507813e-01
-6.31253125e-08,1.86492188e-01
-6.30853125e-08,1.86506250e-01
-6.30453125e-08,1.86493750e-01
-6.30053125e-08,1.86506250e-01
-6.29653125e-08,1.86493750e-01
-6.29253125e-08,1.86506250e-01
-6.28853125e-08,1.86493750e-01
-6.28453125e-08,1.86506250e-01
-6.28053125e-08,1.86493750e-01
-6.27653125e-08,1.86506250e-01
-6.27253125e-08,1.86492188e-01
-6.26853125e-08,1.86509375e-01
-6.26453125e-08,1.86489062e-01
-6.26053125e-08,1.86512500e-01
-6.25653125e-08,1.86482813e-01
-6.25253125e-08,1.86526562e-01
-6.24853125e-08,1.86448438e-01
-6.24453125e-08,1.86703125e-01
-6.24053125e-08,1.86959375e-01
-6.23653125e-08,1.86864063e-01
-6.23253125e-08,1.86928125e-01
-6.22853125e-08,1.86876563e-01
-6.22453125e-08,1.86921875e-01
-6.22053125e-08,1.86878125e-01
-6.21653125e-08,1.86923438e-01
-6.21253125e-08,1.86873438e-01
-6.20853125e-08,1.86935938e-01
-6.20453125e-08,1.86840625e-01
-6.20053125e-08,1.87112500e-01
-6.19653125e-08,1.87351563e-01
-6.19253125e-08,1.87271875e-01
-6.18853125e-08,1.87318750e-01
-6.18453125e-08,1.87284375e-01
-6.18053125e-08,1.87314063e-01
-6.17653125e-08,1.87285937e-01
-6.17253125e-08,1.87315625e-01
-6.16853125e-08,1.87281250e-01
-6.16453125e-08,1.87328125e-01
-6.16053125e-08,1.87248438e-01
-6.15653125e-08,1.87503125e-01
-6.15253125e-08,1.87759375e-01
-6.14853125e-08,1.87662500e-01
-6.14453125e-08,1.87728125e-01
-6.14053125e-08,1.87675000e-01
-6.13653125e-08,1.87723438e-01
-6.13253125e-08,1.87675000e-01
-6.12853125e-08,1.87726562e-01
-6.12453125e-08,1.87668750e-01
-6.12053125e-08,1.87739062e-01
-6.11653125e-08,1.87635938e-01
-6.11253125e-08,1.87917187e-01
-6.10853125e-08,1.88145312e-01
-6.10453125e-08,1.88078125e-01
-6.10053125e-08,1.88112500e-01
-6.09653125e-08,1.88092188e-01
-6.09253125e-08,1.88104688e-01
-6.08853125e-08,1.88098437e-01
-6.08453125e-08,1.88100000e-01
-6.08053125e-08,1.88101563e-01
-6.07653125e-08,1.88096875e-01
-6.07253125e-08,1.88103125e-01
-6.06853125e-08,1.88095313e-01
-6.06453125e-08,1.88106250e-01
-6.06053125e-08,1.88092188e-01
-6.05653125e-08,1.88109375e-01
-6.05253125e-08,1.88087500e-01
-6.04853125e-08,1.88115625e-01
-6.04453125e-08,1.88078125e-01
-6.04053125e-08,1.88131250e-01
-6.03653125e-08,1.88042188e-01
-6.03253125e-08,1.88310937e-01
-6.02853125e-08,1.88550000e-01
-6.02453125e-08,1.88473438e-01
-6.02053125e-08,1.88515625e-01
-6.01653125e-08,1.88490625e-01
-6.01253125e-08,1.88504688e-01
-6.00853125e-08,1.88498438e-01
-6.00453125e-08,1.88496875e-01
-6.00053125e-08,1.88509375e-01
-5.99653125e-08,1.88479687e-01
-5.99253125e-08,1.88545313e-01
-5.98853125e-08,1.88300000e-01
-5.98453125e-08,1.88037500e-01
-5.98053125e-08,1.88137500e-01
-5.97653125e-08,1.88071875e-01
-5.97253125e-08,1.88123438e-01
-5.96853125e-08,1.88079688e-01
-5.96453125e-08,1.88117188e-01
-5.96053125e-08,1.88084375e-01
-5.95653125e-08,1.88115625e-01
-5.95253125e-08,1.88085937e-01
-5.94853125e-08,1.88114063e-01
-5.94453125e-08,1.88087500e-01
-5.94053125e-08,1.88112500e-01
-5.93653125e-08,1.88087500e-01
-5.93253125e-08,1.88112500e-01
-5.92853125e-08,1.88087500e-01
-5.92453125e-08,1.88110938e-01
-5.92053125e-08,1.88087500e-01
-5.91653125e-08,1.88112500e-01
-5.91253125e-08,1.88087500e-01
-5.90853125e-08,1.88112500e-01
-5.90453125e-08,1.88087500e-01
-5.90053125e-08,1.88112500e-01
-5.89653125e-08,1.88085937e-01
-5.89253125e-08,1.88115625e-01
-5.88853125e-08,1.88084375e-01
-5.88453125e-08,1.88118750e-01
-5.88053125e-08,1.88078125e-01
-5.87653125e-08,1.88126563e-01
-5.87253125e-08,1.88064063e-01
-5.86853125e-08,1.88160938e-01
-5.86453125e-08,1.87885938e-01
-5.86053125e-08,1.87651563e-01
-5.85653125e-08,1.87725000e-01
-5.85253125e-08,1.87684375e-01
-5.84853125e-08,1.87709375e-01
-5.84453125e-08,1.87693750e-01
-5.84053125e-08,1.87704687e-01
-5.83653125e-08,1.87696875e-01
-5.83253125e-08,1.87701563e-01
-5.82853125e-08,1.87700000e-01
-5.82453125e-08,1.87698438e-01
-5.82053125e-08,1.87701563e-01
-5.81653125e-08,1.87696875e-01
-5.81253125e-08,1.87704687e-01
-5.80853125e-08,1.87693750e-01
-5.80453125e-08,1.87707813e-01
-5.80053125e-08,1.87687500e-01
-5.79653125e-08,1.87717187e-01
-5.79253125e-08,1.87673438e-01
-5.78853125e-08,1.87751562e-01
-5.78453125e-08,1.87495313e-01
-5.78053125e-08,1.87242188e-01
-5.77653125e-08,1.87334375e-01
-5.77253125e-08,1.87275000e-01
-5.76853125e-08,1.87320313e-01
-5.76453125e-08,1.87282813e-01
-5.76053125e-08,1.87315625e-01
-5.75653125e-08,1.87284375e-01
-5.75253125e-08,1.87314063e-01
-5.74853125e-08,1.87284375e-01
-5.74453125e-08,1.87315625e-01
-5.74053125e-08,1.87282813e-01
-5.73653125e-08,1.87318750e-01
-5.73253125e-08,1.87276563e-01
-5.72853125e-08,1.87332813e-01
-5.72453125e-08,1.87242188e-01
-5.72053125e-08,1.87509375e-01
-5.71653125e-08,1.87753125e-01
-5.71253125e-08,1.87670313e-01
-5.70853125e-08,1.87720313e-01
-5.70453125e-08,1.87682813e-01
-5.70053125e-08,1.87714063e-01
-5.69653125e-08,1.87685938e-01
-5.69253125e-08,1.87714063e-01
-5.68853125e-08,1.87685938e-01
-5.68453125e-08,1.87715625e-01
-5.68053125e-08,1.87679687e-01
-5.67653125e-08,1.87729688e-01
-5.67253125e-08,1.87646875e-01
-5.66853125e-08,1.87906250e-01
-5.66453125e-08,1.88157813e-01
-5.66053125e-08,1.88065625e-01
-5.65653125e-08,1.88126563e-01
-5.65253125e-08,1.88078125e-01
-5.64853125e-08,1.88120312e-01
-5.64453125e-08,1.88079688e-01
-5.64053125e-08,1.88123438e-01
-5.63653125e-08,1.88073437e-01
-5.63253125e-08,1.88135938e-01
-5.62853125e-08,1.88040625e-01
-5.62453125e-08,1.88312500e-01
-5.62053125e-08,1.88550000e-01
-5.61653125e-08,1.88473438e-01
-5.61253125e-08,1.88517188e-01
-5.60853125e-08,1.88487500e-01
-5.60453125e-08,1.88509375e-01
-5.60053125e-08,1.88492188e-01
-5.59653125e-08,1.88506250e-01
-5.59253125e-08,1.88493750e-01
-5.58853125e-08,1.88504688e-01
-5.58453125e-08,1.88495313e-01
-5.58053125e-08,1.88504688e-01
-5.57653125e-08,1.88496875e-01
-5.57253125e-08,1.88503125e-01
-5.56853125e-08,1.88496875e-01
-5.56453125e-08,1.88503125e-01
-5.56053125e-08,1.88496875e-01
-5.55653125e-08,1.88503125e-01
-5.55253125e-08,1.88496875e-01
-5.54853125e-08,1.88503125e-01
-5.54453125e-08,1.88498438e-01
-5.54053125e-08,1.88501562e-01
-5.53653125e-08,1.88498438e-01
-5.53253125e-08,1.88501562e-01
-5.52853125e-08,1.88498438e-01
-5.52453125e-08,1.88501562e-01
-5.52053125e-08,1.88498438e-01
-5.51653125e-08,1.88501562e-01
-5.51253125e-08,1.88498438e-01
-5.50853125e-08,1.88501562e-01
-5.50453125e-08,1.88498438e-01
-5.50053125e-08,1.88501562e-01
-5.49653125e-08,1.88498438e-01
-5.49253125e-08,1.88501562e-01
-5.48853125e-08,1.88498438e-01
-5.48453125e-08,1.88501562e-01
-5.48053125e-08,1.88498438e-01
-5.47653125e-08,1.88501562e-01
-5.47253125e-08,1.88498438e-01
-5.46853125e-08,1.88501562e-01
-5.46453125e-08,1.88498438e-01
-5.46053125e-08,1.88501562e-01
-5.45653125e-08,1.88498438e-01
-5.45253125e-08,1.88501562e-01
-5.44853125e-08,1.88498438e-01
-5.44453125e-08,1.88501562e-01
-5.44053125e-08,1.88498438e-01
-5.43653125e-08,1.88501562e-01
-5.43253125e-08,1.88498438e-01
-5.42853125e-08,1.88501562e-01
-5.42453125e-08,1.88498438e-01
-5.42053125e-08,1.88501562e-01
-5.41653125e-08,1.88498438e-01
-5.41253125e-08,1.88501562e-01
-5.40853125e-08,1.88498438e-01
-5.40453125e-08,1.88501562e-01
-5.40053125e-08,1.88498438e-01
-5.39653125e-08,1.88501562e-01
-5.39253125e-08,1.88498438e-01
-5.38853125e-08,1.88501562e-01
-5.38453125e-08,1.88498438e-01
-5.38053125e-08,1.88503125e-01
-5.37653125e-08,1.88496875e-01
-5.37253125e-08,1.88503125e-01
-5.36853125e-08,1.88496875e-01
-5.36453125e-08,1.88503125e-01
-5.36053125e-08,1.88496875e-01
-5.35653125e-08,1.88503125e-01
-5.35253125e-08,1.88496875e-01
-5.34853125e-08,1.88503125e-01
-5.34453125e-08,1.88495313e-01
-5.34053125e-08,1.88504688e-01
-5.33653125e-08,1.88495313e-01
-5.33253125e-08,1.88504688e-01
-5.32853125e-08,1.88493750e-01
-5.32453125e-08,1.88506250e-01
-5.32053125e-08,1.88492188e-01
-5.31653125e-08,1.88507813e-01
-5.31253125e-08,1.88490625e-01
-5.30853125e-08,1.88512500e-01
-5.30453125e-08,1.88484375e-01
-5.30053125e-08,1.88520313e-01
-5.29653125e-08,1.88470313e-01
-5.29253125e-08,1.88554688e-01
-5.28853125e-08,1.88292188e-01
-5.28453125e-08,1.88045313e-01
-5.28053125e-08,1.88131250e-01
-5.27653125e-08,1.88078125e-01
-5.27253125e-08,1.88117188e-01
-5.26853125e-08,1.88085937e-01
-5.26453125e-08,1.88110938e-01
-5.26053125e-08,1.88089063e-01
-5.25653125e-08,1.88109375e-01
-5.25253125e-08,1.88092188e-01
-5.24853125e-08,1.88107812e-01
-5.24453125e-08,1.88092188e-01
-5.24053125e-08,1.88106250e-01
-5.23653125e-08,1.88093750e-01
-5.23253125e-08,1.88106250e-01
-5.22853125e-08,1.88093750e-01
-5.22453125e-08,1.88106250e-01
-5.22053125e-08,1.88095313e-01
-5.21653125e-08,1.88104688e-01
-5.21253125e-08,1.88095313e-01
-5.20853125e-08,1.88104688e-01
-5.20453125e-08,1.88095313e-01
-5.20053125e-08,1.88104688e-01
-5.19653125e-08,1.88095313e-01
-5.19253125e-08,1.88104688e-01
-5.18853125e-08,1.88095313e-01
-5.18453125e-08,1.88104688e-01
-5.18053125e-08,1.88095313e-01
-5.17653125e-08,1.88104688e-01
-5.17253125e-08,1.88095313e-01
-5.16853125e-08,1.88104688e-01
-5.16453125e-08,1.88095313e-01
-5.16053125e-08,1.88104688e-01
-5.15653125e-08,1.88095313e-01
-5.15253125e-08,1.88104688e-01
-5.14853125e-08,1.88095313e-01
-5.14453125e-08,1.88104688e-01
-5.14053125e-08,1.88095313e-01
-5.13653125e-08,1.88104688e-01
-5.13253125e-08,1.88095313e-01
-5.12853125e-08,1.88104688e-01
-5.12453125e-08,1.88093750e-01
-5.12053125e-08,1.88106250e-01
-5.11653125e-08,1.88093750e-01
-5.11253125e-08,1.88106250e-01
-5.10853125e-08,1.88093750e-01
-5.10453125e-08,1.88106250e-01
-5.10053125e-08,1.88092188e-01
-5.09653125e-08,1.88107812e-01
-5.09253125e-08,1.88092188e-01
-5.08853125e-08,1.88109375e-01
-5.08453125e-08,1.88090625e-01
-5.08053125e-08,1.88110938e-01
-5.07653125e-08,1.88089063e-01
-5.07253125e-08,1.88112500e-01
-5.06853125e-08,1.88085937e-01
-5.06453125e-08,1.88115625e-01
-5.06053125e-08,1.88079688e-01
-5.05653125e-08,1.88125000e-01
-5.05253125e-08,1.88065625e-01
-5.04853125e-08,1.88159375e-01
-5.04453125e-08,1.87885938e-01
-5.04053125e-08,1.87651563e-01
-5.03653125e-08,1.87723438e-01
-5.03253125e-08,1.87685938e-01
-5.02853125e-08,1.87707813e-01
-5.02453125e-08,1.87696875e-01
-5.02053125e-08,1.87700000e-01
-5.01653125e-08,1.87703125e-01
-5.01253125e-08,1.87692187e-01
-5.00853125e-08,1.87714063e-01
-5.00453125e-08,1.87676563e-01
-5.00053125e-08,1.87748438e-01
-4.99653125e-08,1.87496875e-01
-4.99253125e-08,1.87240625e-01
-4.98853125e-08,1.87334375e-01
-4.98453125e-08,1.87275000e-01
-4.98053125e-08,1.87320313e-01
-4.97653125e-08,1.87282813e-01
-4.97253125e-08,1.87314063e-01
-4.96853125e-08,1.87287500e-01
-4.96453125e-08,1.87310937e-01
-4.96053125e-08,1.87289063e-01
-4.95653125e-08,1.87309375e-01
-4.95253125e-08,1.87290625e-01
-4.94853125e-08,1.87307813e-01
-4.94453125e-08,1.87292188e-01
-4.94053125e-08,1.87307813e-01
-4.93653125e-08,1.87292188e-01
-4.93253125e-08,1.87306250e-01
-4.92853125e-08,1.87293750e-01
-4.92453125e-08,1.87306250e-01
-4.92053125e-08,1.87293750e-01
-4.91653125e-08,1.87306250e-01
-4.91253125e-08,1.87293750e-01
-4.90853125e-08,1.87304688e-01
-4.90453125e-08,1.87295313e-01
-4.90053125e-08,1.87304688e-01
-4.89653125e-08,1.87295313e-01
-4.89253125e-08,1.87304688e-01
-4.88853125e-08,1.87295313e-01
-4.88453125e-08,1.87304688e-01
-4.88053125e-08,1.87295313e-01
-4.87653125e-08,1.87304688e-01
-4.87253125e-08,1.87295313e-01
-4.86853125e-08,1.87304688e-01
-4.86453125e-08,1.87295313e-01
-4.86053125e-08,1.87304688e-01
-4.85653125e-08,1.87295313e-01
-4.85253125e-08,1.87304688e-01
-4.84853125e-08,1.87296875e-01
-4.84453125e-08,1.87303125e-01
-4.84053125e-08,1.87296875e-01
-4.83653125e-08,1.87303125e-01
-4.83253125e-08,1.87296875e-01
-4.82853125e-08,1.87303125e-01
-4.82453125e-08,1.87296875e-01
-4.82053125e-08,1.87303125e-01
-4.81653125e-08,1.87296875e-01
-4.81253125e-08,1.87303125e-01
-4.80853125e-08,1.87296875e-01
-4.80453125e-08,1.87303125e-01
-4.80053125e-08,1.87296875e-01
-4.79653125e-08,1.87303125e-01
-4.79253125e-08,1.87296875e-01
-4.78853125e-08,1.87303125e-01
-4.78453125e-08,1.87296875e-01
-4.78053125e-08,1.87303125e-01
-4.77653125e-08,1.87296875e-01
-4.77253125e-08,1.87301563e-01
-4.76853125e-08,1.87298437e-01
-4.76453125e-08,1.87301563e-01
-4.76053125e-08,1.87298437e-01
-4.75653125e-08,1.87301563e-01
-4.75253125e-08,1.87300000e-01
-4.74853125e-08,1.87300000e-01
-4.74453125e-08,1.87300000e-01
-4.74053125e-08,1.87298437e-01
-4.73653125e-08,1.87303125e-01
-4.73253125e-08,1.87295313e-01
-4.72853125e-08,1.87307813e-01
-4.72453125e-08,1.87287500e-01
-4.72053125e-08,1.87321875e-01
-4.71653125e-08,1.87253125e-01
-4.71253125e-08,1.87498438e-01
-4.70853125e-08,1.87764062e-01
-4.70453125e-08,1.87659375e-01
-4.70053125e-08,1.87731250e-01
-4.69653125e-08,1.87671875e-01
-4.69253125e-08,1.87725000e-01
-4.68853125e-08,1.87675000e-01
-4.68453125e-08,1.87725000e-01
-4.68053125e-08,1.87675000e-01
-4.67653125e-08,1.87728125e-01
-4.67253125e-08,1.87667187e-01
-4.66853125e-08,1.87742188e-01
-4.66453125e-08,1.87634375e-01
-4.66053125e-08,1.87918750e-01
-4.65653125e-08,1.88143750e-01
-4.65253125e-08,1.88079688e-01
-4.64853125e-08,1.88110938e-01
-4.64453125e-08,1.88093750e-01
-4.64053125e-08,1.88103125e-01
-4.63653125e-08,1.88100000e-01
-4.63253125e-08,1.88098437e-01
-4.62853125e-08,1.88101563e-01
-4.62453125e-08,1.88096875e-01
-4.62053125e-08,1.88103125e-01
-4.61653125e-08,1.88095313e-01
-4.61253125e-08,1.88104688e-01
-4.60853125e-08,1.88093750e-01
-4.60453125e-08,1.88106250e-01
-4.60053125e-08,1.88092188e-01
-4.59653125e-08,1.88107812e-01
-4.59253125e-08,1.88092188e-01
-4.58853125e-08,1.88109375e-01
-4.58453125e-08,1.88090625e-01
-4.58053125e-08,1.88110938e-01
-4.57653125e-08,1.88087500e-01
-4.57253125e-08,1.88114063e-01
-4.56853125e-08,1.88084375e-01
-4.56453125e-08,1.88117188e-01
-4.56053125e-08,1.88079688e-01
-4.55653125e-08,1.88126563e-01
-4.55253125e-08,1.88064063e-01
-4.54853125e-08,1.88160938e-01
-4.54453125e-08,1.87884375e-01
-4.54053125e-08,1.87653125e-01
-4.53653125e-08,1.87721875e-01
-4.53253125e-08,1.87687500e-01
-4.52853125e-08,1.87707813e-01
-4.52453125e-08,1.87696875e-01
-4.52053125e-08,1.87700000e-01
-4.51653125e-08,1.87701563e-01
-4.51253125e-08,1.87695313e-01
-4.50853125e-08,1.87706250e-01
-4.50453125e-08,1.87690625e-01
-4.50053125e-08,1.87710938e-01
-4.49653125e-08,1.87684375e-01
-4.49253125e-08,1.87721875e-01
-4.48853125e-08,1.87668750e-01
-4.48453125e-08,1.87757813e-01
-4.48053125e-08,1.87489062e-01
-4.47653125e-08,1.87250000e-01
-4.47253125e-08,1.87325000e-01
-4.46853125e-08,1.87284375e-01
-4.46453125e-08,1.87309375e-01
-4.46053125e-08,1.87295313e-01
-4.45653125e-08,1.87300000e-01
-4.45253125e-08,1.87303125e-01
-4.44853125e-08,1.87292188e-01
-4.44453125e-08,1.87314063e-01
-4.44053125e-08,1.87275000e-01
-4.43653125e-08,1.87350000e-01
-4.43253125e-08,1.87095312e-01
-4.42853125e-08,1.86843750e-01
-4.42453125e-08,1.86931250e-01
-4.42053125e-08,1.86878125e-01
-4.41653125e-08,1.86915625e-01
-4.41253125e-08,1.86889063e-01
-4.40853125e-08,1.86906250e-01
-4.40453125e-08,1.86896875e-01
-4.40053125e-08,1.86898438e-01
-4.39653125e-08,1.86907812e-01
-4.39253125e-08,1.86882812e-01
-4.38853125e-08,1.86943750e-01
-4.38453125e-08,1.86703125e-01
-4.38053125e-08,1.86435938e-01
-4.37653125e-08,1.86540625e-01
-4.37253125e-08,1.86468750e-01
-4.36853125e-08,1.86525000e-01
-4.36453125e-08,1.86478125e-01
-4.36053125e-08,1.86520313e-01
-4.35653125e-08,1.86481250e-01
-4.35253125e-08,1.86517188e-01
-4.34853125e-08,1.86484375e-01
-4.34453125e-08,1.86515625e-01
-4.34053125e-08,1.86485938e-01
-4.33653125e-08,1.86514062e-01
-4.33253125e-08,1.86485938e-01
-4.32853125e-08,1.86512500e-01
-4.32453125e-08,1.86487500e-01
-4.32053125e-08,1.86512500e-01
-4.31653125e-08,1.86487500e-01
-4.31253125e-08,1.86512500e-01
-4.30853125e-08,1.86487500e-01
-4.30453125e-08,1.86514062e-01
-4.30053125e-08,1.86484375e-01
-4.29653125e-08,1.86518750e-01
-4.29253125e-08,1.86475000e-01
-4.28853125e-08,1.86543750e-01
-4.28453125e-08,1.86312500e-01
-4.28053125e-08,1.86000000e-01
-4.27653125e-08,1.86329688e-01
-4.27253125e-08,1.86542188e-01
-4.26853125e-08,1.86476562e-01
-4.26453125e-08,1.86517188e-01
-4.26053125e-08,1.86485938e-01
-4.25653125e-08,1.86512500e-01
-4.25253125e-08,1.86487500e-01
-4.24853125e-08,1.86510938e-01
-4.24453125e-08,1.86489062e-01
-4.24053125e-08,1.86510938e-01
-4.23653125e-08,1.86489062e-01
-4.23253125e-08,1.86510938e-01
-4.22853125e-08,1.86489062e-01
-4.22453125e-08,1.86510938e-01
-4.22053125e-08,1.86489062e-01
-4.21653125e-08,1.86510938e-01
-4.21253125e-08,1.86489062e-01
-4.20853125e-08,1.86512500e-01
-4.20453125e-08,1.86487500e-01
-4.20053125e-08,1.86514062e-01
-4.19653125e-08,1.86485938e-01
-4.19253125e-08,1.86515625e-01
-4.18853125e-08,1.86482813e-01
-4.18453125e-08,1.86520313e-01
-4.18053125e-08,1.86475000e-01
-4.17653125e-08,1.86534375e-01
-4.17253125e-08,1.86440625e-01
-4.16853125e-08,1.86712500e-01
-4.16453125e-08,1.86950000e-01
-4.16053125e-08,1.86873438e-01
-4.15653125e-08,1.86918750e-01
-4.15253125e-08,1.86885938e-01
-4.14853125e-08,1.86912500e-01
-4.14453125e-08,1.86889063e-01
-4.14053125e-08,1.86912500e-01
-4.13653125e-08,1.86884375e-01
-4.13253125e-08,1.86925000e-01
-4.12853125e-08,1.86853125e-01
-4.12453125e-08,1.87100000e-01
-4.12053125e-08,1.87364063e-01
-4.11653125e-08,1.87257813e-01
-4.11253125e-08,1.87335937e-01
-4.10853125e-08,1.87267188e-01
-4.10453125e-08,1.87334375e-01
-4.10053125e-08,1.87262500e-01
-4.09653125e-08,1.87346875e-01
-4.09253125e-08,1.87228125e-01
-4.08853125e-08,1.87525000e-01
-4.08453125e-08,1.87737500e-01
-4.08053125e-08,1.87689063e-01
-4.07653125e-08,1.87700000e-01
-4.07253125e-08,1.87707813e-01
-4.06853125e-08,1.87684375e-01
-4.06453125e-08,1.87726562e-01
-4.06053125e-08,1.87646875e-01
-4.05653125e-08,1.87907812e-01
-4.05253125e-08,1.88153125e-01
-4.04853125e-08,1.88071875e-01
-4.04453125e-08,1.88117188e-01
-4.04053125e-08,1.88089063e-01
-4.03653125e-08,1.88107812e-01
-4.03253125e-08,1.88096875e-01
-4.02853125e-08,1.88100000e-01
-4.02453125e-08,1.88104688e-01
-4.02053125e-08,1.88089063e-01
-4.01653125e-08,1.88121875e-01
-4.01253125e-08,1.88053125e-01
-4.00853125e-08,1.88300000e-01
-4.00453125e-08,1.88560937e-01
-4.00053125e-08,1.88462500e-01
-3.99653125e-08,1.88528125e-01
-3.99253125e-08,1.88476562e-01
-3.98853125e-08,1.88520313e-01
-3.98453125e-08,1.88482813e-01
-3.98053125e-08,1.88515625e-01
-3.97653125e-08,1.88484375e-01
-3.97253125e-08,1.88514062e-01
-3.96853125e-08,1.88485938e-01
-3.96453125e-08,1.88514062e-01
-3.96053125e-08,1.88485938e-01
-3.95653125e-08,1.88514062e-01
-3.95253125e-08,1.88485938e-01
-3.94853125e-08,1.88515625e-01
-3.94453125e-08,1.88484375e-01
-3.94053125e-08,1.88517188e-01
-3.93653125e-08,1.88479687e-01
-3.93253125e-08,1.88525000e-01
-3.92853125e-08,1.88465625e-01
-3.92453125e-08,1.88559375e-01
-3.92053125e-08,1.88287500e-01
-3.91653125e-08,1.88050000e-01
-3.91253125e-08,1.88126563e-01
-3.90853125e-08,1.88082813e-01
-3.90453125e-08,1.88112500e-01
-3.90053125e-08,1.88090625e-01
-3.89653125e-08,1.88107812e-01
-3.89253125e-08,1.88093750e-01
-3.88853125e-08,1.88104688e-01
-3.88453125e-08,1.88095313e-01
-3.88053125e-08,1.88104688e-01
-3.87653125e-08,1.88096875e-01
-3.87253125e-08,1.88103125e-01
-3.86853125e-08,1.88096875e-01
-3.86453125e-08,1.88103125e-01
-3.86053125e-08,1.88098437e-01
-3.85653125e-08,1.88101563e-01
-3.85253125e-08,1.88098437e-01
