trails/0ad503bf4c7e473689fcee6623a13564/aes_ch1_20250507105023614.csv

Model,MSO66B
Label,
Waveform Type,ANALOG
Horizontal Units,s
Sample Interval,4.00000000e-11
Record Length,10000
Zero Index,1599.07421875
Vertical Units,A
ANALOG_Thumbnail,
yOffset,1.84500000e-01
yPosition,8.40000000e-01

Labels,
TIME,CH1
-6.39629687e-08,1.86078125e-01
-6.39229688e-08,1.86128125e-01
-6.38829687e-08,1.86060937e-01
-6.38429687e-08,1.86167187e-01
-6.38029687e-08,1.85878125e-01
-6.37629687e-08,1.85660938e-01
-6.37229688e-08,1.85712500e-01
-6.36829687e-08,1.85700000e-01
-6.36429688e-08,1.85690625e-01
-6.36029687e-08,1.85718750e-01
-6.35629687e-08,1.85667187e-01
-6.35229687e-08,1.85760938e-01
-6.34829687e-08,1.85482813e-01
-6.34429688e-08,1.85257813e-01
-6.34029687e-08,1.85312500e-01
-6.33629688e-08,1.85303125e-01
-6.33229687e-08,1.85281250e-01
-6.32829687e-08,1.85348438e-01
-6.32429687e-08,1.85093750e-01
-6.32029687e-08,1.84848438e-01
-6.31629688e-08,1.84923438e-01
-6.31229687e-08,1.84892187e-01
-6.30829688e-08,1.84893750e-01
-6.30429687e-08,1.84934375e-01
-6.30029687e-08,1.84709375e-01
-6.29629687e-08,1.84428125e-01
-6.29229687e-08,1.84550000e-01
-6.28829688e-08,1.84453125e-01
-6.28429687e-08,1.84564063e-01
-6.28029688e-08,1.84290625e-01
-6.27629687e-08,1.84040625e-01
-6.27229687e-08,1.84143750e-01
-6.26829687e-08,1.84053125e-01
-6.26429687e-08,1.84170313e-01
-6.26029688e-08,1.83876563e-01
-6.25629687e-08,1.83664063e-01
-6.25229688e-08,1.83709375e-01
-6.24829687e-08,1.83706250e-01
-6.24429687e-08,1.83678125e-01
-6.24029687e-08,1.83750000e-01
-6.23629687e-08,1.83492188e-01
-6.23229688e-08,1.83250000e-01
-6.22829687e-08,1.83321875e-01
-6.22429688e-08,1.83293750e-01
-6.22029687e-08,1.83289063e-01
-6.21629687e-08,1.83340625e-01
-6.21229687e-08,1.83103125e-01
-6.20829687e-08,1.82837500e-01
-6.20429688e-08,1.82934375e-01
-6.20029687e-08,1.82878125e-01
-6.19629688e-08,1.82912500e-01
-6.19229687e-08,1.82896875e-01
-6.18829687e-08,1.82890625e-01
-6.18429687e-08,1.82937500e-01
-6.18029687e-08,1.82707813e-01
-6.17629688e-08,1.82431250e-01
-6.17229687e-08,1.82542188e-01
-6.16829687e-08,1.82468750e-01
-6.16429687e-08,1.82525000e-01
-6.16029687e-08,1.82479688e-01
-6.15629687e-08,1.82515625e-01
-6.15229687e-08,1.82489063e-01
-6.14829688e-08,1.82506250e-01
-6.14429687e-08,1.82500000e-01
-6.14029687e-08,1.82489063e-01
-6.13629687e-08,1.82537500e-01
-6.13229687e-08,1.82309375e-01
-6.12829687e-08,1.82029688e-01
-6.12429687e-08,1.82145313e-01
-6.12029688e-08,1.82064063e-01
-6.11629687e-08,1.82129687e-01
-6.11229687e-08,1.82073438e-01
-6.10829687e-08,1.82125000e-01
-6.10429687e-08,1.82078125e-01
-6.10029687e-08,1.82120313e-01
-6.09629687e-08,1.82079688e-01
-6.09229688e-08,1.82118750e-01
-6.08829687e-08,1.82082812e-01
-6.08429687e-08,1.82117187e-01
-6.08029687e-08,1.82084375e-01
-6.07629687e-08,1.82115625e-01
-6.07229687e-08,1.82084375e-01
-6.06829687e-08,1.82114063e-01
-6.06429688e-08,1.82085938e-01
-6.06029687e-08,1.82114063e-01
-6.05629687e-08,1.82085938e-01
-6.05229687e-08,1.82112500e-01
-6.04829687e-08,1.82087500e-01
-6.04429687e-08,1.82112500e-01
-6.04029687e-08,1.82087500e-01
-6.03629688e-08,1.82112500e-01
-6.03229687e-08,1.82087500e-01
-6.02829687e-08,1.82112500e-01
-6.02429687e-08,1.82087500e-01
-6.02029687e-08,1.82112500e-01
-6.01629687e-08,1.82087500e-01
-6.01229687e-08,1.82112500e-01
-6.00829688e-08,1.82087500e-01
-6.00429687e-08,1.82112500e-01
-6.00029687e-08,1.82085938e-01
-5.99629687e-08,1.82114063e-01
-5.99229687e-08,1.82084375e-01
-5.98829688e-08,1.82118750e-01
-5.98429687e-08,1.82076563e-01
-5.98029688e-08,1.82132813e-01
-5.97629687e-08,1.82043750e-01
-5.97229687e-08,1.82309375e-01
-5.96829687e-08,1.82554688e-01
-5.96429687e-08,1.82468750e-01
-5.96029687e-08,1.82523437e-01
-5.95629687e-08,1.82479688e-01
-5.95229687e-08,1.82520313e-01
-5.94829687e-08,1.82476562e-01
-5.94429687e-08,1.82531250e-01
-5.94029687e-08,1.82445313e-01
-5.93629687e-08,1.82706250e-01
-5.93229687e-08,1.82957813e-01
-5.92829687e-08,1.82864063e-01
-5.92429687e-08,1.82929687e-01
-5.92029687e-08,1.82870313e-01
-5.91629687e-08,1.82935938e-01
-5.91229687e-08,1.82842188e-01
-5.90829687e-08,1.83109375e-01
-5.90429687e-08,1.83356250e-01
-5.90029687e-08,1.83265625e-01
-5.89629687e-08,1.83326563e-01
-5.89229687e-08,1.83275000e-01
-5.88829687e-08,1.83325000e-01
-5.88429687e-08,1.83271875e-01
-5.88029687e-08,1.83337500e-01
-5.87629687e-08,1.83237500e-01
-5.87229687e-08,1.83515625e-01
-5.86829687e-08,1.83746875e-01
-5.86429687e-08,1.83676563e-01
-5.86029687e-08,1.83714062e-01
-5.85629687e-08,1.83692187e-01
-5.85229687e-08,1.83704688e-01
-5.84829687e-08,1.83698438e-01
-5.84429687e-08,1.83698438e-01
-5.84029687e-08,1.83703125e-01
-5.83629687e-08,1.83693750e-01
-5.83229687e-08,1.83710938e-01
-5.82829687e-08,1.83684375e-01
-5.82429687e-08,1.83726562e-01
-5.82029687e-08,1.83648438e-01
-5.81629687e-08,1.83906250e-01
-5.81229687e-08,1.84156250e-01
-5.80829687e-08,1.84068750e-01
-5.80429687e-08,1.84120312e-01
-5.80029687e-08,1.84084375e-01
-5.79629687e-08,1.84110938e-01
-5.79229687e-08,1.84092188e-01
-5.78829687e-08,1.84106250e-01
-5.78429687e-08,1.84096875e-01
-5.78029687e-08,1.84101563e-01
-5.77629687e-08,1.84101563e-01
-5.77229687e-08,1.84093750e-01
-5.76829687e-08,1.84112500e-01
-5.76429687e-08,1.84078125e-01
-5.76029687e-08,1.84148438e-01
-5.75629687e-08,1.83898438e-01
-5.75229687e-08,1.83639063e-01
-5.74829687e-08,1.83735938e-01
-5.74429687e-08,1.83675000e-01
-5.74029687e-08,1.83720313e-01
-5.73629687e-08,1.83684375e-01
-5.73229687e-08,1.83714062e-01
-5.72829687e-08,1.83689062e-01
-5.72429687e-08,1.83709375e-01
-5.72029687e-08,1.83693750e-01
-5.71629687e-08,1.83704688e-01
-5.71229687e-08,1.83698438e-01
-5.70829687e-08,1.83698438e-01
-5.70429687e-08,1.83707813e-01
-5.70029687e-08,1.83682813e-01
-5.69629687e-08,1.83742188e-01
-5.69229687e-08,1.83504688e-01
-5.68829687e-08,1.83234375e-01
-5.68429687e-08,1.83342188e-01
-5.68029687e-08,1.83267188e-01
-5.67629687e-08,1.83328125e-01
-5.67229687e-08,1.83275000e-01
-5.66829687e-08,1.83323438e-01
-5.66429687e-08,1.83278125e-01
-5.66029687e-08,1.83320312e-01
-5.65629687e-08,1.83279688e-01
-5.65229687e-08,1.83320312e-01
-5.64829687e-08,1.83279688e-01
-5.64429687e-08,1.83321875e-01
-5.64029687e-08,1.83275000e-01
-5.63629687e-08,1.83328125e-01
-5.63229687e-08,1.83262500e-01
-5.62829687e-08,1.83362500e-01
-5.62429687e-08,1.83085938e-01
-5.62029687e-08,1.82851563e-01
-5.61629687e-08,1.82926563e-01
-5.61229687e-08,1.82882813e-01
-5.60829687e-08,1.82914063e-01
-5.60429687e-08,1.82887500e-01
-5.60029687e-08,1.82910938e-01
-5.59629687e-08,1.82887500e-01
-5.59229687e-08,1.82914063e-01
-5.58829687e-08,1.82881250e-01
-5.58429687e-08,1.82928125e-01
-5.58029687e-08,1.82846875e-01
-5.57629687e-08,1.83106250e-01
-5.57229687e-08,1.83356250e-01
-5.56829687e-08,1.83267188e-01
-5.56429687e-08,1.83323438e-01
-5.56029687e-08,1.83281250e-01
-5.55629687e-08,1.83315625e-01
-5.55229687e-08,1.83285937e-01
-5.54829687e-08,1.83312500e-01
-5.54429687e-08,1.83289063e-01
-5.54029687e-08,1.83310937e-01
-5.53629687e-08,1.83290625e-01
-5.53229687e-08,1.83309375e-01
-5.52829687e-08,1.83292188e-01
-5.52429687e-08,1.83307813e-01
-5.52029687e-08,1.83292188e-01
-5.51629687e-08,1.83307813e-01
-5.51229687e-08,1.83293750e-01
-5.50829687e-08,1.83306250e-01
-5.50429687e-08,1.83293750e-01
-5.50029687e-08,1.83304688e-01
-5.49629687e-08,1.83295313e-01
-5.49229687e-08,1.83304688e-01
-5.48829687e-08,1.83295313e-01
-5.48429687e-08,1.83303125e-01
-5.48029687e-08,1.83296875e-01
-5.47629687e-08,1.83303125e-01
-5.47229687e-08,1.83298437e-01
-5.46829687e-08,1.83301563e-01
-5.46429687e-08,1.83300000e-01
-5.46029687e-08,1.83298437e-01
-5.45629687e-08,1.83303125e-01
-5.45229687e-08,1.83295313e-01
-5.44829687e-08,1.83307813e-01
-5.44429687e-08,1.83285937e-01
-5.44029687e-08,1.83323438e-01
-5.43629687e-08,1.83251563e-01
-5.43229687e-08,1.83501562e-01
-5.42829687e-08,1.83760937e-01
-5.42429687e-08,1.83664063e-01
-5.42029687e-08,1.83726562e-01
-5.41629687e-08,1.83678125e-01
-5.41229687e-08,1.83717188e-01
-5.40829687e-08,1.83684375e-01
-5.40429687e-08,1.83712500e-01
-5.40029687e-08,1.83689062e-01
-5.39629687e-08,1.83709375e-01
-5.39229687e-08,1.83692187e-01
-5.38829687e-08,1.83704688e-01
-5.38429687e-08,1.83698438e-01
-5.38029687e-08,1.83696875e-01
-5.37629687e-08,1.83712500e-01
-5.37229687e-08,1.83662500e-01
-5.36829687e-08,1.83890625e-01
-5.36429687e-08,1.84171875e-01
-5.36029687e-08,1.84051563e-01
-5.35629687e-08,1.84139063e-01
-5.35229687e-08,1.84065625e-01
-5.34829687e-08,1.84132813e-01
-5.34429687e-08,1.84068750e-01
-5.34029687e-08,1.84131250e-01
-5.33629687e-08,1.84067188e-01
-5.33229687e-08,1.84134375e-01
-5.32829687e-08,1.84060938e-01
-5.32429687e-08,1.84148438e-01
-5.32029687e-08,1.84026563e-01
-5.31629687e-08,1.84326563e-01
-5.31229687e-08,1.84535937e-01
-5.30829687e-08,1.84487500e-01
-5.30429687e-08,1.84503125e-01
-5.30029687e-08,1.84503125e-01
-5.29629687e-08,1.84493750e-01
-5.29229687e-08,1.84509375e-01
-5.28829687e-08,1.84489062e-01
-5.28429687e-08,1.84514063e-01
-5.28029687e-08,1.84482813e-01
-5.27629687e-08,1.84520313e-01
-5.27229687e-08,1.84475000e-01
-5.26829687e-08,1.84535937e-01
-5.26429687e-08,1.84439063e-01
-5.26029687e-08,1.84714062e-01
-5.25629687e-08,1.84948438e-01
-5.25229687e-08,1.84876563e-01
-5.24829687e-08,1.84914063e-01
-5.24429687e-08,1.84890625e-01
-5.24029687e-08,1.84906250e-01
-5.23629687e-08,1.84896875e-01
-5.23229687e-08,1.84901563e-01
-5.22829687e-08,1.84900000e-01
-5.22429687e-08,1.84900000e-01
-5.22029688e-08,1.84901563e-01
-5.21629687e-08,1.84898438e-01
-5.21229687e-08,1.84903125e-01
-5.20829687e-08,1.84896875e-01
-5.20429687e-08,1.84903125e-01
-5.20029687e-08,1.84895313e-01
-5.19629687e-08,1.84904687e-01
-5.19229687e-08,1.84895313e-01
-5.18829687e-08,1.84906250e-01
-5.18429687e-08,1.84893750e-01
-5.18029687e-08,1.84906250e-01
-5.17629687e-08,1.84893750e-01
-5.17229687e-08,1.84907813e-01
-5.16829687e-08,1.84892187e-01
-5.16429687e-08,1.84909375e-01
-5.16029687e-08,1.84890625e-01
-5.15629687e-08,1.84910938e-01
-5.15229687e-08,1.84889063e-01
-5.14829687e-08,1.84912500e-01
-5.14429687e-08,1.84885938e-01
-5.14029687e-08,1.84917187e-01
-5.13629687e-08,1.84879688e-01
-5.13229687e-08,1.84925000e-01
-5.12829687e-08,1.84865625e-01
-5.12429687e-08,1.84959375e-01
-5.12029687e-08,1.84685938e-01
-5.11629687e-08,1.84451562e-01
-5.11229687e-08,1.84525000e-01
-5.10829687e-08,1.84484375e-01
-5.10429687e-08,1.84509375e-01
-5.10029687e-08,1.84493750e-01
-5.09629687e-08,1.84504688e-01
-5.09229687e-08,1.84498438e-01
-5.08829687e-08,1.84500000e-01
-5.08429687e-08,1.84501562e-01
-5.08029687e-08,1.84498438e-01
-5.07629687e-08,1.84503125e-01
-5.07229687e-08,1.84495313e-01
-5.06829687e-08,1.84506250e-01
-5.06429687e-08,1.84492188e-01
-5.06029687e-08,1.84510937e-01
-5.05629687e-08,1.84485938e-01
-5.05229687e-08,1.84520313e-01
-5.04829687e-08,1.84470313e-01
-5.04429687e-08,1.84554688e-01
-5.04029687e-08,1.84292188e-01
-5.03629687e-08,1.84046875e-01
-5.03229687e-08,1.84129687e-01
-5.02829688e-08,1.84079688e-01
-5.02429687e-08,1.84114063e-01
-5.02029687e-08,1.84089063e-01
-5.01629687e-08,1.84109375e-01
-5.01229687e-08,1.84092188e-01
-5.00829687e-08,1.84106250e-01
-5.00429687e-08,1.84095312e-01
-5.00029688e-08,1.84103125e-01
-4.99629687e-08,1.84098438e-01
-4.99229687e-08,1.84100000e-01
-4.98829687e-08,1.84101563e-01
-4.98429687e-08,1.84096875e-01
-4.98029687e-08,1.84104688e-01
-4.97629687e-08,1.84092188e-01
-4.97229687e-08,1.84114063e-01
-4.96829687e-08,1.84076563e-01
-4.96429687e-08,1.84148438e-01
-4.96029687e-08,1.83898438e-01
-4.95629687e-08,1.83639063e-01
-4.95229687e-08,1.83735938e-01
-4.94829687e-08,1.83671875e-01
-4.94429687e-08,1.83721875e-01
-4.94029687e-08,1.83681250e-01
-4.93629687e-08,1.83717188e-01
-4.93229687e-08,1.83684375e-01
-4.92829687e-08,1.83715625e-01
-4.92429687e-08,1.83684375e-01
-4.92029687e-08,1.83714062e-01
-4.91629687e-08,1.83685938e-01
-4.91229687e-08,1.83714062e-01
-4.90829687e-08,1.83684375e-01
-4.90429687e-08,1.83715625e-01
-4.90029687e-08,1.83682813e-01
-4.89629687e-08,1.83718750e-01
-4.89229687e-08,1.83678125e-01
-4.88829687e-08,1.83726562e-01
-4.88429687e-08,1.83664063e-01
-4.88029687e-08,1.83760937e-01
-4.87629687e-08,1.83485938e-01
-4.87229687e-08,1.83251563e-01
-4.86829687e-08,1.83325000e-01
-4.86429688e-08,1.83284375e-01
-4.86029687e-08,1.83310937e-01
-4.85629687e-08,1.83292188e-01
-4.85229687e-08,1.83306250e-01
-4.84829687e-08,1.83295313e-01
-4.84429687e-08,1.83303125e-01
-4.84029687e-08,1.83296875e-01
-4.83629688e-08,1.83301563e-01
-4.83229687e-08,1.83298437e-01
-4.82829687e-08,1.83301563e-01
-4.82429687e-08,1.83300000e-01
-4.82029687e-08,1.83300000e-01
-4.81629687e-08,1.83300000e-01
-4.81229687e-08,1.83300000e-01
-4.80829688e-08,1.83300000e-01
-4.80429687e-08,1.83298437e-01
-4.80029687e-08,1.83301563e-01
-4.79629687e-08,1.83298437e-01
-4.79229687e-08,1.83301563e-01
-4.78829687e-08,1.83298437e-01
-4.78429687e-08,1.83303125e-01
-4.78029687e-08,1.83296875e-01
-4.77629687e-08,1.83303125e-01
-4.77229687e-08,1.83296875e-01
-4.76829687e-08,1.83303125e-01
-4.76429687e-08,1.83295313e-01
-4.76029687e-08,1.83304688e-01
-4.75629687e-08,1.83295313e-01
-4.75229687e-08,1.83306250e-01
-4.74829687e-08,1.83293750e-01
-4.74429687e-08,1.83307813e-01
-4.74029687e-08,1.83290625e-01
-4.73629687e-08,1.83310937e-01
-4.73229687e-08,1.83284375e-01
-4.72829687e-08,1.83320312e-01
-4.72429687e-08,1.83270313e-01
-4.72029687e-08,1.83354688e-01
-4.71629687e-08,1.83092188e-01
-4.71229687e-08,1.82845312e-01
-4.70829687e-08,1.82931250e-01
-4.70429687e-08,1.82878125e-01
-4.70029687e-08,1.82917187e-01
-4.69629687e-08,1.82885938e-01
-4.69229687e-08,1.82910938e-01
-4.68829687e-08,1.82890625e-01
-4.68429687e-08,1.82909375e-01
-4.68029687e-08,1.82892187e-01
-4.67629687e-08,1.82907813e-01
-4.67229688e-08,1.82893750e-01
-4.66829687e-08,1.82906250e-01
-4.66429687e-08,1.82893750e-01
-4.66029687e-08,1.82906250e-01
-4.65629687e-08,1.82895313e-01
-4.65229687e-08,1.82904687e-01
-4.64829687e-08,1.82895313e-01
-4.64429688e-08,1.82904687e-01
-4.64029687e-08,1.82895313e-01
-4.63629687e-08,1.82904687e-01
-4.63229687e-08,1.82895313e-01
-4.62829687e-08,1.82904687e-01
-4.62429687e-08,1.82895313e-01
-4.62029687e-08,1.82904687e-01
-4.61629688e-08,1.82895313e-01
-4.61229687e-08,1.82903125e-01
-4.60829687e-08,1.82896875e-01
-4.60429687e-08,1.82903125e-01
-4.60029687e-08,1.82896875e-01
-4.59629687e-08,1.82903125e-01
-4.59229687e-08,1.82895313e-01
-4.58829688e-08,1.82904687e-01
-4.58429687e-08,1.82895313e-01
-4.58029687e-08,1.82904687e-01
-4.57629687e-08,1.82895313e-01
-4.57229687e-08,1.82904687e-01
-4.56829687e-08,1.82895313e-01
-4.56429687e-08,1.82906250e-01
-4.56029687e-08,1.82893750e-01
-4.55629687e-08,1.82907813e-01
-4.55229687e-08,1.82890625e-01
-4.54829687e-08,1.82910938e-01
-4.54429687e-08,1.82885938e-01
-4.54029687e-08,1.82918750e-01
-4.53629687e-08,1.82873438e-01
-4.53229687e-08,1.82951562e-01
-4.52829687e-08,1.82695313e-01
-4.52429687e-08,1.82442188e-01
-4.52029687e-08,1.82534375e-01
-4.51629687e-08,1.82473438e-01
-4.51229687e-08,1.82521875e-01
-4.50829687e-08,1.82479688e-01
-4.50429687e-08,1.82518750e-01
-4.50029687e-08,1.82481250e-01
-4.49629687e-08,1.82520313e-01
-4.49229687e-08,1.82476562e-01
-4.48829687e-08,1.82528125e-01
-4.48429687e-08,1.82462500e-01
-4.48029688e-08,1.82560938e-01
-4.47629687e-08,1.82285937e-01
-4.47229687e-08,1.82051563e-01
-4.46829687e-08,1.82123438e-01
-4.46429687e-08,1.82085938e-01
-4.46029687e-08,1.82109375e-01
-4.45629687e-08,1.82093750e-01
-4.45229688e-08,1.82103125e-01
-4.44829687e-08,1.82100000e-01
-4.44429687e-08,1.82098438e-01
-4.44029687e-08,1.82104688e-01
-4.43629687e-08,1.82092188e-01
-4.43229687e-08,1.82114063e-01
-4.42829687e-08,1.82076563e-01
-4.42429688e-08,1.82148438e-01
-4.42029687e-08,1.81898438e-01
-4.41629687e-08,1.81639063e-01
-4.41229687e-08,1.81735937e-01
-4.40829687e-08,1.81673438e-01
-4.40429687e-08,1.81721875e-01
-4.40029687e-08,1.81679688e-01
-4.39629688e-08,1.81717188e-01
-4.39229687e-08,1.81682813e-01
-4.38829687e-08,1.81715625e-01
-4.38429687e-08,1.81684375e-01
-4.38029687e-08,1.81715625e-01
-4.37629687e-08,1.81684375e-01
-4.37229687e-08,1.81717188e-01
-4.36829688e-08,1.81681250e-01
-4.36429687e-08,1.81720313e-01
-4.36029687e-08,1.81675000e-01
-4.35629687e-08,1.81734375e-01
-4.35229687e-08,1.81640625e-01
-4.34829687e-08,1.81910938e-01
-4.34429687e-08,1.82151563e-01
-4.34029687e-08,1.82071875e-01
-4.33629687e-08,1.82118750e-01
-4.33229687e-08,1.82085938e-01
-4.32829687e-08,1.82112500e-01
-4.32429687e-08,1.82089063e-01
-4.32029687e-08,1.82110938e-01
-4.31629687e-08,1.82087500e-01
-4.31229687e-08,1.82114063e-01
-4.30829687e-08,1.82081250e-01
-4.30429687e-08,1.82126563e-01
-4.30029687e-08,1.82048437e-01
-4.29629687e-08,1.82303125e-01
-4.29229687e-08,1.82559375e-01
-4.28829688e-08,1.82462500e-01
-4.28429687e-08,1.82529688e-01
-4.28029687e-08,1.82473438e-01
-4.27629687e-08,1.82526563e-01
-4.27229687e-08,1.82470313e-01
-4.26829687e-08,1.82537500e-01
-4.26429687e-08,1.82439062e-01
-4.26029688e-08,1.82712500e-01
-4.25629687e-08,1.82950000e-01
-4.25229687e-08,1.82871875e-01
-4.24829687e-08,1.82918750e-01
-4.24429687e-08,1.82884375e-01
-4.24029687e-08,1.82914063e-01
-4.23629687e-08,1.82885938e-01
-4.23229688e-08,1.82915625e-01
-4.22829687e-08,1.82879687e-01
-4.22429687e-08,1.82928125e-01
-4.22029687e-08,1.82846875e-01
-4.21629687e-08,1.83104688e-01
-4.21229687e-08,1.83357812e-01
-4.20829687e-08,1.83265625e-01
-4.20429688e-08,1.83326563e-01
-4.20029687e-08,1.83278125e-01
-4.19629687e-08,1.83320312e-01
-4.19229687e-08,1.83281250e-01
-4.18829687e-08,1.83318750e-01
-4.18429687e-08,1.83281250e-01
-4.18029687e-08,1.83318750e-01
-4.17629688e-08,1.83279688e-01
-4.17229687e-08,1.83323438e-01
-4.16829687e-08,1.83271875e-01
-4.16429687e-08,1.83337500e-01
-4.16029687e-08,1.83237500e-01
-4.15629687e-08,1.83515625e-01
-4.15229687e-08,1.83746875e-01
-4.14829688e-08,1.83678125e-01
-4.14429687e-08,1.83712500e-01
-4.14029687e-08,1.83692187e-01
-4.13629687e-08,1.83704688e-01
-4.13229687e-08,1.83698438e-01
-4.12829687e-08,1.83698438e-01
-4.12429687e-08,1.83703125e-01
-4.12029687e-08,1.83693750e-01
-4.11629687e-08,1.83709375e-01
-4.11229687e-08,1.83684375e-01
-4.10829687e-08,1.83725000e-01
-4.10429687e-08,1.83650000e-01
-4.10029687e-08,1.83903125e-01
-4.09629688e-08,1.84159375e-01
-4.09229687e-08,1.84064063e-01
-4.08829687e-08,1.84128125e-01
-4.08429687e-08,1.84076563e-01
-4.08029687e-08,1.84121875e-01
-4.07629687e-08,1.84078125e-01
-4.07229687e-08,1.84123438e-01
-4.06829688e-08,1.84073437e-01
-4.06429687e-08,1.84134375e-01
-4.06029687e-08,1.84040625e-01
-4.05629687e-08,1.84310937e-01
-4.05229687e-08,1.84551563e-01
-4.04829687e-08,1.84471875e-01
-4.04429687e-08,1.84520313e-01
-4.04029688e-08,1.84484375e-01
-4.03629687e-08,1.84514063e-01
-4.03229687e-08,1.84487500e-01
-4.02829687e-08,1.84512500e-01
-4.02429687e-08,1.84487500e-01
-4.02029687e-08,1.84512500e-01
-4.01629687e-08,1.84485938e-01
-4.01229688e-08,1.84517188e-01
-4.00829687e-08,1.84478125e-01
-4.00429687e-08,1.84531250e-01
-4.00029687e-08,1.84443750e-01
-3.99629687e-08,1.84709375e-01
-3.99229687e-08,1.84954687e-01
-3.98829687e-08,1.84870312e-01
-3.98429688e-08,1.84921875e-01
-3.98029687e-08,1.84882812e-01
-3.97629687e-08,1.84914063e-01
-3.97229687e-08,1.84887500e-01
-3.96829687e-08,1.84910938e-01
-3.96429687e-08,1.84889063e-01
-3.96029687e-08,1.84910938e-01
-3.95629688e-08,1.84887500e-01
-3.95229687e-08,1.84912500e-01
-3.94829687e-08,1.84884375e-01
-3.94429687e-08,1.84920313e-01
-3.94029687e-08,1.84871875e-01
-3.93629687e-08,1.84953125e-01
-3.93229687e-08,1.84695313e-01
-3.92829688e-08,1.84442188e-01
-3.92429687e-08,1.84534375e-01
-3.92029687e-08,1.84473438e-01
-3.91629687e-08,1.84523437e-01
-3.91229687e-08,1.84478125e-01
-3.90829687e-08,1.84521875e-01
-3.90429688e-08,1.84475000e-01
-3.90029687e-08,1.84528125e-01
-3.89629687e-08,1.84462500e-01
-3.89229687e-08,1.84562500e-01
-3.88829687e-08,1.84284375e-01
-3.88429687e-08,1.84054688e-01
-3.88029687e-08,1.84120312e-01
-3.87629688e-08,1.84090625e-01
-3.87229687e-08,1.84103125e-01
-3.86829687e-08,1.84104688e-01
-3.86429687e-08,1.84084375e-01
-3.86029687e-08,1.84140625e-01
-3.85629687e-08,1.83906250e-01
-3.85229687e-08,1.83631250e-01
