trails/0ad503bf4c7e473689fcee6623a13564/aes_ch1_20250507105358665.csv

Model,MSO66B
Label,
Waveform Type,ANALOG
Horizontal Units,s
Sample Interval,4.00000000e-11
Record Length,10000
Zero Index,1599.13281250
Vertical Units,A
ANALOG_Thumbnail,
yOffset,1.84500000e-01
yPosition,8.40000000e-01

Labels,
TIME,CH1
-6.39653125e-08,1.81314063e-01
-6.39253125e-08,1.81285937e-01
-6.38853125e-08,1.81312500e-01
-6.38453125e-08,1.81287500e-01
-6.38053125e-08,1.81312500e-01
-6.37653125e-08,1.81287500e-01
-6.37253125e-08,1.81312500e-01
-6.36853125e-08,1.81285937e-01
-6.36453125e-08,1.81314063e-01
-6.36053125e-08,1.81285937e-01
-6.35653125e-08,1.81315625e-01
-6.35253125e-08,1.81282813e-01
-6.34853125e-08,1.81318750e-01
-6.34453125e-08,1.81278125e-01
-6.34053125e-08,1.81326563e-01
-6.33653125e-08,1.81262500e-01
-6.33253125e-08,1.81362500e-01
-6.32853125e-08,1.81084375e-01
-6.32453125e-08,1.80853125e-01
-6.32053125e-08,1.80923438e-01
-6.31653125e-08,1.80885938e-01
-6.31253125e-08,1.80907813e-01
-6.30853125e-08,1.80895313e-01
-6.30453125e-08,1.80903125e-01
-6.30053125e-08,1.80898438e-01
-6.29653125e-08,1.80900000e-01
-6.29253125e-08,1.80901563e-01
-6.28853125e-08,1.80896875e-01
-6.28453125e-08,1.80904687e-01
-6.28053125e-08,1.80895313e-01
-6.27653125e-08,1.80906250e-01
-6.27253125e-08,1.80890625e-01
-6.26853125e-08,1.80910938e-01
-6.26453125e-08,1.80885938e-01
-6.26053125e-08,1.80920313e-01
-6.25653125e-08,1.80870313e-01
-6.25253125e-08,1.80954688e-01
-6.24853125e-08,1.80692188e-01
-6.24453125e-08,1.80445313e-01
-6.24053125e-08,1.80529688e-01
-6.23653125e-08,1.80479688e-01
-6.23253125e-08,1.80515625e-01
-6.22853125e-08,1.80487500e-01
-6.22453125e-08,1.80510937e-01
-6.22053125e-08,1.80490625e-01
-6.21653125e-08,1.80507813e-01
-6.21253125e-08,1.80493750e-01
-6.20853125e-08,1.80506250e-01
-6.20453125e-08,1.80495313e-01
-6.20053125e-08,1.80504688e-01
-6.19653125e-08,1.80496875e-01
-6.19253125e-08,1.80503125e-01
-6.18853125e-08,1.80496875e-01
-6.18453125e-08,1.80503125e-01
-6.18053125e-08,1.80498437e-01
-6.17653125e-08,1.80501563e-01
-6.17253125e-08,1.80498437e-01
-6.16853125e-08,1.80501563e-01
-6.16453125e-08,1.80498437e-01
-6.16053125e-08,1.80500000e-01
-6.15653125e-08,1.80500000e-01
-6.15253125e-08,1.80500000e-01
-6.14853125e-08,1.80500000e-01
-6.14453125e-08,1.80498437e-01
-6.14053125e-08,1.80501563e-01
-6.13653125e-08,1.80498437e-01
-6.13253125e-08,1.80503125e-01
-6.12853125e-08,1.80496875e-01
-6.12453125e-08,1.80504688e-01
-6.12053125e-08,1.80495313e-01
-6.11653125e-08,1.80506250e-01
-6.11253125e-08,1.80490625e-01
-6.10853125e-08,1.80512500e-01
-6.10453125e-08,1.80482813e-01
-6.10053125e-08,1.80526563e-01
-6.09653125e-08,1.80448438e-01
-6.09253125e-08,1.80704688e-01
-6.08853125e-08,1.80957813e-01
-6.08453125e-08,1.80865625e-01
-6.08053125e-08,1.80925000e-01
-6.07653125e-08,1.80879687e-01
-6.07253125e-08,1.80917188e-01
-6.06853125e-08,1.80884375e-01
-6.06453125e-08,1.80915625e-01
-6.06053125e-08,1.80885938e-01
-6.05653125e-08,1.80914063e-01
-6.05253125e-08,1.80885938e-01
-6.04853125e-08,1.80915625e-01
-6.04453125e-08,1.80882813e-01
-6.04053125e-08,1.80918750e-01
-6.03653125e-08,1.80876563e-01
-6.03253125e-08,1.80932813e-01
-6.02853125e-08,1.80842188e-01
-6.02453125e-08,1.81109375e-01
-6.02053125e-08,1.81353125e-01
-6.01653125e-08,1.81270313e-01
-6.01253125e-08,1.81320312e-01
-6.00853125e-08,1.81284375e-01
-6.00453125e-08,1.81314063e-01
-6.00053125e-08,1.81287500e-01
-5.99653125e-08,1.81312500e-01
-5.99253125e-08,1.81287500e-01
-5.98853125e-08,1.81312500e-01
-5.98453125e-08,1.81285937e-01
-5.98053125e-08,1.81315625e-01
-5.97653125e-08,1.81282813e-01
-5.97253125e-08,1.81323438e-01
-5.96853125e-08,1.81267188e-01
-5.96453125e-08,1.81356250e-01
-5.96053125e-08,1.81090625e-01
-5.95653125e-08,1.80848438e-01
-5.95253125e-08,1.80928125e-01
-5.94853125e-08,1.80881250e-01
-5.94453125e-08,1.80914063e-01
-5.94053125e-08,1.80889063e-01
-5.93653125e-08,1.80907813e-01
-5.93253125e-08,1.80893750e-01
-5.92853125e-08,1.80904687e-01
-5.92453125e-08,1.80896875e-01
-5.92053125e-08,1.80901563e-01
-5.91653125e-08,1.80900000e-01
-5.91253125e-08,1.80898438e-01
-5.90853125e-08,1.80903125e-01
-5.90453125e-08,1.80893750e-01
-5.90053125e-08,1.80912500e-01
-5.89653125e-08,1.80878125e-01
-5.89253125e-08,1.80946875e-01
-5.88853125e-08,1.80700000e-01
-5.88453125e-08,1.80437500e-01
-5.88053125e-08,1.80539063e-01
-5.87653125e-08,1.80471875e-01
-5.87253125e-08,1.80523437e-01
-5.86853125e-08,1.80479688e-01
-5.86453125e-08,1.80518750e-01
-5.86053125e-08,1.80482813e-01
-5.85653125e-08,1.80517188e-01
-5.85253125e-08,1.80484375e-01
-5.84853125e-08,1.80515625e-01
-5.84453125e-08,1.80484375e-01
-5.84053125e-08,1.80515625e-01
-5.83653125e-08,1.80484375e-01
-5.83253125e-08,1.80515625e-01
-5.82853125e-08,1.80484375e-01
-5.82453125e-08,1.80515625e-01
-5.82053125e-08,1.80484375e-01
-5.81653125e-08,1.80515625e-01
-5.81253125e-08,1.80482813e-01
-5.80853125e-08,1.80517188e-01
-5.80453125e-08,1.80481250e-01
-5.80053125e-08,1.80520313e-01
-5.79653125e-08,1.80478125e-01
-5.79253125e-08,1.80525000e-01
-5.78853125e-08,1.80470313e-01
-5.78453125e-08,1.80540625e-01
-5.78053125e-08,1.80434375e-01
-5.77653125e-08,1.80718750e-01
-5.77253125e-08,1.80943750e-01
-5.76853125e-08,1.80879687e-01
-5.76453125e-08,1.80909375e-01
-5.76053125e-08,1.80895313e-01
-5.75653125e-08,1.80901563e-01
-5.75253125e-08,1.80901563e-01
-5.74853125e-08,1.80896875e-01
-5.74453125e-08,1.80904687e-01
-5.74053125e-08,1.80893750e-01
-5.73653125e-08,1.80907813e-01
-5.73253125e-08,1.80890625e-01
-5.72853125e-08,1.80912500e-01
-5.72453125e-08,1.80885938e-01
-5.72053125e-08,1.80917188e-01
-5.71653125e-08,1.80876563e-01
-5.71253125e-08,1.80932813e-01
-5.70853125e-08,1.80840625e-01
-5.70453125e-08,1.81112500e-01
-5.70053125e-08,1.81350000e-01
-5.69653125e-08,1.81275000e-01
-5.69253125e-08,1.81315625e-01
-5.68853125e-08,1.81289063e-01
-5.68453125e-08,1.81307812e-01
-5.68053125e-08,1.81295312e-01
-5.67653125e-08,1.81303125e-01
-5.67253125e-08,1.81298438e-01
-5.66853125e-08,1.81300000e-01
-5.66453125e-08,1.81301563e-01
-5.66053125e-08,1.81296875e-01
-5.65653125e-08,1.81304688e-01
-5.65253125e-08,1.81295312e-01
-5.64853125e-08,1.81306250e-01
-5.64453125e-08,1.81292188e-01
-5.64053125e-08,1.81310938e-01
-5.63653125e-08,1.81287500e-01
-5.63253125e-08,1.81317188e-01
-5.62853125e-08,1.81278125e-01
-5.62453125e-08,1.81332812e-01
-5.62053125e-08,1.81242188e-01
-5.61653125e-08,1.81510937e-01
-5.61253125e-08,1.81750000e-01
-5.60853125e-08,1.81675000e-01
-5.60453125e-08,1.81715625e-01
-5.60053125e-08,1.81690625e-01
-5.59653125e-08,1.81704688e-01
-5.59253125e-08,1.81698438e-01
-5.58853125e-08,1.81698438e-01
-5.58453125e-08,1.81704688e-01
-5.58053125e-08,1.81690625e-01
-5.57653125e-08,1.81715625e-01
-5.57253125e-08,1.81673438e-01
-5.56853125e-08,1.81751563e-01
-5.56453125e-08,1.81493750e-01
-5.56053125e-08,1.81243750e-01
-5.55653125e-08,1.81331250e-01
-5.55253125e-08,1.81279688e-01
-5.54853125e-08,1.81315625e-01
-5.54453125e-08,1.81289063e-01
-5.54053125e-08,1.81307812e-01
-5.53653125e-08,1.81295312e-01
-5.53253125e-08,1.81301563e-01
-5.52853125e-08,1.81301563e-01
-5.52453125e-08,1.81293750e-01
-5.52053125e-08,1.81312500e-01
-5.51653125e-08,1.81276563e-01
-5.51253125e-08,1.81348438e-01
-5.50853125e-08,1.81096875e-01
-5.50453125e-08,1.80842188e-01
-5.50053125e-08,1.80931250e-01
-5.49653125e-08,1.80879687e-01
-5.49253125e-08,1.80910938e-01
-5.48853125e-08,1.80896875e-01
-5.48453125e-08,1.80890625e-01
-5.48053125e-08,1.80935938e-01
-5.47653125e-08,1.80707813e-01
-5.47253125e-08,1.80431250e-01
-5.46853125e-08,1.80542188e-01
-5.46453125e-08,1.80471875e-01
-5.46053125e-08,1.80514063e-01
-5.45653125e-08,1.80510937e-01
-5.45253125e-08,1.80335938e-01
-5.44853125e-08,1.80000000e-01
-5.44453125e-08,1.80181250e-01
-5.44053125e-08,1.80018750e-01
-5.43653125e-08,1.80201562e-01
-5.43253125e-08,1.79846875e-01
-5.42853125e-08,1.79690625e-01
-5.42453125e-08,1.79684375e-01
-5.42053125e-08,1.79729688e-01
-5.41653125e-08,1.79656250e-01
-5.41253125e-08,1.79771875e-01
-5.40853125e-08,1.79471875e-01
-5.40453125e-08,1.79268750e-01
-5.40053125e-08,1.79303125e-01
-5.39653125e-08,1.79312500e-01
-5.39253125e-08,1.79273437e-01
-5.38853125e-08,1.79356250e-01
-5.38453125e-08,1.79087500e-01
-5.38053125e-08,1.78851563e-01
-5.37653125e-08,1.78921875e-01
-5.37253125e-08,1.78890625e-01
-5.36853125e-08,1.78900000e-01
-5.36453125e-08,1.78907813e-01
-5.36053125e-08,1.78879687e-01
-5.35653125e-08,1.78946875e-01
-5.35253125e-08,1.78698438e-01
-5.34853125e-08,1.78440625e-01
-5.34453125e-08,1.78534375e-01
-5.34053125e-08,1.78475000e-01
-5.33653125e-08,1.78518750e-01
-5.33253125e-08,1.78484375e-01
-5.32853125e-08,1.78514063e-01
-5.32453125e-08,1.78487500e-01
-5.32053125e-08,1.78510937e-01
-5.31653125e-08,1.78490625e-01
-5.31253125e-08,1.78507813e-01
-5.30853125e-08,1.78492188e-01
-5.30453125e-08,1.78506250e-01
-5.30053125e-08,1.78493750e-01
-5.29653125e-08,1.78506250e-01
-5.29253125e-08,1.78495313e-01
-5.28853125e-08,1.78504688e-01
-5.28453125e-08,1.78495313e-01
-5.28053125e-08,1.78504688e-01
-5.27653125e-08,1.78495313e-01
-5.27253125e-08,1.78504688e-01
-5.26853125e-08,1.78496875e-01
-5.26453125e-08,1.78503125e-01
-5.26053125e-08,1.78496875e-01
-5.25653125e-08,1.78503125e-01
-5.25253125e-08,1.78496875e-01
-5.24853125e-08,1.78503125e-01
-5.24453125e-08,1.78496875e-01
-5.24053125e-08,1.78503125e-01
-5.23653125e-08,1.78496875e-01
-5.23253125e-08,1.78503125e-01
-5.22853125e-08,1.78496875e-01
-5.22453125e-08,1.78503125e-01
-5.22053125e-08,1.78496875e-01
-5.21653125e-08,1.78503125e-01
-5.21253125e-08,1.78496875e-01
-5.20853125e-08,1.78503125e-01
-5.20453125e-08,1.78496875e-01
-5.20053125e-08,1.78503125e-01
-5.19653125e-08,1.78496875e-01
-5.19253125e-08,1.78503125e-01
-5.18853125e-08,1.78496875e-01
-5.18453125e-08,1.78504688e-01
-5.18053125e-08,1.78495313e-01
-5.17653125e-08,1.78504688e-01
-5.17253125e-08,1.78493750e-01
-5.16853125e-08,1.78506250e-01
-5.16453125e-08,1.78492188e-01
-5.16053125e-08,1.78509375e-01
-5.15653125e-08,1.78489063e-01
-5.15253125e-08,1.78514063e-01
-5.14853125e-08,1.78481250e-01
-5.14453125e-08,1.78528125e-01
-5.14053125e-08,1.78446875e-01
-5.13653125e-08,1.78706250e-01
-5.13253125e-08,1.78956250e-01
-5.12853125e-08,1.78867187e-01
-5.12453125e-08,1.78923438e-01
-5.12053125e-08,1.78881250e-01
-5.11653125e-08,1.78917188e-01
-5.11253125e-08,1.78885938e-01
-5.10853125e-08,1.78914062e-01
-5.10453125e-08,1.78887500e-01
-5.10053125e-08,1.78912500e-01
-5.09653125e-08,1.78887500e-01
-5.09253125e-08,1.78912500e-01
-5.08853125e-08,1.78887500e-01
-5.08453125e-08,1.78912500e-01
-5.08053125e-08,1.78885938e-01
-5.07653125e-08,1.78915625e-01
-5.07253125e-08,1.78882813e-01
-5.06853125e-08,1.78920313e-01
-5.06453125e-08,1.78875000e-01
-5.06053125e-08,1.78934375e-01
-5.05653125e-08,1.78840625e-01
-5.05253125e-08,1.79112500e-01
-5.04853125e-08,1.79350000e-01
-5.04453125e-08,1.79273437e-01
-5.04053125e-08,1.79317188e-01
-5.03653125e-08,1.79289063e-01
-5.03253125e-08,1.79307812e-01
-5.02853125e-08,1.79293750e-01
-5.02453125e-08,1.79304688e-01
-5.02053125e-08,1.79296875e-01
-5.01653125e-08,1.79301563e-01
-5.01253125e-08,1.79300000e-01
-5.00853125e-08,1.79298438e-01
-5.00453125e-08,1.79303125e-01
-5.00053125e-08,1.79293750e-01
-4.99653125e-08,1.79309375e-01
-4.99253125e-08,1.79285938e-01
-4.98853125e-08,1.79323438e-01
-4.98453125e-08,1.79251563e-01
-4.98053125e-08,1.79501563e-01
-4.97653125e-08,1.79760937e-01
-4.97253125e-08,1.79662500e-01
-4.96853125e-08,1.79728125e-01
-4.96453125e-08,1.79675000e-01
-4.96053125e-08,1.79721875e-01
-4.95653125e-08,1.79679688e-01
-4.95253125e-08,1.79720313e-01
-4.94853125e-08,1.79679688e-01
-4.94453125e-08,1.79721875e-01
-4.94053125e-08,1.79675000e-01
-4.93653125e-08,1.79728125e-01
-4.93253125e-08,1.79662500e-01
-4.92853125e-08,1.79762500e-01
-4.92453125e-08,1.79484375e-01
-4.92053125e-08,1.79253125e-01
-4.91653125e-08,1.79323438e-01
-4.91253125e-08,1.79285938e-01
-4.90853125e-08,1.79309375e-01
-4.90453125e-08,1.79293750e-01
-4.90053125e-08,1.79304688e-01
-4.89653125e-08,1.79296875e-01
-4.89253125e-08,1.79301563e-01
-4.88853125e-08,1.79300000e-01
-4.88453125e-08,1.79300000e-01
-4.88053125e-08,1.79301563e-01
-4.87653125e-08,1.79296875e-01
-4.87253125e-08,1.79303125e-01
-4.86853125e-08,1.79295312e-01
-4.86453125e-08,1.79306250e-01
-4.86053125e-08,1.79292188e-01
-4.85653125e-08,1.79309375e-01
-4.85253125e-08,1.79287500e-01
-4.84853125e-08,1.79318750e-01
-4.84453125e-08,1.79271875e-01
-4.84053125e-08,1.79353125e-01
-4.83653125e-08,1.79093750e-01
-4.83253125e-08,1.78843750e-01
-4.82853125e-08,1.78932813e-01
-4.82453125e-08,1.78876563e-01
-4.82053125e-08,1.78918750e-01
-4.81653125e-08,1.78884375e-01
-4.81253125e-08,1.78914062e-01
-4.80853125e-08,1.78887500e-01
-4.80453125e-08,1.78910938e-01
-4.80053125e-08,1.78889063e-01
-4.79653125e-08,1.78909375e-01
-4.79253125e-08,1.78890625e-01
-4.78853125e-08,1.78909375e-01
-4.78453125e-08,1.78892187e-01
-4.78053125e-08,1.78907813e-01
-4.77653125e-08,1.78892187e-01
-4.77253125e-08,1.78907813e-01
-4.76853125e-08,1.78892187e-01
-4.76453125e-08,1.78907813e-01
-4.76053125e-08,1.78890625e-01
-4.75653125e-08,1.78909375e-01
-4.75253125e-08,1.78890625e-01
-4.74853125e-08,1.78909375e-01
-4.74453125e-08,1.78889063e-01
-4.74053125e-08,1.78912500e-01
-4.73653125e-08,1.78885938e-01
-4.73253125e-08,1.78917188e-01
-4.72853125e-08,1.78878125e-01
-4.72453125e-08,1.78931250e-01
-4.72053125e-08,1.78843750e-01
-4.71653125e-08,1.79109375e-01
-4.71253125e-08,1.79353125e-01
-4.70853125e-08,1.79270313e-01
-4.70453125e-08,1.79321875e-01
-4.70053125e-08,1.79282812e-01
-4.69653125e-08,1.79314063e-01
-4.69253125e-08,1.79287500e-01
-4.68853125e-08,1.79312500e-01
-4.68453125e-08,1.79287500e-01
-4.68053125e-08,1.79312500e-01
-4.67653125e-08,1.79285938e-01
-4.67253125e-08,1.79315625e-01
-4.66853125e-08,1.79279688e-01
-4.66453125e-08,1.79329688e-01
-4.66053125e-08,1.79246875e-01
-4.65653125e-08,1.79504688e-01
-4.65253125e-08,1.79757813e-01
-4.64853125e-08,1.79664062e-01
-4.64453125e-08,1.79726563e-01
-4.64053125e-08,1.79675000e-01
-4.63653125e-08,1.79725000e-01
-4.63253125e-08,1.79673438e-01
-4.62853125e-08,1.79735937e-01
-4.62453125e-08,1.79640625e-01
-4.62053125e-08,1.79910938e-01
-4.61653125e-08,1.80153125e-01
-4.61253125e-08,1.80070312e-01
-4.60853125e-08,1.80121875e-01
-4.60453125e-08,1.80081250e-01
-4.60053125e-08,1.80117187e-01
-4.59653125e-08,1.80082812e-01
-4.59253125e-08,1.80118750e-01
-4.58853125e-08,1.80076563e-01
-4.58453125e-08,1.80131250e-01
-4.58053125e-08,1.80043750e-01
-4.57653125e-08,1.80309375e-01
-4.57253125e-08,1.80553125e-01
-4.56853125e-08,1.80470313e-01
-4.56453125e-08,1.80521875e-01
-4.56053125e-08,1.80482813e-01
-4.55653125e-08,1.80514063e-01
-4.55253125e-08,1.80487500e-01
-4.54853125e-08,1.80510937e-01
-4.54453125e-08,1.80490625e-01
-4.54053125e-08,1.80509375e-01
-4.53653125e-08,1.80490625e-01
-4.53253125e-08,1.80509375e-01
-4.52853125e-08,1.80492188e-01
-4.52453125e-08,1.80507813e-01
-4.52053125e-08,1.80492188e-01
-4.51653125e-08,1.80507813e-01
-4.51253125e-08,1.80492188e-01
-4.50853125e-08,1.80507813e-01
-4.50453125e-08,1.80492188e-01
-4.50053125e-08,1.80507813e-01
-4.49653125e-08,1.80490625e-01
-4.49253125e-08,1.80509375e-01
-4.48853125e-08,1.80490625e-01
-4.48453125e-08,1.80509375e-01
-4.48053125e-08,1.80490625e-01
-4.47653125e-08,1.80510937e-01
-4.47253125e-08,1.80489063e-01
-4.46853125e-08,1.80512500e-01
-4.46453125e-08,1.80487500e-01
-4.46053125e-08,1.80514063e-01
-4.45653125e-08,1.80484375e-01
-4.45253125e-08,1.80518750e-01
-4.44853125e-08,1.80478125e-01
-4.44453125e-08,1.80526563e-01
-4.44053125e-08,1.80462500e-01
-4.43653125e-08,1.80562500e-01
-4.43253125e-08,1.80284375e-01
-4.42853125e-08,1.80054688e-01
-4.42453125e-08,1.80121875e-01
-4.42053125e-08,1.80089063e-01
-4.41653125e-08,1.80104687e-01
-4.41253125e-08,1.80100000e-01
-4.40853125e-08,1.80096875e-01
-4.40453125e-08,1.80107813e-01
-4.40053125e-08,1.80085938e-01
-4.39653125e-08,1.80125000e-01
-4.39253125e-08,1.80048438e-01
-4.38853125e-08,1.80304688e-01
-4.38453125e-08,1.80556250e-01
-4.38053125e-08,1.80467188e-01
-4.37653125e-08,1.80523437e-01
-4.37253125e-08,1.80482813e-01
-4.36853125e-08,1.80514063e-01
-4.36453125e-08,1.80489063e-01
-4.36053125e-08,1.80509375e-01
-4.35653125e-08,1.80492188e-01
-4.35253125e-08,1.80506250e-01
-4.34853125e-08,1.80495313e-01
-4.34453125e-08,1.80503125e-01
-4.34053125e-08,1.80498437e-01
-4.33653125e-08,1.80498437e-01
-4.33253125e-08,1.80504688e-01
-4.32853125e-08,1.80490625e-01
-4.32453125e-08,1.80518750e-01
-4.32053125e-08,1.80456250e-01
-4.31653125e-08,1.80696875e-01
-4.31253125e-08,1.80965625e-01
-4.30853125e-08,1.80857812e-01
-4.30453125e-08,1.80934375e-01
-4.30053125e-08,1.80870313e-01
-4.29653125e-08,1.80928125e-01
-4.29253125e-08,1.80871875e-01
-4.28853125e-08,1.80929688e-01
-4.28453125e-08,1.80865625e-01
-4.28053125e-08,1.80942188e-01
-4.27653125e-08,1.80832812e-01
-4.27253125e-08,1.81120313e-01
-4.26853125e-08,1.81342188e-01
-4.26453125e-08,1.81281250e-01
-4.26053125e-08,1.81309375e-01
-4.25653125e-08,1.81295312e-01
-4.25253125e-08,1.81300000e-01
-4.24853125e-08,1.81303125e-01
-4.24453125e-08,1.81293750e-01
-4.24053125e-08,1.81309375e-01
-4.23653125e-08,1.81285937e-01
-4.23253125e-08,1.81325000e-01
-4.22853125e-08,1.81250000e-01
-4.22453125e-08,1.81501563e-01
-4.22053125e-08,1.81760937e-01
-4.21653125e-08,1.81664063e-01
-4.21253125e-08,1.81728125e-01
-4.20853125e-08,1.81676562e-01
-4.20453125e-08,1.81721875e-01
-4.20053125e-08,1.81679688e-01
-4.19653125e-08,1.81720313e-01
-4.19253125e-08,1.81678125e-01
-4.18853125e-08,1.81723438e-01
-4.18453125e-08,1.81671875e-01
-4.18053125e-08,1.81737500e-01
-4.17653125e-08,1.81637500e-01
-4.17253125e-08,1.81915625e-01
-4.16853125e-08,1.82146875e-01
-4.16453125e-08,1.82076563e-01
-4.16053125e-08,1.82114063e-01
-4.15653125e-08,1.82090625e-01
-4.15253125e-08,1.82106250e-01
-4.14853125e-08,1.82096875e-01
-4.14453125e-08,1.82101563e-01
-4.14053125e-08,1.82101563e-01
-4.13653125e-08,1.82096875e-01
-4.13253125e-08,1.82104688e-01
-4.12853125e-08,1.82092188e-01
-4.12453125e-08,1.82110938e-01
-4.12053125e-08,1.82084375e-01
-4.11653125e-08,1.82126563e-01
-4.11253125e-08,1.82048437e-01
-4.10853125e-08,1.82304688e-01
-4.10453125e-08,1.82557812e-01
-4.10053125e-08,1.82467188e-01
-4.09653125e-08,1.82523437e-01
-4.09253125e-08,1.82481250e-01
-4.08853125e-08,1.82514063e-01
-4.08453125e-08,1.82487500e-01
-4.08053125e-08,1.82510937e-01
-4.07653125e-08,1.82490625e-01
-4.07253125e-08,1.82506250e-01
-4.06853125e-08,1.82495313e-01
-4.06453125e-08,1.82503125e-01
-4.06053125e-08,1.82498437e-01
-4.05653125e-08,1.82498437e-01
-4.05253125e-08,1.82507813e-01
-4.04853125e-08,1.82482813e-01
-4.04453125e-08,1.82542188e-01
-4.04053125e-08,1.82304688e-01
-4.03653125e-08,1.82031250e-01
-4.03253125e-08,1.82145313e-01
-4.02853125e-08,1.82064063e-01
-4.02453125e-08,1.82131250e-01
-4.02053125e-08,1.82070312e-01
-4.01653125e-08,1.82128125e-01
-4.01253125e-08,1.82071875e-01
-4.00853125e-08,1.82129687e-01
-4.00453125e-08,1.82067188e-01
-4.00053125e-08,1.82137500e-01
-3.99653125e-08,1.82053125e-01
-3.99253125e-08,1.82171875e-01
-3.98853125e-08,1.81875000e-01
-3.98453125e-08,1.81662500e-01
-3.98053125e-08,1.81712500e-01
-3.97653125e-08,1.81696875e-01
-3.97253125e-08,1.81696875e-01
-3.96853125e-08,1.81707813e-01
-3.96453125e-08,1.81687500e-01
-3.96053125e-08,1.81718750e-01
-3.95653125e-08,1.81670313e-01
-3.95253125e-08,1.81756250e-01
-3.94853125e-08,1.81490625e-01
-3.94453125e-08,1.81246875e-01
-3.94053125e-08,1.81328125e-01
-3.93653125e-08,1.81281250e-01
-3.93253125e-08,1.81314063e-01
-3.92853125e-08,1.81290625e-01
-3.92453125e-08,1.81307812e-01
-3.92053125e-08,1.81293750e-01
-3.91653125e-08,1.81304688e-01
-3.91253125e-08,1.81296875e-01
-3.90853125e-08,1.81303125e-01
-3.90453125e-08,1.81298438e-01
-3.90053125e-08,1.81301563e-01
-3.89653125e-08,1.81298438e-01
-3.89253125e-08,1.81300000e-01
-3.88853125e-08,1.81300000e-01
-3.88453125e-08,1.81300000e-01
-3.88053125e-08,1.81300000e-01
-3.87653125e-08,1.81298438e-01
-3.87253125e-08,1.81301563e-01
-3.86853125e-08,1.81298438e-01
-3.86453125e-08,1.81301563e-01
-3.86053125e-08,1.81298438e-01
-3.85653125e-08,1.81303125e-01
-3.85253125e-08,1.81296875e-01
