trails/0ad503bf4c7e473689fcee6623a13564/aes_ch1_20250507104809861.csv

Model,MSO66B
Label,
Waveform Type,ANALOG
Horizontal Units,s
Sample Interval,4.00000000e-11
Record Length,10000
Zero Index,1599.09375000
Vertical Units,A
ANALOG_Thumbnail,
yOffset,1.84500000e-01
yPosition,8.40000000e-01

Labels,
TIME,CH1
-6.39637500e-08,1.79700000e-01
-6.39237500e-08,1.79701562e-01
-6.38837500e-08,1.79698438e-01
-6.38437500e-08,1.79701562e-01
-6.38037500e-08,1.79696875e-01
-6.37637500e-08,1.79703125e-01
-6.37237500e-08,1.79695313e-01
-6.36837500e-08,1.79706250e-01
-6.36437500e-08,1.79692188e-01
-6.36037500e-08,1.79710938e-01
-6.35637500e-08,1.79682813e-01
-6.35237500e-08,1.79726563e-01
-6.34837500e-08,1.79648438e-01
-6.34437500e-08,1.79904687e-01
-6.34037500e-08,1.80157813e-01
-6.33637500e-08,1.80065625e-01
-6.33237500e-08,1.80125000e-01
-6.32837500e-08,1.80079688e-01
-6.32437500e-08,1.80117187e-01
-6.32037500e-08,1.80085938e-01
-6.31637500e-08,1.80112500e-01
-6.31237500e-08,1.80087500e-01
-6.30837500e-08,1.80110938e-01
-6.30437500e-08,1.80089063e-01
-6.30037500e-08,1.80109375e-01
-6.29637500e-08,1.80090625e-01
-6.29237500e-08,1.80109375e-01
-6.28837500e-08,1.80090625e-01
-6.28437500e-08,1.80107813e-01
-6.28037500e-08,1.80092188e-01
-6.27637500e-08,1.80107813e-01
-6.27237500e-08,1.80092188e-01
-6.26837500e-08,1.80107813e-01
-6.26437500e-08,1.80092188e-01
-6.26037500e-08,1.80107813e-01
-6.25637500e-08,1.80092188e-01
-6.25237500e-08,1.80107813e-01
-6.24837500e-08,1.80092188e-01
-6.24437500e-08,1.80107813e-01
-6.24037500e-08,1.80092188e-01
-6.23637500e-08,1.80107813e-01
-6.23237500e-08,1.80092188e-01
-6.22837500e-08,1.80107813e-01
-6.22437500e-08,1.80092188e-01
-6.22037500e-08,1.80107813e-01
-6.21637500e-08,1.80092188e-01
-6.21237500e-08,1.80109375e-01
-6.20837500e-08,1.80090625e-01
-6.20437500e-08,1.80109375e-01
-6.20037500e-08,1.80090625e-01
-6.19637500e-08,1.80109375e-01
-6.19237500e-08,1.80089063e-01
-6.18837500e-08,1.80110938e-01
-6.18437500e-08,1.80087500e-01
-6.18037500e-08,1.80112500e-01
-6.17637500e-08,1.80085938e-01
-6.17237500e-08,1.80115625e-01
-6.16837500e-08,1.80082812e-01
-6.16437500e-08,1.80118750e-01
-6.16037500e-08,1.80076563e-01
-6.15637500e-08,1.80128125e-01
-6.15237500e-08,1.80060938e-01
-6.14837500e-08,1.80164062e-01
-6.14437500e-08,1.79881250e-01
-6.14037500e-08,1.79657813e-01
-6.13637500e-08,1.79717188e-01
-6.13237500e-08,1.79693750e-01
-6.12837500e-08,1.79696875e-01
-6.12437500e-08,1.79710938e-01
-6.12037500e-08,1.79676562e-01
-6.11637500e-08,1.79750000e-01
-6.11237500e-08,1.79495313e-01
-6.10837500e-08,1.79243750e-01
-6.10437500e-08,1.79329688e-01
-6.10037500e-08,1.79281250e-01
-6.09637500e-08,1.79310938e-01
-6.09237500e-08,1.79298438e-01
-6.08837500e-08,1.79290625e-01
-6.08437500e-08,1.79335938e-01
-6.08037500e-08,1.79110938e-01
-6.07637500e-08,1.78826563e-01
-6.07237500e-08,1.78950000e-01
-6.06837500e-08,1.78859375e-01
-6.06437500e-08,1.78937500e-01
-6.06037500e-08,1.78862500e-01
-6.05637500e-08,1.78939062e-01
-6.05237500e-08,1.78853125e-01
-6.04837500e-08,1.78970313e-01
-6.04437500e-08,1.78676562e-01
-6.04037500e-08,1.78459375e-01
-6.03637500e-08,1.78517188e-01
-6.03237500e-08,1.78492188e-01
-6.02837500e-08,1.78503125e-01
-6.02437500e-08,1.78498437e-01
-6.02037500e-08,1.78500000e-01
-6.01637500e-08,1.78501563e-01
-6.01237500e-08,1.78496875e-01
-6.00837500e-08,1.78503125e-01
-6.00437500e-08,1.78496875e-01
-6.00037500e-08,1.78504688e-01
-5.99637500e-08,1.78495313e-01
-5.99237500e-08,1.78504688e-01
-5.98837500e-08,1.78495313e-01
-5.98437500e-08,1.78504688e-01
-5.98037500e-08,1.78493750e-01
-5.97637500e-08,1.78506250e-01
-5.97237500e-08,1.78493750e-01
-5.96837500e-08,1.78506250e-01
-5.96437500e-08,1.78493750e-01
-5.96037500e-08,1.78507813e-01
-5.95637500e-08,1.78492188e-01
-5.95237500e-08,1.78507813e-01
-5.94837500e-08,1.78492188e-01
-5.94437500e-08,1.78509375e-01
-5.94037500e-08,1.78490625e-01
-5.93637500e-08,1.78510937e-01
-5.93237500e-08,1.78487500e-01
-5.92837500e-08,1.78514063e-01
-5.92437500e-08,1.78484375e-01
-5.92037500e-08,1.78518750e-01
-5.91637500e-08,1.78476563e-01
-5.91237500e-08,1.78534375e-01
-5.90837500e-08,1.78440625e-01
-5.90437500e-08,1.78712500e-01
-5.90037500e-08,1.78950000e-01
-5.89637500e-08,1.78873438e-01
-5.89237500e-08,1.78917188e-01
-5.88837500e-08,1.78887500e-01
-5.88437500e-08,1.78909375e-01
-5.88037500e-08,1.78893750e-01
-5.87637500e-08,1.78904688e-01
-5.87237500e-08,1.78896875e-01
-5.86837500e-08,1.78903125e-01
-5.86437500e-08,1.78898438e-01
-5.86037500e-08,1.78901562e-01
-5.85637500e-08,1.78900000e-01
-5.85237500e-08,1.78900000e-01
-5.84837500e-08,1.78901562e-01
-5.84437500e-08,1.78898438e-01
-5.84037500e-08,1.78901562e-01
-5.83637500e-08,1.78896875e-01
-5.83237500e-08,1.78903125e-01
-5.82837500e-08,1.78895313e-01
-5.82437500e-08,1.78904688e-01
-5.82037500e-08,1.78893750e-01
-5.81637500e-08,1.78907813e-01
-5.81237500e-08,1.78890625e-01
-5.80837500e-08,1.78910938e-01
-5.80437500e-08,1.78885938e-01
-5.80037500e-08,1.78920313e-01
-5.79637500e-08,1.78870313e-01
-5.79237500e-08,1.78954688e-01
-5.78837500e-08,1.78692188e-01
-5.78437500e-08,1.78445313e-01
-5.78037500e-08,1.78531250e-01
-5.77637500e-08,1.78478125e-01
-5.77237500e-08,1.78515625e-01
-5.76837500e-08,1.78487500e-01
-5.76437500e-08,1.78510937e-01
-5.76037500e-08,1.78490625e-01
-5.75637500e-08,1.78507813e-01
-5.75237500e-08,1.78492188e-01
-5.74837500e-08,1.78506250e-01
-5.74437500e-08,1.78493750e-01
-5.74037500e-08,1.78504688e-01
-5.73637500e-08,1.78495313e-01
-5.73237500e-08,1.78504688e-01
-5.72837500e-08,1.78495313e-01
-5.72437500e-08,1.78503125e-01
-5.72037500e-08,1.78496875e-01
-5.71637500e-08,1.78503125e-01
-5.71237500e-08,1.78496875e-01
-5.70837500e-08,1.78503125e-01
-5.70437500e-08,1.78496875e-01
-5.70037500e-08,1.78503125e-01
-5.69637500e-08,1.78498437e-01
-5.69237500e-08,1.78501563e-01
-5.68837500e-08,1.78498437e-01
-5.68437500e-08,1.78501563e-01
-5.68037500e-08,1.78498437e-01
-5.67637500e-08,1.78501563e-01
-5.67237500e-08,1.78498437e-01
-5.66837500e-08,1.78501563e-01
-5.66437500e-08,1.78498437e-01
-5.66037500e-08,1.78500000e-01
-5.65637500e-08,1.78500000e-01
-5.65237500e-08,1.78500000e-01
-5.64837500e-08,1.78500000e-01
-5.64437500e-08,1.78500000e-01
-5.64037500e-08,1.78500000e-01
-5.63637500e-08,1.78500000e-01
-5.63237500e-08,1.78500000e-01
-5.62837500e-08,1.78500000e-01
-5.62437500e-08,1.78500000e-01
-5.62037500e-08,1.78500000e-01
-5.61637500e-08,1.78500000e-01
-5.61237500e-08,1.78498437e-01
-5.60837500e-08,1.78501563e-01
-5.60437500e-08,1.78498437e-01
-5.60037500e-08,1.78501563e-01
-5.59637500e-08,1.78498437e-01
-5.59237500e-08,1.78501563e-01
-5.58837500e-08,1.78498437e-01
-5.58437500e-08,1.78503125e-01
-5.58037500e-08,1.78496875e-01
-5.57637500e-08,1.78503125e-01
-5.57237500e-08,1.78496875e-01
-5.56837500e-08,1.78503125e-01
-5.56437500e-08,1.78495313e-01
-5.56037500e-08,1.78504688e-01
-5.55637500e-08,1.78495313e-01
-5.55237500e-08,1.78506250e-01
-5.54837500e-08,1.78492188e-01
-5.54437500e-08,1.78507813e-01
-5.54037500e-08,1.78490625e-01
-5.53637500e-08,1.78512500e-01
-5.53237500e-08,1.78484375e-01
-5.52837500e-08,1.78520313e-01
-5.52437500e-08,1.78470313e-01
-5.52037500e-08,1.78554688e-01
-5.51637500e-08,1.78292188e-01
-5.51237500e-08,1.78045312e-01
-5.50837500e-08,1.78129687e-01
-5.50437500e-08,1.78079688e-01
-5.50037500e-08,1.78115625e-01
-5.49637500e-08,1.78087500e-01
-5.49237500e-08,1.78110938e-01
-5.48837500e-08,1.78090625e-01
-5.48437500e-08,1.78107813e-01
-5.48037500e-08,1.78093750e-01
-5.47637500e-08,1.78106250e-01
-5.47237500e-08,1.78095313e-01
-5.46837500e-08,1.78104687e-01
-5.46437500e-08,1.78096875e-01
-5.46037500e-08,1.78103125e-01
-5.45637500e-08,1.78096875e-01
-5.45237500e-08,1.78101563e-01
-5.44837500e-08,1.78098438e-01
-5.44437500e-08,1.78101563e-01
-5.44037500e-08,1.78100000e-01
-5.43637500e-08,1.78100000e-01
-5.43237500e-08,1.78101563e-01
-5.42837500e-08,1.78098438e-01
-5.42437500e-08,1.78103125e-01
-5.42037500e-08,1.78095313e-01
-5.41637500e-08,1.78107813e-01
-5.41237500e-08,1.78089063e-01
-5.40837500e-08,1.78115625e-01
-5.40437500e-08,1.78075000e-01
-5.40037500e-08,1.78150000e-01
-5.39637500e-08,1.77896875e-01
-5.39237500e-08,1.77640625e-01
-5.38837500e-08,1.77734375e-01
-5.38437500e-08,1.77673438e-01
-5.38037500e-08,1.77720313e-01
-5.37637500e-08,1.77682813e-01
-5.37237500e-08,1.77715625e-01
-5.36837500e-08,1.77685938e-01
-5.36437500e-08,1.77714063e-01
-5.36037500e-08,1.77687500e-01
-5.35637500e-08,1.77712500e-01
-5.35237500e-08,1.77689062e-01
-5.34837500e-08,1.77710937e-01
-5.34437500e-08,1.77689062e-01
-5.34037500e-08,1.77710937e-01
-5.33637500e-08,1.77689062e-01
-5.33237500e-08,1.77710937e-01
-5.32837500e-08,1.77689062e-01
-5.32437500e-08,1.77712500e-01
-5.32037500e-08,1.77687500e-01
-5.31637500e-08,1.77714063e-01
-5.31237500e-08,1.77685938e-01
-5.30837500e-08,1.77717188e-01
-5.30437500e-08,1.77679688e-01
-5.30037500e-08,1.77725000e-01
-5.29637500e-08,1.77665625e-01
-5.29237500e-08,1.77759375e-01
-5.28837500e-08,1.77489063e-01
-5.28437500e-08,1.77248437e-01
-5.28037500e-08,1.77326563e-01
-5.27637500e-08,1.77281250e-01
-5.27237500e-08,1.77314063e-01
-5.26837500e-08,1.77289063e-01
-5.26437500e-08,1.77307812e-01
-5.26037500e-08,1.77292188e-01
-5.25637500e-08,1.77306250e-01
-5.25237500e-08,1.77293750e-01
-5.24837500e-08,1.77304688e-01
-5.24437500e-08,1.77295312e-01
-5.24037500e-08,1.77304688e-01
-5.23637500e-08,1.77295312e-01
-5.23237500e-08,1.77304688e-01
-5.22837500e-08,1.77295312e-01
-5.22437500e-08,1.77304688e-01
-5.22037500e-08,1.77293750e-01
-5.21637500e-08,1.77306250e-01
-5.21237500e-08,1.77292188e-01
-5.20837500e-08,1.77309375e-01
-5.20437500e-08,1.77289063e-01
-5.20037500e-08,1.77314063e-01
-5.19637500e-08,1.77281250e-01
-5.19237500e-08,1.77328125e-01
-5.18837500e-08,1.77248437e-01
-5.18437500e-08,1.77504688e-01
-5.18037500e-08,1.77757813e-01
-5.17637500e-08,1.77665625e-01
-5.17237500e-08,1.77725000e-01
-5.16837500e-08,1.77679688e-01
-5.16437500e-08,1.77717188e-01
-5.16037500e-08,1.77684375e-01
-5.15637500e-08,1.77715625e-01
-5.15237500e-08,1.77684375e-01
-5.14837500e-08,1.77715625e-01
-5.14437500e-08,1.77682813e-01
-5.14037500e-08,1.77720313e-01
-5.13637500e-08,1.77676562e-01
-5.13237500e-08,1.77732813e-01
-5.12837500e-08,1.77642187e-01
-5.12437500e-08,1.77909375e-01
-5.12037500e-08,1.78153125e-01
-5.11637500e-08,1.78070312e-01
-5.11237500e-08,1.78121875e-01
-5.10837500e-08,1.78082813e-01
-5.10437500e-08,1.78115625e-01
-5.10037500e-08,1.78085938e-01
-5.09637500e-08,1.78114063e-01
-5.09237500e-08,1.78084375e-01
-5.08837500e-08,1.78117187e-01
-5.08437500e-08,1.78078125e-01
-5.08037500e-08,1.78131250e-01
-5.07637500e-08,1.78043750e-01
-5.07237500e-08,1.78307812e-01
-5.06837500e-08,1.78554688e-01
-5.06437500e-08,1.78468750e-01
-5.06037500e-08,1.78521875e-01
-5.05637500e-08,1.78482813e-01
-5.05237500e-08,1.78514063e-01
-5.04837500e-08,1.78487500e-01
-5.04437500e-08,1.78510937e-01
-5.04037500e-08,1.78490625e-01
-5.03637500e-08,1.78509375e-01
-5.03237500e-08,1.78490625e-01
-5.02837500e-08,1.78507813e-01
-5.02437500e-08,1.78492188e-01
-5.02037500e-08,1.78507813e-01
-5.01637500e-08,1.78492188e-01
-5.01237500e-08,1.78507813e-01
-5.00837500e-08,1.78492188e-01
-5.00437500e-08,1.78507813e-01
-5.00037500e-08,1.78492188e-01
-4.99637500e-08,1.78507813e-01
-4.99237500e-08,1.78490625e-01
-4.98837500e-08,1.78509375e-01
-4.98437500e-08,1.78490625e-01
-4.98037500e-08,1.78510937e-01
-4.97637500e-08,1.78489063e-01
-4.97237500e-08,1.78512500e-01
-4.96837500e-08,1.78484375e-01
-4.96437500e-08,1.78518750e-01
-4.96037500e-08,1.78476563e-01
-4.95637500e-08,1.78532812e-01
-4.95237500e-08,1.78442188e-01
-4.94837500e-08,1.78710938e-01
-4.94437500e-08,1.78951562e-01
-4.94037500e-08,1.78871875e-01
-4.93637500e-08,1.78918750e-01
-4.93237500e-08,1.78885938e-01
-4.92837500e-08,1.78910938e-01
-4.92437500e-08,1.78890625e-01
-4.92037500e-08,1.78907813e-01
-4.91637500e-08,1.78893750e-01
-4.91237500e-08,1.78906250e-01
-4.90837500e-08,1.78895313e-01
-4.90437500e-08,1.78904688e-01
-4.90037500e-08,1.78895313e-01
-4.89637500e-08,1.78904688e-01
-4.89237500e-08,1.78896875e-01
-4.88837500e-08,1.78903125e-01
-4.88437500e-08,1.78896875e-01
-4.88037500e-08,1.78903125e-01
-4.87637500e-08,1.78896875e-01
-4.87237500e-08,1.78903125e-01
-4.86837500e-08,1.78896875e-01
-4.86437500e-08,1.78903125e-01
-4.86037500e-08,1.78896875e-01
-4.85637500e-08,1.78903125e-01
-4.85237500e-08,1.78896875e-01
-4.84837500e-08,1.78903125e-01
-4.84437500e-08,1.78895313e-01
-4.84037500e-08,1.78904688e-01
-4.83637500e-08,1.78895313e-01
-4.83237500e-08,1.78904688e-01
-4.82837500e-08,1.78893750e-01
-4.82437500e-08,1.78907813e-01
-4.82037500e-08,1.78892187e-01
-4.81637500e-08,1.78910938e-01
-4.81237500e-08,1.78885938e-01
-4.80837500e-08,1.78918750e-01
-4.80437500e-08,1.78871875e-01
-4.80037500e-08,1.78951562e-01
-4.79637500e-08,1.78695313e-01
-4.79237500e-08,1.78442188e-01
-4.78837500e-08,1.78534375e-01
-4.78437500e-08,1.78475000e-01
-4.78037500e-08,1.78520313e-01
-4.77637500e-08,1.78482813e-01
-4.77237500e-08,1.78515625e-01
-4.76837500e-08,1.78484375e-01
-4.76437500e-08,1.78514063e-01
-4.76037500e-08,1.78485937e-01
-4.75637500e-08,1.78514063e-01
-4.75237500e-08,1.78484375e-01
-4.74837500e-08,1.78517188e-01
-4.74437500e-08,1.78479688e-01
-4.74037500e-08,1.78525000e-01
-4.73637500e-08,1.78465625e-01
-4.73237500e-08,1.78559375e-01
-4.72837500e-08,1.78289063e-01
-4.72437500e-08,1.78048438e-01
-4.72037500e-08,1.78128125e-01
-4.71637500e-08,1.78081250e-01
-4.71237500e-08,1.78114063e-01
-4.70837500e-08,1.78089063e-01
-4.70437500e-08,1.78109375e-01
-4.70037500e-08,1.78092187e-01
-4.69637500e-08,1.78106250e-01
-4.69237500e-08,1.78093750e-01
-4.68837500e-08,1.78104687e-01
-4.68437500e-08,1.78095313e-01
-4.68037500e-08,1.78104687e-01
-4.67637500e-08,1.78095313e-01
-4.67237500e-08,1.78104687e-01
-4.66837500e-08,1.78095313e-01
-4.66437500e-08,1.78104687e-01
-4.66037500e-08,1.78095313e-01
-4.65637500e-08,1.78104687e-01
-4.65237500e-08,1.78095313e-01
-4.64837500e-08,1.78104687e-01
-4.64437500e-08,1.78095313e-01
-4.64037500e-08,1.78104687e-01
-4.63637500e-08,1.78095313e-01
-4.63237500e-08,1.78104687e-01
-4.62837500e-08,1.78093750e-01
-4.62437500e-08,1.78106250e-01
-4.62037500e-08,1.78092187e-01
-4.61637500e-08,1.78107813e-01
-4.61237500e-08,1.78090625e-01
-4.60837500e-08,1.78110938e-01
-4.60437500e-08,1.78087500e-01
-4.60037500e-08,1.78115625e-01
-4.59637500e-08,1.78078125e-01
-4.59237500e-08,1.78131250e-01
-4.58837500e-08,1.78043750e-01
-4.58437500e-08,1.78309375e-01
-4.58037500e-08,1.78551563e-01
-4.57637500e-08,1.78471875e-01
-4.57237500e-08,1.78518750e-01
-4.56837500e-08,1.78487500e-01
-4.56437500e-08,1.78507813e-01
-4.56037500e-08,1.78495313e-01
-4.55637500e-08,1.78501563e-01
-4.55237500e-08,1.78501563e-01
-4.54837500e-08,1.78492188e-01
-4.54437500e-08,1.78517188e-01
-4.54037500e-08,1.78457813e-01
-4.53637500e-08,1.78695313e-01
-4.53237500e-08,1.78965625e-01
-4.52837500e-08,1.78857813e-01
-4.52437500e-08,1.78934375e-01
-4.52037500e-08,1.78870313e-01
-4.51637500e-08,1.78926562e-01
-4.51237500e-08,1.78873438e-01
-4.50837500e-08,1.78925000e-01
-4.50437500e-08,1.78873438e-01
-4.50037500e-08,1.78928125e-01
-4.49637500e-08,1.78867187e-01
-4.49237500e-08,1.78942188e-01
-4.48837500e-08,1.78832812e-01
-4.48437500e-08,1.79118750e-01
-4.48037500e-08,1.79343750e-01
-4.47637500e-08,1.79279688e-01
-4.47237500e-08,1.79310938e-01
-4.46837500e-08,1.79293750e-01
-4.46437500e-08,1.79303125e-01
-4.46037500e-08,1.79298438e-01
-4.45637500e-08,1.79300000e-01
-4.45237500e-08,1.79301563e-01
-4.44837500e-08,1.79298438e-01
-4.44437500e-08,1.79303125e-01
-4.44037500e-08,1.79296875e-01
-4.43637500e-08,1.79304688e-01
-4.43237500e-08,1.79295312e-01
-4.42837500e-08,1.79306250e-01
-4.42437500e-08,1.79293750e-01
-4.42037500e-08,1.79306250e-01
-4.41637500e-08,1.79292188e-01
-4.41237500e-08,1.79307812e-01
-4.40837500e-08,1.79290625e-01
-4.40437500e-08,1.79310938e-01
-4.40037500e-08,1.79287500e-01
-4.39637500e-08,1.79314063e-01
-4.39237500e-08,1.79282812e-01
-4.38837500e-08,1.79321875e-01
-4.38437500e-08,1.79267188e-01
-4.38037500e-08,1.79357813e-01
-4.37637500e-08,1.79089063e-01
-4.37237500e-08,1.78848438e-01
-4.36837500e-08,1.78928125e-01
-4.36437500e-08,1.78881250e-01
-4.36037500e-08,1.78914062e-01
-4.35637500e-08,1.78889063e-01
-4.35237500e-08,1.78907813e-01
-4.34837500e-08,1.78893750e-01
-4.34437500e-08,1.78906250e-01
-4.34037500e-08,1.78895313e-01
-4.33637500e-08,1.78904688e-01
-4.33237500e-08,1.78896875e-01
-4.32837500e-08,1.78903125e-01
-4.32437500e-08,1.78896875e-01
-4.32037500e-08,1.78901562e-01
-4.31637500e-08,1.78898438e-01
-4.31237500e-08,1.78901562e-01
-4.30837500e-08,1.78898438e-01
-4.30437500e-08,1.78901562e-01
-4.30037500e-08,1.78898438e-01
-4.29637500e-08,1.78901562e-01
-4.29237500e-08,1.78900000e-01
-4.28837500e-08,1.78900000e-01
-4.28437500e-08,1.78900000e-01
-4.28037500e-08,1.78900000e-01
-4.27637500e-08,1.78900000e-01
-4.27237500e-08,1.78900000e-01
-4.26837500e-08,1.78900000e-01
-4.26437500e-08,1.78900000e-01
-4.26037500e-08,1.78900000e-01
-4.25637500e-08,1.78900000e-01
-4.25237500e-08,1.78900000e-01
-4.24837500e-08,1.78900000e-01
-4.24437500e-08,1.78900000e-01
-4.24037500e-08,1.78898438e-01
-4.23637500e-08,1.78901562e-01
-4.23237500e-08,1.78898438e-01
-4.22837500e-08,1.78901562e-01
-4.22437500e-08,1.78898438e-01
-4.22037500e-08,1.78901562e-01
-4.21637500e-08,1.78898438e-01
-4.21237500e-08,1.78901562e-01
-4.20837500e-08,1.78898438e-01
-4.20437500e-08,1.78901562e-01
-4.20037500e-08,1.78898438e-01
-4.19637500e-08,1.78901562e-01
-4.19237500e-08,1.78898438e-01
-4.18837500e-08,1.78901562e-01
-4.18437500e-08,1.78898438e-01
-4.18037500e-08,1.78901562e-01
-4.17637500e-08,1.78898438e-01
-4.17237500e-08,1.78901562e-01
-4.16837500e-08,1.78896875e-01
-4.16437500e-08,1.78903125e-01
-4.16037500e-08,1.78896875e-01
-4.15637500e-08,1.78903125e-01
-4.15237500e-08,1.78896875e-01
-4.14837500e-08,1.78903125e-01
-4.14437500e-08,1.78896875e-01
-4.14037500e-08,1.78903125e-01
-4.13637500e-08,1.78896875e-01
-4.13237500e-08,1.78903125e-01
-4.12837500e-08,1.78896875e-01
-4.12437500e-08,1.78903125e-01
-4.12037500e-08,1.78895313e-01
-4.11637500e-08,1.78904688e-01
-4.11237500e-08,1.78895313e-01
-4.10837500e-08,1.78904688e-01
-4.10437500e-08,1.78895313e-01
-4.10037500e-08,1.78904688e-01
-4.09637500e-08,1.78893750e-01
-4.09237500e-08,1.78906250e-01
-4.08837500e-08,1.78893750e-01
-4.08437500e-08,1.78907813e-01
-4.08037500e-08,1.78892187e-01
-4.07637500e-08,1.78907813e-01
-4.07237500e-08,1.78890625e-01
-4.06837500e-08,1.78910938e-01
-4.06437500e-08,1.78887500e-01
-4.06037500e-08,1.78914062e-01
-4.05637500e-08,1.78882813e-01
-4.05237500e-08,1.78921875e-01
-4.04837500e-08,1.78867187e-01
-4.04437500e-08,1.78957813e-01
-4.04037500e-08,1.78689062e-01
-4.03637500e-08,1.78448438e-01
-4.03237500e-08,1.78528125e-01
-4.02837500e-08,1.78481250e-01
-4.02437500e-08,1.78512500e-01
-4.02037500e-08,1.78490625e-01
-4.01637500e-08,1.78507813e-01
-4.01237500e-08,1.78493750e-01
-4.00837500e-08,1.78504688e-01
-4.00437500e-08,1.78496875e-01
-4.00037500e-08,1.78503125e-01
-3.99637500e-08,1.78498437e-01
-3.99237500e-08,1.78500000e-01
-3.98837500e-08,1.78500000e-01
-3.98437500e-08,1.78498437e-01
-3.98037500e-08,1.78501563e-01
-3.97637500e-08,1.78496875e-01
-3.97237500e-08,1.78504688e-01
-3.96837500e-08,1.78493750e-01
-3.96437500e-08,1.78507813e-01
-3.96037500e-08,1.78489063e-01
-3.95637500e-08,1.78517188e-01
-3.95237500e-08,1.78473437e-01
-3.94837500e-08,1.78551563e-01
-3.94437500e-08,1.78295312e-01
-3.94037500e-08,1.78042188e-01
-3.93637500e-08,1.78134375e-01
-3.93237500e-08,1.78075000e-01
-3.92837500e-08,1.78118750e-01
-3.92437500e-08,1.78082813e-01
-3.92037500e-08,1.78114063e-01
-3.91637500e-08,1.78087500e-01
-3.91237500e-08,1.78112500e-01
-3.90837500e-08,1.78089063e-01
-3.90437500e-08,1.78110938e-01
-3.90037500e-08,1.78089063e-01
-3.89637500e-08,1.78109375e-01
-3.89237500e-08,1.78090625e-01
-3.88837500e-08,1.78109375e-01
-3.88437500e-08,1.78090625e-01
-3.88037500e-08,1.78110938e-01
-3.87637500e-08,1.78089063e-01
-3.87237500e-08,1.78110938e-01
-3.86837500e-08,1.78087500e-01
-3.86437500e-08,1.78114063e-01
-3.86037500e-08,1.78084375e-01
-3.85637500e-08,1.78118750e-01
-3.85237500e-08,1.78076563e-01
