trails/0ad503bf4c7e473689fcee6623a13564/aes_ch1_20250507105116815.csv

Model,MSO66B
Label,
Waveform Type,ANALOG
Horizontal Units,s
Sample Interval,4.00000000e-11
Record Length,10000
Zero Index,1599.87109375
Vertical Units,A
ANALOG_Thumbnail,
yOffset,1.84500000e-01
yPosition,8.40000000e-01

Labels,
TIME,CH1
-6.39948438e-08,1.86903125e-01
-6.39548437e-08,1.86896875e-01
-6.39148438e-08,1.86903125e-01
-6.38748437e-08,1.86896875e-01
-6.38348437e-08,1.86903125e-01
-6.37948437e-08,1.86896875e-01
-6.37548437e-08,1.86903125e-01
-6.37148438e-08,1.86896875e-01
-6.36748437e-08,1.86903125e-01
-6.36348438e-08,1.86896875e-01
-6.35948437e-08,1.86903125e-01
-6.35548437e-08,1.86896875e-01
-6.35148437e-08,1.86903125e-01
-6.34748437e-08,1.86896875e-01
-6.34348438e-08,1.86903125e-01
-6.33948437e-08,1.86896875e-01
-6.33548437e-08,1.86903125e-01
-6.33148437e-08,1.86896875e-01
-6.32748437e-08,1.86903125e-01
-6.32348437e-08,1.86895313e-01
-6.31948437e-08,1.86904687e-01
-6.31548438e-08,1.86895313e-01
-6.31148437e-08,1.86904687e-01
-6.30748437e-08,1.86895313e-01
-6.30348437e-08,1.86904687e-01
-6.29948437e-08,1.86895313e-01
-6.29548437e-08,1.86904687e-01
-6.29148437e-08,1.86895313e-01
-6.28748438e-08,1.86904687e-01
-6.28348437e-08,1.86895313e-01
-6.27948437e-08,1.86906250e-01
-6.27548437e-08,1.86893750e-01
-6.27148437e-08,1.86906250e-01
-6.26748437e-08,1.86893750e-01
-6.26348437e-08,1.86906250e-01
-6.25948438e-08,1.86892188e-01
-6.25548437e-08,1.86907812e-01
-6.25148437e-08,1.86892188e-01
-6.24748437e-08,1.86909375e-01
-6.24348437e-08,1.86890625e-01
-6.23948437e-08,1.86910938e-01
-6.23548437e-08,1.86889063e-01
-6.23148438e-08,1.86912500e-01
-6.22748437e-08,1.86884375e-01
-6.22348437e-08,1.86918750e-01
-6.21948437e-08,1.86876563e-01
-6.21548437e-08,1.86932813e-01
-6.21148437e-08,1.86842188e-01
-6.20748437e-08,1.87110938e-01
-6.20348438e-08,1.87351563e-01
-6.19948437e-08,1.87273438e-01
-6.19548437e-08,1.87317188e-01
-6.19148437e-08,1.87287500e-01
-6.18748437e-08,1.87309375e-01
-6.18348437e-08,1.87293750e-01
-6.17948437e-08,1.87304688e-01
-6.17548438e-08,1.87296875e-01
-6.17148437e-08,1.87303125e-01
-6.16748437e-08,1.87298437e-01
-6.16348437e-08,1.87301563e-01
-6.15948437e-08,1.87300000e-01
-6.15548437e-08,1.87300000e-01
-6.15148437e-08,1.87301563e-01
-6.14748438e-08,1.87296875e-01
-6.14348437e-08,1.87303125e-01
-6.13948437e-08,1.87295313e-01
-6.13548437e-08,1.87306250e-01
-6.13148437e-08,1.87290625e-01
-6.12748438e-08,1.87312500e-01
-6.12348437e-08,1.87282813e-01
-6.11948438e-08,1.87326563e-01
-6.11548437e-08,1.87248438e-01
-6.11148437e-08,1.87504688e-01
-6.10748437e-08,1.87757813e-01
-6.10348437e-08,1.87665625e-01
-6.09948438e-08,1.87725000e-01
-6.09548437e-08,1.87679687e-01
-6.09148438e-08,1.87717187e-01
-6.08748437e-08,1.87684375e-01
-6.08348437e-08,1.87715625e-01
-6.07948437e-08,1.87684375e-01
-6.07548437e-08,1.87715625e-01
-6.07148438e-08,1.87684375e-01
-6.06748437e-08,1.87717187e-01
-6.06348438e-08,1.87679687e-01
-6.05948437e-08,1.87723438e-01
-6.05548437e-08,1.87667187e-01
-6.05148437e-08,1.87757813e-01
-6.04748437e-08,1.87489062e-01
-6.04348438e-08,1.87248438e-01
-6.03948437e-08,1.87328125e-01
-6.03548438e-08,1.87281250e-01
-6.03148437e-08,1.87314063e-01
-6.02748437e-08,1.87287500e-01
-6.02348437e-08,1.87310937e-01
-6.01948437e-08,1.87290625e-01
-6.01548438e-08,1.87307813e-01
-6.01148437e-08,1.87292188e-01
-6.00748438e-08,1.87307813e-01
-6.00348437e-08,1.87293750e-01
-5.99948437e-08,1.87306250e-01
-5.99548437e-08,1.87293750e-01
-5.99148437e-08,1.87306250e-01
-5.98748438e-08,1.87293750e-01
-5.98348437e-08,1.87306250e-01
-5.97948438e-08,1.87293750e-01
-5.97548437e-08,1.87306250e-01
-5.97148437e-08,1.87293750e-01
-5.96748437e-08,1.87307813e-01
-5.96348437e-08,1.87292188e-01
-5.95948437e-08,1.87307813e-01
-5.95548437e-08,1.87290625e-01
-5.95148437e-08,1.87309375e-01
-5.94748437e-08,1.87289063e-01
-5.94348437e-08,1.87314063e-01
-5.93948437e-08,1.87284375e-01
-5.93548437e-08,1.87321875e-01
-5.93148437e-08,1.87268750e-01
-5.92748437e-08,1.87354688e-01
-5.92348437e-08,1.87092188e-01
-5.91948437e-08,1.86845312e-01
-5.91548437e-08,1.86931250e-01
-5.91148437e-08,1.86878125e-01
-5.90748437e-08,1.86917187e-01
-5.90348437e-08,1.86885938e-01
-5.89948437e-08,1.86914063e-01
-5.89548437e-08,1.86887500e-01
-5.89148437e-08,1.86912500e-01
-5.88748437e-08,1.86885938e-01
-5.88348437e-08,1.86917187e-01
-5.87948437e-08,1.86879688e-01
-5.87548437e-08,1.86929687e-01
-5.87148437e-08,1.86845312e-01
-5.86748437e-08,1.87106250e-01
-5.86348437e-08,1.87356250e-01
-5.85948437e-08,1.87267188e-01
-5.85548437e-08,1.87323437e-01
-5.85148437e-08,1.87281250e-01
-5.84748437e-08,1.87315625e-01
-5.84348437e-08,1.87285937e-01
-5.83948437e-08,1.87314063e-01
-5.83548437e-08,1.87287500e-01
-5.83148437e-08,1.87312500e-01
-5.82748437e-08,1.87287500e-01
-5.82348437e-08,1.87312500e-01
-5.81948437e-08,1.87287500e-01
-5.81548437e-08,1.87312500e-01
-5.81148437e-08,1.87287500e-01
-5.80748437e-08,1.87314063e-01
-5.80348437e-08,1.87285937e-01
-5.79948437e-08,1.87315625e-01
-5.79548437e-08,1.87284375e-01
-5.79148437e-08,1.87318750e-01
-5.78748437e-08,1.87279688e-01
-5.78348437e-08,1.87323437e-01
-5.77948437e-08,1.87271875e-01
-5.77548437e-08,1.87339063e-01
-5.77148437e-08,1.87235938e-01
-5.76748437e-08,1.87517188e-01
-5.76348437e-08,1.87745313e-01
-5.75948437e-08,1.87679687e-01
-5.75548437e-08,1.87710938e-01
-5.75148437e-08,1.87695313e-01
-5.74748437e-08,1.87701563e-01
-5.74348437e-08,1.87701563e-01
-5.73948437e-08,1.87696875e-01
-5.73548437e-08,1.87706250e-01
-5.73148437e-08,1.87692187e-01
-5.72748437e-08,1.87709375e-01
-5.72348437e-08,1.87687500e-01
-5.71948437e-08,1.87717187e-01
-5.71548437e-08,1.87678125e-01
-5.71148437e-08,1.87732813e-01
-5.70748437e-08,1.87642188e-01
-5.70348437e-08,1.87912500e-01
-5.69948437e-08,1.88150000e-01
-5.69548437e-08,1.88075000e-01
-5.69148437e-08,1.88115625e-01
-5.68748437e-08,1.88090625e-01
-5.68348437e-08,1.88104688e-01
-5.67948437e-08,1.88098437e-01
-5.67548437e-08,1.88098437e-01
-5.67148437e-08,1.88103125e-01
-5.66748437e-08,1.88093750e-01
-5.66348437e-08,1.88110938e-01
-5.65948437e-08,1.88082813e-01
-5.65548437e-08,1.88126563e-01
-5.65148437e-08,1.88046875e-01
-5.64748437e-08,1.88306250e-01
-5.64348437e-08,1.88554688e-01
-5.63948437e-08,1.88468750e-01
-5.63548437e-08,1.88520313e-01
-5.63148437e-08,1.88484375e-01
-5.62748437e-08,1.88510938e-01
-5.62348437e-08,1.88490625e-01
-5.61948437e-08,1.88506250e-01
-5.61548437e-08,1.88495313e-01
-5.61148437e-08,1.88503125e-01
-5.60748437e-08,1.88498438e-01
-5.60348437e-08,1.88500000e-01
-5.59948437e-08,1.88501562e-01
-5.59548437e-08,1.88496875e-01
-5.59148437e-08,1.88504688e-01
-5.58748437e-08,1.88492188e-01
-5.58348437e-08,1.88510938e-01
-5.57948437e-08,1.88482813e-01
-5.57548437e-08,1.88526562e-01
-5.57148437e-08,1.88448438e-01
-5.56748437e-08,1.88704687e-01
-5.56348437e-08,1.88956250e-01
-5.55948437e-08,1.88867188e-01
-5.55548437e-08,1.88921875e-01
-5.55148437e-08,1.88882812e-01
-5.54748437e-08,1.88914063e-01
-5.54348437e-08,1.88889063e-01
-5.53948437e-08,1.88909375e-01
-5.53548437e-08,1.88892188e-01
-5.53148437e-08,1.88906250e-01
-5.52748437e-08,1.88895312e-01
-5.52348437e-08,1.88903125e-01
-5.51948437e-08,1.88896875e-01
-5.51548437e-08,1.88901563e-01
-5.51148437e-08,1.88900000e-01
-5.50748437e-08,1.88898438e-01
-5.50348437e-08,1.88903125e-01
-5.49948437e-08,1.88895312e-01
-5.49548437e-08,1.88907812e-01
-5.49148437e-08,1.88889063e-01
-5.48748437e-08,1.88915625e-01
-5.48348437e-08,1.88873438e-01
-5.47948437e-08,1.88951563e-01
-5.47548437e-08,1.88695313e-01
-5.47148437e-08,1.88443750e-01
-5.46748437e-08,1.88532813e-01
-5.46348437e-08,1.88478125e-01
-5.45948437e-08,1.88517188e-01
-5.45548437e-08,1.88487500e-01
-5.45148437e-08,1.88509375e-01
-5.44748437e-08,1.88492188e-01
-5.44348437e-08,1.88504688e-01
-5.43948437e-08,1.88498438e-01
-5.43548437e-08,1.88498438e-01
-5.43148437e-08,1.88507813e-01
-5.42748437e-08,1.88482813e-01
-5.42348437e-08,1.88542188e-01
-5.41948437e-08,1.88304688e-01
-5.41548437e-08,1.88032813e-01
-5.41148437e-08,1.88143750e-01
-5.40748437e-08,1.88064063e-01
-5.40348437e-08,1.88132812e-01
-5.39948437e-08,1.88068750e-01
-5.39548437e-08,1.88134375e-01
-5.39148437e-08,1.88059375e-01
-5.38748437e-08,1.88164063e-01
-5.38348437e-08,1.87884375e-01
-5.37948437e-08,1.87651563e-01
-5.37548437e-08,1.87726562e-01
-5.37148437e-08,1.87681250e-01
-5.36748437e-08,1.87717187e-01
-5.36348437e-08,1.87682813e-01
-5.35948437e-08,1.87720313e-01
-5.35548437e-08,1.87670313e-01
-5.35148437e-08,1.87753125e-01
-5.34748437e-08,1.87493750e-01
-5.34348437e-08,1.87243750e-01
-5.33948437e-08,1.87332813e-01
-5.33548437e-08,1.87276563e-01
-5.33148437e-08,1.87318750e-01
-5.32748437e-08,1.87284375e-01
-5.32348437e-08,1.87314063e-01
-5.31948437e-08,1.87287500e-01
-5.31548437e-08,1.87310937e-01
-5.31148437e-08,1.87290625e-01
-5.30748437e-08,1.87309375e-01
-5.30348437e-08,1.87292188e-01
-5.29948437e-08,1.87307813e-01
-5.29548437e-08,1.87292188e-01
-5.29148437e-08,1.87306250e-01
-5.28748437e-08,1.87293750e-01
-5.28348437e-08,1.87306250e-01
-5.27948437e-08,1.87295313e-01
-5.27548437e-08,1.87304688e-01
-5.27148437e-08,1.87295313e-01
-5.26748437e-08,1.87303125e-01
-5.26348437e-08,1.87296875e-01
-5.25948437e-08,1.87301563e-01
-5.25548437e-08,1.87298437e-01
-5.25148437e-08,1.87300000e-01
-5.24748437e-08,1.87301563e-01
-5.24348437e-08,1.87295313e-01
-5.23948437e-08,1.87307813e-01
-5.23548437e-08,1.87287500e-01
-5.23148437e-08,1.87321875e-01
-5.22748437e-08,1.87253125e-01
-5.22348437e-08,1.87500000e-01
-5.21948437e-08,1.87762500e-01
-5.21548437e-08,1.87662500e-01
-5.21148437e-08,1.87728125e-01
-5.20748437e-08,1.87676563e-01
-5.20348437e-08,1.87720313e-01
-5.19948437e-08,1.87681250e-01
-5.19548438e-08,1.87717187e-01
-5.19148437e-08,1.87684375e-01
-5.18748437e-08,1.87714063e-01
-5.18348437e-08,1.87685938e-01
-5.17948437e-08,1.87714063e-01
-5.17548437e-08,1.87687500e-01
-5.17148437e-08,1.87712500e-01
-5.16748438e-08,1.87687500e-01
-5.16348437e-08,1.87712500e-01
-5.15948437e-08,1.87689063e-01
-5.15548437e-08,1.87710938e-01
-5.15148437e-08,1.87689063e-01
-5.14748437e-08,1.87710938e-01
-5.14348437e-08,1.87689063e-01
-5.13948437e-08,1.87710938e-01
-5.13548437e-08,1.87689063e-01
-5.13148437e-08,1.87710938e-01
-5.12748437e-08,1.87689063e-01
-5.12348437e-08,1.87710938e-01
-5.11948437e-08,1.87690625e-01
-5.11548437e-08,1.87709375e-01
-5.11148437e-08,1.87690625e-01
-5.10748437e-08,1.87709375e-01
-5.10348437e-08,1.87690625e-01
-5.09948437e-08,1.87709375e-01
-5.09548437e-08,1.87690625e-01
-5.09148437e-08,1.87709375e-01
-5.08748437e-08,1.87690625e-01
-5.08348437e-08,1.87709375e-01
-5.07948437e-08,1.87690625e-01
-5.07548437e-08,1.87709375e-01
-5.07148437e-08,1.87690625e-01
-5.06748437e-08,1.87709375e-01
-5.06348437e-08,1.87690625e-01
-5.05948437e-08,1.87709375e-01
-5.05548437e-08,1.87690625e-01
-5.05148437e-08,1.87710938e-01
-5.04748437e-08,1.87689063e-01
-5.04348437e-08,1.87710938e-01
-5.03948437e-08,1.87689063e-01
-5.03548437e-08,1.87710938e-01
-5.03148437e-08,1.87689063e-01
-5.02748437e-08,1.87710938e-01
-5.02348437e-08,1.87689063e-01
-5.01948437e-08,1.87710938e-01
-5.01548437e-08,1.87689063e-01
-5.01148437e-08,1.87710938e-01
-5.00748437e-08,1.87687500e-01
-5.00348438e-08,1.87712500e-01
-4.99948437e-08,1.87687500e-01
-4.99548437e-08,1.87712500e-01
-4.99148437e-08,1.87685938e-01
-4.98748437e-08,1.87714063e-01
-4.98348437e-08,1.87684375e-01
-4.97948437e-08,1.87715625e-01
-4.97548438e-08,1.87682813e-01
-4.97148437e-08,1.87718750e-01
-4.96748437e-08,1.87679687e-01
-4.96348437e-08,1.87723438e-01
-4.95948437e-08,1.87670313e-01
-4.95548437e-08,1.87739062e-01
-4.95148437e-08,1.87635938e-01
-4.94748438e-08,1.87917187e-01
-4.94348437e-08,1.88145312e-01
-4.93948437e-08,1.88079688e-01
-4.93548437e-08,1.88110938e-01
-4.93148437e-08,1.88093750e-01
-4.92748437e-08,1.88103125e-01
-4.92348437e-08,1.88098437e-01
-4.91948437e-08,1.88100000e-01
-4.91548437e-08,1.88101563e-01
-4.91148437e-08,1.88096875e-01
-4.90748437e-08,1.88104688e-01
-4.90348437e-08,1.88095313e-01
-4.89948437e-08,1.88106250e-01
-4.89548437e-08,1.88093750e-01
-4.89148437e-08,1.88107812e-01
-4.88748437e-08,1.88090625e-01
-4.88348437e-08,1.88109375e-01
-4.87948437e-08,1.88089063e-01
-4.87548437e-08,1.88112500e-01
-4.87148437e-08,1.88085937e-01
-4.86748437e-08,1.88115625e-01
-4.86348437e-08,1.88081250e-01
-4.85948437e-08,1.88125000e-01
-4.85548437e-08,1.88065625e-01
-4.85148437e-08,1.88159375e-01
-4.84748437e-08,1.87887500e-01
-4.84348437e-08,1.87651563e-01
-4.83948437e-08,1.87725000e-01
-4.83548437e-08,1.87684375e-01
-4.83148437e-08,1.87710938e-01
-4.82748437e-08,1.87692187e-01
-4.82348437e-08,1.87704687e-01
-4.81948437e-08,1.87696875e-01
-4.81548437e-08,1.87701563e-01
-4.81148438e-08,1.87700000e-01
-4.80748437e-08,1.87700000e-01
-4.80348437e-08,1.87701563e-01
-4.79948437e-08,1.87698438e-01
-4.79548437e-08,1.87703125e-01
-4.79148437e-08,1.87696875e-01
-4.78748437e-08,1.87703125e-01
-4.78348438e-08,1.87695313e-01
-4.77948437e-08,1.87704687e-01
-4.77548437e-08,1.87695313e-01
-4.77148437e-08,1.87706250e-01
-4.76748437e-08,1.87693750e-01
-4.76348437e-08,1.87707813e-01
-4.75948437e-08,1.87692187e-01
-4.75548438e-08,1.87709375e-01
-4.75148437e-08,1.87690625e-01
-4.74748437e-08,1.87710938e-01
-4.74348437e-08,1.87687500e-01
-4.73948437e-08,1.87714063e-01
-4.73548437e-08,1.87682813e-01
-4.73148437e-08,1.87720313e-01
-4.72748437e-08,1.87673438e-01
-4.72348437e-08,1.87735938e-01
-4.71948437e-08,1.87639063e-01
-4.71548437e-08,1.87914063e-01
-4.71148437e-08,1.88146875e-01
-4.70748437e-08,1.88076563e-01
-4.70348437e-08,1.88112500e-01
-4.69948437e-08,1.88093750e-01
-4.69548437e-08,1.88103125e-01
-4.69148437e-08,1.88100000e-01
-4.68748437e-08,1.88096875e-01
-4.68348437e-08,1.88106250e-01
-4.67948437e-08,1.88090625e-01
-4.67548437e-08,1.88112500e-01
-4.67148437e-08,1.88081250e-01
-4.66748437e-08,1.88129688e-01
-4.66348437e-08,1.88045313e-01
-4.65948437e-08,1.88309375e-01
-4.65548437e-08,1.88553125e-01
-4.65148437e-08,1.88471875e-01
-4.64748437e-08,1.88518750e-01
-4.64348437e-08,1.88487500e-01
-4.63948437e-08,1.88507813e-01
-4.63548437e-08,1.88495313e-01
-4.63148437e-08,1.88503125e-01
-4.62748437e-08,1.88500000e-01
-4.62348437e-08,1.88496875e-01
-4.61948438e-08,1.88507813e-01
-4.61548437e-08,1.88487500e-01
-4.61148437e-08,1.88523438e-01
-4.60748437e-08,1.88451563e-01
-4.60348437e-08,1.88703125e-01
-4.59948437e-08,1.88959375e-01
-4.59548437e-08,1.88864063e-01
-4.59148438e-08,1.88925000e-01
-4.58748437e-08,1.88879688e-01
-4.58348437e-08,1.88917188e-01
-4.57948437e-08,1.88885938e-01
-4.57548437e-08,1.88912500e-01
-4.57148437e-08,1.88889063e-01
-4.56748437e-08,1.88910938e-01
-4.56348438e-08,1.88890625e-01
-4.55948437e-08,1.88907812e-01
-4.55548437e-08,1.88892188e-01
-4.55148437e-08,1.88907812e-01
-4.54748437e-08,1.88893750e-01
-4.54348437e-08,1.88906250e-01
-4.53948437e-08,1.88895312e-01
-4.53548438e-08,1.88904688e-01
-4.53148437e-08,1.88895312e-01
-4.52748437e-08,1.88904688e-01
-4.52348437e-08,1.88896875e-01
-4.51948437e-08,1.88903125e-01
-4.51548437e-08,1.88896875e-01
-4.51148437e-08,1.88901563e-01
-4.50748437e-08,1.88898438e-01
-4.50348437e-08,1.88900000e-01
-4.49948437e-08,1.88900000e-01
-4.49548437e-08,1.88898438e-01
-4.49148437e-08,1.88903125e-01
-4.48748437e-08,1.88895312e-01
-4.48348437e-08,1.88906250e-01
-4.47948437e-08,1.88890625e-01
-4.47548437e-08,1.88914063e-01
-4.47148437e-08,1.88875000e-01
-4.46748437e-08,1.88950000e-01
-4.46348437e-08,1.88696875e-01
-4.45948437e-08,1.88440625e-01
-4.45548437e-08,1.88535938e-01
-4.45148437e-08,1.88473438e-01
-4.44748437e-08,1.88521875e-01
-4.44348437e-08,1.88481250e-01
-4.43948437e-08,1.88517188e-01
-4.43548437e-08,1.88484375e-01
-4.43148437e-08,1.88514062e-01
-4.42748438e-08,1.88487500e-01
-4.42348437e-08,1.88512500e-01
-4.41948437e-08,1.88487500e-01
-4.41548437e-08,1.88510938e-01
-4.41148437e-08,1.88489062e-01
-4.40748437e-08,1.88510938e-01
-4.40348437e-08,1.88489062e-01
-4.39948438e-08,1.88510938e-01
-4.39548437e-08,1.88490625e-01
-4.39148437e-08,1.88509375e-01
-4.38748437e-08,1.88490625e-01
-4.38348437e-08,1.88509375e-01
-4.37948437e-08,1.88490625e-01
-4.37548437e-08,1.88509375e-01
-4.37148438e-08,1.88490625e-01
-4.36748437e-08,1.88509375e-01
-4.36348437e-08,1.88489062e-01
-4.35948437e-08,1.88510938e-01
-4.35548437e-08,1.88489062e-01
-4.35148437e-08,1.88510938e-01
-4.34748437e-08,1.88489062e-01
-4.34348438e-08,1.88510938e-01
-4.33948437e-08,1.88487500e-01
-4.33548437e-08,1.88512500e-01
-4.33148437e-08,1.88487500e-01
-4.32748437e-08,1.88514062e-01
-4.32348437e-08,1.88485938e-01
-4.31948437e-08,1.88515625e-01
-4.31548438e-08,1.88482813e-01
-4.31148437e-08,1.88518750e-01
-4.30748437e-08,1.88479687e-01
-4.30348437e-08,1.88525000e-01
-4.29948437e-08,1.88470313e-01
-4.29548437e-08,1.88539063e-01
-4.29148437e-08,1.88434375e-01
-4.28748437e-08,1.88718750e-01
-4.28348437e-08,1.88942187e-01
-4.27948437e-08,1.88882812e-01
-4.27548437e-08,1.88906250e-01
-4.27148437e-08,1.88900000e-01
-4.26748437e-08,1.88893750e-01
-4.26348437e-08,1.88914063e-01
-4.25948437e-08,1.88875000e-01
-4.25548437e-08,1.88951563e-01
-4.25148437e-08,1.88693750e-01
-4.24748437e-08,1.88443750e-01
-4.24348437e-08,1.88531250e-01
-4.23948437e-08,1.88478125e-01
-4.23548438e-08,1.88515625e-01
-4.23148437e-08,1.88487500e-01
-4.22748437e-08,1.88509375e-01
-4.22348437e-08,1.88492188e-01
-4.21948437e-08,1.88504688e-01
-4.21548437e-08,1.88496875e-01
-4.21148437e-08,1.88501562e-01
-4.20748438e-08,1.88500000e-01
-4.20348437e-08,1.88498438e-01
-4.19948437e-08,1.88504688e-01
-4.19548437e-08,1.88492188e-01
-4.19148437e-08,1.88512500e-01
-4.18748437e-08,1.88476562e-01
-4.18348437e-08,1.88548437e-01
-4.17948438e-08,1.88298437e-01
-4.17548437e-08,1.88039063e-01
-4.17148437e-08,1.88135938e-01
-4.16748437e-08,1.88073437e-01
-4.16348437e-08,1.88121875e-01
-4.15948437e-08,1.88081250e-01
-4.15548437e-08,1.88117188e-01
-4.15148438e-08,1.88084375e-01
-4.14748437e-08,1.88114063e-01
-4.14348437e-08,1.88085937e-01
-4.13948437e-08,1.88112500e-01
-4.13548437e-08,1.88087500e-01
-4.13148437e-08,1.88112500e-01
-4.12748437e-08,1.88087500e-01
-4.12348438e-08,1.88112500e-01
-4.11948437e-08,1.88087500e-01
-4.11548437e-08,1.88112500e-01
-4.11148437e-08,1.88085937e-01
-4.10748437e-08,1.88115625e-01
-4.10348437e-08,1.88082813e-01
-4.09948437e-08,1.88118750e-01
-4.09548438e-08,1.88076563e-01
-4.09148437e-08,1.88132812e-01
-4.08748437e-08,1.88042188e-01
-4.08348437e-08,1.88310937e-01
-4.07948437e-08,1.88551563e-01
-4.07548437e-08,1.88471875e-01
-4.07148437e-08,1.88520313e-01
-4.06748437e-08,1.88484375e-01
-4.06348437e-08,1.88512500e-01
-4.05948437e-08,1.88489062e-01
-4.05548437e-08,1.88510938e-01
-4.05148437e-08,1.88489062e-01
-4.04748437e-08,1.88512500e-01
-4.04348438e-08,1.88485938e-01
-4.03948437e-08,1.88515625e-01
-4.03548437e-08,1.88479687e-01
-4.03148437e-08,1.88529688e-01
-4.02748437e-08,1.88445313e-01
-4.02348437e-08,1.88707813e-01
-4.01948437e-08,1.88954687e-01
-4.01548438e-08,1.88868750e-01
-4.01148437e-08,1.88921875e-01
-4.00748437e-08,1.88882812e-01
-4.00348437e-08,1.88914063e-01
-3.99948437e-08,1.88887500e-01
-3.99548437e-08,1.88910938e-01
-3.99148437e-08,1.88889063e-01
-3.98748438e-08,1.88909375e-01
-3.98348437e-08,1.88890625e-01
-3.97948437e-08,1.88909375e-01
-3.97548437e-08,1.88892188e-01
-3.97148437e-08,1.88907812e-01
-3.96748437e-08,1.88892188e-01
-3.96348437e-08,1.88907812e-01
-3.95948438e-08,1.88892188e-01
-3.95548437e-08,1.88907812e-01
-3.95148437e-08,1.88892188e-01
-3.94748437e-08,1.88907812e-01
-3.94348437e-08,1.88892188e-01
-3.93948437e-08,1.88907812e-01
-3.93548437e-08,1.88892188e-01
-3.93148438e-08,1.88907812e-01
-3.92748437e-08,1.88892188e-01
-3.92348437e-08,1.88907812e-01
-3.91948437e-08,1.88892188e-01
-3.91548437e-08,1.88907812e-01
-3.91148437e-08,1.88892188e-01
-3.90748437e-08,1.88907812e-01
-3.90348438e-08,1.88892188e-01
-3.89948437e-08,1.88907812e-01
-3.89548437e-08,1.88892188e-01
-3.89148437e-08,1.88907812e-01
-3.88748437e-08,1.88892188e-01
-3.88348437e-08,1.88907812e-01
-3.87948437e-08,1.88892188e-01
-3.87548438e-08,1.88909375e-01
-3.87148437e-08,1.88890625e-01
-3.86748437e-08,1.88909375e-01
-3.86348437e-08,1.88890625e-01
-3.85948437e-08,1.88909375e-01
-3.85548437e-08,1.88889063e-01
