trails/0b2e18f6fa2cac99b521e237471ff731/aes_ch1_20250507105746392.csv

Model,MSO66B
Label,
Waveform Type,ANALOG
Horizontal Units,s
Sample Interval,4.00000000e-11
Record Length,10000
Zero Index,1599.05468750
Vertical Units,A
ANALOG_Thumbnail,
yOffset,1.84500000e-01
yPosition,8.40000000e-01

Labels,
TIME,CH1
-6.39621875e-08,1.93485938e-01
-6.39221875e-08,1.93251563e-01
-6.38821875e-08,1.93323438e-01
-6.38421875e-08,1.93285938e-01
-6.38021875e-08,1.93309375e-01
-6.37621875e-08,1.93293750e-01
-6.37221875e-08,1.93303125e-01
-6.36821875e-08,1.93298438e-01
-6.36421875e-08,1.93298438e-01
-6.36021875e-08,1.93303125e-01
-6.35621875e-08,1.93295313e-01
-6.35221875e-08,1.93307813e-01
-6.34821875e-08,1.93289062e-01
-6.34421875e-08,1.93317188e-01
-6.34021875e-08,1.93273438e-01
-6.33621875e-08,1.93351563e-01
-6.33221875e-08,1.93095313e-01
-6.32821875e-08,1.92842188e-01
-6.32421875e-08,1.92932812e-01
-6.32021875e-08,1.92876563e-01
-6.31621875e-08,1.92918750e-01
-6.31221875e-08,1.92884375e-01
-6.30821875e-08,1.92914063e-01
-6.30421875e-08,1.92887500e-01
-6.30021875e-08,1.92910938e-01
-6.29621875e-08,1.92890625e-01
-6.29221875e-08,1.92909375e-01
-6.28821875e-08,1.92892188e-01
-6.28421875e-08,1.92907812e-01
-6.28021875e-08,1.92892188e-01
-6.27621875e-08,1.92907812e-01
-6.27221875e-08,1.92892188e-01
-6.26821875e-08,1.92906250e-01
-6.26421875e-08,1.92893750e-01
-6.26021875e-08,1.92906250e-01
-6.25621875e-08,1.92893750e-01
-6.25221875e-08,1.92906250e-01
-6.24821875e-08,1.92893750e-01
-6.24421875e-08,1.92906250e-01
-6.24021875e-08,1.92892188e-01
-6.23621875e-08,1.92907812e-01
-6.23221875e-08,1.92892188e-01
-6.22821875e-08,1.92907812e-01
-6.22421875e-08,1.92892188e-01
-6.22021875e-08,1.92909375e-01
-6.21621875e-08,1.92890625e-01
-6.21221875e-08,1.92910938e-01
-6.20821875e-08,1.92887500e-01
-6.20421875e-08,1.92914063e-01
-6.20021875e-08,1.92882813e-01
-6.19621875e-08,1.92921875e-01
-6.19221875e-08,1.92867188e-01
-6.18821875e-08,1.92957812e-01
-6.18421875e-08,1.92689063e-01
-6.18021875e-08,1.92448438e-01
-6.17621875e-08,1.92528125e-01
-6.17221875e-08,1.92481250e-01
-6.16821875e-08,1.92512500e-01
-6.16421875e-08,1.92490625e-01
-6.16021875e-08,1.92507813e-01
-6.15621875e-08,1.92493750e-01
-6.15221875e-08,1.92504687e-01
-6.14821875e-08,1.92496875e-01
-6.14421875e-08,1.92501563e-01
-6.14021875e-08,1.92500000e-01
-6.13621875e-08,1.92498438e-01
-6.13221875e-08,1.92503125e-01
-6.12821875e-08,1.92495313e-01
-6.12421875e-08,1.92507813e-01
-6.12021875e-08,1.92485938e-01
-6.11621875e-08,1.92523438e-01
-6.11221875e-08,1.92451563e-01
-6.10821875e-08,1.92701563e-01
-6.10421875e-08,1.92960938e-01
-6.10021875e-08,1.92862500e-01
-6.09621875e-08,1.92928125e-01
-6.09221875e-08,1.92876563e-01
-6.08821875e-08,1.92920312e-01
-6.08421875e-08,1.92882813e-01
-6.08021875e-08,1.92915625e-01
-6.07621875e-08,1.92884375e-01
-6.07221875e-08,1.92914063e-01
-6.06821875e-08,1.92885937e-01
-6.06421875e-08,1.92914063e-01
-6.06021875e-08,1.92887500e-01
-6.05621875e-08,1.92912500e-01
-6.05221875e-08,1.92887500e-01
-6.04821875e-08,1.92912500e-01
-6.04421875e-08,1.92887500e-01
-6.04021875e-08,1.92912500e-01
-6.03621875e-08,1.92887500e-01
-6.03221875e-08,1.92912500e-01
-6.02821875e-08,1.92887500e-01
-6.02421875e-08,1.92914063e-01
-6.02021875e-08,1.92885937e-01
-6.01621875e-08,1.92914063e-01
-6.01221875e-08,1.92884375e-01
-6.00821875e-08,1.92915625e-01
-6.00421875e-08,1.92882813e-01
-6.00021875e-08,1.92917188e-01
-5.99621875e-08,1.92881250e-01
-5.99221875e-08,1.92921875e-01
-5.98821875e-08,1.92875000e-01
-5.98421875e-08,1.92929688e-01
-5.98021875e-08,1.92860937e-01
-5.97621875e-08,1.92965625e-01
-5.97221875e-08,1.92681250e-01
-5.96821875e-08,1.92456250e-01
-5.96421875e-08,1.92520313e-01
-5.96021875e-08,1.92490625e-01
-5.95621875e-08,1.92504687e-01
-5.95221875e-08,1.92498438e-01
-5.94821875e-08,1.92498438e-01
-5.94421875e-08,1.92504687e-01
-5.94021875e-08,1.92493750e-01
-5.93621875e-08,1.92507813e-01
-5.93221875e-08,1.92489063e-01
-5.92821875e-08,1.92512500e-01
-5.92421875e-08,1.92482813e-01
-5.92021875e-08,1.92521875e-01
-5.91621875e-08,1.92467187e-01
-5.91221875e-08,1.92557813e-01
-5.90821875e-08,1.92289062e-01
-5.90421875e-08,1.92048438e-01
-5.90021875e-08,1.92126563e-01
-5.89621875e-08,1.92082813e-01
-5.89221875e-08,1.92112500e-01
-5.88821875e-08,1.92090625e-01
-5.88421875e-08,1.92106250e-01
-5.88021875e-08,1.92095313e-01
-5.87621875e-08,1.92103125e-01
-5.87221875e-08,1.92098437e-01
-5.86821875e-08,1.92101563e-01
-5.86421875e-08,1.92100000e-01
-5.86021875e-08,1.92100000e-01
-5.85621875e-08,1.92101563e-01
-5.85221875e-08,1.92098437e-01
-5.84821875e-08,1.92103125e-01
-5.84421875e-08,1.92096875e-01
-5.84021875e-08,1.92103125e-01
-5.83621875e-08,1.92095313e-01
-5.83221875e-08,1.92104688e-01
-5.82821875e-08,1.92093750e-01
-5.82421875e-08,1.92106250e-01
-5.82021875e-08,1.92093750e-01
-5.81621875e-08,1.92107813e-01
-5.81221875e-08,1.92090625e-01
-5.80821875e-08,1.92109375e-01
-5.80421875e-08,1.92089063e-01
-5.80021875e-08,1.92112500e-01
-5.79621875e-08,1.92084375e-01
-5.79221875e-08,1.92118750e-01
-5.78821875e-08,1.92076562e-01
-5.78421875e-08,1.92134375e-01
-5.78021875e-08,1.92040625e-01
-5.77621875e-08,1.92312500e-01
-5.77221875e-08,1.92550000e-01
-5.76821875e-08,1.92475000e-01
-5.76421875e-08,1.92515625e-01
-5.76021875e-08,1.92490625e-01
-5.75621875e-08,1.92506250e-01
-5.75221875e-08,1.92495313e-01
-5.74821875e-08,1.92501563e-01
-5.74421875e-08,1.92500000e-01
-5.74021875e-08,1.92498438e-01
-5.73621875e-08,1.92503125e-01
-5.73221875e-08,1.92496875e-01
-5.72821875e-08,1.92504687e-01
-5.72421875e-08,1.92492188e-01
-5.72021875e-08,1.92509375e-01
-5.71621875e-08,1.92489063e-01
-5.71221875e-08,1.92515625e-01
-5.70821875e-08,1.92479687e-01
-5.70421875e-08,1.92531250e-01
-5.70021875e-08,1.92443750e-01
-5.69621875e-08,1.92709375e-01
-5.69221875e-08,1.92951563e-01
-5.68821875e-08,1.92871875e-01
-5.68421875e-08,1.92918750e-01
-5.68021875e-08,1.92887500e-01
-5.67621875e-08,1.92909375e-01
-5.67221875e-08,1.92893750e-01
-5.66821875e-08,1.92904688e-01
-5.66421875e-08,1.92896875e-01
-5.66021875e-08,1.92901563e-01
-5.65621875e-08,1.92900000e-01
-5.65221875e-08,1.92898438e-01
-5.64821875e-08,1.92904688e-01
-5.64421875e-08,1.92893750e-01
-5.64021875e-08,1.92910938e-01
-5.63621875e-08,1.92884375e-01
-5.63221875e-08,1.92925000e-01
-5.62821875e-08,1.92850000e-01
-5.62421875e-08,1.93103125e-01
-5.62021875e-08,1.93359375e-01
-5.61621875e-08,1.93264063e-01
-5.61221875e-08,1.93326563e-01
-5.60821875e-08,1.93278125e-01
-5.60421875e-08,1.93320313e-01
-5.60021875e-08,1.93281250e-01
-5.59621875e-08,1.93320313e-01
-5.59221875e-08,1.93276562e-01
-5.58821875e-08,1.93331250e-01
-5.58421875e-08,1.93245313e-01
-5.58021875e-08,1.93507813e-01
-5.57621875e-08,1.93756250e-01
-5.57221875e-08,1.93665625e-01
-5.56821875e-08,1.93726563e-01
-5.56421875e-08,1.93676563e-01
-5.56021875e-08,1.93721875e-01
-5.55621875e-08,1.93678125e-01
-5.55221875e-08,1.93725000e-01
-5.54821875e-08,1.93670312e-01
-5.54421875e-08,1.93739063e-01
-5.54021875e-08,1.93635938e-01
-5.53621875e-08,1.93917188e-01
-5.53221875e-08,1.94145313e-01
-5.52821875e-08,1.94078125e-01
-5.52421875e-08,1.94110937e-01
-5.52021875e-08,1.94093750e-01
-5.51621875e-08,1.94101563e-01
-5.51221875e-08,1.94101563e-01
-5.50821875e-08,1.94096875e-01
-5.50421875e-08,1.94106250e-01
-5.50021875e-08,1.94090625e-01
-5.49621875e-08,1.94114063e-01
-5.49221875e-08,1.94079688e-01
-5.48821875e-08,1.94129688e-01
-5.48421875e-08,1.94043750e-01
-5.48021875e-08,1.94309375e-01
-5.47621875e-08,1.94551562e-01
-5.47221875e-08,1.94473438e-01
-5.46821875e-08,1.94517188e-01
-5.46421875e-08,1.94489063e-01
-5.46021875e-08,1.94506250e-01
-5.45621875e-08,1.94496875e-01
-5.45221875e-08,1.94500000e-01
-5.44821875e-08,1.94503125e-01
-5.44421875e-08,1.94492187e-01
-5.44021875e-08,1.94514063e-01
-5.43621875e-08,1.94475000e-01
-5.43221875e-08,1.94550000e-01
-5.42821875e-08,1.94295313e-01
-5.42421875e-08,1.94042188e-01
-5.42021875e-08,1.94132813e-01
-5.41621875e-08,1.94076562e-01
-5.41221875e-08,1.94117188e-01
-5.40821875e-08,1.94085937e-01
-5.40421875e-08,1.94110937e-01
-5.40021875e-08,1.94090625e-01
-5.39621875e-08,1.94107813e-01
-5.39221875e-08,1.94093750e-01
-5.38821875e-08,1.94104688e-01
-5.38421875e-08,1.94096875e-01
-5.38021875e-08,1.94101563e-01
-5.37621875e-08,1.94101563e-01
-5.37221875e-08,1.94096875e-01
-5.36821875e-08,1.94106250e-01
-5.36421875e-08,1.94090625e-01
-5.36021875e-08,1.94115625e-01
-5.35621875e-08,1.94075000e-01
-5.35221875e-08,1.94150000e-01
-5.34821875e-08,1.93895312e-01
-5.34421875e-08,1.93642188e-01
-5.34021875e-08,1.93732813e-01
-5.33621875e-08,1.93676563e-01
-5.33221875e-08,1.93717187e-01
-5.32821875e-08,1.93685938e-01
-5.32421875e-08,1.93712500e-01
-5.32021875e-08,1.93690625e-01
-5.31621875e-08,1.93707813e-01
-5.31221875e-08,1.93693750e-01
-5.30821875e-08,1.93704688e-01
-5.30421875e-08,1.93696875e-01
-5.30021875e-08,1.93701563e-01
-5.29621875e-08,1.93701563e-01
-5.29221875e-08,1.93696875e-01
-5.28821875e-08,1.93707813e-01
-5.28421875e-08,1.93687500e-01
-5.28021875e-08,1.93723438e-01
-5.27621875e-08,1.93651563e-01
-5.27221875e-08,1.93901563e-01
-5.26821875e-08,1.94159375e-01
-5.26421875e-08,1.94064062e-01
-5.26021875e-08,1.94125000e-01
-5.25621875e-08,1.94079688e-01
-5.25221875e-08,1.94117188e-01
-5.24821875e-08,1.94085937e-01
-5.24421875e-08,1.94112500e-01
-5.24021875e-08,1.94090625e-01
-5.23621875e-08,1.94107813e-01
-5.23221875e-08,1.94093750e-01
-5.22821875e-08,1.94104688e-01
-5.22421875e-08,1.94096875e-01
-5.22021875e-08,1.94100000e-01
-5.21621875e-08,1.94103125e-01
-5.21221875e-08,1.94090625e-01
-5.20821875e-08,1.94118750e-01
-5.20421875e-08,1.94056250e-01
-5.20021875e-08,1.94298438e-01
-5.19621875e-08,1.94564062e-01
-5.19221875e-08,1.94459375e-01
-5.18821875e-08,1.94531250e-01
-5.18421875e-08,1.94475000e-01
-5.18021875e-08,1.94521875e-01
-5.17621875e-08,1.94479687e-01
-5.17221875e-08,1.94518750e-01
-5.16821875e-08,1.94482813e-01
-5.16421875e-08,1.94515625e-01
-5.16021875e-08,1.94484375e-01
-5.15621875e-08,1.94514063e-01
-5.15221875e-08,1.94485938e-01
-5.14821875e-08,1.94512500e-01
-5.14421875e-08,1.94487500e-01
-5.14021875e-08,1.94512500e-01
-5.13621875e-08,1.94487500e-01
-5.13221875e-08,1.94510938e-01
-5.12821875e-08,1.94489063e-01
-5.12421875e-08,1.94510938e-01
-5.12021875e-08,1.94489063e-01
-5.11621875e-08,1.94510938e-01
-5.11221875e-08,1.94489063e-01
-5.10821875e-08,1.94509375e-01
-5.10421875e-08,1.94490625e-01
-5.10021875e-08,1.94509375e-01
-5.09621875e-08,1.94490625e-01
-5.09221875e-08,1.94509375e-01
-5.08821875e-08,1.94490625e-01
-5.08421875e-08,1.94509375e-01
-5.08021875e-08,1.94490625e-01
-5.07621875e-08,1.94509375e-01
-5.07221875e-08,1.94492187e-01
-5.06821875e-08,1.94507813e-01
-5.06421875e-08,1.94492187e-01
-5.06021875e-08,1.94507813e-01
-5.05621875e-08,1.94492187e-01
-5.05221875e-08,1.94507813e-01
-5.04821875e-08,1.94492187e-01
-5.04421875e-08,1.94507813e-01
-5.04021875e-08,1.94492187e-01
-5.03621875e-08,1.94507813e-01
-5.03221875e-08,1.94493750e-01
-5.02821875e-08,1.94506250e-01
-5.02421875e-08,1.94493750e-01
-5.02021875e-08,1.94506250e-01
-5.01621875e-08,1.94493750e-01
-5.01221875e-08,1.94506250e-01
-5.00821875e-08,1.94495313e-01
-5.00421875e-08,1.94504687e-01
-5.00021875e-08,1.94495313e-01
-4.99621875e-08,1.94503125e-01
-4.99221875e-08,1.94496875e-01
-4.98821875e-08,1.94501563e-01
-4.98421875e-08,1.94500000e-01
-4.98021875e-08,1.94496875e-01
-4.97621875e-08,1.94507813e-01
-4.97221875e-08,1.94482813e-01
-4.96821875e-08,1.94542188e-01
-4.96421875e-08,1.94304688e-01
-4.96021875e-08,1.94032813e-01
-4.95621875e-08,1.94143750e-01
-4.95221875e-08,1.94064062e-01
-4.94821875e-08,1.94131250e-01
-4.94421875e-08,1.94071875e-01
-4.94021875e-08,1.94128125e-01
-4.93621875e-08,1.94073438e-01
-4.93221875e-08,1.94126563e-01
-4.92821875e-08,1.94071875e-01
-4.92421875e-08,1.94129688e-01
-4.92021875e-08,1.94067188e-01
-4.91621875e-08,1.94137500e-01
-4.91221875e-08,1.94053125e-01
-4.90821875e-08,1.94171875e-01
-4.90421875e-08,1.93873437e-01
-4.90021875e-08,1.93664063e-01
-4.89621875e-08,1.93710938e-01
-4.89221875e-08,1.93698438e-01
-4.88821875e-08,1.93693750e-01
-4.88421875e-08,1.93710938e-01
-4.88021875e-08,1.93684375e-01
-4.87621875e-08,1.93721875e-01
-4.87221875e-08,1.93667188e-01
-4.86821875e-08,1.93759375e-01
-4.86421875e-08,1.93485938e-01
-4.86021875e-08,1.93253125e-01
-4.85621875e-08,1.93321875e-01
-4.85221875e-08,1.93287500e-01
-4.84821875e-08,1.93304688e-01
-4.84421875e-08,1.93300000e-01
-4.84021875e-08,1.93295313e-01
-4.83621875e-08,1.93310938e-01
-4.83221875e-08,1.93278125e-01
-4.82821875e-08,1.93346875e-01
-4.82421875e-08,1.93098437e-01
-4.82021875e-08,1.92839063e-01
-4.81621875e-08,1.92937500e-01
-4.81221875e-08,1.92871875e-01
-4.80821875e-08,1.92923438e-01
-4.80421875e-08,1.92879688e-01
-4.80021875e-08,1.92918750e-01
-4.79621875e-08,1.92881250e-01
-4.79221875e-08,1.92918750e-01
-4.78821875e-08,1.92878125e-01
-4.78421875e-08,1.92925000e-01
-4.78021875e-08,1.92865625e-01
-4.77621875e-08,1.92957812e-01
-4.77221875e-08,1.92689063e-01
-4.76821875e-08,1.92448438e-01
-4.76421875e-08,1.92528125e-01
-4.76021875e-08,1.92479687e-01
-4.75621875e-08,1.92515625e-01
-4.75221875e-08,1.92487500e-01
-4.74821875e-08,1.92510938e-01
-4.74421875e-08,1.92489063e-01
-4.74021875e-08,1.92509375e-01
-4.73621875e-08,1.92490625e-01
-4.73221875e-08,1.92509375e-01
-4.72821875e-08,1.92490625e-01
-4.72421875e-08,1.92510938e-01
-4.72021875e-08,1.92489063e-01
-4.71621875e-08,1.92512500e-01
-4.71221875e-08,1.92485938e-01
-4.70821875e-08,1.92517188e-01
-4.70421875e-08,1.92478125e-01
-4.70021875e-08,1.92531250e-01
-4.69621875e-08,1.92443750e-01
-4.69221875e-08,1.92707813e-01
-4.68821875e-08,1.92954687e-01
-4.68421875e-08,1.92868750e-01
-4.68021875e-08,1.92921875e-01
-4.67621875e-08,1.92882813e-01
-4.67221875e-08,1.92914063e-01
-4.66821875e-08,1.92887500e-01
-4.66421875e-08,1.92910938e-01
-4.66021875e-08,1.92889063e-01
-4.65621875e-08,1.92910938e-01
-4.65221875e-08,1.92889063e-01
-4.64821875e-08,1.92910938e-01
-4.64421875e-08,1.92887500e-01
-4.64021875e-08,1.92912500e-01
-4.63621875e-08,1.92885937e-01
-4.63221875e-08,1.92917188e-01
-4.62821875e-08,1.92878125e-01
-4.62421875e-08,1.92931250e-01
-4.62021875e-08,1.92843750e-01
-4.61621875e-08,1.93109375e-01
-4.61221875e-08,1.93351563e-01
-4.60821875e-08,1.93271875e-01
-4.60421875e-08,1.93318750e-01
-4.60021875e-08,1.93285938e-01
-4.59621875e-08,1.93310938e-01
-4.59221875e-08,1.93292188e-01
-4.58821875e-08,1.93306250e-01
-4.58421875e-08,1.93295313e-01
-4.58021875e-08,1.93304688e-01
-4.57621875e-08,1.93296875e-01
-4.57221875e-08,1.93301562e-01
-4.56821875e-08,1.93301562e-01
-4.56421875e-08,1.93296875e-01
-4.56021875e-08,1.93306250e-01
-4.55621875e-08,1.93289062e-01
-4.55221875e-08,1.93320313e-01
-4.54821875e-08,1.93254688e-01
-4.54421875e-08,1.93498438e-01
-4.54021875e-08,1.93764063e-01
-4.53621875e-08,1.93659375e-01
-4.53221875e-08,1.93731250e-01
-4.52821875e-08,1.93673438e-01
-4.52421875e-08,1.93723438e-01
-4.52021875e-08,1.93678125e-01
-4.51621875e-08,1.93721875e-01
-4.51221875e-08,1.93678125e-01
-4.50821875e-08,1.93721875e-01
-4.50421875e-08,1.93676563e-01
-4.50021875e-08,1.93726563e-01
-4.49621875e-08,1.93670312e-01
-4.49221875e-08,1.93739063e-01
-4.48821875e-08,1.93635938e-01
-4.48421875e-08,1.93917188e-01
-4.48021875e-08,1.94145313e-01
-4.47621875e-08,1.94078125e-01
-4.47221875e-08,1.94112500e-01
-4.46821875e-08,1.94092188e-01
-4.46421875e-08,1.94104688e-01
-4.46021875e-08,1.94096875e-01
-4.45621875e-08,1.94103125e-01
-4.45221875e-08,1.94098437e-01
-4.44821875e-08,1.94101563e-01
-4.44421875e-08,1.94100000e-01
-4.44021875e-08,1.94100000e-01
-4.43621875e-08,1.94100000e-01
-4.43221875e-08,1.94100000e-01
-4.42821875e-08,1.94100000e-01
-4.42421875e-08,1.94100000e-01
-4.42021875e-08,1.94100000e-01
-4.41621875e-08,1.94100000e-01
-4.41221875e-08,1.94098437e-01
-4.40821875e-08,1.94101563e-01
-4.40421875e-08,1.94096875e-01
-4.40021875e-08,1.94104688e-01
-4.39621875e-08,1.94092188e-01
-4.39221875e-08,1.94112500e-01
-4.38821875e-08,1.94078125e-01
-4.38421875e-08,1.94145313e-01
-4.38021875e-08,1.93901563e-01
-4.37621875e-08,1.93635938e-01
-4.37221875e-08,1.93740625e-01
-4.36821875e-08,1.93667188e-01
-4.36421875e-08,1.93728125e-01
-4.36021875e-08,1.93673438e-01
-4.35621875e-08,1.93726563e-01
-4.35221875e-08,1.93673438e-01
-4.34821875e-08,1.93726563e-01
-4.34421875e-08,1.93670312e-01
-4.34021875e-08,1.93734375e-01
-4.33621875e-08,1.93656250e-01
-4.33221875e-08,1.93768750e-01
-4.32821875e-08,1.93478125e-01
-4.32421875e-08,1.93259375e-01
-4.32021875e-08,1.93317188e-01
-4.31621875e-08,1.93292188e-01
-4.31221875e-08,1.93303125e-01
-4.30821875e-08,1.93300000e-01
-4.30421875e-08,1.93296875e-01
-4.30021875e-08,1.93304688e-01
-4.29621875e-08,1.93293750e-01
-4.29221875e-08,1.93307813e-01
-4.28821875e-08,1.93290625e-01
-4.28421875e-08,1.93310938e-01
-4.28021875e-08,1.93287500e-01
-4.27621875e-08,1.93315625e-01
-4.27221875e-08,1.93282813e-01
-4.26821875e-08,1.93320313e-01
-4.26421875e-08,1.93275000e-01
-4.26021875e-08,1.93331250e-01
-4.25621875e-08,1.93256250e-01
-4.25221875e-08,1.93371875e-01
-4.24821875e-08,1.93070313e-01
-4.24421875e-08,1.92876563e-01
-4.24021875e-08,1.92873438e-01
-4.23621875e-08,1.93089063e-01
-4.23221875e-08,1.93368750e-01
-4.22821875e-08,1.93257813e-01
-4.22421875e-08,1.93331250e-01
-4.22021875e-08,1.93276562e-01
-4.21621875e-08,1.93320313e-01
-4.21221875e-08,1.93282813e-01
-4.20821875e-08,1.93315625e-01
-4.20421875e-08,1.93285938e-01
-4.20021875e-08,1.93312500e-01
-4.19621875e-08,1.93289062e-01
-4.19221875e-08,1.93310938e-01
-4.18821875e-08,1.93289062e-01
-4.18421875e-08,1.93310938e-01
-4.18021875e-08,1.93289062e-01
-4.17621875e-08,1.93310938e-01
-4.17221875e-08,1.93289062e-01
-4.16821875e-08,1.93312500e-01
-4.16421875e-08,1.93285938e-01
-4.16021875e-08,1.93315625e-01
-4.15621875e-08,1.93279688e-01
-4.15221875e-08,1.93329688e-01
-4.14821875e-08,1.93245313e-01
-4.14421875e-08,1.93506250e-01
-4.14021875e-08,1.93756250e-01
-4.13621875e-08,1.93667188e-01
-4.13221875e-08,1.93723438e-01
-4.12821875e-08,1.93681250e-01
-4.12421875e-08,1.93717187e-01
-4.12021875e-08,1.93684375e-01
-4.11621875e-08,1.93714063e-01
-4.11221875e-08,1.93685938e-01
-4.10821875e-08,1.93714063e-01
-4.10421875e-08,1.93684375e-01
-4.10021875e-08,1.93715625e-01
-4.09621875e-08,1.93681250e-01
-4.09221875e-08,1.93720313e-01
-4.08821875e-08,1.93675000e-01
-4.08421875e-08,1.93735938e-01
-4.08021875e-08,1.93640625e-01
-4.07621875e-08,1.93912500e-01
-4.07221875e-08,1.94150000e-01
-4.06821875e-08,1.94075000e-01
-4.06421875e-08,1.94115625e-01
-4.06021875e-08,1.94089063e-01
-4.05621875e-08,1.94107813e-01
-4.05221875e-08,1.94093750e-01
-4.04821875e-08,1.94104688e-01
-4.04421875e-08,1.94096875e-01
-4.04021875e-08,1.94103125e-01
-4.03621875e-08,1.94098437e-01
-4.03221875e-08,1.94101563e-01
-4.02821875e-08,1.94100000e-01
-4.02421875e-08,1.94100000e-01
-4.02021875e-08,1.94100000e-01
-4.01621875e-08,1.94100000e-01
-4.01221875e-08,1.94101563e-01
-4.00821875e-08,1.94098437e-01
-4.00421875e-08,1.94101563e-01
-4.00021875e-08,1.94098437e-01
-3.99621875e-08,1.94103125e-01
-3.99221875e-08,1.94096875e-01
-3.98821875e-08,1.94103125e-01
-3.98421875e-08,1.94096875e-01
-3.98021875e-08,1.94104688e-01
-3.97621875e-08,1.94095313e-01
-3.97221875e-08,1.94104688e-01
-3.96821875e-08,1.94095313e-01
-3.96421875e-08,1.94106250e-01
-3.96021875e-08,1.94093750e-01
-3.95621875e-08,1.94107813e-01
-3.95221875e-08,1.94092188e-01
-3.94821875e-08,1.94109375e-01
-3.94421875e-08,1.94089063e-01
-3.94021875e-08,1.94114063e-01
-3.93621875e-08,1.94082813e-01
-3.93221875e-08,1.94121875e-01
-3.92821875e-08,1.94068750e-01
-3.92421875e-08,1.94156250e-01
-3.92021875e-08,1.93890625e-01
-3.91621875e-08,1.93648437e-01
-3.91221875e-08,1.93728125e-01
-3.90821875e-08,1.93681250e-01
-3.90421875e-08,1.93714063e-01
-3.90021875e-08,1.93689063e-01
-3.89621875e-08,1.93707813e-01
-3.89221875e-08,1.93692188e-01
-3.88821875e-08,1.93706250e-01
-3.88421875e-08,1.93695312e-01
-3.88021875e-08,1.93704688e-01
-3.87621875e-08,1.93696875e-01
-3.87221875e-08,1.93703125e-01
-3.86821875e-08,1.93698438e-01
-3.86421875e-08,1.93701563e-01
-3.86021875e-08,1.93698438e-01
-3.85621875e-08,1.93701563e-01
-3.85221875e-08,1.93700000e-01
