trails/0b2e18f6fa2cac99b521e237471ff731/aes_ch1_20250507105734238.csv

Model,MSO66B
Label,
Waveform Type,ANALOG
Horizontal Units,s
Sample Interval,4.00000000e-11
Record Length,10000
Zero Index,1599.11328125
Vertical Units,A
ANALOG_Thumbnail,
yOffset,1.84500000e-01
yPosition,8.40000000e-01

Labels,
TIME,CH1
-6.39645312e-08,1.90870313e-01
-6.39245312e-08,1.90953125e-01
-6.38845312e-08,1.90693750e-01
-6.38445312e-08,1.90443750e-01
-6.38045313e-08,1.90532813e-01
-6.37645312e-08,1.90475000e-01
-6.37245312e-08,1.90520313e-01
-6.36845312e-08,1.90482813e-01
-6.36445312e-08,1.90515625e-01
-6.36045312e-08,1.90485938e-01
-6.35645312e-08,1.90512500e-01
-6.35245313e-08,1.90487500e-01
-6.34845312e-08,1.90510938e-01
-6.34445312e-08,1.90489063e-01
-6.34045312e-08,1.90510938e-01
-6.33645312e-08,1.90490625e-01
-6.33245312e-08,1.90509375e-01
-6.32845312e-08,1.90490625e-01
-6.32445313e-08,1.90509375e-01
-6.32045312e-08,1.90490625e-01
-6.31645312e-08,1.90509375e-01
-6.31245312e-08,1.90490625e-01
-6.30845312e-08,1.90509375e-01
-6.30445313e-08,1.90490625e-01
-6.30045312e-08,1.90509375e-01
-6.29645313e-08,1.90490625e-01
-6.29245312e-08,1.90509375e-01
-6.28845312e-08,1.90490625e-01
-6.28445312e-08,1.90509375e-01
-6.28045312e-08,1.90490625e-01
-6.27645313e-08,1.90509375e-01
-6.27245312e-08,1.90490625e-01
-6.26845313e-08,1.90509375e-01
-6.26445312e-08,1.90489063e-01
-6.26045312e-08,1.90510938e-01
-6.25645312e-08,1.90489063e-01
-6.25245312e-08,1.90510938e-01
-6.24845313e-08,1.90489063e-01
-6.24445312e-08,1.90512500e-01
-6.24045313e-08,1.90487500e-01
-6.23645312e-08,1.90514062e-01
-6.23245312e-08,1.90484375e-01
-6.22845312e-08,1.90517188e-01
-6.22445312e-08,1.90481250e-01
-6.22045313e-08,1.90521875e-01
-6.21645312e-08,1.90473438e-01
-6.21245313e-08,1.90535938e-01
-6.20845312e-08,1.90439063e-01
-6.20445312e-08,1.90714063e-01
-6.20045312e-08,1.90946875e-01
-6.19645312e-08,1.90876563e-01
-6.19245313e-08,1.90914063e-01
-6.18845312e-08,1.90890625e-01
-6.18445313e-08,1.90906250e-01
-6.18045312e-08,1.90896875e-01
-6.17645312e-08,1.90901563e-01
-6.17245312e-08,1.90898438e-01
-6.16845312e-08,1.90900000e-01
-6.16445313e-08,1.90901563e-01
-6.16045312e-08,1.90898438e-01
-6.15645313e-08,1.90901563e-01
-6.15245312e-08,1.90896875e-01
-6.14845312e-08,1.90903125e-01
-6.14445312e-08,1.90895312e-01
-6.14045312e-08,1.90904688e-01
-6.13645313e-08,1.90895312e-01
-6.13245312e-08,1.90906250e-01
-6.12845313e-08,1.90893750e-01
-6.12445312e-08,1.90907812e-01
-6.12045312e-08,1.90892188e-01
-6.11645312e-08,1.90909375e-01
-6.11245312e-08,1.90889063e-01
-6.10845313e-08,1.90912500e-01
-6.10445312e-08,1.90885938e-01
-6.10045312e-08,1.90917188e-01
-6.09645312e-08,1.90876563e-01
-6.09245312e-08,1.90932812e-01
-6.08845312e-08,1.90842188e-01
-6.08445312e-08,1.91110937e-01
-6.08045313e-08,1.91350000e-01
-6.07645312e-08,1.91273438e-01
-6.07245312e-08,1.91317188e-01
-6.06845312e-08,1.91289062e-01
-6.06445312e-08,1.91307813e-01
-6.06045312e-08,1.91295313e-01
-6.05645312e-08,1.91303125e-01
-6.05245313e-08,1.91298438e-01
-6.04845312e-08,1.91300000e-01
-6.04445312e-08,1.91303125e-01
-6.04045312e-08,1.91295313e-01
-6.03645312e-08,1.91307813e-01
-6.03245312e-08,1.91285938e-01
-6.02845312e-08,1.91323437e-01
-6.02445313e-08,1.91251562e-01
-6.02045312e-08,1.91501562e-01
-6.01645312e-08,1.91760938e-01
-6.01245312e-08,1.91662500e-01
-6.00845312e-08,1.91728125e-01
-6.00445312e-08,1.91676563e-01
-6.00045312e-08,1.91721875e-01
-5.99645313e-08,1.91679688e-01
-5.99245312e-08,1.91720313e-01
-5.98845312e-08,1.91679688e-01
-5.98445312e-08,1.91723438e-01
-5.98045312e-08,1.91673438e-01
-5.97645312e-08,1.91735938e-01
-5.97245312e-08,1.91639063e-01
-5.96845313e-08,1.91912500e-01
-5.96445312e-08,1.92150000e-01
-5.96045312e-08,1.92073437e-01
-5.95645312e-08,1.92117188e-01
-5.95245312e-08,1.92087500e-01
-5.94845312e-08,1.92110937e-01
-5.94445312e-08,1.92092188e-01
-5.94045312e-08,1.92107813e-01
-5.93645312e-08,1.92093750e-01
-5.93245312e-08,1.92106250e-01
-5.92845312e-08,1.92093750e-01
-5.92445312e-08,1.92104688e-01
-5.92045312e-08,1.92095313e-01
-5.91645312e-08,1.92104688e-01
-5.91245312e-08,1.92095313e-01
-5.90845312e-08,1.92104688e-01
-5.90445312e-08,1.92095313e-01
-5.90045312e-08,1.92104688e-01
-5.89645312e-08,1.92093750e-01
-5.89245312e-08,1.92106250e-01
-5.88845312e-08,1.92093750e-01
-5.88445312e-08,1.92107813e-01
-5.88045312e-08,1.92092188e-01
-5.87645312e-08,1.92109375e-01
-5.87245312e-08,1.92089063e-01
-5.86845312e-08,1.92112500e-01
-5.86445312e-08,1.92084375e-01
-5.86045312e-08,1.92120313e-01
-5.85645312e-08,1.92070313e-01
-5.85245312e-08,1.92154688e-01
-5.84845312e-08,1.91892188e-01
-5.84445312e-08,1.91645312e-01
-5.84045312e-08,1.91731250e-01
-5.83645312e-08,1.91678125e-01
-5.83245312e-08,1.91717187e-01
-5.82845312e-08,1.91685938e-01
-5.82445312e-08,1.91712500e-01
-5.82045312e-08,1.91689063e-01
-5.81645312e-08,1.91709375e-01
-5.81245312e-08,1.91690625e-01
-5.80845312e-08,1.91709375e-01
-5.80445312e-08,1.91692187e-01
-5.80045312e-08,1.91707813e-01
-5.79645312e-08,1.91692187e-01
-5.79245312e-08,1.91707813e-01
-5.78845312e-08,1.91690625e-01
-5.78445312e-08,1.91709375e-01
-5.78045312e-08,1.91690625e-01
-5.77645312e-08,1.91710938e-01
-5.77245312e-08,1.91687500e-01
-5.76845312e-08,1.91714063e-01
-5.76445312e-08,1.91682813e-01
-5.76045312e-08,1.91721875e-01
-5.75645312e-08,1.91668750e-01
-5.75245312e-08,1.91756250e-01
-5.74845312e-08,1.91490625e-01
-5.74445312e-08,1.91246875e-01
-5.74045312e-08,1.91329688e-01
-5.73645312e-08,1.91279688e-01
-5.73245312e-08,1.91315625e-01
-5.72845312e-08,1.91287500e-01
-5.72445312e-08,1.91310938e-01
-5.72045312e-08,1.91290625e-01
-5.71645312e-08,1.91307813e-01
-5.71245312e-08,1.91292188e-01
-5.70845312e-08,1.91306250e-01
-5.70445312e-08,1.91293750e-01
-5.70045312e-08,1.91306250e-01
-5.69645312e-08,1.91293750e-01
-5.69245312e-08,1.91304688e-01
-5.68845312e-08,1.91295313e-01
-5.68445312e-08,1.91304688e-01
-5.68045312e-08,1.91295313e-01
-5.67645312e-08,1.91304688e-01
-5.67245312e-08,1.91295313e-01
-5.66845312e-08,1.91304688e-01
-5.66445312e-08,1.91295313e-01
-5.66045312e-08,1.91304688e-01
-5.65645312e-08,1.91295313e-01
-5.65245312e-08,1.91304688e-01
-5.64845312e-08,1.91295313e-01
-5.64445312e-08,1.91304688e-01
-5.64045312e-08,1.91295313e-01
-5.63645312e-08,1.91304688e-01
-5.63245312e-08,1.91295313e-01
-5.62845312e-08,1.91304688e-01
-5.62445312e-08,1.91295313e-01
-5.62045312e-08,1.91304688e-01
-5.61645312e-08,1.91295313e-01
-5.61245312e-08,1.91304688e-01
-5.60845312e-08,1.91295313e-01
-5.60445312e-08,1.91304688e-01
-5.60045312e-08,1.91293750e-01
-5.59645312e-08,1.91306250e-01
-5.59245312e-08,1.91293750e-01
-5.58845312e-08,1.91307813e-01
-5.58445312e-08,1.91292188e-01
-5.58045312e-08,1.91309375e-01
-5.57645312e-08,1.91290625e-01
-5.57245312e-08,1.91312500e-01
-5.56845312e-08,1.91284375e-01
-5.56445312e-08,1.91320313e-01
-5.56045312e-08,1.91270313e-01
-5.55645312e-08,1.91353125e-01
-5.55245312e-08,1.91093750e-01
-5.54845312e-08,1.90843750e-01
-5.54445312e-08,1.90932812e-01
-5.54045312e-08,1.90875000e-01
-5.53645312e-08,1.90920312e-01
-5.53245312e-08,1.90881250e-01
-5.52845312e-08,1.90917188e-01
-5.52445312e-08,1.90882812e-01
-5.52045312e-08,1.90918750e-01
-5.51645312e-08,1.90879688e-01
-5.51245312e-08,1.90925000e-01
-5.50845312e-08,1.90865625e-01
-5.50445312e-08,1.90959375e-01
-5.50045312e-08,1.90687500e-01
-5.49645312e-08,1.90450000e-01
-5.49245312e-08,1.90525000e-01
-5.48845312e-08,1.90484375e-01
-5.48445312e-08,1.90509375e-01
-5.48045312e-08,1.90495313e-01
-5.47645312e-08,1.90500000e-01
-5.47245312e-08,1.90506250e-01
-5.46845312e-08,1.90484375e-01
-5.46445312e-08,1.90540625e-01
-5.46045312e-08,1.90306250e-01
-5.45645312e-08,1.90031250e-01
-5.45245312e-08,1.90145312e-01
-5.44845312e-08,1.90064063e-01
-5.44445312e-08,1.90132812e-01
-5.44045312e-08,1.90068750e-01
-5.43645312e-08,1.90131250e-01
-5.43245312e-08,1.90067188e-01
-5.42845312e-08,1.90135938e-01
-5.42445312e-08,1.90054688e-01
-5.42045312e-08,1.90170312e-01
-5.41645312e-08,1.89878125e-01
-5.41245312e-08,1.89659375e-01
-5.40845312e-08,1.89715625e-01
-5.40445312e-08,1.89693750e-01
-5.40045312e-08,1.89701563e-01
-5.39645312e-08,1.89701563e-01
-5.39245312e-08,1.89696875e-01
-5.38845312e-08,1.89706250e-01
-5.38445312e-08,1.89692187e-01
-5.38045312e-08,1.89709375e-01
-5.37645312e-08,1.89689063e-01
-5.37245312e-08,1.89714063e-01
-5.36845312e-08,1.89682813e-01
-5.36445312e-08,1.89723438e-01
-5.36045312e-08,1.89667188e-01
-5.35645312e-08,1.89757813e-01
-5.35245312e-08,1.89489062e-01
-5.34845312e-08,1.89250000e-01
-5.34445312e-08,1.89326563e-01
-5.34045312e-08,1.89282813e-01
-5.33645312e-08,1.89310937e-01
-5.33245312e-08,1.89292188e-01
-5.32845312e-08,1.89306250e-01
-5.32445312e-08,1.89295313e-01
-5.32045312e-08,1.89303125e-01
-5.31645312e-08,1.89298437e-01
-5.31245312e-08,1.89300000e-01
-5.30845312e-08,1.89301563e-01
-5.30445312e-08,1.89298437e-01
-5.30045312e-08,1.89303125e-01
-5.29645312e-08,1.89295313e-01
-5.29245312e-08,1.89306250e-01
-5.28845312e-08,1.89290625e-01
-5.28445312e-08,1.89312500e-01
-5.28045312e-08,1.89282813e-01
-5.27645312e-08,1.89326563e-01
-5.27245312e-08,1.89248438e-01
-5.26845312e-08,1.89504688e-01
-5.26445312e-08,1.89757813e-01
-5.26045312e-08,1.89665625e-01
-5.25645312e-08,1.89725000e-01
-5.25245312e-08,1.89679687e-01
-5.24845312e-08,1.89717187e-01
-5.24445312e-08,1.89682813e-01
-5.24045312e-08,1.89715625e-01
-5.23645312e-08,1.89682813e-01
-5.23245312e-08,1.89718750e-01
-5.22845312e-08,1.89678125e-01
-5.22445312e-08,1.89731250e-01
-5.22045312e-08,1.89645312e-01
-5.21645312e-08,1.89907812e-01
-5.21245312e-08,1.90156250e-01
-5.20845312e-08,1.90065625e-01
-5.20445312e-08,1.90126563e-01
-5.20045312e-08,1.90076563e-01
-5.19645312e-08,1.90123438e-01
-5.19245312e-08,1.90073437e-01
-5.18845312e-08,1.90134375e-01
-5.18445312e-08,1.90042188e-01
-5.18045312e-08,1.90309375e-01
-5.17645312e-08,1.90553125e-01
-5.17245312e-08,1.90468750e-01
-5.16845312e-08,1.90523438e-01
-5.16445312e-08,1.90479687e-01
-5.16045312e-08,1.90520313e-01
-5.15645312e-08,1.90476563e-01
-5.15245313e-08,1.90531250e-01
-5.14845312e-08,1.90445313e-01
-5.14445312e-08,1.90707813e-01
-5.14045312e-08,1.90956250e-01
-5.13645312e-08,1.90867188e-01
-5.13245312e-08,1.90925000e-01
-5.12845312e-08,1.90878125e-01
-5.12445312e-08,1.90918750e-01
-5.12045312e-08,1.90881250e-01
-5.11645312e-08,1.90918750e-01
-5.11245312e-08,1.90879688e-01
-5.10845312e-08,1.90923438e-01
-5.10445312e-08,1.90871875e-01
-5.10045312e-08,1.90937500e-01
-5.09645312e-08,1.90839063e-01
-5.09245312e-08,1.91114063e-01
-5.08845312e-08,1.91348437e-01
-5.08445312e-08,1.91276562e-01
-5.08045312e-08,1.91314062e-01
-5.07645312e-08,1.91290625e-01
-5.07245312e-08,1.91306250e-01
-5.06845312e-08,1.91295313e-01
-5.06445312e-08,1.91303125e-01
-5.06045312e-08,1.91298438e-01
-5.05645312e-08,1.91300000e-01
-5.05245312e-08,1.91301563e-01
-5.04845312e-08,1.91298438e-01
-5.04445312e-08,1.91303125e-01
-5.04045312e-08,1.91295313e-01
-5.03645312e-08,1.91306250e-01
-5.03245312e-08,1.91292188e-01
-5.02845312e-08,1.91309375e-01
-5.02445312e-08,1.91287500e-01
-5.02045312e-08,1.91318750e-01
-5.01645312e-08,1.91271875e-01
-5.01245312e-08,1.91353125e-01
-5.00845312e-08,1.91093750e-01
-5.00445312e-08,1.90843750e-01
-5.00045312e-08,1.90932812e-01
-4.99645312e-08,1.90876563e-01
-4.99245312e-08,1.90918750e-01
-4.98845312e-08,1.90884375e-01
-4.98445312e-08,1.90914063e-01
-4.98045312e-08,1.90887500e-01
-4.97645312e-08,1.90912500e-01
-4.97245312e-08,1.90889063e-01
-4.96845312e-08,1.90910938e-01
-4.96445312e-08,1.90887500e-01
-4.96045313e-08,1.90912500e-01
-4.95645312e-08,1.90885938e-01
-4.95245312e-08,1.90917188e-01
-4.94845312e-08,1.90878125e-01
-4.94445312e-08,1.90929688e-01
-4.94045312e-08,1.90845313e-01
-4.93645312e-08,1.91107813e-01
-4.93245313e-08,1.91354688e-01
-4.92845312e-08,1.91268750e-01
-4.92445312e-08,1.91323437e-01
-4.92045312e-08,1.91281250e-01
-4.91645312e-08,1.91315625e-01
-4.91245312e-08,1.91285938e-01
-4.90845312e-08,1.91312500e-01
-4.90445312e-08,1.91287500e-01
-4.90045312e-08,1.91312500e-01
-4.89645312e-08,1.91287500e-01
-4.89245312e-08,1.91312500e-01
-4.88845312e-08,1.91287500e-01
-4.88445312e-08,1.91314062e-01
-4.88045312e-08,1.91285938e-01
-4.87645312e-08,1.91315625e-01
-4.87245312e-08,1.91282813e-01
-4.86845312e-08,1.91320313e-01
-4.86445312e-08,1.91273438e-01
-4.86045312e-08,1.91335937e-01
-4.85645312e-08,1.91239063e-01
-4.85245312e-08,1.91514062e-01
-4.84845312e-08,1.91748438e-01
-4.84445312e-08,1.91675000e-01
-4.84045312e-08,1.91714063e-01
-4.83645312e-08,1.91690625e-01
-4.83245312e-08,1.91706250e-01
-4.82845312e-08,1.91695313e-01
-4.82445312e-08,1.91701563e-01
-4.82045312e-08,1.91700000e-01
-4.81645312e-08,1.91700000e-01
-4.81245312e-08,1.91701563e-01
-4.80845312e-08,1.91696875e-01
-4.80445312e-08,1.91704687e-01
-4.80045312e-08,1.91693750e-01
-4.79645312e-08,1.91707813e-01
-4.79245312e-08,1.91690625e-01
-4.78845312e-08,1.91710938e-01
-4.78445312e-08,1.91685938e-01
-4.78045312e-08,1.91720313e-01
-4.77645312e-08,1.91670312e-01
-4.77245312e-08,1.91754688e-01
-4.76845313e-08,1.91490625e-01
-4.76445312e-08,1.91246875e-01
-4.76045312e-08,1.91329688e-01
-4.75645312e-08,1.91279688e-01
-4.75245312e-08,1.91314062e-01
-4.74845312e-08,1.91289062e-01
-4.74445312e-08,1.91309375e-01
-4.74045313e-08,1.91293750e-01
-4.73645312e-08,1.91304688e-01
-4.73245312e-08,1.91295313e-01
-4.72845312e-08,1.91303125e-01
-4.72445312e-08,1.91298438e-01
-4.72045312e-08,1.91300000e-01
-4.71645312e-08,1.91300000e-01
-4.71245313e-08,1.91298438e-01
-4.70845312e-08,1.91303125e-01
-4.70445312e-08,1.91295313e-01
-4.70045312e-08,1.91307813e-01
-4.69645312e-08,1.91289062e-01
-4.69245312e-08,1.91315625e-01
-4.68845312e-08,1.91273438e-01
-4.68445312e-08,1.91351563e-01
-4.68045312e-08,1.91095313e-01
-4.67645312e-08,1.90842188e-01
-4.67245312e-08,1.90934375e-01
-4.66845312e-08,1.90875000e-01
-4.66445312e-08,1.90918750e-01
-4.66045312e-08,1.90884375e-01
-4.65645312e-08,1.90914063e-01
-4.65245312e-08,1.90887500e-01
-4.64845312e-08,1.90910938e-01
-4.64445312e-08,1.90890625e-01
-4.64045312e-08,1.90909375e-01
-4.63645312e-08,1.90890625e-01
-4.63245312e-08,1.90907812e-01
-4.62845312e-08,1.90892188e-01
-4.62445312e-08,1.90907812e-01
-4.62045312e-08,1.90893750e-01
-4.61645312e-08,1.90906250e-01
-4.61245312e-08,1.90893750e-01
-4.60845312e-08,1.90906250e-01
-4.60445313e-08,1.90893750e-01
-4.60045312e-08,1.90906250e-01
-4.59645312e-08,1.90893750e-01
-4.59245312e-08,1.90904688e-01
-4.58845312e-08,1.90895312e-01
-4.58445312e-08,1.90904688e-01
-4.58045312e-08,1.90895312e-01
-4.57645313e-08,1.90904688e-01
-4.57245312e-08,1.90895312e-01
-4.56845312e-08,1.90904688e-01
-4.56445312e-08,1.90895312e-01
-4.56045312e-08,1.90904688e-01
-4.55645312e-08,1.90895312e-01
-4.55245312e-08,1.90904688e-01
-4.54845313e-08,1.90895312e-01
-4.54445312e-08,1.90904688e-01
-4.54045312e-08,1.90895312e-01
-4.53645312e-08,1.90904688e-01
-4.53245312e-08,1.90895312e-01
-4.52845312e-08,1.90904688e-01
-4.52445312e-08,1.90895312e-01
-4.52045313e-08,1.90904688e-01
-4.51645312e-08,1.90895312e-01
-4.51245312e-08,1.90904688e-01
-4.50845312e-08,1.90895312e-01
-4.50445312e-08,1.90904688e-01
-4.50045312e-08,1.90895312e-01
-4.49645312e-08,1.90906250e-01
-4.49245313e-08,1.90893750e-01
-4.48845312e-08,1.90906250e-01
-4.48445312e-08,1.90893750e-01
-4.48045312e-08,1.90907812e-01
-4.47645312e-08,1.90892188e-01
-4.47245312e-08,1.90909375e-01
-4.46845312e-08,1.90889063e-01
-4.46445312e-08,1.90912500e-01
-4.46045312e-08,1.90884375e-01
-4.45645312e-08,1.90920312e-01
-4.45245312e-08,1.90870313e-01
-4.44845312e-08,1.90954687e-01
-4.44445312e-08,1.90692187e-01
-4.44045312e-08,1.90445313e-01
-4.43645312e-08,1.90531250e-01
-4.43245312e-08,1.90478125e-01
-4.42845312e-08,1.90515625e-01
-4.42445312e-08,1.90485938e-01
-4.42045312e-08,1.90510938e-01
-4.41645312e-08,1.90490625e-01
-4.41245313e-08,1.90509375e-01
-4.40845312e-08,1.90492188e-01
-4.40445312e-08,1.90507813e-01
-4.40045312e-08,1.90492188e-01
-4.39645312e-08,1.90507813e-01
-4.39245312e-08,1.90493750e-01
-4.38845312e-08,1.90506250e-01
-4.38445313e-08,1.90493750e-01
-4.38045312e-08,1.90506250e-01
-4.37645312e-08,1.90493750e-01
-4.37245312e-08,1.90506250e-01
-4.36845312e-08,1.90493750e-01
-4.36445312e-08,1.90506250e-01
-4.36045312e-08,1.90493750e-01
-4.35645313e-08,1.90507813e-01
-4.35245312e-08,1.90492188e-01
-4.34845312e-08,1.90507813e-01
-4.34445312e-08,1.90490625e-01
-4.34045312e-08,1.90510938e-01
-4.33645312e-08,1.90487500e-01
-4.33245312e-08,1.90515625e-01
-4.32845313e-08,1.90479687e-01
-4.32445312e-08,1.90529688e-01
-4.32045312e-08,1.90446875e-01
-4.31645312e-08,1.90706250e-01
-4.31245312e-08,1.90956250e-01
-4.30845312e-08,1.90867188e-01
-4.30445312e-08,1.90925000e-01
-4.30045313e-08,1.90879688e-01
-4.29645312e-08,1.90920312e-01
-4.29245312e-08,1.90879688e-01
-4.28845312e-08,1.90921875e-01
-4.28445312e-08,1.90875000e-01
-4.28045312e-08,1.90934375e-01
-4.27645312e-08,1.90842188e-01
-4.27245313e-08,1.91110937e-01
-4.26845312e-08,1.91351563e-01
-4.26445312e-08,1.91271875e-01
-4.26045312e-08,1.91318750e-01
-4.25645312e-08,1.91285938e-01
-4.25245312e-08,1.91312500e-01
-4.24845312e-08,1.91290625e-01
-4.24445312e-08,1.91309375e-01
-4.24045312e-08,1.91292188e-01
-4.23645312e-08,1.91306250e-01
-4.23245312e-08,1.91293750e-01
-4.22845312e-08,1.91306250e-01
-4.22445312e-08,1.91295313e-01
-4.22045313e-08,1.91304688e-01
-4.21645312e-08,1.91295313e-01
-4.21245312e-08,1.91303125e-01
-4.20845312e-08,1.91296875e-01
-4.20445312e-08,1.91301563e-01
-4.20045312e-08,1.91298438e-01
-4.19645312e-08,1.91300000e-01
-4.19245313e-08,1.91301563e-01
-4.18845312e-08,1.91295313e-01
-4.18445312e-08,1.91309375e-01
-4.18045312e-08,1.91281250e-01
-4.17645312e-08,1.91343750e-01
-4.17245312e-08,1.91103125e-01
-4.16845312e-08,1.90832813e-01
-4.16445313e-08,1.90943750e-01
-4.16045312e-08,1.90865625e-01
-4.15645312e-08,1.90931250e-01
-4.15245312e-08,1.90871875e-01
-4.14845312e-08,1.90928125e-01
-4.14445312e-08,1.90871875e-01
-4.14045312e-08,1.90929688e-01
-4.13645313e-08,1.90868750e-01
-4.13245312e-08,1.90935938e-01
-4.12845312e-08,1.90854688e-01
-4.12445312e-08,1.90970313e-01
-4.12045312e-08,1.90676563e-01
-4.11645312e-08,1.90460938e-01
-4.11245312e-08,1.90515625e-01
-4.10845313e-08,1.90495313e-01
-4.10445312e-08,1.90500000e-01
-4.10045312e-08,1.90503125e-01
-4.09645312e-08,1.90493750e-01
-4.09245312e-08,1.90507813e-01
-4.08845312e-08,1.90490625e-01
-4.08445312e-08,1.90510938e-01
-4.08045313e-08,1.90487500e-01
-4.07645312e-08,1.90514062e-01
-4.07245312e-08,1.90484375e-01
-4.06845312e-08,1.90518750e-01
-4.06445312e-08,1.90479687e-01
-4.06045312e-08,1.90525000e-01
-4.05645312e-08,1.90468750e-01
-4.05245312e-08,1.90540625e-01
-4.04845312e-08,1.90432812e-01
-4.04445312e-08,1.90720313e-01
-4.04045312e-08,1.90940625e-01
-4.03645312e-08,1.90884375e-01
-4.03245312e-08,1.90903125e-01
-4.02845313e-08,1.90903125e-01
-4.02445312e-08,1.90890625e-01
-4.02045312e-08,1.90914063e-01
-4.01645312e-08,1.90878125e-01
-4.01245312e-08,1.90932812e-01
-4.00845312e-08,1.90840625e-01
-4.00445312e-08,1.91115625e-01
-4.00045313e-08,1.91345313e-01
-3.99645312e-08,1.91281250e-01
-3.99245312e-08,1.91306250e-01
-3.98845312e-08,1.91301563e-01
-3.98445312e-08,1.91289062e-01
-3.98045312e-08,1.91323437e-01
-3.97645312e-08,1.91250000e-01
-3.97245313e-08,1.91506250e-01
-3.96845312e-08,1.91754688e-01
-3.96445312e-08,1.91670312e-01
-3.96045312e-08,1.91717187e-01
-3.95645312e-08,1.91689063e-01
-3.95245312e-08,1.91704687e-01
-3.94845312e-08,1.91701563e-01
-3.94445313e-08,1.91692187e-01
-3.94045312e-08,1.91718750e-01
-3.93645312e-08,1.91654688e-01
-3.93245312e-08,1.91900000e-01
-3.92845312e-08,1.92160938e-01
-3.92445312e-08,1.92062500e-01
-3.92045312e-08,1.92126563e-01
-3.91645313e-08,1.92079688e-01
-3.91245312e-08,1.92117188e-01
-3.90845312e-08,1.92085937e-01
-3.90445312e-08,1.92112500e-01
-3.90045312e-08,1.92089063e-01
-3.89645312e-08,1.92109375e-01
-3.89245312e-08,1.92092188e-01
-3.88845313e-08,1.92106250e-01
-3.88445312e-08,1.92095313e-01
-3.88045312e-08,1.92103125e-01
-3.87645312e-08,1.92096875e-01
-3.87245312e-08,1.92101563e-01
-3.86845312e-08,1.92100000e-01
-3.86445312e-08,1.92098437e-01
-3.86045313e-08,1.92104688e-01
-3.85645312e-08,1.92092188e-01
-3.85245312e-08,1.92114063e-01
