trails/0b2e18f6fa2cac99b521e237471ff731/aes_ch1_20250507110544258.csv

Model,MSO66B
Label,
Waveform Type,ANALOG
Horizontal Units,s
Sample Interval,4.00000000e-11
Record Length,10000
Zero Index,1599.10546875
Vertical Units,A
ANALOG_Thumbnail,
yOffset,1.84500000e-01
yPosition,8.40000000e-01

Labels,
TIME,CH1
-6.39642188e-08,1.95704688e-01
-6.39242187e-08,1.95696875e-01
-6.38842187e-08,1.95703125e-01
-6.38442187e-08,1.95696875e-01
-6.38042187e-08,1.95701563e-01
-6.37642188e-08,1.95698438e-01
-6.37242187e-08,1.95700000e-01
-6.36842188e-08,1.95701563e-01
-6.36442187e-08,1.95696875e-01
-6.36042187e-08,1.95704688e-01
-6.35642187e-08,1.95692188e-01
-6.35242187e-08,1.95712500e-01
-6.34842188e-08,1.95678125e-01
-6.34442187e-08,1.95746875e-01
-6.34042188e-08,1.95500000e-01
-6.33642187e-08,1.95237500e-01
-6.33242187e-08,1.95339062e-01
-6.32842187e-08,1.95270313e-01
-6.32442187e-08,1.95325000e-01
-6.32042188e-08,1.95278125e-01
-6.31642187e-08,1.95320313e-01
-6.31242188e-08,1.95279688e-01
-6.30842187e-08,1.95320313e-01
-6.30442187e-08,1.95279688e-01
-6.30042187e-08,1.95321875e-01
-6.29642187e-08,1.95276563e-01
-6.29242188e-08,1.95328125e-01
-6.28842187e-08,1.95262500e-01
-6.28442187e-08,1.95360937e-01
-6.28042187e-08,1.95085938e-01
-6.27642187e-08,1.94851563e-01
-6.27242187e-08,1.94925000e-01
-6.26842187e-08,1.94884375e-01
-6.26442188e-08,1.94910937e-01
-6.26042187e-08,1.94890625e-01
-6.25642187e-08,1.94907812e-01
-6.25242187e-08,1.94893750e-01
-6.24842187e-08,1.94906250e-01
-6.24442187e-08,1.94893750e-01
-6.24042187e-08,1.94906250e-01
-6.23642188e-08,1.94893750e-01
-6.23242187e-08,1.94907812e-01
-6.22842187e-08,1.94890625e-01
-6.22442187e-08,1.94912500e-01
-6.22042187e-08,1.94882813e-01
-6.21642187e-08,1.94926563e-01
-6.21242187e-08,1.94848437e-01
-6.20842188e-08,1.95104688e-01
-6.20442187e-08,1.95357813e-01
-6.20042187e-08,1.95265625e-01
-6.19642187e-08,1.95325000e-01
-6.19242187e-08,1.95278125e-01
-6.18842187e-08,1.95318750e-01
-6.18442187e-08,1.95282813e-01
-6.18042188e-08,1.95315625e-01
-6.17642187e-08,1.95285938e-01
-6.17242187e-08,1.95314062e-01
-6.16842187e-08,1.95285938e-01
-6.16442187e-08,1.95314062e-01
-6.16042187e-08,1.95285938e-01
-6.15642187e-08,1.95315625e-01
-6.15242188e-08,1.95284375e-01
-6.14842187e-08,1.95317188e-01
-6.14442187e-08,1.95281250e-01
-6.14042187e-08,1.95321875e-01
-6.13642187e-08,1.95273438e-01
-6.13242187e-08,1.95335938e-01
-6.12842187e-08,1.95239063e-01
-6.12442188e-08,1.95514063e-01
-6.12042187e-08,1.95746875e-01
-6.11642187e-08,1.95676563e-01
-6.11242187e-08,1.95714063e-01
-6.10842187e-08,1.95690625e-01
-6.10442187e-08,1.95706250e-01
-6.10042187e-08,1.95696875e-01
-6.09642188e-08,1.95700000e-01
-6.09242187e-08,1.95701563e-01
-6.08842187e-08,1.95695312e-01
-6.08442187e-08,1.95707813e-01
-6.08042187e-08,1.95687500e-01
-6.07642188e-08,1.95721875e-01
-6.07242187e-08,1.95653125e-01
-6.06842188e-08,1.95898438e-01
-6.06442187e-08,1.96164063e-01
-6.06042187e-08,1.96059375e-01
-6.05642187e-08,1.96132813e-01
-6.05242187e-08,1.96068750e-01
-6.04842188e-08,1.96131250e-01
-6.04442187e-08,1.96065625e-01
-6.04042188e-08,1.96142188e-01
-6.03642187e-08,1.96032813e-01
-6.03242187e-08,1.96320313e-01
-6.02842187e-08,1.96542188e-01
-6.02442187e-08,1.96482812e-01
-6.02042188e-08,1.96507813e-01
-6.01642187e-08,1.96500000e-01
-6.01242188e-08,1.96492187e-01
-6.00842187e-08,1.96518750e-01
-6.00442187e-08,1.96456250e-01
-6.00042187e-08,1.96696875e-01
-5.99642187e-08,1.96967188e-01
-5.99242188e-08,1.96856250e-01
-5.98842187e-08,1.96937500e-01
-5.98442188e-08,1.96864062e-01
-5.98042187e-08,1.96942188e-01
-5.97642187e-08,1.96834375e-01
-5.97242187e-08,1.97115625e-01
-5.96842187e-08,1.97348438e-01
-5.96442188e-08,1.97273438e-01
-5.96042187e-08,1.97318750e-01
-5.95642187e-08,1.97284375e-01
-5.95242187e-08,1.97314062e-01
-5.94842187e-08,1.97285938e-01
-5.94442187e-08,1.97317188e-01
-5.94042187e-08,1.97278125e-01
-5.93642187e-08,1.97329688e-01
-5.93242187e-08,1.97245313e-01
-5.92842187e-08,1.97507813e-01
-5.92442187e-08,1.97754687e-01
-5.92042187e-08,1.97668750e-01
-5.91642187e-08,1.97721875e-01
-5.91242187e-08,1.97682812e-01
-5.90842187e-08,1.97714063e-01
-5.90442187e-08,1.97687500e-01
-5.90042187e-08,1.97710938e-01
-5.89642187e-08,1.97690625e-01
-5.89242187e-08,1.97707812e-01
-5.88842187e-08,1.97693750e-01
-5.88442187e-08,1.97706250e-01
-5.88042187e-08,1.97695312e-01
-5.87642187e-08,1.97704688e-01
-5.87242187e-08,1.97696875e-01
-5.86842187e-08,1.97701563e-01
-5.86442187e-08,1.97701563e-01
-5.86042187e-08,1.97695312e-01
-5.85642187e-08,1.97709375e-01
-5.85242187e-08,1.97681250e-01
-5.84842187e-08,1.97743750e-01
-5.84442187e-08,1.97504687e-01
-5.84042187e-08,1.97232813e-01
-5.83642187e-08,1.97343750e-01
-5.83242187e-08,1.97265625e-01
-5.82842187e-08,1.97331250e-01
-5.82442187e-08,1.97270313e-01
-5.82042187e-08,1.97329688e-01
-5.81642187e-08,1.97270313e-01
-5.81242187e-08,1.97334375e-01
-5.80842187e-08,1.97257813e-01
-5.80442187e-08,1.97365625e-01
-5.80042187e-08,1.97082813e-01
-5.79642187e-08,1.96854688e-01
-5.79242187e-08,1.96923438e-01
-5.78842187e-08,1.96882813e-01
-5.78442187e-08,1.96917188e-01
-5.78042187e-08,1.96876563e-01
-5.77642187e-08,1.96945312e-01
-5.77242187e-08,1.96704688e-01
-5.76842187e-08,1.96431250e-01
-5.76442187e-08,1.96548438e-01
-5.76042187e-08,1.96456250e-01
-5.75642187e-08,1.96543750e-01
-5.75242187e-08,1.96448438e-01
-5.74842187e-08,1.96576562e-01
-5.74442187e-08,1.96271875e-01
-5.74042187e-08,1.96067188e-01
-5.73642187e-08,1.96109375e-01
-5.73242187e-08,1.96101562e-01
-5.72842187e-08,1.96090625e-01
-5.72442187e-08,1.96117188e-01
-5.72042187e-08,1.96070313e-01
-5.71642187e-08,1.96154688e-01
-5.71242187e-08,1.95890625e-01
-5.70842187e-08,1.95648437e-01
-5.70442187e-08,1.95728125e-01
-5.70042187e-08,1.95681250e-01
-5.69642187e-08,1.95712500e-01
-5.69242187e-08,1.95690625e-01
-5.68842187e-08,1.95706250e-01
-5.68442187e-08,1.95695312e-01
-5.68042187e-08,1.95703125e-01
-5.67642187e-08,1.95696875e-01
-5.67242187e-08,1.95701563e-01
-5.66842187e-08,1.95698438e-01
-5.66442187e-08,1.95700000e-01
-5.66042187e-08,1.95700000e-01
-5.65642187e-08,1.95700000e-01
-5.65242187e-08,1.95701563e-01
-5.64842187e-08,1.95698438e-01
-5.64442187e-08,1.95701563e-01
-5.64042187e-08,1.95696875e-01
-5.63642187e-08,1.95703125e-01
-5.63242187e-08,1.95696875e-01
-5.62842187e-08,1.95703125e-01
-5.62442187e-08,1.95696875e-01
-5.62042187e-08,1.95704688e-01
-5.61642187e-08,1.95695312e-01
-5.61242187e-08,1.95704688e-01
-5.60842187e-08,1.95693750e-01
-5.60442187e-08,1.95706250e-01
-5.60042187e-08,1.95693750e-01
-5.59642187e-08,1.95706250e-01
-5.59242187e-08,1.95692188e-01
-5.58842187e-08,1.95707813e-01
-5.58442187e-08,1.95690625e-01
-5.58042187e-08,1.95709375e-01
-5.57642187e-08,1.95689063e-01
-5.57242187e-08,1.95712500e-01
-5.56842187e-08,1.95684375e-01
-5.56442187e-08,1.95718750e-01
-5.56042187e-08,1.95676563e-01
-5.55642187e-08,1.95732813e-01
-5.55242187e-08,1.95642188e-01
-5.54842187e-08,1.95912500e-01
-5.54442187e-08,1.96150000e-01
-5.54042187e-08,1.96073438e-01
-5.53642187e-08,1.96117188e-01
-5.53242187e-08,1.96087500e-01
-5.52842187e-08,1.96107813e-01
-5.52442187e-08,1.96093750e-01
-5.52042187e-08,1.96104688e-01
-5.51642187e-08,1.96096875e-01
-5.51242187e-08,1.96101562e-01
-5.50842187e-08,1.96098438e-01
-5.50442187e-08,1.96100000e-01
-5.50042187e-08,1.96100000e-01
-5.49642187e-08,1.96098438e-01
-5.49242187e-08,1.96101562e-01
-5.48842187e-08,1.96096875e-01
-5.48442187e-08,1.96104688e-01
-5.48042187e-08,1.96093750e-01
-5.47642187e-08,1.96107813e-01
-5.47242187e-08,1.96090625e-01
-5.46842187e-08,1.96112500e-01
-5.46442187e-08,1.96082813e-01
-5.46042187e-08,1.96126563e-01
-5.45642187e-08,1.96048438e-01
-5.45242187e-08,1.96304688e-01
-5.44842187e-08,1.96557813e-01
-5.44442187e-08,1.96465625e-01
-5.44042187e-08,1.96525000e-01
-5.43642187e-08,1.96478125e-01
-5.43242187e-08,1.96518750e-01
-5.42842187e-08,1.96481250e-01
-5.42442187e-08,1.96518750e-01
-5.42042187e-08,1.96479687e-01
-5.41642187e-08,1.96525000e-01
-5.41242187e-08,1.96467188e-01
-5.40842187e-08,1.96557813e-01
-5.40442187e-08,1.96290625e-01
-5.40042187e-08,1.96046875e-01
-5.39642187e-08,1.96129688e-01
-5.39242187e-08,1.96079688e-01
-5.38842187e-08,1.96115625e-01
-5.38442187e-08,1.96085938e-01
-5.38042187e-08,1.96110937e-01
-5.37642187e-08,1.96089063e-01
-5.37242187e-08,1.96109375e-01
-5.36842187e-08,1.96090625e-01
-5.36442187e-08,1.96109375e-01
-5.36042187e-08,1.96090625e-01
-5.35642187e-08,1.96109375e-01
-5.35242187e-08,1.96090625e-01
-5.34842187e-08,1.96109375e-01
-5.34442187e-08,1.96090625e-01
-5.34042187e-08,1.96109375e-01
-5.33642188e-08,1.96090625e-01
-5.33242187e-08,1.96109375e-01
-5.32842187e-08,1.96090625e-01
-5.32442187e-08,1.96109375e-01
-5.32042187e-08,1.96089063e-01
-5.31642187e-08,1.96110937e-01
-5.31242187e-08,1.96089063e-01
-5.30842187e-08,1.96110937e-01
-5.30442187e-08,1.96087500e-01
-5.30042187e-08,1.96112500e-01
-5.29642187e-08,1.96085938e-01
-5.29242187e-08,1.96115625e-01
-5.28842187e-08,1.96082813e-01
-5.28442187e-08,1.96118750e-01
-5.28042187e-08,1.96079688e-01
-5.27642187e-08,1.96125000e-01
-5.27242187e-08,1.96070313e-01
-5.26842187e-08,1.96140625e-01
-5.26442187e-08,1.96034375e-01
-5.26042187e-08,1.96320313e-01
-5.25642187e-08,1.96542188e-01
-5.25242187e-08,1.96482812e-01
-5.24842187e-08,1.96506250e-01
-5.24442187e-08,1.96501563e-01
-5.24042187e-08,1.96493750e-01
-5.23642187e-08,1.96512500e-01
-5.23242187e-08,1.96481250e-01
-5.22842187e-08,1.96529687e-01
-5.22442187e-08,1.96443750e-01
-5.22042187e-08,1.96710938e-01
-5.21642187e-08,1.96950000e-01
-5.21242187e-08,1.96875000e-01
-5.20842187e-08,1.96914063e-01
-5.20442187e-08,1.96893750e-01
-5.20042187e-08,1.96901563e-01
-5.19642187e-08,1.96904688e-01
-5.19242187e-08,1.96889063e-01
-5.18842187e-08,1.96921875e-01
-5.18442187e-08,1.96851563e-01
-5.18042187e-08,1.97101562e-01
-5.17642187e-08,1.97359375e-01
-5.17242187e-08,1.97265625e-01
-5.16842187e-08,1.97325000e-01
-5.16442187e-08,1.97281250e-01
-5.16042187e-08,1.97315625e-01
-5.15642187e-08,1.97287500e-01
-5.15242187e-08,1.97310938e-01
-5.14842187e-08,1.97290625e-01
-5.14442188e-08,1.97307813e-01
-5.14042187e-08,1.97293750e-01
-5.13642187e-08,1.97304688e-01
-5.13242187e-08,1.97295313e-01
-5.12842187e-08,1.97303125e-01
-5.12442187e-08,1.97298438e-01
-5.12042187e-08,1.97300000e-01
-5.11642188e-08,1.97300000e-01
-5.11242187e-08,1.97298438e-01
-5.10842187e-08,1.97303125e-01
-5.10442187e-08,1.97293750e-01
-5.10042187e-08,1.97307813e-01
-5.09642187e-08,1.97289063e-01
-5.09242187e-08,1.97317188e-01
-5.08842187e-08,1.97273438e-01
-5.08442187e-08,1.97353125e-01
-5.08042187e-08,1.97093750e-01
-5.07642187e-08,1.96843750e-01
-5.07242187e-08,1.96931250e-01
-5.06842187e-08,1.96878125e-01
-5.06442187e-08,1.96915625e-01
-5.06042187e-08,1.96889063e-01
-5.05642187e-08,1.96909375e-01
-5.05242187e-08,1.96893750e-01
-5.04842187e-08,1.96903125e-01
-5.04442187e-08,1.96900000e-01
-5.04042187e-08,1.96896875e-01
-5.03642187e-08,1.96909375e-01
-5.03242187e-08,1.96881250e-01
-5.02842187e-08,1.96945312e-01
-5.02442187e-08,1.96701563e-01
-5.02042187e-08,1.96435938e-01
-5.01642187e-08,1.96539063e-01
-5.01242187e-08,1.96470313e-01
-5.00842187e-08,1.96525000e-01
-5.00442187e-08,1.96479687e-01
-5.00042187e-08,1.96518750e-01
-4.99642187e-08,1.96482812e-01
-4.99242187e-08,1.96515625e-01
-4.98842187e-08,1.96484375e-01
-4.98442187e-08,1.96514063e-01
-4.98042187e-08,1.96485938e-01
-4.97642187e-08,1.96512500e-01
-4.97242187e-08,1.96487500e-01
-4.96842187e-08,1.96512500e-01
-4.96442187e-08,1.96489063e-01
-4.96042187e-08,1.96510938e-01
-4.95642187e-08,1.96489063e-01
-4.95242188e-08,1.96510938e-01
-4.94842187e-08,1.96489063e-01
-4.94442187e-08,1.96510938e-01
-4.94042187e-08,1.96490625e-01
-4.93642187e-08,1.96509375e-01
-4.93242187e-08,1.96490625e-01
-4.92842187e-08,1.96509375e-01
-4.92442188e-08,1.96490625e-01
-4.92042187e-08,1.96509375e-01
-4.91642187e-08,1.96490625e-01
-4.91242187e-08,1.96509375e-01
-4.90842187e-08,1.96490625e-01
-4.90442187e-08,1.96509375e-01
-4.90042187e-08,1.96490625e-01
-4.89642188e-08,1.96509375e-01
-4.89242187e-08,1.96489063e-01
-4.88842187e-08,1.96510938e-01
-4.88442187e-08,1.96489063e-01
-4.88042187e-08,1.96510938e-01
-4.87642187e-08,1.96489063e-01
-4.87242187e-08,1.96510938e-01
-4.86842187e-08,1.96487500e-01
-4.86442187e-08,1.96512500e-01
-4.86042187e-08,1.96485938e-01
-4.85642187e-08,1.96514063e-01
-4.85242187e-08,1.96484375e-01
-4.84842187e-08,1.96517187e-01
-4.84442187e-08,1.96481250e-01
-4.84042187e-08,1.96521875e-01
-4.83642187e-08,1.96471875e-01
-4.83242187e-08,1.96537500e-01
-4.82842187e-08,1.96437500e-01
-4.82442187e-08,1.96715625e-01
-4.82042187e-08,1.96945312e-01
-4.81642187e-08,1.96878125e-01
-4.81242187e-08,1.96910937e-01
-4.80842187e-08,1.96893750e-01
-4.80442187e-08,1.96901563e-01
-4.80042187e-08,1.96901563e-01
-4.79642187e-08,1.96895313e-01
-4.79242187e-08,1.96909375e-01
-4.78842187e-08,1.96884375e-01
-4.78442187e-08,1.96925000e-01
-4.78042187e-08,1.96848438e-01
-4.77642187e-08,1.97104688e-01
-4.77242187e-08,1.97357813e-01
-4.76842187e-08,1.97267187e-01
-4.76442187e-08,1.97323438e-01
-4.76042188e-08,1.97281250e-01
-4.75642187e-08,1.97315625e-01
-4.75242187e-08,1.97285938e-01
-4.74842187e-08,1.97312500e-01
-4.74442187e-08,1.97289063e-01
-4.74042187e-08,1.97309375e-01
-4.73642187e-08,1.97290625e-01
-4.73242188e-08,1.97309375e-01
-4.72842187e-08,1.97292187e-01
-4.72442187e-08,1.97307813e-01
-4.72042187e-08,1.97292187e-01
-4.71642187e-08,1.97307813e-01
-4.71242187e-08,1.97292187e-01
-4.70842187e-08,1.97307813e-01
-4.70442188e-08,1.97292187e-01
-4.70042187e-08,1.97307813e-01
-4.69642187e-08,1.97292187e-01
-4.69242187e-08,1.97307813e-01
-4.68842187e-08,1.97292187e-01
-4.68442187e-08,1.97307813e-01
-4.68042187e-08,1.97290625e-01
-4.67642188e-08,1.97309375e-01
-4.67242187e-08,1.97289063e-01
-4.66842187e-08,1.97310938e-01
-4.66442187e-08,1.97287500e-01
-4.66042187e-08,1.97315625e-01
-4.65642187e-08,1.97281250e-01
-4.65242187e-08,1.97323438e-01
-4.64842187e-08,1.97267187e-01
-4.64442187e-08,1.97357813e-01
-4.64042187e-08,1.97089063e-01
-4.63642187e-08,1.96850000e-01
-4.63242187e-08,1.96926563e-01
-4.62842187e-08,1.96884375e-01
-4.62442187e-08,1.96910937e-01
-4.62042187e-08,1.96893750e-01
-4.61642187e-08,1.96903125e-01
-4.61242187e-08,1.96900000e-01
-4.60842187e-08,1.96896875e-01
-4.60442187e-08,1.96909375e-01
-4.60042187e-08,1.96881250e-01
-4.59642187e-08,1.96943750e-01
-4.59242187e-08,1.96703125e-01
-4.58842187e-08,1.96434375e-01
-4.58442187e-08,1.96542188e-01
-4.58042187e-08,1.96465625e-01
-4.57642187e-08,1.96529687e-01
-4.57242187e-08,1.96471875e-01
-4.56842188e-08,1.96528125e-01
-4.56442187e-08,1.96470313e-01
-4.56042187e-08,1.96534375e-01
-4.55642187e-08,1.96457812e-01
-4.55242187e-08,1.96567188e-01
-4.54842187e-08,1.96279688e-01
-4.54442187e-08,1.96057813e-01
-4.54042188e-08,1.96118750e-01
-4.53642187e-08,1.96090625e-01
-4.53242187e-08,1.96103125e-01
-4.52842187e-08,1.96100000e-01
-4.52442187e-08,1.96096875e-01
-4.52042187e-08,1.96106250e-01
-4.51642187e-08,1.96090625e-01
-4.51242188e-08,1.96115625e-01
-4.50842187e-08,1.96075000e-01
-4.50442187e-08,1.96150000e-01
-4.50042187e-08,1.95896875e-01
-4.49642187e-08,1.95642188e-01
-4.49242187e-08,1.95734375e-01
-4.48842187e-08,1.95675000e-01
-4.48442188e-08,1.95720312e-01
-4.48042187e-08,1.95681250e-01
-4.47642187e-08,1.95717188e-01
-4.47242187e-08,1.95684375e-01
-4.46842187e-08,1.95715625e-01
-4.46442187e-08,1.95682812e-01
-4.46042187e-08,1.95718750e-01
-4.45642187e-08,1.95676563e-01
-4.45242187e-08,1.95732813e-01
-4.44842187e-08,1.95643750e-01
-4.44442187e-08,1.95907813e-01
-4.44042187e-08,1.96154688e-01
-4.43642187e-08,1.96067188e-01
-4.43242187e-08,1.96125000e-01
-4.42842187e-08,1.96078125e-01
-4.42442187e-08,1.96121875e-01
-4.42042187e-08,1.96075000e-01
-4.41642187e-08,1.96132813e-01
-4.41242187e-08,1.96045313e-01
-4.40842187e-08,1.96306250e-01
-4.40442187e-08,1.96556250e-01
-4.40042187e-08,1.96464063e-01
-4.39642187e-08,1.96529687e-01
-4.39242187e-08,1.96471875e-01
-4.38842187e-08,1.96534375e-01
-4.38442187e-08,1.96442188e-01
-4.38042187e-08,1.96707812e-01
-4.37642188e-08,1.96956250e-01
-4.37242187e-08,1.96864062e-01
-4.36842187e-08,1.96929688e-01
-4.36442187e-08,1.96868750e-01
-4.36042187e-08,1.96937500e-01
-4.35642187e-08,1.96839062e-01
-4.35242187e-08,1.97114063e-01
-4.34842188e-08,1.97350000e-01
-4.34442187e-08,1.97273438e-01
-4.34042187e-08,1.97317188e-01
-4.33642187e-08,1.97287500e-01
-4.33242187e-08,1.97307813e-01
-4.32842187e-08,1.97293750e-01
-4.32442187e-08,1.97303125e-01
-4.32042188e-08,1.97300000e-01
-4.31642187e-08,1.97295313e-01
-4.31242187e-08,1.97314062e-01
-4.30842187e-08,1.97260938e-01
-4.30442187e-08,1.97490625e-01
-4.30042187e-08,1.97773438e-01
-4.29642187e-08,1.97646875e-01
-4.29242188e-08,1.97748438e-01
-4.28842187e-08,1.97646875e-01
-4.28442187e-08,1.97775000e-01
-4.28042187e-08,1.97473438e-01
-4.27642187e-08,1.97262500e-01
-4.27242187e-08,1.97315625e-01
-4.26842187e-08,1.97293750e-01
-4.26442188e-08,1.97301562e-01
-4.26042187e-08,1.97301562e-01
-4.25642187e-08,1.97296875e-01
-4.25242187e-08,1.97304688e-01
-4.24842187e-08,1.97295313e-01
-4.24442187e-08,1.97306250e-01
-4.24042187e-08,1.97292187e-01
-4.23642187e-08,1.97307813e-01
-4.23242187e-08,1.97290625e-01
-4.22842187e-08,1.97310938e-01
-4.22442187e-08,1.97287500e-01
-4.22042187e-08,1.97314062e-01
-4.21642187e-08,1.97281250e-01
-4.21242187e-08,1.97323438e-01
-4.20842187e-08,1.97267187e-01
-4.20442187e-08,1.97357813e-01
-4.20042187e-08,1.97089063e-01
-4.19642187e-08,1.96848438e-01
-4.19242187e-08,1.96926563e-01
-4.18842187e-08,1.96882813e-01
-4.18442188e-08,1.96912500e-01
-4.18042187e-08,1.96890625e-01
-4.17642187e-08,1.96906250e-01
-4.17242187e-08,1.96895313e-01
-4.16842187e-08,1.96904688e-01
-4.16442187e-08,1.96896875e-01
-4.16042187e-08,1.96903125e-01
-4.15642188e-08,1.96898438e-01
-4.15242187e-08,1.96901563e-01
-4.14842187e-08,1.96900000e-01
-4.14442187e-08,1.96900000e-01
-4.14042187e-08,1.96900000e-01
-4.13642187e-08,1.96898438e-01
-4.13242187e-08,1.96901563e-01
-4.12842188e-08,1.96898438e-01
-4.12442187e-08,1.96903125e-01
-4.12042187e-08,1.96896875e-01
-4.11642187e-08,1.96903125e-01
-4.11242187e-08,1.96895313e-01
-4.10842187e-08,1.96904688e-01
-4.10442187e-08,1.96893750e-01
-4.10042188e-08,1.96906250e-01
-4.09642187e-08,1.96892188e-01
-4.09242187e-08,1.96909375e-01
-4.08842187e-08,1.96887500e-01
-4.08442187e-08,1.96915625e-01
-4.08042187e-08,1.96879688e-01
-4.07642187e-08,1.96929688e-01
-4.07242188e-08,1.96845313e-01
-4.06842187e-08,1.97107813e-01
-4.06442187e-08,1.97354688e-01
-4.06042187e-08,1.97270313e-01
-4.05642187e-08,1.97320313e-01
-4.05242187e-08,1.97284375e-01
-4.04842187e-08,1.97312500e-01
-4.04442188e-08,1.97289063e-01
-4.04042187e-08,1.97309375e-01
-4.03642187e-08,1.97292187e-01
-4.03242187e-08,1.97306250e-01
-4.02842187e-08,1.97293750e-01
-4.02442187e-08,1.97304688e-01
-4.02042187e-08,1.97295313e-01
-4.01642187e-08,1.97304688e-01
-4.01242187e-08,1.97295313e-01
-4.00842187e-08,1.97303125e-01
-4.00442187e-08,1.97296875e-01
-4.00042187e-08,1.97303125e-01
-3.99642187e-08,1.97296875e-01
-3.99242188e-08,1.97303125e-01
-3.98842187e-08,1.97298438e-01
-3.98442187e-08,1.97301562e-01
-3.98042187e-08,1.97298438e-01
-3.97642187e-08,1.97301562e-01
-3.97242187e-08,1.97298438e-01
-3.96842187e-08,1.97301562e-01
-3.96442188e-08,1.97298438e-01
-3.96042187e-08,1.97301562e-01
-3.95642187e-08,1.97300000e-01
-3.95242187e-08,1.97300000e-01
-3.94842187e-08,1.97300000e-01
-3.94442187e-08,1.97300000e-01
-3.94042187e-08,1.97300000e-01
-3.93642188e-08,1.97300000e-01
-3.93242187e-08,1.97300000e-01
-3.92842187e-08,1.97300000e-01
-3.92442187e-08,1.97300000e-01
-3.92042187e-08,1.97300000e-01
-3.91642187e-08,1.97301562e-01
-3.91242187e-08,1.97298438e-01
-3.90842188e-08,1.97301562e-01
-3.90442187e-08,1.97298438e-01
-3.90042187e-08,1.97301562e-01
-3.89642187e-08,1.97298438e-01
-3.89242187e-08,1.97301562e-01
-3.88842187e-08,1.97296875e-01
-3.88442187e-08,1.97303125e-01
-3.88042188e-08,1.97296875e-01
-3.87642187e-08,1.97303125e-01
-3.87242187e-08,1.97296875e-01
-3.86842187e-08,1.97304688e-01
-3.86442187e-08,1.97295313e-01
-3.86042187e-08,1.97306250e-01
-3.85642187e-08,1.97293750e-01
-3.85242188e-08,1.97307813e-01
