trails/0b2e18f6fa2cac99b521e237471ff731/aes_ch1_20250507110158069.csv

Model,MSO66B
Label,
Waveform Type,ANALOG
Horizontal Units,s
Sample Interval,4.00000000e-11
Record Length,10000
Zero Index,1599.07812500
Vertical Units,A
ANALOG_Thumbnail,
yOffset,1.84500000e-01
yPosition,8.40000000e-01

Labels,
TIME,CH1
-6.39631250e-08,2.05685937e-01
-6.39231250e-08,2.05717188e-01
-6.38831250e-08,2.05676562e-01
-6.38431250e-08,2.05732813e-01
-6.38031250e-08,2.05642188e-01
-6.37631250e-08,2.05910938e-01
-6.37231250e-08,2.06150000e-01
-6.36831250e-08,2.06073438e-01
-6.36431250e-08,2.06117188e-01
-6.36031250e-08,2.06089063e-01
-6.35631250e-08,2.06107813e-01
-6.35231250e-08,2.06093750e-01
-6.34831250e-08,2.06103125e-01
-6.34431250e-08,2.06098438e-01
-6.34031250e-08,2.06100000e-01
-6.33631250e-08,2.06100000e-01
-6.33231250e-08,2.06098438e-01
-6.32831250e-08,2.06103125e-01
-6.32431250e-08,2.06093750e-01
-6.32031250e-08,2.06107813e-01
-6.31631250e-08,2.06089063e-01
-6.31231250e-08,2.06117188e-01
-6.30831250e-08,2.06073438e-01
-6.30431250e-08,2.06151562e-01
-6.30031250e-08,2.05895313e-01
-6.29631250e-08,2.05643750e-01
-6.29231250e-08,2.05732813e-01
-6.28831250e-08,2.05676562e-01
-6.28431250e-08,2.05718750e-01
-6.28031250e-08,2.05684375e-01
-6.27631250e-08,2.05712500e-01
-6.27231250e-08,2.05689063e-01
-6.26831250e-08,2.05709375e-01
-6.26431250e-08,2.05690625e-01
-6.26031250e-08,2.05707813e-01
-6.25631250e-08,2.05692188e-01
-6.25231250e-08,2.05707813e-01
-6.24831250e-08,2.05693750e-01
-6.24431250e-08,2.05706250e-01
-6.24031250e-08,2.05693750e-01
-6.23631250e-08,2.05706250e-01
-6.23231250e-08,2.05695313e-01
-6.22831250e-08,2.05704688e-01
-6.22431250e-08,2.05695313e-01
-6.22031250e-08,2.05704688e-01
-6.21631250e-08,2.05695313e-01
-6.21231250e-08,2.05704688e-01
-6.20831250e-08,2.05695313e-01
-6.20431250e-08,2.05703125e-01
-6.20031250e-08,2.05696875e-01
-6.19631250e-08,2.05703125e-01
-6.19231250e-08,2.05696875e-01
-6.18831250e-08,2.05703125e-01
-6.18431250e-08,2.05696875e-01
-6.18031250e-08,2.05703125e-01
-6.17631250e-08,2.05696875e-01
-6.17231250e-08,2.05703125e-01
-6.16831250e-08,2.05696875e-01
-6.16431250e-08,2.05703125e-01
-6.16031250e-08,2.05696875e-01
-6.15631250e-08,2.05703125e-01
-6.15231250e-08,2.05696875e-01
-6.14831250e-08,2.05703125e-01
-6.14431250e-08,2.05696875e-01
-6.14031250e-08,2.05703125e-01
-6.13631250e-08,2.05696875e-01
-6.13231250e-08,2.05703125e-01
-6.12831250e-08,2.05696875e-01
-6.12431250e-08,2.05703125e-01
-6.12031250e-08,2.05696875e-01
-6.11631250e-08,2.05703125e-01
-6.11231250e-08,2.05696875e-01
-6.10831250e-08,2.05703125e-01
-6.10431250e-08,2.05696875e-01
-6.10031250e-08,2.05703125e-01
-6.09631250e-08,2.05695313e-01
-6.09231250e-08,2.05704688e-01
-6.08831250e-08,2.05695313e-01
-6.08431250e-08,2.05704688e-01
-6.08031250e-08,2.05693750e-01
-6.07631250e-08,2.05706250e-01
-6.07231250e-08,2.05692188e-01
-6.06831250e-08,2.05709375e-01
-6.06431250e-08,2.05689063e-01
-6.06031250e-08,2.05714063e-01
-6.05631250e-08,2.05681250e-01
-6.05231250e-08,2.05728125e-01
-6.04831250e-08,2.05646875e-01
-6.04431250e-08,2.05906250e-01
-6.04031250e-08,2.06156250e-01
-6.03631250e-08,2.06067187e-01
-6.03231250e-08,2.06123438e-01
-6.02831250e-08,2.06081250e-01
-6.02431250e-08,2.06115625e-01
-6.02031250e-08,2.06085938e-01
-6.01631250e-08,2.06112500e-01
-6.01231250e-08,2.06089063e-01
-6.00831250e-08,2.06110938e-01
-6.00431250e-08,2.06089063e-01
-6.00031250e-08,2.06110938e-01
-5.99631250e-08,2.06090625e-01
-5.99231250e-08,2.06109375e-01
-5.98831250e-08,2.06090625e-01
-5.98431250e-08,2.06109375e-01
-5.98031250e-08,2.06089063e-01
-5.97631250e-08,2.06110938e-01
-5.97231250e-08,2.06089063e-01
-5.96831250e-08,2.06112500e-01
-5.96431250e-08,2.06087500e-01
-5.96031250e-08,2.06114063e-01
-5.95631250e-08,2.06084375e-01
-5.95231250e-08,2.06117188e-01
-5.94831250e-08,2.06079687e-01
-5.94431250e-08,2.06126562e-01
-5.94031250e-08,2.06064063e-01
-5.93631250e-08,2.06160938e-01
-5.93231250e-08,2.05885938e-01
-5.92831250e-08,2.05651562e-01
-5.92431250e-08,2.05723437e-01
-5.92031250e-08,2.05685937e-01
-5.91631250e-08,2.05707813e-01
-5.91231250e-08,2.05696875e-01
-5.90831250e-08,2.05700000e-01
-5.90431250e-08,2.05703125e-01
-5.90031250e-08,2.05693750e-01
-5.89631250e-08,2.05712500e-01
-5.89231250e-08,2.05676562e-01
-5.88831250e-08,2.05748438e-01
-5.88431250e-08,2.05498438e-01
-5.88031250e-08,2.05239063e-01
-5.87631250e-08,2.05335938e-01
-5.87231250e-08,2.05273438e-01
-5.86831250e-08,2.05321875e-01
-5.86431250e-08,2.05281250e-01
-5.86031250e-08,2.05317187e-01
-5.85631250e-08,2.05282813e-01
-5.85231250e-08,2.05315625e-01
-5.84831250e-08,2.05284375e-01
-5.84431250e-08,2.05315625e-01
-5.84031250e-08,2.05282813e-01
-5.83631250e-08,2.05318750e-01
-5.83231250e-08,2.05278125e-01
-5.82831250e-08,2.05326563e-01
-5.82431250e-08,2.05265625e-01
-5.82031250e-08,2.05359375e-01
-5.81631250e-08,2.05087500e-01
-5.81231250e-08,2.04850000e-01
-5.80831250e-08,2.04926563e-01
-5.80431250e-08,2.04882813e-01
-5.80031250e-08,2.04912500e-01
-5.79631250e-08,2.04890625e-01
-5.79231250e-08,2.04907813e-01
-5.78831250e-08,2.04893750e-01
-5.78431250e-08,2.04904688e-01
-5.78031250e-08,2.04895313e-01
-5.77631250e-08,2.04903125e-01
-5.77231250e-08,2.04896875e-01
-5.76831250e-08,2.04903125e-01
-5.76431250e-08,2.04898438e-01
-5.76031250e-08,2.04901563e-01
-5.75631250e-08,2.04898438e-01
-5.75231250e-08,2.04901563e-01
-5.74831250e-08,2.04900000e-01
-5.74431250e-08,2.04900000e-01
-5.74031250e-08,2.04901563e-01
-5.73631250e-08,2.04898438e-01
-5.73231250e-08,2.04903125e-01
-5.72831250e-08,2.04895313e-01
-5.72431250e-08,2.04906250e-01
-5.72031250e-08,2.04890625e-01
-5.71631250e-08,2.04914062e-01
-5.71231250e-08,2.04876562e-01
-5.70831250e-08,2.04948437e-01
-5.70431250e-08,2.04700000e-01
-5.70031250e-08,2.04437500e-01
-5.69631250e-08,2.04539063e-01
-5.69231250e-08,2.04470313e-01
-5.68831250e-08,2.04525000e-01
-5.68431250e-08,2.04478125e-01
-5.68031250e-08,2.04521875e-01
-5.67631250e-08,2.04479688e-01
-5.67231250e-08,2.04520313e-01
-5.66831250e-08,2.04478125e-01
-5.66431250e-08,2.04523438e-01
-5.66031250e-08,2.04475000e-01
-5.65631250e-08,2.04529688e-01
-5.65231250e-08,2.04459375e-01
-5.64831250e-08,2.04564063e-01
-5.64431250e-08,2.04282813e-01
-5.64031250e-08,2.04054687e-01
-5.63631250e-08,2.04121875e-01
-5.63231250e-08,2.04087500e-01
-5.62831250e-08,2.04106250e-01
-5.62431250e-08,2.04096875e-01
-5.62031250e-08,2.04101562e-01
-5.61631250e-08,2.04100000e-01
-5.61231250e-08,2.04098438e-01
-5.60831250e-08,2.04101562e-01
-5.60431250e-08,2.04096875e-01
-5.60031250e-08,2.04104687e-01
-5.59631250e-08,2.04095313e-01
-5.59231250e-08,2.04106250e-01
-5.58831250e-08,2.04093750e-01
-5.58431250e-08,2.04107813e-01
-5.58031250e-08,2.04090625e-01
-5.57631250e-08,2.04110938e-01
-5.57231250e-08,2.04087500e-01
-5.56831250e-08,2.04114062e-01
-5.56431250e-08,2.04082813e-01
-5.56031250e-08,2.04123438e-01
-5.55631250e-08,2.04067187e-01
-5.55231250e-08,2.04157813e-01
-5.54831250e-08,2.03889062e-01
-5.54431250e-08,2.03648438e-01
-5.54031250e-08,2.03726563e-01
-5.53631250e-08,2.03682813e-01
-5.53231250e-08,2.03712500e-01
-5.52831250e-08,2.03690625e-01
-5.52431250e-08,2.03706250e-01
-5.52031250e-08,2.03695313e-01
-5.51631250e-08,2.03704688e-01
-5.51231250e-08,2.03696875e-01
-5.50831250e-08,2.03701563e-01
-5.50431250e-08,2.03698437e-01
-5.50031250e-08,2.03700000e-01
-5.49631250e-08,2.03700000e-01
-5.49231250e-08,2.03700000e-01
-5.48831250e-08,2.03701563e-01
-5.48431250e-08,2.03698437e-01
-5.48031250e-08,2.03701563e-01
-5.47631250e-08,2.03696875e-01
-5.47231250e-08,2.03703125e-01
-5.46831250e-08,2.03695313e-01
-5.46431250e-08,2.03704688e-01
-5.46031250e-08,2.03695313e-01
-5.45631250e-08,2.03706250e-01
-5.45231250e-08,2.03693750e-01
-5.44831250e-08,2.03707813e-01
-5.44431250e-08,2.03692188e-01
-5.44031250e-08,2.03709375e-01
-5.43631250e-08,2.03689063e-01
-5.43231250e-08,2.03712500e-01
-5.42831250e-08,2.03684375e-01
-5.42431250e-08,2.03718750e-01
-5.42031250e-08,2.03676563e-01
-5.41631250e-08,2.03734375e-01
-5.41231250e-08,2.03640625e-01
-5.40831250e-08,2.03912500e-01
-5.40431250e-08,2.04148438e-01
-5.40031250e-08,2.04075000e-01
-5.39631250e-08,2.04114062e-01
-5.39231250e-08,2.04090625e-01
-5.38831250e-08,2.04104687e-01
-5.38431250e-08,2.04098438e-01
-5.38031250e-08,2.04098438e-01
-5.37631250e-08,2.04103125e-01
-5.37231250e-08,2.04093750e-01
-5.36831250e-08,2.04110938e-01
-5.36431250e-08,2.04082813e-01
-5.36031250e-08,2.04126562e-01
-5.35631250e-08,2.04046875e-01
-5.35231250e-08,2.04306250e-01
-5.34831250e-08,2.04554687e-01
-5.34431250e-08,2.04468750e-01
-5.34031250e-08,2.04520313e-01
-5.33631250e-08,2.04484375e-01
-5.33231250e-08,2.04510938e-01
-5.32831250e-08,2.04492188e-01
-5.32431250e-08,2.04506250e-01
-5.32031250e-08,2.04496875e-01
-5.31631250e-08,2.04501563e-01
-5.31231250e-08,2.04500000e-01
-5.30831250e-08,2.04496875e-01
-5.30431250e-08,2.04507812e-01
-5.30031250e-08,2.04487500e-01
-5.29631250e-08,2.04523438e-01
-5.29231250e-08,2.04451563e-01
-5.28831250e-08,2.04701563e-01
-5.28431250e-08,2.04960937e-01
-5.28031250e-08,2.04864062e-01
-5.27631250e-08,2.04926563e-01
-5.27231250e-08,2.04879688e-01
-5.26831250e-08,2.04917188e-01
-5.26431250e-08,2.04884375e-01
-5.26031250e-08,2.04914062e-01
-5.25631250e-08,2.04887500e-01
-5.25231250e-08,2.04910938e-01
-5.24831250e-08,2.04889062e-01
-5.24431250e-08,2.04909375e-01
-5.24031250e-08,2.04890625e-01
-5.23631250e-08,2.04907813e-01
-5.23231250e-08,2.04892188e-01
-5.22831250e-08,2.04907813e-01
-5.22431250e-08,2.04893750e-01
-5.22031250e-08,2.04906250e-01
-5.21631250e-08,2.04893750e-01
-5.21231250e-08,2.04906250e-01
-5.20831250e-08,2.04895313e-01
-5.20431250e-08,2.04904688e-01
-5.20031250e-08,2.04895313e-01
-5.19631250e-08,2.04904688e-01
-5.19231250e-08,2.04896875e-01
-5.18831250e-08,2.04903125e-01
-5.18431250e-08,2.04896875e-01
-5.18031250e-08,2.04903125e-01
-5.17631250e-08,2.04898438e-01
-5.17231250e-08,2.04901563e-01
-5.16831250e-08,2.04898438e-01
-5.16431250e-08,2.04900000e-01
-5.16031250e-08,2.04900000e-01
-5.15631250e-08,2.04898438e-01
-5.15231250e-08,2.04901563e-01
-5.14831250e-08,2.04896875e-01
-5.14431250e-08,2.04904688e-01
-5.14031250e-08,2.04892188e-01
-5.13631250e-08,2.04910938e-01
-5.13231250e-08,2.04884375e-01
-5.12831250e-08,2.04925000e-01
-5.12431250e-08,2.04850000e-01
-5.12031250e-08,2.05103125e-01
-5.11631250e-08,2.05357813e-01
-5.11231250e-08,2.05265625e-01
-5.10831250e-08,2.05325000e-01
-5.10431250e-08,2.05279688e-01
-5.10031250e-08,2.05317187e-01
-5.09631250e-08,2.05285938e-01
-5.09231250e-08,2.05312500e-01
-5.08831250e-08,2.05287500e-01
-5.08431250e-08,2.05310938e-01
-5.08031250e-08,2.05289063e-01
-5.07631250e-08,2.05309375e-01
-5.07231250e-08,2.05290625e-01
-5.06831250e-08,2.05307813e-01
-5.06431250e-08,2.05292188e-01
-5.06031250e-08,2.05307813e-01
-5.05631250e-08,2.05292188e-01
-5.05231250e-08,2.05306250e-01
-5.04831250e-08,2.05293750e-01
-5.04431250e-08,2.05306250e-01
-5.04031250e-08,2.05293750e-01
-5.03631250e-08,2.05306250e-01
-5.03231250e-08,2.05295312e-01
-5.02831250e-08,2.05304687e-01
-5.02431250e-08,2.05295312e-01
-5.02031250e-08,2.05304687e-01
-5.01631250e-08,2.05296875e-01
-5.01231250e-08,2.05303125e-01
-5.00831250e-08,2.05296875e-01
-5.00431250e-08,2.05301563e-01
-5.00031250e-08,2.05298438e-01
-4.99631250e-08,2.05300000e-01
-4.99231250e-08,2.05300000e-01
-4.98831250e-08,2.05298438e-01
-4.98431250e-08,2.05304687e-01
-4.98031250e-08,2.05292188e-01
-4.97631250e-08,2.05312500e-01
-4.97231250e-08,2.05278125e-01
-4.96831250e-08,2.05346875e-01
-4.96431250e-08,2.05100000e-01
-4.96031250e-08,2.04837500e-01
-4.95631250e-08,2.04939063e-01
-4.95231250e-08,2.04870313e-01
-4.94831250e-08,2.04925000e-01
-4.94431250e-08,2.04878125e-01
-4.94031250e-08,2.04920313e-01
-4.93631250e-08,2.04881250e-01
-4.93231250e-08,2.04918750e-01
-4.92831250e-08,2.04882813e-01
-4.92431250e-08,2.04917188e-01
-4.92031250e-08,2.04882813e-01
-4.91631250e-08,2.04917188e-01
-4.91231250e-08,2.04882813e-01
-4.90831250e-08,2.04918750e-01
-4.90431250e-08,2.04879688e-01
-4.90031250e-08,2.04921875e-01
-4.89631250e-08,2.04875000e-01
-4.89231250e-08,2.04929688e-01
-4.88831250e-08,2.04860938e-01
-4.88431250e-08,2.04964063e-01
-4.88031250e-08,2.04682813e-01
-4.87631250e-08,2.04454688e-01
-4.87231250e-08,2.04521875e-01
-4.86831250e-08,2.04487500e-01
-4.86431250e-08,2.04507812e-01
-4.86031250e-08,2.04495312e-01
-4.85631250e-08,2.04503125e-01
-4.85231250e-08,2.04498438e-01
-4.84831250e-08,2.04501563e-01
-4.84431250e-08,2.04500000e-01
-4.84031250e-08,2.04500000e-01
-4.83631250e-08,2.04501563e-01
-4.83231250e-08,2.04498438e-01
-4.82831250e-08,2.04501563e-01
-4.82431250e-08,2.04498438e-01
-4.82031250e-08,2.04501563e-01
-4.81631250e-08,2.04498438e-01
-4.81231250e-08,2.04503125e-01
-4.80831250e-08,2.04496875e-01
-4.80431250e-08,2.04503125e-01
-4.80031250e-08,2.04496875e-01
-4.79631250e-08,2.04503125e-01
-4.79231250e-08,2.04496875e-01
-4.78831250e-08,2.04503125e-01
-4.78431250e-08,2.04496875e-01
-4.78031250e-08,2.04503125e-01
-4.77631250e-08,2.04496875e-01
-4.77231250e-08,2.04503125e-01
-4.76831250e-08,2.04496875e-01
-4.76431250e-08,2.04503125e-01
-4.76031250e-08,2.04496875e-01
-4.75631250e-08,2.04503125e-01
-4.75231250e-08,2.04498438e-01
-4.74831250e-08,2.04501563e-01
-4.74431250e-08,2.04498438e-01
-4.74031250e-08,2.04501563e-01
-4.73631250e-08,2.04500000e-01
-4.73231250e-08,2.04498438e-01
-4.72831250e-08,2.04503125e-01
-4.72431250e-08,2.04495312e-01
-4.72031250e-08,2.04509375e-01
-4.71631250e-08,2.04481250e-01
-4.71231250e-08,2.04542188e-01
-4.70831250e-08,2.04304687e-01
-4.70431250e-08,2.04031250e-01
-4.70031250e-08,2.04145313e-01
-4.69631250e-08,2.04062500e-01
-4.69231250e-08,2.04135938e-01
-4.68831250e-08,2.04064063e-01
-4.68431250e-08,2.04139062e-01
-4.68031250e-08,2.04051563e-01
-4.67631250e-08,2.04171875e-01
-4.67231250e-08,2.03875000e-01
-4.66831250e-08,2.03662500e-01
-4.66431250e-08,2.03712500e-01
-4.66031250e-08,2.03696875e-01
-4.65631250e-08,2.03696875e-01
-4.65231250e-08,2.03707813e-01
-4.64831250e-08,2.03687500e-01
-4.64431250e-08,2.03718750e-01
-4.64031250e-08,2.03670313e-01
-4.63631250e-08,2.03754688e-01
-4.63231250e-08,2.03490625e-01
-4.62831250e-08,2.03246875e-01
-4.62431250e-08,2.03328125e-01
-4.62031250e-08,2.03281250e-01
-4.61631250e-08,2.03314063e-01
-4.61231250e-08,2.03289063e-01
-4.60831250e-08,2.03309375e-01
-4.60431250e-08,2.03293750e-01
-4.60031250e-08,2.03306250e-01
-4.59631250e-08,2.03295313e-01
-4.59231250e-08,2.03304687e-01
-4.58831250e-08,2.03296875e-01
-4.58431250e-08,2.03303125e-01
-4.58031250e-08,2.03298438e-01
-4.57631250e-08,2.03301563e-01
-4.57231250e-08,2.03298438e-01
-4.56831250e-08,2.03301563e-01
-4.56431250e-08,2.03300000e-01
-4.56031250e-08,2.03300000e-01
-4.55631250e-08,2.03300000e-01
-4.55231250e-08,2.03300000e-01
-4.54831250e-08,2.03300000e-01
-4.54431250e-08,2.03300000e-01
-4.54031250e-08,2.03300000e-01
-4.53631250e-08,2.03300000e-01
-4.53231250e-08,2.03301563e-01
-4.52831250e-08,2.03298438e-01
-4.52431250e-08,2.03301563e-01
-4.52031250e-08,2.03298438e-01
-4.51631250e-08,2.03301563e-01
-4.51231250e-08,2.03298438e-01
-4.50831250e-08,2.03301563e-01
-4.50431250e-08,2.03298438e-01
-4.50031250e-08,2.03301563e-01
-4.49631250e-08,2.03296875e-01
-4.49231250e-08,2.03303125e-01
-4.48831250e-08,2.03296875e-01
-4.48431250e-08,2.03303125e-01
-4.48031250e-08,2.03296875e-01
-4.47631250e-08,2.03303125e-01
-4.47231250e-08,2.03296875e-01
-4.46831250e-08,2.03303125e-01
-4.46431250e-08,2.03295313e-01
-4.46031250e-08,2.03304687e-01
-4.45631250e-08,2.03295313e-01
-4.45231250e-08,2.03304687e-01
-4.44831250e-08,2.03293750e-01
-4.44431250e-08,2.03306250e-01
-4.44031250e-08,2.03293750e-01
-4.43631250e-08,2.03307813e-01
-4.43231250e-08,2.03290625e-01
-4.42831250e-08,2.03310938e-01
-4.42431250e-08,2.03287500e-01
-4.42031250e-08,2.03315625e-01
-4.41631250e-08,2.03279688e-01
-4.41231250e-08,2.03329688e-01
-4.40831250e-08,2.03245312e-01
-4.40431250e-08,2.03507812e-01
-4.40031250e-08,2.03754688e-01
-4.39631250e-08,2.03668750e-01
-4.39231250e-08,2.03721875e-01
-4.38831250e-08,2.03682813e-01
-4.38431250e-08,2.03714063e-01
-4.38031250e-08,2.03687500e-01
-4.37631250e-08,2.03712500e-01
-4.37231250e-08,2.03689063e-01
-4.36831250e-08,2.03710938e-01
-4.36431250e-08,2.03689063e-01
-4.36031250e-08,2.03712500e-01
-4.35631250e-08,2.03685937e-01
-4.35231250e-08,2.03715625e-01
-4.34831250e-08,2.03679688e-01
-4.34431250e-08,2.03729688e-01
-4.34031250e-08,2.03645313e-01
-4.33631250e-08,2.03906250e-01
-4.33231250e-08,2.04156250e-01
-4.32831250e-08,2.04067187e-01
-4.32431250e-08,2.04123438e-01
-4.32031250e-08,2.04079687e-01
-4.31631250e-08,2.04117188e-01
-4.31231250e-08,2.04084375e-01
-4.30831250e-08,2.04115625e-01
-4.30431250e-08,2.04084375e-01
-4.30031250e-08,2.04115625e-01
-4.29631250e-08,2.04082813e-01
-4.29231250e-08,2.04120313e-01
-4.28831250e-08,2.04075000e-01
-4.28431250e-08,2.04134375e-01
-4.28031250e-08,2.04040625e-01
-4.27631250e-08,2.04312500e-01
-4.27231250e-08,2.04550000e-01
-4.26831250e-08,2.04473438e-01
-4.26431250e-08,2.04517188e-01
-4.26031250e-08,2.04487500e-01
-4.25631250e-08,2.04509375e-01
-4.25231250e-08,2.04492188e-01
-4.24831250e-08,2.04506250e-01
-4.24431250e-08,2.04495312e-01
-4.24031250e-08,2.04504688e-01
-4.23631250e-08,2.04496875e-01
-4.23231250e-08,2.04503125e-01
-4.22831250e-08,2.04496875e-01
-4.22431250e-08,2.04503125e-01
-4.22031250e-08,2.04498438e-01
-4.21631250e-08,2.04501563e-01
-4.21231250e-08,2.04498438e-01
-4.20831250e-08,2.04501563e-01
-4.20431250e-08,2.04498438e-01
-4.20031250e-08,2.04501563e-01
-4.19631250e-08,2.04498438e-01
-4.19231250e-08,2.04501563e-01
-4.18831250e-08,2.04498438e-01
-4.18431250e-08,2.04500000e-01
-4.18031250e-08,2.04500000e-01
-4.17631250e-08,2.04500000e-01
-4.17231250e-08,2.04500000e-01
-4.16831250e-08,2.04500000e-01
-4.16431250e-08,2.04500000e-01
-4.16031250e-08,2.04500000e-01
-4.15631250e-08,2.04500000e-01
-4.15231250e-08,2.04500000e-01
-4.14831250e-08,2.04500000e-01
-4.14431250e-08,2.04500000e-01
-4.14031250e-08,2.04500000e-01
-4.13631250e-08,2.04500000e-01
-4.13231250e-08,2.04500000e-01
-4.12831250e-08,2.04500000e-01
-4.12431250e-08,2.04500000e-01
-4.12031250e-08,2.04500000e-01
-4.11631250e-08,2.04500000e-01
-4.11231250e-08,2.04500000e-01
-4.10831250e-08,2.04500000e-01
-4.10431250e-08,2.04500000e-01
-4.10031250e-08,2.04500000e-01
-4.09631250e-08,2.04500000e-01
-4.09231250e-08,2.04500000e-01
-4.08831250e-08,2.04500000e-01
-4.08431250e-08,2.04500000e-01
-4.08031250e-08,2.04500000e-01
-4.07631250e-08,2.04500000e-01
-4.07231250e-08,2.04500000e-01
-4.06831250e-08,2.04500000e-01
-4.06431250e-08,2.04500000e-01
-4.06031250e-08,2.04500000e-01
-4.05631250e-08,2.04500000e-01
-4.05231250e-08,2.04500000e-01
-4.04831250e-08,2.04500000e-01
-4.04431250e-08,2.04500000e-01
-4.04031250e-08,2.04500000e-01
-4.03631250e-08,2.04500000e-01
-4.03231250e-08,2.04501563e-01
-4.02831250e-08,2.04498438e-01
-4.02431250e-08,2.04501563e-01
-4.02031250e-08,2.04498438e-01
-4.01631250e-08,2.04501563e-01
-4.01231250e-08,2.04496875e-01
-4.00831250e-08,2.04503125e-01
-4.00431250e-08,2.04496875e-01
-4.00031250e-08,2.04504688e-01
-3.99631250e-08,2.04493750e-01
-3.99231250e-08,2.04507812e-01
-3.98831250e-08,2.04489063e-01
-3.98431250e-08,2.04515625e-01
-3.98031250e-08,2.04475000e-01
-3.97631250e-08,2.04550000e-01
-3.97231250e-08,2.04296875e-01
-3.96831250e-08,2.04040625e-01
-3.96431250e-08,2.04135938e-01
-3.96031250e-08,2.04073438e-01
-3.95631250e-08,2.04121875e-01
-3.95231250e-08,2.04079687e-01
-3.94831250e-08,2.04118750e-01
-3.94431250e-08,2.04082813e-01
-3.94031250e-08,2.04117188e-01
-3.93631250e-08,2.04082813e-01
-3.93231250e-08,2.04117188e-01
-3.92831250e-08,2.04081250e-01
-3.92431250e-08,2.04120313e-01
-3.92031250e-08,2.04078125e-01
-3.91631250e-08,2.04126562e-01
-3.91231250e-08,2.04064063e-01
-3.90831250e-08,2.04160938e-01
-3.90431250e-08,2.03885938e-01
-3.90031250e-08,2.03651562e-01
-3.89631250e-08,2.03725000e-01
-3.89231250e-08,2.03684375e-01
-3.88831250e-08,2.03710938e-01
-3.88431250e-08,2.03692188e-01
-3.88031250e-08,2.03706250e-01
-3.87631250e-08,2.03695313e-01
-3.87231250e-08,2.03703125e-01
-3.86831250e-08,2.03696875e-01
-3.86431250e-08,2.03701563e-01
-3.86031250e-08,2.03698437e-01
-3.85631250e-08,2.03701563e-01
-3.85231250e-08,2.03698437e-01
