trails/0b2e18f6fa2cac99b521e237471ff731/aes_ch1_20250507110322895.csv

Model,MSO66B
Label,
Waveform Type,ANALOG
Horizontal Units,s
Sample Interval,4.00000000e-11
Record Length,10000
Zero Index,1599.08203125
Vertical Units,A
ANALOG_Thumbnail,
yOffset,1.84500000e-01
yPosition,8.40000000e-01

Labels,
TIME,CH1
-6.39632812e-08,1.90514062e-01
-6.39232812e-08,1.90484375e-01
-6.38832812e-08,1.90518750e-01
-6.38432812e-08,1.90476563e-01
-6.38032812e-08,1.90532813e-01
-6.37632813e-08,1.90442187e-01
-6.37232812e-08,1.90710938e-01
-6.36832812e-08,1.90951563e-01
-6.36432812e-08,1.90871875e-01
-6.36032812e-08,1.90918750e-01
-6.35632812e-08,1.90885938e-01
-6.35232812e-08,1.90910938e-01
-6.34832813e-08,1.90890625e-01
-6.34432812e-08,1.90907812e-01
-6.34032812e-08,1.90893750e-01
-6.33632812e-08,1.90906250e-01
-6.33232812e-08,1.90893750e-01
-6.32832812e-08,1.90904688e-01
-6.32432812e-08,1.90895312e-01
-6.32032813e-08,1.90904688e-01
-6.31632812e-08,1.90895312e-01
-6.31232812e-08,1.90904688e-01
-6.30832812e-08,1.90895312e-01
-6.30432812e-08,1.90904688e-01
-6.30032812e-08,1.90896875e-01
-6.29632812e-08,1.90903125e-01
-6.29232813e-08,1.90896875e-01
-6.28832812e-08,1.90903125e-01
-6.28432812e-08,1.90896875e-01
-6.28032812e-08,1.90903125e-01
-6.27632812e-08,1.90896875e-01
-6.27232812e-08,1.90903125e-01
-6.26832812e-08,1.90895312e-01
-6.26432813e-08,1.90904688e-01
-6.26032812e-08,1.90895312e-01
-6.25632812e-08,1.90904688e-01
-6.25232812e-08,1.90895312e-01
-6.24832812e-08,1.90904688e-01
-6.24432812e-08,1.90895312e-01
-6.24032812e-08,1.90904688e-01
-6.23632813e-08,1.90895312e-01
-6.23232812e-08,1.90906250e-01
-6.22832812e-08,1.90893750e-01
-6.22432812e-08,1.90906250e-01
-6.22032812e-08,1.90893750e-01
-6.21632812e-08,1.90907812e-01
-6.21232812e-08,1.90892188e-01
-6.20832813e-08,1.90909375e-01
-6.20432812e-08,1.90889063e-01
-6.20032812e-08,1.90912500e-01
-6.19632812e-08,1.90884375e-01
-6.19232812e-08,1.90920312e-01
-6.18832813e-08,1.90870313e-01
-6.18432812e-08,1.90954687e-01
-6.18032813e-08,1.90692187e-01
-6.17632812e-08,1.90445313e-01
-6.17232812e-08,1.90531250e-01
-6.16832812e-08,1.90478125e-01
-6.16432812e-08,1.90517188e-01
-6.16032813e-08,1.90485938e-01
-6.15632812e-08,1.90512500e-01
-6.15232813e-08,1.90489063e-01
-6.14832812e-08,1.90510938e-01
-6.14432812e-08,1.90489063e-01
-6.14032812e-08,1.90510938e-01
-6.13632812e-08,1.90489063e-01
-6.13232813e-08,1.90512500e-01
-6.12832812e-08,1.90484375e-01
-6.12432813e-08,1.90520313e-01
-6.12032812e-08,1.90470313e-01
-6.11632812e-08,1.90553125e-01
-6.11232812e-08,1.90293750e-01
-6.10832812e-08,1.90043750e-01
-6.10432813e-08,1.90132812e-01
-6.10032812e-08,1.90076563e-01
-6.09632813e-08,1.90118750e-01
-6.09232812e-08,1.90082813e-01
-6.08832812e-08,1.90115625e-01
-6.08432812e-08,1.90085937e-01
-6.08032812e-08,1.90114063e-01
-6.07632813e-08,1.90085937e-01
-6.07232812e-08,1.90114063e-01
-6.06832813e-08,1.90085937e-01
-6.06432812e-08,1.90115625e-01
-6.06032812e-08,1.90084375e-01
-6.05632812e-08,1.90117188e-01
-6.05232812e-08,1.90081250e-01
-6.04832813e-08,1.90121875e-01
-6.04432812e-08,1.90071875e-01
-6.04032813e-08,1.90137500e-01
-6.03632812e-08,1.90037500e-01
-6.03232812e-08,1.90315625e-01
-6.02832812e-08,1.90546875e-01
-6.02432812e-08,1.90478125e-01
-6.02032813e-08,1.90512500e-01
-6.01632812e-08,1.90493750e-01
-6.01232813e-08,1.90503125e-01
-6.00832812e-08,1.90500000e-01
-6.00432812e-08,1.90496875e-01
-6.00032812e-08,1.90504688e-01
-5.99632812e-08,1.90492188e-01
-5.99232813e-08,1.90512500e-01
-5.98832812e-08,1.90482813e-01
-5.98432812e-08,1.90528125e-01
-5.98032812e-08,1.90446875e-01
-5.97632812e-08,1.90707813e-01
-5.97232812e-08,1.90954687e-01
-5.96832812e-08,1.90868750e-01
-5.96432813e-08,1.90920312e-01
-5.96032812e-08,1.90884375e-01
-5.95632812e-08,1.90912500e-01
-5.95232812e-08,1.90890625e-01
-5.94832812e-08,1.90907812e-01
-5.94432812e-08,1.90893750e-01
-5.94032812e-08,1.90906250e-01
-5.93632812e-08,1.90895312e-01
-5.93232812e-08,1.90903125e-01
-5.92832812e-08,1.90896875e-01
-5.92432812e-08,1.90901563e-01
-5.92032812e-08,1.90898438e-01
-5.91632812e-08,1.90900000e-01
-5.91232812e-08,1.90900000e-01
-5.90832812e-08,1.90898438e-01
-5.90432812e-08,1.90901563e-01
-5.90032812e-08,1.90896875e-01
-5.89632812e-08,1.90904688e-01
-5.89232812e-08,1.90895312e-01
-5.88832812e-08,1.90906250e-01
-5.88432812e-08,1.90890625e-01
-5.88032812e-08,1.90910938e-01
-5.87632812e-08,1.90884375e-01
-5.87232812e-08,1.90920312e-01
-5.86832812e-08,1.90868750e-01
-5.86432812e-08,1.90956250e-01
-5.86032812e-08,1.90690625e-01
-5.85632812e-08,1.90448438e-01
-5.85232812e-08,1.90526562e-01
-5.84832812e-08,1.90484375e-01
-5.84432812e-08,1.90509375e-01
-5.84032812e-08,1.90496875e-01
-5.83632812e-08,1.90498438e-01
-5.83232812e-08,1.90507813e-01
-5.82832812e-08,1.90481250e-01
-5.82432812e-08,1.90545313e-01
-5.82032812e-08,1.90300000e-01
-5.81632812e-08,1.90039062e-01
-5.81232812e-08,1.90135938e-01
-5.80832812e-08,1.90076563e-01
-5.80432812e-08,1.90115625e-01
-5.80032812e-08,1.90092188e-01
-5.79632812e-08,1.90096875e-01
-5.79232812e-08,1.90128125e-01
-5.78832812e-08,1.89918750e-01
-5.78432812e-08,1.89618750e-01
-5.78032812e-08,1.89759375e-01
-5.77632812e-08,1.89646875e-01
-5.77232812e-08,1.89751562e-01
-5.76832812e-08,1.89640625e-01
-5.76432812e-08,1.89781250e-01
-5.76032812e-08,1.89465625e-01
-5.75632812e-08,1.89270313e-01
-5.75232812e-08,1.89304688e-01
-5.74832812e-08,1.89304688e-01
-5.74432812e-08,1.89287500e-01
-5.74032812e-08,1.89318750e-01
-5.73632812e-08,1.89270313e-01
-5.73232812e-08,1.89356250e-01
-5.72832812e-08,1.89090625e-01
-5.72432812e-08,1.88846875e-01
-5.72032812e-08,1.88931250e-01
-5.71632812e-08,1.88878125e-01
-5.71232812e-08,1.88918750e-01
-5.70832812e-08,1.88881250e-01
-5.70432812e-08,1.88921875e-01
-5.70032812e-08,1.88870312e-01
-5.69632812e-08,1.88953125e-01
-5.69232812e-08,1.88695313e-01
-5.68832812e-08,1.88440625e-01
-5.68432812e-08,1.88535938e-01
-5.68032812e-08,1.88471875e-01
-5.67632812e-08,1.88525000e-01
-5.67232812e-08,1.88478125e-01
-5.66832812e-08,1.88521875e-01
-5.66432812e-08,1.88478125e-01
-5.66032812e-08,1.88523438e-01
-5.65632812e-08,1.88473438e-01
-5.65232812e-08,1.88531250e-01
-5.64832812e-08,1.88459375e-01
-5.64432812e-08,1.88565625e-01
-5.64032812e-08,1.88281250e-01
-5.63632812e-08,1.88056250e-01
-5.63232812e-08,1.88118750e-01
-5.62832812e-08,1.88090625e-01
-5.62432812e-08,1.88104688e-01
-5.62032812e-08,1.88098437e-01
-5.61632812e-08,1.88098437e-01
-5.61232812e-08,1.88104688e-01
-5.60832812e-08,1.88093750e-01
-5.60432812e-08,1.88109375e-01
-5.60032812e-08,1.88087500e-01
-5.59632812e-08,1.88115625e-01
-5.59232812e-08,1.88078125e-01
-5.58832812e-08,1.88131250e-01
-5.58432812e-08,1.88042188e-01
-5.58032812e-08,1.88310937e-01
-5.57632812e-08,1.88550000e-01
-5.57232812e-08,1.88473438e-01
-5.56832812e-08,1.88515625e-01
-5.56432812e-08,1.88490625e-01
-5.56032812e-08,1.88506250e-01
-5.55632812e-08,1.88498438e-01
-5.55232812e-08,1.88498438e-01
-5.54832812e-08,1.88506250e-01
-5.54432812e-08,1.88487500e-01
-5.54032812e-08,1.88523438e-01
-5.53632812e-08,1.88451563e-01
-5.53232812e-08,1.88703125e-01
-5.52832812e-08,1.88957813e-01
-5.52432812e-08,1.88867188e-01
-5.52032812e-08,1.88921875e-01
-5.51632812e-08,1.88885938e-01
-5.51232812e-08,1.88906250e-01
-5.50832812e-08,1.88904688e-01
-5.50432812e-08,1.88870312e-01
-5.50032812e-08,1.89082813e-01
-5.49632812e-08,1.89379688e-01
-5.49232812e-08,1.89242188e-01
-5.48832812e-08,1.89351563e-01
-5.48432812e-08,1.89248438e-01
-5.48032812e-08,1.89357813e-01
-5.47632812e-08,1.89218750e-01
-5.47232812e-08,1.89534375e-01
-5.46832812e-08,1.89728125e-01
-5.46432812e-08,1.89698438e-01
-5.46032812e-08,1.89689063e-01
-5.45632812e-08,1.89723438e-01
-5.45232812e-08,1.89648438e-01
-5.44832812e-08,1.89904688e-01
-5.44432812e-08,1.90157812e-01
-5.44032812e-08,1.90065625e-01
-5.43632812e-08,1.90128125e-01
-5.43232812e-08,1.90073437e-01
-5.42832812e-08,1.90132812e-01
-5.42432812e-08,1.90045313e-01
-5.42032812e-08,1.90306250e-01
-5.41632812e-08,1.90557813e-01
-5.41232812e-08,1.90462500e-01
-5.40832812e-08,1.90529688e-01
-5.40432812e-08,1.90471875e-01
-5.40032812e-08,1.90528125e-01
-5.39632812e-08,1.90468750e-01
-5.39232812e-08,1.90540625e-01
-5.38832812e-08,1.90435938e-01
-5.38432812e-08,1.90717187e-01
-5.38032812e-08,1.90945313e-01
-5.37632812e-08,1.90878125e-01
-5.37232812e-08,1.90912500e-01
-5.36832812e-08,1.90892188e-01
-5.36432812e-08,1.90904688e-01
-5.36032812e-08,1.90898438e-01
-5.35632812e-08,1.90900000e-01
-5.35232812e-08,1.90901563e-01
-5.34832812e-08,1.90898438e-01
-5.34432812e-08,1.90903125e-01
-5.34032812e-08,1.90895312e-01
-5.33632812e-08,1.90904688e-01
-5.33232812e-08,1.90893750e-01
-5.32832812e-08,1.90906250e-01
-5.32432812e-08,1.90892188e-01
-5.32032812e-08,1.90909375e-01
-5.31632812e-08,1.90889063e-01
-5.31232812e-08,1.90910938e-01
-5.30832812e-08,1.90885938e-01
-5.30432812e-08,1.90915625e-01
-5.30032812e-08,1.90879688e-01
-5.29632812e-08,1.90925000e-01
-5.29232812e-08,1.90864063e-01
-5.28832812e-08,1.90960938e-01
-5.28432812e-08,1.90684375e-01
-5.28032812e-08,1.90453125e-01
-5.27632812e-08,1.90521875e-01
-5.27232812e-08,1.90489063e-01
-5.26832812e-08,1.90503125e-01
-5.26432812e-08,1.90501562e-01
-5.26032812e-08,1.90492188e-01
-5.25632813e-08,1.90514062e-01
-5.25232812e-08,1.90475000e-01
-5.24832812e-08,1.90551562e-01
-5.24432812e-08,1.90293750e-01
-5.24032812e-08,1.90045313e-01
-5.23632812e-08,1.90129688e-01
-5.23232812e-08,1.90081250e-01
-5.22832812e-08,1.90112500e-01
-5.22432812e-08,1.90093750e-01
-5.22032812e-08,1.90101563e-01
-5.21632812e-08,1.90104688e-01
-5.21232812e-08,1.90084375e-01
-5.20832812e-08,1.90142188e-01
-5.20432812e-08,1.89903125e-01
-5.20032812e-08,1.89634375e-01
-5.19632812e-08,1.89740625e-01
-5.19232812e-08,1.89668750e-01
-5.18832812e-08,1.89725000e-01
-5.18432812e-08,1.89678125e-01
-5.18032812e-08,1.89720313e-01
-5.17632812e-08,1.89681250e-01
-5.17232812e-08,1.89717187e-01
-5.16832812e-08,1.89684375e-01
-5.16432812e-08,1.89715625e-01
-5.16032812e-08,1.89685938e-01
-5.15632812e-08,1.89714063e-01
-5.15232812e-08,1.89687500e-01
-5.14832812e-08,1.89712500e-01
-5.14432812e-08,1.89687500e-01
-5.14032812e-08,1.89712500e-01
-5.13632812e-08,1.89687500e-01
-5.13232812e-08,1.89712500e-01
-5.12832812e-08,1.89689063e-01
-5.12432812e-08,1.89710938e-01
-5.12032812e-08,1.89689063e-01
-5.11632812e-08,1.89712500e-01
-5.11232812e-08,1.89687500e-01
-5.10832812e-08,1.89712500e-01
-5.10432812e-08,1.89687500e-01
-5.10032812e-08,1.89712500e-01
-5.09632812e-08,1.89685938e-01
-5.09232812e-08,1.89714063e-01
-5.08832812e-08,1.89684375e-01
-5.08432812e-08,1.89717187e-01
-5.08032812e-08,1.89679687e-01
-5.07632812e-08,1.89725000e-01
-5.07232812e-08,1.89664063e-01
-5.06832812e-08,1.89759375e-01
-5.06432813e-08,1.89487500e-01
-5.06032812e-08,1.89250000e-01
-5.05632812e-08,1.89325000e-01
-5.05232812e-08,1.89282813e-01
-5.04832812e-08,1.89310937e-01
-5.04432812e-08,1.89290625e-01
-5.04032812e-08,1.89306250e-01
-5.03632813e-08,1.89295313e-01
-5.03232812e-08,1.89304688e-01
-5.02832812e-08,1.89296875e-01
-5.02432812e-08,1.89303125e-01
-5.02032812e-08,1.89296875e-01
-5.01632812e-08,1.89303125e-01
-5.01232812e-08,1.89298437e-01
-5.00832812e-08,1.89301563e-01
-5.00432812e-08,1.89298437e-01
-5.00032812e-08,1.89301563e-01
-4.99632812e-08,1.89298437e-01
-4.99232812e-08,1.89301563e-01
-4.98832812e-08,1.89298437e-01
-4.98432812e-08,1.89301563e-01
-4.98032812e-08,1.89298437e-01
-4.97632812e-08,1.89301563e-01
-4.97232812e-08,1.89298437e-01
-4.96832812e-08,1.89301563e-01
-4.96432812e-08,1.89298437e-01
-4.96032812e-08,1.89301563e-01
-4.95632812e-08,1.89296875e-01
-4.95232812e-08,1.89303125e-01
-4.94832812e-08,1.89296875e-01
-4.94432812e-08,1.89303125e-01
-4.94032812e-08,1.89295313e-01
-4.93632812e-08,1.89304688e-01
-4.93232812e-08,1.89293750e-01
-4.92832812e-08,1.89306250e-01
-4.92432812e-08,1.89292188e-01
-4.92032812e-08,1.89310937e-01
-4.91632812e-08,1.89285938e-01
-4.91232812e-08,1.89318750e-01
-4.90832812e-08,1.89271875e-01
-4.90432812e-08,1.89353125e-01
-4.90032812e-08,1.89093750e-01
-4.89632812e-08,1.88843750e-01
-4.89232812e-08,1.88932813e-01
-4.88832812e-08,1.88876563e-01
-4.88432812e-08,1.88918750e-01
-4.88032812e-08,1.88884375e-01
-4.87632812e-08,1.88912500e-01
-4.87232813e-08,1.88889063e-01
-4.86832812e-08,1.88910938e-01
-4.86432812e-08,1.88890625e-01
-4.86032812e-08,1.88909375e-01
-4.85632812e-08,1.88892188e-01
-4.85232812e-08,1.88907812e-01
-4.84832812e-08,1.88892188e-01
-4.84432813e-08,1.88906250e-01
-4.84032812e-08,1.88893750e-01
-4.83632812e-08,1.88906250e-01
-4.83232812e-08,1.88893750e-01
-4.82832812e-08,1.88906250e-01
-4.82432812e-08,1.88893750e-01
-4.82032812e-08,1.88906250e-01
-4.81632813e-08,1.88895312e-01
-4.81232812e-08,1.88904688e-01
-4.80832812e-08,1.88895312e-01
-4.80432812e-08,1.88904688e-01
-4.80032812e-08,1.88895312e-01
-4.79632812e-08,1.88904688e-01
-4.79232812e-08,1.88895312e-01
-4.78832812e-08,1.88904688e-01
-4.78432812e-08,1.88895312e-01
-4.78032812e-08,1.88904688e-01
-4.77632812e-08,1.88895312e-01
-4.77232812e-08,1.88904688e-01
-4.76832812e-08,1.88895312e-01
-4.76432812e-08,1.88903125e-01
-4.76032812e-08,1.88896875e-01
-4.75632812e-08,1.88903125e-01
-4.75232812e-08,1.88896875e-01
-4.74832812e-08,1.88903125e-01
-4.74432812e-08,1.88896875e-01
-4.74032812e-08,1.88903125e-01
-4.73632812e-08,1.88896875e-01
-4.73232812e-08,1.88903125e-01
-4.72832812e-08,1.88896875e-01
-4.72432812e-08,1.88903125e-01
-4.72032812e-08,1.88896875e-01
-4.71632812e-08,1.88901563e-01
-4.71232812e-08,1.88898438e-01
-4.70832812e-08,1.88901563e-01
-4.70432812e-08,1.88898438e-01
-4.70032812e-08,1.88901563e-01
-4.69632812e-08,1.88898438e-01
-4.69232812e-08,1.88900000e-01
-4.68832812e-08,1.88900000e-01
-4.68432812e-08,1.88900000e-01
-4.68032813e-08,1.88901563e-01
-4.67632812e-08,1.88898438e-01
-4.67232812e-08,1.88903125e-01
-4.66832812e-08,1.88895312e-01
-4.66432812e-08,1.88906250e-01
-4.66032812e-08,1.88890625e-01
-4.65632812e-08,1.88914063e-01
-4.65232813e-08,1.88876563e-01
-4.64832812e-08,1.88948438e-01
-4.64432812e-08,1.88698438e-01
-4.64032812e-08,1.88440625e-01
-4.63632812e-08,1.88535938e-01
-4.63232812e-08,1.88473438e-01
-4.62832812e-08,1.88521875e-01
-4.62432813e-08,1.88481250e-01
-4.62032812e-08,1.88517188e-01
-4.61632812e-08,1.88484375e-01
-4.61232812e-08,1.88514062e-01
-4.60832812e-08,1.88485938e-01
-4.60432812e-08,1.88514062e-01
-4.60032812e-08,1.88487500e-01
-4.59632813e-08,1.88512500e-01
-4.59232812e-08,1.88487500e-01
-4.58832812e-08,1.88512500e-01
-4.58432812e-08,1.88487500e-01
-4.58032812e-08,1.88512500e-01
-4.57632812e-08,1.88487500e-01
-4.57232812e-08,1.88512500e-01
-4.56832812e-08,1.88487500e-01
-4.56432812e-08,1.88512500e-01
-4.56032812e-08,1.88487500e-01
-4.55632812e-08,1.88512500e-01
-4.55232812e-08,1.88487500e-01
-4.54832812e-08,1.88512500e-01
-4.54432812e-08,1.88485938e-01
-4.54032812e-08,1.88514062e-01
-4.53632812e-08,1.88484375e-01
-4.53232812e-08,1.88517188e-01
-4.52832812e-08,1.88481250e-01
-4.52432812e-08,1.88521875e-01
-4.52032812e-08,1.88473438e-01
-4.51632812e-08,1.88535938e-01
-4.51232812e-08,1.88440625e-01
-4.50832812e-08,1.88712500e-01
-4.50432812e-08,1.88950000e-01
-4.50032812e-08,1.88871875e-01
-4.49632812e-08,1.88918750e-01
-4.49232812e-08,1.88884375e-01
-4.48832813e-08,1.88915625e-01
-4.48432812e-08,1.88881250e-01
-4.48032812e-08,1.88926563e-01
-4.47632812e-08,1.88850000e-01
-4.47232812e-08,1.89101563e-01
-4.46832812e-08,1.89362500e-01
-4.46432812e-08,1.89259375e-01
-4.46032813e-08,1.89334375e-01
-4.45632812e-08,1.89268750e-01
-4.45232812e-08,1.89331250e-01
-4.44832812e-08,1.89265625e-01
-4.44432812e-08,1.89343750e-01
-4.44032812e-08,1.89232813e-01
-4.43632812e-08,1.89520313e-01
-4.43232813e-08,1.89742187e-01
-4.42832812e-08,1.89681250e-01
-4.42432812e-08,1.89709375e-01
-4.42032812e-08,1.89695313e-01
-4.41632812e-08,1.89701563e-01
-4.41232812e-08,1.89701563e-01
-4.40832812e-08,1.89696875e-01
-4.40432813e-08,1.89704687e-01
-4.40032812e-08,1.89693750e-01
-4.39632812e-08,1.89707813e-01
-4.39232812e-08,1.89689063e-01
-4.38832812e-08,1.89714063e-01
-4.38432812e-08,1.89681250e-01
-4.38032812e-08,1.89728125e-01
-4.37632812e-08,1.89646875e-01
-4.37232812e-08,1.89906250e-01
-4.36832812e-08,1.90157812e-01
-4.36432812e-08,1.90065625e-01
-4.36032812e-08,1.90126563e-01
-4.35632812e-08,1.90075000e-01
-4.35232812e-08,1.90126563e-01
-4.34832812e-08,1.90065625e-01
-4.34432812e-08,1.90157812e-01
-4.34032812e-08,1.89890625e-01
-4.33632812e-08,1.89645312e-01
-4.33232812e-08,1.89731250e-01
-4.32832812e-08,1.89676563e-01
-4.32432812e-08,1.89718750e-01
-4.32032812e-08,1.89682813e-01
-4.31632812e-08,1.89715625e-01
-4.31232812e-08,1.89684375e-01
-4.30832812e-08,1.89715625e-01
-4.30432812e-08,1.89684375e-01
-4.30032812e-08,1.89715625e-01
-4.29632813e-08,1.89684375e-01
-4.29232812e-08,1.89717187e-01
-4.28832812e-08,1.89681250e-01
-4.28432812e-08,1.89720313e-01
-4.28032812e-08,1.89676563e-01
-4.27632812e-08,1.89729688e-01
-4.27232812e-08,1.89660938e-01
-4.26832813e-08,1.89764062e-01
-4.26432812e-08,1.89482813e-01
-4.26032812e-08,1.89256250e-01
-4.25632812e-08,1.89320313e-01
-4.25232812e-08,1.89290625e-01
-4.24832812e-08,1.89304688e-01
-4.24432812e-08,1.89300000e-01
-4.24032813e-08,1.89296875e-01
-4.23632812e-08,1.89306250e-01
-4.23232812e-08,1.89289062e-01
-4.22832812e-08,1.89317188e-01
-4.22432812e-08,1.89273438e-01
-4.22032812e-08,1.89351563e-01
-4.21632812e-08,1.89095313e-01
-4.21232813e-08,1.88842188e-01
-4.20832812e-08,1.88932813e-01
-4.20432812e-08,1.88875000e-01
-4.20032812e-08,1.88920313e-01
-4.19632812e-08,1.88881250e-01
-4.19232812e-08,1.88917188e-01
-4.18832812e-08,1.88881250e-01
-4.18432813e-08,1.88921875e-01
-4.18032812e-08,1.88870312e-01
-4.17632812e-08,1.88953125e-01
-4.17232812e-08,1.88693750e-01
-4.16832812e-08,1.88442187e-01
-4.16432812e-08,1.88534375e-01
-4.16032812e-08,1.88473438e-01
-4.15632812e-08,1.88523438e-01
-4.15232812e-08,1.88476562e-01
-4.14832812e-08,1.88523438e-01
-4.14432812e-08,1.88475000e-01
-4.14032812e-08,1.88529688e-01
-4.13632812e-08,1.88460938e-01
-4.13232812e-08,1.88562500e-01
-4.12832812e-08,1.88284375e-01
-4.12432812e-08,1.88053125e-01
-4.12032812e-08,1.88123438e-01
-4.11632812e-08,1.88085937e-01
-4.11232812e-08,1.88107812e-01
-4.10832812e-08,1.88093750e-01
-4.10432813e-08,1.88103125e-01
-4.10032812e-08,1.88098437e-01
-4.09632812e-08,1.88100000e-01
-4.09232812e-08,1.88100000e-01
-4.08832812e-08,1.88098437e-01
-4.08432812e-08,1.88101563e-01
-4.08032812e-08,1.88096875e-01
-4.07632813e-08,1.88103125e-01
-4.07232812e-08,1.88096875e-01
-4.06832812e-08,1.88104688e-01
-4.06432812e-08,1.88095313e-01
-4.06032812e-08,1.88104688e-01
-4.05632812e-08,1.88093750e-01
-4.05232812e-08,1.88106250e-01
-4.04832813e-08,1.88092188e-01
-4.04432812e-08,1.88107812e-01
-4.04032812e-08,1.88090625e-01
-4.03632812e-08,1.88109375e-01
-4.03232812e-08,1.88089063e-01
-4.02832812e-08,1.88112500e-01
-4.02432812e-08,1.88085937e-01
-4.02032813e-08,1.88115625e-01
-4.01632812e-08,1.88082813e-01
-4.01232812e-08,1.88121875e-01
-4.00832812e-08,1.88073437e-01
-4.00432812e-08,1.88137500e-01
-4.00032812e-08,1.88037500e-01
-3.99632812e-08,1.88317188e-01
-3.99232813e-08,1.88543750e-01
-3.98832812e-08,1.88481250e-01
-3.98432812e-08,1.88507813e-01
-3.98032812e-08,1.88500000e-01
-3.97632812e-08,1.88492188e-01
-3.97232812e-08,1.88518750e-01
-3.96832812e-08,1.88454687e-01
-3.96432813e-08,1.88698438e-01
-3.96032812e-08,1.88964063e-01
-3.95632812e-08,1.88859375e-01
-3.95232812e-08,1.88932813e-01
-3.94832812e-08,1.88867188e-01
-3.94432812e-08,1.88937500e-01
-3.94032813e-08,1.88840625e-01
-3.93632812e-08,1.89109375e-01
-3.93232812e-08,1.89356250e-01
-3.92832812e-08,1.89264062e-01
-3.92432812e-08,1.89329688e-01
-3.92032812e-08,1.89268750e-01
-3.91632812e-08,1.89339063e-01
-3.91232813e-08,1.89237500e-01
-3.90832812e-08,1.89514062e-01
-3.90432812e-08,1.89748438e-01
-3.90032812e-08,1.89675000e-01
-3.89632812e-08,1.89715625e-01
-3.89232812e-08,1.89689063e-01
-3.88832812e-08,1.89707813e-01
-3.88432813e-08,1.89695313e-01
-3.88032812e-08,1.89703125e-01
-3.87632812e-08,1.89696875e-01
-3.87232812e-08,1.89701563e-01
-3.86832812e-08,1.89700000e-01
-3.86432812e-08,1.89700000e-01
-3.86032812e-08,1.89701563e-01
-3.85632813e-08,1.89698438e-01
-3.85232812e-08,1.89703125e-01
