trails/0b2e18f6fa2cac99b521e237471ff731/aes_ch1_20250507110235216.csv

Model,MSO66B
Label,
Waveform Type,ANALOG
Horizontal Units,s
Sample Interval,4.00000000e-11
Record Length,10000
Zero Index,1599.08984375
Vertical Units,A
ANALOG_Thumbnail,
yOffset,1.84500000e-01
yPosition,8.40000000e-01

Labels,
TIME,CH1
-6.39635937e-08,1.96496875e-01
-6.39235937e-08,1.96503125e-01
-6.38835938e-08,1.96496875e-01
-6.38435937e-08,1.96503125e-01
-6.38035938e-08,1.96496875e-01
-6.37635937e-08,1.96504687e-01
-6.37235937e-08,1.96495313e-01
-6.36835937e-08,1.96506250e-01
-6.36435937e-08,1.96493750e-01
-6.36035938e-08,1.96507813e-01
-6.35635937e-08,1.96490625e-01
-6.35235938e-08,1.96510938e-01
-6.34835937e-08,1.96484375e-01
-6.34435937e-08,1.96520313e-01
-6.34035937e-08,1.96470313e-01
-6.33635937e-08,1.96554688e-01
-6.33235938e-08,1.96292187e-01
-6.32835937e-08,1.96046875e-01
-6.32435938e-08,1.96129688e-01
-6.32035937e-08,1.96079688e-01
-6.31635937e-08,1.96114063e-01
-6.31235937e-08,1.96089063e-01
-6.30835937e-08,1.96107813e-01
-6.30435938e-08,1.96095313e-01
-6.30035937e-08,1.96103125e-01
-6.29635938e-08,1.96100000e-01
-6.29235937e-08,1.96095313e-01
-6.28835937e-08,1.96109375e-01
-6.28435937e-08,1.96081250e-01
-6.28035937e-08,1.96145313e-01
-6.27635938e-08,1.95901563e-01
-6.27235937e-08,1.95635937e-01
-6.26835938e-08,1.95740625e-01
-6.26435937e-08,1.95668750e-01
-6.26035937e-08,1.95725000e-01
-6.25635937e-08,1.95678125e-01
-6.25235937e-08,1.95720312e-01
-6.24835938e-08,1.95681250e-01
-6.24435937e-08,1.95717188e-01
-6.24035938e-08,1.95682812e-01
-6.23635937e-08,1.95715625e-01
-6.23235937e-08,1.95684375e-01
-6.22835937e-08,1.95715625e-01
-6.22435937e-08,1.95684375e-01
-6.22035938e-08,1.95715625e-01
-6.21635937e-08,1.95685938e-01
-6.21235937e-08,1.95714063e-01
-6.20835937e-08,1.95685938e-01
-6.20435937e-08,1.95714063e-01
-6.20035937e-08,1.95684375e-01
-6.19635937e-08,1.95715625e-01
-6.19235938e-08,1.95684375e-01
-6.18835937e-08,1.95715625e-01
-6.18435937e-08,1.95684375e-01
-6.18035937e-08,1.95717188e-01
-6.17635937e-08,1.95682812e-01
-6.17235937e-08,1.95718750e-01
-6.16835937e-08,1.95679688e-01
-6.16435938e-08,1.95721875e-01
-6.16035937e-08,1.95676563e-01
-6.15635937e-08,1.95726563e-01
-6.15235937e-08,1.95668750e-01
-6.14835937e-08,1.95742187e-01
-6.14435937e-08,1.95632813e-01
-6.14035937e-08,1.95920312e-01
-6.13635938e-08,1.96142188e-01
-6.13235937e-08,1.96082813e-01
-6.12835937e-08,1.96107813e-01
-6.12435937e-08,1.96098438e-01
-6.12035937e-08,1.96098438e-01
-6.11635937e-08,1.96104688e-01
-6.11235937e-08,1.96092188e-01
-6.10835938e-08,1.96109375e-01
-6.10435937e-08,1.96087500e-01
-6.10035937e-08,1.96117188e-01
-6.09635937e-08,1.96078125e-01
-6.09235937e-08,1.96132813e-01
-6.08835937e-08,1.96042188e-01
-6.08435937e-08,1.96310938e-01
-6.08035938e-08,1.96550000e-01
-6.07635937e-08,1.96473438e-01
-6.07235937e-08,1.96517187e-01
-6.06835937e-08,1.96489063e-01
-6.06435937e-08,1.96507813e-01
-6.06035937e-08,1.96493750e-01
-6.05635937e-08,1.96504687e-01
-6.05235938e-08,1.96496875e-01
-6.04835937e-08,1.96501563e-01
-6.04435937e-08,1.96500000e-01
-6.04035937e-08,1.96500000e-01
-6.03635937e-08,1.96501563e-01
-6.03235938e-08,1.96498438e-01
-6.02835937e-08,1.96501563e-01
-6.02435938e-08,1.96496875e-01
-6.02035937e-08,1.96503125e-01
-6.01635937e-08,1.96495313e-01
-6.01235937e-08,1.96504687e-01
-6.00835937e-08,1.96495313e-01
-6.00435938e-08,1.96506250e-01
-6.00035937e-08,1.96493750e-01
-5.99635938e-08,1.96507813e-01
-5.99235937e-08,1.96490625e-01
-5.98835937e-08,1.96509375e-01
-5.98435937e-08,1.96489063e-01
-5.98035937e-08,1.96514063e-01
-5.97635938e-08,1.96482812e-01
-5.97235937e-08,1.96521875e-01
-5.96835938e-08,1.96467188e-01
-5.96435937e-08,1.96557813e-01
-5.96035937e-08,1.96289062e-01
-5.95635937e-08,1.96048438e-01
-5.95235937e-08,1.96128125e-01
-5.94835937e-08,1.96081250e-01
-5.94435937e-08,1.96112500e-01
-5.94035937e-08,1.96090625e-01
-5.93635937e-08,1.96107813e-01
-5.93235937e-08,1.96093750e-01
-5.92835937e-08,1.96104688e-01
-5.92435937e-08,1.96095313e-01
-5.92035937e-08,1.96103125e-01
-5.91635937e-08,1.96096875e-01
-5.91235937e-08,1.96101562e-01
-5.90835937e-08,1.96098438e-01
-5.90435937e-08,1.96101562e-01
-5.90035937e-08,1.96100000e-01
-5.89635937e-08,1.96100000e-01
-5.89235937e-08,1.96100000e-01
-5.88835937e-08,1.96100000e-01
-5.88435937e-08,1.96100000e-01
-5.88035937e-08,1.96098438e-01
-5.87635937e-08,1.96101562e-01
-5.87235937e-08,1.96098438e-01
-5.86835937e-08,1.96101562e-01
-5.86435937e-08,1.96098438e-01
-5.86035937e-08,1.96101562e-01
-5.85635937e-08,1.96096875e-01
-5.85235937e-08,1.96103125e-01
-5.84835937e-08,1.96096875e-01
-5.84435937e-08,1.96103125e-01
-5.84035937e-08,1.96096875e-01
-5.83635937e-08,1.96103125e-01
-5.83235937e-08,1.96096875e-01
-5.82835937e-08,1.96103125e-01
-5.82435937e-08,1.96095313e-01
-5.82035937e-08,1.96104688e-01
-5.81635937e-08,1.96095313e-01
-5.81235937e-08,1.96104688e-01
-5.80835937e-08,1.96095313e-01
-5.80435937e-08,1.96104688e-01
-5.80035937e-08,1.96095313e-01
-5.79635937e-08,1.96106250e-01
-5.79235937e-08,1.96093750e-01
-5.78835937e-08,1.96106250e-01
-5.78435937e-08,1.96093750e-01
-5.78035937e-08,1.96106250e-01
-5.77635937e-08,1.96092188e-01
-5.77235937e-08,1.96107813e-01
-5.76835937e-08,1.96092188e-01
-5.76435937e-08,1.96107813e-01
-5.76035937e-08,1.96090625e-01
-5.75635937e-08,1.96109375e-01
-5.75235937e-08,1.96089063e-01
-5.74835937e-08,1.96110937e-01
-5.74435937e-08,1.96087500e-01
-5.74035937e-08,1.96114063e-01
-5.73635937e-08,1.96084375e-01
-5.73235937e-08,1.96117188e-01
-5.72835937e-08,1.96079688e-01
-5.72435937e-08,1.96126563e-01
-5.72035937e-08,1.96064062e-01
-5.71635937e-08,1.96160938e-01
-5.71235937e-08,1.95885937e-01
-5.70835937e-08,1.95651563e-01
-5.70435937e-08,1.95723438e-01
-5.70035937e-08,1.95685938e-01
-5.69635937e-08,1.95709375e-01
-5.69235937e-08,1.95693750e-01
-5.68835937e-08,1.95703125e-01
-5.68435937e-08,1.95698438e-01
-5.68035937e-08,1.95700000e-01
-5.67635937e-08,1.95701563e-01
-5.67235937e-08,1.95696875e-01
-5.66835937e-08,1.95703125e-01
-5.66435937e-08,1.95695312e-01
-5.66035937e-08,1.95706250e-01
-5.65635937e-08,1.95693750e-01
-5.65235937e-08,1.95707813e-01
-5.64835937e-08,1.95690625e-01
-5.64435937e-08,1.95710938e-01
-5.64035937e-08,1.95687500e-01
-5.63635937e-08,1.95715625e-01
-5.63235937e-08,1.95681250e-01
-5.62835937e-08,1.95725000e-01
-5.62435937e-08,1.95665625e-01
-5.62035937e-08,1.95760938e-01
-5.61635937e-08,1.95485938e-01
-5.61235937e-08,1.95253125e-01
-5.60835937e-08,1.95323438e-01
-5.60435937e-08,1.95287500e-01
-5.60035937e-08,1.95306250e-01
-5.59635937e-08,1.95298438e-01
-5.59235937e-08,1.95296875e-01
-5.58835937e-08,1.95307813e-01
-5.58435937e-08,1.95285938e-01
-5.58035937e-08,1.95325000e-01
-5.57635937e-08,1.95250000e-01
-5.57235937e-08,1.95504687e-01
-5.56835937e-08,1.95757813e-01
-5.56435937e-08,1.95667188e-01
-5.56035937e-08,1.95723438e-01
-5.55635937e-08,1.95681250e-01
-5.55235937e-08,1.95714063e-01
-5.54835937e-08,1.95687500e-01
-5.54435937e-08,1.95710938e-01
-5.54035937e-08,1.95690625e-01
-5.53635937e-08,1.95707813e-01
-5.53235937e-08,1.95693750e-01
-5.52835937e-08,1.95706250e-01
-5.52435937e-08,1.95695312e-01
-5.52035937e-08,1.95704688e-01
-5.51635937e-08,1.95695312e-01
-5.51235937e-08,1.95703125e-01
-5.50835937e-08,1.95696875e-01
-5.50435937e-08,1.95703125e-01
-5.50035937e-08,1.95698438e-01
-5.49635937e-08,1.95701563e-01
-5.49235937e-08,1.95698438e-01
-5.48835937e-08,1.95701563e-01
-5.48435937e-08,1.95700000e-01
-5.48035937e-08,1.95700000e-01
-5.47635937e-08,1.95700000e-01
-5.47235937e-08,1.95700000e-01
-5.46835937e-08,1.95701563e-01
-5.46435937e-08,1.95698438e-01
-5.46035937e-08,1.95701563e-01
-5.45635937e-08,1.95696875e-01
-5.45235937e-08,1.95703125e-01
-5.44835937e-08,1.95696875e-01
-5.44435937e-08,1.95704688e-01
-5.44035937e-08,1.95695312e-01
-5.43635937e-08,1.95706250e-01
-5.43235937e-08,1.95693750e-01
-5.42835937e-08,1.95707813e-01
-5.42435937e-08,1.95690625e-01
-5.42035937e-08,1.95712500e-01
-5.41635937e-08,1.95684375e-01
-5.41235937e-08,1.95720312e-01
-5.40835937e-08,1.95668750e-01
-5.40435937e-08,1.95756250e-01
-5.40035937e-08,1.95489063e-01
-5.39635937e-08,1.95248438e-01
-5.39235937e-08,1.95326563e-01
-5.38835937e-08,1.95284375e-01
-5.38435937e-08,1.95307813e-01
-5.38035937e-08,1.95300000e-01
-5.37635937e-08,1.95289062e-01
-5.37235937e-08,1.95335938e-01
-5.36835937e-08,1.95110937e-01
-5.36435937e-08,1.94825000e-01
-5.36035937e-08,1.94953125e-01
-5.35635937e-08,1.94853125e-01
-5.35235937e-08,1.94946875e-01
-5.34835937e-08,1.94846875e-01
-5.34435937e-08,1.94976563e-01
-5.34035937e-08,1.94670312e-01
-5.33635937e-08,1.94468750e-01
-5.33235937e-08,1.94504687e-01
-5.32835937e-08,1.94507813e-01
-5.32435937e-08,1.94478125e-01
-5.32035937e-08,1.94550000e-01
-5.31635937e-08,1.94295313e-01
-5.31235937e-08,1.94045313e-01
-5.30835937e-08,1.94129688e-01
-5.30435937e-08,1.94081250e-01
-5.30035937e-08,1.94110937e-01
-5.29635937e-08,1.94096875e-01
-5.29235938e-08,1.94092188e-01
-5.28835937e-08,1.94134375e-01
-5.28435937e-08,1.93912500e-01
-5.28035937e-08,1.93625000e-01
-5.27635937e-08,1.93751563e-01
-5.27235937e-08,1.93656250e-01
-5.26835937e-08,1.93740625e-01
-5.26435937e-08,1.93659375e-01
-5.26035937e-08,1.93742187e-01
-5.25635937e-08,1.93648437e-01
-5.25235937e-08,1.93775000e-01
-5.24835937e-08,1.93473438e-01
-5.24435937e-08,1.93264063e-01
-5.24035937e-08,1.93312500e-01
-5.23635937e-08,1.93296875e-01
-5.23235937e-08,1.93298438e-01
-5.22835937e-08,1.93304688e-01
-5.22435937e-08,1.93293750e-01
-5.22035937e-08,1.93309375e-01
-5.21635937e-08,1.93290625e-01
-5.21235937e-08,1.93310938e-01
-5.20835937e-08,1.93287500e-01
-5.20435937e-08,1.93314062e-01
-5.20035937e-08,1.93285938e-01
-5.19635937e-08,1.93315625e-01
-5.19235937e-08,1.93282813e-01
-5.18835937e-08,1.93318750e-01
-5.18435937e-08,1.93279688e-01
-5.18035937e-08,1.93323438e-01
-5.17635937e-08,1.93273438e-01
-5.17235937e-08,1.93329688e-01
-5.16835937e-08,1.93264063e-01
-5.16435937e-08,1.93346875e-01
-5.16035937e-08,1.93226563e-01
-5.15635937e-08,1.93528125e-01
-5.15235937e-08,1.93732813e-01
-5.14835937e-08,1.93693750e-01
-5.14435937e-08,1.93693750e-01
-5.14035937e-08,1.93715625e-01
-5.13635937e-08,1.93675000e-01
-5.13235937e-08,1.93737500e-01
-5.12835937e-08,1.93634375e-01
-5.12435937e-08,1.93921875e-01
-5.12035937e-08,1.94135938e-01
-5.11635937e-08,1.94092188e-01
-5.11235937e-08,1.94092188e-01
-5.10835937e-08,1.94125000e-01
-5.10435937e-08,1.94045313e-01
-5.10035938e-08,1.94312500e-01
-5.09635937e-08,1.94545313e-01
-5.09235937e-08,1.94484375e-01
-5.08835937e-08,1.94500000e-01
-5.08435937e-08,1.94517188e-01
-5.08035937e-08,1.94453125e-01
-5.07635937e-08,1.94704688e-01
-5.07235938e-08,1.94953125e-01
-5.06835937e-08,1.94876563e-01
-5.06435937e-08,1.94907812e-01
-5.06035937e-08,1.94907812e-01
-5.05635937e-08,1.94862500e-01
-5.05235937e-08,1.95095313e-01
-5.04835937e-08,1.95364063e-01
-5.04435937e-08,1.95262500e-01
-5.04035937e-08,1.95323438e-01
-5.03635937e-08,1.95285938e-01
-5.03235937e-08,1.95306250e-01
-5.02835937e-08,1.95307813e-01
-5.02435937e-08,1.95265625e-01
-5.02035937e-08,1.95489063e-01
-5.01635937e-08,1.95771875e-01
-5.01235937e-08,1.95653125e-01
-5.00835937e-08,1.95735938e-01
-5.00435937e-08,1.95670312e-01
-5.00035937e-08,1.95726563e-01
-4.99635937e-08,1.95676563e-01
-4.99235937e-08,1.95721875e-01
-4.98835937e-08,1.95681250e-01
-4.98435937e-08,1.95718750e-01
-4.98035937e-08,1.95682812e-01
-4.97635937e-08,1.95715625e-01
-4.97235937e-08,1.95685938e-01
-4.96835937e-08,1.95714063e-01
-4.96435937e-08,1.95687500e-01
-4.96035937e-08,1.95712500e-01
-4.95635937e-08,1.95687500e-01
-4.95235937e-08,1.95710938e-01
-4.94835937e-08,1.95689063e-01
-4.94435937e-08,1.95710938e-01
-4.94035937e-08,1.95690625e-01
-4.93635937e-08,1.95709375e-01
-4.93235937e-08,1.95690625e-01
-4.92835937e-08,1.95707813e-01
-4.92435937e-08,1.95692188e-01
-4.92035937e-08,1.95707813e-01
-4.91635937e-08,1.95692188e-01
-4.91235937e-08,1.95707813e-01
-4.90835938e-08,1.95693750e-01
-4.90435937e-08,1.95706250e-01
-4.90035937e-08,1.95693750e-01
-4.89635937e-08,1.95706250e-01
-4.89235937e-08,1.95693750e-01
-4.88835937e-08,1.95704688e-01
-4.88435937e-08,1.95695312e-01
-4.88035938e-08,1.95704688e-01
-4.87635937e-08,1.95695312e-01
-4.87235937e-08,1.95704688e-01
-4.86835937e-08,1.95696875e-01
-4.86435937e-08,1.95703125e-01
-4.86035937e-08,1.95696875e-01
-4.85635937e-08,1.95703125e-01
-4.85235938e-08,1.95696875e-01
-4.84835937e-08,1.95701563e-01
-4.84435937e-08,1.95698438e-01
-4.84035937e-08,1.95701563e-01
-4.83635937e-08,1.95698438e-01
-4.83235937e-08,1.95700000e-01
-4.82835937e-08,1.95700000e-01
-4.82435937e-08,1.95700000e-01
-4.82035937e-08,1.95701563e-01
-4.81635937e-08,1.95698438e-01
-4.81235937e-08,1.95701563e-01
-4.80835937e-08,1.95696875e-01
-4.80435937e-08,1.95704688e-01
-4.80035937e-08,1.95695312e-01
-4.79635937e-08,1.95706250e-01
-4.79235937e-08,1.95692188e-01
-4.78835937e-08,1.95710938e-01
-4.78435937e-08,1.95685938e-01
-4.78035937e-08,1.95720312e-01
-4.77635937e-08,1.95670312e-01
-4.77235937e-08,1.95756250e-01
-4.76835937e-08,1.95490625e-01
-4.76435937e-08,1.95248438e-01
-4.76035937e-08,1.95326563e-01
-4.75635937e-08,1.95284375e-01
-4.75235937e-08,1.95307813e-01
-4.74835937e-08,1.95300000e-01
-4.74435937e-08,1.95289062e-01
-4.74035937e-08,1.95337500e-01
-4.73635937e-08,1.95109375e-01
-4.73235937e-08,1.94828125e-01
-4.72835937e-08,1.94948438e-01
-4.72435937e-08,1.94857813e-01
-4.72035937e-08,1.94940625e-01
-4.71635938e-08,1.94853125e-01
-4.71235937e-08,1.94967187e-01
-4.70835937e-08,1.94681250e-01
-4.70435937e-08,1.94453125e-01
-4.70035937e-08,1.94526562e-01
-4.69635937e-08,1.94479687e-01
-4.69235937e-08,1.94520313e-01
-4.68835938e-08,1.94471875e-01
-4.68435937e-08,1.94551562e-01
-4.68035937e-08,1.94296875e-01
-4.67635937e-08,1.94039062e-01
-4.67235937e-08,1.94139063e-01
-4.66835937e-08,1.94068750e-01
-4.66435937e-08,1.94128125e-01
-4.66035938e-08,1.94071875e-01
-4.65635937e-08,1.94131250e-01
-4.65235937e-08,1.94060938e-01
-4.64835937e-08,1.94162500e-01
-4.64435937e-08,1.93885937e-01
-4.64035937e-08,1.93651563e-01
-4.63635937e-08,1.93725000e-01
-4.63235938e-08,1.93682812e-01
-4.62835937e-08,1.93712500e-01
-4.62435937e-08,1.93689063e-01
-4.62035937e-08,1.93709375e-01
-4.61635937e-08,1.93690625e-01
-4.61235937e-08,1.93707813e-01
-4.60835937e-08,1.93690625e-01
-4.60435937e-08,1.93709375e-01
-4.60035937e-08,1.93689063e-01
-4.59635937e-08,1.93710938e-01
-4.59235937e-08,1.93685938e-01
-4.58835937e-08,1.93717187e-01
-4.58435937e-08,1.93678125e-01
-4.58035937e-08,1.93731250e-01
-4.57635937e-08,1.93643750e-01
-4.57235937e-08,1.93909375e-01
-4.56835937e-08,1.94151563e-01
-4.56435937e-08,1.94071875e-01
-4.56035937e-08,1.94117188e-01
-4.55635937e-08,1.94087500e-01
-4.55235937e-08,1.94107813e-01
-4.54835937e-08,1.94095313e-01
-4.54435937e-08,1.94103125e-01
-4.54035937e-08,1.94100000e-01
-4.53635937e-08,1.94096875e-01
-4.53235937e-08,1.94106250e-01
-4.52835937e-08,1.94087500e-01
-4.52435938e-08,1.94121875e-01
-4.52035937e-08,1.94051562e-01
-4.51635937e-08,1.94301562e-01
-4.51235937e-08,1.94560938e-01
-4.50835937e-08,1.94464063e-01
-4.50435937e-08,1.94526562e-01
-4.50035937e-08,1.94478125e-01
-4.49635938e-08,1.94517188e-01
-4.49235937e-08,1.94484375e-01
-4.48835937e-08,1.94514063e-01
-4.48435937e-08,1.94487500e-01
-4.48035937e-08,1.94510938e-01
-4.47635937e-08,1.94489063e-01
-4.47235937e-08,1.94509375e-01
-4.46835938e-08,1.94490625e-01
-4.46435937e-08,1.94507813e-01
-4.46035937e-08,1.94492187e-01
-4.45635937e-08,1.94506250e-01
-4.45235937e-08,1.94493750e-01
-4.44835937e-08,1.94506250e-01
-4.44435937e-08,1.94495313e-01
-4.44035938e-08,1.94504687e-01
-4.43635937e-08,1.94496875e-01
-4.43235937e-08,1.94503125e-01
-4.42835937e-08,1.94498438e-01
-4.42435937e-08,1.94501563e-01
-4.42035937e-08,1.94500000e-01
-4.41635937e-08,1.94498438e-01
-4.41235938e-08,1.94503125e-01
-4.40835937e-08,1.94495313e-01
-4.40435937e-08,1.94506250e-01
-4.40035937e-08,1.94489063e-01
-4.39635937e-08,1.94515625e-01
-4.39235937e-08,1.94475000e-01
-4.38835937e-08,1.94551562e-01
-4.38435937e-08,1.94295313e-01
-4.38035937e-08,1.94043750e-01
-4.37635937e-08,1.94131250e-01
-4.37235937e-08,1.94079688e-01
-4.36835937e-08,1.94114063e-01
-4.36435937e-08,1.94092188e-01
-4.36035937e-08,1.94100000e-01
-4.35635937e-08,1.94110937e-01
-4.35235937e-08,1.94064062e-01
-4.34835937e-08,1.94290625e-01
-4.34435937e-08,1.94571875e-01
-4.34035937e-08,1.94453125e-01
-4.33635937e-08,1.94537500e-01
-4.33235938e-08,1.94467187e-01
-4.32835937e-08,1.94529687e-01
-4.32435937e-08,1.94473438e-01
-4.32035937e-08,1.94525000e-01
-4.31635937e-08,1.94475000e-01
-4.31235937e-08,1.94523438e-01
-4.30835937e-08,1.94476563e-01
-4.30435938e-08,1.94523438e-01
-4.30035937e-08,1.94475000e-01
-4.29635937e-08,1.94525000e-01
-4.29235937e-08,1.94473438e-01
-4.28835937e-08,1.94529687e-01
-4.28435937e-08,1.94465625e-01
-4.28035937e-08,1.94543750e-01
-4.27635938e-08,1.94431250e-01
-4.27235937e-08,1.94721875e-01
-4.26835937e-08,1.94940625e-01
-4.26435937e-08,1.94882813e-01
-4.26035937e-08,1.94907812e-01
-4.25635937e-08,1.94896875e-01
-4.25235937e-08,1.94900000e-01
-4.24835938e-08,1.94901563e-01
-4.24435937e-08,1.94896875e-01
-4.24035937e-08,1.94903125e-01
-4.23635937e-08,1.94895313e-01
-4.23235937e-08,1.94904688e-01
-4.22835937e-08,1.94893750e-01
-4.22435937e-08,1.94906250e-01
-4.22035938e-08,1.94893750e-01
-4.21635937e-08,1.94906250e-01
-4.21235937e-08,1.94892188e-01
-4.20835937e-08,1.94907812e-01
-4.20435937e-08,1.94892188e-01
-4.20035937e-08,1.94907812e-01
-4.19635937e-08,1.94892188e-01
-4.19235938e-08,1.94907812e-01
-4.18835937e-08,1.94890625e-01
-4.18435937e-08,1.94909375e-01
-4.18035937e-08,1.94890625e-01
-4.17635937e-08,1.94909375e-01
-4.17235937e-08,1.94890625e-01
-4.16835937e-08,1.94909375e-01
-4.16435937e-08,1.94889063e-01
-4.16035937e-08,1.94910937e-01
-4.15635937e-08,1.94889063e-01
-4.15235937e-08,1.94910937e-01
-4.14835937e-08,1.94887500e-01
-4.14435937e-08,1.94912500e-01
-4.14035938e-08,1.94885937e-01
-4.13635937e-08,1.94914063e-01
-4.13235937e-08,1.94884375e-01
-4.12835937e-08,1.94917188e-01
-4.12435937e-08,1.94881250e-01
-4.12035937e-08,1.94921875e-01
-4.11635937e-08,1.94875000e-01
-4.11235938e-08,1.94931250e-01
-4.10835937e-08,1.94859375e-01
-4.10435937e-08,1.94967187e-01
-4.10035937e-08,1.94679688e-01
-4.09635937e-08,1.94459375e-01
-4.09235937e-08,1.94514063e-01
-4.08835937e-08,1.94498438e-01
-4.08435938e-08,1.94492187e-01
-4.08035937e-08,1.94520313e-01
-4.07635937e-08,1.94453125e-01
-4.07235937e-08,1.94701563e-01
-4.06835937e-08,1.94959375e-01
-4.06435937e-08,1.94865625e-01
-4.06035937e-08,1.94925000e-01
-4.05635938e-08,1.94881250e-01
-4.05235937e-08,1.94915625e-01
-4.04835937e-08,1.94885937e-01
-4.04435937e-08,1.94912500e-01
-4.04035937e-08,1.94889063e-01
-4.03635937e-08,1.94910937e-01
-4.03235937e-08,1.94889063e-01
-4.02835938e-08,1.94910937e-01
-4.02435937e-08,1.94889063e-01
-4.02035937e-08,1.94910937e-01
-4.01635937e-08,1.94887500e-01
-4.01235937e-08,1.94915625e-01
-4.00835937e-08,1.94879688e-01
-4.00435937e-08,1.94928125e-01
-4.00035938e-08,1.94846875e-01
-3.99635937e-08,1.95104688e-01
-3.99235937e-08,1.95357813e-01
-3.98835937e-08,1.95265625e-01
-3.98435937e-08,1.95326563e-01
-3.98035937e-08,1.95276563e-01
-3.97635937e-08,1.95321875e-01
-3.97235937e-08,1.95278125e-01
-3.96835937e-08,1.95323438e-01
-3.96435937e-08,1.95273438e-01
-3.96035937e-08,1.95335938e-01
-3.95635937e-08,1.95239063e-01
-3.95235937e-08,1.95512500e-01
-3.94835938e-08,1.95750000e-01
-3.94435937e-08,1.95673438e-01
-3.94035937e-08,1.95717188e-01
-3.93635937e-08,1.95687500e-01
-3.93235937e-08,1.95710938e-01
-3.92835937e-08,1.95692188e-01
-3.92435937e-08,1.95707813e-01
-3.92035938e-08,1.95692188e-01
-3.91635937e-08,1.95706250e-01
-3.91235937e-08,1.95692188e-01
-3.90835937e-08,1.95707813e-01
-3.90435937e-08,1.95690625e-01
-3.90035937e-08,1.95710938e-01
-3.89635937e-08,1.95684375e-01
-3.89235938e-08,1.95725000e-01
-3.88835937e-08,1.95651563e-01
-3.88435937e-08,1.95900000e-01
-3.88035937e-08,1.96162500e-01
-3.87635937e-08,1.96059375e-01
-3.87235937e-08,1.96134375e-01
-3.86835937e-08,1.96067188e-01
-3.86435938e-08,1.96134375e-01
-3.86035937e-08,1.96057813e-01
-3.85635937e-08,1.96165625e-01
-3.85235937e-08,1.95881250e-01
