trails/0b2e18f6fa2cac99b521e237471ff731/aes_ch1_20250507110344963.csv

Model,MSO66B
Label,
Waveform Type,ANALOG
Horizontal Units,s
Sample Interval,4.00000000e-11
Record Length,10000
Zero Index,1599.14062500
Vertical Units,A
ANALOG_Thumbnail,
yOffset,1.84500000e-01
yPosition,8.40000000e-01

Labels,
TIME,CH1
-6.39656250e-08,1.97729688e-01
-6.39256250e-08,1.97679688e-01
-6.38856250e-08,1.97717188e-01
-6.38456250e-08,1.97684375e-01
-6.38056250e-08,1.97714063e-01
-6.37656250e-08,1.97685938e-01
-6.37256250e-08,1.97715625e-01
-6.36856250e-08,1.97681250e-01
-6.36456250e-08,1.97723438e-01
-6.36056250e-08,1.97668750e-01
-6.35656250e-08,1.97756250e-01
-6.35256250e-08,1.97490625e-01
-6.34856250e-08,1.97246875e-01
-6.34456250e-08,1.97329688e-01
-6.34056250e-08,1.97279688e-01
-6.33656250e-08,1.97315625e-01
-6.33256250e-08,1.97287500e-01
-6.32856250e-08,1.97310938e-01
-6.32456250e-08,1.97290625e-01
-6.32056250e-08,1.97307813e-01
-6.31656250e-08,1.97292187e-01
-6.31256250e-08,1.97307813e-01
-6.30856250e-08,1.97293750e-01
-6.30456250e-08,1.97306250e-01
-6.30056250e-08,1.97293750e-01
-6.29656250e-08,1.97306250e-01
-6.29256250e-08,1.97293750e-01
-6.28856250e-08,1.97306250e-01
-6.28456250e-08,1.97293750e-01
-6.28056250e-08,1.97306250e-01
-6.27656250e-08,1.97292187e-01
-6.27256250e-08,1.97307813e-01
-6.26856250e-08,1.97292187e-01
-6.26456250e-08,1.97309375e-01
-6.26056250e-08,1.97289063e-01
-6.25656250e-08,1.97314062e-01
-6.25256250e-08,1.97281250e-01
-6.24856250e-08,1.97328125e-01
-6.24456250e-08,1.97246875e-01
-6.24056250e-08,1.97506250e-01
-6.23656250e-08,1.97757813e-01
-6.23256250e-08,1.97665625e-01
-6.22856250e-08,1.97725000e-01
-6.22456250e-08,1.97679688e-01
-6.22056250e-08,1.97718750e-01
-6.21656250e-08,1.97682812e-01
-6.21256250e-08,1.97715625e-01
-6.20856250e-08,1.97684375e-01
-6.20456250e-08,1.97715625e-01
-6.20056250e-08,1.97682812e-01
-6.19656250e-08,1.97717188e-01
-6.19256250e-08,1.97679688e-01
-6.18856250e-08,1.97723438e-01
-6.18456250e-08,1.97671875e-01
-6.18056250e-08,1.97737500e-01
-6.17656250e-08,1.97637500e-01
-6.17256250e-08,1.97915625e-01
-6.16856250e-08,1.98145313e-01
-6.16456250e-08,1.98078125e-01
-6.16056250e-08,1.98110938e-01
-6.15656250e-08,1.98095313e-01
-6.15256250e-08,1.98101562e-01
-6.14856250e-08,1.98103125e-01
-6.14456250e-08,1.98093750e-01
-6.14056250e-08,1.98110938e-01
-6.13656250e-08,1.98082813e-01
-6.13256250e-08,1.98126563e-01
-6.12856250e-08,1.98046875e-01
-6.12456250e-08,1.98306250e-01
-6.12056250e-08,1.98554687e-01
-6.11656250e-08,1.98470312e-01
-6.11256250e-08,1.98520313e-01
-6.10856250e-08,1.98485938e-01
-6.10456250e-08,1.98509375e-01
-6.10056250e-08,1.98495313e-01
-6.09656250e-08,1.98501563e-01
-6.09256250e-08,1.98503125e-01
-6.08856250e-08,1.98492188e-01
-6.08456250e-08,1.98518750e-01
-6.08056250e-08,1.98454688e-01
-6.07656250e-08,1.98698438e-01
-6.07256250e-08,1.98964063e-01
-6.06856250e-08,1.98860938e-01
-6.06456250e-08,1.98929688e-01
-6.06056250e-08,1.98875000e-01
-6.05656250e-08,1.98920313e-01
-6.05256250e-08,1.98881250e-01
-6.04856250e-08,1.98917188e-01
-6.04456250e-08,1.98884375e-01
-6.04056250e-08,1.98914063e-01
-6.03656250e-08,1.98885937e-01
-6.03256250e-08,1.98912500e-01
-6.02856250e-08,1.98887500e-01
-6.02456250e-08,1.98912500e-01
-6.02056250e-08,1.98889063e-01
-6.01656250e-08,1.98910937e-01
-6.01256250e-08,1.98889063e-01
-6.00856250e-08,1.98910937e-01
-6.00456250e-08,1.98890625e-01
-6.00056250e-08,1.98909375e-01
-5.99656250e-08,1.98890625e-01
-5.99256250e-08,1.98909375e-01
-5.98856250e-08,1.98890625e-01
-5.98456250e-08,1.98909375e-01
-5.98056250e-08,1.98890625e-01
-5.97656250e-08,1.98909375e-01
-5.97256250e-08,1.98890625e-01
-5.96856250e-08,1.98909375e-01
-5.96456250e-08,1.98892188e-01
-5.96056250e-08,1.98907813e-01
-5.95656250e-08,1.98892188e-01
-5.95256250e-08,1.98907813e-01
-5.94856250e-08,1.98892188e-01
-5.94456250e-08,1.98907813e-01
-5.94056250e-08,1.98892188e-01
-5.93656250e-08,1.98907813e-01
-5.93256250e-08,1.98892188e-01
-5.92856250e-08,1.98907813e-01
-5.92456250e-08,1.98892188e-01
-5.92056250e-08,1.98907813e-01
-5.91656250e-08,1.98892188e-01
-5.91256250e-08,1.98907813e-01
-5.90856250e-08,1.98892188e-01
-5.90456250e-08,1.98907813e-01
-5.90056250e-08,1.98892188e-01
-5.89656250e-08,1.98907813e-01
-5.89256250e-08,1.98892188e-01
-5.88856250e-08,1.98907813e-01
-5.88456250e-08,1.98892188e-01
-5.88056250e-08,1.98907813e-01
-5.87656250e-08,1.98892188e-01
-5.87256250e-08,1.98907813e-01
-5.86856250e-08,1.98892188e-01
-5.86456250e-08,1.98907813e-01
-5.86056250e-08,1.98892188e-01
-5.85656250e-08,1.98907813e-01
-5.85256250e-08,1.98892188e-01
-5.84856250e-08,1.98907813e-01
-5.84456250e-08,1.98892188e-01
-5.84056250e-08,1.98907813e-01
-5.83656250e-08,1.98892188e-01
-5.83256250e-08,1.98907813e-01
-5.82856250e-08,1.98890625e-01
-5.82456250e-08,1.98909375e-01
-5.82056250e-08,1.98890625e-01
-5.81656250e-08,1.98909375e-01
-5.81256250e-08,1.98890625e-01
-5.80856250e-08,1.98909375e-01
-5.80456250e-08,1.98890625e-01
-5.80056250e-08,1.98909375e-01
-5.79656250e-08,1.98890625e-01
-5.79256250e-08,1.98909375e-01
-5.78856250e-08,1.98889063e-01
-5.78456250e-08,1.98910937e-01
-5.78056250e-08,1.98889063e-01
-5.77656250e-08,1.98910937e-01
-5.77256250e-08,1.98889063e-01
-5.76856250e-08,1.98912500e-01
-5.76456250e-08,1.98887500e-01
-5.76056250e-08,1.98912500e-01
-5.75656250e-08,1.98887500e-01
-5.75256250e-08,1.98914063e-01
-5.74856250e-08,1.98885937e-01
-5.74456250e-08,1.98915625e-01
-5.74056250e-08,1.98882813e-01
-5.73656250e-08,1.98917188e-01
-5.73256250e-08,1.98879688e-01
-5.72856250e-08,1.98921875e-01
-5.72456250e-08,1.98875000e-01
-5.72056250e-08,1.98931250e-01
-5.71656250e-08,1.98859375e-01
-5.71256250e-08,1.98965625e-01
-5.70856250e-08,1.98681250e-01
-5.70456250e-08,1.98457812e-01
-5.70056250e-08,1.98518750e-01
-5.69656250e-08,1.98492188e-01
-5.69256250e-08,1.98503125e-01
-5.68856250e-08,1.98501563e-01
-5.68456250e-08,1.98495313e-01
-5.68056250e-08,1.98507813e-01
-5.67656250e-08,1.98490625e-01
-5.67256250e-08,1.98514063e-01
-5.66856250e-08,1.98482812e-01
-5.66456250e-08,1.98523438e-01
-5.66056250e-08,1.98465625e-01
-5.65656250e-08,1.98559375e-01
-5.65256250e-08,1.98287500e-01
-5.64856250e-08,1.98051563e-01
-5.64456250e-08,1.98123437e-01
-5.64056250e-08,1.98085938e-01
-5.63656250e-08,1.98107813e-01
-5.63256250e-08,1.98095313e-01
-5.62856250e-08,1.98100000e-01
-5.62456250e-08,1.98101562e-01
-5.62056250e-08,1.98095313e-01
-5.61656250e-08,1.98107813e-01
-5.61256250e-08,1.98087500e-01
-5.60856250e-08,1.98118750e-01
-5.60456250e-08,1.98071875e-01
-5.60056250e-08,1.98154688e-01
-5.59656250e-08,1.97892188e-01
-5.59256250e-08,1.97645313e-01
-5.58856250e-08,1.97729688e-01
-5.58456250e-08,1.97681250e-01
-5.58056250e-08,1.97714063e-01
-5.57656250e-08,1.97689063e-01
-5.57256250e-08,1.97707812e-01
-5.56856250e-08,1.97693750e-01
-5.56456250e-08,1.97704688e-01
-5.56056250e-08,1.97696875e-01
-5.55656250e-08,1.97701563e-01
-5.55256250e-08,1.97700000e-01
-5.54856250e-08,1.97698438e-01
-5.54456250e-08,1.97703125e-01
-5.54056250e-08,1.97695312e-01
-5.53656250e-08,1.97706250e-01
-5.53256250e-08,1.97692188e-01
-5.52856250e-08,1.97710938e-01
-5.52456250e-08,1.97684375e-01
-5.52056250e-08,1.97720312e-01
-5.51656250e-08,1.97668750e-01
-5.51256250e-08,1.97757813e-01
-5.50856250e-08,1.97489063e-01
-5.50456250e-08,1.97251563e-01
-5.50056250e-08,1.97323438e-01
-5.49656250e-08,1.97289063e-01
-5.49256250e-08,1.97300000e-01
-5.48856250e-08,1.97312500e-01
-5.48456250e-08,1.97260938e-01
-5.48056250e-08,1.97493750e-01
-5.47656250e-08,1.97767187e-01
-5.47256250e-08,1.97657813e-01
-5.46856250e-08,1.97732813e-01
-5.46456250e-08,1.97673437e-01
-5.46056250e-08,1.97723438e-01
-5.45656250e-08,1.97678125e-01
-5.45256250e-08,1.97720312e-01
-5.44856250e-08,1.97681250e-01
-5.44456250e-08,1.97718750e-01
-5.44056250e-08,1.97681250e-01
-5.43656250e-08,1.97718750e-01
-5.43256250e-08,1.97679688e-01
-5.42856250e-08,1.97723438e-01
-5.42456250e-08,1.97673437e-01
-5.42056250e-08,1.97735938e-01
-5.41656250e-08,1.97639063e-01
-5.41256250e-08,1.97912500e-01
-5.40856250e-08,1.98150000e-01
-5.40456250e-08,1.98071875e-01
-5.40056250e-08,1.98118750e-01
-5.39656250e-08,1.98084375e-01
-5.39256250e-08,1.98114063e-01
-5.38856250e-08,1.98085938e-01
-5.38456250e-08,1.98115625e-01
-5.38056250e-08,1.98079688e-01
-5.37656250e-08,1.98128125e-01
-5.37256250e-08,1.98046875e-01
-5.36856250e-08,1.98304688e-01
-5.36456250e-08,1.98557813e-01
-5.36056250e-08,1.98465625e-01
-5.35656250e-08,1.98525000e-01
-5.35256250e-08,1.98478125e-01
-5.34856250e-08,1.98518750e-01
-5.34456250e-08,1.98481250e-01
-5.34056250e-08,1.98518750e-01
-5.33656250e-08,1.98479688e-01
-5.33256250e-08,1.98521875e-01
-5.32856250e-08,1.98473438e-01
-5.32456250e-08,1.98535938e-01
-5.32056250e-08,1.98440625e-01
-5.31656250e-08,1.98712500e-01
-5.31256250e-08,1.98950000e-01
-5.30856250e-08,1.98873437e-01
-5.30456250e-08,1.98918750e-01
-5.30056250e-08,1.98885937e-01
-5.29656250e-08,1.98910937e-01
-5.29256250e-08,1.98890625e-01
-5.28856250e-08,1.98907813e-01
-5.28456250e-08,1.98892188e-01
-5.28056250e-08,1.98906250e-01
-5.27656250e-08,1.98893750e-01
-5.27256250e-08,1.98906250e-01
-5.26856250e-08,1.98893750e-01
-5.26456250e-08,1.98906250e-01
-5.26056250e-08,1.98893750e-01
-5.25656250e-08,1.98906250e-01
-5.25256250e-08,1.98893750e-01
-5.24856250e-08,1.98907813e-01
-5.24456250e-08,1.98892188e-01
-5.24056250e-08,1.98909375e-01
-5.23656250e-08,1.98890625e-01
-5.23256250e-08,1.98910937e-01
-5.22856250e-08,1.98885937e-01
-5.22456250e-08,1.98917188e-01
-5.22056250e-08,1.98878125e-01
-5.21656250e-08,1.98931250e-01
-5.21256250e-08,1.98843750e-01
-5.20856250e-08,1.99109375e-01
-5.20456250e-08,1.99353125e-01
-5.20056250e-08,1.99271875e-01
-5.19656250e-08,1.99318750e-01
-5.19256250e-08,1.99285938e-01
-5.18856250e-08,1.99310938e-01
-5.18456250e-08,1.99292187e-01
-5.18056250e-08,1.99306250e-01
-5.17656250e-08,1.99295313e-01
-5.17256250e-08,1.99304688e-01
-5.16856250e-08,1.99296875e-01
-5.16456250e-08,1.99301563e-01
-5.16056250e-08,1.99300000e-01
-5.15656250e-08,1.99298438e-01
-5.15256250e-08,1.99303125e-01
-5.14856250e-08,1.99295313e-01
-5.14456250e-08,1.99309375e-01
-5.14056250e-08,1.99285938e-01
-5.13656250e-08,1.99323438e-01
-5.13256250e-08,1.99251563e-01
-5.12856250e-08,1.99501563e-01
-5.12456250e-08,1.99760938e-01
-5.12056250e-08,1.99664063e-01
-5.11656250e-08,1.99726563e-01
-5.11256250e-08,1.99678125e-01
-5.10856250e-08,1.99718750e-01
-5.10456250e-08,1.99682813e-01
-5.10056250e-08,1.99715625e-01
-5.09656250e-08,1.99685938e-01
-5.09256250e-08,1.99714063e-01
-5.08856250e-08,1.99687500e-01
-5.08456250e-08,1.99712500e-01
-5.08056250e-08,1.99687500e-01
-5.07656250e-08,1.99712500e-01
-5.07256250e-08,1.99689063e-01
-5.06856250e-08,1.99710938e-01
-5.06456250e-08,1.99689063e-01
-5.06056250e-08,1.99710938e-01
-5.05656250e-08,1.99689063e-01
-5.05256250e-08,1.99710938e-01
-5.04856250e-08,1.99689063e-01
-5.04456250e-08,1.99712500e-01
-5.04056250e-08,1.99687500e-01
-5.03656250e-08,1.99712500e-01
-5.03256250e-08,1.99687500e-01
-5.02856250e-08,1.99714063e-01
-5.02456250e-08,1.99685938e-01
-5.02056250e-08,1.99715625e-01
-5.01656250e-08,1.99682813e-01
-5.01256250e-08,1.99718750e-01
-5.00856250e-08,1.99678125e-01
-5.00456250e-08,1.99728125e-01
-5.00056250e-08,1.99662500e-01
-4.99656250e-08,1.99762500e-01
-4.99256250e-08,1.99484375e-01
-4.98856250e-08,1.99253125e-01
-4.98456250e-08,1.99321875e-01
-4.98056250e-08,1.99287500e-01
-4.97656250e-08,1.99307813e-01
-4.97256250e-08,1.99295313e-01
-4.96856250e-08,1.99301563e-01
-4.96456250e-08,1.99300000e-01
-4.96056250e-08,1.99298438e-01
-4.95656250e-08,1.99303125e-01
-4.95256250e-08,1.99295313e-01
-4.94856250e-08,1.99306250e-01
-4.94456250e-08,1.99290625e-01
-4.94056250e-08,1.99310938e-01
-4.93656250e-08,1.99284375e-01
-4.93256250e-08,1.99320313e-01
-4.92856250e-08,1.99268750e-01
-4.92456250e-08,1.99356250e-01
-4.92056250e-08,1.99090625e-01
-4.91656250e-08,1.98848438e-01
-4.91256250e-08,1.98926563e-01
-4.90856250e-08,1.98882813e-01
-4.90456250e-08,1.98910937e-01
-4.90056250e-08,1.98893750e-01
-4.89656250e-08,1.98901563e-01
-4.89256250e-08,1.98901563e-01
-4.88856250e-08,1.98892188e-01
-4.88456250e-08,1.98918750e-01
-4.88056250e-08,1.98856250e-01
-4.87656250e-08,1.99098438e-01
-4.87256250e-08,1.99364062e-01
-4.86856250e-08,1.99259375e-01
-4.86456250e-08,1.99329688e-01
-4.86056250e-08,1.99275000e-01
-4.85656250e-08,1.99321875e-01
-4.85256250e-08,1.99279687e-01
-4.84856250e-08,1.99318750e-01
-4.84456250e-08,1.99281250e-01
-4.84056250e-08,1.99317187e-01
-4.83656250e-08,1.99282813e-01
-4.83256250e-08,1.99317187e-01
-4.82856250e-08,1.99282813e-01
-4.82456250e-08,1.99317187e-01
-4.82056250e-08,1.99281250e-01
-4.81656250e-08,1.99318750e-01
-4.81256250e-08,1.99278125e-01
-4.80856250e-08,1.99323438e-01
-4.80456250e-08,1.99271875e-01
-4.80056250e-08,1.99339062e-01
-4.79656250e-08,1.99237500e-01
-4.79256250e-08,1.99515625e-01
-4.78856250e-08,1.99746875e-01
-4.78456250e-08,1.99678125e-01
-4.78056250e-08,1.99712500e-01
-4.77656250e-08,1.99692188e-01
-4.77256250e-08,1.99704688e-01
-4.76856250e-08,1.99696875e-01
-4.76456250e-08,1.99701563e-01
-4.76056250e-08,1.99700000e-01
-4.75656250e-08,1.99700000e-01
-4.75256250e-08,1.99701563e-01
-4.74856250e-08,1.99696875e-01
-4.74456250e-08,1.99703125e-01
-4.74056250e-08,1.99696875e-01
-4.73656250e-08,1.99704688e-01
-4.73256250e-08,1.99695312e-01
-4.72856250e-08,1.99706250e-01
-4.72456250e-08,1.99693750e-01
-4.72056250e-08,1.99707812e-01
-4.71656250e-08,1.99690625e-01
-4.71256250e-08,1.99709375e-01
-4.70856250e-08,1.99689063e-01
-4.70456250e-08,1.99714063e-01
-4.70056250e-08,1.99682813e-01
-4.69656250e-08,1.99721875e-01
-4.69256250e-08,1.99667188e-01
-4.68856250e-08,1.99757813e-01
-4.68456250e-08,1.99489063e-01
-4.68056250e-08,1.99248438e-01
-4.67656250e-08,1.99328125e-01
-4.67256250e-08,1.99282813e-01
-4.66856250e-08,1.99312500e-01
-4.66456250e-08,1.99290625e-01
-4.66056250e-08,1.99306250e-01
-4.65656250e-08,1.99295313e-01
-4.65256250e-08,1.99303125e-01
-4.64856250e-08,1.99298438e-01
-4.64456250e-08,1.99300000e-01
-4.64056250e-08,1.99301563e-01
-4.63656250e-08,1.99296875e-01
-4.63256250e-08,1.99306250e-01
-4.62856250e-08,1.99290625e-01
-4.62456250e-08,1.99314062e-01
-4.62056250e-08,1.99276563e-01
-4.61656250e-08,1.99348438e-01
-4.61256250e-08,1.99098438e-01
-4.60856250e-08,1.98840625e-01
-4.60456250e-08,1.98935937e-01
-4.60056250e-08,1.98871875e-01
-4.59656250e-08,1.98923438e-01
-4.59256250e-08,1.98879688e-01
-4.58856250e-08,1.98918750e-01
-4.58456250e-08,1.98881250e-01
-4.58056250e-08,1.98920313e-01
-4.57656250e-08,1.98878125e-01
-4.57256250e-08,1.98925000e-01
-4.56856250e-08,1.98865625e-01
-4.56456250e-08,1.98957812e-01
-4.56056250e-08,1.98689063e-01
-4.55656250e-08,1.98446875e-01
-4.55256250e-08,1.98529687e-01
-4.54856250e-08,1.98478125e-01
-4.54456250e-08,1.98517187e-01
-4.54056250e-08,1.98484375e-01
-4.53656250e-08,1.98514063e-01
-4.53256250e-08,1.98484375e-01
-4.52856250e-08,1.98515625e-01
-4.52456250e-08,1.98481250e-01
-4.52056250e-08,1.98523438e-01
-4.51656250e-08,1.98467188e-01
-4.51256250e-08,1.98556250e-01
-4.50856250e-08,1.98290625e-01
-4.50456250e-08,1.98046875e-01
-4.50056250e-08,1.98128125e-01
-4.49656250e-08,1.98081250e-01
-4.49256250e-08,1.98114063e-01
-4.48856250e-08,1.98089062e-01
-4.48456250e-08,1.98109375e-01
-4.48056250e-08,1.98092188e-01
-4.47656250e-08,1.98106250e-01
-4.47256250e-08,1.98093750e-01
-4.46856250e-08,1.98104688e-01
-4.46456250e-08,1.98095313e-01
-4.46056250e-08,1.98104688e-01
-4.45656250e-08,1.98096875e-01
-4.45256250e-08,1.98103125e-01
-4.44856250e-08,1.98098438e-01
-4.44456250e-08,1.98101562e-01
-4.44056250e-08,1.98098438e-01
-4.43656250e-08,1.98100000e-01
-4.43256250e-08,1.98100000e-01
-4.42856250e-08,1.98100000e-01
-4.42456250e-08,1.98101562e-01
-4.42056250e-08,1.98096875e-01
-4.41656250e-08,1.98104688e-01
-4.41256250e-08,1.98093750e-01
-4.40856250e-08,1.98109375e-01
-4.40456250e-08,1.98085938e-01
-4.40056250e-08,1.98123437e-01
-4.39656250e-08,1.98051563e-01
-4.39256250e-08,1.98301563e-01
-4.38856250e-08,1.98560938e-01
-4.38456250e-08,1.98462500e-01
-4.38056250e-08,1.98529687e-01
-4.37656250e-08,1.98475000e-01
-4.37256250e-08,1.98523438e-01
-4.36856250e-08,1.98476563e-01
-4.36456250e-08,1.98525000e-01
-4.36056250e-08,1.98471875e-01
-4.35656250e-08,1.98537500e-01
-4.35256250e-08,1.98439063e-01
-4.34856250e-08,1.98712500e-01
-4.34456250e-08,1.98950000e-01
-4.34056250e-08,1.98873437e-01
-4.33656250e-08,1.98918750e-01
-4.33256250e-08,1.98884375e-01
-4.32856250e-08,1.98912500e-01
-4.32456250e-08,1.98887500e-01
-4.32056250e-08,1.98912500e-01
-4.31656250e-08,1.98885937e-01
-4.31256250e-08,1.98915625e-01
-4.30856250e-08,1.98879688e-01
-4.30456250e-08,1.98929688e-01
-4.30056250e-08,1.98845313e-01
-4.29656250e-08,1.99107813e-01
-4.29256250e-08,1.99354688e-01
-4.28856250e-08,1.99268750e-01
-4.28456250e-08,1.99321875e-01
-4.28056250e-08,1.99282813e-01
-4.27656250e-08,1.99314062e-01
-4.27256250e-08,1.99287500e-01
-4.26856250e-08,1.99310938e-01
-4.26456250e-08,1.99290625e-01
-4.26056250e-08,1.99307813e-01
-4.25656250e-08,1.99292187e-01
-4.25256250e-08,1.99307813e-01
-4.24856250e-08,1.99293750e-01
-4.24456250e-08,1.99306250e-01
-4.24056250e-08,1.99295313e-01
-4.23656250e-08,1.99304688e-01
-4.23256250e-08,1.99295313e-01
-4.22856250e-08,1.99303125e-01
-4.22456250e-08,1.99296875e-01
-4.22056250e-08,1.99301563e-01
-4.21656250e-08,1.99298438e-01
-4.21256250e-08,1.99300000e-01
-4.20856250e-08,1.99301563e-01
-4.20456250e-08,1.99296875e-01
-4.20056250e-08,1.99306250e-01
-4.19656250e-08,1.99289063e-01
-4.19256250e-08,1.99320313e-01
-4.18856250e-08,1.99254687e-01
-4.18456250e-08,1.99498438e-01
-4.18056250e-08,1.99764063e-01
-4.17656250e-08,1.99660937e-01
-4.17256250e-08,1.99731250e-01
-4.16856250e-08,1.99673437e-01
-4.16456250e-08,1.99723438e-01
-4.16056250e-08,1.99678125e-01
-4.15656250e-08,1.99720312e-01
-4.15256250e-08,1.99681250e-01
-4.14856250e-08,1.99718750e-01
-4.14456250e-08,1.99681250e-01
-4.14056250e-08,1.99718750e-01
-4.13656250e-08,1.99681250e-01
-4.13256250e-08,1.99718750e-01
-4.12856250e-08,1.99681250e-01
-4.12456250e-08,1.99718750e-01
-4.12056250e-08,1.99679688e-01
-4.11656250e-08,1.99721875e-01
-4.11256250e-08,1.99676563e-01
-4.10856250e-08,1.99725000e-01
-4.10456250e-08,1.99671875e-01
-4.10056250e-08,1.99734375e-01
-4.09656250e-08,1.99656250e-01
-4.09256250e-08,1.99768750e-01
-4.08856250e-08,1.99478125e-01
-4.08456250e-08,1.99260938e-01
-4.08056250e-08,1.99315625e-01
-4.07656250e-08,1.99295313e-01
-4.07256250e-08,1.99298438e-01
-4.06856250e-08,1.99304688e-01
-4.06456250e-08,1.99290625e-01
-4.06056250e-08,1.99312500e-01
-4.05656250e-08,1.99282813e-01
-4.05256250e-08,1.99323438e-01
-4.04856250e-08,1.99265625e-01
-4.04456250e-08,1.99359375e-01
-4.04056250e-08,1.99085938e-01
-4.03656250e-08,1.98853125e-01
-4.03256250e-08,1.98921875e-01
-4.02856250e-08,1.98889063e-01
-4.02456250e-08,1.98904688e-01
-4.02056250e-08,1.98900000e-01
-4.01656250e-08,1.98893750e-01
-4.01256250e-08,1.98912500e-01
-4.00856250e-08,1.98876563e-01
-4.00456250e-08,1.98950000e-01
-4.00056250e-08,1.98696875e-01
-3.99656250e-08,1.98442188e-01
-3.99256250e-08,1.98534375e-01
-3.98856250e-08,1.98476563e-01
-3.98456250e-08,1.98518750e-01
-3.98056250e-08,1.98484375e-01
-3.97656250e-08,1.98512500e-01
-3.97256250e-08,1.98489063e-01
-3.96856250e-08,1.98509375e-01
-3.96456250e-08,1.98490625e-01
-3.96056250e-08,1.98507813e-01
-3.95656250e-08,1.98492188e-01
-3.95256250e-08,1.98506250e-01
-3.94856250e-08,1.98493750e-01
-3.94456250e-08,1.98506250e-01
-3.94056250e-08,1.98495313e-01
-3.93656250e-08,1.98504687e-01
-3.93256250e-08,1.98495313e-01
-3.92856250e-08,1.98504687e-01
-3.92456250e-08,1.98495313e-01
-3.92056250e-08,1.98504687e-01
-3.91656250e-08,1.98495313e-01
-3.91256250e-08,1.98504687e-01
-3.90856250e-08,1.98495313e-01
-3.90456250e-08,1.98504687e-01
-3.90056250e-08,1.98495313e-01
-3.89656250e-08,1.98504687e-01
-3.89256250e-08,1.98495313e-01
-3.88856250e-08,1.98504687e-01
-3.88456250e-08,1.98493750e-01
-3.88056250e-08,1.98507813e-01
-3.87656250e-08,1.98490625e-01
-3.87256250e-08,1.98510938e-01
-3.86856250e-08,1.98484375e-01
-3.86456250e-08,1.98525000e-01
-3.86056250e-08,1.98450000e-01
-3.85656250e-08,1.98701563e-01
-3.85256250e-08,1.98960938e-01
