trails/0b2e18f6fa2cac99b521e237471ff731/aes_ch1_20250507105736950.csv

Model,MSO66B
Label,
Waveform Type,ANALOG
Horizontal Units,s
Sample Interval,4.00000000e-11
Record Length,10000
Zero Index,1599.08203125
Vertical Units,A
ANALOG_Thumbnail,
yOffset,1.84500000e-01
yPosition,8.40000000e-01

Labels,
TIME,CH1
-6.39632812e-08,1.93356250e-01
-6.39232812e-08,1.93092188e-01
-6.38832812e-08,1.92845313e-01
-6.38432812e-08,1.92931250e-01
-6.38032812e-08,1.92876563e-01
-6.37632813e-08,1.92918750e-01
-6.37232812e-08,1.92882813e-01
-6.36832812e-08,1.92915625e-01
-6.36432812e-08,1.92884375e-01
-6.36032812e-08,1.92917188e-01
-6.35632812e-08,1.92879688e-01
-6.35232812e-08,1.92923438e-01
-6.34832813e-08,1.92867188e-01
-6.34432812e-08,1.92957812e-01
-6.34032812e-08,1.92689063e-01
-6.33632812e-08,1.92448438e-01
-6.33232812e-08,1.92528125e-01
-6.32832812e-08,1.92481250e-01
-6.32432812e-08,1.92514062e-01
-6.32032813e-08,1.92489063e-01
-6.31632812e-08,1.92509375e-01
-6.31232812e-08,1.92492188e-01
-6.30832812e-08,1.92506250e-01
-6.30432812e-08,1.92493750e-01
-6.30032812e-08,1.92504687e-01
-6.29632812e-08,1.92495313e-01
-6.29232813e-08,1.92503125e-01
-6.28832812e-08,1.92496875e-01
-6.28432812e-08,1.92503125e-01
-6.28032812e-08,1.92496875e-01
-6.27632812e-08,1.92501563e-01
-6.27232812e-08,1.92498438e-01
-6.26832812e-08,1.92501563e-01
-6.26432813e-08,1.92498438e-01
-6.26032812e-08,1.92501563e-01
-6.25632812e-08,1.92498438e-01
-6.25232812e-08,1.92500000e-01
-6.24832812e-08,1.92500000e-01
-6.24432812e-08,1.92500000e-01
-6.24032812e-08,1.92500000e-01
-6.23632813e-08,1.92500000e-01
-6.23232812e-08,1.92500000e-01
-6.22832812e-08,1.92498438e-01
-6.22432812e-08,1.92501563e-01
-6.22032812e-08,1.92498438e-01
-6.21632812e-08,1.92501563e-01
-6.21232812e-08,1.92498438e-01
-6.20832813e-08,1.92503125e-01
-6.20432812e-08,1.92496875e-01
-6.20032812e-08,1.92504687e-01
-6.19632812e-08,1.92495313e-01
-6.19232812e-08,1.92506250e-01
-6.18832813e-08,1.92493750e-01
-6.18432812e-08,1.92507813e-01
-6.18032813e-08,1.92489063e-01
-6.17632812e-08,1.92514062e-01
-6.17232812e-08,1.92481250e-01
-6.16832812e-08,1.92528125e-01
-6.16432812e-08,1.92446875e-01
-6.16032813e-08,1.92706250e-01
-6.15632812e-08,1.92954687e-01
-6.15232813e-08,1.92868750e-01
-6.14832812e-08,1.92921875e-01
-6.14432812e-08,1.92882813e-01
-6.14032812e-08,1.92914063e-01
-6.13632812e-08,1.92889063e-01
-6.13232813e-08,1.92909375e-01
-6.12832812e-08,1.92890625e-01
-6.12432813e-08,1.92907812e-01
-6.12032812e-08,1.92893750e-01
-6.11632812e-08,1.92906250e-01
-6.11232812e-08,1.92893750e-01
-6.10832812e-08,1.92904688e-01
-6.10432813e-08,1.92895312e-01
-6.10032812e-08,1.92904688e-01
-6.09632813e-08,1.92896875e-01
-6.09232812e-08,1.92903125e-01
-6.08832812e-08,1.92896875e-01
-6.08432812e-08,1.92901563e-01
-6.08032812e-08,1.92898438e-01
-6.07632813e-08,1.92901563e-01
-6.07232812e-08,1.92900000e-01
-6.06832813e-08,1.92900000e-01
-6.06432812e-08,1.92901563e-01
-6.06032812e-08,1.92896875e-01
-6.05632812e-08,1.92904688e-01
-6.05232812e-08,1.92893750e-01
-6.04832813e-08,1.92909375e-01
-6.04432812e-08,1.92885937e-01
-6.04032813e-08,1.92923438e-01
-6.03632812e-08,1.92851563e-01
-6.03232812e-08,1.93101563e-01
-6.02832812e-08,1.93360937e-01
-6.02432812e-08,1.93262500e-01
-6.02032813e-08,1.93328125e-01
-6.01632812e-08,1.93275000e-01
-6.01232813e-08,1.93321875e-01
-6.00832812e-08,1.93279688e-01
-6.00432812e-08,1.93320313e-01
-6.00032812e-08,1.93278125e-01
-5.99632812e-08,1.93323438e-01
-5.99232813e-08,1.93271875e-01
-5.98832812e-08,1.93335937e-01
-5.98432812e-08,1.93239063e-01
-5.98032812e-08,1.93512500e-01
-5.97632812e-08,1.93750000e-01
-5.97232812e-08,1.93673438e-01
-5.96832812e-08,1.93718750e-01
-5.96432813e-08,1.93685938e-01
-5.96032812e-08,1.93712500e-01
-5.95632812e-08,1.93687500e-01
-5.95232812e-08,1.93712500e-01
-5.94832812e-08,1.93687500e-01
-5.94432812e-08,1.93715625e-01
-5.94032812e-08,1.93679688e-01
-5.93632812e-08,1.93729687e-01
-5.93232812e-08,1.93646875e-01
-5.92832812e-08,1.93906250e-01
-5.92432812e-08,1.94156250e-01
-5.92032812e-08,1.94067188e-01
-5.91632812e-08,1.94123437e-01
-5.91232812e-08,1.94081250e-01
-5.90832812e-08,1.94115625e-01
-5.90432812e-08,1.94085937e-01
-5.90032812e-08,1.94112500e-01
-5.89632812e-08,1.94089063e-01
-5.89232812e-08,1.94110937e-01
-5.88832812e-08,1.94090625e-01
-5.88432812e-08,1.94109375e-01
-5.88032812e-08,1.94090625e-01
-5.87632812e-08,1.94109375e-01
-5.87232812e-08,1.94092188e-01
-5.86832812e-08,1.94107813e-01
-5.86432812e-08,1.94092188e-01
-5.86032812e-08,1.94107813e-01
-5.85632812e-08,1.94092188e-01
-5.85232812e-08,1.94107813e-01
-5.84832812e-08,1.94092188e-01
-5.84432812e-08,1.94107813e-01
-5.84032812e-08,1.94092188e-01
-5.83632812e-08,1.94107813e-01
-5.83232812e-08,1.94092188e-01
-5.82832812e-08,1.94107813e-01
-5.82432812e-08,1.94092188e-01
-5.82032812e-08,1.94109375e-01
-5.81632812e-08,1.94090625e-01
-5.81232812e-08,1.94109375e-01
-5.80832812e-08,1.94090625e-01
-5.80432812e-08,1.94110937e-01
-5.80032812e-08,1.94089063e-01
-5.79632812e-08,1.94112500e-01
-5.79232812e-08,1.94087500e-01
-5.78832812e-08,1.94114063e-01
-5.78432812e-08,1.94084375e-01
-5.78032812e-08,1.94118750e-01
-5.77632812e-08,1.94075000e-01
-5.77232812e-08,1.94134375e-01
-5.76832812e-08,1.94040625e-01
-5.76432812e-08,1.94312500e-01
-5.76032812e-08,1.94550000e-01
-5.75632812e-08,1.94473438e-01
-5.75232812e-08,1.94517188e-01
-5.74832812e-08,1.94487500e-01
-5.74432812e-08,1.94509375e-01
-5.74032812e-08,1.94492187e-01
-5.73632812e-08,1.94506250e-01
-5.73232812e-08,1.94495313e-01
-5.72832812e-08,1.94504687e-01
-5.72432812e-08,1.94496875e-01
-5.72032812e-08,1.94503125e-01
-5.71632812e-08,1.94496875e-01
-5.71232812e-08,1.94501563e-01
-5.70832812e-08,1.94498438e-01
-5.70432812e-08,1.94501563e-01
-5.70032812e-08,1.94498438e-01
-5.69632812e-08,1.94501563e-01
-5.69232812e-08,1.94498438e-01
-5.68832812e-08,1.94501563e-01
-5.68432812e-08,1.94498438e-01
-5.68032812e-08,1.94500000e-01
-5.67632812e-08,1.94500000e-01
-5.67232812e-08,1.94500000e-01
-5.66832812e-08,1.94500000e-01
-5.66432812e-08,1.94500000e-01
-5.66032812e-08,1.94500000e-01
-5.65632812e-08,1.94500000e-01
-5.65232812e-08,1.94498438e-01
-5.64832812e-08,1.94501563e-01
-5.64432812e-08,1.94498438e-01
-5.64032812e-08,1.94501563e-01
-5.63632812e-08,1.94498438e-01
-5.63232812e-08,1.94503125e-01
-5.62832812e-08,1.94496875e-01
-5.62432812e-08,1.94504687e-01
-5.62032812e-08,1.94495313e-01
-5.61632812e-08,1.94506250e-01
-5.61232812e-08,1.94490625e-01
-5.60832812e-08,1.94514063e-01
-5.60432812e-08,1.94476563e-01
-5.60032812e-08,1.94548438e-01
-5.59632812e-08,1.94298438e-01
-5.59232812e-08,1.94037500e-01
-5.58832812e-08,1.94139063e-01
-5.58432812e-08,1.94070313e-01
-5.58032812e-08,1.94125000e-01
-5.57632812e-08,1.94076562e-01
-5.57232812e-08,1.94123437e-01
-5.56832812e-08,1.94076562e-01
-5.56432812e-08,1.94123437e-01
-5.56032812e-08,1.94073438e-01
-5.55632812e-08,1.94131250e-01
-5.55232812e-08,1.94059375e-01
-5.54832812e-08,1.94164063e-01
-5.54432812e-08,1.93882813e-01
-5.54032812e-08,1.93654688e-01
-5.53632812e-08,1.93720313e-01
-5.53232812e-08,1.93689063e-01
-5.52832812e-08,1.93706250e-01
-5.52432812e-08,1.93696875e-01
-5.52032812e-08,1.93701563e-01
-5.51632812e-08,1.93701563e-01
-5.51232812e-08,1.93696875e-01
-5.50832812e-08,1.93704688e-01
-5.50432812e-08,1.93693750e-01
-5.50032812e-08,1.93707813e-01
-5.49632812e-08,1.93690625e-01
-5.49232812e-08,1.93710938e-01
-5.48832812e-08,1.93684375e-01
-5.48432812e-08,1.93720313e-01
-5.48032812e-08,1.93670312e-01
-5.47632812e-08,1.93754688e-01
-5.47232812e-08,1.93490625e-01
-5.46832812e-08,1.93246875e-01
-5.46432812e-08,1.93329688e-01
-5.46032812e-08,1.93279688e-01
-5.45632812e-08,1.93314062e-01
-5.45232812e-08,1.93289062e-01
-5.44832812e-08,1.93309375e-01
-5.44432812e-08,1.93292188e-01
-5.44032812e-08,1.93306250e-01
-5.43632812e-08,1.93295313e-01
-5.43232812e-08,1.93304688e-01
-5.42832812e-08,1.93296875e-01
-5.42432812e-08,1.93303125e-01
-5.42032812e-08,1.93298438e-01
-5.41632812e-08,1.93301562e-01
-5.41232812e-08,1.93300000e-01
-5.40832812e-08,1.93300000e-01
-5.40432812e-08,1.93301562e-01
-5.40032812e-08,1.93296875e-01
-5.39632812e-08,1.93303125e-01
-5.39232812e-08,1.93293750e-01
-5.38832812e-08,1.93307813e-01
-5.38432812e-08,1.93289062e-01
-5.38032812e-08,1.93315625e-01
-5.37632812e-08,1.93275000e-01
-5.37232812e-08,1.93351563e-01
-5.36832812e-08,1.93095313e-01
-5.36432812e-08,1.92842188e-01
-5.36032812e-08,1.92934375e-01
-5.35632812e-08,1.92875000e-01
-5.35232812e-08,1.92920312e-01
-5.34832812e-08,1.92882813e-01
-5.34432812e-08,1.92914063e-01
-5.34032812e-08,1.92885937e-01
-5.33632812e-08,1.92912500e-01
-5.33232812e-08,1.92889063e-01
-5.32832812e-08,1.92910938e-01
-5.32432812e-08,1.92889063e-01
-5.32032812e-08,1.92909375e-01
-5.31632812e-08,1.92890625e-01
-5.31232812e-08,1.92909375e-01
-5.30832812e-08,1.92890625e-01
-5.30432812e-08,1.92909375e-01
-5.30032812e-08,1.92890625e-01
-5.29632812e-08,1.92909375e-01
-5.29232812e-08,1.92890625e-01
-5.28832812e-08,1.92907812e-01
-5.28432812e-08,1.92890625e-01
-5.28032812e-08,1.92909375e-01
-5.27632812e-08,1.92890625e-01
-5.27232812e-08,1.92909375e-01
-5.26832812e-08,1.92890625e-01
-5.26432812e-08,1.92909375e-01
-5.26032812e-08,1.92890625e-01
-5.25632813e-08,1.92909375e-01
-5.25232812e-08,1.92889063e-01
-5.24832812e-08,1.92910938e-01
-5.24432812e-08,1.92887500e-01
-5.24032812e-08,1.92912500e-01
-5.23632812e-08,1.92885937e-01
-5.23232812e-08,1.92915625e-01
-5.22832812e-08,1.92881250e-01
-5.22432812e-08,1.92921875e-01
-5.22032812e-08,1.92873438e-01
-5.21632812e-08,1.92935938e-01
-5.21232812e-08,1.92837500e-01
-5.20832812e-08,1.93115625e-01
-5.20432812e-08,1.93345313e-01
-5.20032812e-08,1.93279688e-01
-5.19632812e-08,1.93309375e-01
-5.19232812e-08,1.93298438e-01
-5.18832812e-08,1.93293750e-01
-5.18432812e-08,1.93317188e-01
-5.18032812e-08,1.93256250e-01
-5.17632812e-08,1.93496875e-01
-5.17232812e-08,1.93765625e-01
-5.16832812e-08,1.93657812e-01
-5.16432812e-08,1.93734375e-01
-5.16032812e-08,1.93670312e-01
-5.15632812e-08,1.93729687e-01
-5.15232812e-08,1.93667188e-01
-5.14832812e-08,1.93740625e-01
-5.14432812e-08,1.93635938e-01
-5.14032812e-08,1.93915625e-01
-5.13632812e-08,1.94146875e-01
-5.13232812e-08,1.94076562e-01
-5.12832812e-08,1.94115625e-01
-5.12432812e-08,1.94089063e-01
-5.12032812e-08,1.94109375e-01
-5.11632812e-08,1.94093750e-01
-5.11232812e-08,1.94106250e-01
-5.10832812e-08,1.94095313e-01
-5.10432812e-08,1.94104688e-01
-5.10032812e-08,1.94095313e-01
-5.09632812e-08,1.94104688e-01
-5.09232812e-08,1.94095313e-01
-5.08832812e-08,1.94104688e-01
-5.08432812e-08,1.94095313e-01
-5.08032812e-08,1.94104688e-01
-5.07632812e-08,1.94095313e-01
-5.07232812e-08,1.94104688e-01
-5.06832812e-08,1.94095313e-01
-5.06432813e-08,1.94104688e-01
-5.06032812e-08,1.94095313e-01
-5.05632812e-08,1.94104688e-01
-5.05232812e-08,1.94093750e-01
-5.04832812e-08,1.94106250e-01
-5.04432812e-08,1.94093750e-01
-5.04032812e-08,1.94107813e-01
-5.03632813e-08,1.94092188e-01
-5.03232812e-08,1.94109375e-01
-5.02832812e-08,1.94089063e-01
-5.02432812e-08,1.94112500e-01
-5.02032812e-08,1.94084375e-01
-5.01632812e-08,1.94121875e-01
-5.01232812e-08,1.94068750e-01
-5.00832812e-08,1.94156250e-01
-5.00432812e-08,1.93890625e-01
-5.00032812e-08,1.93646875e-01
-4.99632812e-08,1.93729687e-01
-4.99232812e-08,1.93679688e-01
-4.98832812e-08,1.93714063e-01
-4.98432812e-08,1.93689063e-01
-4.98032812e-08,1.93709375e-01
-4.97632812e-08,1.93692188e-01
-4.97232812e-08,1.93706250e-01
-4.96832812e-08,1.93693750e-01
-4.96432812e-08,1.93704688e-01
-4.96032812e-08,1.93695312e-01
-4.95632812e-08,1.93703125e-01
-4.95232812e-08,1.93696875e-01
-4.94832812e-08,1.93701563e-01
-4.94432812e-08,1.93698438e-01
-4.94032812e-08,1.93701563e-01
-4.93632812e-08,1.93700000e-01
-4.93232812e-08,1.93700000e-01
-4.92832812e-08,1.93701563e-01
-4.92432812e-08,1.93696875e-01
-4.92032812e-08,1.93704688e-01
-4.91632812e-08,1.93693750e-01
-4.91232812e-08,1.93709375e-01
-4.90832812e-08,1.93685938e-01
-4.90432812e-08,1.93725000e-01
-4.90032812e-08,1.93651563e-01
-4.89632812e-08,1.93901563e-01
-4.89232812e-08,1.94160938e-01
-4.88832812e-08,1.94064062e-01
-4.88432812e-08,1.94128125e-01
-4.88032812e-08,1.94076562e-01
-4.87632812e-08,1.94120313e-01
-4.87232813e-08,1.94081250e-01
-4.86832812e-08,1.94117188e-01
-4.86432812e-08,1.94082813e-01
-4.86032812e-08,1.94117188e-01
-4.85632812e-08,1.94082813e-01
-4.85232812e-08,1.94118750e-01
-4.84832812e-08,1.94079688e-01
-4.84432813e-08,1.94121875e-01
-4.84032812e-08,1.94073438e-01
-4.83632812e-08,1.94135938e-01
-4.83232812e-08,1.94039062e-01
-4.82832812e-08,1.94314062e-01
-4.82432812e-08,1.94548438e-01
-4.82032812e-08,1.94475000e-01
-4.81632813e-08,1.94515625e-01
-4.81232812e-08,1.94489063e-01
-4.80832812e-08,1.94509375e-01
-4.80432812e-08,1.94493750e-01
-4.80032812e-08,1.94506250e-01
-4.79632812e-08,1.94495313e-01
-4.79232812e-08,1.94504687e-01
-4.78832812e-08,1.94496875e-01
-4.78432812e-08,1.94503125e-01
-4.78032812e-08,1.94496875e-01
-4.77632812e-08,1.94503125e-01
-4.77232812e-08,1.94496875e-01
-4.76832812e-08,1.94501563e-01
-4.76432812e-08,1.94498438e-01
-4.76032812e-08,1.94501563e-01
-4.75632812e-08,1.94498438e-01
-4.75232812e-08,1.94503125e-01
-4.74832812e-08,1.94496875e-01
-4.74432812e-08,1.94503125e-01
-4.74032812e-08,1.94496875e-01
-4.73632812e-08,1.94503125e-01
-4.73232812e-08,1.94496875e-01
-4.72832812e-08,1.94504687e-01
-4.72432812e-08,1.94495313e-01
-4.72032812e-08,1.94504687e-01
-4.71632812e-08,1.94493750e-01
-4.71232812e-08,1.94507813e-01
-4.70832812e-08,1.94490625e-01
-4.70432812e-08,1.94510938e-01
-4.70032812e-08,1.94485938e-01
-4.69632812e-08,1.94518750e-01
-4.69232812e-08,1.94471875e-01
-4.68832812e-08,1.94553125e-01
-4.68432812e-08,1.94292188e-01
-4.68032813e-08,1.94045313e-01
-4.67632812e-08,1.94131250e-01
-4.67232812e-08,1.94079688e-01
-4.66832812e-08,1.94115625e-01
-4.66432812e-08,1.94087500e-01
-4.66032812e-08,1.94109375e-01
-4.65632812e-08,1.94093750e-01
-4.65232813e-08,1.94101563e-01
-4.64832812e-08,1.94103125e-01
-4.64432812e-08,1.94087500e-01
-4.64032812e-08,1.94137500e-01
-4.63632812e-08,1.93909375e-01
-4.63232812e-08,1.93628125e-01
-4.62832812e-08,1.93750000e-01
-4.62432813e-08,1.93657812e-01
-4.62032812e-08,1.93739063e-01
-4.61632812e-08,1.93660938e-01
-4.61232812e-08,1.93742187e-01
-4.60832812e-08,1.93648437e-01
-4.60432812e-08,1.93775000e-01
-4.60032812e-08,1.93471875e-01
-4.59632813e-08,1.93267187e-01
-4.59232812e-08,1.93309375e-01
-4.58832812e-08,1.93301562e-01
-4.58432812e-08,1.93290625e-01
-4.58032812e-08,1.93317188e-01
-4.57632812e-08,1.93271875e-01
-4.57232812e-08,1.93354688e-01
-4.56832812e-08,1.93090625e-01
-4.56432812e-08,1.92846875e-01
-4.56032812e-08,1.92928125e-01
-4.55632812e-08,1.92881250e-01
-4.55232812e-08,1.92914063e-01
-4.54832812e-08,1.92890625e-01
-4.54432812e-08,1.92907812e-01
-4.54032812e-08,1.92893750e-01
-4.53632812e-08,1.92904688e-01
-4.53232812e-08,1.92896875e-01
-4.52832812e-08,1.92903125e-01
-4.52432812e-08,1.92898438e-01
-4.52032812e-08,1.92901563e-01
-4.51632812e-08,1.92898438e-01
-4.51232812e-08,1.92900000e-01
-4.50832812e-08,1.92900000e-01
-4.50432812e-08,1.92900000e-01
-4.50032812e-08,1.92901563e-01
-4.49632812e-08,1.92898438e-01
-4.49232812e-08,1.92901563e-01
-4.48832813e-08,1.92898438e-01
-4.48432812e-08,1.92903125e-01
-4.48032812e-08,1.92896875e-01
-4.47632812e-08,1.92903125e-01
-4.47232812e-08,1.92895312e-01
-4.46832812e-08,1.92904688e-01
-4.46432812e-08,1.92893750e-01
-4.46032813e-08,1.92906250e-01
-4.45632812e-08,1.92892188e-01
-4.45232812e-08,1.92909375e-01
-4.44832812e-08,1.92889063e-01
-4.44432812e-08,1.92914063e-01
-4.44032812e-08,1.92879688e-01
-4.43632812e-08,1.92929688e-01
-4.43232813e-08,1.92845313e-01
-4.42832812e-08,1.93107813e-01
-4.42432812e-08,1.93354688e-01
-4.42032812e-08,1.93268750e-01
-4.41632812e-08,1.93321875e-01
-4.41232812e-08,1.93282813e-01
-4.40832812e-08,1.93314062e-01
-4.40432813e-08,1.93289062e-01
-4.40032812e-08,1.93310938e-01
-4.39632812e-08,1.93290625e-01
-4.39232812e-08,1.93307813e-01
-4.38832812e-08,1.93292188e-01
-4.38432812e-08,1.93307813e-01
-4.38032812e-08,1.93293750e-01
-4.37632812e-08,1.93306250e-01
-4.37232812e-08,1.93293750e-01
-4.36832812e-08,1.93306250e-01
-4.36432812e-08,1.93293750e-01
-4.36032812e-08,1.93306250e-01
-4.35632812e-08,1.93293750e-01
-4.35232812e-08,1.93306250e-01
-4.34832812e-08,1.93293750e-01
-4.34432812e-08,1.93306250e-01
-4.34032812e-08,1.93293750e-01
-4.33632812e-08,1.93306250e-01
-4.33232812e-08,1.93292188e-01
-4.32832812e-08,1.93307813e-01
-4.32432812e-08,1.93290625e-01
-4.32032812e-08,1.93310938e-01
-4.31632812e-08,1.93287500e-01
-4.31232812e-08,1.93315625e-01
-4.30832812e-08,1.93279688e-01
-4.30432812e-08,1.93329688e-01
-4.30032812e-08,1.93245313e-01
-4.29632813e-08,1.93507813e-01
-4.29232812e-08,1.93754688e-01
-4.28832812e-08,1.93668750e-01
-4.28432812e-08,1.93721875e-01
-4.28032812e-08,1.93682812e-01
-4.27632812e-08,1.93715625e-01
-4.27232812e-08,1.93687500e-01
-4.26832813e-08,1.93712500e-01
-4.26432812e-08,1.93689063e-01
-4.26032812e-08,1.93710938e-01
-4.25632812e-08,1.93689063e-01
-4.25232812e-08,1.93710938e-01
-4.24832812e-08,1.93687500e-01
-4.24432812e-08,1.93712500e-01
-4.24032813e-08,1.93685938e-01
-4.23632812e-08,1.93717187e-01
-4.23232812e-08,1.93678125e-01
-4.22832812e-08,1.93731250e-01
-4.22432812e-08,1.93643750e-01
-4.22032812e-08,1.93909375e-01
-4.21632812e-08,1.94153125e-01
-4.21232813e-08,1.94070313e-01
-4.20832812e-08,1.94120313e-01
-4.20432812e-08,1.94082813e-01
-4.20032812e-08,1.94114063e-01
-4.19632812e-08,1.94087500e-01
-4.19232812e-08,1.94110937e-01
-4.18832812e-08,1.94089063e-01
-4.18432813e-08,1.94110937e-01
-4.18032812e-08,1.94089063e-01
-4.17632812e-08,1.94110937e-01
-4.17232812e-08,1.94089063e-01
-4.16832812e-08,1.94112500e-01
-4.16432812e-08,1.94087500e-01
-4.16032812e-08,1.94115625e-01
-4.15632812e-08,1.94082813e-01
-4.15232812e-08,1.94123437e-01
-4.14832812e-08,1.94067188e-01
-4.14432812e-08,1.94157812e-01
-4.14032812e-08,1.93889063e-01
-4.13632812e-08,1.93648437e-01
-4.13232812e-08,1.93728125e-01
-4.12832812e-08,1.93682812e-01
-4.12432812e-08,1.93712500e-01
-4.12032812e-08,1.93690625e-01
-4.11632812e-08,1.93706250e-01
-4.11232812e-08,1.93696875e-01
-4.10832812e-08,1.93701563e-01
-4.10432813e-08,1.93701563e-01
-4.10032812e-08,1.93695312e-01
-4.09632812e-08,1.93709375e-01
-4.09232812e-08,1.93679688e-01
-4.08832812e-08,1.93745313e-01
-4.08432812e-08,1.93501563e-01
-4.08032812e-08,1.93235938e-01
-4.07632813e-08,1.93340625e-01
-4.07232812e-08,1.93268750e-01
-4.06832812e-08,1.93326563e-01
-4.06432812e-08,1.93275000e-01
-4.06032812e-08,1.93323438e-01
-4.05632812e-08,1.93278125e-01
-4.05232812e-08,1.93321875e-01
-4.04832813e-08,1.93276562e-01
-4.04432812e-08,1.93323438e-01
-4.04032812e-08,1.93273438e-01
-4.03632812e-08,1.93331250e-01
-4.03232812e-08,1.93259375e-01
-4.02832812e-08,1.93365625e-01
-4.02432812e-08,1.93082813e-01
-4.02032813e-08,1.92854688e-01
-4.01632812e-08,1.92920312e-01
-4.01232812e-08,1.92887500e-01
-4.00832812e-08,1.92906250e-01
-4.00432812e-08,1.92895312e-01
-4.00032812e-08,1.92901563e-01
-3.99632812e-08,1.92900000e-01
-3.99232813e-08,1.92900000e-01
-3.98832812e-08,1.92901563e-01
-3.98432812e-08,1.92898438e-01
-3.98032812e-08,1.92903125e-01
-3.97632812e-08,1.92896875e-01
-3.97232812e-08,1.92903125e-01
-3.96832812e-08,1.92896875e-01
-3.96432813e-08,1.92904688e-01
-3.96032812e-08,1.92895312e-01
-3.95632812e-08,1.92904688e-01
-3.95232812e-08,1.92895312e-01
-3.94832812e-08,1.92906250e-01
-3.94432812e-08,1.92893750e-01
-3.94032813e-08,1.92906250e-01
-3.93632812e-08,1.92893750e-01
-3.93232812e-08,1.92907812e-01
-3.92832812e-08,1.92892188e-01
-3.92432812e-08,1.92907812e-01
-3.92032812e-08,1.92890625e-01
-3.91632812e-08,1.92909375e-01
-3.91232813e-08,1.92889063e-01
-3.90832812e-08,1.92910938e-01
-3.90432812e-08,1.92887500e-01
-3.90032812e-08,1.92914063e-01
-3.89632812e-08,1.92884375e-01
-3.89232812e-08,1.92918750e-01
-3.88832812e-08,1.92875000e-01
-3.88432813e-08,1.92934375e-01
-3.88032812e-08,1.92840625e-01
-3.87632812e-08,1.93112500e-01
-3.87232812e-08,1.93350000e-01
-3.86832812e-08,1.93275000e-01
-3.86432812e-08,1.93315625e-01
-3.86032812e-08,1.93289062e-01
-3.85632813e-08,1.93307813e-01
-3.85232812e-08,1.93295313e-01
