trails/0b2e18f6fa2cac99b521e237471ff731/aes_ch1_20250507110728776.csv

Model,MSO66B
Label,
Waveform Type,ANALOG
Horizontal Units,s
Sample Interval,4.00000000e-11
Record Length,10000
Zero Index,1599.10937500
Vertical Units,A
ANALOG_Thumbnail,
yOffset,1.84500000e-01
yPosition,8.40000000e-01

Labels,
TIME,CH1
-6.39643750e-08,1.96685938e-01
-6.39243750e-08,1.96451563e-01
-6.38843750e-08,1.96525000e-01
-6.38443750e-08,1.96484375e-01
-6.38043750e-08,1.96510938e-01
-6.37643750e-08,1.96492187e-01
-6.37243750e-08,1.96504687e-01
-6.36843750e-08,1.96496875e-01
-6.36443750e-08,1.96503125e-01
-6.36043750e-08,1.96498438e-01
-6.35643750e-08,1.96500000e-01
-6.35243750e-08,1.96501563e-01
-6.34843750e-08,1.96496875e-01
-6.34443750e-08,1.96504687e-01
-6.34043750e-08,1.96492187e-01
-6.33643750e-08,1.96512500e-01
-6.33243750e-08,1.96478125e-01
-6.32843750e-08,1.96546875e-01
-6.32443750e-08,1.96300000e-01
-6.32043750e-08,1.96035938e-01
-6.31643750e-08,1.96140625e-01
-6.31243750e-08,1.96068750e-01
-6.30843750e-08,1.96128125e-01
-6.30443750e-08,1.96073438e-01
-6.30043750e-08,1.96126563e-01
-6.29643750e-08,1.96071875e-01
-6.29243750e-08,1.96131250e-01
-6.28843750e-08,1.96059375e-01
-6.28443750e-08,1.96165625e-01
-6.28043750e-08,1.95882813e-01
-6.27643750e-08,1.95654688e-01
-6.27243750e-08,1.95721875e-01
-6.26843750e-08,1.95687500e-01
-6.26443750e-08,1.95707813e-01
-6.26043750e-08,1.95695312e-01
-6.25643750e-08,1.95703125e-01
-6.25243750e-08,1.95698438e-01
-6.24843750e-08,1.95700000e-01
-6.24443750e-08,1.95700000e-01
-6.24043750e-08,1.95700000e-01
-6.23643750e-08,1.95701563e-01
-6.23243750e-08,1.95698438e-01
-6.22843750e-08,1.95701563e-01
-6.22443750e-08,1.95696875e-01
-6.22043750e-08,1.95703125e-01
-6.21643750e-08,1.95696875e-01
-6.21243750e-08,1.95703125e-01
-6.20843750e-08,1.95696875e-01
-6.20443750e-08,1.95704688e-01
-6.20043750e-08,1.95695312e-01
-6.19643750e-08,1.95704688e-01
-6.19243750e-08,1.95695312e-01
-6.18843750e-08,1.95706250e-01
-6.18443750e-08,1.95693750e-01
-6.18043750e-08,1.95706250e-01
-6.17643750e-08,1.95693750e-01
-6.17243750e-08,1.95707813e-01
-6.16843750e-08,1.95692188e-01
-6.16443750e-08,1.95709375e-01
-6.16043750e-08,1.95689063e-01
-6.15643750e-08,1.95712500e-01
-6.15243750e-08,1.95685938e-01
-6.14843750e-08,1.95717188e-01
-6.14443750e-08,1.95678125e-01
-6.14043750e-08,1.95732813e-01
-6.13643750e-08,1.95642188e-01
-6.13243750e-08,1.95910937e-01
-6.12843750e-08,1.96151563e-01
-6.12443750e-08,1.96071875e-01
-6.12043750e-08,1.96118750e-01
-6.11643750e-08,1.96085938e-01
-6.11243750e-08,1.96110937e-01
-6.10843750e-08,1.96092188e-01
-6.10443750e-08,1.96106250e-01
-6.10043750e-08,1.96093750e-01
-6.09643750e-08,1.96104688e-01
-6.09243750e-08,1.96096875e-01
-6.08843750e-08,1.96103125e-01
-6.08443750e-08,1.96096875e-01
-6.08043750e-08,1.96101562e-01
-6.07643750e-08,1.96098438e-01
-6.07243750e-08,1.96101562e-01
-6.06843750e-08,1.96098438e-01
-6.06443750e-08,1.96101562e-01
-6.06043750e-08,1.96100000e-01
-6.05643750e-08,1.96100000e-01
-6.05243750e-08,1.96100000e-01
-6.04843750e-08,1.96100000e-01
-6.04443750e-08,1.96100000e-01
-6.04043750e-08,1.96100000e-01
-6.03643750e-08,1.96101562e-01
-6.03243750e-08,1.96098438e-01
-6.02843750e-08,1.96101562e-01
-6.02443750e-08,1.96098438e-01
-6.02043750e-08,1.96101562e-01
-6.01643750e-08,1.96098438e-01
-6.01243750e-08,1.96101562e-01
-6.00843750e-08,1.96098438e-01
-6.00443750e-08,1.96103125e-01
-6.00043750e-08,1.96096875e-01
-5.99643750e-08,1.96103125e-01
-5.99243750e-08,1.96096875e-01
-5.98843750e-08,1.96103125e-01
-5.98443750e-08,1.96095313e-01
-5.98043750e-08,1.96104688e-01
-5.97643750e-08,1.96095313e-01
-5.97243750e-08,1.96106250e-01
-5.96843750e-08,1.96093750e-01
-5.96443750e-08,1.96106250e-01
-5.96043750e-08,1.96092188e-01
-5.95643750e-08,1.96109375e-01
-5.95243750e-08,1.96089063e-01
-5.94843750e-08,1.96112500e-01
-5.94443750e-08,1.96084375e-01
-5.94043750e-08,1.96120313e-01
-5.93643750e-08,1.96068750e-01
-5.93243750e-08,1.96156250e-01
-5.92843750e-08,1.95890625e-01
-5.92443750e-08,1.95646875e-01
-5.92043750e-08,1.95729687e-01
-5.91643750e-08,1.95679688e-01
-5.91243750e-08,1.95715625e-01
-5.90843750e-08,1.95687500e-01
-5.90443750e-08,1.95709375e-01
-5.90043750e-08,1.95692188e-01
-5.89643750e-08,1.95707813e-01
-5.89243750e-08,1.95693750e-01
-5.88843750e-08,1.95706250e-01
-5.88443750e-08,1.95695312e-01
-5.88043750e-08,1.95704688e-01
-5.87643750e-08,1.95695312e-01
-5.87243750e-08,1.95703125e-01
-5.86843750e-08,1.95696875e-01
-5.86443750e-08,1.95703125e-01
-5.86043750e-08,1.95696875e-01
-5.85643750e-08,1.95703125e-01
-5.85243750e-08,1.95696875e-01
-5.84843750e-08,1.95701563e-01
-5.84443750e-08,1.95698438e-01
-5.84043750e-08,1.95701563e-01
-5.83643750e-08,1.95698438e-01
-5.83243750e-08,1.95701563e-01
-5.82843750e-08,1.95698438e-01
-5.82443750e-08,1.95701563e-01
-5.82043750e-08,1.95698438e-01
-5.81643750e-08,1.95701563e-01
-5.81243750e-08,1.95698438e-01
-5.80843750e-08,1.95701563e-01
-5.80443750e-08,1.95698438e-01
-5.80043750e-08,1.95700000e-01
-5.79643750e-08,1.95700000e-01
-5.79243750e-08,1.95700000e-01
-5.78843750e-08,1.95700000e-01
-5.78443750e-08,1.95700000e-01
-5.78043750e-08,1.95700000e-01
-5.77643750e-08,1.95700000e-01
-5.77243750e-08,1.95700000e-01
-5.76843750e-08,1.95700000e-01
-5.76443750e-08,1.95700000e-01
-5.76043750e-08,1.95700000e-01
-5.75643750e-08,1.95700000e-01
-5.75243750e-08,1.95700000e-01
-5.74843750e-08,1.95700000e-01
-5.74443750e-08,1.95700000e-01
-5.74043750e-08,1.95700000e-01
-5.73643750e-08,1.95700000e-01
-5.73243750e-08,1.95700000e-01
-5.72843750e-08,1.95700000e-01
-5.72443750e-08,1.95700000e-01
-5.72043750e-08,1.95700000e-01
-5.71643750e-08,1.95700000e-01
-5.71243750e-08,1.95701563e-01
-5.70843750e-08,1.95698438e-01
-5.70443750e-08,1.95701563e-01
-5.70043750e-08,1.95698438e-01
-5.69643750e-08,1.95703125e-01
-5.69243750e-08,1.95696875e-01
-5.68843750e-08,1.95704688e-01
-5.68443750e-08,1.95693750e-01
-5.68043750e-08,1.95709375e-01
-5.67643750e-08,1.95685938e-01
-5.67243750e-08,1.95723438e-01
-5.66843750e-08,1.95653125e-01
-5.66443750e-08,1.95900000e-01
-5.66043750e-08,1.96164063e-01
-5.65643750e-08,1.96059375e-01
-5.65243750e-08,1.96132813e-01
-5.64843750e-08,1.96070313e-01
-5.64443750e-08,1.96128125e-01
-5.64043750e-08,1.96070313e-01
-5.63643750e-08,1.96132813e-01
-5.63243750e-08,1.96057813e-01
-5.62843750e-08,1.96165625e-01
-5.62443750e-08,1.95881250e-01
-5.62043750e-08,1.95656250e-01
-5.61643750e-08,1.95720312e-01
-5.61243750e-08,1.95689063e-01
-5.60843750e-08,1.95706250e-01
-5.60443750e-08,1.95696875e-01
-5.60043750e-08,1.95700000e-01
-5.59643750e-08,1.95701563e-01
-5.59243750e-08,1.95698438e-01
-5.58843750e-08,1.95703125e-01
-5.58443750e-08,1.95695312e-01
-5.58043750e-08,1.95706250e-01
-5.57643750e-08,1.95692188e-01
-5.57243750e-08,1.95707813e-01
-5.56843750e-08,1.95689063e-01
-5.56443750e-08,1.95712500e-01
-5.56043750e-08,1.95684375e-01
-5.55643750e-08,1.95721875e-01
-5.55243750e-08,1.95668750e-01
-5.54843750e-08,1.95756250e-01
-5.54443750e-08,1.95490625e-01
-5.54043750e-08,1.95246875e-01
-5.53643750e-08,1.95328125e-01
-5.53243750e-08,1.95281250e-01
-5.52843750e-08,1.95314062e-01
-5.52443750e-08,1.95289062e-01
-5.52043750e-08,1.95309375e-01
-5.51643750e-08,1.95293750e-01
-5.51243750e-08,1.95306250e-01
-5.50843750e-08,1.95295313e-01
-5.50443750e-08,1.95303125e-01
-5.50043750e-08,1.95296875e-01
-5.49643750e-08,1.95303125e-01
-5.49243750e-08,1.95298438e-01
-5.48843750e-08,1.95301562e-01
-5.48443750e-08,1.95298438e-01
-5.48043750e-08,1.95300000e-01
-5.47643750e-08,1.95300000e-01
-5.47243750e-08,1.95300000e-01
-5.46843750e-08,1.95301562e-01
-5.46443750e-08,1.95298438e-01
-5.46043750e-08,1.95301562e-01
-5.45643750e-08,1.95296875e-01
-5.45243750e-08,1.95303125e-01
-5.44843750e-08,1.95295313e-01
-5.44443750e-08,1.95304688e-01
-5.44043750e-08,1.95293750e-01
-5.43643750e-08,1.95307813e-01
-5.43243750e-08,1.95290625e-01
-5.42843750e-08,1.95312500e-01
-5.42443750e-08,1.95281250e-01
-5.42043750e-08,1.95328125e-01
-5.41643750e-08,1.95246875e-01
-5.41243750e-08,1.95506250e-01
-5.40843750e-08,1.95756250e-01
-5.40443750e-08,1.95667188e-01
-5.40043750e-08,1.95723438e-01
-5.39643750e-08,1.95681250e-01
-5.39243750e-08,1.95715625e-01
-5.38843750e-08,1.95685938e-01
-5.38443750e-08,1.95714063e-01
-5.38043750e-08,1.95687500e-01
-5.37643750e-08,1.95712500e-01
-5.37243750e-08,1.95687500e-01
-5.36843750e-08,1.95714063e-01
-5.36443750e-08,1.95684375e-01
-5.36043750e-08,1.95717188e-01
-5.35643750e-08,1.95678125e-01
-5.35243750e-08,1.95731250e-01
-5.34843750e-08,1.95643750e-01
-5.34443750e-08,1.95907813e-01
-5.34043750e-08,1.96154688e-01
-5.33643750e-08,1.96068750e-01
-5.33243750e-08,1.96121875e-01
-5.32843750e-08,1.96082813e-01
-5.32443750e-08,1.96115625e-01
-5.32043750e-08,1.96085938e-01
-5.31643750e-08,1.96112500e-01
-5.31243750e-08,1.96087500e-01
-5.30843750e-08,1.96112500e-01
-5.30443750e-08,1.96087500e-01
-5.30043750e-08,1.96112500e-01
-5.29643750e-08,1.96085938e-01
-5.29243750e-08,1.96115625e-01
-5.28843750e-08,1.96082813e-01
-5.28443750e-08,1.96120313e-01
-5.28043750e-08,1.96075000e-01
-5.27643750e-08,1.96134375e-01
-5.27243750e-08,1.96040625e-01
-5.26843750e-08,1.96312500e-01
-5.26443750e-08,1.96550000e-01
-5.26043750e-08,1.96473438e-01
-5.25643750e-08,1.96517187e-01
-5.25243750e-08,1.96487500e-01
-5.24843750e-08,1.96509375e-01
-5.24443750e-08,1.96493750e-01
-5.24043750e-08,1.96504687e-01
-5.23643750e-08,1.96495313e-01
-5.23243750e-08,1.96503125e-01
-5.22843750e-08,1.96496875e-01
-5.22443750e-08,1.96501563e-01
-5.22043750e-08,1.96498438e-01
-5.21643750e-08,1.96500000e-01
-5.21243750e-08,1.96500000e-01
-5.20843750e-08,1.96500000e-01
-5.20443750e-08,1.96501563e-01
-5.20043750e-08,1.96498438e-01
-5.19643750e-08,1.96501563e-01
-5.19243750e-08,1.96498438e-01
-5.18843750e-08,1.96501563e-01
-5.18443750e-08,1.96496875e-01
-5.18043750e-08,1.96503125e-01
-5.17643750e-08,1.96496875e-01
-5.17243750e-08,1.96504687e-01
-5.16843750e-08,1.96495313e-01
-5.16443750e-08,1.96504687e-01
-5.16043750e-08,1.96495313e-01
-5.15643750e-08,1.96506250e-01
-5.15243750e-08,1.96493750e-01
-5.14843750e-08,1.96507813e-01
-5.14443750e-08,1.96492187e-01
-5.14043750e-08,1.96509375e-01
-5.13643750e-08,1.96489063e-01
-5.13243750e-08,1.96512500e-01
-5.12843750e-08,1.96485938e-01
-5.12443750e-08,1.96515625e-01
-5.12043750e-08,1.96479687e-01
-5.11643750e-08,1.96525000e-01
-5.11243750e-08,1.96464063e-01
-5.10843750e-08,1.96560938e-01
-5.10443750e-08,1.96285938e-01
-5.10043750e-08,1.96053125e-01
-5.09643750e-08,1.96121875e-01
-5.09243750e-08,1.96089063e-01
-5.08843750e-08,1.96104688e-01
-5.08443750e-08,1.96101562e-01
-5.08043750e-08,1.96093750e-01
-5.07643750e-08,1.96114063e-01
-5.07243750e-08,1.96075000e-01
-5.06843750e-08,1.96151563e-01
-5.06443750e-08,1.95893750e-01
-5.06043750e-08,1.95645313e-01
-5.05643750e-08,1.95729687e-01
-5.05243750e-08,1.95682812e-01
-5.04843750e-08,1.95709375e-01
-5.04443750e-08,1.95698438e-01
-5.04043750e-08,1.95690625e-01
-5.03643750e-08,1.95735938e-01
-5.03243750e-08,1.95510938e-01
-5.02843750e-08,1.95228125e-01
-5.02443750e-08,1.95348437e-01
-5.02043750e-08,1.95259375e-01
-5.01643750e-08,1.95335938e-01
-5.01243750e-08,1.95264063e-01
-5.00843750e-08,1.95339062e-01
-5.00443750e-08,1.95253125e-01
-5.00043750e-08,1.95370313e-01
-4.99643750e-08,1.95078125e-01
-4.99243750e-08,1.94857813e-01
-4.98843750e-08,1.94918750e-01
-4.98443750e-08,1.94889063e-01
-4.98043750e-08,1.94906250e-01
-4.97643750e-08,1.94896875e-01
-4.97243750e-08,1.94901563e-01
-4.96843750e-08,1.94898438e-01
-4.96443750e-08,1.94900000e-01
-4.96043750e-08,1.94900000e-01
-4.95643750e-08,1.94900000e-01
-4.95243750e-08,1.94900000e-01
-4.94843750e-08,1.94900000e-01
-4.94443750e-08,1.94900000e-01
-4.94043750e-08,1.94900000e-01
-4.93643750e-08,1.94900000e-01
-4.93243750e-08,1.94900000e-01
-4.92843750e-08,1.94900000e-01
-4.92443750e-08,1.94900000e-01
-4.92043750e-08,1.94900000e-01
-4.91643750e-08,1.94900000e-01
-4.91243750e-08,1.94900000e-01
-4.90843750e-08,1.94900000e-01
-4.90443750e-08,1.94898438e-01
-4.90043750e-08,1.94901563e-01
-4.89643750e-08,1.94898438e-01
-4.89243750e-08,1.94903125e-01
-4.88843750e-08,1.94896875e-01
-4.88443750e-08,1.94903125e-01
-4.88043750e-08,1.94895313e-01
-4.87643750e-08,1.94906250e-01
-4.87243750e-08,1.94892188e-01
-4.86843750e-08,1.94910937e-01
-4.86443750e-08,1.94882813e-01
-4.86043750e-08,1.94926563e-01
-4.85643750e-08,1.94850000e-01
-4.85243750e-08,1.95103125e-01
-4.84843750e-08,1.95359375e-01
-4.84443750e-08,1.95265625e-01
-4.84043750e-08,1.95326563e-01
-4.83643750e-08,1.95278125e-01
-4.83243750e-08,1.95318750e-01
-4.82843750e-08,1.95282813e-01
-4.82443750e-08,1.95315625e-01
-4.82043750e-08,1.95284375e-01
-4.81643750e-08,1.95315625e-01
-4.81243750e-08,1.95284375e-01
-4.80843750e-08,1.95315625e-01
-4.80443750e-08,1.95282813e-01
-4.80043750e-08,1.95320313e-01
-4.79643750e-08,1.95275000e-01
-4.79243750e-08,1.95334375e-01
-4.78843750e-08,1.95240625e-01
-4.78443750e-08,1.95510938e-01
-4.78043750e-08,1.95751563e-01
-4.77643750e-08,1.95671875e-01
-4.77243750e-08,1.95718750e-01
-4.76843750e-08,1.95685938e-01
-4.76443750e-08,1.95710938e-01
-4.76043750e-08,1.95690625e-01
-4.75643750e-08,1.95707813e-01
-4.75243750e-08,1.95692188e-01
-4.74843750e-08,1.95707813e-01
-4.74443750e-08,1.95692188e-01
-4.74043750e-08,1.95707813e-01
-4.73643750e-08,1.95692188e-01
-4.73243750e-08,1.95707813e-01
-4.72843750e-08,1.95692188e-01
-4.72443750e-08,1.95709375e-01
-4.72043750e-08,1.95689063e-01
-4.71643750e-08,1.95712500e-01
-4.71243750e-08,1.95684375e-01
-4.70843750e-08,1.95720312e-01
-4.70443750e-08,1.95670312e-01
-4.70043750e-08,1.95754687e-01
-4.69643750e-08,1.95492187e-01
-4.69243750e-08,1.95245313e-01
-4.68843750e-08,1.95331250e-01
-4.68443750e-08,1.95278125e-01
-4.68043750e-08,1.95317188e-01
-4.67643750e-08,1.95285938e-01
-4.67243750e-08,1.95312500e-01
-4.66843750e-08,1.95289062e-01
-4.66443750e-08,1.95310938e-01
-4.66043750e-08,1.95290625e-01
-4.65643750e-08,1.95309375e-01
-4.65243750e-08,1.95290625e-01
-4.64843750e-08,1.95309375e-01
-4.64443750e-08,1.95289062e-01
-4.64043750e-08,1.95310938e-01
-4.63643750e-08,1.95287500e-01
-4.63243750e-08,1.95314062e-01
-4.62843750e-08,1.95284375e-01
-4.62443750e-08,1.95320313e-01
-4.62043750e-08,1.95270313e-01
-4.61643750e-08,1.95354688e-01
-4.61243750e-08,1.95092188e-01
-4.60843750e-08,1.94843750e-01
-4.60443750e-08,1.94932812e-01
-4.60043750e-08,1.94876563e-01
-4.59643750e-08,1.94918750e-01
-4.59243750e-08,1.94882813e-01
-4.58843750e-08,1.94915625e-01
-4.58443750e-08,1.94884375e-01
-4.58043750e-08,1.94915625e-01
-4.57643750e-08,1.94882813e-01
-4.57243750e-08,1.94920312e-01
-4.56843750e-08,1.94875000e-01
-4.56443750e-08,1.94934375e-01
-4.56043750e-08,1.94842188e-01
-4.55643750e-08,1.95110937e-01
-4.55243750e-08,1.95351563e-01
-4.54843750e-08,1.95271875e-01
-4.54443750e-08,1.95318750e-01
-4.54043750e-08,1.95285938e-01
-4.53643750e-08,1.95310938e-01
-4.53243750e-08,1.95290625e-01
-4.52843750e-08,1.95307813e-01
-4.52443750e-08,1.95293750e-01
-4.52043750e-08,1.95306250e-01
-4.51643750e-08,1.95295313e-01
-4.51243750e-08,1.95304688e-01
-4.50843750e-08,1.95295313e-01
-4.50443750e-08,1.95303125e-01
-4.50043750e-08,1.95296875e-01
-4.49643750e-08,1.95303125e-01
-4.49243750e-08,1.95296875e-01
-4.48843750e-08,1.95303125e-01
-4.48443750e-08,1.95296875e-01
-4.48043750e-08,1.95301562e-01
-4.47643750e-08,1.95298438e-01
-4.47243750e-08,1.95301562e-01
-4.46843750e-08,1.95298438e-01
-4.46443750e-08,1.95301562e-01
-4.46043750e-08,1.95298438e-01
-4.45643750e-08,1.95301562e-01
-4.45243750e-08,1.95298438e-01
-4.44843750e-08,1.95301562e-01
-4.44443750e-08,1.95298438e-01
-4.44043750e-08,1.95301562e-01
-4.43643750e-08,1.95298438e-01
-4.43243750e-08,1.95301562e-01
-4.42843750e-08,1.95298438e-01
-4.42443750e-08,1.95300000e-01
-4.42043750e-08,1.95300000e-01
-4.41643750e-08,1.95300000e-01
-4.41243750e-08,1.95300000e-01
-4.40843750e-08,1.95300000e-01
-4.40443750e-08,1.95300000e-01
-4.40043750e-08,1.95300000e-01
-4.39643750e-08,1.95300000e-01
-4.39243750e-08,1.95300000e-01
-4.38843750e-08,1.95300000e-01
-4.38443750e-08,1.95300000e-01
-4.38043750e-08,1.95300000e-01
-4.37643750e-08,1.95300000e-01
-4.37243750e-08,1.95300000e-01
-4.36843750e-08,1.95300000e-01
-4.36443750e-08,1.95300000e-01
-4.36043750e-08,1.95300000e-01
-4.35643750e-08,1.95300000e-01
-4.35243750e-08,1.95298438e-01
-4.34843750e-08,1.95301562e-01
-4.34443750e-08,1.95298438e-01
-4.34043750e-08,1.95301562e-01
-4.33643750e-08,1.95298438e-01
-4.33243750e-08,1.95301562e-01
-4.32843750e-08,1.95298438e-01
-4.32443750e-08,1.95301562e-01
-4.32043750e-08,1.95298438e-01
-4.31643750e-08,1.95301562e-01
-4.31243750e-08,1.95298438e-01
-4.30843750e-08,1.95303125e-01
-4.30443750e-08,1.95296875e-01
-4.30043750e-08,1.95303125e-01
-4.29643750e-08,1.95296875e-01
-4.29243750e-08,1.95303125e-01
-4.28843750e-08,1.95296875e-01
-4.28443750e-08,1.95304688e-01
-4.28043750e-08,1.95295313e-01
-4.27643750e-08,1.95306250e-01
-4.27243750e-08,1.95293750e-01
-4.26843750e-08,1.95307813e-01
-4.26443750e-08,1.95292188e-01
-4.26043750e-08,1.95309375e-01
-4.25643750e-08,1.95287500e-01
-4.25243750e-08,1.95315625e-01
-4.24843750e-08,1.95279688e-01
-4.24443750e-08,1.95329688e-01
-4.24043750e-08,1.95245313e-01
-4.23643750e-08,1.95507813e-01
-4.23243750e-08,1.95754687e-01
-4.22843750e-08,1.95670312e-01
-4.22443750e-08,1.95720312e-01
-4.22043750e-08,1.95684375e-01
-4.21643750e-08,1.95712500e-01
-4.21243750e-08,1.95689063e-01
-4.20843750e-08,1.95709375e-01
-4.20443750e-08,1.95692188e-01
-4.20043750e-08,1.95706250e-01
-4.19643750e-08,1.95693750e-01
-4.19243750e-08,1.95704688e-01
-4.18843750e-08,1.95695312e-01
-4.18443750e-08,1.95704688e-01
-4.18043750e-08,1.95696875e-01
-4.17643750e-08,1.95703125e-01
-4.17243750e-08,1.95696875e-01
-4.16843750e-08,1.95703125e-01
-4.16443750e-08,1.95698438e-01
-4.16043750e-08,1.95701563e-01
-4.15643750e-08,1.95698438e-01
-4.15243750e-08,1.95700000e-01
-4.14843750e-08,1.95700000e-01
-4.14443750e-08,1.95700000e-01
-4.14043750e-08,1.95701563e-01
-4.13643750e-08,1.95696875e-01
-4.13243750e-08,1.95704688e-01
-4.12843750e-08,1.95693750e-01
-4.12443750e-08,1.95709375e-01
-4.12043750e-08,1.95685938e-01
-4.11643750e-08,1.95723438e-01
-4.11243750e-08,1.95651563e-01
-4.10843750e-08,1.95901563e-01
-4.10443750e-08,1.96160938e-01
-4.10043750e-08,1.96062500e-01
-4.09643750e-08,1.96129688e-01
-4.09243750e-08,1.96075000e-01
-4.08843750e-08,1.96121875e-01
-4.08443750e-08,1.96078125e-01
-4.08043750e-08,1.96120313e-01
-4.07643750e-08,1.96078125e-01
-4.07243750e-08,1.96121875e-01
-4.06843750e-08,1.96075000e-01
-4.06443750e-08,1.96129688e-01
-4.06043750e-08,1.96060938e-01
-4.05643750e-08,1.96162500e-01
-4.05243750e-08,1.95884375e-01
-4.04843750e-08,1.95653125e-01
-4.04443750e-08,1.95723438e-01
-4.04043750e-08,1.95685938e-01
-4.03643750e-08,1.95707813e-01
-4.03243750e-08,1.95693750e-01
-4.02843750e-08,1.95703125e-01
-4.02443750e-08,1.95698438e-01
-4.02043750e-08,1.95700000e-01
-4.01643750e-08,1.95701563e-01
-4.01243750e-08,1.95698438e-01
-4.00843750e-08,1.95703125e-01
-4.00443750e-08,1.95695312e-01
-4.00043750e-08,1.95707813e-01
-3.99643750e-08,1.95689063e-01
-3.99243750e-08,1.95715625e-01
-3.98843750e-08,1.95675000e-01
-3.98443750e-08,1.95750000e-01
-3.98043750e-08,1.95496875e-01
-3.97643750e-08,1.95240625e-01
-3.97243750e-08,1.95337500e-01
-3.96843750e-08,1.95271875e-01
-3.96443750e-08,1.95323438e-01
-3.96043750e-08,1.95278125e-01
-3.95643750e-08,1.95321875e-01
-3.95243750e-08,1.95276563e-01
-3.94843750e-08,1.95328125e-01
-3.94443750e-08,1.95264063e-01
-3.94043750e-08,1.95359375e-01
-3.93643750e-08,1.95087500e-01
-3.93243750e-08,1.94850000e-01
-3.92843750e-08,1.94928125e-01
-3.92443750e-08,1.94881250e-01
-3.92043750e-08,1.94915625e-01
-3.91643750e-08,1.94887500e-01
-3.91243750e-08,1.94912500e-01
-3.90843750e-08,1.94887500e-01
-3.90443750e-08,1.94912500e-01
-3.90043750e-08,1.94884375e-01
-3.89643750e-08,1.94920312e-01
-3.89243750e-08,1.94871875e-01
-3.88843750e-08,1.94953125e-01
-3.88443750e-08,1.94693750e-01
-3.88043750e-08,1.94443750e-01
-3.87643750e-08,1.94534375e-01
-3.87243750e-08,1.94475000e-01
-3.86843750e-08,1.94520313e-01
-3.86443750e-08,1.94482813e-01
-3.86043750e-08,1.94515625e-01
-3.85643750e-08,1.94484375e-01
-3.85243750e-08,1.94514063e-01
