trails/0b2e18f6fa2cac99b521e237471ff731/aes_ch1_20250507110310032.csv

Model,MSO66B
Label,
Waveform Type,ANALOG
Horizontal Units,s
Sample Interval,4.00000000e-11
Record Length,10000
Zero Index,1599.06250000
Vertical Units,A
ANALOG_Thumbnail,
yOffset,1.84500000e-01
yPosition,8.40000000e-01

Labels,
TIME,CH1
-6.39625000e-08,1.96118750e-01
-6.39225000e-08,1.96081250e-01
-6.38825000e-08,1.96117188e-01
-6.38425000e-08,1.96082813e-01
-6.38025000e-08,1.96118750e-01
-6.37625000e-08,1.96081250e-01
-6.37225000e-08,1.96120313e-01
-6.36825000e-08,1.96076562e-01
-6.36425000e-08,1.96128125e-01
-6.36025000e-08,1.96062500e-01
-6.35625000e-08,1.96160938e-01
-6.35225000e-08,1.95885937e-01
-6.34825000e-08,1.95651563e-01
-6.34425000e-08,1.95725000e-01
-6.34025000e-08,1.95684375e-01
-6.33625000e-08,1.95710938e-01
-6.33225000e-08,1.95690625e-01
-6.32825000e-08,1.95706250e-01
-6.32425000e-08,1.95693750e-01
-6.32025000e-08,1.95704688e-01
-6.31625000e-08,1.95695312e-01
-6.31225000e-08,1.95704688e-01
-6.30825000e-08,1.95696875e-01
-6.30425000e-08,1.95703125e-01
-6.30025000e-08,1.95696875e-01
-6.29625000e-08,1.95703125e-01
-6.29225000e-08,1.95695312e-01
-6.28825000e-08,1.95704688e-01
-6.28425000e-08,1.95695312e-01
-6.28025000e-08,1.95704688e-01
-6.27625000e-08,1.95693750e-01
-6.27225000e-08,1.95707813e-01
-6.26825000e-08,1.95692188e-01
-6.26425000e-08,1.95710938e-01
-6.26025000e-08,1.95685938e-01
-6.25625000e-08,1.95718750e-01
-6.25225000e-08,1.95671875e-01
-6.24825000e-08,1.95753125e-01
-6.24425000e-08,1.95493750e-01
-6.24025000e-08,1.95243750e-01
-6.23625000e-08,1.95332813e-01
-6.23225000e-08,1.95276563e-01
-6.22825000e-08,1.95318750e-01
-6.22425000e-08,1.95284375e-01
-6.22025000e-08,1.95314062e-01
-6.21625000e-08,1.95287500e-01
-6.21225000e-08,1.95310938e-01
-6.20825000e-08,1.95289062e-01
-6.20425000e-08,1.95309375e-01
-6.20025000e-08,1.95290625e-01
-6.19625000e-08,1.95309375e-01
-6.19225000e-08,1.95290625e-01
-6.18825000e-08,1.95309375e-01
-6.18425000e-08,1.95290625e-01
-6.18025000e-08,1.95309375e-01
-6.17625000e-08,1.95290625e-01
-6.17225000e-08,1.95309375e-01
-6.16825000e-08,1.95289062e-01
-6.16425000e-08,1.95310938e-01
-6.16025000e-08,1.95287500e-01
-6.15625000e-08,1.95314062e-01
-6.15225000e-08,1.95282813e-01
-6.14825000e-08,1.95321875e-01
-6.14425000e-08,1.95268750e-01
-6.14025000e-08,1.95356250e-01
-6.13625000e-08,1.95090625e-01
-6.13225000e-08,1.94846875e-01
-6.12825000e-08,1.94929688e-01
-6.12425000e-08,1.94879688e-01
-6.12025000e-08,1.94915625e-01
-6.11625000e-08,1.94887500e-01
-6.11225000e-08,1.94910937e-01
-6.10825000e-08,1.94889063e-01
-6.10425000e-08,1.94909375e-01
-6.10025000e-08,1.94890625e-01
-6.09625000e-08,1.94909375e-01
-6.09225000e-08,1.94890625e-01
-6.08825000e-08,1.94909375e-01
-6.08425000e-08,1.94890625e-01
-6.08025000e-08,1.94909375e-01
-6.07625000e-08,1.94890625e-01
-6.07225000e-08,1.94910937e-01
-6.06825000e-08,1.94887500e-01
-6.06425000e-08,1.94914063e-01
-6.06025000e-08,1.94882813e-01
-6.05625000e-08,1.94921875e-01
-6.05225000e-08,1.94868750e-01
-6.04825000e-08,1.94956250e-01
-6.04425000e-08,1.94690625e-01
-6.04025000e-08,1.94446875e-01
-6.03625000e-08,1.94529687e-01
-6.03225000e-08,1.94479687e-01
-6.02825000e-08,1.94514063e-01
-6.02425000e-08,1.94487500e-01
-6.02025000e-08,1.94509375e-01
-6.01625000e-08,1.94492187e-01
-6.01225000e-08,1.94507813e-01
-6.00825000e-08,1.94493750e-01
-6.00425000e-08,1.94506250e-01
-6.00025000e-08,1.94495313e-01
-5.99625000e-08,1.94504687e-01
-5.99225000e-08,1.94495313e-01
-5.98825000e-08,1.94504687e-01
-5.98425000e-08,1.94495313e-01
-5.98025000e-08,1.94504687e-01
-5.97625000e-08,1.94495313e-01
-5.97225000e-08,1.94504687e-01
-5.96825000e-08,1.94495313e-01
-5.96425000e-08,1.94504687e-01
-5.96025000e-08,1.94495313e-01
-5.95625000e-08,1.94504687e-01
-5.95225000e-08,1.94493750e-01
-5.94825000e-08,1.94506250e-01
-5.94425000e-08,1.94492187e-01
-5.94025000e-08,1.94510938e-01
-5.93625000e-08,1.94484375e-01
-5.93225000e-08,1.94525000e-01
-5.92825000e-08,1.94451563e-01
-5.92425000e-08,1.94701563e-01
-5.92025000e-08,1.94962500e-01
-5.91625000e-08,1.94860937e-01
-5.91225000e-08,1.94931250e-01
-5.90825000e-08,1.94873437e-01
-5.90425000e-08,1.94926563e-01
-5.90025000e-08,1.94873437e-01
-5.89625000e-08,1.94928125e-01
-5.89225000e-08,1.94867188e-01
-5.88825000e-08,1.94942188e-01
-5.88425000e-08,1.94832813e-01
-5.88025000e-08,1.95120313e-01
-5.87625000e-08,1.95340625e-01
-5.87225000e-08,1.95282813e-01
-5.86825000e-08,1.95306250e-01
-5.86425000e-08,1.95300000e-01
-5.86025000e-08,1.95295313e-01
-5.85625000e-08,1.95310938e-01
-5.85225000e-08,1.95282813e-01
-5.84825000e-08,1.95328125e-01
-5.84425000e-08,1.95245313e-01
-5.84025000e-08,1.95507813e-01
-5.83625000e-08,1.95753125e-01
-5.83225000e-08,1.95671875e-01
-5.82825000e-08,1.95717188e-01
-5.82425000e-08,1.95690625e-01
-5.82025000e-08,1.95704688e-01
-5.81625000e-08,1.95700000e-01
-5.81225000e-08,1.95692188e-01
-5.80825000e-08,1.95718750e-01
-5.80425000e-08,1.95656250e-01
-5.80025000e-08,1.95898438e-01
-5.79625000e-08,1.96164063e-01
-5.79225000e-08,1.96060938e-01
-5.78825000e-08,1.96129688e-01
-5.78425000e-08,1.96076562e-01
-5.78025000e-08,1.96120313e-01
-5.77625000e-08,1.96081250e-01
-5.77225000e-08,1.96117188e-01
-5.76825000e-08,1.96084375e-01
-5.76425000e-08,1.96114063e-01
-5.76025000e-08,1.96087500e-01
-5.75625000e-08,1.96112500e-01
-5.75225000e-08,1.96087500e-01
-5.74825000e-08,1.96110937e-01
-5.74425000e-08,1.96089063e-01
-5.74025000e-08,1.96110937e-01
-5.73625000e-08,1.96090625e-01
-5.73225000e-08,1.96109375e-01
-5.72825000e-08,1.96090625e-01
-5.72425000e-08,1.96109375e-01
-5.72025000e-08,1.96090625e-01
-5.71625000e-08,1.96109375e-01
-5.71225000e-08,1.96090625e-01
-5.70825000e-08,1.96109375e-01
-5.70425000e-08,1.96090625e-01
-5.70025000e-08,1.96107813e-01
-5.69625000e-08,1.96092188e-01
-5.69225000e-08,1.96107813e-01
-5.68825000e-08,1.96092188e-01
-5.68425000e-08,1.96107813e-01
-5.68025000e-08,1.96092188e-01
-5.67625000e-08,1.96107813e-01
-5.67225000e-08,1.96090625e-01
-5.66825000e-08,1.96109375e-01
-5.66425000e-08,1.96090625e-01
-5.66025000e-08,1.96109375e-01
-5.65625000e-08,1.96090625e-01
-5.65225000e-08,1.96109375e-01
-5.64825000e-08,1.96089063e-01
-5.64425000e-08,1.96110937e-01
-5.64025000e-08,1.96087500e-01
-5.63625000e-08,1.96112500e-01
-5.63225000e-08,1.96085938e-01
-5.62825000e-08,1.96115625e-01
-5.62425000e-08,1.96081250e-01
-5.62025000e-08,1.96123437e-01
-5.61625000e-08,1.96065625e-01
-5.61225000e-08,1.96157813e-01
-5.60825000e-08,1.95889063e-01
-5.60425000e-08,1.95648437e-01
-5.60025000e-08,1.95726563e-01
-5.59625000e-08,1.95682812e-01
-5.59225000e-08,1.95712500e-01
-5.58825000e-08,1.95690625e-01
-5.58425000e-08,1.95707813e-01
-5.58025000e-08,1.95693750e-01
-5.57625000e-08,1.95706250e-01
-5.57225000e-08,1.95695312e-01
-5.56825000e-08,1.95704688e-01
-5.56425000e-08,1.95696875e-01
-5.56025000e-08,1.95703125e-01
-5.55625000e-08,1.95696875e-01
-5.55225000e-08,1.95703125e-01
-5.54825000e-08,1.95696875e-01
-5.54425000e-08,1.95703125e-01
-5.54025000e-08,1.95696875e-01
-5.53625000e-08,1.95703125e-01
-5.53225000e-08,1.95696875e-01
-5.52825000e-08,1.95703125e-01
-5.52425000e-08,1.95696875e-01
-5.52025000e-08,1.95703125e-01
-5.51625000e-08,1.95696875e-01
-5.51225000e-08,1.95703125e-01
-5.50825000e-08,1.95696875e-01
-5.50425000e-08,1.95703125e-01
-5.50025000e-08,1.95695312e-01
-5.49625000e-08,1.95704688e-01
-5.49225000e-08,1.95693750e-01
-5.48825000e-08,1.95706250e-01
-5.48425000e-08,1.95692188e-01
-5.48025000e-08,1.95709375e-01
-5.47625000e-08,1.95687500e-01
-5.47225000e-08,1.95717188e-01
-5.46825000e-08,1.95673438e-01
-5.46425000e-08,1.95751563e-01
-5.46025000e-08,1.95495313e-01
-5.45625000e-08,1.95242187e-01
-5.45225000e-08,1.95334375e-01
-5.44825000e-08,1.95275000e-01
-5.44425000e-08,1.95320313e-01
-5.44025000e-08,1.95282813e-01
-5.43625000e-08,1.95315625e-01
-5.43225000e-08,1.95285938e-01
-5.42825000e-08,1.95314062e-01
-5.42425000e-08,1.95287500e-01
-5.42025000e-08,1.95312500e-01
-5.41625000e-08,1.95287500e-01
-5.41225000e-08,1.95314062e-01
-5.40825000e-08,1.95285938e-01
-5.40425000e-08,1.95315625e-01
-5.40025000e-08,1.95282813e-01
-5.39625000e-08,1.95320313e-01
-5.39225000e-08,1.95275000e-01
-5.38825000e-08,1.95334375e-01
-5.38425000e-08,1.95240625e-01
-5.38025000e-08,1.95512500e-01
-5.37625000e-08,1.95750000e-01
-5.37225000e-08,1.95673438e-01
-5.36825000e-08,1.95717188e-01
-5.36425000e-08,1.95687500e-01
-5.36025000e-08,1.95709375e-01
-5.35625000e-08,1.95692188e-01
-5.35225000e-08,1.95706250e-01
-5.34825000e-08,1.95693750e-01
-5.34425000e-08,1.95704688e-01
-5.34025000e-08,1.95695312e-01
-5.33625000e-08,1.95703125e-01
-5.33225000e-08,1.95696875e-01
-5.32825000e-08,1.95703125e-01
-5.32425000e-08,1.95696875e-01
-5.32025000e-08,1.95703125e-01
-5.31625000e-08,1.95698438e-01
-5.31225000e-08,1.95701563e-01
-5.30825000e-08,1.95698438e-01
-5.30425000e-08,1.95701563e-01
-5.30025000e-08,1.95698438e-01
-5.29625000e-08,1.95701563e-01
-5.29225000e-08,1.95698438e-01
-5.28825000e-08,1.95701563e-01
-5.28425000e-08,1.95698438e-01
-5.28025000e-08,1.95701563e-01
-5.27625000e-08,1.95698438e-01
-5.27225000e-08,1.95701563e-01
-5.26825000e-08,1.95698438e-01
-5.26425000e-08,1.95701563e-01
-5.26025000e-08,1.95698438e-01
-5.25625000e-08,1.95701563e-01
-5.25225000e-08,1.95698438e-01
-5.24825000e-08,1.95701563e-01
-5.24425000e-08,1.95698438e-01
-5.24025000e-08,1.95701563e-01
-5.23625000e-08,1.95698438e-01
-5.23225000e-08,1.95701563e-01
-5.22825000e-08,1.95698438e-01
-5.22425000e-08,1.95701563e-01
-5.22025000e-08,1.95698438e-01
-5.21625000e-08,1.95701563e-01
-5.21225000e-08,1.95698438e-01
-5.20825000e-08,1.95701563e-01
-5.20425000e-08,1.95698438e-01
-5.20025000e-08,1.95703125e-01
-5.19625000e-08,1.95696875e-01
-5.19225000e-08,1.95703125e-01
-5.18825000e-08,1.95696875e-01
-5.18425000e-08,1.95703125e-01
-5.18025000e-08,1.95696875e-01
-5.17625000e-08,1.95703125e-01
-5.17225000e-08,1.95695312e-01
-5.16825000e-08,1.95704688e-01
-5.16425000e-08,1.95695312e-01
-5.16025000e-08,1.95706250e-01
-5.15625000e-08,1.95693750e-01
-5.15225000e-08,1.95707813e-01
-5.14825000e-08,1.95690625e-01
-5.14425000e-08,1.95710938e-01
-5.14025000e-08,1.95685938e-01
-5.13625000e-08,1.95720312e-01
-5.13225000e-08,1.95670312e-01
-5.12825000e-08,1.95754687e-01
-5.12425000e-08,1.95492187e-01
-5.12025000e-08,1.95245313e-01
-5.11625000e-08,1.95331250e-01
-5.11225000e-08,1.95278125e-01
-5.10825000e-08,1.95317188e-01
-5.10425000e-08,1.95285938e-01
-5.10025000e-08,1.95312500e-01
-5.09625000e-08,1.95289062e-01
-5.09225000e-08,1.95309375e-01
-5.08825000e-08,1.95290625e-01
-5.08425000e-08,1.95307813e-01
-5.08025000e-08,1.95292188e-01
-5.07625000e-08,1.95307813e-01
-5.07225000e-08,1.95292188e-01
-5.06825000e-08,1.95307813e-01
-5.06425000e-08,1.95292188e-01
-5.06025000e-08,1.95307813e-01
-5.05625000e-08,1.95292188e-01
-5.05225000e-08,1.95307813e-01
-5.04825000e-08,1.95292188e-01
-5.04425000e-08,1.95309375e-01
-5.04025000e-08,1.95289062e-01
-5.03625000e-08,1.95312500e-01
-5.03225000e-08,1.95285938e-01
-5.02825000e-08,1.95318750e-01
-5.02425000e-08,1.95271875e-01
-5.02025000e-08,1.95353125e-01
-5.01625000e-08,1.95093750e-01
-5.01225000e-08,1.94842188e-01
-5.00825000e-08,1.94934375e-01
-5.00425000e-08,1.94875000e-01
-5.00025000e-08,1.94920312e-01
-4.99625000e-08,1.94881250e-01
-4.99225000e-08,1.94918750e-01
-4.98825000e-08,1.94881250e-01
-4.98425000e-08,1.94920312e-01
-4.98025000e-08,1.94878125e-01
-4.97625000e-08,1.94926563e-01
-4.97225000e-08,1.94864063e-01
-4.96825000e-08,1.94960938e-01
-4.96425000e-08,1.94685938e-01
-4.96025000e-08,1.94451563e-01
-4.95625000e-08,1.94525000e-01
-4.95225000e-08,1.94484375e-01
-4.94825000e-08,1.94510938e-01
-4.94425000e-08,1.94493750e-01
-4.94025000e-08,1.94504687e-01
-4.93625000e-08,1.94496875e-01
-4.93225000e-08,1.94500000e-01
-4.92825000e-08,1.94501563e-01
-4.92425000e-08,1.94496875e-01
-4.92025000e-08,1.94506250e-01
-4.91625000e-08,1.94490625e-01
-4.91225000e-08,1.94514063e-01
-4.90825000e-08,1.94475000e-01
-4.90425000e-08,1.94550000e-01
-4.90025000e-08,1.94296875e-01
-4.89625000e-08,1.94040625e-01
-4.89225000e-08,1.94135938e-01
-4.88825000e-08,1.94075000e-01
-4.88425000e-08,1.94120313e-01
-4.88025000e-08,1.94082813e-01
-4.87625000e-08,1.94115625e-01
-4.87225000e-08,1.94085937e-01
-4.86825000e-08,1.94112500e-01
-4.86425000e-08,1.94087500e-01
-4.86025000e-08,1.94110937e-01
-4.85625000e-08,1.94089063e-01
-4.85225000e-08,1.94109375e-01
-4.84825000e-08,1.94090625e-01
-4.84425000e-08,1.94109375e-01
-4.84025000e-08,1.94090625e-01
-4.83625000e-08,1.94109375e-01
-4.83225000e-08,1.94092188e-01
-4.82825000e-08,1.94107813e-01
-4.82425000e-08,1.94092188e-01
-4.82025000e-08,1.94107813e-01
-4.81625000e-08,1.94092188e-01
-4.81225000e-08,1.94107813e-01
-4.80825000e-08,1.94092188e-01
-4.80425000e-08,1.94107813e-01
-4.80025000e-08,1.94092188e-01
-4.79625000e-08,1.94107813e-01
-4.79225000e-08,1.94092188e-01
-4.78825000e-08,1.94107813e-01
-4.78425000e-08,1.94092188e-01
-4.78025000e-08,1.94107813e-01
-4.77625000e-08,1.94092188e-01
-4.77225000e-08,1.94107813e-01
-4.76825000e-08,1.94092188e-01
-4.76425000e-08,1.94107813e-01
-4.76025000e-08,1.94092188e-01
-4.75625000e-08,1.94107813e-01
-4.75225000e-08,1.94092188e-01
-4.74825000e-08,1.94109375e-01
-4.74425000e-08,1.94090625e-01
-4.74025000e-08,1.94109375e-01
-4.73625000e-08,1.94090625e-01
-4.73225000e-08,1.94110937e-01
-4.72825000e-08,1.94089063e-01
-4.72425000e-08,1.94112500e-01
-4.72025000e-08,1.94087500e-01
-4.71625000e-08,1.94114063e-01
-4.71225000e-08,1.94084375e-01
-4.70825000e-08,1.94118750e-01
-4.70425000e-08,1.94076562e-01
-4.70025000e-08,1.94134375e-01
-4.69625000e-08,1.94042188e-01
-4.69225000e-08,1.94310938e-01
-4.68825000e-08,1.94551562e-01
-4.68425000e-08,1.94471875e-01
-4.68025000e-08,1.94518750e-01
-4.67625000e-08,1.94485938e-01
-4.67225000e-08,1.94510938e-01
-4.66825000e-08,1.94490625e-01
-4.66425000e-08,1.94509375e-01
-4.66025000e-08,1.94492187e-01
-4.65625000e-08,1.94509375e-01
-4.65225000e-08,1.94490625e-01
-4.64825000e-08,1.94512500e-01
-4.64425000e-08,1.94484375e-01
-4.64025000e-08,1.94525000e-01
-4.63625000e-08,1.94451563e-01
-4.63225000e-08,1.94701563e-01
-4.62825000e-08,1.94962500e-01
-4.62425000e-08,1.94860937e-01
-4.62025000e-08,1.94931250e-01
-4.61625000e-08,1.94871875e-01
-4.61225000e-08,1.94926563e-01
-4.60825000e-08,1.94873437e-01
-4.60425000e-08,1.94928125e-01
-4.60025000e-08,1.94867188e-01
-4.59625000e-08,1.94942188e-01
-4.59225000e-08,1.94832813e-01
-4.58825000e-08,1.95120313e-01
-4.58425000e-08,1.95342188e-01
-4.58025000e-08,1.95281250e-01
-4.57625000e-08,1.95309375e-01
-4.57225000e-08,1.95296875e-01
-4.56825000e-08,1.95300000e-01
-4.56425000e-08,1.95303125e-01
-4.56025000e-08,1.95293750e-01
-4.55625000e-08,1.95307813e-01
-4.55225000e-08,1.95289062e-01
-4.54825000e-08,1.95315625e-01
-4.54425000e-08,1.95279688e-01
-4.54025000e-08,1.95331250e-01
-4.53625000e-08,1.95243750e-01
-4.53225000e-08,1.95509375e-01
-4.52825000e-08,1.95751563e-01
-4.52425000e-08,1.95673438e-01
-4.52025000e-08,1.95717188e-01
-4.51625000e-08,1.95689063e-01
-4.51225000e-08,1.95707813e-01
-4.50825000e-08,1.95695312e-01
-4.50425000e-08,1.95703125e-01
-4.50025000e-08,1.95700000e-01
-4.49625000e-08,1.95698438e-01
-4.49225000e-08,1.95704688e-01
-4.48825000e-08,1.95690625e-01
-4.48425000e-08,1.95714063e-01
-4.48025000e-08,1.95675000e-01
-4.47625000e-08,1.95750000e-01
-4.47225000e-08,1.95496875e-01
-4.46825000e-08,1.95240625e-01
-4.46425000e-08,1.95334375e-01
-4.46025000e-08,1.95275000e-01
-4.45625000e-08,1.95320313e-01
-4.45225000e-08,1.95282813e-01
-4.44825000e-08,1.95314062e-01
-4.44425000e-08,1.95287500e-01
-4.44025000e-08,1.95310938e-01
-4.43625000e-08,1.95289062e-01
-4.43225000e-08,1.95309375e-01
-4.42825000e-08,1.95290625e-01
-4.42425000e-08,1.95307813e-01
-4.42025000e-08,1.95292188e-01
-4.41625000e-08,1.95307813e-01
-4.41225000e-08,1.95292188e-01
-4.40825000e-08,1.95306250e-01
-4.40425000e-08,1.95293750e-01
-4.40025000e-08,1.95306250e-01
-4.39625000e-08,1.95293750e-01
-4.39225000e-08,1.95306250e-01
-4.38825000e-08,1.95293750e-01
-4.38425000e-08,1.95306250e-01
-4.38025000e-08,1.95293750e-01
-4.37625000e-08,1.95306250e-01
-4.37225000e-08,1.95295313e-01
-4.36825000e-08,1.95304688e-01
-4.36425000e-08,1.95295313e-01
-4.36025000e-08,1.95304688e-01
-4.35625000e-08,1.95295313e-01
-4.35225000e-08,1.95304688e-01
-4.34825000e-08,1.95295313e-01
-4.34425000e-08,1.95304688e-01
-4.34025000e-08,1.95295313e-01
-4.33625000e-08,1.95304688e-01
-4.33225000e-08,1.95293750e-01
-4.32825000e-08,1.95306250e-01
-4.32425000e-08,1.95293750e-01
-4.32025000e-08,1.95306250e-01
-4.31625000e-08,1.95293750e-01
-4.31225000e-08,1.95306250e-01
-4.30825000e-08,1.95292188e-01
-4.30425000e-08,1.95307813e-01
-4.30025000e-08,1.95290625e-01
-4.29625000e-08,1.95310938e-01
-4.29225000e-08,1.95287500e-01
-4.28825000e-08,1.95315625e-01
-4.28425000e-08,1.95279688e-01
-4.28025000e-08,1.95329688e-01
-4.27625000e-08,1.95245313e-01
-4.27225000e-08,1.95507813e-01
-4.26825000e-08,1.95754687e-01
-4.26425000e-08,1.95668750e-01
-4.26025000e-08,1.95723438e-01
-4.25625000e-08,1.95681250e-01
-4.25225000e-08,1.95715625e-01
-4.24825000e-08,1.95685938e-01
-4.24425000e-08,1.95712500e-01
-4.24025000e-08,1.95687500e-01
-4.23625000e-08,1.95712500e-01
-4.23225000e-08,1.95685938e-01
-4.22825000e-08,1.95714063e-01
-4.22425000e-08,1.95684375e-01
-4.22025000e-08,1.95718750e-01
-4.21625000e-08,1.95676563e-01
-4.21225000e-08,1.95732813e-01
-4.20825000e-08,1.95642188e-01
-4.20425000e-08,1.95910937e-01
-4.20025000e-08,1.96151563e-01
-4.19625000e-08,1.96071875e-01
-4.19225000e-08,1.96118750e-01
-4.18825000e-08,1.96085938e-01
-4.18425000e-08,1.96110937e-01
-4.18025000e-08,1.96090625e-01
-4.17625000e-08,1.96107813e-01
-4.17225000e-08,1.96092188e-01
-4.16825000e-08,1.96106250e-01
-4.16425000e-08,1.96093750e-01
-4.16025000e-08,1.96104688e-01
-4.15625000e-08,1.96095313e-01
-4.15225000e-08,1.96104688e-01
-4.14825000e-08,1.96095313e-01
-4.14425000e-08,1.96103125e-01
-4.14025000e-08,1.96096875e-01
-4.13625000e-08,1.96103125e-01
-4.13225000e-08,1.96096875e-01
-4.12825000e-08,1.96103125e-01
-4.12425000e-08,1.96096875e-01
-4.12025000e-08,1.96103125e-01
-4.11625000e-08,1.96096875e-01
-4.11225000e-08,1.96103125e-01
-4.10825000e-08,1.96096875e-01
-4.10425000e-08,1.96103125e-01
-4.10025000e-08,1.96096875e-01
-4.09625000e-08,1.96101562e-01
-4.09225000e-08,1.96098438e-01
-4.08825000e-08,1.96101562e-01
-4.08425000e-08,1.96098438e-01
-4.08025000e-08,1.96101562e-01
-4.07625000e-08,1.96098438e-01
-4.07225000e-08,1.96101562e-01
-4.06825000e-08,1.96098438e-01
-4.06425000e-08,1.96101562e-01
-4.06025000e-08,1.96098438e-01
-4.05625000e-08,1.96101562e-01
-4.05225000e-08,1.96098438e-01
-4.04825000e-08,1.96101562e-01
-4.04425000e-08,1.96098438e-01
-4.04025000e-08,1.96101562e-01
-4.03625000e-08,1.96098438e-01
-4.03225000e-08,1.96101562e-01
-4.02825000e-08,1.96098438e-01
-4.02425000e-08,1.96101562e-01
-4.02025000e-08,1.96098438e-01
-4.01625000e-08,1.96101562e-01
-4.01225000e-08,1.96098438e-01
-4.00825000e-08,1.96101562e-01
-4.00425000e-08,1.96098438e-01
-4.00025000e-08,1.96101562e-01
-3.99625000e-08,1.96098438e-01
-3.99225000e-08,1.96101562e-01
-3.98825000e-08,1.96098438e-01
-3.98425000e-08,1.96101562e-01
-3.98025000e-08,1.96098438e-01
-3.97625000e-08,1.96101562e-01
-3.97225000e-08,1.96098438e-01
-3.96825000e-08,1.96101562e-01
-3.96425000e-08,1.96098438e-01
-3.96025000e-08,1.96101562e-01
-3.95625000e-08,1.96098438e-01
-3.95225000e-08,1.96101562e-01
-3.94825000e-08,1.96098438e-01
-3.94425000e-08,1.96101562e-01
-3.94025000e-08,1.96100000e-01
-3.93625000e-08,1.96100000e-01
-3.93225000e-08,1.96100000e-01
-3.92825000e-08,1.96100000e-01
-3.92425000e-08,1.96100000e-01
-3.92025000e-08,1.96100000e-01
-3.91625000e-08,1.96100000e-01
-3.91225000e-08,1.96100000e-01
-3.90825000e-08,1.96100000e-01
-3.90425000e-08,1.96100000e-01
-3.90025000e-08,1.96100000e-01
-3.89625000e-08,1.96100000e-01
-3.89225000e-08,1.96100000e-01
-3.88825000e-08,1.96100000e-01
-3.88425000e-08,1.96100000e-01
-3.88025000e-08,1.96100000e-01
-3.87625000e-08,1.96100000e-01
-3.87225000e-08,1.96100000e-01
-3.86825000e-08,1.96100000e-01
-3.86425000e-08,1.96098438e-01
-3.86025000e-08,1.96101562e-01
-3.85625000e-08,1.96098438e-01
-3.85225000e-08,1.96101562e-01
