trails/0b2e18f6fa2cac99b521e237471ff731/aes_ch1_20250507110727480.csv

Model,MSO66B
Label,
Waveform Type,ANALOG
Horizontal Units,s
Sample Interval,4.00000000e-11
Record Length,10000
Zero Index,1599.11328125
Vertical Units,A
ANALOG_Thumbnail,
yOffset,1.84500000e-01
yPosition,8.40000000e-01

Labels,
TIME,CH1
-6.39645312e-08,1.86923438e-01
-6.39245312e-08,1.86871875e-01
-6.38845312e-08,1.86937500e-01
-6.38445312e-08,1.86837500e-01
-6.38045313e-08,1.87115625e-01
-6.37645312e-08,1.87346875e-01
-6.37245312e-08,1.87276563e-01
-6.36845312e-08,1.87312500e-01
-6.36445312e-08,1.87292188e-01
-6.36045312e-08,1.87304688e-01
-6.35645312e-08,1.87298437e-01
-6.35245313e-08,1.87296875e-01
-6.34845312e-08,1.87306250e-01
-6.34445312e-08,1.87289063e-01
-6.34045312e-08,1.87321875e-01
-6.33645312e-08,1.87253125e-01
-6.33245312e-08,1.87500000e-01
-6.32845312e-08,1.87762500e-01
-6.32445313e-08,1.87660938e-01
-6.32045312e-08,1.87731250e-01
-6.31645312e-08,1.87673438e-01
-6.31245312e-08,1.87725000e-01
-6.30845312e-08,1.87675000e-01
-6.30445313e-08,1.87726562e-01
-6.30045312e-08,1.87668750e-01
-6.29645313e-08,1.87739062e-01
-6.29245312e-08,1.87635938e-01
-6.28845312e-08,1.87915625e-01
-6.28445312e-08,1.88146875e-01
-6.28045312e-08,1.88076563e-01
-6.27645313e-08,1.88114063e-01
-6.27245312e-08,1.88090625e-01
-6.26845313e-08,1.88107812e-01
-6.26445312e-08,1.88095313e-01
-6.26045312e-08,1.88104688e-01
-6.25645312e-08,1.88096875e-01
-6.25245312e-08,1.88103125e-01
-6.24845313e-08,1.88098437e-01
-6.24445312e-08,1.88101563e-01
-6.24045313e-08,1.88098437e-01
-6.23645312e-08,1.88100000e-01
-6.23245312e-08,1.88100000e-01
-6.22845312e-08,1.88100000e-01
-6.22445312e-08,1.88100000e-01
-6.22045313e-08,1.88100000e-01
-6.21645312e-08,1.88100000e-01
-6.21245313e-08,1.88100000e-01
-6.20845312e-08,1.88100000e-01
-6.20445312e-08,1.88100000e-01
-6.20045312e-08,1.88101563e-01
-6.19645312e-08,1.88098437e-01
-6.19245313e-08,1.88101563e-01
-6.18845312e-08,1.88098437e-01
-6.18445313e-08,1.88101563e-01
-6.18045312e-08,1.88098437e-01
-6.17645312e-08,1.88101563e-01
-6.17245312e-08,1.88098437e-01
-6.16845312e-08,1.88101563e-01
-6.16445313e-08,1.88098437e-01
-6.16045312e-08,1.88101563e-01
-6.15645313e-08,1.88098437e-01
-6.15245312e-08,1.88101563e-01
-6.14845312e-08,1.88098437e-01
-6.14445312e-08,1.88101563e-01
-6.14045312e-08,1.88098437e-01
-6.13645313e-08,1.88103125e-01
-6.13245312e-08,1.88096875e-01
-6.12845313e-08,1.88103125e-01
-6.12445312e-08,1.88096875e-01
-6.12045312e-08,1.88103125e-01
-6.11645312e-08,1.88096875e-01
-6.11245312e-08,1.88103125e-01
-6.10845313e-08,1.88096875e-01
-6.10445312e-08,1.88104688e-01
-6.10045312e-08,1.88095313e-01
-6.09645312e-08,1.88104688e-01
-6.09245312e-08,1.88095313e-01
-6.08845312e-08,1.88104688e-01
-6.08445312e-08,1.88093750e-01
-6.08045313e-08,1.88106250e-01
-6.07645312e-08,1.88092188e-01
-6.07245312e-08,1.88107812e-01
-6.06845312e-08,1.88090625e-01
-6.06445312e-08,1.88110938e-01
-6.06045312e-08,1.88087500e-01
-6.05645312e-08,1.88115625e-01
-6.05245313e-08,1.88078125e-01
-6.04845312e-08,1.88131250e-01
-6.04445312e-08,1.88043750e-01
-6.04045312e-08,1.88309375e-01
-6.03645312e-08,1.88553125e-01
-6.03245312e-08,1.88470313e-01
-6.02845312e-08,1.88520313e-01
-6.02445313e-08,1.88484375e-01
-6.02045312e-08,1.88512500e-01
-6.01645312e-08,1.88490625e-01
-6.01245312e-08,1.88507813e-01
-6.00845312e-08,1.88492188e-01
-6.00445312e-08,1.88506250e-01
-6.00045312e-08,1.88495313e-01
-5.99645313e-08,1.88504688e-01
-5.99245312e-08,1.88495313e-01
-5.98845312e-08,1.88503125e-01
-5.98445312e-08,1.88496875e-01
-5.98045312e-08,1.88503125e-01
-5.97645312e-08,1.88496875e-01
-5.97245312e-08,1.88503125e-01
-5.96845313e-08,1.88498438e-01
-5.96445312e-08,1.88501562e-01
-5.96045312e-08,1.88498438e-01
-5.95645312e-08,1.88501562e-01
-5.95245312e-08,1.88498438e-01
-5.94845312e-08,1.88501562e-01
-5.94445312e-08,1.88500000e-01
-5.94045312e-08,1.88500000e-01
-5.93645312e-08,1.88500000e-01
-5.93245312e-08,1.88500000e-01
-5.92845312e-08,1.88500000e-01
-5.92445312e-08,1.88500000e-01
-5.92045312e-08,1.88501562e-01
-5.91645312e-08,1.88498438e-01
-5.91245312e-08,1.88501562e-01
-5.90845312e-08,1.88498438e-01
-5.90445312e-08,1.88503125e-01
-5.90045312e-08,1.88496875e-01
-5.89645312e-08,1.88503125e-01
-5.89245312e-08,1.88495313e-01
-5.88845312e-08,1.88504688e-01
-5.88445312e-08,1.88493750e-01
-5.88045312e-08,1.88507813e-01
-5.87645312e-08,1.88490625e-01
-5.87245312e-08,1.88510938e-01
-5.86845312e-08,1.88485938e-01
-5.86445312e-08,1.88518750e-01
-5.86045312e-08,1.88470313e-01
-5.85645312e-08,1.88554688e-01
-5.85245312e-08,1.88292188e-01
-5.84845312e-08,1.88045313e-01
-5.84445312e-08,1.88131250e-01
-5.84045312e-08,1.88079688e-01
-5.83645312e-08,1.88115625e-01
-5.83245312e-08,1.88087500e-01
-5.82845312e-08,1.88109375e-01
-5.82445312e-08,1.88092188e-01
-5.82045312e-08,1.88106250e-01
-5.81645312e-08,1.88095313e-01
-5.81245312e-08,1.88101563e-01
-5.80845312e-08,1.88100000e-01
-5.80445312e-08,1.88096875e-01
-5.80045312e-08,1.88109375e-01
-5.79645312e-08,1.88081250e-01
-5.79245312e-08,1.88143750e-01
-5.78845312e-08,1.87904688e-01
-5.78445312e-08,1.87632812e-01
-5.78045312e-08,1.87743750e-01
-5.77645312e-08,1.87664063e-01
-5.77245312e-08,1.87732813e-01
-5.76845312e-08,1.87667187e-01
-5.76445312e-08,1.87734375e-01
-5.76045312e-08,1.87657813e-01
-5.75645312e-08,1.87765625e-01
-5.75245312e-08,1.87482813e-01
-5.74845312e-08,1.87253125e-01
-5.74445312e-08,1.87326563e-01
-5.74045312e-08,1.87281250e-01
-5.73645312e-08,1.87318750e-01
-5.73245312e-08,1.87275000e-01
-5.72845312e-08,1.87348438e-01
-5.72445312e-08,1.87101563e-01
-5.72045312e-08,1.86834375e-01
-5.71645312e-08,1.86945313e-01
-5.71245312e-08,1.86860938e-01
-5.70845312e-08,1.86940625e-01
-5.70445312e-08,1.86853125e-01
-5.70045312e-08,1.86970313e-01
-5.69645312e-08,1.86676563e-01
-5.69245312e-08,1.86460938e-01
-5.68845312e-08,1.86515625e-01
-5.68445312e-08,1.86493750e-01
-5.68045312e-08,1.86500000e-01
-5.67645312e-08,1.86504688e-01
-5.67245312e-08,1.86490625e-01
-5.66845312e-08,1.86515625e-01
-5.66445312e-08,1.86473438e-01
-5.66045312e-08,1.86551563e-01
-5.65645312e-08,1.86295313e-01
-5.65245312e-08,1.86042188e-01
-5.64845312e-08,1.86134375e-01
-5.64445312e-08,1.86075000e-01
-5.64045312e-08,1.86120312e-01
-5.63645312e-08,1.86082812e-01
-5.63245312e-08,1.86115625e-01
-5.62845312e-08,1.86085938e-01
-5.62445312e-08,1.86114063e-01
-5.62045312e-08,1.86085938e-01
-5.61645312e-08,1.86114063e-01
-5.61245312e-08,1.86084375e-01
-5.60845312e-08,1.86118750e-01
-5.60445312e-08,1.86076563e-01
-5.60045312e-08,1.86132812e-01
-5.59645312e-08,1.86042188e-01
-5.59245312e-08,1.86309375e-01
-5.58845312e-08,1.86553125e-01
-5.58445312e-08,1.86470313e-01
-5.58045312e-08,1.86520313e-01
-5.57645312e-08,1.86484375e-01
-5.57245312e-08,1.86512500e-01
-5.56845312e-08,1.86489062e-01
-5.56445312e-08,1.86509375e-01
-5.56045312e-08,1.86492188e-01
-5.55645312e-08,1.86507813e-01
-5.55245312e-08,1.86493750e-01
-5.54845312e-08,1.86506250e-01
-5.54445312e-08,1.86493750e-01
-5.54045312e-08,1.86504688e-01
-5.53645312e-08,1.86495313e-01
-5.53245312e-08,1.86504688e-01
-5.52845312e-08,1.86495313e-01
-5.52445312e-08,1.86504688e-01
-5.52045312e-08,1.86495313e-01
-5.51645312e-08,1.86504688e-01
-5.51245312e-08,1.86495313e-01
-5.50845312e-08,1.86504688e-01
-5.50445312e-08,1.86496875e-01
-5.50045312e-08,1.86503125e-01
-5.49645312e-08,1.86496875e-01
-5.49245312e-08,1.86503125e-01
-5.48845312e-08,1.86496875e-01
-5.48445312e-08,1.86503125e-01
-5.48045312e-08,1.86496875e-01
-5.47645312e-08,1.86503125e-01
-5.47245312e-08,1.86498438e-01
-5.46845312e-08,1.86501562e-01
-5.46445312e-08,1.86498438e-01
-5.46045312e-08,1.86500000e-01
-5.45645312e-08,1.86501562e-01
-5.45245312e-08,1.86496875e-01
-5.44845312e-08,1.86504688e-01
-5.44445312e-08,1.86490625e-01
-5.44045312e-08,1.86518750e-01
-5.43645312e-08,1.86456250e-01
-5.43245312e-08,1.86695313e-01
-5.42845312e-08,1.86967188e-01
-5.42445312e-08,1.86856250e-01
-5.42045312e-08,1.86935938e-01
-5.41645312e-08,1.86867188e-01
-5.41245312e-08,1.86931250e-01
-5.40845312e-08,1.86868750e-01
-5.40445312e-08,1.86934375e-01
-5.40045312e-08,1.86860938e-01
-5.39645312e-08,1.86948438e-01
-5.39245312e-08,1.86826563e-01
-5.38845312e-08,1.87126563e-01
-5.38445312e-08,1.87334375e-01
-5.38045312e-08,1.87290625e-01
-5.37645312e-08,1.87298437e-01
-5.37245312e-08,1.87310937e-01
-5.36845312e-08,1.87281250e-01
-5.36445312e-08,1.87331250e-01
-5.36045312e-08,1.87242188e-01
-5.35645312e-08,1.87514062e-01
-5.35245312e-08,1.87746875e-01
-5.34845312e-08,1.87681250e-01
-5.34445312e-08,1.87704687e-01
-5.34045312e-08,1.87709375e-01
-5.33645312e-08,1.87662500e-01
-5.33245312e-08,1.87892188e-01
-5.32845312e-08,1.88170313e-01
-5.32445312e-08,1.88053125e-01
-5.32045312e-08,1.88139063e-01
-5.31645312e-08,1.88062500e-01
-5.31245312e-08,1.88142188e-01
-5.30845312e-08,1.88035937e-01
-5.30445312e-08,1.88314063e-01
-5.30045312e-08,1.88551563e-01
-5.29645312e-08,1.88468750e-01
-5.29245312e-08,1.88525000e-01
-5.28845312e-08,1.88473438e-01
-5.28445312e-08,1.88534375e-01
-5.28045312e-08,1.88442187e-01
-5.27645312e-08,1.88709375e-01
-5.27245312e-08,1.88953125e-01
-5.26845312e-08,1.88870312e-01
-5.26445312e-08,1.88921875e-01
-5.26045312e-08,1.88882812e-01
-5.25645312e-08,1.88914063e-01
-5.25245312e-08,1.88887500e-01
-5.24845312e-08,1.88910938e-01
-5.24445312e-08,1.88890625e-01
-5.24045312e-08,1.88909375e-01
-5.23645312e-08,1.88892188e-01
-5.23245312e-08,1.88907812e-01
-5.22845312e-08,1.88892188e-01
-5.22445312e-08,1.88906250e-01
-5.22045312e-08,1.88893750e-01
-5.21645312e-08,1.88906250e-01
-5.21245312e-08,1.88893750e-01
-5.20845312e-08,1.88906250e-01
-5.20445312e-08,1.88893750e-01
-5.20045312e-08,1.88906250e-01
-5.19645312e-08,1.88893750e-01
-5.19245312e-08,1.88906250e-01
-5.18845312e-08,1.88892188e-01
-5.18445312e-08,1.88907812e-01
-5.18045312e-08,1.88892188e-01
-5.17645312e-08,1.88909375e-01
-5.17245312e-08,1.88889063e-01
-5.16845312e-08,1.88912500e-01
-5.16445312e-08,1.88885938e-01
-5.16045312e-08,1.88918750e-01
-5.15645312e-08,1.88871875e-01
-5.15245313e-08,1.88953125e-01
-5.14845312e-08,1.88695313e-01
-5.14445312e-08,1.88442187e-01
-5.14045312e-08,1.88534375e-01
-5.13645312e-08,1.88473438e-01
-5.13245312e-08,1.88523438e-01
-5.12845312e-08,1.88476562e-01
-5.12445312e-08,1.88526562e-01
-5.12045312e-08,1.88465625e-01
-5.11645312e-08,1.88557813e-01
-5.11245312e-08,1.88290625e-01
-5.10845312e-08,1.88046875e-01
-5.10445312e-08,1.88131250e-01
-5.10045312e-08,1.88078125e-01
-5.09645312e-08,1.88118750e-01
-5.09245312e-08,1.88082813e-01
-5.08845312e-08,1.88118750e-01
-5.08445312e-08,1.88079688e-01
-5.08045312e-08,1.88123438e-01
-5.07645312e-08,1.88067188e-01
-5.07245312e-08,1.88156250e-01
-5.06845312e-08,1.87890625e-01
-5.06445312e-08,1.87646875e-01
-5.06045312e-08,1.87729688e-01
-5.05645312e-08,1.87679687e-01
-5.05245312e-08,1.87715625e-01
-5.04845312e-08,1.87685938e-01
-5.04445312e-08,1.87712500e-01
-5.04045312e-08,1.87689063e-01
-5.03645312e-08,1.87710938e-01
-5.03245312e-08,1.87690625e-01
-5.02845312e-08,1.87709375e-01
-5.02445312e-08,1.87690625e-01
-5.02045312e-08,1.87709375e-01
-5.01645312e-08,1.87689063e-01
-5.01245312e-08,1.87710938e-01
-5.00845312e-08,1.87687500e-01
-5.00445312e-08,1.87712500e-01
-5.00045312e-08,1.87684375e-01
-4.99645312e-08,1.87717187e-01
-4.99245312e-08,1.87676563e-01
-4.98845312e-08,1.87732813e-01
-4.98445312e-08,1.87642188e-01
-4.98045312e-08,1.87910938e-01
-4.97645312e-08,1.88151563e-01
-4.97245312e-08,1.88071875e-01
-4.96845312e-08,1.88118750e-01
-4.96445312e-08,1.88085937e-01
-4.96045313e-08,1.88110938e-01
-4.95645312e-08,1.88090625e-01
-4.95245312e-08,1.88107812e-01
-4.94845312e-08,1.88093750e-01
-4.94445312e-08,1.88106250e-01
-4.94045312e-08,1.88095313e-01
-4.93645312e-08,1.88104688e-01
-4.93245313e-08,1.88095313e-01
-4.92845312e-08,1.88104688e-01
-4.92445312e-08,1.88096875e-01
-4.92045312e-08,1.88103125e-01
-4.91645312e-08,1.88096875e-01
-4.91245312e-08,1.88103125e-01
-4.90845312e-08,1.88096875e-01
-4.90445312e-08,1.88103125e-01
-4.90045312e-08,1.88096875e-01
-4.89645312e-08,1.88103125e-01
-4.89245312e-08,1.88098437e-01
-4.88845312e-08,1.88101563e-01
-4.88445312e-08,1.88098437e-01
-4.88045312e-08,1.88101563e-01
-4.87645312e-08,1.88098437e-01
-4.87245312e-08,1.88101563e-01
-4.86845312e-08,1.88098437e-01
-4.86445312e-08,1.88101563e-01
-4.86045312e-08,1.88098437e-01
-4.85645312e-08,1.88101563e-01
-4.85245312e-08,1.88098437e-01
-4.84845312e-08,1.88101563e-01
-4.84445312e-08,1.88098437e-01
-4.84045312e-08,1.88101563e-01
-4.83645312e-08,1.88098437e-01
-4.83245312e-08,1.88101563e-01
-4.82845312e-08,1.88098437e-01
-4.82445312e-08,1.88101563e-01
-4.82045312e-08,1.88098437e-01
-4.81645312e-08,1.88101563e-01
-4.81245312e-08,1.88098437e-01
-4.80845312e-08,1.88101563e-01
-4.80445312e-08,1.88098437e-01
-4.80045312e-08,1.88103125e-01
-4.79645312e-08,1.88096875e-01
-4.79245312e-08,1.88103125e-01
-4.78845312e-08,1.88096875e-01
-4.78445312e-08,1.88103125e-01
-4.78045312e-08,1.88096875e-01
-4.77645312e-08,1.88104688e-01
-4.77245312e-08,1.88095313e-01
-4.76845313e-08,1.88106250e-01
-4.76445312e-08,1.88093750e-01
-4.76045312e-08,1.88107812e-01
-4.75645312e-08,1.88090625e-01
-4.75245312e-08,1.88112500e-01
-4.74845312e-08,1.88082813e-01
-4.74445312e-08,1.88126563e-01
-4.74045313e-08,1.88048437e-01
-4.73645312e-08,1.88304688e-01
-4.73245312e-08,1.88557813e-01
-4.72845312e-08,1.88465625e-01
-4.72445312e-08,1.88525000e-01
-4.72045312e-08,1.88479687e-01
-4.71645312e-08,1.88518750e-01
-4.71245313e-08,1.88482813e-01
-4.70845312e-08,1.88515625e-01
-4.70445312e-08,1.88484375e-01
-4.70045312e-08,1.88515625e-01
-4.69645312e-08,1.88484375e-01
-4.69245312e-08,1.88517188e-01
-4.68845312e-08,1.88481250e-01
-4.68445312e-08,1.88520313e-01
-4.68045312e-08,1.88473438e-01
-4.67645312e-08,1.88535938e-01
-4.67245312e-08,1.88440625e-01
-4.66845312e-08,1.88712500e-01
-4.66445312e-08,1.88950000e-01
-4.66045312e-08,1.88873438e-01
-4.65645312e-08,1.88917188e-01
-4.65245312e-08,1.88887500e-01
-4.64845312e-08,1.88909375e-01
-4.64445312e-08,1.88893750e-01
-4.64045312e-08,1.88906250e-01
-4.63645312e-08,1.88895312e-01
-4.63245312e-08,1.88903125e-01
-4.62845312e-08,1.88896875e-01
-4.62445312e-08,1.88903125e-01
-4.62045312e-08,1.88898438e-01
-4.61645312e-08,1.88901563e-01
-4.61245312e-08,1.88898438e-01
-4.60845312e-08,1.88901563e-01
-4.60445313e-08,1.88900000e-01
-4.60045312e-08,1.88900000e-01
-4.59645312e-08,1.88900000e-01
-4.59245312e-08,1.88900000e-01
-4.58845312e-08,1.88900000e-01
-4.58445312e-08,1.88900000e-01
-4.58045312e-08,1.88900000e-01
-4.57645313e-08,1.88900000e-01
-4.57245312e-08,1.88900000e-01
-4.56845312e-08,1.88898438e-01
-4.56445312e-08,1.88901563e-01
-4.56045312e-08,1.88898438e-01
-4.55645312e-08,1.88901563e-01
-4.55245312e-08,1.88898438e-01
-4.54845313e-08,1.88901563e-01
-4.54445312e-08,1.88898438e-01
-4.54045312e-08,1.88901563e-01
-4.53645312e-08,1.88896875e-01
-4.53245312e-08,1.88903125e-01
-4.52845312e-08,1.88896875e-01
-4.52445312e-08,1.88903125e-01
-4.52045313e-08,1.88896875e-01
-4.51645312e-08,1.88903125e-01
-4.51245312e-08,1.88895312e-01
-4.50845312e-08,1.88904688e-01
-4.50445312e-08,1.88895312e-01
-4.50045312e-08,1.88904688e-01
-4.49645312e-08,1.88893750e-01
-4.49245313e-08,1.88906250e-01
-4.48845312e-08,1.88892188e-01
-4.48445312e-08,1.88907812e-01
-4.48045312e-08,1.88890625e-01
-4.47645312e-08,1.88910938e-01
-4.47245312e-08,1.88887500e-01
-4.46845312e-08,1.88915625e-01
-4.46445312e-08,1.88878125e-01
-4.46045312e-08,1.88931250e-01
-4.45645312e-08,1.88843750e-01
-4.45245312e-08,1.89109375e-01
-4.44845312e-08,1.89353125e-01
-4.44445312e-08,1.89271875e-01
-4.44045312e-08,1.89318750e-01
-4.43645312e-08,1.89285938e-01
-4.43245312e-08,1.89309375e-01
-4.42845312e-08,1.89292188e-01
-4.42445312e-08,1.89304688e-01
-4.42045312e-08,1.89296875e-01
-4.41645312e-08,1.89301563e-01
-4.41245313e-08,1.89300000e-01
-4.40845312e-08,1.89296875e-01
-4.40445312e-08,1.89306250e-01
-4.40045312e-08,1.89289062e-01
-4.39645312e-08,1.89321875e-01
-4.39245312e-08,1.89253125e-01
-4.38845312e-08,1.89500000e-01
-4.38445313e-08,1.89762500e-01
-4.38045312e-08,1.89660938e-01
-4.37645312e-08,1.89729688e-01
-4.37245312e-08,1.89675000e-01
-4.36845312e-08,1.89721875e-01
-4.36445312e-08,1.89679687e-01
-4.36045312e-08,1.89720313e-01
-4.35645313e-08,1.89681250e-01
-4.35245312e-08,1.89718750e-01
-4.34845312e-08,1.89679687e-01
-4.34445312e-08,1.89721875e-01
-4.34045312e-08,1.89675000e-01
-4.33645312e-08,1.89728125e-01
-4.33245312e-08,1.89662500e-01
-4.32845313e-08,1.89762500e-01
-4.32445312e-08,1.89484375e-01
-4.32045312e-08,1.89253125e-01
-4.31645312e-08,1.89323437e-01
-4.31245312e-08,1.89285938e-01
-4.30845312e-08,1.89309375e-01
-4.30445312e-08,1.89293750e-01
-4.30045313e-08,1.89304688e-01
-4.29645312e-08,1.89296875e-01
-4.29245312e-08,1.89301563e-01
-4.28845312e-08,1.89298437e-01
-4.28445312e-08,1.89301563e-01
-4.28045312e-08,1.89300000e-01
-4.27645312e-08,1.89300000e-01
-4.27245313e-08,1.89300000e-01
-4.26845312e-08,1.89298437e-01
-4.26445312e-08,1.89301563e-01
-4.26045312e-08,1.89298437e-01
-4.25645312e-08,1.89301563e-01
-4.25245312e-08,1.89296875e-01
-4.24845312e-08,1.89303125e-01
-4.24445312e-08,1.89296875e-01
-4.24045312e-08,1.89303125e-01
-4.23645312e-08,1.89295313e-01
-4.23245312e-08,1.89304688e-01
-4.22845312e-08,1.89293750e-01
-4.22445312e-08,1.89307813e-01
-4.22045313e-08,1.89290625e-01
-4.21645312e-08,1.89312500e-01
-4.21245312e-08,1.89282813e-01
-4.20845312e-08,1.89326563e-01
-4.20445312e-08,1.89248438e-01
-4.20045312e-08,1.89504688e-01
-4.19645312e-08,1.89757813e-01
-4.19245313e-08,1.89665625e-01
-4.18845312e-08,1.89726563e-01
-4.18445312e-08,1.89678125e-01
-4.18045312e-08,1.89720313e-01
-4.17645312e-08,1.89681250e-01
-4.17245312e-08,1.89718750e-01
-4.16845312e-08,1.89679687e-01
-4.16445313e-08,1.89721875e-01
-4.16045312e-08,1.89673438e-01
-4.15645312e-08,1.89735938e-01
-4.15245312e-08,1.89640625e-01
-4.14845312e-08,1.89912500e-01
-4.14445312e-08,1.90150000e-01
-4.14045312e-08,1.90073437e-01
-4.13645313e-08,1.90117188e-01
-4.13245312e-08,1.90087500e-01
-4.12845312e-08,1.90109375e-01
-4.12445312e-08,1.90092188e-01
-4.12045312e-08,1.90106250e-01
-4.11645312e-08,1.90095313e-01
-4.11245312e-08,1.90104688e-01
-4.10845313e-08,1.90096875e-01
-4.10445312e-08,1.90103125e-01
-4.10045312e-08,1.90096875e-01
-4.09645312e-08,1.90101563e-01
-4.09245312e-08,1.90098437e-01
-4.08845312e-08,1.90101563e-01
-4.08445312e-08,1.90098437e-01
-4.08045313e-08,1.90101563e-01
-4.07645312e-08,1.90100000e-01
-4.07245312e-08,1.90100000e-01
-4.06845312e-08,1.90100000e-01
-4.06445312e-08,1.90098437e-01
-4.06045312e-08,1.90101563e-01
-4.05645312e-08,1.90096875e-01
-4.05245312e-08,1.90103125e-01
-4.04845312e-08,1.90095313e-01
-4.04445312e-08,1.90106250e-01
-4.04045312e-08,1.90090625e-01
-4.03645312e-08,1.90114063e-01
-4.03245312e-08,1.90076563e-01
-4.02845313e-08,1.90148438e-01
-4.02445312e-08,1.89898438e-01
-4.02045312e-08,1.89639063e-01
-4.01645312e-08,1.89737500e-01
-4.01245312e-08,1.89670312e-01
-4.00845312e-08,1.89725000e-01
-4.00445312e-08,1.89676563e-01
-4.00045313e-08,1.89721875e-01
-3.99645312e-08,1.89678125e-01
-3.99245312e-08,1.89723438e-01
-3.98845312e-08,1.89675000e-01
-3.98445312e-08,1.89729688e-01
-3.98045312e-08,1.89660938e-01
-3.97645312e-08,1.89764062e-01
-3.97245313e-08,1.89482813e-01
-3.96845312e-08,1.89254688e-01
-3.96445312e-08,1.89321875e-01
-3.96045312e-08,1.89287500e-01
-3.95645312e-08,1.89307813e-01
-3.95245312e-08,1.89295313e-01
-3.94845312e-08,1.89301563e-01
-3.94445313e-08,1.89300000e-01
-3.94045312e-08,1.89298437e-01
-3.93645312e-08,1.89303125e-01
-3.93245312e-08,1.89295313e-01
-3.92845312e-08,1.89306250e-01
-3.92445312e-08,1.89292188e-01
-3.92045312e-08,1.89309375e-01
-3.91645313e-08,1.89287500e-01
-3.91245312e-08,1.89318750e-01
-3.90845312e-08,1.89271875e-01
-3.90445312e-08,1.89353125e-01
-3.90045312e-08,1.89093750e-01
-3.89645312e-08,1.88843750e-01
-3.89245312e-08,1.88931250e-01
-3.88845313e-08,1.88878125e-01
-3.88445312e-08,1.88917188e-01
-3.88045312e-08,1.88885938e-01
-3.87645312e-08,1.88912500e-01
-3.87245312e-08,1.88889063e-01
-3.86845312e-08,1.88909375e-01
-3.86445312e-08,1.88890625e-01
-3.86045313e-08,1.88907812e-01
-3.85645312e-08,1.88892188e-01
-3.85245312e-08,1.88906250e-01
