trails/0b2e18f6fa2cac99b521e237471ff731/aes_ch1_20250507105956484.csv

Model,MSO66B
Label,
Waveform Type,ANALOG
Horizontal Units,s
Sample Interval,4.00000000e-11
Record Length,10000
Zero Index,1599.04687500
Vertical Units,A
ANALOG_Thumbnail,
yOffset,1.84500000e-01
yPosition,8.40000000e-01

Labels,
TIME,CH1
-6.39618750e-08,1.93289062e-01
-6.39218750e-08,1.93310938e-01
-6.38818750e-08,1.93289062e-01
-6.38418750e-08,1.93310938e-01
-6.38018750e-08,1.93289062e-01
-6.37618750e-08,1.93310938e-01
-6.37218750e-08,1.93289062e-01
-6.36818750e-08,1.93310938e-01
-6.36418750e-08,1.93289062e-01
-6.36018750e-08,1.93310938e-01
-6.35618750e-08,1.93287500e-01
-6.35218750e-08,1.93312500e-01
-6.34818750e-08,1.93287500e-01
-6.34418750e-08,1.93312500e-01
-6.34018750e-08,1.93287500e-01
-6.33618750e-08,1.93314062e-01
-6.33218750e-08,1.93285938e-01
-6.32818750e-08,1.93314062e-01
-6.32418750e-08,1.93284375e-01
-6.32018750e-08,1.93315625e-01
-6.31618750e-08,1.93282813e-01
-6.31218750e-08,1.93318750e-01
-6.30818750e-08,1.93279688e-01
-6.30418750e-08,1.93321875e-01
-6.30018750e-08,1.93273438e-01
-6.29618750e-08,1.93331250e-01
-6.29218750e-08,1.93259375e-01
-6.28818750e-08,1.93367188e-01
-6.28418750e-08,1.93079688e-01
-6.28018750e-08,1.92857813e-01
-6.27618750e-08,1.92917188e-01
-6.27218750e-08,1.92893750e-01
-6.26818750e-08,1.92901563e-01
-6.26418750e-08,1.92903125e-01
-6.26018750e-08,1.92893750e-01
-6.25618750e-08,1.92909375e-01
-6.25218750e-08,1.92887500e-01
-6.24818750e-08,1.92917188e-01
-6.24418750e-08,1.92876563e-01
-6.24018750e-08,1.92932812e-01
-6.23618750e-08,1.92840625e-01
-6.23218750e-08,1.93112500e-01
-6.22818750e-08,1.93348437e-01
-6.22418750e-08,1.93276562e-01
-6.22018750e-08,1.93314062e-01
-6.21618750e-08,1.93292188e-01
-6.21218750e-08,1.93303125e-01
-6.20818750e-08,1.93300000e-01
-6.20418750e-08,1.93296875e-01
-6.20018750e-08,1.93306250e-01
-6.19618750e-08,1.93290625e-01
-6.19218750e-08,1.93312500e-01
-6.18818750e-08,1.93281250e-01
-6.18418750e-08,1.93329688e-01
-6.18018750e-08,1.93245313e-01
-6.17618750e-08,1.93509375e-01
-6.17218750e-08,1.93751563e-01
-6.16818750e-08,1.93671875e-01
-6.16418750e-08,1.93717187e-01
-6.16018750e-08,1.93689063e-01
-6.15618750e-08,1.93706250e-01
-6.15218750e-08,1.93696875e-01
-6.14818750e-08,1.93698438e-01
-6.14418750e-08,1.93706250e-01
-6.14018750e-08,1.93689063e-01
-6.13618750e-08,1.93721875e-01
-6.13218750e-08,1.93651563e-01
-6.12818750e-08,1.93901563e-01
-6.12418750e-08,1.94159375e-01
-6.12018750e-08,1.94064062e-01
-6.11618750e-08,1.94126563e-01
-6.11218750e-08,1.94079688e-01
-6.10818750e-08,1.94117188e-01
-6.10418750e-08,1.94085937e-01
-6.10018750e-08,1.94112500e-01
-6.09618750e-08,1.94089063e-01
-6.09218750e-08,1.94110937e-01
-6.08818750e-08,1.94090625e-01
-6.08418750e-08,1.94109375e-01
-6.08018750e-08,1.94092188e-01
-6.07618750e-08,1.94107813e-01
-6.07218750e-08,1.94093750e-01
-6.06818750e-08,1.94106250e-01
-6.06418750e-08,1.94093750e-01
-6.06018750e-08,1.94104688e-01
-6.05618750e-08,1.94095313e-01
-6.05218750e-08,1.94104688e-01
-6.04818750e-08,1.94095313e-01
-6.04418750e-08,1.94103125e-01
-6.04018750e-08,1.94096875e-01
-6.03618750e-08,1.94103125e-01
-6.03218750e-08,1.94098437e-01
-6.02818750e-08,1.94101563e-01
-6.02418750e-08,1.94098437e-01
-6.02018750e-08,1.94100000e-01
-6.01618750e-08,1.94100000e-01
-6.01218750e-08,1.94098437e-01
-6.00818750e-08,1.94103125e-01
-6.00418750e-08,1.94095313e-01
-6.00018750e-08,1.94106250e-01
-5.99618750e-08,1.94090625e-01
-5.99218750e-08,1.94114063e-01
-5.98818750e-08,1.94076562e-01
-5.98418750e-08,1.94148437e-01
-5.98018750e-08,1.93898438e-01
-5.97618750e-08,1.93639063e-01
-5.97218750e-08,1.93735938e-01
-5.96818750e-08,1.93673438e-01
-5.96418750e-08,1.93721875e-01
-5.96018750e-08,1.93679688e-01
-5.95618750e-08,1.93717187e-01
-5.95218750e-08,1.93682812e-01
-5.94818750e-08,1.93715625e-01
-5.94418750e-08,1.93684375e-01
-5.94018750e-08,1.93715625e-01
-5.93618750e-08,1.93684375e-01
-5.93218750e-08,1.93715625e-01
-5.92818750e-08,1.93682812e-01
-5.92418750e-08,1.93718750e-01
-5.92018750e-08,1.93678125e-01
-5.91618750e-08,1.93726563e-01
-5.91218750e-08,1.93664063e-01
-5.90818750e-08,1.93759375e-01
-5.90418750e-08,1.93487500e-01
-5.90018750e-08,1.93250000e-01
-5.89618750e-08,1.93326563e-01
-5.89218750e-08,1.93282813e-01
-5.88818750e-08,1.93312500e-01
-5.88418750e-08,1.93290625e-01
-5.88018750e-08,1.93307813e-01
-5.87618750e-08,1.93293750e-01
-5.87218750e-08,1.93304688e-01
-5.86818750e-08,1.93295313e-01
-5.86418750e-08,1.93304688e-01
-5.86018750e-08,1.93295313e-01
-5.85618750e-08,1.93303125e-01
-5.85218750e-08,1.93296875e-01
-5.84818750e-08,1.93303125e-01
-5.84418750e-08,1.93296875e-01
-5.84018750e-08,1.93304688e-01
-5.83618750e-08,1.93295313e-01
-5.83218750e-08,1.93304688e-01
-5.82818750e-08,1.93295313e-01
-5.82418750e-08,1.93306250e-01
-5.82018750e-08,1.93293750e-01
-5.81618750e-08,1.93307813e-01
-5.81218750e-08,1.93290625e-01
-5.80818750e-08,1.93312500e-01
-5.80418750e-08,1.93281250e-01
-5.80018750e-08,1.93328125e-01
-5.79618750e-08,1.93248438e-01
-5.79218750e-08,1.93504687e-01
-5.78818750e-08,1.93757813e-01
-5.78418750e-08,1.93665625e-01
-5.78018750e-08,1.93725000e-01
-5.77618750e-08,1.93679688e-01
-5.77218750e-08,1.93717187e-01
-5.76818750e-08,1.93684375e-01
-5.76418750e-08,1.93714063e-01
-5.76018750e-08,1.93685938e-01
-5.75618750e-08,1.93714063e-01
-5.75218750e-08,1.93685938e-01
-5.74818750e-08,1.93714063e-01
-5.74418750e-08,1.93685938e-01
-5.74018750e-08,1.93715625e-01
-5.73618750e-08,1.93682812e-01
-5.73218750e-08,1.93720313e-01
-5.72818750e-08,1.93675000e-01
-5.72418750e-08,1.93734375e-01
-5.72018750e-08,1.93642188e-01
-5.71618750e-08,1.93910938e-01
-5.71218750e-08,1.94151563e-01
-5.70818750e-08,1.94071875e-01
-5.70418750e-08,1.94118750e-01
-5.70018750e-08,1.94085937e-01
-5.69618750e-08,1.94110937e-01
-5.69218750e-08,1.94090625e-01
-5.68818750e-08,1.94107813e-01
-5.68418750e-08,1.94093750e-01
-5.68018750e-08,1.94106250e-01
-5.67618750e-08,1.94093750e-01
-5.67218750e-08,1.94106250e-01
-5.66818750e-08,1.94095313e-01
-5.66418750e-08,1.94104688e-01
-5.66018750e-08,1.94093750e-01
-5.65618750e-08,1.94106250e-01
-5.65218750e-08,1.94093750e-01
-5.64818750e-08,1.94106250e-01
-5.64418750e-08,1.94092188e-01
-5.64018750e-08,1.94107813e-01
-5.63618750e-08,1.94090625e-01
-5.63218750e-08,1.94110937e-01
-5.62818750e-08,1.94085937e-01
-5.62418750e-08,1.94118750e-01
-5.62018750e-08,1.94071875e-01
-5.61618750e-08,1.94153125e-01
-5.61218750e-08,1.93893750e-01
-5.60818750e-08,1.93643750e-01
-5.60418750e-08,1.93732813e-01
-5.60018750e-08,1.93676563e-01
-5.59618750e-08,1.93718750e-01
-5.59218750e-08,1.93684375e-01
-5.58818750e-08,1.93714063e-01
-5.58418750e-08,1.93687500e-01
-5.58018750e-08,1.93712500e-01
-5.57618750e-08,1.93687500e-01
-5.57218750e-08,1.93712500e-01
-5.56818750e-08,1.93687500e-01
-5.56418750e-08,1.93712500e-01
-5.56018750e-08,1.93687500e-01
-5.55618750e-08,1.93714063e-01
-5.55218750e-08,1.93684375e-01
-5.54818750e-08,1.93718750e-01
-5.54418750e-08,1.93676563e-01
-5.54018750e-08,1.93732813e-01
-5.53618750e-08,1.93642188e-01
-5.53218750e-08,1.93910938e-01
-5.52818750e-08,1.94151563e-01
-5.52418750e-08,1.94071875e-01
-5.52018750e-08,1.94118750e-01
-5.51618750e-08,1.94085937e-01
-5.51218750e-08,1.94110937e-01
-5.50818750e-08,1.94090625e-01
-5.50418750e-08,1.94107813e-01
-5.50018750e-08,1.94093750e-01
-5.49618750e-08,1.94106250e-01
-5.49218750e-08,1.94093750e-01
-5.48818750e-08,1.94104688e-01
-5.48418750e-08,1.94095313e-01
-5.48018750e-08,1.94104688e-01
-5.47618750e-08,1.94095313e-01
-5.47218750e-08,1.94104688e-01
-5.46818750e-08,1.94095313e-01
-5.46418750e-08,1.94104688e-01
-5.46018750e-08,1.94095313e-01
-5.45618750e-08,1.94104688e-01
-5.45218750e-08,1.94095313e-01
-5.44818750e-08,1.94104688e-01
-5.44418750e-08,1.94095313e-01
-5.44018750e-08,1.94104688e-01
-5.43618750e-08,1.94093750e-01
-5.43218750e-08,1.94106250e-01
-5.42818750e-08,1.94092188e-01
-5.42418750e-08,1.94107813e-01
-5.42018750e-08,1.94090625e-01
-5.41618750e-08,1.94110937e-01
-5.41218750e-08,1.94085937e-01
-5.40818750e-08,1.94118750e-01
-5.40418750e-08,1.94071875e-01
-5.40018750e-08,1.94153125e-01
-5.39618750e-08,1.93893750e-01
-5.39218750e-08,1.93643750e-01
-5.38818750e-08,1.93732813e-01
-5.38418750e-08,1.93676563e-01
-5.38018750e-08,1.93718750e-01
-5.37618750e-08,1.93684375e-01
-5.37218750e-08,1.93714063e-01
-5.36818750e-08,1.93687500e-01
-5.36418750e-08,1.93712500e-01
-5.36018750e-08,1.93689063e-01
-5.35618750e-08,1.93710938e-01
-5.35218750e-08,1.93687500e-01
-5.34818750e-08,1.93712500e-01
-5.34418750e-08,1.93685938e-01
-5.34018750e-08,1.93715625e-01
-5.33618750e-08,1.93682812e-01
-5.33218750e-08,1.93721875e-01
-5.32818750e-08,1.93668750e-01
-5.32418750e-08,1.93756250e-01
-5.32018750e-08,1.93490625e-01
-5.31618750e-08,1.93246875e-01
-5.31218750e-08,1.93329688e-01
-5.30818750e-08,1.93278125e-01
-5.30418750e-08,1.93317188e-01
-5.30018750e-08,1.93285938e-01
-5.29618750e-08,1.93312500e-01
-5.29218750e-08,1.93287500e-01
-5.28818750e-08,1.93310938e-01
-5.28418750e-08,1.93289062e-01
-5.28018750e-08,1.93312500e-01
-5.27618750e-08,1.93287500e-01
-5.27218750e-08,1.93314062e-01
-5.26818750e-08,1.93282813e-01
-5.26418750e-08,1.93321875e-01
-5.26018750e-08,1.93268750e-01
-5.25618750e-08,1.93356250e-01
-5.25218750e-08,1.93090625e-01
-5.24818750e-08,1.92846875e-01
-5.24418750e-08,1.92929688e-01
-5.24018750e-08,1.92879688e-01
-5.23618750e-08,1.92915625e-01
-5.23218750e-08,1.92887500e-01
-5.22818750e-08,1.92910938e-01
-5.22418750e-08,1.92890625e-01
-5.22018750e-08,1.92907812e-01
-5.21618750e-08,1.92892188e-01
-5.21218750e-08,1.92906250e-01
-5.20818750e-08,1.92893750e-01
-5.20418750e-08,1.92906250e-01
-5.20018750e-08,1.92893750e-01
-5.19618750e-08,1.92906250e-01
-5.19218750e-08,1.92895312e-01
-5.18818750e-08,1.92904688e-01
-5.18418750e-08,1.92895312e-01
-5.18018750e-08,1.92904688e-01
-5.17618750e-08,1.92895312e-01
-5.17218750e-08,1.92904688e-01
-5.16818750e-08,1.92895312e-01
-5.16418750e-08,1.92904688e-01
-5.16018750e-08,1.92895312e-01
-5.15618750e-08,1.92904688e-01
-5.15218750e-08,1.92895312e-01
-5.14818750e-08,1.92904688e-01
-5.14418750e-08,1.92895312e-01
-5.14018750e-08,1.92904688e-01
-5.13618750e-08,1.92895312e-01
-5.13218750e-08,1.92904688e-01
-5.12818750e-08,1.92895312e-01
-5.12418750e-08,1.92904688e-01
-5.12018750e-08,1.92895312e-01
-5.11618750e-08,1.92904688e-01
-5.11218750e-08,1.92895312e-01
-5.10818750e-08,1.92906250e-01
-5.10418750e-08,1.92893750e-01
-5.10018750e-08,1.92906250e-01
-5.09618750e-08,1.92893750e-01
-5.09218750e-08,1.92906250e-01
-5.08818750e-08,1.92892188e-01
-5.08418750e-08,1.92907812e-01
-5.08018750e-08,1.92892188e-01
-5.07618750e-08,1.92909375e-01
-5.07218750e-08,1.92889063e-01
-5.06818750e-08,1.92912500e-01
-5.06418750e-08,1.92885937e-01
-5.06018750e-08,1.92917188e-01
-5.05618750e-08,1.92878125e-01
-5.05218750e-08,1.92931250e-01
-5.04818750e-08,1.92843750e-01
-5.04418750e-08,1.93109375e-01
-5.04018750e-08,1.93353125e-01
-5.03618750e-08,1.93271875e-01
-5.03218750e-08,1.93318750e-01
-5.02818750e-08,1.93285938e-01
-5.02418750e-08,1.93310938e-01
-5.02018750e-08,1.93290625e-01
-5.01618750e-08,1.93307813e-01
-5.01218750e-08,1.93293750e-01
-5.00818750e-08,1.93306250e-01
-5.00418750e-08,1.93295313e-01
-5.00018750e-08,1.93304688e-01
-4.99618750e-08,1.93295313e-01
-4.99218750e-08,1.93304688e-01
-4.98818750e-08,1.93296875e-01
-4.98418750e-08,1.93303125e-01
-4.98018750e-08,1.93296875e-01
-4.97618750e-08,1.93303125e-01
-4.97218750e-08,1.93296875e-01
-4.96818750e-08,1.93303125e-01
-4.96418750e-08,1.93296875e-01
-4.96018750e-08,1.93301562e-01
-4.95618750e-08,1.93298438e-01
-4.95218750e-08,1.93301562e-01
-4.94818750e-08,1.93298438e-01
-4.94418750e-08,1.93301562e-01
-4.94018750e-08,1.93298438e-01
-4.93618750e-08,1.93301562e-01
-4.93218750e-08,1.93298438e-01
-4.92818750e-08,1.93301562e-01
-4.92418750e-08,1.93298438e-01
-4.92018750e-08,1.93301562e-01
-4.91618750e-08,1.93298438e-01
-4.91218750e-08,1.93301562e-01
-4.90818750e-08,1.93298438e-01
-4.90418750e-08,1.93301562e-01
-4.90018750e-08,1.93298438e-01
-4.89618750e-08,1.93301562e-01
-4.89218750e-08,1.93298438e-01
-4.88818750e-08,1.93301562e-01
-4.88418750e-08,1.93298438e-01
-4.88018750e-08,1.93301562e-01
-4.87618750e-08,1.93298438e-01
-4.87218750e-08,1.93301562e-01
-4.86818750e-08,1.93298438e-01
-4.86418750e-08,1.93301562e-01
-4.86018750e-08,1.93298438e-01
-4.85618750e-08,1.93301562e-01
-4.85218750e-08,1.93298438e-01
-4.84818750e-08,1.93301562e-01
-4.84418750e-08,1.93298438e-01
-4.84018750e-08,1.93301562e-01
-4.83618750e-08,1.93298438e-01
-4.83218750e-08,1.93301562e-01
-4.82818750e-08,1.93298438e-01
-4.82418750e-08,1.93301562e-01
-4.82018750e-08,1.93298438e-01
-4.81618750e-08,1.93301562e-01
-4.81218750e-08,1.93298438e-01
-4.80818750e-08,1.93301562e-01
-4.80418750e-08,1.93298438e-01
-4.80018750e-08,1.93301562e-01
-4.79618750e-08,1.93298438e-01
-4.79218750e-08,1.93301562e-01
-4.78818750e-08,1.93298438e-01
-4.78418750e-08,1.93301562e-01
-4.78018750e-08,1.93298438e-01
-4.77618750e-08,1.93301562e-01
-4.77218750e-08,1.93298438e-01
-4.76818750e-08,1.93301562e-01
-4.76418750e-08,1.93298438e-01
-4.76018750e-08,1.93301562e-01
-4.75618750e-08,1.93298438e-01
-4.75218750e-08,1.93301562e-01
-4.74818750e-08,1.93298438e-01
-4.74418750e-08,1.93303125e-01
-4.74018750e-08,1.93296875e-01
-4.73618750e-08,1.93303125e-01
-4.73218750e-08,1.93296875e-01
-4.72818750e-08,1.93304688e-01
-4.72418750e-08,1.93293750e-01
-4.72018750e-08,1.93307813e-01
-4.71618750e-08,1.93289062e-01
-4.71218750e-08,1.93314062e-01
-4.70818750e-08,1.93276562e-01
-4.70418750e-08,1.93348437e-01
-4.70018750e-08,1.93100000e-01
-4.69618750e-08,1.92837500e-01
-4.69218750e-08,1.92940625e-01
-4.68818750e-08,1.92867188e-01
-4.68418750e-08,1.92929688e-01
-4.68018750e-08,1.92870313e-01
-4.67618750e-08,1.92934375e-01
-4.67218750e-08,1.92857813e-01
-4.66818750e-08,1.92967187e-01
-4.66418750e-08,1.92681250e-01
-4.66018750e-08,1.92457812e-01
-4.65618750e-08,1.92517188e-01
-4.65218750e-08,1.92492188e-01
-4.64818750e-08,1.92500000e-01
-4.64418750e-08,1.92507813e-01
-4.64018750e-08,1.92481250e-01
-4.63618750e-08,1.92543750e-01
-4.63218750e-08,1.92303125e-01
-4.62818750e-08,1.92034375e-01
-4.62418750e-08,1.92142188e-01
-4.62018750e-08,1.92067188e-01
-4.61618750e-08,1.92129688e-01
-4.61218750e-08,1.92070313e-01
-4.60818750e-08,1.92132812e-01
-4.60418750e-08,1.92059375e-01
-4.60018750e-08,1.92164063e-01
-4.59618750e-08,1.91882812e-01
-4.59218750e-08,1.91653125e-01
-4.58818750e-08,1.91723438e-01
-4.58418750e-08,1.91685938e-01
-4.58018750e-08,1.91710938e-01
-4.57618750e-08,1.91692187e-01
-4.57218750e-08,1.91706250e-01
-4.56818750e-08,1.91695313e-01
-4.56418750e-08,1.91704687e-01
-4.56018750e-08,1.91696875e-01
-4.55618750e-08,1.91703125e-01
-4.55218750e-08,1.91696875e-01
-4.54818750e-08,1.91703125e-01
-4.54418750e-08,1.91696875e-01
-4.54018750e-08,1.91703125e-01
-4.53618750e-08,1.91698438e-01
-4.53218750e-08,1.91701563e-01
-4.52818750e-08,1.91696875e-01
-4.52418750e-08,1.91703125e-01
-4.52018750e-08,1.91696875e-01
-4.51618750e-08,1.91703125e-01
-4.51218750e-08,1.91696875e-01
-4.50818750e-08,1.91703125e-01
-4.50418750e-08,1.91696875e-01
-4.50018750e-08,1.91703125e-01
-4.49618750e-08,1.91695313e-01
-4.49218750e-08,1.91704687e-01
-4.48818750e-08,1.91695313e-01
-4.48418750e-08,1.91706250e-01
-4.48018750e-08,1.91692187e-01
-4.47618750e-08,1.91709375e-01
-4.47218750e-08,1.91689063e-01
-4.46818750e-08,1.91714063e-01
-4.46418750e-08,1.91681250e-01
-4.46018750e-08,1.91729687e-01
-4.45618750e-08,1.91645312e-01
-4.45218750e-08,1.91907812e-01
-4.44818750e-08,1.92154688e-01
-4.44418750e-08,1.92070313e-01
-4.44018750e-08,1.92120313e-01
-4.43618750e-08,1.92085937e-01
-4.43218750e-08,1.92109375e-01
-4.42818750e-08,1.92095313e-01
-4.42418750e-08,1.92098437e-01
-4.42018750e-08,1.92110937e-01
-4.41618750e-08,1.92064063e-01
-4.41218750e-08,1.92289062e-01
-4.40818750e-08,1.92573437e-01
-4.40418750e-08,1.92448438e-01
-4.40018750e-08,1.92543750e-01
-4.39618750e-08,1.92459375e-01
-4.39218750e-08,1.92540625e-01
-4.38818750e-08,1.92456250e-01
-4.38418750e-08,1.92553125e-01
-4.38018750e-08,1.92421875e-01
-4.37618750e-08,1.92731250e-01
-4.37218750e-08,1.92931250e-01
-4.36818750e-08,1.92893750e-01
-4.36418750e-08,1.92893750e-01
-4.36018750e-08,1.92914063e-01
-4.35618750e-08,1.92878125e-01
-4.35218750e-08,1.92934375e-01
-4.34818750e-08,1.92839063e-01
-4.34418750e-08,1.93115625e-01
-4.34018750e-08,1.93345313e-01
-4.33618750e-08,1.93281250e-01
-4.33218750e-08,1.93306250e-01
-4.32818750e-08,1.93301562e-01
-4.32418750e-08,1.93289062e-01
-4.32018750e-08,1.93321875e-01
-4.31618750e-08,1.93250000e-01
-4.31218750e-08,1.93504687e-01
-4.30818750e-08,1.93756250e-01
-4.30418750e-08,1.93670312e-01
-4.30018750e-08,1.93718750e-01
-4.29618750e-08,1.93690625e-01
-4.29218750e-08,1.93701563e-01
-4.28818750e-08,1.93710938e-01
-4.28418750e-08,1.93664063e-01
-4.28018750e-08,1.93890625e-01
-4.27618750e-08,1.94171875e-01
-4.27218750e-08,1.94053125e-01
-4.26818750e-08,1.94137500e-01
-4.26418750e-08,1.94067188e-01
-4.26018750e-08,1.94131250e-01
-4.25618750e-08,1.94068750e-01
-4.25218750e-08,1.94132813e-01
-4.24818750e-08,1.94064062e-01
-4.24418750e-08,1.94143750e-01
-4.24018750e-08,1.94031250e-01
-4.23618750e-08,1.94320313e-01
-4.23218750e-08,1.94542188e-01
-4.22818750e-08,1.94481250e-01
-4.22418750e-08,1.94510938e-01
-4.22018750e-08,1.94493750e-01
-4.21618750e-08,1.94503125e-01
-4.21218750e-08,1.94498438e-01
-4.20818750e-08,1.94500000e-01
-4.20418750e-08,1.94500000e-01
-4.20018750e-08,1.94498438e-01
-4.19618750e-08,1.94501563e-01
-4.19218750e-08,1.94498438e-01
-4.18818750e-08,1.94503125e-01
-4.18418750e-08,1.94496875e-01
-4.18018750e-08,1.94503125e-01
-4.17618750e-08,1.94496875e-01
-4.17218750e-08,1.94503125e-01
-4.16818750e-08,1.94496875e-01
-4.16418750e-08,1.94504687e-01
-4.16018750e-08,1.94495313e-01
-4.15618750e-08,1.94504687e-01
-4.15218750e-08,1.94495313e-01
-4.14818750e-08,1.94504687e-01
-4.14418750e-08,1.94495313e-01
-4.14018750e-08,1.94504687e-01
-4.13618750e-08,1.94495313e-01
-4.13218750e-08,1.94506250e-01
-4.12818750e-08,1.94493750e-01
-4.12418750e-08,1.94506250e-01
-4.12018750e-08,1.94493750e-01
-4.11618750e-08,1.94507813e-01
-4.11218750e-08,1.94492187e-01
-4.10818750e-08,1.94509375e-01
-4.10418750e-08,1.94490625e-01
-4.10018750e-08,1.94510938e-01
-4.09618750e-08,1.94487500e-01
-4.09218750e-08,1.94514063e-01
-4.08818750e-08,1.94482813e-01
-4.08418750e-08,1.94523438e-01
-4.08018750e-08,1.94467187e-01
-4.07618750e-08,1.94557813e-01
-4.07218750e-08,1.94289062e-01
-4.06818750e-08,1.94048438e-01
-4.06418750e-08,1.94126563e-01
-4.06018750e-08,1.94082813e-01
-4.05618750e-08,1.94112500e-01
-4.05218750e-08,1.94090625e-01
-4.04818750e-08,1.94106250e-01
-4.04418750e-08,1.94095313e-01
-4.04018750e-08,1.94103125e-01
-4.03618750e-08,1.94098437e-01
-4.03218750e-08,1.94100000e-01
-4.02818750e-08,1.94101563e-01
-4.02418750e-08,1.94096875e-01
-4.02018750e-08,1.94104688e-01
-4.01618750e-08,1.94092188e-01
-4.01218750e-08,1.94114063e-01
-4.00818750e-08,1.94076562e-01
-4.00418750e-08,1.94148437e-01
-4.00018750e-08,1.93898438e-01
-3.99618750e-08,1.93639063e-01
-3.99218750e-08,1.93737500e-01
-3.98818750e-08,1.93671875e-01
-3.98418750e-08,1.93723438e-01
-3.98018750e-08,1.93679688e-01
-3.97618750e-08,1.93718750e-01
-3.97218750e-08,1.93681250e-01
-3.96818750e-08,1.93718750e-01
-3.96418750e-08,1.93681250e-01
-3.96018750e-08,1.93720313e-01
-3.95618750e-08,1.93676563e-01
-3.95218750e-08,1.93728125e-01
-3.94818750e-08,1.93664063e-01
-3.94418750e-08,1.93760938e-01
-3.94018750e-08,1.93485938e-01
-3.93618750e-08,1.93251563e-01
-3.93218750e-08,1.93325000e-01
-3.92818750e-08,1.93284375e-01
-3.92418750e-08,1.93310938e-01
-3.92018750e-08,1.93290625e-01
-3.91618750e-08,1.93306250e-01
-3.91218750e-08,1.93293750e-01
-3.90818750e-08,1.93304688e-01
-3.90418750e-08,1.93295313e-01
-3.90018750e-08,1.93303125e-01
-3.89618750e-08,1.93296875e-01
-3.89218750e-08,1.93303125e-01
-3.88818750e-08,1.93296875e-01
-3.88418750e-08,1.93301562e-01
-3.88018750e-08,1.93298438e-01
-3.87618750e-08,1.93301562e-01
-3.87218750e-08,1.93298438e-01
-3.86818750e-08,1.93301562e-01
-3.86418750e-08,1.93298438e-01
-3.86018750e-08,1.93301562e-01
-3.85618750e-08,1.93298438e-01
-3.85218750e-08,1.93301562e-01
