trails/0b2e18f6fa2cac99b521e237471ff731/aes_ch1_20250507110618174.csv

Model,MSO66B
Label,
Waveform Type,ANALOG
Horizontal Units,s
Sample Interval,4.00000000e-11
Record Length,10000
Zero Index,1599.13281250
Vertical Units,A
ANALOG_Thumbnail,
yOffset,1.84500000e-01
yPosition,8.40000000e-01

Labels,
TIME,CH1
-6.39653125e-08,1.93706250e-01
-6.39253125e-08,1.93692188e-01
-6.38853125e-08,1.93714063e-01
-6.38453125e-08,1.93676563e-01
-6.38053125e-08,1.93748438e-01
-6.37653125e-08,1.93498438e-01
-6.37253125e-08,1.93239063e-01
-6.36853125e-08,1.93337500e-01
-6.36453125e-08,1.93271875e-01
-6.36053125e-08,1.93323438e-01
-6.35653125e-08,1.93279688e-01
-6.35253125e-08,1.93318750e-01
-6.34853125e-08,1.93282813e-01
-6.34453125e-08,1.93315625e-01
-6.34053125e-08,1.93284375e-01
-6.33653125e-08,1.93315625e-01
-6.33253125e-08,1.93285938e-01
-6.32853125e-08,1.93314062e-01
-6.32453125e-08,1.93285938e-01
-6.32053125e-08,1.93314062e-01
-6.31653125e-08,1.93285938e-01
-6.31253125e-08,1.93314062e-01
-6.30853125e-08,1.93285938e-01
-6.30453125e-08,1.93314062e-01
-6.30053125e-08,1.93285938e-01
-6.29653125e-08,1.93314062e-01
-6.29253125e-08,1.93284375e-01
-6.28853125e-08,1.93315625e-01
-6.28453125e-08,1.93284375e-01
-6.28053125e-08,1.93315625e-01
-6.27653125e-08,1.93282813e-01
-6.27253125e-08,1.93317188e-01
-6.26853125e-08,1.93281250e-01
-6.26453125e-08,1.93318750e-01
-6.26053125e-08,1.93279688e-01
-6.25653125e-08,1.93321875e-01
-6.25253125e-08,1.93275000e-01
-6.24853125e-08,1.93328125e-01
-6.24453125e-08,1.93265625e-01
-6.24053125e-08,1.93343750e-01
-6.23653125e-08,1.93231250e-01
-6.23253125e-08,1.93523438e-01
-6.22853125e-08,1.93737500e-01
-6.22453125e-08,1.93685938e-01
-6.22053125e-08,1.93703125e-01
-6.21653125e-08,1.93704688e-01
-6.21253125e-08,1.93690625e-01
-6.20853125e-08,1.93714063e-01
-6.20453125e-08,1.93678125e-01
-6.20053125e-08,1.93732813e-01
-6.19653125e-08,1.93640625e-01
-6.19253125e-08,1.93912500e-01
-6.18853125e-08,1.94148437e-01
-6.18453125e-08,1.94076562e-01
-6.18053125e-08,1.94112500e-01
-6.17653125e-08,1.94093750e-01
-6.17253125e-08,1.94101563e-01
-6.16853125e-08,1.94101563e-01
-6.16453125e-08,1.94093750e-01
-6.16053125e-08,1.94110937e-01
-6.15653125e-08,1.94082813e-01
-6.15253125e-08,1.94126563e-01
-6.14853125e-08,1.94046875e-01
-6.14453125e-08,1.94306250e-01
-6.14053125e-08,1.94554688e-01
-6.13653125e-08,1.94468750e-01
-6.13253125e-08,1.94520313e-01
-6.12853125e-08,1.94484375e-01
-6.12453125e-08,1.94512500e-01
-6.12053125e-08,1.94490625e-01
-6.11653125e-08,1.94507813e-01
-6.11253125e-08,1.94493750e-01
-6.10853125e-08,1.94504687e-01
-6.10453125e-08,1.94496875e-01
-6.10053125e-08,1.94503125e-01
-6.09653125e-08,1.94498438e-01
-6.09253125e-08,1.94501563e-01
-6.08853125e-08,1.94500000e-01
-6.08453125e-08,1.94500000e-01
-6.08053125e-08,1.94501563e-01
-6.07653125e-08,1.94498438e-01
-6.07253125e-08,1.94503125e-01
-6.06853125e-08,1.94496875e-01
-6.06453125e-08,1.94504687e-01
-6.06053125e-08,1.94493750e-01
-6.05653125e-08,1.94506250e-01
-6.05253125e-08,1.94492187e-01
-6.04853125e-08,1.94510938e-01
-6.04453125e-08,1.94487500e-01
-6.04053125e-08,1.94515625e-01
-6.03653125e-08,1.94478125e-01
-6.03253125e-08,1.94531250e-01
-6.02853125e-08,1.94443750e-01
-6.02453125e-08,1.94709375e-01
-6.02053125e-08,1.94951563e-01
-6.01653125e-08,1.94871875e-01
-6.01253125e-08,1.94918750e-01
-6.00853125e-08,1.94887500e-01
-6.00453125e-08,1.94909375e-01
-6.00053125e-08,1.94893750e-01
-5.99653125e-08,1.94904688e-01
-5.99253125e-08,1.94896875e-01
-5.98853125e-08,1.94901563e-01
-5.98453125e-08,1.94900000e-01
-5.98053125e-08,1.94898438e-01
-5.97653125e-08,1.94903125e-01
-5.97253125e-08,1.94895313e-01
-5.96853125e-08,1.94906250e-01
-5.96453125e-08,1.94890625e-01
-5.96053125e-08,1.94912500e-01
-5.95653125e-08,1.94882813e-01
-5.95253125e-08,1.94928125e-01
-5.94853125e-08,1.94846875e-01
-5.94453125e-08,1.95106250e-01
-5.94053125e-08,1.95356250e-01
-5.93653125e-08,1.95268750e-01
-5.93253125e-08,1.95321875e-01
-5.92853125e-08,1.95282813e-01
-5.92453125e-08,1.95312500e-01
-5.92053125e-08,1.95289062e-01
-5.91653125e-08,1.95309375e-01
-5.91253125e-08,1.95292188e-01
-5.90853125e-08,1.95306250e-01
-5.90453125e-08,1.95293750e-01
-5.90053125e-08,1.95304688e-01
-5.89653125e-08,1.95296875e-01
-5.89253125e-08,1.95303125e-01
-5.88853125e-08,1.95298438e-01
-5.88453125e-08,1.95301562e-01
-5.88053125e-08,1.95300000e-01
-5.87653125e-08,1.95300000e-01
-5.87253125e-08,1.95301562e-01
-5.86853125e-08,1.95296875e-01
-5.86453125e-08,1.95304688e-01
-5.86053125e-08,1.95293750e-01
-5.85653125e-08,1.95307813e-01
-5.85253125e-08,1.95289062e-01
-5.84853125e-08,1.95317188e-01
-5.84453125e-08,1.95273438e-01
-5.84053125e-08,1.95351563e-01
-5.83653125e-08,1.95095313e-01
-5.83253125e-08,1.94842188e-01
-5.82853125e-08,1.94932812e-01
-5.82453125e-08,1.94876563e-01
-5.82053125e-08,1.94918750e-01
-5.81653125e-08,1.94884375e-01
-5.81253125e-08,1.94912500e-01
-5.80853125e-08,1.94889063e-01
-5.80453125e-08,1.94910937e-01
-5.80053125e-08,1.94890625e-01
-5.79653125e-08,1.94907812e-01
-5.79253125e-08,1.94892188e-01
-5.78853125e-08,1.94907812e-01
-5.78453125e-08,1.94893750e-01
-5.78053125e-08,1.94906250e-01
-5.77653125e-08,1.94893750e-01
-5.77253125e-08,1.94904688e-01
-5.76853125e-08,1.94895313e-01
-5.76453125e-08,1.94904688e-01
-5.76053125e-08,1.94895313e-01
-5.75653125e-08,1.94903125e-01
-5.75253125e-08,1.94896875e-01
-5.74853125e-08,1.94903125e-01
-5.74453125e-08,1.94896875e-01
-5.74053125e-08,1.94903125e-01
-5.73653125e-08,1.94896875e-01
-5.73253125e-08,1.94901563e-01
-5.72853125e-08,1.94898438e-01
-5.72453125e-08,1.94901563e-01
-5.72053125e-08,1.94898438e-01
-5.71653125e-08,1.94900000e-01
-5.71253125e-08,1.94900000e-01
-5.70853125e-08,1.94900000e-01
-5.70453125e-08,1.94900000e-01
-5.70053125e-08,1.94898438e-01
-5.69653125e-08,1.94901563e-01
-5.69253125e-08,1.94898438e-01
-5.68853125e-08,1.94903125e-01
-5.68453125e-08,1.94896875e-01
-5.68053125e-08,1.94904688e-01
-5.67653125e-08,1.94893750e-01
-5.67253125e-08,1.94907812e-01
-5.66853125e-08,1.94890625e-01
-5.66453125e-08,1.94912500e-01
-5.66053125e-08,1.94882813e-01
-5.65653125e-08,1.94928125e-01
-5.65253125e-08,1.94846875e-01
-5.64853125e-08,1.95106250e-01
-5.64453125e-08,1.95356250e-01
-5.64053125e-08,1.95267187e-01
-5.63653125e-08,1.95323438e-01
-5.63253125e-08,1.95282813e-01
-5.62853125e-08,1.95314062e-01
-5.62453125e-08,1.95287500e-01
-5.62053125e-08,1.95310938e-01
-5.61653125e-08,1.95290625e-01
-5.61253125e-08,1.95307813e-01
-5.60853125e-08,1.95292188e-01
-5.60453125e-08,1.95306250e-01
-5.60053125e-08,1.95293750e-01
-5.59653125e-08,1.95304688e-01
-5.59253125e-08,1.95295313e-01
-5.58853125e-08,1.95304688e-01
-5.58453125e-08,1.95296875e-01
-5.58053125e-08,1.95303125e-01
-5.57653125e-08,1.95298438e-01
-5.57253125e-08,1.95301562e-01
-5.56853125e-08,1.95300000e-01
-5.56453125e-08,1.95300000e-01
-5.56053125e-08,1.95301562e-01
-5.55653125e-08,1.95296875e-01
-5.55253125e-08,1.95306250e-01
-5.54853125e-08,1.95290625e-01
-5.54453125e-08,1.95314062e-01
-5.54053125e-08,1.95276563e-01
-5.53653125e-08,1.95348437e-01
-5.53253125e-08,1.95098437e-01
-5.52853125e-08,1.94839062e-01
-5.52453125e-08,1.94935938e-01
-5.52053125e-08,1.94873437e-01
-5.51653125e-08,1.94921875e-01
-5.51253125e-08,1.94881250e-01
-5.50853125e-08,1.94917188e-01
-5.50453125e-08,1.94884375e-01
-5.50053125e-08,1.94914063e-01
-5.49653125e-08,1.94885937e-01
-5.49253125e-08,1.94914063e-01
-5.48853125e-08,1.94887500e-01
-5.48453125e-08,1.94912500e-01
-5.48053125e-08,1.94887500e-01
-5.47653125e-08,1.94912500e-01
-5.47253125e-08,1.94887500e-01
-5.46853125e-08,1.94912500e-01
-5.46453125e-08,1.94887500e-01
-5.46053125e-08,1.94914063e-01
-5.45653125e-08,1.94885937e-01
-5.45253125e-08,1.94915625e-01
-5.44853125e-08,1.94882813e-01
-5.44453125e-08,1.94920312e-01
-5.44053125e-08,1.94875000e-01
-5.43653125e-08,1.94934375e-01
-5.43253125e-08,1.94842188e-01
-5.42853125e-08,1.95110937e-01
-5.42453125e-08,1.95351563e-01
-5.42053125e-08,1.95271875e-01
-5.41653125e-08,1.95320313e-01
-5.41253125e-08,1.95284375e-01
-5.40853125e-08,1.95314062e-01
-5.40453125e-08,1.95287500e-01
-5.40053125e-08,1.95312500e-01
-5.39653125e-08,1.95285938e-01
-5.39253125e-08,1.95315625e-01
-5.38853125e-08,1.95279688e-01
-5.38453125e-08,1.95329688e-01
-5.38053125e-08,1.95246875e-01
-5.37653125e-08,1.95506250e-01
-5.37253125e-08,1.95756250e-01
-5.36853125e-08,1.95667188e-01
-5.36453125e-08,1.95723438e-01
-5.36053125e-08,1.95681250e-01
-5.35653125e-08,1.95715625e-01
-5.35253125e-08,1.95685938e-01
-5.34853125e-08,1.95712500e-01
-5.34453125e-08,1.95687500e-01
-5.34053125e-08,1.95710938e-01
-5.33653125e-08,1.95689063e-01
-5.33253125e-08,1.95710938e-01
-5.32853125e-08,1.95690625e-01
-5.32453125e-08,1.95709375e-01
-5.32053125e-08,1.95690625e-01
-5.31653125e-08,1.95709375e-01
-5.31253125e-08,1.95690625e-01
-5.30853125e-08,1.95709375e-01
-5.30453125e-08,1.95690625e-01
-5.30053125e-08,1.95710938e-01
-5.29653125e-08,1.95689063e-01
-5.29253125e-08,1.95710938e-01
-5.28853125e-08,1.95689063e-01
-5.28453125e-08,1.95712500e-01
-5.28053125e-08,1.95687500e-01
-5.27653125e-08,1.95714063e-01
-5.27253125e-08,1.95684375e-01
-5.26853125e-08,1.95717188e-01
-5.26453125e-08,1.95679688e-01
-5.26053125e-08,1.95725000e-01
-5.25653125e-08,1.95665625e-01
-5.25253125e-08,1.95759375e-01
-5.24853125e-08,1.95487500e-01
-5.24453125e-08,1.95250000e-01
-5.24053125e-08,1.95325000e-01
-5.23653125e-08,1.95284375e-01
-5.23253125e-08,1.95310938e-01
-5.22853125e-08,1.95292188e-01
-5.22453125e-08,1.95306250e-01
-5.22053125e-08,1.95295313e-01
-5.21653125e-08,1.95303125e-01
-5.21253125e-08,1.95296875e-01
-5.20853125e-08,1.95301562e-01
-5.20453125e-08,1.95298438e-01
-5.20053125e-08,1.95301562e-01
-5.19653125e-08,1.95298438e-01
-5.19253125e-08,1.95300000e-01
-5.18853125e-08,1.95300000e-01
-5.18453125e-08,1.95300000e-01
-5.18053125e-08,1.95300000e-01
-5.17653125e-08,1.95300000e-01
-5.17253125e-08,1.95300000e-01
-5.16853125e-08,1.95298438e-01
-5.16453125e-08,1.95301562e-01
-5.16053125e-08,1.95298438e-01
-5.15653125e-08,1.95301562e-01
-5.15253125e-08,1.95298438e-01
-5.14853125e-08,1.95301562e-01
-5.14453125e-08,1.95298438e-01
-5.14053125e-08,1.95301562e-01
-5.13653125e-08,1.95298438e-01
-5.13253125e-08,1.95301562e-01
-5.12853125e-08,1.95298438e-01
-5.12453125e-08,1.95301562e-01
-5.12053125e-08,1.95298438e-01
-5.11653125e-08,1.95303125e-01
-5.11253125e-08,1.95296875e-01
-5.10853125e-08,1.95303125e-01
-5.10453125e-08,1.95296875e-01
-5.10053125e-08,1.95303125e-01
-5.09653125e-08,1.95296875e-01
-5.09253125e-08,1.95303125e-01
-5.08853125e-08,1.95296875e-01
-5.08453125e-08,1.95303125e-01
-5.08053125e-08,1.95296875e-01
-5.07653125e-08,1.95303125e-01
-5.07253125e-08,1.95296875e-01
-5.06853125e-08,1.95304688e-01
-5.06453125e-08,1.95295313e-01
-5.06053125e-08,1.95304688e-01
-5.05653125e-08,1.95295313e-01
-5.05253125e-08,1.95304688e-01
-5.04853125e-08,1.95295313e-01
-5.04453125e-08,1.95306250e-01
-5.04053125e-08,1.95293750e-01
-5.03653125e-08,1.95306250e-01
-5.03253125e-08,1.95292188e-01
-5.02853125e-08,1.95307813e-01
-5.02453125e-08,1.95290625e-01
-5.02053125e-08,1.95310938e-01
-5.01653125e-08,1.95287500e-01
-5.01253125e-08,1.95314062e-01
-5.00853125e-08,1.95282813e-01
-5.00453125e-08,1.95321875e-01
-5.00053125e-08,1.95267187e-01
-4.99653125e-08,1.95357813e-01
-4.99253125e-08,1.95089063e-01
-4.98853125e-08,1.94848437e-01
-4.98453125e-08,1.94926563e-01
-4.98053125e-08,1.94882813e-01
-4.97653125e-08,1.94910937e-01
-4.97253125e-08,1.94892188e-01
-4.96853125e-08,1.94903125e-01
-4.96453125e-08,1.94900000e-01
-4.96053125e-08,1.94896875e-01
-4.95653125e-08,1.94909375e-01
-4.95253125e-08,1.94881250e-01
-4.94853125e-08,1.94943750e-01
-4.94453125e-08,1.94703125e-01
-4.94053125e-08,1.94434375e-01
-4.93653125e-08,1.94542188e-01
-4.93253125e-08,1.94467187e-01
-4.92853125e-08,1.94529687e-01
-4.92453125e-08,1.94471875e-01
-4.92053125e-08,1.94528125e-01
-4.91653125e-08,1.94470313e-01
-4.91253125e-08,1.94532813e-01
-4.90853125e-08,1.94457812e-01
-4.90453125e-08,1.94565625e-01
-4.90053125e-08,1.94281250e-01
-4.89653125e-08,1.94056250e-01
-4.89253125e-08,1.94120313e-01
-4.88853125e-08,1.94089063e-01
-4.88453125e-08,1.94106250e-01
-4.88053125e-08,1.94096875e-01
-4.87653125e-08,1.94100000e-01
-4.87253125e-08,1.94101563e-01
-4.86853125e-08,1.94096875e-01
-4.86453125e-08,1.94104688e-01
-4.86053125e-08,1.94093750e-01
-4.85653125e-08,1.94109375e-01
-4.85253125e-08,1.94087500e-01
-4.84853125e-08,1.94117188e-01
-4.84453125e-08,1.94071875e-01
-4.84053125e-08,1.94153125e-01
-4.83653125e-08,1.93893750e-01
-4.83253125e-08,1.93643750e-01
-4.82853125e-08,1.93732813e-01
-4.82453125e-08,1.93676563e-01
-4.82053125e-08,1.93718750e-01
-4.81653125e-08,1.93684375e-01
-4.81253125e-08,1.93712500e-01
-4.80853125e-08,1.93687500e-01
-4.80453125e-08,1.93710938e-01
-4.80053125e-08,1.93690625e-01
-4.79653125e-08,1.93709375e-01
-4.79253125e-08,1.93690625e-01
-4.78853125e-08,1.93709375e-01
-4.78453125e-08,1.93692188e-01
-4.78053125e-08,1.93707813e-01
-4.77653125e-08,1.93692188e-01
-4.77253125e-08,1.93707813e-01
-4.76853125e-08,1.93692188e-01
-4.76453125e-08,1.93707813e-01
-4.76053125e-08,1.93692188e-01
-4.75653125e-08,1.93709375e-01
-4.75253125e-08,1.93690625e-01
-4.74853125e-08,1.93709375e-01
-4.74453125e-08,1.93689063e-01
-4.74053125e-08,1.93710938e-01
-4.73653125e-08,1.93687500e-01
-4.73253125e-08,1.93715625e-01
-4.72853125e-08,1.93682812e-01
-4.72453125e-08,1.93723438e-01
-4.72053125e-08,1.93667188e-01
-4.71653125e-08,1.93757813e-01
-4.71253125e-08,1.93489063e-01
-4.70853125e-08,1.93248438e-01
-4.70453125e-08,1.93328125e-01
-4.70053125e-08,1.93281250e-01
-4.69653125e-08,1.93314062e-01
-4.69253125e-08,1.93289062e-01
-4.68853125e-08,1.93309375e-01
-4.68453125e-08,1.93292188e-01
-4.68053125e-08,1.93306250e-01
-4.67653125e-08,1.93293750e-01
-4.67253125e-08,1.93304688e-01
-4.66853125e-08,1.93295313e-01
-4.66453125e-08,1.93304688e-01
-4.66053125e-08,1.93296875e-01
-4.65653125e-08,1.93303125e-01
-4.65253125e-08,1.93296875e-01
-4.64853125e-08,1.93303125e-01
-4.64453125e-08,1.93296875e-01
-4.64053125e-08,1.93303125e-01
-4.63653125e-08,1.93296875e-01
-4.63253125e-08,1.93301562e-01
-4.62853125e-08,1.93298438e-01
-4.62453125e-08,1.93301562e-01
-4.62053125e-08,1.93298438e-01
-4.61653125e-08,1.93301562e-01
-4.61253125e-08,1.93298438e-01
-4.60853125e-08,1.93301562e-01
-4.60453125e-08,1.93298438e-01
-4.60053125e-08,1.93301562e-01
-4.59653125e-08,1.93298438e-01
-4.59253125e-08,1.93301562e-01
-4.58853125e-08,1.93298438e-01
-4.58453125e-08,1.93301562e-01
-4.58053125e-08,1.93298438e-01
-4.57653125e-08,1.93301562e-01
-4.57253125e-08,1.93298438e-01
-4.56853125e-08,1.93301562e-01
-4.56453125e-08,1.93298438e-01
-4.56053125e-08,1.93301562e-01
-4.55653125e-08,1.93298438e-01
-4.55253125e-08,1.93301562e-01
-4.54853125e-08,1.93298438e-01
-4.54453125e-08,1.93301562e-01
-4.54053125e-08,1.93298438e-01
-4.53653125e-08,1.93301562e-01
-4.53253125e-08,1.93298438e-01
-4.52853125e-08,1.93301562e-01
-4.52453125e-08,1.93298438e-01
-4.52053125e-08,1.93301562e-01
-4.51653125e-08,1.93298438e-01
-4.51253125e-08,1.93301562e-01
-4.50853125e-08,1.93298438e-01
-4.50453125e-08,1.93301562e-01
-4.50053125e-08,1.93298438e-01
-4.49653125e-08,1.93301562e-01
-4.49253125e-08,1.93298438e-01
-4.48853125e-08,1.93301562e-01
-4.48453125e-08,1.93298438e-01
-4.48053125e-08,1.93301562e-01
-4.47653125e-08,1.93298438e-01
-4.47253125e-08,1.93301562e-01
-4.46853125e-08,1.93298438e-01
-4.46453125e-08,1.93301562e-01
-4.46053125e-08,1.93298438e-01
-4.45653125e-08,1.93301562e-01
-4.45253125e-08,1.93298438e-01
-4.44853125e-08,1.93301562e-01
-4.44453125e-08,1.93298438e-01
-4.44053125e-08,1.93301562e-01
-4.43653125e-08,1.93296875e-01
-4.43253125e-08,1.93303125e-01
-4.42853125e-08,1.93296875e-01
-4.42453125e-08,1.93303125e-01
-4.42053125e-08,1.93296875e-01
-4.41653125e-08,1.93303125e-01
-4.41253125e-08,1.93295313e-01
-4.40853125e-08,1.93304688e-01
-4.40453125e-08,1.93295313e-01
-4.40053125e-08,1.93306250e-01
-4.39653125e-08,1.93293750e-01
-4.39253125e-08,1.93307813e-01
-4.38853125e-08,1.93289062e-01
-4.38453125e-08,1.93312500e-01
-4.38053125e-08,1.93281250e-01
-4.37653125e-08,1.93328125e-01
-4.37253125e-08,1.93248438e-01
-4.36853125e-08,1.93504687e-01
-4.36453125e-08,1.93757813e-01
-4.36053125e-08,1.93665625e-01
-4.35653125e-08,1.93725000e-01
-4.35253125e-08,1.93679688e-01
-4.34853125e-08,1.93717187e-01
-4.34453125e-08,1.93684375e-01
-4.34053125e-08,1.93715625e-01
-4.33653125e-08,1.93684375e-01
-4.33253125e-08,1.93715625e-01
-4.32853125e-08,1.93682812e-01
-4.32453125e-08,1.93720313e-01
-4.32053125e-08,1.93675000e-01
-4.31653125e-08,1.93734375e-01
-4.31253125e-08,1.93642188e-01
-4.30853125e-08,1.93910938e-01
-4.30453125e-08,1.94151563e-01
-4.30053125e-08,1.94071875e-01
-4.29653125e-08,1.94118750e-01
-4.29253125e-08,1.94085937e-01
-4.28853125e-08,1.94110937e-01
-4.28453125e-08,1.94090625e-01
-4.28053125e-08,1.94107813e-01
-4.27653125e-08,1.94092188e-01
-4.27253125e-08,1.94107813e-01
-4.26853125e-08,1.94093750e-01
-4.26453125e-08,1.94106250e-01
-4.26053125e-08,1.94093750e-01
-4.25653125e-08,1.94106250e-01
-4.25253125e-08,1.94093750e-01
-4.24853125e-08,1.94107813e-01
-4.24453125e-08,1.94092188e-01
-4.24053125e-08,1.94109375e-01
-4.23653125e-08,1.94090625e-01
-4.23253125e-08,1.94112500e-01
-4.22853125e-08,1.94085937e-01
-4.22453125e-08,1.94118750e-01
-4.22053125e-08,1.94070313e-01
-4.21653125e-08,1.94153125e-01
-4.21253125e-08,1.93893750e-01
-4.20853125e-08,1.93643750e-01
-4.20453125e-08,1.93732813e-01
-4.20053125e-08,1.93676563e-01
-4.19653125e-08,1.93718750e-01
-4.19253125e-08,1.93682812e-01
-4.18853125e-08,1.93715625e-01
-4.18453125e-08,1.93684375e-01
-4.18053125e-08,1.93715625e-01
-4.17653125e-08,1.93684375e-01
-4.17253125e-08,1.93717187e-01
-4.16853125e-08,1.93681250e-01
-4.16453125e-08,1.93723438e-01
-4.16053125e-08,1.93667188e-01
-4.15653125e-08,1.93757813e-01
-4.15253125e-08,1.93489063e-01
-4.14853125e-08,1.93248438e-01
-4.14453125e-08,1.93328125e-01
-4.14053125e-08,1.93281250e-01
-4.13653125e-08,1.93314062e-01
-4.13253125e-08,1.93287500e-01
-4.12853125e-08,1.93310938e-01
-4.12453125e-08,1.93290625e-01
-4.12053125e-08,1.93307813e-01
-4.11653125e-08,1.93292188e-01
-4.11253125e-08,1.93306250e-01
-4.10853125e-08,1.93293750e-01
-4.10453125e-08,1.93306250e-01
-4.10053125e-08,1.93293750e-01
-4.09653125e-08,1.93306250e-01
-4.09253125e-08,1.93293750e-01
-4.08853125e-08,1.93306250e-01
-4.08453125e-08,1.93293750e-01
-4.08053125e-08,1.93306250e-01
-4.07653125e-08,1.93292188e-01
-4.07253125e-08,1.93307813e-01
-4.06853125e-08,1.93292188e-01
-4.06453125e-08,1.93309375e-01
-4.06053125e-08,1.93290625e-01
-4.05653125e-08,1.93310938e-01
-4.05253125e-08,1.93285938e-01
-4.04853125e-08,1.93317188e-01
-4.04453125e-08,1.93278125e-01
-4.04053125e-08,1.93331250e-01
-4.03653125e-08,1.93243750e-01
-4.03253125e-08,1.93509375e-01
-4.02853125e-08,1.93753125e-01
-4.02453125e-08,1.93670312e-01
-4.02053125e-08,1.93720313e-01
-4.01653125e-08,1.93684375e-01
-4.01253125e-08,1.93712500e-01
-4.00853125e-08,1.93690625e-01
-4.00453125e-08,1.93707813e-01
-4.00053125e-08,1.93692188e-01
-3.99653125e-08,1.93706250e-01
-3.99253125e-08,1.93693750e-01
-3.98853125e-08,1.93704688e-01
-3.98453125e-08,1.93695312e-01
-3.98053125e-08,1.93704688e-01
-3.97653125e-08,1.93695312e-01
-3.97253125e-08,1.93703125e-01
-3.96853125e-08,1.93696875e-01
-3.96453125e-08,1.93703125e-01
-3.96053125e-08,1.93696875e-01
-3.95653125e-08,1.93703125e-01
-3.95253125e-08,1.93696875e-01
-3.94853125e-08,1.93701563e-01
-3.94453125e-08,1.93698438e-01
-3.94053125e-08,1.93701563e-01
-3.93653125e-08,1.93698438e-01
-3.93253125e-08,1.93701563e-01
-3.92853125e-08,1.93698438e-01
-3.92453125e-08,1.93701563e-01
-3.92053125e-08,1.93698438e-01
-3.91653125e-08,1.93701563e-01
-3.91253125e-08,1.93700000e-01
-3.90853125e-08,1.93700000e-01
-3.90453125e-08,1.93700000e-01
-3.90053125e-08,1.93700000e-01
-3.89653125e-08,1.93700000e-01
-3.89253125e-08,1.93700000e-01
-3.88853125e-08,1.93700000e-01
-3.88453125e-08,1.93698438e-01
-3.88053125e-08,1.93701563e-01
-3.87653125e-08,1.93698438e-01
-3.87253125e-08,1.93701563e-01
-3.86853125e-08,1.93696875e-01
-3.86453125e-08,1.93703125e-01
-3.86053125e-08,1.93696875e-01
-3.85653125e-08,1.93704688e-01
-3.85253125e-08,1.93693750e-01
