trails/0b2e18f6fa2cac99b521e237471ff731/aes_ch1_20250507110447501.csv

Model,MSO66B
Label,
Waveform Type,ANALOG
Horizontal Units,s
Sample Interval,4.00000000e-11
Record Length,10000
Zero Index,1599.03125000
Vertical Units,A
ANALOG_Thumbnail,
yOffset,1.84500000e-01
yPosition,8.40000000e-01

Labels,
TIME,CH1
-6.39612500e-08,1.86546875e-01
-6.39212500e-08,1.86478125e-01
-6.38812500e-08,1.86510938e-01
-6.38412500e-08,1.86495313e-01
-6.38012500e-08,1.86500000e-01
-6.37612500e-08,1.86503125e-01
-6.37212500e-08,1.86492188e-01
-6.36812500e-08,1.86512500e-01
-6.36412500e-08,1.86481250e-01
-6.36012500e-08,1.86529688e-01
-6.35612500e-08,1.86445313e-01
-6.35212500e-08,1.86709375e-01
-6.34812500e-08,1.86951563e-01
-6.34412500e-08,1.86871875e-01
-6.34012500e-08,1.86917187e-01
-6.33612500e-08,1.86889063e-01
-6.33212500e-08,1.86907812e-01
-6.32812500e-08,1.86896875e-01
-6.32412500e-08,1.86901563e-01
-6.32012500e-08,1.86901563e-01
-6.31612500e-08,1.86895313e-01
-6.31212500e-08,1.86909375e-01
-6.30812500e-08,1.86884375e-01
-6.30412500e-08,1.86925000e-01
-6.30012500e-08,1.86848438e-01
-6.29612500e-08,1.87104688e-01
-6.29212500e-08,1.87356250e-01
-6.28812500e-08,1.87267188e-01
-6.28412500e-08,1.87321875e-01
-6.28012500e-08,1.87282813e-01
-6.27612500e-08,1.87314063e-01
-6.27212500e-08,1.87289063e-01
-6.26812500e-08,1.87309375e-01
-6.26412500e-08,1.87292188e-01
-6.26012500e-08,1.87306250e-01
-6.25612500e-08,1.87295313e-01
-6.25212500e-08,1.87303125e-01
-6.24812500e-08,1.87296875e-01
-6.24412500e-08,1.87301563e-01
-6.24012500e-08,1.87300000e-01
-6.23612500e-08,1.87298437e-01
-6.23212500e-08,1.87303125e-01
-6.22812500e-08,1.87295313e-01
-6.22412500e-08,1.87306250e-01
-6.22012500e-08,1.87290625e-01
-6.21612500e-08,1.87315625e-01
-6.21212500e-08,1.87275000e-01
-6.20812500e-08,1.87350000e-01
-6.20412500e-08,1.87096875e-01
-6.20012500e-08,1.86840625e-01
-6.19612500e-08,1.86935938e-01
-6.19212500e-08,1.86873438e-01
-6.18812500e-08,1.86921875e-01
-6.18412500e-08,1.86881250e-01
-6.18012500e-08,1.86917187e-01
-6.17612500e-08,1.86884375e-01
-6.17212500e-08,1.86915625e-01
-6.16812500e-08,1.86884375e-01
-6.16412500e-08,1.86917187e-01
-6.16012500e-08,1.86881250e-01
-6.15612500e-08,1.86923438e-01
-6.15212500e-08,1.86867188e-01
-6.14812500e-08,1.86956250e-01
-6.14412500e-08,1.86690625e-01
-6.14012500e-08,1.86445313e-01
-6.13612500e-08,1.86531250e-01
-6.13212500e-08,1.86478125e-01
-6.12812500e-08,1.86518750e-01
-6.12412500e-08,1.86484375e-01
-6.12012500e-08,1.86515625e-01
-6.11612500e-08,1.86484375e-01
-6.11212500e-08,1.86515625e-01
-6.10812500e-08,1.86484375e-01
-6.10412500e-08,1.86517188e-01
-6.10012500e-08,1.86479688e-01
-6.09612500e-08,1.86525000e-01
-6.09212500e-08,1.86465625e-01
-6.08812500e-08,1.86559375e-01
-6.08412500e-08,1.86287500e-01
-6.08012500e-08,1.86051563e-01
-6.07612500e-08,1.86125000e-01
-6.07212500e-08,1.86084375e-01
-6.06812500e-08,1.86110938e-01
-6.06412500e-08,1.86093750e-01
-6.06012500e-08,1.86104688e-01
-6.05612500e-08,1.86096875e-01
-6.05212500e-08,1.86100000e-01
-6.04812500e-08,1.86101563e-01
-6.04412500e-08,1.86096875e-01
-6.04012500e-08,1.86104688e-01
-6.03612500e-08,1.86093750e-01
-6.03212500e-08,1.86109375e-01
-6.02812500e-08,1.86087500e-01
-6.02412500e-08,1.86117188e-01
-6.02012500e-08,1.86071875e-01
-6.01612500e-08,1.86153125e-01
-6.01212500e-08,1.85893750e-01
-6.00812500e-08,1.85643750e-01
-6.00412500e-08,1.85732813e-01
-6.00012500e-08,1.85678125e-01
-5.99612500e-08,1.85717188e-01
-5.99212500e-08,1.85685938e-01
-5.98812500e-08,1.85712500e-01
-5.98412500e-08,1.85689063e-01
-5.98012500e-08,1.85709375e-01
-5.97612500e-08,1.85692187e-01
-5.97212500e-08,1.85707813e-01
-5.96812500e-08,1.85693750e-01
-5.96412500e-08,1.85706250e-01
-5.96012500e-08,1.85695313e-01
-5.95612500e-08,1.85704688e-01
-5.95212500e-08,1.85695313e-01
-5.94812500e-08,1.85704688e-01
-5.94412500e-08,1.85696875e-01
-5.94012500e-08,1.85703125e-01
-5.93612500e-08,1.85696875e-01
-5.93212500e-08,1.85703125e-01
-5.92812500e-08,1.85696875e-01
-5.92412500e-08,1.85701563e-01
-5.92012500e-08,1.85698438e-01
-5.91612500e-08,1.85701563e-01
-5.91212500e-08,1.85698438e-01
-5.90812500e-08,1.85701563e-01
-5.90412500e-08,1.85698438e-01
-5.90012500e-08,1.85701563e-01
-5.89612500e-08,1.85700000e-01
-5.89212500e-08,1.85700000e-01
-5.88812500e-08,1.85700000e-01
-5.88412500e-08,1.85700000e-01
-5.88012500e-08,1.85700000e-01
-5.87612500e-08,1.85700000e-01
-5.87212500e-08,1.85700000e-01
-5.86812500e-08,1.85700000e-01
-5.86412500e-08,1.85701563e-01
-5.86012500e-08,1.85698438e-01
-5.85612500e-08,1.85701563e-01
-5.85212500e-08,1.85698438e-01
-5.84812500e-08,1.85701563e-01
-5.84412500e-08,1.85698438e-01
-5.84012500e-08,1.85703125e-01
-5.83612500e-08,1.85696875e-01
-5.83212500e-08,1.85703125e-01
-5.82812500e-08,1.85696875e-01
-5.82412500e-08,1.85703125e-01
-5.82012500e-08,1.85696875e-01
-5.81612500e-08,1.85704688e-01
-5.81212500e-08,1.85695313e-01
-5.80812500e-08,1.85704688e-01
-5.80412500e-08,1.85695313e-01
-5.80012500e-08,1.85706250e-01
-5.79612500e-08,1.85693750e-01
-5.79212500e-08,1.85707813e-01
-5.78812500e-08,1.85692187e-01
-5.78412500e-08,1.85709375e-01
-5.78012500e-08,1.85690625e-01
-5.77612500e-08,1.85710938e-01
-5.77212500e-08,1.85687500e-01
-5.76812500e-08,1.85714062e-01
-5.76412500e-08,1.85682813e-01
-5.76012500e-08,1.85720313e-01
-5.75612500e-08,1.85673438e-01
-5.75212500e-08,1.85735938e-01
-5.74812500e-08,1.85637500e-01
-5.74412500e-08,1.85917187e-01
-5.74012500e-08,1.86143750e-01
-5.73612500e-08,1.86082812e-01
-5.73212500e-08,1.86104688e-01
-5.72812500e-08,1.86104688e-01
-5.72412500e-08,1.86082812e-01
-5.72012500e-08,1.86143750e-01
-5.71612500e-08,1.85901563e-01
-5.71212500e-08,1.85637500e-01
-5.70812500e-08,1.85737500e-01
-5.70412500e-08,1.85673438e-01
-5.70012500e-08,1.85721875e-01
-5.69612500e-08,1.85682813e-01
-5.69212500e-08,1.85715625e-01
-5.68812500e-08,1.85685938e-01
-5.68412500e-08,1.85712500e-01
-5.68012500e-08,1.85689063e-01
-5.67612500e-08,1.85709375e-01
-5.67212500e-08,1.85690625e-01
-5.66812500e-08,1.85707813e-01
-5.66412500e-08,1.85692187e-01
-5.66012500e-08,1.85706250e-01
-5.65612500e-08,1.85693750e-01
-5.65212500e-08,1.85706250e-01
-5.64812500e-08,1.85695313e-01
-5.64412500e-08,1.85704688e-01
-5.64012500e-08,1.85695313e-01
-5.63612500e-08,1.85704688e-01
-5.63212500e-08,1.85696875e-01
-5.62812500e-08,1.85703125e-01
-5.62412500e-08,1.85696875e-01
-5.62012500e-08,1.85703125e-01
-5.61612500e-08,1.85696875e-01
-5.61212500e-08,1.85703125e-01
-5.60812500e-08,1.85698438e-01
-5.60412500e-08,1.85701563e-01
-5.60012500e-08,1.85698438e-01
-5.59612500e-08,1.85701563e-01
-5.59212500e-08,1.85698438e-01
-5.58812500e-08,1.85700000e-01
-5.58412500e-08,1.85700000e-01
-5.58012500e-08,1.85700000e-01
-5.57612500e-08,1.85700000e-01
-5.57212500e-08,1.85700000e-01
-5.56812500e-08,1.85701563e-01
-5.56412500e-08,1.85698438e-01
-5.56012500e-08,1.85701563e-01
-5.55612500e-08,1.85698438e-01
-5.55212500e-08,1.85703125e-01
-5.54812500e-08,1.85696875e-01
-5.54412500e-08,1.85703125e-01
-5.54012500e-08,1.85695313e-01
-5.53612500e-08,1.85704688e-01
-5.53212500e-08,1.85693750e-01
-5.52812500e-08,1.85706250e-01
-5.52412500e-08,1.85692187e-01
-5.52012500e-08,1.85709375e-01
-5.51612500e-08,1.85687500e-01
-5.51212500e-08,1.85715625e-01
-5.50812500e-08,1.85679687e-01
-5.50412500e-08,1.85731250e-01
-5.50012500e-08,1.85643750e-01
-5.49612500e-08,1.85909375e-01
-5.49212500e-08,1.86151563e-01
-5.48812500e-08,1.86071875e-01
-5.48412500e-08,1.86117188e-01
-5.48012500e-08,1.86087500e-01
-5.47612500e-08,1.86107812e-01
-5.47212500e-08,1.86093750e-01
-5.46812500e-08,1.86103125e-01
-5.46412500e-08,1.86100000e-01
-5.46012500e-08,1.86096875e-01
-5.45612500e-08,1.86106250e-01
-5.45212500e-08,1.86087500e-01
-5.44812500e-08,1.86121875e-01
-5.44412500e-08,1.86051563e-01
-5.44012500e-08,1.86301563e-01
-5.43612500e-08,1.86560937e-01
-5.43212500e-08,1.86464062e-01
-5.42812500e-08,1.86526562e-01
-5.42412500e-08,1.86478125e-01
-5.42012500e-08,1.86518750e-01
-5.41612500e-08,1.86484375e-01
-5.41212500e-08,1.86514062e-01
-5.40812500e-08,1.86487500e-01
-5.40412500e-08,1.86512500e-01
-5.40012500e-08,1.86489062e-01
-5.39612500e-08,1.86510938e-01
-5.39212500e-08,1.86490625e-01
-5.38812500e-08,1.86509375e-01
-5.38412500e-08,1.86490625e-01
-5.38012500e-08,1.86507813e-01
-5.37612500e-08,1.86492188e-01
-5.37212500e-08,1.86507813e-01
-5.36812500e-08,1.86492188e-01
-5.36412500e-08,1.86507813e-01
-5.36012500e-08,1.86493750e-01
-5.35612500e-08,1.86506250e-01
-5.35212500e-08,1.86493750e-01
-5.34812500e-08,1.86506250e-01
-5.34412500e-08,1.86493750e-01
-5.34012500e-08,1.86506250e-01
-5.33612500e-08,1.86493750e-01
-5.33212500e-08,1.86504688e-01
-5.32812500e-08,1.86495313e-01
-5.32412500e-08,1.86504688e-01
-5.32012500e-08,1.86495313e-01
-5.31612500e-08,1.86504688e-01
-5.31212500e-08,1.86495313e-01
-5.30812500e-08,1.86504688e-01
-5.30412500e-08,1.86495313e-01
-5.30012500e-08,1.86504688e-01
-5.29612500e-08,1.86495313e-01
-5.29212500e-08,1.86503125e-01
-5.28812500e-08,1.86496875e-01
-5.28412500e-08,1.86503125e-01
-5.28012500e-08,1.86496875e-01
-5.27612500e-08,1.86503125e-01
-5.27212500e-08,1.86496875e-01
-5.26812500e-08,1.86503125e-01
-5.26412500e-08,1.86496875e-01
-5.26012500e-08,1.86503125e-01
-5.25612500e-08,1.86496875e-01
-5.25212500e-08,1.86501562e-01
-5.24812500e-08,1.86498438e-01
-5.24412500e-08,1.86501562e-01
-5.24012500e-08,1.86498438e-01
-5.23612500e-08,1.86501562e-01
-5.23212500e-08,1.86498438e-01
-5.22812500e-08,1.86501562e-01
-5.22412500e-08,1.86500000e-01
-5.22012500e-08,1.86500000e-01
-5.21612500e-08,1.86500000e-01
-5.21212500e-08,1.86500000e-01
-5.20812500e-08,1.86501562e-01
-5.20412500e-08,1.86498438e-01
-5.20012500e-08,1.86503125e-01
-5.19612500e-08,1.86496875e-01
-5.19212500e-08,1.86504688e-01
-5.18812500e-08,1.86493750e-01
-5.18412500e-08,1.86507813e-01
-5.18012500e-08,1.86489062e-01
-5.17612500e-08,1.86517188e-01
-5.17212500e-08,1.86473438e-01
-5.16812500e-08,1.86551563e-01
-5.16412500e-08,1.86295313e-01
-5.16012500e-08,1.86042188e-01
-5.15612500e-08,1.86134375e-01
-5.15212500e-08,1.86075000e-01
-5.14812500e-08,1.86120312e-01
-5.14412500e-08,1.86082812e-01
-5.14012500e-08,1.86114063e-01
-5.13612500e-08,1.86087500e-01
-5.13212500e-08,1.86112500e-01
-5.12812500e-08,1.86089063e-01
-5.12412500e-08,1.86110938e-01
-5.12012500e-08,1.86090625e-01
-5.11612500e-08,1.86109375e-01
-5.11212500e-08,1.86090625e-01
-5.10812500e-08,1.86109375e-01
-5.10412500e-08,1.86092188e-01
-5.10012500e-08,1.86107812e-01
-5.09612500e-08,1.86092188e-01
-5.09212500e-08,1.86107812e-01
-5.08812500e-08,1.86092188e-01
-5.08412500e-08,1.86107812e-01
-5.08012500e-08,1.86092188e-01
-5.07612500e-08,1.86107812e-01
-5.07212500e-08,1.86092188e-01
-5.06812500e-08,1.86106250e-01
-5.06412500e-08,1.86093750e-01
-5.06012500e-08,1.86106250e-01
-5.05612500e-08,1.86093750e-01
-5.05212500e-08,1.86106250e-01
-5.04812500e-08,1.86093750e-01
-5.04412500e-08,1.86106250e-01
-5.04012500e-08,1.86093750e-01
-5.03612500e-08,1.86106250e-01
-5.03212500e-08,1.86093750e-01
-5.02812500e-08,1.86106250e-01
-5.02412500e-08,1.86093750e-01
-5.02012500e-08,1.86106250e-01
-5.01612500e-08,1.86093750e-01
-5.01212500e-08,1.86106250e-01
-5.00812500e-08,1.86093750e-01
-5.00412500e-08,1.86106250e-01
-5.00012500e-08,1.86092188e-01
-4.99612500e-08,1.86107812e-01
-4.99212500e-08,1.86092188e-01
-4.98812500e-08,1.86107812e-01
-4.98412500e-08,1.86092188e-01
-4.98012500e-08,1.86107812e-01
-4.97612500e-08,1.86092188e-01
-4.97212500e-08,1.86109375e-01
-4.96812500e-08,1.86090625e-01
-4.96412500e-08,1.86109375e-01
-4.96012500e-08,1.86089063e-01
-4.95612500e-08,1.86110938e-01
-4.95212500e-08,1.86087500e-01
-4.94812500e-08,1.86114063e-01
-4.94412500e-08,1.86084375e-01
-4.94012500e-08,1.86118750e-01
-4.93612500e-08,1.86076563e-01
-4.93212500e-08,1.86132812e-01
-4.92812500e-08,1.86042188e-01
-4.92412500e-08,1.86310937e-01
-4.92012500e-08,1.86551563e-01
-4.91612500e-08,1.86473438e-01
-4.91212500e-08,1.86517188e-01
-4.90812500e-08,1.86487500e-01
-4.90412500e-08,1.86509375e-01
-4.90012500e-08,1.86492188e-01
-4.89612500e-08,1.86506250e-01
-4.89212500e-08,1.86493750e-01
-4.88812500e-08,1.86504688e-01
-4.88412500e-08,1.86495313e-01
-4.88012500e-08,1.86503125e-01
-4.87612500e-08,1.86496875e-01
-4.87212500e-08,1.86503125e-01
-4.86812500e-08,1.86496875e-01
-4.86412500e-08,1.86503125e-01
-4.86012500e-08,1.86498438e-01
-4.85612500e-08,1.86501562e-01
-4.85212500e-08,1.86498438e-01
-4.84812500e-08,1.86501562e-01
-4.84412500e-08,1.86498438e-01
-4.84012500e-08,1.86501562e-01
-4.83612500e-08,1.86498438e-01
-4.83212500e-08,1.86501562e-01
-4.82812500e-08,1.86498438e-01
-4.82412500e-08,1.86501562e-01
-4.82012500e-08,1.86498438e-01
-4.81612500e-08,1.86503125e-01
-4.81212500e-08,1.86496875e-01
-4.80812500e-08,1.86503125e-01
-4.80412500e-08,1.86496875e-01
-4.80012500e-08,1.86504688e-01
-4.79612500e-08,1.86495313e-01
-4.79212500e-08,1.86506250e-01
-4.78812500e-08,1.86492188e-01
-4.78412500e-08,1.86509375e-01
-4.78012500e-08,1.86487500e-01
-4.77612500e-08,1.86517188e-01
-4.77212500e-08,1.86473438e-01
-4.76812500e-08,1.86551563e-01
-4.76412500e-08,1.86295313e-01
-4.76012500e-08,1.86042188e-01
-4.75612500e-08,1.86134375e-01
-4.75212500e-08,1.86075000e-01
-4.74812500e-08,1.86120312e-01
-4.74412500e-08,1.86081250e-01
-4.74012500e-08,1.86115625e-01
-4.73612500e-08,1.86084375e-01
-4.73212500e-08,1.86114063e-01
-4.72812500e-08,1.86085938e-01
-4.72412500e-08,1.86114063e-01
-4.72012500e-08,1.86085938e-01
-4.71612500e-08,1.86114063e-01
-4.71212500e-08,1.86085938e-01
-4.70812500e-08,1.86114063e-01
-4.70412500e-08,1.86084375e-01
-4.70012500e-08,1.86115625e-01
-4.69612500e-08,1.86082812e-01
-4.69212500e-08,1.86120312e-01
-4.68812500e-08,1.86076563e-01
-4.68412500e-08,1.86128125e-01
-4.68012500e-08,1.86062500e-01
-4.67612500e-08,1.86162500e-01
-4.67212500e-08,1.85884375e-01
-4.66812500e-08,1.85654687e-01
-4.66412500e-08,1.85721875e-01
-4.66012500e-08,1.85689063e-01
-4.65612500e-08,1.85706250e-01
-4.65212500e-08,1.85696875e-01
-4.64812500e-08,1.85700000e-01
-4.64412500e-08,1.85703125e-01
-4.64012500e-08,1.85693750e-01
-4.63612500e-08,1.85709375e-01
-4.63212500e-08,1.85687500e-01
-4.62812500e-08,1.85718750e-01
-4.62412500e-08,1.85671875e-01
-4.62012500e-08,1.85753125e-01
-4.61612500e-08,1.85492188e-01
-4.61212500e-08,1.85245313e-01
-4.60812500e-08,1.85329688e-01
-4.60412500e-08,1.85279688e-01
-4.60012500e-08,1.85314063e-01
-4.59612500e-08,1.85289063e-01
-4.59212500e-08,1.85307813e-01
-4.58812500e-08,1.85293750e-01
-4.58412500e-08,1.85304688e-01
-4.58012500e-08,1.85296875e-01
-4.57612500e-08,1.85300000e-01
-4.57212500e-08,1.85301563e-01
-4.56812500e-08,1.85293750e-01
-4.56412500e-08,1.85310937e-01
-4.56012500e-08,1.85278125e-01
-4.55612500e-08,1.85346875e-01
-4.55212500e-08,1.85100000e-01
-4.54812500e-08,1.84837500e-01
-4.54412500e-08,1.84939063e-01
-4.54012500e-08,1.84870312e-01
-4.53612500e-08,1.84925000e-01
-4.53212500e-08,1.84878125e-01
-4.52812500e-08,1.84920313e-01
-4.52412500e-08,1.84881250e-01
-4.52012500e-08,1.84917187e-01
-4.51612500e-08,1.84882812e-01
-4.51212500e-08,1.84917187e-01
-4.50812500e-08,1.84882812e-01
-4.50412500e-08,1.84917187e-01
-4.50012500e-08,1.84882812e-01
-4.49612500e-08,1.84918750e-01
-4.49212500e-08,1.84879688e-01
-4.48812500e-08,1.84923438e-01
-4.48412500e-08,1.84871875e-01
-4.48012500e-08,1.84937500e-01
-4.47612500e-08,1.84837500e-01
-4.47212500e-08,1.85115625e-01
-4.46812500e-08,1.85346875e-01
-4.46412500e-08,1.85276563e-01
-4.46012500e-08,1.85314063e-01
-4.45612500e-08,1.85290625e-01
-4.45212500e-08,1.85306250e-01
-4.44812500e-08,1.85295313e-01
-4.44412500e-08,1.85303125e-01
-4.44012500e-08,1.85298437e-01
-4.43612500e-08,1.85301563e-01
-4.43212500e-08,1.85300000e-01
-4.42812500e-08,1.85300000e-01
-4.42412500e-08,1.85301563e-01
-4.42012500e-08,1.85298437e-01
-4.41612500e-08,1.85301563e-01
-4.41212500e-08,1.85298437e-01
-4.40812500e-08,1.85303125e-01
-4.40412500e-08,1.85296875e-01
-4.40012500e-08,1.85303125e-01
-4.39612500e-08,1.85296875e-01
-4.39212500e-08,1.85303125e-01
-4.38812500e-08,1.85295313e-01
-4.38412500e-08,1.85304688e-01
-4.38012500e-08,1.85295313e-01
-4.37612500e-08,1.85304688e-01
-4.37212500e-08,1.85293750e-01
-4.36812500e-08,1.85306250e-01
-4.36412500e-08,1.85293750e-01
-4.36012500e-08,1.85307813e-01
-4.35612500e-08,1.85292188e-01
-4.35212500e-08,1.85309375e-01
-4.34812500e-08,1.85290625e-01
-4.34412500e-08,1.85310937e-01
-4.34012500e-08,1.85285937e-01
-4.33612500e-08,1.85317188e-01
-4.33212500e-08,1.85278125e-01
-4.32812500e-08,1.85331250e-01
-4.32412500e-08,1.85243750e-01
-4.32012500e-08,1.85509375e-01
-4.31612500e-08,1.85753125e-01
-4.31212500e-08,1.85671875e-01
-4.30812500e-08,1.85718750e-01
-4.30412500e-08,1.85685938e-01
-4.30012500e-08,1.85710938e-01
-4.29612500e-08,1.85690625e-01
-4.29212500e-08,1.85707813e-01
-4.28812500e-08,1.85693750e-01
-4.28412500e-08,1.85704688e-01
-4.28012500e-08,1.85695313e-01
-4.27612500e-08,1.85703125e-01
-4.27212500e-08,1.85696875e-01
-4.26812500e-08,1.85703125e-01
-4.26412500e-08,1.85696875e-01
-4.26012500e-08,1.85701563e-01
-4.25612500e-08,1.85698438e-01
-4.25212500e-08,1.85701563e-01
-4.24812500e-08,1.85698438e-01
-4.24412500e-08,1.85701563e-01
-4.24012500e-08,1.85700000e-01
-4.23612500e-08,1.85700000e-01
-4.23212500e-08,1.85700000e-01
-4.22812500e-08,1.85700000e-01
-4.22412500e-08,1.85700000e-01
-4.22012500e-08,1.85700000e-01
-4.21612500e-08,1.85701563e-01
-4.21212500e-08,1.85698438e-01
-4.20812500e-08,1.85701563e-01
-4.20412500e-08,1.85698438e-01
-4.20012500e-08,1.85701563e-01
-4.19612500e-08,1.85698438e-01
-4.19212500e-08,1.85701563e-01
-4.18812500e-08,1.85696875e-01
-4.18412500e-08,1.85703125e-01
-4.18012500e-08,1.85696875e-01
-4.17612500e-08,1.85703125e-01
-4.17212500e-08,1.85695313e-01
-4.16812500e-08,1.85704688e-01
-4.16412500e-08,1.85695313e-01
-4.16012500e-08,1.85706250e-01
-4.15612500e-08,1.85693750e-01
-4.15212500e-08,1.85707813e-01
-4.14812500e-08,1.85692187e-01
-4.14412500e-08,1.85709375e-01
-4.14012500e-08,1.85689063e-01
-4.13612500e-08,1.85714062e-01
-4.13212500e-08,1.85682813e-01
-4.12812500e-08,1.85721875e-01
-4.12412500e-08,1.85668750e-01
-4.12012500e-08,1.85756250e-01
-4.11612500e-08,1.85489062e-01
-4.11212500e-08,1.85248438e-01
-4.10812500e-08,1.85328125e-01
-4.10412500e-08,1.85282813e-01
-4.10012500e-08,1.85312500e-01
-4.09612500e-08,1.85290625e-01
-4.09212500e-08,1.85306250e-01
-4.08812500e-08,1.85295313e-01
-4.08412500e-08,1.85301563e-01
-4.08012500e-08,1.85300000e-01
-4.07612500e-08,1.85298437e-01
-4.07212500e-08,1.85304688e-01
-4.06812500e-08,1.85292188e-01
-4.06412500e-08,1.85314063e-01
-4.06012500e-08,1.85276563e-01
-4.05612500e-08,1.85350000e-01
-4.05212500e-08,1.85096875e-01
-4.04812500e-08,1.84840625e-01
-4.04412500e-08,1.84935938e-01
-4.04012500e-08,1.84875000e-01
-4.03612500e-08,1.84920313e-01
-4.03212500e-08,1.84882812e-01
-4.02812500e-08,1.84915625e-01
-4.02412500e-08,1.84885938e-01
-4.02012500e-08,1.84912500e-01
-4.01612500e-08,1.84889063e-01
-4.01212500e-08,1.84910938e-01
-4.00812500e-08,1.84890625e-01
-4.00412500e-08,1.84909375e-01
-4.00012500e-08,1.84892187e-01
-3.99612500e-08,1.84907813e-01
-3.99212500e-08,1.84892187e-01
-3.98812500e-08,1.84907813e-01
-3.98412500e-08,1.84893750e-01
-3.98012500e-08,1.84906250e-01
-3.97612500e-08,1.84893750e-01
-3.97212500e-08,1.84906250e-01
-3.96812500e-08,1.84895313e-01
-3.96412500e-08,1.84904687e-01
-3.96012500e-08,1.84895313e-01
-3.95612500e-08,1.84904687e-01
-3.95212500e-08,1.84896875e-01
-3.94812500e-08,1.84903125e-01
-3.94412500e-08,1.84898438e-01
-3.94012500e-08,1.84901563e-01
-3.93612500e-08,1.84900000e-01
-3.93212500e-08,1.84898438e-01
-3.92812500e-08,1.84904687e-01
-3.92412500e-08,1.84890625e-01
-3.92012500e-08,1.84918750e-01
-3.91612500e-08,1.84856250e-01
-3.91212500e-08,1.85096875e-01
-3.90812500e-08,1.85367188e-01
-3.90412500e-08,1.85256250e-01
-3.90012500e-08,1.85334375e-01
-3.89612500e-08,1.85268750e-01
-3.89212500e-08,1.85329688e-01
-3.88812500e-08,1.85270313e-01
-3.88412500e-08,1.85331250e-01
-3.88012500e-08,1.85264062e-01
-3.87612500e-08,1.85345312e-01
-3.87212500e-08,1.85231250e-01
-3.86812500e-08,1.85521875e-01
-3.86412500e-08,1.85740625e-01
-3.86012500e-08,1.85684375e-01
-3.85612500e-08,1.85706250e-01
-3.85212500e-08,1.85698438e-01
