trails/0b2e18f6fa2cac99b521e237471ff731/aes_ch1_20250507110221635.csv

Model,MSO66B
Label,
Waveform Type,ANALOG
Horizontal Units,s
Sample Interval,4.00000000e-11
Record Length,10000
Zero Index,1599.87109375
Vertical Units,A
ANALOG_Thumbnail,
yOffset,1.84500000e-01
yPosition,8.40000000e-01

Labels,
TIME,CH1
-6.39948438e-08,1.92498438e-01
-6.39548437e-08,1.92501563e-01
-6.39148438e-08,1.92498438e-01
-6.38748437e-08,1.92501563e-01
-6.38348437e-08,1.92500000e-01
-6.37948437e-08,1.92500000e-01
-6.37548437e-08,1.92500000e-01
-6.37148438e-08,1.92500000e-01
-6.36748437e-08,1.92500000e-01
-6.36348438e-08,1.92500000e-01
-6.35948437e-08,1.92501563e-01
-6.35548437e-08,1.92498438e-01
-6.35148437e-08,1.92501563e-01
-6.34748437e-08,1.92498438e-01
-6.34348438e-08,1.92501563e-01
-6.33948437e-08,1.92498438e-01
-6.33548437e-08,1.92501563e-01
-6.33148437e-08,1.92498438e-01
-6.32748437e-08,1.92501563e-01
-6.32348437e-08,1.92498438e-01
-6.31948437e-08,1.92501563e-01
-6.31548438e-08,1.92498438e-01
-6.31148437e-08,1.92501563e-01
-6.30748437e-08,1.92496875e-01
-6.30348437e-08,1.92503125e-01
-6.29948437e-08,1.92496875e-01
-6.29548437e-08,1.92503125e-01
-6.29148437e-08,1.92496875e-01
-6.28748438e-08,1.92503125e-01
-6.28348437e-08,1.92496875e-01
-6.27948437e-08,1.92503125e-01
-6.27548437e-08,1.92496875e-01
-6.27148437e-08,1.92503125e-01
-6.26748437e-08,1.92495313e-01
-6.26348437e-08,1.92504687e-01
-6.25948438e-08,1.92495313e-01
-6.25548437e-08,1.92504687e-01
-6.25148437e-08,1.92493750e-01
-6.24748437e-08,1.92506250e-01
-6.24348437e-08,1.92493750e-01
-6.23948437e-08,1.92507813e-01
-6.23548437e-08,1.92492188e-01
-6.23148438e-08,1.92509375e-01
-6.22748437e-08,1.92487500e-01
-6.22348437e-08,1.92514062e-01
-6.21948437e-08,1.92479687e-01
-6.21548437e-08,1.92529688e-01
-6.21148437e-08,1.92445313e-01
-6.20748437e-08,1.92706250e-01
-6.20348438e-08,1.92956250e-01
-6.19948437e-08,1.92868750e-01
-6.19548437e-08,1.92923438e-01
-6.19148437e-08,1.92881250e-01
-6.18748437e-08,1.92915625e-01
-6.18348437e-08,1.92885937e-01
-6.17948437e-08,1.92914063e-01
-6.17548438e-08,1.92885937e-01
-6.17148437e-08,1.92914063e-01
-6.16748437e-08,1.92884375e-01
-6.16348437e-08,1.92917188e-01
-6.15948437e-08,1.92878125e-01
-6.15548437e-08,1.92931250e-01
-6.15148437e-08,1.92843750e-01
-6.14748438e-08,1.93107813e-01
-6.14348437e-08,1.93354688e-01
-6.13948437e-08,1.93268750e-01
-6.13548437e-08,1.93321875e-01
-6.13148437e-08,1.93282813e-01
-6.12748438e-08,1.93315625e-01
-6.12348437e-08,1.93285938e-01
-6.11948438e-08,1.93312500e-01
-6.11548437e-08,1.93287500e-01
-6.11148437e-08,1.93312500e-01
-6.10748437e-08,1.93287500e-01
-6.10348437e-08,1.93314062e-01
-6.09948438e-08,1.93284375e-01
-6.09548437e-08,1.93317188e-01
-6.09148438e-08,1.93278125e-01
-6.08748437e-08,1.93331250e-01
-6.08348437e-08,1.93243750e-01
-6.07948437e-08,1.93509375e-01
-6.07548437e-08,1.93753125e-01
-6.07148438e-08,1.93670312e-01
-6.06748437e-08,1.93721875e-01
-6.06348438e-08,1.93682812e-01
-6.05948437e-08,1.93714063e-01
-6.05548437e-08,1.93687500e-01
-6.05148437e-08,1.93712500e-01
-6.04748437e-08,1.93687500e-01
-6.04348438e-08,1.93712500e-01
-6.03948437e-08,1.93687500e-01
-6.03548438e-08,1.93714063e-01
-6.03148437e-08,1.93682812e-01
-6.02748437e-08,1.93721875e-01
-6.02348437e-08,1.93668750e-01
-6.01948437e-08,1.93756250e-01
-6.01548438e-08,1.93492187e-01
-6.01148437e-08,1.93245313e-01
-6.00748438e-08,1.93329688e-01
-6.00348437e-08,1.93278125e-01
-5.99948437e-08,1.93315625e-01
-5.99548437e-08,1.93285938e-01
-5.99148437e-08,1.93310938e-01
-5.98748438e-08,1.93289062e-01
-5.98348437e-08,1.93309375e-01
-5.97948438e-08,1.93292188e-01
-5.97548437e-08,1.93307813e-01
-5.97148437e-08,1.93292188e-01
-5.96748437e-08,1.93307813e-01
-5.96348437e-08,1.93293750e-01
-5.95948437e-08,1.93306250e-01
-5.95548437e-08,1.93293750e-01
-5.95148437e-08,1.93306250e-01
-5.94748437e-08,1.93293750e-01
-5.94348437e-08,1.93306250e-01
-5.93948437e-08,1.93293750e-01
-5.93548437e-08,1.93306250e-01
-5.93148437e-08,1.93293750e-01
-5.92748437e-08,1.93306250e-01
-5.92348437e-08,1.93293750e-01
-5.91948437e-08,1.93306250e-01
-5.91548437e-08,1.93293750e-01
-5.91148437e-08,1.93306250e-01
-5.90748437e-08,1.93293750e-01
-5.90348437e-08,1.93306250e-01
-5.89948437e-08,1.93293750e-01
-5.89548437e-08,1.93306250e-01
-5.89148437e-08,1.93293750e-01
-5.88748437e-08,1.93306250e-01
-5.88348437e-08,1.93293750e-01
-5.87948437e-08,1.93306250e-01
-5.87548437e-08,1.93293750e-01
-5.87148437e-08,1.93306250e-01
-5.86748437e-08,1.93293750e-01
-5.86348437e-08,1.93306250e-01
-5.85948437e-08,1.93293750e-01
-5.85548437e-08,1.93306250e-01
-5.85148437e-08,1.93292188e-01
-5.84748437e-08,1.93307813e-01
-5.84348437e-08,1.93292188e-01
-5.83948437e-08,1.93307813e-01
-5.83548437e-08,1.93292188e-01
-5.83148437e-08,1.93307813e-01
-5.82748437e-08,1.93290625e-01
-5.82348437e-08,1.93309375e-01
-5.81948437e-08,1.93290625e-01
-5.81548437e-08,1.93310938e-01
-5.81148437e-08,1.93289062e-01
-5.80748437e-08,1.93310938e-01
-5.80348437e-08,1.93287500e-01
-5.79948437e-08,1.93314062e-01
-5.79548437e-08,1.93284375e-01
-5.79148437e-08,1.93317188e-01
-5.78748437e-08,1.93279688e-01
-5.78348437e-08,1.93325000e-01
-5.77948437e-08,1.93264063e-01
-5.77548437e-08,1.93360937e-01
-5.77148437e-08,1.93085937e-01
-5.76748437e-08,1.92851563e-01
-5.76348437e-08,1.92925000e-01
-5.75948437e-08,1.92884375e-01
-5.75548437e-08,1.92909375e-01
-5.75148437e-08,1.92893750e-01
-5.74748437e-08,1.92904688e-01
-5.74348437e-08,1.92896875e-01
-5.73948437e-08,1.92901563e-01
-5.73548437e-08,1.92900000e-01
-5.73148437e-08,1.92900000e-01
-5.72748437e-08,1.92901563e-01
-5.72348437e-08,1.92898438e-01
-5.71948437e-08,1.92903125e-01
-5.71548437e-08,1.92896875e-01
-5.71148437e-08,1.92904688e-01
-5.70748437e-08,1.92895312e-01
-5.70348437e-08,1.92906250e-01
-5.69948437e-08,1.92892188e-01
-5.69548437e-08,1.92909375e-01
-5.69148437e-08,1.92889063e-01
-5.68748437e-08,1.92912500e-01
-5.68348437e-08,1.92884375e-01
-5.67948437e-08,1.92921875e-01
-5.67548437e-08,1.92868750e-01
-5.67148437e-08,1.92956250e-01
-5.66748437e-08,1.92690625e-01
-5.66348437e-08,1.92446875e-01
-5.65948437e-08,1.92529688e-01
-5.65548437e-08,1.92481250e-01
-5.65148437e-08,1.92514062e-01
-5.64748437e-08,1.92489063e-01
-5.64348437e-08,1.92509375e-01
-5.63948437e-08,1.92492188e-01
-5.63548437e-08,1.92506250e-01
-5.63148437e-08,1.92495313e-01
-5.62748437e-08,1.92504687e-01
-5.62348437e-08,1.92495313e-01
-5.61948437e-08,1.92503125e-01
-5.61548437e-08,1.92496875e-01
-5.61148437e-08,1.92503125e-01
-5.60748437e-08,1.92498438e-01
-5.60348437e-08,1.92501563e-01
-5.59948437e-08,1.92498438e-01
-5.59548437e-08,1.92501563e-01
-5.59148437e-08,1.92498438e-01
-5.58748437e-08,1.92501563e-01
-5.58348437e-08,1.92498438e-01
-5.57948437e-08,1.92501563e-01
-5.57548437e-08,1.92500000e-01
-5.57148437e-08,1.92500000e-01
-5.56748437e-08,1.92500000e-01
-5.56348437e-08,1.92500000e-01
-5.55948437e-08,1.92500000e-01
-5.55548437e-08,1.92500000e-01
-5.55148437e-08,1.92500000e-01
-5.54748437e-08,1.92501563e-01
-5.54348437e-08,1.92498438e-01
-5.53948437e-08,1.92501563e-01
-5.53548437e-08,1.92498438e-01
-5.53148437e-08,1.92503125e-01
-5.52748437e-08,1.92496875e-01
-5.52348437e-08,1.92506250e-01
-5.51948437e-08,1.92492188e-01
-5.51548437e-08,1.92512500e-01
-5.51148437e-08,1.92478125e-01
-5.50748437e-08,1.92546875e-01
-5.50348437e-08,1.92301563e-01
-5.49948437e-08,1.92035938e-01
-5.49548437e-08,1.92142188e-01
-5.49148437e-08,1.92067188e-01
-5.48748437e-08,1.92129688e-01
-5.48348437e-08,1.92071875e-01
-5.47948437e-08,1.92128125e-01
-5.47548437e-08,1.92068750e-01
-5.47148437e-08,1.92134375e-01
-5.46748437e-08,1.92056250e-01
-5.46348437e-08,1.92168750e-01
-5.45948437e-08,1.91878125e-01
-5.45548437e-08,1.91659375e-01
-5.45148437e-08,1.91717187e-01
-5.44748437e-08,1.91693750e-01
-5.44348437e-08,1.91701563e-01
-5.43948437e-08,1.91701563e-01
-5.43548437e-08,1.91695313e-01
-5.43148437e-08,1.91707813e-01
-5.42748437e-08,1.91689063e-01
-5.42348437e-08,1.91712500e-01
-5.41948437e-08,1.91682813e-01
-5.41548437e-08,1.91723438e-01
-5.41148437e-08,1.91667188e-01
-5.40748437e-08,1.91759375e-01
-5.40348437e-08,1.91487500e-01
-5.39948437e-08,1.91250000e-01
-5.39548437e-08,1.91325000e-01
-5.39148437e-08,1.91285938e-01
-5.38748437e-08,1.91309375e-01
-5.38348437e-08,1.91295313e-01
-5.37948437e-08,1.91303125e-01
-5.37548437e-08,1.91300000e-01
-5.37148437e-08,1.91296875e-01
-5.36748437e-08,1.91304688e-01
-5.36348437e-08,1.91292188e-01
-5.35948437e-08,1.91312500e-01
-5.35548437e-08,1.91282813e-01
-5.35148437e-08,1.91328125e-01
-5.34748437e-08,1.91246875e-01
-5.34348437e-08,1.91506250e-01
-5.33948437e-08,1.91754688e-01
-5.33548437e-08,1.91668750e-01
-5.33148437e-08,1.91720313e-01
-5.32748437e-08,1.91684375e-01
-5.32348437e-08,1.91712500e-01
-5.31948437e-08,1.91690625e-01
-5.31548437e-08,1.91707813e-01
-5.31148437e-08,1.91693750e-01
-5.30748437e-08,1.91704687e-01
-5.30348437e-08,1.91696875e-01
-5.29948437e-08,1.91703125e-01
-5.29548437e-08,1.91698438e-01
-5.29148437e-08,1.91701563e-01
-5.28748437e-08,1.91700000e-01
-5.28348437e-08,1.91698438e-01
-5.27948437e-08,1.91703125e-01
-5.27548437e-08,1.91695313e-01
-5.27148437e-08,1.91706250e-01
-5.26748437e-08,1.91692187e-01
-5.26348437e-08,1.91710938e-01
-5.25948437e-08,1.91682813e-01
-5.25548437e-08,1.91726563e-01
-5.25148437e-08,1.91648438e-01
-5.24748437e-08,1.91904688e-01
-5.24348437e-08,1.92156250e-01
-5.23948437e-08,1.92067188e-01
-5.23548437e-08,1.92123437e-01
-5.23148437e-08,1.92081250e-01
-5.22748437e-08,1.92115625e-01
-5.22348437e-08,1.92087500e-01
-5.21948437e-08,1.92110937e-01
-5.21548437e-08,1.92090625e-01
-5.21148437e-08,1.92109375e-01
-5.20748437e-08,1.92092188e-01
-5.20348437e-08,1.92107813e-01
-5.19948437e-08,1.92092188e-01
-5.19548438e-08,1.92106250e-01
-5.19148437e-08,1.92093750e-01
-5.18748437e-08,1.92106250e-01
-5.18348437e-08,1.92095313e-01
-5.17948437e-08,1.92104688e-01
-5.17548437e-08,1.92095313e-01
-5.17148437e-08,1.92104688e-01
-5.16748438e-08,1.92095313e-01
-5.16348437e-08,1.92104688e-01
-5.15948437e-08,1.92096875e-01
-5.15548437e-08,1.92103125e-01
-5.15148437e-08,1.92096875e-01
-5.14748437e-08,1.92103125e-01
-5.14348437e-08,1.92096875e-01
-5.13948437e-08,1.92103125e-01
-5.13548437e-08,1.92096875e-01
-5.13148437e-08,1.92103125e-01
-5.12748437e-08,1.92096875e-01
-5.12348437e-08,1.92103125e-01
-5.11948437e-08,1.92098437e-01
-5.11548437e-08,1.92101563e-01
-5.11148437e-08,1.92098437e-01
-5.10748437e-08,1.92101563e-01
-5.10348437e-08,1.92098437e-01
-5.09948437e-08,1.92101563e-01
-5.09548437e-08,1.92098437e-01
-5.09148437e-08,1.92101563e-01
-5.08748437e-08,1.92098437e-01
-5.08348437e-08,1.92101563e-01
-5.07948437e-08,1.92098437e-01
-5.07548437e-08,1.92101563e-01
-5.07148437e-08,1.92098437e-01
-5.06748437e-08,1.92101563e-01
-5.06348437e-08,1.92098437e-01
-5.05948437e-08,1.92100000e-01
-5.05548437e-08,1.92100000e-01
-5.05148437e-08,1.92100000e-01
-5.04748437e-08,1.92100000e-01
-5.04348437e-08,1.92100000e-01
-5.03948437e-08,1.92100000e-01
-5.03548437e-08,1.92100000e-01
-5.03148437e-08,1.92100000e-01
-5.02748437e-08,1.92100000e-01
-5.02348437e-08,1.92100000e-01
-5.01948437e-08,1.92100000e-01
-5.01548437e-08,1.92100000e-01
-5.01148437e-08,1.92100000e-01
-5.00748437e-08,1.92100000e-01
-5.00348438e-08,1.92100000e-01
-4.99948437e-08,1.92100000e-01
-4.99548437e-08,1.92100000e-01
-4.99148437e-08,1.92100000e-01
-4.98748437e-08,1.92100000e-01
-4.98348437e-08,1.92100000e-01
-4.97948437e-08,1.92100000e-01
-4.97548438e-08,1.92100000e-01
-4.97148437e-08,1.92098437e-01
-4.96748437e-08,1.92101563e-01
-4.96348437e-08,1.92098437e-01
-4.95948437e-08,1.92101563e-01
-4.95548437e-08,1.92098437e-01
-4.95148437e-08,1.92101563e-01
-4.94748438e-08,1.92098437e-01
-4.94348437e-08,1.92101563e-01
-4.93948437e-08,1.92098437e-01
-4.93548437e-08,1.92101563e-01
-4.93148437e-08,1.92098437e-01
-4.92748437e-08,1.92101563e-01
-4.92348437e-08,1.92098437e-01
-4.91948437e-08,1.92101563e-01
-4.91548437e-08,1.92098437e-01
-4.91148437e-08,1.92101563e-01
-4.90748437e-08,1.92098437e-01
-4.90348437e-08,1.92101563e-01
-4.89948437e-08,1.92098437e-01
-4.89548437e-08,1.92101563e-01
-4.89148437e-08,1.92098437e-01
-4.88748437e-08,1.92101563e-01
-4.88348437e-08,1.92098437e-01
-4.87948437e-08,1.92103125e-01
-4.87548437e-08,1.92096875e-01
-4.87148437e-08,1.92103125e-01
-4.86748437e-08,1.92096875e-01
-4.86348437e-08,1.92103125e-01
-4.85948437e-08,1.92096875e-01
-4.85548437e-08,1.92103125e-01
-4.85148437e-08,1.92096875e-01
-4.84748437e-08,1.92103125e-01
-4.84348437e-08,1.92096875e-01
-4.83948437e-08,1.92103125e-01
-4.83548437e-08,1.92096875e-01
-4.83148437e-08,1.92103125e-01
-4.82748437e-08,1.92096875e-01
-4.82348437e-08,1.92103125e-01
-4.81948437e-08,1.92096875e-01
-4.81548437e-08,1.92103125e-01
-4.81148438e-08,1.92096875e-01
-4.80748437e-08,1.92103125e-01
-4.80348437e-08,1.92095313e-01
-4.79948437e-08,1.92104688e-01
-4.79548437e-08,1.92095313e-01
-4.79148437e-08,1.92104688e-01
-4.78748437e-08,1.92095313e-01
-4.78348438e-08,1.92104688e-01
-4.77948437e-08,1.92095313e-01
-4.77548437e-08,1.92104688e-01
-4.77148437e-08,1.92095313e-01
-4.76748437e-08,1.92104688e-01
-4.76348437e-08,1.92095313e-01
-4.75948437e-08,1.92106250e-01
-4.75548438e-08,1.92093750e-01
-4.75148437e-08,1.92106250e-01
-4.74748437e-08,1.92093750e-01
-4.74348437e-08,1.92106250e-01
-4.73948437e-08,1.92093750e-01
-4.73548437e-08,1.92106250e-01
-4.73148437e-08,1.92093750e-01
-4.72748437e-08,1.92107813e-01
-4.72348437e-08,1.92092188e-01
-4.71948437e-08,1.92107813e-01
-4.71548437e-08,1.92092188e-01
-4.71148437e-08,1.92109375e-01
-4.70748437e-08,1.92090625e-01
-4.70348437e-08,1.92109375e-01
-4.69948437e-08,1.92089063e-01
-4.69548437e-08,1.92110937e-01
-4.69148437e-08,1.92087500e-01
-4.68748437e-08,1.92114063e-01
-4.68348437e-08,1.92084375e-01
-4.67948437e-08,1.92118750e-01
-4.67548437e-08,1.92076562e-01
-4.67148437e-08,1.92132812e-01
-4.66748437e-08,1.92042188e-01
-4.66348437e-08,1.92310938e-01
-4.65948437e-08,1.92551562e-01
-4.65548437e-08,1.92471875e-01
-4.65148437e-08,1.92520313e-01
-4.64748437e-08,1.92482813e-01
-4.64348437e-08,1.92515625e-01
-4.63948437e-08,1.92481250e-01
-4.63548437e-08,1.92526562e-01
-4.63148437e-08,1.92451563e-01
-4.62748437e-08,1.92700000e-01
-4.62348437e-08,1.92964063e-01
-4.61948438e-08,1.92857813e-01
-4.61548437e-08,1.92934375e-01
-4.61148437e-08,1.92867188e-01
-4.60748437e-08,1.92934375e-01
-4.60348437e-08,1.92862500e-01
-4.59948437e-08,1.92946875e-01
-4.59548437e-08,1.92828125e-01
-4.59148438e-08,1.93125000e-01
-4.58748437e-08,1.93337500e-01
-4.58348437e-08,1.93287500e-01
-4.57948437e-08,1.93303125e-01
-4.57548437e-08,1.93303125e-01
-4.57148437e-08,1.93290625e-01
-4.56748437e-08,1.93314062e-01
-4.56348438e-08,1.93279688e-01
-4.55948437e-08,1.93331250e-01
-4.55548437e-08,1.93242187e-01
-4.55148437e-08,1.93512500e-01
-4.54748437e-08,1.93750000e-01
-4.54348437e-08,1.93675000e-01
-4.53948437e-08,1.93714063e-01
-4.53548438e-08,1.93690625e-01
-4.53148437e-08,1.93704688e-01
-4.52748437e-08,1.93698438e-01
-4.52348437e-08,1.93700000e-01
-4.51948437e-08,1.93703125e-01
-4.51548437e-08,1.93695312e-01
-4.51148437e-08,1.93707813e-01
-4.50748437e-08,1.93690625e-01
-4.50348437e-08,1.93712500e-01
-4.49948437e-08,1.93682812e-01
-4.49548437e-08,1.93723438e-01
-4.49148437e-08,1.93667188e-01
-4.48748437e-08,1.93759375e-01
-4.48348437e-08,1.93487500e-01
-4.47948437e-08,1.93251563e-01
-4.47548437e-08,1.93323438e-01
-4.47148437e-08,1.93287500e-01
-4.46748437e-08,1.93306250e-01
-4.46348437e-08,1.93298438e-01
-4.45948437e-08,1.93296875e-01
-4.45548437e-08,1.93306250e-01
-4.45148437e-08,1.93289062e-01
-4.44748437e-08,1.93317188e-01
-4.44348437e-08,1.93271875e-01
-4.43948437e-08,1.93354688e-01
-4.43548437e-08,1.93090625e-01
-4.43148437e-08,1.92848437e-01
-4.42748438e-08,1.92926563e-01
-4.42348437e-08,1.92884375e-01
-4.41948437e-08,1.92907812e-01
-4.41548437e-08,1.92898438e-01
-4.41148437e-08,1.92896875e-01
-4.40748437e-08,1.92910938e-01
-4.40348437e-08,1.92878125e-01
-4.39948438e-08,1.92948438e-01
-4.39548437e-08,1.92696875e-01
-4.39148437e-08,1.92442188e-01
-4.38748437e-08,1.92532813e-01
-4.38348437e-08,1.92478125e-01
-4.37948437e-08,1.92515625e-01
-4.37548437e-08,1.92489063e-01
-4.37148438e-08,1.92507813e-01
-4.36748437e-08,1.92496875e-01
-4.36348437e-08,1.92498438e-01
-4.35948437e-08,1.92507813e-01
-4.35548437e-08,1.92481250e-01
-4.35148437e-08,1.92543750e-01
-4.34748437e-08,1.92301563e-01
-4.34348438e-08,1.92035938e-01
-4.33948437e-08,1.92139063e-01
-4.33548437e-08,1.92070313e-01
-4.33148437e-08,1.92123437e-01
-4.32748437e-08,1.92079688e-01
-4.32348437e-08,1.92117188e-01
-4.31948437e-08,1.92084375e-01
-4.31548438e-08,1.92114063e-01
-4.31148437e-08,1.92087500e-01
-4.30748437e-08,1.92112500e-01
-4.30348437e-08,1.92089063e-01
-4.29948437e-08,1.92109375e-01
-4.29548437e-08,1.92090625e-01
-4.29148437e-08,1.92107813e-01
-4.28748437e-08,1.92092188e-01
-4.28348437e-08,1.92107813e-01
-4.27948437e-08,1.92093750e-01
-4.27548437e-08,1.92106250e-01
-4.27148437e-08,1.92095313e-01
-4.26748437e-08,1.92104688e-01
-4.26348437e-08,1.92096875e-01
-4.25948437e-08,1.92103125e-01
-4.25548437e-08,1.92098437e-01
-4.25148437e-08,1.92101563e-01
-4.24748437e-08,1.92100000e-01
-4.24348437e-08,1.92098437e-01
-4.23948437e-08,1.92103125e-01
-4.23548438e-08,1.92095313e-01
-4.23148437e-08,1.92107813e-01
-4.22748437e-08,1.92085937e-01
-4.22348437e-08,1.92123437e-01
-4.21948437e-08,1.92051562e-01
-4.21548437e-08,1.92301563e-01
-4.21148437e-08,1.92560938e-01
-4.20748438e-08,1.92464063e-01
-4.20348437e-08,1.92526562e-01
-4.19948437e-08,1.92478125e-01
-4.19548437e-08,1.92518750e-01
-4.19148437e-08,1.92482813e-01
-4.18748437e-08,1.92515625e-01
-4.18348437e-08,1.92485938e-01
-4.17948438e-08,1.92512500e-01
-4.17548437e-08,1.92487500e-01
-4.17148437e-08,1.92510938e-01
-4.16748437e-08,1.92489063e-01
-4.16348437e-08,1.92510938e-01
-4.15948437e-08,1.92490625e-01
-4.15548437e-08,1.92509375e-01
-4.15148438e-08,1.92490625e-01
-4.14748437e-08,1.92509375e-01
-4.14348437e-08,1.92490625e-01
-4.13948437e-08,1.92509375e-01
-4.13548437e-08,1.92490625e-01
-4.13148437e-08,1.92507813e-01
-4.12748437e-08,1.92490625e-01
-4.12348438e-08,1.92507813e-01
-4.11948437e-08,1.92490625e-01
-4.11548437e-08,1.92509375e-01
-4.11148437e-08,1.92490625e-01
-4.10748437e-08,1.92509375e-01
-4.10348437e-08,1.92490625e-01
-4.09948437e-08,1.92510938e-01
-4.09548438e-08,1.92487500e-01
-4.09148437e-08,1.92514062e-01
-4.08748437e-08,1.92484375e-01
-4.08348437e-08,1.92520313e-01
-4.07948437e-08,1.92470313e-01
-4.07548437e-08,1.92554688e-01
-4.07148437e-08,1.92292188e-01
-4.06748437e-08,1.92043750e-01
-4.06348437e-08,1.92132812e-01
-4.05948437e-08,1.92076562e-01
-4.05548437e-08,1.92120313e-01
-4.05148437e-08,1.92081250e-01
-4.04748437e-08,1.92117188e-01
-4.04348438e-08,1.92082813e-01
-4.03948437e-08,1.92118750e-01
-4.03548437e-08,1.92078125e-01
-4.03148437e-08,1.92126563e-01
-4.02748437e-08,1.92064063e-01
-4.02348437e-08,1.92160938e-01
-4.01948437e-08,1.91885937e-01
-4.01548438e-08,1.91651563e-01
-4.01148437e-08,1.91723438e-01
-4.00748437e-08,1.91685938e-01
-4.00348437e-08,1.91707813e-01
-3.99948437e-08,1.91695313e-01
-3.99548437e-08,1.91700000e-01
-3.99148437e-08,1.91703125e-01
-3.98748438e-08,1.91693750e-01
-3.98348437e-08,1.91712500e-01
-3.97948437e-08,1.91676563e-01
-3.97548437e-08,1.91748438e-01
-3.97148437e-08,1.91496875e-01
-3.96748437e-08,1.91240625e-01
-3.96348437e-08,1.91334375e-01
-3.95948438e-08,1.91275000e-01
-3.95548437e-08,1.91318750e-01
-3.95148437e-08,1.91284375e-01
-3.94748437e-08,1.91312500e-01
-3.94348437e-08,1.91289062e-01
-3.93948437e-08,1.91309375e-01
-3.93548437e-08,1.91293750e-01
-3.93148438e-08,1.91304688e-01
-3.92748437e-08,1.91298438e-01
-3.92348437e-08,1.91298438e-01
-3.91948437e-08,1.91306250e-01
-3.91548437e-08,1.91282813e-01
-3.91148437e-08,1.91342188e-01
-3.90748437e-08,1.91104688e-01
-3.90348438e-08,1.90832813e-01
-3.89948437e-08,1.90943750e-01
-3.89548437e-08,1.90865625e-01
-3.89148437e-08,1.90929688e-01
-3.88748437e-08,1.90873438e-01
-3.88348437e-08,1.90925000e-01
-3.87948437e-08,1.90875000e-01
-3.87548438e-08,1.90925000e-01
-3.87148437e-08,1.90875000e-01
-3.86748437e-08,1.90925000e-01
-3.86348437e-08,1.90873438e-01
-3.85948437e-08,1.90929688e-01
-3.85548437e-08,1.90865625e-01
