trails/0b2e18f6fa2cac99b521e237471ff731/aes_ch1_20250507110424621.csv

Model,MSO66B
Label,
Waveform Type,ANALOG
Horizontal Units,s
Sample Interval,4.00000000e-11
Record Length,10000
Zero Index,1599.09765625
Vertical Units,A
ANALOG_Thumbnail,
yOffset,1.84500000e-01
yPosition,8.40000000e-01

Labels,
TIME,CH1
-6.39639062e-08,2.02095313e-01
-6.39239063e-08,2.02098438e-01
-6.38839062e-08,2.02107813e-01
-6.38439062e-08,2.02085938e-01
-6.38039062e-08,2.02126562e-01
-6.37639062e-08,2.02048438e-01
-6.37239062e-08,2.02306250e-01
-6.36839062e-08,2.02556250e-01
-6.36439063e-08,2.02468750e-01
-6.36039062e-08,2.02520313e-01
-6.35639062e-08,2.02484375e-01
-6.35239062e-08,2.02512500e-01
-6.34839062e-08,2.02490625e-01
-6.34439062e-08,2.02506250e-01
-6.34039062e-08,2.02495312e-01
-6.33639063e-08,2.02503125e-01
-6.33239062e-08,2.02498438e-01
-6.32839062e-08,2.02498438e-01
-6.32439062e-08,2.02504688e-01
-6.32039062e-08,2.02490625e-01
-6.31639062e-08,2.02520313e-01
-6.31239062e-08,2.02454688e-01
-6.30839063e-08,2.02696875e-01
-6.30439062e-08,2.02965625e-01
-6.30039062e-08,2.02857813e-01
-6.29639062e-08,2.02932813e-01
-6.29239062e-08,2.02870313e-01
-6.28839062e-08,2.02928125e-01
-6.28439062e-08,2.02871875e-01
-6.28039063e-08,2.02929688e-01
-6.27639062e-08,2.02867188e-01
-6.27239062e-08,2.02942188e-01
-6.26839062e-08,2.02834375e-01
-6.26439062e-08,2.03118750e-01
-6.26039063e-08,2.03343750e-01
-6.25639062e-08,2.03279688e-01
-6.25239063e-08,2.03310938e-01
-6.24839062e-08,2.03295313e-01
-6.24439062e-08,2.03301563e-01
-6.24039062e-08,2.03300000e-01
-6.23639062e-08,2.03296875e-01
-6.23239063e-08,2.03304687e-01
-6.22839062e-08,2.03292187e-01
-6.22439063e-08,2.03310938e-01
-6.22039062e-08,2.03282813e-01
-6.21639062e-08,2.03326563e-01
-6.21239062e-08,2.03248438e-01
-6.20839062e-08,2.03504688e-01
-6.20439063e-08,2.03757812e-01
-6.20039062e-08,2.03667188e-01
-6.19639063e-08,2.03723437e-01
-6.19239062e-08,2.03681250e-01
-6.18839062e-08,2.03715625e-01
-6.18439062e-08,2.03685937e-01
-6.18039062e-08,2.03712500e-01
-6.17639063e-08,2.03689063e-01
-6.17239062e-08,2.03710938e-01
-6.16839063e-08,2.03690625e-01
-6.16439062e-08,2.03709375e-01
-6.16039062e-08,2.03690625e-01
-6.15639062e-08,2.03707813e-01
-6.15239062e-08,2.03692188e-01
-6.14839063e-08,2.03707813e-01
-6.14439062e-08,2.03692188e-01
-6.14039063e-08,2.03707813e-01
-6.13639062e-08,2.03692188e-01
-6.13239062e-08,2.03707813e-01
-6.12839062e-08,2.03692188e-01
-6.12439062e-08,2.03707813e-01
-6.12039063e-08,2.03692188e-01
-6.11639062e-08,2.03707813e-01
-6.11239063e-08,2.03692188e-01
-6.10839062e-08,2.03707813e-01
-6.10439062e-08,2.03692188e-01
-6.10039062e-08,2.03707813e-01
-6.09639062e-08,2.03690625e-01
-6.09239063e-08,2.03709375e-01
-6.08839062e-08,2.03690625e-01
-6.08439063e-08,2.03709375e-01
-6.08039062e-08,2.03689063e-01
-6.07639062e-08,2.03710938e-01
-6.07239062e-08,2.03689063e-01
-6.06839062e-08,2.03712500e-01
-6.06439063e-08,2.03685937e-01
-6.06039062e-08,2.03715625e-01
-6.05639063e-08,2.03682813e-01
-6.05239062e-08,2.03718750e-01
-6.04839062e-08,2.03678125e-01
-6.04439062e-08,2.03728125e-01
-6.04039062e-08,2.03662500e-01
-6.03639063e-08,2.03764063e-01
-6.03239062e-08,2.03482812e-01
-6.02839062e-08,2.03256250e-01
-6.02439062e-08,2.03318750e-01
-6.02039062e-08,2.03290625e-01
-6.01639062e-08,2.03301563e-01
-6.01239062e-08,2.03303125e-01
-6.00839063e-08,2.03292187e-01
-6.00439062e-08,2.03315625e-01
-6.00039062e-08,2.03273438e-01
-5.99639062e-08,2.03351562e-01
-5.99239062e-08,2.03093750e-01
-5.98839062e-08,2.02845313e-01
-5.98439062e-08,2.02929688e-01
-5.98039063e-08,2.02879688e-01
-5.97639062e-08,2.02914063e-01
-5.97239062e-08,2.02890625e-01
-5.96839062e-08,2.02906250e-01
-5.96439062e-08,2.02898438e-01
-5.96039062e-08,2.02898438e-01
-5.95639062e-08,2.02907813e-01
-5.95239062e-08,2.02881250e-01
-5.94839062e-08,2.02943750e-01
-5.94439062e-08,2.02701563e-01
-5.94039062e-08,2.02435937e-01
-5.93639062e-08,2.02540625e-01
-5.93239062e-08,2.02470312e-01
-5.92839062e-08,2.02525000e-01
-5.92439062e-08,2.02478125e-01
-5.92039062e-08,2.02520313e-01
-5.91639062e-08,2.02481250e-01
-5.91239062e-08,2.02517188e-01
-5.90839062e-08,2.02482812e-01
-5.90439062e-08,2.02515625e-01
-5.90039062e-08,2.02484375e-01
-5.89639062e-08,2.02515625e-01
-5.89239062e-08,2.02484375e-01
-5.88839062e-08,2.02517188e-01
-5.88439062e-08,2.02482812e-01
-5.88039062e-08,2.02518750e-01
-5.87639062e-08,2.02479688e-01
-5.87239062e-08,2.02523438e-01
-5.86839062e-08,2.02471875e-01
-5.86439062e-08,2.02537500e-01
-5.86039062e-08,2.02437500e-01
-5.85639062e-08,2.02715625e-01
-5.85239062e-08,2.02946875e-01
-5.84839062e-08,2.02876562e-01
-5.84439062e-08,2.02914063e-01
-5.84039062e-08,2.02890625e-01
-5.83639062e-08,2.02906250e-01
-5.83239062e-08,2.02895313e-01
-5.82839062e-08,2.02903125e-01
-5.82439062e-08,2.02898438e-01
-5.82039062e-08,2.02901563e-01
-5.81639062e-08,2.02900000e-01
-5.81239062e-08,2.02900000e-01
-5.80839062e-08,2.02900000e-01
-5.80439062e-08,2.02898438e-01
-5.80039062e-08,2.02901563e-01
-5.79639062e-08,2.02898438e-01
-5.79239062e-08,2.02901563e-01
-5.78839062e-08,2.02896875e-01
-5.78439062e-08,2.02903125e-01
-5.78039062e-08,2.02896875e-01
-5.77639062e-08,2.02904688e-01
-5.77239062e-08,2.02895313e-01
-5.76839062e-08,2.02904688e-01
-5.76439062e-08,2.02893750e-01
-5.76039062e-08,2.02907813e-01
-5.75639062e-08,2.02890625e-01
-5.75239062e-08,2.02910937e-01
-5.74839062e-08,2.02885938e-01
-5.74439062e-08,2.02918750e-01
-5.74039062e-08,2.02871875e-01
-5.73639062e-08,2.02953125e-01
-5.73239062e-08,2.02693750e-01
-5.72839062e-08,2.02443750e-01
-5.72439062e-08,2.02532812e-01
-5.72039062e-08,2.02476563e-01
-5.71639062e-08,2.02518750e-01
-5.71239062e-08,2.02484375e-01
-5.70839062e-08,2.02514063e-01
-5.70439062e-08,2.02487500e-01
-5.70039062e-08,2.02510938e-01
-5.69639062e-08,2.02489063e-01
-5.69239062e-08,2.02510938e-01
-5.68839062e-08,2.02490625e-01
-5.68439062e-08,2.02509375e-01
-5.68039062e-08,2.02490625e-01
-5.67639062e-08,2.02509375e-01
-5.67239062e-08,2.02489063e-01
-5.66839062e-08,2.02510938e-01
-5.66439062e-08,2.02489063e-01
-5.66039062e-08,2.02512500e-01
-5.65639062e-08,2.02485938e-01
-5.65239062e-08,2.02515625e-01
-5.64839062e-08,2.02481250e-01
-5.64439062e-08,2.02523438e-01
-5.64039062e-08,2.02467188e-01
-5.63639062e-08,2.02557813e-01
-5.63239062e-08,2.02289063e-01
-5.62839062e-08,2.02048438e-01
-5.62439062e-08,2.02128125e-01
-5.62039062e-08,2.02082813e-01
-5.61639062e-08,2.02112500e-01
-5.61239062e-08,2.02090625e-01
-5.60839062e-08,2.02107813e-01
-5.60439062e-08,2.02093750e-01
-5.60039062e-08,2.02104688e-01
-5.59639062e-08,2.02095313e-01
-5.59239062e-08,2.02103125e-01
-5.58839062e-08,2.02096875e-01
-5.58439062e-08,2.02103125e-01
-5.58039062e-08,2.02098438e-01
-5.57639062e-08,2.02101562e-01
-5.57239062e-08,2.02098438e-01
-5.56839062e-08,2.02101562e-01
-5.56439062e-08,2.02100000e-01
-5.56039062e-08,2.02100000e-01
-5.55639062e-08,2.02100000e-01
-5.55239062e-08,2.02100000e-01
-5.54839062e-08,2.02100000e-01
-5.54439062e-08,2.02098438e-01
-5.54039062e-08,2.02101562e-01
-5.53639062e-08,2.02098438e-01
-5.53239062e-08,2.02103125e-01
-5.52839062e-08,2.02096875e-01
-5.52439062e-08,2.02104688e-01
-5.52039062e-08,2.02095313e-01
-5.51639062e-08,2.02106250e-01
-5.51239062e-08,2.02092188e-01
-5.50839062e-08,2.02109375e-01
-5.50439062e-08,2.02087500e-01
-5.50039062e-08,2.02117188e-01
-5.49639062e-08,2.02071875e-01
-5.49239062e-08,2.02153125e-01
-5.48839062e-08,2.01893750e-01
-5.48439062e-08,2.01643750e-01
-5.48039062e-08,2.01732812e-01
-5.47639062e-08,2.01676563e-01
-5.47239062e-08,2.01718750e-01
-5.46839062e-08,2.01684375e-01
-5.46439062e-08,2.01714063e-01
-5.46039062e-08,2.01687500e-01
-5.45639062e-08,2.01710938e-01
-5.45239062e-08,2.01690625e-01
-5.44839062e-08,2.01709375e-01
-5.44439062e-08,2.01690625e-01
-5.44039062e-08,2.01707812e-01
-5.43639062e-08,2.01692188e-01
-5.43239062e-08,2.01707812e-01
-5.42839062e-08,2.01692188e-01
-5.42439062e-08,2.01706250e-01
-5.42039062e-08,2.01693750e-01
-5.41639062e-08,2.01706250e-01
-5.41239062e-08,2.01693750e-01
-5.40839062e-08,2.01706250e-01
-5.40439062e-08,2.01693750e-01
-5.40039062e-08,2.01706250e-01
-5.39639062e-08,2.01693750e-01
-5.39239062e-08,2.01706250e-01
-5.38839062e-08,2.01693750e-01
-5.38439062e-08,2.01706250e-01
-5.38039062e-08,2.01693750e-01
-5.37639062e-08,2.01706250e-01
-5.37239062e-08,2.01693750e-01
-5.36839062e-08,2.01706250e-01
-5.36439062e-08,2.01693750e-01
-5.36039062e-08,2.01706250e-01
-5.35639062e-08,2.01693750e-01
-5.35239062e-08,2.01706250e-01
-5.34839062e-08,2.01693750e-01
-5.34439062e-08,2.01706250e-01
-5.34039062e-08,2.01693750e-01
-5.33639062e-08,2.01706250e-01
-5.33239062e-08,2.01693750e-01
-5.32839062e-08,2.01707812e-01
-5.32439062e-08,2.01692188e-01
-5.32039062e-08,2.01707812e-01
-5.31639062e-08,2.01692188e-01
-5.31239062e-08,2.01709375e-01
-5.30839062e-08,2.01690625e-01
-5.30439062e-08,2.01710938e-01
-5.30039063e-08,2.01689063e-01
-5.29639062e-08,2.01712500e-01
-5.29239062e-08,2.01684375e-01
-5.28839062e-08,2.01717188e-01
-5.28439062e-08,2.01676563e-01
-5.28039062e-08,2.01732812e-01
-5.27639062e-08,2.01642188e-01
-5.27239062e-08,2.01910937e-01
-5.26839062e-08,2.02151562e-01
-5.26439062e-08,2.02071875e-01
-5.26039062e-08,2.02118750e-01
-5.25639062e-08,2.02085938e-01
-5.25239062e-08,2.02110938e-01
-5.24839062e-08,2.02090625e-01
-5.24439062e-08,2.02107813e-01
-5.24039062e-08,2.02093750e-01
-5.23639062e-08,2.02106250e-01
-5.23239062e-08,2.02095313e-01
-5.22839062e-08,2.02104688e-01
-5.22439062e-08,2.02095313e-01
-5.22039062e-08,2.02104688e-01
-5.21639062e-08,2.02095313e-01
-5.21239062e-08,2.02104688e-01
-5.20839062e-08,2.02095313e-01
-5.20439062e-08,2.02104688e-01
-5.20039062e-08,2.02093750e-01
-5.19639062e-08,2.02107813e-01
-5.19239062e-08,2.02090625e-01
-5.18839062e-08,2.02110938e-01
-5.18439062e-08,2.02084375e-01
-5.18039062e-08,2.02125000e-01
-5.17639062e-08,2.02050000e-01
-5.17239062e-08,2.02301563e-01
-5.16839062e-08,2.02560938e-01
-5.16439062e-08,2.02462500e-01
-5.16039062e-08,2.02529687e-01
-5.15639062e-08,2.02475000e-01
-5.15239062e-08,2.02523438e-01
-5.14839062e-08,2.02476563e-01
-5.14439062e-08,2.02523438e-01
-5.14039062e-08,2.02475000e-01
-5.13639062e-08,2.02529687e-01
-5.13239062e-08,2.02460937e-01
-5.12839062e-08,2.02564063e-01
-5.12439062e-08,2.02282813e-01
-5.12039062e-08,2.02054687e-01
-5.11639062e-08,2.02121875e-01
-5.11239062e-08,2.02087500e-01
-5.10839063e-08,2.02107813e-01
-5.10439062e-08,2.02095313e-01
-5.10039062e-08,2.02103125e-01
-5.09639062e-08,2.02098438e-01
-5.09239062e-08,2.02100000e-01
-5.08839062e-08,2.02101562e-01
-5.08439062e-08,2.02096875e-01
-5.08039063e-08,2.02103125e-01
-5.07639062e-08,2.02095313e-01
-5.07239062e-08,2.02106250e-01
-5.06839062e-08,2.02093750e-01
-5.06439062e-08,2.02107813e-01
-5.06039062e-08,2.02090625e-01
-5.05639062e-08,2.02112500e-01
-5.05239062e-08,2.02084375e-01
-5.04839062e-08,2.02120313e-01
-5.04439062e-08,2.02068750e-01
-5.04039062e-08,2.02156250e-01
-5.03639062e-08,2.01890625e-01
-5.03239062e-08,2.01646875e-01
-5.02839062e-08,2.01728125e-01
-5.02439062e-08,2.01681250e-01
-5.02039062e-08,2.01714063e-01
-5.01639062e-08,2.01690625e-01
-5.01239062e-08,2.01707812e-01
-5.00839062e-08,2.01693750e-01
-5.00439062e-08,2.01703125e-01
-5.00039062e-08,2.01696875e-01
-4.99639062e-08,2.01700000e-01
-4.99239062e-08,2.01701563e-01
-4.98839062e-08,2.01696875e-01
-4.98439062e-08,2.01704688e-01
-4.98039062e-08,2.01690625e-01
-4.97639062e-08,2.01714063e-01
-4.97239062e-08,2.01676563e-01
-4.96839062e-08,2.01748438e-01
-4.96439062e-08,2.01496875e-01
-4.96039062e-08,2.01240625e-01
-4.95639062e-08,2.01335938e-01
-4.95239062e-08,2.01273438e-01
-4.94839062e-08,2.01321875e-01
-4.94439062e-08,2.01281250e-01
-4.94039062e-08,2.01315625e-01
-4.93639062e-08,2.01285938e-01
-4.93239062e-08,2.01314063e-01
-4.92839062e-08,2.01287500e-01
-4.92439062e-08,2.01312500e-01
-4.92039062e-08,2.01289063e-01
-4.91639063e-08,2.01310938e-01
-4.91239062e-08,2.01289063e-01
-4.90839062e-08,2.01310938e-01
-4.90439062e-08,2.01290625e-01
-4.90039062e-08,2.01309375e-01
-4.89639062e-08,2.01290625e-01
-4.89239062e-08,2.01309375e-01
-4.88839063e-08,2.01290625e-01
-4.88439062e-08,2.01309375e-01
-4.88039062e-08,2.01289063e-01
-4.87639062e-08,2.01310938e-01
-4.87239062e-08,2.01289063e-01
-4.86839062e-08,2.01310938e-01
-4.86439062e-08,2.01287500e-01
-4.86039062e-08,2.01312500e-01
-4.85639062e-08,2.01285938e-01
-4.85239062e-08,2.01315625e-01
-4.84839062e-08,2.01282813e-01
-4.84439062e-08,2.01320313e-01
-4.84039062e-08,2.01275000e-01
-4.83639062e-08,2.01335938e-01
-4.83239062e-08,2.01239063e-01
-4.82839062e-08,2.01514063e-01
-4.82439062e-08,2.01748438e-01
-4.82039062e-08,2.01676563e-01
-4.81639062e-08,2.01714063e-01
-4.81239062e-08,2.01692188e-01
-4.80839062e-08,2.01703125e-01
-4.80439062e-08,2.01701563e-01
-4.80039062e-08,2.01692188e-01
-4.79639062e-08,2.01718750e-01
-4.79239062e-08,2.01656250e-01
-4.78839062e-08,2.01895313e-01
-4.78439062e-08,2.02167188e-01
-4.78039062e-08,2.02056250e-01
-4.77639062e-08,2.02135938e-01
-4.77239062e-08,2.02067188e-01
-4.76839062e-08,2.02132813e-01
-4.76439062e-08,2.02064063e-01
-4.76039062e-08,2.02143750e-01
-4.75639062e-08,2.02032813e-01
-4.75239062e-08,2.02320313e-01
-4.74839062e-08,2.02542187e-01
-4.74439062e-08,2.02481250e-01
-4.74039062e-08,2.02509375e-01
-4.73639062e-08,2.02495312e-01
-4.73239062e-08,2.02501563e-01
-4.72839062e-08,2.02501563e-01
-4.72439063e-08,2.02496875e-01
-4.72039062e-08,2.02506250e-01
-4.71639062e-08,2.02492188e-01
-4.71239062e-08,2.02510938e-01
-4.70839062e-08,2.02484375e-01
-4.70439062e-08,2.02520313e-01
-4.70039062e-08,2.02471875e-01
-4.69639063e-08,2.02543750e-01
-4.69239062e-08,2.02421875e-01
-4.68839062e-08,2.02756250e-01
-4.68439062e-08,2.02753125e-01
-4.68039062e-08,2.02407813e-01
-4.67639062e-08,2.02559375e-01
-4.67239062e-08,2.02454688e-01
-4.66839063e-08,2.02537500e-01
-4.66439062e-08,2.02465625e-01
-4.66039062e-08,2.02531250e-01
-4.65639062e-08,2.02470312e-01
-4.65239062e-08,2.02528125e-01
-4.64839062e-08,2.02471875e-01
-4.64439062e-08,2.02528125e-01
-4.64039062e-08,2.02471875e-01
-4.63639062e-08,2.02529687e-01
-4.63239062e-08,2.02467188e-01
-4.62839062e-08,2.02537500e-01
-4.62439062e-08,2.02453125e-01
-4.62039062e-08,2.02573438e-01
-4.61639062e-08,2.02273438e-01
-4.61239062e-08,2.02065625e-01
-4.60839062e-08,2.02109375e-01
-4.60439062e-08,2.02101562e-01
-4.60039062e-08,2.02090625e-01
-4.59639062e-08,2.02117188e-01
-4.59239062e-08,2.02070313e-01
-4.58839062e-08,2.02156250e-01
-4.58439062e-08,2.01889062e-01
-4.58039062e-08,2.01650000e-01
-4.57639062e-08,2.01723438e-01
-4.57239062e-08,2.01687500e-01
-4.56839062e-08,2.01704688e-01
-4.56439062e-08,2.01703125e-01
-4.56039062e-08,2.01684375e-01
-4.55639062e-08,2.01740625e-01
-4.55239062e-08,2.01504688e-01
-4.54839062e-08,2.01232812e-01
-4.54439062e-08,2.01343750e-01
-4.54039062e-08,2.01265625e-01
-4.53639062e-08,2.01331250e-01
-4.53239063e-08,2.01268750e-01
-4.52839062e-08,2.01332813e-01
-4.52439062e-08,2.01259375e-01
-4.52039062e-08,2.01364062e-01
-4.51639062e-08,2.01082813e-01
-4.51239062e-08,2.00853125e-01
-4.50839062e-08,2.00923437e-01
-4.50439063e-08,2.00884375e-01
-4.50039062e-08,2.00910937e-01
-4.49639062e-08,2.00892188e-01
-4.49239062e-08,2.00906250e-01
-4.48839062e-08,2.00895313e-01
-4.48439062e-08,2.00904688e-01
-4.48039062e-08,2.00895313e-01
-4.47639063e-08,2.00904688e-01
-4.47239062e-08,2.00896875e-01
-4.46839062e-08,2.00903125e-01
-4.46439062e-08,2.00896875e-01
-4.46039062e-08,2.00903125e-01
-4.45639062e-08,2.00896875e-01
-4.45239062e-08,2.00903125e-01
-4.44839063e-08,2.00896875e-01
-4.44439062e-08,2.00903125e-01
-4.44039062e-08,2.00895313e-01
-4.43639062e-08,2.00904688e-01
-4.43239062e-08,2.00895313e-01
-4.42839062e-08,2.00904688e-01
-4.42439062e-08,2.00895313e-01
-4.42039062e-08,2.00904688e-01
-4.41639062e-08,2.00893750e-01
-4.41239062e-08,2.00906250e-01
-4.40839062e-08,2.00892188e-01
-4.40439062e-08,2.00907813e-01
-4.40039062e-08,2.00890625e-01
-4.39639062e-08,2.00910937e-01
-4.39239062e-08,2.00887500e-01
-4.38839062e-08,2.00915625e-01
-4.38439062e-08,2.00879688e-01
-4.38039062e-08,2.00931250e-01
-4.37639062e-08,2.00845313e-01
-4.37239062e-08,2.01107813e-01
-4.36839063e-08,2.01353125e-01
-4.36439062e-08,2.01270312e-01
-4.36039062e-08,2.01320313e-01
-4.35639062e-08,2.01284375e-01
-4.35239062e-08,2.01312500e-01
-4.34839062e-08,2.01289063e-01
-4.34439062e-08,2.01309375e-01
-4.34039063e-08,2.01292187e-01
-4.33639062e-08,2.01306250e-01
-4.33239062e-08,2.01293750e-01
-4.32839062e-08,2.01306250e-01
-4.32439062e-08,2.01295313e-01
-4.32039062e-08,2.01304687e-01
-4.31639062e-08,2.01295313e-01
-4.31239063e-08,2.01304687e-01
-4.30839062e-08,2.01296875e-01
-4.30439062e-08,2.01303125e-01
-4.30039062e-08,2.01296875e-01
-4.29639062e-08,2.01303125e-01
-4.29239062e-08,2.01296875e-01
-4.28839062e-08,2.01303125e-01
-4.28439063e-08,2.01296875e-01
-4.28039062e-08,2.01301563e-01
-4.27639062e-08,2.01298438e-01
-4.27239062e-08,2.01301563e-01
-4.26839062e-08,2.01298438e-01
-4.26439062e-08,2.01301563e-01
-4.26039062e-08,2.01298438e-01
-4.25639063e-08,2.01301563e-01
-4.25239062e-08,2.01298438e-01
-4.24839062e-08,2.01301563e-01
-4.24439062e-08,2.01298438e-01
-4.24039062e-08,2.01301563e-01
-4.23639062e-08,2.01300000e-01
-4.23239062e-08,2.01300000e-01
-4.22839063e-08,2.01300000e-01
-4.22439062e-08,2.01300000e-01
-4.22039062e-08,2.01300000e-01
-4.21639062e-08,2.01300000e-01
-4.21239062e-08,2.01300000e-01
-4.20839062e-08,2.01300000e-01
-4.20439062e-08,2.01300000e-01
-4.20039062e-08,2.01298438e-01
-4.19639062e-08,2.01301563e-01
-4.19239062e-08,2.01298438e-01
-4.18839062e-08,2.01301563e-01
-4.18439062e-08,2.01296875e-01
-4.18039062e-08,2.01303125e-01
-4.17639063e-08,2.01296875e-01
-4.17239062e-08,2.01304687e-01
-4.16839062e-08,2.01293750e-01
-4.16439062e-08,2.01307813e-01
-4.16039062e-08,2.01290625e-01
-4.15639062e-08,2.01312500e-01
-4.15239062e-08,2.01282813e-01
-4.14839063e-08,2.01326563e-01
-4.14439062e-08,2.01248438e-01
-4.14039062e-08,2.01504688e-01
-4.13639062e-08,2.01757813e-01
-4.13239062e-08,2.01665625e-01
-4.12839062e-08,2.01725000e-01
-4.12439062e-08,2.01679688e-01
-4.12039063e-08,2.01717188e-01
-4.11639062e-08,2.01685938e-01
-4.11239062e-08,2.01714063e-01
-4.10839062e-08,2.01687500e-01
-4.10439062e-08,2.01712500e-01
-4.10039062e-08,2.01689063e-01
-4.09639062e-08,2.01710938e-01
-4.09239063e-08,2.01689063e-01
-4.08839062e-08,2.01710938e-01
-4.08439062e-08,2.01689063e-01
-4.08039062e-08,2.01710938e-01
-4.07639062e-08,2.01689063e-01
-4.07239062e-08,2.01710938e-01
-4.06839062e-08,2.01689063e-01
-4.06439063e-08,2.01712500e-01
-4.06039062e-08,2.01687500e-01
-4.05639062e-08,2.01714063e-01
-4.05239062e-08,2.01682813e-01
-4.04839062e-08,2.01718750e-01
-4.04439062e-08,2.01675000e-01
-4.04039062e-08,2.01734375e-01
-4.03639063e-08,2.01640625e-01
-4.03239062e-08,2.01910937e-01
-4.02839062e-08,2.02150000e-01
-4.02439062e-08,2.02073438e-01
-4.02039062e-08,2.02117188e-01
-4.01639062e-08,2.02087500e-01
-4.01239062e-08,2.02109375e-01
-4.00839063e-08,2.02092188e-01
-4.00439062e-08,2.02106250e-01
-4.00039062e-08,2.02095313e-01
-3.99639062e-08,2.02104688e-01
-3.99239062e-08,2.02095313e-01
-3.98839062e-08,2.02103125e-01
-3.98439063e-08,2.02096875e-01
-3.98039062e-08,2.02103125e-01
-3.97639062e-08,2.02096875e-01
-3.97239062e-08,2.02101562e-01
-3.96839062e-08,2.02098438e-01
-3.96439062e-08,2.02101562e-01
-3.96039062e-08,2.02098438e-01
-3.95639063e-08,2.02101562e-01
-3.95239062e-08,2.02098438e-01
-3.94839062e-08,2.02101562e-01
-3.94439062e-08,2.02098438e-01
-3.94039062e-08,2.02101562e-01
-3.93639062e-08,2.02098438e-01
-3.93239062e-08,2.02101562e-01
-3.92839063e-08,2.02098438e-01
-3.92439062e-08,2.02101562e-01
-3.92039062e-08,2.02098438e-01
-3.91639062e-08,2.02101562e-01
-3.91239062e-08,2.02098438e-01
-3.90839062e-08,2.02101562e-01
-3.90439062e-08,2.02098438e-01
-3.90039063e-08,2.02101562e-01
-3.89639062e-08,2.02098438e-01
-3.89239062e-08,2.02101562e-01
-3.88839062e-08,2.02098438e-01
-3.88439062e-08,2.02101562e-01
-3.88039062e-08,2.02098438e-01
-3.87639062e-08,2.02101562e-01
-3.87239063e-08,2.02098438e-01
-3.86839062e-08,2.02103125e-01
-3.86439062e-08,2.02096875e-01
-3.86039062e-08,2.02103125e-01
-3.85639062e-08,2.02096875e-01
-3.85239062e-08,2.02104688e-01
