trails/0b2e18f6fa2cac99b521e237471ff731/aes_ch1_20250507110633592.csv

Model,MSO66B
Label,
Waveform Type,ANALOG
Horizontal Units,s
Sample Interval,4.00000000e-11
Record Length,10000
Zero Index,1599.08203125
Vertical Units,A
ANALOG_Thumbnail,
yOffset,1.84500000e-01
yPosition,8.40000000e-01

Labels,
TIME,CH1
-6.39632812e-08,1.89665625e-01
-6.39232812e-08,1.89734375e-01
-6.38832812e-08,1.89662500e-01
-6.38432812e-08,1.89745313e-01
-6.38032812e-08,1.89631250e-01
-6.37632813e-08,1.89921875e-01
-6.37232812e-08,1.90140625e-01
-6.36832812e-08,1.90082813e-01
-6.36432812e-08,1.90107813e-01
-6.36032812e-08,1.90096875e-01
-6.35632812e-08,1.90098437e-01
-6.35232812e-08,1.90104688e-01
-6.34832813e-08,1.90092188e-01
-6.34432812e-08,1.90110938e-01
-6.34032812e-08,1.90082813e-01
-6.33632812e-08,1.90126563e-01
-6.33232812e-08,1.90048438e-01
-6.32832812e-08,1.90304688e-01
-6.32432812e-08,1.90556250e-01
-6.32032813e-08,1.90467187e-01
-6.31632812e-08,1.90523438e-01
-6.31232812e-08,1.90481250e-01
-6.30832812e-08,1.90515625e-01
-6.30432812e-08,1.90485938e-01
-6.30032812e-08,1.90514062e-01
-6.29632812e-08,1.90487500e-01
-6.29232813e-08,1.90512500e-01
-6.28832812e-08,1.90487500e-01
-6.28432812e-08,1.90514062e-01
-6.28032812e-08,1.90484375e-01
-6.27632812e-08,1.90517188e-01
-6.27232812e-08,1.90478125e-01
-6.26832812e-08,1.90531250e-01
-6.26432813e-08,1.90443750e-01
-6.26032812e-08,1.90709375e-01
-6.25632812e-08,1.90953125e-01
-6.25232812e-08,1.90870313e-01
-6.24832812e-08,1.90921875e-01
-6.24432812e-08,1.90882812e-01
-6.24032812e-08,1.90914063e-01
-6.23632813e-08,1.90887500e-01
-6.23232812e-08,1.90910938e-01
-6.22832812e-08,1.90889063e-01
-6.22432812e-08,1.90909375e-01
-6.22032812e-08,1.90890625e-01
-6.21632812e-08,1.90909375e-01
-6.21232812e-08,1.90890625e-01
-6.20832813e-08,1.90909375e-01
-6.20432812e-08,1.90890625e-01
-6.20032812e-08,1.90909375e-01
-6.19632812e-08,1.90890625e-01
-6.19232812e-08,1.90909375e-01
-6.18832813e-08,1.90889063e-01
-6.18432812e-08,1.90910938e-01
-6.18032813e-08,1.90887500e-01
-6.17632812e-08,1.90912500e-01
-6.17232812e-08,1.90885938e-01
-6.16832812e-08,1.90915625e-01
-6.16432812e-08,1.90882812e-01
-6.16032813e-08,1.90918750e-01
-6.15632812e-08,1.90878125e-01
-6.15232813e-08,1.90928125e-01
-6.14832812e-08,1.90862500e-01
-6.14432812e-08,1.90964063e-01
-6.14032812e-08,1.90682813e-01
-6.13632812e-08,1.90456250e-01
-6.13232813e-08,1.90518750e-01
-6.12832812e-08,1.90490625e-01
-6.12432813e-08,1.90501562e-01
-6.12032812e-08,1.90503125e-01
-6.11632812e-08,1.90490625e-01
-6.11232812e-08,1.90515625e-01
-6.10832812e-08,1.90473438e-01
-6.10432813e-08,1.90553125e-01
-6.10032812e-08,1.90292188e-01
-6.09632813e-08,1.90046875e-01
-6.09232812e-08,1.90128125e-01
-6.08832812e-08,1.90084375e-01
-6.08432812e-08,1.90107813e-01
-6.08032812e-08,1.90100000e-01
-6.07632813e-08,1.90089063e-01
-6.07232812e-08,1.90137500e-01
-6.06832813e-08,1.89909375e-01
-6.06432812e-08,1.89628125e-01
-6.06032812e-08,1.89748438e-01
-6.05632812e-08,1.89659375e-01
-6.05232812e-08,1.89740625e-01
-6.04832813e-08,1.89654688e-01
-6.04432812e-08,1.89767188e-01
-6.04032813e-08,1.89481250e-01
-6.03632812e-08,1.89253125e-01
-6.03232812e-08,1.89325000e-01
-6.02832812e-08,1.89282813e-01
-6.02432812e-08,1.89315625e-01
-6.02032813e-08,1.89284375e-01
-6.01632812e-08,1.89320313e-01
-6.01232813e-08,1.89271875e-01
-6.00832812e-08,1.89353125e-01
-6.00432812e-08,1.89095313e-01
-6.00032812e-08,1.88842188e-01
-5.99632812e-08,1.88934375e-01
-5.99232813e-08,1.88875000e-01
-5.98832812e-08,1.88920313e-01
-5.98432812e-08,1.88882812e-01
-5.98032812e-08,1.88915625e-01
-5.97632812e-08,1.88885938e-01
-5.97232812e-08,1.88912500e-01
-5.96832812e-08,1.88887500e-01
-5.96432813e-08,1.88910938e-01
-5.96032812e-08,1.88889063e-01
-5.95632812e-08,1.88910938e-01
-5.95232812e-08,1.88889063e-01
-5.94832812e-08,1.88910938e-01
-5.94432812e-08,1.88889063e-01
-5.94032812e-08,1.88910938e-01
-5.93632812e-08,1.88889063e-01
-5.93232812e-08,1.88910938e-01
-5.92832812e-08,1.88889063e-01
-5.92432812e-08,1.88910938e-01
-5.92032812e-08,1.88887500e-01
-5.91632812e-08,1.88914063e-01
-5.91232812e-08,1.88884375e-01
-5.90832812e-08,1.88918750e-01
-5.90432812e-08,1.88876563e-01
-5.90032812e-08,1.88932813e-01
-5.89632812e-08,1.88842188e-01
-5.89232812e-08,1.89109375e-01
-5.88832812e-08,1.89353125e-01
-5.88432812e-08,1.89270313e-01
-5.88032812e-08,1.89320313e-01
-5.87632812e-08,1.89284375e-01
-5.87232812e-08,1.89312500e-01
-5.86832812e-08,1.89289062e-01
-5.86432812e-08,1.89310937e-01
-5.86032812e-08,1.89289062e-01
-5.85632812e-08,1.89310937e-01
-5.85232812e-08,1.89289062e-01
-5.84832812e-08,1.89312500e-01
-5.84432812e-08,1.89284375e-01
-5.84032812e-08,1.89320313e-01
-5.83632812e-08,1.89270313e-01
-5.83232812e-08,1.89353125e-01
-5.82832812e-08,1.89093750e-01
-5.82432812e-08,1.88843750e-01
-5.82032812e-08,1.88932813e-01
-5.81632812e-08,1.88876563e-01
-5.81232812e-08,1.88918750e-01
-5.80832812e-08,1.88882812e-01
-5.80432812e-08,1.88915625e-01
-5.80032812e-08,1.88884375e-01
-5.79632812e-08,1.88915625e-01
-5.79232812e-08,1.88884375e-01
-5.78832812e-08,1.88917188e-01
-5.78432812e-08,1.88881250e-01
-5.78032812e-08,1.88923438e-01
-5.77632812e-08,1.88867188e-01
-5.77232812e-08,1.88957813e-01
-5.76832812e-08,1.88690625e-01
-5.76432812e-08,1.88446875e-01
-5.76032812e-08,1.88529688e-01
-5.75632812e-08,1.88479687e-01
-5.75232812e-08,1.88515625e-01
-5.74832812e-08,1.88485938e-01
-5.74432812e-08,1.88512500e-01
-5.74032812e-08,1.88489062e-01
-5.73632812e-08,1.88510938e-01
-5.73232812e-08,1.88489062e-01
-5.72832812e-08,1.88510938e-01
-5.72432812e-08,1.88487500e-01
-5.72032812e-08,1.88514062e-01
-5.71632812e-08,1.88482813e-01
-5.71232812e-08,1.88521875e-01
-5.70832812e-08,1.88468750e-01
-5.70432812e-08,1.88556250e-01
-5.70032812e-08,1.88290625e-01
-5.69632812e-08,1.88046875e-01
-5.69232812e-08,1.88129688e-01
-5.68832812e-08,1.88079688e-01
-5.68432812e-08,1.88115625e-01
-5.68032812e-08,1.88087500e-01
-5.67632812e-08,1.88110938e-01
-5.67232812e-08,1.88090625e-01
-5.66832812e-08,1.88109375e-01
-5.66432812e-08,1.88092188e-01
-5.66032812e-08,1.88107812e-01
-5.65632812e-08,1.88093750e-01
-5.65232812e-08,1.88106250e-01
-5.64832812e-08,1.88093750e-01
-5.64432812e-08,1.88106250e-01
-5.64032812e-08,1.88095313e-01
-5.63632812e-08,1.88104688e-01
-5.63232812e-08,1.88095313e-01
-5.62832812e-08,1.88104688e-01
-5.62432812e-08,1.88095313e-01
-5.62032812e-08,1.88104688e-01
-5.61632812e-08,1.88095313e-01
-5.61232812e-08,1.88104688e-01
-5.60832812e-08,1.88095313e-01
-5.60432812e-08,1.88104688e-01
-5.60032812e-08,1.88095313e-01
-5.59632812e-08,1.88104688e-01
-5.59232812e-08,1.88095313e-01
-5.58832812e-08,1.88104688e-01
-5.58432812e-08,1.88095313e-01
-5.58032812e-08,1.88104688e-01
-5.57632812e-08,1.88095313e-01
-5.57232812e-08,1.88104688e-01
-5.56832812e-08,1.88095313e-01
-5.56432812e-08,1.88104688e-01
-5.56032812e-08,1.88095313e-01
-5.55632812e-08,1.88104688e-01
-5.55232812e-08,1.88095313e-01
-5.54832812e-08,1.88104688e-01
-5.54432812e-08,1.88095313e-01
-5.54032812e-08,1.88104688e-01
-5.53632812e-08,1.88095313e-01
-5.53232812e-08,1.88104688e-01
-5.52832812e-08,1.88095313e-01
-5.52432812e-08,1.88104688e-01
-5.52032812e-08,1.88095313e-01
-5.51632812e-08,1.88104688e-01
-5.51232812e-08,1.88095313e-01
-5.50832812e-08,1.88104688e-01
-5.50432812e-08,1.88095313e-01
-5.50032812e-08,1.88104688e-01
-5.49632812e-08,1.88095313e-01
-5.49232812e-08,1.88104688e-01
-5.48832812e-08,1.88095313e-01
-5.48432812e-08,1.88104688e-01
-5.48032812e-08,1.88093750e-01
-5.47632812e-08,1.88106250e-01
-5.47232812e-08,1.88093750e-01
-5.46832812e-08,1.88106250e-01
-5.46432812e-08,1.88093750e-01
-5.46032812e-08,1.88107812e-01
-5.45632812e-08,1.88092188e-01
-5.45232812e-08,1.88107812e-01
-5.44832812e-08,1.88090625e-01
-5.44432812e-08,1.88109375e-01
-5.44032812e-08,1.88089063e-01
-5.43632812e-08,1.88112500e-01
-5.43232812e-08,1.88085937e-01
-5.42832812e-08,1.88118750e-01
-5.42432812e-08,1.88076563e-01
-5.42032812e-08,1.88132812e-01
-5.41632812e-08,1.88042188e-01
-5.41232812e-08,1.88310937e-01
-5.40832812e-08,1.88551563e-01
-5.40432812e-08,1.88473438e-01
-5.40032812e-08,1.88517188e-01
-5.39632812e-08,1.88487500e-01
-5.39232812e-08,1.88509375e-01
-5.38832812e-08,1.88493750e-01
-5.38432812e-08,1.88504688e-01
-5.38032812e-08,1.88496875e-01
-5.37632812e-08,1.88501562e-01
-5.37232812e-08,1.88500000e-01
-5.36832812e-08,1.88498438e-01
-5.36432812e-08,1.88503125e-01
-5.36032812e-08,1.88493750e-01
-5.35632812e-08,1.88509375e-01
-5.35232812e-08,1.88485938e-01
-5.34832812e-08,1.88523438e-01
-5.34432812e-08,1.88451563e-01
-5.34032812e-08,1.88701563e-01
-5.33632812e-08,1.88959375e-01
-5.33232812e-08,1.88864063e-01
-5.32832812e-08,1.88926563e-01
-5.32432812e-08,1.88878125e-01
-5.32032812e-08,1.88918750e-01
-5.31632812e-08,1.88882812e-01
-5.31232812e-08,1.88915625e-01
-5.30832812e-08,1.88885938e-01
-5.30432812e-08,1.88914063e-01
-5.30032812e-08,1.88885938e-01
-5.29632812e-08,1.88912500e-01
-5.29232812e-08,1.88887500e-01
-5.28832812e-08,1.88912500e-01
-5.28432812e-08,1.88887500e-01
-5.28032812e-08,1.88914063e-01
-5.27632812e-08,1.88885938e-01
-5.27232812e-08,1.88914063e-01
-5.26832812e-08,1.88884375e-01
-5.26432812e-08,1.88917188e-01
-5.26032812e-08,1.88881250e-01
-5.25632813e-08,1.88921875e-01
-5.25232812e-08,1.88873438e-01
-5.24832812e-08,1.88935938e-01
-5.24432812e-08,1.88839063e-01
-5.24032812e-08,1.89114063e-01
-5.23632812e-08,1.89348437e-01
-5.23232812e-08,1.89276562e-01
-5.22832812e-08,1.89314063e-01
-5.22432812e-08,1.89290625e-01
-5.22032812e-08,1.89306250e-01
-5.21632812e-08,1.89295313e-01
-5.21232812e-08,1.89303125e-01
-5.20832812e-08,1.89298437e-01
-5.20432812e-08,1.89300000e-01
-5.20032812e-08,1.89301563e-01
-5.19632812e-08,1.89298437e-01
-5.19232812e-08,1.89303125e-01
-5.18832812e-08,1.89296875e-01
-5.18432812e-08,1.89304688e-01
-5.18032812e-08,1.89293750e-01
-5.17632812e-08,1.89306250e-01
-5.17232812e-08,1.89292188e-01
-5.16832812e-08,1.89309375e-01
-5.16432812e-08,1.89287500e-01
-5.16032812e-08,1.89315625e-01
-5.15632812e-08,1.89279688e-01
-5.15232812e-08,1.89331250e-01
-5.14832812e-08,1.89243750e-01
-5.14432812e-08,1.89509375e-01
-5.14032812e-08,1.89753125e-01
-5.13632812e-08,1.89671875e-01
-5.13232812e-08,1.89718750e-01
-5.12832812e-08,1.89685938e-01
-5.12432812e-08,1.89710938e-01
-5.12032812e-08,1.89692187e-01
-5.11632812e-08,1.89706250e-01
-5.11232812e-08,1.89695313e-01
-5.10832812e-08,1.89703125e-01
-5.10432812e-08,1.89698438e-01
-5.10032812e-08,1.89700000e-01
-5.09632812e-08,1.89701563e-01
-5.09232812e-08,1.89696875e-01
-5.08832812e-08,1.89706250e-01
-5.08432812e-08,1.89690625e-01
-5.08032812e-08,1.89715625e-01
-5.07632812e-08,1.89675000e-01
-5.07232812e-08,1.89750000e-01
-5.06832812e-08,1.89496875e-01
-5.06432813e-08,1.89242188e-01
-5.06032812e-08,1.89334375e-01
-5.05632812e-08,1.89275000e-01
-5.05232812e-08,1.89318750e-01
-5.04832812e-08,1.89284375e-01
-5.04432812e-08,1.89312500e-01
-5.04032812e-08,1.89289062e-01
-5.03632813e-08,1.89309375e-01
-5.03232812e-08,1.89292188e-01
-5.02832812e-08,1.89304688e-01
-5.02432812e-08,1.89296875e-01
-5.02032812e-08,1.89300000e-01
-5.01632812e-08,1.89306250e-01
-5.01232812e-08,1.89284375e-01
-5.00832812e-08,1.89340625e-01
-5.00432812e-08,1.89107812e-01
-5.00032812e-08,1.88829688e-01
-4.99632812e-08,1.88946875e-01
-4.99232812e-08,1.88860938e-01
-4.98832812e-08,1.88935938e-01
-4.98432812e-08,1.88864063e-01
-4.98032812e-08,1.88937500e-01
-4.97632812e-08,1.88854688e-01
-4.97232812e-08,1.88968750e-01
-4.96832812e-08,1.88679687e-01
-4.96432812e-08,1.88456250e-01
-4.96032812e-08,1.88521875e-01
-4.95632812e-08,1.88484375e-01
-4.95232812e-08,1.88515625e-01
-4.94832812e-08,1.88478125e-01
-4.94432812e-08,1.88543750e-01
-4.94032812e-08,1.88306250e-01
-4.93632812e-08,1.88029688e-01
-4.93232812e-08,1.88150000e-01
-4.92832812e-08,1.88054688e-01
-4.92432812e-08,1.88145312e-01
-4.92032812e-08,1.88046875e-01
-4.91632812e-08,1.88176563e-01
-4.91232812e-08,1.87870312e-01
-4.90832812e-08,1.87668750e-01
-4.90432812e-08,1.87707813e-01
-4.90032812e-08,1.87704687e-01
-4.89632812e-08,1.87689063e-01
-4.89232812e-08,1.87720313e-01
-4.88832812e-08,1.87668750e-01
-4.88432812e-08,1.87757813e-01
-4.88032812e-08,1.87487500e-01
-4.87632812e-08,1.87250000e-01
-4.87232813e-08,1.87325000e-01
-4.86832812e-08,1.87285937e-01
-4.86432812e-08,1.87307813e-01
-4.86032812e-08,1.87295313e-01
-4.85632812e-08,1.87301563e-01
-4.85232812e-08,1.87301563e-01
-4.84832812e-08,1.87296875e-01
-4.84432813e-08,1.87306250e-01
-4.84032812e-08,1.87290625e-01
-4.83632812e-08,1.87312500e-01
-4.83232812e-08,1.87284375e-01
-4.82832812e-08,1.87321875e-01
-4.82432812e-08,1.87267188e-01
-4.82032812e-08,1.87359375e-01
-4.81632813e-08,1.87084375e-01
-4.81232812e-08,1.86856250e-01
-4.80832812e-08,1.86914063e-01
-4.80432812e-08,1.86904687e-01
-4.80032812e-08,1.86865625e-01
-4.79632812e-08,1.87090625e-01
-4.79232812e-08,1.87368750e-01
-4.78832812e-08,1.87256250e-01
-4.78432812e-08,1.87334375e-01
-4.78032812e-08,1.87271875e-01
-4.77632812e-08,1.87325000e-01
-4.77232812e-08,1.87278125e-01
-4.76832812e-08,1.87320313e-01
-4.76432812e-08,1.87281250e-01
-4.76032812e-08,1.87318750e-01
-4.75632812e-08,1.87282813e-01
-4.75232812e-08,1.87317188e-01
-4.74832812e-08,1.87282813e-01
-4.74432812e-08,1.87317188e-01
-4.74032812e-08,1.87282813e-01
-4.73632812e-08,1.87318750e-01
-4.73232812e-08,1.87279688e-01
-4.72832812e-08,1.87323437e-01
-4.72432812e-08,1.87271875e-01
-4.72032812e-08,1.87337500e-01
-4.71632812e-08,1.87237500e-01
-4.71232812e-08,1.87514062e-01
-4.70832812e-08,1.87748438e-01
-4.70432812e-08,1.87676563e-01
-4.70032812e-08,1.87715625e-01
-4.69632812e-08,1.87690625e-01
-4.69232812e-08,1.87707813e-01
-4.68832812e-08,1.87695313e-01
-4.68432812e-08,1.87704687e-01
-4.68032813e-08,1.87696875e-01
-4.67632812e-08,1.87701563e-01
-4.67232812e-08,1.87698438e-01
-4.66832812e-08,1.87701563e-01
-4.66432812e-08,1.87700000e-01
-4.66032812e-08,1.87700000e-01
-4.65632812e-08,1.87700000e-01
-4.65232813e-08,1.87700000e-01
-4.64832812e-08,1.87700000e-01
-4.64432812e-08,1.87700000e-01
-4.64032812e-08,1.87700000e-01
-4.63632812e-08,1.87698438e-01
-4.63232812e-08,1.87701563e-01
-4.62832812e-08,1.87698438e-01
-4.62432813e-08,1.87701563e-01
-4.62032812e-08,1.87698438e-01
-4.61632812e-08,1.87701563e-01
-4.61232812e-08,1.87698438e-01
-4.60832812e-08,1.87701563e-01
-4.60432812e-08,1.87698438e-01
-4.60032812e-08,1.87701563e-01
-4.59632813e-08,1.87698438e-01
-4.59232812e-08,1.87703125e-01
-4.58832812e-08,1.87696875e-01
-4.58432812e-08,1.87703125e-01
-4.58032812e-08,1.87696875e-01
-4.57632812e-08,1.87703125e-01
-4.57232812e-08,1.87696875e-01
-4.56832812e-08,1.87703125e-01
-4.56432812e-08,1.87695313e-01
-4.56032812e-08,1.87704687e-01
-4.55632812e-08,1.87695313e-01
-4.55232812e-08,1.87706250e-01
-4.54832812e-08,1.87693750e-01
-4.54432812e-08,1.87707813e-01
-4.54032812e-08,1.87692187e-01
-4.53632812e-08,1.87709375e-01
-4.53232812e-08,1.87687500e-01
-4.52832812e-08,1.87715625e-01
-4.52432812e-08,1.87679687e-01
-4.52032812e-08,1.87729688e-01
-4.51632812e-08,1.87645312e-01
-4.51232812e-08,1.87907812e-01
-4.50832812e-08,1.88154688e-01
-4.50432812e-08,1.88068750e-01
-4.50032812e-08,1.88121875e-01
-4.49632812e-08,1.88082813e-01
-4.49232812e-08,1.88114063e-01
-4.48832813e-08,1.88089063e-01
-4.48432812e-08,1.88109375e-01
-4.48032812e-08,1.88090625e-01
-4.47632812e-08,1.88107812e-01
-4.47232812e-08,1.88092188e-01
-4.46832812e-08,1.88106250e-01
-4.46432812e-08,1.88093750e-01
-4.46032813e-08,1.88106250e-01
-4.45632812e-08,1.88093750e-01
-4.45232812e-08,1.88104688e-01
-4.44832812e-08,1.88095313e-01
-4.44432812e-08,1.88104688e-01
-4.44032812e-08,1.88095313e-01
-4.43632812e-08,1.88104688e-01
-4.43232813e-08,1.88095313e-01
-4.42832812e-08,1.88104688e-01
-4.42432812e-08,1.88095313e-01
-4.42032812e-08,1.88104688e-01
-4.41632812e-08,1.88095313e-01
-4.41232812e-08,1.88103125e-01
-4.40832812e-08,1.88096875e-01
-4.40432813e-08,1.88103125e-01
-4.40032812e-08,1.88096875e-01
-4.39632812e-08,1.88103125e-01
-4.39232812e-08,1.88096875e-01
-4.38832812e-08,1.88103125e-01
-4.38432812e-08,1.88096875e-01
-4.38032812e-08,1.88103125e-01
-4.37632812e-08,1.88096875e-01
-4.37232812e-08,1.88103125e-01
-4.36832812e-08,1.88096875e-01
-4.36432812e-08,1.88103125e-01
-4.36032812e-08,1.88096875e-01
-4.35632812e-08,1.88103125e-01
-4.35232812e-08,1.88096875e-01
-4.34832812e-08,1.88103125e-01
-4.34432812e-08,1.88096875e-01
-4.34032812e-08,1.88103125e-01
-4.33632812e-08,1.88096875e-01
-4.33232812e-08,1.88103125e-01
-4.32832812e-08,1.88096875e-01
-4.32432812e-08,1.88103125e-01
-4.32032812e-08,1.88096875e-01
-4.31632812e-08,1.88103125e-01
-4.31232812e-08,1.88096875e-01
-4.30832812e-08,1.88103125e-01
-4.30432812e-08,1.88096875e-01
-4.30032812e-08,1.88103125e-01
-4.29632813e-08,1.88096875e-01
-4.29232812e-08,1.88103125e-01
-4.28832812e-08,1.88095313e-01
-4.28432812e-08,1.88104688e-01
-4.28032812e-08,1.88095313e-01
-4.27632812e-08,1.88104688e-01
-4.27232812e-08,1.88095313e-01
-4.26832813e-08,1.88104688e-01
-4.26432812e-08,1.88095313e-01
-4.26032812e-08,1.88104688e-01
-4.25632812e-08,1.88095313e-01
-4.25232812e-08,1.88104688e-01
-4.24832812e-08,1.88095313e-01
-4.24432812e-08,1.88104688e-01
-4.24032813e-08,1.88093750e-01
-4.23632812e-08,1.88106250e-01
-4.23232812e-08,1.88093750e-01
-4.22832812e-08,1.88106250e-01
-4.22432812e-08,1.88093750e-01
-4.22032812e-08,1.88107812e-01
-4.21632812e-08,1.88092188e-01
-4.21232813e-08,1.88107812e-01
-4.20832812e-08,1.88090625e-01
-4.20432812e-08,1.88109375e-01
-4.20032812e-08,1.88089063e-01
-4.19632812e-08,1.88112500e-01
-4.19232812e-08,1.88085937e-01
-4.18832812e-08,1.88117188e-01
-4.18432813e-08,1.88076563e-01
-4.18032812e-08,1.88132812e-01
-4.17632812e-08,1.88042188e-01
-4.17232812e-08,1.88310937e-01
-4.16832812e-08,1.88551563e-01
-4.16432812e-08,1.88471875e-01
-4.16032812e-08,1.88518750e-01
-4.15632812e-08,1.88485938e-01
-4.15232812e-08,1.88510938e-01
-4.14832812e-08,1.88492188e-01
-4.14432812e-08,1.88506250e-01
-4.14032812e-08,1.88495313e-01
-4.13632812e-08,1.88504688e-01
-4.13232812e-08,1.88496875e-01
-4.12832812e-08,1.88503125e-01
-4.12432812e-08,1.88496875e-01
-4.12032812e-08,1.88501562e-01
-4.11632812e-08,1.88498438e-01
-4.11232812e-08,1.88501562e-01
-4.10832812e-08,1.88500000e-01
-4.10432813e-08,1.88500000e-01
-4.10032812e-08,1.88500000e-01
-4.09632812e-08,1.88500000e-01
-4.09232812e-08,1.88501562e-01
-4.08832812e-08,1.88498438e-01
-4.08432812e-08,1.88501562e-01
-4.08032812e-08,1.88496875e-01
-4.07632813e-08,1.88503125e-01
-4.07232812e-08,1.88495313e-01
-4.06832812e-08,1.88506250e-01
-4.06432812e-08,1.88492188e-01
-4.06032812e-08,1.88509375e-01
-4.05632812e-08,1.88487500e-01
-4.05232812e-08,1.88517188e-01
-4.04832813e-08,1.88473438e-01
-4.04432812e-08,1.88551563e-01
-4.04032812e-08,1.88295313e-01
-4.03632812e-08,1.88042188e-01
-4.03232812e-08,1.88134375e-01
-4.02832812e-08,1.88075000e-01
-4.02432812e-08,1.88120312e-01
-4.02032813e-08,1.88081250e-01
-4.01632812e-08,1.88117188e-01
-4.01232812e-08,1.88084375e-01
-4.00832812e-08,1.88115625e-01
-4.00432812e-08,1.88084375e-01
-4.00032812e-08,1.88117188e-01
-3.99632812e-08,1.88079688e-01
-3.99232813e-08,1.88125000e-01
-3.98832812e-08,1.88067188e-01
-3.98432812e-08,1.88157813e-01
-3.98032812e-08,1.87889063e-01
-3.97632812e-08,1.87648438e-01
-3.97232812e-08,1.87728125e-01
-3.96832812e-08,1.87679687e-01
-3.96432813e-08,1.87715625e-01
-3.96032812e-08,1.87687500e-01
-3.95632812e-08,1.87710938e-01
-3.95232812e-08,1.87690625e-01
-3.94832812e-08,1.87709375e-01
-3.94432812e-08,1.87690625e-01
-3.94032813e-08,1.87709375e-01
-3.93632812e-08,1.87690625e-01
-3.93232812e-08,1.87709375e-01
-3.92832812e-08,1.87690625e-01
-3.92432812e-08,1.87710938e-01
-3.92032812e-08,1.87689063e-01
-3.91632812e-08,1.87712500e-01
-3.91232813e-08,1.87685938e-01
-3.90832812e-08,1.87717187e-01
-3.90432812e-08,1.87676563e-01
-3.90032812e-08,1.87732813e-01
-3.89632812e-08,1.87642188e-01
-3.89232812e-08,1.87910938e-01
-3.88832812e-08,1.88151563e-01
-3.88432813e-08,1.88071875e-01
-3.88032812e-08,1.88117188e-01
-3.87632812e-08,1.88087500e-01
-3.87232812e-08,1.88109375e-01
-3.86832812e-08,1.88093750e-01
-3.86432812e-08,1.88104688e-01
-3.86032812e-08,1.88098437e-01
-3.85632813e-08,1.88098437e-01
-3.85232812e-08,1.88104688e-01
