trails/0b2e18f6fa2cac99b521e237471ff731/aes_ch1_20250507110710627.csv

Model,MSO66B
Label,
Waveform Type,ANALOG
Horizontal Units,s
Sample Interval,4.00000000e-11
Record Length,10000
Zero Index,1599.05078125
Vertical Units,A
ANALOG_Thumbnail,
yOffset,1.84500000e-01
yPosition,8.40000000e-01

Labels,
TIME,CH1
-6.39620312e-08,1.97695312e-01
-6.39220313e-08,1.97704688e-01
-6.38820312e-08,1.97695312e-01
-6.38420312e-08,1.97704688e-01
-6.38020312e-08,1.97695312e-01
-6.37620312e-08,1.97704688e-01
-6.37220313e-08,1.97696875e-01
-6.36820312e-08,1.97703125e-01
-6.36420313e-08,1.97696875e-01
-6.36020312e-08,1.97703125e-01
-6.35620312e-08,1.97696875e-01
-6.35220312e-08,1.97703125e-01
-6.34820312e-08,1.97696875e-01
-6.34420313e-08,1.97703125e-01
-6.34020312e-08,1.97696875e-01
-6.33620313e-08,1.97703125e-01
-6.33220312e-08,1.97696875e-01
-6.32820312e-08,1.97703125e-01
-6.32420312e-08,1.97696875e-01
-6.32020312e-08,1.97703125e-01
-6.31620313e-08,1.97696875e-01
-6.31220312e-08,1.97701563e-01
-6.30820312e-08,1.97698438e-01
-6.30420312e-08,1.97701563e-01
-6.30020312e-08,1.97698438e-01
-6.29620312e-08,1.97701563e-01
-6.29220312e-08,1.97698438e-01
-6.28820313e-08,1.97701563e-01
-6.28420312e-08,1.97698438e-01
-6.28020312e-08,1.97701563e-01
-6.27620312e-08,1.97698438e-01
-6.27220312e-08,1.97701563e-01
-6.26820312e-08,1.97698438e-01
-6.26420312e-08,1.97701563e-01
-6.26020313e-08,1.97698438e-01
-6.25620312e-08,1.97701563e-01
-6.25220312e-08,1.97698438e-01
-6.24820312e-08,1.97703125e-01
-6.24420312e-08,1.97696875e-01
-6.24020312e-08,1.97703125e-01
-6.23620312e-08,1.97696875e-01
-6.23220313e-08,1.97703125e-01
-6.22820312e-08,1.97696875e-01
-6.22420312e-08,1.97703125e-01
-6.22020312e-08,1.97696875e-01
-6.21620312e-08,1.97704688e-01
-6.21220312e-08,1.97695312e-01
-6.20820312e-08,1.97704688e-01
-6.20420313e-08,1.97693750e-01
-6.20020312e-08,1.97706250e-01
-6.19620312e-08,1.97692188e-01
-6.19220312e-08,1.97709375e-01
-6.18820312e-08,1.97687500e-01
-6.18420312e-08,1.97717188e-01
-6.18020312e-08,1.97673437e-01
-6.17620313e-08,1.97751563e-01
-6.17220312e-08,1.97495313e-01
-6.16820312e-08,1.97242187e-01
-6.16420312e-08,1.97334375e-01
-6.16020312e-08,1.97275000e-01
-6.15620312e-08,1.97320313e-01
-6.15220312e-08,1.97282813e-01
-6.14820313e-08,1.97315625e-01
-6.14420312e-08,1.97285938e-01
-6.14020312e-08,1.97314062e-01
-6.13620312e-08,1.97287500e-01
-6.13220312e-08,1.97312500e-01
-6.12820312e-08,1.97287500e-01
-6.12420312e-08,1.97312500e-01
-6.12020313e-08,1.97287500e-01
-6.11620312e-08,1.97312500e-01
-6.11220312e-08,1.97287500e-01
-6.10820312e-08,1.97314062e-01
-6.10420312e-08,1.97285938e-01
-6.10020313e-08,1.97315625e-01
-6.09620312e-08,1.97282813e-01
-6.09220313e-08,1.97318750e-01
-6.08820312e-08,1.97278125e-01
-6.08420312e-08,1.97328125e-01
-6.08020312e-08,1.97262500e-01
-6.07620312e-08,1.97362500e-01
-6.07220313e-08,1.97084375e-01
-6.06820312e-08,1.96853125e-01
-6.06420313e-08,1.96921875e-01
-6.06020312e-08,1.96887500e-01
-6.05620312e-08,1.96906250e-01
-6.05220312e-08,1.96896875e-01
-6.04820312e-08,1.96901563e-01
-6.04420313e-08,1.96901563e-01
-6.04020312e-08,1.96896875e-01
-6.03620313e-08,1.96904688e-01
-6.03220312e-08,1.96892188e-01
-6.02820312e-08,1.96909375e-01
-6.02420312e-08,1.96887500e-01
-6.02020312e-08,1.96915625e-01
-6.01620313e-08,1.96878125e-01
-6.01220312e-08,1.96931250e-01
-6.00820313e-08,1.96843750e-01
-6.00420312e-08,1.97110937e-01
-6.00020312e-08,1.97351563e-01
-5.99620312e-08,1.97273438e-01
-5.99220312e-08,1.97317188e-01
-5.98820313e-08,1.97289063e-01
-5.98420312e-08,1.97307813e-01
-5.98020313e-08,1.97295313e-01
-5.97620312e-08,1.97301562e-01
-5.97220312e-08,1.97300000e-01
-5.96820312e-08,1.97296875e-01
-5.96420312e-08,1.97304688e-01
-5.96020312e-08,1.97292187e-01
-5.95620312e-08,1.97312500e-01
-5.95220312e-08,1.97282813e-01
-5.94820312e-08,1.97328125e-01
-5.94420312e-08,1.97246875e-01
-5.94020312e-08,1.97507813e-01
-5.93620312e-08,1.97753125e-01
-5.93220312e-08,1.97670313e-01
-5.92820312e-08,1.97718750e-01
-5.92420312e-08,1.97687500e-01
-5.92020312e-08,1.97707812e-01
-5.91620312e-08,1.97695312e-01
-5.91220312e-08,1.97700000e-01
-5.90820312e-08,1.97703125e-01
-5.90420312e-08,1.97690625e-01
-5.90020312e-08,1.97720312e-01
-5.89620312e-08,1.97653125e-01
-5.89220312e-08,1.97900000e-01
-5.88820312e-08,1.98160938e-01
-5.88420312e-08,1.98062500e-01
-5.88020312e-08,1.98126563e-01
-5.87620312e-08,1.98078125e-01
-5.87220312e-08,1.98118750e-01
-5.86820312e-08,1.98084375e-01
-5.86420312e-08,1.98114063e-01
-5.86020312e-08,1.98087500e-01
-5.85620312e-08,1.98109375e-01
-5.85220312e-08,1.98090625e-01
-5.84820312e-08,1.98107813e-01
-5.84420312e-08,1.98093750e-01
-5.84020312e-08,1.98104688e-01
-5.83620312e-08,1.98098438e-01
-5.83220312e-08,1.98100000e-01
-5.82820312e-08,1.98103125e-01
-5.82420312e-08,1.98090625e-01
-5.82020312e-08,1.98118750e-01
-5.81620312e-08,1.98056250e-01
-5.81220312e-08,1.98296875e-01
-5.80820312e-08,1.98564062e-01
-5.80420312e-08,1.98459375e-01
-5.80020312e-08,1.98531250e-01
-5.79620312e-08,1.98475000e-01
-5.79220312e-08,1.98521875e-01
-5.78820312e-08,1.98479688e-01
-5.78420312e-08,1.98518750e-01
-5.78020312e-08,1.98482812e-01
-5.77620312e-08,1.98517187e-01
-5.77220312e-08,1.98484375e-01
-5.76820312e-08,1.98515625e-01
-5.76420312e-08,1.98485938e-01
-5.76020312e-08,1.98514063e-01
-5.75620312e-08,1.98485938e-01
-5.75220312e-08,1.98514063e-01
-5.74820312e-08,1.98487500e-01
-5.74420312e-08,1.98512500e-01
-5.74020312e-08,1.98487500e-01
-5.73620312e-08,1.98512500e-01
-5.73220312e-08,1.98487500e-01
-5.72820312e-08,1.98512500e-01
-5.72420312e-08,1.98487500e-01
-5.72020312e-08,1.98512500e-01
-5.71620312e-08,1.98489063e-01
-5.71220312e-08,1.98510938e-01
-5.70820312e-08,1.98489063e-01
-5.70420312e-08,1.98510938e-01
-5.70020312e-08,1.98489063e-01
-5.69620312e-08,1.98510938e-01
-5.69220312e-08,1.98489063e-01
-5.68820312e-08,1.98510938e-01
-5.68420312e-08,1.98489063e-01
-5.68020312e-08,1.98510938e-01
-5.67620312e-08,1.98489063e-01
-5.67220312e-08,1.98510938e-01
-5.66820312e-08,1.98489063e-01
-5.66420312e-08,1.98510938e-01
-5.66020312e-08,1.98487500e-01
-5.65620312e-08,1.98512500e-01
-5.65220312e-08,1.98487500e-01
-5.64820312e-08,1.98512500e-01
-5.64420312e-08,1.98487500e-01
-5.64020312e-08,1.98512500e-01
-5.63620312e-08,1.98487500e-01
-5.63220312e-08,1.98514063e-01
-5.62820312e-08,1.98485938e-01
-5.62420312e-08,1.98514063e-01
-5.62020312e-08,1.98485938e-01
-5.61620312e-08,1.98515625e-01
-5.61220312e-08,1.98484375e-01
-5.60820312e-08,1.98517187e-01
-5.60420312e-08,1.98482812e-01
-5.60020312e-08,1.98518750e-01
-5.59620312e-08,1.98479688e-01
-5.59220312e-08,1.98523438e-01
-5.58820312e-08,1.98473438e-01
-5.58420312e-08,1.98531250e-01
-5.58020312e-08,1.98459375e-01
-5.57620312e-08,1.98567188e-01
-5.57220312e-08,1.98279687e-01
-5.56820312e-08,1.98057813e-01
-5.56420312e-08,1.98117188e-01
-5.56020312e-08,1.98092188e-01
-5.55620312e-08,1.98101562e-01
-5.55220312e-08,1.98101562e-01
-5.54820312e-08,1.98095313e-01
-5.54420312e-08,1.98107813e-01
-5.54020312e-08,1.98089062e-01
-5.53620312e-08,1.98115625e-01
-5.53220312e-08,1.98078125e-01
-5.52820312e-08,1.98131250e-01
-5.52420312e-08,1.98042188e-01
-5.52020312e-08,1.98310938e-01
-5.51620312e-08,1.98550000e-01
-5.51220312e-08,1.98473438e-01
-5.50820312e-08,1.98517187e-01
-5.50420312e-08,1.98489063e-01
-5.50020312e-08,1.98507813e-01
-5.49620312e-08,1.98495313e-01
-5.49220312e-08,1.98503125e-01
-5.48820312e-08,1.98498438e-01
-5.48420312e-08,1.98500000e-01
-5.48020312e-08,1.98501563e-01
-5.47620312e-08,1.98496875e-01
-5.47220312e-08,1.98504687e-01
-5.46820312e-08,1.98493750e-01
-5.46420312e-08,1.98507813e-01
-5.46020312e-08,1.98490625e-01
-5.45620312e-08,1.98512500e-01
-5.45220312e-08,1.98481250e-01
-5.44820312e-08,1.98528125e-01
-5.44420312e-08,1.98446875e-01
-5.44020312e-08,1.98706250e-01
-5.43620312e-08,1.98954688e-01
-5.43220312e-08,1.98868750e-01
-5.42820312e-08,1.98921875e-01
-5.42420312e-08,1.98882813e-01
-5.42020312e-08,1.98914063e-01
-5.41620312e-08,1.98889063e-01
-5.41220312e-08,1.98909375e-01
-5.40820312e-08,1.98890625e-01
-5.40420312e-08,1.98907813e-01
-5.40020312e-08,1.98892188e-01
-5.39620312e-08,1.98906250e-01
-5.39220312e-08,1.98893750e-01
-5.38820312e-08,1.98906250e-01
-5.38420312e-08,1.98893750e-01
-5.38020312e-08,1.98906250e-01
-5.37620312e-08,1.98893750e-01
-5.37220312e-08,1.98906250e-01
-5.36820312e-08,1.98893750e-01
-5.36420312e-08,1.98906250e-01
-5.36020313e-08,1.98893750e-01
-5.35620312e-08,1.98907813e-01
-5.35220312e-08,1.98890625e-01
-5.34820312e-08,1.98910937e-01
-5.34420312e-08,1.98885937e-01
-5.34020312e-08,1.98918750e-01
-5.33620312e-08,1.98871875e-01
-5.33220312e-08,1.98951563e-01
-5.32820312e-08,1.98695312e-01
-5.32420312e-08,1.98442188e-01
-5.32020312e-08,1.98534375e-01
-5.31620312e-08,1.98475000e-01
-5.31220312e-08,1.98520313e-01
-5.30820312e-08,1.98482812e-01
-5.30420312e-08,1.98515625e-01
-5.30020312e-08,1.98484375e-01
-5.29620312e-08,1.98515625e-01
-5.29220312e-08,1.98485938e-01
-5.28820312e-08,1.98514063e-01
-5.28420312e-08,1.98484375e-01
-5.28020312e-08,1.98515625e-01
-5.27620312e-08,1.98482812e-01
-5.27220312e-08,1.98518750e-01
-5.26820312e-08,1.98478125e-01
-5.26420312e-08,1.98526563e-01
-5.26020312e-08,1.98464063e-01
-5.25620312e-08,1.98560938e-01
-5.25220312e-08,1.98285938e-01
-5.24820312e-08,1.98051563e-01
-5.24420312e-08,1.98123437e-01
-5.24020312e-08,1.98085938e-01
-5.23620312e-08,1.98109375e-01
-5.23220312e-08,1.98093750e-01
-5.22820312e-08,1.98104688e-01
-5.22420312e-08,1.98096875e-01
-5.22020312e-08,1.98101562e-01
-5.21620312e-08,1.98100000e-01
-5.21220312e-08,1.98100000e-01
-5.20820312e-08,1.98101562e-01
-5.20420312e-08,1.98098438e-01
-5.20020312e-08,1.98101562e-01
-5.19620312e-08,1.98096875e-01
-5.19220312e-08,1.98103125e-01
-5.18820312e-08,1.98096875e-01
-5.18420312e-08,1.98104688e-01
-5.18020312e-08,1.98095313e-01
-5.17620312e-08,1.98106250e-01
-5.17220312e-08,1.98093750e-01
-5.16820313e-08,1.98106250e-01
-5.16420312e-08,1.98092188e-01
-5.16020312e-08,1.98107813e-01
-5.15620312e-08,1.98090625e-01
-5.15220312e-08,1.98110938e-01
-5.14820312e-08,1.98087500e-01
-5.14420312e-08,1.98115625e-01
-5.14020313e-08,1.98081250e-01
-5.13620312e-08,1.98123437e-01
-5.13220312e-08,1.98067188e-01
-5.12820312e-08,1.98157813e-01
-5.12420312e-08,1.97887500e-01
-5.12020312e-08,1.97650000e-01
-5.11620312e-08,1.97726563e-01
-5.11220312e-08,1.97684375e-01
-5.10820312e-08,1.97710938e-01
-5.10420312e-08,1.97692188e-01
-5.10020312e-08,1.97704688e-01
-5.09620312e-08,1.97696875e-01
-5.09220312e-08,1.97701563e-01
-5.08820312e-08,1.97700000e-01
-5.08420312e-08,1.97698438e-01
-5.08020312e-08,1.97703125e-01
-5.07620312e-08,1.97695312e-01
-5.07220312e-08,1.97706250e-01
-5.06820312e-08,1.97690625e-01
-5.06420312e-08,1.97712500e-01
-5.06020312e-08,1.97681250e-01
-5.05620312e-08,1.97728125e-01
-5.05220312e-08,1.97646875e-01
-5.04820312e-08,1.97907813e-01
-5.04420312e-08,1.98154688e-01
-5.04020312e-08,1.98068750e-01
-5.03620312e-08,1.98120313e-01
-5.03220312e-08,1.98084375e-01
-5.02820312e-08,1.98112500e-01
-5.02420312e-08,1.98090625e-01
-5.02020312e-08,1.98107813e-01
-5.01620312e-08,1.98093750e-01
-5.01220312e-08,1.98104688e-01
-5.00820312e-08,1.98096875e-01
-5.00420312e-08,1.98103125e-01
-5.00020312e-08,1.98098438e-01
-4.99620312e-08,1.98100000e-01
-4.99220312e-08,1.98101562e-01
-4.98820312e-08,1.98096875e-01
-4.98420312e-08,1.98104688e-01
-4.98020312e-08,1.98093750e-01
-4.97620313e-08,1.98110938e-01
-4.97220312e-08,1.98084375e-01
-4.96820312e-08,1.98125000e-01
-4.96420312e-08,1.98050000e-01
-4.96020312e-08,1.98304688e-01
-4.95620312e-08,1.98557813e-01
-4.95220312e-08,1.98465625e-01
-4.94820313e-08,1.98523438e-01
-4.94420312e-08,1.98481250e-01
-4.94020312e-08,1.98515625e-01
-4.93620312e-08,1.98485938e-01
-4.93220312e-08,1.98510938e-01
-4.92820312e-08,1.98489063e-01
-4.92420312e-08,1.98509375e-01
-4.92020313e-08,1.98492188e-01
-4.91620312e-08,1.98506250e-01
-4.91220312e-08,1.98493750e-01
-4.90820312e-08,1.98504687e-01
-4.90420312e-08,1.98495313e-01
-4.90020312e-08,1.98503125e-01
-4.89620312e-08,1.98498438e-01
-4.89220312e-08,1.98500000e-01
-4.88820312e-08,1.98503125e-01
-4.88420312e-08,1.98493750e-01
-4.88020312e-08,1.98510938e-01
-4.87620312e-08,1.98479688e-01
-4.87220312e-08,1.98545313e-01
-4.86820312e-08,1.98301563e-01
-4.86420312e-08,1.98035938e-01
-4.86020312e-08,1.98140625e-01
-4.85620312e-08,1.98068750e-01
-4.85220312e-08,1.98126563e-01
-4.84820312e-08,1.98076562e-01
-4.84420312e-08,1.98121875e-01
-4.84020312e-08,1.98079688e-01
-4.83620312e-08,1.98120313e-01
-4.83220312e-08,1.98081250e-01
-4.82820312e-08,1.98118750e-01
-4.82420312e-08,1.98081250e-01
-4.82020312e-08,1.98120313e-01
-4.81620312e-08,1.98079688e-01
-4.81220312e-08,1.98123437e-01
-4.80820312e-08,1.98075000e-01
-4.80420312e-08,1.98129688e-01
-4.80020312e-08,1.98060938e-01
-4.79620312e-08,1.98164063e-01
-4.79220312e-08,1.97882813e-01
-4.78820312e-08,1.97654688e-01
-4.78420313e-08,1.97721875e-01
-4.78020312e-08,1.97687500e-01
-4.77620312e-08,1.97707812e-01
-4.77220312e-08,1.97695312e-01
-4.76820312e-08,1.97701563e-01
-4.76420312e-08,1.97700000e-01
-4.76020312e-08,1.97700000e-01
-4.75620313e-08,1.97701563e-01
-4.75220312e-08,1.97698438e-01
-4.74820312e-08,1.97703125e-01
-4.74420312e-08,1.97696875e-01
-4.74020312e-08,1.97703125e-01
-4.73620312e-08,1.97695312e-01
-4.73220312e-08,1.97704688e-01
-4.72820313e-08,1.97695312e-01
-4.72420312e-08,1.97706250e-01
-4.72020312e-08,1.97693750e-01
-4.71620312e-08,1.97706250e-01
-4.71220312e-08,1.97692188e-01
-4.70820312e-08,1.97707812e-01
-4.70420312e-08,1.97692188e-01
-4.70020312e-08,1.97709375e-01
-4.69620312e-08,1.97690625e-01
-4.69220312e-08,1.97710938e-01
-4.68820312e-08,1.97687500e-01
-4.68420312e-08,1.97714063e-01
-4.68020312e-08,1.97684375e-01
-4.67620312e-08,1.97720312e-01
-4.67220312e-08,1.97675000e-01
-4.66820312e-08,1.97734375e-01
-4.66420312e-08,1.97639063e-01
-4.66020312e-08,1.97914063e-01
-4.65620312e-08,1.98148437e-01
-4.65220312e-08,1.98076562e-01
-4.64820312e-08,1.98112500e-01
-4.64420312e-08,1.98093750e-01
-4.64020312e-08,1.98101562e-01
-4.63620312e-08,1.98103125e-01
-4.63220312e-08,1.98090625e-01
-4.62820312e-08,1.98120313e-01
-4.62420312e-08,1.98054687e-01
-4.62020312e-08,1.98298438e-01
-4.61620312e-08,1.98565625e-01
-4.61220312e-08,1.98457812e-01
-4.60820312e-08,1.98534375e-01
-4.60420312e-08,1.98465625e-01
-4.60020312e-08,1.98539063e-01
-4.59620312e-08,1.98439063e-01
-4.59220313e-08,1.98710938e-01
-4.58820312e-08,1.98953125e-01
-4.58420312e-08,1.98867188e-01
-4.58020312e-08,1.98928125e-01
-4.57620312e-08,1.98871875e-01
-4.57220312e-08,1.98935937e-01
-4.56820312e-08,1.98840625e-01
-4.56420313e-08,1.99112500e-01
-4.56020312e-08,1.99350000e-01
-4.55620312e-08,1.99273438e-01
-4.55220312e-08,1.99315625e-01
-4.54820312e-08,1.99289063e-01
-4.54420312e-08,1.99306250e-01
-4.54020312e-08,1.99298438e-01
-4.53620313e-08,1.99295313e-01
-4.53220312e-08,1.99315625e-01
-4.52820312e-08,1.99259375e-01
-4.52420312e-08,1.99493750e-01
-4.52020312e-08,1.99768750e-01
-4.51620312e-08,1.99656250e-01
-4.51220312e-08,1.99735938e-01
-4.50820313e-08,1.99668750e-01
-4.50420312e-08,1.99728125e-01
-4.50020312e-08,1.99673437e-01
-4.49620312e-08,1.99726563e-01
-4.49220312e-08,1.99671875e-01
-4.48820312e-08,1.99728125e-01
-4.48420312e-08,1.99668750e-01
-4.48020312e-08,1.99735938e-01
-4.47620312e-08,1.99654688e-01
-4.47220312e-08,1.99770313e-01
-4.46820312e-08,1.99476563e-01
-4.46420312e-08,1.99262500e-01
-4.46020312e-08,1.99312500e-01
-4.45620312e-08,1.99296875e-01
-4.45220312e-08,1.99296875e-01
-4.44820312e-08,1.99309375e-01
-4.44420312e-08,1.99285938e-01
-4.44020312e-08,1.99320313e-01
-4.43620312e-08,1.99268750e-01
-4.43220312e-08,1.99357813e-01
-4.42820312e-08,1.99087500e-01
-4.42420312e-08,1.98851563e-01
-4.42020312e-08,1.98923438e-01
-4.41620312e-08,1.98887500e-01
-4.41220312e-08,1.98904688e-01
-4.40820312e-08,1.98903125e-01
-4.40420312e-08,1.98884375e-01
-4.40020313e-08,1.98940625e-01
-4.39620312e-08,1.98706250e-01
-4.39220312e-08,1.98431250e-01
-4.38820312e-08,1.98545313e-01
-4.38420312e-08,1.98460938e-01
-4.38020312e-08,1.98537500e-01
-4.37620312e-08,1.98456250e-01
-4.37220313e-08,1.98565625e-01
-4.36820312e-08,1.98284375e-01
-4.36420312e-08,1.98051563e-01
-4.36020312e-08,1.98126563e-01
-4.35620312e-08,1.98081250e-01
-4.35220312e-08,1.98115625e-01
-4.34820312e-08,1.98085938e-01
-4.34420313e-08,1.98115625e-01
-4.34020312e-08,1.98082813e-01
-4.33620312e-08,1.98121875e-01
-4.33220312e-08,1.98068750e-01
-4.32820312e-08,1.98154688e-01
-4.32420312e-08,1.97892188e-01
-4.32020312e-08,1.97645313e-01
-4.31620313e-08,1.97729688e-01
-4.31220312e-08,1.97678125e-01
-4.30820312e-08,1.97715625e-01
-4.30420312e-08,1.97687500e-01
-4.30020312e-08,1.97710938e-01
-4.29620312e-08,1.97690625e-01
-4.29220312e-08,1.97707812e-01
-4.28820313e-08,1.97693750e-01
-4.28420312e-08,1.97706250e-01
-4.28020312e-08,1.97695312e-01
-4.27620312e-08,1.97703125e-01
-4.27220312e-08,1.97698438e-01
-4.26820312e-08,1.97700000e-01
-4.26420312e-08,1.97703125e-01
-4.26020312e-08,1.97692188e-01
-4.25620312e-08,1.97717188e-01
-4.25220312e-08,1.97657813e-01
-4.24820312e-08,1.97895313e-01
-4.24420312e-08,1.98168750e-01
-4.24020312e-08,1.98054687e-01
-4.23620312e-08,1.98135937e-01
-4.23220312e-08,1.98067188e-01
-4.22820312e-08,1.98131250e-01
-4.22420312e-08,1.98067188e-01
-4.22020312e-08,1.98134375e-01
-4.21620312e-08,1.98060938e-01
-4.21220312e-08,1.98148437e-01
-4.20820313e-08,1.98026563e-01
-4.20420312e-08,1.98326562e-01
-4.20020312e-08,1.98535938e-01
-4.19620312e-08,1.98490625e-01
-4.19220312e-08,1.98498438e-01
-4.18820312e-08,1.98509375e-01
-4.18420312e-08,1.98482812e-01
-4.18020313e-08,1.98529687e-01
-4.17620312e-08,1.98443750e-01
-4.17220312e-08,1.98709375e-01
-4.16820312e-08,1.98951563e-01
-4.16420312e-08,1.98875000e-01
-4.16020312e-08,1.98915625e-01
-4.15620312e-08,1.98892188e-01
-4.15220313e-08,1.98903125e-01
-4.14820312e-08,1.98901563e-01
-4.14420312e-08,1.98890625e-01
-4.14020312e-08,1.98920313e-01
-4.13620312e-08,1.98854688e-01
-4.13220312e-08,1.99100000e-01
-4.12820312e-08,1.99362500e-01
-4.12420313e-08,1.99262500e-01
-4.12020312e-08,1.99328125e-01
-4.11620312e-08,1.99276563e-01
-4.11220312e-08,1.99320313e-01
-4.10820312e-08,1.99281250e-01
-4.10420312e-08,1.99317187e-01
-4.10020312e-08,1.99284375e-01
-4.09620313e-08,1.99315625e-01
-4.09220312e-08,1.99285938e-01
-4.08820312e-08,1.99314062e-01
-4.08420312e-08,1.99285938e-01
-4.08020312e-08,1.99314062e-01
-4.07620312e-08,1.99284375e-01
-4.07220312e-08,1.99315625e-01
-4.06820313e-08,1.99282813e-01
-4.06420312e-08,1.99320313e-01
-4.06020312e-08,1.99275000e-01
-4.05620312e-08,1.99334375e-01
-4.05220312e-08,1.99240625e-01
-4.04820312e-08,1.99512500e-01
-4.04420312e-08,1.99750000e-01
-4.04020312e-08,1.99673437e-01
-4.03620312e-08,1.99717188e-01
-4.03220312e-08,1.99687500e-01
-4.02820312e-08,1.99710938e-01
-4.02420312e-08,1.99690625e-01
-4.02020312e-08,1.99707812e-01
-4.01620313e-08,1.99693750e-01
-4.01220312e-08,1.99706250e-01
-4.00820312e-08,1.99693750e-01
-4.00420312e-08,1.99706250e-01
-4.00020312e-08,1.99693750e-01
-3.99620312e-08,1.99706250e-01
-3.99220312e-08,1.99692188e-01
-3.98820313e-08,1.99707812e-01
-3.98420312e-08,1.99690625e-01
-3.98020312e-08,1.99710938e-01
-3.97620312e-08,1.99685938e-01
-3.97220312e-08,1.99718750e-01
-3.96820312e-08,1.99671875e-01
-3.96420312e-08,1.99753125e-01
-3.96020313e-08,1.99493750e-01
-3.95620312e-08,1.99243750e-01
-3.95220312e-08,1.99332813e-01
-3.94820312e-08,1.99276563e-01
-3.94420312e-08,1.99318750e-01
-3.94020312e-08,1.99284375e-01
-3.93620312e-08,1.99314062e-01
-3.93220313e-08,1.99287500e-01
-3.92820312e-08,1.99310938e-01
-3.92420312e-08,1.99289063e-01
-3.92020312e-08,1.99309375e-01
-3.91620312e-08,1.99290625e-01
-3.91220312e-08,1.99309375e-01
-3.90820312e-08,1.99290625e-01
-3.90420313e-08,1.99309375e-01
-3.90020312e-08,1.99290625e-01
-3.89620312e-08,1.99309375e-01
-3.89220312e-08,1.99290625e-01
-3.88820312e-08,1.99309375e-01
-3.88420312e-08,1.99290625e-01
-3.88020312e-08,1.99309375e-01
-3.87620313e-08,1.99290625e-01
-3.87220312e-08,1.99309375e-01
-3.86820312e-08,1.99290625e-01
-3.86420312e-08,1.99310938e-01
-3.86020312e-08,1.99289063e-01
-3.85620312e-08,1.99312500e-01
-3.85220312e-08,1.99287500e-01
