trails/0b2e18f6fa2cac99b521e237471ff731/aes_ch1_20250507110427942.csv

Model,MSO66B
Label,
Waveform Type,ANALOG
Horizontal Units,s
Sample Interval,4.00000000e-11
Record Length,10000
Zero Index,1599.01953125
Vertical Units,A
ANALOG_Thumbnail,
yOffset,1.84500000e-01
yPosition,8.40000000e-01

Labels,
TIME,CH1
-6.39607813e-08,1.95306250e-01
-6.39207812e-08,1.95295313e-01
-6.38807813e-08,1.95304688e-01
-6.38407812e-08,1.95296875e-01
-6.38007812e-08,1.95303125e-01
-6.37607812e-08,1.95296875e-01
-6.37207812e-08,1.95301562e-01
-6.36807813e-08,1.95298438e-01
-6.36407812e-08,1.95301562e-01
-6.36007813e-08,1.95298438e-01
-6.35607812e-08,1.95301562e-01
-6.35207812e-08,1.95300000e-01
-6.34807812e-08,1.95300000e-01
-6.34407812e-08,1.95300000e-01
-6.34007813e-08,1.95300000e-01
-6.33607812e-08,1.95300000e-01
-6.33207813e-08,1.95300000e-01
-6.32807812e-08,1.95300000e-01
-6.32407812e-08,1.95300000e-01
-6.32007812e-08,1.95300000e-01
-6.31607812e-08,1.95300000e-01
-6.31207813e-08,1.95300000e-01
-6.30807812e-08,1.95298438e-01
-6.30407813e-08,1.95301562e-01
-6.30007812e-08,1.95298438e-01
-6.29607812e-08,1.95301562e-01
-6.29207812e-08,1.95298438e-01
-6.28807812e-08,1.95301562e-01
-6.28407813e-08,1.95298438e-01
-6.28007812e-08,1.95301562e-01
-6.27607813e-08,1.95298438e-01
-6.27207812e-08,1.95301562e-01
-6.26807812e-08,1.95298438e-01
-6.26407812e-08,1.95301562e-01
-6.26007812e-08,1.95296875e-01
-6.25607813e-08,1.95303125e-01
-6.25207812e-08,1.95296875e-01
-6.24807813e-08,1.95303125e-01
-6.24407812e-08,1.95296875e-01
-6.24007812e-08,1.95303125e-01
-6.23607812e-08,1.95295313e-01
-6.23207812e-08,1.95304688e-01
-6.22807813e-08,1.95293750e-01
-6.22407812e-08,1.95306250e-01
-6.22007813e-08,1.95292188e-01
-6.21607812e-08,1.95309375e-01
-6.21207812e-08,1.95289062e-01
-6.20807812e-08,1.95314062e-01
-6.20407812e-08,1.95281250e-01
-6.20007813e-08,1.95328125e-01
-6.19607812e-08,1.95246875e-01
-6.19207812e-08,1.95506250e-01
-6.18807812e-08,1.95756250e-01
-6.18407812e-08,1.95667188e-01
-6.18007812e-08,1.95723438e-01
-6.17607812e-08,1.95681250e-01
-6.17207813e-08,1.95715625e-01
-6.16807812e-08,1.95685938e-01
-6.16407812e-08,1.95712500e-01
-6.16007812e-08,1.95687500e-01
-6.15607812e-08,1.95712500e-01
-6.15207812e-08,1.95687500e-01
-6.14807812e-08,1.95712500e-01
-6.14407813e-08,1.95687500e-01
-6.14007812e-08,1.95714063e-01
-6.13607812e-08,1.95684375e-01
-6.13207812e-08,1.95718750e-01
-6.12807812e-08,1.95676563e-01
-6.12407812e-08,1.95732813e-01
-6.12007812e-08,1.95642188e-01
-6.11607813e-08,1.95910937e-01
-6.11207812e-08,1.96151563e-01
-6.10807812e-08,1.96071875e-01
-6.10407812e-08,1.96118750e-01
-6.10007812e-08,1.96085938e-01
-6.09607812e-08,1.96110937e-01
-6.09207812e-08,1.96090625e-01
-6.08807813e-08,1.96107813e-01
-6.08407812e-08,1.96092188e-01
-6.08007812e-08,1.96106250e-01
-6.07607812e-08,1.96093750e-01
-6.07207812e-08,1.96104688e-01
-6.06807812e-08,1.96095313e-01
-6.06407812e-08,1.96104688e-01
-6.06007813e-08,1.96095313e-01
-6.05607812e-08,1.96104688e-01
-6.05207812e-08,1.96095313e-01
-6.04807812e-08,1.96104688e-01
-6.04407812e-08,1.96096875e-01
-6.04007812e-08,1.96103125e-01
-6.03607812e-08,1.96096875e-01
-6.03207813e-08,1.96103125e-01
-6.02807812e-08,1.96096875e-01
-6.02407812e-08,1.96103125e-01
-6.02007812e-08,1.96096875e-01
-6.01607812e-08,1.96103125e-01
-6.01207813e-08,1.96096875e-01
-6.00807812e-08,1.96103125e-01
-6.00407813e-08,1.96096875e-01
-6.00007812e-08,1.96103125e-01
-5.99607812e-08,1.96096875e-01
-5.99207812e-08,1.96103125e-01
-5.98807812e-08,1.96096875e-01
-5.98407813e-08,1.96103125e-01
-5.98007812e-08,1.96096875e-01
-5.97607813e-08,1.96103125e-01
-5.97207812e-08,1.96096875e-01
-5.96807812e-08,1.96103125e-01
-5.96407812e-08,1.96096875e-01
-5.96007812e-08,1.96103125e-01
-5.95607812e-08,1.96095313e-01
-5.95207812e-08,1.96104688e-01
-5.94807812e-08,1.96095313e-01
-5.94407812e-08,1.96104688e-01
-5.94007812e-08,1.96095313e-01
-5.93607812e-08,1.96104688e-01
-5.93207812e-08,1.96095313e-01
-5.92807812e-08,1.96104688e-01
-5.92407812e-08,1.96093750e-01
-5.92007812e-08,1.96106250e-01
-5.91607812e-08,1.96093750e-01
-5.91207812e-08,1.96106250e-01
-5.90807812e-08,1.96092188e-01
-5.90407812e-08,1.96107813e-01
-5.90007812e-08,1.96090625e-01
-5.89607812e-08,1.96110937e-01
-5.89207812e-08,1.96087500e-01
-5.88807812e-08,1.96115625e-01
-5.88407812e-08,1.96079688e-01
-5.88007812e-08,1.96131250e-01
-5.87607812e-08,1.96045313e-01
-5.87207812e-08,1.96307813e-01
-5.86807812e-08,1.96554688e-01
-5.86407812e-08,1.96470313e-01
-5.86007812e-08,1.96521875e-01
-5.85607812e-08,1.96484375e-01
-5.85207812e-08,1.96514063e-01
-5.84807812e-08,1.96487500e-01
-5.84407812e-08,1.96510938e-01
-5.84007812e-08,1.96490625e-01
-5.83607812e-08,1.96509375e-01
-5.83207812e-08,1.96490625e-01
-5.82807812e-08,1.96509375e-01
-5.82407812e-08,1.96489063e-01
-5.82007812e-08,1.96510938e-01
-5.81607812e-08,1.96487500e-01
-5.81207812e-08,1.96515625e-01
-5.80807812e-08,1.96479687e-01
-5.80407812e-08,1.96529687e-01
-5.80007812e-08,1.96446875e-01
-5.79607812e-08,1.96706250e-01
-5.79207812e-08,1.96956250e-01
-5.78807812e-08,1.96867188e-01
-5.78407812e-08,1.96923438e-01
-5.78007812e-08,1.96881250e-01
-5.77607812e-08,1.96917188e-01
-5.77207812e-08,1.96884375e-01
-5.76807812e-08,1.96915625e-01
-5.76407812e-08,1.96885937e-01
-5.76007812e-08,1.96915625e-01
-5.75607812e-08,1.96884375e-01
-5.75207812e-08,1.96917188e-01
-5.74807812e-08,1.96879688e-01
-5.74407812e-08,1.96925000e-01
-5.74007812e-08,1.96865625e-01
-5.73607812e-08,1.96957812e-01
-5.73207812e-08,1.96689063e-01
-5.72807812e-08,1.96448438e-01
-5.72407812e-08,1.96528125e-01
-5.72007812e-08,1.96481250e-01
-5.71607812e-08,1.96514063e-01
-5.71207812e-08,1.96489063e-01
-5.70807812e-08,1.96509375e-01
-5.70407812e-08,1.96492187e-01
-5.70007812e-08,1.96507813e-01
-5.69607812e-08,1.96492187e-01
-5.69207812e-08,1.96507813e-01
-5.68807812e-08,1.96492187e-01
-5.68407812e-08,1.96509375e-01
-5.68007812e-08,1.96489063e-01
-5.67607812e-08,1.96512500e-01
-5.67207812e-08,1.96482812e-01
-5.66807812e-08,1.96526563e-01
-5.66407812e-08,1.96448438e-01
-5.66007812e-08,1.96704688e-01
-5.65607812e-08,1.96959375e-01
-5.65207812e-08,1.96864062e-01
-5.64807812e-08,1.96926563e-01
-5.64407812e-08,1.96878125e-01
-5.64007812e-08,1.96920312e-01
-5.63607812e-08,1.96881250e-01
-5.63207812e-08,1.96917188e-01
-5.62807812e-08,1.96882813e-01
-5.62407812e-08,1.96917188e-01
-5.62007812e-08,1.96882813e-01
-5.61607812e-08,1.96917188e-01
-5.61207812e-08,1.96881250e-01
-5.60807812e-08,1.96920312e-01
-5.60407812e-08,1.96878125e-01
-5.60007812e-08,1.96925000e-01
-5.59607812e-08,1.96868750e-01
-5.59207812e-08,1.96940625e-01
-5.58807812e-08,1.96834375e-01
-5.58407812e-08,1.97118750e-01
-5.58007812e-08,1.97342188e-01
-5.57607812e-08,1.97282813e-01
-5.57207812e-08,1.97307813e-01
-5.56807812e-08,1.97298438e-01
-5.56407812e-08,1.97296875e-01
-5.56007812e-08,1.97306250e-01
-5.55607812e-08,1.97289063e-01
-5.55207812e-08,1.97314062e-01
-5.54807812e-08,1.97279688e-01
-5.54407812e-08,1.97331250e-01
-5.54007812e-08,1.97242187e-01
-5.53607812e-08,1.97512500e-01
-5.53207812e-08,1.97748438e-01
-5.52807812e-08,1.97676563e-01
-5.52407812e-08,1.97712500e-01
-5.52007812e-08,1.97693750e-01
-5.51607812e-08,1.97700000e-01
-5.51207812e-08,1.97704688e-01
-5.50807812e-08,1.97687500e-01
-5.50407812e-08,1.97723438e-01
-5.50007812e-08,1.97650000e-01
-5.49607812e-08,1.97903125e-01
-5.49207812e-08,1.98157813e-01
-5.48807812e-08,1.98067188e-01
-5.48407812e-08,1.98121875e-01
-5.48007812e-08,1.98084375e-01
-5.47607812e-08,1.98110938e-01
-5.47207812e-08,1.98092188e-01
-5.46807812e-08,1.98103125e-01
-5.46407812e-08,1.98101562e-01
-5.46007812e-08,1.98093750e-01
-5.45607812e-08,1.98117188e-01
-5.45207812e-08,1.98056250e-01
-5.44807812e-08,1.98296875e-01
-5.44407812e-08,1.98565625e-01
-5.44007812e-08,1.98459375e-01
-5.43607812e-08,1.98531250e-01
-5.43207812e-08,1.98475000e-01
-5.42807812e-08,1.98521875e-01
-5.42407812e-08,1.98479688e-01
-5.42007812e-08,1.98518750e-01
-5.41607812e-08,1.98482812e-01
-5.41207812e-08,1.98515625e-01
-5.40807812e-08,1.98484375e-01
-5.40407812e-08,1.98514063e-01
-5.40007812e-08,1.98485938e-01
-5.39607812e-08,1.98512500e-01
-5.39207812e-08,1.98487500e-01
-5.38807812e-08,1.98512500e-01
-5.38407812e-08,1.98487500e-01
-5.38007812e-08,1.98510938e-01
-5.37607812e-08,1.98489063e-01
-5.37207812e-08,1.98510938e-01
-5.36807812e-08,1.98489063e-01
-5.36407812e-08,1.98510938e-01
-5.36007812e-08,1.98489063e-01
-5.35607812e-08,1.98510938e-01
-5.35207812e-08,1.98489063e-01
-5.34807812e-08,1.98510938e-01
-5.34407812e-08,1.98489063e-01
-5.34007812e-08,1.98510938e-01
-5.33607812e-08,1.98489063e-01
-5.33207812e-08,1.98510938e-01
-5.32807812e-08,1.98489063e-01
-5.32407812e-08,1.98510938e-01
-5.32007812e-08,1.98489063e-01
-5.31607812e-08,1.98512500e-01
-5.31207812e-08,1.98487500e-01
-5.30807812e-08,1.98512500e-01
-5.30407812e-08,1.98485938e-01
-5.30007812e-08,1.98514063e-01
-5.29607812e-08,1.98484375e-01
-5.29207812e-08,1.98517187e-01
-5.28807812e-08,1.98481250e-01
-5.28407812e-08,1.98521875e-01
-5.28007812e-08,1.98473438e-01
-5.27607812e-08,1.98537500e-01
-5.27207812e-08,1.98437500e-01
-5.26807812e-08,1.98715625e-01
-5.26407812e-08,1.98946875e-01
-5.26007812e-08,1.98876563e-01
-5.25607812e-08,1.98914063e-01
-5.25207812e-08,1.98890625e-01
-5.24807812e-08,1.98906250e-01
-5.24407813e-08,1.98896875e-01
-5.24007812e-08,1.98901563e-01
-5.23607812e-08,1.98900000e-01
-5.23207812e-08,1.98900000e-01
-5.22807812e-08,1.98901563e-01
-5.22407812e-08,1.98896875e-01
-5.22007812e-08,1.98903125e-01
-5.21607812e-08,1.98895313e-01
-5.21207812e-08,1.98904688e-01
-5.20807812e-08,1.98893750e-01
-5.20407812e-08,1.98906250e-01
-5.20007812e-08,1.98892188e-01
-5.19607812e-08,1.98909375e-01
-5.19207812e-08,1.98889063e-01
-5.18807812e-08,1.98914063e-01
-5.18407812e-08,1.98882813e-01
-5.18007812e-08,1.98921875e-01
-5.17607812e-08,1.98868750e-01
-5.17207812e-08,1.98956250e-01
-5.16807812e-08,1.98689063e-01
-5.16407812e-08,1.98448438e-01
-5.16007812e-08,1.98528125e-01
-5.15607812e-08,1.98482812e-01
-5.15207812e-08,1.98512500e-01
-5.14807812e-08,1.98490625e-01
-5.14407812e-08,1.98506250e-01
-5.14007812e-08,1.98495313e-01
-5.13607812e-08,1.98501563e-01
-5.13207812e-08,1.98500000e-01
-5.12807812e-08,1.98498438e-01
-5.12407812e-08,1.98504687e-01
-5.12007812e-08,1.98492188e-01
-5.11607812e-08,1.98514063e-01
-5.11207812e-08,1.98476563e-01
-5.10807812e-08,1.98548438e-01
-5.10407812e-08,1.98298438e-01
-5.10007812e-08,1.98039063e-01
-5.09607812e-08,1.98135937e-01
-5.09207812e-08,1.98073438e-01
-5.08807812e-08,1.98121875e-01
-5.08407812e-08,1.98081250e-01
-5.08007812e-08,1.98117188e-01
-5.07607812e-08,1.98084375e-01
-5.07207812e-08,1.98115625e-01
-5.06807812e-08,1.98085938e-01
-5.06407812e-08,1.98114063e-01
-5.06007812e-08,1.98085938e-01
-5.05607812e-08,1.98114063e-01
-5.05207813e-08,1.98085938e-01
-5.04807812e-08,1.98114063e-01
-5.04407812e-08,1.98085938e-01
-5.04007812e-08,1.98115625e-01
-5.03607812e-08,1.98082813e-01
-5.03207812e-08,1.98118750e-01
-5.02807812e-08,1.98078125e-01
-5.02407812e-08,1.98126563e-01
-5.02007812e-08,1.98064062e-01
-5.01607812e-08,1.98160938e-01
-5.01207812e-08,1.97887500e-01
-5.00807812e-08,1.97651563e-01
-5.00407812e-08,1.97725000e-01
-5.00007812e-08,1.97684375e-01
-4.99607812e-08,1.97710938e-01
-4.99207812e-08,1.97692188e-01
-4.98807812e-08,1.97706250e-01
-4.98407812e-08,1.97695312e-01
-4.98007812e-08,1.97704688e-01
-4.97607812e-08,1.97696875e-01
-4.97207812e-08,1.97703125e-01
-4.96807812e-08,1.97698438e-01
-4.96407812e-08,1.97701563e-01
-4.96007812e-08,1.97698438e-01
-4.95607812e-08,1.97701563e-01
-4.95207812e-08,1.97700000e-01
-4.94807812e-08,1.97700000e-01
-4.94407812e-08,1.97700000e-01
-4.94007812e-08,1.97700000e-01
-4.93607812e-08,1.97700000e-01
-4.93207812e-08,1.97700000e-01
-4.92807812e-08,1.97700000e-01
-4.92407812e-08,1.97700000e-01
-4.92007812e-08,1.97701563e-01
-4.91607812e-08,1.97698438e-01
-4.91207812e-08,1.97701563e-01
-4.90807812e-08,1.97698438e-01
-4.90407812e-08,1.97701563e-01
-4.90007812e-08,1.97698438e-01
-4.89607812e-08,1.97701563e-01
-4.89207812e-08,1.97698438e-01
-4.88807813e-08,1.97701563e-01
-4.88407812e-08,1.97698438e-01
-4.88007812e-08,1.97701563e-01
-4.87607812e-08,1.97698438e-01
-4.87207812e-08,1.97703125e-01
-4.86807812e-08,1.97696875e-01
-4.86407812e-08,1.97703125e-01
-4.86007813e-08,1.97696875e-01
-4.85607812e-08,1.97703125e-01
-4.85207812e-08,1.97696875e-01
-4.84807812e-08,1.97703125e-01
-4.84407812e-08,1.97695312e-01
-4.84007812e-08,1.97704688e-01
-4.83607812e-08,1.97695312e-01
-4.83207813e-08,1.97706250e-01
-4.82807812e-08,1.97693750e-01
-4.82407812e-08,1.97706250e-01
-4.82007812e-08,1.97692188e-01
-4.81607812e-08,1.97709375e-01
-4.81207812e-08,1.97689063e-01
-4.80807812e-08,1.97712500e-01
-4.80407812e-08,1.97684375e-01
-4.80007812e-08,1.97720312e-01
-4.79607812e-08,1.97670313e-01
-4.79207812e-08,1.97754687e-01
-4.78807812e-08,1.97492187e-01
-4.78407812e-08,1.97245313e-01
-4.78007812e-08,1.97329688e-01
-4.77607812e-08,1.97279688e-01
-4.77207812e-08,1.97315625e-01
-4.76807812e-08,1.97287500e-01
-4.76407812e-08,1.97310938e-01
-4.76007812e-08,1.97290625e-01
-4.75607812e-08,1.97307813e-01
-4.75207812e-08,1.97292187e-01
-4.74807812e-08,1.97306250e-01
-4.74407812e-08,1.97293750e-01
-4.74007812e-08,1.97304688e-01
-4.73607812e-08,1.97295313e-01
-4.73207812e-08,1.97304688e-01
-4.72807812e-08,1.97295313e-01
-4.72407812e-08,1.97303125e-01
-4.72007812e-08,1.97296875e-01
-4.71607812e-08,1.97303125e-01
-4.71207812e-08,1.97296875e-01
-4.70807812e-08,1.97303125e-01
-4.70407812e-08,1.97296875e-01
-4.70007812e-08,1.97303125e-01
-4.69607813e-08,1.97296875e-01
-4.69207812e-08,1.97303125e-01
-4.68807812e-08,1.97298438e-01
-4.68407812e-08,1.97301562e-01
-4.68007812e-08,1.97298438e-01
-4.67607812e-08,1.97301562e-01
-4.67207812e-08,1.97298438e-01
-4.66807813e-08,1.97301562e-01
-4.66407812e-08,1.97298438e-01
-4.66007812e-08,1.97301562e-01
-4.65607812e-08,1.97298438e-01
-4.65207812e-08,1.97301562e-01
-4.64807812e-08,1.97298438e-01
-4.64407812e-08,1.97301562e-01
-4.64007813e-08,1.97298438e-01
-4.63607812e-08,1.97300000e-01
-4.63207812e-08,1.97300000e-01
-4.62807812e-08,1.97300000e-01
-4.62407812e-08,1.97300000e-01
-4.62007812e-08,1.97300000e-01
-4.61607812e-08,1.97300000e-01
-4.61207813e-08,1.97300000e-01
-4.60807812e-08,1.97300000e-01
-4.60407812e-08,1.97300000e-01
-4.60007812e-08,1.97301562e-01
-4.59607812e-08,1.97298438e-01
-4.59207812e-08,1.97301562e-01
-4.58807812e-08,1.97298438e-01
-4.58407812e-08,1.97301562e-01
-4.58007812e-08,1.97296875e-01
-4.57607812e-08,1.97303125e-01
-4.57207812e-08,1.97295313e-01
-4.56807812e-08,1.97304688e-01
-4.56407812e-08,1.97293750e-01
-4.56007812e-08,1.97307813e-01
-4.55607812e-08,1.97290625e-01
-4.55207812e-08,1.97312500e-01
-4.54807812e-08,1.97282813e-01
-4.54407812e-08,1.97328125e-01
-4.54007812e-08,1.97246875e-01
-4.53607812e-08,1.97506250e-01
-4.53207812e-08,1.97756250e-01
-4.52807812e-08,1.97667188e-01
-4.52407812e-08,1.97721875e-01
-4.52007812e-08,1.97682812e-01
-4.51607812e-08,1.97714063e-01
-4.51207812e-08,1.97689063e-01
-4.50807812e-08,1.97709375e-01
-4.50407813e-08,1.97692188e-01
-4.50007812e-08,1.97704688e-01
-4.49607812e-08,1.97698438e-01
-4.49207812e-08,1.97696875e-01
-4.48807812e-08,1.97712500e-01
-4.48407812e-08,1.97662500e-01
-4.48007812e-08,1.97890625e-01
-4.47607813e-08,1.98173437e-01
-4.47207812e-08,1.98050000e-01
-4.46807812e-08,1.98143750e-01
-4.46407812e-08,1.98059375e-01
-4.46007812e-08,1.98140625e-01
-4.45607812e-08,1.98056250e-01
-4.45207812e-08,1.98153125e-01
-4.44807813e-08,1.98021875e-01
-4.44407812e-08,1.98331250e-01
-4.44007812e-08,1.98531250e-01
-4.43607812e-08,1.98493750e-01
-4.43207812e-08,1.98493750e-01
-4.42807812e-08,1.98514063e-01
-4.42407812e-08,1.98478125e-01
-4.42007813e-08,1.98534375e-01
-4.41607812e-08,1.98439063e-01
-4.41207812e-08,1.98715625e-01
-4.40807812e-08,1.98945312e-01
-4.40407812e-08,1.98881250e-01
-4.40007812e-08,1.98906250e-01
-4.39607812e-08,1.98901563e-01
-4.39207813e-08,1.98889063e-01
-4.38807812e-08,1.98921875e-01
-4.38407812e-08,1.98850000e-01
-4.38007812e-08,1.99104688e-01
-4.37607812e-08,1.99356250e-01
-4.37207812e-08,1.99268750e-01
-4.36807812e-08,1.99320313e-01
-4.36407812e-08,1.99287500e-01
-4.36007812e-08,1.99307813e-01
-4.35607812e-08,1.99298438e-01
-4.35207812e-08,1.99295313e-01
-4.34807812e-08,1.99315625e-01
-4.34407812e-08,1.99259375e-01
-4.34007812e-08,1.99495313e-01
-4.33607812e-08,1.99767187e-01
-4.33207812e-08,1.99657813e-01
-4.32807812e-08,1.99732813e-01
-4.32407812e-08,1.99671875e-01
-4.32007812e-08,1.99725000e-01
-4.31607812e-08,1.99678125e-01
-4.31207813e-08,1.99720312e-01
-4.30807812e-08,1.99679688e-01
-4.30407812e-08,1.99720312e-01
-4.30007812e-08,1.99681250e-01
-4.29607812e-08,1.99720312e-01
-4.29207812e-08,1.99679688e-01
-4.28807812e-08,1.99720312e-01
-4.28407813e-08,1.99676563e-01
-4.28007812e-08,1.99725000e-01
-4.27607812e-08,1.99670313e-01
-4.27207812e-08,1.99739063e-01
-4.26807812e-08,1.99635937e-01
-4.26407812e-08,1.99917188e-01
-4.26007812e-08,2.00145313e-01
-4.25607813e-08,2.00078125e-01
-4.25207812e-08,2.00112500e-01
-4.24807812e-08,2.00092188e-01
-4.24407812e-08,2.00104688e-01
-4.24007812e-08,2.00096875e-01
-4.23607812e-08,2.00101562e-01
-4.23207812e-08,2.00100000e-01
-4.22807813e-08,2.00100000e-01
-4.22407812e-08,2.00101562e-01
-4.22007812e-08,2.00098438e-01
-4.21607812e-08,2.00103125e-01
-4.21207812e-08,2.00096875e-01
-4.20807812e-08,2.00103125e-01
-4.20407812e-08,2.00095313e-01
-4.20007813e-08,2.00104688e-01
-4.19607812e-08,2.00093750e-01
-4.19207812e-08,2.00106250e-01
-4.18807812e-08,2.00092188e-01
-4.18407812e-08,2.00107813e-01
-4.18007812e-08,2.00090625e-01
-4.17607812e-08,2.00110938e-01
-4.17207813e-08,2.00087500e-01
-4.16807812e-08,2.00115625e-01
-4.16407812e-08,2.00078125e-01
-4.16007812e-08,2.00131250e-01
-4.15607812e-08,2.00043750e-01
-4.15207812e-08,2.00309375e-01
-4.14807812e-08,2.00553125e-01
-4.14407812e-08,2.00470312e-01
-4.14007812e-08,2.00520313e-01
-4.13607812e-08,2.00484375e-01
-4.13207812e-08,2.00512500e-01
-4.12807812e-08,2.00490625e-01
-4.12407812e-08,2.00507812e-01
-4.12007813e-08,2.00492188e-01
-4.11607812e-08,2.00506250e-01
-4.11207812e-08,2.00493750e-01
-4.10807812e-08,2.00504688e-01
-4.10407812e-08,2.00495313e-01
-4.10007812e-08,2.00504688e-01
-4.09607812e-08,2.00495313e-01
-4.09207813e-08,2.00503125e-01
-4.08807812e-08,2.00496875e-01
-4.08407812e-08,2.00503125e-01
-4.08007812e-08,2.00496875e-01
-4.07607812e-08,2.00503125e-01
-4.07207812e-08,2.00496875e-01
-4.06807812e-08,2.00503125e-01
-4.06407813e-08,2.00496875e-01
-4.06007812e-08,2.00503125e-01
-4.05607812e-08,2.00496875e-01
-4.05207812e-08,2.00503125e-01
-4.04807812e-08,2.00496875e-01
-4.04407812e-08,2.00503125e-01
-4.04007812e-08,2.00496875e-01
-4.03607813e-08,2.00503125e-01
-4.03207812e-08,2.00496875e-01
-4.02807812e-08,2.00503125e-01
-4.02407812e-08,2.00496875e-01
-4.02007812e-08,2.00504688e-01
-4.01607812e-08,2.00495313e-01
-4.01207812e-08,2.00506250e-01
-4.00807813e-08,2.00492188e-01
-4.00407812e-08,2.00509375e-01
-4.00007812e-08,2.00489063e-01
-3.99607812e-08,2.00517187e-01
-3.99207812e-08,2.00475000e-01
-3.98807812e-08,2.00550000e-01
-3.98407812e-08,2.00296875e-01
-3.98007813e-08,2.00040625e-01
-3.97607812e-08,2.00135937e-01
-3.97207812e-08,2.00071875e-01
-3.96807812e-08,2.00123438e-01
-3.96407812e-08,2.00078125e-01
-3.96007812e-08,2.00120313e-01
-3.95607812e-08,2.00079688e-01
-3.95207813e-08,2.00121875e-01
-3.94807812e-08,2.00075000e-01
-3.94407812e-08,2.00129688e-01
-3.94007812e-08,2.00060938e-01
-3.93607812e-08,2.00162500e-01
-3.93207812e-08,1.99884375e-01
-3.92807813e-08,1.99653125e-01
-3.92407812e-08,1.99723438e-01
-3.92007812e-08,1.99687500e-01
-3.91607812e-08,1.99707812e-01
-3.91207812e-08,1.99695312e-01
-3.90807812e-08,1.99703125e-01
-3.90407812e-08,1.99698437e-01
-3.90007813e-08,1.99700000e-01
-3.89607812e-08,1.99701563e-01
-3.89207812e-08,1.99696875e-01
-3.88807812e-08,1.99704688e-01
-3.88407812e-08,1.99692188e-01
-3.88007812e-08,1.99709375e-01
-3.87607812e-08,1.99687500e-01
-3.87207813e-08,1.99718750e-01
-3.86807812e-08,1.99671875e-01
-3.86407812e-08,1.99753125e-01
-3.86007812e-08,1.99493750e-01
-3.85607812e-08,1.99243750e-01
-3.85207812e-08,1.99331250e-01
